src/vary_led_1562/temp0009976.CSV

Format,1.0B,
Memory Length,10000,Memory Length,10000,
IntpDistance,0,IntpDistance,0,
Trigger Address,5159,Trigger Address,5159,
Trigger Level,3.000E-01,Trigger Level,3.000E-01,
Source,CH1,Source,CH2,
Vertical Units,V,Vertical Units,V,
Vertical Units Div,0,Vertical Units Div,0,
Vertical Units Extend Div,16,Vertical Units Extend Div,16,
Label,,Label,,
Probe Type,0,Probe Type,0,
Probe Ratio,1.000e+01,Probe Ratio,1.000e+00,
Vertical Scale,5.000e-01,Vertical Scale,2.000e-01,
Vertical Position,-1.780e+00,Vertical Position,-2.240e+00,
Horizontal Units,S,Horizontal Units,S,
Horizontal Scale,2.000E-05,Horizontal Scale,2.000E-05,
Horizontal Position,-3.200E-06,Horizontal Position,-3.200E-06,
Horizontal Mode,Main,Horizontal Mode,Main,
SincET Mode,Real Time,SincET Mode,Real Time,
Sampling Period,2.000e-08,Sampling Period,2.000e-08,
Horizontal Old Scale,2.000E-05,Horizontal Old Scale,2.000E-05,
Horizontal Old Position,-3.200E-06,Horizontal Old Position,-3.200E-06,
Firmware,V1.23,Firmware,V1.23,
Mode,Fast,Mode,Fast,
Waveform Data,,Waveform Data,,
4, ,316, ,
3, ,318, ,
3, ,317, ,
3, ,318, ,
3, ,317, ,
1, ,318, ,
4, ,317, ,
3, ,319, ,
1, ,318, ,
3, ,317, ,
3, ,318, ,
1, ,320, ,
4, ,317, ,
1, ,318, ,
1, ,318, ,
3, ,318, ,
3, ,317, ,
1, ,318, ,
3, ,317, ,
3, ,318, ,
3, ,317, ,
3, ,317, ,
3, ,317, ,
1, ,319, ,
3, ,316, ,
1, ,317, ,
1, ,318, ,
3, ,318, ,
3, ,317, ,
1, ,318, ,
3, ,316, ,
3, ,318, ,
3, ,317, ,
3, ,317, ,
3, ,318, ,
1, ,319, ,
3, ,315, ,
1, ,317, ,
1, ,318, ,
3, ,317, ,
3, ,317, ,
1, ,318, ,
4, ,317, ,
1, ,319, ,
3, ,317, ,
3, ,317, ,
3, ,317, ,
1, ,320, ,
3, ,316, ,
3, ,317, ,
3, ,317, ,
3, ,318, ,
3, ,317, ,
1, ,319, ,
3, ,317, ,
1, ,319, ,
1, ,317, ,
3, ,318, ,
1, ,317, ,
1, ,319, ,
3, ,317, ,
1, ,317, ,
1, ,317, ,
3, ,318, ,
3, ,317, ,
1, ,317, ,
3, ,318, ,
3, ,318, ,
1, ,317, ,
3, ,317, ,
1, ,317, ,
1, ,319, ,
3, ,317, ,
1, ,318, ,
1, ,318, ,
3, ,317, ,
3, ,317, ,
1, ,319, ,
3, ,317, ,
3, ,319, ,
1, ,317, ,
3, ,317, ,
3, ,317, ,
1, ,320, ,
3, ,316, ,
1, ,318, ,
1, ,318, ,
3, ,318, ,
1, ,317, ,
1, ,318, ,
3, ,317, ,
1, ,318, ,
1, ,317, ,
3, ,317, ,
1, ,317, ,
1, ,320, ,
3, ,317, ,
1, ,317, ,
1, ,317, ,
3, ,318, ,
3, ,317, ,
1, ,318, ,
3, ,317, ,
1, ,318, ,
1, ,317, ,
3, ,317, ,
1, ,317, ,
1, ,320, ,
3, ,316, ,
3, ,318, ,
1, ,317, ,
3, ,318, ,
1, ,317, ,
1, ,318, ,
3, ,316, ,
1, ,318, ,
1, ,317, ,
3, ,317, ,
1, ,317, ,
1, ,318, ,
3, ,317, ,
1, ,317, ,
1, ,317, ,
3, ,318, ,
3, ,317, ,
1, ,318, ,
3, ,317, ,
1, ,319, ,
1, ,317, ,
3, ,317, ,
3, ,317, ,
1, ,319, ,
3, ,315, ,
1, ,317, ,
1, ,317, ,
3, ,318, ,
1, ,317, ,
1, ,319, ,
3, ,317, ,
1, ,318, ,
3, ,317, ,
3, ,317, ,
3, ,318, ,
1, ,319, ,
3, ,317, ,
1, ,317, ,
3, ,318, ,
3, ,317, ,
3, ,317, ,
1, ,318, ,
3, ,317, ,
1, ,319, ,
1, ,318, ,
3, ,317, ,
1, ,316, ,
1, ,319, ,
3, ,315, ,
1, ,318, ,
1, ,318, ,
3, ,318, ,
1, ,317, ,
1, ,319, ,
3, ,317, ,
1, ,317, ,
1, ,317, ,
3, ,317, ,
1, ,317, ,
1, ,319, ,
3, ,316, ,
1, ,318, ,
1, ,319, ,
3, ,318, ,
1, ,318, ,
1, ,319, ,
3, ,317, ,
3, ,318, ,
1, ,317, ,
3, ,317, ,
1, ,318, ,
1, ,319, ,
3, ,317, ,
1, ,317, ,
1, ,317, ,
3, ,318, ,
1, ,317, ,
1, ,319, ,
3, ,317, ,
1, ,319, ,
1, ,317, ,
3, ,317, ,
1, ,318, ,
1, ,319, ,
3, ,315, ,
1, ,318, ,
1, ,317, ,
3, ,317, ,
1, ,317, ,
0, ,319, ,
3, ,317, ,
1, ,318, ,
1, ,317, ,
3, ,317, ,
1, ,318, ,
0, ,320, ,
3, ,316, ,
1, ,317, ,
1, ,317, ,
3, ,318, ,
1, ,317, ,
0, ,318, ,
3, ,317, ,
1, ,318, ,
1, ,317, ,
3, ,317, ,
1, ,318, ,
0, ,320, ,
3, ,317, ,
1, ,319, ,
1, ,318, ,
3, ,319, ,
1, ,317, ,
0, ,319, ,
3, ,317, ,
1, ,319, ,
1, ,317, ,
3, ,318, ,
1, ,319, ,
0, ,321, ,
3, ,316, ,
1, ,317, ,
1, ,318, ,
1, ,318, ,
1, ,318, ,
0, ,319, ,
3, ,317, ,
1, ,318, ,
1, ,317, ,
3, ,317, ,
3, ,317, ,
0, ,317, ,
3, ,314, ,
1, ,315, ,
1, ,316, ,
3, ,320, ,
1, ,320, ,
0, ,321, ,
3, ,318, ,
1, ,318, ,
1, ,316, ,
3, ,315, ,
1, ,317, ,
0, ,319, ,
3, ,316, ,
1, ,317, ,
1, ,319, ,
3, ,318, ,
1, ,317, ,
0, ,317, ,
3, ,317, ,
1, ,318, ,
1, ,316, ,
3, ,317, ,
1, ,317, ,
0, ,319, ,
3, ,316, ,
1, ,317, ,
1, ,317, ,
1, ,318, ,
1, ,317, ,
0, ,316, ,
3, ,317, ,
1, ,318, ,
1, ,317, ,
3, ,316, ,
3, ,317, ,
0, ,319, ,
3, ,315, ,
1, ,318, ,
1, ,318, ,
3, ,317, ,
1, ,317, ,
0, ,319, ,
3, ,317, ,
1, ,317, ,
1, ,317, ,
3, ,317, ,
1, ,317, ,
0, ,318, ,
3, ,315, ,
1, ,317, ,
1, ,317, ,
3, ,317, ,
1, ,317, ,
0, ,318, ,
3, ,316, ,
1, ,317, ,
1, ,317, ,
3, ,317, ,
1, ,318, ,
0, ,319, ,
3, ,316, ,
1, ,317, ,
1, ,317, ,
1, ,317, ,
1, ,317, ,
0, ,317, ,
3, ,317, ,
1, ,319, ,
1, ,316, ,
3, ,317, ,
1, ,316, ,
0, ,319, ,
3, ,317, ,
1, ,317, ,
1, ,317, ,
3, ,318, ,
1, ,317, ,
0, ,319, ,
3, ,317, ,
1, ,318, ,
1, ,317, ,
3, ,317, ,
1, ,317, ,
0, ,319, ,
3, ,316, ,
1, ,317, ,
1, ,317, ,
1, ,317, ,
1, ,317, ,
0, ,318, ,
3, ,315, ,
1, ,318, ,
1, ,317, ,
1, ,317, ,
1, ,317, ,
0, ,319, ,
3, ,315, ,
1, ,317, ,
1, ,317, ,
1, ,318, ,
1, ,317, ,
0, ,317, ,
3, ,317, ,
1, ,319, ,
1, ,317, ,
3, ,317, ,
1, ,317, ,
0, ,319, ,
3, ,317, ,
1, ,318, ,
1, ,319, ,
3, ,318, ,
1, ,318, ,
0, ,318, ,
3, ,317, ,
1, ,318, ,
1, ,317, ,
3, ,317, ,
1, ,318, ,
0, ,319, ,
3, ,317, ,
1, ,317, ,
1, ,317, ,
1, ,317, ,
1, ,317, ,
0, ,317, ,
3, ,318, ,
1, ,319, ,
1, ,317, ,
3, ,317, ,
1, ,317, ,
0, ,320, ,
3, ,317, ,
1, ,317, ,
1, ,317, ,
3, ,317, ,
1, ,317, ,
0, ,318, ,
3, ,317, ,
1, ,318, ,
1, ,317, ,
3, ,317, ,
1, ,317, ,
0, ,319, ,
3, ,316, ,
1, ,318, ,
1, ,319, ,
1, ,318, ,
1, ,317, ,
0, ,318, ,
3, ,318, ,
1, ,319, ,
1, ,317, ,
1, ,318, ,
3, ,318, ,
0, ,320, ,
3, ,317, ,
1, ,317, ,
1, ,319, ,
1, ,318, ,
1, ,317, ,
0, ,319, ,
3, ,317, ,
1, ,319, ,
1, ,318, ,
1, ,309, ,
1, ,317, ,
0, ,327, ,
3, ,323, ,
1, ,317, ,
1, ,315, ,
1, ,317, ,
1, ,317, ,
0, ,318, ,
3, ,318, ,
1, ,319, ,
1, ,318, ,
1, ,316, ,
1, ,317, ,
0, ,320, ,
3, ,317, ,
1, ,317, ,
1, ,317, ,
1, ,319, ,
1, ,318, ,
0, ,319, ,
3, ,317, ,
1, ,319, ,
1, ,316, ,
1, ,317, ,
1, ,317, ,
0, ,319, ,
3, ,317, ,
1, ,318, ,
1, ,318, ,
3, ,318, ,
1, ,317, ,
0, ,318, ,
3, ,318, ,
1, ,318, ,
1, ,317, ,
1, ,317, ,
1, ,318, ,
0, ,320, ,
3, ,316, ,
1, ,317, ,
1, ,317, ,
1, ,317, ,
1, ,318, ,
0, ,318, ,
3, ,317, ,
1, ,319, ,
1, ,317, ,
3, ,317, ,
1, ,317, ,
0, ,319, ,
3, ,316, ,
1, ,318, ,
1, ,319, ,
1, ,318, ,
1, ,317, ,
0, ,319, ,
3, ,317, ,
1, ,319, ,
1, ,317, ,
1, ,318, ,
1, ,317, ,
0, ,319, ,
1, ,317, ,
1, ,318, ,
1, ,317, ,
1, ,318, ,
1, ,317, ,
0, ,318, ,
3, ,317, ,
1, ,318, ,
1, ,317, ,
3, ,317, ,
1, ,317, ,
0, ,319, ,
3, ,316, ,
1, ,318, ,
1, ,317, ,
1, ,317, ,
1, ,317, ,
0, ,318, ,
1, ,317, ,
1, ,318, ,
1, ,318, ,
1, ,317, ,
1, ,318, ,
0, ,320, ,
3, ,317, ,
1, ,317, ,
1, ,318, ,
3, ,318, ,
1, ,318, ,
0, ,318, ,
3, ,317, ,
1, ,319, ,
1, ,317, ,
1, ,318, ,
1, ,318, ,
0, ,319, ,
3, ,317, ,
1, ,318, ,
1, ,318, ,
1, ,317, ,
1, ,318, ,
0, ,317, ,
3, ,317, ,
1, ,318, ,
1, ,317, ,
3, ,317, ,
1, ,317, ,
0, ,319, ,
3, ,316, ,
1, ,317, ,
1, ,317, ,
1, ,318, ,
1, ,318, ,
0, ,319, ,
3, ,317, ,
1, ,319, ,
1, ,317, ,
3, ,318, ,
1, ,318, ,
0, ,319, ,
3, ,317, ,
1, ,317, ,
1, ,319, ,
3, ,318, ,
1, ,317, ,
0, ,319, ,
3, ,317, ,
1, ,318, ,
1, ,317, ,
1, ,317, ,
1, ,317, ,
0, ,319, ,
3, ,317, ,
1, ,317, ,
1, ,317, ,
1, ,318, ,
1, ,317, ,
0, ,318, ,
3, ,317, ,
1, ,318, ,
1, ,317, ,
1, ,318, ,
1, ,318, ,
0, ,319, ,
3, ,317, ,
1, ,317, ,
1, ,318, ,
3, ,318, ,
1, ,317, ,
0, ,319, ,
3, ,317, ,
1, ,319, ,
1, ,318, ,
1, ,317, ,
1, ,317, ,
0, ,319, ,
3, ,317, ,
1, ,318, ,
1, ,318, ,
1, ,318, ,
1, ,317, ,
0, ,318, ,
1, ,318, ,
1, ,318, ,
1, ,316, ,
1, ,316, ,
1, ,317, ,
0, ,320, ,
3, ,317, ,
1, ,319, ,
1, ,318, ,
1, ,318, ,
1, ,317, ,
0, ,318, ,
3, ,315, ,
1, ,318, ,
1, ,317, ,
1, ,317, ,
1, ,318, ,
0, ,319, ,
3, ,317, ,
1, ,317, ,
1, ,317, ,
1, ,318, ,
1, ,317, ,
0, ,319, ,
3, ,318, ,
1, ,319, ,
1, ,317, ,
1, ,317, ,
1, ,317, ,
0, ,320, ,
1, ,317, ,
1, ,317, ,
1, ,318, ,
3, ,318, ,
1, ,318, ,
0, ,319, ,
3, ,317, ,
1, ,319, ,
1, ,317, ,
1, ,317, ,
1, ,318, ,
0, ,320, ,
1, ,317, ,
1, ,317, ,
1, ,317, ,
1, ,318, ,
1, ,317, ,
0, ,317, ,
3, ,317, ,
1, ,319, ,
1, ,317, ,
1, ,317, ,
1, ,318, ,
0, ,319, ,
3, ,317, ,
1, ,319, ,
1, ,318, ,
1, ,318, ,
1, ,317, ,
0, ,319, ,
1, ,318, ,
1, ,318, ,
1, ,317, ,
1, ,318, ,
1, ,318, ,
0, ,321, ,
1, ,317, ,
1, ,317, ,
1, ,318, ,
1, ,318, ,
1, ,317, ,
0, ,319, ,
1, ,317, ,
1, ,319, ,
1, ,317, ,
1, ,317, ,
1, ,317, ,
0, ,319, ,
3, ,317, ,
1, ,317, ,
1, ,317, ,
1, ,318, ,
1, ,318, ,
0, ,318, ,
3, ,317, ,
1, ,319, ,
1, ,317, ,
1, ,317, ,
1, ,317, ,
0, ,319, ,
3, ,317, ,
1, ,317, ,
1, ,317, ,
1, ,317, ,
1, ,317, ,
0, ,318, ,
3, ,317, ,
1, ,319, ,
1, ,317, ,
1, ,318, ,
1, ,317, ,
0, ,318, ,
3, ,316, ,
1, ,318, ,
1, ,317, ,
1, ,318, ,
1, ,317, ,
0, ,318, ,
3, ,317, ,
1, ,318, ,
1, ,317, ,
1, ,318, ,
1, ,317, ,
0, ,319, ,
3, ,317, ,
1, ,317, ,
1, ,317, ,
1, ,318, ,
1, ,316, ,
0, ,318, ,
3, ,317, ,
1, ,318, ,
0, ,317, ,
1, ,317, ,
1, ,317, ,
0, ,319, ,
1, ,317, ,
1, ,317, ,
1, ,319, ,
1, ,319, ,
1, ,317, ,
0, ,317, ,
1, ,318, ,
1, ,318, ,
1, ,317, ,
1, ,318, ,
1, ,318, ,
0, ,319, ,
3, ,315, ,
0, ,317, ,
1, ,317, ,
1, ,318, ,
1, ,316, ,
0, ,318, ,
3, ,317, ,
1, ,318, ,
0, ,317, ,
1, ,318, ,
1, ,317, ,
0, ,318, ,
1, ,316, ,
1, ,319, ,
1, ,318, ,
1, ,318, ,
1, ,317, ,
0, ,319, ,
1, ,317, ,
1, ,318, ,
1, ,317, ,
1, ,317, ,
1, ,318, ,
0, ,319, ,
1, ,317, ,
1, ,318, ,
1, ,317, ,
1, ,318, ,
1, ,317, ,
0, ,318, ,
1, ,317, ,
1, ,319, ,
1, ,317, ,
1, ,317, ,
1, ,318, ,
0, ,319, ,
3, ,317, ,
1, ,317, ,
1, ,317, ,
1, ,318, ,
1, ,317, ,
0, ,319, ,
3, ,317, ,
1, ,318, ,
1, ,317, ,
1, ,317, ,
1, ,317, ,
0, ,319, ,
1, ,317, ,
1, ,317, ,
1, ,318, ,
1, ,317, ,
1, ,318, ,
0, ,317, ,
1, ,317, ,
1, ,318, ,
1, ,317, ,
1, ,317, ,
1, ,317, ,
0, ,319, ,
1, ,317, ,
1, ,319, ,
1, ,317, ,
1, ,319, ,
1, ,317, ,
0, ,318, ,
1, ,317, ,
1, ,318, ,
1, ,317, ,
1, ,317, ,
1, ,317, ,
0, ,320, ,
3, ,317, ,
1, ,317, ,
1, ,317, ,
1, ,318, ,
1, ,317, ,
0, ,319, ,
1, ,317, ,
1, ,317, ,
1, ,317, ,
1, ,318, ,
1, ,318, ,
0, ,319, ,
3, ,316, ,
1, ,317, ,
1, ,318, ,
1, ,318, ,
1, ,317, ,
0, ,319, ,
1, ,318, ,
1, ,317, ,
0, ,317, ,
1, ,317, ,
1, ,317, ,
0, ,319, ,
3, ,317, ,
1, ,317, ,
1, ,317, ,
1, ,317, ,
1, ,317, ,
0, ,319, ,
1, ,318, ,
0, ,317, ,
1, ,317, ,
1, ,317, ,
1, ,317, ,
0, ,320, ,
3, ,317, ,
1, ,317, ,
0, ,318, ,
1, ,318, ,
1, ,317, ,
0, ,318, ,
3, ,317, ,
1, ,317, ,
1, ,318, ,
1, ,317, ,
1, ,317, ,
0, ,319, ,
1, ,317, ,
1, ,317, ,
1, ,318, ,
1, ,318, ,
1, ,317, ,
0, ,317, ,
1, ,317, ,
1, ,318, ,
1, ,317, ,
1, ,317, ,
1, ,317, ,
0, ,318, ,
1, ,317, ,
1, ,318, ,
1, ,317, ,
1, ,318, ,
1, ,317, ,
0, ,319, ,
1, ,317, ,
0, ,318, ,
1, ,317, ,
1, ,317, ,
1, ,318, ,
0, ,320, ,
1, ,317, ,
1, ,317, ,
0, ,318, ,
1, ,317, ,
1, ,318, ,
0, ,320, ,
3, ,317, ,
1, ,319, ,
1, ,317, ,
1, ,318, ,
1, ,317, ,
0, ,319, ,
1, ,316, ,
1, ,317, ,
1, ,319, ,
1, ,318, ,
1, ,317, ,
0, ,319, ,
1, ,317, ,
1, ,317, ,
1, ,316, ,
1, ,318, ,
1, ,318, ,
0, ,319, ,
3, ,317, ,
1, ,317, ,
0, ,318, ,
1, ,317, ,
1, ,317, ,
0, ,319, ,
1, ,317, ,
1, ,318, ,
0, ,317, ,
1, ,317, ,
1, ,318, ,
0, ,319, ,
1, ,317, ,
1, ,317, ,
1, ,317, ,
1, ,318, ,
1, ,317, ,
0, ,319, ,
3, ,316, ,
1, ,318, ,
1, ,317, ,
1, ,317, ,
1, ,317, ,
0, ,318, ,
1, ,315, ,
1, ,317, ,
0, ,317, ,
1, ,318, ,
1, ,316, ,
0, ,318, ,
1, ,317, ,
0, ,318, ,
0, ,317, ,
1, ,317, ,
3, ,317, ,
0, ,319, ,
1, ,317, ,
1, ,317, ,
0, ,318, ,
1, ,317, ,
0, ,317, ,
0, ,319, ,
3, ,317, ,
0, ,318, ,
0, ,317, ,
1, ,317, ,
1, ,318, ,
0, ,320, ,
1, ,317, ,
1, ,317, ,
0, ,317, ,
1, ,317, ,
1, ,316, ,
0, ,319, ,
1, ,317, ,
0, ,318, ,
0, ,317, ,
1, ,317, ,
1, ,317, ,
0, ,318, ,
3, ,317, ,
1, ,318, ,
0, ,317, ,
1, ,317, ,
1, ,317, ,
0, ,317, ,
3, ,317, ,
0, ,318, ,
1, ,317, ,
1, ,317, ,
1, ,317, ,
0, ,319, ,
1, ,317, ,
0, ,317, ,
0, ,317, ,
1, ,318, ,
1, ,317, ,
0, ,318, ,
1, ,317, ,
0, ,318, ,
0, ,317, ,
1, ,317, ,
1, ,317, ,
0, ,319, ,
1, ,316, ,
0, ,317, ,
0, ,318, ,
1, ,318, ,
1, ,317, ,
0, ,319, ,
1, ,317, ,
0, ,319, ,
0, ,317, ,
3, ,317, ,
1, ,317, ,
0, ,320, ,
1, ,317, ,
0, ,318, ,
0, ,319, ,
1, ,318, ,
1, ,317, ,
0, ,319, ,
3, ,317, ,
1, ,318, ,
0, ,317, ,
1, ,317, ,
1, ,319, ,
0, ,320, ,
3, ,317, ,
1, ,317, ,
0, ,317, ,
1, ,318, ,
1, ,317, ,
0, ,317, ,
3, ,316, ,
0, ,317, ,
1, ,317, ,
1, ,318, ,
1, ,319, ,
0, ,319, ,
1, ,317, ,
0, ,317, ,
0, ,317, ,
1, ,317, ,
1, ,317, ,
0, ,318, ,
1, ,317, ,
1, ,319, ,
0, ,317, ,
1, ,311, ,
1, ,317, ,
0, ,325, ,
1, ,321, ,
0, ,317, ,
1, ,317, ,
1, ,317, ,
1, ,317, ,
0, ,319, ,
1, ,317, ,
1, ,318, ,
0, ,317, ,
1, ,317, ,
1, ,317, ,
0, ,319, ,
3, ,316, ,
1, ,318, ,
0, ,317, ,
1, ,318, ,
1, ,317, ,
0, ,319, ,
1, ,317, ,
1, ,318, ,
0, ,317, ,
1, ,317, ,
1, ,317, ,
0, ,319, ,
1, ,317, ,
0, ,319, ,
1, ,317, ,
1, ,317, ,
1, ,317, ,
0, ,318, ,
3, ,318, ,
1, ,318, ,
1, ,317, ,
127, ,317, ,
75, ,317, ,
41, ,319, ,
29, ,317, ,
23, ,318, ,
14, ,318, ,
8, ,318, ,
5, ,317, ,
6, ,319, ,
6, ,317, ,
3, ,317, ,
3, ,318, ,
4, ,317, ,
3, ,318, ,
3, ,319, ,
4, ,317, ,
3, ,317, ,
3, ,317, ,
4, ,317, ,
4, ,317, ,
1, ,319, ,
4, ,318, ,
3, ,318, ,
3, ,317, ,
4, ,317, ,
4, ,317, ,
3, ,319, ,
4, ,317, ,
3, ,319, ,
3, ,317, ,
4, ,318, ,
4, ,317, ,
1, ,317, ,
4, ,318, ,
3, ,318, ,
3, ,317, ,
4, ,318, ,
3, ,317, ,
1, ,319, ,
4, ,316, ,
1, ,319, ,
3, ,317, ,
4, ,318, ,
3, ,317, ,
3, ,319, ,
4, ,317, ,
3, ,318, ,
3, ,317, ,
4, ,317, ,
4, ,317, ,
3, ,319, ,
4, ,317, ,
3, ,318, ,
3, ,317, ,
4, ,318, ,
4, ,317, ,
3, ,319, ,
4, ,317, ,
1, ,317, ,
3, ,317, ,
4, ,317, ,
3, ,318, ,
1, ,319, ,
4, ,317, ,
3, ,318, ,
3, ,317, ,
3, ,317, ,
3, ,317, ,
1, ,318, ,
3, ,317, ,
1, ,318, ,
3, ,317, ,
4, ,317, ,
3, ,317, ,
1, ,318, ,
4, ,317, ,
1, ,318, ,
3, ,317, ,
3, ,318, ,
3, ,317, ,
3, ,318, ,
4, ,317, ,
1, ,319, ,
3, ,317, ,
4, ,317, ,
3, ,317, ,
1, ,319, ,
4, ,317, ,
3, ,317, ,
3, ,317, ,
3, ,318, ,
3, ,317, ,
3, ,319, ,
4, ,317, ,
1, ,318, ,
3, ,317, ,
4, ,317, ,
3, ,318, ,
1, ,319, ,
4, ,316, ,
3, ,318, ,
3, ,318, ,
3, ,318, ,
4, ,317, ,
3, ,318, ,
4, ,317, ,
3, ,318, ,
3, ,317, ,
3, ,317, ,
3, ,318, ,
1, ,318, ,
4, ,316, ,
3, ,318, ,
3, ,317, ,
4, ,318, ,
3, ,317, ,
3, ,317, ,
4, ,318, ,
3, ,319, ,
1, ,317, ,
3, ,317, ,
3, ,317, ,
1, ,319, ,
4, ,316, ,
1, ,318, ,
3, ,317, ,
3, ,318, ,
3, ,317, ,
1, ,318, ,
4, ,317, ,
1, ,319, ,
3, ,317, ,
3, ,317, ,
3, ,317, ,
1, ,319, ,
4, ,316, ,
1, ,318, ,
1, ,317, ,
3, ,318, ,
3, ,317, ,
1, ,318, ,
3, ,317, ,
1, ,318, ,
1, ,317, ,
4, ,317, ,
3, ,318, ,
1, ,320, ,
3, ,317, ,
1, ,317, ,
3, ,318, ,
3, ,317, ,
3, ,317, ,
1, ,317, ,
4, ,317, ,
1, ,318, ,
3, ,318, ,
3, ,317, ,
3, ,317, ,
1, ,318, ,
3, ,317, ,
3, ,318, ,
3, ,318, ,
3, ,317, ,
3, ,317, ,
1, ,318, ,
3, ,318, ,
3, ,319, ,
1, ,317, ,
3, ,317, ,
3, ,317, ,
1, ,318, ,
3, ,316, ,
3, ,318, ,
1, ,318, ,
3, ,318, ,
3, ,317, ,
1, ,319, ,
3, ,317, ,
1, ,319, ,
1, ,317, ,
3, ,318, ,
3, ,317, ,
1, ,319, ,
3, ,316, ,
3, ,318, ,
1, ,317, ,
3, ,318, ,
3, ,317, ,
1, ,317, ,
3, ,316, ,
3, ,316, ,
1, ,315, ,
3, ,315, ,
3, ,317, ,
1, ,320, ,
3, ,318, ,
1, ,321, ,
1, ,319, ,
3, ,317, ,
3, ,316, ,
1, ,316, ,
3, ,316, ,
1, ,318, ,
1, ,317, ,
3, ,317, ,
3, ,317, ,
1, ,318, ,
3, ,315, ,
3, ,317, ,
1, ,317, ,
3, ,318, ,
3, ,317, ,
1, ,318, ,
3, ,317, ,
3, ,317, ,
1, ,317, ,
3, ,317, ,
3, ,317, ,
1, ,319, ,
3, ,316, ,
3, ,317, ,
1, ,317, ,
3, ,317, ,
3, ,317, ,
1, ,318, ,
4, ,317, ,
3, ,317, ,
1, ,317, ,
3, ,317, ,
1, ,317, ,
1, ,318, ,
3, ,316, ,
1, ,317, ,
1, ,317, ,
3, ,317, ,
3, ,317, ,
1, ,318, ,
3, ,317, ,
1, ,319, ,
3, ,317, ,
3, ,316, ,
3, ,316, ,
1, ,318, ,
3, ,316, ,
1, ,317, ,
3, ,317, ,
3, ,317, ,
3, ,317, ,
1, ,317, ,
3, ,314, ,
3, ,317, ,
1, ,320, ,
3, ,319, ,
3, ,317, ,
1, ,317, ,
3, ,316, ,
1, ,317, ,
1, ,317, ,
3, ,317, ,
3, ,317, ,
1, ,317, ,
3, ,317, ,
1, ,318, ,
1, ,317, ,
3, ,317, ,
3, ,317, ,
1, ,319, ,
3, ,317, ,
1, ,317, ,
1, ,317, ,
3, ,318, ,
1, ,317, ,
1, ,318, ,
3, ,317, ,
1, ,318, ,
1, ,317, ,
3, ,317, ,
1, ,317, ,
1, ,319, ,
3, ,317, ,
1, ,317, ,
1, ,317, ,
3, ,317, ,
3, ,316, ,
1, ,318, ,
3, ,317, ,
1, ,318, ,
1, ,317, ,
3, ,317, ,
3, ,317, ,
1, ,319, ,
3, ,315, ,
1, ,317, ,
1, ,318, ,
3, ,317, ,
1, ,316, ,
1, ,317, ,
3, ,316, ,
1, ,319, ,
1, ,318, ,
3, ,318, ,
1, ,318, ,
1, ,319, ,
3, ,316, ,
1, ,317, ,
1, ,317, ,
3, ,318, ,
1, ,317, ,
1, ,318, ,
3, ,318, ,
1, ,319, ,
1, ,317, ,
3, ,317, ,
1, ,317, ,
1, ,320, ,
3, ,317, ,
1, ,318, ,
1, ,317, ,
3, ,318, ,
1, ,318, ,
1, ,319, ,
3, ,318, ,
1, ,318, ,
1, ,317, ,
3, ,317, ,
3, ,318, ,
1, ,319, ,
3, ,317, ,
1, ,318, ,
1, ,317, ,
1, ,318, ,
1, ,317, ,
1, ,318, ,
3, ,317, ,
1, ,318, ,
1, ,317, ,
3, ,317, ,
1, ,318, ,
1, ,319, ,
3, ,317, ,
1, ,317, ,
1, ,317, ,
3, ,318, ,
1, ,317, ,
1, ,319, ,
3, ,317, ,
1, ,318, ,
1, ,317, ,
3, ,317, ,
3, ,317, ,
1, ,319, ,
3, ,317, ,
1, ,318, ,
1, ,318, ,
3, ,318, ,
1, ,317, ,
1, ,317, ,
3, ,318, ,
1, ,318, ,
1, ,317, ,
3, ,318, ,
3, ,317, ,
1, ,318, ,
3, ,317, ,
1, ,317, ,
1, ,317, ,
3, ,317, ,
1, ,317, ,
1, ,319, ,
3, ,318, ,
1, ,319, ,
1, ,319, ,
3, ,318, ,
1, ,318, ,
0, ,320, ,
3, ,316, ,
1, ,317, ,
1, ,318, ,
3, ,318, ,
1, ,317, ,
1, ,319, ,
3, ,317, ,
1, ,318, ,
1, ,318, ,
1, ,316, ,
1, ,317, ,
1, ,319, ,
3, ,317, ,
1, ,318, ,
1, ,317, ,
3, ,318, ,
3, ,317, ,
1, ,318, ,
3, ,317, ,
1, ,318, ,
1, ,317, ,
3, ,317, ,
1, ,319, ,
0, ,319, ,
3, ,316, ,
1, ,319, ,
1, ,318, ,
3, ,317, ,
3, ,317, ,
1, ,318, ,
3, ,317, ,
1, ,318, ,
1, ,317, ,
3, ,317, ,
1, ,317, ,
0, ,319, ,
3, ,316, ,
1, ,319, ,
1, ,317, ,
1, ,317, ,
1, ,317, ,
1, ,319, ,
3, ,317, ,
1, ,318, ,
1, ,317, ,
3, ,317, ,
1, ,317, ,
0, ,318, ,
3, ,317, ,
1, ,317, ,
1, ,317, ,
1, ,318, ,
1, ,317, ,
0, ,318, ,
3, ,317, ,
1, ,319, ,
1, ,317, ,
3, ,317, ,
1, ,317, ,
1, ,319, ,
3, ,317, ,
1, ,318, ,
1, ,319, ,
1, ,318, ,
1, ,317, ,
0, ,319, ,
3, ,317, ,
1, ,318, ,
1, ,317, ,
3, ,317, ,
1, ,317, ,
0, ,318, ,
3, ,316, ,
1, ,317, ,
1, ,318, ,
1, ,318, ,
1, ,317, ,
0, ,319, ,
3, ,317, ,
1, ,319, ,
1, ,317, ,
1, ,318, ,
1, ,317, ,
0, ,319, ,
3, ,316, ,
1, ,318, ,
1, ,318, ,
3, ,318, ,
1, ,318, ,
1, ,318, ,
3, ,317, ,
1, ,318, ,
1, ,317, ,
3, ,317, ,
1, ,317, ,
0, ,319, ,
3, ,317, ,
1, ,317, ,
1, ,318, ,
3, ,318, ,
1, ,317, ,
0, ,319, ,
3, ,317, ,
1, ,319, ,
1, ,317, ,
1, ,317, ,
1, ,317, ,
0, ,319, ,
3, ,317, ,
1, ,318, ,
1, ,317, ,
3, ,318, ,
1, ,317, ,
1, ,319, ,
3, ,317, ,
1, ,318, ,
1, ,317, ,
1, ,317, ,
1, ,318, ,
0, ,319, ,
3, ,317, ,
1, ,318, ,
1, ,318, ,
1, ,317, ,
1, ,317, ,
0, ,321, ,
3, ,317, ,
1, ,318, ,
1, ,318, ,
3, ,318, ,
1, ,318, ,
0, ,320, ,
3, ,316, ,
1, ,317, ,
1, ,317, ,
1, ,318, ,
1, ,317, ,
0, ,319, ,
3, ,317, ,
1, ,319, ,
1, ,317, ,
1, ,317, ,
1, ,318, ,
0, ,319, ,
3, ,317, ,
1, ,317, ,
1, ,317, ,
3, ,318, ,
1, ,317, ,
0, ,319, ,
3, ,318, ,
1, ,318, ,
1, ,317, ,
3, ,317, ,
1, ,318, ,
0, ,320, ,
3, ,317, ,
1, ,317, ,
1, ,317, ,
1, ,318, ,
1, ,318, ,
0, ,319, ,
3, ,317, ,
1, ,318, ,
1, ,317, ,
3, ,317, ,
3, ,318, ,
0, ,318, ,
3, ,317, ,
1, ,317, ,
1, ,317, ,
3, ,318, ,
1, ,317, ,
0, ,319, ,
3, ,317, ,
1, ,317, ,
1, ,317, ,
1, ,317, ,
1, ,318, ,
0, ,319, ,
3, ,317, ,
1, ,318, ,
1, ,317, ,
3, ,317, ,
1, ,317, ,
0, ,319, ,
3, ,317, ,
1, ,319, ,
1, ,317, ,
1, ,318, ,
1, ,317, ,
0, ,319, ,
3, ,317, ,
1, ,317, ,
1, ,318, ,
3, ,318, ,
1, ,317, ,
0, ,319, ,
3, ,317, ,
1, ,317, ,
1, ,317, ,
1, ,317, ,
1, ,318, ,
0, ,319, ,
3, ,317, ,
1, ,317, ,
1, ,318, ,
3, ,318, ,
1, ,317, ,
0, ,319, ,
3, ,316, ,
1, ,318, ,
1, ,317, ,
3, ,317, ,
1, ,318, ,
0, ,319, ,
3, ,317, ,
1, ,317, ,
1, ,317, ,
1, ,318, ,
1, ,317, ,
0, ,319, ,
3, ,318, ,
1, ,319, ,
1, ,318, ,
3, ,317, ,
1, ,318, ,
0, ,318, ,
3, ,317, ,
1, ,318, ,
1, ,317, ,
1, ,317, ,
1, ,317, ,
0, ,319, ,
3, ,318, ,
1, ,318, ,
1, ,317, ,
1, ,318, ,
3, ,317, ,
0, ,319, ,
3, ,317, ,
1, ,318, ,
1, ,318, ,
1, ,318, ,
1, ,317, ,
0, ,319, ,
3, ,316, ,
1, ,318, ,
1, ,317, ,
3, ,317, ,
1, ,317, ,
0, ,319, ,
1, ,316, ,
1, ,317, ,
1, ,317, ,
1, ,318, ,
1, ,318, ,
0, ,319, ,
1, ,317, ,
1, ,318, ,
1, ,317, ,
1, ,317, ,
1, ,317, ,
0, ,319, ,
3, ,317, ,
1, ,317, ,
1, ,318, ,
3, ,318, ,
1, ,317, ,
0, ,319, ,
3, ,317, ,
1, ,318, ,
1, ,317, ,
1, ,317, ,
1, ,317, ,
0, ,319, ,
3, ,317, ,
1, ,317, ,
1, ,317, ,
1, ,317, ,
1, ,317, ,
0, ,319, ,
3, ,318, ,
1, ,318, ,
1, ,317, ,
1, ,318, ,
1, ,318, ,
0, ,320, ,
3, ,316, ,
1, ,318, ,
1, ,318, ,
1, ,317, ,
1, ,317, ,
0, ,319, ,
3, ,317, ,
1, ,318, ,
1, ,317, ,
1, ,317, ,
1, ,317, ,
0, ,319, ,
1, ,317, ,
1, ,317, ,
1, ,317, ,
1, ,318, ,
1, ,317, ,
0, ,318, ,
