src/vary_led_1562/temp0008544.CSV

Format,1.0B,
Memory Length,10000,Memory Length,10000,
IntpDistance,0,IntpDistance,0,
Trigger Address,5159,Trigger Address,5159,
Trigger Level,3.000E-01,Trigger Level,3.000E-01,
Source,CH1,Source,CH2,
Vertical Units,V,Vertical Units,V,
Vertical Units Div,0,Vertical Units Div,0,
Vertical Units Extend Div,16,Vertical Units Extend Div,16,
Label,,Label,,
Probe Type,0,Probe Type,0,
Probe Ratio,1.000e+01,Probe Ratio,1.000e+00,
Vertical Scale,5.000e-01,Vertical Scale,2.000e-01,
Vertical Position,-1.780e+00,Vertical Position,-2.240e+00,
Horizontal Units,S,Horizontal Units,S,
Horizontal Scale,2.000E-05,Horizontal Scale,2.000E-05,
Horizontal Position,-3.200E-06,Horizontal Position,-3.200E-06,
Horizontal Mode,Main,Horizontal Mode,Main,
SincET Mode,Real Time,SincET Mode,Real Time,
Sampling Period,2.000e-08,Sampling Period,2.000e-08,
Horizontal Old Scale,2.000E-05,Horizontal Old Scale,2.000E-05,
Horizontal Old Position,-3.200E-06,Horizontal Old Position,-3.200E-06,
Firmware,V1.23,Firmware,V1.23,
Mode,Fast,Mode,Fast,
Waveform Data,,Waveform Data,,
0, ,345, ,
1, ,346, ,
1, ,346, ,
0, ,346, ,
3, ,346, ,
0, ,348, ,
0, ,344, ,
3, ,346, ,
1, ,346, ,
0, ,346, ,
1, ,346, ,
0, ,346, ,
0, ,345, ,
1, ,346, ,
0, ,346, ,
0, ,345, ,
3, ,346, ,
0, ,348, ,
0, ,345, ,
3, ,346, ,
0, ,346, ,
-1, ,345, ,
1, ,345, ,
0, ,347, ,
0, ,345, ,
1, ,346, ,
0, ,344, ,
0, ,345, ,
3, ,346, ,
0, ,347, ,
0, ,345, ,
1, ,346, ,
0, ,346, ,
-1, ,345, ,
1, ,345, ,
0, ,347, ,
0, ,345, ,
1, ,346, ,
1, ,345, ,
-1, ,346, ,
3, ,347, ,
0, ,348, ,
0, ,344, ,
1, ,346, ,
1, ,346, ,
-1, ,345, ,
3, ,345, ,
0, ,348, ,
0, ,345, ,
1, ,347, ,
1, ,345, ,
-1, ,345, ,
3, ,346, ,
0, ,348, ,
0, ,345, ,
1, ,346, ,
1, ,347, ,
-1, ,346, ,
3, ,345, ,
0, ,347, ,
0, ,345, ,
1, ,346, ,
1, ,345, ,
-1, ,346, ,
3, ,346, ,
0, ,348, ,
0, ,344, ,
1, ,346, ,
1, ,346, ,
-1, ,345, ,
3, ,345, ,
0, ,347, ,
0, ,344, ,
1, ,347, ,
1, ,345, ,
0, ,345, ,
3, ,346, ,
0, ,348, ,
0, ,345, ,
1, ,346, ,
1, ,346, ,
-1, ,346, ,
1, ,345, ,
0, ,348, ,
0, ,345, ,
1, ,346, ,
1, ,346, ,
0, ,346, ,
3, ,345, ,
0, ,347, ,
0, ,345, ,
3, ,346, ,
0, ,346, ,
-1, ,346, ,
1, ,345, ,
0, ,346, ,
0, ,345, ,
1, ,346, ,
1, ,345, ,
0, ,345, ,
3, ,346, ,
0, ,348, ,
0, ,344, ,
1, ,346, ,
0, ,346, ,
0, ,346, ,
1, ,345, ,
0, ,347, ,
0, ,345, ,
1, ,347, ,
1, ,345, ,
-1, ,346, ,
3, ,346, ,
0, ,348, ,
0, ,345, ,
3, ,346, ,
1, ,346, ,
-1, ,345, ,
3, ,346, ,
0, ,347, ,
0, ,345, ,
1, ,346, ,
1, ,345, ,
0, ,346, ,
3, ,346, ,
0, ,347, ,
0, ,344, ,
1, ,346, ,
1, ,344, ,
-1, ,345, ,
1, ,345, ,
0, ,346, ,
0, ,345, ,
1, ,346, ,
1, ,345, ,
0, ,345, ,
3, ,345, ,
0, ,348, ,
0, ,345, ,
3, ,346, ,
1, ,346, ,
-1, ,346, ,
1, ,345, ,
0, ,348, ,
0, ,345, ,
1, ,347, ,
1, ,345, ,
0, ,345, ,
3, ,346, ,
0, ,347, ,
0, ,344, ,
1, ,346, ,
1, ,346, ,
0, ,345, ,
1, ,345, ,
0, ,347, ,
0, ,345, ,
1, ,347, ,
1, ,344, ,
0, ,345, ,
3, ,346, ,
0, ,348, ,
0, ,344, ,
1, ,346, ,
1, ,346, ,
-1, ,346, ,
1, ,345, ,
0, ,347, ,
0, ,345, ,
1, ,346, ,
1, ,344, ,
0, ,346, ,
3, ,346, ,
0, ,348, ,
0, ,344, ,
1, ,345, ,
0, ,345, ,
-1, ,345, ,
1, ,345, ,
0, ,348, ,
0, ,345, ,
1, ,346, ,
0, ,346, ,
-1, ,346, ,
3, ,346, ,
0, ,348, ,
0, ,345, ,
1, ,345, ,
0, ,346, ,
-1, ,346, ,
3, ,345, ,
0, ,346, ,
0, ,345, ,
1, ,346, ,
0, ,345, ,
-1, ,345, ,
3, ,346, ,
0, ,348, ,
0, ,344, ,
3, ,346, ,
0, ,345, ,
-1, ,345, ,
3, ,346, ,
0, ,347, ,
0, ,344, ,
1, ,346, ,
1, ,345, ,
0, ,345, ,
3, ,346, ,
0, ,347, ,
0, ,344, ,
3, ,346, ,
1, ,345, ,
-1, ,346, ,
1, ,345, ,
0, ,347, ,
0, ,345, ,
1, ,347, ,
1, ,345, ,
-1, ,345, ,
3, ,346, ,
0, ,346, ,
0, ,344, ,
1, ,346, ,
0, ,345, ,
-1, ,345, ,
3, ,345, ,
0, ,348, ,
0, ,345, ,
1, ,346, ,
0, ,346, ,
0, ,346, ,
3, ,345, ,
0, ,348, ,
0, ,345, ,
1, ,346, ,
1, ,346, ,
-1, ,345, ,
1, ,346, ,
0, ,347, ,
0, ,345, ,
1, ,347, ,
1, ,346, ,
0, ,345, ,
3, ,345, ,
0, ,347, ,
0, ,345, ,
3, ,345, ,
1, ,345, ,
-1, ,345, ,
3, ,345, ,
0, ,347, ,
0, ,345, ,
3, ,346, ,
0, ,345, ,
-1, ,345, ,
3, ,346, ,
0, ,347, ,
0, ,344, ,
3, ,346, ,
1, ,346, ,
0, ,346, ,
3, ,345, ,
0, ,347, ,
0, ,345, ,
1, ,345, ,
1, ,346, ,
0, ,346, ,
3, ,345, ,
0, ,346, ,
0, ,344, ,
3, ,346, ,
0, ,346, ,
-1, ,345, ,
1, ,345, ,
0, ,348, ,
0, ,344, ,
3, ,346, ,
0, ,344, ,
-1, ,345, ,
3, ,346, ,
0, ,348, ,
0, ,345, ,
1, ,346, ,
1, ,346, ,
-1, ,345, ,
1, ,345, ,
0, ,347, ,
0, ,345, ,
3, ,346, ,
1, ,346, ,
-1, ,345, ,
3, ,346, ,
0, ,346, ,
0, ,344, ,
3, ,347, ,
0, ,346, ,
-1, ,346, ,
3, ,346, ,
0, ,346, ,
0, ,345, ,
1, ,346, ,
0, ,345, ,
-1, ,344, ,
3, ,344, ,
0, ,347, ,
0, ,345, ,
1, ,348, ,
1, ,347, ,
-1, ,346, ,
3, ,345, ,
0, ,347, ,
0, ,344, ,
1, ,346, ,
0, ,345, ,
0, ,345, ,
3, ,346, ,
0, ,348, ,
0, ,345, ,
3, ,346, ,
0, ,346, ,
-1, ,346, ,
1, ,345, ,
0, ,346, ,
0, ,345, ,
1, ,347, ,
127, ,345, ,
75, ,346, ,
51, ,346, ,
34, ,348, ,
22, ,344, ,
14, ,346, ,
9, ,346, ,
8, ,346, ,
9, ,345, ,
4, ,347, ,
3, ,345, ,
5, ,347, ,
4, ,345, ,
3, ,345, ,
4, ,346, ,
3, ,348, ,
1, ,344, ,
4, ,347, ,
3, ,347, ,
1, ,346, ,
4, ,345, ,
3, ,347, ,
3, ,344, ,
4, ,346, ,
3, ,345, ,
1, ,345, ,
4, ,346, ,
1, ,348, ,
3, ,345, ,
4, ,346, ,
3, ,346, ,
1, ,345, ,
4, ,345, ,
3, ,348, ,
3, ,345, ,
4, ,346, ,
3, ,345, ,
1, ,346, ,
5, ,345, ,
1, ,348, ,
1, ,344, ,
4, ,346, ,
3, ,346, ,
1, ,346, ,
4, ,346, ,
1, ,348, ,
3, ,345, ,
4, ,347, ,
3, ,344, ,
1, ,345, ,
4, ,346, ,
3, ,348, ,
3, ,345, ,
4, ,346, ,
3, ,346, ,
1, ,346, ,
4, ,345, ,
3, ,346, ,
3, ,345, ,
3, ,346, ,
3, ,346, ,
1, ,345, ,
5, ,344, ,
3, ,348, ,
1, ,344, ,
4, ,345, ,
3, ,346, ,
1, ,346, ,
4, ,345, ,
1, ,346, ,
1, ,345, ,
4, ,347, ,
3, ,345, ,
1, ,345, ,
4, ,346, ,
3, ,348, ,
3, ,344, ,
4, ,345, ,
3, ,346, ,
1, ,346, ,
4, ,346, ,
3, ,346, ,
1, ,345, ,
3, ,347, ,
3, ,347, ,
1, ,345, ,
4, ,345, ,
3, ,348, ,
1, ,345, ,
3, ,348, ,
3, ,346, ,
1, ,346, ,
4, ,344, ,
1, ,347, ,
1, ,344, ,
3, ,347, ,
3, ,344, ,
1, ,345, ,
4, ,346, ,
1, ,347, ,
1, ,335, ,
3, ,346, ,
3, ,353, ,
1, ,349, ,
4, ,345, ,
1, ,344, ,
1, ,345, ,
3, ,348, ,
3, ,346, ,
1, ,345, ,
4, ,347, ,
1, ,348, ,
1, ,342, ,
3, ,346, ,
3, ,347, ,
1, ,346, ,
4, ,345, ,
3, ,346, ,
1, ,345, ,
3, ,346, ,
3, ,344, ,
1, ,346, ,
4, ,346, ,
3, ,347, ,
1, ,345, ,
4, ,346, ,
3, ,346, ,
1, ,345, ,
4, ,345, ,
1, ,346, ,
1, ,345, ,
3, ,348, ,
3, ,345, ,
1, ,345, ,
4, ,346, ,
1, ,347, ,
1, ,345, ,
4, ,347, ,
3, ,346, ,
1, ,346, ,
4, ,345, ,
1, ,348, ,
3, ,345, ,
3, ,346, ,
3, ,346, ,
1, ,346, ,
4, ,346, ,
1, ,348, ,
1, ,345, ,
3, ,346, ,
3, ,346, ,
1, ,346, ,
4, ,346, ,
3, ,347, ,
1, ,345, ,
3, ,347, ,
3, ,346, ,
0, ,346, ,
4, ,345, ,
1, ,348, ,
1, ,344, ,
4, ,346, ,
3, ,346, ,
0, ,346, ,
3, ,345, ,
1, ,347, ,
1, ,345, ,
3, ,346, ,
3, ,346, ,
0, ,345, ,
4, ,346, ,
1, ,347, ,
1, ,344, ,
4, ,348, ,
3, ,347, ,
1, ,346, ,
4, ,346, ,
1, ,347, ,
1, ,345, ,
3, ,345, ,
3, ,346, ,
0, ,346, ,
4, ,346, ,
3, ,346, ,
1, ,345, ,
4, ,346, ,
3, ,346, ,
0, ,346, ,
3, ,346, ,
1, ,347, ,
1, ,346, ,
3, ,346, ,
3, ,344, ,
0, ,345, ,
4, ,346, ,
1, ,348, ,
1, ,345, ,
3, ,346, ,
3, ,346, ,
0, ,345, ,
3, ,346, ,
1, ,348, ,
1, ,344, ,
3, ,346, ,
3, ,344, ,
0, ,344, ,
4, ,346, ,
1, ,348, ,
1, ,345, ,
3, ,346, ,
3, ,345, ,
0, ,345, ,
3, ,345, ,
1, ,348, ,
1, ,345, ,
3, ,347, ,
3, ,346, ,
0, ,346, ,
4, ,346, ,
1, ,346, ,
1, ,344, ,
4, ,346, ,
3, ,345, ,
0, ,345, ,
3, ,344, ,
1, ,346, ,
1, ,345, ,
3, ,347, ,
3, ,345, ,
0, ,345, ,
3, ,346, ,
1, ,347, ,
1, ,344, ,
3, ,346, ,
3, ,346, ,
0, ,347, ,
3, ,345, ,
1, ,346, ,
1, ,345, ,
3, ,346, ,
3, ,345, ,
0, ,346, ,
3, ,345, ,
1, ,347, ,
1, ,344, ,
3, ,345, ,
3, ,345, ,
0, ,346, ,
3, ,345, ,
1, ,347, ,
1, ,345, ,
3, ,347, ,
1, ,346, ,
0, ,345, ,
4, ,346, ,
1, ,347, ,
1, ,344, ,
3, ,346, ,
3, ,347, ,
0, ,346, ,
3, ,346, ,
1, ,346, ,
1, ,344, ,
3, ,345, ,
1, ,343, ,
0, ,344, ,
3, ,346, ,
1, ,350, ,
1, ,346, ,
3, ,347, ,
1, ,346, ,
0, ,344, ,
3, ,343, ,
1, ,345, ,
1, ,345, ,
3, ,347, ,
3, ,345, ,
0, ,344, ,
4, ,346, ,
1, ,346, ,
1, ,344, ,
3, ,345, ,
1, ,346, ,
0, ,346, ,
3, ,345, ,
1, ,346, ,
1, ,345, ,
3, ,346, ,
1, ,345, ,
0, ,345, ,
3, ,345, ,
1, ,346, ,
1, ,344, ,
4, ,346, ,
3, ,346, ,
0, ,346, ,
3, ,344, ,
1, ,346, ,
1, ,345, ,
3, ,346, ,
3, ,344, ,
0, ,344, ,
3, ,345, ,
1, ,346, ,
1, ,345, ,
4, ,346, ,
1, ,346, ,
0, ,345, ,
3, ,344, ,
1, ,346, ,
1, ,345, ,
3, ,346, ,
1, ,345, ,
0, ,345, ,
3, ,345, ,
1, ,346, ,
1, ,344, ,
3, ,346, ,
1, ,344, ,
0, ,346, ,
3, ,345, ,
1, ,347, ,
1, ,345, ,
3, ,346, ,
1, ,345, ,
0, ,345, ,
3, ,345, ,
1, ,346, ,
1, ,345, ,
3, ,345, ,
1, ,345, ,
0, ,345, ,
3, ,345, ,
1, ,346, ,
1, ,345, ,
3, ,347, ,
1, ,345, ,
0, ,345, ,
3, ,344, ,
1, ,346, ,
1, ,344, ,
3, ,346, ,
1, ,346, ,
0, ,346, ,
3, ,345, ,
1, ,346, ,
1, ,345, ,
3, ,346, ,
1, ,345, ,
0, ,345, ,
3, ,344, ,
1, ,347, ,
1, ,344, ,
3, ,346, ,
1, ,346, ,
0, ,345, ,
3, ,346, ,
1, ,346, ,
1, ,344, ,
3, ,346, ,
3, ,344, ,
0, ,346, ,
3, ,344, ,
1, ,346, ,
1, ,344, ,
3, ,346, ,
1, ,346, ,
0, ,345, ,
3, ,345, ,
1, ,346, ,
1, ,346, ,
3, ,346, ,
1, ,346, ,
0, ,346, ,
4, ,346, ,
1, ,348, ,
0, ,344, ,
3, ,345, ,
1, ,346, ,
0, ,346, ,
3, ,344, ,
1, ,347, ,
1, ,346, ,
3, ,347, ,
1, ,346, ,
0, ,345, ,
3, ,346, ,
1, ,348, ,
0, ,344, ,
3, ,346, ,
1, ,346, ,
0, ,346, ,
3, ,347, ,
1, ,347, ,
1, ,345, ,
3, ,347, ,
1, ,344, ,
0, ,346, ,
3, ,347, ,
1, ,348, ,
1, ,344, ,
3, ,346, ,
1, ,346, ,
0, ,345, ,
3, ,346, ,
1, ,346, ,
1, ,344, ,
3, ,346, ,
1, ,344, ,
0, ,345, ,
3, ,347, ,
1, ,348, ,
1, ,345, ,
3, ,346, ,
1, ,346, ,
0, ,345, ,
3, ,344, ,
1, ,345, ,
1, ,345, ,
85, ,346, ,
56, ,346, ,
38, ,345, ,
27, ,347, ,
16, ,348, ,
9, ,345, ,
8, ,345, ,
5, ,346, ,
4, ,345, ,
5, ,345, ,
1, ,348, ,
1, ,345, ,
5, ,348, ,
3, ,345, ,
1, ,345, ,
5, ,346, ,
3, ,348, ,
3, ,344, ,
4, ,346, ,
3, ,346, ,
1, ,346, ,
4, ,346, ,
1, ,346, ,
3, ,346, ,
4, ,347, ,
3, ,345, ,
1, ,345, ,
5, ,346, ,
3, ,348, ,
3, ,344, ,
4, ,346, ,
3, ,346, ,
1, ,346, ,
4, ,344, ,
3, ,346, ,
3, ,345, ,
4, ,346, ,
3, ,347, ,
1, ,346, ,
5, ,346, ,
1, ,348, ,
1, ,345, ,
4, ,346, ,
3, ,346, ,
1, ,346, ,
4, ,345, ,
3, ,348, ,
3, ,345, ,
4, ,346, ,
3, ,346, ,
1, ,345, ,
4, ,345, ,
3, ,347, ,
1, ,344, ,
4, ,346, ,
3, ,347, ,
1, ,346, ,
4, ,346, ,
3, ,347, ,
1, ,345, ,
4, ,346, ,
3, ,345, ,
1, ,346, ,
4, ,345, ,
1, ,347, ,
1, ,344, ,
4, ,347, ,
4, ,346, ,
1, ,346, ,
4, ,344, ,
3, ,346, ,
1, ,345, ,
3, ,346, ,
3, ,346, ,
1, ,346, ,
5, ,346, ,
1, ,347, ,
1, ,345, ,
3, ,346, ,
3, ,346, ,
1, ,346, ,
4, ,345, ,
3, ,347, ,
3, ,346, ,
3, ,346, ,
3, ,345, ,
1, ,345, ,
4, ,345, ,
1, ,347, ,
1, ,344, ,
3, ,346, ,
3, ,346, ,
1, ,346, ,
4, ,345, ,
1, ,347, ,
1, ,345, ,
3, ,346, ,
3, ,346, ,
1, ,345, ,
5, ,346, ,
3, ,348, ,
1, ,345, ,
3, ,346, ,
3, ,346, ,
1, ,346, ,
4, ,345, ,
1, ,347, ,
1, ,346, ,
3, ,347, ,
3, ,346, ,
1, ,345, ,
4, ,346, ,
1, ,346, ,
1, ,345, ,
3, ,346, ,
3, ,347, ,
1, ,346, ,
4, ,345, ,
1, ,348, ,
3, ,346, ,
3, ,347, ,
3, ,346, ,
0, ,345, ,
5, ,346, ,
3, ,348, ,
1, ,345, ,
3, ,348, ,
3, ,346, ,
1, ,346, ,
4, ,345, ,
1, ,347, ,
1, ,345, ,
3, ,346, ,
3, ,346, ,
1, ,346, ,
4, ,345, ,
1, ,348, ,
1, ,345, ,
3, ,346, ,
3, ,347, ,
1, ,347, ,
4, ,345, ,
1, ,347, ,
1, ,346, ,
3, ,346, ,
3, ,346, ,
1, ,345, ,
4, ,346, ,
1, ,348, ,
1, ,344, ,
4, ,346, ,
3, ,346, ,
0, ,346, ,
4, ,345, ,
1, ,348, ,
1, ,345, ,
3, ,346, ,
3, ,346, ,
1, ,345, ,
4, ,346, ,
1, ,348, ,
1, ,345, ,
3, ,346, ,
3, ,346, ,
1, ,345, ,
3, ,346, ,
1, ,346, ,
1, ,346, ,
3, ,347, ,
3, ,345, ,
1, ,345, ,
4, ,346, ,
3, ,347, ,
1, ,344, ,
4, ,346, ,
3, ,346, ,
0, ,346, ,
3, ,345, ,
1, ,347, ,
1, ,346, ,
3, ,346, ,
3, ,346, ,
1, ,346, ,
3, ,346, ,
1, ,348, ,
1, ,345, ,
3, ,346, ,
3, ,346, ,
1, ,346, ,
4, ,345, ,
1, ,346, ,
1, ,346, ,
3, ,346, ,
3, ,345, ,
0, ,346, ,
4, ,346, ,
1, ,348, ,
1, ,345, ,
3, ,346, ,
3, ,347, ,
0, ,347, ,
3, ,345, ,
1, ,346, ,
1, ,345, ,
3, ,346, ,
3, ,346, ,
0, ,346, ,
4, ,346, ,
1, ,346, ,
1, ,345, ,
3, ,346, ,
1, ,347, ,
0, ,346, ,
3, ,346, ,
1, ,346, ,
1, ,345, ,
3, ,347, ,
3, ,346, ,
0, ,346, ,
4, ,345, ,
1, ,346, ,
1, ,345, ,
3, ,346, ,
1, ,346, ,
0, ,347, ,
3, ,346, ,
1, ,348, ,
1, ,346, ,
3, ,347, ,
1, ,344, ,
0, ,345, ,
3, ,346, ,
1, ,347, ,
1, ,345, ,
3, ,347, ,
1, ,346, ,
0, ,346, ,
3, ,346, ,
1, ,347, ,
1, ,345, ,
3, ,346, ,
1, ,345, ,
0, ,346, ,
4, ,345, ,
1, ,347, ,
1, ,345, ,
4, ,346, ,
3, ,346, ,
0, ,345, ,
3, ,345, ,
1, ,348, ,
1, ,345, ,
3, ,348, ,
1, ,346, ,
0, ,346, ,
3, ,345, ,
1, ,348, ,
1, ,337, ,
3, ,346, ,
1, ,352, ,
0, ,350, ,
3, ,344, ,
1, ,345, ,
1, ,346, ,
3, ,348, ,
1, ,346, ,
0, ,346, ,
3, ,347, ,
1, ,347, ,
1, ,344, ,
3, ,345, ,
1, ,348, ,
0, ,346, ,
3, ,346, ,
1, ,348, ,
1, ,345, ,
3, ,346, ,
1, ,345, ,
0, ,346, ,
3, ,346, ,
1, ,348, ,
1, ,344, ,
3, ,347, ,
1, ,346, ,
0, ,345, ,
3, ,345, ,
1, ,348, ,
1, ,345, ,
3, ,348, ,
3, ,345, ,
0, ,345, ,
3, ,345, ,
1, ,346, ,
1, ,345, ,
3, ,347, ,
3, ,345, ,
0, ,346, ,
3, ,345, ,
1, ,347, ,
1, ,345, ,
3, ,347, ,
1, ,345, ,
0, ,345, ,
4, ,345, ,
1, ,348, ,
1, ,344, ,
3, ,348, ,
3, ,346, ,
0, ,346, ,
3, ,345, ,
1, ,346, ,
1, ,345, ,
3, ,346, ,
1, ,345, ,
0, ,345, ,
4, ,346, ,
1, ,348, ,
1, ,345, ,
3, ,346, ,
1, ,346, ,
0, ,346, ,
3, ,345, ,
1, ,347, ,
1, ,345, ,
3, ,346, ,
1, ,345, ,
0, ,345, ,
3, ,346, ,
1, ,348, ,
1, ,345, ,
3, ,346, ,
1, ,346, ,
0, ,347, ,
3, ,345, ,
1, ,347, ,
1, ,345, ,
3, ,346, ,
1, ,346, ,
20, ,346, ,
65, ,346, ,
43, ,347, ,
24, ,344, ,
16, ,346, ,
11, ,346, ,
9, ,346, ,
8, ,346, ,
4, ,347, ,
3, ,345, ,
5, ,348, ,
4, ,346, ,
1, ,345, ,
4, ,345, ,
3, ,346, ,
3, ,345, ,
4, ,347, ,
3, ,345, ,
1, ,345, ,
4, ,345, ,
1, ,346, ,
3, ,345, ,
4, ,348, ,
3, ,345, ,
1, ,346, ,
5, ,345, ,
3, ,347, ,
1, ,344, ,
4, ,346, ,
4, ,346, ,
1, ,346, ,
4, ,345, ,
1, ,347, ,
3, ,345, ,
4, ,348, ,
3, ,345, ,
1, ,345, ,
5, ,346, ,
1, ,347, ,
3, ,344, ,
4, ,347, ,
3, ,346, ,
1, ,346, ,
4, ,345, ,
3, ,347, ,
3, ,345, ,
4, ,347, ,
3, ,345, ,
1, ,346, ,
5, ,347, ,
3, ,347, ,
1, ,344, ,
4, ,346, ,
3, ,346, ,
1, ,346, ,
4, ,345, ,
1, ,346, ,
3, ,345, ,
4, ,347, ,
3, ,345, ,
1, ,345, ,
4, ,346, ,
1, ,347, ,
3, ,345, ,
4, ,347, ,
3, ,347, ,
1, ,347, ,
4, ,345, ,
3, ,346, ,
3, ,345, ,
3, ,347, ,
3, ,346, ,
1, ,346, ,
4, ,346, ,
3, ,347, ,
1, ,344, ,
4, ,346, ,
3, ,346, ,
1, ,346, ,
4, ,344, ,
1, ,346, ,
1, ,344, ,
3, ,347, ,
3, ,346, ,
1, ,347, ,
4, ,347, ,
3, ,348, ,
3, ,344, ,
4, ,346, ,
3, ,345, ,
1, ,346, ,
4, ,345, ,
3, ,347, ,
3, ,346, ,
4, ,346, ,
3, ,346, ,
1, ,346, ,
4, ,345, ,
3, ,346, ,
1, ,345, ,
3, ,345, ,
3, ,347, ,
1, ,346, ,
4, ,345, ,
1, ,346, ,
1, ,345, ,
4, ,346, ,
3, ,344, ,
1, ,345, ,
4, ,346, ,
1, ,348, ,
1, ,345, ,
4, ,347, ,
3, ,346, ,
1, ,346, ,
4, ,346, ,
1, ,346, ,
3, ,345, ,
3, ,347, ,
3, ,346, ,
1, ,346, ,
4, ,346, ,
1, ,348, ,
1, ,344, ,
4, ,346, ,
3, ,346, ,
1, ,346, ,
4, ,345, ,
1, ,347, ,
1, ,345, ,
3, ,348, ,
3, ,346, ,
1, ,345, ,
4, ,346, ,
1, ,346, ,
1, ,344, ,
4, ,346, ,
3, ,346, ,
1, ,345, ,
3, ,345, ,
1, ,346, ,
1, ,346, ,
3, ,347, ,
3, ,345, ,
1, ,345, ,
4, ,346, ,
1, ,346, ,
1, ,344, ,
4, ,346, ,
3, ,346, ,
1, ,346, ,
4, ,346, ,
1, ,347, ,
1, ,345, ,
3, ,346, ,
3, ,345, ,
1, ,345, ,
4, ,346, ,
1, ,348, ,
1, ,344, ,
4, ,346, ,
3, ,346, ,
1, ,346, ,
4, ,345, ,
1, ,346, ,
1, ,345, ,
3, ,347, ,
3, ,344, ,
0, ,345, ,
4, ,345, ,
1, ,347, ,
1, ,344, ,
4, ,345, ,
3, ,346, ,
1, ,346, ,
3, ,344, ,
3, ,347, ,
1, ,345, ,
3, ,346, ,
3, ,345, ,
0, ,345, ,
4, ,345, ,
1, ,346, ,
1, ,344, ,
3, ,345, ,
3, ,346, ,
1, ,346, ,
3, ,345, ,
1, ,346, ,
1, ,345, ,
3, ,345, ,
3, ,345, ,
1, ,346, ,
4, ,346, ,
1, ,347, ,
1, ,344, ,
4, ,346, ,
3, ,346, ,
0, ,346, ,
3, ,346, ,
1, ,346, ,
1, ,344, ,
3, ,346, ,
3, ,345, ,
0, ,345, ,
3, ,346, ,
1, ,348, ,
1, ,344, ,
4, ,346, ,
3, ,346, ,
0, ,345, ,
3, ,345, ,
1, ,346, ,
1, ,345, ,
3, ,346, ,
3, ,345, ,
0, ,346, ,
4, ,346, ,
1, ,348, ,
1, ,344, ,
4, ,345, ,
1, ,346, ,
0, ,346, ,
3, ,345, ,
1, ,347, ,
1, ,346, ,
3, ,346, ,
3, ,345, ,
0, ,345, ,
3, ,346, ,
1, ,347, ,
1, ,344, ,
3, ,346, ,
3, ,346, ,
0, ,346, ,
3, ,345, ,
1, ,347, ,
1, ,345, ,
3, ,346, ,
1, ,345, ,
0, ,345, ,
3, ,346, ,
1, ,348, ,
1, ,345, ,
3, ,346, ,
3, ,345, ,
0, ,346, ,
3, ,345, ,
1, ,347, ,
1, ,345, ,
3, ,346, ,
3, ,346, ,
0, ,345, ,
3, ,346, ,
1, ,348, ,
1, ,344, ,
3, ,346, ,
1, ,346, ,
0, ,346, ,
3, ,345, ,
1, ,347, ,
1, ,345, ,
3, ,346, ,
3, ,346, ,
0, ,345, ,
3, ,345, ,
1, ,348, ,
1, ,344, ,
3, ,346, ,
1, ,346, ,
0, ,347, ,
3, ,345, ,
1, ,347, ,
1, ,345, ,
3, ,346, ,
3, ,345, ,
0, ,346, ,
3, ,346, ,
1, ,348, ,
1, ,345, ,
3, ,346, ,
3, ,345, ,
0, ,346, ,
3, ,345, ,
1, ,347, ,
1, ,344, ,
3, ,346, ,
1, ,345, ,
0, ,346, ,
3, ,346, ,
1, ,347, ,
1, ,344, ,
4, ,347, ,
1, ,346, ,
0, ,345, ,
3, ,345, ,
1, ,347, ,
1, ,345, ,
3, ,346, ,
1, ,346, ,
0, ,345, ,
4, ,346, ,
1, ,348, ,
1, ,345, ,
4, ,346, ,
1, ,346, ,
0, ,345, ,
3, ,345, ,
1, ,346, ,
1, ,345, ,
3, ,346, ,
1, ,345, ,
0, ,345, ,
3, ,345, ,
1, ,348, ,
1, ,344, ,
3, ,345, ,
1, ,346, ,
0, ,345, ,
3, ,345, ,
1, ,346, ,
1, ,346, ,
3, ,347, ,
1, ,345, ,
0, ,344, ,
3, ,347, ,
1, ,348, ,
1, ,345, ,
3, ,346, ,
1, ,346, ,
55, ,346, ,
57, ,345, ,
39, ,346, ,
23, ,345, ,
15, ,346, ,
9, ,345, ,
6, ,346, ,
8, ,345, ,
4, ,348, ,
3, ,345, ,
4, ,346, ,
3, ,346, ,
3, ,346, ,
4, ,346, ,
3, ,347, ,
3, ,345, ,
4, ,346, ,
4, ,345, ,
1, ,345, ,
5, ,346, ,
3, ,348, ,
3, ,345, ,
4, ,346, ,
3, ,346, ,
1, ,346, ,
4, ,345, ,
1, ,348, ,
1, ,345, ,
4, ,348, ,
3, ,345, ,
1, ,346, ,
5, ,346, ,
3, ,346, ,
3, ,345, ,
4, ,346, ,
3, ,346, ,
1, ,346, ,
4, ,345, ,
1, ,346, ,
1, ,345, ,
4, ,346, ,
3, ,346, ,
1, ,345, ,
5, ,346, ,
3, ,347, ,
1, ,344, ,
4, ,346, ,
3, ,346, ,
1, ,346, ,
4, ,346, ,
1, ,347, ,
3, ,345, ,
4, ,346, ,
3, ,345, ,
1, ,346, ,
5, ,346, ,
3, ,349, ,
1, ,344, ,
3, ,345, ,
3, ,346, ,
1, ,346, ,
4, ,346, ,
3, ,348, ,
1, ,346, ,
4, ,346, ,
3, ,345, ,
1, ,346, ,
3, ,346, ,
1, ,348, ,
1, ,345, ,
4, ,346, ,
4, ,346, ,
1, ,345, ,
4, ,345, ,
3, ,348, ,
3, ,345, ,
3, ,346, ,
3, ,345, ,
1, ,345, ,
4, ,346, ,
3, ,347, ,
3, ,344, ,
3, ,346, ,
3, ,346, ,
1, ,346, ,
4, ,346, ,
3, ,347, ,
3, ,345, ,
3, ,347, ,
3, ,346, ,
1, ,345, ,
4, ,346, ,
1, ,348, ,
1, ,345, ,
4, ,346, ,
3, ,346, ,
1, ,346, ,
4, ,345, ,
1, ,348, ,
3, ,346, ,
3, ,346, ,
3, ,345, ,
1, ,345, ,
4, ,345, ,
3, ,347, ,
1, ,344, ,
4, ,346, ,
3, ,346, ,
1, ,345, ,
4, ,346, ,
1, ,347, ,
1, ,345, ,
3, ,347, ,
3, ,345, ,
1, ,345, ,
4, ,346, ,
1, ,348, ,
1, ,345, ,
4, ,346, ,
3, ,347, ,
1, ,346, ,
3, ,345, ,
1, ,348, ,
1, ,345, ,
3, ,346, ,
3, ,345, ,
1, ,346, ,
4, ,346, ,
1, ,348, ,
1, ,345, ,
4, ,346, ,
3, ,348, ,
1, ,346, ,
3, ,345, ,
1, ,348, ,
1, ,345, ,
4, ,348, ,
3, ,345, ,
1, ,346, ,
4, ,347, ,
3, ,347, ,
1, ,345, ,
3, ,347, ,
3, ,346, ,
1, ,346, ,
3, ,345, ,
3, ,347, ,
1, ,345, ,
3, ,346, ,
3, ,345, ,
1, ,345, ,
4, ,345, ,
1, ,348, ,
1, ,344, ,
3, ,347, ,
3, ,342, ,
1, ,345, ,
3, ,348, ,
1, ,350, ,
1, ,346, ,
4, ,345, ,
3, ,344, ,
1, ,345, ,
4, ,346, ,
1, ,349, ,
1, ,345, ,
3, ,348, ,
3, ,346, ,
1, ,346, ,
3, ,346, ,
1, ,347, ,
1, ,345, ,
4, ,348, ,
3, ,345, ,
1, ,346, ,
3, ,346, ,
1, ,348, ,
1, ,345, ,
3, ,346, ,
3, ,344, ,
1, ,345, ,
3, ,346, ,
1, ,348, ,
1, ,346, ,
3, ,348, ,
3, ,345, ,
1, ,345, ,
4, ,345, ,
1, ,348, ,
1, ,344, ,
3, ,346, ,
3, ,346, ,
1, ,347, ,
3, ,346, ,
1, ,348, ,
1, ,346, ,
3, ,347, ,
1, ,345, ,
1, ,346, ,
4, ,345, ,
1, ,348, ,
1, ,345, ,
3, ,346, ,
3, ,345, ,
0, ,344, ,
3, ,343, ,
1, ,344, ,
1, ,344, ,
3, ,348, ,
1, ,348, ,
0, ,348, ,
3, ,347, ,
1, ,347, ,
1, ,342, ,
3, ,345, ,
3, ,344, ,
0, ,345, ,
3, ,345, ,
1, ,347, ,
1, ,345, ,
3, ,348, ,
1, ,345, ,
0, ,345, ,
3, ,345, ,
1, ,348, ,
0, ,344, ,
58, ,346, ,
39, ,346, ,
24, ,346, ,
18, ,345, ,
13, ,346, ,
8, ,345, ,
6, ,345, ,
4, ,345, ,
4, ,346, ,
5, ,346, ,
3, ,348, ,
1, ,344, ,
5, ,346, ,
4, ,346, ,
1, ,345, ,
4, ,345, ,
3, ,346, ,
3, ,344, ,
4, ,346, ,
3, ,345, ,
3, ,344, ,
4, ,345, ,
3, ,347, ,
1, ,344, ,
4, ,344, ,
4, ,346, ,
1, ,346, ,
4, ,345, ,
1, ,346, ,
3, ,345, ,
4, ,346, ,
3, ,345, ,
1, ,346, ,
4, ,346, ,
1, ,346, ,
3, ,344, ,
4, ,348, ,
4, ,345, ,
1, ,345, ,
4, ,345, ,
3, ,346, ,
3, ,345, ,
4, ,346, ,
3, ,346, ,
1, ,345, ,
4, ,346, ,
3, ,347, ,
1, ,344, ,
4, ,347, ,
3, ,346, ,
1, ,345, ,
4, ,344, ,
1, ,347, ,
1, ,345, ,
4, ,346, ,
3, ,344, ,
1, ,345, ,
4, ,346, ,
1, ,346, ,
1, ,344, ,
4, ,347, ,
3, ,346, ,
1, ,346, ,
4, ,345, ,
3, ,348, ,
3, ,345, ,
4, ,347, ,
3, ,345, ,
1, ,345, ,
4, ,345, ,
3, ,347, ,
1, ,344, ,
4, ,346, ,
3, ,346, ,
1, ,346, ,
4, ,346, ,
1, ,346, ,
1, ,345, ,
