src/vary_led_1562/temp0001450.CSV

Format,1.0B,
Memory Length,10000,Memory Length,10000,
IntpDistance,0,IntpDistance,0,
Trigger Address,5159,Trigger Address,5159,
Trigger Level,3.000E-01,Trigger Level,3.000E-01,
Source,CH1,Source,CH2,
Vertical Units,V,Vertical Units,V,
Vertical Units Div,0,Vertical Units Div,0,
Vertical Units Extend Div,16,Vertical Units Extend Div,16,
Label,,Label,,
Probe Type,0,Probe Type,0,
Probe Ratio,1.000e+01,Probe Ratio,1.000e+00,
Vertical Scale,5.000e-01,Vertical Scale,2.000e-01,
Vertical Position,-1.780e+00,Vertical Position,-2.240e+00,
Horizontal Units,S,Horizontal Units,S,
Horizontal Scale,2.000E-05,Horizontal Scale,2.000E-05,
Horizontal Position,-3.200E-06,Horizontal Position,-3.200E-06,
Horizontal Mode,Main,Horizontal Mode,Main,
SincET Mode,Real Time,SincET Mode,Real Time,
Sampling Period,2.000e-08,Sampling Period,2.000e-08,
Horizontal Old Scale,2.000E-05,Horizontal Old Scale,2.000E-05,
Horizontal Old Position,-3.200E-06,Horizontal Old Position,-3.200E-06,
Firmware,V1.23,Firmware,V1.23,
Mode,Fast,Mode,Fast,
Waveform Data,,Waveform Data,,
1, ,216, ,
0, ,217, ,
1, ,216, ,
0, ,217, ,
1, ,217, ,
1, ,216, ,
1, ,216, ,
0, ,216, ,
1, ,216, ,
0, ,216, ,
0, ,216, ,
1, ,216, ,
1, ,217, ,
0, ,217, ,
1, ,216, ,
1, ,216, ,
0, ,216, ,
1, ,216, ,
1, ,216, ,
0, ,217, ,
3, ,217, ,
1, ,217, ,
0, ,217, ,
1, ,216, ,
1, ,216, ,
0, ,216, ,
1, ,216, ,
0, ,217, ,
1, ,216, ,
1, ,216, ,
1, ,216, ,
0, ,216, ,
1, ,217, ,
1, ,217, ,
0, ,217, ,
1, ,215, ,
1, ,216, ,
0, ,216, ,
3, ,216, ,
0, ,216, ,
1, ,218, ,
1, ,216, ,
1, ,216, ,
0, ,216, ,
1, ,216, ,
0, ,217, ,
1, ,216, ,
1, ,216, ,
1, ,216, ,
0, ,217, ,
1, ,217, ,
1, ,217, ,
1, ,217, ,
1, ,217, ,
1, ,216, ,
0, ,216, ,
1, ,217, ,
1, ,217, ,
1, ,217, ,
1, ,217, ,
1, ,216, ,
0, ,218, ,
1, ,215, ,
1, ,216, ,
1, ,216, ,
1, ,217, ,
1, ,216, ,
0, ,216, ,
1, ,216, ,
0, ,216, ,
1, ,216, ,
1, ,217, ,
1, ,216, ,
0, ,216, ,
1, ,216, ,
1, ,215, ,
1, ,218, ,
1, ,217, ,
1, ,215, ,
0, ,218, ,
1, ,215, ,
1, ,217, ,
1, ,216, ,
1, ,217, ,
1, ,216, ,
0, ,218, ,
1, ,216, ,
1, ,216, ,
1, ,216, ,
1, ,217, ,
1, ,215, ,
0, ,217, ,
3, ,216, ,
1, ,217, ,
1, ,216, ,
1, ,216, ,
1, ,216, ,
0, ,217, ,
1, ,216, ,
1, ,216, ,
1, ,216, ,
1, ,217, ,
1, ,216, ,
0, ,217, ,
1, ,216, ,
0, ,217, ,
1, ,216, ,
1, ,216, ,
1, ,216, ,
0, ,218, ,
1, ,215, ,
1, ,216, ,
1, ,216, ,
1, ,217, ,
1, ,216, ,
0, ,216, ,
3, ,216, ,
1, ,217, ,
1, ,217, ,
1, ,217, ,
1, ,216, ,
0, ,216, ,
1, ,216, ,
1, ,216, ,
1, ,217, ,
1, ,217, ,
1, ,215, ,
0, ,216, ,
1, ,216, ,
1, ,216, ,
1, ,216, ,
1, ,216, ,
1, ,217, ,
0, ,217, ,
1, ,215, ,
1, ,216, ,
1, ,217, ,
1, ,216, ,
1, ,216, ,
0, ,216, ,
1, ,216, ,
0, ,216, ,
1, ,217, ,
1, ,216, ,
1, ,216, ,
0, ,217, ,
1, ,216, ,
1, ,216, ,
0, ,216, ,
1, ,216, ,
1, ,216, ,
0, ,217, ,
1, ,216, ,
0, ,216, ,
1, ,216, ,
1, ,216, ,
1, ,215, ,
0, ,216, ,
1, ,216, ,
0, ,217, ,
1, ,216, ,
1, ,216, ,
1, ,216, ,
0, ,216, ,
1, ,216, ,
0, ,217, ,
0, ,216, ,
1, ,216, ,
1, ,217, ,
0, ,217, ,
1, ,216, ,
1, ,216, ,
0, ,216, ,
1, ,217, ,
1, ,216, ,
0, ,217, ,
3, ,216, ,
1, ,216, ,
1, ,216, ,
1, ,216, ,
1, ,216, ,
0, ,216, ,
1, ,216, ,
1, ,216, ,
1, ,216, ,
1, ,216, ,
1, ,217, ,
0, ,216, ,
1, ,216, ,
1, ,216, ,
1, ,216, ,
1, ,216, ,
1, ,216, ,
0, ,216, ,
1, ,216, ,
1, ,216, ,
1, ,218, ,
1, ,216, ,
1, ,216, ,
0, ,217, ,
1, ,217, ,
0, ,217, ,
1, ,216, ,
1, ,216, ,
1, ,216, ,
0, ,216, ,
1, ,216, ,
1, ,216, ,
1, ,216, ,
1, ,217, ,
1, ,217, ,
0, ,216, ,
1, ,216, ,
1, ,217, ,
1, ,216, ,
1, ,216, ,
1, ,216, ,
0, ,217, ,
1, ,216, ,
1, ,216, ,
1, ,216, ,
1, ,216, ,
1, ,216, ,
0, ,217, ,
1, ,216, ,
1, ,217, ,
1, ,216, ,
1, ,216, ,
1, ,216, ,
0, ,217, ,
1, ,215, ,
1, ,216, ,
1, ,217, ,
1, ,216, ,
1, ,216, ,
0, ,216, ,
3, ,217, ,
1, ,216, ,
0, ,216, ,
1, ,216, ,
1, ,216, ,
0, ,216, ,
1, ,215, ,
1, ,216, ,
1, ,217, ,
1, ,218, ,
1, ,217, ,
0, ,217, ,
1, ,216, ,
1, ,217, ,
1, ,216, ,
1, ,216, ,
1, ,216, ,
0, ,218, ,
1, ,216, ,
1, ,216, ,
1, ,216, ,
1, ,216, ,
1, ,216, ,
0, ,217, ,
1, ,216, ,
0, ,216, ,
1, ,217, ,
1, ,216, ,
1, ,216, ,
0, ,217, ,
1, ,216, ,
0, ,216, ,
1, ,217, ,
1, ,216, ,
1, ,216, ,
0, ,216, ,
1, ,216, ,
1, ,217, ,
1, ,216, ,
1, ,216, ,
1, ,216, ,
0, ,216, ,
1, ,215, ,
1, ,215, ,
1, ,215, ,
1, ,214, ,
1, ,215, ,
0, ,218, ,
1, ,220, ,
1, ,220, ,
1, ,216, ,
1, ,213, ,
1, ,213, ,
0, ,215, ,
1, ,216, ,
0, ,217, ,
1, ,216, ,
1, ,217, ,
1, ,214, ,
0, ,216, ,
1, ,216, ,
0, ,216, ,
0, ,216, ,
1, ,216, ,
1, ,216, ,
0, ,216, ,
1, ,215, ,
1, ,217, ,
1, ,217, ,
1, ,216, ,
1, ,216, ,
0, ,215, ,
1, ,216, ,
1, ,216, ,
1, ,216, ,
1, ,216, ,
1, ,216, ,
0, ,216, ,
1, ,217, ,
1, ,216, ,
1, ,216, ,
1, ,217, ,
0, ,216, ,
0, ,217, ,
1, ,216, ,
1, ,216, ,
0, ,216, ,
1, ,216, ,
1, ,216, ,
0, ,218, ,
1, ,216, ,
1, ,215, ,
1, ,216, ,
1, ,216, ,
1, ,215, ,
0, ,216, ,
1, ,216, ,
0, ,216, ,
1, ,216, ,
1, ,216, ,
1, ,216, ,
0, ,216, ,
3, ,216, ,
1, ,216, ,
1, ,216, ,
1, ,216, ,
1, ,216, ,
0, ,216, ,
1, ,216, ,
1, ,216, ,
1, ,216, ,
1, ,216, ,
1, ,216, ,
0, ,216, ,
1, ,216, ,
0, ,216, ,
1, ,218, ,
1, ,216, ,
1, ,216, ,
0, ,216, ,
3, ,216, ,
1, ,216, ,
0, ,216, ,
1, ,215, ,
1, ,216, ,
0, ,216, ,
1, ,216, ,
0, ,216, ,
1, ,217, ,
1, ,217, ,
1, ,216, ,
0, ,217, ,
1, ,216, ,
1, ,216, ,
1, ,216, ,
1, ,216, ,
1, ,216, ,
0, ,218, ,
1, ,216, ,
1, ,216, ,
1, ,216, ,
1, ,216, ,
1, ,216, ,
0, ,217, ,
1, ,216, ,
1, ,217, ,
1, ,216, ,
1, ,216, ,
1, ,216, ,
0, ,217, ,
3, ,216, ,
0, ,216, ,
1, ,217, ,
1, ,217, ,
1, ,217, ,
0, ,217, ,
1, ,216, ,
1, ,216, ,
1, ,216, ,
1, ,216, ,
1, ,217, ,
0, ,218, ,
1, ,216, ,
1, ,217, ,
1, ,216, ,
1, ,216, ,
1, ,216, ,
0, ,216, ,
1, ,216, ,
0, ,217, ,
1, ,216, ,
1, ,217, ,
1, ,217, ,
0, ,218, ,
1, ,217, ,
0, ,217, ,
1, ,216, ,
1, ,217, ,
1, ,216, ,
0, ,217, ,
1, ,216, ,
1, ,216, ,
0, ,216, ,
1, ,216, ,
1, ,216, ,
0, ,217, ,
1, ,216, ,
1, ,216, ,
1, ,216, ,
1, ,218, ,
1, ,217, ,
0, ,218, ,
1, ,217, ,
0, ,217, ,
1, ,216, ,
1, ,216, ,
1, ,216, ,
0, ,216, ,
1, ,216, ,
1, ,216, ,
1, ,217, ,
1, ,216, ,
1, ,216, ,
0, ,217, ,
1, ,217, ,
1, ,216, ,
1, ,216, ,
1, ,216, ,
1, ,216, ,
0, ,216, ,
1, ,216, ,
1, ,217, ,
1, ,217, ,
1, ,217, ,
1, ,216, ,
0, ,217, ,
3, ,216, ,
1, ,216, ,
1, ,216, ,
1, ,216, ,
1, ,217, ,
0, ,217, ,
1, ,215, ,
0, ,215, ,
1, ,218, ,
1, ,217, ,
1, ,217, ,
0, ,216, ,
3, ,216, ,
1, ,216, ,
0, ,216, ,
1, ,217, ,
1, ,216, ,
0, ,218, ,
1, ,216, ,
1, ,216, ,
0, ,218, ,
1, ,217, ,
1, ,217, ,
0, ,216, ,
1, ,217, ,
0, ,216, ,
1, ,216, ,
1, ,216, ,
1, ,217, ,
0, ,217, ,
1, ,216, ,
1, ,216, ,
1, ,217, ,
1, ,217, ,
1, ,216, ,
0, ,217, ,
3, ,216, ,
1, ,217, ,
0, ,216, ,
1, ,217, ,
1, ,216, ,
0, ,217, ,
1, ,217, ,
1, ,216, ,
1, ,216, ,
1, ,217, ,
1, ,216, ,
0, ,217, ,
1, ,217, ,
1, ,217, ,
1, ,216, ,
1, ,216, ,
1, ,216, ,
0, ,216, ,
1, ,217, ,
1, ,216, ,
1, ,217, ,
1, ,216, ,
1, ,216, ,
0, ,216, ,
1, ,216, ,
1, ,217, ,
1, ,216, ,
1, ,216, ,
1, ,216, ,
0, ,217, ,
1, ,215, ,
1, ,216, ,
1, ,216, ,
1, ,217, ,
1, ,216, ,
0, ,216, ,
3, ,217, ,
1, ,217, ,
1, ,216, ,
1, ,216, ,
1, ,216, ,
0, ,216, ,
1, ,216, ,
1, ,216, ,
1, ,216, ,
1, ,216, ,
1, ,216, ,
0, ,216, ,
1, ,217, ,
0, ,216, ,
0, ,216, ,
1, ,217, ,
1, ,216, ,
-1, ,218, ,
1, ,216, ,
1, ,216, ,
1, ,218, ,
1, ,216, ,
1, ,216, ,
0, ,216, ,
3, ,217, ,
1, ,216, ,
1, ,216, ,
1, ,216, ,
1, ,216, ,
0, ,217, ,
1, ,216, ,
1, ,216, ,
0, ,218, ,
1, ,217, ,
1, ,215, ,
0, ,217, ,
1, ,216, ,
1, ,217, ,
1, ,216, ,
1, ,216, ,
1, ,217, ,
0, ,217, ,
3, ,216, ,
1, ,215, ,
1, ,218, ,
1, ,216, ,
1, ,217, ,
0, ,217, ,
1, ,216, ,
0, ,217, ,
0, ,216, ,
1, ,216, ,
1, ,216, ,
0, ,218, ,
1, ,217, ,
0, ,216, ,
0, ,218, ,
1, ,218, ,
1, ,216, ,
0, ,216, ,
1, ,217, ,
1, ,217, ,
1, ,216, ,
3, ,216, ,
1, ,216, ,
0, ,218, ,
1, ,216, ,
1, ,215, ,
1, ,217, ,
1, ,216, ,
1, ,216, ,
0, ,216, ,
1, ,216, ,
1, ,216, ,
1, ,218, ,
1, ,216, ,
1, ,217, ,
0, ,217, ,
1, ,217, ,
0, ,216, ,
1, ,218, ,
1, ,216, ,
1, ,216, ,
0, ,216, ,
1, ,217, ,
1, ,217, ,
0, ,216, ,
1, ,215, ,
1, ,216, ,
0, ,217, ,
1, ,216, ,
0, ,216, ,
1, ,218, ,
1, ,217, ,
1, ,217, ,
0, ,218, ,
3, ,217, ,
1, ,217, ,
1, ,216, ,
1, ,216, ,
1, ,217, ,
0, ,216, ,
1, ,217, ,
1, ,216, ,
1, ,217, ,
1, ,217, ,
1, ,216, ,
0, ,216, ,
1, ,217, ,
0, ,217, ,
0, ,216, ,
1, ,216, ,
3, ,216, ,
0, ,217, ,
3, ,216, ,
1, ,216, ,
1, ,217, ,
1, ,217, ,
1, ,215, ,
0, ,217, ,
1, ,216, ,
0, ,216, ,
1, ,216, ,
1, ,216, ,
1, ,216, ,
-1, ,217, ,
1, ,216, ,
0, ,216, ,
0, ,218, ,
1, ,217, ,
1, ,216, ,
0, ,217, ,
3, ,217, ,
0, ,217, ,
1, ,216, ,
3, ,216, ,
3, ,217, ,
0, ,218, ,
1, ,216, ,
0, ,216, ,
0, ,217, ,
1, ,216, ,
1, ,216, ,
0, ,216, ,
1, ,217, ,
0, ,217, ,
0, ,217, ,
1, ,217, ,
1, ,217, ,
0, ,218, ,
3, ,217, ,
1, ,217, ,
1, ,216, ,
1, ,215, ,
1, ,214, ,
0, ,216, ,
1, ,217, ,
0, ,217, ,
0, ,216, ,
1, ,216, ,
1, ,216, ,
0, ,216, ,
1, ,216, ,
1, ,216, ,
0, ,217, ,
1, ,217, ,
1, ,216, ,
0, ,216, ,
1, ,218, ,
1, ,216, ,
1, ,216, ,
1, ,216, ,
1, ,216, ,
0, ,217, ,
1, ,216, ,
1, ,216, ,
1, ,218, ,
1, ,217, ,
1, ,216, ,
0, ,218, ,
1, ,216, ,
1, ,217, ,
1, ,218, ,
1, ,216, ,
1, ,216, ,
0, ,217, ,
1, ,216, ,
1, ,217, ,
1, ,217, ,
1, ,217, ,
1, ,216, ,
0, ,216, ,
3, ,216, ,
1, ,217, ,
1, ,216, ,
1, ,216, ,
1, ,216, ,
0, ,217, ,
1, ,216, ,
1, ,217, ,
1, ,218, ,
1, ,217, ,
1, ,216, ,
0, ,216, ,
1, ,217, ,
1, ,217, ,
1, ,216, ,
1, ,216, ,
1, ,216, ,
0, ,217, ,
1, ,216, ,
1, ,216, ,
1, ,216, ,
1, ,217, ,
1, ,216, ,
0, ,217, ,
1, ,217, ,
1, ,216, ,
1, ,217, ,
1, ,216, ,
1, ,217, ,
0, ,217, ,
1, ,216, ,
0, ,216, ,
1, ,217, ,
1, ,216, ,
1, ,215, ,
0, ,216, ,
1, ,217, ,
0, ,216, ,
0, ,216, ,
1, ,215, ,
1, ,216, ,
0, ,217, ,
1, ,217, ,
0, ,216, ,
1, ,217, ,
1, ,217, ,
1, ,216, ,
0, ,216, ,
1, ,217, ,
0, ,217, ,
1, ,217, ,
3, ,216, ,
1, ,216, ,
0, ,218, ,
1, ,216, ,
1, ,216, ,
1, ,218, ,
1, ,216, ,
1, ,216, ,
0, ,217, ,
1, ,216, ,
1, ,217, ,
1, ,216, ,
1, ,216, ,
1, ,218, ,
0, ,217, ,
3, ,216, ,
1, ,217, ,
1, ,218, ,
1, ,217, ,
1, ,216, ,
0, ,217, ,
1, ,216, ,
1, ,216, ,
1, ,216, ,
1, ,216, ,
1, ,217, ,
0, ,216, ,
1, ,216, ,
1, ,216, ,
1, ,218, ,
1, ,217, ,
1, ,216, ,
0, ,217, ,
1, ,217, ,
0, ,217, ,
1, ,216, ,
1, ,216, ,
1, ,216, ,
0, ,217, ,
1, ,216, ,
1, ,216, ,
0, ,217, ,
1, ,217, ,
1, ,216, ,
0, ,218, ,
1, ,217, ,
0, ,216, ,
1, ,216, ,
1, ,216, ,
1, ,216, ,
0, ,218, ,
1, ,217, ,
0, ,216, ,
0, ,217, ,
1, ,216, ,
1, ,216, ,
0, ,216, ,
1, ,216, ,
0, ,216, ,
0, ,217, ,
1, ,216, ,
1, ,216, ,
0, ,216, ,
1, ,216, ,
0, ,216, ,
0, ,216, ,
1, ,217, ,
1, ,216, ,
0, ,216, ,
1, ,217, ,
0, ,217, ,
0, ,217, ,
1, ,216, ,
1, ,217, ,
0, ,218, ,
1, ,216, ,
0, ,216, ,
0, ,218, ,
1, ,216, ,
1, ,216, ,
0, ,216, ,
1, ,216, ,
0, ,217, ,
0, ,216, ,
1, ,216, ,
1, ,217, ,
0, ,217, ,
1, ,215, ,
1, ,217, ,
0, ,217, ,
1, ,218, ,
1, ,215, ,
0, ,216, ,
1, ,216, ,
1, ,216, ,
1, ,216, ,
1, ,218, ,
1, ,216, ,
0, ,218, ,
1, ,217, ,
1, ,216, ,
1, ,217, ,
1, ,217, ,
1, ,216, ,
0, ,217, ,
1, ,217, ,
1, ,217, ,
1, ,217, ,
1, ,216, ,
1, ,217, ,
0, ,217, ,
1, ,216, ,
1, ,216, ,
1, ,216, ,
1, ,217, ,
3, ,216, ,
0, ,217, ,
1, ,216, ,
1, ,217, ,
1, ,217, ,
1, ,217, ,
1, ,217, ,
0, ,218, ,
1, ,216, ,
1, ,217, ,
1, ,219, ,
1, ,218, ,
1, ,216, ,
0, ,217, ,
1, ,216, ,
1, ,216, ,
1, ,216, ,
1, ,216, ,
1, ,216, ,
0, ,218, ,
1, ,216, ,
1, ,217, ,
1, ,217, ,
1, ,217, ,
1, ,215, ,
0, ,216, ,
1, ,216, ,
0, ,216, ,
1, ,216, ,
1, ,216, ,
1, ,216, ,
0, ,217, ,
1, ,216, ,
0, ,216, ,
0, ,216, ,
1, ,217, ,
1, ,217, ,
0, ,216, ,
1, ,216, ,
0, ,216, ,
0, ,216, ,
1, ,216, ,
1, ,217, ,
0, ,217, ,
1, ,216, ,
0, ,216, ,
0, ,217, ,
1, ,217, ,
1, ,216, ,
0, ,216, ,
1, ,216, ,
0, ,217, ,
1, ,216, ,
1, ,216, ,
1, ,216, ,
0, ,216, ,
1, ,216, ,
1, ,216, ,
0, ,217, ,
1, ,216, ,
1, ,216, ,
0, ,217, ,
1, ,216, ,
0, ,217, ,
1, ,216, ,
1, ,216, ,
1, ,216, ,
0, ,216, ,
1, ,216, ,
1, ,216, ,
1, ,216, ,
1, ,216, ,
1, ,216, ,
0, ,216, ,
1, ,217, ,
1, ,216, ,
0, ,217, ,
1, ,216, ,
1, ,216, ,
0, ,218, ,
1, ,216, ,
0, ,216, ,
1, ,218, ,
1, ,217, ,
1, ,217, ,
0, ,216, ,
1, ,216, ,
0, ,216, ,
1, ,216, ,
1, ,216, ,
1, ,216, ,
0, ,217, ,
1, ,216, ,
1, ,216, ,
1, ,216, ,
1, ,217, ,
1, ,216, ,
0, ,216, ,
1, ,216, ,
1, ,217, ,
1, ,216, ,
1, ,216, ,
1, ,216, ,
0, ,216, ,
1, ,216, ,
1, ,216, ,
1, ,218, ,
1, ,216, ,
1, ,216, ,
0, ,217, ,
1, ,216, ,
0, ,216, ,
1, ,216, ,
1, ,216, ,
1, ,216, ,
0, ,217, ,
3, ,216, ,
1, ,216, ,
0, ,217, ,
1, ,216, ,
1, ,216, ,
0, ,217, ,
1, ,216, ,
1, ,216, ,
1, ,215, ,
1, ,216, ,
1, ,217, ,
0, ,218, ,
1, ,216, ,
0, ,216, ,
1, ,218, ,
1, ,217, ,
1, ,216, ,
0, ,217, ,
1, ,216, ,
1, ,216, ,
0, ,217, ,
1, ,216, ,
1, ,216, ,
0, ,216, ,
1, ,216, ,
1, ,216, ,
1, ,216, ,
1, ,216, ,
1, ,216, ,
0, ,218, ,
1, ,216, ,
1, ,217, ,
1, ,216, ,
1, ,216, ,
1, ,217, ,
0, ,217, ,
1, ,216, ,
1, ,216, ,
1, ,217, ,
1, ,216, ,
1, ,216, ,
0, ,216, ,
1, ,217, ,
1, ,217, ,
1, ,216, ,
1, ,216, ,
1, ,216, ,
0, ,217, ,
1, ,216, ,
1, ,216, ,
1, ,216, ,
1, ,216, ,
1, ,216, ,
0, ,216, ,
1, ,216, ,
0, ,216, ,
1, ,216, ,
1, ,216, ,
1, ,217, ,
0, ,216, ,
1, ,216, ,
0, ,216, ,
0, ,217, ,
1, ,216, ,
1, ,216, ,
0, ,216, ,
1, ,217, ,
0, ,217, ,
0, ,217, ,
1, ,216, ,
1, ,217, ,
0, ,217, ,
1, ,216, ,
1, ,216, ,
0, ,218, ,
1, ,217, ,
1, ,216, ,
0, ,217, ,
1, ,216, ,
1, ,216, ,
1, ,216, ,
1, ,215, ,
1, ,216, ,
0, ,218, ,
1, ,216, ,
1, ,216, ,
1, ,216, ,
1, ,216, ,
1, ,216, ,
0, ,216, ,
1, ,216, ,
0, ,217, ,
0, ,216, ,
1, ,216, ,
1, ,217, ,
0, ,217, ,
1, ,216, ,
0, ,216, ,
0, ,218, ,
1, ,216, ,
1, ,216, ,
0, ,218, ,
1, ,216, ,
1, ,216, ,
0, ,216, ,
1, ,215, ,
1, ,217, ,
0, ,216, ,
1, ,216, ,
0, ,216, ,
0, ,218, ,
1, ,217, ,
1, ,216, ,
0, ,216, ,
1, ,216, ,
0, ,216, ,
1, ,216, ,
1, ,218, ,
1, ,217, ,
0, ,218, ,
3, ,216, ,
0, ,216, ,
0, ,218, ,
1, ,216, ,
1, ,215, ,
0, ,216, ,
1, ,216, ,
0, ,217, ,
0, ,217, ,
1, ,216, ,
1, ,216, ,
0, ,217, ,
1, ,217, ,
1, ,216, ,
0, ,217, ,
1, ,217, ,
1, ,216, ,
0, ,217, ,
1, ,217, ,
0, ,216, ,
1, ,216, ,
1, ,215, ,
1, ,216, ,
0, ,218, ,
1, ,216, ,
1, ,216, ,
0, ,218, ,
1, ,216, ,
1, ,216, ,
0, ,215, ,
1, ,216, ,
1, ,216, ,
1, ,217, ,
1, ,217, ,
1, ,216, ,
0, ,217, ,
1, ,216, ,
0, ,216, ,
1, ,217, ,
1, ,216, ,
1, ,216, ,
0, ,217, ,
1, ,216, ,
1, ,217, ,
0, ,216, ,
1, ,216, ,
1, ,217, ,
0, ,217, ,
1, ,216, ,
1, ,216, ,
1, ,217, ,
1, ,216, ,
1, ,216, ,
0, ,217, ,
1, ,216, ,
0, ,217, ,
1, ,216, ,
1, ,217, ,
1, ,216, ,
0, ,216, ,
1, ,216, ,
1, ,216, ,
1, ,217, ,
1, ,217, ,
3, ,216, ,
0, ,217, ,
1, ,216, ,
0, ,216, ,
1, ,217, ,
1, ,216, ,
1, ,217, ,
0, ,217, ,
1, ,215, ,
1, ,216, ,
0, ,217, ,
1, ,216, ,
1, ,216, ,
0, ,217, ,
1, ,217, ,
0, ,216, ,
1, ,216, ,
1, ,216, ,
1, ,216, ,
0, ,217, ,
1, ,216, ,
1, ,216, ,
1, ,217, ,
1, ,216, ,
1, ,216, ,
0, ,217, ,
1, ,217, ,
0, ,217, ,
1, ,216, ,
1, ,216, ,
1, ,216, ,
0, ,217, ,
1, ,216, ,
0, ,216, ,
0, ,217, ,
1, ,217, ,
1, ,216, ,
0, ,216, ,
1, ,216, ,
0, ,217, ,
0, ,216, ,
1, ,216, ,
1, ,216, ,
0, ,218, ,
1, ,216, ,
0, ,216, ,
0, ,217, ,
1, ,217, ,
1, ,215, ,
0, ,217, ,
1, ,216, ,
1, ,216, ,
0, ,216, ,
1, ,216, ,
1, ,217, ,
0, ,216, ,
1, ,216, ,
1, ,216, ,
1, ,218, ,
1, ,217, ,
1, ,216, ,
0, ,217, ,
1, ,217, ,
1, ,217, ,
1, ,216, ,
1, ,216, ,
1, ,217, ,
0, ,217, ,
1, ,215, ,
1, ,216, ,
1, ,217, ,
1, ,216, ,
1, ,216, ,
0, ,216, ,
1, ,216, ,
0, ,216, ,
1, ,216, ,
1, ,216, ,
1, ,216, ,
0, ,217, ,
1, ,216, ,
0, ,216, ,
0, ,216, ,
1, ,217, ,
1, ,217, ,
0, ,216, ,
1, ,217, ,
0, ,217, ,
1, ,216, ,
1, ,216, ,
1, ,216, ,
0, ,217, ,
1, ,216, ,
1, ,216, ,
1, ,218, ,
1, ,216, ,
1, ,216, ,
0, ,216, ,
1, ,216, ,
1, ,217, ,
1, ,217, ,
1, ,216, ,
1, ,216, ,
0, ,216, ,
1, ,215, ,
1, ,217, ,
1, ,217, ,
1, ,217, ,
1, ,216, ,
0, ,216, ,
1, ,216, ,
0, ,217, ,
1, ,217, ,
1, ,216, ,
1, ,217, ,
0, ,217, ,
1, ,216, ,
0, ,217, ,
0, ,216, ,
1, ,217, ,
1, ,216, ,
0, ,216, ,
3, ,216, ,
0, ,216, ,
0, ,214, ,
1, ,214, ,
1, ,216, ,
0, ,220, ,
1, ,222, ,
1, ,218, ,
0, ,216, ,
1, ,213, ,
1, ,213, ,
0, ,216, ,
3, ,217, ,
0, ,217, ,
1, ,217, ,
1, ,216, ,
1, ,216, ,
0, ,216, ,
1, ,216, ,
1, ,216, ,
0, ,216, ,
1, ,217, ,
1, ,214, ,
0, ,217, ,
1, ,216, ,
1, ,216, ,
1, ,215, ,
1, ,216, ,
1, ,216, ,
0, ,216, ,
1, ,216, ,
1, ,216, ,
1, ,217, ,
1, ,216, ,
1, ,215, ,
0, ,217, ,
1, ,216, ,
0, ,216, ,
1, ,216, ,
1, ,216, ,
1, ,216, ,
0, ,216, ,
1, ,216, ,
1, ,216, ,
1, ,216, ,
1, ,217, ,
1, ,215, ,
0, ,216, ,
1, ,217, ,
0, ,216, ,
1, ,216, ,
1, ,215, ,
1, ,216, ,
0, ,218, ,
1, ,216, ,
0, ,216, ,
1, ,216, ,
1, ,216, ,
1, ,216, ,
0, ,216, ,
1, ,216, ,
1, ,216, ,
0, ,215, ,
1, ,216, ,
1, ,215, ,
0, ,216, ,
1, ,215, ,
1, ,216, ,
1, ,216, ,
1, ,216, ,
1, ,216, ,
0, ,216, ,
1, ,216, ,
1, ,216, ,
1, ,216, ,
1, ,216, ,
1, ,216, ,
0, ,217, ,
1, ,216, ,
1, ,216, ,
1, ,216, ,
1, ,217, ,
1, ,215, ,
0, ,216, ,
1, ,216, ,
0, ,217, ,
1, ,216, ,
1, ,215, ,
1, ,216, ,
0, ,217, ,
1, ,216, ,
1, ,216, ,
1, ,217, ,
1, ,216, ,
1, ,216, ,
0, ,217, ,
1, ,216, ,
0, ,217, ,
1, ,216, ,
1, ,216, ,
1, ,216, ,
0, ,216, ,
1, ,216, ,
1, ,216, ,
1, ,217, ,
1, ,216, ,
1, ,216, ,
0, ,216, ,
1, ,217, ,
1, ,216, ,
1, ,217, ,
1, ,216, ,
1, ,217, ,
-1, ,218, ,
1, ,216, ,
0, ,216, ,
1, ,217, ,
1, ,217, ,
1, ,216, ,
0, ,217, ,
3, ,218, ,
1, ,216, ,
1, ,216, ,
1, ,216, ,
1, ,217, ,
0, ,216, ,
1, ,216, ,
1, ,216, ,
1, ,217, ,
1, ,217, ,
1, ,216, ,
0, ,217, ,
1, ,216, ,
0, ,217, ,
1, ,217, ,
1, ,216, ,
1, ,216, ,
0, ,218, ,
1, ,216, ,
0, ,216, ,
0, ,217, ,
1, ,217, ,
1, ,216, ,
0, ,216, ,
1, ,216, ,
1, ,217, ,
0, ,216, ,
1, ,216, ,
1, ,217, ,
0, ,217, ,
1, ,216, ,
1, ,216, ,
1, ,216, ,
1, ,217, ,
1, ,216, ,
0, ,217, ,
1, ,216, ,
1, ,217, ,
1, ,217, ,
1, ,216, ,
1, ,216, ,
-1, ,218, ,
1, ,216, ,
1, ,217, ,
1, ,216, ,
1, ,218, ,
1, ,216, ,
0, ,216, ,
1, ,217, ,
0, ,217, ,
1, ,217, ,
1, ,216, ,
1, ,217, ,
0, ,216, ,
1, ,216, ,
1, ,216, ,
1, ,218, ,
1, ,217, ,
1, ,216, ,
0, ,218, ,
1, ,217, ,
1, ,217, ,
1, ,216, ,
1, ,217, ,
1, ,217, ,
0, ,218, ,
1, ,215, ,
1, ,217, ,
1, ,217, ,
1, ,217, ,
1, ,216, ,
0, ,217, ,
1, ,216, ,
0, ,217, ,
1, ,216, ,
1, ,216, ,
1, ,217, ,
0, ,217, ,
1, ,216, ,
1, ,216, ,
1, ,218, ,
1, ,217, ,
1, ,216, ,
0, ,217, ,
1, ,217, ,
1, ,216, ,
1, ,217, ,
1, ,217, ,
1, ,217, ,
0, ,217, ,
1, ,216, ,
1, ,217, ,
1, ,218, ,
1, ,216, ,
1, ,216, ,
0, ,216, ,
1, ,216, ,
0, ,217, ,
0, ,216, ,
1, ,217, ,
1, ,216, ,
0, ,216, ,
1, ,216, ,
1, ,217, ,
1, ,218, ,
1, ,218, ,
1, ,216, ,
0, ,217, ,
1, ,218, ,
0, ,216, ,
1, ,216, ,
1, ,217, ,
1, ,216, ,
0, ,218, ,
3, ,216, ,
1, ,217, ,
0, ,217, ,
1, ,217, ,
1, ,216, ,
0, ,217, ,
1, ,216, ,
1, ,216, ,
1, ,216, ,
1, ,216, ,
1, ,216, ,
0, ,216, ,
1, ,217, ,
0, ,217, ,
1, ,218, ,
1, ,218, ,
1, ,216, ,
0, ,216, ,
3, ,216, ,
0, ,216, ,
0, ,216, ,
1, ,216, ,
1, ,217, ,
0, ,218, ,
1, ,217, ,
0, ,216, ,
0, ,218, ,
1, ,217, ,
1, ,216, ,
0, ,217, ,
1, ,216, ,
0, ,217, ,
0, ,217, ,
1, ,217, ,
1, ,216, ,
0, ,217, ,
1, ,216, ,
0, ,216, ,
1, ,216, ,
1, ,217, ,
1, ,216, ,
0, ,217, ,
1, ,216, ,
1, ,217, ,
0, ,216, ,
1, ,216, ,
1, ,216, ,
0, ,217, ,
1, ,212, ,
0, ,214, ,
1, ,218, ,
1, ,224, ,
1, ,219, ,
0, ,216, ,
1, ,214, ,
0, ,216, ,
0, ,216, ,
1, ,217, ,
1, ,217, ,
0, ,217, ,
1, ,216, ,
0, ,216, ,
1, ,217, ,
1, ,217, ,
1, ,215, ,
0, ,217, ,
1, ,217, ,
1, ,217, ,
0, ,217, ,
1, ,217, ,
1, ,217, ,
0, ,217, ,
1, ,216, ,
1, ,215, ,
1, ,218, ,
1, ,217, ,
1, ,216, ,
0, ,216, ,
1, ,216, ,
1, ,216, ,
1, ,217, ,
1, ,216, ,
3, ,217, ,
0, ,216, ,
1, ,217, ,
1, ,216, ,
1, ,218, ,
1, ,217, ,
1, ,216, ,
0, ,217, ,
1, ,216, ,
1, ,216, ,
1, ,217, ,
1, ,217, ,
1, ,217, ,
0, ,216, ,
1, ,216, ,
0, ,217, ,
1, ,216, ,
1, ,217, ,
1, ,216, ,
0, ,216, ,
1, ,217, ,
1, ,217, ,
0, ,216, ,
1, ,217, ,
1, ,217, ,
0, ,217, ,
1, ,216, ,
0, ,216, ,
1, ,217, ,
1, ,217, ,
1, ,216, ,
0, ,217, ,
1, ,217, ,
0, ,217, ,
0, ,216, ,
1, ,216, ,
1, ,216, ,
0, ,216, ,
1, ,216, ,
1, ,216, ,
0, ,217, ,
1, ,217, ,
1, ,216, ,
0, ,216, ,
1, ,216, ,
0, ,216, ,
1, ,216, ,
1, ,216, ,
1, ,216, ,
0, ,216, ,
1, ,216, ,
1, ,216, ,
1, ,217, ,
1, ,217, ,
1, ,215, ,
0, ,216, ,
1, ,216, ,
0, ,217, ,
1, ,217, ,
1, ,216, ,
1, ,216, ,
0, ,217, ,
1, ,216, ,
1, ,216, ,
0, ,218, ,
1, ,217, ,
1, ,216, ,
0, ,218, ,
1, ,216, ,
0, ,216, ,
1, ,217, ,
1, ,216, ,
1, ,217, ,
0, ,218, ,
1, ,216, ,
0, ,216, ,
0, ,218, ,
1, ,217, ,
1, ,216, ,
0, ,216, ,
1, ,216, ,
0, ,217, ,
0, ,216, ,
1, ,216, ,
1, ,217, ,
0, ,217, ,
1, ,217, ,
0, ,216, ,
0, ,217, ,
1, ,218, ,
1, ,215, ,
0, ,216, ,
1, ,216, ,
0, ,216, ,
0, ,216, ,
1, ,216, ,
1, ,217, ,
0, ,218, ,
1, ,217, ,
1, ,216, ,
0, ,218, ,
1, ,216, ,
