src/vary_led_1562/temp0003080.CSV

Format,1.0B,
Memory Length,10000,Memory Length,10000,
IntpDistance,0,IntpDistance,0,
Trigger Address,5159,Trigger Address,5159,
Trigger Level,3.000E-01,Trigger Level,3.000E-01,
Source,CH1,Source,CH2,
Vertical Units,V,Vertical Units,V,
Vertical Units Div,0,Vertical Units Div,0,
Vertical Units Extend Div,16,Vertical Units Extend Div,16,
Label,,Label,,
Probe Type,0,Probe Type,0,
Probe Ratio,1.000e+01,Probe Ratio,1.000e+00,
Vertical Scale,5.000e-01,Vertical Scale,2.000e-01,
Vertical Position,-1.780e+00,Vertical Position,-2.240e+00,
Horizontal Units,S,Horizontal Units,S,
Horizontal Scale,2.000E-05,Horizontal Scale,2.000E-05,
Horizontal Position,-3.200E-06,Horizontal Position,-3.200E-06,
Horizontal Mode,Main,Horizontal Mode,Main,
SincET Mode,Real Time,SincET Mode,Real Time,
Sampling Period,2.000e-08,Sampling Period,2.000e-08,
Horizontal Old Scale,2.000E-05,Horizontal Old Scale,2.000E-05,
Horizontal Old Position,-3.200E-06,Horizontal Old Position,-3.200E-06,
Firmware,V1.23,Firmware,V1.23,
Mode,Fast,Mode,Fast,
Waveform Data,,Waveform Data,,
1, ,262, ,
1, ,263, ,
3, ,262, ,
0, ,264, ,
3, ,263, ,
1, ,263, ,
1, ,262, ,
3, ,263, ,
1, ,263, ,
0, ,264, ,
3, ,262, ,
1, ,263, ,
1, ,263, ,
1, ,264, ,
1, ,263, ,
0, ,263, ,
1, ,262, ,
1, ,264, ,
1, ,263, ,
1, ,263, ,
1, ,263, ,
0, ,263, ,
3, ,262, ,
1, ,263, ,
1, ,263, ,
1, ,263, ,
1, ,261, ,
0, ,262, ,
3, ,263, ,
1, ,263, ,
1, ,263, ,
1, ,263, ,
1, ,262, ,
0, ,263, ,
3, ,263, ,
1, ,263, ,
1, ,263, ,
1, ,263, ,
1, ,262, ,
0, ,262, ,
3, ,263, ,
1, ,263, ,
1, ,262, ,
1, ,263, ,
1, ,263, ,
0, ,263, ,
1, ,262, ,
1, ,254, ,
1, ,262, ,
3, ,269, ,
3, ,268, ,
0, ,262, ,
3, ,260, ,
0, ,263, ,
1, ,263, ,
3, ,262, ,
3, ,263, ,
0, ,264, ,
1, ,263, ,
1, ,262, ,
1, ,262, ,
1, ,264, ,
1, ,263, ,
0, ,262, ,
1, ,263, ,
1, ,263, ,
1, ,262, ,
1, ,263, ,
1, ,263, ,
0, ,263, ,
1, ,262, ,
1, ,263, ,
1, ,263, ,
1, ,263, ,
1, ,262, ,
0, ,263, ,
3, ,263, ,
1, ,263, ,
1, ,262, ,
1, ,263, ,
1, ,263, ,
0, ,264, ,
3, ,263, ,
1, ,263, ,
1, ,263, ,
1, ,263, ,
3, ,263, ,
0, ,263, ,
3, ,263, ,
1, ,264, ,
1, ,262, ,
1, ,262, ,
1, ,262, ,
0, ,263, ,
1, ,262, ,
1, ,263, ,
1, ,262, ,
3, ,263, ,
3, ,262, ,
0, ,263, ,
3, ,263, ,
1, ,263, ,
1, ,263, ,
1, ,264, ,
1, ,262, ,
0, ,263, ,
3, ,263, ,
1, ,262, ,
1, ,262, ,
1, ,264, ,
1, ,263, ,
0, ,263, ,
1, ,263, ,
1, ,263, ,
1, ,262, ,
1, ,263, ,
3, ,262, ,
0, ,263, ,
3, ,263, ,
1, ,263, ,
1, ,262, ,
1, ,262, ,
1, ,262, ,
0, ,262, ,
1, ,263, ,
1, ,263, ,
1, ,262, ,
1, ,262, ,
1, ,263, ,
0, ,263, ,
3, ,263, ,
1, ,263, ,
1, ,262, ,
1, ,262, ,
1, ,262, ,
0, ,262, ,
1, ,263, ,
1, ,262, ,
1, ,263, ,
1, ,263, ,
1, ,262, ,
0, ,263, ,
3, ,263, ,
1, ,263, ,
1, ,263, ,
1, ,263, ,
1, ,262, ,
0, ,262, ,
1, ,263, ,
1, ,263, ,
1, ,262, ,
1, ,263, ,
1, ,262, ,
0, ,264, ,
1, ,262, ,
0, ,263, ,
1, ,263, ,
1, ,263, ,
3, ,262, ,
0, ,263, ,
1, ,263, ,
0, ,263, ,
1, ,262, ,
1, ,263, ,
1, ,263, ,
0, ,264, ,
3, ,262, ,
1, ,263, ,
1, ,262, ,
1, ,263, ,
3, ,262, ,
0, ,263, ,
3, ,263, ,
1, ,263, ,
1, ,262, ,
3, ,263, ,
1, ,263, ,
0, ,262, ,
1, ,262, ,
1, ,263, ,
1, ,263, ,
1, ,263, ,
1, ,262, ,
0, ,263, ,
1, ,263, ,
1, ,264, ,
1, ,262, ,
1, ,264, ,
1, ,262, ,
0, ,263, ,
3, ,263, ,
0, ,262, ,
1, ,263, ,
1, ,263, ,
1, ,262, ,
0, ,263, ,
3, ,263, ,
1, ,263, ,
1, ,263, ,
1, ,263, ,
1, ,262, ,
0, ,263, ,
3, ,263, ,
1, ,263, ,
1, ,263, ,
1, ,263, ,
3, ,262, ,
0, ,263, ,
1, ,263, ,
1, ,263, ,
1, ,262, ,
1, ,263, ,
1, ,263, ,
0, ,263, ,
1, ,262, ,
1, ,263, ,
1, ,263, ,
1, ,263, ,
1, ,262, ,
0, ,262, ,
1, ,263, ,
1, ,263, ,
1, ,262, ,
1, ,263, ,
1, ,263, ,
0, ,263, ,
1, ,262, ,
1, ,263, ,
1, ,262, ,
1, ,263, ,
3, ,263, ,
0, ,262, ,
3, ,263, ,
1, ,263, ,
1, ,261, ,
1, ,263, ,
1, ,262, ,
0, ,263, ,
1, ,262, ,
0, ,262, ,
1, ,262, ,
1, ,263, ,
1, ,262, ,
0, ,262, ,
3, ,262, ,
1, ,263, ,
1, ,262, ,
1, ,262, ,
1, ,262, ,
0, ,263, ,
3, ,262, ,
1, ,262, ,
1, ,262, ,
1, ,263, ,
1, ,262, ,
0, ,262, ,
1, ,263, ,
1, ,264, ,
1, ,263, ,
1, ,262, ,
1, ,262, ,
0, ,263, ,
1, ,263, ,
1, ,263, ,
1, ,263, ,
1, ,263, ,
1, ,263, ,
0, ,262, ,
3, ,263, ,
1, ,264, ,
1, ,262, ,
1, ,263, ,
1, ,262, ,
0, ,264, ,
3, ,262, ,
1, ,262, ,
1, ,262, ,
1, ,263, ,
120, ,262, ,
71, ,263, ,
39, ,263, ,
27, ,263, ,
23, ,262, ,
14, ,263, ,
8, ,263, ,
4, ,263, ,
8, ,262, ,
5, ,262, ,
3, ,263, ,
4, ,263, ,
4, ,262, ,
3, ,262, ,
5, ,262, ,
3, ,263, ,
4, ,263, ,
4, ,263, ,
4, ,263, ,
3, ,263, ,
4, ,262, ,
1, ,262, ,
3, ,262, ,
4, ,263, ,
4, ,263, ,
3, ,263, ,
4, ,263, ,
3, ,263, ,
3, ,262, ,
4, ,263, ,
4, ,263, ,
3, ,262, ,
4, ,262, ,
3, ,263, ,
3, ,263, ,
4, ,264, ,
4, ,262, ,
1, ,262, ,
5, ,263, ,
3, ,262, ,
3, ,261, ,
4, ,263, ,
4, ,263, ,
3, ,263, ,
4, ,262, ,
3, ,263, ,
3, ,263, ,
4, ,263, ,
4, ,262, ,
1, ,263, ,
4, ,263, ,
3, ,263, ,
3, ,262, ,
4, ,263, ,
4, ,263, ,
1, ,264, ,
4, ,263, ,
1, ,263, ,
3, ,263, ,
4, ,263, ,
4, ,262, ,
3, ,263, ,
4, ,263, ,
1, ,263, ,
3, ,262, ,
4, ,263, ,
4, ,262, ,
1, ,263, ,
4, ,262, ,
3, ,262, ,
3, ,262, ,
3, ,263, ,
4, ,262, ,
1, ,263, ,
4, ,263, ,
3, ,264, ,
3, ,263, ,
3, ,263, ,
3, ,261, ,
1, ,263, ,
4, ,263, ,
1, ,264, ,
3, ,262, ,
4, ,264, ,
3, ,262, ,
1, ,263, ,
4, ,263, ,
1, ,263, ,
3, ,262, ,
4, ,261, ,
4, ,261, ,
1, ,263, ,
4, ,263, ,
3, ,263, ,
3, ,263, ,
3, ,262, ,
4, ,263, ,
1, ,263, ,
4, ,263, ,
3, ,262, ,
3, ,262, ,
3, ,263, ,
3, ,263, ,
1, ,264, ,
4, ,263, ,
1, ,262, ,
3, ,262, ,
3, ,263, ,
3, ,262, ,
1, ,263, ,
4, ,263, ,
3, ,263, ,
3, ,262, ,
3, ,263, ,
3, ,263, ,
1, ,262, ,
4, ,262, ,
3, ,262, ,
3, ,262, ,
3, ,263, ,
3, ,263, ,
1, ,264, ,
4, ,263, ,
3, ,263, ,
3, ,262, ,
3, ,263, ,
3, ,262, ,
1, ,263, ,
4, ,262, ,
1, ,263, ,
3, ,262, ,
3, ,263, ,
3, ,262, ,
1, ,263, ,
4, ,263, ,
1, ,263, ,
3, ,262, ,
3, ,263, ,
3, ,263, ,
1, ,263, ,
4, ,262, ,
3, ,263, ,
3, ,262, ,
3, ,263, ,
3, ,262, ,
1, ,262, ,
4, ,263, ,
1, ,263, ,
3, ,262, ,
3, ,263, ,
3, ,262, ,
1, ,263, ,
4, ,262, ,
1, ,262, ,
3, ,263, ,
3, ,263, ,
3, ,262, ,
1, ,263, ,
4, ,263, ,
1, ,262, ,
3, ,262, ,
3, ,263, ,
3, ,262, ,
1, ,263, ,
4, ,262, ,
3, ,262, ,
3, ,263, ,
3, ,263, ,
3, ,262, ,
1, ,263, ,
4, ,263, ,
1, ,263, ,
3, ,262, ,
3, ,261, ,
3, ,263, ,
1, ,263, ,
4, ,262, ,
1, ,262, ,
3, ,263, ,
3, ,263, ,
3, ,262, ,
1, ,263, ,
3, ,263, ,
3, ,263, ,
3, ,262, ,
3, ,263, ,
3, ,263, ,
1, ,264, ,
4, ,263, ,
3, ,263, ,
3, ,262, ,
3, ,263, ,
3, ,263, ,
1, ,262, ,
3, ,261, ,
3, ,260, ,
3, ,260, ,
3, ,261, ,
1, ,264, ,
1, ,266, ,
3, ,265, ,
1, ,263, ,
3, ,262, ,
3, ,261, ,
3, ,261, ,
1, ,261, ,
4, ,263, ,
1, ,263, ,
1, ,262, ,
3, ,262, ,
3, ,262, ,
1, ,262, ,
4, ,262, ,
1, ,263, ,
3, ,262, ,
3, ,262, ,
3, ,262, ,
1, ,261, ,
3, ,263, ,
1, ,262, ,
3, ,261, ,
3, ,263, ,
3, ,262, ,
1, ,262, ,
4, ,262, ,
3, ,263, ,
3, ,262, ,
3, ,263, ,
3, ,261, ,
1, ,263, ,
3, ,263, ,
1, ,263, ,
3, ,262, ,
3, ,262, ,
3, ,262, ,
1, ,262, ,
3, ,262, ,
1, ,263, ,
3, ,263, ,
3, ,262, ,
3, ,262, ,
1, ,263, ,
4, ,263, ,
1, ,263, ,
3, ,262, ,
3, ,262, ,
3, ,262, ,
1, ,263, ,
4, ,262, ,
1, ,262, ,
3, ,263, ,
3, ,263, ,
3, ,262, ,
1, ,262, ,
3, ,263, ,
1, ,263, ,
3, ,262, ,
3, ,263, ,
3, ,263, ,
1, ,263, ,
4, ,262, ,
1, ,262, ,
3, ,262, ,
3, ,263, ,
3, ,262, ,
1, ,262, ,
3, ,263, ,
1, ,263, ,
3, ,262, ,
3, ,263, ,
1, ,262, ,
1, ,263, ,
4, ,262, ,
1, ,262, ,
3, ,262, ,
3, ,263, ,
3, ,262, ,
1, ,262, ,
3, ,263, ,
1, ,263, ,
3, ,262, ,
3, ,263, ,
3, ,262, ,
1, ,263, ,
3, ,262, ,
3, ,262, ,
3, ,262, ,
3, ,263, ,
3, ,262, ,
1, ,262, ,
3, ,262, ,
1, ,262, ,
1, ,262, ,
3, ,262, ,
3, ,262, ,
1, ,263, ,
3, ,263, ,
1, ,264, ,
3, ,263, ,
3, ,263, ,
3, ,262, ,
1, ,261, ,
3, ,262, ,
1, ,263, ,
3, ,263, ,
3, ,263, ,
3, ,262, ,
1, ,263, ,
3, ,263, ,
1, ,263, ,
3, ,263, ,
1, ,263, ,
1, ,263, ,
0, ,262, ,
3, ,263, ,
1, ,263, ,
3, ,263, ,
3, ,262, ,
3, ,262, ,
1, ,263, ,
3, ,262, ,
1, ,262, ,
1, ,263, ,
3, ,264, ,
3, ,262, ,
1, ,262, ,
3, ,263, ,
1, ,263, ,
3, ,262, ,
3, ,263, ,
3, ,263, ,
1, ,263, ,
3, ,262, ,
1, ,262, ,
3, ,262, ,
1, ,263, ,
3, ,263, ,
1, ,263, ,
3, ,263, ,
1, ,263, ,
1, ,262, ,
3, ,263, ,
3, ,262, ,
0, ,262, ,
3, ,263, ,
1, ,263, ,
3, ,263, ,
1, ,263, ,
3, ,263, ,
0, ,262, ,
3, ,262, ,
1, ,263, ,
3, ,262, ,
3, ,263, ,
3, ,263, ,
1, ,263, ,
3, ,262, ,
1, ,263, ,
1, ,262, ,
3, ,263, ,
3, ,263, ,
0, ,262, ,
3, ,263, ,
1, ,263, ,
3, ,262, ,
3, ,262, ,
1, ,262, ,
1, ,264, ,
3, ,262, ,
1, ,263, ,
3, ,263, ,
3, ,263, ,
3, ,263, ,
0, ,263, ,
3, ,263, ,
1, ,263, ,
1, ,263, ,
3, ,263, ,
3, ,262, ,
1, ,263, ,
3, ,262, ,
1, ,263, ,
1, ,263, ,
3, ,263, ,
1, ,262, ,
1, ,262, ,
3, ,262, ,
1, ,264, ,
3, ,263, ,
3, ,263, ,
3, ,262, ,
1, ,263, ,
3, ,262, ,
1, ,263, ,
3, ,263, ,
3, ,263, ,
1, ,261, ,
1, ,263, ,
3, ,262, ,
1, ,263, ,
1, ,262, ,
1, ,263, ,
3, ,263, ,
1, ,264, ,
3, ,262, ,
1, ,263, ,
1, ,263, ,
3, ,263, ,
3, ,262, ,
1, ,262, ,
3, ,263, ,
1, ,263, ,
3, ,262, ,
1, ,263, ,
1, ,262, ,
1, ,262, ,
3, ,262, ,
1, ,263, ,
1, ,263, ,
1, ,263, ,
3, ,263, ,
1, ,264, ,
3, ,263, ,
1, ,263, ,
1, ,262, ,
3, ,263, ,
3, ,263, ,
1, ,263, ,
3, ,262, ,
1, ,262, ,
1, ,263, ,
1, ,263, ,
1, ,262, ,
1, ,262, ,
3, ,263, ,
1, ,263, ,
1, ,262, ,
3, ,262, ,
3, ,262, ,
1, ,263, ,
3, ,263, ,
1, ,263, ,
1, ,263, ,
3, ,263, ,
3, ,262, ,
0, ,263, ,
3, ,263, ,
1, ,263, ,
1, ,262, ,
1, ,263, ,
1, ,263, ,
0, ,263, ,
3, ,262, ,
1, ,262, ,
1, ,263, ,
3, ,263, ,
3, ,262, ,
0, ,263, ,
3, ,263, ,
1, ,263, ,
3, ,262, ,
1, ,263, ,
1, ,262, ,
1, ,262, ,
3, ,263, ,
1, ,263, ,
1, ,263, ,
1, ,263, ,
3, ,262, ,
1, ,262, ,
3, ,263, ,
1, ,263, ,
1, ,262, ,
1, ,263, ,
3, ,262, ,
0, ,263, ,
3, ,263, ,
1, ,263, ,
1, ,263, ,
3, ,263, ,
3, ,262, ,
0, ,262, ,
3, ,263, ,
1, ,263, ,
1, ,262, ,
3, ,263, ,
1, ,263, ,
0, ,263, ,
3, ,263, ,
1, ,263, ,
1, ,263, ,
1, ,264, ,
1, ,262, ,
0, ,262, ,
3, ,263, ,
1, ,263, ,
1, ,262, ,
3, ,263, ,
3, ,263, ,
0, ,264, ,
3, ,263, ,
1, ,262, ,
1, ,263, ,
3, ,263, ,
1, ,263, ,
0, ,262, ,
3, ,264, ,
1, ,264, ,
1, ,263, ,
3, ,263, ,
1, ,263, ,
1, ,264, ,
3, ,262, ,
1, ,263, ,
1, ,262, ,
1, ,263, ,
1, ,262, ,
0, ,263, ,
3, ,263, ,
1, ,263, ,
1, ,262, ,
3, ,263, ,
3, ,263, ,
0, ,263, ,
3, ,261, ,
1, ,263, ,
1, ,263, ,
3, ,264, ,
1, ,263, ,
0, ,264, ,
3, ,264, ,
1, ,263, ,
1, ,262, ,
1, ,262, ,
1, ,263, ,
0, ,263, ,
3, ,262, ,
1, ,263, ,
1, ,263, ,
1, ,262, ,
3, ,263, ,
0, ,262, ,
3, ,262, ,
1, ,264, ,
1, ,262, ,
1, ,263, ,
1, ,262, ,
0, ,264, ,
3, ,263, ,
1, ,262, ,
1, ,262, ,
1, ,263, ,
3, ,262, ,
0, ,263, ,
3, ,263, ,
1, ,264, ,
1, ,262, ,
1, ,263, ,
3, ,263, ,
0, ,263, ,
3, ,262, ,
1, ,263, ,
1, ,263, ,
1, ,263, ,
3, ,262, ,
0, ,263, ,
3, ,263, ,
1, ,263, ,
1, ,263, ,
1, ,263, ,
3, ,263, ,
0, ,263, ,
3, ,263, ,
1, ,264, ,
1, ,263, ,
1, ,263, ,
1, ,263, ,
0, ,262, ,
3, ,263, ,
1, ,263, ,
1, ,262, ,
3, ,263, ,
1, ,263, ,
0, ,263, ,
3, ,263, ,
1, ,263, ,
1, ,263, ,
1, ,263, ,
1, ,262, ,
0, ,263, ,
3, ,264, ,
1, ,263, ,
1, ,262, ,
3, ,262, ,
1, ,263, ,
0, ,264, ,
3, ,262, ,
1, ,263, ,
1, ,263, ,
1, ,263, ,
1, ,262, ,
0, ,263, ,
3, ,264, ,
1, ,263, ,
1, ,262, ,
1, ,262, ,
1, ,263, ,
0, ,263, ,
1, ,263, ,
1, ,263, ,
1, ,262, ,
1, ,264, ,
1, ,263, ,
0, ,263, ,
3, ,264, ,
1, ,264, ,
1, ,262, ,
1, ,263, ,
1, ,263, ,
0, ,264, ,
3, ,264, ,
1, ,263, ,
1, ,263, ,
1, ,263, ,
1, ,262, ,
0, ,262, ,
3, ,264, ,
1, ,263, ,
1, ,262, ,
1, ,263, ,
1, ,263, ,
0, ,263, ,
3, ,263, ,
1, ,263, ,
1, ,263, ,
1, ,263, ,
3, ,263, ,
0, ,263, ,
3, ,263, ,
1, ,263, ,
1, ,261, ,
1, ,263, ,
3, ,263, ,
0, ,263, ,
1, ,262, ,
1, ,263, ,
1, ,263, ,
3, ,264, ,
1, ,262, ,
0, ,263, ,
3, ,262, ,
1, ,263, ,
1, ,262, ,
1, ,263, ,
1, ,262, ,
0, ,263, ,
3, ,262, ,
1, ,263, ,
1, ,263, ,
3, ,263, ,
1, ,262, ,
0, ,263, ,
1, ,262, ,
1, ,264, ,
1, ,263, ,
1, ,263, ,
1, ,262, ,
0, ,263, ,
3, ,262, ,
1, ,262, ,
1, ,262, ,
1, ,263, ,
1, ,261, ,
0, ,262, ,
3, ,264, ,
1, ,263, ,
1, ,262, ,
3, ,263, ,
1, ,262, ,
0, ,263, ,
3, ,263, ,
1, ,263, ,
1, ,263, ,
1, ,263, ,
1, ,262, ,
0, ,263, ,
3, ,263, ,
1, ,263, ,
1, ,263, ,
1, ,263, ,
3, ,262, ,
0, ,263, ,
3, ,262, ,
1, ,263, ,
1, ,262, ,
1, ,263, ,
3, ,262, ,
0, ,262, ,
1, ,263, ,
1, ,263, ,
1, ,262, ,
1, ,263, ,
1, ,263, ,
0, ,263, ,
1, ,262, ,
1, ,263, ,
1, ,263, ,
1, ,263, ,
1, ,262, ,
0, ,262, ,
3, ,263, ,
1, ,263, ,
1, ,263, ,
3, ,263, ,
1, ,263, ,
0, ,263, ,
1, ,263, ,
1, ,263, ,
1, ,262, ,
1, ,262, ,
1, ,262, ,
0, ,263, ,
3, ,263, ,
1, ,263, ,
1, ,262, ,
1, ,263, ,
1, ,262, ,
0, ,263, ,
3, ,262, ,
1, ,263, ,
1, ,263, ,
1, ,263, ,
1, ,263, ,
0, ,263, ,
1, ,263, ,
1, ,263, ,
1, ,262, ,
1, ,263, ,
1, ,263, ,
0, ,264, ,
3, ,262, ,
1, ,262, ,
1, ,262, ,
3, ,263, ,
1, ,263, ,
0, ,262, ,
3, ,263, ,
1, ,263, ,
1, ,263, ,
1, ,263, ,
1, ,263, ,
0, ,263, ,
3, ,262, ,
1, ,262, ,
1, ,263, ,
1, ,263, ,
1, ,262, ,
0, ,263, ,
3, ,262, ,
1, ,263, ,
1, ,262, ,
1, ,262, ,
1, ,263, ,
0, ,262, ,
3, ,263, ,
1, ,263, ,
1, ,263, ,
1, ,263, ,
1, ,263, ,
0, ,262, ,
1, ,263, ,
1, ,263, ,
1, ,262, ,
1, ,263, ,
1, ,262, ,
0, ,263, ,
3, ,262, ,
1, ,263, ,
1, ,263, ,
1, ,263, ,
3, ,263, ,
0, ,262, ,
3, ,263, ,
1, ,263, ,
1, ,262, ,
3, ,263, ,
1, ,263, ,
0, ,263, ,
1, ,262, ,
1, ,263, ,
1, ,263, ,
1, ,263, ,
1, ,262, ,
0, ,262, ,
3, ,263, ,
0, ,263, ,
1, ,262, ,
1, ,262, ,
3, ,263, ,
0, ,263, ,
1, ,262, ,
1, ,263, ,
1, ,262, ,
1, ,263, ,
1, ,262, ,
0, ,263, ,
3, ,263, ,
1, ,263, ,
1, ,262, ,
1, ,263, ,
1, ,262, ,
0, ,262, ,
1, ,263, ,
1, ,262, ,
1, ,263, ,
1, ,263, ,
1, ,262, ,
0, ,263, ,
1, ,263, ,
1, ,262, ,
1, ,262, ,
1, ,262, ,
1, ,262, ,
0, ,262, ,
1, ,262, ,
1, ,262, ,
1, ,263, ,
3, ,262, ,
1, ,262, ,
0, ,263, ,
1, ,263, ,
1, ,263, ,
1, ,262, ,
1, ,262, ,
1, ,263, ,
0, ,263, ,
3, ,262, ,
1, ,263, ,
1, ,263, ,
1, ,264, ,
1, ,263, ,
0, ,262, ,
3, ,263, ,
1, ,263, ,
1, ,262, ,
1, ,263, ,
1, ,263, ,
0, ,263, ,
1, ,262, ,
1, ,262, ,
1, ,262, ,
1, ,263, ,
1, ,263, ,
0, ,263, ,
1, ,262, ,
1, ,263, ,
1, ,262, ,
1, ,263, ,
1, ,263, ,
0, ,263, ,
1, ,262, ,
1, ,263, ,
1, ,262, ,
1, ,263, ,
1, ,262, ,
0, ,263, ,
1, ,263, ,
1, ,262, ,
1, ,263, ,
1, ,263, ,
1, ,262, ,
0, ,264, ,
1, ,262, ,
1, ,263, ,
1, ,262, ,
1, ,263, ,
1, ,262, ,
0, ,262, ,
3, ,263, ,
1, ,263, ,
1, ,262, ,
1, ,262, ,
1, ,263, ,
0, ,263, ,
3, ,262, ,
1, ,262, ,
1, ,262, ,
1, ,263, ,
1, ,261, ,
0, ,263, ,
1, ,263, ,
1, ,263, ,
1, ,261, ,
1, ,262, ,
1, ,262, ,
0, ,263, ,
3, ,262, ,
1, ,263, ,
1, ,263, ,
1, ,263, ,
3, ,262, ,
0, ,262, ,
1, ,263, ,
1, ,263, ,
1, ,262, ,
1, ,263, ,
1, ,263, ,
0, ,263, ,
1, ,262, ,
0, ,262, ,
1, ,263, ,
1, ,263, ,
1, ,262, ,
0, ,263, ,
3, ,263, ,
1, ,263, ,
1, ,263, ,
1, ,263, ,
1, ,262, ,
0, ,263, ,
3, ,263, ,
1, ,262, ,
1, ,263, ,
3, ,263, ,
1, ,262, ,
0, ,263, ,
1, ,263, ,
1, ,263, ,
1, ,262, ,
1, ,263, ,
1, ,262, ,
0, ,262, ,
1, ,262, ,
1, ,263, ,
1, ,263, ,
1, ,263, ,
1, ,262, ,
0, ,263, ,
1, ,264, ,
1, ,263, ,
1, ,262, ,
1, ,263, ,
1, ,262, ,
0, ,263, ,
1, ,262, ,
0, ,263, ,
1, ,261, ,
1, ,263, ,
1, ,263, ,
0, ,263, ,
1, ,263, ,
1, ,264, ,
1, ,262, ,
1, ,263, ,
1, ,262, ,
0, ,263, ,
1, ,262, ,
0, ,262, ,
1, ,261, ,
3, ,263, ,
3, ,262, ,
0, ,263, ,
1, ,264, ,
0, ,264, ,
1, ,262, ,
1, ,263, ,
1, ,262, ,
0, ,263, ,
1, ,262, ,
1, ,263, ,
1, ,262, ,
1, ,263, ,
3, ,262, ,
0, ,262, ,
1, ,263, ,
1, ,263, ,
1, ,262, ,
1, ,263, ,
1, ,263, ,
0, ,263, ,
1, ,263, ,
0, ,262, ,
1, ,263, ,
1, ,263, ,
3, ,262, ,
0, ,263, ,
1, ,262, ,
0, ,263, ,
1, ,262, ,
1, ,263, ,
1, ,262, ,
0, ,264, ,
1, ,262, ,
1, ,263, ,
1, ,262, ,
3, ,263, ,
1, ,262, ,
0, ,263, ,
1, ,263, ,
1, ,263, ,
1, ,262, ,
1, ,262, ,
1, ,263, ,
0, ,262, ,
3, ,262, ,
1, ,263, ,
1, ,263, ,
1, ,263, ,
1, ,262, ,
0, ,263, ,
1, ,263, ,
1, ,262, ,
1, ,262, ,
1, ,262, ,
1, ,263, ,
0, ,263, ,
1, ,262, ,
1, ,263, ,
1, ,263, ,
1, ,263, ,
1, ,261, ,
0, ,263, ,
1, ,263, ,
1, ,263, ,
1, ,262, ,
1, ,263, ,
1, ,263, ,
0, ,263, ,
3, ,262, ,
1, ,263, ,
1, ,262, ,
1, ,262, ,
1, ,262, ,
0, ,263, ,
1, ,263, ,
1, ,263, ,
1, ,262, ,
1, ,262, ,
1, ,262, ,
0, ,263, ,
1, ,262, ,
1, ,262, ,
1, ,262, ,
1, ,263, ,
1, ,262, ,
0, ,263, ,
1, ,263, ,
1, ,262, ,
1, ,263, ,
1, ,263, ,
1, ,262, ,
0, ,263, ,
3, ,263, ,
1, ,262, ,
1, ,263, ,
1, ,262, ,
1, ,262, ,
0, ,262, ,
3, ,262, ,
1, ,263, ,
1, ,262, ,
1, ,263, ,
1, ,262, ,
0, ,263, ,
3, ,263, ,
1, ,263, ,
1, ,262, ,
1, ,263, ,
1, ,261, ,
0, ,262, ,
3, ,263, ,
0, ,263, ,
1, ,262, ,
1, ,262, ,
1, ,262, ,
0, ,263, ,
3, ,262, ,
1, ,263, ,
1, ,262, ,
1, ,262, ,
1, ,261, ,
0, ,263, ,
1, ,263, ,
1, ,263, ,
1, ,262, ,
1, ,262, ,
1, ,263, ,
0, ,263, ,
1, ,262, ,
1, ,263, ,
1, ,263, ,
1, ,263, ,
1, ,262, ,
0, ,262, ,
3, ,262, ,
1, ,263, ,
1, ,262, ,
1, ,263, ,
1, ,262, ,
0, ,263, ,
3, ,262, ,
1, ,262, ,
1, ,263, ,
1, ,262, ,
1, ,263, ,
-1, ,263, ,
1, ,263, ,
0, ,263, ,
0, ,262, ,
1, ,263, ,
1, ,262, ,
0, ,262, ,
3, ,262, ,
1, ,263, ,
0, ,263, ,
1, ,263, ,
1, ,262, ,
0, ,262, ,
1, ,262, ,
1, ,263, ,
1, ,262, ,
1, ,262, ,
1, ,263, ,
0, ,263, ,
1, ,262, ,
0, ,263, ,
1, ,262, ,
1, ,263, ,
1, ,262, ,
0, ,262, ,
1, ,261, ,
1, ,263, ,
1, ,260, ,
1, ,260, ,
1, ,260, ,
0, ,262, ,
1, ,264, ,
1, ,265, ,
1, ,265, ,
1, ,264, ,
1, ,262, ,
0, ,260, ,
1, ,261, ,
0, ,261, ,
1, ,261, ,
1, ,261, ,
1, ,263, ,
0, ,262, ,
1, ,262, ,
1, ,262, ,
1, ,261, ,
1, ,263, ,
1, ,262, ,
0, ,262, ,
3, ,263, ,
0, ,263, ,
1, ,262, ,
1, ,263, ,
1, ,262, ,
0, ,262, ,
1, ,262, ,
0, ,262, ,
1, ,262, ,
1, ,263, ,
1, ,263, ,
0, ,263, ,
1, ,263, ,
0, ,263, ,
1, ,262, ,
1, ,263, ,
3, ,262, ,
0, ,263, ,
3, ,262, ,
1, ,263, ,
1, ,261, ,
1, ,262, ,
1, ,262, ,
0, ,262, ,
3, ,263, ,
1, ,262, ,
1, ,262, ,
1, ,262, ,
1, ,262, ,
0, ,263, ,
1, ,263, ,
1, ,262, ,
1, ,262, ,
1, ,262, ,
1, ,261, ,
0, ,262, ,
1, ,263, ,
1, ,262, ,
1, ,261, ,
1, ,262, ,
1, ,261, ,
0, ,263, ,
1, ,262, ,
0, ,262, ,
0, ,263, ,
1, ,263, ,
1, ,262, ,
0, ,261, ,
1, ,263, ,
0, ,263, ,
1, ,262, ,
1, ,263, ,
1, ,262, ,
0, ,262, ,
1, ,263, ,
0, ,263, ,
1, ,262, ,
1, ,262, ,
1, ,262, ,
0, ,262, ,
1, ,262, ,
1, ,258, ,
1, ,260, ,
1, ,264, ,
1, ,267, ,
0, ,264, ,
1, ,260, ,
1, ,261, ,
1, ,261, ,
1, ,263, ,
1, ,262, ,
0, ,264, ,
1, ,262, ,
0, ,261, ,
1, ,262, ,
1, ,263, ,
1, ,262, ,
0, ,262, ,
1, ,262, ,
1, ,263, ,
1, ,263, ,
1, ,263, ,
1, ,263, ,
0, ,263, ,
1, ,263, ,
1, ,263, ,
1, ,262, ,
1, ,263, ,
1, ,263, ,
0, ,263, ,
3, ,263, ,
0, ,263, ,
1, ,262, ,
1, ,262, ,
1, ,262, ,
0, ,262, ,
1, ,264, ,
1, ,263, ,
1, ,263, ,
1, ,262, ,
1, ,262, ,
0, ,264, ,
1, ,262, ,
1, ,263, ,
1, ,263, ,
1, ,264, ,
1, ,263, ,
0, ,263, ,
1, ,264, ,
1, ,264, ,
1, ,262, ,
1, ,262, ,
1, ,262, ,
0, ,263, ,
1, ,262, ,
1, ,262, ,
1, ,263, ,
1, ,262, ,
1, ,263, ,
0, ,263, ,
3, ,263, ,
1, ,264, ,
1, ,262, ,
1, ,263, ,
1, ,263, ,
0, ,263, ,
3, ,262, ,
1, ,263, ,
1, ,263, ,
1, ,262, ,
3, ,262, ,
0, ,263, ,
1, ,263, ,
0, ,264, ,
1, ,262, ,
1, ,263, ,
1, ,263, ,
0, ,264, ,
3, ,263, ,
1, ,263, ,
1, ,262, ,
1, ,263, ,
1, ,262, ,
0, ,263, ,
1, ,263, ,
1, ,263, ,
1, ,262, ,
1, ,263, ,
1, ,263, ,
0, ,263, ,
1, ,262, ,
0, ,262, ,
1, ,263, ,
1, ,264, ,
1, ,262, ,
0, ,263, ,
1, ,263, ,
0, ,263, ,
1, ,262, ,
1, ,262, ,
1, ,263, ,
0, ,263, ,
1, ,262, ,
1, ,262, ,
0, ,263, ,
1, ,263, ,
1, ,263, ,
0, ,263, ,
1, ,263, ,
0, ,263, ,
1, ,262, ,
1, ,263, ,
1, ,263, ,
0, ,263, ,
1, ,263, ,
0, ,263, ,
0, ,263, ,
1, ,263, ,
1, ,262, ,
0, ,262, ,
3, ,263, ,
0, ,262, ,
1, ,262, ,
1, ,263, ,
1, ,263, ,
0, ,263, ,
1, ,262, ,
1, ,263, ,
1, ,262, ,
1, ,262, ,
1, ,262, ,
0, ,262, ,
3, ,263, ,
0, ,263, ,
1, ,263, ,
1, ,262, ,
1, ,263, ,
0, ,263, ,
1, ,263, ,
0, ,262, ,
1, ,263, ,
41, ,263, ,
102, ,262, ,
66, ,263, ,
38, ,263, ,
22, ,263, ,
15, ,262, ,
13, ,262, ,
9, ,263, ,
4, ,264, ,
6, ,263, ,
4, ,262, ,
4, ,263, ,
4, ,263, ,
3, ,262, ,
1, ,262, ,
5, ,263, ,
3, ,263, ,
4, ,263, ,
4, ,262, ,
4, ,263, ,
3, ,262, ,
4, ,262, ,
3, ,264, ,
4, ,263, ,
4, ,263, ,
4, ,262, ,
3, ,262, ,
4, ,263, ,
3, ,262, ,
3, ,262, ,
4, ,262, ,
4, ,263, ,
3, ,263, ,
4, ,262, ,
3, ,263, ,
3, ,263, ,
4, ,263, ,
4, ,261, ,
1, ,261, ,
4, ,263, ,
1, ,264, ,
3, ,263, ,
4, ,264, ,
4, ,263, ,
1, ,263, ,
4, ,262, ,
3, ,262, ,
3, ,262, ,
4, ,263, ,
4, ,262, ,
1, ,263, ,
4, ,264, ,
3, ,263, ,
3, ,263, ,
4, ,262, ,
4, ,263, ,
1, ,263, ,
4, ,263, ,
3, ,263, ,
3, ,263, ,
3, ,263, ,
4, ,262, ,
1, ,263, ,
4, ,263, ,
1, ,263, ,
3, ,263, ,
3, ,263, ,
3, ,263, ,
1, ,263, ,
4, ,263, ,
1, ,263, ,
3, ,263, ,
3, ,263, ,
3, ,262, ,
1, ,262, ,
4, ,263, ,
1, ,263, ,
4, ,263, ,
4, ,262, ,
3, ,262, ,
1, ,263, ,
4, ,263, ,
3, ,263, ,
3, ,263, ,
3, ,263, ,
3, ,262, ,
1, ,263, ,
4, ,263, ,
