src/vary_led_1562/temp0007668.CSV

Format,1.0B,
Memory Length,10000,Memory Length,10000,
IntpDistance,0,IntpDistance,0,
Trigger Address,5159,Trigger Address,5159,
Trigger Level,3.000E-01,Trigger Level,3.000E-01,
Source,CH1,Source,CH2,
Vertical Units,V,Vertical Units,V,
Vertical Units Div,0,Vertical Units Div,0,
Vertical Units Extend Div,16,Vertical Units Extend Div,16,
Label,,Label,,
Probe Type,0,Probe Type,0,
Probe Ratio,1.000e+01,Probe Ratio,1.000e+00,
Vertical Scale,5.000e-01,Vertical Scale,2.000e-01,
Vertical Position,-1.780e+00,Vertical Position,-2.240e+00,
Horizontal Units,S,Horizontal Units,S,
Horizontal Scale,2.000E-05,Horizontal Scale,2.000E-05,
Horizontal Position,-3.200E-06,Horizontal Position,-3.200E-06,
Horizontal Mode,Main,Horizontal Mode,Main,
SincET Mode,Real Time,SincET Mode,Real Time,
Sampling Period,2.000e-08,Sampling Period,2.000e-08,
Horizontal Old Scale,2.000E-05,Horizontal Old Scale,2.000E-05,
Horizontal Old Position,-3.200E-06,Horizontal Old Position,-3.200E-06,
Firmware,V1.23,Firmware,V1.23,
Mode,Fast,Mode,Fast,
Waveform Data,,Waveform Data,,
1, ,332, ,
4, ,332, ,
1, ,331, ,
1, ,332, ,
3, ,331, ,
3, ,332, ,
0, ,331, ,
4, ,333, ,
1, ,331, ,
1, ,333, ,
3, ,331, ,
1, ,332, ,
1, ,332, ,
4, ,332, ,
1, ,330, ,
1, ,333, ,
3, ,331, ,
3, ,333, ,
0, ,331, ,
3, ,333, ,
1, ,332, ,
1, ,333, ,
3, ,331, ,
3, ,332, ,
0, ,332, ,
4, ,333, ,
1, ,331, ,
1, ,332, ,
3, ,333, ,
3, ,333, ,
1, ,331, ,
3, ,332, ,
1, ,331, ,
1, ,333, ,
3, ,331, ,
1, ,332, ,
0, ,332, ,
4, ,332, ,
1, ,331, ,
1, ,332, ,
3, ,332, ,
3, ,332, ,
0, ,331, ,
3, ,333, ,
1, ,331, ,
1, ,332, ,
3, ,332, ,
3, ,332, ,
1, ,332, ,
3, ,333, ,
1, ,331, ,
1, ,332, ,
4, ,332, ,
1, ,332, ,
1, ,332, ,
3, ,332, ,
1, ,331, ,
1, ,332, ,
3, ,332, ,
3, ,331, ,
0, ,332, ,
3, ,334, ,
1, ,330, ,
1, ,332, ,
3, ,333, ,
3, ,333, ,
0, ,331, ,
3, ,333, ,
1, ,332, ,
1, ,333, ,
3, ,332, ,
3, ,332, ,
0, ,332, ,
3, ,333, ,
1, ,329, ,
1, ,332, ,
3, ,332, ,
1, ,332, ,
0, ,331, ,
3, ,333, ,
1, ,332, ,
1, ,333, ,
3, ,332, ,
1, ,331, ,
0, ,332, ,
3, ,334, ,
1, ,331, ,
1, ,332, ,
3, ,331, ,
3, ,333, ,
1, ,332, ,
3, ,332, ,
1, ,331, ,
1, ,333, ,
3, ,331, ,
3, ,332, ,
0, ,332, ,
3, ,333, ,
1, ,331, ,
1, ,332, ,
3, ,332, ,
3, ,333, ,
0, ,331, ,
3, ,332, ,
1, ,332, ,
1, ,332, ,
3, ,332, ,
3, ,331, ,
0, ,332, ,
3, ,333, ,
1, ,331, ,
1, ,332, ,
3, ,332, ,
3, ,332, ,
0, ,332, ,
3, ,333, ,
1, ,332, ,
1, ,332, ,
3, ,331, ,
1, ,332, ,
0, ,332, ,
3, ,333, ,
1, ,330, ,
1, ,332, ,
3, ,332, ,
1, ,333, ,
1, ,330, ,
70, ,333, ,
44, ,331, ,
25, ,332, ,
18, ,331, ,
13, ,332, ,
9, ,332, ,
8, ,333, ,
4, ,331, ,
4, ,332, ,
5, ,332, ,
3, ,333, ,
1, ,331, ,
4, ,332, ,
3, ,332, ,
1, ,332, ,
4, ,331, ,
3, ,332, ,
1, ,331, ,
5, ,334, ,
3, ,331, ,
3, ,332, ,
4, ,332, ,
4, ,332, ,
1, ,331, ,
4, ,333, ,
3, ,331, ,
3, ,333, ,
4, ,331, ,
3, ,331, ,
1, ,332, ,
5, ,333, ,
3, ,331, ,
3, ,332, ,
4, ,331, ,
4, ,325, ,
1, ,330, ,
4, ,338, ,
1, ,337, ,
3, ,333, ,
4, ,329, ,
3, ,330, ,
1, ,330, ,
4, ,330, ,
3, ,328, ,
3, ,336, ,
4, ,338, ,
4, ,337, ,
1, ,331, ,
4, ,328, ,
1, ,328, ,
3, ,333, ,
5, ,332, ,
15, ,331, ,
14, ,330, ,
11, ,333, ,
8, ,331, ,
6, ,332, ,
6, ,331, ,
5, ,333, ,
3, ,331, ,
5, ,332, ,
3, ,331, ,
1, ,333, ,
5, ,330, ,
3, ,331, ,
1, ,331, ,
4, ,333, ,
1, ,330, ,
3, ,331, ,
4, ,332, ,
4, ,332, ,
1, ,331, ,
4, ,332, ,
1, ,332, ,
3, ,332, ,
4, ,331, ,
3, ,331, ,
1, ,331, ,
4, ,333, ,
3, ,329, ,
3, ,332, ,
4, ,331, ,
3, ,332, ,
1, ,331, ,
4, ,332, ,
1, ,331, ,
3, ,333, ,
4, ,330, ,
3, ,331, ,
1, ,331, ,
4, ,333, ,
3, ,329, ,
3, ,332, ,
4, ,332, ,
4, ,332, ,
1, ,331, ,
4, ,333, ,
1, ,331, ,
3, ,333, ,
3, ,331, ,
3, ,331, ,
1, ,331, ,
4, ,333, ,
3, ,330, ,
3, ,332, ,
4, ,333, ,
4, ,332, ,
1, ,331, ,
4, ,332, ,
3, ,331, ,
1, ,332, ,
4, ,330, ,
3, ,330, ,
1, ,332, ,
4, ,334, ,
1, ,331, ,
1, ,333, ,
4, ,332, ,
3, ,332, ,
1, ,329, ,
4, ,331, ,
3, ,330, ,
1, ,332, ,
4, ,332, ,
3, ,332, ,
1, ,332, ,
4, ,333, ,
1, ,331, ,
1, ,332, ,
4, ,330, ,
4, ,332, ,
1, ,332, ,
4, ,333, ,
3, ,331, ,
1, ,333, ,
4, ,332, ,
3, ,331, ,
1, ,331, ,
4, ,332, ,
3, ,329, ,
1, ,333, ,
3, ,332, ,
3, ,332, ,
1, ,331, ,
4, ,332, ,
3, ,331, ,
3, ,332, ,
3, ,331, ,
3, ,333, ,
1, ,333, ,
4, ,335, ,
3, ,331, ,
1, ,331, ,
4, ,333, ,
3, ,333, ,
1, ,331, ,
4, ,332, ,
1, ,331, ,
1, ,335, ,
3, ,331, ,
3, ,331, ,
1, ,331, ,
4, ,334, ,
3, ,330, ,
3, ,333, ,
3, ,332, ,
3, ,332, ,
1, ,332, ,
4, ,333, ,
1, ,331, ,
1, ,333, ,
3, ,331, ,
3, ,332, ,
1, ,332, ,
4, ,335, ,
1, ,331, ,
1, ,332, ,
3, ,332, ,
3, ,332, ,
1, ,331, ,
4, ,332, ,
1, ,332, ,
3, ,333, ,
3, ,332, ,
3, ,331, ,
1, ,332, ,
4, ,332, ,
1, ,330, ,
1, ,333, ,
3, ,333, ,
3, ,333, ,
1, ,332, ,
4, ,333, ,
1, ,331, ,
1, ,332, ,
3, ,331, ,
3, ,331, ,
1, ,332, ,
4, ,332, ,
1, ,330, ,
1, ,332, ,
3, ,332, ,
3, ,333, ,
1, ,332, ,
4, ,333, ,
3, ,331, ,
1, ,333, ,
3, ,331, ,
3, ,332, ,
1, ,332, ,
4, ,332, ,
1, ,331, ,
1, ,332, ,
3, ,332, ,
3, ,332, ,
1, ,331, ,
3, ,333, ,
1, ,331, ,
1, ,334, ,
4, ,332, ,
3, ,332, ,
1, ,332, ,
4, ,334, ,
1, ,330, ,
1, ,332, ,
3, ,332, ,
3, ,333, ,
1, ,331, ,
3, ,333, ,
1, ,331, ,
1, ,334, ,
3, ,331, ,
3, ,331, ,
1, ,332, ,
3, ,332, ,
1, ,330, ,
1, ,332, ,
3, ,332, ,
3, ,333, ,
1, ,332, ,
4, ,333, ,
1, ,332, ,
1, ,333, ,
3, ,331, ,
3, ,331, ,
0, ,332, ,
3, ,334, ,
1, ,331, ,
1, ,333, ,
3, ,332, ,
3, ,332, ,
1, ,331, ,
3, ,333, ,
3, ,331, ,
1, ,332, ,
3, ,332, ,
3, ,332, ,
1, ,332, ,
4, ,333, ,
1, ,330, ,
1, ,332, ,
3, ,332, ,
3, ,332, ,
1, ,331, ,
3, ,333, ,
1, ,331, ,
1, ,333, ,
3, ,332, ,
3, ,332, ,
1, ,332, ,
4, ,333, ,
1, ,331, ,
1, ,333, ,
3, ,333, ,
3, ,333, ,
1, ,332, ,
3, ,333, ,
1, ,331, ,
1, ,333, ,
3, ,331, ,
3, ,331, ,
1, ,332, ,
3, ,333, ,
1, ,330, ,
1, ,332, ,
3, ,332, ,
3, ,332, ,
1, ,331, ,
3, ,333, ,
1, ,331, ,
1, ,333, ,
3, ,332, ,
3, ,332, ,
1, ,332, ,
4, ,333, ,
1, ,329, ,
1, ,331, ,
3, ,332, ,
3, ,333, ,
0, ,332, ,
3, ,332, ,
1, ,331, ,
1, ,333, ,
3, ,332, ,
3, ,332, ,
1, ,332, ,
3, ,333, ,
1, ,330, ,
1, ,331, ,
3, ,331, ,
3, ,333, ,
0, ,331, ,
3, ,332, ,
1, ,331, ,
1, ,333, ,
4, ,332, ,
3, ,332, ,
0, ,332, ,
3, ,334, ,
1, ,331, ,
1, ,332, ,
3, ,333, ,
3, ,332, ,
0, ,333, ,
3, ,333, ,
1, ,331, ,
1, ,333, ,
3, ,332, ,
1, ,333, ,
0, ,332, ,
3, ,332, ,
1, ,330, ,
1, ,332, ,
3, ,333, ,
3, ,332, ,
0, ,331, ,
3, ,332, ,
1, ,331, ,
1, ,333, ,
3, ,332, ,
1, ,331, ,
0, ,332, ,
3, ,333, ,
1, ,331, ,
1, ,332, ,
3, ,332, ,
3, ,333, ,
0, ,331, ,
3, ,332, ,
1, ,331, ,
1, ,333, ,
3, ,332, ,
3, ,332, ,
0, ,332, ,
3, ,333, ,
1, ,329, ,
0, ,332, ,
3, ,332, ,
1, ,333, ,
0, ,332, ,
3, ,333, ,
1, ,332, ,
1, ,332, ,
3, ,331, ,
1, ,331, ,
0, ,333, ,
3, ,333, ,
1, ,329, ,
1, ,332, ,
3, ,332, ,
1, ,333, ,
0, ,331, ,
3, ,333, ,
1, ,332, ,
1, ,333, ,
3, ,332, ,
1, ,332, ,
0, ,332, ,
3, ,333, ,
1, ,330, ,
1, ,332, ,
3, ,332, ,
3, ,332, ,
0, ,331, ,
3, ,333, ,
1, ,331, ,
1, ,333, ,
3, ,331, ,
3, ,331, ,
0, ,332, ,
3, ,333, ,
1, ,330, ,
1, ,333, ,
3, ,332, ,
1, ,333, ,
0, ,331, ,
3, ,332, ,
1, ,332, ,
1, ,332, ,
3, ,332, ,
1, ,332, ,
0, ,332, ,
3, ,333, ,
1, ,329, ,
0, ,332, ,
3, ,332, ,
1, ,332, ,
0, ,331, ,
3, ,333, ,
1, ,332, ,
1, ,333, ,
3, ,332, ,
3, ,332, ,
0, ,332, ,
3, ,335, ,
1, ,331, ,
0, ,332, ,
3, ,333, ,
3, ,333, ,
0, ,332, ,
3, ,333, ,
1, ,332, ,
1, ,333, ,
3, ,332, ,
3, ,332, ,
0, ,332, ,
3, ,333, ,
1, ,331, ,
1, ,332, ,
3, ,333, ,
1, ,332, ,
0, ,331, ,
3, ,333, ,
1, ,331, ,
1, ,332, ,
3, ,331, ,
3, ,333, ,
0, ,332, ,
3, ,335, ,
1, ,330, ,
1, ,332, ,
3, ,332, ,
1, ,332, ,
0, ,331, ,
3, ,333, ,
1, ,331, ,
1, ,332, ,
3, ,331, ,
1, ,332, ,
0, ,332, ,
3, ,333, ,
1, ,331, ,
1, ,332, ,
3, ,332, ,
1, ,333, ,
0, ,331, ,
3, ,333, ,
1, ,332, ,
1, ,332, ,
3, ,331, ,
1, ,332, ,
0, ,331, ,
3, ,333, ,
1, ,331, ,
1, ,332, ,
3, ,331, ,
1, ,333, ,
0, ,332, ,
3, ,334, ,
1, ,332, ,
1, ,333, ,
3, ,332, ,
1, ,331, ,
0, ,332, ,
3, ,333, ,
1, ,331, ,
1, ,332, ,
3, ,332, ,
1, ,332, ,
0, ,331, ,
3, ,334, ,
1, ,331, ,
1, ,333, ,
3, ,332, ,
1, ,332, ,
0, ,332, ,
3, ,333, ,
1, ,330, ,
1, ,332, ,
3, ,332, ,
1, ,333, ,
0, ,331, ,
3, ,332, ,
1, ,332, ,
1, ,332, ,
3, ,331, ,
1, ,332, ,
0, ,332, ,
3, ,333, ,
1, ,330, ,
1, ,332, ,
3, ,332, ,
1, ,333, ,
0, ,331, ,
3, ,332, ,
1, ,331, ,
0, ,333, ,
3, ,331, ,
1, ,332, ,
0, ,333, ,
3, ,333, ,
1, ,331, ,
1, ,332, ,
3, ,333, ,
1, ,333, ,
0, ,331, ,
3, ,332, ,
1, ,333, ,
1, ,333, ,
3, ,331, ,
1, ,332, ,
0, ,332, ,
3, ,333, ,
1, ,331, ,
1, ,332, ,
3, ,332, ,
1, ,332, ,
0, ,331, ,
3, ,333, ,
1, ,332, ,
0, ,332, ,
3, ,331, ,
1, ,332, ,
0, ,333, ,
3, ,333, ,
1, ,331, ,
0, ,333, ,
3, ,332, ,
1, ,331, ,
0, ,332, ,
3, ,333, ,
1, ,332, ,
1, ,332, ,
3, ,332, ,
1, ,332, ,
0, ,332, ,
3, ,334, ,
1, ,330, ,
1, ,332, ,
3, ,332, ,
1, ,331, ,
0, ,332, ,
3, ,334, ,
1, ,333, ,
0, ,333, ,
3, ,332, ,
1, ,331, ,
0, ,332, ,
3, ,333, ,
1, ,331, ,
0, ,332, ,
3, ,332, ,
1, ,333, ,
0, ,332, ,
3, ,333, ,
1, ,331, ,
1, ,332, ,
3, ,332, ,
1, ,332, ,
0, ,332, ,
3, ,334, ,
0, ,329, ,
0, ,332, ,
1, ,333, ,
1, ,332, ,
-1, ,331, ,
3, ,332, ,
1, ,331, ,
1, ,332, ,
3, ,331, ,
1, ,332, ,
0, ,332, ,
3, ,333, ,
0, ,331, ,
1, ,332, ,
3, ,332, ,
1, ,332, ,
0, ,332, ,
3, ,333, ,
0, ,331, ,
0, ,332, ,
3, ,332, ,
1, ,331, ,
0, ,333, ,
3, ,333, ,
1, ,329, ,
0, ,331, ,
3, ,332, ,
1, ,332, ,
0, ,331, ,
3, ,333, ,
1, ,331, ,
1, ,332, ,
3, ,331, ,
1, ,332, ,
0, ,332, ,
3, ,333, ,
0, ,331, ,
0, ,332, ,
3, ,331, ,
1, ,332, ,
0, ,331, ,
3, ,333, ,
1, ,332, ,
0, ,333, ,
3, ,332, ,
1, ,331, ,
0, ,332, ,
3, ,333, ,
1, ,331, ,
0, ,332, ,
3, ,332, ,
1, ,332, ,
0, ,331, ,
3, ,332, ,
1, ,331, ,
1, ,333, ,
3, ,331, ,
1, ,332, ,
0, ,332, ,
3, ,333, ,
1, ,331, ,
1, ,332, ,
3, ,332, ,
1, ,333, ,
0, ,331, ,
3, ,332, ,
1, ,331, ,
1, ,333, ,
3, ,331, ,
1, ,332, ,
0, ,332, ,
3, ,333, ,
1, ,331, ,
0, ,332, ,
3, ,332, ,
1, ,333, ,
0, ,332, ,
3, ,333, ,
1, ,332, ,
1, ,332, ,
3, ,332, ,
1, ,332, ,
0, ,332, ,
3, ,333, ,
1, ,330, ,
1, ,333, ,
3, ,332, ,
1, ,333, ,
0, ,332, ,
3, ,332, ,
0, ,331, ,
1, ,333, ,
3, ,331, ,
1, ,332, ,
0, ,332, ,
3, ,333, ,
1, ,330, ,
0, ,332, ,
3, ,331, ,
1, ,332, ,
0, ,332, ,
3, ,332, ,
1, ,331, ,
0, ,333, ,
3, ,331, ,
1, ,332, ,
0, ,332, ,
3, ,333, ,
1, ,330, ,
1, ,333, ,
3, ,332, ,
1, ,332, ,
0, ,331, ,
3, ,334, ,
0, ,332, ,
0, ,332, ,
3, ,331, ,
1, ,332, ,
0, ,332, ,
3, ,333, ,
1, ,330, ,
0, ,332, ,
3, ,332, ,
1, ,332, ,
0, ,331, ,
3, ,333, ,
1, ,332, ,
1, ,332, ,
3, ,332, ,
1, ,332, ,
0, ,332, ,
3, ,334, ,
0, ,331, ,
0, ,333, ,
3, ,332, ,
1, ,332, ,
0, ,332, ,
3, ,333, ,
0, ,331, ,
0, ,333, ,
3, ,331, ,
1, ,331, ,
0, ,331, ,
3, ,333, ,
0, ,330, ,
0, ,332, ,
3, ,331, ,
1, ,333, ,
0, ,330, ,
3, ,332, ,
0, ,324, ,
0, ,332, ,
3, ,337, ,
1, ,336, ,
0, ,330, ,
3, ,330, ,
1, ,331, ,
0, ,333, ,
3, ,331, ,
1, ,332, ,
0, ,332, ,
3, ,333, ,
0, ,330, ,
0, ,332, ,
3, ,332, ,
1, ,332, ,
0, ,331, ,
3, ,333, ,
0, ,331, ,
0, ,332, ,
3, ,333, ,
1, ,332, ,
-1, ,331, ,
1, ,333, ,
0, ,331, ,
0, ,333, ,
3, ,332, ,
1, ,331, ,
0, ,332, ,
3, ,334, ,
0, ,330, ,
0, ,332, ,
3, ,332, ,
1, ,332, ,
0, ,331, ,
3, ,332, ,
0, ,332, ,
0, ,332, ,
1, ,330, ,
1, ,332, ,
0, ,332, ,
3, ,334, ,
0, ,330, ,
0, ,332, ,
3, ,332, ,
1, ,333, ,
0, ,331, ,
3, ,332, ,
0, ,331, ,
0, ,333, ,
3, ,332, ,
0, ,332, ,
-1, ,331, ,
3, ,333, ,
0, ,330, ,
0, ,333, ,
3, ,332, ,
1, ,332, ,
0, ,331, ,
3, ,332, ,
0, ,331, ,
0, ,332, ,
3, ,332, ,
1, ,332, ,
0, ,331, ,
3, ,332, ,
0, ,332, ,
0, ,332, ,
3, ,331, ,
1, ,332, ,
-1, ,331, ,
1, ,333, ,
0, ,331, ,
0, ,333, ,
3, ,331, ,
1, ,332, ,
-1, ,332, ,
3, ,334, ,
0, ,331, ,
0, ,332, ,
3, ,332, ,
1, ,332, ,
0, ,330, ,
3, ,332, ,
1, ,332, ,
0, ,333, ,
3, ,331, ,
1, ,332, ,
0, ,332, ,
3, ,334, ,
0, ,330, ,
0, ,333, ,
3, ,332, ,
1, ,332, ,
0, ,331, ,
3, ,333, ,
0, ,332, ,
0, ,332, ,
3, ,331, ,
1, ,331, ,
0, ,332, ,
3, ,333, ,
0, ,331, ,
0, ,332, ,
3, ,333, ,
1, ,332, ,
0, ,332, ,
1, ,333, ,
0, ,332, ,
0, ,333, ,
3, ,331, ,
1, ,332, ,
0, ,332, ,
3, ,333, ,
0, ,331, ,
0, ,333, ,
3, ,332, ,
1, ,332, ,
-1, ,332, ,
1, ,333, ,
0, ,331, ,
0, ,333, ,
3, ,331, ,
0, ,332, ,
0, ,332, ,
3, ,332, ,
0, ,331, ,
0, ,332, ,
1, ,332, ,
1, ,332, ,
0, ,331, ,
3, ,332, ,
0, ,332, ,
0, ,332, ,
3, ,331, ,
1, ,332, ,
0, ,332, ,
3, ,333, ,
0, ,330, ,
0, ,332, ,
3, ,332, ,
1, ,332, ,
-1, ,331, ,
1, ,332, ,
0, ,331, ,
0, ,332, ,
3, ,331, ,
1, ,332, ,
0, ,332, ,
3, ,334, ,
0, ,329, ,
0, ,332, ,
1, ,333, ,
1, ,332, ,
-1, ,332, ,
1, ,332, ,
0, ,331, ,
0, ,332, ,
3, ,331, ,
0, ,331, ,
0, ,331, ,
3, ,334, ,
0, ,330, ,
0, ,333, ,
3, ,332, ,
1, ,332, ,
-1, ,331, ,
3, ,332, ,
1, ,331, ,
0, ,334, ,
3, ,332, ,
1, ,332, ,
0, ,332, ,
3, ,333, ,
0, ,329, ,
0, ,332, ,
3, ,332, ,
1, ,332, ,
0, ,331, ,
3, ,332, ,
1, ,332, ,
0, ,333, ,
1, ,331, ,
1, ,332, ,
-1, ,331, ,
3, ,334, ,
0, ,329, ,
0, ,332, ,
3, ,332, ,
1, ,332, ,
0, ,331, ,
3, ,332, ,
0, ,331, ,
0, ,333, ,
3, ,331, ,
1, ,331, ,
0, ,333, ,
3, ,333, ,
0, ,330, ,
0, ,332, ,
1, ,332, ,
1, ,333, ,
-1, ,331, ,
3, ,333, ,
1, ,332, ,
0, ,333, ,
3, ,330, ,
1, ,332, ,
-1, ,332, ,
4, ,333, ,
0, ,330, ,
0, ,332, ,
1, ,333, ,
1, ,332, ,
-1, ,331, ,
3, ,333, ,
1, ,331, ,
0, ,333, ,
3, ,331, ,
1, ,331, ,
-1, ,331, ,
3, ,334, ,
0, ,329, ,
0, ,332, ,
3, ,333, ,
1, ,332, ,
0, ,331, ,
3, ,334, ,
0, ,331, ,
0, ,332, ,
3, ,331, ,
1, ,332, ,
-1, ,332, ,
3, ,333, ,
0, ,330, ,
0, ,331, ,
3, ,332, ,
1, ,332, ,
-1, ,331, ,
3, ,332, ,
0, ,331, ,
0, ,332, ,
3, ,332, ,
0, ,331, ,
-1, ,332, ,
3, ,333, ,
0, ,330, ,
0, ,332, ,
3, ,332, ,
1, ,332, ,
-1, ,331, ,
3, ,333, ,
0, ,332, ,
0, ,333, ,
1, ,331, ,
0, ,331, ,
0, ,332, ,
3, ,333, ,
0, ,330, ,
0, ,332, ,
3, ,331, ,
0, ,332, ,
-1, ,331, ,
1, ,333, ,
0, ,332, ,
0, ,332, ,
1, ,329, ,
1, ,330, ,
-1, ,332, ,
3, ,335, ,
0, ,330, ,
0, ,332, ,
3, ,332, ,
1, ,332, ,
-1, ,331, ,
3, ,332, ,
0, ,331, ,
0, ,333, ,
3, ,332, ,
1, ,332, ,
0, ,332, ,
4, ,333, ,
0, ,330, ,
0, ,332, ,
1, ,332, ,
1, ,332, ,
0, ,331, ,
3, ,333, ,
0, ,332, ,
0, ,332, ,
3, ,332, ,
0, ,331, ,
0, ,332, ,
3, ,333, ,
0, ,330, ,
0, ,333, ,
3, ,333, ,
1, ,332, ,
0, ,332, ,
1, ,333, ,
0, ,332, ,
0, ,333, ,
3, ,332, ,
1, ,332, ,
-1, ,332, ,
3, ,333, ,
1, ,330, ,
0, ,331, ,
3, ,332, ,
1, ,333, ,
-1, ,331, ,
1, ,332, ,
0, ,332, ,
0, ,333, ,
3, ,326, ,
1, ,331, ,
0, ,337, ,
3, ,337, ,
0, ,329, ,
0, ,327, ,
3, ,327, ,
1, ,329, ,
0, ,333, ,
3, ,338, ,
1, ,338, ,
0, ,333, ,
1, ,327, ,
1, ,326, ,
0, ,332, ,
3, ,337, ,
0, ,331, ,
0, ,332, ,
3, ,331, ,
1, ,332, ,
-1, ,331, ,
1, ,334, ,
0, ,332, ,
0, ,333, ,
3, ,331, ,
1, ,331, ,
0, ,331, ,
3, ,333, ,
0, ,329, ,
0, ,332, ,
1, ,332, ,
1, ,332, ,
0, ,329, ,
1, ,333, ,
0, ,331, ,
0, ,333, ,
3, ,331, ,
1, ,332, ,
0, ,332, ,
3, ,333, ,
0, ,331, ,
0, ,333, ,
3, ,332, ,
1, ,331, ,
-1, ,331, ,
1, ,332, ,
0, ,331, ,
0, ,333, ,
3, ,330, ,
0, ,332, ,
-1, ,332, ,
3, ,332, ,
0, ,331, ,
0, ,333, ,
1, ,332, ,
1, ,331, ,
0, ,331, ,
3, ,333, ,
0, ,331, ,
0, ,333, ,
1, ,331, ,
0, ,331, ,
0, ,331, ,
3, ,332, ,
0, ,330, ,
0, ,333, ,
1, ,332, ,
1, ,333, ,
-1, ,331, ,
1, ,332, ,
0, ,331, ,
0, ,332, ,
3, ,331, ,
1, ,331, ,
-1, ,331, ,
3, ,333, ,
0, ,331, ,
0, ,332, ,
1, ,332, ,
1, ,332, ,
-1, ,331, ,
3, ,332, ,
0, ,331, ,
0, ,332, ,
1, ,331, ,
0, ,331, ,
-1, ,332, ,
3, ,333, ,
0, ,329, ,
0, ,331, ,
3, ,331, ,
1, ,332, ,
-1, ,331, ,
3, ,332, ,
0, ,331, ,
0, ,333, ,
1, ,330, ,
0, ,331, ,
-1, ,331, ,
3, ,332, ,
0, ,329, ,
0, ,332, ,
3, ,332, ,
1, ,332, ,
-1, ,330, ,
1, ,332, ,
0, ,332, ,
0, ,333, ,
3, ,330, ,
1, ,331, ,
-1, ,331, ,
3, ,332, ,
0, ,331, ,
0, ,333, ,
3, ,333, ,
1, ,332, ,
-1, ,330, ,
3, ,331, ,
0, ,333, ,
0, ,333, ,
3, ,331, ,
1, ,332, ,
-1, ,333, ,
3, ,333, ,
0, ,330, ,
0, ,332, ,
3, ,332, ,
1, ,333, ,
0, ,332, ,
3, ,333, ,
0, ,332, ,
0, ,332, ,
3, ,331, ,
1, ,333, ,
-1, ,332, ,
3, ,333, ,
0, ,330, ,
0, ,333, ,
3, ,333, ,
1, ,332, ,
-1, ,332, ,
3, ,333, ,
0, ,331, ,
0, ,333, ,
3, ,330, ,
1, ,332, ,
-1, ,332, ,
3, ,333, ,
0, ,330, ,
0, ,332, ,
3, ,332, ,
1, ,333, ,
-1, ,332, ,
3, ,333, ,
0, ,331, ,
0, ,333, ,
3, ,331, ,
0, ,331, ,
0, ,332, ,
3, ,333, ,
0, ,330, ,
0, ,332, ,
3, ,332, ,
0, ,332, ,
-1, ,331, ,
1, ,333, ,
0, ,332, ,
0, ,333, ,
3, ,332, ,
1, ,333, ,
-1, ,333, ,
3, ,333, ,
0, ,329, ,
0, ,332, ,
3, ,333, ,
1, ,333, ,
-1, ,331, ,
3, ,332, ,
0, ,331, ,
0, ,333, ,
1, ,332, ,
1, ,332, ,
-1, ,332, ,
3, ,333, ,
0, ,330, ,
0, ,332, ,
3, ,332, ,
1, ,333, ,
-1, ,331, ,
3, ,333, ,
0, ,331, ,
0, ,332, ,
1, ,331, ,
0, ,332, ,
-1, ,332, ,
3, ,333, ,
0, ,329, ,
0, ,332, ,
1, ,332, ,
1, ,332, ,
-1, ,331, ,
3, ,333, ,
0, ,332, ,
0, ,332, ,
1, ,331, ,
0, ,332, ,
-1, ,332, ,
3, ,333, ,
0, ,330, ,
0, ,333, ,
1, ,332, ,
1, ,332, ,
-1, ,331, ,
3, ,333, ,
0, ,331, ,
0, ,333, ,
3, ,331, ,
1, ,332, ,
0, ,332, ,
3, ,332, ,
0, ,330, ,
0, ,332, ,
3, ,333, ,
1, ,332, ,
0, ,331, ,
1, ,333, ,
0, ,332, ,
0, ,333, ,
1, ,331, ,
1, ,331, ,
-1, ,332, ,
3, ,333, ,
0, ,331, ,
0, ,332, ,
1, ,332, ,
1, ,333, ,
-1, ,332, ,
1, ,333, ,
0, ,331, ,
0, ,333, ,
3, ,332, ,
1, ,332, ,
0, ,332, ,
3, ,333, ,
0, ,332, ,
0, ,332, ,
3, ,332, ,
1, ,332, ,
0, ,331, ,
1, ,332, ,
0, ,332, ,
0, ,332, ,
3, ,332, ,
1, ,333, ,
-1, ,332, ,
3, ,334, ,
0, ,330, ,
0, ,332, ,
3, ,332, ,
1, ,332, ,
-1, ,332, ,
3, ,333, ,
0, ,332, ,
0, ,333, ,
3, ,332, ,
1, ,332, ,
0, ,332, ,
3, ,333, ,
0, ,331, ,
0, ,332, ,
3, ,332, ,
1, ,332, ,
0, ,331, ,
3, ,333, ,
0, ,332, ,
0, ,333, ,
1, ,332, ,
0, ,332, ,
-1, ,332, ,
3, ,333, ,
0, ,330, ,
0, ,333, ,
1, ,332, ,
1, ,333, ,
-1, ,330, ,
3, ,333, ,
0, ,332, ,
0, ,333, ,
1, ,331, ,
1, ,332, ,
-1, ,332, ,
3, ,333, ,
0, ,331, ,
0, ,332, ,
3, ,332, ,
1, ,332, ,
-1, ,331, ,
3, ,333, ,
0, ,332, ,
0, ,333, ,
1, ,331, ,
1, ,332, ,
-1, ,332, ,
3, ,333, ,
0, ,330, ,
0, ,333, ,
3, ,332, ,
1, ,333, ,
-1, ,331, ,
3, ,333, ,
0, ,331, ,
0, ,332, ,
1, ,331, ,
0, ,332, ,
-1, ,332, ,
3, ,333, ,
0, ,331, ,
0, ,332, ,
3, ,333, ,
1, ,333, ,
-1, ,332, ,
3, ,333, ,
0, ,332, ,
0, ,333, ,
1, ,332, ,
0, ,332, ,
-1, ,332, ,
3, ,333, ,
0, ,330, ,
0, ,332, ,
3, ,332, ,
1, ,333, ,
-1, ,331, ,
3, ,333, ,
0, ,332, ,
0, ,333, ,
3, ,332, ,
0, ,332, ,
-1, ,332, ,
3, ,333, ,
0, ,331, ,
0, ,332, ,
3, ,331, ,
0, ,333, ,
-1, ,331, ,
3, ,333, ,
0, ,332, ,
0, ,333, ,
1, ,331, ,
1, ,332, ,
0, ,332, ,
3, ,333, ,
0, ,331, ,
0, ,332, ,
3, ,332, ,
1, ,332, ,
-1, ,331, ,
1, ,332, ,
0, ,332, ,
0, ,333, ,
3, ,331, ,
0, ,332, ,
-1, ,332, ,
3, ,333, ,
0, ,331, ,
0, ,333, ,
1, ,332, ,
1, ,332, ,
-1, ,332, ,
1, ,333, ,
0, ,331, ,
0, ,333, ,
3, ,332, ,
1, ,332, ,
0, ,332, ,
3, ,332, ,
0, ,330, ,
0, ,332, ,
1, ,332, ,
1, ,332, ,
-1, ,331, ,
1, ,332, ,
0, ,332, ,
0, ,333, ,
1, ,331, ,
0, ,332, ,
-1, ,332, ,
3, ,333, ,
0, ,330, ,
0, ,332, ,
3, ,332, ,
1, ,331, ,
0, ,330, ,
3, ,333, ,
0, ,332, ,
0, ,333, ,
3, ,332, ,
127, ,332, ,
75, ,332, ,
51, ,333, ,
33, ,330, ,
20, ,332, ,
14, ,332, ,
9, ,333, ,
6, ,332, ,
9, ,333, ,
5, ,331, ,
3, ,333, ,
6, ,331, ,
5, ,331, ,
3, ,332, ,
5, ,333, ,
3, ,331, ,
3, ,332, ,
4, ,333, ,
4, ,332, ,
1, ,330, ,
5, ,333, ,
3, ,332, ,
3, ,333, ,
4, ,331, ,
3, ,332, ,
1, ,332, ,
5, ,333, ,
1, ,330, ,
3, ,332, ,
4, ,332, ,
4, ,332, ,
1, ,331, ,
4, ,333, ,
3, ,332, ,
3, ,332, ,
4, ,332, ,
3, ,332, ,
1, ,332, ,
4, ,334, ,
3, ,330, ,
1, ,332, ,
4, ,332, ,
3, ,333, ,
1, ,332, ,
4, ,333, ,
1, ,328, ,
3, ,330, ,
4, ,333, ,
3, ,335, ,
1, ,333, ,
4, ,333, ,
3, ,329, ,
3, ,332, ,
4, ,333, ,
3, ,333, ,
1, ,332, ,
4, ,333, ,
1, ,331, ,
3, ,333, ,
4, ,332, ,
3, ,332, ,
1, ,332, ,
4, ,333, ,
3, ,331, ,
3, ,333, ,
4, ,332, ,
3, ,332, ,
1, ,332, ,
4, ,334, ,
3, ,331, ,
3, ,332, ,
4, ,331, ,
3, ,331, ,
1, ,332, ,
4, ,334, ,
3, ,330, ,
1, ,331, ,
4, ,332, ,
3, ,333, ,
1, ,332, ,
4, ,333, ,
3, ,332, ,
1, ,333, ,
4, ,332, ,
3, ,332, ,
1, ,332, ,
4, ,333, ,
1, ,331, ,
1, ,333, ,
3, ,332, ,
3, ,333, ,
1, ,332, ,
4, ,333, ,
3, ,332, ,
1, ,333, ,
3, ,331, ,
3, ,332, ,
1, ,332, ,
4, ,333, ,
1, ,331, ,
1, ,333, ,
3, ,332, ,
3, ,332, ,
1, ,331, ,
4, ,332, ,
1, ,331, ,
1, ,333, ,
3, ,332, ,
3, ,332, ,
1, ,332, ,
4, ,333, ,
1, ,331, ,
1, ,332, ,
3, ,333, ,
3, ,332, ,
1, ,332, ,
4, ,332, ,
1, ,332, ,
1, ,333, ,
3, ,332, ,
3, ,331, ,
1, ,332, ,
4, ,333, ,
1, ,329, ,
1, ,332, ,
3, ,331, ,
3, ,332, ,
1, ,331, ,
4, ,333, ,
3, ,331, ,
1, ,332, ,
4, ,331, ,
3, ,332, ,
1, ,332, ,
4, ,332, ,
1, ,332, ,
1, ,333, ,
3, ,332, ,
3, ,332, ,
1, ,332, ,
4, ,332, ,
1, ,333, ,
1, ,333, ,
3, ,331, ,
3, ,332, ,
0, ,332, ,
4, ,332, ,
3, ,330, ,
1, ,334, ,
3, ,332, ,
3, ,333, ,
1, ,332, ,
3, ,333, ,
1, ,332, ,
1, ,333, ,
4, ,332, ,
