src/vary_led_1562/temp0006616.CSV

Format,1.0B,
Memory Length,10000,Memory Length,10000,
IntpDistance,0,IntpDistance,0,
Trigger Address,5159,Trigger Address,5159,
Trigger Level,3.000E-01,Trigger Level,3.000E-01,
Source,CH1,Source,CH2,
Vertical Units,V,Vertical Units,V,
Vertical Units Div,0,Vertical Units Div,0,
Vertical Units Extend Div,16,Vertical Units Extend Div,16,
Label,,Label,,
Probe Type,0,Probe Type,0,
Probe Ratio,1.000e+01,Probe Ratio,1.000e+00,
Vertical Scale,5.000e-01,Vertical Scale,2.000e-01,
Vertical Position,-1.780e+00,Vertical Position,-2.240e+00,
Horizontal Units,S,Horizontal Units,S,
Horizontal Scale,2.000E-05,Horizontal Scale,2.000E-05,
Horizontal Position,-3.200E-06,Horizontal Position,-3.200E-06,
Horizontal Mode,Main,Horizontal Mode,Main,
SincET Mode,Real Time,SincET Mode,Real Time,
Sampling Period,2.000e-08,Sampling Period,2.000e-08,
Horizontal Old Scale,2.000E-05,Horizontal Old Scale,2.000E-05,
Horizontal Old Position,-3.200E-06,Horizontal Old Position,-3.200E-06,
Firmware,V1.23,Firmware,V1.23,
Mode,Fast,Mode,Fast,
Waveform Data,,Waveform Data,,
3, ,319, ,
3, ,318, ,
4, ,319, ,
3, ,319, ,
1, ,321, ,
4, ,318, ,
3, ,319, ,
3, ,320, ,
4, ,319, ,
3, ,318, ,
3, ,319, ,
4, ,318, ,
3, ,321, ,
3, ,319, ,
4, ,319, ,
3, ,319, ,
3, ,321, ,
4, ,318, ,
3, ,314, ,
3, ,318, ,
4, ,323, ,
4, ,324, ,
1, ,323, ,
4, ,318, ,
3, ,320, ,
3, ,319, ,
4, ,319, ,
3, ,319, ,
1, ,321, ,
4, ,319, ,
3, ,318, ,
3, ,318, ,
4, ,321, ,
3, ,318, ,
3, ,320, ,
4, ,318, ,
3, ,320, ,
3, ,318, ,
4, ,319, ,
3, ,319, ,
1, ,321, ,
4, ,318, ,
1, ,321, ,
3, ,318, ,
4, ,319, ,
3, ,320, ,
1, ,321, ,
4, ,320, ,
3, ,320, ,
3, ,318, ,
4, ,319, ,
3, ,319, ,
1, ,320, ,
3, ,318, ,
1, ,320, ,
3, ,319, ,
3, ,321, ,
3, ,320, ,
1, ,321, ,
4, ,319, ,
1, ,321, ,
3, ,319, ,
4, ,319, ,
3, ,320, ,
1, ,321, ,
4, ,318, ,
1, ,321, ,
3, ,319, ,
4, ,319, ,
3, ,319, ,
1, ,323, ,
4, ,318, ,
3, ,321, ,
4, ,319, ,
4, ,319, ,
3, ,319, ,
1, ,323, ,
3, ,318, ,
3, ,319, ,
1, ,319, ,
3, ,320, ,
3, ,318, ,
1, ,320, ,
4, ,318, ,
3, ,319, ,
3, ,319, ,
3, ,319, ,
3, ,319, ,
1, ,321, ,
3, ,317, ,
1, ,320, ,
3, ,319, ,
4, ,320, ,
3, ,318, ,
1, ,321, ,
3, ,319, ,
3, ,321, ,
3, ,319, ,
4, ,319, ,
3, ,319, ,
1, ,321, ,
4, ,317, ,
3, ,320, ,
1, ,319, ,
3, ,319, ,
3, ,318, ,
1, ,321, ,
3, ,318, ,
1, ,320, ,
1, ,319, ,
4, ,319, ,
3, ,319, ,
1, ,321, ,
4, ,318, ,
1, ,319, ,
3, ,319, ,
4, ,320, ,
3, ,319, ,
1, ,320, ,
3, ,320, ,
1, ,319, ,
3, ,319, ,
3, ,319, ,
3, ,319, ,
1, ,321, ,
4, ,318, ,
3, ,319, ,
3, ,319, ,
3, ,320, ,
3, ,319, ,
1, ,321, ,
4, ,319, ,
1, ,320, ,
1, ,319, ,
4, ,320, ,
3, ,319, ,
1, ,321, ,
4, ,319, ,
1, ,319, ,
1, ,319, ,
3, ,319, ,
3, ,318, ,
1, ,320, ,
3, ,319, ,
3, ,321, ,
3, ,319, ,
3, ,319, ,
3, ,320, ,
1, ,320, ,
3, ,319, ,
3, ,321, ,
1, ,319, ,
4, ,320, ,
3, ,319, ,
1, ,320, ,
3, ,319, ,
3, ,321, ,
1, ,319, ,
3, ,319, ,
3, ,320, ,
1, ,319, ,
4, ,318, ,
1, ,320, ,
1, ,320, ,
3, ,320, ,
1, ,318, ,
1, ,320, ,
3, ,320, ,
3, ,321, ,
1, ,318, ,
3, ,319, ,
3, ,319, ,
1, ,321, ,
3, ,318, ,
1, ,319, ,
1, ,320, ,
3, ,319, ,
3, ,319, ,
1, ,319, ,
3, ,319, ,
1, ,320, ,
1, ,318, ,
3, ,319, ,
3, ,319, ,
1, ,321, ,
3, ,317, ,
3, ,320, ,
3, ,319, ,
4, ,320, ,
3, ,319, ,
1, ,321, ,
3, ,320, ,
1, ,321, ,
1, ,318, ,
3, ,319, ,
3, ,319, ,
1, ,320, ,
3, ,318, ,
3, ,320, ,
1, ,319, ,
3, ,320, ,
3, ,319, ,
1, ,320, ,
3, ,318, ,
1, ,321, ,
1, ,319, ,
3, ,319, ,
1, ,319, ,
1, ,320, ,
3, ,318, ,
3, ,319, ,
1, ,319, ,
3, ,319, ,
1, ,318, ,
1, ,320, ,
3, ,319, ,
1, ,320, ,
1, ,319, ,
3, ,319, ,
1, ,320, ,
1, ,320, ,
3, ,317, ,
1, ,320, ,
1, ,319, ,
3, ,319, ,
3, ,319, ,
1, ,319, ,
3, ,319, ,
1, ,321, ,
1, ,319, ,
3, ,319, ,
1, ,319, ,
1, ,321, ,
3, ,318, ,
1, ,321, ,
1, ,319, ,
3, ,319, ,
1, ,318, ,
1, ,318, ,
3, ,318, ,
1, ,319, ,
1, ,318, ,
3, ,318, ,
1, ,319, ,
1, ,321, ,
3, ,319, ,
1, ,323, ,
1, ,323, ,
3, ,323, ,
1, ,320, ,
1, ,321, ,
3, ,319, ,
1, ,320, ,
1, ,319, ,
3, ,317, ,
1, ,318, ,
1, ,318, ,
3, ,318, ,
1, ,319, ,
1, ,319, ,
3, ,320, ,
1, ,319, ,
1, ,320, ,
3, ,320, ,
3, ,320, ,
1, ,318, ,
3, ,319, ,
1, ,319, ,
1, ,320, ,
3, ,318, ,
1, ,321, ,
1, ,319, ,
3, ,319, ,
1, ,317, ,
1, ,319, ,
3, ,318, ,
1, ,319, ,
1, ,319, ,
3, ,320, ,
1, ,319, ,
1, ,321, ,
3, ,319, ,
1, ,320, ,
1, ,317, ,
3, ,318, ,
1, ,320, ,
1, ,324, ,
3, ,320, ,
1, ,320, ,
3, ,318, ,
3, ,319, ,
1, ,319, ,
1, ,319, ,
3, ,318, ,
1, ,320, ,
1, ,319, ,
3, ,317, ,
1, ,319, ,
1, ,320, ,
3, ,319, ,
3, ,321, ,
1, ,319, ,
3, ,319, ,
3, ,320, ,
1, ,321, ,
3, ,318, ,
1, ,320, ,
1, ,320, ,
3, ,320, ,
1, ,319, ,
1, ,320, ,
3, ,319, ,
1, ,320, ,
1, ,318, ,
3, ,319, ,
1, ,319, ,
1, ,320, ,
3, ,318, ,
1, ,320, ,
1, ,319, ,
3, ,320, ,
3, ,319, ,
1, ,321, ,
3, ,320, ,
1, ,321, ,
1, ,318, ,
3, ,318, ,
1, ,319, ,
1, ,320, ,
3, ,317, ,
1, ,319, ,
1, ,318, ,
3, ,319, ,
1, ,318, ,
1, ,321, ,
3, ,320, ,
1, ,321, ,
1, ,320, ,
3, ,320, ,
1, ,321, ,
1, ,321, ,
3, ,319, ,
1, ,320, ,
1, ,320, ,
3, ,320, ,
1, ,318, ,
1, ,319, ,
3, ,319, ,
1, ,319, ,
1, ,317, ,
3, ,319, ,
1, ,319, ,
1, ,320, ,
3, ,318, ,
1, ,320, ,
1, ,320, ,
3, ,320, ,
1, ,320, ,
0, ,320, ,
3, ,320, ,
1, ,320, ,
1, ,319, ,
1, ,320, ,
1, ,319, ,
1, ,320, ,
3, ,318, ,
1, ,320, ,
1, ,319, ,
3, ,319, ,
3, ,319, ,
1, ,321, ,
3, ,318, ,
1, ,321, ,
1, ,318, ,
3, ,319, ,
1, ,319, ,
1, ,321, ,
3, ,317, ,
1, ,321, ,
1, ,319, ,
3, ,320, ,
1, ,318, ,
1, ,319, ,
3, ,318, ,
1, ,319, ,
1, ,318, ,
3, ,319, ,
1, ,319, ,
1, ,320, ,
3, ,318, ,
1, ,320, ,
1, ,320, ,
3, ,319, ,
1, ,320, ,
1, ,321, ,
3, ,319, ,
1, ,320, ,
1, ,318, ,
3, ,319, ,
1, ,319, ,
1, ,320, ,
3, ,318, ,
1, ,319, ,
1, ,318, ,
3, ,319, ,
1, ,319, ,
1, ,319, ,
3, ,318, ,
1, ,320, ,
1, ,319, ,
3, ,319, ,
1, ,320, ,
1, ,321, ,
3, ,319, ,
1, ,321, ,
1, ,320, ,
3, ,319, ,
1, ,319, ,
0, ,319, ,
3, ,318, ,
1, ,319, ,
1, ,319, ,
3, ,319, ,
1, ,319, ,
1, ,320, ,
3, ,318, ,
1, ,318, ,
1, ,320, ,
3, ,319, ,
1, ,318, ,
1, ,320, ,
3, ,318, ,
1, ,321, ,
1, ,319, ,
3, ,319, ,
1, ,318, ,
1, ,321, ,
3, ,317, ,
1, ,318, ,
1, ,319, ,
3, ,319, ,
1, ,318, ,
0, ,320, ,
3, ,318, ,
1, ,320, ,
1, ,318, ,
3, ,320, ,
1, ,319, ,
1, ,320, ,
3, ,318, ,
1, ,319, ,
1, ,319, ,
3, ,320, ,
1, ,319, ,
0, ,321, ,
3, ,320, ,
1, ,320, ,
1, ,319, ,
1, ,319, ,
1, ,319, ,
0, ,320, ,
3, ,318, ,
1, ,320, ,
1, ,319, ,
3, ,320, ,
1, ,318, ,
0, ,319, ,
3, ,318, ,
1, ,319, ,
1, ,318, ,
3, ,320, ,
1, ,319, ,
0, ,321, ,
3, ,318, ,
1, ,319, ,
1, ,319, ,
3, ,319, ,
1, ,319, ,
0, ,319, ,
3, ,318, ,
1, ,320, ,
1, ,319, ,
3, ,319, ,
1, ,319, ,
0, ,320, ,
1, ,318, ,
1, ,320, ,
1, ,319, ,
3, ,319, ,
1, ,318, ,
0, ,319, ,
3, ,320, ,
1, ,319, ,
1, ,318, ,
3, ,318, ,
1, ,319, ,
0, ,320, ,
3, ,318, ,
1, ,319, ,
1, ,319, ,
3, ,319, ,
1, ,318, ,
0, ,320, ,
1, ,319, ,
1, ,320, ,
1, ,319, ,
1, ,320, ,
1, ,319, ,
0, ,319, ,
1, ,318, ,
1, ,319, ,
1, ,319, ,
3, ,320, ,
1, ,318, ,
0, ,319, ,
3, ,319, ,
1, ,320, ,
1, ,319, ,
3, ,319, ,
1, ,319, ,
0, ,320, ,
3, ,318, ,
1, ,319, ,
1, ,319, ,
1, ,320, ,
1, ,319, ,
0, ,319, ,
3, ,319, ,
1, ,319, ,
1, ,319, ,
1, ,319, ,
1, ,320, ,
0, ,320, ,
3, ,319, ,
1, ,319, ,
1, ,319, ,
3, ,319, ,
1, ,318, ,
0, ,320, ,
3, ,320, ,
1, ,319, ,
1, ,319, ,
3, ,319, ,
1, ,319, ,
0, ,321, ,
3, ,318, ,
1, ,320, ,
1, ,319, ,
3, ,319, ,
1, ,318, ,
0, ,319, ,
3, ,318, ,
1, ,319, ,
1, ,319, ,
1, ,319, ,
1, ,319, ,
0, ,319, ,
3, ,318, ,
1, ,320, ,
1, ,319, ,
3, ,320, ,
1, ,318, ,
0, ,320, ,
3, ,319, ,
1, ,319, ,
1, ,319, ,
1, ,319, ,
1, ,319, ,
1, ,319, ,
3, ,318, ,
1, ,320, ,
1, ,319, ,
3, ,319, ,
1, ,318, ,
0, ,319, ,
3, ,319, ,
1, ,320, ,
1, ,318, ,
1, ,319, ,
1, ,319, ,
0, ,321, ,
3, ,317, ,
1, ,319, ,
1, ,319, ,
3, ,320, ,
1, ,318, ,
0, ,320, ,
3, ,318, ,
1, ,319, ,
1, ,318, ,
1, ,319, ,
1, ,320, ,
0, ,321, ,
3, ,318, ,
1, ,320, ,
1, ,319, ,
1, ,320, ,
1, ,318, ,
0, ,320, ,
1, ,319, ,
1, ,320, ,
1, ,318, ,
1, ,319, ,
1, ,319, ,
108, ,319, ,
69, ,318, ,
47, ,320, ,
32, ,320, ,
20, ,319, ,
13, ,319, ,
8, ,319, ,
9, ,319, ,
6, ,320, ,
4, ,318, ,
4, ,319, ,
3, ,318, ,
4, ,320, ,
4, ,318, ,
3, ,320, ,
3, ,319, ,
4, ,320, ,
4, ,318, ,
1, ,321, ,
4, ,319, ,
3, ,319, ,
3, ,318, ,
4, ,319, ,
4, ,320, ,
3, ,321, ,
4, ,318, ,
3, ,320, ,
3, ,319, ,
4, ,319, ,
4, ,318, ,
3, ,320, ,
4, ,319, ,
3, ,320, ,
3, ,318, ,
4, ,320, ,
4, ,319, ,
1, ,320, ,
4, ,319, ,
3, ,320, ,
3, ,319, ,
4, ,320, ,
4, ,318, ,
3, ,319, ,
4, ,318, ,
3, ,319, ,
3, ,319, ,
4, ,319, ,
4, ,319, ,
1, ,321, ,
4, ,318, ,
3, ,320, ,
3, ,320, ,
4, ,320, ,
3, ,318, ,
3, ,319, ,
4, ,319, ,
3, ,319, ,
3, ,319, ,
4, ,319, ,
4, ,319, ,
1, ,320, ,
4, ,318, ,
3, ,319, ,
3, ,320, ,
4, ,320, ,
4, ,318, ,
1, ,320, ,
4, ,320, ,
3, ,320, ,
3, ,318, ,
4, ,319, ,
3, ,319, ,
3, ,321, ,
4, ,317, ,
3, ,319, ,
3, ,319, ,
4, ,320, ,
3, ,319, ,
1, ,320, ,
4, ,318, ,
3, ,320, ,
3, ,319, ,
4, ,319, ,
3, ,319, ,
3, ,319, ,
4, ,319, ,
3, ,319, ,
3, ,319, ,
4, ,320, ,
3, ,318, ,
1, ,320, ,
4, ,319, ,
3, ,321, ,
3, ,319, ,
4, ,319, ,
3, ,318, ,
3, ,319, ,
3, ,318, ,
1, ,320, ,
3, ,320, ,
4, ,321, ,
3, ,318, ,
1, ,320, ,
4, ,319, ,
1, ,319, ,
3, ,318, ,
4, ,319, ,
3, ,319, ,
1, ,321, ,
4, ,318, ,
1, ,319, ,
3, ,319, ,
4, ,319, ,
3, ,318, ,
1, ,320, ,
4, ,318, ,
3, ,320, ,
3, ,319, ,
4, ,319, ,
3, ,319, ,
3, ,320, ,
4, ,317, ,
1, ,319, ,
1, ,320, ,
4, ,320, ,
3, ,318, ,
1, ,320, ,
4, ,320, ,
1, ,320, ,
3, ,319, ,
3, ,319, ,
3, ,320, ,
1, ,320, ,
4, ,317, ,
3, ,321, ,
3, ,320, ,
4, ,319, ,
3, ,319, ,
1, ,321, ,
4, ,319, ,
1, ,320, ,
3, ,318, ,
4, ,319, ,
3, ,319, ,
1, ,320, ,
3, ,318, ,
3, ,320, ,
3, ,319, ,
3, ,320, ,
3, ,319, ,
1, ,321, ,
4, ,320, ,
1, ,320, ,
1, ,319, ,
3, ,319, ,
3, ,319, ,
1, ,320, ,
4, ,319, ,
3, ,319, ,
3, ,319, ,
4, ,319, ,
3, ,319, ,
1, ,321, ,
3, ,320, ,
3, ,320, ,
1, ,319, ,
4, ,319, ,
3, ,319, ,
1, ,320, ,
3, ,318, ,
1, ,319, ,
3, ,319, ,
3, ,320, ,
3, ,318, ,
1, ,320, ,
3, ,319, ,
3, ,319, ,
3, ,319, ,
3, ,319, ,
3, ,319, ,
1, ,320, ,
3, ,318, ,
1, ,319, ,
3, ,319, ,
3, ,320, ,
3, ,318, ,
1, ,320, ,
3, ,318, ,
3, ,320, ,
3, ,319, ,
3, ,319, ,
3, ,319, ,
1, ,321, ,
3, ,318, ,
1, ,319, ,
1, ,319, ,
3, ,319, ,
3, ,318, ,
1, ,318, ,
3, ,317, ,
1, ,317, ,
3, ,319, ,
3, ,323, ,
3, ,324, ,
1, ,324, ,
3, ,317, ,
3, ,317, ,
3, ,316, ,
3, ,319, ,
3, ,320, ,
1, ,323, ,
3, ,319, ,
3, ,319, ,
1, ,318, ,
3, ,319, ,
3, ,319, ,
1, ,321, ,
3, ,318, ,
3, ,319, ,
1, ,318, ,
3, ,319, ,
3, ,319, ,
1, ,319, ,
3, ,319, ,
3, ,319, ,
1, ,318, ,
3, ,319, ,
1, ,318, ,
1, ,321, ,
3, ,317, ,
3, ,319, ,
1, ,319, ,
3, ,319, ,
1, ,319, ,
1, ,319, ,
3, ,319, ,
1, ,320, ,
1, ,318, ,
3, ,318, ,
3, ,319, ,
1, ,321, ,
3, ,318, ,
3, ,319, ,
1, ,319, ,
3, ,320, ,
3, ,318, ,
1, ,319, ,
3, ,318, ,
1, ,318, ,
1, ,319, ,
3, ,319, ,
1, ,319, ,
1, ,321, ,
3, ,317, ,
1, ,318, ,
1, ,319, ,
3, ,319, ,
1, ,319, ,
1, ,318, ,
3, ,319, ,
3, ,319, ,
3, ,318, ,
3, ,318, ,
3, ,319, ,
1, ,321, ,
3, ,318, ,
1, ,319, ,
1, ,319, ,
3, ,319, ,
3, ,319, ,
1, ,319, ,
3, ,318, ,
3, ,319, ,
3, ,318, ,
3, ,318, ,
1, ,319, ,
1, ,320, ,
3, ,318, ,
3, ,319, ,
1, ,319, ,
3, ,319, ,
1, ,319, ,
1, ,319, ,
3, ,318, ,
1, ,319, ,
1, ,318, ,
3, ,318, ,
1, ,319, ,
1, ,321, ,
3, ,318, ,
1, ,319, ,
3, ,319, ,
3, ,320, ,
3, ,318, ,
1, ,319, ,
3, ,319, ,
3, ,319, ,
3, ,318, ,
3, ,318, ,
3, ,319, ,
1, ,321, ,
3, ,318, ,
1, ,319, ,
1, ,312, ,
3, ,318, ,
1, ,325, ,
1, ,326, ,
3, ,318, ,
1, ,317, ,
1, ,321, ,
3, ,321, ,
3, ,319, ,
1, ,320, ,
3, ,318, ,
1, ,320, ,
1, ,321, ,
3, ,320, ,
1, ,320, ,
1, ,323, ,
3, ,319, ,
1, ,319, ,
3, ,320, ,
3, ,319, ,
1, ,319, ,
1, ,320, ,
3, ,320, ,
1, ,321, ,
1, ,319, ,
3, ,320, ,
1, ,320, ,
1, ,321, ,
3, ,319, ,
1, ,321, ,
1, ,319, ,
3, ,319, ,
1, ,320, ,
1, ,321, ,
3, ,318, ,
1, ,319, ,
1, ,319, ,
3, ,320, ,
1, ,320, ,
1, ,320, ,
3, ,319, ,
1, ,320, ,
1, ,319, ,
3, ,320, ,
1, ,320, ,
1, ,321, ,
3, ,318, ,
1, ,321, ,
1, ,319, ,
3, ,319, ,
1, ,318, ,
1, ,321, ,
3, ,319, ,
1, ,320, ,
1, ,319, ,
3, ,320, ,
1, ,319, ,
1, ,320, ,
3, ,318, ,
1, ,320, ,
1, ,319, ,
3, ,320, ,
1, ,320, ,
0, ,319, ,
3, ,319, ,
1, ,320, ,
1, ,318, ,
3, ,319, ,
1, ,319, ,
1, ,321, ,
3, ,318, ,
1, ,320, ,
1, ,319, ,
3, ,320, ,
1, ,319, ,
1, ,319, ,
3, ,320, ,
1, ,320, ,
1, ,319, ,
3, ,319, ,
1, ,319, ,
1, ,321, ,
3, ,317, ,
1, ,320, ,
1, ,320, ,
3, ,319, ,
1, ,319, ,
1, ,319, ,
3, ,318, ,
1, ,320, ,
1, ,319, ,
3, ,319, ,
1, ,319, ,
1, ,321, ,
3, ,319, ,
3, ,320, ,
1, ,319, ,
1, ,320, ,
1, ,319, ,
0, ,321, ,
3, ,319, ,
1, ,320, ,
1, ,319, ,
3, ,319, ,
1, ,319, ,
1, ,320, ,
3, ,319, ,
1, ,319, ,
1, ,319, ,
3, ,320, ,
1, ,318, ,
0, ,321, ,
3, ,319, ,
1, ,319, ,
1, ,319, ,
3, ,319, ,
1, ,319, ,
1, ,321, ,
3, ,318, ,
1, ,320, ,
1, ,319, ,
3, ,320, ,
1, ,320, ,
0, ,319, ,
3, ,319, ,
1, ,320, ,
1, ,319, ,
3, ,319, ,
1, ,319, ,
1, ,321, ,
3, ,318, ,
1, ,319, ,
1, ,319, ,
3, ,320, ,
1, ,318, ,
0, ,320, ,
3, ,318, ,
1, ,319, ,
1, ,319, ,
3, ,319, ,
1, ,318, ,
1, ,321, ,
3, ,317, ,
1, ,319, ,
1, ,319, ,
3, ,320, ,
1, ,319, ,
0, ,320, ,
3, ,318, ,
1, ,320, ,
1, ,318, ,
1, ,319, ,
1, ,319, ,
0, ,320, ,
3, ,318, ,
1, ,320, ,
1, ,320, ,
3, ,320, ,
1, ,319, ,
0, ,320, ,
3, ,318, ,
1, ,319, ,
1, ,318, ,
3, ,319, ,
1, ,320, ,
1, ,321, ,
3, ,318, ,
1, ,319, ,
1, ,319, ,
1, ,320, ,
1, ,319, ,
0, ,320, ,
4, ,319, ,
3, ,321, ,
1, ,319, ,
1, ,320, ,
1, ,319, ,
0, ,320, ,
3, ,318, ,
0, ,319, ,
1, ,319, ,
1, ,319, ,
1, ,319, ,
0, ,321, ,
3, ,319, ,
1, ,320, ,
1, ,319, ,
3, ,319, ,
1, ,319, ,
0, ,320, ,
3, ,319, ,
1, ,320, ,
1, ,319, ,
3, ,319, ,
1, ,318, ,
0, ,319, ,
3, ,319, ,
1, ,319, ,
1, ,318, ,
3, ,319, ,
1, ,319, ,
0, ,320, ,
3, ,318, ,
1, ,319, ,
1, ,320, ,
3, ,319, ,
1, ,318, ,
0, ,321, ,
3, ,319, ,
1, ,320, ,
1, ,319, ,
3, ,320, ,
1, ,319, ,
0, ,321, ,
3, ,318, ,
1, ,319, ,
1, ,319, ,
3, ,320, ,
1, ,318, ,
0, ,320, ,
3, ,318, ,
1, ,321, ,
1, ,319, ,
1, ,319, ,
1, ,319, ,
0, ,320, ,
3, ,318, ,
1, ,318, ,
1, ,319, ,
1, ,320, ,
1, ,319, ,
0, ,321, ,
3, ,320, ,
1, ,320, ,
1, ,319, ,
1, ,319, ,
3, ,318, ,
0, ,320, ,
3, ,318, ,
1, ,321, ,
1, ,319, ,
3, ,320, ,
1, ,319, ,
0, ,319, ,
3, ,319, ,
1, ,320, ,
1, ,318, ,
1, ,319, ,
1, ,320, ,
0, ,321, ,
3, ,318, ,
1, ,319, ,
1, ,319, ,
3, ,319, ,
3, ,318, ,
0, ,319, ,
3, ,319, ,
1, ,320, ,
1, ,318, ,
3, ,320, ,
1, ,320, ,
0, ,321, ,
3, ,318, ,
1, ,319, ,
1, ,320, ,
3, ,319, ,
1, ,319, ,
0, ,321, ,
3, ,319, ,
1, ,320, ,
1, ,319, ,
1, ,319, ,
1, ,319, ,
0, ,319, ,
3, ,318, ,
1, ,320, ,
1, ,320, ,
3, ,319, ,
1, ,318, ,
0, ,321, ,
3, ,319, ,
1, ,320, ,
1, ,319, ,
3, ,318, ,
3, ,319, ,
0, ,321, ,
3, ,318, ,
1, ,319, ,
1, ,319, ,
3, ,320, ,
1, ,319, ,
0, ,320, ,
3, ,318, ,
1, ,320, ,
1, ,319, ,
3, ,319, ,
1, ,319, ,
0, ,320, ,
1, ,318, ,
102, ,320, ,
62, ,319, ,
36, ,320, ,
23, ,318, ,
19, ,321, ,
14, ,320, ,
8, ,321, ,
5, ,319, ,
6, ,320, ,
5, ,319, ,
3, ,321, ,
4, ,318, ,
4, ,319, ,
3, ,321, ,
5, ,320, ,
4, ,318, ,
1, ,319, ,
4, ,318, ,
3, ,319, ,
4, ,319, ,
4, ,319, ,
3, ,318, ,
3, ,320, ,
4, ,318, ,
3, ,319, ,
3, ,319, ,
4, ,319, ,
4, ,319, ,
1, ,321, ,
4, ,318, ,
3, ,319, ,
3, ,319, ,
4, ,319, ,
4, ,319, ,
1, ,321, ,
4, ,318, ,
3, ,320, ,
3, ,319, ,
4, ,319, ,
4, ,318, ,
1, ,321, ,
4, ,318, ,
3, ,319, ,
3, ,319, ,
4, ,319, ,
3, ,321, ,
1, ,321, ,
4, ,318, ,
3, ,319, ,
3, ,319, ,
4, ,319, ,
4, ,320, ,
3, ,321, ,
4, ,319, ,
3, ,319, ,
3, ,318, ,
4, ,319, ,
3, ,319, ,
1, ,320, ,
4, ,317, ,
3, ,319, ,
3, ,320, ,
4, ,320, ,
3, ,318, ,
1, ,320, ,
4, ,319, ,
3, ,320, ,
3, ,319, ,
4, ,320, ,
4, ,319, ,
3, ,319, ,
4, ,318, ,
3, ,320, ,
3, ,319, ,
4, ,319, ,
3, ,318, ,
1, ,319, ,
4, ,318, ,
4, ,319, ,
3, ,318, ,
4, ,319, ,
3, ,319, ,
3, ,321, ,
4, ,319, ,
3, ,321, ,
3, ,320, ,
4, ,321, ,
3, ,319, ,
1, ,319, ,
4, ,318, ,
3, ,319, ,
3, ,318, ,
4, ,319, ,
3, ,319, ,
3, ,321, ,
4, ,317, ,
1, ,320, ,
3, ,320, ,
4, ,320, ,
3, ,319, ,
1, ,321, ,
4, ,321, ,
3, ,321, ,
3, ,319, ,
4, ,319, ,
3, ,319, ,
3, ,320, ,
4, ,318, ,
3, ,319, ,
3, ,319, ,
4, ,319, ,
3, ,319, ,
1, ,320, ,
4, ,319, ,
1, ,319, ,
3, ,318, ,
4, ,319, ,
3, ,319, ,
1, ,319, ,
3, ,318, ,
1, ,320, ,
3, ,320, ,
4, ,320, ,
3, ,319, ,
1, ,321, ,
4, ,320, ,
1, ,321, ,
3, ,320, ,
4, ,319, ,
3, ,320, ,
1, ,323, ,
4, ,318, ,
1, ,319, ,
3, ,320, ,
4, ,321, ,
3, ,320, ,
1, ,321, ,
4, ,320, ,
3, ,321, ,
3, ,319, ,
3, ,319, ,
3, ,319, ,
1, ,320, ,
3, ,318, ,
1, ,319, ,
3, ,319, ,
3, ,318, ,
3, ,318, ,
1, ,319, ,
4, ,318, ,
1, ,319, ,
3, ,318, ,
3, ,320, ,
3, ,320, ,
1, ,321, ,
4, ,318, ,
3, ,320, ,
3, ,320, ,
3, ,321, ,
3, ,319, ,
1, ,321, ,
3, ,320, ,
3, ,321, ,
3, ,318, ,
4, ,320, ,
3, ,319, ,
1, ,321, ,
3, ,318, ,
3, ,319, ,
1, ,319, ,
3, ,319, ,
3, ,318, ,
1, ,319, ,
3, ,318, ,
1, ,320, ,
1, ,319, ,
3, ,320, ,
3, ,318, ,
1, ,320, ,
4, ,317, ,
3, ,320, ,
1, ,319, ,
4, ,319, ,
3, ,319, ,
1, ,319, ,
3, ,319, ,
3, ,320, ,
1, ,319, ,
3, ,320, ,
3, ,319, ,
1, ,320, ,
4, ,319, ,
1, ,319, ,
1, ,320, ,
3, ,319, ,
3, ,319, ,
1, ,321, ,
3, ,319, ,
1, ,319, ,
1, ,318, ,
3, ,319, ,
3, ,319, ,
1, ,319, ,
4, ,317, ,
1, ,319, ,
3, ,318, ,
3, ,319, ,
3, ,319, ,
1, ,319, ,
4, ,319, ,
3, ,319, ,
3, ,319, ,
3, ,320, ,
3, ,319, ,
1, ,321, ,
3, ,319, ,
1, ,320, ,
1, ,319, ,
3, ,319, ,
3, ,318, ,
1, ,319, ,
3, ,319, ,
3, ,320, ,
3, ,318, ,
3, ,319, ,
3, ,319, ,
1, ,321, ,
3, ,317, ,
3, ,320, ,
3, ,319, ,
3, ,319, ,
3, ,318, ,
1, ,321, ,
3, ,320, ,
3, ,320, ,
1, ,318, ,
3, ,319, ,
1, ,319, ,
1, ,320, ,
3, ,318, ,
3, ,319, ,
1, ,318, ,
4, ,319, ,
3, ,318, ,
1, ,320, ,
3, ,319, ,
3, ,319, ,
1, ,319, ,
3, ,320, ,
3, ,319, ,
1, ,321, ,
3, ,318, ,
1, ,319, ,
1, ,319, ,
3, ,319, ,
1, ,318, ,
1, ,319, ,
3, ,318, ,
1, ,319, ,
3, ,318, ,
3, ,319, ,
3, ,318, ,
1, ,320, ,
3, ,318, ,
3, ,319, ,
1, ,320, ,
3, ,319, ,
1, ,319, ,
1, ,321, ,
3, ,320, ,
1, ,320, ,
1, ,319, ,
3, ,319, ,
3, ,319, ,
1, ,320, ,
3, ,318, ,
1, ,318, ,
1, ,319, ,
3, ,319, ,
3, ,318, ,
1, ,320, ,
3, ,319, ,
1, ,320, ,
1, ,318, ,
3, ,319, ,
1, ,319, ,
1, ,320, ,
3, ,318, ,
1, ,319, ,
1, ,320, ,
3, ,320, ,
1, ,319, ,
1, ,321, ,
3, ,318, ,
1, ,321, ,
1, ,320, ,
3, ,319, ,
3, ,319, ,
1, ,321, ,
3, ,318, ,
3, ,319, ,
1, ,319, ,
3, ,320, ,
1, ,319, ,
1, ,321, ,
3, ,319, ,
1, ,320, ,
1, ,319, ,
3, ,319, ,
1, ,319, ,
1, ,321, ,
3, ,317, ,
1, ,319, ,
1, ,319, ,
3, ,319, ,
1, ,318, ,
1, ,320, ,
3, ,318, ,
1, ,319, ,
3, ,318, ,
3, ,319, ,
1, ,319, ,
1, ,320, ,
3, ,317, ,
1, ,319, ,
1, ,320, ,
3, ,319, ,
3, ,319, ,
1, ,319, ,
3, ,319, ,
3, ,320, ,
1, ,319, ,
3, ,319, ,
1, ,319, ,
1, ,320, ,
3, ,318, ,
1, ,319, ,
1, ,320, ,
3, ,319, ,
1, ,318, ,
1, ,320, ,
3, ,318, ,
1, ,320, ,
1, ,318, ,
3, ,319, ,
1, ,319, ,
1, ,319, ,
3, ,318, ,
1, ,320, ,
1, ,320, ,
3, ,319, ,
1, ,318, ,
1, ,319, ,
3, ,318, ,
1, ,319, ,
3, ,319, ,
3, ,320, ,
1, ,319, ,
1, ,321, ,
3, ,318, ,
1, ,320, ,
1, ,319, ,
3, ,319, ,
1, ,318, ,
1, ,320, ,
3, ,320, ,
3, ,320, ,
1, ,320, ,
3, ,320, ,
3, ,321, ,
1, ,321, ,
3, ,318, ,
1, ,318, ,
1, ,318, ,
3, ,320, ,
1, ,319, ,
0, ,321, ,
3, ,318, ,
1, ,320, ,
1, ,319, ,
3, ,319, ,
1, ,319, ,
1, ,319, ,
3, ,319, ,
1, ,320, ,
1, ,319, ,
3, ,319, ,
1, ,319, ,
1, ,319, ,
3, ,318, ,
1, ,319, ,
1, ,319, ,
3, ,320, ,
1, ,319, ,
1, ,321, ,
3, ,318, ,
1, ,320, ,
1, ,320, ,
3, ,319, ,
1, ,318, ,
0, ,319, ,
3, ,318, ,
1, ,320, ,
1, ,319, ,
3, ,319, ,
1, ,319, ,
1, ,320, ,
85, ,318, ,
53, ,319, ,
29, ,319, ,
20, ,319, ,
16, ,319, ,
10, ,319, ,
6, ,320, ,
4, ,319, ,
5, ,320, ,
5, ,319, ,
3, ,319, ,
3, ,320, ,
5, ,318, ,
3, ,319, ,
3, ,319, ,
4, ,320, ,
3, ,319, ,
3, ,319, ,
4, ,319, ,
3, ,320, ,
3, ,318, ,
4, ,319, ,
4, ,319, ,
1, ,320, ,
4, ,318, ,
3, ,320, ,
3, ,319, ,
4, ,320, ,
4, ,318, ,
3, ,320, ,
4, ,319, ,
3, ,320, ,
3, ,318, ,
4, ,319, ,
4, ,319, ,
3, ,319, ,
4, ,318, ,
3, ,319, ,
3, ,319, ,
4, ,319, ,
4, ,318, ,
1, ,320, ,
4, ,320, ,
3, ,320, ,
3, ,318, ,
4, ,319, ,
3, ,319, ,
3, ,320, ,
4, ,319, ,
3, ,319, ,
3, ,319, ,
4, ,320, ,
3, ,318, ,
3, ,321, ,
4, ,319, ,
3, ,319, ,
3, ,319, ,
4, ,319, ,
3, ,319, ,
3, ,320, ,
4, ,318, ,
3, ,319, ,
3, ,320, ,
4, ,321, ,
3, ,318, ,
1, ,320, ,
4, ,318, ,
3, ,320, ,
3, ,319, ,
4, ,319, ,
3, ,319, ,
3, ,321, ,
4, ,318, ,
3, ,319, ,
3, ,319, ,
4, ,320, ,
3, ,318, ,
1, ,319, ,
4, ,319, ,
3, ,320, ,
3, ,319, ,
4, ,318, ,
3, ,319, ,
1, ,321, ,
4, ,318, ,
3, ,319, ,
3, ,319, ,
4, ,319, ,
3, ,318, ,
1, ,320, ,
4, ,319, ,
1, ,320, ,
3, ,319, ,
4, ,319, ,
3, ,319, ,
1, ,321, ,
4, ,318, ,
1, ,319, ,
3, ,319, ,
3, ,320, ,
3, ,319, ,
1, ,320, ,
4, ,320, ,
3, ,319, ,
3, ,319, ,
3, ,319, ,
3, ,320, ,
1, ,320, ,
