src/vary_led_1562/temp0007032.CSV

Format,1.0B,
Memory Length,10000,Memory Length,10000,
IntpDistance,0,IntpDistance,0,
Trigger Address,5159,Trigger Address,5159,
Trigger Level,3.000E-01,Trigger Level,3.000E-01,
Source,CH1,Source,CH2,
Vertical Units,V,Vertical Units,V,
Vertical Units Div,0,Vertical Units Div,0,
Vertical Units Extend Div,16,Vertical Units Extend Div,16,
Label,,Label,,
Probe Type,0,Probe Type,0,
Probe Ratio,1.000e+01,Probe Ratio,1.000e+00,
Vertical Scale,5.000e-01,Vertical Scale,2.000e-01,
Vertical Position,-1.780e+00,Vertical Position,-2.240e+00,
Horizontal Units,S,Horizontal Units,S,
Horizontal Scale,2.000E-05,Horizontal Scale,2.000E-05,
Horizontal Position,-3.200E-06,Horizontal Position,-3.200E-06,
Horizontal Mode,Main,Horizontal Mode,Main,
SincET Mode,Real Time,SincET Mode,Real Time,
Sampling Period,2.000e-08,Sampling Period,2.000e-08,
Horizontal Old Scale,2.000E-05,Horizontal Old Scale,2.000E-05,
Horizontal Old Position,-3.200E-06,Horizontal Old Position,-3.200E-06,
Firmware,V1.23,Firmware,V1.23,
Mode,Fast,Mode,Fast,
Waveform Data,,Waveform Data,,
0, ,326, ,
3, ,328, ,
1, ,325, ,
-1, ,325, ,
1, ,326, ,
0, ,327, ,
0, ,324, ,
3, ,327, ,
1, ,326, ,
-1, ,326, ,
3, ,325, ,
0, ,327, ,
0, ,325, ,
1, ,326, ,
1, ,324, ,
-1, ,325, ,
1, ,326, ,
0, ,328, ,
0, ,326, ,
1, ,327, ,
1, ,327, ,
0, ,327, ,
3, ,326, ,
0, ,325, ,
0, ,325, ,
3, ,327, ,
0, ,325, ,
-1, ,327, ,
1, ,326, ,
0, ,328, ,
0, ,325, ,
1, ,326, ,
1, ,326, ,
0, ,326, ,
3, ,325, ,
0, ,327, ,
0, ,325, ,
3, ,327, ,
1, ,326, ,
-1, ,327, ,
1, ,325, ,
0, ,327, ,
0, ,324, ,
3, ,327, ,
1, ,327, ,
0, ,327, ,
3, ,325, ,
0, ,327, ,
0, ,326, ,
1, ,327, ,
1, ,325, ,
-1, ,326, ,
1, ,327, ,
0, ,327, ,
0, ,324, ,
3, ,327, ,
1, ,326, ,
0, ,327, ,
3, ,325, ,
0, ,327, ,
0, ,325, ,
3, ,327, ,
1, ,325, ,
-1, ,327, ,
1, ,326, ,
0, ,327, ,
0, ,325, ,
3, ,327, ,
1, ,326, ,
0, ,327, ,
3, ,325, ,
0, ,327, ,
0, ,326, ,
1, ,326, ,
1, ,325, ,
0, ,326, ,
1, ,326, ,
0, ,328, ,
0, ,325, ,
1, ,327, ,
1, ,326, ,
0, ,327, ,
3, ,326, ,
0, ,328, ,
0, ,324, ,
3, ,326, ,
0, ,326, ,
-1, ,327, ,
1, ,325, ,
0, ,327, ,
0, ,323, ,
3, ,323, ,
1, ,325, ,
0, ,326, ,
3, ,328, ,
0, ,332, ,
0, ,328, ,
3, ,325, ,
1, ,321, ,
-1, ,323, ,
1, ,325, ,
0, ,329, ,
0, ,326, ,
3, ,325, ,
1, ,325, ,
0, ,325, ,
3, ,325, ,
0, ,326, ,
0, ,326, ,
1, ,327, ,
1, ,325, ,
-1, ,326, ,
1, ,325, ,
1, ,327, ,
0, ,324, ,
3, ,327, ,
1, ,325, ,
0, ,326, ,
3, ,325, ,
0, ,328, ,
0, ,326, ,
1, ,327, ,
0, ,326, ,
-1, ,326, ,
1, ,326, ,
0, ,327, ,
0, ,325, ,
1, ,327, ,
1, ,325, ,
0, ,326, ,
3, ,325, ,
0, ,328, ,
0, ,326, ,
1, ,327, ,
0, ,325, ,
-1, ,325, ,
1, ,325, ,
0, ,326, ,
0, ,324, ,
1, ,326, ,
1, ,325, ,
0, ,326, ,
1, ,325, ,
0, ,326, ,
0, ,325, ,
1, ,326, ,
1, ,325, ,
-1, ,325, ,
1, ,326, ,
0, ,327, ,
0, ,325, ,
3, ,327, ,
1, ,326, ,
0, ,326, ,
3, ,326, ,
0, ,327, ,
0, ,325, ,
3, ,327, ,
1, ,324, ,
-1, ,326, ,
1, ,325, ,
0, ,327, ,
0, ,324, ,
3, ,326, ,
1, ,326, ,
0, ,327, ,
3, ,325, ,
0, ,326, ,
0, ,326, ,
3, ,327, ,
1, ,325, ,
-1, ,325, ,
1, ,326, ,
0, ,327, ,
0, ,325, ,
3, ,327, ,
1, ,326, ,
0, ,326, ,
3, ,326, ,
0, ,327, ,
0, ,326, ,
1, ,327, ,
1, ,324, ,
-1, ,325, ,
1, ,325, ,
1, ,328, ,
0, ,325, ,
3, ,327, ,
1, ,325, ,
0, ,326, ,
3, ,326, ,
0, ,326, ,
0, ,326, ,
3, ,326, ,
1, ,326, ,
1, ,326, ,
107, ,326, ,
66, ,327, ,
37, ,326, ,
23, ,327, ,
18, ,327, ,
13, ,327, ,
9, ,325, ,
5, ,328, ,
4, ,326, ,
6, ,328, ,
4, ,327, ,
1, ,327, ,
5, ,326, ,
3, ,327, ,
1, ,325, ,
4, ,327, ,
3, ,327, ,
1, ,327, ,
5, ,326, ,
3, ,327, ,
3, ,326, ,
4, ,327, ,
3, ,326, ,
1, ,326, ,
5, ,326, ,
3, ,328, ,
3, ,325, ,
4, ,327, ,
4, ,327, ,
1, ,327, ,
5, ,325, ,
3, ,327, ,
3, ,326, ,
4, ,327, ,
3, ,325, ,
1, ,326, ,
4, ,327, ,
1, ,328, ,
3, ,325, ,
4, ,326, ,
3, ,327, ,
1, ,327, ,
5, ,326, ,
1, ,327, ,
3, ,326, ,
4, ,326, ,
3, ,325, ,
1, ,326, ,
4, ,327, ,
1, ,328, ,
3, ,325, ,
3, ,326, ,
3, ,326, ,
1, ,326, ,
5, ,326, ,
3, ,327, ,
3, ,326, ,
4, ,327, ,
3, ,325, ,
1, ,327, ,
4, ,325, ,
1, ,328, ,
3, ,325, ,
3, ,327, ,
3, ,327, ,
1, ,327, ,
4, ,325, ,
1, ,327, ,
1, ,326, ,
4, ,327, ,
4, ,325, ,
1, ,327, ,
4, ,326, ,
3, ,328, ,
3, ,325, ,
4, ,326, ,
3, ,326, ,
1, ,327, ,
5, ,325, ,
1, ,327, ,
1, ,325, ,
3, ,327, ,
3, ,325, ,
0, ,326, ,
4, ,325, ,
3, ,327, ,
1, ,326, ,
3, ,327, ,
3, ,326, ,
1, ,326, ,
4, ,326, ,
1, ,327, ,
1, ,326, ,
3, ,327, ,
3, ,326, ,
1, ,326, ,
4, ,326, ,
3, ,327, ,
3, ,325, ,
4, ,327, ,
3, ,326, ,
1, ,327, ,
4, ,325, ,
3, ,327, ,
3, ,325, ,
4, ,328, ,
3, ,326, ,
0, ,326, ,
4, ,326, ,
1, ,327, ,
1, ,324, ,
3, ,327, ,
3, ,327, ,
1, ,326, ,
4, ,325, ,
3, ,327, ,
1, ,326, ,
4, ,327, ,
3, ,325, ,
1, ,326, ,
4, ,327, ,
1, ,327, ,
1, ,325, ,
3, ,327, ,
3, ,326, ,
1, ,326, ,
4, ,326, ,
1, ,327, ,
1, ,326, ,
3, ,327, ,
3, ,326, ,
1, ,327, ,
4, ,327, ,
1, ,327, ,
1, ,326, ,
3, ,327, ,
3, ,325, ,
1, ,327, ,
4, ,326, ,
1, ,328, ,
1, ,326, ,
4, ,326, ,
3, ,325, ,
0, ,327, ,
4, ,326, ,
1, ,328, ,
1, ,324, ,
3, ,327, ,
3, ,327, ,
1, ,327, ,
4, ,326, ,
1, ,327, ,
1, ,326, ,
4, ,327, ,
3, ,325, ,
0, ,326, ,
4, ,326, ,
1, ,328, ,
1, ,325, ,
3, ,326, ,
3, ,326, ,
1, ,327, ,
4, ,325, ,
1, ,327, ,
1, ,325, ,
3, ,326, ,
3, ,325, ,
0, ,326, ,
4, ,327, ,
1, ,327, ,
1, ,325, ,
3, ,327, ,
3, ,326, ,
0, ,327, ,
4, ,326, ,
1, ,327, ,
1, ,327, ,
4, ,327, ,
3, ,325, ,
0, ,326, ,
3, ,326, ,
1, ,327, ,
1, ,326, ,
3, ,327, ,
3, ,327, ,
1, ,327, ,
3, ,325, ,
1, ,327, ,
1, ,326, ,
3, ,327, ,
3, ,325, ,
0, ,326, ,
4, ,326, ,
1, ,327, ,
1, ,325, ,
3, ,328, ,
3, ,326, ,
0, ,327, ,
4, ,326, ,
1, ,327, ,
1, ,326, ,
3, ,327, ,
3, ,325, ,
0, ,325, ,
3, ,326, ,
3, ,327, ,
1, ,325, ,
3, ,326, ,
1, ,327, ,
1, ,327, ,
4, ,326, ,
1, ,327, ,
1, ,326, ,
4, ,327, ,
3, ,326, ,
0, ,326, ,
3, ,327, ,
3, ,328, ,
1, ,324, ,
3, ,326, ,
3, ,327, ,
1, ,327, ,
4, ,325, ,
1, ,327, ,
1, ,326, ,
3, ,327, ,
3, ,326, ,
0, ,326, ,
3, ,326, ,
1, ,327, ,
1, ,324, ,
3, ,326, ,
3, ,326, ,
0, ,326, ,
3, ,326, ,
1, ,327, ,
1, ,326, ,
3, ,327, ,
3, ,325, ,
0, ,326, ,
3, ,325, ,
1, ,327, ,
1, ,324, ,
3, ,327, ,
3, ,326, ,
0, ,326, ,
4, ,326, ,
1, ,327, ,
1, ,326, ,
3, ,327, ,
3, ,325, ,
0, ,326, ,
3, ,326, ,
1, ,327, ,
1, ,325, ,
3, ,326, ,
3, ,327, ,
0, ,326, ,
3, ,325, ,
1, ,327, ,
1, ,325, ,
4, ,326, ,
3, ,325, ,
0, ,327, ,
3, ,327, ,
1, ,328, ,
1, ,325, ,
3, ,326, ,
3, ,326, ,
0, ,325, ,
3, ,325, ,
1, ,327, ,
1, ,326, ,
3, ,327, ,
3, ,326, ,
0, ,326, ,
3, ,325, ,
1, ,327, ,
1, ,325, ,
3, ,325, ,
3, ,326, ,
0, ,327, ,
3, ,326, ,
1, ,328, ,
1, ,326, ,
3, ,327, ,
1, ,325, ,
0, ,326, ,
3, ,325, ,
1, ,327, ,
1, ,326, ,
3, ,326, ,
1, ,326, ,
0, ,326, ,
4, ,326, ,
1, ,327, ,
1, ,326, ,
3, ,325, ,
1, ,325, ,
0, ,326, ,
3, ,327, ,
1, ,327, ,
1, ,325, ,
3, ,327, ,
1, ,326, ,
0, ,327, ,
3, ,326, ,
1, ,327, ,
1, ,326, ,
3, ,327, ,
1, ,326, ,
0, ,326, ,
3, ,326, ,
1, ,327, ,
1, ,325, ,
3, ,326, ,
1, ,326, ,
0, ,326, ,
3, ,326, ,
1, ,328, ,
1, ,326, ,
3, ,327, ,
1, ,325, ,
0, ,326, ,
3, ,326, ,
1, ,327, ,
1, ,325, ,
3, ,326, ,
1, ,326, ,
0, ,327, ,
3, ,325, ,
1, ,327, ,
1, ,326, ,
3, ,327, ,
1, ,326, ,
0, ,326, ,
3, ,325, ,
1, ,328, ,
1, ,325, ,
3, ,326, ,
1, ,326, ,
0, ,326, ,
3, ,326, ,
1, ,327, ,
1, ,325, ,
3, ,327, ,
3, ,326, ,
0, ,326, ,
3, ,325, ,
1, ,327, ,
1, ,325, ,
3, ,327, ,
1, ,327, ,
6, ,327, ,
72, ,326, ,
47, ,327, ,
27, ,326, ,
19, ,326, ,
14, ,325, ,
9, ,325, ,
8, ,326, ,
4, ,328, ,
4, ,325, ,
5, ,326, ,
3, ,326, ,
1, ,327, ,
5, ,326, ,
3, ,328, ,
3, ,326, ,
4, ,327, ,
4, ,326, ,
1, ,326, ,
4, ,326, ,
3, ,327, ,
3, ,325, ,
4, ,327, ,
3, ,326, ,
1, ,326, ,
5, ,326, ,
3, ,327, ,
3, ,326, ,
4, ,327, ,
3, ,325, ,
1, ,326, ,
4, ,325, ,
1, ,328, ,
3, ,325, ,
4, ,327, ,
4, ,326, ,
1, ,325, ,
5, ,326, ,
3, ,328, ,
3, ,326, ,
4, ,327, ,
3, ,327, ,
1, ,326, ,
4, ,326, ,
3, ,328, ,
3, ,327, ,
4, ,327, ,
3, ,327, ,
1, ,326, ,
5, ,325, ,
1, ,327, ,
1, ,325, ,
4, ,327, ,
3, ,325, ,
1, ,326, ,
4, ,326, ,
3, ,327, ,
3, ,325, ,
4, ,326, ,
4, ,327, ,
1, ,327, ,
4, ,326, ,
1, ,328, ,
3, ,326, ,
4, ,326, ,
3, ,325, ,
1, ,326, ,
4, ,326, ,
1, ,328, ,
3, ,325, ,
4, ,326, ,
4, ,327, ,
1, ,327, ,
4, ,326, ,
1, ,328, ,
3, ,326, ,
4, ,326, ,
3, ,325, ,
1, ,326, ,
4, ,327, ,
1, ,327, ,
3, ,326, ,
3, ,327, ,
3, ,326, ,
1, ,327, ,
4, ,326, ,
1, ,328, ,
3, ,326, ,
4, ,327, ,
3, ,325, ,
1, ,326, ,
4, ,325, ,
1, ,327, ,
3, ,326, ,
3, ,327, ,
3, ,325, ,
1, ,327, ,
4, ,325, ,
1, ,327, ,
3, ,326, ,
4, ,327, ,
3, ,326, ,
1, ,327, ,
4, ,326, ,
1, ,327, ,
1, ,324, ,
4, ,326, ,
3, ,326, ,
1, ,327, ,
4, ,326, ,
1, ,327, ,
3, ,326, ,
3, ,327, ,
3, ,325, ,
1, ,327, ,
4, ,327, ,
3, ,328, ,
1, ,326, ,
4, ,327, ,
3, ,326, ,
1, ,326, ,
4, ,326, ,
3, ,327, ,
1, ,326, ,
4, ,326, ,
3, ,326, ,
1, ,327, ,
4, ,325, ,
3, ,326, ,
1, ,324, ,
4, ,326, ,
3, ,327, ,
1, ,327, ,
4, ,325, ,
3, ,327, ,
1, ,326, ,
3, ,327, ,
3, ,326, ,
1, ,326, ,
4, ,326, ,
3, ,327, ,
1, ,325, ,
3, ,326, ,
3, ,327, ,
1, ,325, ,
4, ,326, ,
1, ,328, ,
1, ,326, ,
3, ,327, ,
3, ,326, ,
1, ,327, ,
4, ,326, ,
1, ,327, ,
1, ,326, ,
4, ,327, ,
3, ,327, ,
1, ,326, ,
4, ,326, ,
1, ,327, ,
3, ,326, ,
4, ,326, ,
3, ,325, ,
1, ,326, ,
4, ,326, ,
3, ,327, ,
1, ,325, ,
3, ,326, ,
3, ,326, ,
1, ,327, ,
4, ,325, ,
1, ,326, ,
1, ,326, ,
4, ,328, ,
3, ,326, ,
1, ,326, ,
4, ,326, ,
1, ,328, ,
1, ,324, ,
3, ,327, ,
3, ,326, ,
0, ,326, ,
4, ,326, ,
1, ,326, ,
3, ,326, ,
3, ,326, ,
3, ,325, ,
1, ,325, ,
4, ,326, ,
1, ,328, ,
1, ,326, ,
3, ,327, ,
3, ,327, ,
1, ,327, ,
4, ,325, ,
1, ,328, ,
1, ,326, ,
3, ,327, ,
3, ,325, ,
0, ,325, ,
4, ,326, ,
1, ,328, ,
1, ,325, ,
3, ,327, ,
3, ,326, ,
1, ,326, ,
3, ,326, ,
1, ,327, ,
1, ,326, ,
3, ,327, ,
3, ,326, ,
1, ,325, ,
4, ,325, ,
1, ,327, ,
1, ,324, ,
3, ,327, ,
3, ,326, ,
0, ,327, ,
3, ,325, ,
1, ,327, ,
1, ,326, ,
3, ,327, ,
3, ,325, ,
0, ,326, ,
3, ,326, ,
1, ,327, ,
1, ,325, ,
3, ,327, ,
3, ,327, ,
0, ,326, ,
3, ,325, ,
1, ,327, ,
1, ,326, ,
3, ,327, ,
3, ,325, ,
0, ,326, ,
4, ,326, ,
1, ,328, ,
1, ,324, ,
3, ,327, ,
3, ,326, ,
0, ,326, ,
3, ,325, ,
1, ,327, ,
1, ,325, ,
4, ,327, ,
3, ,325, ,
0, ,327, ,
3, ,327, ,
1, ,328, ,
1, ,325, ,
3, ,326, ,
3, ,327, ,
1, ,326, ,
3, ,325, ,
1, ,327, ,
1, ,326, ,
4, ,327, ,
3, ,325, ,
0, ,325, ,
3, ,325, ,
1, ,328, ,
1, ,325, ,
3, ,327, ,
3, ,326, ,
1, ,326, ,
3, ,325, ,
1, ,327, ,
1, ,326, ,
3, ,327, ,
3, ,325, ,
0, ,326, ,
3, ,326, ,
1, ,327, ,
1, ,324, ,
3, ,326, ,
1, ,326, ,
0, ,327, ,
3, ,325, ,
1, ,327, ,
1, ,326, ,
3, ,327, ,
3, ,325, ,
0, ,327, ,
3, ,326, ,
1, ,327, ,
1, ,324, ,
4, ,326, ,
3, ,326, ,
0, ,327, ,
3, ,325, ,
1, ,328, ,
1, ,326, ,
3, ,327, ,
3, ,325, ,
0, ,325, ,
3, ,326, ,
1, ,327, ,
1, ,325, ,
3, ,327, ,
3, ,327, ,
0, ,327, ,
3, ,326, ,
1, ,327, ,
1, ,326, ,
3, ,327, ,
3, ,325, ,
0, ,325, ,
3, ,326, ,
1, ,327, ,
1, ,325, ,
3, ,327, ,
3, ,326, ,
0, ,326, ,
3, ,325, ,
1, ,328, ,
1, ,326, ,
3, ,327, ,
3, ,325, ,
0, ,326, ,
4, ,326, ,
1, ,328, ,
1, ,324, ,
3, ,327, ,
1, ,326, ,
0, ,326, ,
3, ,325, ,
1, ,328, ,
1, ,326, ,
3, ,328, ,
1, ,326, ,
0, ,326, ,
4, ,326, ,
1, ,327, ,
1, ,324, ,
3, ,326, ,
1, ,326, ,
0, ,327, ,
3, ,326, ,
1, ,327, ,
1, ,324, ,
3, ,327, ,
1, ,325, ,
0, ,326, ,
3, ,326, ,
1, ,327, ,
1, ,325, ,
3, ,327, ,
1, ,326, ,
0, ,326, ,
3, ,324, ,
1, ,326, ,
1, ,325, ,
3, ,328, ,
1, ,327, ,
0, ,327, ,
3, ,326, ,
1, ,328, ,
1, ,324, ,
3, ,327, ,
3, ,326, ,
0, ,326, ,
3, ,326, ,
1, ,327, ,
1, ,326, ,
3, ,327, ,
1, ,325, ,
0, ,327, ,
3, ,327, ,
1, ,327, ,
1, ,324, ,
3, ,327, ,
3, ,326, ,
0, ,326, ,
3, ,326, ,
1, ,327, ,
1, ,325, ,
3, ,327, ,
1, ,325, ,
0, ,326, ,
3, ,325, ,
1, ,327, ,
1, ,323, ,
3, ,323, ,
3, ,327, ,
0, ,332, ,
3, ,329, ,
1, ,326, ,
1, ,324, ,
3, ,327, ,
3, ,326, ,
0, ,327, ,
3, ,326, ,
1, ,328, ,
1, ,325, ,
3, ,327, ,
1, ,327, ,
0, ,327, ,
3, ,325, ,
1, ,327, ,
1, ,326, ,
3, ,328, ,
1, ,324, ,
0, ,327, ,
3, ,326, ,
1, ,328, ,
1, ,325, ,
3, ,327, ,
1, ,326, ,
0, ,327, ,
3, ,326, ,
1, ,326, ,
1, ,326, ,
3, ,327, ,
1, ,326, ,
0, ,327, ,
3, ,326, ,
1, ,327, ,
1, ,325, ,
4, ,327, ,
1, ,327, ,
0, ,327, ,
3, ,325, ,
1, ,326, ,
1, ,324, ,
3, ,327, ,
3, ,325, ,
0, ,326, ,
3, ,326, ,
1, ,327, ,
1, ,324, ,
3, ,327, ,
1, ,326, ,
0, ,326, ,
3, ,325, ,
1, ,328, ,
1, ,325, ,
3, ,327, ,
3, ,326, ,
0, ,327, ,
3, ,326, ,
1, ,327, ,
1, ,324, ,
3, ,327, ,
1, ,326, ,
0, ,327, ,
3, ,324, ,
1, ,327, ,
1, ,325, ,
3, ,327, ,
1, ,326, ,
0, ,325, ,
3, ,327, ,
1, ,328, ,
1, ,325, ,
3, ,327, ,
1, ,326, ,
0, ,327, ,
3, ,326, ,
1, ,328, ,
1, ,326, ,
3, ,327, ,
3, ,325, ,
0, ,325, ,
3, ,325, ,
1, ,327, ,
0, ,326, ,
3, ,327, ,
1, ,325, ,
0, ,327, ,
3, ,325, ,
0, ,327, ,
1, ,326, ,
3, ,327, ,
1, ,326, ,
0, ,326, ,
3, ,326, ,
1, ,327, ,
0, ,324, ,
3, ,327, ,
1, ,326, ,
0, ,327, ,
3, ,325, ,
1, ,326, ,
1, ,325, ,
3, ,327, ,
1, ,325, ,
0, ,326, ,
3, ,325, ,
1, ,327, ,
1, ,325, ,
3, ,326, ,
1, ,326, ,
0, ,327, ,
3, ,326, ,
1, ,327, ,
1, ,325, ,
3, ,326, ,
1, ,326, ,
0, ,327, ,
3, ,326, ,
1, ,327, ,
0, ,324, ,
3, ,327, ,
1, ,326, ,
0, ,327, ,
3, ,326, ,
1, ,327, ,
1, ,326, ,
3, ,327, ,
1, ,327, ,
0, ,327, ,
3, ,326, ,
1, ,327, ,
1, ,325, ,
3, ,326, ,
1, ,326, ,
0, ,326, ,
3, ,326, ,
1, ,328, ,
1, ,324, ,
3, ,327, ,
1, ,326, ,
0, ,326, ,
3, ,326, ,
1, ,328, ,
1, ,324, ,
3, ,327, ,
1, ,326, ,
0, ,327, ,
1, ,326, ,
1, ,327, ,
1, ,325, ,
3, ,328, ,
1, ,325, ,
0, ,327, ,
3, ,326, ,
1, ,327, ,
1, ,325, ,
3, ,327, ,
1, ,325, ,
0, ,327, ,
3, ,326, ,
1, ,328, ,
1, ,326, ,
3, ,327, ,
1, ,325, ,
0, ,326, ,
3, ,326, ,
1, ,327, ,
0, ,324, ,
3, ,327, ,
3, ,324, ,
0, ,324, ,
3, ,324, ,
1, ,328, ,
1, ,329, ,
3, ,330, ,
1, ,328, ,
0, ,325, ,
3, ,323, ,
1, ,324, ,
1, ,324, ,
3, ,327, ,
1, ,326, ,
103, ,326, ,
64, ,324, ,
39, ,325, ,
28, ,325, ,
20, ,327, ,
13, ,327, ,
6, ,326, ,
9, ,325, ,
6, ,327, ,
4, ,324, ,
5, ,327, ,
3, ,326, ,
3, ,326, ,
5, ,324, ,
3, ,327, ,
1, ,325, ,
4, ,328, ,
4, ,325, ,
1, ,326, ,
5, ,325, ,
3, ,326, ,
3, ,325, ,
4, ,326, ,
3, ,326, ,
1, ,326, ,
5, ,325, ,
3, ,327, ,
3, ,325, ,
4, ,327, ,
3, ,325, ,
1, ,325, ,
4, ,325, ,
3, ,327, ,
3, ,325, ,
4, ,325, ,
3, ,326, ,
1, ,326, ,
4, ,325, ,
1, ,327, ,
3, ,326, ,
4, ,327, ,
3, ,325, ,
1, ,325, ,
5, ,325, ,
1, ,328, ,
3, ,326, ,
4, ,326, ,
4, ,325, ,
1, ,326, ,
4, ,325, ,
1, ,327, ,
3, ,326, ,
4, ,327, ,
3, ,325, ,
1, ,325, ,
4, ,325, ,
3, ,327, ,
3, ,325, ,
4, ,326, ,
4, ,325, ,
1, ,326, ,
4, ,325, ,
3, ,326, ,
3, ,326, ,
4, ,327, ,
3, ,325, ,
1, ,325, ,
4, ,326, ,
1, ,328, ,
1, ,324, ,
4, ,327, ,
4, ,325, ,
1, ,326, ,
4, ,325, ,
3, ,327, ,
3, ,325, ,
4, ,327, ,
3, ,325, ,
1, ,325, ,
4, ,325, ,
3, ,326, ,
1, ,326, ,
4, ,325, ,
3, ,325, ,
1, ,325, ,
4, ,325, ,
3, ,327, ,
1, ,326, ,
4, ,326, ,
3, ,326, ,
1, ,326, ,
4, ,325, ,
3, ,327, ,
3, ,324, ,
4, ,328, ,
4, ,327, ,
1, ,327, ,
4, ,325, ,
1, ,326, ,
3, ,325, ,
4, ,327, ,
3, ,326, ,
1, ,326, ,
4, ,327, ,
1, ,328, ,
1, ,324, ,
3, ,325, ,
4, ,326, ,
1, ,327, ,
25, ,325, ,
27, ,327, ,
19, ,327, ,
14, ,327, ,
10, ,326, ,
6, ,327, ,
8, ,327, ,
4, ,328, ,
4, ,326, ,
5, ,327, ,
3, ,326, ,
3, ,327, ,
4, ,326, ,
3, ,327, ,
3, ,326, ,
4, ,327, ,
4, ,326, ,
1, ,326, ,
5, ,327, ,
3, ,328, ,
3, ,325, ,
4, ,327, ,
4, ,326, ,
3, ,327, ,
4, ,326, ,
1, ,327, ,
3, ,326, ,
4, ,327, ,
3, ,326, ,
1, ,327, ,
4, ,326, ,
3, ,328, ,
3, ,325, ,
4, ,326, ,
3, ,326, ,
1, ,327, ,
4, ,325, ,
3, ,327, ,
3, ,326, ,
4, ,328, ,
3, ,325, ,
1, ,325, ,
4, ,327, ,
3, ,327, ,
3, ,325, ,
4, ,327, ,
4, ,327, ,
1, ,326, ,
4, ,326, ,
3, ,327, ,
3, ,326, ,
4, ,327, ,
3, ,326, ,
1, ,326, ,
4, ,326, ,
3, ,327, ,
3, ,326, ,
4, ,327, ,
4, ,327, ,
3, ,327, ,
4, ,326, ,
1, ,327, ,
1, ,326, ,
4, ,327, ,
3, ,325, ,
1, ,326, ,
4, ,326, ,
1, ,327, ,
1, ,325, ,
4, ,327, ,
3, ,326, ,
1, ,326, ,
4, ,326, ,
1, ,327, ,
3, ,326, ,
4, ,327, ,
4, ,325, ,
1, ,326, ,
5, ,326, ,
3, ,327, ,
3, ,326, ,
4, ,326, ,
3, ,326, ,
1, ,327, ,
4, ,326, ,
1, ,327, ,
1, ,326, ,
4, ,327, ,
3, ,325, ,
1, ,327, ,
4, ,326, ,
1, ,328, ,
1, ,325, ,
4, ,327, ,
4, ,327, ,
1, ,327, ,
4, ,326, ,
3, ,326, ,
3, ,326, ,
4, ,327, ,
3, ,326, ,
1, ,327, ,
4, ,326, ,
3, ,328, ,
1, ,324, ,
4, ,327, ,
3, ,326, ,
1, ,327, ,
4, ,326, ,
3, ,327, ,
3, ,327, ,
4, ,327, ,
3, ,326, ,
1, ,326, ,
4, ,327, ,
3, ,327, ,
1, ,324, ,
3, ,325, ,
3, ,327, ,
1, ,326, ,
4, ,324, ,
3, ,326, ,
1, ,326, ,
3, ,328, ,
3, ,327, ,
1, ,327, ,
4, ,325, ,
1, ,327, ,
1, ,324, ,
4, ,325, ,
3, ,326, ,
1, ,327, ,
4, ,327, ,
3, ,328, ,
3, ,326, ,
4, ,328, ,
3, ,325, ,
1, ,327, ,
4, ,325, ,
1, ,327, ,
1, ,326, ,
4, ,327, ,
3, ,326, ,
1, ,326, ,
4, ,325, ,
1, ,327, ,
1, ,326, ,
3, ,326, ,
3, ,325, ,
1, ,326, ,
4, ,326, ,
1, ,327, ,
1, ,325, ,
3, ,327, ,
3, ,327, ,
1, ,327, ,
4, ,325, ,
1, ,328, ,
1, ,326, ,
3, ,327, ,
3, ,326, ,
0, ,326, ,
4, ,326, ,
1, ,327, ,
1, ,324, ,
4, ,326, ,
3, ,325, ,
1, ,327, ,
4, ,325, ,
1, ,327, ,
1, ,326, ,
4, ,327, ,
3, ,327, ,
1, ,326, ,
4, ,326, ,
1, ,327, ,
1, ,325, ,
3, ,326, ,
3, ,327, ,
1, ,327, ,
4, ,325, ,
1, ,327, ,
1, ,326, ,
3, ,327, ,
3, ,325, ,
1, ,325, ,
4, ,326, ,
1, ,328, ,
1, ,325, ,
3, ,327, ,
3, ,326, ,
1, ,327, ,
4, ,326, ,
3, ,327, ,
1, ,326, ,
3, ,327, ,
3, ,326, ,
0, ,326, ,
3, ,326, ,
1, ,327, ,
1, ,324, ,
3, ,325, ,
3, ,326, ,
0, ,326, ,
3, ,326, ,
3, ,327, ,
1, ,326, ,
4, ,327, ,
3, ,326, ,
1, ,326, ,
3, ,326, ,
1, ,328, ,
1, ,325, ,
3, ,327, ,
3, ,326, ,
1, ,326, ,
4, ,325, ,
1, ,327, ,
1, ,326, ,
3, ,327, ,
3, ,326, ,
1, ,326, ,
4, ,326, ,
1, ,327, ,
1, ,325, ,
3, ,327, ,
3, ,326, ,
1, ,326, ,
4, ,326, ,
1, ,327, ,
1, ,326, ,
3, ,327, ,
3, ,326, ,
1, ,326, ,
4, ,327, ,
1, ,328, ,
1, ,325, ,
3, ,327, ,
3, ,326, ,
1, ,326, ,
3, ,326, ,
1, ,328, ,
1, ,326, ,
4, ,328, ,
3, ,325, ,
0, ,327, ,
3, ,326, ,
1, ,327, ,
1, ,325, ,
3, ,327, ,
3, ,327, ,
1, ,326, ,
3, ,326, ,
1, ,327, ,
1, ,326, ,
3, ,327, ,
3, ,326, ,
0, ,327, ,
3, ,326, ,
1, ,328, ,
1, ,325, ,
3, ,327, ,
3, ,326, ,
1, ,326, ,
4, ,326, ,
1, ,326, ,
1, ,326, ,
3, ,327, ,
3, ,325, ,
0, ,327, ,
3, ,327, ,
1, ,327, ,
1, ,325, ,
3, ,327, ,
3, ,327, ,
0, ,326, ,
3, ,326, ,
1, ,327, ,
1, ,326, ,
3, ,325, ,
3, ,323, ,
0, ,325, ,
3, ,331, ,
1, ,332, ,
1, ,324, ,
3, ,324, ,
3, ,325, ,
0, ,327, ,
3, ,325, ,
1, ,327, ,
1, ,326, ,
3, ,327, ,
3, ,325, ,
0, ,327, ,
3, ,326, ,
1, ,327, ,
1, ,326, ,
3, ,326, ,
3, ,327, ,
0, ,326, ,
3, ,325, ,
1, ,327, ,
1, ,325, ,
3, ,327, ,
3, ,326, ,
0, ,327, ,
3, ,326, ,
1, ,327, ,
1, ,324, ,
3, ,327, ,
3, ,327, ,
0, ,327, ,
3, ,325, ,
1, ,327, ,
1, ,326, ,
3, ,327, ,
1, ,326, ,
0, ,326, ,
3, ,326, ,
1, ,327, ,
1, ,324, ,
3, ,326, ,
3, ,325, ,
0, ,327, ,
3, ,326, ,
1, ,328, ,
1, ,325, ,
3, ,327, ,
1, ,325, ,
0, ,326, ,
3, ,327, ,
1, ,328, ,
1, ,324, ,
3, ,327, ,
3, ,326, ,
0, ,327, ,
3, ,325, ,
1, ,328, ,
1, ,326, ,
3, ,328, ,
1, ,326, ,
0, ,327, ,
3, ,325, ,
1, ,328, ,
1, ,325, ,
3, ,328, ,
1, ,326, ,
0, ,326, ,
3, ,325, ,
1, ,328, ,
1, ,326, ,
3, ,327, ,
3, ,325, ,
0, ,326, ,
3, ,325, ,
1, ,328, ,
1, ,325, ,
3, ,327, ,
3, ,325, ,
0, ,327, ,
3, ,325, ,
1, ,327, ,
1, ,326, ,
3, ,327, ,
1, ,326, ,
0, ,326, ,
3, ,326, ,
1, ,327, ,
1, ,325, ,
3, ,327, ,
1, ,327, ,
0, ,328, ,
3, ,326, ,
1, ,327, ,
1, ,326, ,
3, ,327, ,
1, ,327, ,
0, ,326, ,
3, ,326, ,
1, ,328, ,
1, ,323, ,
3, ,327, ,
1, ,326, ,
0, ,327, ,
3, ,325, ,
1, ,327, ,
1, ,326, ,
3, ,328, ,
1, ,325, ,
0, ,327, ,
3, ,326, ,
1, ,327, ,
1, ,325, ,
3, ,326, ,
1, ,326, ,
0, ,327, ,
3, ,325, ,
1, ,327, ,
1, ,326, ,
3, ,328, ,
3, ,326, ,
0, ,327, ,
3, ,326, ,
1, ,328, ,
1, ,325, ,
3, ,327, ,
1, ,326, ,
0, ,326, ,
3, ,325, ,
1, ,328, ,
1, ,326, ,
3, ,327, ,
1, ,325, ,
0, ,327, ,
3, ,327, ,
1, ,327, ,
1, ,324, ,
3, ,327, ,
1, ,326, ,
0, ,326, ,
3, ,326, ,
1, ,327, ,
1, ,326, ,
3, ,327, ,
1, ,326, ,
0, ,327, ,
3, ,326, ,
1, ,327, ,
1, ,324, ,
3, ,328, ,
1, ,326, ,
0, ,327, ,
3, ,326, ,
1, ,328, ,
1, ,326, ,
3, ,326, ,
1, ,325, ,
0, ,327, ,
3, ,326, ,
1, ,327, ,
1, ,325, ,
3, ,327, ,
1, ,326, ,
0, ,327, ,
3, ,325, ,
1, ,327, ,
1, ,326, ,
3, ,327, ,
1, ,325, ,
0, ,327, ,
3, ,326, ,
1, ,327, ,
1, ,324, ,
3, ,327, ,
1, ,327, ,
0, ,326, ,
3, ,325, ,
1, ,327, ,
1, ,326, ,
3, ,327, ,
1, ,326, ,
0, ,326, ,
3, ,326, ,
1, ,327, ,
1, ,326, ,
3, ,327, ,
1, ,325, ,
0, ,327, ,
3, ,327, ,
1, ,327, ,
1, ,326, ,
3, ,326, ,
1, ,326, ,
0, ,327, ,
3, ,325, ,
1, ,327, ,
0, ,325, ,
3, ,327, ,
1, ,327, ,
0, ,327, ,
3, ,325, ,
1, ,328, ,
1, ,326, ,
3, ,327, ,
1, ,325, ,
0, ,326, ,
3, ,325, ,
1, ,327, ,
1, ,325, ,
3, ,326, ,
1, ,326, ,
0, ,327, ,
3, ,326, ,
1, ,328, ,
1, ,326, ,
3, ,327, ,
3, ,325, ,
