src/vary_led_1562/temp0000516.CSV

Format,1.0B,
Memory Length,10000,Memory Length,10000,
IntpDistance,0,IntpDistance,0,
Trigger Address,5159,Trigger Address,5159,
Trigger Level,3.000E-01,Trigger Level,3.000E-01,
Source,CH1,Source,CH2,
Vertical Units,V,Vertical Units,V,
Vertical Units Div,0,Vertical Units Div,0,
Vertical Units Extend Div,16,Vertical Units Extend Div,16,
Label,,Label,,
Probe Type,0,Probe Type,0,
Probe Ratio,1.000e+01,Probe Ratio,1.000e+00,
Vertical Scale,5.000e-01,Vertical Scale,2.000e-01,
Vertical Position,-1.780e+00,Vertical Position,-2.240e+00,
Horizontal Units,S,Horizontal Units,S,
Horizontal Scale,2.000E-05,Horizontal Scale,2.000E-05,
Horizontal Position,-3.200E-06,Horizontal Position,-3.200E-06,
Horizontal Mode,Main,Horizontal Mode,Main,
SincET Mode,Real Time,SincET Mode,Real Time,
Sampling Period,2.000e-08,Sampling Period,2.000e-08,
Horizontal Old Scale,2.000E-05,Horizontal Old Scale,2.000E-05,
Horizontal Old Position,-3.200E-06,Horizontal Old Position,-3.200E-06,
Firmware,V1.23,Firmware,V1.23,
Mode,Fast,Mode,Fast,
Waveform Data,,Waveform Data,,
1, ,197, ,
1, ,196, ,
-1, ,198, ,
1, ,198, ,
0, ,196, ,
0, ,196, ,
1, ,197, ,
1, ,196, ,
-1, ,197, ,
1, ,197, ,
0, ,197, ,
-1, ,196, ,
1, ,197, ,
0, ,196, ,
-1, ,196, ,
1, ,197, ,
0, ,197, ,
0, ,196, ,
1, ,199, ,
1, ,197, ,
-1, ,196, ,
3, ,197, ,
0, ,196, ,
0, ,197, ,
1, ,199, ,
0, ,196, ,
0, ,197, ,
3, ,198, ,
0, ,198, ,
0, ,196, ,
1, ,196, ,
1, ,196, ,
0, ,197, ,
1, ,196, ,
0, ,196, ,
0, ,196, ,
1, ,198, ,
1, ,197, ,
-1, ,196, ,
1, ,198, ,
0, ,198, ,
0, ,196, ,
1, ,198, ,
1, ,197, ,
-1, ,198, ,
3, ,197, ,
0, ,196, ,
-1, ,196, ,
1, ,198, ,
0, ,195, ,
-1, ,196, ,
3, ,197, ,
0, ,198, ,
0, ,195, ,
1, ,197, ,
1, ,197, ,
-1, ,197, ,
3, ,197, ,
0, ,197, ,
0, ,198, ,
3, ,197, ,
0, ,196, ,
0, ,197, ,
1, ,198, ,
0, ,197, ,
0, ,195, ,
1, ,197, ,
1, ,197, ,
-1, ,197, ,
3, ,196, ,
0, ,196, ,
0, ,196, ,
1, ,197, ,
1, ,196, ,
-1, ,197, ,
1, ,197, ,
0, ,197, ,
0, ,195, ,
1, ,199, ,
0, ,197, ,
-1, ,196, ,
3, ,197, ,
0, ,196, ,
0, ,195, ,
1, ,197, ,
1, ,195, ,
-1, ,196, ,
1, ,197, ,
0, ,197, ,
0, ,196, ,
1, ,197, ,
0, ,195, ,
-1, ,196, ,
3, ,197, ,
0, ,197, ,
0, ,196, ,
1, ,197, ,
1, ,195, ,
-1, ,196, ,
3, ,198, ,
0, ,197, ,
0, ,196, ,
1, ,197, ,
1, ,197, ,
-1, ,197, ,
3, ,197, ,
0, ,196, ,
0, ,196, ,
1, ,198, ,
1, ,196, ,
-1, ,195, ,
1, ,196, ,
0, ,196, ,
0, ,195, ,
1, ,196, ,
0, ,196, ,
-1, ,196, ,
3, ,197, ,
0, ,198, ,
0, ,199, ,
1, ,199, ,
1, ,198, ,
-1, ,197, ,
1, ,197, ,
0, ,196, ,
0, ,195, ,
1, ,197, ,
0, ,195, ,
-1, ,195, ,
3, ,196, ,
0, ,195, ,
0, ,196, ,
1, ,197, ,
1, ,196, ,
-1, ,196, ,
1, ,198, ,
0, ,197, ,
0, ,196, ,
1, ,199, ,
0, ,198, ,
-1, ,197, ,
3, ,196, ,
0, ,196, ,
0, ,196, ,
1, ,197, ,
0, ,195, ,
-1, ,196, ,
1, ,197, ,
0, ,197, ,
0, ,195, ,
1, ,197, ,
1, ,197, ,
-1, ,196, ,
3, ,197, ,
0, ,197, ,
0, ,197, ,
1, ,198, ,
1, ,197, ,
-1, ,197, ,
1, ,198, ,
0, ,197, ,
0, ,196, ,
1, ,198, ,
0, ,196, ,
-1, ,195, ,
3, ,197, ,
0, ,196, ,
0, ,196, ,
1, ,196, ,
1, ,195, ,
-1, ,196, ,
1, ,197, ,
0, ,198, ,
0, ,196, ,
1, ,197, ,
1, ,197, ,
-1, ,198, ,
3, ,196, ,
0, ,197, ,
0, ,197, ,
1, ,199, ,
1, ,196, ,
-1, ,196, ,
1, ,198, ,
0, ,197, ,
0, ,195, ,
1, ,197, ,
1, ,196, ,
-1, ,196, ,
3, ,198, ,
0, ,197, ,
-1, ,196, ,
1, ,198, ,
0, ,196, ,
-1, ,197, ,
1, ,198, ,
0, ,197, ,
0, ,195, ,
3, ,197, ,
1, ,196, ,
-1, ,195, ,
3, ,196, ,
0, ,196, ,
0, ,196, ,
1, ,197, ,
1, ,196, ,
0, ,196, ,
1, ,199, ,
0, ,198, ,
0, ,197, ,
1, ,196, ,
1, ,197, ,
-1, ,198, ,
3, ,198, ,
0, ,197, ,
0, ,198, ,
1, ,197, ,
0, ,196, ,
-1, ,195, ,
3, ,196, ,
0, ,195, ,
0, ,195, ,
1, ,197, ,
1, ,196, ,
-1, ,196, ,
1, ,197, ,
0, ,197, ,
0, ,197, ,
1, ,199, ,
1, ,197, ,
-1, ,198, ,
1, ,199, ,
0, ,198, ,
0, ,196, ,
1, ,199, ,
0, ,197, ,
-1, ,196, ,
3, ,195, ,
0, ,196, ,
-1, ,195, ,
1, ,195, ,
1, ,195, ,
-1, ,196, ,
1, ,198, ,
0, ,197, ,
0, ,195, ,
1, ,197, ,
1, ,197, ,
-1, ,197, ,
3, ,195, ,
0, ,195, ,
0, ,197, ,
1, ,199, ,
1, ,198, ,
-1, ,196, ,
1, ,197, ,
0, ,197, ,
0, ,195, ,
1, ,196, ,
1, ,196, ,
-1, ,196, ,
3, ,196, ,
0, ,197, ,
0, ,197, ,
1, ,198, ,
1, ,196, ,
-1, ,196, ,
1, ,197, ,
0, ,196, ,
0, ,197, ,
1, ,198, ,
0, ,197, ,
-1, ,197, ,
3, ,197, ,
0, ,196, ,
0, ,196, ,
3, ,197, ,
1, ,196, ,
-1, ,196, ,
1, ,197, ,
0, ,198, ,
0, ,196, ,
3, ,198, ,
0, ,196, ,
-1, ,197, ,
3, ,197, ,
0, ,197, ,
0, ,196, ,
1, ,199, ,
1, ,196, ,
-1, ,196, ,
3, ,197, ,
0, ,197, ,
0, ,194, ,
1, ,197, ,
1, ,197, ,
-1, ,196, ,
1, ,197, ,
0, ,196, ,
0, ,196, ,
1, ,199, ,
1, ,197, ,
-1, ,196, ,
3, ,199, ,
0, ,197, ,
0, ,196, ,
1, ,199, ,
1, ,197, ,
-1, ,196, ,
3, ,196, ,
0, ,197, ,
0, ,196, ,
3, ,197, ,
1, ,195, ,
-1, ,196, ,
3, ,197, ,
0, ,197, ,
0, ,196, ,
3, ,196, ,
1, ,196, ,
-1, ,198, ,
3, ,198, ,
0, ,198, ,
0, ,197, ,
1, ,198, ,
1, ,196, ,
-1, ,196, ,
3, ,197, ,
0, ,197, ,
0, ,196, ,
1, ,197, ,
1, ,196, ,
0, ,196, ,
3, ,197, ,
0, ,196, ,
-1, ,196, ,
1, ,198, ,
1, ,196, ,
-1, ,196, ,
1, ,197, ,
0, ,197, ,
0, ,196, ,
1, ,199, ,
1, ,197, ,
-1, ,196, ,
3, ,196, ,
0, ,196, ,
0, ,196, ,
3, ,197, ,
1, ,196, ,
-1, ,196, ,
1, ,197, ,
0, ,197, ,
0, ,197, ,
1, ,198, ,
0, ,197, ,
-1, ,196, ,
3, ,197, ,
0, ,197, ,
0, ,196, ,
3, ,197, ,
0, ,196, ,
-1, ,197, ,
1, ,198, ,
0, ,197, ,
0, ,196, ,
3, ,196, ,
1, ,196, ,
-1, ,197, ,
3, ,196, ,
0, ,196, ,
-1, ,196, ,
1, ,197, ,
1, ,196, ,
0, ,197, ,
3, ,197, ,
0, ,197, ,
0, ,196, ,
1, ,197, ,
1, ,196, ,
-1, ,196, ,
3, ,197, ,
0, ,197, ,
-1, ,196, ,
1, ,196, ,
0, ,196, ,
-1, ,196, ,
1, ,199, ,
0, ,197, ,
0, ,196, ,
1, ,199, ,
1, ,196, ,
-1, ,197, ,
3, ,198, ,
0, ,197, ,
0, ,197, ,
1, ,197, ,
0, ,196, ,
-1, ,196, ,
1, ,197, ,
0, ,197, ,
0, ,197, ,
3, ,198, ,
1, ,196, ,
-1, ,196, ,
3, ,197, ,
0, ,197, ,
0, ,196, ,
1, ,199, ,
0, ,196, ,
-1, ,196, ,
1, ,197, ,
0, ,198, ,
0, ,196, ,
1, ,199, ,
1, ,197, ,
-1, ,197, ,
3, ,196, ,
0, ,196, ,
-1, ,196, ,
3, ,199, ,
1, ,195, ,
0, ,196, ,
3, ,198, ,
0, ,197, ,
0, ,196, ,
3, ,197, ,
0, ,196, ,
-1, ,196, ,
3, ,196, ,
0, ,197, ,
0, ,197, ,
3, ,198, ,
1, ,197, ,
-1, ,198, ,
1, ,197, ,
0, ,197, ,
0, ,196, ,
1, ,197, ,
1, ,197, ,
-1, ,196, ,
3, ,196, ,
0, ,196, ,
0, ,196, ,
1, ,197, ,
0, ,196, ,
0, ,195, ,
3, ,198, ,
0, ,197, ,
0, ,196, ,
3, ,197, ,
1, ,198, ,
-1, ,195, ,
3, ,196, ,
0, ,196, ,
0, ,197, ,
1, ,197, ,
1, ,196, ,
-1, ,196, ,
3, ,197, ,
0, ,197, ,
0, ,195, ,
1, ,198, ,
1, ,197, ,
-1, ,197, ,
3, ,197, ,
0, ,198, ,
0, ,195, ,
1, ,197, ,
1, ,197, ,
-1, ,196, ,
1, ,199, ,
0, ,197, ,
0, ,195, ,
1, ,197, ,
1, ,197, ,
-1, ,196, ,
3, ,197, ,
0, ,197, ,
0, ,196, ,
1, ,197, ,
1, ,196, ,
-1, ,197, ,
1, ,198, ,
0, ,197, ,
0, ,196, ,
1, ,197, ,
0, ,196, ,
-1, ,197, ,
3, ,197, ,
0, ,197, ,
0, ,196, ,
1, ,199, ,
0, ,186, ,
-1, ,195, ,
1, ,206, ,
0, ,203, ,
0, ,194, ,
3, ,194, ,
1, ,197, ,
-1, ,196, ,
3, ,196, ,
0, ,196, ,
0, ,196, ,
1, ,198, ,
1, ,195, ,
-1, ,195, ,
3, ,198, ,
0, ,197, ,
0, ,196, ,
1, ,197, ,
1, ,197, ,
0, ,196, ,
1, ,196, ,
0, ,196, ,
0, ,196, ,
1, ,197, ,
1, ,196, ,
-1, ,196, ,
1, ,198, ,
0, ,197, ,
0, ,196, ,
1, ,197, ,
0, ,197, ,
-1, ,196, ,
3, ,197, ,
0, ,197, ,
0, ,196, ,
1, ,197, ,
1, ,196, ,
-1, ,196, ,
3, ,197, ,
0, ,197, ,
0, ,195, ,
1, ,197, ,
1, ,196, ,
-1, ,196, ,
3, ,197, ,
0, ,196, ,
-1, ,196, ,
1, ,196, ,
0, ,196, ,
-1, ,195, ,
3, ,197, ,
0, ,195, ,
0, ,196, ,
1, ,197, ,
1, ,197, ,
-1, ,197, ,
3, ,197, ,
0, ,197, ,
0, ,196, ,
1, ,198, ,
1, ,195, ,
-1, ,196, ,
3, ,197, ,
0, ,196, ,
0, ,194, ,
3, ,195, ,
1, ,195, ,
-1, ,197, ,
3, ,197, ,
0, ,197, ,
0, ,197, ,
1, ,197, ,
0, ,197, ,
-1, ,195, ,
3, ,199, ,
0, ,198, ,
0, ,196, ,
1, ,197, ,
1, ,196, ,
-1, ,196, ,
3, ,196, ,
0, ,195, ,
0, ,197, ,
3, ,196, ,
1, ,196, ,
-1, ,194, ,
1, ,197, ,
0, ,196, ,
0, ,195, ,
1, ,195, ,
0, ,196, ,
0, ,196, ,
3, ,197, ,
0, ,197, ,
0, ,196, ,
1, ,198, ,
1, ,196, ,
-1, ,197, ,
1, ,198, ,
0, ,197, ,
0, ,196, ,
1, ,197, ,
1, ,198, ,
-1, ,196, ,
3, ,196, ,
0, ,196, ,
0, ,196, ,
1, ,198, ,
0, ,196, ,
-1, ,197, ,
3, ,198, ,
0, ,197, ,
0, ,196, ,
1, ,197, ,
0, ,196, ,
-1, ,196, ,
3, ,197, ,
0, ,196, ,
0, ,195, ,
1, ,197, ,
0, ,195, ,
-1, ,196, ,
1, ,199, ,
0, ,197, ,
0, ,195, ,
1, ,197, ,
1, ,197, ,
-1, ,197, ,
3, ,197, ,
0, ,196, ,
0, ,196, ,
1, ,198, ,
0, ,196, ,
-1, ,196, ,
3, ,199, ,
0, ,197, ,
0, ,195, ,
1, ,198, ,
1, ,196, ,
-1, ,196, ,
3, ,196, ,
0, ,197, ,
0, ,196, ,
1, ,196, ,
1, ,196, ,
-1, ,197, ,
1, ,199, ,
0, ,198, ,
0, ,195, ,
1, ,197, ,
1, ,196, ,
-1, ,196, ,
3, ,196, ,
0, ,196, ,
0, ,195, ,
1, ,196, ,
1, ,196, ,
-1, ,196, ,
1, ,197, ,
0, ,197, ,
0, ,195, ,
1, ,197, ,
1, ,197, ,
-1, ,198, ,
3, ,197, ,
0, ,197, ,
-1, ,197, ,
1, ,199, ,
1, ,197, ,
0, ,197, ,
1, ,197, ,
0, ,196, ,
0, ,196, ,
1, ,197, ,
1, ,197, ,
-1, ,196, ,
3, ,196, ,
0, ,196, ,
0, ,196, ,
1, ,197, ,
1, ,196, ,
-1, ,196, ,
1, ,197, ,
0, ,196, ,
0, ,195, ,
1, ,197, ,
1, ,197, ,
0, ,197, ,
3, ,198, ,
0, ,196, ,
0, ,196, ,
3, ,198, ,
1, ,196, ,
-1, ,196, ,
1, ,197, ,
0, ,196, ,
0, ,195, ,
1, ,197, ,
0, ,198, ,
-1, ,198, ,
3, ,197, ,
0, ,196, ,
0, ,196, ,
1, ,197, ,
1, ,196, ,
-1, ,196, ,
1, ,198, ,
0, ,197, ,
0, ,196, ,
1, ,197, ,
1, ,197, ,
-1, ,197, ,
3, ,196, ,
0, ,195, ,
0, ,196, ,
1, ,197, ,
1, ,196, ,
-1, ,196, ,
1, ,197, ,
0, ,197, ,
0, ,196, ,
1, ,197, ,
0, ,197, ,
0, ,197, ,
3, ,198, ,
0, ,197, ,
-1, ,196, ,
1, ,197, ,
1, ,197, ,
-1, ,196, ,
1, ,196, ,
0, ,196, ,
0, ,195, ,
1, ,196, ,
0, ,196, ,
-1, ,198, ,
3, ,196, ,
0, ,197, ,
0, ,196, ,
3, ,198, ,
1, ,196, ,
-1, ,197, ,
1, ,199, ,
0, ,197, ,
0, ,195, ,
1, ,197, ,
0, ,196, ,
-1, ,197, ,
3, ,196, ,
0, ,197, ,
0, ,196, ,
3, ,196, ,
1, ,195, ,
-1, ,195, ,
1, ,198, ,
0, ,196, ,
0, ,196, ,
1, ,197, ,
0, ,196, ,
-1, ,196, ,
1, ,197, ,
0, ,197, ,
0, ,198, ,
1, ,196, ,
1, ,196, ,
-1, ,196, ,
3, ,197, ,
0, ,197, ,
0, ,196, ,
1, ,197, ,
1, ,197, ,
-1, ,196, ,
3, ,197, ,
0, ,196, ,
0, ,197, ,
1, ,197, ,
0, ,196, ,
-1, ,197, ,
1, ,197, ,
0, ,197, ,
0, ,195, ,
1, ,197, ,
1, ,196, ,
-1, ,196, ,
3, ,196, ,
0, ,196, ,
0, ,196, ,
1, ,198, ,
1, ,196, ,
-1, ,195, ,
1, ,198, ,
0, ,197, ,
0, ,196, ,
3, ,197, ,
0, ,197, ,
-1, ,197, ,
3, ,196, ,
0, ,196, ,
0, ,196, ,
1, ,197, ,
1, ,196, ,
-1, ,196, ,
1, ,197, ,
0, ,197, ,
0, ,195, ,
1, ,196, ,
0, ,197, ,
-1, ,197, ,
3, ,198, ,
0, ,197, ,
0, ,196, ,
3, ,197, ,
0, ,197, ,
-1, ,196, ,
1, ,199, ,
0, ,196, ,
0, ,196, ,
1, ,197, ,
0, ,196, ,
0, ,197, ,
1, ,197, ,
0, ,197, ,
0, ,196, ,
1, ,197, ,
1, ,196, ,
-1, ,197, ,
1, ,197, ,
0, ,197, ,
0, ,197, ,
1, ,198, ,
1, ,197, ,
0, ,197, ,
1, ,197, ,
0, ,196, ,
0, ,197, ,
1, ,197, ,
1, ,196, ,
-1, ,196, ,
1, ,198, ,
0, ,197, ,
0, ,196, ,
1, ,196, ,
1, ,196, ,
0, ,196, ,
3, ,197, ,
0, ,197, ,
0, ,196, ,
1, ,197, ,
1, ,196, ,
-1, ,196, ,
1, ,197, ,
0, ,197, ,
0, ,196, ,
1, ,196, ,
1, ,197, ,
-1, ,196, ,
3, ,197, ,
0, ,196, ,
0, ,196, ,
1, ,197, ,
1, ,196, ,
0, ,197, ,
3, ,197, ,
0, ,197, ,
0, ,196, ,
1, ,196, ,
0, ,196, ,
0, ,196, ,
3, ,197, ,
0, ,197, ,
0, ,197, ,
1, ,197, ,
1, ,197, ,
-1, ,196, ,
3, ,197, ,
0, ,197, ,
0, ,196, ,
1, ,196, ,
1, ,197, ,
-1, ,197, ,
3, ,196, ,
0, ,197, ,
0, ,196, ,
1, ,197, ,
1, ,196, ,
0, ,196, ,
3, ,198, ,
0, ,198, ,
0, ,196, ,
1, ,196, ,
1, ,196, ,
0, ,196, ,
3, ,197, ,
0, ,196, ,
0, ,197, ,
1, ,198, ,
1, ,197, ,
-1, ,196, ,
3, ,197, ,
0, ,197, ,
0, ,196, ,
1, ,197, ,
1, ,197, ,
-1, ,198, ,
3, ,197, ,
0, ,197, ,
0, ,196, ,
1, ,197, ,
1, ,196, ,
-1, ,196, ,
3, ,197, ,
0, ,197, ,
0, ,197, ,
1, ,197, ,
0, ,196, ,
-1, ,196, ,
3, ,198, ,
0, ,197, ,
0, ,197, ,
1, ,197, ,
1, ,196, ,
-1, ,196, ,
1, ,197, ,
0, ,197, ,
0, ,196, ,
1, ,197, ,
0, ,197, ,
-1, ,196, ,
3, ,196, ,
0, ,196, ,
0, ,195, ,
1, ,195, ,
1, ,193, ,
0, ,196, ,
3, ,199, ,
0, ,199, ,
0, ,198, ,
1, ,199, ,
1, ,195, ,
-1, ,195, ,
1, ,195, ,
0, ,195, ,
0, ,197, ,
1, ,197, ,
1, ,196, ,
0, ,197, ,
3, ,197, ,
0, ,197, ,
0, ,194, ,
1, ,197, ,
1, ,196, ,
-1, ,197, ,
3, ,196, ,
0, ,196, ,
0, ,196, ,
3, ,197, ,
1, ,196, ,
-1, ,196, ,
3, ,197, ,
0, ,196, ,
0, ,195, ,
1, ,197, ,
0, ,196, ,
0, ,196, ,
3, ,197, ,
0, ,196, ,
0, ,196, ,
1, ,198, ,
1, ,196, ,
-1, ,196, ,
3, ,196, ,
0, ,197, ,
0, ,195, ,
1, ,196, ,
0, ,196, ,
-1, ,197, ,
3, ,196, ,
0, ,196, ,
0, ,195, ,
1, ,197, ,
1, ,195, ,
-1, ,195, ,
3, ,197, ,
0, ,197, ,
0, ,195, ,
1, ,197, ,
1, ,196, ,
-1, ,196, ,
3, ,195, ,
0, ,196, ,
0, ,196, ,
1, ,197, ,
0, ,196, ,
-1, ,196, ,
3, ,197, ,
0, ,197, ,
0, ,196, ,
1, ,197, ,
0, ,197, ,
-1, ,196, ,
3, ,196, ,
0, ,196, ,
0, ,196, ,
3, ,196, ,
1, ,195, ,
-1, ,196, ,
3, ,197, ,
0, ,196, ,
0, ,195, ,
1, ,198, ,
0, ,197, ,
-1, ,196, ,
3, ,197, ,
0, ,196, ,
0, ,196, ,
1, ,199, ,
1, ,195, ,
-1, ,196, ,
3, ,196, ,
0, ,196, ,
0, ,196, ,
1, ,196, ,
1, ,196, ,
-1, ,196, ,
3, ,196, ,
0, ,196, ,
0, ,196, ,
3, ,197, ,
1, ,196, ,
-1, ,196, ,
1, ,197, ,
0, ,197, ,
0, ,195, ,
1, ,197, ,
1, ,196, ,
-1, ,197, ,
3, ,196, ,
0, ,196, ,
0, ,196, ,
3, ,199, ,
1, ,197, ,
-1, ,196, ,
3, ,198, ,
0, ,198, ,
0, ,196, ,
1, ,197, ,
0, ,195, ,
-1, ,197, ,
3, ,197, ,
0, ,196, ,
0, ,197, ,
1, ,199, ,
1, ,197, ,
0, ,196, ,
3, ,197, ,
0, ,197, ,
0, ,196, ,
1, ,198, ,
0, ,198, ,
-1, ,197, ,
3, ,197, ,
0, ,197, ,
0, ,197, ,
1, ,197, ,
1, ,195, ,
-1, ,197, ,
3, ,197, ,
0, ,197, ,
0, ,197, ,
0, ,197, ,
1, ,197, ,
-1, ,197, ,
3, ,197, ,
0, ,196, ,
0, ,196, ,
1, ,197, ,
1, ,197, ,
-1, ,197, ,
3, ,198, ,
0, ,197, ,
0, ,196, ,
1, ,198, ,
0, ,197, ,
-1, ,198, ,
3, ,197, ,
0, ,197, ,
0, ,198, ,
1, ,199, ,
1, ,196, ,
-1, ,196, ,
1, ,197, ,
0, ,197, ,
0, ,196, ,
1, ,197, ,
1, ,196, ,
-1, ,197, ,
3, ,198, ,
0, ,196, ,
0, ,197, ,
1, ,198, ,
1, ,196, ,
-1, ,197, ,
3, ,197, ,
0, ,197, ,
0, ,195, ,
1, ,197, ,
1, ,198, ,
-1, ,197, ,
3, ,197, ,
0, ,196, ,
0, ,197, ,
3, ,197, ,
1, ,196, ,
-1, ,196, ,
3, ,197, ,
0, ,197, ,
0, ,196, ,
1, ,197, ,
1, ,197, ,
-1, ,197, ,
3, ,197, ,
0, ,196, ,
0, ,196, ,
1, ,197, ,
1, ,196, ,
-1, ,196, ,
3, ,197, ,
0, ,197, ,
0, ,195, ,
1, ,198, ,
1, ,197, ,
-1, ,196, ,
3, ,196, ,
0, ,195, ,
0, ,195, ,
1, ,197, ,
1, ,197, ,
-1, ,198, ,
1, ,197, ,
0, ,197, ,
0, ,196, ,
1, ,197, ,
0, ,196, ,
-1, ,196, ,
3, ,197, ,
0, ,197, ,
0, ,197, ,
1, ,198, ,
0, ,197, ,
-1, ,197, ,
1, ,198, ,
0, ,196, ,
0, ,196, ,
1, ,197, ,
0, ,195, ,
-1, ,198, ,
3, ,196, ,
0, ,197, ,
0, ,197, ,
1, ,198, ,
1, ,197, ,
-1, ,196, ,
3, ,198, ,
0, ,197, ,
0, ,195, ,
1, ,197, ,
0, ,197, ,
-1, ,196, ,
3, ,196, ,
0, ,197, ,
0, ,196, ,
1, ,198, ,
1, ,196, ,
0, ,196, ,
3, ,197, ,
0, ,197, ,
0, ,197, ,
1, ,197, ,
1, ,197, ,
-1, ,196, ,
3, ,196, ,
0, ,197, ,
0, ,196, ,
1, ,197, ,
1, ,195, ,
0, ,196, ,
3, ,197, ,
0, ,197, ,
0, ,196, ,
1, ,197, ,
0, ,197, ,
0, ,197, ,
1, ,196, ,
0, ,197, ,
0, ,197, ,
1, ,197, ,
1, ,196, ,
0, ,196, ,
1, ,197, ,
0, ,197, ,
0, ,196, ,
1, ,199, ,
1, ,196, ,
-1, ,196, ,
3, ,197, ,
0, ,197, ,
0, ,197, ,
1, ,198, ,
1, ,196, ,
0, ,196, ,
1, ,197, ,
0, ,197, ,
0, ,196, ,
1, ,197, ,
1, ,197, ,
-1, ,196, ,
3, ,197, ,
0, ,196, ,
0, ,196, ,
3, ,197, ,
1, ,196, ,
-1, ,197, ,
3, ,197, ,
0, ,196, ,
0, ,196, ,
1, ,197, ,
0, ,197, ,
-1, ,196, ,
3, ,197, ,
0, ,195, ,
0, ,197, ,
1, ,197, ,
1, ,196, ,
0, ,196, ,
3, ,197, ,
0, ,198, ,
0, ,195, ,
1, ,197, ,
0, ,197, ,
-1, ,197, ,
3, ,196, ,
0, ,197, ,
0, ,196, ,
1, ,197, ,
0, ,196, ,
0, ,198, ,
1, ,197, ,
0, ,197, ,
0, ,195, ,
1, ,197, ,
0, ,196, ,
0, ,196, ,
3, ,197, ,
0, ,197, ,
0, ,197, ,
1, ,199, ,
1, ,197, ,
0, ,196, ,
3, ,198, ,
0, ,197, ,
0, ,195, ,
1, ,198, ,
0, ,196, ,
-1, ,197, ,
3, ,197, ,
0, ,197, ,
0, ,197, ,
1, ,197, ,
1, ,195, ,
0, ,196, ,
1, ,197, ,
0, ,196, ,
0, ,195, ,
1, ,197, ,
1, ,197, ,
-1, ,198, ,
3, ,197, ,
0, ,197, ,
0, ,197, ,
1, ,198, ,
1, ,195, ,
-1, ,197, ,
3, ,197, ,
0, ,197, ,
0, ,196, ,
1, ,197, ,
1, ,197, ,
-1, ,197, ,
3, ,197, ,
0, ,196, ,
0, ,196, ,
1, ,196, ,
1, ,196, ,
-1, ,196, ,
3, ,198, ,
0, ,197, ,
0, ,196, ,
1, ,197, ,
0, ,197, ,
0, ,197, ,
3, ,197, ,
0, ,196, ,
0, ,197, ,
1, ,197, ,
1, ,197, ,
-1, ,196, ,
1, ,197, ,
0, ,197, ,
0, ,196, ,
1, ,197, ,
1, ,197, ,
-1, ,196, ,
3, ,197, ,
0, ,197, ,
0, ,196, ,
1, ,197, ,
1, ,196, ,
0, ,197, ,
1, ,197, ,
0, ,198, ,
0, ,196, ,
0, ,197, ,
1, ,197, ,
-1, ,197, ,
1, ,197, ,
0, ,197, ,
0, ,196, ,
1, ,197, ,
1, ,196, ,
-1, ,195, ,
3, ,198, ,
0, ,197, ,
0, ,196, ,
1, ,198, ,
1, ,197, ,
-1, ,196, ,
3, ,197, ,
0, ,195, ,
0, ,196, ,
3, ,197, ,
1, ,197, ,
0, ,196, ,
3, ,198, ,
0, ,197, ,
0, ,195, ,
1, ,196, ,
1, ,196, ,
-1, ,197, ,
3, ,196, ,
0, ,197, ,
0, ,196, ,
1, ,199, ,
1, ,197, ,
-1, ,195, ,
1, ,197, ,
0, ,198, ,
0, ,197, ,
0, ,197, ,
0, ,197, ,
0, ,196, ,
3, ,197, ,
0, ,197, ,
0, ,197, ,
1, ,197, ,
1, ,196, ,
0, ,195, ,
1, ,197, ,
0, ,199, ,
0, ,196, ,
1, ,197, ,
0, ,196, ,
-1, ,196, ,
3, ,197, ,
0, ,197, ,
0, ,196, ,
1, ,198, ,
1, ,197, ,
0, ,196, ,
3, ,197, ,
0, ,196, ,
0, ,195, ,
1, ,197, ,
0, ,197, ,
0, ,198, ,
3, ,196, ,
0, ,197, ,
0, ,196, ,
3, ,198, ,
1, ,196, ,
0, ,196, ,
1, ,197, ,
0, ,197, ,
0, ,195, ,
1, ,197, ,
1, ,196, ,
-1, ,197, ,
1, ,197, ,
0, ,196, ,
0, ,197, ,
1, ,198, ,
1, ,197, ,
0, ,196, ,
3, ,197, ,
0, ,197, ,
0, ,196, ,
1, ,197, ,
1, ,197, ,
0, ,196, ,
3, ,196, ,
0, ,196, ,
0, ,197, ,
1, ,197, ,
1, ,196, ,
0, ,196, ,
1, ,197, ,
0, ,197, ,
0, ,195, ,
1, ,197, ,
1, ,196, ,
0, ,196, ,
3, ,196, ,
0, ,197, ,
0, ,196, ,
1, ,197, ,
1, ,196, ,
-1, ,198, ,
1, ,198, ,
0, ,197, ,
0, ,195, ,
1, ,197, ,
1, ,197, ,
0, ,196, ,
3, ,197, ,
0, ,196, ,
0, ,196, ,
1, ,197, ,
1, ,195, ,
-1, ,197, ,
1, ,197, ,
0, ,197, ,
0, ,196, ,
1, ,197, ,
0, ,197, ,
-1, ,196, ,
3, ,196, ,
0, ,196, ,
0, ,198, ,
1, ,198, ,
1, ,196, ,
-1, ,196, ,
3, ,197, ,
0, ,197, ,
0, ,196, ,
1, ,196, ,
1, ,197, ,
-1, ,196, ,
3, ,197, ,
0, ,197, ,
0, ,196, ,
1, ,197, ,
1, ,196, ,
0, ,196, ,
3, ,197, ,
0, ,197, ,
0, ,195, ,
1, ,198, ,
1, ,197, ,
-1, ,196, ,
1, ,196, ,
0, ,197, ,
0, ,197, ,
1, ,198, ,
1, ,196, ,
0, ,197, ,
3, ,197, ,
0, ,197, ,
0, ,195, ,
1, ,197, ,
1, ,196, ,
-1, ,197, ,
3, ,196, ,
0, ,196, ,
0, ,196, ,
1, ,197, ,
0, ,196, ,
-1, ,195, ,
1, ,198, ,
0, ,197, ,
0, ,196, ,
1, ,197, ,
0, ,196, ,
-1, ,196, ,
3, ,196, ,
0, ,196, ,
0, ,196, ,
1, ,197, ,
0, ,196, ,
-1, ,196, ,
1, ,198, ,
0, ,197, ,
0, ,196, ,
1, ,197, ,
1, ,196, ,
0, ,196, ,
3, ,197, ,
0, ,196, ,
0, ,197, ,
1, ,198, ,
1, ,196, ,
0, ,196, ,
1, ,198, ,
0, ,197, ,
0, ,196, ,
1, ,197, ,
1, ,197, ,
-1, ,197, ,
1, ,197, ,
0, ,197, ,
0, ,197, ,
1, ,197, ,
1, ,197, ,
-1, ,197, ,
3, ,199, ,
0, ,197, ,
0, ,196, ,
1, ,198, ,
0, ,196, ,
0, ,198, ,
3, ,196, ,
0, ,196, ,
0, ,196, ,
1, ,198, ,
1, ,196, ,
0, ,196, ,
3, ,199, ,
0, ,197, ,
0, ,195, ,
1, ,197, ,
1, ,196, ,
0, ,196, ,
1, ,197, ,
0, ,197, ,
0, ,197, ,
1, ,199, ,
1, ,195, ,
0, ,196, ,
1, ,197, ,
0, ,197, ,
0, ,195, ,
1, ,197, ,
1, ,195, ,
0, ,196, ,
1, ,195, ,
0, ,197, ,
0, ,196, ,
1, ,197, ,
1, ,197, ,
0, ,196, ,
1, ,198, ,
0, ,197, ,
0, ,197, ,
1, ,196, ,
1, ,196, ,
0, ,197, ,
3, ,197, ,
0, ,197, ,
0, ,196, ,
1, ,198, ,
1, ,196, ,
0, ,196, ,
3, ,197, ,
0, ,196, ,
0, ,194, ,
0, ,195, ,
0, ,196, ,
0, ,198, ,
1, ,198, ,
0, ,197, ,
0, ,196, ,
1, ,198, ,
1, ,196, ,
-1, ,196, ,
1, ,197, ,
0, ,197, ,
0, ,196, ,
1, ,198, ,
1, ,197, ,
-1, ,197, ,
3, ,197, ,
0, ,196, ,
0, ,196, ,
1, ,197, ,
1, ,196, ,
0, ,197, ,
3, ,198, ,
0, ,197, ,
0, ,196, ,
1, ,197, ,
1, ,197, ,
-1, ,196, ,
1, ,197, ,
0, ,197, ,
0, ,196, ,
1, ,197, ,
1, ,197, ,
-1, ,197, ,
3, ,198, ,
0, ,197, ,
0, ,195, ,
1, ,198, ,
1, ,196, ,
-1, ,196, ,
3, ,197, ,
0, ,196, ,
0, ,197, ,
1, ,197, ,
1, ,196, ,
0, ,195, ,
1, ,197, ,
0, ,197, ,
0, ,196, ,
1, ,197, ,
1, ,196, ,
0, ,196, ,
1, ,196, ,
0, ,196, ,
0, ,196, ,
1, ,197, ,
1, ,196, ,
-1, ,196, ,
1, ,198, ,
0, ,197, ,
0, ,196, ,
1, ,197, ,
0, ,196, ,
-1, ,196, ,
3, ,197, ,
0, ,196, ,
0, ,195, ,
1, ,198, ,
0, ,196, ,
0, ,196, ,
3, ,197, ,
0, ,197, ,
0, ,195, ,
1, ,197, ,
1, ,196, ,
-1, ,196, ,
3, ,196, ,
0, ,197, ,
0, ,196, ,
1, ,198, ,
1, ,196, ,
0, ,196, ,
1, ,198, ,
0, ,197, ,
0, ,196, ,
1, ,197, ,
1, ,196, ,
0, ,197, ,
1, ,196, ,
0, ,197, ,
0, ,196, ,
3, ,198, ,
1, ,196, ,
-1, ,196, ,
3, ,197, ,
0, ,197, ,
0, ,195, ,
1, ,197, ,
1, ,197, ,
-1, ,196, ,
3, ,197, ,
0, ,197, ,
0, ,197, ,
1, ,197, ,
1, ,197, ,
0, ,197, ,
3, ,198, ,
0, ,197, ,
0, ,196, ,
1, ,197, ,
1, ,197, ,
0, ,196, ,
3, ,196, ,
0, ,197, ,
0, ,196, ,
1, ,197, ,
0, ,195, ,
0, ,196, ,
1, ,197, ,
0, ,197, ,
0, ,195, ,
1, ,197, ,
0, ,197, ,
-1, ,196, ,
3, ,196, ,
0, ,196, ,
0, ,197, ,
1, ,198, ,
1, ,195, ,
0, ,196, ,
3, ,199, ,
0, ,197, ,
0, ,196, ,
1, ,199, ,
1, ,197, ,
0, ,196, ,
1, ,197, ,
