src/vary_led_1562/temp0000187.CSV

Format,1.0B,
Memory Length,10000,Memory Length,10000,
IntpDistance,0,IntpDistance,0,
Trigger Address,5159,Trigger Address,5159,
Trigger Level,3.000E-01,Trigger Level,3.000E-01,
Source,CH1,Source,CH2,
Vertical Units,V,Vertical Units,V,
Vertical Units Div,0,Vertical Units Div,0,
Vertical Units Extend Div,16,Vertical Units Extend Div,16,
Label,,Label,,
Probe Type,0,Probe Type,0,
Probe Ratio,1.000e+01,Probe Ratio,1.000e+00,
Vertical Scale,5.000e-01,Vertical Scale,2.000e-01,
Vertical Position,-1.780e+00,Vertical Position,-2.240e+00,
Horizontal Units,S,Horizontal Units,S,
Horizontal Scale,2.000E-05,Horizontal Scale,2.000E-05,
Horizontal Position,-3.200E-06,Horizontal Position,-3.200E-06,
Horizontal Mode,Main,Horizontal Mode,Main,
SincET Mode,Real Time,SincET Mode,Real Time,
Sampling Period,2.000e-08,Sampling Period,2.000e-08,
Horizontal Old Scale,2.000E-05,Horizontal Old Scale,2.000E-05,
Horizontal Old Position,-3.200E-06,Horizontal Old Position,-3.200E-06,
Firmware,V1.23,Firmware,V1.23,
Mode,Fast,Mode,Fast,
Waveform Data,,Waveform Data,,
1, ,193, ,
0, ,193, ,
0, ,194, ,
1, ,193, ,
1, ,193, ,
0, ,193, ,
1, ,192, ,
1, ,192, ,
1, ,192, ,
1, ,192, ,
1, ,193, ,
0, ,194, ,
1, ,194, ,
1, ,192, ,
1, ,193, ,
1, ,192, ,
1, ,192, ,
0, ,193, ,
1, ,193, ,
0, ,193, ,
1, ,194, ,
1, ,193, ,
1, ,193, ,
0, ,195, ,
1, ,193, ,
1, ,191, ,
1, ,193, ,
1, ,191, ,
1, ,193, ,
0, ,192, ,
1, ,193, ,
1, ,191, ,
1, ,193, ,
1, ,191, ,
1, ,191, ,
0, ,194, ,
3, ,192, ,
1, ,192, ,
0, ,194, ,
1, ,193, ,
1, ,191, ,
0, ,194, ,
1, ,192, ,
1, ,193, ,
1, ,194, ,
1, ,192, ,
1, ,192, ,
0, ,193, ,
1, ,194, ,
1, ,193, ,
1, ,193, ,
1, ,193, ,
1, ,193, ,
0, ,193, ,
3, ,192, ,
0, ,193, ,
1, ,193, ,
1, ,192, ,
1, ,192, ,
0, ,193, ,
1, ,193, ,
0, ,192, ,
0, ,194, ,
1, ,192, ,
1, ,193, ,
0, ,194, ,
1, ,192, ,
0, ,193, ,
0, ,194, ,
1, ,192, ,
1, ,193, ,
0, ,194, ,
1, ,193, ,
0, ,193, ,
0, ,193, ,
1, ,193, ,
1, ,193, ,
0, ,193, ,
1, ,193, ,
0, ,193, ,
1, ,193, ,
1, ,192, ,
1, ,193, ,
0, ,193, ,
1, ,194, ,
0, ,193, ,
1, ,192, ,
1, ,192, ,
1, ,193, ,
0, ,193, ,
1, ,192, ,
0, ,193, ,
1, ,193, ,
1, ,192, ,
1, ,193, ,
0, ,194, ,
1, ,193, ,
0, ,193, ,
0, ,194, ,
1, ,192, ,
1, ,194, ,
0, ,193, ,
1, ,192, ,
0, ,191, ,
1, ,193, ,
1, ,193, ,
1, ,191, ,
0, ,193, ,
3, ,194, ,
1, ,191, ,
0, ,193, ,
1, ,192, ,
1, ,192, ,
0, ,193, ,
1, ,192, ,
0, ,194, ,
1, ,193, ,
1, ,193, ,
1, ,192, ,
0, ,193, ,
1, ,193, ,
0, ,191, ,
1, ,193, ,
1, ,193, ,
1, ,193, ,
0, ,193, ,
1, ,192, ,
1, ,192, ,
1, ,192, ,
3, ,192, ,
1, ,192, ,
0, ,195, ,
1, ,192, ,
0, ,192, ,
1, ,194, ,
1, ,193, ,
1, ,193, ,
0, ,192, ,
1, ,192, ,
1, ,193, ,
0, ,194, ,
1, ,193, ,
1, ,193, ,
0, ,193, ,
1, ,192, ,
0, ,191, ,
1, ,190, ,
1, ,190, ,
1, ,190, ,
0, ,192, ,
1, ,194, ,
1, ,195, ,
0, ,197, ,
1, ,194, ,
1, ,193, ,
0, ,192, ,
1, ,192, ,
1, ,191, ,
1, ,192, ,
1, ,193, ,
1, ,193, ,
0, ,193, ,
1, ,193, ,
0, ,192, ,
1, ,194, ,
1, ,192, ,
1, ,191, ,
0, ,193, ,
1, ,192, ,
0, ,192, ,
1, ,192, ,
1, ,191, ,
1, ,192, ,
0, ,194, ,
1, ,193, ,
0, ,191, ,
0, ,192, ,
1, ,191, ,
1, ,192, ,
0, ,194, ,
1, ,193, ,
0, ,192, ,
1, ,194, ,
1, ,192, ,
1, ,191, ,
-1, ,193, ,
1, ,192, ,
0, ,192, ,
1, ,194, ,
1, ,192, ,
1, ,193, ,
0, ,194, ,
1, ,192, ,
0, ,192, ,
0, ,192, ,
1, ,192, ,
1, ,193, ,
0, ,193, ,
1, ,192, ,
1, ,192, ,
0, ,192, ,
1, ,192, ,
1, ,191, ,
0, ,193, ,
1, ,193, ,
0, ,193, ,
1, ,193, ,
1, ,192, ,
1, ,192, ,
0, ,192, ,
1, ,192, ,
1, ,192, ,
1, ,193, ,
1, ,192, ,
1, ,192, ,
0, ,194, ,
1, ,192, ,
0, ,191, ,
1, ,192, ,
1, ,193, ,
1, ,191, ,
0, ,192, ,
1, ,192, ,
1, ,192, ,
1, ,192, ,
1, ,192, ,
1, ,192, ,
0, ,193, ,
1, ,192, ,
1, ,192, ,
1, ,193, ,
1, ,192, ,
1, ,192, ,
0, ,193, ,
1, ,192, ,
0, ,191, ,
1, ,194, ,
1, ,193, ,
1, ,191, ,
0, ,193, ,
3, ,194, ,
0, ,192, ,
0, ,192, ,
1, ,192, ,
1, ,191, ,
0, ,193, ,
1, ,192, ,
1, ,193, ,
1, ,192, ,
1, ,192, ,
1, ,193, ,
0, ,193, ,
1, ,194, ,
0, ,193, ,
1, ,194, ,
3, ,192, ,
1, ,192, ,
-1, ,192, ,
1, ,192, ,
1, ,193, ,
0, ,194, ,
1, ,193, ,
1, ,193, ,
0, ,195, ,
3, ,193, ,
0, ,192, ,
1, ,193, ,
1, ,193, ,
1, ,193, ,
0, ,192, ,
1, ,193, ,
0, ,193, ,
0, ,193, ,
1, ,191, ,
1, ,193, ,
0, ,195, ,
1, ,193, ,
0, ,193, ,
1, ,194, ,
1, ,192, ,
1, ,193, ,
0, ,194, ,
1, ,192, ,
0, ,193, ,
0, ,194, ,
0, ,192, ,
1, ,193, ,
0, ,194, ,
1, ,193, ,
0, ,192, ,
1, ,192, ,
1, ,193, ,
1, ,193, ,
0, ,193, ,
1, ,194, ,
1, ,193, ,
1, ,193, ,
1, ,193, ,
1, ,193, ,
0, ,194, ,
3, ,194, ,
1, ,192, ,
1, ,193, ,
1, ,192, ,
1, ,193, ,
-1, ,194, ,
1, ,193, ,
0, ,193, ,
1, ,194, ,
1, ,193, ,
1, ,192, ,
0, ,194, ,
1, ,193, ,
0, ,193, ,
0, ,194, ,
1, ,192, ,
1, ,192, ,
0, ,194, ,
1, ,193, ,
0, ,191, ,
1, ,193, ,
1, ,192, ,
1, ,191, ,
0, ,193, ,
3, ,193, ,
0, ,193, ,
0, ,194, ,
1, ,192, ,
1, ,193, ,
0, ,194, ,
1, ,192, ,
0, ,193, ,
0, ,194, ,
1, ,192, ,
1, ,192, ,
0, ,194, ,
1, ,193, ,
0, ,193, ,
0, ,194, ,
1, ,192, ,
1, ,193, ,
0, ,193, ,
1, ,193, ,
0, ,193, ,
0, ,193, ,
1, ,192, ,
1, ,193, ,
0, ,195, ,
1, ,193, ,
1, ,192, ,
0, ,194, ,
1, ,193, ,
1, ,193, ,
0, ,194, ,
3, ,194, ,
0, ,193, ,
1, ,195, ,
1, ,192, ,
1, ,192, ,
0, ,193, ,
1, ,193, ,
1, ,192, ,
0, ,193, ,
1, ,193, ,
1, ,192, ,
0, ,194, ,
1, ,193, ,
1, ,192, ,
1, ,192, ,
1, ,192, ,
1, ,191, ,
0, ,194, ,
3, ,193, ,
0, ,192, ,
1, ,193, ,
1, ,192, ,
1, ,192, ,
0, ,194, ,
1, ,192, ,
0, ,193, ,
0, ,195, ,
1, ,193, ,
1, ,192, ,
0, ,194, ,
1, ,193, ,
0, ,192, ,
0, ,193, ,
1, ,192, ,
1, ,192, ,
0, ,194, ,
1, ,192, ,
1, ,192, ,
0, ,194, ,
1, ,192, ,
1, ,193, ,
0, ,194, ,
1, ,193, ,
1, ,193, ,
1, ,194, ,
1, ,192, ,
1, ,193, ,
-1, ,193, ,
1, ,193, ,
1, ,193, ,
1, ,195, ,
1, ,192, ,
1, ,192, ,
0, ,194, ,
3, ,193, ,
1, ,193, ,
1, ,193, ,
1, ,192, ,
1, ,192, ,
0, ,192, ,
1, ,192, ,
0, ,194, ,
1, ,194, ,
1, ,191, ,
1, ,192, ,
0, ,194, ,
3, ,193, ,
1, ,193, ,
0, ,194, ,
1, ,192, ,
1, ,192, ,
0, ,193, ,
1, ,192, ,
1, ,193, ,
1, ,193, ,
1, ,193, ,
1, ,193, ,
0, ,194, ,
1, ,194, ,
0, ,192, ,
1, ,194, ,
1, ,192, ,
1, ,191, ,
0, ,192, ,
1, ,194, ,
1, ,193, ,
0, ,194, ,
1, ,193, ,
1, ,192, ,
0, ,194, ,
3, ,191, ,
1, ,191, ,
1, ,194, ,
1, ,192, ,
1, ,193, ,
0, ,194, ,
1, ,193, ,
0, ,192, ,
1, ,194, ,
1, ,192, ,
1, ,192, ,
0, ,194, ,
1, ,193, ,
0, ,193, ,
0, ,194, ,
1, ,193, ,
1, ,193, ,
0, ,194, ,
1, ,192, ,
1, ,193, ,
0, ,194, ,
1, ,193, ,
1, ,193, ,
0, ,193, ,
1, ,193, ,
0, ,192, ,
1, ,194, ,
1, ,192, ,
1, ,193, ,
0, ,192, ,
1, ,193, ,
0, ,193, ,
0, ,194, ,
1, ,192, ,
1, ,193, ,
0, ,194, ,
1, ,193, ,
0, ,192, ,
0, ,194, ,
3, ,193, ,
1, ,193, ,
0, ,193, ,
1, ,192, ,
0, ,192, ,
1, ,193, ,
1, ,193, ,
1, ,193, ,
0, ,193, ,
3, ,194, ,
0, ,191, ,
0, ,194, ,
1, ,192, ,
1, ,192, ,
0, ,192, ,
1, ,193, ,
0, ,192, ,
0, ,194, ,
1, ,192, ,
1, ,193, ,
0, ,194, ,
3, ,193, ,
0, ,193, ,
1, ,192, ,
1, ,193, ,
1, ,193, ,
0, ,193, ,
1, ,194, ,
1, ,192, ,
1, ,193, ,
1, ,192, ,
1, ,193, ,
0, ,194, ,
1, ,192, ,
1, ,192, ,
1, ,193, ,
1, ,193, ,
1, ,193, ,
0, ,192, ,
1, ,193, ,
1, ,193, ,
1, ,194, ,
1, ,193, ,
1, ,191, ,
0, ,194, ,
1, ,193, ,
1, ,193, ,
1, ,193, ,
1, ,193, ,
1, ,192, ,
0, ,193, ,
1, ,193, ,
1, ,192, ,
1, ,194, ,
1, ,192, ,
1, ,193, ,
0, ,193, ,
1, ,193, ,
0, ,193, ,
1, ,194, ,
1, ,193, ,
1, ,192, ,
0, ,193, ,
1, ,193, ,
1, ,193, ,
1, ,194, ,
1, ,192, ,
1, ,194, ,
0, ,195, ,
1, ,194, ,
0, ,192, ,
1, ,193, ,
1, ,193, ,
1, ,192, ,
0, ,193, ,
1, ,192, ,
1, ,193, ,
0, ,194, ,
1, ,191, ,
1, ,193, ,
0, ,192, ,
1, ,193, ,
1, ,192, ,
1, ,192, ,
1, ,193, ,
1, ,192, ,
0, ,193, ,
1, ,192, ,
1, ,192, ,
1, ,194, ,
1, ,193, ,
1, ,193, ,
0, ,194, ,
1, ,194, ,
0, ,191, ,
1, ,194, ,
1, ,193, ,
1, ,193, ,
0, ,193, ,
1, ,193, ,
0, ,191, ,
1, ,193, ,
1, ,193, ,
1, ,192, ,
0, ,193, ,
1, ,193, ,
0, ,191, ,
0, ,194, ,
1, ,192, ,
1, ,193, ,
0, ,193, ,
1, ,192, ,
0, ,193, ,
0, ,193, ,
1, ,192, ,
1, ,193, ,
0, ,193, ,
1, ,193, ,
0, ,193, ,
0, ,194, ,
1, ,193, ,
1, ,193, ,
0, ,193, ,
1, ,192, ,
0, ,192, ,
1, ,195, ,
1, ,192, ,
1, ,192, ,
0, ,193, ,
1, ,193, ,
0, ,192, ,
0, ,193, ,
9, ,193, ,
109, ,192, ,
69, ,192, ,
39, ,193, ,
23, ,192, ,
18, ,194, ,
15, ,193, ,
9, ,193, ,
5, ,193, ,
6, ,193, ,
4, ,192, ,
3, ,193, ,
4, ,193, ,
4, ,192, ,
3, ,193, ,
4, ,192, ,
3, ,193, ,
3, ,194, ,
4, ,193, ,
4, ,193, ,
3, ,193, ,
4, ,193, ,
3, ,192, ,
3, ,192, ,
4, ,192, ,
4, ,193, ,
1, ,193, ,
4, ,193, ,
3, ,193, ,
3, ,193, ,
4, ,192, ,
4, ,192, ,
3, ,193, ,
4, ,192, ,
3, ,191, ,
3, ,193, ,
4, ,193, ,
4, ,193, ,
1, ,193, ,
5, ,192, ,
3, ,191, ,
3, ,193, ,
4, ,193, ,
4, ,193, ,
3, ,193, ,
4, ,193, ,
3, ,191, ,
3, ,194, ,
4, ,193, ,
4, ,193, ,
1, ,192, ,
4, ,192, ,
3, ,193, ,
3, ,192, ,
3, ,191, ,
4, ,193, ,
3, ,193, ,
4, ,193, ,
1, ,191, ,
3, ,194, ,
4, ,193, ,
3, ,193, ,
3, ,193, ,
4, ,183, ,
1, ,191, ,
3, ,200, ,
3, ,197, ,
4, ,191, ,
1, ,192, ,
4, ,193, ,
3, ,192, ,
4, ,192, ,
4, ,191, ,
4, ,193, ,
3, ,193, ,
4, ,191, ,
3, ,191, ,
3, ,195, ,
4, ,193, ,
4, ,191, ,
1, ,193, ,
4, ,192, ,
3, ,192, ,
3, ,193, ,
3, ,193, ,
4, ,193, ,
1, ,192, ,
4, ,193, ,
3, ,192, ,
3, ,193, ,
3, ,191, ,
3, ,192, ,
3, ,194, ,
4, ,192, ,
1, ,192, ,
3, ,193, ,
3, ,193, ,
3, ,192, ,
1, ,192, ,
4, ,193, ,
3, ,193, ,
3, ,193, ,
3, ,193, ,
4, ,192, ,
3, ,193, ,
4, ,192, ,
3, ,192, ,
3, ,193, ,
3, ,193, ,
3, ,193, ,
3, ,193, ,
4, ,192, ,
3, ,192, ,
3, ,193, ,
3, ,193, ,
3, ,192, ,
1, ,194, ,
4, ,193, ,
3, ,192, ,
3, ,193, ,
3, ,193, ,
3, ,193, ,
1, ,192, ,
4, ,192, ,
1, ,191, ,
3, ,194, ,
3, ,193, ,
3, ,193, ,
1, ,194, ,
4, ,193, ,
3, ,193, ,
3, ,194, ,
3, ,193, ,
3, ,192, ,
1, ,193, ,
3, ,193, ,
1, ,191, ,
3, ,194, ,
4, ,192, ,
3, ,193, ,
1, ,194, ,
4, ,193, ,
1, ,193, ,
3, ,192, ,
3, ,192, ,
3, ,192, ,
1, ,192, ,
3, ,191, ,
1, ,192, ,
3, ,193, ,
3, ,192, ,
3, ,193, ,
1, ,193, ,
4, ,193, ,
1, ,191, ,
3, ,192, ,
3, ,192, ,
3, ,192, ,
1, ,192, ,
4, ,191, ,
3, ,193, ,
3, ,193, ,
3, ,193, ,
3, ,192, ,
1, ,195, ,
4, ,192, ,
1, ,193, ,
3, ,194, ,
3, ,193, ,
3, ,193, ,
1, ,194, ,
4, ,192, ,
3, ,192, ,
3, ,194, ,
3, ,193, ,
3, ,192, ,
1, ,193, ,
3, ,192, ,
3, ,192, ,
3, ,192, ,
3, ,192, ,
3, ,193, ,
1, ,193, ,
4, ,193, ,
1, ,192, ,
1, ,193, ,
3, ,193, ,
3, ,193, ,
1, ,194, ,
4, ,192, ,
1, ,191, ,
3, ,193, ,
3, ,193, ,
3, ,192, ,
1, ,194, ,
3, ,192, ,
3, ,191, ,
3, ,192, ,
3, ,191, ,
3, ,192, ,
1, ,193, ,
3, ,192, ,
1, ,193, ,
1, ,194, ,
1, ,192, ,
3, ,192, ,
1, ,194, ,
3, ,192, ,
3, ,193, ,
3, ,193, ,
3, ,192, ,
3, ,192, ,
1, ,194, ,
3, ,192, ,
1, ,192, ,
1, ,192, ,
3, ,192, ,
3, ,192, ,
1, ,193, ,
3, ,193, ,
1, ,192, ,
1, ,194, ,
3, ,191, ,
3, ,192, ,
1, ,194, ,
3, ,193, ,
1, ,191, ,
1, ,192, ,
3, ,192, ,
3, ,192, ,
1, ,193, ,
3, ,193, ,
1, ,192, ,
3, ,192, ,
3, ,193, ,
3, ,193, ,
1, ,194, ,
4, ,193, ,
1, ,192, ,
3, ,193, ,
3, ,193, ,
3, ,193, ,
1, ,194, ,
3, ,193, ,
1, ,193, ,
1, ,193, ,
3, ,191, ,
3, ,192, ,
1, ,193, ,
3, ,192, ,
1, ,191, ,
3, ,193, ,
3, ,193, ,
3, ,192, ,
1, ,194, ,
3, ,193, ,
1, ,192, ,
3, ,192, ,
3, ,190, ,
3, ,192, ,
1, ,195, ,
3, ,193, ,
3, ,192, ,
3, ,193, ,
3, ,192, ,
3, ,193, ,
1, ,192, ,
3, ,191, ,
1, ,191, ,
1, ,193, ,
3, ,192, ,
3, ,192, ,
1, ,194, ,
3, ,193, ,
1, ,191, ,
3, ,193, ,
3, ,193, ,
3, ,192, ,
1, ,194, ,
3, ,192, ,
1, ,192, ,
3, ,193, ,
3, ,191, ,
3, ,192, ,
1, ,190, ,
3, ,192, ,
1, ,195, ,
3, ,195, ,
3, ,192, ,
3, ,191, ,
1, ,193, ,
3, ,193, ,
1, ,191, ,
3, ,192, ,
3, ,193, ,
3, ,191, ,
1, ,192, ,
3, ,192, ,
1, ,192, ,
3, ,194, ,
3, ,193, ,
3, ,193, ,
1, ,193, ,
3, ,192, ,
1, ,192, ,
1, ,193, ,
3, ,192, ,
3, ,193, ,
1, ,194, ,
3, ,193, ,
1, ,193, ,
3, ,194, ,
3, ,192, ,
3, ,192, ,
1, ,192, ,
3, ,193, ,
1, ,192, ,
3, ,193, ,
3, ,193, ,
3, ,192, ,
1, ,193, ,
3, ,192, ,
1, ,191, ,
3, ,194, ,
3, ,193, ,
1, ,193, ,
1, ,193, ,
3, ,192, ,
1, ,192, ,
1, ,194, ,
1, ,193, ,
3, ,192, ,
1, ,193, ,
3, ,193, ,
1, ,193, ,
3, ,192, ,
3, ,193, ,
3, ,192, ,
1, ,193, ,
3, ,193, ,
1, ,192, ,
1, ,193, ,
3, ,193, ,
1, ,192, ,
1, ,194, ,
3, ,193, ,
1, ,192, ,
1, ,193, ,
3, ,192, ,
1, ,192, ,
1, ,193, ,
3, ,193, ,
1, ,191, ,
1, ,193, ,
3, ,192, ,
3, ,191, ,
1, ,195, ,
3, ,193, ,
1, ,192, ,
1, ,192, ,
1, ,192, ,
1, ,192, ,
0, ,193, ,
3, ,192, ,
1, ,193, ,
1, ,193, ,
1, ,192, ,
3, ,192, ,
0, ,194, ,
3, ,193, ,
1, ,192, ,
1, ,193, ,
3, ,193, ,
3, ,192, ,
0, ,192, ,
3, ,193, ,
1, ,192, ,
1, ,192, ,
3, ,191, ,
1, ,193, ,
0, ,194, ,
3, ,193, ,
1, ,191, ,
1, ,192, ,
3, ,193, ,
1, ,193, ,
1, ,194, ,
3, ,192, ,
1, ,192, ,
1, ,194, ,
1, ,192, ,
1, ,192, ,
1, ,194, ,
3, ,193, ,
1, ,191, ,
1, ,193, ,
3, ,192, ,
3, ,192, ,
1, ,193, ,
3, ,192, ,
1, ,191, ,
1, ,194, ,
3, ,193, ,
1, ,192, ,
1, ,195, ,
3, ,193, ,
1, ,192, ,
1, ,193, ,
3, ,192, ,
1, ,192, ,
0, ,193, ,
3, ,193, ,
1, ,192, ,
1, ,194, ,
3, ,192, ,
1, ,193, ,
1, ,194, ,
3, ,192, ,
1, ,191, ,
1, ,194, ,
3, ,193, ,
3, ,193, ,
0, ,194, ,
3, ,192, ,
1, ,192, ,
1, ,194, ,
3, ,192, ,
1, ,192, ,
1, ,194, ,
3, ,193, ,
1, ,192, ,
1, ,192, ,
3, ,192, ,
1, ,192, ,
0, ,194, ,
3, ,193, ,
1, ,193, ,
1, ,194, ,
3, ,193, ,
1, ,193, ,
1, ,194, ,
3, ,193, ,
1, ,192, ,
3, ,193, ,
3, ,193, ,
1, ,192, ,
1, ,193, ,
3, ,192, ,
1, ,191, ,
1, ,193, ,
3, ,192, ,
1, ,193, ,
1, ,194, ,
3, ,193, ,
1, ,192, ,
1, ,192, ,
3, ,193, ,
1, ,192, ,
0, ,194, ,
3, ,192, ,
1, ,192, ,
1, ,192, ,
3, ,192, ,
3, ,191, ,
1, ,193, ,
3, ,193, ,
1, ,191, ,
1, ,192, ,
3, ,193, ,
3, ,192, ,
0, ,194, ,
1, ,193, ,
1, ,193, ,
1, ,193, ,
1, ,192, ,
1, ,193, ,
0, ,194, ,
3, ,192, ,
1, ,191, ,
1, ,193, ,
1, ,193, ,
1, ,192, ,
0, ,193, ,
3, ,192, ,
1, ,193, ,
1, ,194, ,
1, ,193, ,
3, ,192, ,
0, ,194, ,
3, ,192, ,
1, ,192, ,
1, ,193, ,
1, ,193, ,
3, ,193, ,
0, ,193, ,
3, ,192, ,
1, ,191, ,
1, ,193, ,
1, ,191, ,
3, ,192, ,
0, ,193, ,
3, ,193, ,
1, ,192, ,
1, ,192, ,
1, ,193, ,
3, ,193, ,
0, ,192, ,
3, ,192, ,
1, ,193, ,
1, ,194, ,
1, ,193, ,
3, ,192, ,
0, ,194, ,
3, ,193, ,
1, ,191, ,
1, ,194, ,
1, ,193, ,
1, ,193, ,
0, ,194, ,
3, ,192, ,
1, ,192, ,
97, ,193, ,
66, ,191, ,
46, ,191, ,
29, ,194, ,
19, ,193, ,
11, ,192, ,
8, ,192, ,
8, ,192, ,
6, ,193, ,
4, ,193, ,
4, ,193, ,
3, ,193, ,
4, ,193, ,
4, ,192, ,
3, ,193, ,
3, ,194, ,
5, ,192, ,
3, ,192, ,
3, ,193, ,
4, ,193, ,
4, ,193, ,
1, ,193, ,
4, ,192, ,
3, ,191, ,
3, ,190, ,
4, ,190, ,
4, ,192, ,
1, ,196, ,
4, ,195, ,
3, ,194, ,
3, ,194, ,
4, ,192, ,
4, ,191, ,
3, ,192, ,
4, ,192, ,
3, ,192, ,
3, ,193, ,
4, ,191, ,
4, ,193, ,
1, ,193, ,
4, ,192, ,
3, ,192, ,
3, ,193, ,
4, ,192, ,
4, ,192, ,
3, ,191, ,
4, ,193, ,
3, ,193, ,
3, ,193, ,
3, ,191, ,
4, ,191, ,
1, ,193, ,
4, ,192, ,
3, ,191, ,
3, ,194, ,
4, ,191, ,
3, ,191, ,
3, ,192, ,
4, ,192, ,
1, ,193, ,
3, ,193, ,
4, ,191, ,
4, ,191, ,
3, ,194, ,
4, ,193, ,
3, ,192, ,
3, ,194, ,
4, ,193, ,
4, ,191, ,
1, ,193, ,
4, ,193, ,
1, ,191, ,
3, ,193, ,
3, ,192, ,
3, ,192, ,
1, ,194, ,
4, ,192, ,
1, ,192, ,
3, ,192, ,
4, ,193, ,
3, ,193, ,
3, ,194, ,
4, ,193, ,
1, ,193, ,
3, ,193, ,
3, ,192, ,
4, ,192, ,
3, ,194, ,
4, ,192, ,
1, ,193, ,
3, ,192, ,
3, ,192, ,
3, ,193, ,
1, ,193, ,
4, ,192, ,
3, ,193, ,
3, ,192, ,
4, ,192, ,
3, ,192, ,
1, ,194, ,
4, ,193, ,
1, ,190, ,
3, ,192, ,
3, ,192, ,
3, ,192, ,
1, ,194, ,
4, ,192, ,
3, ,192, ,
3, ,193, ,
3, ,192, ,
3, ,192, ,
1, ,194, ,
3, ,193, ,
3, ,192, ,
3, ,192, ,
3, ,192, ,
3, ,193, ,
1, ,193, ,
4, ,192, ,
3, ,193, ,
3, ,193, ,
3, ,192, ,
3, ,192, ,
1, ,193, ,
4, ,192, ,
3, ,192, ,
3, ,195, ,
3, ,193, ,
3, ,193, ,
1, ,193, ,
4, ,194, ,
1, ,193, ,
3, ,193, ,
3, ,193, ,
3, ,192, ,
1, ,195, ,
4, ,193, ,
3, ,193, ,
3, ,194, ,
3, ,193, ,
3, ,193, ,
1, ,194, ,
4, ,192, ,
1, ,193, ,
3, ,194, ,
3, ,191, ,
3, ,194, ,
1, ,194, ,
4, ,193, ,
1, ,192, ,
3, ,193, ,
3, ,193, ,
3, ,193, ,
1, ,194, ,
4, ,193, ,
1, ,193, ,
3, ,194, ,
3, ,193, ,
3, ,192, ,
1, ,195, ,
4, ,193, ,
1, ,192, ,
3, ,193, ,
3, ,193, ,
3, ,193, ,
1, ,192, ,
4, ,192, ,
3, ,193, ,
3, ,194, ,
3, ,193, ,
3, ,193, ,
1, ,194, ,
4, ,194, ,
1, ,193, ,
1, ,192, ,
3, ,191, ,
3, ,193, ,
1, ,195, ,
3, ,193, ,
3, ,194, ,
3, ,194, ,
3, ,193, ,
3, ,193, ,
1, ,194, ,
4, ,193, ,
3, ,191, ,
1, ,194, ,
3, ,193, ,
3, ,193, ,
1, ,193, ,
4, ,193, ,
3, ,192, ,
1, ,194, ,
3, ,192, ,
3, ,193, ,
1, ,194, ,
4, ,193, ,
1, ,193, ,
1, ,193, ,
3, ,192, ,
3, ,191, ,
1, ,192, ,
3, ,192, ,
1, ,193, ,
3, ,194, ,
3, ,193, ,
3, ,193, ,
1, ,194, ,
4, ,193, ,
1, ,192, ,
3, ,193, ,
3, ,192, ,
3, ,192, ,
1, ,194, ,
4, ,192, ,
1, ,192, ,
3, ,193, ,
3, ,193, ,
3, ,191, ,
1, ,193, ,
4, ,193, ,
1, ,191, ,
3, ,194, ,
3, ,193, ,
3, ,193, ,
1, ,192, ,
3, ,193, ,
1, ,193, ,
3, ,194, ,
3, ,193, ,
3, ,191, ,
1, ,194, ,
3, ,193, ,
1, ,193, ,
3, ,194, ,
3, ,193, ,
3, ,192, ,
1, ,194, ,
3, ,192, ,
3, ,191, ,
3, ,193, ,
3, ,191, ,
3, ,193, ,
1, ,193, ,
3, ,193, ,
3, ,192, ,
1, ,193, ,
3, ,192, ,
3, ,192, ,
1, ,193, ,
3, ,194, ,
1, ,193, ,
1, ,194, ,
3, ,194, ,
3, ,193, ,
1, ,194, ,
3, ,194, ,
1, ,192, ,
3, ,192, ,
3, ,193, ,
3, ,192, ,
1, ,194, ,
3, ,193, ,
1, ,193, ,
3, ,194, ,
3, ,191, ,
1, ,193, ,
1, ,194, ,
3, ,193, ,
1, ,192, ,
3, ,193, ,
3, ,193, ,
3, ,193, ,
1, ,194, ,
3, ,193, ,
3, ,193, ,
3, ,194, ,
3, ,193, ,
3, ,193, ,
1, ,194, ,
3, ,193, ,
1, ,193, ,
1, ,192, ,
3, ,193, ,
3, ,193, ,
1, ,192, ,
3, ,192, ,
1, ,193, ,
3, ,194, ,
3, ,192, ,
3, ,191, ,
1, ,194, ,
4, ,193, ,
1, ,192, ,
3, ,194, ,
3, ,192, ,
1, ,193, ,
1, ,192, ,
3, ,192, ,
1, ,193, ,
1, ,194, ,
1, ,192, ,
3, ,191, ,
1, ,193, ,
4, ,193, ,
1, ,192, ,
3, ,194, ,
3, ,193, ,
3, ,193, ,
1, ,193, ,
3, ,192, ,
1, ,192, ,
3, ,194, ,
3, ,193, ,
3, ,193, ,
1, ,193, ,
3, ,193, ,
1, ,191, ,
3, ,194, ,
3, ,192, ,
3, ,193, ,
1, ,193, ,
3, ,193, ,
1, ,193, ,
1, ,194, ,
3, ,193, ,
3, ,192, ,
1, ,194, ,
3, ,193, ,
1, ,192, ,
1, ,193, ,
3, ,192, ,
3, ,193, ,
0, ,194, ,
3, ,192, ,
1, ,193, ,
1, ,193, ,
3, ,193, ,
3, ,193, ,
1, ,194, ,
3, ,194, ,
1, ,193, ,
3, ,194, ,
3, ,193, ,
3, ,193, ,
1, ,194, ,
3, ,193, ,
1, ,193, ,
1, ,194, ,
3, ,192, ,
3, ,193, ,
0, ,193, ,
3, ,194, ,
1, ,192, ,
1, ,194, ,
3, ,193, ,
1, ,193, ,
0, ,192, ,
3, ,192, ,
1, ,192, ,
3, ,193, ,
3, ,192, ,
1, ,193, ,
1, ,194, ,
3, ,193, ,
1, ,193, ,
1, ,194, ,
3, ,193, ,
3, ,193, ,
0, ,194, ,
3, ,193, ,
1, ,193, ,
3, ,194, ,
3, ,193, ,
1, ,192, ,
1, ,194, ,
3, ,193, ,
1, ,192, ,
3, ,192, ,
3, ,192, ,
3, ,192, ,
0, ,194, ,
3, ,193, ,
1, ,192, ,
3, ,194, ,
3, ,192, ,
1, ,191, ,
1, ,193, ,
3, ,193, ,
1, ,191, ,
1, ,193, ,
3, ,194, ,
3, ,193, ,
0, ,193, ,
3, ,193, ,
1, ,193, ,
1, ,194, ,
3, ,192, ,
1, ,193, ,
0, ,194, ,
3, ,194, ,
1, ,193, ,
1, ,194, ,
3, ,193, ,
1, ,193, ,
0, ,194, ,
3, ,192, ,
1, ,192, ,
1, ,194, ,
3, ,192, ,
1, ,192, ,
1, ,194, ,
3, ,193, ,
1, ,193, ,
1, ,194, ,
1, ,193, ,
1, ,193, ,
0, ,194, ,
3, ,192, ,
1, ,192, ,
3, ,193, ,
1, ,193, ,
3, ,191, ,
0, ,193, ,
3, ,192, ,
1, ,193, ,
1, ,193, ,
3, ,192, ,
3, ,193, ,
0, ,192, ,
3, ,193, ,
1, ,192, ,
1, ,193, ,
1, ,192, ,
1, ,192, ,
0, ,194, ,
3, ,193, ,
1, ,192, ,
1, ,194, ,
1, ,192, ,
3, ,192, ,
0, ,193, ,
3, ,193, ,
1, ,191, ,
1, ,194, ,
3, ,191, ,
1, ,192, ,
0, ,194, ,
3, ,194, ,
1, ,192, ,
1, ,192, ,
3, ,192, ,
1, ,192, ,
0, ,193, ,
3, ,193, ,
1, ,192, ,
1, ,194, ,
3, ,192, ,
1, ,192, ,
0, ,194, ,
3, ,193, ,
1, ,191, ,
1, ,195, ,
3, ,193, ,
1, ,191, ,
0, ,194, ,
3, ,193, ,
1, ,192, ,
1, ,195, ,
1, ,193, ,
1, ,192, ,
0, ,194, ,
3, ,194, ,
1, ,192, ,
1, ,194, ,
3, ,192, ,
1, ,193, ,
0, ,194, ,
3, ,193, ,
1, ,193, ,
1, ,194, ,
3, ,191, ,
1, ,192, ,
0, ,192, ,
3, ,193, ,
1, ,191, ,
1, ,194, ,
3, ,193, ,
1, ,193, ,
0, ,193, ,
3, ,192, ,
1, ,193, ,
1, ,195, ,
1, ,193, ,
1, ,193, ,
0, ,194, ,
3, ,193, ,
1, ,191, ,
1, ,194, ,
1, ,193, ,
3, ,193, ,
0, ,193, ,
3, ,193, ,
1, ,193, ,
1, ,193, ,
3, ,192, ,
1, ,192, ,
0, ,194, ,
3, ,193, ,
1, ,192, ,
1, ,194, ,
1, ,192, ,
1, ,193, ,
0, ,192, ,
3, ,193, ,
1, ,192, ,
1, ,194, ,
1, ,192, ,
1, ,192, ,
0, ,193, ,
3, ,193, ,
1, ,193, ,
1, ,192, ,
1, ,192, ,
1, ,193, ,
0, ,193, ,
3, ,192, ,
1, ,193, ,
1, ,193, ,
1, ,192, ,
3, ,192, ,
0, ,194, ,
3, ,193, ,
1, ,193, ,
1, ,194, ,
3, ,192, ,
3, ,193, ,
0, ,194, ,
3, ,193, ,
1, ,194, ,
1, ,194, ,
1, ,192, ,
1, ,192, ,
0, ,194, ,
3, ,193, ,
1, ,192, ,
1, ,194, ,
3, ,193, ,
1, ,193, ,
0, ,193, ,
3, ,193, ,
1, ,193, ,
1, ,193, ,
1, ,192, ,
1, ,193, ,
0, ,193, ,
3, ,194, ,
1, ,192, ,
1, ,194, ,
1, ,192, ,
3, ,193, ,
0, ,193, ,
3, ,193, ,
1, ,193, ,
1, ,194, ,
1, ,191, ,
1, ,193, ,
0, ,194, ,
3, ,194, ,
1, ,191, ,
1, ,193, ,
3, ,193, ,
3, ,193, ,
0, ,194, ,
3, ,193, ,
1, ,193, ,
1, ,194, ,
3, ,193, ,
1, ,192, ,
0, ,194, ,
3, ,193, ,
1, ,192, ,
1, ,193, ,
1, ,192, ,
1, ,193, ,
