src/vary_led_1562/temp0007375.CSV

Format,1.0B,
Memory Length,10000,Memory Length,10000,
IntpDistance,0,IntpDistance,0,
Trigger Address,5159,Trigger Address,5159,
Trigger Level,3.000E-01,Trigger Level,3.000E-01,
Source,CH1,Source,CH2,
Vertical Units,V,Vertical Units,V,
Vertical Units Div,0,Vertical Units Div,0,
Vertical Units Extend Div,16,Vertical Units Extend Div,16,
Label,,Label,,
Probe Type,0,Probe Type,0,
Probe Ratio,1.000e+01,Probe Ratio,1.000e+00,
Vertical Scale,5.000e-01,Vertical Scale,2.000e-01,
Vertical Position,-1.780e+00,Vertical Position,-2.240e+00,
Horizontal Units,S,Horizontal Units,S,
Horizontal Scale,2.000E-05,Horizontal Scale,2.000E-05,
Horizontal Position,-3.200E-06,Horizontal Position,-3.200E-06,
Horizontal Mode,Main,Horizontal Mode,Main,
SincET Mode,Real Time,SincET Mode,Real Time,
Sampling Period,2.000e-08,Sampling Period,2.000e-08,
Horizontal Old Scale,2.000E-05,Horizontal Old Scale,2.000E-05,
Horizontal Old Position,-3.200E-06,Horizontal Old Position,-3.200E-06,
Firmware,V1.23,Firmware,V1.23,
Mode,Fast,Mode,Fast,
Waveform Data,,Waveform Data,,
3, ,324, ,
1, ,324, ,
0, ,324, ,
3, ,326, ,
1, ,324, ,
1, ,326, ,
3, ,324, ,
1, ,324, ,
0, ,324, ,
3, ,325, ,
1, ,321, ,
1, ,325, ,
3, ,325, ,
1, ,325, ,
0, ,324, ,
3, ,325, ,
1, ,324, ,
1, ,326, ,
3, ,323, ,
1, ,324, ,
0, ,324, ,
3, ,326, ,
1, ,321, ,
1, ,326, ,
3, ,325, ,
1, ,324, ,
0, ,323, ,
3, ,326, ,
1, ,323, ,
1, ,325, ,
3, ,325, ,
1, ,324, ,
0, ,324, ,
3, ,325, ,
1, ,323, ,
1, ,325, ,
1, ,325, ,
1, ,323, ,
0, ,324, ,
3, ,327, ,
1, ,324, ,
1, ,325, ,
3, ,324, ,
3, ,324, ,
0, ,324, ,
3, ,326, ,
1, ,323, ,
1, ,325, ,
3, ,325, ,
1, ,325, ,
0, ,323, ,
3, ,326, ,
1, ,323, ,
1, ,326, ,
3, ,324, ,
1, ,324, ,
0, ,324, ,
3, ,327, ,
1, ,323, ,
1, ,325, ,
3, ,324, ,
1, ,324, ,
1, ,323, ,
3, ,325, ,
1, ,324, ,
1, ,325, ,
1, ,323, ,
1, ,324, ,
0, ,325, ,
3, ,326, ,
1, ,323, ,
1, ,325, ,
1, ,324, ,
1, ,325, ,
0, ,324, ,
3, ,326, ,
1, ,324, ,
1, ,325, ,
3, ,324, ,
1, ,324, ,
0, ,324, ,
3, ,326, ,
1, ,323, ,
1, ,325, ,
3, ,324, ,
1, ,325, ,
0, ,325, ,
3, ,325, ,
1, ,324, ,
1, ,325, ,
3, ,324, ,
1, ,325, ,
0, ,324, ,
3, ,325, ,
1, ,323, ,
1, ,324, ,
1, ,323, ,
1, ,325, ,
0, ,324, ,
3, ,326, ,
1, ,323, ,
1, ,325, ,
3, ,324, ,
3, ,324, ,
0, ,325, ,
3, ,327, ,
1, ,323, ,
1, ,325, ,
3, ,325, ,
1, ,324, ,
0, ,324, ,
3, ,325, ,
1, ,324, ,
1, ,324, ,
1, ,323, ,
1, ,325, ,
0, ,324, ,
3, ,327, ,
1, ,323, ,
1, ,325, ,
1, ,325, ,
1, ,325, ,
0, ,324, ,
3, ,325, ,
1, ,323, ,
1, ,325, ,
3, ,323, ,
1, ,324, ,
0, ,324, ,
3, ,325, ,
1, ,323, ,
1, ,325, ,
3, ,326, ,
1, ,325, ,
0, ,325, ,
3, ,325, ,
1, ,324, ,
1, ,324, ,
3, ,324, ,
1, ,324, ,
0, ,324, ,
3, ,326, ,
1, ,323, ,
1, ,324, ,
1, ,324, ,
1, ,324, ,
0, ,323, ,
3, ,325, ,
1, ,323, ,
1, ,325, ,
3, ,324, ,
1, ,324, ,
0, ,323, ,
3, ,327, ,
1, ,323, ,
1, ,324, ,
3, ,324, ,
1, ,324, ,
0, ,323, ,
3, ,325, ,
1, ,323, ,
1, ,325, ,
3, ,323, ,
1, ,325, ,
0, ,323, ,
3, ,327, ,
1, ,323, ,
1, ,324, ,
3, ,325, ,
1, ,324, ,
0, ,325, ,
3, ,327, ,
1, ,324, ,
1, ,325, ,
1, ,324, ,
1, ,324, ,
0, ,324, ,
3, ,326, ,
1, ,323, ,
1, ,325, ,
3, ,325, ,
1, ,324, ,
0, ,323, ,
3, ,326, ,
1, ,323, ,
1, ,325, ,
1, ,324, ,
1, ,324, ,
0, ,325, ,
3, ,327, ,
1, ,321, ,
1, ,325, ,
1, ,325, ,
1, ,324, ,
0, ,323, ,
3, ,325, ,
1, ,323, ,
1, ,325, ,
3, ,323, ,
1, ,323, ,
0, ,321, ,
3, ,323, ,
1, ,321, ,
1, ,325, ,
1, ,329, ,
1, ,327, ,
0, ,324, ,
3, ,323, ,
1, ,320, ,
1, ,323, ,
3, ,324, ,
1, ,325, ,
0, ,325, ,
3, ,326, ,
1, ,323, ,
1, ,323, ,
1, ,325, ,
1, ,325, ,
0, ,324, ,
3, ,325, ,
1, ,321, ,
1, ,323, ,
1, ,323, ,
1, ,325, ,
0, ,325, ,
3, ,326, ,
1, ,320, ,
1, ,325, ,
3, ,324, ,
1, ,324, ,
0, ,325, ,
3, ,325, ,
1, ,323, ,
1, ,324, ,
3, ,323, ,
1, ,318, ,
0, ,323, ,
3, ,329, ,
1, ,326, ,
1, ,323, ,
3, ,321, ,
1, ,323, ,
0, ,324, ,
3, ,327, ,
1, ,323, ,
1, ,324, ,
1, ,323, ,
1, ,323, ,
0, ,324, ,
3, ,326, ,
1, ,323, ,
1, ,325, ,
3, ,324, ,
1, ,324, ,
0, ,324, ,
3, ,325, ,
1, ,324, ,
1, ,325, ,
1, ,323, ,
1, ,323, ,
0, ,324, ,
3, ,327, ,
1, ,323, ,
1, ,325, ,
1, ,323, ,
1, ,324, ,
0, ,323, ,
3, ,325, ,
1, ,323, ,
1, ,325, ,
1, ,323, ,
1, ,324, ,
0, ,323, ,
3, ,326, ,
1, ,320, ,
1, ,324, ,
1, ,324, ,
1, ,324, ,
0, ,324, ,
3, ,325, ,
1, ,323, ,
1, ,325, ,
3, ,324, ,
1, ,324, ,
0, ,325, ,
3, ,327, ,
1, ,323, ,
1, ,324, ,
1, ,325, ,
1, ,324, ,
0, ,323, ,
3, ,326, ,
1, ,324, ,
1, ,325, ,
3, ,324, ,
1, ,323, ,
0, ,324, ,
1, ,326, ,
1, ,321, ,
1, ,324, ,
3, ,325, ,
1, ,325, ,
0, ,324, ,
3, ,325, ,
1, ,323, ,
1, ,325, ,
3, ,323, ,
1, ,324, ,
0, ,324, ,
3, ,326, ,
1, ,323, ,
1, ,325, ,
3, ,326, ,
1, ,325, ,
0, ,324, ,
3, ,325, ,
0, ,324, ,
1, ,325, ,
1, ,325, ,
1, ,326, ,
0, ,325, ,
3, ,326, ,
1, ,321, ,
1, ,326, ,
3, ,325, ,
1, ,324, ,
0, ,324, ,
3, ,327, ,
1, ,324, ,
0, ,325, ,
1, ,325, ,
1, ,325, ,
0, ,325, ,
3, ,327, ,
1, ,323, ,
1, ,326, ,
1, ,325, ,
1, ,325, ,
0, ,324, ,
3, ,326, ,
1, ,323, ,
1, ,325, ,
3, ,323, ,
1, ,324, ,
0, ,323, ,
3, ,326, ,
1, ,321, ,
1, ,325, ,
1, ,326, ,
1, ,326, ,
0, ,324, ,
3, ,327, ,
0, ,324, ,
1, ,325, ,
3, ,325, ,
1, ,324, ,
0, ,325, ,
3, ,326, ,
0, ,324, ,
1, ,325, ,
1, ,324, ,
1, ,325, ,
0, ,324, ,
3, ,326, ,
0, ,324, ,
1, ,326, ,
1, ,323, ,
1, ,325, ,
0, ,325, ,
3, ,326, ,
1, ,323, ,
1, ,325, ,
3, ,324, ,
1, ,324, ,
0, ,323, ,
3, ,325, ,
1, ,324, ,
1, ,326, ,
3, ,324, ,
1, ,324, ,
0, ,325, ,
3, ,326, ,
1, ,323, ,
1, ,325, ,
3, ,325, ,
1, ,325, ,
0, ,324, ,
1, ,326, ,
1, ,325, ,
1, ,327, ,
3, ,324, ,
1, ,325, ,
0, ,325, ,
3, ,326, ,
1, ,323, ,
1, ,325, ,
3, ,325, ,
1, ,325, ,
0, ,324, ,
3, ,327, ,
0, ,324, ,
1, ,325, ,
1, ,324, ,
1, ,325, ,
0, ,325, ,
3, ,327, ,
1, ,323, ,
1, ,325, ,
1, ,324, ,
1, ,324, ,
0, ,324, ,
3, ,327, ,
1, ,324, ,
1, ,325, ,
3, ,324, ,
1, ,325, ,
0, ,324, ,
3, ,326, ,
1, ,321, ,
1, ,325, ,
3, ,325, ,
1, ,324, ,
0, ,323, ,
3, ,327, ,
0, ,324, ,
1, ,325, ,
1, ,324, ,
1, ,324, ,
0, ,324, ,
3, ,326, ,
1, ,324, ,
1, ,325, ,
1, ,326, ,
1, ,325, ,
0, ,324, ,
3, ,327, ,
0, ,324, ,
1, ,325, ,
3, ,324, ,
1, ,325, ,
0, ,325, ,
3, ,327, ,
1, ,324, ,
0, ,325, ,
1, ,321, ,
1, ,324, ,
0, ,325, ,
3, ,328, ,
0, ,324, ,
1, ,325, ,
1, ,325, ,
1, ,325, ,
0, ,325, ,
3, ,327, ,
0, ,323, ,
0, ,324, ,
1, ,325, ,
1, ,325, ,
0, ,324, ,
3, ,326, ,
0, ,324, ,
0, ,326, ,
3, ,324, ,
1, ,324, ,
0, ,324, ,
3, ,326, ,
1, ,323, ,
1, ,325, ,
1, ,324, ,
1, ,325, ,
0, ,324, ,
1, ,325, ,
0, ,323, ,
1, ,325, ,
1, ,324, ,
1, ,325, ,
0, ,325, ,
3, ,326, ,
0, ,323, ,
0, ,326, ,
1, ,325, ,
1, ,324, ,
0, ,323, ,
3, ,327, ,
1, ,324, ,
0, ,325, ,
1, ,324, ,
3, ,324, ,
0, ,324, ,
3, ,325, ,
1, ,323, ,
1, ,325, ,
3, ,325, ,
1, ,324, ,
0, ,324, ,
1, ,327, ,
0, ,324, ,
1, ,325, ,
1, ,324, ,
1, ,325, ,
0, ,325, ,
3, ,327, ,
1, ,321, ,
0, ,325, ,
1, ,325, ,
1, ,325, ,
0, ,324, ,
3, ,325, ,
0, ,324, ,
1, ,325, ,
3, ,324, ,
1, ,324, ,
0, ,324, ,
3, ,326, ,
1, ,321, ,
1, ,326, ,
3, ,325, ,
1, ,324, ,
0, ,323, ,
3, ,326, ,
0, ,323, ,
0, ,326, ,
3, ,325, ,
1, ,325, ,
0, ,324, ,
1, ,327, ,
0, ,323, ,
1, ,325, ,
3, ,325, ,
1, ,325, ,
0, ,323, ,
1, ,326, ,
1, ,323, ,
1, ,325, ,
1, ,324, ,
1, ,324, ,
0, ,323, ,
3, ,326, ,
0, ,323, ,
0, ,325, ,
3, ,324, ,
1, ,324, ,
0, ,324, ,
3, ,326, ,
1, ,324, ,
0, ,325, ,
1, ,324, ,
1, ,325, ,
0, ,325, ,
3, ,326, ,
1, ,323, ,
1, ,325, ,
1, ,325, ,
1, ,324, ,
0, ,324, ,
1, ,325, ,
0, ,324, ,
1, ,325, ,
1, ,323, ,
1, ,324, ,
0, ,325, ,
1, ,326, ,
0, ,323, ,
1, ,325, ,
3, ,325, ,
1, ,324, ,
0, ,324, ,
3, ,326, ,
0, ,323, ,
0, ,325, ,
1, ,324, ,
1, ,325, ,
0, ,325, ,
3, ,325, ,
0, ,320, ,
0, ,324, ,
3, ,325, ,
1, ,324, ,
0, ,324, ,
1, ,325, ,
0, ,324, ,
0, ,325, ,
1, ,325, ,
1, ,325, ,
0, ,325, ,
1, ,327, ,
1, ,323, ,
1, ,325, ,
1, ,325, ,
1, ,325, ,
0, ,324, ,
3, ,325, ,
0, ,324, ,
1, ,325, ,
1, ,324, ,
1, ,325, ,
0, ,324, ,
3, ,326, ,
0, ,321, ,
0, ,325, ,
1, ,325, ,
1, ,325, ,
0, ,324, ,
3, ,325, ,
0, ,323, ,
0, ,325, ,
1, ,324, ,
1, ,325, ,
0, ,324, ,
3, ,326, ,
0, ,323, ,
0, ,326, ,
3, ,325, ,
1, ,324, ,
0, ,324, ,
3, ,325, ,
0, ,324, ,
1, ,325, ,
1, ,324, ,
0, ,324, ,
0, ,324, ,
1, ,326, ,
1, ,323, ,
1, ,325, ,
3, ,325, ,
1, ,324, ,
0, ,325, ,
3, ,326, ,
0, ,325, ,
1, ,325, ,
3, ,324, ,
1, ,324, ,
0, ,325, ,
3, ,325, ,
0, ,323, ,
0, ,324, ,
1, ,325, ,
1, ,325, ,
0, ,324, ,
3, ,325, ,
0, ,324, ,
0, ,325, ,
3, ,324, ,
1, ,325, ,
0, ,325, ,
3, ,325, ,
0, ,323, ,
0, ,325, ,
1, ,325, ,
1, ,324, ,
0, ,324, ,
3, ,326, ,
0, ,324, ,
0, ,325, ,
3, ,324, ,
1, ,324, ,
0, ,324, ,
3, ,327, ,
0, ,323, ,
0, ,324, ,
1, ,325, ,
1, ,324, ,
0, ,324, ,
3, ,325, ,
0, ,324, ,
0, ,326, ,
1, ,325, ,
1, ,324, ,
0, ,325, ,
1, ,326, ,
1, ,323, ,
1, ,325, ,
1, ,324, ,
1, ,324, ,
0, ,325, ,
3, ,328, ,
0, ,324, ,
1, ,325, ,
3, ,323, ,
1, ,324, ,
0, ,325, ,
1, ,327, ,
0, ,324, ,
0, ,325, ,
1, ,325, ,
1, ,325, ,
0, ,324, ,
3, ,327, ,
0, ,324, ,
0, ,324, ,
1, ,323, ,
1, ,324, ,
0, ,325, ,
3, ,326, ,
0, ,323, ,
1, ,325, ,
1, ,325, ,
1, ,324, ,
0, ,324, ,
1, ,326, ,
1, ,324, ,
1, ,327, ,
1, ,323, ,
1, ,324, ,
0, ,324, ,
1, ,326, ,
0, ,323, ,
0, ,325, ,
1, ,325, ,
1, ,324, ,
0, ,324, ,
3, ,325, ,
0, ,324, ,
1, ,325, ,
3, ,323, ,
3, ,324, ,
0, ,324, ,
3, ,326, ,
0, ,323, ,
1, ,325, ,
1, ,324, ,
0, ,325, ,
0, ,324, ,
1, ,327, ,
0, ,324, ,
0, ,325, ,
1, ,325, ,
1, ,325, ,
0, ,324, ,
3, ,325, ,
1, ,323, ,
1, ,325, ,
3, ,325, ,
3, ,325, ,
0, ,323, ,
3, ,325, ,
0, ,324, ,
1, ,324, ,
1, ,324, ,
1, ,324, ,
0, ,324, ,
1, ,325, ,
0, ,323, ,
0, ,324, ,
1, ,325, ,
1, ,325, ,
0, ,324, ,
1, ,326, ,
0, ,324, ,
0, ,325, ,
1, ,324, ,
1, ,324, ,
0, ,325, ,
3, ,326, ,
0, ,323, ,
0, ,324, ,
1, ,324, ,
1, ,324, ,
0, ,323, ,
3, ,326, ,
0, ,324, ,
0, ,324, ,
1, ,324, ,
1, ,325, ,
0, ,325, ,
3, ,325, ,
1, ,323, ,
1, ,325, ,
3, ,324, ,
1, ,325, ,
0, ,324, ,
3, ,327, ,
0, ,323, ,
0, ,325, ,
1, ,323, ,
1, ,324, ,
-1, ,324, ,
1, ,325, ,
0, ,323, ,
0, ,324, ,
1, ,325, ,
1, ,325, ,
0, ,324, ,
1, ,325, ,
0, ,324, ,
0, ,326, ,
3, ,324, ,
1, ,325, ,
0, ,324, ,
3, ,325, ,
1, ,323, ,
0, ,325, ,
1, ,325, ,
1, ,324, ,
0, ,323, ,
3, ,325, ,
0, ,324, ,
0, ,326, ,
1, ,324, ,
1, ,324, ,
0, ,324, ,
1, ,325, ,
1, ,323, ,
0, ,325, ,
1, ,326, ,
1, ,324, ,
0, ,324, ,
3, ,326, ,
0, ,324, ,
0, ,325, ,
1, ,323, ,
0, ,324, ,
0, ,325, ,
1, ,326, ,
0, ,323, ,
1, ,325, ,
1, ,325, ,
1, ,324, ,
0, ,324, ,
1, ,327, ,
0, ,324, ,
1, ,325, ,
1, ,324, ,
1, ,325, ,
0, ,324, ,
3, ,327, ,
1, ,324, ,
1, ,324, ,
1, ,325, ,
1, ,324, ,
0, ,324, ,
1, ,327, ,
0, ,324, ,
0, ,325, ,
1, ,324, ,
1, ,324, ,
-1, ,324, ,
1, ,325, ,
0, ,323, ,
0, ,324, ,
1, ,325, ,
1, ,325, ,
0, ,323, ,
1, ,326, ,
0, ,324, ,
0, ,325, ,
1, ,323, ,
1, ,323, ,
0, ,324, ,
3, ,325, ,
0, ,323, ,
0, ,325, ,
1, ,325, ,
1, ,325, ,
0, ,323, ,
3, ,325, ,
0, ,324, ,
0, ,325, ,
1, ,324, ,
1, ,324, ,
0, ,325, ,
3, ,326, ,
0, ,323, ,
1, ,325, ,
1, ,324, ,
1, ,325, ,
0, ,324, ,
1, ,325, ,
0, ,324, ,
0, ,325, ,
1, ,324, ,
1, ,323, ,
0, ,323, ,
3, ,325, ,
0, ,323, ,
0, ,325, ,
1, ,325, ,
1, ,324, ,
0, ,324, ,
3, ,325, ,
0, ,324, ,
0, ,325, ,
3, ,323, ,
1, ,324, ,
0, ,324, ,
3, ,327, ,
0, ,323, ,
0, ,325, ,
1, ,325, ,
1, ,324, ,
0, ,323, ,
1, ,326, ,
0, ,324, ,
0, ,325, ,
1, ,324, ,
1, ,324, ,
0, ,324, ,
3, ,325, ,
0, ,323, ,
1, ,324, ,
3, ,324, ,
1, ,324, ,
0, ,324, ,
3, ,325, ,
0, ,324, ,
0, ,325, ,
1, ,324, ,
1, ,323, ,
0, ,323, ,
1, ,325, ,
0, ,321, ,
0, ,325, ,
1, ,327, ,
1, ,326, ,
0, ,324, ,
1, ,325, ,
0, ,323, ,
0, ,325, ,
3, ,323, ,
1, ,323, ,
0, ,324, ,
1, ,327, ,
0, ,323, ,
0, ,324, ,
3, ,325, ,
1, ,325, ,
0, ,324, ,
1, ,326, ,
0, ,324, ,
128, ,325, ,
75, ,324, ,
46, ,324, ,
32, ,324, ,
24, ,326, ,
13, ,321, ,
6, ,324, ,
8, ,325, ,
8, ,324, ,
4, ,324, ,
4, ,326, ,
3, ,324, ,
4, ,325, ,
5, ,324, ,
3, ,324, ,
1, ,325, ,
4, ,325, ,
3, ,320, ,
3, ,324, ,
3, ,324, ,
3, ,324, ,
3, ,323, ,
4, ,327, ,
3, ,324, ,
3, ,325, ,
4, ,324, ,
3, ,325, ,
1, ,324, ,
4, ,327, ,
3, ,323, ,
3, ,324, ,
4, ,325, ,
4, ,324, ,
3, ,324, ,
4, ,326, ,
1, ,324, ,
3, ,325, ,
4, ,325, ,
4, ,325, ,
1, ,325, ,
4, ,325, ,
1, ,323, ,
3, ,325, ,
4, ,324, ,
4, ,324, ,
1, ,324, ,
4, ,327, ,
3, ,324, ,
3, ,326, ,
4, ,324, ,
3, ,324, ,
1, ,325, ,
4, ,326, ,
3, ,323, ,
3, ,325, ,
3, ,325, ,
3, ,324, ,
1, ,324, ,
4, ,326, ,
3, ,324, ,
3, ,325, ,
3, ,323, ,
3, ,324, ,
1, ,325, ,
4, ,325, ,
1, ,323, ,
3, ,325, ,
3, ,325, ,
3, ,325, ,
1, ,323, ,
4, ,325, ,
3, ,324, ,
3, ,325, ,
4, ,324, ,
3, ,323, ,
1, ,325, ,
4, ,326, ,
3, ,324, ,
3, ,325, ,
3, ,323, ,
3, ,325, ,
1, ,323, ,
4, ,325, ,
1, ,324, ,
3, ,326, ,
3, ,323, ,
3, ,323, ,
1, ,324, ,
4, ,326, ,
1, ,323, ,
3, ,325, ,
4, ,324, ,
3, ,326, ,
1, ,324, ,
4, ,327, ,
1, ,323, ,
3, ,325, ,
3, ,324, ,
3, ,324, ,
1, ,325, ,
4, ,326, ,
3, ,323, ,
3, ,325, ,
3, ,325, ,
3, ,325, ,
1, ,323, ,
4, ,326, ,
1, ,324, ,
3, ,325, ,
3, ,324, ,
3, ,324, ,
1, ,325, ,
4, ,327, ,
1, ,323, ,
3, ,324, ,
3, ,325, ,
3, ,324, ,
1, ,324, ,
4, ,325, ,
3, ,324, ,
3, ,325, ,
3, ,324, ,
3, ,324, ,
1, ,323, ,
4, ,325, ,
1, ,323, ,
3, ,324, ,
3, ,325, ,
3, ,324, ,
1, ,323, ,
4, ,325, ,
1, ,324, ,
1, ,325, ,
3, ,323, ,
3, ,323, ,
1, ,323, ,
4, ,325, ,
3, ,321, ,
3, ,325, ,
3, ,325, ,
3, ,324, ,
1, ,323, ,
3, ,325, ,
1, ,324, ,
1, ,325, ,
3, ,324, ,
3, ,324, ,
1, ,325, ,
4, ,325, ,
3, ,323, ,
3, ,325, ,
3, ,324, ,
3, ,324, ,
1, ,323, ,
4, ,325, ,
1, ,324, ,
1, ,325, ,
3, ,324, ,
3, ,324, ,
1, ,324, ,
4, ,326, ,
3, ,323, ,
3, ,325, ,
3, ,325, ,
3, ,325, ,
1, ,323, ,
3, ,327, ,
1, ,323, ,
1, ,325, ,
3, ,324, ,
3, ,325, ,
1, ,324, ,
4, ,325, ,
3, ,323, ,
3, ,325, ,
3, ,325, ,
3, ,324, ,
1, ,324, ,
4, ,325, ,
1, ,324, ,
1, ,325, ,
3, ,323, ,
3, ,325, ,
1, ,324, ,
3, ,325, ,
1, ,321, ,
3, ,324, ,
3, ,324, ,
3, ,325, ,
1, ,323, ,
3, ,326, ,
3, ,323, ,
3, ,325, ,
3, ,324, ,
3, ,324, ,
1, ,324, ,
3, ,326, ,
3, ,323, ,
1, ,325, ,
3, ,326, ,
1, ,324, ,
1, ,324, ,
4, ,325, ,
3, ,323, ,
3, ,325, ,
3, ,323, ,
3, ,324, ,
1, ,325, ,
3, ,327, ,
1, ,323, ,
1, ,324, ,
3, ,324, ,
3, ,324, ,
1, ,323, ,
3, ,327, ,
1, ,323, ,
3, ,325, ,
3, ,323, ,
3, ,324, ,
1, ,325, ,
3, ,326, ,
3, ,321, ,
1, ,324, ,
3, ,324, ,
3, ,324, ,
1, ,324, ,
3, ,327, ,
1, ,323, ,
3, ,325, ,
3, ,323, ,
3, ,324, ,
1, ,324, ,
3, ,327, ,
3, ,323, ,
3, ,325, ,
3, ,325, ,
3, ,324, ,
1, ,324, ,
3, ,326, ,
1, ,323, ,
1, ,326, ,
3, ,323, ,
3, ,324, ,
1, ,324, ,
3, ,327, ,
1, ,323, ,
1, ,325, ,
3, ,325, ,
3, ,325, ,
1, ,323, ,
3, ,325, ,
1, ,324, ,
3, ,325, ,
3, ,325, ,
3, ,324, ,
1, ,325, ,
3, ,325, ,
1, ,323, ,
1, ,325, ,
3, ,325, ,
1, ,325, ,
1, ,324, ,
3, ,326, ,
1, ,323, ,
1, ,326, ,
3, ,324, ,
3, ,324, ,
0, ,324, ,
3, ,325, ,
1, ,323, ,
1, ,325, ,
3, ,325, ,
1, ,325, ,
1, ,323, ,
3, ,326, ,
1, ,324, ,
1, ,325, ,
3, ,325, ,
1, ,324, ,
0, ,325, ,
3, ,325, ,
1, ,323, ,
1, ,325, ,
3, ,324, ,
1, ,324, ,
1, ,323, ,
3, ,326, ,
1, ,323, ,
1, ,325, ,
3, ,324, ,
1, ,324, ,
0, ,323, ,
3, ,325, ,
1, ,320, ,
1, ,323, ,
3, ,321, ,
1, ,323, ,
1, ,324, ,
3, ,327, ,
1, ,327, ,
1, ,327, ,
3, ,321, ,
1, ,320, ,
0, ,321, ,
3, ,326, ,
1, ,324, ,
1, ,326, ,
3, ,324, ,
1, ,324, ,
0, ,323, ,
3, ,325, ,
1, ,323, ,
1, ,325, ,
3, ,324, ,
1, ,324, ,
0, ,324, ,
3, ,325, ,
1, ,323, ,
1, ,325, ,
3, ,325, ,
1, ,324, ,
0, ,324, ,
3, ,327, ,
1, ,323, ,
1, ,325, ,
3, ,324, ,
1, ,324, ,
0, ,323, ,
3, ,325, ,
1, ,323, ,
1, ,325, ,
3, ,325, ,
1, ,324, ,
0, ,323, ,
3, ,325, ,
1, ,323, ,
1, ,325, ,
3, ,323, ,
1, ,324, ,
0, ,323, ,
3, ,325, ,
1, ,323, ,
1, ,323, ,
3, ,325, ,
1, ,324, ,
0, ,324, ,
3, ,325, ,
1, ,323, ,
1, ,324, ,
1, ,325, ,
1, ,323, ,
0, ,323, ,
3, ,326, ,
1, ,321, ,
3, ,325, ,
3, ,325, ,
3, ,324, ,
0, ,323, ,
3, ,319, ,
1, ,320, ,
1, ,326, ,
3, ,328, ,
1, ,327, ,
0, ,323, ,
3, ,324, ,
1, ,321, ,
1, ,325, ,
1, ,324, ,
1, ,325, ,
0, ,325, ,
3, ,325, ,
1, ,323, ,
1, ,325, ,
3, ,324, ,
1, ,324, ,
0, ,324, ,
3, ,325, ,
1, ,321, ,
1, ,324, ,
3, ,325, ,
1, ,324, ,
0, ,323, ,
3, ,325, ,
1, ,324, ,
1, ,325, ,
1, ,323, ,
1, ,324, ,
0, ,325, ,
3, ,326, ,
1, ,323, ,
1, ,324, ,
3, ,323, ,
1, ,324, ,
0, ,323, ,
3, ,325, ,
1, ,324, ,
1, ,325, ,
3, ,325, ,
1, ,324, ,
0, ,325, ,
3, ,326, ,
1, ,321, ,
1, ,324, ,
3, ,325, ,
1, ,325, ,
0, ,325, ,
3, ,327, ,
1, ,324, ,
1, ,325, ,
3, ,323, ,
1, ,324, ,
0, ,325, ,
3, ,326, ,
1, ,324, ,
1, ,325, ,
1, ,325, ,
1, ,324, ,
0, ,323, ,
3, ,325, ,
1, ,324, ,
1, ,324, ,
3, ,325, ,
1, ,324, ,
0, ,325, ,
3, ,326, ,
1, ,324, ,
1, ,326, ,
3, ,325, ,
1, ,324, ,
0, ,324, ,
3, ,325, ,
1, ,324, ,
1, ,325, ,
3, ,323, ,
1, ,325, ,
0, ,324, ,
3, ,327, ,
1, ,323, ,
1, ,323, ,
1, ,325, ,
1, ,325, ,
0, ,323, ,
3, ,325, ,
1, ,323, ,
1, ,325, ,
1, ,325, ,
1, ,325, ,
0, ,325, ,
3, ,325, ,
1, ,323, ,
1, ,325, ,
3, ,324, ,
1, ,324, ,
0, ,323, ,
3, ,326, ,
1, ,324, ,
1, ,326, ,
3, ,324, ,
1, ,325, ,
0, ,324, ,
3, ,327, ,
1, ,323, ,
1, ,324, ,
3, ,325, ,
1, ,324, ,
0, ,324, ,
3, ,326, ,
1, ,323, ,
1, ,325, ,
3, ,324, ,
1, ,324, ,
0, ,324, ,
3, ,325, ,
1, ,323, ,
1, ,325, ,
3, ,325, ,
1, ,325, ,
0, ,323, ,
3, ,325, ,
1, ,324, ,
1, ,325, ,
3, ,325, ,
1, ,325, ,
0, ,324, ,
3, ,325, ,
1, ,323, ,
1, ,324, ,
1, ,325, ,
1, ,324, ,
0, ,324, ,
3, ,325, ,
1, ,324, ,
1, ,326, ,
3, ,323, ,
1, ,324, ,
0, ,324, ,
3, ,325, ,
1, ,323, ,
1, ,324, ,
3, ,325, ,
1, ,324, ,
0, ,324, ,
3, ,326, ,
1, ,324, ,
1, ,327, ,
1, ,324, ,
1, ,325, ,
0, ,324, ,
3, ,326, ,
1, ,323, ,
1, ,325, ,
1, ,324, ,
1, ,324, ,
0, ,324, ,
3, ,325, ,
1, ,324, ,
1, ,327, ,
1, ,324, ,
1, ,324, ,
0, ,324, ,
3, ,325, ,
1, ,323, ,
1, ,325, ,
3, ,324, ,
1, ,325, ,
0, ,323, ,
3, ,327, ,
1, ,324, ,
1, ,325, ,
1, ,324, ,
1, ,324, ,
0, ,324, ,
3, ,326, ,
1, ,320, ,
1, ,325, ,
1, ,324, ,
1, ,325, ,
0, ,324, ,
3, ,326, ,
1, ,323, ,
1, ,325, ,
3, ,323, ,
1, ,323, ,
0, ,324, ,
3, ,326, ,
1, ,323, ,
1, ,324, ,
1, ,325, ,
1, ,324, ,
0, ,324, ,
3, ,327, ,
1, ,324, ,
1, ,324, ,
3, ,324, ,
1, ,325, ,
0, ,325, ,
3, ,326, ,
1, ,323, ,
1, ,324, ,
1, ,325, ,
1, ,325, ,
0, ,323, ,
3, ,325, ,
1, ,323, ,
1, ,324, ,
3, ,323, ,
1, ,324, ,
0, ,324, ,
3, ,327, ,
1, ,324, ,
1, ,325, ,
3, ,325, ,
1, ,324, ,
0, ,324, ,
3, ,326, ,
1, ,323, ,
1, ,325, ,
1, ,324, ,
1, ,324, ,
0, ,324, ,
3, ,325, ,
1, ,323, ,
1, ,325, ,
3, ,324, ,
1, ,324, ,
0, ,324, ,
3, ,325, ,
1, ,324, ,
1, ,325, ,
1, ,323, ,
1, ,324, ,
0, ,324, ,
3, ,326, ,
1, ,323, ,
1, ,325, ,
1, ,325, ,
1, ,324, ,
0, ,323, ,
3, ,325, ,
1, ,324, ,
1, ,325, ,
1, ,324, ,
1, ,325, ,
0, ,325, ,
3, ,325, ,
1, ,321, ,
1, ,325, ,
1, ,324, ,
3, ,324, ,
0, ,325, ,
3, ,327, ,
1, ,323, ,
1, ,325, ,
3, ,324, ,
1, ,324, ,
0, ,324, ,
3, ,326, ,
0, ,323, ,
1, ,325, ,
3, ,325, ,
1, ,324, ,
0, ,324, ,
3, ,326, ,
1, ,324, ,
0, ,325, ,
3, ,323, ,
1, ,324, ,
0, ,324, ,
3, ,326, ,
1, ,323, ,
1, ,324, ,
3, ,324, ,
1, ,325, ,
0, ,323, ,
3, ,325, ,
0, ,324, ,
1, ,324, ,
3, ,324, ,
1, ,325, ,
0, ,324, ,
3, ,325, ,
1, ,323, ,
1, ,325, ,
3, ,326, ,
1, ,324, ,
0, ,324, ,
3, ,326, ,
0, ,324, ,
1, ,325, ,
1, ,324, ,
1, ,324, ,
0, ,325, ,
3, ,327, ,
1, ,324, ,
0, ,325, ,
1, ,325, ,
1, ,324, ,
0, ,323, ,
3, ,325, ,
1, ,324, ,
1, ,326, ,
3, ,325, ,
1, ,325, ,
0, ,324, ,
3, ,327, ,
1, ,323, ,
1, ,324, ,
3, ,325, ,
1, ,325, ,
0, ,325, ,
3, ,326, ,
1, ,324, ,
1, ,325, ,
1, ,323, ,
1, ,324, ,
0, ,325, ,
3, ,326, ,
0, ,323, ,
1, ,324, ,
1, ,325, ,
1, ,325, ,
0, ,325, ,
3, ,327, ,
1, ,323, ,
1, ,325, ,
1, ,323, ,
1, ,324, ,
0, ,324, ,
3, ,325, ,
1, ,323, ,
1, ,324, ,
3, ,324, ,
1, ,324, ,
0, ,323, ,
3, ,325, ,
0, ,324, ,
1, ,325, ,
3, ,325, ,
1, ,324, ,
0, ,324, ,
1, ,326, ,
1, ,323, ,
1, ,324, ,
1, ,325, ,
1, ,324, ,
0, ,323, ,
3, ,326, ,
1, ,324, ,
1, ,326, ,
3, ,324, ,
1, ,324, ,
0, ,323, ,
3, ,326, ,
1, ,324, ,
1, ,325, ,
3, ,325, ,
1, ,324, ,
0, ,324, ,
3, ,325, ,
1, ,323, ,
1, ,325, ,
1, ,324, ,
1, ,324, ,
0, ,325, ,
3, ,326, ,
1, ,323, ,
1, ,325, ,
1, ,325, ,
1, ,324, ,
0, ,324, ,
3, ,325, ,
1, ,324, ,
1, ,325, ,
3, ,323, ,
1, ,324, ,
0, ,323, ,
1, ,325, ,
0, ,321, ,
1, ,325, ,
3, ,325, ,
1, ,324, ,
0, ,324, ,
1, ,326, ,
1, ,324, ,
0, ,325, ,
1, ,324, ,
1, ,325, ,
0, ,325, ,
3, ,326, ,
1, ,323, ,
1, ,325, ,
1, ,325, ,
1, ,325, ,
0, ,324, ,
3, ,325, ,
0, ,324, ,
0, ,325, ,
3, ,323, ,
1, ,324, ,
0, ,324, ,
1, ,327, ,
1, ,323, ,
1, ,324, ,
3, ,324, ,
1, ,326, ,
0, ,324, ,
3, ,326, ,
0, ,324, ,
1, ,325, ,
1, ,324, ,
1, ,324, ,
0, ,325, ,
3, ,327, ,
1, ,323, ,
0, ,325, ,
1, ,325, ,
1, ,324, ,
0, ,324, ,
3, ,326, ,
0, ,325, ,
1, ,325, ,
3, ,325, ,
1, ,324, ,
0, ,325, ,
3, ,326, ,
1, ,323, ,
1, ,325, ,
1, ,325, ,
1, ,324, ,
0, ,324, ,
3, ,325, ,
0, ,324, ,
0, ,325, ,
