src/vary_led_1562/temp0000828.CSV

Format,1.0B,
Memory Length,10000,Memory Length,10000,
IntpDistance,0,IntpDistance,0,
Trigger Address,5159,Trigger Address,5159,
Trigger Level,3.000E-01,Trigger Level,3.000E-01,
Source,CH1,Source,CH2,
Vertical Units,V,Vertical Units,V,
Vertical Units Div,0,Vertical Units Div,0,
Vertical Units Extend Div,16,Vertical Units Extend Div,16,
Label,,Label,,
Probe Type,0,Probe Type,0,
Probe Ratio,1.000e+01,Probe Ratio,1.000e+00,
Vertical Scale,5.000e-01,Vertical Scale,2.000e-01,
Vertical Position,-1.780e+00,Vertical Position,-2.240e+00,
Horizontal Units,S,Horizontal Units,S,
Horizontal Scale,2.000E-05,Horizontal Scale,2.000E-05,
Horizontal Position,-3.200E-06,Horizontal Position,-3.200E-06,
Horizontal Mode,Main,Horizontal Mode,Main,
SincET Mode,Real Time,SincET Mode,Real Time,
Sampling Period,2.000e-08,Sampling Period,2.000e-08,
Horizontal Old Scale,2.000E-05,Horizontal Old Scale,2.000E-05,
Horizontal Old Position,-3.200E-06,Horizontal Old Position,-3.200E-06,
Firmware,V1.23,Firmware,V1.23,
Mode,Fast,Mode,Fast,
Waveform Data,,Waveform Data,,
1, ,205, ,
3, ,206, ,
1, ,206, ,
0, ,206, ,
3, ,205, ,
0, ,205, ,
1, ,205, ,
3, ,206, ,
1, ,205, ,
0, ,205, ,
3, ,205, ,
1, ,206, ,
0, ,205, ,
3, ,205, ,
1, ,206, ,
0, ,206, ,
3, ,205, ,
1, ,206, ,
1, ,205, ,
3, ,205, ,
1, ,205, ,
0, ,205, ,
3, ,205, ,
0, ,206, ,
1, ,203, ,
3, ,205, ,
1, ,206, ,
0, ,206, ,
3, ,205, ,
1, ,205, ,
1, ,206, ,
3, ,206, ,
1, ,206, ,
0, ,206, ,
3, ,206, ,
1, ,206, ,
1, ,205, ,
3, ,205, ,
1, ,206, ,
0, ,206, ,
3, ,205, ,
1, ,206, ,
1, ,205, ,
3, ,205, ,
1, ,205, ,
0, ,205, ,
3, ,206, ,
0, ,206, ,
1, ,203, ,
3, ,206, ,
1, ,206, ,
0, ,205, ,
3, ,203, ,
1, ,205, ,
0, ,206, ,
3, ,206, ,
1, ,205, ,
0, ,205, ,
3, ,205, ,
1, ,206, ,
1, ,205, ,
3, ,205, ,
1, ,206, ,
0, ,206, ,
3, ,203, ,
1, ,206, ,
0, ,205, ,
3, ,206, ,
1, ,205, ,
-1, ,205, ,
3, ,205, ,
1, ,205, ,
1, ,203, ,
3, ,206, ,
1, ,206, ,
0, ,206, ,
4, ,205, ,
1, ,205, ,
1, ,205, ,
3, ,206, ,
1, ,206, ,
0, ,205, ,
3, ,205, ,
0, ,206, ,
1, ,205, ,
1, ,205, ,
1, ,206, ,
0, ,206, ,
3, ,203, ,
1, ,206, ,
0, ,205, ,
3, ,206, ,
1, ,205, ,
0, ,205, ,
3, ,205, ,
1, ,206, ,
1, ,205, ,
3, ,203, ,
1, ,206, ,
0, ,205, ,
3, ,205, ,
0, ,205, ,
1, ,206, ,
3, ,205, ,
1, ,206, ,
0, ,206, ,
3, ,205, ,
1, ,206, ,
0, ,206, ,
3, ,206, ,
1, ,206, ,
0, ,206, ,
3, ,196, ,
0, ,205, ,
0, ,210, ,
3, ,209, ,
1, ,205, ,
0, ,202, ,
3, ,205, ,
0, ,207, ,
0, ,201, ,
3, ,203, ,
1, ,206, ,
0, ,206, ,
3, ,201, ,
0, ,205, ,
0, ,206, ,
3, ,205, ,
1, ,205, ,
-1, ,205, ,
3, ,205, ,
0, ,206, ,
0, ,203, ,
3, ,205, ,
1, ,207, ,
0, ,206, ,
3, ,205, ,
0, ,206, ,
0, ,206, ,
3, ,206, ,
1, ,205, ,
0, ,205, ,
3, ,206, ,
0, ,206, ,
0, ,205, ,
3, ,203, ,
1, ,207, ,
0, ,203, ,
3, ,203, ,
0, ,206, ,
0, ,206, ,
3, ,205, ,
1, ,205, ,
0, ,205, ,
3, ,206, ,
0, ,206, ,
0, ,205, ,
1, ,206, ,
1, ,206, ,
0, ,207, ,
3, ,203, ,
0, ,205, ,
0, ,206, ,
3, ,206, ,
1, ,205, ,
0, ,205, ,
3, ,205, ,
0, ,206, ,
0, ,206, ,
3, ,205, ,
1, ,206, ,
0, ,205, ,
3, ,205, ,
0, ,205, ,
0, ,205, ,
1, ,205, ,
1, ,206, ,
0, ,206, ,
3, ,205, ,
0, ,206, ,
0, ,205, ,
1, ,206, ,
1, ,206, ,
0, ,205, ,
3, ,205, ,
0, ,205, ,
0, ,205, ,
3, ,206, ,
1, ,206, ,
0, ,205, ,
3, ,206, ,
1, ,206, ,
0, ,206, ,
3, ,205, ,
1, ,206, ,
0, ,206, ,
3, ,203, ,
0, ,206, ,
0, ,206, ,
1, ,206, ,
1, ,205, ,
0, ,206, ,
3, ,206, ,
0, ,206, ,
0, ,205, ,
3, ,203, ,
1, ,207, ,
0, ,206, ,
3, ,203, ,
0, ,205, ,
0, ,205, ,
3, ,205, ,
1, ,206, ,
0, ,205, ,
3, ,206, ,
0, ,206, ,
0, ,203, ,
3, ,205, ,
1, ,206, ,
0, ,206, ,
3, ,203, ,
1, ,206, ,
0, ,205, ,
1, ,206, ,
1, ,206, ,
-1, ,206, ,
3, ,205, ,
0, ,206, ,
0, ,206, ,
1, ,205, ,
1, ,206, ,
0, ,206, ,
3, ,203, ,
0, ,205, ,
0, ,205, ,
1, ,206, ,
1, ,205, ,
-1, ,205, ,
3, ,205, ,
0, ,205, ,
0, ,203, ,
3, ,205, ,
1, ,207, ,
0, ,206, ,
3, ,205, ,
0, ,205, ,
0, ,206, ,
3, ,206, ,
1, ,206, ,
-1, ,206, ,
3, ,206, ,
0, ,206, ,
0, ,205, ,
3, ,206, ,
1, ,206, ,
0, ,206, ,
3, ,203, ,
0, ,206, ,
0, ,206, ,
1, ,206, ,
1, ,206, ,
-1, ,206, ,
3, ,205, ,
0, ,205, ,
0, ,203, ,
3, ,203, ,
1, ,205, ,
0, ,206, ,
3, ,205, ,
0, ,206, ,
0, ,206, ,
3, ,206, ,
1, ,206, ,
-1, ,205, ,
3, ,203, ,
0, ,206, ,
0, ,203, ,
1, ,206, ,
1, ,207, ,
0, ,206, ,
3, ,205, ,
0, ,205, ,
0, ,206, ,
1, ,206, ,
1, ,205, ,
0, ,203, ,
3, ,205, ,
0, ,206, ,
0, ,205, ,
3, ,205, ,
1, ,208, ,
0, ,205, ,
3, ,205, ,
0, ,206, ,
0, ,206, ,
3, ,206, ,
1, ,206, ,
-1, ,206, ,
3, ,206, ,
0, ,206, ,
0, ,205, ,
1, ,205, ,
1, ,207, ,
0, ,203, ,
3, ,205, ,
0, ,206, ,
0, ,206, ,
3, ,206, ,
1, ,206, ,
0, ,206, ,
3, ,206, ,
0, ,206, ,
0, ,203, ,
3, ,203, ,
1, ,206, ,
0, ,206, ,
3, ,206, ,
0, ,206, ,
0, ,206, ,
3, ,206, ,
1, ,205, ,
0, ,205, ,
3, ,206, ,
0, ,206, ,
0, ,205, ,
1, ,205, ,
1, ,207, ,
0, ,206, ,
3, ,206, ,
0, ,206, ,
0, ,205, ,
3, ,205, ,
1, ,206, ,
-1, ,205, ,
3, ,205, ,
0, ,205, ,
0, ,203, ,
1, ,205, ,
1, ,207, ,
0, ,205, ,
3, ,205, ,
0, ,205, ,
0, ,206, ,
3, ,206, ,
1, ,206, ,
-1, ,206, ,
3, ,206, ,
0, ,206, ,
0, ,203, ,
3, ,206, ,
1, ,207, ,
0, ,206, ,
3, ,206, ,
0, ,206, ,
0, ,206, ,
3, ,205, ,
1, ,205, ,
-1, ,205, ,
3, ,206, ,
0, ,206, ,
0, ,205, ,
1, ,205, ,
1, ,205, ,
0, ,206, ,
3, ,203, ,
0, ,206, ,
0, ,205, ,
3, ,206, ,
1, ,206, ,
-1, ,205, ,
3, ,206, ,
0, ,206, ,
0, ,203, ,
1, ,205, ,
1, ,207, ,
0, ,205, ,
3, ,205, ,
0, ,205, ,
0, ,205, ,
1, ,205, ,
1, ,206, ,
-1, ,205, ,
3, ,205, ,
0, ,206, ,
0, ,205, ,
3, ,203, ,
1, ,207, ,
-1, ,206, ,
3, ,206, ,
0, ,206, ,
0, ,206, ,
3, ,205, ,
1, ,206, ,
-1, ,206, ,
3, ,206, ,
0, ,206, ,
0, ,205, ,
1, ,205, ,
1, ,207, ,
0, ,206, ,
3, ,203, ,
0, ,205, ,
0, ,206, ,
3, ,206, ,
1, ,206, ,
-1, ,206, ,
3, ,206, ,
0, ,206, ,
0, ,203, ,
1, ,205, ,
1, ,206, ,
0, ,205, ,
3, ,203, ,
0, ,203, ,
0, ,202, ,
3, ,202, ,
1, ,206, ,
-1, ,207, ,
3, ,208, ,
0, ,208, ,
0, ,206, ,
1, ,205, ,
1, ,206, ,
0, ,205, ,
3, ,203, ,
0, ,205, ,
0, ,206, ,
3, ,206, ,
1, ,206, ,
0, ,205, ,
3, ,205, ,
0, ,206, ,
0, ,203, ,
3, ,203, ,
1, ,206, ,
0, ,205, ,
3, ,203, ,
0, ,205, ,
0, ,203, ,
3, ,205, ,
1, ,205, ,
-1, ,205, ,
3, ,206, ,
0, ,205, ,
0, ,203, ,
1, ,205, ,
1, ,206, ,
0, ,206, ,
3, ,206, ,
0, ,206, ,
0, ,205, ,
1, ,205, ,
1, ,205, ,
0, ,205, ,
3, ,206, ,
0, ,206, ,
0, ,203, ,
1, ,203, ,
1, ,206, ,
0, ,206, ,
3, ,203, ,
0, ,205, ,
0, ,205, ,
3, ,205, ,
1, ,205, ,
-1, ,205, ,
3, ,205, ,
0, ,207, ,
0, ,205, ,
1, ,203, ,
1, ,206, ,
0, ,205, ,
3, ,202, ,
0, ,205, ,
0, ,205, ,
1, ,206, ,
1, ,205, ,
-1, ,205, ,
3, ,205, ,
0, ,205, ,
0, ,205, ,
3, ,205, ,
1, ,205, ,
0, ,205, ,
3, ,202, ,
0, ,205, ,
0, ,205, ,
1, ,206, ,
1, ,205, ,
0, ,205, ,
3, ,205, ,
0, ,206, ,
0, ,203, ,
1, ,203, ,
1, ,207, ,
0, ,205, ,
3, ,205, ,
0, ,205, ,
0, ,205, ,
1, ,206, ,
1, ,206, ,
-1, ,206, ,
3, ,205, ,
0, ,206, ,
0, ,203, ,
1, ,202, ,
1, ,205, ,
-1, ,206, ,
3, ,205, ,
0, ,205, ,
0, ,205, ,
1, ,203, ,
1, ,205, ,
-1, ,206, ,
3, ,206, ,
0, ,206, ,
0, ,205, ,
1, ,205, ,
1, ,206, ,
0, ,206, ,
3, ,205, ,
0, ,206, ,
0, ,206, ,
1, ,205, ,
1, ,205, ,
-1, ,205, ,
3, ,206, ,
0, ,206, ,
0, ,206, ,
1, ,206, ,
1, ,207, ,
0, ,206, ,
3, ,203, ,
0, ,205, ,
0, ,205, ,
1, ,206, ,
1, ,206, ,
-1, ,206, ,
3, ,206, ,
0, ,206, ,
0, ,206, ,
3, ,206, ,
1, ,207, ,
0, ,206, ,
3, ,203, ,
0, ,206, ,
0, ,206, ,
1, ,206, ,
0, ,206, ,
-1, ,206, ,
3, ,205, ,
0, ,206, ,
0, ,202, ,
1, ,205, ,
1, ,206, ,
0, ,206, ,
3, ,205, ,
0, ,206, ,
0, ,206, ,
1, ,206, ,
1, ,206, ,
-1, ,206, ,
3, ,206, ,
0, ,206, ,
0, ,206, ,
1, ,205, ,
1, ,206, ,
0, ,206, ,
3, ,203, ,
0, ,206, ,
0, ,206, ,
1, ,205, ,
1, ,206, ,
-1, ,206, ,
3, ,206, ,
0, ,206, ,
0, ,206, ,
3, ,205, ,
1, ,206, ,
0, ,206, ,
3, ,203, ,
0, ,207, ,
0, ,205, ,
1, ,206, ,
1, ,205, ,
-1, ,205, ,
3, ,206, ,
0, ,206, ,
0, ,203, ,
1, ,206, ,
1, ,206, ,
0, ,206, ,
3, ,203, ,
0, ,205, ,
0, ,205, ,
3, ,206, ,
1, ,205, ,
-1, ,206, ,
3, ,205, ,
0, ,206, ,
0, ,205, ,
1, ,205, ,
1, ,207, ,
0, ,206, ,
3, ,205, ,
0, ,205, ,
0, ,206, ,
1, ,206, ,
1, ,206, ,
-1, ,205, ,
3, ,205, ,
0, ,206, ,
0, ,203, ,
1, ,205, ,
1, ,206, ,
0, ,205, ,
3, ,205, ,
0, ,206, ,
0, ,205, ,
1, ,205, ,
1, ,205, ,
0, ,205, ,
3, ,206, ,
0, ,206, ,
0, ,205, ,
1, ,205, ,
1, ,206, ,
0, ,206, ,
3, ,205, ,
0, ,206, ,
0, ,205, ,
1, ,206, ,
1, ,205, ,
-1, ,205, ,
3, ,206, ,
0, ,207, ,
0, ,205, ,
1, ,205, ,
1, ,206, ,
0, ,206, ,
3, ,205, ,
0, ,206, ,
0, ,206, ,
3, ,205, ,
1, ,206, ,
-1, ,206, ,
3, ,206, ,
0, ,206, ,
0, ,205, ,
1, ,205, ,
1, ,206, ,
-1, ,206, ,
3, ,203, ,
0, ,205, ,
0, ,206, ,
1, ,206, ,
1, ,206, ,
-1, ,205, ,
3, ,205, ,
0, ,207, ,
0, ,205, ,
1, ,206, ,
1, ,206, ,
0, ,206, ,
3, ,205, ,
0, ,206, ,
0, ,206, ,
1, ,206, ,
1, ,205, ,
-1, ,205, ,
3, ,206, ,
0, ,206, ,
0, ,205, ,
1, ,205, ,
1, ,206, ,
0, ,206, ,
3, ,203, ,
0, ,206, ,
0, ,206, ,
1, ,205, ,
1, ,206, ,
-1, ,206, ,
3, ,206, ,
0, ,206, ,
0, ,206, ,
1, ,203, ,
1, ,206, ,
0, ,206, ,
3, ,206, ,
0, ,205, ,
0, ,206, ,
1, ,203, ,
1, ,205, ,
-1, ,205, ,
3, ,206, ,
0, ,207, ,
0, ,206, ,
1, ,205, ,
1, ,206, ,
-1, ,206, ,
3, ,203, ,
0, ,205, ,
0, ,203, ,
1, ,206, ,
1, ,206, ,
-1, ,206, ,
3, ,206, ,
1, ,207, ,
0, ,203, ,
1, ,203, ,
0, ,207, ,
0, ,206, ,
3, ,206, ,
0, ,206, ,
0, ,206, ,
1, ,206, ,
0, ,205, ,
-1, ,205, ,
3, ,206, ,
0, ,205, ,
0, ,203, ,
1, ,205, ,
1, ,206, ,
0, ,206, ,
3, ,206, ,
0, ,206, ,
0, ,205, ,
1, ,206, ,
1, ,206, ,
-1, ,206, ,
3, ,205, ,
0, ,206, ,
0, ,206, ,
1, ,205, ,
0, ,206, ,
0, ,206, ,
3, ,205, ,
0, ,206, ,
0, ,205, ,
1, ,203, ,
1, ,205, ,
-1, ,206, ,
3, ,206, ,
0, ,206, ,
0, ,203, ,
3, ,206, ,
1, ,206, ,
-1, ,206, ,
3, ,203, ,
0, ,205, ,
0, ,205, ,
1, ,205, ,
1, ,205, ,
-1, ,205, ,
3, ,205, ,
0, ,208, ,
0, ,205, ,
1, ,205, ,
1, ,206, ,
0, ,206, ,
3, ,206, ,
0, ,205, ,
0, ,206, ,
1, ,205, ,
1, ,205, ,
-1, ,206, ,
3, ,206, ,
0, ,206, ,
0, ,205, ,
1, ,205, ,
1, ,206, ,
0, ,206, ,
3, ,205, ,
0, ,206, ,
0, ,205, ,
1, ,206, ,
1, ,206, ,
0, ,205, ,
3, ,206, ,
0, ,206, ,
0, ,206, ,
1, ,205, ,
1, ,207, ,
0, ,206, ,
1, ,206, ,
0, ,206, ,
0, ,206, ,
3, ,206, ,
1, ,205, ,
0, ,206, ,
3, ,203, ,
0, ,206, ,
0, ,205, ,
1, ,203, ,
1, ,206, ,
0, ,206, ,
3, ,206, ,
0, ,206, ,
0, ,205, ,
1, ,206, ,
1, ,205, ,
-1, ,206, ,
3, ,205, ,
0, ,206, ,
0, ,205, ,
1, ,205, ,
1, ,206, ,
0, ,206, ,
3, ,205, ,
0, ,206, ,
0, ,206, ,
3, ,206, ,
1, ,205, ,
-1, ,206, ,
3, ,205, ,
0, ,206, ,
0, ,206, ,
1, ,205, ,
1, ,205, ,
0, ,205, ,
3, ,205, ,
0, ,206, ,
0, ,205, ,
1, ,206, ,
1, ,206, ,
0, ,206, ,
3, ,206, ,
0, ,206, ,
0, ,205, ,
1, ,205, ,
1, ,208, ,
-1, ,206, ,
1, ,203, ,
0, ,206, ,
0, ,205, ,
3, ,205, ,
1, ,205, ,
-1, ,205, ,
3, ,206, ,
0, ,206, ,
0, ,205, ,
1, ,205, ,
1, ,206, ,
-1, ,206, ,
3, ,203, ,
0, ,205, ,
0, ,205, ,
1, ,205, ,
1, ,205, ,
-1, ,205, ,
3, ,205, ,
0, ,206, ,
0, ,203, ,
1, ,205, ,
1, ,207, ,
0, ,206, ,
3, ,205, ,
0, ,206, ,
0, ,206, ,
1, ,205, ,
0, ,206, ,
-1, ,205, ,
3, ,206, ,
0, ,205, ,
0, ,203, ,
1, ,206, ,
1, ,206, ,
-1, ,206, ,
3, ,203, ,
0, ,206, ,
0, ,205, ,
1, ,205, ,
1, ,206, ,
-1, ,205, ,
3, ,206, ,
0, ,207, ,
0, ,203, ,
1, ,205, ,
1, ,207, ,
0, ,206, ,
3, ,203, ,
0, ,205, ,
0, ,205, ,
1, ,206, ,
1, ,205, ,
-1, ,205, ,
3, ,206, ,
0, ,206, ,
0, ,205, ,
1, ,205, ,
1, ,207, ,
0, ,206, ,
3, ,203, ,
0, ,205, ,
0, ,206, ,
1, ,203, ,
1, ,205, ,
-1, ,206, ,
3, ,205, ,
0, ,206, ,
0, ,206, ,
1, ,203, ,
1, ,206, ,
0, ,206, ,
3, ,206, ,
0, ,205, ,
0, ,203, ,
3, ,206, ,
1, ,206, ,
-1, ,206, ,
3, ,206, ,
0, ,206, ,
0, ,203, ,
1, ,205, ,
1, ,206, ,
0, ,206, ,
3, ,205, ,
0, ,205, ,
0, ,203, ,
1, ,203, ,
1, ,205, ,
-1, ,206, ,
3, ,205, ,
0, ,206, ,
0, ,205, ,
1, ,203, ,
1, ,206, ,
0, ,206, ,
3, ,205, ,
0, ,207, ,
0, ,205, ,
3, ,205, ,
1, ,205, ,
-1, ,206, ,
1, ,206, ,
0, ,206, ,
0, ,205, ,
3, ,203, ,
1, ,206, ,
0, ,206, ,
3, ,205, ,
0, ,206, ,
0, ,205, ,
1, ,206, ,
1, ,205, ,
-1, ,205, ,
3, ,205, ,
0, ,207, ,
0, ,205, ,
1, ,203, ,
1, ,206, ,
0, ,206, ,
3, ,203, ,
0, ,205, ,
0, ,206, ,
1, ,205, ,
1, ,206, ,
-1, ,206, ,
3, ,206, ,
0, ,205, ,
0, ,205, ,
1, ,205, ,
1, ,206, ,
0, ,206, ,
3, ,203, ,
0, ,206, ,
0, ,205, ,
3, ,206, ,
1, ,206, ,
-1, ,206, ,
3, ,205, ,
0, ,206, ,
0, ,203, ,
1, ,203, ,
0, ,206, ,
-1, ,205, ,
3, ,203, ,
0, ,206, ,
0, ,205, ,
1, ,206, ,
1, ,205, ,
-1, ,206, ,
3, ,205, ,
0, ,206, ,
0, ,206, ,
1, ,206, ,
1, ,206, ,
-1, ,206, ,
3, ,205, ,
0, ,206, ,
0, ,205, ,
1, ,205, ,
1, ,206, ,
-1, ,205, ,
3, ,203, ,
0, ,206, ,
0, ,205, ,
1, ,205, ,
1, ,206, ,
0, ,206, ,
3, ,205, ,
0, ,207, ,
0, ,205, ,
3, ,205, ,
1, ,206, ,
0, ,206, ,
3, ,205, ,
0, ,206, ,
0, ,202, ,
3, ,205, ,
0, ,206, ,
0, ,206, ,
3, ,203, ,
0, ,205, ,
0, ,206, ,
1, ,206, ,
1, ,205, ,
0, ,205, ,
3, ,203, ,
0, ,207, ,
0, ,205, ,
1, ,203, ,
1, ,206, ,
0, ,205, ,
3, ,206, ,
0, ,206, ,
0, ,205, ,
1, ,205, ,
1, ,205, ,
-1, ,203, ,
3, ,205, ,
0, ,206, ,
0, ,205, ,
1, ,206, ,
1, ,206, ,
0, ,206, ,
3, ,205, ,
0, ,206, ,
0, ,205, ,
1, ,206, ,
1, ,206, ,
-1, ,206, ,
3, ,205, ,
0, ,206, ,
0, ,205, ,
1, ,203, ,
1, ,206, ,
-1, ,205, ,
3, ,203, ,
0, ,206, ,
0, ,206, ,
1, ,206, ,
1, ,206, ,
-1, ,205, ,
3, ,206, ,
0, ,205, ,
0, ,205, ,
1, ,206, ,
1, ,206, ,
0, ,206, ,
3, ,205, ,
0, ,205, ,
0, ,203, ,
1, ,205, ,
1, ,205, ,
-1, ,206, ,
3, ,205, ,
0, ,206, ,
0, ,205, ,
1, ,205, ,
1, ,206, ,
0, ,206, ,
3, ,205, ,
0, ,206, ,
0, ,206, ,
1, ,206, ,
1, ,205, ,
-1, ,205, ,
3, ,206, ,
0, ,206, ,
0, ,205, ,
1, ,205, ,
1, ,206, ,
-1, ,205, ,
3, ,203, ,
0, ,205, ,
0, ,206, ,
1, ,206, ,
1, ,205, ,
-1, ,205, ,
3, ,203, ,
0, ,206, ,
0, ,205, ,
1, ,205, ,
0, ,206, ,
0, ,205, ,
3, ,205, ,
0, ,205, ,
0, ,203, ,
1, ,206, ,
1, ,205, ,
-1, ,205, ,
3, ,206, ,
0, ,206, ,
0, ,205, ,
1, ,205, ,
0, ,206, ,
-1, ,206, ,
3, ,203, ,
0, ,203, ,
0, ,206, ,
1, ,206, ,
1, ,206, ,
-1, ,205, ,
3, ,203, ,
0, ,206, ,
0, ,205, ,
1, ,203, ,
1, ,205, ,
-1, ,203, ,
3, ,202, ,
0, ,206, ,
0, ,206, ,
1, ,206, ,
0, ,206, ,
-1, ,205, ,
3, ,205, ,
0, ,206, ,
0, ,203, ,
1, ,205, ,
1, ,205, ,
0, ,206, ,
3, ,205, ,
0, ,206, ,
0, ,205, ,
3, ,206, ,
1, ,205, ,
-1, ,205, ,
3, ,203, ,
0, ,205, ,
0, ,205, ,
1, ,206, ,
1, ,206, ,
-1, ,206, ,
3, ,203, ,
0, ,206, ,
0, ,206, ,
1, ,206, ,
1, ,206, ,
-1, ,206, ,
3, ,205, ,
0, ,207, ,
0, ,205, ,
1, ,205, ,
1, ,206, ,
0, ,206, ,
3, ,205, ,
0, ,203, ,
0, ,205, ,
1, ,206, ,
1, ,205, ,
-1, ,206, ,
3, ,206, ,
0, ,206, ,
0, ,205, ,
1, ,205, ,
1, ,206, ,
0, ,203, ,
3, ,205, ,
0, ,206, ,
0, ,206, ,
1, ,205, ,
1, ,206, ,
-1, ,205, ,
3, ,206, ,
0, ,205, ,
0, ,203, ,
1, ,205, ,
1, ,205, ,
-1, ,206, ,
3, ,203, ,
0, ,206, ,
0, ,205, ,
1, ,203, ,
1, ,205, ,
-1, ,206, ,
3, ,203, ,
0, ,206, ,
0, ,205, ,
1, ,203, ,
0, ,206, ,
0, ,206, ,
3, ,205, ,
0, ,206, ,
0, ,205, ,
1, ,206, ,
1, ,205, ,
-1, ,206, ,
3, ,205, ,
0, ,206, ,
0, ,205, ,
1, ,206, ,
1, ,206, ,
0, ,206, ,
3, ,203, ,
0, ,206, ,
0, ,205, ,
3, ,206, ,
1, ,206, ,
-1, ,205, ,
3, ,205, ,
0, ,206, ,
0, ,205, ,
1, ,203, ,
0, ,206, ,
-1, ,206, ,
3, ,205, ,
0, ,206, ,
0, ,206, ,
1, ,205, ,
1, ,205, ,
0, ,205, ,
3, ,203, ,
0, ,206, ,
0, ,205, ,
1, ,206, ,
1, ,206, ,
-1, ,206, ,
3, ,205, ,
0, ,206, ,
0, ,205, ,
1, ,203, ,
1, ,205, ,
-1, ,205, ,
3, ,206, ,
0, ,206, ,
0, ,205, ,
1, ,205, ,
1, ,206, ,
-1, ,206, ,
3, ,206, ,
0, ,205, ,
0, ,206, ,
1, ,205, ,
1, ,205, ,
-1, ,206, ,
3, ,205, ,
0, ,206, ,
0, ,205, ,
3, ,205, ,
0, ,206, ,
-1, ,205, ,
3, ,203, ,
0, ,205, ,
0, ,206, ,
1, ,206, ,
1, ,205, ,
-1, ,203, ,
3, ,205, ,
0, ,206, ,
0, ,205, ,
3, ,203, ,
1, ,206, ,
-1, ,206, ,
3, ,203, ,
0, ,205, ,
0, ,205, ,
3, ,206, ,
1, ,206, ,
-1, ,206, ,
3, ,205, ,
0, ,206, ,
0, ,205, ,
1, ,203, ,
1, ,206, ,
-1, ,205, ,
3, ,203, ,
0, ,206, ,
0, ,205, ,
1, ,205, ,
1, ,205, ,
-1, ,206, ,
3, ,203, ,
0, ,206, ,
0, ,205, ,
1, ,205, ,
1, ,205, ,
0, ,205, ,
3, ,203, ,
0, ,206, ,
0, ,206, ,
1, ,205, ,
1, ,205, ,
-1, ,205, ,
3, ,206, ,
0, ,205, ,
0, ,205, ,
1, ,203, ,
1, ,206, ,
0, ,205, ,
3, ,205, ,
0, ,206, ,
0, ,205, ,
3, ,206, ,
1, ,205, ,
-1, ,206, ,
3, ,206, ,
0, ,206, ,
0, ,203, ,
1, ,206, ,
1, ,206, ,
-1, ,205, ,
3, ,203, ,
0, ,205, ,
0, ,205, ,
3, ,206, ,
1, ,205, ,
-1, ,205, ,
3, ,203, ,
0, ,205, ,
0, ,206, ,
3, ,206, ,
0, ,206, ,
-1, ,205, ,
3, ,203, ,
0, ,206, ,
0, ,206, ,
1, ,203, ,
0, ,205, ,
-1, ,205, ,
3, ,206, ,
0, ,206, ,
0, ,205, ,
1, ,203, ,
0, ,206, ,
-1, ,206, ,
3, ,206, ,
0, ,205, ,
0, ,205, ,
1, ,205, ,
123, ,205, ,
74, ,206, ,
41, ,206, ,
25, ,206, ,
22, ,205, ,
14, ,205, ,
8, ,205, ,
3, ,206, ,
8, ,203, ,
4, ,205, ,
3, ,205, ,
4, ,206, ,
3, ,205, ,
3, ,205, ,
4, ,205, ,
3, ,208, ,
3, ,205, ,
4, ,203, ,
4, ,205, ,
1, ,206, ,
4, ,205, ,
1, ,205, ,
3, ,205, ,
4, ,205, ,
4, ,205, ,
1, ,205, ,
5, ,203, ,
3, ,206, ,
3, ,206, ,
4, ,205, ,
4, ,206, ,
1, ,206, ,
5, ,205, ,
1, ,206, ,
3, ,206, ,
4, ,206, ,
3, ,205, ,
1, ,206, ,
5, ,205, ,
3, ,206, ,
3, ,206, ,
4, ,206, ,
3, ,206, ,
1, ,206, ,
4, ,203, ,
1, ,205, ,
3, ,205, ,
4, ,206, ,
4, ,205, ,
1, ,206, ,
5, ,205, ,
3, ,206, ,
3, ,205, ,
4, ,205, ,
3, ,206, ,
1, ,206, ,
4, ,203, ,
1, ,206, ,
3, ,205, ,
4, ,206, ,
3, ,205, ,
1, ,205, ,
5, ,205, ,
1, ,206, ,
3, ,205, ,
4, ,203, ,
4, ,206, ,
1, ,203, ,
4, ,201, ,
3, ,202, ,
3, ,203, ,
4, ,206, ,
4, ,208, ,
1, ,208, ,
4, ,207, ,
1, ,206, ,
3, ,203, ,
4, ,201, ,
3, ,205, ,
1, ,205, ,
4, ,203, ,
3, ,206, ,
3, ,206, ,
4, ,206, ,
3, ,205, ,
1, ,203, ,
4, ,203, ,
1, ,206, ,
3, ,205, ,
4, ,203, ,
3, ,206, ,
1, ,205, ,
4, ,203, ,
1, ,205, ,
3, ,205, ,
4, ,206, ,
3, ,203, ,
1, ,205, ,
4, ,205, ,
3, ,206, ,
3, ,203, ,
3, ,205, ,
3, ,205, ,
1, ,205, ,
4, ,203, ,
3, ,203, ,
1, ,205, ,
3, ,206, ,
3, ,205, ,
1, ,205, ,
4, ,205, ,
1, ,205, ,
3, ,203, ,
4, ,203, ,
3, ,205, ,
1, ,205, ,
4, ,203, ,
1, ,205, ,
1, ,206, ,
4, ,203, ,
3, ,205, ,
1, ,203, ,
4, ,203, ,
1, ,206, ,
1, ,205, ,
3, ,206, ,
3, ,205, ,
1, ,206, ,
4, ,203, ,
1, ,205, ,
1, ,205, ,
3, ,205, ,
3, ,205, ,
1, ,205, ,
4, ,206, ,
1, ,205, ,
3, ,203, ,
4, ,203, ,
3, ,206, ,
0, ,206, ,
4, ,203, ,
1, ,205, ,
1, ,203, ,
4, ,206, ,
3, ,205, ,
1, ,203, ,
4, ,205, ,
1, ,206, ,
1, ,205, ,
3, ,203, ,
3, ,205, ,
1, ,205, ,
4, ,203, ,
1, ,205, ,
1, ,205, ,
4, ,205, ,
3, ,205, ,
1, ,205, ,
4, ,203, ,
1, ,206, ,
1, ,205, ,
3, ,205, ,
3, ,206, ,
1, ,205, ,
4, ,203, ,
1, ,205, ,
1, ,205, ,
3, ,205, ,
3, ,205, ,
0, ,205, ,
4, ,205, ,
1, ,207, ,
3, ,205, ,
3, ,205, ,
3, ,206, ,
1, ,206, ,
4, ,205, ,
1, ,206, ,
1, ,205, ,
4, ,205, ,
3, ,205, ,
0, ,205, ,
4, ,203, ,
1, ,206, ,
1, ,206, ,
3, ,207, ,
3, ,205, ,
1, ,206, ,
3, ,205, ,
1, ,206, ,
3, ,206, ,
3, ,206, ,
3, ,206, ,
0, ,205, ,
4, ,206, ,
1, ,205, ,
1, ,205, ,
3, ,206, ,
3, ,207, ,
0, ,206, ,
4, ,206, ,
1, ,206, ,
1, ,206, ,
3, ,206, ,
3, ,206, ,
0, ,203, ,
4, ,203, ,
1, ,203, ,
1, ,205, ,
3, ,206, ,
1, ,206, ,
0, ,206, ,
4, ,205, ,
1, ,206, ,
1, ,206, ,
3, ,203, ,
3, ,205, ,
0, ,205, ,
3, ,206, ,
1, ,206, ,
1, ,205, ,
3, ,205, ,
3, ,205, ,
0, ,206, ,
4, ,203, ,
1, ,206, ,
1, ,206, ,
3, ,206, ,
1, ,206, ,
0, ,206, ,
3, ,207, ,
1, ,206, ,
1, ,205, ,
3, ,203, ,
3, ,205, ,
0, ,205, ,
4, ,206, ,
1, ,206, ,
1, ,205, ,
3, ,205, ,
3, ,206, ,
0, ,205, ,
4, ,205, ,
1, ,206, ,
1, ,205, ,
3, ,205, ,
3, ,206, ,
0, ,206, ,
3, ,203, ,
1, ,205, ,
1, ,205, ,
3, ,206, ,
3, ,206, ,
0, ,205, ,
4, ,205, ,
1, ,205, ,
1, ,206, ,
3, ,205, ,
1, ,207, ,
0, ,207, ,
3, ,203, ,
1, ,206, ,
1, ,206, ,
3, ,206, ,
3, ,206, ,
0, ,205, ,
3, ,205, ,
1, ,206, ,
1, ,205, ,
3, ,205, ,
1, ,206, ,
0, ,206, ,
3, ,203, ,
1, ,206, ,
1, ,206, ,
3, ,206, ,
3, ,206, ,
0, ,205, ,
3, ,205, ,
1, ,206, ,
1, ,205, ,
3, ,203, ,
1, ,207, ,
0, ,206, ,
3, ,205, ,
1, ,206, ,
1, ,206, ,
3, ,206, ,
3, ,205, ,
0, ,205, ,
3, ,205, ,
1, ,206, ,
1, ,205, ,
3, ,205, ,
1, ,205, ,
0, ,206, ,
4, ,203, ,
1, ,206, ,
1, ,206, ,
3, ,206, ,
1, ,205, ,
0, ,205, ,
3, ,206, ,
1, ,206, ,
1, ,205, ,
3, ,205, ,
1, ,206, ,
0, ,206, ,
3, ,203, ,
1, ,206, ,
1, ,206, ,
3, ,206, ,
3, ,205, ,
0, ,205, ,
3, ,205, ,
1, ,205, ,
1, ,205, ,
3, ,203, ,
3, ,206, ,
0, ,206, ,
3, ,205, ,
1, ,205, ,
1, ,205, ,
3, ,206, ,
1, ,205, ,
0, ,205, ,
4, ,206, ,
1, ,206, ,
1, ,205, ,
3, ,205, ,
1, ,206, ,
0, ,205, ,
4, ,203, ,
1, ,206, ,
1, ,206, ,
3, ,206, ,
1, ,207, ,
0, ,205, ,
3, ,203, ,
1, ,206, ,
1, ,206, ,
3, ,206, ,
1, ,206, ,
0, ,205, ,
3, ,205, ,
1, ,205, ,
1, ,205, ,
3, ,206, ,
1, ,206, ,
-1, ,206, ,
3, ,206, ,
0, ,207, ,
1, ,206, ,
3, ,205, ,
3, ,206, ,
0, ,206, ,
4, ,205, ,
1, ,206, ,
0, ,206, ,
3, ,206, ,
1, ,206, ,
0, ,206, ,
3, ,203, ,
1, ,206, ,
1, ,205, ,
3, ,205, ,
1, ,206, ,
0, ,206, ,
3, ,203, ,
1, ,206, ,
1, ,205, ,
3, ,206, ,
