src/vary_led_1562/temp0006209.CSV

Format,1.0B,
Memory Length,10000,Memory Length,10000,
IntpDistance,0,IntpDistance,0,
Trigger Address,5159,Trigger Address,5159,
Trigger Level,3.000E-01,Trigger Level,3.000E-01,
Source,CH1,Source,CH2,
Vertical Units,V,Vertical Units,V,
Vertical Units Div,0,Vertical Units Div,0,
Vertical Units Extend Div,16,Vertical Units Extend Div,16,
Label,,Label,,
Probe Type,0,Probe Type,0,
Probe Ratio,1.000e+01,Probe Ratio,1.000e+00,
Vertical Scale,5.000e-01,Vertical Scale,2.000e-01,
Vertical Position,-1.780e+00,Vertical Position,-2.240e+00,
Horizontal Units,S,Horizontal Units,S,
Horizontal Scale,2.000E-05,Horizontal Scale,2.000E-05,
Horizontal Position,-3.200E-06,Horizontal Position,-3.200E-06,
Horizontal Mode,Main,Horizontal Mode,Main,
SincET Mode,Real Time,SincET Mode,Real Time,
Sampling Period,2.000e-08,Sampling Period,2.000e-08,
Horizontal Old Scale,2.000E-05,Horizontal Old Scale,2.000E-05,
Horizontal Old Position,-3.200E-06,Horizontal Old Position,-3.200E-06,
Firmware,V1.23,Firmware,V1.23,
Mode,Fast,Mode,Fast,
Waveform Data,,Waveform Data,,
4, ,312, ,
3, ,312, ,
4, ,312, ,
3, ,312, ,
3, ,312, ,
4, ,312, ,
3, ,310, ,
1, ,312, ,
4, ,312, ,
3, ,312, ,
3, ,311, ,
4, ,313, ,
3, ,311, ,
1, ,313, ,
4, ,311, ,
3, ,312, ,
3, ,311, ,
3, ,314, ,
3, ,310, ,
1, ,312, ,
4, ,311, ,
1, ,313, ,
3, ,312, ,
3, ,313, ,
3, ,312, ,
1, ,312, ,
4, ,311, ,
1, ,312, ,
3, ,312, ,
3, ,313, ,
3, ,311, ,
1, ,312, ,
4, ,311, ,
3, ,312, ,
3, ,312, ,
3, ,312, ,
3, ,312, ,
1, ,313, ,
4, ,311, ,
3, ,312, ,
3, ,311, ,
3, ,313, ,
3, ,311, ,
3, ,312, ,
4, ,311, ,
1, ,312, ,
3, ,311, ,
3, ,312, ,
3, ,312, ,
1, ,312, ,
4, ,311, ,
1, ,311, ,
3, ,311, ,
3, ,312, ,
3, ,310, ,
1, ,312, ,
4, ,312, ,
3, ,312, ,
3, ,311, ,
3, ,312, ,
3, ,312, ,
1, ,313, ,
4, ,311, ,
3, ,313, ,
3, ,312, ,
3, ,313, ,
3, ,308, ,
1, ,311, ,
4, ,312, ,
1, ,312, ,
3, ,312, ,
3, ,312, ,
3, ,312, ,
1, ,312, ,
4, ,312, ,
3, ,312, ,
3, ,311, ,
3, ,312, ,
3, ,311, ,
1, ,312, ,
4, ,311, ,
3, ,312, ,
1, ,311, ,
3, ,313, ,
3, ,312, ,
1, ,313, ,
4, ,312, ,
1, ,312, ,
3, ,312, ,
3, ,313, ,
3, ,310, ,
1, ,312, ,
4, ,311, ,
3, ,312, ,
3, ,312, ,
3, ,314, ,
3, ,312, ,
1, ,311, ,
4, ,311, ,
1, ,312, ,
5, ,311, ,
44, ,313, ,
30, ,310, ,
18, ,312, ,
13, ,312, ,
10, ,312, ,
8, ,311, ,
5, ,312, ,
4, ,312, ,
3, ,312, ,
5, ,312, ,
3, ,311, ,
3, ,312, ,
4, ,313, ,
4, ,310, ,
1, ,312, ,
4, ,312, ,
3, ,312, ,
3, ,312, ,
4, ,312, ,
4, ,312, ,
3, ,313, ,
4, ,311, ,
1, ,313, ,
3, ,311, ,
4, ,313, ,
4, ,310, ,
1, ,312, ,
4, ,312, ,
3, ,312, ,
3, ,310, ,
4, ,314, ,
4, ,312, ,
1, ,312, ,
4, ,311, ,
3, ,312, ,
3, ,312, ,
3, ,313, ,
4, ,310, ,
1, ,312, ,
4, ,312, ,
3, ,311, ,
3, ,311, ,
4, ,313, ,
3, ,312, ,
1, ,314, ,
4, ,312, ,
3, ,311, ,
3, ,311, ,
4, ,313, ,
4, ,310, ,
1, ,312, ,
4, ,311, ,
1, ,312, ,
3, ,312, ,
4, ,312, ,
4, ,311, ,
1, ,312, ,
4, ,312, ,
3, ,312, ,
3, ,312, ,
4, ,313, ,
3, ,310, ,
1, ,312, ,
4, ,311, ,
1, ,312, ,
3, ,311, ,
3, ,312, ,
4, ,311, ,
1, ,312, ,
4, ,311, ,
3, ,311, ,
3, ,312, ,
3, ,313, ,
3, ,312, ,
1, ,312, ,
4, ,311, ,
1, ,312, ,
3, ,312, ,
3, ,312, ,
3, ,312, ,
3, ,312, ,
4, ,311, ,
1, ,312, ,
3, ,311, ,
3, ,313, ,
3, ,311, ,
1, ,312, ,
4, ,311, ,
3, ,311, ,
3, ,311, ,
3, ,312, ,
3, ,311, ,
1, ,312, ,
4, ,311, ,
1, ,312, ,
3, ,311, ,
3, ,312, ,
3, ,310, ,
1, ,313, ,
4, ,312, ,
3, ,312, ,
3, ,312, ,
3, ,313, ,
3, ,312, ,
1, ,312, ,
4, ,312, ,
1, ,313, ,
3, ,311, ,
3, ,312, ,
3, ,310, ,
1, ,312, ,
4, ,312, ,
3, ,312, ,
3, ,311, ,
3, ,312, ,
3, ,312, ,
1, ,312, ,
4, ,311, ,
3, ,312, ,
1, ,312, ,
3, ,313, ,
3, ,311, ,
1, ,312, ,
4, ,312, ,
1, ,312, ,
3, ,312, ,
3, ,313, ,
3, ,312, ,
1, ,313, ,
4, ,311, ,
3, ,312, ,
3, ,311, ,
3, ,312, ,
3, ,311, ,
1, ,312, ,
4, ,312, ,
1, ,312, ,
3, ,312, ,
3, ,312, ,
3, ,311, ,
1, ,313, ,
4, ,311, ,
1, ,312, ,
3, ,312, ,
3, ,313, ,
3, ,311, ,
1, ,312, ,
4, ,312, ,
3, ,312, ,
1, ,311, ,
3, ,313, ,
3, ,312, ,
1, ,312, ,
4, ,311, ,
1, ,312, ,
3, ,311, ,
3, ,312, ,
3, ,311, ,
1, ,313, ,
4, ,312, ,
1, ,313, ,
3, ,312, ,
3, ,313, ,
3, ,312, ,
1, ,314, ,
4, ,310, ,
1, ,313, ,
3, ,312, ,
3, ,313, ,
3, ,311, ,
1, ,312, ,
3, ,312, ,
3, ,312, ,
3, ,312, ,
3, ,313, ,
3, ,312, ,
1, ,311, ,
4, ,311, ,
1, ,312, ,
1, ,311, ,
3, ,313, ,
3, ,312, ,
1, ,312, ,
4, ,311, ,
1, ,311, ,
3, ,311, ,
3, ,311, ,
3, ,309, ,
1, ,311, ,
4, ,310, ,
1, ,314, ,
3, ,316, ,
3, ,316, ,
3, ,310, ,
1, ,309, ,
4, ,309, ,
3, ,312, ,
3, ,312, ,
3, ,312, ,
3, ,312, ,
1, ,312, ,
3, ,311, ,
1, ,312, ,
1, ,311, ,
3, ,313, ,
3, ,310, ,
1, ,311, ,
3, ,311, ,
1, ,312, ,
1, ,311, ,
3, ,313, ,
3, ,312, ,
1, ,312, ,
4, ,311, ,
1, ,311, ,
3, ,311, ,
3, ,313, ,
3, ,312, ,
1, ,312, ,
3, ,312, ,
1, ,312, ,
3, ,312, ,
3, ,312, ,
3, ,311, ,
1, ,312, ,
3, ,311, ,
1, ,312, ,
1, ,312, ,
3, ,312, ,
3, ,310, ,
1, ,312, ,
4, ,311, ,
3, ,311, ,
1, ,310, ,
3, ,312, ,
3, ,311, ,
1, ,312, ,
3, ,311, ,
1, ,312, ,
1, ,311, ,
3, ,313, ,
1, ,310, ,
1, ,313, ,
3, ,311, ,
1, ,312, ,
3, ,311, ,
3, ,312, ,
3, ,310, ,
1, ,313, ,
4, ,312, ,
1, ,311, ,
1, ,311, ,
3, ,312, ,
3, ,311, ,
1, ,312, ,
4, ,311, ,
1, ,312, ,
1, ,311, ,
3, ,313, ,
3, ,312, ,
1, ,312, ,
3, ,310, ,
1, ,312, ,
1, ,311, ,
3, ,312, ,
3, ,312, ,
1, ,313, ,
4, ,311, ,
1, ,311, ,
3, ,311, ,
3, ,313, ,
1, ,311, ,
1, ,312, ,
3, ,311, ,
1, ,311, ,
1, ,311, ,
1, ,313, ,
1, ,310, ,
1, ,312, ,
3, ,311, ,
1, ,312, ,
1, ,311, ,
3, ,312, ,
3, ,311, ,
1, ,312, ,
3, ,311, ,
1, ,311, ,
1, ,310, ,
3, ,312, ,
1, ,312, ,
1, ,312, ,
3, ,311, ,
1, ,312, ,
1, ,311, ,
3, ,313, ,
1, ,312, ,
1, ,313, ,
3, ,312, ,
1, ,312, ,
1, ,311, ,
3, ,312, ,
1, ,312, ,
1, ,313, ,
3, ,312, ,
1, ,313, ,
1, ,313, ,
3, ,312, ,
1, ,311, ,
1, ,312, ,
3, ,311, ,
1, ,312, ,
1, ,312, ,
3, ,314, ,
1, ,312, ,
1, ,312, ,
3, ,312, ,
1, ,312, ,
1, ,311, ,
1, ,314, ,
3, ,312, ,
1, ,312, ,
3, ,312, ,
1, ,312, ,
1, ,312, ,
3, ,314, ,
3, ,312, ,
0, ,313, ,
3, ,311, ,
1, ,312, ,
3, ,312, ,
3, ,312, ,
3, ,312, ,
1, ,312, ,
3, ,312, ,
1, ,312, ,
1, ,313, ,
3, ,313, ,
3, ,310, ,
0, ,312, ,
3, ,312, ,
1, ,312, ,
1, ,311, ,
3, ,312, ,
3, ,312, ,
1, ,312, ,
3, ,311, ,
1, ,312, ,
3, ,312, ,
1, ,314, ,
1, ,311, ,
0, ,312, ,
3, ,312, ,
1, ,312, ,
1, ,312, ,
3, ,314, ,
1, ,312, ,
1, ,312, ,
3, ,312, ,
1, ,312, ,
1, ,312, ,
3, ,313, ,
1, ,311, ,
0, ,312, ,
3, ,312, ,
1, ,313, ,
1, ,312, ,
1, ,312, ,
1, ,312, ,
1, ,314, ,
3, ,311, ,
1, ,312, ,
1, ,311, ,
3, ,313, ,
3, ,311, ,
1, ,313, ,
3, ,312, ,
1, ,312, ,
1, ,312, ,
3, ,312, ,
1, ,311, ,
0, ,312, ,
3, ,310, ,
1, ,312, ,
1, ,312, ,
3, ,312, ,
1, ,310, ,
0, ,312, ,
3, ,312, ,
1, ,313, ,
1, ,311, ,
3, ,312, ,
1, ,312, ,
0, ,313, ,
3, ,311, ,
1, ,312, ,
1, ,312, ,
1, ,312, ,
3, ,310, ,
0, ,312, ,
3, ,312, ,
1, ,312, ,
1, ,311, ,
3, ,313, ,
1, ,311, ,
0, ,312, ,
3, ,311, ,
1, ,311, ,
1, ,311, ,
1, ,312, ,
1, ,312, ,
0, ,312, ,
3, ,312, ,
1, ,312, ,
1, ,312, ,
3, ,313, ,
3, ,313, ,
0, ,312, ,
3, ,311, ,
1, ,312, ,
1, ,312, ,
3, ,314, ,
1, ,311, ,
0, ,312, ,
3, ,312, ,
1, ,311, ,
1, ,310, ,
1, ,312, ,
1, ,312, ,
0, ,312, ,
3, ,311, ,
1, ,311, ,
1, ,312, ,
3, ,312, ,
3, ,311, ,
0, ,312, ,
3, ,312, ,
1, ,312, ,
1, ,311, ,
3, ,313, ,
1, ,312, ,
0, ,312, ,
3, ,311, ,
1, ,312, ,
1, ,312, ,
3, ,312, ,
1, ,311, ,
0, ,312, ,
3, ,312, ,
1, ,312, ,
1, ,311, ,
3, ,313, ,
1, ,312, ,
0, ,313, ,
3, ,312, ,
1, ,312, ,
1, ,312, ,
1, ,312, ,
1, ,311, ,
0, ,312, ,
3, ,312, ,
1, ,313, ,
1, ,311, ,
3, ,312, ,
1, ,312, ,
0, ,312, ,
3, ,312, ,
1, ,312, ,
1, ,311, ,
1, ,314, ,
1, ,311, ,
0, ,312, ,
3, ,312, ,
1, ,312, ,
1, ,311, ,
3, ,312, ,
3, ,312, ,
0, ,312, ,
3, ,312, ,
1, ,312, ,
1, ,312, ,
3, ,313, ,
1, ,311, ,
0, ,312, ,
3, ,313, ,
1, ,312, ,
1, ,311, ,
1, ,313, ,
1, ,311, ,
0, ,314, ,
3, ,311, ,
1, ,312, ,
1, ,312, ,
3, ,312, ,
1, ,310, ,
0, ,312, ,
3, ,312, ,
1, ,312, ,
1, ,312, ,
3, ,312, ,
1, ,312, ,
0, ,311, ,
3, ,312, ,
1, ,312, ,
1, ,311, ,
3, ,312, ,
1, ,310, ,
0, ,312, ,
3, ,312, ,
1, ,312, ,
1, ,311, ,
3, ,313, ,
1, ,312, ,
0, ,312, ,
3, ,311, ,
1, ,312, ,
1, ,311, ,
3, ,312, ,
1, ,310, ,
0, ,312, ,
3, ,312, ,
1, ,312, ,
1, ,311, ,
3, ,312, ,
1, ,311, ,
0, ,312, ,
3, ,311, ,
1, ,312, ,
1, ,312, ,
1, ,313, ,
1, ,311, ,
0, ,312, ,
3, ,312, ,
1, ,312, ,
1, ,312, ,
3, ,312, ,
1, ,312, ,
0, ,312, ,
3, ,311, ,
1, ,312, ,
1, ,311, ,
1, ,313, ,
1, ,312, ,
0, ,313, ,
3, ,312, ,
1, ,312, ,
1, ,311, ,
3, ,313, ,
1, ,311, ,
0, ,312, ,
3, ,312, ,
1, ,311, ,
1, ,312, ,
1, ,313, ,
1, ,311, ,
0, ,312, ,
3, ,311, ,
1, ,312, ,
1, ,312, ,
1, ,312, ,
1, ,312, ,
0, ,312, ,
3, ,312, ,
1, ,312, ,
1, ,311, ,
3, ,313, ,
1, ,312, ,
0, ,312, ,
3, ,312, ,
1, ,312, ,
1, ,311, ,
1, ,313, ,
1, ,311, ,
0, ,312, ,
3, ,311, ,
1, ,312, ,
1, ,312, ,
3, ,312, ,
1, ,311, ,
0, ,312, ,
3, ,312, ,
1, ,312, ,
1, ,311, ,
1, ,312, ,
1, ,312, ,
0, ,312, ,
3, ,312, ,
1, ,311, ,
1, ,312, ,
1, ,313, ,
1, ,311, ,
0, ,312, ,
3, ,312, ,
1, ,313, ,
1, ,312, ,
3, ,313, ,
1, ,312, ,
0, ,312, ,
3, ,311, ,
1, ,312, ,
1, ,312, ,
1, ,312, ,
1, ,311, ,
0, ,313, ,
3, ,312, ,
1, ,312, ,
95, ,311, ,
60, ,313, ,
33, ,312, ,
19, ,312, ,
16, ,311, ,
11, ,311, ,
6, ,312, ,
5, ,312, ,
5, ,311, ,
4, ,313, ,
5, ,312, ,
3, ,312, ,
3, ,311, ,
4, ,312, ,
4, ,311, ,
1, ,313, ,
4, ,312, ,
3, ,312, ,
3, ,311, ,
4, ,312, ,
4, ,311, ,
1, ,312, ,
4, ,312, ,
3, ,313, ,
3, ,312, ,
4, ,312, ,
4, ,312, ,
3, ,312, ,
4, ,311, ,
3, ,311, ,
3, ,310, ,
4, ,312, ,
3, ,312, ,
3, ,313, ,
4, ,312, ,
1, ,312, ,
3, ,311, ,
4, ,312, ,
4, ,312, ,
1, ,311, ,
4, ,311, ,
1, ,312, ,
3, ,312, ,
4, ,312, ,
3, ,312, ,
1, ,312, ,
4, ,312, ,
3, ,312, ,
3, ,311, ,
4, ,313, ,
4, ,311, ,
3, ,313, ,
4, ,312, ,
3, ,312, ,
3, ,311, ,
3, ,312, ,
4, ,310, ,
1, ,311, ,
4, ,311, ,
1, ,312, ,
3, ,311, ,
3, ,313, ,
3, ,312, ,
1, ,312, ,
4, ,311, ,
1, ,312, ,
3, ,311, ,
4, ,313, ,
3, ,311, ,
1, ,312, ,
4, ,311, ,
3, ,312, ,
3, ,312, ,
3, ,312, ,
3, ,312, ,
1, ,313, ,
4, ,311, ,
3, ,311, ,
3, ,312, ,
3, ,312, ,
3, ,312, ,
1, ,312, ,
4, ,312, ,
1, ,312, ,
3, ,311, ,
3, ,314, ,
3, ,312, ,
1, ,312, ,
4, ,311, ,
1, ,312, ,
3, ,312, ,
3, ,314, ,
3, ,311, ,
1, ,312, ,
4, ,312, ,
3, ,312, ,
3, ,311, ,
3, ,312, ,
3, ,312, ,
1, ,313, ,
4, ,311, ,
3, ,312, ,
1, ,311, ,
3, ,314, ,
3, ,311, ,
1, ,312, ,
4, ,312, ,
1, ,312, ,
3, ,310, ,
3, ,312, ,
3, ,312, ,
1, ,312, ,
4, ,312, ,
1, ,312, ,
3, ,311, ,
3, ,313, ,
3, ,312, ,
1, ,312, ,
4, ,312, ,
3, ,312, ,
3, ,312, ,
3, ,312, ,
3, ,312, ,
1, ,314, ,
4, ,311, ,
3, ,312, ,
3, ,312, ,
3, ,314, ,
3, ,311, ,
1, ,312, ,
4, ,312, ,
1, ,312, ,
3, ,312, ,
3, ,312, ,
3, ,312, ,
1, ,312, ,
4, ,312, ,
1, ,312, ,
3, ,311, ,
3, ,313, ,
3, ,311, ,
1, ,312, ,
4, ,311, ,
1, ,312, ,
3, ,311, ,
3, ,314, ,
3, ,311, ,
1, ,313, ,
4, ,311, ,
1, ,311, ,
3, ,312, ,
3, ,312, ,
3, ,312, ,
1, ,312, ,
4, ,312, ,
3, ,312, ,
3, ,311, ,
3, ,313, ,
3, ,311, ,
1, ,312, ,
4, ,311, ,
1, ,312, ,
3, ,312, ,
3, ,313, ,
3, ,312, ,
1, ,312, ,
4, ,312, ,
3, ,312, ,
3, ,311, ,
3, ,312, ,
3, ,312, ,
1, ,313, ,
4, ,311, ,
1, ,311, ,
1, ,311, ,
3, ,312, ,
3, ,311, ,
1, ,312, ,
3, ,312, ,
1, ,312, ,
3, ,312, ,
3, ,312, ,
3, ,312, ,
1, ,312, ,
3, ,311, ,
1, ,312, ,
3, ,311, ,
3, ,313, ,
3, ,311, ,
1, ,313, ,
4, ,312, ,
1, ,312, ,
3, ,311, ,
3, ,312, ,
3, ,311, ,
1, ,312, ,
3, ,311, ,
1, ,311, ,
1, ,312, ,
3, ,313, ,
3, ,311, ,
1, ,313, ,
4, ,312, ,
1, ,312, ,
3, ,312, ,
3, ,313, ,
3, ,311, ,
1, ,313, ,
3, ,311, ,
1, ,311, ,
1, ,311, ,
3, ,313, ,
3, ,311, ,
1, ,311, ,
3, ,312, ,
1, ,312, ,
3, ,310, ,
3, ,313, ,
3, ,312, ,
1, ,312, ,
4, ,312, ,
1, ,311, ,
1, ,312, ,
3, ,312, ,
3, ,311, ,
1, ,312, ,
3, ,311, ,
3, ,312, ,
3, ,312, ,
3, ,312, ,
3, ,311, ,
1, ,309, ,
3, ,308, ,
1, ,312, ,
1, ,317, ,
3, ,317, ,
1, ,310, ,
1, ,310, ,
3, ,311, ,
1, ,312, ,
3, ,311, ,
3, ,313, ,
3, ,312, ,
1, ,312, ,
3, ,311, ,
1, ,312, ,
1, ,311, ,
3, ,314, ,
3, ,311, ,
1, ,313, ,
4, ,312, ,
1, ,313, ,
3, ,312, ,
3, ,312, ,
1, ,311, ,
1, ,312, ,
3, ,311, ,
1, ,311, ,
1, ,311, ,
3, ,312, ,
1, ,312, ,
0, ,314, ,
4, ,312, ,
1, ,313, ,
3, ,311, ,
3, ,312, ,
1, ,311, ,
1, ,313, ,
4, ,311, ,
1, ,312, ,
1, ,312, ,
3, ,312, ,
1, ,311, ,
0, ,312, ,
3, ,311, ,
1, ,313, ,
1, ,312, ,
3, ,312, ,
1, ,310, ,
0, ,312, ,
3, ,311, ,
1, ,311, ,
1, ,312, ,
3, ,313, ,
1, ,312, ,
0, ,312, ,
3, ,312, ,
1, ,312, ,
1, ,312, ,
3, ,312, ,
1, ,311, ,
0, ,312, ,
3, ,311, ,
1, ,312, ,
1, ,311, ,
3, ,312, ,
1, ,310, ,
0, ,313, ,
4, ,311, ,
1, ,311, ,
1, ,312, ,
3, ,312, ,
1, ,311, ,
0, ,312, ,
3, ,311, ,
1, ,312, ,
1, ,311, ,
3, ,313, ,
1, ,311, ,
0, ,312, ,
4, ,312, ,
1, ,312, ,
1, ,310, ,
3, ,313, ,
1, ,311, ,
0, ,312, ,
3, ,312, ,
1, ,312, ,
1, ,312, ,
3, ,312, ,
1, ,310, ,
0, ,312, ,
3, ,311, ,
1, ,312, ,
1, ,311, ,
3, ,312, ,
1, ,312, ,
0, ,312, ,
3, ,311, ,
1, ,312, ,
1, ,311, ,
1, ,312, ,
1, ,310, ,
0, ,312, ,
3, ,312, ,
1, ,312, ,
3, ,311, ,
3, ,314, ,
3, ,311, ,
0, ,314, ,
3, ,312, ,
1, ,312, ,
1, ,311, ,
3, ,313, ,
3, ,311, ,
0, ,312, ,
3, ,312, ,
1, ,312, ,
1, ,312, ,
3, ,312, ,
1, ,312, ,
0, ,313, ,
3, ,311, ,
1, ,312, ,
1, ,311, ,
3, ,313, ,
1, ,310, ,
0, ,312, ,
3, ,312, ,
1, ,312, ,
1, ,311, ,
3, ,312, ,
1, ,311, ,
0, ,313, ,
3, ,312, ,
1, ,312, ,
1, ,312, ,
3, ,313, ,
1, ,311, ,
0, ,313, ,
3, ,312, ,
1, ,312, ,
1, ,311, ,
3, ,312, ,
1, ,312, ,
0, ,312, ,
3, ,311, ,
1, ,312, ,
1, ,312, ,
3, ,313, ,
1, ,310, ,
0, ,312, ,
3, ,312, ,
1, ,312, ,
1, ,311, ,
3, ,312, ,
1, ,311, ,
0, ,312, ,
3, ,311, ,
1, ,313, ,
1, ,311, ,
1, ,312, ,
1, ,310, ,
0, ,312, ,
3, ,312, ,
1, ,312, ,
1, ,312, ,
1, ,312, ,
3, ,312, ,
0, ,313, ,
3, ,312, ,
1, ,312, ,
1, ,311, ,
3, ,313, ,
3, ,310, ,
0, ,311, ,
3, ,311, ,
1, ,312, ,
1, ,311, ,
3, ,312, ,
1, ,312, ,
1, ,313, ,
3, ,311, ,
1, ,312, ,
1, ,311, ,
1, ,312, ,
1, ,311, ,
0, ,312, ,
3, ,312, ,
1, ,312, ,
1, ,312, ,
1, ,312, ,
1, ,311, ,
0, ,312, ,
3, ,312, ,
1, ,312, ,
1, ,312, ,
3, ,312, ,
3, ,311, ,
0, ,312, ,
3, ,312, ,
1, ,312, ,
1, ,312, ,
3, ,312, ,
1, ,312, ,
0, ,313, ,
3, ,312, ,
1, ,311, ,
1, ,312, ,
1, ,313, ,
1, ,312, ,
0, ,312, ,
3, ,311, ,
1, ,312, ,
1, ,312, ,
3, ,312, ,
1, ,312, ,
0, ,312, ,
3, ,311, ,
1, ,312, ,
1, ,312, ,
1, ,314, ,
1, ,310, ,
0, ,312, ,
3, ,312, ,
1, ,311, ,
1, ,311, ,
3, ,312, ,
1, ,312, ,
0, ,313, ,
3, ,312, ,
1, ,312, ,
1, ,312, ,
3, ,314, ,
1, ,310, ,
0, ,312, ,
3, ,311, ,
1, ,312, ,
1, ,311, ,
1, ,313, ,
1, ,312, ,
0, ,312, ,
3, ,311, ,
1, ,312, ,
1, ,312, ,
1, ,312, ,
1, ,310, ,
0, ,311, ,
3, ,311, ,
1, ,313, ,
1, ,312, ,
3, ,313, ,
1, ,312, ,
0, ,313, ,
3, ,311, ,
1, ,312, ,
1, ,311, ,
3, ,312, ,
1, ,312, ,
0, ,314, ,
3, ,312, ,
1, ,312, ,
1, ,310, ,
1, ,312, ,
1, ,312, ,
0, ,313, ,
3, ,311, ,
1, ,312, ,
1, ,312, ,
1, ,313, ,
1, ,310, ,
0, ,312, ,
3, ,311, ,
1, ,311, ,
1, ,311, ,
3, ,312, ,
3, ,312, ,
0, ,312, ,
3, ,312, ,
1, ,312, ,
1, ,312, ,
3, ,313, ,
1, ,310, ,
0, ,312, ,
3, ,312, ,
1, ,312, ,
1, ,311, ,
3, ,312, ,
1, ,312, ,
0, ,312, ,
3, ,311, ,
1, ,312, ,
1, ,312, ,
3, ,312, ,
1, ,311, ,
0, ,312, ,
3, ,311, ,
1, ,312, ,
1, ,311, ,
3, ,313, ,
1, ,312, ,
0, ,313, ,
3, ,312, ,
1, ,312, ,
1, ,312, ,
3, ,313, ,
1, ,311, ,
0, ,312, ,
3, ,311, ,
1, ,313, ,
1, ,312, ,
1, ,313, ,
1, ,312, ,
0, ,312, ,
3, ,311, ,
1, ,312, ,
1, ,311, ,
1, ,313, ,
3, ,310, ,
0, ,312, ,
3, ,311, ,
1, ,313, ,
1, ,312, ,
3, ,313, ,
3, ,312, ,
0, ,312, ,
3, ,312, ,
1, ,312, ,
1, ,312, ,
1, ,313, ,
1, ,311, ,
0, ,312, ,
3, ,311, ,
0, ,313, ,
1, ,311, ,
1, ,314, ,
1, ,312, ,
0, ,313, ,
3, ,312, ,
0, ,312, ,
1, ,312, ,
1, ,313, ,
1, ,311, ,
0, ,312, ,
3, ,311, ,
1, ,312, ,
1, ,311, ,
3, ,313, ,
1, ,312, ,
0, ,311, ,
3, ,311, ,
1, ,312, ,
1, ,312, ,
1, ,313, ,
1, ,310, ,
0, ,313, ,
3, ,312, ,
1, ,312, ,
1, ,311, ,
1, ,312, ,
1, ,312, ,
0, ,312, ,
3, ,311, ,
1, ,312, ,
1, ,312, ,
1, ,313, ,
1, ,312, ,
0, ,312, ,
3, ,311, ,
1, ,312, ,
1, ,312, ,
1, ,312, ,
1, ,312, ,
0, ,312, ,
3, ,311, ,
1, ,312, ,
1, ,311, ,
3, ,313, ,
1, ,311, ,
0, ,312, ,
3, ,311, ,
1, ,311, ,
1, ,308, ,
3, ,311, ,
1, ,312, ,
0, ,316, ,
3, ,315, ,
1, ,312, ,
1, ,309, ,
3, ,310, ,
1, ,310, ,
0, ,313, ,
3, ,313, ,
0, ,313, ,
1, ,311, ,
3, ,312, ,
1, ,310, ,
0, ,312, ,
3, ,312, ,
1, ,312, ,
1, ,312, ,
3, ,312, ,
1, ,312, ,
0, ,311, ,
3, ,312, ,
1, ,312, ,
1, ,310, ,
1, ,312, ,
1, ,311, ,
0, ,312, ,
3, ,311, ,
1, ,312, ,
1, ,312, ,
3, ,312, ,
1, ,310, ,
0, ,311, ,
3, ,312, ,
1, ,312, ,
1, ,311, ,
1, ,312, ,
1, ,311, ,
0, ,312, ,
3, ,311, ,
1, ,311, ,
1, ,311, ,
1, ,313, ,
1, ,311, ,
0, ,312, ,
3, ,311, ,
0, ,311, ,
1, ,311, ,
1, ,311, ,
1, ,311, ,
0, ,312, ,
3, ,311, ,
1, ,312, ,
0, ,311, ,
1, ,312, ,
1, ,310, ,
0, ,312, ,
3, ,311, ,
1, ,312, ,
1, ,311, ,
3, ,312, ,
1, ,311, ,
0, ,312, ,
3, ,311, ,
1, ,311, ,
1, ,311, ,
1, ,313, ,
1, ,312, ,
0, ,312, ,
3, ,312, ,
0, ,312, ,
1, ,311, ,
1, ,312, ,
1, ,311, ,
0, ,312, ,
3, ,311, ,
1, ,311, ,
1, ,312, ,
3, ,312, ,
3, ,310, ,
0, ,311, ,
3, ,311, ,
1, ,311, ,
1, ,311, ,
1, ,313, ,
1, ,312, ,
0, ,312, ,
3, ,310, ,
1, ,311, ,
1, ,312, ,
3, ,314, ,
1, ,311, ,
0, ,311, ,
3, ,312, ,
1, ,312, ,
1, ,311, ,
1, ,312, ,
1, ,311, ,
0, ,312, ,
3, ,310, ,
1, ,311, ,
1, ,312, ,
1, ,314, ,
1, ,310, ,
0, ,312, ,
3, ,310, ,
1, ,312, ,
1, ,312, ,
1, ,312, ,
1, ,312, ,
0, ,314, ,
3, ,312, ,
0, ,311, ,
1, ,312, ,
1, ,314, ,
1, ,312, ,
0, ,313, ,
3, ,312, ,
0, ,312, ,
1, ,311, ,
1, ,313, ,
1, ,312, ,
0, ,312, ,
3, ,312, ,
0, ,312, ,
1, ,312, ,
1, ,313, ,
1, ,311, ,
0, ,312, ,
3, ,311, ,
0, ,313, ,
1, ,312, ,
3, ,314, ,
1, ,312, ,
0, ,314, ,
3, ,312, ,
1, ,312, ,
1, ,311, ,
1, ,314, ,
1, ,311, ,
0, ,312, ,
3, ,311, ,
1, ,312, ,
1, ,312, ,
1, ,311, ,
1, ,312, ,
0, ,313, ,
3, ,312, ,
0, ,312, ,
1, ,312, ,
1, ,313, ,
1, ,310, ,
0, ,312, ,
3, ,312, ,
1, ,312, ,
1, ,311, ,
1, ,312, ,
1, ,311, ,
0, ,312, ,
3, ,312, ,
1, ,312, ,
1, ,312, ,
1, ,314, ,
1, ,312, ,
0, ,312, ,
3, ,311, ,
1, ,312, ,
1, ,312, ,
1, ,312, ,
1, ,312, ,
0, ,313, ,
3, ,311, ,
0, ,312, ,
1, ,312, ,
3, ,313, ,
1, ,312, ,
0, ,312, ,
3, ,312, ,
1, ,312, ,
1, ,311, ,
3, ,312, ,
1, ,312, ,
0, ,312, ,
3, ,311, ,
1, ,312, ,
1, ,312, ,
1, ,313, ,
1, ,312, ,
0, ,313, ,
3, ,309, ,
1, ,309, ,
1, ,312, ,
1, ,317, ,
1, ,315, ,
0, ,312, ,
3, ,309, ,
0, ,312, ,
1, ,312, ,
3, ,313, ,
1, ,313, ,
0, ,312, ,
3, ,312, ,
0, ,311, ,
0, ,312, ,
1, ,314, ,
1, ,311, ,
0, ,312, ,
3, ,311, ,
0, ,312, ,
0, ,311, ,
1, ,313, ,
1, ,311, ,
0, ,313, ,
3, ,312, ,
1, ,313, ,
1, ,312, ,
1, ,314, ,
1, ,312, ,
0, ,314, ,
3, ,312, ,
1, ,312, ,
1, ,312, ,
3, ,312, ,
1, ,310, ,
0, ,313, ,
3, ,312, ,
1, ,312, ,
1, ,312, ,
1, ,312, ,
1, ,312, ,
0, ,312, ,
3, ,311, ,
0, ,312, ,
0, ,312, ,
1, ,312, ,
1, ,311, ,
0, ,312, ,
3, ,312, ,
1, ,313, ,
0, ,312, ,
1, ,314, ,
1, ,312, ,
0, ,312, ,
3, ,312, ,
1, ,312, ,
1, ,311, ,
1, ,313, ,
1, ,310, ,
0, ,312, ,
3, ,311, ,
1, ,312, ,
1, ,311, ,
3, ,313, ,
1, ,312, ,
0, ,313, ,
3, ,312, ,
1, ,312, ,
0, ,311, ,
1, ,313, ,
1, ,311, ,
0, ,312, ,
3, ,312, ,
1, ,312, ,
1, ,311, ,
1, ,313, ,
1, ,312, ,
0, ,314, ,
3, ,311, ,
0, ,312, ,
0, ,312, ,
1, ,314, ,
1, ,310, ,
0, ,313, ,
3, ,312, ,
0, ,312, ,
1, ,311, ,
1, ,312, ,
1, ,312, ,
0, ,312, ,
3, ,311, ,
0, ,312, ,
0, ,311, ,
1, ,314, ,
1, ,312, ,
0, ,312, ,
3, ,312, ,
0, ,312, ,
0, ,312, ,
1, ,313, ,
1, ,312, ,
0, ,314, ,
3, ,311, ,
0, ,312, ,
0, ,311, ,
1, ,312, ,
1, ,310, ,
0, ,314, ,
3, ,312, ,
0, ,312, ,
0, ,310, ,
1, ,312, ,
1, ,312, ,
0, ,312, ,
3, ,312, ,
1, ,312, ,
0, ,312, ,
1, ,314, ,
1, ,311, ,
0, ,312, ,
3, ,311, ,
0, ,311, ,
1, ,311, ,
3, ,313, ,
1, ,312, ,
0, ,314, ,
1, ,312, ,
0, ,313, ,
0, ,312, ,
1, ,313, ,
1, ,311, ,
0, ,311, ,
3, ,311, ,
0, ,312, ,
0, ,311, ,
1, ,312, ,
1, ,312, ,
0, ,312, ,
3, ,311, ,
0, ,311, ,
1, ,311, ,
1, ,313, ,
1, ,310, ,
0, ,313, ,
3, ,311, ,
0, ,313, ,
0, ,311, ,
3, ,312, ,
1, ,311, ,
0, ,312, ,
3, ,312, ,
0, ,312, ,
0, ,312, ,
1, ,312, ,
1, ,310, ,
0, ,312, ,
1, ,312, ,
0, ,313, ,
0, ,312, ,
1, ,312, ,
1, ,312, ,
0, ,313, ,
3, ,312, ,
0, ,312, ,
1, ,312, ,
1, ,313, ,
1, ,311, ,
0, ,312, ,
3, ,312, ,
0, ,312, ,
0, ,312, ,
1, ,312, ,
1, ,312, ,
0, ,312, ,
3, ,312, ,
0, ,312, ,
0, ,311, ,
1, ,313, ,
1, ,312, ,
0, ,313, ,
3, ,312, ,
0, ,312, ,
0, ,312, ,
1, ,313, ,
1, ,312, ,
0, ,312, ,
3, ,312, ,
0, ,311, ,
0, ,311, ,
1, ,314, ,
3, ,310, ,
0, ,313, ,
3, ,312, ,
0, ,312, ,
0, ,311, ,
1, ,313, ,
1, ,312, ,
0, ,312, ,
3, ,312, ,
0, ,312, ,
0, ,312, ,
1, ,313, ,
1, ,310, ,
0, ,311, ,
3, ,311, ,
0, ,312, ,
0, ,311, ,
1, ,312, ,
1, ,312, ,
0, ,312, ,
3, ,312, ,
0, ,312, ,
1, ,312, ,
