src/vary_led_1562/temp0001811.CSV

Format,1.0B,
Memory Length,10000,Memory Length,10000,
IntpDistance,0,IntpDistance,0,
Trigger Address,5159,Trigger Address,5159,
Trigger Level,3.000E-01,Trigger Level,3.000E-01,
Source,CH1,Source,CH2,
Vertical Units,V,Vertical Units,V,
Vertical Units Div,0,Vertical Units Div,0,
Vertical Units Extend Div,16,Vertical Units Extend Div,16,
Label,,Label,,
Probe Type,0,Probe Type,0,
Probe Ratio,1.000e+01,Probe Ratio,1.000e+00,
Vertical Scale,5.000e-01,Vertical Scale,2.000e-01,
Vertical Position,-1.780e+00,Vertical Position,-2.240e+00,
Horizontal Units,S,Horizontal Units,S,
Horizontal Scale,2.000E-05,Horizontal Scale,2.000E-05,
Horizontal Position,-3.200E-06,Horizontal Position,-3.200E-06,
Horizontal Mode,Main,Horizontal Mode,Main,
SincET Mode,Real Time,SincET Mode,Real Time,
Sampling Period,2.000e-08,Sampling Period,2.000e-08,
Horizontal Old Scale,2.000E-05,Horizontal Old Scale,2.000E-05,
Horizontal Old Position,-3.200E-06,Horizontal Old Position,-3.200E-06,
Firmware,V1.23,Firmware,V1.23,
Mode,Fast,Mode,Fast,
Waveform Data,,Waveform Data,,
1, ,228, ,
1, ,227, ,
1, ,228, ,
0, ,228, ,
3, ,229, ,
0, ,228, ,
0, ,228, ,
1, ,229, ,
1, ,228, ,
0, ,228, ,
1, ,229, ,
0, ,229, ,
1, ,228, ,
1, ,228, ,
1, ,229, ,
0, ,230, ,
3, ,228, ,
0, ,229, ,
1, ,229, ,
1, ,228, ,
1, ,228, ,
0, ,229, ,
1, ,228, ,
0, ,228, ,
1, ,227, ,
1, ,228, ,
1, ,229, ,
0, ,229, ,
3, ,230, ,
0, ,229, ,
0, ,229, ,
1, ,229, ,
1, ,228, ,
0, ,228, ,
3, ,229, ,
0, ,229, ,
0, ,229, ,
1, ,228, ,
1, ,229, ,
0, ,229, ,
3, ,228, ,
1, ,227, ,
0, ,229, ,
1, ,229, ,
1, ,228, ,
0, ,229, ,
3, ,229, ,
0, ,228, ,
1, ,229, ,
1, ,228, ,
1, ,229, ,
0, ,229, ,
3, ,228, ,
0, ,228, ,
0, ,229, ,
1, ,228, ,
1, ,228, ,
0, ,230, ,
1, ,229, ,
0, ,229, ,
0, ,228, ,
1, ,229, ,
1, ,228, ,
0, ,229, ,
1, ,228, ,
0, ,229, ,
0, ,229, ,
1, ,228, ,
1, ,228, ,
0, ,228, ,
1, ,229, ,
0, ,229, ,
0, ,228, ,
1, ,228, ,
1, ,229, ,
0, ,230, ,
1, ,229, ,
0, ,228, ,
0, ,229, ,
1, ,229, ,
1, ,227, ,
0, ,229, ,
3, ,228, ,
0, ,229, ,
0, ,229, ,
1, ,228, ,
1, ,228, ,
0, ,229, ,
1, ,228, ,
0, ,228, ,
0, ,229, ,
1, ,228, ,
1, ,229, ,
0, ,229, ,
1, ,229, ,
0, ,229, ,
0, ,228, ,
1, ,228, ,
3, ,228, ,
0, ,229, ,
3, ,228, ,
0, ,228, ,
0, ,229, ,
1, ,229, ,
1, ,228, ,
0, ,229, ,
1, ,228, ,
0, ,229, ,
1, ,228, ,
1, ,229, ,
1, ,229, ,
0, ,229, ,
1, ,228, ,
0, ,228, ,
1, ,229, ,
1, ,229, ,
1, ,228, ,
0, ,228, ,
1, ,229, ,
0, ,229, ,
0, ,228, ,
1, ,229, ,
1, ,228, ,
0, ,229, ,
1, ,228, ,
0, ,228, ,
0, ,229, ,
1, ,229, ,
1, ,228, ,
0, ,229, ,
3, ,228, ,
0, ,229, ,
1, ,228, ,
1, ,228, ,
1, ,228, ,
0, ,230, ,
3, ,228, ,
0, ,228, ,
1, ,229, ,
1, ,228, ,
1, ,227, ,
0, ,229, ,
1, ,229, ,
0, ,229, ,
1, ,229, ,
1, ,228, ,
1, ,229, ,
0, ,229, ,
3, ,229, ,
1, ,228, ,
0, ,229, ,
1, ,229, ,
1, ,228, ,
0, ,228, ,
3, ,228, ,
0, ,228, ,
1, ,228, ,
1, ,228, ,
1, ,229, ,
0, ,229, ,
3, ,228, ,
0, ,229, ,
0, ,229, ,
1, ,229, ,
1, ,228, ,
0, ,229, ,
1, ,228, ,
0, ,228, ,
1, ,228, ,
1, ,228, ,
1, ,228, ,
0, ,229, ,
3, ,228, ,
1, ,228, ,
1, ,229, ,
1, ,228, ,
1, ,228, ,
0, ,228, ,
1, ,228, ,
0, ,228, ,
1, ,227, ,
1, ,228, ,
1, ,229, ,
0, ,229, ,
3, ,228, ,
0, ,228, ,
1, ,229, ,
1, ,229, ,
1, ,228, ,
0, ,229, ,
1, ,228, ,
0, ,229, ,
0, ,228, ,
1, ,228, ,
1, ,229, ,
0, ,229, ,
1, ,229, ,
0, ,228, ,
0, ,229, ,
1, ,228, ,
1, ,228, ,
0, ,229, ,
3, ,229, ,
0, ,229, ,
1, ,228, ,
1, ,228, ,
1, ,229, ,
0, ,229, ,
1, ,229, ,
0, ,228, ,
1, ,229, ,
1, ,229, ,
1, ,228, ,
0, ,229, ,
3, ,228, ,
0, ,229, ,
0, ,228, ,
1, ,227, ,
1, ,229, ,
0, ,229, ,
3, ,228, ,
0, ,228, ,
1, ,230, ,
1, ,229, ,
1, ,228, ,
0, ,228, ,
1, ,229, ,
0, ,229, ,
1, ,229, ,
1, ,228, ,
1, ,228, ,
-1, ,229, ,
3, ,228, ,
0, ,228, ,
0, ,229, ,
1, ,229, ,
1, ,228, ,
0, ,229, ,
3, ,229, ,
0, ,228, ,
1, ,228, ,
1, ,228, ,
1, ,229, ,
0, ,228, ,
3, ,227, ,
0, ,228, ,
0, ,229, ,
1, ,229, ,
1, ,228, ,
0, ,229, ,
3, ,228, ,
0, ,229, ,
1, ,228, ,
1, ,227, ,
1, ,228, ,
0, ,229, ,
1, ,227, ,
0, ,228, ,
1, ,229, ,
1, ,228, ,
1, ,228, ,
0, ,229, ,
1, ,229, ,
0, ,229, ,
0, ,228, ,
1, ,228, ,
1, ,229, ,
-1, ,229, ,
3, ,228, ,
0, ,229, ,
1, ,229, ,
1, ,228, ,
1, ,228, ,
0, ,229, ,
3, ,229, ,
1, ,229, ,
1, ,228, ,
1, ,228, ,
1, ,229, ,
0, ,229, ,
1, ,228, ,
0, ,228, ,
1, ,229, ,
1, ,230, ,
1, ,228, ,
0, ,228, ,
1, ,229, ,
0, ,228, ,
0, ,228, ,
1, ,228, ,
1, ,228, ,
0, ,229, ,
1, ,228, ,
0, ,228, ,
1, ,230, ,
1, ,229, ,
1, ,228, ,
0, ,229, ,
1, ,228, ,
0, ,228, ,
1, ,228, ,
1, ,229, ,
1, ,228, ,
0, ,229, ,
3, ,229, ,
0, ,228, ,
1, ,229, ,
1, ,229, ,
1, ,228, ,
0, ,228, ,
1, ,228, ,
0, ,228, ,
0, ,228, ,
1, ,229, ,
1, ,229, ,
0, ,229, ,
1, ,228, ,
0, ,228, ,
1, ,230, ,
1, ,229, ,
1, ,228, ,
0, ,228, ,
3, ,229, ,
1, ,229, ,
1, ,229, ,
1, ,229, ,
1, ,228, ,
0, ,229, ,
1, ,228, ,
0, ,228, ,
1, ,229, ,
1, ,229, ,
1, ,228, ,
0, ,229, ,
1, ,228, ,
0, ,229, ,
0, ,228, ,
1, ,229, ,
1, ,228, ,
0, ,229, ,
3, ,228, ,
0, ,228, ,
1, ,228, ,
1, ,228, ,
1, ,228, ,
0, ,228, ,
1, ,228, ,
0, ,229, ,
1, ,229, ,
1, ,228, ,
1, ,228, ,
0, ,229, ,
1, ,228, ,
0, ,229, ,
1, ,229, ,
1, ,228, ,
1, ,228, ,
0, ,229, ,
3, ,228, ,
0, ,228, ,
1, ,229, ,
1, ,228, ,
1, ,228, ,
0, ,229, ,
1, ,228, ,
0, ,229, ,
0, ,229, ,
1, ,228, ,
1, ,227, ,
0, ,228, ,
1, ,228, ,
0, ,229, ,
1, ,228, ,
1, ,229, ,
1, ,229, ,
0, ,229, ,
1, ,229, ,
0, ,228, ,
1, ,230, ,
1, ,229, ,
1, ,228, ,
0, ,229, ,
1, ,228, ,
0, ,228, ,
0, ,228, ,
1, ,229, ,
1, ,228, ,
0, ,229, ,
3, ,229, ,
0, ,229, ,
1, ,229, ,
1, ,229, ,
1, ,228, ,
0, ,229, ,
3, ,229, ,
1, ,228, ,
1, ,228, ,
1, ,227, ,
1, ,229, ,
0, ,229, ,
1, ,228, ,
0, ,227, ,
1, ,229, ,
3, ,229, ,
1, ,228, ,
0, ,228, ,
1, ,228, ,
0, ,229, ,
1, ,228, ,
131, ,228, ,
78, ,229, ,
52, ,229, ,
37, ,228, ,
23, ,229, ,
13, ,230, ,
8, ,229, ,
8, ,228, ,
6, ,229, ,
5, ,229, ,
3, ,229, ,
3, ,228, ,
5, ,229, ,
3, ,228, ,
1, ,229, ,
4, ,229, ,
3, ,228, ,
4, ,229, ,
4, ,229, ,
3, ,229, ,
3, ,229, ,
4, ,229, ,
1, ,229, ,
3, ,228, ,
4, ,227, ,
4, ,229, ,
1, ,228, ,
4, ,228, ,
3, ,228, ,
3, ,230, ,
4, ,229, ,
4, ,229, ,
1, ,229, ,
4, ,229, ,
1, ,229, ,
3, ,228, ,
4, ,229, ,
4, ,229, ,
1, ,229, ,
4, ,228, ,
1, ,228, ,
3, ,230, ,
4, ,229, ,
4, ,228, ,
1, ,228, ,
4, ,227, ,
3, ,227, ,
3, ,227, ,
3, ,228, ,
4, ,229, ,
1, ,230, ,
4, ,229, ,
3, ,230, ,
3, ,229, ,
3, ,228, ,
4, ,227, ,
1, ,229, ,
4, ,228, ,
3, ,229, ,
3, ,228, ,
4, ,228, ,
4, ,228, ,
1, ,229, ,
4, ,228, ,
3, ,228, ,
3, ,228, ,
3, ,228, ,
4, ,228, ,
1, ,228, ,
4, ,229, ,
3, ,229, ,
3, ,228, ,
4, ,228, ,
3, ,228, ,
1, ,228, ,
4, ,227, ,
1, ,228, ,
3, ,231, ,
3, ,229, ,
3, ,228, ,
1, ,228, ,
4, ,228, ,
1, ,228, ,
3, ,228, ,
3, ,228, ,
3, ,229, ,
1, ,229, ,
4, ,228, ,
1, ,229, ,
3, ,229, ,
3, ,228, ,
3, ,227, ,
1, ,229, ,
4, ,228, ,
1, ,228, ,
3, ,228, ,
3, ,228, ,
3, ,229, ,
1, ,229, ,
4, ,227, ,
1, ,225, ,
3, ,228, ,
3, ,229, ,
3, ,229, ,
1, ,233, ,
4, ,231, ,
1, ,228, ,
3, ,226, ,
3, ,226, ,
3, ,228, ,
1, ,229, ,
4, ,228, ,
3, ,228, ,
3, ,229, ,
3, ,227, ,
3, ,227, ,
1, ,229, ,
4, ,227, ,
3, ,228, ,
3, ,229, ,
3, ,228, ,
3, ,228, ,
1, ,229, ,
4, ,228, ,
3, ,229, ,
3, ,229, ,
3, ,228, ,
3, ,228, ,
1, ,229, ,
4, ,228, ,
3, ,229, ,
3, ,228, ,
3, ,227, ,
3, ,228, ,
1, ,229, ,
4, ,228, ,
3, ,227, ,
3, ,230, ,
3, ,228, ,
3, ,227, ,
1, ,228, ,
4, ,228, ,
3, ,229, ,
3, ,228, ,
3, ,228, ,
3, ,228, ,
1, ,228, ,
4, ,228, ,
1, ,228, ,
3, ,229, ,
3, ,228, ,
3, ,228, ,
1, ,228, ,
4, ,228, ,
1, ,228, ,
3, ,228, ,
3, ,228, ,
3, ,228, ,
1, ,228, ,
4, ,227, ,
1, ,228, ,
3, ,229, ,
3, ,228, ,
3, ,228, ,
1, ,227, ,
4, ,228, ,
1, ,228, ,
3, ,228, ,
3, ,227, ,
3, ,229, ,
1, ,228, ,
4, ,227, ,
1, ,228, ,
3, ,228, ,
3, ,228, ,
3, ,228, ,
1, ,229, ,
4, ,229, ,
1, ,229, ,
3, ,227, ,
3, ,228, ,
3, ,228, ,
1, ,229, ,
3, ,228, ,
1, ,228, ,
3, ,229, ,
3, ,229, ,
3, ,228, ,
1, ,227, ,
4, ,229, ,
1, ,228, ,
3, ,228, ,
3, ,228, ,
3, ,228, ,
1, ,229, ,
4, ,228, ,
1, ,228, ,
3, ,229, ,
3, ,229, ,
3, ,227, ,
1, ,229, ,
4, ,229, ,
1, ,228, ,
1, ,228, ,
3, ,228, ,
3, ,228, ,
1, ,229, ,
3, ,229, ,
1, ,229, ,
3, ,229, ,
3, ,228, ,
3, ,228, ,
1, ,227, ,
4, ,229, ,
1, ,229, ,
3, ,229, ,
3, ,230, ,
3, ,229, ,
1, ,229, ,
3, ,227, ,
3, ,229, ,
3, ,229, ,
3, ,230, ,
3, ,228, ,
1, ,229, ,
3, ,229, ,
1, ,229, ,
1, ,229, ,
3, ,228, ,
3, ,228, ,
1, ,231, ,
3, ,228, ,
1, ,228, ,
3, ,230, ,
3, ,229, ,
3, ,228, ,
1, ,229, ,
4, ,228, ,
1, ,228, ,
3, ,228, ,
3, ,228, ,
3, ,229, ,
1, ,230, ,
3, ,228, ,
1, ,228, ,
3, ,229, ,
1, ,229, ,
3, ,228, ,
1, ,228, ,
3, ,229, ,
1, ,230, ,
3, ,228, ,
3, ,229, ,
3, ,229, ,
1, ,229, ,
3, ,228, ,
1, ,228, ,
3, ,229, ,
1, ,229, ,
3, ,229, ,
1, ,229, ,
4, ,229, ,
1, ,229, ,
3, ,228, ,
3, ,228, ,
3, ,228, ,
0, ,229, ,
3, ,228, ,
1, ,228, ,
3, ,231, ,
1, ,228, ,
3, ,228, ,
1, ,229, ,
4, ,228, ,
1, ,229, ,
3, ,228, ,
3, ,228, ,
3, ,228, ,
1, ,229, ,
3, ,229, ,
1, ,228, ,
3, ,229, ,
3, ,229, ,
3, ,228, ,
1, ,229, ,
3, ,229, ,
1, ,229, ,
1, ,229, ,
1, ,228, ,
3, ,228, ,
0, ,230, ,
3, ,229, ,
1, ,228, ,
3, ,229, ,
3, ,229, ,
3, ,228, ,
0, ,229, ,
3, ,229, ,
1, ,229, ,
3, ,228, ,
3, ,229, ,
1, ,228, ,
0, ,229, ,
3, ,228, ,
1, ,229, ,
3, ,229, ,
3, ,228, ,
3, ,228, ,
1, ,229, ,
3, ,229, ,
1, ,228, ,
1, ,228, ,
3, ,229, ,
3, ,228, ,
0, ,229, ,
3, ,228, ,
1, ,228, ,
1, ,230, ,
3, ,229, ,
1, ,228, ,
1, ,228, ,
3, ,229, ,
1, ,228, ,
3, ,229, ,
3, ,228, ,
1, ,228, ,
0, ,229, ,
3, ,228, ,
1, ,229, ,
3, ,229, ,
1, ,229, ,
1, ,228, ,
0, ,228, ,
3, ,228, ,
1, ,228, ,
3, ,228, ,
3, ,229, ,
3, ,229, ,
0, ,229, ,
3, ,229, ,
1, ,229, ,
3, ,230, ,
1, ,229, ,
3, ,229, ,
1, ,228, ,
3, ,228, ,
1, ,229, ,
1, ,228, ,
3, ,228, ,
3, ,229, ,
0, ,229, ,
3, ,228, ,
1, ,228, ,
3, ,229, ,
3, ,229, ,
3, ,228, ,
0, ,229, ,
3, ,229, ,
1, ,229, ,
3, ,228, ,
3, ,229, ,
1, ,229, ,
0, ,230, ,
3, ,228, ,
1, ,228, ,
3, ,229, ,
1, ,229, ,
3, ,228, ,
1, ,228, ,
3, ,229, ,
1, ,229, ,
1, ,228, ,
3, ,229, ,
3, ,228, ,
0, ,229, ,
3, ,228, ,
1, ,228, ,
3, ,230, ,
3, ,229, ,
3, ,228, ,
0, ,229, ,
3, ,229, ,
1, ,228, ,
1, ,228, ,
3, ,229, ,
3, ,229, ,
0, ,229, ,
3, ,229, ,
1, ,230, ,
3, ,229, ,
1, ,229, ,
1, ,229, ,
0, ,229, ,
3, ,229, ,
1, ,228, ,
1, ,229, ,
1, ,229, ,
1, ,229, ,
0, ,229, ,
3, ,229, ,
1, ,228, ,
1, ,229, ,
3, ,229, ,
1, ,228, ,
0, ,228, ,
3, ,229, ,
1, ,230, ,
1, ,228, ,
1, ,228, ,
1, ,229, ,
0, ,231, ,
3, ,228, ,
1, ,229, ,
1, ,231, ,
3, ,229, ,
1, ,228, ,
0, ,228, ,
3, ,228, ,
1, ,229, ,
1, ,229, ,
1, ,229, ,
1, ,229, ,
0, ,229, ,
3, ,228, ,
1, ,229, ,
1, ,230, ,
3, ,229, ,
3, ,228, ,
0, ,228, ,
3, ,229, ,
1, ,229, ,
1, ,228, ,
1, ,229, ,
1, ,229, ,
0, ,229, ,
3, ,229, ,
1, ,229, ,
1, ,231, ,
1, ,229, ,
3, ,228, ,
0, ,228, ,
3, ,229, ,
1, ,229, ,
1, ,229, ,
3, ,228, ,
3, ,229, ,
0, ,228, ,
3, ,228, ,
1, ,229, ,
1, ,229, ,
1, ,229, ,
1, ,229, ,
0, ,229, ,
3, ,229, ,
1, ,230, ,
1, ,229, ,
3, ,229, ,
3, ,228, ,
0, ,229, ,
3, ,228, ,
1, ,228, ,
1, ,229, ,
1, ,230, ,
1, ,229, ,
0, ,229, ,
3, ,228, ,
1, ,228, ,
1, ,229, ,
3, ,228, ,
1, ,229, ,
0, ,229, ,
3, ,228, ,
1, ,228, ,
1, ,229, ,
3, ,229, ,
1, ,229, ,
0, ,229, ,
3, ,228, ,
1, ,228, ,
1, ,227, ,
1, ,228, ,
1, ,230, ,
0, ,230, ,
3, ,230, ,
1, ,228, ,
1, ,229, ,
3, ,229, ,
1, ,228, ,
0, ,228, ,
3, ,228, ,
1, ,228, ,
1, ,229, ,
3, ,229, ,
1, ,229, ,
0, ,229, ,
3, ,228, ,
1, ,229, ,
1, ,229, ,
3, ,230, ,
1, ,229, ,
0, ,229, ,
3, ,229, ,
1, ,228, ,
1, ,228, ,
1, ,227, ,
1, ,228, ,
0, ,229, ,
3, ,228, ,
1, ,230, ,
1, ,229, ,
1, ,230, ,
1, ,228, ,
0, ,229, ,
3, ,228, ,
1, ,229, ,
1, ,228, ,
3, ,228, ,
3, ,229, ,
0, ,229, ,
3, ,228, ,
1, ,229, ,
1, ,229, ,
1, ,229, ,
1, ,228, ,
0, ,229, ,
3, ,228, ,
1, ,230, ,
1, ,229, ,
1, ,230, ,
3, ,229, ,
0, ,229, ,
3, ,228, ,
1, ,228, ,
1, ,230, ,
1, ,230, ,
1, ,228, ,
0, ,229, ,
3, ,228, ,
1, ,228, ,
1, ,229, ,
1, ,228, ,
3, ,229, ,
0, ,230, ,
3, ,228, ,
1, ,229, ,
3, ,229, ,
3, ,229, ,
3, ,228, ,
0, ,228, ,
3, ,229, ,
1, ,228, ,
1, ,228, ,
1, ,229, ,
1, ,229, ,
0, ,230, ,
3, ,228, ,
1, ,228, ,
1, ,229, ,
1, ,229, ,
1, ,228, ,
0, ,229, ,
3, ,229, ,
1, ,228, ,
1, ,229, ,
3, ,228, ,
1, ,229, ,
0, ,229, ,
3, ,229, ,
1, ,228, ,
1, ,230, ,
3, ,229, ,
1, ,228, ,
0, ,228, ,
3, ,228, ,
0, ,228, ,
1, ,229, ,
3, ,229, ,
1, ,229, ,
0, ,229, ,
3, ,228, ,
1, ,228, ,
1, ,229, ,
1, ,229, ,
1, ,228, ,
0, ,229, ,
3, ,228, ,
1, ,229, ,
1, ,228, ,
3, ,228, ,
1, ,228, ,
0, ,229, ,
3, ,228, ,
1, ,229, ,
1, ,230, ,
3, ,229, ,
1, ,228, ,
0, ,228, ,
3, ,228, ,
1, ,228, ,
1, ,228, ,
1, ,229, ,
1, ,228, ,
0, ,230, ,
3, ,228, ,
1, ,228, ,
1, ,229, ,
1, ,229, ,
1, ,227, ,
0, ,229, ,
3, ,228, ,
1, ,229, ,
1, ,228, ,
3, ,229, ,
1, ,229, ,
0, ,229, ,
3, ,228, ,
1, ,228, ,
1, ,229, ,
1, ,229, ,
1, ,228, ,
0, ,229, ,
3, ,229, ,
1, ,228, ,
1, ,229, ,
1, ,228, ,
1, ,228, ,
0, ,229, ,
3, ,227, ,
0, ,228, ,
1, ,229, ,
1, ,229, ,
1, ,227, ,
0, ,229, ,
3, ,228, ,
1, ,228, ,
1, ,228, ,
1, ,228, ,
1, ,228, ,
0, ,229, ,
3, ,228, ,
1, ,228, ,
1, ,229, ,
3, ,229, ,
3, ,228, ,
0, ,229, ,
3, ,229, ,
0, ,228, ,
1, ,228, ,
1, ,229, ,
1, ,228, ,
0, ,229, ,
3, ,228, ,
1, ,228, ,
1, ,229, ,
1, ,229, ,
3, ,227, ,
0, ,229, ,
3, ,229, ,
1, ,229, ,
1, ,229, ,
3, ,228, ,
1, ,228, ,
0, ,229, ,
3, ,227, ,
1, ,228, ,
1, ,230, ,
3, ,229, ,
1, ,228, ,
0, ,229, ,
3, ,228, ,
1, ,229, ,
1, ,229, ,
3, ,228, ,
1, ,229, ,
0, ,229, ,
3, ,227, ,
0, ,229, ,
1, ,229, ,
1, ,229, ,
1, ,227, ,
0, ,228, ,
3, ,228, ,
0, ,228, ,
1, ,228, ,
3, ,228, ,
1, ,228, ,
0, ,229, ,
3, ,228, ,
1, ,228, ,
1, ,229, ,
1, ,229, ,
1, ,228, ,
0, ,229, ,
3, ,229, ,
0, ,228, ,
1, ,228, ,
1, ,228, ,
1, ,228, ,
0, ,228, ,
3, ,228, ,
0, ,227, ,
0, ,228, ,
1, ,230, ,
1, ,228, ,
0, ,229, ,
3, ,228, ,
1, ,228, ,
1, ,228, ,
1, ,229, ,
3, ,229, ,
0, ,229, ,
3, ,228, ,
0, ,228, ,
1, ,229, ,
1, ,228, ,
1, ,228, ,
0, ,229, ,
3, ,229, ,
0, ,229, ,
0, ,228, ,
1, ,228, ,
1, ,228, ,
0, ,229, ,
3, ,228, ,
1, ,228, ,
1, ,229, ,
1, ,229, ,
1, ,228, ,
0, ,229, ,
3, ,229, ,
0, ,229, ,
1, ,228, ,
1, ,228, ,
1, ,228, ,
0, ,229, ,
3, ,228, ,
0, ,229, ,
1, ,229, ,
1, ,228, ,
3, ,228, ,
0, ,229, ,
3, ,228, ,
0, ,229, ,
1, ,228, ,
1, ,229, ,
1, ,229, ,
0, ,229, ,
3, ,229, ,
1, ,228, ,
1, ,229, ,
1, ,229, ,
1, ,228, ,
0, ,228, ,
3, ,229, ,
1, ,229, ,
1, ,228, ,
1, ,229, ,
3, ,228, ,
0, ,227, ,
3, ,228, ,
1, ,228, ,
1, ,229, ,
1, ,229, ,
3, ,228, ,
0, ,228, ,
3, ,230, ,
1, ,229, ,
1, ,228, ,
3, ,229, ,
1, ,227, ,
0, ,228, ,
3, ,228, ,
0, ,228, ,
1, ,229, ,
1, ,229, ,
1, ,227, ,
0, ,229, ,
3, ,229, ,
1, ,228, ,
1, ,228, ,
1, ,228, ,
3, ,229, ,
0, ,229, ,
3, ,228, ,
1, ,228, ,
1, ,229, ,
1, ,229, ,
1, ,228, ,
0, ,229, ,
3, ,229, ,
1, ,228, ,
1, ,228, ,
1, ,228, ,
1, ,228, ,
0, ,229, ,
3, ,229, ,
0, ,228, ,
1, ,229, ,
1, ,229, ,
1, ,228, ,
0, ,229, ,
1, ,229, ,
0, ,229, ,
1, ,229, ,
3, ,229, ,
1, ,229, ,
0, ,229, ,
3, ,229, ,
1, ,228, ,
1, ,229, ,
1, ,229, ,
1, ,228, ,
0, ,229, ,
3, ,228, ,
0, ,229, ,
1, ,228, ,
3, ,228, ,
1, ,228, ,
0, ,229, ,
3, ,228, ,
1, ,228, ,
1, ,229, ,
1, ,229, ,
1, ,228, ,
0, ,228, ,
3, ,228, ,
0, ,229, ,
1, ,229, ,
1, ,228, ,
1, ,228, ,
0, ,229, ,
3, ,228, ,
0, ,228, ,
1, ,229, ,
1, ,229, ,
1, ,227, ,
0, ,229, ,
3, ,228, ,
0, ,229, ,
1, ,228, ,
1, ,228, ,
3, ,229, ,
0, ,229, ,
3, ,228, ,
0, ,228, ,
1, ,229, ,
1, ,228, ,
1, ,228, ,
0, ,229, ,
3, ,229, ,
0, ,229, ,
1, ,228, ,
1, ,228, ,
1, ,228, ,
0, ,229, ,
3, ,228, ,
0, ,229, ,
1, ,229, ,
1, ,229, ,
1, ,229, ,
0, ,229, ,
3, ,228, ,
0, ,229, ,
1, ,230, ,
1, ,229, ,
1, ,228, ,
0, ,229, ,
3, ,229, ,
0, ,228, ,
1, ,229, ,
1, ,229, ,
1, ,228, ,
0, ,228, ,
1, ,229, ,
0, ,228, ,
1, ,229, ,
1, ,228, ,
1, ,228, ,
0, ,229, ,
3, ,229, ,
0, ,229, ,
1, ,229, ,
1, ,229, ,
1, ,228, ,
0, ,229, ,
1, ,229, ,
0, ,229, ,
1, ,227, ,
1, ,229, ,
1, ,228, ,
0, ,229, ,
3, ,228, ,
0, ,228, ,
1, ,228, ,
1, ,229, ,
1, ,228, ,
0, ,229, ,
3, ,228, ,
1, ,229, ,
1, ,228, ,
1, ,228, ,
3, ,229, ,
0, ,228, ,
1, ,228, ,
1, ,228, ,
1, ,229, ,
1, ,229, ,
1, ,227, ,
0, ,229, ,
1, ,227, ,
1, ,227, ,
1, ,227, ,
1, ,229, ,
1, ,230, ,
0, ,230, ,
3, ,229, ,
0, ,228, ,
1, ,229, ,
1, ,227, ,
1, ,227, ,
0, ,228, ,
3, ,229, ,
0, ,229, ,
1, ,229, ,
1, ,230, ,
1, ,228, ,
0, ,228, ,
3, ,228, ,
0, ,228, ,
1, ,229, ,
1, ,228, ,
1, ,228, ,
0, ,229, ,
1, ,229, ,
0, ,228, ,
1, ,229, ,
1, ,228, ,
1, ,227, ,
0, ,229, ,
3, ,228, ,
0, ,228, ,
1, ,229, ,
1, ,229, ,
1, ,228, ,
0, ,229, ,
3, ,228, ,
0, ,228, ,
1, ,229, ,
1, ,228, ,
1, ,229, ,
0, ,229, ,
3, ,229, ,
0, ,229, ,
1, ,228, ,
1, ,229, ,
1, ,228, ,
0, ,228, ,
3, ,228, ,
0, ,228, ,
1, ,228, ,
1, ,229, ,
1, ,229, ,
0, ,229, ,
3, ,227, ,
0, ,228, ,
1, ,229, ,
1, ,229, ,
1, ,228, ,
0, ,229, ,
1, ,229, ,
0, ,229, ,
1, ,228, ,
1, ,229, ,
1, ,228, ,
0, ,230, ,
3, ,228, ,
0, ,229, ,
1, ,230, ,
1, ,228, ,
1, ,228, ,
0, ,229, ,
3, ,229, ,
0, ,229, ,
0, ,229, ,
3, ,229, ,
1, ,228, ,
0, ,229, ,
3, ,228, ,
0, ,229, ,
1, ,229, ,
1, ,228, ,
1, ,228, ,
0, ,228, ,
3, ,228, ,
0, ,229, ,
1, ,228, ,
1, ,228, ,
1, ,229, ,
0, ,228, ,
3, ,228, ,
0, ,228, ,
0, ,229, ,
1, ,229, ,
1, ,228, ,
0, ,229, ,
3, ,228, ,
0, ,228, ,
1, ,228, ,
1, ,228, ,
3, ,228, ,
0, ,229, ,
3, ,229, ,
0, ,228, ,
0, ,229, ,
1, ,228, ,
3, ,228, ,
0, ,227, ,
3, ,229, ,
0, ,228, ,
0, ,229, ,
1, ,228, ,
1, ,228, ,
0, ,229, ,
3, ,229, ,
0, ,228, ,
0, ,229, ,
1, ,229, ,
1, ,228, ,
0, ,229, ,
1, ,228, ,
0, ,228, ,
1, ,228, ,
1, ,228, ,
1, ,229, ,
0, ,229, ,
1, ,228, ,
0, ,228, ,
1, ,229, ,
1, ,229, ,
1, ,228, ,
0, ,229, ,
3, ,229, ,
0, ,229, ,
1, ,228, ,
1, ,228, ,
1, ,229, ,
0, ,228, ,
3, ,228, ,
0, ,229, ,
0, ,229, ,
1, ,229, ,
1, ,228, ,
0, ,229, ,
1, ,229, ,
0, ,228, ,
1, ,228, ,
1, ,229, ,
1, ,229, ,
0, ,229, ,
3, ,228, ,
0, ,228, ,
1, ,229, ,
1, ,230, ,
1, ,228, ,
0, ,228, ,
3, ,229, ,
0, ,229, ,
1, ,228, ,
1, ,228, ,
1, ,228, ,
0, ,229, ,
1, ,228, ,
0, ,229, ,
1, ,229, ,
1, ,230, ,
1, ,228, ,
0, ,229, ,
1, ,229, ,
0, ,228, ,
1, ,229, ,
1, ,228, ,
1, ,228, ,
0, ,229, ,
3, ,228, ,
0, ,228, ,
1, ,229, ,
1, ,229, ,
1, ,228, ,
0, ,228, ,
3, ,228, ,
0, ,227, ,
0, ,227, ,
1, ,226, ,
1, ,228, ,
0, ,231, ,
3, ,232, ,
0, ,231, ,
1, ,230, ,
1, ,227, ,
1, ,225, ,
0, ,227, ,
1, ,229, ,
0, ,230, ,
1, ,230, ,
1, ,228, ,
1, ,227, ,
0, ,229, ,
1, ,228, ,
0, ,228, ,
1, ,229, ,
1, ,228, ,
1, ,228, ,
0, ,227, ,
3, ,229, ,
0, ,229, ,
0, ,230, ,
1, ,228, ,
1, ,228, ,
0, ,229, ,
3, ,228, ,
1, ,228, ,
1, ,229, ,
1, ,229, ,
1, ,228, ,
0, ,229, ,
3, ,227, ,
0, ,228, ,
1, ,229, ,
1, ,229, ,
1, ,229, ,
0, ,229, ,
3, ,227, ,
0, ,228, ,
0, ,229, ,
1, ,229, ,
1, ,228, ,
0, ,229, ,
1, ,228, ,
0, ,228, ,
1, ,228, ,
1, ,228, ,
1, ,228, ,
0, ,229, ,
3, ,228, ,
0, ,228, ,
1, ,229, ,
1, ,229, ,
1, ,228, ,
0, ,228, ,
1, ,228, ,
0, ,229, ,
1, ,229, ,
1, ,228, ,
1, ,228, ,
0, ,229, ,
1, ,228, ,
0, ,228, ,
1, ,229, ,
1, ,228, ,
1, ,228, ,
0, ,229, ,
3, ,229, ,
0, ,229, ,
0, ,228, ,
1, ,228, ,
1, ,228, ,
0, ,229, ,
3, ,228, ,
0, ,228, ,
1, ,229, ,
1, ,229, ,
1, ,228, ,
0, ,228, ,
3, ,229, ,
0, ,229, ,
0, ,228, ,
1, ,229, ,
1, ,228, ,
0, ,229, ,
1, ,228, ,
0, ,228, ,
1, ,229, ,
1, ,229, ,
1, ,227, ,
0, ,229, ,
1, ,229, ,
0, ,229, ,
1, ,228, ,
1, ,229, ,
1, ,228, ,
0, ,229, ,
3, ,228, ,
0, ,228, ,
1, ,228, ,
1, ,229, ,
1, ,227, ,
0, ,228, ,
1, ,229, ,
0, ,230, ,
0, ,229, ,
1, ,229, ,
1, ,228, ,
0, ,229, ,
3, ,228, ,
0, ,229, ,
1, ,229, ,
1, ,229, ,
1, ,228, ,
0, ,229, ,
3, ,228, ,
0, ,228, ,
0, ,229, ,
1, ,230, ,
1, ,228, ,
0, ,229, ,
3, ,228, ,
0, ,229, ,
1, ,229, ,
1, ,230, ,
1, ,229, ,
0, ,229, ,
3, ,229, ,
0, ,230, ,
1, ,229, ,
1, ,230, ,
1, ,229, ,
0, ,229, ,
1, ,228, ,
0, ,229, ,
1, ,229, ,
1, ,229, ,
1, ,229, ,
0, ,229, ,
3, ,229, ,
0, ,229, ,
0, ,229, ,
1, ,229, ,
1, ,229, ,
0, ,229, ,
3, ,227, ,
0, ,228, ,
0, ,229, ,
1, ,228, ,
1, ,228, ,
0, ,228, ,
3, ,229, ,
0, ,228, ,
1, ,229, ,
1, ,229, ,
1, ,229, ,
0, ,229, ,
1, ,229, ,
0, ,228, ,
1, ,230, ,
1, ,229, ,
1, ,228, ,
0, ,229, ,
3, ,228, ,
0, ,228, ,
1, ,229, ,
1, ,228, ,
1, ,229, ,
0, ,229, ,
1, ,228, ,
0, ,228, ,
1, ,229, ,
1, ,229, ,
1, ,228, ,
0, ,229, ,
1, ,228, ,
0, ,229, ,
0, ,229, ,
1, ,229, ,
3, ,228, ,
0, ,229, ,
3, ,228, ,
0, ,228, ,
0, ,230, ,
1, ,230, ,
1, ,227, ,
0, ,229, ,
3, ,229, ,
0, ,229, ,
1, ,229, ,
1, ,228, ,
1, ,229, ,
0, ,229, ,
1, ,229, ,
0, ,228, ,
0, ,230, ,
1, ,229, ,
1, ,228, ,
0, ,229, ,
1, ,229, ,
0, ,229, ,
0, ,229, ,
1, ,229, ,
1, ,229, ,
0, ,229, ,
3, ,228, ,
0, ,229, ,
0, ,229, ,
1, ,229, ,
1, ,227, ,
0, ,228, ,
1, ,228, ,
0, ,228, ,
0, ,229, ,
1, ,229, ,
1, ,228, ,
0, ,229, ,
1, ,228, ,
0, ,229, ,
