src/vary_led_1562/temp0008610.CSV

Format,1.0B,
Memory Length,10000,Memory Length,10000,
IntpDistance,0,IntpDistance,0,
Trigger Address,5159,Trigger Address,5159,
Trigger Level,3.000E-01,Trigger Level,3.000E-01,
Source,CH1,Source,CH2,
Vertical Units,V,Vertical Units,V,
Vertical Units Div,0,Vertical Units Div,0,
Vertical Units Extend Div,16,Vertical Units Extend Div,16,
Label,,Label,,
Probe Type,0,Probe Type,0,
Probe Ratio,1.000e+01,Probe Ratio,1.000e+00,
Vertical Scale,5.000e-01,Vertical Scale,2.000e-01,
Vertical Position,-1.780e+00,Vertical Position,-2.240e+00,
Horizontal Units,S,Horizontal Units,S,
Horizontal Scale,2.000E-05,Horizontal Scale,2.000E-05,
Horizontal Position,-3.200E-06,Horizontal Position,-3.200E-06,
Horizontal Mode,Main,Horizontal Mode,Main,
SincET Mode,Real Time,SincET Mode,Real Time,
Sampling Period,2.000e-08,Sampling Period,2.000e-08,
Horizontal Old Scale,2.000E-05,Horizontal Old Scale,2.000E-05,
Horizontal Old Position,-3.200E-06,Horizontal Old Position,-3.200E-06,
Firmware,V1.23,Firmware,V1.23,
Mode,Fast,Mode,Fast,
Waveform Data,,Waveform Data,,
1, ,347, ,
0, ,345, ,
3, ,346, ,
1, ,345, ,
1, ,346, ,
1, ,345, ,
1, ,347, ,
0, ,345, ,
3, ,346, ,
1, ,345, ,
1, ,346, ,
3, ,345, ,
1, ,347, ,
0, ,345, ,
3, ,346, ,
1, ,346, ,
1, ,345, ,
3, ,346, ,
1, ,347, ,
0, ,344, ,
3, ,347, ,
1, ,346, ,
1, ,346, ,
3, ,345, ,
1, ,348, ,
0, ,345, ,
3, ,346, ,
1, ,345, ,
1, ,346, ,
3, ,346, ,
1, ,348, ,
0, ,345, ,
3, ,346, ,
1, ,345, ,
1, ,346, ,
3, ,345, ,
1, ,347, ,
0, ,344, ,
3, ,346, ,
1, ,344, ,
1, ,345, ,
3, ,346, ,
1, ,348, ,
0, ,344, ,
3, ,346, ,
0, ,346, ,
0, ,346, ,
1, ,345, ,
1, ,348, ,
0, ,345, ,
3, ,346, ,
1, ,345, ,
1, ,345, ,
1, ,345, ,
1, ,348, ,
0, ,344, ,
3, ,346, ,
1, ,338, ,
1, ,345, ,
3, ,351, ,
1, ,351, ,
0, ,344, ,
3, ,344, ,
1, ,345, ,
1, ,346, ,
1, ,346, ,
1, ,348, ,
0, ,344, ,
3, ,346, ,
1, ,346, ,
1, ,345, ,
3, ,345, ,
1, ,347, ,
0, ,344, ,
3, ,346, ,
1, ,345, ,
1, ,346, ,
1, ,345, ,
1, ,348, ,
0, ,345, ,
3, ,346, ,
1, ,346, ,
1, ,346, ,
3, ,345, ,
1, ,346, ,
0, ,345, ,
3, ,348, ,
1, ,345, ,
1, ,345, ,
3, ,345, ,
1, ,346, ,
0, ,344, ,
3, ,347, ,
1, ,346, ,
1, ,346, ,
1, ,345, ,
1, ,346, ,
0, ,345, ,
3, ,346, ,
1, ,344, ,
1, ,346, ,
3, ,346, ,
1, ,348, ,
0, ,345, ,
3, ,348, ,
0, ,346, ,
1, ,345, ,
1, ,344, ,
1, ,348, ,
0, ,344, ,
3, ,348, ,
1, ,346, ,
1, ,345, ,
3, ,345, ,
1, ,347, ,
0, ,345, ,
3, ,346, ,
1, ,346, ,
1, ,345, ,
1, ,345, ,
1, ,347, ,
0, ,345, ,
3, ,348, ,
1, ,345, ,
1, ,345, ,
1, ,344, ,
1, ,346, ,
0, ,344, ,
9, ,346, ,
90, ,346, ,
57, ,345, ,
33, ,344, ,
20, ,347, ,
15, ,344, ,
14, ,347, ,
8, ,346, ,
5, ,345, ,
6, ,345, ,
5, ,346, ,
4, ,345, ,
5, ,346, ,
4, ,344, ,
3, ,345, ,
5, ,345, ,
4, ,347, ,
1, ,344, ,
5, ,346, ,
3, ,345, ,
4, ,346, ,
4, ,345, ,
3, ,347, ,
1, ,345, ,
4, ,346, ,
3, ,346, ,
3, ,346, ,
4, ,345, ,
4, ,346, ,
3, ,345, ,
4, ,346, ,
3, ,345, ,
3, ,346, ,
4, ,345, ,
4, ,346, ,
1, ,344, ,
4, ,346, ,
1, ,346, ,
3, ,346, ,
4, ,345, ,
3, ,346, ,
3, ,345, ,
4, ,348, ,
1, ,346, ,
3, ,346, ,
4, ,345, ,
3, ,347, ,
1, ,344, ,
4, ,348, ,
3, ,348, ,
3, ,345, ,
4, ,345, ,
4, ,346, ,
3, ,345, ,
4, ,347, ,
3, ,345, ,
3, ,346, ,
4, ,346, ,
3, ,348, ,
3, ,343, ,
4, ,346, ,
1, ,345, ,
3, ,346, ,
4, ,345, ,
4, ,346, ,
3, ,345, ,
4, ,346, ,
3, ,345, ,
3, ,346, ,
3, ,346, ,
4, ,348, ,
1, ,344, ,
4, ,347, ,
3, ,346, ,
3, ,346, ,
4, ,344, ,
3, ,346, ,
1, ,345, ,
4, ,346, ,
3, ,346, ,
3, ,345, ,
4, ,346, ,
3, ,346, ,
1, ,344, ,
4, ,346, ,
1, ,346, ,
3, ,346, ,
3, ,345, ,
3, ,347, ,
1, ,344, ,
4, ,346, ,
1, ,344, ,
3, ,345, ,
4, ,345, ,
3, ,346, ,
3, ,344, ,
4, ,347, ,
3, ,346, ,
3, ,345, ,
3, ,346, ,
4, ,346, ,
1, ,346, ,
4, ,347, ,
1, ,346, ,
3, ,346, ,
3, ,346, ,
3, ,348, ,
1, ,344, ,
4, ,347, ,
1, ,346, ,
3, ,346, ,
4, ,345, ,
3, ,347, ,
1, ,345, ,
4, ,346, ,
1, ,345, ,
3, ,346, ,
3, ,346, ,
4, ,347, ,
1, ,344, ,
4, ,347, ,
3, ,346, ,
3, ,346, ,
3, ,345, ,
3, ,348, ,
1, ,345, ,
4, ,347, ,
3, ,345, ,
3, ,346, ,
3, ,344, ,
3, ,348, ,
1, ,345, ,
4, ,346, ,
1, ,346, ,
1, ,345, ,
3, ,345, ,
3, ,347, ,
1, ,345, ,
4, ,346, ,
3, ,345, ,
3, ,345, ,
3, ,346, ,
3, ,347, ,
1, ,344, ,
4, ,346, ,
3, ,346, ,
1, ,346, ,
3, ,345, ,
3, ,347, ,
1, ,345, ,
4, ,346, ,
3, ,345, ,
3, ,345, ,
3, ,344, ,
3, ,347, ,
1, ,344, ,
4, ,346, ,
3, ,347, ,
3, ,346, ,
3, ,345, ,
3, ,347, ,
1, ,345, ,
4, ,346, ,
3, ,346, ,
1, ,345, ,
3, ,346, ,
3, ,348, ,
1, ,344, ,
4, ,346, ,
3, ,346, ,
3, ,345, ,
3, ,345, ,
3, ,346, ,
1, ,345, ,
4, ,346, ,
3, ,345, ,
1, ,346, ,
3, ,345, ,
3, ,347, ,
1, ,344, ,
4, ,346, ,
1, ,345, ,
1, ,346, ,
3, ,344, ,
3, ,348, ,
1, ,344, ,
4, ,347, ,
1, ,345, ,
3, ,346, ,
3, ,345, ,
3, ,347, ,
1, ,344, ,
4, ,345, ,
1, ,344, ,
1, ,344, ,
3, ,346, ,
3, ,348, ,
1, ,346, ,
4, ,348, ,
1, ,345, ,
3, ,346, ,
3, ,346, ,
3, ,347, ,
1, ,343, ,
4, ,345, ,
1, ,346, ,
3, ,346, ,
3, ,345, ,
3, ,346, ,
52, ,345, ,
38, ,346, ,
24, ,345, ,
18, ,345, ,
14, ,345, ,
8, ,347, ,
5, ,345, ,
6, ,346, ,
4, ,346, ,
4, ,346, ,
4, ,345, ,
3, ,347, ,
3, ,344, ,
4, ,346, ,
3, ,345, ,
3, ,346, ,
4, ,345, ,
4, ,347, ,
3, ,344, ,
4, ,346, ,
3, ,346, ,
3, ,346, ,
4, ,345, ,
4, ,347, ,
1, ,345, ,
4, ,346, ,
3, ,345, ,
3, ,345, ,
4, ,344, ,
3, ,346, ,
1, ,343, ,
4, ,345, ,
1, ,345, ,
3, ,346, ,
4, ,344, ,
3, ,347, ,
1, ,345, ,
4, ,346, ,
3, ,346, ,
3, ,345, ,
4, ,344, ,
3, ,346, ,
1, ,344, ,
4, ,347, ,
3, ,345, ,
3, ,346, ,
4, ,344, ,
4, ,346, ,
3, ,345, ,
4, ,346, ,
3, ,345, ,
3, ,345, ,
4, ,346, ,
3, ,346, ,
3, ,344, ,
4, ,346, ,
1, ,345, ,
3, ,345, ,
4, ,345, ,
3, ,347, ,
1, ,345, ,
4, ,347, ,
3, ,344, ,
3, ,345, ,
4, ,345, ,
3, ,346, ,
3, ,345, ,
4, ,346, ,
3, ,346, ,
3, ,346, ,
3, ,346, ,
3, ,347, ,
1, ,346, ,
4, ,347, ,
3, ,345, ,
3, ,345, ,
4, ,346, ,
3, ,348, ,
1, ,345, ,
4, ,347, ,
1, ,346, ,
3, ,345, ,
4, ,345, ,
3, ,346, ,
1, ,345, ,
4, ,347, ,
1, ,344, ,
3, ,345, ,
3, ,344, ,
3, ,348, ,
1, ,344, ,
4, ,346, ,
3, ,346, ,
3, ,346, ,
4, ,344, ,
3, ,346, ,
1, ,344, ,
4, ,346, ,
1, ,344, ,
3, ,345, ,
3, ,344, ,
3, ,346, ,
1, ,345, ,
4, ,346, ,
1, ,345, ,
3, ,346, ,
3, ,345, ,
3, ,347, ,
1, ,345, ,
4, ,346, ,
1, ,344, ,
3, ,345, ,
3, ,346, ,
3, ,347, ,
1, ,345, ,
4, ,346, ,
3, ,346, ,
3, ,346, ,
3, ,344, ,
3, ,346, ,
1, ,345, ,
4, ,346, ,
3, ,345, ,
3, ,346, ,
3, ,346, ,
3, ,348, ,
1, ,344, ,
4, ,345, ,
3, ,344, ,
1, ,346, ,
3, ,345, ,
3, ,346, ,
1, ,345, ,
4, ,346, ,
3, ,345, ,
3, ,341, ,
3, ,345, ,
3, ,352, ,
1, ,349, ,
4, ,346, ,
3, ,344, ,
3, ,345, ,
3, ,346, ,
3, ,347, ,
1, ,345, ,
4, ,348, ,
3, ,347, ,
1, ,344, ,
3, ,346, ,
3, ,347, ,
1, ,345, ,
4, ,346, ,
1, ,346, ,
1, ,345, ,
3, ,345, ,
3, ,347, ,
1, ,345, ,
4, ,346, ,
1, ,345, ,
3, ,345, ,
3, ,345, ,
3, ,346, ,
1, ,344, ,
4, ,347, ,
1, ,346, ,
3, ,346, ,
3, ,344, ,
3, ,346, ,
1, ,344, ,
4, ,346, ,
1, ,344, ,
3, ,345, ,
3, ,344, ,
3, ,346, ,
1, ,344, ,
3, ,347, ,
1, ,346, ,
3, ,345, ,
3, ,345, ,
3, ,348, ,
1, ,344, ,
4, ,346, ,
1, ,344, ,
3, ,346, ,
3, ,345, ,
1, ,346, ,
1, ,344, ,
3, ,346, ,
1, ,346, ,
1, ,346, ,
3, ,345, ,
3, ,346, ,
1, ,345, ,
3, ,347, ,
1, ,345, ,
3, ,345, ,
3, ,346, ,
3, ,348, ,
1, ,344, ,
4, ,346, ,
1, ,345, ,
3, ,346, ,
3, ,345, ,
1, ,348, ,
1, ,345, ,
4, ,346, ,
1, ,344, ,
1, ,346, ,
3, ,346, ,
1, ,347, ,
1, ,344, ,
4, ,346, ,
1, ,345, ,
1, ,345, ,
3, ,345, ,
3, ,347, ,
1, ,345, ,
4, ,346, ,
1, ,345, ,
1, ,346, ,
3, ,345, ,
3, ,347, ,
1, ,345, ,
4, ,346, ,
1, ,346, ,
1, ,346, ,
3, ,345, ,
3, ,347, ,
1, ,345, ,
3, ,346, ,
3, ,345, ,
3, ,346, ,
3, ,346, ,
1, ,347, ,
1, ,344, ,
3, ,346, ,
1, ,346, ,
1, ,346, ,
3, ,345, ,
3, ,347, ,
1, ,345, ,
3, ,347, ,
3, ,346, ,
3, ,346, ,
3, ,346, ,
1, ,347, ,
1, ,345, ,
3, ,348, ,
1, ,346, ,
1, ,346, ,
3, ,346, ,
1, ,346, ,
1, ,345, ,
3, ,346, ,
1, ,345, ,
1, ,346, ,
3, ,345, ,
1, ,347, ,
1, ,344, ,
3, ,347, ,
1, ,346, ,
1, ,346, ,
3, ,345, ,
1, ,346, ,
1, ,345, ,
4, ,345, ,
1, ,345, ,
3, ,346, ,
3, ,346, ,
1, ,347, ,
1, ,344, ,
3, ,347, ,
1, ,346, ,
1, ,346, ,
3, ,345, ,
1, ,346, ,
1, ,345, ,
4, ,346, ,
1, ,345, ,
3, ,346, ,
3, ,346, ,
3, ,348, ,
1, ,344, ,
4, ,346, ,
1, ,345, ,
1, ,346, ,
3, ,345, ,
1, ,346, ,
0, ,345, ,
3, ,346, ,
1, ,345, ,
1, ,346, ,
3, ,345, ,
1, ,347, ,
1, ,344, ,
3, ,346, ,
1, ,347, ,
1, ,345, ,
3, ,345, ,
1, ,346, ,
1, ,345, ,
3, ,346, ,
1, ,345, ,
1, ,345, ,
3, ,345, ,
1, ,346, ,
1, ,344, ,
3, ,346, ,
1, ,346, ,
1, ,345, ,
3, ,345, ,
1, ,346, ,
0, ,345, ,
3, ,346, ,
1, ,344, ,
1, ,346, ,
3, ,346, ,
1, ,347, ,
1, ,344, ,
3, ,345, ,
1, ,346, ,
1, ,346, ,
3, ,345, ,
1, ,346, ,
0, ,345, ,
3, ,346, ,
1, ,346, ,
3, ,345, ,
3, ,346, ,
1, ,346, ,
0, ,345, ,
3, ,346, ,
1, ,346, ,
1, ,346, ,
3, ,344, ,
1, ,346, ,
0, ,344, ,
3, ,346, ,
1, ,345, ,
1, ,345, ,
3, ,345, ,
1, ,347, ,
1, ,344, ,
3, ,347, ,
1, ,345, ,
1, ,346, ,
3, ,345, ,
3, ,346, ,
0, ,345, ,
3, ,346, ,
1, ,345, ,
1, ,346, ,
3, ,345, ,
1, ,347, ,
1, ,344, ,
3, ,346, ,
1, ,345, ,
1, ,346, ,
3, ,345, ,
1, ,346, ,
0, ,345, ,
3, ,346, ,
1, ,344, ,
1, ,345, ,
3, ,345, ,
1, ,348, ,
0, ,344, ,
3, ,346, ,
1, ,345, ,
1, ,345, ,
3, ,345, ,
1, ,347, ,
0, ,345, ,
3, ,347, ,
1, ,345, ,
1, ,346, ,
3, ,345, ,
1, ,347, ,
0, ,344, ,
3, ,346, ,
1, ,345, ,
1, ,345, ,
3, ,345, ,
1, ,346, ,
0, ,344, ,
3, ,346, ,
1, ,345, ,
1, ,345, ,
1, ,346, ,
1, ,347, ,
0, ,344, ,
3, ,346, ,
1, ,345, ,
1, ,345, ,
3, ,345, ,
3, ,347, ,
0, ,345, ,
3, ,346, ,
1, ,345, ,
1, ,346, ,
3, ,346, ,
1, ,347, ,
0, ,344, ,
1, ,345, ,
5, ,345, ,
74, ,346, ,
48, ,345, ,
28, ,346, ,
16, ,344, ,
15, ,347, ,
11, ,344, ,
8, ,346, ,
6, ,345, ,
5, ,346, ,
4, ,343, ,
5, ,345, ,
3, ,344, ,
3, ,346, ,
4, ,345, ,
4, ,348, ,
1, ,345, ,
4, ,346, ,
3, ,345, ,
3, ,344, ,
4, ,343, ,
3, ,347, ,
3, ,344, ,
4, ,346, ,
1, ,346, ,
3, ,346, ,
4, ,345, ,
4, ,346, ,
1, ,345, ,
4, ,346, ,
3, ,344, ,
3, ,345, ,
4, ,346, ,
4, ,347, ,
3, ,344, ,
4, ,346, ,
3, ,346, ,
3, ,342, ,
4, ,340, ,
4, ,344, ,
1, ,348, ,
4, ,352, ,
3, ,351, ,
3, ,345, ,
4, ,340, ,
4, ,344, ,
3, ,345, ,
4, ,348, ,
3, ,345, ,
3, ,346, ,
4, ,344, ,
3, ,346, ,
1, ,345, ,
4, ,346, ,
3, ,345, ,
3, ,344, ,
4, ,345, ,
4, ,347, ,
1, ,344, ,
4, ,344, ,
1, ,346, ,
3, ,346, ,
4, ,345, ,
3, ,346, ,
1, ,345, ,
4, ,345, ,
3, ,345, ,
3, ,345, ,
4, ,345, ,
3, ,346, ,
3, ,343, ,
4, ,346, ,
3, ,346, ,
3, ,345, ,
4, ,345, ,
4, ,346, ,
1, ,344, ,
4, ,345, ,
1, ,345, ,
3, ,345, ,
3, ,345, ,
3, ,346, ,
1, ,344, ,
4, ,346, ,
3, ,345, ,
3, ,345, ,
4, ,344, ,
3, ,346, ,
1, ,345, ,
4, ,346, ,
1, ,346, ,
1, ,346, ,
4, ,346, ,
3, ,346, ,
1, ,344, ,
4, ,346, ,
3, ,346, ,
3, ,345, ,
4, ,344, ,
3, ,346, ,
1, ,345, ,
4, ,345, ,
1, ,344, ,
3, ,344, ,
3, ,346, ,
3, ,346, ,
3, ,345, ,
4, ,346, ,
1, ,345, ,
3, ,346, ,
3, ,345, ,
3, ,346, ,
1, ,345, ,
4, ,346, ,
3, ,344, ,
3, ,346, ,
3, ,346, ,
3, ,347, ,
1, ,344, ,
4, ,346, ,
1, ,346, ,
3, ,345, ,
4, ,345, ,
3, ,346, ,
1, ,345, ,
4, ,346, ,
3, ,345, ,
3, ,345, ,
3, ,346, ,
3, ,347, ,
1, ,343, ,
4, ,345, ,
1, ,344, ,
3, ,345, ,
3, ,344, ,
3, ,347, ,
1, ,345, ,
4, ,346, ,
3, ,345, ,
3, ,345, ,
3, ,345, ,
3, ,346, ,
37, ,345, ,
30, ,345, ,
20, ,346, ,
14, ,346, ,
11, ,346, ,
8, ,349, ,
4, ,346, ,
5, ,346, ,
4, ,345, ,
3, ,345, ,
4, ,346, ,
3, ,348, ,
3, ,345, ,
4, ,347, ,
3, ,346, ,
3, ,345, ,
4, ,344, ,
4, ,346, ,
1, ,346, ,
4, ,348, ,
3, ,346, ,
3, ,345, ,
4, ,345, ,
3, ,348, ,
3, ,345, ,
4, ,346, ,
1, ,347, ,
3, ,346, ,
4, ,345, ,
4, ,348, ,
1, ,345, ,
4, ,348, ,
3, ,344, ,
3, ,345, ,
4, ,345, ,
4, ,347, ,
1, ,344, ,
4, ,346, ,
1, ,346, ,
3, ,346, ,
4, ,345, ,
3, ,348, ,
3, ,346, ,
4, ,346, ,
3, ,345, ,
3, ,346, ,
4, ,346, ,
4, ,347, ,
1, ,345, ,
4, ,346, ,
3, ,346, ,
3, ,345, ,
4, ,345, ,
3, ,348, ,
1, ,345, ,
4, ,346, ,
1, ,346, ,
3, ,346, ,
4, ,346, ,
3, ,347, ,
3, ,345, ,
4, ,346, ,
3, ,345, ,
3, ,346, ,
4, ,345, ,
4, ,348, ,
1, ,345, ,
4, ,347, ,
3, ,346, ,
1, ,345, ,
4, ,345, ,
3, ,347, ,
1, ,345, ,
4, ,346, ,
1, ,346, ,
3, ,346, ,
4, ,346, ,
3, ,346, ,
1, ,345, ,
4, ,346, ,
1, ,345, ,
3, ,346, ,
3, ,346, ,
3, ,346, ,
1, ,345, ,
4, ,345, ,
1, ,346, ,
3, ,346, ,
4, ,345, ,
3, ,347, ,
1, ,345, ,
4, ,346, ,
3, ,345, ,
3, ,346, ,
4, ,346, ,
3, ,346, ,
1, ,344, ,
4, ,346, ,
1, ,346, ,
3, ,346, ,
4, ,345, ,
3, ,348, ,
1, ,344, ,
4, ,347, ,
1, ,346, ,
3, ,345, ,
3, ,345, ,
3, ,348, ,
1, ,345, ,
4, ,346, ,
3, ,346, ,
3, ,345, ,
3, ,345, ,
3, ,347, ,
1, ,345, ,
4, ,346, ,
3, ,345, ,
3, ,346, ,
4, ,346, ,
3, ,348, ,
28, ,344, ,
27, ,347, ,
19, ,346, ,
13, ,346, ,
10, ,345, ,
8, ,348, ,
5, ,345, ,
6, ,346, ,
5, ,345, ,
3, ,345, ,
4, ,345, ,
3, ,347, ,
3, ,344, ,
4, ,346, ,
1, ,346, ,
3, ,345, ,
4, ,345, ,
4, ,348, ,
1, ,345, ,
4, ,346, ,
3, ,346, ,
3, ,345, ,
4, ,345, ,
4, ,346, ,
3, ,344, ,
4, ,346, ,
3, ,346, ,
3, ,346, ,
4, ,344, ,
4, ,348, ,
1, ,345, ,
4, ,347, ,
3, ,346, ,
3, ,346, ,
4, ,346, ,
4, ,348, ,
3, ,345, ,
4, ,346, ,
1, ,346, ,
3, ,344, ,
4, ,345, ,
4, ,346, ,
1, ,344, ,
4, ,347, ,
1, ,346, ,
3, ,346, ,
4, ,345, ,
4, ,348, ,
1, ,344, ,
4, ,346, ,
3, ,346, ,
3, ,346, ,
4, ,346, ,
3, ,346, ,
1, ,345, ,
4, ,346, ,
3, ,345, ,
3, ,345, ,
4, ,345, ,
3, ,348, ,
1, ,345, ,
4, ,346, ,
3, ,346, ,
3, ,347, ,
4, ,346, ,
3, ,348, ,
1, ,345, ,
4, ,346, ,
3, ,345, ,
3, ,346, ,
4, ,345, ,
3, ,341, ,
1, ,342, ,
4, ,351, ,
3, ,350, ,
3, ,345, ,
4, ,343, ,
3, ,347, ,
1, ,345, ,
4, ,346, ,
3, ,345, ,
3, ,346, ,
3, ,346, ,
3, ,347, ,
1, ,344, ,
4, ,348, ,
3, ,346, ,
3, ,346, ,
4, ,346, ,
3, ,347, ,
1, ,345, ,
4, ,348, ,
1, ,345, ,
3, ,346, ,
3, ,346, ,
3, ,348, ,
1, ,344, ,
4, ,346, ,
1, ,344, ,
3, ,345, ,
4, ,345, ,
3, ,348, ,
1, ,345, ,
4, ,347, ,
1, ,345, ,
3, ,345, ,
3, ,345, ,
3, ,348, ,
1, ,345, ,
4, ,348, ,
3, ,345, ,
3, ,346, ,
3, ,346, ,
3, ,347, ,
1, ,344, ,
4, ,346, ,
1, ,344, ,
1, ,345, ,
3, ,345, ,
3, ,347, ,
1, ,345, ,
4, ,348, ,
1, ,346, ,
3, ,346, ,
3, ,345, ,
3, ,348, ,
1, ,345, ,
4, ,346, ,
3, ,344, ,
3, ,346, ,
3, ,346, ,
3, ,348, ,
1, ,344, ,
4, ,347, ,
3, ,346, ,
1, ,345, ,
3, ,345, ,
3, ,348, ,
1, ,345, ,
4, ,348, ,
3, ,346, ,
3, ,346, ,
3, ,346, ,
3, ,348, ,
1, ,345, ,
4, ,346, ,
3, ,346, ,
3, ,345, ,
3, ,344, ,
3, ,346, ,
1, ,345, ,
4, ,346, ,
3, ,345, ,
3, ,345, ,
3, ,345, ,
3, ,348, ,
1, ,345, ,
4, ,348, ,
1, ,346, ,
3, ,347, ,
3, ,346, ,
3, ,347, ,
1, ,345, ,
4, ,347, ,
1, ,345, ,
3, ,346, ,
3, ,346, ,
3, ,347, ,
1, ,345, ,
4, ,346, ,
3, ,346, ,
3, ,345, ,
3, ,345, ,
1, ,348, ,
1, ,345, ,
4, ,346, ,
1, ,346, ,
1, ,346, ,
3, ,346, ,
3, ,346, ,
1, ,343, ,
4, ,347, ,
1, ,347, ,
3, ,347, ,
3, ,346, ,
3, ,347, ,
1, ,345, ,
4, ,346, ,
3, ,344, ,
3, ,344, ,
3, ,346, ,
1, ,347, ,
1, ,345, ,
4, ,346, ,
1, ,346, ,
1, ,346, ,
3, ,345, ,
3, ,346, ,
1, ,344, ,
4, ,346, ,
1, ,345, ,
3, ,345, ,
1, ,346, ,
1, ,347, ,
1, ,345, ,
4, ,346, ,
3, ,346, ,
1, ,346, ,
3, ,345, ,
3, ,347, ,
1, ,344, ,
4, ,347, ,
1, ,346, ,
1, ,346, ,
3, ,346, ,
3, ,347, ,
1, ,345, ,
4, ,347, ,
1, ,346, ,
1, ,345, ,
3, ,345, ,
3, ,347, ,
1, ,344, ,
3, ,347, ,
1, ,346, ,
3, ,343, ,
3, ,345, ,
3, ,348, ,
1, ,346, ,
3, ,347, ,
1, ,346, ,
3, ,346, ,
3, ,345, ,
3, ,346, ,
1, ,344, ,
4, ,348, ,
1, ,346, ,
1, ,345, ,
3, ,346, ,
1, ,347, ,
1, ,344, ,
3, ,346, ,
1, ,346, ,
1, ,346, ,
3, ,345, ,
1, ,346, ,
1, ,344, ,
4, ,347, ,
1, ,346, ,
3, ,346, ,
3, ,346, ,
3, ,347, ,
1, ,345, ,
3, ,347, ,
1, ,346, ,
3, ,345, ,
3, ,345, ,
3, ,348, ,
1, ,345, ,
3, ,346, ,
1, ,345, ,
3, ,346, ,
3, ,346, ,
3, ,346, ,
1, ,344, ,
3, ,348, ,
1, ,346, ,
1, ,346, ,
3, ,345, ,
3, ,347, ,
1, ,345, ,
3, ,346, ,
1, ,346, ,
1, ,346, ,
3, ,345, ,
3, ,347, ,
1, ,344, ,
3, ,346, ,
1, ,345, ,
1, ,346, ,
3, ,344, ,
1, ,347, ,
1, ,345, ,
3, ,347, ,
1, ,346, ,
1, ,346, ,
3, ,346, ,
1, ,348, ,
1, ,344, ,
3, ,346, ,
1, ,346, ,
1, ,347, ,
3, ,345, ,
1, ,347, ,
1, ,345, ,
3, ,345, ,
1, ,346, ,
1, ,346, ,
3, ,345, ,
3, ,348, ,
1, ,343, ,
3, ,346, ,
1, ,347, ,
1, ,346, ,
3, ,346, ,
1, ,347, ,
1, ,344, ,
3, ,346, ,
1, ,344, ,
1, ,345, ,
3, ,346, ,
3, ,348, ,
1, ,345, ,
3, ,346, ,
1, ,346, ,
1, ,346, ,
3, ,345, ,
1, ,348, ,
1, ,345, ,
3, ,345, ,
1, ,346, ,
1, ,346, ,
3, ,346, ,
1, ,348, ,
1, ,345, ,
3, ,346, ,
1, ,347, ,
1, ,346, ,
3, ,345, ,
1, ,347, ,
1, ,345, ,
3, ,347, ,
1, ,345, ,
1, ,344, ,
3, ,346, ,
1, ,348, ,
1, ,344, ,
3, ,345, ,
1, ,346, ,
1, ,345, ,
3, ,345, ,
1, ,346, ,
1, ,345, ,
3, ,348, ,
1, ,345, ,
1, ,345, ,
3, ,346, ,
1, ,346, ,
1, ,344, ,
3, ,346, ,
1, ,346, ,
1, ,345, ,
3, ,344, ,
1, ,346, ,
0, ,345, ,
3, ,346, ,
1, ,345, ,
1, ,345, ,
3, ,346, ,
1, ,347, ,
1, ,344, ,
3, ,346, ,
1, ,346, ,
1, ,345, ,
3, ,345, ,
1, ,347, ,
0, ,345, ,
3, ,346, ,
1, ,345, ,
1, ,346, ,
3, ,346, ,
1, ,347, ,
1, ,343, ,
3, ,348, ,
1, ,346, ,
1, ,345, ,
3, ,346, ,
1, ,346, ,
0, ,345, ,
3, ,346, ,
1, ,344, ,
1, ,346, ,
1, ,346, ,
1, ,348, ,
0, ,344, ,
3, ,346, ,
1, ,345, ,
1, ,346, ,
3, ,345, ,
1, ,347, ,
0, ,345, ,
3, ,348, ,
1, ,345, ,
1, ,346, ,
3, ,344, ,
1, ,346, ,
0, ,344, ,
3, ,347, ,
1, ,346, ,
1, ,345, ,
3, ,345, ,
1, ,346, ,
0, ,346, ,
3, ,347, ,
1, ,345, ,
1, ,345, ,
3, ,345, ,
1, ,347, ,
1, ,344, ,
3, ,345, ,
1, ,346, ,
1, ,345, ,
1, ,345, ,
1, ,347, ,
0, ,345, ,
3, ,347, ,
1, ,346, ,
1, ,345, ,
3, ,346, ,
1, ,348, ,
0, ,344, ,
3, ,346, ,
1, ,345, ,
1, ,346, ,
1, ,345, ,
1, ,346, ,
0, ,344, ,
3, ,346, ,
1, ,345, ,
1, ,346, ,
3, ,345, ,
1, ,347, ,
0, ,344, ,
3, ,346, ,
1, ,346, ,
1, ,346, ,
3, ,345, ,
1, ,345, ,
1, ,345, ,
3, ,348, ,
1, ,346, ,
1, ,344, ,
3, ,346, ,
1, ,346, ,
0, ,344, ,
3, ,346, ,
1, ,344, ,
1, ,345, ,
3, ,345, ,
1, ,346, ,
0, ,345, ,
3, ,346, ,
1, ,345, ,
1, ,344, ,
3, ,345, ,
1, ,347, ,
1, ,345, ,
3, ,346, ,
1, ,345, ,
1, ,345, ,
3, ,344, ,
1, ,347, ,
0, ,344, ,
3, ,346, ,
1, ,345, ,
1, ,346, ,
3, ,346, ,
1, ,346, ,
0, ,344, ,
3, ,346, ,
1, ,346, ,
1, ,345, ,
1, ,345, ,
1, ,347, ,
0, ,345, ,
3, ,346, ,
1, ,346, ,
1, ,346, ,
3, ,345, ,
1, ,347, ,
0, ,344, ,
3, ,346, ,
1, ,347, ,
1, ,346, ,
1, ,345, ,
1, ,347, ,
0, ,345, ,
3, ,346, ,
1, ,345, ,
1, ,346, ,
1, ,346, ,
1, ,348, ,
0, ,344, ,
3, ,346, ,
1, ,346, ,
1, ,346, ,
3, ,344, ,
1, ,346, ,
0, ,345, ,
3, ,346, ,
1, ,346, ,
1, ,344, ,
3, ,346, ,
1, ,347, ,
0, ,345, ,
3, ,348, ,
1, ,346, ,
1, ,345, ,
3, ,346, ,
1, ,346, ,
0, ,345, ,
3, ,347, ,
1, ,345, ,
1, ,345, ,
1, ,346, ,
1, ,347, ,
0, ,344, ,
3, ,346, ,
1, ,347, ,
1, ,346, ,
3, ,345, ,
1, ,346, ,
0, ,345, ,
3, ,346, ,
1, ,345, ,
1, ,346, ,
3, ,346, ,
1, ,346, ,
95, ,344, ,
60, ,346, ,
38, ,346, ,
27, ,345, ,
19, ,345, ,
11, ,347, ,
6, ,345, ,
8, ,346, ,
6, ,345, ,
5, ,345, ,
5, ,346, ,
5, ,348, ,
4, ,345, ,
5, ,346, ,
3, ,345, ,
3, ,345, ,
4, ,344, ,
4, ,346, ,
1, ,345, ,
4, ,346, ,
3, ,345, ,
3, ,346, ,
4, ,346, ,
4, ,347, ,
1, ,344, ,
4, ,346, ,
3, ,346, ,
3, ,346, ,
4, ,345, ,
4, ,348, ,
3, ,345, ,
4, ,346, ,
3, ,345, ,
3, ,345, ,
4, ,346, ,
4, ,348, ,
1, ,344, ,
4, ,346, ,
3, ,346, ,
3, ,346, ,
4, ,345, ,
3, ,346, ,
3, ,345, ,
4, ,346, ,
3, ,344, ,
3, ,346, ,
4, ,346, ,
4, ,348, ,
1, ,344, ,
4, ,346, ,
1, ,346, ,
3, ,345, ,
4, ,345, ,
3, ,348, ,
1, ,345, ,
4, ,346, ,
3, ,346, ,
3, ,345, ,
4, ,346, ,
3, ,347, ,
3, ,345, ,
4, ,348, ,
1, ,346, ,
3, ,346, ,
3, ,345, ,
3, ,346, ,
1, ,345, ,
4, ,347, ,
3, ,346, ,
3, ,345, ,
3, ,346, ,
3, ,347, ,
3, ,345, ,
4, ,346, ,
3, ,346, ,
3, ,346, ,
4, ,345, ,
3, ,346, ,
3, ,345, ,
4, ,346, ,
1, ,344, ,
1, ,345, ,
3, ,344, ,
3, ,347, ,
1, ,345, ,
4, ,346, ,
3, ,346, ,
3, ,346, ,
3, ,345, ,
3, ,348, ,
1, ,345, ,
4, ,345, ,
1, ,344, ,
3, ,346, ,
3, ,346, ,
3, ,348, ,
1, ,345, ,
4, ,346, ,
3, ,346, ,
3, ,345, ,
3, ,345, ,
3, ,346, ,
1, ,345, ,
4, ,346, ,
1, ,346, ,
1, ,345, ,
3, ,346, ,
3, ,347, ,
1, ,345, ,
4, ,346, ,
1, ,346, ,
3, ,346, ,
3, ,344, ,
3, ,348, ,
1, ,346, ,
4, ,346, ,
3, ,346, ,
3, ,345, ,
3, ,346, ,
3, ,346, ,
1, ,344, ,
4, ,346, ,
1, ,346, ,
3, ,346, ,
3, ,345, ,
3, ,348, ,
1, ,344, ,
4, ,346, ,
3, ,346, ,
3, ,345, ,
3, ,346, ,
3, ,348, ,
1, ,345, ,
4, ,345, ,
1, ,346, ,
3, ,346, ,
3, ,345, ,
3, ,348, ,
1, ,345, ,
4, ,346, ,
3, ,345, ,
3, ,345, ,
3, ,346, ,
3, ,347, ,
1, ,344, ,
4, ,346, ,
1, ,346, ,
3, ,345, ,
3, ,345, ,
3, ,348, ,
1, ,345, ,
4, ,345, ,
1, ,344, ,
1, ,346, ,
3, ,347, ,
3, ,348, ,
1, ,345, ,
3, ,346, ,
1, ,347, ,
3, ,345, ,
3, ,345, ,
3, ,348, ,
1, ,345, ,
4, ,346, ,
3, ,345, ,
1, ,346, ,
3, ,346, ,
3, ,348, ,
1, ,344, ,
4, ,346, ,
1, ,346, ,
3, ,346, ,
3, ,345, ,
3, ,348, ,
1, ,345, ,
3, ,346, ,
3, ,345, ,
3, ,346, ,
3, ,345, ,
3, ,348, ,
1, ,344, ,
4, ,346, ,
1, ,346, ,
3, ,346, ,
3, ,345, ,
3, ,347, ,
1, ,345, ,
4, ,345, ,
