src/vary_led_1562/temp0001019.CSV

Format,1.0B,
Memory Length,10000,Memory Length,10000,
IntpDistance,0,IntpDistance,0,
Trigger Address,5159,Trigger Address,5159,
Trigger Level,3.000E-01,Trigger Level,3.000E-01,
Source,CH1,Source,CH2,
Vertical Units,V,Vertical Units,V,
Vertical Units Div,0,Vertical Units Div,0,
Vertical Units Extend Div,16,Vertical Units Extend Div,16,
Label,,Label,,
Probe Type,0,Probe Type,0,
Probe Ratio,1.000e+01,Probe Ratio,1.000e+00,
Vertical Scale,5.000e-01,Vertical Scale,2.000e-01,
Vertical Position,-1.780e+00,Vertical Position,-2.240e+00,
Horizontal Units,S,Horizontal Units,S,
Horizontal Scale,2.000E-05,Horizontal Scale,2.000E-05,
Horizontal Position,-3.200E-06,Horizontal Position,-3.200E-06,
Horizontal Mode,Main,Horizontal Mode,Main,
SincET Mode,Real Time,SincET Mode,Real Time,
Sampling Period,2.000e-08,Sampling Period,2.000e-08,
Horizontal Old Scale,2.000E-05,Horizontal Old Scale,2.000E-05,
Horizontal Old Position,-3.200E-06,Horizontal Old Position,-3.200E-06,
Firmware,V1.23,Firmware,V1.23,
Mode,Fast,Mode,Fast,
Waveform Data,,Waveform Data,,
4, ,211, ,
1, ,211, ,
3, ,211, ,
3, ,211, ,
3, ,210, ,
1, ,211, ,
3, ,210, ,
1, ,210, ,
3, ,213, ,
3, ,211, ,
3, ,209, ,
1, ,211, ,
3, ,211, ,
1, ,211, ,
3, ,211, ,
3, ,210, ,
3, ,209, ,
1, ,212, ,
3, ,209, ,
1, ,211, ,
3, ,213, ,
3, ,211, ,
3, ,209, ,
1, ,210, ,
3, ,210, ,
1, ,211, ,
3, ,210, ,
3, ,210, ,
3, ,211, ,
1, ,211, ,
4, ,211, ,
3, ,210, ,
3, ,213, ,
3, ,211, ,
3, ,210, ,
1, ,211, ,
3, ,211, ,
1, ,210, ,
1, ,211, ,
3, ,211, ,
3, ,209, ,
1, ,213, ,
3, ,211, ,
1, ,210, ,
3, ,213, ,
3, ,211, ,
3, ,210, ,
1, ,212, ,
3, ,211, ,
1, ,211, ,
3, ,211, ,
3, ,211, ,
3, ,210, ,
1, ,212, ,
3, ,211, ,
1, ,211, ,
3, ,213, ,
3, ,211, ,
1, ,211, ,
1, ,212, ,
3, ,210, ,
1, ,211, ,
3, ,210, ,
3, ,211, ,
3, ,209, ,
1, ,211, ,
3, ,211, ,
1, ,210, ,
1, ,213, ,
3, ,211, ,
3, ,210, ,
1, ,211, ,
3, ,211, ,
1, ,211, ,
1, ,211, ,
3, ,211, ,
3, ,211, ,
1, ,211, ,
3, ,209, ,
1, ,210, ,
1, ,214, ,
3, ,212, ,
3, ,210, ,
1, ,211, ,
3, ,211, ,
1, ,210, ,
3, ,213, ,
3, ,210, ,
3, ,210, ,
1, ,212, ,
3, ,211, ,
1, ,210, ,
3, ,213, ,
3, ,211, ,
3, ,209, ,
1, ,211, ,
3, ,210, ,
1, ,211, ,
1, ,211, ,
3, ,211, ,
3, ,210, ,
1, ,213, ,
3, ,211, ,
1, ,211, ,
3, ,213, ,
3, ,211, ,
3, ,209, ,
1, ,211, ,
3, ,211, ,
1, ,210, ,
1, ,212, ,
3, ,211, ,
3, ,211, ,
1, ,211, ,
3, ,211, ,
1, ,210, ,
3, ,213, ,
3, ,211, ,
3, ,211, ,
0, ,211, ,
3, ,211, ,
1, ,211, ,
1, ,211, ,
1, ,211, ,
1, ,210, ,
1, ,212, ,
3, ,209, ,
1, ,210, ,
3, ,213, ,
3, ,211, ,
3, ,209, ,
1, ,210, ,
3, ,211, ,
1, ,210, ,
1, ,211, ,
1, ,210, ,
3, ,211, ,
1, ,212, ,
3, ,211, ,
1, ,210, ,
1, ,214, ,
3, ,212, ,
3, ,209, ,
1, ,211, ,
3, ,211, ,
1, ,211, ,
1, ,210, ,
3, ,211, ,
1, ,210, ,
1, ,211, ,
3, ,210, ,
1, ,210, ,
1, ,213, ,
3, ,211, ,
1, ,209, ,
1, ,211, ,
3, ,211, ,
1, ,211, ,
1, ,211, ,
3, ,211, ,
3, ,210, ,
1, ,212, ,
3, ,210, ,
1, ,210, ,
1, ,213, ,
3, ,211, ,
3, ,210, ,
1, ,211, ,
3, ,211, ,
1, ,211, ,
1, ,211, ,
3, ,211, ,
1, ,211, ,
1, ,211, ,
3, ,210, ,
1, ,211, ,
1, ,213, ,
3, ,211, ,
3, ,210, ,
0, ,212, ,
3, ,211, ,
1, ,211, ,
3, ,211, ,
3, ,211, ,
1, ,209, ,
0, ,212, ,
3, ,211, ,
1, ,210, ,
1, ,213, ,
3, ,212, ,
1, ,210, ,
0, ,212, ,
3, ,211, ,
1, ,211, ,
1, ,210, ,
3, ,210, ,
1, ,211, ,
0, ,211, ,
3, ,211, ,
1, ,210, ,
1, ,213, ,
3, ,212, ,
1, ,208, ,
1, ,209, ,
3, ,208, ,
1, ,211, ,
1, ,213, ,
3, ,211, ,
1, ,211, ,
0, ,212, ,
3, ,211, ,
1, ,210, ,
1, ,212, ,
1, ,210, ,
3, ,210, ,
0, ,211, ,
3, ,210, ,
1, ,211, ,
1, ,211, ,
3, ,211, ,
3, ,210, ,
0, ,213, ,
3, ,210, ,
1, ,209, ,
1, ,213, ,
3, ,212, ,
1, ,210, ,
0, ,212, ,
3, ,211, ,
1, ,211, ,
1, ,211, ,
1, ,210, ,
1, ,210, ,
0, ,213, ,
3, ,210, ,
1, ,210, ,
1, ,213, ,
3, ,211, ,
3, ,210, ,
0, ,211, ,
3, ,211, ,
1, ,211, ,
1, ,212, ,
1, ,211, ,
1, ,210, ,
0, ,211, ,
3, ,212, ,
1, ,209, ,
1, ,212, ,
3, ,211, ,
3, ,209, ,
0, ,212, ,
3, ,211, ,
1, ,210, ,
1, ,211, ,
1, ,211, ,
1, ,210, ,
0, ,211, ,
3, ,210, ,
1, ,210, ,
1, ,213, ,
1, ,211, ,
3, ,209, ,
0, ,211, ,
3, ,211, ,
1, ,211, ,
1, ,210, ,
3, ,210, ,
3, ,211, ,
0, ,211, ,
3, ,209, ,
1, ,211, ,
1, ,211, ,
3, ,211, ,
3, ,210, ,
0, ,210, ,
3, ,211, ,
1, ,211, ,
3, ,211, ,
1, ,211, ,
1, ,211, ,
0, ,211, ,
3, ,210, ,
1, ,211, ,
1, ,212, ,
1, ,212, ,
1, ,209, ,
0, ,212, ,
1, ,211, ,
1, ,211, ,
3, ,211, ,
3, ,211, ,
3, ,211, ,
0, ,213, ,
1, ,209, ,
0, ,209, ,
1, ,213, ,
1, ,211, ,
1, ,209, ,
0, ,211, ,
3, ,211, ,
1, ,211, ,
1, ,210, ,
3, ,210, ,
1, ,211, ,
0, ,212, ,
3, ,210, ,
1, ,209, ,
1, ,211, ,
1, ,211, ,
1, ,210, ,
0, ,212, ,
3, ,210, ,
1, ,211, ,
1, ,211, ,
3, ,210, ,
1, ,210, ,
0, ,212, ,
3, ,211, ,
1, ,211, ,
1, ,212, ,
1, ,211, ,
1, ,211, ,
0, ,212, ,
3, ,211, ,
1, ,211, ,
1, ,203, ,
1, ,210, ,
1, ,218, ,
0, ,217, ,
3, ,209, ,
1, ,207, ,
1, ,212, ,
3, ,211, ,
1, ,209, ,
0, ,211, ,
3, ,211, ,
1, ,211, ,
1, ,210, ,
3, ,210, ,
1, ,210, ,
0, ,213, ,
3, ,211, ,
1, ,211, ,
1, ,213, ,
1, ,211, ,
1, ,209, ,
0, ,212, ,
3, ,211, ,
1, ,211, ,
1, ,212, ,
1, ,210, ,
1, ,211, ,
0, ,211, ,
3, ,211, ,
1, ,211, ,
1, ,213, ,
3, ,210, ,
1, ,210, ,
0, ,211, ,
3, ,210, ,
1, ,210, ,
1, ,212, ,
1, ,210, ,
1, ,211, ,
0, ,212, ,
3, ,211, ,
1, ,209, ,
1, ,212, ,
1, ,211, ,
1, ,209, ,
0, ,211, ,
3, ,211, ,
1, ,210, ,
1, ,212, ,
1, ,211, ,
1, ,210, ,
0, ,212, ,
3, ,211, ,
1, ,210, ,
1, ,213, ,
1, ,211, ,
3, ,210, ,
0, ,211, ,
3, ,211, ,
1, ,210, ,
1, ,212, ,
1, ,211, ,
1, ,209, ,
0, ,213, ,
3, ,212, ,
1, ,210, ,
1, ,211, ,
1, ,211, ,
1, ,210, ,
0, ,211, ,
3, ,210, ,
1, ,211, ,
1, ,211, ,
1, ,211, ,
1, ,210, ,
0, ,212, ,
3, ,211, ,
1, ,211, ,
1, ,211, ,
1, ,211, ,
1, ,210, ,
0, ,211, ,
3, ,210, ,
1, ,211, ,
1, ,211, ,
3, ,211, ,
3, ,211, ,
0, ,213, ,
3, ,211, ,
1, ,211, ,
1, ,212, ,
3, ,211, ,
1, ,209, ,
0, ,213, ,
3, ,211, ,
1, ,210, ,
1, ,211, ,
1, ,210, ,
1, ,211, ,
0, ,213, ,
3, ,210, ,
1, ,210, ,
1, ,212, ,
1, ,211, ,
1, ,211, ,
0, ,212, ,
3, ,210, ,
1, ,211, ,
1, ,211, ,
1, ,210, ,
1, ,210, ,
0, ,213, ,
3, ,211, ,
1, ,211, ,
1, ,212, ,
1, ,211, ,
1, ,210, ,
0, ,212, ,
1, ,211, ,
1, ,211, ,
1, ,211, ,
1, ,209, ,
1, ,210, ,
0, ,210, ,
3, ,208, ,
1, ,209, ,
1, ,213, ,
1, ,213, ,
1, ,212, ,
0, ,213, ,
3, ,211, ,
1, ,209, ,
1, ,211, ,
1, ,210, ,
1, ,210, ,
0, ,212, ,
3, ,211, ,
1, ,209, ,
1, ,213, ,
1, ,211, ,
1, ,210, ,
0, ,211, ,
3, ,210, ,
1, ,209, ,
1, ,211, ,
1, ,210, ,
1, ,209, ,
0, ,212, ,
1, ,211, ,
0, ,211, ,
1, ,211, ,
1, ,211, ,
3, ,210, ,
0, ,212, ,
3, ,210, ,
1, ,211, ,
1, ,210, ,
1, ,210, ,
1, ,210, ,
0, ,211, ,
3, ,211, ,
1, ,210, ,
1, ,212, ,
3, ,211, ,
1, ,211, ,
0, ,211, ,
3, ,211, ,
1, ,211, ,
1, ,212, ,
1, ,211, ,
1, ,210, ,
0, ,212, ,
3, ,211, ,
1, ,210, ,
1, ,211, ,
3, ,211, ,
1, ,211, ,
0, ,211, ,
3, ,211, ,
1, ,211, ,
1, ,211, ,
1, ,210, ,
1, ,210, ,
0, ,211, ,
3, ,211, ,
1, ,209, ,
1, ,212, ,
1, ,211, ,
1, ,210, ,
0, ,211, ,
3, ,211, ,
1, ,211, ,
1, ,211, ,
1, ,210, ,
1, ,211, ,
0, ,211, ,
3, ,211, ,
1, ,211, ,
1, ,211, ,
1, ,211, ,
1, ,210, ,
0, ,211, ,
1, ,211, ,
1, ,211, ,
1, ,211, ,
3, ,210, ,
1, ,210, ,
0, ,212, ,
3, ,211, ,
1, ,211, ,
1, ,211, ,
1, ,211, ,
1, ,210, ,
0, ,211, ,
3, ,211, ,
1, ,210, ,
1, ,210, ,
1, ,210, ,
1, ,211, ,
0, ,211, ,
3, ,210, ,
1, ,210, ,
1, ,211, ,
1, ,210, ,
1, ,210, ,
0, ,211, ,
3, ,211, ,
1, ,211, ,
1, ,211, ,
1, ,210, ,
1, ,211, ,
0, ,211, ,
3, ,211, ,
0, ,211, ,
1, ,213, ,
1, ,211, ,
1, ,210, ,
0, ,211, ,
1, ,210, ,
1, ,210, ,
1, ,213, ,
1, ,210, ,
1, ,211, ,
0, ,213, ,
1, ,211, ,
0, ,209, ,
1, ,211, ,
1, ,210, ,
1, ,210, ,
0, ,211, ,
3, ,210, ,
0, ,211, ,
1, ,212, ,
1, ,210, ,
1, ,211, ,
0, ,213, ,
3, ,211, ,
1, ,210, ,
1, ,212, ,
1, ,211, ,
1, ,211, ,
0, ,211, ,
1, ,211, ,
1, ,211, ,
1, ,211, ,
1, ,211, ,
1, ,211, ,
0, ,213, ,
3, ,210, ,
117, ,210, ,
72, ,212, ,
51, ,211, ,
34, ,210, ,
20, ,211, ,
14, ,211, ,
9, ,211, ,
8, ,211, ,
8, ,210, ,
4, ,210, ,
1, ,211, ,
5, ,211, ,
4, ,210, ,
3, ,213, ,
4, ,211, ,
3, ,210, ,
1, ,212, ,
5, ,211, ,
3, ,211, ,
4, ,211, ,
4, ,210, ,
4, ,210, ,
3, ,212, ,
4, ,210, ,
3, ,211, ,
3, ,212, ,
4, ,211, ,
4, ,211, ,
3, ,213, ,
4, ,211, ,
3, ,211, ,
3, ,211, ,
4, ,211, ,
4, ,211, ,
1, ,211, ,
4, ,211, ,
3, ,211, ,
3, ,213, ,
4, ,212, ,
4, ,210, ,
1, ,212, ,
4, ,211, ,
3, ,210, ,
3, ,211, ,
4, ,210, ,
4, ,210, ,
1, ,211, ,
4, ,210, ,
1, ,211, ,
3, ,213, ,
4, ,213, ,
4, ,210, ,
3, ,212, ,
4, ,211, ,
3, ,210, ,
4, ,211, ,
4, ,210, ,
4, ,211, ,
1, ,212, ,
4, ,211, ,
1, ,211, ,
3, ,211, ,
4, ,210, ,
4, ,209, ,
1, ,211, ,
4, ,211, ,
3, ,211, ,
3, ,211, ,
3, ,211, ,
4, ,210, ,
3, ,212, ,
4, ,211, ,
1, ,211, ,
3, ,211, ,
3, ,211, ,
3, ,211, ,
1, ,212, ,
4, ,211, ,
3, ,211, ,
3, ,211, ,
4, ,211, ,
3, ,210, ,
1, ,211, ,
4, ,210, ,
3, ,210, ,
3, ,211, ,
3, ,211, ,
4, ,211, ,
1, ,212, ,
4, ,211, ,
1, ,210, ,
3, ,212, ,
4, ,211, ,
3, ,211, ,
1, ,212, ,
4, ,211, ,
3, ,211, ,
3, ,212, ,
3, ,212, ,
3, ,211, ,
1, ,211, ,
4, ,210, ,
3, ,211, ,
3, ,211, ,
3, ,211, ,
3, ,211, ,
1, ,212, ,
4, ,211, ,
3, ,209, ,
3, ,211, ,
3, ,211, ,
3, ,210, ,
1, ,211, ,
4, ,212, ,
1, ,211, ,
3, ,211, ,
3, ,210, ,
3, ,210, ,
1, ,212, ,
4, ,211, ,
1, ,211, ,
3, ,212, ,
3, ,211, ,
3, ,211, ,
1, ,211, ,
4, ,211, ,
3, ,210, ,
3, ,212, ,
3, ,211, ,
3, ,210, ,
1, ,211, ,
4, ,211, ,
1, ,209, ,
3, ,211, ,
3, ,211, ,
3, ,209, ,
1, ,211, ,
4, ,211, ,
1, ,211, ,
3, ,211, ,
3, ,210, ,
3, ,211, ,
1, ,211, ,
4, ,210, ,
1, ,211, ,
3, ,213, ,
3, ,211, ,
3, ,210, ,
1, ,212, ,
4, ,211, ,
3, ,211, ,
3, ,211, ,
3, ,211, ,
3, ,211, ,
1, ,213, ,
4, ,211, ,
3, ,211, ,
3, ,211, ,
3, ,211, ,
3, ,211, ,
1, ,211, ,
4, ,210, ,
1, ,210, ,
3, ,211, ,
3, ,211, ,
3, ,211, ,
1, ,211, ,
4, ,211, ,
3, ,211, ,
3, ,212, ,
3, ,211, ,
3, ,211, ,
1, ,210, ,
3, ,211, ,
3, ,210, ,
3, ,211, ,
3, ,210, ,
3, ,211, ,
1, ,211, ,
4, ,211, ,
1, ,210, ,
3, ,211, ,
3, ,211, ,
3, ,210, ,
1, ,211, ,
3, ,212, ,
1, ,211, ,
3, ,211, ,
3, ,211, ,
3, ,211, ,
1, ,212, ,
3, ,211, ,
1, ,211, ,
3, ,211, ,
3, ,211, ,
3, ,210, ,
1, ,211, ,
4, ,211, ,
3, ,211, ,
3, ,211, ,
3, ,211, ,
3, ,211, ,
1, ,212, ,
4, ,210, ,
1, ,210, ,
3, ,211, ,
3, ,211, ,
3, ,210, ,
1, ,211, ,
3, ,211, ,
1, ,211, ,
3, ,212, ,
3, ,210, ,
1, ,211, ,
1, ,211, ,
3, ,210, ,
1, ,211, ,
3, ,211, ,
3, ,211, ,
3, ,211, ,
1, ,211, ,
3, ,211, ,
1, ,211, ,
3, ,211, ,
3, ,210, ,
3, ,211, ,
1, ,212, ,
4, ,211, ,
1, ,211, ,
1, ,212, ,
3, ,211, ,
3, ,211, ,
1, ,212, ,
3, ,211, ,
1, ,210, ,
3, ,210, ,
3, ,211, ,
3, ,210, ,
1, ,211, ,
3, ,210, ,
1, ,211, ,
1, ,213, ,
3, ,211, ,
3, ,211, ,
1, ,211, ,
3, ,210, ,
1, ,211, ,
3, ,211, ,
3, ,210, ,
3, ,211, ,
1, ,212, ,
3, ,211, ,
1, ,211, ,
3, ,212, ,
3, ,211, ,
1, ,211, ,
1, ,211, ,
3, ,211, ,
1, ,210, ,
3, ,212, ,
3, ,210, ,
3, ,211, ,
1, ,213, ,
3, ,210, ,
1, ,209, ,
3, ,210, ,
3, ,212, ,
3, ,210, ,
1, ,211, ,
3, ,210, ,
1, ,210, ,
3, ,211, ,
3, ,211, ,
3, ,211, ,
1, ,211, ,
4, ,210, ,
1, ,209, ,
3, ,211, ,
3, ,211, ,
3, ,211, ,
1, ,211, ,
3, ,211, ,
1, ,211, ,
3, ,211, ,
3, ,211, ,
1, ,211, ,
1, ,213, ,
3, ,211, ,
1, ,210, ,
3, ,212, ,
3, ,211, ,
3, ,210, ,
1, ,211, ,
3, ,211, ,
1, ,210, ,
3, ,212, ,
3, ,210, ,
1, ,211, ,
0, ,213, ,
3, ,211, ,
1, ,210, ,
3, ,211, ,
3, ,211, ,
3, ,209, ,
1, ,211, ,
3, ,211, ,
1, ,211, ,
1, ,211, ,
3, ,211, ,
1, ,211, ,
1, ,211, ,
3, ,211, ,
1, ,211, ,
3, ,212, ,
3, ,211, ,
1, ,211, ,
0, ,212, ,
3, ,211, ,
1, ,211, ,
3, ,211, ,
3, ,211, ,
3, ,211, ,
1, ,211, ,
3, ,211, ,
1, ,211, ,
3, ,212, ,
3, ,211, ,
3, ,209, ,
0, ,212, ,
3, ,211, ,
1, ,211, ,
1, ,211, ,
1, ,211, ,
3, ,211, ,
1, ,213, ,
3, ,212, ,
1, ,211, ,
3, ,211, ,
3, ,211, ,
3, ,210, ,
0, ,211, ,
3, ,211, ,
1, ,211, ,
3, ,211, ,
3, ,210, ,
1, ,211, ,
1, ,212, ,
3, ,211, ,
1, ,209, ,
1, ,211, ,
3, ,211, ,
3, ,211, ,
0, ,212, ,
3, ,211, ,
1, ,211, ,
3, ,211, ,
3, ,211, ,
1, ,210, ,
0, ,213, ,
3, ,211, ,
1, ,210, ,
3, ,212, ,
3, ,211, ,
1, ,211, ,
0, ,211, ,
3, ,211, ,
1, ,211, ,
3, ,211, ,
3, ,211, ,
1, ,210, ,
1, ,212, ,
3, ,211, ,
1, ,211, ,
1, ,212, ,
3, ,211, ,
3, ,209, ,
0, ,212, ,
3, ,211, ,
1, ,211, ,
3, ,211, ,
1, ,210, ,
3, ,210, ,
1, ,211, ,
3, ,211, ,
1, ,211, ,
1, ,211, ,
3, ,211, ,
3, ,211, ,
0, ,211, ,
3, ,211, ,
1, ,210, ,
3, ,211, ,
1, ,211, ,
3, ,211, ,
0, ,211, ,
3, ,211, ,
1, ,211, ,
1, ,211, ,
3, ,210, ,
3, ,211, ,
0, ,211, ,
3, ,211, ,
1, ,211, ,
3, ,211, ,
1, ,211, ,
3, ,211, ,
0, ,212, ,
3, ,211, ,
1, ,210, ,
1, ,212, ,
1, ,212, ,
3, ,211, ,
0, ,212, ,
3, ,211, ,
1, ,211, ,
1, ,211, ,
3, ,210, ,
3, ,210, ,
1, ,212, ,
3, ,211, ,
1, ,211, ,
1, ,212, ,
3, ,211, ,
1, ,209, ,
0, ,211, ,
3, ,211, ,
1, ,210, ,
3, ,211, ,
1, ,211, ,
1, ,209, ,
0, ,211, ,
3, ,211, ,
1, ,209, ,
1, ,211, ,
3, ,211, ,
3, ,210, ,
0, ,210, ,
3, ,211, ,
1, ,211, ,
3, ,211, ,
3, ,211, ,
1, ,210, ,
0, ,211, ,
3, ,211, ,
1, ,210, ,
3, ,211, ,
1, ,211, ,
1, ,211, ,
0, ,211, ,
3, ,211, ,
1, ,211, ,
1, ,210, ,
3, ,210, ,
1, ,211, ,
0, ,211, ,
3, ,211, ,
1, ,210, ,
1, ,211, ,
3, ,211, ,
1, ,211, ,
0, ,212, ,
3, ,211, ,
1, ,210, ,
1, ,211, ,
3, ,210, ,
1, ,211, ,
0, ,211, ,
3, ,211, ,
1, ,211, ,
1, ,213, ,
1, ,210, ,
1, ,211, ,
0, ,211, ,
3, ,211, ,
1, ,211, ,
1, ,212, ,
3, ,210, ,
3, ,211, ,
0, ,213, ,
3, ,210, ,
1, ,209, ,
1, ,211, ,
3, ,210, ,
1, ,209, ,
0, ,211, ,
3, ,212, ,
1, ,211, ,
1, ,213, ,
1, ,211, ,
1, ,210, ,
0, ,211, ,
3, ,209, ,
1, ,209, ,
1, ,212, ,
3, ,211, ,
3, ,211, ,
0, ,211, ,
3, ,211, ,
1, ,211, ,
3, ,210, ,
1, ,210, ,
1, ,210, ,
0, ,213, ,
3, ,211, ,
1, ,210, ,
1, ,213, ,
3, ,211, ,
1, ,210, ,
0, ,211, ,
3, ,210, ,
1, ,211, ,
1, ,211, ,
3, ,211, ,
1, ,211, ,
0, ,212, ,
3, ,211, ,
1, ,210, ,
1, ,211, ,
3, ,211, ,
1, ,209, ,
0, ,211, ,
3, ,210, ,
1, ,210, ,
1, ,211, ,
3, ,210, ,
1, ,209, ,
0, ,213, ,
3, ,210, ,
1, ,211, ,
1, ,211, ,
1, ,212, ,
1, ,210, ,
0, ,212, ,
3, ,211, ,
1, ,211, ,
1, ,211, ,
3, ,210, ,
3, ,211, ,
0, ,212, ,
3, ,211, ,
1, ,211, ,
1, ,213, ,
1, ,210, ,
1, ,210, ,
0, ,211, ,
3, ,211, ,
1, ,211, ,
1, ,211, ,
3, ,209, ,
1, ,209, ,
0, ,212, ,
3, ,211, ,
1, ,211, ,
1, ,212, ,
1, ,211, ,
1, ,209, ,
0, ,211, ,
3, ,210, ,
1, ,211, ,
1, ,211, ,
3, ,211, ,
3, ,211, ,
0, ,211, ,
3, ,211, ,
1, ,210, ,
1, ,212, ,
3, ,210, ,
1, ,210, ,
0, ,211, ,
3, ,211, ,
1, ,211, ,
1, ,210, ,
1, ,211, ,
1, ,211, ,
0, ,211, ,
3, ,211, ,
1, ,211, ,
1, ,211, ,
3, ,211, ,
3, ,211, ,
0, ,211, ,
3, ,211, ,
1, ,210, ,
1, ,210, ,
3, ,211, ,
1, ,211, ,
0, ,211, ,
3, ,211, ,
1, ,211, ,
1, ,212, ,
1, ,210, ,
1, ,209, ,
0, ,211, ,
3, ,211, ,
1, ,210, ,
1, ,211, ,
1, ,211, ,
1, ,211, ,
0, ,212, ,
3, ,211, ,
1, ,210, ,
1, ,212, ,
1, ,211, ,
1, ,210, ,
0, ,211, ,
1, ,211, ,
1, ,211, ,
1, ,212, ,
3, ,210, ,
1, ,210, ,
0, ,212, ,
3, ,210, ,
1, ,210, ,
1, ,213, ,
1, ,211, ,
1, ,209, ,
0, ,211, ,
3, ,211, ,
1, ,210, ,
1, ,211, ,
1, ,210, ,
1, ,211, ,
0, ,211, ,
3, ,209, ,
1, ,210, ,
1, ,213, ,
1, ,211, ,
1, ,209, ,
0, ,211, ,
3, ,211, ,
1, ,211, ,
1, ,211, ,
3, ,210, ,
1, ,211, ,
0, ,212, ,
3, ,210, ,
1, ,210, ,
1, ,212, ,
3, ,211, ,
1, ,211, ,
0, ,212, ,
3, ,211, ,
1, ,210, ,
1, ,211, ,
1, ,211, ,
1, ,210, ,
0, ,211, ,
3, ,211, ,
1, ,210, ,
1, ,212, ,
1, ,211, ,
3, ,210, ,
0, ,211, ,
3, ,211, ,
1, ,211, ,
1, ,211, ,
3, ,211, ,
1, ,211, ,
0, ,213, ,
3, ,211, ,
1, ,211, ,
1, ,213, ,
3, ,211, ,
1, ,211, ,
0, ,212, ,
3, ,212, ,
1, ,210, ,
1, ,212, ,
1, ,210, ,
1, ,210, ,
0, ,211, ,
3, ,212, ,
1, ,210, ,
1, ,213, ,
3, ,211, ,
1, ,210, ,
0, ,212, ,
3, ,211, ,
1, ,210, ,
1, ,211, ,
3, ,211, ,
1, ,211, ,
0, ,213, ,
1, ,209, ,
1, ,209, ,
1, ,213, ,
1, ,210, ,
1, ,209, ,
0, ,211, ,
3, ,211, ,
1, ,211, ,
1, ,212, ,
1, ,210, ,
1, ,210, ,
0, ,211, ,
1, ,210, ,
1, ,210, ,
1, ,212, ,
1, ,212, ,
1, ,209, ,
0, ,210, ,
3, ,211, ,
1, ,209, ,
1, ,211, ,
1, ,211, ,
1, ,211, ,
0, ,212, ,
3, ,210, ,
1, ,211, ,
1, ,213, ,
1, ,211, ,
1, ,209, ,
0, ,211, ,
3, ,211, ,
1, ,210, ,
1, ,211, ,
1, ,210, ,
1, ,211, ,
0, ,211, ,
3, ,211, ,
1, ,209, ,
1, ,212, ,
1, ,211, ,
1, ,210, ,
0, ,211, ,
1, ,210, ,
6, ,211, ,
97, ,211, ,
62, ,211, ,
34, ,211, ,
19, ,213, ,
18, ,210, ,
14, ,210, ,
9, ,212, ,
6, ,211, ,
6, ,209, ,
5, ,213, ,
5, ,211, ,
4, ,210, ,
3, ,211, ,
4, ,210, ,
4, ,210, ,
1, ,212, ,
4, ,211, ,
3, ,211, ,
4, ,209, ,
5, ,209, ,
4, ,211, ,
3, ,216, ,
4, ,214, ,
3, ,211, ,
3, ,210, ,
4, ,210, ,
4, ,211, ,
1, ,212, ,
4, ,210, ,
3, ,211, ,
3, ,211, ,
4, ,211, ,
4, ,210, ,
3, ,212, ,
4, ,211, ,
3, ,210, ,
3, ,211, ,
4, ,210, ,
4, ,210, ,
3, ,212, ,
4, ,210, ,
1, ,210, ,
3, ,212, ,
4, ,211, ,
4, ,210, ,
1, ,212, ,
4, ,211, ,
1, ,211, ,
4, ,211, ,
3, ,210, ,
4, ,211, ,
1, ,213, ,
4, ,211, ,
3, ,209, ,
3, ,213, ,
4, ,211, ,
4, ,210, ,
3, ,211, ,
4, ,211, ,
3, ,211, ,
3, ,212, ,
4, ,211, ,
4, ,210, ,
3, ,212, ,
4, ,210, ,
1, ,210, ,
3, ,212, ,
4, ,211, ,
4, ,211, ,
1, ,212, ,
4, ,211, ,
3, ,211, ,
3, ,211, ,
3, ,211, ,
4, ,211, ,
1, ,212, ,
4, ,211, ,
3, ,211, ,
3, ,213, ,
4, ,210, ,
3, ,210, ,
1, ,211, ,
4, ,211, ,
1, ,210, ,
3, ,213, ,
3, ,211, ,
4, ,211, ,
1, ,213, ,
4, ,211, ,
3, ,210, ,
3, ,213, ,
4, ,211, ,
3, ,211, ,
1, ,212, ,
4, ,211, ,
1, ,211, ,
3, ,212, ,
3, ,210, ,
3, ,210, ,
1, ,213, ,
4, ,211, ,
1, ,210, ,
3, ,214, ,
3, ,212, ,
3, ,211, ,
1, ,212, ,
4, ,210, ,
3, ,210, ,
3, ,211, ,
3, ,211, ,
3, ,211, ,
1, ,213, ,
4, ,211, ,
1, ,210, ,
3, ,212, ,
3, ,211, ,
3, ,210, ,
1, ,211, ,
4, ,210, ,
3, ,211, ,
3, ,211, ,
3, ,211, ,
3, ,211, ,
3, ,213, ,
4, ,209, ,
1, ,209, ,
3, ,213, ,
3, ,211, ,
3, ,209, ,
1, ,211, ,
4, ,211, ,
3, ,211, ,
3, ,212, ,
3, ,211, ,
4, ,210, ,
1, ,211, ,
4, ,210, ,
3, ,210, ,
3, ,211, ,
3, ,211, ,
3, ,211, ,
1, ,210, ,
4, ,208, ,
3, ,209, ,
3, ,211, ,
3, ,213, ,
3, ,214, ,
1, ,215, ,
4, ,212, ,
1, ,209, ,
3, ,211, ,
3, ,209, ,
3, ,209, ,
1, ,212, ,
4, ,210, ,
1, ,211, ,
3, ,212, ,
3, ,211, ,
3, ,210, ,
1, ,212, ,
4, ,211, ,
1, ,211, ,
3, ,213, ,
3, ,211, ,
3, ,209, ,
1, ,210, ,
4, ,211, ,
1, ,210, ,
3, ,211, ,
3, ,210, ,
3, ,211, ,
1, ,211, ,
3, ,211, ,
1, ,211, ,
3, ,211, ,
3, ,211, ,
3, ,210, ,
1, ,211, ,
3, ,211, ,
1, ,211, ,
3, ,211, ,
3, ,210, ,
3, ,211, ,
1, ,213, ,
3, ,211, ,
1, ,210, ,
3, ,211, ,
3, ,210, ,
3, ,209, ,
1, ,211, ,
4, ,210, ,
1, ,209, ,
3, ,210, ,
3, ,209, ,
3, ,211, ,
1, ,213, ,
3, ,212, ,
1, ,211, ,
3, ,211, ,
3, ,211, ,
3, ,210, ,
1, ,210, ,
4, ,209, ,
1, ,211, ,
3, ,212, ,
3, ,211, ,
3, ,211, ,
1, ,212, ,
3, ,210, ,
1, ,210, ,
3, ,211, ,
3, ,210, ,
3, ,210, ,
1, ,211, ,
3, ,211, ,
1, ,211, ,
3, ,211, ,
3, ,211, ,
3, ,210, ,
1, ,212, ,
3, ,211, ,
1, ,210, ,
3, ,211, ,
3, ,211, ,
3, ,211, ,
1, ,211, ,
3, ,211, ,
1, ,210, ,
3, ,211, ,
3, ,210, ,
3, ,211, ,
1, ,212, ,
3, ,210, ,
1, ,211, ,
3, ,211, ,
3, ,211, ,
3, ,212, ,
1, ,212, ,
3, ,211, ,
1, ,211, ,
3, ,211, ,
3, ,211, ,
3, ,211, ,
1, ,212, ,
3, ,211, ,
1, ,209, ,
3, ,211, ,
3, ,211, ,
3, ,210, ,
1, ,212, ,
3, ,211, ,
1, ,211, ,
3, ,212, ,
3, ,212, ,
3, ,211, ,
1, ,213, ,
3, ,210, ,
1, ,211, ,
3, ,211, ,
3, ,211, ,
3, ,211, ,
1, ,213, ,
3, ,212, ,
1, ,211, ,
3, ,212, ,
3, ,210, ,
3, ,209, ,
1, ,212, ,
3, ,211, ,
1, ,211, ,
3, ,213, ,
3, ,211, ,
3, ,212, ,
1, ,211, ,
3, ,211, ,
1, ,211, ,
3, ,211, ,
3, ,211, ,
3, ,211, ,
1, ,213, ,
3, ,212, ,
1, ,210, ,
3, ,212, ,
3, ,212, ,
3, ,209, ,
1, ,211, ,
3, ,211, ,
1, ,211, ,
3, ,212, ,
3, ,211, ,
3, ,211, ,
1, ,213, ,
3, ,211, ,
1, ,209, ,
3, ,212, ,
3, ,210, ,
3, ,211, ,
1, ,211, ,
3, ,211, ,
1, ,211, ,
3, ,211, ,
3, ,211, ,
3, ,211, ,
1, ,213, ,
3, ,210, ,
1, ,211, ,
3, ,211, ,
3, ,211, ,
3, ,211, ,
1, ,211, ,
3, ,211, ,
70, ,212, ,
51, ,211, ,
37, ,211, ,
24, ,211, ,
14, ,211, ,
11, ,211, ,
8, ,210, ,
6, ,212, ,
6, ,211, ,
4, ,211, ,
1, ,211, ,
5, ,211, ,
4, ,211, ,
3, ,212, ,
4, ,210, ,
4, ,211, ,
1, ,213, ,
4, ,209, ,
1, ,209, ,
4, ,212, ,
4, ,211, ,
4, ,211, ,
3, ,211, ,
4, ,211, ,
3, ,211, ,
3, ,211, ,
4, ,211, ,
4, ,211, ,
3, ,213, ,
4, ,211, ,
1, ,210, ,
3, ,212, ,
4, ,211, ,
4, ,211, ,
1, ,211, ,
4, ,211, ,
3, ,210, ,
4, ,212, ,
4, ,210, ,
4, ,211, ,
1, ,212, ,
4, ,211, ,
1, ,210, ,
3, ,213, ,
4, ,210, ,
4, ,211, ,
3, ,211, ,
4, ,211, ,
3, ,211, ,
4, ,212, ,
3, ,211, ,
4, ,211, ,
3, ,212, ,
4, ,211, ,
3, ,210, ,
3, ,213, ,
4, ,211, ,
4, ,211, ,
1, ,211, ,
4, ,211, ,
3, ,210, ,
3, ,212, ,
3, ,210, ,
4, ,210, ,
3, ,212, ,
4, ,211, ,
1, ,210, ,
3, ,211, ,
4, ,210, ,
3, ,210, ,
3, ,211, ,
4, ,211, ,
3, ,211, ,
3, ,211, ,
3, ,211, ,
4, ,211, ,
1, ,212, ,
4, ,209, ,
3, ,210, ,
3, ,213, ,
3, ,212, ,
3, ,212, ,
1, ,211, ,
4, ,211, ,
1, ,211, ,
3, ,211, ,
3, ,210, ,
3, ,211, ,
