src/vary_led_1562/temp0005727.CSV

Format,1.0B,
Memory Length,10000,Memory Length,10000,
IntpDistance,0,IntpDistance,0,
Trigger Address,5159,Trigger Address,5159,
Trigger Level,3.000E-01,Trigger Level,3.000E-01,
Source,CH1,Source,CH2,
Vertical Units,V,Vertical Units,V,
Vertical Units Div,0,Vertical Units Div,0,
Vertical Units Extend Div,16,Vertical Units Extend Div,16,
Label,,Label,,
Probe Type,0,Probe Type,0,
Probe Ratio,1.000e+01,Probe Ratio,1.000e+00,
Vertical Scale,5.000e-01,Vertical Scale,2.000e-01,
Vertical Position,-1.780e+00,Vertical Position,-2.240e+00,
Horizontal Units,S,Horizontal Units,S,
Horizontal Scale,2.000E-05,Horizontal Scale,2.000E-05,
Horizontal Position,-3.200E-06,Horizontal Position,-3.200E-06,
Horizontal Mode,Main,Horizontal Mode,Main,
SincET Mode,Real Time,SincET Mode,Real Time,
Sampling Period,2.000e-08,Sampling Period,2.000e-08,
Horizontal Old Scale,2.000E-05,Horizontal Old Scale,2.000E-05,
Horizontal Old Position,-3.200E-06,Horizontal Old Position,-3.200E-06,
Firmware,V1.23,Firmware,V1.23,
Mode,Fast,Mode,Fast,
Waveform Data,,Waveform Data,,
1, ,301, ,
1, ,301, ,
3, ,302, ,
1, ,303, ,
0, ,301, ,
3, ,302, ,
1, ,301, ,
1, ,302, ,
3, ,301, ,
1, ,303, ,
0, ,301, ,
3, ,302, ,
1, ,301, ,
1, ,302, ,
3, ,302, ,
1, ,302, ,
0, ,301, ,
3, ,301, ,
1, ,301, ,
0, ,302, ,
3, ,301, ,
1, ,301, ,
0, ,301, ,
1, ,301, ,
1, ,301, ,
0, ,303, ,
3, ,301, ,
1, ,303, ,
0, ,301, ,
3, ,301, ,
0, ,301, ,
0, ,302, ,
3, ,301, ,
1, ,301, ,
0, ,301, ,
3, ,302, ,
0, ,301, ,
0, ,301, ,
3, ,301, ,
1, ,301, ,
0, ,301, ,
3, ,301, ,
0, ,301, ,
0, ,302, ,
3, ,301, ,
1, ,301, ,
0, ,301, ,
3, ,301, ,
1, ,301, ,
0, ,302, ,
3, ,301, ,
1, ,302, ,
0, ,301, ,
3, ,301, ,
0, ,301, ,
0, ,302, ,
3, ,301, ,
1, ,302, ,
0, ,301, ,
3, ,302, ,
0, ,301, ,
0, ,301, ,
1, ,301, ,
1, ,303, ,
0, ,301, ,
3, ,301, ,
1, ,301, ,
0, ,301, ,
1, ,301, ,
1, ,301, ,
0, ,301, ,
3, ,301, ,
0, ,301, ,
0, ,301, ,
3, ,301, ,
1, ,301, ,
0, ,301, ,
3, ,301, ,
0, ,301, ,
0, ,301, ,
3, ,301, ,
1, ,302, ,
0, ,301, ,
3, ,301, ,
1, ,301, ,
0, ,302, ,
1, ,301, ,
1, ,302, ,
0, ,301, ,
3, ,303, ,
1, ,301, ,
0, ,302, ,
3, ,301, ,
1, ,302, ,
0, ,301, ,
3, ,302, ,
1, ,300, ,
0, ,301, ,
3, ,301, ,
1, ,302, ,
0, ,301, ,
3, ,302, ,
1, ,300, ,
0, ,301, ,
3, ,301, ,
1, ,302, ,
0, ,301, ,
3, ,302, ,
1, ,302, ,
0, ,302, ,
3, ,301, ,
1, ,303, ,
0, ,302, ,
3, ,302, ,
0, ,302, ,
0, ,302, ,
3, ,301, ,
1, ,301, ,
0, ,301, ,
1, ,302, ,
1, ,301, ,
0, ,301, ,
3, ,301, ,
1, ,303, ,
0, ,301, ,
3, ,301, ,
1, ,301, ,
0, ,302, ,
3, ,301, ,
1, ,302, ,
0, ,301, ,
3, ,301, ,
1, ,301, ,
0, ,301, ,
3, ,301, ,
1, ,302, ,
0, ,300, ,
1, ,302, ,
0, ,302, ,
0, ,302, ,
3, ,301, ,
1, ,301, ,
0, ,302, ,
1, ,301, ,
0, ,302, ,
0, ,301, ,
3, ,301, ,
0, ,302, ,
0, ,301, ,
3, ,302, ,
0, ,302, ,
0, ,301, ,
3, ,300, ,
1, ,301, ,
0, ,301, ,
1, ,302, ,
0, ,301, ,
0, ,301, ,
1, ,301, ,
1, ,302, ,
0, ,301, ,
3, ,302, ,
0, ,301, ,
0, ,301, ,
3, ,301, ,
1, ,301, ,
0, ,301, ,
1, ,303, ,
0, ,301, ,
0, ,301, ,
3, ,302, ,
1, ,303, ,
0, ,300, ,
3, ,301, ,
1, ,301, ,
0, ,302, ,
3, ,301, ,
1, ,302, ,
0, ,301, ,
1, ,302, ,
0, ,301, ,
0, ,301, ,
1, ,301, ,
1, ,301, ,
0, ,300, ,
3, ,301, ,
0, ,302, ,
0, ,301, ,
3, ,301, ,
1, ,301, ,
0, ,301, ,
1, ,302, ,
0, ,301, ,
0, ,301, ,
3, ,301, ,
1, ,302, ,
0, ,301, ,
3, ,302, ,
0, ,301, ,
0, ,301, ,
3, ,301, ,
1, ,301, ,
0, ,301, ,
1, ,302, ,
0, ,301, ,
0, ,301, ,
1, ,301, ,
1, ,303, ,
0, ,301, ,
3, ,302, ,
0, ,301, ,
0, ,302, ,
3, ,301, ,
1, ,301, ,
0, ,302, ,
1, ,301, ,
1, ,301, ,
0, ,301, ,
3, ,301, ,
1, ,303, ,
0, ,301, ,
3, ,301, ,
0, ,301, ,
0, ,301, ,
3, ,301, ,
1, ,302, ,
0, ,301, ,
1, ,301, ,
0, ,301, ,
0, ,301, ,
3, ,301, ,
1, ,302, ,
0, ,301, ,
3, ,302, ,
0, ,301, ,
0, ,302, ,
3, ,301, ,
1, ,301, ,
0, ,301, ,
3, ,301, ,
0, ,300, ,
0, ,301, ,
3, ,301, ,
1, ,302, ,
0, ,301, ,
3, ,302, ,
0, ,301, ,
0, ,301, ,
3, ,301, ,
1, ,302, ,
0, ,301, ,
1, ,302, ,
0, ,301, ,
0, ,301, ,
1, ,301, ,
1, ,302, ,
0, ,301, ,
3, ,301, ,
0, ,301, ,
0, ,301, ,
1, ,301, ,
1, ,301, ,
0, ,301, ,
1, ,301, ,
0, ,301, ,
0, ,301, ,
3, ,301, ,
1, ,303, ,
0, ,301, ,
3, ,302, ,
0, ,301, ,
0, ,301, ,
3, ,300, ,
1, ,301, ,
0, ,301, ,
1, ,301, ,
0, ,300, ,
0, ,301, ,
1, ,301, ,
1, ,302, ,
0, ,301, ,
3, ,301, ,
0, ,301, ,
0, ,301, ,
1, ,301, ,
1, ,302, ,
0, ,301, ,
1, ,302, ,
0, ,301, ,
0, ,301, ,
3, ,301, ,
1, ,303, ,
-1, ,302, ,
1, ,301, ,
0, ,301, ,
0, ,301, ,
1, ,301, ,
1, ,302, ,
0, ,302, ,
1, ,301, ,
0, ,301, ,
0, ,302, ,
1, ,301, ,
1, ,303, ,
0, ,300, ,
3, ,301, ,
0, ,301, ,
0, ,301, ,
3, ,301, ,
1, ,302, ,
0, ,302, ,
3, ,303, ,
0, ,302, ,
0, ,301, ,
1, ,301, ,
1, ,301, ,
0, ,300, ,
3, ,301, ,
0, ,301, ,
0, ,302, ,
3, ,301, ,
1, ,303, ,
0, ,301, ,
3, ,303, ,
0, ,301, ,
0, ,300, ,
1, ,302, ,
1, ,303, ,
0, ,301, ,
3, ,301, ,
0, ,301, ,
0, ,302, ,
3, ,301, ,
1, ,301, ,
0, ,301, ,
3, ,301, ,
0, ,301, ,
0, ,302, ,
1, ,301, ,
1, ,302, ,
0, ,300, ,
3, ,301, ,
0, ,301, ,
0, ,301, ,
3, ,301, ,
1, ,302, ,
0, ,301, ,
1, ,302, ,
0, ,301, ,
0, ,301, ,
3, ,301, ,
1, ,301, ,
0, ,301, ,
1, ,301, ,
0, ,300, ,
0, ,302, ,
3, ,301, ,
1, ,302, ,
0, ,301, ,
3, ,302, ,
0, ,301, ,
0, ,301, ,
3, ,301, ,
1, ,302, ,
0, ,301, ,
3, ,301, ,
0, ,301, ,
0, ,302, ,
3, ,301, ,
1, ,302, ,
0, ,301, ,
1, ,303, ,
0, ,300, ,
0, ,301, ,
1, ,301, ,
1, ,301, ,
0, ,302, ,
3, ,301, ,
0, ,301, ,
0, ,302, ,
3, ,301, ,
1, ,302, ,
0, ,301, ,
1, ,302, ,
0, ,301, ,
0, ,302, ,
1, ,302, ,
1, ,303, ,
-1, ,301, ,
3, ,302, ,
0, ,301, ,
0, ,302, ,
3, ,301, ,
1, ,301, ,
0, ,301, ,
3, ,302, ,
0, ,301, ,
0, ,301, ,
1, ,301, ,
1, ,302, ,
0, ,301, ,
3, ,301, ,
0, ,301, ,
0, ,301, ,
1, ,301, ,
1, ,302, ,
0, ,301, ,
1, ,302, ,
0, ,300, ,
0, ,301, ,
1, ,301, ,
0, ,302, ,
0, ,301, ,
3, ,301, ,
0, ,302, ,
0, ,302, ,
1, ,301, ,
1, ,302, ,
0, ,301, ,
1, ,301, ,
0, ,301, ,
0, ,301, ,
1, ,302, ,
1, ,302, ,
-1, ,300, ,
3, ,301, ,
0, ,301, ,
0, ,302, ,
3, ,301, ,
1, ,302, ,
0, ,301, ,
1, ,302, ,
0, ,301, ,
0, ,301, ,
1, ,301, ,
1, ,303, ,
-1, ,301, ,
3, ,302, ,
0, ,301, ,
0, ,301, ,
1, ,300, ,
1, ,302, ,
0, ,301, ,
3, ,302, ,
0, ,301, ,
0, ,301, ,
1, ,301, ,
1, ,302, ,
0, ,301, ,
3, ,302, ,
0, ,301, ,
0, ,302, ,
3, ,301, ,
1, ,303, ,
0, ,301, ,
3, ,301, ,
0, ,301, ,
0, ,301, ,
1, ,301, ,
1, ,303, ,
0, ,300, ,
3, ,301, ,
0, ,301, ,
0, ,302, ,
3, ,300, ,
1, ,301, ,
0, ,302, ,
1, ,301, ,
0, ,301, ,
0, ,301, ,
1, ,301, ,
1, ,301, ,
0, ,301, ,
1, ,302, ,
0, ,301, ,
0, ,302, ,
3, ,301, ,
1, ,302, ,
0, ,301, ,
1, ,301, ,
0, ,301, ,
0, ,301, ,
1, ,301, ,
1, ,303, ,
0, ,301, ,
3, ,302, ,
0, ,301, ,
0, ,302, ,
3, ,301, ,
1, ,301, ,
0, ,302, ,
1, ,303, ,
0, ,301, ,
0, ,301, ,
1, ,301, ,
1, ,302, ,
0, ,301, ,
3, ,301, ,
0, ,301, ,
0, ,301, ,
3, ,301, ,
1, ,302, ,
0, ,301, ,
1, ,301, ,
0, ,301, ,
0, ,301, ,
1, ,301, ,
1, ,303, ,
0, ,300, ,
3, ,302, ,
0, ,302, ,
0, ,301, ,
3, ,301, ,
1, ,301, ,
0, ,301, ,
1, ,302, ,
0, ,301, ,
0, ,301, ,
1, ,301, ,
1, ,303, ,
0, ,301, ,
3, ,301, ,
0, ,301, ,
0, ,301, ,
3, ,301, ,
1, ,302, ,
0, ,301, ,
1, ,301, ,
0, ,301, ,
0, ,302, ,
1, ,302, ,
1, ,302, ,
0, ,301, ,
1, ,301, ,
0, ,301, ,
0, ,300, ,
3, ,298, ,
1, ,300, ,
0, ,300, ,
1, ,303, ,
0, ,303, ,
0, ,304, ,
1, ,302, ,
0, ,302, ,
-1, ,299, ,
1, ,300, ,
0, ,292, ,
0, ,301, ,
3, ,308, ,
1, ,309, ,
0, ,301, ,
1, ,298, ,
0, ,299, ,
0, ,301, ,
1, ,300, ,
1, ,302, ,
-1, ,301, ,
1, ,302, ,
0, ,301, ,
0, ,300, ,
1, ,301, ,
1, ,302, ,
0, ,301, ,
3, ,301, ,
0, ,301, ,
0, ,301, ,
1, ,301, ,
1, ,301, ,
-1, ,299, ,
3, ,302, ,
0, ,301, ,
0, ,301, ,
3, ,301, ,
1, ,301, ,
0, ,301, ,
1, ,302, ,
0, ,300, ,
0, ,301, ,
1, ,300, ,
1, ,301, ,
-1, ,300, ,
3, ,302, ,
0, ,301, ,
0, ,302, ,
3, ,301, ,
1, ,301, ,
0, ,301, ,
1, ,301, ,
0, ,300, ,
0, ,301, ,
1, ,301, ,
1, ,302, ,
0, ,300, ,
3, ,302, ,
0, ,301, ,
0, ,301, ,
3, ,300, ,
1, ,302, ,
-1, ,301, ,
1, ,301, ,
0, ,300, ,
0, ,301, ,
1, ,301, ,
1, ,302, ,
-1, ,301, ,
1, ,301, ,
0, ,301, ,
0, ,302, ,
3, ,300, ,
1, ,301, ,
0, ,301, ,
1, ,302, ,
0, ,300, ,
0, ,302, ,
3, ,301, ,
1, ,301, ,
0, ,301, ,
3, ,302, ,
0, ,301, ,
0, ,302, ,
3, ,300, ,
1, ,301, ,
-1, ,301, ,
1, ,301, ,
0, ,300, ,
0, ,301, ,
1, ,301, ,
1, ,301, ,
0, ,300, ,
3, ,301, ,
0, ,301, ,
0, ,302, ,
1, ,300, ,
0, ,301, ,
-1, ,301, ,
1, ,301, ,
0, ,301, ,
0, ,301, ,
3, ,302, ,
1, ,301, ,
0, ,300, ,
3, ,302, ,
0, ,301, ,
0, ,302, ,
3, ,301, ,
1, ,302, ,
0, ,302, ,
1, ,302, ,
0, ,300, ,
0, ,301, ,
1, ,302, ,
1, ,303, ,
-1, ,300, ,
1, ,302, ,
0, ,303, ,
0, ,301, ,
1, ,301, ,
1, ,301, ,
0, ,301, ,
3, ,301, ,
0, ,301, ,
0, ,301, ,
1, ,301, ,
1, ,303, ,
-1, ,301, ,
3, ,301, ,
0, ,301, ,
0, ,302, ,
3, ,300, ,
1, ,301, ,
-1, ,301, ,
3, ,303, ,
0, ,301, ,
0, ,302, ,
1, ,301, ,
1, ,303, ,
-1, ,301, ,
3, ,301, ,
0, ,301, ,
0, ,301, ,
3, ,301, ,
1, ,301, ,
0, ,302, ,
3, ,302, ,
0, ,301, ,
0, ,302, ,
1, ,301, ,
1, ,302, ,
-1, ,301, ,
3, ,301, ,
0, ,301, ,
0, ,303, ,
3, ,301, ,
1, ,301, ,
-1, ,301, ,
3, ,302, ,
0, ,300, ,
0, ,302, ,
1, ,301, ,
1, ,303, ,
-1, ,301, ,
3, ,302, ,
0, ,302, ,
0, ,302, ,
3, ,301, ,
1, ,302, ,
0, ,301, ,
1, ,301, ,
0, ,301, ,
0, ,302, ,
1, ,302, ,
1, ,302, ,
0, ,301, ,
3, ,301, ,
0, ,301, ,
0, ,301, ,
1, ,301, ,
1, ,302, ,
0, ,302, ,
1, ,303, ,
0, ,301, ,
0, ,303, ,
1, ,301, ,
0, ,302, ,
-1, ,301, ,
3, ,301, ,
0, ,302, ,
0, ,302, ,
3, ,301, ,
1, ,301, ,
-1, ,301, ,
3, ,303, ,
0, ,301, ,
0, ,301, ,
1, ,301, ,
1, ,303, ,
-1, ,299, ,
3, ,301, ,
0, ,301, ,
0, ,302, ,
1, ,302, ,
1, ,302, ,
-1, ,301, ,
3, ,302, ,
0, ,301, ,
0, ,301, ,
1, ,301, ,
1, ,301, ,
-1, ,301, ,
3, ,302, ,
0, ,301, ,
0, ,301, ,
3, ,301, ,
1, ,301, ,
0, ,301, ,
3, ,301, ,
0, ,301, ,
0, ,302, ,
3, ,302, ,
1, ,302, ,
-1, ,300, ,
3, ,301, ,
0, ,301, ,
0, ,301, ,
1, ,301, ,
1, ,302, ,
-1, ,301, ,
3, ,301, ,
0, ,301, ,
0, ,301, ,
3, ,301, ,
1, ,303, ,
-1, ,301, ,
3, ,301, ,
0, ,301, ,
0, ,302, ,
1, ,301, ,
1, ,302, ,
0, ,301, ,
1, ,302, ,
0, ,301, ,
0, ,301, ,
1, ,301, ,
0, ,302, ,
0, ,301, ,
3, ,301, ,
0, ,301, ,
0, ,302, ,
3, ,301, ,
1, ,301, ,
-1, ,301, ,
1, ,302, ,
0, ,301, ,
0, ,301, ,
1, ,301, ,
1, ,302, ,
-1, ,300, ,
3, ,301, ,
0, ,301, ,
0, ,302, ,
3, ,301, ,
1, ,301, ,
0, ,301, ,
3, ,302, ,
0, ,301, ,
0, ,301, ,
1, ,301, ,
1, ,301, ,
-1, ,301, ,
3, ,301, ,
0, ,301, ,
0, ,301, ,
1, ,301, ,
1, ,301, ,
-1, ,301, ,
3, ,302, ,
0, ,301, ,
0, ,301, ,
1, ,301, ,
0, ,302, ,
0, ,302, ,
3, ,302, ,
0, ,301, ,
0, ,301, ,
3, ,301, ,
1, ,301, ,
-1, ,302, ,
1, ,302, ,
0, ,301, ,
0, ,301, ,
1, ,301, ,
1, ,302, ,
-1, ,301, ,
3, ,301, ,
0, ,301, ,
0, ,301, ,
3, ,301, ,
1, ,302, ,
-1, ,302, ,
1, ,302, ,
0, ,301, ,
0, ,301, ,
1, ,300, ,
0, ,301, ,
-1, ,301, ,
3, ,301, ,
0, ,301, ,
0, ,301, ,
1, ,301, ,
1, ,301, ,
0, ,301, ,
3, ,301, ,
0, ,301, ,
0, ,301, ,
1, ,301, ,
0, ,303, ,
-1, ,299, ,
3, ,301, ,
0, ,301, ,
0, ,302, ,
3, ,301, ,
1, ,301, ,
-1, ,301, ,
3, ,302, ,
0, ,301, ,
0, ,301, ,
1, ,301, ,
1, ,302, ,
-1, ,301, ,
3, ,301, ,
0, ,302, ,
0, ,301, ,
3, ,301, ,
1, ,301, ,
0, ,301, ,
3, ,302, ,
0, ,301, ,
0, ,301, ,
1, ,301, ,
1, ,302, ,
-1, ,301, ,
3, ,302, ,
0, ,302, ,
0, ,301, ,
1, ,301, ,
1, ,302, ,
-1, ,301, ,
3, ,301, ,
0, ,301, ,
0, ,301, ,
1, ,302, ,
1, ,302, ,
-1, ,300, ,
3, ,302, ,
0, ,301, ,
0, ,301, ,
3, ,301, ,
1, ,301, ,
-1, ,301, ,
3, ,302, ,
0, ,301, ,
0, ,301, ,
1, ,301, ,
1, ,301, ,
-1, ,301, ,
3, ,301, ,
0, ,302, ,
0, ,302, ,
1, ,301, ,
1, ,302, ,
-1, ,301, ,
3, ,301, ,
0, ,301, ,
0, ,301, ,
1, ,301, ,
0, ,303, ,
-1, ,301, ,
3, ,302, ,
0, ,301, ,
0, ,302, ,
1, ,301, ,
1, ,302, ,
0, ,302, ,
1, ,301, ,
0, ,301, ,
0, ,301, ,
1, ,301, ,
0, ,302, ,
-1, ,301, ,
3, ,301, ,
0, ,301, ,
0, ,301, ,
3, ,301, ,
0, ,301, ,
0, ,302, ,
1, ,301, ,
0, ,301, ,
0, ,301, ,
1, ,301, ,
0, ,303, ,
-1, ,301, ,
1, ,302, ,
0, ,301, ,
0, ,302, ,
3, ,301, ,
1, ,302, ,
0, ,301, ,
1, ,301, ,
0, ,301, ,
0, ,302, ,
1, ,301, ,
1, ,303, ,
-1, ,300, ,
3, ,301, ,
0, ,301, ,
0, ,302, ,
1, ,301, ,
1, ,301, ,
-1, ,301, ,
3, ,302, ,
0, ,301, ,
0, ,301, ,
1, ,301, ,
0, ,301, ,
-1, ,301, ,
3, ,301, ,
0, ,301, ,
0, ,302, ,
1, ,301, ,
1, ,303, ,
0, ,301, ,
3, ,303, ,
0, ,301, ,
0, ,301, ,
1, ,301, ,
0, ,303, ,
-1, ,301, ,
3, ,301, ,
0, ,301, ,
0, ,302, ,
3, ,301, ,
1, ,301, ,
0, ,301, ,
1, ,302, ,
0, ,301, ,
0, ,301, ,
1, ,301, ,
1, ,302, ,
-1, ,301, ,
3, ,301, ,
0, ,301, ,
0, ,302, ,
3, ,301, ,
1, ,303, ,
-1, ,301, ,
3, ,302, ,
0, ,301, ,
0, ,302, ,
3, ,301, ,
1, ,301, ,
-1, ,299, ,
3, ,301, ,
0, ,301, ,
0, ,302, ,
1, ,301, ,
0, ,301, ,
-1, ,301, ,
3, ,302, ,
0, ,301, ,
0, ,301, ,
1, ,301, ,
0, ,302, ,
-1, ,301, ,
3, ,302, ,
0, ,301, ,
0, ,301, ,
3, ,301, ,
1, ,302, ,
0, ,301, ,
3, ,303, ,
0, ,301, ,
0, ,302, ,
1, ,301, ,
1, ,303, ,
-1, ,301, ,
3, ,303, ,
0, ,301, ,
0, ,301, ,
1, ,301, ,
1, ,301, ,
-1, ,301, ,
3, ,302, ,
0, ,301, ,
0, ,301, ,
1, ,301, ,
0, ,303, ,
0, ,301, ,
3, ,301, ,
0, ,302, ,
0, ,302, ,
1, ,301, ,
1, ,302, ,
0, ,302, ,
1, ,301, ,
0, ,301, ,
0, ,302, ,
1, ,301, ,
1, ,302, ,
-1, ,301, ,
3, ,302, ,
0, ,301, ,
0, ,301, ,
3, ,301, ,
1, ,302, ,
-1, ,302, ,
1, ,302, ,
0, ,301, ,
0, ,302, ,
1, ,301, ,
1, ,302, ,
0, ,300, ,
3, ,301, ,
0, ,301, ,
0, ,301, ,
1, ,301, ,
1, ,302, ,
0, ,301, ,
1, ,301, ,
0, ,301, ,
0, ,301, ,
1, ,301, ,
1, ,302, ,
-1, ,301, ,
3, ,301, ,
0, ,302, ,
0, ,302, ,
3, ,301, ,
1, ,303, ,
0, ,301, ,
3, ,303, ,
0, ,301, ,
0, ,301, ,
1, ,301, ,
1, ,303, ,
-1, ,301, ,
3, ,301, ,
0, ,301, ,
0, ,302, ,
1, ,301, ,
0, ,302, ,
0, ,301, ,
3, ,302, ,
0, ,301, ,
0, ,301, ,
1, ,301, ,
1, ,303, ,
-1, ,301, ,
3, ,301, ,
0, ,301, ,
0, ,301, ,
1, ,301, ,
0, ,301, ,
-1, ,301, ,
3, ,302, ,
0, ,301, ,
0, ,301, ,
1, ,301, ,
0, ,303, ,
-1, ,301, ,
3, ,301, ,
0, ,301, ,
0, ,302, ,
3, ,301, ,
1, ,302, ,
0, ,301, ,
3, ,302, ,
0, ,301, ,
0, ,301, ,
1, ,301, ,
1, ,303, ,
-1, ,301, ,
3, ,302, ,
0, ,301, ,
0, ,301, ,
3, ,301, ,
1, ,301, ,
-1, ,301, ,
3, ,302, ,
0, ,301, ,
0, ,303, ,
1, ,301, ,
0, ,303, ,
-1, ,301, ,
3, ,301, ,
0, ,301, ,
0, ,302, ,
3, ,301, ,
1, ,303, ,
-1, ,301, ,
3, ,301, ,
0, ,301, ,
0, ,302, ,
1, ,301, ,
1, ,301, ,
-1, ,299, ,
3, ,301, ,
0, ,301, ,
0, ,302, ,
1, ,300, ,
0, ,302, ,
-1, ,301, ,
3, ,302, ,
0, ,301, ,
0, ,301, ,
1, ,301, ,
1, ,302, ,
-1, ,301, ,
3, ,301, ,
0, ,301, ,
0, ,301, ,
1, ,301, ,
1, ,301, ,
0, ,301, ,
3, ,302, ,
0, ,301, ,
0, ,300, ,
1, ,300, ,
0, ,301, ,
-1, ,301, ,
1, ,302, ,
0, ,302, ,
0, ,302, ,
1, ,301, ,
1, ,301, ,
-1, ,301, ,
1, ,301, ,
0, ,301, ,
0, ,301, ,
1, ,301, ,
0, ,303, ,
-1, ,301, ,
3, ,303, ,
0, ,301, ,
0, ,301, ,
3, ,301, ,
1, ,301, ,
0, ,301, ,
3, ,302, ,
0, ,301, ,
0, ,301, ,
1, ,301, ,
1, ,303, ,
0, ,300, ,
3, ,301, ,
0, ,301, ,
0, ,301, ,
1, ,302, ,
1, ,302, ,
-1, ,302, ,
3, ,302, ,
0, ,301, ,
0, ,301, ,
1, ,301, ,
0, ,302, ,
-1, ,301, ,
1, ,301, ,
0, ,301, ,
0, ,301, ,
3, ,301, ,
1, ,302, ,
0, ,301, ,
1, ,302, ,
0, ,301, ,
0, ,301, ,
1, ,301, ,
1, ,303, ,
0, ,301, ,
3, ,301, ,
0, ,301, ,
0, ,301, ,
1, ,301, ,
1, ,302, ,
0, ,302, ,
1, ,303, ,
0, ,301, ,
0, ,301, ,
1, ,301, ,
0, ,302, ,
0, ,301, ,
1, ,302, ,
0, ,301, ,
0, ,301, ,
3, ,301, ,
1, ,301, ,
0, ,301, ,
1, ,302, ,
0, ,301, ,
0, ,301, ,
1, ,301, ,
1, ,301, ,
-1, ,300, ,
3, ,301, ,
0, ,301, ,
0, ,302, ,
3, ,301, ,
1, ,302, ,
-1, ,301, ,
3, ,302, ,
0, ,301, ,
0, ,301, ,
1, ,301, ,
1, ,301, ,
-1, ,301, ,
3, ,301, ,
0, ,302, ,
0, ,301, ,
1, ,301, ,
1, ,301, ,
0, ,301, ,
1, ,303, ,
0, ,301, ,
0, ,302, ,
1, ,301, ,
1, ,303, ,
-1, ,301, ,
3, ,301, ,
0, ,301, ,
0, ,302, ,
3, ,301, ,
0, ,302, ,
-1, ,301, ,
1, ,301, ,
0, ,301, ,
0, ,301, ,
1, ,302, ,
1, ,302, ,
-1, ,301, ,
3, ,303, ,
0, ,301, ,
0, ,301, ,
1, ,301, ,
1, ,302, ,
0, ,302, ,
1, ,302, ,
0, ,302, ,
0, ,301, ,
1, ,301, ,
0, ,303, ,
-1, ,301, ,
1, ,301, ,
0, ,301, ,
0, ,302, ,
3, ,301, ,
0, ,302, ,
-1, ,302, ,
3, ,301, ,
0, ,301, ,
0, ,302, ,
1, ,301, ,
1, ,301, ,
-1, ,301, ,
3, ,301, ,
0, ,302, ,
0, ,302, ,
1, ,301, ,
1, ,302, ,
0, ,301, ,
3, ,303, ,
0, ,301, ,
0, ,302, ,
1, ,301, ,
0, ,301, ,
0, ,301, ,
1, ,302, ,
0, ,301, ,
0, ,302, ,
1, ,301, ,
1, ,302, ,
-1, ,301, ,
1, ,301, ,
0, ,301, ,
0, ,301, ,
1, ,301, ,
0, ,303, ,
-1, ,301, ,
3, ,301, ,
0, ,301, ,
0, ,301, ,
3, ,301, ,
1, ,302, ,
-1, ,301, ,
3, ,301, ,
0, ,301, ,
0, ,302, ,
1, ,301, ,
1, ,302, ,
-1, ,301, ,
3, ,301, ,
0, ,302, ,
0, ,301, ,
3, ,301, ,
1, ,301, ,
-1, ,302, ,
1, ,302, ,
0, ,301, ,
0, ,302, ,
1, ,301, ,
1, ,302, ,
-1, ,301, ,
1, ,302, ,
0, ,301, ,
0, ,301, ,
1, ,301, ,
1, ,301, ,
0, ,301, ,
1, ,302, ,
0, ,301, ,
0, ,301, ,
1, ,301, ,
1, ,302, ,
-1, ,302, ,
3, ,301, ,
0, ,301, ,
0, ,301, ,
3, ,300, ,
1, ,301, ,
-1, ,301, ,
1, ,302, ,
0, ,301, ,
0, ,301, ,
1, ,302, ,
1, ,303, ,
-1, ,300, ,
3, ,302, ,
0, ,302, ,
0, ,301, ,
1, ,301, ,
1, ,302, ,
-1, ,301, ,
1, ,302, ,
0, ,301, ,
0, ,301, ,
1, ,301, ,
1, ,303, ,
-1, ,301, ,
3, ,301, ,
0, ,301, ,
0, ,301, ,
3, ,301, ,
1, ,302, ,
-1, ,301, ,
3, ,301, ,
0, ,301, ,
0, ,301, ,
1, ,301, ,
1, ,302, ,
-1, ,300, ,
1, ,302, ,
0, ,301, ,
0, ,302, ,
3, ,301, ,
1, ,301, ,
-1, ,301, ,
3, ,303, ,
0, ,301, ,
0, ,301, ,
1, ,300, ,
1, ,302, ,
0, ,300, ,
3, ,302, ,
0, ,301, ,
0, ,302, ,
1, ,301, ,
1, ,302, ,
-1, ,301, ,
1, ,301, ,
0, ,301, ,
0, ,301, ,
1, ,300, ,
0, ,302, ,
-1, ,301, ,
3, ,301, ,
0, ,301, ,
0, ,301, ,
1, ,301, ,
1, ,302, ,
0, ,301, ,
1, ,302, ,
0, ,301, ,
0, ,301, ,
1, ,301, ,
0, ,303, ,
-1, ,301, ,
3, ,302, ,
0, ,301, ,
0, ,301, ,
3, ,301, ,
1, ,303, ,
0, ,301, ,
1, ,302, ,
0, ,301, ,
0, ,301, ,
1, ,301, ,
1, ,301, ,
0, ,301, ,
1, ,302, ,
0, ,301, ,
0, ,302, ,
1, ,301, ,
1, ,301, ,
-1, ,301, ,
1, ,302, ,
0, ,301, ,
0, ,301, ,
1, ,301, ,
1, ,302, ,
-1, ,301, ,
3, ,301, ,
0, ,301, ,
0, ,301, ,
1, ,301, ,
1, ,301, ,
0, ,301, ,
3, ,302, ,
0, ,301, ,
0, ,301, ,
1, ,301, ,
1, ,303, ,
0, ,301, ,
1, ,301, ,
0, ,301, ,
0, ,301, ,
1, ,301, ,
1, ,302, ,
-1, ,301, ,
1, ,301, ,
0, ,301, ,
0, ,301, ,
1, ,301, ,
0, ,301, ,
-1, ,301, ,
3, ,301, ,
0, ,301, ,
0, ,302, ,
1, ,301, ,
1, ,301, ,
-1, ,301, ,
3, ,302, ,
0, ,301, ,
0, ,301, ,
1, ,301, ,
0, ,301, ,
0, ,301, ,
3, ,301, ,
0, ,301, ,
0, ,301, ,
1, ,301, ,
1, ,301, ,
0, ,301, ,
1, ,301, ,
0, ,301, ,
0, ,301, ,
1, ,301, ,
1, ,301, ,
0, ,302, ,
3, ,301, ,
0, ,301, ,
0, ,302, ,
1, ,301, ,
1, ,302, ,
0, ,301, ,
3, ,302, ,
0, ,301, ,
0, ,301, ,
1, ,302, ,
1, ,302, ,
0, ,300, ,
1, ,301, ,
0, ,301, ,
0, ,302, ,
3, ,301, ,
1, ,302, ,
0, ,301, ,
1, ,301, ,
0, ,301, ,
0, ,302, ,
3, ,301, ,
0, ,301, ,
0, ,301, ,
1, ,302, ,
0, ,301, ,
0, ,301, ,
3, ,301, ,
0, ,301, ,
-1, ,300, ,
1, ,299, ,
0, ,299, ,
0, ,301, ,
1, ,302, ,
0, ,306, ,
-1, ,303, ,
1, ,303, ,
0, ,300, ,
-1, ,301, ,
1, ,299, ,
1, ,301, ,
0, ,301, ,
3, ,301, ,
0, ,301, ,
0, ,301, ,
1, ,300, ,
1, ,302, ,
-1, ,300, ,
1, ,301, ,
0, ,301, ,
-1, ,301, ,
3, ,301, ,
1, ,301, ,
-1, ,301, ,
3, ,302, ,
0, ,301, ,
0, ,301, ,
1, ,301, ,
0, ,301, ,
-1, ,301, ,
1, ,300, ,
0, ,301, ,
0, ,303, ,
3, ,301, ,
1, ,301, ,
0, ,301, ,
3, ,301, ,
0, ,300, ,
0, ,301, ,
1, ,301, ,
0, ,303, ,
-1, ,301, ,
1, ,301, ,
0, ,301, ,
0, ,301, ,
3, ,301, ,
1, ,303, ,
0, ,301, ,
3, ,302, ,
0, ,301, ,
0, ,301, ,
1, ,301, ,
0, ,302, ,
-1, ,301, ,
3, ,301, ,
0, ,301, ,
-1, ,301, ,
3, ,301, ,
1, ,302, ,
0, ,301, ,
3, ,301, ,
0, ,300, ,
0, ,300, ,
1, ,301, ,
0, ,303, ,
-1, ,301, ,
1, ,302, ,
0, ,300, ,
0, ,301, ,
3, ,300, ,
1, ,300, ,
0, ,300, ,
3, ,301, ,
0, ,301, ,
0, ,301, ,
3, ,301, ,
0, ,301, ,
-1, ,300, ,
3, ,301, ,
0, ,301, ,
0, ,301, ,
3, ,301, ,
1, ,302, ,
0, ,301, ,
3, ,302, ,
0, ,301, ,
0, ,301, ,
1, ,301, ,
0, ,302, ,
-1, ,299, ,
1, ,301, ,
0, ,300, ,
-1, ,301, ,
3, ,301, ,
1, ,301, ,
0, ,301, ,
3, ,301, ,
0, ,301, ,
0, ,301, ,
1, ,301, ,
1, ,301, ,
-1, ,301, ,
1, ,302, ,
0, ,301, ,
0, ,301, ,
1, ,301, ,
1, ,301, ,
-1, ,301, ,
3, ,303, ,
0, ,302, ,
0, ,301, ,
1, ,301, ,
1, ,302, ,
0, ,301, ,
3, ,301, ,
0, ,301, ,
-1, ,302, ,
3, ,301, ,
1, ,303, ,
0, ,301, ,
3, ,301, ,
0, ,301, ,
0, ,301, ,
1, ,301, ,
0, ,301, ,
-1, ,297, ,
1, ,299, ,
0, ,302, ,
0, ,308, ,
3, ,306, ,
1, ,301, ,
0, ,299, ,
3, ,301, ,
0, ,301, ,
0, ,302, ,
1, ,302, ,
0, ,303, ,
-1, ,300, ,
1, ,300, ,
0, ,301, ,
0, ,302, ,
1, ,300, ,
1, ,301, ,
0, ,301, ,
3, ,303, ,
0, ,301, ,
0, ,301, ,
3, ,301, ,
1, ,302, ,
-1, ,301, ,
1, ,302, ,
0, ,303, ,
0, ,301, ,
3, ,301, ,
0, ,301, ,
0, ,301, ,
3, ,302, ,
0, ,301, ,
0, ,301, ,
1, ,301, ,
0, ,303, ,
-1, ,301, ,
1, ,302, ,
0, ,301, ,
0, ,301, ,
3, ,302, ,
1, ,302, ,
-1, ,301, ,
3, ,303, ,
0, ,301, ,
0, ,301, ,
3, ,301, ,
0, ,303, ,
-1, ,301, ,
3, ,303, ,
