src/vary_led_1562/temp0002585.CSV

Format,1.0B,
Memory Length,10000,Memory Length,10000,
IntpDistance,0,IntpDistance,0,
Trigger Address,5159,Trigger Address,5159,
Trigger Level,3.000E-01,Trigger Level,3.000E-01,
Source,CH1,Source,CH2,
Vertical Units,V,Vertical Units,V,
Vertical Units Div,0,Vertical Units Div,0,
Vertical Units Extend Div,16,Vertical Units Extend Div,16,
Label,,Label,,
Probe Type,0,Probe Type,0,
Probe Ratio,1.000e+01,Probe Ratio,1.000e+00,
Vertical Scale,5.000e-01,Vertical Scale,2.000e-01,
Vertical Position,-1.780e+00,Vertical Position,-2.240e+00,
Horizontal Units,S,Horizontal Units,S,
Horizontal Scale,2.000E-05,Horizontal Scale,2.000E-05,
Horizontal Position,-3.200E-06,Horizontal Position,-3.200E-06,
Horizontal Mode,Main,Horizontal Mode,Main,
SincET Mode,Real Time,SincET Mode,Real Time,
Sampling Period,2.000e-08,Sampling Period,2.000e-08,
Horizontal Old Scale,2.000E-05,Horizontal Old Scale,2.000E-05,
Horizontal Old Position,-3.200E-06,Horizontal Old Position,-3.200E-06,
Firmware,V1.23,Firmware,V1.23,
Mode,Fast,Mode,Fast,
Waveform Data,,Waveform Data,,
0, ,253, ,
3, ,254, ,
1, ,253, ,
1, ,256, ,
1, ,253, ,
1, ,254, ,
0, ,256, ,
3, ,256, ,
1, ,251, ,
1, ,253, ,
1, ,254, ,
1, ,254, ,
0, ,254, ,
1, ,253, ,
0, ,253, ,
1, ,254, ,
1, ,253, ,
1, ,253, ,
0, ,254, ,
1, ,253, ,
0, ,252, ,
1, ,253, ,
1, ,253, ,
1, ,254, ,
0, ,254, ,
1, ,253, ,
1, ,254, ,
1, ,254, ,
1, ,253, ,
1, ,253, ,
0, ,253, ,
3, ,254, ,
0, ,254, ,
1, ,253, ,
1, ,254, ,
1, ,253, ,
0, ,253, ,
1, ,253, ,
0, ,254, ,
1, ,256, ,
1, ,252, ,
1, ,253, ,
0, ,253, ,
1, ,256, ,
0, ,252, ,
1, ,253, ,
1, ,253, ,
1, ,254, ,
0, ,253, ,
1, ,254, ,
0, ,253, ,
0, ,257, ,
1, ,254, ,
1, ,253, ,
0, ,256, ,
1, ,254, ,
0, ,253, ,
0, ,254, ,
1, ,254, ,
1, ,254, ,
0, ,254, ,
1, ,254, ,
0, ,256, ,
0, ,256, ,
1, ,253, ,
1, ,254, ,
0, ,254, ,
1, ,254, ,
0, ,254, ,
0, ,254, ,
1, ,254, ,
1, ,254, ,
0, ,254, ,
1, ,256, ,
0, ,254, ,
0, ,256, ,
1, ,254, ,
1, ,254, ,
0, ,257, ,
1, ,256, ,
0, ,253, ,
1, ,253, ,
1, ,254, ,
1, ,253, ,
0, ,253, ,
1, ,256, ,
1, ,254, ,
1, ,256, ,
3, ,254, ,
1, ,254, ,
0, ,254, ,
3, ,256, ,
0, ,254, ,
1, ,254, ,
1, ,254, ,
1, ,254, ,
0, ,254, ,
1, ,254, ,
0, ,253, ,
0, ,256, ,
1, ,254, ,
1, ,254, ,
0, ,254, ,
3, ,256, ,
1, ,253, ,
1, ,254, ,
1, ,254, ,
1, ,254, ,
0, ,253, ,
1, ,254, ,
1, ,253, ,
1, ,256, ,
1, ,254, ,
1, ,254, ,
0, ,254, ,
1, ,256, ,
1, ,253, ,
1, ,253, ,
1, ,253, ,
1, ,254, ,
0, ,253, ,
3, ,254, ,
1, ,254, ,
1, ,254, ,
1, ,253, ,
1, ,253, ,
0, ,256, ,
1, ,254, ,
0, ,253, ,
1, ,254, ,
1, ,254, ,
1, ,256, ,
0, ,254, ,
1, ,254, ,
1, ,254, ,
0, ,254, ,
1, ,253, ,
1, ,253, ,
0, ,253, ,
1, ,254, ,
0, ,253, ,
1, ,253, ,
1, ,254, ,
3, ,254, ,
0, ,254, ,
1, ,254, ,
0, ,254, ,
1, ,256, ,
1, ,253, ,
1, ,254, ,
0, ,254, ,
1, ,253, ,
1, ,253, ,
1, ,253, ,
1, ,253, ,
1, ,254, ,
0, ,253, ,
1, ,253, ,
0, ,254, ,
1, ,256, ,
1, ,253, ,
1, ,254, ,
0, ,256, ,
1, ,253, ,
1, ,253, ,
1, ,254, ,
1, ,254, ,
1, ,254, ,
0, ,254, ,
1, ,254, ,
0, ,253, ,
134, ,256, ,
78, ,253, ,
48, ,254, ,
33, ,253, ,
24, ,254, ,
13, ,253, ,
8, ,256, ,
8, ,253, ,
8, ,254, ,
4, ,253, ,
4, ,253, ,
3, ,253, ,
4, ,256, ,
5, ,253, ,
3, ,254, ,
1, ,256, ,
5, ,256, ,
3, ,253, ,
3, ,253, ,
4, ,253, ,
4, ,254, ,
1, ,254, ,
4, ,253, ,
3, ,253, ,
3, ,254, ,
4, ,253, ,
4, ,254, ,
1, ,256, ,
4, ,254, ,
3, ,253, ,
3, ,253, ,
4, ,254, ,
4, ,256, ,
1, ,253, ,
4, ,253, ,
3, ,254, ,
3, ,254, ,
4, ,254, ,
4, ,254, ,
1, ,256, ,
4, ,254, ,
3, ,254, ,
3, ,254, ,
4, ,253, ,
4, ,254, ,
3, ,254, ,
4, ,253, ,
3, ,253, ,
3, ,254, ,
4, ,254, ,
4, ,254, ,
1, ,253, ,
4, ,254, ,
3, ,254, ,
3, ,254, ,
3, ,253, ,
4, ,256, ,
1, ,253, ,
4, ,254, ,
3, ,253, ,
3, ,254, ,
4, ,253, ,
4, ,253, ,
3, ,253, ,
4, ,256, ,
3, ,254, ,
3, ,253, ,
4, ,253, ,
4, ,254, ,
1, ,254, ,
4, ,254, ,
1, ,253, ,
3, ,254, ,
3, ,253, ,
4, ,254, ,
1, ,254, ,
4, ,254, ,
3, ,252, ,
3, ,254, ,
4, ,254, ,
3, ,254, ,
3, ,253, ,
4, ,254, ,
1, ,254, ,
3, ,254, ,
3, ,253, ,
4, ,254, ,
1, ,254, ,
4, ,254, ,
1, ,253, ,
3, ,254, ,
3, ,254, ,
3, ,254, ,
1, ,253, ,
4, ,253, ,
3, ,254, ,
3, ,256, ,
3, ,253, ,
3, ,253, ,
1, ,253, ,
4, ,253, ,
3, ,254, ,
3, ,256, ,
3, ,253, ,
3, ,254, ,
1, ,253, ,
4, ,253, ,
1, ,254, ,
3, ,253, ,
3, ,253, ,
3, ,254, ,
1, ,256, ,
4, ,254, ,
3, ,253, ,
3, ,254, ,
4, ,253, ,
3, ,256, ,
1, ,253, ,
4, ,253, ,
3, ,254, ,
3, ,256, ,
3, ,254, ,
4, ,253, ,
1, ,253, ,
4, ,254, ,
1, ,253, ,
3, ,256, ,
3, ,254, ,
3, ,254, ,
1, ,253, ,
4, ,253, ,
3, ,254, ,
3, ,254, ,
3, ,254, ,
3, ,253, ,
1, ,254, ,
4, ,256, ,
1, ,253, ,
3, ,254, ,
3, ,253, ,
3, ,254, ,
1, ,254, ,
4, ,253, ,
3, ,253, ,
3, ,254, ,
3, ,253, ,
3, ,254, ,
1, ,256, ,
3, ,256, ,
1, ,253, ,
3, ,256, ,
3, ,254, ,
3, ,254, ,
1, ,254, ,
4, ,254, ,
1, ,254, ,
3, ,254, ,
3, ,254, ,
3, ,254, ,
1, ,256, ,
4, ,253, ,
3, ,253, ,
3, ,253, ,
3, ,253, ,
3, ,254, ,
1, ,254, ,
4, ,254, ,
1, ,253, ,
3, ,256, ,
3, ,253, ,
3, ,254, ,
1, ,256, ,
4, ,254, ,
3, ,253, ,
3, ,254, ,
3, ,253, ,
3, ,254, ,
1, ,254, ,
4, ,254, ,
1, ,253, ,
3, ,254, ,
3, ,254, ,
3, ,254, ,
1, ,256, ,
3, ,256, ,
1, ,253, ,
3, ,254, ,
3, ,254, ,
3, ,254, ,
1, ,254, ,
4, ,254, ,
1, ,254, ,
3, ,256, ,
3, ,253, ,
3, ,253, ,
1, ,256, ,
4, ,256, ,
1, ,254, ,
3, ,253, ,
3, ,254, ,
3, ,256, ,
1, ,254, ,
3, ,254, ,
1, ,253, ,
3, ,256, ,
3, ,253, ,
3, ,253, ,
1, ,256, ,
4, ,256, ,
1, ,253, ,
3, ,253, ,
3, ,254, ,
3, ,254, ,
1, ,253, ,
4, ,253, ,
1, ,252, ,
3, ,256, ,
3, ,254, ,
3, ,254, ,
1, ,256, ,
3, ,254, ,
1, ,253, ,
3, ,253, ,
3, ,253, ,
3, ,253, ,
1, ,254, ,
4, ,253, ,
1, ,253, ,
3, ,256, ,
3, ,254, ,
3, ,253, ,
1, ,253, ,
4, ,254, ,
3, ,253, ,
3, ,256, ,
3, ,253, ,
3, ,254, ,
1, ,253, ,
4, ,253, ,
1, ,253, ,
3, ,254, ,
3, ,254, ,
3, ,254, ,
1, ,253, ,
3, ,254, ,
1, ,253, ,
3, ,253, ,
3, ,256, ,
3, ,254, ,
1, ,253, ,
3, ,254, ,
1, ,254, ,
3, ,256, ,
3, ,253, ,
3, ,253, ,
1, ,254, ,
4, ,256, ,
1, ,253, ,
3, ,253, ,
3, ,254, ,
3, ,254, ,
1, ,254, ,
3, ,254, ,
0, ,253, ,
3, ,256, ,
3, ,254, ,
3, ,254, ,
1, ,254, ,
4, ,254, ,
1, ,253, ,
1, ,253, ,
1, ,253, ,
3, ,254, ,
1, ,253, ,
3, ,254, ,
1, ,254, ,
3, ,256, ,
1, ,253, ,
3, ,254, ,
1, ,256, ,
3, ,254, ,
1, ,253, ,
3, ,256, ,
3, ,254, ,
3, ,254, ,
1, ,253, ,
4, ,253, ,
1, ,253, ,
3, ,254, ,
3, ,253, ,
3, ,253, ,
1, ,254, ,
3, ,254, ,
1, ,253, ,
3, ,254, ,
3, ,254, ,
3, ,256, ,
0, ,253, ,
3, ,254, ,
1, ,253, ,
1, ,254, ,
3, ,253, ,
3, ,253, ,
1, ,253, ,
3, ,254, ,
3, ,253, ,
3, ,254, ,
3, ,253, ,
3, ,254, ,
1, ,253, ,
3, ,253, ,
1, ,253, ,
1, ,254, ,
1, ,254, ,
1, ,253, ,
1, ,254, ,
3, ,254, ,
1, ,253, ,
3, ,254, ,
1, ,254, ,
3, ,254, ,
0, ,253, ,
3, ,253, ,
1, ,254, ,
3, ,256, ,
3, ,253, ,
3, ,254, ,
1, ,256, ,
3, ,253, ,
1, ,253, ,
3, ,253, ,
3, ,253, ,
3, ,253, ,
0, ,253, ,
3, ,254, ,
1, ,254, ,
3, ,256, ,
3, ,254, ,
1, ,254, ,
1, ,253, ,
3, ,254, ,
1, ,253, ,
3, ,253, ,
1, ,253, ,
1, ,254, ,
1, ,253, ,
3, ,253, ,
1, ,253, ,
1, ,254, ,
3, ,253, ,
3, ,254, ,
1, ,254, ,
3, ,254, ,
1, ,254, ,
1, ,253, ,
3, ,254, ,
1, ,254, ,
0, ,254, ,
4, ,253, ,
1, ,253, ,
3, ,254, ,
3, ,253, ,
3, ,254, ,
0, ,254, ,
3, ,254, ,
1, ,253, ,
3, ,254, ,
3, ,253, ,
3, ,254, ,
0, ,254, ,
3, ,254, ,
1, ,254, ,
1, ,254, ,
3, ,254, ,
3, ,254, ,
0, ,256, ,
3, ,254, ,
1, ,253, ,
3, ,256, ,
3, ,254, ,
1, ,253, ,
0, ,253, ,
3, ,254, ,
1, ,253, ,
1, ,256, ,
1, ,254, ,
1, ,254, ,
0, ,254, ,
3, ,254, ,
1, ,253, ,
3, ,254, ,
3, ,254, ,
3, ,254, ,
0, ,254, ,
3, ,253, ,
1, ,254, ,
1, ,256, ,
3, ,253, ,
1, ,254, ,
0, ,253, ,
3, ,254, ,
1, ,253, ,
1, ,254, ,
3, ,253, ,
1, ,254, ,
0, ,254, ,
3, ,256, ,
1, ,254, ,
1, ,256, ,
1, ,253, ,
3, ,254, ,
0, ,253, ,
3, ,254, ,
1, ,252, ,
1, ,253, ,
3, ,253, ,
1, ,254, ,
0, ,254, ,
3, ,253, ,
1, ,253, ,
1, ,253, ,
3, ,252, ,
1, ,253, ,
0, ,254, ,
3, ,254, ,
1, ,254, ,
1, ,254, ,
1, ,253, ,
1, ,254, ,
0, ,253, ,
3, ,253, ,
1, ,254, ,
1, ,254, ,
3, ,254, ,
1, ,253, ,
0, ,253, ,
3, ,253, ,
1, ,253, ,
1, ,254, ,
1, ,253, ,
3, ,254, ,
0, ,253, ,
3, ,254, ,
1, ,256, ,
1, ,254, ,
3, ,253, ,
3, ,253, ,
0, ,256, ,
3, ,254, ,
1, ,253, ,
1, ,254, ,
3, ,254, ,
1, ,254, ,
0, ,253, ,
3, ,253, ,
1, ,253, ,
1, ,256, ,
3, ,254, ,
1, ,254, ,
0, ,254, ,
3, ,254, ,
1, ,253, ,
1, ,253, ,
3, ,253, ,
1, ,254, ,
0, ,254, ,
3, ,253, ,
1, ,254, ,
1, ,254, ,
3, ,253, ,
1, ,253, ,
0, ,254, ,
3, ,254, ,
1, ,253, ,
1, ,253, ,
3, ,253, ,
1, ,254, ,
0, ,254, ,
3, ,254, ,
1, ,253, ,
1, ,256, ,
3, ,253, ,
1, ,254, ,
0, ,254, ,
3, ,253, ,
1, ,254, ,
1, ,253, ,
3, ,253, ,
1, ,253, ,
1, ,253, ,
3, ,253, ,
1, ,254, ,
1, ,256, ,
3, ,253, ,
1, ,253, ,
0, ,254, ,
3, ,256, ,
0, ,252, ,
1, ,253, ,
1, ,254, ,
1, ,256, ,
0, ,253, ,
3, ,253, ,
3, ,253, ,
1, ,256, ,
1, ,253, ,
3, ,253, ,
0, ,256, ,
3, ,254, ,
1, ,253, ,
1, ,254, ,
1, ,254, ,
3, ,254, ,
0, ,253, ,
3, ,253, ,
1, ,253, ,
1, ,254, ,
3, ,253, ,
1, ,254, ,
0, ,254, ,
1, ,254, ,
1, ,253, ,
1, ,256, ,
3, ,254, ,
1, ,254, ,
0, ,254, ,
3, ,254, ,
1, ,254, ,
1, ,254, ,
1, ,253, ,
1, ,254, ,
0, ,254, ,
3, ,256, ,
1, ,253, ,
1, ,253, ,
3, ,253, ,
3, ,254, ,
0, ,254, ,
3, ,253, ,
1, ,256, ,
1, ,254, ,
1, ,253, ,
1, ,254, ,
0, ,254, ,
3, ,254, ,
1, ,253, ,
1, ,253, ,
3, ,253, ,
1, ,254, ,
0, ,254, ,
3, ,253, ,
1, ,253, ,
1, ,256, ,
3, ,253, ,
1, ,253, ,
0, ,253, ,
3, ,256, ,
1, ,253, ,
1, ,254, ,
3, ,254, ,
1, ,254, ,
0, ,253, ,
3, ,254, ,
1, ,254, ,
1, ,254, ,
3, ,253, ,
1, ,254, ,
0, ,253, ,
3, ,254, ,
1, ,253, ,
1, ,254, ,
1, ,254, ,
3, ,254, ,
0, ,253, ,
3, ,253, ,
1, ,254, ,
1, ,254, ,
1, ,253, ,
3, ,253, ,
1, ,253, ,
3, ,254, ,
1, ,254, ,
1, ,254, ,
1, ,253, ,
3, ,254, ,
0, ,253, ,
3, ,254, ,
1, ,253, ,
1, ,254, ,
1, ,253, ,
3, ,254, ,
0, ,254, ,
3, ,254, ,
1, ,253, ,
1, ,254, ,
1, ,253, ,
1, ,254, ,
0, ,254, ,
3, ,254, ,
1, ,253, ,
1, ,253, ,
1, ,253, ,
1, ,253, ,
0, ,253, ,
3, ,254, ,
1, ,254, ,
1, ,253, ,
3, ,254, ,
3, ,254, ,
0, ,254, ,
3, ,254, ,
1, ,254, ,
1, ,254, ,
1, ,253, ,
1, ,253, ,
0, ,254, ,
1, ,254, ,
1, ,253, ,
1, ,254, ,
1, ,253, ,
3, ,254, ,
0, ,253, ,
3, ,254, ,
1, ,253, ,
1, ,253, ,
3, ,253, ,
3, ,254, ,
0, ,256, ,
3, ,253, ,
1, ,253, ,
1, ,254, ,
1, ,253, ,
1, ,254, ,
0, ,254, ,
3, ,253, ,
0, ,253, ,
1, ,256, ,
3, ,253, ,
3, ,253, ,
0, ,254, ,
3, ,254, ,
0, ,253, ,
1, ,254, ,
1, ,254, ,
1, ,254, ,
0, ,253, ,
3, ,253, ,
1, ,253, ,
1, ,254, ,
1, ,254, ,
1, ,254, ,
0, ,256, ,
1, ,253, ,
0, ,253, ,
1, ,253, ,
1, ,253, ,
1, ,254, ,
0, ,253, ,
3, ,252, ,
1, ,253, ,
1, ,256, ,
1, ,254, ,
3, ,254, ,
0, ,256, ,
1, ,254, ,
1, ,253, ,
1, ,253, ,
1, ,253, ,
1, ,254, ,
0, ,253, ,
1, ,254, ,
1, ,254, ,
1, ,256, ,
1, ,253, ,
1, ,254, ,
0, ,253, ,
1, ,254, ,
0, ,254, ,
1, ,253, ,
1, ,254, ,
3, ,254, ,
0, ,254, ,
1, ,253, ,
0, ,253, ,
1, ,253, ,
1, ,253, ,
1, ,254, ,
0, ,254, ,
3, ,254, ,
0, ,253, ,
1, ,254, ,
1, ,253, ,
1, ,254, ,
0, ,253, ,
1, ,254, ,
1, ,254, ,
1, ,256, ,
1, ,254, ,
1, ,254, ,
0, ,254, ,
3, ,256, ,
1, ,254, ,
1, ,254, ,
1, ,254, ,
1, ,256, ,
0, ,253, ,
3, ,254, ,
1, ,254, ,
1, ,254, ,
3, ,254, ,
1, ,253, ,
0, ,254, ,
3, ,254, ,
1, ,253, ,
1, ,254, ,
3, ,254, ,
1, ,256, ,
0, ,254, ,
3, ,254, ,
1, ,253, ,
1, ,254, ,
1, ,254, ,
1, ,253, ,
0, ,253, ,
1, ,254, ,
0, ,253, ,
1, ,254, ,
1, ,253, ,
1, ,254, ,
0, ,254, ,
3, ,253, ,
1, ,253, ,
1, ,254, ,
1, ,253, ,
1, ,253, ,
0, ,254, ,
1, ,254, ,
1, ,253, ,
1, ,254, ,
1, ,253, ,
1, ,254, ,
0, ,253, ,
3, ,253, ,
1, ,253, ,
1, ,254, ,
1, ,254, ,
3, ,254, ,
0, ,253, ,
1, ,256, ,
1, ,253, ,
1, ,254, ,
1, ,254, ,
1, ,254, ,
0, ,253, ,
3, ,253, ,
0, ,254, ,
1, ,254, ,
3, ,254, ,
1, ,254, ,
0, ,253, ,
3, ,253, ,
0, ,253, ,
1, ,254, ,
3, ,253, ,
1, ,253, ,
0, ,253, ,
1, ,251, ,
1, ,251, ,
1, ,252, ,
1, ,253, ,
1, ,257, ,
0, ,257, ,
1, ,257, ,
1, ,253, ,
1, ,253, ,
1, ,253, ,
1, ,253, ,
0, ,253, ,
3, ,253, ,
0, ,254, ,
1, ,254, ,
1, ,253, ,
1, ,253, ,
0, ,253, ,
1, ,254, ,
0, ,253, ,
1, ,253, ,
1, ,253, ,
1, ,254, ,
0, ,253, ,
1, ,253, ,
1, ,253, ,
1, ,253, ,
1, ,253, ,
1, ,253, ,
0, ,253, ,
1, ,254, ,
0, ,253, ,
1, ,253, ,
1, ,254, ,
1, ,253, ,
0, ,253, ,
3, ,253, ,
0, ,253, ,
1, ,254, ,
3, ,253, ,
3, ,254, ,
0, ,253, ,
1, ,254, ,
0, ,253, ,
1, ,253, ,
1, ,253, ,
1, ,253, ,
0, ,253, ,
3, ,253, ,
0, ,253, ,
1, ,253, ,
1, ,253, ,
1, ,254, ,
0, ,253, ,
1, ,253, ,
0, ,253, ,
1, ,253, ,
3, ,253, ,
1, ,253, ,
0, ,253, ,
3, ,253, ,
1, ,253, ,
1, ,253, ,
1, ,252, ,
1, ,253, ,
0, ,254, ,
3, ,253, ,
0, ,253, ,
1, ,253, ,
1, ,254, ,
1, ,254, ,
0, ,253, ,
3, ,253, ,
1, ,253, ,
1, ,254, ,
1, ,253, ,
1, ,253, ,
0, ,253, ,
3, ,254, ,
1, ,253, ,
1, ,253, ,
1, ,253, ,
3, ,254, ,
0, ,254, ,
3, ,253, ,
0, ,254, ,
1, ,254, ,
1, ,253, ,
1, ,253, ,
0, ,254, ,
3, ,254, ,
0, ,253, ,
1, ,256, ,
1, ,253, ,
1, ,254, ,
0, ,253, ,
1, ,253, ,
1, ,253, ,
1, ,253, ,
1, ,253, ,
1, ,253, ,
0, ,254, ,
1, ,253, ,
1, ,253, ,
1, ,254, ,
1, ,253, ,
1, ,253, ,
0, ,254, ,
3, ,254, ,
1, ,254, ,
1, ,256, ,
1, ,253, ,
3, ,253, ,
0, ,254, ,
1, ,254, ,
1, ,254, ,
1, ,256, ,
1, ,254, ,
1, ,254, ,
0, ,254, ,
1, ,254, ,
1, ,253, ,
1, ,256, ,
1, ,254, ,
3, ,254, ,
0, ,254, ,
1, ,254, ,
0, ,253, ,
1, ,254, ,
1, ,254, ,
1, ,254, ,
0, ,254, ,
1, ,254, ,
0, ,254, ,
1, ,254, ,
1, ,253, ,
1, ,253, ,
0, ,254, ,
1, ,253, ,
0, ,254, ,
1, ,253, ,
1, ,254, ,
1, ,254, ,
0, ,254, ,
1, ,254, ,
0, ,254, ,
1, ,256, ,
1, ,254, ,
1, ,254, ,
0, ,254, ,
1, ,254, ,
0, ,253, ,
0, ,254, ,
1, ,253, ,
1, ,254, ,
0, ,254, ,
1, ,254, ,
1, ,254, ,
1, ,254, ,
1, ,253, ,
3, ,254, ,
0, ,254, ,
3, ,254, ,
0, ,254, ,
1, ,254, ,
1, ,254, ,
3, ,256, ,
0, ,254, ,
1, ,253, ,
0, ,254, ,
1, ,253, ,
3, ,253, ,
1, ,254, ,
0, ,253, ,
1, ,254, ,
0, ,253, ,
1, ,254, ,
1, ,253, ,
1, ,254, ,
0, ,253, ,
1, ,254, ,
1, ,254, ,
1, ,254, ,
1, ,253, ,
1, ,253, ,
0, ,256, ,
1, ,254, ,
1, ,253, ,
1, ,254, ,
1, ,254, ,
1, ,254, ,
0, ,253, ,
1, ,254, ,
0, ,253, ,
1, ,254, ,
3, ,253, ,
1, ,254, ,
0, ,254, ,
1, ,254, ,
1, ,254, ,
1, ,256, ,
1, ,254, ,
1, ,254, ,
0, ,254, ,
1, ,253, ,
0, ,254, ,
1, ,254, ,
1, ,253, ,
1, ,253, ,
0, ,254, ,
1, ,253, ,
0, ,252, ,
1, ,256, ,
1, ,254, ,
1, ,254, ,
0, ,254, ,
1, ,256, ,
1, ,254, ,
1, ,256, ,
1, ,253, ,
1, ,254, ,
0, ,254, ,
1, ,254, ,
1, ,253, ,
1, ,254, ,
1, ,254, ,
1, ,256, ,
0, ,253, ,
1, ,254, ,
1, ,254, ,
1, ,254, ,
3, ,253, ,
1, ,254, ,
0, ,256, ,
1, ,256, ,
0, ,254, ,
1, ,253, ,
1, ,253, ,
1, ,254, ,
0, ,253, ,
3, ,254, ,
0, ,254, ,
0, ,256, ,
1, ,254, ,
3, ,253, ,
0, ,253, ,
1, ,254, ,
1, ,254, ,
1, ,253, ,
1, ,254, ,
1, ,254, ,
0, ,253, ,
1, ,254, ,
0, ,254, ,
1, ,254, ,
1, ,253, ,
1, ,254, ,
0, ,256, ,
1, ,254, ,
0, ,253, ,
1, ,253, ,
1, ,253, ,
1, ,254, ,
0, ,253, ,
3, ,253, ,
0, ,254, ,
0, ,256, ,
1, ,253, ,
1, ,254, ,
0, ,254, ,
1, ,254, ,
0, ,254, ,
1, ,253, ,
1, ,253, ,
1, ,253, ,
0, ,254, ,
1, ,253, ,
1, ,253, ,
1, ,256, ,
1, ,253, ,
1, ,254, ,
0, ,254, ,
1, ,254, ,
1, ,254, ,
1, ,253, ,
1, ,254, ,
1, ,254, ,
0, ,254, ,
1, ,253, ,
0, ,253, ,
1, ,254, ,
1, ,253, ,
1, ,253, ,
0, ,254, ,
1, ,254, ,
0, ,253, ,
1, ,253, ,
1, ,254, ,
1, ,254, ,
0, ,253, ,
1, ,253, ,
1, ,253, ,
0, ,254, ,
1, ,253, ,
1, ,253, ,
0, ,253, ,
1, ,254, ,
0, ,253, ,
1, ,254, ,
1, ,254, ,
1, ,254, ,
0, ,253, ,
1, ,254, ,
0, ,254, ,
0, ,256, ,
1, ,253, ,
1, ,253, ,
0, ,254, ,
1, ,254, ,
0, ,254, ,
1, ,254, ,
1, ,254, ,
1, ,253, ,
0, ,253, ,
1, ,253, ,
1, ,253, ,
1, ,253, ,
1, ,253, ,
1, ,253, ,
0, ,256, ,
1, ,254, ,
0, ,253, ,
1, ,254, ,
1, ,253, ,
1, ,253, ,
0, ,253, ,
1, ,253, ,
1, ,256, ,
1, ,256, ,
1, ,254, ,
1, ,254, ,
0, ,253, ,
1, ,253, ,
0, ,253, ,
1, ,253, ,
1, ,254, ,
3, ,256, ,
0, ,254, ,
1, ,254, ,
0, ,254, ,
0, ,254, ,
1, ,253, ,
1, ,253, ,
0, ,253, ,
1, ,253, ,
0, ,253, ,
1, ,254, ,
1, ,253, ,
1, ,254, ,
0, ,253, ,
1, ,253, ,
0, ,254, ,
0, ,254, ,
1, ,253, ,
1, ,254, ,
0, ,254, ,
1, ,256, ,
0, ,254, ,
1, ,254, ,
1, ,253, ,
1, ,254, ,
0, ,253, ,
1, ,253, ,
0, ,253, ,
0, ,256, ,
1, ,254, ,
1, ,253, ,
0, ,254, ,
1, ,254, ,
0, ,253, ,
1, ,256, ,
1, ,253, ,
1, ,254, ,
0, ,253, ,
1, ,253, ,
0, ,253, ,
1, ,256, ,
3, ,253, ,
1, ,253, ,
0, ,253, ,
1, ,254, ,
0, ,254, ,
0, ,254, ,
1, ,253, ,
1, ,254, ,
0, ,253, ,
1, ,253, ,
0, ,254, ,
1, ,254, ,
1, ,253, ,
1, ,254, ,
0, ,254, ,
1, ,256, ,
1, ,253, ,
1, ,254, ,
1, ,254, ,
1, ,254, ,
0, ,254, ,
3, ,254, ,
1, ,253, ,
1, ,254, ,
1, ,254, ,
1, ,253, ,
0, ,254, ,
1, ,254, ,
0, ,254, ,
1, ,254, ,
1, ,253, ,
1, ,253, ,
0, ,254, ,
1, ,253, ,
1, ,254, ,
0, ,254, ,
1, ,252, ,
1, ,253, ,
0, ,254, ,
1, ,254, ,
0, ,253, ,
1, ,254, ,
1, ,254, ,
1, ,254, ,
0, ,254, ,
3, ,253, ,
1, ,253, ,
1, ,254, ,
1, ,253, ,
1, ,253, ,
0, ,256, ,
1, ,256, ,
1, ,253, ,
1, ,254, ,
1, ,253, ,
1, ,254, ,
0, ,253, ,
1, ,254, ,
1, ,254, ,
1, ,256, ,
1, ,254, ,
1, ,254, ,
0, ,253, ,
1, ,254, ,
0, ,254, ,
1, ,254, ,
1, ,253, ,
1, ,254, ,
0, ,253, ,
1, ,253, ,
0, ,253, ,
1, ,254, ,
1, ,253, ,
3, ,254, ,
0, ,254, ,
1, ,254, ,
0, ,253, ,
1, ,253, ,
1, ,254, ,
1, ,254, ,
0, ,254, ,
1, ,254, ,
1, ,253, ,
1, ,256, ,
1, ,254, ,
1, ,253, ,
0, ,253, ,
3, ,254, ,
0, ,253, ,
1, ,254, ,
1, ,253, ,
1, ,254, ,
0, ,254, ,
1, ,253, ,
0, ,254, ,
0, ,254, ,
1, ,254, ,
1, ,253, ,
0, ,253, ,
1, ,254, ,
0, ,254, ,
0, ,253, ,
1, ,254, ,
1, ,254, ,
0, ,253, ,
1, ,253, ,
1, ,253, ,
1, ,254, ,
1, ,254, ,
1, ,253, ,
0, ,254, ,
1, ,253, ,
1, ,253, ,
1, ,253, ,
3, ,256, ,
1, ,256, ,
0, ,254, ,
1, ,254, ,
0, ,253, ,
1, ,253, ,
1, ,253, ,
1, ,254, ,
0, ,256, ,
1, ,254, ,
0, ,254, ,
0, ,253, ,
1, ,254, ,
1, ,254, ,
0, ,253, ,
3, ,253, ,
1, ,253, ,
1, ,256, ,
3, ,253, ,
1, ,254, ,
0, ,253, ,
1, ,256, ,
1, ,253, ,
1, ,253, ,
1, ,254, ,
1, ,254, ,
0, ,254, ,
1, ,254, ,
0, ,254, ,
1, ,254, ,
1, ,254, ,
1, ,254, ,
0, ,254, ,
3, ,253, ,
0, ,253, ,
1, ,254, ,
1, ,254, ,
1, ,254, ,
0, ,253, ,
1, ,254, ,
0, ,253, ,
1, ,256, ,
1, ,253, ,
1, ,253, ,
0, ,254, ,
1, ,253, ,
0, ,253, ,
1, ,254, ,
1, ,254, ,
1, ,254, ,
0, ,254, ,
3, ,253, ,
1, ,254, ,
0, ,256, ,
1, ,252, ,
1, ,253, ,
0, ,254, ,
1, ,256, ,
0, ,253, ,
1, ,253, ,
1, ,253, ,
1, ,254, ,
0, ,254, ,
1, ,253, ,
1, ,253, ,
1, ,254, ,
1, ,253, ,
1, ,253, ,
0, ,254, ,
1, ,254, ,
0, ,253, ,
1, ,253, ,
1, ,253, ,
1, ,253, ,
0, ,253, ,
1, ,253, ,
1, ,254, ,
1, ,254, ,
1, ,254, ,
1, ,253, ,
0, ,253, ,
1, ,254, ,
0, ,253, ,
1, ,254, ,
1, ,254, ,
1, ,254, ,
0, ,253, ,
1, ,253, ,
1, ,253, ,
1, ,254, ,
1, ,254, ,
1, ,254, ,
0, ,254, ,
3, ,254, ,
0, ,254, ,
1, ,254, ,
1, ,254, ,
1, ,254, ,
0, ,254, ,
1, ,253, ,
1, ,253, ,
1, ,256, ,
1, ,253, ,
1, ,253, ,
0, ,253, ,
1, ,254, ,
1, ,253, ,
1, ,254, ,
1, ,254, ,
1, ,254, ,
0, ,254, ,
1, ,253, ,
1, ,253, ,
1, ,256, ,
1, ,254, ,
1, ,254, ,
0, ,253, ,
1, ,254, ,
0, ,253, ,
1, ,254, ,
1, ,253, ,
1, ,254, ,
0, ,253, ,
3, ,254, ,
1, ,253, ,
0, ,256, ,
1, ,253, ,
1, ,253, ,
0, ,256, ,
1, ,253, ,
0, ,254, ,
1, ,253, ,
1, ,254, ,
1, ,254, ,
0, ,253, ,
1, ,253, ,
1, ,253, ,
1, ,254, ,
1, ,254, ,
1, ,256, ,
0, ,254, ,
1, ,253, ,
0, ,253, ,
1, ,253, ,
1, ,253, ,
1, ,253, ,
0, ,253, ,
1, ,253, ,
1, ,254, ,
1, ,253, ,
1, ,253, ,
1, ,253, ,
-1, ,253, ,
1, ,254, ,
0, ,254, ,
1, ,253, ,
1, ,254, ,
1, ,253, ,
0, ,253, ,
3, ,253, ,
0, ,253, ,
0, ,256, ,
1, ,253, ,
1, ,253, ,
0, ,253, ,
1, ,254, ,
1, ,253, ,
1, ,253, ,
1, ,253, ,
1, ,256, ,
0, ,253, ,
1, ,253, ,
0, ,253, ,
1, ,254, ,
1, ,254, ,
1, ,253, ,
-1, ,254, ,
1, ,256, ,
0, ,254, ,
0, ,253, ,
1, ,253, ,
1, ,254, ,
0, ,253, ,
3, ,253, ,
1, ,253, ,
0, ,254, ,
1, ,253, ,
1, ,253, ,
0, ,254, ,
3, ,254, ,
1, ,254, ,
1, ,254, ,
1, ,253, ,
1, ,253, ,
0, ,253, ,
3, ,253, ,
0, ,253, ,
1, ,254, ,
1, ,253, ,
1, ,254, ,
0, ,253, ,
1, ,254, ,
0, ,253, ,
0, ,254, ,
1, ,253, ,
1, ,254, ,
0, ,253, ,
1, ,253, ,
0, ,254, ,
1, ,253, ,
1, ,254, ,
1, ,254, ,
0, ,253, ,
1, ,253, ,
1, ,253, ,
1, ,253, ,
1, ,253, ,
1, ,254, ,
0, ,253, ,
3, ,253, ,
0, ,253, ,
1, ,256, ,
1, ,253, ,
1, ,254, ,
0, ,254, ,
1, ,254, ,
0, ,253, ,
1, ,253, ,
1, ,253, ,
1, ,254, ,
0, ,253, ,
1, ,253, ,
1, ,253, ,
1, ,254, ,
1, ,253, ,
1, ,254, ,
-1, ,254, ,
1, ,253, ,
0, ,253, ,
1, ,253, ,
1, ,253, ,
1, ,253, ,
0, ,254, ,
3, ,254, ,
1, ,254, ,
0, ,256, ,
1, ,253, ,
1, ,253, ,
0, ,256, ,
1, ,254, ,
0, ,253, ,
1, ,253, ,
1, ,253, ,
1, ,254, ,
0, ,254, ,
1, ,253, ,
1, ,254, ,
1, ,254, ,
1, ,253, ,
1, ,253, ,
0, ,256, ,
1, ,254, ,
1, ,254, ,
1, ,254, ,
1, ,253, ,
1, ,254, ,
0, ,254, ,
1, ,253, ,
1, ,253, ,
1, ,256, ,
1, ,254, ,
1, ,254, ,
0, ,253, ,
1, ,254, ,
1, ,254, ,
1, ,253, ,
1, ,252, ,
1, ,253, ,
0, ,253, ,
1, ,254, ,
1, ,254, ,
1, ,254, ,
1, ,253, ,
