src/vary_led_1562/temp0005523.CSV

Format,1.0B,
Memory Length,10000,Memory Length,10000,
IntpDistance,0,IntpDistance,0,
Trigger Address,5159,Trigger Address,5159,
Trigger Level,3.000E-01,Trigger Level,3.000E-01,
Source,CH1,Source,CH2,
Vertical Units,V,Vertical Units,V,
Vertical Units Div,0,Vertical Units Div,0,
Vertical Units Extend Div,16,Vertical Units Extend Div,16,
Label,,Label,,
Probe Type,0,Probe Type,0,
Probe Ratio,1.000e+01,Probe Ratio,1.000e+00,
Vertical Scale,5.000e-01,Vertical Scale,2.000e-01,
Vertical Position,-1.780e+00,Vertical Position,-2.240e+00,
Horizontal Units,S,Horizontal Units,S,
Horizontal Scale,2.000E-05,Horizontal Scale,2.000E-05,
Horizontal Position,-3.200E-06,Horizontal Position,-3.200E-06,
Horizontal Mode,Main,Horizontal Mode,Main,
SincET Mode,Real Time,SincET Mode,Real Time,
Sampling Period,2.000e-08,Sampling Period,2.000e-08,
Horizontal Old Scale,2.000E-05,Horizontal Old Scale,2.000E-05,
Horizontal Old Position,-3.200E-06,Horizontal Old Position,-3.200E-06,
Firmware,V1.23,Firmware,V1.23,
Mode,Fast,Mode,Fast,
Waveform Data,,Waveform Data,,
3, ,298, ,
3, ,297, ,
1, ,298, ,
4, ,297, ,
1, ,298, ,
1, ,297, ,
3, ,299, ,
3, ,298, ,
1, ,299, ,
4, ,298, ,
1, ,298, ,
1, ,298, ,
3, ,299, ,
3, ,298, ,
1, ,298, ,
4, ,297, ,
1, ,299, ,
1, ,297, ,
3, ,298, ,
3, ,298, ,
1, ,299, ,
4, ,297, ,
1, ,298, ,
3, ,297, ,
3, ,298, ,
3, ,297, ,
1, ,298, ,
4, ,298, ,
1, ,298, ,
1, ,298, ,
3, ,297, ,
3, ,298, ,
1, ,298, ,
4, ,297, ,
1, ,298, ,
3, ,297, ,
3, ,298, ,
3, ,297, ,
1, ,298, ,
4, ,298, ,
1, ,299, ,
3, ,298, ,
3, ,298, ,
3, ,298, ,
1, ,299, ,
3, ,297, ,
1, ,298, ,
3, ,298, ,
3, ,298, ,
3, ,297, ,
1, ,297, ,
4, ,298, ,
1, ,298, ,
3, ,297, ,
3, ,298, ,
3, ,298, ,
1, ,299, ,
4, ,297, ,
1, ,298, ,
1, ,298, ,
3, ,298, ,
1, ,297, ,
1, ,299, ,
4, ,298, ,
1, ,298, ,
1, ,297, ,
3, ,298, ,
3, ,297, ,
1, ,300, ,
4, ,297, ,
1, ,297, ,
3, ,298, ,
3, ,298, ,
3, ,298, ,
1, ,298, ,
3, ,297, ,
1, ,298, ,
3, ,297, ,
3, ,298, ,
1, ,298, ,
1, ,298, ,
3, ,298, ,
1, ,298, ,
3, ,297, ,
3, ,300, ,
1, ,298, ,
1, ,298, ,
3, ,297, ,
1, ,298, ,
3, ,297, ,
3, ,297, ,
1, ,297, ,
1, ,299, ,
3, ,298, ,
1, ,298, ,
1, ,297, ,
3, ,298, ,
1, ,298, ,
1, ,298, ,
3, ,298, ,
1, ,298, ,
1, ,297, ,
1, ,297, ,
3, ,298, ,
1, ,299, ,
3, ,297, ,
1, ,299, ,
1, ,298, ,
1, ,298, ,
3, ,298, ,
1, ,298, ,
3, ,297, ,
1, ,298, ,
1, ,297, ,
1, ,298, ,
3, ,298, ,
1, ,298, ,
3, ,297, ,
1, ,298, ,
1, ,298, ,
1, ,298, ,
3, ,297, ,
1, ,298, ,
3, ,298, ,
1, ,298, ,
1, ,298, ,
3, ,298, ,
3, ,297, ,
0, ,299, ,
3, ,296, ,
1, ,298, ,
1, ,298, ,
3, ,298, ,
1, ,297, ,
1, ,298, ,
3, ,297, ,
1, ,298, ,
1, ,297, ,
3, ,298, ,
3, ,298, ,
0, ,299, ,
3, ,297, ,
1, ,298, ,
1, ,297, ,
3, ,298, ,
1, ,298, ,
1, ,299, ,
3, ,297, ,
1, ,298, ,
1, ,298, ,
1, ,298, ,
1, ,297, ,
0, ,298, ,
3, ,297, ,
1, ,298, ,
1, ,297, ,
1, ,298, ,
3, ,298, ,
1, ,299, ,
3, ,298, ,
1, ,299, ,
1, ,297, ,
3, ,298, ,
1, ,297, ,
1, ,299, ,
3, ,297, ,
1, ,299, ,
1, ,298, ,
3, ,298, ,
1, ,297, ,
1, ,298, ,
3, ,298, ,
1, ,298, ,
1, ,297, ,
1, ,297, ,
1, ,298, ,
0, ,299, ,
3, ,297, ,
1, ,298, ,
1, ,298, ,
3, ,298, ,
3, ,297, ,
0, ,298, ,
3, ,297, ,
1, ,299, ,
1, ,297, ,
1, ,298, ,
1, ,298, ,
0, ,299, ,
3, ,296, ,
1, ,297, ,
1, ,298, ,
3, ,298, ,
1, ,298, ,
0, ,298, ,
3, ,298, ,
1, ,298, ,
1, ,297, ,
3, ,297, ,
1, ,297, ,
0, ,298, ,
3, ,297, ,
1, ,298, ,
1, ,298, ,
1, ,298, ,
1, ,298, ,
90, ,297, ,
56, ,297, ,
34, ,298, ,
24, ,298, ,
18, ,297, ,
11, ,298, ,
5, ,298, ,
8, ,297, ,
6, ,298, ,
5, ,297, ,
5, ,298, ,
4, ,297, ,
3, ,298, ,
5, ,297, ,
3, ,298, ,
3, ,297, ,
4, ,298, ,
4, ,298, ,
1, ,297, ,
5, ,297, ,
3, ,298, ,
3, ,298, ,
4, ,298, ,
4, ,297, ,
1, ,298, ,
5, ,297, ,
3, ,298, ,
3, ,297, ,
4, ,298, ,
4, ,297, ,
3, ,298, ,
5, ,297, ,
3, ,297, ,
3, ,297, ,
4, ,298, ,
4, ,298, ,
1, ,299, ,
5, ,298, ,
1, ,298, ,
3, ,298, ,
3, ,298, ,
4, ,296, ,
3, ,298, ,
4, ,296, ,
3, ,297, ,
3, ,297, ,
3, ,299, ,
3, ,299, ,
1, ,299, ,
4, ,297, ,
3, ,298, ,
3, ,297, ,
4, ,297, ,
3, ,296, ,
1, ,299, ,
4, ,297, ,
3, ,298, ,
3, ,298, ,
3, ,298, ,
4, ,297, ,
1, ,298, ,
4, ,297, ,
3, ,298, ,
3, ,297, ,
3, ,298, ,
3, ,298, ,
1, ,298, ,
4, ,297, ,
1, ,297, ,
3, ,298, ,
3, ,298, ,
3, ,296, ,
1, ,298, ,
4, ,298, ,
3, ,298, ,
3, ,298, ,
4, ,298, ,
3, ,297, ,
1, ,298, ,
4, ,297, ,
1, ,297, ,
3, ,297, ,
3, ,298, ,
4, ,297, ,
1, ,298, ,
4, ,298, ,
3, ,298, ,
3, ,298, ,
3, ,298, ,
3, ,298, ,
1, ,299, ,
4, ,297, ,
1, ,293, ,
3, ,296, ,
3, ,301, ,
3, ,302, ,
1, ,300, ,
4, ,297, ,
1, ,298, ,
3, ,298, ,
3, ,297, ,
3, ,298, ,
1, ,300, ,
4, ,298, ,
1, ,297, ,
3, ,297, ,
3, ,299, ,
3, ,298, ,
1, ,298, ,
4, ,297, ,
1, ,299, ,
3, ,297, ,
3, ,298, ,
3, ,298, ,
1, ,299, ,
4, ,297, ,
3, ,299, ,
3, ,297, ,
3, ,299, ,
3, ,297, ,
1, ,298, ,
4, ,298, ,
1, ,298, ,
3, ,297, ,
3, ,297, ,
3, ,297, ,
1, ,299, ,
4, ,297, ,
1, ,299, ,
3, ,298, ,
3, ,298, ,
3, ,298, ,
1, ,298, ,
4, ,297, ,
3, ,298, ,
3, ,297, ,
3, ,297, ,
3, ,297, ,
1, ,300, ,
4, ,297, ,
1, ,298, ,
1, ,298, ,
3, ,298, ,
3, ,297, ,
1, ,298, ,
4, ,297, ,
1, ,298, ,
3, ,297, ,
3, ,299, ,
3, ,297, ,
1, ,298, ,
4, ,297, ,
1, ,297, ,
3, ,298, ,
3, ,299, ,
3, ,297, ,
1, ,298, ,
4, ,297, ,
1, ,298, ,
3, ,298, ,
3, ,298, ,
3, ,298, ,
1, ,299, ,
4, ,297, ,
1, ,298, ,
3, ,297, ,
3, ,298, ,
3, ,298, ,
1, ,299, ,
4, ,298, ,
1, ,298, ,
3, ,297, ,
3, ,298, ,
3, ,298, ,
1, ,298, ,
4, ,296, ,
3, ,298, ,
3, ,296, ,
3, ,298, ,
3, ,298, ,
1, ,298, ,
3, ,298, ,
1, ,299, ,
1, ,298, ,
3, ,298, ,
1, ,298, ,
1, ,299, ,
4, ,297, ,
1, ,298, ,
3, ,297, ,
3, ,298, ,
3, ,297, ,
1, ,298, ,
4, ,298, ,
1, ,299, ,
1, ,297, ,
3, ,297, ,
3, ,298, ,
1, ,298, ,
4, ,297, ,
3, ,298, ,
3, ,297, ,
3, ,298, ,
3, ,297, ,
1, ,298, ,
4, ,298, ,
1, ,298, ,
1, ,296, ,
3, ,297, ,
3, ,298, ,
1, ,299, ,
3, ,296, ,
1, ,298, ,
3, ,298, ,
3, ,298, ,
3, ,298, ,
1, ,298, ,
3, ,297, ,
1, ,298, ,
3, ,297, ,
3, ,298, ,
3, ,297, ,
1, ,298, ,
3, ,297, ,
1, ,297, ,
1, ,297, ,
3, ,299, ,
3, ,297, ,
1, ,298, ,
4, ,297, ,
1, ,299, ,
3, ,298, ,
3, ,299, ,
3, ,297, ,
1, ,298, ,
4, ,297, ,
1, ,298, ,
3, ,298, ,
3, ,298, ,
3, ,297, ,
1, ,298, ,
4, ,297, ,
1, ,298, ,
3, ,297, ,
3, ,297, ,
1, ,298, ,
1, ,298, ,
4, ,296, ,
1, ,297, ,
3, ,298, ,
3, ,298, ,
3, ,297, ,
1, ,298, ,
4, ,298, ,
1, ,298, ,
1, ,297, ,
3, ,298, ,
3, ,298, ,
1, ,299, ,
3, ,296, ,
1, ,298, ,
3, ,297, ,
3, ,298, ,
1, ,297, ,
1, ,298, ,
3, ,296, ,
1, ,298, ,
3, ,297, ,
3, ,298, ,
1, ,298, ,
1, ,299, ,
3, ,297, ,
1, ,298, ,
1, ,297, ,
3, ,298, ,
3, ,297, ,
1, ,298, ,
3, ,297, ,
1, ,298, ,
3, ,297, ,
3, ,298, ,
1, ,298, ,
0, ,299, ,
4, ,297, ,
1, ,298, ,
1, ,297, ,
3, ,298, ,
1, ,297, ,
1, ,298, ,
3, ,298, ,
1, ,297, ,
1, ,297, ,
1, ,296, ,
3, ,297, ,
1, ,298, ,
3, ,296, ,
1, ,298, ,
1, ,298, ,
3, ,298, ,
3, ,297, ,
1, ,299, ,
3, ,297, ,
1, ,298, ,
1, ,298, ,
3, ,297, ,
1, ,297, ,
0, ,299, ,
3, ,297, ,
1, ,297, ,
1, ,298, ,
1, ,298, ,
3, ,297, ,
1, ,298, ,
3, ,297, ,
1, ,299, ,
1, ,297, ,
3, ,297, ,
3, ,297, ,
1, ,298, ,
3, ,297, ,
1, ,297, ,
1, ,298, ,
3, ,298, ,
1, ,297, ,
1, ,298, ,
3, ,297, ,
1, ,298, ,
1, ,297, ,
3, ,297, ,
3, ,296, ,
0, ,298, ,
3, ,297, ,
1, ,298, ,
1, ,297, ,
3, ,298, ,
1, ,297, ,
1, ,298, ,
3, ,297, ,
1, ,298, ,
1, ,297, ,
1, ,297, ,
1, ,298, ,
1, ,298, ,
3, ,297, ,
1, ,298, ,
1, ,297, ,
1, ,298, ,
3, ,298, ,
0, ,298, ,
3, ,297, ,
1, ,299, ,
1, ,297, ,
3, ,298, ,
1, ,298, ,
0, ,298, ,
3, ,299, ,
1, ,298, ,
1, ,297, ,
3, ,298, ,
3, ,298, ,
1, ,298, ,
3, ,298, ,
1, ,298, ,
1, ,297, ,
1, ,297, ,
1, ,297, ,
1, ,298, ,
3, ,297, ,
1, ,297, ,
1, ,297, ,
1, ,298, ,
3, ,297, ,
0, ,298, ,
3, ,297, ,
1, ,298, ,
1, ,297, ,
3, ,298, ,
3, ,297, ,
0, ,299, ,
3, ,297, ,
1, ,297, ,
1, ,297, ,
3, ,298, ,
1, ,297, ,
1, ,298, ,
3, ,297, ,
1, ,300, ,
1, ,297, ,
3, ,297, ,
1, ,298, ,
0, ,298, ,
3, ,297, ,
1, ,298, ,
1, ,298, ,
3, ,298, ,
1, ,298, ,
0, ,298, ,
4, ,297, ,
1, ,299, ,
1, ,298, ,
3, ,298, ,
1, ,298, ,
0, ,298, ,
3, ,297, ,
1, ,298, ,
3, ,297, ,
3, ,297, ,
1, ,297, ,
0, ,298, ,
3, ,298, ,
1, ,298, ,
1, ,297, ,
3, ,297, ,
1, ,297, ,
0, ,299, ,
3, ,296, ,
1, ,298, ,
1, ,297, ,
1, ,298, ,
1, ,298, ,
0, ,298, ,
3, ,297, ,
1, ,298, ,
1, ,297, ,
3, ,297, ,
3, ,298, ,
0, ,298, ,
3, ,297, ,
1, ,298, ,
1, ,298, ,
3, ,298, ,
1, ,297, ,
0, ,298, ,
3, ,298, ,
1, ,298, ,
1, ,297, ,
1, ,298, ,
1, ,298, ,
0, ,298, ,
3, ,297, ,
1, ,298, ,
1, ,297, ,
1, ,298, ,
1, ,297, ,
0, ,297, ,
3, ,297, ,
1, ,298, ,
1, ,297, ,
1, ,297, ,
1, ,298, ,
0, ,298, ,
3, ,297, ,
1, ,298, ,
1, ,297, ,
3, ,298, ,
1, ,297, ,
0, ,298, ,
3, ,298, ,
1, ,298, ,
1, ,297, ,
1, ,297, ,
1, ,298, ,
0, ,299, ,
3, ,298, ,
1, ,298, ,
1, ,298, ,
1, ,298, ,
1, ,297, ,
0, ,298, ,
3, ,297, ,
1, ,299, ,
1, ,297, ,
3, ,297, ,
3, ,298, ,
0, ,299, ,
3, ,297, ,
1, ,298, ,
1, ,296, ,
3, ,297, ,
1, ,296, ,
0, ,298, ,
3, ,298, ,
1, ,298, ,
1, ,297, ,
3, ,297, ,
1, ,297, ,
0, ,297, ,
3, ,296, ,
1, ,298, ,
1, ,298, ,
1, ,299, ,
1, ,297, ,
0, ,298, ,
3, ,297, ,
1, ,298, ,
1, ,297, ,
3, ,297, ,
1, ,297, ,
0, ,298, ,
3, ,297, ,
1, ,298, ,
1, ,297, ,
3, ,299, ,
1, ,297, ,
0, ,298, ,
3, ,297, ,
1, ,298, ,
1, ,297, ,
1, ,298, ,
1, ,297, ,
0, ,299, ,
3, ,297, ,
1, ,298, ,
1, ,297, ,
1, ,298, ,
1, ,298, ,
0, ,298, ,
3, ,297, ,
1, ,298, ,
1, ,297, ,
1, ,298, ,
1, ,298, ,
0, ,299, ,
3, ,297, ,
1, ,298, ,
1, ,298, ,
3, ,299, ,
1, ,298, ,
0, ,299, ,
3, ,297, ,
1, ,298, ,
1, ,298, ,
1, ,298, ,
1, ,298, ,
0, ,298, ,
3, ,297, ,
1, ,298, ,
1, ,298, ,
1, ,298, ,
1, ,298, ,
0, ,298, ,
3, ,298, ,
1, ,298, ,
1, ,297, ,
3, ,298, ,
1, ,298, ,
0, ,299, ,
3, ,297, ,
1, ,298, ,
1, ,297, ,
3, ,298, ,
1, ,297, ,
0, ,298, ,
3, ,297, ,
1, ,298, ,
1, ,297, ,
3, ,298, ,
1, ,297, ,
0, ,299, ,
3, ,297, ,
1, ,297, ,
1, ,297, ,
1, ,298, ,
1, ,298, ,
0, ,300, ,
3, ,297, ,
1, ,298, ,
1, ,297, ,
3, ,298, ,
1, ,298, ,
0, ,299, ,
3, ,297, ,
1, ,298, ,
1, ,297, ,
1, ,298, ,
1, ,298, ,
0, ,299, ,
3, ,297, ,
1, ,298, ,
1, ,297, ,
3, ,298, ,
1, ,298, ,
0, ,298, ,
3, ,298, ,
1, ,297, ,
1, ,297, ,
1, ,298, ,
1, ,297, ,
0, ,298, ,
3, ,298, ,
0, ,298, ,
1, ,297, ,
1, ,298, ,
1, ,298, ,
0, ,299, ,
3, ,297, ,
1, ,298, ,
1, ,298, ,
3, ,298, ,
1, ,297, ,
0, ,298, ,
69, ,297, ,
80, ,298, ,
55, ,298, ,
32, ,297, ,
18, ,297, ,
11, ,298, ,
11, ,296, ,
8, ,298, ,
5, ,298, ,
5, ,297, ,
4, ,297, ,
3, ,298, ,
5, ,297, ,
3, ,299, ,
1, ,297, ,
4, ,298, ,
4, ,297, ,
1, ,299, ,
4, ,297, ,
3, ,297, ,
3, ,298, ,
4, ,298, ,
4, ,298, ,
3, ,299, ,
5, ,298, ,
1, ,298, ,
3, ,297, ,
4, ,298, ,
4, ,297, ,
3, ,298, ,
4, ,297, ,
3, ,297, ,
3, ,297, ,
4, ,299, ,
4, ,296, ,
1, ,299, ,
4, ,297, ,
3, ,298, ,
3, ,297, ,
3, ,299, ,
3, ,297, ,
1, ,297, ,
4, ,294, ,
3, ,294, ,
3, ,297, ,
3, ,303, ,
3, ,303, ,
1, ,301, ,
4, ,295, ,
3, ,294, ,
3, ,295, ,
3, ,299, ,
3, ,298, ,
1, ,298, ,
4, ,297, ,
3, ,297, ,
3, ,297, ,
3, ,298, ,
3, ,297, ,
1, ,298, ,
4, ,297, ,
3, ,298, ,
3, ,297, ,
3, ,298, ,
3, ,297, ,
1, ,299, ,
4, ,297, ,
3, ,297, ,
3, ,297, ,
3, ,298, ,
3, ,297, ,
1, ,299, ,
4, ,297, ,
1, ,299, ,
3, ,296, ,
3, ,296, ,
3, ,298, ,
1, ,299, ,
4, ,296, ,
3, ,298, ,
3, ,297, ,
3, ,298, ,
3, ,297, ,
1, ,299, ,
4, ,297, ,
3, ,298, ,
3, ,297, ,
3, ,298, ,
3, ,298, ,
1, ,298, ,
4, ,297, ,
1, ,298, ,
3, ,297, ,
3, ,298, ,
3, ,296, ,
1, ,298, ,
4, ,298, ,
1, ,298, ,
3, ,297, ,
3, ,297, ,
3, ,297, ,
1, ,299, ,
4, ,297, ,
1, ,298, ,
3, ,297, ,
3, ,299, ,
3, ,297, ,
1, ,298, ,
4, ,297, ,
3, ,297, ,
3, ,297, ,
3, ,296, ,
3, ,298, ,
1, ,298, ,
4, ,297, ,
1, ,298, ,
3, ,297, ,
3, ,298, ,
3, ,296, ,
1, ,297, ,
4, ,297, ,
1, ,298, ,
3, ,297, ,
3, ,297, ,
3, ,297, ,
1, ,298, ,
4, ,297, ,
3, ,298, ,
3, ,297, ,
3, ,298, ,
3, ,297, ,
1, ,298, ,
4, ,297, ,
1, ,298, ,
1, ,297, ,
3, ,298, ,
3, ,298, ,
1, ,298, ,
4, ,296, ,
1, ,297, ,
3, ,298, ,
3, ,298, ,
3, ,298, ,
1, ,298, ,
4, ,297, ,
1, ,299, ,
3, ,297, ,
3, ,297, ,
3, ,297, ,
1, ,299, ,
4, ,298, ,
3, ,298, ,
3, ,297, ,
3, ,297, ,
3, ,297, ,
1, ,298, ,
4, ,298, ,
1, ,299, ,
3, ,299, ,
3, ,300, ,
3, ,299, ,
1, ,299, ,
4, ,296, ,
1, ,298, ,
3, ,298, ,
3, ,299, ,
1, ,298, ,
1, ,299, ,
3, ,297, ,
1, ,299, ,
1, ,298, ,
3, ,297, ,
3, ,297, ,
1, ,298, ,
4, ,297, ,
1, ,299, ,
3, ,297, ,
3, ,299, ,
3, ,298, ,
1, ,298, ,
4, ,297, ,
1, ,298, ,
3, ,297, ,
3, ,297, ,
3, ,297, ,
1, ,299, ,
4, ,297, ,
1, ,298, ,
1, ,298, ,
3, ,299, ,
3, ,297, ,
1, ,299, ,
3, ,298, ,
1, ,298, ,
1, ,297, ,
3, ,297, ,
3, ,298, ,
1, ,299, ,
4, ,297, ,
1, ,298, ,
1, ,297, ,
3, ,299, ,
3, ,297, ,
1, ,298, ,
4, ,298, ,
1, ,298, ,
1, ,297, ,
3, ,298, ,
3, ,298, ,
1, ,299, ,
4, ,298, ,
1, ,298, ,
3, ,298, ,
3, ,299, ,
1, ,298, ,
1, ,299, ,
3, ,297, ,
1, ,298, ,
3, ,297, ,
3, ,298, ,
3, ,298, ,
1, ,298, ,
4, ,296, ,
1, ,298, ,
3, ,298, ,
3, ,298, ,
3, ,297, ,
1, ,298, ,
4, ,298, ,
1, ,299, ,
3, ,297, ,
3, ,298, ,
3, ,298, ,
1, ,298, ,
4, ,297, ,
1, ,298, ,
3, ,298, ,
3, ,299, ,
3, ,297, ,
1, ,298, ,
4, ,297, ,
1, ,299, ,
1, ,297, ,
1, ,298, ,
1, ,298, ,
1, ,299, ,
4, ,298, ,
1, ,298, ,
3, ,297, ,
3, ,298, ,
3, ,298, ,
1, ,299, ,
4, ,298, ,
1, ,298, ,
1, ,297, ,
3, ,298, ,
1, ,298, ,
1, ,299, ,
4, ,297, ,
1, ,297, ,
3, ,298, ,
3, ,299, ,
1, ,298, ,
1, ,299, ,
3, ,297, ,
1, ,299, ,
3, ,297, ,
3, ,298, ,
1, ,298, ,
1, ,298, ,
3, ,298, ,
1, ,297, ,
1, ,298, ,
1, ,298, ,
1, ,297, ,
1, ,298, ,
4, ,298, ,
1, ,298, ,
1, ,298, ,
3, ,297, ,
3, ,298, ,
1, ,300, ,
3, ,297, ,
1, ,298, ,
1, ,298, ,
3, ,298, ,
1, ,297, ,
1, ,299, ,
3, ,297, ,
1, ,299, ,
1, ,298, ,
3, ,298, ,
1, ,298, ,
1, ,298, ,
3, ,297, ,
1, ,298, ,
1, ,298, ,
3, ,299, ,
1, ,297, ,
1, ,298, ,
3, ,297, ,
1, ,299, ,
1, ,298, ,
3, ,298, ,
1, ,297, ,
1, ,298, ,
3, ,298, ,
1, ,298, ,
1, ,298, ,
1, ,298, ,
1, ,297, ,
1, ,297, ,
3, ,297, ,
1, ,299, ,
1, ,299, ,
3, ,299, ,
3, ,299, ,
0, ,299, ,
3, ,297, ,
1, ,298, ,
1, ,297, ,
3, ,298, ,
1, ,298, ,
1, ,298, ,
3, ,297, ,
1, ,300, ,
1, ,297, ,
3, ,298, ,
1, ,298, ,
1, ,298, ,
3, ,297, ,
1, ,298, ,
1, ,298, ,
3, ,299, ,
1, ,297, ,
1, ,298, ,
3, ,297, ,
1, ,298, ,
1, ,297, ,
1, ,298, ,
1, ,297, ,
1, ,300, ,
3, ,297, ,
1, ,298, ,
1, ,298, ,
3, ,298, ,
1, ,296, ,
1, ,298, ,
3, ,298, ,
1, ,298, ,
1, ,298, ,
3, ,298, ,
1, ,298, ,
0, ,299, ,
3, ,296, ,
1, ,298, ,
1, ,297, ,
3, ,298, ,
1, ,297, ,
1, ,299, ,
3, ,298, ,
1, ,298, ,
1, ,297, ,
3, ,298, ,
1, ,298, ,
1, ,299, ,
3, ,297, ,
1, ,298, ,
1, ,298, ,
1, ,297, ,
1, ,298, ,
1, ,298, ,
3, ,298, ,
1, ,298, ,
1, ,297, ,
1, ,299, ,
3, ,298, ,
0, ,299, ,
3, ,297, ,
1, ,298, ,
1, ,297, ,
3, ,298, ,
3, ,298, ,
0, ,299, ,
3, ,297, ,
1, ,299, ,
1, ,298, ,
3, ,298, ,
1, ,298, ,
0, ,299, ,
3, ,297, ,
1, ,297, ,
1, ,298, ,
1, ,298, ,
1, ,297, ,
0, ,298, ,
3, ,298, ,
1, ,298, ,
1, ,297, ,
1, ,298, ,
3, ,298, ,
0, ,298, ,
3, ,297, ,
1, ,298, ,
1, ,298, ,
3, ,299, ,
1, ,298, ,
0, ,300, ,
3, ,297, ,
1, ,299, ,
1, ,297, ,
3, ,298, ,
1, ,298, ,
0, ,298, ,
3, ,297, ,
1, ,299, ,
1, ,297, ,
1, ,299, ,
1, ,297, ,
0, ,298, ,
3, ,298, ,
1, ,298, ,
1, ,297, ,
1, ,298, ,
1, ,298, ,
0, ,298, ,
3, ,297, ,
1, ,298, ,
1, ,298, ,
3, ,298, ,
1, ,298, ,
0, ,298, ,
3, ,298, ,
1, ,299, ,
1, ,297, ,
3, ,298, ,
1, ,298, ,
0, ,299, ,
3, ,297, ,
1, ,298, ,
1, ,298, ,
1, ,299, ,
1, ,297, ,
0, ,299, ,
3, ,298, ,
1, ,297, ,
1, ,297, ,
3, ,298, ,
3, ,297, ,
0, ,299, ,
3, ,297, ,
1, ,298, ,
1, ,297, ,
3, ,299, ,
1, ,297, ,
0, ,298, ,
3, ,298, ,
1, ,298, ,
1, ,298, ,
3, ,297, ,
1, ,298, ,
0, ,300, ,
3, ,297, ,
1, ,298, ,
1, ,298, ,
1, ,299, ,
1, ,297, ,
0, ,300, ,
3, ,299, ,
1, ,299, ,
1, ,297, ,
1, ,298, ,
3, ,298, ,
0, ,299, ,
3, ,297, ,
0, ,298, ,
1, ,298, ,
3, ,299, ,
3, ,297, ,
0, ,299, ,
3, ,298, ,
1, ,299, ,
1, ,298, ,
1, ,298, ,
1, ,298, ,
0, ,299, ,
3, ,297, ,
1, ,298, ,
1, ,298, ,
1, ,297, ,
1, ,297, ,
0, ,298, ,
3, ,298, ,
1, ,299, ,
1, ,297, ,
1, ,298, ,
3, ,298, ,
0, ,299, ,
3, ,297, ,
1, ,299, ,
1, ,298, ,
3, ,298, ,
1, ,298, ,
0, ,299, ,
3, ,297, ,
1, ,299, ,
1, ,297, ,
3, ,298, ,
1, ,298, ,
0, ,299, ,
3, ,297, ,
1, ,298, ,
1, ,297, ,
1, ,298, ,
1, ,297, ,
0, ,298, ,
3, ,298, ,
1, ,299, ,
1, ,298, ,
1, ,297, ,
1, ,298, ,
0, ,298, ,
3, ,297, ,
1, ,298, ,
1, ,298, ,
3, ,299, ,
1, ,298, ,
0, ,298, ,
3, ,297, ,
1, ,298, ,
1, ,298, ,
1, ,299, ,
1, ,298, ,
0, ,298, ,
3, ,297, ,
1, ,298, ,
1, ,298, ,
3, ,298, ,
3, ,297, ,
0, ,298, ,
3, ,297, ,
0, ,298, ,
1, ,298, ,
1, ,298, ,
1, ,297, ,
0, ,298, ,
3, ,298, ,
1, ,298, ,
1, ,297, ,
3, ,298, ,
1, ,297, ,
0, ,299, ,
3, ,298, ,
1, ,298, ,
1, ,297, ,
3, ,298, ,
1, ,298, ,
0, ,300, ,
3, ,297, ,
1, ,298, ,
1, ,297, ,
1, ,298, ,
1, ,298, ,
0, ,298, ,
3, ,298, ,
1, ,298, ,
1, ,297, ,
3, ,298, ,
1, ,298, ,
0, ,298, ,
3, ,297, ,
1, ,298, ,
1, ,298, ,
1, ,298, ,
1, ,297, ,
0, ,298, ,
3, ,297, ,
1, ,298, ,
1, ,297, ,
3, ,298, ,
1, ,297, ,
0, ,299, ,
3, ,297, ,
1, ,298, ,
1, ,298, ,
1, ,298, ,
1, ,297, ,
0, ,298, ,
3, ,298, ,
1, ,299, ,
1, ,298, ,
1, ,298, ,
3, ,297, ,
0, ,298, ,
3, ,298, ,
1, ,298, ,
1, ,298, ,
3, ,298, ,
1, ,297, ,
0, ,298, ,
3, ,298, ,
1, ,299, ,
1, ,297, ,
1, ,297, ,
1, ,298, ,
0, ,300, ,
3, ,297, ,
1, ,298, ,
1, ,298, ,
3, ,297, ,
1, ,297, ,
0, ,299, ,
3, ,297, ,
1, ,298, ,
1, ,297, ,
1, ,298, ,
1, ,297, ,
0, ,300, ,
3, ,297, ,
1, ,297, ,
1, ,298, ,
3, ,298, ,
1, ,298, ,
0, ,299, ,
3, ,297, ,
0, ,298, ,
1, ,298, ,
3, ,298, ,
1, ,298, ,
0, ,298, ,
3, ,297, ,
1, ,298, ,
1, ,299, ,
1, ,298, ,
1, ,297, ,
0, ,298, ,
3, ,298, ,
99, ,298, ,
62, ,298, ,
34, ,297, ,
23, ,298, ,
18, ,298, ,
14, ,297, ,
6, ,298, ,
5, ,298, ,
6, ,298, ,
5, ,297, ,
4, ,298, ,
5, ,297, ,
4, ,299, ,
4, ,297, ,
6, ,298, ,
5, ,297, ,
3, ,298, ,
5, ,297, ,
3, ,297, ,
4, ,298, ,
4, ,298, ,
4, ,297, ,
1, ,298, ,
5, ,297, ,
3, ,299, ,
3, ,297, ,
4, ,298, ,
4, ,298, ,
3, ,298, ,
5, ,297, ,
3, ,298, ,
3, ,297, ,
4, ,297, ,
4, ,297, ,
3, ,298, ,
4, ,298, ,
1, ,299, ,
3, ,297, ,
3, ,297, ,
3, ,298, ,
1, ,300, ,
4, ,297, ,
3, ,298, ,
3, ,298, ,
3, ,299, ,
4, ,297, ,
3, ,298, ,
4, ,298, ,
1, ,298, ,
3, ,297, ,
3, ,298, ,
3, ,298, ,
1, ,298, ,
4, ,296, ,
1, ,298, ,
3, ,297, ,
3, ,298, ,
3, ,297, ,
1, ,299, ,
4, ,298, ,
3, ,298, ,
4, ,297, ,
3, ,298, ,
3, ,298, ,
1, ,299, ,
4, ,297, ,
3, ,298, ,
3, ,298, ,
3, ,299, ,
3, ,297, ,
1, ,298, ,
4, ,298, ,
3, ,298, ,
3, ,297, ,
3, ,298, ,
3, ,298, ,
3, ,298, ,
4, ,297, ,
1, ,298, ,
3, ,298, ,
3, ,298, ,
3, ,297, ,
1, ,298, ,
4, ,297, ,
3, ,298, ,
3, ,297, ,
4, ,297, ,
3, ,298, ,
1, ,299, ,
4, ,297, ,
3, ,297, ,
3, ,298, ,
3, ,298, ,
3, ,298, ,
1, ,298, ,
4, ,297, ,
3, ,297, ,
3, ,297, ,
4, ,297, ,
3, ,298, ,
3, ,298, ,
4, ,298, ,
3, ,299, ,
3, ,298, ,
4, ,297, ,
3, ,297, ,
1, ,297, ,
4, ,297, ,
1, ,296, ,
3, ,296, ,
3, ,297, ,
3, ,299, ,
1, ,301, ,
4, ,298, ,
3, ,298, ,
3, ,298, ,
3, ,298, ,
3, ,297, ,
1, ,298, ,
4, ,297, ,
1, ,299, ,
3, ,298, ,
3, ,298, ,
3, ,298, ,
1, ,298, ,
4, ,297, ,
1, ,298, ,
3, ,297, ,
3, ,298, ,
3, ,298, ,
1, ,298, ,
4, ,297, ,
1, ,298, ,
3, ,297, ,
3, ,297, ,
3, ,298, ,
3, ,298, ,
4, ,297, ,
1, ,298, ,
3, ,298, ,
3, ,299, ,
3, ,297, ,
1, ,298, ,
4, ,297, ,
3, ,298, ,
3, ,297, ,
3, ,298, ,
3, ,298, ,
1, ,298, ,
4, ,297, ,
3, ,297, ,
1, ,298, ,
3, ,297, ,
3, ,297, ,
1, ,299, ,
4, ,298, ,
1, ,298, ,
3, ,298, ,
3, ,298, ,
3, ,297, ,
1, ,299, ,
4, ,297, ,
1, ,298, ,
3, ,298, ,
3, ,297, ,
3, ,298, ,
1, ,298, ,
4, ,297, ,
1, ,299, ,
1, ,297, ,
3, ,297, ,
3, ,298, ,
1, ,300, ,
4, ,297, ,
1, ,298, ,
3, ,297, ,
3, ,298, ,
3, ,297, ,
1, ,298, ,
4, ,298, ,
1, ,299, ,
3, ,297, ,
3, ,297, ,
3, ,298, ,
1, ,298, ,
4, ,297, ,
1, ,298, ,
3, ,298, ,
3, ,298, ,
3, ,297, ,
1, ,298, ,
4, ,298, ,
1, ,298, ,
3, ,297, ,
3, ,298, ,
3, ,297, ,
1, ,298, ,
4, ,297, ,
1, ,298, ,
3, ,297, ,
3, ,298, ,
3, ,297, ,
1, ,298, ,
4, ,297, ,
1, ,298, ,
1, ,298, ,
3, ,298, ,
3, ,297, ,
1, ,298, ,
4, ,297, ,
1, ,298, ,
3, ,297, ,
3, ,299, ,
3, ,297, ,
1, ,298, ,
4, ,297, ,
1, ,300, ,
3, ,297, ,
3, ,298, ,
3, ,297, ,
1, ,299, ,
4, ,297, ,
1, ,298, ,
3, ,297, ,
3, ,298, ,
1, ,297, ,
1, ,298, ,
4, ,298, ,
1, ,298, ,
3, ,298, ,
3, ,298, ,
3, ,297, ,
1, ,298, ,
4, ,296, ,
3, ,298, ,
1, ,297, ,
3, ,298, ,
1, ,298, ,
1, ,298, ,
4, ,298, ,
1, ,299, ,
1, ,297, ,
3, ,298, ,
3, ,297, ,
1, ,300, ,
4, ,298, ,
3, ,298, ,
1, ,298, ,
3, ,298, ,
1, ,297, ,
1, ,298, ,
4, ,298, ,
1, ,298, ,
1, ,297, ,
3, ,298, ,
3, ,297, ,
1, ,298, ,
3, ,296, ,
1, ,298, ,
1, ,297, ,
3, ,298, ,
1, ,298, ,
1, ,298, ,
3, ,298, ,
1, ,298, ,
1, ,297, ,
3, ,297, ,
3, ,298, ,
1, ,298, ,
4, ,297, ,
1, ,298, ,
1, ,298, ,
3, ,298, ,
15, ,297, ,
58, ,298, ,
41, ,298, ,
