src/vary_led_1562/temp0004207.CSV

Format,1.0B,
Memory Length,10000,Memory Length,10000,
IntpDistance,0,IntpDistance,0,
Trigger Address,5159,Trigger Address,5159,
Trigger Level,3.000E-01,Trigger Level,3.000E-01,
Source,CH1,Source,CH2,
Vertical Units,V,Vertical Units,V,
Vertical Units Div,0,Vertical Units Div,0,
Vertical Units Extend Div,16,Vertical Units Extend Div,16,
Label,,Label,,
Probe Type,0,Probe Type,0,
Probe Ratio,1.000e+01,Probe Ratio,1.000e+00,
Vertical Scale,5.000e-01,Vertical Scale,2.000e-01,
Vertical Position,-1.780e+00,Vertical Position,-2.240e+00,
Horizontal Units,S,Horizontal Units,S,
Horizontal Scale,2.000E-05,Horizontal Scale,2.000E-05,
Horizontal Position,-3.200E-06,Horizontal Position,-3.200E-06,
Horizontal Mode,Main,Horizontal Mode,Main,
SincET Mode,Real Time,SincET Mode,Real Time,
Sampling Period,2.000e-08,Sampling Period,2.000e-08,
Horizontal Old Scale,2.000E-05,Horizontal Old Scale,2.000E-05,
Horizontal Old Position,-3.200E-06,Horizontal Old Position,-3.200E-06,
Firmware,V1.23,Firmware,V1.23,
Mode,Fast,Mode,Fast,
Waveform Data,,Waveform Data,,
0, ,282, ,
3, ,281, ,
1, ,281, ,
0, ,282, ,
3, ,282, ,
0, ,282, ,
1, ,281, ,
1, ,282, ,
1, ,282, ,
0, ,282, ,
3, ,282, ,
0, ,281, ,
0, ,282, ,
1, ,282, ,
1, ,282, ,
0, ,282, ,
3, ,282, ,
0, ,282, ,
0, ,281, ,
1, ,282, ,
1, ,282, ,
0, ,283, ,
3, ,281, ,
1, ,282, ,
0, ,282, ,
3, ,283, ,
0, ,282, ,
0, ,282, ,
1, ,282, ,
1, ,282, ,
1, ,281, ,
1, ,282, ,
1, ,282, ,
0, ,282, ,
3, ,281, ,
0, ,281, ,
1, ,282, ,
1, ,282, ,
1, ,282, ,
0, ,283, ,
3, ,282, ,
0, ,282, ,
0, ,282, ,
1, ,283, ,
112, ,282, ,
93, ,282, ,
64, ,281, ,
37, ,283, ,
20, ,282, ,
14, ,282, ,
10, ,282, ,
8, ,282, ,
8, ,282, ,
4, ,282, ,
3, ,281, ,
5, ,282, ,
4, ,282, ,
3, ,283, ,
4, ,282, ,
3, ,283, ,
4, ,281, ,
4, ,282, ,
4, ,281, ,
1, ,282, ,
4, ,282, ,
3, ,282, ,
3, ,281, ,
4, ,282, ,
4, ,282, ,
3, ,282, ,
4, ,282, ,
3, ,282, ,
3, ,282, ,
4, ,282, ,
4, ,281, ,
1, ,282, ,
5, ,282, ,
1, ,283, ,
3, ,282, ,
4, ,282, ,
4, ,282, ,
1, ,282, ,
4, ,281, ,
1, ,281, ,
3, ,282, ,
4, ,282, ,
4, ,281, ,
3, ,282, ,
4, ,281, ,
3, ,282, ,
3, ,281, ,
4, ,282, ,
4, ,281, ,
1, ,282, ,
4, ,281, ,
3, ,282, ,
3, ,281, ,
4, ,282, ,
4, ,281, ,
1, ,282, ,
4, ,281, ,
3, ,282, ,
3, ,282, ,
4, ,282, ,
4, ,282, ,
1, ,283, ,
4, ,281, ,
3, ,282, ,
3, ,281, ,
4, ,281, ,
3, ,282, ,
1, ,283, ,
4, ,283, ,
3, ,282, ,
3, ,282, ,
4, ,281, ,
3, ,281, ,
1, ,283, ,
4, ,282, ,
3, ,281, ,
3, ,282, ,
4, ,282, ,
3, ,282, ,
1, ,282, ,
4, ,282, ,
1, ,283, ,
3, ,281, ,
3, ,282, ,
3, ,282, ,
1, ,281, ,
4, ,281, ,
3, ,282, ,
3, ,282, ,
3, ,282, ,
3, ,281, ,
1, ,282, ,
4, ,282, ,
1, ,282, ,
3, ,281, ,
4, ,282, ,
3, ,282, ,
1, ,283, ,
4, ,281, ,
1, ,282, ,
3, ,282, ,
4, ,283, ,
3, ,281, ,
1, ,282, ,
4, ,282, ,
1, ,282, ,
3, ,282, ,
3, ,283, ,
3, ,282, ,
1, ,283, ,
4, ,281, ,
1, ,283, ,
3, ,281, ,
3, ,282, ,
3, ,281, ,
1, ,282, ,
4, ,282, ,
3, ,282, ,
3, ,282, ,
3, ,282, ,
3, ,282, ,
1, ,282, ,
4, ,281, ,
1, ,282, ,
1, ,282, ,
4, ,282, ,
3, ,281, ,
1, ,281, ,
4, ,282, ,
3, ,281, ,
3, ,281, ,
3, ,282, ,
3, ,282, ,
1, ,282, ,
4, ,281, ,
3, ,282, ,
3, ,281, ,
3, ,282, ,
3, ,281, ,
1, ,282, ,
4, ,282, ,
3, ,282, ,
3, ,282, ,
11, ,282, ,
42, ,282, ,
28, ,282, ,
18, ,281, ,
11, ,282, ,
10, ,282, ,
9, ,282, ,
6, ,281, ,
4, ,282, ,
6, ,281, ,
4, ,282, ,
3, ,281, ,
5, ,282, ,
3, ,282, ,
1, ,283, ,
4, ,281, ,
3, ,282, ,
3, ,282, ,
4, ,282, ,
4, ,281, ,
1, ,282, ,
4, ,281, ,
3, ,282, ,
3, ,281, ,
4, ,282, ,
4, ,281, ,
3, ,283, ,
4, ,281, ,
3, ,282, ,
3, ,282, ,
4, ,281, ,
4, ,282, ,
1, ,282, ,
5, ,281, ,
3, ,282, ,
3, ,281, ,
4, ,281, ,
4, ,281, ,
1, ,283, ,
4, ,282, ,
3, ,281, ,
3, ,281, ,
4, ,282, ,
4, ,282, ,
3, ,282, ,
4, ,281, ,
1, ,282, ,
3, ,282, ,
4, ,282, ,
3, ,282, ,
3, ,282, ,
4, ,282, ,
3, ,282, ,
4, ,282, ,
4, ,281, ,
3, ,282, ,
1, ,282, ,
4, ,282, ,
3, ,282, ,
3, ,282, ,
4, ,282, ,
3, ,281, ,
1, ,282, ,
4, ,281, ,
3, ,282, ,
3, ,282, ,
4, ,281, ,
4, ,280, ,
3, ,281, ,
4, ,282, ,
3, ,283, ,
3, ,283, ,
4, ,282, ,
4, ,282, ,
1, ,282, ,
4, ,281, ,
1, ,282, ,
3, ,281, ,
4, ,282, ,
3, ,282, ,
3, ,282, ,
4, ,283, ,
3, ,283, ,
3, ,281, ,
4, ,282, ,
3, ,282, ,
1, ,282, ,
4, ,281, ,
1, ,282, ,
3, ,282, ,
3, ,282, ,
3, ,281, ,
3, ,282, ,
4, ,282, ,
3, ,282, ,
3, ,281, ,
3, ,282, ,
3, ,282, ,
1, ,282, ,
4, ,281, ,
3, ,282, ,
3, ,281, ,
4, ,281, ,
3, ,282, ,
1, ,283, ,
4, ,282, ,
3, ,282, ,
3, ,282, ,
3, ,282, ,
3, ,282, ,
1, ,282, ,
4, ,281, ,
3, ,282, ,
3, ,281, ,
4, ,282, ,
3, ,281, ,
1, ,282, ,
4, ,282, ,
1, ,277, ,
3, ,280, ,
4, ,284, ,
3, ,286, ,
1, ,284, ,
4, ,280, ,
3, ,280, ,
3, ,281, ,
4, ,282, ,
3, ,282, ,
1, ,284, ,
4, ,282, ,
1, ,281, ,
3, ,281, ,
3, ,282, ,
3, ,281, ,
1, ,282, ,
4, ,281, ,
1, ,282, ,
3, ,282, ,
3, ,282, ,
3, ,281, ,
1, ,282, ,
4, ,281, ,
1, ,282, ,
3, ,281, ,
3, ,281, ,
3, ,282, ,
1, ,283, ,
4, ,281, ,
1, ,282, ,
3, ,282, ,
3, ,282, ,
3, ,281, ,
1, ,282, ,
4, ,282, ,
1, ,282, ,
3, ,281, ,
3, ,282, ,
3, ,282, ,
1, ,282, ,
4, ,281, ,
1, ,282, ,
3, ,282, ,
3, ,282, ,
3, ,281, ,
1, ,282, ,
4, ,281, ,
1, ,283, ,
3, ,281, ,
3, ,281, ,
3, ,281, ,
1, ,282, ,
4, ,282, ,
3, ,282, ,
3, ,281, ,
3, ,282, ,
3, ,281, ,
1, ,282, ,
4, ,282, ,
1, ,282, ,
1, ,281, ,
3, ,282, ,
3, ,282, ,
1, ,282, ,
4, ,281, ,
3, ,282, ,
3, ,282, ,
3, ,282, ,
3, ,281, ,
1, ,282, ,
4, ,282, ,
1, ,282, ,
1, ,281, ,
3, ,281, ,
3, ,282, ,
1, ,283, ,
3, ,282, ,
1, ,282, ,
3, ,282, ,
3, ,282, ,
1, ,281, ,
1, ,282, ,
4, ,282, ,
3, ,282, ,
3, ,281, ,
3, ,281, ,
3, ,281, ,
1, ,283, ,
4, ,281, ,
1, ,282, ,
3, ,281, ,
3, ,282, ,
3, ,281, ,
1, ,282, ,
4, ,282, ,
1, ,282, ,
1, ,281, ,
3, ,281, ,
1, ,282, ,
1, ,283, ,
4, ,281, ,
1, ,282, ,
3, ,281, ,
4, ,282, ,
3, ,281, ,
1, ,281, ,
3, ,282, ,
1, ,282, ,
3, ,281, ,
3, ,282, ,
3, ,281, ,
1, ,282, ,
3, ,281, ,
1, ,281, ,
3, ,282, ,
3, ,282, ,
1, ,282, ,
1, ,282, ,
3, ,281, ,
1, ,282, ,
3, ,281, ,
3, ,282, ,
1, ,282, ,
1, ,281, ,
4, ,280, ,
3, ,282, ,
1, ,282, ,
3, ,282, ,
3, ,281, ,
1, ,282, ,
3, ,281, ,
3, ,282, ,
1, ,281, ,
3, ,281, ,
1, ,281, ,
1, ,282, ,
3, ,281, ,
1, ,281, ,
1, ,281, ,
3, ,282, ,
1, ,281, ,
1, ,282, ,
4, ,282, ,
1, ,283, ,
3, ,281, ,
3, ,281, ,
1, ,282, ,
1, ,282, ,
3, ,280, ,
3, ,281, ,
1, ,282, ,
3, ,282, ,
3, ,280, ,
1, ,282, ,
3, ,283, ,
1, ,283, ,
1, ,282, ,
3, ,282, ,
1, ,281, ,
1, ,282, ,
3, ,281, ,
1, ,282, ,
3, ,282, ,
3, ,282, ,
1, ,281, ,
1, ,282, ,
3, ,281, ,
1, ,282, ,
1, ,281, ,
3, ,283, ,
1, ,282, ,
1, ,282, ,
3, ,281, ,
1, ,281, ,
1, ,282, ,
3, ,282, ,
1, ,282, ,
1, ,283, ,
3, ,281, ,
1, ,281, ,
1, ,281, ,
3, ,281, ,
1, ,282, ,
1, ,281, ,
3, ,282, ,
1, ,281, ,
3, ,281, ,
3, ,281, ,
1, ,282, ,
1, ,282, ,
3, ,281, ,
1, ,283, ,
1, ,281, ,
3, ,281, ,
1, ,281, ,
1, ,282, ,
3, ,281, ,
1, ,282, ,
1, ,282, ,
3, ,282, ,
1, ,281, ,
1, ,282, ,
3, ,281, ,
1, ,282, ,
1, ,281, ,
3, ,282, ,
3, ,282, ,
0, ,283, ,
3, ,282, ,
1, ,282, ,
1, ,282, ,
3, ,283, ,
1, ,281, ,
1, ,282, ,
3, ,281, ,
1, ,282, ,
1, ,282, ,
3, ,282, ,
1, ,281, ,
1, ,282, ,
3, ,282, ,
1, ,282, ,
1, ,282, ,
3, ,282, ,
1, ,281, ,
1, ,282, ,
3, ,281, ,
1, ,282, ,
1, ,282, ,
3, ,282, ,
1, ,281, ,
1, ,283, ,
3, ,282, ,
1, ,282, ,
1, ,282, ,
3, ,281, ,
1, ,281, ,
1, ,282, ,
3, ,282, ,
1, ,282, ,
1, ,281, ,
3, ,282, ,
1, ,282, ,
0, ,282, ,
3, ,281, ,
1, ,281, ,
1, ,281, ,
3, ,282, ,
1, ,281, ,
1, ,283, ,
3, ,281, ,
1, ,282, ,
1, ,281, ,
3, ,281, ,
1, ,281, ,
0, ,282, ,
3, ,281, ,
1, ,282, ,
1, ,282, ,
3, ,282, ,
1, ,281, ,
1, ,282, ,
3, ,281, ,
1, ,283, ,
1, ,281, ,
3, ,282, ,
1, ,282, ,
1, ,282, ,
3, ,281, ,
1, ,281, ,
1, ,281, ,
1, ,282, ,
1, ,281, ,
1, ,282, ,
3, ,282, ,
1, ,282, ,
1, ,282, ,
1, ,282, ,
3, ,282, ,
1, ,282, ,
3, ,281, ,
1, ,282, ,
1, ,282, ,
1, ,282, ,
1, ,282, ,
0, ,282, ,
3, ,282, ,
1, ,282, ,
1, ,281, ,
3, ,282, ,
3, ,282, ,
0, ,282, ,
3, ,281, ,
1, ,282, ,
1, ,282, ,
3, ,282, ,
1, ,281, ,
1, ,282, ,
3, ,281, ,
1, ,282, ,
1, ,281, ,
3, ,282, ,
1, ,281, ,
1, ,282, ,
3, ,281, ,
1, ,282, ,
1, ,282, ,
3, ,281, ,
1, ,281, ,
0, ,282, ,
3, ,282, ,
1, ,282, ,
1, ,282, ,
3, ,281, ,
1, ,282, ,
0, ,284, ,
3, ,281, ,
1, ,281, ,
1, ,281, ,
1, ,282, ,
1, ,281, ,
1, ,282, ,
3, ,282, ,
1, ,282, ,
1, ,281, ,
3, ,282, ,
3, ,282, ,
0, ,282, ,
3, ,281, ,
1, ,282, ,
1, ,282, ,
3, ,282, ,
1, ,282, ,
0, ,282, ,
3, ,281, ,
1, ,282, ,
1, ,281, ,
3, ,281, ,
3, ,282, ,
1, ,282, ,
3, ,281, ,
1, ,282, ,
1, ,282, ,
3, ,282, ,
1, ,282, ,
0, ,283, ,
3, ,282, ,
1, ,282, ,
1, ,281, ,
3, ,282, ,
1, ,282, ,
0, ,282, ,
3, ,281, ,
1, ,282, ,
1, ,282, ,
3, ,282, ,
1, ,281, ,
0, ,282, ,
3, ,282, ,
1, ,282, ,
1, ,281, ,
3, ,281, ,
1, ,281, ,
0, ,283, ,
3, ,281, ,
1, ,282, ,
1, ,282, ,
3, ,283, ,
1, ,281, ,
0, ,282, ,
3, ,282, ,
1, ,282, ,
1, ,281, ,
3, ,281, ,
1, ,281, ,
0, ,282, ,
3, ,281, ,
1, ,281, ,
1, ,282, ,
3, ,283, ,
1, ,282, ,
1, ,282, ,
3, ,282, ,
1, ,281, ,
1, ,281, ,
1, ,280, ,
1, ,281, ,
0, ,283, ,
3, ,282, ,
1, ,282, ,
1, ,283, ,
1, ,282, ,
1, ,281, ,
0, ,281, ,
3, ,280, ,
1, ,282, ,
1, ,281, ,
1, ,282, ,
1, ,282, ,
0, ,282, ,
3, ,281, ,
1, ,282, ,
1, ,282, ,
1, ,283, ,
1, ,281, ,
0, ,282, ,
3, ,282, ,
1, ,283, ,
1, ,282, ,
1, ,282, ,
1, ,282, ,
0, ,282, ,
3, ,280, ,
1, ,280, ,
1, ,279, ,
1, ,281, ,
1, ,281, ,
0, ,285, ,
3, ,286, ,
1, ,284, ,
1, ,280, ,
3, ,278, ,
1, ,279, ,
0, ,282, ,
3, ,282, ,
1, ,283, ,
1, ,282, ,
3, ,282, ,
1, ,281, ,
0, ,281, ,
3, ,282, ,
1, ,283, ,
1, ,280, ,
1, ,282, ,
1, ,281, ,
0, ,281, ,
3, ,281, ,
1, ,281, ,
1, ,281, ,
3, ,282, ,
3, ,281, ,
0, ,281, ,
3, ,282, ,
1, ,282, ,
1, ,282, ,
3, ,282, ,
1, ,281, ,
0, ,282, ,
3, ,280, ,
1, ,282, ,
1, ,281, ,
3, ,281, ,
1, ,281, ,
0, ,282, ,
3, ,281, ,
1, ,281, ,
1, ,281, ,
3, ,282, ,
1, ,280, ,
0, ,282, ,
3, ,281, ,
1, ,282, ,
1, ,281, ,
1, ,281, ,
1, ,281, ,
0, ,282, ,
3, ,281, ,
1, ,282, ,
1, ,280, ,
3, ,280, ,
1, ,281, ,
0, ,281, ,
3, ,281, ,
1, ,282, ,
1, ,281, ,
1, ,281, ,
1, ,281, ,
0, ,282, ,
3, ,281, ,
1, ,282, ,
1, ,281, ,
3, ,282, ,
1, ,281, ,
0, ,282, ,
3, ,281, ,
1, ,282, ,
1, ,281, ,
1, ,281, ,
1, ,280, ,
0, ,281, ,
3, ,280, ,
1, ,282, ,
1, ,281, ,
3, ,282, ,
1, ,281, ,
0, ,282, ,
3, ,281, ,
1, ,282, ,
1, ,282, ,
3, ,282, ,
1, ,280, ,
0, ,282, ,
3, ,281, ,
1, ,282, ,
1, ,281, ,
1, ,281, ,
1, ,282, ,
0, ,282, ,
3, ,281, ,
1, ,281, ,
1, ,282, ,
3, ,282, ,
1, ,280, ,
0, ,282, ,
3, ,282, ,
1, ,282, ,
1, ,281, ,
1, ,282, ,
1, ,282, ,
0, ,283, ,
3, ,282, ,
1, ,284, ,
1, ,282, ,
1, ,282, ,
1, ,280, ,
0, ,282, ,
3, ,281, ,
1, ,282, ,
1, ,283, ,
1, ,282, ,
1, ,282, ,
0, ,281, ,
3, ,281, ,
1, ,282, ,
1, ,282, ,
1, ,282, ,
1, ,282, ,
0, ,282, ,
3, ,282, ,
1, ,282, ,
1, ,281, ,
3, ,282, ,
1, ,282, ,
0, ,283, ,
3, ,281, ,
1, ,282, ,
1, ,281, ,
1, ,282, ,
1, ,281, ,
0, ,282, ,
3, ,281, ,
1, ,282, ,
1, ,281, ,
1, ,282, ,
1, ,282, ,
0, ,283, ,
3, ,281, ,
1, ,282, ,
1, ,281, ,
1, ,282, ,
1, ,281, ,
0, ,283, ,
3, ,282, ,
1, ,282, ,
1, ,281, ,
1, ,282, ,
1, ,281, ,
0, ,282, ,
3, ,281, ,
1, ,282, ,
1, ,282, ,
1, ,282, ,
1, ,282, ,
0, ,283, ,
3, ,282, ,
1, ,282, ,
1, ,282, ,
1, ,282, ,
1, ,282, ,
0, ,282, ,
3, ,281, ,
1, ,282, ,
1, ,282, ,
3, ,283, ,
1, ,281, ,
0, ,282, ,
3, ,282, ,
1, ,281, ,
1, ,281, ,
1, ,282, ,
1, ,281, ,
0, ,283, ,
3, ,281, ,
1, ,282, ,
1, ,281, ,
1, ,282, ,
1, ,281, ,
0, ,282, ,
3, ,282, ,
1, ,282, ,
1, ,282, ,
1, ,283, ,
1, ,282, ,
0, ,281, ,
3, ,281, ,
1, ,283, ,
1, ,283, ,
1, ,283, ,
1, ,281, ,
0, ,281, ,
3, ,282, ,
1, ,282, ,
1, ,282, ,
1, ,281, ,
1, ,282, ,
0, ,282, ,
3, ,280, ,
1, ,281, ,
1, ,282, ,
1, ,283, ,
1, ,281, ,
0, ,282, ,
3, ,282, ,
1, ,283, ,
1, ,281, ,
3, ,282, ,
1, ,282, ,
0, ,282, ,
3, ,281, ,
1, ,282, ,
1, ,282, ,
1, ,282, ,
1, ,281, ,
0, ,283, ,
3, ,282, ,
0, ,282, ,
1, ,281, ,
1, ,282, ,
1, ,282, ,
0, ,282, ,
3, ,281, ,
1, ,282, ,
0, ,282, ,
3, ,281, ,
1, ,281, ,
0, ,282, ,
3, ,282, ,
1, ,282, ,
1, ,282, ,
1, ,282, ,
1, ,282, ,
0, ,283, ,
3, ,281, ,
1, ,282, ,
1, ,281, ,
3, ,282, ,
3, ,281, ,
0, ,282, ,
3, ,282, ,
1, ,282, ,
1, ,282, ,
1, ,282, ,
1, ,282, ,
0, ,282, ,
3, ,282, ,
1, ,282, ,
1, ,282, ,
3, ,282, ,
1, ,282, ,
0, ,283, ,
3, ,282, ,
1, ,282, ,
1, ,281, ,
3, ,282, ,
1, ,281, ,
0, ,282, ,
3, ,281, ,
1, ,282, ,
1, ,282, ,
1, ,282, ,
1, ,282, ,
0, ,282, ,
3, ,282, ,
1, ,283, ,
1, ,281, ,
3, ,282, ,
1, ,282, ,
0, ,282, ,
3, ,282, ,
1, ,281, ,
1, ,283, ,
1, ,282, ,
1, ,281, ,
0, ,282, ,
3, ,281, ,
1, ,283, ,
1, ,283, ,
1, ,281, ,
1, ,282, ,
0, ,282, ,
3, ,281, ,
1, ,282, ,
1, ,282, ,
1, ,282, ,
1, ,282, ,
0, ,282, ,
3, ,282, ,
1, ,283, ,
1, ,281, ,
1, ,281, ,
1, ,282, ,
0, ,282, ,
3, ,281, ,
1, ,282, ,
1, ,282, ,
3, ,282, ,
1, ,282, ,
0, ,282, ,
3, ,282, ,
1, ,282, ,
1, ,282, ,
1, ,282, ,
1, ,282, ,
0, ,282, ,
3, ,282, ,
1, ,282, ,
1, ,282, ,
1, ,282, ,
1, ,281, ,
0, ,282, ,
3, ,281, ,
1, ,283, ,
1, ,281, ,
1, ,281, ,
1, ,282, ,
0, ,282, ,
3, ,282, ,
1, ,282, ,
1, ,282, ,
1, ,282, ,
1, ,281, ,
0, ,282, ,
3, ,281, ,
0, ,282, ,
1, ,281, ,
1, ,282, ,
1, ,282, ,
0, ,282, ,
3, ,281, ,
1, ,281, ,
0, ,281, ,
1, ,282, ,
1, ,282, ,
0, ,281, ,
3, ,282, ,
0, ,282, ,
1, ,282, ,
1, ,281, ,
1, ,282, ,
0, ,283, ,
3, ,281, ,
1, ,282, ,
0, ,282, ,
3, ,282, ,
1, ,281, ,
0, ,282, ,
3, ,282, ,
1, ,282, ,
1, ,282, ,
1, ,282, ,
1, ,281, ,
0, ,282, ,
3, ,281, ,
1, ,281, ,
0, ,282, ,
3, ,282, ,
1, ,281, ,
0, ,281, ,
3, ,281, ,
1, ,282, ,
1, ,282, ,
3, ,282, ,
1, ,282, ,
0, ,282, ,
3, ,281, ,
1, ,282, ,
1, ,282, ,
1, ,282, ,
1, ,282, ,
0, ,283, ,
3, ,282, ,
0, ,283, ,
1, ,282, ,
1, ,282, ,
1, ,282, ,
0, ,284, ,
3, ,281, ,
1, ,283, ,
0, ,282, ,
1, ,281, ,
1, ,281, ,
0, ,283, ,
3, ,282, ,
1, ,282, ,
1, ,281, ,
1, ,281, ,
1, ,282, ,
0, ,284, ,
3, ,283, ,
1, ,281, ,
1, ,280, ,
1, ,282, ,
1, ,281, ,
0, ,282, ,
3, ,282, ,
0, ,282, ,
1, ,282, ,
1, ,282, ,
1, ,281, ,
0, ,283, ,
3, ,281, ,
1, ,281, ,
0, ,280, ,
1, ,282, ,
1, ,282, ,
0, ,283, ,
3, ,283, ,
1, ,283, ,
1, ,282, ,
1, ,282, ,
1, ,281, ,
0, ,281, ,
1, ,281, ,
1, ,282, ,
1, ,282, ,
3, ,282, ,
1, ,282, ,
0, ,282, ,
3, ,282, ,
1, ,282, ,
1, ,281, ,
1, ,281, ,
1, ,281, ,
0, ,282, ,
3, ,281, ,
1, ,281, ,
1, ,282, ,
1, ,281, ,
1, ,281, ,
0, ,282, ,
3, ,282, ,
0, ,283, ,
1, ,282, ,
1, ,282, ,
1, ,282, ,
0, ,283, ,
3, ,281, ,
1, ,282, ,
0, ,281, ,
1, ,283, ,
1, ,281, ,
0, ,282, ,
3, ,282, ,
1, ,283, ,
1, ,281, ,
1, ,281, ,
1, ,281, ,
0, ,282, ,
3, ,281, ,
0, ,282, ,
0, ,282, ,
1, ,282, ,
1, ,281, ,
0, ,282, ,
3, ,281, ,
0, ,282, ,
0, ,281, ,
1, ,281, ,
1, ,281, ,
0, ,282, ,
3, ,281, ,
1, ,282, ,
0, ,282, ,
1, ,282, ,
1, ,281, ,
0, ,282, ,
1, ,282, ,
0, ,283, ,
1, ,281, ,
1, ,282, ,
1, ,282, ,
0, ,282, ,
3, ,280, ,
1, ,283, ,
1, ,282, ,
3, ,282, ,
1, ,281, ,
0, ,282, ,
3, ,282, ,
0, ,282, ,
0, ,281, ,
1, ,281, ,
1, ,282, ,
0, ,282, ,
3, ,281, ,
1, ,281, ,
0, ,282, ,
1, ,282, ,
0, ,281, ,
0, ,282, ,
1, ,283, ,
1, ,282, ,
1, ,281, ,
3, ,282, ,
1, ,282, ,
0, ,283, ,
3, ,281, ,
1, ,282, ,
1, ,282, ,
3, ,282, ,
1, ,282, ,
0, ,283, ,
3, ,282, ,
1, ,282, ,
1, ,281, ,
1, ,282, ,
1, ,282, ,
0, ,283, ,
3, ,282, ,
1, ,282, ,
0, ,281, ,
1, ,283, ,
1, ,281, ,
0, ,282, ,
1, ,282, ,
0, ,282, ,
1, ,281, ,
1, ,282, ,
1, ,282, ,
0, ,283, ,
3, ,281, ,
1, ,282, ,
1, ,281, ,
1, ,282, ,
1, ,281, ,
0, ,281, ,
3, ,281, ,
1, ,282, ,
1, ,281, ,
1, ,281, ,
1, ,282, ,
0, ,283, ,
3, ,281, ,
1, ,282, ,
1, ,282, ,
1, ,282, ,
1, ,281, ,
0, ,282, ,
3, ,281, ,
0, ,282, ,
1, ,281, ,
1, ,281, ,
1, ,282, ,
0, ,283, ,
3, ,281, ,
1, ,282, ,
0, ,282, ,
3, ,282, ,
1, ,281, ,
0, ,282, ,
3, ,281, ,
1, ,282, ,
0, ,281, ,
1, ,281, ,
0, ,282, ,
0, ,284, ,
3, ,282, ,
1, ,282, ,
1, ,282, ,
1, ,281, ,
1, ,280, ,
0, ,282, ,
3, ,282, ,
1, ,282, ,
1, ,281, ,
1, ,281, ,
1, ,281, ,
0, ,282, ,
3, ,282, ,
1, ,281, ,
1, ,282, ,
1, ,282, ,
1, ,281, ,
0, ,282, ,
3, ,281, ,
1, ,282, ,
1, ,281, ,
3, ,281, ,
1, ,281, ,
0, ,282, ,
3, ,281, ,
1, ,281, ,
1, ,282, ,
1, ,283, ,
1, ,282, ,
0, ,282, ,
3, ,282, ,
1, ,282, ,
1, ,281, ,
1, ,282, ,
1, ,282, ,
0, ,282, ,
3, ,282, ,
1, ,282, ,
1, ,282, ,
3, ,282, ,
1, ,281, ,
0, ,282, ,
3, ,281, ,
0, ,283, ,
0, ,282, ,
1, ,281, ,
1, ,281, ,
0, ,282, ,
1, ,281, ,
0, ,282, ,
0, ,282, ,
1, ,282, ,
3, ,282, ,
0, ,282, ,
3, ,282, ,
1, ,282, ,
0, ,281, ,
1, ,282, ,
0, ,281, ,
0, ,283, ,
1, ,282, ,
1, ,282, ,
1, ,282, ,
1, ,281, ,
1, ,281, ,
0, ,282, ,
3, ,282, ,
1, ,282, ,
1, ,281, ,
1, ,281, ,
1, ,281, ,
0, ,283, ,
1, ,281, ,
1, ,282, ,
1, ,281, ,
1, ,281, ,
1, ,281, ,
0, ,282, ,
3, ,282, ,
0, ,284, ,
0, ,281, ,
1, ,281, ,
1, ,281, ,
0, ,282, ,
3, ,281, ,
1, ,281, ,
1, ,282, ,
1, ,282, ,
1, ,281, ,
0, ,281, ,
3, ,282, ,
0, ,282, ,
1, ,281, ,
1, ,282, ,
1, ,281, ,
0, ,282, ,
3, ,281, ,
1, ,282, ,
1, ,282, ,
1, ,282, ,
1, ,282, ,
0, ,282, ,
1, ,281, ,
1, ,282, ,
1, ,282, ,
3, ,282, ,
1, ,281, ,
0, ,282, ,
3, ,281, ,
0, ,282, ,
0, ,281, ,
1, ,282, ,
1, ,281, ,
0, ,282, ,
3, ,281, ,
1, ,282, ,
0, ,281, ,
1, ,282, ,
1, ,282, ,
0, ,282, ,
3, ,281, ,
1, ,282, ,
1, ,281, ,
1, ,282, ,
0, ,281, ,
0, ,282, ,
1, ,281, ,
1, ,282, ,
1, ,281, ,
1, ,282, ,
1, ,282, ,
0, ,283, ,
3, ,282, ,
1, ,282, ,
1, ,282, ,
1, ,282, ,
1, ,281, ,
0, ,282, ,
1, ,282, ,
0, ,282, ,
1, ,281, ,
1, ,281, ,
3, ,282, ,
0, ,282, ,
3, ,281, ,
0, ,282, ,
0, ,282, ,
1, ,281, ,
1, ,281, ,
0, ,281, ,
1, ,283, ,
1, ,282, ,
0, ,281, ,
1, ,282, ,
1, ,282, ,
0, ,282, ,
1, ,281, ,
0, ,282, ,
1, ,281, ,
1, ,281, ,
1, ,281, ,
0, ,282, ,
3, ,281, ,
1, ,282, ,
0, ,281, ,
1, ,281, ,
1, ,281, ,
0, ,282, ,
3, ,281, ,
1, ,282, ,
1, ,281, ,
1, ,282, ,
1, ,281, ,
0, ,282, ,
3, ,281, ,
1, ,282, ,
1, ,281, ,
1, ,282, ,
1, ,281, ,
0, ,282, ,
3, ,281, ,
1, ,282, ,
1, ,282, ,
1, ,282, ,
1, ,281, ,
0, ,282, ,
3, ,282, ,
0, ,282, ,
1, ,282, ,
1, ,282, ,
1, ,282, ,
0, ,282, ,
3, ,282, ,
0, ,282, ,
0, ,282, ,
1, ,282, ,
1, ,281, ,
0, ,283, ,
3, ,282, ,
0, ,282, ,
0, ,281, ,
1, ,281, ,
1, ,283, ,
0, ,283, ,
3, ,281, ,
1, ,282, ,
0, ,282, ,
3, ,282, ,
1, ,281, ,
0, ,282, ,
3, ,282, ,
1, ,282, ,
1, ,281, ,
1, ,282, ,
1, ,282, ,
0, ,283, ,
3, ,282, ,
1, ,282, ,
0, ,281, ,
1, ,282, ,
1, ,281, ,
0, ,282, ,
3, ,275, ,
0, ,281, ,
0, ,289, ,
1, ,287, ,
1, ,280, ,
0, ,279, ,
1, ,281, ,
0, ,283, ,
1, ,282, ,
1, ,282, ,
1, ,281, ,
0, ,282, ,
3, ,281, ,
1, ,282, ,
0, ,282, ,
1, ,282, ,
1, ,282, ,
0, ,282, ,
3, ,281, ,
0, ,282, ,
1, ,282, ,
1, ,282, ,
1, ,281, ,
0, ,281, ,
3, ,281, ,
1, ,283, ,
1, ,281, ,
1, ,282, ,
1, ,282, ,
0, ,282, ,
3, ,281, ,
1, ,281, ,
0, ,282, ,
1, ,283, ,
1, ,282, ,
0, ,281, ,
3, ,282, ,
0, ,282, ,
1, ,281, ,
1, ,281, ,
1, ,282, ,
0, ,282, ,
3, ,281, ,
1, ,283, ,
1, ,282, ,
1, ,282, ,
1, ,282, ,
0, ,283, ,
3, ,281, ,
0, ,281, ,
1, ,281, ,
1, ,282, ,
1, ,281, ,
0, ,282, ,
3, ,282, ,
1, ,282, ,
1, ,281, ,
1, ,282, ,
1, ,281, ,
0, ,282, ,
3, ,280, ,
1, ,281, ,
1, ,280, ,
1, ,284, ,
1, ,284, ,
0, ,283, ,
1, ,281, ,
1, ,282, ,
1, ,281, ,
1, ,281, ,
1, ,281, ,
0, ,281, ,
1, ,282, ,
0, ,282, ,
1, ,281, ,
1, ,282, ,
1, ,282, ,
0, ,283, ,
3, ,281, ,
1, ,282, ,
0, ,281, ,
1, ,282, ,
0, ,281, ,
0, ,282, ,
3, ,281, ,
1, ,283, ,
1, ,281, ,
1, ,282, ,
1, ,281, ,
-1, ,282, ,
1, ,282, ,
0, ,282, ,
0, ,282, ,
1, ,283, ,
0, ,281, ,
0, ,282, ,
1, ,281, ,
0, ,282, ,
0, ,281, ,
1, ,282, ,
1, ,281, ,
0, ,283, ,
3, ,281, ,
0, ,282, ,
0, ,282, ,
1, ,282, ,
1, ,281, ,
0, ,282, ,
1, ,282, ,
1, ,282, ,
0, ,281, ,
1, ,282, ,
1, ,282, ,
0, ,282, ,
1, ,281, ,
0, ,282, ,
0, ,282, ,
1, ,282, ,
1, ,281, ,
0, ,282, ,
1, ,281, ,
0, ,282, ,
0, ,281, ,
1, ,282, ,
1, ,282, ,
0, ,282, ,
3, ,281, ,
1, ,281, ,
0, ,282, ,
1, ,281, ,
1, ,282, ,
0, ,282, ,
3, ,282, ,
1, ,282, ,
1, ,281, ,
1, ,282, ,
1, ,282, ,
0, ,282, ,
3, ,281, ,
1, ,282, ,
1, ,282, ,
1, ,282, ,
1, ,281, ,
0, ,282, ,
3, ,282, ,
1, ,283, ,
1, ,281, ,
1, ,282, ,
1, ,282, ,
0, ,282, ,
3, ,281, ,
1, ,282, ,
0, ,282, ,
1, ,282, ,
1, ,282, ,
0, ,282, ,
3, ,282, ,
0, ,282, ,
1, ,281, ,
1, ,282, ,
1, ,282, ,
0, ,282, ,
3, ,281, ,
1, ,282, ,
0, ,281, ,
1, ,282, ,
1, ,282, ,
0, ,282, ,
1, ,282, ,
1, ,282, ,
0, ,282, ,
1, ,281, ,
1, ,282, ,
0, ,281, ,
1, ,281, ,
0, ,282, ,
1, ,281, ,
1, ,282, ,
0, ,281, ,
0, ,282, ,
3, ,282, ,
0, ,282, ,
0, ,281, ,
1, ,282, ,
1, ,282, ,
0, ,283, ,
1, ,281, ,
0, ,282, ,
0, ,282, ,
1, ,282, ,
1, ,281, ,
0, ,280, ,
1, ,280, ,
0, ,280, ,
0, ,281, ,
1, ,284, ,
1, ,285, ,
0, ,286, ,
3, ,282, ,
0, ,279, ,
0, ,278, ,
1, ,280, ,
1, ,282, ,
0, ,283, ,
3, ,282, ,
1, ,282, ,
0, ,281, ,
1, ,282, ,
1, ,281, ,
0, ,282, ,
1, ,281, ,
0, ,281, ,
122, ,281, ,
75, ,281, ,
39, ,281, ,
25, ,282, ,
