src/vary_led_1562/temp0002126.CSV

Format,1.0B,
Memory Length,10000,Memory Length,10000,
IntpDistance,0,IntpDistance,0,
Trigger Address,5159,Trigger Address,5159,
Trigger Level,3.000E-01,Trigger Level,3.000E-01,
Source,CH1,Source,CH2,
Vertical Units,V,Vertical Units,V,
Vertical Units Div,0,Vertical Units Div,0,
Vertical Units Extend Div,16,Vertical Units Extend Div,16,
Label,,Label,,
Probe Type,0,Probe Type,0,
Probe Ratio,1.000e+01,Probe Ratio,1.000e+00,
Vertical Scale,5.000e-01,Vertical Scale,2.000e-01,
Vertical Position,-1.780e+00,Vertical Position,-2.240e+00,
Horizontal Units,S,Horizontal Units,S,
Horizontal Scale,2.000E-05,Horizontal Scale,2.000E-05,
Horizontal Position,-3.200E-06,Horizontal Position,-3.200E-06,
Horizontal Mode,Main,Horizontal Mode,Main,
SincET Mode,Real Time,SincET Mode,Real Time,
Sampling Period,2.000e-08,Sampling Period,2.000e-08,
Horizontal Old Scale,2.000E-05,Horizontal Old Scale,2.000E-05,
Horizontal Old Position,-3.200E-06,Horizontal Old Position,-3.200E-06,
Firmware,V1.23,Firmware,V1.23,
Mode,Fast,Mode,Fast,
Waveform Data,,Waveform Data,,
3, ,241, ,
1, ,243, ,
0, ,243, ,
3, ,243, ,
0, ,243, ,
0, ,243, ,
1, ,243, ,
1, ,243, ,
-1, ,241, ,
3, ,242, ,
1, ,243, ,
1, ,243, ,
3, ,241, ,
1, ,242, ,
-1, ,243, ,
3, ,243, ,
0, ,242, ,
0, ,243, ,
1, ,243, ,
1, ,243, ,
0, ,243, ,
3, ,243, ,
0, ,243, ,
0, ,243, ,
3, ,243, ,
1, ,242, ,
-1, ,243, ,
3, ,243, ,
0, ,243, ,
0, ,243, ,
3, ,242, ,
1, ,243, ,
0, ,242, ,
3, ,243, ,
0, ,242, ,
0, ,243, ,
1, ,243, ,
1, ,242, ,
-1, ,242, ,
3, ,243, ,
0, ,241, ,
0, ,242, ,
1, ,242, ,
1, ,243, ,
0, ,242, ,
3, ,242, ,
0, ,243, ,
0, ,243, ,
3, ,243, ,
1, ,242, ,
-1, ,243, ,
3, ,243, ,
0, ,241, ,
0, ,242, ,
1, ,243, ,
1, ,243, ,
0, ,242, ,
3, ,243, ,
0, ,243, ,
1, ,243, ,
3, ,242, ,
1, ,243, ,
0, ,242, ,
3, ,243, ,
0, ,243, ,
0, ,242, ,
1, ,241, ,
1, ,243, ,
0, ,242, ,
3, ,242, ,
1, ,243, ,
1, ,243, ,
1, ,241, ,
1, ,242, ,
-1, ,243, ,
3, ,243, ,
0, ,243, ,
0, ,243, ,
1, ,243, ,
1, ,243, ,
0, ,242, ,
3, ,242, ,
0, ,243, ,
1, ,243, ,
3, ,241, ,
1, ,241, ,
-1, ,243, ,
3, ,243, ,
1, ,243, ,
0, ,243, ,
1, ,242, ,
1, ,243, ,
-1, ,242, ,
3, ,242, ,
1, ,242, ,
1, ,243, ,
3, ,243, ,
1, ,243, ,
-1, ,243, ,
3, ,243, ,
1, ,243, ,
1, ,243, ,
1, ,241, ,
1, ,243, ,
0, ,242, ,
3, ,243, ,
1, ,243, ,
1, ,243, ,
1, ,243, ,
1, ,243, ,
-1, ,242, ,
3, ,243, ,
0, ,243, ,
0, ,243, ,
3, ,243, ,
1, ,242, ,
0, ,243, ,
3, ,242, ,
0, ,242, ,
0, ,242, ,
3, ,242, ,
1, ,243, ,
0, ,244, ,
3, ,242, ,
0, ,242, ,
0, ,243, ,
1, ,242, ,
1, ,243, ,
0, ,242, ,
3, ,243, ,
1, ,242, ,
1, ,242, ,
3, ,243, ,
1, ,242, ,
-1, ,243, ,
3, ,243, ,
1, ,243, ,
0, ,242, ,
1, ,242, ,
1, ,243, ,
0, ,243, ,
3, ,242, ,
0, ,243, ,
1, ,243, ,
3, ,242, ,
1, ,243, ,
-1, ,243, ,
1, ,242, ,
0, ,242, ,
0, ,243, ,
1, ,243, ,
1, ,243, ,
0, ,243, ,
3, ,243, ,
0, ,243, ,
0, ,243, ,
1, ,242, ,
1, ,243, ,
-1, ,243, ,
3, ,243, ,
0, ,243, ,
0, ,243, ,
1, ,243, ,
1, ,243, ,
-1, ,242, ,
3, ,242, ,
0, ,243, ,
0, ,243, ,
1, ,242, ,
1, ,242, ,
-1, ,243, ,
3, ,243, ,
0, ,242, ,
0, ,243, ,
1, ,243, ,
1, ,243, ,
0, ,241, ,
3, ,242, ,
0, ,243, ,
0, ,243, ,
1, ,241, ,
1, ,243, ,
-1, ,242, ,
3, ,243, ,
0, ,243, ,
0, ,243, ,
1, ,243, ,
1, ,243, ,
0, ,243, ,
3, ,243, ,
0, ,243, ,
0, ,243, ,
1, ,243, ,
1, ,243, ,
-1, ,243, ,
3, ,243, ,
0, ,243, ,
0, ,242, ,
1, ,242, ,
1, ,242, ,
0, ,243, ,
3, ,242, ,
1, ,243, ,
1, ,242, ,
1, ,241, ,
1, ,243, ,
-1, ,242, ,
3, ,243, ,
0, ,242, ,
0, ,243, ,
1, ,242, ,
1, ,243, ,
0, ,243, ,
3, ,243, ,
0, ,243, ,
0, ,243, ,
3, ,242, ,
1, ,243, ,
-1, ,242, ,
3, ,243, ,
0, ,241, ,
0, ,242, ,
1, ,243, ,
1, ,243, ,
0, ,242, ,
3, ,243, ,
1, ,243, ,
1, ,243, ,
3, ,243, ,
1, ,242, ,
-1, ,242, ,
3, ,243, ,
0, ,242, ,
0, ,242, ,
1, ,243, ,
1, ,243, ,
0, ,243, ,
3, ,243, ,
0, ,242, ,
1, ,243, ,
1, ,242, ,
1, ,242, ,
-1, ,242, ,
3, ,243, ,
0, ,241, ,
1, ,243, ,
3, ,243, ,
1, ,243, ,
0, ,243, ,
3, ,243, ,
0, ,243, ,
0, ,243, ,
1, ,242, ,
1, ,243, ,
-1, ,243, ,
3, ,243, ,
1, ,243, ,
0, ,242, ,
1, ,243, ,
1, ,243, ,
-1, ,242, ,
3, ,243, ,
1, ,243, ,
1, ,243, ,
3, ,243, ,
1, ,243, ,
-1, ,243, ,
3, ,243, ,
0, ,243, ,
0, ,242, ,
1, ,243, ,
1, ,243, ,
-1, ,242, ,
3, ,242, ,
0, ,243, ,
0, ,243, ,
1, ,242, ,
1, ,243, ,
-1, ,243, ,
4, ,243, ,
0, ,241, ,
0, ,243, ,
1, ,243, ,
1, ,243, ,
-1, ,243, ,
3, ,242, ,
0, ,242, ,
0, ,243, ,
3, ,242, ,
1, ,242, ,
-1, ,243, ,
3, ,243, ,
0, ,241, ,
0, ,243, ,
3, ,243, ,
1, ,243, ,
0, ,243, ,
3, ,242, ,
1, ,243, ,
0, ,243, ,
1, ,242, ,
1, ,242, ,
-1, ,243, ,
3, ,243, ,
0, ,241, ,
0, ,242, ,
1, ,242, ,
0, ,243, ,
-1, ,243, ,
3, ,243, ,
0, ,242, ,
0, ,243, ,
1, ,242, ,
1, ,243, ,
-1, ,243, ,
3, ,243, ,
0, ,242, ,
0, ,242, ,
1, ,242, ,
1, ,243, ,
0, ,243, ,
3, ,243, ,
0, ,243, ,
1, ,242, ,
3, ,242, ,
1, ,243, ,
-1, ,243, ,
3, ,243, ,
0, ,241, ,
0, ,242, ,
1, ,242, ,
1, ,243, ,
-1, ,243, ,
3, ,243, ,
0, ,242, ,
0, ,243, ,
1, ,242, ,
1, ,243, ,
-1, ,243, ,
3, ,243, ,
0, ,243, ,
0, ,243, ,
1, ,243, ,
1, ,243, ,
-1, ,242, ,
3, ,242, ,
0, ,243, ,
0, ,243, ,
1, ,242, ,
1, ,243, ,
-1, ,242, ,
4, ,243, ,
0, ,242, ,
0, ,242, ,
1, ,243, ,
1, ,243, ,
0, ,243, ,
3, ,242, ,
1, ,242, ,
0, ,243, ,
3, ,242, ,
1, ,242, ,
-1, ,242, ,
3, ,243, ,
0, ,243, ,
0, ,243, ,
1, ,243, ,
1, ,243, ,
-1, ,243, ,
3, ,243, ,
1, ,243, ,
1, ,243, ,
3, ,243, ,
1, ,242, ,
-1, ,243, ,
4, ,243, ,
0, ,242, ,
0, ,243, ,
1, ,242, ,
1, ,243, ,
-1, ,242, ,
3, ,243, ,
0, ,242, ,
0, ,243, ,
1, ,243, ,
1, ,243, ,
-1, ,243, ,
3, ,243, ,
0, ,241, ,
0, ,242, ,
1, ,243, ,
1, ,242, ,
-1, ,242, ,
3, ,243, ,
1, ,242, ,
1, ,243, ,
1, ,242, ,
0, ,242, ,
-1, ,243, ,
3, ,243, ,
0, ,242, ,
0, ,243, ,
1, ,243, ,
1, ,243, ,
-1, ,243, ,
3, ,243, ,
0, ,243, ,
0, ,242, ,
1, ,243, ,
1, ,243, ,
-1, ,242, ,
3, ,242, ,
0, ,243, ,
0, ,243, ,
1, ,243, ,
1, ,243, ,
-1, ,242, ,
3, ,242, ,
0, ,243, ,
0, ,243, ,
1, ,243, ,
1, ,242, ,
-1, ,242, ,
4, ,242, ,
0, ,243, ,
0, ,243, ,
3, ,243, ,
1, ,243, ,
-1, ,243, ,
3, ,242, ,
0, ,243, ,
0, ,243, ,
1, ,243, ,
1, ,242, ,
-1, ,243, ,
3, ,243, ,
0, ,242, ,
0, ,243, ,
1, ,242, ,
1, ,243, ,
-1, ,242, ,
3, ,242, ,
0, ,243, ,
0, ,243, ,
1, ,243, ,
1, ,243, ,
-1, ,243, ,
3, ,243, ,
0, ,243, ,
0, ,243, ,
1, ,243, ,
1, ,243, ,
-1, ,242, ,
3, ,242, ,
0, ,243, ,
0, ,243, ,
3, ,243, ,
1, ,242, ,
-1, ,243, ,
3, ,243, ,
0, ,242, ,
0, ,243, ,
1, ,242, ,
1, ,244, ,
0, ,242, ,
3, ,242, ,
0, ,242, ,
0, ,242, ,
3, ,242, ,
1, ,243, ,
-1, ,243, ,
3, ,243, ,
0, ,242, ,
0, ,243, ,
1, ,243, ,
1, ,242, ,
0, ,242, ,
3, ,243, ,
0, ,242, ,
0, ,243, ,
1, ,242, ,
1, ,242, ,
-1, ,243, ,
3, ,243, ,
0, ,241, ,
0, ,243, ,
1, ,243, ,
1, ,243, ,
0, ,242, ,
3, ,243, ,
0, ,242, ,
0, ,243, ,
1, ,242, ,
1, ,243, ,
-1, ,243, ,
3, ,243, ,
0, ,241, ,
0, ,242, ,
1, ,242, ,
1, ,243, ,
0, ,242, ,
3, ,242, ,
0, ,242, ,
0, ,243, ,
1, ,243, ,
1, ,243, ,
0, ,242, ,
3, ,243, ,
0, ,241, ,
0, ,243, ,
1, ,243, ,
1, ,243, ,
-1, ,243, ,
3, ,243, ,
0, ,243, ,
0, ,242, ,
1, ,243, ,
1, ,242, ,
-1, ,242, ,
3, ,243, ,
0, ,242, ,
0, ,242, ,
1, ,242, ,
1, ,243, ,
0, ,243, ,
3, ,241, ,
0, ,241, ,
0, ,243, ,
1, ,244, ,
1, ,243, ,
-1, ,243, ,
3, ,243, ,
0, ,242, ,
0, ,242, ,
1, ,242, ,
1, ,242, ,
-1, ,243, ,
3, ,242, ,
0, ,243, ,
0, ,244, ,
1, ,243, ,
1, ,243, ,
-1, ,243, ,
3, ,242, ,
0, ,242, ,
0, ,242, ,
1, ,243, ,
1, ,243, ,
0, ,242, ,
3, ,243, ,
0, ,243, ,
0, ,243, ,
1, ,243, ,
1, ,243, ,
-1, ,242, ,
3, ,243, ,
0, ,241, ,
0, ,243, ,
1, ,242, ,
1, ,243, ,
-1, ,242, ,
3, ,243, ,
0, ,243, ,
0, ,242, ,
1, ,242, ,
1, ,243, ,
-1, ,243, ,
3, ,243, ,
0, ,242, ,
0, ,242, ,
1, ,243, ,
1, ,242, ,
-1, ,242, ,
3, ,243, ,
0, ,242, ,
0, ,243, ,
1, ,242, ,
1, ,242, ,
-1, ,242, ,
3, ,243, ,
0, ,242, ,
0, ,242, ,
1, ,243, ,
1, ,243, ,
-1, ,242, ,
3, ,242, ,
0, ,242, ,
0, ,243, ,
3, ,241, ,
1, ,242, ,
-1, ,243, ,
3, ,243, ,
0, ,242, ,
0, ,243, ,
1, ,243, ,
1, ,243, ,
-1, ,243, ,
3, ,243, ,
1, ,242, ,
0, ,243, ,
1, ,242, ,
1, ,242, ,
-1, ,243, ,
3, ,243, ,
0, ,242, ,
0, ,243, ,
1, ,242, ,
1, ,243, ,
0, ,243, ,
3, ,243, ,
0, ,243, ,
0, ,243, ,
1, ,242, ,
1, ,243, ,
-1, ,242, ,
3, ,243, ,
0, ,241, ,
0, ,243, ,
1, ,242, ,
1, ,242, ,
0, ,242, ,
3, ,242, ,
0, ,243, ,
0, ,242, ,
1, ,243, ,
1, ,243, ,
-1, ,243, ,
3, ,242, ,
0, ,241, ,
0, ,243, ,
1, ,242, ,
1, ,242, ,
0, ,242, ,
3, ,243, ,
0, ,243, ,
0, ,243, ,
1, ,243, ,
1, ,243, ,
-1, ,243, ,
3, ,243, ,
0, ,242, ,
0, ,243, ,
1, ,243, ,
1, ,243, ,
-1, ,243, ,
3, ,242, ,
0, ,242, ,
0, ,243, ,
1, ,242, ,
1, ,243, ,
-1, ,243, ,
3, ,243, ,
0, ,241, ,
0, ,242, ,
1, ,243, ,
1, ,243, ,
0, ,242, ,
3, ,242, ,
0, ,242, ,
0, ,243, ,
1, ,243, ,
1, ,242, ,
-1, ,243, ,
3, ,243, ,
0, ,242, ,
0, ,243, ,
1, ,242, ,
1, ,243, ,
0, ,242, ,
3, ,243, ,
0, ,242, ,
0, ,242, ,
1, ,243, ,
1, ,243, ,
-1, ,243, ,
3, ,243, ,
0, ,241, ,
0, ,243, ,
1, ,243, ,
1, ,243, ,
-1, ,243, ,
3, ,243, ,
0, ,242, ,
0, ,243, ,
3, ,243, ,
1, ,242, ,
-1, ,242, ,
3, ,242, ,
0, ,241, ,
0, ,243, ,
1, ,242, ,
1, ,242, ,
-1, ,242, ,
3, ,242, ,
0, ,242, ,
0, ,243, ,
1, ,242, ,
1, ,242, ,
-1, ,242, ,
3, ,243, ,
0, ,242, ,
0, ,243, ,
1, ,243, ,
1, ,242, ,
0, ,243, ,
3, ,242, ,
0, ,242, ,
0, ,242, ,
1, ,243, ,
1, ,242, ,
-1, ,243, ,
3, ,243, ,
0, ,242, ,
0, ,243, ,
1, ,242, ,
1, ,243, ,
-1, ,242, ,
3, ,242, ,
0, ,242, ,
0, ,243, ,
1, ,243, ,
1, ,242, ,
-1, ,242, ,
3, ,243, ,
0, ,242, ,
0, ,242, ,
1, ,243, ,
1, ,243, ,
0, ,243, ,
3, ,242, ,
0, ,243, ,
0, ,242, ,
1, ,242, ,
1, ,243, ,
-1, ,243, ,
3, ,243, ,
0, ,241, ,
0, ,242, ,
1, ,242, ,
1, ,243, ,
0, ,242, ,
3, ,243, ,
0, ,242, ,
0, ,243, ,
1, ,243, ,
1, ,242, ,
-1, ,242, ,
3, ,242, ,
0, ,242, ,
0, ,243, ,
1, ,242, ,
1, ,242, ,
-1, ,241, ,
3, ,242, ,
0, ,243, ,
0, ,243, ,
3, ,243, ,
1, ,242, ,
-1, ,242, ,
3, ,243, ,
0, ,241, ,
0, ,243, ,
1, ,243, ,
1, ,243, ,
0, ,242, ,
3, ,242, ,
0, ,243, ,
0, ,243, ,
1, ,243, ,
1, ,243, ,
-1, ,243, ,
3, ,243, ,
0, ,241, ,
0, ,242, ,
1, ,242, ,
1, ,243, ,
-1, ,242, ,
3, ,243, ,
0, ,242, ,
0, ,242, ,
1, ,242, ,
1, ,242, ,
-1, ,243, ,
3, ,243, ,
0, ,242, ,
0, ,242, ,
1, ,242, ,
1, ,243, ,
-1, ,243, ,
3, ,242, ,
0, ,243, ,
0, ,242, ,
3, ,241, ,
1, ,242, ,
-1, ,243, ,
3, ,243, ,
0, ,242, ,
0, ,243, ,
1, ,243, ,
1, ,243, ,
0, ,242, ,
3, ,242, ,
0, ,242, ,
0, ,243, ,
1, ,241, ,
1, ,243, ,
-1, ,243, ,
3, ,243, ,
0, ,241, ,
0, ,242, ,
1, ,243, ,
1, ,243, ,
-1, ,242, ,
3, ,243, ,
0, ,242, ,
0, ,243, ,
1, ,241, ,
1, ,242, ,
-1, ,242, ,
3, ,243, ,
0, ,241, ,
0, ,243, ,
3, ,242, ,
1, ,242, ,
0, ,243, ,
3, ,242, ,
0, ,242, ,
0, ,243, ,
1, ,241, ,
1, ,242, ,
-1, ,243, ,
3, ,243, ,
0, ,243, ,
0, ,242, ,
1, ,243, ,
1, ,243, ,
0, ,242, ,
3, ,242, ,
0, ,242, ,
0, ,243, ,
1, ,242, ,
1, ,243, ,
-1, ,243, ,
3, ,243, ,
0, ,241, ,
0, ,243, ,
1, ,243, ,
1, ,243, ,
-1, ,243, ,
3, ,242, ,
0, ,242, ,
0, ,243, ,
1, ,242, ,
1, ,243, ,
-1, ,241, ,
3, ,241, ,
0, ,239, ,
0, ,242, ,
1, ,243, ,
1, ,246, ,
0, ,246, ,
3, ,243, ,
0, ,240, ,
0, ,240, ,
1, ,239, ,
1, ,243, ,
-1, ,243, ,
3, ,243, ,
0, ,243, ,
0, ,242, ,
1, ,241, ,
1, ,243, ,
-1, ,242, ,
3, ,242, ,
0, ,242, ,
0, ,242, ,
1, ,242, ,
1, ,242, ,
-1, ,243, ,
3, ,242, ,
0, ,242, ,
0, ,242, ,
1, ,242, ,
1, ,243, ,
-1, ,243, ,
3, ,242, ,
0, ,243, ,
0, ,242, ,
1, ,241, ,
1, ,242, ,
-1, ,242, ,
3, ,243, ,
0, ,242, ,
0, ,243, ,
1, ,242, ,
1, ,242, ,
-1, ,242, ,
3, ,242, ,
0, ,243, ,
0, ,242, ,
1, ,242, ,
1, ,241, ,
-1, ,243, ,
3, ,243, ,
0, ,242, ,
0, ,242, ,
1, ,242, ,
1, ,242, ,
-1, ,241, ,
3, ,242, ,
0, ,242, ,
0, ,243, ,
1, ,242, ,
1, ,243, ,
-1, ,242, ,
3, ,243, ,
0, ,242, ,
0, ,242, ,
1, ,243, ,
1, ,243, ,
0, ,242, ,
3, ,242, ,
0, ,242, ,
0, ,243, ,
1, ,242, ,
1, ,242, ,
-1, ,243, ,
3, ,243, ,
0, ,241, ,
0, ,242, ,
1, ,242, ,
1, ,243, ,
-1, ,241, ,
3, ,242, ,
0, ,243, ,
0, ,242, ,
1, ,242, ,
1, ,233, ,
-1, ,242, ,
3, ,250, ,
0, ,248, ,
0, ,241, ,
1, ,239, ,
1, ,243, ,
-1, ,243, ,
3, ,242, ,
0, ,242, ,
0, ,243, ,
1, ,242, ,
1, ,242, ,
-1, ,242, ,
3, ,243, ,
0, ,241, ,
0, ,242, ,
3, ,243, ,
1, ,243, ,
0, ,241, ,
3, ,242, ,
0, ,242, ,
0, ,243, ,
1, ,242, ,
1, ,242, ,
-1, ,243, ,
3, ,243, ,
0, ,243, ,
0, ,243, ,
1, ,243, ,
1, ,241, ,
0, ,241, ,
3, ,242, ,
0, ,243, ,
0, ,244, ,
1, ,244, ,
1, ,243, ,
-1, ,243, ,
3, ,243, ,
0, ,241, ,
0, ,242, ,
1, ,243, ,
1, ,243, ,
0, ,243, ,
3, ,243, ,
0, ,242, ,
0, ,243, ,
1, ,242, ,
1, ,242, ,
-1, ,243, ,
3, ,243, ,
0, ,243, ,
0, ,243, ,
1, ,243, ,
1, ,242, ,
-1, ,242, ,
3, ,242, ,
0, ,243, ,
0, ,243, ,
1, ,241, ,
1, ,242, ,
0, ,243, ,
4, ,243, ,
0, ,243, ,
0, ,243, ,
1, ,243, ,
1, ,243, ,
0, ,242, ,
3, ,243, ,
0, ,243, ,
0, ,243, ,
1, ,241, ,
1, ,243, ,
-1, ,243, ,
3, ,243, ,
0, ,241, ,
0, ,243, ,
1, ,242, ,
1, ,243, ,
-1, ,243, ,
3, ,243, ,
0, ,244, ,
0, ,244, ,
1, ,243, ,
1, ,243, ,
-1, ,242, ,
3, ,243, ,
0, ,242, ,
0, ,242, ,
1, ,243, ,
1, ,243, ,
-1, ,243, ,
3, ,243, ,
1, ,242, ,
0, ,243, ,
1, ,242, ,
1, ,243, ,
-1, ,243, ,
3, ,244, ,
0, ,243, ,
0, ,243, ,
1, ,243, ,
1, ,243, ,
-1, ,243, ,
3, ,243, ,
0, ,242, ,
0, ,243, ,
1, ,241, ,
1, ,243, ,
-1, ,243, ,
3, ,243, ,
0, ,243, ,
0, ,242, ,
1, ,243, ,
1, ,243, ,
-1, ,243, ,
3, ,243, ,
0, ,243, ,
0, ,243, ,
3, ,243, ,
1, ,242, ,
-1, ,243, ,
3, ,243, ,
0, ,243, ,
0, ,243, ,
1, ,243, ,
1, ,243, ,
-1, ,242, ,
3, ,242, ,
0, ,243, ,
0, ,244, ,
1, ,242, ,
1, ,243, ,
-1, ,243, ,
4, ,244, ,
0, ,243, ,
0, ,243, ,
1, ,242, ,
1, ,243, ,
-1, ,243, ,
3, ,242, ,
0, ,243, ,
0, ,243, ,
1, ,242, ,
1, ,243, ,
-1, ,244, ,
3, ,242, ,
0, ,243, ,
0, ,243, ,
1, ,243, ,
1, ,243, ,
0, ,242, ,
3, ,243, ,
0, ,243, ,
0, ,243, ,
1, ,242, ,
1, ,243, ,
-1, ,243, ,
3, ,243, ,
0, ,242, ,
0, ,243, ,
3, ,243, ,
1, ,243, ,
-1, ,243, ,
3, ,242, ,
0, ,243, ,
0, ,243, ,
1, ,243, ,
1, ,243, ,
-1, ,243, ,
3, ,243, ,
0, ,243, ,
0, ,243, ,
1, ,242, ,
1, ,242, ,
-1, ,242, ,
3, ,243, ,
0, ,243, ,
1, ,243, ,
3, ,241, ,
1, ,243, ,
-1, ,244, ,
3, ,243, ,
1, ,242, ,
0, ,242, ,
1, ,243, ,
1, ,243, ,
-1, ,242, ,
3, ,243, ,
0, ,243, ,
0, ,243, ,
1, ,241, ,
1, ,243, ,
-1, ,244, ,
3, ,243, ,
0, ,243, ,
0, ,243, ,
1, ,243, ,
1, ,243, ,
0, ,243, ,
3, ,243, ,
0, ,243, ,
0, ,243, ,
3, ,241, ,
1, ,243, ,
-1, ,243, ,
3, ,243, ,
0, ,242, ,
0, ,243, ,
1, ,243, ,
1, ,242, ,
-1, ,243, ,
3, ,243, ,
0, ,243, ,
0, ,243, ,
1, ,241, ,
1, ,242, ,
-1, ,243, ,
3, ,243, ,
0, ,243, ,
0, ,243, ,
1, ,243, ,
1, ,243, ,
-1, ,243, ,
3, ,242, ,
0, ,243, ,
0, ,242, ,
1, ,242, ,
1, ,243, ,
-1, ,242, ,
3, ,243, ,
0, ,243, ,
0, ,242, ,
1, ,242, ,
1, ,243, ,
-1, ,242, ,
3, ,242, ,
0, ,242, ,
0, ,243, ,
1, ,241, ,
1, ,243, ,
-1, ,243, ,
3, ,243, ,
0, ,242, ,
0, ,243, ,
1, ,243, ,
1, ,243, ,
-1, ,242, ,
4, ,243, ,
0, ,243, ,
0, ,243, ,
1, ,242, ,
1, ,242, ,
-1, ,243, ,
3, ,242, ,
0, ,241, ,
0, ,243, ,
1, ,242, ,
1, ,243, ,
0, ,243, ,
3, ,243, ,
0, ,243, ,
1, ,242, ,
1, ,242, ,
1, ,242, ,
0, ,243, ,
3, ,243, ,
0, ,243, ,
1, ,242, ,
1, ,243, ,
1, ,243, ,
0, ,243, ,
3, ,242, ,
0, ,242, ,
1, ,243, ,
1, ,243, ,
1, ,243, ,
0, ,242, ,
3, ,243, ,
0, ,243, ,
0, ,243, ,
1, ,243, ,
1, ,243, ,
0, ,242, ,
3, ,242, ,
0, ,242, ,
0, ,243, ,
3, ,243, ,
1, ,242, ,
0, ,243, ,
3, ,243, ,
0, ,242, ,
0, ,242, ,
1, ,243, ,
1, ,243, ,
-1, ,242, ,
3, ,243, ,
0, ,243, ,
0, ,244, ,
1, ,242, ,
1, ,243, ,
-1, ,243, ,
4, ,243, ,
0, ,242, ,
0, ,242, ,
1, ,243, ,
1, ,243, ,
0, ,243, ,
3, ,243, ,
0, ,242, ,
0, ,243, ,
1, ,243, ,
1, ,243, ,
0, ,243, ,
3, ,243, ,
0, ,242, ,
0, ,243, ,
1, ,243, ,
1, ,243, ,
0, ,242, ,
3, ,243, ,
0, ,243, ,
0, ,243, ,
1, ,242, ,
1, ,243, ,
-1, ,243, ,
3, ,243, ,
0, ,241, ,
0, ,243, ,
1, ,242, ,
1, ,243, ,
-1, ,242, ,
3, ,243, ,
0, ,243, ,
0, ,243, ,
1, ,241, ,
1, ,242, ,
0, ,243, ,
3, ,243, ,
0, ,243, ,
0, ,242, ,
1, ,243, ,
1, ,243, ,
0, ,243, ,
3, ,243, ,
0, ,243, ,
0, ,243, ,
1, ,242, ,
1, ,243, ,
-1, ,243, ,
3, ,243, ,
0, ,242, ,
0, ,242, ,
1, ,243, ,
1, ,243, ,
-1, ,242, ,
3, ,242, ,
0, ,242, ,
0, ,243, ,
1, ,242, ,
1, ,243, ,
-1, ,243, ,
3, ,243, ,
0, ,242, ,
0, ,243, ,
1, ,243, ,
1, ,243, ,
0, ,243, ,
3, ,243, ,
0, ,243, ,
0, ,243, ,
3, ,242, ,
1, ,242, ,
0, ,243, ,
3, ,242, ,
0, ,242, ,
0, ,242, ,
1, ,243, ,
1, ,243, ,
0, ,242, ,
3, ,243, ,
0, ,243, ,
0, ,243, ,
3, ,243, ,
1, ,243, ,
-1, ,244, ,
3, ,243, ,
0, ,242, ,
0, ,243, ,
3, ,243, ,
1, ,243, ,
0, ,243, ,
3, ,243, ,
0, ,243, ,
0, ,243, ,
1, ,242, ,
1, ,243, ,
0, ,242, ,
3, ,243, ,
0, ,243, ,
0, ,243, ,
3, ,242, ,
1, ,243, ,
0, ,242, ,
3, ,243, ,
0, ,242, ,
0, ,243, ,
3, ,242, ,
1, ,243, ,
-1, ,242, ,
3, ,242, ,
0, ,242, ,
0, ,243, ,
1, ,243, ,
1, ,243, ,
-1, ,243, ,
3, ,243, ,
0, ,243, ,
0, ,244, ,
3, ,241, ,
1, ,242, ,
0, ,243, ,
3, ,243, ,
0, ,243, ,
0, ,243, ,
1, ,243, ,
1, ,243, ,
0, ,243, ,
3, ,243, ,
0, ,243, ,
0, ,244, ,
1, ,243, ,
1, ,243, ,
-1, ,243, ,
3, ,243, ,
0, ,243, ,
0, ,243, ,
1, ,243, ,
1, ,243, ,
0, ,242, ,
3, ,243, ,
0, ,243, ,
0, ,243, ,
1, ,241, ,
1, ,243, ,
-1, ,243, ,
3, ,243, ,
0, ,243, ,
0, ,243, ,
1, ,243, ,
1, ,243, ,
-1, ,243, ,
3, ,242, ,
0, ,243, ,
0, ,243, ,
1, ,242, ,
1, ,242, ,
-1, ,243, ,
3, ,243, ,
0, ,243, ,
0, ,243, ,
1, ,242, ,
1, ,243, ,
-1, ,243, ,
3, ,242, ,
0, ,243, ,
0, ,243, ,
1, ,243, ,
1, ,243, ,
0, ,243, ,
3, ,243, ,
0, ,242, ,
0, ,241, ,
1, ,241, ,
1, ,243, ,
-1, ,243, ,
1, ,244, ,
0, ,243, ,
0, ,243, ,
3, ,242, ,
1, ,243, ,
-1, ,243, ,
3, ,242, ,
0, ,242, ,
0, ,243, ,
1, ,243, ,
1, ,243, ,
-1, ,243, ,
3, ,243, ,
0, ,242, ,
0, ,243, ,
1, ,241, ,
1, ,242, ,
-1, ,242, ,
3, ,243, ,
0, ,243, ,
0, ,243, ,
1, ,243, ,
1, ,243, ,
-1, ,243, ,
3, ,242, ,
0, ,243, ,
0, ,243, ,
3, ,243, ,
1, ,243, ,
-1, ,243, ,
3, ,243, ,
0, ,243, ,
0, ,243, ,
1, ,243, ,
1, ,242, ,
0, ,243, ,
3, ,242, ,
90, ,243, ,
98, ,243, ,
65, ,242, ,
37, ,243, ,
20, ,243, ,
16, ,243, ,
11, ,242, ,
9, ,242, ,
9, ,242, ,
5, ,243, ,
3, ,242, ,
5, ,243, ,
4, ,243, ,
3, ,243, ,
4, ,242, ,
4, ,242, ,
1, ,243, ,
5, ,243, ,
1, ,242, ,
3, ,242, ,
4, ,243, ,
4, ,242, ,
1, ,243, ,
5, ,243, ,
3, ,243, ,
3, ,243, ,
4, ,242, ,
4, ,242, ,
3, ,243, ,
5, ,243, ,
3, ,243, ,
3, ,243, ,
4, ,243, ,
4, ,242, ,
1, ,243, ,
5, ,242, ,
3, ,243, ,
3, ,243, ,
4, ,243, ,
4, ,243, ,
1, ,243, ,
5, ,242, ,
1, ,241, ,
3, ,242, ,
4, ,242, ,
4, ,243, ,
1, ,243, ,
5, ,242, ,
1, ,243, ,
3, ,243, ,
4, ,242, ,
4, ,243, ,
1, ,243, ,
5, ,243, ,
3, ,243, ,
3, ,243, ,
4, ,243, ,
4, ,243, ,
1, ,243, ,
5, ,243, ,
3, ,243, ,
1, ,243, ,
4, ,243, ,
4, ,242, ,
1, ,243, ,
5, ,243, ,
1, ,242, ,
3, ,242, ,
4, ,243, ,
4, ,243, ,
1, ,243, ,
5, ,242, ,
3, ,243, ,
3, ,242, ,
4, ,243, ,
4, ,243, ,
1, ,243, ,
5, ,243, ,
3, ,242, ,
3, ,243, ,
3, ,242, ,
3, ,243, ,
1, ,242, ,
4, ,243, ,
3, ,242, ,
3, ,243, ,
4, ,241, ,
4, ,242, ,
1, ,243, ,
5, ,243, ,
1, ,242, ,
3, ,242, ,
4, ,242, ,
4, ,242, ,
1, ,243, ,
5, ,243, ,
1, ,243, ,
1, ,243, ,
3, ,243, ,
3, ,242, ,
1, ,243, ,
5, ,243, ,
1, ,242, ,
3, ,243, ,
4, ,243, ,
4, ,243, ,
1, ,242, ,
4, ,242, ,
1, ,242, ,
1, ,243, ,
3, ,243, ,
4, ,243, ,
1, ,243, ,
5, ,242, ,
3, ,241, ,
3, ,243, ,
3, ,242, ,
4, ,243, ,
1, ,243, ,
4, ,243, ,
1, ,242, ,
1, ,243, ,
4, ,242, ,
4, ,243, ,
1, ,242, ,
5, ,243, ,
1, ,243, ,
3, ,243, ,
4, ,242, ,
4, ,243, ,
1, ,243, ,
4, ,243, ,
3, ,243, ,
1, ,243, ,
3, ,242, ,
4, ,243, ,
1, ,243, ,
4, ,243, ,
1, ,242, ,
1, ,242, ,
3, ,243, ,
3, ,243, ,
1, ,242, ,
4, ,242, ,
3, ,242, ,
1, ,243, ,
3, ,243, ,
4, ,243, ,
1, ,243, ,
5, ,242, ,
1, ,243, ,
1, ,243, ,
3, ,243, ,
3, ,243, ,
1, ,243, ,
5, ,243, ,
1, ,243, ,
1, ,243, ,
3, ,242, ,
4, ,243, ,
0, ,243, ,
4, ,243, ,
1, ,243, ,
3, ,243, ,
3, ,242, ,
4, ,243, ,
1, ,243, ,
4, ,243, ,
1, ,243, ,
1, ,244, ,
3, ,242, ,
3, ,242, ,
1, ,242, ,
5, ,243, ,
3, ,241, ,
3, ,242, ,
3, ,243, ,
4, ,243, ,
1, ,243, ,
4, ,242, ,
1, ,242, ,
1, ,242, ,
3, ,242, ,
3, ,243, ,
0, ,243, ,
4, ,243, ,
1, ,242, ,
1, ,243, ,
3, ,243, ,
3, ,243, ,
1, ,243, ,
4, ,243, ,
1, ,243, ,
1, ,243, ,
4, ,243, ,
3, ,243, ,
0, ,243, ,
4, ,243, ,
1, ,243, ,
1, ,242, ,
3, ,242, ,
3, ,243, ,
0, ,243, ,
4, ,242, ,
1, ,243, ,
1, ,243, ,
3, ,242, ,
3, ,243, ,
0, ,243, ,
4, ,243, ,
1, ,242, ,
1, ,243, ,
3, ,242, ,
3, ,243, ,
1, ,243, ,
4, ,242, ,
1, ,243, ,
1, ,243, ,
3, ,242, ,
3, ,242, ,
0, ,243, ,
5, ,243, ,
1, ,241, ,
1, ,242, ,
3, ,243, ,
3, ,242, ,
0, ,242, ,
4, ,243, ,
1, ,242, ,
1, ,243, ,
3, ,242, ,
3, ,243, ,
1, ,243, ,
4, ,243, ,
1, ,242, ,
1, ,243, ,
3, ,243, ,
3, ,243, ,
0, ,243, ,
4, ,242, ,
1, ,242, ,
1, ,243, ,
4, ,243, ,
3, ,243, ,
0, ,243, ,
4, ,243, ,
1, ,242, ,
1, ,243, ,
3, ,242, ,
3, ,243, ,
0, ,242, ,
3, ,243, ,
1, ,243, ,
1, ,242, ,
3, ,243, ,
3, ,243, ,
