src/vary_led_1562/temp0005289.CSV

Format,1.0B,
Memory Length,10000,Memory Length,10000,
IntpDistance,0,IntpDistance,0,
Trigger Address,5159,Trigger Address,5159,
Trigger Level,3.000E-01,Trigger Level,3.000E-01,
Source,CH1,Source,CH2,
Vertical Units,V,Vertical Units,V,
Vertical Units Div,0,Vertical Units Div,0,
Vertical Units Extend Div,16,Vertical Units Extend Div,16,
Label,,Label,,
Probe Type,0,Probe Type,0,
Probe Ratio,1.000e+01,Probe Ratio,1.000e+00,
Vertical Scale,5.000e-01,Vertical Scale,2.000e-01,
Vertical Position,-1.780e+00,Vertical Position,-2.240e+00,
Horizontal Units,S,Horizontal Units,S,
Horizontal Scale,2.000E-05,Horizontal Scale,2.000E-05,
Horizontal Position,-3.200E-06,Horizontal Position,-3.200E-06,
Horizontal Mode,Main,Horizontal Mode,Main,
SincET Mode,Real Time,SincET Mode,Real Time,
Sampling Period,2.000e-08,Sampling Period,2.000e-08,
Horizontal Old Scale,2.000E-05,Horizontal Old Scale,2.000E-05,
Horizontal Old Position,-3.200E-06,Horizontal Old Position,-3.200E-06,
Firmware,V1.23,Firmware,V1.23,
Mode,Fast,Mode,Fast,
Waveform Data,,Waveform Data,,
0, ,295, ,
3, ,296, ,
1, ,295, ,
-1, ,296, ,
3, ,295, ,
1, ,296, ,
0, ,296, ,
1, ,296, ,
1, ,296, ,
-1, ,296, ,
3, ,296, ,
0, ,297, ,
0, ,295, ,
3, ,296, ,
1, ,296, ,
-1, ,296, ,
3, ,296, ,
0, ,296, ,
0, ,296, ,
1, ,296, ,
0, ,296, ,
-1, ,295, ,
3, ,296, ,
0, ,296, ,
0, ,296, ,
1, ,296, ,
1, ,295, ,
0, ,296, ,
3, ,295, ,
0, ,296, ,
0, ,296, ,
1, ,296, ,
1, ,295, ,
-1, ,296, ,
3, ,296, ,
0, ,296, ,
0, ,296, ,
1, ,296, ,
1, ,296, ,
0, ,296, ,
3, ,295, ,
0, ,296, ,
0, ,296, ,
1, ,296, ,
0, ,296, ,
-1, ,295, ,
3, ,295, ,
0, ,296, ,
0, ,296, ,
1, ,296, ,
1, ,295, ,
-1, ,296, ,
3, ,296, ,
0, ,297, ,
0, ,296, ,
1, ,296, ,
1, ,296, ,
-1, ,296, ,
3, ,296, ,
0, ,296, ,
0, ,296, ,
1, ,295, ,
1, ,296, ,
-1, ,296, ,
3, ,294, ,
0, ,296, ,
0, ,296, ,
3, ,296, ,
1, ,296, ,
-1, ,296, ,
3, ,295, ,
0, ,296, ,
0, ,295, ,
1, ,295, ,
1, ,295, ,
-1, ,296, ,
3, ,296, ,
0, ,296, ,
0, ,296, ,
1, ,296, ,
1, ,296, ,
-1, ,296, ,
3, ,296, ,
0, ,296, ,
0, ,295, ,
1, ,296, ,
1, ,296, ,
-1, ,296, ,
3, ,296, ,
1, ,296, ,
0, ,296, ,
1, ,296, ,
1, ,296, ,
-1, ,297, ,
3, ,296, ,
0, ,296, ,
0, ,296, ,
1, ,295, ,
1, ,296, ,
-1, ,296, ,
3, ,296, ,
1, ,296, ,
0, ,295, ,
1, ,296, ,
0, ,296, ,
-1, ,297, ,
3, ,295, ,
0, ,296, ,
0, ,296, ,
1, ,296, ,
1, ,295, ,
-1, ,298, ,
3, ,295, ,
0, ,297, ,
0, ,296, ,
1, ,296, ,
1, ,295, ,
-1, ,296, ,
3, ,296, ,
0, ,296, ,
0, ,295, ,
1, ,295, ,
1, ,296, ,
-1, ,296, ,
3, ,296, ,
0, ,296, ,
0, ,296, ,
3, ,296, ,
1, ,296, ,
-1, ,296, ,
3, ,295, ,
0, ,296, ,
0, ,296, ,
1, ,296, ,
1, ,296, ,
-1, ,296, ,
3, ,295, ,
0, ,295, ,
0, ,295, ,
1, ,296, ,
1, ,296, ,
-1, ,296, ,
3, ,296, ,
0, ,296, ,
0, ,295, ,
1, ,296, ,
0, ,295, ,
-1, ,297, ,
3, ,295, ,
0, ,296, ,
0, ,296, ,
3, ,297, ,
1, ,296, ,
-1, ,296, ,
3, ,296, ,
0, ,296, ,
0, ,295, ,
1, ,296, ,
1, ,296, ,
-1, ,296, ,
3, ,296, ,
1, ,296, ,
0, ,296, ,
1, ,296, ,
1, ,296, ,
-1, ,296, ,
3, ,295, ,
0, ,296, ,
0, ,296, ,
3, ,295, ,
1, ,295, ,
-1, ,296, ,
3, ,295, ,
0, ,297, ,
0, ,295, ,
1, ,296, ,
0, ,295, ,
-1, ,296, ,
3, ,295, ,
0, ,297, ,
0, ,295, ,
1, ,296, ,
1, ,295, ,
-1, ,297, ,
1, ,294, ,
0, ,297, ,
0, ,297, ,
1, ,296, ,
1, ,296, ,
-1, ,296, ,
3, ,296, ,
0, ,296, ,
0, ,296, ,
1, ,296, ,
1, ,295, ,
-1, ,297, ,
3, ,296, ,
0, ,296, ,
0, ,296, ,
1, ,296, ,
1, ,295, ,
-1, ,296, ,
3, ,296, ,
0, ,296, ,
0, ,296, ,
1, ,296, ,
0, ,295, ,
-1, ,296, ,
3, ,296, ,
0, ,295, ,
0, ,296, ,
1, ,296, ,
1, ,295, ,
-1, ,296, ,
3, ,296, ,
0, ,296, ,
0, ,295, ,
1, ,296, ,
0, ,296, ,
0, ,296, ,
3, ,296, ,
0, ,296, ,
0, ,296, ,
1, ,296, ,
1, ,296, ,
-1, ,297, ,
3, ,296, ,
0, ,296, ,
0, ,296, ,
1, ,296, ,
1, ,295, ,
-1, ,296, ,
3, ,296, ,
0, ,295, ,
0, ,295, ,
3, ,296, ,
1, ,295, ,
-1, ,296, ,
3, ,296, ,
0, ,297, ,
0, ,296, ,
1, ,296, ,
0, ,296, ,
0, ,296, ,
3, ,295, ,
0, ,296, ,
0, ,296, ,
3, ,296, ,
1, ,295, ,
0, ,296, ,
3, ,296, ,
0, ,296, ,
0, ,296, ,
1, ,296, ,
0, ,296, ,
-1, ,296, ,
1, ,296, ,
0, ,296, ,
0, ,295, ,
1, ,296, ,
0, ,296, ,
-1, ,296, ,
3, ,295, ,
0, ,296, ,
0, ,296, ,
1, ,296, ,
1, ,296, ,
0, ,296, ,
3, ,296, ,
0, ,296, ,
0, ,296, ,
1, ,296, ,
0, ,296, ,
-1, ,296, ,
3, ,296, ,
1, ,296, ,
0, ,296, ,
1, ,296, ,
0, ,296, ,
-1, ,296, ,
1, ,295, ,
0, ,296, ,
0, ,295, ,
1, ,296, ,
1, ,296, ,
-1, ,296, ,
3, ,295, ,
0, ,296, ,
0, ,295, ,
1, ,296, ,
0, ,296, ,
0, ,296, ,
3, ,296, ,
0, ,295, ,
0, ,295, ,
1, ,295, ,
1, ,296, ,
-1, ,295, ,
1, ,296, ,
0, ,296, ,
0, ,296, ,
1, ,296, ,
1, ,295, ,
-1, ,296, ,
1, ,296, ,
0, ,296, ,
0, ,295, ,
1, ,296, ,
0, ,296, ,
-1, ,295, ,
3, ,294, ,
0, ,295, ,
0, ,295, ,
1, ,296, ,
1, ,297, ,
-1, ,297, ,
3, ,296, ,
0, ,296, ,
0, ,295, ,
1, ,295, ,
1, ,295, ,
-1, ,296, ,
3, ,295, ,
0, ,296, ,
0, ,296, ,
1, ,296, ,
0, ,296, ,
0, ,296, ,
3, ,296, ,
0, ,296, ,
0, ,296, ,
1, ,296, ,
1, ,296, ,
-1, ,297, ,
3, ,295, ,
0, ,296, ,
0, ,295, ,
1, ,295, ,
1, ,295, ,
-1, ,297, ,
3, ,296, ,
0, ,296, ,
0, ,296, ,
1, ,296, ,
1, ,296, ,
-1, ,296, ,
3, ,295, ,
0, ,296, ,
0, ,296, ,
1, ,296, ,
1, ,296, ,
0, ,296, ,
3, ,294, ,
0, ,296, ,
0, ,296, ,
1, ,296, ,
1, ,295, ,
-1, ,297, ,
1, ,295, ,
0, ,296, ,
0, ,295, ,
1, ,295, ,
1, ,295, ,
-1, ,296, ,
3, ,296, ,
0, ,296, ,
0, ,295, ,
1, ,296, ,
1, ,295, ,
-1, ,296, ,
3, ,296, ,
0, ,296, ,
0, ,296, ,
1, ,296, ,
1, ,296, ,
0, ,297, ,
3, ,295, ,
0, ,296, ,
0, ,296, ,
1, ,296, ,
1, ,296, ,
0, ,296, ,
1, ,296, ,
0, ,296, ,
0, ,295, ,
1, ,295, ,
1, ,295, ,
0, ,298, ,
1, ,294, ,
0, ,296, ,
0, ,295, ,
1, ,296, ,
1, ,295, ,
-1, ,296, ,
3, ,296, ,
0, ,297, ,
0, ,295, ,
1, ,296, ,
1, ,296, ,
0, ,296, ,
3, ,295, ,
0, ,296, ,
0, ,296, ,
1, ,296, ,
0, ,296, ,
-1, ,296, ,
3, ,296, ,
0, ,296, ,
0, ,296, ,
1, ,296, ,
1, ,297, ,
0, ,297, ,
3, ,295, ,
0, ,296, ,
0, ,296, ,
1, ,296, ,
1, ,296, ,
-1, ,297, ,
1, ,296, ,
0, ,296, ,
0, ,296, ,
1, ,296, ,
1, ,296, ,
-1, ,296, ,
1, ,295, ,
0, ,295, ,
0, ,296, ,
1, ,297, ,
1, ,296, ,
-1, ,296, ,
3, ,296, ,
0, ,296, ,
0, ,296, ,
1, ,296, ,
1, ,296, ,
-1, ,296, ,
3, ,296, ,
1, ,297, ,
0, ,296, ,
1, ,296, ,
0, ,296, ,
-1, ,296, ,
3, ,295, ,
0, ,298, ,
0, ,296, ,
1, ,296, ,
1, ,296, ,
-1, ,297, ,
3, ,296, ,
1, ,296, ,
0, ,295, ,
3, ,296, ,
1, ,295, ,
-1, ,296, ,
3, ,296, ,
0, ,296, ,
0, ,296, ,
1, ,296, ,
1, ,296, ,
-1, ,297, ,
3, ,296, ,
0, ,296, ,
0, ,296, ,
1, ,296, ,
1, ,296, ,
-1, ,296, ,
3, ,296, ,
0, ,297, ,
0, ,296, ,
1, ,296, ,
1, ,295, ,
0, ,296, ,
3, ,296, ,
0, ,296, ,
0, ,296, ,
1, ,296, ,
1, ,296, ,
-1, ,296, ,
3, ,296, ,
0, ,297, ,
0, ,296, ,
1, ,295, ,
1, ,296, ,
-1, ,296, ,
3, ,295, ,
0, ,296, ,
0, ,295, ,
1, ,296, ,
1, ,296, ,
-1, ,296, ,
3, ,296, ,
0, ,296, ,
0, ,295, ,
1, ,295, ,
1, ,294, ,
-1, ,295, ,
3, ,295, ,
0, ,297, ,
0, ,300, ,
1, ,300, ,
1, ,296, ,
-1, ,294, ,
3, ,292, ,
0, ,294, ,
0, ,296, ,
1, ,297, ,
1, ,296, ,
0, ,296, ,
3, ,296, ,
0, ,296, ,
0, ,296, ,
1, ,297, ,
1, ,296, ,
-1, ,297, ,
1, ,295, ,
0, ,296, ,
0, ,294, ,
1, ,296, ,
1, ,296, ,
-1, ,296, ,
3, ,295, ,
0, ,295, ,
0, ,295, ,
1, ,296, ,
1, ,296, ,
-1, ,296, ,
3, ,295, ,
0, ,296, ,
0, ,295, ,
1, ,296, ,
1, ,296, ,
0, ,296, ,
3, ,295, ,
0, ,296, ,
0, ,296, ,
3, ,296, ,
1, ,294, ,
-1, ,296, ,
3, ,295, ,
0, ,297, ,
0, ,296, ,
1, ,296, ,
0, ,296, ,
0, ,296, ,
3, ,296, ,
0, ,296, ,
0, ,296, ,
1, ,296, ,
1, ,295, ,
-1, ,296, ,
3, ,296, ,
0, ,295, ,
0, ,296, ,
1, ,296, ,
1, ,295, ,
-1, ,296, ,
3, ,295, ,
0, ,296, ,
0, ,295, ,
1, ,296, ,
0, ,296, ,
-1, ,296, ,
3, ,296, ,
0, ,296, ,
0, ,296, ,
1, ,296, ,
1, ,295, ,
-1, ,296, ,
3, ,295, ,
0, ,297, ,
0, ,296, ,
1, ,296, ,
0, ,296, ,
-1, ,296, ,
3, ,295, ,
0, ,296, ,
0, ,295, ,
1, ,296, ,
0, ,295, ,
-1, ,296, ,
3, ,296, ,
0, ,296, ,
0, ,295, ,
1, ,295, ,
1, ,296, ,
-1, ,296, ,
3, ,296, ,
0, ,296, ,
0, ,295, ,
1, ,296, ,
1, ,296, ,
0, ,296, ,
1, ,295, ,
0, ,296, ,
0, ,296, ,
1, ,296, ,
1, ,296, ,
-1, ,296, ,
3, ,296, ,
0, ,296, ,
0, ,296, ,
1, ,296, ,
1, ,296, ,
0, ,298, ,
3, ,297, ,
0, ,296, ,
0, ,296, ,
1, ,296, ,
0, ,296, ,
-1, ,297, ,
1, ,296, ,
0, ,298, ,
0, ,296, ,
3, ,297, ,
1, ,295, ,
0, ,297, ,
3, ,295, ,
0, ,297, ,
0, ,296, ,
1, ,296, ,
1, ,296, ,
-1, ,298, ,
3, ,296, ,
0, ,296, ,
0, ,296, ,
1, ,296, ,
1, ,296, ,
0, ,297, ,
3, ,296, ,
0, ,297, ,
0, ,296, ,
1, ,296, ,
1, ,296, ,
-1, ,297, ,
3, ,296, ,
0, ,296, ,
0, ,296, ,
3, ,296, ,
1, ,296, ,
0, ,297, ,
3, ,296, ,
0, ,296, ,
0, ,296, ,
1, ,296, ,
1, ,296, ,
-1, ,296, ,
1, ,296, ,
0, ,297, ,
0, ,296, ,
1, ,296, ,
1, ,296, ,
-1, ,296, ,
1, ,296, ,
0, ,296, ,
0, ,296, ,
1, ,296, ,
1, ,296, ,
-1, ,297, ,
3, ,296, ,
0, ,296, ,
0, ,296, ,
1, ,296, ,
0, ,296, ,
-1, ,296, ,
3, ,296, ,
0, ,296, ,
0, ,296, ,
1, ,296, ,
1, ,296, ,
-1, ,298, ,
3, ,296, ,
0, ,296, ,
0, ,296, ,
1, ,296, ,
1, ,296, ,
-1, ,298, ,
3, ,296, ,
0, ,297, ,
0, ,296, ,
1, ,296, ,
1, ,296, ,
-1, ,296, ,
3, ,296, ,
0, ,296, ,
0, ,296, ,
1, ,296, ,
1, ,296, ,
0, ,297, ,
3, ,296, ,
0, ,297, ,
0, ,296, ,
1, ,296, ,
0, ,296, ,
-1, ,298, ,
3, ,296, ,
0, ,296, ,
0, ,296, ,
3, ,296, ,
1, ,296, ,
-1, ,297, ,
1, ,297, ,
0, ,296, ,
0, ,296, ,
3, ,296, ,
1, ,296, ,
-1, ,296, ,
3, ,296, ,
0, ,296, ,
0, ,296, ,
1, ,296, ,
1, ,296, ,
0, ,296, ,
3, ,296, ,
0, ,297, ,
0, ,296, ,
1, ,296, ,
0, ,296, ,
-1, ,296, ,
1, ,296, ,
0, ,296, ,
0, ,296, ,
1, ,296, ,
1, ,298, ,
-1, ,296, ,
3, ,296, ,
0, ,296, ,
0, ,295, ,
3, ,296, ,
1, ,296, ,
-1, ,296, ,
3, ,296, ,
1, ,296, ,
0, ,296, ,
1, ,296, ,
1, ,296, ,
0, ,296, ,
3, ,296, ,
0, ,297, ,
0, ,296, ,
1, ,296, ,
0, ,296, ,
-1, ,296, ,
1, ,296, ,
0, ,296, ,
0, ,296, ,
1, ,296, ,
1, ,296, ,
-1, ,296, ,
1, ,296, ,
0, ,296, ,
0, ,296, ,
1, ,295, ,
1, ,296, ,
-1, ,296, ,
3, ,297, ,
0, ,298, ,
0, ,296, ,
1, ,296, ,
1, ,296, ,
-1, ,296, ,
3, ,295, ,
1, ,296, ,
0, ,295, ,
1, ,297, ,
1, ,296, ,
-1, ,296, ,
3, ,296, ,
0, ,296, ,
0, ,296, ,
1, ,296, ,
1, ,296, ,
-1, ,296, ,
3, ,295, ,
0, ,296, ,
0, ,296, ,
1, ,297, ,
1, ,296, ,
-1, ,297, ,
3, ,295, ,
0, ,296, ,
0, ,296, ,
1, ,298, ,
0, ,295, ,
-1, ,296, ,
1, ,296, ,
0, ,296, ,
1, ,296, ,
3, ,296, ,
1, ,296, ,
0, ,297, ,
3, ,296, ,
0, ,296, ,
0, ,295, ,
3, ,296, ,
1, ,296, ,
-1, ,296, ,
3, ,296, ,
0, ,297, ,
0, ,296, ,
1, ,296, ,
0, ,296, ,
-1, ,297, ,
3, ,295, ,
0, ,296, ,
0, ,296, ,
1, ,296, ,
1, ,295, ,
0, ,296, ,
3, ,295, ,
0, ,296, ,
0, ,296, ,
1, ,296, ,
1, ,295, ,
-1, ,297, ,
3, ,296, ,
0, ,296, ,
0, ,296, ,
1, ,296, ,
1, ,296, ,
-1, ,297, ,
3, ,296, ,
0, ,295, ,
0, ,295, ,
1, ,296, ,
1, ,296, ,
-1, ,296, ,
3, ,296, ,
0, ,297, ,
0, ,296, ,
1, ,296, ,
0, ,296, ,
0, ,296, ,
3, ,296, ,
0, ,296, ,
0, ,296, ,
1, ,296, ,
1, ,296, ,
-1, ,297, ,
3, ,296, ,
0, ,296, ,
0, ,296, ,
3, ,296, ,
1, ,296, ,
0, ,296, ,
3, ,295, ,
0, ,296, ,
0, ,296, ,
1, ,296, ,
1, ,296, ,
-1, ,297, ,
3, ,296, ,
0, ,296, ,
0, ,296, ,
1, ,296, ,
1, ,296, ,
0, ,298, ,
3, ,296, ,
0, ,296, ,
0, ,296, ,
3, ,296, ,
1, ,296, ,
-1, ,298, ,
3, ,295, ,
0, ,297, ,
0, ,296, ,
1, ,296, ,
1, ,296, ,
0, ,297, ,
3, ,296, ,
0, ,296, ,
0, ,296, ,
1, ,296, ,
1, ,296, ,
-1, ,296, ,
3, ,296, ,
0, ,297, ,
0, ,295, ,
1, ,296, ,
0, ,296, ,
0, ,297, ,
3, ,296, ,
0, ,296, ,
0, ,296, ,
1, ,296, ,
0, ,296, ,
-1, ,296, ,
3, ,296, ,
0, ,296, ,
0, ,296, ,
1, ,296, ,
1, ,296, ,
0, ,297, ,
3, ,296, ,
0, ,296, ,
0, ,296, ,
1, ,297, ,
1, ,296, ,
-1, ,297, ,
1, ,296, ,
0, ,297, ,
0, ,296, ,
1, ,296, ,
1, ,296, ,
-1, ,298, ,
3, ,296, ,
0, ,296, ,
0, ,296, ,
1, ,296, ,
1, ,296, ,
-1, ,297, ,
3, ,296, ,
1, ,297, ,
0, ,296, ,
3, ,296, ,
1, ,296, ,
-1, ,296, ,
3, ,295, ,
0, ,297, ,
0, ,296, ,
1, ,297, ,
1, ,296, ,
-1, ,297, ,
3, ,296, ,
0, ,296, ,
0, ,295, ,
1, ,296, ,
0, ,296, ,
-1, ,296, ,
3, ,296, ,
0, ,296, ,
0, ,296, ,
1, ,296, ,
0, ,296, ,
-1, ,296, ,
3, ,296, ,
0, ,297, ,
0, ,296, ,
1, ,296, ,
0, ,296, ,
-1, ,297, ,
3, ,295, ,
0, ,297, ,
0, ,296, ,
1, ,296, ,
1, ,296, ,
-1, ,296, ,
3, ,296, ,
0, ,296, ,
0, ,296, ,
1, ,295, ,
1, ,296, ,
-1, ,297, ,
3, ,296, ,
0, ,297, ,
0, ,295, ,
1, ,297, ,
1, ,296, ,
-1, ,296, ,
3, ,296, ,
0, ,297, ,
0, ,297, ,
1, ,296, ,
1, ,295, ,
-1, ,297, ,
3, ,295, ,
0, ,296, ,
0, ,296, ,
1, ,296, ,
1, ,296, ,
-1, ,298, ,
3, ,297, ,
0, ,296, ,
0, ,295, ,
3, ,296, ,
1, ,296, ,
-1, ,298, ,
3, ,295, ,
0, ,296, ,
0, ,296, ,
1, ,296, ,
0, ,296, ,
-1, ,296, ,
3, ,296, ,
0, ,296, ,
0, ,296, ,
1, ,296, ,
1, ,296, ,
-1, ,297, ,
3, ,295, ,
0, ,297, ,
0, ,296, ,
3, ,296, ,
1, ,296, ,
-1, ,296, ,
3, ,296, ,
0, ,298, ,
0, ,296, ,
3, ,296, ,
0, ,296, ,
-1, ,296, ,
3, ,296, ,
0, ,296, ,
0, ,296, ,
1, ,296, ,
1, ,296, ,
-1, ,297, ,
3, ,296, ,
0, ,296, ,
0, ,296, ,
1, ,296, ,
1, ,296, ,
0, ,297, ,
3, ,296, ,
0, ,297, ,
0, ,296, ,
1, ,296, ,
1, ,296, ,
-1, ,296, ,
3, ,296, ,
0, ,297, ,
0, ,296, ,
1, ,296, ,
1, ,296, ,
-1, ,296, ,
3, ,295, ,
0, ,296, ,
0, ,296, ,
1, ,297, ,
0, ,295, ,
-1, ,296, ,
3, ,296, ,
0, ,296, ,
0, ,296, ,
1, ,296, ,
1, ,296, ,
0, ,296, ,
3, ,295, ,
0, ,296, ,
0, ,296, ,
1, ,296, ,
0, ,295, ,
-1, ,297, ,
3, ,296, ,
0, ,296, ,
0, ,296, ,
1, ,297, ,
1, ,296, ,
-1, ,297, ,
3, ,296, ,
0, ,296, ,
0, ,296, ,
1, ,296, ,
0, ,296, ,
-1, ,296, ,
3, ,296, ,
0, ,296, ,
0, ,296, ,
3, ,296, ,
1, ,295, ,
-1, ,297, ,
3, ,296, ,
0, ,296, ,
0, ,296, ,
1, ,296, ,
1, ,295, ,
-1, ,296, ,
3, ,296, ,
0, ,296, ,
0, ,295, ,
1, ,297, ,
1, ,295, ,
-1, ,296, ,
3, ,296, ,
0, ,296, ,
0, ,296, ,
1, ,296, ,
0, ,296, ,
-1, ,297, ,
3, ,296, ,
0, ,296, ,
0, ,296, ,
1, ,296, ,
1, ,296, ,
-1, ,297, ,
3, ,296, ,
0, ,296, ,
1, ,296, ,
1, ,296, ,
0, ,296, ,
-1, ,296, ,
3, ,295, ,
0, ,296, ,
0, ,295, ,
3, ,295, ,
1, ,295, ,
-1, ,297, ,
3, ,296, ,
0, ,295, ,
0, ,296, ,
1, ,296, ,
1, ,296, ,
-1, ,297, ,
3, ,295, ,
0, ,296, ,
0, ,296, ,
1, ,296, ,
1, ,296, ,
-1, ,297, ,
3, ,296, ,
0, ,297, ,
0, ,296, ,
1, ,296, ,
1, ,296, ,
-1, ,296, ,
3, ,295, ,
0, ,296, ,
0, ,296, ,
1, ,296, ,
0, ,296, ,
-1, ,296, ,
3, ,295, ,
1, ,296, ,
0, ,296, ,
1, ,296, ,
1, ,296, ,
-1, ,295, ,
3, ,296, ,
0, ,297, ,
0, ,296, ,
3, ,296, ,
1, ,296, ,
0, ,296, ,
3, ,296, ,
0, ,296, ,
0, ,297, ,
1, ,297, ,
0, ,296, ,
-1, ,297, ,
3, ,296, ,
0, ,296, ,
0, ,296, ,
1, ,296, ,
1, ,296, ,
-1, ,296, ,
3, ,295, ,
0, ,296, ,
0, ,296, ,
1, ,296, ,
1, ,296, ,
-1, ,296, ,
3, ,296, ,
0, ,296, ,
0, ,295, ,
1, ,296, ,
1, ,296, ,
0, ,296, ,
3, ,294, ,
0, ,296, ,
0, ,296, ,
1, ,296, ,
1, ,296, ,
-1, ,296, ,
3, ,296, ,
0, ,296, ,
0, ,295, ,
1, ,296, ,
1, ,296, ,
-1, ,290, ,
3, ,294, ,
0, ,300, ,
0, ,301, ,
1, ,298, ,
0, ,294, ,
-1, ,296, ,
3, ,296, ,
0, ,295, ,
0, ,296, ,
1, ,297, ,
1, ,296, ,
-1, ,296, ,
3, ,294, ,
0, ,296, ,
0, ,296, ,
3, ,296, ,
1, ,295, ,
-1, ,297, ,
3, ,296, ,
0, ,296, ,
0, ,296, ,
1, ,295, ,
0, ,296, ,
-1, ,296, ,
3, ,294, ,
0, ,295, ,
0, ,295, ,
1, ,298, ,
1, ,296, ,
-1, ,297, ,
3, ,296, ,
0, ,296, ,
0, ,296, ,
1, ,296, ,
1, ,295, ,
-1, ,296, ,
1, ,296, ,
0, ,296, ,
0, ,296, ,
3, ,296, ,
1, ,296, ,
-1, ,296, ,
3, ,296, ,
0, ,296, ,
0, ,296, ,
1, ,296, ,
1, ,296, ,
-1, ,297, ,
3, ,295, ,
0, ,296, ,
0, ,295, ,
1, ,296, ,
0, ,296, ,
-1, ,296, ,
3, ,296, ,
0, ,296, ,
0, ,296, ,
1, ,295, ,
1, ,296, ,
-1, ,296, ,
3, ,295, ,
0, ,296, ,
0, ,296, ,
1, ,296, ,
0, ,296, ,
-1, ,297, ,
3, ,296, ,
0, ,296, ,
0, ,296, ,
1, ,296, ,
1, ,296, ,
0, ,296, ,
3, ,295, ,
0, ,296, ,
0, ,296, ,
3, ,297, ,
1, ,296, ,
-1, ,296, ,
3, ,296, ,
0, ,296, ,
0, ,296, ,
1, ,296, ,
0, ,296, ,
-1, ,296, ,
3, ,296, ,
0, ,296, ,
0, ,296, ,
1, ,296, ,
1, ,296, ,
-1, ,296, ,
4, ,296, ,
0, ,297, ,
0, ,296, ,
1, ,296, ,
1, ,296, ,
-1, ,296, ,
3, ,296, ,
0, ,296, ,
0, ,296, ,
1, ,296, ,
0, ,296, ,
-1, ,296, ,
3, ,296, ,
0, ,296, ,
0, ,296, ,
1, ,296, ,
1, ,296, ,
-1, ,296, ,
3, ,296, ,
0, ,297, ,
0, ,295, ,
3, ,297, ,
0, ,296, ,
-1, ,297, ,
3, ,296, ,
0, ,297, ,
0, ,296, ,
1, ,296, ,
1, ,296, ,
-1, ,296, ,
3, ,295, ,
0, ,296, ,
0, ,296, ,
3, ,296, ,
0, ,296, ,
-1, ,297, ,
3, ,296, ,
0, ,296, ,
0, ,296, ,
3, ,297, ,
1, ,296, ,
-1, ,296, ,
1, ,295, ,
0, ,296, ,
0, ,296, ,
1, ,296, ,
1, ,295, ,
-1, ,296, ,
3, ,296, ,
0, ,296, ,
0, ,296, ,
1, ,296, ,
1, ,296, ,
-1, ,296, ,
3, ,295, ,
0, ,296, ,
0, ,296, ,
1, ,296, ,
0, ,296, ,
-1, ,296, ,
3, ,296, ,
0, ,296, ,
0, ,296, ,
1, ,297, ,
1, ,296, ,
0, ,296, ,
3, ,296, ,
0, ,296, ,
0, ,296, ,
1, ,297, ,
1, ,296, ,
-1, ,296, ,
1, ,296, ,
0, ,297, ,
0, ,296, ,
1, ,296, ,
0, ,296, ,
-1, ,296, ,
3, ,295, ,
0, ,296, ,
0, ,296, ,
1, ,296, ,
0, ,296, ,
-1, ,296, ,
3, ,296, ,
0, ,296, ,
0, ,295, ,
1, ,296, ,
0, ,295, ,
-1, ,296, ,
3, ,295, ,
0, ,296, ,
0, ,296, ,
1, ,296, ,
1, ,296, ,
-1, ,296, ,
3, ,295, ,
0, ,297, ,
0, ,296, ,
1, ,296, ,
1, ,296, ,
-1, ,296, ,
3, ,294, ,
1, ,296, ,
0, ,296, ,
1, ,296, ,
1, ,296, ,
-1, ,296, ,
3, ,296, ,
0, ,296, ,
0, ,296, ,
1, ,295, ,
0, ,296, ,
0, ,296, ,
3, ,296, ,
0, ,296, ,
0, ,295, ,
3, ,296, ,
1, ,296, ,
-1, ,297, ,
3, ,296, ,
0, ,297, ,
0, ,296, ,
1, ,296, ,
1, ,296, ,
-1, ,296, ,
3, ,295, ,
0, ,296, ,
0, ,296, ,
1, ,296, ,
0, ,296, ,
-1, ,296, ,
3, ,296, ,
0, ,296, ,
0, ,296, ,
1, ,296, ,
1, ,296, ,
-1, ,296, ,
3, ,295, ,
0, ,296, ,
0, ,295, ,
1, ,296, ,
1, ,296, ,
-1, ,296, ,
3, ,296, ,
0, ,296, ,
0, ,295, ,
1, ,296, ,
0, ,296, ,
-1, ,297, ,
3, ,295, ,
0, ,296, ,
0, ,296, ,
1, ,296, ,
0, ,294, ,
-1, ,296, ,
3, ,296, ,
0, ,297, ,
0, ,296, ,
1, ,296, ,
0, ,296, ,
-1, ,297, ,
3, ,294, ,
0, ,296, ,
0, ,296, ,
1, ,296, ,
1, ,295, ,
-1, ,296, ,
3, ,296, ,
0, ,296, ,
0, ,296, ,
1, ,296, ,
0, ,296, ,
-1, ,296, ,
3, ,294, ,
0, ,296, ,
0, ,296, ,
1, ,296, ,
1, ,296, ,
-1, ,297, ,
3, ,296, ,
0, ,296, ,
0, ,296, ,
1, ,296, ,
1, ,296, ,
-1, ,296, ,
3, ,296, ,
0, ,296, ,
0, ,296, ,
1, ,296, ,
0, ,296, ,
-1, ,297, ,
3, ,295, ,
0, ,296, ,
0, ,296, ,
1, ,296, ,
1, ,296, ,
-1, ,297, ,
3, ,295, ,
0, ,296, ,
0, ,296, ,
1, ,296, ,
0, ,296, ,
-1, ,297, ,
3, ,295, ,
0, ,297, ,
0, ,296, ,
1, ,296, ,
1, ,296, ,
0, ,297, ,
3, ,295, ,
0, ,296, ,
0, ,295, ,
1, ,296, ,
0, ,296, ,
-1, ,296, ,
1, ,296, ,
0, ,296, ,
0, ,296, ,
1, ,296, ,
1, ,295, ,
-1, ,297, ,
3, ,294, ,
0, ,296, ,
0, ,296, ,
1, ,297, ,
1, ,296, ,
-1, ,296, ,
3, ,296, ,
0, ,296, ,
0, ,295, ,
3, ,296, ,
1, ,296, ,
0, ,296, ,
3, ,295, ,
0, ,296, ,
0, ,296, ,
1, ,296, ,
1, ,295, ,
-1, ,296, ,
3, ,296, ,
0, ,294, ,
0, ,294, ,
1, ,295, ,
1, ,295, ,
-1, ,299, ,
3, ,298, ,
0, ,299, ,
0, ,296, ,
3, ,294, ,
0, ,293, ,
-1, ,294, ,
3, ,296, ,
0, ,298, ,
0, ,296, ,
3, ,295, ,
1, ,295, ,
-1, ,295, ,
3, ,295, ,
0, ,296, ,
0, ,296, ,
1, ,296, ,
0, ,294, ,
-1, ,296, ,
3, ,296, ,
0, ,296, ,
0, ,296, ,
1, ,296, ,
1, ,295, ,
-1, ,296, ,
3, ,296, ,
1, ,296, ,
0, ,296, ,
3, ,296, ,
0, ,296, ,
-1, ,296, ,
3, ,295, ,
0, ,296, ,
0, ,296, ,
1, ,296, ,
0, ,295, ,
0, ,296, ,
1, ,294, ,
0, ,296, ,
0, ,296, ,
3, ,296, ,
1, ,295, ,
-1, ,296, ,
3, ,295, ,
0, ,296, ,
0, ,296, ,
1, ,296, ,
1, ,295, ,
-1, ,296, ,
3, ,295, ,
0, ,296, ,
0, ,296, ,
1, ,296, ,
1, ,296, ,
-1, ,296, ,
3, ,295, ,
0, ,296, ,
0, ,294, ,
3, ,296, ,
1, ,295, ,
-1, ,296, ,
3, ,296, ,
0, ,296, ,
0, ,295, ,
1, ,296, ,
1, ,295, ,
-1, ,296, ,
3, ,295, ,
0, ,296, ,
0, ,295, ,
1, ,296, ,
0, ,296, ,
-1, ,296, ,
3, ,295, ,
0, ,296, ,
0, ,296, ,
1, ,296, ,
0, ,295, ,
-1, ,295, ,
3, ,296, ,
0, ,297, ,
0, ,295, ,
1, ,296, ,
1, ,295, ,
-1, ,296, ,
3, ,296, ,
0, ,296, ,
0, ,296, ,
1, ,296, ,
0, ,294, ,
-1, ,297, ,
3, ,295, ,
0, ,296, ,
0, ,295, ,
1, ,295, ,
1, ,296, ,
-1, ,296, ,
3, ,296, ,
0, ,295, ,
0, ,296, ,
1, ,296, ,
1, ,296, ,
-1, ,296, ,
3, ,295, ,
0, ,297, ,
0, ,296, ,
1, ,297, ,
0, ,296, ,
0, ,296, ,
1, ,296, ,
0, ,296, ,
0, ,296, ,
1, ,297, ,
0, ,296, ,
-1, ,297, ,
3, ,297, ,
0, ,296, ,
0, ,296, ,
1, ,296, ,
1, ,295, ,
-1, ,297, ,
3, ,296, ,
0, ,296, ,
0, ,296, ,
1, ,296, ,
1, ,296, ,
-1, ,297, ,
3, ,296, ,
0, ,296, ,
0, ,295, ,
3, ,295, ,
1, ,295, ,
0, ,298, ,
3, ,297, ,
0, ,297, ,
0, ,296, ,
1, ,297, ,
0, ,296, ,
-1, ,296, ,
3, ,295, ,
0, ,296, ,
0, ,296, ,
1, ,297, ,
1, ,297, ,
-1, ,297, ,
3, ,296, ,
0, ,296, ,
0, ,296, ,
1, ,296, ,
1, ,296, ,
-1, ,295, ,
3, ,296, ,
0, ,297, ,
0, ,296, ,
1, ,296, ,
1, ,296, ,
-1, ,296, ,
3, ,296, ,
0, ,297, ,
0, ,296, ,
1, ,297, ,
1, ,295, ,
-1, ,298, ,
3, ,296, ,
0, ,296, ,
0, ,296, ,
1, ,296, ,
1, ,296, ,
-1, ,297, ,
3, ,296, ,
0, ,296, ,
0, ,296, ,
3, ,296, ,
1, ,295, ,
-1, ,296, ,
3, ,296, ,
0, ,296, ,
0, ,296, ,
1, ,296, ,
0, ,296, ,
0, ,297, ,
3, ,296, ,
0, ,297, ,
0, ,296, ,
1, ,297, ,
0, ,295, ,
-1, ,296, ,
3, ,296, ,
0, ,296, ,
0, ,296, ,
1, ,296, ,
1, ,296, ,
-1, ,297, ,
3, ,296, ,
0, ,296, ,
0, ,297, ,
1, ,296, ,
1, ,296, ,
