src/vary_led_1562/temp0009228.CSV

Format,1.0B,
Memory Length,10000,Memory Length,10000,
IntpDistance,0,IntpDistance,0,
Trigger Address,5159,Trigger Address,5159,
Trigger Level,3.000E-01,Trigger Level,3.000E-01,
Source,CH1,Source,CH2,
Vertical Units,V,Vertical Units,V,
Vertical Units Div,0,Vertical Units Div,0,
Vertical Units Extend Div,16,Vertical Units Extend Div,16,
Label,,Label,,
Probe Type,0,Probe Type,0,
Probe Ratio,1.000e+01,Probe Ratio,1.000e+00,
Vertical Scale,5.000e-01,Vertical Scale,2.000e-01,
Vertical Position,-1.780e+00,Vertical Position,-2.240e+00,
Horizontal Units,S,Horizontal Units,S,
Horizontal Scale,2.000E-05,Horizontal Scale,2.000E-05,
Horizontal Position,-3.200E-06,Horizontal Position,-3.200E-06,
Horizontal Mode,Main,Horizontal Mode,Main,
SincET Mode,Real Time,SincET Mode,Real Time,
Sampling Period,2.000e-08,Sampling Period,2.000e-08,
Horizontal Old Scale,2.000E-05,Horizontal Old Scale,2.000E-05,
Horizontal Old Position,-3.200E-06,Horizontal Old Position,-3.200E-06,
Firmware,V1.23,Firmware,V1.23,
Mode,Fast,Mode,Fast,
Waveform Data,,Waveform Data,,
0, ,340, ,
3, ,338, ,
0, ,341, ,
0, ,338, ,
1, ,341, ,
1, ,341, ,
0, ,341, ,
3, ,340, ,
0, ,343, ,
0, ,340, ,
1, ,340, ,
1, ,341, ,
0, ,340, ,
3, ,338, ,
0, ,341, ,
0, ,340, ,
1, ,341, ,
1, ,338, ,
0, ,338, ,
3, ,340, ,
0, ,343, ,
1, ,340, ,
1, ,340, ,
1, ,340, ,
0, ,340, ,
3, ,340, ,
0, ,341, ,
0, ,340, ,
1, ,342, ,
1, ,340, ,
0, ,340, ,
3, ,340, ,
0, ,341, ,
0, ,338, ,
1, ,341, ,
1, ,338, ,
0, ,340, ,
3, ,340, ,
1, ,341, ,
1, ,340, ,
1, ,342, ,
1, ,340, ,
0, ,338, ,
3, ,338, ,
0, ,341, ,
1, ,338, ,
1, ,340, ,
1, ,340, ,
0, ,340, ,
3, ,340, ,
0, ,341, ,
0, ,338, ,
1, ,340, ,
1, ,338, ,
0, ,338, ,
1, ,340, ,
0, ,342, ,
1, ,340, ,
3, ,338, ,
1, ,340, ,
0, ,340, ,
3, ,338, ,
0, ,342, ,
0, ,338, ,
1, ,341, ,
1, ,340, ,
0, ,338, ,
3, ,340, ,
0, ,342, ,
0, ,340, ,
1, ,340, ,
1, ,340, ,
0, ,340, ,
3, ,338, ,
0, ,341, ,
0, ,338, ,
1, ,340, ,
1, ,338, ,
0, ,340, ,
1, ,340, ,
0, ,343, ,
0, ,340, ,
1, ,340, ,
1, ,341, ,
0, ,340, ,
3, ,340, ,
1, ,341, ,
0, ,338, ,
1, ,341, ,
1, ,341, ,
0, ,338, ,
3, ,340, ,
1, ,342, ,
0, ,338, ,
1, ,341, ,
1, ,341, ,
0, ,340, ,
3, ,340, ,
0, ,341, ,
0, ,340, ,
1, ,341, ,
1, ,340, ,
0, ,340, ,
3, ,341, ,
0, ,343, ,
0, ,337, ,
1, ,341, ,
1, ,338, ,
0, ,340, ,
3, ,338, ,
0, ,342, ,
0, ,340, ,
1, ,341, ,
0, ,341, ,
0, ,340, ,
3, ,340, ,
0, ,341, ,
0, ,340, ,
1, ,340, ,
1, ,340, ,
0, ,341, ,
3, ,338, ,
0, ,342, ,
0, ,340, ,
1, ,341, ,
1, ,340, ,
0, ,340, ,
3, ,340, ,
0, ,343, ,
0, ,340, ,
1, ,340, ,
1, ,340, ,
0, ,341, ,
3, ,338, ,
0, ,341, ,
0, ,338, ,
1, ,340, ,
1, ,338, ,
0, ,338, ,
1, ,338, ,
1, ,341, ,
0, ,338, ,
1, ,340, ,
1, ,338, ,
0, ,340, ,
3, ,340, ,
0, ,341, ,
1, ,338, ,
1, ,340, ,
1, ,340, ,
0, ,340, ,
3, ,341, ,
1, ,342, ,
1, ,338, ,
1, ,340, ,
1, ,338, ,
0, ,340, ,
3, ,340, ,
0, ,341, ,
1, ,340, ,
1, ,340, ,
1, ,338, ,
-1, ,338, ,
3, ,338, ,
0, ,341, ,
0, ,340, ,
1, ,341, ,
1, ,340, ,
0, ,340, ,
3, ,338, ,
0, ,341, ,
0, ,338, ,
1, ,342, ,
1, ,338, ,
0, ,340, ,
3, ,340, ,
0, ,342, ,
0, ,338, ,
1, ,338, ,
1, ,340, ,
0, ,340, ,
3, ,341, ,
0, ,341, ,
0, ,338, ,
1, ,341, ,
1, ,338, ,
0, ,340, ,
3, ,338, ,
0, ,343, ,
0, ,338, ,
1, ,341, ,
1, ,340, ,
0, ,340, ,
1, ,338, ,
0, ,341, ,
0, ,340, ,
1, ,340, ,
1, ,338, ,
0, ,340, ,
3, ,341, ,
0, ,342, ,
0, ,340, ,
1, ,340, ,
1, ,340, ,
0, ,338, ,
3, ,340, ,
0, ,340, ,
0, ,338, ,
1, ,341, ,
1, ,338, ,
0, ,340, ,
3, ,338, ,
0, ,342, ,
0, ,338, ,
1, ,340, ,
1, ,340, ,
0, ,341, ,
3, ,340, ,
0, ,341, ,
0, ,338, ,
1, ,341, ,
1, ,340, ,
0, ,340, ,
3, ,338, ,
0, ,343, ,
0, ,338, ,
1, ,340, ,
1, ,338, ,
0, ,341, ,
1, ,338, ,
0, ,340, ,
0, ,340, ,
1, ,341, ,
1, ,338, ,
0, ,340, ,
3, ,340, ,
0, ,341, ,
0, ,337, ,
1, ,338, ,
1, ,338, ,
0, ,340, ,
3, ,340, ,
0, ,341, ,
0, ,338, ,
1, ,340, ,
1, ,338, ,
0, ,340, ,
3, ,338, ,
1, ,341, ,
0, ,338, ,
1, ,341, ,
1, ,340, ,
0, ,340, ,
3, ,340, ,
0, ,341, ,
0, ,338, ,
1, ,342, ,
1, ,338, ,
0, ,340, ,
3, ,338, ,
0, ,340, ,
0, ,340, ,
1, ,340, ,
1, ,341, ,
0, ,341, ,
3, ,340, ,
0, ,341, ,
0, ,340, ,
1, ,341, ,
1, ,340, ,
0, ,340, ,
3, ,338, ,
0, ,340, ,
0, ,338, ,
1, ,338, ,
1, ,337, ,
0, ,338, ,
3, ,338, ,
0, ,341, ,
0, ,340, ,
1, ,342, ,
1, ,341, ,
0, ,342, ,
3, ,342, ,
0, ,343, ,
0, ,340, ,
1, ,340, ,
1, ,338, ,
0, ,338, ,
3, ,338, ,
1, ,338, ,
0, ,338, ,
3, ,340, ,
1, ,338, ,
0, ,340, ,
3, ,340, ,
0, ,343, ,
0, ,340, ,
1, ,341, ,
1, ,341, ,
0, ,341, ,
3, ,338, ,
0, ,341, ,
0, ,340, ,
1, ,338, ,
1, ,340, ,
0, ,338, ,
3, ,338, ,
0, ,341, ,
0, ,338, ,
1, ,340, ,
1, ,338, ,
0, ,340, ,
3, ,338, ,
0, ,341, ,
0, ,340, ,
1, ,340, ,
1, ,340, ,
0, ,341, ,
3, ,340, ,
1, ,343, ,
0, ,340, ,
1, ,340, ,
1, ,338, ,
0, ,340, ,
1, ,338, ,
0, ,341, ,
0, ,338, ,
1, ,341, ,
1, ,338, ,
0, ,338, ,
1, ,338, ,
0, ,341, ,
0, ,338, ,
1, ,340, ,
1, ,341, ,
0, ,341, ,
3, ,340, ,
0, ,342, ,
0, ,340, ,
1, ,341, ,
1, ,341, ,
0, ,340, ,
3, ,340, ,
0, ,341, ,
0, ,338, ,
1, ,340, ,
1, ,340, ,
0, ,338, ,
3, ,332, ,
0, ,340, ,
0, ,346, ,
1, ,345, ,
1, ,337, ,
0, ,336, ,
3, ,338, ,
0, ,343, ,
0, ,340, ,
1, ,341, ,
1, ,341, ,
0, ,341, ,
3, ,340, ,
0, ,341, ,
0, ,338, ,
1, ,341, ,
1, ,337, ,
0, ,337, ,
3, ,338, ,
0, ,341, ,
0, ,340, ,
1, ,341, ,
1, ,341, ,
0, ,341, ,
3, ,338, ,
0, ,343, ,
0, ,340, ,
1, ,343, ,
1, ,340, ,
0, ,340, ,
3, ,338, ,
1, ,341, ,
0, ,337, ,
1, ,338, ,
1, ,338, ,
0, ,338, ,
3, ,338, ,
0, ,341, ,
0, ,338, ,
1, ,340, ,
1, ,341, ,
0, ,338, ,
3, ,340, ,
0, ,343, ,
0, ,340, ,
1, ,341, ,
1, ,341, ,
0, ,340, ,
3, ,338, ,
0, ,342, ,
1, ,340, ,
1, ,341, ,
1, ,338, ,
0, ,337, ,
3, ,337, ,
0, ,340, ,
0, ,337, ,
1, ,341, ,
1, ,341, ,
0, ,340, ,
1, ,338, ,
0, ,341, ,
0, ,340, ,
1, ,342, ,
1, ,340, ,
0, ,340, ,
3, ,340, ,
0, ,342, ,
0, ,338, ,
1, ,338, ,
1, ,338, ,
0, ,338, ,
1, ,338, ,
0, ,341, ,
46, ,338, ,
97, ,340, ,
64, ,338, ,
34, ,338, ,
22, ,340, ,
14, ,341, ,
11, ,338, ,
9, ,341, ,
5, ,342, ,
3, ,338, ,
5, ,338, ,
4, ,341, ,
3, ,338, ,
4, ,341, ,
3, ,338, ,
1, ,338, ,
5, ,338, ,
3, ,341, ,
3, ,337, ,
4, ,341, ,
4, ,338, ,
1, ,340, ,
4, ,340, ,
3, ,342, ,
3, ,340, ,
3, ,341, ,
4, ,340, ,
1, ,340, ,
4, ,340, ,
1, ,341, ,
3, ,338, ,
4, ,341, ,
3, ,341, ,
3, ,338, ,
4, ,338, ,
3, ,341, ,
3, ,338, ,
4, ,341, ,
3, ,338, ,
1, ,340, ,
4, ,338, ,
3, ,342, ,
3, ,340, ,
3, ,341, ,
3, ,341, ,
1, ,340, ,
4, ,338, ,
3, ,340, ,
3, ,338, ,
4, ,341, ,
3, ,340, ,
3, ,338, ,
4, ,338, ,
1, ,341, ,
3, ,337, ,
4, ,338, ,
4, ,338, ,
1, ,341, ,
4, ,338, ,
1, ,341, ,
3, ,338, ,
4, ,341, ,
3, ,340, ,
1, ,340, ,
4, ,341, ,
3, ,341, ,
3, ,338, ,
4, ,340, ,
3, ,340, ,
1, ,341, ,
4, ,338, ,
1, ,341, ,
3, ,338, ,
3, ,341, ,
3, ,338, ,
1, ,338, ,
4, ,338, ,
1, ,341, ,
3, ,338, ,
4, ,342, ,
3, ,340, ,
1, ,341, ,
4, ,340, ,
3, ,341, ,
3, ,340, ,
3, ,341, ,
3, ,340, ,
1, ,338, ,
4, ,338, ,
3, ,341, ,
1, ,338, ,
3, ,341, ,
3, ,338, ,
1, ,341, ,
4, ,338, ,
3, ,341, ,
1, ,338, ,
3, ,341, ,
3, ,338, ,
1, ,337, ,
4, ,336, ,
3, ,338, ,
3, ,340, ,
3, ,343, ,
3, ,344, ,
1, ,342, ,
4, ,337, ,
3, ,336, ,
3, ,335, ,
3, ,341, ,
3, ,340, ,
1, ,340, ,
4, ,338, ,
3, ,340, ,
1, ,337, ,
4, ,341, ,
3, ,340, ,
1, ,340, ,
4, ,340, ,
1, ,342, ,
1, ,338, ,
3, ,341, ,
3, ,338, ,
1, ,338, ,
4, ,338, ,
1, ,340, ,
3, ,337, ,
3, ,338, ,
3, ,341, ,
1, ,338, ,
4, ,338, ,
1, ,340, ,
3, ,338, ,
3, ,340, ,
3, ,340, ,
1, ,340, ,
4, ,338, ,
1, ,341, ,
3, ,337, ,
3, ,340, ,
3, ,338, ,
1, ,338, ,
4, ,337, ,
1, ,341, ,
3, ,338, ,
3, ,338, ,
3, ,338, ,
1, ,338, ,
4, ,338, ,
1, ,341, ,
3, ,337, ,
3, ,340, ,
1, ,338, ,
1, ,338, ,
3, ,338, ,
1, ,341, ,
3, ,338, ,
3, ,341, ,
4, ,338, ,
1, ,338, ,
3, ,338, ,
1, ,342, ,
1, ,338, ,
3, ,341, ,
3, ,338, ,
1, ,338, ,
4, ,338, ,
1, ,341, ,
1, ,338, ,
3, ,341, ,
3, ,340, ,
1, ,340, ,
4, ,338, ,
1, ,340, ,
1, ,338, ,
3, ,340, ,
3, ,338, ,
1, ,338, ,
3, ,338, ,
1, ,340, ,
1, ,337, ,
3, ,337, ,
3, ,336, ,
1, ,338, ,
4, ,343, ,
1, ,343, ,
1, ,336, ,
3, ,338, ,
3, ,338, ,
1, ,340, ,
4, ,338, ,
1, ,340, ,
3, ,338, ,
3, ,338, ,
3, ,338, ,
1, ,340, ,
3, ,340, ,
1, ,341, ,
1, ,338, ,
3, ,341, ,
3, ,341, ,
1, ,340, ,
3, ,340, ,
1, ,341, ,
1, ,338, ,
3, ,341, ,
3, ,338, ,
1, ,340, ,
3, ,340, ,
1, ,343, ,
3, ,338, ,
3, ,342, ,
3, ,338, ,
1, ,338, ,
3, ,338, ,
1, ,343, ,
1, ,340, ,
3, ,342, ,
3, ,342, ,
1, ,340, ,
3, ,340, ,
1, ,341, ,
1, ,340, ,
3, ,340, ,
3, ,340, ,
1, ,341, ,
4, ,338, ,
1, ,342, ,
3, ,340, ,
3, ,341, ,
3, ,340, ,
1, ,341, ,
3, ,341, ,
1, ,343, ,
1, ,340, ,
3, ,341, ,
3, ,338, ,
1, ,340, ,
3, ,338, ,
1, ,341, ,
1, ,338, ,
3, ,341, ,
3, ,340, ,
1, ,338, ,
4, ,340, ,
3, ,341, ,
1, ,340, ,
3, ,342, ,
3, ,341, ,
1, ,341, ,
3, ,340, ,
1, ,342, ,
1, ,338, ,
3, ,338, ,
1, ,338, ,
1, ,338, ,
3, ,340, ,
1, ,342, ,
1, ,340, ,
1, ,342, ,
1, ,340, ,
1, ,341, ,
3, ,338, ,
1, ,341, ,
1, ,338, ,
3, ,341, ,
3, ,341, ,
1, ,340, ,
3, ,340, ,
1, ,341, ,
1, ,338, ,
3, ,341, ,
3, ,338, ,
1, ,340, ,
3, ,338, ,
1, ,340, ,
3, ,340, ,
3, ,342, ,
3, ,340, ,
1, ,340, ,
4, ,338, ,
3, ,341, ,
1, ,338, ,
3, ,341, ,
1, ,341, ,
1, ,340, ,
3, ,340, ,
1, ,341, ,
1, ,338, ,
1, ,338, ,
1, ,338, ,
0, ,338, ,
3, ,338, ,
1, ,341, ,
1, ,338, ,
3, ,341, ,
1, ,338, ,
0, ,340, ,
3, ,340, ,
1, ,341, ,
1, ,338, ,
3, ,341, ,
1, ,338, ,
1, ,341, ,
3, ,340, ,
1, ,342, ,
1, ,338, ,
3, ,338, ,
3, ,340, ,
1, ,340, ,
3, ,338, ,
1, ,341, ,
1, ,340, ,
3, ,341, ,
1, ,340, ,
0, ,340, ,
3, ,340, ,
1, ,341, ,
1, ,338, ,
3, ,342, ,
1, ,341, ,
0, ,340, ,
3, ,338, ,
1, ,342, ,
1, ,340, ,
1, ,340, ,
1, ,340, ,
0, ,340, ,
3, ,340, ,
1, ,341, ,
1, ,338, ,
3, ,341, ,
3, ,338, ,
0, ,341, ,
3, ,340, ,
1, ,340, ,
1, ,338, ,
3, ,341, ,
3, ,340, ,
1, ,340, ,
3, ,340, ,
1, ,342, ,
1, ,338, ,
3, ,341, ,
1, ,340, ,
0, ,340, ,
3, ,340, ,
1, ,341, ,
1, ,340, ,
1, ,341, ,
1, ,338, ,
0, ,340, ,
3, ,340, ,
1, ,341, ,
1, ,338, ,
3, ,341, ,
3, ,340, ,
1, ,341, ,
3, ,340, ,
1, ,341, ,
1, ,340, ,
3, ,341, ,
1, ,338, ,
0, ,340, ,
3, ,341, ,
1, ,342, ,
1, ,338, ,
3, ,340, ,
1, ,341, ,
0, ,341, ,
3, ,338, ,
1, ,342, ,
1, ,338, ,
3, ,340, ,
1, ,338, ,
0, ,338, ,
3, ,340, ,
1, ,341, ,
1, ,338, ,
1, ,340, ,
1, ,338, ,
0, ,338, ,
3, ,338, ,
1, ,341, ,
1, ,338, ,
3, ,341, ,
3, ,338, ,
0, ,340, ,
3, ,341, ,
1, ,341, ,
1, ,337, ,
3, ,341, ,
3, ,341, ,
1, ,340, ,
3, ,338, ,
1, ,342, ,
1, ,338, ,
3, ,341, ,
1, ,338, ,
0, ,340, ,
3, ,340, ,
1, ,341, ,
1, ,338, ,
1, ,340, ,
1, ,338, ,
0, ,340, ,
3, ,338, ,
1, ,341, ,
1, ,340, ,
3, ,341, ,
3, ,338, ,
0, ,340, ,
3, ,340, ,
1, ,342, ,
1, ,338, ,
3, ,341, ,
1, ,338, ,
0, ,341, ,
3, ,340, ,
89, ,341, ,
56, ,338, ,
36, ,341, ,
24, ,340, ,
16, ,340, ,
11, ,340, ,
6, ,341, ,
5, ,338, ,
6, ,340, ,
4, ,341, ,
1, ,338, ,
4, ,338, ,
3, ,340, ,
3, ,338, ,
4, ,341, ,
3, ,338, ,
1, ,341, ,
4, ,340, ,
1, ,342, ,
3, ,338, ,
4, ,340, ,
4, ,340, ,
1, ,340, ,
4, ,338, ,
3, ,340, ,
3, ,338, ,
4, ,342, ,
3, ,338, ,
1, ,338, ,
4, ,340, ,
3, ,343, ,
3, ,338, ,
4, ,338, ,
3, ,340, ,
1, ,340, ,
4, ,338, ,
1, ,340, ,
3, ,338, ,
4, ,341, ,
3, ,338, ,
1, ,337, ,
4, ,340, ,
3, ,343, ,
3, ,338, ,
4, ,341, ,
3, ,340, ,
1, ,340, ,
4, ,338, ,
3, ,342, ,
3, ,338, ,
4, ,340, ,
3, ,340, ,
1, ,341, ,
4, ,340, ,
3, ,342, ,
3, ,337, ,
4, ,341, ,
4, ,341, ,
1, ,341, ,
4, ,340, ,
3, ,341, ,
1, ,340, ,
4, ,341, ,
3, ,338, ,
1, ,338, ,
4, ,340, ,
1, ,341, ,
3, ,338, ,
4, ,341, ,
3, ,341, ,
1, ,340, ,
4, ,340, ,
1, ,342, ,
3, ,338, ,
4, ,341, ,
3, ,338, ,
1, ,340, ,
4, ,340, ,
1, ,342, ,
3, ,338, ,
3, ,341, ,
4, ,340, ,
1, ,338, ,
4, ,338, ,
1, ,341, ,
3, ,338, ,
4, ,340, ,
3, ,338, ,
1, ,341, ,
4, ,340, ,
1, ,341, ,
3, ,338, ,
3, ,338, ,
3, ,338, ,
1, ,341, ,
4, ,338, ,
1, ,340, ,
3, ,338, ,
3, ,341, ,
3, ,338, ,
1, ,340, ,
4, ,340, ,
3, ,342, ,
3, ,338, ,
3, ,341, ,
3, ,340, ,
1, ,338, ,
4, ,338, ,
3, ,342, ,
3, ,340, ,
3, ,340, ,
3, ,340, ,
1, ,338, ,
4, ,341, ,
1, ,342, ,
3, ,338, ,
3, ,341, ,
3, ,340, ,
1, ,341, ,
4, ,338, ,
3, ,341, ,
3, ,338, ,
3, ,341, ,
3, ,338, ,
1, ,338, ,
4, ,338, ,
3, ,342, ,
1, ,340, ,
3, ,341, ,
3, ,341, ,
1, ,340, ,
4, ,338, ,
1, ,342, ,
1, ,340, ,
3, ,341, ,
3, ,338, ,
1, ,338, ,
3, ,341, ,
1, ,341, ,
3, ,338, ,
3, ,340, ,
3, ,341, ,
1, ,340, ,
4, ,338, ,
1, ,341, ,
3, ,340, ,
3, ,340, ,
3, ,340, ,
1, ,340, ,
4, ,340, ,
1, ,341, ,
3, ,338, ,
3, ,340, ,
3, ,341, ,
1, ,341, ,
4, ,340, ,
1, ,341, ,
3, ,340, ,
3, ,341, ,
3, ,338, ,
1, ,338, ,
4, ,340, ,
3, ,341, ,
3, ,340, ,
3, ,341, ,
3, ,338, ,
1, ,340, ,
4, ,338, ,
3, ,343, ,
1, ,340, ,
4, ,341, ,
3, ,340, ,
1, ,338, ,
4, ,340, ,
1, ,342, ,
1, ,338, ,
3, ,341, ,
3, ,340, ,
1, ,341, ,
4, ,338, ,
1, ,341, ,
3, ,340, ,
3, ,340, ,
3, ,340, ,
1, ,340, ,
4, ,338, ,
1, ,342, ,
3, ,338, ,
3, ,340, ,
3, ,341, ,
1, ,340, ,
3, ,338, ,
1, ,341, ,
3, ,340, ,
3, ,341, ,
1, ,340, ,
1, ,340, ,
4, ,338, ,
1, ,342, ,
3, ,340, ,
3, ,340, ,
1, ,341, ,
1, ,340, ,
4, ,338, ,
1, ,341, ,
3, ,340, ,
3, ,340, ,
3, ,340, ,
1, ,338, ,
4, ,340, ,
1, ,342, ,
1, ,340, ,
3, ,340, ,
1, ,340, ,
1, ,340, ,
3, ,338, ,
1, ,341, ,
1, ,340, ,
3, ,341, ,
3, ,340, ,
1, ,341, ,
3, ,340, ,
1, ,343, ,
3, ,338, ,
3, ,341, ,
3, ,338, ,
1, ,340, ,
4, ,338, ,
1, ,341, ,
1, ,338, ,
3, ,341, ,
3, ,338, ,
0, ,340, ,
3, ,341, ,
1, ,342, ,
1, ,338, ,
3, ,341, ,
1, ,341, ,
0, ,340, ,
3, ,338, ,
1, ,342, ,
1, ,340, ,
3, ,341, ,
1, ,338, ,
1, ,338, ,
3, ,338, ,
1, ,338, ,
1, ,337, ,
3, ,338, ,
3, ,341, ,
1, ,340, ,
3, ,338, ,
1, ,342, ,
1, ,340, ,
3, ,342, ,
1, ,340, ,
0, ,340, ,
3, ,340, ,
1, ,341, ,
1, ,338, ,
1, ,338, ,
1, ,338, ,
0, ,340, ,
4, ,338, ,
1, ,341, ,
1, ,340, ,
3, ,340, ,
3, ,340, ,
0, ,340, ,
3, ,334, ,
1, ,341, ,
1, ,345, ,
3, ,346, ,
3, ,338, ,
1, ,337, ,
3, ,338, ,
1, ,341, ,
1, ,341, ,
3, ,341, ,
1, ,340, ,
1, ,338, ,
3, ,338, ,
1, ,341, ,
1, ,338, ,
3, ,340, ,
1, ,338, ,
1, ,338, ,
3, ,340, ,
1, ,341, ,
1, ,338, ,
3, ,341, ,
1, ,340, ,
0, ,341, ,
3, ,340, ,
1, ,342, ,
1, ,338, ,
3, ,343, ,
1, ,343, ,
0, ,341, ,
3, ,340, ,
1, ,341, ,
1, ,338, ,
3, ,343, ,
1, ,340, ,
0, ,340, ,
3, ,341, ,
1, ,342, ,
1, ,338, ,
3, ,341, ,
1, ,340, ,
1, ,340, ,
3, ,338, ,
1, ,341, ,
1, ,338, ,
3, ,341, ,
1, ,338, ,
0, ,338, ,
3, ,338, ,
1, ,341, ,
1, ,337, ,
3, ,340, ,
1, ,338, ,
1, ,341, ,
3, ,340, ,
1, ,342, ,
1, ,340, ,
3, ,342, ,
1, ,340, ,
0, ,341, ,
3, ,340, ,
1, ,343, ,
1, ,340, ,
3, ,341, ,
1, ,341, ,
0, ,341, ,
3, ,340, ,
1, ,341, ,
1, ,338, ,
3, ,338, ,
1, ,338, ,
0, ,338, ,
3, ,338, ,
1, ,341, ,
1, ,338, ,
3, ,341, ,
1, ,340, ,
0, ,340, ,
3, ,340, ,
1, ,341, ,
1, ,338, ,
3, ,343, ,
1, ,338, ,
0, ,338, ,
3, ,340, ,
1, ,341, ,
1, ,338, ,
3, ,342, ,
1, ,340, ,
0, ,341, ,
3, ,340, ,
1, ,342, ,
1, ,340, ,
3, ,341, ,
1, ,340, ,
0, ,341, ,
3, ,338, ,
1, ,341, ,
1, ,338, ,
3, ,340, ,
81, ,341, ,
51, ,338, ,
34, ,338, ,
23, ,341, ,
16, ,340, ,
10, ,338, ,
5, ,337, ,
4, ,338, ,
6, ,338, ,
4, ,341, ,
1, ,337, ,
4, ,340, ,
3, ,341, ,
1, ,341, ,
4, ,338, ,
3, ,342, ,
4, ,340, ,
4, ,342, ,
4, ,341, ,
1, ,338, ,
4, ,340, ,
3, ,341, ,
3, ,338, ,
4, ,341, ,
4, ,338, ,
1, ,338, ,
4, ,338, ,
3, ,341, ,
3, ,338, ,
4, ,340, ,
3, ,340, ,
1, ,340, ,
4, ,340, ,
1, ,341, ,
3, ,340, ,
4, ,341, ,
3, ,340, ,
1, ,340, ,
4, ,338, ,
1, ,341, ,
3, ,338, ,
4, ,342, ,
4, ,338, ,
1, ,340, ,
4, ,338, ,
1, ,341, ,
3, ,338, ,
4, ,341, ,
3, ,338, ,
1, ,341, ,
4, ,340, ,
1, ,342, ,
3, ,338, ,
4, ,342, ,
3, ,338, ,
1, ,340, ,
4, ,338, ,
1, ,341, ,
3, ,338, ,
4, ,341, ,
3, ,340, ,
1, ,340, ,
4, ,338, ,
1, ,341, ,
3, ,338, ,
4, ,341, ,
4, ,340, ,
1, ,340, ,
4, ,338, ,
3, ,342, ,
3, ,338, ,
4, ,341, ,
3, ,338, ,
1, ,340, ,
4, ,340, ,
3, ,341, ,
3, ,340, ,
4, ,340, ,
3, ,340, ,
1, ,338, ,
4, ,338, ,
3, ,341, ,
3, ,338, ,
3, ,338, ,
3, ,341, ,
1, ,340, ,
4, ,338, ,
1, ,341, ,
3, ,338, ,
3, ,340, ,
3, ,340, ,
1, ,340, ,
4, ,340, ,
3, ,341, ,
3, ,340, ,
4, ,341, ,
3, ,341, ,
1, ,341, ,
4, ,338, ,
3, ,341, ,
3, ,340, ,
3, ,341, ,
3, ,340, ,
1, ,340, ,
4, ,340, ,
1, ,341, ,
1, ,337, ,
4, ,338, ,
3, ,338, ,
1, ,340, ,
4, ,338, ,
1, ,341, ,
3, ,340, ,
3, ,342, ,
3, ,340, ,
1, ,338, ,
4, ,341, ,
1, ,341, ,
3, ,338, ,
3, ,340, ,
3, ,338, ,
1, ,340, ,
4, ,338, ,
1, ,341, ,
3, ,338, ,
3, ,341, ,
3, ,338, ,
1, ,340, ,
4, ,341, ,
3, ,341, ,
3, ,338, ,
3, ,341, ,
1, ,341, ,
1, ,341, ,
4, ,340, ,
3, ,341, ,
1, ,338, ,
3, ,340, ,
3, ,338, ,
1, ,336, ,
4, ,338, ,
3, ,344, ,
3, ,340, ,
3, ,340, ,
3, ,337, ,
1, ,340, ,
4, ,340, ,
1, ,341, ,
1, ,338, ,
3, ,341, ,
3, ,340, ,
1, ,338, ,
4, ,340, ,
1, ,341, ,
3, ,338, ,
3, ,340, ,
1, ,340, ,
1, ,341, ,
4, ,338, ,
1, ,343, ,
3, ,340, ,
3, ,341, ,
3, ,338, ,
1, ,338, ,
4, ,338, ,
1, ,341, ,
3, ,338, ,
3, ,341, ,
3, ,340, ,
1, ,340, ,
4, ,340, ,
1, ,342, ,
3, ,340, ,
3, ,342, ,
3, ,340, ,
1, ,338, ,
3, ,338, ,
1, ,341, ,
1, ,337, ,
3, ,341, ,
1, ,338, ,
1, ,341, ,
3, ,338, ,
1, ,341, ,
1, ,340, ,
3, ,343, ,
3, ,338, ,
1, ,338, ,
3, ,340, ,
1, ,341, ,
1, ,338, ,
3, ,341, ,
1, ,338, ,
1, ,340, ,
3, ,338, ,
1, ,341, ,
1, ,340, ,
3, ,341, ,
3, ,340, ,
1, ,341, ,
3, ,338, ,
1, ,341, ,
3, ,338, ,
3, ,341, ,
3, ,341, ,
1, ,338, ,
3, ,338, ,
1, ,341, ,
1, ,338, ,
3, ,340, ,
3, ,338, ,
0, ,340, ,
3, ,341, ,
1, ,341, ,
1, ,338, ,
3, ,341, ,
1, ,338, ,
1, ,340, ,
3, ,340, ,
1, ,341, ,
1, ,340, ,
3, ,341, ,
3, ,338, ,
1, ,340, ,
3, ,338, ,
1, ,343, ,
1, ,338, ,
3, ,340, ,
1, ,338, ,
1, ,338, ,
3, ,338, ,
1, ,341, ,
1, ,338, ,
3, ,342, ,
3, ,338, ,
1, ,338, ,
3, ,340, ,
1, ,341, ,
1, ,338, ,
3, ,341, ,
3, ,340, ,
1, ,338, ,
3, ,338, ,
1, ,341, ,
1, ,338, ,
3, ,341, ,
1, ,340, ,
0, ,340, ,
3, ,341, ,
1, ,341, ,
1, ,338, ,
3, ,341, ,
1, ,338, ,
1, ,341, ,
3, ,340, ,
1, ,341, ,
1, ,340, ,
3, ,341, ,
1, ,338, ,
1, ,341, ,
3, ,340, ,
1, ,341, ,
1, ,338, ,
3, ,341, ,
1, ,338, ,
1, ,340, ,
3, ,338, ,
1, ,341, ,
1, ,338, ,
3, ,340, ,
1, ,338, ,
1, ,338, ,
3, ,340, ,
1, ,342, ,
1, ,338, ,
3, ,341, ,
1, ,340, ,
1, ,340, ,
3, ,340, ,
1, ,341, ,
1, ,338, ,
3, ,340, ,
1, ,338, ,
0, ,340, ,
3, ,338, ,
1, ,342, ,
1, ,338, ,
3, ,341, ,
3, ,341, ,
1, ,341, ,
3, ,340, ,
1, ,342, ,
1, ,340, ,
3, ,340, ,
1, ,338, ,
0, ,340, ,
3, ,340, ,
1, ,341, ,
1, ,338, ,
3, ,341, ,
1, ,338, ,
0, ,340, ,
3, ,338, ,
1, ,341, ,
1, ,338, ,
3, ,342, ,
1, ,338, ,
0, ,340, ,
3, ,338, ,
1, ,341, ,
1, ,338, ,
3, ,340, ,
1, ,341, ,
0, ,341, ,
3, ,338, ,
1, ,341, ,
1, ,338, ,
3, ,340, ,
1, ,340, ,
0, ,340, ,
3, ,340, ,
1, ,340, ,
1, ,338, ,
3, ,341, ,
1, ,340, ,
0, ,341, ,
3, ,338, ,
1, ,341, ,
1, ,340, ,
3, ,341, ,
1, ,341, ,
0, ,338, ,
3, ,340, ,
1, ,341, ,
1, ,336, ,
3, ,337, ,
1, ,338, ,
0, ,341, ,
3, ,343, ,
1, ,344, ,
1, ,340, ,
3, ,337, ,
1, ,334, ,
0, ,337, ,
3, ,338, ,
1, ,343, ,
1, ,340, ,
3, ,341, ,
1, ,338, ,
0, ,338, ,
3, ,338, ,
1, ,341, ,
1, ,340, ,
3, ,341, ,
1, ,338, ,
0, ,338, ,
3, ,340, ,
1, ,341, ,
1, ,338, ,
1, ,340, ,
1, ,340, ,
0, ,340, ,
3, ,338, ,
1, ,341, ,
1, ,338, ,
3, ,342, ,
1, ,340, ,
0, ,338, ,
3, ,338, ,
1, ,342, ,
1, ,338, ,
3, ,341, ,
1, ,338, ,
0, ,340, ,
3, ,338, ,
1, ,340, ,
1, ,338, ,
1, ,341, ,
1, ,338, ,
1, ,338, ,
4, ,340, ,
3, ,342, ,
1, ,338, ,
1, ,341, ,
1, ,341, ,
0, ,338, ,
3, ,338, ,
0, ,340, ,
1, ,338, ,
3, ,340, ,
1, ,338, ,
0, ,341, ,
3, ,338, ,
1, ,342, ,
1, ,338, ,
3, ,340, ,
1, ,338, ,
0, ,340, ,
3, ,338, ,
1, ,340, ,
1, ,338, ,
3, ,338, ,
1, ,338, ,
0, ,340, ,
3, ,338, ,
1, ,341, ,
1, ,338, ,
3, ,338, ,
1, ,338, ,
0, ,341, ,
3, ,338, ,
1, ,341, ,
1, ,340, ,
3, ,341, ,
1, ,338, ,
0, ,338, ,
3, ,340, ,
1, ,341, ,
1, ,337, ,
1, ,340, ,
1, ,338, ,
0, ,340, ,
3, ,338, ,
1, ,341, ,
1, ,338, ,
3, ,341, ,
1, ,338, ,
0, ,340, ,
3, ,338, ,
1, ,342, ,
1, ,338, ,
3, ,340, ,
1, ,340, ,
0, ,341, ,
3, ,340, ,
1, ,341, ,
1, ,340, ,
3, ,340, ,
1, ,340, ,
0, ,338, ,
3, ,340, ,
1, ,342, ,
1, ,340, ,
1, ,341, ,
1, ,341, ,
0, ,341, ,
3, ,338, ,
1, ,340, ,
1, ,338, ,
3, ,341, ,
3, ,340, ,
0, ,341, ,
3, ,341, ,
1, ,343, ,
1, ,338, ,
3, ,341, ,
1, ,341, ,
0, ,341, ,
3, ,340, ,
1, ,342, ,
1, ,340, ,
3, ,341, ,
1, ,338, ,
0, ,342, ,
3, ,340, ,
1, ,342, ,
1, ,340, ,
1, ,341, ,
1, ,341, ,
0, ,340, ,
3, ,340, ,
1, ,342, ,
1, ,338, ,
3, ,341, ,
1, ,340, ,
0, ,340, ,
3, ,340, ,
1, ,341, ,
1, ,338, ,
3, ,342, ,
1, ,338, ,
0, ,340, ,
3, ,340, ,
1, ,341, ,
1, ,341, ,
3, ,343, ,
1, ,338, ,
0, ,341, ,
3, ,340, ,
1, ,342, ,
1, ,338, ,
1, ,340, ,
1, ,341, ,
0, ,341, ,
3, ,340, ,
1, ,341, ,
1, ,340, ,
1, ,341, ,
1, ,341, ,
0, ,340, ,
3, ,340, ,
1, ,343, ,
1, ,340, ,
3, ,341, ,
1, ,338, ,
0, ,338, ,
3, ,338, ,
1, ,343, ,
1, ,338, ,
3, ,341, ,
