src/vary_led_1562/temp0003401.CSV

Format,1.0B,
Memory Length,10000,Memory Length,10000,
IntpDistance,0,IntpDistance,0,
Trigger Address,5159,Trigger Address,5159,
Trigger Level,3.000E-01,Trigger Level,3.000E-01,
Source,CH1,Source,CH2,
Vertical Units,V,Vertical Units,V,
Vertical Units Div,0,Vertical Units Div,0,
Vertical Units Extend Div,16,Vertical Units Extend Div,16,
Label,,Label,,
Probe Type,0,Probe Type,0,
Probe Ratio,1.000e+01,Probe Ratio,1.000e+00,
Vertical Scale,5.000e-01,Vertical Scale,2.000e-01,
Vertical Position,-1.780e+00,Vertical Position,-2.240e+00,
Horizontal Units,S,Horizontal Units,S,
Horizontal Scale,2.000E-05,Horizontal Scale,2.000E-05,
Horizontal Position,-3.200E-06,Horizontal Position,-3.200E-06,
Horizontal Mode,Main,Horizontal Mode,Main,
SincET Mode,Real Time,SincET Mode,Real Time,
Sampling Period,2.000e-08,Sampling Period,2.000e-08,
Horizontal Old Scale,2.000E-05,Horizontal Old Scale,2.000E-05,
Horizontal Old Position,-3.200E-06,Horizontal Old Position,-3.200E-06,
Firmware,V1.23,Firmware,V1.23,
Mode,Fast,Mode,Fast,
Waveform Data,,Waveform Data,,
24, ,262, ,
14, ,263, ,
6, ,262, ,
8, ,263, ,
6, ,262, ,
5, ,263, ,
4, ,262, ,
4, ,264, ,
3, ,262, ,
5, ,263, ,
3, ,263, ,
3, ,263, ,
4, ,262, ,
4, ,263, ,
1, ,263, ,
4, ,263, ,
3, ,262, ,
3, ,263, ,
4, ,263, ,
4, ,263, ,
3, ,263, ,
4, ,263, ,
3, ,263, ,
3, ,263, ,
4, ,263, ,
4, ,263, ,
3, ,263, ,
5, ,264, ,
3, ,262, ,
3, ,263, ,
4, ,263, ,
4, ,263, ,
1, ,263, ,
4, ,263, ,
1, ,263, ,
3, ,263, ,
4, ,261, ,
4, ,263, ,
1, ,262, ,
4, ,264, ,
1, ,262, ,
4, ,263, ,
4, ,263, ,
4, ,264, ,
1, ,263, ,
4, ,263, ,
1, ,263, ,
4, ,263, ,
4, ,262, ,
4, ,262, ,
3, ,263, ,
4, ,263, ,
3, ,262, ,
4, ,263, ,
4, ,264, ,
4, ,263, ,
1, ,262, ,
4, ,262, ,
1, ,263, ,
3, ,263, ,
3, ,262, ,
4, ,262, ,
1, ,263, ,
4, ,263, ,
3, ,262, ,
3, ,262, ,
3, ,262, ,
3, ,263, ,
1, ,263, ,
4, ,262, ,
3, ,263, ,
3, ,263, ,
3, ,262, ,
4, ,263, ,
1, ,263, ,
4, ,263, ,
3, ,262, ,
3, ,263, ,
3, ,262, ,
3, ,263, ,
1, ,262, ,
4, ,263, ,
3, ,263, ,
3, ,263, ,
3, ,262, ,
4, ,263, ,
1, ,263, ,
4, ,263, ,
1, ,262, ,
3, ,263, ,
3, ,262, ,
3, ,263, ,
1, ,263, ,
4, ,263, ,
3, ,262, ,
3, ,263, ,
3, ,262, ,
4, ,263, ,
1, ,263, ,
4, ,263, ,
1, ,263, ,
3, ,264, ,
4, ,263, ,
3, ,263, ,
1, ,263, ,
4, ,263, ,
1, ,262, ,
3, ,263, ,
3, ,263, ,
4, ,263, ,
1, ,263, ,
4, ,263, ,
1, ,262, ,
3, ,263, ,
4, ,262, ,
3, ,263, ,
1, ,263, ,
4, ,262, ,
1, ,263, ,
3, ,263, ,
3, ,262, ,
4, ,263, ,
1, ,262, ,
4, ,263, ,
3, ,262, ,
3, ,263, ,
3, ,263, ,
3, ,263, ,
1, ,262, ,
4, ,263, ,
1, ,263, ,
3, ,263, ,
3, ,262, ,
3, ,263, ,
1, ,263, ,
4, ,263, ,
3, ,262, ,
3, ,263, ,
3, ,263, ,
3, ,263, ,
1, ,262, ,
4, ,263, ,
3, ,263, ,
3, ,263, ,
3, ,262, ,
4, ,262, ,
1, ,264, ,
4, ,263, ,
3, ,262, ,
3, ,262, ,
3, ,262, ,
3, ,263, ,
1, ,262, ,
4, ,263, ,
3, ,263, ,
3, ,264, ,
3, ,262, ,
3, ,262, ,
1, ,262, ,
4, ,262, ,
1, ,261, ,
3, ,263, ,
3, ,262, ,
3, ,264, ,
1, ,263, ,
4, ,263, ,
3, ,262, ,
3, ,263, ,
3, ,262, ,
3, ,262, ,
1, ,262, ,
4, ,262, ,
1, ,262, ,
3, ,263, ,
3, ,263, ,
3, ,263, ,
1, ,262, ,
4, ,263, ,
1, ,263, ,
3, ,263, ,
3, ,262, ,
3, ,263, ,
1, ,264, ,
4, ,263, ,
1, ,263, ,
3, ,263, ,
3, ,263, ,
3, ,263, ,
1, ,262, ,
4, ,263, ,
1, ,263, ,
3, ,263, ,
3, ,263, ,
3, ,263, ,
1, ,262, ,
3, ,263, ,
1, ,262, ,
3, ,263, ,
3, ,263, ,
3, ,263, ,
1, ,263, ,
4, ,263, ,
3, ,263, ,
3, ,263, ,
3, ,262, ,
3, ,263, ,
1, ,263, ,
4, ,263, ,
1, ,262, ,
3, ,263, ,
3, ,262, ,
3, ,263, ,
1, ,262, ,
4, ,263, ,
1, ,262, ,
3, ,263, ,
3, ,262, ,
3, ,263, ,
1, ,263, ,
3, ,263, ,
3, ,262, ,
3, ,263, ,
3, ,262, ,
3, ,263, ,
1, ,262, ,
4, ,263, ,
1, ,263, ,
1, ,263, ,
3, ,262, ,
3, ,263, ,
1, ,263, ,
3, ,263, ,
1, ,262, ,
3, ,263, ,
3, ,263, ,
3, ,263, ,
1, ,262, ,
3, ,263, ,
1, ,263, ,
3, ,263, ,
3, ,262, ,
3, ,263, ,
1, ,262, ,
3, ,263, ,
1, ,262, ,
3, ,263, ,
3, ,262, ,
3, ,263, ,
1, ,262, ,
4, ,263, ,
1, ,262, ,
3, ,263, ,
3, ,263, ,
3, ,262, ,
1, ,263, ,
3, ,263, ,
1, ,262, ,
3, ,263, ,
3, ,262, ,
3, ,263, ,
1, ,262, ,
3, ,262, ,
1, ,263, ,
3, ,263, ,
3, ,262, ,
3, ,262, ,
1, ,263, ,
3, ,263, ,
1, ,261, ,
3, ,263, ,
3, ,263, ,
3, ,263, ,
1, ,262, ,
4, ,263, ,
1, ,263, ,
3, ,263, ,
3, ,263, ,
3, ,262, ,
1, ,263, ,
3, ,263, ,
1, ,262, ,
3, ,262, ,
3, ,263, ,
3, ,263, ,
1, ,262, ,
3, ,263, ,
1, ,263, ,
1, ,263, ,
3, ,262, ,
3, ,263, ,
1, ,263, ,
3, ,263, ,
1, ,262, ,
3, ,263, ,
3, ,263, ,
3, ,264, ,
1, ,262, ,
4, ,263, ,
1, ,263, ,
3, ,263, ,
3, ,262, ,
3, ,263, ,
1, ,263, ,
3, ,263, ,
1, ,262, ,
1, ,263, ,
3, ,263, ,
3, ,263, ,
1, ,263, ,
3, ,263, ,
1, ,262, ,
3, ,263, ,
3, ,262, ,
3, ,263, ,
1, ,263, ,
3, ,263, ,
1, ,262, ,
1, ,263, ,
3, ,262, ,
1, ,263, ,
1, ,263, ,
4, ,263, ,
1, ,262, ,
1, ,263, ,
3, ,263, ,
3, ,263, ,
1, ,263, ,
3, ,263, ,
1, ,262, ,
3, ,263, ,
1, ,263, ,
1, ,262, ,
1, ,262, ,
3, ,263, ,
1, ,262, ,
1, ,263, ,
3, ,262, ,
3, ,262, ,
1, ,262, ,
3, ,263, ,
1, ,262, ,
3, ,263, ,
3, ,262, ,
1, ,262, ,
1, ,263, ,
4, ,262, ,
1, ,262, ,
3, ,263, ,
3, ,262, ,
3, ,263, ,
0, ,263, ,
3, ,263, ,
1, ,262, ,
3, ,263, ,
3, ,263, ,
3, ,263, ,
1, ,262, ,
3, ,262, ,
1, ,262, ,
1, ,263, ,
3, ,262, ,
3, ,262, ,
0, ,262, ,
3, ,263, ,
1, ,263, ,
1, ,262, ,
3, ,262, ,
3, ,262, ,
0, ,263, ,
3, ,263, ,
1, ,263, ,
1, ,263, ,
3, ,262, ,
3, ,263, ,
0, ,263, ,
3, ,263, ,
1, ,262, ,
1, ,263, ,
3, ,263, ,
1, ,262, ,
0, ,261, ,
3, ,262, ,
1, ,263, ,
1, ,263, ,
3, ,262, ,
3, ,262, ,
0, ,262, ,
3, ,263, ,
1, ,262, ,
1, ,263, ,
3, ,262, ,
1, ,262, ,
0, ,262, ,
3, ,262, ,
1, ,263, ,
3, ,263, ,
3, ,262, ,
3, ,263, ,
0, ,263, ,
3, ,263, ,
1, ,262, ,
3, ,262, ,
3, ,263, ,
1, ,263, ,
0, ,262, ,
3, ,263, ,
1, ,263, ,
1, ,263, ,
3, ,262, ,
3, ,262, ,
0, ,263, ,
3, ,263, ,
1, ,261, ,
3, ,261, ,
3, ,263, ,
3, ,263, ,
0, ,262, ,
3, ,262, ,
1, ,262, ,
1, ,263, ,
3, ,262, ,
1, ,263, ,
0, ,263, ,
3, ,263, ,
1, ,262, ,
1, ,263, ,
3, ,262, ,
1, ,263, ,
0, ,262, ,
3, ,262, ,
1, ,263, ,
3, ,261, ,
3, ,262, ,
1, ,262, ,
0, ,264, ,
3, ,263, ,
1, ,262, ,
1, ,263, ,
1, ,263, ,
1, ,263, ,
0, ,262, ,
3, ,263, ,
1, ,263, ,
1, ,263, ,
3, ,262, ,
3, ,262, ,
0, ,263, ,
3, ,262, ,
1, ,262, ,
1, ,263, ,
1, ,263, ,
1, ,263, ,
0, ,262, ,
3, ,262, ,
1, ,263, ,
1, ,262, ,
3, ,262, ,
3, ,262, ,
0, ,263, ,
3, ,263, ,
1, ,262, ,
1, ,263, ,
1, ,262, ,
3, ,263, ,
0, ,262, ,
3, ,263, ,
1, ,262, ,
1, ,262, ,
1, ,261, ,
1, ,262, ,
0, ,263, ,
3, ,263, ,
1, ,262, ,
1, ,262, ,
3, ,262, ,
1, ,264, ,
0, ,262, ,
3, ,263, ,
1, ,263, ,
1, ,263, ,
1, ,262, ,
1, ,263, ,
0, ,263, ,
3, ,262, ,
1, ,262, ,
1, ,262, ,
1, ,262, ,
3, ,262, ,
0, ,262, ,
3, ,262, ,
1, ,263, ,
1, ,263, ,
3, ,262, ,
1, ,262, ,
0, ,263, ,
3, ,263, ,
1, ,262, ,
1, ,264, ,
1, ,263, ,
1, ,263, ,
0, ,262, ,
3, ,263, ,
1, ,262, ,
1, ,263, ,
3, ,262, ,
3, ,262, ,
0, ,263, ,
3, ,263, ,
1, ,262, ,
1, ,262, ,
3, ,263, ,
3, ,263, ,
0, ,262, ,
3, ,262, ,
1, ,263, ,
1, ,263, ,
3, ,262, ,
3, ,262, ,
0, ,263, ,
3, ,263, ,
1, ,263, ,
1, ,264, ,
1, ,262, ,
1, ,262, ,
0, ,262, ,
3, ,262, ,
1, ,263, ,
1, ,263, ,
1, ,262, ,
3, ,263, ,
0, ,263, ,
3, ,263, ,
1, ,262, ,
1, ,263, ,
1, ,263, ,
3, ,263, ,
0, ,262, ,
3, ,263, ,
1, ,263, ,
1, ,263, ,
1, ,263, ,
1, ,263, ,
0, ,262, ,
3, ,263, ,
1, ,262, ,
1, ,263, ,
1, ,263, ,
3, ,263, ,
0, ,263, ,
3, ,263, ,
1, ,262, ,
1, ,263, ,
1, ,261, ,
3, ,263, ,
0, ,263, ,
3, ,263, ,
1, ,262, ,
1, ,263, ,
3, ,263, ,
3, ,263, ,
0, ,263, ,
3, ,262, ,
1, ,263, ,
1, ,263, ,
1, ,262, ,
1, ,263, ,
0, ,263, ,
1, ,262, ,
1, ,262, ,
1, ,263, ,
1, ,263, ,
1, ,263, ,
0, ,262, ,
1, ,263, ,
1, ,262, ,
1, ,263, ,
1, ,262, ,
3, ,263, ,
0, ,263, ,
3, ,263, ,
1, ,262, ,
1, ,263, ,
1, ,263, ,
1, ,263, ,
0, ,262, ,
3, ,263, ,
1, ,263, ,
1, ,263, ,
1, ,261, ,
3, ,262, ,
0, ,262, ,
3, ,263, ,
1, ,262, ,
1, ,263, ,
1, ,262, ,
1, ,264, ,
0, ,262, ,
3, ,262, ,
1, ,263, ,
1, ,263, ,
1, ,260, ,
3, ,262, ,
0, ,263, ,
3, ,264, ,
1, ,263, ,
1, ,263, ,
1, ,263, ,
1, ,263, ,
0, ,262, ,
3, ,261, ,
0, ,262, ,
1, ,263, ,
1, ,262, ,
1, ,262, ,
0, ,263, ,
3, ,263, ,
1, ,262, ,
1, ,262, ,
3, ,263, ,
3, ,262, ,
0, ,262, ,
3, ,262, ,
1, ,263, ,
1, ,264, ,
1, ,263, ,
1, ,263, ,
0, ,263, ,
3, ,263, ,
1, ,262, ,
1, ,263, ,
1, ,262, ,
3, ,263, ,
0, ,263, ,
3, ,262, ,
1, ,262, ,
1, ,263, ,
1, ,261, ,
3, ,262, ,
0, ,263, ,
3, ,263, ,
1, ,262, ,
1, ,263, ,
1, ,263, ,
1, ,263, ,
0, ,262, ,
3, ,262, ,
1, ,262, ,
1, ,263, ,
1, ,262, ,
3, ,262, ,
0, ,263, ,
1, ,263, ,
1, ,262, ,
1, ,263, ,
1, ,263, ,
1, ,263, ,
0, ,262, ,
3, ,263, ,
1, ,263, ,
1, ,263, ,
1, ,262, ,
3, ,262, ,
0, ,262, ,
3, ,262, ,
0, ,262, ,
1, ,263, ,
1, ,263, ,
1, ,263, ,
0, ,262, ,
1, ,263, ,
1, ,263, ,
1, ,263, ,
3, ,262, ,
1, ,263, ,
0, ,263, ,
3, ,262, ,
1, ,262, ,
1, ,262, ,
1, ,263, ,
1, ,262, ,
0, ,262, ,
3, ,263, ,
0, ,263, ,
1, ,263, ,
1, ,262, ,
1, ,262, ,
0, ,262, ,
3, ,262, ,
1, ,261, ,
1, ,262, ,
1, ,262, ,
3, ,263, ,
0, ,262, ,
3, ,263, ,
1, ,263, ,
1, ,262, ,
1, ,262, ,
1, ,263, ,
0, ,263, ,
3, ,263, ,
1, ,262, ,
1, ,263, ,
3, ,263, ,
1, ,263, ,
0, ,262, ,
3, ,262, ,
1, ,262, ,
1, ,263, ,
1, ,262, ,
1, ,263, ,
0, ,263, ,
3, ,263, ,
1, ,262, ,
1, ,262, ,
1, ,263, ,
1, ,263, ,
0, ,262, ,
3, ,263, ,
1, ,263, ,
1, ,263, ,
1, ,262, ,
1, ,263, ,
0, ,262, ,
3, ,263, ,
1, ,262, ,
1, ,263, ,
1, ,263, ,
1, ,263, ,
0, ,262, ,
3, ,262, ,
1, ,262, ,
1, ,263, ,
1, ,262, ,
3, ,262, ,
0, ,263, ,
3, ,263, ,
1, ,262, ,
1, ,263, ,
1, ,263, ,
3, ,263, ,
0, ,262, ,
1, ,262, ,
1, ,262, ,
1, ,263, ,
1, ,262, ,
3, ,263, ,
0, ,262, ,
1, ,263, ,
1, ,262, ,
1, ,263, ,
1, ,262, ,
1, ,263, ,
0, ,263, ,
3, ,263, ,
1, ,263, ,
1, ,264, ,
1, ,263, ,
3, ,263, ,
0, ,263, ,
3, ,262, ,
1, ,262, ,
1, ,263, ,
1, ,262, ,
3, ,263, ,
0, ,262, ,
1, ,262, ,
1, ,263, ,
1, ,262, ,
1, ,262, ,
1, ,263, ,
0, ,263, ,
1, ,264, ,
1, ,262, ,
1, ,263, ,
3, ,262, ,
3, ,263, ,
0, ,261, ,
3, ,262, ,
1, ,263, ,
1, ,263, ,
1, ,263, ,
1, ,263, ,
0, ,264, ,
3, ,263, ,
1, ,262, ,
1, ,262, ,
1, ,261, ,
1, ,261, ,
0, ,260, ,
3, ,261, ,
1, ,263, ,
1, ,266, ,
3, ,266, ,
1, ,265, ,
0, ,261, ,
3, ,259, ,
1, ,259, ,
1, ,262, ,
1, ,263, ,
1, ,264, ,
0, ,262, ,
1, ,261, ,
1, ,262, ,
1, ,262, ,
1, ,262, ,
1, ,263, ,
0, ,263, ,
1, ,262, ,
1, ,262, ,
1, ,263, ,
1, ,262, ,
1, ,263, ,
0, ,262, ,
3, ,262, ,
0, ,262, ,
1, ,263, ,
1, ,262, ,
1, ,262, ,
0, ,263, ,
3, ,263, ,
1, ,261, ,
1, ,262, ,
1, ,263, ,
1, ,263, ,
0, ,262, ,
1, ,261, ,
1, ,262, ,
1, ,263, ,
1, ,262, ,
3, ,262, ,
0, ,263, ,
1, ,263, ,
0, ,262, ,
1, ,261, ,
1, ,263, ,
3, ,263, ,
0, ,262, ,
1, ,262, ,
1, ,262, ,
1, ,263, ,
1, ,261, ,
1, ,262, ,
0, ,263, ,
1, ,263, ,
0, ,262, ,
1, ,261, ,
1, ,262, ,
1, ,263, ,
0, ,262, ,
1, ,263, ,
1, ,262, ,
1, ,263, ,
1, ,262, ,
3, ,263, ,
0, ,264, ,
1, ,263, ,
1, ,262, ,
1, ,261, ,
1, ,262, ,
1, ,262, ,
0, ,262, ,
1, ,262, ,
1, ,261, ,
1, ,263, ,
3, ,261, ,
1, ,262, ,
0, ,262, ,
1, ,262, ,
0, ,261, ,
1, ,262, ,
1, ,262, ,
1, ,262, ,
0, ,262, ,
1, ,263, ,
1, ,261, ,
1, ,263, ,
1, ,262, ,
1, ,262, ,
0, ,263, ,
1, ,262, ,
1, ,261, ,
1, ,263, ,
1, ,262, ,
1, ,262, ,
0, ,262, ,
1, ,263, ,
1, ,262, ,
1, ,262, ,
1, ,262, ,
1, ,262, ,
0, ,262, ,
1, ,262, ,
1, ,261, ,
1, ,262, ,
1, ,263, ,
1, ,262, ,
0, ,263, ,
1, ,263, ,
1, ,264, ,
1, ,263, ,
1, ,262, ,
1, ,262, ,
0, ,263, ,
1, ,264, ,
1, ,263, ,
1, ,263, ,
3, ,263, ,
3, ,263, ,
0, ,262, ,
1, ,263, ,
1, ,262, ,
1, ,263, ,
1, ,262, ,
1, ,263, ,
0, ,262, ,
1, ,263, ,
0, ,263, ,
1, ,263, ,
1, ,263, ,
1, ,263, ,
0, ,262, ,
1, ,263, ,
1, ,263, ,
0, ,263, ,
1, ,262, ,
1, ,263, ,
0, ,263, ,
1, ,263, ,
0, ,262, ,
1, ,262, ,
1, ,263, ,
1, ,263, ,
0, ,262, ,
1, ,263, ,
0, ,262, ,
0, ,263, ,
1, ,262, ,
1, ,263, ,
0, ,262, ,
1, ,263, ,
1, ,262, ,
1, ,263, ,
1, ,262, ,
1, ,263, ,
0, ,262, ,
1, ,263, ,
0, ,262, ,
1, ,263, ,
1, ,263, ,
1, ,264, ,
0, ,263, ,
1, ,263, ,
0, ,261, ,
0, ,263, ,
1, ,262, ,
1, ,263, ,
0, ,262, ,
1, ,263, ,
1, ,263, ,
0, ,263, ,
1, ,262, ,
1, ,262, ,
0, ,263, ,
1, ,263, ,
0, ,262, ,
1, ,263, ,
1, ,263, ,
1, ,263, ,
0, ,262, ,
1, ,262, ,
1, ,263, ,
1, ,263, ,
1, ,262, ,
1, ,262, ,
0, ,263, ,
1, ,263, ,
1, ,262, ,
1, ,263, ,
1, ,263, ,
1, ,263, ,
0, ,263, ,
1, ,263, ,
1, ,263, ,
1, ,263, ,
1, ,262, ,
1, ,262, ,
0, ,262, ,
1, ,263, ,
0, ,262, ,
1, ,262, ,
1, ,263, ,
1, ,264, ,
0, ,263, ,
1, ,263, ,
1, ,262, ,
1, ,263, ,
1, ,263, ,
1, ,262, ,
0, ,263, ,
1, ,263, ,
1, ,262, ,
1, ,263, ,
1, ,262, ,
1, ,263, ,
0, ,262, ,
1, ,262, ,
0, ,262, ,
1, ,263, ,
1, ,262, ,
1, ,263, ,
0, ,263, ,
1, ,263, ,
1, ,262, ,
1, ,263, ,
1, ,263, ,
1, ,263, ,
0, ,262, ,
1, ,263, ,
0, ,262, ,
1, ,263, ,
1, ,262, ,
1, ,262, ,
0, ,263, ,
1, ,263, ,
1, ,263, ,
1, ,263, ,
1, ,263, ,
1, ,263, ,
0, ,262, ,
3, ,264, ,
1, ,263, ,
1, ,263, ,
1, ,262, ,
3, ,263, ,
0, ,263, ,
1, ,263, ,
0, ,262, ,
1, ,261, ,
1, ,263, ,
1, ,262, ,
0, ,262, ,
3, ,261, ,
1, ,263, ,
1, ,264, ,
1, ,262, ,
1, ,263, ,
0, ,264, ,
1, ,264, ,
0, ,262, ,
1, ,263, ,
1, ,261, ,
1, ,263, ,
0, ,262, ,
1, ,263, ,
0, ,263, ,
1, ,264, ,
1, ,262, ,
1, ,262, ,
0, ,263, ,
1, ,263, ,
1, ,262, ,
1, ,262, ,
1, ,263, ,
1, ,263, ,
0, ,263, ,
1, ,263, ,
0, ,262, ,
1, ,263, ,
1, ,262, ,
3, ,263, ,
0, ,264, ,
3, ,263, ,
0, ,263, ,
1, ,263, ,
1, ,262, ,
1, ,263, ,
0, ,263, ,
3, ,263, ,
0, ,263, ,
0, ,263, ,
1, ,263, ,
1, ,263, ,
0, ,263, ,
1, ,263, ,
0, ,262, ,
0, ,263, ,
1, ,263, ,
1, ,262, ,
0, ,262, ,
1, ,263, ,
0, ,263, ,
1, ,263, ,
1, ,263, ,
1, ,263, ,
0, ,263, ,
1, ,264, ,
1, ,261, ,
0, ,262, ,
1, ,264, ,
1, ,263, ,
0, ,263, ,
1, ,263, ,
0, ,263, ,
1, ,263, ,
3, ,262, ,
1, ,263, ,
0, ,263, ,
1, ,263, ,
1, ,262, ,
1, ,264, ,
1, ,262, ,
1, ,263, ,
0, ,262, ,
1, ,262, ,
1, ,262, ,
1, ,263, ,
1, ,263, ,
1, ,263, ,
0, ,263, ,
3, ,263, ,
1, ,262, ,
1, ,263, ,
1, ,263, ,
1, ,263, ,
0, ,262, ,
1, ,263, ,
0, ,263, ,
1, ,264, ,
1, ,262, ,
1, ,263, ,
0, ,263, ,
1, ,263, ,
0, ,263, ,
1, ,263, ,
1, ,263, ,
1, ,263, ,
0, ,262, ,
1, ,262, ,
0, ,263, ,
1, ,263, ,
1, ,262, ,
1, ,263, ,
0, ,263, ,
3, ,263, ,
1, ,262, ,
1, ,263, ,
1, ,262, ,
1, ,263, ,
0, ,263, ,
1, ,262, ,
0, ,263, ,
1, ,262, ,
1, ,263, ,
1, ,263, ,
0, ,263, ,
3, ,263, ,
0, ,262, ,
1, ,263, ,
1, ,253, ,
1, ,262, ,
0, ,269, ,
3, ,267, ,
1, ,262, ,
0, ,261, ,
1, ,262, ,
1, ,263, ,
0, ,263, ,
1, ,263, ,
1, ,263, ,
1, ,263, ,
1, ,262, ,
1, ,264, ,
0, ,263, ,
1, ,264, ,
1, ,262, ,
1, ,263, ,
1, ,263, ,
1, ,263, ,
0, ,263, ,
1, ,263, ,
0, ,262, ,
1, ,261, ,
1, ,262, ,
1, ,263, ,
0, ,262, ,
1, ,263, ,
1, ,264, ,
1, ,264, ,
1, ,262, ,
1, ,262, ,
0, ,263, ,
3, ,264, ,
0, ,263, ,
1, ,263, ,
1, ,263, ,
1, ,263, ,
0, ,263, ,
1, ,263, ,
1, ,263, ,
1, ,263, ,
1, ,262, ,
1, ,262, ,
0, ,262, ,
1, ,263, ,
0, ,263, ,
1, ,263, ,
1, ,263, ,
1, ,263, ,
0, ,262, ,
1, ,263, ,
1, ,263, ,
1, ,263, ,
1, ,263, ,
1, ,263, ,
0, ,263, ,
1, ,263, ,
0, ,262, ,
1, ,264, ,
1, ,262, ,
1, ,263, ,
0, ,262, ,
1, ,263, ,
0, ,263, ,
1, ,262, ,
1, ,262, ,
3, ,263, ,
0, ,263, ,
1, ,263, ,
0, ,262, ,
1, ,262, ,
1, ,262, ,
1, ,263, ,
0, ,263, ,
1, ,262, ,
1, ,263, ,
1, ,263, ,
1, ,263, ,
1, ,262, ,
0, ,263, ,
1, ,263, ,
1, ,262, ,
1, ,263, ,
1, ,262, ,
1, ,263, ,
0, ,262, ,
1, ,262, ,
0, ,262, ,
1, ,262, ,
1, ,262, ,
1, ,263, ,
0, ,263, ,
1, ,263, ,
0, ,262, ,
1, ,262, ,
1, ,262, ,
1, ,262, ,
0, ,263, ,
1, ,263, ,
1, ,263, ,
1, ,263, ,
1, ,262, ,
1, ,262, ,
0, ,263, ,
1, ,264, ,
1, ,262, ,
1, ,262, ,
1, ,262, ,
1, ,263, ,
0, ,263, ,
3, ,263, ,
0, ,263, ,
1, ,263, ,
1, ,261, ,
10, ,263, ,
107, ,263, ,
69, ,263, ,
38, ,262, ,
23, ,263, ,
18, ,262, ,
14, ,263, ,
6, ,262, ,
6, ,262, ,
5, ,263, ,
4, ,263, ,
4, ,263, ,
4, ,262, ,
1, ,263, ,
5, ,263, ,
3, ,262, ,
3, ,263, ,
4, ,263, ,
4, ,263, ,
3, ,262, ,
4, ,262, ,
3, ,263, ,
3, ,263, ,
4, ,263, ,
4, ,262, ,
3, ,263, ,
4, ,264, ,
3, ,262, ,
3, ,262, ,
4, ,263, ,
4, ,264, ,
1, ,262, ,
4, ,263, ,
3, ,262, ,
3, ,263, ,
4, ,263, ,
4, ,262, ,
3, ,263, ,
4, ,264, ,
1, ,262, ,
3, ,262, ,
3, ,262, ,
4, ,263, ,
1, ,263, ,
4, ,263, ,
1, ,262, ,
4, ,264, ,
3, ,262, ,
4, ,263, ,
3, ,263, ,
4, ,263, ,
3, ,261, ,
3, ,262, ,
4, ,262, ,
4, ,264, ,
1, ,262, ,
4, ,263, ,
1, ,262, ,
3, ,263, ,
4, ,262, ,
4, ,263, ,
1, ,263, ,
4, ,263, ,
1, ,262, ,
3, ,263, ,
4, ,263, ,
4, ,263, ,
1, ,262, ,
4, ,262, ,
3, ,262, ,
3, ,263, ,
3, ,262, ,
4, ,263, ,
1, ,263, ,
4, ,263, ,
3, ,262, ,
3, ,262, ,
4, ,263, ,
3, ,263, ,
1, ,262, ,
4, ,263, ,
3, ,263, ,
3, ,264, ,
3, ,262, ,
4, ,263, ,
1, ,263, ,
4, ,263, ,
1, ,262, ,
3, ,263, ,
4, ,263, ,
3, ,263, ,
1, ,263, ,
4, ,263, ,
3, ,263, ,
3, ,263, ,
3, ,262, ,
4, ,263, ,
1, ,263, ,
4, ,263, ,
3, ,262, ,
3, ,263, ,
4, ,263, ,
3, ,263, ,
1, ,263, ,
4, ,262, ,
3, ,263, ,
3, ,263, ,
3, ,262, ,
4, ,263, ,
1, ,263, ,
4, ,264, ,
1, ,263, ,
3, ,263, ,
4, ,263, ,
3, ,263, ,
1, ,263, ,
4, ,262, ,
1, ,262, ,
3, ,263, ,
3, ,262, ,
4, ,262, ,
1, ,262, ,
4, ,262, ,
3, ,263, ,
3, ,263, ,
4, ,263, ,
3, ,263, ,
1, ,262, ,
4, ,263, ,
1, ,263, ,
3, ,263, ,
3, ,262, ,
4, ,262, ,
1, ,264, ,
4, ,264, ,
41, ,262, ,
29, ,263, ,
18, ,262, ,
11, ,262, ,
9, ,262, ,
8, ,263, ,
4, ,263, ,
3, ,263, ,
5, ,262, ,
4, ,262, ,
1, ,263, ,
4, ,263, ,
3, ,262, ,
4, ,262, ,
4, ,263, ,
4, ,263, ,
1, ,261, ,
4, ,263, ,
3, ,263, ,
3, ,263, ,
4, ,262, ,
4, ,262, ,
3, ,263, ,
4, ,263, ,
3, ,262, ,
3, ,263, ,
4, ,263, ,
4, ,263, ,
1, ,262, ,
4, ,263, ,
3, ,263, ,
3, ,263, ,
3, ,262, ,
4, ,262, ,
1, ,262, ,
4, ,264, ,
3, ,262, ,
3, ,262, ,
4, ,262, ,
4, ,262, ,
3, ,262, ,
4, ,262, ,
1, ,263, ,
3, ,263, ,
3, ,262, ,
4, ,262, ,
1, ,263, ,
4, ,263, ,
3, ,262, ,
4, ,263, ,
3, ,263, ,
3, ,263, ,
3, ,262, ,
4, ,263, ,
1, ,263, ,
3, ,263, ,
4, ,262, ,
4, ,263, ,
1, ,264, ,
4, ,263, ,
1, ,262, ,
4, ,262, ,
4, ,262, ,
4, ,263, ,
1, ,262, ,
4, ,262, ,
1, ,263, ,
3, ,263, ,
3, ,262, ,
4, ,263, ,
1, ,263, ,
4, ,262, ,
1, ,261, ,
3, ,261, ,
3, ,262, ,
3, ,264, ,
1, ,263, ,
4, ,263, ,
3, ,263, ,
3, ,263, ,
4, ,262, ,
4, ,261, ,
1, ,262, ,
4, ,262, ,
1, ,263, ,
3, ,262, ,
4, ,263, ,
4, ,263, ,
1, ,262, ,
4, ,262, ,
3, ,262, ,
3, ,263, ,
3, ,262, ,
3, ,263, ,
1, ,263, ,
4, ,263, ,
3, ,262, ,
3, ,262, ,
3, ,262, ,
3, ,263, ,
1, ,262, ,
4, ,263, ,
3, ,262, ,
3, ,263, ,
3, ,262, ,
3, ,262, ,
1, ,262, ,
4, ,263, ,
3, ,262, ,
3, ,262, ,
3, ,262, ,
3, ,262, ,
1, ,262, ,
4, ,263, ,
1, ,263, ,
3, ,263, ,
3, ,262, ,
3, ,262, ,
1, ,262, ,
4, ,263, ,
3, ,262, ,
3, ,262, ,
3, ,262, ,
3, ,263, ,
1, ,262, ,
4, ,263, ,
1, ,263, ,
3, ,263, ,
3, ,263, ,
3, ,263, ,
1, ,263, ,
3, ,263, ,
1, ,262, ,
3, ,263, ,
3, ,263, ,
3, ,262, ,
3, ,262, ,
4, ,263, ,
3, ,263, ,
3, ,263, ,
3, ,262, ,
3, ,263, ,
1, ,263, ,
4, ,263, ,
1, ,262, ,
3, ,263, ,
3, ,262, ,
3, ,263, ,
1, ,262, ,
3, ,263, ,
3, ,263, ,
3, ,263, ,
3, ,262, ,
3, ,263, ,
1, ,263, ,
4, ,263, ,
1, ,262, ,
3, ,263, ,
3, ,263, ,
3, ,263, ,
1, ,261, ,
4, ,263, ,
3, ,263, ,
3, ,263, ,
3, ,262, ,
3, ,263, ,
1, ,263, ,
4, ,263, ,
3, ,262, ,
3, ,263, ,
3, ,262, ,
3, ,262, ,
1, ,263, ,
4, ,263, ,
1, ,262, ,
3, ,263, ,
3, ,262, ,
3, ,263, ,
1, ,263, ,
4, ,263, ,
1, ,262, ,
3, ,262, ,
3, ,262, ,
3, ,263, ,
1, ,262, ,
4, ,263, ,
1, ,263, ,
3, ,263, ,
3, ,262, ,
3, ,263, ,
1, ,263, ,
4, ,263, ,
1, ,262, ,
3, ,263, ,
3, ,263, ,
3, ,263, ,
1, ,262, ,
4, ,263, ,
1, ,263, ,
3, ,262, ,
3, ,262, ,
3, ,262, ,
1, ,263, ,
4, ,262, ,
1, ,262, ,
3, ,263, ,
3, ,262, ,
3, ,263, ,
1, ,262, ,
4, ,263, ,
3, ,263, ,
3, ,263, ,
3, ,262, ,
3, ,262, ,
1, ,263, ,
4, ,263, ,
1, ,262, ,
1, ,262, ,
3, ,263, ,
3, ,263, ,
1, ,263, ,
4, ,262, ,
1, ,263, ,
3, ,263, ,
3, ,262, ,
3, ,263, ,
1, ,263, ,
3, ,263, ,
3, ,262, ,
3, ,262, ,
3, ,261, ,
3, ,263, ,
1, ,262, ,
4, ,263, ,
1, ,262, ,
3, ,263, ,
3, ,262, ,
3, ,262, ,
1, ,263, ,
4, ,263, ,
1, ,262, ,
3, ,263, ,
3, ,263, ,
3, ,263, ,
1, ,262, ,
4, ,263, ,
1, ,263, ,
3, ,263, ,
3, ,262, ,
3, ,263, ,
1, ,263, ,
3, ,263, ,
1, ,262, ,
3, ,263, ,
3, ,262, ,
3, ,263, ,
1, ,262, ,
4, ,262, ,
1, ,263, ,
3, ,263, ,
3, ,261, ,
3, ,262, ,
1, ,262, ,
3, ,263, ,
1, ,262, ,
3, ,263, ,
3, ,262, ,
3, ,262, ,
1, ,254, ,
3, ,262, ,
1, ,268, ,
3, ,268, ,
3, ,262, ,
3, ,260, ,
1, ,263, ,
3, ,264, ,
3, ,261, ,
3, ,262, ,
3, ,262, ,
1, ,264, ,
0, ,263, ,
4, ,262, ,
1, ,263, ,
1, ,263, ,
3, ,262, ,
3, ,262, ,
0, ,263, ,
3, ,263, ,
1, ,262, ,
3, ,263, ,
3, ,263, ,
1, ,262, ,
1, ,262, ,
3, ,262, ,
1, ,263, ,
3, ,263, ,
3, ,262, ,
3, ,262, ,
1, ,263, ,
3, ,263, ,
1, ,263, ,
3, ,264, ,
3, ,263, ,
3, ,263, ,
1, ,262, ,
3, ,263, ,
1, ,262, ,
3, ,262, ,
3, ,262, ,
3, ,263, ,
0, ,263, ,
3, ,263, ,
1, ,261, ,
