src/vary_led_1562/temp0006687.CSV

Format,1.0B,
Memory Length,10000,Memory Length,10000,
IntpDistance,0,IntpDistance,0,
Trigger Address,5159,Trigger Address,5159,
Trigger Level,3.000E-01,Trigger Level,3.000E-01,
Source,CH1,Source,CH2,
Vertical Units,V,Vertical Units,V,
Vertical Units Div,0,Vertical Units Div,0,
Vertical Units Extend Div,16,Vertical Units Extend Div,16,
Label,,Label,,
Probe Type,0,Probe Type,0,
Probe Ratio,1.000e+01,Probe Ratio,1.000e+00,
Vertical Scale,5.000e-01,Vertical Scale,2.000e-01,
Vertical Position,-1.780e+00,Vertical Position,-2.240e+00,
Horizontal Units,S,Horizontal Units,S,
Horizontal Scale,2.000E-05,Horizontal Scale,2.000E-05,
Horizontal Position,-3.200E-06,Horizontal Position,-3.200E-06,
Horizontal Mode,Main,Horizontal Mode,Main,
SincET Mode,Real Time,SincET Mode,Real Time,
Sampling Period,2.000e-08,Sampling Period,2.000e-08,
Horizontal Old Scale,2.000E-05,Horizontal Old Scale,2.000E-05,
Horizontal Old Position,-3.200E-06,Horizontal Old Position,-3.200E-06,
Firmware,V1.23,Firmware,V1.23,
Mode,Fast,Mode,Fast,
Waveform Data,,Waveform Data,,
1, ,318, ,
3, ,321, ,
1, ,319, ,
1, ,320, ,
3, ,318, ,
1, ,320, ,
1, ,319, ,
3, ,319, ,
1, ,318, ,
1, ,320, ,
3, ,320, ,
1, ,321, ,
1, ,318, ,
3, ,321, ,
1, ,319, ,
1, ,320, ,
3, ,319, ,
1, ,321, ,
1, ,318, ,
3, ,321, ,
1, ,320, ,
1, ,319, ,
3, ,319, ,
3, ,321, ,
1, ,318, ,
3, ,321, ,
1, ,319, ,
1, ,321, ,
3, ,319, ,
1, ,321, ,
1, ,319, ,
3, ,320, ,
1, ,319, ,
1, ,320, ,
3, ,319, ,
1, ,321, ,
1, ,318, ,
3, ,320, ,
1, ,319, ,
1, ,320, ,
3, ,319, ,
1, ,321, ,
1, ,319, ,
3, ,321, ,
1, ,319, ,
1, ,319, ,
3, ,319, ,
1, ,321, ,
1, ,318, ,
3, ,320, ,
1, ,320, ,
1, ,320, ,
3, ,320, ,
1, ,319, ,
1, ,318, ,
3, ,320, ,
1, ,318, ,
1, ,319, ,
3, ,319, ,
1, ,321, ,
1, ,319, ,
3, ,319, ,
1, ,319, ,
1, ,319, ,
3, ,319, ,
1, ,321, ,
1, ,318, ,
3, ,319, ,
1, ,318, ,
1, ,320, ,
3, ,320, ,
1, ,321, ,
1, ,320, ,
3, ,320, ,
1, ,320, ,
1, ,319, ,
3, ,318, ,
1, ,319, ,
1, ,319, ,
3, ,321, ,
1, ,319, ,
1, ,319, ,
3, ,319, ,
3, ,320, ,
1, ,317, ,
3, ,320, ,
1, ,319, ,
1, ,320, ,
3, ,318, ,
1, ,321, ,
1, ,319, ,
3, ,320, ,
1, ,318, ,
1, ,319, ,
3, ,319, ,
1, ,320, ,
1, ,318, ,
3, ,321, ,
1, ,321, ,
1, ,320, ,
3, ,319, ,
1, ,320, ,
1, ,318, ,
3, ,321, ,
1, ,319, ,
0, ,319, ,
3, ,319, ,
1, ,321, ,
1, ,318, ,
3, ,320, ,
1, ,319, ,
0, ,319, ,
3, ,318, ,
1, ,321, ,
1, ,319, ,
1, ,320, ,
1, ,319, ,
0, ,319, ,
3, ,320, ,
1, ,321, ,
1, ,318, ,
3, ,319, ,
1, ,319, ,
1, ,320, ,
3, ,319, ,
1, ,319, ,
1, ,320, ,
3, ,321, ,
1, ,319, ,
0, ,319, ,
3, ,319, ,
1, ,320, ,
1, ,319, ,
3, ,320, ,
1, ,319, ,
0, ,320, ,
3, ,319, ,
1, ,319, ,
1, ,318, ,
1, ,320, ,
1, ,319, ,
0, ,319, ,
3, ,321, ,
1, ,320, ,
1, ,318, ,
3, ,319, ,
1, ,319, ,
1, ,319, ,
3, ,319, ,
1, ,320, ,
1, ,318, ,
3, ,320, ,
1, ,319, ,
0, ,319, ,
3, ,319, ,
1, ,320, ,
1, ,318, ,
1, ,319, ,
1, ,319, ,
1, ,320, ,
3, ,319, ,
1, ,321, ,
1, ,319, ,
3, ,320, ,
1, ,318, ,
0, ,319, ,
3, ,320, ,
1, ,321, ,
1, ,318, ,
3, ,321, ,
1, ,319, ,
1, ,319, ,
3, ,319, ,
1, ,320, ,
1, ,319, ,
3, ,320, ,
1, ,318, ,
0, ,319, ,
3, ,320, ,
1, ,321, ,
1, ,318, ,
3, ,319, ,
1, ,319, ,
1, ,320, ,
3, ,319, ,
1, ,319, ,
1, ,318, ,
3, ,319, ,
1, ,319, ,
0, ,320, ,
3, ,319, ,
1, ,323, ,
1, ,317, ,
3, ,319, ,
1, ,319, ,
0, ,319, ,
3, ,320, ,
1, ,320, ,
1, ,318, ,
3, ,319, ,
1, ,319, ,
0, ,319, ,
3, ,319, ,
1, ,321, ,
1, ,313, ,
1, ,319, ,
1, ,324, ,
1, ,323, ,
3, ,319, ,
1, ,319, ,
1, ,318, ,
1, ,321, ,
1, ,318, ,
0, ,319, ,
3, ,321, ,
1, ,323, ,
1, ,317, ,
3, ,320, ,
1, ,319, ,
1, ,321, ,
3, ,318, ,
1, ,321, ,
1, ,318, ,
1, ,320, ,
1, ,319, ,
0, ,319, ,
3, ,319, ,
1, ,321, ,
1, ,318, ,
1, ,320, ,
1, ,319, ,
0, ,319, ,
3, ,319, ,
1, ,321, ,
1, ,318, ,
3, ,321, ,
1, ,319, ,
0, ,320, ,
3, ,320, ,
1, ,320, ,
1, ,318, ,
1, ,320, ,
1, ,319, ,
1, ,319, ,
1, ,319, ,
1, ,320, ,
1, ,319, ,
3, ,320, ,
1, ,319, ,
0, ,319, ,
3, ,319, ,
1, ,320, ,
1, ,318, ,
3, ,320, ,
1, ,318, ,
0, ,319, ,
3, ,319, ,
1, ,319, ,
1, ,319, ,
3, ,321, ,
1, ,319, ,
0, ,320, ,
1, ,320, ,
1, ,323, ,
1, ,319, ,
3, ,321, ,
1, ,320, ,
1, ,320, ,
3, ,320, ,
1, ,319, ,
1, ,319, ,
3, ,319, ,
1, ,317, ,
0, ,317, ,
3, ,317, ,
1, ,319, ,
1, ,318, ,
1, ,320, ,
1, ,321, ,
0, ,323, ,
3, ,321, ,
1, ,321, ,
1, ,318, ,
3, ,320, ,
3, ,319, ,
0, ,320, ,
1, ,319, ,
1, ,319, ,
1, ,317, ,
1, ,319, ,
1, ,319, ,
0, ,320, ,
3, ,319, ,
1, ,321, ,
1, ,320, ,
3, ,320, ,
1, ,319, ,
0, ,319, ,
1, ,320, ,
1, ,321, ,
0, ,319, ,
3, ,320, ,
1, ,319, ,
0, ,319, ,
3, ,319, ,
1, ,320, ,
1, ,319, ,
1, ,318, ,
1, ,318, ,
0, ,319, ,
3, ,319, ,
1, ,320, ,
1, ,318, ,
3, ,319, ,
1, ,319, ,
0, ,320, ,
3, ,319, ,
1, ,321, ,
1, ,320, ,
1, ,321, ,
1, ,320, ,
0, ,321, ,
1, ,320, ,
1, ,321, ,
1, ,318, ,
3, ,319, ,
1, ,319, ,
0, ,319, ,
3, ,318, ,
1, ,320, ,
1, ,318, ,
3, ,319, ,
1, ,319, ,
1, ,319, ,
3, ,319, ,
1, ,321, ,
1, ,319, ,
1, ,320, ,
1, ,320, ,
0, ,320, ,
1, ,319, ,
1, ,319, ,
1, ,318, ,
3, ,320, ,
3, ,320, ,
1, ,319, ,
3, ,319, ,
0, ,321, ,
1, ,318, ,
1, ,320, ,
1, ,320, ,
0, ,320, ,
1, ,320, ,
1, ,323, ,
0, ,320, ,
1, ,320, ,
1, ,320, ,
0, ,321, ,
3, ,319, ,
1, ,320, ,
1, ,318, ,
1, ,318, ,
1, ,319, ,
0, ,319, ,
3, ,318, ,
1, ,318, ,
1, ,317, ,
1, ,319, ,
1, ,319, ,
0, ,320, ,
3, ,320, ,
1, ,323, ,
1, ,318, ,
3, ,321, ,
1, ,320, ,
0, ,320, ,
1, ,320, ,
1, ,321, ,
1, ,320, ,
1, ,321, ,
1, ,319, ,
0, ,319, ,
1, ,319, ,
1, ,321, ,
1, ,317, ,
3, ,319, ,
1, ,319, ,
0, ,320, ,
3, ,319, ,
1, ,319, ,
1, ,320, ,
3, ,321, ,
1, ,320, ,
0, ,320, ,
1, ,319, ,
1, ,321, ,
1, ,318, ,
1, ,319, ,
1, ,319, ,
0, ,319, ,
3, ,319, ,
1, ,319, ,
1, ,318, ,
3, ,320, ,
1, ,319, ,
0, ,319, ,
3, ,319, ,
1, ,319, ,
1, ,318, ,
3, ,321, ,
1, ,320, ,
0, ,321, ,
3, ,320, ,
1, ,321, ,
1, ,318, ,
1, ,319, ,
1, ,319, ,
0, ,319, ,
3, ,319, ,
1, ,319, ,
1, ,318, ,
1, ,319, ,
1, ,319, ,
0, ,320, ,
3, ,318, ,
1, ,320, ,
1, ,318, ,
3, ,321, ,
1, ,320, ,
0, ,320, ,
1, ,319, ,
1, ,321, ,
1, ,317, ,
3, ,319, ,
1, ,319, ,
0, ,320, ,
3, ,318, ,
1, ,320, ,
1, ,318, ,
3, ,319, ,
1, ,318, ,
0, ,318, ,
1, ,319, ,
1, ,320, ,
1, ,318, ,
1, ,319, ,
1, ,319, ,
0, ,320, ,
3, ,319, ,
1, ,319, ,
1, ,319, ,
1, ,320, ,
1, ,318, ,
0, ,319, ,
3, ,319, ,
1, ,319, ,
1, ,317, ,
1, ,320, ,
1, ,320, ,
0, ,319, ,
3, ,319, ,
1, ,320, ,
1, ,319, ,
3, ,321, ,
1, ,319, ,
0, ,319, ,
3, ,319, ,
1, ,321, ,
1, ,318, ,
1, ,320, ,
1, ,319, ,
0, ,319, ,
3, ,318, ,
1, ,319, ,
1, ,318, ,
1, ,319, ,
1, ,318, ,
0, ,319, ,
1, ,319, ,
1, ,320, ,
1, ,318, ,
1, ,320, ,
1, ,320, ,
0, ,320, ,
1, ,319, ,
1, ,319, ,
1, ,319, ,
3, ,321, ,
1, ,319, ,
0, ,319, ,
1, ,319, ,
1, ,320, ,
0, ,318, ,
1, ,319, ,
1, ,319, ,
0, ,319, ,
1, ,318, ,
1, ,319, ,
0, ,317, ,
1, ,320, ,
1, ,319, ,
0, ,321, ,
1, ,320, ,
1, ,320, ,
1, ,318, ,
3, ,319, ,
1, ,319, ,
0, ,319, ,
3, ,318, ,
1, ,320, ,
1, ,319, ,
1, ,320, ,
1, ,319, ,
0, ,319, ,
1, ,319, ,
1, ,321, ,
0, ,318, ,
1, ,320, ,
1, ,319, ,
0, ,320, ,
1, ,319, ,
1, ,320, ,
1, ,318, ,
1, ,321, ,
1, ,319, ,
0, ,319, ,
3, ,319, ,
1, ,321, ,
1, ,318, ,
3, ,319, ,
1, ,320, ,
0, ,320, ,
3, ,318, ,
1, ,320, ,
1, ,319, ,
1, ,321, ,
1, ,318, ,
0, ,320, ,
3, ,319, ,
1, ,320, ,
1, ,319, ,
1, ,319, ,
1, ,320, ,
0, ,319, ,
1, ,319, ,
1, ,319, ,
1, ,319, ,
3, ,320, ,
1, ,319, ,
0, ,319, ,
1, ,319, ,
1, ,321, ,
1, ,318, ,
3, ,320, ,
1, ,319, ,
0, ,320, ,
3, ,319, ,
1, ,321, ,
1, ,320, ,
3, ,320, ,
1, ,319, ,
0, ,319, ,
1, ,319, ,
1, ,320, ,
1, ,318, ,
1, ,319, ,
1, ,321, ,
0, ,319, ,
1, ,319, ,
1, ,319, ,
1, ,318, ,
1, ,320, ,
1, ,319, ,
0, ,319, ,
1, ,319, ,
1, ,321, ,
1, ,319, ,
3, ,319, ,
1, ,320, ,
1, ,321, ,
1, ,319, ,
1, ,320, ,
1, ,319, ,
1, ,319, ,
1, ,317, ,
0, ,315, ,
3, ,316, ,
1, ,323, ,
1, ,325, ,
1, ,326, ,
1, ,321, ,
0, ,316, ,
1, ,315, ,
1, ,319, ,
1, ,320, ,
3, ,321, ,
1, ,319, ,
0, ,320, ,
1, ,318, ,
1, ,319, ,
1, ,318, ,
1, ,320, ,
1, ,319, ,
0, ,319, ,
1, ,318, ,
1, ,319, ,
1, ,319, ,
1, ,320, ,
1, ,320, ,
0, ,318, ,
1, ,319, ,
1, ,319, ,
0, ,318, ,
1, ,319, ,
1, ,319, ,
0, ,319, ,
1, ,318, ,
1, ,319, ,
0, ,318, ,
1, ,320, ,
1, ,320, ,
0, ,319, ,
1, ,318, ,
1, ,320, ,
1, ,318, ,
1, ,319, ,
1, ,319, ,
0, ,319, ,
1, ,319, ,
1, ,319, ,
0, ,319, ,
1, ,319, ,
1, ,319, ,
0, ,318, ,
1, ,319, ,
1, ,320, ,
1, ,318, ,
1, ,319, ,
1, ,319, ,
0, ,320, ,
1, ,319, ,
1, ,320, ,
1, ,319, ,
1, ,320, ,
1, ,318, ,
0, ,319, ,
1, ,319, ,
1, ,321, ,
1, ,318, ,
1, ,319, ,
1, ,319, ,
0, ,320, ,
1, ,319, ,
1, ,320, ,
1, ,319, ,
1, ,319, ,
1, ,318, ,
0, ,319, ,
1, ,319, ,
1, ,320, ,
1, ,317, ,
3, ,320, ,
1, ,319, ,
0, ,320, ,
1, ,318, ,
1, ,319, ,
1, ,319, ,
3, ,320, ,
1, ,320, ,
0, ,319, ,
1, ,319, ,
1, ,320, ,
1, ,318, ,
1, ,319, ,
1, ,319, ,
0, ,319, ,
3, ,319, ,
1, ,321, ,
1, ,319, ,
3, ,319, ,
1, ,318, ,
0, ,320, ,
1, ,320, ,
1, ,321, ,
0, ,318, ,
1, ,319, ,
1, ,319, ,
0, ,319, ,
1, ,319, ,
1, ,320, ,
1, ,319, ,
3, ,321, ,
1, ,320, ,
0, ,320, ,
3, ,319, ,
1, ,321, ,
1, ,318, ,
1, ,320, ,
1, ,319, ,
0, ,320, ,
3, ,314, ,
1, ,323, ,
1, ,326, ,
1, ,324, ,
1, ,317, ,
0, ,317, ,
3, ,320, ,
1, ,323, ,
1, ,319, ,
1, ,319, ,
1, ,321, ,
0, ,321, ,
1, ,319, ,
1, ,319, ,
1, ,320, ,
1, ,321, ,
1, ,319, ,
0, ,319, ,
1, ,319, ,
1, ,321, ,
1, ,319, ,
1, ,320, ,
1, ,320, ,
0, ,319, ,
1, ,319, ,
1, ,320, ,
0, ,320, ,
1, ,323, ,
1, ,320, ,
0, ,320, ,
1, ,319, ,
1, ,321, ,
1, ,318, ,
1, ,321, ,
1, ,323, ,
0, ,320, ,
1, ,320, ,
0, ,320, ,
1, ,318, ,
1, ,319, ,
1, ,319, ,
0, ,319, ,
1, ,319, ,
1, ,321, ,
0, ,318, ,
1, ,319, ,
1, ,320, ,
0, ,320, ,
1, ,319, ,
1, ,321, ,
1, ,319, ,
1, ,321, ,
0, ,319, ,
0, ,320, ,
1, ,320, ,
1, ,321, ,
0, ,319, ,
1, ,319, ,
1, ,319, ,
0, ,320, ,
3, ,320, ,
1, ,321, ,
1, ,319, ,
1, ,320, ,
1, ,319, ,
0, ,320, ,
1, ,319, ,
1, ,321, ,
0, ,318, ,
3, ,319, ,
1, ,319, ,
0, ,320, ,
1, ,319, ,
1, ,319, ,
1, ,319, ,
1, ,320, ,
1, ,319, ,
0, ,319, ,
1, ,319, ,
1, ,321, ,
1, ,318, ,
1, ,319, ,
1, ,319, ,
0, ,320, ,
1, ,319, ,
1, ,321, ,
1, ,319, ,
1, ,319, ,
1, ,319, ,
0, ,319, ,
1, ,319, ,
1, ,321, ,
1, ,318, ,
1, ,319, ,
1, ,320, ,
0, ,320, ,
1, ,318, ,
0, ,320, ,
1, ,320, ,
3, ,320, ,
1, ,319, ,
0, ,319, ,
1, ,319, ,
1, ,321, ,
0, ,318, ,
1, ,319, ,
1, ,320, ,
0, ,320, ,
1, ,320, ,
1, ,321, ,
0, ,320, ,
1, ,321, ,
1, ,318, ,
0, ,320, ,
1, ,319, ,
1, ,321, ,
1, ,319, ,
1, ,319, ,
1, ,321, ,
0, ,320, ,
3, ,319, ,
1, ,319, ,
1, ,320, ,
3, ,320, ,
1, ,318, ,
-1, ,320, ,
1, ,320, ,
0, ,320, ,
0, ,318, ,
1, ,321, ,
0, ,319, ,
0, ,320, ,
3, ,318, ,
1, ,320, ,
0, ,319, ,
1, ,321, ,
1, ,319, ,
0, ,320, ,
3, ,320, ,
1, ,321, ,
1, ,318, ,
1, ,320, ,
0, ,319, ,
0, ,321, ,
3, ,318, ,
1, ,320, ,
1, ,319, ,
1, ,321, ,
1, ,319, ,
0, ,320, ,
1, ,319, ,
1, ,321, ,
1, ,318, ,
1, ,320, ,
1, ,320, ,
0, ,320, ,
1, ,319, ,
1, ,320, ,
1, ,319, ,
1, ,321, ,
1, ,319, ,
0, ,320, ,
1, ,320, ,
1, ,321, ,
0, ,319, ,
1, ,320, ,
1, ,320, ,
0, ,320, ,
1, ,319, ,
1, ,320, ,
1, ,319, ,
1, ,320, ,
1, ,319, ,
0, ,319, ,
1, ,319, ,
1, ,321, ,
1, ,317, ,
1, ,319, ,
1, ,319, ,
0, ,320, ,
1, ,320, ,
0, ,320, ,
1, ,318, ,
1, ,319, ,
1, ,319, ,
0, ,320, ,
1, ,319, ,
1, ,321, ,
1, ,318, ,
1, ,320, ,
1, ,320, ,
0, ,320, ,
3, ,319, ,
1, ,320, ,
0, ,318, ,
1, ,320, ,
1, ,319, ,
0, ,320, ,
1, ,319, ,
1, ,320, ,
0, ,319, ,
1, ,319, ,
1, ,320, ,
0, ,320, ,
1, ,319, ,
1, ,321, ,
1, ,319, ,
1, ,321, ,
1, ,319, ,
0, ,319, ,
3, ,319, ,
1, ,319, ,
1, ,318, ,
1, ,321, ,
1, ,319, ,
0, ,320, ,
1, ,318, ,
1, ,320, ,
0, ,319, ,
1, ,321, ,
1, ,320, ,
0, ,319, ,
1, ,320, ,
1, ,323, ,
1, ,318, ,
3, ,320, ,
1, ,319, ,
0, ,320, ,
3, ,318, ,
1, ,321, ,
1, ,318, ,
1, ,321, ,
1, ,320, ,
0, ,321, ,
1, ,320, ,
1, ,320, ,
1, ,318, ,
1, ,319, ,
1, ,319, ,
0, ,319, ,
1, ,319, ,
1, ,321, ,
1, ,320, ,
3, ,320, ,
1, ,320, ,
0, ,319, ,
1, ,319, ,
1, ,320, ,
1, ,318, ,
1, ,320, ,
1, ,319, ,
0, ,320, ,
1, ,319, ,
1, ,321, ,
0, ,319, ,
1, ,319, ,
1, ,319, ,
0, ,319, ,
1, ,319, ,
1, ,321, ,
0, ,318, ,
1, ,320, ,
1, ,320, ,
0, ,320, ,
3, ,318, ,
1, ,321, ,
0, ,319, ,
1, ,321, ,
1, ,319, ,
0, ,319, ,
1, ,321, ,
1, ,321, ,
0, ,318, ,
1, ,319, ,
1, ,319, ,
0, ,320, ,
1, ,319, ,
1, ,321, ,
1, ,320, ,
1, ,320, ,
1, ,318, ,
0, ,320, ,
1, ,319, ,
1, ,320, ,
0, ,318, ,
1, ,319, ,
1, ,319, ,
0, ,320, ,
1, ,318, ,
0, ,320, ,
0, ,319, ,
1, ,320, ,
1, ,320, ,
0, ,319, ,
1, ,319, ,
1, ,320, ,
0, ,319, ,
1, ,319, ,
1, ,319, ,
0, ,321, ,
1, ,319, ,
0, ,320, ,
1, ,318, ,
1, ,320, ,
1, ,319, ,
0, ,319, ,
1, ,319, ,
1, ,320, ,
0, ,318, ,
1, ,320, ,
0, ,319, ,
0, ,320, ,
1, ,319, ,
1, ,321, ,
1, ,320, ,
3, ,321, ,
1, ,319, ,
0, ,319, ,
3, ,319, ,
1, ,321, ,
1, ,319, ,
1, ,321, ,
1, ,320, ,
0, ,321, ,
3, ,318, ,
1, ,321, ,
1, ,320, ,
1, ,321, ,
1, ,319, ,
0, ,320, ,
1, ,319, ,
1, ,321, ,
1, ,318, ,
1, ,319, ,
1, ,319, ,
0, ,320, ,
1, ,319, ,
0, ,320, ,
1, ,319, ,
1, ,320, ,
1, ,319, ,
0, ,319, ,
1, ,319, ,
1, ,321, ,
0, ,318, ,
1, ,319, ,
1, ,319, ,
0, ,319, ,
1, ,318, ,
1, ,319, ,
1, ,318, ,
1, ,321, ,
1, ,319, ,
0, ,320, ,
1, ,319, ,
1, ,320, ,
1, ,318, ,
1, ,319, ,
1, ,319, ,
0, ,320, ,
3, ,319, ,
1, ,321, ,
1, ,319, ,
1, ,320, ,
1, ,319, ,
0, ,320, ,
3, ,319, ,
1, ,320, ,
0, ,318, ,
1, ,320, ,
1, ,319, ,
0, ,320, ,
1, ,318, ,
1, ,320, ,
1, ,319, ,
3, ,319, ,
1, ,319, ,
0, ,319, ,
3, ,319, ,
1, ,321, ,
1, ,317, ,
1, ,320, ,
1, ,319, ,
0, ,319, ,
1, ,319, ,
0, ,320, ,
1, ,319, ,
1, ,320, ,
1, ,319, ,
0, ,319, ,
1, ,319, ,
1, ,321, ,
0, ,317, ,
1, ,319, ,
1, ,320, ,
0, ,319, ,
1, ,318, ,
0, ,319, ,
1, ,318, ,
1, ,320, ,
1, ,319, ,
0, ,319, ,
1, ,319, ,
1, ,320, ,
0, ,318, ,
1, ,321, ,
1, ,320, ,
0, ,321, ,
1, ,319, ,
1, ,320, ,
1, ,318, ,
1, ,319, ,
1, ,318, ,
0, ,319, ,
1, ,318, ,
1, ,319, ,
0, ,317, ,
1, ,319, ,
1, ,320, ,
0, ,321, ,
1, ,320, ,
1, ,321, ,
1, ,320, ,
1, ,321, ,
1, ,320, ,
0, ,319, ,
1, ,319, ,
1, ,320, ,
1, ,318, ,
1, ,319, ,
1, ,318, ,
0, ,318, ,
1, ,318, ,
1, ,319, ,
0, ,318, ,
1, ,319, ,
1, ,319, ,
0, ,320, ,
1, ,319, ,
1, ,320, ,
0, ,318, ,
1, ,321, ,
0, ,321, ,
0, ,320, ,
1, ,318, ,
1, ,321, ,
1, ,321, ,
1, ,321, ,
1, ,320, ,
0, ,320, ,
1, ,319, ,
1, ,321, ,
1, ,319, ,
1, ,321, ,
1, ,319, ,
0, ,318, ,
1, ,318, ,
1, ,319, ,
1, ,317, ,
1, ,320, ,
1, ,318, ,
0, ,318, ,
1, ,319, ,
1, ,320, ,
1, ,318, ,
1, ,321, ,
1, ,319, ,
0, ,319, ,
3, ,319, ,
1, ,320, ,
0, ,318, ,
1, ,321, ,
1, ,319, ,
0, ,320, ,
1, ,321, ,
1, ,323, ,
1, ,320, ,
1, ,321, ,
1, ,320, ,
0, ,321, ,
1, ,320, ,
1, ,321, ,
1, ,319, ,
1, ,320, ,
1, ,319, ,
0, ,319, ,
1, ,319, ,
1, ,320, ,
1, ,318, ,
1, ,318, ,
1, ,319, ,
0, ,318, ,
1, ,318, ,
1, ,319, ,
0, ,319, ,
1, ,320, ,
1, ,319, ,
0, ,320, ,
1, ,320, ,
1, ,321, ,
1, ,319, ,
1, ,320, ,
1, ,321, ,
0, ,320, ,
1, ,319, ,
1, ,319, ,
1, ,319, ,
1, ,320, ,
1, ,319, ,
0, ,319, ,
1, ,320, ,
1, ,321, ,
0, ,320, ,
1, ,320, ,
1, ,320, ,
0, ,320, ,
1, ,319, ,
0, ,320, ,
1, ,318, ,
1, ,319, ,
1, ,318, ,
0, ,318, ,
1, ,319, ,
1, ,321, ,
0, ,317, ,
1, ,319, ,
1, ,319, ,
0, ,319, ,
1, ,318, ,
1, ,321, ,
0, ,320, ,
1, ,320, ,
1, ,319, ,
0, ,320, ,
1, ,320, ,
0, ,323, ,
0, ,319, ,
1, ,321, ,
1, ,319, ,
0, ,320, ,
3, ,319, ,
1, ,319, ,
0, ,319, ,
1, ,319, ,
1, ,319, ,
0, ,319, ,
1, ,318, ,
1, ,320, ,
1, ,317, ,
1, ,319, ,
1, ,319, ,
0, ,320, ,
1, ,320, ,
1, ,320, ,
0, ,320, ,
1, ,321, ,
1, ,319, ,
0, ,319, ,
1, ,319, ,
1, ,321, ,
1, ,318, ,
1, ,319, ,
0, ,320, ,
0, ,320, ,
1, ,319, ,
1, ,319, ,
1, ,319, ,
1, ,320, ,
1, ,320, ,
0, ,320, ,
1, ,319, ,
0, ,321, ,
0, ,320, ,
1, ,320, ,
1, ,319, ,
0, ,320, ,
1, ,318, ,
0, ,320, ,
0, ,318, ,
1, ,320, ,
1, ,319, ,
0, ,319, ,
1, ,320, ,
1, ,323, ,
0, ,318, ,
1, ,321, ,
1, ,321, ,
0, ,320, ,
1, ,319, ,
1, ,320, ,
0, ,320, ,
1, ,321, ,
0, ,319, ,
0, ,319, ,
1, ,319, ,
1, ,320, ,
1, ,318, ,
1, ,320, ,
1, ,318, ,
0, ,319, ,
3, ,319, ,
1, ,319, ,
1, ,320, ,
1, ,320, ,
1, ,320, ,
0, ,320, ,
1, ,319, ,
1, ,320, ,
0, ,318, ,
1, ,319, ,
1, ,320, ,
0, ,320, ,
3, ,319, ,
0, ,320, ,
1, ,319, ,
1, ,320, ,
1, ,319, ,
0, ,320, ,
3, ,319, ,
1, ,320, ,
0, ,318, ,
1, ,320, ,
1, ,319, ,
0, ,319, ,
1, ,320, ,
0, ,323, ,
0, ,319, ,
1, ,320, ,
1, ,319, ,
0, ,319, ,
1, ,319, ,
1, ,321, ,
0, ,319, ,
1, ,319, ,
1, ,319, ,
0, ,320, ,
1, ,318, ,
0, ,319, ,
0, ,318, ,
1, ,320, ,
1, ,319, ,
0, ,319, ,
1, ,320, ,
1, ,321, ,
0, ,320, ,
1, ,321, ,
1, ,320, ,
0, ,320, ,
1, ,320, ,
0, ,321, ,
1, ,319, ,
1, ,320, ,
1, ,319, ,
0, ,319, ,
1, ,319, ,
1, ,320, ,
0, ,319, ,
1, ,319, ,
1, ,318, ,
0, ,319, ,
1, ,318, ,
0, ,319, ,
0, ,319, ,
3, ,321, ,
1, ,319, ,
0, ,320, ,
1, ,319, ,
0, ,321, ,
0, ,317, ,
1, ,319, ,
1, ,319, ,
0, ,321, ,
3, ,320, ,
0, ,321, ,
0, ,319, ,
1, ,320, ,
1, ,319, ,
0, ,318, ,
1, ,319, ,
1, ,321, ,
0, ,318, ,
1, ,319, ,
1, ,319, ,
0, ,320, ,
1, ,318, ,
0, ,320, ,
1, ,318, ,
1, ,320, ,
1, ,319, ,
0, ,320, ,
1, ,319, ,
1, ,320, ,
0, ,318, ,
1, ,319, ,
1, ,319, ,
0, ,319, ,
1, ,318, ,
1, ,319, ,
0, ,320, ,
1, ,320, ,
1, ,319, ,
0, ,319, ,
1, ,320, ,
1, ,321, ,
1, ,318, ,
1, ,319, ,
1, ,320, ,
0, ,319, ,
1, ,318, ,
1, ,321, ,
1, ,320, ,
1, ,320, ,
1, ,319, ,
0, ,319, ,
1, ,319, ,
0, ,321, ,
0, ,319, ,
1, ,320, ,
1, ,319, ,
0, ,320, ,
1, ,319, ,
0, ,321, ,
0, ,318, ,
1, ,320, ,
1, ,319, ,
0, ,319, ,
1, ,319, ,
1, ,321, ,
1, ,318, ,
1, ,320, ,
0, ,318, ,
0, ,319, ,
3, ,318, ,
0, ,319, ,
0, ,319, ,
1, ,321, ,
1, ,320, ,
0, ,319, ,
1, ,320, ,
1, ,321, ,
0, ,319, ,
1, ,319, ,
1, ,319, ,
0, ,319, ,
3, ,319, ,
1, ,320, ,
1, ,318, ,
1, ,321, ,
1, ,319, ,
0, ,319, ,
1, ,319, ,
1, ,321, ,
1, ,318, ,
1, ,320, ,
1, ,320, ,
0, ,320, ,
1, ,319, ,
1, ,319, ,
1, ,320, ,
1, ,319, ,
1, ,318, ,
0, ,320, ,
1, ,320, ,
1, ,321, ,
1, ,317, ,
3, ,319, ,
1, ,319, ,
0, ,320, ,
1, ,319, ,
1, ,320, ,
1, ,319, ,
1, ,319, ,
1, ,318, ,
0, ,319, ,
1, ,320, ,
1, ,321, ,
1, ,318, ,
3, ,320, ,
1, ,319, ,
0, ,320, ,
1, ,318, ,
0, ,319, ,
0, ,319, ,
1, ,321, ,
1, ,319, ,
0, ,319, ,
1, ,319, ,
0, ,321, ,
0, ,318, ,
1, ,319, ,
1, ,319, ,
0, ,319, ,
1, ,319, ,
1, ,320, ,
0, ,319, ,
1, ,319, ,
1, ,319, ,
0, ,319, ,
1, ,321, ,
1, ,320, ,
0, ,318, ,
1, ,320, ,
0, ,320, ,
0, ,320, ,
1, ,320, ,
1, ,320, ,
1, ,319, ,
1, ,320, ,
1, ,319, ,
0, ,319, ,
1, ,319, ,
1, ,321, ,
0, ,318, ,
1, ,319, ,
1, ,319, ,
0, ,320, ,
1, ,318, ,
1, ,321, ,
1, ,319, ,
1, ,320, ,
1, ,319, ,
0, ,320, ,
1, ,320, ,
0, ,321, ,
1, ,318, ,
1, ,320, ,
1, ,320, ,
0, ,320, ,
1, ,320, ,
1, ,321, ,
0, ,319, ,
1, ,319, ,
1, ,319, ,
0, ,320, ,
1, ,321, ,
1, ,321, ,
1, ,319, ,
1, ,320, ,
76, ,321, ,
98, ,320, ,
65, ,319, ,
37, ,321, ,
20, ,320, ,
15, ,320, ,
11, ,319, ,
9, ,319, ,
8, ,319, ,
5, ,321, ,
4, ,318, ,
5, ,319, ,
4, ,319, ,
3, ,320, ,
4, ,319, ,
3, ,320, ,
3, ,319, ,
4, ,320, ,
3, ,318, ,
3, ,319, ,
4, ,320, ,
3, ,321, ,
3, ,318, ,
4, ,319, ,
4, ,319, ,
1, ,320, ,
4, ,320, ,
3, ,320, ,
3, ,319, ,
4, ,320, ,
3, ,319, ,
1, ,320, ,
4, ,320, ,
3, ,321, ,
3, ,316, ,
4, ,316, ,
4, ,316, ,
3, ,320, ,
4, ,323, ,
3, ,327, ,
3, ,323, ,
4, ,317, ,
4, ,315, ,
3, ,318, ,
4, ,320, ,
3, ,321, ,
3, ,319, ,
4, ,320, ,
4, ,319, ,
3, ,319, ,
4, ,319, ,
3, ,321, ,
3, ,319, ,
4, ,320, ,
4, ,319, ,
1, ,318, ,
4, ,318, ,
3, ,320, ,
3, ,318, ,
4, ,319, ,
3, ,319, ,
1, ,319, ,
4, ,319, ,
3, ,319, ,
3, ,319, ,
4, ,321, ,
3, ,319, ,
3, ,319, ,
4, ,319, ,
3, ,321, ,
3, ,319, ,
4, ,319, ,
3, ,318, ,
1, ,321, ,
4, ,319, ,
1, ,319, ,
3, ,319, ,
4, ,320, ,
3, ,319, ,
3, ,319, ,
4, ,319, ,
1, ,321, ,
3, ,318, ,
4, ,319, ,
3, ,319, ,
1, ,319, ,
4, ,319, ,
3, ,320, ,
3, ,319, ,
4, ,319, ,
3, ,318, ,
1, ,318, ,
4, ,320, ,
1, ,321, ,
3, ,319, ,
4, ,318, ,
3, ,319, ,
1, ,319, ,
3, ,319, ,
1, ,320, ,
3, ,319, ,
3, ,319, ,
3, ,318, ,
1, ,319, ,
4, ,319, ,
3, ,320, ,
3, ,317, ,
4, ,319, ,
3, ,319, ,
1, ,319, ,
4, ,319, ,
3, ,321, ,
3, ,318, ,
3, ,319, ,
3, ,318, ,
1, ,318, ,
3, ,319, ,
1, ,321, ,
3, ,318, ,
3, ,319, ,
3, ,318, ,
1, ,320, ,
4, ,318, ,
1, ,321, ,
3, ,318, ,
4, ,320, ,
3, ,319, ,
1, ,318, ,
3, ,319, ,
3, ,319, ,
3, ,317, ,
3, ,319, ,
3, ,319, ,
1, ,320, ,
3, ,319, ,
3, ,320, ,
1, ,318, ,
3, ,320, ,
3, ,318, ,
3, ,319, ,
4, ,319, ,
3, ,321, ,
3, ,320, ,
4, ,321, ,
3, ,319, ,
3, ,318, ,
4, ,319, ,
3, ,320, ,
3, ,319, ,
3, ,321, ,
3, ,320, ,
1, ,321, ,
4, ,319, ,
3, ,320, ,
3, ,318, ,
4, ,320, ,
3, ,320, ,
1, ,321, ,
4, ,320, ,
1, ,320, ,
3, ,318, ,
3, ,321, ,
3, ,319, ,
1, ,320, ,
3, ,319, ,
3, ,321, ,
3, ,320, ,
3, ,319, ,
3, ,320, ,
1, ,320, ,
3, ,318, ,
1, ,320, ,
1, ,320, ,
4, ,319, ,
3, ,318, ,
1, ,319, ,
4, ,320, ,
1, ,320, ,
3, ,318, ,
3, ,320, ,
3, ,320, ,
1, ,320, ,
3, ,319, ,
3, ,320, ,
