src/vary_led_1562/temp0008020.CSV

Format,1.0B,
Memory Length,10000,Memory Length,10000,
IntpDistance,0,IntpDistance,0,
Trigger Address,5159,Trigger Address,5159,
Trigger Level,3.000E-01,Trigger Level,3.000E-01,
Source,CH1,Source,CH2,
Vertical Units,V,Vertical Units,V,
Vertical Units Div,0,Vertical Units Div,0,
Vertical Units Extend Div,16,Vertical Units Extend Div,16,
Label,,Label,,
Probe Type,0,Probe Type,0,
Probe Ratio,1.000e+01,Probe Ratio,1.000e+00,
Vertical Scale,5.000e-01,Vertical Scale,2.000e-01,
Vertical Position,-1.780e+00,Vertical Position,-2.240e+00,
Horizontal Units,S,Horizontal Units,S,
Horizontal Scale,2.000E-05,Horizontal Scale,2.000E-05,
Horizontal Position,-3.200E-06,Horizontal Position,-3.200E-06,
Horizontal Mode,Main,Horizontal Mode,Main,
SincET Mode,Real Time,SincET Mode,Real Time,
Sampling Period,2.000e-08,Sampling Period,2.000e-08,
Horizontal Old Scale,2.000E-05,Horizontal Old Scale,2.000E-05,
Horizontal Old Position,-3.200E-06,Horizontal Old Position,-3.200E-06,
Firmware,V1.23,Firmware,V1.23,
Mode,Fast,Mode,Fast,
Waveform Data,,Waveform Data,,
0, ,332, ,
0, ,331, ,
1, ,332, ,
1, ,331, ,
0, ,333, ,
1, ,330, ,
0, ,331, ,
0, ,331, ,
1, ,333, ,
1, ,331, ,
0, ,332, ,
1, ,332, ,
0, ,332, ,
0, ,331, ,
1, ,332, ,
1, ,330, ,
0, ,332, ,
3, ,331, ,
0, ,332, ,
0, ,331, ,
1, ,332, ,
1, ,331, ,
0, ,331, ,
3, ,332, ,
0, ,332, ,
0, ,331, ,
1, ,332, ,
1, ,332, ,
0, ,332, ,
1, ,331, ,
0, ,331, ,
0, ,331, ,
1, ,333, ,
1, ,331, ,
0, ,332, ,
3, ,332, ,
0, ,332, ,
0, ,330, ,
1, ,332, ,
1, ,331, ,
0, ,332, ,
3, ,331, ,
0, ,330, ,
0, ,332, ,
1, ,333, ,
1, ,331, ,
0, ,332, ,
3, ,330, ,
0, ,331, ,
0, ,331, ,
1, ,333, ,
1, ,331, ,
0, ,332, ,
1, ,331, ,
0, ,332, ,
0, ,332, ,
1, ,333, ,
1, ,331, ,
0, ,331, ,
1, ,331, ,
0, ,332, ,
0, ,331, ,
1, ,333, ,
1, ,331, ,
0, ,333, ,
1, ,331, ,
0, ,331, ,
0, ,331, ,
1, ,333, ,
1, ,330, ,
0, ,332, ,
1, ,332, ,
0, ,332, ,
0, ,331, ,
1, ,332, ,
1, ,331, ,
0, ,332, ,
1, ,331, ,
0, ,332, ,
0, ,331, ,
1, ,333, ,
1, ,330, ,
0, ,332, ,
1, ,330, ,
0, ,331, ,
0, ,330, ,
1, ,332, ,
1, ,332, ,
0, ,333, ,
3, ,332, ,
0, ,331, ,
0, ,331, ,
1, ,332, ,
1, ,329, ,
0, ,332, ,
1, ,331, ,
0, ,332, ,
0, ,332, ,
1, ,333, ,
1, ,331, ,
0, ,332, ,
1, ,330, ,
0, ,331, ,
0, ,331, ,
1, ,332, ,
1, ,330, ,
0, ,332, ,
1, ,332, ,
0, ,332, ,
88, ,332, ,
94, ,332, ,
64, ,331, ,
36, ,333, ,
22, ,331, ,
14, ,331, ,
11, ,331, ,
10, ,333, ,
6, ,330, ,
4, ,331, ,
5, ,332, ,
5, ,331, ,
4, ,330, ,
4, ,332, ,
3, ,332, ,
3, ,332, ,
4, ,332, ,
3, ,331, ,
3, ,332, ,
4, ,333, ,
4, ,331, ,
1, ,332, ,
4, ,332, ,
1, ,332, ,
3, ,331, ,
4, ,333, ,
4, ,331, ,
3, ,333, ,
4, ,330, ,
1, ,331, ,
3, ,332, ,
4, ,333, ,
4, ,330, ,
1, ,332, ,
4, ,332, ,
1, ,332, ,
3, ,331, ,
4, ,333, ,
4, ,331, ,
1, ,332, ,
4, ,330, ,
3, ,332, ,
3, ,331, ,
4, ,333, ,
4, ,331, ,
1, ,331, ,
4, ,331, ,
3, ,332, ,
3, ,331, ,
4, ,333, ,
4, ,331, ,
1, ,333, ,
4, ,331, ,
3, ,332, ,
3, ,331, ,
4, ,333, ,
4, ,331, ,
1, ,332, ,
4, ,332, ,
3, ,331, ,
3, ,331, ,
4, ,332, ,
3, ,331, ,
1, ,332, ,
4, ,331, ,
3, ,331, ,
3, ,331, ,
3, ,333, ,
3, ,330, ,
1, ,332, ,
4, ,332, ,
3, ,332, ,
3, ,331, ,
4, ,332, ,
3, ,331, ,
1, ,332, ,
4, ,331, ,
1, ,332, ,
3, ,331, ,
4, ,333, ,
3, ,331, ,
1, ,332, ,
4, ,331, ,
3, ,332, ,
3, ,331, ,
3, ,333, ,
3, ,331, ,
1, ,332, ,
4, ,330, ,
1, ,332, ,
3, ,332, ,
3, ,333, ,
3, ,331, ,
1, ,332, ,
4, ,332, ,
3, ,332, ,
3, ,331, ,
3, ,333, ,
3, ,331, ,
1, ,332, ,
4, ,331, ,
1, ,331, ,
1, ,332, ,
3, ,333, ,
3, ,330, ,
1, ,332, ,
4, ,331, ,
1, ,332, ,
3, ,331, ,
3, ,332, ,
3, ,331, ,
1, ,333, ,
4, ,330, ,
3, ,331, ,
3, ,330, ,
3, ,333, ,
3, ,330, ,
1, ,331, ,
4, ,332, ,
1, ,332, ,
3, ,331, ,
3, ,333, ,
3, ,331, ,
1, ,331, ,
3, ,330, ,
3, ,331, ,
3, ,331, ,
3, ,333, ,
3, ,331, ,
1, ,332, ,
4, ,332, ,
3, ,331, ,
1, ,330, ,
3, ,332, ,
3, ,330, ,
1, ,333, ,
4, ,330, ,
1, ,332, ,
1, ,331, ,
3, ,333, ,
3, ,330, ,
1, ,332, ,
4, ,331, ,
1, ,331, ,
3, ,331, ,
3, ,333, ,
3, ,331, ,
1, ,332, ,
4, ,331, ,
1, ,331, ,
1, ,332, ,
3, ,333, ,
3, ,330, ,
1, ,332, ,
4, ,332, ,
3, ,332, ,
3, ,331, ,
3, ,332, ,
3, ,331, ,
1, ,332, ,
3, ,330, ,
1, ,331, ,
1, ,331, ,
3, ,333, ,
3, ,331, ,
1, ,332, ,
3, ,332, ,
1, ,332, ,
3, ,331, ,
3, ,333, ,
3, ,330, ,
1, ,332, ,
3, ,331, ,
1, ,331, ,
1, ,332, ,
3, ,333, ,
3, ,329, ,
1, ,332, ,
3, ,332, ,
3, ,332, ,
3, ,331, ,
3, ,332, ,
3, ,331, ,
1, ,332, ,
3, ,330, ,
1, ,332, ,
1, ,331, ,
3, ,333, ,
3, ,330, ,
1, ,332, ,
3, ,331, ,
1, ,332, ,
1, ,331, ,
3, ,333, ,
3, ,331, ,
1, ,331, ,
3, ,330, ,
1, ,331, ,
3, ,331, ,
3, ,333, ,
3, ,331, ,
1, ,332, ,
3, ,331, ,
3, ,332, ,
3, ,330, ,
3, ,333, ,
3, ,331, ,
1, ,332, ,
3, ,331, ,
3, ,332, ,
1, ,330, ,
3, ,333, ,
3, ,331, ,
1, ,332, ,
3, ,331, ,
1, ,332, ,
1, ,331, ,
3, ,332, ,
1, ,332, ,
1, ,332, ,
3, ,331, ,
1, ,331, ,
1, ,332, ,
3, ,333, ,
3, ,330, ,
1, ,333, ,
3, ,332, ,
1, ,332, ,
1, ,331, ,
3, ,333, ,
3, ,331, ,
1, ,332, ,
3, ,331, ,
1, ,332, ,
1, ,331, ,
3, ,333, ,
1, ,331, ,
1, ,332, ,
3, ,332, ,
1, ,332, ,
3, ,331, ,
3, ,333, ,
1, ,331, ,
1, ,332, ,
3, ,330, ,
1, ,331, ,
1, ,332, ,
3, ,332, ,
3, ,331, ,
1, ,332, ,
3, ,332, ,
1, ,332, ,
1, ,331, ,
3, ,333, ,
3, ,331, ,
1, ,332, ,
3, ,331, ,
1, ,332, ,
1, ,331, ,
3, ,333, ,
1, ,331, ,
1, ,332, ,
3, ,333, ,
1, ,332, ,
1, ,331, ,
3, ,332, ,
1, ,331, ,
0, ,332, ,
3, ,331, ,
1, ,332, ,
1, ,332, ,
3, ,333, ,
1, ,330, ,
1, ,332, ,
3, ,332, ,
1, ,332, ,
1, ,331, ,
3, ,332, ,
3, ,331, ,
1, ,332, ,
3, ,331, ,
1, ,331, ,
1, ,331, ,
3, ,332, ,
1, ,330, ,
1, ,330, ,
3, ,330, ,
1, ,328, ,
1, ,330, ,
3, ,335, ,
3, ,334, ,
1, ,335, ,
3, ,332, ,
1, ,331, ,
1, ,330, ,
3, ,331, ,
1, ,329, ,
1, ,331, ,
3, ,332, ,
1, ,332, ,
1, ,331, ,
3, ,332, ,
1, ,331, ,
1, ,332, ,
3, ,331, ,
1, ,332, ,
1, ,331, ,
3, ,332, ,
1, ,330, ,
0, ,332, ,
3, ,331, ,
1, ,331, ,
1, ,330, ,
3, ,332, ,
1, ,331, ,
1, ,332, ,
3, ,331, ,
1, ,331, ,
1, ,331, ,
3, ,333, ,
1, ,330, ,
0, ,332, ,
3, ,331, ,
1, ,331, ,
1, ,331, ,
3, ,332, ,
1, ,331, ,
1, ,331, ,
3, ,331, ,
1, ,329, ,
1, ,330, ,
3, ,332, ,
1, ,330, ,
0, ,330, ,
3, ,332, ,
1, ,331, ,
1, ,331, ,
3, ,333, ,
1, ,330, ,
0, ,332, ,
3, ,330, ,
1, ,330, ,
1, ,331, ,
3, ,333, ,
1, ,330, ,
0, ,332, ,
3, ,332, ,
1, ,331, ,
1, ,330, ,
3, ,332, ,
1, ,331, ,
0, ,333, ,
3, ,330, ,
1, ,331, ,
1, ,331, ,
3, ,332, ,
1, ,330, ,
0, ,332, ,
3, ,330, ,
1, ,332, ,
1, ,331, ,
3, ,332, ,
1, ,331, ,
0, ,332, ,
3, ,331, ,
1, ,332, ,
1, ,331, ,
3, ,333, ,
1, ,331, ,
0, ,332, ,
3, ,332, ,
1, ,331, ,
1, ,330, ,
1, ,333, ,
1, ,331, ,
0, ,331, ,
3, ,330, ,
1, ,332, ,
1, ,330, ,
3, ,333, ,
3, ,329, ,
0, ,332, ,
3, ,331, ,
1, ,331, ,
1, ,331, ,
3, ,333, ,
1, ,331, ,
0, ,332, ,
3, ,330, ,
1, ,331, ,
1, ,332, ,
3, ,333, ,
1, ,331, ,
0, ,332, ,
3, ,332, ,
1, ,332, ,
1, ,331, ,
3, ,333, ,
1, ,331, ,
0, ,332, ,
3, ,331, ,
1, ,331, ,
1, ,332, ,
3, ,333, ,
1, ,330, ,
0, ,330, ,
3, ,330, ,
1, ,332, ,
1, ,332, ,
3, ,333, ,
1, ,332, ,
0, ,332, ,
3, ,331, ,
1, ,332, ,
1, ,331, ,
3, ,333, ,
1, ,330, ,
0, ,332, ,
3, ,332, ,
1, ,333, ,
1, ,331, ,
3, ,333, ,
1, ,331, ,
0, ,332, ,
3, ,330, ,
1, ,331, ,
1, ,332, ,
3, ,333, ,
1, ,331, ,
0, ,332, ,
3, ,332, ,
1, ,332, ,
1, ,331, ,
3, ,333, ,
1, ,332, ,
0, ,333, ,
3, ,331, ,
1, ,332, ,
1, ,332, ,
1, ,333, ,
1, ,330, ,
0, ,332, ,
3, ,331, ,
1, ,331, ,
1, ,331, ,
1, ,333, ,
1, ,331, ,
0, ,332, ,
3, ,331, ,
1, ,331, ,
1, ,331, ,
3, ,332, ,
1, ,330, ,
0, ,332, ,
3, ,331, ,
1, ,332, ,
1, ,331, ,
3, ,334, ,
1, ,331, ,
0, ,332, ,
3, ,332, ,
1, ,331, ,
1, ,332, ,
1, ,333, ,
1, ,330, ,
0, ,333, ,
3, ,332, ,
1, ,333, ,
1, ,331, ,
3, ,333, ,
1, ,331, ,
0, ,332, ,
3, ,331, ,
1, ,331, ,
1, ,331, ,
3, ,333, ,
1, ,331, ,
0, ,332, ,
3, ,333, ,
1, ,333, ,
1, ,331, ,
3, ,332, ,
1, ,331, ,
0, ,332, ,
3, ,331, ,
1, ,331, ,
1, ,332, ,
1, ,333, ,
1, ,332, ,
0, ,332, ,
3, ,332, ,
1, ,332, ,
1, ,331, ,
1, ,333, ,
1, ,331, ,
0, ,333, ,
3, ,331, ,
1, ,332, ,
1, ,333, ,
3, ,332, ,
1, ,330, ,
0, ,332, ,
3, ,332, ,
1, ,333, ,
1, ,331, ,
1, ,333, ,
1, ,332, ,
0, ,332, ,
3, ,331, ,
1, ,331, ,
1, ,331, ,
3, ,332, ,
1, ,331, ,
0, ,332, ,
3, ,332, ,
1, ,332, ,
1, ,331, ,
1, ,333, ,
1, ,332, ,
0, ,332, ,
3, ,332, ,
1, ,332, ,
1, ,331, ,
1, ,325, ,
1, ,329, ,
0, ,338, ,
3, ,337, ,
1, ,330, ,
1, ,328, ,
1, ,333, ,
1, ,332, ,
0, ,332, ,
3, ,330, ,
1, ,332, ,
1, ,332, ,
3, ,332, ,
1, ,331, ,
0, ,334, ,
3, ,332, ,
1, ,331, ,
1, ,332, ,
1, ,333, ,
1, ,331, ,
0, ,333, ,
3, ,332, ,
1, ,332, ,
1, ,331, ,
1, ,333, ,
1, ,331, ,
0, ,332, ,
3, ,331, ,
1, ,332, ,
1, ,331, ,
1, ,332, ,
1, ,330, ,
0, ,333, ,
3, ,331, ,
0, ,331, ,
1, ,331, ,
1, ,333, ,
1, ,331, ,
0, ,333, ,
3, ,332, ,
1, ,332, ,
1, ,331, ,
1, ,333, ,
1, ,331, ,
0, ,333, ,
3, ,330, ,
1, ,332, ,
1, ,332, ,
3, ,332, ,
1, ,330, ,
0, ,332, ,
3, ,332, ,
1, ,332, ,
1, ,331, ,
1, ,333, ,
1, ,331, ,
0, ,333, ,
3, ,331, ,
1, ,332, ,
1, ,331, ,
3, ,333, ,
1, ,330, ,
0, ,332, ,
3, ,332, ,
1, ,332, ,
1, ,331, ,
3, ,332, ,
1, ,331, ,
0, ,332, ,
3, ,331, ,
1, ,332, ,
1, ,331, ,
1, ,333, ,
1, ,331, ,
0, ,332, ,
3, ,332, ,
1, ,332, ,
0, ,331, ,
3, ,333, ,
1, ,331, ,
0, ,332, ,
3, ,331, ,
1, ,331, ,
1, ,331, ,
1, ,333, ,
1, ,329, ,
0, ,332, ,
3, ,331, ,
1, ,331, ,
1, ,331, ,
3, ,333, ,
1, ,331, ,
0, ,332, ,
3, ,331, ,
1, ,332, ,
1, ,332, ,
1, ,332, ,
1, ,328, ,
0, ,333, ,
3, ,332, ,
1, ,332, ,
1, ,331, ,
1, ,333, ,
1, ,331, ,
0, ,333, ,
3, ,332, ,
1, ,332, ,
1, ,331, ,
1, ,332, ,
1, ,329, ,
0, ,333, ,
3, ,331, ,
1, ,332, ,
1, ,331, ,
3, ,332, ,
1, ,331, ,
0, ,332, ,
3, ,330, ,
1, ,332, ,
1, ,331, ,
1, ,332, ,
1, ,330, ,
0, ,332, ,
1, ,332, ,
0, ,331, ,
106, ,331, ,
67, ,332, ,
47, ,331, ,
30, ,332, ,
22, ,331, ,
11, ,332, ,
8, ,332, ,
8, ,332, ,
6, ,331, ,
3, ,332, ,
4, ,332, ,
3, ,332, ,
3, ,331, ,
4, ,332, ,
3, ,331, ,
1, ,332, ,
5, ,330, ,
3, ,332, ,
3, ,332, ,
4, ,332, ,
4, ,330, ,
1, ,332, ,
4, ,333, ,
3, ,332, ,
3, ,331, ,
4, ,333, ,
3, ,331, ,
1, ,333, ,
4, ,331, ,
3, ,331, ,
3, ,331, ,
4, ,332, ,
4, ,329, ,
1, ,332, ,
4, ,332, ,
3, ,331, ,
3, ,331, ,
4, ,333, ,
4, ,332, ,
3, ,332, ,
4, ,332, ,
1, ,331, ,
3, ,330, ,
4, ,333, ,
4, ,331, ,
1, ,331, ,
4, ,331, ,
1, ,332, ,
3, ,331, ,
3, ,332, ,
3, ,331, ,
1, ,332, ,
4, ,331, ,
3, ,332, ,
3, ,332, ,
4, ,333, ,
3, ,331, ,
3, ,332, ,
4, ,332, ,
3, ,331, ,
3, ,331, ,
4, ,333, ,
3, ,331, ,
3, ,333, ,
4, ,330, ,
1, ,331, ,
3, ,331, ,
4, ,332, ,
3, ,330, ,
1, ,332, ,
4, ,332, ,
1, ,332, ,
3, ,331, ,
4, ,332, ,
3, ,331, ,
1, ,332, ,
4, ,331, ,
3, ,332, ,
3, ,331, ,
4, ,333, ,
3, ,330, ,
1, ,332, ,
4, ,332, ,
3, ,332, ,
3, ,331, ,
4, ,332, ,
3, ,331, ,
1, ,333, ,
4, ,331, ,
1, ,331, ,
3, ,332, ,
4, ,333, ,
3, ,329, ,
1, ,331, ,
4, ,332, ,
1, ,332, ,
3, ,330, ,
4, ,332, ,
3, ,331, ,
1, ,333, ,
4, ,331, ,
1, ,331, ,
3, ,331, ,
3, ,333, ,
3, ,329, ,
1, ,332, ,
4, ,332, ,
3, ,331, ,
3, ,332, ,
3, ,332, ,
3, ,331, ,
1, ,332, ,
4, ,330, ,
1, ,333, ,
1, ,331, ,
3, ,332, ,
3, ,329, ,
1, ,332, ,
4, ,330, ,
1, ,332, ,
1, ,331, ,
3, ,332, ,
3, ,331, ,
1, ,332, ,
4, ,331, ,
3, ,331, ,
3, ,331, ,
3, ,332, ,
3, ,329, ,
1, ,332, ,
4, ,331, ,
3, ,332, ,
1, ,331, ,
3, ,332, ,
3, ,331, ,
1, ,332, ,
4, ,331, ,
3, ,332, ,
1, ,330, ,
3, ,333, ,
3, ,330, ,
1, ,332, ,
3, ,331, ,
1, ,331, ,
1, ,331, ,
3, ,332, ,
3, ,331, ,
1, ,333, ,
3, ,330, ,
1, ,332, ,
3, ,331, ,
3, ,333, ,
3, ,330, ,
1, ,333, ,
4, ,331, ,
3, ,332, ,
3, ,331, ,
3, ,332, ,
1, ,333, ,
1, ,332, ,
4, ,330, ,
1, ,332, ,
1, ,332, ,
3, ,332, ,
3, ,330, ,
1, ,332, ,
4, ,332, ,
1, ,332, ,
3, ,331, ,
3, ,332, ,
3, ,331, ,
1, ,332, ,
4, ,331, ,
1, ,331, ,
3, ,331, ,
3, ,332, ,
3, ,330, ,
1, ,332, ,
4, ,332, ,
3, ,332, ,
1, ,331, ,
3, ,333, ,
3, ,331, ,
1, ,332, ,
3, ,331, ,
1, ,332, ,
1, ,331, ,
3, ,331, ,
1, ,329, ,
1, ,332, ,
3, ,333, ,
1, ,333, ,
3, ,331, ,
3, ,332, ,
3, ,331, ,
1, ,331, ,
3, ,330, ,
1, ,330, ,
3, ,331, ,
3, ,333, ,
3, ,329, ,
1, ,333, ,
3, ,331, ,
1, ,331, ,
1, ,331, ,
3, ,332, ,
3, ,331, ,
1, ,332, ,
3, ,331, ,
1, ,332, ,
3, ,332, ,
3, ,333, ,
3, ,329, ,
1, ,331, ,
4, ,331, ,
3, ,331, ,
1, ,331, ,
3, ,332, ,
1, ,331, ,
1, ,333, ,
3, ,330, ,
1, ,331, ,
1, ,331, ,
3, ,333, ,
3, ,330, ,
1, ,331, ,
3, ,331, ,
1, ,332, ,
3, ,331, ,
3, ,332, ,
1, ,330, ,
1, ,332, ,
3, ,331, ,
3, ,332, ,
1, ,332, ,
3, ,333, ,
1, ,329, ,
1, ,332, ,
3, ,332, ,
3, ,332, ,
1, ,330, ,
3, ,332, ,
1, ,331, ,
1, ,332, ,
3, ,331, ,
1, ,332, ,
1, ,332, ,
3, ,333, ,
1, ,330, ,
0, ,333, ,
3, ,331, ,
1, ,332, ,
1, ,330, ,
3, ,332, ,
3, ,331, ,
1, ,332, ,
3, ,331, ,
1, ,332, ,
1, ,332, ,
3, ,332, ,
1, ,330, ,
0, ,332, ,
3, ,332, ,
1, ,332, ,
1, ,331, ,
3, ,332, ,
1, ,331, ,
1, ,332, ,
3, ,331, ,
1, ,332, ,
1, ,331, ,
3, ,332, ,
1, ,330, ,
0, ,331, ,
3, ,331, ,
1, ,332, ,
1, ,331, ,
3, ,332, ,
1, ,332, ,
1, ,332, ,
3, ,331, ,
1, ,331, ,
1, ,332, ,
3, ,333, ,
1, ,331, ,
0, ,331, ,
3, ,331, ,
1, ,332, ,
1, ,329, ,
3, ,332, ,
1, ,330, ,
0, ,332, ,
3, ,330, ,
1, ,332, ,
1, ,331, ,
3, ,332, ,
1, ,331, ,
0, ,332, ,
3, ,332, ,
1, ,332, ,
1, ,330, ,
3, ,332, ,
1, ,331, ,
0, ,332, ,
3, ,330, ,
1, ,332, ,
1, ,332, ,
3, ,332, ,
1, ,331, ,
0, ,332, ,
3, ,332, ,
1, ,331, ,
1, ,330, ,
3, ,332, ,
1, ,331, ,
1, ,333, ,
3, ,331, ,
1, ,332, ,
1, ,332, ,
3, ,332, ,
1, ,330, ,
0, ,332, ,
3, ,332, ,
1, ,332, ,
1, ,331, ,
3, ,332, ,
1, ,331, ,
1, ,333, ,
3, ,331, ,
1, ,330, ,
1, ,331, ,
3, ,333, ,
1, ,330, ,
0, ,332, ,
3, ,331, ,
1, ,331, ,
1, ,331, ,
3, ,332, ,
1, ,331, ,
0, ,332, ,
3, ,331, ,
1, ,332, ,
1, ,331, ,
3, ,332, ,
1, ,330, ,
0, ,331, ,
3, ,332, ,
1, ,332, ,
1, ,331, ,
3, ,333, ,
1, ,331, ,
0, ,332, ,
3, ,330, ,
1, ,332, ,
1, ,332, ,
3, ,333, ,
1, ,331, ,
0, ,332, ,
3, ,332, ,
1, ,331, ,
1, ,330, ,
3, ,332, ,
1, ,331, ,
0, ,332, ,
3, ,331, ,
1, ,332, ,
1, ,331, ,
3, ,332, ,
1, ,331, ,
0, ,325, ,
3, ,330, ,
1, ,337, ,
1, ,334, ,
3, ,331, ,
1, ,328, ,
0, ,333, ,
3, ,332, ,
1, ,331, ,
1, ,332, ,
3, ,333, ,
1, ,331, ,
0, ,330, ,
3, ,331, ,
1, ,333, ,
1, ,330, ,
1, ,332, ,
1, ,331, ,
0, ,332, ,
3, ,330, ,
1, ,332, ,
1, ,332, ,
3, ,334, ,
3, ,330, ,
0, ,333, ,
3, ,333, ,
1, ,332, ,
1, ,330, ,
3, ,333, ,
1, ,331, ,
0, ,333, ,
3, ,332, ,
1, ,331, ,
1, ,330, ,
3, ,334, ,
1, ,331, ,
0, ,332, ,
3, ,332, ,
1, ,332, ,
1, ,331, ,
1, ,332, ,
1, ,331, ,
0, ,333, ,
3, ,331, ,
1, ,330, ,
1, ,331, ,
3, ,333, ,
1, ,330, ,
0, ,332, ,
3, ,332, ,
1, ,332, ,
1, ,330, ,
3, ,332, ,
1, ,331, ,
0, ,332, ,
3, ,331, ,
1, ,332, ,
1, ,332, ,
3, ,332, ,
1, ,330, ,
0, ,332, ,
3, ,332, ,
1, ,332, ,
1, ,330, ,
3, ,332, ,
90, ,331, ,
56, ,332, ,
34, ,332, ,
23, ,332, ,
18, ,332, ,
13, ,333, ,
6, ,330, ,
4, ,332, ,
8, ,331, ,
5, ,332, ,
3, ,330, ,
4, ,332, ,
3, ,331, ,
3, ,333, ,
4, ,331, ,
3, ,331, ,
3, ,332, ,
4, ,333, ,
4, ,329, ,
1, ,332, ,
4, ,332, ,
3, ,331, ,
3, ,331, ,
4, ,332, ,
4, ,331, ,
3, ,332, ,
4, ,331, ,
1, ,331, ,
3, ,331, ,
4, ,332, ,
4, ,331, ,
3, ,332, ,
4, ,331, ,
3, ,332, ,
3, ,331, ,
4, ,332, ,
4, ,331, ,
3, ,333, ,
4, ,330, ,
3, ,332, ,
3, ,331, ,
4, ,332, ,
3, ,331, ,
1, ,332, ,
4, ,332, ,
1, ,332, ,
3, ,330, ,
4, ,331, ,
3, ,331, ,
1, ,333, ,
4, ,330, ,
3, ,332, ,
3, ,331, ,
3, ,333, ,
3, ,331, ,
1, ,332, ,
4, ,331, ,
3, ,331, ,
3, ,331, ,
4, ,332, ,
3, ,331, ,
1, ,331, ,
4, ,331, ,
3, ,331, ,
3, ,330, ,
3, ,332, ,
3, ,330, ,
1, ,333, ,
4, ,331, ,
3, ,331, ,
3, ,330, ,
3, ,333, ,
3, ,331, ,
1, ,332, ,
4, ,331, ,
3, ,331, ,
3, ,331, ,
4, ,332, ,
3, ,330, ,
1, ,332, ,
4, ,331, ,
3, ,332, ,
3, ,331, ,
4, ,333, ,
3, ,331, ,
1, ,332, ,
4, ,331, ,
1, ,332, ,
3, ,331, ,
3, ,333, ,
3, ,330, ,
1, ,332, ,
4, ,332, ,
1, ,332, ,
3, ,330, ,
3, ,331, ,
3, ,332, ,
1, ,332, ,
4, ,331, ,
1, ,332, ,
3, ,331, ,
3, ,333, ,
3, ,331, ,
1, ,332, ,
4, ,331, ,
1, ,332, ,
3, ,330, ,
3, ,332, ,
3, ,331, ,
1, ,332, ,
4, ,330, ,
1, ,332, ,
3, ,331, ,
3, ,332, ,
3, ,329, ,
1, ,332, ,
4, ,332, ,
3, ,332, ,
3, ,331, ,
3, ,331, ,
3, ,331, ,
1, ,332, ,
4, ,332, ,
3, ,331, ,
1, ,331, ,
3, ,332, ,
3, ,329, ,
1, ,332, ,
4, ,331, ,
3, ,332, ,
1, ,331, ,
3, ,332, ,
3, ,331, ,
1, ,332, ,
4, ,331, ,
3, ,331, ,
1, ,331, ,
3, ,332, ,
3, ,331, ,
1, ,332, ,
4, ,331, ,
3, ,332, ,
1, ,331, ,
3, ,331, ,
3, ,330, ,
1, ,332, ,
4, ,331, ,
1, ,331, ,
1, ,332, ,
3, ,333, ,
3, ,331, ,
1, ,331, ,
4, ,332, ,
3, ,331, ,
3, ,331, ,
3, ,332, ,
3, ,331, ,
1, ,332, ,
3, ,331, ,
1, ,331, ,
1, ,330, ,
3, ,332, ,
3, ,331, ,
1, ,332, ,
3, ,332, ,
1, ,332, ,
3, ,331, ,
3, ,333, ,
3, ,331, ,
1, ,332, ,
3, ,331, ,
3, ,330, ,
3, ,331, ,
3, ,332, ,
3, ,330, ,
1, ,332, ,
3, ,331, ,
1, ,332, ,
1, ,331, ,
3, ,332, ,
3, ,331, ,
1, ,332, ,
4, ,330, ,
3, ,330, ,
1, ,331, ,
3, ,332, ,
3, ,331, ,
1, ,332, ,
3, ,332, ,
1, ,332, ,
1, ,330, ,
3, ,332, ,
3, ,330, ,
1, ,330, ,
3, ,331, ,
1, ,332, ,
1, ,332, ,
3, ,332, ,
3, ,331, ,
1, ,332, ,
3, ,330, ,
1, ,332, ,
1, ,331, ,
3, ,332, ,
3, ,331, ,
1, ,331, ,
3, ,328, ,
1, ,328, ,
3, ,330, ,
3, ,333, ,
1, ,332, ,
1, ,334, ,
3, ,333, ,
1, ,332, ,
1, ,330, ,
3, ,330, ,
3, ,329, ,
1, ,332, ,
3, ,330, ,
1, ,331, ,
1, ,331, ,
3, ,332, ,
3, ,329, ,
1, ,332, ,
3, ,331, ,
1, ,332, ,
1, ,331, ,
3, ,332, ,
3, ,330, ,
1, ,332, ,
3, ,331, ,
1, ,330, ,
1, ,330, ,
3, ,332, ,
1, ,329, ,
1, ,332, ,
3, ,330, ,
1, ,332, ,
1, ,330, ,
3, ,332, ,
1, ,331, ,
1, ,331, ,
3, ,331, ,
1, ,332, ,
1, ,331, ,
3, ,332, ,
3, ,329, ,
1, ,331, ,
3, ,331, ,
1, ,331, ,
1, ,330, ,
3, ,332, ,
1, ,330, ,
1, ,330, ,
3, ,330, ,
1, ,331, ,
1, ,330, ,
3, ,332, ,
3, ,329, ,
1, ,331, ,
4, ,331, ,
1, ,331, ,
1, ,330, ,
3, ,332, ,
3, ,331, ,
1, ,332, ,
3, ,330, ,
1, ,331, ,
1, ,330, ,
3, ,332, ,
1, ,329, ,
1, ,332, ,
3, ,332, ,
1, ,332, ,
1, ,330, ,
3, ,331, ,
1, ,331, ,
1, ,331, ,
3, ,331, ,
1, ,331, ,
1, ,330, ,
3, ,332, ,
1, ,329, ,
1, ,332, ,
3, ,331, ,
1, ,331, ,
1, ,330, ,
3, ,332, ,
1, ,331, ,
1, ,332, ,
3, ,331, ,
1, ,331, ,
1, ,331, ,
3, ,332, ,
3, ,330, ,
1, ,332, ,
3, ,332, ,
1, ,332, ,
1, ,330, ,
3, ,332, ,
1, ,331, ,
1, ,332, ,
3, ,331, ,
1, ,331, ,
1, ,331, ,
3, ,332, ,
1, ,331, ,
1, ,331, ,
3, ,331, ,
1, ,332, ,
1, ,331, ,
1, ,333, ,
1, ,332, ,
1, ,332, ,
3, ,330, ,
3, ,331, ,
3, ,331, ,
3, ,333, ,
3, ,329, ,
1, ,332, ,
3, ,332, ,
1, ,332, ,
1, ,332, ,
3, ,333, ,
1, ,331, ,
65, ,331, ,
55, ,331, ,
37, ,330, ,
24, ,332, ,
15, ,333, ,
10, ,331, ,
6, ,331, ,
9, ,332, ,
5, ,332, ,
4, ,331, ,
4, ,332, ,
3, ,331, ,
3, ,332, ,
4, ,331, ,
3, ,332, ,
3, ,332, ,
4, ,332, ,
4, ,329, ,
1, ,332, ,
4, ,331, ,
3, ,332, ,
3, ,331, ,
4, ,332, ,
4, ,331, ,
3, ,332, ,
4, ,330, ,
3, ,331, ,
3, ,332, ,
4, ,332, ,
4, ,331, ,
1, ,332, ,
4, ,332, ,
3, ,332, ,
3, ,331, ,
4, ,332, ,
3, ,331, ,
3, ,333, ,
4, ,330, ,
1, ,331, ,
3, ,331, ,
4, ,332, ,
4, ,331, ,
1, ,332, ,
4, ,332, ,
3, ,332, ,
3, ,331, ,
4, ,332, ,
4, ,331, ,
3, ,333, ,
4, ,331, ,
1, ,331, ,
3, ,332, ,
4, ,332, ,
4, ,330, ,
3, ,332, ,
4, ,331, ,
3, ,331, ,
3, ,331, ,
4, ,332, ,
4, ,331, ,
3, ,333, ,
4, ,331, ,
3, ,331, ,
3, ,331, ,
4, ,333, ,
3, ,330, ,
1, ,332, ,
4, ,331, ,
3, ,332, ,
3, ,331, ,
3, ,333, ,
4, ,331, ,
1, ,332, ,
4, ,330, ,
3, ,331, ,
3, ,333, ,
3, ,334, ,
3, ,330, ,
1, ,332, ,
4, ,332, ,
1, ,331, ,
3, ,331, ,
4, ,333, ,
3, ,331, ,
1, ,332, ,
4, ,331, ,
1, ,331, ,
3, ,332, ,
3, ,333, ,
3, ,330, ,
1, ,332, ,
4, ,331, ,
3, ,332, ,
3, ,330, ,
3, ,332, ,
3, ,331, ,
1, ,332, ,
4, ,330, ,
3, ,332, ,
3, ,332, ,
3, ,332, ,
3, ,330, ,
1, ,332, ,
4, ,331, ,
1, ,332, ,
3, ,332, ,
3, ,333, ,
3, ,331, ,
1, ,333, ,
4, ,332, ,
1, ,332, ,
3, ,332, ,
3, ,333, ,
3, ,330, ,
1, ,331, ,
4, ,333, ,
3, ,332, ,
3, ,330, ,
3, ,332, ,
3, ,331, ,
1, ,333, ,
4, ,331, ,
3, ,331, ,
1, ,332, ,
3, ,333, ,
3, ,330, ,
1, ,332, ,
4, ,333, ,
1, ,332, ,
1, ,331, ,
3, ,333, ,
3, ,331, ,
1, ,332, ,
4, ,331, ,
1, ,332, ,
3, ,331, ,
3, ,332, ,
3, ,331, ,
1, ,332, ,
3, ,332, ,
1, ,332, ,
3, ,331, ,
3, ,333, ,
3, ,332, ,
1, ,332, ,
3, ,331, ,
1, ,332, ,
3, ,331, ,
3, ,333, ,
3, ,330, ,
1, ,331, ,
4, ,331, ,
1, ,332, ,
3, ,332, ,
3, ,333, ,
3, ,331, ,
1, ,332, ,
3, ,331, ,
1, ,331, ,
3, ,332, ,
3, ,332, ,
3, ,330, ,
1, ,332, ,
4, ,332, ,
1, ,331, ,
3, ,331, ,
3, ,332, ,
3, ,331, ,
1, ,332, ,
3, ,331, ,
1, ,332, ,
3, ,331, ,
3, ,332, ,
3, ,331, ,
1, ,332, ,
3, ,332, ,
1, ,332, ,
1, ,331, ,
3, ,332, ,
3, ,331, ,
1, ,332, ,
3, ,331, ,
1, ,332, ,
3, ,332, ,
3, ,333, ,
3, ,330, ,
1, ,332, ,
3, ,332, ,
3, ,332, ,
1, ,331, ,
3, ,333, ,
1, ,331, ,
1, ,332, ,
4, ,331, ,
1, ,332, ,
1, ,332, ,
3, ,332, ,
3, ,331, ,
1, ,332, ,
3, ,331, ,
1, ,333, ,
1, ,331, ,
3, ,333, ,
3, ,332, ,
