src/vary_led_1562/temp0000517.CSV

Format,1.0B,
Memory Length,10000,Memory Length,10000,
IntpDistance,0,IntpDistance,0,
Trigger Address,5159,Trigger Address,5159,
Trigger Level,3.000E-01,Trigger Level,3.000E-01,
Source,CH1,Source,CH2,
Vertical Units,V,Vertical Units,V,
Vertical Units Div,0,Vertical Units Div,0,
Vertical Units Extend Div,16,Vertical Units Extend Div,16,
Label,,Label,,
Probe Type,0,Probe Type,0,
Probe Ratio,1.000e+01,Probe Ratio,1.000e+00,
Vertical Scale,5.000e-01,Vertical Scale,2.000e-01,
Vertical Position,-1.780e+00,Vertical Position,-2.240e+00,
Horizontal Units,S,Horizontal Units,S,
Horizontal Scale,2.000E-05,Horizontal Scale,2.000E-05,
Horizontal Position,-3.200E-06,Horizontal Position,-3.200E-06,
Horizontal Mode,Main,Horizontal Mode,Main,
SincET Mode,Real Time,SincET Mode,Real Time,
Sampling Period,2.000e-08,Sampling Period,2.000e-08,
Horizontal Old Scale,2.000E-05,Horizontal Old Scale,2.000E-05,
Horizontal Old Position,-3.200E-06,Horizontal Old Position,-3.200E-06,
Firmware,V1.23,Firmware,V1.23,
Mode,Fast,Mode,Fast,
Waveform Data,,Waveform Data,,
1, ,201, ,
0, ,200, ,
0, ,200, ,
1, ,200, ,
1, ,201, ,
0, ,200, ,
3, ,200, ,
0, ,199, ,
0, ,201, ,
1, ,202, ,
1, ,200, ,
-1, ,199, ,
1, ,200, ,
0, ,200, ,
0, ,199, ,
1, ,200, ,
1, ,200, ,
0, ,201, ,
3, ,200, ,
0, ,200, ,
0, ,200, ,
1, ,200, ,
1, ,200, ,
0, ,200, ,
3, ,200, ,
0, ,200, ,
0, ,200, ,
1, ,200, ,
1, ,201, ,
0, ,201, ,
3, ,199, ,
1, ,199, ,
0, ,200, ,
1, ,202, ,
1, ,200, ,
0, ,200, ,
3, ,200, ,
0, ,199, ,
0, ,200, ,
1, ,200, ,
1, ,200, ,
-1, ,201, ,
3, ,200, ,
0, ,200, ,
0, ,199, ,
1, ,201, ,
1, ,200, ,
0, ,200, ,
3, ,200, ,
0, ,200, ,
0, ,199, ,
1, ,200, ,
1, ,199, ,
-1, ,200, ,
3, ,200, ,
0, ,200, ,
0, ,200, ,
1, ,200, ,
1, ,200, ,
0, ,200, ,
3, ,200, ,
1, ,200, ,
0, ,198, ,
1, ,199, ,
1, ,198, ,
0, ,198, ,
3, ,198, ,
1, ,200, ,
0, ,195, ,
1, ,202, ,
1, ,208, ,
0, ,205, ,
1, ,200, ,
0, ,197, ,
0, ,198, ,
1, ,199, ,
1, ,200, ,
-1, ,200, ,
3, ,201, ,
0, ,200, ,
0, ,198, ,
1, ,200, ,
1, ,200, ,
0, ,200, ,
3, ,202, ,
0, ,200, ,
0, ,199, ,
1, ,200, ,
1, ,200, ,
0, ,200, ,
3, ,200, ,
0, ,199, ,
0, ,199, ,
1, ,200, ,
1, ,199, ,
0, ,199, ,
3, ,200, ,
0, ,200, ,
0, ,200, ,
1, ,200, ,
1, ,200, ,
0, ,200, ,
3, ,199, ,
0, ,200, ,
0, ,200, ,
1, ,200, ,
1, ,199, ,
0, ,199, ,
3, ,202, ,
0, ,200, ,
0, ,197, ,
3, ,199, ,
1, ,200, ,
0, ,200, ,
3, ,199, ,
0, ,199, ,
0, ,199, ,
1, ,201, ,
1, ,200, ,
0, ,200, ,
1, ,200, ,
0, ,200, ,
0, ,197, ,
1, ,199, ,
1, ,200, ,
0, ,200, ,
3, ,199, ,
0, ,200, ,
0, ,198, ,
1, ,200, ,
1, ,199, ,
0, ,200, ,
3, ,201, ,
0, ,201, ,
0, ,198, ,
1, ,199, ,
1, ,199, ,
0, ,200, ,
3, ,200, ,
1, ,199, ,
0, ,200, ,
1, ,200, ,
1, ,200, ,
-1, ,200, ,
1, ,200, ,
0, ,200, ,
0, ,198, ,
1, ,199, ,
1, ,200, ,
0, ,199, ,
3, ,200, ,
0, ,200, ,
0, ,199, ,
1, ,200, ,
1, ,199, ,
0, ,199, ,
3, ,200, ,
0, ,200, ,
0, ,199, ,
3, ,201, ,
1, ,200, ,
0, ,200, ,
3, ,200, ,
0, ,199, ,
0, ,200, ,
1, ,200, ,
0, ,199, ,
0, ,199, ,
1, ,201, ,
0, ,200, ,
0, ,198, ,
3, ,200, ,
1, ,201, ,
0, ,201, ,
3, ,200, ,
0, ,200, ,
0, ,200, ,
3, ,200, ,
1, ,200, ,
0, ,200, ,
1, ,202, ,
0, ,201, ,
0, ,199, ,
1, ,200, ,
1, ,200, ,
0, ,200, ,
3, ,201, ,
0, ,201, ,
0, ,200, ,
1, ,200, ,
1, ,198, ,
0, ,200, ,
3, ,202, ,
0, ,201, ,
0, ,200, ,
1, ,202, ,
1, ,201, ,
0, ,201, ,
3, ,200, ,
0, ,200, ,
0, ,200, ,
3, ,200, ,
1, ,199, ,
0, ,200, ,
1, ,201, ,
0, ,200, ,
0, ,200, ,
1, ,200, ,
0, ,200, ,
0, ,201, ,
3, ,200, ,
1, ,200, ,
0, ,200, ,
3, ,200, ,
1, ,198, ,
0, ,200, ,
1, ,202, ,
0, ,200, ,
-1, ,198, ,
1, ,200, ,
0, ,200, ,
-1, ,200, ,
3, ,200, ,
1, ,200, ,
0, ,200, ,
1, ,200, ,
1, ,200, ,
-1, ,200, ,
3, ,201, ,
1, ,200, ,
0, ,200, ,
3, ,200, ,
1, ,201, ,
0, ,201, ,
3, ,202, ,
0, ,200, ,
0, ,200, ,
1, ,201, ,
1, ,200, ,
0, ,199, ,
1, ,202, ,
0, ,200, ,
0, ,200, ,
1, ,200, ,
1, ,200, ,
0, ,200, ,
3, ,200, ,
1, ,200, ,
0, ,201, ,
1, ,200, ,
0, ,200, ,
-1, ,200, ,
1, ,202, ,
0, ,200, ,
0, ,200, ,
1, ,199, ,
1, ,200, ,
-1, ,200, ,
3, ,200, ,
0, ,200, ,
0, ,200, ,
1, ,201, ,
1, ,200, ,
-1, ,200, ,
3, ,201, ,
0, ,200, ,
0, ,200, ,
3, ,200, ,
1, ,200, ,
0, ,200, ,
3, ,200, ,
0, ,200, ,
0, ,200, ,
1, ,201, ,
1, ,200, ,
0, ,200, ,
1, ,202, ,
0, ,201, ,
0, ,200, ,
1, ,200, ,
1, ,200, ,
0, ,200, ,
3, ,200, ,
0, ,199, ,
0, ,201, ,
1, ,201, ,
1, ,200, ,
0, ,200, ,
1, ,202, ,
0, ,201, ,
0, ,198, ,
3, ,200, ,
1, ,200, ,
0, ,200, ,
3, ,200, ,
1, ,199, ,
0, ,200, ,
1, ,200, ,
0, ,200, ,
0, ,200, ,
1, ,201, ,
0, ,200, ,
0, ,198, ,
3, ,200, ,
1, ,199, ,
0, ,200, ,
3, ,200, ,
1, ,200, ,
0, ,200, ,
1, ,202, ,
1, ,200, ,
0, ,200, ,
1, ,202, ,
0, ,200, ,
0, ,200, ,
1, ,200, ,
1, ,201, ,
0, ,201, ,
3, ,200, ,
0, ,200, ,
0, ,199, ,
1, ,201, ,
1, ,200, ,
0, ,200, ,
3, ,200, ,
1, ,200, ,
0, ,200, ,
1, ,200, ,
1, ,200, ,
0, ,200, ,
3, ,199, ,
0, ,198, ,
0, ,200, ,
1, ,202, ,
1, ,201, ,
-1, ,200, ,
3, ,202, ,
0, ,201, ,
0, ,199, ,
3, ,200, ,
1, ,200, ,
0, ,200, ,
3, ,201, ,
0, ,201, ,
0, ,200, ,
1, ,202, ,
1, ,200, ,
0, ,200, ,
1, ,201, ,
0, ,201, ,
0, ,200, ,
1, ,201, ,
1, ,201, ,
0, ,200, ,
3, ,200, ,
1, ,200, ,
0, ,200, ,
1, ,201, ,
1, ,200, ,
-1, ,200, ,
3, ,200, ,
0, ,200, ,
0, ,200, ,
1, ,201, ,
1, ,200, ,
-1, ,200, ,
3, ,200, ,
0, ,199, ,
0, ,200, ,
1, ,200, ,
1, ,200, ,
-1, ,200, ,
3, ,202, ,
0, ,201, ,
0, ,199, ,
1, ,199, ,
1, ,200, ,
-1, ,200, ,
3, ,199, ,
0, ,200, ,
0, ,200, ,
1, ,201, ,
1, ,200, ,
-1, ,200, ,
3, ,200, ,
0, ,200, ,
0, ,200, ,
1, ,200, ,
1, ,200, ,
-1, ,200, ,
3, ,200, ,
0, ,199, ,
0, ,200, ,
1, ,202, ,
0, ,200, ,
0, ,199, ,
3, ,202, ,
0, ,201, ,
0, ,200, ,
1, ,201, ,
1, ,200, ,
-1, ,200, ,
3, ,201, ,
0, ,200, ,
0, ,200, ,
1, ,201, ,
1, ,200, ,
0, ,200, ,
3, ,200, ,
0, ,200, ,
0, ,200, ,
1, ,201, ,
1, ,200, ,
-1, ,200, ,
3, ,201, ,
1, ,200, ,
0, ,199, ,
1, ,201, ,
1, ,200, ,
0, ,199, ,
3, ,201, ,
0, ,201, ,
0, ,200, ,
1, ,200, ,
1, ,200, ,
0, ,200, ,
3, ,200, ,
0, ,200, ,
0, ,201, ,
1, ,201, ,
1, ,200, ,
0, ,200, ,
1, ,202, ,
0, ,201, ,
0, ,200, ,
1, ,200, ,
1, ,200, ,
0, ,200, ,
3, ,201, ,
0, ,200, ,
0, ,201, ,
1, ,200, ,
1, ,200, ,
0, ,200, ,
1, ,202, ,
0, ,200, ,
0, ,199, ,
3, ,200, ,
1, ,200, ,
0, ,201, ,
3, ,200, ,
0, ,200, ,
0, ,200, ,
3, ,200, ,
1, ,200, ,
0, ,200, ,
1, ,202, ,
0, ,200, ,
0, ,200, ,
3, ,200, ,
1, ,200, ,
0, ,200, ,
3, ,200, ,
0, ,199, ,
0, ,200, ,
3, ,200, ,
1, ,200, ,
0, ,200, ,
1, ,202, ,
0, ,202, ,
0, ,199, ,
1, ,202, ,
1, ,200, ,
-1, ,200, ,
3, ,200, ,
0, ,200, ,
0, ,200, ,
1, ,200, ,
1, ,200, ,
0, ,200, ,
3, ,202, ,
0, ,200, ,
0, ,200, ,
1, ,200, ,
1, ,200, ,
0, ,200, ,
3, ,200, ,
0, ,200, ,
0, ,200, ,
1, ,200, ,
1, ,200, ,
-1, ,200, ,
1, ,202, ,
0, ,201, ,
0, ,200, ,
1, ,200, ,
1, ,200, ,
0, ,200, ,
3, ,200, ,
1, ,200, ,
0, ,201, ,
1, ,201, ,
1, ,199, ,
0, ,200, ,
1, ,201, ,
0, ,201, ,
0, ,199, ,
1, ,201, ,
1, ,200, ,
0, ,200, ,
3, ,200, ,
0, ,200, ,
0, ,200, ,
1, ,202, ,
1, ,200, ,
0, ,198, ,
1, ,200, ,
0, ,200, ,
0, ,200, ,
3, ,200, ,
1, ,200, ,
-1, ,200, ,
3, ,200, ,
0, ,200, ,
0, ,200, ,
1, ,200, ,
1, ,200, ,
0, ,199, ,
3, ,201, ,
0, ,200, ,
0, ,200, ,
3, ,200, ,
1, ,200, ,
0, ,200, ,
3, ,200, ,
1, ,200, ,
0, ,200, ,
1, ,200, ,
1, ,200, ,
0, ,200, ,
1, ,201, ,
0, ,200, ,
0, ,200, ,
1, ,200, ,
1, ,200, ,
0, ,200, ,
3, ,200, ,
0, ,199, ,
0, ,201, ,
1, ,202, ,
1, ,196, ,
0, ,198, ,
3, ,202, ,
0, ,205, ,
0, ,202, ,
3, ,200, ,
1, ,199, ,
0, ,200, ,
3, ,201, ,
1, ,201, ,
0, ,201, ,
1, ,200, ,
1, ,198, ,
-1, ,199, ,
1, ,200, ,
1, ,201, ,
0, ,199, ,
1, ,201, ,
1, ,200, ,
-1, ,200, ,
4, ,199, ,
1, ,200, ,
0, ,201, ,
1, ,200, ,
1, ,200, ,
-1, ,200, ,
3, ,202, ,
0, ,201, ,
0, ,200, ,
3, ,200, ,
1, ,201, ,
-1, ,200, ,
3, ,200, ,
0, ,200, ,
0, ,201, ,
1, ,200, ,
1, ,199, ,
0, ,200, ,
3, ,201, ,
0, ,200, ,
0, ,200, ,
3, ,200, ,
1, ,200, ,
0, ,200, ,
3, ,200, ,
0, ,199, ,
0, ,200, ,
1, ,201, ,
1, ,199, ,
-1, ,200, ,
1, ,201, ,
0, ,201, ,
0, ,200, ,
3, ,199, ,
1, ,199, ,
-1, ,200, ,
3, ,199, ,
0, ,200, ,
0, ,201, ,
1, ,200, ,
1, ,200, ,
0, ,199, ,
3, ,202, ,
0, ,200, ,
0, ,199, ,
3, ,200, ,
1, ,200, ,
0, ,200, ,
3, ,200, ,
0, ,200, ,
0, ,200, ,
1, ,200, ,
0, ,200, ,
0, ,199, ,
3, ,200, ,
0, ,200, ,
0, ,199, ,
1, ,200, ,
1, ,200, ,
-1, ,200, ,
3, ,200, ,
0, ,200, ,
0, ,200, ,
1, ,200, ,
1, ,200, ,
-1, ,200, ,
3, ,201, ,
0, ,200, ,
0, ,200, ,
3, ,200, ,
1, ,200, ,
-1, ,200, ,
3, ,200, ,
0, ,200, ,
0, ,200, ,
1, ,200, ,
1, ,199, ,
-1, ,199, ,
3, ,202, ,
0, ,200, ,
0, ,199, ,
3, ,200, ,
1, ,200, ,
-1, ,201, ,
3, ,200, ,
0, ,199, ,
0, ,201, ,
1, ,200, ,
1, ,200, ,
0, ,200, ,
3, ,202, ,
0, ,200, ,
0, ,200, ,
3, ,200, ,
1, ,200, ,
-1, ,200, ,
3, ,200, ,
1, ,200, ,
0, ,200, ,
1, ,200, ,
1, ,200, ,
0, ,199, ,
3, ,201, ,
0, ,201, ,
0, ,199, ,
1, ,200, ,
1, ,200, ,
0, ,201, ,
3, ,200, ,
0, ,200, ,
0, ,200, ,
1, ,201, ,
1, ,200, ,
0, ,200, ,
3, ,201, ,
1, ,200, ,
0, ,199, ,
3, ,200, ,
1, ,200, ,
0, ,200, ,
3, ,200, ,
1, ,199, ,
0, ,199, ,
1, ,200, ,
1, ,200, ,
0, ,200, ,
3, ,201, ,
0, ,201, ,
0, ,200, ,
1, ,200, ,
1, ,200, ,
-1, ,200, ,
3, ,200, ,
0, ,200, ,
0, ,200, ,
1, ,201, ,
0, ,199, ,
-1, ,199, ,
3, ,202, ,
0, ,200, ,
0, ,198, ,
3, ,200, ,
1, ,200, ,
0, ,200, ,
3, ,200, ,
0, ,199, ,
0, ,200, ,
1, ,200, ,
1, ,200, ,
0, ,199, ,
3, ,201, ,
0, ,200, ,
0, ,198, ,
1, ,199, ,
1, ,199, ,
-1, ,200, ,
3, ,201, ,
0, ,200, ,
0, ,200, ,
1, ,200, ,
1, ,200, ,
0, ,199, ,
3, ,200, ,
0, ,200, ,
0, ,199, ,
1, ,199, ,
1, ,200, ,
-1, ,200, ,
3, ,200, ,
0, ,200, ,
0, ,200, ,
1, ,200, ,
1, ,200, ,
-1, ,200, ,
3, ,202, ,
0, ,199, ,
0, ,199, ,
1, ,200, ,
1, ,200, ,
0, ,200, ,
3, ,200, ,
0, ,199, ,
0, ,200, ,
1, ,200, ,
1, ,199, ,
-1, ,200, ,
1, ,202, ,
0, ,201, ,
0, ,198, ,
3, ,200, ,
1, ,199, ,
-1, ,200, ,
3, ,201, ,
0, ,200, ,
0, ,200, ,
1, ,200, ,
1, ,200, ,
0, ,199, ,
3, ,202, ,
0, ,200, ,
0, ,200, ,
3, ,199, ,
1, ,199, ,
0, ,199, ,
3, ,201, ,
1, ,200, ,
0, ,201, ,
1, ,202, ,
1, ,199, ,
0, ,200, ,
3, ,200, ,
0, ,199, ,
0, ,200, ,
1, ,200, ,
1, ,200, ,
-1, ,200, ,
3, ,200, ,
0, ,199, ,
0, ,200, ,
1, ,200, ,
1, ,199, ,
-1, ,199, ,
3, ,202, ,
0, ,200, ,
0, ,199, ,
3, ,200, ,
1, ,199, ,
0, ,200, ,
3, ,199, ,
1, ,199, ,
0, ,200, ,
1, ,201, ,
1, ,199, ,
0, ,199, ,
3, ,202, ,
0, ,200, ,
0, ,199, ,
3, ,200, ,
1, ,200, ,
-1, ,200, ,
3, ,201, ,
1, ,200, ,
0, ,200, ,
1, ,200, ,
1, ,200, ,
-1, ,200, ,
3, ,202, ,
0, ,200, ,
0, ,199, ,
3, ,200, ,
1, ,200, ,
0, ,201, ,
3, ,201, ,
0, ,200, ,
0, ,200, ,
1, ,202, ,
0, ,200, ,
0, ,200, ,
1, ,202, ,
0, ,200, ,
0, ,199, ,
3, ,200, ,
1, ,200, ,
0, ,200, ,
3, ,201, ,
0, ,200, ,
0, ,200, ,
1, ,201, ,
1, ,200, ,
-1, ,200, ,
3, ,202, ,
0, ,200, ,
0, ,200, ,
1, ,200, ,
1, ,200, ,
-1, ,200, ,
3, ,200, ,
1, ,200, ,
0, ,200, ,
1, ,202, ,
1, ,199, ,
-1, ,199, ,
3, ,201, ,
0, ,200, ,
0, ,200, ,
1, ,200, ,
1, ,200, ,
0, ,200, ,
3, ,201, ,
0, ,200, ,
0, ,200, ,
1, ,201, ,
1, ,199, ,
0, ,200, ,
1, ,201, ,
0, ,201, ,
0, ,199, ,
1, ,200, ,
1, ,200, ,
-1, ,201, ,
3, ,200, ,
1, ,200, ,
0, ,200, ,
1, ,201, ,
1, ,198, ,
-1, ,200, ,
3, ,202, ,
0, ,201, ,
0, ,199, ,
1, ,199, ,
1, ,200, ,
-1, ,200, ,
3, ,200, ,
1, ,200, ,
0, ,200, ,
1, ,200, ,
1, ,200, ,
-1, ,200, ,
3, ,202, ,
0, ,200, ,
0, ,198, ,
1, ,199, ,
1, ,200, ,
0, ,200, ,
3, ,200, ,
0, ,200, ,
0, ,200, ,
1, ,202, ,
1, ,199, ,
-1, ,200, ,
1, ,202, ,
0, ,201, ,
0, ,200, ,
1, ,201, ,
1, ,200, ,
0, ,200, ,
3, ,200, ,
1, ,199, ,
0, ,200, ,
1, ,200, ,
1, ,199, ,
0, ,200, ,
1, ,202, ,
0, ,200, ,
0, ,199, ,
1, ,200, ,
1, ,200, ,
0, ,200, ,
3, ,200, ,
0, ,200, ,
0, ,200, ,
1, ,200, ,
1, ,200, ,
-1, ,199, ,
3, ,202, ,
1, ,200, ,
0, ,199, ,
3, ,200, ,
0, ,200, ,
0, ,200, ,
4, ,200, ,
1, ,199, ,
0, ,200, ,
1, ,200, ,
0, ,199, ,
-1, ,200, ,
3, ,202, ,
0, ,200, ,
0, ,200, ,
1, ,200, ,
0, ,200, ,
-1, ,200, ,
3, ,200, ,
0, ,200, ,
0, ,200, ,
1, ,200, ,
1, ,199, ,
0, ,200, ,
3, ,202, ,
0, ,200, ,
0, ,199, ,
1, ,200, ,
1, ,201, ,
0, ,200, ,
3, ,200, ,
1, ,200, ,
0, ,200, ,
1, ,199, ,
1, ,199, ,
-1, ,200, ,
3, ,201, ,
1, ,199, ,
0, ,200, ,
3, ,200, ,
1, ,200, ,
-1, ,201, ,
4, ,201, ,
0, ,200, ,
0, ,200, ,
1, ,200, ,
1, ,200, ,
0, ,200, ,
3, ,201, ,
0, ,200, ,
0, ,200, ,
3, ,200, ,
1, ,200, ,
-1, ,200, ,
3, ,200, ,
1, ,200, ,
0, ,200, ,
1, ,202, ,
1, ,200, ,
-1, ,200, ,
3, ,202, ,
0, ,200, ,
0, ,200, ,
1, ,201, ,
1, ,201, ,
0, ,200, ,
3, ,201, ,
1, ,200, ,
0, ,200, ,
1, ,200, ,
0, ,200, ,
-1, ,200, ,
3, ,202, ,
0, ,200, ,
0, ,199, ,
1, ,200, ,
1, ,201, ,
-1, ,201, ,
4, ,200, ,
1, ,200, ,
0, ,199, ,
1, ,200, ,
1, ,198, ,
-1, ,200, ,
3, ,202, ,
0, ,200, ,
0, ,198, ,
1, ,200, ,
1, ,200, ,
0, ,200, ,
3, ,200, ,
1, ,200, ,
0, ,201, ,
1, ,201, ,
0, ,200, ,
-1, ,200, ,
3, ,202, ,
0, ,200, ,
0, ,199, ,
1, ,200, ,
0, ,200, ,
-1, ,200, ,
3, ,200, ,
1, ,200, ,
0, ,200, ,
1, ,200, ,
1, ,200, ,
-1, ,200, ,
3, ,200, ,
0, ,200, ,
0, ,199, ,
3, ,202, ,
1, ,200, ,
-1, ,201, ,
3, ,200, ,
1, ,200, ,
0, ,200, ,
1, ,200, ,
1, ,200, ,
-1, ,200, ,
1, ,201, ,
0, ,201, ,
0, ,200, ,
3, ,200, ,
1, ,200, ,
-1, ,200, ,
3, ,200, ,
0, ,200, ,
0, ,200, ,
1, ,200, ,
1, ,198, ,
-1, ,200, ,
3, ,201, ,
0, ,201, ,
0, ,200, ,
1, ,200, ,
1, ,200, ,
-1, ,200, ,
3, ,200, ,
0, ,200, ,
0, ,199, ,
1, ,201, ,
0, ,200, ,
-1, ,200, ,
3, ,200, ,
0, ,200, ,
0, ,200, ,
3, ,200, ,
1, ,200, ,
0, ,200, ,
4, ,200, ,
0, ,200, ,
0, ,200, ,
1, ,200, ,
1, ,199, ,
-1, ,200, ,
1, ,201, ,
0, ,200, ,
0, ,200, ,
1, ,200, ,
1, ,201, ,
-1, ,200, ,
3, ,200, ,
0, ,201, ,
0, ,200, ,
1, ,200, ,
0, ,200, ,
0, ,200, ,
3, ,200, ,
0, ,200, ,
0, ,198, ,
3, ,200, ,
1, ,200, ,
-1, ,200, ,
3, ,199, ,
0, ,199, ,
0, ,198, ,
1, ,199, ,
1, ,196, ,
-1, ,200, ,
3, ,203, ,
0, ,203, ,
0, ,200, ,
3, ,200, ,
1, ,199, ,
-1, ,200, ,
4, ,199, ,
1, ,200, ,
0, ,200, ,
1, ,202, ,
1, ,199, ,
0, ,200, ,
1, ,201, ,
0, ,200, ,
0, ,198, ,
1, ,201, ,
1, ,200, ,
-1, ,200, ,
3, ,200, ,
0, ,199, ,
0, ,199, ,
1, ,200, ,
1, ,198, ,
-1, ,199, ,
3, ,201, ,
0, ,200, ,
0, ,199, ,
1, ,200, ,
1, ,199, ,
0, ,200, ,
3, ,200, ,
1, ,200, ,
0, ,200, ,
1, ,200, ,
1, ,200, ,
0, ,199, ,
3, ,200, ,
0, ,201, ,
0, ,200, ,
1, ,200, ,
1, ,199, ,
0, ,200, ,
3, ,199, ,
0, ,199, ,
0, ,200, ,
1, ,200, ,
0, ,199, ,
0, ,200, ,
1, ,200, ,
0, ,200, ,
0, ,199, ,
1, ,200, ,
1, ,200, ,
0, ,200, ,
3, ,200, ,
1, ,199, ,
0, ,199, ,
1, ,201, ,
1, ,200, ,
-1, ,200, ,
3, ,201, ,
0, ,200, ,
0, ,199, ,
1, ,201, ,
1, ,200, ,
0, ,200, ,
3, ,200, ,
0, ,200, ,
0, ,199, ,
3, ,200, ,
1, ,199, ,
-1, ,200, ,
3, ,200, ,
0, ,201, ,
0, ,200, ,
1, ,201, ,
0, ,200, ,
-1, ,200, ,
3, ,200, ,
0, ,200, ,
0, ,200, ,
1, ,201, ,
0, ,199, ,
-1, ,200, ,
3, ,202, ,
0, ,200, ,
0, ,199, ,
3, ,201, ,
1, ,200, ,
0, ,200, ,
3, ,199, ,
1, ,199, ,
0, ,200, ,
1, ,200, ,
1, ,200, ,
-1, ,200, ,
3, ,200, ,
0, ,200, ,
-1, ,200, ,
1, ,200, ,
0, ,200, ,
-1, ,200, ,
3, ,200, ,
1, ,200, ,
1, ,200, ,
3, ,203, ,
1, ,200, ,
-1, ,200, ,
3, ,201, ,
0, ,199, ,
0, ,199, ,
1, ,200, ,
0, ,201, ,
-1, ,201, ,
4, ,202, ,
0, ,201, ,
0, ,200, ,
1, ,200, ,
1, ,198, ,
-1, ,199, ,
3, ,202, ,
0, ,200, ,
0, ,200, ,
1, ,201, ,
1, ,200, ,
-1, ,201, ,
3, ,200, ,
0, ,200, ,
0, ,201, ,
1, ,202, ,
0, ,200, ,
-1, ,199, ,
3, ,200, ,
0, ,200, ,
0, ,199, ,
1, ,200, ,
0, ,200, ,
-1, ,200, ,
3, ,199, ,
0, ,199, ,
0, ,200, ,
3, ,201, ,
1, ,201, ,
-1, ,200, ,
3, ,202, ,
0, ,201, ,
0, ,199, ,
3, ,200, ,
0, ,199, ,
0, ,200, ,
3, ,200, ,
0, ,199, ,
0, ,200, ,
1, ,202, ,
1, ,198, ,
0, ,200, ,
1, ,202, ,
0, ,200, ,
0, ,200, ,
3, ,200, ,
1, ,201, ,
0, ,201, ,
3, ,200, ,
0, ,200, ,
0, ,201, ,
1, ,202, ,
1, ,200, ,
-1, ,199, ,
3, ,200, ,
0, ,201, ,
0, ,200, ,
1, ,200, ,
1, ,200, ,
0, ,201, ,
3, ,200, ,
0, ,200, ,
0, ,201, ,
1, ,201, ,
1, ,199, ,
0, ,200, ,
3, ,202, ,
1, ,201, ,
0, ,200, ,
3, ,200, ,
1, ,200, ,
0, ,200, ,
3, ,200, ,
0, ,200, ,
0, ,200, ,
1, ,201, ,
1, ,200, ,
0, ,200, ,
1, ,200, ,
0, ,201, ,
0, ,199, ,
1, ,200, ,
1, ,200, ,
0, ,200, ,
3, ,199, ,
0, ,200, ,
0, ,200, ,
1, ,202, ,
1, ,200, ,
0, ,200, ,
3, ,201, ,
0, ,200, ,
0, ,200, ,
3, ,200, ,
1, ,200, ,
0, ,200, ,
3, ,200, ,
0, ,199, ,
0, ,199, ,
3, ,201, ,
1, ,199, ,
0, ,200, ,
3, ,202, ,
0, ,200, ,
0, ,199, ,
1, ,200, ,
1, ,200, ,
-1, ,200, ,
3, ,200, ,
1, ,200, ,
0, ,200, ,
1, ,202, ,
1, ,200, ,
0, ,200, ,
3, ,202, ,
0, ,200, ,
0, ,200, ,
1, ,200, ,
1, ,200, ,
0, ,201, ,
3, ,200, ,
0, ,200, ,
0, ,199, ,
1, ,201, ,
1, ,200, ,
0, ,200, ,
1, ,201, ,
0, ,200, ,
0, ,201, ,
1, ,200, ,
1, ,199, ,
-1, ,201, ,
3, ,201, ,
0, ,200, ,
0, ,200, ,
1, ,201, ,
1, ,199, ,
0, ,199, ,
3, ,201, ,
0, ,200, ,
0, ,200, ,
1, ,201, ,
1, ,200, ,
0, ,200, ,
3, ,201, ,
0, ,200, ,
0, ,200, ,
1, ,202, ,
0, ,200, ,
-1, ,200, ,
1, ,201, ,
0, ,200, ,
0, ,200, ,
3, ,201, ,
1, ,200, ,
-1, ,200, ,
3, ,201, ,
1, ,200, ,
0, ,200, ,
1, ,201, ,
1, ,199, ,
-1, ,200, ,
3, ,200, ,
0, ,201, ,
0, ,200, ,
1, ,200, ,
1, ,200, ,
-1, ,200, ,
3, ,200, ,
0, ,200, ,
0, ,200, ,
1, ,202, ,
1, ,200, ,
0, ,200, ,
3, ,202, ,
0, ,200, ,
0, ,199, ,
1, ,200, ,
1, ,200, ,
-1, ,201, ,
3, ,200, ,
1, ,199, ,
0, ,200, ,
1, ,200, ,
1, ,200, ,
0, ,200, ,
3, ,201, ,
0, ,201, ,
0, ,200, ,
3, ,202, ,
1, ,200, ,
0, ,200, ,
3, ,200, ,
1, ,200, ,
0, ,200, ,
1, ,201, ,
1, ,200, ,
0, ,199, ,
3, ,200, ,
0, ,200, ,
0, ,200, ,
1, ,201, ,
1, ,200, ,
-1, ,201, ,
3, ,200, ,
1, ,200, ,
0, ,200, ,
1, ,201, ,
1, ,199, ,
0, ,200, ,
3, ,201, ,
0, ,201, ,
0, ,199, ,
3, ,200, ,
1, ,201, ,
0, ,200, ,
3, ,200, ,
1, ,200, ,
0, ,201, ,
1, ,202, ,
1, ,199, ,
-1, ,199, ,
3, ,200, ,
0, ,201, ,
0, ,199, ,
3, ,201, ,
1, ,200, ,
0, ,200, ,
3, ,199, ,
0, ,200, ,
0, ,200, ,
1, ,202, ,
1, ,200, ,
0, ,200, ,
3, ,200, ,
0, ,201, ,
0, ,200, ,
3, ,200, ,
1, ,200, ,
0, ,201, ,
3, ,200, ,
0, ,199, ,
0, ,200, ,
3, ,201, ,
1, ,200, ,
-1, ,200, ,
1, ,200, ,
0, ,200, ,
0, ,200, ,
1, ,202, ,
1, ,200, ,
-1, ,200, ,
3, ,200, ,
1, ,200, ,
0, ,200, ,
1, ,201, ,
1, ,200, ,
0, ,200, ,
3, ,200, ,
0, ,201, ,
0, ,200, ,
1, ,200, ,
1, ,200, ,
-1, ,200, ,
3, ,200, ,
0, ,199, ,
0, ,200, ,
1, ,201, ,
1, ,199, ,
-1, ,200, ,
3, ,201, ,
0, ,201, ,
0, ,200, ,
3, ,200, ,
1, ,200, ,
0, ,201, ,
3, ,200, ,
0, ,200, ,
0, ,200, ,
1, ,202, ,
1, ,200, ,
0, ,200, ,
3, ,200, ,
0, ,201, ,
0, ,201, ,
1, ,200, ,
1, ,200, ,
0, ,201, ,
1, ,200, ,
0, ,200, ,
0, ,200, ,
1, ,203, ,
1, ,199, ,
0, ,200, ,
3, ,200, ,
0, ,200, ,
0, ,198, ,
1, ,200, ,
1, ,201, ,
0, ,201, ,
1, ,199, ,
1, ,200, ,
0, ,201, ,
1, ,201, ,
1, ,199, ,
-1, ,200, ,
1, ,200, ,
0, ,200, ,
0, ,200, ,
3, ,200, ,
1, ,200, ,
0, ,200, ,
3, ,200, ,
1, ,200, ,
0, ,200, ,
1, ,200, ,
1, ,200, ,
-1, ,200, ,
1, ,200, ,
0, ,201, ,
0, ,199, ,
1, ,200, ,
1, ,200, ,
0, ,200, ,
3, ,200, ,
0, ,200, ,
0, ,200, ,
1, ,200, ,
1, ,200, ,
0, ,199, ,
3, ,200, ,
0, ,200, ,
0, ,200, ,
1, ,201, ,
1, ,200, ,
-1, ,200, ,
3, ,200, ,
0, ,200, ,
0, ,200, ,
1, ,200, ,
1, ,200, ,
-1, ,201, ,
1, ,200, ,
0, ,200, ,
0, ,200, ,
1, ,202, ,
1, ,200, ,
-1, ,200, ,
3, ,200, ,
0, ,200, ,
0, ,200, ,
3, ,201, ,
1, ,200, ,
-1, ,200, ,
3, ,202, ,
0, ,200, ,
0, ,200, ,
1, ,200, ,
1, ,200, ,
0, ,200, ,
3, ,200, ,
0, ,200, ,
0, ,200, ,
1, ,200, ,
1, ,200, ,
-1, ,200, ,
3, ,200, ,
0, ,200, ,
0, ,200, ,
1, ,200, ,
1, ,200, ,
0, ,200, ,
3, ,200, ,
0, ,200, ,
0, ,199, ,
1, ,202, ,
1, ,200, ,
0, ,200, ,
1, ,200, ,
0, ,200, ,
0, ,200, ,
1, ,200, ,
1, ,200, ,
0, ,201, ,
3, ,200, ,
0, ,200, ,
0, ,200, ,
3, ,200, ,
1, ,200, ,
0, ,200, ,
1, ,201, ,
0, ,200, ,
0, ,200, ,
1, ,201, ,
1, ,200, ,
-1, ,200, ,
3, ,200, ,
0, ,200, ,
0, ,200, ,
1, ,202, ,
1, ,199, ,
0, ,200, ,
3, ,200, ,
0, ,200, ,
0, ,199, ,
1, ,201, ,
1, ,200, ,
0, ,200, ,
3, ,200, ,
0, ,200, ,
0, ,199, ,
3, ,200, ,
1, ,200, ,
-1, ,201, ,
1, ,200, ,
0, ,200, ,
0, ,198, ,
1, ,200, ,
1, ,200, ,
-1, ,201, ,
3, ,200, ,
0, ,200, ,
0, ,201, ,
1, ,202, ,
1, ,200, ,
0, ,200, ,
3, ,201, ,
0, ,200, ,
0, ,198, ,
1, ,200, ,
1, ,200, ,
-1, ,200, ,
3, ,200, ,
0, ,199, ,
0, ,200, ,
1, ,200, ,
1, ,199, ,
0, ,198, ,
3, ,200, ,
0, ,202, ,
0, ,200, ,
1, ,202, ,
1, ,201, ,
0, ,201, ,
1, ,200, ,
0, ,199, ,
0, ,199, ,
1, ,200, ,
1, ,200, ,
0, ,200, ,
1, ,200, ,
0, ,200, ,
0, ,200, ,
1, ,200, ,
1, ,200, ,
-1, ,200, ,
3, ,200, ,
0, ,200, ,
0, ,200, ,
1, ,201, ,
1, ,200, ,
0, ,200, ,
3, ,200, ,
0, ,199, ,
0, ,199, ,
1, ,200, ,
0, ,201, ,
-1, ,201, ,
3, ,200, ,
0, ,200, ,
0, ,200, ,
3, ,201, ,
1, ,200, ,
0, ,200, ,
3, ,201, ,
1, ,200, ,
0, ,200, ,
1, ,200, ,
1, ,200, ,
-1, ,200, ,
1, ,200, ,
0, ,199, ,
0, ,200, ,
1, ,200, ,
1, ,200, ,
0, ,200, ,
3, ,200, ,
0, ,200, ,
0, ,200, ,
1, ,201, ,
1, ,199, ,
0, ,200, ,
3, ,200, ,
