src/vary_led_1562/temp0007124.CSV

Format,1.0B,
Memory Length,10000,Memory Length,10000,
IntpDistance,0,IntpDistance,0,
Trigger Address,5159,Trigger Address,5159,
Trigger Level,3.000E-01,Trigger Level,3.000E-01,
Source,CH1,Source,CH2,
Vertical Units,V,Vertical Units,V,
Vertical Units Div,0,Vertical Units Div,0,
Vertical Units Extend Div,16,Vertical Units Extend Div,16,
Label,,Label,,
Probe Type,0,Probe Type,0,
Probe Ratio,1.000e+01,Probe Ratio,1.000e+00,
Vertical Scale,5.000e-01,Vertical Scale,2.000e-01,
Vertical Position,-1.780e+00,Vertical Position,-2.240e+00,
Horizontal Units,S,Horizontal Units,S,
Horizontal Scale,2.000E-05,Horizontal Scale,2.000E-05,
Horizontal Position,-3.200E-06,Horizontal Position,-3.200E-06,
Horizontal Mode,Main,Horizontal Mode,Main,
SincET Mode,Real Time,SincET Mode,Real Time,
Sampling Period,2.000e-08,Sampling Period,2.000e-08,
Horizontal Old Scale,2.000E-05,Horizontal Old Scale,2.000E-05,
Horizontal Old Position,-3.200E-06,Horizontal Old Position,-3.200E-06,
Firmware,V1.23,Firmware,V1.23,
Mode,Fast,Mode,Fast,
Waveform Data,,Waveform Data,,
3, ,324, ,
0, ,324, ,
0, ,326, ,
3, ,323, ,
1, ,325, ,
0, ,323, ,
3, ,325, ,
0, ,323, ,
0, ,325, ,
3, ,324, ,
1, ,325, ,
0, ,324, ,
3, ,324, ,
0, ,324, ,
0, ,325, ,
3, ,323, ,
1, ,325, ,
0, ,324, ,
3, ,324, ,
0, ,324, ,
0, ,325, ,
3, ,324, ,
1, ,325, ,
0, ,323, ,
3, ,323, ,
0, ,323, ,
0, ,325, ,
1, ,324, ,
1, ,325, ,
0, ,324, ,
3, ,324, ,
0, ,324, ,
0, ,325, ,
3, ,324, ,
1, ,324, ,
0, ,323, ,
3, ,323, ,
0, ,324, ,
1, ,325, ,
3, ,323, ,
1, ,326, ,
0, ,324, ,
3, ,324, ,
0, ,324, ,
-1, ,325, ,
1, ,324, ,
1, ,325, ,
0, ,324, ,
3, ,324, ,
1, ,324, ,
1, ,325, ,
1, ,323, ,
1, ,324, ,
0, ,324, ,
3, ,325, ,
0, ,324, ,
0, ,325, ,
1, ,323, ,
1, ,324, ,
0, ,324, ,
1, ,324, ,
0, ,324, ,
0, ,326, ,
3, ,324, ,
1, ,325, ,
-1, ,319, ,
3, ,324, ,
0, ,327, ,
0, ,327, ,
3, ,323, ,
1, ,324, ,
0, ,324, ,
3, ,324, ,
0, ,323, ,
0, ,325, ,
3, ,324, ,
1, ,326, ,
-1, ,324, ,
3, ,323, ,
0, ,324, ,
0, ,325, ,
3, ,324, ,
1, ,325, ,
0, ,323, ,
3, ,324, ,
0, ,325, ,
0, ,326, ,
3, ,323, ,
1, ,325, ,
0, ,325, ,
3, ,325, ,
0, ,325, ,
0, ,325, ,
3, ,324, ,
1, ,327, ,
0, ,324, ,
3, ,325, ,
0, ,324, ,
0, ,327, ,
1, ,323, ,
1, ,325, ,
0, ,325, ,
3, ,324, ,
0, ,324, ,
0, ,326, ,
3, ,324, ,
1, ,324, ,
0, ,323, ,
3, ,323, ,
0, ,323, ,
0, ,325, ,
1, ,323, ,
1, ,325, ,
0, ,323, ,
3, ,324, ,
0, ,323, ,
0, ,325, ,
3, ,324, ,
1, ,327, ,
0, ,323, ,
3, ,324, ,
0, ,324, ,
0, ,326, ,
1, ,321, ,
1, ,324, ,
0, ,324, ,
3, ,324, ,
0, ,324, ,
0, ,325, ,
3, ,324, ,
1, ,326, ,
0, ,323, ,
3, ,324, ,
0, ,323, ,
0, ,326, ,
3, ,323, ,
1, ,325, ,
0, ,324, ,
3, ,325, ,
0, ,324, ,
0, ,325, ,
1, ,324, ,
1, ,326, ,
0, ,323, ,
3, ,324, ,
1, ,324, ,
0, ,325, ,
1, ,324, ,
1, ,324, ,
0, ,324, ,
3, ,324, ,
0, ,324, ,
0, ,325, ,
3, ,323, ,
1, ,325, ,
0, ,324, ,
3, ,324, ,
0, ,324, ,
0, ,327, ,
1, ,323, ,
1, ,325, ,
-1, ,325, ,
3, ,325, ,
0, ,323, ,
0, ,325, ,
3, ,324, ,
1, ,324, ,
0, ,323, ,
3, ,324, ,
0, ,324, ,
0, ,325, ,
1, ,323, ,
1, ,325, ,
-1, ,324, ,
3, ,323, ,
0, ,323, ,
0, ,325, ,
3, ,324, ,
1, ,325, ,
0, ,323, ,
3, ,324, ,
0, ,323, ,
0, ,326, ,
1, ,324, ,
1, ,325, ,
-1, ,324, ,
3, ,325, ,
0, ,324, ,
0, ,324, ,
1, ,324, ,
1, ,325, ,
0, ,323, ,
3, ,323, ,
0, ,324, ,
0, ,326, ,
1, ,324, ,
1, ,325, ,
-1, ,325, ,
3, ,325, ,
0, ,323, ,
0, ,323, ,
1, ,323, ,
120, ,325, ,
71, ,324, ,
50, ,325, ,
34, ,324, ,
22, ,326, ,
14, ,324, ,
9, ,325, ,
8, ,323, ,
9, ,324, ,
5, ,324, ,
3, ,325, ,
5, ,324, ,
5, ,326, ,
3, ,323, ,
4, ,325, ,
3, ,324, ,
3, ,325, ,
4, ,323, ,
3, ,325, ,
1, ,324, ,
5, ,324, ,
3, ,324, ,
3, ,325, ,
4, ,324, ,
4, ,325, ,
1, ,325, ,
4, ,323, ,
3, ,324, ,
3, ,325, ,
4, ,323, ,
3, ,325, ,
1, ,325, ,
4, ,324, ,
3, ,323, ,
3, ,326, ,
4, ,324, ,
4, ,325, ,
1, ,323, ,
5, ,324, ,
1, ,324, ,
3, ,326, ,
4, ,324, ,
3, ,325, ,
1, ,325, ,
4, ,325, ,
3, ,324, ,
3, ,325, ,
4, ,324, ,
4, ,325, ,
1, ,324, ,
4, ,324, ,
1, ,324, ,
3, ,324, ,
4, ,323, ,
3, ,324, ,
1, ,325, ,
4, ,325, ,
1, ,324, ,
3, ,325, ,
4, ,324, ,
4, ,325, ,
1, ,325, ,
5, ,324, ,
3, ,324, ,
3, ,326, ,
4, ,323, ,
3, ,324, ,
1, ,324, ,
4, ,325, ,
1, ,324, ,
3, ,325, ,
4, ,324, ,
3, ,325, ,
1, ,324, ,
4, ,324, ,
3, ,325, ,
3, ,326, ,
4, ,323, ,
3, ,325, ,
1, ,325, ,
4, ,325, ,
1, ,324, ,
1, ,325, ,
4, ,324, ,
3, ,325, ,
1, ,323, ,
4, ,325, ,
3, ,324, ,
3, ,327, ,
4, ,323, ,
3, ,325, ,
1, ,324, ,
4, ,325, ,
3, ,324, ,
3, ,325, ,
4, ,324, ,
3, ,325, ,
1, ,324, ,
4, ,324, ,
1, ,324, ,
1, ,326, ,
4, ,323, ,
3, ,325, ,
1, ,324, ,
5, ,324, ,
3, ,324, ,
3, ,325, ,
3, ,324, ,
3, ,324, ,
1, ,324, ,
4, ,324, ,
1, ,325, ,
1, ,325, ,
4, ,324, ,
3, ,325, ,
1, ,324, ,
4, ,325, ,
3, ,324, ,
1, ,325, ,
3, ,324, ,
3, ,325, ,
1, ,324, ,
4, ,325, ,
3, ,324, ,
1, ,324, ,
3, ,323, ,
3, ,325, ,
1, ,325, ,
4, ,324, ,
3, ,324, ,
1, ,325, ,
3, ,324, ,
3, ,325, ,
1, ,323, ,
4, ,324, ,
3, ,325, ,
1, ,325, ,
4, ,323, ,
3, ,324, ,
0, ,325, ,
4, ,325, ,
1, ,324, ,
1, ,325, ,
3, ,324, ,
3, ,325, ,
1, ,324, ,
4, ,323, ,
1, ,325, ,
1, ,325, ,
4, ,323, ,
3, ,325, ,
1, ,324, ,
4, ,324, ,
1, ,324, ,
1, ,325, ,
3, ,324, ,
3, ,325, ,
1, ,323, ,
4, ,324, ,
1, ,324, ,
3, ,325, ,
4, ,324, ,
3, ,325, ,
1, ,325, ,
4, ,324, ,
1, ,324, ,
1, ,325, ,
3, ,324, ,
3, ,326, ,
1, ,324, ,
4, ,325, ,
1, ,324, ,
1, ,325, ,
4, ,323, ,
3, ,325, ,
0, ,324, ,
4, ,324, ,
1, ,324, ,
3, ,325, ,
3, ,324, ,
3, ,325, ,
1, ,324, ,
4, ,324, ,
1, ,324, ,
1, ,325, ,
3, ,323, ,
3, ,325, ,
1, ,324, ,
4, ,324, ,
1, ,324, ,
1, ,325, ,
3, ,324, ,
3, ,325, ,
1, ,323, ,
3, ,324, ,
1, ,325, ,
1, ,326, ,
3, ,323, ,
3, ,325, ,
1, ,325, ,
4, ,325, ,
1, ,323, ,
1, ,325, ,
3, ,324, ,
3, ,325, ,
1, ,324, ,
4, ,323, ,
1, ,323, ,
1, ,325, ,
3, ,324, ,
3, ,325, ,
1, ,325, ,
4, ,324, ,
57, ,324, ,
38, ,325, ,
25, ,324, ,
18, ,326, ,
13, ,324, ,
10, ,324, ,
5, ,324, ,
4, ,325, ,
5, ,323, ,
4, ,324, ,
1, ,325, ,
5, ,325, ,
3, ,324, ,
3, ,325, ,
4, ,324, ,
4, ,325, ,
1, ,324, ,
5, ,324, ,
1, ,325, ,
3, ,326, ,
4, ,323, ,
3, ,324, ,
1, ,325, ,
5, ,324, ,
1, ,323, ,
3, ,326, ,
4, ,324, ,
4, ,325, ,
1, ,324, ,
5, ,324, ,
1, ,324, ,
3, ,325, ,
4, ,324, ,
3, ,325, ,
1, ,324, ,
4, ,324, ,
3, ,324, ,
3, ,325, ,
4, ,324, ,
4, ,325, ,
1, ,324, ,
5, ,323, ,
3, ,324, ,
3, ,326, ,
4, ,323, ,
3, ,324, ,
1, ,324, ,
4, ,324, ,
3, ,324, ,
1, ,325, ,
4, ,324, ,
4, ,325, ,
1, ,324, ,
4, ,324, ,
3, ,324, ,
3, ,327, ,
4, ,324, ,
3, ,325, ,
1, ,323, ,
4, ,325, ,
3, ,324, ,
1, ,326, ,
3, ,324, ,
3, ,325, ,
1, ,324, ,
4, ,324, ,
3, ,324, ,
3, ,326, ,
4, ,324, ,
3, ,324, ,
1, ,325, ,
4, ,325, ,
1, ,324, ,
1, ,324, ,
4, ,321, ,
3, ,321, ,
1, ,320, ,
4, ,321, ,
1, ,325, ,
3, ,329, ,
4, ,326, ,
3, ,326, ,
1, ,325, ,
4, ,323, ,
1, ,321, ,
1, ,323, ,
4, ,323, ,
3, ,324, ,
1, ,324, ,
4, ,324, ,
3, ,323, ,
3, ,325, ,
4, ,323, ,
3, ,323, ,
1, ,324, ,
4, ,324, ,
1, ,324, ,
1, ,325, ,
4, ,324, ,
3, ,325, ,
1, ,324, ,
4, ,324, ,
1, ,324, ,
3, ,325, ,
4, ,323, ,
3, ,325, ,
1, ,325, ,
4, ,323, ,
3, ,323, ,
3, ,325, ,
4, ,324, ,
3, ,325, ,
1, ,324, ,
4, ,323, ,
1, ,323, ,
1, ,325, ,
4, ,323, ,
3, ,325, ,
1, ,325, ,
4, ,324, ,
3, ,324, ,
1, ,325, ,
3, ,323, ,
3, ,325, ,
1, ,324, ,
4, ,324, ,
3, ,325, ,
1, ,325, ,
3, ,323, ,
3, ,325, ,
1, ,325, ,
4, ,324, ,
1, ,324, ,
1, ,325, ,
3, ,324, ,
3, ,324, ,
1, ,324, ,
4, ,323, ,
3, ,323, ,
3, ,325, ,
4, ,324, ,
3, ,324, ,
1, ,323, ,
4, ,324, ,
1, ,323, ,
1, ,325, ,
3, ,323, ,
3, ,324, ,
1, ,323, ,
4, ,324, ,
1, ,324, ,
1, ,325, ,
4, ,323, ,
3, ,324, ,
1, ,323, ,
4, ,324, ,
1, ,324, ,
1, ,325, ,
3, ,324, ,
3, ,325, ,
1, ,324, ,
4, ,324, ,
1, ,324, ,
3, ,326, ,
4, ,323, ,
3, ,324, ,
0, ,325, ,
4, ,324, ,
1, ,324, ,
1, ,325, ,
3, ,323, ,
3, ,324, ,
1, ,323, ,
3, ,324, ,
1, ,323, ,
3, ,321, ,
3, ,323, ,
3, ,329, ,
1, ,327, ,
4, ,324, ,
1, ,321, ,
1, ,325, ,
3, ,326, ,
3, ,326, ,
1, ,325, ,
4, ,325, ,
3, ,324, ,
1, ,324, ,
4, ,323, ,
3, ,325, ,
0, ,325, ,
4, ,325, ,
1, ,324, ,
1, ,326, ,
4, ,324, ,
3, ,325, ,
1, ,323, ,
3, ,325, ,
1, ,324, ,
1, ,325, ,
3, ,323, ,
3, ,325, ,
0, ,325, ,
4, ,326, ,
1, ,325, ,
1, ,325, ,
3, ,323, ,
3, ,325, ,
1, ,323, ,
4, ,324, ,
1, ,325, ,
1, ,326, ,
3, ,323, ,
3, ,325, ,
0, ,325, ,
4, ,325, ,
1, ,324, ,
1, ,324, ,
3, ,324, ,
3, ,325, ,
1, ,324, ,
3, ,325, ,
1, ,325, ,
1, ,325, ,
3, ,323, ,
3, ,326, ,
0, ,324, ,
4, ,325, ,
1, ,324, ,
1, ,326, ,
3, ,324, ,
3, ,326, ,
0, ,324, ,
4, ,325, ,
1, ,324, ,
1, ,325, ,
3, ,324, ,
3, ,325, ,
0, ,325, ,
4, ,325, ,
1, ,324, ,
1, ,325, ,
3, ,324, ,
3, ,326, ,
0, ,324, ,
3, ,324, ,
1, ,325, ,
1, ,325, ,
3, ,324, ,
3, ,325, ,
0, ,325, ,
3, ,324, ,
1, ,324, ,
1, ,325, ,
3, ,325, ,
3, ,326, ,
0, ,324, ,
3, ,324, ,
1, ,323, ,
1, ,325, ,
3, ,323, ,
3, ,325, ,
0, ,325, ,
4, ,325, ,
1, ,324, ,
1, ,325, ,
3, ,324, ,
3, ,325, ,
0, ,323, ,
3, ,324, ,
1, ,324, ,
1, ,325, ,
3, ,323, ,
3, ,325, ,
0, ,325, ,
3, ,325, ,
1, ,324, ,
1, ,326, ,
3, ,324, ,
3, ,325, ,
0, ,324, ,
3, ,324, ,
1, ,324, ,
1, ,325, ,
3, ,323, ,
3, ,325, ,
0, ,324, ,
4, ,325, ,
1, ,324, ,
1, ,325, ,
3, ,324, ,
3, ,325, ,
0, ,323, ,
3, ,324, ,
1, ,324, ,
1, ,325, ,
3, ,323, ,
3, ,325, ,
0, ,324, ,
3, ,325, ,
1, ,324, ,
1, ,326, ,
3, ,325, ,
3, ,325, ,
0, ,323, ,
3, ,324, ,
1, ,325, ,
1, ,325, ,
3, ,323, ,
1, ,325, ,
0, ,325, ,
3, ,325, ,
1, ,323, ,
1, ,325, ,
3, ,324, ,
1, ,325, ,
0, ,323, ,
3, ,324, ,
1, ,324, ,
1, ,325, ,
3, ,324, ,
3, ,325, ,
0, ,324, ,
3, ,325, ,
1, ,323, ,
1, ,325, ,
3, ,324, ,
3, ,325, ,
0, ,324, ,
3, ,324, ,
1, ,325, ,
1, ,326, ,
3, ,324, ,
1, ,325, ,
0, ,324, ,
3, ,325, ,
1, ,323, ,
1, ,325, ,
3, ,324, ,
1, ,325, ,
0, ,324, ,
3, ,324, ,
1, ,325, ,
1, ,326, ,
3, ,324, ,
3, ,325, ,
0, ,325, ,
3, ,325, ,
1, ,325, ,
1, ,325, ,
3, ,324, ,
1, ,325, ,
0, ,325, ,
3, ,325, ,
1, ,324, ,
1, ,327, ,
3, ,323, ,
3, ,325, ,
0, ,325, ,
3, ,325, ,
1, ,323, ,
1, ,325, ,
3, ,324, ,
1, ,325, ,
0, ,324, ,
3, ,324, ,
1, ,324, ,
1, ,326, ,
3, ,324, ,
1, ,325, ,
0, ,324, ,
3, ,325, ,
1, ,324, ,
1, ,325, ,
3, ,324, ,
1, ,326, ,
0, ,324, ,
3, ,325, ,
1, ,324, ,
1, ,326, ,
3, ,323, ,
1, ,325, ,
0, ,324, ,
3, ,325, ,
1, ,323, ,
1, ,325, ,
3, ,324, ,
1, ,325, ,
0, ,324, ,
3, ,324, ,
1, ,324, ,
1, ,325, ,
3, ,323, ,
1, ,325, ,
0, ,325, ,
3, ,325, ,
1, ,324, ,
1, ,324, ,
3, ,324, ,
1, ,325, ,
0, ,325, ,
3, ,324, ,
1, ,324, ,
1, ,325, ,
3, ,323, ,
1, ,325, ,
0, ,324, ,
3, ,324, ,
1, ,325, ,
1, ,326, ,
3, ,324, ,
1, ,325, ,
0, ,324, ,
3, ,325, ,
1, ,324, ,
1, ,325, ,
3, ,323, ,
1, ,323, ,
0, ,325, ,
3, ,325, ,
1, ,324, ,
1, ,325, ,
3, ,324, ,
1, ,325, ,
0, ,324, ,
3, ,324, ,
1, ,323, ,
1, ,326, ,
3, ,323, ,
1, ,325, ,
0, ,325, ,
3, ,325, ,
1, ,324, ,
1, ,324, ,
3, ,324, ,
1, ,325, ,
0, ,325, ,
3, ,324, ,
1, ,323, ,
1, ,325, ,
3, ,324, ,
1, ,325, ,
0, ,325, ,
3, ,325, ,
1, ,324, ,
1, ,325, ,
3, ,324, ,
1, ,325, ,
0, ,324, ,
3, ,324, ,
1, ,323, ,
1, ,325, ,
3, ,324, ,
1, ,324, ,
0, ,324, ,
3, ,325, ,
1, ,324, ,
0, ,325, ,
3, ,324, ,
1, ,325, ,
0, ,324, ,
3, ,325, ,
1, ,323, ,
1, ,325, ,
3, ,323, ,
1, ,319, ,
0, ,325, ,
3, ,328, ,
1, ,327, ,
0, ,324, ,
3, ,323, ,
1, ,325, ,
0, ,325, ,
3, ,324, ,
1, ,324, ,
1, ,326, ,
3, ,324, ,
1, ,326, ,
0, ,323, ,
3, ,325, ,
1, ,324, ,
0, ,326, ,
3, ,324, ,
1, ,325, ,
0, ,323, ,
3, ,324, ,
1, ,324, ,
1, ,326, ,
3, ,323, ,
1, ,325, ,
0, ,325, ,
3, ,325, ,
0, ,324, ,
0, ,324, ,
3, ,324, ,
1, ,325, ,
0, ,324, ,
3, ,325, ,
1, ,324, ,
0, ,326, ,
3, ,323, ,
1, ,325, ,
0, ,324, ,
3, ,325, ,
1, ,323, ,
0, ,326, ,
3, ,324, ,
1, ,325, ,
0, ,324, ,
3, ,325, ,
1, ,324, ,
1, ,325, ,
3, ,324, ,
1, ,325, ,
0, ,325, ,
3, ,324, ,
0, ,324, ,
0, ,325, ,
3, ,324, ,
1, ,324, ,
0, ,323, ,
3, ,324, ,
1, ,323, ,
0, ,326, ,
3, ,324, ,
1, ,324, ,
0, ,325, ,
3, ,324, ,
1, ,324, ,
0, ,326, ,
3, ,324, ,
1, ,326, ,
0, ,324, ,
3, ,325, ,
1, ,324, ,
1, ,326, ,
3, ,324, ,
1, ,325, ,
0, ,325, ,
3, ,325, ,
1, ,323, ,
0, ,325, ,
3, ,324, ,
1, ,325, ,
0, ,324, ,
3, ,324, ,
1, ,324, ,
0, ,327, ,
3, ,324, ,
1, ,325, ,
0, ,324, ,
3, ,325, ,
1, ,324, ,
1, ,325, ,
3, ,324, ,
1, ,325, ,
0, ,323, ,
3, ,324, ,
1, ,325, ,
1, ,325, ,
3, ,323, ,
1, ,325, ,
0, ,325, ,
3, ,325, ,
1, ,324, ,
0, ,325, ,
3, ,325, ,
1, ,325, ,
0, ,325, ,
3, ,324, ,
1, ,324, ,
1, ,325, ,
3, ,323, ,
1, ,325, ,
0, ,325, ,
3, ,324, ,
1, ,323, ,
1, ,324, ,
3, ,324, ,
1, ,325, ,
0, ,325, ,
3, ,325, ,
0, ,324, ,
1, ,325, ,
3, ,324, ,
1, ,325, ,
0, ,324, ,
3, ,324, ,
1, ,324, ,
0, ,325, ,
3, ,324, ,
1, ,325, ,
0, ,324, ,
3, ,325, ,
0, ,325, ,
1, ,326, ,
1, ,323, ,
1, ,326, ,
0, ,324, ,
3, ,324, ,
1, ,325, ,
1, ,326, ,
3, ,324, ,
1, ,325, ,
0, ,323, ,
3, ,325, ,
0, ,324, ,
0, ,326, ,
1, ,324, ,
1, ,325, ,
0, ,324, ,
3, ,324, ,
1, ,323, ,
1, ,325, ,
1, ,324, ,
1, ,325, ,
0, ,324, ,
3, ,323, ,
0, ,325, ,
0, ,325, ,
3, ,323, ,
1, ,325, ,
-1, ,323, ,
3, ,323, ,
1, ,324, ,
0, ,325, ,
3, ,326, ,
1, ,325, ,
0, ,324, ,
3, ,324, ,
0, ,324, ,
0, ,325, ,
3, ,321, ,
1, ,323, ,
0, ,325, ,
3, ,325, ,
0, ,324, ,
0, ,325, ,
3, ,324, ,
1, ,325, ,
0, ,323, ,
3, ,324, ,
0, ,325, ,
0, ,326, ,
3, ,323, ,
1, ,325, ,
-1, ,324, ,
3, ,325, ,
0, ,324, ,
0, ,325, ,
1, ,324, ,
1, ,325, ,
0, ,324, ,
3, ,324, ,
0, ,325, ,
0, ,325, ,
3, ,323, ,
1, ,324, ,
0, ,323, ,
3, ,325, ,
0, ,323, ,
0, ,325, ,
3, ,324, ,
1, ,325, ,
0, ,323, ,
1, ,325, ,
0, ,324, ,
0, ,325, ,
3, ,323, ,
1, ,325, ,
-1, ,324, ,
3, ,324, ,
0, ,324, ,
0, ,325, ,
3, ,324, ,
1, ,324, ,
0, ,323, ,
1, ,323, ,
0, ,323, ,
0, ,325, ,
3, ,324, ,
1, ,324, ,
-1, ,325, ,
3, ,324, ,
1, ,324, ,
0, ,324, ,
3, ,324, ,
1, ,325, ,
0, ,323, ,
3, ,324, ,
0, ,324, ,
0, ,325, ,
3, ,324, ,
1, ,325, ,
0, ,324, ,
3, ,324, ,
1, ,324, ,
0, ,325, ,
3, ,324, ,
1, ,325, ,
89, ,323, ,
79, ,325, ,
55, ,324, ,
32, ,325, ,
19, ,323, ,
13, ,325, ,
9, ,324, ,
10, ,325, ,
6, ,324, ,
4, ,325, ,
5, ,324, ,
4, ,325, ,
3, ,324, ,
4, ,324, ,
3, ,324, ,
3, ,324, ,
5, ,323, ,
4, ,324, ,
1, ,325, ,
4, ,324, ,
3, ,324, ,
3, ,325, ,
4, ,324, ,
3, ,325, ,
1, ,324, ,
4, ,324, ,
1, ,324, ,
3, ,325, ,
4, ,323, ,
4, ,325, ,
1, ,324, ,
4, ,324, ,
3, ,324, ,
3, ,326, ,
4, ,324, ,
4, ,325, ,
1, ,324, ,
4, ,324, ,
1, ,324, ,
3, ,325, ,
4, ,323, ,
3, ,325, ,
1, ,323, ,
4, ,324, ,
3, ,324, ,
1, ,325, ,
4, ,325, ,
3, ,325, ,
1, ,324, ,
4, ,324, ,
1, ,325, ,
1, ,325, ,
4, ,323, ,
3, ,324, ,
1, ,324, ,
4, ,324, ,
1, ,324, ,
1, ,325, ,
4, ,323, ,
4, ,324, ,
1, ,324, ,
4, ,325, ,
1, ,324, ,
1, ,325, ,
4, ,323, ,
3, ,325, ,
1, ,324, ,
4, ,324, ,
3, ,323, ,
3, ,325, ,
4, ,324, ,
3, ,325, ,
1, ,324, ,
4, ,324, ,
1, ,324, ,
1, ,325, ,
4, ,324, ,
3, ,325, ,
1, ,324, ,
4, ,324, ,
3, ,324, ,
1, ,325, ,
4, ,324, ,
3, ,324, ,
1, ,323, ,
4, ,324, ,
1, ,325, ,
1, ,325, ,
4, ,323, ,
3, ,324, ,
1, ,325, ,
4, ,323, ,
3, ,323, ,
1, ,325, ,
3, ,324, ,
3, ,324, ,
1, ,324, ,
3, ,323, ,
3, ,324, ,
1, ,326, ,
3, ,323, ,
3, ,324, ,
1, ,325, ,
4, ,324, ,
3, ,323, ,
1, ,325, ,
3, ,324, ,
3, ,325, ,
1, ,324, ,
4, ,323, ,
1, ,324, ,
1, ,325, ,
4, ,321, ,
3, ,325, ,
1, ,325, ,
4, ,325, ,
1, ,323, ,
1, ,325, ,
3, ,324, ,
3, ,325, ,
1, ,323, ,
3, ,323, ,
1, ,324, ,
3, ,326, ,
4, ,323, ,
3, ,325, ,
1, ,323, ,
4, ,325, ,
3, ,324, ,
1, ,325, ,
4, ,324, ,
3, ,325, ,
1, ,324, ,
3, ,324, ,
1, ,325, ,
1, ,325, ,
4, ,323, ,
3, ,324, ,
1, ,324, ,
4, ,324, ,
1, ,324, ,
1, ,325, ,
3, ,324, ,
3, ,325, ,
1, ,323, ,
3, ,323, ,
1, ,325, ,
1, ,326, ,
4, ,324, ,
3, ,325, ,
1, ,324, ,
4, ,324, ,
3, ,324, ,
1, ,325, ,
4, ,324, ,
3, ,325, ,
1, ,325, ,
3, ,324, ,
1, ,324, ,
1, ,325, ,
3, ,324, ,
3, ,325, ,
1, ,323, ,
4, ,325, ,
1, ,323, ,
1, ,323, ,
3, ,323, ,
3, ,325, ,
1, ,324, ,
3, ,324, ,
1, ,324, ,
1, ,325, ,
4, ,323, ,
3, ,324, ,
1, ,325, ,
4, ,325, ,
1, ,323, ,
1, ,325, ,
3, ,324, ,
3, ,324, ,
1, ,324, ,
3, ,324, ,
1, ,324, ,
1, ,325, ,
4, ,324, ,
3, ,324, ,
1, ,325, ,
4, ,324, ,
1, ,323, ,
1, ,325, ,
3, ,324, ,
3, ,325, ,
1, ,324, ,
3, ,325, ,
1, ,324, ,
1, ,325, ,
3, ,324, ,
3, ,324, ,
1, ,324, ,
4, ,324, ,
1, ,324, ,
1, ,325, ,
3, ,324, ,
1, ,325, ,
0, ,324, ,
3, ,323, ,
1, ,324, ,
1, ,325, ,
3, ,323, ,
1, ,324, ,
1, ,324, ,
3, ,325, ,
1, ,325, ,
1, ,324, ,
3, ,324, ,
3, ,325, ,
1, ,323, ,
3, ,325, ,
1, ,325, ,
1, ,326, ,
4, ,323, ,
3, ,324, ,
0, ,323, ,
4, ,325, ,
1, ,324, ,
1, ,326, ,
3, ,324, ,
3, ,325, ,
1, ,324, ,
3, ,324, ,
1, ,325, ,
1, ,325, ,
3, ,323, ,
1, ,317, ,
0, ,323, ,
4, ,330, ,
1, ,328, ,
1, ,325, ,
3, ,321, ,
3, ,324, ,
0, ,325, ,
3, ,325, ,
1, ,325, ,
1, ,325, ,
3, ,323, ,
3, ,324, ,
0, ,325, ,
3, ,325, ,
1, ,324, ,
1, ,326, ,
3, ,324, ,
1, ,325, ,
1, ,324, ,
3, ,324, ,
1, ,323, ,
1, ,326, ,
3, ,324, ,
3, ,325, ,
1, ,325, ,
4, ,325, ,
1, ,323, ,
1, ,325, ,
3, ,324, ,
1, ,325, ,
0, ,324, ,
3, ,324, ,
1, ,323, ,
1, ,325, ,
3, ,323, ,
1, ,325, ,
0, ,324, ,
3, ,324, ,
1, ,323, ,
1, ,325, ,
3, ,324, ,
3, ,325, ,
0, ,324, ,
3, ,324, ,
1, ,323, ,
1, ,325, ,
3, ,323, ,
1, ,324, ,
0, ,323, ,
3, ,325, ,
1, ,324, ,
0, ,325, ,
3, ,323, ,
3, ,325, ,
0, ,323, ,
3, ,324, ,
1, ,324, ,
1, ,325, ,
3, ,323, ,
1, ,325, ,
0, ,324, ,
3, ,324, ,
1, ,324, ,
0, ,325, ,
3, ,324, ,
1, ,325, ,
0, ,324, ,
3, ,324, ,
1, ,325, ,
1, ,325, ,
3, ,324, ,
1, ,325, ,
0, ,323, ,
3, ,325, ,
1, ,324, ,
1, ,325, ,
3, ,324, ,
1, ,325, ,
0, ,324, ,
3, ,325, ,
1, ,324, ,
0, ,325, ,
3, ,324, ,
1, ,325, ,
0, ,323, ,
3, ,325, ,
1, ,324, ,
1, ,325, ,
3, ,324, ,
1, ,325, ,
0, ,324, ,
3, ,323, ,
1, ,324, ,
1, ,325, ,
3, ,324, ,
1, ,325, ,
0, ,325, ,
3, ,325, ,
1, ,324, ,
1, ,325, ,
3, ,323, ,
1, ,325, ,
0, ,324, ,
3, ,325, ,
1, ,324, ,
1, ,326, ,
3, ,323, ,
1, ,325, ,
0, ,324, ,
3, ,325, ,
1, ,323, ,
0, ,323, ,
3, ,323, ,
1, ,325, ,
0, ,325, ,
3, ,326, ,
1, ,325, ,
1, ,325, ,
3, ,324, ,
1, ,323, ,
0, ,323, ,
3, ,323, ,
1, ,323, ,
0, ,325, ,
3, ,324, ,
1, ,326, ,
0, ,325, ,
3, ,325, ,
0, ,325, ,
1, ,325, ,
3, ,323, ,
1, ,325, ,
0, ,324, ,
3, ,324, ,
1, ,324, ,
0, ,325, ,
3, ,324, ,
1, ,323, ,
0, ,323, ,
3, ,324, ,
1, ,325, ,
1, ,325, ,
3, ,324, ,
1, ,326, ,
0, ,325, ,
3, ,324, ,
1, ,324, ,
0, ,323, ,
3, ,323, ,
1, ,323, ,
0, ,320, ,
3, ,320, ,
1, ,325, ,
1, ,328, ,
3, ,326, ,
1, ,327, ,
0, ,325, ,
3, ,323, ,
1, ,323, ,
0, ,324, ,
3, ,323, ,
1, ,325, ,
0, ,323, ,
3, ,325, ,
1, ,324, ,
1, ,325, ,
3, ,323, ,
1, ,324, ,
0, ,324, ,
3, ,324, ,
1, ,323, ,
0, ,324, ,
3, ,323, ,
1, ,325, ,
0, ,323, ,
3, ,323, ,
1, ,324, ,
0, ,325, ,
3, ,324, ,
1, ,324, ,
0, ,324, ,
3, ,324, ,
1, ,324, ,
0, ,324, ,
3, ,323, ,
1, ,324, ,
0, ,324, ,
3, ,323, ,
1, ,325, ,
1, ,325, ,
3, ,323, ,
1, ,325, ,
0, ,323, ,
3, ,324, ,
1, ,323, ,
0, ,325, ,
3, ,323, ,
1, ,324, ,
0, ,323, ,
3, ,324, ,
1, ,325, ,
0, ,325, ,
3, ,323, ,
1, ,324, ,
0, ,324, ,
3, ,325, ,
1, ,323, ,
0, ,325, ,
3, ,323, ,
1, ,324, ,
0, ,323, ,
3, ,324, ,
0, ,324, ,
0, ,326, ,
3, ,323, ,
1, ,324, ,
0, ,324, ,
3, ,324, ,
1, ,324, ,
0, ,324, ,
3, ,324, ,
1, ,325, ,
0, ,323, ,
3, ,323, ,
1, ,324, ,
1, ,325, ,
3, ,324, ,
1, ,324, ,
0, ,325, ,
3, ,323, ,
1, ,323, ,
0, ,324, ,
3, ,323, ,
1, ,324, ,
0, ,324, ,
3, ,324, ,
0, ,323, ,
1, ,325, ,
3, ,320, ,
1, ,323, ,
0, ,324, ,
3, ,324, ,
1, ,324, ,
0, ,325, ,
3, ,324, ,
1, ,324, ,
0, ,323, ,
3, ,325, ,
0, ,323, ,
0, ,325, ,
3, ,323, ,
1, ,324, ,
0, ,325, ,
3, ,324, ,
1, ,323, ,
0, ,325, ,
3, ,325, ,
1, ,325, ,
0, ,324, ,
3, ,324, ,
0, ,323, ,
0, ,325, ,
3, ,323, ,
1, ,323, ,
0, ,324, ,
3, ,324, ,
1, ,325, ,
0, ,327, ,
3, ,325, ,
1, ,324, ,
0, ,323, ,
3, ,324, ,
0, ,324, ,
0, ,325, ,
3, ,324, ,
1, ,325, ,
0, ,324, ,
3, ,324, ,
0, ,324, ,
0, ,326, ,
3, ,324, ,
1, ,325, ,
0, ,323, ,
1, ,324, ,
0, ,325, ,
0, ,327, ,
3, ,323, ,
1, ,324, ,
0, ,324, ,
3, ,324, ,
1, ,324, ,
0, ,325, ,
3, ,324, ,
1, ,325, ,
0, ,325, ,
3, ,325, ,
0, ,324, ,
0, ,326, ,
3, ,324, ,
1, ,325, ,
0, ,324, ,
3, ,324, ,
1, ,323, ,
0, ,325, ,
3, ,324, ,
1, ,324, ,
0, ,324, ,
3, ,324, ,
1, ,324, ,
0, ,325, ,
3, ,324, ,
1, ,325, ,
0, ,324, ,
3, ,324, ,
1, ,324, ,
0, ,325, ,
3, ,324, ,
1, ,324, ,
0, ,323, ,
3, ,325, ,
0, ,323, ,
1, ,327, ,
3, ,324, ,
1, ,324, ,
0, ,324, ,
3, ,325, ,
1, ,324, ,
0, ,325, ,
3, ,324, ,
1, ,324, ,
0, ,324, ,
1, ,324, ,
0, ,325, ,
1, ,325, ,
3, ,324, ,
1, ,324, ,
0, ,325, ,
3, ,324, ,
1, ,324, ,
0, ,325, ,
3, ,324, ,
1, ,324, ,
0, ,324, ,
3, ,324, ,
0, ,324, ,
0, ,325, ,
3, ,323, ,
1, ,325, ,
0, ,325, ,
3, ,324, ,
1, ,324, ,
0, ,325, ,
3, ,324, ,
1, ,325, ,
0, ,324, ,
1, ,324, ,
0, ,325, ,
1, ,326, ,
3, ,324, ,
1, ,323, ,
0, ,324, ,
3, ,324, ,
0, ,324, ,
0, ,325, ,
1, ,324, ,
1, ,325, ,
0, ,325, ,
3, ,323, ,
0, ,323, ,
0, ,326, ,
3, ,324, ,
