src/vary_led_1562/temp0008712.CSV

Format,1.0B,
Memory Length,10000,Memory Length,10000,
IntpDistance,0,IntpDistance,0,
Trigger Address,5159,Trigger Address,5159,
Trigger Level,3.000E-01,Trigger Level,3.000E-01,
Source,CH1,Source,CH2,
Vertical Units,V,Vertical Units,V,
Vertical Units Div,0,Vertical Units Div,0,
Vertical Units Extend Div,16,Vertical Units Extend Div,16,
Label,,Label,,
Probe Type,0,Probe Type,0,
Probe Ratio,1.000e+01,Probe Ratio,1.000e+00,
Vertical Scale,5.000e-01,Vertical Scale,2.000e-01,
Vertical Position,-1.780e+00,Vertical Position,-2.240e+00,
Horizontal Units,S,Horizontal Units,S,
Horizontal Scale,2.000E-05,Horizontal Scale,2.000E-05,
Horizontal Position,-3.200E-06,Horizontal Position,-3.200E-06,
Horizontal Mode,Main,Horizontal Mode,Main,
SincET Mode,Real Time,SincET Mode,Real Time,
Sampling Period,2.000e-08,Sampling Period,2.000e-08,
Horizontal Old Scale,2.000E-05,Horizontal Old Scale,2.000E-05,
Horizontal Old Position,-3.200E-06,Horizontal Old Position,-3.200E-06,
Firmware,V1.23,Firmware,V1.23,
Mode,Fast,Mode,Fast,
Waveform Data,,Waveform Data,,
1, ,345, ,
3, ,346, ,
10, ,346, ,
70, ,347, ,
46, ,345, ,
25, ,345, ,
16, ,346, ,
13, ,349, ,
10, ,346, ,
5, ,344, ,
5, ,345, ,
4, ,346, ,
4, ,345, ,
4, ,348, ,
3, ,345, ,
3, ,346, ,
5, ,345, ,
3, ,345, ,
4, ,345, ,
4, ,348, ,
4, ,345, ,
3, ,346, ,
5, ,346, ,
1, ,345, ,
3, ,345, ,
4, ,348, ,
4, ,346, ,
1, ,346, ,
4, ,346, ,
3, ,345, ,
3, ,346, ,
4, ,347, ,
4, ,344, ,
1, ,346, ,
4, ,346, ,
3, ,346, ,
3, ,346, ,
4, ,346, ,
4, ,345, ,
1, ,346, ,
4, ,346, ,
3, ,346, ,
3, ,345, ,
4, ,347, ,
4, ,345, ,
1, ,346, ,
4, ,346, ,
3, ,346, ,
3, ,345, ,
4, ,346, ,
4, ,346, ,
1, ,347, ,
4, ,345, ,
3, ,345, ,
3, ,345, ,
3, ,348, ,
3, ,344, ,
1, ,347, ,
4, ,346, ,
3, ,346, ,
3, ,345, ,
4, ,346, ,
3, ,345, ,
1, ,346, ,
4, ,345, ,
3, ,346, ,
3, ,347, ,
4, ,347, ,
3, ,344, ,
1, ,346, ,
4, ,347, ,
3, ,346, ,
3, ,345, ,
3, ,346, ,
3, ,345, ,
1, ,346, ,
4, ,346, ,
1, ,346, ,
3, ,345, ,
3, ,348, ,
3, ,344, ,
1, ,346, ,
4, ,346, ,
3, ,345, ,
3, ,345, ,
4, ,346, ,
3, ,345, ,
1, ,346, ,
4, ,345, ,
1, ,345, ,
3, ,346, ,
4, ,347, ,
3, ,344, ,
1, ,346, ,
4, ,346, ,
1, ,346, ,
3, ,346, ,
3, ,347, ,
3, ,345, ,
1, ,346, ,
4, ,345, ,
1, ,346, ,
3, ,345, ,
3, ,346, ,
3, ,345, ,
1, ,346, ,
4, ,346, ,
1, ,346, ,
3, ,345, ,
3, ,347, ,
3, ,345, ,
1, ,346, ,
4, ,345, ,
3, ,346, ,
3, ,345, ,
3, ,347, ,
3, ,344, ,
1, ,346, ,
4, ,346, ,
3, ,347, ,
3, ,344, ,
3, ,347, ,
3, ,345, ,
1, ,347, ,
4, ,344, ,
3, ,345, ,
3, ,347, ,
3, ,348, ,
3, ,344, ,
1, ,346, ,
4, ,346, ,
3, ,346, ,
3, ,345, ,
3, ,346, ,
3, ,345, ,
1, ,345, ,
4, ,346, ,
3, ,346, ,
3, ,346, ,
3, ,347, ,
3, ,344, ,
1, ,346, ,
4, ,346, ,
3, ,346, ,
1, ,346, ,
3, ,346, ,
3, ,345, ,
1, ,347, ,
4, ,345, ,
1, ,345, ,
3, ,344, ,
3, ,347, ,
3, ,344, ,
1, ,346, ,
3, ,345, ,
1, ,346, ,
3, ,345, ,
3, ,347, ,
3, ,345, ,
1, ,346, ,
4, ,345, ,
3, ,345, ,
1, ,345, ,
3, ,347, ,
3, ,344, ,
1, ,346, ,
4, ,345, ,
3, ,345, ,
1, ,345, ,
3, ,348, ,
3, ,345, ,
1, ,346, ,
3, ,346, ,
1, ,346, ,
1, ,345, ,
3, ,348, ,
3, ,345, ,
1, ,347, ,
3, ,346, ,
1, ,346, ,
3, ,345, ,
3, ,346, ,
3, ,345, ,
1, ,346, ,
3, ,345, ,
3, ,346, ,
1, ,346, ,
3, ,347, ,
3, ,345, ,
1, ,347, ,
3, ,346, ,
3, ,346, ,
1, ,345, ,
3, ,347, ,
3, ,345, ,
1, ,346, ,
3, ,345, ,
1, ,346, ,
1, ,346, ,
3, ,348, ,
3, ,345, ,
1, ,346, ,
3, ,346, ,
1, ,346, ,
1, ,345, ,
3, ,346, ,
1, ,344, ,
1, ,346, ,
3, ,345, ,
1, ,346, ,
3, ,346, ,
3, ,347, ,
3, ,344, ,
1, ,346, ,
3, ,346, ,
1, ,346, ,
1, ,345, ,
3, ,347, ,
3, ,346, ,
0, ,346, ,
3, ,345, ,
1, ,345, ,
3, ,345, ,
3, ,346, ,
1, ,342, ,
53, ,347, ,
41, ,347, ,
27, ,346, ,
18, ,345, ,
13, ,347, ,
9, ,345, ,
6, ,346, ,
8, ,346, ,
5, ,345, ,
4, ,345, ,
4, ,347, ,
3, ,344, ,
3, ,346, ,
5, ,346, ,
3, ,346, ,
3, ,344, ,
4, ,346, ,
4, ,344, ,
1, ,347, ,
4, ,345, ,
3, ,345, ,
3, ,345, ,
3, ,348, ,
4, ,345, ,
3, ,346, ,
4, ,346, ,
3, ,346, ,
3, ,344, ,
4, ,348, ,
3, ,346, ,
1, ,346, ,
4, ,346, ,
1, ,345, ,
3, ,345, ,
4, ,347, ,
4, ,344, ,
3, ,346, ,
4, ,346, ,
3, ,341, ,
3, ,344, ,
3, ,349, ,
4, ,349, ,
1, ,347, ,
4, ,344, ,
1, ,345, ,
3, ,346, ,
3, ,347, ,
3, ,345, ,
3, ,346, ,
4, ,346, ,
3, ,345, ,
3, ,345, ,
4, ,348, ,
3, ,345, ,
1, ,348, ,
4, ,345, ,
3, ,346, ,
3, ,346, ,
3, ,346, ,
4, ,345, ,
1, ,347, ,
4, ,346, ,
1, ,346, ,
3, ,345, ,
4, ,348, ,
3, ,345, ,
1, ,347, ,
4, ,345, ,
3, ,345, ,
3, ,345, ,
4, ,348, ,
3, ,345, ,
1, ,348, ,
4, ,346, ,
1, ,346, ,
3, ,345, ,
3, ,348, ,
3, ,345, ,
1, ,348, ,
4, ,345, ,
3, ,345, ,
3, ,347, ,
4, ,346, ,
3, ,345, ,
1, ,346, ,
4, ,346, ,
3, ,346, ,
3, ,345, ,
3, ,348, ,
3, ,345, ,
1, ,348, ,
4, ,345, ,
1, ,345, ,
3, ,345, ,
3, ,348, ,
3, ,344, ,
1, ,347, ,
4, ,346, ,
3, ,346, ,
3, ,344, ,
4, ,347, ,
3, ,345, ,
1, ,348, ,
4, ,345, ,
1, ,345, ,
3, ,346, ,
3, ,347, ,
3, ,344, ,
1, ,346, ,
4, ,346, ,
3, ,346, ,
3, ,345, ,
3, ,348, ,
3, ,345, ,
1, ,346, ,
4, ,345, ,
1, ,344, ,
1, ,345, ,
3, ,347, ,
3, ,344, ,
1, ,346, ,
4, ,346, ,
1, ,345, ,
3, ,346, ,
3, ,346, ,
3, ,346, ,
1, ,347, ,
4, ,345, ,
3, ,345, ,
3, ,346, ,
3, ,347, ,
3, ,344, ,
1, ,346, ,
4, ,346, ,
1, ,345, ,
3, ,346, ,
3, ,346, ,
3, ,345, ,
1, ,346, ,
4, ,346, ,
3, ,346, ,
3, ,346, ,
3, ,348, ,
3, ,345, ,
1, ,346, ,
4, ,346, ,
1, ,346, ,
3, ,344, ,
3, ,346, ,
3, ,345, ,
1, ,347, ,
4, ,345, ,
3, ,346, ,
3, ,344, ,
3, ,347, ,
3, ,345, ,
1, ,346, ,
4, ,346, ,
3, ,346, ,
3, ,345, ,
3, ,346, ,
3, ,345, ,
1, ,347, ,
4, ,346, ,
1, ,346, ,
1, ,345, ,
3, ,348, ,
3, ,344, ,
1, ,346, ,
3, ,346, ,
1, ,346, ,
3, ,345, ,
3, ,347, ,
3, ,345, ,
1, ,348, ,
4, ,345, ,
3, ,346, ,
3, ,346, ,
3, ,347, ,
3, ,344, ,
1, ,346, ,
3, ,346, ,
1, ,346, ,
1, ,345, ,
3, ,346, ,
3, ,345, ,
1, ,347, ,
3, ,346, ,
1, ,344, ,
3, ,346, ,
3, ,346, ,
3, ,344, ,
1, ,348, ,
3, ,346, ,
1, ,346, ,
1, ,344, ,
3, ,346, ,
3, ,346, ,
1, ,347, ,
3, ,345, ,
1, ,346, ,
3, ,346, ,
3, ,346, ,
3, ,344, ,
1, ,346, ,
3, ,346, ,
3, ,346, ,
1, ,346, ,
3, ,346, ,
3, ,345, ,
1, ,347, ,
4, ,346, ,
1, ,346, ,
1, ,346, ,
3, ,348, ,
1, ,345, ,
1, ,347, ,
3, ,344, ,
1, ,346, ,
1, ,346, ,
3, ,348, ,
3, ,346, ,
1, ,346, ,
3, ,345, ,
1, ,345, ,
3, ,346, ,
3, ,348, ,
3, ,344, ,
1, ,345, ,
3, ,345, ,
1, ,345, ,
3, ,346, ,
3, ,346, ,
3, ,345, ,
1, ,346, ,
3, ,345, ,
1, ,345, ,
3, ,345, ,
3, ,348, ,
3, ,345, ,
1, ,346, ,
3, ,346, ,
1, ,345, ,
3, ,346, ,
3, ,346, ,
3, ,345, ,
1, ,346, ,
4, ,346, ,
1, ,345, ,
3, ,346, ,
3, ,347, ,
1, ,344, ,
1, ,346, ,
3, ,348, ,
1, ,345, ,
1, ,346, ,
3, ,346, ,
3, ,345, ,
1, ,346, ,
3, ,345, ,
1, ,346, ,
1, ,346, ,
3, ,347, ,
3, ,345, ,
1, ,348, ,
3, ,346, ,
1, ,346, ,
1, ,346, ,
3, ,348, ,
3, ,345, ,
1, ,348, ,
3, ,345, ,
1, ,345, ,
3, ,345, ,
3, ,348, ,
1, ,345, ,
1, ,346, ,
3, ,346, ,
1, ,347, ,
3, ,346, ,
3, ,346, ,
1, ,345, ,
1, ,346, ,
3, ,345, ,
1, ,345, ,
1, ,346, ,
3, ,347, ,
1, ,344, ,
1, ,346, ,
3, ,346, ,
1, ,345, ,
1, ,345, ,
3, ,346, ,
3, ,345, ,
1, ,347, ,
4, ,345, ,
1, ,346, ,
3, ,346, ,
3, ,347, ,
3, ,345, ,
1, ,346, ,
3, ,346, ,
1, ,346, ,
1, ,345, ,
3, ,346, ,
1, ,345, ,
0, ,346, ,
3, ,346, ,
1, ,345, ,
3, ,346, ,
3, ,347, ,
1, ,344, ,
1, ,346, ,
3, ,346, ,
1, ,346, ,
1, ,345, ,
3, ,346, ,
3, ,346, ,
0, ,346, ,
3, ,345, ,
1, ,346, ,
1, ,345, ,
3, ,347, ,
1, ,345, ,
0, ,346, ,
3, ,346, ,
1, ,347, ,
1, ,345, ,
3, ,346, ,
1, ,344, ,
0, ,342, ,
3, ,344, ,
1, ,349, ,
1, ,349, ,
3, ,346, ,
1, ,342, ,
0, ,345, ,
3, ,344, ,
1, ,343, ,
1, ,343, ,
3, ,347, ,
1, ,348, ,
0, ,349, ,
3, ,348, ,
1, ,347, ,
1, ,344, ,
3, ,346, ,
1, ,343, ,
1, ,346, ,
3, ,346, ,
1, ,346, ,
1, ,345, ,
3, ,346, ,
3, ,344, ,
0, ,347, ,
3, ,345, ,
1, ,345, ,
1, ,346, ,
3, ,347, ,
1, ,345, ,
0, ,346, ,
3, ,346, ,
1, ,345, ,
1, ,345, ,
3, ,346, ,
1, ,345, ,
1, ,346, ,
3, ,346, ,
1, ,344, ,
1, ,345, ,
3, ,346, ,
3, ,344, ,
1, ,346, ,
3, ,346, ,
1, ,346, ,
1, ,345, ,
3, ,346, ,
1, ,345, ,
0, ,346, ,
3, ,345, ,
1, ,345, ,
1, ,346, ,
1, ,348, ,
1, ,345, ,
0, ,346, ,
3, ,345, ,
1, ,346, ,
1, ,345, ,
3, ,346, ,
3, ,344, ,
0, ,346, ,
3, ,345, ,
1, ,345, ,
1, ,345, ,
3, ,347, ,
1, ,345, ,
1, ,346, ,
3, ,346, ,
1, ,345, ,
1, ,344, ,
3, ,346, ,
1, ,345, ,
0, ,346, ,
3, ,345, ,
1, ,345, ,
1, ,345, ,
3, ,347, ,
1, ,342, ,
0, ,345, ,
3, ,345, ,
1, ,346, ,
1, ,344, ,
3, ,346, ,
1, ,345, ,
0, ,346, ,
3, ,344, ,
1, ,345, ,
1, ,345, ,
3, ,347, ,
1, ,344, ,
0, ,346, ,
3, ,345, ,
1, ,345, ,
1, ,345, ,
3, ,346, ,
1, ,345, ,
0, ,347, ,
3, ,345, ,
1, ,346, ,
1, ,345, ,
3, ,347, ,
1, ,344, ,
0, ,346, ,
3, ,345, ,
1, ,346, ,
1, ,344, ,
1, ,346, ,
1, ,344, ,
0, ,346, ,
3, ,346, ,
1, ,346, ,
1, ,346, ,
1, ,346, ,
41, ,344, ,
71, ,346, ,
47, ,346, ,
28, ,346, ,
16, ,345, ,
13, ,346, ,
10, ,345, ,
6, ,348, ,
6, ,346, ,
4, ,346, ,
3, ,346, ,
4, ,348, ,
3, ,345, ,
3, ,348, ,
4, ,345, ,
3, ,346, ,
4, ,345, ,
4, ,347, ,
4, ,345, ,
1, ,348, ,
5, ,346, ,
3, ,345, ,
3, ,345, ,
4, ,348, ,
4, ,345, ,
1, ,347, ,
4, ,347, ,
3, ,347, ,
3, ,345, ,
4, ,348, ,
4, ,345, ,
1, ,347, ,
4, ,345, ,
1, ,346, ,
3, ,345, ,
4, ,346, ,
4, ,344, ,
3, ,346, ,
4, ,345, ,
1, ,345, ,
3, ,345, ,
4, ,346, ,
4, ,346, ,
1, ,347, ,
4, ,346, ,
3, ,346, ,
3, ,346, ,
4, ,348, ,
3, ,345, ,
3, ,346, ,
4, ,346, ,
3, ,346, ,
3, ,345, ,
3, ,346, ,
4, ,345, ,
3, ,346, ,
4, ,346, ,
3, ,346, ,
3, ,347, ,
4, ,347, ,
3, ,345, ,
3, ,347, ,
4, ,346, ,
3, ,345, ,
3, ,344, ,
3, ,347, ,
3, ,344, ,
1, ,346, ,
4, ,346, ,
3, ,345, ,
3, ,346, ,
3, ,347, ,
3, ,345, ,
1, ,347, ,
4, ,346, ,
3, ,346, ,
3, ,345, ,
4, ,346, ,
3, ,345, ,
1, ,348, ,
4, ,346, ,
1, ,346, ,
3, ,347, ,
3, ,348, ,
3, ,345, ,
1, ,346, ,
4, ,347, ,
1, ,346, ,
3, ,345, ,
3, ,348, ,
3, ,345, ,
1, ,346, ,
4, ,345, ,
1, ,345, ,
3, ,346, ,
3, ,347, ,
3, ,344, ,
1, ,346, ,
4, ,345, ,
3, ,346, ,
3, ,346, ,
3, ,348, ,
3, ,345, ,
1, ,346, ,
4, ,345, ,
1, ,346, ,
3, ,345, ,
3, ,347, ,
3, ,344, ,
1, ,348, ,
4, ,346, ,
1, ,346, ,
3, ,345, ,
3, ,347, ,
3, ,345, ,
1, ,348, ,
4, ,346, ,
3, ,346, ,
3, ,345, ,
3, ,347, ,
3, ,345, ,
1, ,345, ,
4, ,345, ,
3, ,346, ,
3, ,346, ,
3, ,346, ,
3, ,345, ,
1, ,346, ,
4, ,346, ,
3, ,345, ,
3, ,346, ,
3, ,347, ,
3, ,344, ,
1, ,347, ,
4, ,346, ,
3, ,346, ,
3, ,346, ,
3, ,346, ,
3, ,345, ,
1, ,346, ,
4, ,345, ,
1, ,345, ,
3, ,346, ,
3, ,346, ,
3, ,344, ,
1, ,346, ,
4, ,346, ,
1, ,346, ,
3, ,345, ,
3, ,347, ,
3, ,345, ,
1, ,346, ,
4, ,346, ,
1, ,345, ,
3, ,346, ,
3, ,347, ,
3, ,344, ,
1, ,346, ,
4, ,346, ,
1, ,345, ,
1, ,345, ,
3, ,347, ,
3, ,346, ,
1, ,347, ,
4, ,345, ,
1, ,346, ,
3, ,345, ,
3, ,348, ,
3, ,344, ,
1, ,346, ,
4, ,346, ,
1, ,346, ,
3, ,346, ,
3, ,347, ,
3, ,345, ,
1, ,347, ,
4, ,346, ,
3, ,346, ,
3, ,346, ,
3, ,347, ,
3, ,345, ,
1, ,345, ,
3, ,346, ,
1, ,346, ,
1, ,345, ,
3, ,346, ,
3, ,346, ,
1, ,347, ,
4, ,345, ,
1, ,345, ,
3, ,346, ,
3, ,348, ,
3, ,345, ,
1, ,346, ,
3, ,346, ,
1, ,347, ,
3, ,345, ,
3, ,346, ,
3, ,344, ,
1, ,346, ,
3, ,346, ,
1, ,346, ,
3, ,346, ,
3, ,346, ,
3, ,345, ,
1, ,345, ,
3, ,346, ,
1, ,346, ,
3, ,346, ,
3, ,347, ,
3, ,346, ,
1, ,347, ,
3, ,345, ,
1, ,345, ,
1, ,346, ,
3, ,348, ,
3, ,344, ,
1, ,346, ,
4, ,346, ,
1, ,346, ,
1, ,346, ,
3, ,346, ,
3, ,345, ,
1, ,346, ,
3, ,345, ,
1, ,345, ,
3, ,345, ,
3, ,348, ,
3, ,344, ,
1, ,345, ,
3, ,345, ,
1, ,346, ,
3, ,345, ,
3, ,348, ,
1, ,345, ,
1, ,348, ,
3, ,346, ,
1, ,345, ,
1, ,345, ,
3, ,346, ,
1, ,344, ,
1, ,346, ,
3, ,346, ,
1, ,345, ,
1, ,346, ,
3, ,346, ,
3, ,345, ,
1, ,346, ,
3, ,346, ,
1, ,346, ,
3, ,345, ,
3, ,347, ,
1, ,344, ,
1, ,347, ,
3, ,346, ,
1, ,346, ,
1, ,344, ,
3, ,347, ,
1, ,345, ,
1, ,346, ,
3, ,346, ,
1, ,346, ,
1, ,346, ,
3, ,348, ,
3, ,345, ,
1, ,345, ,
3, ,346, ,
1, ,346, ,
1, ,345, ,
3, ,346, ,
1, ,345, ,
1, ,347, ,
3, ,346, ,
1, ,346, ,
1, ,346, ,
3, ,347, ,
1, ,344, ,
1, ,346, ,
3, ,346, ,
1, ,345, ,
1, ,346, ,
3, ,348, ,
3, ,345, ,
1, ,347, ,
3, ,346, ,
1, ,346, ,
1, ,345, ,
3, ,348, ,
1, ,344, ,
1, ,345, ,
3, ,346, ,
1, ,345, ,
1, ,344, ,
3, ,347, ,
1, ,345, ,
1, ,346, ,
3, ,346, ,
1, ,346, ,
1, ,346, ,
3, ,348, ,
3, ,345, ,
1, ,347, ,
3, ,346, ,
1, ,347, ,
1, ,345, ,
3, ,348, ,
1, ,346, ,
1, ,346, ,
3, ,345, ,
1, ,346, ,
3, ,346, ,
3, ,348, ,
1, ,344, ,
1, ,346, ,
3, ,347, ,
1, ,346, ,
1, ,346, ,
3, ,347, ,
1, ,345, ,
1, ,346, ,
3, ,346, ,
1, ,346, ,
1, ,346, ,
3, ,348, ,
3, ,344, ,
1, ,346, ,
3, ,346, ,
1, ,346, ,
1, ,346, ,
3, ,348, ,
1, ,344, ,
0, ,346, ,
3, ,345, ,
1, ,346, ,
1, ,346, ,
3, ,347, ,
1, ,345, ,
1, ,346, ,
3, ,346, ,
1, ,346, ,
1, ,345, ,
3, ,348, ,
1, ,345, ,
1, ,347, ,
3, ,345, ,
1, ,345, ,
1, ,345, ,
3, ,348, ,
1, ,344, ,
1, ,346, ,
3, ,345, ,
1, ,346, ,
1, ,345, ,
3, ,346, ,
1, ,344, ,
0, ,346, ,
3, ,345, ,
1, ,345, ,
1, ,346, ,
1, ,348, ,
1, ,345, ,
1, ,346, ,
3, ,346, ,
1, ,345, ,
1, ,345, ,
3, ,348, ,
3, ,345, ,
1, ,346, ,
3, ,345, ,
1, ,345, ,
1, ,345, ,
3, ,346, ,
1, ,345, ,
1, ,346, ,
3, ,346, ,
1, ,345, ,
1, ,345, ,
3, ,349, ,
1, ,345, ,
0, ,347, ,
3, ,346, ,
1, ,346, ,
1, ,346, ,
3, ,347, ,
1, ,345, ,
0, ,346, ,
3, ,346, ,
1, ,346, ,
1, ,345, ,
3, ,347, ,
1, ,345, ,
0, ,347, ,
3, ,346, ,
1, ,345, ,
1, ,346, ,
3, ,346, ,
1, ,345, ,
1, ,346, ,
3, ,345, ,
1, ,346, ,
1, ,345, ,
3, ,347, ,
1, ,345, ,
0, ,346, ,
3, ,345, ,
1, ,345, ,
1, ,345, ,
1, ,348, ,
1, ,345, ,
0, ,346, ,
3, ,346, ,
1, ,346, ,
1, ,345, ,
3, ,346, ,
1, ,345, ,
0, ,346, ,
3, ,346, ,
1, ,345, ,
1, ,346, ,
1, ,347, ,
1, ,345, ,
0, ,346, ,
3, ,346, ,
1, ,346, ,
1, ,346, ,
1, ,348, ,
3, ,345, ,
0, ,346, ,
3, ,345, ,
1, ,344, ,
1, ,345, ,
1, ,346, ,
1, ,344, ,
0, ,347, ,
3, ,346, ,
1, ,346, ,
1, ,345, ,
3, ,346, ,
3, ,345, ,
0, ,346, ,
3, ,344, ,
1, ,344, ,
1, ,346, ,
1, ,348, ,
1, ,344, ,
0, ,346, ,
3, ,348, ,
1, ,346, ,
1, ,345, ,
3, ,346, ,
1, ,345, ,
0, ,346, ,
3, ,345, ,
1, ,346, ,
1, ,346, ,
3, ,346, ,
1, ,345, ,
1, ,345, ,
3, ,345, ,
1, ,346, ,
1, ,345, ,
1, ,347, ,
1, ,346, ,
0, ,346, ,
3, ,346, ,
1, ,346, ,
1, ,346, ,
3, ,348, ,
1, ,344, ,
0, ,346, ,
3, ,345, ,
1, ,346, ,
1, ,345, ,
3, ,348, ,
1, ,345, ,
0, ,346, ,
3, ,344, ,
1, ,345, ,
1, ,346, ,
3, ,348, ,
1, ,345, ,
0, ,345, ,
3, ,345, ,
1, ,346, ,
1, ,345, ,
3, ,347, ,
1, ,345, ,
0, ,346, ,
3, ,344, ,
1, ,345, ,
1, ,345, ,
1, ,348, ,
1, ,345, ,
0, ,346, ,
3, ,345, ,
1, ,345, ,
1, ,346, ,
3, ,348, ,
1, ,346, ,
0, ,346, ,
3, ,345, ,
1, ,346, ,
1, ,345, ,
1, ,348, ,
1, ,344, ,
0, ,346, ,
3, ,347, ,
1, ,346, ,
1, ,345, ,
1, ,347, ,
1, ,345, ,
0, ,345, ,
3, ,345, ,
1, ,346, ,
1, ,346, ,
3, ,347, ,
1, ,345, ,
0, ,346, ,
3, ,346, ,
1, ,346, ,
1, ,345, ,
1, ,347, ,
1, ,345, ,
0, ,346, ,
3, ,345, ,
1, ,344, ,
1, ,346, ,
3, ,348, ,
1, ,344, ,
0, ,346, ,
3, ,345, ,
1, ,345, ,
1, ,345, ,
1, ,348, ,
1, ,345, ,
0, ,346, ,
3, ,344, ,
1, ,345, ,
1, ,346, ,
3, ,347, ,
1, ,345, ,
0, ,346, ,
3, ,345, ,
1, ,346, ,
1, ,345, ,
3, ,347, ,
1, ,345, ,
0, ,346, ,
3, ,345, ,
1, ,345, ,
1, ,345, ,
1, ,348, ,
1, ,345, ,
0, ,346, ,
3, ,346, ,
1, ,345, ,
1, ,345, ,
3, ,348, ,
1, ,345, ,
0, ,346, ,
3, ,345, ,
1, ,344, ,
1, ,345, ,
3, ,346, ,
1, ,344, ,
0, ,346, ,
3, ,346, ,
1, ,346, ,
1, ,346, ,
1, ,346, ,
1, ,345, ,
0, ,346, ,
3, ,344, ,
1, ,346, ,
1, ,345, ,
1, ,348, ,
1, ,345, ,
0, ,347, ,
3, ,346, ,
1, ,346, ,
1, ,345, ,
3, ,346, ,
1, ,345, ,
0, ,346, ,
3, ,345, ,
1, ,345, ,
1, ,346, ,
3, ,348, ,
1, ,345, ,
0, ,346, ,
3, ,346, ,
1, ,346, ,
1, ,345, ,
1, ,348, ,
1, ,345, ,
0, ,346, ,
1, ,345, ,
0, ,346, ,
1, ,345, ,
1, ,347, ,
1, ,345, ,
0, ,346, ,
3, ,346, ,
0, ,346, ,
0, ,346, ,
1, ,346, ,
1, ,345, ,
0, ,346, ,
3, ,345, ,
1, ,344, ,
1, ,346, ,
1, ,346, ,
1, ,344, ,
0, ,346, ,
3, ,345, ,
1, ,345, ,
1, ,345, ,
1, ,348, ,
1, ,345, ,
0, ,347, ,
3, ,344, ,
1, ,345, ,
1, ,346, ,
1, ,347, ,
1, ,345, ,
0, ,346, ,
3, ,347, ,
1, ,345, ,
1, ,345, ,
3, ,347, ,
1, ,345, ,
0, ,346, ,
3, ,345, ,
1, ,345, ,
1, ,346, ,
3, ,348, ,
1, ,344, ,
0, ,345, ,
3, ,346, ,
1, ,346, ,
0, ,345, ,
3, ,348, ,
1, ,346, ,
0, ,346, ,
3, ,346, ,
1, ,345, ,
1, ,345, ,
3, ,347, ,
1, ,345, ,
0, ,346, ,
3, ,346, ,
1, ,346, ,
1, ,345, ,
1, ,346, ,
1, ,344, ,
0, ,346, ,
3, ,344, ,
1, ,346, ,
1, ,346, ,
3, ,348, ,
1, ,345, ,
0, ,346, ,
3, ,346, ,
1, ,346, ,
1, ,345, ,
1, ,348, ,
1, ,345, ,
0, ,347, ,
3, ,346, ,
1, ,345, ,
1, ,345, ,
1, ,348, ,
1, ,345, ,
0, ,346, ,
3, ,346, ,
1, ,345, ,
1, ,345, ,
3, ,346, ,
1, ,345, ,
0, ,346, ,
3, ,346, ,
1, ,345, ,
1, ,347, ,
1, ,348, ,
1, ,345, ,
0, ,346, ,
3, ,346, ,
1, ,345, ,
48, ,346, ,
84, ,345, ,
56, ,344, ,
30, ,346, ,
20, ,344, ,
13, ,344, ,
11, ,345, ,
9, ,347, ,
6, ,345, ,
4, ,348, ,
6, ,348, ,
4, ,348, ,
3, ,347, ,
4, ,349, ,
4, ,345, ,
3, ,346, ,
5, ,344, ,
3, ,344, ,
3, ,345, ,
4, ,347, ,
4, ,344, ,
1, ,345, ,
4, ,346, ,
3, ,346, ,
3, ,346, ,
4, ,348, ,
4, ,345, ,
3, ,347, ,
4, ,345, ,
3, ,346, ,
3, ,346, ,
4, ,346, ,
3, ,344, ,
1, ,344, ,
4, ,346, ,
3, ,345, ,
3, ,344, ,
4, ,345, ,
4, ,344, ,
1, ,346, ,
4, ,345, ,
3, ,346, ,
3, ,346, ,
4, ,347, ,
4, ,345, ,
1, ,346, ,
4, ,346, ,
3, ,346, ,
3, ,346, ,
4, ,348, ,
4, ,346, ,
3, ,347, ,
4, ,346, ,
3, ,345, ,
3, ,346, ,
4, ,347, ,
3, ,343, ,
1, ,346, ,
4, ,345, ,
3, ,345, ,
3, ,344, ,
4, ,348, ,
3, ,344, ,
1, ,346, ,
4, ,346, ,
1, ,346, ,
3, ,347, ,
3, ,348, ,
3, ,345, ,
1, ,346, ,
4, ,346, ,
3, ,346, ,
3, ,346, ,
4, ,347, ,
3, ,345, ,
1, ,345, ,
4, ,345, ,
1, ,345, ,
3, ,346, ,
3, ,348, ,
3, ,345, ,
1, ,345, ,
4, ,346, ,
1, ,346, ,
3, ,346, ,
3, ,347, ,
3, ,345, ,
1, ,347, ,
4, ,345, ,
1, ,345, ,
3, ,345, ,
3, ,347, ,
3, ,343, ,
1, ,345, ,
4, ,345, ,
1, ,346, ,
3, ,345, ,
4, ,346, ,
3, ,346, ,
1, ,348, ,
4, ,345, ,
3, ,346, ,
3, ,346, ,
3, ,348, ,
3, ,346, ,
1, ,345, ,
4, ,347, ,
1, ,345, ,
3, ,345, ,
3, ,346, ,
3, ,345, ,
1, ,345, ,
4, ,345, ,
3, ,345, ,
3, ,345, ,
3, ,348, ,
3, ,345, ,
1, ,346, ,
4, ,346, ,
3, ,346, ,
3, ,345, ,
3, ,347, ,
3, ,346, ,
1, ,347, ,
4, ,345, ,
3, ,346, ,
3, ,346, ,
3, ,347, ,
3, ,344, ,
1, ,344, ,
4, ,346, ,
3, ,345, ,
3, ,344, ,
3, ,346, ,
3, ,345, ,
1, ,348, ,
4, ,346, ,
1, ,345, ,
3, ,347, ,
3, ,348, ,
3, ,345, ,
1, ,346, ,
4, ,346, ,
3, ,347, ,
3, ,345, ,
3, ,346, ,
3, ,345, ,
1, ,346, ,
4, ,344, ,
1, ,345, ,
3, ,345, ,
3, ,347, ,
3, ,344, ,
1, ,346, ,
4, ,346, ,
1, ,346, ,
3, ,346, ,
3, ,348, ,
3, ,345, ,
1, ,348, ,
4, ,345, ,
1, ,346, ,
3, ,346, ,
3, ,348, ,
3, ,344, ,
1, ,346, ,
4, ,346, ,
1, ,346, ,
3, ,345, ,
3, ,347, ,
3, ,345, ,
1, ,347, ,
3, ,345, ,
3, ,346, ,
3, ,346, ,
3, ,348, ,
3, ,345, ,
1, ,347, ,
4, ,346, ,
1, ,345, ,
1, ,344, ,
3, ,346, ,
3, ,345, ,
1, ,346, ,
4, ,346, ,
1, ,346, ,
3, ,346, ,
3, ,348, ,
3, ,344, ,
1, ,346, ,
3, ,346, ,
1, ,346, ,
3, ,346, ,
3, ,348, ,
3, ,346, ,
1, ,348, ,
4, ,345, ,
1, ,345, ,
3, ,346, ,
3, ,348, ,
3, ,344, ,
1, ,346, ,
4, ,346, ,
1, ,346, ,
1, ,345, ,
3, ,347, ,
1, ,345, ,
1, ,346, ,
3, ,345, ,
3, ,345, ,
3, ,345, ,
3, ,347, ,
3, ,344, ,
1, ,346, ,
3, ,346, ,
1, ,346, ,
1, ,345, ,
3, ,346, ,
3, ,343, ,
1, ,344, ,
3, ,344, ,
1, ,346, ,
1, ,347, ,
3, ,350, ,
3, ,345, ,
1, ,346, ,
4, ,345, ,
1, ,344, ,
1, ,344, ,
3, ,346, ,
3, ,345, ,
1, ,347, ,
3, ,346, ,
1, ,346, ,
3, ,345, ,
3, ,348, ,
1, ,344, ,
1, ,346, ,
3, ,346, ,
1, ,346, ,
3, ,344, ,
3, ,346, ,
3, ,344, ,
1, ,346, ,
3, ,344, ,
1, ,344, ,
3, ,346, ,
3, ,348, ,
3, ,345, ,
1, ,348, ,
3, ,347, ,
1, ,346, ,
3, ,345, ,
3, ,347, ,
3, ,345, ,
1, ,345, ,
3, ,344, ,
1, ,344, ,
1, ,346, ,
3, ,347, ,
3, ,344, ,
1, ,346, ,
3, ,345, ,
1, ,345, ,
3, ,346, ,
3, ,346, ,
1, ,345, ,
1, ,346, ,
3, ,344, ,
1, ,345, ,
1, ,345, ,
3, ,347, ,
1, ,345, ,
1, ,346, ,
3, ,346, ,
1, ,346, ,
3, ,344, ,
3, ,345, ,
3, ,345, ,
1, ,346, ,
3, ,345, ,
1, ,346, ,
1, ,345, ,
3, ,346, ,
1, ,345, ,
1, ,348, ,
3, ,346, ,
1, ,345, ,
1, ,345, ,
3, ,348, ,
1, ,345, ,
1, ,346, ,
3, ,345, ,
1, ,344, ,
1, ,345, ,
1, ,347, ,
1, ,344, ,
1, ,346, ,
3, ,346, ,
1, ,345, ,
1, ,344, ,
3, ,346, ,
3, ,345, ,
0, ,346, ,
3, ,345, ,
1, ,345, ,
1, ,346, ,
3, ,348, ,
1, ,344, ,
1, ,346, ,
3, ,346, ,
1, ,345, ,
1, ,344, ,
3, ,348, ,
1, ,345, ,
1, ,345, ,
3, ,346, ,
1, ,345, ,
1, ,345, ,
3, ,346, ,
1, ,344, ,
0, ,345, ,
3, ,346, ,
1, ,345, ,
1, ,346, ,
3, ,348, ,
1, ,346, ,
1, ,348, ,
3, ,345, ,
1, ,345, ,
1, ,346, ,
1, ,347, ,
3, ,345, ,
1, ,345, ,
3, ,347, ,
1, ,347, ,
1, ,347, ,
3, ,347, ,
3, ,346, ,
1, ,346, ,
3, ,346, ,
1, ,346, ,
1, ,346, ,
1, ,347, ,
1, ,344, ,
0, ,346, ,
3, ,345, ,
1, ,345, ,
1, ,345, ,
1, ,346, ,
3, ,344, ,
0, ,345, ,
3, ,346, ,
1, ,347, ,
1, ,347, ,
3, ,348, ,
3, ,345, ,
0, ,346, ,
3, ,345, ,
1, ,345, ,
1, ,344, ,
3, ,346, ,
1, ,345, ,
0, ,346, ,
