src/vary_led_1562/temp0009671.CSV

Format,1.0B,
Memory Length,10000,Memory Length,10000,
IntpDistance,0,IntpDistance,0,
Trigger Address,5159,Trigger Address,5159,
Trigger Level,3.000E-01,Trigger Level,3.000E-01,
Source,CH1,Source,CH2,
Vertical Units,V,Vertical Units,V,
Vertical Units Div,0,Vertical Units Div,0,
Vertical Units Extend Div,16,Vertical Units Extend Div,16,
Label,,Label,,
Probe Type,0,Probe Type,0,
Probe Ratio,1.000e+01,Probe Ratio,1.000e+00,
Vertical Scale,5.000e-01,Vertical Scale,2.000e-01,
Vertical Position,-1.780e+00,Vertical Position,-2.240e+00,
Horizontal Units,S,Horizontal Units,S,
Horizontal Scale,2.000E-05,Horizontal Scale,2.000E-05,
Horizontal Position,-3.200E-06,Horizontal Position,-3.200E-06,
Horizontal Mode,Main,Horizontal Mode,Main,
SincET Mode,Real Time,SincET Mode,Real Time,
Sampling Period,2.000e-08,Sampling Period,2.000e-08,
Horizontal Old Scale,2.000E-05,Horizontal Old Scale,2.000E-05,
Horizontal Old Position,-3.200E-06,Horizontal Old Position,-3.200E-06,
Firmware,V1.23,Firmware,V1.23,
Mode,Fast,Mode,Fast,
Waveform Data,,Waveform Data,,
1, ,318, ,
0, ,318, ,
1, ,317, ,
1, ,317, ,
1, ,318, ,
0, ,318, ,
1, ,319, ,
0, ,317, ,
0, ,318, ,
1, ,317, ,
1, ,318, ,
0, ,318, ,
1, ,318, ,
0, ,317, ,
0, ,319, ,
1, ,318, ,
1, ,317, ,
121, ,317, ,
72, ,319, ,
38, ,317, ,
27, ,316, ,
23, ,318, ,
15, ,318, ,
6, ,317, ,
8, ,314, ,
8, ,318, ,
6, ,323, ,
5, ,321, ,
3, ,317, ,
3, ,317, ,
5, ,319, ,
3, ,317, ,
3, ,318, ,
4, ,317, ,
4, ,318, ,
3, ,318, ,
4, ,318, ,
3, ,318, ,
3, ,320, ,
4, ,318, ,
4, ,317, ,
1, ,318, ,
4, ,318, ,
3, ,317, ,
3, ,318, ,
4, ,317, ,
4, ,319, ,
3, ,317, ,
4, ,317, ,
3, ,317, ,
3, ,319, ,
4, ,317, ,
4, ,317, ,
1, ,317, ,
4, ,318, ,
3, ,318, ,
3, ,317, ,
4, ,319, ,
4, ,317, ,
3, ,317, ,
4, ,318, ,
3, ,318, ,
3, ,319, ,
4, ,319, ,
4, ,318, ,
1, ,318, ,
4, ,319, ,
3, ,318, ,
3, ,317, ,
4, ,317, ,
4, ,317, ,
1, ,318, ,
4, ,319, ,
3, ,318, ,
3, ,319, ,
4, ,317, ,
4, ,318, ,
3, ,318, ,
4, ,319, ,
3, ,317, ,
3, ,318, ,
4, ,318, ,
3, ,319, ,
1, ,317, ,
4, ,319, ,
3, ,317, ,
3, ,318, ,
4, ,317, ,
3, ,317, ,
1, ,318, ,
4, ,320, ,
3, ,317, ,
3, ,319, ,
4, ,318, ,
4, ,317, ,
3, ,318, ,
4, ,319, ,
1, ,317, ,
3, ,319, ,
4, ,317, ,
3, ,317, ,
1, ,318, ,
4, ,318, ,
3, ,317, ,
3, ,317, ,
4, ,318, ,
4, ,319, ,
1, ,317, ,
4, ,318, ,
3, ,317, ,
3, ,319, ,
4, ,317, ,
3, ,317, ,
1, ,317, ,
4, ,318, ,
3, ,317, ,
3, ,318, ,
3, ,318, ,
3, ,317, ,
3, ,318, ,
4, ,318, ,
1, ,318, ,
3, ,318, ,
4, ,317, ,
3, ,318, ,
1, ,318, ,
4, ,318, ,
1, ,316, ,
3, ,317, ,
3, ,317, ,
3, ,318, ,
1, ,317, ,
4, ,319, ,
3, ,318, ,
3, ,319, ,
4, ,317, ,
3, ,317, ,
1, ,318, ,
4, ,318, ,
3, ,317, ,
1, ,318, ,
3, ,318, ,
3, ,318, ,
1, ,317, ,
3, ,317, ,
1, ,317, ,
1, ,318, ,
3, ,317, ,
3, ,317, ,
1, ,317, ,
4, ,318, ,
1, ,317, ,
3, ,317, ,
3, ,317, ,
3, ,318, ,
1, ,317, ,
4, ,318, ,
3, ,317, ,
3, ,319, ,
3, ,318, ,
3, ,318, ,
1, ,317, ,
3, ,318, ,
3, ,317, ,
1, ,317, ,
3, ,317, ,
3, ,318, ,
1, ,318, ,
3, ,319, ,
1, ,317, ,
1, ,319, ,
3, ,317, ,
3, ,318, ,
1, ,317, ,
3, ,319, ,
1, ,317, ,
3, ,317, ,
3, ,318, ,
3, ,318, ,
1, ,317, ,
3, ,318, ,
1, ,317, ,
3, ,317, ,
3, ,318, ,
3, ,317, ,
1, ,317, ,
3, ,318, ,
3, ,317, ,
3, ,317, ,
3, ,317, ,
3, ,317, ,
1, ,317, ,
3, ,317, ,
1, ,317, ,
3, ,318, ,
3, ,317, ,
3, ,318, ,
1, ,317, ,
3, ,320, ,
3, ,317, ,
3, ,318, ,
3, ,318, ,
3, ,317, ,
1, ,317, ,
3, ,317, ,
3, ,317, ,
1, ,318, ,
3, ,318, ,
3, ,318, ,
1, ,319, ,
3, ,318, ,
3, ,317, ,
1, ,317, ,
3, ,318, ,
3, ,318, ,
1, ,318, ,
3, ,318, ,
1, ,317, ,
1, ,319, ,
3, ,317, ,
3, ,317, ,
1, ,317, ,
3, ,318, ,
3, ,317, ,
1, ,318, ,
3, ,317, ,
3, ,318, ,
1, ,317, ,
3, ,318, ,
3, ,318, ,
1, ,319, ,
3, ,317, ,
3, ,317, ,
1, ,317, ,
3, ,318, ,
1, ,317, ,
1, ,318, ,
3, ,318, ,
3, ,318, ,
1, ,317, ,
3, ,317, ,
1, ,317, ,
3, ,318, ,
3, ,317, ,
3, ,317, ,
1, ,317, ,
3, ,319, ,
1, ,317, ,
1, ,319, ,
3, ,317, ,
3, ,317, ,
1, ,317, ,
3, ,317, ,
1, ,317, ,
3, ,318, ,
3, ,317, ,
3, ,317, ,
1, ,317, ,
3, ,319, ,
1, ,317, ,
3, ,317, ,
3, ,317, ,
3, ,318, ,
1, ,317, ,
3, ,317, ,
1, ,318, ,
1, ,318, ,
3, ,317, ,
1, ,317, ,
1, ,317, ,
3, ,317, ,
3, ,317, ,
1, ,317, ,
3, ,319, ,
3, ,318, ,
1, ,317, ,
3, ,317, ,
1, ,317, ,
1, ,318, ,
3, ,317, ,
3, ,317, ,
1, ,317, ,
3, ,318, ,
1, ,317, ,
1, ,318, ,
3, ,318, ,
3, ,317, ,
1, ,317, ,
3, ,317, ,
1, ,317, ,
3, ,318, ,
3, ,317, ,
3, ,317, ,
1, ,317, ,
3, ,318, ,
1, ,317, ,
1, ,317, ,
3, ,317, ,
3, ,319, ,
1, ,318, ,
3, ,319, ,
1, ,317, ,
1, ,318, ,
3, ,318, ,
3, ,317, ,
1, ,318, ,
3, ,319, ,
1, ,317, ,
1, ,317, ,
3, ,317, ,
3, ,318, ,
1, ,317, ,
3, ,317, ,
1, ,316, ,
1, ,317, ,
3, ,317, ,
3, ,318, ,
1, ,317, ,
3, ,318, ,
1, ,317, ,
1, ,317, ,
3, ,317, ,
3, ,317, ,
1, ,317, ,
3, ,319, ,
3, ,317, ,
1, ,317, ,
3, ,317, ,
1, ,317, ,
1, ,317, ,
3, ,319, ,
1, ,317, ,
1, ,317, ,
3, ,318, ,
3, ,318, ,
1, ,317, ,
3, ,317, ,
1, ,317, ,
1, ,318, ,
3, ,317, ,
3, ,317, ,
1, ,317, ,
3, ,319, ,
1, ,317, ,
1, ,317, ,
3, ,317, ,
1, ,318, ,
1, ,317, ,
3, ,317, ,
1, ,317, ,
1, ,318, ,
3, ,317, ,
3, ,318, ,
1, ,317, ,
3, ,319, ,
3, ,317, ,
1, ,317, ,
1, ,318, ,
1, ,318, ,
1, ,317, ,
3, ,317, ,
1, ,317, ,
1, ,318, ,
3, ,317, ,
3, ,317, ,
1, ,317, ,
3, ,318, ,
1, ,317, ,
1, ,317, ,
1, ,317, ,
1, ,318, ,
1, ,317, ,
3, ,318, ,
1, ,317, ,
1, ,318, ,
3, ,317, ,
3, ,317, ,
1, ,318, ,
3, ,318, ,
1, ,317, ,
1, ,317, ,
3, ,317, ,
1, ,318, ,
1, ,317, ,
3, ,319, ,
1, ,317, ,
1, ,318, ,
3, ,317, ,
1, ,317, ,
1, ,318, ,
3, ,318, ,
1, ,317, ,
1, ,317, ,
1, ,317, ,
1, ,317, ,
1, ,317, ,
3, ,318, ,
1, ,312, ,
1, ,317, ,
3, ,321, ,
3, ,320, ,
1, ,317, ,
3, ,317, ,
1, ,316, ,
1, ,318, ,
3, ,317, ,
1, ,317, ,
1, ,318, ,
3, ,319, ,
1, ,317, ,
1, ,317, ,
3, ,318, ,
1, ,317, ,
1, ,317, ,
3, ,318, ,
1, ,317, ,
1, ,318, ,
3, ,317, ,
1, ,318, ,
1, ,317, ,
3, ,318, ,
1, ,317, ,
1, ,319, ,
3, ,317, ,
1, ,317, ,
1, ,317, ,
3, ,319, ,
1, ,316, ,
1, ,318, ,
3, ,317, ,
1, ,317, ,
1, ,317, ,
3, ,318, ,
1, ,318, ,
1, ,319, ,
3, ,317, ,
1, ,317, ,
0, ,318, ,
3, ,319, ,
1, ,317, ,
1, ,317, ,
3, ,318, ,
1, ,317, ,
1, ,317, ,
3, ,317, ,
1, ,317, ,
1, ,318, ,
3, ,317, ,
1, ,317, ,
1, ,317, ,
3, ,319, ,
1, ,317, ,
1, ,317, ,
3, ,317, ,
1, ,318, ,
0, ,317, ,
3, ,317, ,
1, ,317, ,
1, ,319, ,
3, ,317, ,
1, ,318, ,
0, ,318, ,
3, ,319, ,
1, ,317, ,
1, ,317, ,
1, ,317, ,
1, ,318, ,
1, ,317, ,
3, ,317, ,
1, ,317, ,
1, ,318, ,
3, ,317, ,
3, ,317, ,
0, ,317, ,
3, ,318, ,
1, ,318, ,
1, ,318, ,
3, ,318, ,
1, ,319, ,
1, ,317, ,
3, ,317, ,
1, ,317, ,
1, ,317, ,
3, ,317, ,
1, ,318, ,
0, ,317, ,
3, ,319, ,
1, ,317, ,
1, ,318, ,
1, ,317, ,
1, ,317, ,
1, ,317, ,
3, ,317, ,
1, ,317, ,
1, ,317, ,
3, ,316, ,
1, ,318, ,
0, ,319, ,
3, ,319, ,
1, ,318, ,
1, ,317, ,
3, ,318, ,
1, ,317, ,
1, ,316, ,
3, ,317, ,
1, ,317, ,
1, ,319, ,
1, ,317, ,
1, ,319, ,
0, ,317, ,
3, ,319, ,
1, ,317, ,
1, ,317, ,
1, ,317, ,
3, ,318, ,
1, ,317, ,
3, ,318, ,
1, ,317, ,
1, ,319, ,
1, ,317, ,
1, ,317, ,
0, ,317, ,
3, ,318, ,
1, ,317, ,
1, ,317, ,
3, ,318, ,
3, ,318, ,
1, ,317, ,
3, ,318, ,
1, ,317, ,
1, ,318, ,
3, ,317, ,
1, ,317, ,
0, ,318, ,
3, ,319, ,
1, ,317, ,
1, ,318, ,
3, ,317, ,
1, ,317, ,
0, ,317, ,
3, ,319, ,
1, ,317, ,
1, ,317, ,
3, ,317, ,
1, ,317, ,
0, ,317, ,
3, ,318, ,
1, ,317, ,
1, ,318, ,
1, ,319, ,
1, ,317, ,
1, ,317, ,
3, ,319, ,
1, ,317, ,
1, ,319, ,
3, ,317, ,
3, ,317, ,
1, ,317, ,
1, ,319, ,
1, ,317, ,
1, ,317, ,
1, ,317, ,
1, ,318, ,
1, ,317, ,
3, ,318, ,
1, ,317, ,
1, ,318, ,
3, ,318, ,
3, ,317, ,
0, ,317, ,
3, ,319, ,
1, ,318, ,
1, ,318, ,
3, ,317, ,
1, ,317, ,
0, ,317, ,
3, ,317, ,
1, ,317, ,
1, ,319, ,
3, ,317, ,
1, ,318, ,
0, ,317, ,
3, ,318, ,
1, ,317, ,
1, ,317, ,
1, ,317, ,
1, ,317, ,
0, ,317, ,
3, ,317, ,
1, ,317, ,
1, ,318, ,
3, ,317, ,
1, ,317, ,
0, ,317, ,
3, ,318, ,
1, ,317, ,
1, ,317, ,
1, ,317, ,
1, ,318, ,
1, ,317, ,
3, ,318, ,
1, ,317, ,
99, ,317, ,
61, ,316, ,
33, ,316, ,
22, ,315, ,
19, ,316, ,
13, ,315, ,
6, ,319, ,
5, ,320, ,
5, ,320, ,
4, ,318, ,
4, ,317, ,
3, ,316, ,
3, ,317, ,
4, ,317, ,
4, ,317, ,
3, ,318, ,
4, ,319, ,
3, ,317, ,
3, ,317, ,
4, ,317, ,
4, ,318, ,
1, ,317, ,
4, ,317, ,
3, ,317, ,
3, ,317, ,
4, ,317, ,
4, ,316, ,
3, ,317, ,
4, ,317, ,
3, ,316, ,
3, ,317, ,
4, ,317, ,
4, ,317, ,
3, ,317, ,
4, ,317, ,
3, ,317, ,
3, ,317, ,
4, ,317, ,
4, ,317, ,
3, ,317, ,
4, ,318, ,
3, ,316, ,
3, ,317, ,
4, ,317, ,
4, ,318, ,
3, ,318, ,
4, ,318, ,
3, ,317, ,
3, ,318, ,
4, ,316, ,
3, ,317, ,
1, ,317, ,
4, ,317, ,
3, ,317, ,
3, ,317, ,
4, ,317, ,
4, ,317, ,
3, ,317, ,
4, ,317, ,
3, ,317, ,
3, ,317, ,
3, ,317, ,
3, ,317, ,
1, ,317, ,
4, ,318, ,
3, ,317, ,
3, ,317, ,
4, ,317, ,
3, ,317, ,
1, ,316, ,
4, ,317, ,
3, ,317, ,
3, ,317, ,
4, ,317, ,
4, ,316, ,
1, ,317, ,
4, ,318, ,
3, ,317, ,
3, ,317, ,
4, ,317, ,
3, ,318, ,
1, ,317, ,
4, ,317, ,
1, ,317, ,
3, ,319, ,
4, ,317, ,
3, ,317, ,
3, ,317, ,
4, ,318, ,
3, ,317, ,
3, ,317, ,
3, ,317, ,
3, ,317, ,
1, ,317, ,
4, ,317, ,
3, ,317, ,
3, ,318, ,
4, ,317, ,
3, ,317, ,
1, ,317, ,
4, ,318, ,
3, ,317, ,
3, ,317, ,
4, ,318, ,
3, ,318, ,
1, ,317, ,
4, ,318, ,
3, ,317, ,
3, ,317, ,
4, ,317, ,
3, ,318, ,
1, ,318, ,
4, ,319, ,
3, ,318, ,
3, ,317, ,
3, ,317, ,
3, ,318, ,
1, ,317, ,
3, ,317, ,
3, ,317, ,
3, ,319, ,
4, ,318, ,
3, ,318, ,
1, ,318, ,
4, ,318, ,
3, ,317, ,
3, ,317, ,
3, ,317, ,
3, ,318, ,
1, ,318, ,
4, ,318, ,
3, ,318, ,
1, ,319, ,
3, ,317, ,
3, ,318, ,
1, ,317, ,
3, ,318, ,
1, ,317, ,
3, ,318, ,
4, ,318, ,
3, ,318, ,
1, ,317, ,
3, ,318, ,
1, ,317, ,
3, ,318, ,
4, ,317, ,
3, ,317, ,
1, ,317, ,
3, ,319, ,
1, ,317, ,
3, ,318, ,
3, ,319, ,
3, ,319, ,
1, ,317, ,
4, ,318, ,
1, ,318, ,
3, ,318, ,
3, ,317, ,
3, ,318, ,
1, ,317, ,
3, ,319, ,
1, ,316, ,
3, ,317, ,
3, ,317, ,
3, ,317, ,
1, ,317, ,
3, ,318, ,
1, ,318, ,
3, ,319, ,
3, ,318, ,
3, ,317, ,
1, ,318, ,
3, ,319, ,
3, ,317, ,
1, ,317, ,
3, ,318, ,
3, ,318, ,
1, ,318, ,
4, ,319, ,
3, ,318, ,
1, ,318, ,
3, ,317, ,
3, ,318, ,
1, ,317, ,
3, ,319, ,
3, ,317, ,
1, ,317, ,
3, ,318, ,
3, ,318, ,
1, ,318, ,
3, ,317, ,
3, ,317, ,
3, ,319, ,
3, ,317, ,
3, ,318, ,
1, ,317, ,
3, ,319, ,
3, ,317, ,
1, ,317, ,
3, ,318, ,
3, ,319, ,
1, ,318, ,
4, ,318, ,
3, ,318, ,
3, ,318, ,
4, ,318, ,
3, ,317, ,
1, ,318, ,
3, ,319, ,
1, ,318, ,
1, ,317, ,
3, ,318, ,
3, ,318, ,
1, ,317, ,
3, ,319, ,
1, ,317, ,
3, ,317, ,
3, ,317, ,
3, ,317, ,
1, ,318, ,
3, ,319, ,
1, ,317, ,
3, ,317, ,
3, ,318, ,
3, ,318, ,
1, ,317, ,
4, ,319, ,
1, ,318, ,
3, ,318, ,
3, ,318, ,
1, ,317, ,
1, ,317, ,
3, ,319, ,
1, ,318, ,
1, ,319, ,
3, ,318, ,
1, ,318, ,
1, ,317, ,
3, ,317, ,
1, ,317, ,
3, ,318, ,
3, ,318, ,
3, ,317, ,
1, ,317, ,
4, ,317, ,
1, ,317, ,
3, ,319, ,
3, ,317, ,
3, ,318, ,
1, ,318, ,
4, ,318, ,
1, ,318, ,
1, ,319, ,
3, ,317, ,
3, ,318, ,
1, ,318, ,
3, ,320, ,
1, ,317, ,
1, ,317, ,
3, ,317, ,
3, ,318, ,
1, ,317, ,
3, ,318, ,
1, ,318, ,
3, ,319, ,
3, ,317, ,
3, ,318, ,
1, ,317, ,
3, ,319, ,
1, ,317, ,
3, ,317, ,
3, ,317, ,
3, ,318, ,
1, ,318, ,
3, ,319, ,
1, ,317, ,
1, ,318, ,
3, ,317, ,
1, ,317, ,
1, ,318, ,
3, ,319, ,
1, ,317, ,
1, ,318, ,
3, ,318, ,
3, ,318, ,
1, ,317, ,
3, ,319, ,
1, ,318, ,
1, ,318, ,
3, ,318, ,
3, ,317, ,
1, ,317, ,
3, ,319, ,
1, ,317, ,
1, ,319, ,
3, ,318, ,
3, ,318, ,
1, ,317, ,
3, ,317, ,
1, ,317, ,
1, ,318, ,
3, ,317, ,
1, ,317, ,
1, ,318, ,
3, ,319, ,
1, ,317, ,
1, ,319, ,
3, ,318, ,
1, ,318, ,
1, ,318, ,
3, ,319, ,
1, ,318, ,
1, ,318, ,
3, ,317, ,
1, ,317, ,
1, ,318, ,
3, ,320, ,
3, ,318, ,
1, ,317, ,
3, ,318, ,
1, ,319, ,
1, ,317, ,
3, ,317, ,
1, ,317, ,
1, ,317, ,
3, ,317, ,
1, ,317, ,
0, ,318, ,
3, ,319, ,
1, ,318, ,
1, ,318, ,
3, ,317, ,
1, ,318, ,
1, ,317, ,
3, ,317, ,
1, ,317, ,
1, ,318, ,
3, ,317, ,
1, ,318, ,
1, ,318, ,
3, ,319, ,
1, ,317, ,
1, ,317, ,
3, ,317, ,
1, ,317, ,
1, ,317, ,
3, ,318, ,
1, ,317, ,
1, ,319, ,
3, ,317, ,
1, ,317, ,
0, ,318, ,
3, ,319, ,
1, ,317, ,
1, ,317, ,
3, ,317, ,
1, ,318, ,
1, ,318, ,
3, ,318, ,
1, ,317, ,
1, ,318, ,
3, ,317, ,
1, ,318, ,
1, ,317, ,
3, ,318, ,
1, ,317, ,
1, ,317, ,
3, ,318, ,
1, ,317, ,
1, ,317, ,
3, ,317, ,
1, ,317, ,
1, ,318, ,
3, ,318, ,
1, ,317, ,
0, ,318, ,
3, ,318, ,
1, ,317, ,
1, ,317, ,
3, ,317, ,
1, ,317, ,
1, ,317, ,
3, ,318, ,
1, ,317, ,
1, ,318, ,
3, ,317, ,
1, ,318, ,
0, ,317, ,
3, ,319, ,
1, ,317, ,
1, ,317, ,
3, ,318, ,
1, ,318, ,
1, ,317, ,
3, ,318, ,
1, ,317, ,
1, ,318, ,
3, ,317, ,
1, ,317, ,
0, ,317, ,
3, ,319, ,
1, ,317, ,
1, ,318, ,
3, ,317, ,
1, ,317, ,
1, ,317, ,
3, ,318, ,
1, ,317, ,
1, ,319, ,
1, ,318, ,
3, ,318, ,
0, ,317, ,
3, ,320, ,
1, ,317, ,
1, ,317, ,
3, ,317, ,
1, ,318, ,
1, ,317, ,
3, ,319, ,
1, ,318, ,
1, ,319, ,
3, ,317, ,
1, ,317, ,
0, ,318, ,
3, ,318, ,
1, ,316, ,
1, ,317, ,
3, ,317, ,
1, ,317, ,
1, ,317, ,
3, ,318, ,
1, ,317, ,
1, ,317, ,
3, ,318, ,
1, ,317, ,
0, ,318, ,
3, ,319, ,
1, ,317, ,
1, ,317, ,
3, ,318, ,
1, ,318, ,
1, ,317, ,
3, ,318, ,
1, ,318, ,
1, ,318, ,
3, ,317, ,
1, ,317, ,
0, ,318, ,
3, ,319, ,
1, ,317, ,
1, ,317, ,
3, ,317, ,
1, ,317, ,
0, ,317, ,
3, ,319, ,
1, ,317, ,
1, ,317, ,
3, ,317, ,
1, ,317, ,
0, ,317, ,
3, ,319, ,
1, ,317, ,
1, ,317, ,
3, ,318, ,
1, ,318, ,
0, ,318, ,
3, ,319, ,
1, ,318, ,
1, ,317, ,
3, ,317, ,
1, ,318, ,
0, ,317, ,
3, ,319, ,
1, ,317, ,
1, ,318, ,
1, ,317, ,
1, ,318, ,
0, ,317, ,
3, ,318, ,
1, ,317, ,
1, ,318, ,
3, ,318, ,
3, ,317, ,
0, ,318, ,
3, ,319, ,
1, ,317, ,
1, ,317, ,
3, ,317, ,
1, ,318, ,
1, ,317, ,
3, ,318, ,
1, ,317, ,
1, ,318, ,
3, ,317, ,
3, ,318, ,
0, ,317, ,
3, ,319, ,
1, ,317, ,
1, ,317, ,
1, ,318, ,
1, ,317, ,
0, ,317, ,
3, ,318, ,
1, ,317, ,
1, ,317, ,
3, ,318, ,
3, ,317, ,
0, ,317, ,
3, ,319, ,
1, ,317, ,
1, ,317, ,
3, ,318, ,
1, ,318, ,
0, ,317, ,
3, ,318, ,
1, ,317, ,
1, ,318, ,
3, ,317, ,
1, ,318, ,
0, ,317, ,
3, ,319, ,
1, ,317, ,
1, ,318, ,
3, ,317, ,
1, ,318, ,
0, ,317, ,
3, ,318, ,
1, ,317, ,
1, ,317, ,
3, ,317, ,
1, ,317, ,
0, ,319, ,
3, ,319, ,
1, ,317, ,
1, ,317, ,
3, ,318, ,
1, ,317, ,
0, ,317, ,
3, ,317, ,
1, ,317, ,
1, ,318, ,
3, ,317, ,
1, ,317, ,
0, ,317, ,
3, ,319, ,
1, ,317, ,
1, ,317, ,
3, ,317, ,
1, ,317, ,
0, ,317, ,
3, ,319, ,
1, ,318, ,
1, ,318, ,
3, ,317, ,
1, ,318, ,
0, ,317, ,
3, ,319, ,
1, ,317, ,
1, ,318, ,
1, ,318, ,
1, ,317, ,
0, ,317, ,
3, ,317, ,
1, ,318, ,
1, ,318, ,
3, ,317, ,
1, ,317, ,
0, ,317, ,
3, ,318, ,
1, ,317, ,
1, ,318, ,
1, ,318, ,
1, ,318, ,
0, ,317, ,
3, ,317, ,
1, ,317, ,
1, ,318, ,
3, ,317, ,
1, ,318, ,
0, ,317, ,
3, ,319, ,
1, ,317, ,
1, ,317, ,
3, ,318, ,
1, ,317, ,
0, ,318, ,
3, ,317, ,
1, ,318, ,
1, ,318, ,
3, ,318, ,
1, ,317, ,
0, ,318, ,
3, ,319, ,
1, ,317, ,
1, ,318, ,
1, ,317, ,
1, ,317, ,
0, ,317, ,
3, ,318, ,
1, ,318, ,
1, ,318, ,
3, ,317, ,
1, ,317, ,
0, ,317, ,
3, ,318, ,
1, ,317, ,
1, ,318, ,
3, ,318, ,
1, ,318, ,
0, ,317, ,
3, ,319, ,
1, ,317, ,
1, ,318, ,
1, ,318, ,
1, ,317, ,
0, ,317, ,
3, ,319, ,
1, ,316, ,
1, ,318, ,
1, ,317, ,
1, ,318, ,
0, ,317, ,
3, ,319, ,
1, ,317, ,
1, ,318, ,
3, ,318, ,
1, ,317, ,
0, ,317, ,
3, ,319, ,
1, ,316, ,
1, ,317, ,
1, ,317, ,
1, ,317, ,
0, ,317, ,
3, ,317, ,
1, ,317, ,
1, ,317, ,
3, ,317, ,
1, ,317, ,
0, ,318, ,
3, ,319, ,
1, ,317, ,
1, ,317, ,
1, ,317, ,
1, ,318, ,
0, ,317, ,
3, ,318, ,
1, ,317, ,
1, ,318, ,
1, ,317, ,
1, ,317, ,
0, ,317, ,
3, ,318, ,
1, ,317, ,
1, ,317, ,
3, ,317, ,
1, ,317, ,
0, ,317, ,
3, ,319, ,
1, ,317, ,
1, ,318, ,
1, ,317, ,
1, ,318, ,
0, ,318, ,
3, ,319, ,
1, ,315, ,
1, ,317, ,
3, ,318, ,
1, ,318, ,
0, ,317, ,
3, ,317, ,
1, ,317, ,
1, ,318, ,
1, ,317, ,
1, ,317, ,
0, ,317, ,
3, ,317, ,
1, ,317, ,
1, ,318, ,
3, ,317, ,
1, ,317, ,
0, ,317, ,
3, ,318, ,
1, ,318, ,
1, ,318, ,
1, ,317, ,
1, ,317, ,
0, ,317, ,
3, ,319, ,
1, ,317, ,
1, ,317, ,
1, ,317, ,
1, ,318, ,
0, ,317, ,
3, ,318, ,
1, ,317, ,
1, ,318, ,
1, ,317, ,
1, ,318, ,
0, ,318, ,
3, ,319, ,
1, ,317, ,
1, ,318, ,
3, ,317, ,
1, ,317, ,
0, ,317, ,
3, ,318, ,
1, ,317, ,
1, ,317, ,
3, ,317, ,
1, ,317, ,
0, ,317, ,
3, ,318, ,
1, ,317, ,
1, ,317, ,
3, ,317, ,
1, ,318, ,
0, ,317, ,
3, ,317, ,
1, ,317, ,
1, ,319, ,
3, ,317, ,
3, ,317, ,
0, ,317, ,
3, ,319, ,
1, ,317, ,
1, ,318, ,
3, ,317, ,
1, ,317, ,
0, ,318, ,
3, ,317, ,
1, ,317, ,
1, ,317, ,
1, ,317, ,
1, ,317, ,
0, ,318, ,
1, ,319, ,
1, ,317, ,
0, ,318, ,
1, ,317, ,
1, ,318, ,
0, ,317, ,
1, ,317, ,
0, ,317, ,
1, ,318, ,
3, ,317, ,
1, ,318, ,
0, ,317, ,
3, ,317, ,
1, ,317, ,
1, ,317, ,
3, ,317, ,
1, ,317, ,
0, ,317, ,
3, ,318, ,
1, ,317, ,
1, ,319, ,
1, ,317, ,
1, ,317, ,
0, ,316, ,
3, ,317, ,
1, ,317, ,
1, ,319, ,
1, ,318, ,
1, ,318, ,
0, ,317, ,
1, ,318, ,
1, ,318, ,
1, ,318, ,
1, ,316, ,
1, ,317, ,
0, ,317, ,
1, ,319, ,
1, ,317, ,
1, ,319, ,
1, ,317, ,
1, ,318, ,
0, ,317, ,
3, ,319, ,
1, ,318, ,
1, ,318, ,
3, ,317, ,
1, ,318, ,
0, ,318, ,
3, ,319, ,
1, ,317, ,
1, ,317, ,
1, ,317, ,
1, ,317, ,
0, ,317, ,
3, ,318, ,
1, ,318, ,
1, ,317, ,
1, ,317, ,
1, ,318, ,
0, ,318, ,
3, ,319, ,
1, ,317, ,
1, ,317, ,
1, ,317, ,
1, ,319, ,
0, ,317, ,
1, ,318, ,
1, ,317, ,
1, ,318, ,
1, ,317, ,
1, ,317, ,
-1, ,317, ,
3, ,319, ,
1, ,317, ,
1, ,317, ,
3, ,317, ,
1, ,318, ,
0, ,317, ,
1, ,317, ,
1, ,317, ,
1, ,318, ,
3, ,318, ,
1, ,317, ,
0, ,317, ,
1, ,319, ,
1, ,317, ,
1, ,317, ,
1, ,317, ,
1, ,317, ,
0, ,317, ,
1, ,317, ,
1, ,317, ,
1, ,318, ,
3, ,318, ,
1, ,317, ,
0, ,317, ,
1, ,319, ,
1, ,317, ,
1, ,317, ,
1, ,317, ,
1, ,317, ,
0, ,317, ,
3, ,319, ,
1, ,317, ,
0, ,317, ,
1, ,318, ,
1, ,317, ,
0, ,317, ,
3, ,319, ,
1, ,317, ,
1, ,318, ,
3, ,317, ,
1, ,318, ,
0, ,317, ,
3, ,317, ,
1, ,317, ,
1, ,318, ,
1, ,317, ,
1, ,317, ,
0, ,317, ,
3, ,319, ,
1, ,317, ,
1, ,317, ,
3, ,317, ,
1, ,318, ,
0, ,318, ,
3, ,318, ,
1, ,317, ,
1, ,319, ,
1, ,317, ,
1, ,318, ,
0, ,317, ,
3, ,319, ,
1, ,317, ,
1, ,317, ,
1, ,318, ,
1, ,318, ,
0, ,317, ,
3, ,319, ,
1, ,316, ,
1, ,318, ,
1, ,317, ,
1, ,317, ,
0, ,318, ,
1, ,319, ,
1, ,317, ,
1, ,319, ,
1, ,318, ,
1, ,317, ,
0, ,317, ,
3, ,318, ,
1, ,318, ,
1, ,318, ,
3, ,317, ,
1, ,318, ,
0, ,317, ,
1, ,318, ,
1, ,317, ,
1, ,318, ,
3, ,317, ,
1, ,317, ,
0, ,317, ,
1, ,319, ,
1, ,318, ,
1, ,319, ,
1, ,317, ,
1, ,318, ,
0, ,317, ,
1, ,319, ,
1, ,317, ,
1, ,317, ,
1, ,317, ,
1, ,318, ,
0, ,317, ,
1, ,319, ,
1, ,317, ,
1, ,318, ,
1, ,318, ,
1, ,317, ,
0, ,317, ,
3, ,319, ,
1, ,317, ,
1, ,317, ,
1, ,317, ,
1, ,318, ,
0, ,317, ,
1, ,317, ,
1, ,317, ,
1, ,318, ,
1, ,317, ,
1, ,317, ,
0, ,317, ,
3, ,319, ,
1, ,317, ,
1, ,317, ,
1, ,317, ,
1, ,317, ,
0, ,317, ,
1, ,318, ,
1, ,318, ,
1, ,318, ,
1, ,318, ,
1, ,317, ,
0, ,317, ,
1, ,319, ,
1, ,317, ,
1, ,318, ,
1, ,318, ,
1, ,318, ,
0, ,317, ,
1, ,319, ,
1, ,317, ,
1, ,318, ,
1, ,317, ,
1, ,317, ,
0, ,318, ,
3, ,319, ,
1, ,317, ,
1, ,317, ,
1, ,317, ,
1, ,318, ,
0, ,318, ,
3, ,317, ,
1, ,317, ,
1, ,319, ,
1, ,317, ,
1, ,317, ,
0, ,317, ,
3, ,319, ,
1, ,317, ,
1, ,318, ,
3, ,317, ,
1, ,318, ,
0, ,317, ,
3, ,318, ,
1, ,318, ,
1, ,318, ,
1, ,317, ,
1, ,317, ,
0, ,318, ,
3, ,318, ,
1, ,317, ,
1, ,317, ,
1, ,318, ,
1, ,319, ,
0, ,317, ,
3, ,317, ,
1, ,317, ,
1, ,319, ,
3, ,318, ,
1, ,317, ,
0, ,317, ,
3, ,318, ,
1, ,317, ,
1, ,317, ,
1, ,317, ,
1, ,318, ,
0, ,317, ,
3, ,318, ,
0, ,316, ,
1, ,319, ,
1, ,317, ,
1, ,317, ,
0, ,317, ,
1, ,319, ,
1, ,317, ,
0, ,317, ,
1, ,317, ,
1, ,318, ,
0, ,318, ,
1, ,319, ,
0, ,317, ,
1, ,317, ,
1, ,317, ,
1, ,317, ,
0, ,318, ,
3, ,319, ,
0, ,317, ,
1, ,318, ,
3, ,318, ,
1, ,319, ,
0, ,317, ,
1, ,318, ,
1, ,317, ,
0, ,319, ,
1, ,317, ,
1, ,318, ,
0, ,318, ,
3, ,319, ,
1, ,317, ,
1, ,318, ,
1, ,318, ,
1, ,318, ,
0, ,317, ,
1, ,317, ,
0, ,317, ,
1, ,316, ,
1, ,315, ,
1, ,315, ,
0, ,317, ,
1, ,321, ,
1, ,319, ,
0, ,319, ,
1, ,319, ,
1, ,317, ,
0, ,316, ,
1, ,317, ,
1, ,316, ,
1, ,318, ,
1, ,317, ,
1, ,318, ,
0, ,318, ,
1, ,319, ,
1, ,316, ,
1, ,317, ,
1, ,318, ,
1, ,317, ,
0, ,317, ,
1, ,317, ,
1, ,317, ,
1, ,318, ,
3, ,317, ,
1, ,317, ,
0, ,317, ,
3, ,318, ,
1, ,317, ,
1, ,317, ,
1, ,317, ,
1, ,318, ,
0, ,317, ,
1, ,318, ,
1, ,317, ,
1, ,319, ,
112, ,317, ,
69, ,317, ,
37, ,317, ,
25, ,319, ,
20, ,316, ,
14, ,317, ,
9, ,317, ,
5, ,318, ,
6, ,317, ,
9, ,317, ,
5, ,317, ,
4, ,318, ,
5, ,317, ,
4, ,317, ,
4, ,317, ,
5, ,319, ,
4, ,317, ,
4, ,317, ,
4, ,317, ,
4, ,317, ,
3, ,317, ,
4, ,317, ,
3, ,317, ,
4, ,318, ,
4, ,317, ,
4, ,317, ,
1, ,318, ,
4, ,317, ,
3, ,317, ,
3, ,317, ,
4, ,317, ,
4, ,317, ,
1, ,317, ,
4, ,318, ,
3, ,317, ,
3, ,317, ,
4, ,317, ,
4, ,317, ,
3, ,318, ,
4, ,318, ,
3, ,317, ,
3, ,316, ,
4, ,317, ,
4, ,317, ,
3, ,317, ,
4, ,318, ,
3, ,317, ,
3, ,318, ,
4, ,317, ,
