src/vary_led_1562/temq0000361.CSV

Format,1.0B,
Memory Length,10000,Memory Length,10000,
IntpDistance,0,IntpDistance,0,
Trigger Address,5049,Trigger Address,5049,
Trigger Level,2.800E-01,Trigger Level,2.800E-01,
Source,CH1,Source,CH2,
Vertical Units,V,Vertical Units,V,
Vertical Units Div,0,Vertical Units Div,0,
Vertical Units Extend Div,16,Vertical Units Extend Div,16,
Label,,Label,,
Probe Type,0,Probe Type,0,
Probe Ratio,1.000e+01,Probe Ratio,1.000e+00,
Vertical Scale,5.000e-01,Vertical Scale,2.000e-01,
Vertical Position,-1.780e+00,Vertical Position,-2.240e+00,
Horizontal Units,S,Horizontal Units,S,
Horizontal Scale,2.000E-05,Horizontal Scale,2.000E-05,
Horizontal Position,-1.000E-06,Horizontal Position,-1.000E-06,
Horizontal Mode,Main,Horizontal Mode,Main,
SincET Mode,Real Time,SincET Mode,Real Time,
Sampling Period,2.000e-08,Sampling Period,2.000e-08,
Horizontal Old Scale,2.000E-05,Horizontal Old Scale,2.000E-05,
Horizontal Old Position,-1.000E-06,Horizontal Old Position,-1.000E-06,
Firmware,V1.23,Firmware,V1.23,
Mode,Fast,Mode,Fast,
Waveform Data,,Waveform Data,,
3, ,257, ,
3, ,256, ,
1, ,257, ,
3, ,257, ,
1, ,257, ,
1, ,257, ,
3, ,257, ,
3, ,257, ,
1, ,257, ,
3, ,257, ,
1, ,257, ,
1, ,257, ,
3, ,257, ,
3, ,257, ,
0, ,257, ,
3, ,258, ,
1, ,257, ,
1, ,257, ,
1, ,257, ,
3, ,258, ,
0, ,256, ,
3, ,256, ,
1, ,257, ,
1, ,257, ,
3, ,257, ,
3, ,257, ,
0, ,258, ,
3, ,258, ,
1, ,257, ,
1, ,257, ,
1, ,258, ,
3, ,257, ,
1, ,257, ,
3, ,257, ,
1, ,257, ,
1, ,257, ,
1, ,257, ,
3, ,258, ,
0, ,257, ,
3, ,257, ,
1, ,254, ,
1, ,258, ,
3, ,257, ,
1, ,258, ,
1, ,257, ,
3, ,258, ,
1, ,256, ,
1, ,257, ,
1, ,257, ,
3, ,258, ,
0, ,258, ,
3, ,258, ,
1, ,257, ,
1, ,258, ,
3, ,257, ,
3, ,257, ,
0, ,254, ,
3, ,258, ,
1, ,257, ,
1, ,258, ,
1, ,257, ,
1, ,257, ,
0, ,257, ,
3, ,257, ,
1, ,256, ,
1, ,258, ,
3, ,257, ,
3, ,258, ,
0, ,256, ,
3, ,258, ,
1, ,257, ,
1, ,258, ,
1, ,256, ,
3, ,256, ,
0, ,258, ,
3, ,258, ,
1, ,257, ,
1, ,257, ,
3, ,258, ,
3, ,258, ,
0, ,257, ,
3, ,256, ,
1, ,257, ,
1, ,258, ,
1, ,257, ,
3, ,257, ,
0, ,257, ,
3, ,257, ,
1, ,256, ,
1, ,257, ,
1, ,257, ,
3, ,257, ,
0, ,256, ,
3, ,257, ,
1, ,257, ,
1, ,257, ,
3, ,257, ,
3, ,257, ,
0, ,257, ,
3, ,257, ,
1, ,257, ,
1, ,257, ,
1, ,256, ,
1, ,257, ,
0, ,257, ,
3, ,257, ,
1, ,257, ,
1, ,257, ,
1, ,257, ,
1, ,257, ,
0, ,257, ,
3, ,257, ,
1, ,257, ,
1, ,257, ,
1, ,257, ,
1, ,257, ,
0, ,257, ,
3, ,257, ,
1, ,257, ,
1, ,257, ,
1, ,257, ,
3, ,256, ,
0, ,257, ,
3, ,257, ,
1, ,251, ,
1, ,256, ,
3, ,259, ,
3, ,261, ,
0, ,258, ,
3, ,256, ,
1, ,256, ,
1, ,258, ,
1, ,257, ,
1, ,257, ,
0, ,258, ,
3, ,258, ,
1, ,257, ,
1, ,256, ,
1, ,257, ,
3, ,258, ,
0, ,256, ,
3, ,257, ,
1, ,258, ,
1, ,256, ,
1, ,256, ,
3, ,257, ,
0, ,257, ,
3, ,258, ,
1, ,256, ,
1, ,257, ,
1, ,257, ,
1, ,258, ,
0, ,257, ,
3, ,257, ,
1, ,256, ,
1, ,256, ,
1, ,256, ,
3, ,256, ,
0, ,258, ,
3, ,257, ,
1, ,254, ,
1, ,257, ,
1, ,256, ,
3, ,257, ,
0, ,256, ,
3, ,258, ,
1, ,257, ,
1, ,257, ,
1, ,256, ,
1, ,256, ,
0, ,256, ,
3, ,257, ,
1, ,256, ,
1, ,257, ,
1, ,257, ,
1, ,258, ,
0, ,256, ,
3, ,258, ,
1, ,256, ,
1, ,257, ,
3, ,257, ,
1, ,256, ,
0, ,257, ,
3, ,257, ,
1, ,257, ,
1, ,256, ,
1, ,257, ,
1, ,257, ,
0, ,257, ,
1, ,256, ,
1, ,257, ,
1, ,257, ,
1, ,254, ,
1, ,256, ,
0, ,256, ,
3, ,257, ,
1, ,256, ,
1, ,257, ,
1, ,257, ,
1, ,257, ,
0, ,257, ,
3, ,258, ,
1, ,257, ,
1, ,257, ,
1, ,256, ,
1, ,256, ,
0, ,257, ,
3, ,256, ,
1, ,256, ,
1, ,256, ,
1, ,256, ,
1, ,258, ,
0, ,257, ,
3, ,256, ,
1, ,257, ,
1, ,257, ,
1, ,257, ,
3, ,257, ,
0, ,257, ,
3, ,258, ,
1, ,257, ,
1, ,256, ,
3, ,257, ,
1, ,257, ,
0, ,256, ,
3, ,256, ,
1, ,258, ,
1, ,258, ,
1, ,256, ,
1, ,257, ,
0, ,257, ,
3, ,258, ,
1, ,257, ,
1, ,256, ,
1, ,256, ,
3, ,257, ,
0, ,256, ,
3, ,256, ,
1, ,257, ,
1, ,257, ,
1, ,256, ,
3, ,256, ,
0, ,256, ,
3, ,257, ,
1, ,256, ,
1, ,256, ,
3, ,257, ,
3, ,258, ,
0, ,256, ,
3, ,257, ,
1, ,257, ,
1, ,257, ,
1, ,256, ,
1, ,258, ,
0, ,258, ,
1, ,257, ,
1, ,256, ,
1, ,256, ,
1, ,257, ,
1, ,257, ,
0, ,257, ,
3, ,257, ,
1, ,257, ,
1, ,257, ,
3, ,256, ,
1, ,257, ,
0, ,257, ,
3, ,257, ,
1, ,256, ,
1, ,257, ,
1, ,257, ,
1, ,257, ,
0, ,257, ,
3, ,257, ,
1, ,257, ,
1, ,257, ,
1, ,256, ,
3, ,256, ,
0, ,258, ,
1, ,258, ,
1, ,257, ,
1, ,257, ,
1, ,256, ,
1, ,257, ,
0, ,257, ,
3, ,258, ,
1, ,257, ,
1, ,258, ,
3, ,256, ,
3, ,258, ,
0, ,257, ,
3, ,257, ,
1, ,257, ,
1, ,257, ,
3, ,257, ,
1, ,257, ,
0, ,257, ,
3, ,257, ,
1, ,257, ,
1, ,257, ,
1, ,256, ,
1, ,257, ,
0, ,257, ,
1, ,257, ,
1, ,257, ,
1, ,257, ,
1, ,256, ,
1, ,257, ,
0, ,257, ,
1, ,257, ,
1, ,257, ,
1, ,257, ,
1, ,256, ,
3, ,257, ,
0, ,257, ,
1, ,257, ,
1, ,256, ,
1, ,256, ,
1, ,257, ,
1, ,257, ,
0, ,257, ,
3, ,258, ,
1, ,257, ,
1, ,257, ,
1, ,257, ,
1, ,257, ,
0, ,257, ,
3, ,257, ,
1, ,257, ,
1, ,257, ,
1, ,257, ,
1, ,257, ,
0, ,257, ,
3, ,256, ,
0, ,256, ,
1, ,258, ,
1, ,257, ,
1, ,257, ,
0, ,258, ,
1, ,257, ,
1, ,256, ,
1, ,257, ,
1, ,257, ,
1, ,256, ,
0, ,256, ,
3, ,257, ,
1, ,257, ,
1, ,257, ,
1, ,256, ,
1, ,257, ,
0, ,257, ,
1, ,258, ,
1, ,256, ,
1, ,257, ,
1, ,257, ,
1, ,257, ,
0, ,258, ,
3, ,257, ,
1, ,256, ,
1, ,257, ,
1, ,256, ,
1, ,256, ,
0, ,257, ,
3, ,257, ,
1, ,256, ,
1, ,256, ,
1, ,258, ,
1, ,257, ,
0, ,256, ,
1, ,258, ,
1, ,256, ,
1, ,257, ,
1, ,256, ,
1, ,256, ,
0, ,257, ,
1, ,257, ,
1, ,257, ,
1, ,256, ,
1, ,257, ,
3, ,258, ,
0, ,257, ,
1, ,257, ,
1, ,256, ,
1, ,257, ,
1, ,257, ,
1, ,256, ,
0, ,258, ,
1, ,257, ,
1, ,256, ,
1, ,257, ,
1, ,257, ,
1, ,257, ,
0, ,256, ,
3, ,257, ,
1, ,257, ,
1, ,257, ,
1, ,257, ,
1, ,257, ,
0, ,257, ,
3, ,258, ,
1, ,257, ,
1, ,257, ,
1, ,257, ,
1, ,257, ,
0, ,258, ,
1, ,256, ,
0, ,256, ,
1, ,257, ,
3, ,256, ,
3, ,256, ,
0, ,257, ,
3, ,257, ,
0, ,256, ,
1, ,257, ,
1, ,257, ,
1, ,257, ,
0, ,256, ,
3, ,257, ,
0, ,257, ,
1, ,258, ,
1, ,256, ,
1, ,257, ,
0, ,258, ,
1, ,257, ,
0, ,257, ,
1, ,256, ,
1, ,257, ,
1, ,257, ,
0, ,256, ,
3, ,257, ,
0, ,257, ,
0, ,257, ,
1, ,256, ,
1, ,256, ,
0, ,258, ,
3, ,257, ,
0, ,254, ,
1, ,257, ,
1, ,257, ,
1, ,257, ,
0, ,257, ,
3, ,258, ,
1, ,257, ,
1, ,257, ,
1, ,257, ,
1, ,257, ,
0, ,257, ,
3, ,257, ,
1, ,256, ,
1, ,258, ,
1, ,257, ,
1, ,258, ,
0, ,257, ,
3, ,258, ,
1, ,257, ,
1, ,257, ,
1, ,256, ,
1, ,257, ,
0, ,256, ,
1, ,257, ,
0, ,257, ,
1, ,254, ,
1, ,256, ,
1, ,257, ,
0, ,257, ,
1, ,257, ,
0, ,256, ,
0, ,256, ,
1, ,254, ,
3, ,256, ,
0, ,257, ,
1, ,258, ,
0, ,258, ,
0, ,258, ,
1, ,257, ,
1, ,258, ,
0, ,254, ,
1, ,256, ,
1, ,256, ,
1, ,258, ,
1, ,257, ,
1, ,257, ,
0, ,257, ,
1, ,257, ,
1, ,256, ,
1, ,256, ,
1, ,256, ,
1, ,257, ,
0, ,256, ,
3, ,257, ,
1, ,257, ,
1, ,257, ,
1, ,254, ,
1, ,256, ,
0, ,258, ,
1, ,258, ,
1, ,256, ,
1, ,256, ,
1, ,257, ,
1, ,258, ,
0, ,256, ,
3, ,256, ,
1, ,257, ,
1, ,258, ,
1, ,257, ,
1, ,257, ,
0, ,258, ,
1, ,258, ,
1, ,256, ,
1, ,257, ,
1, ,256, ,
1, ,257, ,
0, ,257, ,
3, ,257, ,
1, ,257, ,
1, ,256, ,
1, ,257, ,
1, ,257, ,
0, ,256, ,
1, ,257, ,
1, ,256, ,
1, ,256, ,
1, ,257, ,
1, ,257, ,
0, ,256, ,
3, ,256, ,
1, ,256, ,
1, ,253, ,
1, ,253, ,
1, ,254, ,
0, ,258, ,
1, ,259, ,
1, ,259, ,
1, ,259, ,
1, ,257, ,
1, ,256, ,
0, ,256, ,
1, ,256, ,
1, ,256, ,
1, ,256, ,
1, ,256, ,
1, ,257, ,
0, ,256, ,
1, ,256, ,
0, ,256, ,
1, ,256, ,
1, ,257, ,
1, ,257, ,
0, ,254, ,
1, ,256, ,
1, ,257, ,
1, ,257, ,
1, ,256, ,
1, ,256, ,
0, ,256, ,
1, ,257, ,
0, ,256, ,
1, ,256, ,
1, ,256, ,
1, ,257, ,
0, ,256, ,
1, ,256, ,
0, ,256, ,
0, ,257, ,
1, ,256, ,
1, ,256, ,
0, ,256, ,
1, ,256, ,
0, ,254, ,
1, ,256, ,
1, ,256, ,
1, ,257, ,
0, ,256, ,
3, ,256, ,
0, ,257, ,
1, ,257, ,
1, ,256, ,
1, ,257, ,
0, ,256, ,
1, ,257, ,
0, ,256, ,
1, ,256, ,
1, ,256, ,
1, ,257, ,
0, ,256, ,
1, ,256, ,
0, ,256, ,
1, ,257, ,
1, ,256, ,
1, ,256, ,
0, ,257, ,
1, ,257, ,
0, ,256, ,
1, ,257, ,
1, ,256, ,
1, ,257, ,
0, ,257, ,
1, ,256, ,
0, ,256, ,
1, ,256, ,
1, ,254, ,
1, ,256, ,
0, ,257, ,
3, ,256, ,
1, ,256, ,
1, ,256, ,
1, ,256, ,
1, ,256, ,
0, ,256, ,
3, ,256, ,
1, ,257, ,
1, ,256, ,
1, ,256, ,
1, ,256, ,
0, ,256, ,
1, ,257, ,
1, ,257, ,
1, ,258, ,
1, ,256, ,
1, ,257, ,
0, ,257, ,
1, ,257, ,
1, ,257, ,
1, ,256, ,
1, ,254, ,
1, ,256, ,
0, ,256, ,
3, ,257, ,
0, ,257, ,
1, ,256, ,
1, ,257, ,
1, ,257, ,
0, ,257, ,
3, ,257, ,
0, ,257, ,
0, ,259, ,
1, ,256, ,
3, ,256, ,
0, ,257, ,
1, ,257, ,
0, ,256, ,
1, ,257, ,
1, ,257, ,
1, ,258, ,
0, ,257, ,
1, ,258, ,
1, ,257, ,
1, ,257, ,
1, ,257, ,
1, ,257, ,
0, ,257, ,
1, ,258, ,
1, ,257, ,
1, ,258, ,
1, ,257, ,
1, ,257, ,
0, ,257, ,
3, ,258, ,
0, ,258, ,
1, ,257, ,
1, ,257, ,
1, ,257, ,
0, ,258, ,
1, ,257, ,
0, ,256, ,
1, ,257, ,
1, ,257, ,
1, ,258, ,
0, ,257, ,
3, ,257, ,
0, ,256, ,
1, ,257, ,
1, ,257, ,
1, ,257, ,
0, ,257, ,
1, ,258, ,
0, ,257, ,
1, ,257, ,
1, ,257, ,
1, ,257, ,
0, ,257, ,
1, ,258, ,
0, ,257, ,
0, ,257, ,
1, ,257, ,
1, ,257, ,
0, ,258, ,
1, ,258, ,
0, ,257, ,
0, ,258, ,
1, ,256, ,
1, ,257, ,
0, ,257, ,
1, ,256, ,
0, ,257, ,
0, ,257, ,
1, ,257, ,
1, ,256, ,
0, ,257, ,
1, ,258, ,
0, ,257, ,
0, ,257, ,
1, ,258, ,
1, ,257, ,
0, ,257, ,
1, ,257, ,
0, ,257, ,
0, ,258, ,
1, ,257, ,
1, ,258, ,
0, ,258, ,
1, ,258, ,
0, ,257, ,
1, ,258, ,
1, ,257, ,
1, ,258, ,
0, ,257, ,
3, ,257, ,
0, ,258, ,
0, ,258, ,
1, ,257, ,
3, ,258, ,
0, ,257, ,
1, ,257, ,
0, ,256, ,
1, ,256, ,
1, ,257, ,
1, ,257, ,
0, ,256, ,
1, ,258, ,
0, ,256, ,
0, ,257, ,
1, ,256, ,
1, ,257, ,
0, ,257, ,
3, ,257, ,
1, ,256, ,
1, ,258, ,
1, ,257, ,
1, ,257, ,
0, ,257, ,
1, ,257, ,
0, ,257, ,
1, ,257, ,
1, ,257, ,
3, ,257, ,
0, ,257, ,
1, ,257, ,
1, ,256, ,
1, ,257, ,
1, ,257, ,
1, ,258, ,
0, ,257, ,
1, ,257, ,
0, ,256, ,
1, ,256, ,
1, ,257, ,
1, ,257, ,
0, ,257, ,
1, ,258, ,
0, ,256, ,
1, ,258, ,
1, ,257, ,
1, ,257, ,
0, ,257, ,
1, ,257, ,
0, ,257, ,
1, ,258, ,
1, ,254, ,
1, ,257, ,
0, ,258, ,
1, ,258, ,
1, ,257, ,
1, ,258, ,
1, ,257, ,
1, ,257, ,
0, ,257, ,
1, ,257, ,
0, ,258, ,
1, ,257, ,
1, ,256, ,
1, ,256, ,
-1, ,257, ,
1, ,257, ,
0, ,256, ,
1, ,258, ,
1, ,257, ,
1, ,257, ,
0, ,257, ,
3, ,256, ,
0, ,257, ,
1, ,257, ,
1, ,256, ,
1, ,256, ,
0, ,258, ,
1, ,257, ,
1, ,257, ,
1, ,257, ,
1, ,257, ,
1, ,257, ,
0, ,257, ,
1, ,257, ,
1, ,257, ,
1, ,258, ,
1, ,256, ,
1, ,257, ,
0, ,257, ,
1, ,257, ,
0, ,257, ,
1, ,257, ,
1, ,257, ,
1, ,257, ,
0, ,257, ,
1, ,257, ,
0, ,257, ,
1, ,257, ,
1, ,257, ,
1, ,257, ,
0, ,257, ,
1, ,257, ,
0, ,256, ,
0, ,257, ,
1, ,256, ,
1, ,258, ,
0, ,256, ,
1, ,258, ,
0, ,257, ,
1, ,257, ,
1, ,257, ,
1, ,256, ,
0, ,257, ,
1, ,256, ,
1, ,257, ,
0, ,258, ,
1, ,256, ,
1, ,258, ,
0, ,257, ,
1, ,258, ,
0, ,257, ,
1, ,257, ,
1, ,257, ,
1, ,257, ,
0, ,258, ,
1, ,258, ,
0, ,257, ,
1, ,257, ,
1, ,256, ,
3, ,258, ,
0, ,257, ,
3, ,257, ,
0, ,256, ,
1, ,258, ,
1, ,257, ,
1, ,257, ,
0, ,258, ,
1, ,258, ,
0, ,257, ,
1, ,256, ,
1, ,256, ,
1, ,258, ,
0, ,257, ,
3, ,257, ,
1, ,257, ,
1, ,258, ,
1, ,256, ,
1, ,257, ,
0, ,256, ,
1, ,257, ,
1, ,257, ,
1, ,257, ,
1, ,256, ,
1, ,257, ,
0, ,257, ,
3, ,257, ,
0, ,258, ,
1, ,258, ,
1, ,257, ,
1, ,257, ,
0, ,258, ,
1, ,258, ,
0, ,257, ,
0, ,256, ,
1, ,256, ,
1, ,256, ,
0, ,254, ,
3, ,256, ,
1, ,256, ,
1, ,257, ,
1, ,257, ,
1, ,257, ,
0, ,258, ,
1, ,259, ,
1, ,259, ,
1, ,259, ,
1, ,258, ,
1, ,258, ,
0, ,257, ,
3, ,256, ,
0, ,254, ,
1, ,256, ,
1, ,257, ,
1, ,257, ,
0, ,256, ,
1, ,257, ,
0, ,256, ,
0, ,257, ,
1, ,256, ,
1, ,256, ,
0, ,256, ,
1, ,258, ,
0, ,256, ,
1, ,258, ,
1, ,256, ,
1, ,256, ,
0, ,257, ,
1, ,257, ,
1, ,257, ,
1, ,258, ,
1, ,258, ,
1, ,258, ,
0, ,257, ,
3, ,257, ,
1, ,258, ,
1, ,258, ,
1, ,256, ,
1, ,256, ,
0, ,256, ,
1, ,258, ,
0, ,257, ,
1, ,257, ,
1, ,257, ,
1, ,258, ,
0, ,257, ,
1, ,256, ,
0, ,256, ,
1, ,258, ,
1, ,256, ,
1, ,256, ,
0, ,256, ,
1, ,257, ,
1, ,254, ,
1, ,254, ,
1, ,256, ,
1, ,257, ,
0, ,257, ,
3, ,257, ,
0, ,256, ,
1, ,257, ,
1, ,256, ,
1, ,257, ,
0, ,258, ,
1, ,258, ,
1, ,257, ,
1, ,257, ,
1, ,257, ,
1, ,257, ,
0, ,256, ,
1, ,257, ,
0, ,257, ,
1, ,257, ,
1, ,257, ,
1, ,257, ,
0, ,257, ,
1, ,258, ,
0, ,256, ,
1, ,256, ,
1, ,256, ,
1, ,258, ,
0, ,257, ,
1, ,257, ,
0, ,257, ,
1, ,257, ,
1, ,256, ,
1, ,256, ,
-1, ,256, ,
1, ,256, ,
0, ,256, ,
1, ,256, ,
1, ,256, ,
1, ,257, ,
0, ,257, ,
3, ,256, ,
0, ,257, ,
1, ,258, ,
1, ,257, ,
1, ,257, ,
0, ,258, ,
1, ,258, ,
1, ,257, ,
1, ,257, ,
1, ,256, ,
1, ,257, ,
0, ,256, ,
3, ,257, ,
0, ,257, ,
1, ,256, ,
1, ,254, ,
1, ,256, ,
0, ,258, ,
1, ,256, ,
0, ,256, ,
1, ,256, ,
1, ,256, ,
1, ,258, ,
0, ,257, ,
1, ,256, ,
0, ,258, ,
0, ,258, ,
1, ,257, ,
1, ,257, ,
0, ,256, ,
3, ,257, ,
0, ,257, ,
0, ,257, ,
1, ,256, ,
1, ,257, ,
0, ,254, ,
3, ,256, ,
0, ,257, ,
0, ,258, ,
1, ,256, ,
1, ,257, ,
0, ,257, ,
1, ,258, ,
0, ,257, ,
0, ,258, ,
1, ,257, ,
1, ,258, ,
0, ,256, ,
1, ,258, ,
0, ,256, ,
1, ,257, ,
1, ,256, ,
1, ,256, ,
0, ,257, ,
3, ,256, ,
0, ,257, ,
1, ,257, ,
1, ,257, ,
1, ,258, ,
0, ,257, ,
1, ,257, ,
0, ,257, ,
0, ,258, ,
1, ,254, ,
1, ,257, ,
-1, ,256, ,
1, ,258, ,
0, ,256, ,
0, ,256, ,
1, ,256, ,
1, ,257, ,
0, ,256, ,
3, ,258, ,
0, ,257, ,
1, ,257, ,
1, ,257, ,
1, ,257, ,
0, ,258, ,
1, ,257, ,
0, ,257, ,
1, ,256, ,
1, ,257, ,
1, ,257, ,
0, ,257, ,
1, ,258, ,
1, ,257, ,
0, ,258, ,
1, ,256, ,
1, ,256, ,
0, ,257, ,
1, ,257, ,
0, ,257, ,
1, ,257, ,
1, ,257, ,
1, ,257, ,
0, ,256, ,
1, ,258, ,
1, ,256, ,
0, ,257, ,
1, ,256, ,
1, ,256, ,
0, ,257, ,
1, ,258, ,
0, ,256, ,
1, ,256, ,
1, ,256, ,
1, ,257, ,
0, ,257, ,
1, ,257, ,
0, ,256, ,
1, ,258, ,
1, ,257, ,
1, ,257, ,
0, ,257, ,
1, ,257, ,
1, ,257, ,
1, ,258, ,
1, ,257, ,
1, ,257, ,
0, ,256, ,
1, ,258, ,
0, ,257, ,
1, ,257, ,
1, ,256, ,
1, ,256, ,
0, ,258, ,
1, ,257, ,
0, ,257, ,
1, ,256, ,
1, ,256, ,
1, ,257, ,
0, ,256, ,
1, ,256, ,
1, ,257, ,
0, ,259, ,
1, ,256, ,
1, ,257, ,
-1, ,257, ,
1, ,257, ,
1, ,257, ,
1, ,257, ,
1, ,257, ,
1, ,257, ,
0, ,256, ,
3, ,257, ,
0, ,257, ,
1, ,258, ,
1, ,257, ,
1, ,256, ,
0, ,257, ,
1, ,257, ,
1, ,257, ,
1, ,258, ,
1, ,257, ,
1, ,257, ,
0, ,257, ,
3, ,257, ,
1, ,256, ,
1, ,257, ,
1, ,256, ,
1, ,256, ,
0, ,258, ,
1, ,257, ,
0, ,257, ,
1, ,257, ,
1, ,256, ,
1, ,258, ,
0, ,257, ,
1, ,257, ,
0, ,258, ,
0, ,258, ,
1, ,257, ,
1, ,256, ,
0, ,257, ,
1, ,258, ,
0, ,256, ,
1, ,257, ,
1, ,257, ,
1, ,258, ,
0, ,257, ,
1, ,256, ,
0, ,257, ,
1, ,258, ,
1, ,256, ,
1, ,257, ,
0, ,257, ,
3, ,257, ,
0, ,256, ,
0, ,257, ,
1, ,257, ,
1, ,258, ,
0, ,257, ,
1, ,256, ,
0, ,256, ,
1, ,257, ,
1, ,254, ,
1, ,257, ,
0, ,257, ,
1, ,257, ,
0, ,257, ,
1, ,257, ,
1, ,257, ,
1, ,257, ,
0, ,256, ,
1, ,257, ,
0, ,257, ,
1, ,258, ,
1, ,257, ,
1, ,258, ,
0, ,258, ,
1, ,258, ,
0, ,257, ,
1, ,257, ,
1, ,257, ,
1, ,256, ,
0, ,256, ,
1, ,256, ,
1, ,256, ,
1, ,257, ,
1, ,256, ,
1, ,257, ,
0, ,257, ,
1, ,257, ,
0, ,257, ,
1, ,257, ,
1, ,257, ,
1, ,257, ,
0, ,257, ,
1, ,257, ,
0, ,257, ,
1, ,257, ,
1, ,256, ,
1, ,256, ,
0, ,257, ,
1, ,258, ,
1, ,256, ,
0, ,257, ,
1, ,258, ,
1, ,258, ,
0, ,257, ,
1, ,257, ,
0, ,257, ,
1, ,257, ,
1, ,256, ,
3, ,256, ,
0, ,258, ,
1, ,258, ,
0, ,257, ,
1, ,258, ,
1, ,257, ,
1, ,257, ,
0, ,256, ,
1, ,256, ,
1, ,258, ,
0, ,258, ,
1, ,257, ,
1, ,257, ,
0, ,257, ,
1, ,257, ,
1, ,256, ,
1, ,256, ,
1, ,257, ,
1, ,258, ,
0, ,256, ,
3, ,257, ,
1, ,257, ,
1, ,258, ,
1, ,257, ,
1, ,257, ,
0, ,258, ,
1, ,257, ,
1, ,256, ,
1, ,258, ,
1, ,257, ,
1, ,258, ,
0, ,257, ,
1, ,256, ,
0, ,257, ,
1, ,257, ,
1, ,256, ,
1, ,257, ,
0, ,257, ,
1, ,257, ,
0, ,257, ,
0, ,257, ,
1, ,256, ,
1, ,257, ,
0, ,257, ,
1, ,257, ,
0, ,257, ,
0, ,257, ,
1, ,256, ,
1, ,256, ,
0, ,258, ,
1, ,258, ,
0, ,257, ,
1, ,257, ,
1, ,256, ,
1, ,256, ,
0, ,257, ,
1, ,256, ,
0, ,257, ,
0, ,257, ,
1, ,256, ,
1, ,257, ,
0, ,258, ,
1, ,257, ,
0, ,256, ,
0, ,257, ,
1, ,257, ,
1, ,258, ,
0, ,257, ,
1, ,256, ,
0, ,257, ,
1, ,258, ,
1, ,257, ,
1, ,257, ,
0, ,256, ,
1, ,256, ,
0, ,254, ,
0, ,257, ,
1, ,258, ,
1, ,256, ,
0, ,257, ,
1, ,256, ,
0, ,256, ,
1, ,258, ,
1, ,256, ,
1, ,256, ,
0, ,257, ,
1, ,257, ,
1, ,257, ,
1, ,258, ,
1, ,257, ,
1, ,257, ,
0, ,257, ,
1, ,256, ,
0, ,256, ,
1, ,256, ,
1, ,256, ,
1, ,257, ,
0, ,258, ,
1, ,258, ,
0, ,254, ,
1, ,257, ,
1, ,257, ,
1, ,256, ,
0, ,257, ,
1, ,257, ,
0, ,257, ,
0, ,258, ,
1, ,257, ,
1, ,257, ,
0, ,258, ,
1, ,257, ,
0, ,256, ,
0, ,256, ,
1, ,257, ,
1, ,257, ,
0, ,257, ,
1, ,256, ,
0, ,257, ,
1, ,257, ,
1, ,256, ,
1, ,256, ,
0, ,257, ,
1, ,256, ,
0, ,256, ,
1, ,257, ,
1, ,257, ,
61, ,257, ,
102, ,257, ,
67, ,256, ,
37, ,257, ,
22, ,256, ,
16, ,256, ,
14, ,258, ,
9, ,257, ,
8, ,257, ,
5, ,256, ,
4, ,257, ,
5, ,256, ,
4, ,257, ,
1, ,257, ,
4, ,256, ,
3, ,256, ,
4, ,256, ,
4, ,257, ,
4, ,257, ,
3, ,257, ,
4, ,257, ,
3, ,256, ,
4, ,257, ,
4, ,257, ,
4, ,256, ,
3, ,256, ,
4, ,257, ,
3, ,257, ,
3, ,257, ,
4, ,257, ,
4, ,256, ,
1, ,257, ,
4, ,258, ,
1, ,256, ,
3, ,257, ,
4, ,257, ,
4, ,257, ,
3, ,257, ,
4, ,257, ,
1, ,257, ,
3, ,258, ,
3, ,256, ,
4, ,257, ,
1, ,258, ,
5, ,257, ,
3, ,254, ,
4, ,257, ,
4, ,256, ,
3, ,257, ,
1, ,256, ,
4, ,256, ,
3, ,257, ,
3, ,258, ,
4, ,257, ,
4, ,257, ,
1, ,257, ,
4, ,257, ,
1, ,257, ,
3, ,257, ,
4, ,256, ,
4, ,257, ,
1, ,256, ,
4, ,257, ,
3, ,256, ,
3, ,256, ,
4, ,257, ,
4, ,257, ,
3, ,258, ,
4, ,258, ,
3, ,257, ,
3, ,258, ,
3, ,257, ,
4, ,257, ,
3, ,256, ,
4, ,257, ,
3, ,257, ,
3, ,257, ,
4, ,256, ,
3, ,256, ,
1, ,258, ,
4, ,257, ,
3, ,257, ,
3, ,257, ,
4, ,256, ,
4, ,258, ,
1, ,257, ,
4, ,257, ,
1, ,257, ,
3, ,257, ,
4, ,256, ,
4, ,257, ,
1, ,257, ,
4, ,258, ,
3, ,257, ,
3, ,258, ,
3, ,256, ,
4, ,258, ,
1, ,257, ,
4, ,256, ,
3, ,256, ,
3, ,257, ,
3, ,256, ,
3, ,256, ,
1, ,257, ,
4, ,258, ,
1, ,257, ,
3, ,257, ,
3, ,258, ,
3, ,257, ,
1, ,257, ,
4, ,257, ,
1, ,258, ,
3, ,257, ,
3, ,257, ,
3, ,257, ,
1, ,258, ,
4, ,258, ,
1, ,257, ,
3, ,258, ,
3, ,257, ,
3, ,258, ,
1, ,257, ,
4, ,257, ,
3, ,257, ,
3, ,258, ,
3, ,257, ,
3, ,257, ,
1, ,258, ,
4, ,257, ,
1, ,257, ,
1, ,258, ,
3, ,257, ,
3, ,257, ,
1, ,256, ,
4, ,257, ,
1, ,257, ,
3, ,258, ,
3, ,256, ,
3, ,258, ,
1, ,257, ,
4, ,257, ,
1, ,256, ,
3, ,258, ,
3, ,256, ,
3, ,258, ,
1, ,257, ,
4, ,257, ,
3, ,256, ,
3, ,257, ,
3, ,257, ,
3, ,257, ,
1, ,257, ,
4, ,258, ,
1, ,256, ,
3, ,256, ,
3, ,257, ,
3, ,257, ,
1, ,257, ,
4, ,258, ,
1, ,257, ,
3, ,257, ,
3, ,257, ,
3, ,256, ,
1, ,257, ,
4, ,257, ,
3, ,257, ,
3, ,258, ,
3, ,258, ,
3, ,258, ,
1, ,256, ,
4, ,256, ,
1, ,256, ,
3, ,257, ,
3, ,257, ,
3, ,257, ,
1, ,258, ,
4, ,257, ,
3, ,257, ,
3, ,256, ,
3, ,256, ,
3, ,254, ,
1, ,253, ,
3, ,253, ,
1, ,257, ,
3, ,260, ,
3, ,259, ,
3, ,259, ,
1, ,258, ,
3, ,256, ,
1, ,254, ,
3, ,254, ,
3, ,256, ,
3, ,257, ,
1, ,257, ,
3, ,257, ,
1, ,256, ,
3, ,256, ,
3, ,257, ,
3, ,256, ,
1, ,257, ,
3, ,256, ,
1, ,256, ,
3, ,256, ,
3, ,257, ,
3, ,257, ,
1, ,256, ,
4, ,256, ,
1, ,256, ,
3, ,257, ,
3, ,256, ,
3, ,257, ,
1, ,257, ,
3, ,257, ,
1, ,257, ,
3, ,257, ,
3, ,256, ,
3, ,257, ,
1, ,256, ,
4, ,257, ,
1, ,256, ,
3, ,256, ,
3, ,256, ,
3, ,256, ,
1, ,257, ,
3, ,257, ,
1, ,257, ,
3, ,256, ,
3, ,256, ,
3, ,257, ,
1, ,256, ,
4, ,256, ,
1, ,256, ,
3, ,257, ,
3, ,254, ,
3, ,256, ,
1, ,256, ,
4, ,258, ,
1, ,257, ,
3, ,256, ,
3, ,257, ,
3, ,257, ,
1, ,256, ,
3, ,256, ,
1, ,256, ,
3, ,257, ,
3, ,256, ,
3, ,257, ,
1, ,256, ,
3, ,257, ,
1, ,256, ,
3, ,257, ,
3, ,256, ,
3, ,257, ,
1, ,256, ,
3, ,256, ,
1, ,257, ,
3, ,257, ,
3, ,256, ,
3, ,257, ,
1, ,258, ,
3, ,257, ,
1, ,256, ,
3, ,257, ,
3, ,257, ,
3, ,257, ,
1, ,256, ,
3, ,257, ,
1, ,257, ,
3, ,257, ,
3, ,256, ,
3, ,257, ,
1, ,257, ,
3, ,257, ,
1, ,257, ,
3, ,257, ,
3, ,256, ,
3, ,257, ,
1, ,256, ,
3, ,257, ,
1, ,256, ,
3, ,257, ,
3, ,256, ,
3, ,256, ,
1, ,256, ,
3, ,257, ,
1, ,257, ,
3, ,258, ,
3, ,257, ,
3, ,258, ,
1, ,257, ,
3, ,257, ,
1, ,256, ,
1, ,258, ,
3, ,256, ,
3, ,258, ,
1, ,258, ,
3, ,258, ,
1, ,257, ,
3, ,258, ,
3, ,257, ,
3, ,257, ,
1, ,256, ,
3, ,258, ,
1, ,257, ,
3, ,258, ,
3, ,257, ,
3, ,256, ,
1, ,257, ,
3, ,258, ,
1, ,257, ,
3, ,257, ,
3, ,257, ,
3, ,257, ,
1, ,257, ,
3, ,258, ,
1, ,257, ,
3, ,257, ,
1, ,257, ,
3, ,257, ,
0, ,257, ,
3, ,258, ,
1, ,257, ,
3, ,256, ,
3, ,257, ,
3, ,257, ,
1, ,257, ,
3, ,257, ,
1, ,257, ,
1, ,258, ,
1, ,254, ,
3, ,258, ,
1, ,257, ,
3, ,257, ,
1, ,257, ,
3, ,257, ,
3, ,257, ,
3, ,258, ,
1, ,256, ,
3, ,257, ,
1, ,256, ,
3, ,257, ,
3, ,257, ,
3, ,257, ,
75, ,258, ,
48, ,257, ,
27, ,256, ,
19, ,257, ,
15, ,257, ,
11, ,258, ,
6, ,256, ,
5, ,258, ,
5, ,258, ,
4, ,257, ,
4, ,256, ,
3, ,257, ,
3, ,258, ,
5, ,257, ,
3, ,256, ,
3, ,257, ,
4, ,257, ,
4, ,258, ,
3, ,257, ,
5, ,256, ,
3, ,257, ,
3, ,257, ,
4, ,257, ,
4, ,257, ,
1, ,258, ,
4, ,258, ,
3, ,256, ,
