src/vary_led_1562/temq0002042.CSV

Format,1.0B,
Memory Length,10000,Memory Length,10000,
IntpDistance,0,IntpDistance,0,
Trigger Address,5049,Trigger Address,5049,
Trigger Level,2.800E-01,Trigger Level,2.800E-01,
Source,CH1,Source,CH2,
Vertical Units,V,Vertical Units,V,
Vertical Units Div,0,Vertical Units Div,0,
Vertical Units Extend Div,16,Vertical Units Extend Div,16,
Label,,Label,,
Probe Type,0,Probe Type,0,
Probe Ratio,1.000e+01,Probe Ratio,1.000e+00,
Vertical Scale,5.000e-01,Vertical Scale,2.000e-01,
Vertical Position,-1.780e+00,Vertical Position,-2.240e+00,
Horizontal Units,S,Horizontal Units,S,
Horizontal Scale,2.000E-05,Horizontal Scale,2.000E-05,
Horizontal Position,-1.000E-06,Horizontal Position,-1.000E-06,
Horizontal Mode,Main,Horizontal Mode,Main,
SincET Mode,Real Time,SincET Mode,Real Time,
Sampling Period,2.000e-08,Sampling Period,2.000e-08,
Horizontal Old Scale,2.000E-05,Horizontal Old Scale,2.000E-05,
Horizontal Old Position,-1.000E-06,Horizontal Old Position,-1.000E-06,
Firmware,V1.23,Firmware,V1.23,
Mode,Fast,Mode,Fast,
Waveform Data,,Waveform Data,,
0, ,284, ,
0, ,285, ,
3, ,283, ,
1, ,284, ,
-1, ,284, ,
3, ,284, ,
0, ,283, ,
0, ,285, ,
3, ,284, ,
1, ,284, ,
0, ,284, ,
3, ,284, ,
1, ,284, ,
0, ,284, ,
1, ,283, ,
1, ,285, ,
-1, ,284, ,
1, ,285, ,
0, ,283, ,
0, ,284, ,
3, ,284, ,
1, ,284, ,
0, ,283, ,
3, ,284, ,
1, ,284, ,
0, ,284, ,
1, ,284, ,
1, ,284, ,
-1, ,283, ,
3, ,284, ,
1, ,283, ,
0, ,283, ,
1, ,284, ,
1, ,284, ,
0, ,284, ,
3, ,284, ,
1, ,283, ,
0, ,284, ,
3, ,284, ,
1, ,284, ,
-1, ,284, ,
1, ,284, ,
0, ,284, ,
0, ,284, ,
3, ,284, ,
1, ,283, ,
-1, ,284, ,
3, ,285, ,
0, ,284, ,
0, ,284, ,
3, ,284, ,
1, ,283, ,
-1, ,284, ,
1, ,284, ,
0, ,283, ,
0, ,284, ,
1, ,284, ,
1, ,284, ,
0, ,283, ,
3, ,284, ,
1, ,285, ,
0, ,285, ,
3, ,284, ,
1, ,284, ,
-1, ,284, ,
3, ,284, ,
0, ,283, ,
0, ,283, ,
1, ,284, ,
1, ,284, ,
0, ,283, ,
3, ,284, ,
1, ,284, ,
0, ,284, ,
3, ,283, ,
1, ,284, ,
-1, ,284, ,
3, ,283, ,
0, ,283, ,
0, ,283, ,
1, ,283, ,
1, ,284, ,
0, ,283, ,
3, ,284, ,
0, ,284, ,
0, ,284, ,
3, ,283, ,
1, ,284, ,
-1, ,284, ,
1, ,284, ,
0, ,284, ,
0, ,284, ,
3, ,283, ,
1, ,283, ,
0, ,283, ,
3, ,284, ,
0, ,284, ,
0, ,284, ,
3, ,284, ,
0, ,284, ,
-1, ,284, ,
1, ,284, ,
0, ,282, ,
0, ,285, ,
3, ,284, ,
1, ,284, ,
0, ,283, ,
3, ,284, ,
0, ,283, ,
0, ,284, ,
3, ,284, ,
1, ,284, ,
-1, ,283, ,
1, ,284, ,
0, ,284, ,
0, ,285, ,
1, ,284, ,
1, ,284, ,
0, ,283, ,
3, ,284, ,
0, ,284, ,
0, ,284, ,
3, ,284, ,
1, ,284, ,
-1, ,284, ,
1, ,284, ,
0, ,283, ,
0, ,284, ,
1, ,284, ,
1, ,284, ,
-1, ,283, ,
3, ,284, ,
0, ,283, ,
0, ,284, ,
1, ,284, ,
0, ,284, ,
-1, ,284, ,
3, ,284, ,
0, ,283, ,
0, ,283, ,
1, ,284, ,
1, ,284, ,
-1, ,283, ,
3, ,284, ,
1, ,285, ,
0, ,283, ,
3, ,283, ,
1, ,284, ,
-1, ,284, ,
3, ,284, ,
0, ,283, ,
0, ,284, ,
1, ,284, ,
1, ,284, ,
-1, ,284, ,
3, ,285, ,
1, ,283, ,
0, ,284, ,
1, ,283, ,
1, ,284, ,
-1, ,284, ,
3, ,285, ,
0, ,283, ,
0, ,284, ,
3, ,284, ,
1, ,284, ,
0, ,283, ,
3, ,284, ,
0, ,283, ,
0, ,284, ,
3, ,284, ,
0, ,284, ,
-1, ,283, ,
3, ,285, ,
0, ,283, ,
0, ,283, ,
1, ,283, ,
1, ,285, ,
0, ,284, ,
3, ,284, ,
0, ,284, ,
0, ,284, ,
1, ,284, ,
1, ,284, ,
0, ,284, ,
3, ,284, ,
0, ,283, ,
0, ,284, ,
1, ,284, ,
1, ,284, ,
0, ,284, ,
3, ,285, ,
1, ,284, ,
0, ,283, ,
1, ,283, ,
1, ,284, ,
-1, ,284, ,
1, ,284, ,
0, ,284, ,
0, ,284, ,
1, ,283, ,
1, ,284, ,
0, ,284, ,
3, ,285, ,
0, ,283, ,
0, ,282, ,
3, ,283, ,
0, ,285, ,
-1, ,284, ,
1, ,284, ,
0, ,283, ,
0, ,284, ,
1, ,283, ,
0, ,284, ,
0, ,284, ,
3, ,284, ,
0, ,285, ,
0, ,284, ,
3, ,284, ,
0, ,283, ,
-1, ,284, ,
3, ,285, ,
0, ,283, ,
0, ,284, ,
3, ,284, ,
1, ,283, ,
0, ,283, ,
1, ,284, ,
0, ,284, ,
0, ,284, ,
1, ,283, ,
1, ,283, ,
-1, ,284, ,
1, ,285, ,
0, ,283, ,
0, ,284, ,
3, ,284, ,
1, ,284, ,
0, ,283, ,
1, ,284, ,
0, ,284, ,
0, ,284, ,
3, ,284, ,
1, ,284, ,
-1, ,284, ,
1, ,284, ,
0, ,283, ,
0, ,284, ,
1, ,284, ,
0, ,285, ,
0, ,283, ,
3, ,284, ,
0, ,284, ,
0, ,283, ,
3, ,285, ,
1, ,284, ,
-1, ,284, ,
1, ,284, ,
0, ,283, ,
0, ,284, ,
3, ,284, ,
0, ,284, ,
0, ,283, ,
1, ,284, ,
0, ,283, ,
0, ,284, ,
3, ,284, ,
1, ,284, ,
-1, ,284, ,
1, ,285, ,
1, ,283, ,
0, ,284, ,
3, ,284, ,
0, ,285, ,
0, ,284, ,
3, ,285, ,
0, ,284, ,
0, ,285, ,
1, ,284, ,
0, ,284, ,
-1, ,284, ,
1, ,285, ,
0, ,283, ,
0, ,284, ,
3, ,284, ,
0, ,284, ,
-1, ,283, ,
1, ,284, ,
0, ,284, ,
0, ,284, ,
1, ,283, ,
0, ,284, ,
-1, ,284, ,
3, ,284, ,
0, ,284, ,
0, ,284, ,
1, ,284, ,
0, ,284, ,
-1, ,284, ,
1, ,284, ,
0, ,283, ,
0, ,284, ,
1, ,284, ,
1, ,284, ,
-1, ,284, ,
3, ,284, ,
0, ,283, ,
0, ,285, ,
3, ,283, ,
1, ,285, ,
0, ,284, ,
3, ,284, ,
0, ,284, ,
0, ,284, ,
3, ,283, ,
0, ,284, ,
-1, ,284, ,
1, ,284, ,
0, ,283, ,
0, ,284, ,
1, ,284, ,
1, ,283, ,
0, ,283, ,
3, ,284, ,
0, ,284, ,
-1, ,284, ,
1, ,283, ,
1, ,284, ,
-1, ,284, ,
1, ,285, ,
0, ,283, ,
0, ,284, ,
1, ,284, ,
1, ,284, ,
-1, ,283, ,
1, ,284, ,
0, ,284, ,
0, ,284, ,
3, ,284, ,
1, ,283, ,
-1, ,284, ,
3, ,284, ,
0, ,283, ,
0, ,284, ,
3, ,284, ,
1, ,284, ,
0, ,284, ,
3, ,284, ,
0, ,284, ,
0, ,283, ,
1, ,284, ,
1, ,284, ,
-1, ,284, ,
1, ,284, ,
0, ,283, ,
-1, ,284, ,
3, ,283, ,
1, ,284, ,
0, ,283, ,
1, ,284, ,
0, ,284, ,
0, ,284, ,
1, ,283, ,
0, ,284, ,
-1, ,283, ,
3, ,284, ,
1, ,284, ,
0, ,284, ,
1, ,283, ,
0, ,284, ,
0, ,284, ,
3, ,284, ,
0, ,284, ,
0, ,283, ,
1, ,283, ,
1, ,284, ,
-1, ,283, ,
1, ,283, ,
0, ,284, ,
0, ,284, ,
3, ,284, ,
1, ,284, ,
-1, ,283, ,
1, ,285, ,
0, ,283, ,
0, ,284, ,
1, ,285, ,
1, ,285, ,
-1, ,284, ,
3, ,285, ,
0, ,284, ,
0, ,284, ,
3, ,284, ,
0, ,284, ,
0, ,284, ,
1, ,284, ,
0, ,284, ,
0, ,284, ,
3, ,283, ,
0, ,284, ,
-1, ,283, ,
1, ,285, ,
0, ,283, ,
0, ,283, ,
3, ,284, ,
1, ,283, ,
-1, ,284, ,
1, ,284, ,
0, ,284, ,
0, ,284, ,
1, ,283, ,
1, ,283, ,
-1, ,283, ,
3, ,283, ,
0, ,283, ,
0, ,284, ,
1, ,284, ,
0, ,284, ,
0, ,284, ,
3, ,284, ,
0, ,284, ,
0, ,284, ,
3, ,283, ,
0, ,283, ,
-1, ,283, ,
1, ,284, ,
0, ,283, ,
0, ,283, ,
1, ,284, ,
0, ,283, ,
0, ,284, ,
3, ,284, ,
0, ,284, ,
0, ,284, ,
1, ,283, ,
1, ,283, ,
-1, ,284, ,
1, ,284, ,
0, ,283, ,
0, ,283, ,
1, ,283, ,
0, ,284, ,
0, ,284, ,
3, ,284, ,
0, ,284, ,
0, ,284, ,
3, ,283, ,
1, ,284, ,
-1, ,284, ,
1, ,284, ,
0, ,283, ,
0, ,284, ,
1, ,283, ,
0, ,285, ,
0, ,283, ,
1, ,284, ,
0, ,284, ,
0, ,284, ,
3, ,283, ,
1, ,284, ,
-1, ,283, ,
1, ,284, ,
0, ,284, ,
-1, ,285, ,
1, ,284, ,
0, ,284, ,
-1, ,283, ,
3, ,282, ,
0, ,284, ,
0, ,285, ,
3, ,284, ,
1, ,283, ,
-1, ,283, ,
3, ,284, ,
0, ,284, ,
0, ,284, ,
3, ,282, ,
1, ,283, ,
0, ,283, ,
3, ,285, ,
0, ,285, ,
0, ,285, ,
3, ,283, ,
0, ,284, ,
-1, ,283, ,
1, ,284, ,
0, ,284, ,
-1, ,284, ,
1, ,284, ,
0, ,284, ,
0, ,284, ,
3, ,284, ,
0, ,284, ,
0, ,284, ,
3, ,283, ,
1, ,284, ,
-1, ,284, ,
1, ,284, ,
0, ,284, ,
-1, ,285, ,
1, ,284, ,
0, ,284, ,
-1, ,283, ,
1, ,284, ,
0, ,284, ,
0, ,284, ,
1, ,283, ,
0, ,284, ,
-1, ,284, ,
3, ,285, ,
1, ,284, ,
0, ,284, ,
1, ,284, ,
1, ,283, ,
-1, ,283, ,
1, ,284, ,
0, ,283, ,
0, ,285, ,
3, ,284, ,
0, ,284, ,
-1, ,283, ,
1, ,283, ,
0, ,283, ,
0, ,283, ,
1, ,284, ,
0, ,284, ,
-1, ,283, ,
1, ,285, ,
0, ,284, ,
0, ,284, ,
3, ,283, ,
1, ,283, ,
-1, ,283, ,
3, ,284, ,
0, ,283, ,
0, ,284, ,
1, ,284, ,
0, ,284, ,
-1, ,283, ,
3, ,284, ,
0, ,284, ,
0, ,284, ,
3, ,283, ,
0, ,284, ,
-1, ,283, ,
1, ,284, ,
0, ,284, ,
0, ,284, ,
1, ,284, ,
0, ,284, ,
0, ,283, ,
3, ,284, ,
0, ,284, ,
0, ,284, ,
1, ,283, ,
0, ,283, ,
-1, ,284, ,
1, ,284, ,
0, ,283, ,
0, ,284, ,
1, ,284, ,
1, ,284, ,
0, ,283, ,
1, ,284, ,
0, ,283, ,
0, ,283, ,
3, ,283, ,
0, ,284, ,
-1, ,283, ,
1, ,284, ,
0, ,283, ,
0, ,283, ,
1, ,283, ,
1, ,284, ,
0, ,283, ,
1, ,284, ,
0, ,284, ,
0, ,284, ,
3, ,283, ,
1, ,284, ,
-1, ,283, ,
1, ,284, ,
0, ,283, ,
0, ,284, ,
1, ,283, ,
1, ,284, ,
0, ,282, ,
3, ,284, ,
0, ,284, ,
0, ,284, ,
1, ,283, ,
1, ,284, ,
-1, ,284, ,
1, ,284, ,
0, ,283, ,
0, ,284, ,
1, ,283, ,
0, ,284, ,
0, ,283, ,
1, ,284, ,
0, ,284, ,
0, ,284, ,
3, ,284, ,
1, ,284, ,
0, ,283, ,
1, ,284, ,
1, ,283, ,
0, ,284, ,
1, ,284, ,
1, ,284, ,
0, ,283, ,
3, ,284, ,
0, ,284, ,
0, ,284, ,
1, ,282, ,
1, ,284, ,
-1, ,283, ,
1, ,285, ,
0, ,283, ,
-1, ,283, ,
1, ,283, ,
0, ,284, ,
0, ,284, ,
1, ,284, ,
0, ,284, ,
0, ,283, ,
1, ,283, ,
1, ,283, ,
0, ,283, ,
1, ,284, ,
0, ,283, ,
0, ,283, ,
1, ,283, ,
1, ,283, ,
0, ,284, ,
1, ,284, ,
0, ,283, ,
0, ,284, ,
3, ,283, ,
1, ,284, ,
-1, ,284, ,
1, ,285, ,
0, ,284, ,
-1, ,283, ,
1, ,284, ,
0, ,283, ,
0, ,283, ,
1, ,284, ,
0, ,284, ,
0, ,284, ,
3, ,283, ,
1, ,284, ,
-1, ,284, ,
1, ,284, ,
0, ,283, ,
-1, ,284, ,
1, ,284, ,
1, ,284, ,
0, ,283, ,
3, ,284, ,
0, ,284, ,
0, ,284, ,
3, ,284, ,
0, ,284, ,
-1, ,284, ,
1, ,284, ,
0, ,284, ,
0, ,284, ,
1, ,284, ,
0, ,284, ,
-1, ,283, ,
1, ,284, ,
0, ,284, ,
0, ,284, ,
1, ,283, ,
0, ,284, ,
-1, ,284, ,
3, ,284, ,
0, ,283, ,
0, ,284, ,
1, ,284, ,
0, ,284, ,
0, ,283, ,
1, ,283, ,
0, ,283, ,
0, ,284, ,
1, ,283, ,
0, ,283, ,
-1, ,284, ,
1, ,284, ,
0, ,283, ,
0, ,284, ,
3, ,284, ,
1, ,284, ,
-1, ,283, ,
1, ,284, ,
0, ,283, ,
0, ,284, ,
1, ,283, ,
0, ,284, ,
0, ,283, ,
3, ,284, ,
1, ,283, ,
0, ,284, ,
1, ,284, ,
0, ,284, ,
-1, ,284, ,
1, ,284, ,
1, ,284, ,
0, ,284, ,
1, ,283, ,
0, ,283, ,
-1, ,284, ,
1, ,284, ,
0, ,284, ,
0, ,284, ,
1, ,283, ,
1, ,284, ,
0, ,283, ,
1, ,284, ,
0, ,283, ,
0, ,284, ,
3, ,283, ,
1, ,284, ,
-1, ,284, ,
1, ,284, ,
0, ,283, ,
0, ,284, ,
1, ,284, ,
0, ,284, ,
0, ,283, ,
1, ,284, ,
0, ,284, ,
0, ,284, ,
3, ,283, ,
1, ,284, ,
0, ,284, ,
1, ,284, ,
0, ,284, ,
0, ,284, ,
1, ,283, ,
0, ,283, ,
0, ,283, ,
1, ,285, ,
0, ,284, ,
0, ,284, ,
3, ,283, ,
1, ,282, ,
-1, ,283, ,
1, ,285, ,
0, ,283, ,
0, ,284, ,
3, ,284, ,
1, ,283, ,
0, ,283, ,
1, ,284, ,
0, ,283, ,
0, ,284, ,
3, ,283, ,
0, ,283, ,
-1, ,284, ,
3, ,284, ,
0, ,284, ,
-1, ,285, ,
1, ,283, ,
0, ,283, ,
0, ,283, ,
1, ,283, ,
0, ,284, ,
0, ,284, ,
3, ,283, ,
1, ,284, ,
-1, ,284, ,
1, ,284, ,
0, ,281, ,
0, ,279, ,
1, ,281, ,
1, ,286, ,
0, ,290, ,
1, ,290, ,
0, ,283, ,
0, ,280, ,
3, ,280, ,
1, ,283, ,
-1, ,285, ,
1, ,284, ,
0, ,282, ,
0, ,284, ,
1, ,283, ,
0, ,284, ,
0, ,283, ,
1, ,284, ,
0, ,284, ,
0, ,283, ,
3, ,284, ,
0, ,283, ,
0, ,283, ,
1, ,284, ,
0, ,283, ,
0, ,283, ,
1, ,284, ,
0, ,284, ,
-1, ,284, ,
1, ,284, ,
0, ,283, ,
0, ,284, ,
1, ,283, ,
1, ,283, ,
-1, ,283, ,
3, ,284, ,
0, ,283, ,
0, ,283, ,
1, ,282, ,
0, ,284, ,
0, ,283, ,
1, ,283, ,
0, ,284, ,
0, ,284, ,
3, ,284, ,
1, ,284, ,
0, ,284, ,
1, ,284, ,
0, ,283, ,
0, ,283, ,
1, ,283, ,
0, ,283, ,
0, ,283, ,
1, ,284, ,
0, ,282, ,
0, ,285, ,
1, ,283, ,
0, ,284, ,
-1, ,283, ,
1, ,283, ,
0, ,283, ,
0, ,283, ,
1, ,283, ,
0, ,284, ,
0, ,283, ,
1, ,283, ,
0, ,284, ,
0, ,284, ,
3, ,283, ,
1, ,283, ,
-1, ,282, ,
3, ,284, ,
0, ,282, ,
0, ,284, ,
1, ,283, ,
1, ,283, ,
0, ,283, ,
1, ,283, ,
0, ,283, ,
0, ,283, ,
3, ,283, ,
1, ,284, ,
0, ,283, ,
1, ,284, ,
0, ,283, ,
0, ,284, ,
1, ,283, ,
0, ,283, ,
0, ,283, ,
1, ,284, ,
0, ,283, ,
0, ,284, ,
3, ,283, ,
0, ,283, ,
-1, ,283, ,
1, ,285, ,
0, ,282, ,
0, ,284, ,
3, ,284, ,
0, ,284, ,
0, ,283, ,
1, ,283, ,
0, ,284, ,
0, ,284, ,
1, ,283, ,
0, ,284, ,
-1, ,283, ,
1, ,284, ,
0, ,285, ,
0, ,285, ,
1, ,284, ,
0, ,283, ,
0, ,283, ,
1, ,284, ,
0, ,284, ,
0, ,284, ,
3, ,284, ,
1, ,285, ,
-1, ,285, ,
3, ,284, ,
0, ,283, ,
0, ,284, ,
1, ,284, ,
0, ,285, ,
-1, ,283, ,
1, ,284, ,
0, ,285, ,
0, ,284, ,
3, ,284, ,
1, ,284, ,
0, ,284, ,
1, ,284, ,
0, ,284, ,
0, ,284, ,
3, ,285, ,
1, ,284, ,
-1, ,284, ,
1, ,284, ,
0, ,284, ,
0, ,284, ,
3, ,283, ,
1, ,284, ,
-1, ,284, ,
3, ,285, ,
1, ,283, ,
0, ,284, ,
1, ,285, ,
0, ,285, ,
-1, ,284, ,
1, ,285, ,
0, ,284, ,
0, ,284, ,
1, ,284, ,
1, ,284, ,
-1, ,284, ,
3, ,284, ,
0, ,284, ,
0, ,284, ,
3, ,284, ,
0, ,284, ,
0, ,283, ,
1, ,284, ,
0, ,284, ,
0, ,285, ,
3, ,283, ,
0, ,284, ,
0, ,283, ,
1, ,283, ,
0, ,284, ,
0, ,283, ,
1, ,284, ,
0, ,283, ,
0, ,283, ,
1, ,284, ,
0, ,283, ,
0, ,284, ,
3, ,284, ,
0, ,284, ,
-1, ,284, ,
1, ,285, ,
1, ,284, ,
0, ,284, ,
1, ,284, ,
0, ,284, ,
0, ,284, ,
1, ,284, ,
0, ,284, ,
0, ,284, ,
3, ,284, ,
0, ,284, ,
-1, ,284, ,
1, ,284, ,
0, ,283, ,
0, ,284, ,
3, ,284, ,
1, ,284, ,
0, ,283, ,
1, ,283, ,
0, ,284, ,
0, ,284, ,
1, ,284, ,
0, ,284, ,
-1, ,284, ,
1, ,283, ,
0, ,283, ,
0, ,285, ,
1, ,283, ,
1, ,283, ,
0, ,283, ,
1, ,284, ,
0, ,283, ,
0, ,284, ,
3, ,283, ,
0, ,284, ,
-1, ,284, ,
1, ,284, ,
0, ,283, ,
-1, ,284, ,
1, ,283, ,
1, ,284, ,
0, ,283, ,
1, ,283, ,
0, ,285, ,
-1, ,284, ,
3, ,284, ,
1, ,284, ,
-1, ,283, ,
1, ,284, ,
0, ,283, ,
0, ,284, ,
1, ,283, ,
0, ,283, ,
0, ,283, ,
1, ,283, ,
0, ,283, ,
0, ,284, ,
1, ,283, ,
1, ,284, ,
-1, ,284, ,
1, ,284, ,
0, ,284, ,
0, ,284, ,
1, ,284, ,
0, ,284, ,
0, ,283, ,
1, ,283, ,
0, ,283, ,
0, ,284, ,
3, ,284, ,
0, ,284, ,
-1, ,284, ,
1, ,284, ,
0, ,283, ,
0, ,284, ,
1, ,285, ,
1, ,282, ,
0, ,282, ,
1, ,284, ,
0, ,284, ,
0, ,285, ,
3, ,285, ,
1, ,284, ,
0, ,283, ,
1, ,284, ,
0, ,283, ,
0, ,284, ,
1, ,282, ,
0, ,285, ,
0, ,284, ,
1, ,284, ,
0, ,284, ,
0, ,284, ,
3, ,284, ,
1, ,284, ,
-1, ,285, ,
1, ,284, ,
0, ,283, ,
0, ,284, ,
1, ,284, ,
0, ,285, ,
0, ,283, ,
1, ,285, ,
0, ,284, ,
0, ,284, ,
3, ,284, ,
1, ,284, ,
-1, ,284, ,
1, ,284, ,
0, ,283, ,
0, ,285, ,
1, ,284, ,
0, ,284, ,
0, ,284, ,
1, ,284, ,
0, ,283, ,
0, ,284, ,
3, ,284, ,
1, ,284, ,
-1, ,283, ,
1, ,285, ,
0, ,283, ,
0, ,284, ,
1, ,284, ,
1, ,284, ,
0, ,284, ,
1, ,284, ,
0, ,284, ,
0, ,284, ,
3, ,284, ,
1, ,284, ,
0, ,282, ,
1, ,283, ,
0, ,283, ,
0, ,284, ,
1, ,284, ,
0, ,284, ,
0, ,283, ,
1, ,285, ,
0, ,283, ,
0, ,284, ,
3, ,283, ,
1, ,284, ,
0, ,284, ,
1, ,285, ,
0, ,284, ,
0, ,284, ,
1, ,283, ,
1, ,284, ,
-1, ,283, ,
1, ,284, ,
0, ,284, ,
0, ,285, ,
3, ,283, ,
1, ,284, ,
131, ,284, ,
78, ,284, ,
42, ,283, ,
28, ,284, ,
23, ,284, ,
14, ,285, ,
6, ,284, ,
8, ,284, ,
8, ,284, ,
6, ,284, ,
5, ,283, ,
3, ,284, ,
3, ,284, ,
5, ,284, ,
3, ,283, ,
1, ,285, ,
5, ,284, ,
4, ,284, ,
1, ,283, ,
4, ,284, ,
3, ,283, ,
3, ,284, ,
4, ,283, ,
3, ,284, ,
1, ,284, ,
4, ,284, ,
3, ,283, ,
1, ,284, ,
4, ,284, ,
4, ,284, ,
3, ,284, ,
4, ,284, ,
3, ,284, ,
3, ,284, ,
4, ,283, ,
3, ,284, ,
1, ,284, ,
4, ,285, ,
3, ,284, ,
1, ,284, ,
3, ,284, ,
3, ,285, ,
1, ,285, ,
4, ,284, ,
3, ,283, ,
3, ,284, ,
4, ,283, ,
3, ,284, ,
1, ,283, ,
4, ,284, ,
3, ,284, ,
1, ,284, ,
4, ,284, ,
3, ,284, ,
1, ,284, ,
4, ,284, ,
3, ,276, ,
1, ,284, ,
4, ,291, ,
4, ,291, ,
1, ,283, ,
4, ,282, ,
1, ,283, ,
1, ,284, ,
4, ,284, ,
3, ,284, ,
1, ,284, ,
4, ,284, ,
3, ,283, ,
3, ,284, ,
4, ,284, ,
3, ,284, ,
1, ,283, ,
4, ,285, ,
3, ,283, ,
1, ,283, ,
4, ,284, ,
3, ,285, ,
1, ,284, ,
4, ,284, ,
1, ,283, ,
1, ,284, ,
4, ,284, ,
3, ,283, ,
1, ,284, ,
4, ,284, ,
1, ,283, ,
1, ,284, ,
3, ,284, ,
3, ,284, ,
1, ,284, ,
3, ,285, ,
1, ,284, ,
3, ,284, ,
4, ,284, ,
3, ,285, ,
1, ,284, ,
4, ,284, ,
3, ,283, ,
1, ,285, ,
3, ,284, ,
3, ,284, ,
1, ,283, ,
4, ,284, ,
1, ,284, ,
1, ,284, ,
3, ,284, ,
3, ,284, ,
1, ,284, ,
3, ,284, ,
1, ,283, ,
1, ,284, ,
3, ,284, ,
3, ,284, ,
1, ,283, ,
4, ,283, ,
3, ,284, ,
3, ,284, ,
3, ,284, ,
3, ,284, ,
1, ,284, ,
4, ,285, ,
3, ,284, ,
1, ,284, ,
3, ,284, ,
3, ,284, ,
1, ,284, ,
3, ,284, ,
3, ,283, ,
1, ,284, ,
4, ,283, ,
3, ,284, ,
1, ,284, ,
4, ,284, ,
1, ,284, ,
1, ,284, ,
3, ,283, ,
3, ,283, ,
1, ,284, ,
3, ,284, ,
1, ,283, ,
1, ,284, ,
3, ,283, ,
3, ,283, ,
1, ,283, ,
3, ,284, ,
3, ,284, ,
1, ,284, ,
3, ,284, ,
3, ,284, ,
1, ,283, ,
3, ,284, ,
3, ,284, ,
1, ,285, ,
3, ,284, ,
3, ,284, ,
1, ,283, ,
3, ,284, ,
1, ,283, ,
1, ,284, ,
3, ,284, ,
3, ,283, ,
1, ,283, ,
3, ,283, ,
1, ,284, ,
1, ,285, ,
3, ,283, ,
3, ,284, ,
1, ,284, ,
4, ,284, ,
3, ,283, ,
1, ,285, ,
3, ,284, ,
3, ,284, ,
1, ,284, ,
3, ,284, ,
1, ,283, ,
1, ,284, ,
3, ,283, ,
3, ,284, ,
1, ,284, ,
3, ,285, ,
1, ,283, ,
1, ,284, ,
3, ,283, ,
3, ,284, ,
1, ,283, ,
3, ,284, ,
1, ,285, ,
1, ,285, ,
3, ,284, ,
3, ,284, ,
1, ,284, ,
4, ,284, ,
1, ,283, ,
1, ,284, ,
3, ,285, ,
3, ,285, ,
1, ,283, ,
3, ,282, ,
1, ,284, ,
1, ,284, ,
3, ,284, ,
1, ,284, ,
0, ,284, ,
3, ,283, ,
3, ,284, ,
1, ,285, ,
3, ,284, ,
3, ,284, ,
0, ,284, ,
3, ,284, ,
1, ,283, ,
1, ,284, ,
3, ,284, ,
1, ,284, ,
0, ,284, ,
3, ,284, ,
3, ,283, ,
1, ,284, ,
3, ,284, ,
3, ,284, ,
0, ,283, ,
3, ,285, ,
1, ,284, ,
1, ,284, ,
3, ,284, ,
3, ,283, ,
0, ,284, ,
3, ,283, ,
1, ,283, ,
1, ,284, ,
3, ,284, ,
3, ,284, ,
0, ,283, ,
3, ,285, ,
1, ,284, ,
1, ,283, ,
3, ,284, ,
1, ,284, ,
0, ,284, ,
3, ,285, ,
3, ,283, ,
1, ,285, ,
3, ,284, ,
1, ,285, ,
1, ,283, ,
3, ,284, ,
1, ,284, ,
1, ,284, ,
3, ,283, ,
1, ,285, ,
0, ,283, ,
3, ,283, ,
1, ,283, ,
1, ,284, ,
3, ,283, ,
3, ,284, ,
0, ,283, ,
3, ,284, ,
1, ,284, ,
1, ,284, ,
3, ,283, ,
3, ,284, ,
0, ,284, ,
3, ,284, ,
1, ,283, ,
0, ,284, ,
3, ,284, ,
1, ,283, ,
0, ,283, ,
3, ,283, ,
3, ,284, ,
3, ,285, ,
3, ,284, ,
0, ,284, ,
0, ,283, ,
4, ,284, ,
1, ,283, ,
0, ,283, ,
3, ,284, ,
1, ,284, ,
0, ,284, ,
3, ,284, ,
1, ,283, ,
1, ,285, ,
3, ,284, ,
1, ,284, ,
0, ,283, ,
3, ,284, ,
1, ,284, ,
1, ,284, ,
3, ,284, ,
1, ,284, ,
0, ,284, ,
3, ,284, ,
1, ,284, ,
1, ,284, ,
3, ,283, ,
1, ,284, ,
0, ,283, ,
3, ,284, ,
1, ,283, ,
0, ,283, ,
3, ,284, ,
1, ,285, ,
0, ,283, ,
3, ,285, ,
1, ,284, ,
1, ,284, ,
3, ,283, ,
1, ,284, ,
0, ,284, ,
3, ,285, ,
1, ,283, ,
1, ,284, ,
3, ,284, ,
1, ,284, ,
0, ,283, ,
3, ,284, ,
1, ,283, ,
1, ,285, ,
3, ,283, ,
1, ,284, ,
0, ,284, ,
3, ,284, ,
1, ,283, ,
0, ,283, ,
3, ,284, ,
1, ,284, ,
0, ,283, ,
3, ,284, ,
1, ,284, ,
1, ,285, ,
3, ,283, ,
1, ,284, ,
0, ,284, ,
3, ,284, ,
1, ,283, ,
1, ,284, ,
3, ,283, ,
1, ,284, ,
0, ,283, ,
3, ,283, ,
1, ,284, ,
0, ,284, ,
3, ,283, ,
1, ,283, ,
0, ,283, ,
3, ,284, ,
1, ,283, ,
1, ,284, ,
3, ,284, ,
1, ,284, ,
0, ,283, ,
3, ,284, ,
1, ,284, ,
1, ,284, ,
3, ,283, ,
1, ,284, ,
0, ,284, ,
3, ,285, ,
1, ,283, ,
1, ,284, ,
3, ,283, ,
3, ,284, ,
0, ,283, ,
3, ,285, ,
1, ,284, ,
1, ,283, ,
3, ,283, ,
1, ,283, ,
0, ,283, ,
3, ,284, ,
1, ,283, ,
1, ,284, ,
3, ,284, ,
1, ,283, ,
0, ,283, ,
3, ,284, ,
1, ,284, ,
0, ,284, ,
3, ,284, ,
1, ,284, ,
0, ,284, ,
3, ,284, ,
1, ,283, ,
1, ,285, ,
3, ,284, ,
1, ,284, ,
0, ,283, ,
3, ,284, ,
1, ,282, ,
1, ,285, ,
3, ,284, ,
1, ,285, ,
0, ,284, ,
3, ,284, ,
1, ,284, ,
0, ,284, ,
3, ,283, ,
1, ,285, ,
0, ,283, ,
3, ,284, ,
1, ,284, ,
0, ,284, ,
3, ,284, ,
1, ,283, ,
0, ,284, ,
3, ,285, ,
1, ,283, ,
1, ,284, ,
3, ,284, ,
1, ,284, ,
0, ,284, ,
3, ,284, ,
1, ,283, ,
0, ,284, ,
3, ,283, ,
1, ,283, ,
0, ,283, ,
3, ,284, ,
1, ,284, ,
0, ,284, ,
3, ,284, ,
1, ,285, ,
0, ,283, ,
1, ,284, ,
1, ,284, ,
1, ,285, ,
3, ,283, ,
1, ,284, ,
0, ,284, ,
3, ,284, ,
1, ,283, ,
0, ,284, ,
3, ,284, ,
1, ,285, ,
0, ,283, ,
3, ,285, ,
1, ,284, ,
0, ,284, ,
3, ,284, ,
1, ,284, ,
0, ,284, ,
3, ,284, ,
1, ,283, ,
0, ,284, ,
3, ,284, ,
1, ,284, ,
0, ,285, ,
3, ,284, ,
1, ,284, ,
1, ,284, ,
3, ,283, ,
1, ,284, ,
0, ,283, ,
3, ,284, ,
1, ,283, ,
1, ,284, ,
3, ,283, ,
1, ,285, ,
0, ,285, ,
3, ,285, ,
1, ,284, ,
0, ,283, ,
3, ,282, ,
1, ,284, ,
0, ,285, ,
3, ,285, ,
1, ,283, ,
0, ,283, ,
3, ,284, ,
1, ,284, ,
0, ,283, ,
1, ,283, ,
1, ,282, ,
1, ,284, ,
3, ,284, ,
1, ,285, ,
0, ,284, ,
3, ,285, ,
1, ,283, ,
0, ,284, ,
3, ,284, ,
1, ,283, ,
0, ,283, ,
3, ,284, ,
1, ,284, ,
1, ,285, ,
3, ,284, ,
1, ,284, ,
0, ,284, ,
3, ,284, ,
1, ,283, ,
0, ,284, ,
3, ,284, ,
1, ,285, ,
0, ,283, ,
3, ,285, ,
1, ,284, ,
0, ,284, ,
3, ,283, ,
1, ,284, ,
0, ,283, ,
3, ,284, ,
1, ,284, ,
0, ,284, ,
3, ,284, ,
1, ,284, ,
0, ,283, ,
3, ,283, ,
1, ,284, ,
0, ,284, ,
3, ,283, ,
1, ,284, ,
0, ,284, ,
3, ,284, ,
1, ,283, ,
0, ,284, ,
3, ,284, ,
1, ,284, ,
0, ,283, ,
3, ,284, ,
0, ,284, ,
0, ,284, ,
1, ,283, ,
1, ,284, ,
0, ,284, ,
3, ,284, ,
1, ,283, ,
0, ,284, ,
3, ,283, ,
1, ,284, ,
0, ,284, ,
3, ,284, ,
0, ,284, ,
0, ,284, ,
3, ,283, ,
1, ,284, ,
0, ,283, ,
1, ,284, ,
1, ,283, ,
0, ,284, ,
3, ,284, ,
1, ,284, ,
0, ,283, ,
1, ,285, ,
1, ,283, ,
0, ,284, ,
3, ,283, ,
1, ,284, ,
0, ,284, ,
3, ,284, ,
1, ,283, ,
0, ,284, ,
3, ,284, ,
1, ,284, ,
0, ,283, ,
3, ,283, ,
0, ,284, ,
0, ,284, ,
3, ,283, ,
1, ,283, ,
-1, ,283, ,
1, ,284, ,
1, ,283, ,
0, ,284, ,
3, ,284, ,
1, ,284, ,
0, ,283, ,
3, ,283, ,
1, ,284, ,
0, ,284, ,
3, ,284, ,
1, ,284, ,
0, ,285, ,
3, ,285, ,
1, ,283, ,
0, ,284, ,
3, ,284, ,
1, ,284, ,
0, ,284, ,
3, ,285, ,
1, ,283, ,
0, ,284, ,
3, ,283, ,
1, ,284, ,
-1, ,283, ,
1, ,284, ,
1, ,283, ,
0, ,284, ,
3, ,284, ,
1, ,284, ,
0, ,284, ,
1, ,284, ,
0, ,284, ,
0, ,285, ,
1, ,283, ,
1, ,284, ,
-1, ,284, ,
3, ,284, ,
1, ,283, ,
