src/vary_led_1562/temq0000539.CSV

Format,1.0B,
Memory Length,10000,Memory Length,10000,
IntpDistance,0,IntpDistance,0,
Trigger Address,5049,Trigger Address,5049,
Trigger Level,2.800E-01,Trigger Level,2.800E-01,
Source,CH1,Source,CH2,
Vertical Units,V,Vertical Units,V,
Vertical Units Div,0,Vertical Units Div,0,
Vertical Units Extend Div,16,Vertical Units Extend Div,16,
Label,,Label,,
Probe Type,0,Probe Type,0,
Probe Ratio,1.000e+01,Probe Ratio,1.000e+00,
Vertical Scale,5.000e-01,Vertical Scale,2.000e-01,
Vertical Position,-1.780e+00,Vertical Position,-2.240e+00,
Horizontal Units,S,Horizontal Units,S,
Horizontal Scale,2.000E-05,Horizontal Scale,2.000E-05,
Horizontal Position,-1.000E-06,Horizontal Position,-1.000E-06,
Horizontal Mode,Main,Horizontal Mode,Main,
SincET Mode,Real Time,SincET Mode,Real Time,
Sampling Period,2.000e-08,Sampling Period,2.000e-08,
Horizontal Old Scale,2.000E-05,Horizontal Old Scale,2.000E-05,
Horizontal Old Position,-1.000E-06,Horizontal Old Position,-1.000E-06,
Firmware,V1.23,Firmware,V1.23,
Mode,Fast,Mode,Fast,
Waveform Data,,Waveform Data,,
1, ,264, ,
1, ,264, ,
3, ,265, ,
1, ,265, ,
0, ,263, ,
3, ,264, ,
1, ,264, ,
1, ,264, ,
3, ,263, ,
1, ,264, ,
0, ,264, ,
3, ,264, ,
1, ,263, ,
1, ,264, ,
3, ,264, ,
1, ,265, ,
0, ,264, ,
3, ,263, ,
1, ,264, ,
1, ,264, ,
3, ,264, ,
1, ,264, ,
0, ,265, ,
3, ,265, ,
1, ,264, ,
1, ,264, ,
3, ,264, ,
1, ,264, ,
0, ,264, ,
3, ,264, ,
1, ,264, ,
1, ,264, ,
3, ,264, ,
1, ,264, ,
0, ,265, ,
3, ,265, ,
1, ,264, ,
1, ,264, ,
1, ,265, ,
1, ,264, ,
0, ,264, ,
3, ,264, ,
1, ,264, ,
0, ,264, ,
3, ,264, ,
1, ,264, ,
0, ,264, ,
3, ,264, ,
1, ,264, ,
1, ,265, ,
3, ,265, ,
3, ,264, ,
0, ,264, ,
3, ,264, ,
1, ,264, ,
1, ,264, ,
3, ,264, ,
1, ,264, ,
0, ,264, ,
3, ,264, ,
1, ,263, ,
0, ,264, ,
1, ,264, ,
1, ,265, ,
0, ,264, ,
3, ,265, ,
1, ,264, ,
0, ,266, ,
3, ,264, ,
3, ,264, ,
0, ,265, ,
3, ,264, ,
0, ,264, ,
1, ,264, ,
3, ,264, ,
1, ,264, ,
0, ,264, ,
3, ,264, ,
1, ,264, ,
0, ,265, ,
3, ,264, ,
1, ,264, ,
0, ,264, ,
3, ,265, ,
1, ,264, ,
1, ,265, ,
1, ,265, ,
1, ,265, ,
0, ,264, ,
3, ,265, ,
1, ,259, ,
1, ,264, ,
3, ,268, ,
1, ,267, ,
0, ,265, ,
3, ,263, ,
1, ,264, ,
0, ,265, ,
1, ,264, ,
1, ,265, ,
-1, ,265, ,
3, ,265, ,
1, ,264, ,
1, ,264, ,
1, ,264, ,
1, ,266, ,
0, ,264, ,
3, ,264, ,
0, ,265, ,
1, ,264, ,
1, ,265, ,
1, ,265, ,
-1, ,264, ,
3, ,264, ,
1, ,264, ,
0, ,265, ,
3, ,264, ,
1, ,264, ,
0, ,265, ,
3, ,265, ,
1, ,264, ,
1, ,264, ,
1, ,264, ,
1, ,265, ,
0, ,264, ,
3, ,264, ,
1, ,264, ,
0, ,264, ,
3, ,264, ,
1, ,264, ,
0, ,265, ,
3, ,265, ,
1, ,264, ,
1, ,264, ,
1, ,264, ,
1, ,265, ,
0, ,264, ,
3, ,265, ,
1, ,264, ,
1, ,265, ,
1, ,264, ,
1, ,264, ,
0, ,264, ,
3, ,264, ,
1, ,265, ,
1, ,264, ,
3, ,264, ,
1, ,265, ,
0, ,264, ,
3, ,264, ,
1, ,264, ,
0, ,265, ,
3, ,264, ,
1, ,264, ,
0, ,264, ,
3, ,264, ,
1, ,265, ,
1, ,264, ,
3, ,264, ,
1, ,264, ,
-1, ,264, ,
3, ,264, ,
1, ,264, ,
1, ,265, ,
3, ,263, ,
1, ,265, ,
0, ,265, ,
3, ,265, ,
0, ,264, ,
0, ,264, ,
1, ,265, ,
1, ,264, ,
0, ,264, ,
3, ,265, ,
1, ,264, ,
0, ,265, ,
3, ,264, ,
1, ,264, ,
0, ,265, ,
3, ,264, ,
0, ,263, ,
1, ,264, ,
1, ,264, ,
1, ,265, ,
0, ,264, ,
3, ,264, ,
1, ,264, ,
0, ,265, ,
1, ,264, ,
1, ,264, ,
0, ,265, ,
3, ,265, ,
1, ,264, ,
1, ,264, ,
3, ,264, ,
1, ,264, ,
0, ,264, ,
3, ,264, ,
1, ,264, ,
1, ,264, ,
3, ,264, ,
1, ,264, ,
0, ,264, ,
3, ,264, ,
0, ,264, ,
0, ,264, ,
1, ,264, ,
1, ,265, ,
0, ,264, ,
3, ,264, ,
1, ,264, ,
0, ,264, ,
1, ,263, ,
1, ,265, ,
0, ,264, ,
3, ,265, ,
1, ,264, ,
1, ,264, ,
1, ,264, ,
1, ,264, ,
0, ,264, ,
3, ,264, ,
1, ,264, ,
0, ,265, ,
3, ,264, ,
1, ,264, ,
0, ,264, ,
3, ,264, ,
1, ,264, ,
1, ,264, ,
1, ,264, ,
1, ,264, ,
-1, ,264, ,
3, ,264, ,
0, ,264, ,
0, ,265, ,
3, ,264, ,
1, ,264, ,
0, ,264, ,
3, ,264, ,
0, ,264, ,
1, ,264, ,
3, ,264, ,
1, ,265, ,
-1, ,264, ,
3, ,264, ,
1, ,264, ,
0, ,264, ,
1, ,265, ,
1, ,264, ,
-1, ,265, ,
3, ,264, ,
1, ,264, ,
1, ,264, ,
3, ,264, ,
1, ,266, ,
-1, ,264, ,
3, ,264, ,
0, ,264, ,
0, ,265, ,
3, ,264, ,
1, ,264, ,
0, ,263, ,
3, ,264, ,
0, ,264, ,
0, ,266, ,
1, ,265, ,
1, ,265, ,
-1, ,264, ,
3, ,264, ,
0, ,264, ,
0, ,265, ,
3, ,263, ,
1, ,264, ,
0, ,264, ,
3, ,266, ,
0, ,264, ,
0, ,264, ,
1, ,264, ,
1, ,264, ,
-1, ,264, ,
3, ,264, ,
0, ,264, ,
0, ,265, ,
3, ,264, ,
1, ,264, ,
-1, ,264, ,
3, ,264, ,
0, ,264, ,
0, ,264, ,
1, ,264, ,
1, ,265, ,
-1, ,264, ,
3, ,264, ,
1, ,265, ,
0, ,264, ,
3, ,264, ,
1, ,265, ,
0, ,264, ,
3, ,265, ,
0, ,265, ,
0, ,264, ,
1, ,265, ,
1, ,265, ,
-1, ,264, ,
3, ,264, ,
1, ,264, ,
0, ,264, ,
1, ,264, ,
3, ,264, ,
0, ,264, ,
3, ,264, ,
0, ,264, ,
1, ,264, ,
1, ,265, ,
1, ,265, ,
0, ,264, ,
3, ,264, ,
1, ,264, ,
0, ,265, ,
3, ,264, ,
1, ,265, ,
0, ,265, ,
3, ,265, ,
0, ,265, ,
1, ,264, ,
3, ,264, ,
1, ,264, ,
-1, ,264, ,
3, ,264, ,
0, ,264, ,
0, ,265, ,
1, ,264, ,
1, ,264, ,
-1, ,264, ,
3, ,264, ,
1, ,264, ,
0, ,265, ,
1, ,264, ,
1, ,265, ,
0, ,265, ,
3, ,264, ,
1, ,264, ,
0, ,264, ,
3, ,264, ,
1, ,264, ,
0, ,264, ,
3, ,264, ,
0, ,265, ,
0, ,264, ,
1, ,265, ,
1, ,264, ,
-1, ,264, ,
3, ,264, ,
0, ,264, ,
0, ,264, ,
3, ,264, ,
1, ,265, ,
0, ,264, ,
3, ,265, ,
0, ,264, ,
0, ,264, ,
1, ,264, ,
1, ,264, ,
0, ,262, ,
3, ,262, ,
0, ,262, ,
0, ,264, ,
3, ,266, ,
1, ,267, ,
0, ,267, ,
3, ,266, ,
0, ,264, ,
0, ,263, ,
1, ,263, ,
1, ,264, ,
-1, ,263, ,
3, ,264, ,
1, ,264, ,
0, ,265, ,
1, ,264, ,
1, ,263, ,
0, ,264, ,
3, ,264, ,
0, ,264, ,
1, ,264, ,
1, ,263, ,
1, ,264, ,
-1, ,264, ,
3, ,264, ,
0, ,264, ,
0, ,264, ,
3, ,264, ,
1, ,264, ,
0, ,264, ,
3, ,264, ,
0, ,264, ,
0, ,264, ,
1, ,264, ,
1, ,264, ,
-1, ,264, ,
3, ,264, ,
0, ,264, ,
0, ,264, ,
1, ,264, ,
1, ,264, ,
0, ,264, ,
3, ,265, ,
0, ,264, ,
0, ,264, ,
1, ,264, ,
1, ,264, ,
-1, ,264, ,
3, ,264, ,
0, ,265, ,
0, ,264, ,
1, ,263, ,
1, ,264, ,
-1, ,264, ,
3, ,265, ,
0, ,264, ,
0, ,264, ,
1, ,264, ,
1, ,264, ,
-1, ,264, ,
3, ,264, ,
0, ,264, ,
0, ,264, ,
1, ,264, ,
1, ,264, ,
-1, ,264, ,
3, ,264, ,
0, ,264, ,
0, ,264, ,
1, ,264, ,
1, ,265, ,
-1, ,264, ,
3, ,263, ,
0, ,264, ,
0, ,264, ,
3, ,264, ,
1, ,264, ,
-1, ,264, ,
3, ,264, ,
0, ,263, ,
0, ,264, ,
1, ,264, ,
1, ,265, ,
-1, ,263, ,
3, ,264, ,
1, ,264, ,
0, ,264, ,
1, ,264, ,
1, ,264, ,
-1, ,264, ,
3, ,264, ,
0, ,264, ,
0, ,264, ,
1, ,264, ,
1, ,264, ,
-1, ,264, ,
3, ,264, ,
0, ,264, ,
0, ,264, ,
3, ,264, ,
3, ,264, ,
0, ,264, ,
3, ,264, ,
0, ,264, ,
0, ,264, ,
1, ,264, ,
1, ,264, ,
-1, ,264, ,
3, ,264, ,
0, ,265, ,
0, ,265, ,
1, ,264, ,
1, ,264, ,
-1, ,264, ,
3, ,264, ,
0, ,263, ,
0, ,265, ,
1, ,264, ,
1, ,266, ,
-1, ,265, ,
3, ,264, ,
0, ,264, ,
0, ,264, ,
3, ,264, ,
1, ,264, ,
0, ,264, ,
3, ,265, ,
0, ,264, ,
0, ,264, ,
1, ,264, ,
1, ,266, ,
-1, ,264, ,
3, ,264, ,
0, ,264, ,
0, ,265, ,
1, ,264, ,
1, ,265, ,
0, ,264, ,
3, ,264, ,
0, ,264, ,
0, ,264, ,
1, ,264, ,
1, ,264, ,
-1, ,264, ,
3, ,264, ,
0, ,265, ,
0, ,265, ,
1, ,264, ,
1, ,264, ,
-1, ,264, ,
3, ,264, ,
1, ,264, ,
0, ,265, ,
1, ,264, ,
1, ,264, ,
-1, ,264, ,
3, ,266, ,
0, ,264, ,
0, ,266, ,
1, ,264, ,
1, ,264, ,
0, ,265, ,
3, ,265, ,
0, ,264, ,
0, ,265, ,
1, ,266, ,
1, ,264, ,
-1, ,264, ,
3, ,264, ,
0, ,264, ,
0, ,265, ,
3, ,264, ,
1, ,264, ,
0, ,264, ,
3, ,265, ,
0, ,264, ,
0, ,264, ,
1, ,265, ,
1, ,265, ,
-1, ,264, ,
3, ,264, ,
0, ,264, ,
0, ,265, ,
1, ,264, ,
1, ,264, ,
-1, ,265, ,
3, ,264, ,
0, ,264, ,
0, ,264, ,
1, ,265, ,
1, ,265, ,
-1, ,263, ,
3, ,264, ,
0, ,264, ,
0, ,265, ,
3, ,264, ,
1, ,265, ,
0, ,264, ,
3, ,264, ,
1, ,264, ,
0, ,264, ,
1, ,264, ,
1, ,265, ,
-1, ,264, ,
3, ,265, ,
0, ,264, ,
0, ,265, ,
1, ,264, ,
1, ,265, ,
-1, ,265, ,
3, ,264, ,
1, ,263, ,
0, ,264, ,
1, ,264, ,
1, ,266, ,
-1, ,264, ,
3, ,264, ,
1, ,265, ,
1, ,265, ,
3, ,264, ,
1, ,264, ,
0, ,264, ,
3, ,265, ,
0, ,264, ,
0, ,264, ,
1, ,264, ,
1, ,264, ,
-1, ,264, ,
3, ,264, ,
1, ,265, ,
0, ,265, ,
1, ,264, ,
1, ,264, ,
0, ,264, ,
3, ,264, ,
1, ,264, ,
1, ,265, ,
1, ,265, ,
1, ,265, ,
-1, ,264, ,
3, ,264, ,
1, ,264, ,
1, ,264, ,
1, ,264, ,
1, ,264, ,
0, ,264, ,
3, ,264, ,
0, ,264, ,
1, ,264, ,
1, ,265, ,
1, ,265, ,
-1, ,264, ,
3, ,264, ,
0, ,264, ,
0, ,265, ,
1, ,265, ,
1, ,264, ,
0, ,264, ,
3, ,265, ,
0, ,264, ,
0, ,264, ,
1, ,264, ,
1, ,265, ,
-1, ,264, ,
3, ,265, ,
1, ,264, ,
0, ,265, ,
3, ,264, ,
1, ,266, ,
0, ,264, ,
3, ,264, ,
0, ,264, ,
0, ,264, ,
1, ,266, ,
1, ,265, ,
-1, ,265, ,
3, ,264, ,
0, ,265, ,
0, ,264, ,
1, ,264, ,
1, ,264, ,
0, ,264, ,
3, ,265, ,
0, ,264, ,
0, ,265, ,
1, ,264, ,
1, ,265, ,
-1, ,264, ,
3, ,264, ,
0, ,264, ,
0, ,264, ,
3, ,264, ,
1, ,264, ,
0, ,264, ,
3, ,265, ,
0, ,264, ,
0, ,264, ,
1, ,264, ,
1, ,265, ,
-1, ,264, ,
3, ,265, ,
0, ,265, ,
0, ,264, ,
1, ,264, ,
1, ,264, ,
0, ,264, ,
3, ,265, ,
0, ,264, ,
0, ,264, ,
1, ,266, ,
0, ,265, ,
-1, ,263, ,
3, ,265, ,
0, ,264, ,
0, ,264, ,
1, ,264, ,
1, ,265, ,
0, ,265, ,
3, ,265, ,
0, ,264, ,
0, ,264, ,
1, ,265, ,
1, ,264, ,
-1, ,264, ,
3, ,264, ,
0, ,264, ,
0, ,265, ,
1, ,264, ,
1, ,264, ,
0, ,264, ,
3, ,265, ,
0, ,264, ,
0, ,265, ,
1, ,264, ,
1, ,266, ,
-1, ,264, ,
3, ,264, ,
0, ,264, ,
0, ,265, ,
1, ,264, ,
1, ,264, ,
0, ,264, ,
3, ,264, ,
0, ,264, ,
0, ,264, ,
1, ,266, ,
1, ,265, ,
-1, ,265, ,
3, ,264, ,
0, ,265, ,
0, ,265, ,
1, ,264, ,
1, ,264, ,
0, ,264, ,
3, ,264, ,
0, ,264, ,
0, ,265, ,
1, ,265, ,
1, ,264, ,
0, ,264, ,
3, ,266, ,
0, ,265, ,
0, ,264, ,
3, ,264, ,
1, ,265, ,
0, ,264, ,
3, ,265, ,
0, ,264, ,
0, ,264, ,
1, ,265, ,
1, ,265, ,
0, ,264, ,
3, ,264, ,
0, ,264, ,
0, ,265, ,
3, ,264, ,
3, ,264, ,
0, ,264, ,
3, ,265, ,
0, ,264, ,
0, ,264, ,
1, ,264, ,
1, ,265, ,
-1, ,265, ,
3, ,264, ,
0, ,264, ,
0, ,265, ,
1, ,264, ,
1, ,264, ,
0, ,264, ,
3, ,265, ,
0, ,265, ,
0, ,265, ,
1, ,264, ,
1, ,264, ,
-1, ,264, ,
3, ,264, ,
0, ,265, ,
0, ,265, ,
1, ,264, ,
1, ,265, ,
0, ,264, ,
3, ,265, ,
0, ,264, ,
0, ,264, ,
1, ,264, ,
1, ,265, ,
0, ,264, ,
3, ,264, ,
0, ,264, ,
0, ,265, ,
1, ,264, ,
1, ,264, ,
0, ,264, ,
1, ,266, ,
0, ,264, ,
0, ,264, ,
1, ,264, ,
1, ,265, ,
-1, ,264, ,
3, ,264, ,
0, ,264, ,
0, ,265, ,
1, ,265, ,
1, ,264, ,
-1, ,264, ,
3, ,265, ,
0, ,263, ,
0, ,265, ,
1, ,264, ,
1, ,265, ,
-1, ,263, ,
3, ,265, ,
0, ,264, ,
0, ,265, ,
1, ,264, ,
1, ,263, ,
0, ,264, ,
3, ,266, ,
0, ,265, ,
0, ,266, ,
1, ,265, ,
1, ,265, ,
-1, ,264, ,
3, ,264, ,
0, ,264, ,
0, ,264, ,
3, ,264, ,
3, ,264, ,
0, ,265, ,
3, ,265, ,
0, ,264, ,
0, ,264, ,
1, ,265, ,
1, ,265, ,
-1, ,264, ,
3, ,264, ,
0, ,264, ,
0, ,265, ,
3, ,265, ,
1, ,264, ,
0, ,264, ,
3, ,265, ,
0, ,264, ,
0, ,264, ,
1, ,265, ,
1, ,265, ,
-1, ,264, ,
3, ,264, ,
0, ,264, ,
0, ,265, ,
3, ,264, ,
1, ,264, ,
0, ,264, ,
3, ,265, ,
0, ,264, ,
0, ,264, ,
1, ,264, ,
1, ,266, ,
-1, ,265, ,
1, ,264, ,
0, ,265, ,
0, ,264, ,
1, ,264, ,
1, ,265, ,
0, ,264, ,
3, ,265, ,
0, ,264, ,
0, ,265, ,
1, ,264, ,
1, ,265, ,
-1, ,264, ,
3, ,264, ,
0, ,264, ,
0, ,265, ,
1, ,265, ,
1, ,264, ,
0, ,265, ,
3, ,264, ,
0, ,264, ,
0, ,264, ,
1, ,264, ,
1, ,264, ,
-1, ,264, ,
3, ,264, ,
0, ,265, ,
0, ,265, ,
1, ,264, ,
1, ,265, ,
0, ,264, ,
3, ,265, ,
0, ,264, ,
0, ,264, ,
1, ,264, ,
1, ,264, ,
-1, ,264, ,
3, ,264, ,
0, ,264, ,
0, ,265, ,
1, ,264, ,
1, ,264, ,
0, ,264, ,
3, ,264, ,
0, ,264, ,
0, ,264, ,
1, ,264, ,
1, ,264, ,
-1, ,264, ,
3, ,265, ,
0, ,264, ,
0, ,265, ,
3, ,264, ,
3, ,265, ,
-1, ,264, ,
3, ,265, ,
0, ,264, ,
0, ,264, ,
1, ,265, ,
1, ,265, ,
-1, ,264, ,
3, ,264, ,
0, ,264, ,
0, ,264, ,
1, ,264, ,
1, ,264, ,
-1, ,264, ,
3, ,265, ,
0, ,264, ,
0, ,264, ,
1, ,264, ,
1, ,264, ,
-1, ,264, ,
3, ,264, ,
0, ,264, ,
0, ,264, ,
3, ,264, ,
1, ,264, ,
0, ,265, ,
3, ,265, ,
0, ,264, ,
0, ,265, ,
1, ,264, ,
1, ,265, ,
-1, ,264, ,
3, ,264, ,
0, ,265, ,
0, ,264, ,
1, ,264, ,
1, ,265, ,
0, ,265, ,
3, ,265, ,
0, ,264, ,
0, ,265, ,
1, ,263, ,
1, ,264, ,
-1, ,264, ,
3, ,264, ,
0, ,264, ,
0, ,265, ,
1, ,264, ,
1, ,264, ,
-1, ,264, ,
3, ,266, ,
0, ,264, ,
0, ,264, ,
1, ,264, ,
1, ,265, ,
-1, ,264, ,
3, ,264, ,
0, ,264, ,
0, ,265, ,
1, ,264, ,
1, ,266, ,
0, ,264, ,
3, ,264, ,
0, ,264, ,
0, ,264, ,
1, ,264, ,
1, ,264, ,
-1, ,264, ,
3, ,265, ,
0, ,264, ,
0, ,265, ,
1, ,264, ,
1, ,264, ,
0, ,264, ,
3, ,265, ,
0, ,264, ,
0, ,265, ,
1, ,264, ,
1, ,265, ,
-1, ,264, ,
3, ,264, ,
0, ,264, ,
0, ,265, ,
1, ,264, ,
1, ,264, ,
0, ,264, ,
1, ,265, ,
0, ,264, ,
1, ,264, ,
1, ,264, ,
1, ,266, ,
0, ,264, ,
1, ,264, ,
1, ,264, ,
0, ,264, ,
1, ,264, ,
1, ,264, ,
0, ,264, ,
1, ,264, ,
0, ,264, ,
1, ,264, ,
3, ,264, ,
1, ,265, ,
-1, ,264, ,
3, ,264, ,
0, ,264, ,
0, ,264, ,
1, ,264, ,
1, ,264, ,
0, ,264, ,
3, ,264, ,
0, ,264, ,
0, ,264, ,
1, ,264, ,
1, ,265, ,
0, ,264, ,
1, ,264, ,
0, ,264, ,
0, ,266, ,
1, ,264, ,
1, ,264, ,
0, ,264, ,
1, ,264, ,
0, ,264, ,
0, ,264, ,
1, ,264, ,
1, ,266, ,
0, ,264, ,
3, ,264, ,
0, ,264, ,
0, ,264, ,
1, ,264, ,
1, ,264, ,
0, ,264, ,
1, ,264, ,
0, ,263, ,
0, ,264, ,
1, ,264, ,
1, ,265, ,
-1, ,264, ,
1, ,264, ,
0, ,264, ,
0, ,265, ,
1, ,264, ,
1, ,264, ,
0, ,264, ,
1, ,264, ,
0, ,264, ,
0, ,264, ,
1, ,264, ,
1, ,264, ,
-1, ,264, ,
3, ,264, ,
0, ,265, ,
0, ,265, ,
1, ,264, ,
1, ,264, ,
0, ,264, ,
1, ,264, ,
0, ,264, ,
0, ,264, ,
1, ,264, ,
1, ,264, ,
-1, ,264, ,
3, ,264, ,
0, ,265, ,
0, ,265, ,
1, ,264, ,
1, ,264, ,
-1, ,264, ,
1, ,264, ,
0, ,264, ,
0, ,265, ,
1, ,264, ,
1, ,264, ,
-1, ,263, ,
3, ,264, ,
0, ,265, ,
0, ,265, ,
1, ,264, ,
1, ,263, ,
0, ,264, ,
1, ,265, ,
0, ,264, ,
0, ,264, ,
1, ,264, ,
1, ,264, ,
-1, ,264, ,
1, ,265, ,
0, ,265, ,
0, ,264, ,
1, ,264, ,
1, ,266, ,
0, ,264, ,
3, ,264, ,
0, ,264, ,
0, ,264, ,
1, ,264, ,
1, ,265, ,
0, ,264, ,
1, ,264, ,
0, ,264, ,
0, ,265, ,
1, ,264, ,
1, ,266, ,
-1, ,264, ,
1, ,265, ,
0, ,264, ,
0, ,264, ,
1, ,264, ,
1, ,265, ,
-1, ,264, ,
3, ,264, ,
0, ,264, ,
0, ,265, ,
1, ,264, ,
1, ,265, ,
0, ,264, ,
1, ,265, ,
0, ,264, ,
0, ,265, ,
1, ,264, ,
1, ,265, ,
-1, ,264, ,
1, ,264, ,
0, ,264, ,
0, ,266, ,
1, ,264, ,
1, ,264, ,
-1, ,265, ,
1, ,265, ,
0, ,264, ,
0, ,264, ,
1, ,264, ,
1, ,264, ,
-1, ,264, ,
3, ,264, ,
0, ,264, ,
0, ,264, ,
1, ,264, ,
1, ,264, ,
-1, ,264, ,
1, ,264, ,
0, ,264, ,
0, ,265, ,
1, ,264, ,
1, ,265, ,
-1, ,264, ,
3, ,264, ,
0, ,264, ,
0, ,265, ,
1, ,264, ,
1, ,264, ,
0, ,264, ,
3, ,265, ,
0, ,264, ,
0, ,264, ,
1, ,264, ,
1, ,264, ,
0, ,264, ,
1, ,264, ,
0, ,264, ,
0, ,265, ,
1, ,264, ,
1, ,265, ,
0, ,264, ,
1, ,265, ,
0, ,264, ,
0, ,264, ,
1, ,265, ,
1, ,265, ,
-1, ,264, ,
1, ,264, ,
0, ,264, ,
0, ,265, ,
1, ,264, ,
0, ,264, ,
-1, ,264, ,
3, ,264, ,
0, ,264, ,
0, ,264, ,
1, ,264, ,
1, ,265, ,
-1, ,264, ,
3, ,265, ,
0, ,264, ,
0, ,265, ,
1, ,264, ,
1, ,264, ,
0, ,264, ,
1, ,265, ,
0, ,264, ,
0, ,264, ,
1, ,264, ,
1, ,265, ,
-1, ,264, ,
1, ,264, ,
0, ,264, ,
0, ,266, ,
1, ,264, ,
1, ,264, ,
0, ,264, ,
1, ,264, ,
0, ,264, ,
0, ,264, ,
1, ,264, ,
1, ,265, ,
-1, ,264, ,
1, ,265, ,
0, ,264, ,
0, ,265, ,
1, ,264, ,
1, ,264, ,
0, ,264, ,
1, ,264, ,
0, ,263, ,
0, ,264, ,
1, ,264, ,
1, ,265, ,
-1, ,263, ,
1, ,264, ,
0, ,265, ,
0, ,264, ,
1, ,264, ,
0, ,264, ,
0, ,264, ,
3, ,264, ,
0, ,264, ,
0, ,264, ,
1, ,264, ,
1, ,265, ,
-1, ,264, ,
3, ,264, ,
0, ,264, ,
0, ,265, ,
1, ,264, ,
1, ,264, ,
0, ,264, ,
1, ,265, ,
0, ,264, ,
0, ,264, ,
1, ,264, ,
1, ,264, ,
0, ,264, ,
3, ,264, ,
0, ,264, ,
0, ,265, ,
1, ,264, ,
0, ,264, ,
-1, ,264, ,
1, ,264, ,
0, ,263, ,
0, ,264, ,
3, ,264, ,
1, ,265, ,
-1, ,264, ,
3, ,264, ,
0, ,264, ,
0, ,265, ,
1, ,264, ,
1, ,264, ,
-1, ,265, ,
3, ,265, ,
0, ,264, ,
0, ,264, ,
1, ,264, ,
1, ,264, ,
-1, ,264, ,
3, ,264, ,
0, ,264, ,
0, ,264, ,
1, ,264, ,
0, ,264, ,
-1, ,265, ,
1, ,265, ,
0, ,262, ,
0, ,264, ,
1, ,264, ,
1, ,264, ,
-1, ,264, ,
3, ,264, ,
0, ,264, ,
0, ,264, ,
1, ,264, ,
1, ,264, ,
0, ,264, ,
1, ,265, ,
0, ,264, ,
0, ,264, ,
1, ,264, ,
1, ,264, ,
-1, ,264, ,
1, ,266, ,
0, ,264, ,
0, ,265, ,
1, ,264, ,
1, ,264, ,
-1, ,264, ,
1, ,264, ,
0, ,264, ,
0, ,265, ,
1, ,265, ,
1, ,264, ,
-1, ,264, ,
3, ,264, ,
0, ,264, ,
0, ,264, ,
1, ,264, ,
1, ,264, ,
0, ,265, ,
1, ,265, ,
0, ,264, ,
0, ,264, ,
1, ,265, ,
1, ,264, ,
-1, ,265, ,
1, ,264, ,
0, ,264, ,
0, ,265, ,
1, ,264, ,
1, ,265, ,
-1, ,265, ,
3, ,264, ,
0, ,264, ,
0, ,265, ,
1, ,264, ,
1, ,265, ,
-1, ,264, ,
3, ,264, ,
0, ,265, ,
0, ,265, ,
1, ,265, ,
1, ,264, ,
-1, ,264, ,
3, ,264, ,
0, ,264, ,
0, ,266, ,
1, ,265, ,
1, ,265, ,
-1, ,264, ,
3, ,264, ,
0, ,264, ,
0, ,264, ,
1, ,263, ,
1, ,263, ,
0, ,264, ,
1, ,265, ,
0, ,265, ,
0, ,265, ,
1, ,264, ,
1, ,265, ,
-1, ,264, ,
1, ,264, ,
0, ,264, ,
0, ,264, ,
1, ,264, ,
1, ,265, ,
0, ,264, ,
3, ,265, ,
0, ,264, ,
0, ,264, ,
1, ,264, ,
1, ,264, ,
-1, ,264, ,
3, ,264, ,
0, ,264, ,
0, ,265, ,
1, ,264, ,
1, ,264, ,
-1, ,264, ,
3, ,265, ,
0, ,264, ,
0, ,264, ,
1, ,265, ,
1, ,264, ,
0, ,264, ,
3, ,265, ,
0, ,265, ,
0, ,264, ,
1, ,264, ,
1, ,264, ,
0, ,264, ,
3, ,264, ,
0, ,264, ,
0, ,264, ,
1, ,265, ,
1, ,264, ,
-1, ,264, ,
3, ,265, ,
0, ,265, ,
0, ,265, ,
1, ,264, ,
0, ,264, ,
-1, ,264, ,
3, ,264, ,
0, ,262, ,
0, ,261, ,
1, ,263, ,
1, ,265, ,
-1, ,266, ,
3, ,266, ,
0, ,265, ,
0, ,265, ,
1, ,263, ,
1, ,263, ,
-1, ,264, ,
3, ,264, ,
0, ,264, ,
0, ,264, ,
1, ,264, ,
1, ,264, ,
-1, ,264, ,
1, ,264, ,
0, ,264, ,
0, ,265, ,
1, ,264, ,
1, ,264, ,
-1, ,264, ,
1, ,266, ,
0, ,263, ,
0, ,265, ,
1, ,263, ,
1, ,264, ,
-1, ,264, ,
3, ,264, ,
0, ,264, ,
0, ,264, ,
1, ,264, ,
1, ,264, ,
-1, ,264, ,
1, ,264, ,
0, ,264, ,
0, ,264, ,
1, ,263, ,
1, ,264, ,
-1, ,263, ,
3, ,264, ,
0, ,264, ,
0, ,264, ,
1, ,264, ,
1, ,264, ,
-1, ,264, ,
1, ,264, ,
0, ,264, ,
0, ,264, ,
1, ,264, ,
1, ,264, ,
-1, ,264, ,
3, ,264, ,
0, ,264, ,
0, ,264, ,
1, ,264, ,
1, ,264, ,
-1, ,265, ,
3, ,264, ,
0, ,264, ,
0, ,264, ,
1, ,264, ,
1, ,258, ,
-1, ,263, ,
3, ,271, ,
0, ,269, ,
0, ,264, ,
1, ,261, ,
1, ,264, ,
0, ,265, ,
1, ,264, ,
0, ,264, ,
0, ,264, ,
3, ,264, ,
1, ,264, ,
-1, ,264, ,
3, ,265, ,
0, ,264, ,
0, ,265, ,
1, ,264, ,
1, ,264, ,
0, ,264, ,
3, ,264, ,
0, ,264, ,
0, ,264, ,
1, ,264, ,
1, ,264, ,
-1, ,265, ,
3, ,264, ,
0, ,264, ,
0, ,265, ,
1, ,264, ,
0, ,264, ,
0, ,264, ,
1, ,265, ,
0, ,264, ,
0, ,264, ,
1, ,264, ,
1, ,264, ,
-1, ,264, ,
1, ,264, ,
0, ,264, ,
0, ,264, ,
1, ,264, ,
1, ,264, ,
0, ,264, ,
3, ,265, ,
0, ,264, ,
0, ,266, ,
1, ,265, ,
1, ,265, ,
-1, ,264, ,
1, ,264, ,
0, ,264, ,
0, ,265, ,
1, ,264, ,
1, ,265, ,
-1, ,265, ,
3, ,266, ,
0, ,265, ,
0, ,264, ,
3, ,264, ,
1, ,265, ,
-1, ,264, ,
3, ,264, ,
0, ,264, ,
0, ,264, ,
1, ,265, ,
1, ,265, ,
-1, ,264, ,
3, ,264, ,
0, ,264, ,
0, ,265, ,
1, ,264, ,
1, ,265, ,
-1, ,264, ,
3, ,264, ,
0, ,264, ,
0, ,264, ,
1, ,265, ,
1, ,265, ,
0, ,264, ,
1, ,264, ,
0, ,264, ,
0, ,264, ,
1, ,264, ,
1, ,266, ,
-1, ,265, ,
3, ,265, ,
0, ,265, ,
0, ,265, ,
1, ,264, ,
1, ,264, ,
0, ,265, ,
3, ,266, ,
0, ,264, ,
0, ,264, ,
1, ,264, ,
1, ,265, ,
-1, ,264, ,
3, ,264, ,
0, ,264, ,
0, ,265, ,
1, ,265, ,
0, ,264, ,
-1, ,264, ,
1, ,266, ,
0, ,264, ,
0, ,264, ,
1, ,265, ,
1, ,265, ,
-1, ,264, ,
3, ,264, ,
0, ,264, ,
0, ,265, ,
1, ,264, ,
1, ,264, ,
0, ,265, ,
3, ,264, ,
0, ,264, ,
0, ,264, ,
1, ,265, ,
1, ,265, ,
-1, ,264, ,
1, ,264, ,
0, ,264, ,
0, ,264, ,
1, ,264, ,
1, ,265, ,
-1, ,264, ,
1, ,265, ,
0, ,263, ,
0, ,264, ,
3, ,265, ,
1, ,265, ,
-1, ,264, ,
3, ,264, ,
0, ,265, ,
0, ,265, ,
1, ,265, ,
1, ,264, ,
-1, ,265, ,
3, ,264, ,
0, ,264, ,
0, ,264, ,
1, ,264, ,
1, ,266, ,
-1, ,264, ,
3, ,264, ,
0, ,265, ,
0, ,265, ,
3, ,264, ,
1, ,265, ,
0, ,264, ,
1, ,265, ,
0, ,265, ,
0, ,264, ,
1, ,264, ,
1, ,264, ,
-1, ,264, ,
3, ,264, ,
0, ,264, ,
0, ,264, ,
1, ,264, ,
1, ,264, ,
-1, ,265, ,
3, ,265, ,
0, ,264, ,
0, ,264, ,
1, ,264, ,
1, ,264, ,
0, ,264, ,
3, ,264, ,
0, ,265, ,
0, ,265, ,
1, ,264, ,
1, ,264, ,
0, ,264, ,
1, ,265, ,
0, ,264, ,
0, ,265, ,
1, ,265, ,
1, ,265, ,
-1, ,263, ,
3, ,263, ,
0, ,265, ,
0, ,265, ,
1, ,264, ,
1, ,264, ,
-1, ,264, ,
3, ,265, ,
0, ,264, ,
0, ,264, ,
1, ,265, ,
1, ,264, ,
-1, ,264, ,
3, ,265, ,
0, ,264, ,
0, ,265, ,
1, ,264, ,
1, ,265, ,
-1, ,264, ,
1, ,265, ,
0, ,264, ,
0, ,264, ,
1, ,264, ,
1, ,265, ,
-1, ,264, ,
3, ,264, ,
0, ,264, ,
0, ,265, ,
1, ,264, ,
1, ,264, ,
-1, ,265, ,
3, ,264, ,
0, ,264, ,
0, ,265, ,
1, ,265, ,
1, ,265, ,
-1, ,264, ,
3, ,264, ,
0, ,264, ,
0, ,265, ,
1, ,264, ,
1, ,265, ,
0, ,264, ,
3, ,265, ,
0, ,264, ,
0, ,265, ,
1, ,265, ,
1, ,264, ,
0, ,264, ,
3, ,265, ,
0, ,264, ,
0, ,265, ,
1, ,264, ,
1, ,264, ,
0, ,265, ,
1, ,266, ,
0, ,264, ,
0, ,264, ,
1, ,265, ,
1, ,266, ,
-1, ,264, ,
3, ,265, ,
0, ,264, ,
0, ,265, ,
1, ,264, ,
1, ,264, ,
-1, ,264, ,
3, ,266, ,
0, ,264, ,
0, ,264, ,
3, ,264, ,
1, ,265, ,
