src/vary_led_1562/temq0002040.CSV

Format,1.0B,
Memory Length,10000,Memory Length,10000,
IntpDistance,0,IntpDistance,0,
Trigger Address,5049,Trigger Address,5049,
Trigger Level,2.800E-01,Trigger Level,2.800E-01,
Source,CH1,Source,CH2,
Vertical Units,V,Vertical Units,V,
Vertical Units Div,0,Vertical Units Div,0,
Vertical Units Extend Div,16,Vertical Units Extend Div,16,
Label,,Label,,
Probe Type,0,Probe Type,0,
Probe Ratio,1.000e+01,Probe Ratio,1.000e+00,
Vertical Scale,5.000e-01,Vertical Scale,2.000e-01,
Vertical Position,-1.780e+00,Vertical Position,-2.240e+00,
Horizontal Units,S,Horizontal Units,S,
Horizontal Scale,2.000E-05,Horizontal Scale,2.000E-05,
Horizontal Position,-1.000E-06,Horizontal Position,-1.000E-06,
Horizontal Mode,Main,Horizontal Mode,Main,
SincET Mode,Real Time,SincET Mode,Real Time,
Sampling Period,2.000e-08,Sampling Period,2.000e-08,
Horizontal Old Scale,2.000E-05,Horizontal Old Scale,2.000E-05,
Horizontal Old Position,-1.000E-06,Horizontal Old Position,-1.000E-06,
Firmware,V1.23,Firmware,V1.23,
Mode,Fast,Mode,Fast,
Waveform Data,,Waveform Data,,
3, ,284, ,
0, ,285, ,
0, ,284, ,
1, ,285, ,
1, ,283, ,
0, ,284, ,
1, ,284, ,
0, ,284, ,
0, ,283, ,
1, ,284, ,
0, ,284, ,
0, ,284, ,
1, ,284, ,
0, ,284, ,
0, ,284, ,
1, ,284, ,
1, ,283, ,
0, ,284, ,
1, ,284, ,
0, ,284, ,
0, ,283, ,
1, ,283, ,
1, ,285, ,
0, ,285, ,
1, ,283, ,
1, ,284, ,
0, ,278, ,
1, ,283, ,
1, ,286, ,
0, ,289, ,
1, ,285, ,
0, ,284, ,
0, ,283, ,
1, ,284, ,
1, ,284, ,
0, ,284, ,
1, ,285, ,
0, ,284, ,
0, ,282, ,
1, ,284, ,
1, ,284, ,
0, ,284, ,
3, ,284, ,
0, ,284, ,
0, ,283, ,
1, ,284, ,
1, ,283, ,
0, ,285, ,
1, ,283, ,
0, ,284, ,
0, ,284, ,
1, ,285, ,
1, ,283, ,
0, ,284, ,
1, ,284, ,
1, ,285, ,
0, ,284, ,
1, ,284, ,
1, ,284, ,
0, ,285, ,
1, ,283, ,
1, ,284, ,
0, ,284, ,
1, ,285, ,
1, ,284, ,
0, ,284, ,
1, ,284, ,
0, ,284, ,
0, ,284, ,
1, ,285, ,
1, ,284, ,
0, ,284, ,
3, ,284, ,
0, ,285, ,
0, ,284, ,
1, ,285, ,
1, ,284, ,
0, ,283, ,
1, ,283, ,
0, ,284, ,
0, ,283, ,
1, ,284, ,
1, ,284, ,
0, ,284, ,
1, ,283, ,
1, ,284, ,
0, ,284, ,
1, ,284, ,
1, ,283, ,
0, ,284, ,
1, ,284, ,
0, ,285, ,
0, ,283, ,
1, ,284, ,
1, ,283, ,
0, ,284, ,
1, ,283, ,
1, ,284, ,
0, ,283, ,
1, ,285, ,
1, ,283, ,
0, ,284, ,
1, ,284, ,
1, ,284, ,
0, ,284, ,
1, ,284, ,
1, ,284, ,
0, ,284, ,
1, ,283, ,
0, ,284, ,
1, ,283, ,
1, ,285, ,
0, ,283, ,
0, ,284, ,
1, ,284, ,
1, ,285, ,
0, ,283, ,
1, ,284, ,
1, ,284, ,
0, ,284, ,
1, ,283, ,
0, ,284, ,
0, ,284, ,
8, ,284, ,
107, ,283, ,
69, ,284, ,
39, ,284, ,
22, ,284, ,
16, ,283, ,
13, ,284, ,
8, ,283, ,
4, ,284, ,
6, ,284, ,
4, ,284, ,
3, ,284, ,
4, ,285, ,
3, ,284, ,
1, ,284, ,
4, ,283, ,
3, ,284, ,
3, ,283, ,
4, ,284, ,
4, ,284, ,
1, ,284, ,
4, ,283, ,
3, ,284, ,
3, ,283, ,
4, ,284, ,
3, ,284, ,
3, ,284, ,
4, ,284, ,
3, ,284, ,
3, ,283, ,
4, ,283, ,
4, ,284, ,
3, ,284, ,
4, ,284, ,
3, ,284, ,
3, ,284, ,
4, ,284, ,
4, ,283, ,
3, ,284, ,
4, ,284, ,
3, ,284, ,
3, ,283, ,
4, ,285, ,
4, ,284, ,
1, ,284, ,
4, ,283, ,
3, ,284, ,
3, ,284, ,
4, ,284, ,
3, ,283, ,
1, ,284, ,
4, ,284, ,
1, ,285, ,
3, ,283, ,
4, ,284, ,
4, ,283, ,
1, ,285, ,
4, ,283, ,
1, ,284, ,
3, ,284, ,
4, ,284, ,
4, ,283, ,
3, ,284, ,
4, ,283, ,
1, ,284, ,
3, ,283, ,
4, ,284, ,
4, ,283, ,
1, ,284, ,
4, ,283, ,
3, ,285, ,
3, ,284, ,
4, ,285, ,
3, ,283, ,
1, ,283, ,
4, ,284, ,
1, ,284, ,
3, ,284, ,
3, ,284, ,
3, ,284, ,
1, ,284, ,
4, ,284, ,
3, ,285, ,
3, ,284, ,
4, ,285, ,
3, ,283, ,
1, ,284, ,
4, ,284, ,
1, ,284, ,
1, ,283, ,
4, ,284, ,
3, ,283, ,
1, ,285, ,
4, ,284, ,
3, ,284, ,
3, ,284, ,
4, ,284, ,
3, ,283, ,
3, ,284, ,
4, ,284, ,
3, ,284, ,
3, ,282, ,
3, ,284, ,
3, ,284, ,
1, ,285, ,
4, ,284, ,
1, ,285, ,
1, ,283, ,
3, ,284, ,
3, ,283, ,
1, ,284, ,
3, ,283, ,
3, ,285, ,
3, ,284, ,
4, ,285, ,
3, ,284, ,
1, ,284, ,
4, ,283, ,
3, ,283, ,
1, ,283, ,
3, ,284, ,
3, ,284, ,
1, ,285, ,
3, ,285, ,
1, ,285, ,
1, ,284, ,
3, ,284, ,
3, ,284, ,
1, ,283, ,
4, ,283, ,
1, ,285, ,
3, ,284, ,
3, ,284, ,
3, ,284, ,
1, ,284, ,
4, ,283, ,
1, ,284, ,
3, ,283, ,
3, ,284, ,
3, ,284, ,
1, ,285, ,
3, ,283, ,
1, ,285, ,
1, ,284, ,
3, ,284, ,
3, ,284, ,
1, ,284, ,
3, ,285, ,
1, ,285, ,
1, ,284, ,
3, ,284, ,
3, ,283, ,
1, ,284, ,
3, ,283, ,
3, ,284, ,
3, ,283, ,
3, ,284, ,
3, ,283, ,
1, ,284, ,
4, ,284, ,
1, ,284, ,
1, ,284, ,
3, ,284, ,
3, ,284, ,
1, ,284, ,
4, ,283, ,
1, ,284, ,
3, ,284, ,
3, ,285, ,
3, ,284, ,
1, ,284, ,
3, ,284, ,
3, ,284, ,
1, ,283, ,
3, ,284, ,
3, ,283, ,
1, ,284, ,
3, ,283, ,
1, ,284, ,
1, ,283, ,
3, ,285, ,
1, ,283, ,
1, ,284, ,
3, ,283, ,
1, ,285, ,
3, ,283, ,
3, ,284, ,
52, ,284, ,
38, ,284, ,
25, ,283, ,
18, ,284, ,
13, ,284, ,
10, ,284, ,
6, ,283, ,
4, ,284, ,
6, ,284, ,
4, ,285, ,
3, ,283, ,
4, ,283, ,
3, ,284, ,
1, ,284, ,
4, ,283, ,
3, ,284, ,
4, ,284, ,
4, ,284, ,
4, ,283, ,
1, ,284, ,
4, ,284, ,
3, ,284, ,
3, ,283, ,
4, ,284, ,
4, ,284, ,
1, ,284, ,
4, ,283, ,
3, ,284, ,
3, ,284, ,
4, ,285, ,
4, ,284, ,
1, ,284, ,
4, ,284, ,
3, ,284, ,
3, ,283, ,
4, ,284, ,
3, ,284, ,
1, ,285, ,
4, ,285, ,
3, ,285, ,
3, ,284, ,
4, ,285, ,
3, ,283, ,
3, ,284, ,
4, ,284, ,
3, ,284, ,
3, ,283, ,
4, ,284, ,
3, ,284, ,
1, ,284, ,
4, ,284, ,
1, ,284, ,
3, ,284, ,
4, ,284, ,
3, ,283, ,
3, ,284, ,
4, ,284, ,
3, ,284, ,
3, ,284, ,
4, ,284, ,
4, ,284, ,
1, ,285, ,
4, ,283, ,
1, ,284, ,
3, ,284, ,
3, ,284, ,
4, ,284, ,
1, ,284, ,
4, ,283, ,
3, ,285, ,
1, ,284, ,
3, ,284, ,
3, ,284, ,
3, ,284, ,
4, ,284, ,
3, ,284, ,
3, ,284, ,
3, ,284, ,
3, ,283, ,
3, ,284, ,
4, ,284, ,
1, ,285, ,
3, ,283, ,
3, ,284, ,
3, ,284, ,
1, ,284, ,
4, ,283, ,
3, ,284, ,
3, ,283, ,
4, ,284, ,
3, ,284, ,
1, ,285, ,
4, ,284, ,
1, ,285, ,
3, ,284, ,
4, ,284, ,
3, ,284, ,
1, ,285, ,
4, ,283, ,
3, ,285, ,
3, ,284, ,
3, ,284, ,
3, ,284, ,
1, ,284, ,
4, ,285, ,
3, ,284, ,
3, ,284, ,
3, ,285, ,
3, ,284, ,
1, ,285, ,
4, ,283, ,
1, ,284, ,
3, ,284, ,
3, ,284, ,
3, ,283, ,
1, ,284, ,
4, ,284, ,
3, ,285, ,
3, ,283, ,
3, ,284, ,
3, ,284, ,
1, ,284, ,
4, ,283, ,
1, ,284, ,
3, ,284, ,
3, ,285, ,
3, ,284, ,
1, ,284, ,
4, ,284, ,
3, ,285, ,
3, ,284, ,
3, ,285, ,
3, ,283, ,
1, ,284, ,
4, ,284, ,
1, ,285, ,
3, ,284, ,
3, ,284, ,
3, ,283, ,
1, ,284, ,
4, ,284, ,
3, ,285, ,
3, ,284, ,
3, ,284, ,
3, ,284, ,
1, ,284, ,
4, ,283, ,
3, ,285, ,
1, ,284, ,
3, ,285, ,
3, ,284, ,
1, ,284, ,
4, ,284, ,
1, ,284, ,
1, ,283, ,
3, ,283, ,
3, ,283, ,
1, ,285, ,
4, ,284, ,
1, ,283, ,
3, ,284, ,
3, ,284, ,
3, ,284, ,
1, ,284, ,
3, ,284, ,
1, ,284, ,
3, ,284, ,
3, ,284, ,
3, ,282, ,
1, ,280, ,
4, ,280, ,
3, ,284, ,
3, ,289, ,
3, ,292, ,
3, ,286, ,
1, ,280, ,
4, ,279, ,
1, ,284, ,
3, ,286, ,
3, ,285, ,
3, ,282, ,
1, ,283, ,
3, ,283, ,
1, ,282, ,
3, ,283, ,
3, ,284, ,
3, ,283, ,
1, ,284, ,
4, ,283, ,
1, ,283, ,
3, ,283, ,
3, ,283, ,
3, ,284, ,
1, ,284, ,
3, ,283, ,
3, ,284, ,
1, ,284, ,
3, ,285, ,
1, ,284, ,
1, ,284, ,
3, ,283, ,
1, ,284, ,
1, ,283, ,
3, ,284, ,
1, ,284, ,
1, ,284, ,
4, ,282, ,
1, ,284, ,
1, ,284, ,
3, ,284, ,
3, ,283, ,
1, ,284, ,
3, ,283, ,
1, ,284, ,
1, ,284, ,
3, ,284, ,
3, ,284, ,
1, ,284, ,
3, ,283, ,
1, ,284, ,
1, ,283, ,
3, ,283, ,
3, ,283, ,
1, ,284, ,
3, ,284, ,
1, ,284, ,
1, ,283, ,
3, ,284, ,
3, ,283, ,
1, ,284, ,
3, ,283, ,
1, ,284, ,
1, ,283, ,
3, ,284, ,
1, ,283, ,
1, ,283, ,
3, ,283, ,
1, ,284, ,
1, ,284, ,
3, ,284, ,
1, ,284, ,
1, ,284, ,
3, ,283, ,
3, ,284, ,
3, ,283, ,
3, ,284, ,
1, ,283, ,
1, ,283, ,
3, ,283, ,
1, ,284, ,
1, ,283, ,
3, ,284, ,
1, ,284, ,
1, ,284, ,
3, ,284, ,
1, ,284, ,
1, ,283, ,
3, ,284, ,
3, ,284, ,
1, ,283, ,
3, ,284, ,
1, ,284, ,
1, ,283, ,
3, ,283, ,
1, ,284, ,
1, ,284, ,
3, ,283, ,
1, ,283, ,
1, ,284, ,
3, ,284, ,
1, ,284, ,
1, ,284, ,
3, ,283, ,
1, ,284, ,
1, ,284, ,
3, ,285, ,
1, ,285, ,
1, ,284, ,
3, ,283, ,
3, ,284, ,
3, ,284, ,
3, ,285, ,
1, ,284, ,
1, ,285, ,
3, ,285, ,
3, ,285, ,
1, ,283, ,
3, ,283, ,
1, ,284, ,
1, ,285, ,
3, ,285, ,
1, ,284, ,
1, ,284, ,
3, ,284, ,
1, ,284, ,
1, ,284, ,
3, ,284, ,
1, ,285, ,
1, ,283, ,
3, ,284, ,
3, ,284, ,
1, ,284, ,
3, ,284, ,
1, ,285, ,
1, ,283, ,
3, ,284, ,
1, ,284, ,
1, ,284, ,
3, ,285, ,
1, ,285, ,
1, ,284, ,
3, ,284, ,
1, ,284, ,
1, ,285, ,
3, ,284, ,
1, ,284, ,
1, ,285, ,
3, ,284, ,
3, ,284, ,
1, ,284, ,
3, ,285, ,
1, ,285, ,
1, ,283, ,
1, ,284, ,
1, ,284, ,
1, ,284, ,
3, ,283, ,
1, ,284, ,
1, ,284, ,
3, ,284, ,
3, ,284, ,
1, ,285, ,
3, ,284, ,
1, ,285, ,
1, ,284, ,
3, ,284, ,
1, ,285, ,
1, ,284, ,
3, ,283, ,
1, ,285, ,
1, ,284, ,
3, ,285, ,
1, ,284, ,
1, ,284, ,
3, ,284, ,
1, ,284, ,
1, ,284, ,
3, ,283, ,
3, ,284, ,
0, ,284, ,
3, ,284, ,
1, ,284, ,
1, ,284, ,
3, ,284, ,
1, ,284, ,
1, ,284, ,
3, ,284, ,
1, ,285, ,
1, ,283, ,
1, ,284, ,
1, ,284, ,
1, ,285, ,
3, ,285, ,
1, ,285, ,
1, ,284, ,
3, ,284, ,
1, ,283, ,
0, ,284, ,
3, ,284, ,
1, ,284, ,
1, ,284, ,
3, ,284, ,
1, ,284, ,
0, ,285, ,
3, ,284, ,
1, ,284, ,
1, ,282, ,
1, ,283, ,
1, ,283, ,
1, ,285, ,
3, ,285, ,
1, ,285, ,
1, ,283, ,
3, ,284, ,
1, ,283, ,
0, ,284, ,
3, ,283, ,
1, ,284, ,
1, ,284, ,
1, ,284, ,
1, ,284, ,
1, ,284, ,
3, ,284, ,
1, ,284, ,
1, ,283, ,
3, ,284, ,
1, ,285, ,
0, ,285, ,
3, ,285, ,
1, ,284, ,
1, ,284, ,
3, ,284, ,
1, ,283, ,
0, ,284, ,
3, ,284, ,
1, ,285, ,
1, ,283, ,
3, ,284, ,
1, ,285, ,
1, ,285, ,
3, ,284, ,
1, ,284, ,
1, ,284, ,
3, ,284, ,
1, ,283, ,
1, ,284, ,
3, ,284, ,
1, ,285, ,
1, ,284, ,
3, ,284, ,
1, ,284, ,
0, ,285, ,
3, ,284, ,
1, ,284, ,
1, ,284, ,
3, ,284, ,
1, ,283, ,
1, ,284, ,
3, ,284, ,
1, ,285, ,
1, ,283, ,
3, ,284, ,
1, ,284, ,
0, ,285, ,
3, ,283, ,
1, ,285, ,
1, ,284, ,
3, ,285, ,
1, ,284, ,
0, ,284, ,
3, ,284, ,
1, ,285, ,
1, ,283, ,
1, ,284, ,
1, ,284, ,
0, ,284, ,
3, ,285, ,
1, ,284, ,
1, ,284, ,
3, ,285, ,
1, ,284, ,
0, ,284, ,
3, ,284, ,
1, ,284, ,
1, ,284, ,
3, ,285, ,
1, ,284, ,
0, ,285, ,
3, ,283, ,
1, ,284, ,
1, ,284, ,
1, ,284, ,
1, ,283, ,
0, ,285, ,
3, ,284, ,
1, ,285, ,
1, ,283, ,
3, ,284, ,
3, ,284, ,
0, ,284, ,
3, ,284, ,
1, ,284, ,
1, ,284, ,
1, ,285, ,
1, ,284, ,
0, ,284, ,
3, ,284, ,
1, ,285, ,
1, ,284, ,
3, ,284, ,
3, ,284, ,
0, ,285, ,
3, ,283, ,
1, ,285, ,
1, ,284, ,
3, ,284, ,
1, ,283, ,
0, ,284, ,
3, ,284, ,
1, ,284, ,
1, ,283, ,
1, ,284, ,
1, ,284, ,
0, ,284, ,
3, ,283, ,
1, ,283, ,
1, ,284, ,
3, ,285, ,
1, ,283, ,
0, ,285, ,
3, ,283, ,
1, ,285, ,
1, ,284, ,
3, ,284, ,
1, ,284, ,
0, ,284, ,
3, ,283, ,
1, ,284, ,
1, ,284, ,
1, ,285, ,
1, ,283, ,
0, ,284, ,
3, ,284, ,
1, ,284, ,
1, ,283, ,
3, ,284, ,
1, ,284, ,
0, ,284, ,
3, ,284, ,
1, ,284, ,
1, ,283, ,
1, ,285, ,
1, ,284, ,
0, ,284, ,
3, ,284, ,
1, ,285, ,
1, ,284, ,
1, ,284, ,
1, ,284, ,
0, ,283, ,
3, ,284, ,
1, ,284, ,
1, ,284, ,
3, ,284, ,
1, ,284, ,
0, ,284, ,
3, ,285, ,
1, ,285, ,
1, ,283, ,
3, ,284, ,
1, ,285, ,
0, ,284, ,
3, ,284, ,
1, ,284, ,
1, ,284, ,
1, ,285, ,
1, ,284, ,
0, ,284, ,
3, ,284, ,
1, ,284, ,
1, ,284, ,
1, ,284, ,
1, ,284, ,
0, ,284, ,
3, ,283, ,
1, ,285, ,
1, ,284, ,
3, ,284, ,
1, ,283, ,
0, ,285, ,
3, ,284, ,
1, ,285, ,
1, ,283, ,
1, ,284, ,
1, ,284, ,
0, ,284, ,
3, ,283, ,
1, ,284, ,
1, ,284, ,
1, ,284, ,
1, ,284, ,
0, ,284, ,
3, ,284, ,
1, ,285, ,
1, ,283, ,
1, ,285, ,
1, ,283, ,
0, ,284, ,
3, ,284, ,
1, ,285, ,
1, ,283, ,
1, ,285, ,
1, ,284, ,
0, ,284, ,
3, ,284, ,
1, ,285, ,
1, ,283, ,
1, ,284, ,
1, ,284, ,
0, ,285, ,
3, ,283, ,
1, ,284, ,
1, ,284, ,
1, ,285, ,
1, ,284, ,
0, ,283, ,
3, ,285, ,
1, ,284, ,
1, ,283, ,
1, ,284, ,
1, ,284, ,
0, ,285, ,
3, ,283, ,
1, ,284, ,
1, ,284, ,
3, ,284, ,
1, ,284, ,
0, ,284, ,
3, ,284, ,
1, ,284, ,
0, ,283, ,
3, ,284, ,
1, ,283, ,
0, ,284, ,
3, ,284, ,
1, ,284, ,
1, ,283, ,
3, ,284, ,
1, ,283, ,
0, ,284, ,
3, ,284, ,
1, ,284, ,
1, ,284, ,
3, ,284, ,
1, ,284, ,
0, ,284, ,
3, ,284, ,
1, ,284, ,
1, ,284, ,
1, ,284, ,
1, ,284, ,
0, ,283, ,
3, ,284, ,
1, ,284, ,
1, ,285, ,
1, ,285, ,
1, ,284, ,
0, ,284, ,
3, ,284, ,
1, ,284, ,
1, ,284, ,
1, ,284, ,
1, ,283, ,
0, ,283, ,
3, ,285, ,
1, ,284, ,
1, ,285, ,
1, ,284, ,
1, ,284, ,
0, ,285, ,
3, ,284, ,
1, ,284, ,
1, ,284, ,
3, ,284, ,
1, ,284, ,
0, ,283, ,
3, ,284, ,
1, ,284, ,
1, ,284, ,
1, ,284, ,
1, ,284, ,
0, ,284, ,
3, ,283, ,
1, ,284, ,
1, ,284, ,
1, ,284, ,
1, ,283, ,
0, ,284, ,
3, ,284, ,
1, ,285, ,
1, ,283, ,
1, ,284, ,
1, ,283, ,
0, ,284, ,
3, ,284, ,
1, ,285, ,
1, ,285, ,
3, ,284, ,
1, ,283, ,
0, ,284, ,
3, ,284, ,
1, ,284, ,
1, ,283, ,
1, ,284, ,
1, ,284, ,
0, ,284, ,
3, ,284, ,
1, ,284, ,
1, ,284, ,
1, ,285, ,
1, ,284, ,
0, ,284, ,
3, ,284, ,
1, ,284, ,
1, ,283, ,
1, ,284, ,
1, ,284, ,
0, ,284, ,
3, ,284, ,
1, ,284, ,
1, ,284, ,
1, ,284, ,
1, ,284, ,
0, ,284, ,
3, ,283, ,
1, ,284, ,
1, ,283, ,
3, ,284, ,
1, ,284, ,
0, ,284, ,
3, ,284, ,
1, ,284, ,
1, ,284, ,
1, ,284, ,
1, ,283, ,
0, ,284, ,
3, ,284, ,
1, ,284, ,
1, ,283, ,
1, ,285, ,
1, ,284, ,
0, ,284, ,
3, ,284, ,
1, ,285, ,
1, ,284, ,
1, ,284, ,
1, ,284, ,
0, ,284, ,
3, ,284, ,
1, ,285, ,
1, ,284, ,
1, ,283, ,
0, ,284, ,
0, ,284, ,
3, ,283, ,
1, ,284, ,
0, ,284, ,
1, ,284, ,
1, ,283, ,
0, ,284, ,
3, ,284, ,
0, ,285, ,
1, ,284, ,
1, ,284, ,
1, ,284, ,
0, ,284, ,
3, ,284, ,
1, ,284, ,
1, ,284, ,
3, ,284, ,
1, ,283, ,
0, ,284, ,
3, ,284, ,
1, ,284, ,
1, ,283, ,
1, ,284, ,
1, ,284, ,
0, ,284, ,
1, ,284, ,
0, ,284, ,
1, ,283, ,
1, ,284, ,
1, ,284, ,
0, ,284, ,
3, ,284, ,
1, ,285, ,
1, ,283, ,
1, ,284, ,
1, ,284, ,
0, ,284, ,
3, ,284, ,
1, ,284, ,
1, ,284, ,
1, ,285, ,
1, ,284, ,
0, ,283, ,
3, ,284, ,
1, ,284, ,
1, ,283, ,
1, ,284, ,
1, ,283, ,
0, ,284, ,
3, ,283, ,
0, ,284, ,
0, ,284, ,
1, ,285, ,
1, ,283, ,
0, ,284, ,
3, ,284, ,
1, ,285, ,
1, ,283, ,
1, ,284, ,
1, ,284, ,
0, ,284, ,
3, ,284, ,
1, ,284, ,
1, ,283, ,
1, ,285, ,
1, ,284, ,
0, ,284, ,
1, ,284, ,
0, ,284, ,
1, ,283, ,
1, ,284, ,
1, ,284, ,
0, ,284, ,
3, ,284, ,
0, ,284, ,
0, ,284, ,
1, ,284, ,
1, ,283, ,
0, ,284, ,
1, ,284, ,
0, ,284, ,
0, ,284, ,
1, ,284, ,
1, ,284, ,
0, ,284, ,
3, ,283, ,
0, ,284, ,
0, ,283, ,
1, ,283, ,
1, ,283, ,
0, ,285, ,
3, ,285, ,
1, ,285, ,
0, ,284, ,
1, ,284, ,
1, ,283, ,
0, ,283, ,
1, ,283, ,
1, ,284, ,
1, ,285, ,
1, ,285, ,
1, ,283, ,
0, ,284, ,
1, ,284, ,
0, ,285, ,
1, ,283, ,
1, ,284, ,
1, ,284, ,
0, ,283, ,
3, ,284, ,
0, ,284, ,
0, ,284, ,
1, ,285, ,
1, ,283, ,
0, ,283, ,
1, ,284, ,
1, ,284, ,
1, ,283, ,
1, ,284, ,
1, ,284, ,
0, ,284, ,
1, ,284, ,
0, ,284, ,
0, ,284, ,
1, ,284, ,
1, ,283, ,
0, ,284, ,
3, ,284, ,
1, ,284, ,
1, ,283, ,
1, ,284, ,
1, ,284, ,
0, ,284, ,
3, ,283, ,
1, ,283, ,
0, ,284, ,
1, ,284, ,
1, ,283, ,
0, ,284, ,
1, ,284, ,
0, ,284, ,
0, ,282, ,
1, ,284, ,
1, ,284, ,
0, ,285, ,
3, ,284, ,
1, ,285, ,
1, ,283, ,
1, ,284, ,
1, ,284, ,
0, ,284, ,
1, ,284, ,
1, ,284, ,
1, ,283, ,
1, ,284, ,
1, ,284, ,
0, ,284, ,
3, ,284, ,
1, ,284, ,
1, ,284, ,
1, ,284, ,
1, ,283, ,
0, ,284, ,
3, ,283, ,
0, ,284, ,
1, ,283, ,
1, ,284, ,
1, ,285, ,
0, ,284, ,
3, ,283, ,
1, ,284, ,
0, ,283, ,
1, ,285, ,
1, ,283, ,
0, ,284, ,
1, ,284, ,
0, ,284, ,
1, ,283, ,
1, ,283, ,
1, ,284, ,
0, ,284, ,
3, ,283, ,
1, ,283, ,
0, ,284, ,
3, ,284, ,
1, ,284, ,
0, ,283, ,
1, ,284, ,
0, ,285, ,
1, ,283, ,
1, ,284, ,
1, ,284, ,
0, ,283, ,
3, ,283, ,
1, ,285, ,
0, ,283, ,
1, ,284, ,
1, ,283, ,
0, ,284, ,
1, ,284, ,
1, ,284, ,
1, ,283, ,
1, ,284, ,
1, ,284, ,
0, ,284, ,
3, ,283, ,
1, ,284, ,
1, ,283, ,
1, ,285, ,
1, ,283, ,
0, ,284, ,
1, ,284, ,
0, ,285, ,
1, ,283, ,
1, ,284, ,
1, ,284, ,
0, ,284, ,
1, ,283, ,
0, ,284, ,
0, ,284, ,
1, ,284, ,
1, ,284, ,
0, ,284, ,
1, ,284, ,
0, ,284, ,
0, ,284, ,
1, ,284, ,
1, ,284, ,
0, ,285, ,
3, ,284, ,
1, ,284, ,
0, ,283, ,
1, ,285, ,
1, ,283, ,
0, ,283, ,
1, ,283, ,
0, ,285, ,
0, ,284, ,
1, ,284, ,
1, ,284, ,
0, ,284, ,
1, ,283, ,
1, ,284, ,
0, ,284, ,
1, ,285, ,
1, ,283, ,
0, ,284, ,
1, ,284, ,
0, ,284, ,
1, ,283, ,
1, ,284, ,
1, ,284, ,
0, ,284, ,
3, ,283, ,
0, ,284, ,
0, ,284, ,
1, ,284, ,
1, ,283, ,
0, ,284, ,
1, ,284, ,
0, ,284, ,
0, ,283, ,
1, ,284, ,
1, ,284, ,
0, ,284, ,
1, ,283, ,
1, ,284, ,
0, ,284, ,
1, ,284, ,
1, ,284, ,
0, ,284, ,
1, ,283, ,
1, ,284, ,
1, ,283, ,
1, ,284, ,
1, ,284, ,
-1, ,283, ,
1, ,284, ,
1, ,285, ,
1, ,283, ,
1, ,284, ,
1, ,284, ,
0, ,283, ,
3, ,284, ,
1, ,284, ,
1, ,282, ,
1, ,284, ,
1, ,284, ,
0, ,284, ,
1, ,283, ,
1, ,284, ,
0, ,283, ,
1, ,284, ,
1, ,283, ,
0, ,284, ,
3, ,284, ,
0, ,284, ,
1, ,283, ,
1, ,284, ,
1, ,284, ,
0, ,284, ,
1, ,283, ,
0, ,285, ,
0, ,284, ,
1, ,284, ,
1, ,284, ,
0, ,284, ,
1, ,285, ,
1, ,285, ,
0, ,283, ,
1, ,283, ,
1, ,284, ,
0, ,284, ,
3, ,283, ,
1, ,284, ,
0, ,284, ,
1, ,283, ,
1, ,284, ,
0, ,284, ,
1, ,284, ,
0, ,284, ,
0, ,283, ,
1, ,284, ,
1, ,283, ,
0, ,284, ,
1, ,283, ,
0, ,285, ,
0, ,284, ,
1, ,284, ,
0, ,283, ,
-1, ,284, ,
1, ,284, ,
0, ,284, ,
0, ,283, ,
3, ,284, ,
1, ,284, ,
0, ,284, ,
3, ,283, ,
0, ,284, ,
0, ,284, ,
1, ,284, ,
1, ,284, ,
0, ,284, ,
1, ,284, ,
0, ,285, ,
0, ,284, ,
1, ,284, ,
1, ,283, ,
0, ,284, ,
1, ,283, ,
0, ,283, ,
0, ,283, ,
1, ,285, ,
1, ,283, ,
0, ,284, ,
3, ,284, ,
0, ,285, ,
0, ,283, ,
1, ,283, ,
1, ,284, ,
0, ,284, ,
1, ,284, ,
1, ,284, ,
0, ,284, ,
3, ,285, ,
1, ,283, ,
0, ,284, ,
1, ,284, ,
0, ,284, ,
0, ,283, ,
1, ,284, ,
0, ,283, ,
0, ,283, ,
1, ,283, ,
0, ,284, ,
1, ,283, ,
1, ,284, ,
1, ,284, ,
0, ,284, ,
3, ,284, ,
0, ,285, ,
0, ,284, ,
1, ,284, ,
1, ,284, ,
0, ,285, ,
1, ,284, ,
0, ,284, ,
0, ,284, ,
1, ,285, ,
1, ,283, ,
0, ,284, ,
1, ,284, ,
0, ,285, ,
0, ,283, ,
1, ,284, ,
1, ,284, ,
0, ,284, ,
3, ,284, ,
0, ,284, ,
0, ,283, ,
1, ,285, ,
1, ,284, ,
0, ,284, ,
1, ,284, ,
0, ,284, ,
0, ,284, ,
1, ,284, ,
1, ,283, ,
0, ,284, ,
1, ,283, ,
0, ,284, ,
0, ,284, ,
1, ,284, ,
1, ,283, ,
0, ,284, ,
3, ,284, ,
0, ,285, ,
0, ,284, ,
1, ,284, ,
1, ,284, ,
0, ,285, ,
1, ,283, ,
0, ,284, ,
0, ,284, ,
1, ,284, ,
1, ,284, ,
0, ,284, ,
1, ,284, ,
0, ,284, ,
0, ,283, ,
1, ,284, ,
1, ,284, ,
0, ,284, ,
3, ,284, ,
0, ,284, ,
0, ,284, ,
1, ,283, ,
1, ,284, ,
0, ,284, ,
1, ,284, ,
1, ,284, ,
0, ,283, ,
1, ,284, ,
1, ,284, ,
0, ,285, ,
1, ,284, ,
1, ,284, ,
0, ,284, ,
1, ,285, ,
0, ,283, ,
0, ,284, ,
3, ,284, ,
1, ,285, ,
0, ,284, ,
3, ,284, ,
0, ,281, ,
0, ,280, ,
3, ,280, ,
1, ,282, ,
0, ,285, ,
1, ,291, ,
1, ,292, ,
0, ,283, ,
3, ,278, ,
1, ,281, ,
1, ,285, ,
1, ,284, ,
1, ,284, ,
0, ,284, ,
3, ,283, ,
1, ,283, ,
1, ,283, ,
1, ,285, ,
1, ,284, ,
0, ,283, ,
1, ,283, ,
0, ,285, ,
0, ,283, ,
1, ,282, ,
0, ,284, ,
0, ,284, ,
1, ,283, ,
0, ,284, ,
0, ,284, ,
1, ,284, ,
1, ,284, ,
0, ,283, ,
1, ,283, ,
1, ,284, ,
0, ,283, ,
1, ,283, ,
1, ,284, ,
0, ,283, ,
1, ,283, ,
0, ,284, ,
1, ,283, ,
1, ,284, ,
1, ,283, ,
0, ,283, ,
1, ,284, ,
0, ,284, ,
0, ,283, ,
1, ,283, ,
1, ,284, ,
0, ,284, ,
1, ,283, ,
0, ,284, ,
0, ,284, ,
1, ,284, ,
0, ,283, ,
0, ,284, ,
1, ,283, ,
0, ,284, ,
0, ,282, ,
1, ,284, ,
1, ,283, ,
0, ,284, ,
1, ,284, ,
0, ,285, ,
0, ,283, ,
1, ,284, ,
1, ,283, ,
0, ,283, ,
3, ,282, ,
0, ,284, ,
0, ,284, ,
1, ,285, ,
1, ,284, ,
0, ,283, ,
1, ,283, ,
1, ,283, ,
0, ,283, ,
1, ,283, ,
1, ,283, ,
0, ,283, ,
3, ,284, ,
0, ,286, ,
1, ,283, ,
1, ,284, ,
1, ,284, ,
0, ,283, ,
3, ,282, ,
1, ,283, ,
1, ,284, ,
1, ,283, ,
1, ,283, ,
0, ,284, ,
1, ,284, ,
1, ,285, ,
0, ,283, ,
1, ,284, ,
1, ,283, ,
0, ,284, ,
1, ,283, ,
0, ,284, ,
0, ,283, ,
1, ,285, ,
1, ,283, ,
0, ,283, ,
1, ,283, ,
0, ,285, ,
0, ,283, ,
1, ,285, ,
1, ,285, ,
0, ,284, ,
3, ,283, ,
0, ,284, ,
0, ,284, ,
1, ,284, ,
1, ,283, ,
0, ,284, ,
1, ,285, ,
1, ,284, ,
0, ,283, ,
1, ,283, ,
1, ,285, ,
0, ,284, ,
1, ,284, ,
0, ,285, ,
0, ,284, ,
1, ,284, ,
1, ,284, ,
0, ,284, ,
1, ,284, ,
0, ,285, ,
0, ,284, ,
1, ,284, ,
1, ,284, ,
0, ,285, ,
1, ,284, ,
0, ,284, ,
0, ,284, ,
1, ,285, ,
1, ,284, ,
0, ,284, ,
3, ,283, ,
0, ,284, ,
0, ,284, ,
1, ,285, ,
0, ,284, ,
0, ,284, ,
1, ,283, ,
0, ,284, ,
0, ,284, ,
1, ,284, ,
1, ,284, ,
0, ,283, ,
3, ,284, ,
0, ,284, ,
0, ,283, ,
1, ,284, ,
1, ,284, ,
0, ,284, ,
1, ,283, ,
0, ,284, ,
0, ,285, ,
1, ,284, ,
1, ,283, ,
0, ,284, ,
1, ,284, ,
0, ,284, ,
0, ,283, ,
1, ,284, ,
1, ,284, ,
0, ,284, ,
3, ,283, ,
0, ,285, ,
0, ,284, ,
1, ,284, ,
0, ,284, ,
0, ,284, ,
3, ,284, ,
0, ,284, ,
0, ,284, ,
1, ,284, ,
1, ,283, ,
0, ,284, ,
3, ,283, ,
0, ,284, ,
0, ,284, ,
1, ,285, ,
1, ,284, ,
0, ,284, ,
1, ,284, ,
1, ,285, ,
0, ,284, ,
1, ,284, ,
1, ,284, ,
0, ,284, ,
3, ,284, ,
1, ,284, ,
0, ,283, ,
1, ,285, ,
1, ,283, ,
0, ,285, ,
1, ,284, ,
0, ,284, ,
1, ,284, ,
1, ,284, ,
1, ,284, ,
0, ,284, ,
1, ,283, ,
0, ,284, ,
0, ,284, ,
1, ,284, ,
1, ,283, ,
0, ,284, ,
1, ,284, ,
0, ,285, ,
0, ,283, ,
1, ,284, ,
1, ,284, ,
0, ,285, ,
1, ,284, ,
0, ,285, ,
0, ,284, ,
1, ,285, ,
1, ,284, ,
