src/vary_led_1562/temq0000953.CSV

Format,1.0B,
Memory Length,10000,Memory Length,10000,
IntpDistance,0,IntpDistance,0,
Trigger Address,5049,Trigger Address,5049,
Trigger Level,2.800E-01,Trigger Level,2.800E-01,
Source,CH1,Source,CH2,
Vertical Units,V,Vertical Units,V,
Vertical Units Div,0,Vertical Units Div,0,
Vertical Units Extend Div,16,Vertical Units Extend Div,16,
Label,,Label,,
Probe Type,0,Probe Type,0,
Probe Ratio,1.000e+01,Probe Ratio,1.000e+00,
Vertical Scale,5.000e-01,Vertical Scale,2.000e-01,
Vertical Position,-1.780e+00,Vertical Position,-2.240e+00,
Horizontal Units,S,Horizontal Units,S,
Horizontal Scale,2.000E-05,Horizontal Scale,2.000E-05,
Horizontal Position,-1.000E-06,Horizontal Position,-1.000E-06,
Horizontal Mode,Main,Horizontal Mode,Main,
SincET Mode,Real Time,SincET Mode,Real Time,
Sampling Period,2.000e-08,Sampling Period,2.000e-08,
Horizontal Old Scale,2.000E-05,Horizontal Old Scale,2.000E-05,
Horizontal Old Position,-1.000E-06,Horizontal Old Position,-1.000E-06,
Firmware,V1.23,Firmware,V1.23,
Mode,Fast,Mode,Fast,
Waveform Data,,Waveform Data,,
-1, ,265, ,
3, ,265, ,
1, ,264, ,
0, ,265, ,
1, ,265, ,
1, ,265, ,
-1, ,264, ,
3, ,264, ,
1, ,265, ,
1, ,264, ,
1, ,264, ,
1, ,264, ,
-1, ,264, ,
3, ,264, ,
1, ,264, ,
0, ,265, ,
1, ,264, ,
1, ,264, ,
0, ,265, ,
3, ,264, ,
0, ,264, ,
0, ,264, ,
3, ,264, ,
1, ,264, ,
-1, ,264, ,
3, ,264, ,
1, ,264, ,
0, ,264, ,
3, ,265, ,
1, ,264, ,
0, ,263, ,
3, ,264, ,
1, ,264, ,
1, ,264, ,
3, ,264, ,
1, ,265, ,
0, ,264, ,
3, ,264, ,
0, ,264, ,
0, ,264, ,
1, ,264, ,
1, ,264, ,
0, ,264, ,
3, ,265, ,
1, ,265, ,
1, ,265, ,
3, ,264, ,
1, ,264, ,
-1, ,265, ,
3, ,264, ,
0, ,264, ,
0, ,264, ,
1, ,264, ,
1, ,264, ,
0, ,264, ,
3, ,264, ,
0, ,265, ,
1, ,264, ,
1, ,264, ,
1, ,264, ,
-1, ,264, ,
3, ,264, ,
0, ,264, ,
1, ,266, ,
1, ,264, ,
1, ,264, ,
0, ,265, ,
3, ,264, ,
0, ,264, ,
0, ,264, ,
1, ,264, ,
1, ,264, ,
-1, ,264, ,
3, ,264, ,
1, ,264, ,
0, ,264, ,
1, ,264, ,
1, ,264, ,
0, ,264, ,
3, ,264, ,
1, ,265, ,
1, ,264, ,
1, ,264, ,
1, ,264, ,
-1, ,264, ,
3, ,263, ,
0, ,264, ,
0, ,264, ,
1, ,264, ,
1, ,264, ,
-1, ,264, ,
3, ,263, ,
0, ,264, ,
0, ,264, ,
1, ,263, ,
1, ,264, ,
-1, ,264, ,
4, ,264, ,
0, ,264, ,
0, ,264, ,
1, ,264, ,
1, ,264, ,
0, ,264, ,
3, ,264, ,
1, ,264, ,
0, ,264, ,
3, ,264, ,
1, ,264, ,
-1, ,266, ,
3, ,264, ,
0, ,264, ,
1, ,265, ,
1, ,264, ,
1, ,264, ,
0, ,264, ,
3, ,264, ,
1, ,265, ,
0, ,264, ,
3, ,264, ,
1, ,264, ,
-1, ,265, ,
3, ,263, ,
0, ,264, ,
0, ,264, ,
3, ,264, ,
1, ,264, ,
0, ,264, ,
3, ,264, ,
0, ,265, ,
1, ,264, ,
1, ,264, ,
1, ,264, ,
0, ,264, ,
3, ,264, ,
1, ,265, ,
0, ,264, ,
1, ,265, ,
1, ,264, ,
0, ,264, ,
3, ,265, ,
0, ,264, ,
1, ,264, ,
1, ,264, ,
1, ,264, ,
-1, ,264, ,
3, ,264, ,
0, ,264, ,
0, ,264, ,
1, ,265, ,
1, ,264, ,
0, ,264, ,
3, ,264, ,
1, ,264, ,
1, ,264, ,
1, ,264, ,
1, ,264, ,
-1, ,264, ,
3, ,264, ,
0, ,264, ,
0, ,264, ,
1, ,264, ,
1, ,264, ,
0, ,264, ,
3, ,264, ,
1, ,264, ,
0, ,264, ,
3, ,264, ,
1, ,264, ,
-1, ,264, ,
3, ,264, ,
0, ,263, ,
0, ,264, ,
1, ,264, ,
1, ,263, ,
0, ,264, ,
3, ,265, ,
0, ,265, ,
1, ,264, ,
1, ,265, ,
1, ,264, ,
-1, ,264, ,
3, ,263, ,
1, ,264, ,
0, ,264, ,
1, ,265, ,
1, ,265, ,
-1, ,264, ,
3, ,264, ,
1, ,265, ,
1, ,264, ,
1, ,263, ,
1, ,263, ,
-1, ,264, ,
3, ,264, ,
0, ,265, ,
0, ,265, ,
1, ,265, ,
1, ,264, ,
0, ,264, ,
3, ,264, ,
1, ,264, ,
0, ,264, ,
1, ,264, ,
1, ,264, ,
-1, ,265, ,
3, ,264, ,
0, ,264, ,
0, ,264, ,
1, ,264, ,
1, ,262, ,
0, ,264, ,
3, ,264, ,
0, ,265, ,
0, ,265, ,
1, ,264, ,
1, ,264, ,
-1, ,264, ,
3, ,264, ,
0, ,264, ,
0, ,264, ,
1, ,264, ,
1, ,264, ,
0, ,265, ,
3, ,264, ,
0, ,265, ,
1, ,264, ,
1, ,264, ,
1, ,264, ,
-1, ,264, ,
3, ,264, ,
0, ,264, ,
0, ,265, ,
1, ,264, ,
1, ,264, ,
0, ,264, ,
3, ,264, ,
0, ,264, ,
0, ,264, ,
1, ,263, ,
1, ,264, ,
-1, ,264, ,
3, ,264, ,
1, ,264, ,
0, ,264, ,
1, ,265, ,
1, ,264, ,
0, ,264, ,
3, ,265, ,
0, ,265, ,
1, ,264, ,
3, ,264, ,
1, ,264, ,
-1, ,264, ,
3, ,264, ,
0, ,264, ,
0, ,264, ,
1, ,265, ,
1, ,264, ,
0, ,264, ,
4, ,264, ,
0, ,264, ,
0, ,264, ,
3, ,264, ,
1, ,264, ,
0, ,264, ,
3, ,264, ,
0, ,265, ,
0, ,264, ,
1, ,264, ,
1, ,264, ,
0, ,264, ,
3, ,264, ,
0, ,264, ,
1, ,264, ,
1, ,264, ,
1, ,265, ,
-1, ,265, ,
3, ,264, ,
1, ,264, ,
0, ,264, ,
1, ,265, ,
1, ,264, ,
0, ,264, ,
3, ,264, ,
0, ,265, ,
1, ,264, ,
3, ,264, ,
1, ,264, ,
-1, ,265, ,
3, ,264, ,
0, ,264, ,
0, ,264, ,
1, ,265, ,
1, ,264, ,
0, ,265, ,
3, ,264, ,
1, ,264, ,
1, ,264, ,
3, ,264, ,
1, ,265, ,
0, ,264, ,
3, ,264, ,
0, ,264, ,
0, ,264, ,
1, ,265, ,
1, ,264, ,
0, ,265, ,
3, ,264, ,
0, ,265, ,
0, ,264, ,
1, ,264, ,
1, ,264, ,
-1, ,265, ,
3, ,265, ,
1, ,264, ,
0, ,265, ,
1, ,264, ,
1, ,265, ,
-1, ,264, ,
3, ,264, ,
0, ,265, ,
0, ,264, ,
1, ,264, ,
1, ,265, ,
-1, ,264, ,
3, ,264, ,
0, ,264, ,
0, ,265, ,
3, ,264, ,
1, ,264, ,
0, ,264, ,
3, ,264, ,
1, ,265, ,
0, ,264, ,
3, ,264, ,
1, ,265, ,
-1, ,264, ,
3, ,264, ,
0, ,264, ,
1, ,264, ,
1, ,265, ,
1, ,264, ,
-1, ,264, ,
3, ,264, ,
0, ,265, ,
0, ,264, ,
1, ,264, ,
0, ,265, ,
-1, ,264, ,
3, ,264, ,
0, ,264, ,
0, ,264, ,
1, ,264, ,
1, ,264, ,
0, ,264, ,
4, ,264, ,
0, ,264, ,
0, ,264, ,
1, ,264, ,
1, ,264, ,
-1, ,265, ,
3, ,265, ,
0, ,264, ,
0, ,265, ,
1, ,264, ,
1, ,264, ,
0, ,264, ,
3, ,264, ,
1, ,265, ,
1, ,264, ,
1, ,265, ,
1, ,264, ,
-1, ,265, ,
3, ,264, ,
0, ,264, ,
0, ,264, ,
1, ,265, ,
1, ,264, ,
-1, ,265, ,
3, ,265, ,
0, ,265, ,
0, ,264, ,
1, ,265, ,
1, ,264, ,
-1, ,264, ,
3, ,264, ,
0, ,264, ,
1, ,264, ,
1, ,264, ,
1, ,262, ,
0, ,263, ,
4, ,264, ,
0, ,264, ,
1, ,264, ,
1, ,265, ,
1, ,266, ,
-1, ,266, ,
3, ,266, ,
0, ,266, ,
0, ,265, ,
1, ,265, ,
1, ,264, ,
0, ,264, ,
4, ,264, ,
1, ,264, ,
1, ,263, ,
3, ,263, ,
1, ,263, ,
-1, ,264, ,
3, ,265, ,
0, ,265, ,
0, ,264, ,
1, ,265, ,
1, ,265, ,
130, ,265, ,
75, ,265, ,
43, ,265, ,
30, ,264, ,
23, ,264, ,
14, ,264, ,
6, ,264, ,
9, ,264, ,
8, ,264, ,
5, ,264, ,
5, ,264, ,
4, ,264, ,
4, ,264, ,
5, ,265, ,
3, ,266, ,
3, ,264, ,
4, ,264, ,
4, ,265, ,
1, ,265, ,
5, ,265, ,
3, ,265, ,
3, ,265, ,
4, ,265, ,
3, ,264, ,
1, ,264, ,
5, ,263, ,
1, ,263, ,
3, ,262, ,
4, ,264, ,
4, ,265, ,
1, ,267, ,
5, ,265, ,
3, ,264, ,
3, ,263, ,
3, ,264, ,
4, ,263, ,
1, ,263, ,
4, ,264, ,
1, ,266, ,
3, ,264, ,
4, ,264, ,
4, ,264, ,
1, ,264, ,
5, ,264, ,
3, ,264, ,
3, ,264, ,
4, ,265, ,
3, ,264, ,
1, ,263, ,
4, ,263, ,
1, ,264, ,
3, ,264, ,
4, ,264, ,
3, ,264, ,
1, ,264, ,
5, ,264, ,
1, ,264, ,
3, ,264, ,
4, ,265, ,
4, ,264, ,
1, ,264, ,
5, ,263, ,
3, ,264, ,
3, ,263, ,
4, ,263, ,
4, ,263, ,
1, ,263, ,
4, ,262, ,
1, ,264, ,
1, ,264, ,
3, ,264, ,
3, ,265, ,
1, ,264, ,
4, ,265, ,
1, ,265, ,
3, ,265, ,
4, ,265, ,
4, ,264, ,
1, ,265, ,
4, ,264, ,
1, ,263, ,
3, ,264, ,
4, ,264, ,
4, ,263, ,
1, ,264, ,
5, ,264, ,
3, ,264, ,
3, ,263, ,
4, ,264, ,
3, ,264, ,
1, ,265, ,
5, ,264, ,
3, ,264, ,
3, ,264, ,
3, ,264, ,
3, ,264, ,
1, ,264, ,
5, ,265, ,
1, ,264, ,
3, ,263, ,
3, ,264, ,
4, ,264, ,
1, ,264, ,
5, ,264, ,
3, ,263, ,
3, ,264, ,
3, ,264, ,
4, ,260, ,
1, ,259, ,
4, ,263, ,
3, ,271, ,
1, ,268, ,
3, ,264, ,
3, ,262, ,
1, ,264, ,
4, ,265, ,
3, ,264, ,
1, ,263, ,
3, ,264, ,
3, ,262, ,
1, ,263, ,
4, ,264, ,
1, ,264, ,
3, ,263, ,
4, ,264, ,
4, ,264, ,
1, ,264, ,
4, ,264, ,
1, ,265, ,
3, ,264, ,
3, ,266, ,
3, ,265, ,
1, ,266, ,
4, ,265, ,
3, ,264, ,
1, ,264, ,
3, ,263, ,
4, ,264, ,
1, ,264, ,
4, ,264, ,
3, ,264, ,
1, ,264, ,
3, ,265, ,
3, ,264, ,
1, ,264, ,
4, ,264, ,
1, ,266, ,
1, ,265, ,
3, ,265, ,
3, ,264, ,
1, ,265, ,
4, ,264, ,
3, ,264, ,
1, ,265, ,
3, ,264, ,
3, ,264, ,
1, ,264, ,
4, ,264, ,
3, ,265, ,
1, ,264, ,
3, ,264, ,
3, ,264, ,
0, ,264, ,
4, ,264, ,
1, ,264, ,
1, ,264, ,
3, ,264, ,
3, ,264, ,
1, ,266, ,
4, ,264, ,
1, ,265, ,
3, ,265, ,
3, ,264, ,
3, ,264, ,
0, ,265, ,
4, ,264, ,
1, ,264, ,
3, ,264, ,
3, ,265, ,
3, ,264, ,
1, ,264, ,
4, ,265, ,
1, ,264, ,
1, ,264, ,
3, ,264, ,
3, ,264, ,
0, ,265, ,
4, ,264, ,
1, ,264, ,
1, ,264, ,
3, ,265, ,
3, ,264, ,
1, ,264, ,
3, ,263, ,
1, ,264, ,
3, ,264, ,
3, ,264, ,
3, ,264, ,
0, ,265, ,
4, ,264, ,
3, ,265, ,
3, ,265, ,
3, ,265, ,
3, ,265, ,
1, ,264, ,
3, ,264, ,
1, ,264, ,
3, ,264, ,
3, ,264, ,
3, ,264, ,
0, ,265, ,
4, ,264, ,
3, ,264, ,
1, ,264, ,
3, ,265, ,
3, ,264, ,
0, ,263, ,
3, ,264, ,
1, ,264, ,
1, ,265, ,
3, ,266, ,
3, ,266, ,
0, ,265, ,
3, ,264, ,
1, ,264, ,
1, ,264, ,
3, ,263, ,
3, ,263, ,
0, ,264, ,
3, ,264, ,
1, ,265, ,
3, ,264, ,
3, ,263, ,
3, ,264, ,
0, ,265, ,
4, ,264, ,
1, ,264, ,
1, ,264, ,
3, ,265, ,
3, ,264, ,
1, ,265, ,
4, ,264, ,
0, ,265, ,
3, ,264, ,
3, ,265, ,
3, ,264, ,
0, ,265, ,
4, ,264, ,
1, ,264, ,
1, ,264, ,
3, ,265, ,
3, ,264, ,
1, ,264, ,
4, ,265, ,
1, ,264, ,
1, ,264, ,
3, ,264, ,
3, ,264, ,
0, ,265, ,
4, ,264, ,
1, ,264, ,
1, ,264, ,
3, ,264, ,
3, ,264, ,
0, ,264, ,
4, ,264, ,
1, ,264, ,
1, ,264, ,
3, ,264, ,
3, ,264, ,
0, ,264, ,
3, ,264, ,
1, ,264, ,
1, ,264, ,
3, ,265, ,
3, ,264, ,
0, ,264, ,
4, ,264, ,
1, ,265, ,
1, ,264, ,
3, ,264, ,
3, ,264, ,
0, ,264, ,
3, ,264, ,
1, ,264, ,
1, ,264, ,
3, ,265, ,
3, ,264, ,
0, ,264, ,
3, ,264, ,
1, ,265, ,
1, ,264, ,
3, ,264, ,
3, ,264, ,
0, ,264, ,
4, ,264, ,
1, ,264, ,
1, ,264, ,
3, ,265, ,
1, ,264, ,
0, ,264, ,
3, ,264, ,
1, ,264, ,
1, ,264, ,
3, ,264, ,
3, ,264, ,
0, ,264, ,
4, ,264, ,
1, ,264, ,
1, ,265, ,
3, ,265, ,
3, ,264, ,
0, ,264, ,
3, ,264, ,
1, ,265, ,
1, ,264, ,
3, ,264, ,
1, ,264, ,
0, ,265, ,
3, ,264, ,
1, ,264, ,
1, ,264, ,
3, ,265, ,
3, ,264, ,
0, ,265, ,
3, ,264, ,
1, ,264, ,
1, ,265, ,
3, ,264, ,
3, ,264, ,
0, ,265, ,
3, ,264, ,
1, ,264, ,
1, ,264, ,
3, ,264, ,
1, ,264, ,
0, ,264, ,
3, ,264, ,
1, ,264, ,
1, ,264, ,
3, ,264, ,
3, ,264, ,
0, ,264, ,
4, ,265, ,
1, ,264, ,
1, ,265, ,
3, ,265, ,
1, ,264, ,
0, ,264, ,
3, ,264, ,
1, ,265, ,
1, ,264, ,
3, ,264, ,
3, ,265, ,
0, ,264, ,
3, ,264, ,
1, ,265, ,
1, ,264, ,
3, ,265, ,
3, ,264, ,
0, ,264, ,
3, ,264, ,
1, ,264, ,
1, ,264, ,
3, ,265, ,
1, ,264, ,
0, ,264, ,
3, ,264, ,
1, ,264, ,
1, ,264, ,
3, ,264, ,
3, ,264, ,
0, ,263, ,
3, ,264, ,
1, ,264, ,
1, ,264, ,
3, ,264, ,
3, ,264, ,
0, ,264, ,
3, ,264, ,
1, ,264, ,
1, ,264, ,
3, ,265, ,
1, ,264, ,
0, ,264, ,
3, ,265, ,
1, ,265, ,
1, ,264, ,
3, ,264, ,
1, ,264, ,
0, ,265, ,
3, ,264, ,
1, ,264, ,
1, ,264, ,
3, ,264, ,
1, ,264, ,
0, ,264, ,
3, ,264, ,
1, ,265, ,
1, ,264, ,
3, ,266, ,
1, ,264, ,
0, ,265, ,
3, ,264, ,
1, ,264, ,
1, ,264, ,
1, ,265, ,
1, ,264, ,
0, ,264, ,
3, ,264, ,
1, ,265, ,
1, ,265, ,
3, ,264, ,
1, ,265, ,
0, ,265, ,
3, ,264, ,
1, ,264, ,
1, ,264, ,
60, ,264, ,
70, ,264, ,
47, ,264, ,
29, ,264, ,
16, ,264, ,
13, ,264, ,
10, ,264, ,
9, ,264, ,
5, ,264, ,
6, ,264, ,
4, ,264, ,
4, ,265, ,
4, ,265, ,
3, ,264, ,
1, ,265, ,
4, ,265, ,
3, ,266, ,
3, ,264, ,
4, ,264, ,
4, ,263, ,
1, ,263, ,
5, ,263, ,
3, ,263, ,
3, ,263, ,
4, ,264, ,
4, ,264, ,
1, ,266, ,
5, ,264, ,
3, ,265, ,
3, ,265, ,
4, ,266, ,
4, ,265, ,
1, ,266, ,
5, ,265, ,
3, ,264, ,
3, ,264, ,
4, ,264, ,
4, ,264, ,
1, ,265, ,
5, ,264, ,
1, ,264, ,
3, ,264, ,
4, ,264, ,
4, ,264, ,
1, ,264, ,
4, ,264, ,
1, ,264, ,
3, ,263, ,
4, ,264, ,
4, ,262, ,
1, ,264, ,
5, ,264, ,
3, ,265, ,
3, ,264, ,
4, ,264, ,
3, ,264, ,
1, ,265, ,
4, ,264, ,
3, ,265, ,
3, ,265, ,
3, ,265, ,
3, ,264, ,
1, ,264, ,
5, ,264, ,
3, ,265, ,
1, ,264, ,
4, ,264, ,
4, ,264, ,
1, ,265, ,
4, ,264, ,
3, ,265, ,
3, ,264, ,
4, ,265, ,
4, ,264, ,
1, ,264, ,
5, ,264, ,
3, ,264, ,
1, ,264, ,
3, ,263, ,
3, ,264, ,
1, ,264, ,
4, ,264, ,
3, ,263, ,
1, ,264, ,
3, ,264, ,
4, ,264, ,
1, ,264, ,
4, ,264, ,
1, ,265, ,
1, ,264, ,
3, ,265, ,
3, ,265, ,
1, ,265, ,
5, ,264, ,
3, ,264, ,
3, ,264, ,
4, ,264, ,
3, ,264, ,
1, ,264, ,
4, ,264, ,
1, ,264, ,
3, ,264, ,
3, ,264, ,
3, ,265, ,
0, ,265, ,
4, ,264, ,
1, ,264, ,
3, ,264, ,
3, ,264, ,
3, ,264, ,
1, ,264, ,
4, ,264, ,
3, ,264, ,
3, ,264, ,
4, ,263, ,
3, ,264, ,
1, ,264, ,
4, ,264, ,
1, ,264, ,
3, ,264, ,
3, ,264, ,
3, ,264, ,
1, ,264, ,
5, ,264, ,
3, ,265, ,
3, ,264, ,
3, ,265, ,
3, ,265, ,
1, ,265, ,
4, ,264, ,
3, ,264, ,
1, ,264, ,
3, ,264, ,
3, ,264, ,
1, ,264, ,
4, ,264, ,
1, ,264, ,
1, ,264, ,
4, ,264, ,
3, ,264, ,
1, ,264, ,
4, ,263, ,
3, ,264, ,
1, ,264, ,
3, ,265, ,
3, ,264, ,
1, ,264, ,
4, ,264, ,
3, ,265, ,
1, ,264, ,
3, ,264, ,
3, ,264, ,
1, ,265, ,
4, ,263, ,
3, ,264, ,
1, ,264, ,
3, ,264, ,
3, ,264, ,
1, ,265, ,
4, ,264, ,
1, ,264, ,
1, ,264, ,
3, ,264, ,
3, ,264, ,
0, ,265, ,
4, ,263, ,
1, ,264, ,
1, ,264, ,
3, ,264, ,
4, ,264, ,
1, ,264, ,
4, ,263, ,
1, ,264, ,
1, ,264, ,
3, ,264, ,
3, ,264, ,
0, ,264, ,
4, ,264, ,
3, ,264, ,
1, ,264, ,
3, ,264, ,
3, ,264, ,
1, ,264, ,
3, ,264, ,
1, ,264, ,
1, ,264, ,
3, ,264, ,
3, ,264, ,
0, ,264, ,
4, ,264, ,
1, ,265, ,
1, ,264, ,
3, ,265, ,
3, ,264, ,
1, ,264, ,
4, ,264, ,
1, ,265, ,
1, ,264, ,
3, ,264, ,
3, ,265, ,
1, ,264, ,
4, ,264, ,
1, ,264, ,
1, ,264, ,
3, ,264, ,
3, ,264, ,
1, ,264, ,
4, ,264, ,
1, ,264, ,
1, ,264, ,
3, ,264, ,
3, ,264, ,
0, ,265, ,
4, ,264, ,
1, ,264, ,
1, ,264, ,
3, ,265, ,
3, ,264, ,
1, ,264, ,
3, ,264, ,
1, ,264, ,
1, ,264, ,
3, ,263, ,
3, ,264, ,
0, ,264, ,
4, ,264, ,
1, ,264, ,
1, ,264, ,
3, ,265, ,
3, ,264, ,
0, ,264, ,
3, ,264, ,
1, ,265, ,
1, ,264, ,
3, ,264, ,
3, ,264, ,
0, ,265, ,
3, ,264, ,
1, ,264, ,
1, ,264, ,
3, ,264, ,
3, ,264, ,
1, ,263, ,
3, ,264, ,
1, ,265, ,
1, ,264, ,
3, ,263, ,
3, ,263, ,
0, ,263, ,
3, ,264, ,
1, ,265, ,
1, ,265, ,
3, ,265, ,
3, ,264, ,
1, ,264, ,
3, ,263, ,
1, ,264, ,
1, ,262, ,
3, ,264, ,
3, ,264, ,
0, ,265, ,
3, ,264, ,
1, ,263, ,
1, ,264, ,
3, ,264, ,
3, ,263, ,
1, ,264, ,
3, ,264, ,
1, ,264, ,
1, ,264, ,
3, ,264, ,
3, ,264, ,
0, ,265, ,
3, ,264, ,
1, ,264, ,
1, ,264, ,
3, ,264, ,
3, ,264, ,
1, ,265, ,
3, ,264, ,
1, ,264, ,
1, ,264, ,
3, ,264, ,
3, ,264, ,
0, ,264, ,
3, ,264, ,
1, ,263, ,
1, ,264, ,
3, ,266, ,
3, ,265, ,
1, ,265, ,
3, ,264, ,
1, ,264, ,
1, ,264, ,
3, ,264, ,
3, ,264, ,
0, ,265, ,
4, ,264, ,
1, ,264, ,
1, ,264, ,
3, ,264, ,
3, ,264, ,
0, ,264, ,
3, ,264, ,
1, ,264, ,
1, ,264, ,
3, ,264, ,
3, ,264, ,
0, ,265, ,
3, ,263, ,
1, ,264, ,
1, ,264, ,
3, ,264, ,
3, ,264, ,
1, ,263, ,
3, ,264, ,
1, ,265, ,
1, ,264, ,
3, ,265, ,
3, ,264, ,
0, ,265, ,
3, ,264, ,
1, ,264, ,
1, ,264, ,
3, ,264, ,
3, ,264, ,
0, ,264, ,
3, ,264, ,
1, ,265, ,
1, ,264, ,
3, ,264, ,
3, ,264, ,
0, ,265, ,
3, ,264, ,
1, ,264, ,
1, ,264, ,
3, ,264, ,
3, ,264, ,
0, ,264, ,
4, ,264, ,
1, ,264, ,
1, ,264, ,
3, ,264, ,
3, ,264, ,
0, ,264, ,
3, ,264, ,
1, ,264, ,
1, ,264, ,
3, ,265, ,
3, ,264, ,
0, ,264, ,
3, ,264, ,
1, ,264, ,
1, ,264, ,
3, ,264, ,
3, ,264, ,
0, ,265, ,
3, ,264, ,
1, ,264, ,
1, ,264, ,
3, ,265, ,
1, ,264, ,
0, ,264, ,
3, ,264, ,
1, ,264, ,
1, ,264, ,
3, ,264, ,
1, ,264, ,
0, ,265, ,
3, ,264, ,
1, ,264, ,
1, ,264, ,
3, ,264, ,
1, ,264, ,
0, ,264, ,
3, ,264, ,
1, ,264, ,
1, ,264, ,
3, ,265, ,
3, ,264, ,
0, ,264, ,
3, ,264, ,
1, ,264, ,
1, ,264, ,
3, ,264, ,
1, ,264, ,
0, ,264, ,
3, ,264, ,
1, ,265, ,
1, ,263, ,
3, ,264, ,
3, ,264, ,
0, ,265, ,
3, ,264, ,
1, ,265, ,
1, ,264, ,
3, ,264, ,
1, ,264, ,
0, ,264, ,
3, ,264, ,
1, ,264, ,
1, ,264, ,
3, ,264, ,
1, ,265, ,
0, ,264, ,
3, ,264, ,
1, ,264, ,
1, ,264, ,
3, ,264, ,
1, ,264, ,
0, ,264, ,
3, ,264, ,
1, ,264, ,
1, ,264, ,
3, ,264, ,
3, ,264, ,
0, ,265, ,
3, ,264, ,
1, ,264, ,
1, ,264, ,
3, ,264, ,
1, ,264, ,
0, ,264, ,
3, ,264, ,
1, ,265, ,
1, ,264, ,
3, ,264, ,
3, ,264, ,
0, ,264, ,
3, ,264, ,
1, ,265, ,
1, ,264, ,
3, ,265, ,
1, ,264, ,
0, ,264, ,
3, ,265, ,
1, ,265, ,
1, ,263, ,
3, ,264, ,
3, ,264, ,
0, ,264, ,
3, ,264, ,
1, ,264, ,
1, ,264, ,
3, ,265, ,
1, ,264, ,
0, ,266, ,
3, ,264, ,
1, ,264, ,
1, ,264, ,
3, ,263, ,
1, ,265, ,
0, ,264, ,
3, ,264, ,
1, ,264, ,
1, ,263, ,
3, ,264, ,
1, ,264, ,
0, ,266, ,
3, ,264, ,
1, ,265, ,
0, ,264, ,
3, ,264, ,
3, ,264, ,
0, ,265, ,
3, ,265, ,
1, ,264, ,
1, ,264, ,
3, ,265, ,
1, ,265, ,
0, ,264, ,
3, ,264, ,
1, ,265, ,
1, ,264, ,
3, ,265, ,
1, ,264, ,
0, ,263, ,
3, ,262, ,
1, ,264, ,
1, ,265, ,
3, ,265, ,
1, ,265, ,
0, ,264, ,
3, ,263, ,
1, ,265, ,
1, ,265, ,
3, ,264, ,
1, ,264, ,
0, ,264, ,
3, ,263, ,
1, ,264, ,
1, ,264, ,
1, ,264, ,
1, ,264, ,
0, ,264, ,
3, ,264, ,
1, ,265, ,
1, ,264, ,
3, ,265, ,
1, ,265, ,
0, ,265, ,
3, ,264, ,
1, ,264, ,
1, ,264, ,
3, ,264, ,
1, ,264, ,
0, ,265, ,
3, ,264, ,
1, ,264, ,
1, ,264, ,
3, ,264, ,
3, ,264, ,
0, ,264, ,
3, ,264, ,
1, ,264, ,
1, ,264, ,
1, ,264, ,
1, ,264, ,
0, ,265, ,
3, ,263, ,
0, ,265, ,
1, ,264, ,
3, ,264, ,
1, ,265, ,
0, ,264, ,
3, ,264, ,
1, ,264, ,
0, ,264, ,
1, ,264, ,
1, ,264, ,
0, ,263, ,
3, ,264, ,
1, ,265, ,
1, ,264, ,
3, ,264, ,
1, ,264, ,
0, ,265, ,
3, ,264, ,
1, ,264, ,
0, ,264, ,
3, ,265, ,
1, ,264, ,
0, ,265, ,
3, ,264, ,
1, ,264, ,
1, ,264, ,
3, ,263, ,
1, ,264, ,
0, ,264, ,
3, ,264, ,
1, ,264, ,
1, ,264, ,
1, ,264, ,
1, ,264, ,
0, ,264, ,
3, ,265, ,
1, ,264, ,
1, ,264, ,
3, ,264, ,
1, ,264, ,
0, ,264, ,
3, ,264, ,
1, ,263, ,
1, ,264, ,
3, ,265, ,
1, ,264, ,
0, ,264, ,
3, ,264, ,
1, ,264, ,
1, ,264, ,
3, ,264, ,
1, ,264, ,
0, ,265, ,
3, ,264, ,
1, ,264, ,
1, ,264, ,
1, ,265, ,
1, ,264, ,
0, ,264, ,
3, ,264, ,
0, ,264, ,
0, ,264, ,
3, ,264, ,
1, ,264, ,
0, ,264, ,
3, ,264, ,
1, ,264, ,
0, ,264, ,
3, ,264, ,
1, ,264, ,
0, ,265, ,
3, ,264, ,
1, ,264, ,
0, ,263, ,
3, ,265, ,
1, ,264, ,
0, ,265, ,
3, ,263, ,
0, ,264, ,
0, ,264, ,
1, ,265, ,
1, ,264, ,
0, ,264, ,
3, ,264, ,
1, ,265, ,
0, ,264, ,
1, ,266, ,
1, ,264, ,
0, ,265, ,
3, ,264, ,
1, ,264, ,
1, ,265, ,
3, ,265, ,
1, ,264, ,
0, ,264, ,
3, ,265, ,
0, ,265, ,
1, ,264, ,
3, ,264, ,
1, ,264, ,
-1, ,264, ,
3, ,264, ,
1, ,264, ,
0, ,264, ,
3, ,264, ,
1, ,264, ,
0, ,264, ,
3, ,264, ,
1, ,265, ,
0, ,264, ,
1, ,264, ,
1, ,265, ,
0, ,264, ,
1, ,264, ,
1, ,264, ,
1, ,264, ,
1, ,265, ,
1, ,264, ,
0, ,264, ,
3, ,265, ,
1, ,264, ,
1, ,264, ,
1, ,264, ,
1, ,264, ,
-1, ,265, ,
3, ,264, ,
0, ,264, ,
1, ,264, ,
3, ,264, ,
1, ,264, ,
0, ,264, ,
3, ,264, ,
0, ,265, ,
0, ,264, ,
3, ,264, ,
1, ,264, ,
0, ,264, ,
3, ,264, ,
1, ,262, ,
0, ,262, ,
1, ,263, ,
1, ,265, ,
0, ,266, ,
3, ,266, ,
0, ,267, ,
1, ,264, ,
1, ,263, ,
1, ,263, ,
0, ,264, ,
112, ,264, ,
67, ,264, ,
39, ,265, ,
29, ,264, ,
20, ,264, ,
10, ,264, ,
8, ,264, ,
5, ,264, ,
5, ,264, ,
6, ,264, ,
3, ,264, ,
1, ,264, ,
5, ,264, ,
4, ,264, ,
1, ,264, ,
4, ,264, ,
4, ,264, ,
1, ,264, ,
5, ,264, ,
1, ,264, ,
3, ,264, ,
4, ,264, ,
4, ,263, ,
1, ,264, ,
4, ,264, ,
3, ,264, ,
3, ,263, ,
4, ,263, ,
4, ,264, ,
3, ,264, ,
4, ,264, ,
3, ,264, ,
3, ,264, ,
4, ,264, ,
3, ,264, ,
1, ,263, ,
4, ,263, ,
1, ,264, ,
3, ,264, ,
4, ,264, ,
4, ,264, ,
1, ,264, ,
4, ,264, ,
3, ,264, ,
3, ,263, ,
4, ,264, ,
4, ,263, ,
1, ,264, ,
4, ,263, ,
1, ,264, ,
3, ,264, ,
4, ,264, ,
4, ,264, ,
1, ,265, ,
4, ,264, ,
3, ,264, ,
3, ,264, ,
3, ,264, ,
4, ,264, ,
1, ,265, ,
4, ,264, ,
1, ,263, ,
1, ,264, ,
3, ,264, ,
4, ,264, ,
1, ,264, ,
4, ,264, ,
1, ,265, ,
3, ,264, ,
4, ,264, ,
4, ,264, ,
1, ,264, ,
4, ,263, ,
3, ,263, ,
3, ,263, ,
3, ,264, ,
3, ,264, ,
1, ,264, ,
5, ,264, ,
1, ,264, ,
1, ,264, ,
4, ,264, ,
3, ,264, ,
1, ,264, ,
4, ,264, ,
3, ,264, ,
3, ,264, ,
3, ,264, ,
3, ,264, ,
1, ,264, ,
4, ,264, ,
1, ,264, ,
1, ,264, ,
3, ,265, ,
3, ,264, ,
1, ,265, ,
4, ,265, ,
3, ,264, ,
3, ,265, ,
3, ,264, ,
4, ,264, ,
1, ,264, ,
4, ,265, ,
3, ,265, ,
3, ,265, ,
3, ,266, ,
4, ,264, ,
0, ,264, ,
4, ,264, ,
1, ,264, ,
1, ,264, ,
3, ,265, ,
3, ,264, ,
1, ,264, ,
4, ,264, ,
1, ,265, ,
3, ,264, ,
3, ,264, ,
3, ,264, ,
1, ,265, ,
4, ,264, ,
3, ,265, ,
3, ,265, ,
3, ,265, ,
3, ,264, ,
1, ,265, ,
4, ,264, ,
1, ,265, ,
1, ,264, ,
3, ,264, ,
3, ,264, ,
1, ,265, ,
4, ,264, ,
3, ,265, ,
1, ,264, ,
3, ,265, ,
3, ,264, ,
1, ,264, ,
4, ,264, ,
1, ,264, ,
3, ,264, ,
3, ,264, ,
3, ,264, ,
0, ,265, ,
4, ,264, ,
3, ,264, ,
3, ,264, ,
3, ,264, ,
3, ,264, ,
1, ,264, ,
4, ,265, ,
1, ,264, ,
1, ,264, ,
3, ,265, ,
3, ,264, ,
0, ,265, ,
4, ,264, ,
1, ,264, ,
1, ,264, ,
3, ,265, ,
3, ,264, ,
1, ,264, ,
4, ,264, ,
1, ,265, ,
1, ,264, ,
3, ,264, ,
3, ,264, ,
1, ,264, ,
4, ,264, ,
3, ,264, ,
1, ,264, ,
3, ,264, ,
3, ,264, ,
1, ,264, ,
4, ,264, ,
1, ,264, ,
1, ,264, ,
3, ,264, ,
3, ,264, ,
0, ,265, ,
4, ,264, ,
3, ,264, ,
1, ,265, ,
3, ,265, ,
3, ,264, ,
1, ,265, ,
3, ,265, ,
1, ,264, ,
1, ,264, ,
3, ,264, ,
3, ,265, ,
1, ,265, ,
4, ,265, ,
1, ,265, ,
1, ,264, ,
3, ,265, ,
3, ,265, ,
1, ,264, ,
4, ,264, ,
1, ,265, ,
1, ,264, ,
3, ,265, ,
3, ,264, ,
0, ,265, ,
4, ,263, ,
1, ,265, ,
3, ,264, ,
3, ,264, ,
3, ,264, ,
1, ,264, ,
4, ,264, ,
1, ,264, ,
1, ,264, ,
3, ,264, ,
3, ,265, ,
0, ,264, ,
