src/vary_led_1562/temq0001723.CSV

Format,1.0B,
Memory Length,10000,Memory Length,10000,
IntpDistance,0,IntpDistance,0,
Trigger Address,5049,Trigger Address,5049,
Trigger Level,2.800E-01,Trigger Level,2.800E-01,
Source,CH1,Source,CH2,
Vertical Units,V,Vertical Units,V,
Vertical Units Div,0,Vertical Units Div,0,
Vertical Units Extend Div,16,Vertical Units Extend Div,16,
Label,,Label,,
Probe Type,0,Probe Type,0,
Probe Ratio,1.000e+01,Probe Ratio,1.000e+00,
Vertical Scale,5.000e-01,Vertical Scale,2.000e-01,
Vertical Position,-1.780e+00,Vertical Position,-2.240e+00,
Horizontal Units,S,Horizontal Units,S,
Horizontal Scale,2.000E-05,Horizontal Scale,2.000E-05,
Horizontal Position,-1.000E-06,Horizontal Position,-1.000E-06,
Horizontal Mode,Main,Horizontal Mode,Main,
SincET Mode,Real Time,SincET Mode,Real Time,
Sampling Period,2.000e-08,Sampling Period,2.000e-08,
Horizontal Old Scale,2.000E-05,Horizontal Old Scale,2.000E-05,
Horizontal Old Position,-1.000E-06,Horizontal Old Position,-1.000E-06,
Firmware,V1.23,Firmware,V1.23,
Mode,Fast,Mode,Fast,
Waveform Data,,Waveform Data,,
1, ,280, ,
0, ,278, ,
3, ,279, ,
0, ,278, ,
0, ,279, ,
1, ,279, ,
1, ,279, ,
0, ,279, ,
3, ,280, ,
0, ,278, ,
0, ,279, ,
1, ,279, ,
1, ,279, ,
0, ,278, ,
3, ,279, ,
1, ,279, ,
0, ,279, ,
1, ,278, ,
1, ,278, ,
0, ,278, ,
3, ,280, ,
0, ,278, ,
0, ,279, ,
1, ,278, ,
1, ,278, ,
0, ,278, ,
3, ,279, ,
0, ,278, ,
0, ,279, ,
3, ,278, ,
1, ,279, ,
0, ,278, ,
3, ,279, ,
0, ,278, ,
0, ,279, ,
1, ,278, ,
1, ,279, ,
-1, ,278, ,
3, ,279, ,
0, ,279, ,
0, ,279, ,
1, ,278, ,
1, ,279, ,
-1, ,278, ,
3, ,280, ,
0, ,278, ,
0, ,279, ,
1, ,278, ,
1, ,279, ,
0, ,278, ,
3, ,278, ,
0, ,278, ,
0, ,280, ,
1, ,279, ,
1, ,269, ,
-1, ,277, ,
3, ,287, ,
0, ,284, ,
0, ,277, ,
1, ,274, ,
1, ,279, ,
-1, ,279, ,
3, ,279, ,
0, ,279, ,
0, ,280, ,
1, ,278, ,
1, ,279, ,
-1, ,279, ,
3, ,279, ,
0, ,278, ,
0, ,278, ,
1, ,279, ,
1, ,279, ,
0, ,278, ,
3, ,280, ,
0, ,279, ,
0, ,279, ,
1, ,277, ,
1, ,279, ,
-1, ,278, ,
3, ,280, ,
0, ,278, ,
0, ,278, ,
1, ,279, ,
1, ,278, ,
0, ,278, ,
3, ,279, ,
0, ,278, ,
0, ,279, ,
1, ,278, ,
1, ,279, ,
0, ,278, ,
3, ,279, ,
0, ,279, ,
0, ,279, ,
1, ,279, ,
1, ,279, ,
0, ,278, ,
3, ,279, ,
0, ,279, ,
0, ,279, ,
1, ,278, ,
128, ,279, ,
75, ,279, ,
46, ,279, ,
30, ,279, ,
22, ,279, ,
13, ,279, ,
6, ,279, ,
5, ,278, ,
9, ,279, ,
4, ,278, ,
1, ,279, ,
4, ,278, ,
4, ,279, ,
3, ,279, ,
4, ,279, ,
1, ,278, ,
3, ,279, ,
4, ,279, ,
4, ,279, ,
1, ,278, ,
5, ,278, ,
3, ,278, ,
3, ,279, ,
4, ,278, ,
3, ,279, ,
1, ,279, ,
5, ,280, ,
3, ,279, ,
3, ,279, ,
4, ,279, ,
3, ,280, ,
1, ,278, ,
5, ,279, ,
3, ,279, ,
3, ,279, ,
4, ,279, ,
4, ,279, ,
1, ,278, ,
5, ,279, ,
3, ,278, ,
3, ,279, ,
3, ,279, ,
3, ,279, ,
1, ,278, ,
4, ,279, ,
3, ,278, ,
3, ,279, ,
4, ,278, ,
4, ,279, ,
1, ,279, ,
5, ,279, ,
1, ,278, ,
3, ,279, ,
3, ,279, ,
4, ,279, ,
1, ,278, ,
4, ,279, ,
1, ,279, ,
3, ,279, ,
3, ,278, ,
4, ,279, ,
1, ,279, ,
5, ,279, ,
1, ,278, ,
3, ,279, ,
3, ,279, ,
3, ,280, ,
1, ,278, ,
4, ,278, ,
3, ,278, ,
1, ,280, ,
3, ,278, ,
4, ,279, ,
1, ,279, ,
4, ,279, ,
1, ,279, ,
1, ,278, ,
3, ,278, ,
3, ,279, ,
1, ,278, ,
4, ,279, ,
1, ,278, ,
3, ,279, ,
3, ,278, ,
3, ,280, ,
1, ,279, ,
4, ,279, ,
1, ,278, ,
3, ,279, ,
3, ,279, ,
3, ,279, ,
1, ,278, ,
4, ,278, ,
1, ,279, ,
1, ,279, ,
3, ,278, ,
3, ,279, ,
1, ,279, ,
4, ,279, ,
1, ,278, ,
1, ,279, ,
3, ,279, ,
3, ,279, ,
1, ,278, ,
4, ,279, ,
1, ,279, ,
3, ,279, ,
3, ,278, ,
4, ,279, ,
1, ,279, ,
4, ,279, ,
1, ,278, ,
1, ,279, ,
3, ,279, ,
4, ,279, ,
1, ,278, ,
4, ,278, ,
3, ,279, ,
1, ,279, ,
3, ,278, ,
3, ,279, ,
1, ,278, ,
4, ,279, ,
1, ,278, ,
1, ,279, ,
3, ,278, ,
3, ,279, ,
1, ,278, ,
4, ,278, ,
1, ,279, ,
1, ,279, ,
3, ,278, ,
3, ,279, ,
1, ,279, ,
4, ,280, ,
1, ,279, ,
1, ,279, ,
3, ,278, ,
3, ,279, ,
1, ,278, ,
4, ,278, ,
1, ,278, ,
1, ,279, ,
3, ,278, ,
3, ,278, ,
1, ,278, ,
4, ,279, ,
1, ,279, ,
1, ,279, ,
3, ,278, ,
3, ,279, ,
1, ,278, ,
4, ,279, ,
1, ,278, ,
1, ,279, ,
3, ,277, ,
3, ,279, ,
1, ,279, ,
5, ,279, ,
1, ,278, ,
1, ,279, ,
3, ,279, ,
3, ,279, ,
0, ,278, ,
4, ,278, ,
1, ,279, ,
1, ,280, ,
3, ,278, ,
3, ,279, ,
1, ,279, ,
4, ,279, ,
1, ,279, ,
1, ,278, ,
3, ,277, ,
3, ,279, ,
0, ,279, ,
4, ,279, ,
1, ,278, ,
1, ,279, ,
3, ,279, ,
3, ,280, ,
1, ,279, ,
4, ,279, ,
1, ,278, ,
1, ,279, ,
3, ,279, ,
3, ,279, ,
0, ,278, ,
4, ,279, ,
1, ,278, ,
1, ,279, ,
3, ,278, ,
3, ,279, ,
0, ,278, ,
4, ,279, ,
1, ,278, ,
1, ,279, ,
3, ,278, ,
3, ,279, ,
0, ,278, ,
4, ,279, ,
1, ,279, ,
1, ,278, ,
3, ,278, ,
3, ,279, ,
0, ,279, ,
4, ,279, ,
1, ,278, ,
1, ,278, ,
3, ,278, ,
3, ,279, ,
0, ,278, ,
3, ,279, ,
1, ,279, ,
1, ,278, ,
3, ,278, ,
3, ,278, ,
0, ,279, ,
4, ,279, ,
1, ,278, ,
1, ,279, ,
3, ,278, ,
3, ,279, ,
0, ,279, ,
3, ,279, ,
1, ,279, ,
1, ,280, ,
3, ,278, ,
3, ,279, ,
0, ,279, ,
3, ,279, ,
1, ,278, ,
1, ,280, ,
3, ,278, ,
3, ,280, ,
0, ,278, ,
3, ,278, ,
1, ,279, ,
1, ,279, ,
3, ,278, ,
3, ,278, ,
0, ,279, ,
4, ,279, ,
1, ,278, ,
1, ,278, ,
3, ,278, ,
3, ,279, ,
0, ,278, ,
4, ,279, ,
1, ,278, ,
1, ,279, ,
3, ,279, ,
3, ,279, ,
0, ,278, ,
4, ,280, ,
1, ,278, ,
1, ,279, ,
3, ,279, ,
3, ,279, ,
0, ,278, ,
3, ,279, ,
1, ,278, ,
1, ,279, ,
3, ,278, ,
3, ,279, ,
0, ,279, ,
4, ,279, ,
1, ,278, ,
1, ,279, ,
3, ,278, ,
3, ,278, ,
0, ,279, ,
3, ,279, ,
1, ,279, ,
1, ,279, ,
3, ,278, ,
3, ,278, ,
0, ,279, ,
4, ,279, ,
1, ,278, ,
1, ,279, ,
3, ,279, ,
3, ,279, ,
0, ,278, ,
4, ,278, ,
1, ,278, ,
1, ,278, ,
3, ,278, ,
3, ,278, ,
0, ,278, ,
4, ,279, ,
1, ,279, ,
1, ,279, ,
3, ,279, ,
1, ,279, ,
0, ,278, ,
3, ,279, ,
1, ,279, ,
1, ,279, ,
3, ,279, ,
1, ,279, ,
0, ,278, ,
3, ,279, ,
1, ,278, ,
1, ,279, ,
3, ,278, ,
3, ,279, ,
0, ,278, ,
4, ,279, ,
1, ,278, ,
1, ,279, ,
3, ,278, ,
1, ,279, ,
0, ,278, ,
4, ,279, ,
1, ,278, ,
1, ,279, ,
3, ,278, ,
1, ,279, ,
0, ,279, ,
4, ,279, ,
1, ,278, ,
1, ,279, ,
3, ,278, ,
1, ,278, ,
0, ,278, ,
4, ,279, ,
1, ,278, ,
1, ,279, ,
3, ,278, ,
3, ,279, ,
0, ,278, ,
3, ,279, ,
1, ,279, ,
1, ,279, ,
3, ,278, ,
3, ,279, ,
0, ,279, ,
3, ,279, ,
1, ,278, ,
1, ,279, ,
3, ,278, ,
3, ,279, ,
0, ,278, ,
3, ,279, ,
1, ,278, ,
1, ,280, ,
3, ,278, ,
1, ,279, ,
0, ,279, ,
3, ,279, ,
1, ,278, ,
1, ,279, ,
3, ,278, ,
3, ,279, ,
0, ,278, ,
3, ,279, ,
1, ,278, ,
1, ,279, ,
3, ,277, ,
1, ,279, ,
0, ,278, ,
3, ,279, ,
1, ,278, ,
1, ,278, ,
3, ,279, ,
1, ,279, ,
0, ,278, ,
3, ,279, ,
1, ,279, ,
1, ,279, ,
3, ,278, ,
1, ,278, ,
0, ,279, ,
3, ,280, ,
1, ,279, ,
1, ,279, ,
3, ,279, ,
1, ,279, ,
0, ,278, ,
3, ,278, ,
1, ,278, ,
1, ,280, ,
3, ,278, ,
3, ,279, ,
0, ,278, ,
3, ,278, ,
1, ,278, ,
1, ,279, ,
3, ,279, ,
3, ,279, ,
0, ,278, ,
3, ,279, ,
1, ,278, ,
1, ,279, ,
3, ,278, ,
1, ,279, ,
0, ,277, ,
3, ,278, ,
1, ,277, ,
1, ,279, ,
3, ,278, ,
3, ,280, ,
0, ,278, ,
3, ,279, ,
1, ,278, ,
1, ,279, ,
3, ,277, ,
1, ,279, ,
0, ,279, ,
3, ,279, ,
1, ,279, ,
1, ,279, ,
3, ,278, ,
1, ,278, ,
0, ,278, ,
3, ,278, ,
1, ,278, ,
1, ,279, ,
3, ,278, ,
1, ,279, ,
0, ,278, ,
4, ,280, ,
1, ,277, ,
1, ,279, ,
1, ,279, ,
1, ,279, ,
0, ,278, ,
3, ,279, ,
1, ,279, ,
1, ,279, ,
3, ,279, ,
1, ,278, ,
0, ,279, ,
3, ,279, ,
1, ,278, ,
1, ,277, ,
3, ,278, ,
1, ,273, ,
0, ,277, ,
3, ,284, ,
1, ,283, ,
1, ,279, ,
3, ,276, ,
1, ,278, ,
0, ,279, ,
3, ,279, ,
1, ,278, ,
1, ,280, ,
3, ,279, ,
1, ,278, ,
0, ,277, ,
3, ,279, ,
0, ,279, ,
1, ,279, ,
1, ,278, ,
1, ,279, ,
0, ,277, ,
3, ,279, ,
1, ,278, ,
0, ,278, ,
1, ,278, ,
1, ,279, ,
0, ,278, ,
3, ,279, ,
1, ,277, ,
1, ,280, ,
3, ,278, ,
1, ,278, ,
0, ,279, ,
3, ,279, ,
1, ,278, ,
1, ,279, ,
1, ,278, ,
1, ,279, ,
0, ,278, ,
3, ,279, ,
1, ,278, ,
1, ,279, ,
3, ,278, ,
1, ,279, ,
0, ,279, ,
3, ,279, ,
1, ,278, ,
0, ,278, ,
3, ,278, ,
1, ,279, ,
0, ,278, ,
3, ,279, ,
1, ,278, ,
1, ,279, ,
1, ,278, ,
1, ,279, ,
0, ,279, ,
3, ,279, ,
1, ,278, ,
0, ,278, ,
1, ,278, ,
1, ,279, ,
0, ,278, ,
3, ,279, ,
1, ,278, ,
1, ,279, ,
3, ,278, ,
1, ,279, ,
0, ,279, ,
3, ,279, ,
1, ,278, ,
1, ,278, ,
3, ,278, ,
1, ,279, ,
0, ,278, ,
3, ,279, ,
1, ,279, ,
0, ,279, ,
3, ,278, ,
1, ,279, ,
0, ,279, ,
3, ,279, ,
1, ,278, ,
0, ,278, ,
3, ,279, ,
1, ,279, ,
0, ,279, ,
3, ,278, ,
1, ,279, ,
0, ,279, ,
3, ,278, ,
1, ,279, ,
0, ,279, ,
3, ,279, ,
0, ,277, ,
0, ,279, ,
3, ,279, ,
1, ,279, ,
0, ,278, ,
3, ,279, ,
1, ,279, ,
0, ,279, ,
3, ,278, ,
1, ,280, ,
0, ,278, ,
3, ,279, ,
0, ,279, ,
1, ,279, ,
1, ,279, ,
1, ,279, ,
0, ,278, ,
3, ,279, ,
1, ,278, ,
0, ,280, ,
3, ,279, ,
1, ,279, ,
0, ,278, ,
3, ,279, ,
0, ,278, ,
1, ,279, ,
3, ,278, ,
1, ,279, ,
0, ,278, ,
3, ,279, ,
0, ,279, ,
0, ,279, ,
1, ,279, ,
1, ,279, ,
0, ,279, ,
3, ,279, ,
0, ,278, ,
0, ,278, ,
3, ,279, ,
1, ,279, ,
0, ,278, ,
3, ,279, ,
0, ,278, ,
0, ,279, ,
1, ,278, ,
1, ,278, ,
0, ,279, ,
3, ,279, ,
0, ,278, ,
0, ,279, ,
1, ,279, ,
1, ,279, ,
0, ,278, ,
3, ,279, ,
0, ,279, ,
1, ,279, ,
3, ,278, ,
1, ,278, ,
0, ,279, ,
3, ,279, ,
0, ,278, ,
0, ,279, ,
1, ,278, ,
1, ,280, ,
0, ,278, ,
3, ,279, ,
1, ,278, ,
0, ,279, ,
1, ,277, ,
1, ,279, ,
0, ,278, ,
3, ,278, ,
0, ,277, ,
0, ,279, ,
1, ,278, ,
1, ,279, ,
-1, ,278, ,
3, ,279, ,
1, ,278, ,
0, ,279, ,
1, ,278, ,
1, ,278, ,
0, ,279, ,
4, ,279, ,
0, ,278, ,
0, ,279, ,
1, ,279, ,
1, ,279, ,
0, ,278, ,
3, ,278, ,
1, ,279, ,
0, ,279, ,
3, ,276, ,
1, ,278, ,
0, ,278, ,
3, ,280, ,
0, ,279, ,
0, ,279, ,
1, ,279, ,
1, ,279, ,
0, ,278, ,
3, ,278, ,
1, ,279, ,
1, ,279, ,
3, ,278, ,
1, ,279, ,
-1, ,278, ,
3, ,279, ,
0, ,278, ,
0, ,278, ,
1, ,278, ,
1, ,279, ,
0, ,278, ,
3, ,278, ,
1, ,278, ,
0, ,279, ,
3, ,278, ,
1, ,279, ,
0, ,278, ,
3, ,279, ,
0, ,278, ,
0, ,278, ,
3, ,279, ,
1, ,279, ,
0, ,278, ,
3, ,278, ,
1, ,278, ,
0, ,279, ,
1, ,278, ,
1, ,279, ,
0, ,278, ,
3, ,279, ,
0, ,278, ,
1, ,279, ,
1, ,278, ,
1, ,279, ,
-1, ,278, ,
3, ,279, ,
0, ,278, ,
0, ,279, ,
1, ,278, ,
1, ,279, ,
-1, ,279, ,
3, ,279, ,
0, ,278, ,
0, ,279, ,
1, ,277, ,
1, ,279, ,
0, ,278, ,
3, ,278, ,
0, ,279, ,
0, ,280, ,
1, ,278, ,
1, ,279, ,
0, ,279, ,
3, ,279, ,
0, ,278, ,
0, ,279, ,
1, ,278, ,
1, ,279, ,
0, ,278, ,
3, ,279, ,
0, ,278, ,
0, ,279, ,
1, ,278, ,
1, ,280, ,
0, ,278, ,
3, ,279, ,
0, ,278, ,
0, ,279, ,
3, ,278, ,
1, ,279, ,
0, ,278, ,
3, ,279, ,
0, ,278, ,
0, ,279, ,
1, ,278, ,
1, ,279, ,
0, ,279, ,
3, ,279, ,
0, ,278, ,
0, ,279, ,
3, ,279, ,
1, ,279, ,
0, ,278, ,
3, ,278, ,
0, ,277, ,
0, ,279, ,
1, ,278, ,
1, ,278, ,
-1, ,279, ,
3, ,279, ,
0, ,278, ,
0, ,279, ,
1, ,278, ,
1, ,279, ,
-1, ,278, ,
3, ,279, ,
1, ,279, ,
0, ,279, ,
3, ,278, ,
1, ,279, ,
0, ,279, ,
4, ,280, ,
0, ,278, ,
0, ,279, ,
1, ,278, ,
3, ,279, ,
-1, ,278, ,
3, ,279, ,
0, ,277, ,
0, ,280, ,
1, ,278, ,
1, ,279, ,
0, ,278, ,
3, ,280, ,
0, ,278, ,
0, ,279, ,
1, ,278, ,
1, ,280, ,
0, ,278, ,
3, ,278, ,
0, ,278, ,
0, ,279, ,
1, ,278, ,
1, ,278, ,
0, ,278, ,
3, ,280, ,
0, ,278, ,
0, ,277, ,
1, ,275, ,
1, ,275, ,
-1, ,276, ,
3, ,282, ,
0, ,285, ,
0, ,284, ,
1, ,275, ,
1, ,271, ,
-1, ,276, ,
3, ,281, ,
0, ,279, ,
0, ,277, ,
1, ,278, ,
1, ,280, ,
0, ,277, ,
4, ,278, ,
1, ,278, ,
0, ,279, ,
1, ,278, ,
1, ,278, ,
0, ,278, ,
3, ,279, ,
0, ,277, ,
0, ,279, ,
1, ,279, ,
1, ,279, ,
-1, ,277, ,
3, ,278, ,
0, ,278, ,
0, ,279, ,
3, ,278, ,
1, ,279, ,
-1, ,278, ,
3, ,279, ,
0, ,278, ,
0, ,279, ,
1, ,278, ,
1, ,280, ,
0, ,277, ,
3, ,278, ,
0, ,279, ,
0, ,279, ,
1, ,278, ,
1, ,279, ,
0, ,278, ,
3, ,279, ,
0, ,277, ,
0, ,278, ,
1, ,278, ,
1, ,279, ,
-1, ,278, ,
3, ,278, ,
0, ,278, ,
0, ,278, ,
1, ,278, ,
1, ,277, ,
0, ,278, ,
4, ,279, ,
0, ,277, ,
0, ,279, ,
1, ,278, ,
1, ,280, ,
0, ,278, ,
3, ,279, ,
0, ,278, ,
0, ,279, ,
1, ,277, ,
1, ,279, ,
0, ,278, ,
3, ,279, ,
0, ,278, ,
0, ,278, ,
1, ,278, ,
1, ,279, ,
0, ,278, ,
3, ,278, ,
0, ,278, ,
0, ,278, ,
1, ,276, ,
1, ,278, ,
0, ,279, ,
3, ,279, ,
0, ,278, ,
0, ,279, ,
1, ,278, ,
1, ,280, ,
0, ,277, ,
3, ,277, ,
0, ,279, ,
0, ,279, ,
1, ,278, ,
1, ,279, ,
-1, ,279, ,
3, ,279, ,
0, ,278, ,
0, ,278, ,
3, ,277, ,
1, ,279, ,
0, ,278, ,
3, ,279, ,
0, ,278, ,
0, ,279, ,
1, ,278, ,
1, ,278, ,
-1, ,278, ,
3, ,278, ,
0, ,278, ,
0, ,279, ,
1, ,279, ,
1, ,281, ,
0, ,279, ,
3, ,277, ,
0, ,277, ,
0, ,279, ,
1, ,279, ,
1, ,279, ,
0, ,280, ,
3, ,281, ,
0, ,280, ,
0, ,278, ,
3, ,278, ,
1, ,279, ,
0, ,279, ,
3, ,280, ,
0, ,279, ,
0, ,279, ,
1, ,277, ,
1, ,279, ,
-1, ,279, ,
3, ,280, ,
0, ,278, ,
0, ,279, ,
3, ,278, ,
1, ,280, ,
0, ,278, ,
3, ,279, ,
0, ,279, ,
0, ,279, ,
1, ,277, ,
1, ,278, ,
0, ,279, ,
3, ,279, ,
0, ,278, ,
0, ,279, ,
1, ,279, ,
1, ,279, ,
-1, ,278, ,
3, ,280, ,
0, ,279, ,
0, ,279, ,
1, ,278, ,
1, ,279, ,
-1, ,279, ,
3, ,279, ,
0, ,278, ,
0, ,278, ,
1, ,279, ,
1, ,280, ,
-1, ,278, ,
3, ,279, ,
0, ,279, ,
0, ,279, ,
1, ,278, ,
1, ,278, ,
-1, ,279, ,
3, ,279, ,
0, ,278, ,
0, ,279, ,
1, ,279, ,
1, ,280, ,
-1, ,277, ,
3, ,279, ,
0, ,279, ,
0, ,279, ,
1, ,278, ,
1, ,279, ,
-1, ,278, ,
3, ,279, ,
0, ,277, ,
0, ,279, ,
1, ,278, ,
1, ,280, ,
0, ,278, ,
3, ,279, ,
0, ,279, ,
0, ,279, ,
1, ,278, ,
1, ,279, ,
0, ,278, ,
3, ,280, ,
0, ,278, ,
0, ,279, ,
1, ,279, ,
1, ,279, ,
0, ,278, ,
3, ,279, ,
0, ,279, ,
0, ,279, ,
1, ,278, ,
1, ,279, ,
-1, ,278, ,
3, ,279, ,
0, ,278, ,
0, ,279, ,
1, ,279, ,
1, ,280, ,
0, ,278, ,
3, ,279, ,
0, ,278, ,
0, ,279, ,
1, ,279, ,
1, ,279, ,
0, ,280, ,
3, ,279, ,
0, ,278, ,
0, ,279, ,
1, ,278, ,
1, ,279, ,
-1, ,278, ,
3, ,278, ,
0, ,278, ,
0, ,279, ,
1, ,278, ,
1, ,279, ,
-1, ,278, ,
3, ,279, ,
0, ,278, ,
0, ,279, ,
1, ,278, ,
1, ,279, ,
0, ,279, ,
3, ,280, ,
0, ,278, ,
0, ,279, ,
1, ,278, ,
1, ,279, ,
0, ,278, ,
3, ,279, ,
0, ,278, ,
1, ,279, ,
1, ,279, ,
1, ,280, ,
0, ,278, ,
3, ,278, ,
0, ,279, ,
1, ,279, ,
1, ,278, ,
3, ,279, ,
0, ,278, ,
1, ,279, ,
0, ,278, ,
0, ,278, ,
1, ,279, ,
1, ,279, ,
0, ,278, ,
3, ,279, ,
0, ,279, ,
0, ,279, ,
1, ,279, ,
1, ,279, ,
-1, ,278, ,
3, ,280, ,
0, ,278, ,
0, ,279, ,
1, ,278, ,
1, ,280, ,
-1, ,278, ,
3, ,279, ,
0, ,279, ,
0, ,280, ,
1, ,278, ,
1, ,279, ,
0, ,279, ,
3, ,280, ,
0, ,278, ,
0, ,279, ,
1, ,279, ,
0, ,279, ,
-1, ,278, ,
1, ,279, ,
0, ,279, ,
0, ,279, ,
1, ,278, ,
1, ,279, ,
-1, ,278, ,
3, ,279, ,
0, ,278, ,
0, ,279, ,
1, ,278, ,
1, ,279, ,
-1, ,278, ,
3, ,278, ,
0, ,278, ,
0, ,279, ,
1, ,279, ,
1, ,279, ,
-1, ,278, ,
3, ,279, ,
0, ,278, ,
0, ,277, ,
1, ,278, ,
1, ,280, ,
-1, ,278, ,
3, ,278, ,
0, ,278, ,
0, ,279, ,
1, ,278, ,
1, ,280, ,
-1, ,279, ,
3, ,279, ,
0, ,278, ,
0, ,279, ,
1, ,278, ,
1, ,279, ,
-1, ,278, ,
3, ,278, ,
0, ,278, ,
0, ,280, ,
1, ,277, ,
1, ,279, ,
-1, ,279, ,
3, ,280, ,
0, ,278, ,
0, ,279, ,
1, ,279, ,
1, ,279, ,
-1, ,278, ,
1, ,279, ,
0, ,278, ,
0, ,279, ,
3, ,277, ,
3, ,279, ,
0, ,279, ,
3, ,280, ,
0, ,278, ,
0, ,278, ,
1, ,278, ,
1, ,279, ,
0, ,277, ,
1, ,279, ,
0, ,279, ,
0, ,279, ,
1, ,277, ,
1, ,278, ,
0, ,278, ,
3, ,279, ,
0, ,278, ,
0, ,279, ,
1, ,278, ,
1, ,280, ,
0, ,278, ,
3, ,278, ,
0, ,278, ,
0, ,279, ,
1, ,278, ,
1, ,278, ,
0, ,278, ,
3, ,279, ,
0, ,278, ,
0, ,278, ,
1, ,279, ,
1, ,280, ,
-1, ,278, ,
1, ,278, ,
0, ,279, ,
0, ,279, ,
1, ,278, ,
1, ,279, ,
0, ,278, ,
3, ,279, ,
0, ,278, ,
0, ,279, ,
1, ,279, ,
1, ,280, ,
0, ,278, ,
1, ,279, ,
0, ,279, ,
0, ,279, ,
1, ,278, ,
1, ,279, ,
-1, ,279, ,
3, ,279, ,
0, ,278, ,
0, ,279, ,
1, ,278, ,
1, ,280, ,
0, ,278, ,
3, ,278, ,
0, ,278, ,
0, ,279, ,
1, ,279, ,
1, ,280, ,
0, ,278, ,
3, ,279, ,
0, ,278, ,
0, ,279, ,
1, ,280, ,
1, ,280, ,
0, ,278, ,
1, ,279, ,
0, ,278, ,
0, ,279, ,
1, ,279, ,
1, ,279, ,
0, ,278, ,
1, ,279, ,
0, ,278, ,
0, ,279, ,
1, ,277, ,
1, ,279, ,
0, ,278, ,
1, ,279, ,
0, ,279, ,
0, ,279, ,
1, ,278, ,
1, ,279, ,
-1, ,278, ,
3, ,278, ,
0, ,278, ,
0, ,279, ,
1, ,279, ,
1, ,279, ,
0, ,278, ,
1, ,279, ,
0, ,279, ,
0, ,279, ,
1, ,278, ,
1, ,279, ,
-1, ,278, ,
3, ,279, ,
0, ,278, ,
0, ,279, ,
1, ,279, ,
1, ,279, ,
-1, ,278, ,
1, ,278, ,
0, ,279, ,
0, ,280, ,
1, ,279, ,
1, ,278, ,
-1, ,278, ,
3, ,279, ,
0, ,278, ,
0, ,278, ,
1, ,278, ,
1, ,280, ,
0, ,278, ,
3, ,278, ,
0, ,279, ,
0, ,279, ,
1, ,278, ,
1, ,278, ,
0, ,278, ,
3, ,280, ,
0, ,278, ,
0, ,278, ,
1, ,278, ,
1, ,280, ,
0, ,278, ,
3, ,279, ,
114, ,279, ,
70, ,279, ,
38, ,278, ,
24, ,279, ,
19, ,278, ,
15, ,280, ,
8, ,278, ,
4, ,279, ,
6, ,278, ,
5, ,278, ,
3, ,278, ,
4, ,279, ,
3, ,279, ,
3, ,280, ,
4, ,278, ,
4, ,278, ,
1, ,279, ,
4, ,279, ,
3, ,277, ,
3, ,279, ,
4, ,278, ,
4, ,279, ,
1, ,278, ,
4, ,278, ,
1, ,279, ,
3, ,279, ,
4, ,279, ,
4, ,279, ,
1, ,278, ,
4, ,278, ,
3, ,278, ,
3, ,279, ,
4, ,278, ,
4, ,280, ,
1, ,278, ,
4, ,279, ,
1, ,278, ,
3, ,279, ,
4, ,279, ,
4, ,279, ,
1, ,279, ,
4, ,280, ,
3, ,278, ,
3, ,279, ,
3, ,279, ,
4, ,280, ,
1, ,278, ,
4, ,279, ,
3, ,279, ,
3, ,279, ,
4, ,278, ,
4, ,279, ,
1, ,279, ,
5, ,279, ,
1, ,278, ,
1, ,278, ,
3, ,278, ,
4, ,279, ,
1, ,278, ,
4, ,278, ,
3, ,277, ,
3, ,279, ,
3, ,280, ,
4, ,281, ,
1, ,279, ,
4, ,280, ,
3, ,278, ,
1, ,279, ,
3, ,278, ,
4, ,278, ,
1, ,278, ,
4, ,280, ,
3, ,279, ,
3, ,280, ,
3, ,278, ,
3, ,279, ,
1, ,278, ,
4, ,279, ,
3, ,277, ,
1, ,279, ,
3, ,278, ,
3, ,280, ,
1, ,278, ,
4, ,279, ,
1, ,278, ,
1, ,279, ,
3, ,278, ,
4, ,279, ,
1, ,279, ,
4, ,279, ,
3, ,278, ,
3, ,279, ,
3, ,278, ,
4, ,279, ,
1, ,278, ,
4, ,278, ,
1, ,278, ,
1, ,279, ,
3, ,278, ,
3, ,279, ,
1, ,279, ,
4, ,280, ,
1, ,278, ,
1, ,279, ,
3, ,279, ,
3, ,279, ,
1, ,279, ,
4, ,279, ,
3, ,279, ,
3, ,279, ,
3, ,278, ,
3, ,279, ,
1, ,278, ,
4, ,280, ,
3, ,278, ,
1, ,279, ,
3, ,279, ,
3, ,279, ,
1, ,278, ,
4, ,278, ,
3, ,279, ,
1, ,279, ,
3, ,279, ,
3, ,279, ,
1, ,278, ,
4, ,279, ,
1, ,278, ,
1, ,279, ,
3, ,279, ,
4, ,279, ,
1, ,277, ,
4, ,279, ,
1, ,278, ,
3, ,279, ,
3, ,278, ,
3, ,279, ,
1, ,278, ,
42, ,279, ,
28, ,278, ,
18, ,279, ,
13, ,278, ,
10, ,279, ,
6, ,278, ,
6, ,279, ,
5, ,279, ,
5, ,279, ,
6, ,279, ,
4, ,279, ,
3, ,279, ,
5, ,279, ,
3, ,277, ,
3, ,279, ,
4, ,279, ,
4, ,279, ,
1, ,278, ,
4, ,279, ,
3, ,279, ,
3, ,279, ,
4, ,278, ,
4, ,279, ,
1, ,278, ,
5, ,279, ,
3, ,278, ,
1, ,278, ,
4, ,279, ,
4, ,279, ,
1, ,279, ,
4, ,279, ,
3, ,279, ,
3, ,280, ,
4, ,278, ,
4, ,279, ,
1, ,278, ,
5, ,279, ,
3, ,278, ,
3, ,279, ,
4, ,278, ,
4, ,280, ,
1, ,278, ,
4, ,278, ,
3, ,279, ,
3, ,279, ,
4, ,278, ,
4, ,279, ,
1, ,278, ,
5, ,279, ,
3, ,279, ,
1, ,278, ,
4, ,279, ,
4, ,280, ,
1, ,278, ,
4, ,278, ,
1, ,278, ,
3, ,279, ,
3, ,278, ,
3, ,279, ,
1, ,279, ,
5, ,279, ,
3, ,278, ,
3, ,279, ,
3, ,278, ,
3, ,279, ,
1, ,278, ,
4, ,278, ,
1, ,279, ,
3, ,278, ,
3, ,278, ,
3, ,279, ,
1, ,279, ,
4, ,279, ,
1, ,279, ,
3, ,279, ,
3, ,279, ,
3, ,279, ,
1, ,278, ,
4, ,279, ,
1, ,278, ,
3, ,279, ,
3, ,278, ,
3, ,279, ,
1, ,279, ,
4, ,279, ,
1, ,278, ,
3, ,279, ,
3, ,278, ,
4, ,279, ,
1, ,278, ,
4, ,279, ,
3, ,280, ,
3, ,279, ,
3, ,278, ,
4, ,279, ,
1, ,278, ,
4, ,279, ,
1, ,277, ,
1, ,278, ,
3, ,278, ,
4, ,279, ,
1, ,278, ,
4, ,279, ,
1, ,278, ,
3, ,279, ,
4, ,278, ,
3, ,279, ,
1, ,278, ,
4, ,279, ,
3, ,278, ,
1, ,279, ,
3, ,279, ,
4, ,279, ,
1, ,277, ,
4, ,279, ,
3, ,279, ,
3, ,279, ,
3, ,278, ,
3, ,279, ,
1, ,279, ,
4, ,279, ,
3, ,278, ,
1, ,279, ,
3, ,279, ,
4, ,279, ,
1, ,278, ,
4, ,279, ,
1, ,278, ,
1, ,278, ,
3, ,278, ,
3, ,278, ,
1, ,279, ,
4, ,280, ,
3, ,278, ,
1, ,278, ,
3, ,279, ,
4, ,280, ,
1, ,278, ,
4, ,279, ,
3, ,278, ,
1, ,279, ,
3, ,278, ,
3, ,278, ,
1, ,277, ,
4, ,279, ,
1, ,278, ,
1, ,278, ,
3, ,278, ,
3, ,279, ,
1, ,278, ,
4, ,279, ,
1, ,279, ,
3, ,280, ,
3, ,278, ,
3, ,279, ,
1, ,278, ,
4, ,279, ,
1, ,278, ,
1, ,279, ,
3, ,278, ,
3, ,279, ,
1, ,278, ,
4, ,279, ,
1, ,279, ,
1, ,280, ,
3, ,278, ,
3, ,279, ,
1, ,279, ,
4, ,279, ,
1, ,278, ,
1, ,278, ,
3, ,279, ,
3, ,280, ,
1, ,277, ,
4, ,279, ,
3, ,278, ,
1, ,279, ,
4, ,279, ,
4, ,280, ,
1, ,278, ,
4, ,280, ,
1, ,278, ,
1, ,278, ,
3, ,279, ,
3, ,279, ,
1, ,278, ,
4, ,279, ,
1, ,279, ,
3, ,279, ,
3, ,278, ,
3, ,279, ,
1, ,279, ,
4, ,279, ,
3, ,278, ,
1, ,278, ,
3, ,278, ,
3, ,279, ,
1, ,278, ,
4, ,278, ,
1, ,279, ,
1, ,279, ,
3, ,278, ,
3, ,279, ,
1, ,279, ,
3, ,279, ,
1, ,278, ,
1, ,279, ,
3, ,278, ,
3, ,279, ,
1, ,278, ,
4, ,279, ,
1, ,278, ,
3, ,280, ,
3, ,278, ,
3, ,280, ,
1, ,279, ,
4, ,279, ,
1, ,278, ,
1, ,279, ,
3, ,279, ,
3, ,279, ,
0, ,278, ,
3, ,279, ,
1, ,278, ,
1, ,279, ,
3, ,277, ,
3, ,279, ,
0, ,279, ,
3, ,279, ,
1, ,279, ,
1, ,279, ,
3, ,278, ,
3, ,279, ,
0, ,278, ,
3, ,279, ,
1, ,278, ,
1, ,279, ,
3, ,278, ,
3, ,279, ,
1, ,278, ,
3, ,279, ,
1, ,278, ,
1, ,279, ,
3, ,279, ,
3, ,280, ,
0, ,279, ,
3, ,280, ,
1, ,279, ,
1, ,279, ,
3, ,278, ,
3, ,279, ,
1, ,278, ,
3, ,279, ,
1, ,277, ,
1, ,279, ,
3, ,278, ,
