src/long_1551_3/temp00535.CSV

Format,1.0B,
Memory Length,10000,
IntpDistance,0,
Trigger Address,4849,
Trigger Level,3.520E-01,
Source,CH1,
Vertical Units,V,
Vertical Units Div,0,
Vertical Units Extend Div,16,
Label,,
Probe Type,0,
Probe Ratio,1.000e+01,
Vertical Scale,2.000e-01,
Vertical Position,-6.800e-01,
Horizontal Units,S,
Horizontal Scale,2.000E-06,
Horizontal Position,3.000E-07,
Horizontal Mode,Main,
SincET Mode,Real Time,
Sampling Period,2.000e-09,
Horizontal Old Scale,2.000E-06,
Horizontal Old Position,3.000E-07,
Firmware,V1.23,
Mode,Fast,
Waveform Data,
0,
0,
0,
2,
0,
2,
0,
0,
2,
0,
0,
2,
0,
0,
2,
0,
-1,
2,
0,
0,
2,
0,
-1,
2,
0,
-1,
0,
0,
0,
2,
0,
0,
2,
0,
-1,
2,
0,
0,
0,
0,
0,
2,
-1,
-1,
2,
0,
-1,
2,
0,
-1,
2,
0,
-1,
2,
-1,
0,
2,
0,
-1,
2,
0,
0,
2,
0,
-1,
2,
0,
0,
2,
0,
-1,
2,
0,
0,
0,
0,
-1,
2,
0,
0,
2,
0,
-1,
2,
0,
0,
0,
0,
0,
2,
0,
-1,
0,
0,
0,
3,
0,
-1,
0,
2,
0,
2,
0,
-1,
2,
2,
0,
2,
0,
0,
2,
2,
-1,
0,
0,
0,
3,
0,
-1,
2,
2,
3,
18,
48,
74,
84,
88,
85,
80,
74,
71,
70,
66,
62,
60,
56,
53,
52,
48,
46,
45,
42,
40,
40,
37,
34,
33,
33,
31,
31,
28,
27,
27,
26,
24,
24,
22,
22,
22,
21,
18,
19,
18,
17,
18,
17,
16,
16,
16,
13,
14,
13,
13,
14,
12,
12,
12,
10,
10,
12,
10,
10,
10,
10,
9,
10,
8,
8,
9,
9,
8,
9,
8,
7,
9,
8,
8,
8,
7,
7,
8,
7,
5,
8,
7,
7,
8,
7,
5,
8,
7,
7,
8,
5,
5,
7,
5,
5,
7,
5,
5,
7,
5,
5,
7,
5,
5,
7,
5,
5,
7,
5,
5,
7,
7,
5,
7,
5,
5,
7,
5,
4,
7,
5,
5,
7,
5,
5,
7,
5,
5,
7,
5,
5,
7,
5,
4,
7,
4,
4,
7,
5,
5,
7,
5,
5,
7,
5,
4,
7,
5,
5,
7,
5,
4,
7,
4,
5,
7,
5,
4,
7,
5,
5,
5,
5,
4,
5,
5,
5,
7,
5,
4,
7,
5,
4,
7,
5,
4,
5,
5,
4,
7,
5,
5,
7,
5,
5,
7,
5,
4,
7,
5,
4,
7,
5,
4,
7,
5,
4,
7,
4,
4,
7,
5,
4,
7,
4,
5,
7,
5,
4,
5,
5,
4,
5,
4,
4,
7,
5,
4,
5,
5,
4,
7,
5,
4,
5,
4,
5,
5,
5,
4,
5,
5,
5,
5,
4,
4,
5,
5,
4,
5,
4,
4,
7,
5,
4,
5,
5,
4,
7,
4,
4,
5,
5,
4,
5,
5,
4,
5,
5,
4,
5,
5,
4,
5,
5,
4,
5,
4,
5,
5,
5,
4,
5,
4,
4,
7,
5,
4,
7,
4,
4,
5,
5,
4,
5,
5,
4,
5,
4,
4,
7,
5,
4,
5,
4,
4,
5,
5,
4,
5,
5,
4,
5,
5,
4,
5,
5,
4,
5,
4,
4,
5,
5,
4,
5,
4,
4,
5,
4,
4,
5,
4,
4,
5,
4,
4,
5,
4,
4,
5,
5,
4,
5,
4,
4,
5,
5,
4,
5,
4,
4,
5,
5,
4,
5,
4,
4,
5,
4,
4,
5,
5,
4,
5,
5,
4,
5,
4,
4,
5,
4,
4,
7,
5,
4,
5,
4,
4,
5,
4,
4,
5,
5,
4,
5,
4,
4,
5,
5,
4,
5,
4,
4,
7,
5,
4,
5,
4,
4,
5,
4,
3,
4,
4,
4,
7,
4,
4,
5,
5,
4,
5,
4,
4,
5,
5,
4,
5,
4,
4,
7,
4,
4,
5,
4,
4,
7,
4,
4,
5,
5,
4,
5,
4,
4,
5,
5,
4,
5,
4,
3,
5,
5,
4,
5,
4,
4,
5,
4,
4,
5,
4,
4,
5,
4,
4,
5,
4,
4,
5,
5,
4,
5,
4,
4,
5,
4,
3,
5,
5,
4,
5,
4,
4,
5,
4,
4,
5,
4,
4,
5,
4,
3,
4,
5,
4,
5,
4,
3,
5,
5,
4,
5,
4,
4,
5,
5,
4,
5,
3,
4,
7,
4,
3,
4,
4,
4,
5,
4,
3,
4,
5,
4,
5,
3,
4,
5,
4,
4,
4,
4,
3,
5,
4,
4,
5,
3,
4,
5,
4,
4,
4,
4,
4,
5,
4,
3,
5,
4,
4,
5,
4,
3,
5,
4,
4,
5,
7,
9,
14,
18,
21,
24,
24,
24,
26,
26,
24,
24,
24,
23,
23,
23,
22,
23,
21,
19,
19,
19,
18,
18,
18,
16,
17,
16,
16,
16,
14,
14,
14,
14,
13,
13,
12,
10,
13,
10,
10,
12,
10,
10,
12,
9,
9,
10,
9,
8,
9,
8,
8,
9,
8,
8,
8,
8,
7,
8,
8,
7,
8,
7,
7,
8,
7,
7,
8,
7,
7,
8,
7,
7,
8,
7,
7,
8,
7,
5,
7,
7,
5,
7,
7,
5,
7,
5,
5,
8,
5,
5,
7,
5,
5,
7,
5,
5,
7,
5,
5,
7,
5,
5,
7,
5,
5,
5,
5,
5,
7,
5,
4,
7,
5,
5,
7,
5,
5,
7,
7,
5,
7,
5,
5,
7,
5,
5,
7,
5,
4,
7,
5,
5,
7,
5,
5,
7,
5,
5,
7,
5,
4,
7,
5,
5,
7,
5,
5,
7,
5,
5,
7,
5,
4,
7,
5,
5,
5,
5,
5,
7,
5,
5,
7,
7,
5,
7,
5,
5,
7,
5,
5,
7,
5,
5,
5,
5,
4,
5,
5,
5,
7,
5,
4,
7,
5,
5,
7,
5,
4,
7,
5,
5,
7,
5,
4,
7,
5,
5,
7,
5,
4,
7,
5,
5,
5,
5,
4,
7,
5,
4,
7,
4,
4,
7,
5,
5,
5,
5,
4,
7,
5,
4,
5,
5,
4,
5,
5,
4,
5,
5,
4,
7,
5,
4,
7,
5,
4,
5,
5,
5,
5,
5,
4,
7,
5,
4,
5,
5,
4,
7,
5,
5,
5,
5,
4,
7,
5,
4,
5,
5,
4,
5,
4,
4,
5,
5,
4,
5,
5,
4,
5,
5,
4,
5,
5,
4,
5,
4,
4,
5,
4,
5,
5,
5,
4,
5,
5,
4,
7,
5,
4,
5,
5,
5,
7,
5,
4,
5,
4,
4,
5,
5,
4,
5,
5,
5,
5,
4,
3,
5,
5,
4,
5,
4,
4,
7,
5,
4,
5,
5,
4,
7,
5,
4,
5,
5,
4,
5,
4,
4,
5,
5,
4,
5,
4,
4,
5,
5,
4,
5,
4,
4,
5,
4,
4,
5,
5,
3,
5,
5,
4,
5,
5,
4,
5,
5,
4,
5,
4,
4,
5,
5,
4,
5,
5,
4,
5,
4,
3,
5,
4,
4,
5,
4,
4,
7,
5,
4,
5,
4,
4,
5,
5,
4,
5,
4,
4,
5,
4,
4,
5,
4,
4,
5,
4,
3,
5,
4,
4,
5,
4,
4,
5,
4,
3,
5,
5,
4,
5,
4,
4,
5,
4,
4,
5,
5,
4,
5,
5,
3,
5,
4,
4,
5,
4,
4,
5,
5,
4,
5,
4,
3,
5,
4,
4,
5,
4,
4,
5,
5,
4,
5,
4,
3,
5,
5,
4,
5,
4,
4,
5,
4,
3,
4,
4,
4,
5,
4,
3,
5,
4,
4,
5,
4,
3,
5,
5,
4,
5,
4,
4,
7,
5,
4,
4,
4,
3,
5,
4,
3,
4,
4,
4,
5,
4,
3,
4,
5,
4,
5,
4,
3,
5,
5,
4,
5,
4,
3,
5,
4,
3,
4,
4,
4,
5,
4,
3,
5,
4,
4,
4,
3,
3,
5,
5,
3,
4,
3,
3,
5,
4,
4,
4,
4,
3,
5,
3,
3,
5,
4,
4,
4,
4,
4,
5,
4,
4,
4,
4,
3,
5,
4,
3,
5,
4,
4,
5,
4,
3,
4,
4,
3,
5,
4,
3,
5,
4,
3,
4,
4,
3,
5,
4,
3,
4,
4,
3,
5,
4,
3,
5,
4,
3,
5,
4,
3,
5,
3,
4,
5,
4,
3,
4,
4,
3,
5,
4,
3,
4,
4,
4,
5,
4,
3,
5,
4,
3,
4,
4,
4,
5,
3,
3,
4,
4,
4,
4,
4,
3,
4,
4,
3,
4,
3,
3,
5,
4,
3,
4,
3,
3,
4,
4,
3,
4,
3,
3,
5,
4,
3,
4,
4,
3,
4,
4,
2,
5,
4,
3,
5,
4,
3,
5,
4,
3,
4,
4,
3,
5,
4,
3,
4,
3,
3,
4,
4,
3,
4,
4,
3,
5,
3,
3,
4,
4,
3,
4,
3,
3,
4,
4,
3,
5,
3,
3,
4,
4,
3,
4,
4,
3,
4,
4,
3,
4,
4,
3,
4,
3,
3,
5,
4,
3,
4,
4,
3,
4,
3,
3,
4,
4,
3,
4,
4,
3,
4,
4,
3,
4,
4,
3,
4,
3,
3,
5,
4,
3,
4,
4,
3,
5,
3,
3,
4,
3,
3,
4,
4,
3,
4,
4,
3,
4,
3,
3,
4,
3,
3,
4,
4,
3,
4,
3,
3,
4,
3,
3,
4,
3,
3,
5,
4,
3,
4,
4,
2,
4,
3,
3,
4,
3,
3,
5,
4,
3,
4,
4,
3,
4,
3,
3,
4,
3,
3,
4,
3,
3,
4,
4,
3,
4,
3,
3,
4,
3,
3,
4,
3,
3,
4,
4,
3,
4,
3,
3,
4,
3,
3,
4,
3,
3,
4,
4,
3,
4,
3,
3,
4,
3,
3,
4,
3,
2,
4,
4,
3,
4,
3,
3,
4,
3,
3,
4,
3,
3,
4,
3,
3,
4,
4,
3,
4,
4,
3,
4,
3,
2,
4,
4,
3,
4,
3,
3,
4,
3,
3,
4,
4,
3,
4,
4,
3,
4,
3,
3,
4,
3,
3,
4,
3,
2,
4,
4,
3,
4,
3,
3,
4,
3,
3,
4,
3,
3,
4,
3,
2,
4,
3,
3,
4,
3,
3,
4,
3,
3,
4,
4,
3,
4,
3,
3,
4,
4,
3,
4,
3,
2,
4,
4,
3,
4,
3,
3,
4,
3,
3,
4,
3,
3,
4,
3,
2,
4,
3,
3,
4,
3,
2,
4,
3,
3,
4,
4,
3,
4,
3,
3,
4,
3,
3,
4,
3,
3,
4,
3,
3,
4,
3,
3,
4,
3,
3,
4,
3,
2,
4,
3,
2,
4,
4,
3,
4,
3,
3,
4,
3,
2,
4,
3,
3,
4,
3,
3,
4,
3,
3,
4,
3,
3,
4,
4,
3,
4,
3,
3,
4,
3,
3,
4,
3,
3,
4,
3,
2,
3,
4,
3,
4,
3,
3,
3,
3,
2,
4,
3,
2,
4,
3,
3,
4,
3,
3,
4,
4,
3,
4,
3,
3,
5,
3,
2,
3,
4,
4,
4,
3,
2,
4,
4,
3,
3,
3,
2,
4,
3,
3,
3,
3,
3,
4,
3,
2,
4,
3,
3,
4,
3,
2,
3,
3,
3,
4,
3,
2,
4,
3,
3,
4,
3,
3,
4,
3,
2,
4,
3,
3,
4,
3,
2,
3,
3,
3,
4,
3,
2,
4,
3,
3,
3,
3,
2,
4,
3,
2,
4,
3,
2,
4,
3,
2,
4,
3,
3,
4,
3,
3,
4,
3,
3,
4,
3,
2,
4,
3,
3,
4,
3,
3,
3,
3,
2,
4,
3,
3,
4,
4,
2,
3,
3,
3,
4,
3,
2,
4,
3,
2,
3,
3,
2,
4,
3,
3,
4,
3,
2,
4,
3,
2,
3,
2,
3,
4,
3,
3,
4,
3,
3,
4,
3,
2,
3,
3,
3,
4,
3,
2,
4,
3,
2,
4,
3,
2,
4,
4,
2,
3,
3,
3,
3,
3,
2,
4,
3,
3,
3,
3,
2,
4,
3,
3,
4,
3,
2,
4,
3,
2,
4,
3,
3,
4,
3,
3,
4,
3,
2,
4,
3,
2,
3,
3,
2,
4,
3,
3,
3,
3,
2,
4,
3,
2,
3,
4,
3,
4,
3,
3,
3,
3,
2,
4,
3,
3,
3,
3,
2,
4,
3,
3,
3,
2,
2,
4,
3,
2,
3,
3,
2,
4,
3,
3,
3,
3,
2,
4,
3,
2,
4,
3,
2,
4,
3,
2,
3,
3,
2,
4,
3,
2,
3,
3,
2,
4,
3,
2,
4,
3,
2,
4,
3,
2,
3,
3,
2,
4,
3,
3,
3,
3,
2,
4,
3,
2,
4,
3,
2,
4,
3,
3,
4,
3,
2,
3,
3,
2,
4,
3,
2,
4,
3,
3,
3,
3,
2,
4,
3,
2,
3,
3,
2,
3,
3,
3,
3,
3,
2,
4,
3,
3,
3,
3,
2,
4,
3,
3,
3,
3,
2,
4,
3,
2,
3,
3,
3,
4,
2,
2,
4,
3,
2,
3,
3,
2,
3,
3,
2,
4,
2,
2,
3,
3,
2,
4,
3,
2,
3,
3,
2,
3,
3,
3,
3,
3,
2,
4,
3,
2,
3,
3,
2,
4,
3,
3,
3,
3,
2,
4,
3,
2,
3,
3,
2,
4,
3,
2,
3,
3,
2,
4,
3,
2,
3,
2,
2,
4,
3,
3,
3,
3,
2,
4,
3,
2,
3,
3,
2,
4,
3,
2,
3,
3,
2,
4,
3,
2,
3,
3,
2,
4,
3,
2,
3,
3,
2,
3,
2,
2,
3,
3,
2,
3,
3,
3,
3,
3,
2,
4,
3,
2,
3,
3,
2,
4,
2,
2,
3,
2,
0,
4,
2,
2,
3,
3,
2,
3,
2,
2,
3,
2,
2,
4,
3,
2,
3,
3,
2,
4,
2,
3,
3,
2,
2,
4,
3,
2,
3,
3,
2,
3,
2,
2,
3,
3,
2,
4,
3,
2,
3,
3,
2,
3,
2,
2,
3,
2,
2,
4,
2,
2,
3,
3,
2,
3,
2,
2,
4,
3,
2,
3,
2,
2,
3,
3,
2,
3,
2,
2,
3,
3,
2,
3,
2,
2,
3,
2,
2,
3,
3,
2,
3,
3,
2,
4,
3,
2,
3,
3,
2,
3,
2,
2,
3,
3,
2,
4,
2,
2,
3,
3,
2,
3,
2,
2,
3,
2,
2,
3,
2,
2,
2,
3,
2,
3,
3,
2,
3,
3,
2,
3,
2,
2,
3,
3,
2,
3,
2,
2,
3,
3,
2,
4,
3,
3,
3,
3,
2,
4,
3,
3,
3,
2,
2,
4,
3,
2,
3,
3,
2,
3,
2,
2,
3,
3,
2,
4,
3,
2,
3,
3,
2,
3,
2,
2,
3,
3,
2,
3,
2,
2,
3,
2,
2,
2,
2,
2,
3,
2,
0,
3,
2,
2,
2,
2,
2,
3,
2,
2,
3,
2,
0,
4,
2,
2,
3,
3,
2,
3,
2,
2,
3,
2,
2,
4,
3,
2,
3,
3,
2,
3,
2,
2,
3,
3,
2,
3,
2,
2,
3,
3,
2,
3,
2,
2,
3,
2,
0,
3,
3,
2,
2,
2,
2,
3,
2,
2,
2,
2,
0,
3,
2,
0,
2,
2,
2,
3,
2,
0,
2,
2,
2,
3,
2,
0,
3,
3,
2,
3,
2,
2,
3,
2,
0,
3,
2,
2,
3,
3,
0,
3,
3,
2,
3,
2,
0,
4,
3,
2,
3,
2,
0,
3,
2,
2,
2,
2,
0,
3,
2,
0,
2,
2,
2,
3,
2,
2,
3,
2,
2,
3,
2,
0,
2,
3,
2,
3,
2,
0,
3,
2,
2,
3,
2,
2,
3,
3,
2,
3,
2,
2,
3,
2,
2,
3,
3,
2,
3,
3,
2,
3,
2,
3,
3,
2,
0,
4,
3,
2,
3,
2,
2,
3,
3,
2,
3,
2,
2,
3,
2,
2,
2,
3,
2,
3,
2,
0,
3,
2,
0,
2,
0,
0,
2,
3,
2,
3,
2,
0,
3,
2,
0,
3,
2,
2,
2,
3,
2,
3,
2,
2,
3,
2,
2,
3,
2,
2,
2,
2,
2,
3,
2,
0,
3,
2,
0,
3,
2,
0,
2,
2,
0,
3,
2,
2,
3,
2,
0,
3,
2,
0,
2,
2,
2,
3,
2,
0,
3,
2,
0,
3,
2,
2,
2,
2,
0,
3,
2,
2,
3,
2,
0,
3,
2,
2,
2,
2,
0,
3,
2,
0,
2,
2,
2,
3,
2,
2,
2,
2,
2,
3,
2,
0,
3,
2,
0,
3,
2,
2,
3,
2,
2,
3,
2,
2,
2,
2,
0,
3,
2,
0,
2,
2,
2,
3,
2,
0,
3,
2,
0,
3,
2,
0,
3,
2,
2,
2,
2,
2,
3,
2,
0,
3,
2,
2,
2,
2,
0,
3,
2,
2,
2,
2,
0,
3,
2,
0,
2,
2,
2,
3,
2,
0,
3,
2,
0,
3,
2,
0,
2,
2,
0,
3,
2,
0,
3,
2,
0,
3,
2,
0,
3,
2,
2,
2,
2,
0,
3,
2,
2,
3,
2,
0,
2,
2,
0,
3,
2,
0,
3,
2,
0,
3,
2,
2,
2,
2,
0,
3,
2,
2,
2,
2,
0,
3,
2,
2,
2,
2,
2,
3,
2,
0,
3,
0,
0,
3,
2,
2,
2,
2,
2,
2,
2,
0,
3,
2,
0,
3,
2,
0,
2,
2,
0,
3,
2,
0,
3,
2,
0,
2,
0,
0,
2,
2,
2,
3,
2,
2,
3,
2,
0,
2,
2,
2,
2,
2,
2,
3,
2,
0,
3,
0,
0,
3,
2,
0,
2,
2,
2,
2,
2,
2,
3,
2,
0,
3,
2,
0,
2,
2,
0,
3,
2,
0,
3,
2,
0,
3,
2,
0,
2,
2,
0,
2,
2,
0,
3,
2,
0,
2,
2,
0,
2,
2,
0,
2,
2,
0,
3,
0,
0,
3,
2,
0,
3,
2,
2,
3,
2,
2,
3,
2,
0,
3,
2,
2,
2,
2,
0,
3,
2,
0,
2,
0,
0,
3,
2,
0,
2,
2,
2,
2,
2,
0,
3,
2,
0,
3,
0,
0,
2,
2,
0,
3,
2,
0,
3,
2,
0,
2,
2,
2,
2,
2,
0,
2,
2,
2,
3,
0,
0,
2,
2,
2,
2,
2,
0,
3,
2,
0,
3,
0,
0,
3,
2,
2,
2,
2,
2,
2,
2,
0,
3,
0,
0,
3,
2,
0,
2,
2,
0,
2,
0,
0,
3,
2,
0,
3,
0,
0,
2,
2,
0,
2,
2,
2,
3,
2,
0,
2,
2,
2,
2,
2,
0,
3,
2,
0,
3,
0,
0,
3,
2,
0,
2,
2,
2,
3,
2,
-1,
2,
2,
2,
3,
2,
0,
2,
2,
2,
2,
2,
0,
3,
2,
0,
2,
0,
0,
3,
2,
0,
2,
2,
0,
3,
2,
0,
2,
2,
2,
2,
2,
0,
3,
2,
2,
3,
0,
0,
3,
2,
0,
2,
0,
0,
3,
2,
0,
2,
0,
0,
3,
2,
0,
0,
2,
2,
3,
2,
-1,
3,
2,
0,
3,
0,
0,
2,
3,
2,
2,
2,
0,
3,
2,
0,
3,
2,
0,
2,
2,
0,
2,
2,
0,
3,
2,
0,
3,
2,
0,
2,
2,
0,
2,
0,
0,
3,
2,
0,
3,
2,
0,
2,
2,
0,
3,
2,
0,
3,
0,
0,
3,
0,
0,
3,
2,
0,
2,
2,
0,
3,
0,
0,
3,
2,
2,
2,
2,
0,
3,
2,
0,
2,
0,
0,
3,
2,
2,
2,
2,
0,
2,
0,
0,
2,
2,
0,
3,
2,
0,
2,
2,
0,
3,
2,
0,
3,
0,
0,
3,
0,
0,
2,
2,
2,
2,
0,
0,
3,
2,
0,
2,
0,
0,
2,
2,
0,
2,
2,
0,
3,
0,
0,
3,
2,
2,
2,
2,
0,
2,
2,
0,
3,
0,
0,
3,
2,
0,
2,
2,
0,
2,
2,
0,
3,
0,
0,
3,
2,
0,
2,
2,
0,
2,
2,
0,
3,
0,
0,
2,
2,
0,
2,
2,
0,
3,
2,
0,
3,
2,
0,
3,
0,
0,
2,
2,
0,
2,
2,
0,
2,
2,
0,
2,
2,
2,
2,
2,
0,
3,
2,
0,
3,
0,
0,
3,
2,
0,
2,
2,
0,
2,
2,
0,
3,
0,
0,
2,
2,
0,
2,
2,
0,
3,
2,
0,
3,
0,
0,
2,
2,
0,
2,
2,
0,
2,
2,
0,
3,
2,
0,
3,
2,
0,
2,
2,
0,
2,
2,
0,
2,
2,
0,
2,
2,
0,
2,
2,
0,
2,
2,
0,
3,
0,
0,
3,
2,
0,
2,
2,
0,
2,
2,
0,
3,
2,
0,
3,
0,
0,
2,
2,
0,
2,
2,
0,
3,
2,
0,
2,
0,
0,
2,
2,
0,
2,
2,
0,
3,
0,
0,
3,
2,
0,
2,
2,
0,
2,
2,
0,
2,
2,
0,
3,
2,
0,
2,
2,
0,
3,
2,
0,
3,
0,
0,
2,
2,
2,
2,
2,
0,
2,
2,
0,
3,
2,
0,
2,
2,
0,
2,
2,
0,
3,
2,
0,
3,
0,
0,
3,
2,
0,
2,
2,
2,
2,
0,
0,
2,
2,
0,
3,
0,
0,
2,
2,
0,
2,
2,
0,
3,
2,
0,
2,
0,
0,
2,
2,
0,
2,
2,
0,
3,
0,
0,
3,
2,
0,
2,
2,
0,
2,
2,
0,
3,
0,
0,
3,
2,
0,
2,
2,
0,
2,
2,
0,
3,
0,
0,
2,
2,
0,
2,
2,
0,
2,
2,
0,
3,
0,
0,
3,
2,
0,
2,
2,
0,
3,
2,
0,
2,
0,
0,
3,
2,
0,
2,
2,
0,
3,
2,
0,
2,
0,
0,
3,
0,
0,
2,
2,
0,
2,
0,
0,
3,
2,
0,
2,
0,
0,
2,
2,
0,
3,
2,
0,
3,
0,
0,
2,
0,
0,
2,
2,
0,
2,
0,
0,
3,
2,
0,
2,
2,
2,
2,
2,
0,
3,
2,
0,
2,
0,
0,
3,
2,
0,
2,
2,
0,
3,
2,
0,
2,
0,
0,
3,
0,
-1,
2,
2,
0,
2,
0,
-1,
3,
2,
0,
2,
0,
0,
2,
2,
0,
2,
2,
2,
2,
2,
0,
2,
2,
0,
2,
2,
0,
3,
2,
0,
2,
0,
0,
2,
2,
0,
2,
2,
0,
2,
0,
0,
2,
0,
0,
3,
2,
0,
2,
2,
2,
2,
2,
-1,
3,
2,
0,
2,
0,
0,
2,
2,
2,
2,
2,
0,
3,
0,
0,
2,
0,
0,
2,
2,
0,
3,
2,
0,
2,
0,
0,
3,
2,
0,
2,
2,
0,
2,
0,
0,
2,
2,
0,
2,
0,
0,
2,
2,
2,
3,
2,
0,
3,
2,
0,
2,
0,
0,
2,
2,
0,
2,
2,
0,
3,
0,
0,
3,
0,
0,
2,
2,
0,
2,
2,
0,
3,
0,
0,
2,
2,
0,
2,
2,
0,
2,
0,
2,
2,
0,
0,
3,
2,
0,
2,
2,
0,
2,
2,
0,
3,
2,
0,
2,
0,
0,
2,
2,
0,
2,
0,
0,
3,
2,
0,
2,
0,
0,
2,
2,
0,
2,
2,
0,
2,
0,
0,
3,
2,
0,
2,
2,
0,
2,
2,
0,
2,
0,
0,
3,
0,
0,
0,
2,
0,
3,
2,
-1,
2,
0,
0,
2,
0,
0,
2,
2,
0,
2,
0,
0,
3,
0,
0,
2,
0,
0,
2,
2,
0,
2,
2,
0,
3,
0,
0,
2,
0,
0,
2,
2,
0,
2,
0,
0,
2,
0,
0,
2,
0,
0,
2,
0,
0,
2,
2,
-1,
3,
0,
0,
3,
0,
0,
2,
0,
0,
2,
0,
0,
2,
0,
0,
2,
0,
0,
2,
2,
0,
2,
0,
0,
3,
0,
0,
2,
0,
0,
2,
2,
0,
2,
0,
-1,
3,
0,
0,
3,
2,
0,
2,
2,
0,
2,
2,
0,
3,
0,
0,
2,
0,
0,
2,
0,
0,
2,
2,
0,
2,
0,
0,
3,
2,
0,
2,
2,
0,
3,
2,
-1,
2,
0,
0,
2,
0,
0,
2,
2,
0,
2,
0,
0,
3,
0,
0,
2,
0,
0,
2,
0,
0,
2,
2,
0,
2,
0,
0,
3,
0,
0,
2,
2,
0,
2,
0,
0,
2,
0,
0,
2,
0,
0,
2,
2,
0,
2,
0,
0,
3,
0,
0,
2,
0,
0,
2,
0,
0,
2,
0,
0,
3,
0,
0,
2,
0,
0,
0,
2,
0,
2,
2,
0,
3,
0,
0,
2,
0,
0,
2,
0,
0,
2,
2,
0,
2,
0,
0,
3,
0,
0,
2,
0,
0,
2,
2,
0,
2,
0,
0,
3,
0,
0,
0,
0,
0,
2,
0,
0,
2,
0,
0,
2,
0,
0,
2,
2,
0,
2,
0,
0,
2,
0,
0,
2,
0,
0,
2,
2,
0,
2,
0,
0,
2,
0,
-1,
2,
0,
0,
2,
2,
0,
2,
2,
0,
2,
0,
-1,
2,
0,
0,
2,
0,
0,
2,
0,
0,
2,
0,
0,
3,
0,
0,
0,
0,
0,
2,
2,
0,
2,
0,
0,
3,
0,
0,
0,
0,
0,
2,
0,
0,
2,
0,
0,
2,
0,
0,
2,
2,
0,
2,
0,
0,
2,
0,
0,
2,
0,
0,
2,
2,
-1,
2,
0,
0,
2,
0,
0,
2,
0,
0,
0,
0,
0,
2,
2,
0,
2,
0,
0,
3,
0,
0,
0,
2,
0,
2,
0,
0,
2,
0,
0,
2,
0,
-1,
0,
2,
0,
2,
0,
-1,
3,
0,
-1,
2,
0,
0,
2,
2,
0,
2,
0,
0,
2,
0,
-1,
2,
2,
0,
2,
0,
-1,
2,
2,
0,
2,
0,
0,
3,
0,
0,
0,
0,
0,
2,
0,
0,
2,
0,
0,
2,
0,
0,
0,
0,
0,
2,
0,
0,
2,
0,
0,
2,
0,
0,
2,
2,
0,
2,
0,
0,
3,
0,
-1,
2,
2,
0,
2,
2,
-1,
2,
2,
0,
3,
0,
-1,
3,
2,
0,
2,
0,
0,
2,
0,
-1,
2,
0,
0,
3,
0,
0,
0,
2,
2,
2,
0,
0,
2,
2,
0,
2,
0,
0,
2,
2,
0,
2,
0,
0,
2,
0,
-1,
2,
0,
0,
2,
2,
0,
2,
0,
0,
2,
0,
-1,
2,
0,
0,
2,
2,
0,
2,
0,
0,
2,
0,
0,
2,
0,
0,
0,
2,
0,
2,
0,
-1,
3,
0,
0,
2,
0,
0,
2,
2,
0,
2,
0,
0,
3,
0,
0,
2,
0,
0,
2,
2,
0,
2,
2,
0,
2,
0,
0,
3,
0,
0,
2,
2,
0,
2,
0,
0,
2,
0,
0,
2,
0,
0,
0,
0,
0,
2,
0,
-1,
2,
0,
0,
2,
0,
0,
2,
0,
0,
2,
0,
-1,
2,
0,
0,
2,
0,
0,
0,
2,
0,
2,
0,
-1,
2,
0,
0,
2,
0,
0,
2,
2,
-1,
2,
-1,
0,
2,
0,
-1,
2,
0,
0,
2,
2,
-1,
2,
0,
0,
2,
0,
-1,
2,
0,
0,
2,
0,
0,
2,
0,
-1,
2,
0,
0,
2,
0,
0,
0,
0,
0,
2,
0,
0,
2,
0,
0,
2,
0,
0,
2,
0,
0,
2,
0,
0,
2,
2,
0,
2,
0,
0,
2,
2,
-1,
2,
0,
0,
2,
0,
0,
2,
0,
0,
2,
2,
0,
2,
0,
0,
2,
0,
0,
2,
0,
0,
2,
0,
0,
2,
2,
0,
2,
0,
0,
2,
0,
0,
2,
2,
0,
2,
0,
0,
2,
0,
0,
2,
0,
0,
0,
0,
0,
2,
0,
0,
2,
0,
0,
2,
0,
0,
2,
0,
0,
2,
2,
0,
2,
0,
0,
2,
0,
0,
2,
2,
0,
2,
0,
0,
2,
0,
-1,
2,
0,
0,
2,
2,
0,
2,
0,
0,
2,
0,
0,
2,
0,
0,
0,
2,
0,
2,
0,
-1,
2,
0,
0,
2,
0,
0,
2,
2,
0,
2,
0,
0,
2,
0,
0,
2,
0,
0,
2,
0,
0,
2,
0,
-1,
2,
0,
0,
2,
0,
0,
2,
2,
0,
2,
0,
0,
2,
0,
0,
2,
0,
0,
2,
2,
-1,
2,
2,
0,
2,
0,
0,
3,
0,
0,
0,
0,
0,
2,
0,
-1,
2,
0,
0,
2,
0,
0,
2,
2,
0,
2,
0,
-1,
3,
0,
0,
2,
0,
0,
2,
2,
-1,
2,
0,
0,
2,
0,
0,
2,
2,
0,
0,
2,
0,
3,
0,
0,
0,
0,
-1,
2,
0,
0,
2,
2,
0,
2,
0,
0,
2,
0,
0,
2,
0,
0,
2,
2,
0,
2,
0,
0,
3,
0,
0,
2,
0,
0,
2,
0,
0,
2,
0,
0,
3,
0,
0,
2,
0,
0,
2,
0,
-1,
2,
0,
0,
2,
0,
0,
3,
0,
0,
2,
0,
0,
2,
0,
0,
2,
0,
0,
2,
0,
0,
0,
0,
0,
2,
0,
-1,
2,
0,
0,
2,
0,
0,
2,
2,
0,
2,
-1,
0,
2,
0,
0,
2,
0,
0,
2,
2,
0,
2,
2,
0,
2,
0,
-1,
2,
0,
0,
2,
2,
0,
2,
0,
0,
2,
0,
0,
2,
0,
0,
2,
0,
0,
2,
0,
-1,
2,
0,
-1,
2,
0,
0,
2,
0,
0,
2,
0,
0,
2,
0,
0,
2,
0,
0,
2,
0,
0,
2,
2,
0,
2,
0,
-1,
3,
0,
0,
2,
2,
0,
2,
0,
0,
2,
0,
0,
2,
0,
-1,
2,
2,
0,
2,
0,
0,
2,
0,
0,
2,
0,
0,
2,
0,
0,
2,
0,
0,
2,
0,
-1,
2,
0,
0,
2,
0,
-1,
2,
2,
0,
2,
-1,
-1,
3,
2,
0,
2,
0,
0,
2,
0,
0,
2,
0,
0,
2,
0,
0,
2,
2,
0,
2,
0,
-1,
2,
0,
0,
2,
0,
0,
2,
0,
0,
2,
0,
0,
2,
0,
-1,
2,
0,
0,
2,
2,
-1,
2,
0,
0,
2,
0,
-1,
2,
0,
0,
2,
2,
0,
2,
0,
0,
2,
0,
0,
2,
0,
0,
2,
2,
0,
2,
2,
0,
3,
0,
0,
2,
0,
0,
2,
2,
0,
2,
0,
0,
2,
0,
0,
2,
0,
0,
0,
0,
-1,
2,
0,
-1,
2,
0,
-1,
2,
0,
0,
0,
0,
-1,
0,
-1,
0,
2,
0,
0,
2,
0,
-1,
0,
0,
-1,
2,
0,
-1,
2,
0,
0,
2,
0,
0,
2,
2,
0,
2,
0,
0,
3,
2,
0,
2,
2,
2,
2,
2,
0,
2,
2,
0,
3,
0,
0,
2,
0,
0,
2,
0,
0,
2,
0,
0,
2,
0,
0,
3,
12,
45,
74,
85,
86,
85,
80,
74,
71,
70,
66,
62,
58,
56,
53,
52,
48,
47,
43,
41,
40,
38,
37,
36,
33,
31,
31,
31,
28,
27,
24,
24,
24,
22,
21,
21,
19,
19,
19,
18,
17,
17,
16,
14,
16,
14,
13,
14,
13,
12,
12,
12,
9,
12,
10,
9,
10,
9,
8,
10,
9,
9,
9,
9,
8,
9,
8,
8,
9,
8,
8,
9,
8,
7,
8,
8,
7,
8,
7,
7,
8,
8,
7,
8,
7,
7,
8,
8,
7,
8,
7,
7,
8,
7,
5,
8,
7,
5,
8,
7,
5,
8,
7,
7,
7,
5,
5,
8,
7,
5,
7,
5,
5,
7,
5,
5,
7,
5,
5,
7,
5,
5,
7,
5,
5,
7,
5,
4,
7,
5,
4,
7,
4,
5,
5,
5,
4,
7,
4,
5,
7,
5,
4,
5,
5,
5,
7,
5,
4,
5,
5,
4,
5,
5,
4,
5,
5,
5,
5,
5,
5,
5,
5,
5,
5,
5,
4,
5,
5,
4,
7,
5,
4,
5,
5,
5,
7,
5,
4,
7,
5,
5,
7,
5,
5,
7,
5,
5,
7,
5,
4,
7,
5,
5,
7,
5,
5,
7,
5,
5,
5,
5,
5,
7,
4,
4,
7,
5,
5,
7,
5,
4,
5,
5,
4,
5,
5,
5,
5,
5,
4,
5,
5,
5,
5,
5,
4,
5,
5,
5,
7,
4,
4,
5,
4,
5,
5,
5,
4,
5,
4,
4,
5,
4,
4,
5,
5,
4,
5,
4,
4,
5,
5,
4,
5,
5,
5,
7,
5,
4,
5,
5,
4,
5,
4,
4,
5,
5,
4,
7,
5,
5,
7,
5,
4,
5,
5,
5,
7,
5,
4,
5,
5,
4,
5,
4,
4,
5,
5,
4,
5,
4,
4,
5,
4,
4,
5,
5,
4,
5,
4,
4,
5,
4,
4,
5,
4,
4,
5,
5,
4,
5,
4,
4,
7,
5,
4,
5,
4,
4,
7,
4,
4,
5,
4,
4,
5,
4,
4,
5,
5,
5,
5,
4,
3,
5,
5,
4,
5,
4,
4,
5,
5,
4,
5,
4,
4,
7,
5,
4,
5,
4,
4,
7,
4,
4,
5,
4,
4,
7,
4,
3,
5,
5,
4,
5,
4,
4,
5,
5,
4,
5,
4,
4,
7,
5,
4,
5,
4,
4,
5,
5,
4,
5,
4,
4,
5,
4,
3,
5,
5,
4,
5,
4,
4,
5,
4,
4,
5,
4,
4,
5,
4,
4,
5,
4,
4,
5,
4,
3,
5,
4,
4,
5,
4,
3,
5,
4,
4,
5,
4,
4,
5,
4,
4,
5,
4,
4,
5,
5,
4,
5,
4,
3,
5,
4,
4,
5,
4,
4,
5,
4,
4,
5,
5,
4,
5,
4,
4,
5,
4,
4,
4,
4,
3,
5,
4,
3,
5,
4,
4,
5,
4,
3,
5,
4,
4,
5,
4,
4,
5,
4,
4,
5,
4,
4,
5,
4,
4,
5,
5,
4,
5,
4,
4,
5,
4,
4,
5,
4,
3,
5,
4,
4,
5,
4,
4,
5,
4,
4,
4,
4,
3,
4,
4,
4,
5,
4,
4,
5,
4,
4,
5,
4,
3,
5,
4,
3,
5,
3,
3,
5,
4,
4,
4,
4,
4,
5,
4,
3,
5,
4,
4,
5,
4,
4,
5,
4,
4,
5,
4,
3,
5,
3,
3,
5,
4,
4,
4,
4,
4,
5,
4,
3,
5,
4,
4,
5,
4,
4,
5,
4,
3,
5,
4,
3,
5,
3,
3,
5,
4,
3,
4,
3,
3,
5,
4,
3,
5,
4,
3,
5,
4,
3,
5,
4,
4,
4,
4,
3,
5,
3,
3,
4,
4,
4,
5,
4,
3,
4,
4,
3,
5,
3,
3,
5,
4,
3,
5,
4,
3,
4,
4,
3,
5,
3,
4,
5,
4,
3,
4,
4,
4,
5,
4,
3,
5,
4,
3,
5,
4,
3,
5,
4,
3,
4,
4,
3,
5,
3,
4,
4,
4,
4,
5,
4,
3,
4,
4,
3,
5,
3,
3,
4,
4,
4,
4,
4,
3,
4,
4,
3,
5,
3,
3,
4,
4,
4,
4,
3,
3,
4,
4,
2,
4,
2,
2,
4,
3,
2,
4,
3,
2,
4,
3,
2,
4,
2,
2,
4,
3,
2,
3,
3,
2,
3,
3,
2,
3,
2,
2,
3,
2,
2,
4,
3,
2,
3,
3,
2,
4,
3,
2,
4,
2,
3,
4,
3,
3,
4,
4,
3,
4,
3,
3,
4,
4,
3,
5,
4,
3,
5,
5,
4,
7,
4,
4,
5,
4,
4,
7,
5,
4,
5,
5,
4,
5,
5,
4,
5,
5,
4,
4,
4,
3,
7,
5,
4,
4,
4,
3,
5,
4,
3,
4,
4,
3,
5,
3,
2,
4,
4,
3,
4,
3,
3,
4,
4,
3,
5,
4,
3,
4,
4,
3,
4,
3,
3,
4,
3,
3,
4,
3,
3,
4,
3,
3,
4,
3,
3,
4,
3,
3,
4,
3,
3,
4,
3,
3,
4,
3,
3,
4,
4,
3,
4,
3,
3,
4,
3,
3,
4,
3,
3,
4,
3,
3,
4,
3,
3,
4,
3,
3,
4,
4,
3,
4,
3,
3,
4,
4,
3,
4,
3,
3,
5,
3,
3,
4,
3,
3,
4,
3,
3,
4,
3,
3,
4,
3,
3,
4,
3,
3,
4,
3,
3,
4,
3,
3,
4,
3,
3,
4,
3,
3,
4,
3,
3,
4,
3,
3,
4,
3,
3,
5,
3,
3,
4,
3,
3,
4,
3,
2,
3,
3,
3,
4,
3,
2,
4,
3,
2,
3,
3,
2,
4,
3,
3,
3,
3,
3,
4,
3,
2,
4,
3,
3,
4,
3,
2,
4,
3,
3,
4,
3,
2,
4,
3,
3,
4,
3,
3,
4,
3,
3,
4,
4,
3,
4,
3,
2,
4,
3,
3,
4,
3,
2,
4,
3,
3,
4,
3,
3,
4,
3,
3,
3,
3,
3,
4,
3,
2,
4,
3,
3,
4,
3,
2,
4,
3,
3,
4,
3,
3,
4,
3,
2,
4,
3,
3,
4,
3,
3,
4,
3,
3,
4,
3,
2,
4,
3,
3,
4,
3,
2,
4,
3,
3,
3,
3,
2,
4,
3,
3,
4,
3,
3,
4,
3,
2,
4,
3,
3,
4,
3,
3,
4,
4,
3,
4,
3,
3,
4,
3,
3,
3,
3,
3,
4,
3,
3,
4,
3,
3,
4,
3,
2,
4,
3,
3,
3,
3,
2,
4,
3,
2,
4,
3,
3,
4,
3,
2,
3,
3,
3,
4,
3,
2,
4,
3,
2,
4,
3,
3,
4,
3,
3,
4,
3,
2,
4,
3,
3,
4,
3,
3,
3,
3,
3,
4,
3,
3,
4,
3,
2,
4,
3,
3,
4,
3,
2,
4,
3,
3,
4,
3,
3,
4,
3,
3,
4,
3,
2,
4,
3,
2,
4,
3,
3,
4,
3,
2,
3,
3,
3,
4,
3,
2,
3,
3,
3,
4,
2,
3,
4,
3,
2,
4,
3,
2,
3,
3,
2,
3,
3,
3,
4,
3,
2,
4,
3,
3,
4,
3,
2,
3,
3,
3,
4,
3,
2,
4,
3,
2,
4,
2,
2,
4,
3,
3,
4,
3,
2,
4,
3,
2,
4,
2,
2,
4,
3,
3,
3,
3,
3,
4,
3,
2,
3,
4,
3,
4,
3,
3,
3,
3,
2,
4,
3,
3,
3,
3,
2,
4,
3,
3,
4,
3,
2,
4,
3,
2,
3,
3,
3,
4,
3,
3,
4,
3,
2,
4,
3,
3,
4,
3,
3,
4,
3,
3,
3,
3,
2,
4,
3,
2,
3,
3,
2,
4,
3,
3,
3,
3,
2,
4,
3,
2,
3,
3,
3,
4,
3,
3,
4,
3,
2,
4,
3,
2,
3,
3,
2,
4,
3,
3,
3,
3,
2,
4,
3,
2,
3,
2,
3,
4,
3,
3,
3,
3,
3,
4,
3,
2,
3,
4,
3,
4,
3,
3,
3,
3,
2,
4,
2,
2,
4,
3,
2,
3,
3,
3,
3,
3,
2,
4,
3,
3,
4,
3,
2,
4,
3,
3,
3,
3,
2,
4,
3,
3,
3,
3,
2,
4,
3,
3,
3,
3,
2,
4,
3,
2,
3,
3,
2,
4,
3,
3,
3,
3,
2,
4,
3,
2,
3,
3,
2,
4,
3,
3,
3,
3,
2,
4,
3,
2,
3,
3,
2,
4,
3,
2,
4,
3,
2,
3,
2,
2,
3,
3,
2,
3,
2,
3,
3,
3,
3,
4,
3,
2,
4,
2,
2,
3,
3,
3,
3,
3,
2,
3,
2,
2,
4,
2,
2,
3,
3,
3,
3,
3,
2,
4,
3,
2,
3,
3,
2,
4,
3,
3,
3,
3,
2,
4,
3,
2,
3,
3,
2,
4,
2,
2,
3,
3,
2,
4,
3,
2,
3,
3,
2,
4,
2,
3,
3,
3,
2,
4,
3,
2,
3,
3,
2,
3,
3,
3,
3,
3,
2,
4,
3,
2,
3,
3,
2,
3,
3,
2,
3,
2,
0,
4,
3,
2,
3,
3,
2,
4,
2,
2,
3,
2,
2,
4,
2,
2,
3,
4,
2,
3,
2,
2,
3,
3,
2,
3,
2,
2,
3,
3,
2,
3,
2,
3,
3,
3,
2,
4,
3,
2,
3,
3,
2,
3,
3,
3,
3,
2,
2,
4,
3,
2,
3,
3,
2,
3,
3,
2,
3,
2,
2,
4,
3,
2,
3,
3,
2,
3,
2,
2,
3,
2,
2,
4,
2,
2,
3,
3,
2,
3,
2,
2,
3,
2,
2,
3,
2,
2,
3,
3,
2,
3,
2,
3,
3,
2,
0,
4,
3,
2,
3,
3,
2,
3,
2,
