src/overvoltage_apd2/1493v01_0000038.CSV

Format,1.0B,
Memory Length,10000,
IntpDistance,0,
Trigger Address,4999,
Trigger Level,1.600E-01,
Source,CH1,
Vertical Units,V,
Vertical Units Div,0,
Vertical Units Extend Div,16,
Label,,
Probe Type,0,
Probe Ratio,1.000e+01,
Vertical Scale,2.000e-01,
Vertical Position,-7.120e-01,
Horizontal Units,S,
Horizontal Scale,5.000E-05,
Horizontal Position,0.000E+00,
Horizontal Mode,Main,
SincET Mode,Real Time,
Sampling Period,5.000e-08,
Horizontal Old Scale,5.000E-05,
Horizontal Old Position,0.000E+00,
Firmware,V1.23,
Mode,Fast,
Waveform Data,
4,
2,
2,
4,
3,
2,
4,
3,
2,
4,
2,
3,
4,
2,
2,
4,
3,
2,
4,
3,
3,
4,
2,
3,
4,
3,
2,
4,
3,
2,
3,
3,
3,
3,
2,
3,
4,
2,
2,
4,
3,
2,
3,
2,
2,
4,
2,
2,
4,
2,
2,
4,
2,
2,
3,
2,
2,
3,
1,
2,
3,
2,
2,
4,
2,
2,
3,
2,
2,
3,
2,
2,
4,
2,
2,
3,
3,
2,
3,
2,
2,
3,
2,
3,
3,
2,
2,
3,
1,
2,
2,
2,
2,
3,
2,
2,
4,
3,
1,
3,
2,
1,
3,
2,
2,
2,
1,
2,
3,
1,
2,
3,
1,
2,
2,
2,
1,
3,
1,
2,
3,
2,
2,
3,
102,
36,
14,
7,
6,
6,
3,
4,
6,
3,
4,
6,
3,
3,
6,
4,
4,
6,
3,
4,
4,
4,
3,
4,
3,
3,
4,
3,
4,
4,
3,
4,
6,
3,
3,
4,
3,
3,
3,
3,
3,
4,
3,
3,
4,
3,
3,
4,
3,
3,
4,
3,
3,
3,
2,
4,
4,
3,
2,
4,
3,
2,
4,
3,
3,
4,
2,
3,
4,
3,
2,
4,
3,
2,
3,
3,
3,
4,
2,
3,
4,
2,
2,
4,
3,
2,
3,
2,
2,
3,
2,
3,
4,
2,
2,
3,
2,
2,
3,
2,
2,
3,
2,
3,
4,
2,
2,
3,
2,
2,
3,
2,
2,
3,
2,
2,
3,
2,
2,
3,
2,
2,
3,
2,
2,
3,
2,
2,
3,
2,
1,
3,
1,
2,
3,
2,
2,
3,
1,
2,
2,
-1,
2,
3,
2,
1,
2,
1,
1,
3,
1,
2,
3,
2,
1,
3,
1,
2,
2,
2,
1,
3,
2,
2,
3,
2,
2,
3,
2,
1,
3,
1,
2,
3,
2,
2,
3,
2,
2,
2,
2,
2,
3,
2,
2,
3,
1,
2,
3,
2,
2,
3,
1,
1,
2,
2,
1,
2,
-1,
1,
3,
1,
1,
3,
1,
1,
2,
1,
1,
3,
-1,
2,
3,
2,
1,
2,
2,
1,
2,
1,
1,
3,
1,
2,
3,
1,
1,
3,
1,
1,
3,
1,
2,
3,
1,
2,
3,
2,
1,
3,
1,
1,
2,
1,
1,
2,
-1,
1,
2,
1,
1,
2,
1,
1,
2,
1,
1,
2,
-1,
1,
2,
1,
1,
2,
1,
1,
2,
1,
1,
2,
1,
2,
2,
1,
1,
2,
1,
1,
3,
1,
1,
3,
1,
1,
2,
2,
1,
2,
1,
1,
2,
1,
1,
3,
1,
1,
2,
2,
-1,
3,
-1,
1,
2,
1,
-1,
2,
1,
1,
2,
2,
1,
2,
2,
1,
2,
1,
-1,
2,
-1,
1,
2,
1,
1,
2,
1,
1,
2,
2,
1,
2,
-1,
1,
2,
2,
1,
2,
2,
1,
3,
1,
1,
2,
1,
1,
2,
1,
-1,
2,
1,
1,
2,
1,
1,
2,
-1,
1,
2,
1,
1,
2,
1,
1,
1,
1,
1,
2,
-1,
1,
2,
1,
1,
3,
1,
1,
2,
1,
-1,
3,
-1,
1,
2,
1,
1,
2,
2,
1,
2,
1,
1,
2,
1,
1,
2,
1,
1,
2,
1,
1,
2,
1,
1,
2,
-1,
1,
2,
1,
1,
2,
1,
1,
1,
-1,
1,
2,
-1,
1,
2,
-1,
-1,
2,
1,
1,
1,
1,
1,
2,
-1,
1,
2,
1,
1,
2,
1,
1,
2,
1,
1,
3,
-1,
-1,
2,
2,
1,
2,
1,
1,
2,
1,
1,
2,
-1,
1,
2,
1,
1,
2,
1,
1,
2,
1,
-1,
2,
-1,
-1,
2,
1,
-1,
2,
1,
1,
2,
1,
1,
2,
-1,
-1,
3,
1,
-1,
2,
1,
-1,
2,
1,
1,
2,
-1,
1,
2,
1,
1,
2,
1,
1,
1,
1,
1,
2,
-1,
1,
2,
1,
1,
2,
1,
1,
2,
-1,
1,
2,
-1,
1,
2,
1,
1,
2,
1,
-2,
1,
2,
1,
2,
-1,
-1,
2,
1,
-1,
2,
1,
1,
2,
1,
1,
2,
-1,
-1,
2,
-1,
1,
2,
1,
1,
2,
1,
1,
3,
-1,
1,
3,
1,
1,
2,
1,
1,
2,
1,
1,
2,
-1,
1,
3,
1,
1,
2,
2,
1,
2,
1,
1,
2,
-1,
1,
2,
1,
-1,
2,
-1,
-1,
1,
-1,
-1,
2,
-2,
-1,
2,
-1,
-1,
2,
1,
1,
1,
1,
-1,
2,
-1,
1,
2,
1,
1,
2,
1,
1,
2,
1,
1,
3,
-1,
1,
3,
1,
1,
2,
1,
1,
2,
1,
1,
2,
-1,
1,
2,
1,
1,
2,
-1,
1,
1,
1,
-1,
2,
-1,
-1,
2,
1,
-1,
2,
-1,
1,
1,
-1,
-1,
2,
-1,
1,
2,
1,
1,
2,
1,
1,
2,
1,
1,
3,
-1,
-1,
2,
1,
-1,
2,
1,
1,
1,
-1,
1,
2,
-1,
1,
2,
1,
1,
1,
1,
-1,
2,
-1,
1,
2,
-1,
1,
2,
1,
-1,
2,
1,
1,
1,
-1,
-1,
2,
-1,
1,
3,
1,
1,
2,
1,
1,
2,
1,
1,
2,
-1,
-1,
2,
1,
1,
2,
2,
1,
1,
1,
1,
2,
-2,
1,
2,
1,
1,
2,
1,
1,
2,
1,
1,
2,
-1,
1,
2,
1,
-1,
2,
-1,
2,
1,
1,
1,
2,
-2,
1,
2,
-1,
-1,
2,
1,
-1,
1,
1,
1,
2,
-1,
-1,
2,
-1,
1,
2,
1,
1,
1,
1,
1,
2,
-1,
1,
2,
1,
1,
2,
1,
1,
1,
1,
1,
2,
-1,
1,
2,
1,
-1,
2,
1,
1,
2,
1,
1,
2,
-1,
1,
2,
1,
-1,
2,
-1,
1,
1,
1,
1,
2,
-1,
1,
2,
1,
-1,
2,
1,
1,
1,
1,
1,
2,
-1,
1,
2,
-1,
1,
2,
1,
1,
1,
1,
1,
2,
-1,
1,
2,
1,
-1,
2,
1,
1,
2,
-1,
1,
2,
-1,
1,
2,
1,
-1,
1,
1,
1,
2,
1,
1,
2,
-1,
1,
2,
1,
-1,
2,
1,
1,
1,
1,
1,
2,
-1,
1,
2,
-1,
1,
2,
1,
1,
1,
1,
1,
2,
-1,
-1,
2,
1,
-1,
2,
1,
1,
1,
1,
1,
2,
-1,
1,
2,
1,
1,
2,
1,
-1,
2,
-1,
1,
-1,
-2,
1,
3,
1,
-1,
2,
-1,
1,
1,
1,
-1,
2,
-1,
1,
2,
1,
1,
1,
1,
1,
2,
1,
1,
2,
-1,
-1,
2,
1,
1,
2,
1,
1,
1,
1,
1,
2,
-1,
1,
2,
1,
-1,
2,
1,
1,
2,
-1,
-1,
2,
-1,
-1,
2,
1,
-1,
2,
1,
-1,
1,
-1,
-1,
2,
-2,
-1,
1,
-1,
-1,
2,
-1,
-1,
1,
1,
1,
2,
-1,
-1,
2,
-1,
-1,
2,
1,
1,
1,
1,
1,
2,
-1,
1,
3,
2,
1,
2,
1,
1,
2,
1,
1,
2,
-1,
1,
2,
2,
-1,
2,
1,
-1,
2,
-1,
1,
1,
-1,
1,
2,
1,
-1,
2,
1,
1,
1,
1,
-1,
2,
-1,
-1,
2,
1,
-1,
2,
1,
1,
1,
1,
1,
2,
-1,
1,
2,
-1,
1,
1,
2,
1,
2,
1,
1,
2,
-1,
1,
2,
1,
-1,
2,
1,
1,
1,
-1,
1,
2,
-1,
1,
2,
1,
-1,
2,
1,
-1,
2,
-1,
1,
2,
-1,
-1,
2,
1,
-1,
2,
-1,
1,
1,
1,
1,
2,
-1,
1,
2,
1,
1,
2,
2,
1,
2,
1,
1,
2,
-1,
-1,
2,
1,
1,
2,
1,
1,
2,
1,
1,
2,
-1,
1,
2,
1,
-1,
2,
1,
-1,
2,
-1,
1,
1,
-1,
-1,
2,
1,
-1,
2,
1,
1,
1,
-1,
-1,
2,
-1,
1,
2,
1,
-1,
2,
1,
1,
1,
1,
1,
2,
-1,
-1,
2,
1,
1,
2,
2,
1,
1,
1,
-1,
2,
-1,
1,
2,
1,
-1,
2,
1,
1,
1,
1,
1,
2,
-2,
-1,
2,
1,
-1,
2,
1,
-1,
2,
-1,
1,
2,
-1,
-1,
2,
1,
-1,
2,
1,
1,
1,
1,
1,
2,
-1,
-1,
2,
1,
-1,
2,
1,
1,
1,
1,
1,
2,
-1,
1,
2,
1,
1,
2,
1,
1,
2,
1,
1,
2,
-2,
-1,
2,
1,
-1,
2,
1,
1,
1,
-1,
1,
2,
-1,
1,
2,
1,
-1,
2,
1,
1,
2,
1,
-1,
2,
-1,
-1,
2,
1,
-1,
2,
1,
1,
1,
1,
1,
2,
-1,
1,
2,
1,
1,
2,
1,
-1,
1,
1,
1,
2,
-1,
1,
2,
1,
1,
2,
1,
1,
2,
-1,
-1,
2,
-2,
1,
2,
-1,
-1,
3,
1,
-1,
2,
-1,
1,
2,
-1,
1,
2,
1,
-1,
2,
1,
1,
1,
1,
1,
2,
-1,
1,
2,
1,
-1,
2,
1,
1,
2,
1,
1,
2,
-1,
-1,
2,
1,
1,
2,
1,
1,
2,
1,
1,
2,
-1,
1,
2,
1,
-1,
2,
1,
1,
1,
-1,
1,
1,
-1,
-1,
2,
1,
-1,
1,
1,
-1,
1,
-1,
-1,
2,
-1,
-1,
2,
1,
-1,
2,
1,
1,
1,
1,
1,
2,
-1,
1,
2,
1,
1,
2,
1,
1,
2,
1,
1,
2,
-1,
1,
3,
1,
1,
2,
1,
1,
1,
1,
1,
2,
-1,
1,
2,
1,
-1,
1,
1,
1,
1,
-1,
1,
2,
-1,
-1,
1,
1,
-1,
1,
1,
-1,
1,
1,
1,
2,
-1,
-1,
2,
1,
-1,
2,
1,
1,
2,
1,
1,
2,
-1,
1,
2,
1,
1,
1,
1,
1,
2,
1,
-1,
2,
-1,
1,
2,
1,
-1,
2,
1,
-1,
1,
1,
-1,
2,
-1,
1,
2,
1,
-1,
2,
-1,
1,
2,
1,
-1,
2,
-1,
-1,
2,
2,
-1,
2,
1,
1,
1,
1,
1,
2,
-1,
1,
2,
1,
1,
2,
1,
1,
2,
1,
1,
2,
-1,
1,
2,
1,
-1,
1,
2,
-1,
1,
1,
1,
2,
-2,
1,
2,
-1,
-1,
2,
-1,
162,
55,
20,
9,
7,
4,
3,
6,
3,
3,
6,
4,
3,
4,
4,
3,
4,
3,
4,
6,
4,
3,
6,
4,
3,
4,
4,
4,
4,
3,
3,
6,
3,
3,
4,
3,
3,
4,
3,
3,
4,
2,
3,
4,
3,
2,
4,
3,
2,
3,
3,
3,
3,
2,
3,
4,
3,
2,
3,
3,
2,
4,
2,
3,
3,
2,
3,
4,
3,
2,
3,
3,
2,
3,
3,
2,
3,
2,
2,
4,
3,
2,
4,
3,
2,
3,
2,
2,
3,
2,
3,
4,
3,
2,
3,
3,
2,
3,
2,
2,
3,
2,
2,
3,
2,
2,
3,
2,
2,
3,
2,
1,
3,
2,
2,
3,
2,
2,
2,
2,
1,
3,
2,
2,
3,
1,
2,
3,
2,
1,
3,
2,
2,
2,
2,
1,
2,
1,
2,
3,
1,
2,
3,
1,
2,
3,
2,
2,
3,
1,
2,
3,
1,
1,
2,
1,
-1,
3,
2,
1,
3,
2,
2,
3,
2,
2,
2,
1,
1,
2,
1,
1,
3,
1,
2,
3,
2,
1,
3,
2,
2,
2,
2,
2,
2,
1,
2,
3,
2,
1,
3,
1,
2,
2,
2,
2,
3,
1,
1,
3,
1,
2,
3,
2,
2,
2,
1,
1,
2,
-1,
1,
2,
1,
1,
2,
1,
1,
2,
1,
-1,
2,
-1,
1,
2,
1,
1,
2,
1,
1,
2,
1,
1,
3,
1,
1,
3,
1,
1,
3,
2,
1,
2,
2,
1,
3,
1,
2,
3,
2,
1,
3,
1,
1,
2,
1,
1,
2,
-1,
1,
2,
1,
1,
2,
2,
1,
2,
1,
-1,
2,
-1,
1,
2,
2,
1,
3,
1,
1,
2,
1,
1,
2,
-1,
1,
2,
2,
1,
2,
1,
1,
2,
2,
1,
2,
1,
1,
3,
1,
1,
2,
1,
1,
1,
1,
-1,
2,
-1,
1,
2,
1,
1,
2,
1,
1,
2,
1,
1,
2,
-1,
-1,
2,
1,
1,
2,
1,
1,
2,
1,
-1,
2,
-1,
1,
2,
2,
1,
2,
1,
1,
2,
1,
1,
2,
-1,
1,
3,
1,
1,
2,
1,
1,
1,
1,
-1,
2,
1,
1,
3,
1,
1,
2,
1,
1,
1,
1,
-1,
2,
-1,
1,
2,
1,
1,
2,
1,
1,
2,
1,
-1,
2,
-1,
1,
2,
-1,
-1,
2,
1,
1,
2,
1,
1,
2,
-1,
1,
2,
1,
-1,
2,
1,
1,
2,
1,
1,
2,
-1,
1,
3,
-1,
1,
2,
1,
1,
2,
1,
-1,
2,
-1,
1,
3,
1,
1,
2,
-1,
1,
2,
1,
-1,
2,
-1,
1,
2,
1,
1,
2,
1,
-1,
2,
-1,
1,
2,
-1,
1,
2,
1,
-1,
2,
1,
1,
2,
1,
-1,
2,
-1,
1,
2,
-1,
1,
2,
1,
1,
2,
1,
1,
2,
-1,
1,
2,
-1,
1,
2,
1,
1,
2,
-1,
-1,
2,
-1,
1,
2,
1,
1,
2,
-1,
1,
2,
1,
1,
2,
-1,
1,
2,
1,
1,
2,
1,
1,
2,
-1,
-1,
2,
-1,
1,
2,
1,
1,
2,
1,
1,
2,
1,
1,
2,
-1,
-1,
2,
1,
1,
2,
1,
-1,
2,
-1,
-1,
2,
-1,
1,
2,
1,
-1,
2,
-1,
1,
2,
-1,
-1,
2,
1,
1,
2,
1,
-1,
2,
1,
1,
2,
-2,
1,
2,
-1,
1,
2,
1,
-1,
2,
1,
1,
2,
1,
1,
2,
-1,
1,
2,
1,
-1,
3,
1,
1,
2,
1,
1,
2,
-1,
1,
2,
1,
1,
2,
1,
1,
2,
1,
-1,
3,
-1,
1,
2,
1,
-1,
2,
-1,
1,
1,
-1,
1,
1,
57,
65,
23,
8,
4,
6,
4,
3,
6,
3,
4,
6,
3,
3,
6,
3,
3,
6,
3,
4,
4,
4,
4,
6,
3,
4,
6,
4,
3,
4,
3,
3,
4,
3,
3,
4,
3,
4,
6,
2,
3,
4,
3,
2,
3,
2,
3,
6,
3,
4,
4,
2,
2,
4,
2,
2,
3,
2,
2,
3,
3,
3,
4,
3,
3,
3,
3,
3,
4,
2,
3,
4,
2,
2,
4,
2,
2,
4,
3,
2,
3,
2,
2,
4,
2,
3,
4,
2,
2,
3,
3,
2,
3,
2,
2,
3,
2,
2,
3,
2,
2,
3,
2,
2,
3,
2,
2,
3,
1,
2,
3,
2,
2,
3,
2,
2,
3,
1,
59,
23,
9,
4,
7,
4,
4,
6,
4,
4,
6,
4,
4,
4,
3,
4,
6,
4,
4,
6,
3,
4,
4,
3,
3,
6,
3,
3,
4,
3,
3,
4,
3,
3,
4,
3,
3,
4,
3,
3,
4,
3,
2,
4,
3,
3,
3,
2,
3,
4,
2,
3,
4,
3,
3,
4,
3,
3,
4,
2,
3,
4,
2,
2,
4,
2,
2,
4,
3,
3,
3,
3,
2,
4,
2,
3,
3,
3,
2,
3,
3,
3,
3,
2,
2,
4,
2,
2,
3,
2,
2,
3,
3,
2,
3,
2,
2,
3,
2,
3,
3,
3,
2,
3,
2,
2,
3,
1,
2,
3,
2,
2,
3,
2,
2,
3,
2,
2,
3,
2,
2,
3,
2,
2,
3,
2,
2,
3,
2,
2,
3,
2,
2,
3,
1,
2,
3,
2,
2,
3,
2,
2,
3,
1,
2,
3,
1,
2,
2,
2,
1,
3,
1,
2,
2,
1,
1,
3,
1,
1,
3,
2,
1,
3,
1,
2,
2,
1,
2,
3,
2,
2,
3,
2,
2,
3,
2,
2,
3,
1,
1,
3,
2,
2,
3,
2,
1,
2,
1,
2,
2,
1,
2,
2,
-1,
1,
4,
1,
1,
2,
1,
1,
2,
1,
1,
2,
-1,
1,
2,
2,
1,
2,
1,
2,
2,
1,
1,
3,
1,
2,
3,
2,
1,
2,
1,
2,
2,
1,
1,
2,
-1,
1,
2,
1,
2,
3,
2,
2,
2,
1,
1,
3,
-1,
1,
3,
2,
1,
2,
1,
1,
2,
1,
1,
2,
-1,
1,
2,
1,
1,
2,
1,
1,
2,
1,
1,
2,
-1,
1,
2,
2,
1,
2,
1,
1,
2,
1,
1,
2,
1,
1,
2,
1,
1,
2,
2,
2,
2,
1,
1,
3,
1,
1,
2,
1,
1,
2,
1,
1,
2,
1,
1,
2,
-1,
1,
2,
1,
1,
2,
1,
-1,
2,
1,
1,
2,
-1,
1,
2,
2,
1,
2,
1,
1,
2,
1,
1,
2,
-1,
1,
3,
1,
1,
3,
2,
2,
2,
1,
1,
2,
-1,
1,
2,
2,
1,
2,
1,
1,
2,
1,
1,
2,
-1,
1,
2,
1,
1,
2,
1,
1,
1,
-1,
1,
2,
-1,
1,
2,
1,
1,
2,
1,
1,
2,
1,
1,
2,
-1,
1,
2,
1,
-1,
2,
1,
1,
2,
1,
1,
2,
-1,
1,
3,
1,
1,
2,
1,
1,
2,
1,
-1,
2,
-1,
1,
2,
1,
1,
2,
1,
1,
1,
1,
1,
2,
-1,
1,
2,
1,
1,
2,
1,
-1,
2,
1,
1,
2,
-1,
1,
2,
1,
1,
2,
1,
1,
2,
1,
1,
2,
-1,
1,
2,
1,
1,
2,
1,
1,
1,
1,
1,
2,
-1,
1,
2,
1,
1,
2,
1,
1,
2,
1,
-1,
2,
-2,
1,
2,
1,
-1,
2,
1,
1,
2,
-1,
1,
2,
-1,
1,
2,
1,
1,
2,
1,
1,
2,
-1,
-1,
2,
-1,
1,
2,
1,
1,
2,
1,
1,
1,
1,
1,
2,
-1,
1,
3,
-1,
1,
2,
1,
1,
2,
1,
1,
2,
-1,
1,
2,
-1,
1,
2,
2,
1,
1,
1,
-1,
2,
-2,
1,
2,
1,
-1,
2,
1,
-1,
2,
-1,
1,
2,
-1,
1,
2,
1,
1,
2,
1,
1,
1,
1,
1,
2,
-1,
1,
2,
1,
1,
2,
1,
1,
2,
1,
1,
2,
-1,
1,
2,
1,
1,
2,
1,
1,
2,
1,
-1,
2,
-1,
-1,
1,
-1,
1,
2,
-1,
-1,
1,
1,
1,
2,
-1,
1,
2,
-1,
1,
1,
1,
1,
2,
1,
1,
2,
-1,
2,
3,
1,
-1,
2,
1,
1,
1,
1,
1,
2,
-1,
1,
2,
1,
1,
2,
1,
1,
2,
1,
1,
3,
-1,
1,
2,
1,
1,
2,
1,
1,
1,
1,
-1,
2,
-2,
1,
2,
-1,
-1,
2,
1,
1,
2,
-1,
-1,
1,
-1,
1,
2,
1,
-1,
2,
1,
1,
1,
1,
1,
2,
-1,
2,
2,
2,
-1,
2,
1,
1,
2,
1,
1,
2,
-1,
1,
2,
1,
1,
2,
1,
1,
2,
1,
1,
2,
-2,
1,
2,
1,
-1,
2,
1,
-1,
1,
1,
1,
2,
-2,
1,
2,
1,
-1,
1,
1,
1,
1,
1,
1,
2,
-1,
1,
2,
1,
-1,
3,
1,
1,
1,
1,
1,
2,
-1,
1,
2,
1,
1,
2,
1,
1,
2,
1,
1,
2,
-1,
-1,
2,
1,
-1,
2,
1,
1,
2,
1,
1,
2,
-2,
1,
2,
1,
1,
2,
1,
1,
2,
-1,
1,
2,
-1,
1,
2,
1,
-1,
2,
1,
1,
1,
1,
1,
2,
-2,
1,
2,
1,
1,
2,
1,
1,
2,
1,
1,
2,
-1,
1,
2,
-1,
-1,
2,
1,
1,
1,
1,
1,
2,
-2,
1,
2,
1,
-1,
2,
1,
1,
1,
1,
-1,
2,
-1,
1,
2,
1,
-1,
2,
1,
1,
2,
1,
1,
2,
-1,
1,
2,
1,
-1,
2,
1,
1,
2,
1,
-1,
2,
-1,
1,
2,
1,
1,
2,
1,
1,
2,
1,
-1,
2,
-1,
1,
2,
-1,
1,
2,
1,
-1,
2,
1,
-1,
2,
-1,
1,
2,
-1,
-1,
2,
1,
1,
2,
1,
1,
2,
-1,
1,
2,
1,
1,
2,
1,
-1,
2,
1,
1,
2,
-1,
1,
2,
1,
-1,
2,
1,
1,
2,
1,
-1,
2,
-1,
-1,
2,
-1,
1,
2,
1,
-1,
2,
1,
1,
2,
-1,
1,
2,
1,
1,
2,
1,
1,
1,
1,
-1,
2,
-2,
1,
2,
-1,
1,
2,
1,
-1,
2,
1,
1,
2,
-1,
-1,
2,
-1,
1,
2,
1,
1,
2,
1,
-1,
2,
-1,
1,
2,
1,
-1,
2,
-1,
1,
1,
1,
1,
2,
-1,
-1,
2,
1,
-2,
1,
1,
1,
1,
-1,
-1,
1,
-1,
1,
2,
1,
1,
2,
-1,
1,
2,
1,
-1,
2,
-1,
1,
2,
1,
1,
2,
1,
1,
2,
1,
-1,
2,
-1,
1,
2,
1,
1,
2,
1,
1,
2,
1,
1,
3,
-1,
1,
2,
-1,
-1,
2,
1,
1,
2,
1,
-1,
1,
-1,
1,
3,
-1,
1,
1,
1,
-1,
1,
-1,
-1,
2,
-1,
-1,
2,
1,
-1,
2,
-1,
-1,
1,
1,
-1,
2,
-1,
1,
2,
1,
1,
2,
1,
1,
2,
-1,
1,
2,
-1,
1,
2,
1,
78,
27,
12,
8,
7,
6,
4,
6,
3,
4,
6,
3,
4,
4,
3,
3,
4,
3,
3,
4,
4,
3,
4,
3,
3,
4,
3,
3,
4,
3,
3,
4,
3,
4,
4,
3,
3,
4,
3,
3,
4,
3,
3,
4,
3,
3,
4,
3,
3,
4,
3,
3,
4,
3,
3,
4,
3,
3,
4,
2,
2,
4,
3,
2,
3,
2,
2,
4,
3,
2,
4,
2,
2,
3,
3,
2,
3,
2,
2,
3,
2,
2,
4,
3,
2,
3,
2,
2,
3,
2,
2,
4,
2,
2,
3,
3,
2,
3,
3,
2,
4,
2,
2,
4,
2,
2,
4,
2,
2,
3,
2,
2,
3,
2,
2,
4,
2,
2,
3,
2,
1,
3,
1,
2,
3,
2,
1,
3,
2,
1,
3,
2,
2,
3,
2,
1,
2,
2,
1,
3,
1,
2,
3,
2,
1,
3,
2,
2,
3,
2,
1,
3,
1,
2,
3,
2,
1,
3,
1,
1,
3,
2,
1,
3,
1,
1,
3,
1,
1,
3,
1,
2,
2,
2,
1,
3,
1,
1,
3,
1,
1,
2,
1,
1,
2,
2,
2,
2,
1,
1,
3,
2,
1,
3,
1,
1,
2,
1,
1,
3,
1,
1,
3,
2,
1,
3,
1,
1,
2,
2,
1,
2,
1,
1,
2,
2,
1,
2,
1,
1,
2,
1,
1,
3,
1,
1,
2,
2,
1,
2,
1,
1,
2,
1,
1,
3,
1,
1,
3,
1,
1,
2,
2,
1,
2,
2,
1,
3,
1,
1,
2,
2,
1,
2,
1,
1,
2,
1,
1,
3,
1,
1,
2,
1,
1,
2,
1,
1,
2,
1,
1,
2,
1,
1,
2,
1,
1,
2,
1,
1,
2,
1,
1,
2,
-1,
1,
3,
1,
-1,
2,
-1,
2,
2,
1,
1,
2,
1,
1,
2,
1,
1,
2,
1,
1,
2,
1,
1,
3,
1,
1,
2,
2,
1,
2,
1,
1,
2,
1,
1,
2,
1,
1,
2,
1,
1,
2,
1,
1,
2,
1,
1,
2,
1,
1,
2,
2,
-1,
2,
1,
1,
2,
1,
1,
2,
-1,
1,
2,
1,
1,
1,
-1,
1,
2,
1,
1,
2,
-1,
-1,
2,
-1,
-1,
2,
1,
1,
1,
1,
1,
2,
-1,
2,
2,
1,
1,
2,
1,
1,
2,
1,
1,
2,
1,
1,
2,
2,
1,
3,
1,
1,
2,
1,
1,
2,
-1,
1,
2,
1,
-1,
2,
1,
1,
2,
1,
1,
2,
-1,
-1,
2,
-1,
-1,
1,
1,
1,
1,
1,
1,
2,
-1,
1,
2,
-1,
1,
2,
-1,
1,
2,
1,
1,
2,
-1,
1,
2,
2,
-1,
2,
1,
1,
2,
1,
1,
2,
-1,
1,
2,
1,
1,
2,
1,
1,
1,
1,
1,
2,
-1,
1,
2,
1,
-1,
2,
-1,
1,
1,
1,
1,
2,
-2,
1,
2,
1,
1,
2,
1,
1,
2,
1,
1,
2,
-1,
1,
2,
1,
-1,
2,
1,
1,
2,
1,
1,
2,
-1,
1,
2,
2,
1,
2,
1,
1,
2,
1,
1,
2,
-1,
1,
2,
1,
127,
41,
16,
7,
6,
3,
6,
6,
3,
4,
6,
4,
3,
6,
3,
3,
4,
4,
3,
6,
3,
4,
6,
3,
3,
4,
4,
3,
4,
3,
3,
4,
3,
4,
6,
4,
3,
4,
3,
3,
4,
3,
3,
4,
2,
3,
4,
3,
2,
4,
3,
3,
4,
2,
3,
3,
3,
2,
4,
3,
2,
3,
3,
3,
3,
3,
3,
4,
2,
3,
4,
3,
2,
3,
3,
2,
3,
2,
2,
4,
2,
3,
4,
3,
2,
3,
3,
2,
3,
2,
2,
3,
2,
3,
3,
2,
2,
3,
2,
2,
3,
2,
71,
37,
12,
6,
6,
4,
4,
4,
4,
4,
4,
3,
4,
6,
3,
3,
6,
3,
3,
4,
3,
3,
4,
3,
3,
4,
3,
4,
6,
3,
3,
4,
3,
3,
4,
2,
4,
4,
3,
3,
4,
3,
2,
4,
3,
3,
4,
3,
3,
4,
3,
3,
4,
3,
2,
4,
2,
3,
4,
3,
3,
4,
3,
3,
4,
2,
1,
3,
4,
2,
3,
2,
2,
4,
2,
3,
4,
2,
2,
3,
2,
2,
3,
2,
2,
4,
2,
2,
4,
2,
2,
3,
3,
2,
4,
2,
2,
3,
2,
2,
4,
3,
2,
3,
2,
2,
3,
2,
3,
4,
2,
3,
3,
2,
2,
3,
2,
2,
3,
2,
2,
3,
2,
2,
3,
2,
2,
2,
1,
1,
2,
1,
1,
3,
1,
1,
3,
2,
1,
3,
2,
2,
2,
2,
1,
3,
1,
2,
3,
2,
2,
3,
2,
2,
3,
2,
2,
3,
1,
1,
3,
2,
1,
3,
2,
2,
2,
2,
1,
3,
1,
2,
3,
1,
1,
2,
1,
1,
2,
1,
1,
3,
1,
1,
3,
1,
1,
2,
1,
1,
2,
1,
1,
3,
1,
2,
2,
2,
1,
3,
1,
2,
2,
1,
2,
3,
1,
2,
3,
2,
1,
3,
2,
2,
2,
1,
1,
2,
1,
2,
3,
2,
1,
2,
1,
1,
2,
1,
1,
3,
1,
1,
2,
1,
1,
2,
1,
1,
2,
1,
1,
2,
-1,
1,
2,
1,
1,
3,
1,
1,
3,
1,
2,
3,
1,
1,
2,
2,
1,
2,
1,
1,
2,
1,
1,
3,
-1,
1,
3,
1,
1,
2,
1,
1,
2,
1,
1,
3,
-1,
1,
2,
2,
1,
2,
1,
1,
2,
1,
1,
3,
-1,
1,
2,
1,
1,
2,
1,
1,
2,
1,
1,
2,
1,
1,
3,
2,
1,
2,
1,
1,
2,
1,
1,
2,
-1,
1,
3,
1,
1,
2,
1,
1,
2,
1,
1,
2,
-1,
1,
2,
1,
-1,
2,
2,
1,
2,
1,
1,
2,
-1,
1,
2,
1,
-1,
2,
1,
1,
2,
1,
1,
2,
-1,
1,
2,
1,
1,
2,
1,
1,
2,
1,
1,
2,
1,
1,
2,
1,
-1,
2,
1,
2,
2,
1,
1,
2,
-1,
1,
2,
1,
1,
2,
1,
1,
2,
1,
1,
2,
-1,
1,
2,
1,
1,
2,
1,
-1,
2,
1,
1,
2,
-1,
1,
2,
2,
1,
2,
1,
1,
2,
1,
1,
2,
-1,
1,
2,
1,
1,
2,
1,
1,
2,
1,
1,
2,
-1,
1,
2,
1,
1,
2,
1,
1,
2,
1,
-1,
3,
-1,
-1,
2,
-1,
-1,
2,
1,
1,
2,
1,
1,
2,
-1,
1,
2,
-1,
2,
2,
-1,
-1,
1,
1,
1,
2,
-1,
1,
2,
2,
-1,
2,
1,
1,
2,
-1,
1,
3,
-1,
1,
2,
1,
1,
2,
1,
1,
2,
1,
-1,
2,
1,
1,
2,
1,
1,
2,
1,
1,
2,
1,
-1,
3,
-1,
1,
2,
1,
1,
2,
1,
-1,
1,
-1,
-1,
2,
-1,
-1,
2,
1,
-1,
2,
-1,
1,
1,
-1,
-1,
2,
-1,
1,
2,
1,
-1,
2,
-1,
1,
1,
1,
-1,
2,
1,
1,
2,
-1,
1,
1,
1,
1,
2,
1,
1,
3,
-1,
1,
2,
2,
1,
2,
1,
-1,
1,
1,
-1,
2,
-1,
1,
2,
-1,
1,
2,
-1,
-1,
1,
-1,
1,
2,
-2,
1,
2,
1,
-1,
2,
1,
1,
2,
1,
-1,
2,
-1,
1,
2,
1,
1,
2,
-1,
1,
2,
1,
1,
3,
-1,
1,
2,
1,
1,
2,
1,
-1,
2,
1,
-1,
2,
-1,
1,
2,
1,
-1,
2,
1,
-1,
2,
1,
-1,
2,
-1,
-1,
2,
1,
1,
2,
1,
1,
2,
1,
1,
2,
-1,
1,
2,
1,
1,
2,
1,
1,
2,
1,
-1,
2,
-1,
1,
2,
1,
1,
2,
-1,
1,
2,
1,
1,
3,
-1,
1,
2,
-1,
1,
2,
1,
1,
2,
1,
-1,
2,
-1,
-1,
2,
-1,
1,
1,
1,
1,
1,
1,
1,
1,
-1,
1,
2,
1,
1,
2,
1,
-1,
2,
1,
1,
2,
-1,
1,
2,
1,
1,
2,
1,
1,
1,
1,
1,
2,
-1,
1,
2,
1,
1,
2,
1,
1,
2,
1,
-1,
2,
-1,
1,
2,
1,
-1,
1,
1,
-1,
1,
1,
-1,
2,
-1,
1,
2,
1,
1,
1,
1,
1,
2,
-1,
1,
2,
-1,
1,
2,
1,
1,
2,
1,
1,
2,
1,
-1,
2,
-1,
1,
2,
2,
-1,
2,
1,
1,
2,
1,
1,
1,
-1,
1,
2,
1,
1,
2,
1,
1,
2,
1,
-1,
2,
-1,
1,
2,
1,
1,
2,
-1,
1,
2,
1,
-1,
2,
-1,
1,
2,
1,
1,
2,
1,
-1,
2,
1,
1,
2,
-1,
1,
2,
1,
1,
2,
1,
1,
1,
1,
-1,
2,
-1,
1,
2,
1,
1,
2,
1,
1,
2,
1,
-1,
2,
-1,
1,
2,
1,
1,
1,
1,
1,
2,
1,
1,
2,
-2,
1,
3,
-1,
-1,
2,
-1,
1,
1,
1,
1,
2,
-1,
1,
2,
1,
1,
2,
1,
-1,
2,
1,
1,
2,
-1,
1,
2,
1,
1,
2,
1,
1,
2,
88,
27,
12,
6,
4,
6,
3,
4,
4,
4,
4,
4,
4,
4,
6,
4,
4,
6,
3,
3,
4,
3,
2,
4,
3,
3,
4,
3,
3,
4,
3,
3,
4,
3,
3,
4,
2,
3,
4,
2,
3,
4,
3,
3,
4,
4,
3,
4,
3,
3,
4,
3,
3,
4,
3,
3,
4,
3,
3,
4,
3,
2,
4,
2,
3,
4,
3,
2,
3,
3,
2,
3,
2,
2,
3,
2,
2,
3,
2,
2,
3,
2,
2,
3,
2,
2,
4,
2,
2,
3,
2,
2,
3,
3,
2,
3,
2,
2,
3,
2,
2,
4,
2,
2,
3,
2,
2,
3,
2,
2,
3,
2,
2,
4,
2,
2,
3,
2,
2,
3,
2,
2,
3,
1,
2,
3,
2,
2,
2,
2,
2,
3,
1,
2,
3,
1,
1,
3,
2,
2,
3,
2,
2,
3,
1,
2,
3,
2,
2,
2,
2,
1,
3,
1,
2,
3,
2,
2,
3,
2,
2,
3,
2,
1,
3,
2,
1,
6,
57,
18,
9,
6,
4,
6,
3,
3,
6,
4,
3,
4,
4,
3,
6,
3,
4,
6,
3,
3,
4,
3,
3,
6,
3,
3,
4,
3,
3,
6,
3,
3,
4,
3,
2,
4,
3,
3,
4,
3,
3,
6,
2,
3,
4,
2,
3,
4,
3,
3,
4,
3,
3,
4,
3,
3,
4,
3,
3,
3,
3,
2,
4,
2,
3,
4,
2,
2,
3,
2,
2,
3,
2,
2,
4,
2,
2,
4,
3,
2,
3,
2,
2,
3,
2,
2,
3,
3,
2,
4,
3,
2,
3,
2,
2,
4,
2,
2,
4,
2,
2,
3,
2,
2,
3,
3,
2,
3,
2,
2,
3,
1,
2,
3,
2,
2,
3,
2,
1,
3,
2,
2,
4,
2,
2,
3,
2,
2,
3,
2,
2,
3,
1,
1,
3,
1,
2,
3,
1,
2,
3,
1,
2,
3,
2,
2,
3,
2,
2,
3,
2,
1,
2,
2,
2,
2,
2,
2,
3,
2,
2,
3,
2,
1,
3,
2,
2,
2,
1,
1,
3,
1,
1,
3,
1,
1,
2,
2,
1,
2,
-1,
1,
4,
-1,
2,
3,
1,
2,
2,
1,
1,
2,
1,
1,
3,
1,
1,
3,
2,
1,
3,
1,
2,
2,
1,
1,
3,
2,
1,
3,
1,
1,
2,
1,
1,
3,
1,
1,
3,
1,
1,
3,
1,
1,
3,
1,
1,
2,
2,
1,
3,
-1,
1,
2,
2,
1,
2,
1,
1,
2,
1,
-1,
2,
-1,
1,
2,
1,
-1,
2,
1,
1,
2,
1,
1,
2,
-1,
1,
3,
1,
1,
2,
1,
1,
2,
1,
1,
3,
1,
1,
3,
1,
1,
2,
1,
1,
2,
1,
1,
3,
-1,
1,
2,
2,
1,
3,
1,
1,
2,
1,
-1,
2,
-1,
1,
2,
1,
1,
2,
1,
1,
2,
-1,
1,
2,
-1,
1,
2,
2,
1,
2,
1,
1,
1,
1,
1,
3,
1,
1,
2,
2,
1,
2,
1,
1,
2,
1,
1,
3,
-1,
1,
3,
1,
1,
2,
2,
1,
2,
1,
-1,
2,
-1,
1,
2,
1,
1,
2,
1,
1,
2,
1,
1,
2,
-1,
1,
2,
1,
1,
2,
1,
-1,
2,
1,
1,
3,
1,
1,
2,
1,
1,
2,
1,
1,
2,
1,
1,
3,
-1,
1,
3,
2,
1,
2,
1,
1,
2,
1,
-1,
2,
-1,
1,
2,
1,
1,
2,
1,
1,
2,
1,
1,
3,
-2,
1,
2,
1,
-1,
2,
1,
1,
2,
1,
-1,
2,
-1,
1,
2,
1,
1,
2,
-1,
1,
2,
1,
1,
2,
1,
1,
2,
1,
1,
3,
1,
1,
2,
1,
1,
2,
-1,
1,
2,
1,
1,
2,
1,
1,
2,
1,
1,
2,
-1,
1,
2,
1,
-1,
2,
1,
1,
2,
1,
-1,
2,
-1,
1,
2,
2,
-1,
2,
1,
1,
2,
-1,
1,
3,
-1,
1,
2,
1,
1,
2,
1,
1,
2,
1,
-1,
2,
-1,
1,
2,
1,
1,
2,
1,
1,
1,
1,
-1,
2,
-1,
1,
2,
1,
1,
2,
1,
-1,
2,
1,
1,
2,
-1,
1,
2,
-1,
-1,
2,
-1,
1,
2,
-1,
-1,
2,
-1,
1,
2,
1,
-1,
2,
1,
1,
2,
1,
1,
2,
-1,
1,
2,
1,
1,
2,
1,
1,
2,
1,
-1,
2,
-1,
1,
2,
1,
-1,
2,
1,
1,
1,
1,
-1,
2,
-1,
1,
2,
1,
1,
1,
-1,
1,
2,
-1,
1,
2,
-1,
1,
2,
2,
-1,
2,
-1,
1,
2,
1,
-1,
2,
-1,
1,
2,
1,
-1,
2,
1,
1,
2,
1,
-1,
2,
1,
1,
2,
1,
1,
2,
1,
-1,
2,
1,
1,
2,
-1,
1,
2,
1,
1,
2,
1,
1,
1,
1,
1,
2,
-1,
1,
2,
1,
-1,
2,
1,
-1,
1,
-1,
-1,
1,
-1,
-1,
2,
1,
-1,
2,
1,
-1,
2,
1,
-1,
2,
-1,
-1,
2,
1,
1,
2,
1,
1,
1,
1,
1,
2,
-1,
1,
2,
1,
1,
2,
1,
1,
2,
1,
-1,
2,
-1,
1,
2,
1,
-1,
2,
1,
-1,
1,
1,
1,
1,
-2,
-1,
2,
1,
-1,
2,
1,
-1,
2,
-1,
1,
2,
-1,
1,
2,
1,
-1,
2,
1,
1,
1,
1,
1,
2,
-1,
1,
2,
1,
1,
2,
1,
1,
2,
1,
-1,
2,
-1,
1,
2,
1,
-1,
2,
1,
1,
1,
1,
-1,
1,
-2,
1,
2,
1,
-1,
2,
1,
-1,
2,
-1,
1,
1,
-1,
1,
2,
1,
-1,
2,
1,
1,
2,
1,
1,
2,
-1,
1,
2,
1,
-1,
2,
1,
1,
1,
1,
1,
2,
-1,
1,
2,
1,
1,
2,
1,
1,
1,
1,
1,
2,
-2,
1,
2,
1,
1,
2,
1,
-1,
1,
1,
1,
1,
-1,
1,
2,
-1,
-1,
2,
1,
-1,
1,
1,
1,
2,
-1,
1,
2,
1,
-1,
2,
1,
1,
1,
1,
1,
2,
-1,
1,
2,
1,
1,
2,
1,
1,
1,
1,
1,
2,
-1,
1,
2,
1,
1,
2,
1,
1,
1,
1,
-1,
2,
-1,
1,
1,
1,
-1,
2,
1,
1,
1,
-1,
1,
1,
-1,
-1,
2,
1,
-1,
2,
-1,
1,
1,
1,
1,
2,
-1,
1,
2,
1,
-1,
2,
1,
1,
1,
1,
1,
2,
-1,
1,
2,
1,
-1,
2,
1,
-1,
1,
1,
1,
2,
-2,
1,
2,
1,
-1,
2,
-1,
1,
2,
1,
1,
2,
-2,
1,
2,
1,
-1,
2,
1,
1,
1,
-1,
1,
2,
-1,
1,
2,
1,
-1,
2,
1,
1,
1,
1,
1,
2,
-1,
1,
2,
1,
1,
2,
1,
1,
1,
1,
1,
2,
-1,
1,
2,
1,
1,
2,
1,
1,
1,
1,
-1,
2,
-2,
-1,
1,
1,
1,
1,
1,
1,
1,
1,
1,
2,
-1,
1,
2,
-1,
-1,
2,
1,
1,
2,
-1,
1,
2,
-1,
1,
2,
2,
-1,
2,
1,
1,
1,
1,
1,
2,
-1,
1,
2,
1,
1,
2,
1,
1,
2,
1,
1,
2,
-1,
1,
3,
1,
1,
2,
1,
1,
1,
-1,
1,
2,
-1,
2,
2,
-1,
-2,
2,
1,
1,
1,
1,
1,
1,
-1,
-1,
2,
1,
-1,
2,
1,
1,
1,
1,
1,
2,
-1,
1,
2,
1,
1,
2,
1,
1,
2,
1,
1,
2,
-1,
1,
2,
1,
-1,
2,
1,
1,
1,
-1,
1,
2,
-2,
1,
2,
1,
-1,
2,
1,
1,
1,
1,
-1,
2,
-1,
-1,
2,
-1,
1,
1,
1,
1,
1,
1,
1,
2,
-1,
1,
2,
1,
-1,
2,
1,
1,
2,
1,
1,
2,
-1,
1,
2,
1,
1,
2,
1,
1,
1,
-1,
1,
2,
-1,
1,
2,
-1,
-1,
2,
1,
1,
1,
-1,
1,
2,
-2,
1,
1,
1,
-1,
2,
1,
-1,
2,
-1,
1,
109,
35,
14,
11,
6,
4,
6,
4,
4,
6,
4,
3,
6,
3,
4,
6,
4,
4,
6,
3,
4,
4,
3,
3,
6,
3,
4,
4,
3,
3,
4,
4,
3,
4,
3,
3,
4,
3,
4,
4,
3,
3,
4,
3,
3,
4,
3,
3,
4,
2,
3,
4,
3,
2,
4,
3,
2,
4,
3,
3,
4,
3,
3,
4,
3,
2,
4,
3,
3,
3,
2,
2,
4,
2,
3,
4,
3,
2,
3,
3,
3,
3,
3,
2,
3,
1,
3,
