src/overvoltage_apd2/1593v01_0000002.CSV

Format,1.0B,
Memory Length,10000,
IntpDistance,0,
Trigger Address,4999,
Trigger Level,1.600E-01,
Source,CH1,
Vertical Units,V,
Vertical Units Div,0,
Vertical Units Extend Div,16,
Label,,
Probe Type,0,
Probe Ratio,1.000e+01,
Vertical Scale,5.000e-01,
Vertical Position,-1.780e+00,
Horizontal Units,S,
Horizontal Scale,5.000E-05,
Horizontal Position,0.000E+00,
Horizontal Mode,Main,
SincET Mode,Real Time,
Sampling Period,5.000e-08,
Horizontal Old Scale,5.000E-05,
Horizontal Old Position,0.000E+00,
Firmware,V1.23,
Mode,Fast,
Waveform Data,
2,
2,
1,
1,
2,
1,
1,
2,
1,
1,
2,
1,
1,
2,
1,
1,
2,
1,
1,
1,
1,
1,
1,
1,
1,
1,
1,
1,
2,
1,
1,
2,
1,
1,
2,
1,
1,
2,
1,
1,
2,
1,
1,
2,
1,
1,
1,
1,
2,
2,
1,
2,
2,
1,
1,
2,
1,
1,
2,
1,
1,
2,
1,
1,
1,
1,
1,
2,
1,
1,
2,
1,
1,
2,
1,
1,
1,
1,
1,
2,
1,
1,
2,
1,
1,
2,
1,
1,
2,
1,
1,
2,
1,
1,
2,
1,
1,
1,
1,
2,
2,
1,
1,
1,
1,
1,
2,
1,
2,
2,
1,
1,
2,
1,
1,
2,
1,
1,
2,
1,
1,
2,
1,
2,
2,
1,
1,
2,
1,
1,
2,
1,
1,
2,
1,
1,
2,
1,
1,
2,
1,
1,
2,
1,
1,
2,
1,
1,
2,
1,
1,
2,
1,
1,
2,
1,
1,
1,
1,
1,
2,
1,
1,
2,
1,
1,
2,
1,
1,
1,
1,
1,
2,
1,
1,
2,
1,
1,
2,
1,
1,
2,
1,
1,
2,
1,
1,
2,
1,
1,
2,
1,
1,
2,
1,
2,
2,
1,
1,
2,
1,
1,
2,
1,
1,
2,
1,
1,
2,
1,
1,
2,
1,
1,
2,
1,
1,
1,
1,
2,
2,
1,
1,
2,
1,
1,
2,
1,
1,
2,
1,
2,
1,
136,
42,
15,
5,
5,
5,
4,
4,
5,
4,
4,
4,
4,
2,
5,
4,
4,
4,
4,
2,
5,
4,
4,
4,
4,
2,
4,
4,
2,
4,
4,
2,
4,
2,
4,
4,
2,
2,
4,
4,
2,
4,
4,
2,
4,
2,
4,
4,
2,
2,
4,
2,
2,
4,
2,
4,
4,
2,
4,
4,
2,
2,
4,
2,
2,
4,
2,
4,
4,
2,
2,
4,
2,
2,
4,
4,
2,
4,
2,
2,
4,
2,
4,
4,
2,
2,
2,
2,
2,
4,
2,
2,
4,
2,
2,
4,
2,
2,
2,
2,
2,
4,
2,
2,
2,
2,
2,
4,
2,
1,
4,
2,
2,
2,
2,
2,
2,
2,
2,
4,
2,
1,
2,
2,
1,
2,
2,
2,
2,
2,
2,
4,
2,
1,
2,
2,
2,
2,
2,
2,
2,
2,
2,
2,
1,
1,
2,
2,
2,
2,
2,
2,
2,
1,
2,
2,
1,
1,
2,
2,
1,
2,
2,
2,
2,
1,
2,
2,
1,
1,
2,
2,
2,
2,
1,
2,
2,
1,
2,
2,
2,
1,
2,
1,
1,
2,
1,
2,
2,
1,
2,
2,
1,
1,
2,
2,
1,
2,
1,
2,
2,
1,
2,
2,
1,
1,
2,
2,
1,
2,
2,
2,
2,
1,
2,
2,
1,
1,
2,
1,
1,
2,
1,
2,
2,
1,
2,
2,
1,
1,
2,
1,
1,
2,
1,
2,
2,
1,
2,
2,
1,
1,
2,
1,
1,
2,
1,
2,
2,
1,
2,
2,
1,
1,
2,
1,
1,
2,
1,
2,
2,
1,
2,
2,
1,
1,
2,
1,
1,
2,
1,
2,
2,
1,
2,
2,
1,
1,
2,
1,
1,
2,
1,
2,
2,
1,
2,
2,
1,
1,
2,
1,
1,
2,
1,
2,
2,
1,
2,
2,
1,
1,
2,
1,
1,
2,
1,
2,
2,
1,
2,
2,
1,
1,
2,
1,
1,
2,
1,
2,
2,
1,
2,
2,
1,
1,
2,
1,
1,
2,
1,
2,
2,
1,
2,
2,
1,
1,
2,
1,
1,
2,
1,
2,
2,
1,
2,
2,
1,
1,
2,
1,
1,
2,
1,
2,
2,
1,
2,
2,
1,
1,
2,
1,
1,
2,
1,
2,
2,
1,
2,
2,
1,
1,
2,
1,
1,
2,
1,
2,
2,
1,
2,
2,
1,
1,
2,
1,
1,
1,
1,
1,
2,
1,
2,
2,
1,
1,
2,
1,
1,
2,
1,
1,
2,
1,
2,
2,
1,
1,
2,
1,
1,
2,
1,
1,
2,
1,
2,
1,
1,
1,
2,
1,
1,
1,
2,
1,
2,
1,
2,
2,
1,
1,
2,
1,
1,
2,
1,
1,
1,
1,
1,
2,
1,
1,
2,
1,
1,
2,
1,
2,
2,
1,
2,
2,
1,
1,
2,
67,
22,
10,
5,
5,
5,
4,
5,
5,
4,
4,
4,
4,
4,
4,
4,
4,
5,
4,
4,
4,
4,
2,
4,
4,
2,
4,
4,
2,
4,
2,
4,
4,
2,
2,
4,
2,
2,
4,
4,
2,
4,
2,
4,
4,
2,
2,
4,
4,
2,
4,
4,
2,
4,
2,
4,
4,
2,
2,
4,
2,
2,
4,
4,
2,
4,
2,
4,
4,
2,
2,
4,
2,
2,
4,
2,
2,
4,
2,
2,
4,
2,
2,
4,
2,
2,
2,
2,
2,
2,
2,
2,
4,
2,
2,
4,
2,
2,
4,
2,
2,
4,
2,
2,
4,
2,
1,
4,
2,
2,
4,
2,
2,
2,
2,
2,
4,
1,
2,
2,
2,
2,
4,
2,
2,
2,
1,
2,
4,
1,
1,
2,
2,
1,
2,
2,
2,
2,
1,
2,
4,
1,
1,
2,
2,
2,
2,
2,
2,
2,
2,
2,
4,
1,
1,
2,
2,
2,
2,
2,
2,
2,
1,
2,
2,
1,
1,
2,
2,
2,
2,
2,
2,
2,
1,
2,
2,
1,
1,
2,
2,
1,
2,
2,
2,
2,
1,
2,
2,
1,
1,
2,
2,
1,
2,
2,
2,
2,
1,
2,
2,
1,
1,
2,
1,
1,
2,
1,
2,
2,
1,
2,
2,
84,
26,
12,
7,
5,
5,
5,
2,
4,
4,
4,
5,
4,
2,
5,
4,
2,
4,
4,
2,
4,
2,
4,
5,
2,
2,
4,
4,
2,
4,
4,
2,
4,
2,
4,
4,
2,
2,
4,
4,
2,
4,
4,
2,
4,
2,
4,
4,
2,
2,
4,
4,
2,
4,
4,
2,
4,
4,
4,
4,
2,
2,
4,
2,
2,
4,
2,
2,
4,
2,
2,
4,
2,
2,
4,
2,
2,
4,
4,
2,
4,
2,
2,
4,
2,
2,
4,
2,
2,
4,
2,
2,
4,
2,
2,
4,
2,
2,
4,
2,
2,
4,
2,
2,
2,
2,
2,
4,
2,
2,
2,
2,
2,
2,
2,
2,
2,
2,
2,
2,
2,
1,
2,
2,
1,
2,
2,
2,
2,
1,
2,
4,
1,
1,
2,
2,
2,
2,
2,
2,
2,
1,
2,
4,
1,
1,
2,
2,
1,
4,
2,
2,
2,
1,
2,
2,
1,
1,
2,
2,
2,
2,
2,
2,
2,
1,
2,
2,
1,
1,
2,
2,
1,
2,
1,
2,
2,
1,
2,
2,
1,
1,
2,
2,
2,
2,
1,
2,
2,
1,
2,
2,
1,
1,
2,
2,
2,
2,
2,
2,
2,
1,
2,
2,
1,
1,
2,
2,
1,
2,
1,
2,
2,
1,
2,
2,
1,
1,
2,
2,
1,
2,
1,
2,
2,
1,
2,
2,
1,
1,
2,
1,
1,
2,
1,
2,
2,
1,
2,
2,
1,
1,
2,
2,
1,
2,
1,
2,
2,
1,
2,
2,
1,
1,
2,
1,
1,
2,
1,
2,
2,
1,
2,
2,
1,
1,
2,
1,
1,
2,
1,
2,
2,
1,
2,
2,
1,
1,
2,
1,
1,
2,
1,
1,
2,
1,
2,
2,
1,
1,
2,
1,
1,
2,
1,
2,
2,
1,
2,
2,
1,
1,
2,
1,
1,
2,
1,
86,
28,
10,
7,
5,
4,
4,
5,
4,
4,
4,
4,
2,
5,
4,
4,
4,
4,
2,
4,
4,
4,
4,
4,
4,
4,
4,
4,
4,
4,
2,
4,
4,
2,
4,
4,
2,
4,
4,
4,
4,
2,
2,
4,
4,
2,
4,
4,
2,
4,
2,
4,
4,
2,
2,
4,
4,
2,
4,
4,
2,
4,
2,
4,
4,
2,
2,
4,
2,
2,
4,
2,
2,
4,
2,
2,
4,
2,
2,
4,
2,
2,
4,
2,
2,
4,
2,
2,
4,
2,
2,
4,
2,
2,
4,
2,
2,
2,
2,
2,
4,
2,
2,
2,
2,
2,
2,
2,
2,
2,
2,
2,
4,
2,
2,
4,
2,
2,
4,
2,
2,
2,
1,
2,
2,
1,
1,
2,
2,
2,
2,
2,
2,
2,
1,
2,
2,
2,
1,
2,
2,
2,
2,
1,
2,
2,
2,
2,
4,
2,
1,
2,
2,
2,
2,
2,
2,
2,
2,
2,
4,
1,
1,
2,
2,
2,
2,
2,
2,
2,
2,
2,
2,
1,
1,
2,
2,
1,
2,
2,
2,
2,
1,
2,
2,
1,
1,
2,
1,
1,
2,
2,
2,
2,
1,
2,
2,
1,
1,
2,
2,
1,
2,
2,
2,
2,
1,
2,
2,
1,
1,
2,
2,
1,
2,
2,
2,
2,
1,
2,
2,
1,
1,
2,
1,
107,
34,
13,
7,
5,
4,
4,
4,
4,
2,
4,
4,
4,
4,
4,
2,
4,
4,
4,
4,
2,
2,
4,
4,
2,
4,
4,
2,
4,
2,
4,
4,
4,
2,
4,
2,
2,
4,
4,
2,
4,
2,
4,
4,
2,
2,
4,
2,
2,
4,
4,
2,
4,
2,
4,
4,
2,
2,
4,
4,
2,
4,
4,
2,
4,
2,
4,
4,
2,
2,
4,
2,
2,
4,
4,
2,
2,
2,
4,
4,
2,
2,
4,
2,
2,
4,
2,
2,
4,
2,
4,
4,
2,
2,
2,
2,
2,
2,
2,
2,
2,
2,
2,
4,
2,
2,
2,
2,
2,
2,
2,
2,
2,
2,
2,
4,
1,
2,
2,
2,
2,
2,
2,
2,
2,
2,
2,
4,
1,
1,
2,
2,
1,
4,
2,
2,
2,
1,
2,
4,
1,
1,
2,
2,
2,
2,
2,
2,
2,
2,
2,
4,
1,
1,
2,
2,
1,
2,
2,
2,
2,
1,
2,
2,
1,
1,
2,
2,
2,
2,
2,
2,
2,
1,
2,
2,
1,
1,
2,
2,
1,
2,
2,
2,
2,
1,
2,
2,
1,
1,
2,
2,
1,
2,
2,
2,
2,
1,
2,
2,
1,
1,
2,
2,
1,
2,
2,
2,
2,
1,
2,
2,
1,
1,
2,
2,
1,
2,
1,
2,
2,
1,
2,
2,
1,
1,
2,
1,
1,
2,
2,
2,
2,
1,
2,
2,
1,
1,
2,
2,
1,
2,
1,
2,
2,
1,
2,
2,
1,
1,
2,
1,
1,
2,
1,
2,
2,
1,
2,
2,
1,
1,
2,
1,
1,
2,
1,
2,
2,
1,
2,
2,
1,
1,
2,
1,
1,
2,
1,
1,
2,
1,
2,
2,
1,
1,
2,
1,
1,
2,
1,
2,
2,
1,
2,
2,
1,
1,
2,
1,
1,
2,
1,
2,
2,
1,
2,
2,
1,
1,
2,
1,
1,
2,
1,
2,
2,
1,
2,
2,
1,
1,
2,
1,
1,
2,
1,
2,
2,
1,
2,
2,
1,
1,
2,
1,
1,
2,
1,
1,
1,
1,
2,
1,
1,
1,
2,
1,
1,
2,
1,
2,
2,
1,
2,
2,
1,
1,
2,
1,
1,
2,
1,
2,
2,
1,
2,
2,
1,
1,
2,
1,
1,
2,
1,
2,
2,
1,
2,
2,
1,
1,
2,
1,
1,
1,
1,
1,
2,
1,
2,
2,
1,
1,
2,
1,
1,
2,
1,
2,
2,
1,
2,
2,
1,
1,
2,
1,
1,
2,
1,
2,
2,
1,
2,
2,
1,
1,
2,
1,
1,
2,
1,
2,
2,
1,
2,
1,
1,
1,
2,
1,
1,
1,
1,
1,
2,
1,
1,
2,
1,
1,
2,
1,
1,
1,
1,
2,
2,
1,
2,
2,
1,
1,
2,
1,
1,
2,
1,
2,
2,
1,
2,
2,
1,
1,
2,
1,
1,
2,
1,
1,
2,
1,
2,
2,
1,
1,
2,
1,
1,
2,
1,
2,
1,
1,
1,
2,
1,
1,
2,
1,
1,
2,
1,
1,
2,
1,
2,
2,
1,
1,
2,
1,
1,
2,
1,
1,
2,
1,
2,
2,
1,
1,
2,
1,
1,
2,
1,
1,
2,
1,
2,
2,
1,
1,
2,
1,
1,
2,
1,
1,
2,
1,
1,
2,
1,
1,
2,
1,
1,
2,
1,
2,
2,
1,
2,
2,
1,
1,
2,
1,
1,
2,
1,
1,
2,
1,
1,
2,
1,
1,
2,
1,
1,
2,
1,
1,
2,
1,
2,
2,
1,
1,
2,
1,
1,
2,
1,
1,
2,
1,
1,
2,
1,
1,
2,
1,
1,
2,
1,
1,
2,
1,
1,
2,
1,
1,
2,
1,
1,
2,
1,
2,
1,
1,
1,
2,
1,
1,
2,
1,
1,
2,
1,
1,
2,
1,
2,
2,
1,
1,
2,
1,
1,
2,
1,
1,
2,
1,
2,
2,
1,
1,
2,
1,
1,
2,
1,
2,
1,
1,
2,
2,
1,
1,
2,
1,
1,
2,
1,
1,
2,
1,
1,
2,
1,
1,
55,
17,
7,
5,
4,
4,
5,
4,
4,
5,
4,
2,
4,
4,
4,
4,
4,
2,
5,
4,
4,
4,
4,
2,
5,
4,
2,
4,
4,
2,
4,
2,
4,
4,
2,
2,
4,
4,
2,
4,
4,
4,
4,
2,
4,
4,
2,
2,
4,
2,
2,
4,
4,
2,
4,
2,
4,
4,
2,
2,
4,
4,
2,
4,
2,
2,
4,
2,
4,
4,
2,
2,
4,
4,
2,
4,
2,
2,
4,
2,
4,
4,
2,
2,
4,
2,
2,
4,
2,
2,
2,
2,
2,
4,
2,
1,
2,
2,
2,
4,
2,
2,
2,
2,
2,
4,
2,
1,
2,
2,
2,
2,
2,
2,
2,
2,
2,
4,
2,
2,
4,
2,
2,
2,
2,
2,
2,
2,
2,
4,
2,
1,
2,
2,
2,
2,
2,
2,
2,
1,
2,
2,
2,
1,
2,
2,
1,
2,
2,
2,
2,
1,
2,
2,
1,
1,
2,
2,
2,
2,
2,
2,
2,
1,
2,
2,
1,
1,
2,
2,
1,
2,
2,
2,
2,
1,
2,
2,
1,
1,
2,
2,
1,
2,
2,
2,
2,
1,
2,
2,
1,
1,
2,
1,
1,
2,
1,
2,
2,
1,
2,
2,
1,
1,
2,
1,
1,
2,
1,
2,
2,
1,
2,
2,
1,
1,
2,
1,
1,
2,
2,
2,
2,
1,
2,
2,
1,
1,
2,
2,
1,
2,
1,
2,
2,
1,
2,
2,
1,
1,
2,
1,
1,
2,
1,
2,
2,
1,
2,
2,
1,
1,
2,
1,
1,
2,
1,
2,
2,
1,
2,
2,
1,
1,
2,
2,
1,
2,
1,
2,
2,
1,
2,
2,
1,
1,
2,
1,
1,
2,
1,
1,
2,
1,
2,
2,
1,
1,
2,
1,
1,
2,
1,
1,
2,
1,
2,
2,
1,
1,
2,
1,
1,
2,
2,
1,
2,
1,
2,
2,
1,
1,
2,
1,
1,
2,
1,
2,
2,
1,
2,
2,
1,
1,
2,
1,
1,
2,
1,
1,
2,
1,
2,
2,
1,
1,
2,
1,
1,
2,
1,
2,
2,
1,
2,
2,
1,
1,
2,
1,
1,
2,
1,
2,
2,
1,
2,
2,
1,
1,
2,
1,
1,
2,
1,
2,
2,
1,
2,
2,
1,
1,
2,
1,
1,
2,
1,
2,
2,
1,
2,
2,
1,
1,
2,
1,
1,
2,
1,
2,
2,
1,
2,
2,
1,
1,
2,
1,
1,
2,
1,
1,
1,
1,
2,
1,
1,
1,
2,
1,
1,
2,
1,
1,
2,
1,
2,
2,
1,
1,
2,
1,
1,
2,
1,
2,
2,
1,
2,
2,
1,
1,
2,
1,
1,
2,
1,
1,
2,
1,
2,
2,
1,
1,
2,
1,
1,
2,
1,
2,
2,
1,
2,
2,
1,
1,
2,
1,
1,
2,
1,
1,
1,
1,
1,
2,
1,
1,
2,
1,
1,
2,
1,
1,
2,
1,
2,
2,
1,
1,
2,
1,
1,
2,
1,
2,
2,
1,
2,
2,
1,
1,
2,
1,
1,
2,
1,
2,
1,
1,
1,
2,
1,
1,
2,
1,
1,
2,
1,
1,
1,
1,
2,
2,
1,
1,
2,
1,
1,
2,
1,
2,
2,
1,
1,
2,
1,
1,
2,
1,
1,
2,
1,
2,
2,
1,
2,
2,
1,
1,
2,
1,
1,
2,
1,
2,
1,
1,
1,
2,
1,
1,
2,
1,
1,
2,
1,
1,
2,
1,
1,
2,
1,
1,
2,
1,
1,
2,
1,
1,
2,
1,
2,
2,
1,
1,
2,
1,
1,
2,
1,
1,
2,
1,
2,
2,
1,
1,
2,
1,
1,
2,
1,
1,
2,
1,
1,
2,
1,
1,
2,
1,
1,
2,
1,
2,
2,
1,
1,
2,
1,
1,
1,
1,
1,
2,
1,
1,
2,
1,
2,
2,
1,
1,
2,
1,
1,
2,
1,
1,
2,
1,
2,
2,
1,
1,
2,
1,
1,
2,
1,
1,
2,
1,
2,
2,
1,
1,
2,
1,
1,
2,
1,
2,
2,
1,
1,
2,
1,
1,
2,
1,
1,
2,
1,
1,
1,
1,
1,
2,
1,
1,
1,
1,
1,
2,
1,
1,
2,
1,
2,
2,
1,
1,
2,
1,
1,
2,
1,
2,
2,
1,
2,
2,
1,
1,
2,
1,
1,
2,
1,
1,
2,
1,
2,
2,
1,
1,
2,
1,
1,
2,
1,
1,
2,
1,
1,
2,
1,
1,
2,
1,
1,
2,
1,
1,
2,
1,
1,
2,
1,
1,
2,
1,
1,
2,
1,
1,
2,
1,
2,
2,
1,
1,
2,
1,
1,
2,
1,
2,
2,
1,
1,
2,
136,
41,
15,
5,
5,
4,
4,
4,
5,
4,
4,
5,
4,
2,
4,
4,
2,
4,
4,
4,
5,
2,
4,
4,
2,
2,
4,
4,
2,
4,
4,
2,
4,
2,
4,
4,
2,
2,
4,
4,
2,
4,
4,
2,
4,
2,
4,
4,
2,
2,
4,
4,
2,
4,
4,
2,
4,
2,
4,
4,
2,
2,
4,
4,
2,
4,
2,
2,
4,
2,
2,
4,
2,
2,
4,
2,
2,
4,
2,
2,
4,
2,
2,
4,
2,
2,
4,
2,
2,
2,
2,
2,
2,
2,
4,
4,
2,
1,
4,
2,
2,
4,
2,
2,
4,
2,
2,
4,
2,
1,
2,
2,
2,
2,
2,
2,
2,
2,
2,
4,
2,
1,
2,
2,
1,
2,
2,
2,
2,
1,
2,
2,
1,
2,
2,
2,
2,
2,
2,
2,
2,
1,
2,
2,
1,
1,
2,
2,
2,
2,
2,
2,
2,
1,
2,
2,
2,
1,
2,
2,
2,
2,
2,
2,
2,
1,
2,
2,
1,
1,
2,
2,
1,
2,
1,
2,
2,
1,
2,
2,
1,
1,
2,
2,
1,
2,
1,
2,
2,
1,
2,
2,
1,
1,
2,
2,
1,
2,
2,
2,
2,
1,
2,
2,
1,
1,
2,
2,
1,
2,
2,
2,
2,
1,
2,
2,
1,
1,
2,
1,
1,
2,
2,
2,
2,
1,
2,
2,
1,
1,
2,
1,
1,
2,
1,
2,
2,
1,
2,
2,
1,
1,
2,
2,
1,
2,
1,
2,
2,
1,
2,
2,
1,
1,
2,
2,
1,
2,
1,
2,
2,
1,
2,
2,
1,
1,
2,
1,
1,
2,
1,
2,
2,
1,
2,
2,
1,
1,
2,
1,
1,
2,
1,
2,
2,
1,
2,
2,
1,
1,
2,
2,
1,
2,
1,
2,
2,
1,
2,
2,
1,
1,
2,
1,
1,
2,
1,
2,
2,
1,
2,
2,
1,
1,
2,
1,
1,
2,
1,
2,
2,
1,
2,
2,
1,
1,
2,
1,
1,
2,
1,
2,
2,
1,
2,
2,
1,
1,
2,
1,
1,
2,
1,
2,
2,
1,
2,
2,
1,
1,
2,
1,
1,
2,
1,
2,
2,
1,
2,
2,
1,
1,
2,
1,
1,
2,
1,
2,
2,
1,
2,
2,
1,
1,
2,
1,
1,
2,
1,
1,
2,
1,
2,
2,
1,
1,
2,
1,
1,
2,
2,
2,
2,
1,
2,
2,
1,
1,
2,
1,
1,
2,
1,
1,
2,
1,
2,
2,
1,
1,
2,
1,
1,
2,
1,
1,
2,
1,
2,
2,
1,
1,
2,
1,
1,
2,
1,
2,
2,
1,
2,
2,
1,
1,
2,
1,
1,
2,
1,
2,
2,
1,
2,
2,
1,
1,
2,
1,
1,
2,
1,
1,
1,
1,
1,
2,
1,
1,
2,
1,
1,
2,
1,
2,
2,
1,
2,
2,
1,
1,
2,
1,
1,
2,
1,
2,
2,
1,
2,
2,
1,
1,
2,
1,
1,
2,
1,
2,
1,
1,
1,
2,
1,
1,
2,
1,
1,
2,
1,
1,
2,
1,
1,
1,
1,
1,
2,
1,
1,
2,
1,
2,
2,
1,
1,
1,
1,
1,
2,
1,
1,
2,
1,
1,
2,
1,
2,
2,
1,
1,
2,
1,
1,
2,
1,
1,
2,
1,
1,
2,
1,
1,
2,
1,
1,
2,
1,
1,
1,
1,
1,
2,
1,
1,
2,
1,
1,
2,
1,
1,
2,
1,
2,
2,
1,
1,
2,
1,
1,
2,
1,
1,
2,
1,
1,
2,
1,
1,
2,
1,
1,
2,
1,
1,
2,
1,
2,
2,
1,
1,
2,
1,
1,
2,
1,
1,
2,
1,
1,
2,
1,
1,
2,
1,
1,
2,
1,
1,
1,
1,
2,
2,
1,
1,
2,
1,
1,
2,
1,
1,
2,
1,
2,
2,
1,
1,
2,
1,
1,
2,
1,
1,
2,
1,
2,
2,
1,
1,
2,
1,
1,
2,
1,
1,
2,
1,
2,
2,
1,
1,
2,
1,
1,
2,
1,
1,
2,
1,
1,
2,
1,
1,
2,
1,
1,
2,
1,
1,
2,
1,
2,
2,
1,
1,
2,
1,
1,
2,
1,
2,
2,
1,
2,
2,
1,
1,
2,
1,
1,
2,
1,
1,
2,
1,
1,
2,
1,
1,
2,
1,
1,
2,
1,
1,
2,
1,
2,
1,
1,
1,
2,
1,
1,
2,
1,
1,
2,
1,
1,
2,
1,
1,
2,
1,
1,
2,
1,
1,
1,
1,
2,
2,
1,
1,
2,
1,
1,
2,
1,
1,
2,
1,
2,
2,
1,
1,
2,
1,
1,
2,
1,
1,
2,
1,
1,
2,
1,
1,
1,
1,
1,
2,
1,
1,
2,
1,
1,
2,
1,
1,
2,
1,
1,
2,
1,
1,
2,
1,
1,
2,
1,
1,
2,
1,
1,
2,
1,
1,
2,
1,
2,
2,
1,
1,
2,
1,
1,
2,
1,
1,
2,
1,
2,
2,
1,
1,
2,
1,
1,
2,
1,
1,
1,
1,
1,
1,
1,
1,
2,
1,
1,
2,
1,
1,
2,
1,
1,
2,
1,
1,
2,
1,
1,
2,
1,
1,
2,
1,
1,
2,
1,
1,
2,
1,
1,
2,
1,
1,
2,
1,
2,
2,
1,
1,
2,
1,
1,
2,
1,
1,
2,
1,
2,
100,
30,
12,
7,
5,
4,
5,
4,
4,
5,
4,
4,
4,
4,
2,
4,
4,
4,
4,
4,
2,
4,
4,
4,
4,
4,
2,
4,
4,
2,
4,
4,
2,
4,
4,
4,
4,
2,
2,
4,
4,
2,
4,
2,
2,
4,
2,
4,
4,
2,
2,
4,
2,
2,
4,
2,
2,
4,
2,
4,
4,
2,
2,
4,
2,
2,
4,
2,
2,
4,
2,
4,
4,
2,
2,
4,
2,
2,
2,
2,
2,
4,
2,
2,
4,
2,
2,
4,
2,
2,
4,
2,
2,
4,
2,
2,
4,
2,
2,
2,
2,
2,
2,
2,
2,
4,
2,
4,
4,
2,
1,
2,
2,
1,
2,
2,
2,
2,
2,
2,
4,
2,
1,
2,
2,
2,
2,
2,
2,
2,
2,
2,
4,
2,
1,
2,
2,
2,
2,
2,
2,
2,
2,
2,
2,
1,
1,
2,
2,
2,
2,
2,
2,
2,
1,
2,
2,
1,
1,
2,
2,
1,
2,
2,
2,
2,
1,
2,
2,
2,
1,
2,
2,
1,
2,
2,
2,
2,
2,
2,
2,
1,
1,
2,
2,
2,
2,
2,
2,
2,
1,
2,
2,
1,
1,
2,
2,
1,
2,
2,
2,
2,
1,
2,
2,
1,
1,
2,
2,
1,
2,
2,
2,
2,
1,
2,
2,
1,
1,
2,
1,
1,
2,
1,
2,
2,
1,
2,
2,
1,
1,
2,
1,
1,
2,
2,
2,
2,
1,
2,
2,
1,
1,
2,
1,
1,
2,
1,
2,
2,
1,
2,
2,
1,
1,
2,
1,
1,
2,
1,
2,
2,
1,
2,
2,
1,
1,
2,
1,
1,
2,
2,
2,
2,
1,
2,
2,
1,
1,
2,
1,
1,
2,
1,
2,
2,
1,
2,
2,
1,
1,
2,
1,
1,
2,
1,
2,
2,
1,
2,
2,
1,
1,
2,
1,
1,
2,
1,
2,
2,
1,
2,
2,
1,
1,
2,
1,
1,
2,
1,
2,
2,
1,
1,
2,
1,
1,
2,
1,
1,
2,
1,
1,
2,
1,
2,
2,
1,
1,
2,
1,
1,
2,
1,
2,
2,
1,
2,
2,
1,
1,
2,
1,
1,
2,
1,
2,
2,
1,
2,
2,
1,
1,
2,
1,
1,
2,
1,
2,
2,
1,
2,
2,
1,
1,
2,
1,
1,
2,
1,
1,
2,
1,
2,
2,
1,
1,
2,
1,
1,
2,
1,
2,
2,
1,
2,
2,
1,
1,
2,
1,
1,
2,
1,
2,
1,
1,
2,
2,
1,
1,
2,
1,
1,
2,
1,
1,
2,
1,
2,
2,
1,
1,
2,
1,
1,
2,
1,
1,
2,
1,
2,
2,
1,
1,
2,
1,
1,
2,
1,
1,
2,
1,
2,
2,
1,
1,
2,
1,
1,
2,
1,
1,
2,
1,
2,
2,
1,
1,
2,
1,
1,
2,
1,
2,
1,
1,
2,
2,
1,
1,
2,
1,
1,
2,
1,
2,
1,
1,
2,
2,
1,
1,
2,
1,
1,
2,
1,
2,
2,
1,
2,
2,
1,
1,
2,
1,
1,
2,
1,
1,
2,
1,
2,
2,
1,
1,
2,
1,
1,
2,
1,
2,
2,
1,
2,
2,
1,
1,
2,
1,
1,
2,
1,
1,
2,
1,
2,
2,
1,
1,
2,
1,
1,
2,
1,
1,
2,
1,
2,
2,
1,
1,
2,
1,
1,
2,
1,
1,
2,
1,
2,
2,
1,
1,
2,
1,
1,
2,
1,
1,
2,
1,
2,
2,
1,
1,
2,
1,
1,
2,
1,
1,
2,
1,
2,
2,
1,
1,
2,
1,
1,
2,
1,
2,
2,
1,
1,
2,
1,
1,
2,
1,
1,
2,
1,
1,
2,
1,
2,
2,
1,
1,
2,
1,
1,
2,
1,
1,
2,
1,
2,
2,
1,
1,
2,
1,
1,
2,
1,
1,
2,
1,
2,
2,
1,
1,
2,
1,
1,
2,
1,
2,
2,
84,
28,
10,
5,
4,
5,
4,
4,
4,
4,
4,
5,
4,
4,
4,
2,
2,
4,
4,
2,
4,
4,
2,
4,
2,
4,
4,
2,
2,
4,
4,
2,
4,
4,
2,
4,
2,
4,
4,
2,
2,
4,
4,
2,
4,
4,
2,
4,
2,
4,
4,
2,
2,
4,
4,
2,
4,
4,
4,
4,
2,
4,
4,
2,
2,
2,
2,
2,
4,
2,
2,
2,
2,
4,
4,
2,
2,
4,
2,
2,
2,
2,
2,
4,
2,
2,
4,
2,
2,
4,
2,
2,
4,
4,
2,
4,
2,
2,
4,
2,
1,
4,
2,
2,
2,
2,
2,
4,
2,
2,
4,
1,
1,
2,
2,
2,
2,
2,
2,
2,
2,
2,
4,
2,
1,
2,
2,
1,
2,
2,
2,
2,
2,
2,
4,
2,
1,
2,
2,
1,
2,
2,
2,
2,
2,
2,
2,
2,
1,
2,
2,
1,
2,
2,
2,
2,
2,
2,
2,
1,
1,
2,
2,
2,
2,
2,
2,
2,
1,
2,
2,
1,
1,
2,
1,
1,
2,
1,
2,
2,
1,
2,
2,
1,
1,
2,
2,
1,
2,
2,
2,
2,
1,
2,
2,
1,
1,
2,
2,
1,
2,
2,
2,
2,
1,
2,
2,
1,
1,
2,
2,
1,
2,
1,
2,
2,
1,
2,
2,
1,
1,
2,
1,
1,
2,
1,
2,
2,
1,
2,
2,
1,
1,
2,
1,
1,
2,
1,
2,
2,
1,
2,
2,
1,
1,
2,
2,
1,
2,
1,
2,
2,
1,
2,
2,
1,
1,
2,
2,
1,
115,
38,
15,
7,
5,
5,
4,
4,
4,
4,
4,
4,
4,
4,
4,
5,
4,
4,
4,
4,
2,
4,
4,
4,
4,
4,
2,
4,
4,
4,
4,
2,
2,
4,
4,
2,
4,
4,
2,
4,
2,
4,
4,
2,
2,
4,
4,
2,
4,
4,
2,
4,
2,
4,
4,
2,
2,
4,
4,
2,
4,
4,
2,
4,
2,
4,
4,
2,
2,
4,
2,
2,
4,
2,
2,
4,
2,
2,
4,
2,
2,
4,
2,
2,
4,
2,
2,
4,
2,
2,
4,
2,
2,
2,
2,
2,
4,
2,
2,
4,
2,
2,
4,
2,
2,
4,
2,
2,
4,
2,
2,
2,
2,
4,
4,
2,
2,
2,
2,
2,
2,
2,
2,
2,
2,
4,
2,
2,
1,
2,
2,
2,
2,
2,
2,
2,
2,
2,
4,
1,
1,
2,
2,
1,
2,
2,
2,
2,
2,
2,
2,
1,
1,
2,
2,
2,
2,
2,
2,
2,
1,
2,
2,
1,
1,
2,
2,
1,
2,
2,
2,
2,
1,
2,
2,
1,
1,
2,
2,
1,
2,
1,
2,
2,
1,
2,
2,
1,
1,
2,
2,
1,
2,
2,
2,
2,
1,
2,
2,
1,
1,
2,
2,
1,
2,
2,
2,
2,
1,
2,
2,
1,
1,
2,
1,
1,
2,
2,
2,
2,
1,
2,
2,
1,
1,
2,
63,
20,
10,
5,
4,
5,
4,
4,
4,
2,
2,
5,
4,
4,
4,
4,
2,
5,
4,
4,
4,
2,
2,
4,
4,
2,
4,
4,
4,
4,
4,
4,
4,
2,
2,
4,
4,
2,
4,
4,
2,
4,
2,
4,
4,
2,
2,
4,
2,
2,
4,
4,
4,
4,
2,
4,
4,
2,
2,
4,
2,
2,
4,
2,
2,
4,
2,
4,
4,
2,
2,
4,
2,
2,
4,
4,
2,
4,
2,
4,
4,
2,
2,
4,
2,
2,
4,
4,
2,
4,
2,
4,
4,
2,
2,
4,
2,
2,
2,
2,
2,
2,
2,
2,
2,
1,
2,
4,
2,
1,
2,
2,
2,
2,
2,
2,
2,
2,
2,
2,
2,
2,
2,
2,
2,
2,
1,
2,
4,
2,
2,
2,
2,
1,
2,
2,
2,
2,
2,
2,
2,
2,
1,
2,
2,
2,
2,
2,
2,
2,
1,
2,
2,
1,
1,
2,
2,
2,
2,
2,
2,
2,
1,
2,
2,
1,
1,
94,
30,
12,
7,
5,
4,
5,
4,
4,
5,
4,
4,
5,
4,
4,
4,
4,
2,
5,
4,
4,
4,
4,
2,
4,
4,
2,
4,
4,
2,
4,
4,
4,
4,
2,
2,
4,
2,
2,
4,
4,
2,
4,
2,
4,
4,
2,
2,
4,
2,
2,
4,
4,
2,
4,
2,
4,
4,
2,
2,
4,
2,
2,
4,
2,
2,
4,
2,
4,
4,
2,
2,
4,
2,
2,
4,
2,
2,
4,
2,
4,
4,
2,
2,
4,
2,
2,
4,
2,
2,
4,
2,
2,
4,
2,
2,
4,
2,
2,
2,
2,
2,
4,
2,
2,
2,
2,
2,
2,
2,
2,
4,
2,
2,
2,
2,
2,
4,
2,
2,
2,
2,
2,
2,
2,
2,
2,
2,
2,
4,
1,
2,
2,
2,
2,
2,
2,
2,
2,
2,
2,
4,
1,
1,
2,
68,
23,
10,
7,
4,
5,
4,
5,
4,
4,
2,
5,
4,
4,
4,
4,
4,
4,
4,
4,
4,
4,
2,
4,
2,
2,
4,
4,
2,
4,
2,
4,
4,
2,
2,
4,
4,
2,
4,
4,
2,
4,
2,
4,
4,
2,
2,
4,
4,
2,
4,
4,
2,
4,
2,
4,
4,
2,
2,
4,
2,
2,
4,
2,
2,
4,
2,
4,
4,
2,
2,
4,
2,
2,
4,
2,
2,
2,
2,
4,
4,
2,
2,
4,
2,
2,
4,
2,
2,
2,
2,
4,
4,
2,
2,
4,
2,
2,
4,
4,
2,
4,
2,
4,
4,
2,
2,
2,
2,
2,
4,
2,
2,
4,
1,
2,
2,
2,
1,
2,
2,
1,
2,
2,
2,
2,
1,
2,
2,
1,
1,
2,
2,
1,
4,
2,
2,
2,
2,
2,
2,
2,
1,
2,
2,
2,
2,
2,
2,
2,
1,
2,
2,
1,
1,
2,
2,
1,
2,
2,
2,
2,
2,
2,
4,
1,
1,
2,
2,
1,
2,
2,
2,
2,
1,
2,
2,
1,
1,
2,
2,
1,
2,
2,
2,
2,
1,
2,
2,
2,
1,
2,
1,
1,
2,
1,
2,
2,
1,
2,
2,
1,
1,
2,
2,
1,
2,
2,
2,
2,
1,
2,
2,
1,
1,
2,
2,
1,
2,
1,
2,
2,
1,
2,
2,
1,
1,
2,
1,
1,
2,
2,
2,
2,
1,
2,
2,
1,
1,
2,
1,
1,
2,
1,
2,
2,
1,
2,
2,
73,
25,
10,
5,
5,
5,
5,
4,
5,
4,
5,
5,
4,
4,
4,
4,
4,
4,
4,
2,
5,
4,
4,
4,
2,
2,
4,
4,
2,
4,
4,
2,
4,
2,
4,
4,
2,
2,
4,
4,
2,
4,
4,
2,
4,
4,
4,
4,
2,
2,
4,
2,
2,
4,
2,
2,
4,
2,
4,
4,
2,
2,
4,
4,
2,
4,
4,
2,
4,
2,
4,
4,
2,
2,
4,
2,
2,
4,
4,
2,
4,
2,
4,
4,
2,
2,
2,
4,
2,
4,
2,
2,
4,
1,
4,
4,
2,
2,
4,
2,
2,
2,
4,
2,
2,
2,
2,
4,
2,
1,
2,
2,
2,
4,
2,
2,
4,
2,
2,
4,
2,
1,
2,
2,
1,
2,
2,
2,
2,
2,
2,
4,
2,
2,
2,
2,
1,
2,
2,
2,
2,
1,
2,
2,
1,
1,
2,
2,
2,
2,
2,
2,
2,
2,
2,
2,
1,
1,
2,
2,
2,
2,
2,
2,
2,
2,
2,
4,
1,
1,
2,
2,
1,
2,
2,
2,
2,
2,
2,
2,
2,
1,
2,
2,
1,
2,
1,
2,
2,
1,
2,
2,
1,
1,
2,
2,
1,
2,
1,
2,
2,
1,
2,
2,
1,
1,
2,
1,
1,
2,
1,
2,
2,
1,
2,
2,
1,
1,
2,
1,
1,
2,
2,
2,
2,
1,
2,
2,
1,
1,
2,
2,
1,
2,
1,
2,
2,
1,
2,
2,
1,
1,
2,
1,
1,
2,
1,
2,
2,
1,
2,
2,
1,
1,
2,
1,
1,
2,
1,
2,
2,
1,
2,
2,
1,
1,
2,
1,
1,
2,
1,
2,
2,
1,
2,
2,
1,
1,
2,
1,
1,
2,
1,
2,
2,
1,
2,
2,
1,
1,
2,
1,
1,
2,
1,
2,
2,
1,
2,
2,
1,
1,
2,
1,
1,
2,
1,
2,
2,
1,
2,
2,
1,
1,
2,
1,
1,
2,
1,
2,
2,
1,
2,
2,
1,
1,
2,
1,
1,
2,
1,
2,
2,
1,
2,
2,
1,
1,
2,
1,
1,
2,
1,
1,
2,
1,
2,
2,
1,
1,
2,
1,
1,
2,
1,
2,
2,
1,
2,
2,
1,
1,
2,
1,
1,
2,
1,
2,
2,
1,
2,
2,
1,
1,
2,
1,
1,
2,
1,
1,
2,
1,
2,
2,
1,
1,
2,
1,
1,
2,
1,
2,
2,
1,
2,
2,
1,
1,
1,
1,
1,
2,
1,
1,
2,
1,
2,
2,
1,
1,
2,
1,
1,
2,
1,
2,
2,
1,
2,
2,
1,
1,
2,
1,
1,
2,
1,
2,
2,
1,
2,
2,
1,
1,
2,
1,
1,
2,
1,
1,
2,
1,
1,
2,
1,
1,
2,
1,
1,
2,
1,
1,
2,
1,
100,
33,
12,
7,
7,
4,
4,
4,
5,
4,
5,
4,
4,
5,
4,
2,
4,
4,
4,
4,
4,
2,
4,
4,
4,
5,
4,
2,
4,
4,
2,
4,
4,
4,
4,
2,
4,
4,
2,
2,
4,
4,
2,
4,
4,
2,
4,
2,
4,
4,
2,
2,
4,
4,
2,
4,
4,
2,
4,
2,
4,
4,
2,
2,
4,
2,
2,
4,
2,
2,
4,
2,
2,
4,
2,
2,
2,
2,
2,
4,
2,
4,
4,
2,
2,
4,
2,
2,
4,
2,
2,
4,
2,
2,
4,
2,
4,
4,
2,
2,
2,
2,
2,
4,
2,
2,
2,
2,
2,
4,
2,
2,
4,
2,
2,
4,
2,
2,
2,
2,
2,
4,
2,
1,
2,
2,
1,
2,
2,
2,
2,
2,
2,
2,
1,
1,
2,
2,
2,
2,
2,
2,
2,
1,
2,
4,
2,
1,
2,
2,
2,
2,
2,
2,
2,
1,
2,
2,
1,
1,
2,
2,
1,
2,
2,
2,
2,
1,
2,
2,
1,
1,
2,
2,
2,
2,
1,
2,
2,
1,
2,
2,
1,
1,
2,
2,
1,
2,
1,
2,
2,
1,
2,
2,
1,
1,
2,
2,
1,
2,
2,
2,
2,
1,
2,
2,
1,
1,
2,
2,
1,
2,
1,
2,
2,
1,
2,
2,
1,
1,
2,
1,
1,
2,
1,
2,
2,
1,
2,
2,
1,
1,
2,
1,
1,
2,
2,
2,
2,
1,
2,
2,
1,
1,
2,
2,
1,
2,
1,
2,
2,
1,
2,
2,
1,
1,
2,
2,
1,
2,
2,
2,
2,
1,
2,
2,
1,
1,
2,
1,
1,
2,
1,
2,
2,
1,
2,
2,
1,
1,
2,
1,
1,
2,
1,
2,
2,
1,
2,
2,
1,
1,
2,
1,
1,
2,
1,
2,
2,
1,
2,
2,
1,
1,
2,
1,
1,
2,
1,
1,
2,
1,
2,
2,
1,
1,
2,
1,
1,
2,
1,
1,
2,
1,
2,
2,
1,
1,
2,
1,
1,
2,
1,
2,
2,
1,
2,
2,
1,
1,
2,
1,
1,
2,
1,
1,
2,
1,
2,
2,
1,
1,
2,
1,
1,
2,
1,
1,
2,
1,
2,
2,
1,
1,
2,
1,
1,
2,
1,
2,
2,
1,
2,
2,
1,
1,
2,
1,
1,
2,
1,
1,
2,
1,
2,
2,
1,
1,
2,
1,
1,
2,
1,
1,
2,
1,
2,
2,
1,
1,
2,
1,
1,
2,
1,
2,
2,
1,
2,
2,
1,
1,
2,
1,
1,
2,
1,
1,
2,
1,
2,
2,
1,
1,
2,
1,
1,
2,
1,
2,
2,
1,
2,
2,
1,
1,
2,
1,
1,
2,
1,
1,
2,
1,
1,
2,
1,
1,
2,
1,
1,
2,
1,
2,
2,
1,
2,
2,
1,
1,
2,
1,
1,
2,
1,
2,
2,
1,
2,
2,
1,
1,
2,
1,
1,
2,
1,
2,
2,
1,
2,
2,
1,
1,
1,
1,
1,
2,
1,
1,
1,
1,
1,
2,
1,
1,
2,
1,
1,
2,
1,
1,
2,
1,
2,
2,
1,
1,
2,
1,
1,
2,
1,
1,
1,
1,
2,
1,
1,
1,
2,
1,
1,
2,
1,
2,
2,
1,
2,
1,
1,
1,
2,
1,
1,
2,
1,
2,
2,
1,
2,
2,
1,
1,
2,
1,
1,
2,
1,
1,
2,
1,
1,
2,
1,
1,
2,
1,
1,
1,
1,
1,
2,
1,
2,
2,
1,
1,
2,
1,
1,
2,
1,
1,
2,
1,
1,
2,
1,
1,
2,
1,
1,
2,
1,
2,
2,
1,
2,
2,
1,
1,
2,
1,
1,
2,
1,
2,
2,
1,
2,
2,
1,
1,
2,
1,
1,
2,
1,
1,
2,
1,
2,
2,
1,
1,
2,
1,
1,
2,
1,
1,
2,
