src/apd2apd/1561v0000785.CSV

Format,1.0B,
Memory Length,10000,Memory Length,10000,
IntpDistance,0,IntpDistance,0,
Trigger Address,5049,Trigger Address,5049,
Trigger Level,2.600E-02,Trigger Level,2.600E-02,
Source,CH1,Source,CH2,
Vertical Units,V,Vertical Units,V,
Vertical Units Div,0,Vertical Units Div,0,
Vertical Units Extend Div,16,Vertical Units Extend Div,16,
Label,,Label,,
Probe Type,0,Probe Type,0,
Probe Ratio,1.000e+01,Probe Ratio,1.000e+00,
Vertical Scale,1.000e-01,Vertical Scale,5.000e-02,
Vertical Position,-3.280e-01,Vertical Position,-1.640e-01,
Horizontal Units,S,Horizontal Units,S,
Horizontal Scale,2.000E-05,Horizontal Scale,2.000E-05,
Horizontal Position,-1.000E-06,Horizontal Position,-1.000E-06,
Horizontal Mode,Main,Horizontal Mode,Main,
SincET Mode,Real Time,SincET Mode,Real Time,
Sampling Period,2.000e-08,Sampling Period,2.000e-08,
Horizontal Old Scale,2.000E-05,Horizontal Old Scale,2.000E-05,
Horizontal Old Position,-1.000E-06,Horizontal Old Position,-1.000E-06,
Firmware,V1.23,Firmware,V1.23,
Mode,Fast,Mode,Fast,
Waveform Data,,Waveform Data,,
1, ,1, ,
1, ,1, ,
2, ,1, ,
-1, ,-1, ,
2, ,2, ,
0, ,-1, ,
0, ,-1, ,
1, ,2, ,
1, ,1, ,
-1, ,-1, ,
2, ,2, ,
-1, ,-1, ,
0, ,-1, ,
1, ,1, ,
2, ,1, ,
-1, ,-2, ,
1, ,2, ,
-1, ,1, ,
1, ,1, ,
1, ,1, ,
1, ,1, ,
-1, ,-1, ,
2, ,2, ,
-1, ,-1, ,
1, ,-1, ,
0, ,2, ,
1, ,1, ,
-1, ,-2, ,
2, ,2, ,
0, ,-1, ,
1, ,1, ,
1, ,2, ,
2, ,1, ,
-1, ,-1, ,
2, ,2, ,
0, ,-1, ,
0, ,1, ,
1, ,1, ,
2, ,1, ,
-1, ,-2, ,
2, ,2, ,
0, ,-1, ,
1, ,-1, ,
1, ,2, ,
2, ,2, ,
-1, ,-2, ,
2, ,1, ,
1, ,-1, ,
1, ,-1, ,
1, ,2, ,
2, ,1, ,
-1, ,-2, ,
2, ,2, ,
-1, ,-1, ,
1, ,1, ,
1, ,2, ,
1, ,1, ,
-2, ,-2, ,
1, ,2, ,
-1, ,-1, ,
0, ,-1, ,
1, ,2, ,
1, ,1, ,
-1, ,-2, ,
1, ,2, ,
-1, ,-1, ,
0, ,-1, ,
0, ,2, ,
1, ,1, ,
-1, ,-2, ,
2, ,2, ,
-1, ,-1, ,
0, ,1, ,
1, ,2, ,
1, ,1, ,
-2, ,-2, ,
1, ,2, ,
-1, ,-1, ,
0, ,1, ,
0, ,2, ,
1, ,1, ,
-1, ,-1, ,
2, ,2, ,
-1, ,-1, ,
0, ,-1, ,
0, ,2, ,
0, ,1, ,
-2, ,-2, ,
1, ,3, ,
0, ,-1, ,
0, ,-1, ,
0, ,2, ,
1, ,1, ,
-2, ,-2, ,
1, ,2, ,
-1, ,-1, ,
1, ,-1, ,
0, ,2, ,
1, ,1, ,
-2, ,-2, ,
1, ,2, ,
-1, ,-1, ,
0, ,-1, ,
0, ,2, ,
1, ,1, ,
-2, ,-2, ,
2, ,2, ,
-1, ,-1, ,
0, ,-1, ,
1, ,1, ,
1, ,1, ,
-1, ,-2, ,
1, ,2, ,
-1, ,-1, ,
1, ,1, ,
1, ,2, ,
2, ,1, ,
-1, ,-2, ,
1, ,2, ,
-1, ,-1, ,
1, ,-1, ,
1, ,2, ,
1, ,1, ,
-1, ,-2, ,
2, ,2, ,
-1, ,-1, ,
1, ,-1, ,
1, ,2, ,
1, ,1, ,
-1, ,-2, ,
1, ,2, ,
-1, ,-1, ,
1, ,-1, ,
1, ,2, ,
2, ,1, ,
-1, ,-1, ,
2, ,2, ,
-1, ,-1, ,
1, ,-1, ,
1, ,2, ,
1, ,1, ,
-1, ,-2, ,
2, ,2, ,
-1, ,-1, ,
0, ,1, ,
1, ,2, ,
1, ,1, ,
-1, ,-2, ,
1, ,2, ,
-1, ,-1, ,
1, ,-1, ,
1, ,2, ,
1, ,1, ,
-1, ,-1, ,
2, ,2, ,
-1, ,-1, ,
0, ,-1, ,
1, ,2, ,
2, ,1, ,
-1, ,-2, ,
1, ,2, ,
0, ,-1, ,
2, ,1, ,
0, ,2, ,
1, ,1, ,
-1, ,-2, ,
2, ,2, ,
0, ,-1, ,
0, ,-1, ,
1, ,2, ,
2, ,1, ,
-2, ,-2, ,
2, ,2, ,
-1, ,-1, ,
1, ,1, ,
1, ,2, ,
1, ,1, ,
-2, ,-2, ,
1, ,77, ,
-1, ,51, ,
0, ,32, ,
0, ,21, ,
2, ,14, ,
-1, ,7, ,
1, ,9, ,
-1, ,5, ,
0, ,3, ,
1, ,3, ,
0, ,3, ,
-2, ,1, ,
1, ,3, ,
-1, ,1, ,
0, ,2, ,
1, ,3, ,
2, ,3, ,
-1, ,1, ,
2, ,3, ,
-1, ,2, ,
-1, ,2, ,
-1, ,2, ,
1, ,3, ,
-1, ,1, ,
2, ,3, ,
0, ,1, ,
0, ,2, ,
0, ,3, ,
1, ,3, ,
-2, ,1, ,
1, ,5, ,
-1, ,2, ,
0, ,2, ,
1, ,3, ,
0, ,3, ,
-2, ,1, ,
1, ,3, ,
-2, ,1, ,
-1, ,2, ,
0, ,5, ,
1, ,2, ,
-1, ,1, ,
2, ,5, ,
-1, ,1, ,
0, ,1, ,
0, ,3, ,
0, ,2, ,
-2, ,1, ,
2, ,3, ,
-1, ,1, ,
0, ,2, ,
0, ,3, ,
1, ,2, ,
-2, ,1, ,
1, ,5, ,
-1, ,2, ,
1, ,10, ,
1, ,15, ,
0, ,11, ,
-2, ,6, ,
1, ,7, ,
-1, ,5, ,
0, ,3, ,
1, ,5, ,
2, ,3, ,
-1, ,1, ,
2, ,5, ,
-1, ,1, ,
0, ,2, ,
1, ,2, ,
1, ,3, ,
-1, ,1, ,
1, ,3, ,
-1, ,1, ,
0, ,2, ,
1, ,3, ,
2, ,2, ,
-2, ,1, ,
1, ,5, ,
-1, ,2, ,
0, ,2, ,
1, ,3, ,
1, ,2, ,
-1, ,1, ,
2, ,3, ,
-1, ,1, ,
0, ,2, ,
1, ,2, ,
1, ,2, ,
-2, ,1, ,
1, ,5, ,
0, ,2, ,
1, ,2, ,
1, ,3, ,
2, ,3, ,
-1, ,1, ,
2, ,3, ,
-1, ,1, ,
0, ,2, ,
1, ,3, ,
1, ,2, ,
-1, ,1, ,
2, ,5, ,
-1, ,2, ,
1, ,1, ,
1, ,2, ,
2, ,2, ,
-1, ,1, ,
2, ,3, ,
-1, ,2, ,
1, ,2, ,
1, ,3, ,
2, ,2, ,
-1, ,1, ,
2, ,3, ,
-1, ,2, ,
1, ,2, ,
0, ,3, ,
1, ,2, ,
-1, ,1, ,
2, ,3, ,
-1, ,1, ,
0, ,2, ,
0, ,2, ,
1, ,2, ,
-2, ,1, ,
1, ,3, ,
-1, ,2, ,
0, ,2, ,
0, ,3, ,
0, ,3, ,
-1, ,1, ,
1, ,3, ,
-1, ,1, ,
0, ,1, ,
1, ,3, ,
1, ,2, ,
-1, ,-1, ,
2, ,3, ,
-2, ,1, ,
0, ,2, ,
0, ,3, ,
1, ,2, ,
-2, ,-1, ,
2, ,3, ,
-1, ,1, ,
-1, ,2, ,
0, ,3, ,
1, ,2, ,
-2, ,-1, ,
1, ,3, ,
-1, ,1, ,
0, ,2, ,
1, ,3, ,
1, ,2, ,
-2, ,1, ,
1, ,3, ,
-1, ,1, ,
0, ,2, ,
0, ,3, ,
1, ,2, ,
-2, ,1, ,
2, ,3, ,
-1, ,1, ,
0, ,2, ,
0, ,3, ,
0, ,2, ,
-2, ,1, ,
2, ,3, ,
-1, ,1, ,
0, ,2, ,
3, ,3, ,
104, ,2, ,
66, ,-1, ,
42, ,3, ,
26, ,1, ,
20, ,2, ,
15, ,3, ,
13, ,2, ,
10, ,-1, ,
10, ,3, ,
8, ,1, ,
8, ,2, ,
9, ,3, ,
9, ,2, ,
6, ,-1, ,
8, ,3, ,
7, ,1, ,
8, ,1, ,
8, ,3, ,
8, ,2, ,
5, ,1, ,
8, ,3, ,
6, ,1, ,
7, ,1, ,
8, ,3, ,
7, ,2, ,
6, ,-1, ,
8, ,3, ,
5, ,1, ,
6, ,1, ,
7, ,3, ,
7, ,2, ,
5, ,1, ,
8, ,3, ,
6, ,1, ,
6, ,1, ,
7, ,3, ,
7, ,2, ,
5, ,-1, ,
7, ,3, ,
7, ,1, ,
7, ,1, ,
7, ,3, ,
7, ,2, ,
4, ,-1, ,
7, ,3, ,
5, ,1, ,
6, ,1, ,
6, ,3, ,
7, ,2, ,
5, ,-1, ,
6, ,3, ,
5, ,1, ,
6, ,1, ,
6, ,3, ,
7, ,1, ,
4, ,-1, ,
7, ,3, ,
5, ,1, ,
5, ,1, ,
6, ,3, ,
6, ,2, ,
4, ,-1, ,
6, ,3, ,
4, ,1, ,
5, ,1, ,
5, ,3, ,
5, ,2, ,
4, ,1, ,
6, ,3, ,
5, ,1, ,
5, ,1, ,
5, ,2, ,
4, ,2, ,
3, ,-1, ,
5, ,5, ,
5, ,1, ,
5, ,1, ,
5, ,3, ,
5, ,2, ,
3, ,-1, ,
5, ,2, ,
5, ,1, ,
5, ,1, ,
5, ,3, ,
6, ,2, ,
4, ,-1, ,
5, ,3, ,
3, ,1, ,
4, ,1, ,
5, ,2, ,
4, ,2, ,
3, ,-1, ,
6, ,3, ,
4, ,1, ,
4, ,1, ,
5, ,3, ,
5, ,2, ,
3, ,-1, ,
5, ,3, ,
3, ,1, ,
4, ,1, ,
4, ,2, ,
5, ,2, ,
3, ,-1, ,
5, ,2, ,
3, ,1, ,
3, ,1, ,
4, ,3, ,
4, ,1, ,
2, ,-1, ,
5, ,3, ,
3, ,1, ,
4, ,1, ,
4, ,3, ,
4, ,2, ,
2, ,-1, ,
4, ,2, ,
3, ,1, ,
4, ,1, ,
4, ,2, ,
4, ,2, ,
3, ,-1, ,
4, ,3, ,
3, ,1, ,
4, ,1, ,
4, ,2, ,
4, ,2, ,
3, ,-1, ,
5, ,2, ,
3, ,-1, ,
3, ,1, ,
3, ,3, ,
3, ,2, ,
2, ,-1, ,
5, ,3, ,
3, ,1, ,
3, ,1, ,
3, ,3, ,
4, ,2, ,
2, ,-1, ,
4, ,2, ,
2, ,1, ,
3, ,1, ,
4, ,2, ,
4, ,2, ,
2, ,-1, ,
4, ,3, ,
2, ,1, ,
3, ,1, ,
3, ,3, ,
4, ,2, ,
2, ,-1, ,
4, ,2, ,
3, ,1, ,
3, ,1, ,
4, ,2, ,
4, ,2, ,
1, ,-1, ,
4, ,2, ,
3, ,1, ,
3, ,1, ,
3, ,3, ,
3, ,1, ,
2, ,-1, ,
4, ,2, ,
2, ,1, ,
3, ,1, ,
3, ,2, ,
4, ,1, ,
1, ,-1, ,
4, ,2, ,
2, ,1, ,
3, ,1, ,
3, ,2, ,
3, ,2, ,
1, ,-1, ,
4, ,3, ,
2, ,1, ,
2, ,1, ,
3, ,2, ,
3, ,1, ,
1, ,-1, ,
4, ,2, ,
2, ,1, ,
2, ,1, ,
3, ,2, ,
2, ,1, ,
1, ,-1, ,
4, ,2, ,
2, ,1, ,
2, ,1, ,
3, ,2, ,
3, ,2, ,
0, ,-1, ,
3, ,3, ,
2, ,1, ,
3, ,1, ,
2, ,2, ,
3, ,2, ,
1, ,-1, ,
3, ,2, ,
1, ,-1, ,
2, ,1, ,
3, ,2, ,
3, ,1, ,
1, ,-2, ,
4, ,2, ,
2, ,-1, ,
2, ,-1, ,
2, ,1, ,
2, ,1, ,
0, ,-1, ,
4, ,2, ,
1, ,1, ,
1, ,-1, ,
2, ,2, ,
2, ,1, ,
-1, ,-1, ,
3, ,3, ,
1, ,2, ,
2, ,1, ,
2, ,2, ,
2, ,1, ,
0, ,-1, ,
3, ,2, ,
0, ,1, ,
1, ,1, ,
2, ,2, ,
2, ,2, ,
-1, ,-1, ,
3, ,2, ,
0, ,1, ,
2, ,1, ,
2, ,2, ,
2, ,2, ,
0, ,1, ,
2, ,2, ,
0, ,1, ,
1, ,-1, ,
2, ,2, ,
3, ,2, ,
0, ,1, ,
3, ,3, ,
0, ,1, ,
1, ,1, ,
2, ,2, ,
2, ,1, ,
0, ,1, ,
3, ,3, ,
0, ,1, ,
1, ,1, ,
2, ,2, ,
2, ,1, ,
0, ,1, ,
2, ,3, ,
0, ,1, ,
2, ,1, ,
1, ,2, ,
2, ,1, ,
-1, ,1, ,
2, ,2, ,
0, ,1, ,
1, ,1, ,
2, ,2, ,
2, ,2, ,
0, ,-1, ,
3, ,3, ,
0, ,2, ,
1, ,1, ,
2, ,2, ,
3, ,2, ,
0, ,-1, ,
2, ,2, ,
0, ,1, ,
1, ,1, ,
2, ,2, ,
3, ,1, ,
-1, ,-1, ,
2, ,3, ,
0, ,1, ,
2, ,-1, ,
2, ,2, ,
2, ,2, ,
-1, ,-1, ,
3, ,2, ,
1, ,1, ,
1, ,1, ,
2, ,2, ,
2, ,1, ,
0, ,-1, ,
2, ,3, ,
0, ,2, ,
1, ,1, ,
2, ,2, ,
2, ,1, ,
-1, ,-1, ,
2, ,2, ,
0, ,1, ,
1, ,1, ,
2, ,2, ,
2, ,1, ,
-1, ,-1, ,
3, ,2, ,
0, ,1, ,
1, ,1, ,
2, ,2, ,
1, ,1, ,
-1, ,-1, ,
3, ,2, ,
0, ,1, ,
1, ,1, ,
2, ,2, ,
2, ,1, ,
-1, ,-1, ,
2, ,2, ,
0, ,1, ,
2, ,1, ,
2, ,2, ,
2, ,1, ,
-1, ,-1, ,
3, ,2, ,
0, ,1, ,
1, ,1, ,
2, ,2, ,
2, ,1, ,
-1, ,-1, ,
2, ,2, ,
1, ,1, ,
2, ,1, ,
2, ,2, ,
1, ,2, ,
-1, ,-1, ,
3, ,2, ,
-1, ,1, ,
0, ,1, ,
0, ,2, ,
1, ,2, ,
-1, ,-1, ,
2, ,3, ,
0, ,2, ,
2, ,1, ,
1, ,2, ,
1, ,2, ,
-1, ,-1, ,
2, ,2, ,
0, ,1, ,
1, ,1, ,
1, ,2, ,
1, ,1, ,
-1, ,-1, ,
2, ,3, ,
0, ,1, ,
1, ,1, ,
2, ,2, ,
2, ,2, ,
-1, ,-1, ,
1, ,2, ,
0, ,1, ,
1, ,1, ,
2, ,2, ,
2, ,1, ,
-1, ,-1, ,
1, ,3, ,
-1, ,1, ,
1, ,1, ,
1, ,2, ,
1, ,1, ,
-1, ,-1, ,
2, ,2, ,
0, ,1, ,
1, ,1, ,
1, ,2, ,
1, ,1, ,
-1, ,-1, ,
3, ,3, ,
-1, ,1, ,
1, ,-1, ,
1, ,3, ,
1, ,1, ,
-1, ,-1, ,
2, ,2, ,
-1, ,1, ,
1, ,1, ,
2, ,2, ,
2, ,1, ,
-1, ,-2, ,
2, ,3, ,
0, ,1, ,
2, ,1, ,
1, ,2, ,
1, ,1, ,
-1, ,-2, ,
2, ,2, ,
-1, ,1, ,
1, ,-1, ,
1, ,2, ,
2, ,1, ,
-1, ,-2, ,
2, ,2, ,
-1, ,1, ,
1, ,1, ,
1, ,2, ,
1, ,2, ,
-1, ,-1, ,
3, ,2, ,
0, ,1, ,
0, ,1, ,
1, ,2, ,
1, ,1, ,
-1, ,-2, ,
2, ,3, ,
0, ,1, ,
2, ,1, ,
1, ,2, ,
1, ,1, ,
-1, ,-1, ,
2, ,2, ,
-1, ,1, ,
58, ,1, ,
89, ,2, ,
57, ,1, ,
37, ,-2, ,
27, ,2, ,
17, ,1, ,
14, ,1, ,
12, ,2, ,
10, ,1, ,
7, ,-1, ,
9, ,2, ,
8, ,-1, ,
8, ,1, ,
8, ,2, ,
9, ,1, ,
7, ,-2, ,
9, ,2, ,
6, ,1, ,
7, ,-1, ,
7, ,2, ,
9, ,1, ,
5, ,-2, ,
8, ,2, ,
7, ,-1, ,
7, ,1, ,
7, ,2, ,
7, ,1, ,
5, ,-2, ,
8, ,2, ,
6, ,1, ,
7, ,1, ,
7, ,2, ,
6, ,1, ,
5, ,-1, ,
7, ,2, ,
5, ,-1, ,
6, ,1, ,
7, ,2, ,
6, ,1, ,
5, ,-2, ,
7, ,3, ,
5, ,1, ,
6, ,-1, ,
6, ,2, ,
7, ,1, ,
5, ,-1, ,
8, ,2, ,
6, ,-1, ,
6, ,1, ,
6, ,2, ,
6, ,1, ,
4, ,-1, ,
7, ,1, ,
6, ,-1, ,
5, ,1, ,
6, ,1, ,
6, ,1, ,
5, ,-1, ,
7, ,1, ,
4, ,1, ,
5, ,1, ,
6, ,1, ,
6, ,1, ,
4, ,-1, ,
7, ,2, ,
5, ,-1, ,
5, ,-1, ,
5, ,2, ,
5, ,1, ,
4, ,-1, ,
6, ,2, ,
5, ,-1, ,
5, ,1, ,
6, ,2, ,
5, ,1, ,
4, ,-2, ,
6, ,2, ,
4, ,-1, ,
5, ,-1, ,
5, ,1, ,
5, ,1, ,
4, ,-2, ,
6, ,2, ,
4, ,-1, ,
4, ,1, ,
5, ,2, ,
4, ,1, ,
3, ,-2, ,
6, ,2, ,
4, ,-1, ,
4, ,-1, ,
5, ,1, ,
5, ,1, ,
3, ,-2, ,
6, ,2, ,
4, ,-1, ,
4, ,-1, ,
5, ,2, ,
6, ,1, ,
3, ,-2, ,
5, ,2, ,
3, ,-1, ,
4, ,1, ,
4, ,1, ,
5, ,1, ,
3, ,-2, ,
6, ,2, ,
3, ,-1, ,
4, ,-1, ,
4, ,2, ,
4, ,1, ,
2, ,-2, ,
5, ,2, ,
4, ,-1, ,
5, ,-1, ,
4, ,1, ,
4, ,1, ,
2, ,-2, ,
5, ,1, ,
4, ,-1, ,
3, ,1, ,
4, ,2, ,
4, ,64, ,
2, ,63, ,
5, ,41, ,
3, ,25, ,
4, ,17, ,
4, ,11, ,
4, ,9, ,
2, ,5, ,
4, ,6, ,
3, ,3, ,
4, ,3, ,
4, ,5, ,
4, ,2, ,
2, ,1, ,
4, ,5, ,
3, ,2, ,
4, ,2, ,
3, ,2, ,
4, ,2, ,
2, ,1, ,
4, ,3, ,
3, ,2, ,
3, ,2, ,
4, ,3, ,
4, ,3, ,
2, ,-1, ,
4, ,3, ,
3, ,2, ,
3, ,2, ,
3, ,2, ,
3, ,2, ,
2, ,1, ,
3, ,3, ,
2, ,2, ,
4, ,2, ,
3, ,3, ,
3, ,2, ,
1, ,1, ,
4, ,3, ,
2, ,2, ,
3, ,1, ,
3, ,2, ,
3, ,2, ,
1, ,1, ,
5, ,3, ,
3, ,2, ,
2, ,2, ,
3, ,2, ,
3, ,2, ,
1, ,-1, ,
3, ,2, ,
2, ,2, ,
3, ,2, ,
3, ,2, ,
3, ,2, ,
1, ,1, ,
4, ,3, ,
1, ,1, ,
2, ,2, ,
3, ,3, ,
2, ,2, ,
1, ,1, ,
4, ,3, ,
2, ,1, ,
3, ,2, ,
2, ,3, ,
3, ,2, ,
1, ,1, ,
4, ,3, ,
1, ,1, ,
1, ,2, ,
2, ,3, ,
3, ,2, ,
0, ,1, ,
3, ,3, ,
2, ,1, ,
3, ,2, ,
3, ,2, ,
3, ,2, ,
0, ,1, ,
3, ,3, ,
1, ,1, ,
2, ,2, ,
3, ,3, ,
2, ,2, ,
0, ,-1, ,
3, ,3, ,
2, ,1, ,
2, ,2, ,
2, ,3, ,
2, ,2, ,
0, ,1, ,
3, ,3, ,
1, ,1, ,
3, ,1, ,
3, ,2, ,
3, ,2, ,
1, ,-1, ,
3, ,3, ,
1, ,1, ,
1, ,2, ,
2, ,3, ,
2, ,2, ,
0, ,1, ,
4, ,3, ,
1, ,1, ,
1, ,1, ,
2, ,3, ,
3, ,2, ,
0, ,-1, ,
3, ,3, ,
1, ,1, ,
3, ,1, ,
2, ,3, ,
2, ,2, ,
-1, ,-1, ,
3, ,2, ,
1, ,1, ,
2, ,2, ,
3, ,3, ,
3, ,2, ,
0, ,-1, ,
4, ,3, ,
1, ,1, ,
3, ,1, ,
2, ,2, ,
2, ,2, ,
0, ,1, ,
3, ,2, ,
1, ,1, ,
2, ,1, ,
3, ,3, ,
3, ,2, ,
0, ,-1, ,
2, ,2, ,
0, ,1, ,
3, ,1, ,
2, ,2, ,
2, ,2, ,
0, ,1, ,
3, ,3, ,
0, ,1, ,
1, ,1, ,
2, ,2, ,
2, ,2, ,
-1, ,-1, ,
3, ,2, ,
1, ,1, ,
2, ,1, ,
2, ,2, ,
2, ,2, ,
0, ,-1, ,
3, ,2, ,
1, ,1, ,
2, ,1, ,
2, ,2, ,
2, ,2, ,
-1, ,-1, ,
2, ,3, ,
0, ,1, ,
2, ,1, ,
2, ,2, ,
2, ,2, ,
-1, ,-1, ,
3, ,2, ,
0, ,1, ,
1, ,1, ,
2, ,2, ,
2, ,2, ,
0, ,-1, ,
3, ,2, ,
0, ,1, ,
1, ,1, ,
2, ,2, ,
3, ,2, ,
0, ,-1, ,
2, ,3, ,
0, ,1, ,
1, ,1, ,
2, ,2, ,
2, ,2, ,
-1, ,-1, ,
3, ,3, ,
0, ,1, ,
2, ,1, ,
2, ,2, ,
1, ,2, ,
-2, ,-1, ,
3, ,2, ,
0, ,1, ,
1, ,1, ,
2, ,3, ,
3, ,2, ,
0, ,-1, ,
3, ,2, ,
-1, ,1, ,
0, ,1, ,
1, ,2, ,
2, ,2, ,
-1, ,-1, ,
2, ,3, ,
0, ,1, ,
1, ,1, ,
1, ,2, ,
1, ,2, ,
-1, ,-1, ,
2, ,2, ,
0, ,1, ,
1, ,1, ,
1, ,2, ,
1, ,1, ,
-1, ,-1, ,
2, ,2, ,
-1, ,1, ,
1, ,1, ,
1, ,3, ,
1, ,2, ,
-1, ,-1, ,
2, ,2, ,
0, ,1, ,
1, ,1, ,
2, ,2, ,
1, ,2, ,
-1, ,-1, ,
2, ,2, ,
-1, ,1, ,
0, ,1, ,
0, ,3, ,
1, ,1, ,
-1, ,-1, ,
2, ,3, ,
-1, ,1, ,
1, ,1, ,
1, ,2, ,
1, ,1, ,
-1, ,-1, ,
2, ,2, ,
-1, ,1, ,
0, ,1, ,
1, ,2, ,
2, ,2, ,
-1, ,-2, ,
3, ,2, ,
0, ,1, ,
1, ,1, ,
1, ,2, ,
1, ,1, ,
-2, ,-1, ,
2, ,2, ,
0, ,-1, ,
0, ,1, ,
1, ,2, ,
2, ,2, ,
-1, ,-1, ,
2, ,2, ,
-1, ,1, ,
0, ,1, ,
1, ,2, ,
2, ,2, ,
-1, ,-1, ,
3, ,2, ,
0, ,1, ,
1, ,1, ,
1, ,2, ,
1, ,2, ,
-1, ,-1, ,
2, ,2, ,
0, ,-1, ,
1, ,1, ,
1, ,1, ,
2, ,1, ,
-1, ,-1, ,
2, ,2, ,
0, ,1, ,
1, ,1, ,
2, ,2, ,
2, ,2, ,
-1, ,-1, ,
2, ,2, ,
0, ,1, ,
1, ,1, ,
2, ,2, ,
1, ,1, ,
0, ,-1, ,
3, ,2, ,
0, ,-1, ,
1, ,1, ,
2, ,2, ,
2, ,1, ,
-1, ,-1, ,
1, ,2, ,
-1, ,-1, ,
1, ,1, ,
1, ,2, ,
2, ,2, ,
0, ,-1, ,
3, ,3, ,
0, ,1, ,
1, ,1, ,
2, ,2, ,
1, ,1, ,
-1, ,-1, ,
2, ,2, ,
1, ,-1, ,
1, ,1, ,
1, ,1, ,
0, ,1, ,
-2, ,-1, ,
1, ,2, ,
0, ,1, ,
1, ,1, ,
1, ,1, ,
1, ,2, ,
-1, ,-1, ,
2, ,2, ,
-1, ,1, ,
0, ,1, ,
1, ,2, ,
0, ,1, ,
-1, ,-1, ,
3, ,2, ,
0, ,1, ,
0, ,1, ,
1, ,2, ,
1, ,2, ,
-1, ,-1, ,
2, ,2, ,
-1, ,1, ,
1, ,1, ,
1, ,2, ,
2, ,1, ,
-2, ,-1, ,
2, ,2, ,
0, ,-1, ,
1, ,1, ,
1, ,2, ,
1, ,1, ,
-1, ,-1, ,
1, ,2, ,
-1, ,-1, ,
0, ,1, ,
1, ,2, ,
0, ,2, ,
-1, ,-1, ,
2, ,2, ,
-1, ,-1, ,
1, ,1, ,
1, ,2, ,
1, ,2, ,
-2, ,-1, ,
1, ,2, ,
-1, ,1, ,
1, ,1, ,
1, ,2, ,
1, ,1, ,
-1, ,-1, ,
2, ,2, ,
-1, ,1, ,
0, ,1, ,
1, ,2, ,
2, ,1, ,
-1, ,-2, ,
2, ,2, ,
-1, ,-1, ,
1, ,1, ,
0, ,2, ,
2, ,1, ,
-1, ,-1, ,
2, ,2, ,
-1, ,-1, ,
1, ,1, ,
0, ,2, ,
1, ,1, ,
-2, ,-1, ,
1, ,2, ,
-1, ,-1, ,
1, ,1, ,
1, ,2, ,
1, ,1, ,
-1, ,-1, ,
2, ,2, ,
-1, ,-1, ,
0, ,1, ,
1, ,2, ,
2, ,1, ,
-1, ,-2, ,
1, ,2, ,
-1, ,-1, ,
0, ,1, ,
1, ,1, ,
1, ,1, ,
-2, ,-1, ,
2, ,2, ,
0, ,-1, ,
0, ,1, ,
0, ,2, ,
1, ,1, ,
-1, ,-2, ,
2, ,1, ,
0, ,-1, ,
0, ,1, ,
1, ,1, ,
0, ,1, ,
-1, ,-2, ,
2, ,2, ,
-1, ,1, ,
1, ,1, ,
1, ,2, ,
1, ,1, ,
-2, ,-1, ,
2, ,2, ,
-1, ,-1, ,
1, ,1, ,
0, ,2, ,
1, ,1, ,
-1, ,-1, ,
1, ,2, ,
0, ,-1, ,
0, ,1, ,
1, ,2, ,
1, ,2, ,
-2, ,-2, ,
2, ,2, ,
0, ,-1, ,
1, ,1, ,
1, ,2, ,
1, ,1, ,
-2, ,-1, ,
2, ,2, ,
-1, ,-1, ,
0, ,1, ,
1, ,2, ,
2, ,1, ,
-1, ,-2, ,
2, ,1, ,
-1, ,-1, ,
1, ,1, ,
1, ,2, ,
0, ,1, ,
-1, ,-1, ,
2, ,2, ,
-1, ,-1, ,
0, ,1, ,
1, ,2, ,
1, ,1, ,
-1, ,-2, ,
1, ,2, ,
-1, ,1, ,
0, ,1, ,
0, ,2, ,
1, ,1, ,
-2, ,-1, ,
2, ,2, ,
-1, ,-1, ,
0, ,1, ,
0, ,2, ,
0, ,1, ,
-2, ,-2, ,
2, ,2, ,
-1, ,-1, ,
1, ,1, ,
0, ,2, ,
0, ,1, ,
-1, ,-1, ,
2, ,1, ,
-1, ,-1, ,
0, ,-1, ,
1, ,1, ,
1, ,1, ,
-2, ,-1, ,
1, ,2, ,
-1, ,-1, ,
0, ,1, ,
1, ,2, ,
1, ,1, ,
-1, ,-2, ,
2, ,2, ,
0, ,-1, ,
0, ,1, ,
-1, ,2, ,
1, ,1, ,
-1, ,-2, ,
2, ,2, ,
-1, ,-1, ,
0, ,-1, ,
0, ,1, ,
1, ,1, ,
-2, ,-1, ,
2, ,2, ,
-1, ,-1, ,
0, ,1, ,
1, ,2, ,
2, ,1, ,
-2, ,-1, ,
2, ,2, ,
-1, ,-1, ,
0, ,-1, ,
1, ,2, ,
1, ,1, ,
-1, ,-1, ,
1, ,2, ,
-1, ,-1, ,
0, ,1, ,
1, ,2, ,
2, ,1, ,
-2, ,-2, ,
1, ,2, ,
-2, ,-1, ,
1, ,1, ,
1, ,1, ,
1, ,1, ,
-1, ,-2, ,
2, ,1, ,
-1, ,-1, ,
0, ,-1, ,
1, ,2, ,
2, ,1, ,
-1, ,-1, ,
2, ,2, ,
-1, ,-1, ,
1, ,-1, ,
1, ,1, ,
0, ,1, ,
-2, ,-1, ,
2, ,2, ,
-1, ,-1, ,
1, ,1, ,
1, ,1, ,
1, ,1, ,
0, ,-2, ,
2, ,2, ,
-1, ,1, ,
0, ,1, ,
1, ,1, ,
1, ,1, ,
-2, ,-2, ,
2, ,1, ,
-1, ,-1, ,
-1, ,-1, ,
0, ,2, ,
1, ,1, ,
-2, ,-2, ,
2, ,2, ,
-1, ,-1, ,
1, ,1, ,
1, ,2, ,
1, ,1, ,
-1, ,-1, ,
1, ,1, ,
-1, ,-1, ,
0, ,-1, ,
1, ,1, ,
1, ,1, ,
-1, ,-2, ,
1, ,1, ,
-1, ,-1, ,
0, ,-1, ,
0, ,2, ,
1, ,1, ,
-2, ,-1, ,
1, ,2, ,
-1, ,-1, ,
1, ,1, ,
1, ,2, ,
1, ,1, ,
-2, ,-2, ,
1, ,2, ,
-1, ,-1, ,
0, ,1, ,
0, ,1, ,
1, ,1, ,
-2, ,-2, ,
2, ,1, ,
-1, ,-1, ,
0, ,1, ,
0, ,2, ,
1, ,1, ,
-2, ,-2, ,
2, ,1, ,
-1, ,-1, ,
1, ,-1, ,
1, ,1, ,
0, ,1, ,
-2, ,-1, ,
2, ,1, ,
-1, ,-1, ,
0, ,-1, ,
1, ,2, ,
1, ,1, ,
-2, ,-2, ,
2, ,2, ,
-2, ,-1, ,
0, ,-1, ,
0, ,1, ,
1, ,1, ,
-1, ,-2, ,
2, ,2, ,
-1, ,-1, ,
-1, ,1, ,
0, ,2, ,
1, ,1, ,
-2, ,-2, ,
2, ,2, ,
-1, ,-1, ,
0, ,-1, ,
0, ,1, ,
0, ,1, ,
-2, ,-2, ,
1, ,2, ,
-1, ,-1, ,
0, ,-1, ,
0, ,1, ,
1, ,1, ,
-1, ,-1, ,
1, ,1, ,
-1, ,-1, ,
0, ,-1, ,
1, ,1, ,
1, ,1, ,
-2, ,-2, ,
1, ,2, ,
-1, ,-1, ,
0, ,1, ,
1, ,2, ,
1, ,1, ,
-1, ,-2, ,
1, ,2, ,
-1, ,-1, ,
0, ,-1, ,
1, ,1, ,
1, ,1, ,
-2, ,-2, ,
2, ,2, ,
-1, ,-1, ,
0, ,1, ,
1, ,2, ,
1, ,1, ,
-2, ,-2, ,
2, ,2, ,
0, ,-1, ,
1, ,1, ,
0, ,1, ,
0, ,1, ,
-2, ,-1, ,
2, ,2, ,
-2, ,-1, ,
0, ,1, ,
1, ,1, ,
0, ,1, ,
-1, ,-2, ,
2, ,2, ,
-1, ,-1, ,
0, ,1, ,
0, ,1, ,
1, ,1, ,
-1, ,-2, ,
2, ,2, ,
-1, ,-1, ,
0, ,-1, ,
1, ,2, ,
1, ,1, ,
-1, ,-2, ,
1, ,2, ,
-1, ,-1, ,
1, ,1, ,
1, ,2, ,
1, ,1, ,
-2, ,-2, ,
2, ,2, ,
0, ,-1, ,
1, ,-1, ,
1, ,1, ,
2, ,1, ,
-1, ,-2, ,
1, ,1, ,
-1, ,-1, ,
0, ,1, ,
1, ,2, ,
1, ,1, ,
-2, ,-2, ,
1, ,1, ,
-1, ,-1, ,
0, ,-1, ,
0, ,2, ,
1, ,1, ,
-2, ,-2, ,
1, ,2, ,
-1, ,-1, ,
1, ,-1, ,
0, ,1, ,
1, ,1, ,
-2, ,-2, ,
2, ,1, ,
-1, ,-1, ,
0, ,-1, ,
0, ,1, ,
0, ,1, ,
-1, ,-2, ,
2, ,1, ,
-1, ,-1, ,
1, ,-1, ,
1, ,1, ,
1, ,1, ,
-2, ,-1, ,
1, ,2, ,
-1, ,-1, ,
1, ,-1, ,
1, ,2, ,
2, ,1, ,
-1, ,-2, ,
2, ,2, ,
-1, ,-1, ,
0, ,1, ,
1, ,1, ,
1, ,1, ,
-1, ,-2, ,
2, ,1, ,
-1, ,-1, ,
-1, ,1, ,
0, ,2, ,
1, ,1, ,
-1, ,-2, ,
1, ,1, ,
-2, ,-1, ,
1, ,1, ,
1, ,2, ,
0, ,1, ,
-2, ,-2, ,
1, ,2, ,
-2, ,-1, ,
0, ,1, ,
0, ,2, ,
1, ,1, ,
-2, ,-2, ,
2, ,2, ,
-1, ,-1, ,
0, ,-1, ,
0, ,1, ,
0, ,1, ,
-1, ,-2, ,
2, ,2, ,
-1, ,-1, ,
0, ,-1, ,
1, ,2, ,
1, ,1, ,
-1, ,-2, ,
1, ,1, ,
-1, ,-1, ,
0, ,-1, ,
1, ,1, ,
1, ,1, ,
-1, ,-2, ,
1, ,2, ,
-1, ,-1, ,
0, ,-1, ,
0, ,2, ,
1, ,1, ,
-1, ,-2, ,
1, ,1, ,
-1, ,-1, ,
0, ,-1, ,
1, ,1, ,
1, ,1, ,
-2, ,-2, ,
1, ,1, ,
-2, ,-1, ,
1, ,1, ,
1, ,2, ,
1, ,1, ,
-2, ,-2, ,
1, ,2, ,
-1, ,-1, ,
1, ,1, ,
2, ,1, ,
1, ,1, ,
-2, ,-2, ,
2, ,2, ,
-1, ,-1, ,
0, ,1, ,
0, ,2, ,
2, ,1, ,
-1, ,-2, ,
1, ,2, ,
0, ,-1, ,
1, ,-1, ,
0, ,1, ,
0, ,-1, ,
-1, ,-2, ,
1, ,2, ,
-1, ,-1, ,
0, ,1, ,
1, ,2, ,
1, ,1, ,
-1, ,-2, ,
2, ,1, ,
-1, ,-1, ,
0, ,1, ,
0, ,1, ,
2, ,1, ,
-2, ,-2, ,
2, ,1, ,
-1, ,-1, ,
0, ,-1, ,
1, ,2, ,
1, ,-1, ,
-2, ,-2, ,
1, ,2, ,
-1, ,-1, ,
0, ,-1, ,
0, ,-1, ,
1, ,1, ,
-1, ,-2, ,
2, ,1, ,
-1, ,-1, ,
0, ,1, ,
0, ,2, ,
1, ,1, ,
-2, ,-2, ,
2, ,2, ,
0, ,-1, ,
1, ,1, ,
0, ,1, ,
0, ,1, ,
-2, ,-2, ,
1, ,2, ,
-1, ,-1, ,
0, ,-1, ,
1, ,2, ,
1, ,-1, ,
-1, ,-2, ,
1, ,2, ,
-1, ,-1, ,
1, ,-1, ,
0, ,1, ,
0, ,1, ,
-1, ,-2, ,
1, ,1, ,
-2, ,-1, ,
0, ,1, ,
0, ,2, ,
0, ,-1, ,
-1, ,-2, ,
2, ,2, ,
-1, ,-1, ,
0, ,-1, ,
1, ,1, ,
0, ,1, ,
-1, ,-2, ,
1, ,1, ,
-1, ,-1, ,
0, ,1, ,
1, ,2, ,
1, ,1, ,
-1, ,-2, ,
1, ,2, ,
0, ,-1, ,
0, ,-1, ,
0, ,1, ,
0, ,1, ,
-2, ,-2, ,
2, ,1, ,
-1, ,-1, ,
0, ,-1, ,
1, ,1, ,
1, ,1, ,
-2, ,-2, ,
2, ,1, ,
-1, ,-1, ,
0, ,1, ,
1, ,1, ,
1, ,1, ,
-1, ,-2, ,
1, ,1, ,
-1, ,-1, ,
1, ,1, ,
0, ,2, ,
1, ,1, ,
-2, ,-2, ,
1, ,1, ,
-1, ,-1, ,
0, ,1, ,
1, ,1, ,
0, ,1, ,
-2, ,-2, ,
1, ,1, ,
-1, ,-1, ,
0, ,1, ,
1, ,2, ,
2, ,-1, ,
-2, ,-2, ,
1, ,1, ,
-1, ,-1, ,
1, ,-1, ,
1, ,1, ,
2, ,1, ,
-2, ,-2, ,
2, ,2, ,
-1, ,-1, ,
0, ,1, ,
1, ,2, ,
1, ,1, ,
-1, ,-2, ,
2, ,2, ,
-1, ,-1, ,
1, ,-1, ,
1, ,1, ,
1, ,1, ,
-2, ,-2, ,
2, ,2, ,
-1, ,-1, ,
0, ,1, ,
0, ,2, ,
1, ,1, ,
-2, ,-2, ,
1, ,1, ,
-1, ,-1, ,
1, ,-1, ,
0, ,1, ,
0, ,1, ,
-2, ,-1, ,
2, ,2, ,
-1, ,-1, ,
0, ,1, ,
1, ,2, ,
1, ,1, ,
-1, ,-2, ,
1, ,2, ,
-1, ,-1, ,
1, ,-1, ,
0, ,1, ,
1, ,1, ,
-1, ,-2, ,
2, ,1, ,
-1, ,-1, ,
0, ,-1, ,
0, ,2, ,
0, ,-1, ,
-1, ,-2, ,
2, ,2, ,
0, ,-1, ,
1, ,1, ,
1, ,1, ,
1, ,-1, ,
-2, ,-2, ,
2, ,1, ,
0, ,-1, ,
0, ,-1, ,
0, ,2, ,
1, ,1, ,
-2, ,-2, ,
1, ,2, ,
-1, ,-1, ,
0, ,1, ,
0, ,85, ,
0, ,55, ,
-1, ,33, ,
1, ,22, ,
-1, ,14, ,
0, ,10, ,
0, ,9, ,
1, ,6, ,
-1, ,3, ,
1, ,6, ,
-1, ,3, ,
1, ,3, ,
0, ,3, ,
1, ,2, ,
-1, ,1, ,
1, ,3, ,
-1, ,1, ,
0, ,2, ,
0, ,3, ,
1, ,2, ,
-1, ,1, ,
2, ,3, ,
-1, ,2, ,
1, ,2, ,
1, ,2, ,
1, ,2, ,
-1, ,1, ,
1, ,3, ,
-2, ,2, ,
1, ,2, ,
1, ,2, ,
1, ,2, ,
-2, ,1, ,
1, ,3, ,
-2, ,2, ,
0, ,2, ,
0, ,2, ,
1, ,3, ,
-1, ,1, ,
2, ,2, ,
-1, ,2, ,
0, ,2, ,
0, ,2, ,
1, ,3, ,
-1, ,1, ,
2, ,3, ,
0, ,2, ,
1, ,2, ,
1, ,3, ,
0, ,2, ,
-1, ,1, ,
2, ,3, ,
-1, ,2, ,
0, ,2, ,
1, ,2, ,
1, ,2, ,
-2, ,-1, ,
1, ,2, ,
-1, ,1, ,
1, ,2, ,
1, ,2, ,
1, ,2, ,
-1, ,1, ,
1, ,3, ,
-1, ,1, ,
0, ,2, ,
0, ,3, ,
0, ,3, ,
-2, ,1, ,
1, ,3, ,
-1, ,2, ,
1, ,2, ,
1, ,2, ,
1, ,2, ,
-2, ,-1, ,
2, ,3, ,
-1, ,1, ,
0, ,2, ,
0, ,2, ,
2, ,2, ,
-1, ,-1, ,
1, ,3, ,
-2, ,1, ,
0, ,2, ,
1, ,2, ,
0, ,2, ,
-3, ,1, ,
2, ,3, ,
-1, ,1, ,
0, ,1, ,
1, ,3, ,
2, ,2, ,
0, ,-1, ,
1, ,3, ,
-1, ,1, ,
0, ,1, ,
0, ,2, ,
2, ,2, ,
-1, ,1, ,
2, ,3, ,
-2, ,1, ,
0, ,2, ,
-1, ,3, ,
0, ,2, ,
-2, ,-1, ,
1, ,2, ,
-1, ,1, ,
0, ,1, ,
0, ,2, ,
0, ,2, ,
-2, ,1, ,
1, ,2, ,
0, ,1, ,
0, ,2, ,
0, ,2, ,
0, ,2, ,
-2, ,-1, ,
1, ,3, ,
-1, ,1, ,
0, ,2, ,
0, ,2, ,
0, ,2, ,
-1, ,1, ,
1, ,2, ,
-2, ,1, ,
0, ,1, ,
1, ,3, ,
1, ,2, ,
-1, ,-1, ,
2, ,2, ,
-1, ,1, ,
0, ,1, ,
0, ,2, ,
1, ,2, ,
-1, ,-1, ,
1, ,2, ,
-1, ,1, ,
-1, ,2, ,
0, ,2, ,
0, ,2, ,
-2, ,-1, ,
1, ,3, ,
-1, ,1, ,
0, ,1, ,
0, ,2, ,
1, ,2, ,
-1, ,-1, ,
1, ,3, ,
-1, ,1, ,
0, ,1, ,
1, ,3, ,
1, ,2, ,
-1, ,-1, ,
1, ,2, ,
-2, ,1, ,
