src/apd2apd/1562vnotrig0002334.CSV

Format,1.0B,
Memory Length,10000,Memory Length,10000,
IntpDistance,0,IntpDistance,0,
Trigger Address,5049,Trigger Address,5049,
Trigger Level,2.880E-01,Trigger Level,2.880E-01,
Source,CH1,Source,CH2,
Vertical Units,V,Vertical Units,V,
Vertical Units Div,0,Vertical Units Div,0,
Vertical Units Extend Div,16,Vertical Units Extend Div,16,
Label,,Label,,
Probe Type,0,Probe Type,0,
Probe Ratio,1.000e+01,Probe Ratio,1.000e+00,
Vertical Scale,1.000e-01,Vertical Scale,5.000e-02,
Vertical Position,-3.280e-01,Vertical Position,-1.640e-01,
Horizontal Units,S,Horizontal Units,S,
Horizontal Scale,2.000E-05,Horizontal Scale,2.000E-05,
Horizontal Position,-1.000E-06,Horizontal Position,-1.000E-06,
Horizontal Mode,Main,Horizontal Mode,Main,
SincET Mode,Real Time,SincET Mode,Real Time,
Sampling Period,2.000e-08,Sampling Period,2.000e-08,
Horizontal Old Scale,2.000E-05,Horizontal Old Scale,2.000E-05,
Horizontal Old Position,-1.000E-06,Horizontal Old Position,-1.000E-06,
Firmware,V1.23,Firmware,V1.23,
Mode,Fast,Mode,Fast,
Waveform Data,,Waveform Data,,
3, ,1, ,
6, ,-1, ,
4, ,-2, ,
5, ,1, ,
5, ,1, ,
5, ,-2, ,
3, ,1, ,
6, ,-1, ,
4, ,-1, ,
4, ,1, ,
4, ,-1, ,
5, ,-2, ,
4, ,2, ,
6, ,-1, ,
4, ,-1, ,
4, ,1, ,
4, ,1, ,
4, ,-2, ,
3, ,2, ,
6, ,-1, ,
4, ,-1, ,
4, ,1, ,
5, ,1, ,
4, ,-2, ,
2, ,1, ,
5, ,-1, ,
4, ,-1, ,
4, ,1, ,
4, ,22, ,
4, ,78, ,
2, ,47, ,
5, ,30, ,
3, ,21, ,
4, ,14, ,
4, ,11, ,
5, ,6, ,
2, ,7, ,
5, ,5, ,
4, ,3, ,
3, ,3, ,
4, ,3, ,
4, ,1, ,
2, ,3, ,
5, ,2, ,
4, ,2, ,
4, ,2, ,
4, ,3, ,
4, ,1, ,
2, ,3, ,
4, ,2, ,
3, ,2, ,
4, ,3, ,
4, ,2, ,
4, ,1, ,
2, ,5, ,
4, ,2, ,
3, ,2, ,
4, ,3, ,
4, ,2, ,
4, ,1, ,
1, ,3, ,
4, ,2, ,
3, ,3, ,
4, ,3, ,
4, ,3, ,
4, ,1, ,
2, ,3, ,
4, ,2, ,
2, ,2, ,
3, ,3, ,
3, ,2, ,
3, ,1, ,
2, ,3, ,
5, ,2, ,
2, ,2, ,
2, ,2, ,
3, ,2, ,
4, ,1, ,
2, ,3, ,
4, ,2, ,
3, ,2, ,
3, ,3, ,
3, ,2, ,
3, ,1, ,
1, ,3, ,
4, ,1, ,
2, ,2, ,
4, ,2, ,
3, ,2, ,
3, ,1, ,
1, ,3, ,
4, ,1, ,
2, ,1, ,
3, ,2, ,
3, ,3, ,
3, ,1, ,
1, ,2, ,
4, ,1, ,
2, ,2, ,
3, ,2, ,
3, ,2, ,
3, ,1, ,
0, ,3, ,
4, ,2, ,
1, ,2, ,
3, ,3, ,
2, ,2, ,
2, ,1, ,
0, ,3, ,
3, ,1, ,
2, ,2, ,
3, ,2, ,
2, ,2, ,
3, ,1, ,
0, ,3, ,
3, ,1, ,
2, ,1, ,
2, ,2, ,
2, ,2, ,
3, ,-1, ,
0, ,3, ,
3, ,1, ,
0, ,1, ,
2, ,2, ,
2, ,2, ,
2, ,1, ,
0, ,3, ,
3, ,1, ,
0, ,1, ,
1, ,2, ,
2, ,2, ,
3, ,1, ,
0, ,2, ,
4, ,1, ,
1, ,2, ,
2, ,2, ,
3, ,2, ,
2, ,1, ,
-1, ,3, ,
4, ,1, ,
1, ,1, ,
1, ,2, ,
2, ,2, ,
2, ,-1, ,
-1, ,3, ,
3, ,2, ,
0, ,1, ,
2, ,2, ,
2, ,2, ,
2, ,1, ,
-1, ,2, ,
2, ,1, ,
0, ,2, ,
2, ,2, ,
2, ,2, ,
3, ,1, ,
0, ,2, ,
4, ,2, ,
0, ,1, ,
1, ,2, ,
2, ,2, ,
2, ,-1, ,
0, ,3, ,
3, ,1, ,
1, ,1, ,
1, ,2, ,
3, ,2, ,
2, ,-1, ,
-1, ,2, ,
3, ,1, ,
1, ,2, ,
2, ,2, ,
2, ,2, ,
3, ,-1, ,
0, ,3, ,
3, ,1, ,
1, ,2, ,
2, ,2, ,
2, ,2, ,
3, ,-1, ,
-1, ,3, ,
3, ,1, ,
0, ,2, ,
2, ,2, ,
2, ,2, ,
2, ,1, ,
0, ,3, ,
2, ,1, ,
-1, ,2, ,
1, ,3, ,
2, ,2, ,
2, ,-1, ,
0, ,3, ,
3, ,1, ,
0, ,1, ,
1, ,2, ,
1, ,2, ,
2, ,-1, ,
-1, ,2, ,
2, ,1, ,
0, ,1, ,
1, ,3, ,
2, ,2, ,
2, ,-1, ,
-1, ,3, ,
3, ,1, ,
0, ,2, ,
2, ,2, ,
2, ,2, ,
2, ,-1, ,
-1, ,3, ,
2, ,1, ,
-1, ,2, ,
1, ,2, ,
2, ,2, ,
2, ,1, ,
-1, ,2, ,
2, ,2, ,
0, ,2, ,
1, ,2, ,
2, ,2, ,
2, ,-1, ,
-1, ,3, ,
3, ,1, ,
0, ,1, ,
1, ,2, ,
2, ,1, ,
1, ,-1, ,
-1, ,2, ,
3, ,1, ,
0, ,2, ,
1, ,2, ,
1, ,2, ,
1, ,-1, ,
-1, ,3, ,
2, ,1, ,
0, ,1, ,
1, ,2, ,
1, ,2, ,
1, ,-1, ,
-1, ,2, ,
2, ,1, ,
0, ,1, ,
1, ,2, ,
2, ,2, ,
2, ,-1, ,
-1, ,2, ,
2, ,1, ,
-1, ,1, ,
0, ,2, ,
1, ,2, ,
1, ,-1, ,
-1, ,3, ,
2, ,1, ,
0, ,1, ,
1, ,2, ,
1, ,2, ,
1, ,-1, ,
-2, ,2, ,
3, ,1, ,
0, ,1, ,
1, ,2, ,
1, ,1, ,
1, ,-1, ,
-1, ,3, ,
2, ,1, ,
0, ,1, ,
0, ,2, ,
1, ,2, ,
2, ,-2, ,
-1, ,3, ,
2, ,1, ,
-1, ,1, ,
1, ,1, ,
1, ,2, ,
1, ,-1, ,
-1, ,2, ,
3, ,1, ,
0, ,1, ,
1, ,1, ,
1, ,2, ,
2, ,1, ,
-1, ,3, ,
3, ,1, ,
0, ,1, ,
1, ,2, ,
1, ,2, ,
1, ,-1, ,
-1, ,2, ,
2, ,1, ,
0, ,1, ,
0, ,2, ,
1, ,1, ,
2, ,-1, ,
-1, ,3, ,
2, ,1, ,
-1, ,1, ,
1, ,2, ,
1, ,2, ,
1, ,-1, ,
-2, ,3, ,
2, ,1, ,
-1, ,1, ,
1, ,2, ,
2, ,2, ,
2, ,-1, ,
-1, ,3, ,
2, ,1, ,
-1, ,-1, ,
1, ,2, ,
2, ,1, ,
2, ,-1, ,
-1, ,3, ,
3, ,1, ,
0, ,1, ,
1, ,2, ,
1, ,1, ,
1, ,-1, ,
-1, ,2, ,
2, ,1, ,
-1, ,1, ,
1, ,1, ,
2, ,1, ,
1, ,-1, ,
-1, ,1, ,
2, ,1, ,
-1, ,1, ,
1, ,2, ,
1, ,2, ,
2, ,-1, ,
-1, ,2, ,
2, ,1, ,
0, ,1, ,
1, ,1, ,
2, ,2, ,
2, ,-1, ,
-1, ,2, ,
2, ,1, ,
-1, ,1, ,
0, ,2, ,
1, ,1, ,
1, ,-1, ,
-2, ,1, ,
2, ,1, ,
-1, ,1, ,
1, ,2, ,
1, ,2, ,
1, ,1, ,
-1, ,3, ,
2, ,1, ,
-1, ,1, ,
0, ,2, ,
1, ,2, ,
1, ,-1, ,
-1, ,2, ,
2, ,1, ,
-1, ,-1, ,
1, ,2, ,
1, ,1, ,
0, ,-1, ,
-2, ,2, ,
2, ,1, ,
-1, ,1, ,
1, ,2, ,
1, ,1, ,
1, ,-1, ,
-1, ,3, ,
2, ,1, ,
-1, ,1, ,
0, ,2, ,
1, ,2, ,
2, ,-1, ,
-2, ,2, ,
2, ,1, ,
-1, ,1, ,
1, ,2, ,
1, ,1, ,
0, ,-1, ,
-1, ,3, ,
2, ,2, ,
-1, ,1, ,
0, ,2, ,
1, ,1, ,
1, ,-1, ,
-3, ,2, ,
2, ,1, ,
0, ,1, ,
1, ,2, ,
1, ,1, ,
1, ,-1, ,
-2, ,2, ,
2, ,1, ,
0, ,-1, ,
0, ,2, ,
1, ,1, ,
2, ,-1, ,
-1, ,2, ,
1, ,1, ,
-2, ,1, ,
0, ,1, ,
1, ,1, ,
1, ,1, ,
-1, ,3, ,
2, ,2, ,
-1, ,1, ,
0, ,2, ,
1, ,1, ,
2, ,1, ,
-1, ,1, ,
2, ,1, ,
-1, ,1, ,
1, ,2, ,
-1, ,1, ,
1, ,-1, ,
-1, ,2, ,
2, ,2, ,
-1, ,1, ,
1, ,1, ,
1, ,1, ,
1, ,-1, ,
-2, ,3, ,
1, ,1, ,
-1, ,-1, ,
1, ,1, ,
1, ,1, ,
2, ,-1, ,
-1, ,2, ,
2, ,1, ,
-1, ,1, ,
0, ,2, ,
0, ,1, ,
1, ,1, ,
-1, ,3, ,
2, ,2, ,
-1, ,1, ,
1, ,2, ,
0, ,1, ,
0, ,-1, ,
-1, ,2, ,
2, ,1, ,
-1, ,1, ,
2, ,3, ,
1, ,2, ,
1, ,-1, ,
-1, ,2, ,
2, ,1, ,
-1, ,1, ,
0, ,2, ,
0, ,1, ,
1, ,-1, ,
-2, ,3, ,
1, ,1, ,
-1, ,1, ,
0, ,2, ,
1, ,2, ,
1, ,-1, ,
-2, ,1, ,
1, ,1, ,
-1, ,-1, ,
0, ,2, ,
0, ,1, ,
1, ,-1, ,
-1, ,2, ,
2, ,1, ,
-1, ,-1, ,
0, ,2, ,
0, ,1, ,
1, ,-1, ,
-1, ,2, ,
1, ,1, ,
-2, ,1, ,
0, ,2, ,
0, ,2, ,
1, ,-1, ,
-2, ,2, ,
1, ,1, ,
-1, ,1, ,
1, ,3, ,
49, ,1, ,
95, ,-2, ,
58, ,1, ,
41, ,1, ,
28, ,1, ,
22, ,1, ,
18, ,1, ,
16, ,-1, ,
10, ,1, ,
11, ,1, ,
9, ,1, ,
8, ,1, ,
8, ,1, ,
9, ,-1, ,
7, ,3, ,
9, ,1, ,
8, ,1, ,
8, ,2, ,
8, ,1, ,
8, ,-1, ,
6, ,2, ,
9, ,1, ,
7, ,1, ,
7, ,2, ,
7, ,2, ,
8, ,-2, ,
6, ,2, ,
8, ,1, ,
6, ,1, ,
7, ,2, ,
8, ,1, ,
8, ,-1, ,
6, ,2, ,
8, ,-1, ,
6, ,1, ,
7, ,2, ,
8, ,1, ,
7, ,-1, ,
5, ,1, ,
8, ,1, ,
6, ,1, ,
6, ,1, ,
7, ,1, ,
8, ,-1, ,
6, ,2, ,
8, ,2, ,
5, ,1, ,
6, ,2, ,
6, ,1, ,
7, ,-1, ,
5, ,2, ,
7, ,1, ,
6, ,-1, ,
6, ,2, ,
6, ,1, ,
6, ,-2, ,
5, ,2, ,
8, ,-1, ,
6, ,1, ,
7, ,1, ,
6, ,1, ,
6, ,-1, ,
4, ,1, ,
6, ,1, ,
4, ,1, ,
4, ,1, ,
6, ,1, ,
6, ,-1, ,
4, ,2, ,
6, ,1, ,
4, ,1, ,
5, ,2, ,
5, ,1, ,
6, ,-2, ,
4, ,2, ,
7, ,1, ,
5, ,-1, ,
5, ,2, ,
6, ,1, ,
6, ,-1, ,
4, ,1, ,
6, ,1, ,
4, ,1, ,
6, ,3, ,
5, ,1, ,
5, ,-2, ,
4, ,2, ,
6, ,1, ,
4, ,1, ,
5, ,2, ,
5, ,1, ,
5, ,-2, ,
3, ,2, ,
5, ,1, ,
5, ,-1, ,
5, ,2, ,
5, ,1, ,
5, ,-2, ,
3, ,2, ,
6, ,1, ,
4, ,1, ,
4, ,2, ,
5, ,1, ,
5, ,-1, ,
2, ,1, ,
5, ,1, ,
4, ,1, ,
4, ,2, ,
4, ,1, ,
5, ,-1, ,
4, ,1, ,
6, ,1, ,
4, ,1, ,
4, ,2, ,
5, ,1, ,
5, ,-1, ,
2, ,2, ,
4, ,-1, ,
3, ,1, ,
4, ,1, ,
4, ,1, ,
4, ,-2, ,
2, ,2, ,
3, ,-1, ,
2, ,-1, ,
4, ,2, ,
4, ,2, ,
4, ,-1, ,
3, ,1, ,
4, ,-1, ,
3, ,1, ,
3, ,1, ,
4, ,1, ,
4, ,-1, ,
2, ,2, ,
6, ,1, ,
3, ,1, ,
3, ,2, ,
3, ,1, ,
4, ,-1, ,
1, ,1, ,
4, ,-1, ,
3, ,1, ,
4, ,1, ,
3, ,1, ,
3, ,-2, ,
2, ,2, ,
5, ,1, ,
3, ,1, ,
3, ,3, ,
3, ,1, ,
4, ,-1, ,
2, ,2, ,
4, ,-1, ,
3, ,1, ,
4, ,1, ,
3, ,1, ,
4, ,-1, ,
1, ,2, ,
3, ,-1, ,
2, ,1, ,
4, ,2, ,
3, ,1, ,
3, ,-2, ,
2, ,2, ,
4, ,-1, ,
1, ,-1, ,
2, ,1, ,
3, ,1, ,
3, ,-1, ,
0, ,1, ,
4, ,-1, ,
3, ,1, ,
4, ,2, ,
3, ,1, ,
3, ,-2, ,
1, ,3, ,
3, ,1, ,
2, ,-1, ,
3, ,2, ,
3, ,1, ,
3, ,-1, ,
1, ,1, ,
4, ,-1, ,
1, ,1, ,
2, ,2, ,
3, ,1, ,
3, ,-2, ,
1, ,2, ,
4, ,-1, ,
2, ,-1, ,
2, ,2, ,
3, ,1, ,
3, ,-2, ,
2, ,2, ,
4, ,-1, ,
2, ,1, ,
2, ,1, ,
3, ,1, ,
3, ,-1, ,
1, ,1, ,
3, ,-1, ,
1, ,1, ,
2, ,1, ,
3, ,1, ,
3, ,-2, ,
1, ,2, ,
4, ,-1, ,
1, ,1, ,
3, ,1, ,
3, ,1, ,
2, ,-1, ,
1, ,1, ,
4, ,-1, ,
1, ,-1, ,
2, ,1, ,
2, ,1, ,
3, ,-2, ,
0, ,1, ,
3, ,-1, ,
1, ,1, ,
2, ,2, ,
3, ,1, ,
3, ,-2, ,
0, ,3, ,
3, ,-1, ,
1, ,-1, ,
2, ,1, ,
2, ,1, ,
2, ,-2, ,
0, ,1, ,
3, ,-1, ,
2, ,-1, ,
2, ,1, ,
2, ,1, ,
2, ,-2, ,
0, ,2, ,
3, ,-1, ,
1, ,1, ,
2, ,1, ,
2, ,1, ,
2, ,-2, ,
-1, ,2, ,
3, ,-1, ,
1, ,1, ,
2, ,1, ,
2, ,1, ,
3, ,-1, ,
0, ,1, ,
2, ,-1, ,
0, ,1, ,
2, ,1, ,
2, ,1, ,
2, ,-1, ,
-1, ,2, ,
3, ,-1, ,
1, ,1, ,
1, ,1, ,
3, ,1, ,
2, ,-1, ,
0, ,2, ,
2, ,1, ,
0, ,-1, ,
2, ,1, ,
2, ,1, ,
2, ,-2, ,
0, ,2, ,
3, ,-1, ,
0, ,-1, ,
2, ,2, ,
2, ,1, ,
2, ,-2, ,
-1, ,1, ,
3, ,-1, ,
0, ,1, ,
2, ,1, ,
2, ,1, ,
2, ,-2, ,
0, ,2, ,
2, ,-1, ,
0, ,1, ,
1, ,2, ,
2, ,1, ,
2, ,-1, ,
0, ,1, ,
2, ,-1, ,
0, ,-1, ,
1, ,1, ,
2, ,1, ,
2, ,-1, ,
0, ,1, ,
3, ,-1, ,
0, ,1, ,
1, ,1, ,
2, ,1, ,
2, ,-2, ,
-1, ,2, ,
2, ,-1, ,
0, ,1, ,
2, ,1, ,
2, ,1, ,
1, ,-1, ,
-1, ,1, ,
2, ,-1, ,
0, ,-1, ,
1, ,1, ,
2, ,1, ,
2, ,-2, ,
-1, ,2, ,
2, ,-1, ,
0, ,-1, ,
1, ,1, ,
1, ,1, ,
1, ,-2, ,
-1, ,1, ,
3, ,-1, ,
0, ,1, ,
2, ,1, ,
2, ,1, ,
3, ,-2, ,
-1, ,2, ,
2, ,-1, ,
-1, ,-1, ,
1, ,2, ,
2, ,2, ,
2, ,-2, ,
0, ,1, ,
3, ,-1, ,
0, ,-1, ,
1, ,1, ,
2, ,1, ,
2, ,-1, ,
-1, ,2, ,
2, ,-1, ,
-1, ,-1, ,
1, ,2, ,
2, ,1, ,
1, ,-2, ,
-1, ,2, ,
2, ,1, ,
-1, ,-1, ,
1, ,1, ,
1, ,1, ,
2, ,-1, ,
0, ,2, ,
2, ,-1, ,
-1, ,-1, ,
1, ,1, ,
1, ,1, ,
1, ,-1, ,
-1, ,2, ,
2, ,1, ,
0, ,1, ,
1, ,1, ,
1, ,1, ,
1, ,-2, ,
-1, ,2, ,
2, ,-1, ,
0, ,-1, ,
1, ,2, ,
2, ,1, ,
2, ,-2, ,
-1, ,1, ,
2, ,-1, ,
-1, ,1, ,
1, ,1, ,
1, ,-1, ,
2, ,-2, ,
-1, ,2, ,
2, ,-1, ,
-1, ,-1, ,
1, ,1, ,
2, ,1, ,
1, ,-2, ,
-1, ,2, ,
2, ,-1, ,
0, ,-1, ,
1, ,1, ,
2, ,1, ,
2, ,-1, ,
-1, ,1, ,
2, ,-1, ,
-1, ,1, ,
1, ,1, ,
1, ,1, ,
1, ,-2, ,
-1, ,1, ,
2, ,-1, ,
0, ,1, ,
1, ,1, ,
1, ,1, ,
2, ,-2, ,
-1, ,1, ,
2, ,-1, ,
0, ,-1, ,
1, ,1, ,
2, ,1, ,
2, ,-2, ,
-2, ,1, ,
2, ,-1, ,
0, ,1, ,
0, ,-1, ,
0, ,1, ,
2, ,-2, ,
0, ,1, ,
2, ,-1, ,
0, ,-1, ,
1, ,2, ,
0, ,1, ,
1, ,-2, ,
0, ,1, ,
2, ,-1, ,
0, ,1, ,
2, ,1, ,
1, ,1, ,
0, ,-2, ,
-1, ,1, ,
1, ,-1, ,
-1, ,1, ,
1, ,1, ,
1, ,1, ,
0, ,-2, ,
-2, ,2, ,
0, ,-1, ,
-2, ,1, ,
0, ,2, ,
0, ,1, ,
1, ,-1, ,
1, ,1, ,
3, ,-1, ,
0, ,-1, ,
1, ,1, ,
1, ,1, ,
0, ,-2, ,
-2, ,2, ,
3, ,-1, ,
0, ,1, ,
0, ,-1, ,
1, ,1, ,
2, ,-2, ,
-1, ,1, ,
2, ,-1, ,
-1, ,-1, ,
1, ,1, ,
0, ,2, ,
1, ,-1, ,
-1, ,1, ,
2, ,-1, ,
-1, ,1, ,
1, ,1, ,
1, ,1, ,
1, ,-2, ,
-2, ,2, ,
1, ,-1, ,
-1, ,-1, ,
1, ,1, ,
1, ,1, ,
1, ,-1, ,
-1, ,1, ,
1, ,-1, ,
-1, ,-1, ,
0, ,1, ,
1, ,1, ,
2, ,-1, ,
-1, ,2, ,
2, ,-1, ,
-1, ,-1, ,
1, ,1, ,
1, ,1, ,
2, ,-1, ,
-1, ,1, ,
2, ,-1, ,
-1, ,-1, ,
0, ,-1, ,
0, ,1, ,
1, ,-2, ,
-1, ,1, ,
2, ,-1, ,
-1, ,1, ,
1, ,1, ,
1, ,-1, ,
1, ,-2, ,
-1, ,1, ,
2, ,-1, ,
-1, ,-1, ,
1, ,1, ,
1, ,1, ,
2, ,-2, ,
-1, ,1, ,
2, ,-1, ,
-1, ,1, ,
0, ,1, ,
0, ,1, ,
1, ,-2, ,
-1, ,2, ,
2, ,-1, ,
-1, ,-1, ,
0, ,1, ,
1, ,1, ,
1, ,-1, ,
-1, ,1, ,
1, ,-1, ,
-1, ,-1, ,
1, ,1, ,
1, ,1, ,
1, ,-2, ,
-1, ,1, ,
2, ,-1, ,
0, ,-1, ,
0, ,1, ,
0, ,1, ,
1, ,-2, ,
-2, ,1, ,
2, ,-1, ,
-1, ,1, ,
1, ,1, ,
1, ,1, ,
1, ,-2, ,
-2, ,1, ,
2, ,-1, ,
-1, ,-1, ,
1, ,1, ,
1, ,1, ,
2, ,-2, ,
-1, ,2, ,
2, ,-1, ,
0, ,-1, ,
1, ,1, ,
0, ,1, ,
1, ,-2, ,
-1, ,1, ,
2, ,-1, ,
-1, ,1, ,
0, ,-1, ,
1, ,1, ,
1, ,-2, ,
-1, ,2, ,
1, ,-1, ,
-1, ,-1, ,
1, ,1, ,
1, ,1, ,
2, ,-1, ,
-1, ,1, ,
2, ,-1, ,
-1, ,1, ,
1, ,-1, ,
1, ,1, ,
1, ,-2, ,
-2, ,1, ,
2, ,-1, ,
-1, ,1, ,
1, ,1, ,
1, ,1, ,
1, ,-2, ,
-1, ,2, ,
2, ,-1, ,
-1, ,1, ,
0, ,1, ,
0, ,1, ,
1, ,-1, ,
-1, ,1, ,
2, ,-1, ,
-1, ,-1, ,
0, ,1, ,
0, ,1, ,
0, ,-2, ,
-2, ,2, ,
2, ,-1, ,
-1, ,-1, ,
0, ,2, ,
-1, ,1, ,
0, ,-2, ,
-2, ,2, ,
1, ,-1, ,
-1, ,-1, ,
1, ,1, ,
0, ,1, ,
1, ,-2, ,
-1, ,1, ,
1, ,-1, ,
-2, ,-1, ,
0, ,1, ,
0, ,1, ,
1, ,-2, ,
-1, ,1, ,
1, ,-1, ,
-2, ,-1, ,
0, ,1, ,
0, ,1, ,
1, ,-1, ,
-2, ,1, ,
2, ,-1, ,
-1, ,-2, ,
0, ,1, ,
0, ,1, ,
1, ,-2, ,
-2, ,2, ,
2, ,-1, ,
-1, ,-1, ,
1, ,1, ,
0, ,1, ,
1, ,-2, ,
-2, ,1, ,
1, ,-1, ,
-2, ,1, ,
1, ,1, ,
0, ,1, ,
1, ,-1, ,
-2, ,2, ,
1, ,-1, ,
-1, ,-1, ,
0, ,1, ,
1, ,1, ,
0, ,-1, ,
-1, ,1, ,
2, ,-1, ,
-1, ,-1, ,
0, ,-1, ,
1, ,1, ,
2, ,-2, ,
-1, ,1, ,
2, ,-1, ,
-1, ,-1, ,
0, ,1, ,
1, ,1, ,
1, ,-2, ,
-2, ,1, ,
2, ,-1, ,
-1, ,-1, ,
1, ,1, ,
1, ,1, ,
1, ,-2, ,
-2, ,2, ,
2, ,-1, ,
-1, ,1, ,
1, ,1, ,
1, ,1, ,
1, ,-2, ,
-2, ,1, ,
2, ,-1, ,
-1, ,1, ,
1, ,1, ,
1, ,1, ,
1, ,-1, ,
-1, ,2, ,
2, ,-1, ,
-1, ,-1, ,
1, ,1, ,
1, ,1, ,
2, ,-1, ,
-1, ,1, ,
2, ,-1, ,
-1, ,1, ,
1, ,1, ,
-1, ,1, ,
0, ,-2, ,
-1, ,2, ,
2, ,-1, ,
-1, ,-1, ,
1, ,2, ,
2, ,1, ,
1, ,-2, ,
-2, ,1, ,
1, ,-1, ,
-1, ,1, ,
0, ,-1, ,
1, ,1, ,
1, ,-1, ,
-1, ,1, ,
2, ,-1, ,
-1, ,1, ,
0, ,1, ,
0, ,1, ,
0, ,-2, ,
-2, ,2, ,
2, ,-1, ,
-2, ,-1, ,
0, ,1, ,
1, ,-1, ,
2, ,-1, ,
-2, ,1, ,
2, ,-1, ,
-1, ,-1, ,
0, ,-1, ,
0, ,1, ,
1, ,-1, ,
-2, ,1, ,
2, ,-1, ,
-1, ,-1, ,
0, ,1, ,
0, ,1, ,
0, ,-2, ,
-2, ,1, ,
1, ,-1, ,
-2, ,-1, ,
1, ,1, ,
1, ,1, ,
0, ,-1, ,
-2, ,2, ,
1, ,-1, ,
-2, ,1, ,
-1, ,1, ,
0, ,1, ,
1, ,-2, ,
0, ,2, ,
2, ,-1, ,
-1, ,-1, ,
-1, ,1, ,
0, ,-1, ,
1, ,-1, ,
-2, ,1, ,
1, ,-1, ,
-1, ,-1, ,
1, ,1, ,
0, ,1, ,
0, ,-2, ,
-2, ,2, ,
1, ,-1, ,
-1, ,-1, ,
1, ,1, ,
1, ,1, ,
0, ,-2, ,
-2, ,1, ,
1, ,-1, ,
-1, ,1, ,
0, ,1, ,
0, ,1, ,
1, ,-1, ,
-1, ,1, ,
1, ,-1, ,
-1, ,1, ,
1, ,1, ,
0, ,1, ,
1, ,-1, ,
-2, ,1, ,
2, ,-1, ,
-1, ,-1, ,
0, ,1, ,
1, ,1, ,
1, ,-2, ,
-2, ,2, ,
2, ,-1, ,
-1, ,-1, ,
1, ,1, ,
0, ,1, ,
0, ,-2, ,
-2, ,2, ,
2, ,-1, ,
-1, ,-2, ,
0, ,1, ,
1, ,1, ,
1, ,-2, ,
-2, ,2, ,
1, ,-1, ,
-1, ,-1, ,
1, ,1, ,
2, ,1, ,
2, ,-2, ,
-2, ,2, ,
1, ,-1, ,
-1, ,1, ,
1, ,1, ,
1, ,1, ,
1, ,-1, ,
0, ,2, ,
2, ,-1, ,
-1, ,-1, ,
0, ,1, ,
0, ,1, ,
1, ,-2, ,
-2, ,2, ,
2, ,-1, ,
-1, ,1, ,
1, ,1, ,
0, ,1, ,
1, ,-2, ,
-2, ,2, ,
1, ,-1, ,
-1, ,-1, ,
1, ,-1, ,
1, ,1, ,
1, ,-1, ,
-2, ,1, ,
2, ,-1, ,
-1, ,1, ,
1, ,1, ,
1, ,1, ,
1, ,-2, ,
-1, ,2, ,
1, ,-1, ,
-1, ,1, ,
1, ,1, ,
0, ,1, ,
2, ,-2, ,
-7, ,1, ,
-7, ,-1, ,
-6, ,-1, ,
-2, ,1, ,
-3, ,1, ,
0, ,-1, ,
-3, ,1, ,
0, ,-1, ,
-1, ,-1, ,
0, ,2, ,
-1, ,1, ,
0, ,-2, ,
-2, ,2, ,
1, ,-1, ,
-1, ,-1, ,
0, ,1, ,
0, ,-1, ,
0, ,-2, ,
-2, ,1, ,
1, ,-1, ,
-2, ,-1, ,
1, ,-1, ,
0, ,1, ,
1, ,-2, ,
-2, ,1, ,
1, ,-1, ,
-2, ,-1, ,
-1, ,1, ,
0, ,1, ,
1, ,-2, ,
-1, ,1, ,
1, ,-1, ,
-1, ,-1, ,
0, ,1, ,
0, ,1, ,
1, ,-2, ,
-1, ,1, ,
2, ,-1, ,
-1, ,-1, ,
1, ,-1, ,
0, ,1, ,
0, ,-2, ,
-2, ,1, ,
1, ,-1, ,
-2, ,-1, ,
0, ,1, ,
0, ,1, ,
1, ,-2, ,
-2, ,1, ,
2, ,-1, ,
-1, ,1, ,
0, ,1, ,
0, ,1, ,
0, ,-2, ,
-2, ,1, ,
1, ,-1, ,
-1, ,-1, ,
1, ,-1, ,
0, ,-1, ,
0, ,-2, ,
-2, ,1, ,
2, ,-1, ,
-1, ,-1, ,
1, ,1, ,
0, ,1, ,
1, ,-2, ,
-1, ,2, ,
2, ,-1, ,
-1, ,-2, ,
1, ,1, ,
0, ,1, ,
0, ,-2, ,
-2, ,-1, ,
2, ,-1, ,
-1, ,-1, ,
1, ,-1, ,
0, ,1, ,
1, ,-2, ,
-2, ,1, ,
1, ,-1, ,
-1, ,-1, ,
1, ,1, ,
1, ,1, ,
1, ,-2, ,
-1, ,1, ,
2, ,-1, ,
-1, ,-1, ,
1, ,1, ,
1, ,1, ,
2, ,-1, ,
-1, ,1, ,
2, ,-1, ,
-1, ,-1, ,
0, ,-1, ,
0, ,1, ,
1, ,-2, ,
-2, ,2, ,
2, ,-1, ,
-1, ,-1, ,
1, ,-1, ,
0, ,1, ,
1, ,-2, ,
-2, ,1, ,
1, ,-1, ,
-1, ,-1, ,
1, ,1, ,
1, ,1, ,
1, ,-1, ,
-2, ,1, ,
1, ,-1, ,
-1, ,-1, ,
1, ,1, ,
1, ,1, ,
1, ,-2, ,
-1, ,2, ,
2, ,-1, ,
-1, ,-1, ,
0, ,1, ,
1, ,1, ,
1, ,-2, ,
-2, ,1, ,
2, ,-1, ,
-1, ,-1, ,
-1, ,1, ,
0, ,1, ,
2, ,-2, ,
-1, ,1, ,
1, ,-1, ,
-1, ,-1, ,
0, ,1, ,
0, ,-1, ,
0, ,-2, ,
-1, ,1, ,
1, ,-1, ,
-1, ,1, ,
1, ,1, ,
1, ,1, ,
1, ,-1, ,
-2, ,2, ,
1, ,-1, ,
-1, ,-1, ,
1, ,1, ,
1, ,1, ,
1, ,-2, ,
-2, ,1, ,
1, ,-1, ,
-2, ,1, ,
0, ,1, ,
0, ,1, ,
1, ,-2, ,
-2, ,2, ,
2, ,-1, ,
-1, ,-1, ,
0, ,97, ,
0, ,64, ,
0, ,41, ,
-2, ,28, ,
1, ,17, ,
-1, ,11, ,
120, ,9, ,
74, ,7, ,
48, ,5, ,
32, ,5, ,
24, ,2, ,
15, ,2, ,
13, ,3, ,
11, ,3, ,
10, ,1, ,
8, ,3, ,
9, ,2, ,
7, ,3, ,
7, ,3, ,
8, ,2, ,
9, ,2, ,
6, ,3, ,
8, ,2, ,
6, ,1, ,
8, ,3, ,
8, ,3, ,
7, ,1, ,
6, ,3, ,
8, ,1, ,
6, ,2, ,
7, ,3, ,
7, ,2, ,
8, ,1, ,
6, ,3, ,
8, ,1, ,
6, ,2, ,
7, ,2, ,
7, ,2, ,
7, ,2, ,
5, ,3, ,
8, ,2, ,
7, ,2, ,
7, ,2, ,
7, ,2, ,
7, ,1, ,
4, ,3, ,
7, ,1, ,
5, ,2, ,
7, ,2, ,
6, ,3, ,
7, ,1, ,
5, ,2, ,
7, ,2, ,
5, ,2, ,
6, ,2, ,
6, ,3, ,
7, ,1, ,
5, ,3, ,
8, ,1, ,
5, ,2, ,
6, ,3, ,
6, ,2, ,
6, ,1, ,
4, ,3, ,
7, ,1, ,
5, ,2, ,
6, ,2, ,
6, ,2, ,
6, ,1, ,
4, ,3, ,
6, ,1, ,
5, ,1, ,
6, ,2, ,
6, ,2, ,
6, ,-1, ,
3, ,3, ,
6, ,1, ,
4, ,2, ,
5, ,2, ,
6, ,3, ,
6, ,1, ,
4, ,5, ,
7, ,2, ,
5, ,2, ,
5, ,2, ,
5, ,2, ,
5, ,-1, ,
4, ,3, ,
5, ,2, ,
4, ,2, ,
5, ,3, ,
5, ,3, ,
5, ,1, ,
3, ,2, ,
6, ,1, ,
4, ,1, ,
4, ,2, ,
5, ,2, ,
4, ,1, ,
3, ,3, ,
6, ,1, ,
4, ,2, ,
4, ,2, ,
4, ,2, ,
5, ,1, ,
3, ,3, ,
5, ,1, ,
3, ,2, ,
4, ,2, ,
4, ,2, ,
5, ,1, ,
3, ,2, ,
6, ,2, ,
4, ,2, ,
4, ,2, ,
4, ,2, ,
4, ,1, ,
3, ,2, ,
6, ,1, ,
3, ,2, ,
4, ,2, ,
4, ,2, ,
4, ,-1, ,
2, ,3, ,
5, ,1, ,
3, ,2, ,
4, ,2, ,
4, ,2, ,
4, ,1, ,
2, ,2, ,
5, ,1, ,
3, ,2, ,
3, ,3, ,
4, ,2, ,
4, ,-1, ,
2, ,3, ,
5, ,1, ,
3, ,2, ,
3, ,2, ,
4, ,1, ,
4, ,1, ,
2, ,2, ,
4, ,1, ,
2, ,1, ,
3, ,2, ,
4, ,2, ,
4, ,1, ,
2, ,2, ,
4, ,1, ,
2, ,2, ,
3, ,3, ,
3, ,3, ,
4, ,1, ,
3, ,2, ,
5, ,1, ,
3, ,2, ,
2, ,1, ,
3, ,2, ,
4, ,-1, ,
2, ,3, ,
4, ,1, ,
3, ,2, ,
3, ,2, ,
4, ,2, ,
3, ,-1, ,
1, ,3, ,
4, ,1, ,
2, ,2, ,
3, ,2, ,
3, ,1, ,
3, ,-1, ,
1, ,1, ,
4, ,1, ,
2, ,1, ,
2, ,2, ,
3, ,2, ,
3, ,-1, ,
1, ,3, ,
5, ,1, ,
3, ,1, ,
2, ,1, ,
3, ,2, ,
2, ,-1, ,
1, ,3, ,
5, ,1, ,
3, ,1, ,
3, ,3, ,
3, ,2, ,
3, ,-1, ,
1, ,3, ,
3, ,1, ,
2, ,1, ,
3, ,2, ,
3, ,2, ,
3, ,-1, ,
0, ,2, ,
4, ,1, ,
2, ,1, ,
3, ,2, ,
3, ,2, ,
3, ,-1, ,
0, ,3, ,
3, ,1, ,
2, ,1, ,
3, ,1, ,
3, ,2, ,
3, ,-1, ,
0, ,2, ,
3, ,1, ,
1, ,1, ,
1, ,2, ,
2, ,2, ,
2, ,-1, ,
0, ,2, ,
3, ,1, ,
1, ,1, ,
3, ,1, ,
3, ,2, ,
2, ,-1, ,
0, ,2, ,
3, ,1, ,
1, ,1, ,
2, ,1, ,
3, ,2, ,
2, ,1, ,
-1, ,2, ,
2, ,1, ,
0, ,1, ,
1, ,2, ,
2, ,2, ,
2, ,1, ,
0, ,3, ,
4, ,1, ,
1, ,1, ,
2, ,2, ,
2, ,2, ,
3, ,-1, ,
0, ,2, ,
3, ,1, ,
1, ,2, ,
2, ,1, ,
2, ,2, ,
1, ,-1, ,
-1, ,3, ,
2, ,1, ,
1, ,1, ,
2, ,2, ,
2, ,2, ,
2, ,-1, ,
0, ,2, ,
3, ,1, ,
1, ,1, ,
2, ,1, ,
3, ,2, ,
2, ,-1, ,
-1, ,2, ,
3, ,1, ,
1, ,1, ,
2, ,2, ,
1, ,1, ,
2, ,-1, ,
-1, ,2, ,
2, ,1, ,
0, ,1, ,
1, ,1, ,
2, ,2, ,
2, ,-1, ,
0, ,2, ,
3, ,1, ,
1, ,1, ,
1, ,2, ,
2, ,2, ,
3, ,-1, ,
7, ,2, ,
90, ,1, ,
57, ,1, ,
38, ,1, ,
24, ,2, ,
18, ,1, ,
12, ,2, ,
12, ,1, ,
9, ,1, ,
9, ,1, ,
9, ,2, ,
8, ,-1, ,
6, ,2, ,
8, ,1, ,
7, ,-1, ,
8, ,1, ,
8, ,2, ,
9, ,-1, ,
7, ,2, ,
9, ,1, ,
6, ,1, ,
7, ,1, ,
7, ,2, ,
8, ,-1, ,
6, ,2, ,
8, ,1, ,
6, ,1, ,
6, ,1, ,
7, ,1, ,
7, ,-1, ,
5, ,2, ,
8, ,1, ,
5, ,1, ,
7, ,1, ,
7, ,1, ,
8, ,-2, ,
6, ,2, ,
8, ,1, ,
6, ,1, ,
7, ,1, ,
7, ,2, ,
7, ,-1, ,
5, ,3, ,
7, ,1, ,
5, ,1, ,
5, ,2, ,
6, ,2, ,
6, ,-2, ,
5, ,1, ,
7, ,1, ,
5, ,1, ,
6, ,2, ,
7, ,2, ,
6, ,-2, ,
4, ,1, ,
8, ,-1, ,
5, ,-1, ,
6, ,1, ,
6, ,1, ,
6, ,-1, ,
4, ,3, ,
6, ,1, ,
5, ,1, ,
5, ,1, ,
5, ,1, ,
5, ,-1, ,
3, ,2, ,
6, ,60, ,
4, ,41, ,
6, ,26, ,
6, ,18, ,
6, ,10, ,
4, ,9, ,
7, ,6, ,
5, ,5, ,
6, ,5, ,
5, ,3, ,
5, ,2, ,
4, ,3, ,
6, ,3, ,
4, ,3, ,
4, ,3, ,
5, ,3, ,
5, ,2, ,
3, ,5, ,
6, ,2, ,
4, ,2, ,
5, ,3, ,
5, ,3, ,
5, ,1, ,
4, ,3, ,
6, ,2, ,
4, ,2, ,
5, ,2, ,
5, ,2, ,
4, ,1, ,
3, ,5, ,
5, ,2, ,
4, ,2, ,
4, ,2, ,
3, ,2, ,
4, ,-1, ,
2, ,3, ,
6, ,2, ,
4, ,2, ,
4, ,3, ,
4, ,3, ,
4, ,1, ,
2, ,3, ,
4, ,2, ,
3, ,2, ,
4, ,2, ,
4, ,2, ,
4, ,1, ,
2, ,3, ,
5, ,2, ,
3, ,2, ,
3, ,3, ,
4, ,2, ,
4, ,1, ,
2, ,3, ,
5, ,1, ,
3, ,2, ,
4, ,2, ,
4, ,2, ,
4, ,-1, ,
1, ,3, ,
5, ,1, ,
3, ,1, ,
4, ,2, ,
4, ,3, ,
4, ,1, ,
2, ,3, ,
4, ,1, ,
2, ,1, ,
4, ,3, ,
3, ,3, ,
4, ,1, ,
1, ,3, ,
4, ,1, ,
3, ,1, ,
3, ,2, ,
4, ,2, ,
3, ,1, ,
2, ,5, ,
5, ,2, ,
3, ,2, ,
3, ,2, ,
4, ,2, ,
4, ,-1, ,
1, ,3, ,
4, ,1, ,
3, ,2, ,
3, ,2, ,
3, ,2, ,
3, ,1, ,
1, ,3, ,
4, ,2, ,
2, ,2, ,
3, ,2, ,
3, ,2, ,
3, ,1, ,
1, ,3, ,
4, ,2, ,
2, ,2, ,
3, ,3, ,
4, ,2, ,
3, ,1, ,
1, ,3, ,
4, ,2, ,
2, ,1, ,
2, ,3, ,
2, ,2, ,
3, ,1, ,
1, ,2, ,
4, ,2, ,
1, ,2, ,
3, ,3, ,
3, ,2, ,
2, ,1, ,
1, ,3, ,
4, ,1, ,
2, ,2, ,
3, ,2, ,
3, ,2, ,
3, ,1, ,
-1, ,3, ,
5, ,1, ,
2, ,2, ,
2, ,2, ,
3, ,2, ,
3, ,-1, ,
0, ,3, ,
4, ,2, ,
2, ,1, ,
3, ,2, ,
3, ,2, ,
2, ,1, ,
0, ,3, ,
3, ,2, ,
2, ,2, ,
2, ,2, ,
2, ,2, ,
2, ,1, ,
0, ,3, ,
3, ,2, ,
1, ,1, ,
2, ,3, ,
3, ,2, ,
3, ,1, ,
1, ,3, ,
3, ,2, ,
1, ,2, ,
1, ,2, ,
2, ,2, ,
2, ,2, ,
0, ,2, ,
3, ,1, ,
0, ,1, ,
2, ,2, ,
2, ,2, ,
2, ,1, ,
0, ,3, ,
3, ,2, ,
1, ,1, ,
2, ,2, ,
3, ,1, ,
2, ,1, ,
0, ,2, ,
3, ,2, ,
0, ,1, ,
2, ,2, ,
2, ,2, ,
2, ,1, ,
0, ,3, ,
3, ,2, ,
0, ,1, ,
1, ,3, ,
2, ,2, ,
2, ,2, ,
0, ,3, ,
4, ,2, ,
1, ,1, ,
2, ,2, ,
2, ,2, ,
1, ,-1, ,
-1, ,3, ,
3, ,2, ,
1, ,1, ,
2, ,3, ,
2, ,2, ,
2, ,1, ,
-1, ,3, ,
2, ,2, ,
0, ,2, ,
2, ,3, ,
2, ,2, ,
2, ,1, ,
0, ,2, ,
2, ,2, ,
-1, ,1, ,
0, ,3, ,
2, ,2, ,
2, ,2, ,
0, ,3, ,
4, ,2, ,
2, ,1, ,
1, ,2, ,
2, ,2, ,
2, ,-1, ,
0, ,2, ,
2, ,2, ,
0, ,1, ,
1, ,3, ,
2, ,2, ,
1, ,1, ,
0, ,3, ,
2, ,2, ,
0, ,1, ,
2, ,2, ,
2, ,2, ,
2, ,1, ,
-1, ,3, ,
2, ,2, ,
0, ,1, ,
1, ,3, ,
2, ,2, ,
3, ,1, ,
0, ,3, ,
2, ,2, ,
0, ,1, ,
1, ,2, ,
2, ,2, ,
2, ,1, ,
0, ,3, ,
3, ,2, ,
0, ,1, ,
1, ,2, ,
1, ,1, ,
2, ,1, ,
-1, ,2, ,
3, ,2, ,
0, ,1, ,
1, ,2, ,
2, ,2, ,
1, ,1, ,
-1, ,2, ,
3, ,2, ,
0, ,2, ,
1, ,2, ,
1, ,2, ,
