src/apd2apd/1562vnotrig0003760.CSV

Format,1.0B,
Memory Length,10000,Memory Length,10000,
IntpDistance,0,IntpDistance,0,
Trigger Address,5049,Trigger Address,5049,
Trigger Level,2.880E-01,Trigger Level,2.880E-01,
Source,CH1,Source,CH2,
Vertical Units,V,Vertical Units,V,
Vertical Units Div,0,Vertical Units Div,0,
Vertical Units Extend Div,16,Vertical Units Extend Div,16,
Label,,Label,,
Probe Type,0,Probe Type,0,
Probe Ratio,1.000e+01,Probe Ratio,1.000e+00,
Vertical Scale,1.000e-01,Vertical Scale,5.000e-02,
Vertical Position,-3.280e-01,Vertical Position,-1.640e-01,
Horizontal Units,S,Horizontal Units,S,
Horizontal Scale,2.000E-05,Horizontal Scale,2.000E-05,
Horizontal Position,-1.000E-06,Horizontal Position,-1.000E-06,
Horizontal Mode,Main,Horizontal Mode,Main,
SincET Mode,Real Time,SincET Mode,Real Time,
Sampling Period,2.000e-08,Sampling Period,2.000e-08,
Horizontal Old Scale,2.000E-05,Horizontal Old Scale,2.000E-05,
Horizontal Old Position,-1.000E-06,Horizontal Old Position,-1.000E-06,
Firmware,V1.23,Firmware,V1.23,
Mode,Fast,Mode,Fast,
Waveform Data,,Waveform Data,,
-2, ,1, ,
1, ,-1, ,
-1, ,2, ,
0, ,1, ,
0, ,1, ,
0, ,64, ,
-2, ,43, ,
1, ,28, ,
-2, ,20, ,
1, ,13, ,
0, ,7, ,
1, ,7, ,
-2, ,5, ,
1, ,2, ,
-2, ,5, ,
-1, ,2, ,
0, ,2, ,
1, ,3, ,
-1, ,2, ,
2, ,1, ,
-1, ,5, ,
0, ,3, ,
0, ,2, ,
0, ,3, ,
-2, ,3, ,
2, ,1, ,
-1, ,3, ,
0, ,3, ,
1, ,3, ,
1, ,5, ,
-2, ,2, ,
1, ,1, ,
-1, ,5, ,
1, ,2, ,
1, ,2, ,
1, ,3, ,
-1, ,2, ,
1, ,1, ,
-1, ,3, ,
1, ,3, ,
1, ,2, ,
1, ,5, ,
-1, ,2, ,
1, ,1, ,
-1, ,3, ,
1, ,2, ,
0, ,2, ,
1, ,3, ,
-1, ,2, ,
2, ,1, ,
-1, ,3, ,
0, ,2, ,
1, ,2, ,
1, ,3, ,
-1, ,2, ,
2, ,1, ,
-1, ,5, ,
1, ,2, ,
1, ,2, ,
1, ,3, ,
-1, ,2, ,
2, ,-1, ,
-1, ,3, ,
1, ,2, ,
1, ,2, ,
1, ,3, ,
-2, ,2, ,
1, ,1, ,
-1, ,3, ,
0, ,2, ,
1, ,2, ,
2, ,3, ,
-1, ,2, ,
2, ,1, ,
-1, ,3, ,
0, ,2, ,
1, ,2, ,
1, ,3, ,
-1, ,1, ,
2, ,1, ,
-1, ,3, ,
1, ,2, ,
1, ,2, ,
1, ,3, ,
-2, ,2, ,
2, ,-1, ,
0, ,3, ,
1, ,2, ,
0, ,1, ,
1, ,2, ,
-2, ,1, ,
2, ,1, ,
-1, ,3, ,
0, ,2, ,
0, ,2, ,
0, ,3, ,
-1, ,2, ,
2, ,-1, ,
-1, ,2, ,
0, ,1, ,
1, ,2, ,
0, ,3, ,
-2, ,1, ,
1, ,1, ,
-1, ,3, ,
0, ,1, ,
0, ,2, ,
1, ,2, ,
-2, ,2, ,
1, ,-1, ,
-1, ,3, ,
0, ,1, ,
0, ,2, ,
1, ,3, ,
-2, ,2, ,
1, ,-1, ,
-1, ,3, ,
0, ,2, ,
-1, ,2, ,
-1, ,3, ,
-2, ,2, ,
2, ,-1, ,
-1, ,3, ,
0, ,2, ,
0, ,1, ,
1, ,3, ,
-2, ,2, ,
1, ,1, ,
-1, ,3, ,
0, ,2, ,
1, ,2, ,
1, ,3, ,
-2, ,2, ,
1, ,-1, ,
-2, ,3, ,
-1, ,2, ,
0, ,2, ,
1, ,3, ,
-1, ,2, ,
2, ,-1, ,
-1, ,2, ,
0, ,1, ,
0, ,1, ,
0, ,3, ,
-2, ,2, ,
1, ,1, ,
-1, ,2, ,
1, ,1, ,
0, ,2, ,
1, ,3, ,
-1, ,2, ,
1, ,-1, ,
-2, ,3, ,
0, ,1, ,
1, ,2, ,
0, ,3, ,
-2, ,1, ,
2, ,-1, ,
-1, ,3, ,
0, ,1, ,
1, ,2, ,
1, ,3, ,
-1, ,1, ,
1, ,-1, ,
0, ,3, ,
1, ,1, ,
1, ,1, ,
1, ,2, ,
-1, ,2, ,
2, ,-1, ,
-1, ,3, ,
0, ,1, ,
1, ,2, ,
1, ,3, ,
-2, ,2, ,
2, ,-1, ,
0, ,2, ,
1, ,1, ,
1, ,1, ,
1, ,3, ,
-2, ,2, ,
2, ,-1, ,
-1, ,3, ,
1, ,1, ,
1, ,1, ,
1, ,2, ,
-2, ,1, ,
2, ,-1, ,
-1, ,3, ,
1, ,1, ,
1, ,2, ,
1, ,3, ,
-2, ,2, ,
1, ,-1, ,
-1, ,3, ,
0, ,1, ,
1, ,1, ,
1, ,3, ,
-1, ,1, ,
1, ,-1, ,
-1, ,3, ,
1, ,1, ,
0, ,1, ,
0, ,2, ,
-2, ,1, ,
1, ,-1, ,
-1, ,3, ,
1, ,1, ,
1, ,1, ,
0, ,3, ,
-1, ,2, ,
2, ,-1, ,
-1, ,3, ,
1, ,1, ,
1, ,1, ,
0, ,2, ,
-2, ,2, ,
3, ,-1, ,
-1, ,3, ,
0, ,1, ,
1, ,1, ,
1, ,2, ,
-3, ,2, ,
2, ,-1, ,
0, ,2, ,
0, ,1, ,
0, ,1, ,
1, ,2, ,
-2, ,1, ,
1, ,-1, ,
-2, ,2, ,
0, ,1, ,
0, ,1, ,
0, ,2, ,
-2, ,1, ,
1, ,-1, ,
-1, ,2, ,
0, ,1, ,
-1, ,1, ,
0, ,2, ,
-2, ,2, ,
1, ,-1, ,
-1, ,3, ,
1, ,1, ,
1, ,1, ,
1, ,3, ,
-2, ,2, ,
1, ,-1, ,
-1, ,3, ,
1, ,1, ,
1, ,1, ,
1, ,2, ,
-2, ,2, ,
1, ,-1, ,
-1, ,3, ,
0, ,1, ,
1, ,1, ,
1, ,2, ,
-1, ,1, ,
2, ,-1, ,
-1, ,3, ,
0, ,1, ,
0, ,1, ,
1, ,2, ,
-2, ,1, ,
1, ,-1, ,
-2, ,3, ,
0, ,1, ,
0, ,1, ,
1, ,2, ,
-2, ,1, ,
2, ,-1, ,
-2, ,3, ,
0, ,1, ,
0, ,1, ,
0, ,2, ,
-2, ,2, ,
1, ,-1, ,
-2, ,3, ,
0, ,1, ,
1, ,1, ,
1, ,2, ,
-1, ,1, ,
2, ,-1, ,
-2, ,3, ,
0, ,1, ,
1, ,1, ,
2, ,2, ,
-1, ,2, ,
2, ,-1, ,
-1, ,3, ,
0, ,1, ,
1, ,1, ,
2, ,2, ,
-2, ,1, ,
2, ,-1, ,
0, ,2, ,
0, ,1, ,
1, ,1, ,
1, ,2, ,
-1, ,1, ,
2, ,-1, ,
0, ,2, ,
0, ,-1, ,
1, ,1, ,
1, ,2, ,
-2, ,1, ,
2, ,-1, ,
-1, ,2, ,
0, ,1, ,
1, ,1, ,
1, ,2, ,
-1, ,1, ,
2, ,-1, ,
-1, ,2, ,
0, ,-1, ,
1, ,1, ,
1, ,2, ,
-2, ,1, ,
2, ,-1, ,
-1, ,2, ,
1, ,-1, ,
1, ,1, ,
1, ,2, ,
-2, ,1, ,
2, ,-1, ,
-1, ,2, ,
1, ,-1, ,
1, ,1, ,
1, ,2, ,
-2, ,1, ,
2, ,-1, ,
-1, ,2, ,
1, ,-1, ,
1, ,1, ,
1, ,2, ,
-2, ,1, ,
2, ,-1, ,
-1, ,2, ,
1, ,-1, ,
1, ,1, ,
1, ,2, ,
-2, ,1, ,
1, ,-1, ,
-2, ,2, ,
0, ,-1, ,
114, ,-1, ,
73, ,2, ,
45, ,1, ,
32, ,-1, ,
21, ,2, ,
15, ,-1, ,
13, ,-1, ,
11, ,2, ,
8, ,1, ,
10, ,-2, ,
8, ,2, ,
8, ,-1, ,
8, ,1, ,
8, ,1, ,
6, ,1, ,
9, ,-1, ,
7, ,2, ,
8, ,1, ,
8, ,1, ,
8, ,1, ,
6, ,1, ,
8, ,-1, ,
6, ,2, ,
8, ,1, ,
7, ,-1, ,
7, ,2, ,
6, ,1, ,
8, ,-1, ,
5, ,2, ,
6, ,1, ,
7, ,-1, ,
6, ,2, ,
5, ,1, ,
8, ,-1, ,
6, ,2, ,
7, ,1, ,
6, ,1, ,
7, ,1, ,
4, ,2, ,
8, ,-1, ,
6, ,3, ,
6, ,1, ,
7, ,1, ,
6, ,2, ,
5, ,1, ,
7, ,-1, ,
6, ,2, ,
6, ,1, ,
6, ,1, ,
6, ,2, ,
4, ,2, ,
7, ,-1, ,
5, ,2, ,
6, ,1, ,
6, ,1, ,
7, ,2, ,
4, ,1, ,
6, ,-1, ,
5, ,3, ,
6, ,1, ,
6, ,1, ,
6, ,2, ,
4, ,1, ,
7, ,-1, ,
5, ,3, ,
6, ,1, ,
6, ,1, ,
6, ,2, ,
4, ,1, ,
6, ,-1, ,
5, ,2, ,
6, ,1, ,
6, ,1, ,
5, ,2, ,
4, ,2, ,
6, ,-1, ,
5, ,3, ,
5, ,1, ,
5, ,1, ,
5, ,2, ,
3, ,1, ,
6, ,-1, ,
5, ,2, ,
5, ,1, ,
5, ,1, ,
6, ,2, ,
4, ,2, ,
6, ,-1, ,
4, ,2, ,
5, ,1, ,
5, ,-1, ,
5, ,1, ,
4, ,1, ,
6, ,-1, ,
4, ,2, ,
4, ,1, ,
6, ,1, ,
5, ,2, ,
3, ,2, ,
6, ,-1, ,
4, ,2, ,
4, ,1, ,
5, ,-1, ,
5, ,2, ,
3, ,1, ,
5, ,-1, ,
4, ,2, ,
4, ,1, ,
4, ,1, ,
4, ,2, ,
3, ,1, ,
5, ,-1, ,
3, ,2, ,
5, ,1, ,
5, ,1, ,
4, ,2, ,
1, ,1, ,
5, ,-1, ,
3, ,2, ,
4, ,1, ,
4, ,1, ,
4, ,2, ,
2, ,1, ,
6, ,-1, ,
2, ,2, ,
3, ,1, ,
3, ,1, ,
4, ,2, ,
2, ,1, ,
5, ,-1, ,
3, ,2, ,
3, ,1, ,
4, ,1, ,
3, ,2, ,
1, ,1, ,
4, ,-1, ,
3, ,2, ,
4, ,1, ,
4, ,1, ,
4, ,2, ,
1, ,1, ,
5, ,-1, ,
3, ,2, ,
3, ,1, ,
3, ,1, ,
4, ,2, ,
2, ,1, ,
5, ,-1, ,
2, ,2, ,
3, ,1, ,
4, ,-1, ,
3, ,2, ,
1, ,1, ,
4, ,-1, ,
3, ,2, ,
3, ,1, ,
4, ,1, ,
3, ,1, ,
2, ,1, ,
4, ,-2, ,
3, ,2, ,
3, ,1, ,
3, ,1, ,
3, ,2, ,
1, ,1, ,
4, ,-1, ,
3, ,2, ,
3, ,1, ,
3, ,1, ,
2, ,3, ,
2, ,1, ,
4, ,-1, ,
3, ,2, ,
3, ,1, ,
3, ,-1, ,
3, ,2, ,
1, ,1, ,
4, ,-2, ,
2, ,2, ,
3, ,1, ,
3, ,-1, ,
3, ,2, ,
1, ,1, ,
4, ,-1, ,
2, ,2, ,
2, ,1, ,
3, ,-1, ,
3, ,2, ,
1, ,1, ,
4, ,-1, ,
2, ,2, ,
2, ,1, ,
3, ,-1, ,
3, ,2, ,
0, ,1, ,
3, ,-2, ,
2, ,2, ,
2, ,1, ,
3, ,-1, ,
2, ,2, ,
0, ,1, ,
3, ,-1, ,
2, ,2, ,
3, ,-1, ,
3, ,-1, ,
3, ,2, ,
1, ,1, ,
3, ,-2, ,
2, ,3, ,
2, ,-1, ,
2, ,-1, ,
3, ,2, ,
0, ,1, ,
4, ,-2, ,
1, ,2, ,
2, ,1, ,
3, ,-1, ,
3, ,1, ,
1, ,1, ,
4, ,-2, ,
1, ,2, ,
2, ,-1, ,
2, ,1, ,
3, ,2, ,
0, ,1, ,
3, ,-2, ,
1, ,1, ,
2, ,-1, ,
2, ,1, ,
2, ,2, ,
0, ,1, ,
3, ,-2, ,
1, ,2, ,
2, ,-1, ,
3, ,-1, ,
3, ,2, ,
0, ,1, ,
3, ,-2, ,
1, ,2, ,
2, ,-1, ,
2, ,1, ,
2, ,2, ,
-1, ,1, ,
3, ,-2, ,
0, ,2, ,
2, ,-1, ,
2, ,-1, ,
2, ,2, ,
-1, ,1, ,
3, ,-2, ,
1, ,2, ,
2, ,-1, ,
2, ,-1, ,
2, ,1, ,
0, ,1, ,
-4, ,-2, ,
-6, ,2, ,
-1, ,-1, ,
1, ,-1, ,
-1, ,2, ,
-1, ,1, ,
2, ,-2, ,
-1, ,1, ,
2, ,-1, ,
2, ,-1, ,
1, ,2, ,
-1, ,1, ,
3, ,-2, ,
-1, ,2, ,
1, ,-1, ,
2, ,-1, ,
1, ,2, ,
0, ,1, ,
3, ,-2, ,
0, ,2, ,
2, ,1, ,
2, ,-1, ,
2, ,1, ,
0, ,1, ,
2, ,-2, ,
0, ,2, ,
1, ,-1, ,
2, ,1, ,
2, ,2, ,
0, ,1, ,
3, ,-2, ,
1, ,2, ,
2, ,-1, ,
2, ,-1, ,
1, ,2, ,
-1, ,1, ,
2, ,-2, ,
1, ,2, ,
2, ,-1, ,
2, ,-1, ,
2, ,2, ,
0, ,1, ,
2, ,-2, ,
0, ,2, ,
2, ,-1, ,
2, ,1, ,
1, ,2, ,
0, ,1, ,
2, ,-2, ,
0, ,2, ,
2, ,-1, ,
2, ,-1, ,
1, ,2, ,
0, ,1, ,
2, ,-2, ,
1, ,2, ,
1, ,-1, ,
2, ,1, ,
2, ,2, ,
0, ,1, ,
2, ,-2, ,
0, ,2, ,
2, ,-1, ,
2, ,-1, ,
2, ,2, ,
0, ,1, ,
3, ,-2, ,
0, ,2, ,
2, ,-1, ,
2, ,-1, ,
2, ,2, ,
-1, ,1, ,
3, ,-2, ,
0, ,2, ,
2, ,-1, ,
2, ,-1, ,
2, ,1, ,
-1, ,1, ,
2, ,-2, ,
0, ,2, ,
1, ,-1, ,
2, ,1, ,
2, ,1, ,
0, ,1, ,
3, ,-2, ,
0, ,2, ,
1, ,-1, ,
2, ,1, ,
1, ,2, ,
-1, ,1, ,
2, ,-2, ,
0, ,2, ,
1, ,-1, ,
2, ,-1, ,
1, ,2, ,
-1, ,1, ,
2, ,-2, ,
0, ,2, ,
1, ,-1, ,
2, ,-1, ,
3, ,1, ,
-1, ,1, ,
2, ,-2, ,
0, ,2, ,
1, ,-1, ,
1, ,-1, ,
2, ,2, ,
0, ,1, ,
3, ,-2, ,
-1, ,2, ,
1, ,-1, ,
2, ,-1, ,
1, ,2, ,
-1, ,1, ,
2, ,-2, ,
0, ,2, ,
2, ,-1, ,
2, ,1, ,
1, ,1, ,
-1, ,1, ,
2, ,-2, ,
0, ,2, ,
0, ,-1, ,
1, ,-1, ,
2, ,2, ,
-1, ,1, ,
2, ,-2, ,
0, ,2, ,
1, ,-1, ,
2, ,1, ,
1, ,1, ,
-2, ,1, ,
2, ,-2, ,
-1, ,1, ,
1, ,-1, ,
2, ,-1, ,
1, ,2, ,
-1, ,1, ,
2, ,-2, ,
-1, ,2, ,
1, ,-1, ,
1, ,-1, ,
1, ,2, ,
-1, ,1, ,
2, ,-2, ,
0, ,2, ,
0, ,-1, ,
2, ,-1, ,
2, ,2, ,
-1, ,-1, ,
2, ,-2, ,
0, ,2, ,
1, ,-1, ,
2, ,-1, ,
1, ,1, ,
-1, ,1, ,
2, ,-2, ,
0, ,2, ,
1, ,-1, ,
2, ,-1, ,
1, ,1, ,
-1, ,-1, ,
2, ,-2, ,
0, ,1, ,
1, ,-1, ,
1, ,1, ,
1, ,2, ,
-1, ,1, ,
2, ,-2, ,
-1, ,2, ,
0, ,-1, ,
1, ,-1, ,
1, ,2, ,
-1, ,1, ,
2, ,-2, ,
-1, ,1, ,
1, ,-1, ,
2, ,-1, ,
1, ,1, ,
-1, ,1, ,
2, ,-2, ,
0, ,2, ,
1, ,-1, ,
1, ,-1, ,
1, ,1, ,
-1, ,1, ,
2, ,-2, ,
0, ,2, ,
1, ,-1, ,
1, ,-1, ,
2, ,2, ,
-2, ,1, ,
2, ,-2, ,
0, ,2, ,
1, ,-1, ,
2, ,1, ,
1, ,2, ,
-1, ,1, ,
2, ,-2, ,
0, ,1, ,
0, ,-1, ,
1, ,-1, ,
2, ,1, ,
-1, ,1, ,
2, ,-2, ,
0, ,2, ,
0, ,-1, ,
1, ,-1, ,
1, ,1, ,
-1, ,1, ,
2, ,-2, ,
0, ,1, ,
1, ,-1, ,
2, ,1, ,
1, ,1, ,
-1, ,1, ,
2, ,-2, ,
-1, ,2, ,
0, ,-1, ,
2, ,-1, ,
1, ,2, ,
-1, ,1, ,
2, ,-1, ,
0, ,2, ,
0, ,-1, ,
1, ,-1, ,
1, ,1, ,
-1, ,1, ,
2, ,-2, ,
-1, ,2, ,
0, ,-1, ,
1, ,1, ,
2, ,1, ,
-1, ,1, ,
1, ,-2, ,
-1, ,2, ,
1, ,-1, ,
1, ,-1, ,
1, ,1, ,
-1, ,1, ,
2, ,-2, ,
-1, ,1, ,
1, ,-1, ,
1, ,1, ,
1, ,1, ,
-1, ,-1, ,
2, ,-2, ,
0, ,1, ,
0, ,-1, ,
1, ,1, ,
1, ,2, ,
-2, ,1, ,
2, ,-2, ,
-1, ,2, ,
0, ,-1, ,
1, ,-1, ,
2, ,1, ,
-2, ,1, ,
1, ,-2, ,
-1, ,1, ,
1, ,-1, ,
1, ,-1, ,
2, ,1, ,
-1, ,1, ,
2, ,-1, ,
0, ,1, ,
1, ,-1, ,
1, ,1, ,
1, ,2, ,
-1, ,-1, ,
2, ,-2, ,
-1, ,2, ,
0, ,-1, ,
1, ,1, ,
2, ,2, ,
-2, ,1, ,
2, ,-2, ,
-1, ,2, ,
1, ,-1, ,
1, ,-1, ,
1, ,1, ,
-2, ,1, ,
1, ,-2, ,
-1, ,1, ,
1, ,-1, ,
1, ,-1, ,
1, ,1, ,
-1, ,1, ,
2, ,-2, ,
-2, ,1, ,
-1, ,-1, ,
0, ,-1, ,
1, ,2, ,
-2, ,1, ,
2, ,-2, ,
-1, ,2, ,
1, ,-1, ,
1, ,-1, ,
1, ,1, ,
-1, ,1, ,
2, ,-2, ,
-1, ,1, ,
1, ,-1, ,
1, ,-1, ,
1, ,1, ,
-2, ,-1, ,
2, ,-2, ,
-1, ,1, ,
0, ,-1, ,
1, ,1, ,
0, ,1, ,
-2, ,1, ,
2, ,-2, ,
-1, ,1, ,
1, ,-1, ,
1, ,1, ,
2, ,1, ,
-1, ,-1, ,
2, ,-2, ,
-1, ,2, ,
0, ,-1, ,
1, ,-1, ,
76, ,1, ,
94, ,1, ,
58, ,-2, ,
36, ,2, ,
25, ,-1, ,
18, ,-1, ,
14, ,1, ,
10, ,1, ,
11, ,-2, ,
8, ,2, ,
9, ,-1, ,
9, ,-1, ,
8, ,1, ,
6, ,1, ,
9, ,-2, ,
7, ,1, ,
8, ,-1, ,
8, ,1, ,
8, ,2, ,
7, ,-1, ,
9, ,-2, ,
7, ,1, ,
8, ,-1, ,
8, ,1, ,
7, ,1, ,
5, ,1, ,
8, ,-2, ,
7, ,2, ,
7, ,-1, ,
8, ,-1, ,
8, ,1, ,
6, ,-1, ,
8, ,-2, ,
5, ,1, ,
6, ,-1, ,
7, ,-1, ,
7, ,2, ,
7, ,-1, ,
8, ,-2, ,
6, ,2, ,
6, ,-1, ,
6, ,-1, ,
7, ,1, ,
6, ,-1, ,
7, ,-2, ,
5, ,2, ,
6, ,-1, ,
6, ,-1, ,
6, ,1, ,
5, ,1, ,
7, ,-2, ,
5, ,1, ,
5, ,-1, ,
6, ,-1, ,
7, ,2, ,
5, ,-1, ,
6, ,-2, ,
5, ,1, ,
5, ,-1, ,
6, ,-1, ,
6, ,1, ,
5, ,1, ,
7, ,-2, ,
5, ,2, ,
6, ,-1, ,
6, ,1, ,
6, ,1, ,
4, ,1, ,
7, ,-2, ,
5, ,2, ,
5, ,-1, ,
6, ,-1, ,
6, ,1, ,
4, ,1, ,
6, ,-2, ,
5, ,2, ,
5, ,-1, ,
5, ,-1, ,
5, ,2, ,
3, ,1, ,
6, ,-2, ,
5, ,1, ,
5, ,-1, ,
5, ,-1, ,
6, ,2, ,
3, ,1, ,
5, ,-2, ,
5, ,1, ,
5, ,-1, ,
6, ,1, ,
5, ,2, ,
4, ,1, ,
6, ,-2, ,
4, ,2, ,
5, ,-1, ,
5, ,-1, ,
5, ,1, ,
3, ,1, ,
6, ,-2, ,
4, ,1, ,
4, ,-1, ,
5, ,-1, ,
5, ,2, ,
2, ,-1, ,
5, ,-2, ,
3, ,1, ,
4, ,-1, ,
4, ,-1, ,
4, ,1, ,
2, ,1, ,
5, ,-2, ,
3, ,2, ,
4, ,-1, ,
4, ,1, ,
5, ,2, ,
3, ,1, ,
5, ,-2, ,
3, ,2, ,
3, ,-1, ,
4, ,-1, ,
4, ,2, ,
2, ,1, ,
5, ,-2, ,
3, ,2, ,
3, ,-1, ,
3, ,-1, ,
3, ,1, ,
2, ,1, ,
4, ,-2, ,
3, ,2, ,
3, ,-1, ,
3, ,-1, ,
3, ,1, ,
2, ,1, ,
4, ,-2, ,
3, ,2, ,
3, ,-1, ,
3, ,-1, ,
3, ,2, ,
1, ,1, ,
5, ,-2, ,
3, ,1, ,
4, ,-1, ,
3, ,-1, ,
3, ,1, ,
1, ,1, ,
4, ,-2, ,
3, ,2, ,
3, ,-1, ,
4, ,-1, ,
4, ,1, ,
1, ,-1, ,
4, ,-2, ,
3, ,1, ,
3, ,-1, ,
3, ,-1, ,
4, ,-1, ,
2, ,-1, ,
5, ,-2, ,
2, ,1, ,
3, ,-1, ,
2, ,1, ,
3, ,1, ,
1, ,1, ,
3, ,-2, ,
1, ,1, ,
2, ,-1, ,
3, ,-1, ,
4, ,2, ,
1, ,1, ,
4, ,-2, ,
2, ,2, ,
3, ,-1, ,
4, ,-1, ,
3, ,1, ,
1, ,-1, ,
4, ,-2, ,
2, ,2, ,
2, ,-1, ,
3, ,-1, ,
3, ,1, ,
1, ,1, ,
4, ,-2, ,
2, ,1, ,
3, ,-1, ,
3, ,-1, ,
3, ,2, ,
1, ,-1, ,
4, ,-2, ,
2, ,2, ,
3, ,-1, ,
3, ,-1, ,
3, ,1, ,
1, ,-1, ,
4, ,-2, ,
2, ,2, ,
2, ,-1, ,
2, ,-1, ,
2, ,2, ,
1, ,1, ,
4, ,-2, ,
2, ,2, ,
3, ,-1, ,
2, ,-1, ,
3, ,1, ,
1, ,1, ,
3, ,-2, ,
1, ,2, ,
2, ,-1, ,
3, ,1, ,
4, ,1, ,
1, ,-1, ,
3, ,-2, ,
2, ,2, ,
2, ,-1, ,
3, ,1, ,
3, ,1, ,
0, ,1, ,
3, ,-2, ,
2, ,2, ,
2, ,-1, ,
3, ,1, ,
2, ,2, ,
0, ,1, ,
3, ,-2, ,
1, ,1, ,
2, ,-1, ,
2, ,1, ,
2, ,1, ,
0, ,1, ,
3, ,-2, ,
1, ,1, ,
2, ,-1, ,
2, ,1, ,
2, ,2, ,
0, ,-1, ,
3, ,-2, ,
0, ,2, ,
2, ,-1, ,
2, ,-1, ,
2, ,1, ,
0, ,1, ,
3, ,-2, ,
0, ,2, ,
1, ,-1, ,
2, ,-1, ,
2, ,1, ,
0, ,-1, ,
2, ,-2, ,
0, ,2, ,
1, ,-1, ,
2, ,-1, ,
3, ,1, ,
0, ,-1, ,
3, ,-2, ,
0, ,2, ,
1, ,-1, ,
2, ,-1, ,
2, ,1, ,
0, ,1, ,
3, ,-2, ,
0, ,2, ,
2, ,-1, ,
2, ,-1, ,
1, ,1, ,
-1, ,1, ,
2, ,-2, ,
0, ,2, ,
1, ,-1, ,
2, ,-1, ,
2, ,2, ,
0, ,-1, ,
2, ,-2, ,
1, ,1, ,
1, ,-1, ,
1, ,-1, ,
2, ,1, ,
0, ,-1, ,
3, ,-2, ,
1, ,1, ,
2, ,-1, ,
2, ,-1, ,
1, ,1, ,
0, ,-1, ,
2, ,-2, ,
0, ,2, ,
1, ,-1, ,
2, ,-1, ,
1, ,1, ,
-1, ,1, ,
3, ,-2, ,
1, ,1, ,
1, ,-1, ,
2, ,-1, ,
3, ,1, ,
0, ,-1, ,
2, ,-2, ,
1, ,1, ,
2, ,-1, ,
2, ,-1, ,
2, ,1, ,
-1, ,1, ,
2, ,-2, ,
0, ,1, ,
1, ,-1, ,
2, ,-1, ,
3, ,1, ,
0, ,1, ,
2, ,-2, ,
0, ,2, ,
1, ,-1, ,
2, ,-1, ,
3, ,1, ,
0, ,1, ,
2, ,-2, ,
0, ,2, ,
1, ,-1, ,
1, ,1, ,
2, ,1, ,
-1, ,-1, ,
2, ,-2, ,
0, ,2, ,
1, ,-1, ,
2, ,-1, ,
1, ,1, ,
-1, ,-1, ,
2, ,-2, ,
0, ,2, ,
1, ,-1, ,
1, ,-1, ,
2, ,1, ,
0, ,1, ,
3, ,-2, ,
-1, ,2, ,
1, ,-1, ,
2, ,-1, ,
2, ,1, ,
-1, ,1, ,
2, ,-2, ,
0, ,1, ,
1, ,-1, ,
1, ,-1, ,
1, ,1, ,
-2, ,1, ,
2, ,-2, ,
0, ,1, ,
2, ,-1, ,
1, ,-1, ,
1, ,1, ,
-1, ,1, ,
2, ,-2, ,
0, ,1, ,
1, ,-1, ,
2, ,-1, ,
1, ,2, ,
-1, ,1, ,
2, ,-2, ,
0, ,1, ,
1, ,-1, ,
1, ,-1, ,
1, ,1, ,
-1, ,1, ,
2, ,-2, ,
-1, ,1, ,
1, ,-1, ,
2, ,-1, ,
2, ,1, ,
-1, ,-1, ,
2, ,-1, ,
-1, ,2, ,
1, ,-1, ,
1, ,-1, ,
1, ,1, ,
0, ,-1, ,
2, ,-2, ,
0, ,1, ,
1, ,-1, ,
1, ,1, ,
1, ,1, ,
-1, ,1, ,
2, ,-2, ,
0, ,2, ,
1, ,-1, ,
1, ,-1, ,
1, ,1, ,
-2, ,1, ,
1, ,-2, ,
-1, ,2, ,
1, ,-1, ,
1, ,-1, ,
1, ,1, ,
-1, ,-1, ,
2, ,-2, ,
0, ,2, ,
1, ,-1, ,
1, ,-1, ,
1, ,1, ,
0, ,-1, ,
2, ,-2, ,
-1, ,2, ,
0, ,-1, ,
1, ,-1, ,
2, ,1, ,
-1, ,1, ,
2, ,-2, ,
0, ,1, ,
1, ,-1, ,
1, ,-1, ,
2, ,-1, ,
-1, ,1, ,
2, ,-2, ,
0, ,1, ,
1, ,-1, ,
1, ,-1, ,
1, ,1, ,
0, ,1, ,
2, ,-2, ,
0, ,1, ,
1, ,-1, ,
1, ,-1, ,
1, ,1, ,
-1, ,1, ,
2, ,-2, ,
-1, ,2, ,
0, ,-1, ,
2, ,-1, ,
2, ,1, ,
-1, ,-1, ,
2, ,-2, ,
-1, ,2, ,
1, ,-1, ,
1, ,-1, ,
2, ,1, ,
-1, ,1, ,
2, ,-2, ,
0, ,2, ,
1, ,-1, ,
1, ,1, ,
1, ,1, ,
-1, ,1, ,
2, ,-2, ,
0, ,1, ,
1, ,-1, ,
1, ,-1, ,
2, ,1, ,
-1, ,-1, ,
2, ,-2, ,
-1, ,1, ,
0, ,-1, ,
2, ,1, ,
2, ,1, ,
-7, ,-1, ,
-1, ,-2, ,
-6, ,2, ,
-2, ,-1, ,
0, ,-1, ,
-1, ,1, ,
-2, ,1, ,
1, ,-2, ,
-2, ,1, ,
0, ,-1, ,
1, ,-1, ,
1, ,1, ,
-1, ,-1, ,
2, ,-2, ,
-2, ,2, ,
0, ,-1, ,
0, ,-1, ,
1, ,1, ,
-1, ,1, ,
2, ,-2, ,
-1, ,2, ,
1, ,-1, ,
0, ,1, ,
1, ,1, ,
-2, ,1, ,
2, ,-2, ,
0, ,1, ,
1, ,-1, ,
1, ,-1, ,
1, ,2, ,
-1, ,1, ,
2, ,-2, ,
-1, ,2, ,
1, ,-1, ,
1, ,-1, ,
2, ,1, ,
-1, ,1, ,
1, ,-1, ,
-1, ,1, ,
1, ,-1, ,
0, ,-1, ,
1, ,1, ,
-1, ,1, ,
2, ,-2, ,
-1, ,2, ,
0, ,-1, ,
0, ,-1, ,
1, ,1, ,
-2, ,-1, ,
2, ,-2, ,
0, ,2, ,
2, ,-1, ,
1, ,-1, ,
1, ,1, ,
-2, ,-1, ,
2, ,-2, ,
-1, ,2, ,
0, ,-1, ,
1, ,-1, ,
2, ,1, ,
-1, ,-1, ,
2, ,-2, ,
-1, ,2, ,
1, ,-1, ,
1, ,-1, ,
2, ,1, ,
-2, ,1, ,
1, ,-2, ,
0, ,1, ,
0, ,-1, ,
1, ,1, ,
2, ,1, ,
-1, ,-1, ,
2, ,-2, ,
0, ,1, ,
1, ,-1, ,
1, ,-1, ,
1, ,1, ,
-2, ,1, ,
2, ,-2, ,
-1, ,1, ,
0, ,-1, ,
1, ,-1, ,
1, ,1, ,
-1, ,1, ,
2, ,-2, ,
0, ,2, ,
1, ,-1, ,
0, ,-1, ,
1, ,1, ,
-2, ,-1, ,
2, ,-2, ,
0, ,1, ,
0, ,-1, ,
1, ,1, ,
1, ,1, ,
-1, ,-1, ,
2, ,-2, ,
-1, ,2, ,
0, ,83, ,
0, ,55, ,
2, ,34, ,
0, ,22, ,
2, ,13, ,
-1, ,11, ,
1, ,6, ,
1, ,5, ,
0, ,5, ,
-1, ,3, ,
2, ,1, ,
0, ,5, ,
1, ,2, ,
1, ,2, ,
1, ,3, ,
-1, ,2, ,
2, ,1, ,
-1, ,3, ,
0, ,2, ,
1, ,2, ,
2, ,2, ,
-1, ,2, ,
1, ,1, ,
0, ,3, ,
1, ,2, ,
1, ,2, ,
2, ,2, ,
-2, ,3, ,
2, ,1, ,
-1, ,3, ,
1, ,1, ,
1, ,2, ,
2, ,2, ,
-1, ,2, ,
2, ,1, ,
-1, ,5, ,
0, ,2, ,
1, ,2, ,
2, ,2, ,
-1, ,2, ,
2, ,1, ,
-1, ,3, ,
0, ,2, ,
1, ,2, ,
1, ,3, ,
-1, ,2, ,
1, ,1, ,
-1, ,3, ,
1, ,1, ,
1, ,2, ,
1, ,2, ,
-2, ,2, ,
1, ,-1, ,
-1, ,3, ,
1, ,2, ,
2, ,2, ,
2, ,2, ,
-1, ,2, ,
1, ,-1, ,
-1, ,3, ,
1, ,1, ,
1, ,2, ,
1, ,3, ,
-2, ,2, ,
2, ,-1, ,
-1, ,3, ,
0, ,1, ,
0, ,2, ,
1, ,2, ,
-2, ,2, ,
1, ,-1, ,
-1, ,3, ,
1, ,1, ,
0, ,1, ,
1, ,2, ,
-2, ,2, ,
2, ,-1, ,
-1, ,3, ,
1, ,1, ,
1, ,2, ,
1, ,3, ,
-1, ,2, ,
2, ,-1, ,
-1, ,3, ,
1, ,1, ,
1, ,1, ,
2, ,2, ,
-2, ,2, ,
1, ,1, ,
-1, ,3, ,
1, ,1, ,
1, ,1, ,
2, ,2, ,
-1, ,2, ,
1, ,-1, ,
-1, ,3, ,
1, ,1, ,
1, ,2, ,
1, ,2, ,
-1, ,2, ,
2, ,-1, ,
-1, ,2, ,
0, ,1, ,
1, ,2, ,
2, ,2, ,
-1, ,2, ,
2, ,-1, ,
-1, ,3, ,
1, ,1, ,
1, ,1, ,
1, ,2, ,
-2, ,2, ,
2, ,-1, ,
-1, ,3, ,
1, ,1, ,
1, ,2, ,
2, ,2, ,
-1, ,2, ,
2, ,-1, ,
-1, ,2, ,
0, ,1, ,
0, ,2, ,
1, ,3, ,
-1, ,1, ,
2, ,-1, ,
-1, ,2, ,
0, ,1, ,
1, ,2, ,
1, ,2, ,
-1, ,1, ,
2, ,-1, ,
-1, ,3, ,
1, ,1, ,
1, ,2, ,
2, ,3, ,
-1, ,2, ,
2, ,-1, ,
-1, ,3, ,
1, ,1, ,
1, ,2, ,
1, ,3, ,
-2, ,2, ,
1, ,-1, ,
-1, ,3, ,
1, ,1, ,
1, ,1, ,
1, ,2, ,
-2, ,2, ,
2, ,-1, ,
-1, ,3, ,
0, ,1, ,
1, ,1, ,
2, ,2, ,
-1, ,1, ,
2, ,-1, ,
-1, ,2, ,
0, ,1, ,
1, ,1, ,
2, ,2, ,
-1, ,2, ,
2, ,-1, ,
0, ,3, ,
0, ,1, ,
1, ,1, ,
1, ,3, ,
-1, ,2, ,
2, ,-1, ,
0, ,3, ,
0, ,1, ,
1, ,1, ,
1, ,2, ,
-1, ,2, ,
1, ,-1, ,
-1, ,2, ,
0, ,1, ,
1, ,1, ,
2, ,2, ,
-1, ,1, ,
1, ,-1, ,
-1, ,3, ,
0, ,1, ,
1, ,1, ,
2, ,2, ,
-1, ,1, ,
2, ,-1, ,
-1, ,2, ,
0, ,1, ,
0, ,2, ,
1, ,2, ,
-2, ,2, ,
1, ,-1, ,
-1, ,2, ,
1, ,1, ,
1, ,1, ,
1, ,2, ,
-2, ,2, ,
2, ,-1, ,
-1, ,2, ,
0, ,1, ,
1, ,1, ,
1, ,2, ,
-1, ,1, ,
2, ,-1, ,
0, ,2, ,
1, ,1, ,
1, ,1, ,
0, ,2, ,
-2, ,1, ,
1, ,-1, ,
-1, ,3, ,
0, ,1, ,
1, ,1, ,
1, ,2, ,
-2, ,1, ,
1, ,-1, ,
-1, ,3, ,
0, ,1, ,
1, ,1, ,
2, ,1, ,
-2, ,2, ,
1, ,-1, ,
-1, ,2, ,
0, ,1, ,
0, ,1, ,
1, ,2, ,
0, ,2, ,
1, ,-1, ,
-2, ,2, ,
1, ,1, ,
1, ,1, ,
0, ,2, ,
-2, ,1, ,
2, ,-1, ,
-1, ,3, ,
0, ,1, ,
1, ,1, ,
2, ,2, ,
-1, ,1, ,
1, ,-1, ,
-1, ,2, ,
1, ,1, ,
1, ,1, ,
1, ,1, ,
-1, ,2, ,
2, ,-1, ,
-1, ,3, ,
0, ,1, ,
1, ,1, ,
1, ,2, ,
-1, ,2, ,
2, ,-1, ,
-1, ,2, ,
1, ,1, ,
0, ,1, ,
1, ,1, ,
-1, ,2, ,
2, ,-1, ,
-1, ,2, ,
0, ,1, ,
0, ,2, ,
0, ,2, ,
-2, ,1, ,
2, ,-1, ,
0, ,2, ,
0, ,1, ,
0, ,1, ,
1, ,2, ,
-2, ,2, ,
2, ,-1, ,
-1, ,2, ,
0, ,1, ,
1, ,1, ,
1, ,2, ,
-1, ,1, ,
2, ,-1, ,
-1, ,2, ,
0, ,1, ,
0, ,1, ,
1, ,1, ,
-1, ,2, ,
2, ,-1, ,
-1, ,2, ,
0, ,1, ,
1, ,1, ,
1, ,2, ,
-2, ,1, ,
2, ,-1, ,
-1, ,2, ,
1, ,-1, ,
1, ,1, ,
1, ,2, ,
-2, ,1, ,
1, ,-1, ,
-2, ,2, ,
0, ,1, ,
0, ,1, ,
1, ,2, ,
-1, ,1, ,
2, ,-1, ,
-2, ,2, ,
0, ,1, ,
1, ,1, ,
1, ,2, ,
-2, ,1, ,
2, ,-1, ,
-1, ,2, ,
0, ,-1, ,
1, ,1, ,
1, ,2, ,
-1, ,1, ,
1, ,-1, ,
-1, ,2, ,
0, ,1, ,
1, ,1, ,
1, ,2, ,
-1, ,1, ,
2, ,-1, ,
-1, ,1, ,
0, ,1, ,
1, ,1, ,
1, ,1, ,
-1, ,1, ,
1, ,-1, ,
0, ,1, ,
1, ,1, ,
1, ,2, ,
1, ,1, ,
-2, ,2, ,
1, ,-1, ,
-1, ,2, ,
1, ,1, ,
1, ,1, ,
1, ,1, ,
-2, ,2, ,
1, ,-1, ,
-1, ,3, ,
0, ,1, ,
0, ,1, ,
1, ,2, ,
-1, ,1, ,
2, ,-1, ,
-1, ,2, ,
0, ,-1, ,
1, ,1, ,
1, ,1, ,
-2, ,1, ,
2, ,-1, ,
-1, ,2, ,
1, ,-1, ,
1, ,-1, ,
1, ,1, ,
-2, ,2, ,
2, ,-1, ,
-1, ,2, ,
1, ,1, ,
1, ,1, ,
2, ,2, ,
-1, ,1, ,
1, ,-1, ,
-1, ,2, ,
0, ,1, ,
1, ,1, ,
1, ,1, ,
-1, ,40, ,
2, ,52, ,
-1, ,33, ,
0, ,21, ,
1, ,14, ,
1, ,11, ,
-2, ,7, ,
2, ,3, ,
-1, ,6, ,
0, ,3, ,
1, ,2, ,
1, ,3, ,
-2, ,2, ,
2, ,1, ,
-1, ,3, ,
0, ,2, ,
0, ,2, ,
1, ,2, ,
-1, ,3, ,
2, ,1, ,
-1, ,5, ,
1, ,2, ,
0, ,2, ,
1, ,2, ,
-1, ,3, ,
2, ,1, ,
-1, ,3, ,
0, ,1, ,
1, ,2, ,
1, ,2, ,
-2, ,3, ,
1, ,1, ,
0, ,5, ,
1, ,2, ,
1, ,2, ,
1, ,2, ,
-1, ,3, ,
2, ,1, ,
-1, ,3, ,
0, ,2, ,
1, ,2, ,
1, ,3, ,
-2, ,2, ,
2, ,1, ,
-1, ,3, ,
1, ,2, ,
1, ,2, ,
1, ,2, ,
-2, ,2, ,
2, ,1, ,
-1, ,2, ,
0, ,1, ,
1, ,2, ,
1, ,3, ,
-2, ,3, ,
1, ,1, ,
-2, ,3, ,
0, ,2, ,
1, ,2, ,
1, ,2, ,
-1, ,2, ,
2, ,1, ,
-1, ,3, ,
0, ,1, ,
1, ,1, ,
1, ,2, ,
-1, ,2, ,
2, ,1, ,
-1, ,3, ,
0, ,2, ,
1, ,2, ,
1, ,2, ,
-1, ,2, ,
2, ,1, ,
-1, ,3, ,
0, ,1, ,
0, ,2, ,
1, ,3, ,
-2, ,3, ,
2, ,1, ,
-1, ,3, ,
1, ,1, ,
1, ,2, ,
1, ,2, ,
-2, ,2, ,
2, ,1, ,
-2, ,2, ,
0, ,1, ,
1, ,2, ,
2, ,3, ,
-1, ,2, ,
1, ,1, ,
-1, ,3, ,
0, ,2, ,
0, ,1, ,
1, ,3, ,
-1, ,2, ,
2, ,1, ,
-1, ,2, ,
1, ,1, ,
0, ,1, ,
1, ,2, ,
-1, ,2, ,
2, ,1, ,
0, ,3, ,
1, ,2, ,
-1, ,1, ,
-1, ,2, ,
-2, ,2, ,
1, ,1, ,
-2, ,2, ,
0, ,2, ,
2, ,1, ,
2, ,2, ,
-1, ,2, ,
1, ,1, ,
0, ,3, ,
0, ,1, ,
1, ,1, ,
1, ,2, ,
-2, ,2, ,
1, ,-1, ,
-2, ,2, ,
0, ,1, ,
1, ,1, ,
1, ,3, ,
-1, ,2, ,
1, ,-1, ,
-1, ,3, ,
0, ,1, ,
0, ,1, ,
1, ,2, ,
-1, ,2, ,
2, ,-1, ,
0, ,2, ,
1, ,1, ,
0, ,1, ,
1, ,2, ,
-2, ,2, ,
2, ,1, ,
0, ,3, ,
1, ,1, ,
1, ,1, ,
1, ,2, ,
-2, ,2, ,
2, ,1, ,
-2, ,2, ,
0, ,1, ,
1, ,1, ,
1, ,2, ,
-1, ,2, ,
