src/varyamp_1560/temp0005214.CSV

Format,1.0B,
Memory Length,10000,Memory Length,10000,
IntpDistance,0,IntpDistance,0,
Trigger Address,4999,Trigger Address,4999,
Trigger Level,1.040E+00,Trigger Level,1.040E+00,
Source,CH1,Source,CH2,
Vertical Units,V,Vertical Units,V,
Vertical Units Div,0,Vertical Units Div,0,
Vertical Units Extend Div,16,Vertical Units Extend Div,16,
Label,,Label,,
Probe Type,0,Probe Type,0,
Probe Ratio,1.000e+01,Probe Ratio,1.000e+00,
Vertical Scale,5.000e-01,Vertical Scale,1.000e+00,
Vertical Position,-1.820e+00,Vertical Position,0.000e+00,
Horizontal Units,S,Horizontal Units,S,
Horizontal Scale,2.000E-05,Horizontal Scale,2.000E-05,
Horizontal Position,0.000E+00,Horizontal Position,0.000E+00,
Horizontal Mode,Main,Horizontal Mode,Main,
SincET Mode,Real Time,SincET Mode,Real Time,
Sampling Period,2.000e-08,Sampling Period,2.000e-08,
Horizontal Old Scale,2.000E-05,Horizontal Old Scale,2.000E-05,
Horizontal Old Position,0.000E+00,Horizontal Old Position,0.000E+00,
Firmware,V1.23,Firmware,V1.23,
Mode,Fast,Mode,Fast,
Waveform Data,,Waveform Data,,
2, ,-36, ,
2, ,-36, ,
3, ,-36, ,
3, ,-36, ,
2, ,-36, ,
3, ,-36, ,
2, ,-36, ,
2, ,-36, ,
2, ,-36, ,
3, ,-36, ,
1, ,-36, ,
3, ,-36, ,
2, ,-36, ,
2, ,-36, ,
3, ,-36, ,
3, ,-36, ,
1, ,-36, ,
3, ,-36, ,
2, ,-36, ,
2, ,-36, ,
2, ,-36, ,
2, ,-36, ,
1, ,-36, ,
3, ,-36, ,
2, ,-36, ,
2, ,-36, ,
2, ,-36, ,
3, ,-37, ,
1, ,-36, ,
3, ,-36, ,
2, ,-36, ,
2, ,-36, ,
2, ,-36, ,
2, ,-36, ,
1, ,-36, ,
3, ,-36, ,
2, ,-36, ,
2, ,-36, ,
2, ,-36, ,
2, ,-37, ,
1, ,-36, ,
3, ,-36, ,
2, ,-36, ,
2, ,-36, ,
2, ,-36, ,
2, ,-36, ,
1, ,-36, ,
3, ,-36, ,
2, ,-36, ,
2, ,-36, ,
2, ,-36, ,
2, ,-37, ,
1, ,-36, ,
3, ,-36, ,
2, ,-36, ,
2, ,-36, ,
2, ,-36, ,
2, ,-37, ,
1, ,-36, ,
3, ,-36, ,
2, ,-36, ,
2, ,-36, ,
2, ,-36, ,
2, ,-37, ,
1, ,-36, ,
3, ,-36, ,
2, ,-36, ,
1, ,-36, ,
2, ,-36, ,
2, ,-36, ,
1, ,-36, ,
2, ,-36, ,
2, ,-36, ,
1, ,-36, ,
2, ,-36, ,
2, ,-37, ,
1, ,-36, ,
3, ,-36, ,
1, ,-36, ,
2, ,-36, ,
3, ,-36, ,
2, ,-36, ,
1, ,-36, ,
3, ,-36, ,
2, ,-36, ,
2, ,-36, ,
2, ,-36, ,
2, ,-37, ,
1, ,-36, ,
3, ,-36, ,
1, ,-36, ,
2, ,-36, ,
2, ,-36, ,
2, ,-36, ,
1, ,-36, ,
3, ,-36, ,
2, ,-36, ,
2, ,-36, ,
2, ,-36, ,
2, ,-37, ,
1, ,-36, ,
2, ,-36, ,
1, ,-36, ,
2, ,-36, ,
2, ,-36, ,
2, ,-36, ,
1, ,-36, ,
2, ,-36, ,
2, ,-36, ,
2, ,-36, ,
2, ,-36, ,
2, ,-37, ,
1, ,-36, ,
3, ,-36, ,
1, ,-37, ,
1, ,-36, ,
2, ,-36, ,
2, ,-36, ,
1, ,-36, ,
2, ,-36, ,
2, ,-36, ,
2, ,-36, ,
2, ,-36, ,
2, ,-37, ,
1, ,-35, ,
2, ,-36, ,
2, ,-36, ,
1, ,-36, ,
2, ,-36, ,
2, ,-36, ,
1, ,-36, ,
2, ,-36, ,
1, ,-36, ,
1, ,-36, ,
2, ,-36, ,
2, ,-37, ,
1, ,-36, ,
2, ,-36, ,
1, ,-36, ,
2, ,-36, ,
2, ,-36, ,
2, ,-36, ,
1, ,-36, ,
2, ,-36, ,
1, ,-37, ,
2, ,-36, ,
2, ,-36, ,
2, ,-37, ,
1, ,-36, ,
2, ,-36, ,
1, ,-36, ,
2, ,-36, ,
2, ,-36, ,
2, ,-37, ,
1, ,-36, ,
2, ,-36, ,
1, ,-36, ,
2, ,-36, ,
2, ,-36, ,
2, ,-37, ,
1, ,-36, ,
2, ,-36, ,
1, ,-36, ,
2, ,-36, ,
2, ,-36, ,
2, ,-36, ,
1, ,-36, ,
2, ,-36, ,
1, ,-36, ,
2, ,-36, ,
2, ,-36, ,
2, ,-37, ,
1, ,-36, ,
2, ,-36, ,
1, ,-36, ,
2, ,-36, ,
2, ,-36, ,
2, ,-36, ,
1, ,-36, ,
2, ,-36, ,
1, ,-37, ,
2, ,-36, ,
2, ,-36, ,
2, ,-37, ,
1, ,-36, ,
2, ,-36, ,
1, ,-36, ,
1, ,-36, ,
2, ,-36, ,
2, ,-36, ,
1, ,-36, ,
2, ,-36, ,
1, ,-36, ,
1, ,-36, ,
2, ,-36, ,
1, ,-37, ,
1, ,-36, ,
2, ,-36, ,
1, ,-36, ,
1, ,-36, ,
2, ,-36, ,
2, ,-36, ,
1, ,-36, ,
2, ,-36, ,
1, ,-36, ,
2, ,-36, ,
2, ,-36, ,
1, ,-37, ,
-1, ,-36, ,
2, ,-36, ,
1, ,-37, ,
2, ,-36, ,
2, ,-36, ,
2, ,-37, ,
1, ,-36, ,
2, ,-36, ,
2, ,-36, ,
1, ,-36, ,
2, ,-36, ,
2, ,-37, ,
1, ,-36, ,
2, ,-36, ,
1, ,-36, ,
1, ,-36, ,
2, ,-36, ,
2, ,-36, ,
1, ,-36, ,
2, ,-36, ,
1, ,-37, ,
1, ,-36, ,
2, ,-36, ,
2, ,-37, ,
1, ,-36, ,
2, ,-36, ,
1, ,-36, ,
1, ,-36, ,
2, ,-36, ,
2, ,-36, ,
1, ,-36, ,
2, ,-36, ,
1, ,-36, ,
2, ,-36, ,
2, ,-36, ,
2, ,-37, ,
1, ,-36, ,
2, ,-36, ,
1, ,-37, ,
1, ,-36, ,
2, ,-36, ,
1, ,-36, ,
1, ,-36, ,
2, ,-36, ,
1, ,-36, ,
1, ,-36, ,
2, ,-36, ,
1, ,-37, ,
1, ,-36, ,
2, ,-36, ,
1, ,-37, ,
2, ,-36, ,
2, ,-36, ,
2, ,-36, ,
1, ,-36, ,
2, ,-36, ,
1, ,-36, ,
1, ,-36, ,
2, ,-36, ,
2, ,-37, ,
1, ,-36, ,
2, ,-36, ,
1, ,-36, ,
2, ,-36, ,
2, ,-36, ,
1, ,-36, ,
1, ,-36, ,
2, ,-36, ,
1, ,-36, ,
1, ,-36, ,
2, ,-36, ,
2, ,-37, ,
1, ,-36, ,
2, ,-36, ,
1, ,-37, ,
1, ,-36, ,
2, ,-36, ,
1, ,-36, ,
1, ,-36, ,
2, ,-36, ,
1, ,-36, ,
1, ,-36, ,
2, ,-36, ,
2, ,-37, ,
-1, ,-35, ,
2, ,-36, ,
1, ,-36, ,
1, ,-36, ,
2, ,-36, ,
1, ,-37, ,
-1, ,-37, ,
2, ,-36, ,
1, ,-36, ,
1, ,-36, ,
2, ,-36, ,
1, ,-37, ,
1, ,-36, ,
2, ,-36, ,
1, ,-36, ,
1, ,-31, ,
2, ,-12, ,
2, ,6, ,
1, ,19, ,
2, ,28, ,
1, ,37, ,
2, ,41, ,
2, ,45, ,
2, ,50, ,
1, ,51, ,
2, ,53, ,
1, ,54, ,
1, ,55, ,
2, ,55, ,
1, ,56, ,
1, ,56, ,
2, ,56, ,
1, ,57, ,
1, ,57, ,
2, ,57, ,
1, ,58, ,
1, ,57, ,
2, ,57, ,
1, ,57, ,
1, ,57, ,
2, ,57, ,
1, ,58, ,
1, ,57, ,
2, ,57, ,
1, ,58, ,
1, ,57, ,
2, ,57, ,
1, ,58, ,
1, ,56, ,
2, ,57, ,
1, ,58, ,
1, ,57, ,
2, ,57, ,
1, ,58, ,
1, ,56, ,
2, ,57, ,
1, ,58, ,
1, ,56, ,
1, ,57, ,
1, ,58, ,
-1, ,56, ,
2, ,57, ,
1, ,57, ,
1, ,57, ,
2, ,57, ,
1, ,57, ,
-1, ,56, ,
2, ,57, ,
1, ,58, ,
1, ,56, ,
1, ,57, ,
1, ,57, ,
1, ,56, ,
2, ,57, ,
1, ,57, ,
1, ,56, ,
1, ,56, ,
1, ,57, ,
-1, ,56, ,
2, ,57, ,
1, ,57, ,
1, ,57, ,
2, ,57, ,
1, ,57, ,
-1, ,56, ,
2, ,57, ,
1, ,57, ,
1, ,57, ,
2, ,57, ,
1, ,57, ,
1, ,56, ,
2, ,57, ,
1, ,58, ,
1, ,56, ,
1, ,57, ,
1, ,57, ,
1, ,56, ,
2, ,57, ,
1, ,57, ,
1, ,57, ,
2, ,56, ,
1, ,57, ,
-1, ,56, ,
2, ,57, ,
1, ,57, ,
1, ,56, ,
2, ,56, ,
1, ,57, ,
1, ,56, ,
2, ,57, ,
1, ,57, ,
1, ,57, ,
2, ,57, ,
1, ,57, ,
1, ,56, ,
2, ,57, ,
1, ,57, ,
1, ,56, ,
2, ,57, ,
1, ,58, ,
1, ,56, ,
2, ,56, ,
1, ,57, ,
1, ,57, ,
2, ,57, ,
1, ,57, ,
-1, ,56, ,
2, ,57, ,
1, ,57, ,
1, ,56, ,
1, ,57, ,
1, ,57, ,
1, ,56, ,
2, ,57, ,
1, ,57, ,
1, ,56, ,
2, ,57, ,
1, ,57, ,
1, ,56, ,
2, ,57, ,
1, ,57, ,
1, ,56, ,
2, ,57, ,
1, ,57, ,
1, ,56, ,
2, ,57, ,
1, ,57, ,
1, ,56, ,
2, ,57, ,
1, ,57, ,
69, ,56, ,
52, ,57, ,
30, ,57, ,
20, ,56, ,
12, ,57, ,
8, ,57, ,
6, ,56, ,
5, ,57, ,
3, ,57, ,
2, ,56, ,
3, ,57, ,
2, ,57, ,
2, ,56, ,
3, ,57, ,
2, ,57, ,
2, ,56, ,
3, ,56, ,
2, ,57, ,
2, ,56, ,
3, ,55, ,
2, ,39, ,
2, ,20, ,
3, ,6, ,
2, ,-4, ,
1, ,-14, ,
2, ,-19, ,
2, ,-24, ,
1, ,-27, ,
2, ,-30, ,
2, ,-32, ,
1, ,-33, ,
3, ,-34, ,
2, ,-35, ,
2, ,-35, ,
2, ,-36, ,
2, ,-36, ,
1, ,-37, ,
2, ,-36, ,
2, ,-37, ,
2, ,-37, ,
2, ,-37, ,
2, ,-37, ,
1, ,-36, ,
3, ,-37, ,
2, ,-37, ,
1, ,-37, ,
2, ,-37, ,
2, ,-37, ,
1, ,-37, ,
3, ,-37, ,
1, ,-37, ,
2, ,-37, ,
2, ,-37, ,
2, ,-37, ,
1, ,-36, ,
3, ,-37, ,
1, ,-37, ,
2, ,-37, ,
2, ,-36, ,
2, ,-37, ,
1, ,-36, ,
3, ,-36, ,
2, ,-37, ,
2, ,-37, ,
2, ,-36, ,
3, ,-37, ,
1, ,-36, ,
2, ,-36, ,
2, ,-37, ,
2, ,-36, ,
2, ,-36, ,
3, ,-37, ,
1, ,-36, ,
3, ,-36, ,
2, ,-37, ,
2, ,-36, ,
2, ,-36, ,
3, ,-37, ,
1, ,-36, ,
2, ,-36, ,
2, ,-37, ,
2, ,-36, ,
2, ,-36, ,
2, ,-37, ,
1, ,-36, ,
3, ,-36, ,
1, ,-37, ,
1, ,-36, ,
2, ,-36, ,
2, ,-37, ,
1, ,-36, ,
3, ,-36, ,
1, ,-36, ,
2, ,-36, ,
3, ,-36, ,
2, ,-36, ,
1, ,-36, ,
2, ,-36, ,
2, ,-36, ,
2, ,-36, ,
2, ,-36, ,
2, ,-37, ,
1, ,-36, ,
3, ,-36, ,
2, ,-37, ,
2, ,-36, ,
2, ,-36, ,
2, ,-36, ,
1, ,-36, ,
3, ,-36, ,
2, ,-37, ,
2, ,-36, ,
2, ,-36, ,
2, ,-36, ,
1, ,-36, ,
3, ,-36, ,
1, ,-37, ,
2, ,-36, ,
2, ,-36, ,
2, ,-36, ,
1, ,-36, ,
2, ,-36, ,
2, ,-36, ,
2, ,-36, ,
3, ,-36, ,
2, ,-37, ,
1, ,-36, ,
3, ,-36, ,
1, ,-37, ,
1, ,-36, ,
2, ,-36, ,
2, ,-36, ,
1, ,-36, ,
2, ,-36, ,
1, ,-36, ,
2, ,-36, ,
2, ,-36, ,
2, ,-37, ,
1, ,-36, ,
3, ,-36, ,
1, ,-37, ,
2, ,-36, ,
2, ,-36, ,
2, ,-36, ,
1, ,-36, ,
3, ,-36, ,
1, ,-36, ,
2, ,-36, ,
2, ,-36, ,
2, ,-36, ,
1, ,-36, ,
2, ,-36, ,
1, ,-37, ,
1, ,-36, ,
2, ,-36, ,
2, ,-37, ,
1, ,-36, ,
2, ,-36, ,
1, ,-36, ,
2, ,-36, ,
2, ,-36, ,
2, ,-37, ,
1, ,-36, ,
2, ,-36, ,
1, ,-36, ,
2, ,-36, ,
2, ,-36, ,
2, ,-36, ,
1, ,-36, ,
2, ,-36, ,
1, ,-36, ,
2, ,-36, ,
2, ,-36, ,
2, ,-37, ,
1, ,-36, ,
2, ,-36, ,
1, ,-37, ,
1, ,-36, ,
2, ,-36, ,
2, ,-36, ,
1, ,-36, ,
2, ,-36, ,
1, ,-36, ,
2, ,-36, ,
2, ,-36, ,
2, ,-37, ,
1, ,-36, ,
2, ,-36, ,
1, ,-36, ,
2, ,-36, ,
2, ,-36, ,
2, ,-36, ,
1, ,-36, ,
2, ,-36, ,
1, ,-37, ,
1, ,-36, ,
2, ,-36, ,
2, ,-37, ,
1, ,-36, ,
2, ,-36, ,
1, ,-36, ,
1, ,-36, ,
2, ,-36, ,
2, ,-36, ,
1, ,-36, ,
2, ,-36, ,
1, ,-36, ,
2, ,-36, ,
2, ,-36, ,
2, ,-37, ,
1, ,-35, ,
2, ,-36, ,
1, ,-36, ,
1, ,-36, ,
2, ,-36, ,
2, ,-36, ,
1, ,-36, ,
2, ,-36, ,
1, ,-36, ,
2, ,-36, ,
2, ,-36, ,
2, ,-37, ,
1, ,-35, ,
2, ,-36, ,
1, ,-37, ,
1, ,-36, ,
2, ,-36, ,
2, ,-36, ,
1, ,-36, ,
2, ,-36, ,
1, ,-36, ,
2, ,-36, ,
2, ,-36, ,
2, ,-36, ,
1, ,-35, ,
2, ,-36, ,
1, ,-37, ,
1, ,-36, ,
2, ,-36, ,
2, ,-36, ,
1, ,-36, ,
2, ,-36, ,
1, ,-36, ,
1, ,-36, ,
2, ,-36, ,
2, ,-37, ,
1, ,-36, ,
2, ,-36, ,
1, ,-36, ,
2, ,-36, ,
2, ,-36, ,
2, ,-36, ,
1, ,-36, ,
2, ,-36, ,
1, ,-36, ,
1, ,-36, ,
2, ,-36, ,
2, ,-36, ,
1, ,-36, ,
2, ,-36, ,
1, ,-36, ,
2, ,-36, ,
2, ,-36, ,
1, ,-36, ,
1, ,-36, ,
2, ,-36, ,
1, ,-36, ,
2, ,-36, ,
2, ,-36, ,
2, ,-36, ,
1, ,-36, ,
2, ,-36, ,
1, ,-37, ,
2, ,-36, ,
2, ,-36, ,
2, ,-36, ,
1, ,-36, ,
2, ,-36, ,
1, ,-36, ,
1, ,-36, ,
2, ,-36, ,
2, ,-37, ,
1, ,-35, ,
2, ,-36, ,
1, ,-36, ,
1, ,-36, ,
2, ,-36, ,
1, ,-36, ,
1, ,-36, ,
2, ,-36, ,
1, ,-36, ,
2, ,-36, ,
2, ,-36, ,
1, ,-37, ,
-1, ,-35, ,
2, ,-36, ,
1, ,-36, ,
1, ,-36, ,
2, ,-36, ,
2, ,-36, ,
1, ,-36, ,
2, ,-36, ,
1, ,-36, ,
1, ,-36, ,
1, ,-36, ,
2, ,-37, ,
1, ,-36, ,
2, ,-36, ,
1, ,-36, ,
1, ,-36, ,
2, ,-36, ,
2, ,-36, ,
-1, ,-36, ,
2, ,-36, ,
1, ,-36, ,
1, ,-36, ,
2, ,-36, ,
2, ,-37, ,
1, ,-36, ,
2, ,-36, ,
1, ,-36, ,
1, ,-36, ,
2, ,-36, ,
1, ,-36, ,
1, ,-36, ,
2, ,-36, ,
1, ,-36, ,
1, ,-36, ,
2, ,-36, ,
2, ,-37, ,
1, ,-35, ,
2, ,-36, ,
1, ,-36, ,
1, ,-36, ,
2, ,-36, ,
1, ,-36, ,
-1, ,-36, ,
2, ,-36, ,
1, ,-36, ,
1, ,-36, ,
2, ,-36, ,
1, ,-37, ,
1, ,-35, ,
2, ,-36, ,
1, ,-36, ,
1, ,-36, ,
2, ,-36, ,
1, ,-36, ,
-1, ,-36, ,
2, ,-36, ,
1, ,-36, ,
1, ,-36, ,
2, ,-36, ,
1, ,-37, ,
-1, ,-36, ,
2, ,-36, ,
1, ,-36, ,
1, ,-36, ,
2, ,-36, ,
1, ,-36, ,
-1, ,-36, ,
2, ,-36, ,
1, ,-36, ,
1, ,-36, ,
1, ,-36, ,
1, ,-37, ,
1, ,-35, ,
2, ,-36, ,
1, ,-36, ,
1, ,-36, ,
2, ,-36, ,
1, ,-36, ,
-1, ,-36, ,
2, ,-36, ,
1, ,-36, ,
1, ,-36, ,
2, ,-36, ,
1, ,-37, ,
1, ,-36, ,
2, ,-36, ,
1, ,-36, ,
1, ,-36, ,
2, ,-36, ,
1, ,-36, ,
1, ,-36, ,
2, ,-36, ,
1, ,-36, ,
1, ,-36, ,
1, ,-36, ,
1, ,-37, ,
-1, ,-36, ,
2, ,-36, ,
1, ,-37, ,
1, ,-36, ,
2, ,-36, ,
1, ,-36, ,
-1, ,-36, ,
2, ,-36, ,
1, ,-36, ,
1, ,-36, ,
1, ,-36, ,
1, ,-37, ,
-1, ,-36, ,
2, ,-36, ,
1, ,-36, ,
1, ,-36, ,
1, ,-36, ,
2, ,-36, ,
-1, ,-36, ,
2, ,-36, ,
1, ,-36, ,
1, ,-36, ,
1, ,-36, ,
1, ,-37, ,
-1, ,-36, ,
2, ,-36, ,
1, ,-36, ,
1, ,-36, ,
2, ,-36, ,
2, ,-37, ,
-1, ,-36, ,
2, ,-36, ,
1, ,-36, ,
1, ,-36, ,
2, ,-36, ,
1, ,-36, ,
-1, ,-36, ,
2, ,-36, ,
1, ,-36, ,
1, ,-36, ,
1, ,-36, ,
1, ,-36, ,
-1, ,-36, ,
2, ,-36, ,
1, ,-36, ,
1, ,-36, ,
1, ,-36, ,
1, ,-36, ,
-1, ,-35, ,
1, ,-36, ,
1, ,-37, ,
1, ,-36, ,
1, ,-36, ,
1, ,-36, ,
-1, ,-36, ,
2, ,-36, ,
1, ,-36, ,
1, ,-36, ,
1, ,-36, ,
2, ,-37, ,
-1, ,-36, ,
2, ,-36, ,
1, ,-36, ,
1, ,-36, ,
1, ,-36, ,
1, ,-36, ,
-1, ,-36, ,
2, ,-36, ,
1, ,-36, ,
1, ,-36, ,
1, ,-36, ,
1, ,-37, ,
-1, ,-36, ,
2, ,-36, ,
1, ,-37, ,
1, ,-36, ,
1, ,-36, ,
1, ,-36, ,
-1, ,-36, ,
2, ,-36, ,
1, ,-36, ,
1, ,-36, ,
1, ,-36, ,
1, ,-37, ,
-1, ,-36, ,
2, ,-36, ,
1, ,-36, ,
1, ,-36, ,
2, ,-36, ,
1, ,-36, ,
-1, ,-36, ,
2, ,-36, ,
1, ,-36, ,
1, ,-36, ,
2, ,-36, ,
1, ,-37, ,
-1, ,-36, ,
2, ,-36, ,
-1, ,-36, ,
1, ,-36, ,
1, ,-36, ,
1, ,-36, ,
-1, ,-36, ,
2, ,-36, ,
1, ,-36, ,
1, ,-36, ,
2, ,-36, ,
2, ,-37, ,
-1, ,-36, ,
2, ,-36, ,
-1, ,-36, ,
1, ,-36, ,
1, ,-36, ,
1, ,-37, ,
-1, ,-36, ,
2, ,-36, ,
1, ,-36, ,
1, ,-36, ,
1, ,-36, ,
1, ,-37, ,
-1, ,-36, ,
2, ,-36, ,
1, ,-36, ,
1, ,-36, ,
2, ,-36, ,
1, ,-36, ,
-1, ,-36, ,
2, ,-36, ,
1, ,-36, ,
1, ,-36, ,
1, ,-36, ,
1, ,-36, ,
-1, ,-36, ,
2, ,-36, ,
1, ,-36, ,
1, ,-36, ,
1, ,-36, ,
1, ,-36, ,
-1, ,-36, ,
2, ,-36, ,
1, ,-36, ,
1, ,-36, ,
1, ,-36, ,
1, ,-36, ,
-1, ,-36, ,
1, ,-36, ,
1, ,-36, ,
1, ,-36, ,
1, ,-36, ,
1, ,-37, ,
-1, ,-36, ,
2, ,-36, ,
1, ,-36, ,
1, ,-36, ,
1, ,-36, ,
1, ,-36, ,
-1, ,-36, ,
2, ,-36, ,
1, ,-36, ,
1, ,-36, ,
1, ,-36, ,
1, ,-36, ,
-1, ,-36, ,
2, ,-36, ,
1, ,-36, ,
1, ,-36, ,
1, ,-36, ,
1, ,-36, ,
-1, ,-36, ,
2, ,-36, ,
-1, ,-36, ,
1, ,-36, ,
2, ,-36, ,
1, ,-36, ,
-1, ,-36, ,
2, ,-36, ,
1, ,-36, ,
1, ,-36, ,
1, ,-36, ,
1, ,-37, ,
-1, ,-36, ,
2, ,-36, ,
-1, ,-36, ,
1, ,-36, ,
1, ,-36, ,
1, ,-36, ,
-1, ,-36, ,
2, ,-36, ,
-1, ,-36, ,
1, ,-36, ,
1, ,-36, ,
1, ,-37, ,
-1, ,-36, ,
1, ,-36, ,
-1, ,-36, ,
1, ,-36, ,
1, ,-36, ,
1, ,-36, ,
-1, ,-36, ,
2, ,-36, ,
1, ,-36, ,
-1, ,-36, ,
1, ,-36, ,
1, ,-37, ,
-1, ,-36, ,
1, ,-36, ,
-1, ,-36, ,
1, ,-36, ,
1, ,-36, ,
1, ,-37, ,
-1, ,-36, ,
2, ,-36, ,
1, ,-36, ,
1, ,-36, ,
1, ,-36, ,
1, ,-37, ,
-1, ,-36, ,
1, ,-36, ,
-1, ,-36, ,
1, ,-36, ,
2, ,-36, ,
1, ,-37, ,
-1, ,-36, ,
2, ,-36, ,
1, ,-36, ,
1, ,-36, ,
1, ,-36, ,
1, ,-37, ,
-1, ,-36, ,
1, ,-36, ,
1, ,-36, ,
1, ,-36, ,
1, ,-36, ,
1, ,-36, ,
-1, ,-36, ,
2, ,-36, ,
-1, ,-36, ,
1, ,-36, ,
1, ,-36, ,
1, ,-37, ,
-1, ,-36, ,
2, ,-36, ,
-1, ,-36, ,
1, ,-36, ,
2, ,-36, ,
1, ,-37, ,
-1, ,-36, ,
2, ,-36, ,
1, ,-36, ,
1, ,-36, ,
1, ,-36, ,
1, ,-37, ,
-1, ,-36, ,
2, ,-36, ,
1, ,-36, ,
1, ,-36, ,
1, ,-34, ,
1, ,-17, ,
-1, ,2, ,
2, ,16, ,
1, ,26, ,
1, ,35, ,
2, ,40, ,
1, ,44, ,
-1, ,47, ,
2, ,51, ,
1, ,52, ,
1, ,54, ,
1, ,55, ,
1, ,56, ,
-1, ,55, ,
1, ,56, ,
1, ,57, ,
-1, ,57, ,
1, ,57, ,
1, ,58, ,
-1, ,57, ,
2, ,57, ,
1, ,57, ,
1, ,57, ,
1, ,57, ,
1, ,58, ,
-1, ,56, ,
1, ,58, ,
1, ,57, ,
1, ,57, ,
1, ,57, ,
1, ,58, ,
-1, ,56, ,
2, ,57, ,
1, ,58, ,
1, ,57, ,
1, ,57, ,
1, ,58, ,
-1, ,57, ,
1, ,58, ,
1, ,57, ,
1, ,56, ,
1, ,57, ,
-1, ,58, ,
-1, ,56, ,
1, ,57, ,
-1, ,57, ,
1, ,57, ,
2, ,57, ,
1, ,57, ,
-1, ,56, ,
2, ,57, ,
1, ,57, ,
-1, ,56, ,
1, ,57, ,
1, ,57, ,
-1, ,56, ,
1, ,57, ,
1, ,57, ,
1, ,56, ,
1, ,57, ,
-1, ,57, ,
-1, ,56, ,
1, ,57, ,
-1, ,57, ,
-1, ,56, ,
1, ,57, ,
1, ,57, ,
-1, ,56, ,
2, ,57, ,
1, ,58, ,
-1, ,57, ,
1, ,57, ,
1, ,58, ,
-1, ,56, ,
2, ,57, ,
1, ,57, ,
1, ,56, ,
1, ,57, ,
1, ,57, ,
-1, ,56, ,
1, ,57, ,
1, ,58, ,
1, ,56, ,
1, ,57, ,
1, ,57, ,
-1, ,56, ,
1, ,57, ,
1, ,58, ,
-1, ,56, ,
1, ,57, ,
1, ,57, ,
-1, ,56, ,
1, ,57, ,
1, ,58, ,
1, ,57, ,
1, ,57, ,
1, ,57, ,
-1, ,56, ,
2, ,57, ,
1, ,57, ,
1, ,56, ,
2, ,57, ,
1, ,57, ,
-1, ,56, ,
2, ,57, ,
1, ,57, ,
1, ,57, ,
2, ,57, ,
1, ,57, ,
-1, ,56, ,
1, ,57, ,
1, ,58, ,
1, ,56, ,
1, ,57, ,
1, ,58, ,
-1, ,56, ,
1, ,57, ,
1, ,57, ,
1, ,56, ,
1, ,57, ,
1, ,57, ,
-1, ,56, ,
2, ,57, ,
1, ,57, ,
-1, ,57, ,
1, ,57, ,
1, ,58, ,
-1, ,56, ,
1, ,57, ,
-1, ,57, ,
1, ,57, ,
1, ,57, ,
1, ,57, ,
-1, ,56, ,
2, ,57, ,
1, ,57, ,
-1, ,57, ,
1, ,57, ,
1, ,57, ,
-1, ,56, ,
2, ,57, ,
1, ,57, ,
1, ,56, ,
2, ,57, ,
1, ,57, ,
-1, ,56, ,
1, ,57, ,
1, ,57, ,
-1, ,56, ,
2, ,57, ,
1, ,58, ,
-1, ,56, ,
1, ,57, ,
1, ,57, ,
1, ,45, ,
1, ,25, ,
-1, ,9, ,
-1, ,-2, ,
1, ,-11, ,
1, ,-18, ,
-1, ,-23, ,
1, ,-26, ,
1, ,-30, ,
-1, ,-31, ,
2, ,-33, ,
-1, ,-34, ,
1, ,-35, ,
1, ,-35, ,
1, ,-36, ,
-1, ,-36, ,
1, ,-37, ,
1, ,-37, ,
-1, ,-37, ,
1, ,-37, ,
1, ,-37, ,
-1, ,-36, ,
1, ,-37, ,
-1, ,-37, ,
1, ,-37, ,
1, ,-37, ,
1, ,-37, ,
-1, ,-37, ,
2, ,-37, ,
-1, ,-37, ,
-1, ,-37, ,
1, ,-37, ,
1, ,-37, ,
-1, ,-36, ,
2, ,-37, ,
-1, ,-37, ,
-1, ,-37, ,
1, ,-36, ,
1, ,-37, ,
-1, ,-37, ,
1, ,-37, ,
-1, ,-37, ,
-1, ,-36, ,
1, ,-37, ,
1, ,-37, ,
-1, ,-36, ,
2, ,-36, ,
-1, ,-37, ,
-1, ,-36, ,
1, ,-36, ,
1, ,-37, ,
-1, ,-37, ,
1, ,-36, ,
-1, ,-36, ,
-1, ,-36, ,
1, ,-37, ,
1, ,-37, ,
-1, ,-36, ,
2, ,-36, ,
-1, ,-37, ,
-1, ,-36, ,
1, ,-36, ,
1, ,-37, ,
-1, ,-37, ,
2, ,-36, ,
-1, ,-36, ,
1, ,-36, ,
1, ,-37, ,
1, ,-37, ,
-1, ,-36, ,
2, ,-36, ,
-1, ,-37, ,
-1, ,-36, ,
1, ,-36, ,
1, ,-37, ,
-1, ,-37, ,
1, ,-36, ,
-1, ,-36, ,
1, ,-36, ,
1, ,-36, ,
1, ,-37, ,
-1, ,-36, ,
1, ,-36, ,
-1, ,-37, ,
1, ,-36, ,
1, ,-36, ,
1, ,-37, ,
-1, ,-36, ,
2, ,-36, ,
1, ,-36, ,
1, ,-36, ,
1, ,-36, ,
1, ,-37, ,
-1, ,-36, ,
1, ,-36, ,
-1, ,-37, ,
1, ,-36, ,
1, ,-36, ,
2, ,-37, ,
-1, ,-37, ,
2, ,-36, ,
-1, ,-36, ,
1, ,-36, ,
1, ,-36, ,
1, ,-37, ,
-1, ,-36, ,
1, ,-36, ,
-1, ,-37, ,
1, ,-36, ,
1, ,-36, ,
1, ,-37, ,
-1, ,-36, ,
1, ,-36, ,
-1, ,-36, ,
-1, ,-36, ,
1, ,-36, ,
1, ,-37, ,
-1, ,-36, ,
1, ,-36, ,
-1, ,-37, ,
-1, ,-36, ,
1, ,-36, ,
1, ,-37, ,
-1, ,-36, ,
2, ,-36, ,
-1, ,-36, ,
-1, ,-36, ,
1, ,-37, ,
1, ,-37, ,
-1, ,-36, ,
1, ,-36, ,
-1, ,-37, ,
-1, ,-36, ,
1, ,-36, ,
1, ,-36, ,
-1, ,-36, ,
2, ,-36, ,
-1, ,-36, ,
-1, ,-36, ,
1, ,-37, ,
1, ,-37, ,
-1, ,-36, ,
1, ,-36, ,
-1, ,-37, ,
-1, ,-36, ,
1, ,-36, ,
1, ,-36, ,
-1, ,-37, ,
2, ,-37, ,
-1, ,-36, ,
-1, ,-36, ,
1, ,-36, ,
1, ,-36, ,
-1, ,-36, ,
1, ,-36, ,
-1, ,-37, ,
1, ,-36, ,
1, ,-36, ,
1, ,-36, ,
-1, ,-37, ,
1, ,-36, ,
-1, ,-36, ,
-1, ,-36, ,
1, ,-36, ,
1, ,-36, ,
-1, ,-36, ,
1, ,-36, ,
-1, ,-37, ,
1, ,-36, ,
1, ,-36, ,
1, ,-37, ,
-1, ,-36, ,
1, ,-36, ,
-1, ,-36, ,
-1, ,-36, ,
1, ,-36, ,
1, ,-37, ,
-1, ,-36, ,
1, ,-36, ,
-1, ,-37, ,
-1, ,-36, ,
1, ,-36, ,
1, ,-36, ,
-1, ,-36, ,
2, ,-36, ,
-1, ,-37, ,
-1, ,-36, ,
1, ,-36, ,
1, ,-37, ,
-1, ,-36, ,
1, ,-36, ,
-1, ,-36, ,
-1, ,-36, ,
1, ,-36, ,
1, ,-36, ,
-1, ,-37, ,
1, ,-36, ,
-1, ,-36, ,
1, ,-36, ,
1, ,-36, ,
1, ,-37, ,
-1, ,-36, ,
2, ,-36, ,
-1, ,-37, ,
-1, ,-36, ,
1, ,-36, ,
1, ,-36, ,
-1, ,-36, ,
2, ,-36, ,
-1, ,-37, ,
1, ,-36, ,
1, ,-36, ,
1, ,-37, ,
-1, ,-36, ,
1, ,-36, ,
-1, ,-37, ,
1, ,-36, ,
1, ,-36, ,
1, ,-37, ,
-1, ,-37, ,
2, ,-36, ,
1, ,-36, ,
1, ,-36, ,
1, ,-36, ,
1, ,-37, ,
-1, ,-36, ,
1, ,-36, ,
-1, ,-37, ,
1, ,-36, ,
1, ,-36, ,
1, ,-36, ,
-1, ,-37, ,
1, ,-36, ,
1, ,-36, ,
1, ,-36, ,
1, ,-36, ,
1, ,-37, ,
-1, ,-36, ,
1, ,-36, ,
-1, ,-37, ,
1, ,-36, ,
1, ,-36, ,
1, ,-36, ,
-1, ,-37, ,
2, ,-36, ,
1, ,-36, ,
76, ,-36, ,
48, ,-36, ,
30, ,-37, ,
18, ,-36, ,
13, ,-36, ,
8, ,-37, ,
6, ,-36, ,
5, ,-36, ,
3, ,-36, ,
2, ,-36, ,
5, ,-36, ,
2, ,-36, ,
2, ,-36, ,
3, ,-36, ,
3, ,-37, ,
2, ,-36, ,
3, ,-36, ,
2, ,-37, ,
2, ,-36, ,
2, ,-36, ,
3, ,-36, ,
1, ,-37, ,
3, ,-36, ,
2, ,-36, ,
2, ,-36, ,
3, ,-36, ,
3, ,-37, ,
2, ,-36, ,
3, ,-36, ,
2, ,-36, ,
2, ,-36, ,
2, ,-36, ,
3, ,-36, ,
1, ,-37, ,
3, ,-36, ,
2, ,-36, ,
2, ,-36, ,
2, ,-36, ,
3, ,-36, ,
1, ,-36, ,
3, ,-36, ,
2, ,-37, ,
2, ,-36, ,
2, ,-36, ,
3, ,-37, ,
1, ,-36, ,
3, ,-36, ,
2, ,-36, ,
2, ,-36, ,
2, ,-36, ,
3, ,-37, ,
1, ,-36, ,
3, ,-36, ,
2, ,-37, ,
2, ,-36, ,
2, ,-36, ,
3, ,-36, ,
1, ,-37, ,
3, ,-36, ,
2, ,-36, ,
2, ,-36, ,
2, ,-36, ,
2, ,-37, ,
1, ,-36, ,
3, ,-36, ,
2, ,-37, ,
2, ,-36, ,
3, ,-36, ,
2, ,-36, ,
1, ,-36, ,
3, ,-36, ,
2, ,-36, ,
2, ,-36, ,
2, ,-36, ,
2, ,-37, ,
1, ,-36, ,
3, ,-36, ,
2, ,-37, ,
2, ,-36, ,
2, ,-36, ,
2, ,-36, ,
1, ,-36, ,
3, ,-36, ,
2, ,-36, ,
2, ,-36, ,
2, ,-36, ,
2, ,-37, ,
1, ,-36, ,
3, ,-36, ,
2, ,-37, ,
2, ,-36, ,
3, ,-36, ,
2, ,-36, ,
1, ,-36, ,
3, ,-36, ,
2, ,-36, ,
2, ,-36, ,
2, ,-36, ,
2, ,-37, ,
1, ,-36, ,
3, ,-36, ,
2, ,-37, ,
2, ,-36, ,
2, ,-36, ,
2, ,-36, ,
1, ,-37, ,
3, ,-36, ,
2, ,-36, ,
2, ,-36, ,
2, ,-36, ,
2, ,-37, ,
1, ,-36, ,
2, ,-36, ,
1, ,-37, ,
2, ,-36, ,
2, ,-36, ,
2, ,-36, ,
1, ,-36, ,
2, ,-36, ,
2, ,-36, ,
2, ,-36, ,
2, ,-36, ,
2, ,-37, ,
1, ,-36, ,
3, ,-36, ,
2, ,-37, ,
1, ,-36, ,
3, ,-36, ,
2, ,-36, ,
1, ,-36, ,
3, ,-36, ,
1, ,-36, ,
1, ,-36, ,
2, ,-36, ,
2, ,-37, ,
1, ,-36, ,
2, ,-36, ,
1, ,-37, ,
2, ,-36, ,
2, ,-36, ,
2, ,-36, ,
1, ,-37, ,
2, ,-36, ,
1, ,-36, ,
2, ,-36, ,
2, ,-36, ,
2, ,-37, ,
1, ,-36, ,
3, ,-36, ,
2, ,-37, ,
2, ,-36, ,
2, ,-36, ,
2, ,-36, ,
1, ,-37, ,
2, ,-36, ,
1, ,-36, ,
1, ,-36, ,
2, ,-36, ,
2, ,-37, ,
1, ,-36, ,
2, ,-36, ,
1, ,-37, ,
1, ,-36, ,
2, ,-36, ,
2, ,-37, ,
1, ,-37, ,
2, ,-36, ,
1, ,-37, ,
2, ,-36, ,
2, ,-36, ,
2, ,-37, ,
1, ,-36, ,
2, ,-36, ,
1, ,-37, ,
2, ,-36, ,
2, ,-36, ,
2, ,-37, ,
1, ,-36, ,
2, ,-36, ,
1, ,-37, ,
2, ,-36, ,
2, ,-36, ,
2, ,-37, ,
1, ,-36, ,
2, ,-36, ,
1, ,-37, ,
1, ,-36, ,
2, ,-36, ,
2, ,-37, ,
1, ,-37, ,
2, ,-36, ,
1, ,-37, ,
1, ,-36, ,
2, ,-36, ,
2, ,-37, ,
1, ,-36, ,
2, ,-36, ,
1, ,-37, ,
1, ,-36, ,
2, ,-36, ,
2, ,-36, ,
1, ,-36, ,
2, ,-36, ,
1, ,-36, ,
2, ,-36, ,
2, ,-36, ,
2, ,-37, ,
1, ,-36, ,
2, ,-36, ,
1, ,-37, ,
2, ,-36, ,
2, ,-36, ,
1, ,-37, ,
1, ,-36, ,
2, ,-36, ,
1, ,-36, ,
1, ,-36, ,
2, ,-36, ,
2, ,-37, ,
1, ,-36, ,
2, ,-36, ,
1, ,-37, ,
2, ,-36, ,
2, ,-36, ,
1, ,-37, ,
-1, ,-36, ,
2, ,-36, ,
1, ,-36, ,
1, ,-36, ,
2, ,-36, ,
2, ,-37, ,
1, ,-36, ,
2, ,-36, ,
1, ,-37, ,
1, ,-36, ,
2, ,-36, ,
2, ,-37, ,
1, ,-37, ,
2, ,-36, ,
1, ,-37, ,
2, ,-36, ,
2, ,-36, ,
2, ,-37, ,
