src/varyamp_1560/temp0000649.CSV

Format,1.0B,
Memory Length,10000,Memory Length,10000,
IntpDistance,0,IntpDistance,0,
Trigger Address,4999,Trigger Address,4999,
Trigger Level,1.040E+00,Trigger Level,1.040E+00,
Source,CH1,Source,CH2,
Vertical Units,V,Vertical Units,V,
Vertical Units Div,0,Vertical Units Div,0,
Vertical Units Extend Div,16,Vertical Units Extend Div,16,
Label,,Label,,
Probe Type,0,Probe Type,0,
Probe Ratio,1.000e+01,Probe Ratio,1.000e+00,
Vertical Scale,5.000e-01,Vertical Scale,1.000e+00,
Vertical Position,-1.820e+00,Vertical Position,0.000e+00,
Horizontal Units,S,Horizontal Units,S,
Horizontal Scale,2.000E-05,Horizontal Scale,2.000E-05,
Horizontal Position,0.000E+00,Horizontal Position,0.000E+00,
Horizontal Mode,Main,Horizontal Mode,Main,
SincET Mode,Real Time,SincET Mode,Real Time,
Sampling Period,2.000e-08,Sampling Period,2.000e-08,
Horizontal Old Scale,2.000E-05,Horizontal Old Scale,2.000E-05,
Horizontal Old Position,0.000E+00,Horizontal Old Position,0.000E+00,
Firmware,V1.23,Firmware,V1.23,
Mode,Fast,Mode,Fast,
Waveform Data,,Waveform Data,,
-1, ,-59, ,
1, ,-59, ,
1, ,-59, ,
-1, ,-59, ,
1, ,-59, ,
-1, ,-59, ,
-1, ,-59, ,
1, ,-59, ,
1, ,-59, ,
-1, ,-59, ,
1, ,-60, ,
-1, ,-58, ,
-1, ,-59, ,
1, ,-59, ,
1, ,-59, ,
-1, ,-58, ,
1, ,-60, ,
-1, ,-59, ,
1, ,-59, ,
1, ,-59, ,
1, ,-59, ,
-1, ,-59, ,
2, ,-60, ,
-1, ,-58, ,
-1, ,-59, ,
1, ,-59, ,
2, ,-59, ,
-1, ,-59, ,
1, ,-59, ,
-1, ,-59, ,
-1, ,-59, ,
1, ,-59, ,
1, ,-59, ,
-1, ,-59, ,
1, ,-60, ,
-1, ,-59, ,
-1, ,-59, ,
1, ,-59, ,
1, ,-59, ,
-1, ,-58, ,
2, ,-59, ,
-1, ,-59, ,
-1, ,-59, ,
1, ,-59, ,
1, ,-59, ,
-1, ,-59, ,
1, ,-59, ,
-1, ,-59, ,
-1, ,-59, ,
1, ,-59, ,
1, ,-59, ,
-1, ,-59, ,
1, ,-59, ,
-1, ,-59, ,
-1, ,-59, ,
1, ,-59, ,
1, ,-59, ,
-1, ,-59, ,
2, ,-59, ,
-1, ,-59, ,
-1, ,-59, ,
1, ,-59, ,
1, ,-59, ,
-1, ,-58, ,
1, ,-59, ,
-1, ,-59, ,
1, ,-59, ,
1, ,-59, ,
1, ,-59, ,
-1, ,-59, ,
1, ,-60, ,
-1, ,-58, ,
-1, ,-59, ,
1, ,-59, ,
1, ,-59, ,
-1, ,-59, ,
1, ,-59, ,
-1, ,-59, ,
-1, ,-59, ,
1, ,-59, ,
1, ,-59, ,
-1, ,-59, ,
1, ,-60, ,
-1, ,-59, ,
-1, ,-59, ,
1, ,-59, ,
1, ,-59, ,
-1, ,-59, ,
1, ,-59, ,
-1, ,-59, ,
-1, ,-59, ,
1, ,-59, ,
1, ,-59, ,
-1, ,-59, ,
1, ,-60, ,
-1, ,-58, ,
-1, ,-59, ,
1, ,-59, ,
1, ,-59, ,
-1, ,-59, ,
2, ,-59, ,
-1, ,-59, ,
-1, ,-59, ,
1, ,-59, ,
1, ,-59, ,
-1, ,-59, ,
1, ,-59, ,
-1, ,-59, ,
-1, ,-59, ,
1, ,-59, ,
1, ,-59, ,
-2, ,-59, ,
1, ,-60, ,
-1, ,-59, ,
-1, ,-59, ,
1, ,-59, ,
1, ,-59, ,
-1, ,-59, ,
1, ,-60, ,
-1, ,-59, ,
-1, ,-59, ,
1, ,-59, ,
1, ,-59, ,
-1, ,-59, ,
1, ,-59, ,
-1, ,-59, ,
-1, ,-59, ,
1, ,-59, ,
1, ,-59, ,
-1, ,-59, ,
1, ,-60, ,
-1, ,-58, ,
-1, ,-59, ,
1, ,-59, ,
1, ,-59, ,
-1, ,-58, ,
2, ,-59, ,
-1, ,-59, ,
-1, ,-59, ,
1, ,-59, ,
1, ,-59, ,
-1, ,-59, ,
1, ,-60, ,
-1, ,-59, ,
-1, ,-59, ,
1, ,-60, ,
1, ,-59, ,
-1, ,-58, ,
1, ,-59, ,
-1, ,-59, ,
-1, ,-59, ,
1, ,-59, ,
1, ,-59, ,
-1, ,-59, ,
1, ,-60, ,
-1, ,-58, ,
-1, ,-59, ,
1, ,-59, ,
1, ,-59, ,
-1, ,-59, ,
1, ,-59, ,
-1, ,-59, ,
-1, ,-59, ,
1, ,-59, ,
1, ,-59, ,
-1, ,-59, ,
1, ,-59, ,
-1, ,-59, ,
-1, ,-59, ,
1, ,-59, ,
1, ,-59, ,
-1, ,-59, ,
2, ,-59, ,
-1, ,-59, ,
-1, ,-59, ,
1, ,-59, ,
1, ,-59, ,
-1, ,-59, ,
1, ,-59, ,
-1, ,-58, ,
-1, ,-59, ,
1, ,-59, ,
1, ,-59, ,
-1, ,-59, ,
2, ,-59, ,
-1, ,-59, ,
-1, ,-59, ,
1, ,-59, ,
1, ,-59, ,
-1, ,-59, ,
2, ,-60, ,
-1, ,-59, ,
-1, ,-59, ,
1, ,-59, ,
1, ,-59, ,
-1, ,-59, ,
1, ,-59, ,
-1, ,-59, ,
-1, ,-59, ,
1, ,-59, ,
1, ,-59, ,
-1, ,-59, ,
2, ,-60, ,
-1, ,-59, ,
-1, ,-59, ,
1, ,-59, ,
2, ,-59, ,
-1, ,-59, ,
1, ,-59, ,
-1, ,-59, ,
-1, ,-59, ,
1, ,-59, ,
1, ,-59, ,
-1, ,-59, ,
1, ,-60, ,
-1, ,-59, ,
-1, ,-59, ,
1, ,-59, ,
1, ,-59, ,
-1, ,-59, ,
1, ,-59, ,
-1, ,-59, ,
-1, ,-59, ,
1, ,-59, ,
1, ,-59, ,
-1, ,-59, ,
1, ,-60, ,
-1, ,-59, ,
-1, ,-59, ,
1, ,-59, ,
1, ,-59, ,
-1, ,-58, ,
1, ,-59, ,
-1, ,-59, ,
-1, ,-59, ,
1, ,-59, ,
1, ,-59, ,
-1, ,-59, ,
1, ,-60, ,
-1, ,-58, ,
-1, ,-59, ,
1, ,-59, ,
1, ,-59, ,
-1, ,-59, ,
1, ,-59, ,
-1, ,-59, ,
-1, ,-59, ,
1, ,-59, ,
1, ,-59, ,
-1, ,-59, ,
1, ,-59, ,
-1, ,-59, ,
-1, ,-59, ,
1, ,-59, ,
1, ,-59, ,
-1, ,-58, ,
1, ,-59, ,
-1, ,-59, ,
-1, ,-59, ,
1, ,-59, ,
1, ,-59, ,
-1, ,-59, ,
1, ,-60, ,
-1, ,-59, ,
-1, ,-59, ,
1, ,-60, ,
1, ,-59, ,
-1, ,-59, ,
1, ,-60, ,
-1, ,-59, ,
-1, ,-59, ,
1, ,-59, ,
1, ,-59, ,
-1, ,-59, ,
1, ,-60, ,
-1, ,-59, ,
-1, ,-59, ,
1, ,-59, ,
1, ,-59, ,
-1, ,-59, ,
1, ,-59, ,
-1, ,-59, ,
-1, ,-59, ,
1, ,-59, ,
1, ,-59, ,
-1, ,-59, ,
1, ,-59, ,
-1, ,-58, ,
-1, ,-59, ,
1, ,-59, ,
1, ,-59, ,
-1, ,-59, ,
2, ,-60, ,
-1, ,-59, ,
-1, ,-59, ,
1, ,-59, ,
1, ,-59, ,
-1, ,-59, ,
2, ,-59, ,
-1, ,-59, ,
-1, ,-59, ,
1, ,-59, ,
1, ,-59, ,
-1, ,-57, ,
2, ,-41, ,
-1, ,-21, ,
1, ,-7, ,
1, ,3, ,
1, ,12, ,
-1, ,18, ,
2, ,22, ,
1, ,25, ,
1, ,27, ,
1, ,30, ,
1, ,31, ,
-1, ,32, ,
2, ,33, ,
-1, ,34, ,
-1, ,34, ,
1, ,34, ,
1, ,34, ,
-1, ,34, ,
1, ,35, ,
-1, ,35, ,
-1, ,34, ,
1, ,35, ,
1, ,35, ,
-1, ,34, ,
2, ,35, ,
-1, ,35, ,
-1, ,34, ,
1, ,35, ,
1, ,35, ,
-1, ,34, ,
1, ,34, ,
-1, ,35, ,
-1, ,34, ,
1, ,34, ,
1, ,35, ,
-1, ,34, ,
1, ,35, ,
-1, ,34, ,
-1, ,34, ,
1, ,34, ,
1, ,34, ,
-1, ,34, ,
1, ,34, ,
-1, ,34, ,
-1, ,34, ,
1, ,34, ,
1, ,34, ,
-1, ,34, ,
2, ,34, ,
-1, ,34, ,
-1, ,34, ,
1, ,34, ,
1, ,34, ,
-1, ,34, ,
1, ,34, ,
-1, ,34, ,
-1, ,34, ,
1, ,34, ,
1, ,34, ,
-1, ,34, ,
1, ,34, ,
-1, ,34, ,
-1, ,34, ,
1, ,34, ,
1, ,34, ,
-1, ,34, ,
1, ,34, ,
-1, ,34, ,
-1, ,34, ,
1, ,34, ,
1, ,34, ,
-1, ,34, ,
2, ,34, ,
-1, ,34, ,
-1, ,34, ,
1, ,34, ,
1, ,34, ,
-1, ,34, ,
2, ,34, ,
-1, ,34, ,
-1, ,34, ,
1, ,34, ,
1, ,34, ,
-1, ,34, ,
1, ,34, ,
-1, ,34, ,
-1, ,34, ,
1, ,34, ,
1, ,34, ,
-1, ,34, ,
1, ,34, ,
-1, ,34, ,
-1, ,34, ,
1, ,34, ,
1, ,34, ,
-1, ,34, ,
2, ,34, ,
-1, ,34, ,
-1, ,34, ,
1, ,34, ,
1, ,34, ,
-1, ,34, ,
1, ,34, ,
-1, ,34, ,
-1, ,34, ,
1, ,34, ,
1, ,34, ,
-1, ,34, ,
1, ,34, ,
1, ,34, ,
-1, ,34, ,
1, ,34, ,
1, ,34, ,
-1, ,34, ,
1, ,34, ,
-1, ,34, ,
1, ,34, ,
1, ,34, ,
1, ,34, ,
-1, ,34, ,
2, ,34, ,
-1, ,34, ,
-1, ,34, ,
1, ,34, ,
1, ,34, ,
-1, ,34, ,
1, ,34, ,
-1, ,34, ,
-1, ,34, ,
1, ,34, ,
1, ,34, ,
-1, ,34, ,
1, ,34, ,
-1, ,34, ,
-1, ,34, ,
1, ,34, ,
1, ,34, ,
-1, ,34, ,
1, ,34, ,
-1, ,34, ,
-1, ,34, ,
1, ,34, ,
1, ,34, ,
-1, ,34, ,
1, ,34, ,
-1, ,34, ,
-1, ,34, ,
1, ,34, ,
1, ,34, ,
-1, ,34, ,
1, ,34, ,
-1, ,34, ,
-1, ,34, ,
1, ,34, ,
1, ,26, ,
-1, ,6, ,
1, ,-11, ,
-1, ,-23, ,
-1, ,-33, ,
1, ,-39, ,
1, ,-44, ,
-1, ,-49, ,
1, ,-52, ,
-1, ,-53, ,
1, ,-55, ,
1, ,-57, ,
1, ,-57, ,
-1, ,-58, ,
2, ,-59, ,
-1, ,-59, ,
-1, ,-59, ,
1, ,-60, ,
1, ,-59, ,
-1, ,-59, ,
1, ,-60, ,
-1, ,-59, ,
-1, ,-60, ,
1, ,-60, ,
1, ,-60, ,
-1, ,-59, ,
1, ,-60, ,
-1, ,-59, ,
1, ,-59, ,
1, ,-60, ,
1, ,-60, ,
-1, ,-60, ,
1, ,-60, ,
-1, ,-59, ,
-1, ,-60, ,
1, ,-60, ,
1, ,-59, ,
-1, ,-59, ,
1, ,-59, ,
-1, ,-59, ,
-1, ,-60, ,
1, ,-59, ,
1, ,-59, ,
-1, ,-59, ,
1, ,-60, ,
-1, ,-59, ,
-1, ,-59, ,
1, ,-60, ,
1, ,-59, ,
-1, ,-59, ,
1, ,-60, ,
-1, ,-59, ,
-1, ,-59, ,
1, ,-59, ,
1, ,-59, ,
-1, ,-59, ,
1, ,-59, ,
-1, ,-59, ,
-1, ,-59, ,
1, ,-59, ,
1, ,-59, ,
-1, ,-59, ,
1, ,-60, ,
-1, ,-59, ,
-1, ,-60, ,
1, ,-59, ,
1, ,-59, ,
-1, ,-59, ,
1, ,-60, ,
-1, ,-59, ,
-1, ,-59, ,
1, ,-59, ,
1, ,-59, ,
-1, ,-59, ,
1, ,-60, ,
-1, ,-59, ,
-1, ,-59, ,
1, ,-59, ,
1, ,-59, ,
-1, ,-59, ,
1, ,-59, ,
-1, ,-58, ,
-1, ,-59, ,
1, ,-59, ,
1, ,-59, ,
-1, ,-59, ,
1, ,-60, ,
-1, ,-59, ,
-1, ,-59, ,
1, ,-59, ,
1, ,-59, ,
-1, ,-59, ,
1, ,-60, ,
-1, ,-59, ,
-1, ,-60, ,
1, ,-59, ,
1, ,-59, ,
-1, ,-59, ,
1, ,-60, ,
-1, ,-59, ,
-1, ,-59, ,
1, ,-59, ,
1, ,-59, ,
-1, ,-59, ,
1, ,-59, ,
-1, ,-59, ,
-1, ,-59, ,
1, ,-59, ,
1, ,-59, ,
-1, ,-59, ,
1, ,-59, ,
-1, ,-59, ,
-1, ,-59, ,
1, ,-59, ,
1, ,-59, ,
-1, ,-59, ,
1, ,-60, ,
-1, ,-59, ,
-1, ,-59, ,
1, ,-59, ,
1, ,-59, ,
-1, ,-59, ,
1, ,-59, ,
-1, ,-59, ,
-1, ,-59, ,
1, ,-59, ,
1, ,-59, ,
-1, ,-59, ,
1, ,-59, ,
-1, ,-59, ,
-1, ,-59, ,
1, ,-60, ,
1, ,-59, ,
-1, ,-59, ,
1, ,-60, ,
-1, ,-59, ,
1, ,-60, ,
1, ,-59, ,
1, ,-59, ,
-1, ,-59, ,
1, ,-59, ,
-1, ,-58, ,
-1, ,-59, ,
1, ,-59, ,
1, ,-59, ,
-1, ,-59, ,
2, ,-59, ,
-1, ,-59, ,
-1, ,-59, ,
1, ,-59, ,
1, ,-59, ,
-1, ,-59, ,
1, ,-60, ,
-1, ,-59, ,
-1, ,-59, ,
1, ,-59, ,
1, ,-59, ,
-1, ,-59, ,
1, ,-59, ,
-1, ,-59, ,
-1, ,-59, ,
1, ,-59, ,
1, ,-59, ,
-1, ,-59, ,
1, ,-60, ,
-1, ,-59, ,
-1, ,-59, ,
1, ,-59, ,
1, ,-59, ,
-1, ,-59, ,
1, ,-60, ,
-1, ,-59, ,
-1, ,-59, ,
1, ,-59, ,
1, ,-59, ,
-1, ,-59, ,
1, ,-59, ,
-1, ,-59, ,
-1, ,-59, ,
1, ,-59, ,
1, ,-59, ,
-1, ,-59, ,
1, ,-60, ,
-1, ,-59, ,
-1, ,-59, ,
1, ,-59, ,
1, ,-59, ,
-2, ,-59, ,
1, ,-60, ,
-1, ,-59, ,
-1, ,-59, ,
1, ,-59, ,
1, ,-59, ,
-2, ,-59, ,
1, ,-60, ,
-1, ,-59, ,
-1, ,-59, ,
1, ,-59, ,
1, ,-59, ,
-1, ,-59, ,
1, ,-59, ,
-1, ,-59, ,
-1, ,-59, ,
1, ,-59, ,
1, ,-59, ,
-1, ,-59, ,
1, ,-60, ,
-1, ,-59, ,
-1, ,-59, ,
1, ,-59, ,
1, ,-59, ,
-1, ,-59, ,
1, ,-60, ,
-1, ,-59, ,
-1, ,-59, ,
1, ,-59, ,
1, ,-59, ,
-1, ,-59, ,
1, ,-59, ,
-1, ,-59, ,
-1, ,-59, ,
1, ,-59, ,
1, ,-59, ,
-1, ,-59, ,
1, ,-59, ,
-1, ,-59, ,
-1, ,-59, ,
1, ,-59, ,
1, ,-59, ,
-1, ,-59, ,
1, ,-59, ,
-1, ,-59, ,
-1, ,-59, ,
1, ,-59, ,
1, ,-59, ,
-1, ,-59, ,
1, ,-59, ,
-1, ,-59, ,
-1, ,-59, ,
1, ,-59, ,
1, ,-59, ,
-1, ,-59, ,
1, ,-60, ,
-1, ,-59, ,
-1, ,-59, ,
1, ,-59, ,
1, ,-59, ,
-1, ,-59, ,
1, ,-60, ,
-1, ,-59, ,
-1, ,-59, ,
1, ,-59, ,
1, ,-59, ,
-1, ,-59, ,
1, ,-60, ,
-1, ,-59, ,
-1, ,-59, ,
1, ,-59, ,
1, ,-59, ,
-1, ,-59, ,
2, ,-59, ,
-1, ,-59, ,
1, ,-59, ,
1, ,-59, ,
1, ,-59, ,
-1, ,-59, ,
1, ,-60, ,
-1, ,-59, ,
-1, ,-59, ,
1, ,-59, ,
1, ,-59, ,
-1, ,-59, ,
1, ,-59, ,
-1, ,-59, ,
-1, ,-59, ,
1, ,-59, ,
1, ,-59, ,
-1, ,-59, ,
1, ,-59, ,
-1, ,-59, ,
-1, ,-59, ,
1, ,-59, ,
1, ,-59, ,
-2, ,-59, ,
1, ,-60, ,
-1, ,-58, ,
-1, ,-59, ,
1, ,-59, ,
1, ,-59, ,
-1, ,-59, ,
1, ,-59, ,
-1, ,-59, ,
-1, ,-59, ,
1, ,-59, ,
1, ,-59, ,
-1, ,-59, ,
1, ,-60, ,
-1, ,-59, ,
-1, ,-59, ,
1, ,-59, ,
1, ,-59, ,
-1, ,-59, ,
1, ,-59, ,
-1, ,-59, ,
-1, ,-59, ,
1, ,-59, ,
1, ,-59, ,
-1, ,-59, ,
1, ,-60, ,
-1, ,-59, ,
-1, ,-59, ,
1, ,-59, ,
1, ,-59, ,
-1, ,-59, ,
1, ,-59, ,
-1, ,-59, ,
-1, ,-59, ,
1, ,-59, ,
1, ,-59, ,
-1, ,-59, ,
1, ,-60, ,
-1, ,-59, ,
-1, ,-59, ,
1, ,-59, ,
1, ,-59, ,
-1, ,-59, ,
1, ,-59, ,
-1, ,-59, ,
-1, ,-59, ,
1, ,-59, ,
1, ,-59, ,
-1, ,-59, ,
1, ,-60, ,
-1, ,-58, ,
-1, ,-59, ,
1, ,-59, ,
1, ,-59, ,
-1, ,-59, ,
2, ,-59, ,
-1, ,-59, ,
-1, ,-59, ,
1, ,-59, ,
1, ,-59, ,
-1, ,-59, ,
2, ,-59, ,
-1, ,-59, ,
-1, ,-59, ,
1, ,-59, ,
1, ,-59, ,
-1, ,-59, ,
1, ,-59, ,
-1, ,-59, ,
-1, ,-59, ,
1, ,-59, ,
1, ,-59, ,
-1, ,-59, ,
1, ,-59, ,
-1, ,-59, ,
-1, ,-59, ,
1, ,-59, ,
1, ,-59, ,
-1, ,-59, ,
1, ,-59, ,
-1, ,-59, ,
-1, ,-59, ,
1, ,-59, ,
1, ,-59, ,
-1, ,-59, ,
1, ,-59, ,
-1, ,-59, ,
-1, ,-59, ,
1, ,-59, ,
1, ,-59, ,
-1, ,-59, ,
1, ,-59, ,
-1, ,-59, ,
-1, ,-59, ,
1, ,-59, ,
1, ,-59, ,
-1, ,-59, ,
1, ,-59, ,
-1, ,-59, ,
-1, ,-59, ,
1, ,-59, ,
1, ,-59, ,
-1, ,-59, ,
1, ,-59, ,
-1, ,-59, ,
-1, ,-59, ,
1, ,-59, ,
1, ,-59, ,
-1, ,-59, ,
1, ,-59, ,
-1, ,-58, ,
-1, ,-59, ,
1, ,-59, ,
1, ,-59, ,
-1, ,-59, ,
1, ,-59, ,
-1, ,-59, ,
-1, ,-59, ,
1, ,-59, ,
1, ,-59, ,
-1, ,-59, ,
1, ,-60, ,
-1, ,-58, ,
-1, ,-59, ,
1, ,-60, ,
1, ,-59, ,
-1, ,-59, ,
1, ,-60, ,
-1, ,-59, ,
-1, ,-59, ,
1, ,-59, ,
1, ,-59, ,
-1, ,-59, ,
1, ,-59, ,
-1, ,-59, ,
-1, ,-59, ,
1, ,-59, ,
1, ,-59, ,
-1, ,-59, ,
1, ,-59, ,
-1, ,-59, ,
-1, ,-59, ,
1, ,-59, ,
1, ,-59, ,
-1, ,-59, ,
1, ,-60, ,
-1, ,-59, ,
-1, ,-59, ,
1, ,-59, ,
1, ,-59, ,
-1, ,-59, ,
1, ,-59, ,
-1, ,-59, ,
-1, ,-59, ,
1, ,-59, ,
1, ,-59, ,
-1, ,-59, ,
1, ,-59, ,
-1, ,-59, ,
-1, ,-59, ,
1, ,-59, ,
1, ,-59, ,
-1, ,-59, ,
1, ,-60, ,
-1, ,-59, ,
-1, ,-59, ,
1, ,-59, ,
1, ,-59, ,
-1, ,-59, ,
1, ,-60, ,
-1, ,-59, ,
-1, ,-59, ,
1, ,-59, ,
1, ,-59, ,
-1, ,-59, ,
1, ,-59, ,
-1, ,-59, ,
-1, ,-59, ,
1, ,-59, ,
1, ,-59, ,
-1, ,-59, ,
2, ,-60, ,
-1, ,-59, ,
-1, ,-59, ,
1, ,-59, ,
1, ,-59, ,
-1, ,-59, ,
1, ,-60, ,
-1, ,-59, ,
-1, ,-59, ,
1, ,-59, ,
1, ,-59, ,
-1, ,-59, ,
1, ,-59, ,
-1, ,-58, ,
-1, ,-59, ,
1, ,-59, ,
1, ,-59, ,
-1, ,-59, ,
1, ,-59, ,
-1, ,-59, ,
-1, ,-59, ,
1, ,-59, ,
1, ,-59, ,
-1, ,-59, ,
2, ,-60, ,
-1, ,-58, ,
-1, ,-59, ,
1, ,-60, ,
1, ,-59, ,
-1, ,-59, ,
1, ,-59, ,
-1, ,-59, ,
-1, ,-59, ,
1, ,-59, ,
1, ,-59, ,
-1, ,-59, ,
1, ,-59, ,
-1, ,-58, ,
-1, ,-59, ,
1, ,-59, ,
1, ,-59, ,
-1, ,-59, ,
1, ,-59, ,
-1, ,-59, ,
-1, ,-59, ,
1, ,-59, ,
1, ,-59, ,
-1, ,-59, ,
1, ,-59, ,
-1, ,-59, ,
-1, ,-59, ,
1, ,-59, ,
1, ,-59, ,
-1, ,-59, ,
1, ,-60, ,
-1, ,-59, ,
-1, ,-59, ,
1, ,-59, ,
1, ,-59, ,
-1, ,-59, ,
1, ,-60, ,
-1, ,-58, ,
-1, ,-59, ,
1, ,-59, ,
1, ,-59, ,
-1, ,-59, ,
1, ,-59, ,
-1, ,-59, ,
-1, ,-59, ,
1, ,-59, ,
1, ,-59, ,
-1, ,-59, ,
1, ,-60, ,
-1, ,-59, ,
-1, ,-59, ,
1, ,-59, ,
1, ,-59, ,
-1, ,-59, ,
1, ,-60, ,
-1, ,-59, ,
-1, ,-59, ,
1, ,-59, ,
1, ,-59, ,
-1, ,-59, ,
1, ,-60, ,
-1, ,-59, ,
-1, ,-59, ,
1, ,-60, ,
1, ,-59, ,
-1, ,-59, ,
1, ,-59, ,
-1, ,-59, ,
-1, ,-59, ,
1, ,-59, ,
1, ,-59, ,
-1, ,-59, ,
1, ,-60, ,
-1, ,-59, ,
-1, ,-59, ,
1, ,-59, ,
1, ,-59, ,
-1, ,-59, ,
1, ,-60, ,
-1, ,-59, ,
-1, ,-59, ,
1, ,-59, ,
1, ,-59, ,
-1, ,-59, ,
1, ,-60, ,
-1, ,-59, ,
-1, ,-59, ,
1, ,-60, ,
1, ,-59, ,
-1, ,-59, ,
1, ,-60, ,
-1, ,-59, ,
-1, ,-59, ,
1, ,-59, ,
1, ,-59, ,
-1, ,-59, ,
1, ,-59, ,
-1, ,-58, ,
-1, ,-59, ,
1, ,-59, ,
1, ,-59, ,
-1, ,-59, ,
1, ,-59, ,
-1, ,-59, ,
-1, ,-60, ,
1, ,-59, ,
1, ,-59, ,
-1, ,-59, ,
1, ,-59, ,
-1, ,-58, ,
-1, ,-59, ,
1, ,-59, ,
1, ,-59, ,
-1, ,-59, ,
1, ,-60, ,
-1, ,-59, ,
-1, ,-59, ,
1, ,-59, ,
1, ,-59, ,
-1, ,-59, ,
1, ,-60, ,
-1, ,-59, ,
-1, ,-59, ,
1, ,-60, ,
1, ,-59, ,
-1, ,-59, ,
1, ,-59, ,
-1, ,-59, ,
-1, ,-59, ,
1, ,-59, ,
1, ,-59, ,
-1, ,-59, ,
2, ,-60, ,
-1, ,-58, ,
-1, ,-59, ,
1, ,-59, ,
1, ,-59, ,
-1, ,-59, ,
1, ,-59, ,
-1, ,-47, ,
1, ,-26, ,
1, ,-12, ,
1, ,1, ,
-1, ,9, ,
1, ,16, ,
-1, ,21, ,
-1, ,24, ,
1, ,27, ,
1, ,30, ,
-1, ,31, ,
2, ,32, ,
-1, ,33, ,
-1, ,33, ,
1, ,34, ,
-1, ,34, ,
-1, ,34, ,
2, ,34, ,
-1, ,35, ,
-1, ,35, ,
1, ,34, ,
1, ,35, ,
-1, ,34, ,
1, ,35, ,
-1, ,35, ,
-1, ,34, ,
1, ,35, ,
1, ,35, ,
-1, ,35, ,
1, ,34, ,
-1, ,35, ,
-1, ,34, ,
1, ,35, ,
1, ,35, ,
-1, ,35, ,
1, ,35, ,
-1, ,34, ,
-1, ,34, ,
1, ,35, ,
1, ,35, ,
-1, ,34, ,
2, ,34, ,
-1, ,34, ,
-1, ,34, ,
1, ,34, ,
1, ,34, ,
-1, ,34, ,
1, ,34, ,
-1, ,34, ,
-1, ,34, ,
1, ,34, ,
1, ,34, ,
-1, ,34, ,
2, ,34, ,
-1, ,34, ,
-1, ,34, ,
1, ,34, ,
1, ,34, ,
-1, ,34, ,
1, ,34, ,
-1, ,34, ,
-1, ,34, ,
1, ,34, ,
1, ,34, ,
-1, ,34, ,
1, ,34, ,
-1, ,34, ,
-1, ,34, ,
1, ,34, ,
1, ,34, ,
-1, ,34, ,
1, ,34, ,
-1, ,34, ,
-1, ,34, ,
1, ,34, ,
1, ,34, ,
-1, ,34, ,
1, ,34, ,
1, ,34, ,
-1, ,34, ,
1, ,34, ,
1, ,34, ,
-1, ,34, ,
1, ,34, ,
-1, ,34, ,
-1, ,34, ,
1, ,34, ,
1, ,34, ,
-1, ,34, ,
1, ,34, ,
-1, ,34, ,
-1, ,34, ,
1, ,34, ,
1, ,34, ,
-1, ,34, ,
1, ,34, ,
-1, ,34, ,
-1, ,34, ,
1, ,34, ,
1, ,34, ,
-1, ,34, ,
1, ,34, ,
-1, ,34, ,
-1, ,34, ,
1, ,34, ,
1, ,34, ,
-1, ,34, ,
2, ,34, ,
-1, ,34, ,
-1, ,34, ,
1, ,34, ,
1, ,34, ,
-1, ,34, ,
1, ,34, ,
-1, ,34, ,
-1, ,34, ,
1, ,34, ,
1, ,34, ,
-1, ,34, ,
1, ,34, ,
-1, ,34, ,
-1, ,34, ,
1, ,34, ,
1, ,34, ,
-1, ,34, ,
1, ,34, ,
1, ,34, ,
-1, ,34, ,
1, ,34, ,
1, ,34, ,
-1, ,34, ,
1, ,34, ,
-1, ,34, ,
-1, ,34, ,
1, ,34, ,
1, ,34, ,
-1, ,34, ,
2, ,34, ,
-1, ,34, ,
-1, ,34, ,
1, ,34, ,
1, ,34, ,
-1, ,34, ,
1, ,34, ,
-1, ,34, ,
-1, ,34, ,
1, ,34, ,
1, ,34, ,
-1, ,34, ,
1, ,34, ,
1, ,34, ,
-1, ,34, ,
1, ,34, ,
1, ,34, ,
-1, ,31, ,
1, ,13, ,
-1, ,-6, ,
-1, ,-20, ,
1, ,-30, ,
1, ,-38, ,
-1, ,-43, ,
1, ,-49, ,
-1, ,-51, ,
-1, ,-54, ,
1, ,-56, ,
1, ,-56, ,
-1, ,-57, ,
1, ,-58, ,
-1, ,-58, ,
-1, ,-59, ,
1, ,-59, ,
1, ,-59, ,
-1, ,-59, ,
1, ,-60, ,
-1, ,-59, ,
-1, ,-60, ,
1, ,-60, ,
1, ,-60, ,
-1, ,-59, ,
1, ,-60, ,
-1, ,-59, ,
-1, ,-60, ,
1, ,-60, ,
1, ,-60, ,
-1, ,-59, ,
1, ,-60, ,
-1, ,-59, ,
-1, ,-60, ,
1, ,-60, ,
1, ,-59, ,
-1, ,-59, ,
1, ,-60, ,
-1, ,-59, ,
-1, ,-59, ,
1, ,-59, ,
1, ,-59, ,
-1, ,-59, ,
1, ,-60, ,
-1, ,-59, ,
-1, ,-59, ,
1, ,-59, ,
1, ,-59, ,
-1, ,-59, ,
1, ,-60, ,
-1, ,-59, ,
-1, ,-60, ,
1, ,-59, ,
1, ,-59, ,
-1, ,-59, ,
1, ,-60, ,
-1, ,-58, ,
-1, ,-59, ,
1, ,-59, ,
1, ,-59, ,
-1, ,-59, ,
1, ,-60, ,
-1, ,-59, ,
-1, ,-60, ,
1, ,-59, ,
1, ,-59, ,
-1, ,-59, ,
1, ,-60, ,
-1, ,-59, ,
-1, ,-59, ,
1, ,-59, ,
1, ,-59, ,
-1, ,-58, ,
1, ,-60, ,
-1, ,-59, ,
-1, ,-59, ,
1, ,-59, ,
1, ,-59, ,
-1, ,-59, ,
1, ,-60, ,
-1, ,-59, ,
-1, ,-59, ,
1, ,-59, ,
1, ,-59, ,
-1, ,-59, ,
1, ,-60, ,
-1, ,-59, ,
-1, ,-59, ,
1, ,-59, ,
1, ,-59, ,
-1, ,-59, ,
1, ,-60, ,
-1, ,-59, ,
-1, ,-59, ,
1, ,-59, ,
1, ,-59, ,
-1, ,-58, ,
1, ,-59, ,
-1, ,-59, ,
-1, ,-60, ,
1, ,-59, ,
1, ,-59, ,
-1, ,-59, ,
1, ,-60, ,
-1, ,-59, ,
-1, ,-59, ,
1, ,-59, ,
1, ,-59, ,
-1, ,-59, ,
1, ,-60, ,
-1, ,-59, ,
-1, ,-59, ,
1, ,-59, ,
1, ,-59, ,
-1, ,-59, ,
1, ,-60, ,
-1, ,-59, ,
-1, ,-59, ,
1, ,-59, ,
1, ,-59, ,
-1, ,-59, ,
1, ,-60, ,
-1, ,-59, ,
-1, ,-59, ,
1, ,-59, ,
1, ,-59, ,
-1, ,-59, ,
1, ,-59, ,
-1, ,-59, ,
-1, ,-59, ,
1, ,-59, ,
1, ,-59, ,
-1, ,-59, ,
2, ,-59, ,
-1, ,-58, ,
-1, ,-59, ,
1, ,-59, ,
1, ,-59, ,
-1, ,-58, ,
1, ,-60, ,
-1, ,-59, ,
-1, ,-59, ,
1, ,-59, ,
1, ,-59, ,
-1, ,-59, ,
1, ,-60, ,
-1, ,-59, ,
-1, ,-59, ,
1, ,-59, ,
1, ,-59, ,
-1, ,-59, ,
1, ,-60, ,
-1, ,-58, ,
-1, ,-59, ,
1, ,-59, ,
1, ,-59, ,
-1, ,-59, ,
1, ,-59, ,
-1, ,-59, ,
-1, ,-59, ,
1, ,-59, ,
1, ,-59, ,
-2, ,-59, ,
1, ,-59, ,
-1, ,-58, ,
-1, ,-59, ,
1, ,-59, ,
1, ,-59, ,
-1, ,-58, ,
1, ,-60, ,
-1, ,-59, ,
-1, ,-59, ,
1, ,-59, ,
1, ,-59, ,
-1, ,-59, ,
1, ,-60, ,
-1, ,-59, ,
-1, ,-59, ,
1, ,-59, ,
1, ,-59, ,
-1, ,-59, ,
1, ,-60, ,
-1, ,-59, ,
-1, ,-59, ,
1, ,-59, ,
1, ,-59, ,
-1, ,-59, ,
1, ,-60, ,
-1, ,-59, ,
-1, ,-59, ,
1, ,-60, ,
1, ,-59, ,
-1, ,-59, ,
1, ,-60, ,
-1, ,-59, ,
-1, ,-59, ,
1, ,-59, ,
1, ,-59, ,
-1, ,-59, ,
1, ,-60, ,
-1, ,-58, ,
-1, ,-59, ,
1, ,-60, ,
1, ,-59, ,
-1, ,-59, ,
1, ,-60, ,
-1, ,-59, ,
-1, ,-59, ,
1, ,-59, ,
1, ,-59, ,
-1, ,-59, ,
1, ,-60, ,
-1, ,-59, ,
-1, ,-59, ,
1, ,-59, ,
1, ,-59, ,
-1, ,-58, ,
1, ,-59, ,
-1, ,-59, ,
-1, ,-59, ,
1, ,-59, ,
1, ,-59, ,
-1, ,-59, ,
1, ,-59, ,
-1, ,-58, ,
1, ,-59, ,
1, ,-59, ,
1, ,-59, ,
-1, ,-59, ,
1, ,-59, ,
-1, ,-59, ,
-1, ,-59, ,
1, ,-59, ,
1, ,-59, ,
-1, ,-59, ,
1, ,-59, ,
-1, ,-59, ,
-1, ,-59, ,
1, ,-59, ,
1, ,-59, ,
-1, ,-59, ,
1, ,-59, ,
-1, ,-59, ,
-1, ,-59, ,
1, ,-59, ,
1, ,-59, ,
-1, ,-59, ,
1, ,-59, ,
-1, ,-58, ,
-1, ,-59, ,
1, ,-59, ,
1, ,-59, ,
-1, ,-59, ,
1, ,-59, ,
-1, ,-59, ,
-1, ,-59, ,
1, ,-59, ,
1, ,-59, ,
-1, ,-59, ,
1, ,-60, ,
-1, ,-59, ,
-1, ,-59, ,
1, ,-59, ,
1, ,-59, ,
-1, ,-59, ,
1, ,-59, ,
-1, ,-59, ,
-1, ,-59, ,
1, ,-59, ,
1, ,-59, ,
-1, ,-59, ,
1, ,-60, ,
-1, ,-59, ,
1, ,-59, ,
1, ,-59, ,
1, ,-59, ,
-1, ,-59, ,
2, ,-60, ,
-1, ,-59, ,
-1, ,-59, ,
1, ,-59, ,
1, ,-59, ,
-1, ,-59, ,
1, ,-59, ,
-1, ,-59, ,
-1, ,-59, ,
1, ,-59, ,
1, ,-59, ,
-1, ,-59, ,
1, ,-60, ,
-1, ,-59, ,
-1, ,-59, ,
1, ,-59, ,
1, ,-59, ,
-1, ,-59, ,
1, ,-59, ,
-1, ,-59, ,
-1, ,-59, ,
1, ,-59, ,
1, ,-59, ,
-2, ,-59, ,
1, ,-59, ,
-1, ,-59, ,
-1, ,-59, ,
1, ,-59, ,
1, ,-59, ,
-1, ,-59, ,
1, ,-59, ,
-1, ,-58, ,
-1, ,-59, ,
1, ,-59, ,
1, ,-59, ,
-1, ,-58, ,
1, ,-59, ,
-1, ,-59, ,
-1, ,-59, ,
1, ,-59, ,
1, ,-59, ,
-1, ,-59, ,
1, ,-59, ,
-1, ,-58, ,
-1, ,-59, ,
1, ,-59, ,
1, ,-59, ,
-2, ,-58, ,
1, ,-59, ,
-1, ,-59, ,
-1, ,-59, ,
1, ,-59, ,
1, ,-59, ,
-1, ,-59, ,
1, ,-60, ,
-1, ,-59, ,
-1, ,-59, ,
1, ,-60, ,
1, ,-59, ,
-1, ,-59, ,
1, ,-59, ,
-1, ,-59, ,
-1, ,-59, ,
1, ,-59, ,
1, ,-59, ,
-1, ,-59, ,
1, ,-60, ,
-1, ,-59, ,
-1, ,-59, ,
1, ,-60, ,
1, ,-59, ,
-1, ,-59, ,
1, ,-60, ,
-1, ,-58, ,
-1, ,-59, ,
1, ,-59, ,
1, ,-59, ,
-1, ,-59, ,
1, ,-59, ,
-1, ,-58, ,
-1, ,-59, ,
1, ,-59, ,
1, ,-59, ,
-1, ,-58, ,
1, ,-59, ,
-1, ,-59, ,
-1, ,-59, ,
1, ,-59, ,
1, ,-59, ,
-1, ,-59, ,
1, ,-59, ,
-1, ,-59, ,
-1, ,-59, ,
1, ,-60, ,
1, ,-59, ,
-1, ,-59, ,
2, ,-60, ,
-1, ,-59, ,
-1, ,-59, ,
1, ,-59, ,
1, ,-59, ,
-1, ,-59, ,
1, ,-59, ,
-1, ,-58, ,
-1, ,-59, ,
1, ,-59, ,
1, ,-59, ,
-1, ,-59, ,
1, ,-60, ,
-1, ,-59, ,
1, ,-59, ,
1, ,-59, ,
1, ,-59, ,
-1, ,-59, ,
1, ,-60, ,
-1, ,-59, ,
-1, ,-59, ,
1, ,-59, ,
1, ,-59, ,
-1, ,-59, ,
1, ,-59, ,
-1, ,-59, ,
-1, ,-59, ,
1, ,-59, ,
1, ,-59, ,
-1, ,-59, ,
1, ,-60, ,
-1, ,-59, ,
-1, ,-59, ,
1, ,-60, ,
1, ,-59, ,
-1, ,-58, ,
1, ,-59, ,
-1, ,-59, ,
-1, ,-59, ,
1, ,-59, ,
1, ,-59, ,
-1, ,-59, ,
1, ,-60, ,
-1, ,-59, ,
-1, ,-59, ,
1, ,-59, ,
1, ,-59, ,
-1, ,-59, ,
1, ,-60, ,
-1, ,-59, ,
-1, ,-59, ,
1, ,-59, ,
1, ,-59, ,
-1, ,-59, ,
1, ,-60, ,
-1, ,-58, ,
-1, ,-59, ,
1, ,-60, ,
1, ,-59, ,
-1, ,-58, ,
1, ,-60, ,
-1, ,-59, ,
-1, ,-59, ,
1, ,-59, ,
1, ,-59, ,
