src/varyamp_1560/temp0002047.CSV

Format,1.0B,
Memory Length,10000,Memory Length,10000,
IntpDistance,0,IntpDistance,0,
Trigger Address,4999,Trigger Address,4999,
Trigger Level,1.040E+00,Trigger Level,1.040E+00,
Source,CH1,Source,CH2,
Vertical Units,V,Vertical Units,V,
Vertical Units Div,0,Vertical Units Div,0,
Vertical Units Extend Div,16,Vertical Units Extend Div,16,
Label,,Label,,
Probe Type,0,Probe Type,0,
Probe Ratio,1.000e+01,Probe Ratio,1.000e+00,
Vertical Scale,5.000e-01,Vertical Scale,1.000e+00,
Vertical Position,-1.820e+00,Vertical Position,0.000e+00,
Horizontal Units,S,Horizontal Units,S,
Horizontal Scale,2.000E-05,Horizontal Scale,2.000E-05,
Horizontal Position,0.000E+00,Horizontal Position,0.000E+00,
Horizontal Mode,Main,Horizontal Mode,Main,
SincET Mode,Real Time,SincET Mode,Real Time,
Sampling Period,2.000e-08,Sampling Period,2.000e-08,
Horizontal Old Scale,2.000E-05,Horizontal Old Scale,2.000E-05,
Horizontal Old Position,0.000E+00,Horizontal Old Position,0.000E+00,
Firmware,V1.23,Firmware,V1.23,
Mode,Fast,Mode,Fast,
Waveform Data,,Waveform Data,,
2, ,-51, ,
2, ,-52, ,
3, ,-52, ,
3, ,-52, ,
2, ,-52, ,
3, ,-53, ,
2, ,-52, ,
2, ,-52, ,
3, ,-52, ,
3, ,-52, ,
1, ,-52, ,
3, ,-53, ,
2, ,-51, ,
2, ,-52, ,
3, ,-53, ,
3, ,-52, ,
2, ,-52, ,
3, ,-52, ,
2, ,-52, ,
2, ,-52, ,
3, ,-52, ,
3, ,-52, ,
2, ,-52, ,
3, ,-53, ,
2, ,-51, ,
2, ,-52, ,
3, ,-52, ,
3, ,-52, ,
2, ,-52, ,
3, ,-52, ,
2, ,-52, ,
2, ,-52, ,
3, ,-52, ,
3, ,-51, ,
2, ,-52, ,
3, ,-53, ,
2, ,-51, ,
2, ,-52, ,
3, ,-53, ,
3, ,-52, ,
1, ,-52, ,
3, ,-53, ,
2, ,-52, ,
2, ,-52, ,
2, ,-52, ,
2, ,-52, ,
1, ,-52, ,
3, ,-52, ,
2, ,-51, ,
2, ,-52, ,
2, ,-52, ,
2, ,-52, ,
2, ,-51, ,
3, ,-52, ,
1, ,-52, ,
2, ,-52, ,
3, ,-52, ,
2, ,-52, ,
1, ,-52, ,
3, ,-53, ,
2, ,-51, ,
2, ,-52, ,
2, ,-52, ,
2, ,-52, ,
1, ,-52, ,
3, ,-52, ,
1, ,-52, ,
2, ,-52, ,
2, ,-52, ,
2, ,-52, ,
1, ,-52, ,
3, ,-53, ,
2, ,-51, ,
2, ,-52, ,
2, ,-53, ,
2, ,-52, ,
1, ,-52, ,
2, ,-52, ,
1, ,-52, ,
2, ,-52, ,
2, ,-52, ,
2, ,-52, ,
1, ,-52, ,
3, ,-52, ,
1, ,-51, ,
2, ,-52, ,
2, ,-53, ,
2, ,-52, ,
1, ,-52, ,
2, ,-52, ,
1, ,-52, ,
2, ,-52, ,
2, ,-52, ,
2, ,-52, ,
1, ,-52, ,
2, ,-53, ,
1, ,-51, ,
2, ,-52, ,
2, ,-52, ,
2, ,-52, ,
1, ,-52, ,
2, ,-53, ,
1, ,-52, ,
2, ,-52, ,
2, ,-52, ,
2, ,-52, ,
1, ,-52, ,
3, ,-53, ,
1, ,-51, ,
2, ,-52, ,
2, ,-53, ,
2, ,-52, ,
1, ,-52, ,
3, ,-52, ,
1, ,-52, ,
2, ,-52, ,
2, ,-52, ,
2, ,-52, ,
1, ,-52, ,
2, ,-53, ,
1, ,-51, ,
2, ,-52, ,
2, ,-52, ,
2, ,-52, ,
1, ,-52, ,
2, ,-52, ,
1, ,-52, ,
2, ,-52, ,
2, ,-52, ,
2, ,-52, ,
1, ,-52, ,
3, ,-53, ,
1, ,-51, ,
2, ,-52, ,
2, ,-52, ,
2, ,-52, ,
1, ,-51, ,
2, ,-52, ,
1, ,-52, ,
2, ,-52, ,
2, ,-52, ,
2, ,-52, ,
1, ,-52, ,
3, ,-53, ,
2, ,-51, ,
2, ,-52, ,
2, ,-52, ,
2, ,-52, ,
1, ,-52, ,
2, ,-53, ,
2, ,-52, ,
1, ,-52, ,
2, ,-52, ,
2, ,-52, ,
1, ,-52, ,
2, ,-53, ,
1, ,-51, ,
1, ,-52, ,
2, ,-52, ,
2, ,-52, ,
1, ,-51, ,
2, ,-52, ,
1, ,-52, ,
2, ,-52, ,
2, ,-52, ,
2, ,-52, ,
1, ,-52, ,
2, ,-53, ,
1, ,-51, ,
1, ,-52, ,
2, ,-52, ,
2, ,-52, ,
1, ,-52, ,
2, ,-52, ,
1, ,-52, ,
1, ,-52, ,
2, ,-52, ,
2, ,-52, ,
1, ,-52, ,
2, ,-53, ,
1, ,-51, ,
2, ,-52, ,
2, ,-52, ,
2, ,-52, ,
1, ,-52, ,
2, ,-53, ,
1, ,-52, ,
1, ,-52, ,
2, ,-52, ,
2, ,-52, ,
1, ,-52, ,
2, ,-53, ,
1, ,-51, ,
1, ,-52, ,
2, ,-52, ,
2, ,-52, ,
1, ,-52, ,
2, ,-53, ,
1, ,-52, ,
1, ,-52, ,
2, ,-52, ,
2, ,-52, ,
1, ,-52, ,
2, ,-53, ,
1, ,-51, ,
1, ,-52, ,
2, ,-52, ,
2, ,-52, ,
1, ,-52, ,
2, ,-52, ,
1, ,-51, ,
1, ,-52, ,
2, ,-52, ,
2, ,-52, ,
1, ,-52, ,
2, ,-52, ,
1, ,-51, ,
1, ,-52, ,
2, ,-52, ,
2, ,-52, ,
1, ,-52, ,
2, ,-52, ,
1, ,-52, ,
1, ,-52, ,
2, ,-52, ,
2, ,-52, ,
1, ,-52, ,
2, ,-53, ,
1, ,-51, ,
1, ,-52, ,
2, ,-52, ,
2, ,-52, ,
1, ,-52, ,
2, ,-52, ,
1, ,-51, ,
1, ,-52, ,
2, ,-52, ,
1, ,-52, ,
-1, ,-52, ,
2, ,-53, ,
1, ,-51, ,
1, ,-52, ,
2, ,-53, ,
2, ,-52, ,
1, ,-52, ,
2, ,-53, ,
1, ,-52, ,
1, ,-52, ,
2, ,-52, ,
2, ,-52, ,
1, ,-52, ,
2, ,-53, ,
1, ,-51, ,
1, ,-52, ,
2, ,-52, ,
1, ,-52, ,
1, ,-52, ,
2, ,-52, ,
1, ,-52, ,
1, ,-52, ,
2, ,-52, ,
2, ,-52, ,
1, ,-52, ,
2, ,-52, ,
1, ,-51, ,
2, ,-52, ,
2, ,-52, ,
1, ,-52, ,
1, ,-52, ,
2, ,-52, ,
1, ,-52, ,
1, ,-52, ,
2, ,-52, ,
2, ,-52, ,
1, ,-52, ,
2, ,-53, ,
1, ,-51, ,
1, ,-52, ,
2, ,-52, ,
2, ,-52, ,
1, ,-51, ,
2, ,-52, ,
1, ,-52, ,
1, ,-52, ,
2, ,-52, ,
2, ,-52, ,
-1, ,-52, ,
2, ,-53, ,
1, ,-51, ,
1, ,-52, ,
2, ,-52, ,
2, ,-52, ,
1, ,-51, ,
2, ,-52, ,
1, ,-51, ,
2, ,-52, ,
2, ,-52, ,
1, ,-52, ,
-1, ,-52, ,
2, ,-53, ,
1, ,-51, ,
1, ,-52, ,
2, ,-53, ,
2, ,-52, ,
1, ,-52, ,
2, ,-46, ,
1, ,-27, ,
2, ,-9, ,
2, ,4, ,
2, ,14, ,
1, ,21, ,
2, ,26, ,
1, ,30, ,
1, ,34, ,
2, ,36, ,
1, ,38, ,
1, ,39, ,
2, ,40, ,
1, ,40, ,
1, ,41, ,
2, ,42, ,
1, ,41, ,
1, ,42, ,
2, ,42, ,
1, ,41, ,
1, ,42, ,
2, ,42, ,
1, ,42, ,
-1, ,41, ,
2, ,42, ,
1, ,41, ,
1, ,42, ,
2, ,42, ,
1, ,41, ,
-1, ,42, ,
2, ,42, ,
1, ,41, ,
1, ,42, ,
2, ,42, ,
1, ,41, ,
1, ,42, ,
2, ,42, ,
1, ,41, ,
1, ,42, ,
2, ,42, ,
1, ,41, ,
-1, ,41, ,
2, ,42, ,
1, ,41, ,
1, ,41, ,
2, ,42, ,
1, ,41, ,
-1, ,41, ,
2, ,42, ,
1, ,41, ,
1, ,41, ,
2, ,42, ,
1, ,41, ,
-1, ,41, ,
2, ,42, ,
1, ,41, ,
1, ,41, ,
2, ,42, ,
1, ,41, ,
1, ,41, ,
2, ,42, ,
1, ,41, ,
1, ,42, ,
2, ,42, ,
1, ,41, ,
-1, ,42, ,
2, ,42, ,
1, ,41, ,
1, ,41, ,
2, ,41, ,
1, ,41, ,
-1, ,41, ,
2, ,42, ,
1, ,41, ,
1, ,41, ,
2, ,42, ,
1, ,41, ,
-1, ,41, ,
2, ,42, ,
1, ,41, ,
1, ,41, ,
2, ,42, ,
1, ,41, ,
-1, ,41, ,
2, ,42, ,
1, ,41, ,
1, ,42, ,
2, ,41, ,
1, ,41, ,
-1, ,42, ,
2, ,42, ,
1, ,41, ,
1, ,41, ,
1, ,41, ,
1, ,41, ,
1, ,41, ,
2, ,42, ,
1, ,41, ,
1, ,41, ,
2, ,42, ,
1, ,41, ,
-1, ,42, ,
2, ,42, ,
1, ,41, ,
1, ,41, ,
2, ,41, ,
1, ,41, ,
-1, ,41, ,
2, ,42, ,
1, ,41, ,
1, ,41, ,
2, ,42, ,
1, ,41, ,
-1, ,41, ,
2, ,42, ,
1, ,40, ,
1, ,41, ,
2, ,42, ,
1, ,41, ,
-1, ,41, ,
2, ,42, ,
1, ,41, ,
1, ,41, ,
2, ,42, ,
1, ,41, ,
-1, ,41, ,
2, ,42, ,
1, ,40, ,
1, ,41, ,
2, ,41, ,
1, ,41, ,
-1, ,41, ,
2, ,41, ,
1, ,41, ,
1, ,41, ,
2, ,41, ,
1, ,41, ,
-1, ,41, ,
2, ,42, ,
1, ,41, ,
1, ,41, ,
1, ,41, ,
1, ,41, ,
-1, ,41, ,
2, ,42, ,
1, ,41, ,
1, ,41, ,
2, ,42, ,
1, ,41, ,
-1, ,41, ,
2, ,42, ,
1, ,41, ,
1, ,41, ,
1, ,41, ,
1, ,40, ,
-1, ,25, ,
2, ,6, ,
1, ,-8, ,
1, ,-20, ,
2, ,-28, ,
1, ,-35, ,
-1, ,-39, ,
2, ,-43, ,
1, ,-44, ,
1, ,-47, ,
1, ,-49, ,
1, ,-50, ,
-1, ,-51, ,
2, ,-52, ,
-1, ,-51, ,
1, ,-52, ,
1, ,-53, ,
1, ,-52, ,
-1, ,-53, ,
2, ,-53, ,
-1, ,-52, ,
1, ,-53, ,
1, ,-53, ,
1, ,-52, ,
-1, ,-52, ,
2, ,-53, ,
-1, ,-52, ,
1, ,-53, ,
1, ,-53, ,
1, ,-52, ,
-1, ,-52, ,
2, ,-53, ,
1, ,-51, ,
-1, ,-52, ,
1, ,-53, ,
2, ,-52, ,
-1, ,-52, ,
2, ,-53, ,
1, ,-52, ,
1, ,-52, ,
1, ,-53, ,
1, ,-52, ,
-1, ,-52, ,
2, ,-53, ,
1, ,-51, ,
1, ,-52, ,
1, ,-52, ,
1, ,-52, ,
-1, ,-52, ,
2, ,-52, ,
1, ,-51, ,
1, ,-52, ,
1, ,-52, ,
1, ,-52, ,
-1, ,-52, ,
2, ,-52, ,
1, ,-51, ,
1, ,-52, ,
1, ,-52, ,
2, ,-52, ,
-1, ,-52, ,
1, ,-52, ,
1, ,-52, ,
1, ,-52, ,
1, ,-52, ,
1, ,-52, ,
-1, ,-52, ,
2, ,-53, ,
1, ,-51, ,
1, ,-52, ,
1, ,-53, ,
2, ,-52, ,
-1, ,-51, ,
2, ,-52, ,
1, ,-52, ,
1, ,-52, ,
1, ,-52, ,
1, ,-52, ,
-1, ,-52, ,
2, ,-53, ,
1, ,-51, ,
1, ,-52, ,
1, ,-53, ,
1, ,-52, ,
-1, ,-51, ,
2, ,-52, ,
1, ,-51, ,
1, ,-52, ,
1, ,-52, ,
2, ,-52, ,
-1, ,-52, ,
2, ,-53, ,
1, ,-51, ,
1, ,-52, ,
1, ,-52, ,
1, ,-52, ,
-1, ,-52, ,
2, ,-53, ,
1, ,-52, ,
1, ,-52, ,
1, ,-52, ,
2, ,-52, ,
-1, ,-52, ,
2, ,-53, ,
1, ,-52, ,
1, ,-52, ,
1, ,-52, ,
1, ,-52, ,
-1, ,-52, ,
2, ,-52, ,
-1, ,-52, ,
1, ,-52, ,
1, ,-52, ,
1, ,-52, ,
-1, ,-52, ,
2, ,-53, ,
1, ,-51, ,
1, ,-52, ,
1, ,-52, ,
1, ,-52, ,
-1, ,-51, ,
2, ,-52, ,
-1, ,-52, ,
1, ,-52, ,
1, ,-52, ,
1, ,-52, ,
-1, ,-52, ,
2, ,-53, ,
1, ,-51, ,
-1, ,-52, ,
1, ,-52, ,
1, ,-52, ,
-1, ,-51, ,
2, ,-52, ,
-1, ,-51, ,
1, ,-52, ,
1, ,-52, ,
1, ,-52, ,
-1, ,-52, ,
2, ,-53, ,
-1, ,-51, ,
1, ,-52, ,
1, ,-52, ,
1, ,-52, ,
-1, ,-51, ,
2, ,-52, ,
-1, ,-51, ,
1, ,-52, ,
1, ,-52, ,
2, ,-51, ,
-1, ,-52, ,
2, ,-53, ,
1, ,-51, ,
1, ,-52, ,
1, ,-53, ,
1, ,-52, ,
-1, ,-52, ,
2, ,-52, ,
-1, ,-52, ,
1, ,-52, ,
1, ,-52, ,
1, ,-52, ,
-1, ,-52, ,
2, ,-53, ,
1, ,-51, ,
1, ,-52, ,
1, ,-52, ,
1, ,-52, ,
-1, ,-52, ,
2, ,-52, ,
-1, ,-52, ,
1, ,-52, ,
1, ,-52, ,
1, ,-52, ,
-1, ,-52, ,
1, ,-52, ,
-1, ,-51, ,
-1, ,-52, ,
1, ,-52, ,
1, ,-52, ,
-1, ,-51, ,
1, ,-52, ,
-1, ,-52, ,
1, ,-52, ,
1, ,-52, ,
2, ,-52, ,
-1, ,-52, ,
2, ,-52, ,
-1, ,-51, ,
1, ,-52, ,
1, ,-52, ,
1, ,-52, ,
-1, ,-52, ,
2, ,-52, ,
-1, ,-52, ,
1, ,-52, ,
1, ,-52, ,
1, ,-52, ,
-1, ,-52, ,
1, ,-53, ,
1, ,-51, ,
-1, ,-52, ,
1, ,-52, ,
1, ,-52, ,
-1, ,-51, ,
2, ,-52, ,
1, ,-52, ,
1, ,-52, ,
1, ,-52, ,
1, ,-52, ,
-1, ,-52, ,
1, ,-53, ,
-1, ,-51, ,
1, ,-52, ,
1, ,-52, ,
1, ,-52, ,
-1, ,-52, ,
2, ,-52, ,
1, ,-52, ,
1, ,-52, ,
1, ,-52, ,
1, ,-52, ,
-1, ,-52, ,
2, ,-52, ,
1, ,-51, ,
1, ,-52, ,
1, ,-52, ,
1, ,-52, ,
-1, ,-52, ,
1, ,-52, ,
-1, ,-52, ,
1, ,-52, ,
1, ,-52, ,
1, ,-51, ,
-1, ,-52, ,
2, ,-53, ,
-1, ,-51, ,
1, ,-52, ,
1, ,-52, ,
1, ,-52, ,
-1, ,-52, ,
2, ,-52, ,
-1, ,-52, ,
1, ,-52, ,
1, ,-52, ,
1, ,-52, ,
-1, ,-52, ,
2, ,-53, ,
-1, ,-51, ,
-1, ,-52, ,
1, ,-52, ,
1, ,-52, ,
-1, ,-52, ,
1, ,-52, ,
-1, ,-51, ,
1, ,-52, ,
1, ,-52, ,
1, ,-52, ,
-1, ,-52, ,
2, ,-53, ,
-1, ,-52, ,
1, ,-52, ,
1, ,-52, ,
1, ,-51, ,
-1, ,-51, ,
2, ,-52, ,
-1, ,-52, ,
1, ,-52, ,
1, ,-52, ,
1, ,-52, ,
-1, ,-52, ,
1, ,-53, ,
-1, ,-52, ,
1, ,-52, ,
1, ,-52, ,
1, ,-52, ,
-1, ,-52, ,
1, ,-52, ,
-1, ,-52, ,
-1, ,-52, ,
1, ,-52, ,
1, ,-52, ,
-1, ,-51, ,
2, ,-52, ,
-1, ,-51, ,
-1, ,-52, ,
1, ,-52, ,
1, ,-52, ,
-1, ,-52, ,
2, ,-52, ,
-1, ,-52, ,
1, ,-52, ,
1, ,-52, ,
1, ,-52, ,
-1, ,-51, ,
2, ,-52, ,
-1, ,-51, ,
-1, ,-52, ,
1, ,-52, ,
1, ,-52, ,
-1, ,-51, ,
1, ,-52, ,
-1, ,-52, ,
1, ,-52, ,
1, ,-52, ,
1, ,-52, ,
-1, ,-52, ,
2, ,-52, ,
-1, ,-52, ,
-1, ,-52, ,
1, ,-52, ,
1, ,-51, ,
-1, ,-52, ,
1, ,-53, ,
-1, ,-52, ,
-1, ,-52, ,
1, ,-52, ,
1, ,-52, ,
-1, ,-52, ,
2, ,-53, ,
-1, ,-51, ,
-1, ,-52, ,
1, ,-52, ,
1, ,-52, ,
-1, ,-52, ,
2, ,-53, ,
-1, ,-52, ,
-1, ,-52, ,
1, ,-52, ,
1, ,-52, ,
-1, ,-52, ,
1, ,-53, ,
-1, ,-51, ,
-1, ,-52, ,
1, ,-52, ,
1, ,-52, ,
-1, ,-52, ,
1, ,-53, ,
-1, ,-52, ,
1, ,-52, ,
1, ,-52, ,
1, ,-52, ,
-1, ,-52, ,
2, ,-53, ,
1, ,-51, ,
1, ,-52, ,
1, ,-52, ,
1, ,-52, ,
-1, ,-52, ,
1, ,-52, ,
-1, ,-51, ,
-1, ,-52, ,
1, ,-52, ,
1, ,-52, ,
-1, ,-52, ,
2, ,-53, ,
-1, ,-51, ,
-1, ,-52, ,
1, ,-52, ,
1, ,-52, ,
-1, ,-52, ,
2, ,-53, ,
-1, ,-52, ,
1, ,-52, ,
1, ,-52, ,
1, ,-52, ,
-1, ,-52, ,
2, ,-53, ,
-1, ,-51, ,
-1, ,-52, ,
1, ,-52, ,
1, ,-52, ,
-1, ,-52, ,
1, ,-52, ,
-1, ,-52, ,
-1, ,-52, ,
1, ,-52, ,
1, ,-52, ,
-1, ,-52, ,
1, ,-53, ,
-1, ,-51, ,
-1, ,-52, ,
1, ,-52, ,
1, ,-52, ,
-1, ,-52, ,
2, ,-53, ,
-1, ,-52, ,
-1, ,-52, ,
1, ,-52, ,
1, ,-52, ,
-1, ,-52, ,
1, ,-53, ,
-1, ,-51, ,
-1, ,-52, ,
1, ,-52, ,
1, ,-52, ,
-1, ,-52, ,
1, ,-53, ,
-1, ,-51, ,
-1, ,-52, ,
1, ,-52, ,
1, ,-52, ,
-1, ,-52, ,
2, ,-52, ,
-1, ,-51, ,
1, ,-52, ,
1, ,-53, ,
1, ,-52, ,
90, ,-52, ,
64, ,-52, ,
38, ,-52, ,
24, ,-52, ,
16, ,-52, ,
11, ,-52, ,
7, ,-52, ,
7, ,-53, ,
3, ,-51, ,
2, ,-52, ,
3, ,-52, ,
3, ,-51, ,
2, ,-52, ,
3, ,-53, ,
2, ,-51, ,
2, ,-52, ,
2, ,-52, ,
3, ,-52, ,
1, ,-52, ,
3, ,-53, ,
2, ,-51, ,
2, ,-52, ,
3, ,-52, ,
3, ,-52, ,
1, ,-52, ,
3, ,-52, ,
2, ,-52, ,
2, ,-52, ,
2, ,-52, ,
3, ,-52, ,
1, ,-51, ,
3, ,-53, ,
2, ,-51, ,
2, ,-52, ,
3, ,-52, ,
2, ,-52, ,
1, ,-52, ,
3, ,-52, ,
2, ,-52, ,
2, ,-52, ,
2, ,-52, ,
2, ,-52, ,
1, ,-52, ,
3, ,-53, ,
2, ,-51, ,
2, ,-52, ,
3, ,-52, ,
3, ,-52, ,
2, ,-52, ,
3, ,-53, ,
2, ,-52, ,
2, ,-52, ,
3, ,-52, ,
3, ,-52, ,
1, ,-52, ,
3, ,-53, ,
2, ,-51, ,
2, ,-52, ,
2, ,-52, ,
2, ,-52, ,
1, ,-52, ,
3, ,-53, ,
1, ,-52, ,
2, ,-52, ,
2, ,-52, ,
2, ,-52, ,
1, ,-52, ,
3, ,-53, ,
2, ,-51, ,
2, ,-52, ,
2, ,-52, ,
2, ,-52, ,
1, ,-52, ,
3, ,-52, ,
2, ,-51, ,
2, ,-52, ,
2, ,-52, ,
2, ,-52, ,
1, ,-52, ,
3, ,-53, ,
2, ,-51, ,
2, ,-52, ,
2, ,-52, ,
3, ,-52, ,
1, ,-52, ,
3, ,-53, ,
2, ,-51, ,
1, ,-52, ,
2, ,-52, ,
2, ,-52, ,
2, ,-52, ,
3, ,-53, ,
1, ,-51, ,
2, ,-52, ,
2, ,-52, ,
2, ,-52, ,
1, ,-52, ,
3, ,-53, ,
1, ,-52, ,
2, ,-52, ,
2, ,-52, ,
2, ,-52, ,
1, ,-52, ,
3, ,-53, ,
2, ,-51, ,
2, ,-52, ,
2, ,-53, ,
2, ,-52, ,
1, ,-52, ,
3, ,-53, ,
1, ,-52, ,
1, ,-52, ,
2, ,-52, ,
2, ,-52, ,
1, ,-52, ,
3, ,-52, ,
2, ,-51, ,
2, ,-52, ,
2, ,-52, ,
2, ,-52, ,
1, ,-52, ,
3, ,-53, ,
1, ,-51, ,
2, ,-52, ,
2, ,-52, ,
2, ,-52, ,
1, ,-52, ,
3, ,-52, ,
2, ,-51, ,
2, ,-52, ,
2, ,-52, ,
2, ,-52, ,
1, ,-52, ,
2, ,-53, ,
1, ,-52, ,
2, ,-52, ,
2, ,-52, ,
2, ,-52, ,
1, ,-52, ,
3, ,-53, ,
2, ,-51, ,
2, ,-52, ,
2, ,-52, ,
2, ,-52, ,
1, ,-52, ,
2, ,-53, ,
1, ,-52, ,
1, ,-52, ,
2, ,-52, ,
1, ,-52, ,
1, ,-52, ,
2, ,-53, ,
1, ,-51, ,
1, ,-52, ,
2, ,-52, ,
2, ,-52, ,
1, ,-52, ,
2, ,-52, ,
1, ,-52, ,
2, ,-52, ,
2, ,-52, ,
2, ,-52, ,
1, ,-52, ,
2, ,-53, ,
1, ,-51, ,
2, ,-52, ,
2, ,-52, ,
2, ,-52, ,
1, ,-52, ,
3, ,-52, ,
1, ,-52, ,
1, ,-52, ,
2, ,-52, ,
2, ,-52, ,
1, ,-52, ,
2, ,-53, ,
1, ,-51, ,
1, ,-52, ,
2, ,-52, ,
2, ,-52, ,
1, ,-52, ,
2, ,-53, ,
1, ,-51, ,
2, ,-52, ,
2, ,-52, ,
2, ,-52, ,
1, ,-52, ,
2, ,-53, ,
1, ,-51, ,
2, ,-52, ,
2, ,-52, ,
2, ,-52, ,
1, ,-52, ,
2, ,-53, ,
1, ,-52, ,
2, ,-52, ,
2, ,-52, ,
2, ,-52, ,
1, ,-52, ,
2, ,-52, ,
1, ,-51, ,
2, ,-52, ,
2, ,-52, ,
2, ,-52, ,
1, ,-52, ,
2, ,-52, ,
1, ,-51, ,
1, ,-52, ,
2, ,-52, ,
2, ,-52, ,
1, ,-52, ,
2, ,-53, ,
1, ,-51, ,
2, ,-52, ,
2, ,-52, ,
2, ,-52, ,
1, ,-52, ,
2, ,-53, ,
1, ,-50, ,
2, ,-34, ,
2, ,-14, ,
2, ,0, ,
1, ,11, ,
2, ,19, ,
1, ,24, ,
2, ,30, ,
2, ,33, ,
2, ,35, ,
1, ,37, ,
2, ,39, ,
1, ,39, ,
1, ,40, ,
1, ,41, ,
1, ,41, ,
1, ,41, ,
2, ,42, ,
2, ,41, ,
1, ,42, ,
2, ,42, ,
2, ,41, ,
1, ,42, ,
2, ,42, ,
1, ,41, ,
1, ,42, ,
2, ,42, ,
2, ,41, ,
1, ,42, ,
2, ,42, ,
1, ,41, ,
1, ,42, ,
2, ,42, ,
2, ,41, ,
1, ,42, ,
2, ,42, ,
1, ,42, ,
1, ,41, ,
2, ,42, ,
1, ,42, ,
1, ,41, ,
2, ,42, ,
1, ,41, ,
1, ,42, ,
2, ,42, ,
1, ,41, ,
1, ,41, ,
2, ,42, ,
1, ,41, ,
1, ,41, ,
2, ,42, ,
1, ,41, ,
1, ,41, ,
2, ,42, ,
1, ,41, ,
1, ,41, ,
2, ,42, ,
1, ,41, ,
1, ,41, ,
2, ,42, ,
1, ,41, ,
1, ,41, ,
2, ,41, ,
2, ,41, ,
-1, ,41, ,
2, ,42, ,
1, ,41, ,
1, ,41, ,
2, ,41, ,
1, ,41, ,
-1, ,41, ,
2, ,42, ,
1, ,41, ,
1, ,41, ,
2, ,42, ,
1, ,41, ,
1, ,41, ,
2, ,42, ,
1, ,41, ,
1, ,41, ,
2, ,41, ,
1, ,41, ,
1, ,41, ,
2, ,42, ,
1, ,41, ,
1, ,41, ,
2, ,41, ,
1, ,41, ,
-1, ,41, ,
2, ,42, ,
1, ,41, ,
1, ,41, ,
2, ,41, ,
1, ,41, ,
-1, ,41, ,
2, ,42, ,
1, ,41, ,
1, ,41, ,
2, ,41, ,
1, ,41, ,
-1, ,41, ,
2, ,42, ,
1, ,41, ,
1, ,41, ,
2, ,41, ,
1, ,41, ,
1, ,41, ,
2, ,42, ,
1, ,41, ,
1, ,41, ,
2, ,41, ,
1, ,41, ,
-1, ,41, ,
2, ,42, ,
1, ,41, ,
1, ,41, ,
2, ,41, ,
1, ,41, ,
1, ,41, ,
2, ,42, ,
1, ,41, ,
1, ,41, ,
2, ,41, ,
1, ,41, ,
-1, ,41, ,
2, ,42, ,
1, ,41, ,
1, ,41, ,
2, ,42, ,
1, ,41, ,
-1, ,41, ,
2, ,42, ,
60, ,41, ,
44, ,41, ,
27, ,41, ,
18, ,41, ,
11, ,41, ,
10, ,42, ,
7, ,41, ,
5, ,41, ,
5, ,41, ,
3, ,41, ,
2, ,41, ,
5, ,42, ,
2, ,41, ,
2, ,41, ,
3, ,42, ,
2, ,41, ,
1, ,41, ,
3, ,41, ,
2, ,40, ,
2, ,41, ,
3, ,41, ,
2, ,41, ,
1, ,41, ,
3, ,32, ,
2, ,11, ,
2, ,-5, ,
2, ,-17, ,
2, ,-26, ,
1, ,-33, ,
3, ,-38, ,
2, ,-41, ,
2, ,-45, ,
2, ,-46, ,
3, ,-49, ,
2, ,-50, ,
3, ,-51, ,
2, ,-51, ,
2, ,-52, ,
2, ,-52, ,
2, ,-52, ,
1, ,-52, ,
3, ,-53, ,
2, ,-52, ,
2, ,-52, ,
2, ,-53, ,
3, ,-52, ,
2, ,-53, ,
3, ,-53, ,
2, ,-53, ,
2, ,-53, ,
2, ,-53, ,
2, ,-52, ,
1, ,-52, ,
3, ,-53, ,
2, ,-52, ,
2, ,-52, ,
3, ,-53, ,
3, ,-52, ,
1, ,-52, ,
3, ,-53, ,
2, ,-52, ,
2, ,-52, ,
2, ,-52, ,
2, ,-52, ,
1, ,-52, ,
3, ,-53, ,
2, ,-51, ,
2, ,-52, ,
2, ,-53, ,
2, ,-52, ,
1, ,-52, ,
3, ,-53, ,
2, ,-52, ,
2, ,-52, ,
2, ,-53, ,
2, ,-52, ,
1, ,-52, ,
3, ,-53, ,
2, ,-51, ,
2, ,-52, ,
2, ,-52, ,
2, ,-52, ,
1, ,-52, ,
3, ,-53, ,
1, ,-52, ,
2, ,-52, ,
2, ,-52, ,
2, ,-52, ,
1, ,-52, ,
3, ,-53, ,
2, ,-51, ,
2, ,-52, ,
2, ,-52, ,
2, ,-52, ,
1, ,-52, ,
3, ,-53, ,
1, ,-52, ,
1, ,-52, ,
2, ,-52, ,
2, ,-52, ,
1, ,-52, ,
2, ,-53, ,
2, ,-51, ,
2, ,-52, ,
2, ,-52, ,
2, ,-52, ,
1, ,-52, ,
2, ,-53, ,
1, ,-51, ,
2, ,-52, ,
2, ,-52, ,
2, ,-52, ,
1, ,-52, ,
3, ,-53, ,
1, ,-51, ,
2, ,-52, ,
2, ,-52, ,
2, ,-52, ,
1, ,-52, ,
3, ,-52, ,
2, ,-52, ,
2, ,-52, ,
2, ,-52, ,
2, ,-52, ,
1, ,-52, ,
3, ,-53, ,
2, ,-51, ,
2, ,-52, ,
2, ,-53, ,
2, ,-52, ,
1, ,-52, ,
3, ,-53, ,
2, ,-52, ,
2, ,-52, ,
2, ,-52, ,
2, ,-52, ,
1, ,-52, ,
3, ,-52, ,
2, ,-51, ,
2, ,-52, ,
2, ,-52, ,
2, ,-52, ,
1, ,-52, ,
2, ,-53, ,
1, ,-52, ,
2, ,-52, ,
3, ,-52, ,
2, ,-52, ,
1, ,-52, ,
2, ,-52, ,
1, ,-51, ,
2, ,-52, ,
2, ,-52, ,
2, ,-52, ,
1, ,-52, ,
2, ,-53, ,
1, ,-51, ,
2, ,-52, ,
2, ,-52, ,
2, ,-52, ,
1, ,-52, ,
2, ,-53, ,
1, ,-51, ,
2, ,-52, ,
2, ,-52, ,
2, ,-51, ,
1, ,-52, ,
2, ,-52, ,
1, ,-51, ,
2, ,-52, ,
2, ,-52, ,
2, ,-52, ,
1, ,-52, ,
2, ,-53, ,
2, ,-51, ,
2, ,-52, ,
2, ,-52, ,
1, ,-52, ,
1, ,-52, ,
2, ,-52, ,
1, ,-51, ,
1, ,-52, ,
2, ,-52, ,
2, ,-52, ,
1, ,-52, ,
2, ,-52, ,
1, ,-51, ,
2, ,-52, ,
2, ,-52, ,
2, ,-52, ,
1, ,-52, ,
2, ,-52, ,
1, ,-52, ,
1, ,-52, ,
2, ,-52, ,
2, ,-52, ,
1, ,-52, ,
2, ,-53, ,
1, ,-51, ,
2, ,-52, ,
2, ,-52, ,
2, ,-52, ,
1, ,-52, ,
2, ,-53, ,
1, ,-51, ,
2, ,-52, ,
2, ,-52, ,
2, ,-52, ,
1, ,-52, ,
2, ,-53, ,
1, ,-51, ,
1, ,-52, ,
2, ,-52, ,
2, ,-51, ,
1, ,-52, ,
2, ,-52, ,
1, ,-51, ,
1, ,-52, ,
2, ,-52, ,
2, ,-52, ,
1, ,-52, ,
2, ,-53, ,
1, ,-51, ,
1, ,-52, ,
2, ,-52, ,
2, ,-52, ,
1, ,-52, ,
2, ,-52, ,
1, ,-51, ,
1, ,-52, ,
2, ,-52, ,
2, ,-52, ,
1, ,-52, ,
2, ,-53, ,
1, ,-51, ,
1, ,-52, ,
2, ,-52, ,
2, ,-52, ,
1, ,-52, ,
2, ,-53, ,
1, ,-52, ,
1, ,-52, ,
2, ,-52, ,
2, ,-52, ,
-1, ,-52, ,
2, ,-53, ,
1, ,-51, ,
1, ,-52, ,
2, ,-52, ,
2, ,-52, ,
1, ,-52, ,
2, ,-53, ,
1, ,-52, ,
1, ,-52, ,
2, ,-52, ,
2, ,-52, ,
1, ,-52, ,
2, ,-53, ,
1, ,-51, ,
2, ,-52, ,
2, ,-52, ,
1, ,-52, ,
1, ,-52, ,
2, ,-53, ,
1, ,-51, ,
1, ,-52, ,
2, ,-52, ,
2, ,-52, ,
1, ,-52, ,
2, ,-52, ,
1, ,-51, ,
1, ,-52, ,
2, ,-52, ,
2, ,-51, ,
1, ,-52, ,
2, ,-53, ,
1, ,-52, ,
2, ,-52, ,
2, ,-52, ,
2, ,-51, ,
-1, ,-52, ,
2, ,-53, ,
1, ,-51, ,
1, ,-52, ,
2, ,-52, ,
2, ,-52, ,
1, ,-52, ,
2, ,-52, ,
1, ,-51, ,
1, ,-52, ,
2, ,-52, ,
1, ,-52, ,
-1, ,-52, ,
2, ,-52, ,
1, ,-51, ,
1, ,-52, ,
2, ,-52, ,
2, ,-52, ,
-1, ,-52, ,
2, ,-53, ,
1, ,-52, ,
1, ,-52, ,
2, ,-52, ,
1, ,-52, ,
-1, ,-52, ,
2, ,-52, ,
1, ,-51, ,
1, ,-52, ,
2, ,-52, ,
2, ,-52, ,
1, ,-52, ,
2, ,-52, ,
1, ,-52, ,
1, ,-52, ,
2, ,-52, ,
1, ,-52, ,
-1, ,-52, ,
2, ,-53, ,
1, ,-51, ,
1, ,-52, ,
2, ,-52, ,
1, ,-52, ,
-1, ,-51, ,
2, ,-52, ,
1, ,-51, ,
1, ,-52, ,
1, ,-52, ,
1, ,-52, ,
-1, ,-52, ,
2, ,-53, ,
1, ,-51, ,
1, ,-52, ,
2, ,-53, ,
2, ,-52, ,
-1, ,-52, ,
2, ,-53, ,
1, ,-52, ,
1, ,-52, ,
2, ,-52, ,
1, ,-52, ,
-1, ,-52, ,
2, ,-53, ,
1, ,-50, ,
1, ,-52, ,
1, ,-52, ,
2, ,-52, ,
1, ,-52, ,
2, ,-52, ,
1, ,-51, ,
1, ,-52, ,
2, ,-52, ,
2, ,-52, ,
-1, ,-52, ,
2, ,-53, ,
1, ,-51, ,
1, ,-52, ,
2, ,-52, ,
1, ,-52, ,
-1, ,-52, ,
2, ,-52, ,
1, ,-51, ,
1, ,-52, ,
2, ,-52, ,
1, ,-52, ,
-1, ,-52, ,
2, ,-52, ,
1, ,-51, ,
1, ,-52, ,
1, ,-52, ,
1, ,-52, ,
1, ,-52, ,
2, ,-52, ,
1, ,-51, ,
1, ,-52, ,
2, ,-52, ,
2, ,-52, ,
-1, ,-52, ,
2, ,-52, ,
1, ,-51, ,
1, ,-52, ,
2, ,-53, ,
1, ,-52, ,
-1, ,-52, ,
2, ,-53, ,
1, ,-52, ,
1, ,-52, ,
2, ,-52, ,
1, ,-52, ,
-1, ,-52, ,
2, ,-52, ,
1, ,-51, ,
1, ,-52, ,
2, ,-52, ,
1, ,-52, ,
-1, ,-52, ,
2, ,-52, ,
1, ,-51, ,
1, ,-52, ,
2, ,-52, ,
1, ,-52, ,
-1, ,-52, ,
2, ,-53, ,
1, ,-51, ,
1, ,-52, ,
2, ,-52, ,
1, ,-52, ,
-1, ,-52, ,
2, ,-53, ,
1, ,-52, ,
1, ,-52, ,
2, ,-52, ,
1, ,-52, ,
-1, ,-52, ,
2, ,-53, ,
1, ,-51, ,
1, ,-52, ,
2, ,-52, ,
1, ,-52, ,
-1, ,-52, ,
2, ,-52, ,
1, ,-51, ,
1, ,-52, ,
2, ,-52, ,
1, ,-52, ,
-1, ,-52, ,
2, ,-52, ,
1, ,-51, ,
1, ,-52, ,
2, ,-52, ,
1, ,-52, ,
-1, ,-52, ,
2, ,-53, ,
1, ,-51, ,
1, ,-52, ,
2, ,-52, ,
2, ,-52, ,
-1, ,-52, ,
2, ,-53, ,
1, ,-51, ,
1, ,-52, ,
1, ,-53, ,
1, ,-52, ,
-1, ,-52, ,
2, ,-53, ,
1, ,-51, ,
1, ,-52, ,
1, ,-52, ,
1, ,-52, ,
-1, ,-52, ,
2, ,-53, ,
1, ,-51, ,
1, ,-52, ,
2, ,-52, ,
2, ,-52, ,
-1, ,-52, ,
1, ,-52, ,
1, ,-51, ,
1, ,-52, ,
1, ,-52, ,
1, ,-52, ,
-1, ,-52, ,
2, ,-53, ,
1, ,-51, ,
1, ,-52, ,
1, ,-52, ,
2, ,-52, ,
-1, ,-51, ,
2, ,-53, ,
1, ,-52, ,
1, ,-52, ,
2, ,-52, ,
1, ,-52, ,
-1, ,-52, ,
2, ,-53, ,
1, ,-51, ,
1, ,-52, ,
1, ,-53, ,
1, ,-52, ,
-1, ,-52, ,
2, ,-53, ,
1, ,-51, ,
1, ,-52, ,
1, ,-52, ,
1, ,-52, ,
-1, ,-52, ,
2, ,-53, ,
1, ,-51, ,
1, ,-52, ,
2, ,-52, ,
1, ,-52, ,
-1, ,-52, ,
2, ,-53, ,
1, ,-52, ,
1, ,-52, ,
1, ,-52, ,
1, ,-52, ,
-1, ,-52, ,
2, ,-53, ,
1, ,-51, ,
1, ,-52, ,
1, ,-52, ,
1, ,-52, ,
-1, ,-52, ,
2, ,-52, ,
1, ,-51, ,
1, ,-52, ,
2, ,-52, ,
1, ,-52, ,
-1, ,-52, ,
2, ,-53, ,
1, ,-51, ,
1, ,-52, ,
1, ,-52, ,
1, ,-52, ,
