src/varyamp_1560/temp0000278.CSV

Format,1.0B,
Memory Length,10000,Memory Length,10000,
IntpDistance,0,IntpDistance,0,
Trigger Address,4999,Trigger Address,4999,
Trigger Level,1.040E+00,Trigger Level,1.040E+00,
Source,CH1,Source,CH2,
Vertical Units,V,Vertical Units,V,
Vertical Units Div,0,Vertical Units Div,0,
Vertical Units Extend Div,16,Vertical Units Extend Div,16,
Label,,Label,,
Probe Type,0,Probe Type,0,
Probe Ratio,1.000e+01,Probe Ratio,1.000e+00,
Vertical Scale,5.000e-01,Vertical Scale,1.000e+00,
Vertical Position,-1.820e+00,Vertical Position,0.000e+00,
Horizontal Units,S,Horizontal Units,S,
Horizontal Scale,2.000E-05,Horizontal Scale,2.000E-05,
Horizontal Position,0.000E+00,Horizontal Position,0.000E+00,
Horizontal Mode,Main,Horizontal Mode,Main,
SincET Mode,Real Time,SincET Mode,Real Time,
Sampling Period,2.000e-08,Sampling Period,2.000e-08,
Horizontal Old Scale,2.000E-05,Horizontal Old Scale,2.000E-05,
Horizontal Old Position,0.000E+00,Horizontal Old Position,0.000E+00,
Firmware,V1.23,Firmware,V1.23,
Mode,Fast,Mode,Fast,
Waveform Data,,Waveform Data,,
-1, ,-62, ,
1, ,-63, ,
1, ,-63, ,
-1, ,-63, ,
1, ,-62, ,
1, ,-63, ,
-1, ,-63, ,
1, ,-63, ,
-1, ,-63, ,
-1, ,-63, ,
1, ,-63, ,
1, ,-63, ,
-1, ,-62, ,
1, ,-62, ,
1, ,-63, ,
-1, ,-63, ,
1, ,-62, ,
1, ,-63, ,
-1, ,-62, ,
1, ,-62, ,
-1, ,-63, ,
-1, ,-63, ,
1, ,-63, ,
1, ,-63, ,
-1, ,-62, ,
1, ,-63, ,
1, ,-63, ,
-1, ,-63, ,
1, ,-62, ,
1, ,-63, ,
-1, ,-62, ,
1, ,-62, ,
-1, ,-63, ,
1, ,-63, ,
1, ,-62, ,
1, ,-63, ,
-1, ,-62, ,
1, ,-63, ,
1, ,-63, ,
-1, ,-63, ,
1, ,-62, ,
1, ,-63, ,
-1, ,-62, ,
1, ,-63, ,
-1, ,-63, ,
-1, ,-63, ,
1, ,-62, ,
1, ,-63, ,
-1, ,-62, ,
1, ,-62, ,
1, ,-63, ,
-1, ,-63, ,
1, ,-62, ,
1, ,-63, ,
-1, ,-62, ,
1, ,-63, ,
-1, ,-63, ,
1, ,-63, ,
1, ,-63, ,
1, ,-63, ,
-1, ,-62, ,
1, ,-62, ,
-1, ,-63, ,
-1, ,-63, ,
1, ,-62, ,
1, ,-63, ,
-1, ,-62, ,
1, ,-63, ,
-1, ,-62, ,
-1, ,-63, ,
1, ,-63, ,
1, ,-63, ,
-1, ,-62, ,
1, ,-63, ,
1, ,-63, ,
-1, ,-63, ,
1, ,-62, ,
1, ,-63, ,
-1, ,-62, ,
1, ,-62, ,
-1, ,-63, ,
-1, ,-63, ,
1, ,-63, ,
1, ,-63, ,
-1, ,-62, ,
1, ,-63, ,
1, ,-63, ,
-1, ,-63, ,
1, ,-63, ,
1, ,-63, ,
-1, ,-62, ,
1, ,-63, ,
-1, ,-63, ,
-1, ,-63, ,
1, ,-63, ,
1, ,-63, ,
-2, ,-62, ,
1, ,-63, ,
-1, ,-63, ,
1, ,-63, ,
1, ,-63, ,
1, ,-63, ,
-1, ,-62, ,
1, ,-62, ,
-1, ,-63, ,
-1, ,-63, ,
1, ,-63, ,
1, ,-63, ,
-1, ,-62, ,
1, ,-62, ,
-1, ,-63, ,
-1, ,-63, ,
1, ,-62, ,
1, ,-63, ,
-1, ,-62, ,
1, ,-63, ,
-1, ,-63, ,
-1, ,-63, ,
1, ,-63, ,
1, ,-63, ,
-1, ,-62, ,
1, ,-63, ,
-1, ,-63, ,
-1, ,-63, ,
1, ,-62, ,
1, ,-63, ,
-1, ,-62, ,
1, ,-63, ,
-1, ,-63, ,
-1, ,-63, ,
1, ,-63, ,
1, ,-63, ,
-1, ,-62, ,
1, ,-62, ,
1, ,-63, ,
-1, ,-63, ,
1, ,-62, ,
1, ,-63, ,
-1, ,-62, ,
1, ,-63, ,
-1, ,-63, ,
-1, ,-63, ,
1, ,-63, ,
1, ,-63, ,
-1, ,-62, ,
1, ,-63, ,
-1, ,-63, ,
-1, ,-62, ,
1, ,-62, ,
1, ,-63, ,
-1, ,-62, ,
1, ,-63, ,
-1, ,-63, ,
-1, ,-63, ,
1, ,-63, ,
1, ,-63, ,
-1, ,-62, ,
1, ,-63, ,
1, ,-63, ,
-1, ,-63, ,
1, ,-63, ,
2, ,-63, ,
-1, ,-62, ,
1, ,-63, ,
-1, ,-63, ,
1, ,-63, ,
1, ,-63, ,
1, ,-63, ,
-1, ,-62, ,
1, ,-63, ,
1, ,-63, ,
-1, ,-63, ,
1, ,-62, ,
1, ,-63, ,
-1, ,-62, ,
1, ,-63, ,
-1, ,-63, ,
1, ,-63, ,
1, ,-63, ,
1, ,-63, ,
-1, ,-62, ,
1, ,-62, ,
-1, ,-63, ,
-1, ,-63, ,
1, ,-63, ,
1, ,-63, ,
-1, ,-62, ,
1, ,-62, ,
-1, ,-62, ,
-1, ,-63, ,
1, ,-63, ,
1, ,-63, ,
-1, ,-62, ,
1, ,-63, ,
-1, ,-63, ,
-1, ,-63, ,
1, ,-63, ,
1, ,-63, ,
-1, ,-62, ,
2, ,-62, ,
-1, ,-63, ,
-1, ,-63, ,
1, ,-63, ,
1, ,-63, ,
-1, ,-62, ,
1, ,-62, ,
-1, ,-63, ,
-1, ,-63, ,
1, ,-62, ,
1, ,-63, ,
-1, ,-62, ,
1, ,-63, ,
-1, ,-63, ,
-1, ,-63, ,
1, ,-63, ,
1, ,-63, ,
-1, ,-62, ,
1, ,-63, ,
-1, ,-63, ,
-1, ,-63, ,
1, ,-62, ,
1, ,-63, ,
-1, ,-62, ,
1, ,-62, ,
-1, ,-63, ,
-1, ,-63, ,
1, ,-63, ,
1, ,-63, ,
-1, ,-62, ,
1, ,-62, ,
1, ,-63, ,
-1, ,-63, ,
1, ,-63, ,
1, ,-63, ,
-1, ,-62, ,
1, ,-63, ,
-1, ,-63, ,
-1, ,-63, ,
1, ,-63, ,
1, ,-63, ,
-1, ,-62, ,
1, ,-63, ,
-1, ,-63, ,
-1, ,-63, ,
1, ,-62, ,
1, ,-63, ,
-1, ,-62, ,
1, ,-63, ,
-1, ,-63, ,
-1, ,-63, ,
1, ,-63, ,
1, ,-63, ,
-1, ,-61, ,
1, ,-62, ,
-1, ,-63, ,
-1, ,-63, ,
1, ,-62, ,
1, ,-63, ,
-1, ,-62, ,
1, ,-63, ,
-1, ,-63, ,
-1, ,-63, ,
-1, ,-63, ,
1, ,-63, ,
-1, ,-62, ,
1, ,-63, ,
-1, ,-63, ,
-1, ,-62, ,
1, ,-62, ,
1, ,-63, ,
-1, ,-62, ,
1, ,-63, ,
-1, ,-62, ,
-1, ,-63, ,
1, ,-63, ,
1, ,-63, ,
-1, ,-62, ,
1, ,-63, ,
-1, ,-63, ,
-1, ,-63, ,
1, ,-62, ,
1, ,-63, ,
-1, ,-62, ,
1, ,-62, ,
-1, ,-63, ,
-1, ,-63, ,
1, ,-63, ,
1, ,-63, ,
-1, ,-62, ,
1, ,-63, ,
-1, ,-63, ,
-1, ,-63, ,
1, ,-63, ,
1, ,-63, ,
-1, ,-62, ,
1, ,-63, ,
-1, ,-63, ,
-1, ,-63, ,
1, ,-62, ,
1, ,-63, ,
-1, ,-62, ,
1, ,-62, ,
1, ,-49, ,
1, ,-28, ,
1, ,-14, ,
1, ,-2, ,
-1, ,6, ,
1, ,13, ,
1, ,17, ,
1, ,21, ,
2, ,23, ,
1, ,25, ,
-1, ,26, ,
1, ,27, ,
-1, ,28, ,
-1, ,30, ,
1, ,30, ,
1, ,30, ,
-1, ,30, ,
2, ,31, ,
-1, ,31, ,
-1, ,31, ,
1, ,31, ,
1, ,31, ,
-1, ,31, ,
1, ,31, ,
-1, ,31, ,
-1, ,31, ,
1, ,30, ,
1, ,31, ,
-1, ,31, ,
1, ,31, ,
-1, ,31, ,
-1, ,31, ,
1, ,30, ,
1, ,31, ,
-1, ,31, ,
1, ,31, ,
-1, ,30, ,
-1, ,31, ,
1, ,30, ,
1, ,30, ,
-1, ,31, ,
1, ,30, ,
-1, ,30, ,
-1, ,30, ,
1, ,30, ,
1, ,30, ,
-1, ,30, ,
2, ,30, ,
-1, ,30, ,
-1, ,31, ,
1, ,30, ,
1, ,30, ,
-1, ,30, ,
1, ,30, ,
-1, ,30, ,
-1, ,31, ,
1, ,30, ,
1, ,31, ,
-1, ,30, ,
1, ,30, ,
-1, ,30, ,
-1, ,31, ,
1, ,30, ,
1, ,31, ,
-1, ,31, ,
1, ,31, ,
-1, ,30, ,
-1, ,30, ,
1, ,30, ,
-1, ,30, ,
-1, ,30, ,
1, ,30, ,
-1, ,30, ,
-1, ,30, ,
1, ,30, ,
1, ,31, ,
-1, ,31, ,
1, ,30, ,
-1, ,30, ,
-1, ,30, ,
1, ,30, ,
1, ,30, ,
-1, ,30, ,
1, ,30, ,
-1, ,30, ,
-1, ,31, ,
1, ,30, ,
1, ,30, ,
-1, ,31, ,
1, ,30, ,
-1, ,30, ,
-1, ,30, ,
1, ,30, ,
1, ,30, ,
-1, ,30, ,
1, ,30, ,
-1, ,30, ,
-1, ,31, ,
1, ,30, ,
1, ,31, ,
-1, ,30, ,
1, ,30, ,
-1, ,30, ,
-1, ,30, ,
1, ,30, ,
1, ,30, ,
-1, ,30, ,
1, ,30, ,
-1, ,30, ,
-1, ,30, ,
1, ,30, ,
1, ,31, ,
-1, ,30, ,
1, ,30, ,
-1, ,30, ,
-1, ,30, ,
1, ,30, ,
1, ,30, ,
-1, ,30, ,
2, ,30, ,
-1, ,30, ,
-1, ,30, ,
1, ,30, ,
1, ,30, ,
-1, ,30, ,
1, ,30, ,
-1, ,30, ,
-1, ,30, ,
1, ,30, ,
1, ,30, ,
-1, ,30, ,
2, ,30, ,
-1, ,30, ,
-1, ,31, ,
1, ,30, ,
1, ,30, ,
-1, ,30, ,
2, ,30, ,
-1, ,30, ,
-1, ,30, ,
1, ,30, ,
1, ,30, ,
-1, ,30, ,
2, ,30, ,
-1, ,30, ,
-1, ,31, ,
1, ,30, ,
1, ,30, ,
-1, ,30, ,
1, ,30, ,
-1, ,30, ,
-1, ,30, ,
1, ,30, ,
1, ,30, ,
-1, ,24, ,
1, ,5, ,
-1, ,-13, ,
-1, ,-25, ,
1, ,-35, ,
1, ,-43, ,
-2, ,-47, ,
1, ,-52, ,
-1, ,-56, ,
-1, ,-58, ,
1, ,-59, ,
1, ,-61, ,
-1, ,-60, ,
1, ,-62, ,
-1, ,-62, ,
-1, ,-63, ,
1, ,-63, ,
1, ,-64, ,
-1, ,-63, ,
1, ,-63, ,
-1, ,-63, ,
-1, ,-63, ,
1, ,-64, ,
1, ,-64, ,
-1, ,-63, ,
1, ,-63, ,
-1, ,-64, ,
-1, ,-63, ,
1, ,-63, ,
1, ,-64, ,
-1, ,-63, ,
1, ,-63, ,
-1, ,-63, ,
-1, ,-63, ,
1, ,-63, ,
1, ,-64, ,
-1, ,-63, ,
1, ,-63, ,
-1, ,-63, ,
-1, ,-63, ,
1, ,-63, ,
1, ,-63, ,
-1, ,-63, ,
1, ,-63, ,
-1, ,-63, ,
-1, ,-63, ,
1, ,-63, ,
1, ,-63, ,
-1, ,-62, ,
1, ,-63, ,
-1, ,-63, ,
-1, ,-63, ,
1, ,-63, ,
1, ,-63, ,
-1, ,-63, ,
1, ,-63, ,
-1, ,-63, ,
-1, ,-63, ,
1, ,-63, ,
1, ,-63, ,
-1, ,-62, ,
1, ,-62, ,
-1, ,-63, ,
-1, ,-63, ,
1, ,-63, ,
1, ,-63, ,
-1, ,-62, ,
1, ,-63, ,
-1, ,-63, ,
-1, ,-63, ,
1, ,-63, ,
1, ,-63, ,
-1, ,-62, ,
1, ,-63, ,
-1, ,-64, ,
-1, ,-63, ,
1, ,-63, ,
1, ,-63, ,
-1, ,-63, ,
1, ,-63, ,
-1, ,-63, ,
-1, ,-63, ,
1, ,-62, ,
1, ,-63, ,
-1, ,-62, ,
1, ,-63, ,
-1, ,-63, ,
-1, ,-63, ,
1, ,-63, ,
1, ,-63, ,
-1, ,-63, ,
1, ,-62, ,
-1, ,-63, ,
-1, ,-63, ,
1, ,-63, ,
1, ,-63, ,
-1, ,-63, ,
1, ,-63, ,
-1, ,-63, ,
-1, ,-63, ,
1, ,-62, ,
1, ,-63, ,
-1, ,-63, ,
1, ,-63, ,
-1, ,-63, ,
-1, ,-63, ,
1, ,-63, ,
1, ,-63, ,
-1, ,-62, ,
1, ,-63, ,
-1, ,-63, ,
-1, ,-63, ,
1, ,-62, ,
1, ,-63, ,
-1, ,-63, ,
1, ,-62, ,
-1, ,-63, ,
-1, ,-63, ,
1, ,-63, ,
1, ,-63, ,
-1, ,-62, ,
1, ,-63, ,
-1, ,-63, ,
-1, ,-63, ,
1, ,-62, ,
1, ,-63, ,
-1, ,-62, ,
1, ,-63, ,
-1, ,-63, ,
-1, ,-63, ,
1, ,-63, ,
1, ,-63, ,
-1, ,-62, ,
1, ,-62, ,
-1, ,-63, ,
-1, ,-63, ,
1, ,-62, ,
1, ,-63, ,
-1, ,-62, ,
1, ,-63, ,
-1, ,-63, ,
-1, ,-62, ,
1, ,-63, ,
1, ,-63, ,
-1, ,-62, ,
1, ,-63, ,
-1, ,-63, ,
-1, ,-62, ,
1, ,-62, ,
1, ,-63, ,
-1, ,-63, ,
1, ,-63, ,
-1, ,-63, ,
-1, ,-63, ,
1, ,-63, ,
1, ,-63, ,
-1, ,-62, ,
1, ,-63, ,
-1, ,-63, ,
-1, ,-63, ,
1, ,-62, ,
1, ,-63, ,
-1, ,-63, ,
1, ,-63, ,
-1, ,-63, ,
-1, ,-63, ,
1, ,-63, ,
1, ,-63, ,
-1, ,-62, ,
1, ,-63, ,
-1, ,-63, ,
-1, ,-63, ,
1, ,-62, ,
1, ,-63, ,
-1, ,-62, ,
1, ,-62, ,
-1, ,-63, ,
-1, ,-63, ,
1, ,-63, ,
1, ,-63, ,
-1, ,-62, ,
1, ,-63, ,
-1, ,-63, ,
-1, ,-62, ,
1, ,-63, ,
1, ,-63, ,
-1, ,-62, ,
1, ,-62, ,
-1, ,-63, ,
-1, ,-63, ,
1, ,-63, ,
1, ,-63, ,
-1, ,-62, ,
1, ,-62, ,
-1, ,-63, ,
-1, ,-63, ,
1, ,-63, ,
1, ,-63, ,
-1, ,-62, ,
1, ,-63, ,
-1, ,-63, ,
-1, ,-63, ,
1, ,-63, ,
1, ,-63, ,
-1, ,-62, ,
1, ,-62, ,
-1, ,-63, ,
-1, ,-63, ,
1, ,-63, ,
1, ,-63, ,
-1, ,-63, ,
1, ,-63, ,
-1, ,-63, ,
-1, ,-63, ,
1, ,-63, ,
1, ,-63, ,
-1, ,-62, ,
1, ,-62, ,
-1, ,-63, ,
-1, ,-63, ,
1, ,-62, ,
1, ,-63, ,
-1, ,-62, ,
1, ,-63, ,
-1, ,-63, ,
-1, ,-63, ,
1, ,-63, ,
1, ,-63, ,
-1, ,-62, ,
1, ,-62, ,
-1, ,-63, ,
-1, ,-63, ,
1, ,-62, ,
1, ,-63, ,
-1, ,-62, ,
1, ,-63, ,
-1, ,-63, ,
-1, ,-63, ,
1, ,-63, ,
1, ,-63, ,
-1, ,-62, ,
1, ,-63, ,
1, ,-63, ,
-1, ,-62, ,
1, ,-63, ,
1, ,-63, ,
-1, ,-62, ,
1, ,-63, ,
-1, ,-63, ,
1, ,-63, ,
1, ,-63, ,
1, ,-63, ,
-1, ,-62, ,
1, ,-62, ,
-1, ,-62, ,
-1, ,-62, ,
1, ,-62, ,
1, ,-63, ,
-1, ,-62, ,
1, ,-63, ,
-1, ,-63, ,
-1, ,-63, ,
1, ,-63, ,
1, ,-63, ,
-1, ,-62, ,
1, ,-62, ,
-1, ,-63, ,
-1, ,-63, ,
1, ,-62, ,
1, ,-63, ,
-1, ,-62, ,
1, ,-62, ,
1, ,-63, ,
-1, ,-63, ,
1, ,-63, ,
1, ,-63, ,
-1, ,-62, ,
1, ,-62, ,
-1, ,-63, ,
-1, ,-62, ,
1, ,-63, ,
1, ,-63, ,
-1, ,-62, ,
1, ,-63, ,
-1, ,-63, ,
-1, ,-63, ,
1, ,-63, ,
1, ,-63, ,
-1, ,-62, ,
1, ,-63, ,
-1, ,-63, ,
-1, ,-63, ,
1, ,-63, ,
1, ,-63, ,
-1, ,-62, ,
1, ,-63, ,
-1, ,-63, ,
-1, ,-62, ,
1, ,-63, ,
1, ,-63, ,
-1, ,-62, ,
1, ,-63, ,
-1, ,-63, ,
-1, ,-62, ,
40, ,-62, ,
74, ,-63, ,
46, ,-62, ,
29, ,-63, ,
17, ,-63, ,
11, ,-63, ,
10, ,-63, ,
6, ,-63, ,
5, ,-62, ,
5, ,-63, ,
3, ,-63, ,
2, ,-62, ,
3, ,-63, ,
2, ,-63, ,
2, ,-62, ,
3, ,-62, ,
2, ,-63, ,
2, ,-62, ,
2, ,-62, ,
3, ,-63, ,
2, ,-62, ,
3, ,-63, ,
2, ,-63, ,
2, ,-63, ,
2, ,-63, ,
3, ,-63, ,
2, ,-62, ,
3, ,-63, ,
2, ,-62, ,
2, ,-62, ,
2, ,-62, ,
3, ,-63, ,
2, ,-62, ,
3, ,-63, ,
2, ,-63, ,
2, ,-63, ,
2, ,-63, ,
3, ,-63, ,
2, ,-62, ,
3, ,-62, ,
2, ,-63, ,
2, ,-63, ,
2, ,-63, ,
3, ,-63, ,
1, ,-62, ,
3, ,-63, ,
2, ,-63, ,
2, ,-62, ,
2, ,-63, ,
3, ,-63, ,
1, ,-62, ,
3, ,-63, ,
2, ,-63, ,
2, ,-63, ,
2, ,-63, ,
3, ,-63, ,
2, ,-62, ,
2, ,-63, ,
2, ,-63, ,
2, ,-62, ,
2, ,-63, ,
3, ,-63, ,
1, ,-62, ,
3, ,-62, ,
2, ,-63, ,
2, ,-63, ,
2, ,-63, ,
3, ,-63, ,
1, ,-62, ,
2, ,-63, ,
2, ,-63, ,
2, ,-62, ,
2, ,-62, ,
2, ,-63, ,
2, ,-62, ,
3, ,-63, ,
2, ,-63, ,
2, ,-63, ,
2, ,-63, ,
3, ,-63, ,
2, ,-62, ,
2, ,-62, ,
2, ,-63, ,
1, ,-62, ,
2, ,-62, ,
2, ,-63, ,
2, ,-62, ,
2, ,-63, ,
2, ,-63, ,
2, ,-62, ,
2, ,-63, ,
2, ,-63, ,
1, ,-62, ,
2, ,-62, ,
2, ,-63, ,
1, ,-62, ,
2, ,-63, ,
3, ,-63, ,
2, ,-62, ,
2, ,-62, ,
2, ,-63, ,
1, ,-63, ,
2, ,-62, ,
3, ,-63, ,
1, ,-62, ,
2, ,-62, ,
2, ,-63, ,
2, ,-62, ,
2, ,-63, ,
2, ,-63, ,
1, ,-62, ,
2, ,-63, ,
2, ,-63, ,
1, ,-63, ,
2, ,-63, ,
2, ,-63, ,
1, ,-62, ,
2, ,-62, ,
2, ,-63, ,
1, ,-62, ,
2, ,-63, ,
2, ,-63, ,
1, ,-62, ,
2, ,-62, ,
1, ,-63, ,
1, ,-63, ,
2, ,-63, ,
2, ,-63, ,
1, ,-62, ,
2, ,-63, ,
2, ,-63, ,
2, ,-63, ,
2, ,-63, ,
2, ,-63, ,
1, ,-62, ,
2, ,-63, ,
2, ,-62, ,
1, ,-63, ,
2, ,-63, ,
2, ,-63, ,
1, ,-62, ,
2, ,-63, ,
2, ,-63, ,
1, ,-63, ,
2, ,-63, ,
2, ,-63, ,
1, ,-63, ,
2, ,-63, ,
2, ,-62, ,
1, ,-63, ,
2, ,-62, ,
2, ,-63, ,
1, ,-62, ,
2, ,-62, ,
1, ,-63, ,
1, ,-63, ,
2, ,-63, ,
2, ,-63, ,
1, ,-62, ,
2, ,-63, ,
1, ,-63, ,
2, ,-63, ,
2, ,-63, ,
2, ,-63, ,
1, ,-62, ,
2, ,-63, ,
1, ,-63, ,
2, ,-63, ,
2, ,-62, ,
2, ,-63, ,
1, ,-62, ,
2, ,-62, ,
1, ,-62, ,
1, ,-63, ,
2, ,-63, ,
2, ,-63, ,
1, ,-62, ,
2, ,-63, ,
2, ,-63, ,
1, ,-63, ,
2, ,-62, ,
2, ,-63, ,
1, ,-62, ,
2, ,-62, ,
2, ,-62, ,
1, ,-63, ,
2, ,-62, ,
2, ,-63, ,
1, ,-63, ,
2, ,-62, ,
1, ,-63, ,
1, ,-63, ,
2, ,-63, ,
2, ,-63, ,
1, ,-62, ,
2, ,-63, ,
1, ,-63, ,
1, ,-62, ,
2, ,-63, ,
2, ,-63, ,
1, ,-62, ,
2, ,-62, ,
1, ,-63, ,
1, ,-63, ,
2, ,-63, ,
2, ,-63, ,
1, ,-62, ,
2, ,-63, ,
1, ,-63, ,
2, ,-63, ,
2, ,-63, ,
2, ,-63, ,
1, ,-62, ,
2, ,-63, ,
1, ,-63, ,
1, ,-63, ,
2, ,-63, ,
2, ,-63, ,
1, ,-62, ,
2, ,-63, ,
1, ,-63, ,
1, ,-63, ,
2, ,-63, ,
2, ,-63, ,
1, ,-62, ,
2, ,-63, ,
1, ,-63, ,
2, ,-62, ,
2, ,-63, ,
2, ,-63, ,
1, ,-62, ,
2, ,-63, ,
1, ,-63, ,
1, ,-63, ,
2, ,-62, ,
2, ,-63, ,
1, ,-62, ,
2, ,-63, ,
1, ,-63, ,
1, ,-63, ,
2, ,-63, ,
2, ,-63, ,
1, ,-62, ,
2, ,-63, ,
1, ,-63, ,
1, ,-63, ,
2, ,-62, ,
2, ,-63, ,
1, ,-62, ,
2, ,-63, ,
1, ,-63, ,
1, ,-63, ,
2, ,-63, ,
2, ,-63, ,
1, ,-62, ,
2, ,-63, ,
1, ,-63, ,
1, ,-63, ,
2, ,-63, ,
2, ,-63, ,
1, ,-62, ,
2, ,-63, ,
1, ,-63, ,
1, ,-63, ,
2, ,-63, ,
2, ,-63, ,
1, ,-62, ,
2, ,-63, ,
1, ,-63, ,
1, ,-63, ,
2, ,-63, ,
2, ,-63, ,
1, ,-62, ,
2, ,-63, ,
1, ,-63, ,
1, ,-62, ,
2, ,-62, ,
2, ,-63, ,
1, ,-63, ,
2, ,-63, ,
1, ,-63, ,
1, ,-63, ,
1, ,-63, ,
1, ,-63, ,
1, ,-62, ,
2, ,-63, ,
1, ,-63, ,
1, ,-63, ,
2, ,-63, ,
2, ,-63, ,
1, ,-62, ,
2, ,-63, ,
1, ,-63, ,
1, ,-63, ,
2, ,-63, ,
2, ,-63, ,
1, ,-62, ,
2, ,-63, ,
1, ,-63, ,
1, ,-63, ,
2, ,-63, ,
1, ,-63, ,
1, ,-62, ,
2, ,-62, ,
1, ,-63, ,
1, ,-63, ,
2, ,-63, ,
2, ,-63, ,
1, ,-62, ,
2, ,-63, ,
1, ,-63, ,
1, ,-63, ,
2, ,-63, ,
1, ,-63, ,
1, ,-62, ,
2, ,-63, ,
1, ,-63, ,
1, ,-63, ,
2, ,-63, ,
1, ,-63, ,
1, ,-63, ,
2, ,-63, ,
1, ,-63, ,
1, ,-53, ,
2, ,-33, ,
2, ,-17, ,
1, ,-4, ,
2, ,4, ,
1, ,11, ,
1, ,16, ,
2, ,20, ,
1, ,23, ,
1, ,25, ,
2, ,26, ,
1, ,27, ,
1, ,28, ,
2, ,28, ,
1, ,30, ,
1, ,30, ,
2, ,30, ,
1, ,30, ,
1, ,31, ,
2, ,31, ,
1, ,31, ,
-1, ,31, ,
2, ,31, ,
1, ,31, ,
1, ,31, ,
2, ,31, ,
1, ,31, ,
1, ,31, ,
2, ,31, ,
1, ,31, ,
1, ,31, ,
2, ,30, ,
1, ,31, ,
-1, ,31, ,
2, ,30, ,
1, ,30, ,
1, ,31, ,
2, ,30, ,
1, ,31, ,
-1, ,31, ,
2, ,30, ,
1, ,31, ,
1, ,31, ,
2, ,30, ,
1, ,31, ,
-1, ,31, ,
2, ,30, ,
1, ,30, ,
1, ,31, ,
2, ,30, ,
1, ,30, ,
-1, ,30, ,
2, ,30, ,
1, ,30, ,
1, ,30, ,
2, ,30, ,
1, ,30, ,
-1, ,30, ,
2, ,30, ,
1, ,30, ,
1, ,30, ,
2, ,30, ,
1, ,30, ,
-1, ,30, ,
2, ,31, ,
1, ,31, ,
1, ,30, ,
2, ,30, ,
1, ,30, ,
-1, ,30, ,
2, ,30, ,
1, ,30, ,
1, ,30, ,
2, ,30, ,
1, ,30, ,
-1, ,30, ,
2, ,30, ,
1, ,30, ,
1, ,30, ,
1, ,30, ,
1, ,30, ,
-1, ,30, ,
2, ,30, ,
1, ,30, ,
1, ,30, ,
1, ,30, ,
1, ,30, ,
-1, ,31, ,
2, ,30, ,
1, ,30, ,
1, ,30, ,
1, ,30, ,
1, ,31, ,
-1, ,30, ,
2, ,30, ,
-1, ,30, ,
1, ,30, ,
1, ,30, ,
1, ,30, ,
-1, ,30, ,
2, ,30, ,
1, ,30, ,
-1, ,30, ,
1, ,30, ,
1, ,30, ,
-1, ,30, ,
2, ,30, ,
1, ,30, ,
1, ,30, ,
1, ,30, ,
1, ,30, ,
-1, ,30, ,
2, ,30, ,
1, ,30, ,
-1, ,30, ,
1, ,30, ,
1, ,30, ,
-1, ,30, ,
2, ,30, ,
1, ,30, ,
-1, ,30, ,
1, ,30, ,
1, ,30, ,
-1, ,30, ,
2, ,30, ,
1, ,30, ,
1, ,30, ,
2, ,30, ,
1, ,30, ,
-1, ,30, ,
2, ,30, ,
1, ,30, ,
1, ,30, ,
1, ,30, ,
1, ,30, ,
-1, ,30, ,
2, ,30, ,
1, ,30, ,
1, ,30, ,
2, ,30, ,
1, ,30, ,
-1, ,30, ,
2, ,30, ,
1, ,30, ,
1, ,30, ,
1, ,30, ,
1, ,30, ,
-1, ,30, ,
2, ,30, ,
1, ,30, ,
1, ,30, ,
1, ,30, ,
1, ,30, ,
-1, ,30, ,
2, ,27, ,
1, ,11, ,
1, ,-8, ,
1, ,-22, ,
1, ,-33, ,
-1, ,-40, ,
2, ,-46, ,
1, ,-52, ,
1, ,-55, ,
1, ,-57, ,
1, ,-59, ,
-1, ,-60, ,
2, ,-61, ,
1, ,-62, ,
1, ,-62, ,
1, ,-62, ,
1, ,-63, ,
-1, ,-63, ,
2, ,-63, ,
1, ,-63, ,
1, ,-64, ,
2, ,-64, ,
1, ,-64, ,
-1, ,-63, ,
2, ,-63, ,
1, ,-63, ,
1, ,-63, ,
1, ,-63, ,
1, ,-64, ,
1, ,-63, ,
2, ,-63, ,
1, ,-63, ,
1, ,-63, ,
1, ,-63, ,
1, ,-64, ,
-1, ,-63, ,
2, ,-63, ,
1, ,-63, ,
1, ,-63, ,
1, ,-63, ,
1, ,-64, ,
-1, ,-63, ,
2, ,-63, ,
1, ,-63, ,
1, ,-63, ,
2, ,-62, ,
1, ,-63, ,
-1, ,-62, ,
2, ,-63, ,
1, ,-63, ,
1, ,-63, ,
2, ,-63, ,
1, ,-63, ,
-1, ,-63, ,
1, ,-63, ,
1, ,-63, ,
1, ,-63, ,
2, ,-63, ,
1, ,-63, ,
-1, ,-63, ,
1, ,-63, ,
1, ,-63, ,
1, ,-62, ,
1, ,-62, ,
1, ,-63, ,
-1, ,-63, ,
2, ,-63, ,
-1, ,-63, ,
1, ,-63, ,
1, ,-63, ,
1, ,-64, ,
-1, ,-63, ,
1, ,-63, ,
1, ,-63, ,
-1, ,-63, ,
1, ,-63, ,
1, ,-63, ,
-1, ,-63, ,
1, ,-63, ,
1, ,-63, ,
1, ,-63, ,
1, ,-63, ,
1, ,-63, ,
-1, ,-62, ,
1, ,-63, ,
1, ,-63, ,
1, ,-63, ,
1, ,-63, ,
1, ,-63, ,
-1, ,-63, ,
2, ,-63, ,
1, ,-63, ,
1, ,-63, ,
1, ,-63, ,
1, ,-63, ,
-1, ,-63, ,
1, ,-63, ,
1, ,-63, ,
1, ,-62, ,
1, ,-63, ,
1, ,-63, ,
-1, ,-62, ,
1, ,-63, ,
1, ,-63, ,
1, ,-63, ,
1, ,-63, ,
2, ,-63, ,
-1, ,-63, ,
1, ,-63, ,
1, ,-63, ,
1, ,-63, ,
1, ,-63, ,
1, ,-63, ,
-1, ,-63, ,
1, ,-63, ,
-1, ,-62, ,
1, ,-62, ,
1, ,-62, ,
2, ,-63, ,
-1, ,-63, ,
2, ,-63, ,
1, ,-63, ,
1, ,-63, ,
1, ,-63, ,
1, ,-64, ,
-1, ,-63, ,
2, ,-63, ,
1, ,-63, ,
1, ,-63, ,
1, ,-63, ,
1, ,-63, ,
-1, ,-62, ,
1, ,-62, ,
1, ,-63, ,
1, ,-63, ,
2, ,-62, ,
1, ,-63, ,
-1, ,-63, ,
2, ,-63, ,
1, ,-63, ,
1, ,-63, ,
2, ,-63, ,
1, ,-63, ,
-1, ,-62, ,
1, ,-62, ,
1, ,-63, ,
1, ,-62, ,
1, ,-62, ,
1, ,-63, ,
-1, ,-62, ,
1, ,-62, ,
-1, ,-63, ,
1, ,-63, ,
1, ,-63, ,
1, ,-63, ,
-1, ,-62, ,
1, ,-63, ,
1, ,-63, ,
1, ,-62, ,
1, ,-62, ,
1, ,-63, ,
-1, ,-62, ,
1, ,-63, ,
1, ,-63, ,
1, ,-63, ,
1, ,-63, ,
1, ,-63, ,
-1, ,-62, ,
2, ,-63, ,
1, ,-63, ,
1, ,-63, ,
1, ,-62, ,
1, ,-63, ,
-1, ,-62, ,
1, ,-63, ,
1, ,-63, ,
1, ,-63, ,
1, ,-63, ,
1, ,-63, ,
-1, ,-62, ,
1, ,-62, ,
1, ,-63, ,
1, ,-63, ,
1, ,-63, ,
1, ,-63, ,
-1, ,-62, ,
1, ,-63, ,
1, ,-63, ,
1, ,-63, ,
1, ,-63, ,
1, ,-63, ,
-1, ,-62, ,
1, ,-63, ,
-1, ,-63, ,
1, ,-63, ,
1, ,-62, ,
2, ,-63, ,
-1, ,-62, ,
1, ,-62, ,
1, ,-63, ,
-1, ,-63, ,
1, ,-63, ,
1, ,-63, ,
-1, ,-62, ,
1, ,-63, ,
1, ,-63, ,
1, ,-63, ,
1, ,-63, ,
1, ,-63, ,
-1, ,-62, ,
1, ,-62, ,
-1, ,-63, ,
1, ,-63, ,
1, ,-63, ,
1, ,-63, ,
-1, ,-62, ,
1, ,-62, ,
-1, ,-63, ,
-1, ,-63, ,
1, ,-62, ,
1, ,-63, ,
-1, ,-62, ,
1, ,-63, ,
-1, ,-63, ,
-1, ,-63, ,
1, ,-62, ,
1, ,-63, ,
-1, ,-62, ,
1, ,-63, ,
1, ,-63, ,
-1, ,-63, ,
1, ,-62, ,
1, ,-63, ,
-1, ,-62, ,
1, ,-62, ,
1, ,-63, ,
1, ,-63, ,
1, ,-63, ,
1, ,-63, ,
-1, ,-61, ,
1, ,-62, ,
1, ,-63, ,
1, ,-62, ,
1, ,-62, ,
1, ,-63, ,
-1, ,-63, ,
1, ,-63, ,
-1, ,-63, ,
-1, ,-63, ,
2, ,-63, ,
1, ,-63, ,
-1, ,-62, ,
1, ,-63, ,
1, ,-63, ,
-1, ,-63, ,
1, ,-62, ,
1, ,-63, ,
-1, ,-63, ,
1, ,-63, ,
-1, ,-63, ,
1, ,-62, ,
1, ,-63, ,
1, ,-63, ,
-1, ,-62, ,
1, ,-62, ,
1, ,-63, ,
-1, ,-63, ,
1, ,-62, ,
1, ,-63, ,
-1, ,-62, ,
1, ,-63, ,
1, ,-63, ,
1, ,-63, ,
1, ,-63, ,
1, ,-63, ,
-1, ,-62, ,
1, ,-63, ,
1, ,-63, ,
1, ,-63, ,
1, ,-63, ,
1, ,-63, ,
-1, ,-63, ,
1, ,-63, ,
-1, ,-63, ,
1, ,-63, ,
1, ,-63, ,
1, ,-63, ,
-1, ,-62, ,
1, ,-62, ,
1, ,-63, ,
1, ,-63, ,
1, ,-62, ,
1, ,-63, ,
-1, ,-63, ,
1, ,-63, ,
1, ,-63, ,
1, ,-63, ,
1, ,-63, ,
1, ,-63, ,
-1, ,-62, ,
1, ,-63, ,
1, ,-63, ,
1, ,-63, ,
1, ,-63, ,
1, ,-63, ,
-1, ,-62, ,
1, ,-63, ,
1, ,-63, ,
1, ,-63, ,
1, ,-63, ,
1, ,-63, ,
-1, ,-62, ,
1, ,-62, ,
1, ,-63, ,
1, ,-63, ,
1, ,-63, ,
1, ,-63, ,
-1, ,-62, ,
1, ,-63, ,
-1, ,-63, ,
1, ,-63, ,
1, ,-63, ,
1, ,-63, ,
-1, ,-62, ,
1, ,-62, ,
1, ,-63, ,
-1, ,-63, ,
1, ,-62, ,
1, ,-63, ,
-1, ,-62, ,
1, ,-63, ,
-1, ,-63, ,
1, ,-63, ,
1, ,-63, ,
1, ,-63, ,
-1, ,-62, ,
1, ,-63, ,
1, ,-63, ,
-1, ,-63, ,
1, ,-62, ,
1, ,-63, ,
-1, ,-63, ,
2, ,-63, ,
-1, ,-63, ,
1, ,-63, ,
1, ,-63, ,
2, ,-63, ,
-1, ,-62, ,
1, ,-63, ,
-1, ,-63, ,
-1, ,-63, ,
1, ,-63, ,
1, ,-63, ,
-1, ,-63, ,
1, ,-62, ,
-1, ,-63, ,
-1, ,-63, ,
1, ,-62, ,
1, ,-63, ,
-1, ,-62, ,
1, ,-62, ,
1, ,-63, ,
-1, ,-63, ,
1, ,-62, ,
1, ,-63, ,
-1, ,-62, ,
1, ,-63, ,
-1, ,-63, ,
-1, ,-62, ,
1, ,-63, ,
1, ,-63, ,
-1, ,-62, ,
1, ,-63, ,
-1, ,-63, ,
-1, ,-63, ,
1, ,-63, ,
1, ,-63, ,
-1, ,-62, ,
1, ,-62, ,
-1, ,-63, ,
-1, ,-63, ,
1, ,-63, ,
1, ,-63, ,
-1, ,-62, ,
1, ,-63, ,
1, ,-63, ,
-1, ,-63, ,
1, ,-63, ,
1, ,-63, ,
-1, ,-62, ,
1, ,-63, ,
-1, ,-63, ,
1, ,-63, ,
1, ,-63, ,
1, ,-63, ,
-1, ,-62, ,
1, ,-63, ,
1, ,-63, ,
1, ,-63, ,
1, ,-63, ,
1, ,-63, ,
-1, ,-62, ,
1, ,-63, ,
-1, ,-63, ,
1, ,-63, ,
1, ,-63, ,
2, ,-63, ,
-1, ,-62, ,
1, ,-63, ,
1, ,-63, ,
-1, ,-63, ,
1, ,-62, ,
1, ,-63, ,
-1, ,-63, ,
1, ,-63, ,
-1, ,-62, ,
1, ,-63, ,
1, ,-62, ,
1, ,-63, ,
-1, ,-62, ,
1, ,-63, ,
1, ,-63, ,
-1, ,-63, ,
1, ,-62, ,
1, ,-63, ,
-1, ,-62, ,
1, ,-62, ,
1, ,-63, ,
1, ,-63, ,
1, ,-63, ,
1, ,-63, ,
-1, ,-62, ,
1, ,-62, ,
1, ,-63, ,
1, ,-62, ,
1, ,-62, ,
1, ,-63, ,
-1, ,-62, ,
1, ,-63, ,
-1, ,-63, ,
1, ,-63, ,
1, ,-63, ,
1, ,-63, ,
-1, ,-62, ,
1, ,-62, ,
1, ,-63, ,
-1, ,-63, ,
1, ,-62, ,
1, ,-63, ,
-1, ,-62, ,
1, ,-62, ,
-1, ,-63, ,
1, ,-63, ,
1, ,-63, ,
1, ,-63, ,
-1, ,-62, ,
1, ,-63, ,
1, ,-63, ,
-1, ,-63, ,
1, ,-63, ,
1, ,-63, ,
-1, ,-62, ,
1, ,-62, ,
-1, ,-62, ,
1, ,-63, ,
1, ,-63, ,
1, ,-63, ,
