src/varyamp_1560/temp0002059.CSV

Format,1.0B,
Memory Length,10000,Memory Length,10000,
IntpDistance,0,IntpDistance,0,
Trigger Address,4999,Trigger Address,4999,
Trigger Level,1.040E+00,Trigger Level,1.040E+00,
Source,CH1,Source,CH2,
Vertical Units,V,Vertical Units,V,
Vertical Units Div,0,Vertical Units Div,0,
Vertical Units Extend Div,16,Vertical Units Extend Div,16,
Label,,Label,,
Probe Type,0,Probe Type,0,
Probe Ratio,1.000e+01,Probe Ratio,1.000e+00,
Vertical Scale,5.000e-01,Vertical Scale,1.000e+00,
Vertical Position,-1.820e+00,Vertical Position,0.000e+00,
Horizontal Units,S,Horizontal Units,S,
Horizontal Scale,2.000E-05,Horizontal Scale,2.000E-05,
Horizontal Position,0.000E+00,Horizontal Position,0.000E+00,
Horizontal Mode,Main,Horizontal Mode,Main,
SincET Mode,Real Time,SincET Mode,Real Time,
Sampling Period,2.000e-08,Sampling Period,2.000e-08,
Horizontal Old Scale,2.000E-05,Horizontal Old Scale,2.000E-05,
Horizontal Old Position,0.000E+00,Horizontal Old Position,0.000E+00,
Firmware,V1.23,Firmware,V1.23,
Mode,Fast,Mode,Fast,
Waveform Data,,Waveform Data,,
2, ,-52, ,
1, ,-52, ,
1, ,-52, ,
2, ,-52, ,
2, ,-52, ,
1, ,-52, ,
2, ,-52, ,
1, ,-52, ,
1, ,-52, ,
2, ,-52, ,
1, ,-52, ,
1, ,-51, ,
2, ,-52, ,
1, ,-52, ,
1, ,-52, ,
2, ,-52, ,
2, ,-52, ,
1, ,-52, ,
2, ,-52, ,
1, ,-52, ,
1, ,-52, ,
2, ,-52, ,
2, ,-52, ,
1, ,-52, ,
2, ,-52, ,
1, ,-52, ,
2, ,-52, ,
2, ,-52, ,
2, ,-52, ,
1, ,-52, ,
2, ,-52, ,
1, ,-52, ,
1, ,-52, ,
2, ,-52, ,
2, ,-52, ,
1, ,-52, ,
2, ,-52, ,
1, ,-52, ,
1, ,-52, ,
2, ,-52, ,
2, ,-52, ,
1, ,-52, ,
2, ,-52, ,
1, ,-52, ,
1, ,-52, ,
2, ,-52, ,
2, ,-52, ,
1, ,-51, ,
2, ,-52, ,
1, ,-52, ,
1, ,-52, ,
2, ,-52, ,
2, ,-52, ,
1, ,-52, ,
2, ,-52, ,
1, ,-52, ,
1, ,-52, ,
1, ,-52, ,
2, ,-52, ,
1, ,-52, ,
2, ,-52, ,
1, ,-52, ,
1, ,-52, ,
2, ,-51, ,
2, ,-52, ,
1, ,-52, ,
2, ,-52, ,
1, ,-52, ,
1, ,-52, ,
2, ,-52, ,
1, ,-52, ,
1, ,-52, ,
2, ,-52, ,
1, ,-52, ,
1, ,-52, ,
2, ,-52, ,
2, ,-52, ,
-1, ,-52, ,
2, ,-52, ,
1, ,-52, ,
1, ,-52, ,
1, ,-52, ,
1, ,-52, ,
1, ,-51, ,
2, ,-52, ,
1, ,-52, ,
1, ,-52, ,
2, ,-52, ,
2, ,-52, ,
-1, ,-52, ,
2, ,-52, ,
1, ,-52, ,
1, ,-52, ,
2, ,-52, ,
1, ,-52, ,
-1, ,-52, ,
2, ,-52, ,
1, ,-52, ,
1, ,-52, ,
1, ,-52, ,
1, ,-52, ,
-1, ,-52, ,
2, ,-52, ,
1, ,-52, ,
2, ,-52, ,
1, ,-52, ,
1, ,-53, ,
-1, ,-52, ,
2, ,-52, ,
1, ,-52, ,
1, ,-52, ,
1, ,-52, ,
2, ,-52, ,
-1, ,-52, ,
2, ,-52, ,
1, ,-52, ,
1, ,-52, ,
2, ,-52, ,
2, ,-53, ,
1, ,-51, ,
2, ,-52, ,
1, ,-52, ,
1, ,-52, ,
2, ,-52, ,
1, ,-52, ,
-1, ,-52, ,
2, ,-52, ,
1, ,-52, ,
1, ,-52, ,
1, ,-52, ,
1, ,-52, ,
-1, ,-52, ,
2, ,-52, ,
1, ,-52, ,
1, ,-52, ,
1, ,-52, ,
2, ,-52, ,
1, ,-52, ,
2, ,-52, ,
1, ,-52, ,
1, ,-52, ,
2, ,-52, ,
2, ,-52, ,
-1, ,-52, ,
2, ,-52, ,
1, ,-52, ,
1, ,-52, ,
2, ,-52, ,
2, ,-52, ,
-1, ,-52, ,
2, ,-52, ,
1, ,-52, ,
1, ,-52, ,
1, ,-52, ,
1, ,-52, ,
-1, ,-52, ,
2, ,-52, ,
1, ,-52, ,
1, ,-52, ,
1, ,-52, ,
2, ,-52, ,
-1, ,-52, ,
2, ,-52, ,
1, ,-52, ,
1, ,-52, ,
2, ,-52, ,
1, ,-52, ,
-1, ,-52, ,
2, ,-52, ,
1, ,-52, ,
1, ,-52, ,
2, ,-52, ,
1, ,-52, ,
-1, ,-52, ,
2, ,-52, ,
1, ,-52, ,
1, ,-52, ,
1, ,-52, ,
1, ,-52, ,
-1, ,-52, ,
2, ,-52, ,
1, ,-52, ,
1, ,-52, ,
1, ,-52, ,
1, ,-52, ,
-1, ,-52, ,
2, ,-52, ,
1, ,-52, ,
1, ,-52, ,
2, ,-52, ,
2, ,-52, ,
-1, ,-51, ,
2, ,-52, ,
1, ,-52, ,
1, ,-52, ,
1, ,-52, ,
1, ,-52, ,
-1, ,-52, ,
2, ,-52, ,
1, ,-52, ,
1, ,-52, ,
1, ,-52, ,
1, ,-52, ,
-1, ,-52, ,
2, ,-52, ,
1, ,-52, ,
1, ,-52, ,
1, ,-51, ,
1, ,-52, ,
-1, ,-52, ,
2, ,-52, ,
1, ,-52, ,
1, ,-52, ,
1, ,-52, ,
1, ,-53, ,
-1, ,-52, ,
2, ,-52, ,
1, ,-52, ,
1, ,-52, ,
1, ,-52, ,
1, ,-52, ,
-1, ,-52, ,
2, ,-52, ,
1, ,-52, ,
1, ,-52, ,
1, ,-52, ,
2, ,-52, ,
-1, ,-52, ,
2, ,-52, ,
1, ,-52, ,
1, ,-52, ,
1, ,-52, ,
2, ,-52, ,
-1, ,-52, ,
2, ,-52, ,
1, ,-52, ,
1, ,-52, ,
1, ,-52, ,
1, ,-52, ,
-1, ,-52, ,
2, ,-52, ,
1, ,-52, ,
1, ,-52, ,
1, ,-52, ,
1, ,-52, ,
-1, ,-52, ,
2, ,-52, ,
1, ,-52, ,
1, ,-52, ,
1, ,-52, ,
1, ,-52, ,
-1, ,-52, ,
2, ,-52, ,
1, ,-52, ,
1, ,-52, ,
1, ,-52, ,
2, ,-52, ,
-1, ,-52, ,
2, ,-52, ,
1, ,-52, ,
1, ,-52, ,
1, ,-52, ,
1, ,-52, ,
-1, ,-52, ,
2, ,-52, ,
1, ,-52, ,
1, ,-52, ,
1, ,-52, ,
2, ,-52, ,
-1, ,-52, ,
2, ,-52, ,
1, ,-52, ,
1, ,-52, ,
1, ,-52, ,
1, ,-53, ,
-1, ,-52, ,
2, ,-52, ,
1, ,-52, ,
1, ,-52, ,
1, ,-52, ,
1, ,-52, ,
-1, ,-52, ,
2, ,-52, ,
1, ,-52, ,
1, ,-52, ,
1, ,-52, ,
1, ,-52, ,
-1, ,-52, ,
2, ,-52, ,
1, ,-52, ,
1, ,-52, ,
1, ,-52, ,
1, ,-52, ,
-1, ,-52, ,
2, ,-52, ,
-1, ,-52, ,
1, ,-52, ,
1, ,-52, ,
2, ,-52, ,
-1, ,-51, ,
2, ,-52, ,
1, ,-52, ,
1, ,-52, ,
1, ,-52, ,
1, ,-52, ,
-1, ,-44, ,
2, ,-24, ,
1, ,-7, ,
1, ,5, ,
2, ,15, ,
2, ,21, ,
-1, ,27, ,
2, ,31, ,
-1, ,34, ,
1, ,36, ,
2, ,37, ,
1, ,39, ,
-1, ,39, ,
2, ,40, ,
-1, ,41, ,
1, ,41, ,
1, ,41, ,
1, ,41, ,
-1, ,41, ,
2, ,42, ,
1, ,42, ,
1, ,42, ,
1, ,42, ,
1, ,42, ,
-1, ,41, ,
2, ,42, ,
1, ,42, ,
1, ,42, ,
1, ,41, ,
1, ,42, ,
-1, ,42, ,
2, ,42, ,
-1, ,41, ,
1, ,41, ,
1, ,41, ,
1, ,42, ,
-1, ,41, ,
2, ,41, ,
1, ,42, ,
-1, ,41, ,
1, ,41, ,
1, ,41, ,
-1, ,41, ,
2, ,41, ,
-1, ,41, ,
1, ,42, ,
1, ,41, ,
1, ,42, ,
-1, ,41, ,
2, ,41, ,
1, ,41, ,
1, ,42, ,
1, ,41, ,
1, ,42, ,
-1, ,41, ,
2, ,41, ,
1, ,41, ,
1, ,41, ,
1, ,41, ,
1, ,42, ,
-1, ,41, ,
1, ,41, ,
1, ,41, ,
1, ,42, ,
1, ,41, ,
1, ,41, ,
-1, ,41, ,
2, ,41, ,
1, ,41, ,
1, ,41, ,
1, ,41, ,
1, ,41, ,
-1, ,41, ,
2, ,41, ,
1, ,41, ,
-1, ,41, ,
1, ,41, ,
1, ,42, ,
-1, ,41, ,
2, ,41, ,
1, ,41, ,
1, ,41, ,
1, ,41, ,
1, ,41, ,
-1, ,41, ,
2, ,41, ,
1, ,41, ,
1, ,41, ,
1, ,41, ,
1, ,41, ,
-1, ,41, ,
2, ,41, ,
1, ,41, ,
1, ,41, ,
1, ,41, ,
1, ,42, ,
-1, ,41, ,
2, ,41, ,
1, ,41, ,
1, ,41, ,
1, ,41, ,
1, ,41, ,
-1, ,41, ,
2, ,41, ,
1, ,41, ,
1, ,41, ,
2, ,41, ,
1, ,41, ,
-1, ,41, ,
2, ,41, ,
1, ,41, ,
1, ,41, ,
1, ,41, ,
1, ,41, ,
-1, ,41, ,
2, ,41, ,
1, ,41, ,
1, ,41, ,
1, ,41, ,
1, ,42, ,
-1, ,41, ,
2, ,41, ,
1, ,41, ,
1, ,41, ,
1, ,41, ,
1, ,41, ,
-1, ,41, ,
2, ,41, ,
1, ,41, ,
1, ,41, ,
1, ,41, ,
1, ,42, ,
-1, ,41, ,
2, ,41, ,
-1, ,41, ,
1, ,41, ,
2, ,41, ,
1, ,41, ,
-1, ,41, ,
2, ,41, ,
1, ,41, ,
-1, ,41, ,
1, ,41, ,
1, ,41, ,
-1, ,41, ,
2, ,41, ,
1, ,41, ,
1, ,41, ,
1, ,41, ,
1, ,41, ,
-1, ,41, ,
2, ,41, ,
1, ,41, ,
-1, ,41, ,
1, ,39, ,
1, ,23, ,
-1, ,4, ,
1, ,-11, ,
1, ,-21, ,
-1, ,-30, ,
1, ,-35, ,
1, ,-40, ,
-1, ,-42, ,
1, ,-45, ,
1, ,-47, ,
1, ,-49, ,
1, ,-50, ,
1, ,-51, ,
-1, ,-51, ,
2, ,-52, ,
1, ,-52, ,
1, ,-52, ,
1, ,-52, ,
1, ,-53, ,
-1, ,-52, ,
1, ,-53, ,
-1, ,-53, ,
1, ,-52, ,
1, ,-52, ,
1, ,-53, ,
-1, ,-53, ,
1, ,-52, ,
-1, ,-53, ,
-1, ,-53, ,
1, ,-52, ,
1, ,-53, ,
-1, ,-53, ,
1, ,-52, ,
-1, ,-52, ,
1, ,-52, ,
1, ,-52, ,
1, ,-52, ,
-1, ,-52, ,
1, ,-52, ,
-1, ,-52, ,
-1, ,-52, ,
1, ,-52, ,
1, ,-53, ,
-1, ,-52, ,
1, ,-52, ,
-1, ,-52, ,
-1, ,-52, ,
1, ,-52, ,
1, ,-53, ,
-1, ,-52, ,
1, ,-52, ,
-1, ,-52, ,
-1, ,-52, ,
1, ,-52, ,
1, ,-52, ,
-1, ,-52, ,
1, ,-52, ,
-1, ,-52, ,
-1, ,-52, ,
1, ,-52, ,
1, ,-52, ,
-1, ,-52, ,
1, ,-52, ,
-1, ,-52, ,
-1, ,-52, ,
1, ,-52, ,
1, ,-53, ,
-1, ,-52, ,
2, ,-52, ,
-1, ,-52, ,
-1, ,-52, ,
1, ,-52, ,
1, ,-52, ,
-1, ,-52, ,
1, ,-52, ,
-1, ,-52, ,
-1, ,-52, ,
1, ,-52, ,
1, ,-52, ,
-1, ,-51, ,
1, ,-52, ,
-1, ,-52, ,
-1, ,-52, ,
1, ,-52, ,
1, ,-52, ,
-1, ,-52, ,
1, ,-52, ,
-1, ,-52, ,
-1, ,-52, ,
1, ,-52, ,
1, ,-53, ,
-1, ,-52, ,
2, ,-52, ,
-1, ,-52, ,
1, ,-52, ,
1, ,-52, ,
1, ,-52, ,
-1, ,-52, ,
1, ,-52, ,
1, ,-52, ,
1, ,-52, ,
1, ,-52, ,
1, ,-52, ,
-1, ,-52, ,
2, ,-52, ,
-1, ,-52, ,
1, ,-52, ,
1, ,-52, ,
1, ,-52, ,
-1, ,-52, ,
1, ,-52, ,
-1, ,-52, ,
-1, ,-52, ,
1, ,-52, ,
1, ,-52, ,
-1, ,-51, ,
2, ,-52, ,
-1, ,-52, ,
1, ,-52, ,
1, ,-52, ,
1, ,-52, ,
-1, ,-52, ,
1, ,-52, ,
-1, ,-52, ,
-1, ,-52, ,
1, ,-52, ,
1, ,-52, ,
-1, ,-52, ,
1, ,-52, ,
-1, ,-52, ,
-1, ,-52, ,
1, ,-52, ,
1, ,-52, ,
-1, ,-52, ,
1, ,-52, ,
-1, ,-52, ,
-1, ,-52, ,
1, ,-52, ,
1, ,-52, ,
-1, ,-52, ,
1, ,-52, ,
-1, ,-52, ,
-1, ,-52, ,
1, ,-52, ,
1, ,-52, ,
-1, ,-52, ,
1, ,-52, ,
-1, ,-52, ,
-1, ,-52, ,
1, ,-52, ,
1, ,-52, ,
-1, ,-52, ,
1, ,-52, ,
-1, ,-52, ,
-1, ,-52, ,
1, ,-52, ,
1, ,-52, ,
-1, ,-52, ,
1, ,-52, ,
-1, ,-52, ,
-1, ,-52, ,
1, ,-52, ,
1, ,-52, ,
-1, ,-52, ,
1, ,-52, ,
-1, ,-52, ,
-1, ,-51, ,
1, ,-52, ,
1, ,-52, ,
-1, ,-52, ,
2, ,-52, ,
-1, ,-52, ,
1, ,-52, ,
1, ,-52, ,
1, ,-52, ,
-1, ,-52, ,
1, ,-52, ,
-1, ,-52, ,
-1, ,-52, ,
1, ,-52, ,
1, ,-52, ,
-1, ,-52, ,
1, ,-52, ,
-1, ,-52, ,
-1, ,-52, ,
1, ,-52, ,
1, ,-52, ,
-1, ,-52, ,
2, ,-52, ,
-1, ,-52, ,
-1, ,-52, ,
1, ,-52, ,
1, ,-52, ,
-1, ,-52, ,
1, ,-52, ,
-1, ,-52, ,
-1, ,-52, ,
1, ,-52, ,
1, ,-52, ,
-1, ,-52, ,
1, ,-52, ,
-1, ,-52, ,
-1, ,-52, ,
1, ,-52, ,
1, ,-52, ,
-1, ,-52, ,
1, ,-52, ,
-1, ,-52, ,
-1, ,-52, ,
1, ,-52, ,
1, ,-52, ,
-1, ,-52, ,
1, ,-52, ,
-1, ,-52, ,
-1, ,-52, ,
1, ,-52, ,
1, ,-52, ,
-1, ,-52, ,
1, ,-52, ,
-1, ,-52, ,
-1, ,-52, ,
1, ,-52, ,
1, ,-52, ,
-1, ,-52, ,
1, ,-52, ,
-1, ,-52, ,
-1, ,-52, ,
1, ,-52, ,
1, ,-52, ,
-1, ,-52, ,
2, ,-52, ,
-1, ,-52, ,
-1, ,-52, ,
1, ,-52, ,
1, ,-53, ,
-1, ,-52, ,
2, ,-52, ,
-1, ,-52, ,
-1, ,-52, ,
1, ,-52, ,
1, ,-52, ,
-1, ,-52, ,
1, ,-52, ,
-1, ,-52, ,
-1, ,-52, ,
1, ,-52, ,
1, ,-52, ,
-1, ,-52, ,
1, ,-52, ,
-1, ,-52, ,
1, ,-52, ,
1, ,-52, ,
1, ,-52, ,
-1, ,-52, ,
1, ,-52, ,
-1, ,-52, ,
-1, ,-52, ,
1, ,-52, ,
1, ,-52, ,
-1, ,-52, ,
1, ,-52, ,
-1, ,-52, ,
-1, ,-52, ,
1, ,-52, ,
1, ,-52, ,
-1, ,-52, ,
1, ,-52, ,
-1, ,-52, ,
-1, ,-52, ,
1, ,-52, ,
1, ,-52, ,
-1, ,-52, ,
1, ,-52, ,
-1, ,-52, ,
-1, ,-52, ,
1, ,-52, ,
1, ,-52, ,
-1, ,-52, ,
1, ,-52, ,
-1, ,-52, ,
-1, ,-52, ,
1, ,-52, ,
1, ,-53, ,
-1, ,-52, ,
2, ,-52, ,
-1, ,-52, ,
-1, ,-52, ,
1, ,-52, ,
1, ,-52, ,
-1, ,-52, ,
1, ,-52, ,
-1, ,-52, ,
-1, ,-52, ,
1, ,-52, ,
1, ,-52, ,
-1, ,-52, ,
1, ,-52, ,
-1, ,-52, ,
-1, ,-52, ,
1, ,-52, ,
1, ,-52, ,
-1, ,-52, ,
1, ,-52, ,
-1, ,-52, ,
-1, ,-52, ,
1, ,-52, ,
1, ,-53, ,
-1, ,-52, ,
1, ,-52, ,
-1, ,-52, ,
-1, ,-52, ,
1, ,-52, ,
1, ,-52, ,
-1, ,-52, ,
1, ,-52, ,
-1, ,-52, ,
-1, ,-52, ,
1, ,-52, ,
1, ,-52, ,
-1, ,-52, ,
1, ,-52, ,
-1, ,-52, ,
-1, ,-52, ,
1, ,-52, ,
1, ,-52, ,
-1, ,-52, ,
1, ,-52, ,
-1, ,-52, ,
1, ,-52, ,
1, ,-52, ,
1, ,-52, ,
-1, ,-52, ,
1, ,-52, ,
-1, ,-52, ,
-1, ,-52, ,
1, ,-52, ,
1, ,-52, ,
-1, ,-52, ,
1, ,-52, ,
-1, ,-52, ,
-1, ,-52, ,
1, ,-52, ,
1, ,-52, ,
-1, ,-52, ,
1, ,-52, ,
-1, ,-52, ,
-1, ,-52, ,
1, ,-52, ,
1, ,-52, ,
-1, ,-52, ,
1, ,-52, ,
-1, ,-52, ,
-1, ,-52, ,
1, ,-52, ,
1, ,-52, ,
-1, ,-52, ,
1, ,-52, ,
-1, ,-52, ,
-1, ,-52, ,
1, ,-52, ,
1, ,-52, ,
-1, ,-52, ,
1, ,-52, ,
-1, ,-52, ,
-1, ,-52, ,
1, ,-52, ,
1, ,-52, ,
-1, ,-52, ,
1, ,-52, ,
-1, ,-52, ,
-1, ,-52, ,
1, ,-52, ,
1, ,-52, ,
-1, ,-52, ,
1, ,-52, ,
-1, ,-52, ,
-1, ,-52, ,
1, ,-52, ,
1, ,-53, ,
-1, ,-52, ,
1, ,-52, ,
-1, ,-52, ,
-1, ,-52, ,
1, ,-52, ,
1, ,-52, ,
-1, ,-52, ,
1, ,-52, ,
-1, ,-52, ,
1, ,-52, ,
1, ,-52, ,
1, ,-52, ,
-1, ,-52, ,
2, ,-52, ,
-1, ,-52, ,
-1, ,-52, ,
1, ,-52, ,
1, ,-52, ,
-1, ,-52, ,
1, ,-52, ,
-1, ,-52, ,
1, ,-52, ,
1, ,-52, ,
1, ,-52, ,
-1, ,-52, ,
2, ,-52, ,
-1, ,-52, ,
-1, ,-52, ,
1, ,-52, ,
1, ,-52, ,
-1, ,-52, ,
1, ,-52, ,
-1, ,-52, ,
-1, ,-52, ,
1, ,-52, ,
1, ,-52, ,
-1, ,-52, ,
1, ,-52, ,
-1, ,-52, ,
-1, ,-52, ,
1, ,-52, ,
1, ,-52, ,
-1, ,-52, ,
1, ,-52, ,
-1, ,-52, ,
-1, ,-52, ,
1, ,-52, ,
1, ,-52, ,
-1, ,-52, ,
1, ,-52, ,
-1, ,-52, ,
1, ,-52, ,
1, ,-52, ,
1, ,-52, ,
-1, ,-52, ,
1, ,-52, ,
-1, ,-52, ,
-1, ,-52, ,
1, ,-52, ,
1, ,-52, ,
-1, ,-52, ,
1, ,-52, ,
-1, ,-52, ,
-1, ,-52, ,
1, ,-52, ,
1, ,-52, ,
-1, ,-52, ,
1, ,-52, ,
-1, ,-52, ,
-1, ,-52, ,
1, ,-52, ,
1, ,-52, ,
-1, ,-52, ,
1, ,-52, ,
-1, ,-52, ,
-1, ,-52, ,
1, ,-52, ,
1, ,-52, ,
-1, ,-52, ,
1, ,-52, ,
-1, ,-52, ,
-1, ,-52, ,
1, ,-52, ,
1, ,-52, ,
-1, ,-52, ,
1, ,-52, ,
-1, ,-52, ,
-1, ,-52, ,
1, ,-52, ,
1, ,-52, ,
-1, ,-52, ,
1, ,-52, ,
-1, ,-52, ,
-1, ,-52, ,
1, ,-52, ,
1, ,-52, ,
-1, ,-52, ,
1, ,-52, ,
-1, ,-52, ,
-1, ,-52, ,
1, ,-52, ,
1, ,-52, ,
-1, ,-52, ,
96, ,-52, ,
64, ,-52, ,
38, ,-52, ,
25, ,-52, ,
16, ,-52, ,
10, ,-52, ,
8, ,-52, ,
5, ,-52, ,
3, ,-52, ,
3, ,-52, ,
2, ,-52, ,
1, ,-52, ,
3, ,-52, ,
2, ,-52, ,
2, ,-52, ,
2, ,-52, ,
3, ,-52, ,
1, ,-52, ,
3, ,-52, ,
2, ,-52, ,
2, ,-52, ,
3, ,-52, ,
2, ,-52, ,
1, ,-52, ,
3, ,-52, ,
2, ,-52, ,
2, ,-52, ,
2, ,-52, ,
2, ,-52, ,
2, ,-52, ,
3, ,-52, ,
2, ,-52, ,
2, ,-52, ,
3, ,-52, ,
2, ,-52, ,
1, ,-52, ,
3, ,-52, ,
2, ,-52, ,
2, ,-52, ,
3, ,-52, ,
3, ,-52, ,
1, ,-52, ,
3, ,-52, ,
2, ,-52, ,
2, ,-52, ,
3, ,-52, ,
2, ,-52, ,
1, ,-52, ,
3, ,-52, ,
2, ,-52, ,
2, ,-52, ,
3, ,-52, ,
2, ,-52, ,
1, ,-52, ,
3, ,-52, ,
2, ,-52, ,
2, ,-52, ,
3, ,-51, ,
3, ,-52, ,
1, ,-52, ,
3, ,-52, ,
2, ,-52, ,
2, ,-52, ,
2, ,-52, ,
2, ,-53, ,
1, ,-51, ,
3, ,-52, ,
2, ,-52, ,
2, ,-52, ,
3, ,-52, ,
2, ,-52, ,
1, ,-52, ,
3, ,-52, ,
2, ,-52, ,
2, ,-52, ,
2, ,-52, ,
3, ,-52, ,
1, ,-52, ,
2, ,-52, ,
1, ,-52, ,
2, ,-52, ,
2, ,-52, ,
2, ,-52, ,
1, ,-52, ,
3, ,-52, ,
2, ,-52, ,
2, ,-52, ,
2, ,-52, ,
2, ,-52, ,
1, ,-52, ,
2, ,-52, ,
1, ,-52, ,
2, ,-52, ,
2, ,-52, ,
2, ,-52, ,
1, ,-52, ,
3, ,-52, ,
1, ,-52, ,
2, ,-52, ,
2, ,-52, ,
2, ,-52, ,
1, ,-52, ,
2, ,-52, ,
1, ,-52, ,
2, ,-52, ,
2, ,-52, ,
2, ,-52, ,
1, ,-52, ,
2, ,-52, ,
1, ,-52, ,
2, ,-52, ,
2, ,-52, ,
2, ,-53, ,
1, ,-52, ,
2, ,-52, ,
1, ,-52, ,
1, ,-52, ,
2, ,-52, ,
2, ,-52, ,
1, ,-52, ,
2, ,-52, ,
1, ,-52, ,
2, ,-52, ,
2, ,-52, ,
2, ,-52, ,
1, ,-51, ,
2, ,-52, ,
1, ,-52, ,
2, ,-52, ,
2, ,-52, ,
2, ,-52, ,
1, ,-52, ,
2, ,-52, ,
1, ,-52, ,
2, ,-52, ,
2, ,-52, ,
2, ,-52, ,
1, ,-52, ,
3, ,-52, ,
1, ,-52, ,
1, ,-52, ,
2, ,-52, ,
2, ,-52, ,
1, ,-52, ,
2, ,-47, ,
2, ,-28, ,
2, ,-12, ,
2, ,3, ,
2, ,13, ,
1, ,20, ,
3, ,25, ,
2, ,30, ,
1, ,34, ,
2, ,36, ,
2, ,38, ,
1, ,39, ,
3, ,39, ,
1, ,40, ,
1, ,41, ,
2, ,41, ,
2, ,41, ,
1, ,42, ,
2, ,41, ,
1, ,42, ,
1, ,42, ,
2, ,42, ,
1, ,42, ,
1, ,42, ,
2, ,42, ,
1, ,42, ,
2, ,42, ,
2, ,41, ,
2, ,42, ,
1, ,42, ,
2, ,42, ,
1, ,41, ,
2, ,41, ,
2, ,41, ,
2, ,42, ,
1, ,41, ,
2, ,41, ,
1, ,42, ,
1, ,42, ,
2, ,41, ,
2, ,42, ,
1, ,41, ,
2, ,41, ,
1, ,41, ,
2, ,41, ,
2, ,41, ,
2, ,41, ,
1, ,41, ,
2, ,41, ,
1, ,41, ,
1, ,41, ,
2, ,41, ,
2, ,42, ,
1, ,41, ,
2, ,41, ,
1, ,41, ,
1, ,41, ,
2, ,41, ,
2, ,41, ,
1, ,41, ,
2, ,41, ,
1, ,41, ,
1, ,41, ,
2, ,41, ,
2, ,42, ,
1, ,41, ,
2, ,41, ,
1, ,41, ,
1, ,41, ,
2, ,41, ,
1, ,42, ,
1, ,41, ,
2, ,41, ,
1, ,41, ,
1, ,41, ,
2, ,41, ,
2, ,41, ,
1, ,41, ,
2, ,41, ,
1, ,41, ,
1, ,41, ,
2, ,41, ,
2, ,42, ,
1, ,41, ,
2, ,41, ,
1, ,41, ,
1, ,41, ,
2, ,41, ,
1, ,41, ,
1, ,41, ,
2, ,41, ,
1, ,41, ,
1, ,41, ,
2, ,41, ,
1, ,41, ,
1, ,41, ,
2, ,41, ,
1, ,41, ,
1, ,41, ,
2, ,41, ,
1, ,41, ,
1, ,41, ,
2, ,41, ,
1, ,41, ,
1, ,41, ,
2, ,41, ,
1, ,41, ,
1, ,41, ,
2, ,41, ,
2, ,41, ,
1, ,41, ,
2, ,41, ,
1, ,41, ,
1, ,41, ,
2, ,41, ,
1, ,41, ,
1, ,41, ,
2, ,41, ,
1, ,42, ,
1, ,41, ,
2, ,41, ,
1, ,41, ,
1, ,41, ,
2, ,41, ,
1, ,41, ,
1, ,41, ,
2, ,41, ,
1, ,41, ,
1, ,41, ,
2, ,41, ,
1, ,41, ,
1, ,41, ,
2, ,41, ,
1, ,41, ,
1, ,41, ,
2, ,41, ,
1, ,41, ,
1, ,41, ,
2, ,41, ,
1, ,41, ,
1, ,41, ,
2, ,41, ,
1, ,41, ,
1, ,41, ,
2, ,41, ,
1, ,41, ,
1, ,41, ,
2, ,41, ,
1, ,41, ,
1, ,41, ,
2, ,41, ,
1, ,41, ,
1, ,41, ,
2, ,41, ,
2, ,41, ,
-1, ,30, ,
2, ,9, ,
1, ,-6, ,
1, ,-18, ,
2, ,-26, ,
1, ,-34, ,
1, ,-38, ,
2, ,-42, ,
1, ,-45, ,
1, ,-46, ,
2, ,-49, ,
2, ,-50, ,
1, ,-50, ,
2, ,-51, ,
1, ,-52, ,
1, ,-52, ,
2, ,-52, ,
1, ,-53, ,
1, ,-52, ,
2, ,-53, ,
1, ,-53, ,
1, ,-52, ,
2, ,-52, ,
1, ,-53, ,
1, ,-53, ,
2, ,-53, ,
1, ,-52, ,
2, ,-53, ,
2, ,-53, ,
2, ,-53, ,
1, ,-52, ,
2, ,-52, ,
1, ,-52, ,
1, ,-52, ,
2, ,-52, ,
1, ,-53, ,
-1, ,-52, ,
2, ,-52, ,
1, ,-53, ,
1, ,-52, ,
2, ,-52, ,
1, ,-53, ,
1, ,-52, ,
2, ,-52, ,
1, ,-52, ,
1, ,-52, ,
2, ,-52, ,
1, ,-53, ,
-1, ,-52, ,
2, ,-52, ,
1, ,-52, ,
1, ,-52, ,
1, ,-52, ,
1, ,-52, ,
-1, ,-52, ,
2, ,-52, ,
1, ,-52, ,
1, ,-52, ,
2, ,-52, ,
1, ,-52, ,
-1, ,-52, ,
2, ,-52, ,
1, ,-52, ,
1, ,-52, ,
1, ,-52, ,
1, ,-52, ,
-1, ,-51, ,
2, ,-52, ,
1, ,-52, ,
1, ,-52, ,
2, ,-52, ,
2, ,-52, ,
-1, ,-52, ,
2, ,-52, ,
1, ,-52, ,
1, ,-52, ,
2, ,-52, ,
1, ,-53, ,
-1, ,-51, ,
2, ,-52, ,
1, ,-52, ,
1, ,-52, ,
1, ,-52, ,
1, ,-52, ,
-1, ,-52, ,
2, ,-52, ,
1, ,-52, ,
1, ,-52, ,
1, ,-52, ,
2, ,-53, ,
-1, ,-51, ,
2, ,-52, ,
-1, ,-52, ,
1, ,-52, ,
2, ,-52, ,
2, ,-52, ,
-1, ,-52, ,
2, ,-52, ,
1, ,-52, ,
1, ,-52, ,
2, ,-52, ,
1, ,-52, ,
-1, ,-51, ,
2, ,-52, ,
1, ,-52, ,
1, ,-52, ,
2, ,-52, ,
1, ,-52, ,
-1, ,-52, ,
2, ,-52, ,
1, ,-52, ,
1, ,-52, ,
1, ,-52, ,
1, ,-53, ,
1, ,-51, ,
2, ,-52, ,
1, ,-52, ,
1, ,-51, ,
2, ,-51, ,
1, ,-52, ,
-1, ,-52, ,
2, ,-52, ,
1, ,-52, ,
1, ,-52, ,
1, ,-52, ,
1, ,-52, ,
-1, ,-51, ,
2, ,-52, ,
1, ,-52, ,
1, ,-52, ,
2, ,-51, ,
2, ,-52, ,
-1, ,-52, ,
2, ,-52, ,
1, ,-52, ,
1, ,-52, ,
1, ,-52, ,
1, ,-52, ,
-1, ,-52, ,
2, ,-52, ,
1, ,-52, ,
1, ,-52, ,
1, ,-52, ,
2, ,-52, ,
-1, ,-52, ,
2, ,-52, ,
1, ,-52, ,
1, ,-52, ,
2, ,-52, ,
1, ,-52, ,
-1, ,-51, ,
2, ,-52, ,
1, ,-52, ,
1, ,-52, ,
2, ,-52, ,
1, ,-52, ,
-1, ,-52, ,
2, ,-52, ,
1, ,-52, ,
1, ,-52, ,
1, ,-52, ,
1, ,-52, ,
-1, ,-51, ,
2, ,-52, ,
1, ,-52, ,
1, ,-52, ,
1, ,-52, ,
2, ,-52, ,
-1, ,-51, ,
2, ,-52, ,
1, ,-52, ,
1, ,-52, ,
1, ,-52, ,
1, ,-52, ,
-1, ,-51, ,
2, ,-52, ,
-1, ,-52, ,
1, ,-52, ,
1, ,-52, ,
1, ,-52, ,
-1, ,-52, ,
2, ,-52, ,
1, ,-52, ,
1, ,-52, ,
1, ,-52, ,
1, ,-52, ,
-1, ,-52, ,
2, ,-52, ,
1, ,-52, ,
1, ,-52, ,
1, ,-52, ,
2, ,-52, ,
-1, ,-52, ,
1, ,-52, ,
-1, ,-52, ,
1, ,-52, ,
1, ,-52, ,
1, ,-52, ,
-1, ,-51, ,
1, ,-52, ,
-1, ,-52, ,
1, ,-52, ,
2, ,-52, ,
1, ,-52, ,
-1, ,-52, ,
2, ,-52, ,
-1, ,-52, ,
1, ,-52, ,
1, ,-52, ,
1, ,-52, ,
-1, ,-51, ,
1, ,-52, ,
-1, ,-52, ,
1, ,-51, ,
1, ,-51, ,
1, ,-52, ,
-1, ,-52, ,
2, ,-52, ,
-1, ,-52, ,
1, ,-52, ,
1, ,-52, ,
2, ,-52, ,
-1, ,-51, ,
2, ,-52, ,
1, ,-52, ,
1, ,-52, ,
1, ,-51, ,
1, ,-52, ,
-1, ,-51, ,
2, ,-52, ,
1, ,-52, ,
1, ,-52, ,
1, ,-52, ,
1, ,-52, ,
-1, ,-51, ,
2, ,-52, ,
-1, ,-52, ,
1, ,-52, ,
1, ,-52, ,
1, ,-52, ,
-1, ,-52, ,
2, ,-52, ,
-1, ,-52, ,
1, ,-52, ,
1, ,-52, ,
1, ,-52, ,
-1, ,-51, ,
2, ,-52, ,
-1, ,-52, ,
1, ,-51, ,
1, ,-52, ,
1, ,-52, ,
-1, ,-52, ,
2, ,-52, ,
-1, ,-52, ,
1, ,-52, ,
1, ,-52, ,
1, ,-52, ,
-1, ,-51, ,
1, ,-52, ,
-1, ,-52, ,
1, ,-52, ,
1, ,-52, ,
1, ,-52, ,
-1, ,-52, ,
2, ,-52, ,
-1, ,-52, ,
1, ,-52, ,
1, ,-52, ,
1, ,-52, ,
-1, ,-51, ,
2, ,-52, ,
-1, ,-52, ,
1, ,-51, ,
1, ,-51, ,
1, ,-52, ,
-1, ,-52, ,
2, ,-52, ,
-1, ,-52, ,
1, ,-52, ,
1, ,-52, ,
1, ,-52, ,
-1, ,-51, ,
1, ,-52, ,
-1, ,-52, ,
1, ,-52, ,
1, ,-52, ,
1, ,-52, ,
-1, ,-52, ,
2, ,-52, ,
1, ,-52, ,
1, ,-52, ,
1, ,-52, ,
1, ,-52, ,
-1, ,-51, ,
2, ,-52, ,
-1, ,-52, ,
1, ,-52, ,
1, ,-52, ,
1, ,-52, ,
-1, ,-52, ,
2, ,-52, ,
-1, ,-52, ,
-1, ,-52, ,
1, ,-52, ,
1, ,-52, ,
-1, ,-51, ,
1, ,-52, ,
-1, ,-52, ,
1, ,-52, ,
1, ,-52, ,
1, ,-52, ,
-1, ,-51, ,
1, ,-52, ,
-1, ,-52, ,
1, ,-52, ,
1, ,-52, ,
1, ,-52, ,
-1, ,-51, ,
2, ,-52, ,
-1, ,-52, ,
1, ,-52, ,
1, ,-52, ,
1, ,-52, ,
-1, ,-52, ,
1, ,-52, ,
-1, ,-52, ,
1, ,-52, ,
1, ,-51, ,
1, ,-52, ,
-1, ,-52, ,
1, ,-52, ,
-1, ,-52, ,
1, ,-51, ,
1, ,-52, ,
1, ,-52, ,
-1, ,-52, ,
1, ,-52, ,
-1, ,-52, ,
1, ,-52, ,
1, ,-52, ,
1, ,-52, ,
-1, ,-52, ,
1, ,-52, ,
-1, ,-52, ,
-1, ,-52, ,
2, ,-52, ,
1, ,-52, ,
-1, ,-52, ,
2, ,-52, ,
-1, ,-52, ,
1, ,-52, ,
1, ,-52, ,
1, ,-52, ,
-1, ,-52, ,
1, ,-52, ,
-1, ,-52, ,
1, ,-52, ,
1, ,-52, ,
1, ,-52, ,
-1, ,-52, ,
2, ,-52, ,
-1, ,-52, ,
-1, ,-52, ,
1, ,-52, ,
1, ,-52, ,
-1, ,-52, ,
2, ,-52, ,
1, ,-52, ,
1, ,-52, ,
2, ,-52, ,
1, ,-52, ,
-1, ,-52, ,
1, ,-52, ,
-1, ,-52, ,
1, ,-52, ,
1, ,-52, ,
1, ,-52, ,
-1, ,-51, ,
1, ,-52, ,
-1, ,-52, ,
1, ,-52, ,
1, ,-51, ,
1, ,-52, ,
-1, ,-52, ,
1, ,-52, ,
-1, ,-52, ,
1, ,-52, ,
1, ,-52, ,
1, ,-52, ,
-1, ,-52, ,
1, ,-52, ,
-1, ,-52, ,
1, ,-52, ,
1, ,-51, ,
1, ,-52, ,
-1, ,-52, ,
2, ,-52, ,
-1, ,-52, ,
1, ,-52, ,
1, ,-52, ,
1, ,-52, ,
-1, ,-52, ,
1, ,-52, ,
-1, ,-52, ,
-1, ,-52, ,
1, ,-52, ,
1, ,-52, ,
-1, ,-52, ,
1, ,-52, ,
-1, ,-52, ,
-1, ,-52, ,
1, ,-52, ,
1, ,-52, ,
-1, ,-51, ,
2, ,-52, ,
-1, ,-52, ,
1, ,-52, ,
1, ,-52, ,
1, ,-52, ,
-1, ,-52, ,
2, ,-52, ,
-1, ,-52, ,
-1, ,-52, ,
1, ,-52, ,
1, ,-52, ,
-1, ,-52, ,
1, ,-52, ,
-1, ,-52, ,
-1, ,-52, ,
1, ,-52, ,
1, ,-52, ,
-1, ,-52, ,
1, ,-52, ,
-1, ,-52, ,
-1, ,-52, ,
1, ,-52, ,
1, ,-52, ,
-1, ,-52, ,
2, ,-52, ,
-1, ,-52, ,
1, ,-52, ,
1, ,-52, ,
1, ,-52, ,
-1, ,-52, ,
2, ,-52, ,
-1, ,-52, ,
-1, ,-52, ,
1, ,-52, ,
1, ,-52, ,
-1, ,-52, ,
1, ,-52, ,
-1, ,-52, ,
-1, ,-52, ,
1, ,-52, ,
1, ,-52, ,
-1, ,-52, ,
1, ,-52, ,
-1, ,-52, ,
-1, ,-52, ,
1, ,-52, ,
1, ,-52, ,
-1, ,-51, ,
2, ,-52, ,
-1, ,-52, ,
1, ,-52, ,
1, ,-52, ,
1, ,-53, ,
-1, ,-52, ,
2, ,-52, ,
-1, ,-52, ,
