src/varyamp_1560/temp0002510.CSV

Format,1.0B,
Memory Length,10000,Memory Length,10000,
IntpDistance,0,IntpDistance,0,
Trigger Address,4999,Trigger Address,4999,
Trigger Level,1.040E+00,Trigger Level,1.040E+00,
Source,CH1,Source,CH2,
Vertical Units,V,Vertical Units,V,
Vertical Units Div,0,Vertical Units Div,0,
Vertical Units Extend Div,16,Vertical Units Extend Div,16,
Label,,Label,,
Probe Type,0,Probe Type,0,
Probe Ratio,1.000e+01,Probe Ratio,1.000e+00,
Vertical Scale,5.000e-01,Vertical Scale,1.000e+00,
Vertical Position,-1.820e+00,Vertical Position,0.000e+00,
Horizontal Units,S,Horizontal Units,S,
Horizontal Scale,2.000E-05,Horizontal Scale,2.000E-05,
Horizontal Position,0.000E+00,Horizontal Position,0.000E+00,
Horizontal Mode,Main,Horizontal Mode,Main,
SincET Mode,Real Time,SincET Mode,Real Time,
Sampling Period,2.000e-08,Sampling Period,2.000e-08,
Horizontal Old Scale,2.000E-05,Horizontal Old Scale,2.000E-05,
Horizontal Old Position,0.000E+00,Horizontal Old Position,0.000E+00,
Firmware,V1.23,Firmware,V1.23,
Mode,Fast,Mode,Fast,
Waveform Data,,Waveform Data,,
1, ,-53, ,
1, ,-52, ,
1, ,-52, ,
1, ,-52, ,
2, ,-52, ,
-1, ,-52, ,
2, ,-53, ,
1, ,-52, ,
1, ,-52, ,
1, ,-52, ,
1, ,-52, ,
-1, ,-52, ,
1, ,-52, ,
-1, ,-52, ,
1, ,-52, ,
1, ,-52, ,
2, ,-52, ,
-1, ,-52, ,
1, ,-53, ,
1, ,-52, ,
1, ,-52, ,
1, ,-52, ,
1, ,-52, ,
-1, ,-52, ,
1, ,-53, ,
-1, ,-52, ,
1, ,-52, ,
1, ,-52, ,
1, ,-52, ,
-1, ,-52, ,
1, ,-53, ,
-1, ,-52, ,
-1, ,-52, ,
1, ,-52, ,
1, ,-52, ,
-1, ,-52, ,
1, ,-53, ,
-1, ,-52, ,
1, ,-52, ,
1, ,-52, ,
1, ,-52, ,
-1, ,-52, ,
1, ,-53, ,
-1, ,-52, ,
1, ,-52, ,
1, ,-52, ,
1, ,-52, ,
-1, ,-52, ,
2, ,-53, ,
1, ,-52, ,
1, ,-52, ,
1, ,-52, ,
1, ,-52, ,
-1, ,-52, ,
1, ,-53, ,
-1, ,-51, ,
1, ,-52, ,
1, ,-52, ,
1, ,-52, ,
-1, ,-52, ,
1, ,-53, ,
-1, ,-52, ,
1, ,-52, ,
1, ,-52, ,
1, ,-52, ,
-1, ,-52, ,
2, ,-53, ,
-1, ,-52, ,
1, ,-52, ,
1, ,-52, ,
1, ,-52, ,
-1, ,-52, ,
1, ,-53, ,
-1, ,-52, ,
1, ,-52, ,
1, ,-52, ,
2, ,-52, ,
-1, ,-52, ,
1, ,-53, ,
-1, ,-52, ,
-1, ,-52, ,
1, ,-53, ,
1, ,-52, ,
-1, ,-52, ,
1, ,-53, ,
-1, ,-52, ,
1, ,-52, ,
1, ,-52, ,
1, ,-52, ,
-1, ,-52, ,
2, ,-52, ,
-1, ,-52, ,
1, ,-52, ,
1, ,-52, ,
1, ,-52, ,
-1, ,-52, ,
1, ,-53, ,
-1, ,-52, ,
1, ,-52, ,
2, ,-52, ,
1, ,-52, ,
-1, ,-52, ,
1, ,-53, ,
-1, ,-52, ,
1, ,-52, ,
1, ,-52, ,
1, ,-52, ,
-1, ,-52, ,
2, ,-53, ,
-1, ,-52, ,
1, ,-52, ,
1, ,-52, ,
1, ,-52, ,
-1, ,-52, ,
2, ,-53, ,
1, ,-52, ,
-1, ,-52, ,
1, ,-52, ,
1, ,-52, ,
-1, ,-52, ,
1, ,-53, ,
-1, ,-52, ,
1, ,-52, ,
1, ,-52, ,
1, ,-52, ,
-1, ,-52, ,
2, ,-53, ,
1, ,-52, ,
1, ,-52, ,
1, ,-52, ,
1, ,-52, ,
-1, ,-52, ,
1, ,-53, ,
-1, ,-52, ,
1, ,-52, ,
2, ,-52, ,
1, ,-52, ,
-1, ,-52, ,
2, ,-53, ,
-1, ,-52, ,
-1, ,-52, ,
1, ,-52, ,
1, ,-52, ,
-1, ,-52, ,
1, ,-53, ,
-1, ,-52, ,
1, ,-52, ,
1, ,-52, ,
1, ,-52, ,
-1, ,-52, ,
2, ,-53, ,
1, ,-52, ,
1, ,-52, ,
1, ,-52, ,
1, ,-52, ,
-1, ,-52, ,
1, ,-53, ,
-1, ,-52, ,
1, ,-52, ,
1, ,-52, ,
1, ,-52, ,
-1, ,-52, ,
1, ,-53, ,
-1, ,-52, ,
-1, ,-52, ,
1, ,-52, ,
1, ,-52, ,
-1, ,-52, ,
1, ,-53, ,
-1, ,-52, ,
1, ,-52, ,
1, ,-52, ,
1, ,-53, ,
-1, ,-52, ,
1, ,-53, ,
-1, ,-52, ,
-1, ,-52, ,
1, ,-52, ,
1, ,-52, ,
-1, ,-52, ,
2, ,-53, ,
-1, ,-53, ,
-1, ,-52, ,
1, ,-52, ,
1, ,-52, ,
-1, ,-52, ,
1, ,-53, ,
-1, ,-52, ,
-1, ,-53, ,
1, ,-53, ,
1, ,-52, ,
-1, ,-52, ,
1, ,-53, ,
-1, ,-52, ,
-1, ,-52, ,
1, ,-52, ,
1, ,-53, ,
-1, ,-52, ,
1, ,-53, ,
-1, ,-52, ,
-1, ,-52, ,
1, ,-52, ,
1, ,-52, ,
-1, ,-52, ,
1, ,-53, ,
-1, ,-52, ,
1, ,-53, ,
1, ,-52, ,
1, ,-52, ,
-1, ,-52, ,
1, ,-53, ,
-1, ,-52, ,
-1, ,-53, ,
1, ,-52, ,
1, ,-52, ,
-1, ,-52, ,
2, ,-53, ,
-1, ,-52, ,
-1, ,-52, ,
1, ,-52, ,
1, ,-52, ,
-1, ,-52, ,
1, ,-53, ,
-1, ,-52, ,
1, ,-52, ,
1, ,-53, ,
1, ,-52, ,
-1, ,-52, ,
1, ,-53, ,
-1, ,-52, ,
-1, ,-52, ,
1, ,-52, ,
1, ,-52, ,
-1, ,-52, ,
1, ,-53, ,
-1, ,-52, ,
1, ,-53, ,
1, ,-52, ,
1, ,-52, ,
-1, ,-52, ,
1, ,-53, ,
-1, ,-53, ,
1, ,-53, ,
1, ,-52, ,
1, ,-53, ,
-1, ,-52, ,
2, ,-53, ,
-1, ,-52, ,
1, ,-52, ,
1, ,-53, ,
1, ,-52, ,
-1, ,-52, ,
1, ,-53, ,
-1, ,-52, ,
-1, ,-52, ,
1, ,-52, ,
2, ,-53, ,
-1, ,-52, ,
1, ,-53, ,
-1, ,-52, ,
-1, ,-52, ,
1, ,-53, ,
1, ,-52, ,
-1, ,-52, ,
1, ,-53, ,
-1, ,-52, ,
-1, ,-52, ,
1, ,-52, ,
1, ,-53, ,
-1, ,-52, ,
1, ,-52, ,
-1, ,-52, ,
-1, ,-52, ,
1, ,-52, ,
1, ,-52, ,
-1, ,-52, ,
2, ,-53, ,
-1, ,-53, ,
1, ,-52, ,
1, ,-52, ,
1, ,-53, ,
-1, ,-52, ,
1, ,-53, ,
-1, ,-52, ,
-1, ,-52, ,
1, ,-52, ,
1, ,-52, ,
-1, ,-52, ,
2, ,-52, ,
-1, ,-52, ,
1, ,-52, ,
1, ,-52, ,
1, ,-52, ,
-1, ,-52, ,
1, ,-53, ,
-1, ,-52, ,
-1, ,-52, ,
1, ,-52, ,
1, ,-52, ,
-1, ,-52, ,
2, ,-53, ,
1, ,-52, ,
-1, ,-53, ,
1, ,-52, ,
1, ,-52, ,
-1, ,-50, ,
1, ,-33, ,
1, ,-14, ,
1, ,1, ,
1, ,12, ,
1, ,19, ,
-1, ,25, ,
1, ,30, ,
-1, ,33, ,
-1, ,35, ,
1, ,37, ,
1, ,38, ,
1, ,39, ,
2, ,40, ,
-1, ,40, ,
-1, ,40, ,
1, ,41, ,
1, ,41, ,
-1, ,41, ,
1, ,41, ,
1, ,41, ,
-1, ,41, ,
1, ,41, ,
1, ,41, ,
-1, ,41, ,
2, ,41, ,
1, ,41, ,
-1, ,41, ,
1, ,41, ,
1, ,41, ,
-1, ,41, ,
2, ,41, ,
-1, ,41, ,
1, ,41, ,
1, ,41, ,
1, ,41, ,
-1, ,41, ,
1, ,41, ,
1, ,41, ,
-1, ,41, ,
1, ,41, ,
1, ,41, ,
-1, ,41, ,
2, ,41, ,
1, ,41, ,
-1, ,41, ,
1, ,41, ,
1, ,41, ,
-1, ,40, ,
1, ,41, ,
1, ,41, ,
1, ,41, ,
1, ,41, ,
1, ,41, ,
-1, ,40, ,
2, ,41, ,
1, ,41, ,
-1, ,41, ,
1, ,41, ,
1, ,41, ,
-1, ,41, ,
1, ,41, ,
1, ,41, ,
1, ,40, ,
1, ,41, ,
1, ,41, ,
-1, ,40, ,
2, ,41, ,
1, ,40, ,
-1, ,41, ,
1, ,41, ,
1, ,41, ,
-1, ,40, ,
1, ,41, ,
1, ,41, ,
-1, ,41, ,
1, ,41, ,
1, ,41, ,
-1, ,41, ,
2, ,41, ,
1, ,41, ,
-1, ,41, ,
1, ,41, ,
1, ,41, ,
-1, ,40, ,
2, ,41, ,
1, ,41, ,
-1, ,41, ,
1, ,41, ,
1, ,41, ,
-1, ,41, ,
1, ,41, ,
1, ,41, ,
1, ,41, ,
1, ,41, ,
1, ,41, ,
-1, ,41, ,
1, ,41, ,
1, ,40, ,
1, ,41, ,
1, ,41, ,
1, ,40, ,
-1, ,40, ,
1, ,41, ,
1, ,40, ,
1, ,41, ,
1, ,41, ,
1, ,41, ,
-1, ,41, ,
1, ,41, ,
1, ,41, ,
1, ,41, ,
1, ,40, ,
1, ,41, ,
-1, ,40, ,
2, ,41, ,
1, ,40, ,
1, ,41, ,
1, ,41, ,
1, ,41, ,
-1, ,40, ,
2, ,41, ,
1, ,41, ,
-1, ,41, ,
1, ,41, ,
1, ,41, ,
-1, ,41, ,
2, ,41, ,
-1, ,40, ,
-1, ,41, ,
2, ,41, ,
1, ,41, ,
-1, ,40, ,
1, ,41, ,
1, ,41, ,
-1, ,40, ,
1, ,41, ,
1, ,41, ,
-1, ,41, ,
2, ,41, ,
1, ,41, ,
1, ,40, ,
1, ,40, ,
-1, ,41, ,
-1, ,40, ,
1, ,41, ,
1, ,41, ,
-1, ,41, ,
1, ,41, ,
1, ,41, ,
-1, ,40, ,
1, ,41, ,
-1, ,40, ,
-1, ,40, ,
1, ,40, ,
1, ,31, ,
-1, ,11, ,
1, ,-6, ,
-1, ,-18, ,
-1, ,-26, ,
-1, ,-34, ,
1, ,-39, ,
-2, ,-42, ,
1, ,-45, ,
-1, ,-47, ,
-1, ,-49, ,
1, ,-50, ,
1, ,-51, ,
-1, ,-51, ,
1, ,-53, ,
-1, ,-52, ,
-1, ,-52, ,
1, ,-53, ,
1, ,-53, ,
-1, ,-53, ,
1, ,-53, ,
-1, ,-53, ,
-1, ,-53, ,
1, ,-53, ,
1, ,-53, ,
-1, ,-53, ,
1, ,-53, ,
1, ,-53, ,
-1, ,-53, ,
1, ,-53, ,
1, ,-53, ,
-1, ,-53, ,
1, ,-53, ,
-1, ,-53, ,
-1, ,-53, ,
1, ,-53, ,
1, ,-53, ,
-1, ,-53, ,
1, ,-53, ,
-1, ,-52, ,
-1, ,-53, ,
1, ,-53, ,
1, ,-53, ,
-1, ,-53, ,
1, ,-53, ,
-1, ,-52, ,
1, ,-53, ,
1, ,-53, ,
1, ,-53, ,
-1, ,-53, ,
1, ,-53, ,
-1, ,-52, ,
-1, ,-52, ,
1, ,-53, ,
1, ,-53, ,
-1, ,-53, ,
2, ,-53, ,
-1, ,-53, ,
-1, ,-53, ,
1, ,-52, ,
1, ,-52, ,
-1, ,-52, ,
1, ,-53, ,
-1, ,-52, ,
1, ,-53, ,
1, ,-53, ,
1, ,-53, ,
-1, ,-52, ,
1, ,-53, ,
-1, ,-52, ,
-1, ,-52, ,
1, ,-53, ,
1, ,-52, ,
-1, ,-53, ,
1, ,-53, ,
-1, ,-52, ,
-1, ,-53, ,
1, ,-53, ,
1, ,-52, ,
-1, ,-52, ,
1, ,-53, ,
-1, ,-52, ,
-1, ,-53, ,
1, ,-53, ,
1, ,-53, ,
-1, ,-53, ,
1, ,-53, ,
-1, ,-52, ,
-1, ,-52, ,
1, ,-53, ,
1, ,-52, ,
-1, ,-52, ,
1, ,-52, ,
-1, ,-52, ,
1, ,-52, ,
1, ,-52, ,
1, ,-53, ,
-1, ,-52, ,
1, ,-53, ,
-1, ,-52, ,
-1, ,-53, ,
1, ,-53, ,
1, ,-52, ,
-1, ,-52, ,
1, ,-53, ,
-1, ,-53, ,
-1, ,-53, ,
1, ,-52, ,
1, ,-52, ,
-1, ,-52, ,
1, ,-53, ,
-1, ,-52, ,
-1, ,-52, ,
1, ,-53, ,
1, ,-53, ,
-1, ,-52, ,
1, ,-53, ,
-1, ,-52, ,
-1, ,-52, ,
1, ,-53, ,
1, ,-52, ,
-1, ,-52, ,
1, ,-53, ,
-1, ,-52, ,
-1, ,-52, ,
1, ,-53, ,
1, ,-52, ,
-1, ,-52, ,
1, ,-53, ,
-1, ,-53, ,
-1, ,-52, ,
1, ,-52, ,
1, ,-53, ,
-1, ,-52, ,
1, ,-53, ,
-1, ,-52, ,
-1, ,-53, ,
1, ,-53, ,
1, ,-53, ,
-1, ,-52, ,
1, ,-52, ,
-1, ,-52, ,
-1, ,-52, ,
1, ,-52, ,
1, ,-52, ,
-1, ,-52, ,
1, ,-53, ,
-1, ,-52, ,
-1, ,-52, ,
1, ,-53, ,
1, ,-52, ,
-1, ,-52, ,
1, ,-53, ,
-1, ,-52, ,
-1, ,-53, ,
1, ,-52, ,
1, ,-52, ,
-2, ,-52, ,
1, ,-53, ,
-1, ,-52, ,
-1, ,-52, ,
1, ,-52, ,
1, ,-52, ,
-1, ,-52, ,
1, ,-53, ,
-1, ,-52, ,
-1, ,-53, ,
1, ,-52, ,
1, ,-52, ,
-1, ,-52, ,
1, ,-53, ,
-1, ,-52, ,
-1, ,-52, ,
1, ,-52, ,
1, ,-52, ,
-1, ,-52, ,
1, ,-53, ,
-1, ,-52, ,
-1, ,-52, ,
1, ,-52, ,
1, ,-52, ,
-1, ,-52, ,
1, ,-53, ,
-1, ,-52, ,
-1, ,-52, ,
1, ,-52, ,
1, ,-52, ,
-1, ,-52, ,
1, ,-52, ,
-1, ,-52, ,
-1, ,-52, ,
1, ,-53, ,
1, ,-52, ,
-1, ,-52, ,
1, ,-53, ,
-1, ,-52, ,
-1, ,-52, ,
1, ,-53, ,
1, ,-52, ,
-1, ,-52, ,
1, ,-53, ,
-1, ,-52, ,
-1, ,-52, ,
1, ,-52, ,
1, ,-52, ,
-1, ,-52, ,
1, ,-53, ,
-1, ,-52, ,
-1, ,-52, ,
1, ,-52, ,
1, ,-53, ,
-1, ,-52, ,
1, ,-53, ,
-1, ,-52, ,
-1, ,-52, ,
1, ,-52, ,
1, ,-52, ,
-1, ,-52, ,
1, ,-53, ,
-1, ,-52, ,
-1, ,-52, ,
1, ,-53, ,
1, ,-52, ,
-1, ,-52, ,
1, ,-53, ,
-1, ,-52, ,
-1, ,-53, ,
1, ,-52, ,
1, ,-52, ,
-1, ,-52, ,
1, ,-53, ,
-1, ,-52, ,
1, ,-52, ,
1, ,-53, ,
1, ,-52, ,
-1, ,-52, ,
1, ,-53, ,
-1, ,-52, ,
-1, ,-53, ,
1, ,-52, ,
1, ,-52, ,
-1, ,-52, ,
1, ,-53, ,
-1, ,-52, ,
-1, ,-52, ,
1, ,-52, ,
1, ,-52, ,
-1, ,-52, ,
1, ,-53, ,
-1, ,-52, ,
-1, ,-53, ,
1, ,-53, ,
1, ,-53, ,
-1, ,-52, ,
1, ,-53, ,
-1, ,-52, ,
-1, ,-52, ,
1, ,-52, ,
1, ,-52, ,
-1, ,-52, ,
1, ,-52, ,
-1, ,-52, ,
-1, ,-52, ,
1, ,-52, ,
1, ,-53, ,
-2, ,-52, ,
1, ,-53, ,
-1, ,-52, ,
-1, ,-52, ,
1, ,-52, ,
1, ,-52, ,
-1, ,-52, ,
1, ,-53, ,
-1, ,-53, ,
-1, ,-53, ,
1, ,-53, ,
1, ,-52, ,
-1, ,-52, ,
1, ,-53, ,
-1, ,-52, ,
-1, ,-52, ,
1, ,-52, ,
1, ,-52, ,
-1, ,-53, ,
1, ,-53, ,
-1, ,-52, ,
-1, ,-53, ,
1, ,-52, ,
1, ,-52, ,
-1, ,-52, ,
1, ,-53, ,
-1, ,-52, ,
-1, ,-52, ,
1, ,-53, ,
1, ,-52, ,
-1, ,-52, ,
1, ,-53, ,
-1, ,-52, ,
-1, ,-52, ,
1, ,-52, ,
1, ,-52, ,
-1, ,-52, ,
1, ,-52, ,
-1, ,-52, ,
-1, ,-52, ,
1, ,-53, ,
1, ,-52, ,
-1, ,-52, ,
1, ,-53, ,
-1, ,-53, ,
-1, ,-53, ,
1, ,-52, ,
1, ,-52, ,
-1, ,-52, ,
1, ,-52, ,
-1, ,-52, ,
-1, ,-52, ,
1, ,-52, ,
1, ,-52, ,
-1, ,-52, ,
1, ,-53, ,
-1, ,-52, ,
-1, ,-53, ,
1, ,-52, ,
1, ,-53, ,
-1, ,-52, ,
1, ,-53, ,
-1, ,-52, ,
-1, ,-52, ,
1, ,-53, ,
1, ,-52, ,
-1, ,-52, ,
1, ,-53, ,
-1, ,-53, ,
-1, ,-53, ,
1, ,-52, ,
1, ,-52, ,
-1, ,-52, ,
1, ,-53, ,
-1, ,-52, ,
-1, ,-52, ,
1, ,-52, ,
1, ,-52, ,
-1, ,-52, ,
1, ,-53, ,
-1, ,-52, ,
1, ,-52, ,
1, ,-52, ,
1, ,-52, ,
-1, ,-52, ,
1, ,-53, ,
-1, ,-52, ,
-1, ,-52, ,
1, ,-53, ,
1, ,-52, ,
-1, ,-52, ,
1, ,-53, ,
-1, ,-53, ,
-1, ,-52, ,
1, ,-52, ,
1, ,-52, ,
-1, ,-52, ,
1, ,-53, ,
-1, ,-52, ,
-1, ,-52, ,
1, ,-53, ,
1, ,-52, ,
-2, ,-52, ,
1, ,-53, ,
-1, ,-52, ,
-1, ,-52, ,
1, ,-52, ,
1, ,-52, ,
-1, ,-52, ,
1, ,-53, ,
-1, ,-52, ,
-1, ,-52, ,
1, ,-52, ,
1, ,-52, ,
-1, ,-52, ,
1, ,-53, ,
-1, ,-52, ,
-1, ,-53, ,
1, ,-52, ,
1, ,-52, ,
-1, ,-52, ,
1, ,-53, ,
-1, ,-52, ,
-1, ,-52, ,
1, ,-53, ,
1, ,-52, ,
-1, ,-52, ,
1, ,-53, ,
-1, ,-52, ,
-1, ,-53, ,
1, ,-52, ,
1, ,-52, ,
-1, ,-52, ,
1, ,-53, ,
-1, ,-52, ,
-1, ,-52, ,
1, ,-52, ,
1, ,-52, ,
-1, ,-52, ,
1, ,-53, ,
-1, ,-52, ,
-1, ,-53, ,
1, ,-52, ,
1, ,-52, ,
-1, ,-52, ,
1, ,-53, ,
-1, ,-52, ,
-1, ,-52, ,
1, ,-52, ,
1, ,-52, ,
-1, ,-52, ,
1, ,-52, ,
-1, ,-52, ,
1, ,-52, ,
1, ,-52, ,
1, ,-52, ,
-1, ,-52, ,
1, ,-53, ,
-1, ,-52, ,
-1, ,-53, ,
1, ,-53, ,
1, ,-52, ,
-1, ,-52, ,
1, ,-53, ,
-1, ,-53, ,
-1, ,-52, ,
1, ,-52, ,
1, ,-52, ,
-1, ,-52, ,
1, ,-53, ,
-1, ,-52, ,
-1, ,-52, ,
1, ,-52, ,
1, ,-52, ,
-1, ,-52, ,
1, ,-53, ,
-1, ,-52, ,
-1, ,-52, ,
1, ,-52, ,
1, ,-52, ,
-1, ,-52, ,
1, ,-53, ,
-1, ,-52, ,
-1, ,-52, ,
1, ,-53, ,
1, ,-52, ,
-1, ,-52, ,
1, ,-53, ,
-1, ,-52, ,
-1, ,-52, ,
1, ,-52, ,
1, ,-52, ,
-1, ,-52, ,
2, ,-53, ,
-1, ,-52, ,
-1, ,-52, ,
1, ,-52, ,
1, ,-52, ,
-1, ,-52, ,
1, ,-53, ,
-1, ,-52, ,
-1, ,-52, ,
1, ,-52, ,
1, ,-53, ,
-1, ,-52, ,
1, ,-53, ,
1, ,-52, ,
-1, ,-53, ,
1, ,-53, ,
1, ,-52, ,
-1, ,-52, ,
1, ,-53, ,
-1, ,-52, ,
1, ,-52, ,
1, ,-52, ,
1, ,-52, ,
-1, ,-53, ,
1, ,-52, ,
-1, ,-52, ,
-1, ,-52, ,
1, ,-52, ,
1, ,-52, ,
-1, ,-52, ,
1, ,-53, ,
-1, ,-52, ,
1, ,-52, ,
1, ,-52, ,
1, ,-52, ,
-1, ,-52, ,
1, ,-53, ,
-1, ,-52, ,
-1, ,-52, ,
1, ,-53, ,
1, ,-52, ,
-1, ,-52, ,
1, ,-53, ,
-1, ,-52, ,
-1, ,-53, ,
1, ,-52, ,
1, ,-52, ,
-1, ,-52, ,
1, ,-53, ,
-1, ,-52, ,
-1, ,-52, ,
1, ,-53, ,
1, ,-52, ,
-1, ,-52, ,
1, ,-53, ,
-1, ,-52, ,
-1, ,-53, ,
1, ,-52, ,
1, ,-52, ,
-1, ,-52, ,
1, ,-53, ,
-1, ,-52, ,
-1, ,-52, ,
1, ,-53, ,
-1, ,-52, ,
-1, ,-52, ,
1, ,-53, ,
-1, ,-52, ,
-1, ,-53, ,
1, ,-52, ,
1, ,-52, ,
-1, ,-52, ,
1, ,-53, ,
-1, ,-52, ,
-1, ,-52, ,
1, ,-52, ,
1, ,-52, ,
-1, ,-52, ,
1, ,-53, ,
-1, ,-52, ,
-1, ,-53, ,
1, ,-52, ,
1, ,-52, ,
-1, ,-52, ,
1, ,-53, ,
-1, ,-52, ,
-1, ,-52, ,
1, ,-53, ,
1, ,-52, ,
-1, ,-52, ,
1, ,-53, ,
-1, ,-53, ,
-1, ,-53, ,
1, ,-52, ,
1, ,-53, ,
-1, ,-52, ,
1, ,-52, ,
-1, ,-52, ,
-1, ,-52, ,
1, ,-52, ,
1, ,-52, ,
-1, ,-53, ,
1, ,-52, ,
-1, ,-52, ,
-1, ,-53, ,
1, ,-52, ,
1, ,-53, ,
-1, ,-52, ,
1, ,-53, ,
-1, ,-52, ,
-1, ,-52, ,
1, ,-53, ,
1, ,-52, ,
-1, ,-52, ,
95, ,-53, ,
57, ,-53, ,
35, ,-53, ,
22, ,-52, ,
15, ,-53, ,
8, ,-52, ,
7, ,-53, ,
5, ,-52, ,
3, ,-52, ,
3, ,-53, ,
3, ,-52, ,
1, ,-53, ,
3, ,-53, ,
2, ,-52, ,
2, ,-53, ,
2, ,-52, ,
3, ,-52, ,
2, ,-53, ,
3, ,-53, ,
2, ,-52, ,
2, ,-52, ,
3, ,-53, ,
3, ,-52, ,
2, ,-52, ,
3, ,-53, ,
2, ,-52, ,
2, ,-52, ,
2, ,-52, ,
3, ,-52, ,
1, ,-52, ,
3, ,-53, ,
2, ,-52, ,
2, ,-52, ,
3, ,-53, ,
2, ,-52, ,
1, ,-53, ,
3, ,-53, ,
2, ,-53, ,
2, ,-52, ,
3, ,-52, ,
3, ,-52, ,
1, ,-52, ,
3, ,-53, ,
2, ,-52, ,
2, ,-52, ,
2, ,-53, ,
2, ,-52, ,
2, ,-52, ,
3, ,-52, ,
2, ,-53, ,
2, ,-52, ,
2, ,-52, ,
2, ,-53, ,
1, ,-52, ,
3, ,-52, ,
2, ,-37, ,
2, ,-17, ,
3, ,-2, ,
3, ,9, ,
2, ,18, ,
3, ,23, ,
2, ,28, ,
2, ,32, ,
2, ,34, ,
2, ,37, ,
1, ,37, ,
3, ,39, ,
2, ,40, ,
1, ,40, ,
2, ,40, ,
2, ,41, ,
1, ,41, ,
2, ,41, ,
1, ,41, ,
2, ,41, ,
2, ,41, ,
2, ,41, ,
1, ,41, ,
2, ,41, ,
2, ,41, ,
2, ,41, ,
3, ,41, ,
2, ,41, ,
1, ,41, ,
2, ,41, ,
1, ,41, ,
1, ,41, ,
2, ,41, ,
2, ,41, ,
1, ,41, ,
2, ,41, ,
2, ,41, ,
2, ,41, ,
2, ,41, ,
2, ,41, ,
1, ,41, ,
2, ,41, ,
1, ,41, ,
1, ,41, ,
2, ,41, ,
1, ,41, ,
1, ,41, ,
2, ,41, ,
2, ,41, ,
1, ,41, ,
2, ,41, ,
2, ,41, ,
1, ,41, ,
2, ,41, ,
2, ,40, ,
1, ,41, ,
2, ,41, ,
2, ,41, ,
1, ,41, ,
2, ,41, ,
2, ,41, ,
2, ,41, ,
2, ,41, ,
2, ,41, ,
1, ,41, ,
2, ,41, ,
1, ,41, ,
1, ,41, ,
2, ,41, ,
2, ,41, ,
1, ,40, ,
2, ,41, ,
2, ,41, ,
1, ,40, ,
2, ,41, ,
2, ,41, ,
1, ,40, ,
2, ,41, ,
2, ,41, ,
1, ,41, ,
2, ,41, ,
2, ,41, ,
1, ,40, ,
2, ,40, ,
1, ,41, ,
1, ,41, ,
2, ,41, ,
2, ,41, ,
1, ,41, ,
2, ,41, ,
1, ,41, ,
1, ,40, ,
2, ,41, ,
2, ,41, ,
1, ,41, ,
2, ,41, ,
2, ,41, ,
2, ,40, ,
2, ,41, ,
2, ,41, ,
1, ,40, ,
2, ,41, ,
2, ,41, ,
1, ,40, ,
2, ,41, ,
2, ,41, ,
1, ,41, ,
2, ,41, ,
1, ,41, ,
1, ,41, ,
2, ,41, ,
2, ,40, ,
1, ,41, ,
2, ,41, ,
1, ,40, ,
2, ,41, ,
2, ,41, ,
2, ,41, ,
1, ,40, ,
2, ,41, ,
2, ,41, ,
1, ,40, ,
2, ,40, ,
2, ,41, ,
1, ,41, ,
2, ,41, ,
1, ,40, ,
1, ,40, ,
2, ,40, ,
2, ,41, ,
1, ,41, ,
2, ,41, ,
1, ,41, ,
1, ,41, ,
2, ,41, ,
1, ,41, ,
1, ,41, ,
2, ,41, ,
1, ,41, ,
1, ,41, ,
2, ,41, ,
2, ,41, ,
1, ,41, ,
2, ,41, ,
1, ,41, ,
1, ,40, ,
2, ,41, ,
2, ,40, ,
1, ,41, ,
2, ,41, ,
1, ,41, ,
1, ,40, ,
2, ,41, ,
2, ,41, ,
1, ,35, ,
2, ,16, ,
1, ,-2, ,
1, ,-15, ,
2, ,-24, ,
1, ,-32, ,
1, ,-37, ,
2, ,-41, ,
1, ,-44, ,
1, ,-46, ,
2, ,-49, ,
1, ,-50, ,
-1, ,-51, ,
2, ,-52, ,
1, ,-52, ,
2, ,-52, ,
2, ,-53, ,
1, ,-53, ,
-1, ,-53, ,
2, ,-53, ,
1, ,-53, ,
1, ,-53, ,
2, ,-53, ,
1, ,-53, ,
1, ,-53, ,
2, ,-53, ,
1, ,-53, ,
1, ,-53, ,
2, ,-53, ,
2, ,-53, ,
1, ,-53, ,
2, ,-53, ,
1, ,-53, ,
1, ,-53, ,
2, ,-53, ,
1, ,-53, ,
-1, ,-52, ,
2, ,-53, ,
1, ,-53, ,
1, ,-52, ,
2, ,-53, ,
1, ,-53, ,
1, ,-53, ,
2, ,-53, ,
1, ,-52, ,
1, ,-53, ,
2, ,-53, ,
2, ,-53, ,
1, ,-53, ,
2, ,-53, ,
1, ,-52, ,
1, ,-53, ,
2, ,-53, ,
2, ,-53, ,
-1, ,-53, ,
2, ,-53, ,
1, ,-52, ,
1, ,-53, ,
2, ,-52, ,
2, ,-52, ,
1, ,-52, ,
2, ,-53, ,
1, ,-52, ,
1, ,-52, ,
2, ,-52, ,
2, ,-53, ,
1, ,-53, ,
2, ,-53, ,
1, ,-53, ,
1, ,-53, ,
2, ,-53, ,
2, ,-53, ,
1, ,-52, ,
2, ,-53, ,
1, ,-52, ,
1, ,-53, ,
2, ,-53, ,
2, ,-52, ,
1, ,-52, ,
2, ,-53, ,
1, ,-52, ,
1, ,-53, ,
2, ,-52, ,
2, ,-52, ,
1, ,-52, ,
2, ,-53, ,
1, ,-52, ,
1, ,-52, ,
2, ,-52, ,
1, ,-53, ,
1, ,-52, ,
2, ,-52, ,
1, ,-52, ,
1, ,-52, ,
2, ,-52, ,
1, ,-52, ,
-1, ,-52, ,
2, ,-53, ,
1, ,-52, ,
1, ,-52, ,
2, ,-53, ,
2, ,-52, ,
1, ,-52, ,
2, ,-53, ,
1, ,-52, ,
1, ,-53, ,
2, ,-52, ,
1, ,-52, ,
-1, ,-52, ,
2, ,-53, ,
1, ,-52, ,
1, ,-52, ,
2, ,-53, ,
2, ,-52, ,
1, ,-52, ,
2, ,-53, ,
1, ,-52, ,
1, ,-53, ,
2, ,-53, ,
1, ,-52, ,
1, ,-52, ,
2, ,-53, ,
1, ,-52, ,
1, ,-52, ,
2, ,-52, ,
2, ,-52, ,
1, ,-53, ,
2, ,-53, ,
1, ,-52, ,
1, ,-52, ,
2, ,-52, ,
1, ,-52, ,
-1, ,-52, ,
2, ,-53, ,
1, ,-52, ,
1, ,-52, ,
2, ,-52, ,
1, ,-53, ,
-1, ,-52, ,
2, ,-53, ,
1, ,-52, ,
1, ,-52, ,
2, ,-52, ,
1, ,-52, ,
-1, ,-52, ,
2, ,-53, ,
1, ,-52, ,
1, ,-53, ,
2, ,-53, ,
1, ,-52, ,
-1, ,-52, ,
2, ,-53, ,
1, ,-52, ,
1, ,-53, ,
1, ,-52, ,
1, ,-52, ,
-1, ,-52, ,
2, ,-53, ,
1, ,-52, ,
1, ,-52, ,
1, ,-52, ,
1, ,-52, ,
-1, ,-52, ,
2, ,-53, ,
-1, ,-52, ,
1, ,-52, ,
1, ,-53, ,
1, ,-52, ,
-1, ,-52, ,
2, ,-53, ,
1, ,-52, ,
1, ,-52, ,
1, ,-53, ,
1, ,-52, ,
-1, ,-52, ,
2, ,-53, ,
-1, ,-53, ,
1, ,-53, ,
2, ,-52, ,
1, ,-52, ,
-1, ,-52, ,
2, ,-53, ,
1, ,-52, ,
1, ,-53, ,
1, ,-53, ,
1, ,-52, ,
-1, ,-52, ,
2, ,-53, ,
1, ,-52, ,
1, ,-52, ,
1, ,-52, ,
1, ,-52, ,
-1, ,-52, ,
2, ,-53, ,
1, ,-52, ,
1, ,-52, ,
2, ,-53, ,
1, ,-52, ,
-1, ,-52, ,
2, ,-53, ,
1, ,-52, ,
1, ,-52, ,
2, ,-52, ,
1, ,-52, ,
-1, ,-52, ,
2, ,-53, ,
1, ,-52, ,
1, ,-52, ,
1, ,-53, ,
1, ,-52, ,
-1, ,-52, ,
2, ,-53, ,
1, ,-52, ,
1, ,-52, ,
1, ,-52, ,
1, ,-53, ,
-1, ,-52, ,
2, ,-53, ,
1, ,-53, ,
1, ,-52, ,
2, ,-53, ,
1, ,-52, ,
-1, ,-52, ,
2, ,-53, ,
1, ,-52, ,
1, ,-53, ,
1, ,-52, ,
1, ,-52, ,
-1, ,-52, ,
2, ,-53, ,
1, ,-52, ,
1, ,-52, ,
1, ,-53, ,
2, ,-52, ,
-1, ,-52, ,
2, ,-53, ,
1, ,-52, ,
1, ,-52, ,
2, ,-52, ,
2, ,-52, ,
-1, ,-52, ,
2, ,-53, ,
1, ,-52, ,
1, ,-52, ,
1, ,-53, ,
1, ,-52, ,
-1, ,-53, ,
1, ,-53, ,
1, ,-52, ,
1, ,-53, ,
1, ,-52, ,
1, ,-52, ,
-1, ,-53, ,
2, ,-53, ,
-1, ,-52, ,
1, ,-52, ,
2, ,-53, ,
1, ,-52, ,
-1, ,-52, ,
1, ,-52, ,
-1, ,-52, ,
1, ,-52, ,
2, ,-52, ,
1, ,-52, ,
-1, ,-52, ,
2, ,-53, ,
1, ,-52, ,
-1, ,-52, ,
1, ,-53, ,
1, ,-52, ,
-1, ,-52, ,
1, ,-53, ,
-1, ,-52, ,
1, ,-53, ,
1, ,-52, ,
1, ,-52, ,
-1, ,-52, ,
1, ,-53, ,
-1, ,-52, ,
-1, ,-52, ,
1, ,-52, ,
1, ,-52, ,
-1, ,-52, ,
2, ,-53, ,
-1, ,-52, ,
-1, ,-52, ,
1, ,-52, ,
1, ,-52, ,
-1, ,-52, ,
2, ,-53, ,
1, ,-52, ,
-1, ,-52, ,
1, ,-53, ,
1, ,-52, ,
-1, ,-52, ,
1, ,-53, ,
-1, ,-52, ,
1, ,-52, ,
1, ,-53, ,
1, ,-52, ,
-1, ,-52, ,
2, ,-53, ,
-1, ,-52, ,
1, ,-52, ,
1, ,-52, ,
1, ,-53, ,
-1, ,-52, ,
2, ,-53, ,
-1, ,-52, ,
1, ,-52, ,
1, ,-52, ,
1, ,-52, ,
-1, ,-52, ,
2, ,-53, ,
-1, ,-52, ,
1, ,-52, ,
1, ,-52, ,
1, ,-52, ,
-1, ,-52, ,
1, ,-53, ,
-1, ,-52, ,
-1, ,-53, ,
1, ,-52, ,
1, ,-52, ,
-1, ,-52, ,
2, ,-53, ,
-1, ,-52, ,
1, ,-52, ,
1, ,-53, ,
1, ,-52, ,
-1, ,-52, ,
1, ,-53, ,
1, ,-53, ,
1, ,-53, ,
1, ,-52, ,
1, ,-52, ,
-1, ,-52, ,
2, ,-53, ,
1, ,-52, ,
1, ,-52, ,
2, ,-53, ,
1, ,-52, ,
-1, ,-52, ,
1, ,-53, ,
-1, ,-52, ,
1, ,-52, ,
1, ,-52, ,
1, ,-52, ,
-1, ,-52, ,
2, ,-53, ,
1, ,-52, ,
1, ,-52, ,
1, ,-53, ,
1, ,-52, ,
-1, ,-52, ,
1, ,-53, ,
1, ,-52, ,
1, ,-52, ,
1, ,-53, ,
2, ,-52, ,
-1, ,-52, ,
2, ,-53, ,
-1, ,-52, ,
1, ,-52, ,
1, ,-52, ,
2, ,-52, ,
-1, ,-52, ,
2, ,-53, ,
1, ,-52, ,
1, ,-53, ,
1, ,-52, ,
1, ,-53, ,
-1, ,-52, ,
2, ,-53, ,
-1, ,-52, ,
1, ,-52, ,
1, ,-53, ,
1, ,-52, ,
-1, ,-52, ,
1, ,-53, ,
-1, ,-52, ,
-1, ,-53, ,
1, ,-52, ,
1, ,-53, ,
-1, ,-52, ,
1, ,-53, ,
-1, ,-52, ,
1, ,-52, ,
1, ,-53, ,
1, ,-52, ,
-1, ,-52, ,
2, ,-52, ,
-1, ,-53, ,
1, ,-53, ,
1, ,-52, ,
1, ,-52, ,
-1, ,-52, ,
1, ,-53, ,
1, ,-52, ,
1, ,-52, ,
1, ,-52, ,
1, ,-52, ,
-1, ,-52, ,
1, ,-53, ,
-1, ,-52, ,
1, ,-53, ,
1, ,-53, ,
1, ,-52, ,
-1, ,-52, ,
1, ,-53, ,
-1, ,-52, ,
1, ,-52, ,
1, ,-53, ,
1, ,-52, ,
-1, ,-52, ,
1, ,-52, ,
-1, ,-52, ,
-1, ,-52, ,
1, ,-52, ,
1, ,-52, ,
-1, ,-52, ,
1, ,-53, ,
-1, ,-52, ,
-1, ,-52, ,
1, ,-52, ,
1, ,-52, ,
-1, ,-52, ,
1, ,-53, ,
-1, ,-52, ,
1, ,-52, ,
1, ,-52, ,
1, ,-53, ,
-1, ,-52, ,
2, ,-53, ,
-1, ,-52, ,
1, ,-53, ,
1, ,-52, ,
1, ,-52, ,
-1, ,-52, ,
1, ,-52, ,
-1, ,-53, ,
-1, ,-53, ,
1, ,-53, ,
1, ,-52, ,
-1, ,-52, ,
1, ,-53, ,
-1, ,-52, ,
1, ,-52, ,
1, ,-52, ,
1, ,-52, ,
-1, ,-52, ,
1, ,-53, ,
-1, ,-52, ,
1, ,-53, ,
1, ,-52, ,
1, ,-52, ,
-1, ,-52, ,
1, ,-53, ,
1, ,-53, ,
-1, ,-53, ,
1, ,-53, ,
