src/varyamp_1560/temp0000241.CSV

Format,1.0B,
Memory Length,10000,Memory Length,10000,
IntpDistance,0,IntpDistance,0,
Trigger Address,4999,Trigger Address,4999,
Trigger Level,1.040E+00,Trigger Level,1.040E+00,
Source,CH1,Source,CH2,
Vertical Units,V,Vertical Units,V,
Vertical Units Div,0,Vertical Units Div,0,
Vertical Units Extend Div,16,Vertical Units Extend Div,16,
Label,,Label,,
Probe Type,0,Probe Type,0,
Probe Ratio,1.000e+01,Probe Ratio,1.000e+00,
Vertical Scale,5.000e-01,Vertical Scale,1.000e+00,
Vertical Position,-1.820e+00,Vertical Position,0.000e+00,
Horizontal Units,S,Horizontal Units,S,
Horizontal Scale,2.000E-05,Horizontal Scale,2.000E-05,
Horizontal Position,0.000E+00,Horizontal Position,0.000E+00,
Horizontal Mode,Main,Horizontal Mode,Main,
SincET Mode,Real Time,SincET Mode,Real Time,
Sampling Period,2.000e-08,Sampling Period,2.000e-08,
Horizontal Old Scale,2.000E-05,Horizontal Old Scale,2.000E-05,
Horizontal Old Position,0.000E+00,Horizontal Old Position,0.000E+00,
Firmware,V1.23,Firmware,V1.23,
Mode,Fast,Mode,Fast,
Waveform Data,,Waveform Data,,
2, ,-62, ,
-1, ,-63, ,
1, ,-63, ,
-1, ,-63, ,
-1, ,-63, ,
1, ,-62, ,
2, ,-63, ,
-1, ,-63, ,
1, ,-63, ,
-1, ,-62, ,
-1, ,-63, ,
1, ,-62, ,
1, ,-63, ,
-1, ,-63, ,
1, ,-62, ,
-1, ,-63, ,
-1, ,-63, ,
1, ,-62, ,
1, ,-63, ,
-1, ,-63, ,
1, ,-62, ,
-1, ,-62, ,
-1, ,-63, ,
1, ,-62, ,
1, ,-63, ,
-1, ,-62, ,
1, ,-63, ,
-1, ,-63, ,
1, ,-63, ,
1, ,-62, ,
1, ,-63, ,
-1, ,-63, ,
1, ,-63, ,
-1, ,-63, ,
-1, ,-63, ,
1, ,-62, ,
1, ,-63, ,
-1, ,-63, ,
1, ,-63, ,
-1, ,-62, ,
-1, ,-63, ,
1, ,-61, ,
1, ,-62, ,
-1, ,-63, ,
1, ,-62, ,
-1, ,-62, ,
-1, ,-63, ,
1, ,-62, ,
1, ,-62, ,
-1, ,-63, ,
1, ,-63, ,
-1, ,-63, ,
-1, ,-63, ,
1, ,-62, ,
1, ,-63, ,
-1, ,-63, ,
1, ,-63, ,
-1, ,-62, ,
-1, ,-63, ,
1, ,-62, ,
1, ,-62, ,
-1, ,-62, ,
1, ,-62, ,
-1, ,-62, ,
-1, ,-63, ,
1, ,-61, ,
1, ,-62, ,
-1, ,-63, ,
1, ,-63, ,
-1, ,-63, ,
-1, ,-63, ,
1, ,-62, ,
1, ,-63, ,
-1, ,-63, ,
1, ,-63, ,
1, ,-63, ,
-1, ,-63, ,
1, ,-61, ,
1, ,-62, ,
-1, ,-63, ,
1, ,-63, ,
-1, ,-62, ,
-1, ,-63, ,
1, ,-62, ,
1, ,-62, ,
-1, ,-63, ,
1, ,-63, ,
-1, ,-63, ,
-1, ,-63, ,
1, ,-62, ,
1, ,-63, ,
-1, ,-63, ,
1, ,-63, ,
1, ,-62, ,
-1, ,-63, ,
2, ,-62, ,
82, ,-63, ,
50, ,-63, ,
32, ,-63, ,
20, ,-62, ,
12, ,-63, ,
10, ,-62, ,
6, ,-63, ,
3, ,-63, ,
5, ,-62, ,
3, ,-62, ,
2, ,-63, ,
3, ,-62, ,
3, ,-63, ,
2, ,-62, ,
3, ,-62, ,
2, ,-63, ,
2, ,-63, ,
3, ,-62, ,
3, ,-62, ,
2, ,-63, ,
3, ,-63, ,
2, ,-63, ,
2, ,-63, ,
2, ,-62, ,
3, ,-62, ,
1, ,-62, ,
3, ,-63, ,
2, ,-63, ,
2, ,-63, ,
2, ,-62, ,
3, ,-62, ,
2, ,-63, ,
3, ,-63, ,
2, ,-62, ,
2, ,-63, ,
2, ,-62, ,
3, ,-63, ,
2, ,-63, ,
3, ,-63, ,
2, ,-63, ,
2, ,-63, ,
2, ,-62, ,
3, ,-63, ,
1, ,-63, ,
2, ,-62, ,
2, ,-62, ,
2, ,-63, ,
2, ,-62, ,
3, ,-62, ,
1, ,-63, ,
3, ,-63, ,
2, ,-63, ,
2, ,-63, ,
2, ,-62, ,
3, ,-62, ,
2, ,-63, ,
3, ,-63, ,
2, ,-63, ,
2, ,-63, ,
2, ,-63, ,
3, ,-63, ,
1, ,-63, ,
2, ,-63, ,
2, ,-63, ,
2, ,-63, ,
2, ,-62, ,
3, ,-62, ,
1, ,-63, ,
2, ,-63, ,
1, ,-62, ,
1, ,-63, ,
2, ,-62, ,
3, ,-63, ,
2, ,-63, ,
3, ,-63, ,
2, ,-63, ,
2, ,-63, ,
2, ,-62, ,
2, ,-63, ,
1, ,-63, ,
2, ,-62, ,
2, ,-62, ,
2, ,-63, ,
2, ,-62, ,
2, ,-63, ,
2, ,-63, ,
2, ,-63, ,
2, ,-62, ,
2, ,-63, ,
2, ,-62, ,
3, ,-62, ,
1, ,-63, ,
2, ,-63, ,
2, ,-62, ,
2, ,-63, ,
2, ,-62, ,
2, ,-63, ,
1, ,-63, ,
2, ,-63, ,
2, ,-63, ,
2, ,-63, ,
2, ,-62, ,
2, ,-63, ,
1, ,-63, ,
2, ,-63, ,
2, ,-62, ,
1, ,-63, ,
2, ,-62, ,
2, ,-63, ,
1, ,-63, ,
2, ,-63, ,
1, ,-62, ,
2, ,-63, ,
2, ,-62, ,
3, ,-63, ,
1, ,-63, ,
3, ,-63, ,
1, ,-62, ,
2, ,-63, ,
2, ,-62, ,
3, ,-63, ,
1, ,-63, ,
2, ,-63, ,
2, ,-62, ,
2, ,-63, ,
2, ,-62, ,
2, ,-62, ,
1, ,-63, ,
2, ,-63, ,
1, ,-63, ,
1, ,-63, ,
2, ,-62, ,
2, ,-62, ,
1, ,-63, ,
2, ,-63, ,
2, ,-63, ,
1, ,-63, ,
2, ,-62, ,
2, ,-62, ,
1, ,-63, ,
3, ,-62, ,
2, ,-63, ,
2, ,-63, ,
2, ,-62, ,
2, ,-62, ,
1, ,-62, ,
2, ,-63, ,
2, ,-63, ,
1, ,-63, ,
2, ,-62, ,
2, ,-63, ,
1, ,-63, ,
2, ,-63, ,
1, ,-63, ,
1, ,-63, ,
2, ,-62, ,
2, ,-62, ,
1, ,-62, ,
2, ,-62, ,
2, ,-63, ,
2, ,-63, ,
2, ,-62, ,
2, ,-62, ,
1, ,-63, ,
2, ,-63, ,
2, ,-62, ,
1, ,-63, ,
2, ,-62, ,
2, ,-62, ,
1, ,-62, ,
2, ,-63, ,
2, ,-63, ,
2, ,-63, ,
2, ,-62, ,
2, ,-62, ,
1, ,-63, ,
2, ,-63, ,
1, ,-62, ,
1, ,-63, ,
2, ,-62, ,
3, ,-62, ,
1, ,-63, ,
2, ,-63, ,
2, ,-63, ,
2, ,-63, ,
2, ,-62, ,
2, ,-62, ,
1, ,-62, ,
2, ,-63, ,
2, ,-62, ,
1, ,-63, ,
2, ,-63, ,
2, ,-63, ,
1, ,-63, ,
2, ,-63, ,
1, ,-63, ,
1, ,-63, ,
2, ,-62, ,
2, ,-62, ,
1, ,-63, ,
2, ,-62, ,
2, ,-62, ,
2, ,-63, ,
2, ,-62, ,
2, ,-62, ,
1, ,-63, ,
2, ,-60, ,
1, ,-42, ,
1, ,-24, ,
2, ,-9, ,
2, ,0, ,
1, ,8, ,
2, ,15, ,
1, ,18, ,
1, ,21, ,
1, ,23, ,
2, ,25, ,
1, ,27, ,
2, ,27, ,
1, ,28, ,
1, ,30, ,
2, ,30, ,
1, ,30, ,
-1, ,31, ,
2, ,31, ,
1, ,31, ,
1, ,31, ,
2, ,31, ,
1, ,31, ,
1, ,31, ,
2, ,31, ,
1, ,31, ,
1, ,31, ,
1, ,31, ,
1, ,31, ,
1, ,31, ,
2, ,31, ,
1, ,31, ,
1, ,31, ,
2, ,31, ,
1, ,31, ,
1, ,31, ,
2, ,31, ,
1, ,31, ,
1, ,31, ,
2, ,31, ,
1, ,30, ,
-1, ,30, ,
2, ,31, ,
1, ,30, ,
1, ,30, ,
2, ,31, ,
1, ,30, ,
1, ,30, ,
2, ,31, ,
1, ,31, ,
1, ,31, ,
2, ,31, ,
1, ,30, ,
1, ,30, ,
3, ,31, ,
1, ,30, ,
1, ,30, ,
1, ,31, ,
1, ,30, ,
1, ,30, ,
2, ,31, ,
1, ,30, ,
1, ,30, ,
2, ,30, ,
2, ,30, ,
1, ,30, ,
2, ,31, ,
1, ,30, ,
1, ,31, ,
2, ,30, ,
1, ,30, ,
1, ,30, ,
2, ,30, ,
1, ,30, ,
1, ,30, ,
2, ,30, ,
1, ,30, ,
1, ,30, ,
2, ,31, ,
1, ,30, ,
1, ,30, ,
2, ,30, ,
1, ,30, ,
1, ,30, ,
3, ,31, ,
1, ,30, ,
1, ,30, ,
2, ,30, ,
1, ,30, ,
1, ,30, ,
2, ,31, ,
1, ,30, ,
1, ,31, ,
2, ,30, ,
1, ,30, ,
1, ,30, ,
2, ,30, ,
1, ,30, ,
1, ,30, ,
2, ,30, ,
1, ,30, ,
1, ,31, ,
2, ,31, ,
1, ,30, ,
1, ,31, ,
1, ,31, ,
1, ,31, ,
1, ,30, ,
2, ,30, ,
1, ,30, ,
1, ,30, ,
2, ,30, ,
1, ,30, ,
-1, ,30, ,
2, ,31, ,
1, ,30, ,
1, ,31, ,
2, ,30, ,
1, ,31, ,
-1, ,30, ,
2, ,30, ,
1, ,30, ,
1, ,30, ,
1, ,30, ,
1, ,30, ,
-1, ,30, ,
2, ,31, ,
1, ,30, ,
1, ,30, ,
1, ,30, ,
1, ,30, ,
1, ,30, ,
2, ,30, ,
1, ,30, ,
1, ,30, ,
2, ,30, ,
1, ,30, ,
-1, ,30, ,
2, ,31, ,
1, ,30, ,
1, ,30, ,
2, ,30, ,
1, ,30, ,
-1, ,30, ,
2, ,30, ,
1, ,30, ,
1, ,30, ,
1, ,30, ,
1, ,30, ,
-1, ,30, ,
2, ,31, ,
1, ,30, ,
-1, ,30, ,
1, ,31, ,
1, ,30, ,
-1, ,19, ,
1, ,-1, ,
-1, ,-17, ,
1, ,-28, ,
2, ,-38, ,
1, ,-44, ,
-1, ,-51, ,
2, ,-53, ,
-1, ,-56, ,
1, ,-58, ,
1, ,-59, ,
2, ,-61, ,
-1, ,-61, ,
2, ,-62, ,
1, ,-62, ,
1, ,-64, ,
1, ,-63, ,
1, ,-63, ,
-1, ,-63, ,
2, ,-63, ,
1, ,-63, ,
1, ,-64, ,
1, ,-63, ,
2, ,-63, ,
1, ,-64, ,
2, ,-64, ,
1, ,-63, ,
1, ,-64, ,
2, ,-63, ,
1, ,-63, ,
1, ,-63, ,
2, ,-63, ,
1, ,-63, ,
1, ,-64, ,
1, ,-63, ,
1, ,-63, ,
1, ,-63, ,
1, ,-63, ,
1, ,-63, ,
1, ,-63, ,
2, ,-62, ,
2, ,-63, ,
1, ,-63, ,
2, ,-63, ,
1, ,-63, ,
1, ,-63, ,
2, ,-63, ,
1, ,-63, ,
1, ,-63, ,
2, ,-63, ,
1, ,-63, ,
1, ,-64, ,
2, ,-63, ,
2, ,-63, ,
1, ,-63, ,
2, ,-63, ,
1, ,-63, ,
1, ,-63, ,
2, ,-63, ,
1, ,-63, ,
1, ,-63, ,
2, ,-63, ,
1, ,-63, ,
1, ,-63, ,
2, ,-62, ,
2, ,-62, ,
1, ,-63, ,
1, ,-63, ,
1, ,-62, ,
1, ,-63, ,
2, ,-63, ,
1, ,-62, ,
1, ,-63, ,
2, ,-63, ,
1, ,-63, ,
1, ,-63, ,
2, ,-62, ,
1, ,-62, ,
-1, ,-63, ,
2, ,-63, ,
1, ,-63, ,
1, ,-63, ,
2, ,-63, ,
1, ,-63, ,
-1, ,-62, ,
2, ,-63, ,
1, ,-63, ,
1, ,-63, ,
1, ,-62, ,
1, ,-63, ,
1, ,-63, ,
2, ,-63, ,
1, ,-63, ,
1, ,-63, ,
1, ,-63, ,
1, ,-63, ,
-1, ,-63, ,
2, ,-63, ,
1, ,-63, ,
1, ,-63, ,
1, ,-62, ,
1, ,-63, ,
-1, ,-63, ,
2, ,-62, ,
1, ,-63, ,
1, ,-63, ,
1, ,-62, ,
1, ,-62, ,
-1, ,-62, ,
2, ,-63, ,
1, ,-63, ,
1, ,-63, ,
2, ,-62, ,
1, ,-62, ,
-1, ,-63, ,
2, ,-63, ,
1, ,-62, ,
1, ,-63, ,
1, ,-63, ,
1, ,-63, ,
-1, ,-63, ,
1, ,-63, ,
1, ,-63, ,
1, ,-63, ,
1, ,-62, ,
1, ,-62, ,
-1, ,-63, ,
2, ,-62, ,
1, ,-62, ,
1, ,-63, ,
1, ,-62, ,
1, ,-62, ,
-1, ,-62, ,
2, ,-63, ,
1, ,-62, ,
1, ,-63, ,
2, ,-62, ,
1, ,-63, ,
-1, ,-63, ,
1, ,-62, ,
1, ,-63, ,
1, ,-63, ,
1, ,-62, ,
1, ,-62, ,
-1, ,-62, ,
1, ,-63, ,
1, ,-63, ,
1, ,-63, ,
1, ,-62, ,
2, ,-62, ,
-1, ,-62, ,
1, ,-63, ,
1, ,-62, ,
1, ,-63, ,
1, ,-62, ,
1, ,-62, ,
-1, ,-63, ,
2, ,-62, ,
1, ,-63, ,
1, ,-63, ,
1, ,-62, ,
1, ,-62, ,
-1, ,-63, ,
2, ,-62, ,
1, ,-62, ,
1, ,-63, ,
1, ,-63, ,
1, ,-62, ,
-1, ,-63, ,
2, ,-63, ,
1, ,-63, ,
1, ,-63, ,
1, ,-62, ,
2, ,-63, ,
-1, ,-63, ,
2, ,-63, ,
1, ,-63, ,
1, ,-63, ,
1, ,-62, ,
1, ,-62, ,
-1, ,-63, ,
1, ,-63, ,
1, ,-62, ,
1, ,-63, ,
2, ,-63, ,
1, ,-62, ,
-1, ,-63, ,
1, ,-62, ,
1, ,-62, ,
1, ,-63, ,
1, ,-63, ,
1, ,-63, ,
-1, ,-63, ,
2, ,-63, ,
1, ,-63, ,
1, ,-63, ,
1, ,-62, ,
2, ,-62, ,
-1, ,-63, ,
2, ,-63, ,
1, ,-62, ,
1, ,-63, ,
1, ,-63, ,
1, ,-62, ,
-1, ,-63, ,
2, ,-62, ,
1, ,-62, ,
1, ,-63, ,
1, ,-62, ,
1, ,-62, ,
-1, ,-63, ,
2, ,-62, ,
1, ,-62, ,
1, ,-63, ,
1, ,-63, ,
1, ,-63, ,
-1, ,-63, ,
1, ,-63, ,
1, ,-63, ,
1, ,-63, ,
2, ,-62, ,
1, ,-62, ,
-1, ,-63, ,
1, ,-63, ,
1, ,-63, ,
1, ,-63, ,
1, ,-63, ,
1, ,-62, ,
-1, ,-63, ,
1, ,-63, ,
1, ,-63, ,
1, ,-63, ,
1, ,-62, ,
1, ,-62, ,
-1, ,-63, ,
1, ,-62, ,
1, ,-62, ,
1, ,-63, ,
1, ,-62, ,
1, ,-62, ,
-1, ,-63, ,
2, ,-63, ,
1, ,-62, ,
1, ,-63, ,
1, ,-62, ,
1, ,-63, ,
-1, ,-62, ,
2, ,-62, ,
1, ,-63, ,
1, ,-63, ,
1, ,-62, ,
1, ,-62, ,
-1, ,-63, ,
1, ,-63, ,
1, ,-63, ,
1, ,-63, ,
1, ,-62, ,
2, ,-63, ,
-1, ,-63, ,
1, ,-63, ,
-1, ,-62, ,
1, ,-63, ,
1, ,-62, ,
2, ,-63, ,
-1, ,-63, ,
1, ,-63, ,
1, ,-63, ,
1, ,-63, ,
1, ,-62, ,
1, ,-62, ,
-1, ,-63, ,
2, ,-63, ,
1, ,-62, ,
1, ,-63, ,
1, ,-62, ,
1, ,-62, ,
-1, ,-62, ,
1, ,-63, ,
1, ,-63, ,
1, ,-63, ,
1, ,-62, ,
1, ,-63, ,
-1, ,-63, ,
1, ,-63, ,
1, ,-62, ,
1, ,-63, ,
1, ,-62, ,
1, ,-63, ,
-1, ,-63, ,
1, ,-63, ,
1, ,-63, ,
1, ,-63, ,
1, ,-62, ,
2, ,-62, ,
-1, ,-63, ,
1, ,-63, ,
1, ,-63, ,
1, ,-63, ,
1, ,-63, ,
1, ,-63, ,
-1, ,-63, ,
1, ,-63, ,
1, ,-63, ,
1, ,-63, ,
1, ,-62, ,
1, ,-63, ,
-1, ,-63, ,
1, ,-63, ,
1, ,-62, ,
-1, ,-63, ,
1, ,-62, ,
2, ,-62, ,
-1, ,-62, ,
1, ,-63, ,
1, ,-63, ,
1, ,-63, ,
1, ,-62, ,
1, ,-63, ,
-1, ,-63, ,
2, ,-63, ,
1, ,-62, ,
1, ,-63, ,
1, ,-62, ,
1, ,-63, ,
-1, ,-63, ,
2, ,-63, ,
1, ,-63, ,
1, ,-63, ,
1, ,-62, ,
1, ,-63, ,
-1, ,-63, ,
1, ,-63, ,
1, ,-62, ,
1, ,-63, ,
1, ,-62, ,
2, ,-62, ,
-1, ,-63, ,
1, ,-63, ,
1, ,-63, ,
1, ,-63, ,
1, ,-62, ,
1, ,-62, ,
-1, ,-63, ,
1, ,-63, ,
1, ,-63, ,
1, ,-63, ,
1, ,-62, ,
1, ,-62, ,
-1, ,-63, ,
1, ,-62, ,
-1, ,-63, ,
1, ,-63, ,
1, ,-62, ,
1, ,-62, ,
-1, ,-63, ,
1, ,-62, ,
1, ,-62, ,
-1, ,-63, ,
1, ,-62, ,
1, ,-63, ,
-1, ,-63, ,
1, ,-63, ,
1, ,-63, ,
1, ,-63, ,
1, ,-62, ,
1, ,-62, ,
-1, ,-63, ,
1, ,-63, ,
1, ,-62, ,
1, ,-63, ,
1, ,-62, ,
2, ,-63, ,
-1, ,-62, ,
1, ,-62, ,
1, ,-62, ,
1, ,-63, ,
1, ,-62, ,
1, ,-63, ,
-1, ,-63, ,
1, ,-63, ,
1, ,-62, ,
1, ,-63, ,
1, ,-63, ,
1, ,-63, ,
-1, ,-63, ,
1, ,-63, ,
1, ,-63, ,
1, ,-63, ,
1, ,-62, ,
1, ,-63, ,
-1, ,-63, ,
1, ,-63, ,
1, ,-63, ,
1, ,-63, ,
1, ,-62, ,
1, ,-63, ,
-1, ,-63, ,
1, ,-63, ,
1, ,-62, ,
1, ,-63, ,
1, ,-62, ,
1, ,-63, ,
-1, ,-63, ,
1, ,-63, ,
1, ,-62, ,
1, ,-63, ,
1, ,-63, ,
1, ,-62, ,
-1, ,-63, ,
1, ,-63, ,
1, ,-63, ,
1, ,-63, ,
1, ,-62, ,
1, ,-63, ,
-1, ,-63, ,
2, ,-63, ,
1, ,-63, ,
1, ,-63, ,
1, ,-62, ,
1, ,-63, ,
-1, ,-63, ,
1, ,-62, ,
1, ,-63, ,
1, ,-63, ,
1, ,-62, ,
1, ,-63, ,
-1, ,-63, ,
1, ,-63, ,
1, ,-63, ,
1, ,-63, ,
1, ,-62, ,
1, ,-63, ,
-1, ,-62, ,
1, ,-63, ,
1, ,-63, ,
1, ,-63, ,
1, ,-62, ,
1, ,-63, ,
-1, ,-63, ,
1, ,-63, ,
1, ,-62, ,
1, ,-63, ,
1, ,-63, ,
2, ,-63, ,
-1, ,-63, ,
1, ,-62, ,
1, ,-63, ,
-1, ,-63, ,
1, ,-62, ,
1, ,-62, ,
-1, ,-63, ,
1, ,-63, ,
1, ,-62, ,
1, ,-63, ,
1, ,-62, ,
1, ,-62, ,
-1, ,-63, ,
1, ,-63, ,
1, ,-63, ,
1, ,-63, ,
1, ,-62, ,
1, ,-63, ,
-1, ,-63, ,
1, ,-63, ,
1, ,-62, ,
1, ,-63, ,
1, ,-62, ,
1, ,-63, ,
-1, ,-63, ,
1, ,-63, ,
1, ,-63, ,
1, ,-63, ,
1, ,-62, ,
2, ,-63, ,
-1, ,-63, ,
1, ,-63, ,
1, ,-63, ,
1, ,-63, ,
1, ,-62, ,
1, ,-63, ,
-1, ,-63, ,
1, ,-63, ,
-1, ,-63, ,
-1, ,-63, ,
1, ,-62, ,
1, ,-63, ,
-1, ,-63, ,
1, ,-63, ,
-1, ,-62, ,
-1, ,-63, ,
1, ,-62, ,
1, ,-62, ,
-1, ,-63, ,
1, ,-63, ,
-1, ,-63, ,
-1, ,-63, ,
1, ,-63, ,
1, ,-62, ,
-1, ,-63, ,
1, ,-63, ,
-1, ,-62, ,
-1, ,-63, ,
1, ,-62, ,
1, ,-63, ,
-1, ,-63, ,
1, ,-63, ,
-1, ,-63, ,
-1, ,-63, ,
1, ,-62, ,
1, ,-62, ,
-1, ,-63, ,
1, ,-63, ,
1, ,-63, ,
-1, ,-63, ,
1, ,-63, ,
1, ,-63, ,
-1, ,-63, ,
1, ,-63, ,
1, ,-63, ,
1, ,-63, ,
1, ,-62, ,
1, ,-63, ,
-1, ,-63, ,
1, ,-63, ,
1, ,-62, ,
1, ,-63, ,
1, ,-62, ,
1, ,-63, ,
-1, ,-63, ,
1, ,-63, ,
-1, ,-63, ,
1, ,-63, ,
1, ,-63, ,
1, ,-63, ,
-1, ,-63, ,
1, ,-63, ,
1, ,-63, ,
1, ,-63, ,
1, ,-63, ,
1, ,-63, ,
-1, ,-63, ,
1, ,-63, ,
1, ,-62, ,
-1, ,-63, ,
1, ,-62, ,
1, ,-63, ,
-1, ,-63, ,
1, ,-63, ,
1, ,-63, ,
-1, ,-63, ,
1, ,-63, ,
1, ,-63, ,
-1, ,-63, ,
1, ,-62, ,
-1, ,-63, ,
1, ,-63, ,
1, ,-62, ,
2, ,-63, ,
-1, ,-63, ,
1, ,-62, ,
1, ,-63, ,
-1, ,-63, ,
1, ,-62, ,
1, ,-63, ,
-1, ,-63, ,
1, ,-63, ,
-1, ,-63, ,
-1, ,-63, ,
1, ,-62, ,
1, ,-63, ,
-1, ,-63, ,
1, ,-62, ,
1, ,-63, ,
-1, ,-63, ,
1, ,-63, ,
1, ,-63, ,
-1, ,-63, ,
1, ,-62, ,
1, ,-62, ,
1, ,-63, ,
1, ,-62, ,
1, ,-63, ,
-1, ,-63, ,
1, ,-63, ,
1, ,-63, ,
1, ,-63, ,
1, ,-62, ,
1, ,-62, ,
-1, ,-63, ,
1, ,-63, ,
1, ,-63, ,
1, ,-63, ,
1, ,-63, ,
2, ,-63, ,
-1, ,-63, ,
1, ,-63, ,
1, ,-63, ,
1, ,-63, ,
1, ,-63, ,
2, ,-63, ,
-1, ,-63, ,
1, ,-62, ,
-1, ,-63, ,
-1, ,-63, ,
1, ,-62, ,
1, ,-62, ,
-1, ,-63, ,
1, ,-63, ,
-1, ,-63, ,
1, ,-63, ,
1, ,-63, ,
1, ,-63, ,
-1, ,-63, ,
1, ,-63, ,
-1, ,-63, ,
-1, ,-63, ,
1, ,-63, ,
1, ,-63, ,
-1, ,-63, ,
1, ,-63, ,
-1, ,-63, ,
1, ,-63, ,
1, ,-63, ,
1, ,-63, ,
-1, ,-63, ,
1, ,-63, ,
-1, ,-62, ,
-1, ,-49, ,
1, ,-28, ,
2, ,-13, ,
-1, ,-2, ,
2, ,6, ,
1, ,13, ,
-1, ,17, ,
1, ,21, ,
1, ,23, ,
-1, ,25, ,
2, ,27, ,
-1, ,27, ,
-1, ,28, ,
1, ,30, ,
1, ,30, ,
-1, ,30, ,
2, ,31, ,
-1, ,31, ,
-1, ,31, ,
1, ,31, ,
1, ,31, ,
-1, ,31, ,
2, ,31, ,
-1, ,31, ,
-1, ,31, ,
1, ,31, ,
-1, ,31, ,
-1, ,31, ,
2, ,31, ,
-1, ,31, ,
-1, ,31, ,
1, ,30, ,
1, ,31, ,
-1, ,31, ,
2, ,31, ,
-1, ,31, ,
-1, ,31, ,
1, ,31, ,
1, ,31, ,
-1, ,30, ,
2, ,31, ,
-1, ,30, ,
-1, ,30, ,
1, ,30, ,
1, ,30, ,
-1, ,30, ,
2, ,31, ,
-1, ,30, ,
-1, ,31, ,
1, ,31, ,
1, ,30, ,
-1, ,30, ,
2, ,31, ,
-1, ,30, ,
-1, ,30, ,
1, ,30, ,
1, ,30, ,
-1, ,30, ,
2, ,30, ,
-1, ,30, ,
-1, ,31, ,
1, ,30, ,
1, ,30, ,
-1, ,30, ,
2, ,31, ,
-1, ,30, ,
-1, ,30, ,
1, ,30, ,
1, ,30, ,
-1, ,30, ,
1, ,30, ,
-1, ,30, ,
-1, ,30, ,
1, ,30, ,
1, ,30, ,
-1, ,31, ,
2, ,31, ,
-1, ,30, ,
-1, ,30, ,
1, ,30, ,
1, ,30, ,
-1, ,30, ,
2, ,31, ,
-1, ,30, ,
-1, ,30, ,
1, ,30, ,
1, ,30, ,
-1, ,30, ,
2, ,31, ,
-1, ,30, ,
-1, ,30, ,
1, ,30, ,
1, ,31, ,
-1, ,30, ,
2, ,31, ,
-1, ,30, ,
-1, ,30, ,
1, ,30, ,
1, ,30, ,
-1, ,30, ,
2, ,31, ,
1, ,30, ,
-1, ,31, ,
1, ,30, ,
1, ,30, ,
-1, ,30, ,
2, ,31, ,
-1, ,30, ,
1, ,30, ,
1, ,31, ,
1, ,30, ,
-1, ,30, ,
2, ,31, ,
-1, ,30, ,
-1, ,30, ,
1, ,30, ,
1, ,30, ,
-1, ,30, ,
1, ,30, ,
-1, ,30, ,
-1, ,30, ,
1, ,30, ,
1, ,30, ,
-1, ,30, ,
2, ,31, ,
-1, ,30, ,
-1, ,30, ,
1, ,30, ,
1, ,30, ,
-1, ,30, ,
2, ,30, ,
-1, ,30, ,
-1, ,30, ,
1, ,30, ,
1, ,30, ,
-1, ,30, ,
1, ,31, ,
-1, ,30, ,
-1, ,30, ,
1, ,30, ,
1, ,31, ,
-1, ,30, ,
1, ,30, ,
-1, ,30, ,
-1, ,30, ,
1, ,30, ,
1, ,30, ,
-1, ,30, ,
1, ,30, ,
-1, ,30, ,
-1, ,30, ,
1, ,30, ,
1, ,30, ,
-1, ,30, ,
1, ,24, ,
-1, ,5, ,
-1, ,-13, ,
1, ,-25, ,
1, ,-36, ,
-2, ,-43, ,
1, ,-49, ,
-1, ,-52, ,
-1, ,-56, ,
1, ,-57, ,
1, ,-59, ,
-2, ,-60, ,
2, ,-61, ,
-1, ,-62, ,
-1, ,-63, ,
1, ,-61, ,
1, ,-63, ,
-1, ,-63, ,
1, ,-63, ,
1, ,-63, ,
-1, ,-64, ,
1, ,-63, ,
1, ,-63, ,
-1, ,-63, ,
1, ,-63, ,
-1, ,-63, ,
1, ,-64, ,
1, ,-63, ,
1, ,-63, ,
-1, ,-63, ,
1, ,-63, ,
-1, ,-63, ,
1, ,-63, ,
1, ,-63, ,
1, ,-63, ,
-1, ,-63, ,
1, ,-63, ,
-1, ,-63, ,
-1, ,-63, ,
1, ,-62, ,
1, ,-63, ,
-1, ,-63, ,
1, ,-63, ,
1, ,-63, ,
1, ,-63, ,
1, ,-62, ,
1, ,-63, ,
-1, ,-63, ,
1, ,-63, ,
1, ,-62, ,
1, ,-63, ,
1, ,-62, ,
1, ,-63, ,
-1, ,-63, ,
1, ,-62, ,
1, ,-62, ,
1, ,-63, ,
1, ,-62, ,
1, ,-63, ,
-1, ,-62, ,
1, ,-63, ,
-1, ,-63, ,
-1, ,-63, ,
1, ,-62, ,
1, ,-63, ,
-1, ,-63, ,
1, ,-63, ,
1, ,-63, ,
-1, ,-63, ,
1, ,-62, ,
1, ,-63, ,
-1, ,-63, ,
2, ,-63, ,
1, ,-63, ,
1, ,-63, ,
1, ,-62, ,
2, ,-63, ,
-1, ,-63, ,
1, ,-63, ,
1, ,-63, ,
-1, ,-63, ,
1, ,-62, ,
1, ,-63, ,
-1, ,-63, ,
1, ,-63, ,
-1, ,-63, ,
1, ,-63, ,
1, ,-62, ,
1, ,-62, ,
-1, ,-63, ,
1, ,-62, ,
-1, ,-63, ,
-1, ,-63, ,
1, ,-62, ,
1, ,-62, ,
-1, ,-63, ,
1, ,-63, ,
-1, ,-63, ,
-1, ,-63, ,
1, ,-63, ,
1, ,-63, ,
-1, ,-63, ,
1, ,-63, ,
-1, ,-62, ,
-1, ,-63, ,
1, ,-62, ,
1, ,-62, ,
-1, ,-63, ,
1, ,-63, ,
-1, ,-63, ,
-1, ,-63, ,
1, ,-62, ,
1, ,-63, ,
-1, ,-62, ,
1, ,-62, ,
-1, ,-62, ,
-1, ,-63, ,
1, ,-63, ,
1, ,-63, ,
-1, ,-63, ,
1, ,-62, ,
-1, ,-62, ,
-1, ,-63, ,
-1, ,-62, ,
1, ,-63, ,
-1, ,-63, ,
1, ,-63, ,
-1, ,-62, ,
-1, ,-63, ,
1, ,-62, ,
1, ,-63, ,
-1, ,-63, ,
1, ,-63, ,
-1, ,-63, ,
-1, ,-63, ,
1, ,-62, ,
1, ,-63, ,
-1, ,-63, ,
1, ,-63, ,
1, ,-63, ,
-1, ,-63, ,
1, ,-62, ,
1, ,-63, ,
-1, ,-62, ,
1, ,-62, ,
-1, ,-62, ,
-1, ,-63, ,
1, ,-62, ,
1, ,-63, ,
-1, ,-63, ,
1, ,-63, ,
-1, ,-62, ,
-1, ,-63, ,
1, ,-63, ,
1, ,-62, ,
-1, ,-63, ,
1, ,-63, ,
-1, ,-63, ,
-1, ,-63, ,
1, ,-62, ,
1, ,-63, ,
-1, ,-63, ,
1, ,-62, ,
1, ,-62, ,
1, ,-63, ,
1, ,-62, ,
1, ,-62, ,
-1, ,-63, ,
1, ,-63, ,
-1, ,-62, ,
1, ,-63, ,
1, ,-62, ,
1, ,-63, ,
-1, ,-63, ,
1, ,-63, ,
-1, ,-62, ,
-1, ,-63, ,
1, ,-62, ,
1, ,-62, ,
-1, ,-63, ,
1, ,-63, ,
-1, ,-63, ,
-1, ,-63, ,
1, ,-63, ,
1, ,-62, ,
-1, ,-62, ,
1, ,-62, ,
1, ,-62, ,
-1, ,-63, ,
1, ,-63, ,
2, ,-63, ,
-1, ,-63, ,
1, ,-63, ,
-1, ,-62, ,
-1, ,-63, ,
1, ,-62, ,
1, ,-63, ,
-1, ,-63, ,
1, ,-62, ,
-1, ,-62, ,
-1, ,-63, ,
1, ,-63, ,
1, ,-63, ,
-1, ,-63, ,
1, ,-63, ,
-1, ,-62, ,
-1, ,-63, ,
1, ,-62, ,
1, ,-62, ,
-1, ,-63, ,
1, ,-63, ,
-1, ,-62, ,
-1, ,-63, ,
1, ,-62, ,
1, ,-63, ,
-1, ,-62, ,
1, ,-63, ,
-1, ,-63, ,
-1, ,-63, ,
1, ,-62, ,
1, ,-62, ,
-1, ,-63, ,
1, ,-63, ,
-1, ,-62, ,
-1, ,-63, ,
1, ,-62, ,
1, ,-62, ,
-1, ,-63, ,
1, ,-62, ,
-1, ,-62, ,
-1, ,-63, ,
1, ,-62, ,
1, ,-63, ,
-1, ,-63, ,
1, ,-62, ,
-1, ,-62, ,
-1, ,-63, ,
1, ,-62, ,
1, ,-63, ,
-1, ,-62, ,
1, ,-63, ,
-1, ,-62, ,
-1, ,-63, ,
1, ,-62, ,
1, ,-62, ,
-1, ,-63, ,
1, ,-62, ,
-1, ,-63, ,
-1, ,-63, ,
1, ,-62, ,
1, ,-62, ,
-1, ,-63, ,
1, ,-63, ,
-1, ,-63, ,
-1, ,-63, ,
1, ,-62, ,
1, ,-62, ,
-1, ,-62, ,
1, ,-63, ,
-1, ,-62, ,
-1, ,-63, ,
1, ,-62, ,
1, ,-63, ,
-1, ,-62, ,
1, ,-63, ,
-1, ,-63, ,
-1, ,-63, ,
1, ,-62, ,
1, ,-62, ,
-1, ,-63, ,
1, ,-62, ,
-1, ,-62, ,
-1, ,-63, ,
1, ,-62, ,
1, ,-62, ,
-1, ,-62, ,
1, ,-63, ,
-1, ,-62, ,
-1, ,-63, ,
1, ,-62, ,
1, ,-62, ,
-1, ,-63, ,
1, ,-63, ,
-1, ,-63, ,
-1, ,-63, ,
1, ,-63, ,
1, ,-63, ,
-1, ,-62, ,
1, ,-62, ,
-1, ,-62, ,
-1, ,-63, ,
1, ,-62, ,
1, ,-63, ,
-1, ,-63, ,
1, ,-62, ,
-1, ,-63, ,
-1, ,-63, ,
1, ,-62, ,
1, ,-63, ,
-1, ,-63, ,
1, ,-63, ,
-1, ,-63, ,
-1, ,-63, ,
1, ,-62, ,
1, ,-62, ,
-1, ,-63, ,
1, ,-62, ,
-1, ,-62, ,
-1, ,-63, ,
1, ,-62, ,
1, ,-63, ,
-1, ,-62, ,
1, ,-63, ,
-1, ,-62, ,
-1, ,-63, ,
1, ,-62, ,
1, ,-63, ,
-1, ,-63, ,
1, ,-62, ,
-1, ,-62, ,
-1, ,-63, ,
1, ,-62, ,
1, ,-62, ,
-1, ,-63, ,
1, ,-63, ,
-1, ,-63, ,
-1, ,-63, ,
1, ,-62, ,
1, ,-62, ,
-1, ,-63, ,
1, ,-62, ,
-1, ,-62, ,
-1, ,-63, ,
1, ,-62, ,
1, ,-62, ,
-1, ,-62, ,
1, ,-63, ,
1, ,-63, ,
-1, ,-63, ,
1, ,-62, ,
1, ,-62, ,
-1, ,-63, ,
1, ,-62, ,
-1, ,-62, ,
-1, ,-63, ,
1, ,-62, ,
1, ,-62, ,
-1, ,-63, ,
1, ,-63, ,
-1, ,-63, ,
-1, ,-63, ,
1, ,-62, ,
1, ,-63, ,
-1, ,-62, ,
1, ,-63, ,
1, ,-62, ,
-1, ,-63, ,
1, ,-63, ,
1, ,-62, ,
-1, ,-62, ,
1, ,-62, ,
-1, ,-63, ,
-1, ,-63, ,
1, ,-62, ,
1, ,-62, ,
-1, ,-62, ,
1, ,-62, ,
-1, ,-62, ,
-1, ,-63, ,
1, ,-63, ,
1, ,-63, ,
-1, ,-63, ,
1, ,-63, ,
-1, ,-63, ,
-1, ,-63, ,
1, ,-62, ,
1, ,-62, ,
-1, ,-63, ,
1, ,-62, ,
-1, ,-63, ,
-1, ,-63, ,
1, ,-62, ,
2, ,-62, ,
-1, ,-62, ,
1, ,-63, ,
-1, ,-63, ,
-1, ,-63, ,
1, ,-62, ,
1, ,-62, ,
-1, ,-63, ,
1, ,-63, ,
-1, ,-62, ,
100, ,-63, ,
67, ,-62, ,
39, ,-62, ,
25, ,-63, ,
16, ,-63, ,
10, ,-63, ,
6, ,-63, ,
5, ,-62, ,
3, ,-63, ,
2, ,-63, ,
3, ,-63, ,
2, ,-63, ,
2, ,-63, ,
3, ,-63, ,
3, ,-63, ,
2, ,-62, ,
3, ,-63, ,
2, ,-63, ,
2, ,-63, ,
3, ,-62, ,
3, ,-62, ,
1, ,-63, ,
3, ,-62, ,
2, ,-62, ,
2, ,-63, ,
2, ,-62, ,
3, ,-63, ,
2, ,-63, ,
3, ,-63, ,
2, ,-63, ,
2, ,-63, ,
2, ,-62, ,
3, ,-62, ,
1, ,-63, ,
3, ,-62, ,
2, ,-63, ,
2, ,-63, ,
2, ,-62, ,
3, ,-62, ,
2, ,-62, ,
3, ,-63, ,
2, ,-62, ,
2, ,-63, ,
2, ,-62, ,
3, ,-63, ,
2, ,-63, ,
3, ,-62, ,
2, ,-62, ,
2, ,-63, ,
2, ,-62, ,
3, ,-62, ,
1, ,-63, ,
3, ,-63, ,
2, ,-62, ,
2, ,-63, ,
2, ,-62, ,
3, ,-63, ,
2, ,-63, ,
3, ,-63, ,
2, ,-62, ,
2, ,-63, ,
2, ,-62, ,
3, ,-62, ,
2, ,-63, ,
3, ,-62, ,
2, ,-63, ,
2, ,-63, ,
2, ,-62, ,
2, ,-63, ,
1, ,-63, ,
2, ,-63, ,
2, ,-62, ,
2, ,-63, ,
2, ,-62, ,
3, ,-63, ,
2, ,-63, ,
3, ,-63, ,
2, ,-63, ,
2, ,-63, ,
2, ,-62, ,
2, ,-62, ,
