src/varyamp_1560/temp0002340.CSV

Format,1.0B,
Memory Length,10000,Memory Length,10000,
IntpDistance,0,IntpDistance,0,
Trigger Address,4999,Trigger Address,4999,
Trigger Level,1.040E+00,Trigger Level,1.040E+00,
Source,CH1,Source,CH2,
Vertical Units,V,Vertical Units,V,
Vertical Units Div,0,Vertical Units Div,0,
Vertical Units Extend Div,16,Vertical Units Extend Div,16,
Label,,Label,,
Probe Type,0,Probe Type,0,
Probe Ratio,1.000e+01,Probe Ratio,1.000e+00,
Vertical Scale,5.000e-01,Vertical Scale,1.000e+00,
Vertical Position,-1.820e+00,Vertical Position,0.000e+00,
Horizontal Units,S,Horizontal Units,S,
Horizontal Scale,2.000E-05,Horizontal Scale,2.000E-05,
Horizontal Position,0.000E+00,Horizontal Position,0.000E+00,
Horizontal Mode,Main,Horizontal Mode,Main,
SincET Mode,Real Time,SincET Mode,Real Time,
Sampling Period,2.000e-08,Sampling Period,2.000e-08,
Horizontal Old Scale,2.000E-05,Horizontal Old Scale,2.000E-05,
Horizontal Old Position,0.000E+00,Horizontal Old Position,0.000E+00,
Firmware,V1.23,Firmware,V1.23,
Mode,Fast,Mode,Fast,
Waveform Data,,Waveform Data,,
2, ,-52, ,
-1, ,-52, ,
-1, ,-52, ,
2, ,-52, ,
-1, ,-52, ,
-1, ,-52, ,
1, ,-52, ,
1, ,-52, ,
-1, ,-52, ,
1, ,-52, ,
-1, ,-52, ,
-1, ,-52, ,
1, ,-52, ,
1, ,-52, ,
-1, ,-51, ,
2, ,-52, ,
-1, ,-52, ,
-1, ,-52, ,
1, ,-52, ,
-1, ,-52, ,
-1, ,-52, ,
1, ,-52, ,
-1, ,-52, ,
-1, ,-52, ,
1, ,-52, ,
-1, ,-52, ,
-2, ,-51, ,
2, ,-52, ,
-1, ,-52, ,
-1, ,-52, ,
1, ,-52, ,
-1, ,-52, ,
-1, ,-52, ,
2, ,-52, ,
-1, ,-52, ,
-1, ,-52, ,
1, ,-52, ,
1, ,-52, ,
-1, ,-52, ,
2, ,-52, ,
-1, ,-52, ,
-1, ,-52, ,
1, ,-52, ,
1, ,-52, ,
-1, ,-52, ,
1, ,-52, ,
-1, ,-52, ,
-1, ,-52, ,
1, ,-52, ,
1, ,-52, ,
-1, ,-52, ,
1, ,-52, ,
-1, ,-52, ,
-1, ,-52, ,
1, ,-52, ,
-1, ,-52, ,
-2, ,-52, ,
1, ,-52, ,
-1, ,-52, ,
-1, ,-52, ,
1, ,-52, ,
1, ,-52, ,
-2, ,-52, ,
2, ,-52, ,
-1, ,-52, ,
-1, ,-52, ,
1, ,-52, ,
-1, ,-52, ,
-2, ,-52, ,
2, ,-52, ,
-1, ,-52, ,
-1, ,-52, ,
1, ,-52, ,
1, ,-52, ,
-2, ,-52, ,
2, ,-52, ,
-1, ,-52, ,
-1, ,-52, ,
1, ,-52, ,
1, ,-52, ,
-2, ,-52, ,
2, ,-52, ,
-1, ,-52, ,
-1, ,-52, ,
1, ,-52, ,
-1, ,-52, ,
-2, ,-52, ,
2, ,-52, ,
-1, ,-52, ,
-1, ,-52, ,
1, ,-52, ,
1, ,-52, ,
-1, ,-52, ,
1, ,-52, ,
-1, ,-52, ,
-2, ,-52, ,
1, ,-52, ,
1, ,-52, ,
-2, ,-52, ,
2, ,-52, ,
-1, ,-52, ,
-1, ,-52, ,
1, ,-52, ,
-1, ,-52, ,
-1, ,-52, ,
1, ,-52, ,
-1, ,-52, ,
-1, ,-52, ,
1, ,-52, ,
1, ,-52, ,
-2, ,-52, ,
2, ,-52, ,
-1, ,-52, ,
-1, ,-52, ,
1, ,-52, ,
1, ,-52, ,
-1, ,-52, ,
2, ,-52, ,
-1, ,-51, ,
-1, ,-52, ,
1, ,-52, ,
1, ,-52, ,
-1, ,-51, ,
2, ,-52, ,
-1, ,-52, ,
-1, ,-52, ,
1, ,-52, ,
1, ,-52, ,
-1, ,-52, ,
1, ,-52, ,
-1, ,-52, ,
-1, ,-52, ,
1, ,-52, ,
1, ,-52, ,
-2, ,-52, ,
2, ,-52, ,
-1, ,-52, ,
-1, ,-52, ,
1, ,-52, ,
1, ,-52, ,
-2, ,-52, ,
1, ,-52, ,
-1, ,-52, ,
-1, ,-52, ,
1, ,-52, ,
-1, ,-52, ,
-2, ,-52, ,
2, ,-52, ,
-1, ,-52, ,
-1, ,-52, ,
1, ,-52, ,
-1, ,-52, ,
-1, ,-52, ,
2, ,-52, ,
-1, ,-52, ,
-1, ,-52, ,
1, ,-52, ,
1, ,-52, ,
-1, ,-52, ,
2, ,-52, ,
-1, ,-52, ,
-1, ,-52, ,
1, ,-52, ,
-1, ,-52, ,
-1, ,-52, ,
1, ,-52, ,
-1, ,-51, ,
-1, ,-52, ,
1, ,-52, ,
1, ,-52, ,
-2, ,-52, ,
2, ,-52, ,
-1, ,-52, ,
-1, ,-52, ,
1, ,-52, ,
1, ,-52, ,
-2, ,-52, ,
1, ,-52, ,
-1, ,-52, ,
-1, ,-52, ,
1, ,-52, ,
-1, ,-52, ,
-2, ,-51, ,
2, ,-52, ,
-1, ,-52, ,
-1, ,-52, ,
1, ,-52, ,
1, ,-52, ,
-1, ,-52, ,
1, ,-52, ,
-1, ,-52, ,
-1, ,-52, ,
1, ,-52, ,
-1, ,-52, ,
-1, ,-51, ,
1, ,-52, ,
-1, ,-52, ,
-1, ,-52, ,
1, ,-52, ,
1, ,-52, ,
-1, ,-52, ,
1, ,-52, ,
-1, ,-52, ,
-1, ,-52, ,
1, ,-52, ,
1, ,-52, ,
-2, ,-51, ,
2, ,-52, ,
-1, ,-52, ,
-1, ,-52, ,
1, ,-52, ,
-1, ,-52, ,
-2, ,-52, ,
1, ,-52, ,
-1, ,-52, ,
-1, ,-52, ,
1, ,-52, ,
1, ,-52, ,
-1, ,-52, ,
2, ,-52, ,
-1, ,-52, ,
-1, ,-52, ,
1, ,-52, ,
-1, ,-52, ,
-1, ,-52, ,
1, ,-52, ,
-1, ,-51, ,
-1, ,-52, ,
1, ,-52, ,
1, ,-52, ,
-2, ,-52, ,
1, ,-52, ,
-1, ,-52, ,
-1, ,-52, ,
1, ,-52, ,
1, ,-52, ,
-2, ,-52, ,
1, ,-52, ,
-1, ,-52, ,
-1, ,-52, ,
1, ,-52, ,
1, ,-52, ,
-2, ,-52, ,
2, ,-52, ,
-1, ,-52, ,
-1, ,-52, ,
1, ,-52, ,
1, ,-52, ,
-2, ,-52, ,
1, ,-53, ,
-1, ,-52, ,
-1, ,-52, ,
1, ,-52, ,
1, ,-52, ,
-1, ,-52, ,
2, ,-52, ,
-1, ,-52, ,
-1, ,-52, ,
1, ,-52, ,
-1, ,-52, ,
-2, ,-52, ,
1, ,-52, ,
-1, ,-52, ,
-1, ,-52, ,
1, ,-52, ,
1, ,-52, ,
-2, ,-51, ,
2, ,-52, ,
-1, ,-52, ,
-1, ,-52, ,
1, ,-52, ,
1, ,-52, ,
-2, ,-52, ,
2, ,-52, ,
-1, ,-52, ,
-1, ,-52, ,
1, ,-52, ,
1, ,-52, ,
-2, ,-52, ,
2, ,-52, ,
-1, ,-52, ,
-1, ,-52, ,
1, ,-52, ,
-1, ,-52, ,
-1, ,-52, ,
1, ,-52, ,
-1, ,-52, ,
-1, ,-52, ,
1, ,-52, ,
1, ,-52, ,
-2, ,-52, ,
2, ,-52, ,
-1, ,-52, ,
-1, ,-52, ,
1, ,-52, ,
-1, ,-52, ,
-1, ,-52, ,
1, ,-53, ,
-1, ,-52, ,
-1, ,-52, ,
1, ,-52, ,
-1, ,-52, ,
-2, ,-52, ,
3, ,-52, ,
-1, ,-52, ,
-1, ,-52, ,
1, ,-40, ,
1, ,-20, ,
-1, ,-4, ,
1, ,7, ,
-1, ,17, ,
-1, ,23, ,
1, ,27, ,
1, ,32, ,
-2, ,35, ,
2, ,37, ,
-1, ,38, ,
-1, ,39, ,
1, ,40, ,
-1, ,40, ,
-1, ,41, ,
1, ,41, ,
-1, ,41, ,
-1, ,41, ,
1, ,42, ,
-1, ,41, ,
-2, ,42, ,
1, ,42, ,
-1, ,42, ,
-1, ,42, ,
1, ,42, ,
-1, ,42, ,
-2, ,42, ,
1, ,42, ,
-1, ,42, ,
-1, ,42, ,
1, ,42, ,
1, ,41, ,
-2, ,41, ,
1, ,42, ,
-1, ,42, ,
-1, ,41, ,
1, ,42, ,
-1, ,41, ,
-2, ,42, ,
1, ,42, ,
-1, ,42, ,
-1, ,41, ,
1, ,41, ,
1, ,42, ,
-2, ,41, ,
2, ,42, ,
-1, ,41, ,
-1, ,41, ,
1, ,41, ,
-1, ,41, ,
-2, ,41, ,
1, ,41, ,
-1, ,41, ,
-1, ,41, ,
1, ,41, ,
-1, ,41, ,
-1, ,41, ,
2, ,41, ,
-1, ,41, ,
-1, ,41, ,
1, ,41, ,
-1, ,41, ,
-1, ,41, ,
1, ,42, ,
-1, ,41, ,
-1, ,41, ,
1, ,41, ,
1, ,41, ,
-1, ,41, ,
1, ,42, ,
-1, ,41, ,
-1, ,41, ,
1, ,41, ,
-1, ,41, ,
-2, ,41, ,
1, ,41, ,
-1, ,41, ,
-1, ,41, ,
1, ,41, ,
1, ,41, ,
-2, ,41, ,
2, ,41, ,
-1, ,41, ,
-1, ,41, ,
1, ,41, ,
-1, ,41, ,
-1, ,41, ,
1, ,41, ,
-1, ,41, ,
-1, ,41, ,
1, ,41, ,
1, ,41, ,
-2, ,41, ,
2, ,41, ,
-1, ,41, ,
-1, ,41, ,
1, ,41, ,
-1, ,41, ,
-2, ,41, ,
1, ,41, ,
1, ,41, ,
-1, ,41, ,
1, ,41, ,
1, ,41, ,
-2, ,41, ,
2, ,42, ,
-1, ,41, ,
-1, ,41, ,
1, ,41, ,
1, ,41, ,
-2, ,41, ,
1, ,41, ,
-1, ,41, ,
-1, ,41, ,
1, ,41, ,
-1, ,41, ,
-2, ,41, ,
2, ,42, ,
1, ,41, ,
-1, ,41, ,
1, ,41, ,
-1, ,41, ,
-2, ,41, ,
1, ,41, ,
-1, ,41, ,
-1, ,41, ,
1, ,41, ,
1, ,41, ,
-2, ,41, ,
2, ,42, ,
-1, ,41, ,
-1, ,41, ,
1, ,41, ,
-1, ,41, ,
-2, ,41, ,
2, ,41, ,
-1, ,41, ,
-1, ,41, ,
1, ,41, ,
-1, ,41, ,
-2, ,41, ,
2, ,41, ,
-1, ,41, ,
-1, ,41, ,
1, ,41, ,
-1, ,41, ,
-2, ,41, ,
1, ,41, ,
-1, ,41, ,
-1, ,41, ,
1, ,41, ,
1, ,41, ,
-2, ,41, ,
2, ,41, ,
-1, ,38, ,
-1, ,19, ,
1, ,1, ,
-1, ,-13, ,
-2, ,-22, ,
1, ,-31, ,
-1, ,-36, ,
-1, ,-40, ,
1, ,-43, ,
1, ,-45, ,
-2, ,-47, ,
2, ,-50, ,
-1, ,-50, ,
-1, ,-51, ,
1, ,-51, ,
1, ,-52, ,
-2, ,-52, ,
2, ,-53, ,
-1, ,-52, ,
-1, ,-52, ,
1, ,-53, ,
1, ,-53, ,
-2, ,-52, ,
2, ,-53, ,
-1, ,-53, ,
-1, ,-52, ,
1, ,-53, ,
1, ,-53, ,
-1, ,-52, ,
1, ,-53, ,
-1, ,-52, ,
-1, ,-52, ,
1, ,-52, ,
1, ,-52, ,
-2, ,-52, ,
2, ,-53, ,
-1, ,-52, ,
-1, ,-52, ,
1, ,-52, ,
-1, ,-52, ,
-2, ,-52, ,
1, ,-52, ,
-1, ,-52, ,
-1, ,-52, ,
1, ,-52, ,
1, ,-52, ,
-1, ,-52, ,
2, ,-52, ,
-1, ,-52, ,
-1, ,-52, ,
1, ,-52, ,
1, ,-52, ,
-1, ,-52, ,
1, ,-53, ,
-1, ,-52, ,
-1, ,-52, ,
1, ,-52, ,
1, ,-52, ,
-1, ,-52, ,
2, ,-52, ,
-1, ,-52, ,
-1, ,-52, ,
1, ,-52, ,
1, ,-52, ,
-1, ,-52, ,
1, ,-52, ,
-1, ,-52, ,
-1, ,-52, ,
1, ,-52, ,
-1, ,-52, ,
-2, ,-52, ,
2, ,-52, ,
-1, ,-52, ,
-1, ,-52, ,
1, ,-52, ,
1, ,-52, ,
-1, ,-52, ,
2, ,-52, ,
-1, ,-52, ,
-1, ,-52, ,
1, ,-52, ,
-1, ,-52, ,
-2, ,-52, ,
2, ,-52, ,
-1, ,-52, ,
-1, ,-52, ,
1, ,-52, ,
-1, ,-52, ,
-2, ,-52, ,
1, ,-52, ,
-1, ,-52, ,
-1, ,-52, ,
1, ,-52, ,
1, ,-52, ,
-1, ,-52, ,
2, ,-52, ,
-1, ,-52, ,
-1, ,-52, ,
1, ,-52, ,
1, ,-52, ,
-2, ,-52, ,
1, ,-52, ,
-1, ,-52, ,
-1, ,-52, ,
1, ,-52, ,
1, ,-52, ,
-2, ,-52, ,
2, ,-52, ,
-1, ,-52, ,
-1, ,-52, ,
1, ,-52, ,
1, ,-52, ,
-1, ,-52, ,
1, ,-52, ,
-1, ,-52, ,
-1, ,-52, ,
1, ,-52, ,
1, ,-52, ,
-1, ,-52, ,
2, ,-52, ,
-1, ,-52, ,
-1, ,-52, ,
1, ,-52, ,
1, ,-52, ,
-2, ,-52, ,
1, ,-52, ,
-1, ,-52, ,
-1, ,-52, ,
1, ,-52, ,
1, ,-52, ,
-2, ,-52, ,
2, ,-52, ,
-1, ,-52, ,
-1, ,-52, ,
1, ,-52, ,
-1, ,-52, ,
-1, ,-52, ,
2, ,-52, ,
-1, ,-52, ,
-1, ,-52, ,
1, ,-52, ,
1, ,-52, ,
-2, ,-52, ,
2, ,-52, ,
-1, ,-52, ,
-1, ,-52, ,
1, ,-52, ,
1, ,-52, ,
-2, ,-52, ,
1, ,-52, ,
-1, ,-52, ,
-1, ,-52, ,
1, ,-52, ,
-1, ,-52, ,
-2, ,-52, ,
2, ,-52, ,
-1, ,-52, ,
-1, ,-52, ,
1, ,-52, ,
1, ,-52, ,
-1, ,-52, ,
2, ,-52, ,
-1, ,-52, ,
-1, ,-52, ,
1, ,-52, ,
-1, ,-51, ,
-2, ,-52, ,
1, ,-52, ,
-1, ,-52, ,
-1, ,-52, ,
1, ,-52, ,
1, ,-52, ,
-2, ,-52, ,
1, ,-52, ,
-1, ,-52, ,
-1, ,-52, ,
1, ,-52, ,
1, ,-52, ,
-2, ,-52, ,
2, ,-52, ,
-1, ,-52, ,
-1, ,-52, ,
1, ,-52, ,
1, ,-52, ,
-2, ,-51, ,
1, ,-52, ,
-1, ,-52, ,
-1, ,-52, ,
1, ,-52, ,
1, ,-52, ,
-2, ,-52, ,
2, ,-52, ,
-1, ,-52, ,
-1, ,-52, ,
1, ,-52, ,
-1, ,-52, ,
-1, ,-52, ,
1, ,-52, ,
-1, ,-52, ,
-1, ,-52, ,
1, ,-52, ,
1, ,-52, ,
-1, ,-52, ,
2, ,-52, ,
-1, ,-52, ,
-1, ,-52, ,
1, ,-52, ,
-1, ,-52, ,
-2, ,-52, ,
1, ,-52, ,
-1, ,-52, ,
-1, ,-52, ,
1, ,-52, ,
1, ,-52, ,
-1, ,-52, ,
2, ,-52, ,
-1, ,-52, ,
-1, ,-52, ,
1, ,-52, ,
1, ,-52, ,
-1, ,-52, ,
1, ,-52, ,
-1, ,-52, ,
-1, ,-52, ,
1, ,-52, ,
1, ,-52, ,
-2, ,-52, ,
2, ,-52, ,
-1, ,-52, ,
-1, ,-52, ,
1, ,-52, ,
-1, ,-52, ,
-2, ,-52, ,
2, ,-52, ,
-1, ,-52, ,
-1, ,-52, ,
1, ,-52, ,
-1, ,-52, ,
-2, ,-52, ,
2, ,-52, ,
-1, ,-52, ,
-1, ,-52, ,
1, ,-52, ,
1, ,-52, ,
-1, ,-52, ,
1, ,-52, ,
-1, ,-52, ,
-1, ,-52, ,
1, ,-52, ,
1, ,-51, ,
-1, ,-52, ,
2, ,-52, ,
-1, ,-52, ,
-1, ,-52, ,
1, ,-52, ,
1, ,-52, ,
-1, ,-52, ,
1, ,-52, ,
-1, ,-52, ,
-1, ,-52, ,
1, ,-52, ,
-1, ,-52, ,
-2, ,-51, ,
1, ,-52, ,
-1, ,-52, ,
-1, ,-52, ,
1, ,-52, ,
1, ,-52, ,
-1, ,-52, ,
1, ,-52, ,
-1, ,-52, ,
-1, ,-52, ,
1, ,-52, ,
1, ,-52, ,
-2, ,-52, ,
2, ,-52, ,
-1, ,-52, ,
-1, ,-52, ,
1, ,-52, ,
-1, ,-52, ,
-2, ,-52, ,
1, ,-52, ,
-1, ,-52, ,
-1, ,-52, ,
1, ,-52, ,
-1, ,-52, ,
-2, ,-52, ,
2, ,-52, ,
-1, ,-52, ,
-1, ,-52, ,
1, ,-52, ,
1, ,-52, ,
-2, ,-51, ,
1, ,-52, ,
-1, ,-52, ,
-1, ,-52, ,
1, ,-52, ,
-1, ,-52, ,
-2, ,-52, ,
2, ,-52, ,
-1, ,-52, ,
-1, ,-52, ,
-1, ,-52, ,
101, ,-52, ,
68, ,-52, ,
40, ,-52, ,
25, ,-52, ,
16, ,-52, ,
12, ,-52, ,
8, ,-51, ,
5, ,-51, ,
6, ,-52, ,
2, ,-52, ,
2, ,-52, ,
3, ,-52, ,
2, ,-52, ,
1, ,-52, ,
3, ,-52, ,
2, ,-52, ,
2, ,-52, ,
3, ,-52, ,
2, ,-52, ,
1, ,-52, ,
5, ,-52, ,
2, ,-52, ,
2, ,-52, ,
2, ,-52, ,
2, ,-52, ,
1, ,-52, ,
3, ,-52, ,
2, ,-52, ,
1, ,-52, ,
3, ,-52, ,
2, ,-52, ,
1, ,-51, ,
3, ,-52, ,
2, ,-52, ,
1, ,-52, ,
2, ,-52, ,
2, ,-52, ,
1, ,-52, ,
3, ,-52, ,
2, ,-51, ,
2, ,-52, ,
2, ,-52, ,
2, ,-52, ,
1, ,-52, ,
5, ,-52, ,
2, ,-52, ,
1, ,-52, ,
2, ,-52, ,
2, ,-52, ,
1, ,-52, ,
3, ,-52, ,
2, ,-51, ,
2, ,-52, ,
2, ,-52, ,
2, ,-52, ,
1, ,-52, ,
5, ,-52, ,
2, ,-52, ,
2, ,-52, ,
2, ,-52, ,
2, ,-52, ,
1, ,-52, ,
3, ,-52, ,
2, ,-52, ,
1, ,-52, ,
2, ,-52, ,
2, ,-52, ,
1, ,-52, ,
3, ,-52, ,
2, ,-52, ,
1, ,-52, ,
2, ,-52, ,
2, ,-52, ,
1, ,-52, ,
3, ,-52, ,
2, ,-51, ,
1, ,-52, ,
2, ,-52, ,
2, ,-52, ,
1, ,-52, ,
3, ,-52, ,
2, ,-52, ,
1, ,-52, ,
2, ,-52, ,
2, ,-52, ,
1, ,-52, ,
3, ,-52, ,
2, ,-51, ,
1, ,-52, ,
2, ,-52, ,
2, ,-52, ,
1, ,-52, ,
5, ,-52, ,
1, ,-52, ,
1, ,-52, ,
2, ,-52, ,
2, ,-52, ,
1, ,-52, ,
3, ,-52, ,
2, ,-51, ,
1, ,-52, ,
2, ,-52, ,
2, ,-52, ,
1, ,-51, ,
3, ,-52, ,
1, ,-52, ,
1, ,-52, ,
2, ,-52, ,
2, ,-52, ,
1, ,-52, ,
3, ,-52, ,
2, ,-52, ,
1, ,-52, ,
2, ,-52, ,
2, ,-52, ,
1, ,-52, ,
3, ,-52, ,
1, ,-52, ,
1, ,-52, ,
2, ,-52, ,
2, ,-52, ,
-1, ,-52, ,
2, ,-52, ,
1, ,-52, ,
1, ,-52, ,
2, ,-52, ,
2, ,-52, ,
1, ,-52, ,
3, ,-52, ,
1, ,-52, ,
1, ,-52, ,
2, ,-52, ,
2, ,-52, ,
1, ,-52, ,
3, ,-52, ,
1, ,-52, ,
1, ,-52, ,
2, ,-52, ,
2, ,-52, ,
1, ,-52, ,
3, ,-52, ,
1, ,-52, ,
1, ,-52, ,
2, ,-52, ,
2, ,-52, ,
1, ,-52, ,
3, ,-52, ,
1, ,-52, ,
1, ,-52, ,
2, ,-52, ,
2, ,-52, ,
1, ,-52, ,
3, ,-52, ,
1, ,-52, ,
1, ,-52, ,
2, ,-52, ,
2, ,-52, ,
-1, ,-52, ,
2, ,-52, ,
1, ,-52, ,
1, ,-52, ,
2, ,-52, ,
2, ,-52, ,
-1, ,-52, ,
3, ,-52, ,
1, ,-52, ,
1, ,-52, ,
2, ,-52, ,
2, ,-52, ,
1, ,-52, ,
2, ,-52, ,
1, ,-52, ,
1, ,-52, ,
2, ,-52, ,
2, ,-52, ,
1, ,-52, ,
3, ,-52, ,
1, ,-52, ,
1, ,-52, ,
2, ,-52, ,
2, ,-52, ,
-1, ,-52, ,
2, ,-52, ,
1, ,-52, ,
1, ,-52, ,
2, ,-52, ,
2, ,-52, ,
-1, ,-52, ,
3, ,-52, ,
1, ,-52, ,
1, ,-52, ,
2, ,-52, ,
2, ,-52, ,
-1, ,-52, ,
2, ,-52, ,
1, ,-52, ,
1, ,-52, ,
2, ,-52, ,
1, ,-52, ,
1, ,-52, ,
3, ,-52, ,
1, ,-52, ,
1, ,-52, ,
2, ,-52, ,
2, ,-52, ,
-1, ,-52, ,
2, ,-52, ,
1, ,-52, ,
1, ,-52, ,
2, ,-52, ,
1, ,-52, ,
1, ,-52, ,
3, ,-52, ,
1, ,-52, ,
1, ,-52, ,
2, ,-52, ,
1, ,-52, ,
1, ,-52, ,
2, ,-52, ,
1, ,-52, ,
1, ,-52, ,
2, ,-52, ,
1, ,-52, ,
-1, ,-52, ,
3, ,-52, ,
1, ,-52, ,
1, ,-52, ,
2, ,-52, ,
1, ,-52, ,
-1, ,-52, ,
2, ,-52, ,
1, ,-52, ,
1, ,-52, ,
2, ,-52, ,
1, ,-52, ,
-1, ,-52, ,
3, ,-52, ,
1, ,-52, ,
1, ,-52, ,
2, ,-52, ,
1, ,-52, ,
-1, ,-52, ,
2, ,-52, ,
1, ,-52, ,
1, ,-52, ,
2, ,-52, ,
1, ,-52, ,
-1, ,-52, ,
2, ,-52, ,
1, ,-52, ,
1, ,-52, ,
2, ,-52, ,
1, ,-52, ,
-1, ,-52, ,
2, ,-52, ,
1, ,-51, ,
1, ,-52, ,
2, ,-52, ,
1, ,-52, ,
-1, ,-52, ,
3, ,-52, ,
1, ,-52, ,
1, ,-52, ,
2, ,-52, ,
1, ,-52, ,
-1, ,-52, ,
2, ,-52, ,
1, ,-51, ,
1, ,-52, ,
2, ,-52, ,
1, ,-52, ,
-1, ,-52, ,
2, ,-52, ,
1, ,-52, ,
1, ,-52, ,
2, ,-52, ,
1, ,-52, ,
-1, ,-52, ,
2, ,-52, ,
1, ,-52, ,
1, ,-52, ,
2, ,-52, ,
1, ,-52, ,
-1, ,-52, ,
2, ,-52, ,
1, ,-52, ,
1, ,-52, ,
2, ,-52, ,
1, ,-52, ,
-1, ,-52, ,
2, ,-52, ,
1, ,-52, ,
1, ,-52, ,
2, ,-52, ,
1, ,-52, ,
-1, ,-52, ,
2, ,-52, ,
1, ,-52, ,
1, ,-52, ,
2, ,-52, ,
1, ,-52, ,
-1, ,-52, ,
2, ,-52, ,
1, ,-52, ,
1, ,-52, ,
2, ,-52, ,
1, ,-52, ,
-1, ,-52, ,
2, ,-52, ,
1, ,-52, ,
1, ,-52, ,
2, ,-52, ,
1, ,-52, ,
-1, ,-52, ,
2, ,-52, ,
1, ,-52, ,
1, ,-52, ,
2, ,-52, ,
1, ,-52, ,
-1, ,-52, ,
2, ,-52, ,
1, ,-52, ,
1, ,-52, ,
2, ,-52, ,
1, ,-43, ,
-1, ,-23, ,
2, ,-6, ,
1, ,6, ,
1, ,15, ,
2, ,22, ,
1, ,27, ,
-1, ,32, ,
2, ,34, ,
1, ,36, ,
1, ,38, ,
2, ,39, ,
1, ,40, ,
-1, ,40, ,
2, ,41, ,
1, ,41, ,
-1, ,41, ,
2, ,42, ,
1, ,42, ,
-1, ,42, ,
2, ,42, ,
1, ,42, ,
1, ,42, ,
2, ,42, ,
1, ,42, ,
-1, ,42, ,
2, ,42, ,
1, ,42, ,
1, ,42, ,
2, ,42, ,
1, ,42, ,
-1, ,42, ,
2, ,42, ,
1, ,41, ,
-1, ,42, ,
2, ,42, ,
1, ,42, ,
-1, ,41, ,
2, ,42, ,
1, ,41, ,
-1, ,41, ,
2, ,41, ,
1, ,41, ,
-1, ,41, ,
2, ,42, ,
1, ,41, ,
1, ,41, ,
2, ,42, ,
1, ,42, ,
-1, ,41, ,
2, ,42, ,
1, ,41, ,
-1, ,41, ,
2, ,41, ,
1, ,41, ,
-1, ,41, ,
2, ,41, ,
1, ,41, ,
-1, ,41, ,
2, ,41, ,
1, ,41, ,
-1, ,41, ,
2, ,42, ,
1, ,41, ,
-1, ,41, ,
2, ,41, ,
1, ,41, ,
-1, ,41, ,
2, ,41, ,
1, ,41, ,
1, ,41, ,
2, ,41, ,
1, ,41, ,
-1, ,41, ,
2, ,41, ,
1, ,41, ,
1, ,41, ,
2, ,41, ,
1, ,41, ,
-1, ,41, ,
2, ,42, ,
1, ,41, ,
-1, ,41, ,
2, ,41, ,
1, ,41, ,
-1, ,41, ,
2, ,41, ,
1, ,41, ,
-1, ,41, ,
1, ,41, ,
1, ,41, ,
-1, ,41, ,
2, ,41, ,
1, ,41, ,
1, ,41, ,
2, ,41, ,
1, ,41, ,
-1, ,41, ,
2, ,41, ,
1, ,41, ,
-1, ,41, ,
2, ,41, ,
1, ,41, ,
-1, ,41, ,
2, ,41, ,
1, ,41, ,
1, ,41, ,
2, ,42, ,
1, ,41, ,
-1, ,41, ,
2, ,42, ,
1, ,41, ,
-1, ,41, ,
2, ,41, ,
1, ,41, ,
-1, ,41, ,
2, ,42, ,
1, ,41, ,
1, ,41, ,
1, ,41, ,
1, ,41, ,
-1, ,41, ,
2, ,41, ,
1, ,41, ,
1, ,41, ,
2, ,41, ,
1, ,41, ,
-1, ,41, ,
2, ,41, ,
1, ,41, ,
1, ,41, ,
2, ,41, ,
1, ,41, ,
-1, ,41, ,
2, ,41, ,
1, ,41, ,
1, ,41, ,
2, ,41, ,
1, ,41, ,
-1, ,41, ,
2, ,42, ,
1, ,41, ,
1, ,41, ,
2, ,41, ,
1, ,42, ,
-1, ,41, ,
2, ,41, ,
1, ,41, ,
-1, ,41, ,
2, ,41, ,
1, ,41, ,
-1, ,41, ,
2, ,42, ,
1, ,41, ,
-1, ,40, ,
1, ,23, ,
1, ,4, ,
-1, ,-9, ,
2, ,-21, ,
1, ,-28, ,
-1, ,-35, ,
1, ,-39, ,
1, ,-43, ,
-1, ,-45, ,
2, ,-47, ,
-1, ,-49, ,
1, ,-50, ,
1, ,-51, ,
1, ,-52, ,
-1, ,-52, ,
1, ,-52, ,
-1, ,-52, ,
-1, ,-52, ,
1, ,-53, ,
1, ,-53, ,
-1, ,-52, ,
2, ,-53, ,
1, ,-53, ,
-1, ,-53, ,
2, ,-53, ,
-1, ,-53, ,
-1, ,-52, ,
2, ,-53, ,
-1, ,-52, ,
-1, ,-52, ,
2, ,-53, ,
1, ,-52, ,
-1, ,-52, ,
2, ,-53, ,
-1, ,-52, ,
-1, ,-52, ,
2, ,-52, ,
1, ,-52, ,
-1, ,-52, ,
1, ,-52, ,
-1, ,-52, ,
-1, ,-52, ,
2, ,-52, ,
1, ,-52, ,
-1, ,-52, ,
2, ,-52, ,
1, ,-52, ,
1, ,-52, ,
1, ,-52, ,
1, ,-52, ,
-1, ,-52, ,
2, ,-52, ,
-1, ,-52, ,
-1, ,-52, ,
1, ,-52, ,
1, ,-52, ,
-1, ,-52, ,
2, ,-52, ,
-1, ,-52, ,
-1, ,-52, ,
2, ,-52, ,
1, ,-52, ,
-1, ,-52, ,
1, ,-52, ,
-1, ,-52, ,
-1, ,-52, ,
1, ,-52, ,
1, ,-52, ,
-1, ,-52, ,
2, ,-53, ,
-1, ,-52, ,
-1, ,-52, ,
1, ,-52, ,
1, ,-52, ,
-1, ,-52, ,
2, ,-52, ,
-1, ,-52, ,
-1, ,-52, ,
2, ,-53, ,
1, ,-52, ,
-1, ,-51, ,
2, ,-52, ,
-1, ,-52, ,
-1, ,-52, ,
1, ,-52, ,
1, ,-52, ,
-1, ,-52, ,
1, ,-52, ,
-1, ,-52, ,
-1, ,-52, ,
1, ,-52, ,
1, ,-52, ,
-1, ,-52, ,
2, ,-52, ,
-1, ,-52, ,
-1, ,-52, ,
1, ,-52, ,
1, ,-52, ,
-1, ,-52, ,
2, ,-52, ,
-1, ,-52, ,
1, ,-52, ,
1, ,-52, ,
1, ,-52, ,
-1, ,-52, ,
2, ,-52, ,
-1, ,-52, ,
1, ,-52, ,
1, ,-52, ,
1, ,-52, ,
-1, ,-52, ,
1, ,-52, ,
-1, ,-51, ,
-1, ,-52, ,
1, ,-52, ,
1, ,-52, ,
-1, ,-52, ,
2, ,-52, ,
-1, ,-51, ,
-1, ,-52, ,
1, ,-52, ,
1, ,-52, ,
-1, ,-52, ,
1, ,-52, ,
-1, ,-51, ,
-1, ,-52, ,
1, ,-52, ,
1, ,-52, ,
-1, ,-52, ,
1, ,-52, ,
-1, ,-52, ,
-1, ,-52, ,
2, ,-52, ,
1, ,-52, ,
-2, ,-52, ,
1, ,-52, ,
-1, ,-51, ,
-1, ,-52, ,
1, ,-52, ,
1, ,-52, ,
-1, ,-52, ,
2, ,-52, ,
-1, ,-52, ,
-1, ,-52, ,
2, ,-52, ,
1, ,-52, ,
-1, ,-52, ,
1, ,-52, ,
-1, ,-51, ,
-1, ,-52, ,
2, ,-52, ,
1, ,-51, ,
-1, ,-52, ,
2, ,-52, ,
-1, ,-51, ,
-1, ,-52, ,
2, ,-52, ,
1, ,-52, ,
-1, ,-52, ,
1, ,-52, ,
-1, ,-51, ,
-1, ,-52, ,
1, ,-52, ,
1, ,-52, ,
-1, ,-52, ,
1, ,-52, ,
-1, ,-52, ,
-1, ,-52, ,
2, ,-52, ,
1, ,-52, ,
-1, ,-51, ,
1, ,-52, ,
-1, ,-51, ,
-1, ,-52, ,
1, ,-52, ,
-1, ,-52, ,
-2, ,-52, ,
1, ,-52, ,
-1, ,-52, ,
-1, ,-52, ,
2, ,-52, ,
1, ,-52, ,
-1, ,-52, ,
1, ,-52, ,
-1, ,-51, ,
-1, ,-52, ,
1, ,-52, ,
1, ,-52, ,
-1, ,-51, ,
2, ,-52, ,
-1, ,-52, ,
-1, ,-52, ,
1, ,-52, ,
1, ,-51, ,
-1, ,-52, ,
1, ,-52, ,
-1, ,-51, ,
-1, ,-52, ,
1, ,-52, ,
1, ,-51, ,
-1, ,-51, ,
2, ,-52, ,
-1, ,-52, ,
-1, ,-52, ,
1, ,-52, ,
1, ,-52, ,
-1, ,-52, ,
1, ,-52, ,
-1, ,-51, ,
-1, ,-52, ,
1, ,-52, ,
1, ,-52, ,
-1, ,-51, ,
1, ,-52, ,
-1, ,-52, ,
-1, ,-52, ,
1, ,-52, ,
1, ,-52, ,
-1, ,-51, ,
1, ,-52, ,
-1, ,-51, ,
-1, ,-52, ,
2, ,-52, ,
1, ,-52, ,
-1, ,-51, ,
2, ,-52, ,
-1, ,-52, ,
-1, ,-52, ,
1, ,-51, ,
1, ,-52, ,
-1, ,-52, ,
1, ,-52, ,
-1, ,-51, ,
-1, ,-52, ,
2, ,-52, ,
1, ,-52, ,
-1, ,-51, ,
1, ,-52, ,
-1, ,-52, ,
-1, ,-52, ,
1, ,-52, ,
1, ,-52, ,
-1, ,-52, ,
1, ,-53, ,
-1, ,-51, ,
-1, ,-52, ,
2, ,-52, ,
1, ,-52, ,
-2, ,-51, ,
1, ,-52, ,
-1, ,-51, ,
-1, ,-52, ,
1, ,-52, ,
1, ,-52, ,
-1, ,-52, ,
1, ,-53, ,
-1, ,-51, ,
-1, ,-52, ,
2, ,-52, ,
1, ,-52, ,
-1, ,-52, ,
1, ,-52, ,
-1, ,-51, ,
-1, ,-52, ,
1, ,-52, ,
1, ,-52, ,
-1, ,-52, ,
1, ,-52, ,
-1, ,-51, ,
-1, ,-52, ,
2, ,-52, ,
1, ,-52, ,
-1, ,-51, ,
1, ,-52, ,
-1, ,-52, ,
-1, ,-52, ,
1, ,-52, ,
1, ,-52, ,
-1, ,-52, ,
1, ,-52, ,
-1, ,-51, ,
-1, ,-52, ,
2, ,-52, ,
1, ,-52, ,
-1, ,-52, ,
1, ,-52, ,
-1, ,-52, ,
-1, ,-52, ,
2, ,-52, ,
1, ,-52, ,
-1, ,-52, ,
1, ,-52, ,
-1, ,-52, ,
-1, ,-52, ,
2, ,-52, ,
1, ,-52, ,
-1, ,-51, ,
1, ,-52, ,
-1, ,-52, ,
-1, ,-52, ,
1, ,-52, ,
1, ,-52, ,
-1, ,-52, ,
1, ,-52, ,
-1, ,-51, ,
-1, ,-52, ,
2, ,-52, ,
1, ,-52, ,
-1, ,-52, ,
1, ,-52, ,
-1, ,-51, ,
-1, ,-52, ,
1, ,-52, ,
-1, ,-52, ,
-2, ,-52, ,
1, ,-52, ,
-1, ,-51, ,
-1, ,-52, ,
1, ,-52, ,
1, ,-51, ,
-1, ,-52, ,
1, ,-52, ,
-1, ,-52, ,
-1, ,-52, ,
1, ,-52, ,
1, ,-52, ,
-1, ,-52, ,
1, ,-52, ,
-1, ,-51, ,
-1, ,-52, ,
1, ,-52, ,
1, ,-52, ,
-1, ,-52, ,
1, ,-52, ,
-1, ,-52, ,
-1, ,-52, ,
1, ,-52, ,
1, ,-52, ,
-1, ,-52, ,
1, ,-52, ,
-1, ,-51, ,
-1, ,-52, ,
1, ,-52, ,
-1, ,-52, ,
-2, ,-52, ,
1, ,-52, ,
-1, ,-51, ,
-1, ,-52, ,
1, ,-52, ,
1, ,-52, ,
-1, ,-52, ,
1, ,-52, ,
-1, ,-51, ,
-1, ,-52, ,
1, ,-52, ,
1, ,-52, ,
-1, ,-52, ,
1, ,-52, ,
-1, ,-52, ,
-1, ,-52, ,
1, ,-52, ,
-1, ,-52, ,
-2, ,-52, ,
1, ,-52, ,
-1, ,-51, ,
-1, ,-52, ,
1, ,-52, ,
1, ,-52, ,
-1, ,-51, ,
2, ,-52, ,
-1, ,-52, ,
-1, ,-52, ,
1, ,-52, ,
1, ,-52, ,
-1, ,-52, ,
1, ,-52, ,
-1, ,-52, ,
-1, ,-52, ,
1, ,-52, ,
1, ,-52, ,
-1, ,-52, ,
1, ,-52, ,
-1, ,-52, ,
-1, ,-52, ,
1, ,-52, ,
1, ,-52, ,
-1, ,-52, ,
1, ,-52, ,
-1, ,-52, ,
-1, ,-52, ,
1, ,-52, ,
1, ,-52, ,
-1, ,-52, ,
1, ,-52, ,
-1, ,-52, ,
-1, ,-52, ,
2, ,-52, ,
1, ,-52, ,
-1, ,-52, ,
1, ,-52, ,
-1, ,-51, ,
-1, ,-52, ,
1, ,-52, ,
-1, ,-52, ,
-1, ,-52, ,
2, ,-52, ,
-1, ,-52, ,
-1, ,-52, ,
1, ,-52, ,
1, ,-52, ,
-1, ,-52, ,
1, ,-52, ,
-1, ,-52, ,
-1, ,-52, ,
2, ,-52, ,
1, ,-52, ,
-1, ,-52, ,
1, ,-52, ,
-1, ,-52, ,
-1, ,-52, ,
1, ,-52, ,
-1, ,-52, ,
-2, ,-52, ,
1, ,-52, ,
-1, ,-52, ,
-1, ,-52, ,
2, ,-52, ,
1, ,-52, ,
-1, ,-52, ,
2, ,-52, ,
-1, ,-52, ,
-1, ,-52, ,
1, ,-52, ,
-1, ,-52, ,
-1, ,-52, ,
1, ,-52, ,
-1, ,-52, ,
-1, ,-52, ,
1, ,-52, ,
1, ,-51, ,
-1, ,-52, ,
1, ,-52, ,
-1, ,-52, ,
-1, ,-52, ,
