src/varyamp_1560/temp0001011.CSV

Format,1.0B,
Memory Length,10000,Memory Length,10000,
IntpDistance,0,IntpDistance,0,
Trigger Address,4999,Trigger Address,4999,
Trigger Level,1.040E+00,Trigger Level,1.040E+00,
Source,CH1,Source,CH2,
Vertical Units,V,Vertical Units,V,
Vertical Units Div,0,Vertical Units Div,0,
Vertical Units Extend Div,16,Vertical Units Extend Div,16,
Label,,Label,,
Probe Type,0,Probe Type,0,
Probe Ratio,1.000e+01,Probe Ratio,1.000e+00,
Vertical Scale,5.000e-01,Vertical Scale,1.000e+00,
Vertical Position,-1.820e+00,Vertical Position,0.000e+00,
Horizontal Units,S,Horizontal Units,S,
Horizontal Scale,2.000E-05,Horizontal Scale,2.000E-05,
Horizontal Position,0.000E+00,Horizontal Position,0.000E+00,
Horizontal Mode,Main,Horizontal Mode,Main,
SincET Mode,Real Time,SincET Mode,Real Time,
Sampling Period,2.000e-08,Sampling Period,2.000e-08,
Horizontal Old Scale,2.000E-05,Horizontal Old Scale,2.000E-05,
Horizontal Old Position,0.000E+00,Horizontal Old Position,0.000E+00,
Firmware,V1.23,Firmware,V1.23,
Mode,Fast,Mode,Fast,
Waveform Data,,Waveform Data,,
2, ,-59, ,
2, ,-58, ,
1, ,-59, ,
2, ,-58, ,
1, ,-58, ,
1, ,-58, ,
2, ,-59, ,
2, ,-58, ,
-1, ,-59, ,
2, ,-58, ,
1, ,-58, ,
1, ,-59, ,
2, ,-59, ,
1, ,-58, ,
1, ,-59, ,
2, ,-58, ,
1, ,-59, ,
1, ,-59, ,
2, ,-58, ,
2, ,-58, ,
1, ,-59, ,
2, ,-58, ,
1, ,-59, ,
1, ,-58, ,
2, ,-58, ,
2, ,-58, ,
-1, ,-59, ,
2, ,-58, ,
1, ,-59, ,
1, ,-58, ,
2, ,-58, ,
2, ,-58, ,
1, ,-59, ,
2, ,-58, ,
1, ,-58, ,
1, ,-58, ,
2, ,-58, ,
2, ,-58, ,
-1, ,-59, ,
2, ,-57, ,
1, ,-58, ,
1, ,-58, ,
2, ,-58, ,
1, ,-58, ,
1, ,-59, ,
2, ,-58, ,
1, ,-59, ,
1, ,-58, ,
2, ,-58, ,
2, ,-58, ,
-1, ,-59, ,
2, ,-58, ,
1, ,-59, ,
1, ,-59, ,
2, ,-58, ,
1, ,-58, ,
-1, ,-59, ,
2, ,-58, ,
1, ,-58, ,
1, ,-59, ,
2, ,-58, ,
2, ,-58, ,
-1, ,-59, ,
2, ,-58, ,
1, ,-59, ,
1, ,-58, ,
1, ,-58, ,
1, ,-58, ,
-1, ,-59, ,
2, ,-58, ,
1, ,-59, ,
1, ,-58, ,
2, ,-58, ,
1, ,-58, ,
-1, ,-59, ,
2, ,-58, ,
1, ,-58, ,
1, ,-59, ,
2, ,-58, ,
1, ,-58, ,
-1, ,-59, ,
2, ,-58, ,
1, ,-59, ,
1, ,-58, ,
2, ,-58, ,
2, ,-58, ,
-1, ,-59, ,
2, ,-58, ,
-1, ,-59, ,
1, ,-59, ,
2, ,-58, ,
1, ,-58, ,
-1, ,-59, ,
2, ,-58, ,
1, ,-59, ,
1, ,-59, ,
2, ,-58, ,
2, ,-58, ,
-1, ,-59, ,
2, ,-58, ,
1, ,-59, ,
1, ,-59, ,
2, ,-58, ,
1, ,-58, ,
-1, ,-59, ,
2, ,-58, ,
1, ,-59, ,
1, ,-58, ,
1, ,-58, ,
2, ,-58, ,
-1, ,-59, ,
2, ,-58, ,
1, ,-58, ,
1, ,-59, ,
2, ,-58, ,
2, ,-58, ,
-1, ,-59, ,
2, ,-58, ,
1, ,-58, ,
1, ,-58, ,
2, ,-58, ,
1, ,-58, ,
-1, ,-59, ,
2, ,-58, ,
1, ,-59, ,
1, ,-59, ,
2, ,-58, ,
2, ,-58, ,
-1, ,-59, ,
2, ,-58, ,
1, ,-58, ,
1, ,-58, ,
2, ,-58, ,
2, ,-58, ,
1, ,-59, ,
2, ,-58, ,
1, ,-59, ,
1, ,-59, ,
2, ,-58, ,
2, ,-58, ,
-1, ,-59, ,
2, ,-58, ,
1, ,-59, ,
1, ,-58, ,
1, ,-58, ,
1, ,-58, ,
-1, ,-59, ,
2, ,-58, ,
1, ,-59, ,
1, ,-58, ,
2, ,-58, ,
2, ,-58, ,
-1, ,-59, ,
2, ,-58, ,
1, ,-59, ,
1, ,-58, ,
2, ,-58, ,
2, ,-58, ,
-1, ,-59, ,
2, ,-58, ,
1, ,-59, ,
1, ,-59, ,
2, ,-58, ,
1, ,-58, ,
-1, ,-59, ,
2, ,-58, ,
1, ,-58, ,
1, ,-58, ,
1, ,-58, ,
1, ,-58, ,
-1, ,-59, ,
2, ,-58, ,
1, ,-58, ,
1, ,-58, ,
2, ,-58, ,
2, ,-58, ,
-1, ,-59, ,
2, ,-58, ,
1, ,-58, ,
1, ,-58, ,
1, ,-58, ,
1, ,-58, ,
-1, ,-59, ,
2, ,-58, ,
-1, ,-58, ,
1, ,-59, ,
1, ,-58, ,
1, ,-58, ,
-1, ,-59, ,
2, ,-58, ,
1, ,-58, ,
1, ,-58, ,
1, ,-58, ,
2, ,-58, ,
-1, ,-59, ,
2, ,-58, ,
-1, ,-59, ,
1, ,-59, ,
1, ,-58, ,
2, ,-58, ,
-1, ,-59, ,
2, ,-58, ,
1, ,-59, ,
-1, ,-58, ,
1, ,-58, ,
2, ,-58, ,
-1, ,-59, ,
2, ,-58, ,
-1, ,-59, ,
1, ,-58, ,
1, ,-58, ,
1, ,-58, ,
-1, ,-59, ,
2, ,-58, ,
-1, ,-58, ,
1, ,-58, ,
1, ,-58, ,
1, ,-58, ,
-1, ,-59, ,
2, ,-58, ,
-1, ,-59, ,
1, ,-59, ,
1, ,-58, ,
2, ,-58, ,
-1, ,-59, ,
2, ,-58, ,
-1, ,-59, ,
1, ,-58, ,
1, ,-58, ,
1, ,-58, ,
-1, ,-59, ,
2, ,-58, ,
-1, ,-58, ,
1, ,-58, ,
1, ,-58, ,
1, ,-58, ,
-1, ,-59, ,
2, ,-58, ,
1, ,-59, ,
1, ,-59, ,
2, ,-58, ,
2, ,-58, ,
-1, ,-59, ,
2, ,-58, ,
-1, ,-58, ,
1, ,-58, ,
1, ,-58, ,
1, ,-58, ,
-1, ,-59, ,
2, ,-58, ,
1, ,-58, ,
1, ,-58, ,
1, ,-58, ,
1, ,-58, ,
-1, ,-59, ,
2, ,-58, ,
1, ,-58, ,
1, ,-58, ,
1, ,-58, ,
2, ,-58, ,
-1, ,-59, ,
2, ,-58, ,
1, ,-59, ,
1, ,-58, ,
1, ,-58, ,
1, ,-58, ,
-1, ,-59, ,
2, ,-58, ,
1, ,-58, ,
1, ,-59, ,
2, ,-58, ,
2, ,-58, ,
-1, ,-59, ,
2, ,-58, ,
1, ,-58, ,
1, ,-58, ,
1, ,-58, ,
2, ,-58, ,
-1, ,-59, ,
2, ,-58, ,
1, ,-59, ,
1, ,-58, ,
2, ,-58, ,
2, ,-58, ,
-1, ,-59, ,
2, ,-58, ,
1, ,-59, ,
1, ,-59, ,
1, ,-59, ,
1, ,-58, ,
-1, ,-59, ,
2, ,-58, ,
-1, ,-59, ,
1, ,-58, ,
41, ,-59, ,
62, ,-58, ,
39, ,-59, ,
25, ,-58, ,
15, ,-59, ,
10, ,-58, ,
8, ,-59, ,
6, ,-58, ,
3, ,-59, ,
6, ,-57, ,
3, ,-44, ,
3, ,-24, ,
3, ,-9, ,
5, ,2, ,
2, ,11, ,
5, ,17, ,
3, ,21, ,
2, ,25, ,
3, ,28, ,
3, ,30, ,
2, ,31, ,
3, ,32, ,
2, ,33, ,
2, ,34, ,
3, ,35, ,
3, ,34, ,
1, ,35, ,
3, ,34, ,
2, ,35, ,
2, ,35, ,
3, ,35, ,
2, ,35, ,
2, ,35, ,
3, ,35, ,
2, ,35, ,
2, ,35, ,
3, ,35, ,
2, ,35, ,
1, ,35, ,
2, ,35, ,
2, ,35, ,
2, ,35, ,
3, ,35, ,
2, ,35, ,
2, ,35, ,
2, ,35, ,
2, ,35, ,
2, ,35, ,
3, ,35, ,
2, ,35, ,
1, ,35, ,
3, ,35, ,
2, ,35, ,
2, ,35, ,
3, ,35, ,
2, ,35, ,
2, ,35, ,
3, ,35, ,
2, ,34, ,
2, ,35, ,
3, ,35, ,
2, ,34, ,
1, ,35, ,
3, ,34, ,
2, ,35, ,
2, ,35, ,
3, ,35, ,
2, ,34, ,
1, ,35, ,
2, ,35, ,
2, ,35, ,
2, ,34, ,
3, ,35, ,
2, ,34, ,
2, ,35, ,
3, ,35, ,
2, ,35, ,
2, ,35, ,
3, ,35, ,
2, ,34, ,
1, ,35, ,
3, ,35, ,
2, ,35, ,
2, ,35, ,
2, ,35, ,
2, ,35, ,
1, ,35, ,
2, ,35, ,
2, ,35, ,
2, ,34, ,
3, ,35, ,
2, ,34, ,
1, ,35, ,
2, ,35, ,
1, ,34, ,
2, ,35, ,
2, ,35, ,
2, ,34, ,
1, ,35, ,
2, ,35, ,
2, ,34, ,
2, ,35, ,
3, ,35, ,
2, ,34, ,
1, ,35, ,
3, ,35, ,
2, ,34, ,
2, ,35, ,
3, ,35, ,
2, ,34, ,
1, ,35, ,
2, ,35, ,
1, ,34, ,
1, ,34, ,
2, ,35, ,
2, ,34, ,
1, ,35, ,
2, ,35, ,
1, ,34, ,
1, ,34, ,
3, ,35, ,
2, ,35, ,
1, ,35, ,
3, ,34, ,
2, ,35, ,
2, ,34, ,
2, ,35, ,
2, ,34, ,
1, ,35, ,
2, ,34, ,
1, ,34, ,
1, ,35, ,
2, ,35, ,
2, ,34, ,
1, ,35, ,
3, ,35, ,
2, ,34, ,
1, ,34, ,
2, ,35, ,
2, ,34, ,
1, ,35, ,
2, ,35, ,
2, ,34, ,
1, ,34, ,
2, ,35, ,
2, ,34, ,
1, ,34, ,
2, ,34, ,
2, ,35, ,
1, ,34, ,
2, ,35, ,
2, ,34, ,
1, ,34, ,
2, ,35, ,
1, ,34, ,
1, ,34, ,
2, ,35, ,
2, ,34, ,
1, ,35, ,
2, ,35, ,
1, ,34, ,
1, ,34, ,
2, ,35, ,
1, ,35, ,
1, ,28, ,
2, ,9, ,
1, ,-8, ,
1, ,-21, ,
2, ,-31, ,
1, ,-38, ,
1, ,-44, ,
2, ,-47, ,
1, ,-51, ,
1, ,-53, ,
2, ,-55, ,
2, ,-56, ,
1, ,-57, ,
2, ,-57, ,
1, ,-58, ,
2, ,-58, ,
2, ,-59, ,
2, ,-59, ,
1, ,-59, ,
2, ,-59, ,
1, ,-59, ,
1, ,-59, ,
2, ,-60, ,
2, ,-59, ,
1, ,-60, ,
2, ,-59, ,
1, ,-59, ,
1, ,-59, ,
2, ,-59, ,
2, ,-59, ,
1, ,-60, ,
2, ,-59, ,
1, ,-59, ,
1, ,-59, ,
2, ,-59, ,
2, ,-59, ,
1, ,-60, ,
2, ,-59, ,
1, ,-59, ,
2, ,-59, ,
2, ,-59, ,
2, ,-58, ,
1, ,-59, ,
2, ,-59, ,
1, ,-59, ,
1, ,-59, ,
2, ,-59, ,
2, ,-58, ,
1, ,-59, ,
2, ,-58, ,
1, ,-59, ,
1, ,-59, ,
2, ,-58, ,
2, ,-58, ,
1, ,-59, ,
2, ,-58, ,
1, ,-59, ,
2, ,-59, ,
2, ,-59, ,
2, ,-58, ,
1, ,-59, ,
2, ,-58, ,
1, ,-59, ,
2, ,-59, ,
2, ,-59, ,
2, ,-58, ,
1, ,-59, ,
2, ,-59, ,
1, ,-59, ,
1, ,-59, ,
2, ,-59, ,
2, ,-58, ,
1, ,-59, ,
2, ,-58, ,
1, ,-59, ,
1, ,-59, ,
2, ,-58, ,
2, ,-58, ,
1, ,-59, ,
2, ,-58, ,
1, ,-59, ,
1, ,-59, ,
2, ,-59, ,
2, ,-58, ,
1, ,-59, ,
2, ,-58, ,
1, ,-59, ,
1, ,-59, ,
2, ,-59, ,
1, ,-58, ,
1, ,-59, ,
2, ,-59, ,
1, ,-59, ,
1, ,-59, ,
2, ,-59, ,
2, ,-58, ,
1, ,-59, ,
2, ,-58, ,
1, ,-59, ,
1, ,-59, ,
2, ,-59, ,
2, ,-58, ,
1, ,-59, ,
2, ,-58, ,
1, ,-59, ,
2, ,-58, ,
2, ,-59, ,
2, ,-58, ,
-1, ,-59, ,
2, ,-58, ,
1, ,-59, ,
1, ,-59, ,
2, ,-59, ,
2, ,-58, ,
-1, ,-59, ,
2, ,-58, ,
1, ,-59, ,
1, ,-59, ,
2, ,-59, ,
2, ,-58, ,
-1, ,-59, ,
2, ,-58, ,
1, ,-59, ,
1, ,-59, ,
2, ,-58, ,
2, ,-58, ,
-1, ,-59, ,
2, ,-58, ,
1, ,-59, ,
1, ,-58, ,
2, ,-59, ,
2, ,-58, ,
1, ,-59, ,
2, ,-58, ,
1, ,-59, ,
1, ,-58, ,
2, ,-59, ,
2, ,-58, ,
1, ,-59, ,
2, ,-58, ,
1, ,-59, ,
1, ,-59, ,
2, ,-59, ,
2, ,-59, ,
1, ,-59, ,
2, ,-58, ,
1, ,-59, ,
1, ,-59, ,
2, ,-58, ,
1, ,-58, ,
-1, ,-59, ,
2, ,-58, ,
1, ,-59, ,
1, ,-59, ,
2, ,-58, ,
1, ,-58, ,
-1, ,-59, ,
2, ,-58, ,
1, ,-58, ,
1, ,-59, ,
2, ,-59, ,
2, ,-58, ,
-1, ,-59, ,
2, ,-58, ,
1, ,-59, ,
1, ,-59, ,
2, ,-59, ,
2, ,-58, ,
-1, ,-59, ,
2, ,-58, ,
1, ,-59, ,
1, ,-59, ,
2, ,-59, ,
2, ,-58, ,
1, ,-59, ,
2, ,-58, ,
1, ,-59, ,
1, ,-59, ,
2, ,-58, ,
2, ,-58, ,
-1, ,-59, ,
2, ,-58, ,
1, ,-59, ,
1, ,-59, ,
2, ,-58, ,
2, ,-58, ,
-1, ,-59, ,
2, ,-58, ,
1, ,-59, ,
1, ,-59, ,
2, ,-59, ,
2, ,-58, ,
1, ,-59, ,
2, ,-58, ,
1, ,-58, ,
1, ,-59, ,
2, ,-59, ,
2, ,-58, ,
-1, ,-59, ,
2, ,-58, ,
1, ,-59, ,
1, ,-58, ,
2, ,-59, ,
1, ,-58, ,
-1, ,-59, ,
2, ,-58, ,
1, ,-59, ,
1, ,-59, ,
2, ,-59, ,
2, ,-58, ,
-1, ,-59, ,
2, ,-58, ,
1, ,-59, ,
1, ,-59, ,
2, ,-58, ,
1, ,-58, ,
-1, ,-59, ,
2, ,-58, ,
1, ,-59, ,
1, ,-59, ,
2, ,-58, ,
2, ,-58, ,
-1, ,-59, ,
2, ,-58, ,
1, ,-58, ,
1, ,-58, ,
2, ,-58, ,
1, ,-58, ,
-1, ,-59, ,
2, ,-58, ,
1, ,-58, ,
1, ,-58, ,
2, ,-58, ,
2, ,-58, ,
-1, ,-59, ,
2, ,-58, ,
1, ,-58, ,
1, ,-58, ,
1, ,-59, ,
1, ,-58, ,
-1, ,-59, ,
2, ,-58, ,
1, ,-59, ,
1, ,-59, ,
2, ,-58, ,
1, ,-58, ,
-1, ,-59, ,
2, ,-58, ,
1, ,-59, ,
1, ,-58, ,
2, ,-59, ,
1, ,-58, ,
-1, ,-59, ,
2, ,-58, ,
1, ,-59, ,
1, ,-59, ,
2, ,-59, ,
1, ,-58, ,
-1, ,-59, ,
2, ,-58, ,
1, ,-58, ,
1, ,-58, ,
2, ,-59, ,
1, ,-58, ,
-1, ,-59, ,
2, ,-58, ,
1, ,-59, ,
1, ,-59, ,
2, ,-59, ,
1, ,-58, ,
-1, ,-59, ,
2, ,-58, ,
1, ,-59, ,
1, ,-58, ,
1, ,-58, ,
1, ,-58, ,
-1, ,-59, ,
2, ,-58, ,
1, ,-59, ,
1, ,-59, ,
1, ,-59, ,
1, ,-58, ,
-1, ,-59, ,
2, ,-59, ,
1, ,-59, ,
1, ,-59, ,
1, ,-59, ,
1, ,-58, ,
-1, ,-59, ,
2, ,-58, ,
-1, ,-59, ,
1, ,-59, ,
2, ,-58, ,
1, ,-58, ,
-1, ,-59, ,
2, ,-58, ,
1, ,-58, ,
1, ,-58, ,
1, ,-59, ,
1, ,-58, ,
-1, ,-59, ,
2, ,-58, ,
1, ,-58, ,
1, ,-59, ,
1, ,-58, ,
1, ,-58, ,
-1, ,-59, ,
2, ,-58, ,
1, ,-58, ,
1, ,-58, ,
1, ,-59, ,
1, ,-58, ,
-1, ,-59, ,
2, ,-59, ,
1, ,-59, ,
1, ,-59, ,
1, ,-58, ,
2, ,-58, ,
-1, ,-59, ,
2, ,-58, ,
1, ,-59, ,
1, ,-58, ,
2, ,-59, ,
1, ,-58, ,
-1, ,-59, ,
2, ,-58, ,
1, ,-58, ,
1, ,-58, ,
2, ,-58, ,
2, ,-58, ,
-1, ,-59, ,
2, ,-58, ,
1, ,-59, ,
1, ,-59, ,
1, ,-59, ,
1, ,-58, ,
-1, ,-59, ,
2, ,-58, ,
1, ,-59, ,
1, ,-58, ,
1, ,-58, ,
2, ,-58, ,
-1, ,-59, ,
2, ,-58, ,
1, ,-59, ,
1, ,-59, ,
1, ,-58, ,
2, ,-58, ,
-1, ,-59, ,
2, ,-58, ,
-1, ,-58, ,
1, ,-59, ,
2, ,-58, ,
1, ,-58, ,
-1, ,-59, ,
2, ,-58, ,
1, ,-59, ,
-1, ,-59, ,
1, ,-59, ,
1, ,-58, ,
-1, ,-59, ,
2, ,-58, ,
1, ,-59, ,
1, ,-59, ,
2, ,-58, ,
2, ,-58, ,
-1, ,-59, ,
2, ,-58, ,
-1, ,-59, ,
1, ,-58, ,
2, ,-59, ,
1, ,-58, ,
-1, ,-59, ,
2, ,-58, ,
1, ,-58, ,
1, ,-58, ,
1, ,-58, ,
1, ,-58, ,
-1, ,-59, ,
1, ,-58, ,
-1, ,-59, ,
1, ,-58, ,
1, ,-59, ,
2, ,-58, ,
-1, ,-59, ,
2, ,-58, ,
-1, ,-59, ,
-1, ,-59, ,
1, ,-58, ,
1, ,-58, ,
-1, ,-59, ,
2, ,-58, ,
1, ,-59, ,
-1, ,-58, ,
1, ,-58, ,
1, ,-58, ,
-1, ,-59, ,
2, ,-58, ,
-1, ,-58, ,
1, ,-58, ,
1, ,-58, ,
1, ,-58, ,
-1, ,-59, ,
2, ,-58, ,
1, ,-59, ,
1, ,-58, ,
1, ,-59, ,
2, ,-58, ,
-1, ,-59, ,
2, ,-58, ,
-1, ,-58, ,
1, ,-59, ,
2, ,-58, ,
1, ,-58, ,
-1, ,-59, ,
2, ,-58, ,
1, ,-59, ,
1, ,-59, ,
1, ,-59, ,
1, ,-58, ,
-1, ,-59, ,
2, ,-58, ,
1, ,-58, ,
1, ,-59, ,
1, ,-59, ,
1, ,-58, ,
-1, ,-59, ,
2, ,-58, ,
-1, ,-59, ,
1, ,-59, ,
1, ,-59, ,
1, ,-58, ,
-1, ,-59, ,
2, ,-58, ,
-1, ,-59, ,
1, ,-59, ,
1, ,-58, ,
1, ,-58, ,
-1, ,-59, ,
2, ,-58, ,
-1, ,-58, ,
1, ,-58, ,
1, ,-58, ,
1, ,-58, ,
-1, ,-59, ,
2, ,-58, ,
1, ,-58, ,
1, ,-59, ,
1, ,-58, ,
2, ,-58, ,
-1, ,-59, ,
2, ,-58, ,
-1, ,-59, ,
1, ,-59, ,
1, ,-59, ,
1, ,-58, ,
-1, ,-59, ,
1, ,-58, ,
1, ,-58, ,
1, ,-59, ,
1, ,-59, ,
1, ,-58, ,
-1, ,-59, ,
2, ,-58, ,
-1, ,-58, ,
1, ,-58, ,
1, ,-59, ,
1, ,-59, ,
-1, ,-59, ,
2, ,-58, ,
-1, ,-59, ,
1, ,-59, ,
2, ,-58, ,
1, ,-58, ,
-1, ,-59, ,
2, ,-58, ,
-1, ,-59, ,
-1, ,-59, ,
1, ,-59, ,
1, ,-58, ,
-1, ,-59, ,
2, ,-58, ,
1, ,-59, ,
1, ,-59, ,
1, ,-59, ,
1, ,-58, ,
-1, ,-59, ,
2, ,-58, ,
1, ,-58, ,
1, ,-59, ,
1, ,-59, ,
1, ,-58, ,
-1, ,-59, ,
2, ,-58, ,
-1, ,-58, ,
1, ,-59, ,
1, ,-59, ,
1, ,-58, ,
-1, ,-59, ,
2, ,-58, ,
1, ,-59, ,
1, ,-59, ,
2, ,-59, ,
1, ,-58, ,
-1, ,-59, ,
2, ,-58, ,
-1, ,-59, ,
1, ,-59, ,
1, ,-58, ,
1, ,-58, ,
-1, ,-59, ,
2, ,-58, ,
-1, ,-58, ,
-1, ,-59, ,
1, ,-59, ,
1, ,-58, ,
-1, ,-59, ,
2, ,-58, ,
-1, ,-58, ,
1, ,-59, ,
1, ,-58, ,
1, ,-58, ,
-1, ,-59, ,
2, ,-58, ,
-1, ,-58, ,
-1, ,-59, ,
1, ,-59, ,
1, ,-58, ,
-1, ,-59, ,
1, ,-58, ,
-1, ,-59, ,
-1, ,-59, ,
1, ,-59, ,
1, ,-58, ,
-1, ,-59, ,
2, ,-59, ,
-1, ,-58, ,
-1, ,-59, ,
1, ,-58, ,
1, ,-58, ,
-1, ,-59, ,
1, ,-58, ,
-1, ,-59, ,
-1, ,-59, ,
1, ,-59, ,
1, ,-58, ,
-1, ,-59, ,
2, ,-58, ,
-1, ,-59, ,
-1, ,-58, ,
1, ,-58, ,
1, ,-58, ,
-1, ,-59, ,
1, ,-58, ,
-1, ,-59, ,
-1, ,-59, ,
1, ,-59, ,
1, ,-58, ,
-1, ,-59, ,
2, ,-58, ,
-1, ,-59, ,
1, ,-59, ,
1, ,-59, ,
1, ,-58, ,
-1, ,-59, ,
2, ,-58, ,
-1, ,-59, ,
1, ,-59, ,
1, ,-59, ,
2, ,-58, ,
-1, ,-59, ,
2, ,-59, ,
-1, ,-59, ,
1, ,-58, ,
1, ,-58, ,
1, ,-58, ,
-1, ,-59, ,
2, ,-58, ,
-1, ,-59, ,
-1, ,-59, ,
1, ,-58, ,
1, ,-58, ,
-1, ,-59, ,
2, ,-58, ,
-1, ,-59, ,
1, ,-58, ,
1, ,-58, ,
1, ,-58, ,
-1, ,-59, ,
2, ,-58, ,
1, ,-59, ,
1, ,-59, ,
1, ,-58, ,
1, ,-59, ,
-1, ,-59, ,
2, ,-58, ,
-1, ,-59, ,
1, ,-59, ,
2, ,-59, ,
1, ,-59, ,
-1, ,-59, ,
2, ,-58, ,
-1, ,-59, ,
-1, ,-59, ,
1, ,-58, ,
1, ,-58, ,
-1, ,-59, ,
2, ,-58, ,
-1, ,-59, ,
1, ,-59, ,
1, ,-58, ,
1, ,-58, ,
-1, ,-59, ,
2, ,-58, ,
1, ,-59, ,
1, ,-58, ,
1, ,-58, ,
1, ,-58, ,
-1, ,-59, ,
2, ,-59, ,
-1, ,-59, ,
1, ,-58, ,
1, ,-58, ,
1, ,-58, ,
-1, ,-59, ,
2, ,-58, ,
-1, ,-58, ,
1, ,-51, ,
2, ,-30, ,
2, ,-13, ,
-1, ,-1, ,
2, ,8, ,
1, ,15, ,
1, ,20, ,
1, ,24, ,
1, ,27, ,
-1, ,30, ,
2, ,31, ,
1, ,33, ,
1, ,33, ,
1, ,34, ,
1, ,34, ,
-1, ,35, ,
2, ,35, ,
-1, ,35, ,
1, ,35, ,
1, ,35, ,
1, ,35, ,
-1, ,35, ,
1, ,35, ,
-1, ,35, ,
-1, ,35, ,
1, ,35, ,
1, ,35, ,
-1, ,35, ,
1, ,35, ,
-1, ,35, ,
-1, ,35, ,
2, ,35, ,
1, ,35, ,
-1, ,35, ,
1, ,35, ,
-1, ,35, ,
-1, ,35, ,
1, ,35, ,
1, ,35, ,
-1, ,35, ,
2, ,35, ,
-1, ,35, ,
-1, ,35, ,
1, ,35, ,
1, ,35, ,
-1, ,35, ,
1, ,34, ,
-1, ,35, ,
-1, ,35, ,
1, ,35, ,
1, ,34, ,
-1, ,35, ,
2, ,35, ,
-1, ,34, ,
-1, ,35, ,
1, ,35, ,
1, ,34, ,
-1, ,35, ,
1, ,35, ,
-1, ,34, ,
-1, ,35, ,
1, ,35, ,
1, ,35, ,
-1, ,35, ,
1, ,35, ,
-1, ,35, ,
-1, ,35, ,
2, ,35, ,
1, ,34, ,
-1, ,34, ,
1, ,35, ,
-1, ,35, ,
-1, ,34, ,
1, ,35, ,
1, ,35, ,
-1, ,35, ,
2, ,35, ,
1, ,35, ,
-1, ,35, ,
1, ,35, ,
1, ,35, ,
-1, ,35, ,
2, ,35, ,
1, ,34, ,
-1, ,34, ,
1, ,35, ,
1, ,34, ,
-1, ,35, ,
2, ,35, ,
1, ,35, ,
1, ,35, ,
1, ,35, ,
1, ,34, ,
-1, ,34, ,
2, ,35, ,
1, ,34, ,
-1, ,34, ,
1, ,35, ,
1, ,34, ,
-1, ,35, ,
2, ,35, ,
1, ,35, ,
-1, ,35, ,
1, ,35, ,
1, ,34, ,
-1, ,35, ,
1, ,35, ,
1, ,34, ,
1, ,34, ,
1, ,35, ,
1, ,35, ,
-1, ,35, ,
2, ,35, ,
1, ,34, ,
-1, ,35, ,
1, ,35, ,
1, ,34, ,
-1, ,35, ,
1, ,34, ,
1, ,34, ,
-1, ,34, ,
1, ,34, ,
1, ,34, ,
-1, ,35, ,
2, ,35, ,
1, ,34, ,
-1, ,35, ,
1, ,35, ,
1, ,34, ,
-1, ,34, ,
2, ,35, ,
1, ,34, ,
-1, ,35, ,
1, ,35, ,
1, ,35, ,
-1, ,35, ,
1, ,34, ,
1, ,34, ,
-1, ,35, ,
1, ,35, ,
1, ,34, ,
-1, ,34, ,
1, ,35, ,
-1, ,35, ,
-1, ,34, ,
1, ,35, ,
1, ,34, ,
-1, ,35, ,
1, ,35, ,
-1, ,34, ,
-1, ,35, ,
1, ,35, ,
1, ,34, ,
-1, ,35, ,
1, ,32, ,
-1, ,15, ,
-1, ,-4, ,
1, ,-18, ,
1, ,-28, ,
-1, ,-37, ,
1, ,-42, ,
-1, ,-47, ,
-1, ,-51, ,
1, ,-53, ,
1, ,-55, ,
-1, ,-56, ,
1, ,-56, ,
-1, ,-58, ,
-1, ,-59, ,
1, ,-58, ,
1, ,-58, ,
-1, ,-59, ,
1, ,-58, ,
-1, ,-59, ,
1, ,-59, ,
1, ,-59, ,
1, ,-59, ,
-1, ,-60, ,
2, ,-58, ,
-1, ,-59, ,
-1, ,-59, ,
1, ,-59, ,
1, ,-59, ,
-1, ,-59, ,
1, ,-59, ,
-1, ,-59, ,
-1, ,-59, ,
1, ,-59, ,
1, ,-58, ,
-1, ,-59, ,
1, ,-58, ,
-1, ,-59, ,
-1, ,-59, ,
1, ,-59, ,
1, ,-58, ,
-1, ,-59, ,
2, ,-59, ,
-1, ,-59, ,
-1, ,-59, ,
1, ,-59, ,
1, ,-58, ,
-1, ,-59, ,
2, ,-58, ,
-1, ,-59, ,
-1, ,-59, ,
1, ,-59, ,
1, ,-58, ,
-1, ,-59, ,
1, ,-58, ,
-1, ,-59, ,
-1, ,-59, ,
1, ,-59, ,
1, ,-58, ,
-1, ,-59, ,
1, ,-58, ,
-1, ,-59, ,
-1, ,-59, ,
1, ,-59, ,
1, ,-58, ,
-1, ,-59, ,
1, ,-58, ,
-1, ,-59, ,
-1, ,-58, ,
1, ,-58, ,
1, ,-58, ,
-1, ,-59, ,
1, ,-58, ,
-1, ,-59, ,
-1, ,-59, ,
1, ,-58, ,
2, ,-58, ,
-1, ,-59, ,
1, ,-58, ,
-1, ,-59, ,
-1, ,-58, ,
1, ,-59, ,
1, ,-59, ,
-1, ,-59, ,
2, ,-58, ,
77, ,-59, ,
50, ,-59, ,
31, ,-58, ,
20, ,-58, ,
11, ,-59, ,
10, ,-58, ,
6, ,-59, ,
3, ,-58, ,
5, ,-58, ,
3, ,-58, ,
2, ,-59, ,
5, ,-58, ,
2, ,-59, ,
2, ,-58, ,
3, ,-58, ,
3, ,-58, ,
2, ,-59, ,
3, ,-58, ,
2, ,-59, ,
2, ,-58, ,
3, ,-58, ,
3, ,-58, ,
1, ,-59, ,
3, ,-58, ,
2, ,-59, ,
2, ,-59, ,
2, ,-58, ,
3, ,-58, ,
1, ,-59, ,
3, ,-58, ,
2, ,-59, ,
2, ,-58, ,
3, ,-58, ,
3, ,-58, ,
1, ,-59, ,
3, ,-58, ,
2, ,-59, ,
2, ,-59, ,
2, ,-58, ,
2, ,-58, ,
1, ,-59, ,
3, ,-58, ,
2, ,-59, ,
2, ,-58, ,
2, ,-58, ,
3, ,-58, ,
1, ,-59, ,
3, ,-58, ,
2, ,-58, ,
2, ,-58, ,
2, ,-58, ,
3, ,-58, ,
1, ,-59, ,
3, ,-58, ,
2, ,-59, ,
2, ,-58, ,
3, ,-58, ,
3, ,-58, ,
1, ,-59, ,
3, ,-58, ,
2, ,-59, ,
2, ,-59, ,
2, ,-58, ,
2, ,-58, ,
1, ,-59, ,
3, ,-58, ,
2, ,-59, ,
2, ,-58, ,
3, ,-58, ,
3, ,-58, ,
1, ,-59, ,
2, ,-58, ,
1, ,-58, ,
1, ,-58, ,
2, ,-58, ,
3, ,-58, ,
1, ,-59, ,
3, ,-58, ,
2, ,-59, ,
2, ,-58, ,
2, ,-58, ,
2, ,-58, ,
1, ,-59, ,
3, ,-58, ,
1, ,-58, ,
2, ,-59, ,
2, ,-58, ,
2, ,-58, ,
1, ,-59, ,
3, ,-58, ,
2, ,-58, ,
2, ,-58, ,
3, ,-58, ,
3, ,-58, ,
1, ,-59, ,
2, ,-58, ,
1, ,-58, ,
1, ,-58, ,
2, ,-58, ,
3, ,-58, ,
1, ,-59, ,
3, ,-58, ,
1, ,-59, ,
2, ,-58, ,
2, ,-58, ,
3, ,-58, ,
1, ,-59, ,
3, ,-58, ,
1, ,-58, ,
2, ,-58, ,
2, ,-58, ,
2, ,-58, ,
1, ,-59, ,
2, ,-58, ,
1, ,-59, ,
2, ,-58, ,
3, ,-58, ,
3, ,-58, ,
1, ,-59, ,
2, ,-58, ,
2, ,-58, ,
2, ,-59, ,
2, ,-58, ,
2, ,-58, ,
1, ,-59, ,
2, ,-58, ,
1, ,-58, ,
1, ,-58, ,
3, ,-58, ,
2, ,-58, ,
1, ,-59, ,
2, ,-58, ,
1, ,-58, ,
2, ,-58, ,
3, ,-58, ,
2, ,-58, ,
1, ,-59, ,
2, ,-58, ,
1, ,-59, ,
2, ,-58, ,
2, ,-58, ,
2, ,-58, ,
1, ,-59, ,
2, ,-58, ,
1, ,-58, ,
2, ,-58, ,
2, ,-58, ,
2, ,-58, ,
1, ,-59, ,
3, ,-58, ,
1, ,-58, ,
2, ,-58, ,
2, ,-58, ,
2, ,-58, ,
1, ,-59, ,
2, ,-58, ,
1, ,-59, ,
1, ,-59, ,
2, ,-58, ,
2, ,-58, ,
1, ,-59, ,
2, ,-58, ,
1, ,-58, ,
2, ,-58, ,
2, ,-58, ,
2, ,-58, ,
1, ,-59, ,
2, ,-58, ,
1, ,-59, ,
2, ,-59, ,
2, ,-58, ,
2, ,-58, ,
1, ,-59, ,
2, ,-58, ,
1, ,-59, ,
2, ,-58, ,
2, ,-58, ,
2, ,-58, ,
1, ,-59, ,
2, ,-58, ,
1, ,-58, ,
2, ,-59, ,
2, ,-58, ,
2, ,-58, ,
1, ,-59, ,
2, ,-58, ,
1, ,-58, ,
1, ,-58, ,
2, ,-58, ,
2, ,-58, ,
1, ,-59, ,
2, ,-58, ,
1, ,-58, ,
1, ,-58, ,
2, ,-58, ,
2, ,-58, ,
1, ,-59, ,
2, ,-58, ,
1, ,-59, ,
1, ,-58, ,
2, ,-58, ,
2, ,-58, ,
1, ,-59, ,
2, ,-58, ,
1, ,-59, ,
1, ,-58, ,
2, ,-58, ,
2, ,-58, ,
1, ,-59, ,
2, ,-58, ,
1, ,-59, ,
1, ,-58, ,
2, ,-58, ,
2, ,-58, ,
1, ,-59, ,
2, ,-58, ,
1, ,-59, ,
1, ,-58, ,
2, ,-58, ,
2, ,-58, ,
1, ,-59, ,
2, ,-58, ,
1, ,-58, ,
1, ,-58, ,
2, ,-59, ,
2, ,-58, ,
1, ,-59, ,
2, ,-58, ,
1, ,-59, ,
1, ,-58, ,
2, ,-58, ,
2, ,-58, ,
1, ,-59, ,
2, ,-58, ,
1, ,-59, ,
1, ,-58, ,
2, ,-58, ,
2, ,-58, ,
1, ,-59, ,
2, ,-58, ,
1, ,-58, ,
1, ,-58, ,
2, ,-58, ,
2, ,-58, ,
1, ,-59, ,
2, ,-58, ,
1, ,-59, ,
2, ,-58, ,
2, ,-58, ,
2, ,-58, ,
1, ,-59, ,
2, ,-58, ,
1, ,-59, ,
1, ,-58, ,
2, ,-58, ,
2, ,-58, ,
1, ,-59, ,
2, ,-58, ,
1, ,-58, ,
1, ,-58, ,
2, ,-58, ,
2, ,-58, ,
1, ,-59, ,
2, ,-58, ,
1, ,-58, ,
1, ,-58, ,
2, ,-58, ,
2, ,-58, ,
-1, ,-59, ,
2, ,-58, ,
1, ,-58, ,
1, ,-58, ,
2, ,-58, ,
2, ,-58, ,
-1, ,-59, ,
2, ,-58, ,
1, ,-58, ,
1, ,-58, ,
2, ,-58, ,
2, ,-58, ,
-1, ,-59, ,
2, ,-58, ,
1, ,-59, ,
1, ,-58, ,
2, ,-58, ,
2, ,-58, ,
-1, ,-59, ,
2, ,-58, ,
1, ,-58, ,
1, ,-58, ,
2, ,-58, ,
2, ,-58, ,
-1, ,-59, ,
2, ,-58, ,
1, ,-59, ,
1, ,-59, ,
2, ,-58, ,
2, ,-58, ,
-1, ,-59, ,
2, ,-58, ,
1, ,-58, ,
1, ,-58, ,
2, ,-58, ,
2, ,-58, ,
-1, ,-59, ,
2, ,-58, ,
1, ,-59, ,
1, ,-58, ,
2, ,-59, ,
2, ,-58, ,
-1, ,-59, ,
2, ,-58, ,
1, ,-58, ,
1, ,-58, ,
2, ,-58, ,
1, ,-58, ,
-1, ,-59, ,
2, ,-58, ,
1, ,-58, ,
1, ,-58, ,
2, ,-59, ,
1, ,-58, ,
-1, ,-59, ,
2, ,-58, ,
1, ,-58, ,
1, ,-59, ,
2, ,-58, ,
2, ,-58, ,
-1, ,-59, ,
2, ,-58, ,
1, ,-59, ,
1, ,-58, ,
1, ,-58, ,
1, ,-58, ,
-1, ,-59, ,
2, ,-58, ,
1, ,-58, ,
1, ,-59, ,
2, ,-58, ,
2, ,-58, ,
-1, ,-59, ,
2, ,-58, ,
1, ,-59, ,
1, ,-58, ,
1, ,-58, ,
2, ,-58, ,
-1, ,-59, ,
2, ,-58, ,
1, ,-58, ,
1, ,-58, ,
2, ,-58, ,
2, ,-58, ,
-1, ,-59, ,
2, ,-58, ,
1, ,-58, ,
1, ,-58, ,
2, ,-58, ,
2, ,-58, ,
-1, ,-59, ,
2, ,-58, ,
1, ,-58, ,
1, ,-58, ,
2, ,-59, ,
1, ,-58, ,
-1, ,-59, ,
2, ,-59, ,
1, ,-59, ,
1, ,-58, ,
2, ,-59, ,
1, ,-58, ,
-1, ,-59, ,
2, ,-58, ,
1, ,-58, ,
1, ,-59, ,
2, ,-59, ,
2, ,-58, ,
-1, ,-59, ,
2, ,-58, ,
1, ,-58, ,
1, ,-59, ,
2, ,-58, ,
2, ,-58, ,
-1, ,-59, ,
2, ,-58, ,
1, ,-59, ,
1, ,-59, ,
2, ,-58, ,
2, ,-58, ,
-1, ,-59, ,
2, ,-58, ,
1, ,-59, ,
1, ,-58, ,
2, ,-58, ,
1, ,-58, ,
-1, ,-59, ,
2, ,-58, ,
1, ,-59, ,
1, ,-58, ,
