src/varyamp_1560/temp0003521.CSV

Format,1.0B,
Memory Length,10000,Memory Length,10000,
IntpDistance,0,IntpDistance,0,
Trigger Address,4999,Trigger Address,4999,
Trigger Level,1.040E+00,Trigger Level,1.040E+00,
Source,CH1,Source,CH2,
Vertical Units,V,Vertical Units,V,
Vertical Units Div,0,Vertical Units Div,0,
Vertical Units Extend Div,16,Vertical Units Extend Div,16,
Label,,Label,,
Probe Type,0,Probe Type,0,
Probe Ratio,1.000e+01,Probe Ratio,1.000e+00,
Vertical Scale,5.000e-01,Vertical Scale,1.000e+00,
Vertical Position,-1.820e+00,Vertical Position,0.000e+00,
Horizontal Units,S,Horizontal Units,S,
Horizontal Scale,2.000E-05,Horizontal Scale,2.000E-05,
Horizontal Position,0.000E+00,Horizontal Position,0.000E+00,
Horizontal Mode,Main,Horizontal Mode,Main,
SincET Mode,Real Time,SincET Mode,Real Time,
Sampling Period,2.000e-08,Sampling Period,2.000e-08,
Horizontal Old Scale,2.000E-05,Horizontal Old Scale,2.000E-05,
Horizontal Old Position,0.000E+00,Horizontal Old Position,0.000E+00,
Firmware,V1.23,Firmware,V1.23,
Mode,Fast,Mode,Fast,
Waveform Data,,Waveform Data,,
1, ,-43, ,
3, ,-44, ,
2, ,-44, ,
2, ,-44, ,
2, ,-44, ,
3, ,-44, ,
2, ,-43, ,
3, ,-44, ,
2, ,-44, ,
2, ,-44, ,
3, ,-44, ,
2, ,-45, ,
1, ,-43, ,
3, ,-44, ,
2, ,-44, ,
2, ,-44, ,
2, ,-44, ,
3, ,-44, ,
2, ,-44, ,
3, ,-44, ,
2, ,-44, ,
2, ,-44, ,
2, ,-44, ,
3, ,-45, ,
2, ,-43, ,
3, ,-44, ,
2, ,-44, ,
2, ,-44, ,
2, ,-44, ,
3, ,-45, ,
1, ,-44, ,
3, ,-44, ,
2, ,-44, ,
2, ,-44, ,
2, ,-44, ,
2, ,-45, ,
2, ,-43, ,
3, ,-44, ,
2, ,-44, ,
2, ,-44, ,
2, ,-44, ,
2, ,-45, ,
1, ,-43, ,
3, ,-44, ,
2, ,-44, ,
2, ,-44, ,
2, ,-44, ,
3, ,-45, ,
2, ,-43, ,
3, ,-44, ,
2, ,-44, ,
2, ,-44, ,
2, ,-44, ,
2, ,-44, ,
1, ,-44, ,
3, ,-44, ,
2, ,-44, ,
2, ,-44, ,
2, ,-44, ,
3, ,-45, ,
1, ,-43, ,
3, ,-44, ,
2, ,-44, ,
2, ,-44, ,
2, ,-44, ,
2, ,-44, ,
1, ,-44, ,
3, ,-44, ,
2, ,-44, ,
2, ,-44, ,
2, ,-44, ,
2, ,-45, ,
1, ,-43, ,
3, ,-44, ,
2, ,-44, ,
2, ,-44, ,
2, ,-44, ,
2, ,-44, ,
1, ,-44, ,
2, ,-44, ,
1, ,-44, ,
1, ,-44, ,
2, ,-44, ,
2, ,-45, ,
1, ,-43, ,
2, ,-44, ,
2, ,-44, ,
2, ,-44, ,
2, ,-44, ,
2, ,-44, ,
1, ,-44, ,
2, ,-44, ,
2, ,-44, ,
2, ,-44, ,
2, ,-44, ,
2, ,-45, ,
1, ,-43, ,
2, ,-44, ,
1, ,-44, ,
2, ,-44, ,
2, ,-44, ,
2, ,-44, ,
1, ,-44, ,
2, ,-44, ,
2, ,-44, ,
2, ,-44, ,
2, ,-44, ,
2, ,-45, ,
1, ,-43, ,
2, ,-44, ,
1, ,-44, ,
1, ,-44, ,
2, ,-44, ,
2, ,-44, ,
1, ,-44, ,
2, ,-44, ,
2, ,-44, ,
2, ,-44, ,
2, ,-44, ,
2, ,-45, ,
1, ,-43, ,
2, ,-44, ,
1, ,-44, ,
1, ,-44, ,
2, ,-44, ,
2, ,-44, ,
1, ,-44, ,
2, ,-44, ,
2, ,-44, ,
2, ,-44, ,
2, ,-44, ,
2, ,-45, ,
1, ,-43, ,
2, ,-44, ,
1, ,-44, ,
1, ,-44, ,
2, ,-44, ,
2, ,-44, ,
1, ,-44, ,
2, ,-44, ,
1, ,-44, ,
2, ,-44, ,
2, ,-44, ,
2, ,-45, ,
1, ,-43, ,
2, ,-44, ,
1, ,-44, ,
2, ,-44, ,
2, ,-43, ,
2, ,-44, ,
1, ,-44, ,
2, ,-44, ,
1, ,-44, ,
2, ,-44, ,
2, ,-44, ,
2, ,-45, ,
1, ,-43, ,
2, ,-44, ,
1, ,-44, ,
1, ,-44, ,
2, ,-44, ,
1, ,-44, ,
1, ,-44, ,
2, ,-44, ,
1, ,-44, ,
1, ,-44, ,
2, ,-44, ,
2, ,-45, ,
1, ,-43, ,
2, ,-44, ,
1, ,-44, ,
2, ,-44, ,
2, ,-44, ,
2, ,-45, ,
1, ,-44, ,
2, ,-44, ,
1, ,-44, ,
1, ,-44, ,
2, ,-44, ,
2, ,-45, ,
1, ,-44, ,
2, ,-44, ,
1, ,-44, ,
2, ,-44, ,
2, ,-44, ,
2, ,-44, ,
1, ,-44, ,
2, ,-44, ,
1, ,-44, ,
1, ,-44, ,
2, ,-44, ,
2, ,-45, ,
1, ,-43, ,
2, ,-44, ,
2, ,-44, ,
1, ,-44, ,
2, ,-44, ,
2, ,-44, ,
1, ,-44, ,
2, ,-44, ,
1, ,-44, ,
1, ,-44, ,
2, ,-44, ,
2, ,-45, ,
1, ,-44, ,
2, ,-44, ,
1, ,-45, ,
1, ,-44, ,
2, ,-44, ,
2, ,-44, ,
1, ,-44, ,
2, ,-44, ,
1, ,-44, ,
1, ,-44, ,
2, ,-44, ,
2, ,-45, ,
1, ,-43, ,
2, ,-44, ,
1, ,-44, ,
2, ,-44, ,
2, ,-44, ,
2, ,-44, ,
1, ,-44, ,
2, ,-44, ,
1, ,-44, ,
1, ,-44, ,
2, ,-44, ,
1, ,-45, ,
1, ,-43, ,
2, ,-44, ,
1, ,-44, ,
1, ,-44, ,
2, ,-44, ,
2, ,-45, ,
1, ,-44, ,
2, ,-44, ,
1, ,-44, ,
1, ,-44, ,
2, ,-44, ,
1, ,-45, ,
1, ,-43, ,
2, ,-44, ,
1, ,-44, ,
1, ,-44, ,
2, ,-44, ,
1, ,-45, ,
1, ,-44, ,
2, ,-44, ,
2, ,-44, ,
2, ,-44, ,
2, ,-44, ,
2, ,-45, ,
1, ,-43, ,
2, ,-44, ,
1, ,-44, ,
1, ,-44, ,
2, ,-44, ,
2, ,-45, ,
1, ,-44, ,
2, ,-44, ,
1, ,-44, ,
1, ,-44, ,
2, ,-44, ,
2, ,-45, ,
1, ,-43, ,
2, ,-44, ,
1, ,-44, ,
1, ,-44, ,
2, ,-44, ,
2, ,-44, ,
1, ,-44, ,
2, ,-44, ,
1, ,-44, ,
1, ,-44, ,
2, ,-44, ,
1, ,-45, ,
1, ,-44, ,
2, ,-44, ,
1, ,-44, ,
1, ,-44, ,
2, ,-44, ,
1, ,-45, ,
1, ,-44, ,
2, ,-44, ,
1, ,-44, ,
1, ,-44, ,
2, ,-44, ,
1, ,-45, ,
1, ,-43, ,
2, ,-44, ,
1, ,-44, ,
1, ,-44, ,
2, ,-44, ,
1, ,-45, ,
1, ,-44, ,
2, ,-44, ,
1, ,-44, ,
1, ,-44, ,
2, ,-44, ,
2, ,-45, ,
1, ,-43, ,
2, ,-44, ,
1, ,-44, ,
1, ,-44, ,
2, ,-44, ,
1, ,-44, ,
1, ,-42, ,
2, ,-25, ,
2, ,-6, ,
2, ,8, ,
2, ,18, ,
1, ,26, ,
1, ,32, ,
2, ,37, ,
1, ,40, ,
1, ,42, ,
2, ,44, ,
1, ,45, ,
-1, ,45, ,
2, ,47, ,
1, ,47, ,
1, ,47, ,
2, ,49, ,
1, ,50, ,
1, ,49, ,
2, ,49, ,
1, ,50, ,
1, ,49, ,
2, ,49, ,
1, ,50, ,
-1, ,49, ,
2, ,49, ,
1, ,50, ,
1, ,49, ,
1, ,49, ,
1, ,50, ,
-1, ,49, ,
2, ,49, ,
1, ,49, ,
1, ,49, ,
2, ,49, ,
2, ,50, ,
1, ,47, ,
2, ,49, ,
1, ,50, ,
1, ,49, ,
2, ,49, ,
1, ,49, ,
-1, ,47, ,
2, ,49, ,
1, ,49, ,
1, ,49, ,
2, ,49, ,
1, ,49, ,
-1, ,47, ,
2, ,49, ,
1, ,49, ,
1, ,49, ,
1, ,49, ,
1, ,49, ,
-1, ,47, ,
2, ,49, ,
1, ,49, ,
1, ,49, ,
1, ,49, ,
1, ,49, ,
-1, ,47, ,
2, ,49, ,
1, ,49, ,
1, ,47, ,
2, ,47, ,
1, ,49, ,
-1, ,47, ,
2, ,49, ,
1, ,49, ,
1, ,49, ,
1, ,49, ,
1, ,49, ,
-1, ,47, ,
2, ,49, ,
1, ,49, ,
1, ,49, ,
1, ,47, ,
1, ,49, ,
-1, ,47, ,
2, ,49, ,
1, ,49, ,
1, ,49, ,
1, ,49, ,
1, ,49, ,
-1, ,47, ,
2, ,49, ,
1, ,49, ,
1, ,49, ,
1, ,49, ,
1, ,49, ,
-1, ,47, ,
2, ,49, ,
1, ,49, ,
1, ,49, ,
1, ,49, ,
1, ,49, ,
-1, ,47, ,
2, ,49, ,
1, ,49, ,
1, ,49, ,
1, ,49, ,
2, ,49, ,
1, ,47, ,
2, ,49, ,
1, ,49, ,
1, ,49, ,
1, ,49, ,
1, ,49, ,
-1, ,47, ,
2, ,49, ,
1, ,49, ,
1, ,49, ,
1, ,49, ,
1, ,49, ,
-1, ,47, ,
2, ,49, ,
1, ,49, ,
1, ,49, ,
2, ,49, ,
1, ,49, ,
-1, ,47, ,
2, ,49, ,
1, ,49, ,
1, ,49, ,
1, ,49, ,
1, ,49, ,
-1, ,47, ,
2, ,49, ,
1, ,49, ,
1, ,49, ,
2, ,49, ,
2, ,49, ,
1, ,47, ,
2, ,49, ,
1, ,49, ,
1, ,47, ,
1, ,49, ,
1, ,49, ,
1, ,47, ,
2, ,49, ,
1, ,49, ,
1, ,49, ,
2, ,47, ,
1, ,49, ,
-1, ,47, ,
2, ,49, ,
1, ,49, ,
1, ,47, ,
1, ,49, ,
1, ,49, ,
1, ,47, ,
2, ,49, ,
1, ,49, ,
1, ,47, ,
1, ,47, ,
1, ,38, ,
-1, ,17, ,
1, ,1, ,
1, ,-11, ,
1, ,-19, ,
1, ,-26, ,
1, ,-32, ,
-1, ,-35, ,
2, ,-37, ,
-1, ,-40, ,
1, ,-41, ,
1, ,-42, ,
1, ,-43, ,
-1, ,-43, ,
1, ,-44, ,
1, ,-44, ,
1, ,-44, ,
1, ,-45, ,
1, ,-45, ,
-1, ,-44, ,
1, ,-45, ,
1, ,-45, ,
59, ,-45, ,
58, ,-44, ,
35, ,-45, ,
22, ,-45, ,
15, ,-45, ,
10, ,-45, ,
7, ,-45, ,
6, ,-45, ,
5, ,-45, ,
3, ,-44, ,
5, ,-45, ,
2, ,-45, ,
2, ,-45, ,
3, ,-44, ,
3, ,-45, ,
2, ,-44, ,
3, ,-45, ,
2, ,-45, ,
2, ,-45, ,
2, ,-44, ,
3, ,-45, ,
1, ,-44, ,
3, ,-44, ,
2, ,-45, ,
2, ,-45, ,
2, ,-44, ,
3, ,-45, ,
1, ,-44, ,
3, ,-45, ,
2, ,-45, ,
2, ,-44, ,
3, ,-44, ,
3, ,-45, ,
2, ,-44, ,
3, ,-44, ,
2, ,-45, ,
2, ,-44, ,
2, ,-44, ,
3, ,-45, ,
1, ,-44, ,
3, ,-44, ,
2, ,-45, ,
2, ,-44, ,
2, ,-44, ,
2, ,-45, ,
2, ,-44, ,
3, ,-44, ,
2, ,-45, ,
2, ,-44, ,
3, ,-44, ,
3, ,-44, ,
1, ,-44, ,
3, ,-44, ,
2, ,-44, ,
2, ,-44, ,
2, ,-44, ,
3, ,-45, ,
2, ,-44, ,
3, ,-44, ,
2, ,-45, ,
2, ,-44, ,
2, ,-44, ,
2, ,-44, ,
2, ,-44, ,
3, ,-44, ,
2, ,-45, ,
2, ,-44, ,
13, ,-44, ,
15, ,-45, ,
11, ,-43, ,
8, ,-44, ,
6, ,-44, ,
5, ,-44, ,
5, ,-44, ,
5, ,-45, ,
2, ,-44, ,
3, ,-44, ,
2, ,-44, ,
3, ,-44, ,
3, ,-44, ,
3, ,-45, ,
2, ,-43, ,
3, ,-44, ,
2, ,-45, ,
2, ,-44, ,
3, ,-44, ,
3, ,-44, ,
2, ,-44, ,
3, ,-44, ,
2, ,-44, ,
2, ,-44, ,
3, ,-44, ,
3, ,-45, ,
2, ,-44, ,
3, ,-44, ,
2, ,-44, ,
2, ,-44, ,
3, ,-44, ,
3, ,-44, ,
2, ,-44, ,
3, ,-44, ,
2, ,-44, ,
2, ,-44, ,
2, ,-44, ,
3, ,-45, ,
2, ,-43, ,
3, ,-44, ,
2, ,-44, ,
2, ,-44, ,
2, ,-44, ,
3, ,-44, ,
2, ,-44, ,
3, ,-44, ,
2, ,-44, ,
2, ,-44, ,
2, ,-44, ,
3, ,-45, ,
2, ,-43, ,
2, ,-44, ,
2, ,-45, ,
2, ,-44, ,
2, ,-44, ,
3, ,-44, ,
2, ,-44, ,
3, ,-44, ,
2, ,-44, ,
2, ,-44, ,
2, ,-44, ,
2, ,-45, ,
2, ,-43, ,
3, ,-44, ,
2, ,-44, ,
1, ,-44, ,
2, ,-44, ,
2, ,-44, ,
1, ,-44, ,
2, ,-44, ,
1, ,-44, ,
2, ,-44, ,
3, ,-44, ,
2, ,-45, ,
1, ,-43, ,
3, ,-44, ,
2, ,-44, ,
1, ,-44, ,
2, ,-44, ,
2, ,-44, ,
1, ,-44, ,
3, ,-44, ,
2, ,-44, ,
2, ,-44, ,
3, ,-44, ,
2, ,-45, ,
1, ,-43, ,
3, ,-44, ,
2, ,-44, ,
2, ,-44, ,
2, ,-44, ,
2, ,-44, ,
1, ,-44, ,
2, ,-44, ,
2, ,-44, ,
2, ,-44, ,
2, ,-44, ,
2, ,-45, ,
1, ,-43, ,
3, ,-44, ,
2, ,-44, ,
2, ,-44, ,
2, ,-44, ,
2, ,-44, ,
1, ,-44, ,
2, ,-44, ,
2, ,-44, ,
2, ,-44, ,
2, ,-44, ,
2, ,-45, ,
1, ,-43, ,
2, ,-44, ,
2, ,-44, ,
2, ,-44, ,
2, ,-44, ,
2, ,-44, ,
1, ,-44, ,
3, ,-44, ,
2, ,-44, ,
2, ,-44, ,
2, ,-44, ,
2, ,-45, ,
2, ,-43, ,
3, ,-44, ,
2, ,-44, ,
2, ,-44, ,
2, ,-44, ,
2, ,-44, ,
1, ,-44, ,
3, ,-44, ,
2, ,-45, ,
2, ,-44, ,
2, ,-44, ,
2, ,-45, ,
1, ,-43, ,
2, ,-44, ,
2, ,-45, ,
2, ,-44, ,
2, ,-44, ,
2, ,-44, ,
1, ,-44, ,
3, ,-44, ,
1, ,-44, ,
2, ,-44, ,
3, ,-44, ,
2, ,-45, ,
1, ,-43, ,
3, ,-44, ,
2, ,-45, ,
2, ,-44, ,
2, ,-44, ,
2, ,-44, ,
1, ,-44, ,
2, ,-44, ,
2, ,-44, ,
1, ,-44, ,
2, ,-44, ,
2, ,-45, ,
1, ,-43, ,
3, ,-44, ,
1, ,-45, ,
2, ,-44, ,
2, ,-44, ,
2, ,-44, ,
1, ,-44, ,
2, ,-44, ,
2, ,-44, ,
2, ,-44, ,
2, ,-44, ,
2, ,-45, ,
1, ,-43, ,
2, ,-44, ,
1, ,-45, ,
1, ,-44, ,
2, ,-44, ,
2, ,-44, ,
1, ,-44, ,
2, ,-44, ,
1, ,-44, ,
2, ,-44, ,
2, ,-44, ,
2, ,-44, ,
1, ,-43, ,
2, ,-44, ,
1, ,-44, ,
1, ,-44, ,
2, ,-44, ,
2, ,-44, ,
1, ,-44, ,
2, ,-44, ,
1, ,-44, ,
1, ,-44, ,
2, ,-44, ,
2, ,-45, ,
1, ,-43, ,
2, ,-44, ,
1, ,-45, ,
2, ,-44, ,
2, ,-44, ,
2, ,-44, ,
1, ,-44, ,
2, ,-44, ,
1, ,-44, ,
2, ,-44, ,
2, ,-44, ,
2, ,-45, ,
1, ,-43, ,
2, ,-44, ,
1, ,-45, ,
1, ,-44, ,
2, ,-43, ,
2, ,-45, ,
1, ,-44, ,
2, ,-44, ,
1, ,-44, ,
1, ,-44, ,
2, ,-44, ,
2, ,-45, ,
1, ,-43, ,
2, ,-44, ,
1, ,-45, ,
1, ,-44, ,
2, ,-44, ,
2, ,-45, ,
1, ,-43, ,
2, ,-44, ,
1, ,-44, ,
2, ,-44, ,
2, ,-44, ,
2, ,-45, ,
1, ,-43, ,
43, ,-44, ,
29, ,-44, ,
18, ,-44, ,
13, ,-44, ,
10, ,-44, ,
6, ,-44, ,
6, ,-44, ,
3, ,-44, ,
3, ,-44, ,
3, ,-44, ,
3, ,-45, ,
2, ,-43, ,
3, ,-44, ,
2, ,-45, ,
2, ,-44, ,
3, ,-44, ,
3, ,-44, ,
2, ,-44, ,
3, ,-44, ,
2, ,-44, ,
2, ,-44, ,
2, ,-44, ,
3, ,-45, ,
2, ,-43, ,
3, ,-44, ,
2, ,-44, ,
2, ,-44, ,
2, ,-44, ,
3, ,-45, ,
2, ,-44, ,
3, ,-44, ,
2, ,-45, ,
2, ,-44, ,
2, ,-44, ,
3, ,-45, ,
2, ,-43, ,
3, ,-44, ,
2, ,-45, ,
2, ,-44, ,
2, ,-43, ,
3, ,-45, ,
2, ,-44, ,
3, ,-44, ,
2, ,-44, ,
2, ,-44, ,
3, ,-44, ,
3, ,-45, ,
2, ,-43, ,
3, ,-44, ,
2, ,-45, ,
2, ,-44, ,
2, ,-44, ,
3, ,-44, ,
1, ,-44, ,
3, ,-44, ,
2, ,-44, ,
2, ,-44, ,
2, ,-44, ,
2, ,-45, ,
1, ,-43, ,
3, ,-44, ,
2, ,-44, ,
2, ,-44, ,
2, ,-44, ,
2, ,-44, ,
1, ,-44, ,
2, ,-44, ,
2, ,-44, ,
2, ,-44, ,
2, ,-44, ,
2, ,-45, ,
1, ,-43, ,
3, ,-44, ,
2, ,-45, ,
2, ,-44, ,
2, ,-44, ,
2, ,-44, ,
1, ,-44, ,
3, ,-44, ,
2, ,-44, ,
2, ,-44, ,
2, ,-44, ,
2, ,-45, ,
2, ,-43, ,
3, ,-44, ,
2, ,-45, ,
2, ,-44, ,
2, ,-44, ,
2, ,-44, ,
1, ,-44, ,
3, ,-44, ,
2, ,-45, ,
2, ,-44, ,
2, ,-44, ,
2, ,-45, ,
1, ,-43, ,
3, ,-44, ,
2, ,-45, ,
2, ,-44, ,
2, ,-44, ,
2, ,-44, ,
1, ,-44, ,
2, ,-44, ,
2, ,-44, ,
1, ,-44, ,
2, ,-44, ,
2, ,-45, ,
1, ,-43, ,
3, ,-44, ,
2, ,-45, ,
2, ,-44, ,
2, ,-44, ,
2, ,-44, ,
1, ,-44, ,
2, ,-44, ,
2, ,-44, ,
1, ,-44, ,
2, ,-44, ,
2, ,-45, ,
1, ,-43, ,
2, ,-44, ,
2, ,-44, ,
2, ,-44, ,
2, ,-44, ,
2, ,-44, ,
1, ,-44, ,
2, ,-44, ,
2, ,-44, ,
2, ,-44, ,
2, ,-44, ,
2, ,-45, ,
1, ,-43, ,
2, ,-44, ,
2, ,-44, ,
2, ,-44, ,
2, ,-44, ,
2, ,-44, ,
1, ,-44, ,
2, ,-44, ,
2, ,-44, ,
2, ,-44, ,
2, ,-44, ,
2, ,-45, ,
1, ,-43, ,
2, ,-44, ,
2, ,-45, ,
2, ,-44, ,
2, ,-44, ,
2, ,-44, ,
1, ,-44, ,
2, ,-44, ,
1, ,-44, ,
2, ,-44, ,
2, ,-44, ,
2, ,-45, ,
1, ,-43, ,
2, ,-44, ,
2, ,-44, ,
2, ,-44, ,
2, ,-43, ,
2, ,-45, ,
1, ,-44, ,
2, ,-44, ,
2, ,-44, ,
2, ,-44, ,
2, ,-44, ,
2, ,-45, ,
1, ,-43, ,
2, ,-44, ,
1, ,-44, ,
2, ,-44, ,
2, ,-44, ,
2, ,-44, ,
1, ,-44, ,
2, ,-44, ,
1, ,-44, ,
2, ,-44, ,
2, ,-44, ,
2, ,-45, ,
1, ,-43, ,
2, ,-44, ,
1, ,-45, ,
2, ,-44, ,
2, ,-44, ,
2, ,-44, ,
1, ,-44, ,
2, ,-44, ,
1, ,-45, ,
2, ,-44, ,
2, ,-44, ,
2, ,-45, ,
1, ,-43, ,
2, ,-44, ,
1, ,-45, ,
2, ,-44, ,
2, ,-44, ,
1, ,-44, ,
1, ,-44, ,
2, ,-44, ,
1, ,-44, ,
2, ,-44, ,
2, ,-44, ,
2, ,-45, ,
1, ,-43, ,
2, ,-44, ,
1, ,-45, ,
2, ,-44, ,
2, ,-44, ,
2, ,-44, ,
1, ,-44, ,
2, ,-44, ,
1, ,-44, ,
1, ,-44, ,
2, ,-44, ,
2, ,-45, ,
1, ,-43, ,
2, ,-44, ,
1, ,-44, ,
1, ,-44, ,
2, ,-44, ,
2, ,-44, ,
1, ,-44, ,
2, ,-44, ,
1, ,-45, ,
1, ,-44, ,
2, ,-44, ,
1, ,-45, ,
1, ,-43, ,
2, ,-44, ,
1, ,-45, ,
1, ,-44, ,
2, ,-44, ,
2, ,-45, ,
1, ,-44, ,
2, ,-44, ,
1, ,-44, ,
1, ,-44, ,
2, ,-44, ,
2, ,-45, ,
1, ,-43, ,
2, ,-44, ,
1, ,-45, ,
1, ,-44, ,
2, ,-44, ,
2, ,-44, ,
1, ,-44, ,
2, ,-44, ,
1, ,-45, ,
2, ,-44, ,
2, ,-44, ,
2, ,-45, ,
1, ,-44, ,
2, ,-44, ,
1, ,-45, ,
1, ,-45, ,
2, ,-44, ,
2, ,-44, ,
1, ,-44, ,
2, ,-44, ,
1, ,-44, ,
1, ,-44, ,
2, ,-44, ,
2, ,-45, ,
1, ,-43, ,
2, ,-44, ,
1, ,-45, ,
1, ,-44, ,
2, ,-44, ,
2, ,-44, ,
1, ,-44, ,
2, ,-44, ,
1, ,-44, ,
1, ,-44, ,
2, ,-44, ,
2, ,-45, ,
1, ,-43, ,
2, ,-44, ,
1, ,-45, ,
2, ,-44, ,
2, ,-44, ,
2, ,-44, ,
1, ,-44, ,
2, ,-44, ,
1, ,-45, ,
2, ,-44, ,
2, ,-44, ,
2, ,-45, ,
1, ,-43, ,
2, ,-44, ,
1, ,-45, ,
1, ,-44, ,
2, ,-44, ,
2, ,-45, ,
1, ,-44, ,
2, ,-44, ,
1, ,-44, ,
2, ,-44, ,
2, ,-44, ,
2, ,-45, ,
1, ,-43, ,
2, ,-44, ,
1, ,-44, ,
1, ,-44, ,
2, ,-44, ,
1, ,-45, ,
1, ,-44, ,
2, ,-44, ,
1, ,-32, ,
2, ,-12, ,
2, ,4, ,
1, ,15, ,
1, ,23, ,
2, ,31, ,
1, ,36, ,
1, ,39, ,
2, ,41, ,
2, ,43, ,
1, ,44, ,
2, ,46, ,
1, ,47, ,
1, ,47, ,
2, ,47, ,
1, ,49, ,
1, ,47, ,
2, ,49, ,
1, ,50, ,
1, ,49, ,
2, ,49, ,
2, ,50, ,
-1, ,49, ,
2, ,49, ,
1, ,50, ,
1, ,49, ,
2, ,49, ,
1, ,50, ,
1, ,47, ,
2, ,49, ,
1, ,50, ,
1, ,49, ,
2, ,49, ,
1, ,50, ,
-1, ,49, ,
2, ,49, ,
1, ,50, ,
1, ,49, ,
1, ,49, ,
1, ,50, ,
1, ,47, ,
2, ,49, ,
1, ,49, ,
1, ,49, ,
1, ,49, ,
2, ,49, ,
1, ,47, ,
2, ,49, ,
1, ,49, ,
1, ,49, ,
2, ,49, ,
2, ,49, ,
1, ,47, ,
2, ,49, ,
1, ,49, ,
1, ,49, ,
2, ,49, ,
1, ,49, ,
1, ,47, ,
2, ,49, ,
1, ,49, ,
1, ,49, ,
2, ,49, ,
1, ,49, ,
-1, ,47, ,
2, ,49, ,
1, ,49, ,
1, ,49, ,
1, ,49, ,
1, ,49, ,
1, ,47, ,
2, ,49, ,
1, ,49, ,
1, ,49, ,
2, ,49, ,
1, ,49, ,
1, ,47, ,
2, ,49, ,
1, ,49, ,
1, ,49, ,
2, ,49, ,
1, ,49, ,
-1, ,47, ,
2, ,49, ,
1, ,49, ,
1, ,49, ,
1, ,49, ,
1, ,49, ,
1, ,47, ,
2, ,49, ,
1, ,49, ,
1, ,49, ,
2, ,49, ,
2, ,49, ,
1, ,47, ,
2, ,49, ,
1, ,49, ,
1, ,47, ,
1, ,49, ,
1, ,49, ,
1, ,47, ,
2, ,47, ,
1, ,49, ,
1, ,47, ,
1, ,49, ,
1, ,49, ,
-1, ,47, ,
2, ,49, ,
1, ,49, ,
1, ,49, ,
2, ,49, ,
2, ,49, ,
1, ,47, ,
2, ,49, ,
1, ,49, ,
1, ,49, ,
2, ,47, ,
1, ,49, ,
-1, ,47, ,
2, ,49, ,
1, ,49, ,
1, ,47, ,
1, ,49, ,
1, ,49, ,
-1, ,47, ,
2, ,49, ,
1, ,49, ,
1, ,49, ,
1, ,49, ,
1, ,49, ,
-1, ,47, ,
2, ,49, ,
1, ,49, ,
1, ,49, ,
1, ,47, ,
2, ,49, ,
1, ,47, ,
2, ,47, ,
1, ,49, ,
1, ,49, ,
2, ,47, ,
1, ,49, ,
-1, ,47, ,
2, ,49, ,
1, ,49, ,
1, ,47, ,
2, ,49, ,
1, ,49, ,
-1, ,47, ,
2, ,49, ,
1, ,49, ,
1, ,49, ,
1, ,47, ,
1, ,49, ,
-1, ,41, ,
2, ,22, ,
1, ,5, ,
1, ,-7, ,
1, ,-17, ,
1, ,-24, ,
-1, ,-30, ,
2, ,-34, ,
-1, ,-37, ,
-1, ,-39, ,
1, ,-40, ,
2, ,-42, ,
-1, ,-42, ,
1, ,-43, ,
1, ,-44, ,
1, ,-44, ,
2, ,-44, ,
1, ,-45, ,
-1, ,-44, ,
2, ,-45, ,
1, ,-45, ,
1, ,-45, ,
2, ,-44, ,
1, ,-45, ,
-1, ,-44, ,
1, ,-45, ,
1, ,-45, ,
1, ,-45, ,
1, ,-45, ,
1, ,-45, ,
-1, ,-44, ,
2, ,-45, ,
1, ,-45, ,
1, ,-45, ,
1, ,-44, ,
2, ,-45, ,
-1, ,-45, ,
2, ,-45, ,
1, ,-45, ,
1, ,-45, ,
2, ,-45, ,
1, ,-45, ,
-1, ,-44, ,
2, ,-44, ,
-1, ,-45, ,
1, ,-45, ,
2, ,-44, ,
1, ,-45, ,
-1, ,-44, ,
2, ,-45, ,
1, ,-45, ,
1, ,-45, ,
1, ,-44, ,
1, ,-45, ,
-1, ,-44, ,
2, ,-44, ,
1, ,-45, ,
1, ,-44, ,
1, ,-44, ,
1, ,-45, ,
-1, ,-44, ,
2, ,-45, ,
1, ,-45, ,
1, ,-44, ,
1, ,-44, ,
1, ,-45, ,
-1, ,-43, ,
2, ,-44, ,
1, ,-45, ,
1, ,-44, ,
2, ,-44, ,
1, ,-45, ,
-1, ,-44, ,
2, ,-44, ,
1, ,-45, ,
1, ,-44, ,
1, ,-44, ,
1, ,-45, ,
-1, ,-43, ,
2, ,-44, ,
1, ,-45, ,
1, ,-44, ,
2, ,-44, ,
2, ,-45, ,
-1, ,-44, ,
2, ,-44, ,
1, ,-44, ,
1, ,-44, ,
1, ,-44, ,
1, ,-45, ,
-1, ,-44, ,
2, ,-44, ,
1, ,-45, ,
1, ,-44, ,
1, ,-44, ,
1, ,-44, ,
-1, ,-44, ,
2, ,-44, ,
1, ,-45, ,
1, ,-44, ,
1, ,-44, ,
1, ,-45, ,
-1, ,-43, ,
2, ,-44, ,
1, ,-45, ,
1, ,-44, ,
2, ,-44, ,
1, ,-44, ,
-1, ,-44, ,
2, ,-44, ,
1, ,-44, ,
1, ,-44, ,
2, ,-44, ,
1, ,-45, ,
-1, ,-43, ,
2, ,-44, ,
1, ,-45, ,
1, ,-44, ,
1, ,-44, ,
1, ,-44, ,
-1, ,-44, ,
2, ,-44, ,
1, ,-44, ,
1, ,-44, ,
1, ,-44, ,
1, ,-45, ,
-1, ,-43, ,
2, ,-44, ,
1, ,-44, ,
1, ,-45, ,
1, ,-44, ,
1, ,-45, ,
-1, ,-44, ,
2, ,-44, ,
1, ,-45, ,
1, ,-44, ,
1, ,-44, ,
1, ,-45, ,
-1, ,-43, ,
2, ,-44, ,
1, ,-45, ,
1, ,-44, ,
1, ,-44, ,
1, ,-45, ,
-1, ,-43, ,
1, ,-45, ,
1, ,-45, ,
1, ,-44, ,
1, ,-44, ,
1, ,-45, ,
-1, ,-43, ,
1, ,-44, ,
1, ,-45, ,
-1, ,-44, ,
1, ,-44, ,
1, ,-45, ,
-1, ,-43, ,
2, ,-44, ,
1, ,-44, ,
1, ,-44, ,
1, ,-44, ,
1, ,-45, ,
-1, ,-43, ,
2, ,-44, ,
-1, ,-45, ,
1, ,-44, ,
1, ,-44, ,
1, ,-44, ,
-1, ,-44, ,
2, ,-44, ,
1, ,-44, ,
1, ,-44, ,
1, ,-44, ,
1, ,-45, ,
-1, ,-43, ,
1, ,-44, ,
1, ,-45, ,
1, ,-44, ,
1, ,-44, ,
1, ,-44, ,
-1, ,-44, ,
2, ,-44, ,
1, ,-44, ,
1, ,-44, ,
1, ,-44, ,
1, ,-45, ,
-1, ,-43, ,
1, ,-44, ,
1, ,-45, ,
1, ,-44, ,
1, ,-44, ,
1, ,-44, ,
-1, ,-43, ,
1, ,-44, ,
1, ,-44, ,
1, ,-44, ,
1, ,-44, ,
1, ,-45, ,
-1, ,-43, ,
2, ,-44, ,
1, ,-44, ,
1, ,-44, ,
1, ,-44, ,
1, ,-44, ,
-1, ,-43, ,
2, ,-44, ,
1, ,-44, ,
1, ,-44, ,
1, ,-44, ,
1, ,-45, ,
-1, ,-43, ,
2, ,-44, ,
1, ,-44, ,
1, ,-44, ,
1, ,-44, ,
1, ,-44, ,
-1, ,-44, ,
2, ,-44, ,
1, ,-45, ,
1, ,-44, ,
2, ,-44, ,
1, ,-45, ,
-1, ,-43, ,
1, ,-44, ,
1, ,-45, ,
1, ,-44, ,
1, ,-44, ,
1, ,-44, ,
-1, ,-44, ,
2, ,-44, ,
1, ,-44, ,
1, ,-44, ,
1, ,-44, ,
1, ,-45, ,
-1, ,-43, ,
1, ,-44, ,
1, ,-44, ,
1, ,-44, ,
1, ,-44, ,
1, ,-44, ,
-1, ,-44, ,
2, ,-44, ,
1, ,-44, ,
1, ,-44, ,
1, ,-44, ,
2, ,-45, ,
-1, ,-43, ,
2, ,-44, ,
1, ,-44, ,
1, ,-44, ,
1, ,-44, ,
1, ,-45, ,
-1, ,-44, ,
2, ,-44, ,
1, ,-44, ,
1, ,-44, ,
1, ,-44, ,
1, ,-45, ,
-1, ,-43, ,
2, ,-44, ,
1, ,-44, ,
1, ,-44, ,
1, ,-44, ,
1, ,-44, ,
-1, ,-44, ,
2, ,-44, ,
1, ,-44, ,
1, ,-44, ,
1, ,-44, ,
1, ,-44, ,
-1, ,-43, ,
1, ,-44, ,
1, ,-44, ,
1, ,-44, ,
1, ,-44, ,
1, ,-44, ,
-1, ,-44, ,
1, ,-44, ,
1, ,-44, ,
1, ,-44, ,
1, ,-44, ,
1, ,-45, ,
-1, ,-43, ,
2, ,-44, ,
-1, ,-45, ,
1, ,-44, ,
1, ,-44, ,
1, ,-44, ,
-1, ,-44, ,
1, ,-44, ,
1, ,-44, ,
1, ,-44, ,
1, ,-44, ,
1, ,-45, ,
-1, ,-43, ,
1, ,-44, ,
-1, ,-45, ,
1, ,-44, ,
1, ,-44, ,
1, ,-44, ,
-1, ,-44, ,
1, ,-44, ,
1, ,-44, ,
1, ,-44, ,
1, ,-44, ,
1, ,-44, ,
-1, ,-43, ,
1, ,-44, ,
1, ,-44, ,
1, ,-44, ,
1, ,-44, ,
1, ,-44, ,
-1, ,-44, ,
1, ,-44, ,
-1, ,-44, ,
1, ,-44, ,
1, ,-44, ,
1, ,-45, ,
-1, ,-43, ,
1, ,-44, ,
1, ,-44, ,
-1, ,-44, ,
1, ,-44, ,
1, ,-44, ,
-1, ,-44, ,
1, ,-44, ,
1, ,-44, ,
1, ,-44, ,
1, ,-44, ,
1, ,-45, ,
-1, ,-43, ,
2, ,-44, ,
1, ,-44, ,
1, ,-44, ,
1, ,-44, ,
1, ,-44, ,
-1, ,-44, ,
1, ,-44, ,
1, ,-44, ,
1, ,-44, ,
1, ,-44, ,
1, ,-45, ,
-1, ,-43, ,
2, ,-44, ,
1, ,-44, ,
1, ,-44, ,
1, ,-44, ,
1, ,-44, ,
-1, ,-44, ,
2, ,-44, ,
1, ,-44, ,
1, ,-44, ,
1, ,-44, ,
1, ,-45, ,
-1, ,-44, ,
2, ,-44, ,
1, ,-44, ,
1, ,-44, ,
1, ,-44, ,
1, ,-44, ,
-1, ,-44, ,
1, ,-44, ,
1, ,-44, ,
1, ,-44, ,
1, ,-44, ,
1, ,-45, ,
-1, ,-43, ,
2, ,-44, ,
1, ,-45, ,
1, ,-44, ,
1, ,-44, ,
1, ,-44, ,
-1, ,-44, ,
2, ,-44, ,
1, ,-44, ,
1, ,-44, ,
1, ,-44, ,
1, ,-45, ,
-1, ,-43, ,
2, ,-44, ,
1, ,-44, ,
1, ,-44, ,
1, ,-44, ,
1, ,-44, ,
-1, ,-44, ,
2, ,-44, ,
1, ,-44, ,
1, ,-44, ,
1, ,-44, ,
1, ,-45, ,
-1, ,-43, ,
2, ,-44, ,
1, ,-44, ,
1, ,-44, ,
1, ,-44, ,
1, ,-44, ,
-1, ,-44, ,
2, ,-44, ,
1, ,-44, ,
1, ,-44, ,
1, ,-44, ,
1, ,-45, ,
-1, ,-44, ,
2, ,-44, ,
1, ,-44, ,
1, ,-44, ,
1, ,-44, ,
1, ,-44, ,
-1, ,-43, ,
1, ,-44, ,
1, ,-44, ,
1, ,-44, ,
1, ,-44, ,
1, ,-45, ,
-1, ,-43, ,
2, ,-44, ,
1, ,-44, ,
1, ,-44, ,
1, ,-44, ,
1, ,-44, ,
-1, ,-44, ,
1, ,-44, ,
1, ,-44, ,
1, ,-44, ,
1, ,-44, ,
1, ,-45, ,
-1, ,-43, ,
1, ,-44, ,
-1, ,-44, ,
1, ,-44, ,
1, ,-44, ,
1, ,-45, ,
-1, ,-44, ,
1, ,-44, ,
1, ,-44, ,
1, ,-44, ,
1, ,-44, ,
1, ,-45, ,
-1, ,-43, ,
1, ,-44, ,
-1, ,-44, ,
1, ,-44, ,
1, ,-44, ,
1, ,-45, ,
-1, ,-44, ,
1, ,-44, ,
-1, ,-44, ,
1, ,-44, ,
1, ,-44, ,
1, ,-45, ,
-1, ,-44, ,
1, ,-44, ,
1, ,-44, ,
1, ,-44, ,
1, ,-44, ,
1, ,-44, ,
-1, ,-44, ,
1, ,-44, ,
1, ,-44, ,
1, ,-44, ,
1, ,-44, ,
1, ,-45, ,
-1, ,-43, ,
1, ,-44, ,
-1, ,-44, ,
1, ,-44, ,
1, ,-44, ,
1, ,-45, ,
-1, ,-44, ,
2, ,-44, ,
1, ,-44, ,
-1, ,-44, ,
1, ,-44, ,
1, ,-45, ,
-1, ,-43, ,
2, ,-44, ,
1, ,-44, ,
1, ,-44, ,
1, ,-44, ,
1, ,-44, ,
-1, ,-44, ,
2, ,-44, ,
1, ,-44, ,
1, ,-44, ,
1, ,-44, ,
1, ,-45, ,
-1, ,-43, ,
1, ,-44, ,
-1, ,-44, ,
1, ,-44, ,
1, ,-44, ,
1, ,-44, ,
-1, ,-44, ,
1, ,-44, ,
1, ,-44, ,
-1, ,-44, ,
