src/varyamp_1560/temp0000483.CSV

Format,1.0B,
Memory Length,10000,Memory Length,10000,
IntpDistance,0,IntpDistance,0,
Trigger Address,4999,Trigger Address,4999,
Trigger Level,1.040E+00,Trigger Level,1.040E+00,
Source,CH1,Source,CH2,
Vertical Units,V,Vertical Units,V,
Vertical Units Div,0,Vertical Units Div,0,
Vertical Units Extend Div,16,Vertical Units Extend Div,16,
Label,,Label,,
Probe Type,0,Probe Type,0,
Probe Ratio,1.000e+01,Probe Ratio,1.000e+00,
Vertical Scale,5.000e-01,Vertical Scale,1.000e+00,
Vertical Position,-1.820e+00,Vertical Position,0.000e+00,
Horizontal Units,S,Horizontal Units,S,
Horizontal Scale,2.000E-05,Horizontal Scale,2.000E-05,
Horizontal Position,0.000E+00,Horizontal Position,0.000E+00,
Horizontal Mode,Main,Horizontal Mode,Main,
SincET Mode,Real Time,SincET Mode,Real Time,
Sampling Period,2.000e-08,Sampling Period,2.000e-08,
Horizontal Old Scale,2.000E-05,Horizontal Old Scale,2.000E-05,
Horizontal Old Position,0.000E+00,Horizontal Old Position,0.000E+00,
Firmware,V1.23,Firmware,V1.23,
Mode,Fast,Mode,Fast,
Waveform Data,,Waveform Data,,
-1, ,-63, ,
-1, ,-63, ,
1, ,-62, ,
1, ,-62, ,
-1, ,-62, ,
1, ,-63, ,
-1, ,-62, ,
-1, ,-62, ,
1, ,-63, ,
1, ,-63, ,
-1, ,-63, ,
1, ,-63, ,
-1, ,-63, ,
-1, ,-63, ,
1, ,-62, ,
1, ,-63, ,
-1, ,-63, ,
1, ,-63, ,
1, ,-62, ,
-1, ,-62, ,
1, ,-63, ,
1, ,-62, ,
-1, ,-62, ,
1, ,-63, ,
-1, ,-62, ,
1, ,-63, ,
1, ,-63, ,
1, ,-62, ,
-1, ,-63, ,
1, ,-63, ,
-1, ,-62, ,
-1, ,-63, ,
1, ,-63, ,
1, ,-63, ,
-1, ,-63, ,
1, ,-63, ,
-1, ,-63, ,
-1, ,-63, ,
1, ,-63, ,
1, ,-63, ,
-1, ,-63, ,
1, ,-63, ,
1, ,-63, ,
-1, ,-63, ,
1, ,-63, ,
1, ,-63, ,
-1, ,-63, ,
1, ,-63, ,
-1, ,-63, ,
-1, ,-63, ,
1, ,-63, ,
1, ,-63, ,
-1, ,-63, ,
1, ,-63, ,
-1, ,-62, ,
-1, ,-63, ,
1, ,-63, ,
1, ,-63, ,
-1, ,-62, ,
1, ,-63, ,
1, ,-62, ,
-1, ,-63, ,
1, ,-63, ,
1, ,-63, ,
-1, ,-63, ,
1, ,-63, ,
-1, ,-62, ,
1, ,-63, ,
2, ,-63, ,
1, ,-63, ,
-1, ,-63, ,
1, ,-63, ,
-1, ,-62, ,
-1, ,-63, ,
1, ,-63, ,
1, ,-63, ,
-1, ,-63, ,
1, ,-63, ,
-1, ,-62, ,
-1, ,-63, ,
1, ,-63, ,
1, ,-62, ,
-1, ,-63, ,
1, ,-63, ,
-1, ,-63, ,
-1, ,-63, ,
1, ,-63, ,
1, ,-63, ,
-1, ,-63, ,
1, ,-63, ,
-1, ,-62, ,
-1, ,-62, ,
1, ,-63, ,
1, ,-63, ,
-1, ,-62, ,
1, ,-63, ,
-1, ,-62, ,
-1, ,-62, ,
1, ,-63, ,
1, ,-62, ,
-1, ,-62, ,
1, ,-63, ,
-1, ,-62, ,
-1, ,-63, ,
1, ,-63, ,
1, ,-63, ,
-1, ,-62, ,
1, ,-63, ,
-1, ,-63, ,
-1, ,-63, ,
1, ,-63, ,
1, ,-63, ,
-1, ,-63, ,
1, ,-63, ,
-1, ,-62, ,
-1, ,-63, ,
1, ,-62, ,
1, ,-62, ,
-1, ,-62, ,
1, ,-63, ,
-1, ,-63, ,
-1, ,-63, ,
1, ,-62, ,
1, ,-63, ,
-1, ,-63, ,
1, ,-63, ,
-1, ,-62, ,
-1, ,-63, ,
1, ,-63, ,
1, ,-63, ,
-1, ,-63, ,
1, ,-63, ,
-1, ,-62, ,
-1, ,-63, ,
1, ,-63, ,
1, ,-63, ,
-1, ,-62, ,
1, ,-63, ,
-1, ,-62, ,
-1, ,-63, ,
1, ,-63, ,
1, ,-63, ,
-1, ,-63, ,
1, ,-63, ,
-1, ,-63, ,
-1, ,-63, ,
1, ,-63, ,
1, ,-62, ,
-1, ,-63, ,
1, ,-63, ,
-1, ,-62, ,
-1, ,-63, ,
1, ,-63, ,
1, ,-62, ,
-1, ,-62, ,
1, ,-63, ,
-1, ,-63, ,
-1, ,-63, ,
1, ,-63, ,
1, ,-63, ,
-1, ,-63, ,
1, ,-63, ,
-1, ,-62, ,
-1, ,-63, ,
1, ,-63, ,
2, ,-63, ,
-1, ,-63, ,
1, ,-63, ,
-1, ,-63, ,
-1, ,-63, ,
1, ,-63, ,
1, ,-62, ,
-1, ,-63, ,
1, ,-63, ,
1, ,-62, ,
-1, ,-63, ,
1, ,-63, ,
1, ,-63, ,
-1, ,-62, ,
1, ,-63, ,
-1, ,-63, ,
-1, ,-63, ,
1, ,-63, ,
1, ,-62, ,
-1, ,-63, ,
1, ,-63, ,
1, ,-62, ,
-1, ,-62, ,
1, ,-63, ,
1, ,-63, ,
-1, ,-63, ,
1, ,-63, ,
-1, ,-63, ,
-1, ,-62, ,
1, ,-62, ,
1, ,-63, ,
-1, ,-63, ,
1, ,-63, ,
-1, ,-62, ,
-1, ,-63, ,
1, ,-63, ,
1, ,-63, ,
-1, ,-63, ,
1, ,-63, ,
-1, ,-63, ,
-1, ,-63, ,
1, ,-63, ,
1, ,-63, ,
-1, ,-63, ,
1, ,-63, ,
-1, ,-62, ,
-1, ,-63, ,
1, ,-63, ,
1, ,-63, ,
-1, ,-62, ,
1, ,-63, ,
-1, ,-63, ,
-1, ,-63, ,
1, ,-63, ,
1, ,-63, ,
-1, ,-63, ,
1, ,-63, ,
-1, ,-62, ,
-1, ,-63, ,
1, ,-63, ,
1, ,-63, ,
-1, ,-62, ,
1, ,-63, ,
-1, ,-62, ,
-1, ,-63, ,
1, ,-63, ,
1, ,-63, ,
-1, ,-63, ,
1, ,-63, ,
-1, ,-63, ,
-1, ,-63, ,
-1, ,-63, ,
1, ,-63, ,
-1, ,-62, ,
1, ,-63, ,
-1, ,-63, ,
-1, ,-62, ,
1, ,-63, ,
1, ,-63, ,
-1, ,-63, ,
1, ,-63, ,
-1, ,-62, ,
-1, ,-63, ,
1, ,-63, ,
1, ,-63, ,
-1, ,-63, ,
1, ,-63, ,
-1, ,-63, ,
-1, ,-63, ,
1, ,-63, ,
1, ,-63, ,
-1, ,-63, ,
1, ,-63, ,
-1, ,-62, ,
-1, ,-63, ,
1, ,-63, ,
1, ,-63, ,
-1, ,-63, ,
1, ,-63, ,
-1, ,-63, ,
-1, ,-63, ,
1, ,-63, ,
1, ,-63, ,
-1, ,-63, ,
1, ,-63, ,
-1, ,-63, ,
-1, ,-63, ,
1, ,-63, ,
1, ,-62, ,
-1, ,-63, ,
1, ,-63, ,
-1, ,-63, ,
-1, ,-63, ,
1, ,-63, ,
1, ,-62, ,
-1, ,-63, ,
1, ,-63, ,
1, ,-62, ,
-1, ,-63, ,
1, ,-63, ,
1, ,-63, ,
-1, ,-63, ,
1, ,-63, ,
-1, ,-63, ,
-1, ,-63, ,
1, ,-63, ,
1, ,-63, ,
-1, ,-63, ,
1, ,-63, ,
-1, ,-62, ,
-1, ,-63, ,
1, ,-63, ,
1, ,-62, ,
-1, ,-63, ,
1, ,-63, ,
-1, ,-63, ,
-1, ,-61, ,
1, ,-44, ,
1, ,-25, ,
-1, ,-11, ,
1, ,0, ,
1, ,8, ,
-1, ,14, ,
1, ,18, ,
1, ,21, ,
-1, ,23, ,
1, ,25, ,
-1, ,27, ,
-1, ,27, ,
1, ,28, ,
1, ,30, ,
-1, ,30, ,
2, ,30, ,
-1, ,31, ,
-1, ,30, ,
1, ,31, ,
1, ,31, ,
-1, ,31, ,
2, ,31, ,
-1, ,31, ,
-1, ,31, ,
1, ,31, ,
1, ,31, ,
-1, ,31, ,
2, ,31, ,
-1, ,31, ,
-1, ,31, ,
1, ,31, ,
1, ,31, ,
-1, ,30, ,
1, ,31, ,
-1, ,30, ,
-1, ,30, ,
1, ,30, ,
1, ,31, ,
-1, ,30, ,
1, ,30, ,
-1, ,30, ,
-1, ,30, ,
1, ,30, ,
1, ,31, ,
-1, ,30, ,
1, ,30, ,
-1, ,30, ,
-1, ,30, ,
1, ,30, ,
1, ,30, ,
-1, ,30, ,
1, ,30, ,
-1, ,30, ,
-1, ,30, ,
1, ,30, ,
1, ,30, ,
-1, ,30, ,
1, ,31, ,
-1, ,30, ,
-1, ,30, ,
1, ,30, ,
1, ,30, ,
-1, ,30, ,
1, ,30, ,
-1, ,30, ,
-1, ,30, ,
1, ,30, ,
1, ,30, ,
-1, ,30, ,
1, ,30, ,
-1, ,30, ,
-1, ,30, ,
1, ,30, ,
1, ,30, ,
-1, ,30, ,
1, ,30, ,
-1, ,30, ,
-1, ,30, ,
1, ,30, ,
1, ,30, ,
-1, ,30, ,
1, ,30, ,
-1, ,30, ,
-1, ,30, ,
1, ,30, ,
1, ,30, ,
-1, ,30, ,
1, ,30, ,
-1, ,30, ,
-1, ,30, ,
1, ,30, ,
1, ,31, ,
-1, ,30, ,
1, ,31, ,
-1, ,30, ,
-1, ,30, ,
1, ,30, ,
1, ,30, ,
-1, ,30, ,
1, ,30, ,
-1, ,30, ,
-1, ,30, ,
1, ,30, ,
1, ,30, ,
-1, ,30, ,
1, ,30, ,
-1, ,30, ,
-1, ,30, ,
1, ,30, ,
1, ,30, ,
-1, ,30, ,
1, ,30, ,
-1, ,30, ,
-1, ,30, ,
1, ,30, ,
1, ,30, ,
-1, ,30, ,
1, ,30, ,
-1, ,30, ,
-1, ,30, ,
1, ,30, ,
1, ,30, ,
-1, ,30, ,
2, ,30, ,
-1, ,30, ,
-1, ,30, ,
1, ,30, ,
1, ,31, ,
-1, ,30, ,
1, ,30, ,
-1, ,30, ,
-1, ,30, ,
1, ,30, ,
1, ,30, ,
-1, ,30, ,
2, ,30, ,
-1, ,30, ,
-1, ,30, ,
1, ,30, ,
1, ,30, ,
-1, ,30, ,
2, ,30, ,
-1, ,30, ,
-1, ,30, ,
1, ,30, ,
1, ,30, ,
-1, ,30, ,
2, ,30, ,
-1, ,30, ,
-1, ,30, ,
1, ,30, ,
1, ,31, ,
-1, ,30, ,
2, ,30, ,
-1, ,21, ,
-1, ,2, ,
1, ,-15, ,
1, ,-27, ,
-2, ,-36, ,
1, ,-44, ,
-1, ,-49, ,
-1, ,-53, ,
1, ,-56, ,
1, ,-58, ,
-1, ,-59, ,
1, ,-61, ,
-1, ,-61, ,
-1, ,-62, ,
1, ,-63, ,
1, ,-63, ,
-1, ,-63, ,
1, ,-64, ,
-1, ,-63, ,
-1, ,-64, ,
1, ,-63, ,
1, ,-63, ,
-1, ,-63, ,
1, ,-64, ,
-1, ,-63, ,
-1, ,-63, ,
1, ,-63, ,
1, ,-63, ,
-1, ,-63, ,
1, ,-64, ,
1, ,-63, ,
-1, ,-63, ,
1, ,-64, ,
1, ,-63, ,
-1, ,-63, ,
1, ,-63, ,
-1, ,-63, ,
-1, ,-63, ,
1, ,-63, ,
1, ,-63, ,
-1, ,-63, ,
1, ,-63, ,
-1, ,-62, ,
-1, ,-63, ,
1, ,-63, ,
1, ,-63, ,
-1, ,-63, ,
1, ,-63, ,
-1, ,-62, ,
-1, ,-63, ,
1, ,-63, ,
1, ,-63, ,
-1, ,-63, ,
1, ,-63, ,
-1, ,-62, ,
-1, ,-63, ,
1, ,-63, ,
1, ,-63, ,
-1, ,-63, ,
1, ,-63, ,
-1, ,-62, ,
-1, ,-63, ,
1, ,-62, ,
1, ,-63, ,
-1, ,-63, ,
1, ,-63, ,
-1, ,-62, ,
-1, ,-63, ,
1, ,-63, ,
1, ,-63, ,
-1, ,-63, ,
1, ,-63, ,
-1, ,-62, ,
-1, ,-63, ,
1, ,-63, ,
1, ,-63, ,
-1, ,-63, ,
1, ,-63, ,
-1, ,-62, ,
-1, ,-63, ,
1, ,-63, ,
1, ,-63, ,
-1, ,-62, ,
1, ,-63, ,
-1, ,-62, ,
-1, ,-62, ,
1, ,-62, ,
1, ,-63, ,
-1, ,-63, ,
1, ,-63, ,
-1, ,-62, ,
-1, ,-63, ,
1, ,-63, ,
1, ,-63, ,
-1, ,-62, ,
1, ,-63, ,
1, ,-62, ,
-1, ,-63, ,
1, ,-63, ,
1, ,-63, ,
91, ,-63, ,
55, ,-63, ,
34, ,-62, ,
22, ,-62, ,
15, ,-63, ,
11, ,-63, ,
6, ,-63, ,
6, ,-63, ,
3, ,-63, ,
3, ,-63, ,
3, ,-63, ,
3, ,-63, ,
2, ,-63, ,
3, ,-63, ,
2, ,-62, ,
2, ,-62, ,
3, ,-63, ,
3, ,-63, ,
2, ,-62, ,
3, ,-63, ,
2, ,-62, ,
2, ,-63, ,
2, ,-63, ,
3, ,-63, ,
2, ,-63, ,
3, ,-63, ,
2, ,-63, ,
2, ,-62, ,
2, ,-63, ,
3, ,-62, ,
1, ,-62, ,
3, ,-63, ,
2, ,-63, ,
2, ,-63, ,
2, ,-62, ,
3, ,-63, ,
1, ,-63, ,
3, ,-63, ,
2, ,-62, ,
2, ,-63, ,
2, ,-63, ,
3, ,-63, ,
2, ,-62, ,
3, ,-63, ,
2, ,-63, ,
2, ,-63, ,
2, ,-62, ,
3, ,-62, ,
1, ,-63, ,
3, ,-63, ,
2, ,-62, ,
2, ,-62, ,
2, ,-63, ,
3, ,-63, ,
1, ,-62, ,
2, ,-63, ,
2, ,-62, ,
2, ,-62, ,
2, ,-63, ,
3, ,-63, ,
1, ,-63, ,
3, ,-63, ,
2, ,-62, ,
2, ,-63, ,
2, ,-63, ,
3, ,-63, ,
1, ,-63, ,
3, ,-63, ,
2, ,-62, ,
2, ,-63, ,
2, ,-62, ,
3, ,-63, ,
1, ,-63, ,
2, ,-63, ,
2, ,-62, ,
2, ,-63, ,
2, ,-63, ,
2, ,-62, ,
1, ,-62, ,
2, ,-63, ,
2, ,-62, ,
2, ,-63, ,
2, ,-63, ,
3, ,-63, ,
1, ,-63, ,
2, ,-63, ,
2, ,-62, ,
2, ,-62, ,
2, ,-63, ,
2, ,-63, ,
1, ,-62, ,
3, ,-63, ,
2, ,-62, ,
2, ,-62, ,
2, ,-62, ,
2, ,-63, ,
1, ,-63, ,
2, ,-63, ,
2, ,-62, ,
1, ,-62, ,
2, ,-63, ,
2, ,-63, ,
1, ,-63, ,
2, ,-63, ,
1, ,-63, ,
1, ,-62, ,
2, ,-63, ,
2, ,-63, ,
1, ,-63, ,
2, ,-63, ,
2, ,-62, ,
2, ,-62, ,
2, ,-63, ,
3, ,-63, ,
1, ,-63, ,
2, ,-63, ,
2, ,-62, ,
1, ,-63, ,
2, ,-63, ,
2, ,-63, ,
1, ,-63, ,
2, ,-63, ,
2, ,-62, ,
1, ,-62, ,
2, ,-63, ,
2, ,-63, ,
1, ,-62, ,
2, ,-63, ,
2, ,-63, ,
1, ,-63, ,
2, ,-63, ,
2, ,-63, ,
1, ,-62, ,
2, ,-63, ,
2, ,-62, ,
1, ,-63, ,
2, ,-63, ,
2, ,-63, ,
1, ,-63, ,
2, ,-63, ,
2, ,-62, ,
1, ,-62, ,
2, ,-62, ,
2, ,-63, ,
1, ,-63, ,
2, ,-63, ,
2, ,-62, ,
1, ,-63, ,
2, ,-63, ,
2, ,-63, ,
1, ,-62, ,
2, ,-63, ,
1, ,-62, ,
2, ,-63, ,
2, ,-62, ,
2, ,-63, ,
1, ,-62, ,
2, ,-63, ,
2, ,-62, ,
2, ,-62, ,
2, ,-63, ,
2, ,-63, ,
1, ,-62, ,
3, ,-63, ,
2, ,-62, ,
1, ,-62, ,
2, ,-63, ,
2, ,-63, ,
1, ,-63, ,
2, ,-63, ,
2, ,-62, ,
1, ,-62, ,
2, ,-63, ,
2, ,-62, ,
1, ,-62, ,
2, ,-63, ,
2, ,-63, ,
1, ,-63, ,
2, ,-63, ,
2, ,-63, ,
1, ,-63, ,
2, ,-63, ,
2, ,-62, ,
1, ,-63, ,
2, ,-63, ,
2, ,-63, ,
1, ,-62, ,
2, ,-63, ,
2, ,-63, ,
1, ,-63, ,
2, ,-63, ,
2, ,-62, ,
1, ,-63, ,
2, ,-63, ,
2, ,-62, ,
1, ,-62, ,
2, ,-63, ,
2, ,-63, ,
1, ,-62, ,
2, ,-63, ,
1, ,-63, ,
1, ,-63, ,
2, ,-63, ,
2, ,-63, ,
1, ,-63, ,
2, ,-63, ,
2, ,-62, ,
2, ,-62, ,
2, ,-63, ,
2, ,-63, ,
1, ,-63, ,
3, ,-63, ,
1, ,-63, ,
1, ,-62, ,
2, ,-63, ,
2, ,-62, ,
1, ,-63, ,
2, ,-63, ,
1, ,-62, ,
2, ,-63, ,
2, ,-63, ,
2, ,-63, ,
1, ,-62, ,
2, ,-63, ,
1, ,-63, ,
1, ,-63, ,
2, ,-63, ,
2, ,-63, ,
1, ,-63, ,
2, ,-63, ,
2, ,-62, ,
1, ,-63, ,
2, ,-63, ,
2, ,-63, ,
1, ,-63, ,
2, ,-63, ,
1, ,-62, ,
1, ,-63, ,
2, ,-63, ,
2, ,-62, ,
1, ,-63, ,
2, ,-63, ,
1, ,-62, ,
1, ,-63, ,
2, ,-63, ,
2, ,-63, ,
1, ,-62, ,
2, ,-63, ,
2, ,-62, ,
1, ,-63, ,
2, ,-63, ,
2, ,-63, ,
1, ,-63, ,
2, ,-63, ,
1, ,-62, ,
1, ,-63, ,
2, ,-63, ,
2, ,-63, ,
1, ,-62, ,
2, ,-63, ,
1, ,-62, ,
1, ,-62, ,
2, ,-63, ,
2, ,-62, ,
1, ,-63, ,
2, ,-63, ,
1, ,-62, ,
1, ,-63, ,
2, ,-63, ,
2, ,-63, ,
1, ,-62, ,
2, ,-63, ,
1, ,-63, ,
1, ,-62, ,
2, ,-63, ,
2, ,-63, ,
1, ,-63, ,
2, ,-63, ,
1, ,-62, ,
1, ,-62, ,
2, ,-63, ,
2, ,-63, ,
1, ,-63, ,
2, ,-63, ,
1, ,-62, ,
1, ,-62, ,
2, ,-62, ,
2, ,-63, ,
1, ,-63, ,
2, ,-63, ,
1, ,-62, ,
1, ,-62, ,
2, ,-63, ,
2, ,-63, ,
1, ,-63, ,
2, ,-63, ,
1, ,-63, ,
1, ,-62, ,
2, ,-63, ,
2, ,-63, ,
1, ,-63, ,
2, ,-63, ,
1, ,-62, ,
1, ,-62, ,
2, ,-63, ,
2, ,-63, ,
1, ,-63, ,
2, ,-63, ,
1, ,-63, ,
1, ,-63, ,
2, ,-63, ,
2, ,-62, ,
1, ,-63, ,
2, ,-63, ,
2, ,-62, ,
1, ,-63, ,
2, ,-63, ,
2, ,-63, ,
1, ,-62, ,
2, ,-63, ,
1, ,-62, ,
1, ,-63, ,
2, ,-63, ,
2, ,-63, ,
1, ,-63, ,
2, ,-63, ,
1, ,-62, ,
1, ,-62, ,
2, ,-63, ,
2, ,-63, ,
1, ,-62, ,
2, ,-63, ,
1, ,-62, ,
1, ,-62, ,
2, ,-63, ,
1, ,-63, ,
-1, ,-63, ,
2, ,-63, ,
1, ,-62, ,
1, ,-63, ,
2, ,-63, ,
2, ,-63, ,
1, ,-62, ,
2, ,-63, ,
1, ,-63, ,
1, ,-63, ,
2, ,-63, ,
1, ,-63, ,
-1, ,-63, ,
2, ,-63, ,
1, ,-62, ,
1, ,-63, ,
1, ,-63, ,
2, ,-63, ,
-1, ,-63, ,
2, ,-63, ,
1, ,-63, ,
1, ,-63, ,
2, ,-63, ,
1, ,-63, ,
-1, ,-63, ,
2, ,-63, ,
1, ,-62, ,
1, ,-62, ,
1, ,-63, ,
1, ,-63, ,
1, ,-62, ,
2, ,-63, ,
1, ,-63, ,
1, ,-63, ,
2, ,-63, ,
1, ,-63, ,
-1, ,-63, ,
2, ,-63, ,
1, ,-62, ,
1, ,-63, ,
2, ,-63, ,
1, ,-63, ,
-1, ,-63, ,
2, ,-63, ,
1, ,-62, ,
1, ,-62, ,
2, ,-63, ,
2, ,-63, ,
-1, ,-63, ,
1, ,-63, ,
1, ,-62, ,
1, ,-63, ,
2, ,-63, ,
1, ,-63, ,
-1, ,-62, ,
2, ,-63, ,
1, ,-63, ,
1, ,-63, ,
2, ,-63, ,
2, ,-63, ,
1, ,-63, ,
2, ,-63, ,
1, ,-62, ,
1, ,-62, ,
2, ,-63, ,
1, ,-63, ,
1, ,-63, ,
2, ,-63, ,
1, ,-62, ,
1, ,-63, ,
2, ,-63, ,
1, ,-62, ,
1, ,-63, ,
2, ,-63, ,
1, ,-62, ,
1, ,-63, ,
2, ,-63, ,
1, ,-63, ,
1, ,-63, ,
2, ,-63, ,
1, ,-63, ,
1, ,-63, ,
2, ,-63, ,
2, ,-63, ,
-1, ,-63, ,
2, ,-63, ,
1, ,-62, ,
1, ,-63, ,
2, ,-63, ,
1, ,-63, ,
1, ,-63, ,
2, ,-63, ,
1, ,-62, ,
1, ,-63, ,
2, ,-63, ,
1, ,-63, ,
1, ,-63, ,
2, ,-63, ,
1, ,-62, ,
1, ,-63, ,
2, ,-63, ,
2, ,-62, ,
1, ,-62, ,
2, ,-63, ,
1, ,-63, ,
1, ,-62, ,
2, ,-63, ,
1, ,-63, ,
-1, ,-63, ,
2, ,-63, ,
1, ,-62, ,
1, ,-63, ,
1, ,-63, ,
1, ,-63, ,
-1, ,-62, ,
2, ,-63, ,
1, ,-63, ,
1, ,-62, ,
1, ,-63, ,
1, ,-62, ,
-1, ,-63, ,
1, ,-63, ,
1, ,-62, ,
1, ,-63, ,
2, ,-63, ,
1, ,-63, ,
-1, ,-63, ,
1, ,-63, ,
1, ,-62, ,
1, ,-62, ,
2, ,-63, ,
1, ,-63, ,
-1, ,-63, ,
2, ,-63, ,
1, ,-62, ,
1, ,-63, ,
1, ,-63, ,
1, ,-63, ,
-1, ,-63, ,
1, ,-63, ,
1, ,-62, ,
1, ,-63, ,
1, ,-63, ,
1, ,-63, ,
-1, ,-62, ,
1, ,-63, ,
1, ,-62, ,
1, ,-63, ,
1, ,-63, ,
2, ,-63, ,
-1, ,-62, ,
2, ,-63, ,
1, ,-62, ,
1, ,-63, ,
1, ,-63, ,
1, ,-63, ,
-1, ,-63, ,
2, ,-63, ,
1, ,-62, ,
1, ,-62, ,
1, ,-63, ,
1, ,-62, ,
-1, ,-63, ,
1, ,-63, ,
1, ,-63, ,
1, ,-62, ,
1, ,-63, ,
1, ,-63, ,
-1, ,-63, ,
1, ,-63, ,
1, ,-62, ,
1, ,-63, ,
72, ,-63, ,
45, ,-63, ,
27, ,-63, ,
17, ,-63, ,
11, ,-63, ,
7, ,-62, ,
6, ,-62, ,
5, ,-63, ,
2, ,-63, ,
5, ,-63, ,
2, ,-62, ,
2, ,-62, ,
3, ,-63, ,
3, ,-63, ,
2, ,-63, ,
3, ,-63, ,
2, ,-63, ,
2, ,-63, ,
3, ,-62, ,
3, ,-49, ,
2, ,-30, ,
3, ,-14, ,
2, ,-2, ,
2, ,5, ,
3, ,12, ,
3, ,17, ,
2, ,20, ,
3, ,23, ,
2, ,25, ,
2, ,26, ,
3, ,27, ,
3, ,28, ,
1, ,28, ,
3, ,30, ,
2, ,30, ,
2, ,30, ,
2, ,31, ,
2, ,31, ,
2, ,31, ,
3, ,31, ,
2, ,31, ,
2, ,31, ,
3, ,31, ,
2, ,31, ,
1, ,31, ,
3, ,31, ,
2, ,31, ,
2, ,31, ,
2, ,31, ,
2, ,31, ,
1, ,30, ,
3, ,31, ,
2, ,31, ,
1, ,30, ,
2, ,31, ,
2, ,31, ,
1, ,31, ,
3, ,31, ,
2, ,31, ,
2, ,31, ,
2, ,30, ,
2, ,31, ,
1, ,30, ,
3, ,31, ,
2, ,30, ,
1, ,30, ,
2, ,31, ,
2, ,30, ,
1, ,30, ,
3, ,30, ,
2, ,30, ,
1, ,30, ,
2, ,30, ,
2, ,31, ,
1, ,30, ,
3, ,30, ,
2, ,30, ,
1, ,30, ,
2, ,30, ,
2, ,30, ,
1, ,30, ,
3, ,30, ,
2, ,30, ,
1, ,30, ,
2, ,30, ,
2, ,31, ,
1, ,30, ,
3, ,31, ,
1, ,30, ,
2, ,30, ,
2, ,30, ,
2, ,30, ,
1, ,30, ,
2, ,30, ,
1, ,30, ,
1, ,30, ,
2, ,30, ,
2, ,30, ,
1, ,30, ,
3, ,30, ,
1, ,30, ,
1, ,30, ,
2, ,30, ,
2, ,30, ,
1, ,30, ,
3, ,30, ,
2, ,30, ,
1, ,30, ,
2, ,30, ,
2, ,30, ,
1, ,30, ,
3, ,30, ,
1, ,30, ,
1, ,30, ,
2, ,30, ,
2, ,30, ,
1, ,30, ,
2, ,30, ,
2, ,30, ,
2, ,30, ,
2, ,30, ,
1, ,31, ,
1, ,30, ,
3, ,30, ,
2, ,30, ,
1, ,30, ,
2, ,30, ,
2, ,30, ,
1, ,30, ,
2, ,30, ,
1, ,30, ,
1, ,30, ,
2, ,30, ,
2, ,30, ,
1, ,30, ,
3, ,30, ,
1, ,30, ,
1, ,30, ,
2, ,30, ,
2, ,31, ,
1, ,30, ,
3, ,30, ,
2, ,30, ,
1, ,30, ,
2, ,30, ,
2, ,30, ,
1, ,30, ,
3, ,30, ,
1, ,30, ,
1, ,30, ,
2, ,30, ,
2, ,30, ,
1, ,30, ,
2, ,30, ,
1, ,30, ,
1, ,30, ,
2, ,30, ,
2, ,30, ,
1, ,30, ,
3, ,30, ,
1, ,30, ,
1, ,30, ,
2, ,30, ,
2, ,30, ,
1, ,30, ,
2, ,30, ,
2, ,30, ,
1, ,30, ,
2, ,30, ,
2, ,31, ,
1, ,30, ,
2, ,30, ,
1, ,30, ,
1, ,25, ,
2, ,6, ,
1, ,-12, ,
1, ,-25, ,
2, ,-35, ,
1, ,-42, ,
1, ,-47, ,
2, ,-53, ,
2, ,-55, ,
1, ,-57, ,
2, ,-59, ,
1, ,-60, ,
2, ,-62, ,
2, ,-62, ,
2, ,-62, ,
1, ,-63, ,
2, ,-64, ,
1, ,-63, ,
1, ,-63, ,
2, ,-64, ,
2, ,-63, ,
1, ,-63, ,
2, ,-64, ,
2, ,-63, ,
1, ,-63, ,
2, ,-64, ,
2, ,-63, ,
1, ,-63, ,
2, ,-64, ,
1, ,-62, ,
1, ,-63, ,
2, ,-64, ,
2, ,-63, ,
1, ,-63, ,
2, ,-63, ,
2, ,-63, ,
2, ,-63, ,
2, ,-63, ,
2, ,-63, ,
1, ,-63, ,
2, ,-64, ,
1, ,-62, ,
1, ,-63, ,
2, ,-63, ,
2, ,-63, ,
1, ,-63, ,
2, ,-63, ,
1, ,-63, ,
1, ,-63, ,
2, ,-63, ,
2, ,-63, ,
1, ,-63, ,
2, ,-63, ,
1, ,-62, ,
1, ,-63, ,
2, ,-63, ,
2, ,-63, ,
1, ,-62, ,
2, ,-63, ,
1, ,-62, ,
1, ,-63, ,
2, ,-63, ,
2, ,-63, ,
1, ,-63, ,
2, ,-63, ,
1, ,-63, ,
1, ,-63, ,
2, ,-63, ,
2, ,-63, ,
1, ,-62, ,
2, ,-63, ,
1, ,-63, ,
1, ,-63, ,
2, ,-63, ,
2, ,-63, ,
1, ,-63, ,
2, ,-63, ,
1, ,-63, ,
1, ,-63, ,
2, ,-63, ,
2, ,-63, ,
1, ,-62, ,
2, ,-63, ,
1, ,-63, ,
1, ,-63, ,
2, ,-63, ,
2, ,-63, ,
1, ,-63, ,
2, ,-63, ,
1, ,-63, ,
1, ,-63, ,
2, ,-63, ,
2, ,-63, ,
1, ,-63, ,
2, ,-63, ,
1, ,-63, ,
1, ,-63, ,
2, ,-63, ,
2, ,-63, ,
1, ,-63, ,
2, ,-63, ,
1, ,-62, ,
1, ,-62, ,
2, ,-63, ,
2, ,-63, ,
1, ,-63, ,
2, ,-63, ,
1, ,-62, ,
1, ,-63, ,
2, ,-63, ,
2, ,-63, ,
1, ,-63, ,
2, ,-63, ,
1, ,-62, ,
1, ,-63, ,
2, ,-63, ,
2, ,-63, ,
1, ,-63, ,
2, ,-63, ,
1, ,-63, ,
1, ,-63, ,
2, ,-63, ,
2, ,-63, ,
1, ,-63, ,
2, ,-63, ,
1, ,-63, ,
1, ,-63, ,
2, ,-63, ,
1, ,-63, ,
1, ,-63, ,
2, ,-63, ,
1, ,-63, ,
1, ,-63, ,
2, ,-63, ,
2, ,-63, ,
1, ,-63, ,
2, ,-63, ,
1, ,-62, ,
1, ,-62, ,
2, ,-63, ,
2, ,-63, ,
1, ,-62, ,
2, ,-63, ,
1, ,-63, ,
1, ,-63, ,
2, ,-63, ,
2, ,-63, ,
1, ,-63, ,
2, ,-63, ,
1, ,-62, ,
1, ,-63, ,
2, ,-63, ,
2, ,-63, ,
1, ,-63, ,
2, ,-63, ,
1, ,-62, ,
1, ,-63, ,
2, ,-63, ,
2, ,-63, ,
1, ,-63, ,
2, ,-63, ,
1, ,-62, ,
1, ,-63, ,
2, ,-63, ,
2, ,-63, ,
1, ,-62, ,
2, ,-63, ,
1, ,-63, ,
1, ,-63, ,
2, ,-63, ,
2, ,-63, ,
-1, ,-63, ,
2, ,-63, ,
1, ,-62, ,
1, ,-63, ,
2, ,-63, ,
2, ,-63, ,
1, ,-63, ,
2, ,-63, ,
1, ,-62, ,
1, ,-62, ,
2, ,-63, ,
1, ,-63, ,
-1, ,-63, ,
2, ,-63, ,
1, ,-62, ,
1, ,-63, ,
2, ,-63, ,
2, ,-63, ,
1, ,-62, ,
2, ,-63, ,
1, ,-63, ,
1, ,-63, ,
2, ,-63, ,
1, ,-63, ,
1, ,-63, ,
2, ,-63, ,
1, ,-62, ,
1, ,-62, ,
2, ,-63, ,
1, ,-62, ,
1, ,-63, ,
2, ,-63, ,
1, ,-63, ,
1, ,-63, ,
2, ,-63, ,
2, ,-63, ,
-1, ,-63, ,
2, ,-63, ,
1, ,-62, ,
1, ,-63, ,
2, ,-63, ,
1, ,-63, ,
1, ,-62, ,
2, ,-63, ,
1, ,-63, ,
1, ,-63, ,
2, ,-63, ,
2, ,-63, ,
1, ,-63, ,
2, ,-63, ,
1, ,-62, ,
1, ,-63, ,
2, ,-63, ,
1, ,-63, ,
-1, ,-63, ,
2, ,-63, ,
1, ,-63, ,
1, ,-63, ,
2, ,-63, ,
1, ,-63, ,
-1, ,-63, ,
1, ,-63, ,
1, ,-62, ,
1, ,-63, ,
2, ,-63, ,
1, ,-63, ,
-1, ,-63, ,
2, ,-63, ,
1, ,-62, ,
1, ,-63, ,
2, ,-63, ,
2, ,-62, ,
1, ,-63, ,
2, ,-63, ,
1, ,-63, ,
1, ,-63, ,
2, ,-63, ,
1, ,-62, ,
-1, ,-63, ,
2, ,-63, ,
1, ,-63, ,
1, ,-62, ,
2, ,-63, ,
2, ,-62, ,
1, ,-63, ,
1, ,-63, ,
1, ,-62, ,
1, ,-63, ,
2, ,-63, ,
2, ,-63, ,
1, ,-63, ,
2, ,-63, ,
1, ,-63, ,
1, ,-63, ,
2, ,-63, ,
1, ,-63, ,
-1, ,-63, ,
2, ,-63, ,
1, ,-62, ,
1, ,-63, ,
2, ,-63, ,
1, ,-62, ,
-1, ,-63, ,
2, ,-63, ,
1, ,-63, ,
1, ,-63, ,
2, ,-63, ,
1, ,-63, ,
-1, ,-63, ,
1, ,-63, ,
1, ,-63, ,
1, ,-62, ,
2, ,-63, ,
1, ,-63, ,
-1, ,-63, ,
1, ,-63, ,
1, ,-62, ,
1, ,-63, ,
2, ,-63, ,
1, ,-62, ,
-1, ,-63, ,
2, ,-63, ,
1, ,-62, ,
1, ,-63, ,
2, ,-63, ,
1, ,-62, ,
-1, ,-63, ,
1, ,-63, ,
1, ,-62, ,
1, ,-63, ,
2, ,-63, ,
1, ,-63, ,
-1, ,-63, ,
1, ,-63, ,
1, ,-62, ,
1, ,-62, ,
2, ,-63, ,
2, ,-62, ,
-1, ,-62, ,
1, ,-63, ,
1, ,-62, ,
1, ,-63, ,
2, ,-63, ,
1, ,-62, ,
-1, ,-63, ,
2, ,-63, ,
1, ,-62, ,
1, ,-63, ,
2, ,-63, ,
2, ,-62, ,
-1, ,-63, ,
1, ,-63, ,
1, ,-63, ,
1, ,-63, ,
1, ,-63, ,
1, ,-62, ,
-1, ,-63, ,
1, ,-63, ,
1, ,-62, ,
1, ,-62, ,
1, ,-63, ,
1, ,-63, ,
-1, ,-62, ,
1, ,-63, ,
1, ,-63, ,
1, ,-63, ,
2, ,-63, ,
1, ,-63, ,
-1, ,-63, ,
1, ,-63, ,
1, ,-62, ,
1, ,-63, ,
2, ,-63, ,
1, ,-63, ,
-1, ,-63, ,
2, ,-63, ,
1, ,-63, ,
1, ,-63, ,
1, ,-63, ,
1, ,-63, ,
-1, ,-63, ,
1, ,-63, ,
1, ,-63, ,
1, ,-63, ,
2, ,-63, ,
1, ,-63, ,
-1, ,-62, ,
1, ,-63, ,
1, ,-63, ,
1, ,-63, ,
2, ,-63, ,
1, ,-62, ,
-1, ,-63, ,
2, ,-63, ,
1, ,-62, ,
1, ,-63, ,
1, ,-63, ,
1, ,-63, ,
-1, ,-63, ,
1, ,-63, ,
1, ,-63, ,
1, ,-63, ,
2, ,-63, ,
1, ,-62, ,
-1, ,-63, ,
2, ,-63, ,
1, ,-62, ,
1, ,-62, ,
2, ,-63, ,
1, ,-62, ,
-1, ,-62, ,
2, ,-63, ,
1, ,-63, ,
1, ,-63, ,
2, ,-63, ,
1, ,-63, ,
-1, ,-63, ,
1, ,-63, ,
1, ,-63, ,
1, ,-63, ,
2, ,-63, ,
1, ,-63, ,
-1, ,-63, ,
2, ,-63, ,
1, ,-63, ,
1, ,-63, ,
1, ,-63, ,
1, ,-62, ,
-1, ,-62, ,
2, ,-63, ,
1, ,-62, ,
1, ,-63, ,
1, ,-63, ,
1, ,-63, ,
-1, ,-62, ,
1, ,-63, ,
1, ,-63, ,
1, ,-63, ,
2, ,-63, ,
2, ,-63, ,
-1, ,-63, ,
1, ,-63, ,
1, ,-62, ,
1, ,-62, ,
2, ,-63, ,
1, ,-63, ,
-1, ,-63, ,
1, ,-63, ,
1, ,-63, ,
1, ,-63, ,
1, ,-63, ,
1, ,-62, ,
-1, ,-63, ,
1, ,-63, ,
1, ,-63, ,
1, ,-63, ,
2, ,-62, ,
2, ,-63, ,
-1, ,-62, ,
2, ,-63, ,
1, ,-63, ,
1, ,-63, ,
2, ,-63, ,
1, ,-62, ,
-1, ,-63, ,
2, ,-63, ,
1, ,-62, ,
1, ,-63, ,
1, ,-63, ,
1, ,-63, ,
-1, ,-63, ,
1, ,-63, ,
1, ,-63, ,
1, ,-63, ,
2, ,-63, ,
81, ,-62, ,
50, ,-63, ,
31, ,-63, ,
21, ,-62, ,
12, ,-62, ,
10, ,-63, ,
7, ,-63, ,
5, ,-63, ,
6, ,-63, ,
3, ,-63, ,
3, ,-63, ,
3, ,-63, ,
3, ,-62, ,
2, ,-63, ,
3, ,-63, ,
2, ,-62, ,
2, ,-63, ,
3, ,-63, ,
3, ,-62, ,
1, ,-63, ,
3, ,-63, ,
2, ,-62, ,
2, ,-63, ,
3, ,-63, ,
3, ,-63, ,
2, ,-62, ,
3, ,-63, ,
2, ,-63, ,
2, ,-63, ,
2, ,-63, ,
3, ,-62, ,
2, ,-63, ,
3, ,-63, ,
2, ,-62, ,
2, ,-62, ,
2, ,-63, ,
3, ,-62, ,
