src/varyamp_1560/temp0001173.CSV

Format,1.0B,
Memory Length,10000,Memory Length,10000,
IntpDistance,0,IntpDistance,0,
Trigger Address,4999,Trigger Address,4999,
Trigger Level,1.040E+00,Trigger Level,1.040E+00,
Source,CH1,Source,CH2,
Vertical Units,V,Vertical Units,V,
Vertical Units Div,0,Vertical Units Div,0,
Vertical Units Extend Div,16,Vertical Units Extend Div,16,
Label,,Label,,
Probe Type,0,Probe Type,0,
Probe Ratio,1.000e+01,Probe Ratio,1.000e+00,
Vertical Scale,5.000e-01,Vertical Scale,1.000e+00,
Vertical Position,-1.820e+00,Vertical Position,0.000e+00,
Horizontal Units,S,Horizontal Units,S,
Horizontal Scale,2.000E-05,Horizontal Scale,2.000E-05,
Horizontal Position,0.000E+00,Horizontal Position,0.000E+00,
Horizontal Mode,Main,Horizontal Mode,Main,
SincET Mode,Real Time,SincET Mode,Real Time,
Sampling Period,2.000e-08,Sampling Period,2.000e-08,
Horizontal Old Scale,2.000E-05,Horizontal Old Scale,2.000E-05,
Horizontal Old Position,0.000E+00,Horizontal Old Position,0.000E+00,
Firmware,V1.23,Firmware,V1.23,
Mode,Fast,Mode,Fast,
Waveform Data,,Waveform Data,,
3, ,-56, ,
1, ,-57, ,
2, ,-57, ,
2, ,-57, ,
3, ,-57, ,
1, ,-57, ,
3, ,-57, ,
2, ,-57, ,
2, ,-56, ,
2, ,-57, ,
2, ,-57, ,
1, ,-57, ,
3, ,-57, ,
2, ,-57, ,
2, ,-56, ,
2, ,-56, ,
2, ,-56, ,
1, ,-57, ,
3, ,-56, ,
1, ,-57, ,
2, ,-57, ,
2, ,-57, ,
2, ,-57, ,
1, ,-57, ,
3, ,-57, ,
2, ,-57, ,
2, ,-56, ,
2, ,-57, ,
2, ,-57, ,
1, ,-57, ,
3, ,-56, ,
2, ,-57, ,
2, ,-56, ,
2, ,-56, ,
2, ,-57, ,
1, ,-57, ,
3, ,-56, ,
2, ,-57, ,
2, ,-56, ,
3, ,-57, ,
2, ,-57, ,
1, ,-57, ,
3, ,-56, ,
1, ,-57, ,
2, ,-56, ,
2, ,-57, ,
2, ,-57, ,
1, ,-57, ,
2, ,-56, ,
1, ,-57, ,
2, ,-56, ,
2, ,-57, ,
3, ,-56, ,
1, ,-56, ,
3, ,-56, ,
1, ,-57, ,
2, ,-56, ,
2, ,-57, ,
2, ,-57, ,
1, ,-57, ,
3, ,-56, ,
2, ,-57, ,
2, ,-57, ,
2, ,-57, ,
3, ,-57, ,
1, ,-57, ,
3, ,-57, ,
1, ,-57, ,
2, ,-56, ,
2, ,-57, ,
2, ,-57, ,
1, ,-57, ,
3, ,-56, ,
2, ,-57, ,
2, ,-56, ,
2, ,-57, ,
2, ,-57, ,
1, ,-56, ,
3, ,-57, ,
1, ,-57, ,
1, ,-57, ,
2, ,-57, ,
2, ,-57, ,
1, ,-57, ,
3, ,-56, ,
1, ,-57, ,
2, ,-56, ,
2, ,-57, ,
2, ,-57, ,
1, ,-57, ,
3, ,-56, ,
1, ,-57, ,
2, ,-56, ,
2, ,-57, ,
2, ,-57, ,
1, ,-57, ,
3, ,-57, ,
1, ,-57, ,
2, ,-56, ,
2, ,-57, ,
2, ,-56, ,
1, ,-57, ,
2, ,-57, ,
1, ,-57, ,
2, ,-56, ,
3, ,-57, ,
2, ,-57, ,
1, ,-57, ,
2, ,-56, ,
1, ,-57, ,
1, ,-56, ,
2, ,-57, ,
2, ,-57, ,
1, ,-57, ,
2, ,-57, ,
1, ,-57, ,
1, ,-56, ,
2, ,-57, ,
2, ,-57, ,
1, ,-57, ,
2, ,-56, ,
1, ,-57, ,
1, ,-57, ,
2, ,-57, ,
2, ,-56, ,
1, ,-56, ,
2, ,-56, ,
1, ,-57, ,
2, ,-56, ,
2, ,-57, ,
2, ,-57, ,
-1, ,-57, ,
2, ,-56, ,
1, ,-57, ,
2, ,-56, ,
2, ,-57, ,
2, ,-57, ,
1, ,-57, ,
2, ,-57, ,
1, ,-57, ,
1, ,-56, ,
2, ,-57, ,
2, ,-57, ,
1, ,-57, ,
2, ,-57, ,
1, ,-57, ,
1, ,-56, ,
2, ,-57, ,
2, ,-56, ,
1, ,-57, ,
2, ,-57, ,
1, ,-57, ,
1, ,-56, ,
2, ,-57, ,
2, ,-57, ,
1, ,-57, ,
2, ,-56, ,
1, ,-57, ,
1, ,-56, ,
2, ,-57, ,
2, ,-57, ,
1, ,-57, ,
2, ,-57, ,
1, ,-57, ,
2, ,-56, ,
2, ,-57, ,
2, ,-57, ,
1, ,-57, ,
2, ,-56, ,
1, ,-57, ,
1, ,-56, ,
2, ,-57, ,
2, ,-57, ,
1, ,-57, ,
2, ,-56, ,
1, ,-57, ,
2, ,-56, ,
2, ,-57, ,
2, ,-57, ,
-1, ,-57, ,
2, ,-56, ,
1, ,-57, ,
1, ,-57, ,
2, ,-57, ,
2, ,-57, ,
1, ,-57, ,
2, ,-56, ,
1, ,-57, ,
1, ,-56, ,
2, ,-57, ,
2, ,-57, ,
1, ,-57, ,
2, ,-57, ,
1, ,-57, ,
1, ,-56, ,
2, ,-57, ,
2, ,-56, ,
1, ,-56, ,
2, ,-57, ,
1, ,-57, ,
1, ,-56, ,
2, ,-57, ,
2, ,-57, ,
1, ,-57, ,
2, ,-56, ,
1, ,-57, ,
1, ,-57, ,
2, ,-56, ,
2, ,-57, ,
1, ,-57, ,
2, ,-57, ,
1, ,-57, ,
1, ,-56, ,
2, ,-57, ,
2, ,-57, ,
1, ,-56, ,
2, ,-57, ,
1, ,-57, ,
1, ,-56, ,
2, ,-57, ,
1, ,-57, ,
1, ,-56, ,
2, ,-56, ,
1, ,-57, ,
1, ,-56, ,
2, ,-57, ,
2, ,-57, ,
1, ,-57, ,
2, ,-56, ,
1, ,-57, ,
1, ,-56, ,
2, ,-57, ,
1, ,-57, ,
1, ,-56, ,
2, ,-57, ,
1, ,-57, ,
1, ,-56, ,
2, ,-56, ,
1, ,-56, ,
-1, ,-56, ,
2, ,-56, ,
1, ,-57, ,
1, ,-56, ,
2, ,-57, ,
1, ,-57, ,
-1, ,-57, ,
2, ,-56, ,
1, ,-57, ,
1, ,-56, ,
2, ,-56, ,
2, ,-57, ,
-1, ,-57, ,
2, ,-56, ,
1, ,-57, ,
1, ,-56, ,
2, ,-57, ,
1, ,-56, ,
-1, ,-57, ,
2, ,-57, ,
1, ,-57, ,
1, ,-56, ,
2, ,-57, ,
1, ,-57, ,
-1, ,-57, ,
2, ,-56, ,
1, ,-57, ,
1, ,-56, ,
2, ,-57, ,
1, ,-56, ,
-1, ,-56, ,
2, ,-57, ,
1, ,-57, ,
1, ,-56, ,
2, ,-56, ,
1, ,-56, ,
-1, ,-56, ,
2, ,-56, ,
1, ,-57, ,
1, ,-56, ,
2, ,-57, ,
1, ,-56, ,
-1, ,-57, ,
2, ,-57, ,
1, ,-57, ,
1, ,-56, ,
2, ,-57, ,
1, ,-57, ,
-1, ,-57, ,
2, ,-56, ,
1, ,-57, ,
1, ,-56, ,
2, ,-57, ,
2, ,-56, ,
-1, ,-56, ,
2, ,-56, ,
1, ,-57, ,
1, ,-56, ,
2, ,-57, ,
1, ,-57, ,
-1, ,-56, ,
2, ,-56, ,
1, ,-57, ,
1, ,-56, ,
2, ,-57, ,
1, ,-52, ,
1, ,-33, ,
2, ,-15, ,
1, ,-1, ,
1, ,8, ,
2, ,16, ,
2, ,21, ,
1, ,25, ,
2, ,28, ,
1, ,31, ,
1, ,33, ,
1, ,34, ,
1, ,35, ,
1, ,35, ,
2, ,36, ,
1, ,37, ,
1, ,36, ,
2, ,37, ,
1, ,37, ,
-1, ,37, ,
2, ,37, ,
1, ,37, ,
1, ,37, ,
2, ,37, ,
1, ,37, ,
1, ,37, ,
2, ,37, ,
1, ,37, ,
1, ,37, ,
2, ,37, ,
1, ,37, ,
1, ,37, ,
2, ,37, ,
1, ,37, ,
1, ,37, ,
2, ,37, ,
1, ,37, ,
1, ,37, ,
2, ,37, ,
1, ,37, ,
1, ,36, ,
2, ,37, ,
1, ,37, ,
1, ,37, ,
2, ,37, ,
1, ,37, ,
1, ,37, ,
2, ,37, ,
1, ,37, ,
1, ,37, ,
1, ,36, ,
1, ,37, ,
1, ,37, ,
2, ,36, ,
1, ,37, ,
1, ,37, ,
2, ,36, ,
1, ,37, ,
1, ,37, ,
2, ,36, ,
1, ,36, ,
-1, ,37, ,
2, ,36, ,
1, ,36, ,
1, ,37, ,
2, ,36, ,
1, ,36, ,
1, ,37, ,
2, ,36, ,
1, ,37, ,
1, ,36, ,
2, ,37, ,
1, ,36, ,
1, ,37, ,
2, ,36, ,
1, ,37, ,
1, ,36, ,
2, ,37, ,
1, ,36, ,
1, ,37, ,
2, ,36, ,
1, ,37, ,
1, ,37, ,
2, ,36, ,
1, ,36, ,
1, ,37, ,
1, ,36, ,
1, ,36, ,
1, ,37, ,
2, ,36, ,
1, ,36, ,
-1, ,37, ,
1, ,36, ,
1, ,36, ,
1, ,36, ,
2, ,37, ,
1, ,36, ,
1, ,37, ,
2, ,36, ,
1, ,36, ,
1, ,36, ,
2, ,36, ,
1, ,37, ,
-1, ,36, ,
2, ,36, ,
1, ,36, ,
1, ,36, ,
2, ,36, ,
1, ,36, ,
-1, ,37, ,
1, ,36, ,
1, ,37, ,
1, ,37, ,
2, ,36, ,
1, ,36, ,
-1, ,36, ,
2, ,36, ,
1, ,36, ,
1, ,36, ,
2, ,36, ,
1, ,36, ,
-1, ,37, ,
2, ,36, ,
1, ,36, ,
1, ,36, ,
2, ,36, ,
1, ,36, ,
-1, ,37, ,
2, ,36, ,
1, ,37, ,
1, ,36, ,
2, ,36, ,
1, ,36, ,
1, ,37, ,
2, ,36, ,
1, ,36, ,
1, ,36, ,
2, ,36, ,
1, ,36, ,
-1, ,36, ,
2, ,36, ,
1, ,37, ,
1, ,36, ,
2, ,36, ,
1, ,36, ,
-1, ,37, ,
2, ,36, ,
1, ,36, ,
1, ,36, ,
2, ,36, ,
1, ,36, ,
-1, ,36, ,
2, ,36, ,
1, ,37, ,
1, ,35, ,
1, ,22, ,
1, ,2, ,
1, ,-13, ,
2, ,-24, ,
-1, ,-33, ,
1, ,-39, ,
2, ,-43, ,
1, ,-47, ,
-1, ,-50, ,
1, ,-52, ,
1, ,-54, ,
1, ,-55, ,
1, ,-55, ,
1, ,-56, ,
-1, ,-56, ,
2, ,-56, ,
-1, ,-57, ,
1, ,-57, ,
2, ,-57, ,
2, ,-57, ,
-1, ,-57, ,
2, ,-57, ,
-1, ,-58, ,
1, ,-57, ,
1, ,-58, ,
1, ,-57, ,
-1, ,-57, ,
2, ,-57, ,
-1, ,-58, ,
1, ,-57, ,
2, ,-57, ,
1, ,-57, ,
-1, ,-57, ,
2, ,-57, ,
1, ,-57, ,
1, ,-56, ,
1, ,-57, ,
1, ,-57, ,
-1, ,-57, ,
2, ,-57, ,
-1, ,-58, ,
1, ,-57, ,
1, ,-57, ,
1, ,-57, ,
-1, ,-57, ,
1, ,-57, ,
-1, ,-57, ,
1, ,-56, ,
1, ,-57, ,
1, ,-57, ,
-1, ,-57, ,
2, ,-57, ,
-1, ,-57, ,
1, ,-57, ,
1, ,-57, ,
1, ,-57, ,
-1, ,-56, ,
2, ,-56, ,
-1, ,-57, ,
1, ,-57, ,
1, ,-57, ,
1, ,-57, ,
-1, ,-57, ,
2, ,-57, ,
-1, ,-57, ,
1, ,-56, ,
1, ,-57, ,
1, ,-57, ,
-1, ,-57, ,
2, ,-56, ,
-1, ,-57, ,
1, ,-57, ,
1, ,-57, ,
1, ,-56, ,
-1, ,-57, ,
2, ,-56, ,
-1, ,-57, ,
1, ,-57, ,
1, ,-57, ,
1, ,-57, ,
-1, ,-56, ,
2, ,-57, ,
1, ,-57, ,
1, ,-57, ,
1, ,-57, ,
1, ,-56, ,
-1, ,-57, ,
1, ,-56, ,
-1, ,-57, ,
1, ,-56, ,
1, ,-57, ,
1, ,-57, ,
-1, ,-56, ,
2, ,-56, ,
-1, ,-57, ,
1, ,-57, ,
1, ,-57, ,
1, ,-56, ,
-1, ,-57, ,
2, ,-57, ,
-1, ,-57, ,
1, ,-56, ,
1, ,-57, ,
1, ,-57, ,
-1, ,-56, ,
2, ,-56, ,
-1, ,-57, ,
1, ,-57, ,
1, ,-57, ,
1, ,-57, ,
-1, ,-56, ,
1, ,-56, ,
-1, ,-57, ,
1, ,-56, ,
1, ,-57, ,
1, ,-56, ,
-1, ,-57, ,
2, ,-56, ,
1, ,-57, ,
1, ,-57, ,
1, ,-57, ,
1, ,-57, ,
-1, ,-56, ,
2, ,-57, ,
1, ,-57, ,
1, ,-56, ,
1, ,-57, ,
2, ,-57, ,
-1, ,-57, ,
2, ,-56, ,
1, ,-57, ,
1, ,-57, ,
1, ,-57, ,
1, ,-57, ,
-1, ,-56, ,
1, ,-56, ,
-1, ,-57, ,
1, ,-56, ,
1, ,-57, ,
1, ,-57, ,
-1, ,-57, ,
2, ,-57, ,
-1, ,-57, ,
1, ,-57, ,
1, ,-57, ,
1, ,-56, ,
-1, ,-56, ,
2, ,-56, ,
-1, ,-57, ,
1, ,-57, ,
1, ,-57, ,
1, ,-57, ,
-1, ,-56, ,
2, ,-56, ,
-1, ,-57, ,
1, ,-57, ,
1, ,-57, ,
1, ,-57, ,
-1, ,-56, ,
2, ,-56, ,
-1, ,-57, ,
1, ,-56, ,
1, ,-57, ,
1, ,-57, ,
-1, ,-56, ,
1, ,-56, ,
-1, ,-57, ,
1, ,-56, ,
1, ,-57, ,
1, ,-57, ,
-1, ,-57, ,
1, ,-57, ,
-1, ,-57, ,
-1, ,-56, ,
1, ,-57, ,
1, ,-57, ,
-1, ,-56, ,
2, ,-56, ,
-1, ,-57, ,
-1, ,-57, ,
1, ,-57, ,
1, ,-56, ,
-1, ,-56, ,
1, ,-56, ,
-1, ,-57, ,
1, ,-56, ,
1, ,-57, ,
1, ,-56, ,
-1, ,-56, ,
2, ,-56, ,
-1, ,-57, ,
-1, ,-56, ,
1, ,-57, ,
1, ,-57, ,
-1, ,-56, ,
1, ,-56, ,
1, ,-57, ,
1, ,-56, ,
1, ,-56, ,
1, ,-57, ,
-1, ,-56, ,
1, ,-56, ,
1, ,-57, ,
1, ,-56, ,
1, ,-57, ,
1, ,-56, ,
-1, ,-57, ,
1, ,-57, ,
-1, ,-57, ,
1, ,-56, ,
1, ,-57, ,
1, ,-57, ,
-1, ,-56, ,
1, ,-56, ,
-1, ,-57, ,
-1, ,-56, ,
1, ,-57, ,
1, ,-57, ,
-1, ,-56, ,
1, ,-56, ,
-1, ,-57, ,
-1, ,-56, ,
1, ,-57, ,
1, ,-57, ,
-1, ,-57, ,
1, ,-56, ,
-1, ,-57, ,
1, ,-57, ,
1, ,-57, ,
1, ,-56, ,
-1, ,-56, ,
2, ,-56, ,
-1, ,-57, ,
1, ,-56, ,
1, ,-57, ,
1, ,-57, ,
-1, ,-56, ,
2, ,-56, ,
-1, ,-57, ,
-1, ,-56, ,
1, ,-57, ,
1, ,-56, ,
-1, ,-56, ,
2, ,-57, ,
-1, ,-57, ,
1, ,-56, ,
1, ,-57, ,
1, ,-57, ,
-1, ,-56, ,
1, ,-56, ,
-1, ,-57, ,
-1, ,-56, ,
1, ,-56, ,
1, ,-56, ,
-1, ,-57, ,
2, ,-57, ,
-1, ,-57, ,
1, ,-56, ,
1, ,-57, ,
1, ,-57, ,
-1, ,-57, ,
1, ,-56, ,
-1, ,-57, ,
-1, ,-56, ,
1, ,-57, ,
1, ,-56, ,
-1, ,-57, ,
1, ,-56, ,
-1, ,-57, ,
-1, ,-56, ,
1, ,-57, ,
1, ,-57, ,
-1, ,-56, ,
2, ,-56, ,
1, ,-57, ,
-1, ,-56, ,
1, ,-57, ,
1, ,-57, ,
-1, ,-57, ,
2, ,-56, ,
-1, ,-57, ,
1, ,-56, ,
1, ,-57, ,
1, ,-57, ,
-1, ,-56, ,
1, ,-57, ,
-1, ,-57, ,
-1, ,-57, ,
1, ,-57, ,
1, ,-57, ,
-1, ,-56, ,
1, ,-56, ,
-1, ,-57, ,
1, ,-56, ,
1, ,-56, ,
1, ,-57, ,
-1, ,-56, ,
2, ,-56, ,
1, ,-57, ,
1, ,-56, ,
1, ,-57, ,
1, ,-56, ,
-1, ,-56, ,
1, ,-56, ,
-1, ,-57, ,
1, ,-56, ,
1, ,-57, ,
1, ,-57, ,
-1, ,-56, ,
1, ,-57, ,
-1, ,-57, ,
1, ,-57, ,
1, ,-57, ,
1, ,-57, ,
-1, ,-57, ,
2, ,-56, ,
-1, ,-57, ,
1, ,-57, ,
1, ,-57, ,
1, ,-57, ,
-1, ,-56, ,
2, ,-56, ,
-1, ,-57, ,
1, ,-57, ,
1, ,-57, ,
1, ,-57, ,
-1, ,-57, ,
2, ,-56, ,
-1, ,-57, ,
-1, ,-56, ,
1, ,-57, ,
1, ,-57, ,
-1, ,-57, ,
1, ,-56, ,
-1, ,-57, ,
-1, ,-57, ,
1, ,-57, ,
1, ,-56, ,
-1, ,-57, ,
1, ,-56, ,
-1, ,-57, ,
-1, ,-56, ,
1, ,-57, ,
1, ,-57, ,
-1, ,-56, ,
1, ,-56, ,
-1, ,-57, ,
-1, ,-57, ,
1, ,-57, ,
1, ,-57, ,
-1, ,-57, ,
1, ,-56, ,
-1, ,-57, ,
-1, ,-56, ,
1, ,-57, ,
1, ,-57, ,
-1, ,-56, ,
1, ,-57, ,
-1, ,-57, ,
-1, ,-57, ,
1, ,-56, ,
1, ,-57, ,
-1, ,-57, ,
1, ,-56, ,
-1, ,-57, ,
-1, ,-57, ,
1, ,-56, ,
1, ,-57, ,
-1, ,-56, ,
1, ,-57, ,
-1, ,-57, ,
-1, ,-57, ,
1, ,-57, ,
1, ,-57, ,
-1, ,-56, ,
1, ,-56, ,
-1, ,-57, ,
-1, ,-56, ,
1, ,-57, ,
1, ,-57, ,
-1, ,-57, ,
1, ,-56, ,
-1, ,-57, ,
-1, ,-57, ,
1, ,-57, ,
1, ,-57, ,
-1, ,-57, ,
2, ,-56, ,
-1, ,-57, ,
1, ,-56, ,
1, ,-57, ,
1, ,-57, ,
-1, ,-57, ,
2, ,-56, ,
-1, ,-57, ,
-1, ,-56, ,
1, ,-57, ,
1, ,-57, ,
34, ,-56, ,
71, ,-56, ,
44, ,-57, ,
27, ,-57, ,
18, ,-57, ,
12, ,-57, ,
7, ,-57, ,
7, ,-57, ,
3, ,-57, ,
3, ,-57, ,
3, ,-57, ,
3, ,-56, ,
2, ,-57, ,
3, ,-56, ,
2, ,-57, ,
2, ,-56, ,
2, ,-57, ,
3, ,-57, ,
1, ,-56, ,
3, ,-56, ,
2, ,-57, ,
2, ,-57, ,
3, ,-57, ,
2, ,-57, ,
1, ,-56, ,
3, ,-57, ,
2, ,-57, ,
2, ,-57, ,
2, ,-57, ,
3, ,-57, ,
1, ,-57, ,
3, ,-57, ,
2, ,-57, ,
2, ,-57, ,
2, ,-57, ,
3, ,-56, ,
1, ,-57, ,
3, ,-56, ,
2, ,-57, ,
2, ,-56, ,
2, ,-56, ,
2, ,-57, ,
1, ,-57, ,
3, ,-56, ,
2, ,-57, ,
2, ,-56, ,
3, ,-57, ,
3, ,-57, ,
1, ,-56, ,
3, ,-57, ,
2, ,-57, ,
2, ,-57, ,
2, ,-57, ,
2, ,-57, ,
1, ,-56, ,
3, ,-56, ,
2, ,-57, ,
2, ,-57, ,
2, ,-57, ,
2, ,-57, ,
1, ,-57, ,
3, ,-56, ,
2, ,-57, ,
2, ,-57, ,
2, ,-57, ,
2, ,-57, ,
1, ,-57, ,
3, ,-57, ,
2, ,-57, ,
2, ,-57, ,
2, ,-57, ,
2, ,-57, ,
1, ,-57, ,
3, ,-56, ,
1, ,-57, ,
2, ,-56, ,
2, ,-57, ,
2, ,-57, ,
1, ,-56, ,
3, ,-56, ,
2, ,-57, ,
2, ,-56, ,
2, ,-57, ,
2, ,-57, ,
1, ,-56, ,
3, ,-57, ,
1, ,-57, ,
2, ,-56, ,
2, ,-57, ,
2, ,-57, ,
1, ,-57, ,
3, ,-57, ,
2, ,-57, ,
2, ,-56, ,
2, ,-57, ,
2, ,-57, ,
1, ,-57, ,
3, ,-57, ,
1, ,-57, ,
2, ,-56, ,
2, ,-57, ,
2, ,-57, ,
1, ,-57, ,
2, ,-56, ,
2, ,-57, ,
2, ,-57, ,
2, ,-57, ,
2, ,-57, ,
1, ,-57, ,
3, ,-57, ,
1, ,-57, ,
2, ,-56, ,
2, ,-57, ,
2, ,-57, ,
1, ,-57, ,
2, ,-56, ,
1, ,-57, ,
2, ,-57, ,
2, ,-57, ,
2, ,-57, ,
1, ,-57, ,
3, ,-56, ,
1, ,-57, ,
2, ,-56, ,
2, ,-57, ,
2, ,-57, ,
1, ,-57, ,
2, ,-56, ,
1, ,-57, ,
2, ,-56, ,
2, ,-57, ,
2, ,-57, ,
1, ,-57, ,
3, ,-57, ,
1, ,-57, ,
2, ,-56, ,
2, ,-57, ,
2, ,-57, ,
1, ,-57, ,
2, ,-56, ,
1, ,-57, ,
2, ,-56, ,
2, ,-56, ,
2, ,-57, ,
1, ,-57, ,
2, ,-56, ,
1, ,-57, ,
2, ,-56, ,
2, ,-57, ,
2, ,-57, ,
1, ,-57, ,
3, ,-57, ,
2, ,-57, ,
2, ,-57, ,
2, ,-57, ,
2, ,-57, ,
1, ,-57, ,
3, ,-56, ,
1, ,-57, ,
2, ,-56, ,
2, ,-57, ,
2, ,-57, ,
1, ,-57, ,
2, ,-56, ,
1, ,-57, ,
2, ,-56, ,
2, ,-57, ,
2, ,-57, ,
1, ,-57, ,
2, ,-56, ,
1, ,-57, ,
1, ,-56, ,
2, ,-56, ,
2, ,-57, ,
1, ,-57, ,
2, ,-56, ,
1, ,-57, ,
2, ,-56, ,
2, ,-57, ,
2, ,-56, ,
1, ,-57, ,
3, ,-56, ,
1, ,-57, ,
1, ,-56, ,
2, ,-57, ,
2, ,-57, ,
1, ,-57, ,
2, ,-57, ,
1, ,-57, ,
2, ,-57, ,
2, ,-57, ,
2, ,-57, ,
1, ,-56, ,
2, ,-56, ,
1, ,-57, ,
2, ,-56, ,
2, ,-57, ,
2, ,-57, ,
1, ,-57, ,
2, ,-57, ,
1, ,-57, ,
1, ,-56, ,
2, ,-57, ,
2, ,-56, ,
1, ,-57, ,
2, ,-56, ,
1, ,-57, ,
2, ,-56, ,
2, ,-57, ,
2, ,-57, ,
1, ,-56, ,
2, ,-56, ,
1, ,-57, ,
1, ,-57, ,
2, ,-57, ,
2, ,-57, ,
1, ,-57, ,
2, ,-57, ,
1, ,-57, ,
1, ,-56, ,
2, ,-57, ,
2, ,-57, ,
1, ,-57, ,
2, ,-57, ,
1, ,-57, ,
2, ,-56, ,
2, ,-57, ,
2, ,-56, ,
1, ,-55, ,
2, ,-39, ,
1, ,-20, ,
2, ,-5, ,
2, ,5, ,
2, ,14, ,
1, ,20, ,
2, ,24, ,
1, ,27, ,
2, ,30, ,
2, ,32, ,
1, ,34, ,
1, ,35, ,
2, ,35, ,
1, ,36, ,
1, ,36, ,
2, ,36, ,
1, ,37, ,
1, ,37, ,
2, ,37, ,
1, ,37, ,
1, ,37, ,
2, ,37, ,
1, ,37, ,
1, ,37, ,
2, ,37, ,
1, ,37, ,
1, ,37, ,
2, ,37, ,
2, ,37, ,
1, ,37, ,
2, ,37, ,
1, ,37, ,
1, ,37, ,
2, ,37, ,
1, ,37, ,
1, ,37, ,
2, ,36, ,
1, ,37, ,
1, ,37, ,
2, ,37, ,
1, ,37, ,
1, ,37, ,
2, ,36, ,
1, ,37, ,
1, ,36, ,
2, ,36, ,
1, ,36, ,
1, ,37, ,
2, ,36, ,
1, ,37, ,
1, ,37, ,
2, ,37, ,
2, ,36, ,
1, ,37, ,
2, ,36, ,
1, ,37, ,
1, ,37, ,
2, ,36, ,
1, ,36, ,
1, ,37, ,
2, ,37, ,
1, ,37, ,
1, ,36, ,
2, ,36, ,
1, ,36, ,
1, ,37, ,
2, ,36, ,
1, ,37, ,
1, ,36, ,
2, ,36, ,
1, ,36, ,
1, ,37, ,
2, ,36, ,
1, ,37, ,
1, ,37, ,
2, ,37, ,
1, ,36, ,
1, ,37, ,
2, ,36, ,
1, ,37, ,
1, ,37, ,
2, ,36, ,
1, ,36, ,
1, ,37, ,
2, ,36, ,
1, ,37, ,
1, ,36, ,
2, ,36, ,
1, ,36, ,
1, ,37, ,
2, ,37, ,
1, ,37, ,
1, ,36, ,
2, ,36, ,
1, ,37, ,
1, ,37, ,
2, ,37, ,
1, ,36, ,
1, ,37, ,
2, ,36, ,
1, ,36, ,
1, ,37, ,
2, ,36, ,
1, ,37, ,
1, ,36, ,
2, ,36, ,
1, ,36, ,
1, ,37, ,
2, ,36, ,
1, ,37, ,
1, ,36, ,
2, ,36, ,
1, ,36, ,
-1, ,37, ,
2, ,36, ,
1, ,37, ,
1, ,36, ,
1, ,36, ,
1, ,36, ,
1, ,37, ,
2, ,36, ,
1, ,37, ,
1, ,36, ,
2, ,36, ,
1, ,36, ,
1, ,36, ,
2, ,36, ,
1, ,37, ,
1, ,36, ,
2, ,37, ,
1, ,36, ,
1, ,37, ,
2, ,36, ,
1, ,36, ,
1, ,36, ,
2, ,36, ,
1, ,36, ,
1, ,36, ,
2, ,37, ,
1, ,37, ,
1, ,37, ,
2, ,36, ,
1, ,36, ,
1, ,37, ,
2, ,36, ,
1, ,36, ,
1, ,36, ,
2, ,36, ,
1, ,36, ,
-1, ,36, ,
2, ,37, ,
1, ,37, ,
1, ,36, ,
2, ,36, ,
1, ,27, ,
1, ,7, ,
2, ,-9, ,
1, ,-21, ,
1, ,-31, ,
1, ,-37, ,
1, ,-42, ,
-1, ,-46, ,
2, ,-49, ,
1, ,-52, ,
1, ,-53, ,
1, ,-54, ,
1, ,-55, ,
-1, ,-56, ,
2, ,-56, ,
1, ,-58, ,
1, ,-56, ,
2, ,-57, ,
1, ,-57, ,
-1, ,-57, ,
2, ,-57, ,
1, ,-57, ,
1, ,-57, ,
1, ,-57, ,
2, ,-57, ,
-1, ,-57, ,
2, ,-57, ,
1, ,-58, ,
1, ,-57, ,
2, ,-57, ,
1, ,-57, ,
-1, ,-57, ,
2, ,-57, ,
1, ,-57, ,
1, ,-57, ,
2, ,-57, ,
1, ,-57, ,
-1, ,-57, ,
2, ,-57, ,
1, ,-58, ,
1, ,-57, ,
1, ,-57, ,
1, ,-57, ,
-1, ,-57, ,
2, ,-57, ,
1, ,-57, ,
1, ,-57, ,
1, ,-57, ,
1, ,-57, ,
-1, ,-57, ,
2, ,-57, ,
1, ,-57, ,
1, ,-56, ,
2, ,-57, ,
1, ,-57, ,
-1, ,-57, ,
2, ,-57, ,
1, ,-57, ,
1, ,-57, ,
1, ,-57, ,
1, ,-57, ,
-1, ,-57, ,
2, ,-57, ,
1, ,-57, ,
1, ,-56, ,
2, ,-57, ,
2, ,-57, ,
-1, ,-56, ,
2, ,-57, ,
1, ,-57, ,
1, ,-57, ,
1, ,-57, ,
1, ,-56, ,
-1, ,-57, ,
2, ,-57, ,
-1, ,-57, ,
1, ,-56, ,
1, ,-57, ,
1, ,-57, ,
-1, ,-57, ,
2, ,-57, ,
1, ,-57, ,
1, ,-56, ,
1, ,-57, ,
1, ,-57, ,
-1, ,-57, ,
2, ,-56, ,
1, ,-57, ,
1, ,-56, ,
1, ,-57, ,
1, ,-57, ,
-1, ,-57, ,
2, ,-56, ,
1, ,-57, ,
1, ,-57, ,
1, ,-57, ,
1, ,-57, ,
-1, ,-57, ,
2, ,-57, ,
-1, ,-57, ,
1, ,-56, ,
1, ,-57, ,
1, ,-57, ,
-1, ,-57, ,
2, ,-56, ,
-1, ,-57, ,
1, ,-56, ,
1, ,-57, ,
2, ,-56, ,
-1, ,-56, ,
2, ,-57, ,
-1, ,-57, ,
1, ,-57, ,
1, ,-57, ,
1, ,-57, ,
-1, ,-57, ,
2, ,-56, ,
1, ,-57, ,
1, ,-56, ,
2, ,-57, ,
1, ,-57, ,
-1, ,-57, ,
2, ,-56, ,
-1, ,-57, ,
1, ,-56, ,
1, ,-57, ,
1, ,-57, ,
-1, ,-57, ,
2, ,-57, ,
1, ,-57, ,
1, ,-57, ,
1, ,-57, ,
1, ,-57, ,
-1, ,-57, ,
2, ,-57, ,
-1, ,-57, ,
1, ,-57, ,
1, ,-57, ,
1, ,-57, ,
-1, ,-56, ,
2, ,-56, ,
-1, ,-57, ,
1, ,-56, ,
1, ,-57, ,
1, ,-57, ,
-1, ,-57, ,
2, ,-57, ,
1, ,-57, ,
1, ,-56, ,
1, ,-57, ,
1, ,-57, ,
-1, ,-56, ,
2, ,-57, ,
1, ,-57, ,
1, ,-57, ,
1, ,-57, ,
2, ,-57, ,
-1, ,-57, ,
2, ,-56, ,
-1, ,-57, ,
1, ,-56, ,
1, ,-57, ,
2, ,-57, ,
-1, ,-57, ,
1, ,-56, ,
1, ,-57, ,
1, ,-57, ,
1, ,-57, ,
1, ,-56, ,
-1, ,-57, ,
2, ,-56, ,
-1, ,-57, ,
1, ,-56, ,
1, ,-57, ,
1, ,-57, ,
-1, ,-57, ,
2, ,-56, ,
1, ,-57, ,
1, ,-57, ,
1, ,-57, ,
1, ,-57, ,
-1, ,-57, ,
1, ,-57, ,
-1, ,-57, ,
1, ,-56, ,
1, ,-57, ,
1, ,-56, ,
-1, ,-57, ,
2, ,-56, ,
1, ,-57, ,
1, ,-56, ,
1, ,-57, ,
1, ,-57, ,
-1, ,-57, ,
2, ,-57, ,
-1, ,-57, ,
1, ,-57, ,
1, ,-57, ,
1, ,-57, ,
-1, ,-56, ,
2, ,-56, ,
-1, ,-57, ,
-1, ,-56, ,
1, ,-57, ,
1, ,-56, ,
-1, ,-57, ,
2, ,-56, ,
-1, ,-57, ,
1, ,-56, ,
1, ,-57, ,
1, ,-57, ,
-1, ,-57, ,
2, ,-56, ,
-1, ,-57, ,
-1, ,-56, ,
1, ,-57, ,
1, ,-57, ,
-1, ,-57, ,
2, ,-56, ,
-1, ,-57, ,
-1, ,-56, ,
1, ,-57, ,
1, ,-57, ,
-1, ,-56, ,
1, ,-57, ,
-1, ,-57, ,
1, ,-56, ,
1, ,-57, ,
1, ,-56, ,
-1, ,-56, ,
1, ,-57, ,
-1, ,-57, ,
1, ,-56, ,
1, ,-57, ,
1, ,-57, ,
-1, ,-57, ,
2, ,-56, ,
-1, ,-57, ,
1, ,-56, ,
1, ,-57, ,
1, ,-57, ,
-1, ,-57, ,
1, ,-56, ,
-1, ,-57, ,
1, ,-56, ,
1, ,-56, ,
2, ,-57, ,
-1, ,-57, ,
2, ,-57, ,
-1, ,-57, ,
-1, ,-57, ,
1, ,-57, ,
1, ,-57, ,
-1, ,-57, ,
1, ,-57, ,
-1, ,-57, ,
1, ,-56, ,
1, ,-57, ,
1, ,-57, ,
-1, ,-56, ,
2, ,-56, ,
-1, ,-57, ,
1, ,-57, ,
1, ,-57, ,
1, ,-57, ,
-1, ,-57, ,
2, ,-56, ,
-1, ,-57, ,
1, ,-56, ,
1, ,-57, ,
1, ,-57, ,
-1, ,-57, ,
2, ,-57, ,
-1, ,-57, ,
1, ,-56, ,
1, ,-57, ,
1, ,-57, ,
-1, ,-57, ,
1, ,-57, ,
-1, ,-57, ,
1, ,-56, ,
1, ,-57, ,
2, ,-57, ,
-1, ,-56, ,
1, ,-56, ,
1, ,-57, ,
1, ,-56, ,
1, ,-57, ,
1, ,-57, ,
-1, ,-56, ,
1, ,-56, ,
-1, ,-57, ,
1, ,-56, ,
1, ,-57, ,
1, ,-57, ,
-1, ,-57, ,
1, ,-57, ,
-1, ,-57, ,
-1, ,-57, ,
1, ,-57, ,
1, ,-57, ,
-1, ,-57, ,
2, ,-56, ,
-1, ,-57, ,
1, ,-56, ,
1, ,-57, ,
1, ,-57, ,
-1, ,-57, ,
2, ,-56, ,
-1, ,-57, ,
1, ,-56, ,
1, ,-57, ,
1, ,-56, ,
-1, ,-57, ,
1, ,-56, ,
-1, ,-57, ,
-1, ,-56, ,
1, ,-56, ,
1, ,-57, ,
-1, ,-57, ,
2, ,-56, ,
-1, ,-57, ,
1, ,-56, ,
1, ,-57, ,
1, ,-56, ,
-1, ,-56, ,
2, ,-56, ,
-1, ,-57, ,
-1, ,-56, ,
1, ,-57, ,
1, ,-57, ,
-1, ,-57, ,
1, ,-56, ,
-1, ,-57, ,
1, ,-56, ,
1, ,-56, ,
1, ,-56, ,
-1, ,-56, ,
1, ,-56, ,
-1, ,-57, ,
1, ,-56, ,
1, ,-56, ,
1, ,-57, ,
-1, ,-57, ,
1, ,-56, ,
-1, ,-57, ,
1, ,-56, ,
1, ,-56, ,
1, ,-56, ,
-1, ,-56, ,
1, ,-56, ,
-1, ,-57, ,
-1, ,-56, ,
1, ,-57, ,
1, ,-57, ,
-1, ,-57, ,
1, ,-56, ,
-1, ,-57, ,
-1, ,-56, ,
1, ,-57, ,
1, ,-56, ,
-1, ,-57, ,
1, ,-56, ,
-1, ,-57, ,
1, ,-56, ,
1, ,-56, ,
1, ,-57, ,
-1, ,-56, ,
1, ,-56, ,
-1, ,-57, ,
-1, ,-56, ,
1, ,-57, ,
1, ,-56, ,
-1, ,-56, ,
1, ,-57, ,
-1, ,-57, ,
-1, ,-56, ,
2, ,-57, ,
1, ,-57, ,
-1, ,-57, ,
1, ,-56, ,
-1, ,-57, ,
-1, ,-56, ,
1, ,-57, ,
1, ,-56, ,
-1, ,-56, ,
2, ,-56, ,
-1, ,-57, ,
1, ,-56, ,
1, ,-57, ,
1, ,-57, ,
-1, ,-56, ,
2, ,-56, ,
-1, ,-57, ,
1, ,-56, ,
1, ,-56, ,
2, ,-56, ,
-1, ,-56, ,
2, ,-56, ,
-1, ,-57, ,
1, ,-56, ,
1, ,-56, ,
1, ,-56, ,
-1, ,-56, ,
2, ,-56, ,
1, ,-57, ,
-1, ,-56, ,
1, ,-57, ,
1, ,-56, ,
-1, ,-56, ,
2, ,-57, ,
-1, ,-57, ,
1, ,-56, ,
1, ,-57, ,
1, ,-57, ,
-1, ,-56, ,
2, ,-56, ,
-1, ,-57, ,
1, ,-56, ,
1, ,-57, ,
1, ,-56, ,
-1, ,-56, ,
1, ,-56, ,
-1, ,-57, ,
1, ,-56, ,
1, ,-57, ,
1, ,-57, ,
-1, ,-56, ,
2, ,-56, ,
-1, ,-57, ,
1, ,-56, ,
1, ,-57, ,
1, ,-56, ,
-1, ,-57, ,
1, ,-56, ,
-1, ,-57, ,
1, ,-56, ,
1, ,-57, ,
1, ,-57, ,
-1, ,-56, ,
2, ,-56, ,
-1, ,-57, ,
1, ,-57, ,
1, ,-57, ,
1, ,-56, ,
-1, ,-56, ,
2, ,-56, ,
-1, ,-57, ,
-1, ,-56, ,
1, ,-57, ,
1, ,-56, ,
-1, ,-56, ,
2, ,-56, ,
-1, ,-57, ,
-1, ,-56, ,
1, ,-57, ,
1, ,-57, ,
-1, ,-57, ,
1, ,-56, ,
-1, ,-57, ,
1, ,-56, ,
1, ,-57, ,
1, ,-56, ,
-1, ,-56, ,
1, ,-56, ,
-1, ,-57, ,
1, ,-56, ,
1, ,-57, ,
1, ,-56, ,
-1, ,-56, ,
1, ,-56, ,
-1, ,-57, ,
1, ,-56, ,
1, ,-57, ,
1, ,-57, ,
-1, ,-56, ,
1, ,-56, ,
-1, ,-57, ,
-1, ,-56, ,
1, ,-57, ,
1, ,-56, ,
-1, ,-56, ,
