src/varyamp_1560/temp0000433.CSV

Format,1.0B,
Memory Length,10000,Memory Length,10000,
IntpDistance,0,IntpDistance,0,
Trigger Address,4999,Trigger Address,4999,
Trigger Level,1.040E+00,Trigger Level,1.040E+00,
Source,CH1,Source,CH2,
Vertical Units,V,Vertical Units,V,
Vertical Units Div,0,Vertical Units Div,0,
Vertical Units Extend Div,16,Vertical Units Extend Div,16,
Label,,Label,,
Probe Type,0,Probe Type,0,
Probe Ratio,1.000e+01,Probe Ratio,1.000e+00,
Vertical Scale,5.000e-01,Vertical Scale,1.000e+00,
Vertical Position,-1.820e+00,Vertical Position,0.000e+00,
Horizontal Units,S,Horizontal Units,S,
Horizontal Scale,2.000E-05,Horizontal Scale,2.000E-05,
Horizontal Position,0.000E+00,Horizontal Position,0.000E+00,
Horizontal Mode,Main,Horizontal Mode,Main,
SincET Mode,Real Time,SincET Mode,Real Time,
Sampling Period,2.000e-08,Sampling Period,2.000e-08,
Horizontal Old Scale,2.000E-05,Horizontal Old Scale,2.000E-05,
Horizontal Old Position,0.000E+00,Horizontal Old Position,0.000E+00,
Firmware,V1.23,Firmware,V1.23,
Mode,Fast,Mode,Fast,
Waveform Data,,Waveform Data,,
2, ,-62, ,
2, ,-63, ,
2, ,-63, ,
3, ,-63, ,
1, ,-63, ,
2, ,-64, ,
2, ,-62, ,
1, ,-63, ,
2, ,-63, ,
3, ,-63, ,
1, ,-62, ,
3, ,-64, ,
2, ,-63, ,
2, ,-63, ,
2, ,-63, ,
3, ,-62, ,
2, ,-63, ,
3, ,-64, ,
2, ,-62, ,
2, ,-63, ,
2, ,-64, ,
3, ,-63, ,
1, ,-62, ,
3, ,-64, ,
2, ,-62, ,
2, ,-63, ,
2, ,-63, ,
3, ,-62, ,
2, ,-63, ,
2, ,-64, ,
2, ,-62, ,
2, ,-63, ,
2, ,-63, ,
2, ,-62, ,
1, ,-63, ,
2, ,-64, ,
2, ,-62, ,
2, ,-63, ,
2, ,-64, ,
2, ,-63, ,
1, ,-63, ,
3, ,-64, ,
2, ,-62, ,
2, ,-63, ,
2, ,-64, ,
3, ,-62, ,
2, ,-63, ,
3, ,-63, ,
2, ,-62, ,
1, ,-63, ,
2, ,-63, ,
3, ,-62, ,
1, ,-63, ,
2, ,-64, ,
2, ,-62, ,
1, ,-63, ,
2, ,-64, ,
3, ,-63, ,
1, ,-63, ,
3, ,-63, ,
2, ,-62, ,
2, ,-63, ,
2, ,-64, ,
3, ,-62, ,
1, ,-63, ,
2, ,-64, ,
2, ,-62, ,
1, ,-63, ,
2, ,-64, ,
2, ,-63, ,
1, ,-63, ,
3, ,-64, ,
2, ,-62, ,
2, ,-63, ,
2, ,-63, ,
2, ,-62, ,
1, ,-63, ,
3, ,-64, ,
2, ,-62, ,
2, ,-63, ,
2, ,-64, ,
2, ,-62, ,
1, ,-62, ,
2, ,-64, ,
1, ,-62, ,
1, ,-63, ,
2, ,-64, ,
2, ,-62, ,
1, ,-62, ,
2, ,-64, ,
2, ,-62, ,
2, ,-63, ,
2, ,-64, ,
2, ,-63, ,
1, ,-63, ,
3, ,-63, ,
2, ,-62, ,
1, ,-63, ,
2, ,-63, ,
2, ,-62, ,
1, ,-62, ,
2, ,-64, ,
2, ,-62, ,
2, ,-63, ,
2, ,-64, ,
2, ,-63, ,
1, ,-63, ,
2, ,-64, ,
2, ,-62, ,
1, ,-63, ,
2, ,-64, ,
3, ,-62, ,
1, ,-63, ,
2, ,-64, ,
1, ,-62, ,
1, ,-63, ,
2, ,-63, ,
2, ,-63, ,
1, ,-63, ,
2, ,-64, ,
2, ,-62, ,
2, ,-63, ,
2, ,-63, ,
2, ,-63, ,
1, ,-63, ,
2, ,-63, ,
2, ,-62, ,
1, ,-63, ,
2, ,-63, ,
2, ,-63, ,
1, ,-63, ,
3, ,-64, ,
2, ,-62, ,
3, ,-63, ,
34, ,-63, ,
25, ,-62, ,
16, ,-63, ,
11, ,-64, ,
7, ,-62, ,
5, ,-63, ,
5, ,-64, ,
3, ,-63, ,
2, ,-63, ,
5, ,-64, ,
2, ,-62, ,
2, ,-63, ,
3, ,-63, ,
2, ,-62, ,
2, ,-63, ,
2, ,-64, ,
2, ,-62, ,
2, ,-63, ,
2, ,-64, ,
3, ,-62, ,
2, ,-63, ,
3, ,-64, ,
2, ,-62, ,
2, ,-63, ,
2, ,-63, ,
3, ,-62, ,
2, ,-63, ,
3, ,-64, ,
2, ,-62, ,
2, ,-63, ,
2, ,-63, ,
3, ,-62, ,
2, ,-62, ,
3, ,-63, ,
2, ,-62, ,
2, ,-63, ,
2, ,-63, ,
3, ,-62, ,
2, ,-63, ,
3, ,-64, ,
2, ,-63, ,
2, ,-63, ,
2, ,-63, ,
3, ,-63, ,
1, ,-63, ,
3, ,-63, ,
2, ,-62, ,
2, ,-63, ,
3, ,-63, ,
3, ,-63, ,
1, ,-63, ,
3, ,-63, ,
2, ,-63, ,
2, ,-63, ,
2, ,-63, ,
2, ,-63, ,
2, ,-62, ,
3, ,-64, ,
2, ,-61, ,
2, ,-63, ,
2, ,-63, ,
3, ,-62, ,
2, ,-62, ,
3, ,-64, ,
2, ,-62, ,
2, ,-63, ,
2, ,-63, ,
3, ,-63, ,
1, ,-63, ,
3, ,-64, ,
2, ,-62, ,
2, ,-63, ,
2, ,-64, ,
3, ,-63, ,
1, ,-62, ,
2, ,-63, ,
2, ,-62, ,
2, ,-63, ,
2, ,-63, ,
3, ,-63, ,
1, ,-63, ,
2, ,-64, ,
2, ,-62, ,
2, ,-63, ,
2, ,-63, ,
3, ,-62, ,
1, ,-62, ,
2, ,-64, ,
2, ,-62, ,
2, ,-63, ,
2, ,-63, ,
2, ,-63, ,
1, ,-63, ,
2, ,-64, ,
2, ,-62, ,
2, ,-63, ,
2, ,-64, ,
2, ,-62, ,
1, ,-62, ,
2, ,-64, ,
2, ,-62, ,
2, ,-63, ,
2, ,-63, ,
3, ,-63, ,
1, ,-63, ,
2, ,-63, ,
2, ,-61, ,
2, ,-63, ,
2, ,-64, ,
3, ,-63, ,
1, ,-62, ,
3, ,-64, ,
2, ,-62, ,
1, ,-63, ,
2, ,-63, ,
2, ,-63, ,
1, ,-63, ,
2, ,-63, ,
2, ,-61, ,
2, ,-63, ,
2, ,-63, ,
3, ,-63, ,
1, ,-63, ,
2, ,-64, ,
2, ,-62, ,
1, ,-63, ,
2, ,-63, ,
2, ,-63, ,
1, ,-63, ,
2, ,-64, ,
2, ,-62, ,
2, ,-63, ,
2, ,-64, ,
2, ,-63, ,
1, ,-62, ,
2, ,-64, ,
2, ,-62, ,
1, ,-63, ,
2, ,-63, ,
2, ,-63, ,
1, ,-63, ,
2, ,-64, ,
2, ,-62, ,
1, ,-63, ,
2, ,-64, ,
2, ,-63, ,
1, ,-62, ,
2, ,-64, ,
2, ,-62, ,
1, ,-63, ,
2, ,-63, ,
2, ,-63, ,
1, ,-63, ,
2, ,-64, ,
1, ,-62, ,
1, ,-63, ,
2, ,-64, ,
2, ,-63, ,
1, ,-63, ,
2, ,-64, ,
1, ,-62, ,
2, ,-63, ,
2, ,-63, ,
2, ,-63, ,
1, ,-63, ,
2, ,-64, ,
1, ,-62, ,
1, ,-58, ,
2, ,-39, ,
2, ,-21, ,
1, ,-7, ,
2, ,2, ,
2, ,9, ,
2, ,15, ,
2, ,19, ,
2, ,22, ,
1, ,24, ,
2, ,26, ,
1, ,27, ,
1, ,27, ,
2, ,28, ,
2, ,30, ,
1, ,30, ,
2, ,31, ,
1, ,30, ,
1, ,31, ,
2, ,31, ,
2, ,31, ,
1, ,31, ,
2, ,31, ,
1, ,31, ,
2, ,31, ,
2, ,31, ,
2, ,31, ,
1, ,31, ,
2, ,31, ,
1, ,31, ,
1, ,31, ,
2, ,31, ,
2, ,31, ,
1, ,31, ,
2, ,31, ,
1, ,30, ,
1, ,31, ,
2, ,31, ,
1, ,31, ,
1, ,30, ,
2, ,31, ,
1, ,31, ,
1, ,30, ,
2, ,31, ,
2, ,31, ,
1, ,30, ,
2, ,31, ,
1, ,30, ,
1, ,30, ,
2, ,30, ,
2, ,30, ,
1, ,30, ,
2, ,31, ,
1, ,30, ,
1, ,30, ,
2, ,30, ,
1, ,31, ,
1, ,30, ,
2, ,31, ,
1, ,30, ,
1, ,30, ,
2, ,30, ,
1, ,30, ,
1, ,30, ,
2, ,31, ,
1, ,30, ,
1, ,30, ,
2, ,31, ,
2, ,31, ,
1, ,30, ,
2, ,30, ,
1, ,30, ,
1, ,30, ,
2, ,30, ,
1, ,30, ,
1, ,30, ,
2, ,31, ,
1, ,30, ,
1, ,30, ,
2, ,30, ,
1, ,30, ,
1, ,30, ,
2, ,31, ,
1, ,30, ,
1, ,30, ,
2, ,31, ,
2, ,30, ,
1, ,30, ,
2, ,31, ,
1, ,30, ,
1, ,30, ,
2, ,31, ,
1, ,31, ,
1, ,30, ,
2, ,31, ,
1, ,30, ,
1, ,30, ,
2, ,30, ,
1, ,30, ,
1, ,30, ,
2, ,31, ,
1, ,30, ,
1, ,30, ,
2, ,31, ,
1, ,30, ,
1, ,31, ,
2, ,30, ,
1, ,30, ,
1, ,30, ,
2, ,30, ,
1, ,30, ,
-1, ,30, ,
2, ,31, ,
1, ,30, ,
1, ,30, ,
2, ,30, ,
1, ,30, ,
-1, ,30, ,
2, ,30, ,
1, ,30, ,
1, ,30, ,
2, ,30, ,
1, ,30, ,
-1, ,30, ,
2, ,31, ,
1, ,30, ,
1, ,30, ,
2, ,30, ,
1, ,30, ,
-1, ,30, ,
2, ,30, ,
1, ,30, ,
1, ,30, ,
2, ,30, ,
1, ,30, ,
1, ,30, ,
2, ,31, ,
1, ,30, ,
1, ,30, ,
2, ,30, ,
1, ,30, ,
-1, ,30, ,
2, ,30, ,
1, ,30, ,
1, ,30, ,
2, ,30, ,
1, ,30, ,
1, ,30, ,
2, ,31, ,
1, ,30, ,
1, ,30, ,
2, ,30, ,
1, ,30, ,
-1, ,30, ,
2, ,30, ,
1, ,15, ,
1, ,-4, ,
1, ,-20, ,
1, ,-31, ,
-1, ,-39, ,
2, ,-46, ,
1, ,-51, ,
1, ,-54, ,
2, ,-57, ,
2, ,-58, ,
1, ,-60, ,
2, ,-62, ,
1, ,-60, ,
1, ,-63, ,
2, ,-64, ,
2, ,-63, ,
-1, ,-62, ,
2, ,-64, ,
1, ,-62, ,
1, ,-63, ,
2, ,-64, ,
1, ,-64, ,
1, ,-63, ,
2, ,-64, ,
1, ,-62, ,
1, ,-64, ,
2, ,-64, ,
1, ,-63, ,
1, ,-63, ,
2, ,-64, ,
1, ,-62, ,
1, ,-64, ,
2, ,-64, ,
2, ,-63, ,
1, ,-63, ,
2, ,-64, ,
1, ,-62, ,
1, ,-64, ,
2, ,-64, ,
1, ,-63, ,
1, ,-63, ,
2, ,-64, ,
1, ,-62, ,
1, ,-63, ,
2, ,-64, ,
1, ,-63, ,
1, ,-63, ,
2, ,-64, ,
1, ,-62, ,
1, ,-63, ,
2, ,-64, ,
1, ,-63, ,
1, ,-63, ,
2, ,-64, ,
1, ,-62, ,
1, ,-63, ,
2, ,-64, ,
2, ,-63, ,
1, ,-63, ,
2, ,-64, ,
1, ,-61, ,
1, ,-63, ,
2, ,-63, ,
1, ,-63, ,
1, ,-63, ,
2, ,-64, ,
1, ,-62, ,
1, ,-63, ,
1, ,-63, ,
1, ,-63, ,
1, ,-63, ,
2, ,-64, ,
1, ,-61, ,
1, ,-63, ,
1, ,-64, ,
2, ,-63, ,
1, ,-63, ,
1, ,-64, ,
1, ,-63, ,
1, ,-63, ,
2, ,-64, ,
1, ,-63, ,
-1, ,-63, ,
2, ,-64, ,
1, ,-62, ,
1, ,-63, ,
2, ,-64, ,
1, ,-63, ,
-1, ,-62, ,
2, ,-64, ,
1, ,-62, ,
1, ,-63, ,
1, ,-63, ,
1, ,-63, ,
-1, ,-63, ,
2, ,-64, ,
1, ,-62, ,
1, ,-63, ,
2, ,-64, ,
1, ,-63, ,
-1, ,-62, ,
1, ,-64, ,
1, ,-62, ,
1, ,-63, ,
1, ,-63, ,
2, ,-63, ,
-1, ,-63, ,
2, ,-64, ,
1, ,-61, ,
1, ,-63, ,
1, ,-64, ,
1, ,-62, ,
-1, ,-62, ,
1, ,-64, ,
1, ,-62, ,
1, ,-63, ,
1, ,-63, ,
1, ,-63, ,
-1, ,-63, ,
1, ,-64, ,
1, ,-61, ,
1, ,-63, ,
2, ,-64, ,
2, ,-62, ,
-1, ,-62, ,
2, ,-64, ,
1, ,-62, ,
1, ,-63, ,
1, ,-63, ,
1, ,-63, ,
1, ,-63, ,
2, ,-64, ,
1, ,-61, ,
1, ,-63, ,
1, ,-64, ,
1, ,-62, ,
-1, ,-62, ,
2, ,-64, ,
1, ,-62, ,
1, ,-63, ,
2, ,-63, ,
1, ,-63, ,
1, ,-63, ,
2, ,-64, ,
1, ,-61, ,
1, ,-63, ,
2, ,-63, ,
1, ,-63, ,
-1, ,-62, ,
2, ,-64, ,
1, ,-62, ,
1, ,-63, ,
2, ,-63, ,
1, ,-63, ,
1, ,-63, ,
2, ,-64, ,
1, ,-62, ,
1, ,-63, ,
2, ,-64, ,
1, ,-62, ,
-1, ,-62, ,
1, ,-64, ,
1, ,-62, ,
1, ,-63, ,
2, ,-64, ,
1, ,-63, ,
-1, ,-63, ,
2, ,-63, ,
1, ,-62, ,
1, ,-63, ,
1, ,-64, ,
1, ,-63, ,
-1, ,-62, ,
1, ,-64, ,
1, ,-62, ,
1, ,-63, ,
1, ,-63, ,
1, ,-63, ,
-1, ,-63, ,
2, ,-64, ,
1, ,-62, ,
1, ,-63, ,
2, ,-64, ,
2, ,-63, ,
-1, ,-62, ,
1, ,-64, ,
1, ,-62, ,
1, ,-63, ,
1, ,-63, ,
1, ,-63, ,
-1, ,-63, ,
2, ,-64, ,
1, ,-62, ,
1, ,-63, ,
2, ,-63, ,
2, ,-62, ,
-1, ,-62, ,
1, ,-64, ,
1, ,-62, ,
1, ,-63, ,
2, ,-63, ,
1, ,-63, ,
-1, ,-63, ,
2, ,-64, ,
1, ,-62, ,
1, ,-63, ,
1, ,-63, ,
1, ,-63, ,
-1, ,-62, ,
1, ,-63, ,
1, ,-62, ,
1, ,-63, ,
2, ,-63, ,
1, ,-63, ,
-1, ,-63, ,
2, ,-64, ,
1, ,-62, ,
1, ,-63, ,
1, ,-63, ,
1, ,-62, ,
-1, ,-62, ,
1, ,-64, ,
1, ,-62, ,
1, ,-63, ,
1, ,-63, ,
1, ,-63, ,
-1, ,-63, ,
2, ,-64, ,
1, ,-61, ,
1, ,-63, ,
2, ,-64, ,
1, ,-63, ,
-1, ,-62, ,
1, ,-64, ,
1, ,-62, ,
1, ,-63, ,
2, ,-63, ,
1, ,-63, ,
-1, ,-63, ,
1, ,-64, ,
1, ,-62, ,
1, ,-63, ,
1, ,-64, ,
1, ,-63, ,
-1, ,-62, ,
1, ,-64, ,
1, ,-62, ,
1, ,-63, ,
1, ,-63, ,
1, ,-63, ,
-1, ,-63, ,
2, ,-64, ,
1, ,-62, ,
1, ,-63, ,
1, ,-64, ,
1, ,-62, ,
-1, ,-62, ,
1, ,-64, ,
1, ,-62, ,
1, ,-63, ,
1, ,-63, ,
1, ,-63, ,
-1, ,-63, ,
1, ,-64, ,
1, ,-61, ,
1, ,-63, ,
1, ,-64, ,
1, ,-63, ,
-1, ,-63, ,
2, ,-64, ,
1, ,-62, ,
1, ,-63, ,
1, ,-63, ,
1, ,-63, ,
-1, ,-63, ,
2, ,-63, ,
1, ,-62, ,
1, ,-63, ,
1, ,-63, ,
1, ,-63, ,
-1, ,-62, ,
2, ,-64, ,
1, ,-62, ,
1, ,-63, ,
1, ,-63, ,
1, ,-62, ,
-1, ,-62, ,
1, ,-64, ,
1, ,-61, ,
1, ,-63, ,
2, ,-64, ,
1, ,-62, ,
-1, ,-62, ,
2, ,-64, ,
1, ,-62, ,
1, ,-63, ,
1, ,-63, ,
1, ,-63, ,
-1, ,-63, ,
2, ,-64, ,
1, ,-61, ,
1, ,-63, ,
2, ,-63, ,
1, ,-62, ,
-1, ,-62, ,
1, ,-64, ,
1, ,-62, ,
1, ,-63, ,
1, ,-63, ,
1, ,-63, ,
-1, ,-63, ,
1, ,-64, ,
1, ,-62, ,
1, ,-63, ,
1, ,-64, ,
2, ,-63, ,
-1, ,-62, ,
1, ,-64, ,
1, ,-63, ,
1, ,-63, ,
1, ,-63, ,
1, ,-62, ,
-1, ,-62, ,
1, ,-64, ,
1, ,-62, ,
1, ,-63, ,
1, ,-63, ,
1, ,-62, ,
-1, ,-63, ,
1, ,-64, ,
1, ,-63, ,
1, ,-63, ,
1, ,-63, ,
1, ,-63, ,
-1, ,-63, ,
1, ,-64, ,
1, ,-62, ,
1, ,-63, ,
1, ,-64, ,
1, ,-62, ,
-1, ,-62, ,
1, ,-64, ,
1, ,-62, ,
1, ,-63, ,
1, ,-63, ,
1, ,-63, ,
-1, ,-63, ,
1, ,-64, ,
-1, ,-62, ,
1, ,-63, ,
1, ,-63, ,
1, ,-63, ,
-1, ,-62, ,
1, ,-64, ,
1, ,-62, ,
-1, ,-63, ,
1, ,-63, ,
1, ,-63, ,
-1, ,-62, ,
1, ,-64, ,
1, ,-62, ,
1, ,-63, ,
1, ,-63, ,
1, ,-62, ,
-1, ,-62, ,
1, ,-64, ,
1, ,-62, ,
1, ,-63, ,
1, ,-63, ,
1, ,-63, ,
-1, ,-63, ,
1, ,-63, ,
-1, ,-62, ,
-1, ,-63, ,
1, ,-64, ,
1, ,-62, ,
-1, ,-62, ,
1, ,-64, ,
1, ,-62, ,
-1, ,-63, ,
1, ,-63, ,
1, ,-63, ,
-1, ,-63, ,
1, ,-64, ,
-1, ,-61, ,
1, ,-63, ,
2, ,-64, ,
1, ,-62, ,
-1, ,-63, ,
1, ,-64, ,
1, ,-62, ,
-1, ,-63, ,
1, ,-63, ,
1, ,-63, ,
-1, ,-63, ,
1, ,-63, ,
1, ,-61, ,
1, ,-63, ,
1, ,-63, ,
1, ,-62, ,
-1, ,-63, ,
1, ,-64, ,
1, ,-62, ,
1, ,-63, ,
1, ,-64, ,
1, ,-63, ,
-1, ,-63, ,
2, ,-64, ,
1, ,-62, ,
-1, ,-63, ,
1, ,-64, ,
2, ,-62, ,
-1, ,-62, ,
1, ,-64, ,
1, ,-62, ,
1, ,-63, ,
1, ,-64, ,
1, ,-63, ,
-1, ,-63, ,
2, ,-64, ,
1, ,-62, ,
1, ,-63, ,
1, ,-64, ,
1, ,-63, ,
-1, ,-62, ,
1, ,-64, ,
1, ,-62, ,
1, ,-63, ,
1, ,-63, ,
1, ,-63, ,
-1, ,-63, ,
2, ,-64, ,
1, ,-62, ,
1, ,-63, ,
1, ,-63, ,
2, ,-63, ,
-1, ,-63, ,
1, ,-64, ,
-1, ,-62, ,
1, ,-63, ,
1, ,-64, ,
1, ,-63, ,
-1, ,-63, ,
2, ,-64, ,
1, ,-61, ,
1, ,-63, ,
1, ,-64, ,
1, ,-63, ,
-1, ,-63, ,
1, ,-64, ,
1, ,-62, ,
1, ,-63, ,
1, ,-63, ,
1, ,-63, ,
-1, ,-63, ,
1, ,-64, ,
-1, ,-62, ,
1, ,-63, ,
1, ,-63, ,
1, ,-62, ,
-1, ,-62, ,
1, ,-64, ,
1, ,-62, ,
-1, ,-63, ,
1, ,-64, ,
1, ,-63, ,
-1, ,-63, ,
1, ,-63, ,
-1, ,-62, ,
1, ,-63, ,
1, ,-64, ,
1, ,-62, ,
-1, ,-62, ,
1, ,-64, ,
1, ,-62, ,
-1, ,-63, ,
1, ,-63, ,
1, ,-63, ,
-1, ,-63, ,
1, ,-64, ,
-1, ,-62, ,
-1, ,-63, ,
1, ,-64, ,
2, ,-62, ,
-1, ,-63, ,
1, ,-64, ,
1, ,-62, ,
-1, ,-63, ,
1, ,-63, ,
1, ,-63, ,
-1, ,-63, ,
1, ,-64, ,
1, ,-61, ,
1, ,-63, ,
1, ,-64, ,
1, ,-62, ,
-1, ,-62, ,
1, ,-64, ,
1, ,-62, ,
-1, ,-63, ,
1, ,-64, ,
1, ,-63, ,
-1, ,-63, ,
1, ,-64, ,
-1, ,-62, ,
1, ,-63, ,
1, ,-64, ,
1, ,-63, ,
-1, ,-63, ,
1, ,-64, ,
1, ,-62, ,
-1, ,-63, ,
1, ,-63, ,
1, ,-63, ,
-1, ,-63, ,
1, ,-64, ,
-1, ,-62, ,
1, ,-63, ,
1, ,-64, ,
1, ,-62, ,
-1, ,-62, ,
1, ,-64, ,
1, ,-62, ,
-1, ,-63, ,
1, ,-63, ,
1, ,-63, ,
-1, ,-63, ,
1, ,-64, ,
-1, ,-61, ,
1, ,-63, ,
1, ,-64, ,
1, ,-63, ,
-1, ,-62, ,
1, ,-64, ,
1, ,-62, ,
-1, ,-63, ,
1, ,-64, ,
1, ,-63, ,
-1, ,-63, ,
1, ,-63, ,
1, ,-61, ,
-1, ,-63, ,
1, ,-64, ,
1, ,-63, ,
-1, ,-62, ,
1, ,-64, ,
1, ,-62, ,
1, ,-63, ,
1, ,-64, ,
1, ,-63, ,
-1, ,-63, ,
1, ,-64, ,
1, ,-61, ,
1, ,-63, ,
1, ,-64, ,
1, ,-63, ,
-1, ,-62, ,
2, ,-64, ,
1, ,-62, ,
1, ,-63, ,
1, ,-63, ,
1, ,-63, ,
-1, ,-63, ,
1, ,-64, ,
-1, ,-62, ,
1, ,-63, ,
2, ,-64, ,
1, ,-63, ,
-1, ,-62, ,
1, ,-64, ,
1, ,-62, ,
-1, ,-63, ,
1, ,-63, ,
1, ,-63, ,
-1, ,-63, ,
1, ,-64, ,
1, ,-61, ,
1, ,-63, ,
1, ,-64, ,
1, ,-63, ,
-1, ,-63, ,
1, ,-64, ,
-1, ,-62, ,
1, ,-63, ,
1, ,-64, ,
1, ,-63, ,
-1, ,-62, ,
1, ,-64, ,
-1, ,-61, ,
-1, ,-63, ,
1, ,-64, ,
1, ,-62, ,
-1, ,-62, ,
1, ,-64, ,
1, ,-62, ,
-1, ,-63, ,
1, ,-63, ,
1, ,-63, ,
-1, ,-63, ,
1, ,-64, ,
-1, ,-62, ,
-1, ,-63, ,
1, ,-63, ,
1, ,-62, ,
-1, ,-62, ,
1, ,-63, ,
1, ,-62, ,
-1, ,-63, ,
1, ,-63, ,
1, ,-63, ,
-1, ,-63, ,
1, ,-64, ,
-1, ,-62, ,
1, ,-63, ,
1, ,-63, ,
1, ,-63, ,
-1, ,-62, ,
1, ,-64, ,
-1, ,-62, ,
-1, ,-63, ,
-1, ,-63, ,
-1, ,-63, ,
-1, ,-63, ,
2, ,-64, ,
1, ,-62, ,
-1, ,-63, ,
1, ,-62, ,
1, ,-44, ,
-1, ,-25, ,
1, ,-11, ,
1, ,0, ,
1, ,7, ,
1, ,14, ,
1, ,18, ,
-1, ,21, ,
1, ,23, ,
-1, ,25, ,
1, ,26, ,
1, ,28, ,
1, ,28, ,
-1, ,30, ,
1, ,30, ,
1, ,30, ,
-1, ,30, ,
1, ,31, ,
1, ,31, ,
-1, ,31, ,
1, ,31, ,
-1, ,31, ,
-1, ,31, ,
1, ,31, ,
1, ,31, ,
-1, ,31, ,
1, ,31, ,
-1, ,31, ,
-1, ,30, ,
1, ,31, ,
1, ,31, ,
-1, ,30, ,
2, ,31, ,
-1, ,30, ,
-1, ,31, ,
1, ,31, ,
1, ,31, ,
-1, ,30, ,
1, ,31, ,
-1, ,30, ,
-1, ,30, ,
1, ,31, ,
1, ,31, ,
-1, ,31, ,
2, ,31, ,
-1, ,30, ,
-1, ,30, ,
1, ,30, ,
1, ,30, ,
-1, ,30, ,
2, ,31, ,
-1, ,30, ,
-1, ,30, ,
1, ,30, ,
1, ,30, ,
-1, ,30, ,
2, ,31, ,
-1, ,30, ,
-1, ,30, ,
1, ,31, ,
1, ,30, ,
-1, ,30, ,
2, ,31, ,
-1, ,30, ,
-1, ,30, ,
1, ,31, ,
1, ,30, ,
-1, ,30, ,
1, ,30, ,
-1, ,30, ,
-1, ,30, ,
1, ,30, ,
1, ,30, ,
-1, ,30, ,
2, ,31, ,
-1, ,30, ,
-1, ,30, ,
1, ,30, ,
1, ,31, ,
-1, ,31, ,
1, ,30, ,
-1, ,30, ,
-1, ,30, ,
1, ,30, ,
1, ,30, ,
-1, ,30, ,
2, ,31, ,
-1, ,30, ,
-1, ,30, ,
1, ,30, ,
1, ,30, ,
-1, ,30, ,
1, ,30, ,
-1, ,30, ,
-1, ,30, ,
1, ,30, ,
1, ,30, ,
-1, ,30, ,
2, ,31, ,
-1, ,30, ,
-1, ,30, ,
1, ,30, ,
1, ,30, ,
-1, ,30, ,
2, ,30, ,
-1, ,30, ,
-1, ,30, ,
1, ,30, ,
1, ,30, ,
-1, ,30, ,
1, ,31, ,
-1, ,30, ,
-1, ,30, ,
1, ,30, ,
1, ,30, ,
-1, ,30, ,
1, ,31, ,
-1, ,30, ,
-1, ,30, ,
1, ,30, ,
1, ,30, ,
-1, ,30, ,
2, ,31, ,
-1, ,30, ,
-1, ,30, ,
1, ,30, ,
1, ,31, ,
-1, ,30, ,
1, ,30, ,
-1, ,30, ,
-1, ,31, ,
1, ,30, ,
1, ,30, ,
-1, ,30, ,
1, ,31, ,
-1, ,30, ,
-1, ,30, ,
1, ,30, ,
1, ,31, ,
-1, ,30, ,
1, ,30, ,
-1, ,30, ,
-1, ,30, ,
1, ,30, ,
1, ,30, ,
-1, ,30, ,
1, ,31, ,
-1, ,30, ,
-1, ,30, ,
1, ,30, ,
1, ,30, ,
-1, ,30, ,
1, ,31, ,
-1, ,30, ,
-1, ,20, ,
1, ,0, ,
-1, ,-16, ,
-2, ,-28, ,
1, ,-38, ,
-1, ,-44, ,
-1, ,-50, ,
1, ,-54, ,
1, ,-56, ,
-1, ,-58, ,
1, ,-60, ,
-1, ,-59, ,
-1, ,-62, ,
1, ,-63, ,
1, ,-63, ,
-1, ,-62, ,
1, ,-64, ,
-1, ,-62, ,
-1, ,-64, ,
1, ,-63, ,
1, ,-64, ,
-1, ,-63, ,
1, ,-64, ,
-1, ,-62, ,
-1, ,-64, ,
1, ,-64, ,
1, ,-63, ,
-1, ,-63, ,
1, ,-65, ,
1, ,-63, ,
-1, ,-64, ,
1, ,-64, ,
1, ,-63, ,
-1, ,-63, ,
1, ,-64, ,
1, ,-62, ,
1, ,-63, ,
1, ,-64, ,
1, ,-62, ,
-1, ,-63, ,
1, ,-64, ,
1, ,-63, ,
1, ,-63, ,
1, ,-64, ,
1, ,-63, ,
-1, ,-63, ,
1, ,-64, ,
1, ,-62, ,
1, ,-63, ,
1, ,-64, ,
1, ,-63, ,
-1, ,-63, ,
1, ,-64, ,
1, ,-62, ,
1, ,-63, ,
1, ,-63, ,
1, ,-63, ,
-1, ,-63, ,
1, ,-64, ,
-1, ,-62, ,
1, ,-63, ,
1, ,-64, ,
1, ,-63, ,
-1, ,-63, ,
1, ,-64, ,
1, ,-63, ,
-1, ,-63, ,
1, ,-63, ,
1, ,-63, ,
-1, ,-63, ,
1, ,-64, ,
-1, ,-62, ,
1, ,-63, ,
1, ,-64, ,
1, ,-63, ,
-1, ,-63, ,
1, ,-64, ,
1, ,-62, ,
-1, ,-63, ,
1, ,-64, ,
1, ,-63, ,
-1, ,-63, ,
1, ,-64, ,
1, ,-61, ,
1, ,-63, ,
1, ,-64, ,
2, ,-62, ,
-1, ,-62, ,
1, ,-64, ,
-1, ,-62, ,
-1, ,-63, ,
1, ,-63, ,
1, ,-63, ,
-1, ,-63, ,
1, ,-64, ,
-1, ,-62, ,
-1, ,-63, ,
1, ,-64, ,
1, ,-63, ,
-1, ,-63, ,
1, ,-64, ,
-1, ,-62, ,
-1, ,-63, ,
1, ,-63, ,
1, ,-63, ,
-1, ,-63, ,
1, ,-64, ,
-1, ,-62, ,
-1, ,-63, ,
1, ,-64, ,
1, ,-63, ,
-1, ,-62, ,
1, ,-64, ,
-1, ,-62, ,
-1, ,-63, ,
1, ,-63, ,
1, ,-63, ,
-1, ,-63, ,
1, ,-64, ,
-1, ,-62, ,
-1, ,-63, ,
1, ,-64, ,
1, ,-63, ,
-1, ,-62, ,
1, ,-64, ,
-1, ,-63, ,
-1, ,-63, ,
1, ,-63, ,
1, ,-63, ,
-1, ,-63, ,
1, ,-64, ,
-1, ,-61, ,
-1, ,-63, ,
1, ,-63, ,
1, ,-63, ,
-1, ,-63, ,
1, ,-64, ,
-1, ,-62, ,
-1, ,-63, ,
1, ,-63, ,
1, ,-63, ,
-1, ,-63, ,
1, ,-64, ,
-1, ,-62, ,
-1, ,-63, ,
1, ,-64, ,
1, ,-62, ,
-1, ,-62, ,
1, ,-64, ,
-1, ,-62, ,
-1, ,-63, ,
1, ,-64, ,
1, ,-63, ,
-1, ,-63, ,
1, ,-64, ,
-1, ,-61, ,
-1, ,-63, ,
1, ,-63, ,
1, ,-62, ,
-1, ,-62, ,
1, ,-64, ,
-1, ,-62, ,
-1, ,-63, ,
1, ,-63, ,
1, ,-63, ,
-1, ,-63, ,
1, ,-64, ,
-1, ,-62, ,
-1, ,-63, ,
1, ,-64, ,
1, ,-63, ,
-1, ,-62, ,
1, ,-64, ,
1, ,-62, ,
-1, ,-63, ,
1, ,-63, ,
1, ,-63, ,
-1, ,-63, ,
1, ,-64, ,
1, ,-61, ,
1, ,-63, ,
1, ,-64, ,
1, ,-63, ,
-1, ,-62, ,
1, ,-63, ,
-1, ,-62, ,
-1, ,-63, ,
1, ,-63, ,
1, ,-63, ,
-1, ,-63, ,
1, ,-64, ,
-1, ,-62, ,
-1, ,-63, ,
1, ,-64, ,
1, ,-62, ,
-1, ,-62, ,
1, ,-64, ,
-1, ,-62, ,
-1, ,-63, ,
1, ,-64, ,
1, ,-63, ,
-1, ,-62, ,
1, ,-64, ,
-1, ,-61, ,
-1, ,-63, ,
1, ,-64, ,
1, ,-63, ,
-1, ,-62, ,
1, ,-64, ,
-1, ,-62, ,
-1, ,-63, ,
1, ,-63, ,
1, ,-63, ,
-1, ,-63, ,
1, ,-63, ,
-1, ,-61, ,
-1, ,-63, ,
1, ,-64, ,
1, ,-63, ,
-1, ,-62, ,
1, ,-64, ,
-1, ,-62, ,
-1, ,-63, ,
1, ,-64, ,
1, ,-63, ,
-1, ,-62, ,
1, ,-64, ,
-1, ,-61, ,
-1, ,-63, ,
1, ,-64, ,
1, ,-62, ,
-1, ,-63, ,
1, ,-64, ,
-1, ,-62, ,
-1, ,-63, ,
1, ,-63, ,
1, ,-63, ,
-1, ,-63, ,
1, ,-64, ,
-1, ,-62, ,
-1, ,-63, ,
1, ,-64, ,
1, ,-63, ,
-1, ,-62, ,
1, ,-64, ,
-1, ,-62, ,
-1, ,-63, ,
1, ,-63, ,
1, ,-63, ,
-1, ,-63, ,
1, ,-64, ,
-1, ,-61, ,
-1, ,-63, ,
1, ,-64, ,
1, ,-63, ,
-1, ,-62, ,
1, ,-64, ,
-1, ,-62, ,
-1, ,-63, ,
1, ,-63, ,
1, ,-63, ,
-1, ,-62, ,
1, ,-64, ,
-1, ,-61, ,
-1, ,-63, ,
1, ,-64, ,
1, ,-63, ,
-1, ,-62, ,
1, ,-64, ,
-1, ,-62, ,
-1, ,-63, ,
1, ,-63, ,
1, ,-62, ,
-1, ,-63, ,
1, ,-63, ,
-1, ,-61, ,
-1, ,-63, ,
1, ,-63, ,
1, ,-62, ,
-1, ,-62, ,
1, ,-64, ,
-1, ,-62, ,
-1, ,-63, ,
1, ,-63, ,
1, ,-63, ,
-1, ,-63, ,
1, ,-64, ,
-1, ,-62, ,
-1, ,-63, ,
2, ,-63, ,
1, ,-62, ,
-1, ,-62, ,
1, ,-64, ,
-1, ,-62, ,
-1, ,-62, ,
1, ,-63, ,
1, ,-63, ,
-1, ,-63, ,
1, ,-64, ,
-1, ,-61, ,
-1, ,-63, ,
1, ,-64, ,
1, ,-63, ,
-1, ,-62, ,
1, ,-64, ,
-1, ,-62, ,
-1, ,-63, ,
1, ,-63, ,
1, ,-63, ,
-1, ,-63, ,
1, ,-64, ,
-1, ,-61, ,
-1, ,-63, ,
1, ,-63, ,
1, ,-62, ,
-1, ,-62, ,
1, ,-64, ,
-1, ,-62, ,
-1, ,-63, ,
1, ,-63, ,
1, ,-63, ,
-1, ,-63, ,
1, ,-63, ,
-1, ,-61, ,
-1, ,-63, ,
1, ,-63, ,
1, ,-63, ,
-1, ,-62, ,
1, ,-64, ,
-1, ,-62, ,
-1, ,-63, ,
1, ,-63, ,
1, ,-63, ,
-1, ,-63, ,
1, ,-63, ,
-1, ,-61, ,
-1, ,-63, ,
1, ,-64, ,
1, ,-63, ,
-1, ,-62, ,
1, ,-64, ,
-1, ,-62, ,
-1, ,-63, ,
1, ,-63, ,
1, ,-62, ,
-1, ,-63, ,
1, ,-64, ,
-1, ,-62, ,
-1, ,-63, ,
1, ,-64, ,
1, ,-63, ,
-1, ,-62, ,
1, ,-64, ,
-1, ,-62, ,
-1, ,-63, ,
1, ,-63, ,
1, ,-63, ,
-1, ,-63, ,
1, ,-64, ,
-1, ,-62, ,
-1, ,-63, ,
1, ,-64, ,
1, ,-63, ,
-1, ,-62, ,
1, ,-64, ,
1, ,-62, ,
-1, ,-63, ,
1, ,-63, ,
1, ,-63, ,
-1, ,-63, ,
1, ,-64, ,
-1, ,-61, ,
-1, ,-63, ,
1, ,-64, ,
1, ,-62, ,
-1, ,-63, ,
1, ,-64, ,
-1, ,-62, ,
-1, ,-63, ,
1, ,-63, ,
1, ,-63, ,
-1, ,-63, ,
1, ,-64, ,
-1, ,-62, ,
-1, ,-63, ,
1, ,-64, ,
1, ,-62, ,
-1, ,-62, ,
1, ,-64, ,
-1, ,-61, ,
-1, ,-63, ,
1, ,-63, ,
1, ,-63, ,
-1, ,-63, ,
1, ,-64, ,
-1, ,-62, ,
-1, ,-63, ,
1, ,-63, ,
1, ,-63, ,
-1, ,-62, ,
1, ,-64, ,
-1, ,-62, ,
-1, ,-63, ,
1, ,-63, ,
1, ,-63, ,
-1, ,-63, ,
1, ,-64, ,
-1, ,-61, ,
-1, ,-63, ,
1, ,-64, ,
1, ,-62, ,
-1, ,-62, ,
1, ,-64, ,
-1, ,-62, ,
-1, ,-63, ,
1, ,-63, ,
1, ,-63, ,
-1, ,-63, ,
1, ,-64, ,
-1, ,-61, ,
-1, ,-63, ,
1, ,-63, ,
1, ,-62, ,
-1, ,-63, ,
1, ,-64, ,
-1, ,-62, ,
-1, ,-63, ,
1, ,-63, ,
1, ,-63, ,
-1, ,-63, ,
1, ,-64, ,
-1, ,-61, ,
-1, ,-63, ,
1, ,-64, ,
1, ,-63, ,
-1, ,-63, ,
1, ,-64, ,
1, ,-62, ,
-1, ,-63, ,
1, ,-63, ,
1, ,-63, ,
-1, ,-62, ,
1, ,-64, ,
-1, ,-61, ,
1, ,-63, ,
1, ,-64, ,
1, ,-63, ,
-1, ,-63, ,
1, ,-64, ,
1, ,-62, ,
-1, ,-63, ,
1, ,-64, ,
1, ,-63, ,
-1, ,-63, ,
1, ,-64, ,
-1, ,-61, ,
1, ,-63, ,
1, ,-64, ,
1, ,-63, ,
-1, ,-62, ,
1, ,-64, ,
-1, ,-62, ,
-1, ,-63, ,
1, ,-63, ,
1, ,-63, ,
-1, ,-63, ,
1, ,-64, ,
-1, ,-61, ,
-1, ,-63, ,
1, ,-64, ,
1, ,-62, ,
-1, ,-62, ,
1, ,-64, ,
-1, ,-62, ,
-1, ,-63, ,
