src/varyamp_1560/temp0000114.CSV

Format,1.0B,
Memory Length,10000,Memory Length,10000,
IntpDistance,0,IntpDistance,0,
Trigger Address,4999,Trigger Address,4999,
Trigger Level,1.040E+00,Trigger Level,1.040E+00,
Source,CH1,Source,CH2,
Vertical Units,V,Vertical Units,V,
Vertical Units Div,0,Vertical Units Div,0,
Vertical Units Extend Div,16,Vertical Units Extend Div,16,
Label,,Label,,
Probe Type,0,Probe Type,0,
Probe Ratio,1.000e+01,Probe Ratio,1.000e+00,
Vertical Scale,5.000e-01,Vertical Scale,1.000e+00,
Vertical Position,-1.820e+00,Vertical Position,0.000e+00,
Horizontal Units,S,Horizontal Units,S,
Horizontal Scale,2.000E-05,Horizontal Scale,2.000E-05,
Horizontal Position,0.000E+00,Horizontal Position,0.000E+00,
Horizontal Mode,Main,Horizontal Mode,Main,
SincET Mode,Real Time,SincET Mode,Real Time,
Sampling Period,2.000e-08,Sampling Period,2.000e-08,
Horizontal Old Scale,2.000E-05,Horizontal Old Scale,2.000E-05,
Horizontal Old Position,0.000E+00,Horizontal Old Position,0.000E+00,
Firmware,V1.23,Firmware,V1.23,
Mode,Fast,Mode,Fast,
Waveform Data,,Waveform Data,,
1, ,-63, ,
2, ,-63, ,
2, ,-63, ,
1, ,-63, ,
2, ,-63, ,
1, ,-62, ,
1, ,-62, ,
2, ,-63, ,
2, ,-63, ,
-1, ,-62, ,
2, ,-63, ,
1, ,-63, ,
1, ,-63, ,
1, ,-63, ,
1, ,-63, ,
1, ,-62, ,
2, ,-63, ,
1, ,-62, ,
1, ,-62, ,
1, ,-63, ,
1, ,-63, ,
1, ,-62, ,
2, ,-63, ,
1, ,-63, ,
1, ,-63, ,
2, ,-63, ,
1, ,-63, ,
1, ,-62, ,
2, ,-63, ,
1, ,-62, ,
1, ,-63, ,
2, ,-63, ,
1, ,-62, ,
-1, ,-62, ,
2, ,-64, ,
1, ,-62, ,
1, ,-63, ,
2, ,-64, ,
1, ,-62, ,
1, ,-63, ,
2, ,-64, ,
1, ,-62, ,
1, ,-63, ,
2, ,-64, ,
1, ,-63, ,
1, ,-62, ,
2, ,-64, ,
1, ,-62, ,
1, ,-63, ,
2, ,-63, ,
1, ,-62, ,
-1, ,-62, ,
2, ,-63, ,
1, ,-61, ,
1, ,-63, ,
1, ,-63, ,
1, ,-62, ,
-1, ,-63, ,
2, ,-64, ,
1, ,-62, ,
1, ,-63, ,
1, ,-63, ,
1, ,-63, ,
1, ,-63, ,
2, ,-64, ,
1, ,-62, ,
1, ,-62, ,
1, ,-63, ,
1, ,-62, ,
-1, ,-62, ,
2, ,-64, ,
1, ,-62, ,
1, ,-63, ,
2, ,-63, ,
1, ,-62, ,
1, ,-63, ,
2, ,-64, ,
1, ,-62, ,
1, ,-63, ,
2, ,-63, ,
1, ,-62, ,
-1, ,-62, ,
2, ,-64, ,
1, ,-62, ,
1, ,-63, ,
1, ,-63, ,
1, ,-62, ,
1, ,-63, ,
2, ,-64, ,
1, ,-62, ,
1, ,-63, ,
2, ,-63, ,
1, ,-62, ,
-1, ,-62, ,
2, ,-63, ,
1, ,-62, ,
1, ,-63, ,
1, ,-63, ,
1, ,-62, ,
-1, ,-63, ,
2, ,-64, ,
1, ,-62, ,
1, ,-63, ,
2, ,-63, ,
2, ,-62, ,
-1, ,-62, ,
2, ,-63, ,
1, ,-62, ,
1, ,-63, ,
2, ,-62, ,
1, ,-62, ,
-1, ,-63, ,
2, ,-64, ,
1, ,-62, ,
1, ,-63, ,
1, ,-63, ,
1, ,-62, ,
-1, ,-62, ,
1, ,-64, ,
1, ,-62, ,
1, ,-63, ,
1, ,-63, ,
1, ,-63, ,
-1, ,-63, ,
2, ,-63, ,
1, ,-61, ,
1, ,-63, ,
2, ,-63, ,
1, ,-62, ,
-1, ,-62, ,
2, ,-63, ,
1, ,-63, ,
1, ,-63, ,
1, ,-63, ,
1, ,-62, ,
-1, ,-62, ,
2, ,-64, ,
1, ,-62, ,
1, ,-63, ,
2, ,-64, ,
1, ,-62, ,
-1, ,-62, ,
2, ,-64, ,
1, ,-62, ,
1, ,-62, ,
2, ,-63, ,
1, ,-63, ,
-1, ,-63, ,
1, ,-63, ,
1, ,-62, ,
1, ,-63, ,
1, ,-63, ,
1, ,-62, ,
-1, ,-63, ,
1, ,-64, ,
1, ,-62, ,
1, ,-63, ,
1, ,-63, ,
2, ,-63, ,
-1, ,-63, ,
2, ,-63, ,
1, ,-63, ,
1, ,-63, ,
2, ,-63, ,
1, ,-63, ,
1, ,-63, ,
2, ,-64, ,
1, ,-62, ,
1, ,-62, ,
1, ,-63, ,
1, ,-62, ,
-1, ,-63, ,
1, ,-64, ,
1, ,-62, ,
1, ,-63, ,
2, ,-64, ,
1, ,-63, ,
-1, ,-63, ,
2, ,-64, ,
1, ,-63, ,
1, ,-62, ,
1, ,-63, ,
1, ,-63, ,
-1, ,-63, ,
1, ,-64, ,
1, ,-61, ,
1, ,-63, ,
1, ,-64, ,
1, ,-63, ,
-1, ,-63, ,
1, ,-64, ,
1, ,-63, ,
1, ,-62, ,
2, ,-63, ,
1, ,-63, ,
-1, ,-63, ,
1, ,-63, ,
1, ,-61, ,
1, ,-63, ,
2, ,-63, ,
1, ,-62, ,
-1, ,-63, ,
1, ,-63, ,
1, ,-63, ,
1, ,-63, ,
1, ,-63, ,
1, ,-63, ,
-1, ,-63, ,
2, ,-63, ,
1, ,-62, ,
1, ,-63, ,
1, ,-62, ,
1, ,-63, ,
-1, ,-63, ,
1, ,-64, ,
1, ,-62, ,
1, ,-63, ,
1, ,-63, ,
1, ,-62, ,
-1, ,-63, ,
1, ,-63, ,
1, ,-63, ,
1, ,-63, ,
2, ,-63, ,
1, ,-63, ,
-1, ,-63, ,
2, ,-64, ,
1, ,-62, ,
1, ,-63, ,
1, ,-63, ,
1, ,-63, ,
-1, ,-63, ,
2, ,-63, ,
1, ,-62, ,
1, ,-63, ,
1, ,-63, ,
1, ,-63, ,
-1, ,-62, ,
1, ,-63, ,
1, ,-62, ,
1, ,-63, ,
1, ,-62, ,
1, ,-62, ,
-1, ,-63, ,
2, ,-64, ,
1, ,-61, ,
1, ,-63, ,
1, ,-64, ,
1, ,-63, ,
-1, ,-63, ,
1, ,-63, ,
1, ,-63, ,
1, ,-63, ,
1, ,-63, ,
1, ,-63, ,
-1, ,-63, ,
1, ,-63, ,
-1, ,-62, ,
1, ,-63, ,
1, ,-64, ,
1, ,-62, ,
-1, ,-62, ,
1, ,-63, ,
1, ,-62, ,
-1, ,-63, ,
1, ,-63, ,
1, ,-63, ,
-1, ,-63, ,
1, ,-63, ,
1, ,-62, ,
1, ,-63, ,
2, ,-63, ,
1, ,-62, ,
-1, ,-63, ,
1, ,-63, ,
1, ,-62, ,
1, ,-63, ,
1, ,-63, ,
1, ,-63, ,
-1, ,-63, ,
1, ,-63, ,
-1, ,-63, ,
1, ,-63, ,
1, ,-63, ,
1, ,-62, ,
-1, ,-63, ,
1, ,-63, ,
1, ,-63, ,
-1, ,-63, ,
1, ,-63, ,
1, ,-63, ,
-1, ,-63, ,
1, ,-63, ,
1, ,-63, ,
1, ,-63, ,
1, ,-63, ,
1, ,-63, ,
-1, ,-62, ,
1, ,-63, ,
-1, ,-62, ,
1, ,-63, ,
1, ,-63, ,
2, ,-51, ,
-1, ,-31, ,
2, ,-15, ,
1, ,-3, ,
1, ,5, ,
1, ,12, ,
1, ,17, ,
-1, ,20, ,
2, ,23, ,
1, ,24, ,
-1, ,26, ,
1, ,27, ,
1, ,28, ,
-1, ,30, ,
2, ,30, ,
1, ,30, ,
1, ,30, ,
1, ,30, ,
1, ,31, ,
-1, ,31, ,
2, ,31, ,
1, ,30, ,
1, ,31, ,
1, ,31, ,
1, ,31, ,
-1, ,30, ,
2, ,31, ,
-1, ,31, ,
-1, ,30, ,
1, ,31, ,
1, ,31, ,
74, ,31, ,
48, ,31, ,
29, ,30, ,
18, ,30, ,
12, ,31, ,
10, ,31, ,
6, ,31, ,
6, ,31, ,
3, ,30, ,
2, ,30, ,
3, ,30, ,
2, ,31, ,
2, ,30, ,
3, ,30, ,
2, ,30, ,
2, ,30, ,
3, ,31, ,
3, ,31, ,
1, ,30, ,
3, ,31, ,
2, ,30, ,
2, ,30, ,
2, ,30, ,
3, ,30, ,
1, ,30, ,
3, ,31, ,
2, ,30, ,
2, ,30, ,
3, ,31, ,
2, ,30, ,
1, ,30, ,
3, ,31, ,
2, ,30, ,
2, ,30, ,
3, ,30, ,
2, ,30, ,
1, ,30, ,
3, ,31, ,
2, ,30, ,
2, ,30, ,
2, ,30, ,
2, ,30, ,
1, ,30, ,
3, ,31, ,
2, ,30, ,
2, ,30, ,
2, ,30, ,
2, ,30, ,
1, ,30, ,
3, ,31, ,
2, ,30, ,
1, ,30, ,
3, ,30, ,
2, ,30, ,
1, ,30, ,
3, ,30, ,
2, ,30, ,
2, ,30, ,
2, ,30, ,
2, ,31, ,
1, ,30, ,
3, ,30, ,
2, ,30, ,
1, ,30, ,
2, ,30, ,
2, ,30, ,
1, ,31, ,
3, ,30, ,
1, ,30, ,
1, ,30, ,
2, ,30, ,
2, ,30, ,
1, ,30, ,
3, ,30, ,
1, ,30, ,
1, ,30, ,
2, ,30, ,
2, ,30, ,
1, ,30, ,
3, ,30, ,
1, ,30, ,
2, ,30, ,
2, ,30, ,
2, ,30, ,
1, ,30, ,
3, ,30, ,
1, ,30, ,
2, ,30, ,
2, ,30, ,
2, ,30, ,
1, ,30, ,
3, ,30, ,
2, ,30, ,
2, ,30, ,
2, ,30, ,
2, ,30, ,
1, ,30, ,
3, ,30, ,
2, ,30, ,
1, ,30, ,
2, ,30, ,
2, ,30, ,
1, ,30, ,
3, ,30, ,
2, ,30, ,
2, ,30, ,
2, ,30, ,
2, ,30, ,
1, ,30, ,
3, ,31, ,
2, ,30, ,
1, ,30, ,
2, ,30, ,
2, ,30, ,
1, ,30, ,
3, ,30, ,
1, ,30, ,
2, ,30, ,
2, ,30, ,
1, ,30, ,
1, ,30, ,
3, ,31, ,
2, ,30, ,
1, ,22, ,
2, ,3, ,
2, ,-14, ,
1, ,-26, ,
2, ,-36, ,
1, ,-43, ,
1, ,-49, ,
2, ,-53, ,
2, ,-55, ,
1, ,-57, ,
2, ,-60, ,
1, ,-61, ,
1, ,-61, ,
2, ,-62, ,
2, ,-62, ,
1, ,-63, ,
2, ,-64, ,
1, ,-63, ,
2, ,-64, ,
3, ,-64, ,
2, ,-63, ,
1, ,-63, ,
3, ,-64, ,
2, ,-63, ,
2, ,-64, ,
2, ,-64, ,
2, ,-63, ,
2, ,-63, ,
2, ,-64, ,
1, ,-63, ,
1, ,-63, ,
2, ,-64, ,
2, ,-63, ,
1, ,-63, ,
2, ,-64, ,
2, ,-63, ,
2, ,-63, ,
2, ,-64, ,
2, ,-62, ,
1, ,-63, ,
2, ,-64, ,
2, ,-63, ,
1, ,-63, ,
2, ,-63, ,
2, ,-63, ,
1, ,-63, ,
2, ,-64, ,
1, ,-63, ,
1, ,-63, ,
2, ,-63, ,
2, ,-62, ,
1, ,-63, ,
2, ,-64, ,
1, ,-63, ,
1, ,-63, ,
2, ,-63, ,
2, ,-63, ,
1, ,-63, ,
2, ,-64, ,
2, ,-63, ,
2, ,-63, ,
2, ,-63, ,
2, ,-62, ,
1, ,-63, ,
2, ,-64, ,
1, ,-62, ,
1, ,-63, ,
2, ,-64, ,
1, ,-62, ,
1, ,-63, ,
2, ,-63, ,
1, ,-63, ,
1, ,-63, ,
2, ,-63, ,
2, ,-63, ,
1, ,-63, ,
2, ,-64, ,
1, ,-62, ,
1, ,-63, ,
2, ,-64, ,
2, ,-63, ,
1, ,-63, ,
2, ,-63, ,
1, ,-63, ,
2, ,-63, ,
2, ,-63, ,
2, ,-63, ,
1, ,-62, ,
2, ,-63, ,
1, ,-61, ,
1, ,-62, ,
2, ,-63, ,
2, ,-62, ,
1, ,-63, ,
2, ,-63, ,
1, ,-63, ,
1, ,-63, ,
2, ,-63, ,
2, ,-63, ,
1, ,-63, ,
2, ,-63, ,
1, ,-62, ,
1, ,-63, ,
2, ,-63, ,
2, ,-62, ,
1, ,-63, ,
2, ,-63, ,
1, ,-63, ,
1, ,-63, ,
2, ,-63, ,
1, ,-63, ,
1, ,-63, ,
2, ,-64, ,
1, ,-63, ,
1, ,-63, ,
2, ,-63, ,
2, ,-63, ,
1, ,-63, ,
2, ,-63, ,
1, ,-63, ,
2, ,-63, ,
2, ,-63, ,
2, ,-63, ,
1, ,-63, ,
2, ,-63, ,
1, ,-62, ,
1, ,-63, ,
2, ,-62, ,
2, ,-62, ,
1, ,-62, ,
2, ,-63, ,
1, ,-63, ,
1, ,-63, ,
2, ,-63, ,
2, ,-63, ,
1, ,-63, ,
2, ,-63, ,
1, ,-62, ,
1, ,-63, ,
2, ,-63, ,
2, ,-62, ,
1, ,-63, ,
2, ,-63, ,
1, ,-61, ,
1, ,-63, ,
2, ,-63, ,
2, ,-63, ,
1, ,-63, ,
2, ,-63, ,
1, ,-62, ,
1, ,-63, ,
2, ,-64, ,
2, ,-61, ,
1, ,-62, ,
2, ,-63, ,
1, ,-61, ,
1, ,-62, ,
2, ,-63, ,
53, ,-63, ,
35, ,-63, ,
22, ,-63, ,
15, ,-61, ,
10, ,-63, ,
7, ,-64, ,
6, ,-62, ,
3, ,-62, ,
5, ,-63, ,
2, ,-63, ,
2, ,-63, ,
3, ,-63, ,
2, ,-63, ,
2, ,-63, ,
3, ,-63, ,
2, ,-62, ,
2, ,-63, ,
2, ,-63, ,
3, ,-62, ,
1, ,-63, ,
3, ,-63, ,
2, ,-62, ,
2, ,-63, ,
2, ,-63, ,
3, ,-63, ,
1, ,-63, ,
3, ,-64, ,
2, ,-62, ,
2, ,-63, ,
2, ,-63, ,
2, ,-62, ,
2, ,-63, ,
3, ,-63, ,
2, ,-63, ,
2, ,-63, ,
2, ,-63, ,
3, ,-62, ,
2, ,-62, ,
3, ,-64, ,
2, ,-62, ,
2, ,-63, ,
2, ,-63, ,
2, ,-62, ,
2, ,-62, ,
3, ,-64, ,
2, ,-62, ,
2, ,-63, ,
2, ,-64, ,
3, ,-63, ,
1, ,-63, ,
2, ,-63, ,
2, ,-62, ,
2, ,-63, ,
2, ,-64, ,
3, ,-63, ,
1, ,-63, ,
3, ,-64, ,
2, ,-62, ,
2, ,-63, ,
2, ,-64, ,
3, ,-62, ,
2, ,-62, ,
2, ,-63, ,
2, ,-62, ,
2, ,-63, ,
2, ,-64, ,
3, ,-63, ,
1, ,-63, ,
2, ,-64, ,
2, ,-62, ,
2, ,-63, ,
2, ,-63, ,
3, ,-63, ,
1, ,-63, ,
2, ,-63, ,
2, ,-62, ,
2, ,-63, ,
2, ,-63, ,
2, ,-62, ,
1, ,-62, ,
3, ,-64, ,
2, ,-62, ,
2, ,-63, ,
2, ,-63, ,
3, ,-63, ,
2, ,-63, ,
2, ,-63, ,
2, ,-62, ,
2, ,-63, ,
2, ,-63, ,
3, ,-62, ,
1, ,-62, ,
2, ,-63, ,
2, ,-62, ,
2, ,-62, ,
2, ,-63, ,
2, ,-62, ,
1, ,-63, ,
2, ,-63, ,
2, ,-62, ,
2, ,-63, ,
2, ,-63, ,
3, ,-63, ,
1, ,-63, ,
2, ,-63, ,
2, ,-62, ,
2, ,-63, ,
2, ,-63, ,
2, ,-62, ,
1, ,-62, ,
3, ,-63, ,
1, ,-62, ,
2, ,-63, ,
2, ,-63, ,
2, ,-62, ,
1, ,-63, ,
2, ,-64, ,
2, ,-62, ,
2, ,-63, ,
2, ,-63, ,
3, ,-63, ,
1, ,-63, ,
2, ,-63, ,
2, ,-62, ,
1, ,-63, ,
2, ,-63, ,
3, ,-62, ,
1, ,-63, ,
2, ,-63, ,
2, ,-62, ,
1, ,-63, ,
2, ,-62, ,
3, ,-62, ,
1, ,-63, ,
2, ,-63, ,
2, ,-62, ,
1, ,-62, ,
2, ,-63, ,
2, ,-62, ,
1, ,-62, ,
2, ,-63, ,
2, ,-62, ,
1, ,-63, ,
2, ,-63, ,
2, ,-63, ,
1, ,-63, ,
2, ,-63, ,
1, ,-62, ,
1, ,-63, ,
2, ,-63, ,
2, ,-63, ,
1, ,-63, ,
2, ,-64, ,
1, ,-61, ,
1, ,-63, ,
2, ,-63, ,
2, ,-62, ,
1, ,-62, ,
2, ,-63, ,
1, ,-62, ,
1, ,-63, ,
2, ,-63, ,
2, ,-62, ,
1, ,-63, ,
2, ,-63, ,
2, ,-61, ,
2, ,-63, ,
2, ,-63, ,
2, ,-62, ,
1, ,-62, ,
2, ,-64, ,
1, ,-61, ,
1, ,-63, ,
2, ,-64, ,
2, ,-63, ,
1, ,-63, ,
2, ,-63, ,
1, ,-62, ,
1, ,-63, ,
2, ,-63, ,
2, ,-62, ,
1, ,-63, ,
2, ,-63, ,
1, ,-62, ,
1, ,-63, ,
2, ,-63, ,
2, ,-62, ,
1, ,-63, ,
2, ,-63, ,
1, ,-62, ,
1, ,-63, ,
2, ,-63, ,
2, ,-62, ,
1, ,-62, ,
2, ,-64, ,
1, ,-62, ,
1, ,-62, ,
2, ,-63, ,
2, ,-63, ,
1, ,-63, ,
2, ,-63, ,
2, ,-62, ,
1, ,-63, ,
2, ,-63, ,
2, ,-62, ,
1, ,-62, ,
2, ,-63, ,
1, ,-62, ,
1, ,-63, ,
2, ,-64, ,
2, ,-62, ,
1, ,-62, ,
2, ,-63, ,
1, ,-63, ,
1, ,-63, ,
2, ,-63, ,
2, ,-62, ,
1, ,-63, ,
2, ,-63, ,
2, ,-62, ,
2, ,-63, ,
2, ,-63, ,
2, ,-62, ,
1, ,-62, ,
2, ,-63, ,
2, ,-62, ,
1, ,-63, ,
2, ,-63, ,
1, ,-63, ,
1, ,-63, ,
2, ,-63, ,
1, ,-62, ,
1, ,-63, ,
2, ,-63, ,
2, ,-63, ,
1, ,-63, ,
2, ,-63, ,
1, ,-61, ,
1, ,-63, ,
2, ,-63, ,
2, ,-62, ,
1, ,-62, ,
2, ,-64, ,
1, ,-61, ,
1, ,-63, ,
2, ,-64, ,
2, ,-62, ,
1, ,-63, ,
2, ,-64, ,
1, ,-62, ,
2, ,-63, ,
2, ,-63, ,
2, ,-63, ,
1, ,-63, ,
2, ,-63, ,
1, ,-62, ,
1, ,-63, ,
2, ,-62, ,
2, ,-63, ,
1, ,-63, ,
2, ,-63, ,
1, ,-62, ,
1, ,-63, ,
2, ,-63, ,
2, ,-63, ,
2, ,-63, ,
46, ,-63, ,
31, ,-62, ,
20, ,-63, ,
13, ,-63, ,
8, ,-62, ,
6, ,-62, ,
6, ,-64, ,
3, ,-61, ,
3, ,-63, ,
3, ,-63, ,
3, ,-62, ,
2, ,-62, ,
3, ,-64, ,
2, ,-63, ,
2, ,-63, ,
3, ,-63, ,
3, ,-63, ,
1, ,-62, ,
3, ,-63, ,
2, ,-62, ,
2, ,-63, ,
3, ,-63, ,
3, ,-62, ,
2, ,-62, ,
3, ,-63, ,
2, ,-62, ,
2, ,-63, ,
2, ,-63, ,
3, ,-63, ,
1, ,-63, ,
3, ,-63, ,
2, ,-62, ,
2, ,-62, ,
2, ,-63, ,
3, ,-62, ,
2, ,-63, ,
3, ,-63, ,
2, ,-62, ,
2, ,-63, ,
2, ,-63, ,
2, ,-62, ,
1, ,-63, ,
3, ,-63, ,
2, ,-62, ,
2, ,-63, ,
2, ,-63, ,
3, ,-62, ,
2, ,-62, ,
3, ,-63, ,
2, ,-61, ,
2, ,-63, ,
2, ,-63, ,
2, ,-63, ,
1, ,-63, ,
3, ,-63, ,
2, ,-61, ,
2, ,-62, ,
2, ,-63, ,
3, ,-62, ,
1, ,-63, ,
3, ,-63, ,
2, ,-61, ,
2, ,-63, ,
2, ,-64, ,
3, ,-62, ,
2, ,-62, ,
3, ,-64, ,
2, ,-62, ,
2, ,-63, ,
2, ,-63, ,
3, ,-63, ,
1, ,-63, ,
2, ,-63, ,
2, ,-62, ,
2, ,-63, ,
2, ,-63, ,
3, ,-62, ,
1, ,-62, ,
3, ,-63, ,
2, ,-62, ,
2, ,-63, ,
2, ,-63, ,
2, ,-63, ,
2, ,-63, ,
3, ,-63, ,
2, ,-62, ,
1, ,-62, ,
2, ,-63, ,
2, ,-62, ,
1, ,-62, ,
2, ,-63, ,
2, ,-62, ,
2, ,-63, ,
2, ,-63, ,
2, ,-63, ,
1, ,-63, ,
3, ,-64, ,
2, ,-62, ,
2, ,-63, ,
2, ,-64, ,
2, ,-63, ,
1, ,-62, ,
2, ,-64, ,
2, ,-62, ,
2, ,-63, ,
2, ,-63, ,
2, ,-63, ,
1, ,-63, ,
3, ,-63, ,
2, ,-62, ,
2, ,-63, ,
2, ,-63, ,
2, ,-62, ,
1, ,-62, ,
2, ,-63, ,
2, ,-62, ,
1, ,-63, ,
3, ,-63, ,
3, ,-63, ,
1, ,-63, ,
2, ,-64, ,
2, ,-62, ,
1, ,-63, ,
2, ,-63, ,
2, ,-63, ,
1, ,-62, ,
2, ,-63, ,
2, ,-62, ,
1, ,-63, ,
2, ,-64, ,
2, ,-62, ,
1, ,-62, ,
2, ,-64, ,
2, ,-63, ,
1, ,-63, ,
2, ,-63, ,
2, ,-63, ,
1, ,-63, ,
2, ,-63, ,
1, ,-62, ,
1, ,-63, ,
2, ,-63, ,
2, ,-63, ,
1, ,-62, ,
2, ,-63, ,
1, ,-62, ,
2, ,-63, ,
2, ,-63, ,
2, ,-63, ,
1, ,-62, ,
2, ,-64, ,
2, ,-62, ,
2, ,-63, ,
2, ,-64, ,
2, ,-62, ,
1, ,-63, ,
2, ,-64, ,
1, ,-63, ,
1, ,-63, ,
2, ,-63, ,
2, ,-63, ,
1, ,-62, ,
2, ,-63, ,
2, ,-62, ,
1, ,-63, ,
2, ,-63, ,
2, ,-63, ,
1, ,-62, ,
2, ,-63, ,
2, ,-62, ,
1, ,-63, ,
2, ,-63, ,
2, ,-63, ,
1, ,-63, ,
2, ,-64, ,
2, ,-62, ,
1, ,-63, ,
2, ,-63, ,
1, ,-63, ,
1, ,-63, ,
2, ,-63, ,
1, ,-62, ,
1, ,-63, ,
2, ,-63, ,
2, ,-63, ,
1, ,-62, ,
2, ,-63, ,
2, ,-62, ,
1, ,-63, ,
2, ,-63, ,
2, ,-62, ,
1, ,-62, ,
3, ,-63, ,
1, ,-62, ,
1, ,-63, ,
2, ,-63, ,
2, ,-62, ,
1, ,-63, ,
2, ,-64, ,
1, ,-62, ,
1, ,-63, ,
2, ,-63, ,
2, ,-62, ,
1, ,-55, ,
2, ,-36, ,
2, ,-19, ,
2, ,-5, ,
2, ,3, ,
2, ,11, ,
1, ,16, ,
2, ,20, ,
2, ,22, ,
1, ,24, ,
2, ,26, ,
1, ,27, ,
1, ,28, ,
3, ,28, ,
2, ,30, ,
1, ,30, ,
2, ,30, ,
1, ,31, ,
1, ,30, ,
3, ,31, ,
1, ,31, ,
1, ,31, ,
2, ,31, ,
1, ,31, ,
1, ,31, ,
2, ,31, ,
1, ,31, ,
1, ,31, ,
2, ,31, ,
1, ,31, ,
1, ,31, ,
2, ,31, ,
1, ,30, ,
1, ,30, ,
2, ,31, ,
1, ,31, ,
1, ,31, ,
2, ,31, ,
1, ,30, ,
1, ,31, ,
2, ,31, ,
1, ,31, ,
1, ,30, ,
3, ,31, ,
1, ,31, ,
1, ,30, ,
2, ,31, ,
1, ,30, ,
1, ,30, ,
2, ,30, ,
1, ,30, ,
1, ,30, ,
2, ,30, ,
1, ,30, ,
1, ,30, ,
2, ,30, ,
1, ,30, ,
1, ,30, ,
2, ,31, ,
1, ,30, ,
1, ,30, ,
3, ,30, ,
1, ,30, ,
1, ,30, ,
2, ,30, ,
1, ,30, ,
-1, ,30, ,
2, ,31, ,
1, ,30, ,
1, ,30, ,
2, ,30, ,
1, ,30, ,
-1, ,30, ,
2, ,30, ,
1, ,30, ,
1, ,30, ,
2, ,30, ,
1, ,30, ,
-1, ,30, ,
2, ,31, ,
1, ,30, ,
-1, ,30, ,
1, ,31, ,
1, ,31, ,
1, ,30, ,
2, ,31, ,
1, ,30, ,
1, ,30, ,
1, ,30, ,
1, ,30, ,
-1, ,30, ,
2, ,30, ,
1, ,30, ,
1, ,30, ,
1, ,30, ,
1, ,30, ,
-1, ,30, ,
2, ,30, ,
1, ,30, ,
1, ,30, ,
2, ,30, ,
1, ,31, ,
-1, ,30, ,
2, ,30, ,
1, ,30, ,
1, ,30, ,
1, ,30, ,
1, ,30, ,
-1, ,30, ,
2, ,30, ,
1, ,30, ,
1, ,30, ,
1, ,30, ,
1, ,30, ,
-1, ,30, ,
2, ,31, ,
1, ,30, ,
1, ,30, ,
2, ,30, ,
1, ,30, ,
1, ,30, ,
2, ,30, ,
1, ,30, ,
1, ,30, ,
2, ,30, ,
1, ,30, ,
-1, ,30, ,
2, ,31, ,
1, ,30, ,
1, ,30, ,
2, ,30, ,
1, ,30, ,
1, ,30, ,
2, ,30, ,
1, ,30, ,
1, ,30, ,
2, ,30, ,
1, ,30, ,
-1, ,30, ,
2, ,30, ,
1, ,30, ,
1, ,30, ,
2, ,30, ,
1, ,30, ,
1, ,30, ,
2, ,30, ,
1, ,30, ,
1, ,30, ,
2, ,30, ,
1, ,30, ,
-1, ,30, ,
2, ,30, ,
1, ,30, ,
1, ,30, ,
2, ,26, ,
1, ,9, ,
-1, ,-9, ,
2, ,-23, ,
1, ,-34, ,
1, ,-41, ,
2, ,-49, ,
1, ,-52, ,
-1, ,-55, ,
2, ,-58, ,
1, ,-58, ,
1, ,-60, ,
1, ,-61, ,
1, ,-62, ,
-1, ,-62, ,
2, ,-64, ,
1, ,-62, ,
1, ,-63, ,
2, ,-63, ,
2, ,-63, ,
-1, ,-63, ,
2, ,-64, ,
1, ,-63, ,
1, ,-63, ,
1, ,-63, ,
1, ,-64, ,
1, ,-64, ,
2, ,-64, ,
2, ,-63, ,
1, ,-63, ,
2, ,-64, ,
1, ,-63, ,
-1, ,-63, ,
2, ,-64, ,
1, ,-63, ,
1, ,-63, ,
2, ,-63, ,
1, ,-63, ,
-1, ,-63, ,
2, ,-64, ,
1, ,-62, ,
1, ,-63, ,
2, ,-63, ,
2, ,-63, ,
1, ,-63, ,
2, ,-64, ,
1, ,-62, ,
1, ,-63, ,
2, ,-63, ,
2, ,-63, ,
1, ,-63, ,
2, ,-64, ,
1, ,-63, ,
1, ,-63, ,
2, ,-63, ,
1, ,-63, ,
-1, ,-63, ,
2, ,-63, ,
1, ,-62, ,
1, ,-63, ,
1, ,-63, ,
1, ,-62, ,
-1, ,-62, ,
1, ,-64, ,
-1, ,-63, ,
1, ,-63, ,
2, ,-63, ,
1, ,-63, ,
-1, ,-63, ,
2, ,-64, ,
1, ,-63, ,
1, ,-63, ,
1, ,-63, ,
1, ,-62, ,
-1, ,-63, ,
1, ,-63, ,
1, ,-63, ,
1, ,-63, ,
1, ,-63, ,
1, ,-63, ,
-1, ,-63, ,
1, ,-64, ,
1, ,-63, ,
1, ,-63, ,
1, ,-64, ,
1, ,-62, ,
-1, ,-62, ,
2, ,-64, ,
1, ,-62, ,
1, ,-63, ,
1, ,-63, ,
1, ,-63, ,
-1, ,-63, ,
1, ,-63, ,
1, ,-62, ,
1, ,-63, ,
1, ,-63, ,
2, ,-62, ,
-1, ,-62, ,
2, ,-63, ,
1, ,-62, ,
1, ,-62, ,
2, ,-63, ,
1, ,-63, ,
-1, ,-63, ,
2, ,-64, ,
1, ,-62, ,
1, ,-62, ,
1, ,-63, ,
1, ,-62, ,
-1, ,-63, ,
2, ,-64, ,
1, ,-62, ,
1, ,-63, ,
2, ,-63, ,
2, ,-62, ,
-1, ,-62, ,
2, ,-64, ,
1, ,-62, ,
1, ,-63, ,
1, ,-63, ,
1, ,-62, ,
-1, ,-63, ,
2, ,-63, ,
1, ,-62, ,
1, ,-63, ,
2, ,-64, ,
1, ,-63, ,
1, ,-62, ,
2, ,-64, ,
1, ,-62, ,
1, ,-63, ,
2, ,-63, ,
2, ,-63, ,
-1, ,-63, ,
2, ,-63, ,
1, ,-62, ,
1, ,-63, ,
2, ,-63, ,
1, ,-62, ,
-1, ,-63, ,
2, ,-63, ,
1, ,-62, ,
1, ,-63, ,
2, ,-63, ,
1, ,-62, ,
-1, ,-63, ,
2, ,-63, ,
1, ,-62, ,
1, ,-63, ,
1, ,-63, ,
1, ,-63, ,
-1, ,-62, ,
2, ,-63, ,
1, ,-62, ,
1, ,-63, ,
1, ,-63, ,
1, ,-62, ,
-1, ,-62, ,
1, ,-64, ,
1, ,-62, ,
1, ,-62, ,
1, ,-63, ,
1, ,-63, ,
-1, ,-62, ,
2, ,-63, ,
1, ,-62, ,
1, ,-62, ,
1, ,-63, ,
1, ,-63, ,
-1, ,-63, ,
2, ,-64, ,
1, ,-62, ,
1, ,-63, ,
2, ,-63, ,
1, ,-63, ,
-1, ,-63, ,
1, ,-64, ,
1, ,-62, ,
1, ,-63, ,
2, ,-63, ,
1, ,-63, ,
-1, ,-63, ,
1, ,-64, ,
1, ,-62, ,
1, ,-63, ,
1, ,-63, ,
1, ,-62, ,
-1, ,-62, ,
1, ,-63, ,
1, ,-63, ,
1, ,-63, ,
1, ,-63, ,
1, ,-63, ,
-1, ,-63, ,
1, ,-63, ,
1, ,-62, ,
1, ,-62, ,
1, ,-63, ,
1, ,-62, ,
-1, ,-62, ,
1, ,-63, ,
1, ,-62, ,
1, ,-63, ,
1, ,-63, ,
1, ,-62, ,
-1, ,-63, ,
1, ,-64, ,
1, ,-62, ,
1, ,-62, ,
1, ,-63, ,
1, ,-63, ,
-1, ,-63, ,
1, ,-63, ,
1, ,-62, ,
1, ,-62, ,
1, ,-63, ,
1, ,-62, ,
-1, ,-62, ,
1, ,-64, ,
1, ,-62, ,
1, ,-63, ,
1, ,-64, ,
2, ,-62, ,
-1, ,-62, ,
1, ,-63, ,
1, ,-63, ,
1, ,-63, ,
1, ,-63, ,
1, ,-62, ,
-1, ,-62, ,
1, ,-64, ,
1, ,-62, ,
1, ,-63, ,
1, ,-63, ,
1, ,-62, ,
-1, ,-62, ,
2, ,-64, ,
1, ,-62, ,
1, ,-63, ,
1, ,-63, ,
2, ,-63, ,
-1, ,-63, ,
1, ,-63, ,
1, ,-61, ,
1, ,-62, ,
2, ,-63, ,
1, ,-62, ,
-1, ,-63, ,
1, ,-63, ,
1, ,-61, ,
1, ,-62, ,
1, ,-63, ,
1, ,-62, ,
-1, ,-63, ,
2, ,-64, ,
-1, ,-63, ,
1, ,-63, ,
2, ,-63, ,
2, ,-62, ,
-1, ,-63, ,
1, ,-63, ,
1, ,-61, ,
1, ,-63, ,
1, ,-64, ,
1, ,-62, ,
1, ,-62, ,
2, ,-63, ,
1, ,-62, ,
1, ,-63, ,
1, ,-63, ,
1, ,-63, ,
-1, ,-63, ,
2, ,-63, ,
1, ,-62, ,
1, ,-63, ,
1, ,-63, ,
1, ,-62, ,
-1, ,-63, ,
2, ,-63, ,
1, ,-63, ,
1, ,-63, ,
1, ,-63, ,
1, ,-62, ,
-1, ,-63, ,
1, ,-63, ,
1, ,-62, ,
1, ,-63, ,
1, ,-63, ,
2, ,-62, ,
-1, ,-62, ,
2, ,-63, ,
1, ,-61, ,
1, ,-62, ,
1, ,-64, ,
1, ,-63, ,
-1, ,-63, ,
1, ,-64, ,
1, ,-62, ,
1, ,-63, ,
1, ,-63, ,
1, ,-62, ,
-1, ,-62, ,
1, ,-63, ,
1, ,-61, ,
1, ,-63, ,
1, ,-63, ,
1, ,-63, ,
-1, ,-63, ,
1, ,-64, ,
1, ,-62, ,
1, ,-63, ,
1, ,-63, ,
1, ,-62, ,
-1, ,-63, ,
1, ,-64, ,
1, ,-62, ,
1, ,-62, ,
1, ,-63, ,
1, ,-63, ,
-1, ,-62, ,
1, ,-63, ,
1, ,-62, ,
1, ,-63, ,
1, ,-63, ,
1, ,-62, ,
-1, ,-63, ,
2, ,-64, ,
1, ,-61, ,
1, ,-63, ,
1, ,-63, ,
1, ,-63, ,
-1, ,-62, ,
1, ,-64, ,
1, ,-62, ,
1, ,-63, ,
1, ,-63, ,
1, ,-63, ,
-1, ,-62, ,
1, ,-63, ,
1, ,-61, ,
1, ,-63, ,
1, ,-63, ,
1, ,-63, ,
-1, ,-63, ,
1, ,-63, ,
-1, ,-62, ,
1, ,-62, ,
1, ,-63, ,
1, ,-62, ,
-1, ,-62, ,
1, ,-63, ,
1, ,-61, ,
1, ,-63, ,
1, ,-63, ,
1, ,-62, ,
-1, ,-63, ,
1, ,-63, ,
1, ,-62, ,
-1, ,-63, ,
1, ,-63, ,
2, ,-62, ,
-1, ,-63, ,
1, ,-63, ,
1, ,-62, ,
1, ,-63, ,
1, ,-63, ,
1, ,-62, ,
-1, ,-63, ,
1, ,-64, ,
-1, ,-62, ,
1, ,-63, ,
1, ,-63, ,
1, ,-62, ,
-1, ,-63, ,
1, ,-63, ,
1, ,-62, ,
-1, ,-63, ,
1, ,-63, ,
2, ,-62, ,
-1, ,-62, ,
1, ,-63, ,
-1, ,-62, ,
1, ,-62, ,
1, ,-63, ,
1, ,-62, ,
-1, ,-63, ,
1, ,-63, ,
1, ,-62, ,
-1, ,-63, ,
1, ,-63, ,
1, ,-63, ,
-1, ,-62, ,
1, ,-63, ,
1, ,-61, ,
-1, ,-62, ,
1, ,-63, ,
2, ,-62, ,
-1, ,-62, ,
1, ,-64, ,
1, ,-62, ,
1, ,-63, ,
2, ,-63, ,
2, ,-62, ,
-1, ,-62, ,
2, ,-63, ,
1, ,-62, ,
-1, ,-63, ,
1, ,-63, ,
1, ,-63, ,
-1, ,-63, ,
1, ,-64, ,
1, ,-62, ,
1, ,-62, ,
1, ,-63, ,
1, ,-62, ,
-1, ,-63, ,
1, ,-64, ,
1, ,-61, ,
1, ,-63, ,
1, ,-63, ,
1, ,-63, ,
-1, ,-63, ,
1, ,-63, ,
1, ,-62, ,
1, ,-63, ,
1, ,-64, ,
1, ,-62, ,
-1, ,-63, ,
1, ,-63, ,
1, ,-63, ,
1, ,-63, ,
1, ,-63, ,
1, ,-63, ,
-1, ,-63, ,
1, ,-64, ,
-1, ,-62, ,
1, ,-63, ,
1, ,-63, ,
1, ,-62, ,
-1, ,-63, ,
1, ,-64, ,
1, ,-62, ,
-1, ,-63, ,
1, ,-64, ,
1, ,-62, ,
-1, ,-63, ,
1, ,-64, ,
1, ,-62, ,
1, ,-63, ,
1, ,-64, ,
1, ,-63, ,
-1, ,-63, ,
1, ,-63, ,
-1, ,-62, ,
-1, ,-63, ,
1, ,-63, ,
1, ,-63, ,
-1, ,-63, ,
1, ,-63, ,
-1, ,-62, ,
1, ,-63, ,
1, ,-64, ,
1, ,-62, ,
-1, ,-62, ,
1, ,-63, ,
1, ,-63, ,
-1, ,-63, ,
1, ,-63, ,
1, ,-63, ,
-1, ,-62, ,
1, ,-63, ,
-1, ,-62, ,
-1, ,-63, ,
1, ,-64, ,
1, ,-63, ,
-1, ,-62, ,
1, ,-63, ,
1, ,-62, ,
-1, ,-63, ,
1, ,-63, ,
1, ,-63, ,
-1, ,-63, ,
1, ,-63, ,
1, ,-62, ,
-1, ,-62, ,
1, ,-63, ,
1, ,-63, ,
-1, ,-62, ,
1, ,-63, ,
1, ,-61, ,
1, ,-62, ,
1, ,-63, ,
1, ,-62, ,
-1, ,-63, ,
1, ,-64, ,
1, ,-62, ,
1, ,-63, ,
