src/varyamp_1560/temp0002335.CSV

Format,1.0B,
Memory Length,10000,Memory Length,10000,
IntpDistance,0,IntpDistance,0,
Trigger Address,4999,Trigger Address,4999,
Trigger Level,1.040E+00,Trigger Level,1.040E+00,
Source,CH1,Source,CH2,
Vertical Units,V,Vertical Units,V,
Vertical Units Div,0,Vertical Units Div,0,
Vertical Units Extend Div,16,Vertical Units Extend Div,16,
Label,,Label,,
Probe Type,0,Probe Type,0,
Probe Ratio,1.000e+01,Probe Ratio,1.000e+00,
Vertical Scale,5.000e-01,Vertical Scale,1.000e+00,
Vertical Position,-1.820e+00,Vertical Position,0.000e+00,
Horizontal Units,S,Horizontal Units,S,
Horizontal Scale,2.000E-05,Horizontal Scale,2.000E-05,
Horizontal Position,0.000E+00,Horizontal Position,0.000E+00,
Horizontal Mode,Main,Horizontal Mode,Main,
SincET Mode,Real Time,SincET Mode,Real Time,
Sampling Period,2.000e-08,Sampling Period,2.000e-08,
Horizontal Old Scale,2.000E-05,Horizontal Old Scale,2.000E-05,
Horizontal Old Position,0.000E+00,Horizontal Old Position,0.000E+00,
Firmware,V1.23,Firmware,V1.23,
Mode,Fast,Mode,Fast,
Waveform Data,,Waveform Data,,
1, ,-52, ,
-1, ,-51, ,
1, ,-53, ,
-1, ,-51, ,
-1, ,-52, ,
1, ,-53, ,
1, ,-52, ,
-1, ,-52, ,
1, ,-52, ,
-1, ,-52, ,
-1, ,-52, ,
1, ,-52, ,
1, ,-52, ,
-1, ,-52, ,
1, ,-53, ,
-1, ,-51, ,
-1, ,-52, ,
1, ,-52, ,
1, ,-52, ,
-1, ,-51, ,
1, ,-52, ,
-1, ,-51, ,
-1, ,-52, ,
1, ,-52, ,
1, ,-52, ,
-1, ,-52, ,
1, ,-52, ,
-1, ,-51, ,
-1, ,-52, ,
1, ,-52, ,
1, ,-52, ,
-1, ,-52, ,
1, ,-52, ,
-1, ,-51, ,
-1, ,-52, ,
1, ,-52, ,
1, ,-51, ,
-1, ,-51, ,
1, ,-52, ,
-1, ,-51, ,
-1, ,-52, ,
1, ,-52, ,
1, ,-52, ,
-2, ,-52, ,
1, ,-52, ,
-1, ,-51, ,
-1, ,-52, ,
1, ,-52, ,
1, ,-51, ,
-2, ,-52, ,
1, ,-53, ,
-1, ,-51, ,
-1, ,-52, ,
1, ,-53, ,
1, ,-52, ,
-1, ,-51, ,
1, ,-52, ,
-1, ,-52, ,
-1, ,-52, ,
1, ,-52, ,
1, ,-52, ,
-1, ,-52, ,
1, ,-53, ,
-1, ,-51, ,
-1, ,-52, ,
1, ,-52, ,
1, ,-52, ,
-1, ,-52, ,
1, ,-52, ,
-1, ,-52, ,
-1, ,-52, ,
1, ,-52, ,
1, ,-52, ,
-2, ,-52, ,
1, ,-52, ,
-1, ,-51, ,
-1, ,-52, ,
1, ,-52, ,
1, ,-52, ,
-1, ,-52, ,
1, ,-53, ,
-1, ,-52, ,
-1, ,-52, ,
1, ,-52, ,
1, ,-52, ,
-1, ,-52, ,
1, ,-53, ,
-1, ,-51, ,
-1, ,-52, ,
1, ,-52, ,
1, ,-52, ,
-1, ,-51, ,
1, ,-52, ,
-1, ,-52, ,
-1, ,-52, ,
1, ,-52, ,
1, ,-52, ,
-1, ,-52, ,
1, ,-53, ,
-1, ,-51, ,
-1, ,-52, ,
1, ,-52, ,
1, ,-52, ,
-1, ,-52, ,
1, ,-52, ,
-1, ,-51, ,
-1, ,-52, ,
1, ,-52, ,
1, ,-52, ,
-1, ,-52, ,
1, ,-53, ,
-1, ,-51, ,
-1, ,-52, ,
1, ,-52, ,
1, ,-52, ,
-1, ,-52, ,
1, ,-52, ,
-1, ,-52, ,
-1, ,-52, ,
1, ,-52, ,
1, ,-52, ,
-1, ,-52, ,
1, ,-53, ,
-1, ,-51, ,
-1, ,-52, ,
1, ,-52, ,
1, ,-52, ,
-1, ,-51, ,
1, ,-52, ,
-1, ,-51, ,
-1, ,-52, ,
1, ,-52, ,
1, ,-52, ,
-1, ,-52, ,
1, ,-53, ,
-1, ,-51, ,
-1, ,-52, ,
1, ,-52, ,
1, ,-52, ,
-1, ,-52, ,
1, ,-52, ,
-1, ,-52, ,
-1, ,-52, ,
1, ,-52, ,
1, ,-52, ,
-1, ,-52, ,
1, ,-53, ,
-1, ,-51, ,
-1, ,-52, ,
1, ,-52, ,
1, ,-52, ,
-1, ,-52, ,
1, ,-52, ,
-1, ,-52, ,
-1, ,-52, ,
1, ,-52, ,
1, ,-52, ,
-1, ,-52, ,
1, ,-53, ,
-1, ,-51, ,
-1, ,-52, ,
1, ,-52, ,
1, ,-52, ,
-1, ,-52, ,
1, ,-52, ,
-1, ,-52, ,
-1, ,-52, ,
1, ,-52, ,
1, ,-51, ,
-1, ,-52, ,
1, ,-53, ,
-1, ,-51, ,
-1, ,-52, ,
1, ,-52, ,
1, ,-51, ,
-1, ,-51, ,
1, ,-52, ,
-1, ,-52, ,
-1, ,-52, ,
1, ,-52, ,
1, ,-52, ,
-1, ,-52, ,
1, ,-53, ,
-1, ,-51, ,
-1, ,-52, ,
1, ,-53, ,
1, ,-52, ,
-1, ,-51, ,
1, ,-52, ,
-1, ,-52, ,
-1, ,-52, ,
1, ,-53, ,
1, ,-52, ,
-1, ,-52, ,
1, ,-52, ,
-1, ,-51, ,
-1, ,-52, ,
1, ,-53, ,
1, ,-52, ,
-1, ,-52, ,
1, ,-52, ,
-1, ,-52, ,
-1, ,-52, ,
1, ,-52, ,
1, ,-52, ,
-1, ,-52, ,
1, ,-53, ,
-1, ,-51, ,
-1, ,-52, ,
1, ,-53, ,
1, ,-52, ,
-1, ,-52, ,
1, ,-52, ,
-1, ,-51, ,
-1, ,-52, ,
1, ,-52, ,
1, ,-52, ,
-1, ,-52, ,
1, ,-53, ,
-1, ,-51, ,
-1, ,-52, ,
1, ,-53, ,
1, ,-52, ,
-1, ,-52, ,
1, ,-52, ,
-1, ,-51, ,
-1, ,-52, ,
1, ,-53, ,
1, ,-51, ,
-1, ,-52, ,
1, ,-53, ,
-1, ,-51, ,
-1, ,-52, ,
1, ,-53, ,
1, ,-52, ,
-1, ,-52, ,
1, ,-52, ,
-1, ,-52, ,
-1, ,-52, ,
1, ,-53, ,
1, ,-52, ,
-1, ,-52, ,
1, ,-53, ,
-1, ,-51, ,
-1, ,-52, ,
1, ,-53, ,
1, ,-52, ,
-1, ,-52, ,
1, ,-53, ,
-1, ,-52, ,
-1, ,-52, ,
1, ,-52, ,
1, ,-52, ,
-1, ,-52, ,
1, ,-53, ,
-1, ,-51, ,
-1, ,-52, ,
1, ,-52, ,
1, ,-52, ,
-1, ,-51, ,
1, ,-53, ,
-1, ,-52, ,
-1, ,-52, ,
1, ,-52, ,
1, ,-52, ,
-1, ,-52, ,
1, ,-52, ,
-1, ,-51, ,
-1, ,-52, ,
1, ,-52, ,
1, ,-52, ,
-1, ,-52, ,
1, ,-52, ,
-1, ,-52, ,
-1, ,-52, ,
1, ,-52, ,
1, ,-52, ,
-1, ,-52, ,
1, ,-53, ,
-1, ,-51, ,
-1, ,-52, ,
1, ,-53, ,
1, ,-52, ,
-1, ,-52, ,
1, ,-52, ,
-1, ,-52, ,
-1, ,-52, ,
1, ,-53, ,
1, ,-51, ,
-1, ,-52, ,
1, ,-53, ,
-1, ,-51, ,
-1, ,-52, ,
1, ,-52, ,
1, ,-52, ,
-1, ,-52, ,
1, ,-52, ,
-1, ,-52, ,
-1, ,-52, ,
1, ,-53, ,
1, ,-52, ,
-1, ,-52, ,
1, ,-53, ,
-1, ,-51, ,
-1, ,-52, ,
1, ,-50, ,
1, ,-32, ,
-1, ,-13, ,
2, ,1, ,
-1, ,12, ,
1, ,20, ,
1, ,25, ,
1, ,30, ,
-1, ,33, ,
1, ,36, ,
-1, ,37, ,
-1, ,38, ,
1, ,40, ,
1, ,40, ,
-1, ,40, ,
1, ,42, ,
-1, ,41, ,
-1, ,42, ,
1, ,42, ,
-1, ,42, ,
-1, ,42, ,
1, ,42, ,
1, ,41, ,
-1, ,42, ,
1, ,42, ,
-1, ,41, ,
-2, ,41, ,
1, ,42, ,
-1, ,41, ,
1, ,42, ,
1, ,42, ,
1, ,41, ,
-1, ,41, ,
1, ,42, ,
-1, ,41, ,
-1, ,41, ,
1, ,42, ,
-1, ,41, ,
-1, ,41, ,
1, ,42, ,
-1, ,41, ,
-1, ,41, ,
1, ,41, ,
1, ,41, ,
-1, ,41, ,
1, ,42, ,
-1, ,41, ,
-1, ,41, ,
1, ,41, ,
1, ,41, ,
-1, ,41, ,
2, ,42, ,
-1, ,41, ,
-1, ,41, ,
1, ,42, ,
1, ,41, ,
-1, ,41, ,
1, ,42, ,
-1, ,40, ,
-1, ,41, ,
1, ,42, ,
-1, ,41, ,
-1, ,41, ,
1, ,42, ,
-1, ,41, ,
-1, ,41, ,
1, ,41, ,
1, ,41, ,
-1, ,41, ,
1, ,42, ,
-1, ,40, ,
-1, ,41, ,
1, ,41, ,
1, ,41, ,
-1, ,41, ,
1, ,42, ,
-1, ,40, ,
100, ,41, ,
63, ,41, ,
38, ,41, ,
24, ,41, ,
16, ,42, ,
11, ,41, ,
7, ,41, ,
6, ,41, ,
3, ,41, ,
2, ,41, ,
3, ,42, ,
2, ,41, ,
2, ,41, ,
3, ,41, ,
3, ,41, ,
2, ,41, ,
3, ,42, ,
2, ,40, ,
2, ,41, ,
3, ,41, ,
2, ,41, ,
1, ,41, ,
3, ,42, ,
2, ,41, ,
2, ,41, ,
3, ,42, ,
2, ,41, ,
1, ,41, ,
3, ,42, ,
2, ,41, ,
2, ,41, ,
3, ,41, ,
2, ,41, ,
2, ,41, ,
2, ,42, ,
2, ,40, ,
2, ,41, ,
3, ,41, ,
3, ,41, ,
2, ,41, ,
3, ,42, ,
2, ,41, ,
2, ,41, ,
3, ,41, ,
2, ,41, ,
1, ,41, ,
3, ,42, ,
2, ,40, ,
2, ,41, ,
3, ,41, ,
2, ,41, ,
1, ,41, ,
3, ,41, ,
2, ,40, ,
2, ,41, ,
3, ,41, ,
2, ,41, ,
1, ,41, ,
2, ,42, ,
2, ,40, ,
2, ,41, ,
3, ,41, ,
2, ,41, ,
1, ,41, ,
3, ,42, ,
2, ,40, ,
2, ,41, ,
2, ,41, ,
2, ,41, ,
1, ,41, ,
2, ,42, ,
2, ,41, ,
2, ,41, ,
2, ,42, ,
2, ,41, ,
1, ,41, ,
2, ,42, ,
2, ,40, ,
2, ,31, ,
2, ,11, ,
2, ,-5, ,
1, ,-17, ,
2, ,-26, ,
2, ,-33, ,
1, ,-38, ,
2, ,-42, ,
2, ,-44, ,
1, ,-46, ,
3, ,-49, ,
2, ,-49, ,
2, ,-50, ,
2, ,-52, ,
2, ,-52, ,
1, ,-51, ,
2, ,-53, ,
1, ,-52, ,
2, ,-52, ,
2, ,-53, ,
2, ,-52, ,
1, ,-53, ,
2, ,-53, ,
1, ,-51, ,
2, ,-52, ,
2, ,-53, ,
2, ,-52, ,
1, ,-52, ,
2, ,-53, ,
1, ,-52, ,
2, ,-53, ,
2, ,-53, ,
2, ,-52, ,
1, ,-52, ,
2, ,-53, ,
1, ,-52, ,
2, ,-53, ,
2, ,-53, ,
2, ,-52, ,
1, ,-52, ,
2, ,-53, ,
1, ,-52, ,
2, ,-53, ,
2, ,-53, ,
2, ,-52, ,
1, ,-52, ,
2, ,-53, ,
1, ,-51, ,
2, ,-52, ,
2, ,-52, ,
2, ,-52, ,
1, ,-52, ,
2, ,-52, ,
1, ,-52, ,
2, ,-52, ,
2, ,-53, ,
2, ,-52, ,
1, ,-52, ,
2, ,-53, ,
2, ,-51, ,
2, ,-52, ,
2, ,-53, ,
2, ,-52, ,
1, ,-51, ,
2, ,-53, ,
1, ,-51, ,
2, ,-52, ,
2, ,-53, ,
2, ,-52, ,
1, ,-52, ,
2, ,-53, ,
1, ,-52, ,
2, ,-52, ,
2, ,-53, ,
2, ,-52, ,
1, ,-52, ,
2, ,-53, ,
1, ,-52, ,
2, ,-52, ,
2, ,-53, ,
2, ,-52, ,
1, ,-52, ,
2, ,-53, ,
1, ,-51, ,
2, ,-52, ,
2, ,-53, ,
2, ,-52, ,
1, ,-51, ,
2, ,-52, ,
1, ,-51, ,
2, ,-52, ,
2, ,-52, ,
2, ,-52, ,
1, ,-52, ,
2, ,-53, ,
1, ,-51, ,
2, ,-52, ,
2, ,-53, ,
2, ,-52, ,
1, ,-51, ,
2, ,-52, ,
1, ,-52, ,
1, ,-52, ,
2, ,-53, ,
2, ,-51, ,
1, ,-52, ,
2, ,-53, ,
1, ,-51, ,
1, ,-52, ,
2, ,-53, ,
2, ,-52, ,
1, ,-52, ,
2, ,-52, ,
1, ,-51, ,
1, ,-52, ,
2, ,-52, ,
2, ,-51, ,
1, ,-52, ,
2, ,-53, ,
1, ,-51, ,
1, ,-52, ,
2, ,-52, ,
2, ,-52, ,
1, ,-52, ,
2, ,-53, ,
1, ,-52, ,
1, ,-52, ,
2, ,-53, ,
2, ,-52, ,
1, ,-52, ,
2, ,-53, ,
1, ,-51, ,
1, ,-52, ,
2, ,-52, ,
2, ,-52, ,
1, ,-52, ,
2, ,-52, ,
1, ,-52, ,
2, ,-52, ,
2, ,-52, ,
2, ,-51, ,
1, ,-52, ,
2, ,-53, ,
1, ,-51, ,
1, ,-52, ,
2, ,-53, ,
2, ,-52, ,
1, ,-52, ,
2, ,-53, ,
1, ,-52, ,
1, ,-52, ,
2, ,-52, ,
2, ,-52, ,
1, ,-52, ,
2, ,-52, ,
1, ,-51, ,
1, ,-52, ,
2, ,-53, ,
2, ,-52, ,
1, ,-52, ,
2, ,-52, ,
1, ,-52, ,
1, ,-52, ,
2, ,-52, ,
1, ,-52, ,
1, ,-52, ,
2, ,-53, ,
1, ,-51, ,
1, ,-52, ,
2, ,-53, ,
2, ,-52, ,
1, ,-51, ,
2, ,-52, ,
1, ,-52, ,
1, ,-52, ,
2, ,-53, ,
1, ,-52, ,
1, ,-52, ,
2, ,-53, ,
1, ,-51, ,
1, ,-52, ,
2, ,-53, ,
1, ,-51, ,
1, ,-52, ,
2, ,-52, ,
1, ,-52, ,
1, ,-52, ,
2, ,-52, ,
1, ,-51, ,
1, ,-52, ,
2, ,-53, ,
1, ,-51, ,
1, ,-52, ,
2, ,-52, ,
1, ,-52, ,
-1, ,-52, ,
2, ,-52, ,
1, ,-52, ,
1, ,-52, ,
2, ,-52, ,
2, ,-52, ,
-1, ,-52, ,
2, ,-53, ,
1, ,-51, ,
1, ,-52, ,
2, ,-52, ,
1, ,-52, ,
1, ,-52, ,
2, ,-52, ,
1, ,-52, ,
1, ,-52, ,
2, ,-53, ,
1, ,-52, ,
1, ,-52, ,
2, ,-53, ,
1, ,-51, ,
1, ,-52, ,
2, ,-52, ,
2, ,-52, ,
1, ,-51, ,
2, ,-52, ,
1, ,-52, ,
1, ,-52, ,
2, ,-52, ,
2, ,-52, ,
1, ,-52, ,
2, ,-52, ,
1, ,-51, ,
1, ,-52, ,
2, ,-52, ,
2, ,-52, ,
1, ,-52, ,
2, ,-52, ,
1, ,-52, ,
1, ,-52, ,
2, ,-52, ,
2, ,-52, ,
1, ,-52, ,
2, ,-53, ,
1, ,-51, ,
1, ,-52, ,
2, ,-53, ,
2, ,-52, ,
1, ,-52, ,
2, ,-52, ,
1, ,-51, ,
1, ,-52, ,
2, ,-52, ,
1, ,-52, ,
-1, ,-52, ,
2, ,-53, ,
1, ,-51, ,
1, ,-52, ,
1, ,-53, ,
1, ,-52, ,
1, ,-52, ,
2, ,-52, ,
1, ,-52, ,
1, ,-52, ,
2, ,-52, ,
1, ,-51, ,
-1, ,-52, ,
2, ,-53, ,
1, ,-51, ,
1, ,-52, ,
2, ,-53, ,
1, ,-52, ,
-1, ,-51, ,
2, ,-52, ,
1, ,-52, ,
1, ,-52, ,
2, ,-52, ,
1, ,-52, ,
-1, ,-52, ,
2, ,-53, ,
1, ,-51, ,
1, ,-52, ,
2, ,-53, ,
1, ,-52, ,
-1, ,-51, ,
2, ,-52, ,
1, ,-51, ,
1, ,-52, ,
2, ,-52, ,
1, ,-52, ,
-1, ,-52, ,
2, ,-53, ,
1, ,-51, ,
1, ,-52, ,
1, ,-53, ,
2, ,-52, ,
-1, ,-52, ,
2, ,-52, ,
1, ,-52, ,
1, ,-52, ,
2, ,-52, ,
1, ,-52, ,
-1, ,-52, ,
2, ,-53, ,
1, ,-51, ,
1, ,-52, ,
1, ,-52, ,
1, ,-52, ,
-1, ,-52, ,
2, ,-52, ,
1, ,-51, ,
1, ,-52, ,
1, ,-52, ,
1, ,-51, ,
-1, ,-52, ,
2, ,-53, ,
1, ,-51, ,
1, ,-52, ,
1, ,-53, ,
2, ,-52, ,
-1, ,-52, ,
2, ,-52, ,
1, ,-51, ,
1, ,-52, ,
1, ,-53, ,
1, ,-52, ,
-1, ,-52, ,
2, ,-53, ,
1, ,-51, ,
1, ,-52, ,
2, ,-53, ,
1, ,-52, ,
-1, ,-51, ,
2, ,-52, ,
1, ,-51, ,
1, ,-52, ,
1, ,-52, ,
1, ,-52, ,
-1, ,-52, ,
2, ,-52, ,
1, ,-51, ,
1, ,-52, ,
2, ,-53, ,
1, ,-52, ,
-1, ,-52, ,
2, ,-52, ,
1, ,-51, ,
1, ,-52, ,
1, ,-52, ,
1, ,-52, ,
-1, ,-52, ,
2, ,-53, ,
1, ,-51, ,
1, ,-52, ,
1, ,-53, ,
2, ,-52, ,
-1, ,-52, ,
2, ,-52, ,
1, ,-51, ,
1, ,-52, ,
1, ,-52, ,
2, ,-51, ,
-1, ,-52, ,
2, ,-53, ,
1, ,-51, ,
1, ,-52, ,
1, ,-52, ,
1, ,-52, ,
1, ,-52, ,
2, ,-53, ,
1, ,-52, ,
1, ,-52, ,
2, ,-52, ,
1, ,-52, ,
-1, ,-52, ,
2, ,-53, ,
-1, ,-51, ,
1, ,-52, ,
1, ,-53, ,
1, ,-52, ,
-1, ,-51, ,
2, ,-53, ,
1, ,-51, ,
1, ,-52, ,
1, ,-52, ,
1, ,-52, ,
-1, ,-52, ,
2, ,-53, ,
-1, ,-51, ,
1, ,-52, ,
2, ,-53, ,
1, ,-52, ,
-1, ,-52, ,
2, ,-52, ,
1, ,-51, ,
1, ,-52, ,
1, ,-52, ,
1, ,-52, ,
-1, ,-52, ,
2, ,-53, ,
1, ,-51, ,
1, ,-52, ,
1, ,-53, ,
1, ,-52, ,
-1, ,-52, ,
2, ,-53, ,
-1, ,-52, ,
1, ,-52, ,
1, ,-52, ,
1, ,-52, ,
-1, ,-52, ,
2, ,-52, ,
1, ,-51, ,
1, ,-52, ,
1, ,-53, ,
1, ,-52, ,
-1, ,-51, ,
2, ,-53, ,
-1, ,-52, ,
1, ,-52, ,
1, ,-52, ,
1, ,-51, ,
-1, ,-52, ,
2, ,-53, ,
-1, ,-51, ,
1, ,-52, ,
1, ,-53, ,
1, ,-52, ,
-1, ,-52, ,
1, ,-52, ,
1, ,-51, ,
-1, ,-52, ,
1, ,-53, ,
1, ,-51, ,
-1, ,-52, ,
2, ,-53, ,
-1, ,-51, ,
1, ,-52, ,
1, ,-53, ,
1, ,-52, ,
-1, ,-52, ,
2, ,-53, ,
-1, ,-51, ,
1, ,-52, ,
1, ,-53, ,
1, ,-52, ,
-1, ,-52, ,
2, ,-53, ,
1, ,-51, ,
1, ,-52, ,
1, ,-53, ,
1, ,-52, ,
-1, ,-52, ,
2, ,-52, ,
-1, ,-51, ,
1, ,-52, ,
2, ,-52, ,
1, ,-52, ,
-1, ,-52, ,
2, ,-53, ,
1, ,-51, ,
1, ,-52, ,
1, ,-53, ,
1, ,-52, ,
-1, ,-52, ,
2, ,-53, ,
-1, ,-51, ,
1, ,-52, ,
1, ,-52, ,
1, ,-52, ,
-1, ,-52, ,
2, ,-52, ,
-1, ,-50, ,
1, ,-52, ,
1, ,-52, ,
1, ,-52, ,
-1, ,-52, ,
2, ,-52, ,
1, ,-52, ,
1, ,-52, ,
1, ,-52, ,
1, ,-51, ,
-1, ,-52, ,
2, ,-53, ,
-1, ,-51, ,
1, ,-52, ,
1, ,-52, ,
1, ,-52, ,
-1, ,-52, ,
1, ,-52, ,
-1, ,-51, ,
1, ,-52, ,
1, ,-53, ,
1, ,-52, ,
-1, ,-52, ,
2, ,-53, ,
-1, ,-51, ,
-1, ,-52, ,
1, ,-53, ,
1, ,-52, ,
-1, ,-52, ,
1, ,-52, ,
-1, ,-51, ,
1, ,-52, ,
1, ,-53, ,
1, ,-52, ,
-1, ,-52, ,
2, ,-53, ,
1, ,-52, ,
1, ,-52, ,
1, ,-52, ,
1, ,-52, ,
-1, ,-52, ,
2, ,-52, ,
-1, ,-52, ,
1, ,-52, ,
2, ,-53, ,
1, ,-51, ,
-1, ,-52, ,
1, ,-53, ,
1, ,-51, ,
-1, ,-52, ,
1, ,-53, ,
1, ,-52, ,
-1, ,-52, ,
1, ,-52, ,
-1, ,-51, ,
1, ,-52, ,
1, ,-52, ,
1, ,-51, ,
-1, ,-52, ,
2, ,-53, ,
1, ,-51, ,
-1, ,-52, ,
1, ,-53, ,
1, ,-52, ,
-1, ,-52, ,
1, ,-53, ,
-1, ,-52, ,
1, ,-52, ,
1, ,-53, ,
1, ,-52, ,
-1, ,-52, ,
2, ,-53, ,
-1, ,-51, ,
1, ,-52, ,
1, ,-52, ,
1, ,-52, ,
-1, ,-52, ,
2, ,-52, ,
-1, ,-52, ,
-1, ,-52, ,
1, ,-53, ,
1, ,-52, ,
-1, ,-52, ,
1, ,-53, ,
-1, ,-51, ,
-1, ,-52, ,
1, ,-52, ,
1, ,-52, ,
-1, ,-52, ,
1, ,-52, ,
-1, ,-52, ,
-1, ,-52, ,
1, ,-52, ,
1, ,-52, ,
-1, ,-52, ,
1, ,-53, ,
-1, ,-51, ,
1, ,-52, ,
1, ,-53, ,
1, ,-52, ,
-1, ,-51, ,
1, ,-52, ,
-1, ,-51, ,
-1, ,-52, ,
1, ,-53, ,
2, ,-51, ,
-1, ,-52, ,
1, ,-53, ,
1, ,-51, ,
1, ,-52, ,
1, ,-53, ,
1, ,-52, ,
-1, ,-52, ,
2, ,-53, ,
-1, ,-51, ,
1, ,-52, ,
1, ,-52, ,
1, ,-52, ,
-1, ,-52, ,
2, ,-53, ,
1, ,-51, ,
1, ,-52, ,
1, ,-53, ,
1, ,-52, ,
-1, ,-51, ,
2, ,-52, ,
-1, ,-51, ,
1, ,-52, ,
1, ,-52, ,
1, ,-52, ,
-1, ,-52, ,
2, ,-53, ,
-1, ,-51, ,
1, ,-52, ,
1, ,-53, ,
1, ,-52, ,
-1, ,-52, ,
2, ,-52, ,
-1, ,-52, ,
1, ,-52, ,
1, ,-53, ,
1, ,-52, ,
-1, ,-52, ,
2, ,-53, ,
-1, ,-51, ,
1, ,-52, ,
1, ,-52, ,
1, ,-52, ,
-1, ,-52, ,
2, ,-53, ,
-1, ,-51, ,
-1, ,-52, ,
1, ,-53, ,
1, ,-52, ,
-1, ,-52, ,
1, ,-52, ,
-1, ,-52, ,
-1, ,-52, ,
1, ,-52, ,
1, ,-52, ,
-1, ,-38, ,
2, ,-18, ,
1, ,-3, ,
1, ,9, ,
1, ,17, ,
1, ,24, ,
-1, ,28, ,
2, ,32, ,
1, ,35, ,
1, ,37, ,
1, ,38, ,
1, ,39, ,
-1, ,40, ,
2, ,41, ,
-1, ,40, ,
-1, ,41, ,
1, ,42, ,
1, ,41, ,
-1, ,42, ,
1, ,42, ,
1, ,41, ,
-1, ,42, ,
1, ,42, ,
1, ,42, ,
-1, ,42, ,
2, ,42, ,
-1, ,42, ,
-1, ,42, ,
2, ,42, ,
1, ,41, ,
-1, ,42, ,
2, ,42, ,
-1, ,41, ,
-1, ,42, ,
1, ,42, ,
1, ,41, ,
-1, ,41, ,
2, ,42, ,
-1, ,41, ,
-1, ,41, ,
1, ,41, ,
1, ,41, ,
-1, ,41, ,
1, ,42, ,
1, ,41, ,
-1, ,41, ,
1, ,41, ,
1, ,41, ,
-1, ,41, ,
2, ,42, ,
1, ,40, ,
-1, ,41, ,
1, ,42, ,
1, ,41, ,
-1, ,41, ,
1, ,42, ,
-1, ,41, ,
-1, ,41, ,
1, ,41, ,
1, ,41, ,
-1, ,41, ,
1, ,42, ,
1, ,40, ,
-1, ,41, ,
1, ,42, ,
1, ,41, ,
-1, ,41, ,
1, ,42, ,
1, ,41, ,
1, ,41, ,
1, ,41, ,
1, ,41, ,
-1, ,41, ,
2, ,42, ,
1, ,41, ,
-1, ,41, ,
1, ,42, ,
1, ,41, ,
-1, ,41, ,
2, ,41, ,
1, ,41, ,
-1, ,41, ,
1, ,41, ,
1, ,41, ,
-1, ,41, ,
2, ,42, ,
1, ,40, ,
1, ,41, ,
1, ,41, ,
1, ,41, ,
-1, ,41, ,
2, ,42, ,
1, ,41, ,
-1, ,41, ,
1, ,41, ,
1, ,41, ,
-1, ,41, ,
2, ,42, ,
1, ,40, ,
-1, ,41, ,
1, ,41, ,
1, ,41, ,
-1, ,41, ,
2, ,41, ,
1, ,41, ,
1, ,41, ,
1, ,41, ,
1, ,41, ,
-1, ,41, ,
2, ,42, ,
1, ,41, ,
1, ,41, ,
1, ,41, ,
1, ,41, ,
-1, ,41, ,
2, ,42, ,
1, ,40, ,
1, ,41, ,
1, ,41, ,
1, ,41, ,
-1, ,41, ,
2, ,42, ,
1, ,41, ,
1, ,41, ,
1, ,42, ,
1, ,41, ,
-1, ,41, ,
1, ,42, ,
1, ,40, ,
1, ,41, ,
1, ,41, ,
1, ,41, ,
-1, ,41, ,
1, ,42, ,
1, ,40, ,
-1, ,41, ,
1, ,41, ,
1, ,41, ,
-1, ,41, ,
2, ,42, ,
1, ,41, ,
1, ,41, ,
1, ,41, ,
1, ,41, ,
-1, ,41, ,
2, ,42, ,
1, ,41, ,
1, ,41, ,
2, ,41, ,
1, ,41, ,
-1, ,41, ,
2, ,42, ,
1, ,41, ,
-1, ,41, ,
1, ,35, ,
-1, ,16, ,
-1, ,-1, ,
2, ,-14, ,
-1, ,-24, ,
-1, ,-32, ,
1, ,-37, ,
1, ,-41, ,
-1, ,-44, ,
1, ,-46, ,
1, ,-46, ,
1, ,-49, ,
1, ,-51, ,
1, ,-51, ,
-1, ,-51, ,
2, ,-52, ,
-1, ,-52, ,
1, ,-53, ,
1, ,-53, ,
1, ,-52, ,
-1, ,-53, ,
2, ,-53, ,
-1, ,-52, ,
-1, ,-53, ,
1, ,-53, ,
1, ,-52, ,
-1, ,-53, ,
1, ,-53, ,
-1, ,-52, ,
-1, ,-53, ,
1, ,-53, ,
1, ,-52, ,
-1, ,-53, ,
1, ,-53, ,
1, ,-52, ,
-1, ,-52, ,
1, ,-53, ,
1, ,-52, ,
-1, ,-52, ,
1, ,-53, ,
-1, ,-51, ,
-1, ,-53, ,
1, ,-53, ,
2, ,-52, ,
-1, ,-53, ,
2, ,-53, ,
-1, ,-52, ,
-1, ,-53, ,
1, ,-53, ,
1, ,-52, ,
-1, ,-52, ,
1, ,-53, ,
-1, ,-52, ,
-1, ,-53, ,
1, ,-52, ,
1, ,-52, ,
-1, ,-53, ,
1, ,-53, ,
-1, ,-51, ,
-1, ,-52, ,
1, ,-53, ,
1, ,-52, ,
-1, ,-52, ,
1, ,-53, ,
-1, ,-52, ,
-1, ,-52, ,
1, ,-53, ,
1, ,-52, ,
-1, ,-53, ,
1, ,-53, ,
-1, ,-51, ,
1, ,-52, ,
1, ,-53, ,
1, ,-52, ,
-1, ,-52, ,
1, ,-52, ,
-1, ,-51, ,
-1, ,-52, ,
1, ,-52, ,
1, ,-52, ,
-1, ,-52, ,
1, ,-53, ,
-1, ,-51, ,
-1, ,-52, ,
1, ,-53, ,
1, ,-52, ,
-1, ,-52, ,
1, ,-53, ,
-1, ,-51, ,
-1, ,-52, ,
1, ,-52, ,
1, ,-52, ,
-1, ,-52, ,
1, ,-53, ,
-1, ,-51, ,
-1, ,-52, ,
1, ,-53, ,
1, ,-52, ,
-1, ,-52, ,
1, ,-53, ,
-1, ,-51, ,
-1, ,-52, ,
1, ,-52, ,
1, ,-52, ,
-1, ,-52, ,
2, ,-53, ,
1, ,-51, ,
1, ,-52, ,
1, ,-53, ,
1, ,-52, ,
-1, ,-52, ,
2, ,-52, ,
-1, ,-52, ,
1, ,-52, ,
1, ,-52, ,
1, ,-52, ,
-1, ,-52, ,
1, ,-53, ,
-1, ,-51, ,
-1, ,-52, ,
1, ,-53, ,
1, ,-52, ,
-1, ,-52, ,
1, ,-53, ,
-1, ,-52, ,
-1, ,-52, ,
1, ,-52, ,
1, ,-52, ,
-1, ,-52, ,
1, ,-52, ,
-1, ,-51, ,
-1, ,-52, ,
1, ,-52, ,
1, ,-52, ,
-1, ,-52, ,
1, ,-52, ,
-1, ,-52, ,
-1, ,-52, ,
1, ,-52, ,
1, ,-52, ,
-1, ,-52, ,
2, ,-53, ,
-1, ,-51, ,
1, ,-52, ,
1, ,-53, ,
1, ,-52, ,
-1, ,-52, ,
1, ,-53, ,
-1, ,-51, ,
-1, ,-52, ,
1, ,-52, ,
1, ,-52, ,
-1, ,-52, ,
1, ,-53, ,
1, ,-51, ,
-1, ,-52, ,
1, ,-53, ,
1, ,-52, ,
-1, ,-52, ,
1, ,-52, ,
-1, ,-52, ,
-1, ,-52, ,
1, ,-52, ,
1, ,-52, ,
-1, ,-52, ,
1, ,-53, ,
-1, ,-51, ,
-1, ,-52, ,
1, ,-52, ,
1, ,-52, ,
-1, ,-52, ,
2, ,-53, ,
-1, ,-51, ,
-1, ,-52, ,
1, ,-53, ,
1, ,-52, ,
-1, ,-52, ,
1, ,-53, ,
-1, ,-51, ,
-1, ,-52, ,
1, ,-53, ,
1, ,-52, ,
-1, ,-52, ,
1, ,-53, ,
-1, ,-52, ,
-1, ,-52, ,
1, ,-52, ,
1, ,-52, ,
-1, ,-52, ,
1, ,-53, ,
-1, ,-51, ,
-1, ,-52, ,
1, ,-53, ,
1, ,-52, ,
-1, ,-52, ,
1, ,-52, ,
-1, ,-51, ,
-1, ,-52, ,
1, ,-52, ,
1, ,-52, ,
-1, ,-52, ,
1, ,-53, ,
-1, ,-51, ,
-1, ,-52, ,
1, ,-53, ,
1, ,-52, ,
-1, ,-52, ,
1, ,-53, ,
-1, ,-52, ,
-1, ,-52, ,
1, ,-52, ,
1, ,-52, ,
-1, ,-52, ,
1, ,-53, ,
-1, ,-51, ,
-1, ,-52, ,
1, ,-52, ,
1, ,-52, ,
-1, ,-52, ,
1, ,-53, ,
-1, ,-51, ,
-1, ,-52, ,
1, ,-52, ,
1, ,-52, ,
-1, ,-52, ,
1, ,-53, ,
-1, ,-51, ,
-1, ,-52, ,
1, ,-52, ,
1, ,-52, ,
-1, ,-52, ,
2, ,-53, ,
-1, ,-51, ,
-1, ,-52, ,
1, ,-52, ,
1, ,-52, ,
-1, ,-52, ,
1, ,-52, ,
-1, ,-51, ,
-1, ,-52, ,
1, ,-53, ,
1, ,-52, ,
-1, ,-52, ,
1, ,-53, ,
-1, ,-51, ,
-1, ,-52, ,
1, ,-53, ,
1, ,-52, ,
-1, ,-52, ,
1, ,-53, ,
-1, ,-51, ,
-1, ,-52, ,
1, ,-53, ,
1, ,-52, ,
-1, ,-51, ,
1, ,-53, ,
-1, ,-51, ,
-1, ,-52, ,
1, ,-53, ,
1, ,-51, ,
-1, ,-52, ,
1, ,-53, ,
-1, ,-51, ,
-1, ,-52, ,
1, ,-53, ,
1, ,-52, ,
-1, ,-52, ,
1, ,-53, ,
-1, ,-51, ,
1, ,-52, ,
1, ,-52, ,
1, ,-52, ,
-1, ,-52, ,
2, ,-52, ,
-1, ,-51, ,
-1, ,-52, ,
1, ,-52, ,
1, ,-52, ,
-1, ,-52, ,
1, ,-53, ,
-1, ,-51, ,
-1, ,-52, ,
1, ,-52, ,
1, ,-52, ,
-1, ,-52, ,
1, ,-53, ,
-1, ,-52, ,
-1, ,-52, ,
1, ,-53, ,
1, ,-52, ,
-1, ,-52, ,
2, ,-52, ,
-1, ,-51, ,
-1, ,-52, ,
1, ,-52, ,
1, ,-52, ,
-1, ,-52, ,
1, ,-53, ,
-1, ,-52, ,
-1, ,-52, ,
1, ,-53, ,
1, ,-52, ,
-1, ,-52, ,
1, ,-53, ,
-1, ,-52, ,
-1, ,-52, ,
1, ,-52, ,
1, ,-52, ,
-1, ,-52, ,
1, ,-53, ,
-1, ,-51, ,
-1, ,-52, ,
1, ,-52, ,
1, ,-52, ,
-1, ,-52, ,
1, ,-53, ,
-1, ,-51, ,
-1, ,-52, ,
1, ,-52, ,
1, ,-52, ,
-1, ,-52, ,
1, ,-53, ,
-1, ,-51, ,
-1, ,-52, ,
1, ,-52, ,
1, ,-52, ,
-1, ,-52, ,
1, ,-53, ,
-1, ,-52, ,
-1, ,-52, ,
1, ,-52, ,
1, ,-52, ,
-1, ,-52, ,
1, ,-53, ,
-1, ,-51, ,
-1, ,-52, ,
1, ,-52, ,
1, ,-52, ,
-1, ,-52, ,
1, ,-53, ,
-1, ,-52, ,
-1, ,-52, ,
1, ,-52, ,
1, ,-52, ,
-1, ,-52, ,
1, ,-53, ,
-1, ,-51, ,
-1, ,-52, ,
1, ,-52, ,
1, ,-52, ,
-1, ,-52, ,
1, ,-53, ,
-1, ,-52, ,
-1, ,-52, ,
1, ,-52, ,
1, ,-52, ,
-1, ,-52, ,
1, ,-53, ,
-1, ,-51, ,
-1, ,-52, ,
1, ,-52, ,
1, ,-52, ,
-1, ,-52, ,
1, ,-52, ,
-1, ,-52, ,
-1, ,-52, ,
1, ,-52, ,
1, ,-52, ,
-1, ,-52, ,
2, ,-53, ,
-1, ,-52, ,
-1, ,-52, ,
1, ,-52, ,
1, ,-52, ,
-1, ,-52, ,
1, ,-53, ,
-1, ,-51, ,
-1, ,-52, ,
1, ,-52, ,
1, ,-52, ,
-1, ,-52, ,
1, ,-53, ,
-1, ,-51, ,
-1, ,-52, ,
1, ,-52, ,
1, ,-52, ,
-1, ,-52, ,
1, ,-52, ,
-1, ,-51, ,
-1, ,-52, ,
1, ,-52, ,
1, ,-52, ,
-1, ,-52, ,
1, ,-53, ,
-1, ,-51, ,
-1, ,-52, ,
1, ,-52, ,
1, ,-52, ,
-1, ,-52, ,
1, ,-52, ,
-1, ,-51, ,
-1, ,-52, ,
1, ,-53, ,
1, ,-51, ,
-1, ,-52, ,
1, ,-53, ,
-1, ,-51, ,
-1, ,-52, ,
1, ,-52, ,
1, ,-52, ,
-1, ,-52, ,
1, ,-52, ,
-1, ,-52, ,
-1, ,-52, ,
1, ,-53, ,
1, ,-52, ,
-1, ,-52, ,
1, ,-53, ,
-1, ,-52, ,
-1, ,-52, ,
1, ,-52, ,
1, ,-52, ,
-1, ,-52, ,
2, ,-52, ,
-1, ,-51, ,
-1, ,-52, ,
1, ,-53, ,
1, ,-52, ,
-1, ,-52, ,
1, ,-53, ,
-1, ,-52, ,
-1, ,-52, ,
1, ,-52, ,
1, ,-52, ,
-1, ,-52, ,
1, ,-53, ,
-1, ,-51, ,
-1, ,-52, ,
1, ,-52, ,
1, ,-52, ,
-1, ,-52, ,
1, ,-53, ,
-1, ,-51, ,
-1, ,-52, ,
1, ,-52, ,
1, ,-52, ,
-1, ,-52, ,
1, ,-53, ,
-1, ,-51, ,
-1, ,-52, ,
1, ,-52, ,
1, ,-52, ,
-1, ,-52, ,
1, ,-53, ,
-1, ,-51, ,
-1, ,-52, ,
1, ,-53, ,
1, ,-52, ,
-1, ,-52, ,
