src/varyamp_1560/temp0005013.CSV

Format,1.0B,
Memory Length,10000,Memory Length,10000,
IntpDistance,0,IntpDistance,0,
Trigger Address,4999,Trigger Address,4999,
Trigger Level,1.040E+00,Trigger Level,1.040E+00,
Source,CH1,Source,CH2,
Vertical Units,V,Vertical Units,V,
Vertical Units Div,0,Vertical Units Div,0,
Vertical Units Extend Div,16,Vertical Units Extend Div,16,
Label,,Label,,
Probe Type,0,Probe Type,0,
Probe Ratio,1.000e+01,Probe Ratio,1.000e+00,
Vertical Scale,5.000e-01,Vertical Scale,1.000e+00,
Vertical Position,-1.820e+00,Vertical Position,0.000e+00,
Horizontal Units,S,Horizontal Units,S,
Horizontal Scale,2.000E-05,Horizontal Scale,2.000E-05,
Horizontal Position,0.000E+00,Horizontal Position,0.000E+00,
Horizontal Mode,Main,Horizontal Mode,Main,
SincET Mode,Real Time,SincET Mode,Real Time,
Sampling Period,2.000e-08,Sampling Period,2.000e-08,
Horizontal Old Scale,2.000E-05,Horizontal Old Scale,2.000E-05,
Horizontal Old Position,0.000E+00,Horizontal Old Position,0.000E+00,
Firmware,V1.23,Firmware,V1.23,
Mode,Fast,Mode,Fast,
Waveform Data,,Waveform Data,,
2, ,-38, ,
2, ,-38, ,
2, ,-38, ,
1, ,-38, ,
2, ,-38, ,
2, ,-38, ,
2, ,-38, ,
2, ,-38, ,
2, ,-38, ,
1, ,-37, ,
2, ,-38, ,
1, ,-38, ,
1, ,-38, ,
2, ,-38, ,
2, ,-38, ,
1, ,-37, ,
2, ,-38, ,
1, ,-37, ,
2, ,-38, ,
2, ,-38, ,
2, ,-38, ,
1, ,-38, ,
2, ,-38, ,
2, ,-38, ,
2, ,-37, ,
2, ,-38, ,
2, ,-37, ,
1, ,-37, ,
3, ,-38, ,
2, ,-37, ,
2, ,-38, ,
2, ,-37, ,
2, ,-38, ,
1, ,-37, ,
3, ,-38, ,
2, ,-37, ,
2, ,-38, ,
2, ,-38, ,
2, ,-38, ,
1, ,-37, ,
3, ,-38, ,
1, ,-37, ,
2, ,-37, ,
2, ,-38, ,
2, ,-37, ,
1, ,-37, ,
2, ,-38, ,
1, ,-38, ,
2, ,-38, ,
2, ,-38, ,
2, ,-38, ,
1, ,-38, ,
2, ,-38, ,
1, ,-37, ,
2, ,-38, ,
2, ,-38, ,
2, ,-37, ,
1, ,-37, ,
2, ,-38, ,
1, ,-38, ,
2, ,-38, ,
2, ,-38, ,
2, ,-38, ,
1, ,-37, ,
2, ,-38, ,
1, ,-37, ,
2, ,-37, ,
2, ,-37, ,
2, ,-37, ,
1, ,-37, ,
2, ,-38, ,
1, ,-38, ,
2, ,-38, ,
2, ,-38, ,
2, ,-38, ,
1, ,-37, ,
2, ,-38, ,
1, ,-37, ,
2, ,-38, ,
2, ,-38, ,
2, ,-37, ,
1, ,-37, ,
2, ,-38, ,
1, ,-37, ,
1, ,-38, ,
2, ,-38, ,
2, ,-38, ,
1, ,-37, ,
2, ,-38, ,
2, ,-37, ,
2, ,-38, ,
2, ,-38, ,
1, ,-38, ,
1, ,-37, ,
2, ,-38, ,
1, ,-38, ,
1, ,-38, ,
2, ,-37, ,
2, ,-38, ,
1, ,-37, ,
2, ,-38, ,
1, ,-37, ,
2, ,-38, ,
2, ,-38, ,
2, ,-37, ,
1, ,-38, ,
2, ,-38, ,
1, ,-38, ,
1, ,-38, ,
2, ,-38, ,
1, ,-38, ,
1, ,-38, ,
2, ,-38, ,
1, ,-37, ,
1, ,-37, ,
1, ,-38, ,
2, ,-37, ,
1, ,-38, ,
2, ,-38, ,
1, ,-38, ,
2, ,-38, ,
2, ,-38, ,
2, ,-38, ,
-1, ,-37, ,
2, ,-38, ,
1, ,-38, ,
1, ,-38, ,
2, ,-38, ,
2, ,-37, ,
1, ,-38, ,
2, ,-38, ,
1, ,-38, ,
1, ,-37, ,
2, ,-37, ,
1, ,-38, ,
1, ,-38, ,
2, ,-38, ,
1, ,-38, ,
1, ,-37, ,
2, ,-38, ,
2, ,-37, ,
1, ,-38, ,
2, ,-38, ,
1, ,-38, ,
1, ,-37, ,
2, ,-38, ,
2, ,-38, ,
1, ,-37, ,
2, ,-38, ,
1, ,-37, ,
1, ,-38, ,
2, ,-38, ,
1, ,-37, ,
1, ,-38, ,
2, ,-38, ,
1, ,-38, ,
1, ,-38, ,
2, ,-38, ,
2, ,-38, ,
1, ,-37, ,
2, ,-38, ,
1, ,-37, ,
1, ,-37, ,
2, ,-38, ,
2, ,-38, ,
1, ,-37, ,
2, ,-38, ,
1, ,-38, ,
1, ,-38, ,
48, ,-38, ,
39, ,-38, ,
22, ,-37, ,
16, ,-38, ,
10, ,-37, ,
7, ,-37, ,
6, ,-38, ,
5, ,-38, ,
2, ,-38, ,
5, ,-38, ,
2, ,-38, ,
2, ,-38, ,
3, ,-38, ,
3, ,-37, ,
2, ,-37, ,
3, ,-38, ,
2, ,-38, ,
2, ,-37, ,
3, ,-37, ,
3, ,-37, ,
2, ,-37, ,
3, ,-38, ,
2, ,-38, ,
2, ,-37, ,
2, ,-38, ,
3, ,-38, ,
2, ,-38, ,
3, ,-38, ,
2, ,-38, ,
2, ,-38, ,
3, ,-38, ,
3, ,-38, ,
1, ,-38, ,
3, ,-38, ,
2, ,-37, ,
2, ,-38, ,
3, ,-38, ,
3, ,-38, ,
2, ,-38, ,
3, ,-38, ,
2, ,-37, ,
2, ,-37, ,
2, ,-38, ,
2, ,-38, ,
1, ,-37, ,
3, ,-38, ,
1, ,-38, ,
2, ,-37, ,
2, ,-38, ,
2, ,-38, ,
1, ,-38, ,
3, ,-38, ,
2, ,-38, ,
2, ,-38, ,
2, ,-38, ,
2, ,-37, ,
1, ,-38, ,
3, ,-38, ,
1, ,-38, ,
2, ,-38, ,
2, ,-38, ,
2, ,-38, ,
1, ,-38, ,
3, ,-38, ,
2, ,-37, ,
2, ,-37, ,
2, ,-38, ,
2, ,-38, ,
1, ,-38, ,
3, ,-38, ,
2, ,-37, ,
2, ,-37, ,
2, ,-38, ,
2, ,-38, ,
1, ,-38, ,
3, ,-38, ,
2, ,-37, ,
2, ,-38, ,
2, ,-38, ,
2, ,-38, ,
1, ,-37, ,
3, ,-38, ,
2, ,-38, ,
2, ,-38, ,
2, ,-38, ,
2, ,-38, ,
1, ,-37, ,
2, ,-38, ,
2, ,-37, ,
1, ,-37, ,
2, ,-38, ,
2, ,-38, ,
1, ,-37, ,
2, ,-38, ,
1, ,-37, ,
2, ,-37, ,
2, ,-38, ,
2, ,-38, ,
1, ,-38, ,
2, ,-38, ,
1, ,-38, ,
2, ,-38, ,
2, ,-38, ,
2, ,-37, ,
1, ,-37, ,
3, ,-38, ,
2, ,-38, ,
2, ,-37, ,
2, ,-38, ,
2, ,-38, ,
1, ,-38, ,
2, ,-38, ,
1, ,-38, ,
1, ,-37, ,
2, ,-38, ,
2, ,-38, ,
1, ,-38, ,
2, ,-38, ,
2, ,-37, ,
2, ,-37, ,
2, ,-38, ,
2, ,-38, ,
1, ,-38, ,
2, ,-38, ,
1, ,-37, ,
2, ,-38, ,
2, ,-38, ,
2, ,-38, ,
1, ,-37, ,
2, ,-38, ,
1, ,-38, ,
2, ,-37, ,
2, ,-38, ,
2, ,-38, ,
1, ,-37, ,
2, ,-38, ,
2, ,-38, ,
2, ,-37, ,
2, ,-30, ,
2, ,-9, ,
2, ,7, ,
3, ,20, ,
2, ,28, ,
2, ,36, ,
2, ,41, ,
2, ,45, ,
1, ,47, ,
2, ,51, ,
1, ,51, ,
2, ,53, ,
2, ,54, ,
2, ,55, ,
1, ,55, ,
2, ,56, ,
1, ,55, ,
1, ,56, ,
2, ,56, ,
2, ,55, ,
1, ,56, ,
2, ,57, ,
2, ,55, ,
1, ,56, ,
2, ,56, ,
2, ,55, ,
1, ,56, ,
2, ,57, ,
1, ,55, ,
1, ,56, ,
2, ,56, ,
2, ,56, ,
1, ,56, ,
2, ,56, ,
1, ,55, ,
1, ,56, ,
2, ,56, ,
1, ,55, ,
1, ,56, ,
2, ,56, ,
1, ,55, ,
1, ,55, ,
2, ,56, ,
1, ,55, ,
1, ,55, ,
2, ,56, ,
1, ,55, ,
1, ,56, ,
2, ,56, ,
2, ,55, ,
1, ,56, ,
2, ,56, ,
2, ,55, ,
1, ,55, ,
2, ,57, ,
1, ,55, ,
1, ,55, ,
2, ,56, ,
2, ,55, ,
1, ,56, ,
2, ,56, ,
1, ,56, ,
1, ,56, ,
2, ,56, ,
1, ,55, ,
1, ,55, ,
2, ,56, ,
1, ,55, ,
1, ,55, ,
2, ,56, ,
1, ,55, ,
1, ,55, ,
2, ,56, ,
1, ,55, ,
1, ,55, ,
2, ,56, ,
1, ,55, ,
1, ,55, ,
2, ,56, ,
1, ,56, ,
1, ,55, ,
2, ,56, ,
1, ,55, ,
1, ,55, ,
2, ,56, ,
1, ,55, ,
1, ,56, ,
2, ,56, ,
1, ,55, ,
1, ,56, ,
2, ,55, ,
1, ,56, ,
1, ,55, ,
2, ,56, ,
1, ,55, ,
1, ,55, ,
2, ,55, ,
1, ,55, ,
1, ,55, ,
2, ,56, ,
1, ,55, ,
1, ,55, ,
2, ,56, ,
1, ,55, ,
1, ,55, ,
2, ,56, ,
1, ,55, ,
1, ,55, ,
2, ,55, ,
1, ,56, ,
1, ,55, ,
2, ,56, ,
1, ,55, ,
1, ,55, ,
2, ,56, ,
1, ,55, ,
1, ,55, ,
2, ,56, ,
2, ,55, ,
1, ,55, ,
2, ,56, ,
1, ,56, ,
1, ,55, ,
2, ,56, ,
1, ,55, ,
1, ,56, ,
2, ,56, ,
1, ,56, ,
1, ,55, ,
2, ,55, ,
1, ,55, ,
1, ,55, ,
2, ,55, ,
1, ,55, ,
1, ,56, ,
2, ,56, ,
1, ,54, ,
1, ,55, ,
2, ,56, ,
1, ,56, ,
1, ,55, ,
2, ,55, ,
1, ,55, ,
1, ,55, ,
2, ,56, ,
1, ,55, ,
1, ,55, ,
2, ,56, ,
1, ,55, ,
1, ,55, ,
2, ,55, ,
1, ,56, ,
1, ,55, ,
2, ,56, ,
1, ,53, ,
1, ,37, ,
2, ,18, ,
1, ,4, ,
1, ,-7, ,
2, ,-15, ,
1, ,-21, ,
1, ,-25, ,
2, ,-28, ,
1, ,-32, ,
-1, ,-33, ,
2, ,-35, ,
1, ,-36, ,
1, ,-36, ,
2, ,-37, ,
1, ,-37, ,
1, ,-38, ,
2, ,-38, ,
1, ,-38, ,
1, ,-38, ,
2, ,-38, ,
1, ,-38, ,
1, ,-38, ,
2, ,-39, ,
1, ,-38, ,
1, ,-38, ,
2, ,-38, ,
1, ,-38, ,
-1, ,-38, ,
2, ,-38, ,
1, ,-38, ,
1, ,-38, ,
2, ,-38, ,
1, ,-38, ,
-1, ,-38, ,
2, ,-38, ,
1, ,-38, ,
1, ,-38, ,
1, ,-38, ,
1, ,-38, ,
-1, ,-38, ,
2, ,-38, ,
1, ,-38, ,
1, ,-38, ,
2, ,-38, ,
2, ,-38, ,
-1, ,-38, ,
2, ,-38, ,
1, ,-37, ,
1, ,-38, ,
1, ,-38, ,
1, ,-38, ,
-1, ,-37, ,
2, ,-38, ,
1, ,-38, ,
1, ,-38, ,
1, ,-38, ,
2, ,-38, ,
-1, ,-38, ,
2, ,-38, ,
1, ,-37, ,
1, ,-38, ,
1, ,-38, ,
2, ,-38, ,
1, ,-38, ,
2, ,-38, ,
1, ,-38, ,
1, ,-38, ,
2, ,-38, ,
1, ,-38, ,
-1, ,-37, ,
2, ,-38, ,
1, ,-37, ,
1, ,-38, ,
2, ,-38, ,
1, ,-38, ,
1, ,-37, ,
2, ,-38, ,
1, ,-38, ,
1, ,-38, ,
2, ,-38, ,
1, ,-37, ,
-1, ,-38, ,
2, ,-38, ,
1, ,-37, ,
1, ,-37, ,
1, ,-38, ,
1, ,-38, ,
-1, ,-37, ,
2, ,-38, ,
1, ,-38, ,
1, ,-38, ,
2, ,-38, ,
2, ,-38, ,
-1, ,-38, ,
2, ,-38, ,
1, ,-37, ,
1, ,-38, ,
2, ,-38, ,
1, ,-38, ,
-1, ,-38, ,
2, ,-38, ,
1, ,-38, ,
1, ,-38, ,
2, ,-38, ,
1, ,-38, ,
-1, ,-38, ,
2, ,-38, ,
1, ,-37, ,
1, ,-38, ,
2, ,-38, ,
1, ,-38, ,
-1, ,-37, ,
2, ,-38, ,
1, ,-37, ,
1, ,-38, ,
2, ,-38, ,
1, ,-38, ,
-1, ,-37, ,
2, ,-38, ,
1, ,-38, ,
1, ,-37, ,
2, ,-37, ,
1, ,-37, ,
1, ,-37, ,
2, ,-38, ,
1, ,-37, ,
1, ,-38, ,
1, ,-38, ,
1, ,-37, ,
-1, ,-38, ,
2, ,-38, ,
1, ,-37, ,
1, ,-37, ,
1, ,-38, ,
1, ,-37, ,
-1, ,-37, ,
2, ,-38, ,
1, ,-37, ,
1, ,-38, ,
2, ,-38, ,
1, ,-37, ,
-1, ,-37, ,
2, ,-38, ,
1, ,-37, ,
1, ,-37, ,
1, ,-38, ,
1, ,-38, ,
-1, ,-37, ,
2, ,-38, ,
-1, ,-38, ,
1, ,-38, ,
1, ,-37, ,
2, ,-38, ,
-1, ,-38, ,
2, ,-38, ,
1, ,-38, ,
1, ,-37, ,
1, ,-38, ,
1, ,-38, ,
-1, ,-38, ,
1, ,-38, ,
-1, ,-38, ,
1, ,-38, ,
1, ,-38, ,
1, ,-38, ,
-1, ,-37, ,
2, ,-38, ,
1, ,-37, ,
1, ,-38, ,
2, ,-38, ,
2, ,-38, ,
-1, ,-38, ,
2, ,-38, ,
-1, ,-37, ,
1, ,-38, ,
1, ,-37, ,
1, ,-37, ,
-1, ,-38, ,
2, ,-38, ,
1, ,-38, ,
1, ,-37, ,
1, ,-38, ,
1, ,-37, ,
-1, ,-38, ,
2, ,-38, ,
1, ,-37, ,
1, ,-38, ,
1, ,-38, ,
1, ,-37, ,
-1, ,-38, ,
2, ,-38, ,
-1, ,-38, ,
1, ,-37, ,
1, ,-38, ,
1, ,-37, ,
-1, ,-38, ,
2, ,-38, ,
1, ,-38, ,
1, ,-37, ,
1, ,-37, ,
1, ,-37, ,
-1, ,-37, ,
2, ,-38, ,
1, ,-38, ,
1, ,-38, ,
1, ,-38, ,
1, ,-37, ,
-1, ,-38, ,
2, ,-38, ,
-1, ,-37, ,
1, ,-38, ,
2, ,-38, ,
2, ,-38, ,
-1, ,-38, ,
2, ,-38, ,
-1, ,-37, ,
1, ,-37, ,
2, ,-38, ,
1, ,-37, ,
-1, ,-38, ,
2, ,-38, ,
1, ,-37, ,
1, ,-38, ,
2, ,-38, ,
1, ,-37, ,
-1, ,-38, ,
2, ,-38, ,
1, ,-38, ,
1, ,-37, ,
1, ,-38, ,
1, ,-37, ,
-1, ,-37, ,
2, ,-38, ,
-1, ,-38, ,
1, ,-38, ,
2, ,-38, ,
1, ,-37, ,
-1, ,-38, ,
2, ,-38, ,
-1, ,-37, ,
-1, ,-37, ,
1, ,-38, ,
1, ,-38, ,
-1, ,-37, ,
2, ,-38, ,
-1, ,-38, ,
1, ,-37, ,
2, ,-38, ,
1, ,-37, ,
-1, ,-37, ,
2, ,-38, ,
1, ,-38, ,
1, ,-37, ,
1, ,-38, ,
1, ,-37, ,
-1, ,-37, ,
1, ,-38, ,
-1, ,-38, ,
1, ,-38, ,
2, ,-38, ,
1, ,-38, ,
-1, ,-37, ,
2, ,-38, ,
1, ,-38, ,
1, ,-38, ,
1, ,-38, ,
1, ,-37, ,
-1, ,-37, ,
1, ,-38, ,
-1, ,-38, ,
1, ,-38, ,
1, ,-38, ,
2, ,-38, ,
-1, ,-37, ,
2, ,-38, ,
1, ,-38, ,
1, ,-38, ,
1, ,-38, ,
1, ,-38, ,
-1, ,-38, ,
2, ,-38, ,
-1, ,-38, ,
1, ,-38, ,
1, ,-38, ,
1, ,-37, ,
-1, ,-37, ,
2, ,-38, ,
-1, ,-37, ,
1, ,-38, ,
1, ,-38, ,
1, ,-37, ,
-1, ,-37, ,
2, ,-38, ,
1, ,-37, ,
-1, ,-38, ,
1, ,-38, ,
1, ,-37, ,
-1, ,-37, ,
1, ,-38, ,
1, ,-38, ,
1, ,-38, ,
2, ,-38, ,
1, ,-37, ,
-1, ,-37, ,
1, ,-38, ,
-1, ,-37, ,
-1, ,-38, ,
1, ,-38, ,
1, ,-38, ,
-1, ,-38, ,
2, ,-38, ,
1, ,-38, ,
-1, ,-38, ,
1, ,-38, ,
1, ,-37, ,
-1, ,-37, ,
1, ,-38, ,
-1, ,-37, ,
1, ,-38, ,
1, ,-38, ,
1, ,-37, ,
-1, ,-38, ,
1, ,-38, ,
-1, ,-37, ,
-1, ,-38, ,
1, ,-38, ,
1, ,-37, ,
-1, ,-37, ,
1, ,-38, ,
-1, ,-38, ,
1, ,-37, ,
1, ,-38, ,
1, ,-38, ,
-1, ,-38, ,
2, ,-38, ,
-1, ,-37, ,
1, ,-38, ,
1, ,-38, ,
1, ,-38, ,
-1, ,-37, ,
2, ,-38, ,
-1, ,-38, ,
1, ,-38, ,
2, ,-38, ,
1, ,-37, ,
-1, ,-37, ,
2, ,-38, ,
-1, ,-37, ,
1, ,-38, ,
1, ,-38, ,
1, ,-38, ,
-1, ,-38, ,
1, ,-38, ,
-1, ,-38, ,
1, ,-38, ,
1, ,-37, ,
1, ,-37, ,
-1, ,-37, ,
2, ,-38, ,
-1, ,-37, ,
1, ,-37, ,
1, ,-38, ,
1, ,-37, ,
-1, ,-37, ,
2, ,-38, ,
-1, ,-37, ,
-1, ,-38, ,
1, ,-38, ,
2, ,-37, ,
-1, ,-37, ,
2, ,-38, ,
-1, ,-38, ,
1, ,-37, ,
1, ,-38, ,
1, ,-37, ,
-1, ,-38, ,
2, ,-38, ,
-1, ,-38, ,
1, ,-38, ,
1, ,-38, ,
1, ,-38, ,
-1, ,-38, ,
2, ,-38, ,
-1, ,-38, ,
1, ,-38, ,
1, ,-38, ,
1, ,-37, ,
-1, ,-37, ,
2, ,-38, ,
-1, ,-37, ,
1, ,-37, ,
1, ,-38, ,
1, ,-38, ,
-1, ,-38, ,
2, ,-38, ,
-1, ,-38, ,
-1, ,-38, ,
1, ,-38, ,
1, ,-37, ,
-1, ,-37, ,
1, ,-38, ,
-1, ,-38, ,
-1, ,-38, ,
1, ,-38, ,
1, ,-38, ,
-1, ,-37, ,
1, ,-38, ,
-1, ,-37, ,
1, ,-38, ,
1, ,-38, ,
1, ,-37, ,
-1, ,-37, ,
2, ,-38, ,
-1, ,-38, ,
1, ,-38, ,
1, ,-38, ,
1, ,-38, ,
-1, ,-38, ,
2, ,-38, ,
-1, ,-37, ,
-1, ,-37, ,
1, ,-38, ,
1, ,-38, ,
-1, ,-37, ,
1, ,-38, ,
-1, ,-38, ,
-1, ,-37, ,
1, ,-38, ,
1, ,-38, ,
-1, ,-37, ,
1, ,-38, ,
-1, ,-37, ,
-1, ,-37, ,
1, ,-38, ,
1, ,-37, ,
-1, ,-38, ,
2, ,-38, ,
-1, ,-38, ,
-1, ,-37, ,
1, ,-38, ,
1, ,-38, ,
-1, ,-37, ,
1, ,-38, ,
-1, ,-37, ,
-1, ,-38, ,
1, ,-37, ,
1, ,-38, ,
-1, ,-38, ,
1, ,-38, ,
-1, ,-38, ,
-1, ,-38, ,
1, ,-37, ,
1, ,-38, ,
-1, ,-37, ,
1, ,-38, ,
-1, ,-38, ,
-1, ,-38, ,
1, ,-38, ,
1, ,-38, ,
-1, ,-38, ,
1, ,-38, ,
-1, ,-38, ,
-1, ,-38, ,
1, ,-38, ,
1, ,-37, ,
-1, ,-38, ,
1, ,-38, ,
-1, ,-38, ,
-1, ,-37, ,
1, ,-38, ,
1, ,-38, ,
-1, ,-38, ,
1, ,-38, ,
-1, ,-37, ,
-1, ,-38, ,
1, ,-38, ,
1, ,-37, ,
-1, ,-38, ,
1, ,-38, ,
-1, ,-38, ,
-1, ,-38, ,
1, ,-38, ,
1, ,-37, ,
-1, ,-38, ,
1, ,-38, ,
-1, ,-38, ,
-1, ,-38, ,
1, ,-38, ,
1, ,-37, ,
-1, ,-37, ,
1, ,-38, ,
-1, ,-37, ,
1, ,-38, ,
1, ,-38, ,
1, ,-38, ,
-1, ,-38, ,
1, ,-38, ,
-1, ,-38, ,
-1, ,-38, ,
1, ,-38, ,
1, ,-38, ,
-1, ,-37, ,
1, ,-38, ,
-1, ,-38, ,
-1, ,-38, ,
1, ,-38, ,
1, ,-38, ,
-1, ,-37, ,
2, ,-38, ,
-1, ,-37, ,
1, ,-38, ,
1, ,-38, ,
1, ,-38, ,
-1, ,-38, ,
2, ,-38, ,
1, ,-38, ,
1, ,-38, ,
1, ,-38, ,
1, ,-38, ,
-1, ,-37, ,
1, ,-38, ,
-1, ,-37, ,
1, ,-38, ,
1, ,-38, ,
1, ,-37, ,
-1, ,-38, ,
1, ,-38, ,
1, ,-38, ,
1, ,-38, ,
1, ,-38, ,
1, ,-37, ,
-1, ,-37, ,
2, ,-38, ,
-1, ,-38, ,
1, ,-38, ,
1, ,-37, ,
1, ,-37, ,
-1, ,-37, ,
2, ,-38, ,
-1, ,-37, ,
-1, ,-38, ,
1, ,-38, ,
1, ,-37, ,
-1, ,-38, ,
1, ,-38, ,
-1, ,-38, ,
-1, ,-38, ,
1, ,-38, ,
1, ,-37, ,
-1, ,-37, ,
2, ,-38, ,
-1, ,-37, ,
-1, ,-38, ,
1, ,-38, ,
1, ,-38, ,
-1, ,-38, ,
1, ,-38, ,
-1, ,-38, ,
1, ,-38, ,
2, ,-38, ,
1, ,-38, ,
-1, ,-38, ,
1, ,-38, ,
-1, ,-37, ,
-1, ,-37, ,
1, ,-38, ,
1, ,-38, ,
-1, ,-37, ,
1, ,-38, ,
-1, ,-38, ,
1, ,-38, ,
1, ,-38, ,
1, ,-38, ,
-1, ,-38, ,
1, ,-38, ,
-1, ,-37, ,
-1, ,-38, ,
1, ,-38, ,
1, ,-37, ,
-1, ,-37, ,
1, ,-38, ,
-1, ,-38, ,
-1, ,-38, ,
1, ,-38, ,
1, ,-38, ,
-1, ,-38, ,
1, ,-38, ,
-1, ,-38, ,
-1, ,-38, ,
1, ,-38, ,
1, ,-38, ,
-1, ,-38, ,
1, ,-38, ,
-1, ,-38, ,
-1, ,-38, ,
1, ,-38, ,
1, ,-38, ,
-1, ,-38, ,
1, ,-38, ,
-1, ,-38, ,
-1, ,-38, ,
1, ,-38, ,
1, ,-38, ,
-1, ,-38, ,
1, ,-38, ,
-1, ,-37, ,
-1, ,-37, ,
1, ,-37, ,
1, ,-37, ,
-1, ,-38, ,
1, ,-38, ,
-1, ,-37, ,
-1, ,-37, ,
1, ,-38, ,
1, ,-38, ,
-1, ,-38, ,
1, ,-38, ,
-1, ,-38, ,
-1, ,-38, ,
1, ,-38, ,
1, ,-38, ,
-1, ,-37, ,
1, ,-38, ,
-1, ,-38, ,
-1, ,-38, ,
1, ,-38, ,
1, ,-33, ,
-1, ,-15, ,
2, ,3, ,
-1, ,17, ,
1, ,26, ,
1, ,34, ,
1, ,40, ,
-1, ,44, ,
1, ,47, ,
1, ,50, ,
-1, ,51, ,
1, ,53, ,
1, ,53, ,
-1, ,54, ,
2, ,56, ,
-1, ,54, ,
1, ,55, ,
1, ,57, ,
1, ,55, ,
-1, ,56, ,
1, ,56, ,
-1, ,55, ,
-1, ,56, ,
1, ,57, ,
1, ,56, ,
-1, ,56, ,
2, ,57, ,
-1, ,55, ,
-1, ,56, ,
1, ,56, ,
-1, ,56, ,
-1, ,56, ,
2, ,56, ,
-1, ,55, ,
-1, ,56, ,
1, ,56, ,
1, ,55, ,
-1, ,56, ,
1, ,56, ,
1, ,56, ,
-1, ,56, ,
1, ,57, ,
1, ,56, ,
-1, ,56, ,
1, ,56, ,
1, ,55, ,
-1, ,55, ,
1, ,56, ,
1, ,55, ,
-1, ,55, ,
1, ,56, ,
1, ,54, ,
-1, ,55, ,
1, ,56, ,
1, ,55, ,
-1, ,55, ,
1, ,56, ,
1, ,55, ,
-1, ,55, ,
1, ,56, ,
1, ,55, ,
-1, ,55, ,
1, ,56, ,
-1, ,55, ,
-1, ,55, ,
1, ,56, ,
1, ,55, ,
-1, ,55, ,
1, ,56, ,
-1, ,55, ,
-1, ,55, ,
1, ,56, ,
1, ,56, ,
-1, ,56, ,
1, ,56, ,
-1, ,55, ,
-1, ,55, ,
1, ,56, ,
1, ,55, ,
-1, ,55, ,
1, ,56, ,
-1, ,55, ,
-1, ,55, ,
1, ,55, ,
1, ,56, ,
-1, ,55, ,
1, ,56, ,
-1, ,55, ,
-1, ,55, ,
1, ,56, ,
1, ,55, ,
-1, ,55, ,
1, ,56, ,
-1, ,55, ,
-1, ,55, ,
1, ,56, ,
1, ,55, ,
-1, ,55, ,
1, ,56, ,
-1, ,55, ,
-1, ,55, ,
1, ,56, ,
1, ,54, ,
-1, ,55, ,
1, ,56, ,
-1, ,54, ,
-1, ,55, ,
1, ,56, ,
1, ,55, ,
-1, ,55, ,
1, ,56, ,
-1, ,55, ,
-1, ,55, ,
1, ,56, ,
1, ,56, ,
-1, ,55, ,
1, ,56, ,
-1, ,55, ,
-1, ,55, ,
1, ,56, ,
1, ,54, ,
-1, ,55, ,
1, ,56, ,
1, ,55, ,
-1, ,55, ,
1, ,56, ,
1, ,55, ,
-1, ,55, ,
1, ,56, ,
-1, ,55, ,
-1, ,55, ,
1, ,56, ,
1, ,55, ,
-1, ,55, ,
1, ,56, ,
-1, ,55, ,
-1, ,55, ,
2, ,56, ,
-1, ,56, ,
-1, ,55, ,
2, ,56, ,
1, ,55, ,
-1, ,55, ,
1, ,55, ,
1, ,54, ,
-1, ,55, ,
2, ,56, ,
-1, ,54, ,
-1, ,55, ,
1, ,56, ,
1, ,55, ,
-1, ,55, ,
1, ,56, ,
-1, ,55, ,
-1, ,55, ,
1, ,43, ,
-1, ,22, ,
-1, ,7, ,
1, ,-4, ,
-1, ,-13, ,
-1, ,-19, ,
1, ,-24, ,
1, ,-28, ,
-1, ,-31, ,
2, ,-34, ,
-1, ,-34, ,
-1, ,-35, ,
1, ,-37, ,
1, ,-37, ,
-1, ,-37, ,
1, ,-38, ,
-1, ,-38, ,
1, ,-38, ,
1, ,-38, ,
1, ,-38, ,
-1, ,-38, ,
1, ,-39, ,
-1, ,-38, ,
-1, ,-38, ,
1, ,-39, ,
1, ,-38, ,
-1, ,-38, ,
1, ,-39, ,
-1, ,-38, ,
-1, ,-38, ,
1, ,-38, ,
1, ,-38, ,
-1, ,-38, ,
1, ,-38, ,
-1, ,-38, ,
-1, ,-38, ,
1, ,-38, ,
1, ,-38, ,
-1, ,-38, ,
1, ,-38, ,
-1, ,-38, ,
-1, ,-38, ,
1, ,-38, ,
1, ,-38, ,
-1, ,-38, ,
1, ,-38, ,
-1, ,-37, ,
1, ,-38, ,
1, ,-38, ,
1, ,-38, ,
-1, ,-38, ,
1, ,-38, ,
-1, ,-38, ,
-1, ,-38, ,
1, ,-38, ,
1, ,-38, ,
-1, ,-38, ,
1, ,-38, ,
-1, ,-38, ,
-1, ,-38, ,
1, ,-38, ,
1, ,-38, ,
-1, ,-37, ,
1, ,-38, ,
-1, ,-38, ,
-1, ,-38, ,
1, ,-38, ,
1, ,-38, ,
-1, ,-38, ,
1, ,-38, ,
-1, ,-38, ,
-1, ,-38, ,
1, ,-38, ,
1, ,-38, ,
-1, ,-38, ,
1, ,-38, ,
-1, ,-38, ,
-1, ,-38, ,
1, ,-38, ,
1, ,-38, ,
-1, ,-37, ,
2, ,-38, ,
-1, ,-37, ,
-1, ,-38, ,
1, ,-38, ,
1, ,-37, ,
-1, ,-38, ,
1, ,-38, ,
-1, ,-38, ,
-1, ,-38, ,
1, ,-38, ,
1, ,-38, ,
-1, ,-37, ,
1, ,-38, ,
-1, ,-38, ,
-1, ,-38, ,
1, ,-38, ,
1, ,-38, ,
-1, ,-37, ,
1, ,-38, ,
-1, ,-37, ,
-1, ,-38, ,
1, ,-38, ,
1, ,-38, ,
-1, ,-38, ,
1, ,-38, ,
-1, ,-38, ,
-1, ,-38, ,
1, ,-38, ,
1, ,-38, ,
-1, ,-38, ,
1, ,-38, ,
-1, ,-38, ,
-1, ,-37, ,
1, ,-38, ,
1, ,-38, ,
-1, ,-37, ,
1, ,-38, ,
-1, ,-38, ,
-1, ,-38, ,
1, ,-38, ,
1, ,-37, ,
-1, ,-37, ,
1, ,-38, ,
-1, ,-37, ,
-1, ,-37, ,
1, ,-38, ,
1, ,-38, ,
-1, ,-37, ,
1, ,-38, ,
-1, ,-38, ,
-1, ,-38, ,
1, ,-38, ,
1, ,-37, ,
-1, ,-38, ,
1, ,-38, ,
-1, ,-37, ,
-1, ,-37, ,
1, ,-37, ,
1, ,-38, ,
-1, ,-37, ,
1, ,-38, ,
-1, ,-37, ,
-1, ,-38, ,
1, ,-38, ,
1, ,-38, ,
-1, ,-37, ,
1, ,-38, ,
-1, ,-37, ,
-1, ,-38, ,
1, ,-38, ,
1, ,-38, ,
-1, ,-38, ,
1, ,-38, ,
-1, ,-37, ,
-1, ,-37, ,
1, ,-38, ,
1, ,-38, ,
-1, ,-38, ,
1, ,-38, ,
-1, ,-37, ,
-1, ,-38, ,
1, ,-38, ,
1, ,-38, ,
-1, ,-38, ,
1, ,-38, ,
-1, ,-37, ,
-1, ,-37, ,
1, ,-38, ,
1, ,-37, ,
-1, ,-37, ,
1, ,-38, ,
-1, ,-37, ,
-1, ,-38, ,
1, ,-38, ,
1, ,-38, ,
-1, ,-38, ,
1, ,-38, ,
-1, ,-37, ,
-1, ,-37, ,
1, ,-38, ,
1, ,-37, ,
-1, ,-38, ,
1, ,-38, ,
-1, ,-37, ,
-1, ,-37, ,
1, ,-38, ,
1, ,-37, ,
-1, ,-37, ,
1, ,-38, ,
-1, ,-37, ,
-1, ,-38, ,
1, ,-38, ,
1, ,-37, ,
-1, ,-37, ,
1, ,-38, ,
-1, ,-38, ,
-1, ,-37, ,
1, ,-38, ,
1, ,-38, ,
-1, ,-38, ,
2, ,-38, ,
-1, ,-37, ,
-1, ,-38, ,
1, ,-38, ,
1, ,-38, ,
-1, ,-37, ,
1, ,-38, ,
-1, ,-37, ,
-1, ,-37, ,
1, ,-38, ,
1, ,-37, ,
-1, ,-37, ,
1, ,-38, ,
-1, ,-37, ,
-1, ,-37, ,
1, ,-38, ,
1, ,-38, ,
-1, ,-37, ,
1, ,-38, ,
-1, ,-37, ,
1, ,-38, ,
1, ,-38, ,
1, ,-38, ,
-1, ,-37, ,
1, ,-38, ,
-1, ,-37, ,
-1, ,-37, ,
1, ,-38, ,
1, ,-38, ,
-1, ,-38, ,
1, ,-38, ,
-1, ,-37, ,
1, ,-38, ,
1, ,-38, ,
1, ,-37, ,
-1, ,-37, ,
1, ,-38, ,
-1, ,-37, ,
-1, ,-37, ,
1, ,-38, ,
1, ,-38, ,
-1, ,-37, ,
1, ,-38, ,
-1, ,-37, ,
-1, ,-38, ,
1, ,-38, ,
1, ,-38, ,
-1, ,-37, ,
1, ,-38, ,
-1, ,-37, ,
-1, ,-37, ,
1, ,-38, ,
1, ,-37, ,
-1, ,-37, ,
1, ,-38, ,
-1, ,-38, ,
-1, ,-38, ,
1, ,-38, ,
1, ,-38, ,
-1, ,-38, ,
1, ,-38, ,
-1, ,-37, ,
-1, ,-38, ,
1, ,-38, ,
1, ,-37, ,
-1, ,-37, ,
1, ,-38, ,
-1, ,-38, ,
-1, ,-38, ,
1, ,-38, ,
1, ,-37, ,
-1, ,-38, ,
1, ,-38, ,
-1, ,-37, ,
-1, ,-38, ,
1, ,-38, ,
1, ,-37, ,
-1, ,-38, ,
1, ,-38, ,
-1, ,-38, ,
-1, ,-38, ,
1, ,-38, ,
1, ,-38, ,
-1, ,-37, ,
1, ,-38, ,
-1, ,-37, ,
-1, ,-38, ,
1, ,-38, ,
1, ,-38, ,
-1, ,-38, ,
1, ,-38, ,
-1, ,-38, ,
-1, ,-38, ,
1, ,-38, ,
1, ,-38, ,
-1, ,-38, ,
1, ,-38, ,
-1, ,-37, ,
-1, ,-37, ,
1, ,-38, ,
1, ,-38, ,
-1, ,-37, ,
1, ,-38, ,
-1, ,-37, ,
-1, ,-38, ,
1, ,-38, ,
1, ,-38, ,
-1, ,-38, ,
1, ,-38, ,
-1, ,-37, ,
-1, ,-37, ,
1, ,-38, ,
1, ,-38, ,
-1, ,-37, ,
1, ,-38, ,
-1, ,-37, ,
-1, ,-38, ,
1, ,-38, ,
1, ,-38, ,
-1, ,-37, ,
1, ,-38, ,
-1, ,-37, ,
-1, ,-38, ,
1, ,-38, ,
1, ,-38, ,
-1, ,-38, ,
1, ,-38, ,
-1, ,-38, ,
-1, ,-37, ,
1, ,-38, ,
1, ,-38, ,
-1, ,-37, ,
1, ,-38, ,
-1, ,-37, ,
-1, ,-38, ,
1, ,-38, ,
1, ,-38, ,
-1, ,-37, ,
1, ,-38, ,
-1, ,-37, ,
-1, ,-38, ,
1, ,-38, ,
1, ,-38, ,
-1, ,-37, ,
1, ,-38, ,
-1, ,-37, ,
-1, ,-38, ,
1, ,-38, ,
1, ,-38, ,
-1, ,-38, ,
1, ,-38, ,
-1, ,-38, ,
-1, ,-37, ,
1, ,-38, ,
1, ,-38, ,
-1, ,-37, ,
2, ,-38, ,
96, ,-37, ,
58, ,-38, ,
36, ,-38, ,
24, ,-38, ,
13, ,-38, ,
12, ,-38, ,
7, ,-37, ,
6, ,-38, ,
5, ,-38, ,
3, ,-38, ,
2, ,-38, ,
3, ,-38, ,
2, ,-37, ,
2, ,-37, ,
2, ,-38, ,
2, ,-38, ,
2, ,-38, ,
3, ,-38, ,
2, ,-38, ,
2, ,-38, ,
3, ,-38, ,
2, ,-38, ,
2, ,-38, ,
3, ,-38, ,
2, ,-38, ,
2, ,-38, ,
2, ,-38, ,
3, ,-37, ,
2, ,-38, ,
3, ,-38, ,
2, ,-38, ,
2, ,-38, ,
3, ,-38, ,
2, ,-38, ,
1, ,-38, ,
3, ,-38, ,
2, ,-37, ,
2, ,-37, ,
3, ,-38, ,
2, ,-38, ,
1, ,-37, ,
3, ,-38, ,
2, ,-38, ,
2, ,-38, ,
3, ,-37, ,
3, ,-37, ,
2, ,-38, ,
3, ,-38, ,
1, ,-37, ,
1, ,-37, ,
2, ,-38, ,
2, ,-38, ,
1, ,-37, ,
3, ,-38, ,
2, ,-38, ,
2, ,-38, ,
2, ,-38, ,
2, ,-38, ,
1, ,-37, ,
3, ,-38, ,
2, ,-38, ,
1, ,-38, ,
2, ,-38, ,
2, ,-37, ,
1, ,-38, ,
3, ,-38, ,
2, ,-38, ,
2, ,-38, ,
2, ,-38, ,
2, ,-37, ,
1, ,-37, ,
3, ,-38, ,
2, ,-37, ,
2, ,-38, ,
2, ,-38, ,
2, ,-38, ,
1, ,-37, ,
3, ,-38, ,
1, ,-38, ,
2, ,-38, ,
2, ,-38, ,
2, ,-37, ,
1, ,-37, ,
3, ,-38, ,
2, ,-37, ,
2, ,-37, ,
2, ,-38, ,
2, ,-38, ,
1, ,-37, ,
3, ,-38, ,
1, ,-37, ,
2, ,-38, ,
2, ,-38, ,
2, ,-38, ,
1, ,-37, ,
3, ,-38, ,
2, ,-37, ,
2, ,-38, ,
2, ,-38, ,
2, ,-37, ,
1, ,-37, ,
2, ,-38, ,
1, ,-38, ,
2, ,-37, ,
2, ,-37, ,
3, ,-38, ,
2, ,-38, ,
3, ,-38, ,
1, ,-37, ,
