src/varyamp_1560/temp0002046.CSV

Format,1.0B,
Memory Length,10000,Memory Length,10000,
IntpDistance,0,IntpDistance,0,
Trigger Address,4999,Trigger Address,4999,
Trigger Level,1.040E+00,Trigger Level,1.040E+00,
Source,CH1,Source,CH2,
Vertical Units,V,Vertical Units,V,
Vertical Units Div,0,Vertical Units Div,0,
Vertical Units Extend Div,16,Vertical Units Extend Div,16,
Label,,Label,,
Probe Type,0,Probe Type,0,
Probe Ratio,1.000e+01,Probe Ratio,1.000e+00,
Vertical Scale,5.000e-01,Vertical Scale,1.000e+00,
Vertical Position,-1.820e+00,Vertical Position,0.000e+00,
Horizontal Units,S,Horizontal Units,S,
Horizontal Scale,2.000E-05,Horizontal Scale,2.000E-05,
Horizontal Position,0.000E+00,Horizontal Position,0.000E+00,
Horizontal Mode,Main,Horizontal Mode,Main,
SincET Mode,Real Time,SincET Mode,Real Time,
Sampling Period,2.000e-08,Sampling Period,2.000e-08,
Horizontal Old Scale,2.000E-05,Horizontal Old Scale,2.000E-05,
Horizontal Old Position,0.000E+00,Horizontal Old Position,0.000E+00,
Firmware,V1.23,Firmware,V1.23,
Mode,Fast,Mode,Fast,
Waveform Data,,Waveform Data,,
-1, ,-52, ,
1, ,-52, ,
1, ,-52, ,
-1, ,-52, ,
1, ,-53, ,
-1, ,-51, ,
-1, ,-52, ,
1, ,-52, ,
1, ,-52, ,
-1, ,-52, ,
1, ,-53, ,
-1, ,-52, ,
-1, ,-52, ,
1, ,-52, ,
1, ,-52, ,
-1, ,-52, ,
1, ,-52, ,
-1, ,-51, ,
-1, ,-52, ,
1, ,-52, ,
1, ,-52, ,
-1, ,-51, ,
1, ,-52, ,
-1, ,-52, ,
-1, ,-52, ,
1, ,-52, ,
1, ,-52, ,
-1, ,-52, ,
1, ,-53, ,
-1, ,-51, ,
-1, ,-52, ,
1, ,-52, ,
1, ,-52, ,
-1, ,-52, ,
1, ,-53, ,
-1, ,-51, ,
1, ,-52, ,
1, ,-52, ,
1, ,-52, ,
-1, ,-52, ,
1, ,-52, ,
-1, ,-51, ,
-1, ,-52, ,
1, ,-52, ,
1, ,-52, ,
-1, ,-51, ,
2, ,-53, ,
-1, ,-51, ,
1, ,-52, ,
1, ,-52, ,
1, ,-52, ,
-1, ,-52, ,
2, ,-53, ,
-1, ,-51, ,
-1, ,-52, ,
1, ,-52, ,
1, ,-52, ,
-1, ,-51, ,
1, ,-52, ,
-1, ,-52, ,
-1, ,-52, ,
1, ,-52, ,
1, ,-52, ,
-1, ,-52, ,
1, ,-53, ,
-1, ,-51, ,
-1, ,-52, ,
1, ,-52, ,
1, ,-52, ,
-1, ,-51, ,
1, ,-53, ,
-1, ,-52, ,
-1, ,-52, ,
1, ,-52, ,
1, ,-52, ,
-1, ,-52, ,
1, ,-53, ,
-1, ,-51, ,
-1, ,-52, ,
1, ,-52, ,
1, ,-52, ,
-1, ,-51, ,
1, ,-53, ,
-1, ,-52, ,
-1, ,-52, ,
1, ,-52, ,
1, ,-52, ,
-1, ,-52, ,
2, ,-53, ,
-1, ,-51, ,
-1, ,-52, ,
1, ,-52, ,
1, ,-52, ,
-1, ,-52, ,
1, ,-53, ,
-1, ,-51, ,
-1, ,-52, ,
1, ,-52, ,
1, ,-52, ,
-1, ,-52, ,
2, ,-53, ,
-1, ,-51, ,
-1, ,-52, ,
1, ,-53, ,
1, ,-52, ,
-1, ,-52, ,
1, ,-53, ,
-1, ,-52, ,
-1, ,-52, ,
1, ,-52, ,
1, ,-52, ,
-1, ,-52, ,
1, ,-53, ,
-1, ,-51, ,
-1, ,-52, ,
1, ,-52, ,
1, ,-52, ,
-1, ,-51, ,
1, ,-53, ,
-1, ,-52, ,
-1, ,-52, ,
1, ,-52, ,
1, ,-52, ,
-1, ,-52, ,
1, ,-52, ,
-1, ,-51, ,
-1, ,-52, ,
1, ,-52, ,
1, ,-52, ,
-1, ,-52, ,
1, ,-52, ,
-1, ,-52, ,
-1, ,-52, ,
1, ,-52, ,
1, ,-52, ,
-1, ,-52, ,
1, ,-53, ,
-1, ,-51, ,
-1, ,-52, ,
1, ,-52, ,
1, ,-52, ,
-1, ,-52, ,
1, ,-53, ,
-1, ,-52, ,
-1, ,-52, ,
2, ,-52, ,
1, ,-52, ,
-1, ,-52, ,
1, ,-53, ,
-1, ,-51, ,
-1, ,-52, ,
1, ,-52, ,
1, ,-52, ,
-1, ,-51, ,
1, ,-52, ,
-1, ,-52, ,
1, ,-52, ,
1, ,-52, ,
1, ,-52, ,
-1, ,-52, ,
2, ,-53, ,
-1, ,-51, ,
-1, ,-52, ,
1, ,-53, ,
1, ,-52, ,
-1, ,-52, ,
1, ,-53, ,
-1, ,-52, ,
-1, ,-52, ,
1, ,-53, ,
1, ,-52, ,
-1, ,-52, ,
1, ,-53, ,
-1, ,-51, ,
-1, ,-52, ,
1, ,-52, ,
1, ,-52, ,
-1, ,-52, ,
1, ,-53, ,
-1, ,-52, ,
-1, ,-52, ,
1, ,-52, ,
1, ,-52, ,
-1, ,-52, ,
2, ,-53, ,
-1, ,-51, ,
-1, ,-52, ,
1, ,-52, ,
1, ,-52, ,
-1, ,-51, ,
1, ,-52, ,
-1, ,-52, ,
-1, ,-52, ,
1, ,-52, ,
1, ,-52, ,
-1, ,-52, ,
1, ,-53, ,
-1, ,-51, ,
1, ,-52, ,
1, ,-53, ,
1, ,-52, ,
-1, ,-52, ,
1, ,-53, ,
-1, ,-52, ,
-1, ,-53, ,
1, ,-52, ,
1, ,-52, ,
-1, ,-52, ,
1, ,-53, ,
-1, ,-51, ,
-1, ,-52, ,
1, ,-53, ,
1, ,-52, ,
-1, ,-51, ,
1, ,-52, ,
-1, ,-52, ,
-1, ,-52, ,
1, ,-52, ,
1, ,-52, ,
-1, ,-52, ,
1, ,-53, ,
-1, ,-51, ,
-1, ,-52, ,
1, ,-52, ,
1, ,-52, ,
-1, ,-52, ,
1, ,-53, ,
-1, ,-52, ,
-1, ,-52, ,
1, ,-52, ,
1, ,-52, ,
-1, ,-52, ,
1, ,-53, ,
-1, ,-51, ,
-1, ,-52, ,
1, ,-53, ,
1, ,-52, ,
-1, ,-51, ,
1, ,-53, ,
-1, ,-52, ,
-1, ,-52, ,
1, ,-52, ,
1, ,-52, ,
-1, ,-52, ,
1, ,-53, ,
-1, ,-51, ,
-1, ,-52, ,
1, ,-52, ,
1, ,-52, ,
-1, ,-51, ,
1, ,-52, ,
-1, ,-52, ,
-1, ,-52, ,
1, ,-52, ,
1, ,-52, ,
-1, ,-52, ,
1, ,-53, ,
-1, ,-51, ,
-1, ,-52, ,
1, ,-53, ,
1, ,-52, ,
-1, ,-52, ,
1, ,-52, ,
-1, ,-52, ,
-1, ,-53, ,
1, ,-52, ,
1, ,-52, ,
-1, ,-52, ,
1, ,-53, ,
-1, ,-51, ,
-1, ,-52, ,
1, ,-52, ,
1, ,-52, ,
-1, ,-51, ,
1, ,-53, ,
-1, ,-52, ,
-1, ,-52, ,
1, ,-52, ,
1, ,-52, ,
-1, ,-52, ,
1, ,-53, ,
-1, ,-51, ,
-1, ,-52, ,
1, ,-53, ,
1, ,-52, ,
-1, ,-52, ,
1, ,-53, ,
-1, ,-51, ,
-1, ,-52, ,
1, ,-53, ,
1, ,-52, ,
-1, ,-52, ,
1, ,-53, ,
95, ,-51, ,
58, ,-52, ,
36, ,-53, ,
24, ,-52, ,
13, ,-52, ,
11, ,-53, ,
7, ,-52, ,
5, ,-53, ,
5, ,-52, ,
5, ,-52, ,
3, ,-52, ,
5, ,-53, ,
3, ,-49, ,
3, ,-33, ,
5, ,-14, ,
3, ,1, ,
2, ,11, ,
5, ,19, ,
2, ,24, ,
3, ,30, ,
3, ,33, ,
3, ,36, ,
2, ,37, ,
3, ,39, ,
2, ,39, ,
2, ,40, ,
3, ,41, ,
2, ,41, ,
2, ,41, ,
3, ,42, ,
2, ,41, ,
2, ,42, ,
3, ,42, ,
3, ,42, ,
2, ,42, ,
3, ,42, ,
2, ,41, ,
2, ,42, ,
3, ,42, ,
2, ,41, ,
1, ,42, ,
3, ,42, ,
2, ,41, ,
2, ,42, ,
3, ,42, ,
2, ,42, ,
1, ,42, ,
3, ,42, ,
2, ,41, ,
2, ,41, ,
3, ,42, ,
3, ,41, ,
2, ,42, ,
3, ,42, ,
2, ,41, ,
2, ,41, ,
3, ,41, ,
2, ,42, ,
1, ,41, ,
3, ,42, ,
2, ,41, ,
2, ,41, ,
3, ,42, ,
2, ,41, ,
2, ,41, ,
2, ,42, ,
2, ,41, ,
2, ,41, ,
3, ,42, ,
2, ,42, ,
1, ,41, ,
3, ,42, ,
2, ,41, ,
2, ,41, ,
3, ,42, ,
2, ,41, ,
1, ,41, ,
3, ,42, ,
2, ,41, ,
1, ,41, ,
2, ,42, ,
2, ,42, ,
1, ,41, ,
2, ,42, ,
2, ,41, ,
2, ,41, ,
2, ,41, ,
2, ,41, ,
1, ,41, ,
3, ,42, ,
2, ,41, ,
1, ,41, ,
2, ,42, ,
2, ,42, ,
1, ,41, ,
2, ,42, ,
1, ,41, ,
2, ,41, ,
3, ,41, ,
2, ,41, ,
1, ,41, ,
2, ,42, ,
1, ,40, ,
2, ,41, ,
2, ,41, ,
2, ,42, ,
1, ,41, ,
2, ,42, ,
2, ,41, ,
2, ,41, ,
2, ,41, ,
2, ,41, ,
1, ,41, ,
2, ,42, ,
2, ,41, ,
1, ,41, ,
2, ,42, ,
2, ,41, ,
1, ,41, ,
2, ,42, ,
2, ,41, ,
1, ,41, ,
2, ,41, ,
2, ,41, ,
1, ,41, ,
2, ,41, ,
2, ,41, ,
2, ,41, ,
2, ,41, ,
2, ,41, ,
1, ,41, ,
2, ,41, ,
1, ,41, ,
2, ,41, ,
2, ,41, ,
2, ,41, ,
1, ,41, ,
2, ,42, ,
2, ,40, ,
2, ,41, ,
2, ,42, ,
2, ,41, ,
1, ,41, ,
2, ,41, ,
2, ,41, ,
2, ,41, ,
2, ,41, ,
2, ,41, ,
1, ,41, ,
2, ,42, ,
1, ,41, ,
1, ,41, ,
2, ,41, ,
2, ,41, ,
1, ,41, ,
2, ,42, ,
1, ,41, ,
2, ,41, ,
2, ,42, ,
2, ,41, ,
1, ,41, ,
2, ,41, ,
1, ,40, ,
2, ,41, ,
2, ,41, ,
2, ,41, ,
1, ,41, ,
2, ,30, ,
1, ,9, ,
1, ,-6, ,
2, ,-18, ,
2, ,-27, ,
1, ,-33, ,
2, ,-39, ,
1, ,-42, ,
1, ,-44, ,
2, ,-47, ,
2, ,-49, ,
1, ,-50, ,
2, ,-51, ,
1, ,-50, ,
1, ,-52, ,
2, ,-53, ,
2, ,-52, ,
1, ,-52, ,
2, ,-53, ,
1, ,-52, ,
2, ,-53, ,
2, ,-53, ,
2, ,-53, ,
1, ,-53, ,
2, ,-53, ,
1, ,-52, ,
2, ,-53, ,
2, ,-53, ,
2, ,-53, ,
1, ,-52, ,
2, ,-53, ,
1, ,-52, ,
1, ,-52, ,
2, ,-52, ,
2, ,-53, ,
1, ,-52, ,
2, ,-53, ,
1, ,-52, ,
2, ,-53, ,
2, ,-53, ,
2, ,-52, ,
1, ,-52, ,
2, ,-53, ,
1, ,-52, ,
1, ,-52, ,
2, ,-52, ,
2, ,-52, ,
1, ,-52, ,
2, ,-53, ,
1, ,-51, ,
2, ,-52, ,
2, ,-53, ,
2, ,-52, ,
1, ,-52, ,
2, ,-53, ,
1, ,-52, ,
2, ,-52, ,
2, ,-52, ,
2, ,-53, ,
1, ,-52, ,
2, ,-53, ,
1, ,-51, ,
1, ,-52, ,
2, ,-52, ,
2, ,-52, ,
1, ,-52, ,
2, ,-53, ,
1, ,-52, ,
1, ,-52, ,
2, ,-53, ,
2, ,-52, ,
1, ,-52, ,
2, ,-53, ,
1, ,-51, ,
2, ,-52, ,
2, ,-53, ,
2, ,-52, ,
1, ,-52, ,
2, ,-52, ,
1, ,-51, ,
1, ,-52, ,
2, ,-52, ,
2, ,-52, ,
1, ,-52, ,
2, ,-53, ,
1, ,-51, ,
2, ,-52, ,
2, ,-53, ,
2, ,-52, ,
1, ,-52, ,
2, ,-53, ,
1, ,-52, ,
1, ,-52, ,
2, ,-52, ,
2, ,-52, ,
1, ,-52, ,
2, ,-53, ,
1, ,-51, ,
2, ,-52, ,
2, ,-53, ,
2, ,-52, ,
1, ,-52, ,
2, ,-52, ,
1, ,-51, ,
2, ,-52, ,
2, ,-52, ,
2, ,-52, ,
1, ,-52, ,
2, ,-53, ,
1, ,-51, ,
1, ,-52, ,
2, ,-52, ,
2, ,-52, ,
1, ,-51, ,
2, ,-53, ,
1, ,-52, ,
1, ,-52, ,
2, ,-53, ,
2, ,-52, ,
1, ,-52, ,
2, ,-53, ,
1, ,-51, ,
1, ,-52, ,
2, ,-53, ,
2, ,-52, ,
1, ,-52, ,
2, ,-53, ,
1, ,-51, ,
1, ,-52, ,
2, ,-52, ,
2, ,-52, ,
1, ,-52, ,
2, ,-53, ,
1, ,-51, ,
1, ,-52, ,
2, ,-53, ,
2, ,-52, ,
1, ,-51, ,
2, ,-52, ,
1, ,-52, ,
1, ,-52, ,
2, ,-52, ,
2, ,-52, ,
-1, ,-52, ,
2, ,-53, ,
1, ,-51, ,
1, ,-52, ,
2, ,-52, ,
1, ,-52, ,
1, ,-52, ,
2, ,-52, ,
1, ,-52, ,
1, ,-52, ,
2, ,-52, ,
1, ,-52, ,
-1, ,-52, ,
2, ,-53, ,
1, ,-51, ,
1, ,-52, ,
2, ,-53, ,
2, ,-52, ,
-1, ,-52, ,
2, ,-52, ,
1, ,-51, ,
1, ,-52, ,
2, ,-52, ,
2, ,-52, ,
1, ,-52, ,
2, ,-53, ,
1, ,-51, ,
1, ,-52, ,
2, ,-53, ,
1, ,-52, ,
-1, ,-52, ,
2, ,-53, ,
1, ,-52, ,
1, ,-52, ,
2, ,-52, ,
1, ,-52, ,
-1, ,-52, ,
2, ,-53, ,
1, ,-51, ,
1, ,-52, ,
1, ,-53, ,
1, ,-52, ,
-1, ,-52, ,
2, ,-53, ,
1, ,-52, ,
1, ,-52, ,
2, ,-52, ,
1, ,-52, ,
-1, ,-52, ,
2, ,-53, ,
1, ,-51, ,
1, ,-52, ,
2, ,-52, ,
1, ,-52, ,
-1, ,-51, ,
2, ,-52, ,
1, ,-51, ,
1, ,-52, ,
1, ,-52, ,
1, ,-52, ,
-1, ,-52, ,
2, ,-53, ,
1, ,-51, ,
1, ,-52, ,
1, ,-52, ,
2, ,-52, ,
-1, ,-51, ,
2, ,-53, ,
1, ,-52, ,
1, ,-52, ,
2, ,-53, ,
1, ,-52, ,
-1, ,-52, ,
2, ,-53, ,
1, ,-51, ,
1, ,-52, ,
1, ,-52, ,
1, ,-52, ,
-1, ,-51, ,
2, ,-53, ,
1, ,-51, ,
1, ,-52, ,
1, ,-52, ,
1, ,-52, ,
-1, ,-52, ,
2, ,-53, ,
1, ,-51, ,
1, ,-52, ,
2, ,-53, ,
1, ,-52, ,
-1, ,-52, ,
2, ,-52, ,
1, ,-52, ,
1, ,-52, ,
2, ,-52, ,
2, ,-52, ,
-1, ,-52, ,
2, ,-53, ,
1, ,-51, ,
1, ,-52, ,
1, ,-52, ,
1, ,-52, ,
-1, ,-51, ,
2, ,-52, ,
1, ,-52, ,
1, ,-52, ,
1, ,-52, ,
1, ,-52, ,
-1, ,-52, ,
2, ,-53, ,
1, ,-51, ,
1, ,-52, ,
2, ,-52, ,
2, ,-52, ,
-1, ,-51, ,
2, ,-53, ,
1, ,-52, ,
1, ,-52, ,
2, ,-52, ,
1, ,-52, ,
1, ,-52, ,
2, ,-53, ,
1, ,-51, ,
1, ,-52, ,
2, ,-52, ,
1, ,-52, ,
-1, ,-51, ,
2, ,-52, ,
1, ,-51, ,
1, ,-52, ,
2, ,-52, ,
1, ,-52, ,
-1, ,-52, ,
2, ,-53, ,
1, ,-51, ,
1, ,-52, ,
1, ,-52, ,
1, ,-52, ,
-1, ,-51, ,
2, ,-52, ,
1, ,-52, ,
1, ,-52, ,
2, ,-53, ,
1, ,-52, ,
-1, ,-52, ,
2, ,-53, ,
1, ,-51, ,
1, ,-52, ,
1, ,-52, ,
1, ,-52, ,
-1, ,-52, ,
2, ,-53, ,
-1, ,-51, ,
1, ,-52, ,
1, ,-52, ,
1, ,-52, ,
-1, ,-52, ,
2, ,-53, ,
1, ,-52, ,
1, ,-52, ,
1, ,-52, ,
1, ,-52, ,
-1, ,-51, ,
2, ,-53, ,
1, ,-52, ,
1, ,-52, ,
1, ,-52, ,
1, ,-52, ,
-1, ,-52, ,
2, ,-53, ,
1, ,-51, ,
1, ,-52, ,
1, ,-53, ,
1, ,-52, ,
-1, ,-52, ,
2, ,-53, ,
-1, ,-52, ,
1, ,-52, ,
1, ,-52, ,
1, ,-52, ,
-1, ,-52, ,
1, ,-53, ,
-1, ,-51, ,
1, ,-52, ,
1, ,-52, ,
1, ,-52, ,
-1, ,-52, ,
2, ,-52, ,
1, ,-52, ,
1, ,-52, ,
1, ,-52, ,
1, ,-52, ,
-1, ,-52, ,
2, ,-53, ,
-1, ,-51, ,
1, ,-52, ,
1, ,-52, ,
1, ,-52, ,
-1, ,-51, ,
2, ,-53, ,
-1, ,-52, ,
1, ,-52, ,
2, ,-52, ,
1, ,-52, ,
-1, ,-52, ,
2, ,-53, ,
1, ,-51, ,
1, ,-52, ,
1, ,-53, ,
1, ,-52, ,
-1, ,-52, ,
2, ,-53, ,
1, ,-51, ,
1, ,-52, ,
1, ,-52, ,
2, ,-52, ,
-1, ,-52, ,
2, ,-53, ,
1, ,-51, ,
1, ,-52, ,
1, ,-53, ,
1, ,-52, ,
-1, ,-52, ,
2, ,-53, ,
1, ,-51, ,
1, ,-52, ,
1, ,-52, ,
1, ,-52, ,
-1, ,-52, ,
2, ,-53, ,
1, ,-51, ,
1, ,-52, ,
1, ,-52, ,
1, ,-52, ,
-1, ,-51, ,
2, ,-52, ,
1, ,-51, ,
1, ,-52, ,
1, ,-52, ,
1, ,-52, ,
-1, ,-52, ,
2, ,-53, ,
1, ,-51, ,
1, ,-52, ,
1, ,-52, ,
1, ,-52, ,
-1, ,-52, ,
2, ,-53, ,
1, ,-52, ,
1, ,-52, ,
1, ,-52, ,
1, ,-52, ,
-1, ,-52, ,
2, ,-53, ,
1, ,-51, ,
1, ,-52, ,
1, ,-52, ,
1, ,-52, ,
-1, ,-52, ,
1, ,-52, ,
-1, ,-51, ,
1, ,-52, ,
2, ,-52, ,
1, ,-52, ,
-1, ,-52, ,
2, ,-53, ,
1, ,-51, ,
1, ,-52, ,
1, ,-52, ,
1, ,-52, ,
-1, ,-52, ,
2, ,-52, ,
1, ,-51, ,
1, ,-52, ,
1, ,-52, ,
1, ,-52, ,
-1, ,-52, ,
2, ,-53, ,
1, ,-51, ,
1, ,-52, ,
1, ,-52, ,
1, ,-52, ,
-1, ,-51, ,
1, ,-53, ,
-1, ,-51, ,
1, ,-52, ,
1, ,-52, ,
1, ,-52, ,
-1, ,-52, ,
2, ,-53, ,
-1, ,-51, ,
1, ,-52, ,
1, ,-52, ,
1, ,-52, ,
-1, ,-52, ,
2, ,-52, ,
-1, ,-52, ,
-1, ,-52, ,
1, ,-52, ,
1, ,-52, ,
-1, ,-52, ,
1, ,-53, ,
-1, ,-51, ,
1, ,-52, ,
1, ,-53, ,
1, ,-52, ,
-1, ,-51, ,
2, ,-53, ,
-1, ,-52, ,
1, ,-52, ,
1, ,-52, ,
1, ,-52, ,
-1, ,-52, ,
2, ,-53, ,
1, ,-51, ,
1, ,-52, ,
1, ,-52, ,
1, ,-52, ,
-1, ,-51, ,
2, ,-52, ,
1, ,-52, ,
1, ,-52, ,
1, ,-52, ,
1, ,-52, ,
-1, ,-52, ,
1, ,-53, ,
-1, ,-51, ,
1, ,-52, ,
1, ,-53, ,
1, ,-52, ,
-1, ,-52, ,
1, ,-53, ,
-1, ,-52, ,
1, ,-52, ,
1, ,-52, ,
1, ,-52, ,
-1, ,-52, ,
2, ,-52, ,
-1, ,-51, ,
1, ,-52, ,
1, ,-53, ,
1, ,-52, ,
-1, ,-52, ,
2, ,-52, ,
-1, ,-52, ,
1, ,-52, ,
1, ,-52, ,
1, ,-52, ,
-1, ,-52, ,
2, ,-53, ,
-1, ,-51, ,
-1, ,-52, ,
1, ,-52, ,
1, ,-52, ,
-1, ,-51, ,
2, ,-52, ,
1, ,-52, ,
1, ,-52, ,
1, ,-52, ,
1, ,-52, ,
-1, ,-52, ,
1, ,-53, ,
-1, ,-51, ,
1, ,-52, ,
1, ,-52, ,
1, ,-52, ,
-1, ,-52, ,
2, ,-53, ,
-1, ,-51, ,
1, ,-52, ,
1, ,-53, ,
1, ,-52, ,
-1, ,-52, ,
1, ,-53, ,
-1, ,-51, ,
1, ,-52, ,
1, ,-52, ,
1, ,-52, ,
-1, ,-51, ,
1, ,-52, ,
-1, ,-51, ,
1, ,-52, ,
1, ,-52, ,
2, ,-52, ,
-1, ,-52, ,
2, ,-53, ,
-1, ,-51, ,
-1, ,-52, ,
1, ,-53, ,
1, ,-52, ,
-1, ,-52, ,
2, ,-53, ,
-1, ,-52, ,
1, ,-52, ,
1, ,-52, ,
1, ,-52, ,
-1, ,-52, ,
2, ,-52, ,
-1, ,-51, ,
1, ,-52, ,
1, ,-52, ,
1, ,-52, ,
-1, ,-51, ,
1, ,-52, ,
-1, ,-52, ,
-1, ,-52, ,
1, ,-52, ,
1, ,-52, ,
-1, ,-52, ,
2, ,-53, ,
-1, ,-51, ,
-1, ,-52, ,
1, ,-52, ,
1, ,-52, ,
-1, ,-52, ,
2, ,-52, ,
-1, ,-52, ,
1, ,-52, ,
1, ,-52, ,
1, ,-52, ,
-1, ,-52, ,
2, ,-53, ,
1, ,-51, ,
-1, ,-52, ,
1, ,-52, ,
1, ,-52, ,
-1, ,-51, ,
2, ,-52, ,
-1, ,-52, ,
1, ,-52, ,
1, ,-52, ,
1, ,-52, ,
-1, ,-52, ,
2, ,-53, ,
-1, ,-51, ,
-1, ,-52, ,
1, ,-52, ,
1, ,-52, ,
-1, ,-52, ,
2, ,-53, ,
-1, ,-52, ,
1, ,-52, ,
1, ,-52, ,
1, ,-52, ,
-1, ,-52, ,
1, ,-53, ,
-1, ,-51, ,
-1, ,-52, ,
1, ,-52, ,
1, ,-52, ,
-1, ,-51, ,
1, ,-52, ,
-1, ,-52, ,
-1, ,-52, ,
1, ,-52, ,
1, ,-52, ,
-1, ,-52, ,
2, ,-53, ,
-1, ,-51, ,
-1, ,-52, ,
1, ,-53, ,
1, ,-52, ,
-1, ,-51, ,
1, ,-52, ,
-1, ,-51, ,
1, ,-52, ,
1, ,-52, ,
1, ,-52, ,
-1, ,-52, ,
2, ,-53, ,
-1, ,-51, ,
-1, ,-52, ,
1, ,-53, ,
1, ,-52, ,
-1, ,-52, ,
1, ,-53, ,
-1, ,-51, ,
1, ,-52, ,
1, ,-52, ,
1, ,-52, ,
-1, ,-52, ,
1, ,-53, ,
-1, ,-51, ,
-1, ,-52, ,
1, ,-39, ,
1, ,-19, ,
-1, ,-3, ,
2, ,8, ,
1, ,17, ,
1, ,23, ,
1, ,28, ,
1, ,32, ,
-1, ,35, ,
1, ,37, ,
-1, ,38, ,
1, ,39, ,
1, ,40, ,
-1, ,40, ,
-1, ,41, ,
1, ,41, ,
1, ,41, ,
-1, ,42, ,
1, ,42, ,
1, ,42, ,
-1, ,42, ,
2, ,42, ,
1, ,41, ,
1, ,42, ,
1, ,42, ,
1, ,41, ,
-1, ,42, ,
2, ,42, ,
-1, ,41, ,
1, ,42, ,
1, ,42, ,
1, ,42, ,
-1, ,42, ,
1, ,42, ,
-1, ,41, ,
-1, ,42, ,
1, ,42, ,
1, ,41, ,
-1, ,42, ,
2, ,42, ,
-1, ,41, ,
-1, ,41, ,
1, ,42, ,
1, ,41, ,
-1, ,41, ,
1, ,42, ,
-1, ,41, ,
-1, ,41, ,
1, ,42, ,
1, ,41, ,
-1, ,41, ,
2, ,42, ,
-1, ,41, ,
-1, ,41, ,
1, ,42, ,
1, ,41, ,
-1, ,41, ,
2, ,42, ,
1, ,41, ,
-1, ,41, ,
1, ,41, ,
1, ,41, ,
-1, ,41, ,
1, ,42, ,
1, ,41, ,
1, ,41, ,
1, ,42, ,
1, ,41, ,
-1, ,41, ,
2, ,42, ,
1, ,41, ,
-1, ,41, ,
1, ,41, ,
1, ,41, ,
-1, ,41, ,
1, ,41, ,
1, ,41, ,
-1, ,41, ,
1, ,42, ,
1, ,42, ,
-1, ,41, ,
2, ,42, ,
1, ,41, ,
1, ,41, ,
1, ,42, ,
-1, ,41, ,
-1, ,41, ,
2, ,42, ,
1, ,41, ,
1, ,41, ,
1, ,42, ,
1, ,41, ,
-1, ,41, ,
1, ,41, ,
1, ,40, ,
-1, ,41, ,
1, ,41, ,
1, ,41, ,
-1, ,41, ,
2, ,42, ,
1, ,41, ,
1, ,41, ,
1, ,41, ,
1, ,41, ,
-1, ,41, ,
1, ,42, ,
-1, ,41, ,
-1, ,41, ,
1, ,42, ,
1, ,41, ,
-1, ,41, ,
2, ,42, ,
-1, ,40, ,
-1, ,41, ,
1, ,41, ,
1, ,41, ,
-1, ,41, ,
2, ,41, ,
1, ,41, ,
-1, ,41, ,
1, ,42, ,
1, ,41, ,
-1, ,41, ,
1, ,42, ,
1, ,41, ,
1, ,41, ,
1, ,41, ,
1, ,41, ,
-1, ,41, ,
2, ,42, ,
1, ,41, ,
-1, ,41, ,
1, ,41, ,
1, ,41, ,
-1, ,41, ,
2, ,41, ,
1, ,41, ,
1, ,41, ,
1, ,42, ,
1, ,41, ,
-1, ,41, ,
2, ,41, ,
-1, ,40, ,
-1, ,41, ,
1, ,41, ,
1, ,41, ,
-1, ,41, ,
2, ,41, ,
1, ,40, ,
-1, ,41, ,
1, ,41, ,
1, ,41, ,
-1, ,41, ,
2, ,41, ,
1, ,35, ,
-1, ,15, ,
1, ,-2, ,
1, ,-15, ,
-1, ,-24, ,
1, ,-32, ,
-1, ,-37, ,
1, ,-41, ,
1, ,-44, ,
1, ,-46, ,
-1, ,-47, ,
1, ,-50, ,
-1, ,-49, ,
-1, ,-51, ,
1, ,-52, ,
1, ,-52, ,
-1, ,-52, ,
1, ,-53, ,
-1, ,-52, ,
-1, ,-53, ,
1, ,-53, ,
1, ,-53, ,
-1, ,-53, ,
2, ,-53, ,
-1, ,-52, ,
-1, ,-53, ,
1, ,-53, ,
1, ,-52, ,
-1, ,-52, ,
1, ,-53, ,
-1, ,-52, ,
-1, ,-53, ,
1, ,-53, ,
1, ,-52, ,
-1, ,-52, ,
1, ,-53, ,
-1, ,-51, ,
-1, ,-53, ,
1, ,-52, ,
1, ,-52, ,
-1, ,-52, ,
1, ,-53, ,
-1, ,-52, ,
-1, ,-53, ,
1, ,-53, ,
1, ,-52, ,
-1, ,-52, ,
1, ,-53, ,
-1, ,-51, ,
-1, ,-52, ,
1, ,-53, ,
1, ,-52, ,
-1, ,-51, ,
1, ,-52, ,
-1, ,-52, ,
-1, ,-53, ,
1, ,-53, ,
1, ,-52, ,
-1, ,-52, ,
1, ,-53, ,
-1, ,-51, ,
-1, ,-52, ,
1, ,-53, ,
1, ,-52, ,
-1, ,-52, ,
1, ,-53, ,
-1, ,-52, ,
-1, ,-52, ,
1, ,-52, ,
1, ,-52, ,
-2, ,-52, ,
2, ,-53, ,
-1, ,-51, ,
-1, ,-53, ,
1, ,-53, ,
1, ,-52, ,
-1, ,-52, ,
1, ,-53, ,
-1, ,-51, ,
-1, ,-52, ,
1, ,-52, ,
1, ,-52, ,
-1, ,-52, ,
2, ,-52, ,
-1, ,-51, ,
-1, ,-52, ,
1, ,-53, ,
1, ,-52, ,
-1, ,-52, ,
2, ,-53, ,
-1, ,-52, ,
-1, ,-52, ,
1, ,-52, ,
1, ,-52, ,
-1, ,-52, ,
2, ,-53, ,
-1, ,-51, ,
-1, ,-52, ,
1, ,-53, ,
1, ,-52, ,
-1, ,-51, ,
1, ,-52, ,
-1, ,-51, ,
-1, ,-52, ,
1, ,-52, ,
1, ,-52, ,
-1, ,-52, ,
1, ,-53, ,
1, ,-51, ,
-1, ,-52, ,
1, ,-52, ,
1, ,-52, ,
-1, ,-51, ,
1, ,-53, ,
-1, ,-52, ,
-1, ,-52, ,
1, ,-52, ,
1, ,-52, ,
-1, ,-52, ,
1, ,-52, ,
-1, ,-51, ,
-1, ,-52, ,
1, ,-53, ,
1, ,-52, ,
-1, ,-51, ,
1, ,-53, ,
-1, ,-52, ,
-1, ,-52, ,
1, ,-52, ,
1, ,-52, ,
-1, ,-52, ,
1, ,-53, ,
-1, ,-51, ,
-1, ,-52, ,
1, ,-53, ,
1, ,-52, ,
-1, ,-52, ,
1, ,-52, ,
-1, ,-51, ,
-1, ,-52, ,
1, ,-52, ,
1, ,-52, ,
-1, ,-52, ,
1, ,-53, ,
-1, ,-51, ,
-1, ,-52, ,
1, ,-53, ,
1, ,-52, ,
-1, ,-51, ,
1, ,-52, ,
-1, ,-52, ,
-1, ,-52, ,
1, ,-52, ,
1, ,-52, ,
-1, ,-52, ,
1, ,-53, ,
-1, ,-51, ,
-1, ,-52, ,
1, ,-52, ,
1, ,-52, ,
-1, ,-51, ,
2, ,-53, ,
-1, ,-51, ,
-1, ,-52, ,
1, ,-52, ,
1, ,-52, ,
-1, ,-52, ,
2, ,-53, ,
-1, ,-51, ,
-1, ,-52, ,
1, ,-52, ,
1, ,-52, ,
-1, ,-51, ,
1, ,-53, ,
-1, ,-51, ,
-1, ,-52, ,
1, ,-52, ,
1, ,-52, ,
-1, ,-52, ,
1, ,-53, ,
-1, ,-51, ,
-1, ,-52, ,
1, ,-52, ,
1, ,-52, ,
-1, ,-52, ,
1, ,-52, ,
-1, ,-51, ,
-1, ,-52, ,
1, ,-52, ,
1, ,-52, ,
-1, ,-52, ,
1, ,-52, ,
-1, ,-51, ,
-1, ,-52, ,
1, ,-52, ,
1, ,-52, ,
-1, ,-51, ,
1, ,-53, ,
-1, ,-52, ,
-1, ,-52, ,
1, ,-52, ,
1, ,-52, ,
-1, ,-52, ,
2, ,-53, ,
-1, ,-51, ,
-1, ,-52, ,
1, ,-53, ,
1, ,-52, ,
-1, ,-52, ,
1, ,-53, ,
-1, ,-51, ,
-1, ,-52, ,
1, ,-52, ,
1, ,-52, ,
-1, ,-52, ,
1, ,-53, ,
-1, ,-51, ,
-1, ,-52, ,
1, ,-52, ,
1, ,-52, ,
-1, ,-51, ,
1, ,-52, ,
-1, ,-51, ,
-1, ,-52, ,
1, ,-52, ,
1, ,-52, ,
-1, ,-52, ,
1, ,-53, ,
-1, ,-51, ,
-1, ,-52, ,
1, ,-53, ,
1, ,-52, ,
-1, ,-52, ,
2, ,-53, ,
-1, ,-51, ,
1, ,-52, ,
1, ,-52, ,
1, ,-52, ,
-1, ,-52, ,
1, ,-53, ,
-1, ,-51, ,
-1, ,-52, ,
1, ,-53, ,
1, ,-52, ,
-1, ,-52, ,
2, ,-52, ,
-1, ,-51, ,
-1, ,-52, ,
1, ,-52, ,
1, ,-52, ,
-1, ,-52, ,
1, ,-52, ,
-1, ,-51, ,
-1, ,-52, ,
1, ,-52, ,
1, ,-52, ,
-1, ,-52, ,
1, ,-53, ,
-1, ,-51, ,
-1, ,-52, ,
1, ,-52, ,
1, ,-52, ,
-1, ,-52, ,
1, ,-53, ,
-1, ,-51, ,
-1, ,-52, ,
1, ,-52, ,
1, ,-52, ,
-1, ,-52, ,
1, ,-52, ,
-1, ,-51, ,
-1, ,-52, ,
1, ,-52, ,
1, ,-52, ,
-1, ,-52, ,
2, ,-53, ,
-1, ,-51, ,
-1, ,-52, ,
1, ,-53, ,
1, ,-52, ,
-1, ,-52, ,
1, ,-52, ,
-1, ,-51, ,
-1, ,-52, ,
1, ,-52, ,
1, ,-52, ,
96, ,-52, ,
63, ,-53, ,
36, ,-51, ,
24, ,-52, ,
16, ,-52, ,
11, ,-52, ,
7, ,-51, ,
7, ,-52, ,
5, ,-51, ,
3, ,-52, ,
3, ,-52, ,
3, ,-52, ,
2, ,-52, ,
3, ,-53, ,
2, ,-51, ,
2, ,-52, ,
2, ,-52, ,
3, ,-52, ,
2, ,-51, ,
3, ,-53, ,
1, ,-51, ,
2, ,-52, ,
2, ,-52, ,
2, ,-52, ,
1, ,-52, ,
3, ,-53, ,
2, ,-51, ,
2, ,-52, ,
3, ,-53, ,
2, ,-52, ,
2, ,-52, ,
3, ,-53, ,
1, ,-51, ,
2, ,-52, ,
3, ,-52, ,
2, ,-52, ,
1, ,-52, ,
3, ,-53, ,
2, ,-51, ,
2, ,-52, ,
3, ,-53, ,
2, ,-52, ,
1, ,-51, ,
3, ,-53, ,
2, ,-51, ,
2, ,-52, ,
3, ,-52, ,
3, ,-52, ,
1, ,-52, ,
2, ,-53, ,
2, ,-51, ,
2, ,-52, ,
3, ,-52, ,
2, ,-52, ,
2, ,-52, ,
3, ,-52, ,
2, ,-51, ,
2, ,-52, ,
3, ,-52, ,
2, ,-52, ,
1, ,-52, ,
3, ,-53, ,
2, ,-51, ,
2, ,-52, ,
2, ,-52, ,
2, ,-52, ,
1, ,-52, ,
3, ,-53, ,
2, ,-51, ,
2, ,-52, ,
3, ,-52, ,
2, ,-52, ,
1, ,-52, ,
3, ,-53, ,
2, ,-51, ,
2, ,-52, ,
3, ,-52, ,
2, ,-52, ,
1, ,-52, ,
3, ,-53, ,
2, ,-51, ,
2, ,-52, ,
3, ,-52, ,
2, ,-52, ,
1, ,-52, ,
2, ,-53, ,
2, ,-51, ,
2, ,-52, ,
2, ,-52, ,
2, ,-52, ,
1, ,-52, ,
3, ,-52, ,
2, ,-51, ,
2, ,-52, ,
3, ,-52, ,
2, ,-52, ,
2, ,-52, ,
3, ,-53, ,
2, ,-51, ,
2, ,-52, ,
2, ,-52, ,
2, ,-52, ,
1, ,-52, ,
3, ,-52, ,
1, ,-51, ,
2, ,-52, ,
3, ,-52, ,
2, ,-52, ,
1, ,-52, ,
3, ,-53, ,
2, ,-51, ,
2, ,-52, ,
3, ,-52, ,
2, ,-52, ,
1, ,-51, ,
3, ,-53, ,
2, ,-51, ,
2, ,-52, ,
3, ,-52, ,
2, ,-52, ,
1, ,-52, ,
2, ,-53, ,
1, ,-51, ,
2, ,-52, ,
2, ,-53, ,
2, ,-52, ,
1, ,-52, ,
2, ,-53, ,
2, ,-52, ,
2, ,-52, ,
2, ,-52, ,
2, ,-52, ,
1, ,-52, ,
2, ,-52, ,
1, ,-51, ,
1, ,-52, ,
2, ,-52, ,
2, ,-52, ,
1, ,-52, ,
2, ,-53, ,
2, ,-52, ,
2, ,-52, ,
2, ,-52, ,
2, ,-52, ,
1, ,-52, ,
3, ,-53, ,
1, ,-51, ,
1, ,-52, ,
2, ,-53, ,
2, ,-52, ,
1, ,-52, ,
2, ,-53, ,
1, ,-52, ,
2, ,-52, ,
2, ,-52, ,
2, ,-52, ,
1, ,-52, ,
2, ,-53, ,
1, ,-51, ,
2, ,-52, ,
2, ,-52, ,
2, ,-52, ,
1, ,-52, ,
2, ,-52, ,
1, ,-52, ,
2, ,-52, ,
2, ,-52, ,
2, ,-52, ,
1, ,-52, ,
2, ,-53, ,
1, ,-51, ,
2, ,-52, ,
2, ,-52, ,
2, ,-52, ,
1, ,-52, ,
2, ,-53, ,
1, ,-52, ,
1, ,-52, ,
2, ,-52, ,
2, ,-52, ,
1, ,-52, ,
