src/varyamp_1560/temp0000074.CSV

Format,1.0B,
Memory Length,10000,Memory Length,10000,
IntpDistance,0,IntpDistance,0,
Trigger Address,4999,Trigger Address,4999,
Trigger Level,1.040E+00,Trigger Level,1.040E+00,
Source,CH1,Source,CH2,
Vertical Units,V,Vertical Units,V,
Vertical Units Div,0,Vertical Units Div,0,
Vertical Units Extend Div,16,Vertical Units Extend Div,16,
Label,,Label,,
Probe Type,0,Probe Type,0,
Probe Ratio,1.000e+01,Probe Ratio,1.000e+00,
Vertical Scale,5.000e-01,Vertical Scale,1.000e+00,
Vertical Position,-1.820e+00,Vertical Position,0.000e+00,
Horizontal Units,S,Horizontal Units,S,
Horizontal Scale,2.000E-05,Horizontal Scale,2.000E-05,
Horizontal Position,0.000E+00,Horizontal Position,0.000E+00,
Horizontal Mode,Main,Horizontal Mode,Main,
SincET Mode,Real Time,SincET Mode,Real Time,
Sampling Period,2.000e-08,Sampling Period,2.000e-08,
Horizontal Old Scale,2.000E-05,Horizontal Old Scale,2.000E-05,
Horizontal Old Position,0.000E+00,Horizontal Old Position,0.000E+00,
Firmware,V1.23,Firmware,V1.23,
Mode,Fast,Mode,Fast,
Waveform Data,,Waveform Data,,
-1, ,-63, ,
1, ,-62, ,
-1, ,-62, ,
-1, ,-63, ,
1, ,-63, ,
1, ,-63, ,
-1, ,-64, ,
1, ,-62, ,
-1, ,-63, ,
-1, ,-64, ,
1, ,-62, ,
1, ,-63, ,
-1, ,-64, ,
1, ,-62, ,
-1, ,-63, ,
-1, ,-63, ,
1, ,-62, ,
1, ,-63, ,
-1, ,-63, ,
1, ,-61, ,
-1, ,-63, ,
-1, ,-63, ,
1, ,-63, ,
1, ,-63, ,
-1, ,-63, ,
1, ,-62, ,
-1, ,-63, ,
-1, ,-63, ,
1, ,-62, ,
1, ,-62, ,
-1, ,-63, ,
1, ,-61, ,
-1, ,-63, ,
-1, ,-63, ,
1, ,-62, ,
1, ,-62, ,
-1, ,-64, ,
1, ,-62, ,
-1, ,-63, ,
-1, ,-63, ,
1, ,-63, ,
1, ,-63, ,
-1, ,-63, ,
1, ,-61, ,
-1, ,-63, ,
-1, ,-63, ,
2, ,-62, ,
1, ,-63, ,
-1, ,-64, ,
1, ,-62, ,
-1, ,-62, ,
-1, ,-63, ,
1, ,-62, ,
1, ,-63, ,
-1, ,-64, ,
1, ,-62, ,
-1, ,-63, ,
-1, ,-63, ,
1, ,-62, ,
92, ,-63, ,
55, ,-63, ,
34, ,-62, ,
21, ,-63, ,
12, ,-63, ,
10, ,-62, ,
7, ,-63, ,
3, ,-63, ,
5, ,-62, ,
3, ,-63, ,
2, ,-64, ,
3, ,-62, ,
2, ,-63, ,
2, ,-64, ,
3, ,-62, ,
2, ,-63, ,
2, ,-63, ,
2, ,-63, ,
3, ,-63, ,
2, ,-64, ,
3, ,-62, ,
2, ,-63, ,
2, ,-63, ,
3, ,-62, ,
3, ,-63, ,
2, ,-64, ,
3, ,-62, ,
2, ,-63, ,
2, ,-63, ,
2, ,-63, ,
3, ,-63, ,
1, ,-64, ,
3, ,-61, ,
2, ,-63, ,
2, ,-63, ,
2, ,-62, ,
3, ,-63, ,
1, ,-63, ,
3, ,-62, ,
2, ,-63, ,
2, ,-63, ,
2, ,-62, ,
3, ,-63, ,
1, ,-64, ,
3, ,-61, ,
2, ,-63, ,
2, ,-64, ,
2, ,-62, ,
3, ,-63, ,
1, ,-64, ,
2, ,-62, ,
2, ,-63, ,
2, ,-64, ,
2, ,-62, ,
3, ,-62, ,
1, ,-64, ,
3, ,-61, ,
2, ,-63, ,
2, ,-64, ,
2, ,-62, ,
3, ,-63, ,
1, ,-64, ,
3, ,-62, ,
2, ,-63, ,
2, ,-63, ,
2, ,-63, ,
3, ,-63, ,
2, ,-64, ,
2, ,-61, ,
2, ,-63, ,
2, ,-63, ,
2, ,-62, ,
3, ,-63, ,
2, ,-64, ,
2, ,-62, ,
2, ,-63, ,
2, ,-64, ,
2, ,-63, ,
3, ,-63, ,
1, ,-64, ,
2, ,-62, ,
2, ,-63, ,
2, ,-63, ,
2, ,-62, ,
3, ,-63, ,
1, ,-64, ,
3, ,-62, ,
2, ,-63, ,
2, ,-63, ,
2, ,-63, ,
2, ,-63, ,
1, ,-64, ,
2, ,-62, ,
2, ,-63, ,
2, ,-63, ,
2, ,-62, ,
2, ,-62, ,
1, ,-63, ,
2, ,-62, ,
2, ,-63, ,
2, ,-63, ,
2, ,-63, ,
2, ,-63, ,
1, ,-64, ,
2, ,-61, ,
2, ,-63, ,
2, ,-63, ,
2, ,-62, ,
2, ,-62, ,
1, ,-64, ,
3, ,-63, ,
2, ,-63, ,
2, ,-63, ,
2, ,-63, ,
2, ,-62, ,
1, ,-64, ,
2, ,-62, ,
2, ,-63, ,
2, ,-64, ,
2, ,-62, ,
2, ,-62, ,
1, ,-64, ,
2, ,-62, ,
2, ,-63, ,
2, ,-64, ,
2, ,-63, ,
2, ,-63, ,
1, ,-64, ,
2, ,-62, ,
2, ,-63, ,
1, ,-64, ,
2, ,-62, ,
2, ,-63, ,
1, ,-64, ,
2, ,-62, ,
2, ,-63, ,
1, ,-63, ,
2, ,-63, ,
2, ,-63, ,
1, ,-63, ,
2, ,-62, ,
2, ,-63, ,
1, ,-63, ,
2, ,-62, ,
2, ,-63, ,
1, ,-64, ,
2, ,-62, ,
1, ,-63, ,
1, ,-64, ,
2, ,-62, ,
2, ,-63, ,
1, ,-63, ,
2, ,-61, ,
1, ,-63, ,
2, ,-63, ,
2, ,-62, ,
2, ,-63, ,
1, ,-64, ,
2, ,-62, ,
2, ,-63, ,
2, ,-63, ,
2, ,-63, ,
2, ,-63, ,
1, ,-64, ,
2, ,-62, ,
2, ,-63, ,
1, ,-64, ,
2, ,-62, ,
2, ,-62, ,
1, ,-63, ,
2, ,-62, ,
1, ,-63, ,
1, ,-63, ,
2, ,-62, ,
2, ,-62, ,
1, ,-64, ,
2, ,-61, ,
2, ,-63, ,
1, ,-64, ,
2, ,-62, ,
2, ,-63, ,
1, ,-63, ,
2, ,-62, ,
1, ,-63, ,
1, ,-63, ,
2, ,-63, ,
1, ,-63, ,
1, ,-63, ,
2, ,-62, ,
1, ,-63, ,
2, ,-64, ,
2, ,-62, ,
2, ,-63, ,
1, ,-64, ,
2, ,-62, ,
1, ,-62, ,
1, ,-64, ,
2, ,-63, ,
2, ,-63, ,
1, ,-64, ,
2, ,-62, ,
1, ,-63, ,
1, ,-63, ,
2, ,-62, ,
2, ,-63, ,
1, ,-63, ,
2, ,-62, ,
1, ,-63, ,
1, ,-64, ,
2, ,-62, ,
2, ,-63, ,
1, ,-64, ,
2, ,-62, ,
1, ,-63, ,
1, ,-63, ,
2, ,-62, ,
2, ,-63, ,
1, ,-64, ,
2, ,-62, ,
1, ,-63, ,
1, ,-64, ,
2, ,-62, ,
2, ,-63, ,
1, ,-64, ,
2, ,-62, ,
1, ,-63, ,
1, ,-63, ,
2, ,-62, ,
2, ,-63, ,
1, ,-64, ,
2, ,-62, ,
2, ,-63, ,
1, ,-63, ,
2, ,-63, ,
2, ,-62, ,
1, ,-63, ,
2, ,-61, ,
1, ,-63, ,
1, ,-64, ,
2, ,-62, ,
2, ,-62, ,
1, ,-64, ,
2, ,-62, ,
2, ,-54, ,
2, ,-34, ,
2, ,-17, ,
2, ,-4, ,
1, ,4, ,
2, ,11, ,
2, ,16, ,
1, ,20, ,
2, ,22, ,
2, ,24, ,
1, ,26, ,
2, ,27, ,
1, ,28, ,
1, ,30, ,
2, ,30, ,
1, ,30, ,
1, ,31, ,
2, ,30, ,
1, ,31, ,
1, ,31, ,
2, ,31, ,
1, ,31, ,
1, ,31, ,
2, ,31, ,
1, ,31, ,
1, ,31, ,
2, ,31, ,
1, ,31, ,
1, ,31, ,
2, ,30, ,
1, ,30, ,
1, ,31, ,
2, ,31, ,
1, ,31, ,
1, ,31, ,
2, ,30, ,
1, ,30, ,
1, ,31, ,
2, ,31, ,
1, ,31, ,
-1, ,31, ,
2, ,30, ,
1, ,30, ,
1, ,30, ,
1, ,30, ,
1, ,30, ,
-1, ,31, ,
2, ,30, ,
1, ,30, ,
1, ,30, ,
2, ,31, ,
2, ,30, ,
1, ,30, ,
2, ,30, ,
1, ,30, ,
1, ,30, ,
2, ,30, ,
2, ,30, ,
1, ,31, ,
2, ,30, ,
1, ,30, ,
1, ,30, ,
2, ,30, ,
1, ,30, ,
-1, ,30, ,
2, ,30, ,
1, ,30, ,
1, ,30, ,
1, ,30, ,
1, ,30, ,
1, ,31, ,
2, ,30, ,
1, ,30, ,
1, ,30, ,
2, ,31, ,
2, ,30, ,
-1, ,30, ,
2, ,30, ,
1, ,30, ,
1, ,30, ,
2, ,30, ,
1, ,30, ,
-1, ,30, ,
2, ,30, ,
1, ,30, ,
1, ,30, ,
2, ,30, ,
1, ,30, ,
-1, ,31, ,
2, ,30, ,
1, ,30, ,
1, ,30, ,
2, ,30, ,
1, ,30, ,
-1, ,31, ,
2, ,30, ,
1, ,30, ,
1, ,30, ,
1, ,30, ,
1, ,30, ,
-1, ,30, ,
2, ,30, ,
1, ,30, ,
1, ,31, ,
2, ,30, ,
1, ,30, ,
-1, ,31, ,
2, ,30, ,
1, ,30, ,
1, ,30, ,
1, ,30, ,
1, ,30, ,
-1, ,30, ,
2, ,30, ,
1, ,30, ,
1, ,30, ,
2, ,30, ,
1, ,30, ,
-1, ,30, ,
2, ,30, ,
-1, ,30, ,
1, ,30, ,
2, ,30, ,
1, ,30, ,
-1, ,30, ,
2, ,30, ,
1, ,30, ,
1, ,30, ,
2, ,30, ,
1, ,30, ,
-1, ,30, ,
2, ,30, ,
1, ,30, ,
1, ,30, ,
1, ,30, ,
1, ,30, ,
-1, ,30, ,
2, ,30, ,
1, ,30, ,
1, ,30, ,
1, ,30, ,
1, ,30, ,
-1, ,30, ,
2, ,30, ,
1, ,30, ,
1, ,30, ,
1, ,31, ,
1, ,30, ,
-1, ,31, ,
2, ,30, ,
1, ,30, ,
1, ,30, ,
1, ,30, ,
1, ,30, ,
-1, ,28, ,
2, ,12, ,
1, ,-7, ,
-1, ,-22, ,
1, ,-33, ,
1, ,-41, ,
-1, ,-47, ,
2, ,-51, ,
1, ,-55, ,
1, ,-57, ,
1, ,-59, ,
2, ,-60, ,
-1, ,-62, ,
2, ,-61, ,
1, ,-63, ,
1, ,-63, ,
1, ,-63, ,
2, ,-63, ,
1, ,-64, ,
2, ,-62, ,
1, ,-63, ,
1, ,-64, ,
1, ,-63, ,
2, ,-63, ,
1, ,-64, ,
2, ,-62, ,
1, ,-63, ,
1, ,-64, ,
2, ,-63, ,
2, ,-63, ,
-1, ,-64, ,
2, ,-62, ,
1, ,-63, ,
1, ,-64, ,
1, ,-63, ,
1, ,-63, ,
-1, ,-64, ,
2, ,-62, ,
1, ,-63, ,
1, ,-63, ,
2, ,-63, ,
1, ,-63, ,
-1, ,-64, ,
2, ,-62, ,
1, ,-63, ,
1, ,-64, ,
1, ,-62, ,
1, ,-63, ,
-1, ,-64, ,
2, ,-63, ,
1, ,-63, ,
1, ,-64, ,
2, ,-63, ,
2, ,-63, ,
-1, ,-64, ,
2, ,-62, ,
1, ,-63, ,
1, ,-64, ,
2, ,-62, ,
1, ,-63, ,
-1, ,-64, ,
1, ,-62, ,
1, ,-63, ,
1, ,-63, ,
2, ,-62, ,
1, ,-62, ,
-1, ,-64, ,
1, ,-62, ,
1, ,-63, ,
1, ,-63, ,
1, ,-63, ,
1, ,-63, ,
-1, ,-64, ,
2, ,-62, ,
1, ,-63, ,
1, ,-63, ,
1, ,-62, ,
1, ,-63, ,
-1, ,-64, ,
1, ,-62, ,
1, ,-63, ,
1, ,-63, ,
1, ,-62, ,
1, ,-63, ,
-1, ,-63, ,
1, ,-62, ,
1, ,-63, ,
1, ,-63, ,
1, ,-62, ,
1, ,-62, ,
-1, ,-64, ,
2, ,-62, ,
1, ,-63, ,
1, ,-64, ,
1, ,-62, ,
1, ,-62, ,
-1, ,-64, ,
2, ,-62, ,
1, ,-63, ,
1, ,-63, ,
1, ,-62, ,
2, ,-63, ,
1, ,-64, ,
2, ,-62, ,
1, ,-63, ,
1, ,-64, ,
2, ,-62, ,
1, ,-62, ,
1, ,-64, ,
2, ,-62, ,
1, ,-63, ,
1, ,-63, ,
1, ,-62, ,
1, ,-62, ,
-1, ,-64, ,
2, ,-62, ,
1, ,-63, ,
1, ,-63, ,
1, ,-62, ,
1, ,-62, ,
-1, ,-64, ,
2, ,-62, ,
1, ,-63, ,
1, ,-63, ,
2, ,-63, ,
1, ,-63, ,
-1, ,-64, ,
1, ,-62, ,
1, ,-63, ,
1, ,-63, ,
1, ,-62, ,
1, ,-62, ,
-1, ,-64, ,
1, ,-62, ,
1, ,-63, ,
1, ,-63, ,
2, ,-62, ,
2, ,-63, ,
-1, ,-64, ,
2, ,-62, ,
1, ,-63, ,
1, ,-63, ,
1, ,-63, ,
1, ,-63, ,
-1, ,-64, ,
2, ,-62, ,
1, ,-63, ,
1, ,-63, ,
1, ,-62, ,
1, ,-62, ,
-1, ,-63, ,
2, ,-62, ,
1, ,-63, ,
1, ,-63, ,
1, ,-62, ,
1, ,-62, ,
-1, ,-64, ,
1, ,-62, ,
1, ,-63, ,
1, ,-63, ,
2, ,-62, ,
2, ,-63, ,
-1, ,-64, ,
2, ,-62, ,
1, ,-63, ,
1, ,-63, ,
1, ,-63, ,
1, ,-62, ,
-1, ,-63, ,
2, ,-62, ,
1, ,-63, ,
1, ,-63, ,
1, ,-62, ,
1, ,-63, ,
-1, ,-64, ,
2, ,-61, ,
1, ,-63, ,
1, ,-63, ,
1, ,-62, ,
1, ,-62, ,
-1, ,-63, ,
1, ,-62, ,
1, ,-63, ,
1, ,-63, ,
1, ,-62, ,
1, ,-63, ,
-1, ,-64, ,
1, ,-61, ,
1, ,-63, ,
1, ,-64, ,
1, ,-62, ,
1, ,-62, ,
-1, ,-63, ,
1, ,-62, ,
1, ,-63, ,
1, ,-63, ,
1, ,-62, ,
1, ,-63, ,
-1, ,-64, ,
1, ,-61, ,
1, ,-63, ,
1, ,-63, ,
1, ,-62, ,
1, ,-63, ,
-1, ,-63, ,
2, ,-62, ,
-1, ,-63, ,
1, ,-63, ,
1, ,-62, ,
1, ,-63, ,
-1, ,-63, ,
1, ,-61, ,
1, ,-62, ,
-1, ,-63, ,
1, ,-62, ,
1, ,-63, ,
-1, ,-63, ,
1, ,-62, ,
1, ,-63, ,
1, ,-63, ,
1, ,-62, ,
1, ,-63, ,
-1, ,-63, ,
1, ,-61, ,
1, ,-63, ,
-1, ,-63, ,
1, ,-62, ,
1, ,-62, ,
-1, ,-63, ,
1, ,-62, ,
1, ,-62, ,
1, ,-63, ,
1, ,-62, ,
2, ,-62, ,
-1, ,-63, ,
1, ,-61, ,
1, ,-63, ,
-1, ,-64, ,
1, ,-62, ,
1, ,-62, ,
-1, ,-63, ,
2, ,-62, ,
1, ,-63, ,
1, ,-63, ,
1, ,-62, ,
1, ,-63, ,
-1, ,-64, ,
1, ,-61, ,
1, ,-63, ,
1, ,-63, ,
1, ,-62, ,
1, ,-63, ,
-1, ,-64, ,
2, ,-62, ,
1, ,-63, ,
1, ,-63, ,
2, ,-62, ,
2, ,-63, ,
-1, ,-63, ,
1, ,-61, ,
1, ,-62, ,
1, ,-63, ,
1, ,-62, ,
1, ,-63, ,
-1, ,-64, ,
1, ,-62, ,
1, ,-63, ,
1, ,-63, ,
1, ,-62, ,
1, ,-62, ,
-1, ,-64, ,
2, ,-62, ,
1, ,-63, ,
1, ,-63, ,
1, ,-62, ,
1, ,-62, ,
-1, ,-63, ,
1, ,-62, ,
1, ,-63, ,
1, ,-63, ,
1, ,-62, ,
2, ,-62, ,
-1, ,-63, ,
1, ,-61, ,
1, ,-63, ,
-1, ,-63, ,
1, ,-62, ,
1, ,-63, ,
-1, ,-64, ,
2, ,-62, ,
1, ,-63, ,
1, ,-64, ,
1, ,-63, ,
1, ,-62, ,
-1, ,-63, ,
2, ,-62, ,
1, ,-63, ,
1, ,-64, ,
1, ,-62, ,
2, ,-62, ,
-1, ,-63, ,
1, ,-62, ,
1, ,-63, ,
1, ,-63, ,
1, ,-62, ,
1, ,-63, ,
-1, ,-63, ,
1, ,-61, ,
1, ,-63, ,
1, ,-64, ,
1, ,-62, ,
1, ,-63, ,
-1, ,-64, ,
1, ,-62, ,
1, ,-63, ,
1, ,-63, ,
1, ,-62, ,
1, ,-63, ,
-1, ,-63, ,
1, ,-62, ,
-1, ,-63, ,
1, ,-64, ,
1, ,-62, ,
1, ,-62, ,
-1, ,-63, ,
1, ,-62, ,
-1, ,-63, ,
1, ,-63, ,
1, ,-62, ,
2, ,-63, ,
-1, ,-63, ,
2, ,-61, ,
1, ,-63, ,
-1, ,-64, ,
1, ,-62, ,
1, ,-63, ,
-1, ,-63, ,
1, ,-61, ,
-1, ,-63, ,
1, ,-63, ,
1, ,-62, ,
2, ,-63, ,
-1, ,-64, ,
1, ,-62, ,
-1, ,-63, ,
-1, ,-64, ,
1, ,-62, ,
2, ,-63, ,
-1, ,-63, ,
2, ,-62, ,
-1, ,-63, ,
-1, ,-64, ,
1, ,-62, ,
1, ,-63, ,
-1, ,-63, ,
1, ,-62, ,
1, ,-63, ,
-1, ,-63, ,
1, ,-62, ,
1, ,-63, ,
-1, ,-64, ,
1, ,-62, ,
-1, ,-63, ,
1, ,-63, ,
2, ,-62, ,
1, ,-63, ,
-1, ,-63, ,
1, ,-62, ,
1, ,-63, ,
1, ,-64, ,
1, ,-62, ,
1, ,-62, ,
-1, ,-63, ,
1, ,-62, ,
1, ,-63, ,
1, ,-64, ,
1, ,-62, ,
1, ,-63, ,
-1, ,-63, ,
1, ,-61, ,
1, ,-63, ,
1, ,-63, ,
1, ,-62, ,
1, ,-63, ,
-1, ,-64, ,
1, ,-62, ,
1, ,-63, ,
1, ,-63, ,
1, ,-62, ,
1, ,-63, ,
-1, ,-63, ,
1, ,-61, ,
1, ,-63, ,
1, ,-64, ,
1, ,-62, ,
1, ,-62, ,
-1, ,-63, ,
1, ,-62, ,
1, ,-63, ,
1, ,-63, ,
1, ,-62, ,
1, ,-62, ,
-1, ,-63, ,
1, ,-62, ,
1, ,-63, ,
1, ,-63, ,
1, ,-62, ,
1, ,-63, ,
-1, ,-63, ,
1, ,-62, ,
-1, ,-63, ,
1, ,-64, ,
1, ,-62, ,
1, ,-63, ,
-1, ,-64, ,
1, ,-62, ,
1, ,-63, ,
-1, ,-63, ,
1, ,-62, ,
1, ,-63, ,
-1, ,-63, ,
1, ,-62, ,
1, ,-62, ,
1, ,-63, ,
1, ,-62, ,
1, ,-63, ,
-1, ,-63, ,
1, ,-61, ,
1, ,-63, ,
1, ,-63, ,
1, ,-62, ,
1, ,-63, ,
-1, ,-63, ,
1, ,-62, ,
-1, ,-63, ,
-1, ,-63, ,
1, ,-62, ,
1, ,-63, ,
-1, ,-64, ,
1, ,-61, ,
1, ,-63, ,
-1, ,-63, ,
1, ,-62, ,
1, ,-63, ,
-1, ,-64, ,
1, ,-62, ,
1, ,-63, ,
1, ,-63, ,
1, ,-62, ,
1, ,-63, ,
-1, ,-63, ,
1, ,-61, ,
1, ,-63, ,
-1, ,-64, ,
1, ,-62, ,
1, ,-62, ,
-1, ,-63, ,
1, ,-62, ,
1, ,-63, ,
1, ,-63, ,
1, ,-62, ,
1, ,-62, ,
-1, ,-63, ,
1, ,-61, ,
1, ,-63, ,
1, ,-64, ,
1, ,-62, ,
1, ,-62, ,
-1, ,-63, ,
1, ,-62, ,
-1, ,-63, ,
1, ,-63, ,
1, ,-62, ,
1, ,-62, ,
-1, ,-63, ,
1, ,-61, ,
1, ,-63, ,
1, ,-63, ,
1, ,-62, ,
2, ,-62, ,
-1, ,-63, ,
1, ,-62, ,
-1, ,-63, ,
1, ,-63, ,
1, ,-62, ,
1, ,-63, ,
-1, ,-64, ,
1, ,-62, ,
1, ,-63, ,
-1, ,-63, ,
1, ,-62, ,
1, ,-62, ,
-1, ,-63, ,
2, ,-62, ,
1, ,-62, ,
1, ,-63, ,
1, ,-62, ,
1, ,-62, ,
-1, ,-64, ,
1, ,-61, ,
1, ,-63, ,
1, ,-63, ,
1, ,-62, ,
1, ,-63, ,
-1, ,-64, ,
1, ,-62, ,
-1, ,-63, ,
1, ,-63, ,
1, ,-62, ,
1, ,-63, ,
-1, ,-63, ,
1, ,-62, ,
1, ,-63, ,
-1, ,-63, ,
1, ,-62, ,
1, ,-63, ,
-1, ,-63, ,
1, ,-62, ,
1, ,-63, ,
1, ,-63, ,
1, ,-62, ,
1, ,-63, ,
-1, ,-64, ,
1, ,-62, ,
1, ,-63, ,
1, ,-63, ,
1, ,-62, ,
1, ,-63, ,
-1, ,-64, ,
1, ,-62, ,
1, ,-62, ,
1, ,-63, ,
1, ,-62, ,
1, ,-63, ,
-1, ,-63, ,
1, ,-62, ,
1, ,-63, ,
-1, ,-63, ,
1, ,-62, ,
1, ,-62, ,
-1, ,-63, ,
1, ,-63, ,
-1, ,-63, ,
1, ,-64, ,
1, ,-62, ,
2, ,-62, ,
-1, ,-64, ,
1, ,-62, ,
1, ,-63, ,
-1, ,-63, ,
1, ,-62, ,
1, ,-63, ,
-1, ,-64, ,
1, ,-62, ,
1, ,-63, ,
-1, ,-63, ,
1, ,-62, ,
1, ,-63, ,
-1, ,-64, ,
1, ,-62, ,
1, ,-63, ,
1, ,-63, ,
1, ,-62, ,
1, ,-62, ,
-1, ,-63, ,
1, ,-62, ,
1, ,-63, ,
1, ,-63, ,
1, ,-62, ,
1, ,-63, ,
94, ,-64, ,
59, ,-62, ,
35, ,-63, ,
22, ,-64, ,
15, ,-62, ,
11, ,-63, ,
7, ,-64, ,
7, ,-63, ,
3, ,-63, ,
3, ,-63, ,
3, ,-63, ,
2, ,-63, ,
2, ,-64, ,
3, ,-62, ,
2, ,-63, ,
2, ,-63, ,
2, ,-62, ,
3, ,-62, ,
2, ,-64, ,
3, ,-62, ,
2, ,-63, ,
2, ,-63, ,
2, ,-62, ,
3, ,-63, ,
2, ,-64, ,
3, ,-62, ,
2, ,-63, ,
2, ,-64, ,
2, ,-62, ,
3, ,-62, ,
2, ,-63, ,
3, ,-62, ,
2, ,-62, ,
2, ,-63, ,
2, ,-62, ,
3, ,-62, ,
2, ,-64, ,
3, ,-62, ,
2, ,-63, ,
2, ,-63, ,
2, ,-62, ,
3, ,-62, ,
2, ,-64, ,
3, ,-62, ,
2, ,-63, ,
2, ,-63, ,
2, ,-63, ,
3, ,-63, ,
2, ,-64, ,
3, ,-62, ,
2, ,-63, ,
2, ,-63, ,
2, ,-62, ,
3, ,-63, ,
2, ,-64, ,
3, ,-62, ,
2, ,-63, ,
2, ,-58, ,
2, ,-38, ,
3, ,-21, ,
2, ,-7, ,
3, ,2, ,
2, ,9, ,
2, ,15, ,
3, ,19, ,
3, ,22, ,
2, ,24, ,
3, ,25, ,
2, ,27, ,
2, ,28, ,
3, ,28, ,
2, ,30, ,
1, ,30, ,
3, ,30, ,
2, ,31, ,
2, ,31, ,
2, ,31, ,
2, ,31, ,
1, ,31, ,
3, ,31, ,
2, ,31, ,
2, ,31, ,
2, ,31, ,
2, ,30, ,
2, ,31, ,
3, ,31, ,
2, ,31, ,
1, ,31, ,
2, ,31, ,
2, ,31, ,
1, ,31, ,
3, ,31, ,
1, ,30, ,
1, ,31, ,
2, ,31, ,
2, ,30, ,
1, ,31, ,
3, ,30, ,
2, ,31, ,
2, ,30, ,
2, ,30, ,
2, ,30, ,
1, ,31, ,
3, ,30, ,
1, ,30, ,
1, ,31, ,
3, ,30, ,
2, ,30, ,
1, ,30, ,
3, ,30, ,
2, ,30, ,
2, ,30, ,
2, ,30, ,
2, ,30, ,
1, ,31, ,
3, ,30, ,
1, ,30, ,
1, ,30, ,
2, ,30, ,
2, ,30, ,
1, ,30, ,
3, ,30, ,
1, ,30, ,
1, ,30, ,
2, ,30, ,
2, ,30, ,
1, ,31, ,
3, ,30, ,
1, ,30, ,
2, ,30, ,
2, ,30, ,
2, ,30, ,
1, ,31, ,
3, ,30, ,
2, ,30, ,
1, ,30, ,
2, ,30, ,
2, ,30, ,
1, ,30, ,
3, ,30, ,
1, ,30, ,
1, ,30, ,
2, ,30, ,
2, ,30, ,
1, ,30, ,
2, ,30, ,
1, ,30, ,
2, ,30, ,
2, ,31, ,
2, ,30, ,
1, ,31, ,
2, ,30, ,
1, ,30, ,
1, ,30, ,
2, ,30, ,
2, ,30, ,
1, ,31, ,
3, ,30, ,
1, ,30, ,
2, ,30, ,
2, ,30, ,
2, ,30, ,
1, ,31, ,
2, ,30, ,
1, ,30, ,
1, ,30, ,
2, ,30, ,
1, ,30, ,
1, ,30, ,
3, ,30, ,
1, ,30, ,
1, ,30, ,
2, ,30, ,
1, ,30, ,
1, ,31, ,
2, ,30, ,
1, ,30, ,
1, ,30, ,
2, ,30, ,
1, ,30, ,
1, ,30, ,
3, ,30, ,
1, ,30, ,
1, ,30, ,
2, ,30, ,
1, ,30, ,
1, ,31, ,
2, ,30, ,
1, ,30, ,
1, ,30, ,
2, ,30, ,
2, ,30, ,
1, ,30, ,
3, ,30, ,
1, ,30, ,
1, ,30, ,
2, ,30, ,
1, ,30, ,
1, ,31, ,
2, ,30, ,
1, ,30, ,
1, ,30, ,
2, ,30, ,
1, ,30, ,
1, ,31, ,
2, ,30, ,
1, ,30, ,
1, ,30, ,
2, ,30, ,
2, ,30, ,
1, ,30, ,
2, ,30, ,
1, ,16, ,
1, ,-3, ,
2, ,-19, ,
1, ,-31, ,
1, ,-39, ,
2, ,-45, ,
1, ,-50, ,
1, ,-55, ,
2, ,-56, ,
2, ,-58, ,
1, ,-61, ,
2, ,-60, ,
1, ,-62, ,
2, ,-63, ,
2, ,-62, ,
2, ,-63, ,
1, ,-64, ,
2, ,-62, ,
1, ,-63, ,
1, ,-64, ,
2, ,-63, ,
2, ,-64, ,
1, ,-64, ,
2, ,-63, ,
1, ,-64, ,
1, ,-64, ,
2, ,-63, ,
2, ,-63, ,
1, ,-64, ,
2, ,-62, ,
1, ,-63, ,
1, ,-63, ,
2, ,-63, ,
2, ,-63, ,
1, ,-64, ,
2, ,-63, ,
1, ,-63, ,
2, ,-63, ,
2, ,-63, ,
2, ,-63, ,
1, ,-64, ,
2, ,-62, ,
1, ,-63, ,
1, ,-64, ,
2, ,-63, ,
2, ,-63, ,
1, ,-64, ,
2, ,-62, ,
1, ,-63, ,
1, ,-63, ,
2, ,-63, ,
2, ,-63, ,
1, ,-64, ,
2, ,-62, ,
1, ,-63, ,
1, ,-64, ,
2, ,-63, ,
1, ,-63, ,
1, ,-64, ,
2, ,-62, ,
1, ,-63, ,
1, ,-64, ,
2, ,-63, ,
1, ,-63, ,
1, ,-64, ,
2, ,-62, ,
1, ,-63, ,
1, ,-64, ,
2, ,-62, ,
2, ,-62, ,
1, ,-64, ,
2, ,-62, ,
2, ,-63, ,
1, ,-63, ,
2, ,-62, ,
2, ,-63, ,
1, ,-64, ,
2, ,-62, ,
1, ,-63, ,
1, ,-63, ,
2, ,-62, ,
2, ,-63, ,
1, ,-64, ,
2, ,-62, ,
1, ,-63, ,
1, ,-63, ,
2, ,-63, ,
1, ,-63, ,
1, ,-64, ,
2, ,-62, ,
1, ,-63, ,
2, ,-64, ,
15, ,-62, ,
48, ,-62, ,
31, ,-64, ,
20, ,-62, ,
12, ,-63, ,
8, ,-64, ,
7, ,-62, ,
6, ,-63, ,
3, ,-64, ,
3, ,-61, ,
2, ,-63, ,
2, ,-64, ,
3, ,-62, ,
3, ,-63, ,
2, ,-64, ,
3, ,-62, ,
2, ,-63, ,
2, ,-64, ,
2, ,-62, ,
3, ,-63, ,
2, ,-63, ,
3, ,-62, ,
2, ,-63, ,
2, ,-63, ,
2, ,-62, ,
3, ,-62, ,
1, ,-64, ,
3, ,-62, ,
2, ,-62, ,
2, ,-63, ,
2, ,-62, ,
3, ,-63, ,
1, ,-64, ,
3, ,-62, ,
2, ,-63, ,
2, ,-63, ,
2, ,-62, ,
3, ,-63, ,
1, ,-64, ,
2, ,-62, ,
2, ,-63, ,
2, ,-64, ,
2, ,-63, ,
3, ,-63, ,
2, ,-64, ,
3, ,-62, ,
2, ,-63, ,
2, ,-63, ,
2, ,-62, ,
3, ,-63, ,
1, ,-64, ,
3, ,-62, ,
2, ,-63, ,
2, ,-63, ,
2, ,-63, ,
3, ,-63, ,
2, ,-64, ,
3, ,-62, ,
2, ,-63, ,
2, ,-63, ,
2, ,-62, ,
3, ,-62, ,
1, ,-64, ,
2, ,-62, ,
2, ,-63, ,
2, ,-64, ,
2, ,-63, ,
3, ,-63, ,
2, ,-64, ,
2, ,-62, ,
2, ,-63, ,
2, ,-63, ,
2, ,-62, ,
3, ,-62, ,
2, ,-64, ,
3, ,-62, ,
2, ,-62, ,
2, ,-63, ,
2, ,-63, ,
2, ,-63, ,
2, ,-64, ,
3, ,-62, ,
2, ,-63, ,
2, ,-63, ,
2, ,-63, ,
3, ,-62, ,
1, ,-64, ,
3, ,-62, ,
2, ,-62, ,
2, ,-63, ,
2, ,-63, ,
3, ,-62, ,
2, ,-64, ,
3, ,-62, ,
2, ,-63, ,
2, ,-63, ,
2, ,-62, ,
3, ,-62, ,
2, ,-64, ,
3, ,-62, ,
2, ,-63, ,
2, ,-64, ,
2, ,-63, ,
3, ,-63, ,
1, ,-63, ,
2, ,-61, ,
2, ,-63, ,
2, ,-63, ,
2, ,-62, ,
2, ,-62, ,
1, ,-63, ,
2, ,-62, ,
2, ,-63, ,
2, ,-63, ,
2, ,-63, ,
2, ,-63, ,
1, ,-64, ,
3, ,-62, ,
1, ,-63, ,
2, ,-63, ,
2, ,-62, ,
3, ,-63, ,
1, ,-64, ,
2, ,-62, ,
2, ,-63, ,
2, ,-63, ,
2, ,-63, ,
2, ,-63, ,
1, ,-64, ,
2, ,-61, ,
2, ,-63, ,
2, ,-63, ,
3, ,-62, ,
2, ,-63, ,
1, ,-63, ,
2, ,-62, ,
1, ,-63, ,
1, ,-63, ,
2, ,-62, ,
2, ,-63, ,
1, ,-64, ,
2, ,-62, ,
2, ,-63, ,
2, ,-63, ,
2, ,-62, ,
2, ,-62, ,
1, ,-63, ,
2, ,-62, ,
2, ,-62, ,
1, ,-63, ,
2, ,-62, ,
2, ,-63, ,
1, ,-64, ,
2, ,-62, ,
1, ,-63, ,
1, ,-63, ,
2, ,-62, ,
2, ,-63, ,
1, ,-63, ,
2, ,-62, ,
2, ,-63, ,
1, ,-63, ,
2, ,-63, ,
2, ,-63, ,
1, ,-63, ,
2, ,-62, ,
1, ,-63, ,
1, ,-64, ,
2, ,-62, ,
2, ,-63, ,
1, ,-63, ,
2, ,-62, ,
1, ,-63, ,
1, ,-63, ,
2, ,-63, ,
2, ,-63, ,
1, ,-63, ,
2, ,-61, ,
2, ,-63, ,
2, ,-63, ,
2, ,-62, ,
2, ,-62, ,
1, ,-63, ,
2, ,-62, ,
1, ,-63, ,
1, ,-63, ,
2, ,-63, ,
2, ,-63, ,
1, ,-63, ,
2, ,-62, ,
1, ,-63, ,
2, ,-64, ,
2, ,-62, ,
2, ,-62, ,
1, ,-64, ,
2, ,-62, ,
1, ,-63, ,
1, ,-63, ,
2, ,-63, ,
2, ,-63, ,
1, ,-64, ,
2, ,-61, ,
2, ,-63, ,
2, ,-63, ,
2, ,-62, ,
2, ,-63, ,
1, ,-64, ,
2, ,-62, ,
1, ,-63, ,
1, ,-63, ,
2, ,-63, ,
2, ,-63, ,
1, ,-64, ,
2, ,-62, ,
1, ,-63, ,
1, ,-63, ,
2, ,-62, ,
2, ,-63, ,
1, ,-64, ,
2, ,-62, ,
1, ,-63, ,
1, ,-63, ,
2, ,-62, ,
2, ,-63, ,
1, ,-64, ,
2, ,-62, ,
1, ,-63, ,
2, ,-64, ,
2, ,-62, ,
2, ,-63, ,
1, ,-63, ,
2, ,-62, ,
1, ,-63, ,
1, ,-63, ,
2, ,-62, ,
2, ,-63, ,
1, ,-64, ,
2, ,-61, ,
1, ,-63, ,
2, ,-64, ,
2, ,-62, ,
2, ,-63, ,
1, ,-64, ,
2, ,-62, ,
1, ,-63, ,
1, ,-64, ,
2, ,-62, ,
2, ,-63, ,
1, ,-63, ,
2, ,-61, ,
1, ,-63, ,
1, ,-63, ,
2, ,-62, ,
2, ,-62, ,
1, ,-64, ,
2, ,-62, ,
1, ,-63, ,
1, ,-64, ,
2, ,-63, ,
2, ,-63, ,
1, ,-64, ,
2, ,-62, ,
1, ,-63, ,
1, ,-63, ,
2, ,-62, ,
2, ,-62, ,
1, ,-64, ,
2, ,-62, ,
1, ,-62, ,
1, ,-64, ,
2, ,-63, ,
2, ,-63, ,
1, ,-64, ,
2, ,-62, ,
1, ,-63, ,
1, ,-63, ,
2, ,-62, ,
2, ,-62, ,
1, ,-63, ,
2, ,-62, ,
1, ,-63, ,
1, ,-63, ,
2, ,-63, ,
2, ,-62, ,
1, ,-63, ,
2, ,-61, ,
1, ,-63, ,
1, ,-64, ,
2, ,-62, ,
2, ,-63, ,
1, ,-64, ,
2, ,-62, ,
1, ,-63, ,
1, ,-64, ,
2, ,-63, ,
2, ,-63, ,
1, ,-64, ,
2, ,-62, ,
1, ,-63, ,
1, ,-63, ,
2, ,-62, ,
2, ,-63, ,
1, ,-64, ,
2, ,-62, ,
1, ,-63, ,
1, ,-63, ,
2, ,-63, ,
2, ,-63, ,
1, ,-63, ,
2, ,-62, ,
1, ,-63, ,
1, ,-64, ,
2, ,-62, ,
2, ,-63, ,
1, ,-64, ,
2, ,-62, ,
1, ,-63, ,
1, ,-63, ,
2, ,-62, ,
1, ,-63, ,
1, ,-64, ,
2, ,-62, ,
1, ,-62, ,
1, ,-64, ,
2, ,-62, ,
2, ,-63, ,
1, ,-64, ,
2, ,-62, ,
1, ,-63, ,
1, ,-64, ,
2, ,-63, ,
2, ,-63, ,
1, ,-63, ,
2, ,-62, ,
1, ,-63, ,
1, ,-63, ,
2, ,-62, ,
2, ,-62, ,
1, ,-63, ,
2, ,-62, ,
1, ,-63, ,
1, ,-63, ,
2, ,-62, ,
2, ,-63, ,
1, ,-63, ,
2, ,-62, ,
1, ,-63, ,
1, ,-64, ,
2, ,-63, ,
2, ,-62, ,
1, ,-64, ,
2, ,-62, ,
1, ,-63, ,
1, ,-63, ,
2, ,-62, ,
2, ,-62, ,
1, ,-64, ,
2, ,-62, ,
1, ,-63, ,
1, ,-64, ,
2, ,-62, ,
1, ,-63, ,
1, ,-64, ,
2, ,-62, ,
1, ,-63, ,
1, ,-64, ,
2, ,-62, ,
1, ,-63, ,
1, ,-63, ,
2, ,-62, ,
1, ,-63, ,
1, ,-64, ,
2, ,-62, ,
1, ,-63, ,
1, ,-64, ,
2, ,-62, ,
1, ,-63, ,
1, ,-63, ,
2, ,-62, ,
1, ,-62, ,
1, ,-63, ,
2, ,-62, ,
1, ,-63, ,
1, ,-63, ,
2, ,-63, ,
1, ,-63, ,
1, ,-64, ,
2, ,-62, ,
1, ,-63, ,
1, ,-64, ,
2, ,-62, ,
2, ,-63, ,
1, ,-63, ,
2, ,-62, ,
1, ,-63, ,
1, ,-63, ,
2, ,-62, ,
1, ,-63, ,
1, ,-63, ,
2, ,-62, ,
1, ,-63, ,
1, ,-64, ,
2, ,-63, ,
1, ,-63, ,
