src/varyamp_1560/temp0002034.CSV

Format,1.0B,
Memory Length,10000,Memory Length,10000,
IntpDistance,0,IntpDistance,0,
Trigger Address,4999,Trigger Address,4999,
Trigger Level,1.040E+00,Trigger Level,1.040E+00,
Source,CH1,Source,CH2,
Vertical Units,V,Vertical Units,V,
Vertical Units Div,0,Vertical Units Div,0,
Vertical Units Extend Div,16,Vertical Units Extend Div,16,
Label,,Label,,
Probe Type,0,Probe Type,0,
Probe Ratio,1.000e+01,Probe Ratio,1.000e+00,
Vertical Scale,5.000e-01,Vertical Scale,1.000e+00,
Vertical Position,-1.820e+00,Vertical Position,0.000e+00,
Horizontal Units,S,Horizontal Units,S,
Horizontal Scale,2.000E-05,Horizontal Scale,2.000E-05,
Horizontal Position,0.000E+00,Horizontal Position,0.000E+00,
Horizontal Mode,Main,Horizontal Mode,Main,
SincET Mode,Real Time,SincET Mode,Real Time,
Sampling Period,2.000e-08,Sampling Period,2.000e-08,
Horizontal Old Scale,2.000E-05,Horizontal Old Scale,2.000E-05,
Horizontal Old Position,0.000E+00,Horizontal Old Position,0.000E+00,
Firmware,V1.23,Firmware,V1.23,
Mode,Fast,Mode,Fast,
Waveform Data,,Waveform Data,,
-1, ,-51, ,
1, ,-51, ,
1, ,-51, ,
-1, ,-51, ,
2, ,-52, ,
-1, ,-51, ,
-1, ,-51, ,
1, ,-52, ,
1, ,-51, ,
-1, ,-52, ,
2, ,-52, ,
-1, ,-51, ,
-1, ,-51, ,
1, ,-52, ,
1, ,-51, ,
-1, ,-51, ,
2, ,-52, ,
-1, ,-51, ,
-1, ,-52, ,
1, ,-51, ,
1, ,-51, ,
-1, ,-51, ,
1, ,-52, ,
-1, ,-51, ,
-1, ,-51, ,
1, ,-52, ,
1, ,-51, ,
-1, ,-51, ,
2, ,-52, ,
-1, ,-51, ,
-1, ,-51, ,
1, ,-51, ,
1, ,-51, ,
-1, ,-51, ,
2, ,-52, ,
-1, ,-51, ,
-1, ,-51, ,
1, ,-52, ,
1, ,-51, ,
-1, ,-51, ,
1, ,-52, ,
-1, ,-51, ,
-1, ,-52, ,
1, ,-51, ,
1, ,-52, ,
-1, ,-51, ,
1, ,-52, ,
-1, ,-51, ,
-1, ,-51, ,
1, ,-52, ,
1, ,-51, ,
-1, ,-51, ,
1, ,-52, ,
-1, ,-51, ,
-1, ,-52, ,
1, ,-51, ,
1, ,-51, ,
-1, ,-51, ,
1, ,-52, ,
-1, ,-51, ,
-1, ,-52, ,
1, ,-51, ,
1, ,-51, ,
-1, ,-51, ,
1, ,-52, ,
-1, ,-51, ,
-1, ,-52, ,
1, ,-51, ,
1, ,-51, ,
-1, ,-51, ,
1, ,-52, ,
-1, ,-51, ,
-1, ,-52, ,
1, ,-52, ,
1, ,-51, ,
-1, ,-51, ,
1, ,-52, ,
-1, ,-51, ,
-1, ,-52, ,
1, ,-51, ,
1, ,-51, ,
-1, ,-51, ,
1, ,-52, ,
-1, ,-51, ,
-1, ,-51, ,
1, ,-51, ,
1, ,-51, ,
-1, ,-51, ,
1, ,-52, ,
-1, ,-51, ,
-1, ,-51, ,
1, ,-52, ,
-1, ,-51, ,
-2, ,-51, ,
2, ,-52, ,
-1, ,-51, ,
-1, ,-52, ,
1, ,-52, ,
1, ,-51, ,
-1, ,-51, ,
1, ,-52, ,
-1, ,-51, ,
-1, ,-51, ,
1, ,-51, ,
1, ,-51, ,
-1, ,-51, ,
1, ,-52, ,
-1, ,-51, ,
-1, ,-51, ,
1, ,-52, ,
1, ,-51, ,
-1, ,-51, ,
1, ,-52, ,
-1, ,-51, ,
-1, ,-51, ,
1, ,-51, ,
1, ,-51, ,
-1, ,-51, ,
1, ,-52, ,
-1, ,-51, ,
-1, ,-51, ,
1, ,-52, ,
1, ,-51, ,
-1, ,-51, ,
1, ,-52, ,
-1, ,-51, ,
-1, ,-52, ,
1, ,-51, ,
1, ,-51, ,
-1, ,-51, ,
1, ,-52, ,
-1, ,-51, ,
-1, ,-51, ,
1, ,-51, ,
1, ,-51, ,
-1, ,-51, ,
1, ,-52, ,
-1, ,-51, ,
-1, ,-51, ,
1, ,-51, ,
1, ,-51, ,
-1, ,-51, ,
1, ,-52, ,
-1, ,-51, ,
-1, ,-51, ,
1, ,-52, ,
1, ,-51, ,
-1, ,-51, ,
1, ,-52, ,
-1, ,-51, ,
-1, ,-52, ,
1, ,-51, ,
1, ,-51, ,
-1, ,-52, ,
2, ,-52, ,
-1, ,-51, ,
-1, ,-51, ,
1, ,-52, ,
1, ,-51, ,
-1, ,-51, ,
1, ,-52, ,
-1, ,-51, ,
-1, ,-51, ,
1, ,-51, ,
1, ,-51, ,
-1, ,-51, ,
2, ,-52, ,
-1, ,-51, ,
-1, ,-51, ,
1, ,-52, ,
1, ,-51, ,
-1, ,-51, ,
1, ,-51, ,
-1, ,-52, ,
-1, ,-52, ,
1, ,-51, ,
-1, ,-51, ,
-1, ,-51, ,
2, ,-52, ,
-1, ,-51, ,
-1, ,-52, ,
1, ,-52, ,
1, ,-51, ,
-1, ,-51, ,
1, ,-52, ,
-1, ,-51, ,
-1, ,-51, ,
1, ,-51, ,
1, ,-51, ,
-1, ,-51, ,
1, ,-52, ,
-1, ,-51, ,
-1, ,-51, ,
1, ,-51, ,
1, ,-51, ,
-2, ,-51, ,
1, ,-52, ,
-1, ,-51, ,
-1, ,-51, ,
1, ,-51, ,
1, ,-51, ,
-1, ,-51, ,
1, ,-52, ,
-1, ,-51, ,
-1, ,-51, ,
1, ,-52, ,
1, ,-51, ,
-1, ,-51, ,
1, ,-51, ,
-1, ,-51, ,
-1, ,-51, ,
1, ,-51, ,
1, ,-51, ,
-1, ,-51, ,
1, ,-52, ,
-1, ,-51, ,
-1, ,-52, ,
1, ,-52, ,
1, ,-51, ,
-1, ,-51, ,
1, ,-51, ,
-1, ,-51, ,
-1, ,-51, ,
1, ,-51, ,
1, ,-51, ,
-1, ,-51, ,
1, ,-52, ,
-1, ,-51, ,
-1, ,-51, ,
1, ,-51, ,
1, ,-51, ,
-1, ,-51, ,
1, ,-52, ,
-1, ,-52, ,
-1, ,-52, ,
1, ,-51, ,
1, ,-51, ,
-1, ,-51, ,
1, ,-52, ,
-1, ,-51, ,
-1, ,-51, ,
1, ,-52, ,
1, ,-51, ,
-1, ,-51, ,
1, ,-52, ,
-1, ,-51, ,
-1, ,-52, ,
1, ,-51, ,
1, ,-51, ,
-1, ,-51, ,
2, ,-52, ,
-1, ,-51, ,
-1, ,-51, ,
1, ,-51, ,
1, ,-51, ,
-1, ,-51, ,
2, ,-52, ,
-1, ,-51, ,
-1, ,-51, ,
1, ,-51, ,
1, ,-51, ,
-1, ,-51, ,
1, ,-52, ,
-1, ,-51, ,
1, ,-51, ,
1, ,-51, ,
1, ,-51, ,
-1, ,-51, ,
2, ,-52, ,
-1, ,-51, ,
-1, ,-51, ,
1, ,-51, ,
1, ,-51, ,
-1, ,-51, ,
1, ,-52, ,
-1, ,-51, ,
-1, ,-51, ,
1, ,-51, ,
1, ,-51, ,
-1, ,-51, ,
2, ,-52, ,
-1, ,-51, ,
-1, ,-52, ,
1, ,-51, ,
1, ,-51, ,
-1, ,-51, ,
1, ,-52, ,
-1, ,-51, ,
-1, ,-51, ,
1, ,-51, ,
1, ,-51, ,
-1, ,-51, ,
1, ,-52, ,
-1, ,-51, ,
-1, ,-51, ,
1, ,-51, ,
1, ,-51, ,
-1, ,-51, ,
2, ,-52, ,
-1, ,-51, ,
-1, ,-52, ,
1, ,-51, ,
1, ,-51, ,
-1, ,-51, ,
2, ,-52, ,
-1, ,-51, ,
-1, ,-40, ,
1, ,-19, ,
1, ,-3, ,
-1, ,8, ,
2, ,17, ,
-1, ,23, ,
-1, ,28, ,
1, ,32, ,
1, ,35, ,
-1, ,37, ,
1, ,39, ,
-1, ,39, ,
-1, ,40, ,
1, ,41, ,
-1, ,41, ,
-1, ,41, ,
1, ,42, ,
-1, ,42, ,
-1, ,42, ,
1, ,42, ,
1, ,42, ,
-1, ,42, ,
1, ,42, ,
-1, ,42, ,
-1, ,42, ,
100, ,42, ,
60, ,42, ,
35, ,42, ,
25, ,42, ,
15, ,42, ,
10, ,42, ,
8, ,42, ,
5, ,42, ,
3, ,42, ,
3, ,42, ,
2, ,42, ,
2, ,42, ,
3, ,42, ,
3, ,42, ,
1, ,42, ,
3, ,42, ,
2, ,42, ,
2, ,42, ,
3, ,42, ,
2, ,42, ,
2, ,41, ,
3, ,42, ,
2, ,41, ,
2, ,42, ,
2, ,42, ,
2, ,42, ,
2, ,41, ,
3, ,42, ,
1, ,42, ,
2, ,42, ,
3, ,42, ,
2, ,42, ,
1, ,41, ,
3, ,42, ,
2, ,41, ,
2, ,42, ,
3, ,42, ,
2, ,42, ,
1, ,41, ,
3, ,42, ,
2, ,42, ,
2, ,42, ,
3, ,41, ,
2, ,42, ,
1, ,41, ,
3, ,42, ,
2, ,41, ,
2, ,42, ,
3, ,42, ,
2, ,42, ,
1, ,41, ,
3, ,42, ,
2, ,42, ,
2, ,41, ,
3, ,41, ,
3, ,41, ,
1, ,42, ,
3, ,42, ,
2, ,41, ,
2, ,42, ,
3, ,42, ,
2, ,42, ,
1, ,41, ,
3, ,42, ,
1, ,42, ,
2, ,42, ,
3, ,41, ,
2, ,42, ,
1, ,41, ,
3, ,42, ,
1, ,42, ,
2, ,42, ,
3, ,42, ,
2, ,42, ,
1, ,41, ,
3, ,42, ,
2, ,41, ,
2, ,42, ,
3, ,41, ,
2, ,41, ,
1, ,41, ,
2, ,42, ,
2, ,42, ,
2, ,42, ,
2, ,42, ,
2, ,42, ,
1, ,41, ,
2, ,42, ,
1, ,42, ,
2, ,41, ,
2, ,41, ,
2, ,42, ,
1, ,41, ,
3, ,42, ,
2, ,41, ,
2, ,41, ,
2, ,42, ,
2, ,42, ,
1, ,41, ,
2, ,42, ,
2, ,42, ,
2, ,42, ,
2, ,42, ,
2, ,41, ,
1, ,41, ,
3, ,42, ,
1, ,41, ,
1, ,41, ,
3, ,41, ,
2, ,42, ,
1, ,41, ,
2, ,42, ,
1, ,42, ,
2, ,41, ,
2, ,41, ,
2, ,42, ,
1, ,42, ,
2, ,42, ,
2, ,41, ,
2, ,41, ,
2, ,42, ,
2, ,41, ,
1, ,41, ,
2, ,41, ,
1, ,42, ,
1, ,41, ,
2, ,41, ,
2, ,42, ,
1, ,41, ,
2, ,38, ,
1, ,19, ,
1, ,1, ,
2, ,-13, ,
2, ,-22, ,
1, ,-30, ,
2, ,-36, ,
1, ,-40, ,
2, ,-43, ,
2, ,-45, ,
2, ,-47, ,
1, ,-47, ,
2, ,-50, ,
1, ,-51, ,
2, ,-51, ,
2, ,-51, ,
2, ,-52, ,
1, ,-52, ,
2, ,-52, ,
1, ,-52, ,
1, ,-52, ,
2, ,-52, ,
2, ,-52, ,
1, ,-52, ,
3, ,-53, ,
1, ,-52, ,
2, ,-52, ,
2, ,-52, ,
2, ,-52, ,
1, ,-52, ,
2, ,-52, ,
1, ,-52, ,
2, ,-52, ,
2, ,-52, ,
2, ,-52, ,
1, ,-52, ,
2, ,-52, ,
1, ,-52, ,
1, ,-52, ,
2, ,-52, ,
2, ,-52, ,
1, ,-52, ,
2, ,-52, ,
1, ,-51, ,
1, ,-52, ,
2, ,-52, ,
2, ,-51, ,
1, ,-51, ,
2, ,-52, ,
1, ,-51, ,
1, ,-52, ,
2, ,-51, ,
2, ,-51, ,
1, ,-52, ,
2, ,-52, ,
1, ,-52, ,
1, ,-52, ,
2, ,-52, ,
2, ,-51, ,
1, ,-51, ,
2, ,-52, ,
1, ,-52, ,
1, ,-52, ,
2, ,-52, ,
2, ,-52, ,
1, ,-51, ,
2, ,-52, ,
1, ,-51, ,
2, ,-51, ,
2, ,-52, ,
1, ,-52, ,
1, ,-51, ,
2, ,-52, ,
1, ,-52, ,
2, ,-52, ,
2, ,-52, ,
2, ,-52, ,
1, ,-51, ,
2, ,-52, ,
1, ,-52, ,
1, ,-51, ,
2, ,-52, ,
2, ,-51, ,
1, ,-51, ,
2, ,-52, ,
1, ,-52, ,
1, ,-51, ,
2, ,-51, ,
2, ,-51, ,
1, ,-51, ,
2, ,-52, ,
1, ,-51, ,
2, ,-51, ,
2, ,-52, ,
1, ,-51, ,
1, ,-52, ,
2, ,-52, ,
1, ,-52, ,
1, ,-52, ,
2, ,-51, ,
1, ,-51, ,
1, ,-51, ,
2, ,-52, ,
1, ,-51, ,
1, ,-51, ,
2, ,-52, ,
1, ,-51, ,
-1, ,-51, ,
2, ,-52, ,
1, ,-52, ,
1, ,-52, ,
2, ,-52, ,
2, ,-51, ,
1, ,-51, ,
2, ,-52, ,
1, ,-51, ,
1, ,-51, ,
2, ,-52, ,
1, ,-51, ,
-1, ,-51, ,
2, ,-52, ,
1, ,-51, ,
1, ,-52, ,
2, ,-51, ,
2, ,-51, ,
1, ,-51, ,
2, ,-52, ,
1, ,-52, ,
1, ,-52, ,
2, ,-52, ,
1, ,-51, ,
-1, ,-51, ,
2, ,-52, ,
1, ,-51, ,
1, ,-52, ,
2, ,-51, ,
1, ,-51, ,
1, ,-51, ,
2, ,-52, ,
1, ,-51, ,
1, ,-52, ,
2, ,-52, ,
1, ,-51, ,
-1, ,-51, ,
2, ,-52, ,
1, ,-51, ,
1, ,-52, ,
2, ,-51, ,
2, ,-51, ,
1, ,-51, ,
2, ,-52, ,
1, ,-51, ,
1, ,-51, ,
2, ,-52, ,
2, ,-51, ,
1, ,-51, ,
2, ,-52, ,
1, ,-52, ,
1, ,-52, ,
2, ,-51, ,
1, ,-51, ,
1, ,-51, ,
2, ,-52, ,
1, ,-51, ,
1, ,-51, ,
2, ,-52, ,
1, ,-51, ,
-1, ,-51, ,
2, ,-52, ,
1, ,-51, ,
1, ,-52, ,
2, ,-51, ,
1, ,-51, ,
1, ,-51, ,
2, ,-52, ,
1, ,-51, ,
1, ,-51, ,
2, ,-52, ,
1, ,-51, ,
1, ,-51, ,
2, ,-52, ,
1, ,-51, ,
1, ,-52, ,
2, ,-52, ,
1, ,-51, ,
-1, ,-51, ,
2, ,-52, ,
1, ,-51, ,
1, ,-52, ,
2, ,-52, ,
2, ,-51, ,
-1, ,-51, ,
2, ,-52, ,
1, ,-52, ,
1, ,-52, ,
2, ,-52, ,
1, ,-51, ,
1, ,-51, ,
2, ,-52, ,
1, ,-51, ,
1, ,-51, ,
2, ,-52, ,
1, ,-51, ,
-1, ,-51, ,
2, ,-51, ,
1, ,-52, ,
1, ,-52, ,
1, ,-52, ,
1, ,-51, ,
-1, ,-51, ,
2, ,-52, ,
1, ,-51, ,
1, ,-51, ,
2, ,-52, ,
2, ,-51, ,
-1, ,-51, ,
2, ,-51, ,
1, ,-51, ,
1, ,-52, ,
2, ,-51, ,
1, ,-51, ,
-1, ,-51, ,
2, ,-52, ,
1, ,-51, ,
1, ,-51, ,
1, ,-52, ,
1, ,-51, ,
-1, ,-51, ,
2, ,-52, ,
1, ,-51, ,
1, ,-52, ,
2, ,-52, ,
2, ,-51, ,
1, ,-51, ,
2, ,-52, ,
1, ,-51, ,
1, ,-51, ,
2, ,-51, ,
1, ,-51, ,
-1, ,-51, ,
2, ,-52, ,
1, ,-51, ,
1, ,-51, ,
1, ,-51, ,
1, ,-51, ,
-1, ,-51, ,
2, ,-52, ,
1, ,-51, ,
1, ,-51, ,
2, ,-52, ,
1, ,-51, ,
-1, ,-51, ,
2, ,-52, ,
1, ,-51, ,
1, ,-52, ,
2, ,-51, ,
1, ,-51, ,
-1, ,-51, ,
2, ,-52, ,
1, ,-51, ,
1, ,-51, ,
2, ,-51, ,
1, ,-51, ,
-1, ,-51, ,
2, ,-52, ,
1, ,-51, ,
1, ,-52, ,
2, ,-51, ,
1, ,-51, ,
-1, ,-51, ,
2, ,-52, ,
1, ,-51, ,
1, ,-51, ,
2, ,-52, ,
1, ,-51, ,
-1, ,-51, ,
2, ,-52, ,
1, ,-51, ,
1, ,-51, ,
2, ,-51, ,
1, ,-51, ,
-1, ,-51, ,
2, ,-52, ,
1, ,-51, ,
1, ,-51, ,
2, ,-51, ,
1, ,-51, ,
-1, ,-51, ,
2, ,-52, ,
1, ,-51, ,
1, ,-52, ,
1, ,-51, ,
1, ,-51, ,
-1, ,-51, ,
2, ,-52, ,
1, ,-51, ,
1, ,-51, ,
1, ,-52, ,
1, ,-51, ,
-1, ,-51, ,
2, ,-52, ,
1, ,-51, ,
1, ,-52, ,
2, ,-51, ,
1, ,-51, ,
-1, ,-51, ,
2, ,-52, ,
1, ,-51, ,
1, ,-51, ,
2, ,-51, ,
1, ,-51, ,
-1, ,-51, ,
2, ,-52, ,
1, ,-51, ,
1, ,-51, ,
1, ,-51, ,
1, ,-51, ,
-1, ,-51, ,
2, ,-52, ,
1, ,-51, ,
1, ,-52, ,
1, ,-52, ,
1, ,-51, ,
-1, ,-51, ,
2, ,-52, ,
1, ,-51, ,
1, ,-51, ,
1, ,-51, ,
2, ,-51, ,
-1, ,-51, ,
2, ,-52, ,
1, ,-51, ,
1, ,-51, ,
2, ,-52, ,
1, ,-51, ,
-1, ,-51, ,
2, ,-52, ,
1, ,-51, ,
1, ,-51, ,
1, ,-51, ,
1, ,-51, ,
-1, ,-51, ,
2, ,-52, ,
1, ,-51, ,
1, ,-51, ,
2, ,-52, ,
1, ,-51, ,
-1, ,-51, ,
2, ,-52, ,
-1, ,-51, ,
1, ,-51, ,
1, ,-51, ,
1, ,-51, ,
-1, ,-51, ,
2, ,-52, ,
1, ,-51, ,
1, ,-51, ,
1, ,-51, ,
1, ,-51, ,
-1, ,-51, ,
2, ,-52, ,
1, ,-51, ,
1, ,-52, ,
2, ,-51, ,
1, ,-51, ,
-1, ,-51, ,
2, ,-52, ,
1, ,-51, ,
1, ,-51, ,
1, ,-51, ,
1, ,-51, ,
-1, ,-51, ,
2, ,-52, ,
-1, ,-51, ,
1, ,-51, ,
1, ,-51, ,
1, ,-51, ,
-1, ,-51, ,
2, ,-52, ,
1, ,-51, ,
1, ,-51, ,
1, ,-52, ,
1, ,-51, ,
-1, ,-51, ,
2, ,-52, ,
1, ,-51, ,
1, ,-51, ,
1, ,-51, ,
1, ,-51, ,
-1, ,-51, ,
2, ,-52, ,
1, ,-51, ,
1, ,-51, ,
1, ,-52, ,
1, ,-51, ,
-1, ,-51, ,
2, ,-52, ,
1, ,-51, ,
1, ,-51, ,
1, ,-52, ,
1, ,-51, ,
-1, ,-52, ,
2, ,-52, ,
-1, ,-51, ,
1, ,-52, ,
1, ,-52, ,
1, ,-51, ,
-1, ,-51, ,
2, ,-52, ,
-1, ,-51, ,
1, ,-51, ,
1, ,-51, ,
1, ,-51, ,
-1, ,-51, ,
2, ,-52, ,
-1, ,-51, ,
-1, ,-51, ,
2, ,-52, ,
1, ,-51, ,
-1, ,-51, ,
2, ,-51, ,
1, ,-51, ,
1, ,-51, ,
1, ,-51, ,
1, ,-51, ,
-1, ,-51, ,
1, ,-51, ,
77, ,-51, ,
48, ,-51, ,
30, ,-52, ,
20, ,-52, ,
11, ,-51, ,
10, ,-52, ,
6, ,-51, ,
3, ,-52, ,
5, ,-52, ,
3, ,-51, ,
2, ,-51, ,
3, ,-52, ,
2, ,-51, ,
2, ,-51, ,
2, ,-52, ,
2, ,-51, ,
2, ,-51, ,
3, ,-52, ,
2, ,-51, ,
2, ,-52, ,
3, ,-52, ,
3, ,-51, ,
1, ,-51, ,
3, ,-52, ,
2, ,-51, ,
2, ,-51, ,
3, ,-51, ,
3, ,-51, ,
1, ,-51, ,
3, ,-52, ,
2, ,-51, ,
2, ,-51, ,
3, ,-51, ,
2, ,-51, ,
1, ,-51, ,
3, ,-52, ,
2, ,-51, ,
2, ,-51, ,
3, ,-52, ,
2, ,-51, ,
1, ,-51, ,
3, ,-52, ,
2, ,-51, ,
2, ,-52, ,
3, ,-51, ,
2, ,-51, ,
1, ,-52, ,
3, ,-52, ,
2, ,-51, ,
2, ,-51, ,
2, ,-52, ,
2, ,-51, ,
1, ,-51, ,
3, ,-52, ,
2, ,-51, ,
2, ,-52, ,
3, ,-51, ,
2, ,-51, ,
1, ,-52, ,
3, ,-52, ,
1, ,-51, ,
1, ,-51, ,
2, ,-51, ,
2, ,-51, ,
1, ,-51, ,
3, ,-52, ,
2, ,-51, ,
2, ,-52, ,
2, ,-51, ,
2, ,-51, ,
1, ,-51, ,
3, ,-52, ,
2, ,-51, ,
2, ,-51, ,
3, ,-51, ,
2, ,-51, ,
1, ,-51, ,
3, ,-52, ,
2, ,-51, ,
2, ,-52, ,
2, ,-51, ,
2, ,-51, ,
1, ,-51, ,
3, ,-52, ,
1, ,-51, ,
2, ,-51, ,
2, ,-51, ,
2, ,-51, ,
1, ,-51, ,
3, ,-52, ,
2, ,-51, ,
2, ,-51, ,
2, ,-51, ,
2, ,-51, ,
1, ,-52, ,
3, ,-52, ,
2, ,-51, ,
2, ,-51, ,
2, ,-52, ,
2, ,-51, ,
1, ,-51, ,
3, ,-52, ,
2, ,-51, ,
2, ,-51, ,
2, ,-51, ,
2, ,-51, ,
1, ,-51, ,
3, ,-52, ,
2, ,-51, ,
2, ,-51, ,
2, ,-51, ,
2, ,-51, ,
1, ,-51, ,
3, ,-51, ,
1, ,-51, ,
2, ,-51, ,
2, ,-51, ,
2, ,-51, ,
1, ,-51, ,
2, ,-52, ,
1, ,-51, ,
2, ,-51, ,
2, ,-51, ,
2, ,-51, ,
1, ,-51, ,
2, ,-52, ,
1, ,-51, ,
2, ,-51, ,
2, ,-51, ,
2, ,-51, ,
1, ,-51, ,
3, ,-52, ,
1, ,-51, ,
2, ,-51, ,
2, ,-51, ,
2, ,-51, ,
1, ,-51, ,
2, ,-52, ,
1, ,-51, ,
1, ,-51, ,
2, ,-51, ,
2, ,-51, ,
1, ,-51, ,
3, ,-52, ,
1, ,-51, ,
2, ,-51, ,
2, ,-52, ,
2, ,-51, ,
1, ,-51, ,
2, ,-52, ,
1, ,-52, ,
1, ,-52, ,
2, ,-51, ,
2, ,-51, ,
1, ,-51, ,
2, ,-52, ,
1, ,-51, ,
2, ,-52, ,
2, ,-51, ,
2, ,-51, ,
1, ,-51, ,
2, ,-52, ,
1, ,-51, ,
1, ,-52, ,
2, ,-51, ,
2, ,-51, ,
1, ,-52, ,
2, ,-52, ,
1, ,-51, ,
1, ,-51, ,
2, ,-52, ,
2, ,-51, ,
1, ,-51, ,
2, ,-52, ,
1, ,-51, ,
2, ,-52, ,
2, ,-51, ,
2, ,-51, ,
1, ,-51, ,
2, ,-52, ,
1, ,-51, ,
2, ,-51, ,
2, ,-52, ,
2, ,-51, ,
1, ,-51, ,
2, ,-52, ,
1, ,-51, ,
1, ,-52, ,
2, ,-51, ,
2, ,-51, ,
1, ,-51, ,
2, ,-52, ,
1, ,-51, ,
1, ,-52, ,
2, ,-52, ,
2, ,-51, ,
1, ,-51, ,
2, ,-52, ,
1, ,-51, ,
2, ,-51, ,
2, ,-45, ,
2, ,-25, ,
1, ,-8, ,
2, ,5, ,
1, ,15, ,
1, ,22, ,
2, ,27, ,
2, ,32, ,
1, ,34, ,
2, ,37, ,
2, ,38, ,
2, ,39, ,
2, ,40, ,
1, ,41, ,
1, ,41, ,
2, ,42, ,
1, ,42, ,
1, ,42, ,
2, ,42, ,
2, ,42, ,
1, ,42, ,
2, ,43, ,
1, ,42, ,
1, ,42, ,
2, ,42, ,
2, ,42, ,
1, ,42, ,
2, ,43, ,
1, ,42, ,
1, ,42, ,
2, ,42, ,
1, ,42, ,
1, ,42, ,
2, ,42, ,
1, ,42, ,
1, ,42, ,
2, ,42, ,
1, ,42, ,
-1, ,41, ,
2, ,42, ,
1, ,42, ,
1, ,42, ,
2, ,42, ,
1, ,42, ,
-1, ,42, ,
2, ,42, ,
1, ,42, ,
1, ,42, ,
2, ,42, ,
2, ,42, ,
1, ,41, ,
2, ,42, ,
1, ,42, ,
1, ,41, ,
2, ,42, ,
1, ,42, ,
1, ,41, ,
2, ,42, ,
1, ,41, ,
1, ,41, ,
2, ,41, ,
1, ,42, ,
1, ,41, ,
2, ,42, ,
1, ,41, ,
1, ,42, ,
2, ,42, ,
1, ,42, ,
1, ,41, ,
2, ,42, ,
1, ,41, ,
1, ,41, ,
2, ,42, ,
1, ,42, ,
1, ,41, ,
2, ,42, ,
1, ,42, ,
1, ,42, ,
2, ,42, ,
1, ,42, ,
-1, ,41, ,
2, ,42, ,
1, ,42, ,
1, ,41, ,
2, ,42, ,
1, ,42, ,
1, ,41, ,
2, ,42, ,
1, ,42, ,
1, ,42, ,
2, ,42, ,
1, ,42, ,
1, ,41, ,
2, ,42, ,
1, ,41, ,
1, ,42, ,
2, ,42, ,
1, ,42, ,
1, ,42, ,
2, ,42, ,
1, ,42, ,
1, ,42, ,
2, ,41, ,
1, ,42, ,
-1, ,41, ,
2, ,42, ,
1, ,41, ,
1, ,41, ,
2, ,42, ,
1, ,42, ,
-1, ,41, ,
2, ,42, ,
1, ,41, ,
1, ,42, ,
2, ,41, ,
1, ,42, ,
-1, ,42, ,
2, ,42, ,
1, ,42, ,
1, ,41, ,
2, ,41, ,
1, ,42, ,
1, ,41, ,
2, ,42, ,
1, ,42, ,
1, ,42, ,
2, ,41, ,
1, ,42, ,
-1, ,41, ,
2, ,42, ,
1, ,41, ,
1, ,41, ,
2, ,42, ,
1, ,42, ,
-1, ,41, ,
2, ,42, ,
1, ,42, ,
1, ,42, ,
2, ,41, ,
1, ,42, ,
1, ,41, ,
2, ,42, ,
1, ,42, ,
1, ,41, ,
2, ,42, ,
1, ,42, ,
-1, ,41, ,
2, ,42, ,
1, ,42, ,
1, ,42, ,
2, ,41, ,
1, ,42, ,
-1, ,41, ,
2, ,42, ,
1, ,40, ,
1, ,25, ,
1, ,6, ,
1, ,-8, ,
-1, ,-20, ,
2, ,-28, ,
1, ,-34, ,
1, ,-39, ,
2, ,-42, ,
1, ,-44, ,
-1, ,-46, ,
2, ,-49, ,
1, ,-50, ,
1, ,-50, ,
2, ,-51, ,
1, ,-51, ,
-1, ,-51, ,
2, ,-52, ,
1, ,-51, ,
1, ,-52, ,
2, ,-52, ,
1, ,-52, ,
-1, ,-52, ,
2, ,-53, ,
1, ,-52, ,
1, ,-52, ,
2, ,-52, ,
1, ,-52, ,
-1, ,-52, ,
2, ,-53, ,
1, ,-52, ,
1, ,-52, ,
2, ,-52, ,
1, ,-52, ,
-1, ,-52, ,
2, ,-52, ,
1, ,-52, ,
1, ,-52, ,
2, ,-52, ,
1, ,-52, ,
-1, ,-52, ,
2, ,-52, ,
1, ,-52, ,
1, ,-52, ,
1, ,-52, ,
1, ,-52, ,
-1, ,-51, ,
2, ,-52, ,
1, ,-51, ,
1, ,-51, ,
1, ,-51, ,
1, ,-52, ,
-1, ,-51, ,
2, ,-52, ,
1, ,-51, ,
1, ,-52, ,
2, ,-52, ,
1, ,-52, ,
-1, ,-51, ,
2, ,-52, ,
1, ,-51, ,
1, ,-51, ,
1, ,-51, ,
1, ,-51, ,
-1, ,-51, ,
2, ,-52, ,
1, ,-51, ,
1, ,-51, ,
1, ,-52, ,
1, ,-52, ,
-1, ,-51, ,
2, ,-52, ,
1, ,-51, ,
1, ,-52, ,
1, ,-51, ,
1, ,-52, ,
-1, ,-51, ,
2, ,-52, ,
1, ,-51, ,
1, ,-52, ,
1, ,-52, ,
1, ,-51, ,
-1, ,-51, ,
2, ,-52, ,
1, ,-52, ,
1, ,-51, ,
1, ,-51, ,
2, ,-51, ,
-1, ,-51, ,
2, ,-52, ,
1, ,-51, ,
1, ,-52, ,
2, ,-51, ,
2, ,-51, ,
-1, ,-51, ,
2, ,-52, ,
1, ,-51, ,
1, ,-52, ,
2, ,-51, ,
1, ,-51, ,
-1, ,-51, ,
2, ,-52, ,
-1, ,-51, ,
1, ,-51, ,
1, ,-51, ,
1, ,-51, ,
-1, ,-51, ,
2, ,-52, ,
1, ,-51, ,
1, ,-51, ,
2, ,-51, ,
1, ,-51, ,
-1, ,-52, ,
2, ,-52, ,
-1, ,-51, ,
1, ,-51, ,
1, ,-52, ,
1, ,-51, ,
-1, ,-51, ,
2, ,-52, ,
1, ,-51, ,
1, ,-51, ,
1, ,-51, ,
1, ,-52, ,
-1, ,-51, ,
2, ,-52, ,
1, ,-51, ,
1, ,-52, ,
1, ,-52, ,
1, ,-51, ,
-1, ,-51, ,
2, ,-52, ,
1, ,-51, ,
1, ,-51, ,
1, ,-51, ,
1, ,-51, ,
-1, ,-51, ,
2, ,-52, ,
1, ,-51, ,
1, ,-51, ,
2, ,-52, ,
1, ,-51, ,
-1, ,-51, ,
2, ,-52, ,
1, ,-51, ,
1, ,-52, ,
1, ,-51, ,
1, ,-51, ,
-1, ,-51, ,
2, ,-52, ,
1, ,-51, ,
1, ,-51, ,
1, ,-52, ,
1, ,-52, ,
-1, ,-51, ,
2, ,-52, ,
-1, ,-51, ,
1, ,-52, ,
2, ,-51, ,
1, ,-51, ,
-1, ,-51, ,
2, ,-52, ,
-1, ,-52, ,
1, ,-51, ,
1, ,-52, ,
1, ,-51, ,
-1, ,-51, ,
2, ,-52, ,
1, ,-52, ,
-1, ,-51, ,
1, ,-51, ,
1, ,-51, ,
-1, ,-51, ,
2, ,-52, ,
-1, ,-51, ,
1, ,-52, ,
1, ,-52, ,
1, ,-52, ,
-1, ,-51, ,
2, ,-52, ,
1, ,-51, ,
1, ,-52, ,
1, ,-52, ,
1, ,-51, ,
-1, ,-51, ,
2, ,-52, ,
-1, ,-51, ,
1, ,-51, ,
1, ,-51, ,
1, ,-51, ,
-1, ,-51, ,
2, ,-52, ,
-1, ,-51, ,
1, ,-51, ,
1, ,-51, ,
1, ,-52, ,
-1, ,-51, ,
2, ,-52, ,
1, ,-51, ,
-1, ,-51, ,
1, ,-51, ,
1, ,-51, ,
-1, ,-51, ,
2, ,-52, ,
-1, ,-51, ,
1, ,-52, ,
1, ,-51, ,
1, ,-51, ,
-1, ,-51, ,
2, ,-52, ,
1, ,-51, ,
1, ,-51, ,
1, ,-51, ,
1, ,-51, ,
-1, ,-51, ,
2, ,-52, ,
-1, ,-51, ,
1, ,-51, ,
1, ,-51, ,
1, ,-51, ,
-1, ,-51, ,
2, ,-52, ,
-1, ,-51, ,
1, ,-51, ,
1, ,-52, ,
1, ,-51, ,
-1, ,-51, ,
2, ,-52, ,
1, ,-51, ,
1, ,-52, ,
1, ,-51, ,
1, ,-51, ,
-1, ,-51, ,
2, ,-52, ,
1, ,-51, ,
1, ,-51, ,
1, ,-51, ,
1, ,-51, ,
-1, ,-51, ,
2, ,-52, ,
-1, ,-51, ,
1, ,-52, ,
1, ,-52, ,
1, ,-51, ,
-1, ,-51, ,
2, ,-52, ,
-1, ,-51, ,
1, ,-52, ,
1, ,-52, ,
1, ,-51, ,
-1, ,-51, ,
2, ,-52, ,
1, ,-51, ,
1, ,-52, ,
1, ,-52, ,
1, ,-51, ,
-1, ,-51, ,
2, ,-52, ,
-1, ,-51, ,
1, ,-51, ,
1, ,-52, ,
1, ,-51, ,
-1, ,-51, ,
2, ,-52, ,
-1, ,-51, ,
-1, ,-52, ,
1, ,-52, ,
1, ,-51, ,
-1, ,-51, ,
2, ,-52, ,
-1, ,-51, ,
1, ,-52, ,
1, ,-52, ,
1, ,-51, ,
-1, ,-51, ,
2, ,-52, ,
-1, ,-51, ,
-1, ,-51, ,
1, ,-51, ,
1, ,-51, ,
-1, ,-51, ,
2, ,-52, ,
-1, ,-51, ,
1, ,-52, ,
1, ,-52, ,
1, ,-51, ,
-1, ,-51, ,
2, ,-52, ,
-1, ,-51, ,
1, ,-52, ,
1, ,-51, ,
1, ,-52, ,
-1, ,-51, ,
2, ,-52, ,
-1, ,-52, ,
-1, ,-52, ,
1, ,-52, ,
1, ,-51, ,
-1, ,-51, ,
2, ,-52, ,
-1, ,-51, ,
-1, ,-51, ,
1, ,-51, ,
1, ,-52, ,
-1, ,-51, ,
1, ,-52, ,
-1, ,-51, ,
1, ,-52, ,
1, ,-51, ,
1, ,-51, ,
-1, ,-51, ,
2, ,-52, ,
-1, ,-51, ,
-1, ,-52, ,
1, ,-51, ,
1, ,-51, ,
-1, ,-51, ,
2, ,-52, ,
-1, ,-51, ,
-1, ,-51, ,
1, ,-51, ,
1, ,-51, ,
-1, ,-51, ,
2, ,-52, ,
-1, ,-51, ,
1, ,-52, ,
1, ,-52, ,
1, ,-51, ,
-1, ,-51, ,
2, ,-52, ,
-1, ,-51, ,
-1, ,-51, ,
1, ,-52, ,
1, ,-51, ,
-1, ,-51, ,
2, ,-52, ,
-1, ,-51, ,
1, ,-52, ,
1, ,-51, ,
1, ,-51, ,
-1, ,-51, ,
2, ,-52, ,
-1, ,-51, ,
-1, ,-51, ,
1, ,-51, ,
1, ,-51, ,
-1, ,-51, ,
2, ,-52, ,
1, ,-51, ,
-1, ,-51, ,
1, ,-51, ,
1, ,-51, ,
-1, ,-51, ,
2, ,-52, ,
-1, ,-51, ,
1, ,-52, ,
1, ,-52, ,
1, ,-51, ,
-1, ,-51, ,
2, ,-52, ,
-1, ,-51, ,
-1, ,-51, ,
1, ,-51, ,
1, ,-51, ,
-1, ,-51, ,
2, ,-52, ,
-1, ,-51, ,
-1, ,-51, ,
1, ,-52, ,
1, ,-51, ,
-1, ,-51, ,
2, ,-52, ,
-1, ,-51, ,
-1, ,-52, ,
1, ,-51, ,
1, ,-51, ,
-1, ,-51, ,
2, ,-52, ,
-1, ,-51, ,
-1, ,-52, ,
1, ,-52, ,
1, ,-51, ,
-1, ,-51, ,
1, ,-52, ,
-1, ,-52, ,
1, ,-51, ,
1, ,-51, ,
1, ,-51, ,
-1, ,-51, ,
2, ,-52, ,
-1, ,-51, ,
-1, ,-52, ,
1, ,-51, ,
1, ,-51, ,
-1, ,-51, ,
2, ,-51, ,
-1, ,-51, ,
1, ,-51, ,
1, ,-51, ,
1, ,-51, ,
-1, ,-51, ,
2, ,-52, ,
-1, ,-51, ,
-1, ,-51, ,
1, ,-52, ,
1, ,-51, ,
-1, ,-51, ,
2, ,-51, ,
-1, ,-52, ,
-1, ,-51, ,
1, ,-52, ,
1, ,-51, ,
-1, ,-51, ,
1, ,-52, ,
-1, ,-51, ,
1, ,-51, ,
1, ,-52, ,
1, ,-51, ,
-1, ,-51, ,
2, ,-52, ,
-1, ,-51, ,
-1, ,-51, ,
1, ,-51, ,
1, ,-51, ,
-2, ,-51, ,
1, ,-52, ,
-1, ,-51, ,
-1, ,-51, ,
1, ,-52, ,
1, ,-51, ,
-1, ,-51, ,
1, ,-51, ,
-1, ,-51, ,
-1, ,-52, ,
1, ,-51, ,
1, ,-51, ,
-1, ,-51, ,
1, ,-52, ,
-1, ,-51, ,
-1, ,-51, ,
1, ,-52, ,
1, ,-51, ,
-1, ,-51, ,
2, ,-52, ,
-1, ,-51, ,
-1, ,-51, ,
1, ,-52, ,
1, ,-51, ,
-1, ,-51, ,
1, ,-52, ,
-1, ,-51, ,
-1, ,-52, ,
1, ,-52, ,
1, ,-51, ,
-1, ,-51, ,
1, ,-52, ,
-1, ,-51, ,
1, ,-52, ,
1, ,-51, ,
1, ,-51, ,
-1, ,-51, ,
1, ,-52, ,
-1, ,-51, ,
-1, ,-51, ,
1, ,-52, ,
1, ,-51, ,
-1, ,-51, ,
2, ,-52, ,
-1, ,-51, ,
-1, ,-52, ,
1, ,-51, ,
1, ,-51, ,
-1, ,-51, ,
1, ,-52, ,
-1, ,-52, ,
