src/varyamp_1560/temp0003680.CSV

Format,1.0B,
Memory Length,10000,Memory Length,10000,
IntpDistance,0,IntpDistance,0,
Trigger Address,4999,Trigger Address,4999,
Trigger Level,1.040E+00,Trigger Level,1.040E+00,
Source,CH1,Source,CH2,
Vertical Units,V,Vertical Units,V,
Vertical Units Div,0,Vertical Units Div,0,
Vertical Units Extend Div,16,Vertical Units Extend Div,16,
Label,,Label,,
Probe Type,0,Probe Type,0,
Probe Ratio,1.000e+01,Probe Ratio,1.000e+00,
Vertical Scale,5.000e-01,Vertical Scale,1.000e+00,
Vertical Position,-1.820e+00,Vertical Position,0.000e+00,
Horizontal Units,S,Horizontal Units,S,
Horizontal Scale,2.000E-05,Horizontal Scale,2.000E-05,
Horizontal Position,0.000E+00,Horizontal Position,0.000E+00,
Horizontal Mode,Main,Horizontal Mode,Main,
SincET Mode,Real Time,SincET Mode,Real Time,
Sampling Period,2.000e-08,Sampling Period,2.000e-08,
Horizontal Old Scale,2.000E-05,Horizontal Old Scale,2.000E-05,
Horizontal Old Position,0.000E+00,Horizontal Old Position,0.000E+00,
Firmware,V1.23,Firmware,V1.23,
Mode,Fast,Mode,Fast,
Waveform Data,,Waveform Data,,
1, ,-43, ,
-1, ,-43, ,
1, ,-43, ,
-1, ,-43, ,
-1, ,-43, ,
1, ,-43, ,
1, ,-44, ,
-1, ,-43, ,
1, ,-44, ,
-1, ,-43, ,
1, ,-43, ,
1, ,-43, ,
1, ,-43, ,
-1, ,-43, ,
1, ,-43, ,
-1, ,-43, ,
1, ,-43, ,
1, ,-43, ,
1, ,-43, ,
-1, ,-43, ,
1, ,-43, ,
-1, ,-43, ,
-1, ,-43, ,
1, ,-43, ,
1, ,-43, ,
-1, ,-43, ,
1, ,-43, ,
-1, ,-43, ,
-1, ,-43, ,
1, ,-43, ,
1, ,-44, ,
-1, ,-43, ,
2, ,-43, ,
-1, ,-43, ,
-1, ,-43, ,
1, ,-43, ,
1, ,-43, ,
-1, ,-43, ,
1, ,-43, ,
-1, ,-43, ,
-1, ,-44, ,
1, ,-43, ,
1, ,-44, ,
-1, ,-43, ,
1, ,-43, ,
1, ,-44, ,
-1, ,-43, ,
1, ,-43, ,
1, ,-43, ,
-1, ,-43, ,
1, ,-43, ,
-1, ,-43, ,
-1, ,-43, ,
1, ,-43, ,
2, ,-44, ,
-1, ,-43, ,
1, ,-43, ,
-1, ,-44, ,
-1, ,-43, ,
1, ,-43, ,
1, ,-43, ,
-1, ,-43, ,
1, ,-43, ,
-1, ,-43, ,
-1, ,-43, ,
1, ,-43, ,
1, ,-43, ,
-1, ,-43, ,
1, ,-43, ,
-1, ,-43, ,
-1, ,-43, ,
1, ,-43, ,
1, ,-43, ,
-1, ,-43, ,
1, ,-43, ,
-1, ,-43, ,
-1, ,-43, ,
1, ,-43, ,
1, ,-44, ,
-1, ,-43, ,
1, ,-43, ,
-1, ,-43, ,
-1, ,-43, ,
1, ,-43, ,
1, ,-44, ,
-1, ,-43, ,
1, ,-43, ,
-1, ,-43, ,
-1, ,-43, ,
1, ,-43, ,
1, ,-44, ,
-1, ,-43, ,
1, ,-43, ,
-1, ,-43, ,
-1, ,-43, ,
1, ,-43, ,
1, ,-43, ,
-1, ,-43, ,
1, ,-44, ,
-1, ,-43, ,
-1, ,-43, ,
1, ,-43, ,
1, ,-43, ,
-1, ,-43, ,
1, ,-43, ,
-1, ,-43, ,
-1, ,-43, ,
1, ,-43, ,
1, ,-44, ,
-1, ,-44, ,
1, ,-43, ,
-1, ,-43, ,
-1, ,-43, ,
1, ,-43, ,
1, ,-44, ,
-1, ,-43, ,
1, ,-43, ,
-1, ,-44, ,
-1, ,-43, ,
1, ,-43, ,
1, ,-43, ,
-1, ,-44, ,
1, ,-43, ,
-1, ,-44, ,
-1, ,-43, ,
1, ,-43, ,
1, ,-43, ,
-1, ,-43, ,
1, ,-43, ,
-1, ,-44, ,
-1, ,-43, ,
1, ,-43, ,
1, ,-43, ,
-1, ,-43, ,
1, ,-44, ,
-1, ,-43, ,
-1, ,-43, ,
1, ,-43, ,
1, ,-44, ,
-1, ,-43, ,
1, ,-43, ,
-1, ,-44, ,
1, ,-43, ,
1, ,-43, ,
1, ,-43, ,
-1, ,-43, ,
1, ,-43, ,
-1, ,-43, ,
-1, ,-43, ,
1, ,-43, ,
1, ,-44, ,
-1, ,-43, ,
2, ,-43, ,
-1, ,-43, ,
1, ,-43, ,
1, ,-43, ,
1, ,-43, ,
-1, ,-43, ,
1, ,-44, ,
1, ,-43, ,
-1, ,-43, ,
1, ,-43, ,
1, ,-44, ,
-1, ,-43, ,
1, ,-43, ,
-1, ,-43, ,
1, ,-43, ,
1, ,-43, ,
1, ,-43, ,
-1, ,-43, ,
1, ,-43, ,
-1, ,-43, ,
-1, ,-43, ,
1, ,-43, ,
1, ,-43, ,
-1, ,-43, ,
1, ,-43, ,
-1, ,-43, ,
-1, ,-43, ,
1, ,-43, ,
1, ,-43, ,
-1, ,-44, ,
1, ,-43, ,
-1, ,-43, ,
1, ,-43, ,
1, ,-43, ,
1, ,-44, ,
-1, ,-43, ,
2, ,-43, ,
-1, ,-44, ,
-1, ,-43, ,
1, ,-43, ,
1, ,-43, ,
-1, ,-43, ,
1, ,-43, ,
-1, ,-43, ,
-1, ,-43, ,
1, ,-43, ,
1, ,-44, ,
-1, ,-43, ,
1, ,-43, ,
1, ,-43, ,
-1, ,-43, ,
1, ,-43, ,
1, ,-43, ,
-1, ,-43, ,
1, ,-43, ,
-1, ,-43, ,
-1, ,-43, ,
1, ,-43, ,
1, ,-44, ,
-1, ,-43, ,
1, ,-43, ,
-1, ,-43, ,
-1, ,-43, ,
1, ,-43, ,
1, ,-43, ,
-1, ,-44, ,
1, ,-43, ,
-1, ,-43, ,
-1, ,-43, ,
1, ,-43, ,
1, ,-44, ,
-1, ,-43, ,
1, ,-43, ,
-1, ,-43, ,
-1, ,-43, ,
1, ,-43, ,
1, ,-44, ,
-1, ,-43, ,
1, ,-44, ,
-1, ,-43, ,
-1, ,-43, ,
1, ,-43, ,
1, ,-43, ,
-1, ,-43, ,
1, ,-43, ,
-1, ,-43, ,
1, ,-43, ,
1, ,-43, ,
1, ,-43, ,
-1, ,-43, ,
1, ,-43, ,
-1, ,-43, ,
1, ,-43, ,
1, ,-43, ,
1, ,-44, ,
-1, ,-43, ,
1, ,-43, ,
-1, ,-43, ,
-1, ,-43, ,
1, ,-43, ,
1, ,-43, ,
-1, ,-44, ,
1, ,-43, ,
-1, ,-43, ,
-1, ,-43, ,
1, ,-43, ,
1, ,-44, ,
-1, ,-43, ,
1, ,-43, ,
-1, ,-44, ,
-1, ,-43, ,
1, ,-43, ,
1, ,-44, ,
-1, ,-43, ,
1, ,-44, ,
-1, ,-44, ,
-1, ,-43, ,
1, ,-43, ,
1, ,-44, ,
-1, ,-43, ,
1, ,-43, ,
-1, ,-43, ,
-1, ,-43, ,
1, ,-43, ,
1, ,-44, ,
-1, ,-43, ,
1, ,-43, ,
-1, ,-43, ,
-1, ,-43, ,
1, ,-43, ,
1, ,-44, ,
-1, ,-43, ,
1, ,-43, ,
-1, ,-44, ,
-1, ,-43, ,
1, ,-43, ,
1, ,-43, ,
-1, ,-43, ,
1, ,-43, ,
-1, ,-43, ,
-1, ,-43, ,
1, ,-43, ,
1, ,-44, ,
-1, ,-43, ,
1, ,-43, ,
-1, ,-43, ,
-1, ,-43, ,
1, ,-43, ,
1, ,-43, ,
-1, ,-44, ,
1, ,-43, ,
-1, ,-43, ,
-1, ,-43, ,
1, ,-43, ,
1, ,-44, ,
-1, ,-35, ,
2, ,-15, ,
1, ,1, ,
1, ,14, ,
1, ,23, ,
1, ,31, ,
-1, ,35, ,
1, ,39, ,
-1, ,42, ,
1, ,44, ,
1, ,45, ,
1, ,47, ,
-1, ,47, ,
1, ,49, ,
1, ,49, ,
-1, ,49, ,
1, ,50, ,
1, ,50, ,
-1, ,50, ,
1, ,50, ,
-1, ,50, ,
-1, ,51, ,
1, ,50, ,
1, ,51, ,
-1, ,50, ,
1, ,50, ,
-1, ,50, ,
-1, ,51, ,
1, ,50, ,
1, ,50, ,
-1, ,50, ,
2, ,50, ,
-1, ,50, ,
-1, ,50, ,
1, ,50, ,
1, ,50, ,
-1, ,50, ,
1, ,50, ,
-1, ,50, ,
-1, ,50, ,
1, ,50, ,
1, ,50, ,
-1, ,50, ,
1, ,50, ,
-1, ,50, ,
-1, ,50, ,
1, ,50, ,
1, ,50, ,
-1, ,50, ,
1, ,50, ,
-1, ,50, ,
-1, ,49, ,
1, ,50, ,
1, ,50, ,
-1, ,50, ,
1, ,50, ,
-1, ,50, ,
-1, ,50, ,
1, ,50, ,
-1, ,50, ,
-1, ,50, ,
1, ,50, ,
-1, ,50, ,
-1, ,50, ,
1, ,50, ,
1, ,50, ,
-1, ,50, ,
1, ,50, ,
-1, ,50, ,
-1, ,50, ,
1, ,50, ,
1, ,50, ,
-1, ,50, ,
1, ,50, ,
-1, ,50, ,
-1, ,50, ,
1, ,50, ,
1, ,50, ,
-1, ,49, ,
2, ,50, ,
-1, ,50, ,
-1, ,50, ,
1, ,50, ,
1, ,50, ,
-2, ,50, ,
1, ,50, ,
-1, ,50, ,
-1, ,49, ,
1, ,50, ,
1, ,50, ,
-1, ,50, ,
1, ,50, ,
-1, ,50, ,
-1, ,50, ,
1, ,50, ,
1, ,50, ,
-1, ,50, ,
1, ,50, ,
-1, ,50, ,
-1, ,50, ,
1, ,50, ,
1, ,50, ,
-1, ,50, ,
1, ,50, ,
-1, ,50, ,
-1, ,50, ,
1, ,50, ,
1, ,50, ,
-1, ,50, ,
1, ,50, ,
-1, ,50, ,
-1, ,49, ,
1, ,50, ,
1, ,50, ,
-1, ,49, ,
1, ,50, ,
-1, ,50, ,
-1, ,50, ,
1, ,50, ,
1, ,50, ,
-1, ,50, ,
1, ,50, ,
-1, ,50, ,
-1, ,50, ,
1, ,50, ,
1, ,50, ,
-1, ,49, ,
1, ,50, ,
-1, ,50, ,
-1, ,50, ,
1, ,49, ,
1, ,50, ,
-1, ,50, ,
1, ,50, ,
-1, ,50, ,
-1, ,50, ,
1, ,50, ,
1, ,50, ,
-1, ,50, ,
1, ,50, ,
-1, ,50, ,
-1, ,50, ,
2, ,50, ,
1, ,50, ,
-1, ,50, ,
1, ,50, ,
-1, ,50, ,
-1, ,50, ,
1, ,49, ,
1, ,50, ,
-1, ,50, ,
1, ,49, ,
-1, ,50, ,
-1, ,50, ,
1, ,47, ,
1, ,30, ,
-1, ,12, ,
1, ,-3, ,
-1, ,-14, ,
-1, ,-21, ,
1, ,-27, ,
1, ,-32, ,
-1, ,-35, ,
1, ,-38, ,
-1, ,-39, ,
-1, ,-41, ,
1, ,-41, ,
1, ,-42, ,
-1, ,-43, ,
1, ,-43, ,
-1, ,-44, ,
-1, ,-43, ,
1, ,-44, ,
1, ,-44, ,
-1, ,-44, ,
1, ,-44, ,
-1, ,-44, ,
-1, ,-44, ,
1, ,-44, ,
1, ,-44, ,
-1, ,-44, ,
1, ,-44, ,
1, ,-44, ,
-1, ,-44, ,
1, ,-44, ,
1, ,-44, ,
-1, ,-44, ,
1, ,-44, ,
-1, ,-44, ,
1, ,-44, ,
1, ,-44, ,
1, ,-44, ,
-1, ,-44, ,
1, ,-43, ,
-1, ,-44, ,
-1, ,-43, ,
1, ,-43, ,
1, ,-44, ,
-1, ,-43, ,
1, ,-43, ,
-1, ,-44, ,
-1, ,-43, ,
1, ,-44, ,
1, ,-44, ,
-1, ,-43, ,
1, ,-43, ,
-1, ,-44, ,
-1, ,-43, ,
1, ,-43, ,
1, ,-44, ,
-1, ,-44, ,
1, ,-43, ,
-1, ,-43, ,
-1, ,-43, ,
1, ,-43, ,
1, ,-44, ,
-1, ,-43, ,
1, ,-43, ,
-1, ,-43, ,
-1, ,-43, ,
1, ,-43, ,
1, ,-44, ,
-1, ,-44, ,
1, ,-44, ,
-1, ,-44, ,
-1, ,-43, ,
1, ,-43, ,
1, ,-44, ,
-1, ,-43, ,
1, ,-43, ,
-1, ,-44, ,
-1, ,-43, ,
1, ,-43, ,
1, ,-43, ,
-1, ,-43, ,
1, ,-43, ,
-1, ,-43, ,
-1, ,-43, ,
1, ,-43, ,
1, ,-43, ,
-1, ,-43, ,
1, ,-43, ,
-1, ,-44, ,
-1, ,-43, ,
1, ,-43, ,
1, ,-43, ,
-1, ,-43, ,
1, ,-44, ,
-1, ,-43, ,
-1, ,-43, ,
1, ,-43, ,
1, ,-44, ,
-1, ,-43, ,
1, ,-43, ,
-1, ,-44, ,
-1, ,-43, ,
1, ,-43, ,
1, ,-43, ,
-1, ,-43, ,
1, ,-43, ,
-1, ,-43, ,
-1, ,-43, ,
1, ,-43, ,
1, ,-44, ,
-1, ,-43, ,
1, ,-43, ,
-1, ,-43, ,
1, ,-43, ,
1, ,-43, ,
1, ,-43, ,
-1, ,-43, ,
1, ,-43, ,
-1, ,-43, ,
-1, ,-43, ,
1, ,-43, ,
1, ,-44, ,
-1, ,-43, ,
1, ,-43, ,
-1, ,-43, ,
-1, ,-43, ,
1, ,-43, ,
1, ,-44, ,
-1, ,-43, ,
1, ,-43, ,
-1, ,-43, ,
-1, ,-43, ,
1, ,-43, ,
1, ,-44, ,
-1, ,-43, ,
1, ,-43, ,
-1, ,-43, ,
-1, ,-43, ,
1, ,-43, ,
1, ,-43, ,
-1, ,-43, ,
1, ,-43, ,
-1, ,-43, ,
-1, ,-43, ,
1, ,-43, ,
1, ,-44, ,
-1, ,-43, ,
1, ,-43, ,
-1, ,-43, ,
-1, ,-43, ,
1, ,-43, ,
1, ,-43, ,
-1, ,-43, ,
1, ,-43, ,
-1, ,-43, ,
1, ,-43, ,
1, ,-43, ,
1, ,-44, ,
-1, ,-43, ,
1, ,-43, ,
-1, ,-43, ,
-1, ,-43, ,
1, ,-43, ,
1, ,-43, ,
-1, ,-43, ,
1, ,-43, ,
-1, ,-43, ,
-1, ,-43, ,
1, ,-43, ,
1, ,-43, ,
-1, ,-43, ,
1, ,-43, ,
-1, ,-43, ,
-1, ,-43, ,
1, ,-43, ,
1, ,-43, ,
-1, ,-43, ,
1, ,-43, ,
-1, ,-43, ,
1, ,-43, ,
1, ,-43, ,
1, ,-44, ,
-1, ,-43, ,
1, ,-43, ,
-1, ,-43, ,
-1, ,-43, ,
1, ,-43, ,
1, ,-43, ,
-1, ,-43, ,
1, ,-43, ,
-1, ,-43, ,
-1, ,-43, ,
1, ,-43, ,
1, ,-43, ,
-1, ,-43, ,
1, ,-43, ,
-1, ,-43, ,
-1, ,-43, ,
1, ,-43, ,
1, ,-43, ,
-1, ,-43, ,
1, ,-43, ,
-1, ,-43, ,
-1, ,-43, ,
1, ,-43, ,
1, ,-44, ,
-2, ,-43, ,
1, ,-43, ,
-1, ,-43, ,
-1, ,-43, ,
-1, ,-43, ,
1, ,-43, ,
-1, ,-43, ,
1, ,-43, ,
-1, ,-43, ,
-1, ,-43, ,
1, ,-43, ,
1, ,-43, ,
-1, ,-43, ,
1, ,-43, ,
-1, ,-44, ,
-1, ,-43, ,
1, ,-43, ,
1, ,-43, ,
-1, ,-43, ,
1, ,-43, ,
-1, ,-43, ,
-1, ,-43, ,
1, ,-43, ,
1, ,-44, ,
-1, ,-43, ,
1, ,-43, ,
-1, ,-43, ,
-1, ,-43, ,
1, ,-43, ,
1, ,-43, ,
-1, ,-43, ,
1, ,-43, ,
-1, ,-43, ,
-1, ,-43, ,
1, ,-43, ,
1, ,-44, ,
-1, ,-43, ,
1, ,-43, ,
-1, ,-43, ,
-1, ,-43, ,
1, ,-43, ,
1, ,-44, ,
-1, ,-43, ,
1, ,-43, ,
-1, ,-43, ,
-1, ,-43, ,
1, ,-43, ,
1, ,-44, ,
-1, ,-43, ,
2, ,-43, ,
-1, ,-43, ,
-1, ,-43, ,
1, ,-43, ,
1, ,-43, ,
-1, ,-43, ,
1, ,-43, ,
-1, ,-43, ,
-1, ,-43, ,
1, ,-43, ,
1, ,-44, ,
-1, ,-43, ,
2, ,-43, ,
-1, ,-43, ,
-1, ,-43, ,
1, ,-43, ,
1, ,-43, ,
-1, ,-43, ,
1, ,-43, ,
-1, ,-43, ,
-1, ,-43, ,
1, ,-43, ,
1, ,-44, ,
-1, ,-43, ,
1, ,-43, ,
-1, ,-44, ,
-1, ,-43, ,
1, ,-43, ,
1, ,-43, ,
-1, ,-43, ,
1, ,-43, ,
-1, ,-43, ,
1, ,-43, ,
1, ,-43, ,
1, ,-43, ,
-1, ,-43, ,
1, ,-43, ,
-1, ,-43, ,
1, ,-43, ,
1, ,-43, ,
1, ,-43, ,
-1, ,-43, ,
1, ,-43, ,
-1, ,-43, ,
-1, ,-43, ,
1, ,-43, ,
1, ,-44, ,
-1, ,-43, ,
1, ,-43, ,
-1, ,-43, ,
1, ,-43, ,
1, ,-43, ,
1, ,-43, ,
-1, ,-43, ,
1, ,-43, ,
-1, ,-43, ,
-1, ,-43, ,
1, ,-43, ,
1, ,-44, ,
-1, ,-43, ,
1, ,-43, ,
-1, ,-43, ,
-1, ,-43, ,
1, ,-43, ,
1, ,-43, ,
-1, ,-43, ,
1, ,-43, ,
-1, ,-43, ,
-1, ,-43, ,
1, ,-43, ,
1, ,-43, ,
-1, ,-43, ,
1, ,-43, ,
-1, ,-43, ,
-1, ,-43, ,
1, ,-43, ,
1, ,-43, ,
-1, ,-43, ,
1, ,-43, ,
-1, ,-43, ,
-1, ,-43, ,
1, ,-43, ,
1, ,-44, ,
-1, ,-43, ,
1, ,-43, ,
-1, ,-43, ,
-1, ,-43, ,
1, ,-43, ,
1, ,-43, ,
-1, ,-43, ,
1, ,-43, ,
-1, ,-43, ,
-1, ,-43, ,
1, ,-43, ,
1, ,-43, ,
-1, ,-43, ,
1, ,-43, ,
-1, ,-43, ,
-1, ,-43, ,
1, ,-43, ,
1, ,-43, ,
-1, ,-43, ,
1, ,-43, ,
-1, ,-43, ,
-1, ,-43, ,
1, ,-43, ,
1, ,-43, ,
-1, ,-43, ,
1, ,-43, ,
-1, ,-43, ,
-1, ,-43, ,
1, ,-43, ,
1, ,-43, ,
-1, ,-43, ,
1, ,-43, ,
-1, ,-43, ,
-1, ,-43, ,
1, ,-43, ,
1, ,-43, ,
-1, ,-43, ,
1, ,-43, ,
-1, ,-43, ,
-1, ,-43, ,
1, ,-43, ,
1, ,-43, ,
-1, ,-43, ,
1, ,-43, ,
-1, ,-43, ,
-1, ,-43, ,
1, ,-43, ,
1, ,-43, ,
-1, ,-43, ,
1, ,-43, ,
-1, ,-43, ,
-1, ,-43, ,
1, ,-43, ,
1, ,-43, ,
-1, ,-43, ,
1, ,-43, ,
-1, ,-43, ,
-1, ,-43, ,
1, ,-43, ,
1, ,-44, ,
-1, ,-43, ,
1, ,-43, ,
-1, ,-43, ,
-1, ,-43, ,
1, ,-43, ,
1, ,-43, ,
-1, ,-43, ,
1, ,-43, ,
-1, ,-43, ,
-1, ,-43, ,
1, ,-43, ,
1, ,-43, ,
-1, ,-43, ,
1, ,-43, ,
-1, ,-43, ,
-1, ,-43, ,
1, ,-43, ,
1, ,-44, ,
-1, ,-43, ,
1, ,-43, ,
-1, ,-43, ,
-1, ,-43, ,
1, ,-43, ,
1, ,-43, ,
-1, ,-43, ,
1, ,-43, ,
-1, ,-43, ,
-1, ,-43, ,
1, ,-43, ,
1, ,-43, ,
-1, ,-43, ,
1, ,-43, ,
-1, ,-43, ,
-1, ,-43, ,
1, ,-43, ,
1, ,-43, ,
-1, ,-43, ,
1, ,-43, ,
-1, ,-43, ,
-1, ,-43, ,
1, ,-43, ,
1, ,-43, ,
-1, ,-43, ,
1, ,-43, ,
-1, ,-43, ,
-1, ,-43, ,
1, ,-43, ,
1, ,-43, ,
-1, ,-43, ,
1, ,-43, ,
-1, ,-43, ,
-1, ,-43, ,
1, ,-43, ,
1, ,-43, ,
-1, ,-43, ,
1, ,-43, ,
-1, ,-43, ,
-1, ,-43, ,
1, ,-43, ,
1, ,-43, ,
-1, ,-43, ,
1, ,-43, ,
-1, ,-44, ,
-1, ,-43, ,
1, ,-43, ,
1, ,-43, ,
-1, ,-43, ,
1, ,-43, ,
-1, ,-43, ,
-1, ,-43, ,
1, ,-43, ,
1, ,-43, ,
-1, ,-43, ,
1, ,-43, ,
-1, ,-43, ,
-1, ,-43, ,
1, ,-43, ,
1, ,-43, ,
-1, ,-43, ,
1, ,-43, ,
-1, ,-43, ,
-1, ,-43, ,
1, ,-43, ,
1, ,-44, ,
-1, ,-43, ,
1, ,-43, ,
-1, ,-43, ,
-1, ,-43, ,
1, ,-43, ,
1, ,-43, ,
-1, ,-43, ,
1, ,-43, ,
-1, ,-43, ,
-1, ,-43, ,
1, ,-43, ,
1, ,-44, ,
-1, ,-43, ,
1, ,-43, ,
1, ,-43, ,
-1, ,-43, ,
1, ,-43, ,
1, ,-43, ,
-1, ,-43, ,
1, ,-43, ,
-1, ,-43, ,
1, ,-43, ,
1, ,-43, ,
1, ,-43, ,
-1, ,-43, ,
1, ,-43, ,
-1, ,-43, ,
-1, ,-43, ,
1, ,-43, ,
1, ,-43, ,
-1, ,-43, ,
1, ,-43, ,
-1, ,-43, ,
-1, ,-43, ,
1, ,-43, ,
1, ,-44, ,
-1, ,-43, ,
1, ,-43, ,
-1, ,-43, ,
-1, ,-43, ,
1, ,-43, ,
1, ,-43, ,
-1, ,-43, ,
2, ,-43, ,
-1, ,-43, ,
-1, ,-43, ,
1, ,-43, ,
1, ,-43, ,
-1, ,-43, ,
1, ,-43, ,
1, ,-43, ,
-1, ,-43, ,
1, ,-43, ,
1, ,-43, ,
-1, ,-43, ,
1, ,-43, ,
-1, ,-43, ,
-1, ,-43, ,
1, ,-43, ,
1, ,-43, ,
-1, ,-43, ,
1, ,-43, ,
-1, ,-43, ,
-1, ,-43, ,
1, ,-43, ,
1, ,-43, ,
-1, ,-43, ,
1, ,-43, ,
-1, ,-43, ,
-1, ,-43, ,
1, ,-43, ,
1, ,-44, ,
-1, ,-43, ,
1, ,-43, ,
-1, ,-43, ,
-1, ,-43, ,
1, ,-43, ,
1, ,-43, ,
-1, ,-43, ,
1, ,-43, ,
-1, ,-43, ,
-1, ,-43, ,
1, ,-43, ,
1, ,-43, ,
-1, ,-43, ,
1, ,-43, ,
-1, ,-43, ,
-1, ,-43, ,
1, ,-43, ,
1, ,-43, ,
-1, ,-43, ,
1, ,-43, ,
-1, ,-43, ,
-1, ,-43, ,
1, ,-43, ,
1, ,-43, ,
-1, ,-43, ,
1, ,-43, ,
-1, ,-43, ,
-1, ,-43, ,
1, ,-43, ,
1, ,-43, ,
-1, ,-43, ,
1, ,-43, ,
-1, ,-43, ,
-1, ,-43, ,
1, ,-43, ,
1, ,-44, ,
-1, ,-43, ,
1, ,-43, ,
-1, ,-43, ,
-1, ,-43, ,
1, ,-43, ,
1, ,-43, ,
-1, ,-43, ,
1, ,-43, ,
-1, ,-43, ,
-1, ,-43, ,
1, ,-43, ,
1, ,-43, ,
-1, ,-43, ,
1, ,-43, ,
-1, ,-43, ,
-1, ,-43, ,
1, ,-43, ,
1, ,-43, ,
-1, ,-43, ,
1, ,-43, ,
-1, ,-43, ,
-1, ,-43, ,
1, ,-43, ,
1, ,-43, ,
-1, ,-43, ,
1, ,-43, ,
-1, ,-43, ,
-1, ,-43, ,
1, ,-43, ,
1, ,-43, ,
-1, ,-43, ,
1, ,-43, ,
-1, ,-43, ,
-1, ,-43, ,
1, ,-43, ,
1, ,-43, ,
-1, ,-43, ,
1, ,-39, ,
-1, ,-20, ,
-1, ,-2, ,
1, ,11, ,
1, ,21, ,
-1, ,28, ,
1, ,34, ,
1, ,38, ,
1, ,41, ,
1, ,43, ,
1, ,45, ,
-1, ,46, ,
2, ,47, ,
-1, ,49, ,
-1, ,50, ,
1, ,49, ,
1, ,50, ,
-1, ,50, ,
1, ,50, ,
-1, ,50, ,
-1, ,50, ,
1, ,50, ,
1, ,50, ,
-1, ,50, ,
1, ,50, ,
-1, ,50, ,
-1, ,51, ,
1, ,50, ,
1, ,51, ,
-1, ,50, ,
2, ,50, ,
-1, ,50, ,
-1, ,51, ,
1, ,50, ,
1, ,50, ,
-1, ,50, ,
1, ,50, ,
-1, ,50, ,
-1, ,50, ,
1, ,50, ,
1, ,50, ,
-1, ,50, ,
1, ,50, ,
-1, ,50, ,
-1, ,50, ,
1, ,50, ,
1, ,50, ,
-1, ,50, ,
1, ,50, ,
-1, ,50, ,
-1, ,50, ,
1, ,50, ,
1, ,50, ,
-1, ,49, ,
1, ,50, ,
-1, ,50, ,
-1, ,50, ,
1, ,50, ,
1, ,50, ,
-1, ,50, ,
1, ,50, ,
-1, ,50, ,
-1, ,50, ,
1, ,49, ,
1, ,50, ,
-1, ,49, ,
1, ,50, ,
-1, ,50, ,
-1, ,50, ,
1, ,50, ,
-1, ,50, ,
-1, ,50, ,
1, ,50, ,
-1, ,50, ,
-1, ,50, ,
1, ,50, ,
1, ,50, ,
-1, ,49, ,
1, ,50, ,
-1, ,50, ,
-1, ,50, ,
1, ,50, ,
1, ,50, ,
-1, ,50, ,
1, ,50, ,
-1, ,50, ,
-1, ,50, ,
1, ,50, ,
1, ,50, ,
-1, ,50, ,
1, ,50, ,
-1, ,50, ,
-1, ,50, ,
1, ,50, ,
1, ,50, ,
-1, ,49, ,
1, ,50, ,
-1, ,49, ,
-1, ,49, ,
1, ,50, ,
1, ,50, ,
-1, ,49, ,
1, ,50, ,
-1, ,50, ,
-1, ,50, ,
1, ,49, ,
1, ,50, ,
-1, ,50, ,
1, ,50, ,
-1, ,50, ,
-1, ,50, ,
1, ,50, ,
1, ,50, ,
-1, ,49, ,
1, ,50, ,
-1, ,50, ,
-1, ,50, ,
1, ,50, ,
1, ,50, ,
-1, ,49, ,
1, ,50, ,
-1, ,50, ,
-1, ,50, ,
1, ,50, ,
1, ,50, ,
-1, ,49, ,
1, ,49, ,
-1, ,50, ,
-1, ,50, ,
1, ,50, ,
1, ,50, ,
-1, ,49, ,
1, ,49, ,
-1, ,50, ,
-1, ,49, ,
1, ,50, ,
1, ,50, ,
-1, ,50, ,
1, ,50, ,
-1, ,50, ,
-1, ,50, ,
1, ,50, ,
1, ,50, ,
-1, ,50, ,
1, ,49, ,
-1, ,50, ,
-1, ,50, ,
1, ,49, ,
1, ,50, ,
-1, ,50, ,
1, ,50, ,
-1, ,50, ,
-1, ,50, ,
1, ,49, ,
1, ,49, ,
-1, ,36, ,
1, ,16, ,
-1, ,1, ,
-1, ,-11, ,
1, ,-19, ,
1, ,-26, ,
-1, ,-31, ,
2, ,-34, ,
-1, ,-37, ,
-1, ,-39, ,
1, ,-40, ,
1, ,-42, ,
-1, ,-42, ,
1, ,-42, ,
-1, ,-43, ,
-1, ,-43, ,
1, ,-43, ,
1, ,-44, ,
-1, ,-44, ,
1, ,-44, ,
-1, ,-44, ,
-1, ,-44, ,
1, ,-44, ,
1, ,-44, ,
-1, ,-44, ,
1, ,-44, ,
-1, ,-44, ,
-1, ,-44, ,
1, ,-44, ,
1, ,-44, ,
-1, ,-44, ,
1, ,-44, ,
-1, ,-44, ,
-1, ,-44, ,
1, ,-43, ,
1, ,-44, ,
-1, ,-43, ,
1, ,-44, ,
-1, ,-43, ,
-1, ,-43, ,
1, ,-44, ,
1, ,-44, ,
-1, ,-44, ,
1, ,-44, ,
-1, ,-43, ,
-1, ,-44, ,
1, ,-44, ,
1, ,-44, ,
-1, ,-43, ,
1, ,-43, ,
-1, ,-43, ,
-1, ,-44, ,
1, ,-43, ,
1, ,-44, ,
-1, ,-44, ,
1, ,-43, ,
-1, ,-43, ,
-1, ,-43, ,
1, ,-43, ,
1, ,-44, ,
-1, ,-43, ,
1, ,-44, ,
-1, ,-43, ,
-1, ,-43, ,
1, ,-43, ,
1, ,-43, ,
-1, ,-43, ,
1, ,-44, ,
-1, ,-43, ,
-1, ,-43, ,
1, ,-43, ,
1, ,-44, ,
-1, ,-43, ,
1, ,-43, ,
-1, ,-44, ,
-1, ,-43, ,
1, ,-43, ,
1, ,-44, ,
-1, ,-43, ,
1, ,-43, ,
-1, ,-43, ,
-1, ,-43, ,
1, ,-43, ,
1, ,-44, ,
-1, ,-43, ,
1, ,-43, ,
-1, ,-43, ,
-1, ,-43, ,
1, ,-43, ,
1, ,-44, ,
-1, ,-43, ,
1, ,-44, ,
-1, ,-43, ,
-1, ,-43, ,
1, ,-43, ,
1, ,-44, ,
-1, ,-43, ,
1, ,-43, ,
-1, ,-44, ,
-1, ,-43, ,
1, ,-43, ,
1, ,-44, ,
-1, ,-43, ,
1, ,-43, ,
-1, ,-43, ,
-1, ,-43, ,
1, ,-43, ,
1, ,-44, ,
-1, ,-43, ,
2, ,-43, ,
-1, ,-43, ,
-1, ,-43, ,
1, ,-43, ,
1, ,-43, ,
-1, ,-43, ,
1, ,-44, ,
-1, ,-43, ,
-1, ,-43, ,
1, ,-43, ,
1, ,-44, ,
-1, ,-43, ,
1, ,-43, ,
-1, ,-44, ,
-1, ,-43, ,
1, ,-43, ,
1, ,-43, ,
-1, ,-43, ,
1, ,-43, ,
-1, ,-43, ,
-1, ,-43, ,
1, ,-43, ,
1, ,-44, ,
-1, ,-43, ,
99, ,-43, ,
60, ,-43, ,
36, ,-43, ,
24, ,-43, ,
16, ,-43, ,
10, ,-43, ,
8, ,-43, ,
5, ,-43, ,
5, ,-43, ,
5, ,-43, ,
5, ,-43, ,
2, ,-43, ,
5, ,-43, ,
2, ,-43, ,
2, ,-43, ,
2, ,-43, ,
3, ,-43, ,
2, ,-43, ,
3, ,-43, ,
2, ,-43, ,
2, ,-43, ,
3, ,-43, ,
2, ,-44, ,
2, ,-43, ,
3, ,-43, ,
2, ,-43, ,
2, ,-43, ,
2, ,-43, ,
3, ,-43, ,
2, ,-43, ,
3, ,-43, ,
2, ,-43, ,
2, ,-43, ,
3, ,-43, ,
2, ,-44, ,
2, ,-43, ,
3, ,-43, ,
2, ,-43, ,
2, ,-43, ,
3, ,-43, ,
3, ,-43, ,
2, ,-43, ,
3, ,-43, ,
2, ,-43, ,
2, ,-43, ,
3, ,-43, ,
3, ,-44, ,
1, ,-43, ,
3, ,-43, ,
2, ,-43, ,
2, ,-43, ,
2, ,-43, ,
2, ,-43, ,
2, ,-43, ,
3, ,-43, ,
2, ,-43, ,
2, ,-43, ,
2, ,-43, ,
2, ,-44, ,
1, ,-43, ,
3, ,-43, ,
2, ,-43, ,
2, ,-43, ,
2, ,-43, ,
2, ,-43, ,
2, ,-43, ,
3, ,-43, ,
2, ,-43, ,
2, ,-43, ,
2, ,-43, ,
2, ,-43, ,
1, ,-43, ,
3, ,-43, ,
2, ,-43, ,
2, ,-43, ,
2, ,-43, ,
3, ,-43, ,
2, ,-43, ,
3, ,-44, ,
2, ,-43, ,
2, ,-43, ,
2, ,-43, ,
2, ,-43, ,
1, ,-43, ,
3, ,-43, ,
2, ,-43, ,
2, ,-43, ,
2, ,-43, ,
2, ,-43, ,
1, ,-43, ,
3, ,-43, ,
2, ,-43, ,
2, ,-43, ,
2, ,-43, ,
2, ,-43, ,
1, ,-43, ,
3, ,-43, ,
2, ,-43, ,
2, ,-43, ,
2, ,-43, ,
2, ,-43, ,
1, ,-43, ,
3, ,-43, ,
1, ,-43, ,
2, ,-43, ,
2, ,-43, ,
2, ,-43, ,
1, ,-43, ,
2, ,-43, ,
1, ,-43, ,
2, ,-43, ,
2, ,-43, ,
2, ,-43, ,
1, ,-43, ,
2, ,-44, ,
2, ,-43, ,
2, ,-43, ,
2, ,-43, ,
2, ,-43, ,
1, ,-43, ,
2, ,-43, ,
2, ,-43, ,
1, ,-43, ,
2, ,-43, ,
2, ,-43, ,
1, ,-43, ,
2, ,-43, ,
1, ,-43, ,
1, ,-43, ,
2, ,-43, ,
2, ,-43, ,
1, ,-43, ,
2, ,-43, ,
2, ,-43, ,
2, ,-43, ,
2, ,-43, ,
2, ,-43, ,
1, ,-43, ,
2, ,-43, ,
1, ,-43, ,
1, ,-43, ,
2, ,-43, ,
2, ,-43, ,
1, ,-43, ,
2, ,-43, ,
1, ,-43, ,
1, ,-43, ,
2, ,-43, ,
2, ,-43, ,
1, ,-43, ,
2, ,-43, ,
1, ,-43, ,
2, ,-43, ,
2, ,-43, ,
1, ,-44, ,
1, ,-43, ,
3, ,-44, ,
2, ,-44, ,
1, ,-43, ,
2, ,-43, ,
2, ,-43, ,
1, ,-43, ,
2, ,-43, ,
1, ,-43, ,
1, ,-43, ,
2, ,-43, ,
2, ,-44, ,
1, ,-43, ,
2, ,-43, ,
2, ,-43, ,
2, ,-43, ,
2, ,-43, ,
2, ,-43, ,
1, ,-43, ,
2, ,-43, ,
2, ,-43, ,
1, ,-43, ,
2, ,-43, ,
2, ,-43, ,
1, ,-43, ,
2, ,-43, ,
2, ,-44, ,
1, ,-43, ,
2, ,-43, ,
2, ,-43, ,
1, ,-43, ,
2, ,-44, ,
2, ,-43, ,
2, ,-43, ,
2, ,-43, ,
2, ,-43, ,
1, ,-43, ,
2, ,-43, ,
1, ,-44, ,
1, ,-43, ,
2, ,-43, ,
2, ,-43, ,
1, ,-43, ,
2, ,-43, ,
1, ,-43, ,
2, ,-44, ,
2, ,-43, ,
2, ,-43, ,
1, ,-43, ,
2, ,-43, ,
1, ,-43, ,
2, ,-43, ,
2, ,-43, ,
2, ,-43, ,
1, ,-43, ,
2, ,-43, ,
1, ,-43, ,
2, ,-43, ,
2, ,-43, ,
2, ,-44, ,
1, ,-43, ,
2, ,-43, ,
1, ,-43, ,
1, ,-43, ,
2, ,-43, ,
2, ,-43, ,
1, ,-43, ,
2, ,-43, ,
1, ,-43, ,
2, ,-43, ,
2, ,-43, ,
2, ,-44, ,
1, ,-43, ,
2, ,-43, ,
1, ,-44, ,
1, ,-43, ,
2, ,-43, ,
2, ,-43, ,
1, ,-43, ,
2, ,-43, ,
1, ,-43, ,
1, ,-43, ,
2, ,-43, ,
2, ,-44, ,
1, ,-43, ,
2, ,-43, ,
1, ,-44, ,
1, ,-43, ,
2, ,-43, ,
2, ,-43, ,
1, ,-43, ,
2, ,-43, ,
1, ,-43, ,
1, ,-43, ,
2, ,-43, ,
2, ,-44, ,
1, ,-43, ,
2, ,-43, ,
1, ,-44, ,
1, ,-43, ,
2, ,-43, ,
2, ,-43, ,
1, ,-43, ,
2, ,-43, ,
1, ,-43, ,
1, ,-43, ,
2, ,-43, ,
1, ,-44, ,
1, ,-43, ,
2, ,-43, ,
1, ,-43, ,
1, ,-43, ,
2, ,-43, ,
2, ,-44, ,
1, ,-43, ,
2, ,-43, ,
1, ,-44, ,
1, ,-43, ,
2, ,-43, ,
1, ,-44, ,
1, ,-43, ,
2, ,-44, ,
1, ,-44, ,
1, ,-43, ,
2, ,-43, ,
1, ,-43, ,
1, ,-43, ,
2, ,-43, ,
1, ,-43, ,
1, ,-43, ,
1, ,-43, ,
1, ,-44, ,
-1, ,-43, ,
2, ,-43, ,
1, ,-43, ,
1, ,-43, ,
2, ,-43, ,
2, ,-43, ,
1, ,-43, ,
2, ,-43, ,
1, ,-43, ,
1, ,-43, ,
2, ,-43, ,
2, ,-44, ,
1, ,-43, ,
2, ,-43, ,
1, ,-44, ,
1, ,-43, ,
2, ,-43, ,
1, ,-43, ,
1, ,-43, ,
2, ,-43, ,
1, ,-43, ,
1, ,-43, ,
2, ,-43, ,
2, ,-43, ,
1, ,-43, ,
2, ,-43, ,
1, ,-44, ,
