src/varyamp_1560/temp0000881.CSV

Format,1.0B,
Memory Length,10000,Memory Length,10000,
IntpDistance,0,IntpDistance,0,
Trigger Address,4999,Trigger Address,4999,
Trigger Level,1.040E+00,Trigger Level,1.040E+00,
Source,CH1,Source,CH2,
Vertical Units,V,Vertical Units,V,
Vertical Units Div,0,Vertical Units Div,0,
Vertical Units Extend Div,16,Vertical Units Extend Div,16,
Label,,Label,,
Probe Type,0,Probe Type,0,
Probe Ratio,1.000e+01,Probe Ratio,1.000e+00,
Vertical Scale,5.000e-01,Vertical Scale,1.000e+00,
Vertical Position,-1.820e+00,Vertical Position,0.000e+00,
Horizontal Units,S,Horizontal Units,S,
Horizontal Scale,2.000E-05,Horizontal Scale,2.000E-05,
Horizontal Position,0.000E+00,Horizontal Position,0.000E+00,
Horizontal Mode,Main,Horizontal Mode,Main,
SincET Mode,Real Time,SincET Mode,Real Time,
Sampling Period,2.000e-08,Sampling Period,2.000e-08,
Horizontal Old Scale,2.000E-05,Horizontal Old Scale,2.000E-05,
Horizontal Old Position,0.000E+00,Horizontal Old Position,0.000E+00,
Firmware,V1.23,Firmware,V1.23,
Mode,Fast,Mode,Fast,
Waveform Data,,Waveform Data,,
-1, ,-59, ,
1, ,-59, ,
1, ,-59, ,
-1, ,-59, ,
1, ,-59, ,
-1, ,-58, ,
-1, ,-59, ,
1, ,-59, ,
1, ,-59, ,
-1, ,-59, ,
1, ,-60, ,
-1, ,-58, ,
-1, ,-59, ,
1, ,-59, ,
1, ,-59, ,
-1, ,-59, ,
1, ,-59, ,
-1, ,-58, ,
-1, ,-59, ,
1, ,-59, ,
2, ,-59, ,
-1, ,-59, ,
2, ,-59, ,
-1, ,-58, ,
-1, ,-59, ,
1, ,-59, ,
1, ,-59, ,
-1, ,-59, ,
2, ,-60, ,
-1, ,-59, ,
-1, ,-59, ,
1, ,-59, ,
1, ,-59, ,
-1, ,-59, ,
2, ,-60, ,
-1, ,-59, ,
-1, ,-59, ,
1, ,-59, ,
1, ,-59, ,
-1, ,-59, ,
1, ,-59, ,
-1, ,-59, ,
-1, ,-59, ,
1, ,-59, ,
1, ,-59, ,
-1, ,-59, ,
1, ,-59, ,
-1, ,-59, ,
-1, ,-59, ,
1, ,-59, ,
1, ,-59, ,
-1, ,-59, ,
1, ,-59, ,
-1, ,-58, ,
-1, ,-59, ,
1, ,-59, ,
1, ,-59, ,
-1, ,-59, ,
1, ,-59, ,
-1, ,-58, ,
-1, ,-59, ,
1, ,-59, ,
1, ,-59, ,
-1, ,-59, ,
1, ,-59, ,
-1, ,-58, ,
-1, ,-59, ,
1, ,-59, ,
1, ,-59, ,
-1, ,-58, ,
1, ,-60, ,
-1, ,-59, ,
-1, ,-59, ,
1, ,-59, ,
1, ,-59, ,
-1, ,-59, ,
1, ,-59, ,
-1, ,-59, ,
-1, ,-59, ,
1, ,-59, ,
1, ,-59, ,
-1, ,-59, ,
1, ,-60, ,
-1, ,-59, ,
-1, ,-59, ,
1, ,-59, ,
1, ,-59, ,
-1, ,-59, ,
1, ,-59, ,
-1, ,-59, ,
-1, ,-59, ,
1, ,-59, ,
1, ,-59, ,
-1, ,-59, ,
1, ,-60, ,
-1, ,-59, ,
-1, ,-59, ,
1, ,-59, ,
1, ,-59, ,
-1, ,-59, ,
1, ,-59, ,
-1, ,-58, ,
-1, ,-59, ,
1, ,-59, ,
1, ,-59, ,
-1, ,-59, ,
2, ,-59, ,
-1, ,-59, ,
-1, ,-59, ,
1, ,-59, ,
1, ,-59, ,
-1, ,-59, ,
1, ,-59, ,
-1, ,-58, ,
-1, ,-59, ,
1, ,-59, ,
1, ,-59, ,
-1, ,-59, ,
1, ,-60, ,
-1, ,-59, ,
-1, ,-59, ,
1, ,-59, ,
1, ,-59, ,
-1, ,-59, ,
1, ,-60, ,
-1, ,-59, ,
-1, ,-59, ,
1, ,-59, ,
1, ,-59, ,
-1, ,-59, ,
1, ,-59, ,
-1, ,-59, ,
-1, ,-59, ,
1, ,-59, ,
1, ,-59, ,
-1, ,-59, ,
1, ,-60, ,
-1, ,-59, ,
-1, ,-59, ,
1, ,-59, ,
1, ,-59, ,
-1, ,-58, ,
1, ,-59, ,
-1, ,-59, ,
-1, ,-59, ,
1, ,-59, ,
1, ,-59, ,
-1, ,-59, ,
1, ,-60, ,
-1, ,-59, ,
-1, ,-59, ,
1, ,-59, ,
1, ,-59, ,
-1, ,-59, ,
1, ,-60, ,
-1, ,-59, ,
-1, ,-59, ,
1, ,-59, ,
1, ,-59, ,
-1, ,-59, ,
2, ,-59, ,
-1, ,-59, ,
-1, ,-59, ,
1, ,-59, ,
1, ,-59, ,
-1, ,-59, ,
2, ,-59, ,
-1, ,-59, ,
-1, ,-59, ,
1, ,-59, ,
1, ,-59, ,
-1, ,-59, ,
1, ,-60, ,
-1, ,-59, ,
-1, ,-59, ,
1, ,-59, ,
1, ,-59, ,
-1, ,-59, ,
1, ,-59, ,
-1, ,-59, ,
-1, ,-59, ,
1, ,-59, ,
1, ,-59, ,
-1, ,-59, ,
1, ,-60, ,
-1, ,-59, ,
-1, ,-59, ,
1, ,-59, ,
1, ,-59, ,
-1, ,-59, ,
1, ,-59, ,
-1, ,-59, ,
-1, ,-59, ,
1, ,-59, ,
1, ,-59, ,
-1, ,-59, ,
1, ,-60, ,
-1, ,-59, ,
-1, ,-59, ,
1, ,-59, ,
1, ,-59, ,
-1, ,-59, ,
1, ,-59, ,
-1, ,-59, ,
-1, ,-59, ,
1, ,-59, ,
1, ,-59, ,
-1, ,-59, ,
1, ,-59, ,
-1, ,-58, ,
-1, ,-59, ,
1, ,-59, ,
1, ,-59, ,
-1, ,-59, ,
2, ,-59, ,
-1, ,-59, ,
-1, ,-59, ,
1, ,-59, ,
1, ,-59, ,
-1, ,-59, ,
1, ,-59, ,
-1, ,-59, ,
-1, ,-59, ,
1, ,-59, ,
1, ,-59, ,
-1, ,-59, ,
1, ,-59, ,
-1, ,-59, ,
-1, ,-59, ,
1, ,-59, ,
1, ,-59, ,
-1, ,-59, ,
1, ,-60, ,
-1, ,-59, ,
-1, ,-59, ,
1, ,-59, ,
1, ,-59, ,
-1, ,-59, ,
1, ,-59, ,
-1, ,-59, ,
-1, ,-59, ,
1, ,-59, ,
1, ,-59, ,
-1, ,-59, ,
1, ,-60, ,
-1, ,-59, ,
-1, ,-59, ,
1, ,-59, ,
1, ,-59, ,
-2, ,-59, ,
95, ,-60, ,
67, ,-59, ,
39, ,-59, ,
26, ,-59, ,
17, ,-59, ,
11, ,-59, ,
8, ,-60, ,
5, ,-58, ,
3, ,-59, ,
3, ,-59, ,
3, ,-59, ,
1, ,-58, ,
3, ,-60, ,
2, ,-59, ,
2, ,-59, ,
2, ,-59, ,
3, ,-59, ,
1, ,-59, ,
3, ,-60, ,
2, ,-59, ,
2, ,-59, ,
3, ,-60, ,
3, ,-59, ,
1, ,-59, ,
3, ,-60, ,
2, ,-59, ,
2, ,-59, ,
2, ,-59, ,
2, ,-59, ,
1, ,-59, ,
3, ,-59, ,
2, ,-59, ,
2, ,-59, ,
2, ,-59, ,
3, ,-59, ,
1, ,-58, ,
3, ,-59, ,
2, ,-59, ,
2, ,-59, ,
2, ,-59, ,
3, ,-59, ,
1, ,-59, ,
3, ,-60, ,
2, ,-59, ,
2, ,-59, ,
3, ,-60, ,
3, ,-59, ,
1, ,-59, ,
3, ,-59, ,
2, ,-59, ,
2, ,-59, ,
2, ,-59, ,
3, ,-59, ,
1, ,-56, ,
3, ,-38, ,
2, ,-19, ,
2, ,-5, ,
3, ,5, ,
3, ,13, ,
2, ,18, ,
3, ,22, ,
2, ,25, ,
2, ,27, ,
3, ,30, ,
2, ,32, ,
1, ,32, ,
3, ,33, ,
2, ,34, ,
2, ,34, ,
3, ,34, ,
2, ,35, ,
1, ,34, ,
3, ,35, ,
2, ,35, ,
1, ,35, ,
2, ,35, ,
2, ,35, ,
1, ,34, ,
3, ,35, ,
2, ,35, ,
2, ,34, ,
3, ,34, ,
2, ,35, ,
1, ,34, ,
3, ,35, ,
2, ,34, ,
1, ,34, ,
2, ,34, ,
2, ,35, ,
1, ,34, ,
3, ,34, ,
2, ,34, ,
2, ,34, ,
3, ,34, ,
2, ,34, ,
1, ,34, ,
2, ,34, ,
2, ,34, ,
1, ,34, ,
3, ,34, ,
2, ,34, ,
1, ,34, ,
2, ,34, ,
2, ,34, ,
1, ,34, ,
3, ,34, ,
2, ,34, ,
1, ,34, ,
2, ,34, ,
1, ,34, ,
1, ,34, ,
3, ,34, ,
2, ,35, ,
1, ,34, ,
2, ,34, ,
1, ,34, ,
2, ,34, ,
2, ,34, ,
2, ,34, ,
1, ,34, ,
3, ,34, ,
1, ,34, ,
2, ,34, ,
2, ,34, ,
2, ,34, ,
1, ,34, ,
2, ,34, ,
2, ,34, ,
2, ,34, ,
2, ,34, ,
2, ,34, ,
1, ,34, ,
2, ,34, ,
2, ,34, ,
1, ,34, ,
2, ,34, ,
2, ,34, ,
1, ,34, ,
2, ,34, ,
1, ,34, ,
1, ,34, ,
2, ,34, ,
2, ,34, ,
1, ,34, ,
2, ,34, ,
1, ,34, ,
1, ,34, ,
2, ,34, ,
2, ,34, ,
1, ,34, ,
2, ,34, ,
2, ,34, ,
1, ,34, ,
2, ,34, ,
2, ,34, ,
1, ,34, ,
2, ,34, ,
1, ,34, ,
1, ,34, ,
2, ,34, ,
1, ,34, ,
1, ,34, ,
2, ,34, ,
2, ,34, ,
2, ,34, ,
2, ,34, ,
2, ,34, ,
1, ,34, ,
2, ,34, ,
1, ,34, ,
1, ,34, ,
2, ,34, ,
1, ,34, ,
1, ,34, ,
2, ,34, ,
2, ,34, ,
1, ,34, ,
2, ,34, ,
2, ,34, ,
1, ,34, ,
2, ,34, ,
1, ,34, ,
1, ,34, ,
2, ,34, ,
2, ,34, ,
1, ,34, ,
2, ,34, ,
1, ,34, ,
2, ,34, ,
2, ,34, ,
1, ,34, ,
1, ,34, ,
2, ,34, ,
2, ,34, ,
1, ,34, ,
2, ,34, ,
2, ,34, ,
1, ,34, ,
2, ,34, ,
1, ,34, ,
1, ,34, ,
2, ,34, ,
2, ,34, ,
1, ,34, ,
2, ,34, ,
1, ,34, ,
1, ,34, ,
2, ,33, ,
1, ,21, ,
1, ,1, ,
2, ,-14, ,
1, ,-26, ,
1, ,-35, ,
2, ,-41, ,
2, ,-46, ,
1, ,-50, ,
2, ,-53, ,
1, ,-54, ,
2, ,-56, ,
2, ,-57, ,
2, ,-58, ,
1, ,-58, ,
2, ,-59, ,
1, ,-58, ,
1, ,-59, ,
2, ,-60, ,
2, ,-60, ,
1, ,-59, ,
2, ,-60, ,
1, ,-60, ,
1, ,-60, ,
2, ,-60, ,
2, ,-60, ,
1, ,-60, ,
2, ,-60, ,
1, ,-59, ,
1, ,-60, ,
2, ,-60, ,
2, ,-59, ,
1, ,-59, ,
2, ,-60, ,
1, ,-59, ,
1, ,-59, ,
2, ,-60, ,
2, ,-60, ,
1, ,-59, ,
2, ,-60, ,
1, ,-59, ,
1, ,-59, ,
2, ,-60, ,
2, ,-59, ,
1, ,-59, ,
2, ,-60, ,
1, ,-59, ,
1, ,-59, ,
2, ,-59, ,
1, ,-59, ,
1, ,-59, ,
2, ,-60, ,
1, ,-59, ,
1, ,-59, ,
2, ,-59, ,
2, ,-59, ,
1, ,-59, ,
2, ,-59, ,
1, ,-59, ,
1, ,-59, ,
2, ,-59, ,
2, ,-59, ,
1, ,-59, ,
2, ,-60, ,
1, ,-59, ,
1, ,-59, ,
2, ,-59, ,
2, ,-59, ,
-1, ,-59, ,
2, ,-60, ,
1, ,-59, ,
1, ,-59, ,
2, ,-59, ,
1, ,-59, ,
-1, ,-59, ,
2, ,-60, ,
1, ,-58, ,
1, ,-59, ,
2, ,-59, ,
2, ,-59, ,
1, ,-59, ,
2, ,-59, ,
1, ,-59, ,
1, ,-59, ,
2, ,-59, ,
1, ,-59, ,
-1, ,-59, ,
2, ,-59, ,
1, ,-58, ,
1, ,-59, ,
2, ,-60, ,
2, ,-59, ,
-1, ,-59, ,
2, ,-60, ,
1, ,-59, ,
1, ,-59, ,
2, ,-59, ,
1, ,-59, ,
-1, ,-59, ,
2, ,-59, ,
1, ,-58, ,
1, ,-59, ,
1, ,-59, ,
2, ,-59, ,
-1, ,-58, ,
2, ,-59, ,
1, ,-59, ,
1, ,-59, ,
2, ,-59, ,
2, ,-59, ,
-1, ,-59, ,
2, ,-60, ,
1, ,-58, ,
1, ,-59, ,
2, ,-60, ,
2, ,-59, ,
-1, ,-59, ,
2, ,-60, ,
1, ,-59, ,
1, ,-59, ,
2, ,-59, ,
2, ,-59, ,
-1, ,-59, ,
2, ,-60, ,
1, ,-58, ,
1, ,-59, ,
2, ,-59, ,
1, ,-59, ,
-1, ,-59, ,
2, ,-59, ,
1, ,-59, ,
1, ,-59, ,
2, ,-59, ,
1, ,-59, ,
-1, ,-59, ,
2, ,-59, ,
1, ,-58, ,
1, ,-59, ,
2, ,-59, ,
2, ,-59, ,
-1, ,-59, ,
2, ,-59, ,
1, ,-58, ,
1, ,-59, ,
2, ,-59, ,
2, ,-59, ,
-1, ,-59, ,
2, ,-59, ,
1, ,-59, ,
1, ,-59, ,
2, ,-59, ,
2, ,-59, ,
-1, ,-59, ,
2, ,-59, ,
1, ,-58, ,
1, ,-59, ,
2, ,-59, ,
2, ,-59, ,
-1, ,-59, ,
2, ,-59, ,
-1, ,-58, ,
1, ,-59, ,
2, ,-59, ,
1, ,-59, ,
-1, ,-59, ,
2, ,-59, ,
1, ,-58, ,
1, ,-59, ,
2, ,-59, ,
1, ,-59, ,
-1, ,-59, ,
2, ,-60, ,
1, ,-59, ,
1, ,-59, ,
2, ,-59, ,
1, ,-59, ,
-1, ,-59, ,
2, ,-59, ,
1, ,-59, ,
1, ,-59, ,
2, ,-59, ,
2, ,-59, ,
-1, ,-59, ,
2, ,-60, ,
1, ,-59, ,
1, ,-59, ,
1, ,-59, ,
1, ,-59, ,
-1, ,-59, ,
2, ,-59, ,
-1, ,-58, ,
1, ,-59, ,
1, ,-60, ,
2, ,-59, ,
-1, ,-59, ,
2, ,-60, ,
1, ,-58, ,
1, ,-59, ,
1, ,-59, ,
2, ,-59, ,
-1, ,-59, ,
2, ,-59, ,
-1, ,-59, ,
1, ,-59, ,
2, ,-59, ,
2, ,-59, ,
-1, ,-59, ,
2, ,-59, ,
1, ,-58, ,
1, ,-59, ,
2, ,-59, ,
1, ,-59, ,
-1, ,-59, ,
2, ,-59, ,
-1, ,-59, ,
1, ,-59, ,
2, ,-59, ,
2, ,-59, ,
-1, ,-59, ,
2, ,-59, ,
-1, ,-59, ,
1, ,-59, ,
2, ,-59, ,
1, ,-59, ,
-1, ,-58, ,
2, ,-59, ,
1, ,-59, ,
1, ,-59, ,
2, ,-59, ,
1, ,-59, ,
-1, ,-59, ,
2, ,-59, ,
1, ,-58, ,
1, ,-59, ,
2, ,-59, ,
1, ,-59, ,
-1, ,-59, ,
2, ,-59, ,
-1, ,-59, ,
1, ,-59, ,
1, ,-59, ,
1, ,-59, ,
-1, ,-59, ,
2, ,-59, ,
-1, ,-58, ,
1, ,-59, ,
2, ,-59, ,
1, ,-59, ,
-1, ,-58, ,
2, ,-59, ,
-1, ,-59, ,
1, ,-59, ,
1, ,-59, ,
1, ,-59, ,
-1, ,-59, ,
2, ,-59, ,
1, ,-59, ,
1, ,-59, ,
2, ,-59, ,
2, ,-59, ,
-1, ,-59, ,
2, ,-59, ,
-1, ,-59, ,
1, ,-59, ,
2, ,-59, ,
1, ,-59, ,
-1, ,-59, ,
2, ,-59, ,
-1, ,-58, ,
1, ,-59, ,
2, ,-59, ,
1, ,-59, ,
-1, ,-59, ,
2, ,-59, ,
1, ,-59, ,
1, ,-59, ,
2, ,-59, ,
1, ,-58, ,
-1, ,-59, ,
2, ,-60, ,
1, ,-59, ,
1, ,-59, ,
1, ,-59, ,
1, ,-59, ,
-1, ,-59, ,
2, ,-59, ,
-1, ,-59, ,
1, ,-59, ,
1, ,-59, ,
1, ,-58, ,
-1, ,-59, ,
2, ,-59, ,
1, ,-59, ,
1, ,-59, ,
1, ,-59, ,
1, ,-59, ,
-1, ,-59, ,
2, ,-59, ,
-1, ,-59, ,
1, ,-59, ,
2, ,-59, ,
2, ,-59, ,
-1, ,-59, ,
2, ,-59, ,
-1, ,-59, ,
1, ,-59, ,
2, ,-59, ,
1, ,-59, ,
-1, ,-59, ,
2, ,-59, ,
-1, ,-59, ,
1, ,-59, ,
2, ,-59, ,
1, ,-59, ,
-1, ,-59, ,
1, ,-59, ,
-1, ,-58, ,
1, ,-59, ,
1, ,-59, ,
1, ,-59, ,
-1, ,-59, ,
2, ,-59, ,
-1, ,-59, ,
-1, ,-59, ,
1, ,-59, ,
1, ,-59, ,
-1, ,-59, ,
2, ,-60, ,
-1, ,-58, ,
-1, ,-59, ,
1, ,-59, ,
2, ,-59, ,
-1, ,-59, ,
2, ,-60, ,
-1, ,-59, ,
1, ,-59, ,
1, ,-59, ,
1, ,-59, ,
-1, ,-59, ,
1, ,-60, ,
-1, ,-59, ,
-1, ,-59, ,
1, ,-59, ,
1, ,-59, ,
-1, ,-59, ,
2, ,-60, ,
-1, ,-59, ,
1, ,-59, ,
1, ,-59, ,
2, ,-59, ,
-1, ,-59, ,
2, ,-59, ,
-1, ,-59, ,
1, ,-59, ,
1, ,-59, ,
1, ,-59, ,
-1, ,-59, ,
2, ,-59, ,
-1, ,-59, ,
1, ,-59, ,
1, ,-59, ,
2, ,-59, ,
-1, ,-59, ,
1, ,-59, ,
-1, ,-58, ,
1, ,-59, ,
1, ,-59, ,
1, ,-59, ,
-1, ,-59, ,
2, ,-59, ,
-1, ,-59, ,
-1, ,-59, ,
2, ,-59, ,
1, ,-59, ,
-1, ,-59, ,
1, ,-59, ,
-1, ,-59, ,
1, ,-59, ,
1, ,-59, ,
1, ,-59, ,
-1, ,-59, ,
2, ,-59, ,
-1, ,-59, ,
-1, ,-59, ,
1, ,-59, ,
1, ,-59, ,
-1, ,-59, ,
2, ,-59, ,
-1, ,-58, ,
1, ,-59, ,
1, ,-59, ,
1, ,-59, ,
-1, ,-59, ,
2, ,-60, ,
-1, ,-59, ,
1, ,-59, ,
1, ,-59, ,
1, ,-59, ,
-1, ,-59, ,
2, ,-59, ,
-1, ,-59, ,
1, ,-59, ,
1, ,-59, ,
1, ,-59, ,
-1, ,-58, ,
2, ,-59, ,
-1, ,-59, ,
-1, ,-59, ,
1, ,-59, ,
2, ,-59, ,
-1, ,-59, ,
2, ,-60, ,
-1, ,-59, ,
1, ,-59, ,
1, ,-59, ,
1, ,-59, ,
-1, ,-59, ,
2, ,-59, ,
-1, ,-59, ,
1, ,-59, ,
1, ,-59, ,
2, ,-59, ,
-1, ,-59, ,
2, ,-60, ,
-1, ,-58, ,
-1, ,-59, ,
1, ,-59, ,
1, ,-59, ,
-1, ,-59, ,
2, ,-59, ,
-1, ,-59, ,
1, ,-59, ,
1, ,-59, ,
1, ,-59, ,
-1, ,-59, ,
1, ,-59, ,
-1, ,-58, ,
-1, ,-59, ,
1, ,-59, ,
1, ,-59, ,
-1, ,-59, ,
1, ,-59, ,
-1, ,-59, ,
1, ,-59, ,
1, ,-59, ,
1, ,-59, ,
-1, ,-59, ,
2, ,-59, ,
-1, ,-59, ,
1, ,-59, ,
1, ,-59, ,
1, ,-59, ,
-1, ,-59, ,
1, ,-59, ,
-1, ,-59, ,
-1, ,-59, ,
1, ,-59, ,
1, ,-59, ,
-1, ,-59, ,
2, ,-60, ,
-1, ,-59, ,
1, ,-59, ,
1, ,-59, ,
1, ,-59, ,
-1, ,-59, ,
2, ,-59, ,
-1, ,-59, ,
-1, ,-59, ,
1, ,-59, ,
1, ,-59, ,
-1, ,-59, ,
2, ,-60, ,
-1, ,-59, ,
-1, ,-59, ,
1, ,-59, ,
2, ,-59, ,
-1, ,-59, ,
2, ,-59, ,
-1, ,-59, ,
-1, ,-59, ,
1, ,-59, ,
2, ,-59, ,
-1, ,-59, ,
2, ,-60, ,
-1, ,-59, ,
-1, ,-59, ,
1, ,-59, ,
1, ,-59, ,
-1, ,-59, ,
2, ,-60, ,
-1, ,-59, ,
1, ,-59, ,
1, ,-59, ,
1, ,-59, ,
-1, ,-59, ,
2, ,-60, ,
-1, ,-59, ,
1, ,-59, ,
1, ,-59, ,
2, ,-59, ,
-1, ,-59, ,
2, ,-59, ,
-1, ,-59, ,
1, ,-59, ,
1, ,-59, ,
2, ,-59, ,
-1, ,-59, ,
2, ,-59, ,
-1, ,-59, ,
-1, ,-59, ,
1, ,-59, ,
2, ,-59, ,
-1, ,-59, ,
86, ,-59, ,
62, ,-59, ,
36, ,-59, ,
24, ,-59, ,
16, ,-59, ,
10, ,-59, ,
8, ,-60, ,
5, ,-59, ,
3, ,-59, ,
5, ,-60, ,
3, ,-59, ,
1, ,-59, ,
3, ,-59, ,
2, ,-59, ,
2, ,-59, ,
3, ,-60, ,
3, ,-59, ,
1, ,-59, ,
3, ,-59, ,
2, ,-59, ,
2, ,-59, ,
3, ,-59, ,
3, ,-59, ,
2, ,-59, ,
3, ,-59, ,
2, ,-59, ,
2, ,-59, ,
3, ,-59, ,
3, ,-59, ,
1, ,-59, ,
3, ,-59, ,
2, ,-59, ,
2, ,-59, ,
2, ,-59, ,
3, ,-59, ,
1, ,-59, ,
3, ,-59, ,
2, ,-59, ,
2, ,-59, ,
3, ,-59, ,
3, ,-59, ,
1, ,-59, ,
3, ,-60, ,
2, ,-59, ,
2, ,-59, ,
2, ,-59, ,
3, ,-59, ,
2, ,-59, ,
3, ,-59, ,
1, ,-59, ,
2, ,-59, ,
2, ,-59, ,
3, ,-59, ,
1, ,-59, ,
3, ,-59, ,
2, ,-59, ,
2, ,-59, ,
2, ,-59, ,
3, ,-59, ,
1, ,-58, ,
3, ,-60, ,
2, ,-59, ,
2, ,-59, ,
2, ,-59, ,
2, ,-59, ,
1, ,-59, ,
3, ,-60, ,
2, ,-59, ,
2, ,-59, ,
2, ,-59, ,
3, ,-59, ,
1, ,-59, ,
2, ,-59, ,
1, ,-59, ,
2, ,-59, ,
2, ,-59, ,
3, ,-59, ,
1, ,-59, ,
3, ,-59, ,
2, ,-59, ,
2, ,-59, ,
2, ,-59, ,
2, ,-59, ,
1, ,-58, ,
3, ,-59, ,
1, ,-59, ,
2, ,-59, ,
2, ,-59, ,
2, ,-59, ,
1, ,-59, ,
2, ,-60, ,
2, ,-59, ,
2, ,-59, ,
2, ,-59, ,
2, ,-59, ,
1, ,-59, ,
2, ,-60, ,
1, ,-59, ,
2, ,-59, ,
2, ,-59, ,
2, ,-59, ,
1, ,-59, ,
2, ,-60, ,
2, ,-59, ,
2, ,-59, ,
2, ,-59, ,
2, ,-59, ,
1, ,-59, ,
2, ,-59, ,
1, ,-59, ,
2, ,-59, ,
2, ,-59, ,
2, ,-59, ,
1, ,-59, ,
2, ,-58, ,
1, ,-43, ,
2, ,-23, ,
3, ,-8, ,
2, ,2, ,
1, ,11, ,
3, ,17, ,
1, ,21, ,
2, ,24, ,
3, ,27, ,
3, ,30, ,
1, ,31, ,
3, ,32, ,
2, ,33, ,
1, ,33, ,
2, ,34, ,
2, ,34, ,
1, ,34, ,
3, ,35, ,
1, ,34, ,
1, ,34, ,
2, ,35, ,
2, ,35, ,
1, ,35, ,
2, ,35, ,
2, ,35, ,
2, ,34, ,
2, ,34, ,
2, ,35, ,
1, ,35, ,
2, ,35, ,
2, ,34, ,
1, ,34, ,
3, ,34, ,
2, ,35, ,
1, ,34, ,
2, ,34, ,
2, ,34, ,
1, ,34, ,
2, ,34, ,
2, ,35, ,
1, ,34, ,
2, ,34, ,
1, ,34, ,
1, ,34, ,
2, ,34, ,
2, ,34, ,
1, ,34, ,
2, ,34, ,
1, ,34, ,
1, ,34, ,
2, ,34, ,
2, ,34, ,
1, ,34, ,
2, ,34, ,
2, ,34, ,
1, ,34, ,
2, ,34, ,
2, ,34, ,
1, ,34, ,
2, ,34, ,
2, ,34, ,
1, ,34, ,
2, ,34, ,
2, ,34, ,
1, ,34, ,
2, ,34, ,
2, ,34, ,
1, ,34, ,
2, ,34, ,
2, ,34, ,
1, ,34, ,
2, ,34, ,
2, ,34, ,
1, ,34, ,
2, ,34, ,
2, ,34, ,
1, ,34, ,
2, ,34, ,
2, ,34, ,
1, ,34, ,
2, ,34, ,
1, ,34, ,
1, ,34, ,
2, ,34, ,
1, ,34, ,
1, ,34, ,
2, ,34, ,
1, ,34, ,
1, ,34, ,
2, ,34, ,
1, ,34, ,
1, ,34, ,
2, ,34, ,
1, ,34, ,
1, ,34, ,
2, ,34, ,
2, ,34, ,
1, ,34, ,
2, ,34, ,
1, ,34, ,
1, ,34, ,
2, ,34, ,
1, ,34, ,
1, ,34, ,
2, ,34, ,
1, ,34, ,
1, ,34, ,
2, ,34, ,
1, ,34, ,
1, ,34, ,
2, ,34, ,
1, ,34, ,
1, ,34, ,
2, ,34, ,
1, ,34, ,
1, ,34, ,
2, ,34, ,
1, ,34, ,
1, ,34, ,
2, ,34, ,
1, ,34, ,
1, ,34, ,
2, ,34, ,
2, ,34, ,
1, ,34, ,
2, ,34, ,
1, ,34, ,
1, ,34, ,
2, ,34, ,
1, ,34, ,
1, ,34, ,
2, ,34, ,
1, ,34, ,
1, ,34, ,
2, ,34, ,
2, ,34, ,
1, ,34, ,
2, ,34, ,
1, ,34, ,
1, ,34, ,
2, ,34, ,
1, ,34, ,
1, ,34, ,
2, ,34, ,
1, ,34, ,
1, ,34, ,
2, ,34, ,
1, ,34, ,
1, ,34, ,
2, ,34, ,
1, ,34, ,
1, ,34, ,
2, ,34, ,
1, ,34, ,
1, ,26, ,
2, ,6, ,
1, ,-11, ,
1, ,-23, ,
2, ,-33, ,
1, ,-39, ,
1, ,-44, ,
2, ,-50, ,
1, ,-52, ,
1, ,-54, ,
2, ,-55, ,
2, ,-57, ,
-1, ,-57, ,
2, ,-59, ,
1, ,-58, ,
1, ,-59, ,
2, ,-59, ,
2, ,-59, ,
1, ,-59, ,
2, ,-60, ,
1, ,-59, ,
1, ,-60, ,
2, ,-60, ,
2, ,-60, ,
1, ,-60, ,
2, ,-60, ,
1, ,-59, ,
2, ,-60, ,
2, ,-60, ,
2, ,-60, ,
1, ,-59, ,
2, ,-60, ,
1, ,-59, ,
1, ,-60, ,
2, ,-60, ,
2, ,-60, ,
1, ,-59, ,
2, ,-60, ,
1, ,-59, ,
1, ,-60, ,
2, ,-60, ,
1, ,-59, ,
1, ,-59, ,
2, ,-60, ,
1, ,-59, ,
1, ,-59, ,
2, ,-60, ,
2, ,-60, ,
-1, ,-59, ,
2, ,-60, ,
1, ,-59, ,
1, ,-59, ,
2, ,-60, ,
1, ,-59, ,
-1, ,-59, ,
2, ,-60, ,
1, ,-59, ,
1, ,-59, ,
1, ,-59, ,
2, ,-59, ,
-1, ,-59, ,
2, ,-60, ,
1, ,-59, ,
1, ,-60, ,
59, ,-60, ,
39, ,-59, ,
24, ,-59, ,
17, ,-60, ,
10, ,-59, ,
7, ,-59, ,
6, ,-60, ,
5, ,-59, ,
2, ,-59, ,
5, ,-60, ,
2, ,-59, ,
2, ,-59, ,
2, ,-59, ,
3, ,-59, ,
2, ,-59, ,
3, ,-59, ,
2, ,-59, ,
2, ,-59, ,
3, ,-59, ,
3, ,-59, ,
1, ,-59, ,
3, ,-60, ,
2, ,-59, ,
2, ,-59, ,
3, ,-60, ,
3, ,-59, ,
2, ,-59, ,
3, ,-60, ,
2, ,-59, ,
2, ,-59, ,
2, ,-59, ,
3, ,-59, ,
1, ,-59, ,
3, ,-60, ,
2, ,-59, ,
2, ,-59, ,
2, ,-60, ,
2, ,-59, ,
1, ,-58, ,
3, ,-59, ,
2, ,-59, ,
2, ,-59, ,
2, ,-60, ,
2, ,-59, ,
1, ,-59, ,
3, ,-60, ,
2, ,-59, ,
2, ,-60, ,
2, ,-59, ,
3, ,-59, ,
1, ,-59, ,
3, ,-59, ,
2, ,-59, ,
2, ,-59, ,
2, ,-59, ,
2, ,-59, ,
1, ,-59, ,
3, ,-60, ,
1, ,-59, ,
2, ,-59, ,
2, ,-59, ,
2, ,-59, ,
1, ,-59, ,
3, ,-59, ,
1, ,-59, ,
2, ,-59, ,
2, ,-59, ,
2, ,-59, ,
1, ,-59, ,
2, ,-60, ,
1, ,-59, ,
2, ,-59, ,
2, ,-59, ,
2, ,-59, ,
1, ,-59, ,
3, ,-59, ,
1, ,-59, ,
2, ,-59, ,
2, ,-59, ,
2, ,-59, ,
1, ,-59, ,
2, ,-60, ,
1, ,-59, ,
2, ,-59, ,
2, ,-59, ,
2, ,-59, ,
1, ,-58, ,
3, ,-59, ,
1, ,-59, ,
2, ,-59, ,
2, ,-59, ,
2, ,-59, ,
1, ,-59, ,
3, ,-60, ,
2, ,-59, ,
2, ,-59, ,
2, ,-59, ,
2, ,-59, ,
1, ,-59, ,
3, ,-60, ,
1, ,-59, ,
2, ,-59, ,
2, ,-59, ,
2, ,-59, ,
1, ,-59, ,
3, ,-60, ,
1, ,-58, ,
1, ,-59, ,
2, ,-59, ,
2, ,-59, ,
1, ,-59, ,
2, ,-59, ,
1, ,-59, ,
2, ,-59, ,
2, ,-60, ,
2, ,-59, ,
1, ,-59, ,
3, ,-59, ,
2, ,-59, ,
2, ,-59, ,
2, ,-59, ,
2, ,-59, ,
1, ,-59, ,
2, ,-60, ,
1, ,-59, ,
1, ,-59, ,
2, ,-59, ,
2, ,-59, ,
1, ,-59, ,
3, ,-60, ,
1, ,-59, ,
2, ,-59, ,
2, ,-59, ,
2, ,-59, ,
1, ,-58, ,
3, ,-59, ,
1, ,-59, ,
2, ,-59, ,
2, ,-59, ,
2, ,-59, ,
1, ,-59, ,
3, ,-59, ,
2, ,-58, ,
2, ,-59, ,
2, ,-59, ,
2, ,-59, ,
1, ,-59, ,
3, ,-60, ,
1, ,-59, ,
1, ,-59, ,
2, ,-59, ,
2, ,-59, ,
1, ,-59, ,
2, ,-60, ,
1, ,-59, ,
2, ,-59, ,
2, ,-59, ,
2, ,-59, ,
1, ,-59, ,
2, ,-59, ,
1, ,-59, ,
2, ,-59, ,
2, ,-59, ,
2, ,-59, ,
1, ,-59, ,
2, ,-60, ,
1, ,-59, ,
1, ,-59, ,
2, ,-60, ,
2, ,-59, ,
1, ,-59, ,
2, ,-60, ,
1, ,-59, ,
1, ,-59, ,
2, ,-59, ,
2, ,-59, ,
1, ,-59, ,
2, ,-59, ,
1, ,-59, ,
2, ,-59, ,
2, ,-59, ,
2, ,-59, ,
1, ,-58, ,
2, ,-59, ,
1, ,-59, ,
2, ,-59, ,
2, ,-59, ,
1, ,-59, ,
1, ,-59, ,
2, ,-60, ,
1, ,-59, ,
1, ,-59, ,
2, ,-60, ,
2, ,-59, ,
1, ,-59, ,
2, ,-60, ,
1, ,-59, ,
1, ,-59, ,
2, ,-59, ,
2, ,-59, ,
1, ,-59, ,
2, ,-60, ,
1, ,-59, ,
1, ,-59, ,
2, ,-59, ,
2, ,-59, ,
1, ,-59, ,
2, ,-59, ,
1, ,-59, ,
1, ,-59, ,
2, ,-59, ,
2, ,-59, ,
1, ,-59, ,
2, ,-59, ,
1, ,-59, ,
1, ,-59, ,
2, ,-60, ,
2, ,-59, ,
1, ,-59, ,
2, ,-59, ,
1, ,-59, ,
2, ,-59, ,
2, ,-59, ,
2, ,-59, ,
1, ,-59, ,
2, ,-60, ,
1, ,-59, ,
1, ,-59, ,
2, ,-59, ,
2, ,-59, ,
1, ,-58, ,
2, ,-59, ,
1, ,-59, ,
1, ,-59, ,
2, ,-59, ,
2, ,-59, ,
1, ,-59, ,
2, ,-59, ,
1, ,-59, ,
1, ,-59, ,
2, ,-60, ,
2, ,-59, ,
1, ,-59, ,
2, ,-59, ,
1, ,-59, ,
1, ,-59, ,
2, ,-59, ,
2, ,-59, ,
1, ,-59, ,
2, ,-60, ,
1, ,-59, ,
1, ,-59, ,
2, ,-59, ,
2, ,-59, ,
1, ,-59, ,
2, ,-59, ,
1, ,-59, ,
1, ,-59, ,
2, ,-59, ,
2, ,-59, ,
1, ,-59, ,
2, ,-59, ,
1, ,-59, ,
1, ,-59, ,
2, ,-60, ,
2, ,-59, ,
1, ,-59, ,
2, ,-59, ,
1, ,-59, ,
1, ,-59, ,
2, ,-59, ,
2, ,-59, ,
1, ,-59, ,
2, ,-59, ,
1, ,-59, ,
1, ,-59, ,
2, ,-59, ,
2, ,-59, ,
1, ,-58, ,
2, ,-59, ,
1, ,-59, ,
1, ,-59, ,
2, ,-59, ,
2, ,-59, ,
1, ,-59, ,
2, ,-60, ,
1, ,-59, ,
1, ,-59, ,
2, ,-59, ,
2, ,-60, ,
-1, ,-59, ,
2, ,-59, ,
1, ,-59, ,
1, ,-59, ,
2, ,-59, ,
1, ,-59, ,
-1, ,-59, ,
2, ,-59, ,
1, ,-59, ,
1, ,-59, ,
2, ,-59, ,
1, ,-59, ,
-1, ,-58, ,
2, ,-60, ,
1, ,-59, ,
1, ,-59, ,
2, ,-59, ,
2, ,-59, ,
-1, ,-59, ,
2, ,-60, ,
1, ,-58, ,
1, ,-59, ,
2, ,-59, ,
2, ,-59, ,
-1, ,-59, ,
2, ,-59, ,
1, ,-59, ,
1, ,-59, ,
2, ,-59, ,
1, ,-59, ,
-1, ,-59, ,
2, ,-60, ,
1, ,-59, ,
1, ,-59, ,
1, ,-60, ,
2, ,-59, ,
1, ,-58, ,
2, ,-59, ,
1, ,-59, ,
1, ,-59, ,
2, ,-59, ,
2, ,-59, ,
-1, ,-59, ,
2, ,-60, ,
1, ,-59, ,
1, ,-59, ,
2, ,-59, ,
2, ,-59, ,
-1, ,-59, ,
2, ,-59, ,
1, ,-59, ,
1, ,-59, ,
2, ,-59, ,
2, ,-59, ,
-1, ,-59, ,
2, ,-59, ,
1, ,-58, ,
1, ,-59, ,
2, ,-59, ,
1, ,-59, ,
-1, ,-59, ,
2, ,-59, ,
1, ,-59, ,
1, ,-59, ,
2, ,-59, ,
1, ,-59, ,
-1, ,-59, ,
2, ,-59, ,
1, ,-58, ,
1, ,-59, ,
2, ,-59, ,
1, ,-59, ,
-1, ,-59, ,
2, ,-59, ,
1, ,-59, ,
1, ,-59, ,
2, ,-59, ,
2, ,-59, ,
-1, ,-59, ,
2, ,-60, ,
1, ,-59, ,
1, ,-59, ,
1, ,-60, ,
1, ,-59, ,
-1, ,-58, ,
2, ,-59, ,
1, ,-59, ,
1, ,-59, ,
2, ,-59, ,
2, ,-59, ,
-1, ,-59, ,
2, ,-59, ,
1, ,-59, ,
1, ,-59, ,
2, ,-59, ,
2, ,-59, ,
-1, ,-59, ,
2, ,-60, ,
1, ,-59, ,
1, ,-59, ,
2, ,-59, ,
1, ,-59, ,
-1, ,-59, ,
2, ,-60, ,
1, ,-59, ,
1, ,-59, ,
2, ,-60, ,
2, ,-59, ,
-1, ,-59, ,
2, ,-59, ,
1, ,-59, ,
1, ,-59, ,
1, ,-59, ,
1, ,-59, ,
-1, ,-59, ,
2, ,-59, ,
1, ,-59, ,
1, ,-59, ,
1, ,-60, ,
2, ,-59, ,
1, ,-59, ,
2, ,-60, ,
-1, ,-59, ,
1, ,-59, ,
2, ,-59, ,
1, ,-59, ,
-1, ,-59, ,
2, ,-59, ,
1, ,-59, ,
1, ,-59, ,
1, ,-59, ,
