src/varyamp_1560/temp0002213.CSV

Format,1.0B,
Memory Length,10000,Memory Length,10000,
IntpDistance,0,IntpDistance,0,
Trigger Address,4999,Trigger Address,4999,
Trigger Level,1.040E+00,Trigger Level,1.040E+00,
Source,CH1,Source,CH2,
Vertical Units,V,Vertical Units,V,
Vertical Units Div,0,Vertical Units Div,0,
Vertical Units Extend Div,16,Vertical Units Extend Div,16,
Label,,Label,,
Probe Type,0,Probe Type,0,
Probe Ratio,1.000e+01,Probe Ratio,1.000e+00,
Vertical Scale,5.000e-01,Vertical Scale,1.000e+00,
Vertical Position,-1.820e+00,Vertical Position,0.000e+00,
Horizontal Units,S,Horizontal Units,S,
Horizontal Scale,2.000E-05,Horizontal Scale,2.000E-05,
Horizontal Position,0.000E+00,Horizontal Position,0.000E+00,
Horizontal Mode,Main,Horizontal Mode,Main,
SincET Mode,Real Time,SincET Mode,Real Time,
Sampling Period,2.000e-08,Sampling Period,2.000e-08,
Horizontal Old Scale,2.000E-05,Horizontal Old Scale,2.000E-05,
Horizontal Old Position,0.000E+00,Horizontal Old Position,0.000E+00,
Firmware,V1.23,Firmware,V1.23,
Mode,Fast,Mode,Fast,
Waveform Data,,Waveform Data,,
1, ,-52, ,
3, ,-52, ,
1, ,-52, ,
2, ,-52, ,
2, ,-52, ,
2, ,-51, ,
1, ,-52, ,
3, ,-52, ,
1, ,-52, ,
1, ,-51, ,
2, ,-52, ,
2, ,-52, ,
1, ,-52, ,
3, ,-52, ,
1, ,-52, ,
2, ,-52, ,
2, ,-52, ,
2, ,-52, ,
1, ,-52, ,
3, ,-52, ,
1, ,-52, ,
2, ,-52, ,
2, ,-52, ,
2, ,-52, ,
1, ,-52, ,
3, ,-52, ,
2, ,-52, ,
1, ,-52, ,
2, ,-52, ,
2, ,-51, ,
1, ,-52, ,
3, ,-52, ,
1, ,-52, ,
1, ,-52, ,
2, ,-52, ,
2, ,-52, ,
1, ,-52, ,
3, ,-52, ,
1, ,-52, ,
1, ,-52, ,
2, ,-52, ,
2, ,-51, ,
1, ,-52, ,
3, ,-52, ,
1, ,-52, ,
1, ,-51, ,
2, ,-52, ,
2, ,-52, ,
1, ,-52, ,
3, ,-52, ,
1, ,-52, ,
1, ,-52, ,
2, ,-52, ,
2, ,-52, ,
1, ,-52, ,
3, ,-52, ,
1, ,-52, ,
1, ,-52, ,
2, ,-52, ,
2, ,-52, ,
1, ,-52, ,
3, ,-52, ,
1, ,-52, ,
2, ,-52, ,
2, ,-52, ,
2, ,-52, ,
1, ,-52, ,
3, ,-52, ,
2, ,-52, ,
1, ,-52, ,
2, ,-52, ,
2, ,-52, ,
1, ,-52, ,
3, ,-52, ,
1, ,-52, ,
1, ,-52, ,
2, ,-52, ,
2, ,-52, ,
1, ,-52, ,
3, ,-52, ,
1, ,-52, ,
1, ,-52, ,
2, ,-52, ,
2, ,-52, ,
1, ,-52, ,
3, ,-52, ,
1, ,-52, ,
1, ,-52, ,
2, ,-52, ,
2, ,-52, ,
1, ,-52, ,
3, ,-52, ,
1, ,-52, ,
1, ,-52, ,
2, ,-52, ,
2, ,-52, ,
1, ,-52, ,
3, ,-52, ,
1, ,-52, ,
1, ,-52, ,
2, ,-52, ,
2, ,-52, ,
1, ,-52, ,
3, ,-52, ,
1, ,-52, ,
1, ,-52, ,
2, ,-52, ,
1, ,-52, ,
-1, ,-52, ,
3, ,-52, ,
1, ,-52, ,
1, ,-52, ,
2, ,-52, ,
1, ,-51, ,
-1, ,-52, ,
2, ,-52, ,
1, ,-52, ,
1, ,-52, ,
2, ,-52, ,
1, ,-52, ,
-1, ,-52, ,
3, ,-52, ,
1, ,-52, ,
1, ,-52, ,
2, ,-53, ,
2, ,-52, ,
-1, ,-52, ,
2, ,-52, ,
1, ,-52, ,
1, ,-52, ,
2, ,-52, ,
2, ,-52, ,
-1, ,-52, ,
3, ,-52, ,
1, ,-52, ,
1, ,-52, ,
2, ,-52, ,
1, ,-51, ,
-1, ,-52, ,
2, ,-52, ,
1, ,-52, ,
1, ,-52, ,
2, ,-52, ,
1, ,-52, ,
-1, ,-52, ,
2, ,-52, ,
1, ,-52, ,
1, ,-52, ,
2, ,-52, ,
1, ,-51, ,
-1, ,-52, ,
2, ,-52, ,
1, ,-52, ,
1, ,-52, ,
2, ,-52, ,
1, ,-52, ,
-1, ,-52, ,
2, ,-52, ,
1, ,-52, ,
1, ,-52, ,
2, ,-52, ,
2, ,-52, ,
-1, ,-52, ,
2, ,-52, ,
1, ,-52, ,
1, ,-52, ,
2, ,-52, ,
1, ,-52, ,
1, ,-52, ,
2, ,-52, ,
1, ,-52, ,
1, ,-52, ,
2, ,-52, ,
1, ,-52, ,
-1, ,-52, ,
2, ,-52, ,
1, ,-52, ,
1, ,-52, ,
2, ,-52, ,
1, ,-52, ,
1, ,-52, ,
3, ,-52, ,
1, ,-52, ,
1, ,-52, ,
2, ,-52, ,
2, ,-52, ,
-1, ,-52, ,
2, ,-52, ,
1, ,-52, ,
1, ,-51, ,
2, ,-52, ,
1, ,-52, ,
-1, ,-52, ,
2, ,-52, ,
1, ,-52, ,
1, ,-52, ,
2, ,-53, ,
2, ,-51, ,
-1, ,-52, ,
2, ,-52, ,
1, ,-52, ,
1, ,-52, ,
2, ,-52, ,
2, ,-52, ,
-1, ,-52, ,
3, ,-52, ,
1, ,-52, ,
1, ,-52, ,
2, ,-52, ,
1, ,-52, ,
-1, ,-52, ,
2, ,-52, ,
1, ,-52, ,
1, ,-52, ,
2, ,-52, ,
1, ,-52, ,
-1, ,-52, ,
2, ,-52, ,
1, ,-52, ,
1, ,-52, ,
2, ,-52, ,
1, ,-52, ,
-1, ,-52, ,
2, ,-52, ,
1, ,-52, ,
1, ,-52, ,
2, ,-52, ,
1, ,-52, ,
-1, ,-52, ,
2, ,-52, ,
1, ,-52, ,
1, ,-52, ,
2, ,-53, ,
1, ,-52, ,
-1, ,-52, ,
2, ,-52, ,
1, ,-52, ,
-1, ,-52, ,
2, ,-52, ,
1, ,-52, ,
-1, ,-52, ,
2, ,-52, ,
1, ,-52, ,
1, ,-52, ,
2, ,-52, ,
1, ,-52, ,
-1, ,-52, ,
2, ,-53, ,
1, ,-52, ,
-1, ,-52, ,
2, ,-52, ,
1, ,-52, ,
-1, ,-52, ,
2, ,-52, ,
1, ,-52, ,
1, ,-52, ,
2, ,-52, ,
1, ,-51, ,
-1, ,-52, ,
2, ,-52, ,
1, ,-52, ,
1, ,-52, ,
2, ,-52, ,
1, ,-52, ,
-1, ,-52, ,
2, ,-52, ,
1, ,-52, ,
-1, ,-52, ,
2, ,-52, ,
1, ,-52, ,
-1, ,-52, ,
2, ,-52, ,
-1, ,-52, ,
1, ,-52, ,
2, ,-52, ,
1, ,-52, ,
-1, ,-52, ,
2, ,-52, ,
1, ,-52, ,
1, ,-52, ,
2, ,-52, ,
1, ,-52, ,
-1, ,-52, ,
2, ,-52, ,
1, ,-52, ,
-1, ,-52, ,
2, ,-52, ,
1, ,-52, ,
-1, ,-52, ,
2, ,-52, ,
1, ,-52, ,
1, ,-52, ,
2, ,-52, ,
1, ,-51, ,
-1, ,-52, ,
2, ,-52, ,
1, ,-52, ,
-1, ,-52, ,
2, ,-52, ,
1, ,-52, ,
-1, ,-52, ,
2, ,-52, ,
1, ,-52, ,
1, ,-52, ,
2, ,-52, ,
1, ,-51, ,
-1, ,-38, ,
2, ,-18, ,
1, ,-2, ,
1, ,8, ,
2, ,17, ,
2, ,23, ,
-1, ,28, ,
2, ,32, ,
1, ,35, ,
1, ,37, ,
1, ,38, ,
1, ,39, ,
-1, ,40, ,
2, ,40, ,
1, ,41, ,
1, ,41, ,
2, ,41, ,
1, ,41, ,
-1, ,41, ,
2, ,42, ,
1, ,42, ,
1, ,42, ,
2, ,42, ,
1, ,42, ,
-1, ,42, ,
2, ,42, ,
1, ,42, ,
-1, ,42, ,
2, ,42, ,
1, ,41, ,
-1, ,42, ,
2, ,42, ,
1, ,42, ,
-1, ,42, ,
2, ,42, ,
1, ,42, ,
-1, ,42, ,
2, ,41, ,
1, ,42, ,
-1, ,41, ,
2, ,42, ,
1, ,41, ,
-1, ,41, ,
2, ,41, ,
1, ,42, ,
-1, ,41, ,
2, ,42, ,
1, ,41, ,
-1, ,41, ,
2, ,41, ,
-1, ,41, ,
-1, ,41, ,
2, ,42, ,
1, ,41, ,
-1, ,41, ,
2, ,41, ,
1, ,42, ,
-1, ,41, ,
2, ,41, ,
1, ,41, ,
-1, ,41, ,
2, ,41, ,
1, ,41, ,
-1, ,41, ,
2, ,42, ,
1, ,41, ,
-1, ,41, ,
2, ,41, ,
1, ,42, ,
-1, ,41, ,
2, ,41, ,
1, ,41, ,
-1, ,41, ,
2, ,41, ,
1, ,41, ,
-1, ,41, ,
2, ,41, ,
1, ,41, ,
-1, ,41, ,
2, ,41, ,
1, ,41, ,
-1, ,41, ,
2, ,41, ,
1, ,41, ,
-1, ,41, ,
2, ,41, ,
1, ,41, ,
-1, ,41, ,
1, ,42, ,
1, ,41, ,
-1, ,41, ,
2, ,41, ,
1, ,41, ,
-1, ,41, ,
1, ,41, ,
1, ,41, ,
-1, ,41, ,
2, ,41, ,
1, ,41, ,
-1, ,41, ,
2, ,41, ,
1, ,41, ,
-1, ,41, ,
2, ,41, ,
1, ,41, ,
-1, ,41, ,
2, ,41, ,
1, ,41, ,
-1, ,41, ,
2, ,41, ,
1, ,42, ,
-1, ,41, ,
1, ,42, ,
1, ,41, ,
-1, ,41, ,
2, ,41, ,
1, ,41, ,
-1, ,41, ,
1, ,41, ,
1, ,41, ,
-1, ,41, ,
2, ,41, ,
1, ,41, ,
-1, ,41, ,
2, ,41, ,
1, ,41, ,
-1, ,41, ,
2, ,41, ,
1, ,42, ,
-1, ,41, ,
1, ,41, ,
1, ,41, ,
-1, ,41, ,
2, ,41, ,
1, ,41, ,
-1, ,41, ,
2, ,41, ,
1, ,41, ,
-1, ,41, ,
2, ,41, ,
1, ,42, ,
-1, ,41, ,
2, ,41, ,
1, ,41, ,
-1, ,41, ,
2, ,41, ,
1, ,41, ,
-1, ,41, ,
2, ,41, ,
1, ,41, ,
-1, ,41, ,
2, ,41, ,
1, ,41, ,
-1, ,41, ,
1, ,36, ,
1, ,16, ,
-1, ,-2, ,
1, ,-15, ,
-1, ,-24, ,
-1, ,-32, ,
2, ,-37, ,
1, ,-41, ,
-1, ,-44, ,
2, ,-46, ,
1, ,-47, ,
1, ,-49, ,
1, ,-51, ,
1, ,-50, ,
-1, ,-52, ,
1, ,-52, ,
-1, ,-52, ,
72, ,-52, ,
45, ,-53, ,
27, ,-53, ,
16, ,-53, ,
12, ,-52, ,
8, ,-52, ,
6, ,-52, ,
6, ,-53, ,
5, ,-52, ,
3, ,-53, ,
5, ,-53, ,
2, ,-52, ,
2, ,-52, ,
3, ,-53, ,
3, ,-52, ,
1, ,-52, ,
5, ,-52, ,
2, ,-52, ,
2, ,-52, ,
2, ,-53, ,
2, ,-52, ,
1, ,-52, ,
5, ,-52, ,
2, ,-52, ,
1, ,-52, ,
2, ,-52, ,
3, ,-52, ,
1, ,-52, ,
5, ,-52, ,
2, ,-52, ,
1, ,-52, ,
2, ,-53, ,
2, ,-51, ,
1, ,-52, ,
3, ,-52, ,
2, ,-52, ,
1, ,-52, ,
3, ,-52, ,
2, ,-52, ,
1, ,-52, ,
5, ,-52, ,
2, ,-52, ,
2, ,-52, ,
2, ,-52, ,
2, ,-51, ,
1, ,-52, ,
3, ,-52, ,
2, ,-52, ,
1, ,-52, ,
2, ,-52, ,
2, ,-52, ,
1, ,-52, ,
5, ,-52, ,
2, ,-52, ,
1, ,-52, ,
2, ,-52, ,
2, ,-51, ,
1, ,-52, ,
3, ,-52, ,
2, ,-52, ,
1, ,-52, ,
2, ,-52, ,
2, ,-51, ,
1, ,-52, ,
5, ,-52, ,
2, ,-52, ,
2, ,-52, ,
2, ,-53, ,
2, ,-52, ,
1, ,-52, ,
3, ,-52, ,
2, ,-52, ,
1, ,-52, ,
2, ,-52, ,
2, ,-51, ,
1, ,-52, ,
5, ,-52, ,
1, ,-52, ,
1, ,-52, ,
2, ,-52, ,
2, ,-51, ,
1, ,-52, ,
3, ,-52, ,
2, ,-52, ,
1, ,-52, ,
2, ,-52, ,
2, ,-52, ,
1, ,-52, ,
5, ,-52, ,
2, ,-52, ,
1, ,-52, ,
2, ,-52, ,
2, ,-51, ,
1, ,-52, ,
3, ,-52, ,
1, ,-52, ,
1, ,-52, ,
2, ,-52, ,
2, ,-52, ,
1, ,-52, ,
3, ,-52, ,
2, ,-52, ,
2, ,-52, ,
2, ,-52, ,
2, ,-51, ,
1, ,-52, ,
3, ,-52, ,
1, ,-52, ,
1, ,-52, ,
2, ,-52, ,
2, ,-51, ,
1, ,-52, ,
3, ,-52, ,
1, ,-52, ,
1, ,-52, ,
2, ,-52, ,
2, ,-51, ,
1, ,-52, ,
3, ,-52, ,
1, ,-52, ,
1, ,-52, ,
2, ,-52, ,
2, ,-52, ,
1, ,-52, ,
3, ,-52, ,
1, ,-52, ,
1, ,-52, ,
2, ,-52, ,
2, ,-52, ,
1, ,-52, ,
3, ,-52, ,
1, ,-52, ,
1, ,-52, ,
2, ,-52, ,
2, ,-52, ,
1, ,-52, ,
3, ,-52, ,
1, ,-52, ,
1, ,-52, ,
2, ,-53, ,
2, ,-51, ,
1, ,-52, ,
3, ,-52, ,
1, ,-52, ,
1, ,-52, ,
2, ,-52, ,
2, ,-52, ,
1, ,-52, ,
3, ,-52, ,
1, ,-52, ,
1, ,-52, ,
2, ,-52, ,
2, ,-52, ,
1, ,-52, ,
2, ,-52, ,
1, ,-52, ,
1, ,-52, ,
2, ,-52, ,
2, ,-52, ,
1, ,-52, ,
3, ,-52, ,
1, ,-52, ,
1, ,-52, ,
2, ,-52, ,
2, ,-51, ,
1, ,-52, ,
3, ,-52, ,
1, ,-52, ,
1, ,-52, ,
2, ,-52, ,
2, ,-52, ,
1, ,-52, ,
3, ,-52, ,
1, ,-52, ,
1, ,-52, ,
2, ,-52, ,
2, ,-51, ,
1, ,-52, ,
3, ,-52, ,
1, ,-52, ,
1, ,-52, ,
2, ,-52, ,
2, ,-52, ,
1, ,-52, ,
3, ,-52, ,
1, ,-52, ,
1, ,-52, ,
2, ,-52, ,
2, ,-52, ,
1, ,-52, ,
2, ,-52, ,
1, ,-52, ,
1, ,-52, ,
2, ,-52, ,
1, ,-52, ,
1, ,-52, ,
3, ,-52, ,
1, ,-52, ,
1, ,-52, ,
2, ,-53, ,
2, ,-52, ,
-1, ,-52, ,
3, ,-52, ,
1, ,-52, ,
1, ,-52, ,
2, ,-52, ,
2, ,-52, ,
-1, ,-52, ,
3, ,-52, ,
1, ,-52, ,
1, ,-52, ,
2, ,-52, ,
2, ,-52, ,
1, ,-52, ,
2, ,-52, ,
1, ,-52, ,
1, ,-52, ,
2, ,-52, ,
1, ,-52, ,
1, ,-52, ,
3, ,-52, ,
1, ,-52, ,
1, ,-52, ,
2, ,-52, ,
2, ,-52, ,
-1, ,-52, ,
2, ,-52, ,
1, ,-52, ,
1, ,-52, ,
2, ,-52, ,
1, ,-52, ,
-1, ,-52, ,
2, ,-52, ,
1, ,-52, ,
1, ,-52, ,
2, ,-52, ,
1, ,-51, ,
1, ,-52, ,
2, ,-52, ,
1, ,-51, ,
1, ,-52, ,
2, ,-52, ,
1, ,-52, ,
-1, ,-52, ,
3, ,-52, ,
1, ,-52, ,
1, ,-52, ,
2, ,-52, ,
2, ,-52, ,
1, ,-52, ,
2, ,-52, ,
1, ,-52, ,
1, ,-52, ,
2, ,-52, ,
1, ,-52, ,
-1, ,-52, ,
3, ,-52, ,
1, ,-52, ,
1, ,-52, ,
2, ,-52, ,
1, ,-52, ,
-1, ,-52, ,
2, ,-52, ,
1, ,-52, ,
1, ,-51, ,
2, ,-52, ,
1, ,-52, ,
-1, ,-52, ,
2, ,-52, ,
1, ,-52, ,
1, ,-52, ,
2, ,-52, ,
1, ,-52, ,
-1, ,-52, ,
2, ,-52, ,
1, ,-52, ,
1, ,-52, ,
2, ,-52, ,
1, ,-52, ,
-1, ,-52, ,
2, ,-52, ,
1, ,-52, ,
1, ,-52, ,
2, ,-52, ,
1, ,-51, ,
-1, ,-52, ,
2, ,-52, ,
1, ,-52, ,
1, ,-52, ,
2, ,-52, ,
1, ,-52, ,
-1, ,-52, ,
2, ,-52, ,
1, ,-52, ,
1, ,-52, ,
1, ,-52, ,
1, ,-51, ,
-1, ,-52, ,
2, ,-52, ,
1, ,-52, ,
1, ,-52, ,
2, ,-52, ,
1, ,-52, ,
-1, ,-52, ,
2, ,-52, ,
1, ,-52, ,
1, ,-52, ,
2, ,-53, ,
1, ,-52, ,
-1, ,-52, ,
2, ,-52, ,
1, ,-52, ,
1, ,-51, ,
2, ,-52, ,
1, ,-52, ,
-1, ,-52, ,
2, ,-52, ,
1, ,-52, ,
1, ,-52, ,
2, ,-53, ,
1, ,-52, ,
-1, ,-52, ,
2, ,-52, ,
1, ,-52, ,
1, ,-52, ,
2, ,-52, ,
1, ,-52, ,
-1, ,-52, ,
2, ,-52, ,
1, ,-52, ,
1, ,-52, ,
2, ,-52, ,
1, ,-52, ,
-1, ,-52, ,
2, ,-52, ,
1, ,-52, ,
1, ,-52, ,
2, ,-52, ,
1, ,-52, ,
-1, ,-52, ,
2, ,-52, ,
1, ,-52, ,
1, ,-52, ,
2, ,-52, ,
1, ,-52, ,
-1, ,-52, ,
2, ,-52, ,
1, ,-52, ,
-1, ,-52, ,
2, ,-52, ,
1, ,-52, ,
-1, ,-52, ,
2, ,-52, ,
1, ,-52, ,
1, ,-52, ,
2, ,-52, ,
1, ,-52, ,
-1, ,-52, ,
2, ,-52, ,
1, ,-52, ,
1, ,-52, ,
2, ,-52, ,
1, ,-52, ,
-1, ,-52, ,
2, ,-52, ,
1, ,-52, ,
1, ,-52, ,
2, ,-52, ,
1, ,-52, ,
-1, ,-52, ,
2, ,-52, ,
1, ,-52, ,
-1, ,-52, ,
2, ,-53, ,
1, ,-52, ,
-1, ,-52, ,
2, ,-52, ,
1, ,-52, ,
1, ,-52, ,
2, ,-53, ,
1, ,-52, ,
-1, ,-52, ,
2, ,-52, ,
1, ,-52, ,
1, ,-51, ,
2, ,-52, ,
1, ,-52, ,
-1, ,-52, ,
2, ,-52, ,
1, ,-52, ,
1, ,-52, ,
2, ,-53, ,
1, ,-52, ,
-1, ,-52, ,
2, ,-52, ,
1, ,-52, ,
1, ,-52, ,
2, ,-52, ,
1, ,-52, ,
-1, ,-52, ,
2, ,-52, ,
1, ,-52, ,
1, ,-52, ,
2, ,-52, ,
1, ,-52, ,
-1, ,-52, ,
2, ,-52, ,
1, ,-52, ,
1, ,-52, ,
2, ,-52, ,
1, ,-52, ,
-1, ,-52, ,
2, ,-52, ,
1, ,-52, ,
1, ,-52, ,
2, ,-52, ,
1, ,-52, ,
-1, ,-52, ,
1, ,-52, ,
-1, ,-52, ,
-1, ,-52, ,
1, ,-52, ,
1, ,-52, ,
-1, ,-52, ,
2, ,-52, ,
-1, ,-52, ,
1, ,-52, ,
2, ,-52, ,
2, ,-52, ,
-1, ,-52, ,
2, ,-52, ,
1, ,-52, ,
-1, ,-52, ,
2, ,-52, ,
1, ,-52, ,
-1, ,-52, ,
2, ,-52, ,
1, ,-52, ,
1, ,-52, ,
1, ,-52, ,
1, ,-52, ,
-1, ,-52, ,
2, ,-52, ,
-1, ,-52, ,
-1, ,-52, ,
2, ,-52, ,
1, ,-52, ,
-1, ,-52, ,
2, ,-52, ,
1, ,-52, ,
-1, ,-52, ,
1, ,-52, ,
1, ,-52, ,
-1, ,-52, ,
2, ,-52, ,
-1, ,-52, ,
-1, ,-52, ,
2, ,-52, ,
1, ,-52, ,
-1, ,-52, ,
2, ,-52, ,
1, ,-52, ,
-1, ,-52, ,
2, ,-52, ,
1, ,-52, ,
-1, ,-52, ,
2, ,-52, ,
-1, ,-52, ,
1, ,-52, ,
2, ,-52, ,
1, ,-52, ,
-1, ,-52, ,
2, ,-52, ,
1, ,-52, ,
1, ,-52, ,
2, ,-52, ,
1, ,-52, ,
-1, ,-52, ,
2, ,-52, ,
1, ,-52, ,
-1, ,-52, ,
2, ,-52, ,
1, ,-52, ,
-1, ,-52, ,
2, ,-52, ,
-1, ,-52, ,
1, ,-52, ,
2, ,-52, ,
1, ,-52, ,
-1, ,-52, ,
2, ,-52, ,
1, ,-51, ,
-1, ,-52, ,
2, ,-52, ,
1, ,-52, ,
-1, ,-52, ,
2, ,-52, ,
-1, ,-52, ,
-1, ,-52, ,
1, ,-52, ,
1, ,-52, ,
-1, ,-52, ,
2, ,-52, ,
1, ,-52, ,
-1, ,-52, ,
2, ,-52, ,
1, ,-52, ,
-1, ,-52, ,
2, ,-52, ,
1, ,-52, ,
-1, ,-52, ,
1, ,-52, ,
1, ,-52, ,
-1, ,-52, ,
1, ,-52, ,
-1, ,-52, ,
-1, ,-52, ,
2, ,-52, ,
1, ,-52, ,
-1, ,-52, ,
2, ,-52, ,
1, ,-52, ,
-1, ,-52, ,
1, ,-53, ,
1, ,-52, ,
-1, ,-52, ,
2, ,-52, ,
1, ,-52, ,
-1, ,-52, ,
2, ,-52, ,
1, ,-52, ,
-1, ,-52, ,
2, ,-52, ,
1, ,-52, ,
1, ,-52, ,
2, ,-52, ,
1, ,-52, ,
-1, ,-52, ,
2, ,-52, ,
-1, ,-52, ,
-1, ,-52, ,
2, ,-52, ,
1, ,-52, ,
-1, ,-52, ,
2, ,-52, ,
-1, ,-52, ,
-1, ,-52, ,
2, ,-52, ,
1, ,-52, ,
-1, ,-52, ,
2, ,-52, ,
-1, ,-52, ,
-1, ,-52, ,
2, ,-53, ,
1, ,-52, ,
-1, ,-52, ,
2, ,-52, ,
-1, ,-52, ,
-1, ,-52, ,
1, ,-52, ,
1, ,-51, ,
-1, ,-52, ,
2, ,-52, ,
-1, ,-51, ,
-1, ,-52, ,
1, ,-52, ,
1, ,-52, ,
-1, ,-52, ,
2, ,-52, ,
-1, ,-52, ,
-1, ,-52, ,
1, ,-53, ,
1, ,-52, ,
-1, ,-52, ,
1, ,-52, ,
-1, ,-52, ,
-1, ,-52, ,
1, ,-52, ,
1, ,-52, ,
-1, ,-52, ,
2, ,-52, ,
-1, ,-52, ,
-1, ,-52, ,
1, ,-52, ,
1, ,-52, ,
-1, ,-52, ,
1, ,-52, ,
-1, ,-52, ,
-1, ,-52, ,
1, ,-52, ,
1, ,-52, ,
-1, ,-52, ,
2, ,-52, ,
-1, ,-52, ,
-1, ,-52, ,
1, ,-52, ,
1, ,-52, ,
-1, ,-52, ,
1, ,-52, ,
-1, ,-52, ,
-1, ,-52, ,
1, ,-52, ,
1, ,-52, ,
-1, ,-52, ,
2, ,-52, ,
-1, ,-52, ,
-1, ,-52, ,
2, ,-52, ,
1, ,-51, ,
-1, ,-52, ,
2, ,-43, ,
1, ,-23, ,
1, ,-7, ,
2, ,5, ,
1, ,15, ,
-1, ,22, ,
2, ,27, ,
1, ,32, ,
1, ,34, ,
2, ,36, ,
1, ,38, ,
-1, ,39, ,
2, ,40, ,
-1, ,40, ,
-1, ,41, ,
1, ,41, ,
1, ,41, ,
-1, ,41, ,
2, ,42, ,
1, ,42, ,
-1, ,42, ,
1, ,42, ,
1, ,42, ,
-1, ,41, ,
1, ,42, ,
-1, ,42, ,
-1, ,41, ,
2, ,42, ,
1, ,41, ,
-1, ,41, ,
2, ,42, ,
-1, ,41, ,
-1, ,42, ,
1, ,41, ,
1, ,42, ,
-1, ,42, ,
2, ,41, ,
1, ,41, ,
-1, ,41, ,
2, ,42, ,
1, ,41, ,
-1, ,41, ,
2, ,42, ,
-1, ,41, ,
-1, ,41, ,
1, ,41, ,
1, ,41, ,
-1, ,41, ,
2, ,41, ,
1, ,41, ,
-1, ,41, ,
1, ,41, ,
1, ,41, ,
-1, ,41, ,
2, ,41, ,
1, ,41, ,
-1, ,41, ,
1, ,41, ,
1, ,41, ,
-1, ,41, ,
2, ,41, ,
-1, ,41, ,
-1, ,41, ,
2, ,42, ,
1, ,41, ,
-1, ,41, ,
2, ,41, ,
1, ,41, ,
-1, ,41, ,
1, ,41, ,
-1, ,41, ,
-1, ,41, ,
1, ,41, ,
-1, ,41, ,
-1, ,41, ,
1, ,42, ,
1, ,41, ,
-1, ,41, ,
2, ,41, ,
-1, ,42, ,
-1, ,41, ,
1, ,41, ,
1, ,41, ,
-1, ,41, ,
2, ,41, ,
-1, ,41, ,
-1, ,41, ,
1, ,41, ,
1, ,41, ,
-2, ,41, ,
2, ,41, ,
1, ,41, ,
-1, ,41, ,
1, ,41, ,
-1, ,41, ,
-1, ,41, ,
2, ,41, ,
-1, ,41, ,
-1, ,41, ,
1, ,41, ,
1, ,41, ,
-2, ,41, ,
1, ,41, ,
-1, ,41, ,
-1, ,41, ,
1, ,41, ,
1, ,41, ,
-1, ,41, ,
1, ,41, ,
-1, ,41, ,
-1, ,41, ,
1, ,41, ,
1, ,41, ,
-1, ,41, ,
2, ,41, ,
-1, ,41, ,
-1, ,41, ,
1, ,41, ,
1, ,41, ,
-1, ,41, ,
1, ,41, ,
1, ,41, ,
-1, ,41, ,
1, ,41, ,
1, ,41, ,
-1, ,41, ,
2, ,41, ,
1, ,41, ,
-1, ,41, ,
1, ,41, ,
1, ,41, ,
-1, ,41, ,
2, ,41, ,
-1, ,41, ,
-1, ,41, ,
1, ,41, ,
1, ,41, ,
-1, ,41, ,
2, ,41, ,
1, ,41, ,
-1, ,41, ,
1, ,41, ,
1, ,41, ,
-1, ,41, ,
2, ,41, ,
-1, ,41, ,
-1, ,41, ,
2, ,41, ,
1, ,41, ,
-1, ,41, ,
87, ,41, ,
54, ,41, ,
32, ,41, ,
22, ,41, ,
13, ,39, ,
8, ,21, ,
7, ,2, ,
5, ,-12, ,
3, ,-22, ,
5, ,-30, ,
2, ,-36, ,
2, ,-40, ,
3, ,-43, ,
2, ,-45, ,
2, ,-47, ,
2, ,-50, ,
3, ,-50, ,
1, ,-51, ,
3, ,-52, ,
2, ,-51, ,
1, ,-52, ,
3, ,-52, ,
2, ,-53, ,
1, ,-53, ,
3, ,-52, ,
2, ,-53, ,
2, ,-53, ,
3, ,-53, ,
2, ,-52, ,
1, ,-53, ,
3, ,-52, ,
2, ,-52, ,
1, ,-52, ,
2, ,-53, ,
3, ,-52, ,
1, ,-53, ,
5, ,-52, ,
2, ,-52, ,
1, ,-52, ,
2, ,-53, ,
2, ,-52, ,
1, ,-52, ,
3, ,-52, ,
2, ,-52, ,
1, ,-52, ,
3, ,-53, ,
2, ,-52, ,
1, ,-52, ,
5, ,-52, ,
2, ,-52, ,
1, ,-52, ,
2, ,-53, ,
2, ,-52, ,
1, ,-52, ,
3, ,-53, ,
2, ,-52, ,
1, ,-52, ,
2, ,-52, ,
2, ,-52, ,
1, ,-52, ,
3, ,-52, ,
2, ,-52, ,
2, ,-52, ,
2, ,-52, ,
2, ,-51, ,
1, ,-52, ,
3, ,-52, ,
1, ,-52, ,
1, ,-52, ,
2, ,-52, ,
2, ,-52, ,
1, ,-52, ,
5, ,-52, ,
2, ,-52, ,
1, ,-52, ,
2, ,-52, ,
2, ,-52, ,
1, ,-52, ,
3, ,-52, ,
1, ,-52, ,
1, ,-52, ,
2, ,-52, ,
2, ,-52, ,
1, ,-52, ,
5, ,-52, ,
1, ,-52, ,
1, ,-52, ,
2, ,-52, ,
2, ,-52, ,
1, ,-52, ,
3, ,-52, ,
1, ,-52, ,
1, ,-51, ,
2, ,-52, ,
2, ,-52, ,
1, ,-52, ,
3, ,-52, ,
1, ,-52, ,
1, ,-52, ,
2, ,-52, ,
2, ,-52, ,
1, ,-52, ,
3, ,-52, ,
1, ,-52, ,
1, ,-52, ,
2, ,-52, ,
2, ,-52, ,
1, ,-52, ,
3, ,-52, ,
1, ,-52, ,
1, ,-52, ,
2, ,-52, ,
2, ,-51, ,
1, ,-52, ,
3, ,-52, ,
1, ,-52, ,
1, ,-52, ,
2, ,-52, ,
2, ,-52, ,
1, ,-52, ,
3, ,-52, ,
2, ,-52, ,
1, ,-52, ,
2, ,-52, ,
2, ,-52, ,
1, ,-52, ,
3, ,-52, ,
1, ,-52, ,
1, ,-52, ,
2, ,-52, ,
2, ,-52, ,
1, ,-52, ,
3, ,-52, ,
1, ,-52, ,
1, ,-52, ,
2, ,-52, ,
2, ,-51, ,
1, ,-52, ,
2, ,-52, ,
1, ,-52, ,
1, ,-51, ,
2, ,-52, ,
2, ,-52, ,
1, ,-52, ,
3, ,-52, ,
1, ,-52, ,
1, ,-52, ,
2, ,-52, ,
2, ,-51, ,
1, ,-52, ,
3, ,-52, ,
1, ,-52, ,
1, ,-52, ,
2, ,-52, ,
2, ,-52, ,
1, ,-52, ,
3, ,-52, ,
1, ,-52, ,
1, ,-52, ,
2, ,-52, ,
2, ,-52, ,
1, ,-52, ,
3, ,-52, ,
1, ,-52, ,
1, ,-52, ,
2, ,-52, ,
2, ,-52, ,
1, ,-52, ,
3, ,-52, ,
1, ,-51, ,
1, ,-51, ,
2, ,-52, ,
2, ,-52, ,
1, ,-52, ,
2, ,-52, ,
1, ,-52, ,
1, ,-52, ,
2, ,-52, ,
2, ,-52, ,
1, ,-52, ,
3, ,-52, ,
1, ,-52, ,
1, ,-52, ,
2, ,-52, ,
2, ,-51, ,
1, ,-52, ,
2, ,-52, ,
1, ,-52, ,
1, ,-52, ,
2, ,-52, ,
2, ,-52, ,
1, ,-52, ,
3, ,-52, ,
1, ,-52, ,
1, ,-52, ,
2, ,-52, ,
2, ,-52, ,
-1, ,-52, ,
3, ,-52, ,
1, ,-52, ,
1, ,-52, ,
2, ,-52, ,
1, ,-52, ,
1, ,-52, ,
3, ,-52, ,
1, ,-52, ,
1, ,-52, ,
2, ,-52, ,
2, ,-51, ,
-1, ,-52, ,
2, ,-52, ,
1, ,-51, ,
1, ,-52, ,
2, ,-52, ,
1, ,-52, ,
-1, ,-52, ,
2, ,-52, ,
1, ,-52, ,
1, ,-52, ,
1, ,-52, ,
1, ,-51, ,
-1, ,-52, ,
2, ,-52, ,
1, ,-52, ,
1, ,-51, ,
2, ,-52, ,
2, ,-52, ,
-1, ,-52, ,
2, ,-52, ,
1, ,-52, ,
1, ,-52, ,
2, ,-52, ,
2, ,-51, ,
-1, ,-52, ,
2, ,-52, ,
1, ,-52, ,
1, ,-51, ,
2, ,-52, ,
1, ,-52, ,
-1, ,-52, ,
2, ,-52, ,
1, ,-52, ,
1, ,-52, ,
2, ,-52, ,
1, ,-51, ,
-1, ,-52, ,
2, ,-52, ,
1, ,-51, ,
1, ,-51, ,
2, ,-52, ,
2, ,-51, ,
-1, ,-52, ,
2, ,-52, ,
1, ,-52, ,
1, ,-52, ,
2, ,-52, ,
2, ,-51, ,
-1, ,-52, ,
2, ,-52, ,
1, ,-52, ,
1, ,-51, ,
2, ,-52, ,
1, ,-52, ,
-1, ,-52, ,
2, ,-52, ,
1, ,-52, ,
1, ,-52, ,
2, ,-52, ,
2, ,-52, ,
-1, ,-52, ,
2, ,-52, ,
1, ,-52, ,
1, ,-51, ,
2, ,-52, ,
1, ,-52, ,
-1, ,-52, ,
2, ,-52, ,
1, ,-52, ,
1, ,-52, ,
2, ,-52, ,
1, ,-52, ,
-1, ,-52, ,
2, ,-52, ,
1, ,-52, ,
1, ,-52, ,
2, ,-52, ,
1, ,-52, ,
-1, ,-52, ,
3, ,-52, ,
1, ,-52, ,
1, ,-52, ,
2, ,-52, ,
1, ,-52, ,
-1, ,-52, ,
2, ,-52, ,
1, ,-52, ,
1, ,-52, ,
2, ,-52, ,
1, ,-52, ,
-1, ,-52, ,
2, ,-52, ,
1, ,-52, ,
1, ,-52, ,
2, ,-52, ,
1, ,-52, ,
-1, ,-52, ,
2, ,-52, ,
1, ,-52, ,
1, ,-52, ,
2, ,-52, ,
1, ,-52, ,
-1, ,-52, ,
3, ,-52, ,
1, ,-52, ,
1, ,-52, ,
2, ,-52, ,
1, ,-52, ,
-1, ,-52, ,
2, ,-52, ,
1, ,-52, ,
-1, ,-52, ,
2, ,-52, ,
1, ,-52, ,
-1, ,-52, ,
2, ,-52, ,
1, ,-52, ,
1, ,-52, ,
2, ,-52, ,
1, ,-52, ,
-1, ,-52, ,
2, ,-52, ,
1, ,-51, ,
1, ,-52, ,
2, ,-52, ,
1, ,-52, ,
-1, ,-52, ,
2, ,-52, ,
1, ,-52, ,
1, ,-52, ,
1, ,-52, ,
1, ,-52, ,
-1, ,-52, ,
2, ,-52, ,
1, ,-52, ,
1, ,-52, ,
2, ,-52, ,
1, ,-52, ,
-1, ,-52, ,
2, ,-52, ,
1, ,-52, ,
1, ,-52, ,
2, ,-52, ,
1, ,-51, ,
-1, ,-52, ,
2, ,-52, ,
1, ,-52, ,
1, ,-52, ,
2, ,-52, ,
1, ,-52, ,
-1, ,-52, ,
2, ,-52, ,
1, ,-52, ,
1, ,-52, ,
2, ,-52, ,
1, ,-51, ,
-1, ,-52, ,
2, ,-52, ,
1, ,-52, ,
1, ,-52, ,
2, ,-52, ,
1, ,-52, ,
-1, ,-52, ,
2, ,-52, ,
1, ,-52, ,
1, ,-52, ,
2, ,-52, ,
1, ,-52, ,
-1, ,-52, ,
2, ,-52, ,
1, ,-52, ,
1, ,-52, ,
2, ,-52, ,
1, ,-52, ,
-1, ,-52, ,
2, ,-52, ,
1, ,-52, ,
1, ,-52, ,
2, ,-52, ,
1, ,-52, ,
-1, ,-52, ,
2, ,-52, ,
1, ,-52, ,
1, ,-51, ,
2, ,-52, ,
1, ,-52, ,
-1, ,-52, ,
2, ,-52, ,
1, ,-52, ,
1, ,-52, ,
2, ,-52, ,
1, ,-52, ,
-1, ,-52, ,
2, ,-52, ,
1, ,-52, ,
1, ,-52, ,
2, ,-52, ,
1, ,-52, ,
-1, ,-52, ,
2, ,-52, ,
1, ,-52, ,
1, ,-52, ,
2, ,-53, ,
1, ,-51, ,
-1, ,-52, ,
2, ,-52, ,
1, ,-52, ,
1, ,-52, ,
2, ,-52, ,
1, ,-52, ,
-1, ,-52, ,
2, ,-52, ,
1, ,-52, ,
1, ,-52, ,
1, ,-52, ,
1, ,-52, ,
-1, ,-52, ,
1, ,-52, ,
-1, ,-52, ,
-1, ,-52, ,
2, ,-52, ,
1, ,-52, ,
-1, ,-52, ,
2, ,-52, ,
1, ,-52, ,
1, ,-52, ,
2, ,-53, ,
1, ,-51, ,
-1, ,-52, ,
2, ,-52, ,
-1, ,-52, ,
-1, ,-52, ,
2, ,-52, ,
1, ,-51, ,
-1, ,-52, ,
2, ,-52, ,
-1, ,-52, ,
-1, ,-52, ,
2, ,-52, ,
1, ,-51, ,
-1, ,-52, ,
2, ,-52, ,
-1, ,-52, ,
-1, ,-52, ,
2, ,-52, ,
1, ,-52, ,
-1, ,-52, ,
2, ,-52, ,
1, ,-52, ,
-1, ,-52, ,
1, ,-52, ,
1, ,-51, ,
-1, ,-52, ,
2, ,-52, ,
-1, ,-52, ,
-1, ,-52, ,
2, ,-52, ,
1, ,-52, ,
-1, ,-52, ,
2, ,-52, ,
-1, ,-52, ,
-1, ,-52, ,
2, ,-52, ,
1, ,-51, ,
-1, ,-52, ,
1, ,-52, ,
-1, ,-52, ,
-1, ,-51, ,
2, ,-52, ,
1, ,-52, ,
-1, ,-52, ,
2, ,-52, ,
1, ,-52, ,
-1, ,-52, ,
