src/varyamp_1560/temp0001799.CSV

Format,1.0B,
Memory Length,10000,Memory Length,10000,
IntpDistance,0,IntpDistance,0,
Trigger Address,4999,Trigger Address,4999,
Trigger Level,1.040E+00,Trigger Level,1.040E+00,
Source,CH1,Source,CH2,
Vertical Units,V,Vertical Units,V,
Vertical Units Div,0,Vertical Units Div,0,
Vertical Units Extend Div,16,Vertical Units Extend Div,16,
Label,,Label,,
Probe Type,0,Probe Type,0,
Probe Ratio,1.000e+01,Probe Ratio,1.000e+00,
Vertical Scale,5.000e-01,Vertical Scale,1.000e+00,
Vertical Position,-1.820e+00,Vertical Position,0.000e+00,
Horizontal Units,S,Horizontal Units,S,
Horizontal Scale,2.000E-05,Horizontal Scale,2.000E-05,
Horizontal Position,0.000E+00,Horizontal Position,0.000E+00,
Horizontal Mode,Main,Horizontal Mode,Main,
SincET Mode,Real Time,SincET Mode,Real Time,
Sampling Period,2.000e-08,Sampling Period,2.000e-08,
Horizontal Old Scale,2.000E-05,Horizontal Old Scale,2.000E-05,
Horizontal Old Position,0.000E+00,Horizontal Old Position,0.000E+00,
Firmware,V1.23,Firmware,V1.23,
Mode,Fast,Mode,Fast,
Waveform Data,,Waveform Data,,
-1, ,-55, ,
-1, ,-54, ,
1, ,-54, ,
1, ,-54, ,
-1, ,-54, ,
2, ,-54, ,
-1, ,-55, ,
-1, ,-54, ,
1, ,-54, ,
1, ,-54, ,
-1, ,-54, ,
1, ,-54, ,
-1, ,-55, ,
-1, ,-54, ,
1, ,-54, ,
1, ,-54, ,
-1, ,-54, ,
1, ,-54, ,
-1, ,-55, ,
-1, ,-54, ,
1, ,-54, ,
1, ,-54, ,
-1, ,-54, ,
1, ,-54, ,
-1, ,-55, ,
-1, ,-54, ,
1, ,-54, ,
1, ,-54, ,
-1, ,-54, ,
2, ,-54, ,
-1, ,-54, ,
1, ,-54, ,
1, ,-54, ,
1, ,-54, ,
-1, ,-54, ,
2, ,-54, ,
-1, ,-55, ,
-1, ,-54, ,
1, ,-54, ,
1, ,-55, ,
-1, ,-55, ,
1, ,-54, ,
-1, ,-55, ,
1, ,-54, ,
1, ,-54, ,
1, ,-54, ,
-1, ,-54, ,
1, ,-54, ,
-1, ,-55, ,
-1, ,-54, ,
1, ,-54, ,
1, ,-54, ,
-1, ,-54, ,
1, ,-54, ,
-1, ,-55, ,
1, ,-54, ,
1, ,-54, ,
1, ,-54, ,
-1, ,-54, ,
1, ,-54, ,
1, ,-55, ,
1, ,-54, ,
1, ,-54, ,
1, ,-54, ,
-1, ,-54, ,
2, ,-54, ,
1, ,-55, ,
1, ,-54, ,
1, ,-54, ,
1, ,-54, ,
-1, ,-54, ,
1, ,-54, ,
-1, ,-54, ,
1, ,-54, ,
1, ,-54, ,
1, ,-54, ,
-1, ,-54, ,
1, ,-54, ,
-1, ,-55, ,
-1, ,-54, ,
1, ,-54, ,
1, ,-54, ,
-1, ,-54, ,
2, ,-54, ,
-1, ,-55, ,
-1, ,-54, ,
1, ,-54, ,
1, ,-54, ,
-1, ,-54, ,
1, ,-54, ,
-1, ,-55, ,
1, ,-54, ,
1, ,-54, ,
1, ,-54, ,
-1, ,-54, ,
1, ,-54, ,
-1, ,-55, ,
-1, ,-54, ,
1, ,-54, ,
1, ,-54, ,
-1, ,-54, ,
1, ,-54, ,
-1, ,-55, ,
-1, ,-54, ,
1, ,-54, ,
1, ,-54, ,
-1, ,-54, ,
1, ,-54, ,
-1, ,-55, ,
-1, ,-54, ,
1, ,-54, ,
1, ,-54, ,
-1, ,-54, ,
1, ,-54, ,
-1, ,-55, ,
1, ,-54, ,
1, ,-54, ,
1, ,-54, ,
-1, ,-54, ,
1, ,-54, ,
-1, ,-55, ,
1, ,-54, ,
1, ,-54, ,
1, ,-54, ,
-1, ,-54, ,
1, ,-54, ,
-1, ,-54, ,
1, ,-54, ,
1, ,-54, ,
1, ,-54, ,
-1, ,-54, ,
1, ,-54, ,
-1, ,-55, ,
-1, ,-54, ,
1, ,-54, ,
1, ,-54, ,
-1, ,-54, ,
1, ,-54, ,
-1, ,-55, ,
-1, ,-54, ,
1, ,-54, ,
1, ,-54, ,
-1, ,-54, ,
1, ,-54, ,
1, ,-55, ,
-1, ,-54, ,
1, ,-54, ,
1, ,-55, ,
-1, ,-54, ,
1, ,-54, ,
-1, ,-55, ,
1, ,-54, ,
1, ,-54, ,
1, ,-54, ,
-1, ,-54, ,
1, ,-54, ,
-1, ,-54, ,
-1, ,-54, ,
1, ,-54, ,
1, ,-55, ,
-1, ,-54, ,
1, ,-54, ,
-1, ,-55, ,
-1, ,-54, ,
1, ,-55, ,
1, ,-54, ,
-2, ,-54, ,
1, ,-54, ,
-1, ,-55, ,
-1, ,-54, ,
1, ,-54, ,
1, ,-54, ,
-1, ,-54, ,
1, ,-54, ,
-1, ,-55, ,
-1, ,-54, ,
1, ,-54, ,
1, ,-54, ,
-1, ,-54, ,
2, ,-54, ,
-1, ,-55, ,
-1, ,-54, ,
1, ,-54, ,
2, ,-55, ,
-1, ,-54, ,
2, ,-54, ,
-1, ,-55, ,
1, ,-54, ,
1, ,-54, ,
1, ,-54, ,
-1, ,-54, ,
2, ,-54, ,
-1, ,-55, ,
-1, ,-54, ,
1, ,-54, ,
1, ,-54, ,
-1, ,-54, ,
1, ,-54, ,
-1, ,-55, ,
-1, ,-54, ,
1, ,-54, ,
1, ,-54, ,
-1, ,-54, ,
1, ,-54, ,
-1, ,-55, ,
-1, ,-54, ,
1, ,-54, ,
1, ,-54, ,
-1, ,-54, ,
1, ,-54, ,
-1, ,-55, ,
-1, ,-54, ,
1, ,-54, ,
1, ,-54, ,
-1, ,-54, ,
1, ,-54, ,
-1, ,-55, ,
1, ,-54, ,
1, ,-54, ,
1, ,-54, ,
-1, ,-54, ,
1, ,-54, ,
-1, ,-54, ,
-1, ,-54, ,
1, ,-54, ,
1, ,-54, ,
-1, ,-54, ,
2, ,-54, ,
-1, ,-54, ,
1, ,-54, ,
1, ,-54, ,
1, ,-54, ,
-1, ,-54, ,
2, ,-54, ,
1, ,-55, ,
1, ,-54, ,
1, ,-54, ,
1, ,-54, ,
-1, ,-54, ,
1, ,-54, ,
-1, ,-55, ,
1, ,-54, ,
1, ,-54, ,
1, ,-54, ,
-1, ,-54, ,
2, ,-54, ,
1, ,-55, ,
-1, ,-54, ,
1, ,-54, ,
1, ,-54, ,
-1, ,-54, ,
1, ,-54, ,
-1, ,-55, ,
1, ,-54, ,
1, ,-54, ,
1, ,-54, ,
-1, ,-54, ,
2, ,-54, ,
-1, ,-54, ,
1, ,-54, ,
1, ,-54, ,
1, ,-54, ,
-1, ,-54, ,
1, ,-54, ,
-1, ,-55, ,
-1, ,-54, ,
1, ,-54, ,
1, ,-55, ,
-1, ,-54, ,
99, ,-54, ,
63, ,-55, ,
38, ,-54, ,
25, ,-54, ,
16, ,-54, ,
10, ,-54, ,
8, ,-54, ,
5, ,-55, ,
3, ,-54, ,
3, ,-54, ,
3, ,-54, ,
1, ,-54, ,
3, ,-54, ,
2, ,-55, ,
2, ,-54, ,
2, ,-54, ,
3, ,-54, ,
2, ,-54, ,
3, ,-54, ,
2, ,-54, ,
2, ,-54, ,
2, ,-54, ,
3, ,-55, ,
1, ,-54, ,
3, ,-54, ,
2, ,-55, ,
2, ,-54, ,
2, ,-54, ,
2, ,-54, ,
1, ,-54, ,
3, ,-54, ,
2, ,-55, ,
2, ,-54, ,
3, ,-54, ,
3, ,-54, ,
2, ,-54, ,
3, ,-40, ,
2, ,-20, ,
2, ,-4, ,
3, ,7, ,
3, ,15, ,
1, ,21, ,
3, ,26, ,
2, ,30, ,
2, ,33, ,
2, ,35, ,
2, ,36, ,
1, ,37, ,
3, ,37, ,
2, ,38, ,
2, ,38, ,
3, ,39, ,
3, ,39, ,
2, ,39, ,
3, ,39, ,
2, ,39, ,
2, ,39, ,
3, ,39, ,
2, ,39, ,
2, ,39, ,
3, ,39, ,
2, ,39, ,
2, ,39, ,
3, ,39, ,
2, ,39, ,
1, ,39, ,
3, ,39, ,
2, ,39, ,
2, ,39, ,
3, ,39, ,
2, ,39, ,
2, ,39, ,
3, ,39, ,
2, ,39, ,
2, ,39, ,
3, ,39, ,
2, ,39, ,
2, ,39, ,
3, ,39, ,
2, ,39, ,
2, ,39, ,
3, ,39, ,
2, ,39, ,
2, ,39, ,
3, ,39, ,
2, ,39, ,
2, ,39, ,
3, ,39, ,
2, ,39, ,
1, ,39, ,
3, ,39, ,
2, ,39, ,
2, ,39, ,
3, ,39, ,
2, ,39, ,
2, ,39, ,
2, ,39, ,
2, ,39, ,
2, ,39, ,
3, ,39, ,
2, ,39, ,
1, ,39, ,
2, ,39, ,
2, ,39, ,
2, ,39, ,
3, ,39, ,
2, ,39, ,
1, ,39, ,
2, ,39, ,
2, ,39, ,
1, ,39, ,
3, ,39, ,
2, ,39, ,
1, ,39, ,
2, ,38, ,
2, ,39, ,
2, ,39, ,
2, ,39, ,
2, ,39, ,
1, ,39, ,
2, ,39, ,
2, ,39, ,
1, ,39, ,
2, ,39, ,
2, ,39, ,
1, ,39, ,
2, ,39, ,
2, ,39, ,
1, ,39, ,
2, ,39, ,
2, ,39, ,
1, ,39, ,
2, ,39, ,
1, ,39, ,
1, ,39, ,
2, ,39, ,
2, ,39, ,
1, ,39, ,
2, ,39, ,
1, ,39, ,
1, ,39, ,
2, ,39, ,
2, ,39, ,
1, ,39, ,
2, ,39, ,
2, ,39, ,
1, ,39, ,
2, ,39, ,
2, ,39, ,
1, ,39, ,
2, ,39, ,
2, ,39, ,
2, ,39, ,
2, ,39, ,
2, ,39, ,
1, ,39, ,
2, ,39, ,
2, ,39, ,
1, ,39, ,
2, ,39, ,
1, ,39, ,
1, ,39, ,
2, ,38, ,
1, ,39, ,
1, ,39, ,
2, ,39, ,
2, ,39, ,
1, ,39, ,
2, ,39, ,
2, ,39, ,
1, ,38, ,
2, ,39, ,
2, ,39, ,
1, ,39, ,
2, ,39, ,
2, ,39, ,
1, ,39, ,
2, ,39, ,
1, ,39, ,
1, ,39, ,
2, ,39, ,
1, ,39, ,
1, ,39, ,
2, ,39, ,
2, ,39, ,
1, ,39, ,
2, ,39, ,
2, ,39, ,
2, ,39, ,
2, ,38, ,
1, ,32, ,
1, ,13, ,
2, ,-5, ,
1, ,-17, ,
1, ,-27, ,
2, ,-34, ,
1, ,-40, ,
1, ,-43, ,
2, ,-46, ,
1, ,-50, ,
1, ,-51, ,
2, ,-52, ,
2, ,-53, ,
1, ,-53, ,
2, ,-54, ,
1, ,-54, ,
2, ,-54, ,
2, ,-55, ,
2, ,-55, ,
1, ,-55, ,
2, ,-55, ,
1, ,-55, ,
1, ,-55, ,
2, ,-55, ,
2, ,-55, ,
1, ,-55, ,
2, ,-55, ,
1, ,-55, ,
1, ,-55, ,
2, ,-55, ,
2, ,-55, ,
1, ,-55, ,
2, ,-55, ,
1, ,-55, ,
2, ,-54, ,
2, ,-54, ,
2, ,-55, ,
1, ,-55, ,
2, ,-54, ,
1, ,-55, ,
1, ,-55, ,
2, ,-55, ,
2, ,-55, ,
1, ,-55, ,
2, ,-54, ,
1, ,-55, ,
1, ,-54, ,
2, ,-54, ,
2, ,-55, ,
1, ,-54, ,
2, ,-55, ,
1, ,-55, ,
1, ,-54, ,
2, ,-54, ,
2, ,-55, ,
1, ,-55, ,
2, ,-54, ,
1, ,-55, ,
1, ,-54, ,
2, ,-54, ,
1, ,-55, ,
-1, ,-54, ,
2, ,-54, ,
1, ,-55, ,
1, ,-54, ,
2, ,-54, ,
2, ,-54, ,
1, ,-54, ,
2, ,-54, ,
1, ,-55, ,
2, ,-54, ,
2, ,-54, ,
2, ,-54, ,
1, ,-54, ,
2, ,-54, ,
1, ,-55, ,
1, ,-54, ,
2, ,-54, ,
1, ,-54, ,
-1, ,-55, ,
2, ,-55, ,
1, ,-55, ,
1, ,-54, ,
2, ,-54, ,
2, ,-54, ,
1, ,-54, ,
2, ,-54, ,
1, ,-55, ,
1, ,-54, ,
2, ,-54, ,
1, ,-54, ,
-1, ,-54, ,
2, ,-54, ,
1, ,-55, ,
1, ,-54, ,
2, ,-54, ,
2, ,-54, ,
1, ,-54, ,
2, ,-54, ,
1, ,-55, ,
1, ,-54, ,
2, ,-54, ,
2, ,-54, ,
-1, ,-55, ,
2, ,-54, ,
1, ,-55, ,
1, ,-54, ,
2, ,-54, ,
2, ,-54, ,
-1, ,-54, ,
2, ,-54, ,
1, ,-55, ,
1, ,-54, ,
2, ,-54, ,
2, ,-54, ,
1, ,-54, ,
2, ,-54, ,
1, ,-54, ,
1, ,-54, ,
2, ,-54, ,
2, ,-55, ,
1, ,-55, ,
2, ,-54, ,
1, ,-55, ,
1, ,-54, ,
2, ,-54, ,
2, ,-54, ,
-1, ,-54, ,
2, ,-54, ,
1, ,-55, ,
1, ,-54, ,
2, ,-54, ,
2, ,-54, ,
1, ,-54, ,
2, ,-54, ,
1, ,-55, ,
1, ,-54, ,
2, ,-54, ,
2, ,-54, ,
1, ,-54, ,
2, ,-54, ,
1, ,-55, ,
1, ,-54, ,
2, ,-54, ,
2, ,-55, ,
1, ,-54, ,
2, ,-54, ,
1, ,-54, ,
1, ,-54, ,
2, ,-54, ,
1, ,-54, ,
1, ,-54, ,
2, ,-54, ,
1, ,-55, ,
1, ,-54, ,
2, ,-54, ,
2, ,-54, ,
1, ,-54, ,
2, ,-54, ,
1, ,-55, ,
1, ,-54, ,
2, ,-54, ,
2, ,-54, ,
-1, ,-54, ,
2, ,-54, ,
1, ,-55, ,
1, ,-54, ,
2, ,-54, ,
2, ,-54, ,
-1, ,-54, ,
2, ,-54, ,
1, ,-55, ,
1, ,-54, ,
2, ,-54, ,
1, ,-54, ,
-1, ,-54, ,
2, ,-54, ,
1, ,-55, ,
1, ,-54, ,
2, ,-54, ,
2, ,-54, ,
-1, ,-54, ,
2, ,-54, ,
1, ,-54, ,
1, ,-54, ,
2, ,-54, ,
1, ,-54, ,
-1, ,-54, ,
2, ,-54, ,
1, ,-55, ,
1, ,-54, ,
2, ,-54, ,
1, ,-54, ,
-1, ,-54, ,
2, ,-54, ,
1, ,-54, ,
1, ,-54, ,
2, ,-54, ,
1, ,-54, ,
-1, ,-54, ,
2, ,-54, ,
1, ,-55, ,
1, ,-54, ,
2, ,-54, ,
2, ,-54, ,
1, ,-54, ,
2, ,-54, ,
1, ,-54, ,
1, ,-54, ,
2, ,-54, ,
1, ,-54, ,
-1, ,-54, ,
2, ,-54, ,
1, ,-54, ,
1, ,-54, ,
2, ,-54, ,
1, ,-55, ,
-1, ,-54, ,
2, ,-54, ,
1, ,-55, ,
1, ,-54, ,
2, ,-54, ,
2, ,-54, ,
-1, ,-54, ,
2, ,-54, ,
1, ,-55, ,
1, ,-54, ,
2, ,-54, ,
1, ,-55, ,
-1, ,-54, ,
2, ,-54, ,
1, ,-54, ,
1, ,-54, ,
1, ,-54, ,
1, ,-54, ,
-1, ,-54, ,
2, ,-54, ,
1, ,-55, ,
1, ,-54, ,
2, ,-54, ,
1, ,-54, ,
-1, ,-54, ,
2, ,-54, ,
1, ,-54, ,
1, ,-54, ,
2, ,-54, ,
1, ,-54, ,
-1, ,-54, ,
2, ,-54, ,
1, ,-55, ,
1, ,-54, ,
2, ,-54, ,
1, ,-54, ,
-1, ,-54, ,
2, ,-54, ,
1, ,-54, ,
1, ,-54, ,
1, ,-54, ,
1, ,-54, ,
-1, ,-54, ,
2, ,-54, ,
1, ,-55, ,
1, ,-54, ,
1, ,-54, ,
1, ,-54, ,
-1, ,-54, ,
2, ,-54, ,
1, ,-55, ,
1, ,-54, ,
2, ,-54, ,
2, ,-54, ,
-1, ,-54, ,
2, ,-54, ,
1, ,-55, ,
1, ,-54, ,
2, ,-54, ,
2, ,-54, ,
-1, ,-54, ,
2, ,-54, ,
1, ,-54, ,
1, ,-54, ,
2, ,-54, ,
1, ,-54, ,
-1, ,-54, ,
2, ,-54, ,
1, ,-54, ,
1, ,-54, ,
1, ,-54, ,
1, ,-55, ,
-1, ,-54, ,
2, ,-54, ,
1, ,-54, ,
1, ,-54, ,
1, ,-54, ,
1, ,-54, ,
-1, ,-54, ,
2, ,-54, ,
1, ,-55, ,
1, ,-54, ,
2, ,-54, ,
2, ,-54, ,
-1, ,-54, ,
2, ,-54, ,
1, ,-54, ,
1, ,-54, ,
1, ,-54, ,
1, ,-54, ,
-1, ,-54, ,
2, ,-54, ,
1, ,-55, ,
1, ,-54, ,
2, ,-54, ,
1, ,-54, ,
-1, ,-54, ,
2, ,-54, ,
1, ,-55, ,
1, ,-54, ,
2, ,-54, ,
1, ,-54, ,
-1, ,-54, ,
2, ,-54, ,
1, ,-54, ,
1, ,-54, ,
1, ,-54, ,
1, ,-54, ,
-1, ,-54, ,
2, ,-54, ,
-1, ,-55, ,
1, ,-54, ,
2, ,-54, ,
2, ,-54, ,
-1, ,-54, ,
2, ,-54, ,
1, ,-55, ,
1, ,-54, ,
1, ,-54, ,
1, ,-55, ,
-1, ,-54, ,
2, ,-54, ,
1, ,-55, ,
1, ,-54, ,
1, ,-54, ,
1, ,-54, ,
-1, ,-54, ,
2, ,-54, ,
1, ,-55, ,
1, ,-54, ,
1, ,-54, ,
2, ,-55, ,
-1, ,-54, ,
2, ,-54, ,
1, ,-55, ,
1, ,-54, ,
1, ,-54, ,
1, ,-54, ,
-1, ,-55, ,
1, ,-54, ,
1, ,-55, ,
1, ,-54, ,
1, ,-54, ,
2, ,-54, ,
-1, ,-54, ,
1, ,-54, ,
-1, ,-55, ,
1, ,-54, ,
2, ,-54, ,
1, ,-54, ,
-1, ,-54, ,
2, ,-54, ,
1, ,-55, ,
1, ,-54, ,
1, ,-54, ,
1, ,-54, ,
-1, ,-54, ,
2, ,-54, ,
1, ,-54, ,
1, ,-54, ,
1, ,-54, ,
2, ,-54, ,
-1, ,-54, ,
2, ,-54, ,
1, ,-55, ,
1, ,-54, ,
1, ,-54, ,
1, ,-54, ,
-1, ,-54, ,
2, ,-54, ,
1, ,-55, ,
1, ,-54, ,
2, ,-54, ,
2, ,-54, ,
-1, ,-54, ,
2, ,-54, ,
1, ,-55, ,
1, ,-54, ,
2, ,-54, ,
1, ,-54, ,
-1, ,-54, ,
2, ,-54, ,
1, ,-55, ,
1, ,-54, ,
1, ,-54, ,
1, ,-54, ,
-1, ,-55, ,
2, ,-54, ,
1, ,-55, ,
1, ,-54, ,
1, ,-54, ,
1, ,-54, ,
-1, ,-54, ,
2, ,-54, ,
1, ,-54, ,
1, ,-54, ,
2, ,-54, ,
1, ,-54, ,
-1, ,-54, ,
2, ,-54, ,
1, ,-55, ,
1, ,-54, ,
1, ,-54, ,
1, ,-54, ,
-1, ,-54, ,
2, ,-54, ,
1, ,-54, ,
1, ,-54, ,
1, ,-54, ,
1, ,-54, ,
-1, ,-55, ,
2, ,-54, ,
1, ,-55, ,
1, ,-54, ,
1, ,-54, ,
2, ,-54, ,
-1, ,-54, ,
2, ,-54, ,
1, ,-55, ,
1, ,-54, ,
2, ,-54, ,
1, ,-54, ,
-1, ,-54, ,
1, ,-54, ,
1, ,-55, ,
1, ,-54, ,
1, ,-54, ,
1, ,-54, ,
-1, ,-54, ,
2, ,-54, ,
-1, ,-54, ,
1, ,-54, ,
1, ,-54, ,
1, ,-54, ,
-1, ,-54, ,
2, ,-54, ,
-1, ,-55, ,
1, ,-54, ,
1, ,-54, ,
1, ,-54, ,
-1, ,-54, ,
1, ,-54, ,
-1, ,-55, ,
1, ,-54, ,
1, ,-54, ,
1, ,-54, ,
-1, ,-54, ,
2, ,-54, ,
1, ,-55, ,
1, ,-54, ,
1, ,-54, ,
1, ,-54, ,
-1, ,-54, ,
2, ,-54, ,
-1, ,-54, ,
1, ,-54, ,
2, ,-54, ,
1, ,-54, ,
-1, ,-55, ,
1, ,-54, ,
-1, ,-55, ,
1, ,-54, ,
1, ,-54, ,
1, ,-54, ,
-1, ,-54, ,
2, ,-54, ,
1, ,-54, ,
1, ,-54, ,
1, ,-54, ,
1, ,-54, ,
-1, ,-54, ,
2, ,-54, ,
1, ,-55, ,
1, ,-54, ,
1, ,-54, ,
2, ,-54, ,
-1, ,-54, ,
1, ,-54, ,
-1, ,-54, ,
1, ,-54, ,
1, ,-54, ,
1, ,-54, ,
-1, ,-54, ,
1, ,-54, ,
1, ,-55, ,
1, ,-54, ,
1, ,-54, ,
1, ,-54, ,
-1, ,-54, ,
2, ,-54, ,
-1, ,-55, ,
1, ,-54, ,
2, ,-54, ,
1, ,-54, ,
-1, ,-54, ,
2, ,-54, ,
-1, ,-55, ,
-1, ,-54, ,
1, ,-54, ,
1, ,-54, ,
-1, ,-54, ,
2, ,-54, ,
76, ,-54, ,
48, ,-54, ,
30, ,-54, ,
20, ,-54, ,
11, ,-54, ,
10, ,-54, ,
5, ,-55, ,
3, ,-54, ,
5, ,-54, ,
3, ,-54, ,
2, ,-54, ,
3, ,-54, ,
2, ,-55, ,
2, ,-54, ,
3, ,-54, ,
3, ,-54, ,
2, ,-54, ,
3, ,-54, ,
2, ,-55, ,
2, ,-54, ,
3, ,-54, ,
3, ,-54, ,
1, ,-54, ,
3, ,-54, ,
2, ,-54, ,
2, ,-54, ,
2, ,-54, ,
3, ,-54, ,
1, ,-54, ,
3, ,-54, ,
2, ,-55, ,
2, ,-54, ,
2, ,-54, ,
3, ,-54, ,
2, ,-54, ,
3, ,-54, ,
2, ,-55, ,
2, ,-54, ,
2, ,-55, ,
3, ,-54, ,
1, ,-54, ,
3, ,-54, ,
2, ,-55, ,
2, ,-54, ,
2, ,-54, ,
3, ,-54, ,
2, ,-55, ,
3, ,-54, ,
2, ,-55, ,
2, ,-54, ,
3, ,-54, ,
2, ,-54, ,
1, ,-54, ,
3, ,-54, ,
2, ,-55, ,
2, ,-54, ,
2, ,-54, ,
3, ,-54, ,
1, ,-54, ,
2, ,-54, ,
2, ,-54, ,
2, ,-54, ,
2, ,-54, ,
2, ,-54, ,
2, ,-54, ,
3, ,-54, ,
2, ,-55, ,
2, ,-54, ,
2, ,-54, ,
3, ,-54, ,
1, ,-54, ,
3, ,-54, ,
1, ,-55, ,
2, ,-54, ,
2, ,-54, ,
2, ,-54, ,
1, ,-54, ,
3, ,-54, ,
2, ,-55, ,
2, ,-54, ,
2, ,-54, ,
2, ,-55, ,
1, ,-54, ,
2, ,-54, ,
2, ,-55, ,
1, ,-54, ,
2, ,-54, ,
2, ,-54, ,
1, ,-54, ,
3, ,-54, ,
2, ,-55, ,
2, ,-54, ,
2, ,-54, ,
3, ,-54, ,
1, ,-54, ,
3, ,-54, ,
1, ,-55, ,
1, ,-54, ,
2, ,-54, ,
2, ,-54, ,
1, ,-55, ,
2, ,-54, ,
1, ,-54, ,
2, ,-54, ,
2, ,-54, ,
2, ,-54, ,
1, ,-54, ,
2, ,-54, ,
2, ,-44, ,
2, ,-24, ,
3, ,-7, ,
2, ,4, ,
1, ,13, ,
3, ,20, ,
2, ,25, ,
2, ,28, ,
2, ,32, ,
2, ,34, ,
1, ,36, ,
3, ,37, ,
1, ,38, ,
1, ,38, ,
2, ,38, ,
2, ,39, ,
1, ,39, ,
2, ,39, ,
2, ,39, ,
2, ,39, ,
2, ,39, ,
2, ,39, ,
1, ,39, ,
2, ,39, ,
2, ,40, ,
2, ,39, ,
2, ,39, ,
2, ,39, ,
1, ,39, ,
2, ,39, ,
2, ,39, ,
1, ,39, ,
2, ,39, ,
2, ,39, ,
1, ,39, ,
2, ,39, ,
2, ,39, ,
1, ,39, ,
2, ,39, ,
2, ,39, ,
1, ,39, ,
2, ,39, ,
2, ,39, ,
1, ,39, ,
2, ,39, ,
2, ,39, ,
1, ,39, ,
2, ,39, ,
2, ,39, ,
1, ,39, ,
2, ,39, ,
2, ,39, ,
1, ,39, ,
2, ,39, ,
1, ,39, ,
2, ,39, ,
2, ,39, ,
1, ,39, ,
1, ,39, ,
2, ,39, ,
2, ,39, ,
1, ,39, ,
2, ,39, ,
2, ,39, ,
1, ,39, ,
2, ,39, ,
2, ,39, ,
1, ,39, ,
2, ,39, ,
1, ,39, ,
1, ,39, ,
2, ,39, ,
2, ,39, ,
1, ,39, ,
2, ,39, ,
2, ,39, ,
1, ,39, ,
2, ,38, ,
2, ,39, ,
1, ,39, ,
2, ,39, ,
2, ,39, ,
1, ,39, ,
2, ,39, ,
1, ,39, ,
1, ,39, ,
2, ,39, ,
2, ,39, ,
1, ,39, ,
2, ,39, ,
1, ,39, ,
1, ,39, ,
2, ,39, ,
2, ,39, ,
1, ,39, ,
2, ,39, ,
1, ,39, ,
1, ,39, ,
2, ,39, ,
1, ,39, ,
1, ,39, ,
2, ,38, ,
2, ,39, ,
1, ,39, ,
2, ,39, ,
1, ,39, ,
1, ,39, ,
2, ,39, ,
1, ,39, ,
1, ,39, ,
2, ,39, ,
1, ,39, ,
1, ,39, ,
2, ,38, ,
1, ,39, ,
1, ,39, ,
2, ,39, ,
1, ,39, ,
1, ,39, ,
2, ,39, ,
1, ,39, ,
1, ,39, ,
2, ,39, ,
1, ,39, ,
1, ,39, ,
2, ,39, ,
1, ,39, ,
1, ,39, ,
2, ,39, ,
1, ,39, ,
1, ,39, ,
2, ,39, ,
1, ,39, ,
1, ,39, ,
2, ,39, ,
1, ,39, ,
1, ,39, ,
2, ,39, ,
1, ,39, ,
1, ,39, ,
2, ,39, ,
1, ,39, ,
1, ,39, ,
2, ,38, ,
1, ,39, ,
1, ,39, ,
2, ,38, ,
1, ,39, ,
1, ,39, ,
2, ,38, ,
1, ,39, ,
1, ,39, ,
2, ,39, ,
2, ,39, ,
1, ,36, ,
2, ,18, ,
1, ,-1, ,
1, ,-15, ,
2, ,-24, ,
1, ,-33, ,
1, ,-38, ,
2, ,-43, ,
1, ,-46, ,
1, ,-49, ,
2, ,-50, ,
1, ,-52, ,
1, ,-53, ,
2, ,-53, ,
1, ,-54, ,
2, ,-54, ,
1, ,-54, ,
2, ,-55, ,
1, ,-55, ,
2, ,-55, ,
1, ,-55, ,
1, ,-55, ,
2, ,-55, ,
2, ,-55, ,
1, ,-55, ,
2, ,-55, ,
1, ,-55, ,
1, ,-55, ,
2, ,-55, ,
2, ,-55, ,
1, ,-55, ,
2, ,-55, ,
1, ,-55, ,
1, ,-55, ,
2, ,-55, ,
1, ,-55, ,
1, ,-55, ,
2, ,-54, ,
1, ,-55, ,
1, ,-55, ,
2, ,-55, ,
2, ,-55, ,
1, ,-54, ,
2, ,-54, ,
1, ,-55, ,
1, ,-54, ,
2, ,-54, ,
2, ,-55, ,
1, ,-54, ,
2, ,-54, ,
1, ,-55, ,
1, ,-54, ,
1, ,-54, ,
2, ,-55, ,
-1, ,-54, ,
2, ,-55, ,
1, ,-55, ,
1, ,-54, ,
2, ,-54, ,
2, ,-55, ,
1, ,-54, ,
2, ,-55, ,
1, ,-55, ,
1, ,-54, ,
2, ,-55, ,
2, ,-54, ,
1, ,-54, ,
2, ,-54, ,
1, ,-55, ,
1, ,-54, ,
2, ,-54, ,
1, ,-55, ,
-1, ,-54, ,
2, ,-54, ,
1, ,-55, ,
1, ,-54, ,
1, ,-54, ,
1, ,-55, ,
-1, ,-55, ,
2, ,-54, ,
1, ,-55, ,
1, ,-54, ,
2, ,-54, ,
2, ,-55, ,
1, ,-54, ,
2, ,-54, ,
1, ,-54, ,
1, ,-54, ,
1, ,-54, ,
2, ,-54, ,
-1, ,-54, ,
2, ,-54, ,
1, ,-55, ,
1, ,-54, ,
1, ,-54, ,
1, ,-54, ,
1, ,-54, ,
2, ,-54, ,
1, ,-55, ,
1, ,-54, ,
1, ,-54, ,
2, ,-54, ,
-1, ,-55, ,
1, ,-54, ,
1, ,-55, ,
1, ,-54, ,
2, ,-54, ,
1, ,-54, ,
-1, ,-54, ,
2, ,-54, ,
1, ,-55, ,
1, ,-54, ,
1, ,-54, ,
1, ,-54, ,
-1, ,-54, ,
2, ,-54, ,
1, ,-54, ,
1, ,-54, ,
1, ,-54, ,
2, ,-54, ,
-1, ,-54, ,
2, ,-54, ,
1, ,-55, ,
1, ,-54, ,
2, ,-54, ,
2, ,-54, ,
-1, ,-55, ,
2, ,-54, ,
1, ,-55, ,
1, ,-54, ,
1, ,-54, ,
1, ,-55, ,
-1, ,-55, ,
2, ,-54, ,
1, ,-55, ,
1, ,-54, ,
2, ,-54, ,
2, ,-54, ,
-1, ,-54, ,
2, ,-54, ,
1, ,-55, ,
1, ,-54, ,
1, ,-54, ,
1, ,-54, ,
-1, ,-54, ,
2, ,-54, ,
1, ,-55, ,
1, ,-54, ,
1, ,-54, ,
2, ,-54, ,
-1, ,-54, ,
2, ,-54, ,
1, ,-55, ,
1, ,-54, ,
2, ,-54, ,
1, ,-55, ,
1, ,-54, ,
2, ,-54, ,
1, ,-55, ,
1, ,-54, ,
2, ,-54, ,
2, ,-54, ,
1, ,-54, ,
2, ,-54, ,
1, ,-54, ,
1, ,-54, ,
2, ,-54, ,
2, ,-54, ,
1, ,-54, ,
2, ,-54, ,
1, ,-54, ,
1, ,-54, ,
1, ,-54, ,
1, ,-54, ,
-1, ,-54, ,
2, ,-54, ,
1, ,-54, ,
1, ,-54, ,
2, ,-54, ,
1, ,-54, ,
-1, ,-54, ,
2, ,-54, ,
1, ,-54, ,
1, ,-54, ,
1, ,-54, ,
1, ,-54, ,
-1, ,-54, ,
2, ,-54, ,
1, ,-55, ,
1, ,-54, ,
1, ,-54, ,
1, ,-54, ,
-1, ,-54, ,
2, ,-54, ,
1, ,-54, ,
1, ,-54, ,
72, ,-54, ,
46, ,-54, ,
27, ,-54, ,
20, ,-54, ,
12, ,-55, ,
8, ,-54, ,
6, ,-54, ,
5, ,-54, ,
3, ,-54, ,
3, ,-54, ,
2, ,-54, ,
2, ,-54, ,
3, ,-54, ,
3, ,-54, ,
1, ,-54, ,
3, ,-54, ,
2, ,-54, ,
2, ,-54, ,
2, ,-54, ,
3, ,-54, ,
1, ,-54, ,
3, ,-54, ,
2, ,-55, ,
2, ,-54, ,
2, ,-54, ,
2, ,-54, ,
1, ,-54, ,
3, ,-54, ,
2, ,-55, ,
2, ,-54, ,
2, ,-54, ,
3, ,-54, ,
2, ,-54, ,
3, ,-54, ,
2, ,-55, ,
2, ,-54, ,
2, ,-54, ,
3, ,-54, ,
1, ,-54, ,
3, ,-54, ,
2, ,-54, ,
2, ,-54, ,
3, ,-54, ,
3, ,-55, ,
1, ,-54, ,
3, ,-54, ,
2, ,-55, ,
2, ,-54, ,
2, ,-54, ,
3, ,-54, ,
1, ,-54, ,
3, ,-54, ,
2, ,-55, ,
1, ,-54, ,
2, ,-54, ,
3, ,-54, ,
1, ,-54, ,
3, ,-54, ,
1, ,-55, ,
2, ,-54, ,
2, ,-54, ,
2, ,-54, ,
1, ,-54, ,
3, ,-54, ,
2, ,-55, ,
2, ,-54, ,
2, ,-54, ,
3, ,-54, ,
1, ,-54, ,
3, ,-54, ,
2, ,-54, ,
2, ,-54, ,
2, ,-54, ,
2, ,-54, ,
1, ,-54, ,
3, ,-54, ,
2, ,-55, ,
2, ,-54, ,
2, ,-54, ,
2, ,-54, ,
1, ,-54, ,
2, ,-54, ,
1, ,-55, ,
2, ,-54, ,
2, ,-54, ,
2, ,-54, ,
1, ,-54, ,
3, ,-54, ,
2, ,-55, ,
2, ,-54, ,
2, ,-54, ,
2, ,-54, ,
1, ,-54, ,
3, ,-54, ,
2, ,-54, ,
2, ,-54, ,
2, ,-54, ,
2, ,-54, ,
1, ,-54, ,
3, ,-54, ,
2, ,-55, ,
1, ,-54, ,
2, ,-54, ,
2, ,-55, ,
1, ,-54, ,
2, ,-54, ,
2, ,-54, ,
2, ,-54, ,
2, ,-54, ,
2, ,-54, ,
1, ,-54, ,
3, ,-54, ,
2, ,-55, ,
2, ,-54, ,
2, ,-54, ,
2, ,-54, ,
1, ,-54, ,
2, ,-54, ,
2, ,-55, ,
2, ,-54, ,
2, ,-54, ,
2, ,-54, ,
1, ,-54, ,
2, ,-54, ,
2, ,-55, ,
1, ,-54, ,
2, ,-54, ,
2, ,-54, ,
1, ,-54, ,
2, ,-54, ,
1, ,-54, ,
1, ,-54, ,
2, ,-54, ,
2, ,-54, ,
1, ,-54, ,
2, ,-54, ,
1, ,-55, ,
2, ,-54, ,
2, ,-54, ,
2, ,-54, ,
1, ,-54, ,
2, ,-54, ,
2, ,-54, ,
2, ,-54, ,
2, ,-54, ,
2, ,-54, ,
1, ,-54, ,
2, ,-54, ,
1, ,-54, ,
1, ,-54, ,
2, ,-54, ,
2, ,-54, ,
1, ,-54, ,
2, ,-54, ,
2, ,-55, ,
2, ,-54, ,
2, ,-54, ,
2, ,-54, ,
1, ,-54, ,
2, ,-54, ,
2, ,-55, ,
1, ,-54, ,
2, ,-54, ,
2, ,-54, ,
1, ,-54, ,
2, ,-54, ,
1, ,-54, ,
1, ,-54, ,
2, ,-54, ,
2, ,-54, ,
1, ,-54, ,
2, ,-54, ,
1, ,-54, ,
1, ,-54, ,
2, ,-54, ,
2, ,-54, ,
1, ,-54, ,
2, ,-54, ,
1, ,-55, ,
2, ,-54, ,
2, ,-54, ,
2, ,-54, ,
1, ,-54, ,
2, ,-54, ,
1, ,-55, ,
2, ,-54, ,
2, ,-54, ,
2, ,-54, ,
1, ,-54, ,
2, ,-54, ,
1, ,-55, ,
1, ,-54, ,
2, ,-54, ,
2, ,-54, ,
1, ,-54, ,
2, ,-54, ,
2, ,-55, ,
2, ,-54, ,
2, ,-54, ,
2, ,-55, ,
1, ,-54, ,
2, ,-54, ,
1, ,-55, ,
1, ,-54, ,
2, ,-54, ,
2, ,-54, ,
1, ,-54, ,
2, ,-54, ,
1, ,-54, ,
1, ,-54, ,
2, ,-54, ,
2, ,-54, ,
1, ,-54, ,
2, ,-54, ,
1, ,-55, ,
2, ,-54, ,
2, ,-54, ,
2, ,-54, ,
1, ,-54, ,
2, ,-54, ,
1, ,-55, ,
1, ,-54, ,
2, ,-54, ,
2, ,-54, ,
1, ,-54, ,
2, ,-54, ,
1, ,-55, ,
1, ,-54, ,
2, ,-54, ,
2, ,-54, ,
1, ,-54, ,
2, ,-54, ,
2, ,-55, ,
1, ,-54, ,
2, ,-54, ,
2, ,-54, ,
1, ,-54, ,
2, ,-54, ,
1, ,-55, ,
1, ,-54, ,
2, ,-54, ,
2, ,-54, ,
1, ,-54, ,
2, ,-54, ,
1, ,-55, ,
1, ,-54, ,
2, ,-54, ,
2, ,-54, ,
1, ,-54, ,
2, ,-54, ,
1, ,-55, ,
1, ,-54, ,
2, ,-54, ,
2, ,-54, ,
1, ,-54, ,
2, ,-54, ,
1, ,-55, ,
1, ,-54, ,
2, ,-54, ,
2, ,-54, ,
1, ,-54, ,
2, ,-54, ,
1, ,-55, ,
1, ,-54, ,
2, ,-54, ,
2, ,-54, ,
1, ,-54, ,
2, ,-54, ,
1, ,-55, ,
1, ,-54, ,
2, ,-54, ,
2, ,-55, ,
1, ,-54, ,
2, ,-54, ,
1, ,-55, ,
1, ,-54, ,
1, ,-54, ,
2, ,-54, ,
1, ,-54, ,
2, ,-54, ,
1, ,-55, ,
1, ,-54, ,
2, ,-54, ,
2, ,-54, ,
1, ,-54, ,
2, ,-54, ,
1, ,-55, ,
1, ,-54, ,
2, ,-54, ,
1, ,-54, ,
1, ,-54, ,
2, ,-54, ,
1, ,-55, ,
1, ,-54, ,
1, ,-54, ,
