src/varyamp_1560/temp0000591.CSV

Format,1.0B,
Memory Length,10000,Memory Length,10000,
IntpDistance,0,IntpDistance,0,
Trigger Address,4999,Trigger Address,4999,
Trigger Level,1.040E+00,Trigger Level,1.040E+00,
Source,CH1,Source,CH2,
Vertical Units,V,Vertical Units,V,
Vertical Units Div,0,Vertical Units Div,0,
Vertical Units Extend Div,16,Vertical Units Extend Div,16,
Label,,Label,,
Probe Type,0,Probe Type,0,
Probe Ratio,1.000e+01,Probe Ratio,1.000e+00,
Vertical Scale,5.000e-01,Vertical Scale,1.000e+00,
Vertical Position,-1.820e+00,Vertical Position,0.000e+00,
Horizontal Units,S,Horizontal Units,S,
Horizontal Scale,2.000E-05,Horizontal Scale,2.000E-05,
Horizontal Position,0.000E+00,Horizontal Position,0.000E+00,
Horizontal Mode,Main,Horizontal Mode,Main,
SincET Mode,Real Time,SincET Mode,Real Time,
Sampling Period,2.000e-08,Sampling Period,2.000e-08,
Horizontal Old Scale,2.000E-05,Horizontal Old Scale,2.000E-05,
Horizontal Old Position,0.000E+00,Horizontal Old Position,0.000E+00,
Firmware,V1.23,Firmware,V1.23,
Mode,Fast,Mode,Fast,
Waveform Data,,Waveform Data,,
2, ,-59, ,
1, ,-59, ,
3, ,-60, ,
1, ,-58, ,
2, ,-59, ,
2, ,-59, ,
2, ,-59, ,
1, ,-59, ,
3, ,-59, ,
1, ,-58, ,
1, ,-59, ,
2, ,-59, ,
2, ,-59, ,
1, ,-59, ,
3, ,-60, ,
2, ,-58, ,
2, ,-59, ,
2, ,-59, ,
2, ,-59, ,
1, ,-58, ,
3, ,-59, ,
1, ,-58, ,
1, ,-59, ,
2, ,-59, ,
2, ,-59, ,
1, ,-59, ,
3, ,-60, ,
1, ,-58, ,
2, ,-59, ,
2, ,-59, ,
2, ,-59, ,
1, ,-59, ,
3, ,-59, ,
1, ,-58, ,
1, ,-59, ,
2, ,-59, ,
2, ,-59, ,
1, ,-59, ,
3, ,-60, ,
1, ,-58, ,
1, ,-59, ,
2, ,-59, ,
2, ,-59, ,
1, ,-59, ,
2, ,-59, ,
1, ,-59, ,
1, ,-59, ,
2, ,-59, ,
2, ,-59, ,
1, ,-59, ,
3, ,-60, ,
1, ,-59, ,
1, ,-59, ,
2, ,-59, ,
2, ,-59, ,
1, ,-59, ,
2, ,-60, ,
1, ,-59, ,
1, ,-59, ,
2, ,-59, ,
2, ,-59, ,
1, ,-59, ,
3, ,-60, ,
1, ,-58, ,
1, ,-59, ,
2, ,-60, ,
2, ,-59, ,
1, ,-58, ,
2, ,-59, ,
1, ,-59, ,
1, ,-59, ,
2, ,-59, ,
2, ,-59, ,
-1, ,-59, ,
3, ,-60, ,
1, ,-58, ,
1, ,-59, ,
2, ,-59, ,
2, ,-59, ,
1, ,-59, ,
2, ,-60, ,
1, ,-59, ,
1, ,-59, ,
2, ,-59, ,
2, ,-59, ,
1, ,-59, ,
3, ,-59, ,
1, ,-59, ,
1, ,-59, ,
2, ,-59, ,
2, ,-59, ,
-1, ,-59, ,
2, ,-60, ,
1, ,-59, ,
1, ,-60, ,
2, ,-59, ,
2, ,-59, ,
-1, ,-59, ,
2, ,-59, ,
1, ,-58, ,
1, ,-59, ,
2, ,-59, ,
2, ,-59, ,
1, ,-59, ,
2, ,-59, ,
1, ,-58, ,
1, ,-59, ,
2, ,-59, ,
2, ,-59, ,
-1, ,-59, ,
3, ,-60, ,
1, ,-58, ,
1, ,-59, ,
2, ,-59, ,
1, ,-59, ,
1, ,-59, ,
2, ,-60, ,
1, ,-59, ,
1, ,-59, ,
2, ,-59, ,
2, ,-59, ,
-1, ,-59, ,
3, ,-60, ,
1, ,-59, ,
1, ,-59, ,
2, ,-59, ,
2, ,-59, ,
-1, ,-59, ,
2, ,-59, ,
1, ,-59, ,
1, ,-59, ,
2, ,-59, ,
2, ,-59, ,
-1, ,-59, ,
2, ,-60, ,
1, ,-59, ,
1, ,-59, ,
2, ,-59, ,
2, ,-59, ,
-1, ,-59, ,
2, ,-59, ,
1, ,-58, ,
1, ,-59, ,
2, ,-59, ,
2, ,-59, ,
-1, ,-59, ,
2, ,-60, ,
1, ,-58, ,
1, ,-59, ,
2, ,-59, ,
2, ,-58, ,
-1, ,-59, ,
2, ,-59, ,
1, ,-59, ,
1, ,-59, ,
2, ,-59, ,
2, ,-59, ,
-1, ,-59, ,
2, ,-59, ,
1, ,-59, ,
1, ,-59, ,
2, ,-59, ,
2, ,-59, ,
-1, ,-58, ,
2, ,-60, ,
1, ,-59, ,
1, ,-59, ,
2, ,-59, ,
2, ,-59, ,
-1, ,-59, ,
2, ,-60, ,
1, ,-58, ,
1, ,-59, ,
2, ,-59, ,
2, ,-59, ,
-1, ,-59, ,
2, ,-59, ,
1, ,-59, ,
1, ,-59, ,
2, ,-59, ,
1, ,-59, ,
-1, ,-59, ,
2, ,-60, ,
1, ,-59, ,
1, ,-59, ,
2, ,-59, ,
2, ,-59, ,
-1, ,-59, ,
2, ,-60, ,
1, ,-59, ,
1, ,-59, ,
2, ,-59, ,
1, ,-59, ,
-1, ,-59, ,
2, ,-60, ,
1, ,-59, ,
1, ,-59, ,
2, ,-59, ,
1, ,-59, ,
-1, ,-59, ,
2, ,-59, ,
1, ,-59, ,
1, ,-59, ,
1, ,-59, ,
1, ,-59, ,
-1, ,-59, ,
2, ,-60, ,
1, ,-59, ,
1, ,-59, ,
2, ,-59, ,
1, ,-59, ,
-1, ,-58, ,
2, ,-59, ,
1, ,-59, ,
1, ,-59, ,
2, ,-59, ,
2, ,-59, ,
-1, ,-59, ,
2, ,-60, ,
1, ,-59, ,
1, ,-59, ,
1, ,-59, ,
2, ,-59, ,
-1, ,-59, ,
2, ,-60, ,
1, ,-59, ,
1, ,-59, ,
2, ,-59, ,
1, ,-59, ,
-1, ,-59, ,
2, ,-60, ,
1, ,-59, ,
1, ,-59, ,
1, ,-59, ,
1, ,-59, ,
-1, ,-59, ,
2, ,-60, ,
1, ,-59, ,
1, ,-59, ,
2, ,-59, ,
2, ,-59, ,
-1, ,-59, ,
2, ,-60, ,
1, ,-59, ,
1, ,-59, ,
1, ,-59, ,
1, ,-59, ,
-1, ,-59, ,
2, ,-60, ,
-1, ,-59, ,
1, ,-59, ,
2, ,-59, ,
1, ,-59, ,
-1, ,-59, ,
2, ,-60, ,
1, ,-59, ,
1, ,-59, ,
1, ,-59, ,
1, ,-59, ,
-1, ,-59, ,
2, ,-60, ,
1, ,-59, ,
1, ,-59, ,
1, ,-59, ,
1, ,-59, ,
-1, ,-59, ,
2, ,-60, ,
1, ,-59, ,
1, ,-59, ,
1, ,-59, ,
1, ,-59, ,
-1, ,-59, ,
2, ,-59, ,
-1, ,-59, ,
1, ,-59, ,
2, ,-59, ,
1, ,-59, ,
-1, ,-59, ,
2, ,-59, ,
-1, ,-59, ,
1, ,-59, ,
2, ,-59, ,
1, ,-59, ,
-1, ,-59, ,
2, ,-60, ,
1, ,-59, ,
1, ,-59, ,
2, ,-59, ,
1, ,-59, ,
-1, ,-59, ,
2, ,-60, ,
1, ,-59, ,
1, ,-59, ,
1, ,-59, ,
1, ,-59, ,
-1, ,-59, ,
2, ,-60, ,
-1, ,-59, ,
1, ,-59, ,
1, ,-59, ,
1, ,-59, ,
-1, ,-59, ,
2, ,-60, ,
-1, ,-57, ,
1, ,-43, ,
2, ,-23, ,
1, ,-8, ,
-1, ,2, ,
2, ,11, ,
1, ,17, ,
1, ,21, ,
2, ,25, ,
1, ,27, ,
-1, ,28, ,
2, ,31, ,
1, ,32, ,
1, ,33, ,
2, ,33, ,
1, ,34, ,
-1, ,34, ,
2, ,34, ,
-1, ,34, ,
1, ,35, ,
2, ,34, ,
1, ,35, ,
-1, ,35, ,
2, ,35, ,
1, ,35, ,
-1, ,34, ,
2, ,35, ,
1, ,35, ,
-1, ,34, ,
1, ,35, ,
1, ,34, ,
-1, ,34, ,
2, ,34, ,
1, ,35, ,
-1, ,34, ,
2, ,34, ,
1, ,34, ,
1, ,34, ,
2, ,34, ,
1, ,34, ,
-1, ,34, ,
2, ,34, ,
1, ,34, ,
1, ,34, ,
2, ,34, ,
1, ,34, ,
-1, ,34, ,
2, ,34, ,
1, ,34, ,
1, ,34, ,
2, ,34, ,
1, ,34, ,
-1, ,34, ,
2, ,34, ,
1, ,34, ,
-1, ,34, ,
2, ,34, ,
1, ,34, ,
-1, ,34, ,
2, ,34, ,
1, ,34, ,
-1, ,34, ,
2, ,34, ,
1, ,34, ,
-1, ,34, ,
2, ,34, ,
1, ,34, ,
-1, ,34, ,
2, ,34, ,
1, ,34, ,
-1, ,34, ,
2, ,34, ,
1, ,34, ,
-1, ,34, ,
2, ,34, ,
1, ,34, ,
-1, ,34, ,
2, ,34, ,
-1, ,34, ,
-1, ,34, ,
1, ,34, ,
1, ,34, ,
-1, ,34, ,
2, ,34, ,
1, ,34, ,
-1, ,34, ,
2, ,34, ,
1, ,34, ,
-1, ,34, ,
2, ,34, ,
-1, ,34, ,
-1, ,34, ,
1, ,34, ,
1, ,34, ,
-1, ,34, ,
2, ,34, ,
1, ,34, ,
-1, ,34, ,
2, ,34, ,
1, ,34, ,
-1, ,34, ,
2, ,34, ,
1, ,34, ,
-1, ,34, ,
1, ,34, ,
1, ,34, ,
-1, ,34, ,
2, ,34, ,
1, ,34, ,
1, ,34, ,
2, ,34, ,
1, ,34, ,
-1, ,34, ,
2, ,34, ,
1, ,34, ,
-1, ,34, ,
1, ,34, ,
1, ,34, ,
-1, ,34, ,
2, ,34, ,
1, ,34, ,
-1, ,34, ,
1, ,34, ,
1, ,34, ,
-1, ,34, ,
2, ,34, ,
-1, ,34, ,
-1, ,34, ,
2, ,34, ,
1, ,34, ,
-1, ,34, ,
2, ,34, ,
1, ,34, ,
1, ,34, ,
2, ,34, ,
1, ,34, ,
-1, ,34, ,
2, ,34, ,
-1, ,34, ,
-1, ,34, ,
1, ,34, ,
1, ,34, ,
-1, ,34, ,
2, ,34, ,
1, ,34, ,
1, ,34, ,
1, ,34, ,
1, ,34, ,
-1, ,34, ,
2, ,34, ,
1, ,34, ,
1, ,34, ,
1, ,34, ,
1, ,34, ,
-1, ,34, ,
2, ,26, ,
1, ,6, ,
-1, ,-11, ,
1, ,-23, ,
1, ,-33, ,
-1, ,-39, ,
1, ,-45, ,
-1, ,-49, ,
-1, ,-52, ,
1, ,-54, ,
2, ,-56, ,
-1, ,-57, ,
2, ,-58, ,
1, ,-58, ,
-1, ,-59, ,
1, ,-59, ,
1, ,-59, ,
-1, ,-59, ,
2, ,-60, ,
-1, ,-59, ,
-1, ,-60, ,
1, ,-60, ,
1, ,-60, ,
-1, ,-60, ,
1, ,-60, ,
-1, ,-59, ,
1, ,-60, ,
1, ,-60, ,
1, ,-59, ,
-1, ,-59, ,
1, ,-60, ,
-1, ,-59, ,
-1, ,-60, ,
1, ,-60, ,
1, ,-59, ,
-1, ,-59, ,
1, ,-60, ,
-1, ,-59, ,
-1, ,-59, ,
1, ,-59, ,
1, ,-59, ,
-1, ,-59, ,
1, ,-60, ,
-1, ,-59, ,
-1, ,-59, ,
1, ,-60, ,
1, ,-60, ,
-1, ,-59, ,
2, ,-59, ,
-1, ,-59, ,
-1, ,-59, ,
1, ,-60, ,
1, ,-59, ,
-1, ,-59, ,
1, ,-59, ,
-1, ,-59, ,
-1, ,-59, ,
1, ,-60, ,
1, ,-59, ,
-1, ,-59, ,
1, ,-60, ,
-1, ,-58, ,
-1, ,-60, ,
1, ,-59, ,
1, ,-59, ,
-1, ,-59, ,
1, ,-60, ,
-1, ,-59, ,
-1, ,-60, ,
1, ,-59, ,
1, ,-59, ,
-1, ,-59, ,
2, ,-60, ,
-1, ,-58, ,
-1, ,-59, ,
1, ,-59, ,
1, ,-59, ,
-1, ,-59, ,
1, ,-60, ,
-1, ,-59, ,
-1, ,-59, ,
1, ,-59, ,
1, ,-59, ,
-1, ,-59, ,
1, ,-60, ,
-1, ,-58, ,
-1, ,-59, ,
1, ,-59, ,
1, ,-59, ,
-1, ,-59, ,
1, ,-59, ,
-1, ,-59, ,
-1, ,-59, ,
2, ,-59, ,
1, ,-59, ,
-1, ,-59, ,
1, ,-60, ,
-1, ,-58, ,
-1, ,-59, ,
1, ,-59, ,
1, ,-59, ,
-1, ,-59, ,
1, ,-59, ,
-1, ,-59, ,
-1, ,-59, ,
1, ,-59, ,
1, ,-59, ,
-1, ,-59, ,
2, ,-60, ,
-1, ,-58, ,
-1, ,-59, ,
1, ,-59, ,
1, ,-59, ,
-1, ,-59, ,
1, ,-59, ,
-1, ,-59, ,
-1, ,-60, ,
1, ,-59, ,
1, ,-59, ,
-1, ,-59, ,
1, ,-60, ,
-1, ,-58, ,
-1, ,-59, ,
1, ,-59, ,
1, ,-59, ,
-1, ,-59, ,
1, ,-60, ,
-1, ,-59, ,
-1, ,-59, ,
1, ,-59, ,
1, ,-59, ,
-1, ,-59, ,
1, ,-60, ,
-1, ,-59, ,
-1, ,-59, ,
1, ,-59, ,
1, ,-59, ,
-1, ,-59, ,
2, ,-60, ,
-1, ,-58, ,
-1, ,-59, ,
1, ,-59, ,
1, ,-59, ,
-1, ,-59, ,
2, ,-60, ,
-1, ,-58, ,
-1, ,-59, ,
1, ,-59, ,
1, ,-59, ,
-1, ,-59, ,
2, ,-59, ,
-1, ,-59, ,
-1, ,-59, ,
1, ,-59, ,
1, ,-59, ,
-1, ,-59, ,
1, ,-59, ,
-1, ,-59, ,
-1, ,-59, ,
1, ,-59, ,
1, ,-59, ,
-1, ,-59, ,
2, ,-59, ,
-1, ,-59, ,
-1, ,-59, ,
1, ,-59, ,
1, ,-59, ,
-1, ,-59, ,
1, ,-60, ,
-1, ,-59, ,
-1, ,-59, ,
1, ,-59, ,
1, ,-59, ,
-1, ,-59, ,
1, ,-59, ,
-1, ,-59, ,
-1, ,-59, ,
1, ,-59, ,
1, ,-59, ,
-1, ,-59, ,
1, ,-59, ,
-1, ,-59, ,
-1, ,-59, ,
1, ,-59, ,
1, ,-59, ,
-1, ,-59, ,
1, ,-59, ,
-1, ,-59, ,
-1, ,-59, ,
1, ,-59, ,
1, ,-59, ,
-1, ,-59, ,
1, ,-60, ,
-1, ,-58, ,
-1, ,-59, ,
1, ,-59, ,
1, ,-59, ,
-1, ,-59, ,
1, ,-60, ,
-1, ,-59, ,
-1, ,-59, ,
1, ,-59, ,
1, ,-58, ,
-1, ,-59, ,
1, ,-60, ,
-1, ,-58, ,
-1, ,-59, ,
1, ,-59, ,
1, ,-59, ,
-1, ,-59, ,
1, ,-59, ,
-1, ,-59, ,
-1, ,-59, ,
1, ,-59, ,
-1, ,-59, ,
-2, ,-59, ,
1, ,-60, ,
-1, ,-59, ,
-1, ,-59, ,
1, ,-59, ,
1, ,-59, ,
-1, ,-59, ,
1, ,-59, ,
-1, ,-58, ,
-1, ,-59, ,
1, ,-59, ,
1, ,-59, ,
-1, ,-59, ,
1, ,-60, ,
-1, ,-59, ,
-1, ,-59, ,
1, ,-59, ,
1, ,-59, ,
-1, ,-59, ,
1, ,-59, ,
-1, ,-59, ,
-1, ,-59, ,
1, ,-59, ,
1, ,-59, ,
-1, ,-59, ,
2, ,-59, ,
-1, ,-58, ,
-1, ,-59, ,
1, ,-59, ,
1, ,-59, ,
-1, ,-59, ,
1, ,-60, ,
-1, ,-59, ,
-1, ,-59, ,
1, ,-59, ,
1, ,-59, ,
-2, ,-59, ,
1, ,-60, ,
-1, ,-59, ,
-1, ,-59, ,
1, ,-59, ,
1, ,-59, ,
-1, ,-59, ,
2, ,-59, ,
-1, ,-58, ,
-1, ,-59, ,
1, ,-59, ,
1, ,-59, ,
-1, ,-59, ,
1, ,-59, ,
-1, ,-59, ,
-1, ,-59, ,
1, ,-59, ,
1, ,-59, ,
-1, ,-59, ,
1, ,-59, ,
-1, ,-59, ,
-1, ,-59, ,
1, ,-59, ,
1, ,-59, ,
-1, ,-59, ,
1, ,-60, ,
-1, ,-58, ,
-1, ,-59, ,
1, ,-59, ,
1, ,-59, ,
-1, ,-59, ,
1, ,-60, ,
-1, ,-59, ,
-1, ,-59, ,
1, ,-59, ,
1, ,-59, ,
-1, ,-59, ,
1, ,-60, ,
-1, ,-59, ,
-1, ,-59, ,
1, ,-59, ,
1, ,-59, ,
-1, ,-59, ,
1, ,-60, ,
-1, ,-59, ,
-1, ,-59, ,
1, ,-59, ,
1, ,-59, ,
-1, ,-59, ,
1, ,-60, ,
-1, ,-59, ,
-1, ,-59, ,
1, ,-59, ,
1, ,-59, ,
-1, ,-59, ,
1, ,-59, ,
-1, ,-59, ,
-1, ,-59, ,
1, ,-59, ,
1, ,-59, ,
-2, ,-59, ,
1, ,-59, ,
-1, ,-59, ,
-1, ,-59, ,
1, ,-59, ,
1, ,-59, ,
-1, ,-59, ,
1, ,-60, ,
-1, ,-59, ,
-1, ,-59, ,
1, ,-59, ,
1, ,-59, ,
-1, ,-59, ,
1, ,-60, ,
-1, ,-58, ,
-1, ,-59, ,
1, ,-59, ,
1, ,-59, ,
-1, ,-59, ,
1, ,-59, ,
-1, ,-59, ,
-1, ,-59, ,
1, ,-59, ,
1, ,-59, ,
-1, ,-59, ,
1, ,-59, ,
-1, ,-59, ,
-1, ,-59, ,
1, ,-59, ,
1, ,-59, ,
-1, ,-59, ,
2, ,-59, ,
-1, ,-59, ,
-1, ,-59, ,
1, ,-59, ,
1, ,-59, ,
-1, ,-59, ,
1, ,-60, ,
-1, ,-58, ,
-1, ,-59, ,
1, ,-59, ,
1, ,-59, ,
-1, ,-59, ,
1, ,-60, ,
-1, ,-59, ,
-1, ,-59, ,
1, ,-59, ,
1, ,-59, ,
-1, ,-59, ,
1, ,-60, ,
-1, ,-59, ,
-1, ,-59, ,
1, ,-59, ,
1, ,-59, ,
-1, ,-59, ,
1, ,-60, ,
-1, ,-59, ,
-1, ,-59, ,
1, ,-59, ,
1, ,-59, ,
-1, ,-59, ,
1, ,-60, ,
-1, ,-59, ,
-1, ,-59, ,
1, ,-59, ,
1, ,-59, ,
-1, ,-59, ,
1, ,-60, ,
-1, ,-59, ,
-1, ,-59, ,
1, ,-59, ,
1, ,-59, ,
-1, ,-59, ,
2, ,-59, ,
-1, ,-59, ,
-1, ,-59, ,
1, ,-59, ,
1, ,-59, ,
-1, ,-59, ,
1, ,-59, ,
-1, ,-59, ,
-1, ,-59, ,
1, ,-59, ,
1, ,-59, ,
-1, ,-59, ,
1, ,-60, ,
-1, ,-59, ,
-1, ,-59, ,
1, ,-59, ,
1, ,-59, ,
-1, ,-59, ,
1, ,-60, ,
-1, ,-59, ,
-1, ,-59, ,
1, ,-59, ,
1, ,-59, ,
-2, ,-59, ,
1, ,-60, ,
-1, ,-58, ,
-1, ,-59, ,
1, ,-59, ,
1, ,-59, ,
-2, ,-59, ,
2, ,-60, ,
-1, ,-59, ,
-1, ,-59, ,
1, ,-59, ,
1, ,-59, ,
-1, ,-59, ,
1, ,-60, ,
-1, ,-59, ,
-1, ,-59, ,
1, ,-59, ,
1, ,-59, ,
-2, ,-59, ,
1, ,-59, ,
-1, ,-59, ,
-1, ,-59, ,
1, ,-59, ,
1, ,-59, ,
-2, ,-59, ,
1, ,-60, ,
-1, ,-59, ,
-1, ,-59, ,
1, ,-60, ,
-1, ,-59, ,
-2, ,-59, ,
1, ,-59, ,
-1, ,-59, ,
-1, ,-59, ,
1, ,-59, ,
-1, ,-59, ,
-2, ,-59, ,
2, ,-60, ,
-1, ,-59, ,
-1, ,-59, ,
1, ,-59, ,
1, ,-59, ,
-2, ,-59, ,
1, ,-59, ,
-1, ,-59, ,
-1, ,-59, ,
1, ,-59, ,
1, ,-59, ,
-2, ,-59, ,
1, ,-60, ,
-1, ,-59, ,
-1, ,-59, ,
1, ,-59, ,
1, ,-59, ,
-2, ,-59, ,
1, ,-60, ,
-1, ,-59, ,
-1, ,-59, ,
1, ,-59, ,
1, ,-59, ,
-1, ,-59, ,
1, ,-59, ,
-1, ,-59, ,
-1, ,-59, ,
1, ,-59, ,
-1, ,-59, ,
-2, ,-59, ,
1, ,-60, ,
-1, ,-59, ,
-1, ,-59, ,
1, ,-59, ,
1, ,-59, ,
-1, ,-59, ,
2, ,-60, ,
-1, ,-59, ,
-1, ,-59, ,
1, ,-59, ,
1, ,-59, ,
-1, ,-59, ,
1, ,-60, ,
-1, ,-59, ,
-1, ,-59, ,
1, ,-59, ,
1, ,-59, ,
-2, ,-59, ,
1, ,-60, ,
-1, ,-59, ,
-1, ,-59, ,
1, ,-59, ,
1, ,-59, ,
-1, ,-59, ,
1, ,-59, ,
-1, ,-59, ,
-1, ,-59, ,
1, ,-59, ,
1, ,-59, ,
-1, ,-59, ,
2, ,-60, ,
-1, ,-58, ,
-1, ,-59, ,
1, ,-59, ,
1, ,-59, ,
-1, ,-59, ,
1, ,-59, ,
-1, ,-59, ,
-1, ,-59, ,
32, ,-59, ,
72, ,-59, ,
44, ,-59, ,
27, ,-60, ,
17, ,-59, ,
11, ,-59, ,
8, ,-59, ,
6, ,-59, ,
3, ,-58, ,
5, ,-59, ,
2, ,-59, ,
2, ,-59, ,
3, ,-59, ,
3, ,-59, ,
1, ,-59, ,
3, ,-60, ,
2, ,-59, ,
2, ,-59, ,
3, ,-59, ,
2, ,-59, ,
1, ,-59, ,
3, ,-59, ,
2, ,-59, ,
1, ,-59, ,
3, ,-59, ,
3, ,-59, ,
1, ,-59, ,
3, ,-60, ,
2, ,-59, ,
1, ,-59, ,
2, ,-60, ,
3, ,-59, ,
1, ,-59, ,
3, ,-59, ,
2, ,-59, ,
1, ,-59, ,
3, ,-59, ,
2, ,-59, ,
1, ,-59, ,
5, ,-59, ,
2, ,-59, ,
1, ,-59, ,
2, ,-59, ,
2, ,-59, ,
1, ,-59, ,
3, ,-60, ,
1, ,-59, ,
1, ,-59, ,
2, ,-59, ,
2, ,-59, ,
1, ,-59, ,
3, ,-60, ,
1, ,-59, ,
2, ,-59, ,
2, ,-59, ,
2, ,-59, ,
1, ,-59, ,
3, ,-60, ,
1, ,-59, ,
1, ,-59, ,
2, ,-59, ,
2, ,-59, ,
1, ,-59, ,
3, ,-60, ,
1, ,-59, ,
2, ,-59, ,
2, ,-59, ,
2, ,-59, ,
1, ,-59, ,
3, ,-60, ,
1, ,-59, ,
1, ,-59, ,
2, ,-59, ,
2, ,-59, ,
1, ,-59, ,
3, ,-60, ,
1, ,-59, ,
1, ,-59, ,
2, ,-59, ,
2, ,-59, ,
1, ,-59, ,
3, ,-60, ,
1, ,-59, ,
1, ,-59, ,
2, ,-59, ,
2, ,-59, ,
1, ,-59, ,
3, ,-60, ,
1, ,-59, ,
1, ,-59, ,
2, ,-59, ,
2, ,-59, ,
1, ,-59, ,
3, ,-60, ,
1, ,-59, ,
1, ,-59, ,
2, ,-60, ,
2, ,-59, ,
1, ,-59, ,
3, ,-60, ,
1, ,-59, ,
1, ,-59, ,
2, ,-59, ,
2, ,-59, ,
1, ,-59, ,
2, ,-59, ,
1, ,-59, ,
1, ,-59, ,
2, ,-59, ,
2, ,-59, ,
1, ,-59, ,
3, ,-60, ,
1, ,-58, ,
2, ,-59, ,
2, ,-50, ,
2, ,-30, ,
1, ,-13, ,
3, ,-1, ,
1, ,8, ,
1, ,15, ,
2, ,20, ,
2, ,24, ,
1, ,26, ,
3, ,28, ,
2, ,31, ,
1, ,32, ,
2, ,32, ,
2, ,33, ,
1, ,33, ,
2, ,34, ,
1, ,34, ,
1, ,34, ,
2, ,34, ,
2, ,34, ,
1, ,35, ,
2, ,35, ,
1, ,35, ,
1, ,34, ,
2, ,35, ,
2, ,35, ,
1, ,35, ,
3, ,35, ,
1, ,35, ,
1, ,34, ,
2, ,34, ,
2, ,35, ,
1, ,34, ,
2, ,34, ,
1, ,35, ,
1, ,34, ,
2, ,34, ,
2, ,34, ,
1, ,34, ,
2, ,34, ,
2, ,34, ,
1, ,34, ,
2, ,34, ,
2, ,34, ,
1, ,34, ,
3, ,34, ,
1, ,34, ,
1, ,34, ,
2, ,34, ,
2, ,34, ,
1, ,34, ,
2, ,34, ,
1, ,34, ,
1, ,34, ,
2, ,34, ,
2, ,34, ,
1, ,34, ,
2, ,34, ,
1, ,34, ,
1, ,34, ,
2, ,34, ,
2, ,34, ,
1, ,34, ,
2, ,34, ,
1, ,34, ,
1, ,34, ,
3, ,34, ,
2, ,34, ,
1, ,34, ,
2, ,34, ,
1, ,34, ,
1, ,34, ,
2, ,34, ,
1, ,34, ,
1, ,34, ,
2, ,34, ,
1, ,34, ,
1, ,34, ,
2, ,34, ,
2, ,34, ,
1, ,34, ,
2, ,34, ,
1, ,34, ,
1, ,34, ,
2, ,34, ,
1, ,34, ,
-1, ,34, ,
2, ,34, ,
1, ,34, ,
1, ,34, ,
3, ,34, ,
2, ,34, ,
1, ,34, ,
2, ,34, ,
1, ,34, ,
1, ,34, ,
2, ,34, ,
1, ,34, ,
-1, ,34, ,
2, ,34, ,
1, ,34, ,
1, ,34, ,
2, ,34, ,
2, ,34, ,
-1, ,34, ,
2, ,34, ,
1, ,34, ,
1, ,34, ,
2, ,34, ,
1, ,34, ,
-1, ,34, ,
2, ,34, ,
1, ,34, ,
1, ,34, ,
2, ,34, ,
1, ,34, ,
-1, ,34, ,
2, ,34, ,
1, ,34, ,
1, ,34, ,
2, ,34, ,
1, ,34, ,
-1, ,34, ,
2, ,34, ,
1, ,34, ,
1, ,34, ,
2, ,34, ,
1, ,34, ,
-1, ,34, ,
2, ,34, ,
1, ,34, ,
1, ,34, ,
2, ,34, ,
1, ,34, ,
1, ,34, ,
2, ,34, ,
1, ,34, ,
1, ,34, ,
2, ,34, ,
2, ,34, ,
-1, ,34, ,
2, ,34, ,
1, ,34, ,
1, ,34, ,
2, ,34, ,
1, ,34, ,
1, ,34, ,
2, ,34, ,
1, ,34, ,
1, ,34, ,
2, ,34, ,
1, ,34, ,
1, ,34, ,
2, ,34, ,
1, ,31, ,
1, ,12, ,
2, ,-6, ,
1, ,-20, ,
1, ,-30, ,
2, ,-38, ,
-1, ,-43, ,
1, ,-47, ,
2, ,-51, ,
1, ,-54, ,
-1, ,-55, ,
2, ,-57, ,
1, ,-57, ,
1, ,-58, ,
2, ,-59, ,
1, ,-59, ,
-1, ,-59, ,
2, ,-60, ,
1, ,-59, ,
1, ,-59, ,
2, ,-60, ,
1, ,-60, ,
-1, ,-60, ,
2, ,-60, ,
1, ,-59, ,
1, ,-60, ,
2, ,-60, ,
1, ,-59, ,
-1, ,-59, ,
2, ,-60, ,
1, ,-59, ,
1, ,-60, ,
2, ,-59, ,
1, ,-59, ,
-1, ,-59, ,
2, ,-60, ,
1, ,-59, ,
1, ,-60, ,
2, ,-60, ,
1, ,-59, ,
-1, ,-59, ,
2, ,-60, ,
1, ,-59, ,
1, ,-59, ,
2, ,-59, ,
2, ,-59, ,
-1, ,-59, ,
2, ,-60, ,
1, ,-59, ,
1, ,-59, ,
1, ,-59, ,
1, ,-59, ,
-1, ,-59, ,
2, ,-60, ,
1, ,-59, ,
1, ,-60, ,
2, ,-59, ,
1, ,-59, ,
-1, ,-59, ,
2, ,-60, ,
1, ,-58, ,
1, ,-59, ,
1, ,-59, ,
1, ,-59, ,
-1, ,-59, ,
2, ,-59, ,
-1, ,-59, ,
-1, ,-60, ,
1, ,-59, ,
1, ,-59, ,
-1, ,-59, ,
2, ,-59, ,
-1, ,-58, ,
-1, ,-59, ,
1, ,-59, ,
1, ,-59, ,
-1, ,-59, ,
2, ,-60, ,
-1, ,-59, ,
-1, ,-59, ,
1, ,-59, ,
1, ,-59, ,
-1, ,-59, ,
2, ,-60, ,
-1, ,-58, ,
-1, ,-59, ,
1, ,-59, ,
1, ,-59, ,
-1, ,-59, ,
2, ,-60, ,
-1, ,-59, ,
-1, ,-59, ,
1, ,-59, ,
1, ,-59, ,
-1, ,-59, ,
2, ,-60, ,
-1, ,-58, ,
-1, ,-59, ,
1, ,-59, ,
1, ,-59, ,
-1, ,-59, ,
1, ,-60, ,
-1, ,-59, ,
-1, ,-59, ,
1, ,-59, ,
1, ,-59, ,
-1, ,-59, ,
2, ,-60, ,
-1, ,-59, ,
-1, ,-59, ,
1, ,-59, ,
1, ,-59, ,
-1, ,-59, ,
2, ,-60, ,
-1, ,-59, ,
-1, ,-59, ,
1, ,-59, ,
1, ,-59, ,
-1, ,-59, ,
2, ,-59, ,
-1, ,-59, ,
1, ,-59, ,
1, ,-59, ,
1, ,-59, ,
-1, ,-59, ,
2, ,-60, ,
-1, ,-59, ,
1, ,-59, ,
1, ,-59, ,
1, ,-59, ,
-1, ,-59, ,
2, ,-60, ,
-1, ,-59, ,
-1, ,-59, ,
1, ,-59, ,
1, ,-59, ,
-1, ,-59, ,
2, ,-60, ,
-1, ,-59, ,
1, ,-60, ,
1, ,-59, ,
1, ,-59, ,
-1, ,-59, ,
2, ,-60, ,
1, ,-59, ,
1, ,-59, ,
1, ,-59, ,
1, ,-59, ,
-1, ,-59, ,
2, ,-59, ,
-1, ,-59, ,
-1, ,-59, ,
1, ,-59, ,
1, ,-59, ,
-1, ,-59, ,
2, ,-60, ,
-1, ,-59, ,
-1, ,-59, ,
2, ,-59, ,
1, ,-59, ,
-1, ,-59, ,
2, ,-60, ,
-1, ,-59, ,
7, ,-59, ,
58, ,-59, ,
38, ,-59, ,
22, ,-59, ,
16, ,-60, ,
10, ,-59, ,
7, ,-59, ,
6, ,-59, ,
5, ,-59, ,
3, ,-59, ,
6, ,-59, ,
3, ,-59, ,
2, ,-59, ,
3, ,-59, ,
3, ,-59, ,
2, ,-59, ,
5, ,-60, ,
2, ,-59, ,
2, ,-59, ,
3, ,-59, ,
2, ,-59, ,
1, ,-59, ,
3, ,-59, ,
2, ,-59, ,
1, ,-59, ,
2, ,-59, ,
2, ,-59, ,
1, ,-59, ,
3, ,-60, ,
2, ,-59, ,
2, ,-59, ,
2, ,-59, ,
3, ,-59, ,
1, ,-59, ,
3, ,-59, ,
1, ,-59, ,
1, ,-59, ,
2, ,-59, ,
2, ,-59, ,
1, ,-59, ,
3, ,-60, ,
2, ,-59, ,
2, ,-59, ,
3, ,-60, ,
2, ,-59, ,
1, ,-59, ,
3, ,-60, ,
2, ,-59, ,
1, ,-59, ,
2, ,-59, ,
2, ,-59, ,
1, ,-59, ,
3, ,-60, ,
1, ,-59, ,
1, ,-59, ,
2, ,-59, ,
2, ,-59, ,
1, ,-59, ,
3, ,-60, ,
1, ,-59, ,
2, ,-59, ,
2, ,-59, ,
2, ,-60, ,
1, ,-59, ,
3, ,-60, ,
2, ,-59, ,
2, ,-59, ,
2, ,-59, ,
2, ,-59, ,
1, ,-59, ,
3, ,-59, ,
1, ,-59, ,
1, ,-59, ,
2, ,-59, ,
2, ,-59, ,
1, ,-59, ,
3, ,-60, ,
2, ,-59, ,
2, ,-59, ,
2, ,-59, ,
2, ,-59, ,
1, ,-58, ,
3, ,-59, ,
1, ,-59, ,
1, ,-59, ,
2, ,-59, ,
2, ,-59, ,
1, ,-59, ,
3, ,-60, ,
1, ,-59, ,
1, ,-59, ,
2, ,-59, ,
2, ,-59, ,
1, ,-59, ,
3, ,-59, ,
1, ,-59, ,
1, ,-59, ,
2, ,-59, ,
2, ,-59, ,
1, ,-59, ,
3, ,-60, ,
1, ,-58, ,
1, ,-59, ,
2, ,-59, ,
2, ,-59, ,
1, ,-59, ,
3, ,-59, ,
1, ,-59, ,
1, ,-59, ,
2, ,-59, ,
2, ,-59, ,
1, ,-59, ,
3, ,-59, ,
1, ,-59, ,
1, ,-59, ,
2, ,-59, ,
2, ,-59, ,
1, ,-59, ,
3, ,-59, ,
1, ,-59, ,
1, ,-59, ,
2, ,-59, ,
3, ,-59, ,
1, ,-59, ,
3, ,-59, ,
1, ,-59, ,
1, ,-59, ,
2, ,-59, ,
2, ,-59, ,
1, ,-59, ,
3, ,-60, ,
1, ,-59, ,
1, ,-59, ,
2, ,-59, ,
2, ,-59, ,
1, ,-59, ,
3, ,-60, ,
1, ,-58, ,
1, ,-59, ,
2, ,-59, ,
2, ,-59, ,
1, ,-59, ,
2, ,-60, ,
1, ,-59, ,
1, ,-59, ,
2, ,-59, ,
2, ,-59, ,
1, ,-59, ,
3, ,-60, ,
1, ,-59, ,
1, ,-59, ,
2, ,-59, ,
2, ,-59, ,
1, ,-59, ,
3, ,-59, ,
1, ,-59, ,
1, ,-59, ,
2, ,-59, ,
2, ,-59, ,
1, ,-59, ,
3, ,-60, ,
1, ,-59, ,
1, ,-59, ,
2, ,-60, ,
2, ,-59, ,
1, ,-59, ,
2, ,-59, ,
1, ,-59, ,
1, ,-59, ,
2, ,-59, ,
2, ,-59, ,
-1, ,-59, ,
3, ,-60, ,
1, ,-58, ,
1, ,-59, ,
2, ,-60, ,
2, ,-59, ,
-1, ,-58, ,
2, ,-59, ,
1, ,-59, ,
1, ,-59, ,
2, ,-59, ,
2, ,-59, ,
1, ,-59, ,
2, ,-60, ,
1, ,-59, ,
1, ,-59, ,
2, ,-59, ,
1, ,-59, ,
-1, ,-59, ,
2, ,-59, ,
1, ,-59, ,
1, ,-59, ,
2, ,-59, ,
2, ,-59, ,
-1, ,-59, ,
2, ,-60, ,
1, ,-59, ,
1, ,-59, ,
2, ,-59, ,
1, ,-59, ,
-1, ,-59, ,
2, ,-60, ,
1, ,-59, ,
1, ,-59, ,
2, ,-59, ,
1, ,-59, ,
-1, ,-59, ,
2, ,-59, ,
1, ,-59, ,
1, ,-59, ,
2, ,-59, ,
2, ,-59, ,
-1, ,-59, ,
2, ,-59, ,
1, ,-59, ,
1, ,-59, ,
2, ,-59, ,
1, ,-59, ,
-1, ,-59, ,
2, ,-60, ,
1, ,-58, ,
1, ,-59, ,
2, ,-59, ,
2, ,-59, ,
-1, ,-58, ,
2, ,-59, ,
1, ,-59, ,
1, ,-59, ,
2, ,-59, ,
2, ,-59, ,
-1, ,-59, ,
2, ,-60, ,
1, ,-59, ,
1, ,-59, ,
2, ,-59, ,
2, ,-59, ,
1, ,-59, ,
2, ,-59, ,
1, ,-59, ,
1, ,-59, ,
2, ,-59, ,
2, ,-59, ,
-1, ,-59, ,
3, ,-59, ,
1, ,-59, ,
1, ,-59, ,
2, ,-59, ,
2, ,-59, ,
-1, ,-59, ,
2, ,-60, ,
1, ,-59, ,
1, ,-59, ,
2, ,-59, ,
1, ,-59, ,
-1, ,-59, ,
2, ,-60, ,
1, ,-59, ,
1, ,-59, ,
2, ,-59, ,
2, ,-59, ,
-1, ,-59, ,
2, ,-60, ,
1, ,-59, ,
1, ,-59, ,
2, ,-59, ,
2, ,-59, ,
-1, ,-59, ,
2, ,-60, ,
1, ,-59, ,
1, ,-59, ,
2, ,-59, ,
2, ,-59, ,
-1, ,-58, ,
2, ,-59, ,
1, ,-59, ,
1, ,-59, ,
2, ,-59, ,
2, ,-59, ,
-1, ,-59, ,
2, ,-60, ,
1, ,-58, ,
1, ,-59, ,
2, ,-59, ,
1, ,-59, ,
-1, ,-59, ,
2, ,-60, ,
1, ,-59, ,
1, ,-59, ,
2, ,-59, ,
2, ,-59, ,
-1, ,-59, ,
2, ,-60, ,
1, ,-58, ,
1, ,-59, ,
2, ,-59, ,
1, ,-59, ,
-1, ,-59, ,
2, ,-60, ,
1, ,-59, ,
1, ,-59, ,
2, ,-59, ,
1, ,-59, ,
-1, ,-59, ,
2, ,-60, ,
1, ,-58, ,
1, ,-59, ,
1, ,-60, ,
1, ,-59, ,
