src/varyamp_1560/temp0004754.CSV

Format,1.0B,
Memory Length,10000,Memory Length,10000,
IntpDistance,0,IntpDistance,0,
Trigger Address,4999,Trigger Address,4999,
Trigger Level,1.040E+00,Trigger Level,1.040E+00,
Source,CH1,Source,CH2,
Vertical Units,V,Vertical Units,V,
Vertical Units Div,0,Vertical Units Div,0,
Vertical Units Extend Div,16,Vertical Units Extend Div,16,
Label,,Label,,
Probe Type,0,Probe Type,0,
Probe Ratio,1.000e+01,Probe Ratio,1.000e+00,
Vertical Scale,5.000e-01,Vertical Scale,1.000e+00,
Vertical Position,-1.820e+00,Vertical Position,0.000e+00,
Horizontal Units,S,Horizontal Units,S,
Horizontal Scale,2.000E-05,Horizontal Scale,2.000E-05,
Horizontal Position,0.000E+00,Horizontal Position,0.000E+00,
Horizontal Mode,Main,Horizontal Mode,Main,
SincET Mode,Real Time,SincET Mode,Real Time,
Sampling Period,2.000e-08,Sampling Period,2.000e-08,
Horizontal Old Scale,2.000E-05,Horizontal Old Scale,2.000E-05,
Horizontal Old Position,0.000E+00,Horizontal Old Position,0.000E+00,
Firmware,V1.23,Firmware,V1.23,
Mode,Fast,Mode,Fast,
Waveform Data,,Waveform Data,,
-1, ,-39, ,
-1, ,-39, ,
1, ,-38, ,
1, ,-39, ,
-1, ,-38, ,
1, ,-38, ,
-1, ,-38, ,
-1, ,-39, ,
1, ,-38, ,
1, ,-39, ,
-1, ,-39, ,
1, ,-39, ,
-1, ,-39, ,
-1, ,-39, ,
1, ,-38, ,
1, ,-38, ,
-1, ,-39, ,
1, ,-38, ,
-1, ,-39, ,
-1, ,-39, ,
1, ,-38, ,
1, ,-38, ,
-1, ,-39, ,
1, ,-38, ,
-1, ,-38, ,
-1, ,-39, ,
1, ,-38, ,
1, ,-38, ,
-1, ,-39, ,
1, ,-38, ,
-1, ,-38, ,
-1, ,-39, ,
1, ,-38, ,
1, ,-38, ,
-1, ,-39, ,
1, ,-38, ,
-1, ,-39, ,
-1, ,-38, ,
1, ,-38, ,
1, ,-39, ,
-1, ,-39, ,
1, ,-38, ,
-1, ,-38, ,
-1, ,-39, ,
1, ,-38, ,
1, ,-38, ,
-1, ,-38, ,
2, ,-39, ,
-1, ,-39, ,
-1, ,-38, ,
1, ,-38, ,
1, ,-38, ,
-1, ,-39, ,
1, ,-38, ,
-1, ,-38, ,
-1, ,-39, ,
1, ,-38, ,
1, ,-38, ,
-1, ,-38, ,
1, ,-38, ,
-1, ,-38, ,
-1, ,-39, ,
1, ,-38, ,
1, ,-38, ,
-1, ,-39, ,
2, ,-38, ,
-1, ,-38, ,
-1, ,-39, ,
1, ,-38, ,
1, ,-38, ,
-1, ,-39, ,
1, ,-38, ,
-1, ,-39, ,
-1, ,-38, ,
1, ,-38, ,
1, ,-38, ,
-1, ,-39, ,
1, ,-38, ,
-1, ,-39, ,
-1, ,-39, ,
1, ,-38, ,
1, ,-38, ,
-1, ,-39, ,
1, ,-39, ,
-1, ,-38, ,
1, ,-38, ,
1, ,-38, ,
1, ,-38, ,
-1, ,-39, ,
1, ,-38, ,
-1, ,-38, ,
-1, ,-39, ,
1, ,-38, ,
1, ,-38, ,
-1, ,-38, ,
1, ,-39, ,
-1, ,-38, ,
-1, ,-39, ,
1, ,-38, ,
1, ,-38, ,
-1, ,-39, ,
1, ,-38, ,
-1, ,-38, ,
-1, ,-39, ,
1, ,-38, ,
1, ,-38, ,
-1, ,-39, ,
1, ,-39, ,
-1, ,-38, ,
-1, ,-38, ,
1, ,-38, ,
1, ,-38, ,
-2, ,-39, ,
1, ,-39, ,
-1, ,-39, ,
-1, ,-38, ,
1, ,-38, ,
1, ,-38, ,
-1, ,-39, ,
1, ,-38, ,
-1, ,-39, ,
-1, ,-38, ,
1, ,-39, ,
1, ,-39, ,
-1, ,-39, ,
1, ,-38, ,
-1, ,-39, ,
-1, ,-39, ,
1, ,-38, ,
1, ,-38, ,
-1, ,-39, ,
1, ,-38, ,
-1, ,-39, ,
-1, ,-38, ,
1, ,-38, ,
1, ,-38, ,
-1, ,-39, ,
2, ,-38, ,
-1, ,-38, ,
-1, ,-39, ,
1, ,-38, ,
1, ,-38, ,
-1, ,-39, ,
1, ,-38, ,
-1, ,-39, ,
-1, ,-38, ,
1, ,-38, ,
1, ,-38, ,
-1, ,-39, ,
1, ,-38, ,
-1, ,-38, ,
-1, ,-38, ,
1, ,-38, ,
1, ,-38, ,
-1, ,-38, ,
1, ,-39, ,
-1, ,-38, ,
-1, ,-38, ,
1, ,-38, ,
1, ,-38, ,
-1, ,-39, ,
1, ,-38, ,
-1, ,-39, ,
-1, ,-39, ,
1, ,-38, ,
1, ,-38, ,
-1, ,-39, ,
1, ,-39, ,
-1, ,-38, ,
-1, ,-38, ,
1, ,-38, ,
1, ,-38, ,
-1, ,-39, ,
1, ,-38, ,
-1, ,-38, ,
-1, ,-39, ,
1, ,-38, ,
1, ,-38, ,
-1, ,-38, ,
1, ,-39, ,
-1, ,-38, ,
-1, ,-38, ,
1, ,-39, ,
1, ,-38, ,
-1, ,-39, ,
1, ,-38, ,
-1, ,-39, ,
-1, ,-38, ,
1, ,-38, ,
1, ,-38, ,
-1, ,-39, ,
2, ,-39, ,
-1, ,-38, ,
-1, ,-38, ,
1, ,-38, ,
1, ,-39, ,
-1, ,-39, ,
1, ,-38, ,
-1, ,-39, ,
-1, ,-39, ,
1, ,-38, ,
1, ,-38, ,
-1, ,-39, ,
1, ,-38, ,
-1, ,-38, ,
-1, ,-38, ,
1, ,-39, ,
1, ,-38, ,
-1, ,-39, ,
1, ,-38, ,
-1, ,-38, ,
-1, ,-39, ,
1, ,-38, ,
1, ,-38, ,
-1, ,-39, ,
1, ,-39, ,
-1, ,-38, ,
-1, ,-38, ,
1, ,-38, ,
1, ,-38, ,
-1, ,-39, ,
1, ,-38, ,
-1, ,-38, ,
-1, ,-38, ,
1, ,-38, ,
1, ,-39, ,
-1, ,-38, ,
1, ,-38, ,
-1, ,-39, ,
-1, ,-38, ,
1, ,-39, ,
1, ,-38, ,
-1, ,-39, ,
1, ,-38, ,
-1, ,-39, ,
-1, ,-38, ,
1, ,-38, ,
1, ,-38, ,
-1, ,-39, ,
1, ,-39, ,
-1, ,-38, ,
-1, ,-38, ,
1, ,-38, ,
1, ,-38, ,
-1, ,-39, ,
1, ,-39, ,
-1, ,-38, ,
-1, ,-38, ,
1, ,-39, ,
1, ,-38, ,
-1, ,-38, ,
1, ,-38, ,
-1, ,-39, ,
-1, ,-38, ,
1, ,-38, ,
1, ,-38, ,
-1, ,-39, ,
1, ,-38, ,
-1, ,-38, ,
-1, ,-39, ,
1, ,-39, ,
1, ,-38, ,
-1, ,-39, ,
1, ,-38, ,
-1, ,-38, ,
-1, ,-38, ,
1, ,-38, ,
1, ,-38, ,
-1, ,-39, ,
1, ,-39, ,
-1, ,-38, ,
-1, ,-38, ,
1, ,-38, ,
1, ,-38, ,
-1, ,-39, ,
1, ,-38, ,
-1, ,-38, ,
-1, ,-38, ,
1, ,-38, ,
1, ,-38, ,
-1, ,-39, ,
2, ,-38, ,
-1, ,-39, ,
-1, ,-39, ,
1, ,-38, ,
1, ,-38, ,
-1, ,-38, ,
1, ,-38, ,
-1, ,-39, ,
-1, ,-38, ,
1, ,-38, ,
1, ,-38, ,
-1, ,-39, ,
1, ,-38, ,
-1, ,-38, ,
-1, ,-38, ,
1, ,-38, ,
1, ,-38, ,
-1, ,-39, ,
1, ,-39, ,
-1, ,-38, ,
-1, ,-38, ,
1, ,-39, ,
1, ,-38, ,
-1, ,-39, ,
1, ,-38, ,
-1, ,-39, ,
-1, ,-37, ,
1, ,-21, ,
1, ,-2, ,
-1, ,13, ,
1, ,23, ,
-1, ,32, ,
-1, ,37, ,
1, ,42, ,
1, ,45, ,
-1, ,49, ,
2, ,50, ,
-1, ,52, ,
-1, ,53, ,
1, ,54, ,
1, ,54, ,
-1, ,54, ,
1, ,54, ,
-1, ,54, ,
-1, ,55, ,
1, ,55, ,
1, ,55, ,
-1, ,55, ,
1, ,55, ,
-1, ,55, ,
-1, ,55, ,
1, ,55, ,
1, ,55, ,
-1, ,55, ,
1, ,55, ,
-1, ,55, ,
-1, ,55, ,
1, ,55, ,
1, ,55, ,
-1, ,55, ,
1, ,55, ,
-1, ,55, ,
-1, ,55, ,
1, ,55, ,
1, ,55, ,
-1, ,55, ,
1, ,55, ,
-1, ,55, ,
-1, ,55, ,
1, ,55, ,
1, ,55, ,
-1, ,55, ,
1, ,54, ,
-1, ,55, ,
-1, ,55, ,
1, ,55, ,
1, ,55, ,
-1, ,55, ,
1, ,54, ,
-1, ,54, ,
-1, ,55, ,
1, ,55, ,
1, ,55, ,
-1, ,55, ,
1, ,54, ,
-1, ,55, ,
-1, ,54, ,
1, ,54, ,
-1, ,55, ,
-1, ,55, ,
1, ,54, ,
-1, ,54, ,
-1, ,55, ,
1, ,55, ,
1, ,54, ,
-1, ,55, ,
1, ,54, ,
-1, ,54, ,
-1, ,54, ,
1, ,55, ,
1, ,54, ,
-1, ,55, ,
1, ,55, ,
-1, ,54, ,
-1, ,55, ,
1, ,55, ,
1, ,54, ,
-1, ,55, ,
1, ,54, ,
-1, ,54, ,
-1, ,55, ,
1, ,54, ,
1, ,54, ,
-1, ,55, ,
1, ,54, ,
-1, ,54, ,
-1, ,55, ,
1, ,55, ,
-1, ,54, ,
-1, ,55, ,
1, ,54, ,
-1, ,54, ,
-1, ,54, ,
1, ,54, ,
1, ,54, ,
-1, ,55, ,
1, ,54, ,
-1, ,54, ,
-1, ,55, ,
1, ,54, ,
1, ,54, ,
-1, ,55, ,
1, ,54, ,
-1, ,54, ,
-1, ,54, ,
1, ,55, ,
1, ,54, ,
-1, ,55, ,
2, ,54, ,
-1, ,54, ,
-1, ,55, ,
1, ,54, ,
1, ,54, ,
-1, ,55, ,
1, ,54, ,
-1, ,54, ,
-1, ,54, ,
1, ,54, ,
1, ,54, ,
-1, ,55, ,
2, ,54, ,
-1, ,54, ,
-1, ,54, ,
1, ,54, ,
1, ,54, ,
-1, ,55, ,
1, ,54, ,
-1, ,54, ,
-1, ,55, ,
1, ,54, ,
1, ,54, ,
-1, ,55, ,
1, ,54, ,
-1, ,54, ,
-1, ,55, ,
1, ,54, ,
1, ,54, ,
-1, ,55, ,
1, ,54, ,
-1, ,54, ,
-1, ,55, ,
1, ,54, ,
1, ,54, ,
-1, ,55, ,
1, ,54, ,
-1, ,54, ,
-1, ,54, ,
1, ,55, ,
1, ,54, ,
-1, ,55, ,
1, ,54, ,
-1, ,45, ,
-1, ,25, ,
1, ,9, ,
1, ,-3, ,
-1, ,-13, ,
1, ,-19, ,
-1, ,-24, ,
-1, ,-28, ,
1, ,-32, ,
1, ,-33, ,
-1, ,-35, ,
1, ,-36, ,
-1, ,-37, ,
-1, ,-38, ,
1, ,-38, ,
1, ,-38, ,
-1, ,-39, ,
1, ,-39, ,
-1, ,-39, ,
-1, ,-39, ,
1, ,-39, ,
1, ,-39, ,
-1, ,-40, ,
1, ,-39, ,
-1, ,-39, ,
-1, ,-39, ,
1, ,-39, ,
1, ,-39, ,
-2, ,-39, ,
2, ,-39, ,
-1, ,-39, ,
-1, ,-39, ,
1, ,-39, ,
1, ,-39, ,
-1, ,-39, ,
2, ,-39, ,
-1, ,-39, ,
-1, ,-39, ,
1, ,-39, ,
1, ,-39, ,
-1, ,-39, ,
1, ,-39, ,
-1, ,-39, ,
-1, ,-38, ,
1, ,-39, ,
1, ,-39, ,
-1, ,-39, ,
1, ,-39, ,
-1, ,-39, ,
-1, ,-39, ,
1, ,-39, ,
1, ,-38, ,
-1, ,-39, ,
1, ,-39, ,
-1, ,-39, ,
-1, ,-39, ,
1, ,-39, ,
1, ,-38, ,
-1, ,-39, ,
1, ,-38, ,
-1, ,-39, ,
-1, ,-39, ,
1, ,-39, ,
1, ,-39, ,
-2, ,-39, ,
1, ,-39, ,
-1, ,-39, ,
-1, ,-38, ,
1, ,-39, ,
1, ,-38, ,
-2, ,-39, ,
1, ,-39, ,
-1, ,-39, ,
-1, ,-39, ,
1, ,-38, ,
1, ,-39, ,
-1, ,-39, ,
1, ,-39, ,
-1, ,-38, ,
-1, ,-39, ,
1, ,-39, ,
1, ,-38, ,
-1, ,-39, ,
1, ,-39, ,
-1, ,-39, ,
-1, ,-39, ,
1, ,-39, ,
1, ,-38, ,
-1, ,-39, ,
1, ,-39, ,
-1, ,-39, ,
-1, ,-38, ,
1, ,-39, ,
1, ,-39, ,
-1, ,-39, ,
1, ,-39, ,
-1, ,-38, ,
-1, ,-39, ,
1, ,-38, ,
1, ,-39, ,
-1, ,-39, ,
1, ,-39, ,
-1, ,-39, ,
-1, ,-38, ,
1, ,-38, ,
1, ,-38, ,
-1, ,-39, ,
1, ,-38, ,
-1, ,-39, ,
-1, ,-38, ,
1, ,-38, ,
1, ,-39, ,
-1, ,-38, ,
1, ,-39, ,
-1, ,-38, ,
-1, ,-38, ,
1, ,-38, ,
1, ,-38, ,
-1, ,-39, ,
1, ,-38, ,
-1, ,-39, ,
-1, ,-39, ,
1, ,-39, ,
1, ,-38, ,
-1, ,-39, ,
1, ,-39, ,
-1, ,-38, ,
-1, ,-38, ,
1, ,-38, ,
1, ,-38, ,
-1, ,-39, ,
1, ,-38, ,
-1, ,-38, ,
1, ,-38, ,
1, ,-38, ,
1, ,-38, ,
-1, ,-39, ,
1, ,-39, ,
-1, ,-39, ,
-1, ,-38, ,
1, ,-38, ,
1, ,-38, ,
-1, ,-39, ,
1, ,-39, ,
-1, ,-38, ,
-1, ,-39, ,
1, ,-38, ,
1, ,-38, ,
-1, ,-38, ,
1, ,-39, ,
-1, ,-38, ,
-1, ,-38, ,
1, ,-38, ,
1, ,-38, ,
-1, ,-39, ,
1, ,-38, ,
-1, ,-38, ,
-1, ,-38, ,
1, ,-38, ,
1, ,-38, ,
-1, ,-39, ,
1, ,-39, ,
-1, ,-39, ,
1, ,-39, ,
1, ,-38, ,
1, ,-38, ,
-1, ,-39, ,
1, ,-38, ,
-1, ,-38, ,
-1, ,-39, ,
1, ,-38, ,
1, ,-38, ,
-1, ,-39, ,
1, ,-38, ,
-1, ,-39, ,
-1, ,-38, ,
1, ,-38, ,
1, ,-38, ,
-1, ,-39, ,
2, ,-38, ,
-1, ,-38, ,
-1, ,-39, ,
1, ,-38, ,
1, ,-38, ,
-1, ,-38, ,
1, ,-39, ,
-1, ,-39, ,
-1, ,-38, ,
1, ,-39, ,
1, ,-38, ,
-1, ,-39, ,
1, ,-38, ,
-1, ,-38, ,
-1, ,-39, ,
1, ,-38, ,
1, ,-38, ,
-1, ,-39, ,
1, ,-39, ,
-1, ,-39, ,
-1, ,-38, ,
1, ,-39, ,
1, ,-38, ,
-1, ,-39, ,
1, ,-38, ,
-1, ,-38, ,
-1, ,-38, ,
1, ,-38, ,
1, ,-38, ,
-1, ,-39, ,
1, ,-39, ,
-1, ,-39, ,
-1, ,-38, ,
1, ,-39, ,
1, ,-38, ,
-2, ,-39, ,
1, ,-38, ,
-1, ,-39, ,
1, ,-38, ,
1, ,-38, ,
1, ,-38, ,
-1, ,-38, ,
1, ,-38, ,
-1, ,-38, ,
-1, ,-38, ,
1, ,-38, ,
1, ,-38, ,
-1, ,-39, ,
1, ,-38, ,
-1, ,-38, ,
-1, ,-39, ,
1, ,-38, ,
1, ,-38, ,
-1, ,-39, ,
1, ,-38, ,
-1, ,-38, ,
-1, ,-38, ,
1, ,-38, ,
1, ,-38, ,
-1, ,-38, ,
1, ,-38, ,
-1, ,-38, ,
-1, ,-38, ,
1, ,-38, ,
1, ,-38, ,
-1, ,-38, ,
1, ,-38, ,
-1, ,-38, ,
-1, ,-38, ,
1, ,-39, ,
1, ,-38, ,
-1, ,-39, ,
1, ,-38, ,
-1, ,-39, ,
-1, ,-39, ,
1, ,-38, ,
1, ,-38, ,
-1, ,-38, ,
1, ,-38, ,
-1, ,-39, ,
-1, ,-38, ,
1, ,-38, ,
1, ,-38, ,
-1, ,-38, ,
1, ,-38, ,
-1, ,-39, ,
-1, ,-38, ,
1, ,-38, ,
1, ,-38, ,
-1, ,-38, ,
1, ,-39, ,
-1, ,-38, ,
-1, ,-38, ,
1, ,-38, ,
1, ,-38, ,
-1, ,-39, ,
1, ,-38, ,
-1, ,-38, ,
-1, ,-39, ,
1, ,-38, ,
1, ,-38, ,
-1, ,-39, ,
1, ,-39, ,
-1, ,-38, ,
-1, ,-38, ,
1, ,-38, ,
1, ,-38, ,
-1, ,-39, ,
1, ,-38, ,
-1, ,-39, ,
-1, ,-38, ,
1, ,-38, ,
1, ,-38, ,
-1, ,-38, ,
1, ,-38, ,
-1, ,-38, ,
-1, ,-38, ,
1, ,-38, ,
1, ,-38, ,
-1, ,-39, ,
1, ,-38, ,
-1, ,-39, ,
-1, ,-38, ,
1, ,-38, ,
1, ,-38, ,
-1, ,-39, ,
1, ,-39, ,
-1, ,-38, ,
-1, ,-38, ,
1, ,-38, ,
1, ,-38, ,
-1, ,-39, ,
1, ,-38, ,
-1, ,-38, ,
-1, ,-38, ,
1, ,-38, ,
1, ,-38, ,
-1, ,-38, ,
1, ,-39, ,
-1, ,-38, ,
1, ,-38, ,
1, ,-38, ,
1, ,-38, ,
-1, ,-39, ,
1, ,-38, ,
-1, ,-39, ,
1, ,-38, ,
1, ,-38, ,
1, ,-38, ,
-1, ,-39, ,
2, ,-38, ,
-1, ,-38, ,
-1, ,-38, ,
1, ,-38, ,
1, ,-39, ,
-1, ,-39, ,
1, ,-38, ,
-1, ,-39, ,
-1, ,-38, ,
1, ,-38, ,
1, ,-38, ,
-1, ,-39, ,
1, ,-38, ,
-1, ,-39, ,
-1, ,-39, ,
1, ,-38, ,
1, ,-38, ,
-1, ,-39, ,
1, ,-38, ,
-1, ,-39, ,
-1, ,-38, ,
1, ,-38, ,
1, ,-38, ,
-1, ,-39, ,
1, ,-38, ,
-1, ,-39, ,
-1, ,-38, ,
1, ,-38, ,
1, ,-39, ,
-1, ,-38, ,
1, ,-38, ,
-1, ,-39, ,
-1, ,-39, ,
1, ,-38, ,
1, ,-38, ,
-1, ,-38, ,
1, ,-38, ,
-1, ,-38, ,
-1, ,-38, ,
1, ,-38, ,
1, ,-38, ,
-1, ,-39, ,
1, ,-38, ,
-1, ,-39, ,
-1, ,-38, ,
1, ,-38, ,
1, ,-38, ,
-1, ,-39, ,
1, ,-38, ,
-1, ,-38, ,
-1, ,-38, ,
100, ,-38, ,
66, ,-38, ,
38, ,-39, ,
26, ,-38, ,
15, ,-39, ,
10, ,-39, ,
7, ,-38, ,
6, ,-38, ,
3, ,-38, ,
5, ,-38, ,
2, ,-39, ,
2, ,-38, ,
3, ,-38, ,
2, ,-38, ,
1, ,-39, ,
3, ,-38, ,
2, ,-39, ,
2, ,-38, ,
3, ,-38, ,
3, ,-38, ,
1, ,-39, ,
3, ,-39, ,
2, ,-38, ,
2, ,-38, ,
3, ,-38, ,
3, ,-38, ,
1, ,-39, ,
3, ,-38, ,
2, ,-39, ,
2, ,-39, ,
3, ,-38, ,
3, ,-38, ,
1, ,-39, ,
3, ,-38, ,
2, ,-38, ,
2, ,-38, ,
3, ,-39, ,
3, ,-38, ,
1, ,-39, ,
3, ,-38, ,
2, ,-38, ,
2, ,-38, ,
2, ,-38, ,
3, ,-38, ,
2, ,-39, ,
3, ,-38, ,
2, ,-39, ,
2, ,-38, ,
3, ,-38, ,
2, ,-38, ,
2, ,-39, ,
3, ,-38, ,
2, ,-39, ,
2, ,-38, ,
3, ,-38, ,
2, ,-38, ,
2, ,-38, ,
3, ,-39, ,
2, ,-38, ,
2, ,-38, ,
3, ,-38, ,
3, ,-38, ,
1, ,-39, ,
2, ,-38, ,
1, ,-39, ,
2, ,-38, ,
2, ,-38, ,
3, ,-38, ,
1, ,-39, ,
3, ,-39, ,
2, ,-38, ,
2, ,-38, ,
2, ,-38, ,
2, ,-38, ,
1, ,-39, ,
3, ,-38, ,
2, ,-38, ,
2, ,-38, ,
2, ,-38, ,
2, ,-38, ,
1, ,-39, ,
3, ,-39, ,
1, ,-39, ,
2, ,-38, ,
2, ,-38, ,
2, ,-38, ,
1, ,-39, ,
3, ,-38, ,
2, ,-39, ,
2, ,-39, ,
2, ,-38, ,
2, ,-38, ,
1, ,-39, ,
3, ,-39, ,
2, ,-39, ,
2, ,-38, ,
2, ,-38, ,
2, ,-38, ,
1, ,-39, ,
2, ,-38, ,
2, ,-39, ,
2, ,-39, ,
2, ,-38, ,
2, ,-38, ,
1, ,-38, ,
3, ,-39, ,
2, ,-39, ,
2, ,-39, ,
2, ,-38, ,
2, ,-38, ,
1, ,-39, ,
3, ,-38, ,
1, ,-39, ,
2, ,-39, ,
2, ,-38, ,
2, ,-38, ,
1, ,-39, ,
3, ,-39, ,
1, ,-39, ,
1, ,-38, ,
2, ,-38, ,
2, ,-38, ,
1, ,-39, ,
3, ,-39, ,
1, ,-39, ,
2, ,-39, ,
2, ,-38, ,
2, ,-38, ,
1, ,-39, ,
2, ,-38, ,
1, ,-38, ,
2, ,-38, ,
2, ,-38, ,
2, ,-38, ,
1, ,-39, ,
3, ,-38, ,
1, ,-39, ,
2, ,-39, ,
2, ,-39, ,
2, ,-38, ,
1, ,-39, ,
3, ,-39, ,
1, ,-39, ,
2, ,-39, ,
2, ,-39, ,
2, ,-38, ,
1, ,-39, ,
2, ,-39, ,
1, ,-39, ,
2, ,-38, ,
2, ,-38, ,
2, ,-38, ,
1, ,-39, ,
2, ,-39, ,
1, ,-38, ,
2, ,-38, ,
2, ,-38, ,
2, ,-38, ,
1, ,-39, ,
2, ,-39, ,
1, ,-39, ,
2, ,-39, ,
2, ,-39, ,
2, ,-38, ,
1, ,-39, ,
2, ,-39, ,
1, ,-38, ,
1, ,-38, ,
2, ,-39, ,
2, ,-38, ,
1, ,-39, ,
2, ,-39, ,
1, ,-38, ,
2, ,-38, ,
2, ,-38, ,
2, ,-38, ,
1, ,-38, ,
2, ,-39, ,
1, ,-39, ,
2, ,-38, ,
2, ,-39, ,
2, ,-38, ,
1, ,-39, ,
2, ,-38, ,
1, ,-39, ,
1, ,-39, ,
2, ,-38, ,
2, ,-38, ,
1, ,-39, ,
2, ,-38, ,
1, ,-39, ,
2, ,-38, ,
2, ,-39, ,
2, ,-38, ,
1, ,-39, ,
2, ,-38, ,
1, ,-39, ,
1, ,-38, ,
2, ,-38, ,
2, ,-38, ,
1, ,-39, ,
2, ,-39, ,
1, ,-39, ,
2, ,-38, ,
2, ,-38, ,
2, ,-39, ,
1, ,-39, ,
3, ,-38, ,
1, ,-38, ,
2, ,-38, ,
2, ,-39, ,
2, ,-38, ,
1, ,-39, ,
2, ,-39, ,
1, ,-39, ,
2, ,-38, ,
2, ,-38, ,
2, ,-38, ,
-1, ,-39, ,
2, ,-39, ,
1, ,-39, ,
1, ,-39, ,
2, ,-38, ,
2, ,-38, ,
1, ,-38, ,
2, ,-39, ,
1, ,-38, ,
1, ,-38, ,
2, ,-38, ,
1, ,-38, ,
1, ,-39, ,
2, ,-38, ,
1, ,-39, ,
1, ,-39, ,
2, ,-39, ,
1, ,-38, ,
-1, ,-39, ,
2, ,-39, ,
1, ,-38, ,
1, ,-38, ,
2, ,-38, ,
2, ,-38, ,
-1, ,-39, ,
2, ,-38, ,
1, ,-38, ,
1, ,-39, ,
1, ,-38, ,
2, ,-25, ,
1, ,-6, ,
2, ,9, ,
1, ,21, ,
1, ,30, ,
2, ,37, ,
2, ,41, ,
1, ,45, ,
2, ,47, ,
1, ,50, ,
1, ,51, ,
2, ,52, ,
1, ,53, ,
1, ,54, ,
2, ,54, ,
1, ,54, ,
1, ,54, ,
2, ,55, ,
1, ,55, ,
1, ,55, ,
2, ,55, ,
1, ,55, ,
1, ,55, ,
2, ,55, ,
1, ,55, ,
1, ,55, ,
2, ,55, ,
1, ,55, ,
1, ,55, ,
2, ,55, ,
1, ,55, ,
1, ,55, ,
2, ,55, ,
1, ,55, ,
1, ,55, ,
2, ,55, ,
1, ,55, ,
1, ,55, ,
2, ,55, ,
1, ,54, ,
1, ,55, ,
2, ,55, ,
1, ,54, ,
1, ,55, ,
2, ,55, ,
1, ,54, ,
1, ,55, ,
2, ,55, ,
1, ,55, ,
1, ,55, ,
2, ,55, ,
1, ,54, ,
1, ,55, ,
2, ,55, ,
1, ,55, ,
1, ,55, ,
2, ,55, ,
1, ,54, ,
1, ,55, ,
2, ,55, ,
1, ,54, ,
1, ,55, ,
2, ,54, ,
1, ,54, ,
1, ,55, ,
2, ,54, ,
1, ,54, ,
1, ,55, ,
2, ,54, ,
1, ,54, ,
1, ,54, ,
2, ,54, ,
1, ,54, ,
1, ,55, ,
2, ,54, ,
1, ,54, ,
1, ,55, ,
1, ,55, ,
1, ,54, ,
1, ,55, ,
2, ,54, ,
1, ,54, ,
1, ,54, ,
2, ,54, ,
1, ,55, ,
1, ,55, ,
2, ,54, ,
1, ,54, ,
1, ,55, ,
2, ,55, ,
1, ,54, ,
-1, ,55, ,
2, ,54, ,
1, ,54, ,
1, ,55, ,
2, ,55, ,
1, ,54, ,
1, ,55, ,
2, ,54, ,
1, ,54, ,
1, ,54, ,
2, ,55, ,
1, ,54, ,
-1, ,55, ,
2, ,54, ,
1, ,55, ,
1, ,55, ,
1, ,55, ,
1, ,54, ,
-1, ,55, ,
2, ,54, ,
1, ,54, ,
1, ,55, ,
2, ,55, ,
1, ,54, ,
-1, ,55, ,
2, ,54, ,
1, ,54, ,
1, ,55, ,
2, ,54, ,
1, ,55, ,
-1, ,55, ,
2, ,54, ,
1, ,54, ,
1, ,55, ,
2, ,55, ,
1, ,54, ,
-1, ,54, ,
2, ,54, ,
1, ,55, ,
-1, ,55, ,
1, ,54, ,
1, ,54, ,
-1, ,55, ,
2, ,54, ,
1, ,54, ,
1, ,55, ,
1, ,54, ,
1, ,55, ,
-1, ,55, ,
2, ,54, ,
1, ,54, ,
1, ,54, ,
1, ,54, ,
1, ,54, ,
-1, ,55, ,
2, ,54, ,
1, ,54, ,
-1, ,55, ,
1, ,55, ,
1, ,54, ,
-1, ,55, ,
2, ,55, ,
1, ,54, ,
1, ,51, ,
1, ,32, ,
1, ,14, ,
-1, ,0, ,
2, ,-11, ,
1, ,-17, ,
1, ,-23, ,
1, ,-27, ,
1, ,-31, ,
-1, ,-33, ,
2, ,-34, ,
1, ,-36, ,
1, ,-37, ,
2, ,-38, ,
1, ,-38, ,
-1, ,-38, ,
2, ,-39, ,
1, ,-39, ,
1, ,-39, ,
1, ,-39, ,
1, ,-39, ,
-1, ,-39, ,
2, ,-39, ,
-1, ,-39, ,
1, ,-39, ,
2, ,-39, ,
1, ,-39, ,
-1, ,-39, ,
2, ,-39, ,
1, ,-39, ,
1, ,-39, ,
1, ,-39, ,
1, ,-39, ,
-1, ,-39, ,
2, ,-39, ,
1, ,-39, ,
1, ,-39, ,
1, ,-39, ,
2, ,-39, ,
-1, ,-39, ,
2, ,-39, ,
1, ,-39, ,
1, ,-39, ,
1, ,-39, ,
1, ,-38, ,
-1, ,-39, ,
2, ,-39, ,
1, ,-39, ,
1, ,-39, ,
1, ,-39, ,
1, ,-39, ,
-1, ,-39, ,
2, ,-39, ,
1, ,-39, ,
1, ,-39, ,
1, ,-39, ,
1, ,-38, ,
-1, ,-39, ,
2, ,-38, ,
1, ,-39, ,
1, ,-39, ,
1, ,-38, ,
1, ,-38, ,
-1, ,-39, ,
2, ,-39, ,
-1, ,-38, ,
1, ,-39, ,
2, ,-39, ,
1, ,-39, ,
-1, ,-39, ,
2, ,-38, ,
1, ,-39, ,
1, ,-39, ,
1, ,-39, ,
1, ,-38, ,
-1, ,-39, ,
2, ,-39, ,
1, ,-39, ,
1, ,-39, ,
1, ,-39, ,
1, ,-38, ,
-1, ,-39, ,
2, ,-39, ,
1, ,-39, ,
1, ,-39, ,
1, ,-38, ,
1, ,-39, ,
-1, ,-39, ,
2, ,-39, ,
-1, ,-39, ,
1, ,-38, ,
1, ,-39, ,
1, ,-39, ,
-1, ,-39, ,
2, ,-39, ,
1, ,-39, ,
1, ,-39, ,
1, ,-38, ,
1, ,-38, ,
-1, ,-39, ,
2, ,-39, ,
-1, ,-38, ,
1, ,-38, ,
1, ,-39, ,
1, ,-39, ,
-1, ,-39, ,
1, ,-39, ,
-1, ,-39, ,
1, ,-39, ,
1, ,-38, ,
1, ,-38, ,
-1, ,-39, ,
2, ,-39, ,
-1, ,-38, ,
1, ,-38, ,
1, ,-38, ,
1, ,-38, ,
-1, ,-39, ,
2, ,-38, ,
1, ,-38, ,
1, ,-39, ,
1, ,-38, ,
1, ,-39, ,
-1, ,-39, ,
2, ,-39, ,
-1, ,-39, ,
1, ,-38, ,
1, ,-39, ,
1, ,-38, ,
-1, ,-39, ,
2, ,-38, ,
-1, ,-38, ,
1, ,-38, ,
1, ,-38, ,
1, ,-38, ,
-1, ,-39, ,
2, ,-39, ,
1, ,-38, ,
1, ,-38, ,
1, ,-38, ,
1, ,-38, ,
-1, ,-39, ,
1, ,-38, ,
-1, ,-38, ,
1, ,-39, ,
1, ,-39, ,
1, ,-38, ,
-1, ,-38, ,
2, ,-38, ,
-1, ,-38, ,
1, ,-38, ,
1, ,-38, ,
1, ,-39, ,
-1, ,-39, ,
2, ,-39, ,
-1, ,-38, ,
1, ,-38, ,
1, ,-38, ,
1, ,-38, ,
-1, ,-39, ,
2, ,-39, ,
-1, ,-39, ,
-1, ,-39, ,
1, ,-39, ,
2, ,-38, ,
-1, ,-39, ,
2, ,-38, ,
1, ,-38, ,
1, ,-39, ,
1, ,-38, ,
1, ,-38, ,
-1, ,-38, ,
2, ,-38, ,
-1, ,-39, ,
1, ,-38, ,
1, ,-38, ,
1, ,-38, ,
-1, ,-39, ,
2, ,-38, ,
-1, ,-38, ,
1, ,-39, ,
1, ,-38, ,
1, ,-38, ,
-1, ,-38, ,
2, ,-39, ,
-1, ,-39, ,
1, ,-39, ,
1, ,-38, ,
1, ,-38, ,
-1, ,-39, ,
2, ,-38, ,
-1, ,-38, ,
1, ,-39, ,
1, ,-38, ,
1, ,-38, ,
-1, ,-39, ,
2, ,-38, ,
-1, ,-39, ,
-1, ,-38, ,
1, ,-38, ,
1, ,-38, ,
-1, ,-39, ,
2, ,-38, ,
1, ,-38, ,
1, ,-39, ,
1, ,-38, ,
1, ,-38, ,
-1, ,-39, ,
1, ,-39, ,
-1, ,-38, ,
1, ,-38, ,
1, ,-38, ,
1, ,-38, ,
-1, ,-39, ,
2, ,-38, ,
-1, ,-38, ,
1, ,-38, ,
1, ,-38, ,
1, ,-38, ,
-1, ,-39, ,
2, ,-38, ,
-1, ,-38, ,
-1, ,-38, ,
1, ,-38, ,
1, ,-38, ,
-1, ,-39, ,
2, ,-38, ,
-1, ,-38, ,
-1, ,-38, ,
1, ,-38, ,
1, ,-38, ,
-1, ,-39, ,
2, ,-38, ,
-1, ,-38, ,
1, ,-38, ,
1, ,-39, ,
1, ,-38, ,
-1, ,-39, ,
2, ,-38, ,
1, ,-38, ,
1, ,-39, ,
1, ,-38, ,
1, ,-38, ,
-1, ,-39, ,
1, ,-39, ,
-1, ,-38, ,
1, ,-38, ,
1, ,-38, ,
1, ,-38, ,
-1, ,-39, ,
2, ,-38, ,
-1, ,-38, ,
1, ,-39, ,
1, ,-38, ,
1, ,-38, ,
-1, ,-39, ,
2, ,-39, ,
-1, ,-38, ,
-1, ,-38, ,
1, ,-39, ,
1, ,-38, ,
-1, ,-39, ,
1, ,-38, ,
-1, ,-38, ,
1, ,-39, ,
1, ,-38, ,
1, ,-38, ,
-1, ,-39, ,
2, ,-39, ,
-1, ,-38, ,
1, ,-38, ,
1, ,-38, ,
1, ,-38, ,
-1, ,-39, ,
2, ,-38, ,
-1, ,-38, ,
-1, ,-39, ,
1, ,-38, ,
1, ,-38, ,
-1, ,-38, ,
1, ,-39, ,
-1, ,-39, ,
-1, ,-38, ,
1, ,-39, ,
1, ,-38, ,
-1, ,-39, ,
2, ,-38, ,
-1, ,-38, ,
1, ,-38, ,
1, ,-38, ,
1, ,-38, ,
-1, ,-38, ,
2, ,-38, ,
-1, ,-38, ,
-1, ,-38, ,
1, ,-39, ,
1, ,-38, ,
-1, ,-39, ,
1, ,-38, ,
1, ,-38, ,
1, ,-39, ,
1, ,-38, ,
1, ,-38, ,
-1, ,-39, ,
2, ,-39, ,
-1, ,-38, ,
1, ,-39, ,
1, ,-39, ,
1, ,-38, ,
-1, ,-39, ,
2, ,-38, ,
-1, ,-38, ,
-1, ,-39, ,
1, ,-38, ,
1, ,-38, ,
-1, ,-39, ,
2, ,-38, ,
-1, ,-39, ,
1, ,-39, ,
1, ,-38, ,
1, ,-38, ,
-1, ,-39, ,
2, ,-38, ,
-1, ,-38, ,
1, ,-39, ,
1, ,-38, ,
1, ,-39, ,
-1, ,-38, ,
2, ,-39, ,
-1, ,-38, ,
-1, ,-39, ,
2, ,-38, ,
1, ,-38, ,
-1, ,-39, ,
1, ,-38, ,
-1, ,-38, ,
1, ,-38, ,
1, ,-38, ,
1, ,-38, ,
-1, ,-39, ,
2, ,-38, ,
-1, ,-38, ,
-1, ,-38, ,
1, ,-38, ,
1, ,-38, ,
-1, ,-39, ,
2, ,-38, ,
-1, ,-38, ,
-1, ,-39, ,
1, ,-38, ,
1, ,-38, ,
-1, ,-39, ,
1, ,-39, ,
-1, ,-39, ,
-1, ,-38, ,
1, ,-39, ,
1, ,-38, ,
-1, ,-39, ,
2, ,-38, ,
-1, ,-39, ,
1, ,-39, ,
1, ,-38, ,
1, ,-38, ,
-1, ,-38, ,
2, ,-39, ,
-1, ,-39, ,
1, ,-38, ,
1, ,-38, ,
1, ,-38, ,
-1, ,-39, ,
2, ,-38, ,
-1, ,-38, ,
-1, ,-39, ,
1, ,-38, ,
1, ,-38, ,
-1, ,-39, ,
1, ,-39, ,
-1, ,-39, ,
1, ,-38, ,
1, ,-39, ,
1, ,-38, ,
-1, ,-39, ,
1, ,-38, ,
-1, ,-38, ,
-1, ,-39, ,
1, ,-38, ,
1, ,-38, ,
-1, ,-39, ,
2, ,-38, ,
-1, ,-38, ,
-1, ,-38, ,
1, ,-38, ,
1, ,-38, ,
-1, ,-39, ,
1, ,-38, ,
-1, ,-38, ,
1, ,-39, ,
1, ,-38, ,
1, ,-38, ,
-1, ,-39, ,
1, ,-39, ,
-1, ,-38, ,
-1, ,-39, ,
1, ,-39, ,
1, ,-38, ,
-1, ,-39, ,
1, ,-38, ,
-1, ,-38, ,
1, ,-39, ,
1, ,-38, ,
1, ,-39, ,
-1, ,-39, ,
2, ,-39, ,
-1, ,-38, ,
-1, ,-38, ,
1, ,-39, ,
1, ,-38, ,
-1, ,-39, ,
1, ,-39, ,
-1, ,-38, ,
1, ,-39, ,
1, ,-38, ,
1, ,-38, ,
-1, ,-38, ,
1, ,-38, ,
-1, ,-39, ,
-1, ,-38, ,
1, ,-39, ,
1, ,-38, ,
-1, ,-39, ,
2, ,-38, ,
-1, ,-38, ,
-1, ,-39, ,
1, ,-38, ,
1, ,-38, ,
-1, ,-39, ,
1, ,-39, ,
-1, ,-38, ,
1, ,-38, ,
1, ,-39, ,
1, ,-38, ,
-1, ,-38, ,
1, ,-38, ,
-1, ,-38, ,
-1, ,-39, ,
1, ,-38, ,
1, ,-38, ,
-1, ,-39, ,
2, ,-39, ,
-1, ,-38, ,
-1, ,-39, ,
1, ,-39, ,
2, ,-38, ,
-1, ,-39, ,
1, ,-38, ,
