src/varyamp_1560/temp0003111.CSV

Format,1.0B,
Memory Length,10000,Memory Length,10000,
IntpDistance,0,IntpDistance,0,
Trigger Address,4999,Trigger Address,4999,
Trigger Level,1.040E+00,Trigger Level,1.040E+00,
Source,CH1,Source,CH2,
Vertical Units,V,Vertical Units,V,
Vertical Units Div,0,Vertical Units Div,0,
Vertical Units Extend Div,16,Vertical Units Extend Div,16,
Label,,Label,,
Probe Type,0,Probe Type,0,
Probe Ratio,1.000e+01,Probe Ratio,1.000e+00,
Vertical Scale,5.000e-01,Vertical Scale,1.000e+00,
Vertical Position,-1.820e+00,Vertical Position,0.000e+00,
Horizontal Units,S,Horizontal Units,S,
Horizontal Scale,2.000E-05,Horizontal Scale,2.000E-05,
Horizontal Position,0.000E+00,Horizontal Position,0.000E+00,
Horizontal Mode,Main,Horizontal Mode,Main,
SincET Mode,Real Time,SincET Mode,Real Time,
Sampling Period,2.000e-08,Sampling Period,2.000e-08,
Horizontal Old Scale,2.000E-05,Horizontal Old Scale,2.000E-05,
Horizontal Old Position,0.000E+00,Horizontal Old Position,0.000E+00,
Firmware,V1.23,Firmware,V1.23,
Mode,Fast,Mode,Fast,
Waveform Data,,Waveform Data,,
-1, ,-46, ,
-1, ,-46, ,
1, ,-46, ,
1, ,-46, ,
-1, ,-45, ,
2, ,-45, ,
1, ,-46, ,
-1, ,-46, ,
1, ,-46, ,
1, ,-46, ,
-1, ,-45, ,
1, ,-46, ,
-1, ,-46, ,
-1, ,-46, ,
1, ,-46, ,
1, ,-46, ,
-1, ,-46, ,
2, ,-45, ,
-1, ,-46, ,
-1, ,-46, ,
1, ,-46, ,
1, ,-46, ,
-1, ,-46, ,
2, ,-45, ,
-1, ,-46, ,
-1, ,-46, ,
1, ,-46, ,
1, ,-46, ,
-1, ,-45, ,
2, ,-45, ,
1, ,-46, ,
-1, ,-46, ,
1, ,-45, ,
1, ,-45, ,
-1, ,-46, ,
2, ,-46, ,
-1, ,-46, ,
-1, ,-46, ,
1, ,-46, ,
1, ,-46, ,
-1, ,-46, ,
2, ,-46, ,
-1, ,-46, ,
-1, ,-46, ,
1, ,-46, ,
1, ,-46, ,
-1, ,-46, ,
1, ,-45, ,
-1, ,-46, ,
-1, ,-46, ,
1, ,-46, ,
1, ,-46, ,
-1, ,-46, ,
2, ,-45, ,
-1, ,-46, ,
-1, ,-46, ,
1, ,-46, ,
1, ,-45, ,
-1, ,-45, ,
1, ,-45, ,
-1, ,-46, ,
-1, ,-46, ,
1, ,-46, ,
1, ,-46, ,
-1, ,-45, ,
2, ,-45, ,
-1, ,-46, ,
-1, ,-46, ,
1, ,-46, ,
1, ,-46, ,
-1, ,-46, ,
2, ,-46, ,
-1, ,-46, ,
-1, ,-46, ,
1, ,-46, ,
1, ,-46, ,
-2, ,-45, ,
1, ,-45, ,
-1, ,-46, ,
-1, ,-46, ,
1, ,-46, ,
1, ,-46, ,
-1, ,-46, ,
2, ,-46, ,
-1, ,-46, ,
-1, ,-46, ,
1, ,-45, ,
1, ,-46, ,
-2, ,-46, ,
1, ,-46, ,
-1, ,-46, ,
-1, ,-46, ,
1, ,-45, ,
1, ,-45, ,
-1, ,-45, ,
2, ,-45, ,
-1, ,-46, ,
-1, ,-46, ,
1, ,-45, ,
1, ,-46, ,
-1, ,-45, ,
1, ,-46, ,
-1, ,-46, ,
-1, ,-46, ,
1, ,-46, ,
1, ,-46, ,
-1, ,-45, ,
1, ,-45, ,
-1, ,-46, ,
-1, ,-45, ,
1, ,-45, ,
1, ,-46, ,
-1, ,-45, ,
2, ,-46, ,
-1, ,-46, ,
-1, ,-46, ,
1, ,-45, ,
1, ,-45, ,
-1, ,-45, ,
2, ,-45, ,
-1, ,-46, ,
-1, ,-46, ,
1, ,-46, ,
1, ,-46, ,
-1, ,-45, ,
1, ,-46, ,
-1, ,-46, ,
-1, ,-46, ,
1, ,-46, ,
1, ,-46, ,
-1, ,-45, ,
1, ,-46, ,
-1, ,-46, ,
-1, ,-46, ,
1, ,-46, ,
1, ,-46, ,
-1, ,-46, ,
2, ,-45, ,
-1, ,-46, ,
-1, ,-46, ,
1, ,-46, ,
1, ,-46, ,
-1, ,-46, ,
2, ,-46, ,
-1, ,-46, ,
-1, ,-46, ,
1, ,-46, ,
1, ,-46, ,
-1, ,-46, ,
1, ,-45, ,
-1, ,-46, ,
-1, ,-46, ,
1, ,-46, ,
1, ,-45, ,
-1, ,-45, ,
1, ,-46, ,
-1, ,-46, ,
-1, ,-45, ,
1, ,-46, ,
1, ,-46, ,
-1, ,-46, ,
1, ,-46, ,
-1, ,-46, ,
-1, ,-46, ,
1, ,-45, ,
1, ,-45, ,
-1, ,-45, ,
1, ,-45, ,
-1, ,-46, ,
-1, ,-46, ,
1, ,-46, ,
1, ,-46, ,
-1, ,-46, ,
2, ,-46, ,
-1, ,-46, ,
-1, ,-46, ,
1, ,-45, ,
1, ,-46, ,
-1, ,-46, ,
1, ,-46, ,
-1, ,-46, ,
-1, ,-45, ,
1, ,-45, ,
1, ,-46, ,
-1, ,-46, ,
1, ,-46, ,
-1, ,-46, ,
-1, ,-46, ,
1, ,-46, ,
1, ,-45, ,
-1, ,-45, ,
1, ,-46, ,
-1, ,-46, ,
-1, ,-46, ,
1, ,-45, ,
1, ,-46, ,
-1, ,-45, ,
1, ,-46, ,
-1, ,-46, ,
-1, ,-45, ,
1, ,-46, ,
1, ,-46, ,
-1, ,-46, ,
1, ,-46, ,
-1, ,-46, ,
-1, ,-45, ,
1, ,-46, ,
1, ,-46, ,
-1, ,-46, ,
2, ,-46, ,
-1, ,-46, ,
-1, ,-46, ,
1, ,-45, ,
1, ,-46, ,
-1, ,-46, ,
1, ,-45, ,
-1, ,-46, ,
-1, ,-46, ,
1, ,-46, ,
1, ,-46, ,
-1, ,-46, ,
2, ,-46, ,
-1, ,-46, ,
-1, ,-46, ,
1, ,-45, ,
1, ,-46, ,
-1, ,-46, ,
1, ,-46, ,
-1, ,-46, ,
-1, ,-46, ,
1, ,-46, ,
1, ,-46, ,
-1, ,-46, ,
1, ,-46, ,
-1, ,-46, ,
-1, ,-46, ,
1, ,-46, ,
1, ,-45, ,
-1, ,-46, ,
1, ,-45, ,
-1, ,-46, ,
-1, ,-46, ,
1, ,-46, ,
1, ,-46, ,
-1, ,-45, ,
2, ,-46, ,
1, ,-46, ,
-1, ,-46, ,
1, ,-46, ,
1, ,-46, ,
-1, ,-46, ,
1, ,-46, ,
-1, ,-46, ,
-1, ,-46, ,
1, ,-46, ,
1, ,-46, ,
-1, ,-45, ,
2, ,-45, ,
1, ,-46, ,
-1, ,-46, ,
1, ,-46, ,
1, ,-46, ,
-1, ,-46, ,
2, ,-46, ,
-1, ,-46, ,
-1, ,-46, ,
1, ,-46, ,
1, ,-46, ,
-1, ,-46, ,
2, ,-46, ,
-1, ,-46, ,
-1, ,-46, ,
1, ,-46, ,
1, ,-46, ,
-1, ,-46, ,
1, ,-46, ,
-1, ,-46, ,
-1, ,-45, ,
1, ,-45, ,
1, ,-46, ,
-1, ,-46, ,
1, ,-46, ,
-1, ,-46, ,
-1, ,-46, ,
1, ,-46, ,
1, ,-46, ,
-1, ,-46, ,
1, ,-46, ,
-1, ,-46, ,
-1, ,-45, ,
1, ,-46, ,
1, ,-46, ,
-1, ,-46, ,
2, ,-46, ,
1, ,-46, ,
-1, ,-46, ,
1, ,-46, ,
1, ,-46, ,
-1, ,-46, ,
1, ,-46, ,
-1, ,-46, ,
-1, ,-46, ,
1, ,-46, ,
1, ,-46, ,
-2, ,-46, ,
2, ,-46, ,
1, ,-43, ,
-1, ,-25, ,
1, ,-7, ,
1, ,7, ,
-1, ,17, ,
2, ,25, ,
-1, ,31, ,
-1, ,35, ,
2, ,38, ,
1, ,41, ,
-1, ,43, ,
2, ,44, ,
-1, ,45, ,
-1, ,45, ,
1, ,46, ,
-1, ,46, ,
-1, ,47, ,
1, ,46, ,
-1, ,47, ,
-1, ,47, ,
1, ,47, ,
1, ,47, ,
-1, ,47, ,
2, ,47, ,
1, ,47, ,
-1, ,46, ,
1, ,47, ,
-1, ,47, ,
-1, ,47, ,
1, ,47, ,
-1, ,47, ,
-1, ,47, ,
1, ,47, ,
1, ,47, ,
-1, ,47, ,
1, ,46, ,
-1, ,47, ,
-1, ,46, ,
1, ,46, ,
-1, ,46, ,
-1, ,47, ,
1, ,47, ,
-1, ,47, ,
-1, ,46, ,
2, ,46, ,
1, ,47, ,
-1, ,47, ,
1, ,47, ,
-1, ,46, ,
-1, ,47, ,
1, ,46, ,
1, ,47, ,
-1, ,47, ,
2, ,46, ,
-1, ,47, ,
-1, ,46, ,
1, ,46, ,
1, ,46, ,
-2, ,46, ,
2, ,46, ,
-1, ,47, ,
-1, ,46, ,
1, ,46, ,
1, ,47, ,
-1, ,47, ,
1, ,46, ,
-1, ,46, ,
-1, ,46, ,
1, ,46, ,
1, ,46, ,
-2, ,46, ,
2, ,46, ,
-1, ,47, ,
-1, ,46, ,
1, ,46, ,
1, ,47, ,
-1, ,47, ,
1, ,46, ,
-1, ,46, ,
-1, ,46, ,
1, ,46, ,
-1, ,46, ,
-2, ,46, ,
2, ,46, ,
-1, ,47, ,
-1, ,46, ,
1, ,46, ,
1, ,47, ,
-1, ,46, ,
1, ,46, ,
-1, ,46, ,
-1, ,46, ,
2, ,46, ,
1, ,46, ,
-1, ,46, ,
2, ,46, ,
1, ,46, ,
-1, ,46, ,
1, ,46, ,
1, ,46, ,
-1, ,47, ,
1, ,46, ,
-1, ,47, ,
-1, ,47, ,
1, ,46, ,
1, ,46, ,
-1, ,46, ,
2, ,46, ,
-1, ,46, ,
-1, ,46, ,
1, ,46, ,
1, ,46, ,
-1, ,46, ,
1, ,46, ,
-1, ,46, ,
-1, ,46, ,
2, ,46, ,
1, ,46, ,
-1, ,46, ,
1, ,46, ,
-1, ,47, ,
-1, ,46, ,
1, ,46, ,
1, ,47, ,
-1, ,47, ,
2, ,46, ,
-1, ,46, ,
-1, ,46, ,
1, ,46, ,
1, ,46, ,
-1, ,46, ,
2, ,46, ,
-1, ,47, ,
-1, ,46, ,
2, ,46, ,
1, ,46, ,
-1, ,46, ,
1, ,46, ,
-1, ,46, ,
-1, ,46, ,
1, ,46, ,
1, ,46, ,
-1, ,46, ,
2, ,46, ,
-1, ,46, ,
-1, ,46, ,
1, ,46, ,
-1, ,47, ,
-1, ,46, ,
1, ,46, ,
-1, ,46, ,
-1, ,46, ,
1, ,46, ,
1, ,46, ,
-1, ,46, ,
1, ,35, ,
-1, ,15, ,
-2, ,-1, ,
1, ,-13, ,
1, ,-21, ,
-2, ,-28, ,
1, ,-33, ,
-1, ,-37, ,
-1, ,-39, ,
1, ,-41, ,
1, ,-43, ,
-2, ,-44, ,
2, ,-44, ,
1, ,-45, ,
-1, ,-45, ,
1, ,-46, ,
1, ,-46, ,
-1, ,-46, ,
2, ,-46, ,
-1, ,-47, ,
-1, ,-46, ,
1, ,-46, ,
1, ,-47, ,
-1, ,-46, ,
2, ,-46, ,
-1, ,-47, ,
-1, ,-46, ,
1, ,-46, ,
1, ,-46, ,
-1, ,-46, ,
1, ,-46, ,
-1, ,-46, ,
-1, ,-46, ,
1, ,-46, ,
1, ,-46, ,
-1, ,-46, ,
2, ,-46, ,
-1, ,-46, ,
-1, ,-46, ,
1, ,-46, ,
1, ,-46, ,
-1, ,-46, ,
1, ,-46, ,
-1, ,-46, ,
-1, ,-46, ,
1, ,-46, ,
1, ,-46, ,
-1, ,-46, ,
2, ,-46, ,
-1, ,-46, ,
-1, ,-46, ,
1, ,-46, ,
1, ,-46, ,
-1, ,-46, ,
1, ,-46, ,
-1, ,-46, ,
-1, ,-46, ,
1, ,-46, ,
1, ,-46, ,
-1, ,-46, ,
2, ,-46, ,
-1, ,-46, ,
-1, ,-46, ,
1, ,-46, ,
1, ,-46, ,
-1, ,-46, ,
1, ,-46, ,
-1, ,-46, ,
-1, ,-46, ,
1, ,-46, ,
1, ,-46, ,
-2, ,-46, ,
2, ,-46, ,
-1, ,-46, ,
-1, ,-46, ,
1, ,-46, ,
1, ,-46, ,
-1, ,-46, ,
2, ,-46, ,
-1, ,-46, ,
-1, ,-46, ,
1, ,-46, ,
1, ,-46, ,
-1, ,-46, ,
2, ,-46, ,
-1, ,-46, ,
-1, ,-46, ,
1, ,-46, ,
1, ,-46, ,
-1, ,-46, ,
1, ,-46, ,
-1, ,-46, ,
-1, ,-46, ,
1, ,-46, ,
1, ,-46, ,
-2, ,-46, ,
2, ,-46, ,
-1, ,-46, ,
-1, ,-46, ,
1, ,-45, ,
1, ,-46, ,
-1, ,-46, ,
1, ,-46, ,
-1, ,-46, ,
-1, ,-45, ,
1, ,-46, ,
1, ,-46, ,
-1, ,-46, ,
2, ,-45, ,
-1, ,-46, ,
-1, ,-46, ,
1, ,-45, ,
1, ,-46, ,
-1, ,-46, ,
1, ,-46, ,
-1, ,-46, ,
-1, ,-45, ,
1, ,-46, ,
1, ,-46, ,
-2, ,-46, ,
2, ,-46, ,
-1, ,-46, ,
-1, ,-45, ,
1, ,-46, ,
1, ,-46, ,
-1, ,-46, ,
2, ,-46, ,
-1, ,-46, ,
-1, ,-45, ,
1, ,-46, ,
1, ,-46, ,
-1, ,-46, ,
2, ,-46, ,
-1, ,-46, ,
-1, ,-46, ,
1, ,-46, ,
1, ,-46, ,
-1, ,-46, ,
1, ,-46, ,
-2, ,-46, ,
-2, ,-45, ,
1, ,-46, ,
1, ,-46, ,
-1, ,-46, ,
2, ,-45, ,
-1, ,-46, ,
-1, ,-46, ,
1, ,-46, ,
1, ,-46, ,
-1, ,-46, ,
1, ,-46, ,
-1, ,-46, ,
-1, ,-45, ,
1, ,-45, ,
1, ,-46, ,
-2, ,-46, ,
2, ,-46, ,
-1, ,-46, ,
-1, ,-46, ,
1, ,-46, ,
1, ,-46, ,
-1, ,-46, ,
1, ,-46, ,
-1, ,-46, ,
-1, ,-45, ,
1, ,-45, ,
1, ,-46, ,
-1, ,-46, ,
2, ,-45, ,
-1, ,-46, ,
-1, ,-46, ,
1, ,-45, ,
1, ,-46, ,
-1, ,-46, ,
1, ,-46, ,
-1, ,-46, ,
-1, ,-45, ,
1, ,-46, ,
1, ,-46, ,
-1, ,-46, ,
2, ,-46, ,
-1, ,-46, ,
-1, ,-46, ,
1, ,-45, ,
1, ,-46, ,
-1, ,-46, ,
1, ,-46, ,
-1, ,-46, ,
-1, ,-46, ,
1, ,-45, ,
1, ,-46, ,
-1, ,-46, ,
2, ,-46, ,
-1, ,-46, ,
-1, ,-46, ,
1, ,-45, ,
1, ,-46, ,
-1, ,-46, ,
1, ,-46, ,
-1, ,-46, ,
-1, ,-45, ,
1, ,-45, ,
1, ,-46, ,
-1, ,-46, ,
2, ,-46, ,
1, ,-46, ,
-1, ,-46, ,
1, ,-45, ,
1, ,-46, ,
-1, ,-46, ,
1, ,-46, ,
-1, ,-46, ,
-1, ,-46, ,
1, ,-46, ,
1, ,-46, ,
-1, ,-46, ,
2, ,-46, ,
-1, ,-46, ,
-1, ,-46, ,
1, ,-46, ,
1, ,-46, ,
-1, ,-46, ,
1, ,-46, ,
-1, ,-46, ,
-1, ,-46, ,
1, ,-45, ,
1, ,-46, ,
-2, ,-46, ,
2, ,-45, ,
-1, ,-46, ,
-1, ,-46, ,
1, ,-46, ,
1, ,-46, ,
-1, ,-46, ,
2, ,-46, ,
-1, ,-46, ,
-1, ,-46, ,
1, ,-46, ,
1, ,-46, ,
-1, ,-46, ,
2, ,-46, ,
-1, ,-46, ,
-1, ,-46, ,
1, ,-46, ,
1, ,-46, ,
-1, ,-46, ,
1, ,-46, ,
-1, ,-46, ,
-1, ,-46, ,
1, ,-45, ,
1, ,-46, ,
-1, ,-46, ,
2, ,-45, ,
-1, ,-45, ,
-1, ,-46, ,
1, ,-46, ,
1, ,-45, ,
-1, ,-46, ,
1, ,-46, ,
-1, ,-46, ,
-1, ,-46, ,
1, ,-45, ,
1, ,-46, ,
-1, ,-45, ,
2, ,-45, ,
-1, ,-46, ,
-1, ,-46, ,
1, ,-45, ,
1, ,-46, ,
-1, ,-46, ,
1, ,-46, ,
-1, ,-46, ,
-1, ,-46, ,
1, ,-45, ,
1, ,-46, ,
-2, ,-46, ,
1, ,-46, ,
-1, ,-46, ,
-1, ,-46, ,
1, ,-46, ,
1, ,-46, ,
-1, ,-46, ,
2, ,-46, ,
-1, ,-46, ,
-1, ,-45, ,
1, ,-45, ,
1, ,-46, ,
-2, ,-45, ,
1, ,-45, ,
-1, ,-46, ,
-1, ,-46, ,
1, ,-45, ,
-1, ,-46, ,
-1, ,-46, ,
1, ,-46, ,
-1, ,-46, ,
-1, ,-45, ,
1, ,-45, ,
1, ,-46, ,
-2, ,-46, ,
1, ,-46, ,
-1, ,-46, ,
-1, ,-46, ,
1, ,-46, ,
1, ,-46, ,
-1, ,-46, ,
1, ,-46, ,
-1, ,-46, ,
-1, ,-46, ,
1, ,-45, ,
1, ,-46, ,
-2, ,-46, ,
2, ,-46, ,
-1, ,-46, ,
-1, ,-46, ,
1, ,-45, ,
1, ,-46, ,
-1, ,-46, ,
1, ,-46, ,
-1, ,-46, ,
-1, ,-45, ,
1, ,-45, ,
1, ,-46, ,
-2, ,-46, ,
2, ,-46, ,
-1, ,-46, ,
-1, ,-46, ,
1, ,-46, ,
1, ,-46, ,
-1, ,-46, ,
2, ,-46, ,
-1, ,-46, ,
-1, ,-46, ,
1, ,-46, ,
1, ,-46, ,
-1, ,-46, ,
2, ,-46, ,
-1, ,-46, ,
-1, ,-46, ,
1, ,-46, ,
1, ,-46, ,
-1, ,-46, ,
1, ,-46, ,
-1, ,-46, ,
-1, ,-45, ,
1, ,-45, ,
1, ,-46, ,
-1, ,-46, ,
2, ,-46, ,
-1, ,-46, ,
-1, ,-46, ,
1, ,-45, ,
1, ,-46, ,
-1, ,-46, ,
1, ,-46, ,
-1, ,-46, ,
-1, ,-45, ,
1, ,-46, ,
1, ,-46, ,
-1, ,-46, ,
2, ,-46, ,
-1, ,-46, ,
-1, ,-46, ,
1, ,-45, ,
1, ,-46, ,
-1, ,-46, ,
1, ,-46, ,
-1, ,-46, ,
-1, ,-46, ,
1, ,-45, ,
1, ,-46, ,
-1, ,-46, ,
2, ,-45, ,
-1, ,-46, ,
-1, ,-46, ,
1, ,-46, ,
1, ,-46, ,
-1, ,-46, ,
1, ,-46, ,
-1, ,-46, ,
-1, ,-46, ,
1, ,-46, ,
1, ,-46, ,
-1, ,-46, ,
2, ,-46, ,
-1, ,-46, ,
-1, ,-46, ,
1, ,-46, ,
1, ,-46, ,
-1, ,-46, ,
1, ,-46, ,
-1, ,-46, ,
-1, ,-46, ,
1, ,-46, ,
1, ,-46, ,
-2, ,-46, ,
2, ,-46, ,
-1, ,-46, ,
-1, ,-46, ,
1, ,-46, ,
1, ,-46, ,
-1, ,-46, ,
1, ,-46, ,
-1, ,-46, ,
-1, ,-46, ,
1, ,-46, ,
1, ,-46, ,
-1, ,-46, ,
2, ,-46, ,
-1, ,-46, ,
-1, ,-46, ,
1, ,-46, ,
1, ,-46, ,
-2, ,-46, ,
1, ,-46, ,
-1, ,-46, ,
-1, ,-45, ,
1, ,-45, ,
1, ,-46, ,
-2, ,-45, ,
2, ,-46, ,
-1, ,-46, ,
-1, ,-46, ,
1, ,-46, ,
1, ,-45, ,
-2, ,-46, ,
2, ,-46, ,
-1, ,-46, ,
-1, ,-46, ,
1, ,-45, ,
1, ,-46, ,
-2, ,-46, ,
1, ,-46, ,
-1, ,-46, ,
-1, ,-46, ,
1, ,-46, ,
1, ,-46, ,
-2, ,-46, ,
1, ,-46, ,
-1, ,-46, ,
-1, ,-45, ,
1, ,-45, ,
1, ,-46, ,
-2, ,-46, ,
2, ,-45, ,
-1, ,-46, ,
-1, ,-46, ,
1, ,-46, ,
1, ,-46, ,
-1, ,-46, ,
1, ,-46, ,
-1, ,-46, ,
-2, ,-45, ,
1, ,-45, ,
1, ,-46, ,
-2, ,-46, ,
1, ,-46, ,
-1, ,-46, ,
-1, ,-46, ,
1, ,-46, ,
1, ,-46, ,
-1, ,-46, ,
1, ,-46, ,
-1, ,-46, ,
-1, ,-45, ,
1, ,-45, ,
1, ,-46, ,
-1, ,-46, ,
2, ,-45, ,
-1, ,-46, ,
-1, ,-46, ,
1, ,-45, ,
1, ,-45, ,
-1, ,-46, ,
1, ,-46, ,
-1, ,-46, ,
-1, ,-45, ,
1, ,-46, ,
1, ,-46, ,
-1, ,-46, ,
2, ,-46, ,
-1, ,-46, ,
-1, ,-46, ,
1, ,-45, ,
1, ,-46, ,
-1, ,-46, ,
1, ,-46, ,
-1, ,-46, ,
-1, ,-45, ,
1, ,-45, ,
1, ,-46, ,
-1, ,-46, ,
2, ,-46, ,
-1, ,-46, ,
-1, ,-46, ,
1, ,-46, ,
1, ,-46, ,
-1, ,-46, ,
1, ,-46, ,
-1, ,-46, ,
-1, ,-46, ,
1, ,-45, ,
1, ,-46, ,
-2, ,-46, ,
2, ,-46, ,
1, ,-46, ,
-1, ,-46, ,
1, ,-46, ,
1, ,-46, ,
-1, ,-46, ,
2, ,-46, ,
-1, ,-46, ,
-1, ,-45, ,
1, ,-45, ,
1, ,-46, ,
-1, ,-46, ,
2, ,-46, ,
-1, ,-46, ,
-1, ,-46, ,
1, ,-46, ,
1, ,-46, ,
-1, ,-46, ,
1, ,-46, ,
-1, ,-46, ,
-1, ,-46, ,
1, ,-45, ,
1, ,-46, ,
-1, ,-46, ,
2, ,-46, ,
-1, ,-46, ,
-1, ,-46, ,
1, ,-46, ,
1, ,-46, ,
-1, ,-46, ,
1, ,-46, ,
-1, ,-46, ,
-1, ,-45, ,
1, ,-46, ,
1, ,-46, ,
-1, ,-46, ,
2, ,-46, ,
-1, ,-46, ,
-1, ,-46, ,
1, ,-46, ,
-1, ,-46, ,
-1, ,-46, ,
1, ,-46, ,
-1, ,-46, ,
-1, ,-46, ,
1, ,-46, ,
1, ,-46, ,
-2, ,-46, ,
2, ,-46, ,
-1, ,-46, ,
-1, ,-46, ,
1, ,-46, ,
-1, ,-46, ,
-1, ,-46, ,
1, ,-46, ,
-1, ,-46, ,
-1, ,-46, ,
1, ,-45, ,
1, ,-46, ,
-2, ,-46, ,
2, ,-46, ,
-1, ,-46, ,
-1, ,-46, ,
1, ,-46, ,
1, ,-46, ,
-1, ,-46, ,
1, ,-46, ,
-1, ,-46, ,
-1, ,-45, ,
1, ,-45, ,
1, ,-46, ,
-1, ,-46, ,
2, ,-46, ,
-1, ,-46, ,
-1, ,-46, ,
1, ,-46, ,
1, ,-46, ,
-1, ,-46, ,
1, ,-46, ,
-1, ,-46, ,
-1, ,-45, ,
1, ,-46, ,
1, ,-46, ,
-2, ,-46, ,
2, ,-46, ,
-1, ,-46, ,
-1, ,-46, ,
1, ,-46, ,
1, ,-46, ,
-1, ,-46, ,
2, ,-46, ,
-1, ,-46, ,
-1, ,-45, ,
1, ,-45, ,
1, ,-46, ,
-2, ,-46, ,
1, ,-45, ,
-1, ,-46, ,
-1, ,-46, ,
1, ,-46, ,
1, ,-46, ,
-1, ,-46, ,
1, ,-46, ,
1, ,-46, ,
-1, ,-46, ,
1, ,-45, ,
1, ,-46, ,
-1, ,-46, ,
2, ,-46, ,
-1, ,-46, ,
-1, ,-46, ,
1, ,-45, ,
1, ,-46, ,
-1, ,-46, ,
1, ,-46, ,
-1, ,-46, ,
-1, ,-46, ,
1, ,-46, ,
1, ,-46, ,
-2, ,-46, ,
2, ,-46, ,
-1, ,-46, ,
-1, ,-45, ,
1, ,-31, ,
1, ,-12, ,
-1, ,4, ,
2, ,15, ,
-1, ,23, ,
-1, ,30, ,
1, ,34, ,
1, ,37, ,
-1, ,40, ,
2, ,42, ,
-1, ,44, ,
-1, ,44, ,
1, ,45, ,
1, ,45, ,
-1, ,46, ,
2, ,46, ,
-1, ,47, ,
-1, ,47, ,
1, ,47, ,
1, ,47, ,
-1, ,47, ,
1, ,47, ,
-1, ,47, ,
-1, ,47, ,
1, ,47, ,
1, ,47, ,
-1, ,47, ,
1, ,47, ,
-1, ,47, ,
-1, ,46, ,
1, ,47, ,
1, ,47, ,
-1, ,47, ,
2, ,47, ,
-1, ,47, ,
-1, ,46, ,
1, ,47, ,
1, ,47, ,
-1, ,47, ,
1, ,47, ,
-1, ,47, ,
-1, ,46, ,
1, ,47, ,
1, ,47, ,
-1, ,46, ,
2, ,47, ,
-1, ,47, ,
-1, ,46, ,
1, ,46, ,
-1, ,47, ,
-1, ,46, ,
1, ,46, ,
-1, ,46, ,
-1, ,46, ,
1, ,46, ,
1, ,47, ,
-1, ,46, ,
2, ,46, ,
-1, ,47, ,
-1, ,46, ,
1, ,46, ,
1, ,46, ,
-1, ,46, ,
2, ,46, ,
-1, ,47, ,
-1, ,46, ,
1, ,46, ,
1, ,46, ,
-2, ,46, ,
2, ,46, ,
-1, ,47, ,
-1, ,46, ,
1, ,46, ,
1, ,47, ,
-1, ,46, ,
1, ,46, ,
-1, ,46, ,
-1, ,47, ,
1, ,47, ,
-1, ,46, ,
-1, ,46, ,
2, ,46, ,
-1, ,46, ,
-1, ,46, ,
1, ,46, ,
1, ,46, ,
-2, ,47, ,
1, ,46, ,
-1, ,47, ,
-1, ,46, ,
1, ,46, ,
-1, ,46, ,
-2, ,46, ,
2, ,46, ,
-1, ,47, ,
-1, ,46, ,
1, ,46, ,
1, ,47, ,
-1, ,47, ,
1, ,46, ,
-1, ,46, ,
-1, ,46, ,
1, ,46, ,
1, ,47, ,
-1, ,46, ,
2, ,46, ,
-1, ,47, ,
-1, ,46, ,
1, ,46, ,
1, ,46, ,
-1, ,46, ,
1, ,46, ,
-1, ,46, ,
-1, ,46, ,
1, ,46, ,
1, ,46, ,
-1, ,46, ,
1, ,46, ,
-1, ,46, ,
-1, ,46, ,
1, ,46, ,
1, ,47, ,
-1, ,46, ,
1, ,46, ,
-1, ,46, ,
-1, ,46, ,
1, ,46, ,
1, ,46, ,
-1, ,46, ,
2, ,46, ,
-1, ,47, ,
-1, ,46, ,
1, ,46, ,
1, ,47, ,
-1, ,46, ,
1, ,46, ,
-1, ,46, ,
-1, ,46, ,
1, ,46, ,
1, ,46, ,
-1, ,46, ,
2, ,46, ,
-1, ,47, ,
-1, ,46, ,
1, ,46, ,
1, ,47, ,
-1, ,46, ,
1, ,46, ,
-1, ,46, ,
-1, ,46, ,
1, ,46, ,
1, ,46, ,
-2, ,46, ,
2, ,46, ,
-1, ,40, ,
-2, ,20, ,
1, ,3, ,
-1, ,-9, ,
-1, ,-19, ,
1, ,-26, ,
-1, ,-32, ,
-1, ,-36, ,
1, ,-39, ,
-1, ,-41, ,
-1, ,-42, ,
2, ,-43, ,
-1, ,-44, ,
-1, ,-45, ,
1, ,-45, ,
-1, ,-46, ,
-2, ,-46, ,
1, ,-46, ,
-1, ,-46, ,
-1, ,-46, ,
1, ,-46, ,
1, ,-47, ,
-2, ,-47, ,
2, ,-47, ,
-1, ,-47, ,
-1, ,-46, ,
1, ,-46, ,
1, ,-46, ,
-1, ,-46, ,
2, ,-46, ,
-1, ,-47, ,
-1, ,-46, ,
1, ,-46, ,
1, ,-46, ,
-2, ,-46, ,
2, ,-46, ,
-1, ,-46, ,
-1, ,-46, ,
1, ,-46, ,
1, ,-46, ,
-2, ,-46, ,
1, ,-46, ,
-1, ,-46, ,
-1, ,-46, ,
1, ,-46, ,
1, ,-46, ,
-2, ,-46, ,
2, ,-46, ,
-1, ,-46, ,
-1, ,-46, ,
1, ,-46, ,
1, ,-46, ,
-1, ,-46, ,
2, ,-46, ,
-1, ,-46, ,
-1, ,-46, ,
1, ,-46, ,
1, ,-46, ,
-2, ,-46, ,
1, ,-46, ,
-1, ,-46, ,
-1, ,-46, ,
1, ,-46, ,
1, ,-46, ,
-2, ,-46, ,
2, ,-46, ,
-1, ,-46, ,
-1, ,-46, ,
1, ,-46, ,
1, ,-46, ,
-1, ,-46, ,
2, ,-46, ,
-1, ,-46, ,
-1, ,-46, ,
1, ,-46, ,
1, ,-46, ,
-1, ,-46, ,
1, ,-45, ,
-1, ,-46, ,
-1, ,-46, ,
1, ,-46, ,
1, ,-46, ,
-2, ,-46, ,
2, ,-46, ,
-1, ,-46, ,
-1, ,-46, ,
1, ,-46, ,
1, ,-46, ,
-1, ,-46, ,
2, ,-46, ,
-1, ,-46, ,
-1, ,-46, ,
1, ,-46, ,
1, ,-46, ,
-1, ,-46, ,
2, ,-46, ,
-1, ,-46, ,
-1, ,-46, ,
1, ,-46, ,
1, ,-46, ,
-1, ,-46, ,
1, ,-45, ,
-1, ,-46, ,
-1, ,-46, ,
1, ,-46, ,
1, ,-46, ,
-2, ,-46, ,
2, ,-45, ,
-1, ,-46, ,
-1, ,-46, ,
1, ,-46, ,
1, ,-46, ,
-2, ,-46, ,
1, ,-46, ,
-1, ,-46, ,
-1, ,-46, ,
1, ,-46, ,
1, ,-46, ,
-1, ,-46, ,
2, ,-46, ,
-1, ,-46, ,
-1, ,-46, ,
1, ,-46, ,
1, ,-46, ,
-1, ,-46, ,
1, ,-46, ,
-1, ,-46, ,
-1, ,-45, ,
1, ,-46, ,
1, ,-46, ,
-2, ,-46, ,
2, ,-46, ,
-1, ,-46, ,
-1, ,-46, ,
1, ,-46, ,
1, ,-46, ,
-1, ,-46, ,
2, ,-46, ,
-1, ,-46, ,
-1, ,-45, ,
1, ,-46, ,
1, ,-46, ,
-2, ,-46, ,
2, ,-46, ,
-1, ,-46, ,
-1, ,-46, ,
1, ,-46, ,
1, ,-45, ,
-1, ,-46, ,
2, ,-46, ,
-1, ,-46, ,
-1, ,-46, ,
1, ,-46, ,
1, ,-46, ,
-2, ,-46, ,
2, ,-46, ,
-1, ,-46, ,
-1, ,-46, ,
1, ,-46, ,
1, ,-46, ,
-1, ,-46, ,
1, ,-46, ,
-1, ,-46, ,
-1, ,-46, ,
1, ,-46, ,
1, ,-46, ,
-2, ,-46, ,
2, ,-46, ,
-1, ,-46, ,
-1, ,-46, ,
1, ,-46, ,
1, ,-46, ,
-1, ,-45, ,
1, ,-46, ,
-1, ,-46, ,
-1, ,-46, ,
1, ,-46, ,
1, ,-46, ,
-2, ,-46, ,
2, ,-46, ,
-1, ,-46, ,
-1, ,-46, ,
1, ,-46, ,
1, ,-46, ,
-1, ,-46, ,
1, ,-46, ,
-1, ,-46, ,
-1, ,-45, ,
1, ,-46, ,
1, ,-46, ,
-2, ,-46, ,
2, ,-46, ,
-1, ,-46, ,
-1, ,-46, ,
1, ,-46, ,
1, ,-46, ,
-1, ,-46, ,
2, ,-46, ,
-1, ,-46, ,
-1, ,-45, ,
1, ,-46, ,
1, ,-46, ,
-1, ,-46, ,
2, ,-46, ,
-1, ,-46, ,
-1, ,-46, ,
1, ,-46, ,
1, ,-46, ,
-1, ,-46, ,
1, ,-46, ,
-1, ,-46, ,
-1, ,-45, ,
1, ,-46, ,
1, ,-46, ,
-2, ,-46, ,
2, ,-46, ,
-1, ,-46, ,
-1, ,-45, ,
1, ,-46, ,
1, ,-46, ,
-1, ,-46, ,
2, ,-46, ,
-1, ,-46, ,
-1, ,-45, ,
1, ,-46, ,
-1, ,-46, ,
-2, ,-46, ,
2, ,-46, ,
-1, ,-46, ,
-1, ,-46, ,
1, ,-45, ,
1, ,-46, ,
-1, ,-46, ,
2, ,-46, ,
-1, ,-46, ,
-1, ,-45, ,
1, ,-46, ,
1, ,-46, ,
-2, ,-46, ,
2, ,-46, ,
-1, ,-46, ,
-1, ,-45, ,
1, ,-45, ,
1, ,-45, ,
-1, ,-46, ,
2, ,-46, ,
-1, ,-46, ,
-1, ,-45, ,
1, ,-45, ,
1, ,-46, ,
-1, ,-46, ,
2, ,-46, ,
-1, ,-46, ,
-1, ,-45, ,
1, ,-46, ,
1, ,-46, ,
-1, ,-46, ,
1, ,-46, ,
-1, ,-46, ,
-1, ,-45, ,
1, ,-45, ,
1, ,-46, ,
-2, ,-46, ,
1, ,-46, ,
-1, ,-46, ,
-1, ,-46, ,
1, ,-46, ,
1, ,-46, ,
-1, ,-46, ,
2, ,-46, ,
-1, ,-46, ,
-1, ,-45, ,
1, ,-45, ,
1, ,-46, ,
-2, ,-46, ,
2, ,-46, ,
-1, ,-46, ,
-1, ,-46, ,
1, ,-46, ,
1, ,-46, ,
-1, ,-46, ,
1, ,-46, ,
-1, ,-46, ,
-1, ,-45, ,
1, ,-46, ,
1, ,-46, ,
-1, ,-46, ,
2, ,-46, ,
-1, ,-46, ,
-1, ,-45, ,
-1, ,-45, ,
-1, ,-45, ,
-1, ,-45, ,
2, ,-45, ,
1, ,-46, ,
-1, ,-45, ,
1, ,-46, ,
1, ,-46, ,
-2, ,-45, ,
1, ,-45, ,
-1, ,-46, ,
-1, ,-45, ,
1, ,-46, ,
1, ,-46, ,
-1, ,-46, ,
1, ,-45, ,
-1, ,-46, ,
-1, ,-45, ,
1, ,-46, ,
1, ,-46, ,
-2, ,-45, ,
2, ,-45, ,
-1, ,-46, ,
-1, ,-46, ,
1, ,-46, ,
-1, ,-45, ,
-2, ,-45, ,
2, ,-46, ,
-1, ,-46, ,
-1, ,-45, ,
1, ,-46, ,
1, ,-46, ,
-1, ,-46, ,
2, ,-45, ,
-1, ,-46, ,
-1, ,-45, ,
1, ,-46, ,
1, ,-46, ,
-2, ,-45, ,
1, ,-45, ,
-1, ,-46, ,
-1, ,-45, ,
1, ,-45, ,
1, ,-46, ,
-1, ,-45, ,
2, ,-46, ,
-1, ,-46, ,
-1, ,-46, ,
1, ,-46, ,
1, ,-45, ,
-1, ,-46, ,
1, ,-45, ,
-1, ,-46, ,
-1, ,-45, ,
1, ,-46, ,
1, ,-46, ,
-1, ,-45, ,
2, ,-45, ,
-1, ,-46, ,
-1, ,-46, ,
1, ,-46, ,
1, ,-46, ,
-1, ,-46, ,
1, ,-45, ,
-1, ,-46, ,
-1, ,-45, ,
1, ,-46, ,
1, ,-46, ,
-1, ,-45, ,
2, ,-46, ,
-1, ,-46, ,
-1, ,-45, ,
1, ,-46, ,
1, ,-46, ,
-1, ,-46, ,
97, ,-46, ,
57, ,-46, ,
35, ,-45, ,
24, ,-46, ,
15, ,-46, ,
8, ,-45, ,
8, ,-45, ,
5, ,-46, ,
3, ,-46, ,
3, ,-46, ,
2, ,-45, ,
2, ,-46, ,
3, ,-45, ,
2, ,-46, ,
2, ,-45, ,
3, ,-45, ,
3, ,-46, ,
1, ,-45, ,
3, ,-45, ,
2, ,-46, ,
2, ,-46, ,
2, ,-45, ,
3, ,-46, ,
1, ,-46, ,
3, ,-46, ,
2, ,-46, ,
1, ,-45, ,
3, ,-46, ,
3, ,-46, ,
1, ,-46, ,
5, ,-45, ,
2, ,-46, ,
1, ,-46, ,
2, ,-46, ,
2, ,-46, ,
1, ,-46, ,
3, ,-45, ,
1, ,-46, ,
2, ,-45, ,
3, ,-45, ,
3, ,-46, ,
1, ,-45, ,
5, ,-45, ,
2, ,-46, ,
2, ,-46, ,
3, ,-46, ,
2, ,-45, ,
1, ,-45, ,
3, ,-46, ,
2, ,-46, ,
1, ,-45, ,
2, ,-46, ,
2, ,-46, ,
1, ,-45, ,
5, ,-46, ,
2, ,-46, ,
1, ,-46, ,
3, ,-45, ,
2, ,-45, ,
1, ,-45, ,
3, ,-45, ,
1, ,-46, ,
1, ,-45, ,
2, ,-46, ,
3, ,-46, ,
1, ,-45, ,
3, ,-45, ,
2, ,-46, ,
2, ,-46, ,
2, ,-46, ,
