src/varyamp_1560/temp0000163.CSV

Format,1.0B,
Memory Length,10000,Memory Length,10000,
IntpDistance,0,IntpDistance,0,
Trigger Address,4999,Trigger Address,4999,
Trigger Level,1.040E+00,Trigger Level,1.040E+00,
Source,CH1,Source,CH2,
Vertical Units,V,Vertical Units,V,
Vertical Units Div,0,Vertical Units Div,0,
Vertical Units Extend Div,16,Vertical Units Extend Div,16,
Label,,Label,,
Probe Type,0,Probe Type,0,
Probe Ratio,1.000e+01,Probe Ratio,1.000e+00,
Vertical Scale,5.000e-01,Vertical Scale,1.000e+00,
Vertical Position,-1.820e+00,Vertical Position,0.000e+00,
Horizontal Units,S,Horizontal Units,S,
Horizontal Scale,2.000E-05,Horizontal Scale,2.000E-05,
Horizontal Position,0.000E+00,Horizontal Position,0.000E+00,
Horizontal Mode,Main,Horizontal Mode,Main,
SincET Mode,Real Time,SincET Mode,Real Time,
Sampling Period,2.000e-08,Sampling Period,2.000e-08,
Horizontal Old Scale,2.000E-05,Horizontal Old Scale,2.000E-05,
Horizontal Old Position,0.000E+00,Horizontal Old Position,0.000E+00,
Firmware,V1.23,Firmware,V1.23,
Mode,Fast,Mode,Fast,
Waveform Data,,Waveform Data,,
2, ,-62, ,
1, ,-63, ,
-1, ,-63, ,
2, ,-62, ,
1, ,-63, ,
-1, ,-63, ,
2, ,-63, ,
1, ,-63, ,
1, ,-63, ,
1, ,-62, ,
1, ,-62, ,
-1, ,-63, ,
2, ,-62, ,
1, ,-62, ,
1, ,-63, ,
1, ,-62, ,
1, ,-63, ,
-1, ,-63, ,
2, ,-63, ,
1, ,-62, ,
1, ,-63, ,
1, ,-63, ,
1, ,-63, ,
-1, ,-63, ,
1, ,-62, ,
-1, ,-63, ,
-1, ,-63, ,
1, ,-62, ,
1, ,-63, ,
-1, ,-63, ,
2, ,-63, ,
1, ,-63, ,
-1, ,-63, ,
2, ,-63, ,
2, ,-62, ,
-1, ,-63, ,
2, ,-63, ,
1, ,-63, ,
-1, ,-63, ,
1, ,-62, ,
1, ,-63, ,
-1, ,-63, ,
2, ,-63, ,
1, ,-63, ,
-1, ,-63, ,
1, ,-62, ,
1, ,-63, ,
-1, ,-63, ,
2, ,-63, ,
1, ,-63, ,
1, ,-63, ,
1, ,-62, ,
1, ,-63, ,
-1, ,-63, ,
2, ,-62, ,
1, ,-63, ,
1, ,-63, ,
1, ,-62, ,
1, ,-62, ,
-1, ,-63, ,
2, ,-63, ,
1, ,-63, ,
-1, ,-63, ,
1, ,-62, ,
1, ,-62, ,
45, ,-63, ,
58, ,-63, ,
35, ,-62, ,
22, ,-63, ,
15, ,-63, ,
10, ,-63, ,
6, ,-63, ,
7, ,-62, ,
5, ,-63, ,
3, ,-63, ,
5, ,-62, ,
3, ,-63, ,
3, ,-63, ,
6, ,-63, ,
3, ,-63, ,
2, ,-63, ,
3, ,-63, ,
3, ,-63, ,
2, ,-62, ,
5, ,-63, ,
2, ,-63, ,
2, ,-63, ,
3, ,-62, ,
3, ,-63, ,
1, ,-63, ,
5, ,-62, ,
2, ,-62, ,
2, ,-63, ,
3, ,-63, ,
3, ,-63, ,
2, ,-63, ,
5, ,-63, ,
2, ,-63, ,
2, ,-63, ,
3, ,-62, ,
2, ,-63, ,
1, ,-63, ,
3, ,-62, ,
2, ,-63, ,
2, ,-63, ,
3, ,-63, ,
2, ,-62, ,
2, ,-63, ,
5, ,-62, ,
2, ,-62, ,
2, ,-63, ,
3, ,-62, ,
2, ,-63, ,
1, ,-63, ,
3, ,-63, ,
2, ,-62, ,
2, ,-63, ,
3, ,-62, ,
2, ,-63, ,
2, ,-63, ,
5, ,-62, ,
2, ,-63, ,
1, ,-63, ,
2, ,-62, ,
2, ,-62, ,
1, ,-63, ,
3, ,-63, ,
2, ,-63, ,
1, ,-63, ,
2, ,-63, ,
2, ,-63, ,
1, ,-63, ,
3, ,-63, ,
1, ,-63, ,
1, ,-63, ,
3, ,-62, ,
2, ,-63, ,
1, ,-63, ,
3, ,-63, ,
2, ,-62, ,
2, ,-63, ,
2, ,-62, ,
2, ,-63, ,
1, ,-63, ,
3, ,-63, ,
2, ,-63, ,
1, ,-63, ,
2, ,-62, ,
2, ,-63, ,
1, ,-63, ,
3, ,-63, ,
2, ,-63, ,
2, ,-64, ,
3, ,-63, ,
3, ,-63, ,
1, ,-63, ,
3, ,-63, ,
2, ,-63, ,
1, ,-63, ,
2, ,-62, ,
2, ,-62, ,
1, ,-63, ,
3, ,-62, ,
2, ,-62, ,
1, ,-63, ,
2, ,-62, ,
2, ,-63, ,
1, ,-63, ,
3, ,-62, ,
1, ,-63, ,
1, ,-63, ,
3, ,-63, ,
2, ,-63, ,
1, ,-63, ,
3, ,-62, ,
2, ,-63, ,
1, ,-63, ,
2, ,-62, ,
2, ,-63, ,
1, ,-63, ,
3, ,-63, ,
1, ,-63, ,
1, ,-63, ,
3, ,-62, ,
2, ,-63, ,
1, ,-63, ,
5, ,-63, ,
2, ,-63, ,
1, ,-63, ,
2, ,-62, ,
2, ,-63, ,
1, ,-63, ,
3, ,-63, ,
2, ,-63, ,
1, ,-63, ,
3, ,-62, ,
2, ,-63, ,
1, ,-63, ,
3, ,-63, ,
2, ,-63, ,
1, ,-63, ,
2, ,-63, ,
2, ,-63, ,
1, ,-63, ,
3, ,-62, ,
1, ,-63, ,
1, ,-63, ,
2, ,-62, ,
2, ,-63, ,
1, ,-63, ,
3, ,-63, ,
2, ,-63, ,
2, ,-63, ,
2, ,-62, ,
2, ,-63, ,
1, ,-63, ,
3, ,-63, ,
1, ,-63, ,
1, ,-63, ,
2, ,-62, ,
2, ,-63, ,
1, ,-63, ,
3, ,-62, ,
2, ,-63, ,
1, ,-63, ,
2, ,-62, ,
2, ,-63, ,
1, ,-63, ,
3, ,-63, ,
2, ,-63, ,
1, ,-63, ,
2, ,-62, ,
2, ,-63, ,
1, ,-63, ,
3, ,-62, ,
2, ,-63, ,
1, ,-63, ,
2, ,-62, ,
2, ,-63, ,
1, ,-63, ,
3, ,-63, ,
2, ,-63, ,
1, ,-63, ,
2, ,-62, ,
2, ,-62, ,
1, ,-63, ,
3, ,-63, ,
1, ,-63, ,
1, ,-63, ,
2, ,-62, ,
2, ,-63, ,
1, ,-63, ,
3, ,-62, ,
1, ,-63, ,
1, ,-63, ,
2, ,-62, ,
2, ,-63, ,
-1, ,-63, ,
3, ,-62, ,
2, ,-63, ,
1, ,-63, ,
2, ,-62, ,
2, ,-63, ,
1, ,-63, ,
2, ,-62, ,
2, ,-63, ,
1, ,-63, ,
2, ,-62, ,
2, ,-63, ,
1, ,-63, ,
3, ,-63, ,
1, ,-63, ,
1, ,-63, ,
2, ,-62, ,
2, ,-63, ,
1, ,-63, ,
2, ,-63, ,
1, ,-63, ,
1, ,-63, ,
2, ,-62, ,
2, ,-63, ,
1, ,-62, ,
3, ,-63, ,
1, ,-63, ,
1, ,-63, ,
2, ,-62, ,
2, ,-63, ,
-1, ,-63, ,
2, ,-62, ,
1, ,-63, ,
1, ,-63, ,
2, ,-62, ,
2, ,-62, ,
-1, ,-63, ,
2, ,-63, ,
1, ,-63, ,
1, ,-63, ,
2, ,-62, ,
2, ,-63, ,
1, ,-63, ,
2, ,-62, ,
1, ,-63, ,
1, ,-57, ,
2, ,-37, ,
2, ,-20, ,
1, ,-6, ,
3, ,3, ,
1, ,11, ,
1, ,16, ,
2, ,19, ,
2, ,22, ,
1, ,24, ,
2, ,26, ,
1, ,27, ,
1, ,28, ,
2, ,28, ,
1, ,30, ,
1, ,30, ,
3, ,30, ,
1, ,30, ,
1, ,31, ,
2, ,31, ,
1, ,31, ,
-1, ,31, ,
2, ,31, ,
1, ,31, ,
1, ,31, ,
2, ,31, ,
1, ,31, ,
-1, ,31, ,
2, ,31, ,
1, ,31, ,
1, ,31, ,
2, ,31, ,
2, ,31, ,
-1, ,31, ,
2, ,31, ,
1, ,30, ,
1, ,31, ,
2, ,31, ,
1, ,30, ,
-1, ,30, ,
2, ,31, ,
1, ,30, ,
1, ,30, ,
2, ,30, ,
2, ,30, ,
-1, ,31, ,
2, ,30, ,
1, ,30, ,
1, ,30, ,
2, ,30, ,
1, ,30, ,
-1, ,30, ,
2, ,31, ,
1, ,30, ,
1, ,31, ,
2, ,31, ,
1, ,30, ,
-1, ,30, ,
2, ,30, ,
1, ,30, ,
1, ,30, ,
2, ,30, ,
1, ,30, ,
-1, ,30, ,
2, ,30, ,
1, ,30, ,
1, ,30, ,
2, ,30, ,
1, ,30, ,
-1, ,30, ,
2, ,31, ,
1, ,30, ,
1, ,30, ,
2, ,30, ,
1, ,30, ,
-1, ,30, ,
2, ,30, ,
1, ,30, ,
1, ,31, ,
2, ,30, ,
1, ,30, ,
-1, ,30, ,
2, ,31, ,
1, ,30, ,
1, ,30, ,
2, ,30, ,
1, ,30, ,
-1, ,30, ,
2, ,30, ,
1, ,30, ,
1, ,30, ,
2, ,30, ,
1, ,30, ,
-1, ,30, ,
2, ,31, ,
1, ,30, ,
-1, ,30, ,
2, ,30, ,
1, ,30, ,
-1, ,30, ,
2, ,30, ,
1, ,30, ,
1, ,30, ,
2, ,30, ,
1, ,30, ,
-1, ,30, ,
2, ,30, ,
1, ,30, ,
-1, ,30, ,
2, ,30, ,
1, ,30, ,
-1, ,30, ,
2, ,30, ,
1, ,30, ,
-1, ,30, ,
2, ,30, ,
1, ,30, ,
-1, ,30, ,
2, ,31, ,
1, ,30, ,
1, ,30, ,
2, ,30, ,
1, ,30, ,
-1, ,30, ,
2, ,31, ,
1, ,30, ,
1, ,30, ,
2, ,30, ,
1, ,30, ,
-1, ,30, ,
2, ,31, ,
1, ,30, ,
1, ,30, ,
2, ,30, ,
1, ,30, ,
-1, ,30, ,
2, ,31, ,
1, ,30, ,
1, ,30, ,
2, ,30, ,
1, ,30, ,
-1, ,30, ,
2, ,30, ,
1, ,30, ,
1, ,30, ,
2, ,30, ,
1, ,30, ,
-1, ,30, ,
2, ,30, ,
1, ,30, ,
1, ,30, ,
2, ,30, ,
1, ,30, ,
-1, ,30, ,
2, ,28, ,
-1, ,13, ,
-1, ,-6, ,
2, ,-21, ,
1, ,-32, ,
-1, ,-40, ,
2, ,-46, ,
1, ,-51, ,
1, ,-55, ,
2, ,-56, ,
1, ,-59, ,
-1, ,-60, ,
2, ,-61, ,
1, ,-62, ,
1, ,-63, ,
2, ,-62, ,
1, ,-63, ,
-1, ,-64, ,
2, ,-63, ,
1, ,-63, ,
1, ,-64, ,
1, ,-63, ,
1, ,-63, ,
-1, ,-64, ,
2, ,-63, ,
1, ,-63, ,
1, ,-64, ,
2, ,-63, ,
1, ,-63, ,
-1, ,-64, ,
2, ,-63, ,
1, ,-63, ,
1, ,-64, ,
2, ,-63, ,
1, ,-63, ,
-1, ,-63, ,
2, ,-63, ,
1, ,-63, ,
1, ,-63, ,
2, ,-62, ,
1, ,-63, ,
-1, ,-63, ,
2, ,-63, ,
1, ,-63, ,
1, ,-63, ,
2, ,-62, ,
1, ,-63, ,
-1, ,-63, ,
2, ,-63, ,
1, ,-63, ,
1, ,-63, ,
1, ,-62, ,
1, ,-63, ,
-1, ,-63, ,
2, ,-63, ,
1, ,-63, ,
1, ,-63, ,
1, ,-62, ,
1, ,-63, ,
-1, ,-63, ,
2, ,-63, ,
1, ,-63, ,
-1, ,-63, ,
1, ,-62, ,
1, ,-63, ,
-1, ,-63, ,
2, ,-63, ,
1, ,-63, ,
-1, ,-63, ,
2, ,-62, ,
1, ,-63, ,
-1, ,-63, ,
2, ,-63, ,
1, ,-63, ,
1, ,-63, ,
1, ,-62, ,
1, ,-63, ,
-1, ,-63, ,
2, ,-63, ,
1, ,-63, ,
1, ,-63, ,
1, ,-62, ,
1, ,-63, ,
-1, ,-63, ,
2, ,-63, ,
-1, ,-63, ,
-1, ,-63, ,
1, ,-62, ,
1, ,-62, ,
-1, ,-63, ,
2, ,-63, ,
1, ,-63, ,
-1, ,-63, ,
1, ,-62, ,
1, ,-62, ,
-1, ,-63, ,
2, ,-63, ,
1, ,-63, ,
-1, ,-63, ,
2, ,-62, ,
1, ,-63, ,
-1, ,-63, ,
2, ,-63, ,
1, ,-63, ,
1, ,-63, ,
1, ,-63, ,
2, ,-63, ,
-1, ,-63, ,
2, ,-63, ,
-1, ,-63, ,
-1, ,-63, ,
1, ,-62, ,
1, ,-63, ,
-1, ,-63, ,
2, ,-63, ,
1, ,-62, ,
-1, ,-63, ,
1, ,-62, ,
1, ,-63, ,
-1, ,-63, ,
2, ,-63, ,
1, ,-62, ,
-1, ,-63, ,
1, ,-62, ,
1, ,-63, ,
-1, ,-63, ,
2, ,-62, ,
1, ,-62, ,
1, ,-63, ,
1, ,-62, ,
1, ,-63, ,
-1, ,-63, ,
2, ,-63, ,
1, ,-63, ,
-1, ,-63, ,
1, ,-62, ,
1, ,-62, ,
-1, ,-63, ,
2, ,-63, ,
1, ,-62, ,
1, ,-63, ,
2, ,-62, ,
1, ,-63, ,
-1, ,-63, ,
2, ,-63, ,
1, ,-63, ,
1, ,-63, ,
1, ,-62, ,
1, ,-62, ,
-1, ,-63, ,
2, ,-63, ,
1, ,-63, ,
1, ,-63, ,
1, ,-62, ,
1, ,-62, ,
-1, ,-63, ,
2, ,-63, ,
1, ,-63, ,
-1, ,-63, ,
1, ,-62, ,
1, ,-62, ,
-1, ,-63, ,
2, ,-62, ,
1, ,-63, ,
1, ,-63, ,
2, ,-63, ,
1, ,-62, ,
-1, ,-63, ,
2, ,-63, ,
1, ,-63, ,
-1, ,-63, ,
1, ,-61, ,
1, ,-62, ,
-1, ,-63, ,
2, ,-63, ,
1, ,-62, ,
-1, ,-63, ,
1, ,-62, ,
1, ,-62, ,
-1, ,-63, ,
2, ,-63, ,
1, ,-63, ,
-1, ,-63, ,
1, ,-62, ,
1, ,-62, ,
-1, ,-63, ,
2, ,-63, ,
1, ,-62, ,
-1, ,-63, ,
1, ,-62, ,
1, ,-63, ,
-1, ,-62, ,
2, ,-63, ,
1, ,-63, ,
-1, ,-63, ,
1, ,-62, ,
1, ,-62, ,
-1, ,-63, ,
2, ,-62, ,
1, ,-63, ,
1, ,-63, ,
1, ,-62, ,
1, ,-63, ,
-1, ,-62, ,
2, ,-63, ,
-1, ,-63, ,
-1, ,-63, ,
1, ,-62, ,
1, ,-63, ,
-1, ,-63, ,
2, ,-62, ,
1, ,-62, ,
-1, ,-63, ,
1, ,-62, ,
1, ,-63, ,
-1, ,-63, ,
2, ,-62, ,
-1, ,-63, ,
-1, ,-63, ,
1, ,-62, ,
1, ,-62, ,
-1, ,-63, ,
2, ,-63, ,
1, ,-63, ,
-1, ,-63, ,
1, ,-62, ,
1, ,-62, ,
-1, ,-62, ,
2, ,-63, ,
-1, ,-63, ,
-1, ,-63, ,
1, ,-62, ,
1, ,-62, ,
-1, ,-63, ,
2, ,-63, ,
-1, ,-62, ,
-1, ,-63, ,
1, ,-62, ,
1, ,-62, ,
-1, ,-63, ,
2, ,-63, ,
-1, ,-63, ,
-1, ,-63, ,
1, ,-62, ,
1, ,-63, ,
-1, ,-63, ,
2, ,-63, ,
1, ,-62, ,
-1, ,-63, ,
1, ,-62, ,
1, ,-62, ,
-1, ,-63, ,
2, ,-63, ,
-1, ,-63, ,
-1, ,-63, ,
1, ,-62, ,
1, ,-63, ,
-1, ,-63, ,
2, ,-62, ,
1, ,-62, ,
-1, ,-63, ,
1, ,-62, ,
1, ,-62, ,
-1, ,-63, ,
2, ,-63, ,
1, ,-63, ,
-1, ,-63, ,
1, ,-62, ,
1, ,-62, ,
-1, ,-63, ,
2, ,-63, ,
1, ,-63, ,
-1, ,-63, ,
1, ,-62, ,
1, ,-63, ,
-1, ,-63, ,
1, ,-63, ,
-1, ,-63, ,
-1, ,-63, ,
1, ,-62, ,
1, ,-63, ,
-1, ,-63, ,
2, ,-63, ,
1, ,-62, ,
-1, ,-63, ,
1, ,-62, ,
1, ,-62, ,
-1, ,-63, ,
2, ,-62, ,
1, ,-62, ,
-1, ,-63, ,
1, ,-62, ,
1, ,-62, ,
-1, ,-63, ,
2, ,-63, ,
1, ,-63, ,
1, ,-63, ,
1, ,-62, ,
1, ,-63, ,
-1, ,-63, ,
1, ,-63, ,
1, ,-63, ,
-1, ,-63, ,
1, ,-62, ,
1, ,-63, ,
-1, ,-63, ,
2, ,-63, ,
1, ,-62, ,
-1, ,-63, ,
1, ,-62, ,
1, ,-62, ,
-1, ,-63, ,
2, ,-63, ,
-1, ,-63, ,
-1, ,-63, ,
1, ,-62, ,
1, ,-62, ,
-1, ,-63, ,
2, ,-63, ,
1, ,-63, ,
-1, ,-63, ,
1, ,-62, ,
1, ,-62, ,
-1, ,-63, ,
2, ,-63, ,
-1, ,-62, ,
-1, ,-63, ,
1, ,-62, ,
1, ,-63, ,
-1, ,-63, ,
2, ,-63, ,
1, ,-63, ,
-1, ,-63, ,
1, ,-63, ,
1, ,-62, ,
-1, ,-63, ,
2, ,-63, ,
1, ,-63, ,
-1, ,-63, ,
1, ,-62, ,
1, ,-63, ,
-1, ,-63, ,
2, ,-63, ,
-1, ,-62, ,
-1, ,-63, ,
1, ,-62, ,
1, ,-62, ,
-1, ,-63, ,
2, ,-63, ,
-1, ,-63, ,
-1, ,-63, ,
1, ,-62, ,
1, ,-62, ,
-1, ,-63, ,
2, ,-63, ,
1, ,-62, ,
-1, ,-63, ,
1, ,-62, ,
1, ,-63, ,
-1, ,-63, ,
2, ,-63, ,
-1, ,-63, ,
-1, ,-63, ,
1, ,-62, ,
1, ,-63, ,
-1, ,-63, ,
2, ,-63, ,
1, ,-62, ,
-1, ,-63, ,
1, ,-62, ,
1, ,-62, ,
-1, ,-63, ,
1, ,-63, ,
1, ,-63, ,
-1, ,-63, ,
1, ,-62, ,
1, ,-62, ,
-1, ,-63, ,
2, ,-63, ,
1, ,-62, ,
-1, ,-63, ,
1, ,-62, ,
1, ,-62, ,
-1, ,-63, ,
2, ,-63, ,
-1, ,-63, ,
-1, ,-63, ,
1, ,-62, ,
1, ,-62, ,
-1, ,-63, ,
2, ,-63, ,
1, ,-62, ,
-1, ,-63, ,
1, ,-62, ,
1, ,-62, ,
-1, ,-63, ,
1, ,-63, ,
1, ,-63, ,
-1, ,-63, ,
1, ,-62, ,
1, ,-63, ,
-1, ,-63, ,
2, ,-63, ,
1, ,-62, ,
-1, ,-63, ,
1, ,-63, ,
1, ,-63, ,
-1, ,-63, ,
2, ,-62, ,
-1, ,-63, ,
-1, ,-63, ,
1, ,-62, ,
1, ,-62, ,
-1, ,-63, ,
2, ,-62, ,
1, ,-62, ,
-1, ,-63, ,
1, ,-62, ,
1, ,-63, ,
-1, ,-63, ,
1, ,-63, ,
-1, ,-63, ,
-1, ,-63, ,
1, ,-62, ,
1, ,-63, ,
-1, ,-63, ,
83, ,-63, ,
50, ,-62, ,
31, ,-63, ,
21, ,-63, ,
13, ,-63, ,
8, ,-63, ,
8, ,-63, ,
6, ,-63, ,
3, ,-63, ,
5, ,-62, ,
3, ,-63, ,
2, ,-63, ,
5, ,-63, ,
2, ,-62, ,
2, ,-63, ,
2, ,-62, ,
3, ,-63, ,
1, ,-63, ,
3, ,-63, ,
2, ,-63, ,
1, ,-63, ,
3, ,-63, ,
3, ,-63, ,
1, ,-63, ,
5, ,-62, ,
2, ,-63, ,
2, ,-63, ,
3, ,-62, ,
2, ,-62, ,
1, ,-63, ,
3, ,-62, ,
2, ,-63, ,
1, ,-63, ,
3, ,-62, ,
2, ,-62, ,
1, ,-63, ,
3, ,-63, ,
2, ,-62, ,
2, ,-63, ,
2, ,-62, ,
2, ,-63, ,
2, ,-63, ,
3, ,-63, ,
2, ,-63, ,
2, ,-63, ,
3, ,-62, ,
3, ,-63, ,
1, ,-63, ,
3, ,-63, ,
2, ,-62, ,
2, ,-63, ,
3, ,-62, ,
2, ,-63, ,
1, ,-63, ,
3, ,-63, ,
2, ,-63, ,
1, ,-63, ,
2, ,-61, ,
3, ,-63, ,
1, ,-63, ,
5, ,-62, ,
2, ,-63, ,
2, ,-63, ,
2, ,-62, ,
2, ,-63, ,
1, ,-63, ,
3, ,-63, ,
2, ,-63, ,
1, ,-63, ,
2, ,-62, ,
2, ,-63, ,
1, ,-63, ,
5, ,-63, ,
2, ,-63, ,
2, ,-63, ,
3, ,-62, ,
3, ,-63, ,
1, ,-63, ,
3, ,-63, ,
2, ,-63, ,
1, ,-63, ,
2, ,-62, ,
2, ,-62, ,
1, ,-63, ,
3, ,-63, ,
2, ,-63, ,
1, ,-63, ,
3, ,-63, ,
2, ,-62, ,
1, ,-63, ,
3, ,-63, ,
2, ,-63, ,
1, ,-63, ,
3, ,-62, ,
3, ,-63, ,
1, ,-63, ,
5, ,-63, ,
2, ,-62, ,
2, ,-63, ,
2, ,-62, ,
2, ,-63, ,
1, ,-63, ,
3, ,-63, ,
2, ,-63, ,
1, ,-63, ,
2, ,-62, ,
2, ,-63, ,
1, ,-63, ,
3, ,-63, ,
2, ,-63, ,
1, ,-63, ,
2, ,-62, ,
2, ,-63, ,
1, ,-63, ,
3, ,-63, ,
1, ,-63, ,
1, ,-63, ,
2, ,-62, ,
2, ,-63, ,
1, ,-63, ,
3, ,-62, ,
2, ,-62, ,
1, ,-63, ,
2, ,-62, ,
2, ,-63, ,
1, ,-62, ,
3, ,-63, ,
2, ,-63, ,
1, ,-63, ,
2, ,-62, ,
2, ,-63, ,
1, ,-63, ,
3, ,-63, ,
2, ,-63, ,
1, ,-63, ,
2, ,-62, ,
2, ,-63, ,
1, ,-63, ,
3, ,-63, ,
1, ,-63, ,
1, ,-63, ,
2, ,-62, ,
2, ,-63, ,
1, ,-63, ,
3, ,-63, ,
2, ,-62, ,
1, ,-63, ,
2, ,-62, ,
2, ,-63, ,
1, ,-63, ,
3, ,-63, ,
1, ,-63, ,
1, ,-63, ,
2, ,-62, ,
2, ,-62, ,
1, ,-63, ,
3, ,-63, ,
1, ,-62, ,
1, ,-63, ,
2, ,-62, ,
2, ,-63, ,
1, ,-63, ,
3, ,-63, ,
1, ,-63, ,
1, ,-63, ,
2, ,-62, ,
2, ,-63, ,
1, ,-64, ,
3, ,-63, ,
1, ,-62, ,
1, ,-63, ,
2, ,-62, ,
2, ,-63, ,
1, ,-63, ,
3, ,-63, ,
1, ,-63, ,
1, ,-63, ,
2, ,-62, ,
2, ,-63, ,
1, ,-63, ,
3, ,-63, ,
1, ,-62, ,
1, ,-63, ,
2, ,-62, ,
2, ,-63, ,
1, ,-63, ,
3, ,-63, ,
1, ,-63, ,
1, ,-63, ,
2, ,-62, ,
2, ,-63, ,
-1, ,-63, ,
3, ,-63, ,
2, ,-62, ,
1, ,-63, ,
2, ,-62, ,
2, ,-62, ,
1, ,-63, ,
2, ,-63, ,
1, ,-63, ,
1, ,-63, ,
2, ,-59, ,
2, ,-43, ,
1, ,-24, ,
3, ,-9, ,
2, ,0, ,
1, ,7, ,
2, ,14, ,
2, ,18, ,
1, ,22, ,
3, ,24, ,
1, ,25, ,
1, ,27, ,
2, ,27, ,
2, ,28, ,
1, ,30, ,
3, ,30, ,
1, ,30, ,
1, ,31, ,
2, ,31, ,
2, ,31, ,
1, ,31, ,
2, ,31, ,
1, ,30, ,
1, ,31, ,
2, ,31, ,
2, ,31, ,
-1, ,31, ,
3, ,31, ,
1, ,31, ,
1, ,31, ,
2, ,31, ,
2, ,30, ,
1, ,30, ,
2, ,31, ,
1, ,30, ,
1, ,31, ,
2, ,30, ,
1, ,31, ,
-1, ,31, ,
2, ,31, ,
1, ,30, ,
1, ,30, ,
2, ,30, ,
2, ,30, ,
-1, ,30, ,
2, ,30, ,
1, ,30, ,
1, ,30, ,
2, ,30, ,
1, ,30, ,
-1, ,30, ,
2, ,30, ,
1, ,30, ,
1, ,30, ,
2, ,30, ,
1, ,30, ,
-1, ,30, ,
2, ,30, ,
1, ,30, ,
1, ,30, ,
2, ,30, ,
1, ,30, ,
-1, ,30, ,
2, ,31, ,
1, ,30, ,
1, ,30, ,
2, ,30, ,
1, ,30, ,
-1, ,30, ,
2, ,30, ,
1, ,30, ,
1, ,30, ,
2, ,30, ,
1, ,30, ,
-1, ,30, ,
2, ,30, ,
1, ,30, ,
1, ,30, ,
2, ,30, ,
1, ,30, ,
-1, ,30, ,
2, ,30, ,
1, ,30, ,
-1, ,30, ,
2, ,30, ,
1, ,30, ,
-1, ,30, ,
2, ,31, ,
1, ,30, ,
1, ,30, ,
2, ,30, ,
1, ,30, ,
-1, ,30, ,
2, ,31, ,
1, ,30, ,
1, ,30, ,
2, ,30, ,
1, ,30, ,
-1, ,30, ,
2, ,31, ,
1, ,30, ,
1, ,30, ,
2, ,30, ,
1, ,30, ,
-1, ,30, ,
2, ,30, ,
1, ,30, ,
1, ,30, ,
2, ,30, ,
1, ,30, ,
-1, ,30, ,
2, ,31, ,
1, ,30, ,
1, ,30, ,
2, ,30, ,
1, ,30, ,
-1, ,30, ,
2, ,30, ,
1, ,30, ,
1, ,30, ,
2, ,30, ,
1, ,30, ,
-1, ,30, ,
2, ,31, ,
1, ,30, ,
1, ,30, ,
2, ,30, ,
1, ,30, ,
-1, ,30, ,
2, ,31, ,
1, ,30, ,
1, ,30, ,
2, ,30, ,
1, ,30, ,
-1, ,30, ,
2, ,31, ,
1, ,30, ,
1, ,30, ,
2, ,30, ,
1, ,30, ,
-1, ,30, ,
2, ,30, ,
1, ,30, ,
1, ,30, ,
2, ,30, ,
1, ,30, ,
-1, ,30, ,
2, ,30, ,
1, ,30, ,
1, ,30, ,
2, ,30, ,
1, ,30, ,
-1, ,30, ,
2, ,30, ,
1, ,28, ,
-1, ,18, ,
2, ,-2, ,
1, ,-18, ,
-1, ,-30, ,
2, ,-38, ,
1, ,-44, ,
1, ,-50, ,
2, ,-53, ,
1, ,-56, ,
-1, ,-58, ,
2, ,-60, ,
1, ,-60, ,
1, ,-62, ,
2, ,-62, ,
1, ,-62, ,
-1, ,-63, ,
2, ,-63, ,
1, ,-63, ,
1, ,-64, ,
1, ,-63, ,
2, ,-64, ,
-1, ,-63, ,
2, ,-63, ,
1, ,-63, ,
1, ,-63, ,
2, ,-63, ,
1, ,-63, ,
-1, ,-64, ,
2, ,-63, ,
1, ,-63, ,
1, ,-63, ,
2, ,-63, ,
2, ,-63, ,
-1, ,-63, ,
2, ,-63, ,
1, ,-63, ,
1, ,-64, ,
1, ,-62, ,
1, ,-63, ,
-1, ,-63, ,
2, ,-63, ,
1, ,-63, ,
1, ,-63, ,
1, ,-63, ,
1, ,-63, ,
-1, ,-63, ,
2, ,-63, ,
1, ,-63, ,
-1, ,-63, ,
1, ,-62, ,
1, ,-63, ,
-1, ,-63, ,
2, ,-63, ,
1, ,-62, ,
1, ,-63, ,
1, ,-63, ,
1, ,-63, ,
-1, ,-63, ,
2, ,-63, ,
1, ,-62, ,
-1, ,-63, ,
1, ,-63, ,
1, ,-63, ,
-1, ,-63, ,
2, ,-63, ,
1, ,-63, ,
1, ,-63, ,
1, ,-63, ,
1, ,-63, ,
-1, ,-63, ,
2, ,-63, ,
1, ,-63, ,
1, ,-63, ,
1, ,-62, ,
1, ,-63, ,
-1, ,-63, ,
2, ,-63, ,
1, ,-63, ,
-1, ,-63, ,
2, ,-63, ,
1, ,-62, ,
-1, ,-63, ,
2, ,-63, ,
1, ,-63, ,
1, ,-63, ,
1, ,-63, ,
1, ,-63, ,
-1, ,-62, ,
2, ,-63, ,
1, ,-63, ,
1, ,-63, ,
1, ,-63, ,
1, ,-63, ,
-1, ,-63, ,
2, ,-63, ,
1, ,-63, ,
-1, ,-63, ,
1, ,-62, ,
1, ,-63, ,
-1, ,-63, ,
2, ,-62, ,
1, ,-63, ,
1, ,-63, ,
2, ,-63, ,
1, ,-62, ,
-1, ,-63, ,
2, ,-63, ,
1, ,-63, ,
-1, ,-63, ,
2, ,-62, ,
1, ,-62, ,
-1, ,-63, ,
2, ,-62, ,
1, ,-63, ,
1, ,-63, ,
1, ,-63, ,
2, ,-63, ,
-1, ,-63, ,
2, ,-63, ,
1, ,-63, ,
-1, ,-63, ,
2, ,-63, ,
1, ,-63, ,
-1, ,-63, ,
2, ,-63, ,
1, ,-62, ,
1, ,-63, ,
2, ,-63, ,
2, ,-63, ,
-1, ,-63, ,
2, ,-63, ,
1, ,-63, ,
-1, ,-63, ,
1, ,-63, ,
1, ,-62, ,
-1, ,-63, ,
2, ,-63, ,
1, ,-62, ,
1, ,-63, ,
1, ,-63, ,
1, ,-62, ,
-1, ,-63, ,
2, ,-62, ,
-1, ,-63, ,
-1, ,-63, ,
2, ,-62, ,
1, ,-63, ,
-1, ,-63, ,
2, ,-63, ,
1, ,-62, ,
-1, ,-63, ,
1, ,-63, ,
2, ,-63, ,
-1, ,-63, ,
2, ,-63, ,
1, ,-63, ,
1, ,-63, ,
1, ,-62, ,
1, ,-63, ,
-1, ,-63, ,
2, ,-63, ,
1, ,-63, ,
-1, ,-63, ,
1, ,-63, ,
1, ,-63, ,
-1, ,-63, ,
2, ,-62, ,
1, ,-63, ,
-1, ,-63, ,
1, ,-62, ,
1, ,-63, ,
-1, ,-63, ,
2, ,-62, ,
1, ,-63, ,
1, ,-63, ,
1, ,-63, ,
1, ,-62, ,
-1, ,-63, ,
2, ,-63, ,
1, ,-63, ,
-1, ,-63, ,
1, ,-62, ,
1, ,-62, ,
-1, ,-63, ,
2, ,-63, ,
1, ,-62, ,
-1, ,-63, ,
1, ,-62, ,
1, ,-63, ,
-1, ,-63, ,
2, ,-63, ,
-1, ,-63, ,
-1, ,-63, ,
1, ,-62, ,
1, ,-63, ,
-1, ,-63, ,
2, ,-63, ,
1, ,-63, ,
-1, ,-63, ,
1, ,-62, ,
1, ,-63, ,
-1, ,-63, ,
2, ,-63, ,
1, ,-63, ,
-1, ,-63, ,
1, ,-62, ,
1, ,-62, ,
-1, ,-63, ,
2, ,-62, ,
1, ,-63, ,
-1, ,-63, ,
1, ,-63, ,
1, ,-63, ,
-1, ,-63, ,
1, ,-62, ,
-1, ,-63, ,
-1, ,-63, ,
1, ,-62, ,
1, ,-62, ,
-1, ,-63, ,
2, ,-62, ,
1, ,-62, ,
-1, ,-63, ,
2, ,-62, ,
1, ,-63, ,
-1, ,-63, ,
2, ,-63, ,
1, ,-63, ,
-1, ,-63, ,
74, ,-62, ,
46, ,-63, ,
29, ,-63, ,
20, ,-63, ,
12, ,-63, ,
8, ,-63, ,
7, ,-62, ,
5, ,-62, ,
2, ,-63, ,
5, ,-62, ,
2, ,-62, ,
2, ,-63, ,
3, ,-62, ,
3, ,-62, ,
1, ,-63, ,
3, ,-63, ,
2, ,-62, ,
2, ,-63, ,
3, ,-62, ,
2, ,-62, ,
1, ,-63, ,
5, ,-63, ,
2, ,-63, ,
2, ,-63, ,
3, ,-62, ,
2, ,-62, ,
1, ,-63, ,
5, ,-62, ,
2, ,-62, ,
2, ,-63, ,
3, ,-62, ,
2, ,-63, ,
1, ,-63, ,
5, ,-63, ,
2, ,-63, ,
2, ,-63, ,
3, ,-63, ,
3, ,-63, ,
1, ,-63, ,
5, ,-63, ,
2, ,-63, ,
2, ,-63, ,
3, ,-62, ,
2, ,-63, ,
1, ,-63, ,
3, ,-63, ,
2, ,-63, ,
2, ,-63, ,
3, ,-62, ,
2, ,-63, ,
1, ,-63, ,
5, ,-63, ,
2, ,-63, ,
1, ,-63, ,
3, ,-62, ,
2, ,-63, ,
1, ,-63, ,
3, ,-62, ,
1, ,-63, ,
1, ,-63, ,
2, ,-62, ,
2, ,-63, ,
1, ,-63, ,
5, ,-63, ,
2, ,-62, ,
2, ,-63, ,
3, ,-62, ,
2, ,-63, ,
1, ,-63, ,
3, ,-63, ,
2, ,-63, ,
2, ,-63, ,
3, ,-63, ,
2, ,-63, ,
1, ,-63, ,
3, ,-63, ,
2, ,-63, ,
1, ,-63, ,
2, ,-62, ,
2, ,-63, ,
1, ,-62, ,
3, ,-63, ,
1, ,-63, ,
1, ,-63, ,
2, ,-62, ,
2, ,-63, ,
1, ,-63, ,
5, ,-62, ,
2, ,-63, ,
1, ,-63, ,
2, ,-63, ,
2, ,-63, ,
1, ,-63, ,
3, ,-63, ,
2, ,-63, ,
1, ,-63, ,
2, ,-62, ,
2, ,-62, ,
1, ,-62, ,
3, ,-62, ,
2, ,-62, ,
1, ,-63, ,
2, ,-62, ,
2, ,-63, ,
1, ,-63, ,
3, ,-63, ,
1, ,-63, ,
1, ,-63, ,
2, ,-62, ,
2, ,-63, ,
1, ,-63, ,
3, ,-62, ,
2, ,-62, ,
1, ,-63, ,
2, ,-63, ,
2, ,-63, ,
1, ,-63, ,
3, ,-63, ,
1, ,-63, ,
1, ,-63, ,
2, ,-62, ,
2, ,-62, ,
1, ,-63, ,
3, ,-63, ,
2, ,-63, ,
1, ,-63, ,
2, ,-63, ,
2, ,-62, ,
1, ,-63, ,
3, ,-62, ,
1, ,-63, ,
1, ,-63, ,
2, ,-63, ,
2, ,-63, ,
1, ,-63, ,
3, ,-63, ,
1, ,-63, ,
1, ,-63, ,
2, ,-63, ,
2, ,-63, ,
1, ,-63, ,
3, ,-63, ,
1, ,-63, ,
1, ,-63, ,
2, ,-62, ,
2, ,-63, ,
1, ,-63, ,
3, ,-62, ,
2, ,-63, ,
1, ,-63, ,
2, ,-62, ,
2, ,-63, ,
1, ,-62, ,
3, ,-62, ,
1, ,-63, ,
1, ,-63, ,
2, ,-62, ,
2, ,-63, ,
-1, ,-63, ,
3, ,-63, ,
2, ,-62, ,
1, ,-63, ,
2, ,-62, ,
3, ,-63, ,
1, ,-63, ,
2, ,-63, ,
1, ,-63, ,
1, ,-63, ,
2, ,-62, ,
2, ,-63, ,
1, ,-63, ,
3, ,-62, ,
2, ,-63, ,
1, ,-63, ,
2, ,-63, ,
2, ,-62, ,
1, ,-63, ,
3, ,-62, ,
1, ,-63, ,
1, ,-63, ,
2, ,-62, ,
2, ,-63, ,
1, ,-63, ,
3, ,-63, ,
1, ,-63, ,
1, ,-63, ,
2, ,-63, ,
2, ,-63, ,
1, ,-63, ,
3, ,-62, ,
1, ,-63, ,
1, ,-63, ,
2, ,-62, ,
2, ,-63, ,
1, ,-63, ,
3, ,-63, ,
2, ,-62, ,
1, ,-63, ,
2, ,-63, ,
2, ,-63, ,
1, ,-63, ,
3, ,-63, ,
1, ,-63, ,
1, ,-63, ,
2, ,-62, ,
2, ,-63, ,
-1, ,-63, ,
3, ,-62, ,
2, ,-62, ,
1, ,-63, ,
2, ,-62, ,
2, ,-63, ,
1, ,-63, ,
3, ,-63, ,
1, ,-63, ,
1, ,-63, ,
2, ,-63, ,
2, ,-63, ,
-1, ,-63, ,
3, ,-62, ,
1, ,-63, ,
1, ,-63, ,
2, ,-63, ,
2, ,-62, ,
1, ,-63, ,
2, ,-62, ,
1, ,-62, ,
1, ,-63, ,
2, ,-63, ,
2, ,-63, ,
1, ,-63, ,
3, ,-62, ,
1, ,-62, ,
1, ,-63, ,
2, ,-63, ,
2, ,-63, ,
1, ,-63, ,
3, ,-62, ,
1, ,-63, ,
1, ,-63, ,
2, ,-62, ,
2, ,-63, ,
-1, ,-63, ,
3, ,-62, ,
1, ,-63, ,
1, ,-63, ,
2, ,-63, ,
2, ,-63, ,
1, ,-63, ,
2, ,-63, ,
1, ,-63, ,
1, ,-63, ,
2, ,-62, ,
2, ,-63, ,
-1, ,-63, ,
3, ,-62, ,
1, ,-63, ,
