src/varyamp_1560/temp0002044.CSV

Format,1.0B,
Memory Length,10000,Memory Length,10000,
IntpDistance,0,IntpDistance,0,
Trigger Address,4999,Trigger Address,4999,
Trigger Level,1.040E+00,Trigger Level,1.040E+00,
Source,CH1,Source,CH2,
Vertical Units,V,Vertical Units,V,
Vertical Units Div,0,Vertical Units Div,0,
Vertical Units Extend Div,16,Vertical Units Extend Div,16,
Label,,Label,,
Probe Type,0,Probe Type,0,
Probe Ratio,1.000e+01,Probe Ratio,1.000e+00,
Vertical Scale,5.000e-01,Vertical Scale,1.000e+00,
Vertical Position,-1.820e+00,Vertical Position,0.000e+00,
Horizontal Units,S,Horizontal Units,S,
Horizontal Scale,2.000E-05,Horizontal Scale,2.000E-05,
Horizontal Position,0.000E+00,Horizontal Position,0.000E+00,
Horizontal Mode,Main,Horizontal Mode,Main,
SincET Mode,Real Time,SincET Mode,Real Time,
Sampling Period,2.000e-08,Sampling Period,2.000e-08,
Horizontal Old Scale,2.000E-05,Horizontal Old Scale,2.000E-05,
Horizontal Old Position,0.000E+00,Horizontal Old Position,0.000E+00,
Firmware,V1.23,Firmware,V1.23,
Mode,Fast,Mode,Fast,
Waveform Data,,Waveform Data,,
1, ,-52, ,
-1, ,-52, ,
1, ,-51, ,
-1, ,-51, ,
-1, ,-52, ,
1, ,-51, ,
1, ,-52, ,
-1, ,-52, ,
1, ,-51, ,
-1, ,-51, ,
-1, ,-52, ,
1, ,-51, ,
1, ,-52, ,
-1, ,-52, ,
1, ,-51, ,
-1, ,-51, ,
-1, ,-52, ,
1, ,-51, ,
1, ,-52, ,
-1, ,-52, ,
1, ,-52, ,
-1, ,-51, ,
-1, ,-52, ,
1, ,-51, ,
1, ,-52, ,
-1, ,-52, ,
1, ,-51, ,
-1, ,-51, ,
-1, ,-52, ,
1, ,-51, ,
1, ,-52, ,
-1, ,-52, ,
2, ,-51, ,
-1, ,-51, ,
-1, ,-52, ,
1, ,-51, ,
1, ,-52, ,
-1, ,-52, ,
1, ,-51, ,
-1, ,-51, ,
-1, ,-52, ,
1, ,-51, ,
1, ,-52, ,
-1, ,-52, ,
1, ,-52, ,
-1, ,-51, ,
-1, ,-52, ,
1, ,-51, ,
1, ,-51, ,
-1, ,-52, ,
2, ,-51, ,
-1, ,-51, ,
1, ,-52, ,
1, ,-52, ,
1, ,-52, ,
-1, ,-52, ,
2, ,-51, ,
-1, ,-51, ,
-1, ,-52, ,
1, ,-51, ,
1, ,-52, ,
-1, ,-52, ,
1, ,-51, ,
-1, ,-51, ,
-1, ,-52, ,
1, ,-51, ,
1, ,-52, ,
-1, ,-52, ,
2, ,-52, ,
-1, ,-51, ,
-1, ,-52, ,
1, ,-50, ,
1, ,-52, ,
-1, ,-52, ,
1, ,-51, ,
-1, ,-51, ,
-1, ,-52, ,
1, ,-51, ,
1, ,-52, ,
-1, ,-52, ,
1, ,-51, ,
-1, ,-51, ,
-1, ,-52, ,
1, ,-51, ,
1, ,-52, ,
-1, ,-52, ,
1, ,-51, ,
-1, ,-51, ,
-1, ,-52, ,
1, ,-51, ,
1, ,-52, ,
-2, ,-52, ,
1, ,-52, ,
-1, ,-51, ,
-1, ,-52, ,
1, ,-51, ,
1, ,-52, ,
-1, ,-52, ,
1, ,-51, ,
-1, ,-51, ,
-1, ,-52, ,
1, ,-51, ,
1, ,-52, ,
-1, ,-52, ,
1, ,-51, ,
-1, ,-51, ,
-1, ,-52, ,
1, ,-51, ,
1, ,-52, ,
-1, ,-52, ,
1, ,-51, ,
-1, ,-51, ,
-1, ,-52, ,
1, ,-51, ,
1, ,-52, ,
-1, ,-52, ,
1, ,-51, ,
-1, ,-51, ,
-1, ,-52, ,
1, ,-51, ,
1, ,-52, ,
-1, ,-52, ,
1, ,-51, ,
-1, ,-51, ,
-1, ,-52, ,
1, ,-51, ,
1, ,-52, ,
-1, ,-52, ,
1, ,-51, ,
-1, ,-51, ,
-1, ,-52, ,
1, ,-51, ,
1, ,-52, ,
-1, ,-52, ,
1, ,-51, ,
-1, ,-51, ,
-1, ,-52, ,
1, ,-51, ,
1, ,-52, ,
-1, ,-52, ,
1, ,-51, ,
-1, ,-51, ,
-1, ,-52, ,
1, ,-51, ,
1, ,-52, ,
-1, ,-52, ,
2, ,-51, ,
-1, ,-51, ,
-1, ,-52, ,
1, ,-51, ,
1, ,-52, ,
-1, ,-52, ,
1, ,-51, ,
-1, ,-51, ,
1, ,-52, ,
1, ,-51, ,
1, ,-52, ,
-1, ,-52, ,
2, ,-51, ,
-1, ,-51, ,
-1, ,-52, ,
1, ,-52, ,
1, ,-52, ,
-1, ,-52, ,
1, ,-51, ,
-1, ,-51, ,
-1, ,-52, ,
1, ,-50, ,
1, ,-52, ,
-1, ,-52, ,
1, ,-51, ,
-1, ,-51, ,
-1, ,-52, ,
1, ,-51, ,
1, ,-52, ,
-1, ,-52, ,
1, ,-51, ,
-1, ,-51, ,
-1, ,-52, ,
1, ,-50, ,
1, ,-52, ,
-1, ,-52, ,
2, ,-51, ,
-1, ,-51, ,
-1, ,-52, ,
1, ,-51, ,
1, ,-52, ,
-1, ,-52, ,
1, ,-52, ,
-1, ,-51, ,
-1, ,-52, ,
1, ,-51, ,
1, ,-52, ,
-1, ,-52, ,
1, ,-51, ,
-1, ,-51, ,
-1, ,-52, ,
1, ,-51, ,
1, ,-52, ,
-1, ,-52, ,
1, ,-52, ,
-1, ,-52, ,
-1, ,-52, ,
1, ,-51, ,
1, ,-52, ,
-1, ,-52, ,
2, ,-51, ,
-1, ,-51, ,
-1, ,-52, ,
1, ,-51, ,
1, ,-52, ,
-1, ,-52, ,
1, ,-51, ,
-1, ,-51, ,
-1, ,-52, ,
1, ,-51, ,
1, ,-52, ,
-1, ,-52, ,
1, ,-51, ,
-1, ,-51, ,
-1, ,-52, ,
1, ,-51, ,
1, ,-52, ,
-1, ,-52, ,
1, ,-52, ,
-1, ,-51, ,
-1, ,-52, ,
1, ,-51, ,
1, ,-51, ,
-1, ,-52, ,
1, ,-51, ,
-1, ,-51, ,
-1, ,-52, ,
1, ,-51, ,
1, ,-52, ,
-1, ,-52, ,
1, ,-51, ,
-1, ,-51, ,
-1, ,-52, ,
1, ,-51, ,
1, ,-52, ,
-2, ,-52, ,
1, ,-51, ,
-1, ,-51, ,
-1, ,-52, ,
1, ,-51, ,
1, ,-52, ,
-1, ,-52, ,
1, ,-51, ,
-1, ,-51, ,
-1, ,-52, ,
1, ,-51, ,
1, ,-52, ,
-1, ,-52, ,
1, ,-51, ,
-1, ,-51, ,
-1, ,-52, ,
1, ,-51, ,
1, ,-52, ,
-1, ,-52, ,
1, ,-52, ,
-1, ,-51, ,
-1, ,-52, ,
1, ,-51, ,
1, ,-52, ,
-1, ,-52, ,
1, ,-51, ,
-1, ,-51, ,
-1, ,-52, ,
1, ,-51, ,
1, ,-51, ,
-1, ,-52, ,
1, ,-51, ,
-1, ,-51, ,
-1, ,-52, ,
1, ,-51, ,
1, ,-52, ,
-1, ,-52, ,
1, ,-51, ,
-1, ,-51, ,
1, ,-52, ,
1, ,-51, ,
1, ,-52, ,
-1, ,-52, ,
1, ,-52, ,
-1, ,-51, ,
-1, ,-52, ,
1, ,-51, ,
1, ,-52, ,
-1, ,-52, ,
1, ,-51, ,
-1, ,-51, ,
-1, ,-52, ,
1, ,-51, ,
1, ,-52, ,
-1, ,-52, ,
1, ,-51, ,
-1, ,-51, ,
-1, ,-52, ,
1, ,-51, ,
1, ,-52, ,
-1, ,-52, ,
2, ,-51, ,
-1, ,-51, ,
-1, ,-52, ,
1, ,-51, ,
1, ,-40, ,
-1, ,-20, ,
2, ,-4, ,
-1, ,8, ,
1, ,17, ,
1, ,23, ,
1, ,28, ,
-1, ,33, ,
1, ,35, ,
-1, ,37, ,
-1, ,39, ,
1, ,39, ,
1, ,40, ,
-1, ,41, ,
1, ,41, ,
1, ,41, ,
-1, ,42, ,
1, ,42, ,
1, ,42, ,
-1, ,42, ,
2, ,42, ,
-1, ,42, ,
-1, ,43, ,
1, ,42, ,
1, ,42, ,
-1, ,43, ,
2, ,42, ,
-1, ,42, ,
-1, ,42, ,
1, ,42, ,
1, ,42, ,
-1, ,42, ,
1, ,42, ,
-1, ,42, ,
-1, ,43, ,
1, ,41, ,
1, ,42, ,
-1, ,42, ,
1, ,42, ,
-1, ,42, ,
-1, ,42, ,
1, ,42, ,
1, ,42, ,
-1, ,42, ,
2, ,42, ,
-1, ,42, ,
-1, ,43, ,
1, ,42, ,
1, ,42, ,
-1, ,42, ,
1, ,42, ,
-1, ,42, ,
-1, ,42, ,
1, ,41, ,
1, ,42, ,
-1, ,42, ,
1, ,42, ,
-1, ,42, ,
-1, ,42, ,
1, ,41, ,
-1, ,42, ,
-1, ,42, ,
1, ,42, ,
-1, ,42, ,
-1, ,42, ,
1, ,42, ,
-1, ,42, ,
-1, ,42, ,
1, ,41, ,
-1, ,42, ,
-1, ,42, ,
1, ,41, ,
-1, ,42, ,
-1, ,42, ,
1, ,42, ,
-1, ,41, ,
-1, ,42, ,
1, ,41, ,
1, ,42, ,
-1, ,42, ,
1, ,41, ,
-1, ,42, ,
-1, ,42, ,
1, ,42, ,
1, ,42, ,
-1, ,42, ,
1, ,42, ,
-1, ,42, ,
-1, ,42, ,
1, ,42, ,
1, ,42, ,
-1, ,42, ,
2, ,41, ,
-1, ,41, ,
-1, ,42, ,
1, ,41, ,
1, ,42, ,
-1, ,42, ,
1, ,42, ,
-1, ,41, ,
-1, ,42, ,
1, ,42, ,
1, ,42, ,
-1, ,42, ,
1, ,41, ,
-1, ,42, ,
-1, ,42, ,
1, ,41, ,
1, ,42, ,
-1, ,42, ,
1, ,42, ,
-1, ,41, ,
-1, ,42, ,
1, ,41, ,
1, ,42, ,
-1, ,42, ,
2, ,42, ,
-1, ,42, ,
-1, ,42, ,
1, ,41, ,
1, ,42, ,
-1, ,42, ,
2, ,41, ,
-1, ,41, ,
1, ,42, ,
1, ,41, ,
1, ,42, ,
-1, ,42, ,
1, ,41, ,
1, ,42, ,
-1, ,42, ,
1, ,41, ,
1, ,42, ,
-1, ,42, ,
2, ,42, ,
-1, ,41, ,
-1, ,42, ,
2, ,42, ,
1, ,42, ,
-1, ,42, ,
2, ,41, ,
-1, ,42, ,
-1, ,42, ,
1, ,41, ,
1, ,42, ,
-1, ,42, ,
2, ,42, ,
1, ,41, ,
-1, ,42, ,
1, ,41, ,
1, ,42, ,
-1, ,42, ,
2, ,42, ,
-1, ,42, ,
-1, ,39, ,
1, ,20, ,
-1, ,1, ,
-1, ,-12, ,
1, ,-22, ,
-1, ,-30, ,
-1, ,-36, ,
1, ,-40, ,
1, ,-43, ,
-1, ,-46, ,
1, ,-46, ,
-1, ,-47, ,
-1, ,-50, ,
1, ,-50, ,
1, ,-51, ,
-1, ,-52, ,
1, ,-51, ,
-1, ,-52, ,
-1, ,-53, ,
1, ,-51, ,
1, ,-52, ,
-1, ,-53, ,
1, ,-52, ,
-1, ,-52, ,
-1, ,-53, ,
1, ,-52, ,
1, ,-52, ,
-1, ,-52, ,
1, ,-52, ,
-1, ,-52, ,
-1, ,-53, ,
1, ,-51, ,
1, ,-52, ,
-1, ,-53, ,
1, ,-52, ,
-1, ,-51, ,
-1, ,-52, ,
1, ,-51, ,
1, ,-52, ,
-1, ,-52, ,
1, ,-52, ,
-1, ,-52, ,
-1, ,-52, ,
1, ,-51, ,
1, ,-52, ,
-1, ,-52, ,
1, ,-52, ,
-1, ,-51, ,
-1, ,-52, ,
1, ,-51, ,
1, ,-52, ,
-1, ,-52, ,
1, ,-52, ,
-1, ,-52, ,
-1, ,-52, ,
1, ,-51, ,
1, ,-52, ,
-1, ,-52, ,
1, ,-52, ,
-1, ,-51, ,
-1, ,-52, ,
1, ,-51, ,
1, ,-52, ,
-1, ,-52, ,
1, ,-52, ,
-1, ,-51, ,
-1, ,-52, ,
1, ,-51, ,
1, ,-52, ,
-1, ,-52, ,
1, ,-51, ,
-1, ,-51, ,
-1, ,-52, ,
1, ,-51, ,
1, ,-52, ,
-1, ,-52, ,
1, ,-52, ,
-1, ,-52, ,
-1, ,-52, ,
1, ,-51, ,
1, ,-51, ,
-1, ,-52, ,
2, ,-51, ,
-1, ,-51, ,
-1, ,-52, ,
1, ,-51, ,
1, ,-52, ,
-1, ,-52, ,
1, ,-52, ,
-1, ,-51, ,
-1, ,-52, ,
1, ,-51, ,
1, ,-52, ,
-1, ,-52, ,
1, ,-51, ,
-1, ,-51, ,
-1, ,-52, ,
1, ,-51, ,
1, ,-52, ,
-1, ,-52, ,
1, ,-51, ,
-1, ,-51, ,
-1, ,-52, ,
1, ,-51, ,
1, ,-52, ,
-1, ,-52, ,
1, ,-51, ,
-1, ,-51, ,
-1, ,-52, ,
1, ,-51, ,
1, ,-52, ,
-1, ,-52, ,
1, ,-51, ,
-1, ,-51, ,
-1, ,-52, ,
1, ,-51, ,
1, ,-51, ,
-1, ,-52, ,
1, ,-51, ,
-1, ,-51, ,
-1, ,-52, ,
1, ,-51, ,
1, ,-52, ,
-1, ,-52, ,
1, ,-52, ,
-1, ,-51, ,
-1, ,-52, ,
1, ,-51, ,
1, ,-52, ,
-1, ,-52, ,
1, ,-51, ,
-1, ,-51, ,
-1, ,-52, ,
1, ,-51, ,
1, ,-52, ,
-1, ,-52, ,
1, ,-51, ,
-1, ,-51, ,
-1, ,-52, ,
1, ,-51, ,
1, ,-52, ,
-1, ,-52, ,
1, ,-51, ,
-1, ,-51, ,
-1, ,-52, ,
1, ,-51, ,
1, ,-52, ,
-1, ,-52, ,
1, ,-52, ,
-1, ,-51, ,
-1, ,-52, ,
1, ,-51, ,
1, ,-52, ,
-1, ,-52, ,
1, ,-51, ,
-1, ,-51, ,
-1, ,-52, ,
1, ,-51, ,
1, ,-51, ,
-1, ,-52, ,
1, ,-52, ,
-1, ,-51, ,
-1, ,-52, ,
1, ,-51, ,
1, ,-51, ,
-1, ,-52, ,
1, ,-51, ,
-1, ,-51, ,
-1, ,-52, ,
1, ,-51, ,
1, ,-51, ,
-1, ,-52, ,
1, ,-52, ,
-1, ,-51, ,
-1, ,-52, ,
1, ,-51, ,
1, ,-52, ,
-1, ,-52, ,
1, ,-51, ,
-1, ,-51, ,
-1, ,-52, ,
1, ,-51, ,
1, ,-52, ,
-2, ,-52, ,
1, ,-51, ,
-1, ,-51, ,
-1, ,-52, ,
1, ,-51, ,
1, ,-52, ,
-1, ,-52, ,
1, ,-51, ,
-1, ,-51, ,
-1, ,-52, ,
1, ,-51, ,
1, ,-51, ,
-1, ,-52, ,
1, ,-51, ,
-1, ,-51, ,
-1, ,-52, ,
1, ,-50, ,
1, ,-52, ,
-1, ,-52, ,
1, ,-51, ,
-1, ,-51, ,
-1, ,-52, ,
1, ,-51, ,
1, ,-52, ,
-1, ,-52, ,
1, ,-51, ,
-1, ,-51, ,
-1, ,-52, ,
1, ,-51, ,
1, ,-52, ,
-1, ,-52, ,
1, ,-51, ,
-1, ,-51, ,
-1, ,-52, ,
1, ,-51, ,
1, ,-51, ,
-1, ,-52, ,
1, ,-51, ,
-1, ,-51, ,
-1, ,-52, ,
1, ,-51, ,
1, ,-52, ,
-1, ,-52, ,
1, ,-51, ,
-1, ,-51, ,
-1, ,-52, ,
1, ,-51, ,
1, ,-52, ,
-1, ,-52, ,
1, ,-51, ,
-1, ,-52, ,
-1, ,-52, ,
1, ,-51, ,
1, ,-52, ,
-1, ,-52, ,
2, ,-51, ,
-1, ,-51, ,
-1, ,-52, ,
1, ,-51, ,
1, ,-52, ,
-1, ,-52, ,
1, ,-51, ,
-1, ,-51, ,
-1, ,-52, ,
1, ,-51, ,
1, ,-51, ,
-1, ,-52, ,
1, ,-51, ,
-1, ,-51, ,
-1, ,-52, ,
1, ,-51, ,
1, ,-52, ,
-1, ,-52, ,
1, ,-51, ,
-1, ,-51, ,
-1, ,-52, ,
1, ,-50, ,
1, ,-51, ,
-1, ,-52, ,
1, ,-51, ,
-1, ,-51, ,
-1, ,-52, ,
1, ,-51, ,
1, ,-52, ,
-1, ,-52, ,
2, ,-52, ,
-1, ,-51, ,
-1, ,-52, ,
1, ,-51, ,
1, ,-52, ,
-1, ,-52, ,
1, ,-51, ,
-1, ,-51, ,
-1, ,-52, ,
1, ,-51, ,
1, ,-52, ,
-1, ,-52, ,
1, ,-51, ,
-1, ,-51, ,
-1, ,-52, ,
1, ,-50, ,
1, ,-52, ,
-1, ,-52, ,
1, ,-51, ,
-1, ,-51, ,
-1, ,-52, ,
1, ,-51, ,
1, ,-52, ,
-1, ,-52, ,
1, ,-51, ,
-1, ,-51, ,
-1, ,-52, ,
99, ,-51, ,
68, ,-52, ,
39, ,-52, ,
26, ,-51, ,
15, ,-51, ,
11, ,-52, ,
8, ,-51, ,
6, ,-52, ,
5, ,-52, ,
6, ,-52, ,
3, ,-51, ,
3, ,-52, ,
5, ,-51, ,
5, ,-52, ,
2, ,-52, ,
5, ,-51, ,
3, ,-51, ,
2, ,-52, ,
3, ,-51, ,
3, ,-52, ,
2, ,-52, ,
3, ,-52, ,
2, ,-52, ,
2, ,-52, ,
3, ,-51, ,
3, ,-52, ,
1, ,-52, ,
3, ,-51, ,
2, ,-51, ,
2, ,-52, ,
3, ,-51, ,
2, ,-52, ,
1, ,-52, ,
3, ,-51, ,
2, ,-51, ,
2, ,-52, ,
3, ,-51, ,
2, ,-52, ,
1, ,-52, ,
3, ,-51, ,
2, ,-51, ,
2, ,-52, ,
3, ,-51, ,
3, ,-51, ,
2, ,-52, ,
3, ,-51, ,
2, ,-51, ,
2, ,-52, ,
3, ,-50, ,
2, ,-52, ,
2, ,-52, ,
3, ,-51, ,
2, ,-51, ,
2, ,-52, ,
3, ,-51, ,
2, ,-51, ,
2, ,-52, ,
3, ,-52, ,
2, ,-51, ,
2, ,-52, ,
3, ,-51, ,
3, ,-52, ,
2, ,-52, ,
3, ,-51, ,
1, ,-51, ,
2, ,-52, ,
2, ,-51, ,
2, ,-52, ,
1, ,-52, ,
3, ,-52, ,
2, ,-51, ,
2, ,-52, ,
2, ,-51, ,
2, ,-52, ,
1, ,-52, ,
3, ,-51, ,
2, ,-51, ,
2, ,-52, ,
3, ,-51, ,
2, ,-51, ,
1, ,-52, ,
3, ,-51, ,
2, ,-51, ,
2, ,-52, ,
3, ,-51, ,
3, ,-52, ,
1, ,-52, ,
3, ,-51, ,
2, ,-51, ,
2, ,-52, ,
3, ,-51, ,
2, ,-52, ,
1, ,-52, ,
3, ,-52, ,
1, ,-51, ,
2, ,-52, ,
3, ,-50, ,
2, ,-52, ,
1, ,-52, ,
3, ,-51, ,
2, ,-51, ,
2, ,-52, ,
2, ,-51, ,
2, ,-52, ,
1, ,-52, ,
2, ,-51, ,
1, ,-51, ,
2, ,-52, ,
2, ,-51, ,
2, ,-52, ,
1, ,-52, ,
3, ,-51, ,
2, ,-51, ,
2, ,-52, ,
2, ,-51, ,
2, ,-52, ,
1, ,-52, ,
2, ,-52, ,
1, ,-51, ,
1, ,-52, ,
2, ,-51, ,
2, ,-52, ,
1, ,-52, ,
2, ,-51, ,
2, ,-51, ,
2, ,-52, ,
2, ,-51, ,
2, ,-52, ,
1, ,-52, ,
2, ,-51, ,
1, ,-51, ,
1, ,-52, ,
2, ,-51, ,
2, ,-51, ,
1, ,-52, ,
2, ,-51, ,
1, ,-51, ,
2, ,-52, ,
2, ,-51, ,
2, ,-52, ,
1, ,-52, ,
2, ,-52, ,
1, ,-51, ,
2, ,-52, ,
2, ,-51, ,
2, ,-52, ,
1, ,-52, ,
2, ,-52, ,
1, ,-51, ,
1, ,-52, ,
2, ,-51, ,
1, ,-51, ,
1, ,-52, ,
3, ,-51, ,
1, ,-51, ,
2, ,-52, ,
2, ,-51, ,
2, ,-52, ,
1, ,-52, ,
2, ,-51, ,
1, ,-51, ,
2, ,-52, ,
2, ,-51, ,
2, ,-52, ,
1, ,-52, ,
2, ,-52, ,
1, ,-51, ,
1, ,-52, ,
2, ,-51, ,
2, ,-52, ,
1, ,-52, ,
2, ,-51, ,
1, ,-51, ,
2, ,-52, ,
2, ,-51, ,
2, ,-52, ,
1, ,-52, ,
2, ,-51, ,
1, ,-52, ,
1, ,-52, ,
2, ,-50, ,
2, ,-52, ,
1, ,-52, ,
2, ,-51, ,
1, ,-51, ,
1, ,-52, ,
2, ,-51, ,
2, ,-51, ,
1, ,-52, ,
3, ,-51, ,
1, ,-51, ,
1, ,-52, ,
2, ,-50, ,
2, ,-52, ,
1, ,-52, ,
2, ,-51, ,
1, ,-51, ,
1, ,-52, ,
2, ,-51, ,
2, ,-51, ,
1, ,-52, ,
3, ,-52, ,
1, ,-51, ,
2, ,-52, ,
2, ,-50, ,
1, ,-52, ,
1, ,-52, ,
2, ,-51, ,
1, ,-51, ,
2, ,-52, ,
2, ,-51, ,
2, ,-52, ,
1, ,-52, ,
2, ,-51, ,
1, ,-51, ,
2, ,-52, ,
2, ,-50, ,
2, ,-52, ,
1, ,-52, ,
2, ,-51, ,
1, ,-51, ,
2, ,-52, ,
2, ,-51, ,
2, ,-52, ,
1, ,-52, ,
2, ,-51, ,
1, ,-51, ,
1, ,-52, ,
2, ,-51, ,
2, ,-52, ,
1, ,-52, ,
2, ,-51, ,
1, ,-51, ,
1, ,-52, ,
2, ,-51, ,
2, ,-51, ,
1, ,-52, ,
2, ,-52, ,
1, ,-51, ,
1, ,-52, ,
2, ,-50, ,
2, ,-52, ,
1, ,-52, ,
2, ,-51, ,
1, ,-51, ,
2, ,-52, ,
2, ,-51, ,
1, ,-51, ,
1, ,-51, ,
2, ,-51, ,
1, ,-51, ,
1, ,-52, ,
2, ,-50, ,
1, ,-52, ,
-1, ,-52, ,
2, ,-51, ,
1, ,-51, ,
1, ,-52, ,
2, ,-51, ,
1, ,-52, ,
1, ,-52, ,
2, ,-52, ,
1, ,-51, ,
1, ,-52, ,
2, ,-50, ,
1, ,-52, ,
-1, ,-52, ,
2, ,-51, ,
1, ,-51, ,
1, ,-52, ,
2, ,-51, ,
1, ,-52, ,
1, ,-52, ,
2, ,-52, ,
1, ,-51, ,
1, ,-52, ,
2, ,-51, ,
1, ,-51, ,
-1, ,-52, ,
2, ,-51, ,
1, ,-51, ,
1, ,-52, ,
2, ,-51, ,
1, ,-52, ,
1, ,-52, ,
2, ,-52, ,
1, ,-51, ,
1, ,-52, ,
2, ,-51, ,
1, ,-51, ,
1, ,-52, ,
2, ,-51, ,
1, ,-51, ,
1, ,-52, ,
2, ,-51, ,
2, ,-52, ,
1, ,-52, ,
2, ,-51, ,
1, ,-51, ,
1, ,-52, ,
2, ,-50, ,
1, ,-51, ,
-1, ,-52, ,
2, ,-51, ,
1, ,-51, ,
1, ,-52, ,
1, ,-51, ,
2, ,-52, ,
1, ,-52, ,
2, ,-52, ,
1, ,-51, ,
1, ,-52, ,
2, ,-51, ,
2, ,-51, ,
1, ,-52, ,
2, ,-51, ,
1, ,-51, ,
1, ,-52, ,
2, ,-51, ,
1, ,-51, ,
1, ,-51, ,
2, ,-51, ,
1, ,-51, ,
2, ,-52, ,
2, ,-50, ,
2, ,-52, ,
1, ,-52, ,
2, ,-51, ,
1, ,-51, ,
1, ,-52, ,
1, ,-51, ,
1, ,-52, ,
1, ,-45, ,
2, ,-24, ,
1, ,-7, ,
1, ,5, ,
2, ,15, ,
2, ,22, ,
1, ,27, ,
2, ,32, ,
1, ,35, ,
1, ,37, ,
1, ,38, ,
1, ,39, ,
1, ,40, ,
2, ,41, ,
1, ,41, ,
1, ,42, ,
2, ,41, ,
1, ,42, ,
1, ,42, ,
2, ,42, ,
1, ,42, ,
1, ,43, ,
1, ,42, ,
1, ,42, ,
1, ,42, ,
2, ,43, ,
1, ,42, ,
1, ,43, ,
2, ,42, ,
1, ,42, ,
1, ,42, ,
2, ,42, ,
1, ,42, ,
1, ,43, ,
2, ,42, ,
1, ,42, ,
1, ,42, ,
2, ,42, ,
1, ,42, ,
1, ,42, ,
2, ,41, ,
1, ,42, ,
1, ,42, ,
2, ,42, ,
1, ,42, ,
1, ,42, ,
1, ,41, ,
1, ,42, ,
1, ,42, ,
2, ,42, ,
1, ,42, ,
1, ,42, ,
2, ,42, ,
1, ,42, ,
-1, ,42, ,
2, ,41, ,
1, ,42, ,
1, ,43, ,
2, ,42, ,
1, ,42, ,
-1, ,42, ,
2, ,42, ,
1, ,42, ,
1, ,42, ,
2, ,41, ,
1, ,42, ,
-1, ,42, ,
2, ,42, ,
1, ,42, ,
1, ,42, ,
1, ,42, ,
1, ,42, ,
-1, ,42, ,
2, ,42, ,
1, ,42, ,
1, ,42, ,
2, ,41, ,
1, ,42, ,
-1, ,42, ,
2, ,42, ,
1, ,42, ,
1, ,42, ,
1, ,41, ,
1, ,42, ,
-1, ,42, ,
2, ,42, ,
1, ,42, ,
1, ,42, ,
1, ,41, ,
1, ,42, ,
-1, ,42, ,
2, ,41, ,
1, ,42, ,
1, ,42, ,
1, ,41, ,
1, ,42, ,
-1, ,42, ,
2, ,42, ,
1, ,41, ,
1, ,42, ,
2, ,41, ,
1, ,42, ,
-1, ,42, ,
2, ,41, ,
1, ,42, ,
1, ,42, ,
2, ,41, ,
1, ,42, ,
-1, ,42, ,
2, ,42, ,
1, ,42, ,
1, ,42, ,
1, ,41, ,
1, ,42, ,
-1, ,42, ,
2, ,41, ,
1, ,42, ,
1, ,42, ,
2, ,41, ,
1, ,42, ,
-1, ,42, ,
2, ,42, ,
1, ,42, ,
1, ,42, ,
1, ,41, ,
1, ,42, ,
-1, ,42, ,
2, ,41, ,
1, ,42, ,
1, ,42, ,
2, ,41, ,
1, ,42, ,
1, ,42, ,
2, ,42, ,
1, ,42, ,
1, ,42, ,
2, ,41, ,
1, ,42, ,
-1, ,42, ,
2, ,41, ,
1, ,42, ,
1, ,42, ,
2, ,41, ,
1, ,42, ,
-1, ,42, ,
2, ,42, ,
1, ,42, ,
1, ,42, ,
2, ,41, ,
1, ,42, ,
-1, ,42, ,
2, ,41, ,
1, ,42, ,
1, ,42, ,
2, ,40, ,
1, ,25, ,
-1, ,6, ,
2, ,-9, ,
1, ,-20, ,
1, ,-28, ,
1, ,-34, ,
1, ,-39, ,
-1, ,-42, ,
2, ,-44, ,
1, ,-46, ,
1, ,-49, ,
1, ,-50, ,
1, ,-50, ,
-1, ,-51, ,
2, ,-51, ,
1, ,-51, ,
1, ,-52, ,
1, ,-51, ,
1, ,-52, ,
-1, ,-53, ,
2, ,-52, ,
1, ,-52, ,
1, ,-53, ,
1, ,-52, ,
1, ,-52, ,
-1, ,-52, ,
2, ,-52, ,
-1, ,-52, ,
1, ,-52, ,
1, ,-51, ,
1, ,-52, ,
-1, ,-52, ,
2, ,-52, ,
1, ,-51, ,
1, ,-52, ,
1, ,-51, ,
1, ,-52, ,
-1, ,-52, ,
2, ,-52, ,
-1, ,-52, ,
1, ,-53, ,
1, ,-51, ,
1, ,-52, ,
-1, ,-52, ,
2, ,-52, ,
-1, ,-52, ,
1, ,-52, ,
1, ,-51, ,
1, ,-52, ,
-1, ,-52, ,
2, ,-52, ,
1, ,-51, ,
1, ,-52, ,
1, ,-51, ,
1, ,-52, ,
-1, ,-52, ,
2, ,-51, ,
1, ,-51, ,
-1, ,-52, ,
1, ,-51, ,
1, ,-52, ,
-1, ,-52, ,
2, ,-52, ,
1, ,-51, ,
1, ,-52, ,
1, ,-50, ,
1, ,-52, ,
-1, ,-52, ,
2, ,-51, ,
1, ,-51, ,
1, ,-52, ,
1, ,-51, ,
1, ,-52, ,
-1, ,-52, ,
2, ,-51, ,
-1, ,-51, ,
1, ,-52, ,
1, ,-51, ,
1, ,-52, ,
-1, ,-52, ,
2, ,-51, ,
-1, ,-51, ,
-1, ,-52, ,
1, ,-51, ,
1, ,-52, ,
-1, ,-52, ,
2, ,-51, ,
-1, ,-51, ,
1, ,-52, ,
2, ,-51, ,
1, ,-52, ,
-1, ,-52, ,
2, ,-51, ,
1, ,-51, ,
1, ,-52, ,
1, ,-51, ,
1, ,-52, ,
-1, ,-52, ,
2, ,-52, ,
-1, ,-51, ,
1, ,-52, ,
1, ,-51, ,
1, ,-52, ,
-1, ,-52, ,
2, ,-51, ,
-1, ,-51, ,
1, ,-52, ,
1, ,-51, ,
2, ,-52, ,
-1, ,-51, ,
2, ,-52, ,
-1, ,-51, ,
1, ,-52, ,
1, ,-51, ,
1, ,-51, ,
-1, ,-52, ,
2, ,-51, ,
1, ,-51, ,
1, ,-52, ,
1, ,-51, ,
1, ,-52, ,
-1, ,-52, ,
2, ,-51, ,
1, ,-51, ,
1, ,-52, ,
1, ,-51, ,
1, ,-51, ,
-1, ,-52, ,
2, ,-51, ,
1, ,-51, ,
-1, ,-52, ,
1, ,-51, ,
1, ,-51, ,
-1, ,-52, ,
2, ,-51, ,
-1, ,-51, ,
1, ,-52, ,
1, ,-51, ,
1, ,-51, ,
-1, ,-52, ,
2, ,-51, ,
1, ,-51, ,
1, ,-52, ,
1, ,-51, ,
1, ,-52, ,
-1, ,-52, ,
2, ,-52, ,
-1, ,-51, ,
1, ,-52, ,
1, ,-51, ,
1, ,-52, ,
-1, ,-52, ,
2, ,-51, ,
1, ,-51, ,
-1, ,-52, ,
1, ,-51, ,
1, ,-51, ,
-1, ,-52, ,
1, ,-52, ,
-1, ,-52, ,
1, ,-52, ,
2, ,-51, ,
1, ,-51, ,
-1, ,-52, ,
1, ,-51, ,
-1, ,-51, ,
-1, ,-52, ,
1, ,-51, ,
1, ,-52, ,
-1, ,-52, ,
2, ,-51, ,
-1, ,-51, ,
-1, ,-52, ,
1, ,-51, ,
1, ,-52, ,
-1, ,-52, ,
2, ,-51, ,
-1, ,-51, ,
-1, ,-52, ,
1, ,-52, ,
1, ,-51, ,
-1, ,-52, ,
1, ,-51, ,
-1, ,-51, ,
-1, ,-52, ,
1, ,-50, ,
1, ,-51, ,
-1, ,-52, ,
2, ,-51, ,
-1, ,-51, ,
-1, ,-52, ,
1, ,-51, ,
1, ,-52, ,
-1, ,-52, ,
2, ,-51, ,
-1, ,-51, ,
-1, ,-52, ,
1, ,-51, ,
1, ,-51, ,
-1, ,-52, ,
2, ,-51, ,
-1, ,-51, ,
-1, ,-52, ,
1, ,-51, ,
1, ,-52, ,
-1, ,-51, ,
2, ,-52, ,
-1, ,-51, ,
-1, ,-52, ,
1, ,-51, ,
1, ,-52, ,
-1, ,-52, ,
2, ,-51, ,
-1, ,-51, ,
-1, ,-52, ,
1, ,-51, ,
1, ,-51, ,
-1, ,-51, ,
2, ,-51, ,
-1, ,-51, ,
-1, ,-52, ,
1, ,-51, ,
1, ,-52, ,
-1, ,-52, ,
2, ,-51, ,
-1, ,-51, ,
1, ,-52, ,
1, ,-51, ,
1, ,-52, ,
-1, ,-52, ,
2, ,-51, ,
-1, ,-52, ,
-1, ,-52, ,
1, ,-51, ,
2, ,-52, ,
-1, ,-52, ,
2, ,-51, ,
-1, ,-51, ,
1, ,-52, ,
1, ,-51, ,
1, ,-52, ,
-1, ,-51, ,
2, ,-51, ,
-1, ,-52, ,
-1, ,-52, ,
1, ,-51, ,
1, ,-51, ,
-1, ,-52, ,
2, ,-51, ,
-1, ,-51, ,
-1, ,-52, ,
1, ,-51, ,
1, ,-52, ,
-1, ,-52, ,
1, ,-51, ,
-1, ,-52, ,
-1, ,-52, ,
1, ,-51, ,
1, ,-51, ,
-1, ,-52, ,
2, ,-51, ,
-1, ,-51, ,
-1, ,-52, ,
1, ,-51, ,
1, ,-51, ,
-1, ,-52, ,
2, ,-52, ,
-1, ,-52, ,
1, ,-52, ,
1, ,-51, ,
1, ,-52, ,
-1, ,-52, ,
2, ,-51, ,
-1, ,-51, ,
-1, ,-52, ,
1, ,-51, ,
1, ,-52, ,
-1, ,-52, ,
2, ,-51, ,
-1, ,-51, ,
-1, ,-52, ,
1, ,-51, ,
1, ,-52, ,
-1, ,-52, ,
2, ,-51, ,
-1, ,-51, ,
-1, ,-52, ,
1, ,-51, ,
1, ,-51, ,
-1, ,-52, ,
2, ,-52, ,
-1, ,-51, ,
-1, ,-52, ,
1, ,-51, ,
1, ,-52, ,
-1, ,-52, ,
2, ,-51, ,
-1, ,-51, ,
-1, ,-52, ,
1, ,-51, ,
1, ,-52, ,
-1, ,-52, ,
1, ,-51, ,
-1, ,-51, ,
-1, ,-52, ,
1, ,-51, ,
1, ,-51, ,
-1, ,-52, ,
2, ,-51, ,
-1, ,-51, ,
-1, ,-52, ,
1, ,-51, ,
1, ,-51, ,
-1, ,-52, ,
2, ,-51, ,
-1, ,-51, ,
-1, ,-52, ,
1, ,-51, ,
1, ,-52, ,
-1, ,-52, ,
2, ,-51, ,
-1, ,-51, ,
-1, ,-52, ,
1, ,-51, ,
1, ,-52, ,
-1, ,-52, ,
1, ,-51, ,
-1, ,-51, ,
-1, ,-52, ,
1, ,-51, ,
1, ,-52, ,
-1, ,-52, ,
2, ,-51, ,
-1, ,-51, ,
-1, ,-52, ,
1, ,-51, ,
1, ,-52, ,
-1, ,-52, ,
1, ,-51, ,
-1, ,-51, ,
-1, ,-52, ,
1, ,-51, ,
1, ,-51, ,
-1, ,-52, ,
2, ,-51, ,
1, ,-51, ,
-1, ,-52, ,
1, ,-52, ,
1, ,-52, ,
-1, ,-52, ,
2, ,-51, ,
-1, ,-51, ,
-1, ,-52, ,
1, ,-51, ,
1, ,-51, ,
-1, ,-51, ,
2, ,-51, ,
1, ,-51, ,
-1, ,-52, ,
1, ,-51, ,
2, ,-51, ,
-1, ,-52, ,
1, ,-51, ,
-1, ,-51, ,
1, ,-52, ,
1, ,-51, ,
1, ,-51, ,
-1, ,-52, ,
2, ,-51, ,
-1, ,-51, ,
-1, ,-52, ,
1, ,-52, ,
1, ,-51, ,
-1, ,-52, ,
2, ,-51, ,
-1, ,-51, ,
1, ,-52, ,
1, ,-51, ,
1, ,-52, ,
-1, ,-52, ,
2, ,-51, ,
-1, ,-51, ,
-1, ,-52, ,
1, ,-51, ,
1, ,-52, ,
-1, ,-52, ,
2, ,-51, ,
-1, ,-52, ,
1, ,-52, ,
1, ,-51, ,
1, ,-52, ,
-1, ,-52, ,
2, ,-51, ,
-1, ,-51, ,
1, ,-52, ,
1, ,-51, ,
1, ,-51, ,
-1, ,-52, ,
1, ,-51, ,
-1, ,-51, ,
-1, ,-52, ,
1, ,-51, ,
1, ,-52, ,
-1, ,-52, ,
1, ,-51, ,
-1, ,-51, ,
-1, ,-52, ,
1, ,-51, ,
1, ,-52, ,
-1, ,-52, ,
2, ,-51, ,
-1, ,-51, ,
-1, ,-52, ,
1, ,-51, ,
1, ,-52, ,
-1, ,-52, ,
1, ,-51, ,
-1, ,-51, ,
-1, ,-52, ,
1, ,-51, ,
1, ,-52, ,
-1, ,-52, ,
1, ,-51, ,
-1, ,-51, ,
-1, ,-52, ,
1, ,-51, ,
1, ,-52, ,
-1, ,-52, ,
2, ,-51, ,
-1, ,-52, ,
-1, ,-52, ,
1, ,-51, ,
1, ,-51, ,
-1, ,-52, ,
2, ,-51, ,
-1, ,-51, ,
-1, ,-52, ,
1, ,-51, ,
1, ,-52, ,
-1, ,-52, ,
2, ,-51, ,
-1, ,-51, ,
3, ,-52, ,
74, ,-51, ,
46, ,-52, ,
27, ,-52, ,
18, ,-51, ,
11, ,-51, ,
8, ,-52, ,
7, ,-51, ,
5, ,-52, ,
3, ,-52, ,
5, ,-51, ,
2, ,-51, ,
2, ,-52, ,
3, ,-51, ,
3, ,-52, ,
