src/varyamp_1560/temp0003515.CSV

Format,1.0B,
Memory Length,10000,Memory Length,10000,
IntpDistance,0,IntpDistance,0,
Trigger Address,4999,Trigger Address,4999,
Trigger Level,1.040E+00,Trigger Level,1.040E+00,
Source,CH1,Source,CH2,
Vertical Units,V,Vertical Units,V,
Vertical Units Div,0,Vertical Units Div,0,
Vertical Units Extend Div,16,Vertical Units Extend Div,16,
Label,,Label,,
Probe Type,0,Probe Type,0,
Probe Ratio,1.000e+01,Probe Ratio,1.000e+00,
Vertical Scale,5.000e-01,Vertical Scale,1.000e+00,
Vertical Position,-1.820e+00,Vertical Position,0.000e+00,
Horizontal Units,S,Horizontal Units,S,
Horizontal Scale,2.000E-05,Horizontal Scale,2.000E-05,
Horizontal Position,0.000E+00,Horizontal Position,0.000E+00,
Horizontal Mode,Main,Horizontal Mode,Main,
SincET Mode,Real Time,SincET Mode,Real Time,
Sampling Period,2.000e-08,Sampling Period,2.000e-08,
Horizontal Old Scale,2.000E-05,Horizontal Old Scale,2.000E-05,
Horizontal Old Position,0.000E+00,Horizontal Old Position,0.000E+00,
Firmware,V1.23,Firmware,V1.23,
Mode,Fast,Mode,Fast,
Waveform Data,,Waveform Data,,
1, ,-45, ,
1, ,-45, ,
-1, ,-45, ,
1, ,-44, ,
-1, ,-45, ,
-1, ,-45, ,
1, ,-45, ,
1, ,-44, ,
-1, ,-45, ,
1, ,-45, ,
-1, ,-45, ,
-1, ,-45, ,
1, ,-44, ,
1, ,-45, ,
-1, ,-45, ,
1, ,-44, ,
-1, ,-44, ,
-1, ,-45, ,
1, ,-45, ,
1, ,-44, ,
-1, ,-45, ,
1, ,-44, ,
-1, ,-44, ,
-1, ,-45, ,
1, ,-45, ,
1, ,-44, ,
-1, ,-45, ,
1, ,-44, ,
-1, ,-44, ,
-1, ,-45, ,
1, ,-45, ,
1, ,-44, ,
-1, ,-45, ,
1, ,-44, ,
-1, ,-45, ,
-1, ,-44, ,
1, ,-45, ,
1, ,-44, ,
-1, ,-45, ,
1, ,-44, ,
-1, ,-45, ,
-1, ,-45, ,
1, ,-45, ,
1, ,-44, ,
-1, ,-45, ,
1, ,-45, ,
-1, ,-45, ,
-1, ,-45, ,
1, ,-44, ,
1, ,-45, ,
-1, ,-45, ,
1, ,-44, ,
-1, ,-44, ,
-1, ,-45, ,
1, ,-45, ,
1, ,-44, ,
-1, ,-45, ,
1, ,-45, ,
-1, ,-45, ,
-1, ,-45, ,
1, ,-45, ,
1, ,-45, ,
-1, ,-45, ,
1, ,-44, ,
-1, ,-44, ,
1, ,-45, ,
1, ,-44, ,
1, ,-44, ,
-1, ,-45, ,
1, ,-45, ,
-1, ,-45, ,
-1, ,-45, ,
1, ,-45, ,
1, ,-45, ,
-1, ,-45, ,
1, ,-44, ,
-1, ,-44, ,
-1, ,-45, ,
1, ,-45, ,
1, ,-45, ,
-1, ,-45, ,
1, ,-45, ,
-1, ,-45, ,
-1, ,-45, ,
1, ,-44, ,
1, ,-44, ,
-1, ,-45, ,
1, ,-44, ,
-1, ,-44, ,
-1, ,-45, ,
1, ,-45, ,
1, ,-45, ,
-1, ,-45, ,
1, ,-44, ,
-1, ,-45, ,
-1, ,-45, ,
1, ,-44, ,
1, ,-44, ,
-1, ,-45, ,
1, ,-44, ,
1, ,-44, ,
-1, ,-45, ,
1, ,-45, ,
1, ,-44, ,
-1, ,-45, ,
1, ,-45, ,
-1, ,-45, ,
-1, ,-45, ,
1, ,-45, ,
1, ,-44, ,
-1, ,-45, ,
1, ,-44, ,
-1, ,-44, ,
-1, ,-45, ,
-1, ,-45, ,
1, ,-44, ,
-1, ,-45, ,
1, ,-45, ,
-1, ,-45, ,
-1, ,-45, ,
1, ,-45, ,
1, ,-45, ,
-1, ,-45, ,
1, ,-44, ,
-1, ,-45, ,
-1, ,-45, ,
1, ,-45, ,
1, ,-44, ,
-1, ,-45, ,
1, ,-44, ,
-1, ,-45, ,
-1, ,-45, ,
1, ,-45, ,
1, ,-45, ,
-1, ,-45, ,
1, ,-44, ,
-1, ,-44, ,
-1, ,-45, ,
1, ,-45, ,
1, ,-44, ,
-1, ,-45, ,
1, ,-45, ,
-1, ,-45, ,
-1, ,-45, ,
1, ,-44, ,
1, ,-45, ,
-1, ,-45, ,
1, ,-44, ,
-1, ,-44, ,
-1, ,-45, ,
1, ,-45, ,
1, ,-44, ,
-1, ,-45, ,
1, ,-44, ,
-1, ,-45, ,
-1, ,-45, ,
1, ,-44, ,
1, ,-45, ,
-1, ,-45, ,
1, ,-44, ,
-1, ,-44, ,
-1, ,-45, ,
1, ,-44, ,
1, ,-44, ,
-1, ,-45, ,
1, ,-44, ,
-1, ,-45, ,
-1, ,-45, ,
1, ,-45, ,
1, ,-45, ,
-1, ,-46, ,
1, ,-44, ,
1, ,-44, ,
1, ,-45, ,
1, ,-45, ,
1, ,-44, ,
-1, ,-45, ,
1, ,-44, ,
-1, ,-45, ,
1, ,-45, ,
1, ,-45, ,
1, ,-45, ,
-1, ,-46, ,
1, ,-44, ,
-1, ,-45, ,
-1, ,-45, ,
1, ,-45, ,
1, ,-44, ,
-1, ,-45, ,
1, ,-45, ,
-1, ,-45, ,
-1, ,-45, ,
1, ,-44, ,
1, ,-45, ,
-1, ,-45, ,
1, ,-44, ,
-1, ,-45, ,
-1, ,-45, ,
1, ,-45, ,
1, ,-44, ,
-1, ,-45, ,
1, ,-45, ,
-1, ,-45, ,
1, ,-45, ,
1, ,-45, ,
1, ,-45, ,
-1, ,-45, ,
1, ,-44, ,
1, ,-44, ,
-1, ,-45, ,
1, ,-45, ,
1, ,-44, ,
-1, ,-45, ,
1, ,-44, ,
-1, ,-45, ,
1, ,-45, ,
1, ,-44, ,
1, ,-45, ,
-1, ,-45, ,
1, ,-44, ,
-1, ,-44, ,
-1, ,-45, ,
1, ,-45, ,
1, ,-44, ,
-1, ,-45, ,
1, ,-44, ,
-1, ,-44, ,
-1, ,-45, ,
1, ,-44, ,
1, ,-45, ,
-1, ,-45, ,
1, ,-44, ,
-1, ,-45, ,
-1, ,-45, ,
1, ,-45, ,
1, ,-44, ,
-1, ,-45, ,
1, ,-44, ,
-1, ,-45, ,
-1, ,-45, ,
1, ,-45, ,
1, ,-44, ,
-1, ,-45, ,
1, ,-44, ,
-1, ,-45, ,
-1, ,-45, ,
1, ,-45, ,
1, ,-44, ,
-1, ,-45, ,
1, ,-45, ,
-1, ,-45, ,
-1, ,-45, ,
1, ,-44, ,
1, ,-45, ,
-1, ,-45, ,
1, ,-44, ,
-1, ,-44, ,
-1, ,-45, ,
1, ,-45, ,
1, ,-44, ,
-1, ,-45, ,
1, ,-45, ,
-1, ,-45, ,
-1, ,-45, ,
-1, ,-45, ,
1, ,-45, ,
-1, ,-45, ,
1, ,-44, ,
-1, ,-45, ,
-1, ,-45, ,
1, ,-45, ,
1, ,-44, ,
-1, ,-45, ,
1, ,-45, ,
-1, ,-45, ,
-1, ,-45, ,
1, ,-45, ,
1, ,-45, ,
-1, ,-45, ,
1, ,-44, ,
-1, ,-45, ,
-1, ,-45, ,
1, ,-45, ,
1, ,-44, ,
-1, ,-45, ,
1, ,-45, ,
-1, ,-45, ,
1, ,-45, ,
1, ,-44, ,
1, ,-45, ,
-1, ,-45, ,
2, ,-44, ,
1, ,-44, ,
-1, ,-45, ,
1, ,-45, ,
1, ,-44, ,
-1, ,-45, ,
1, ,-44, ,
-1, ,-45, ,
-1, ,-45, ,
1, ,-45, ,
1, ,-45, ,
-1, ,-45, ,
1, ,-44, ,
-1, ,-45, ,
-1, ,-45, ,
1, ,-45, ,
1, ,-32, ,
-1, ,-12, ,
2, ,3, ,
1, ,15, ,
1, ,23, ,
1, ,31, ,
1, ,35, ,
-1, ,39, ,
1, ,40, ,
-1, ,43, ,
-1, ,45, ,
1, ,45, ,
1, ,46, ,
-1, ,47, ,
1, ,46, ,
-1, ,47, ,
-1, ,49, ,
1, ,47, ,
1, ,49, ,
-1, ,49, ,
1, ,47, ,
1, ,49, ,
-1, ,49, ,
1, ,49, ,
1, ,49, ,
-1, ,49, ,
1, ,47, ,
-1, ,49, ,
-1, ,49, ,
1, ,47, ,
1, ,47, ,
-1, ,49, ,
1, ,47, ,
1, ,49, ,
-1, ,49, ,
1, ,49, ,
1, ,47, ,
-1, ,49, ,
1, ,47, ,
-1, ,47, ,
1, ,49, ,
1, ,47, ,
1, ,49, ,
-1, ,49, ,
1, ,47, ,
-1, ,47, ,
1, ,47, ,
1, ,47, ,
1, ,47, ,
-1, ,49, ,
1, ,47, ,
-1, ,47, ,
-1, ,49, ,
1, ,49, ,
1, ,47, ,
-1, ,49, ,
1, ,47, ,
-1, ,47, ,
-1, ,49, ,
1, ,47, ,
1, ,47, ,
-1, ,49, ,
1, ,47, ,
-1, ,47, ,
-1, ,49, ,
1, ,47, ,
1, ,47, ,
-1, ,49, ,
1, ,47, ,
-1, ,47, ,
-1, ,49, ,
1, ,47, ,
1, ,47, ,
-1, ,49, ,
1, ,47, ,
-1, ,47, ,
-1, ,49, ,
1, ,47, ,
1, ,47, ,
-1, ,49, ,
1, ,47, ,
-1, ,47, ,
-1, ,49, ,
1, ,47, ,
1, ,47, ,
-1, ,47, ,
1, ,47, ,
-1, ,47, ,
-1, ,49, ,
1, ,47, ,
1, ,47, ,
-1, ,49, ,
1, ,47, ,
-1, ,47, ,
-1, ,47, ,
1, ,47, ,
1, ,47, ,
-1, ,49, ,
1, ,47, ,
-1, ,47, ,
-1, ,49, ,
1, ,47, ,
1, ,47, ,
-1, ,49, ,
1, ,47, ,
-1, ,47, ,
-1, ,47, ,
1, ,47, ,
1, ,47, ,
-1, ,47, ,
1, ,47, ,
-1, ,47, ,
-1, ,49, ,
1, ,47, ,
1, ,47, ,
-1, ,49, ,
1, ,46, ,
-1, ,47, ,
-1, ,49, ,
1, ,47, ,
1, ,47, ,
-1, ,49, ,
1, ,47, ,
-1, ,47, ,
-1, ,49, ,
1, ,47, ,
1, ,47, ,
-1, ,49, ,
1, ,47, ,
-1, ,47, ,
-1, ,49, ,
1, ,47, ,
1, ,47, ,
-1, ,47, ,
1, ,46, ,
-1, ,47, ,
-1, ,49, ,
1, ,47, ,
1, ,47, ,
-1, ,49, ,
1, ,47, ,
-1, ,47, ,
-1, ,47, ,
1, ,47, ,
1, ,47, ,
-1, ,49, ,
1, ,47, ,
-1, ,47, ,
-1, ,49, ,
1, ,47, ,
1, ,47, ,
-1, ,49, ,
1, ,47, ,
-1, ,47, ,
-1, ,43, ,
1, ,23, ,
-1, ,6, ,
-1, ,-7, ,
1, ,-17, ,
-1, ,-24, ,
-1, ,-31, ,
1, ,-34, ,
1, ,-37, ,
-2, ,-40, ,
1, ,-40, ,
-1, ,-42, ,
1, ,-43, ,
1, ,-44, ,
1, ,-44, ,
-1, ,-45, ,
1, ,-45, ,
-1, ,-45, ,
-1, ,-45, ,
1, ,-45, ,
1, ,-45, ,
-1, ,-46, ,
1, ,-45, ,
-1, ,-45, ,
-1, ,-46, ,
1, ,-45, ,
1, ,-45, ,
-1, ,-46, ,
1, ,-45, ,
-1, ,-45, ,
-1, ,-46, ,
1, ,-45, ,
1, ,-45, ,
-1, ,-45, ,
1, ,-45, ,
-1, ,-45, ,
-1, ,-46, ,
1, ,-45, ,
1, ,-45, ,
-1, ,-45, ,
1, ,-45, ,
-1, ,-45, ,
-1, ,-45, ,
1, ,-45, ,
1, ,-45, ,
-1, ,-46, ,
2, ,-44, ,
1, ,-45, ,
-1, ,-45, ,
1, ,-45, ,
1, ,-44, ,
-1, ,-45, ,
2, ,-45, ,
-1, ,-45, ,
-1, ,-45, ,
1, ,-45, ,
1, ,-45, ,
-1, ,-46, ,
1, ,-45, ,
-1, ,-45, ,
-1, ,-45, ,
1, ,-45, ,
1, ,-44, ,
-1, ,-45, ,
1, ,-45, ,
-1, ,-45, ,
-1, ,-45, ,
1, ,-45, ,
1, ,-45, ,
-1, ,-45, ,
1, ,-44, ,
-1, ,-45, ,
-1, ,-45, ,
1, ,-45, ,
1, ,-45, ,
-1, ,-45, ,
1, ,-45, ,
-1, ,-45, ,
-1, ,-45, ,
1, ,-45, ,
1, ,-45, ,
-1, ,-45, ,
1, ,-44, ,
-1, ,-45, ,
-1, ,-45, ,
1, ,-45, ,
1, ,-44, ,
-1, ,-45, ,
1, ,-44, ,
-1, ,-45, ,
-1, ,-45, ,
1, ,-44, ,
1, ,-45, ,
-1, ,-45, ,
1, ,-44, ,
1, ,-45, ,
-1, ,-45, ,
1, ,-45, ,
1, ,-44, ,
-1, ,-45, ,
1, ,-45, ,
1, ,-45, ,
-1, ,-45, ,
1, ,-45, ,
1, ,-45, ,
-1, ,-45, ,
1, ,-44, ,
-1, ,-44, ,
-1, ,-45, ,
1, ,-45, ,
1, ,-44, ,
-1, ,-45, ,
1, ,-44, ,
-1, ,-45, ,
-1, ,-45, ,
1, ,-45, ,
1, ,-45, ,
-1, ,-45, ,
1, ,-44, ,
-1, ,-45, ,
-1, ,-45, ,
1, ,-45, ,
1, ,-45, ,
-1, ,-45, ,
1, ,-44, ,
-1, ,-45, ,
-1, ,-45, ,
1, ,-44, ,
1, ,-45, ,
-1, ,-45, ,
1, ,-44, ,
-1, ,-44, ,
-1, ,-45, ,
92, ,-45, ,
72, ,-45, ,
41, ,-45, ,
27, ,-44, ,
16, ,-45, ,
11, ,-45, ,
7, ,-45, ,
6, ,-45, ,
3, ,-46, ,
5, ,-44, ,
2, ,-44, ,
2, ,-45, ,
3, ,-45, ,
3, ,-44, ,
1, ,-45, ,
3, ,-45, ,
2, ,-45, ,
2, ,-45, ,
2, ,-44, ,
3, ,-45, ,
2, ,-45, ,
3, ,-44, ,
2, ,-44, ,
2, ,-45, ,
2, ,-45, ,
3, ,-45, ,
1, ,-45, ,
3, ,-44, ,
2, ,-45, ,
2, ,-45, ,
2, ,-45, ,
3, ,-44, ,
1, ,-45, ,
3, ,-44, ,
2, ,-44, ,
2, ,-45, ,
2, ,-45, ,
3, ,-45, ,
2, ,-45, ,
3, ,-45, ,
2, ,-45, ,
2, ,-45, ,
2, ,-45, ,
3, ,-45, ,
1, ,-45, ,
3, ,-44, ,
2, ,-44, ,
2, ,-45, ,
2, ,-45, ,
3, ,-44, ,
1, ,-45, ,
3, ,-45, ,
2, ,-45, ,
2, ,-45, ,
2, ,-45, ,
2, ,-45, ,
1, ,-45, ,
3, ,-44, ,
2, ,-44, ,
2, ,-45, ,
2, ,-45, ,
3, ,-44, ,
1, ,-45, ,
3, ,-44, ,
2, ,-45, ,
2, ,-45, ,
2, ,-45, ,
2, ,-45, ,
1, ,-45, ,
2, ,-44, ,
2, ,-45, ,
2, ,-45, ,
2, ,-45, ,
2, ,-45, ,
1, ,-45, ,
3, ,-44, ,
2, ,-45, ,
2, ,-45, ,
2, ,-45, ,
2, ,-45, ,
1, ,-45, ,
2, ,-44, ,
2, ,-44, ,
2, ,-45, ,
2, ,-45, ,
2, ,-44, ,
1, ,-45, ,
3, ,-44, ,
2, ,-45, ,
1, ,-45, ,
2, ,-44, ,
2, ,-44, ,
1, ,-45, ,
2, ,-44, ,
1, ,-44, ,
2, ,-45, ,
2, ,-45, ,
2, ,-44, ,
1, ,-45, ,
3, ,-44, ,
2, ,-45, ,
2, ,-45, ,
2, ,-44, ,
2, ,-45, ,
1, ,-45, ,
2, ,-44, ,
2, ,-45, ,
2, ,-45, ,
2, ,-45, ,
3, ,-44, ,
1, ,-45, ,
2, ,-45, ,
2, ,-45, ,
1, ,-45, ,
2, ,-45, ,
2, ,-45, ,
1, ,-45, ,
3, ,-44, ,
2, ,-44, ,
2, ,-45, ,
2, ,-45, ,
2, ,-44, ,
1, ,-45, ,
2, ,-44, ,
2, ,-45, ,
1, ,-45, ,
2, ,-44, ,
2, ,-44, ,
1, ,-45, ,
3, ,-44, ,
2, ,-45, ,
1, ,-45, ,
2, ,-45, ,
2, ,-44, ,
1, ,-45, ,
2, ,-44, ,
1, ,-45, ,
2, ,-45, ,
2, ,-45, ,
2, ,-44, ,
1, ,-45, ,
3, ,-44, ,
2, ,-44, ,
2, ,-45, ,
2, ,-45, ,
2, ,-44, ,
1, ,-45, ,
2, ,-45, ,
1, ,-45, ,
1, ,-45, ,
2, ,-45, ,
2, ,-44, ,
1, ,-45, ,
2, ,-44, ,
2, ,-44, ,
2, ,-45, ,
2, ,-45, ,
2, ,-44, ,
1, ,-45, ,
2, ,-44, ,
2, ,-45, ,
1, ,-45, ,
2, ,-45, ,
2, ,-45, ,
1, ,-45, ,
2, ,-44, ,
2, ,-45, ,
2, ,-45, ,
2, ,-45, ,
2, ,-44, ,
1, ,-45, ,
2, ,-44, ,
2, ,-45, ,
1, ,-45, ,
2, ,-45, ,
2, ,-45, ,
1, ,-45, ,
2, ,-44, ,
1, ,-44, ,
2, ,-45, ,
2, ,-45, ,
2, ,-44, ,
1, ,-45, ,
2, ,-44, ,
1, ,-45, ,
2, ,-45, ,
2, ,-45, ,
2, ,-45, ,
1, ,-45, ,
2, ,-44, ,
2, ,-44, ,
2, ,-45, ,
2, ,-45, ,
2, ,-44, ,
1, ,-45, ,
2, ,-44, ,
1, ,-45, ,
1, ,-45, ,
2, ,-44, ,
2, ,-45, ,
1, ,-45, ,
2, ,-44, ,
1, ,-44, ,
2, ,-45, ,
2, ,-45, ,
2, ,-44, ,
1, ,-45, ,
2, ,-45, ,
1, ,-45, ,
1, ,-45, ,
2, ,-45, ,
2, ,-45, ,
1, ,-45, ,
2, ,-44, ,
1, ,-44, ,
1, ,-45, ,
2, ,-45, ,
2, ,-44, ,
1, ,-45, ,
2, ,-44, ,
1, ,-45, ,
1, ,-45, ,
2, ,-45, ,
1, ,-45, ,
1, ,-45, ,
2, ,-44, ,
1, ,-44, ,
1, ,-45, ,
2, ,-45, ,
2, ,-44, ,
1, ,-45, ,
2, ,-44, ,
1, ,-45, ,
1, ,-45, ,
2, ,-45, ,
2, ,-44, ,
1, ,-45, ,
2, ,-44, ,
1, ,-44, ,
1, ,-45, ,
2, ,-45, ,
1, ,-44, ,
1, ,-45, ,
2, ,-44, ,
1, ,-45, ,
1, ,-45, ,
2, ,-45, ,
2, ,-44, ,
1, ,-45, ,
2, ,-44, ,
1, ,-45, ,
1, ,-45, ,
2, ,-45, ,
2, ,-44, ,
1, ,-45, ,
2, ,-44, ,
1, ,-45, ,
1, ,-45, ,
2, ,-44, ,
2, ,-44, ,
1, ,-45, ,
2, ,-44, ,
1, ,-44, ,
2, ,-45, ,
2, ,-44, ,
2, ,-44, ,
1, ,-45, ,
2, ,-44, ,
1, ,-45, ,
1, ,-45, ,
2, ,-44, ,
2, ,-45, ,
1, ,-45, ,
2, ,-44, ,
1, ,-44, ,
1, ,-45, ,
2, ,-45, ,
2, ,-44, ,
1, ,-45, ,
2, ,-44, ,
1, ,-44, ,
2, ,-45, ,
2, ,-45, ,
2, ,-45, ,
1, ,-45, ,
2, ,-44, ,
1, ,-44, ,
1, ,-45, ,
2, ,-45, ,
2, ,-44, ,
1, ,-45, ,
2, ,-44, ,
1, ,-45, ,
1, ,-45, ,
2, ,-44, ,
2, ,-44, ,
1, ,-45, ,
2, ,-44, ,
1, ,-44, ,
1, ,-45, ,
2, ,-45, ,
2, ,-44, ,
1, ,-45, ,
2, ,-44, ,
1, ,-45, ,
1, ,-45, ,
2, ,-45, ,
1, ,-45, ,
-1, ,-45, ,
2, ,-44, ,
1, ,-44, ,
1, ,-45, ,
2, ,-45, ,
2, ,-44, ,
1, ,-45, ,
2, ,-44, ,
1, ,-45, ,
1, ,-45, ,
2, ,-44, ,
1, ,-45, ,
1, ,-45, ,
2, ,-44, ,
1, ,-44, ,
1, ,-45, ,
2, ,-45, ,
1, ,-44, ,
1, ,-45, ,
2, ,-44, ,
1, ,-45, ,
1, ,-45, ,
2, ,-45, ,
1, ,-45, ,
1, ,-45, ,
2, ,-44, ,
1, ,-44, ,
1, ,-45, ,
2, ,-45, ,
1, ,-44, ,
1, ,-45, ,
2, ,-44, ,
1, ,-45, ,
1, ,-45, ,
2, ,-45, ,
1, ,-45, ,
-1, ,-45, ,
2, ,-44, ,
1, ,-44, ,
1, ,-45, ,
1, ,-45, ,
1, ,-44, ,
-1, ,-45, ,
2, ,-45, ,
1, ,-45, ,
1, ,-45, ,
1, ,-44, ,
2, ,-45, ,
-1, ,-45, ,
2, ,-44, ,
1, ,-44, ,
1, ,-45, ,
2, ,-45, ,
2, ,-44, ,
-1, ,-45, ,
2, ,-44, ,
1, ,-45, ,
1, ,-45, ,
1, ,-44, ,
1, ,-45, ,
-1, ,-45, ,
2, ,-44, ,
1, ,-44, ,
1, ,-45, ,
1, ,-45, ,
2, ,-44, ,
-1, ,-45, ,
2, ,-44, ,
1, ,-45, ,
1, ,-45, ,
2, ,-44, ,
1, ,-45, ,
-1, ,-45, ,
2, ,-44, ,
1, ,-44, ,
1, ,-45, ,
2, ,-45, ,
1, ,-44, ,
-1, ,-45, ,
2, ,-44, ,
1, ,-45, ,
1, ,-45, ,
2, ,-45, ,
1, ,-45, ,
-1, ,-45, ,
2, ,-43, ,
1, ,-44, ,
1, ,-45, ,
2, ,-45, ,
1, ,-44, ,
1, ,-45, ,
2, ,-45, ,
1, ,-45, ,
1, ,-45, ,
2, ,-45, ,
2, ,-45, ,
1, ,-45, ,
2, ,-44, ,
1, ,-44, ,
1, ,-45, ,
2, ,-45, ,
2, ,-44, ,
1, ,-45, ,
2, ,-44, ,
1, ,-45, ,
1, ,-45, ,
2, ,-44, ,
1, ,-45, ,
-1, ,-45, ,
2, ,-44, ,
1, ,-44, ,
1, ,-45, ,
2, ,-45, ,
1, ,-44, ,
1, ,-45, ,
2, ,-44, ,
1, ,-45, ,
1, ,-45, ,
2, ,-45, ,
1, ,-44, ,
1, ,-45, ,
2, ,-44, ,
1, ,-45, ,
1, ,-45, ,
2, ,-44, ,
1, ,-44, ,
1, ,-45, ,
2, ,-44, ,
1, ,-45, ,
1, ,-45, ,
2, ,-44, ,
1, ,-45, ,
-1, ,-45, ,
2, ,-44, ,
1, ,-45, ,
1, ,-45, ,
1, ,-45, ,
1, ,-44, ,
-1, ,-45, ,
2, ,-44, ,
1, ,-45, ,
1, ,-45, ,
2, ,-45, ,
2, ,-45, ,
-1, ,-45, ,
2, ,-44, ,
1, ,-44, ,
1, ,-45, ,
1, ,-45, ,
1, ,-44, ,
-1, ,-45, ,
2, ,-44, ,
1, ,-45, ,
1, ,-45, ,
1, ,-44, ,
2, ,-45, ,
-1, ,-45, ,
2, ,-44, ,
1, ,-44, ,
1, ,-45, ,
1, ,-45, ,
1, ,-44, ,
-1, ,-45, ,
2, ,-45, ,
1, ,-45, ,
1, ,-45, ,
1, ,-45, ,
1, ,-45, ,
-1, ,-45, ,
2, ,-44, ,
1, ,-45, ,
1, ,-45, ,
1, ,-45, ,
1, ,-44, ,
-1, ,-45, ,
2, ,-44, ,
1, ,-45, ,
1, ,-45, ,
1, ,-45, ,
1, ,-45, ,
-1, ,-46, ,
2, ,-44, ,
1, ,-44, ,
1, ,-45, ,
2, ,-45, ,
1, ,-44, ,
-1, ,-37, ,
2, ,-17, ,
1, ,0, ,
1, ,13, ,
2, ,22, ,
1, ,28, ,
-1, ,34, ,
2, ,37, ,
1, ,40, ,
1, ,42, ,
1, ,44, ,
1, ,45, ,
-1, ,46, ,
2, ,46, ,
1, ,47, ,
1, ,47, ,
1, ,47, ,
1, ,49, ,
-1, ,49, ,
2, ,47, ,
1, ,49, ,
1, ,49, ,
1, ,49, ,
1, ,49, ,
-1, ,49, ,
1, ,47, ,
1, ,49, ,
1, ,49, ,
2, ,49, ,
1, ,49, ,
-1, ,49, ,
2, ,47, ,
1, ,47, ,
1, ,49, ,
1, ,49, ,
1, ,49, ,
-1, ,49, ,
1, ,47, ,
1, ,49, ,
1, ,49, ,
2, ,47, ,
2, ,49, ,
-1, ,49, ,
1, ,47, ,
1, ,47, ,
1, ,49, ,
1, ,47, ,
1, ,47, ,
-1, ,49, ,
1, ,47, ,
1, ,47, ,
1, ,49, ,
2, ,47, ,
1, ,49, ,
-1, ,49, ,
1, ,46, ,
1, ,47, ,
1, ,49, ,
2, ,47, ,
1, ,47, ,
-1, ,49, ,
2, ,47, ,
1, ,47, ,
1, ,49, ,
1, ,47, ,
1, ,47, ,
-1, ,49, ,
2, ,46, ,
1, ,47, ,
1, ,49, ,
1, ,47, ,
1, ,47, ,
-1, ,49, ,
2, ,47, ,
1, ,47, ,
1, ,49, ,
2, ,47, ,
1, ,49, ,
-1, ,49, ,
1, ,46, ,
1, ,47, ,
1, ,49, ,
1, ,47, ,
1, ,47, ,
-1, ,49, ,
1, ,47, ,
1, ,47, ,
1, ,49, ,
2, ,47, ,
1, ,47, ,
76, ,49, ,
59, ,47, ,
35, ,47, ,
22, ,49, ,
15, ,47, ,
10, ,47, ,
7, ,47, ,
6, ,47, ,
5, ,47, ,
3, ,49, ,
5, ,47, ,
3, ,47, ,
2, ,49, ,
5, ,47, ,
3, ,47, ,
2, ,49, ,
3, ,47, ,
2, ,47, ,
2, ,49, ,
3, ,46, ,
2, ,47, ,
2, ,49, ,
3, ,47, ,
2, ,47, ,
1, ,49, ,
3, ,46, ,
2, ,47, ,
2, ,49, ,
2, ,47, ,
3, ,47, ,
2, ,49, ,
3, ,47, ,
2, ,47, ,
2, ,49, ,
3, ,47, ,
2, ,49, ,
1, ,49, ,
3, ,46, ,
2, ,47, ,
2, ,49, ,
3, ,47, ,
2, ,47, ,
1, ,49, ,
3, ,47, ,
2, ,47, ,
2, ,49, ,
3, ,47, ,
2, ,47, ,
2, ,49, ,
3, ,46, ,
2, ,47, ,
2, ,49, ,
3, ,47, ,
2, ,47, ,
1, ,49, ,
3, ,47, ,
2, ,47, ,
2, ,49, ,
3, ,47, ,
2, ,47, ,
2, ,49, ,
3, ,46, ,
2, ,47, ,
2, ,49, ,
3, ,45, ,
2, ,30, ,
1, ,11, ,
2, ,-3, ,
2, ,-15, ,
1, ,-22, ,
2, ,-28, ,
2, ,-33, ,
1, ,-37, ,
3, ,-38, ,
2, ,-40, ,
2, ,-42, ,
3, ,-43, ,
3, ,-43, ,
1, ,-44, ,
3, ,-44, ,
1, ,-45, ,
2, ,-45, ,
3, ,-45, ,
3, ,-45, ,
1, ,-46, ,
3, ,-44, ,
2, ,-45, ,
2, ,-46, ,
3, ,-45, ,
3, ,-45, ,
1, ,-46, ,
3, ,-45, ,
2, ,-46, ,
2, ,-46, ,
2, ,-45, ,
2, ,-45, ,
1, ,-45, ,
3, ,-44, ,
2, ,-45, ,
2, ,-46, ,
2, ,-45, ,
3, ,-45, ,
1, ,-45, ,
2, ,-45, ,
1, ,-45, ,
2, ,-45, ,
2, ,-45, ,
2, ,-45, ,
1, ,-46, ,
3, ,-45, ,
2, ,-45, ,
2, ,-45, ,
2, ,-45, ,
2, ,-45, ,
1, ,-45, ,
3, ,-45, ,
2, ,-45, ,
2, ,-45, ,
2, ,-44, ,
2, ,-45, ,
1, ,-45, ,
2, ,-44, ,
2, ,-44, ,
2, ,-45, ,
2, ,-45, ,
3, ,-44, ,
1, ,-45, ,
2, ,-45, ,
1, ,-45, ,
1, ,-45, ,
2, ,-45, ,
2, ,-45, ,
1, ,-45, ,
3, ,-44, ,
1, ,-44, ,
2, ,-45, ,
2, ,-45, ,
2, ,-45, ,
1, ,-45, ,
2, ,-45, ,
2, ,-45, ,
2, ,-45, ,
2, ,-45, ,
2, ,-45, ,
1, ,-45, ,
2, ,-44, ,
1, ,-45, ,
1, ,-45, ,
2, ,-45, ,
2, ,-44, ,
1, ,-45, ,
2, ,-45, ,
1, ,-45, ,
2, ,-45, ,
2, ,-45, ,
2, ,-45, ,
1, ,-45, ,
3, ,-44, ,
2, ,-45, ,
2, ,-45, ,
2, ,-45, ,
2, ,-45, ,
1, ,-45, ,
2, ,-45, ,
1, ,-45, ,
1, ,-45, ,
2, ,-45, ,
2, ,-45, ,
1, ,-45, ,
2, ,-45, ,
2, ,-45, ,
2, ,-45, ,
2, ,-45, ,
2, ,-45, ,
1, ,-45, ,
2, ,-45, ,
2, ,-45, ,
2, ,-45, ,
2, ,-45, ,
2, ,-45, ,
1, ,-45, ,
2, ,-44, ,
1, ,-44, ,
1, ,-45, ,
2, ,-45, ,
2, ,-45, ,
1, ,-45, ,
2, ,-45, ,
1, ,-45, ,
1, ,-45, ,
2, ,-45, ,
2, ,-45, ,
1, ,-45, ,
2, ,-44, ,
2, ,-45, ,
2, ,-45, ,
2, ,-44, ,
2, ,-44, ,
1, ,-45, ,
2, ,-44, ,
2, ,-45, ,
1, ,-45, ,
2, ,-45, ,
2, ,-45, ,
1, ,-46, ,
3, ,-44, ,
1, ,-44, ,
1, ,-45, ,
2, ,-45, ,
2, ,-44, ,
1, ,-45, ,
2, ,-45, ,
1, ,-45, ,
1, ,-45, ,
2, ,-45, ,
2, ,-45, ,
1, ,-45, ,
2, ,-44, ,
1, ,-44, ,
2, ,-45, ,
2, ,-45, ,
2, ,-44, ,
1, ,-45, ,
2, ,-45, ,
1, ,-45, ,
2, ,-45, ,
2, ,-45, ,
2, ,-44, ,
1, ,-45, ,
2, ,-44, ,
1, ,-45, ,
2, ,-45, ,
2, ,-45, ,
2, ,-44, ,
1, ,-45, ,
2, ,-44, ,
1, ,-45, ,
1, ,-45, ,
2, ,-44, ,
2, ,-44, ,
1, ,-45, ,
2, ,-44, ,
1, ,-44, ,
2, ,-45, ,
2, ,-45, ,
2, ,-44, ,
1, ,-45, ,
2, ,-44, ,
1, ,-45, ,
2, ,-45, ,
2, ,-45, ,
2, ,-44, ,
1, ,-45, ,
2, ,-44, ,
1, ,-44, ,
1, ,-45, ,
2, ,-45, ,
1, ,-45, ,
1, ,-45, ,
2, ,-44, ,
1, ,-44, ,
1, ,-45, ,
2, ,-44, ,
2, ,-45, ,
1, ,-45, ,
2, ,-44, ,
1, ,-44, ,
1, ,-45, ,
2, ,-45, ,
2, ,-44, ,
1, ,-45, ,
2, ,-44, ,
1, ,-45, ,
1, ,-45, ,
2, ,-44, ,
2, ,-45, ,
1, ,-46, ,
2, ,-44, ,
1, ,-45, ,
2, ,-45, ,
2, ,-45, ,
2, ,-44, ,
1, ,-45, ,
2, ,-44, ,
1, ,-45, ,
1, ,-45, ,
2, ,-44, ,
2, ,-44, ,
1, ,-45, ,
2, ,-44, ,
1, ,-45, ,
2, ,-45, ,
2, ,-45, ,
1, ,-44, ,
1, ,-45, ,
2, ,-44, ,
1, ,-45, ,
1, ,-45, ,
1, ,-45, ,
1, ,-45, ,
1, ,-45, ,
2, ,-44, ,
1, ,-45, ,
1, ,-45, ,
2, ,-45, ,
2, ,-44, ,
1, ,-45, ,
2, ,-44, ,
1, ,-45, ,
1, ,-45, ,
1, ,-44, ,
2, ,-44, ,
1, ,-46, ,
2, ,-45, ,
1, ,-44, ,
1, ,-45, ,
2, ,-45, ,
2, ,-44, ,
1, ,-45, ,
2, ,-44, ,
1, ,-45, ,
1, ,-45, ,
2, ,-44, ,
1, ,-44, ,
1, ,-45, ,
2, ,-44, ,
1, ,-45, ,
1, ,-45, ,
2, ,-45, ,
1, ,-45, ,
1, ,-45, ,
2, ,-44, ,
1, ,-45, ,
1, ,-45, ,
2, ,-44, ,
1, ,-44, ,
1, ,-45, ,
2, ,-45, ,
1, ,-44, ,
1, ,-45, ,
2, ,-45, ,
1, ,-45, ,
1, ,-45, ,
2, ,-44, ,
1, ,-45, ,
1, ,-45, ,
2, ,-44, ,
1, ,-45, ,
1, ,-45, ,
2, ,-44, ,
1, ,-45, ,
1, ,-45, ,
2, ,-45, ,
1, ,-44, ,
1, ,-45, ,
2, ,-44, ,
1, ,-45, ,
1, ,-45, ,
2, ,-45, ,
1, ,-44, ,
-1, ,-45, ,
2, ,-44, ,
1, ,-45, ,
1, ,-45, ,
2, ,-45, ,
2, ,-44, ,
1, ,-45, ,
2, ,-44, ,
1, ,-45, ,
1, ,-45, ,
2, ,-45, ,
1, ,-44, ,
-1, ,-45, ,
2, ,-44, ,
1, ,-45, ,
1, ,-45, ,
1, ,-45, ,
1, ,-45, ,
1, ,-45, ,
2, ,-44, ,
1, ,-45, ,
1, ,-45, ,
2, ,-44, ,
2, ,-44, ,
1, ,-45, ,
2, ,-45, ,
1, ,-45, ,
1, ,-45, ,
2, ,-45, ,
2, ,-44, ,
-1, ,-45, ,
2, ,-44, ,
1, ,-45, ,
1, ,-45, ,
2, ,-45, ,
1, ,-45, ,
-1, ,-45, ,
2, ,-44, ,
1, ,-45, ,
1, ,-45, ,
1, ,-45, ,
1, ,-45, ,
-1, ,-45, ,
2, ,-44, ,
1, ,-45, ,
1, ,-45, ,
1, ,-45, ,
2, ,-45, ,
1, ,-45, ,
2, ,-44, ,
1, ,-45, ,
1, ,-45, ,
2, ,-45, ,
1, ,-45, ,
-1, ,-45, ,
1, ,-45, ,
1, ,-45, ,
1, ,-45, ,
1, ,-44, ,
1, ,-45, ,
-1, ,-45, ,
2, ,-44, ,
1, ,-45, ,
1, ,-45, ,
1, ,-45, ,
1, ,-44, ,
-1, ,-45, ,
2, ,-44, ,
1, ,-45, ,
1, ,-45, ,
2, ,-44, ,
2, ,-45, ,
-1, ,-46, ,
2, ,-45, ,
1, ,-45, ,
1, ,-45, ,
2, ,-45, ,
1, ,-45, ,
-1, ,-45, ,
2, ,-45, ,
1, ,-44, ,
1, ,-45, ,
2, ,-45, ,
1, ,-45, ,
-1, ,-45, ,
2, ,-44, ,
1, ,-45, ,
1, ,-45, ,
1, ,-45, ,
1, ,-44, ,
1, ,-45, ,
2, ,-44, ,
1, ,-45, ,
1, ,-45, ,
1, ,-45, ,
1, ,-44, ,
-1, ,-45, ,
2, ,-45, ,
1, ,-45, ,
1, ,-45, ,
2, ,-45, ,
2, ,-45, ,
-1, ,-45, ,
2, ,-45, ,
1, ,-45, ,
1, ,-45, ,
1, ,-45, ,
1, ,-44, ,
-1, ,-45, ,
2, ,-44, ,
1, ,-45, ,
1, ,-45, ,
1, ,-45, ,
1, ,-45, ,
-1, ,-45, ,
2, ,-44, ,
1, ,-45, ,
1, ,-45, ,
1, ,-44, ,
2, ,-44, ,
-1, ,-45, ,
2, ,-45, ,
1, ,-45, ,
1, ,-45, ,
1, ,-45, ,
1, ,-44, ,
-1, ,-45, ,
2, ,-44, ,
1, ,-45, ,
1, ,-45, ,
1, ,-44, ,
1, ,-44, ,
-1, ,-45, ,
2, ,-44, ,
1, ,-45, ,
1, ,-45, ,
1, ,-45, ,
1, ,-45, ,
-1, ,-45, ,
2, ,-44, ,
1, ,-45, ,
1, ,-45, ,
1, ,-44, ,
2, ,-45, ,
-1, ,-45, ,
2, ,-44, ,
1, ,-45, ,
1, ,-45, ,
1, ,-45, ,
2, ,-45, ,
-1, ,-45, ,
2, ,-44, ,
1, ,-45, ,
1, ,-45, ,
1, ,-45, ,
2, ,-45, ,
-1, ,-45, ,
2, ,-44, ,
1, ,-44, ,
1, ,-45, ,
1, ,-45, ,
1, ,-44, ,
-1, ,-45, ,
2, ,-44, ,
1, ,-45, ,
1, ,-45, ,
2, ,-45, ,
2, ,-45, ,
-1, ,-46, ,
2, ,-45, ,
1, ,-45, ,
1, ,-45, ,
1, ,-45, ,
1, ,-44, ,
1, ,-45, ,
2, ,-44, ,
1, ,-45, ,
1, ,-45, ,
1, ,-45, ,
2, ,-44, ,
-1, ,-45, ,
