src/varyamp_1560/temp0001050.CSV

Format,1.0B,
Memory Length,10000,Memory Length,10000,
IntpDistance,0,IntpDistance,0,
Trigger Address,4999,Trigger Address,4999,
Trigger Level,1.040E+00,Trigger Level,1.040E+00,
Source,CH1,Source,CH2,
Vertical Units,V,Vertical Units,V,
Vertical Units Div,0,Vertical Units Div,0,
Vertical Units Extend Div,16,Vertical Units Extend Div,16,
Label,,Label,,
Probe Type,0,Probe Type,0,
Probe Ratio,1.000e+01,Probe Ratio,1.000e+00,
Vertical Scale,5.000e-01,Vertical Scale,1.000e+00,
Vertical Position,-1.820e+00,Vertical Position,0.000e+00,
Horizontal Units,S,Horizontal Units,S,
Horizontal Scale,2.000E-05,Horizontal Scale,2.000E-05,
Horizontal Position,0.000E+00,Horizontal Position,0.000E+00,
Horizontal Mode,Main,Horizontal Mode,Main,
SincET Mode,Real Time,SincET Mode,Real Time,
Sampling Period,2.000e-08,Sampling Period,2.000e-08,
Horizontal Old Scale,2.000E-05,Horizontal Old Scale,2.000E-05,
Horizontal Old Position,0.000E+00,Horizontal Old Position,0.000E+00,
Firmware,V1.23,Firmware,V1.23,
Mode,Fast,Mode,Fast,
Waveform Data,,Waveform Data,,
1, ,-57, ,
2, ,-56, ,
1, ,-57, ,
-1, ,-56, ,
2, ,-57, ,
1, ,-56, ,
1, ,-57, ,
2, ,-57, ,
2, ,-57, ,
-1, ,-56, ,
2, ,-57, ,
1, ,-57, ,
1, ,-56, ,
2, ,-56, ,
1, ,-57, ,
-1, ,-56, ,
2, ,-57, ,
1, ,-57, ,
1, ,-56, ,
2, ,-56, ,
2, ,-57, ,
-1, ,-56, ,
2, ,-56, ,
1, ,-57, ,
1, ,-56, ,
2, ,-56, ,
1, ,-57, ,
-1, ,-56, ,
2, ,-57, ,
1, ,-57, ,
-1, ,-56, ,
2, ,-56, ,
1, ,-57, ,
-1, ,-56, ,
2, ,-57, ,
1, ,-57, ,
1, ,-57, ,
2, ,-57, ,
1, ,-57, ,
-1, ,-56, ,
2, ,-57, ,
1, ,-57, ,
1, ,-56, ,
2, ,-56, ,
1, ,-57, ,
-1, ,-56, ,
2, ,-57, ,
1, ,-57, ,
1, ,-57, ,
2, ,-56, ,
1, ,-57, ,
-1, ,-56, ,
2, ,-57, ,
1, ,-56, ,
1, ,-57, ,
2, ,-56, ,
1, ,-57, ,
-1, ,-56, ,
2, ,-57, ,
1, ,-57, ,
1, ,-57, ,
2, ,-56, ,
1, ,-57, ,
-1, ,-56, ,
2, ,-57, ,
1, ,-56, ,
1, ,-56, ,
1, ,-57, ,
1, ,-57, ,
-1, ,-56, ,
2, ,-56, ,
1, ,-57, ,
1, ,-56, ,
2, ,-56, ,
2, ,-57, ,
-1, ,-56, ,
2, ,-57, ,
1, ,-57, ,
1, ,-57, ,
2, ,-57, ,
1, ,-57, ,
-1, ,-56, ,
2, ,-56, ,
1, ,-56, ,
1, ,-56, ,
2, ,-56, ,
1, ,-57, ,
-1, ,-56, ,
2, ,-57, ,
1, ,-56, ,
1, ,-56, ,
2, ,-57, ,
1, ,-57, ,
-1, ,-56, ,
2, ,-57, ,
1, ,-56, ,
1, ,-56, ,
2, ,-56, ,
1, ,-57, ,
-1, ,-56, ,
2, ,-57, ,
1, ,-57, ,
1, ,-57, ,
2, ,-56, ,
1, ,-57, ,
-1, ,-56, ,
2, ,-57, ,
1, ,-57, ,
1, ,-57, ,
2, ,-56, ,
1, ,-57, ,
-1, ,-57, ,
2, ,-57, ,
1, ,-56, ,
1, ,-56, ,
2, ,-56, ,
1, ,-57, ,
-1, ,-56, ,
2, ,-56, ,
1, ,-57, ,
1, ,-56, ,
2, ,-56, ,
1, ,-57, ,
-1, ,-56, ,
2, ,-57, ,
1, ,-56, ,
1, ,-56, ,
2, ,-56, ,
1, ,-57, ,
-1, ,-56, ,
2, ,-57, ,
1, ,-57, ,
1, ,-56, ,
2, ,-56, ,
1, ,-57, ,
-1, ,-56, ,
2, ,-57, ,
1, ,-56, ,
1, ,-56, ,
1, ,-57, ,
1, ,-57, ,
-1, ,-56, ,
2, ,-57, ,
-1, ,-57, ,
1, ,-56, ,
2, ,-56, ,
1, ,-57, ,
-1, ,-56, ,
2, ,-57, ,
1, ,-57, ,
-1, ,-57, ,
1, ,-57, ,
1, ,-57, ,
-1, ,-56, ,
2, ,-57, ,
-1, ,-57, ,
1, ,-56, ,
2, ,-56, ,
1, ,-57, ,
-1, ,-56, ,
2, ,-57, ,
1, ,-56, ,
1, ,-56, ,
1, ,-56, ,
1, ,-57, ,
-1, ,-56, ,
2, ,-57, ,
-1, ,-57, ,
1, ,-57, ,
2, ,-56, ,
1, ,-57, ,
-1, ,-56, ,
2, ,-57, ,
1, ,-56, ,
1, ,-57, ,
1, ,-56, ,
1, ,-57, ,
-1, ,-56, ,
2, ,-57, ,
-1, ,-57, ,
1, ,-56, ,
2, ,-56, ,
1, ,-57, ,
-1, ,-56, ,
2, ,-57, ,
-1, ,-56, ,
-1, ,-56, ,
1, ,-56, ,
1, ,-57, ,
-1, ,-56, ,
2, ,-57, ,
-1, ,-57, ,
1, ,-56, ,
2, ,-56, ,
1, ,-57, ,
-1, ,-56, ,
2, ,-57, ,
1, ,-56, ,
-1, ,-57, ,
1, ,-56, ,
1, ,-57, ,
-1, ,-56, ,
2, ,-57, ,
-1, ,-57, ,
1, ,-56, ,
2, ,-56, ,
1, ,-57, ,
-1, ,-56, ,
2, ,-57, ,
1, ,-56, ,
-1, ,-57, ,
1, ,-57, ,
1, ,-57, ,
-1, ,-56, ,
2, ,-57, ,
1, ,-57, ,
1, ,-57, ,
2, ,-56, ,
1, ,-57, ,
-1, ,-57, ,
2, ,-57, ,
-1, ,-57, ,
1, ,-56, ,
2, ,-57, ,
1, ,-57, ,
-1, ,-56, ,
2, ,-57, ,
-1, ,-57, ,
-1, ,-57, ,
2, ,-57, ,
1, ,-57, ,
-1, ,-57, ,
2, ,-57, ,
-1, ,-56, ,
-1, ,-57, ,
2, ,-57, ,
1, ,-57, ,
-1, ,-56, ,
2, ,-57, ,
-1, ,-57, ,
-1, ,-56, ,
2, ,-56, ,
1, ,-57, ,
-1, ,-56, ,
1, ,-57, ,
1, ,-56, ,
-1, ,-56, ,
2, ,-57, ,
1, ,-57, ,
-1, ,-56, ,
2, ,-57, ,
-1, ,-57, ,
1, ,-56, ,
2, ,-56, ,
1, ,-57, ,
-1, ,-57, ,
2, ,-57, ,
-1, ,-56, ,
1, ,-57, ,
2, ,-56, ,
1, ,-57, ,
-1, ,-57, ,
2, ,-56, ,
-1, ,-57, ,
-1, ,-57, ,
2, ,-56, ,
1, ,-57, ,
-1, ,-57, ,
2, ,-57, ,
-1, ,-57, ,
-1, ,-57, ,
1, ,-56, ,
1, ,-57, ,
-1, ,-56, ,
2, ,-57, ,
-1, ,-56, ,
-1, ,-56, ,
2, ,-56, ,
1, ,-57, ,
-2, ,-57, ,
2, ,-57, ,
-1, ,-56, ,
-1, ,-57, ,
1, ,-57, ,
1, ,-57, ,
-1, ,-56, ,
3, ,-56, ,
-1, ,-57, ,
-1, ,-57, ,
1, ,-56, ,
1, ,-57, ,
-1, ,-57, ,
1, ,-57, ,
-1, ,-57, ,
-1, ,-57, ,
1, ,-57, ,
1, ,-57, ,
-1, ,-56, ,
1, ,-57, ,
-1, ,-57, ,
-1, ,-57, ,
2, ,-56, ,
1, ,-57, ,
-1, ,-56, ,
2, ,-56, ,
1, ,-42, ,
1, ,-22, ,
1, ,-7, ,
1, ,4, ,
-1, ,13, ,
2, ,19, ,
-1, ,23, ,
-1, ,27, ,
1, ,30, ,
1, ,32, ,
-1, ,33, ,
2, ,34, ,
1, ,35, ,
-1, ,36, ,
2, ,36, ,
1, ,37, ,
-1, ,37, ,
2, ,37, ,
1, ,37, ,
-1, ,37, ,
2, ,37, ,
1, ,37, ,
-1, ,37, ,
2, ,37, ,
1, ,37, ,
-1, ,37, ,
2, ,37, ,
1, ,37, ,
-1, ,37, ,
2, ,37, ,
-1, ,37, ,
-1, ,37, ,
1, ,37, ,
1, ,37, ,
-1, ,36, ,
1, ,37, ,
1, ,36, ,
-1, ,37, ,
1, ,36, ,
1, ,37, ,
-1, ,37, ,
2, ,36, ,
-1, ,37, ,
-1, ,37, ,
1, ,36, ,
1, ,37, ,
-1, ,36, ,
2, ,36, ,
1, ,36, ,
-1, ,37, ,
1, ,36, ,
1, ,37, ,
-1, ,37, ,
1, ,36, ,
1, ,36, ,
-1, ,37, ,
2, ,36, ,
1, ,37, ,
-1, ,36, ,
2, ,37, ,
-1, ,37, ,
-1, ,37, ,
1, ,36, ,
1, ,36, ,
-1, ,36, ,
2, ,36, ,
-1, ,36, ,
-1, ,37, ,
1, ,36, ,
1, ,37, ,
-1, ,36, ,
2, ,36, ,
1, ,36, ,
-1, ,37, ,
1, ,37, ,
1, ,36, ,
-1, ,36, ,
2, ,36, ,
1, ,36, ,
-1, ,37, ,
1, ,36, ,
1, ,36, ,
-1, ,36, ,
1, ,37, ,
1, ,36, ,
-1, ,37, ,
1, ,36, ,
1, ,36, ,
-1, ,36, ,
2, ,36, ,
1, ,36, ,
-1, ,36, ,
1, ,36, ,
1, ,37, ,
-1, ,36, ,
1, ,37, ,
1, ,36, ,
-1, ,36, ,
1, ,36, ,
1, ,36, ,
-1, ,36, ,
2, ,36, ,
1, ,36, ,
-1, ,37, ,
1, ,36, ,
1, ,36, ,
-1, ,36, ,
1, ,36, ,
1, ,36, ,
-1, ,37, ,
1, ,37, ,
1, ,36, ,
-1, ,36, ,
1, ,36, ,
-1, ,37, ,
-1, ,37, ,
1, ,36, ,
1, ,37, ,
-1, ,37, ,
1, ,36, ,
-1, ,36, ,
-1, ,37, ,
1, ,36, ,
1, ,36, ,
-1, ,36, ,
2, ,36, ,
-1, ,36, ,
-1, ,37, ,
1, ,36, ,
-1, ,36, ,
-1, ,36, ,
1, ,36, ,
-1, ,36, ,
-1, ,36, ,
1, ,36, ,
1, ,36, ,
-1, ,36, ,
1, ,36, ,
-1, ,36, ,
-1, ,37, ,
1, ,36, ,
1, ,36, ,
-1, ,36, ,
1, ,36, ,
1, ,36, ,
-1, ,37, ,
1, ,36, ,
1, ,37, ,
-1, ,36, ,
1, ,36, ,
-1, ,36, ,
-1, ,36, ,
1, ,36, ,
1, ,37, ,
-2, ,32, ,
1, ,14, ,
-1, ,-4, ,
-1, ,-18, ,
1, ,-28, ,
-1, ,-36, ,
-1, ,-41, ,
1, ,-45, ,
-1, ,-49, ,
-1, ,-51, ,
1, ,-53, ,
1, ,-54, ,
-2, ,-55, ,
1, ,-56, ,
-1, ,-56, ,
-1, ,-56, ,
1, ,-57, ,
1, ,-57, ,
-1, ,-57, ,
2, ,-57, ,
-1, ,-58, ,
-1, ,-57, ,
2, ,-57, ,
1, ,-57, ,
-1, ,-57, ,
1, ,-57, ,
-1, ,-57, ,
-1, ,-57, ,
1, ,-57, ,
1, ,-58, ,
-1, ,-56, ,
1, ,-57, ,
-1, ,-58, ,
-1, ,-57, ,
2, ,-57, ,
1, ,-58, ,
-1, ,-57, ,
2, ,-57, ,
-1, ,-57, ,
-1, ,-57, ,
1, ,-57, ,
1, ,-57, ,
-1, ,-56, ,
2, ,-57, ,
-1, ,-57, ,
-1, ,-57, ,
2, ,-56, ,
1, ,-57, ,
-1, ,-56, ,
1, ,-57, ,
-1, ,-57, ,
-1, ,-57, ,
1, ,-57, ,
1, ,-57, ,
-1, ,-56, ,
2, ,-57, ,
-1, ,-57, ,
-1, ,-57, ,
2, ,-56, ,
1, ,-57, ,
-1, ,-56, ,
2, ,-57, ,
-1, ,-56, ,
-1, ,-57, ,
1, ,-57, ,
1, ,-57, ,
-1, ,-56, ,
1, ,-57, ,
-1, ,-57, ,
-1, ,-57, ,
1, ,-56, ,
1, ,-57, ,
-2, ,-56, ,
2, ,-57, ,
-1, ,-57, ,
-1, ,-57, ,
1, ,-56, ,
1, ,-57, ,
-1, ,-56, ,
2, ,-57, ,
-1, ,-57, ,
-1, ,-57, ,
2, ,-56, ,
1, ,-57, ,
-1, ,-56, ,
2, ,-57, ,
-1, ,-57, ,
-1, ,-57, ,
1, ,-56, ,
1, ,-57, ,
-1, ,-56, ,
1, ,-57, ,
-1, ,-57, ,
-1, ,-57, ,
1, ,-56, ,
-1, ,-57, ,
-2, ,-56, ,
2, ,-57, ,
-1, ,-57, ,
-1, ,-57, ,
1, ,-57, ,
1, ,-57, ,
-1, ,-56, ,
2, ,-57, ,
-1, ,-57, ,
-1, ,-56, ,
1, ,-56, ,
1, ,-57, ,
-2, ,-56, ,
2, ,-57, ,
-1, ,-57, ,
-1, ,-57, ,
1, ,-56, ,
1, ,-57, ,
-1, ,-56, ,
2, ,-57, ,
-1, ,-57, ,
-1, ,-56, ,
1, ,-56, ,
1, ,-57, ,
-2, ,-56, ,
2, ,-57, ,
-1, ,-57, ,
-1, ,-57, ,
1, ,-57, ,
1, ,-57, ,
-1, ,-56, ,
2, ,-57, ,
-1, ,-57, ,
-1, ,-57, ,
1, ,-56, ,
1, ,-57, ,
-2, ,-56, ,
2, ,-57, ,
-1, ,-56, ,
-1, ,-57, ,
1, ,-56, ,
1, ,-57, ,
-1, ,-56, ,
2, ,-57, ,
-1, ,-57, ,
-1, ,-57, ,
1, ,-56, ,
1, ,-57, ,
-2, ,-56, ,
2, ,-57, ,
-1, ,-57, ,
-1, ,-57, ,
1, ,-56, ,
1, ,-57, ,
-1, ,-56, ,
2, ,-57, ,
-1, ,-57, ,
-1, ,-56, ,
1, ,-56, ,
1, ,-57, ,
-1, ,-56, ,
1, ,-57, ,
-1, ,-56, ,
-1, ,-56, ,
1, ,-56, ,
1, ,-57, ,
-1, ,-56, ,
2, ,-57, ,
-1, ,-56, ,
-1, ,-56, ,
2, ,-56, ,
1, ,-57, ,
-1, ,-56, ,
2, ,-57, ,
-1, ,-57, ,
-1, ,-57, ,
1, ,-56, ,
1, ,-57, ,
-1, ,-56, ,
1, ,-57, ,
-1, ,-56, ,
-1, ,-56, ,
1, ,-56, ,
1, ,-57, ,
-1, ,-57, ,
2, ,-57, ,
-1, ,-56, ,
-1, ,-57, ,
1, ,-57, ,
1, ,-57, ,
-1, ,-56, ,
2, ,-57, ,
-1, ,-57, ,
-1, ,-56, ,
2, ,-56, ,
1, ,-57, ,
-2, ,-56, ,
1, ,-57, ,
-1, ,-57, ,
-1, ,-57, ,
1, ,-56, ,
1, ,-57, ,
-1, ,-56, ,
2, ,-57, ,
-1, ,-57, ,
-1, ,-57, ,
2, ,-56, ,
1, ,-57, ,
-2, ,-56, ,
1, ,-57, ,
-1, ,-56, ,
-1, ,-57, ,
1, ,-56, ,
1, ,-57, ,
-1, ,-56, ,
2, ,-57, ,
-1, ,-57, ,
-1, ,-57, ,
1, ,-56, ,
1, ,-57, ,
-2, ,-56, ,
2, ,-57, ,
-1, ,-56, ,
-1, ,-57, ,
1, ,-56, ,
1, ,-57, ,
-1, ,-56, ,
2, ,-57, ,
-1, ,-56, ,
-1, ,-56, ,
2, ,-56, ,
1, ,-57, ,
-2, ,-56, ,
1, ,-57, ,
-1, ,-57, ,
-1, ,-57, ,
1, ,-56, ,
1, ,-57, ,
-2, ,-56, ,
2, ,-57, ,
-1, ,-56, ,
-1, ,-57, ,
1, ,-56, ,
1, ,-57, ,
-2, ,-56, ,
2, ,-57, ,
-1, ,-56, ,
-1, ,-56, ,
1, ,-56, ,
1, ,-57, ,
-1, ,-56, ,
1, ,-56, ,
-1, ,-57, ,
-1, ,-57, ,
1, ,-56, ,
1, ,-57, ,
-2, ,-57, ,
2, ,-57, ,
-1, ,-56, ,
-1, ,-57, ,
1, ,-56, ,
1, ,-57, ,
-2, ,-56, ,
2, ,-57, ,
-1, ,-57, ,
-1, ,-56, ,
1, ,-56, ,
1, ,-57, ,
-2, ,-56, ,
2, ,-57, ,
-1, ,-56, ,
-1, ,-56, ,
1, ,-56, ,
1, ,-57, ,
-1, ,-56, ,
2, ,-56, ,
-1, ,-57, ,
-1, ,-56, ,
1, ,-56, ,
1, ,-57, ,
-2, ,-56, ,
1, ,-56, ,
-1, ,-57, ,
-1, ,-57, ,
1, ,-57, ,
1, ,-57, ,
-1, ,-56, ,
2, ,-57, ,
-1, ,-56, ,
-1, ,-56, ,
1, ,-56, ,
1, ,-57, ,
-2, ,-56, ,
2, ,-57, ,
-1, ,-57, ,
-1, ,-57, ,
1, ,-56, ,
1, ,-57, ,
-1, ,-56, ,
2, ,-57, ,
-1, ,-57, ,
-1, ,-56, ,
1, ,-56, ,
1, ,-57, ,
-1, ,-56, ,
2, ,-57, ,
-1, ,-56, ,
-1, ,-57, ,
1, ,-56, ,
1, ,-57, ,
-1, ,-56, ,
1, ,-56, ,
-1, ,-56, ,
-1, ,-57, ,
2, ,-56, ,
1, ,-57, ,
-1, ,-56, ,
1, ,-57, ,
-1, ,-57, ,
-1, ,-56, ,
1, ,-56, ,
1, ,-57, ,
-1, ,-56, ,
1, ,-56, ,
-1, ,-56, ,
-1, ,-56, ,
1, ,-56, ,
1, ,-57, ,
-2, ,-56, ,
1, ,-57, ,
-1, ,-57, ,
-1, ,-56, ,
1, ,-57, ,
1, ,-57, ,
-1, ,-56, ,
2, ,-57, ,
-1, ,-56, ,
-1, ,-56, ,
1, ,-56, ,
-1, ,-57, ,
-2, ,-56, ,
1, ,-56, ,
-1, ,-56, ,
-1, ,-56, ,
1, ,-56, ,
1, ,-57, ,
-1, ,-56, ,
2, ,-57, ,
-1, ,-57, ,
-1, ,-57, ,
1, ,-56, ,
1, ,-57, ,
-2, ,-56, ,
1, ,-57, ,
-1, ,-57, ,
-1, ,-56, ,
1, ,-56, ,
1, ,-57, ,
-1, ,-56, ,
2, ,-56, ,
-1, ,-57, ,
-1, ,-56, ,
1, ,-56, ,
1, ,-57, ,
-2, ,-56, ,
2, ,-57, ,
-1, ,-56, ,
-1, ,-57, ,
1, ,-57, ,
1, ,-57, ,
-1, ,-56, ,
2, ,-57, ,
-1, ,-57, ,
-1, ,-57, ,
1, ,-57, ,
1, ,-57, ,
-2, ,-56, ,
2, ,-57, ,
-1, ,-57, ,
-1, ,-57, ,
1, ,-56, ,
1, ,-57, ,
-2, ,-56, ,
2, ,-57, ,
-1, ,-57, ,
-1, ,-56, ,
1, ,-57, ,
1, ,-57, ,
-2, ,-57, ,
2, ,-57, ,
-1, ,-57, ,
-1, ,-57, ,
1, ,-56, ,
1, ,-57, ,
-2, ,-57, ,
2, ,-57, ,
-1, ,-57, ,
-1, ,-57, ,
2, ,-56, ,
1, ,-57, ,
-2, ,-57, ,
2, ,-57, ,
-1, ,-56, ,
-1, ,-57, ,
1, ,-56, ,
1, ,-57, ,
-2, ,-56, ,
2, ,-57, ,
-1, ,-57, ,
-1, ,-57, ,
1, ,-57, ,
1, ,-57, ,
-2, ,-57, ,
2, ,-57, ,
-1, ,-57, ,
-1, ,-57, ,
1, ,-56, ,
1, ,-57, ,
-1, ,-56, ,
2, ,-57, ,
-1, ,-57, ,
-1, ,-57, ,
1, ,-56, ,
1, ,-57, ,
-2, ,-56, ,
1, ,-57, ,
-1, ,-57, ,
-1, ,-57, ,
1, ,-57, ,
1, ,-57, ,
-1, ,-56, ,
2, ,-57, ,
-1, ,-57, ,
-1, ,-57, ,
1, ,-56, ,
1, ,-57, ,
-2, ,-56, ,
1, ,-57, ,
-1, ,-56, ,
-1, ,-57, ,
1, ,-56, ,
1, ,-57, ,
-1, ,-56, ,
2, ,-57, ,
-1, ,-57, ,
-1, ,-57, ,
2, ,-56, ,
1, ,-57, ,
-2, ,-57, ,
2, ,-57, ,
-1, ,-57, ,
-1, ,-57, ,
1, ,-56, ,
1, ,-57, ,
-1, ,-56, ,
2, ,-57, ,
-1, ,-57, ,
-1, ,-56, ,
1, ,-56, ,
1, ,-57, ,
-2, ,-56, ,
2, ,-57, ,
-1, ,-57, ,
-1, ,-57, ,
1, ,-56, ,
1, ,-57, ,
-1, ,-56, ,
2, ,-56, ,
-1, ,-57, ,
-1, ,-56, ,
1, ,-56, ,
1, ,-57, ,
-2, ,-57, ,
1, ,-57, ,
-1, ,-57, ,
-1, ,-57, ,
1, ,-56, ,
-1, ,-57, ,
-1, ,-56, ,
2, ,-56, ,
-1, ,-57, ,
-1, ,-57, ,
1, ,-57, ,
1, ,-57, ,
-2, ,-56, ,
1, ,-57, ,
-1, ,-56, ,
-1, ,-57, ,
1, ,-56, ,
1, ,-57, ,
-2, ,-56, ,
1, ,-57, ,
-1, ,-56, ,
-1, ,-57, ,
1, ,-56, ,
1, ,-57, ,
-2, ,-57, ,
2, ,-57, ,
-1, ,-57, ,
-1, ,-56, ,
1, ,-56, ,
1, ,-57, ,
-1, ,-57, ,
2, ,-57, ,
-1, ,-57, ,
-1, ,-57, ,
1, ,-56, ,
1, ,-57, ,
-1, ,-57, ,
1, ,-57, ,
-1, ,-57, ,
-1, ,-57, ,
1, ,-57, ,
1, ,-57, ,
-2, ,-56, ,
1, ,-56, ,
-1, ,-57, ,
-1, ,-57, ,
1, ,-56, ,
1, ,-57, ,
-2, ,-56, ,
2, ,-57, ,
-1, ,-56, ,
-1, ,-57, ,
1, ,-57, ,
-1, ,-57, ,
-2, ,-56, ,
2, ,-57, ,
-1, ,-57, ,
-1, ,-57, ,
1, ,-56, ,
1, ,-57, ,
-2, ,-57, ,
2, ,-57, ,
-1, ,-57, ,
-1, ,-57, ,
1, ,-57, ,
1, ,-57, ,
-2, ,-56, ,
2, ,-57, ,
-1, ,-57, ,
-1, ,-57, ,
1, ,-57, ,
1, ,-57, ,
-2, ,-57, ,
2, ,-57, ,
-1, ,-57, ,
-1, ,-57, ,
1, ,-57, ,
1, ,-57, ,
-1, ,-56, ,
2, ,-57, ,
-1, ,-57, ,
-1, ,-57, ,
2, ,-56, ,
1, ,-57, ,
-2, ,-57, ,
2, ,-57, ,
-1, ,-56, ,
-1, ,-57, ,
1, ,-57, ,
1, ,-57, ,
-1, ,-56, ,
2, ,-57, ,
-1, ,-57, ,
-1, ,-56, ,
2, ,-56, ,
1, ,-57, ,
-2, ,-57, ,
1, ,-56, ,
-1, ,-57, ,
-1, ,-57, ,
1, ,-57, ,
1, ,-57, ,
-1, ,-56, ,
2, ,-57, ,
-1, ,-57, ,
-1, ,-57, ,
1, ,-57, ,
1, ,-57, ,
-2, ,-56, ,
1, ,-57, ,
-1, ,-57, ,
-1, ,-56, ,
1, ,-56, ,
1, ,-57, ,
-1, ,-56, ,
2, ,-57, ,
-1, ,-57, ,
-1, ,-57, ,
1, ,-56, ,
1, ,-57, ,
-1, ,-57, ,
2, ,-57, ,
-1, ,-57, ,
-1, ,-57, ,
1, ,-56, ,
1, ,-57, ,
-2, ,-57, ,
2, ,-56, ,
-1, ,-57, ,
-1, ,-56, ,
1, ,-56, ,
-1, ,-57, ,
-2, ,-57, ,
2, ,-57, ,
-1, ,-57, ,
-1, ,-56, ,
1, ,-57, ,
-1, ,-57, ,
-2, ,-56, ,
2, ,-57, ,
-1, ,-57, ,
-1, ,-57, ,
1, ,-57, ,
1, ,-57, ,
-2, ,-57, ,
2, ,-57, ,
-1, ,-57, ,
-1, ,-57, ,
1, ,-56, ,
1, ,-57, ,
-2, ,-56, ,
2, ,-57, ,
-1, ,-57, ,
-1, ,-56, ,
1, ,-56, ,
1, ,-57, ,
-2, ,-57, ,
2, ,-57, ,
-1, ,-57, ,
-1, ,-47, ,
1, ,-27, ,
1, ,-11, ,
-1, ,2, ,
2, ,11, ,
-1, ,17, ,
-1, ,23, ,
1, ,26, ,
1, ,30, ,
-2, ,31, ,
1, ,33, ,
-1, ,34, ,
-1, ,35, ,
1, ,35, ,
1, ,36, ,
-1, ,36, ,
1, ,37, ,
-1, ,37, ,
-1, ,37, ,
1, ,37, ,
1, ,37, ,
-2, ,37, ,
1, ,37, ,
-1, ,37, ,
-1, ,37, ,
1, ,37, ,
1, ,37, ,
-1, ,37, ,
1, ,37, ,
-1, ,37, ,
-1, ,37, ,
1, ,37, ,
1, ,37, ,
-2, ,37, ,
1, ,37, ,
-1, ,37, ,
-1, ,37, ,
1, ,37, ,
1, ,37, ,
-1, ,37, ,
2, ,37, ,
-1, ,37, ,
-1, ,37, ,
1, ,37, ,
1, ,36, ,
-1, ,37, ,
1, ,36, ,
-1, ,36, ,
-1, ,37, ,
1, ,37, ,
1, ,36, ,
-1, ,36, ,
1, ,36, ,
-1, ,36, ,
-1, ,36, ,
1, ,36, ,
1, ,37, ,
-2, ,36, ,
1, ,37, ,
-1, ,37, ,
-1, ,36, ,
1, ,36, ,
1, ,37, ,
-1, ,37, ,
1, ,36, ,
-1, ,36, ,
-1, ,37, ,
1, ,36, ,
1, ,37, ,
-1, ,36, ,
1, ,36, ,
-1, ,36, ,
-1, ,37, ,
1, ,36, ,
1, ,37, ,
-1, ,36, ,
1, ,36, ,
-1, ,36, ,
-1, ,36, ,
1, ,36, ,
1, ,36, ,
-1, ,37, ,
2, ,36, ,
-1, ,36, ,
-1, ,36, ,
1, ,36, ,
-1, ,36, ,
-1, ,37, ,
1, ,36, ,
-1, ,37, ,
-1, ,37, ,
1, ,36, ,
1, ,36, ,
-1, ,36, ,
1, ,36, ,
-1, ,37, ,
-1, ,36, ,
1, ,36, ,
-1, ,36, ,
-2, ,37, ,
1, ,36, ,
-1, ,36, ,
-1, ,36, ,
1, ,36, ,
1, ,36, ,
-1, ,36, ,
1, ,36, ,
-1, ,36, ,
-1, ,37, ,
1, ,36, ,
-1, ,37, ,
-1, ,36, ,
1, ,36, ,
-1, ,36, ,
-1, ,36, ,
1, ,36, ,
1, ,37, ,
-1, ,36, ,
1, ,36, ,
-1, ,37, ,
-1, ,37, ,
1, ,36, ,
-1, ,36, ,
-1, ,36, ,
1, ,36, ,
-1, ,36, ,
-1, ,36, ,
1, ,36, ,
1, ,37, ,
-1, ,36, ,
1, ,36, ,
-1, ,36, ,
-1, ,37, ,
1, ,36, ,
1, ,36, ,
-1, ,36, ,
1, ,36, ,
-1, ,36, ,
-1, ,37, ,
1, ,36, ,
-1, ,37, ,
-2, ,36, ,
1, ,37, ,
-1, ,36, ,
-1, ,36, ,
1, ,36, ,
1, ,36, ,
-1, ,36, ,
1, ,36, ,
-1, ,36, ,
-1, ,36, ,
1, ,36, ,
1, ,37, ,
-1, ,37, ,
1, ,35, ,
-1, ,19, ,
-1, ,0, ,
1, ,-15, ,
-1, ,-25, ,
-2, ,-34, ,
1, ,-40, ,
-1, ,-44, ,
-1, ,-47, ,
1, ,-51, ,
1, ,-53, ,
-2, ,-54, ,
2, ,-55, ,
-1, ,-55, ,
-1, ,-56, ,
1, ,-57, ,
1, ,-57, ,
-1, ,-57, ,
1, ,-57, ,
-1, ,-57, ,
-1, ,-57, ,
1, ,-57, ,
1, ,-58, ,
-1, ,-57, ,
1, ,-57, ,
-1, ,-57, ,
-1, ,-57, ,
1, ,-57, ,
1, ,-58, ,
-1, ,-57, ,
1, ,-57, ,
-1, ,-57, ,
-1, ,-57, ,
1, ,-57, ,
1, ,-58, ,
-2, ,-57, ,
2, ,-57, ,
-1, ,-57, ,
-1, ,-57, ,
1, ,-57, ,
1, ,-58, ,
-2, ,-56, ,
2, ,-57, ,
-1, ,-57, ,
-1, ,-57, ,
1, ,-57, ,
1, ,-57, ,
-1, ,-57, ,
2, ,-57, ,
-1, ,-57, ,
-1, ,-56, ,
1, ,-57, ,
1, ,-57, ,
-2, ,-57, ,
1, ,-57, ,
-1, ,-57, ,
-1, ,-57, ,
1, ,-56, ,
1, ,-57, ,
-2, ,-56, ,
2, ,-57, ,
-1, ,-57, ,
-1, ,-57, ,
1, ,-57, ,
1, ,-57, ,
-1, ,-56, ,
2, ,-57, ,
-1, ,-57, ,
-1, ,-57, ,
1, ,-56, ,
1, ,-57, ,
-2, ,-57, ,
2, ,-57, ,
-1, ,-57, ,
-1, ,-57, ,
1, ,-57, ,
1, ,-57, ,
-1, ,-57, ,
2, ,-57, ,
-1, ,-57, ,
-1, ,-56, ,
1, ,-57, ,
1, ,-57, ,
-1, ,-56, ,
1, ,-57, ,
-1, ,-57, ,
-1, ,-57, ,
1, ,-56, ,
1, ,-57, ,
-2, ,-57, ,
1, ,-57, ,
-1, ,-57, ,
-1, ,-56, ,
1, ,-57, ,
1, ,-57, ,
-2, ,-57, ,
2, ,-57, ,
-1, ,-57, ,
-1, ,-57, ,
1, ,-57, ,
1, ,-57, ,
-1, ,-56, ,
2, ,-57, ,
-1, ,-57, ,
-1, ,-57, ,
1, ,-57, ,
1, ,-57, ,
-2, ,-57, ,
1, ,-57, ,
-1, ,-57, ,
-1, ,-57, ,
1, ,-56, ,
1, ,-57, ,
-2, ,-56, ,
2, ,-57, ,
-1, ,-57, ,
-1, ,-57, ,
1, ,-56, ,
-1, ,-57, ,
-2, ,-57, ,
2, ,-57, ,
-1, ,-57, ,
-1, ,-57, ,
1, ,-57, ,
1, ,-57, ,
-2, ,-56, ,
2, ,-56, ,
-1, ,-57, ,
-1, ,-57, ,
1, ,-57, ,
1, ,-57, ,
-2, ,-57, ,
1, ,-57, ,
-1, ,-57, ,
-1, ,-57, ,
-1, ,-57, ,
-1, ,-57, ,
-2, ,-56, ,
2, ,-57, ,
-1, ,-57, ,
-1, ,-57, ,
1, ,-57, ,
1, ,-57, ,
-2, ,-57, ,
1, ,-57, ,
-1, ,-57, ,
-1, ,-56, ,
1, ,-56, ,
1, ,-57, ,
-1, ,-56, ,
2, ,-57, ,
-1, ,-57, ,
-1, ,-56, ,
1, ,-56, ,
1, ,-57, ,
-2, ,-57, ,
1, ,-57, ,
-1, ,-57, ,
-1, ,-57, ,
1, ,-57, ,
-1, ,-57, ,
-1, ,-56, ,
2, ,-57, ,
-1, ,-57, ,
-1, ,-57, ,
1, ,-56, ,
1, ,-57, ,
-1, ,-56, ,
1, ,-57, ,
-1, ,-57, ,
-1, ,-57, ,
1, ,-57, ,
1, ,-57, ,
-1, ,-56, ,
1, ,-57, ,
-1, ,-57, ,
-1, ,-57, ,
1, ,-56, ,
1, ,-57, ,
-2, ,-57, ,
1, ,-57, ,
-1, ,-56, ,
-1, ,-57, ,
1, ,-57, ,
1, ,-57, ,
-1, ,-56, ,
2, ,-57, ,
-1, ,-57, ,
-1, ,-57, ,
1, ,-57, ,
1, ,-57, ,
-1, ,-57, ,
2, ,-57, ,
-1, ,-56, ,
-1, ,-57, ,
1, ,-57, ,
1, ,-57, ,
-1, ,-56, ,
91, ,-57, ,
71, ,-57, ,
43, ,-57, ,
26, ,-57, ,
17, ,-57, ,
10, ,-57, ,
10, ,-57, ,
5, ,-56, ,
3, ,-57, ,
5, ,-56, ,
3, ,-57, ,
1, ,-56, ,
3, ,-57, ,
2, ,-57, ,
2, ,-56, ,
3, ,-57, ,
3, ,-57, ,
1, ,-56, ,
3, ,-57, ,
2, ,-57, ,
2, ,-56, ,
2, ,-56, ,
3, ,-57, ,
1, ,-56, ,
3, ,-57, ,
2, ,-57, ,
1, ,-57, ,
2, ,-56, ,
2, ,-57, ,
1, ,-57, ,
3, ,-57, ,
2, ,-57, ,
2, ,-56, ,
2, ,-57, ,
2, ,-57, ,
1, ,-56, ,
3, ,-57, ,
2, ,-57, ,
1, ,-56, ,
2, ,-56, ,
2, ,-57, ,
1, ,-56, ,
3, ,-57, ,
2, ,-57, ,
2, ,-57, ,
2, ,-57, ,
2, ,-57, ,
1, ,-56, ,
3, ,-57, ,
1, ,-57, ,
1, ,-56, ,
2, ,-56, ,
2, ,-57, ,
1, ,-56, ,
3, ,-57, ,
1, ,-56, ,
2, ,-57, ,
2, ,-56, ,
2, ,-57, ,
1, ,-56, ,
3, ,-57, ,
1, ,-57, ,
2, ,-57, ,
2, ,-56, ,
2, ,-57, ,
1, ,-56, ,
3, ,-57, ,
2, ,-57, ,
2, ,-56, ,
2, ,-56, ,
2, ,-57, ,
1, ,-56, ,
3, ,-56, ,
1, ,-57, ,
1, ,-57, ,
2, ,-57, ,
2, ,-57, ,
1, ,-56, ,
3, ,-57, ,
1, ,-57, ,
2, ,-57, ,
2, ,-56, ,
2, ,-57, ,
1, ,-56, ,
3, ,-56, ,
1, ,-57, ,
2, ,-56, ,
2, ,-57, ,
2, ,-57, ,
1, ,-56, ,
3, ,-56, ,
1, ,-56, ,
1, ,-56, ,
2, ,-57, ,
2, ,-57, ,
1, ,-56, ,
3, ,-57, ,
1, ,-57, ,
1, ,-56, ,
2, ,-57, ,
2, ,-57, ,
1, ,-56, ,
3, ,-57, ,
2, ,-56, ,
2, ,-56, ,
2, ,-56, ,
2, ,-57, ,
1, ,-56, ,
3, ,-57, ,
1, ,-57, ,
1, ,-56, ,
2, ,-56, ,
2, ,-57, ,
1, ,-56, ,
3, ,-57, ,
1, ,-56, ,
2, ,-57, ,
2, ,-57, ,
2, ,-57, ,
1, ,-56, ,
3, ,-57, ,
1, ,-57, ,
1, ,-57, ,
2, ,-56, ,
2, ,-57, ,
-1, ,-56, ,
3, ,-57, ,
1, ,-56, ,
2, ,-57, ,
2, ,-56, ,
2, ,-57, ,
1, ,-56, ,
3, ,-57, ,
1, ,-57, ,
1, ,-56, ,
3, ,-56, ,
2, ,-57, ,
-1, ,-56, ,
3, ,-57, ,
1, ,-56, ,
2, ,-57, ,
2, ,-56, ,
2, ,-57, ,
1, ,-56, ,
3, ,-57, ,
1, ,-56, ,
1, ,-56, ,
2, ,-56, ,
2, ,-57, ,
-1, ,-57, ,
3, ,-57, ,
1, ,-57, ,
1, ,-57, ,
2, ,-56, ,
2, ,-57, ,
1, ,-56, ,
2, ,-57, ,
1, ,-57, ,
1, ,-56, ,
2, ,-56, ,
2, ,-57, ,
-1, ,-57, ,
3, ,-57, ,
1, ,-56, ,
1, ,-56, ,
2, ,-56, ,
2, ,-57, ,
-1, ,-57, ,
3, ,-57, ,
1, ,-56, ,
1, ,-56, ,
2, ,-56, ,
2, ,-57, ,
-1, ,-56, ,
3, ,-57, ,
1, ,-57, ,
1, ,-57, ,
2, ,-57, ,
2, ,-57, ,
1, ,-56, ,
2, ,-57, ,
1, ,-56, ,
1, ,-56, ,
2, ,-56, ,
2, ,-57, ,
-1, ,-56, ,
3, ,-57, ,
1, ,-56, ,
1, ,-57, ,
2, ,-56, ,
2, ,-57, ,
1, ,-56, ,
3, ,-56, ,
1, ,-56, ,
1, ,-56, ,
2, ,-56, ,
2, ,-57, ,
-1, ,-56, ,
3, ,-57, ,
1, ,-56, ,
1, ,-56, ,
1, ,-56, ,
2, ,-57, ,
1, ,-56, ,
2, ,-57, ,
1, ,-57, ,
1, ,-56, ,
2, ,-56, ,
2, ,-57, ,
-1, ,-56, ,
3, ,-57, ,
1, ,-56, ,
1, ,-56, ,
2, ,-56, ,
1, ,-57, ,
-1, ,-56, ,
2, ,-57, ,
1, ,-57, ,
1, ,-56, ,
2, ,-56, ,
2, ,-57, ,
-1, ,-56, ,
2, ,-57, ,
1, ,-57, ,
1, ,-57, ,
2, ,-57, ,
2, ,-57, ,
1, ,-56, ,
2, ,-57, ,
1, ,-56, ,
1, ,-56, ,
2, ,-56, ,
2, ,-57, ,
-1, ,-56, ,
2, ,-57, ,
1, ,-56, ,
1, ,-57, ,
2, ,-57, ,
2, ,-57, ,
1, ,-56, ,
2, ,-57, ,
1, ,-57, ,
1, ,-56, ,
2, ,-56, ,
2, ,-57, ,
-1, ,-56, ,
3, ,-57, ,
1, ,-56, ,
1, ,-56, ,
2, ,-56, ,
2, ,-57, ,
-1, ,-56, ,
