src/varyamp_1560/temp0001401.CSV

Format,1.0B,
Memory Length,10000,Memory Length,10000,
IntpDistance,0,IntpDistance,0,
Trigger Address,4999,Trigger Address,4999,
Trigger Level,1.040E+00,Trigger Level,1.040E+00,
Source,CH1,Source,CH2,
Vertical Units,V,Vertical Units,V,
Vertical Units Div,0,Vertical Units Div,0,
Vertical Units Extend Div,16,Vertical Units Extend Div,16,
Label,,Label,,
Probe Type,0,Probe Type,0,
Probe Ratio,1.000e+01,Probe Ratio,1.000e+00,
Vertical Scale,5.000e-01,Vertical Scale,1.000e+00,
Vertical Position,-1.820e+00,Vertical Position,0.000e+00,
Horizontal Units,S,Horizontal Units,S,
Horizontal Scale,2.000E-05,Horizontal Scale,2.000E-05,
Horizontal Position,0.000E+00,Horizontal Position,0.000E+00,
Horizontal Mode,Main,Horizontal Mode,Main,
SincET Mode,Real Time,SincET Mode,Real Time,
Sampling Period,2.000e-08,Sampling Period,2.000e-08,
Horizontal Old Scale,2.000E-05,Horizontal Old Scale,2.000E-05,
Horizontal Old Position,0.000E+00,Horizontal Old Position,0.000E+00,
Firmware,V1.23,Firmware,V1.23,
Mode,Fast,Mode,Fast,
Waveform Data,,Waveform Data,,
2, ,-57, ,
-1, ,-57, ,
-1, ,-56, ,
1, ,-56, ,
1, ,-57, ,
-1, ,-56, ,
1, ,-57, ,
-1, ,-57, ,
-1, ,-57, ,
1, ,-57, ,
1, ,-58, ,
-1, ,-56, ,
1, ,-57, ,
-1, ,-57, ,
-1, ,-56, ,
1, ,-57, ,
1, ,-57, ,
-1, ,-56, ,
1, ,-57, ,
-1, ,-57, ,
-1, ,-57, ,
1, ,-56, ,
1, ,-57, ,
-1, ,-56, ,
1, ,-57, ,
-1, ,-57, ,
-1, ,-56, ,
1, ,-57, ,
1, ,-58, ,
-1, ,-56, ,
1, ,-57, ,
-1, ,-57, ,
-1, ,-57, ,
1, ,-57, ,
1, ,-58, ,
-1, ,-56, ,
2, ,-57, ,
-1, ,-57, ,
-1, ,-56, ,
1, ,-57, ,
1, ,-57, ,
-1, ,-56, ,
1, ,-57, ,
-1, ,-57, ,
-1, ,-57, ,
1, ,-56, ,
1, ,-57, ,
-1, ,-57, ,
1, ,-57, ,
-1, ,-57, ,
-1, ,-57, ,
1, ,-57, ,
1, ,-57, ,
-1, ,-56, ,
1, ,-57, ,
-1, ,-57, ,
-1, ,-56, ,
1, ,-57, ,
1, ,-57, ,
-1, ,-56, ,
1, ,-57, ,
-1, ,-57, ,
-1, ,-57, ,
1, ,-57, ,
1, ,-57, ,
-1, ,-56, ,
1, ,-57, ,
-1, ,-57, ,
-1, ,-57, ,
1, ,-56, ,
1, ,-57, ,
-1, ,-56, ,
1, ,-57, ,
-1, ,-57, ,
1, ,-56, ,
1, ,-56, ,
1, ,-57, ,
-1, ,-56, ,
1, ,-57, ,
-1, ,-57, ,
-1, ,-57, ,
1, ,-57, ,
1, ,-57, ,
-1, ,-56, ,
1, ,-57, ,
-1, ,-57, ,
1, ,-56, ,
1, ,-56, ,
1, ,-57, ,
-1, ,-56, ,
1, ,-57, ,
-1, ,-57, ,
1, ,-57, ,
1, ,-57, ,
1, ,-57, ,
-1, ,-56, ,
1, ,-57, ,
-1, ,-57, ,
-1, ,-56, ,
1, ,-57, ,
1, ,-58, ,
-1, ,-56, ,
2, ,-57, ,
-1, ,-57, ,
1, ,-57, ,
1, ,-57, ,
1, ,-57, ,
-1, ,-56, ,
1, ,-57, ,
-1, ,-57, ,
-1, ,-56, ,
1, ,-56, ,
1, ,-57, ,
-1, ,-57, ,
2, ,-57, ,
-1, ,-56, ,
-1, ,-57, ,
1, ,-56, ,
1, ,-57, ,
-1, ,-56, ,
1, ,-57, ,
-1, ,-57, ,
-1, ,-57, ,
1, ,-56, ,
1, ,-57, ,
-1, ,-56, ,
2, ,-57, ,
-1, ,-57, ,
-1, ,-56, ,
1, ,-57, ,
1, ,-57, ,
-1, ,-56, ,
1, ,-57, ,
-1, ,-57, ,
-1, ,-56, ,
1, ,-57, ,
1, ,-57, ,
-1, ,-56, ,
2, ,-57, ,
-1, ,-57, ,
-1, ,-57, ,
1, ,-57, ,
1, ,-58, ,
-1, ,-56, ,
2, ,-57, ,
-1, ,-57, ,
-1, ,-56, ,
1, ,-56, ,
1, ,-57, ,
-1, ,-57, ,
1, ,-57, ,
-1, ,-57, ,
-1, ,-57, ,
1, ,-57, ,
1, ,-58, ,
-1, ,-56, ,
1, ,-57, ,
-1, ,-57, ,
-1, ,-56, ,
1, ,-56, ,
1, ,-57, ,
-1, ,-56, ,
1, ,-57, ,
-1, ,-57, ,
-1, ,-57, ,
1, ,-57, ,
1, ,-57, ,
-1, ,-56, ,
1, ,-57, ,
-1, ,-57, ,
-1, ,-57, ,
1, ,-56, ,
1, ,-57, ,
-1, ,-56, ,
2, ,-57, ,
-1, ,-57, ,
-1, ,-57, ,
1, ,-57, ,
1, ,-57, ,
-1, ,-56, ,
1, ,-56, ,
-1, ,-57, ,
-1, ,-56, ,
1, ,-57, ,
1, ,-57, ,
-1, ,-57, ,
1, ,-57, ,
-1, ,-57, ,
-1, ,-57, ,
1, ,-57, ,
1, ,-58, ,
-1, ,-56, ,
1, ,-57, ,
-1, ,-58, ,
-1, ,-57, ,
1, ,-56, ,
1, ,-57, ,
-1, ,-56, ,
1, ,-57, ,
-1, ,-57, ,
-1, ,-56, ,
1, ,-57, ,
1, ,-58, ,
-1, ,-56, ,
2, ,-57, ,
-1, ,-57, ,
-1, ,-57, ,
1, ,-56, ,
1, ,-57, ,
-1, ,-57, ,
2, ,-57, ,
-1, ,-57, ,
-1, ,-57, ,
1, ,-57, ,
1, ,-57, ,
-1, ,-56, ,
1, ,-57, ,
-1, ,-57, ,
-1, ,-57, ,
1, ,-56, ,
1, ,-57, ,
-1, ,-56, ,
1, ,-57, ,
-1, ,-57, ,
-1, ,-57, ,
1, ,-57, ,
1, ,-58, ,
-1, ,-56, ,
1, ,-57, ,
-1, ,-58, ,
-1, ,-57, ,
1, ,-56, ,
1, ,-57, ,
-1, ,-57, ,
1, ,-57, ,
-1, ,-57, ,
-1, ,-57, ,
1, ,-57, ,
1, ,-58, ,
-1, ,-56, ,
2, ,-57, ,
-1, ,-58, ,
1, ,-57, ,
1, ,-56, ,
1, ,-57, ,
-1, ,-56, ,
1, ,-57, ,
-1, ,-57, ,
-1, ,-57, ,
1, ,-56, ,
1, ,-57, ,
-1, ,-56, ,
1, ,-57, ,
-1, ,-57, ,
-1, ,-57, ,
1, ,-56, ,
1, ,-57, ,
-1, ,-57, ,
1, ,-57, ,
-1, ,-57, ,
-1, ,-57, ,
1, ,-56, ,
1, ,-57, ,
-1, ,-56, ,
1, ,-57, ,
-1, ,-57, ,
-1, ,-57, ,
1, ,-56, ,
1, ,-58, ,
-1, ,-57, ,
1, ,-57, ,
-1, ,-57, ,
-1, ,-56, ,
1, ,-57, ,
1, ,-58, ,
-1, ,-56, ,
1, ,-57, ,
-1, ,-57, ,
-1, ,-57, ,
1, ,-56, ,
1, ,-57, ,
-1, ,-57, ,
2, ,-57, ,
-1, ,-57, ,
-1, ,-56, ,
1, ,-57, ,
1, ,-58, ,
-1, ,-56, ,
1, ,-57, ,
-1, ,-58, ,
-1, ,-56, ,
1, ,-56, ,
1, ,-57, ,
-1, ,-56, ,
1, ,-57, ,
-1, ,-57, ,
-1, ,-56, ,
1, ,-56, ,
1, ,-57, ,
-1, ,-56, ,
1, ,-57, ,
-1, ,-58, ,
-1, ,-57, ,
1, ,-57, ,
1, ,-55, ,
-1, ,-36, ,
1, ,-17, ,
-1, ,-3, ,
1, ,7, ,
1, ,15, ,
1, ,21, ,
-1, ,24, ,
1, ,27, ,
-1, ,31, ,
1, ,32, ,
1, ,34, ,
1, ,35, ,
-1, ,35, ,
1, ,36, ,
-1, ,36, ,
-1, ,37, ,
1, ,37, ,
1, ,37, ,
-1, ,37, ,
1, ,37, ,
-1, ,37, ,
-1, ,37, ,
1, ,37, ,
1, ,37, ,
-1, ,37, ,
1, ,37, ,
-1, ,37, ,
-1, ,37, ,
1, ,37, ,
1, ,37, ,
-1, ,37, ,
1, ,37, ,
-1, ,37, ,
-1, ,37, ,
1, ,37, ,
1, ,37, ,
-1, ,36, ,
1, ,37, ,
87, ,37, ,
71, ,36, ,
43, ,37, ,
27, ,37, ,
16, ,36, ,
12, ,37, ,
8, ,36, ,
6, ,37, ,
6, ,36, ,
3, ,37, ,
2, ,36, ,
5, ,37, ,
2, ,37, ,
2, ,36, ,
3, ,36, ,
3, ,37, ,
2, ,36, ,
3, ,36, ,
2, ,37, ,
2, ,36, ,
3, ,36, ,
3, ,37, ,
2, ,36, ,
3, ,37, ,
2, ,37, ,
2, ,37, ,
3, ,37, ,
3, ,37, ,
2, ,36, ,
3, ,37, ,
2, ,37, ,
2, ,36, ,
3, ,37, ,
2, ,37, ,
2, ,36, ,
3, ,36, ,
2, ,37, ,
1, ,36, ,
3, ,37, ,
3, ,37, ,
2, ,36, ,
3, ,36, ,
2, ,37, ,
2, ,36, ,
2, ,37, ,
2, ,36, ,
1, ,36, ,
3, ,36, ,
2, ,37, ,
2, ,36, ,
2, ,37, ,
2, ,37, ,
1, ,36, ,
3, ,36, ,
2, ,37, ,
2, ,36, ,
2, ,37, ,
2, ,37, ,
2, ,36, ,
3, ,37, ,
2, ,36, ,
2, ,36, ,
3, ,37, ,
2, ,36, ,
2, ,36, ,
3, ,36, ,
2, ,37, ,
2, ,36, ,
2, ,37, ,
2, ,37, ,
1, ,36, ,
3, ,36, ,
2, ,37, ,
2, ,36, ,
2, ,36, ,
2, ,36, ,
1, ,36, ,
2, ,36, ,
2, ,36, ,
1, ,36, ,
2, ,37, ,
2, ,37, ,
1, ,36, ,
2, ,36, ,
2, ,37, ,
2, ,36, ,
2, ,37, ,
2, ,37, ,
1, ,36, ,
2, ,36, ,
2, ,36, ,
2, ,36, ,
2, ,36, ,
2, ,37, ,
1, ,36, ,
2, ,36, ,
2, ,37, ,
1, ,36, ,
2, ,36, ,
2, ,36, ,
2, ,36, ,
2, ,37, ,
2, ,37, ,
2, ,36, ,
2, ,37, ,
2, ,37, ,
1, ,36, ,
2, ,36, ,
2, ,37, ,
1, ,36, ,
2, ,37, ,
2, ,37, ,
1, ,36, ,
2, ,36, ,
2, ,36, ,
2, ,36, ,
2, ,26, ,
2, ,7, ,
1, ,-9, ,
2, ,-22, ,
2, ,-31, ,
1, ,-38, ,
2, ,-43, ,
2, ,-47, ,
1, ,-49, ,
2, ,-52, ,
1, ,-54, ,
1, ,-54, ,
2, ,-55, ,
2, ,-56, ,
1, ,-56, ,
3, ,-57, ,
1, ,-57, ,
2, ,-56, ,
2, ,-57, ,
2, ,-58, ,
1, ,-56, ,
3, ,-57, ,
1, ,-58, ,
2, ,-57, ,
2, ,-57, ,
2, ,-58, ,
1, ,-57, ,
2, ,-58, ,
1, ,-57, ,
2, ,-57, ,
2, ,-57, ,
2, ,-58, ,
1, ,-56, ,
2, ,-57, ,
1, ,-58, ,
2, ,-57, ,
2, ,-57, ,
2, ,-58, ,
1, ,-57, ,
2, ,-57, ,
1, ,-57, ,
2, ,-56, ,
2, ,-57, ,
2, ,-57, ,
1, ,-56, ,
3, ,-57, ,
1, ,-57, ,
2, ,-57, ,
2, ,-56, ,
2, ,-58, ,
1, ,-57, ,
2, ,-57, ,
1, ,-57, ,
2, ,-56, ,
2, ,-57, ,
2, ,-58, ,
1, ,-55, ,
3, ,-57, ,
1, ,-57, ,
1, ,-56, ,
2, ,-56, ,
2, ,-58, ,
1, ,-57, ,
2, ,-57, ,
1, ,-57, ,
1, ,-56, ,
2, ,-57, ,
2, ,-58, ,
1, ,-56, ,
2, ,-57, ,
1, ,-57, ,
1, ,-56, ,
2, ,-56, ,
2, ,-57, ,
1, ,-56, ,
2, ,-57, ,
1, ,-57, ,
1, ,-56, ,
2, ,-56, ,
2, ,-58, ,
-1, ,-56, ,
2, ,-57, ,
1, ,-57, ,
1, ,-57, ,
2, ,-56, ,
2, ,-58, ,
1, ,-57, ,
2, ,-57, ,
1, ,-57, ,
1, ,-56, ,
2, ,-56, ,
2, ,-57, ,
1, ,-56, ,
2, ,-57, ,
1, ,-57, ,
2, ,-56, ,
2, ,-56, ,
2, ,-57, ,
1, ,-56, ,
2, ,-57, ,
1, ,-57, ,
1, ,-56, ,
2, ,-56, ,
2, ,-58, ,
1, ,-56, ,
2, ,-57, ,
1, ,-57, ,
1, ,-57, ,
2, ,-56, ,
2, ,-57, ,
1, ,-57, ,
2, ,-57, ,
1, ,-57, ,
1, ,-56, ,
2, ,-56, ,
1, ,-57, ,
-1, ,-56, ,
2, ,-57, ,
1, ,-57, ,
1, ,-56, ,
2, ,-56, ,
1, ,-57, ,
-1, ,-57, ,
2, ,-57, ,
1, ,-57, ,
1, ,-56, ,
2, ,-56, ,
2, ,-57, ,
1, ,-56, ,
2, ,-57, ,
1, ,-57, ,
2, ,-57, ,
2, ,-56, ,
2, ,-57, ,
1, ,-57, ,
2, ,-57, ,
1, ,-57, ,
1, ,-56, ,
2, ,-56, ,
2, ,-57, ,
-1, ,-56, ,
2, ,-57, ,
1, ,-57, ,
1, ,-56, ,
2, ,-56, ,
2, ,-57, ,
1, ,-57, ,
2, ,-57, ,
1, ,-57, ,
1, ,-56, ,
2, ,-56, ,
1, ,-57, ,
1, ,-56, ,
2, ,-57, ,
1, ,-57, ,
1, ,-56, ,
2, ,-56, ,
2, ,-57, ,
1, ,-57, ,
2, ,-57, ,
1, ,-57, ,
1, ,-56, ,
2, ,-57, ,
1, ,-58, ,
1, ,-56, ,
2, ,-57, ,
1, ,-57, ,
1, ,-56, ,
2, ,-56, ,
1, ,-57, ,
-1, ,-56, ,
2, ,-57, ,
1, ,-57, ,
1, ,-56, ,
2, ,-56, ,
2, ,-57, ,
1, ,-56, ,
2, ,-57, ,
1, ,-57, ,
1, ,-57, ,
2, ,-56, ,
1, ,-57, ,
1, ,-57, ,
2, ,-57, ,
1, ,-57, ,
1, ,-56, ,
2, ,-57, ,
2, ,-57, ,
1, ,-56, ,
2, ,-57, ,
1, ,-57, ,
1, ,-56, ,
2, ,-57, ,
2, ,-57, ,
1, ,-57, ,
2, ,-57, ,
1, ,-57, ,
1, ,-56, ,
2, ,-57, ,
2, ,-57, ,
1, ,-56, ,
2, ,-57, ,
1, ,-57, ,
1, ,-57, ,
2, ,-56, ,
1, ,-57, ,
-1, ,-56, ,
2, ,-57, ,
1, ,-57, ,
1, ,-56, ,
2, ,-56, ,
1, ,-58, ,
-1, ,-56, ,
2, ,-57, ,
1, ,-57, ,
1, ,-57, ,
1, ,-56, ,
1, ,-58, ,
-1, ,-57, ,
2, ,-57, ,
1, ,-57, ,
1, ,-56, ,
1, ,-57, ,
1, ,-58, ,
-1, ,-56, ,
2, ,-57, ,
1, ,-57, ,
1, ,-56, ,
1, ,-56, ,
1, ,-57, ,
-1, ,-56, ,
2, ,-57, ,
1, ,-57, ,
1, ,-56, ,
1, ,-57, ,
1, ,-57, ,
-1, ,-56, ,
2, ,-57, ,
1, ,-57, ,
1, ,-56, ,
2, ,-56, ,
1, ,-57, ,
-1, ,-57, ,
2, ,-57, ,
1, ,-57, ,
1, ,-56, ,
1, ,-56, ,
1, ,-58, ,
-1, ,-56, ,
2, ,-57, ,
1, ,-57, ,
1, ,-57, ,
2, ,-56, ,
1, ,-57, ,
-1, ,-57, ,
2, ,-57, ,
1, ,-57, ,
1, ,-56, ,
2, ,-56, ,
1, ,-57, ,
-1, ,-56, ,
2, ,-57, ,
-1, ,-57, ,
1, ,-57, ,
2, ,-56, ,
1, ,-57, ,
-1, ,-56, ,
2, ,-57, ,
1, ,-57, ,
1, ,-57, ,
1, ,-57, ,
1, ,-57, ,
-1, ,-56, ,
2, ,-57, ,
1, ,-57, ,
1, ,-57, ,
2, ,-56, ,
2, ,-57, ,
-1, ,-56, ,
2, ,-57, ,
1, ,-57, ,
1, ,-57, ,
2, ,-57, ,
1, ,-58, ,
1, ,-56, ,
2, ,-57, ,
1, ,-57, ,
1, ,-57, ,
2, ,-56, ,
1, ,-57, ,
-1, ,-56, ,
2, ,-57, ,
1, ,-57, ,
1, ,-57, ,
2, ,-56, ,
1, ,-57, ,
-1, ,-56, ,
2, ,-57, ,
1, ,-57, ,
1, ,-57, ,
2, ,-56, ,
1, ,-58, ,
-1, ,-57, ,
2, ,-57, ,
1, ,-57, ,
1, ,-56, ,
2, ,-56, ,
1, ,-57, ,
-1, ,-56, ,
2, ,-57, ,
1, ,-57, ,
1, ,-57, ,
2, ,-56, ,
1, ,-57, ,
-1, ,-57, ,
2, ,-57, ,
-1, ,-57, ,
1, ,-56, ,
1, ,-56, ,
1, ,-57, ,
-1, ,-56, ,
2, ,-57, ,
1, ,-57, ,
1, ,-57, ,
2, ,-57, ,
2, ,-57, ,
-1, ,-57, ,
2, ,-57, ,
1, ,-57, ,
1, ,-57, ,
2, ,-56, ,
1, ,-57, ,
-1, ,-56, ,
2, ,-57, ,
-1, ,-57, ,
1, ,-57, ,
1, ,-56, ,
1, ,-57, ,
-1, ,-56, ,
2, ,-57, ,
1, ,-57, ,
1, ,-56, ,
1, ,-57, ,
1, ,-57, ,
-1, ,-56, ,
2, ,-57, ,
-1, ,-57, ,
1, ,-56, ,
1, ,-56, ,
1, ,-58, ,
-1, ,-56, ,
2, ,-57, ,
-1, ,-57, ,
1, ,-56, ,
1, ,-57, ,
2, ,-57, ,
-1, ,-56, ,
2, ,-57, ,
-1, ,-57, ,
1, ,-56, ,
1, ,-56, ,
1, ,-57, ,
-1, ,-57, ,
2, ,-57, ,
1, ,-57, ,
-1, ,-57, ,
1, ,-57, ,
1, ,-58, ,
-1, ,-56, ,
2, ,-56, ,
-1, ,-57, ,
1, ,-56, ,
1, ,-56, ,
1, ,-57, ,
-1, ,-57, ,
2, ,-57, ,
-1, ,-57, ,
1, ,-56, ,
1, ,-57, ,
1, ,-57, ,
-1, ,-56, ,
1, ,-57, ,
-1, ,-58, ,
1, ,-56, ,
1, ,-57, ,
1, ,-57, ,
-1, ,-57, ,
2, ,-57, ,
-1, ,-57, ,
1, ,-56, ,
1, ,-57, ,
1, ,-58, ,
-1, ,-56, ,
2, ,-57, ,
1, ,-57, ,
1, ,-57, ,
1, ,-56, ,
1, ,-57, ,
-1, ,-57, ,
2, ,-57, ,
1, ,-57, ,
1, ,-56, ,
1, ,-57, ,
1, ,-58, ,
-1, ,-56, ,
2, ,-57, ,
-1, ,-58, ,
1, ,-56, ,
1, ,-57, ,
1, ,-57, ,
-1, ,-57, ,
2, ,-57, ,
1, ,-57, ,
1, ,-56, ,
2, ,-57, ,
1, ,-58, ,
-1, ,-56, ,
2, ,-57, ,
1, ,-58, ,
1, ,-56, ,
1, ,-57, ,
1, ,-57, ,
-1, ,-57, ,
2, ,-57, ,
-1, ,-57, ,
1, ,-56, ,
1, ,-57, ,
2, ,-57, ,
-1, ,-56, ,
2, ,-57, ,
-1, ,-57, ,
1, ,-56, ,
1, ,-56, ,
1, ,-57, ,
-1, ,-57, ,
2, ,-57, ,
-1, ,-57, ,
1, ,-56, ,
1, ,-57, ,
1, ,-57, ,
-1, ,-56, ,
2, ,-57, ,
-1, ,-58, ,
1, ,-57, ,
2, ,-56, ,
1, ,-57, ,
-1, ,-57, ,
2, ,-57, ,
1, ,-57, ,
1, ,-56, ,
2, ,-57, ,
1, ,-57, ,
-1, ,-56, ,
1, ,-57, ,
-1, ,-57, ,
1, ,-56, ,
1, ,-56, ,
1, ,-57, ,
-1, ,-56, ,
2, ,-57, ,
1, ,-57, ,
1, ,-57, ,
1, ,-57, ,
1, ,-58, ,
-1, ,-56, ,
2, ,-57, ,
-1, ,-57, ,
1, ,-56, ,
1, ,-56, ,
1, ,-57, ,
-1, ,-57, ,
2, ,-57, ,
-1, ,-57, ,
1, ,-56, ,
1, ,-57, ,
1, ,-58, ,
-1, ,-56, ,
1, ,-57, ,
-1, ,-57, ,
1, ,-57, ,
1, ,-56, ,
1, ,-57, ,
-1, ,-57, ,
1, ,-57, ,
-1, ,-57, ,
1, ,-56, ,
1, ,-57, ,
1, ,-57, ,
-1, ,-56, ,
2, ,-57, ,
-1, ,-57, ,
-1, ,-56, ,
1, ,-57, ,
1, ,-57, ,
-1, ,-57, ,
2, ,-57, ,
-1, ,-57, ,
1, ,-56, ,
1, ,-57, ,
1, ,-57, ,
-1, ,-56, ,
2, ,-57, ,
-1, ,-58, ,
1, ,-57, ,
1, ,-57, ,
1, ,-57, ,
-1, ,-56, ,
2, ,-57, ,
-1, ,-57, ,
1, ,-56, ,
1, ,-57, ,
1, ,-57, ,
-1, ,-56, ,
2, ,-57, ,
-1, ,-57, ,
-1, ,-57, ,
1, ,-56, ,
1, ,-57, ,
-1, ,-57, ,
2, ,-57, ,
-1, ,-57, ,
1, ,-56, ,
1, ,-57, ,
1, ,-58, ,
-1, ,-56, ,
2, ,-57, ,
-1, ,-57, ,
1, ,-56, ,
1, ,-56, ,
1, ,-57, ,
-1, ,-57, ,
1, ,-57, ,
-1, ,-57, ,
1, ,-57, ,
1, ,-57, ,
1, ,-57, ,
-1, ,-56, ,
2, ,-57, ,
-1, ,-57, ,
1, ,-57, ,
1, ,-57, ,
1, ,-57, ,
-1, ,-57, ,
2, ,-57, ,
-1, ,-57, ,
1, ,-56, ,
1, ,-57, ,
1, ,-57, ,
-1, ,-56, ,
2, ,-57, ,
-1, ,-57, ,
83, ,-57, ,
60, ,-56, ,
36, ,-57, ,
22, ,-56, ,
16, ,-57, ,
10, ,-57, ,
6, ,-56, ,
5, ,-57, ,
3, ,-57, ,
2, ,-56, ,
3, ,-57, ,
2, ,-57, ,
2, ,-57, ,
3, ,-57, ,
2, ,-58, ,
2, ,-56, ,
3, ,-57, ,
2, ,-57, ,
2, ,-57, ,
3, ,-57, ,
3, ,-57, ,
1, ,-56, ,
3, ,-57, ,
2, ,-57, ,
2, ,-57, ,
3, ,-56, ,
3, ,-57, ,
1, ,-56, ,
3, ,-57, ,
2, ,-57, ,
2, ,-57, ,
2, ,-57, ,
3, ,-58, ,
1, ,-56, ,
3, ,-57, ,
2, ,-57, ,
2, ,-56, ,
2, ,-56, ,
2, ,-57, ,
1, ,-57, ,
3, ,-57, ,
2, ,-57, ,
2, ,-56, ,
2, ,-57, ,
2, ,-57, ,
1, ,-56, ,
3, ,-57, ,
2, ,-58, ,
2, ,-57, ,
2, ,-56, ,
2, ,-57, ,
1, ,-56, ,
3, ,-57, ,
2, ,-57, ,
2, ,-56, ,
2, ,-57, ,
2, ,-58, ,
1, ,-56, ,
3, ,-57, ,
2, ,-58, ,
2, ,-57, ,
2, ,-56, ,
2, ,-57, ,
1, ,-57, ,
3, ,-57, ,
2, ,-57, ,
2, ,-57, ,
2, ,-57, ,
2, ,-58, ,
1, ,-56, ,
3, ,-57, ,
1, ,-58, ,
2, ,-56, ,
2, ,-56, ,
2, ,-58, ,
1, ,-56, ,
3, ,-42, ,
2, ,-22, ,
2, ,-6, ,
2, ,4, ,
2, ,13, ,
1, ,19, ,
3, ,24, ,
2, ,27, ,
1, ,30, ,
2, ,32, ,
2, ,34, ,
1, ,34, ,
3, ,35, ,
2, ,36, ,
1, ,36, ,
2, ,36, ,
2, ,37, ,
1, ,37, ,
2, ,37, ,
2, ,37, ,
1, ,37, ,
3, ,37, ,
2, ,38, ,
1, ,37, ,
3, ,37, ,
2, ,37, ,
1, ,37, ,
2, ,37, ,
2, ,37, ,
1, ,37, ,
2, ,37, ,
1, ,37, ,
1, ,37, ,
2, ,37, ,
2, ,37, ,
1, ,36, ,
2, ,37, ,
2, ,37, ,
2, ,37, ,
2, ,37, ,
2, ,37, ,
1, ,36, ,
3, ,36, ,
2, ,37, ,
2, ,36, ,
2, ,37, ,
2, ,37, ,
1, ,36, ,
2, ,37, ,
2, ,37, ,
1, ,36, ,
2, ,37, ,
2, ,37, ,
2, ,36, ,
2, ,37, ,
1, ,37, ,
1, ,36, ,
2, ,36, ,
2, ,37, ,
1, ,36, ,
2, ,36, ,
2, ,37, ,
2, ,36, ,
2, ,37, ,
2, ,37, ,
1, ,36, ,
2, ,36, ,
2, ,37, ,
1, ,36, ,
2, ,37, ,
2, ,37, ,
1, ,36, ,
2, ,36, ,
2, ,37, ,
1, ,36, ,
2, ,37, ,
2, ,37, ,
1, ,36, ,
2, ,36, ,
1, ,37, ,
1, ,36, ,
2, ,37, ,
2, ,37, ,
1, ,36, ,
2, ,37, ,
2, ,37, ,
1, ,37, ,
2, ,36, ,
2, ,36, ,
1, ,36, ,
2, ,36, ,
1, ,37, ,
1, ,36, ,
2, ,37, ,
2, ,37, ,
1, ,36, ,
2, ,36, ,
1, ,36, ,
1, ,36, ,
2, ,37, ,
2, ,36, ,
1, ,36, ,
2, ,36, ,
1, ,37, ,
1, ,36, ,
2, ,37, ,
2, ,37, ,
1, ,36, ,
2, ,36, ,
1, ,37, ,
1, ,37, ,
2, ,37, ,
2, ,36, ,
1, ,36, ,
2, ,36, ,
1, ,37, ,
1, ,36, ,
2, ,36, ,
2, ,37, ,
1, ,36, ,
2, ,36, ,
1, ,37, ,
1, ,36, ,
2, ,36, ,
1, ,37, ,
1, ,36, ,
2, ,36, ,
1, ,37, ,
1, ,36, ,
2, ,37, ,
2, ,37, ,
1, ,36, ,
2, ,36, ,
1, ,37, ,
1, ,36, ,
2, ,37, ,
2, ,36, ,
1, ,36, ,
2, ,36, ,
1, ,36, ,
1, ,36, ,
2, ,37, ,
1, ,37, ,
1, ,36, ,
2, ,37, ,
1, ,37, ,
1, ,36, ,
2, ,36, ,
1, ,36, ,
1, ,36, ,
2, ,37, ,
1, ,37, ,
1, ,36, ,
2, ,36, ,
1, ,31, ,
1, ,11, ,
2, ,-7, ,
1, ,-20, ,
1, ,-30, ,
2, ,-36, ,
1, ,-42, ,
1, ,-45, ,
2, ,-50, ,
1, ,-52, ,
1, ,-53, ,
2, ,-54, ,
1, ,-56, ,
-1, ,-56, ,
2, ,-56, ,
1, ,-57, ,
1, ,-57, ,
2, ,-57, ,
2, ,-58, ,
1, ,-57, ,
2, ,-57, ,
1, ,-58, ,
1, ,-57, ,
2, ,-57, ,
2, ,-58, ,
1, ,-57, ,
2, ,-57, ,
1, ,-57, ,
1, ,-57, ,
2, ,-57, ,
2, ,-58, ,
1, ,-56, ,
2, ,-57, ,
1, ,-58, ,
2, ,-57, ,
2, ,-57, ,
2, ,-58, ,
1, ,-57, ,
2, ,-57, ,
1, ,-57, ,
1, ,-57, ,
1, ,-57, ,
1, ,-58, ,
1, ,-56, ,
2, ,-57, ,
1, ,-58, ,
1, ,-57, ,
2, ,-56, ,
2, ,-58, ,
1, ,-57, ,
2, ,-57, ,
1, ,-57, ,
1, ,-57, ,
2, ,-57, ,
2, ,-58, ,
1, ,-56, ,
2, ,-57, ,
1, ,-57, ,
1, ,-57, ,
2, ,-56, ,
1, ,-58, ,
-1, ,-57, ,
2, ,-57, ,
1, ,-57, ,
1, ,-57, ,
2, ,-56, ,
2, ,-58, ,
-1, ,-56, ,
2, ,-57, ,
1, ,-58, ,
1, ,-57, ,
2, ,-56, ,
1, ,-58, ,
-1, ,-57, ,
2, ,-57, ,
1, ,-57, ,
1, ,-57, ,
2, ,-57, ,
2, ,-57, ,
-1, ,-56, ,
2, ,-57, ,
1, ,-57, ,
1, ,-57, ,
2, ,-57, ,
1, ,-58, ,
-1, ,-57, ,
2, ,-57, ,
1, ,-57, ,
1, ,-56, ,
1, ,-57, ,
1, ,-58, ,
-1, ,-56, ,
2, ,-57, ,
1, ,-57, ,
1, ,-57, ,
2, ,-56, ,
1, ,-57, ,
-1, ,-57, ,
2, ,-57, ,
1, ,-57, ,
1, ,-57, ,
1, ,-57, ,
1, ,-58, ,
1, ,-56, ,
2, ,-57, ,
1, ,-57, ,
1, ,-57, ,
2, ,-56, ,
2, ,-58, ,
-1, ,-56, ,
2, ,-57, ,
1, ,-57, ,
1, ,-56, ,
2, ,-56, ,
1, ,-58, ,
-1, ,-56, ,
2, ,-57, ,
1, ,-58, ,
1, ,-57, ,
2, ,-56, ,
1, ,-57, ,
-1, ,-56, ,
2, ,-57, ,
1, ,-57, ,
1, ,-57, ,
1, ,-57, ,
1, ,-58, ,
-1, ,-56, ,
2, ,-57, ,
1, ,-57, ,
1, ,-57, ,
2, ,-57, ,
1, ,-57, ,
-1, ,-57, ,
2, ,-57, ,
1, ,-57, ,
1, ,-57, ,
1, ,-56, ,
1, ,-57, ,
-1, ,-56, ,
2, ,-56, ,
1, ,-57, ,
1, ,-57, ,
2, ,-56, ,
2, ,-57, ,
-1, ,-57, ,
2, ,-57, ,
1, ,-57, ,
1, ,-57, ,
2, ,-57, ,
1, ,-57, ,
-1, ,-56, ,
2, ,-57, ,
1, ,-57, ,
1, ,-57, ,
2, ,-56, ,
1, ,-57, ,
-1, ,-56, ,
2, ,-57, ,
1, ,-57, ,
1, ,-56, ,
1, ,-57, ,
1, ,-57, ,
-1, ,-56, ,
2, ,-57, ,
1, ,-57, ,
1, ,-57, ,
2, ,-56, ,
2, ,-57, ,
-1, ,-56, ,
2, ,-57, ,
1, ,-57, ,
1, ,-56, ,
2, ,-57, ,
1, ,-57, ,
-1, ,-56, ,
2, ,-57, ,
1, ,-57, ,
1, ,-57, ,
2, ,-56, ,
1, ,-57, ,
-1, ,-57, ,
2, ,-57, ,
1, ,-57, ,
1, ,-56, ,
1, ,-57, ,
1, ,-57, ,
-1, ,-56, ,
2, ,-57, ,
-1, ,-57, ,
1, ,-57, ,
1, ,-56, ,
2, ,-57, ,
-1, ,-57, ,
2, ,-57, ,
1, ,-57, ,
1, ,-57, ,
1, ,-56, ,
1, ,-58, ,
-1, ,-56, ,
2, ,-57, ,
1, ,-57, ,
1, ,-57, ,
2, ,-56, ,
1, ,-57, ,
-1, ,-56, ,
2, ,-57, ,
1, ,-57, ,
1, ,-56, ,
1, ,-56, ,
1, ,-58, ,
-1, ,-56, ,
2, ,-56, ,
-1, ,-57, ,
1, ,-57, ,
1, ,-56, ,
1, ,-57, ,
-1, ,-57, ,
2, ,-57, ,
1, ,-57, ,
1, ,-57, ,
1, ,-56, ,
1, ,-58, ,
-1, ,-56, ,
2, ,-57, ,
-1, ,-57, ,
1, ,-56, ,
1, ,-56, ,
1, ,-57, ,
-1, ,-57, ,
2, ,-57, ,
1, ,-57, ,
1, ,-57, ,
1, ,-57, ,
1, ,-57, ,
-1, ,-56, ,
2, ,-57, ,
-1, ,-57, ,
1, ,-56, ,
1, ,-56, ,
1, ,-57, ,
-1, ,-57, ,
2, ,-57, ,
-1, ,-57, ,
1, ,-56, ,
1, ,-57, ,
1, ,-58, ,
-1, ,-56, ,
2, ,-57, ,
1, ,-57, ,
1, ,-57, ,
1, ,-56, ,
1, ,-57, ,
-1, ,-57, ,
2, ,-57, ,
-1, ,-57, ,
1, ,-57, ,
1, ,-57, ,
1, ,-57, ,
-1, ,-56, ,
2, ,-57, ,
-1, ,-57, ,
1, ,-57, ,
1, ,-56, ,
1, ,-57, ,
-1, ,-57, ,
2, ,-57, ,
1, ,-57, ,
1, ,-56, ,
1, ,-56, ,
1, ,-57, ,
-1, ,-56, ,
1, ,-57, ,
-1, ,-57, ,
1, ,-57, ,
1, ,-56, ,
1, ,-57, ,
-1, ,-57, ,
2, ,-57, ,
1, ,-57, ,
1, ,-56, ,
1, ,-56, ,
1, ,-57, ,
-1, ,-56, ,
2, ,-57, ,
1, ,-58, ,
1, ,-56, ,
1, ,-56, ,
1, ,-57, ,
-1, ,-57, ,
2, ,-57, ,
1, ,-57, ,
1, ,-57, ,
1, ,-57, ,
1, ,-58, ,
-1, ,-56, ,
2, ,-57, ,
-1, ,-57, ,
1, ,-57, ,
2, ,-56, ,
2, ,-57, ,
-1, ,-56, ,
2, ,-57, ,
1, ,-57, ,
1, ,-57, ,
1, ,-57, ,
1, ,-57, ,
-1, ,-56, ,
2, ,-57, ,
-1, ,-57, ,
1, ,-57, ,
1, ,-56, ,
1, ,-57, ,
-1, ,-57, ,
2, ,-57, ,
1, ,-57, ,
1, ,-57, ,
1, ,-57, ,
2, ,-58, ,
-1, ,-56, ,
2, ,-57, ,
1, ,-58, ,
1, ,-57, ,
1, ,-56, ,
1, ,-57, ,
-1, ,-56, ,
2, ,-57, ,
1, ,-57, ,
1, ,-57, ,
1, ,-56, ,
1, ,-58, ,
-1, ,-56, ,
2, ,-57, ,
-1, ,-57, ,
1, ,-57, ,
1, ,-57, ,
1, ,-57, ,
-1, ,-56, ,
2, ,-57, ,
-1, ,-57, ,
1, ,-56, ,
2, ,-57, ,
1, ,-58, ,
-1, ,-56, ,
2, ,-57, ,
-1, ,-57, ,
1, ,-57, ,
1, ,-56, ,
1, ,-57, ,
-1, ,-56, ,
2, ,-57, ,
1, ,-57, ,
1, ,-57, ,
1, ,-57, ,
1, ,-58, ,
-1, ,-56, ,
2, ,-57, ,
-1, ,-58, ,
1, ,-56, ,
1, ,-56, ,
1, ,-58, ,
-1, ,-56, ,
2, ,-57, ,
-1, ,-57, ,
-1, ,-57, ,
1, ,-56, ,
1, ,-57, ,
-1, ,-56, ,
2, ,-57, ,
-1, ,-58, ,
-1, ,-57, ,
1, ,-56, ,
1, ,-58, ,
-1, ,-57, ,
2, ,-57, ,
-1, ,-57, ,
-1, ,-56, ,
1, ,-57, ,
1, ,-58, ,
-1, ,-56, ,
2, ,-57, ,
-1, ,-57, ,
-1, ,-57, ,
1, ,-56, ,
1, ,-57, ,
-1, ,-56, ,
2, ,-57, ,
-1, ,-57, ,
1, ,-57, ,
1, ,-57, ,
1, ,-57, ,
-1, ,-56, ,
2, ,-57, ,
-1, ,-57, ,
-1, ,-57, ,
1, ,-57, ,
1, ,-57, ,
-1, ,-56, ,
1, ,-57, ,
-1, ,-57, ,
-1, ,-57, ,
1, ,-57, ,
1, ,-58, ,
-1, ,-56, ,
2, ,-57, ,
-1, ,-58, ,
1, ,-57, ,
83, ,-56, ,
55, ,-57, ,
31, ,-57, ,
22, ,-57, ,
13, ,-57, ,
10, ,-57, ,
8, ,-57, ,
5, ,-57, ,
3, ,-56, ,
5, ,-57, ,
2, ,-58, ,
2, ,-57, ,
3, ,-56, ,
3, ,-57, ,
2, ,-57, ,
3, ,-57, ,
2, ,-57, ,
2, ,-56, ,
3, ,-57, ,
3, ,-58, ,
1, ,-56, ,
3, ,-57, ,
2, ,-57, ,
2, ,-56, ,
3, ,-56, ,
3, ,-57, ,
2, ,-57, ,
3, ,-57, ,
2, ,-57, ,
2, ,-57, ,
3, ,-57, ,
3, ,-57, ,
2, ,-56, ,
3, ,-57, ,
2, ,-58, ,
2, ,-57, ,
2, ,-56, ,
3, ,-58, ,
1, ,-56, ,
3, ,-57, ,
2, ,-57, ,
2, ,-56, ,
2, ,-57, ,
3, ,-57, ,
1, ,-56, ,
3, ,-57, ,
2, ,-58, ,
2, ,-57, ,
2, ,-56, ,
2, ,-57, ,
1, ,-57, ,
3, ,-57, ,
2, ,-57, ,
2, ,-57, ,
2, ,-57, ,
3, ,-57, ,
1, ,-56, ,
3, ,-57, ,
2, ,-57, ,
2, ,-57, ,
2, ,-56, ,
2, ,-57, ,
1, ,-57, ,
3, ,-57, ,
2, ,-57, ,
2, ,-57, ,
2, ,-57, ,
3, ,-57, ,
1, ,-55, ,
3, ,-57, ,
2, ,-58, ,
