src/varyamp_1560/temp0003003.CSV

Format,1.0B,
Memory Length,10000,Memory Length,10000,
IntpDistance,0,IntpDistance,0,
Trigger Address,4999,Trigger Address,4999,
Trigger Level,1.040E+00,Trigger Level,1.040E+00,
Source,CH1,Source,CH2,
Vertical Units,V,Vertical Units,V,
Vertical Units Div,0,Vertical Units Div,0,
Vertical Units Extend Div,16,Vertical Units Extend Div,16,
Label,,Label,,
Probe Type,0,Probe Type,0,
Probe Ratio,1.000e+01,Probe Ratio,1.000e+00,
Vertical Scale,5.000e-01,Vertical Scale,1.000e+00,
Vertical Position,-1.820e+00,Vertical Position,0.000e+00,
Horizontal Units,S,Horizontal Units,S,
Horizontal Scale,2.000E-05,Horizontal Scale,2.000E-05,
Horizontal Position,0.000E+00,Horizontal Position,0.000E+00,
Horizontal Mode,Main,Horizontal Mode,Main,
SincET Mode,Real Time,SincET Mode,Real Time,
Sampling Period,2.000e-08,Sampling Period,2.000e-08,
Horizontal Old Scale,2.000E-05,Horizontal Old Scale,2.000E-05,
Horizontal Old Position,0.000E+00,Horizontal Old Position,0.000E+00,
Firmware,V1.23,Firmware,V1.23,
Mode,Fast,Mode,Fast,
Waveform Data,,Waveform Data,,
1, ,-49, ,
2, ,-49, ,
1, ,-50, ,
2, ,-50, ,
2, ,-49, ,
2, ,-49, ,
1, ,-49, ,
2, ,-49, ,
1, ,-50, ,
1, ,-49, ,
2, ,-49, ,
2, ,-50, ,
1, ,-49, ,
2, ,-49, ,
1, ,-50, ,
1, ,-50, ,
2, ,-50, ,
2, ,-49, ,
-1, ,-50, ,
2, ,-50, ,
1, ,-50, ,
1, ,-49, ,
2, ,-50, ,
2, ,-50, ,
1, ,-49, ,
2, ,-49, ,
1, ,-50, ,
1, ,-49, ,
2, ,-49, ,
1, ,-49, ,
-1, ,-49, ,
2, ,-49, ,
1, ,-50, ,
1, ,-49, ,
2, ,-49, ,
1, ,-50, ,
1, ,-49, ,
2, ,-49, ,
1, ,-50, ,
1, ,-50, ,
2, ,-50, ,
2, ,-50, ,
1, ,-50, ,
2, ,-49, ,
1, ,-50, ,
1, ,-49, ,
2, ,-49, ,
1, ,-50, ,
1, ,-50, ,
2, ,-50, ,
1, ,-50, ,
1, ,-49, ,
2, ,-50, ,
1, ,-49, ,
-1, ,-49, ,
2, ,-49, ,
1, ,-50, ,
1, ,-49, ,
2, ,-49, ,
1, ,-50, ,
-1, ,-50, ,
2, ,-49, ,
1, ,-50, ,
1, ,-50, ,
2, ,-49, ,
1, ,-49, ,
-1, ,-49, ,
2, ,-50, ,
1, ,-50, ,
1, ,-50, ,
2, ,-49, ,
1, ,-50, ,
-1, ,-49, ,
2, ,-49, ,
1, ,-50, ,
1, ,-50, ,
2, ,-49, ,
1, ,-50, ,
-1, ,-50, ,
2, ,-49, ,
1, ,-50, ,
1, ,-49, ,
2, ,-50, ,
1, ,-50, ,
-1, ,-49, ,
2, ,-49, ,
1, ,-50, ,
1, ,-50, ,
2, ,-50, ,
1, ,-50, ,
-1, ,-50, ,
2, ,-50, ,
1, ,-50, ,
1, ,-49, ,
2, ,-49, ,
1, ,-50, ,
-1, ,-50, ,
2, ,-50, ,
1, ,-50, ,
1, ,-50, ,
2, ,-49, ,
1, ,-49, ,
-1, ,-50, ,
2, ,-49, ,
1, ,-50, ,
1, ,-49, ,
2, ,-49, ,
2, ,-50, ,
-1, ,-49, ,
2, ,-49, ,
1, ,-50, ,
1, ,-50, ,
2, ,-50, ,
1, ,-50, ,
-1, ,-49, ,
2, ,-49, ,
1, ,-50, ,
1, ,-49, ,
2, ,-49, ,
2, ,-49, ,
-1, ,-50, ,
2, ,-49, ,
1, ,-50, ,
1, ,-49, ,
2, ,-50, ,
1, ,-49, ,
-1, ,-49, ,
2, ,-50, ,
1, ,-50, ,
1, ,-49, ,
2, ,-49, ,
1, ,-50, ,
-1, ,-49, ,
2, ,-49, ,
1, ,-50, ,
1, ,-49, ,
2, ,-50, ,
1, ,-50, ,
-1, ,-50, ,
2, ,-49, ,
1, ,-50, ,
1, ,-49, ,
2, ,-49, ,
1, ,-50, ,
-1, ,-50, ,
2, ,-49, ,
1, ,-50, ,
1, ,-49, ,
2, ,-50, ,
1, ,-49, ,
-1, ,-50, ,
2, ,-50, ,
1, ,-50, ,
1, ,-49, ,
2, ,-49, ,
1, ,-50, ,
-1, ,-50, ,
2, ,-49, ,
1, ,-50, ,
1, ,-50, ,
2, ,-50, ,
1, ,-50, ,
-1, ,-50, ,
2, ,-49, ,
1, ,-50, ,
1, ,-49, ,
2, ,-50, ,
1, ,-50, ,
-1, ,-49, ,
2, ,-50, ,
1, ,-50, ,
1, ,-50, ,
2, ,-49, ,
1, ,-49, ,
-1, ,-50, ,
2, ,-49, ,
1, ,-50, ,
1, ,-50, ,
1, ,-50, ,
1, ,-50, ,
-1, ,-50, ,
2, ,-49, ,
1, ,-50, ,
1, ,-49, ,
1, ,-50, ,
1, ,-49, ,
-1, ,-49, ,
2, ,-49, ,
1, ,-50, ,
1, ,-49, ,
1, ,-49, ,
1, ,-50, ,
-1, ,-50, ,
2, ,-49, ,
1, ,-50, ,
1, ,-50, ,
2, ,-49, ,
1, ,-49, ,
-1, ,-50, ,
2, ,-49, ,
1, ,-50, ,
1, ,-49, ,
2, ,-49, ,
1, ,-50, ,
-1, ,-50, ,
2, ,-49, ,
1, ,-50, ,
1, ,-49, ,
1, ,-50, ,
1, ,-49, ,
-1, ,-49, ,
2, ,-49, ,
1, ,-50, ,
1, ,-49, ,
2, ,-49, ,
1, ,-50, ,
-1, ,-50, ,
2, ,-50, ,
-1, ,-50, ,
1, ,-49, ,
1, ,-50, ,
1, ,-49, ,
-1, ,-49, ,
2, ,-49, ,
1, ,-50, ,
1, ,-49, ,
1, ,-49, ,
1, ,-50, ,
-1, ,-50, ,
1, ,-49, ,
-1, ,-50, ,
1, ,-50, ,
1, ,-50, ,
1, ,-49, ,
-1, ,-50, ,
2, ,-49, ,
1, ,-50, ,
1, ,-49, ,
1, ,-49, ,
1, ,-50, ,
-1, ,-49, ,
2, ,-50, ,
1, ,-50, ,
1, ,-50, ,
1, ,-50, ,
1, ,-49, ,
-1, ,-49, ,
2, ,-49, ,
1, ,-50, ,
1, ,-50, ,
1, ,-49, ,
1, ,-50, ,
-1, ,-49, ,
2, ,-49, ,
1, ,-50, ,
1, ,-50, ,
2, ,-50, ,
1, ,-49, ,
-1, ,-50, ,
2, ,-50, ,
1, ,-50, ,
1, ,-49, ,
2, ,-49, ,
1, ,-50, ,
-1, ,-50, ,
2, ,-50, ,
1, ,-50, ,
1, ,-50, ,
2, ,-49, ,
1, ,-49, ,
-1, ,-49, ,
2, ,-49, ,
1, ,-50, ,
1, ,-49, ,
1, ,-50, ,
1, ,-50, ,
-1, ,-49, ,
2, ,-49, ,
-1, ,-50, ,
1, ,-50, ,
1, ,-50, ,
1, ,-49, ,
-1, ,-50, ,
2, ,-49, ,
1, ,-50, ,
1, ,-49, ,
1, ,-49, ,
1, ,-50, ,
-1, ,-49, ,
2, ,-49, ,
1, ,-50, ,
1, ,-50, ,
2, ,-50, ,
1, ,-50, ,
-1, ,-50, ,
2, ,-49, ,
1, ,-50, ,
1, ,-49, ,
2, ,-50, ,
1, ,-50, ,
-1, ,-50, ,
2, ,-49, ,
1, ,-50, ,
1, ,-50, ,
1, ,-49, ,
1, ,-49, ,
-1, ,-43, ,
2, ,-24, ,
1, ,-6, ,
1, ,7, ,
2, ,17, ,
2, ,23, ,
-1, ,30, ,
2, ,33, ,
1, ,37, ,
1, ,38, ,
1, ,40, ,
1, ,41, ,
-1, ,42, ,
2, ,42, ,
1, ,43, ,
1, ,43, ,
2, ,44, ,
1, ,44, ,
-1, ,44, ,
2, ,44, ,
1, ,44, ,
1, ,44, ,
1, ,44, ,
1, ,44, ,
-1, ,44, ,
2, ,44, ,
1, ,44, ,
1, ,44, ,
2, ,44, ,
1, ,44, ,
-1, ,44, ,
2, ,44, ,
-1, ,44, ,
1, ,44, ,
1, ,44, ,
1, ,44, ,
-1, ,44, ,
2, ,44, ,
1, ,44, ,
1, ,44, ,
1, ,44, ,
1, ,44, ,
-1, ,44, ,
2, ,43, ,
1, ,44, ,
1, ,44, ,
2, ,43, ,
1, ,44, ,
-1, ,44, ,
2, ,43, ,
1, ,43, ,
1, ,44, ,
1, ,44, ,
1, ,43, ,
-1, ,44, ,
2, ,43, ,
1, ,44, ,
1, ,43, ,
1, ,43, ,
1, ,44, ,
-1, ,44, ,
1, ,43, ,
-1, ,44, ,
1, ,44, ,
1, ,44, ,
1, ,43, ,
-1, ,44, ,
1, ,43, ,
-1, ,44, ,
-1, ,44, ,
1, ,43, ,
1, ,44, ,
-1, ,44, ,
1, ,43, ,
-1, ,44, ,
-1, ,43, ,
2, ,43, ,
1, ,43, ,
-1, ,44, ,
1, ,43, ,
-1, ,44, ,
-1, ,44, ,
1, ,44, ,
1, ,44, ,
-1, ,44, ,
2, ,43, ,
-1, ,44, ,
-1, ,44, ,
2, ,44, ,
1, ,44, ,
-1, ,44, ,
1, ,43, ,
-1, ,44, ,
-1, ,43, ,
1, ,43, ,
1, ,43, ,
-1, ,44, ,
1, ,43, ,
-1, ,44, ,
-1, ,43, ,
1, ,43, ,
1, ,43, ,
-1, ,43, ,
1, ,43, ,
-1, ,44, ,
-1, ,43, ,
1, ,43, ,
1, ,44, ,
-1, ,44, ,
1, ,43, ,
1, ,43, ,
-1, ,43, ,
1, ,43, ,
1, ,43, ,
-1, ,44, ,
1, ,43, ,
1, ,44, ,
1, ,43, ,
2, ,43, ,
1, ,44, ,
-1, ,44, ,
2, ,43, ,
-1, ,44, ,
1, ,44, ,
1, ,43, ,
1, ,43, ,
-1, ,44, ,
1, ,43, ,
-1, ,44, ,
-1, ,43, ,
1, ,43, ,
1, ,43, ,
-1, ,44, ,
2, ,43, ,
-1, ,43, ,
-1, ,43, ,
2, ,43, ,
1, ,43, ,
-1, ,44, ,
1, ,43, ,
-1, ,44, ,
-1, ,43, ,
1, ,43, ,
1, ,44, ,
-1, ,44, ,
2, ,43, ,
1, ,44, ,
1, ,43, ,
1, ,44, ,
1, ,43, ,
-1, ,44, ,
1, ,43, ,
-1, ,44, ,
1, ,43, ,
1, ,42, ,
1, ,26, ,
-1, ,7, ,
1, ,-7, ,
-1, ,-18, ,
-1, ,-26, ,
1, ,-33, ,
1, ,-37, ,
-1, ,-40, ,
1, ,-43, ,
-1, ,-45, ,
-1, ,-46, ,
1, ,-47, ,
1, ,-47, ,
-1, ,-49, ,
2, ,-49, ,
1, ,-50, ,
1, ,-50, ,
1, ,-50, ,
1, ,-50, ,
-1, ,-50, ,
1, ,-50, ,
-1, ,-50, ,
1, ,-50, ,
1, ,-50, ,
1, ,-50, ,
-1, ,-50, ,
1, ,-50, ,
-1, ,-51, ,
1, ,-50, ,
1, ,-50, ,
1, ,-50, ,
-1, ,-50, ,
2, ,-50, ,
-1, ,-50, ,
-1, ,-50, ,
1, ,-50, ,
1, ,-50, ,
-1, ,-50, ,
2, ,-50, ,
-1, ,-50, ,
1, ,-50, ,
1, ,-50, ,
1, ,-50, ,
-1, ,-50, ,
1, ,-50, ,
-1, ,-50, ,
-1, ,-50, ,
1, ,-50, ,
1, ,-50, ,
-1, ,-50, ,
2, ,-50, ,
-1, ,-50, ,
1, ,-50, ,
1, ,-50, ,
1, ,-50, ,
-1, ,-50, ,
1, ,-49, ,
-1, ,-50, ,
-1, ,-50, ,
1, ,-50, ,
1, ,-50, ,
-1, ,-50, ,
1, ,-50, ,
-1, ,-50, ,
-1, ,-49, ,
1, ,-50, ,
1, ,-50, ,
-1, ,-50, ,
2, ,-50, ,
-1, ,-50, ,
-1, ,-50, ,
1, ,-50, ,
1, ,-50, ,
-1, ,-50, ,
1, ,-50, ,
-1, ,-50, ,
-1, ,-49, ,
1, ,-49, ,
1, ,-50, ,
-1, ,-50, ,
2, ,-49, ,
-1, ,-50, ,
-1, ,-49, ,
1, ,-50, ,
1, ,-49, ,
-1, ,-50, ,
1, ,-50, ,
-1, ,-50, ,
-1, ,-50, ,
1, ,-49, ,
1, ,-50, ,
-1, ,-49, ,
1, ,-50, ,
-1, ,-50, ,
1, ,-49, ,
1, ,-49, ,
1, ,-49, ,
-1, ,-49, ,
1, ,-50, ,
-1, ,-50, ,
-1, ,-50, ,
1, ,-50, ,
1, ,-50, ,
-1, ,-49, ,
1, ,-49, ,
-1, ,-50, ,
-1, ,-49, ,
1, ,-49, ,
1, ,-49, ,
-1, ,-50, ,
2, ,-49, ,
1, ,-50, ,
-1, ,-49, ,
1, ,-50, ,
1, ,-50, ,
-1, ,-50, ,
2, ,-50, ,
1, ,-50, ,
1, ,-50, ,
1, ,-50, ,
1, ,-49, ,
-1, ,-50, ,
1, ,-49, ,
-1, ,-50, ,
1, ,-49, ,
1, ,-50, ,
1, ,-50, ,
-1, ,-50, ,
2, ,-49, ,
-1, ,-50, ,
-1, ,-50, ,
1, ,-50, ,
1, ,-49, ,
-1, ,-50, ,
2, ,-50, ,
1, ,-50, ,
1, ,-49, ,
1, ,-49, ,
1, ,-49, ,
-1, ,-50, ,
2, ,-49, ,
-1, ,-50, ,
1, ,-50, ,
1, ,-50, ,
1, ,-50, ,
-1, ,-49, ,
2, ,-49, ,
-1, ,-50, ,
-1, ,-49, ,
1, ,-50, ,
1, ,-50, ,
-1, ,-49, ,
1, ,-49, ,
-1, ,-50, ,
-1, ,-50, ,
1, ,-50, ,
1, ,-50, ,
-1, ,-50, ,
2, ,-50, ,
-1, ,-50, ,
-1, ,-49, ,
1, ,-49, ,
1, ,-50, ,
-1, ,-49, ,
1, ,-50, ,
1, ,-50, ,
1, ,-49, ,
1, ,-50, ,
1, ,-49, ,
-1, ,-49, ,
1, ,-49, ,
-1, ,-50, ,
1, ,-49, ,
1, ,-49, ,
1, ,-50, ,
-1, ,-49, ,
1, ,-49, ,
-1, ,-50, ,
-1, ,-50, ,
1, ,-50, ,
1, ,-50, ,
-1, ,-50, ,
2, ,-49, ,
-1, ,-50, ,
-1, ,-50, ,
1, ,-49, ,
1, ,-50, ,
-1, ,-49, ,
1, ,-50, ,
-1, ,-50, ,
-1, ,-50, ,
1, ,-49, ,
1, ,-49, ,
-1, ,-49, ,
1, ,-49, ,
-1, ,-50, ,
-1, ,-49, ,
1, ,-49, ,
1, ,-49, ,
-1, ,-49, ,
1, ,-49, ,
-1, ,-50, ,
-1, ,-49, ,
1, ,-49, ,
1, ,-49, ,
-1, ,-49, ,
1, ,-49, ,
-1, ,-50, ,
-1, ,-49, ,
1, ,-49, ,
1, ,-50, ,
-1, ,-49, ,
1, ,-49, ,
-1, ,-50, ,
-1, ,-50, ,
1, ,-50, ,
1, ,-49, ,
-1, ,-50, ,
1, ,-49, ,
-1, ,-50, ,
1, ,-49, ,
1, ,-49, ,
1, ,-50, ,
-1, ,-49, ,
1, ,-49, ,
-1, ,-50, ,
-1, ,-49, ,
1, ,-50, ,
1, ,-49, ,
-1, ,-49, ,
1, ,-50, ,
1, ,-50, ,
-1, ,-49, ,
1, ,-49, ,
1, ,-49, ,
-1, ,-49, ,
1, ,-49, ,
-1, ,-50, ,
1, ,-49, ,
1, ,-49, ,
1, ,-49, ,
-1, ,-49, ,
1, ,-49, ,
-1, ,-50, ,
-1, ,-50, ,
1, ,-50, ,
1, ,-49, ,
-1, ,-50, ,
2, ,-49, ,
-1, ,-50, ,
-1, ,-49, ,
1, ,-50, ,
1, ,-49, ,
-1, ,-49, ,
2, ,-49, ,
-1, ,-50, ,
-1, ,-49, ,
1, ,-49, ,
1, ,-50, ,
-1, ,-49, ,
2, ,-49, ,
-1, ,-50, ,
-1, ,-50, ,
1, ,-49, ,
1, ,-49, ,
-1, ,-49, ,
2, ,-49, ,
1, ,-50, ,
1, ,-49, ,
1, ,-49, ,
1, ,-49, ,
-1, ,-50, ,
2, ,-49, ,
-1, ,-50, ,
1, ,-49, ,
1, ,-50, ,
1, ,-49, ,
-1, ,-50, ,
1, ,-50, ,
-1, ,-50, ,
-1, ,-49, ,
1, ,-49, ,
1, ,-50, ,
-1, ,-49, ,
1, ,-49, ,
-1, ,-50, ,
-1, ,-49, ,
1, ,-50, ,
1, ,-49, ,
-1, ,-49, ,
1, ,-49, ,
-1, ,-50, ,
-1, ,-49, ,
1, ,-49, ,
1, ,-50, ,
-1, ,-50, ,
1, ,-49, ,
-1, ,-50, ,
-1, ,-50, ,
1, ,-50, ,
1, ,-50, ,
-1, ,-49, ,
1, ,-49, ,
-1, ,-50, ,
-1, ,-49, ,
1, ,-50, ,
1, ,-49, ,
-1, ,-49, ,
1, ,-49, ,
-1, ,-50, ,
-1, ,-49, ,
1, ,-49, ,
1, ,-49, ,
-1, ,-49, ,
1, ,-49, ,
-1, ,-50, ,
-1, ,-49, ,
1, ,-49, ,
1, ,-50, ,
-1, ,-49, ,
1, ,-49, ,
-1, ,-50, ,
-1, ,-49, ,
1, ,-50, ,
1, ,-49, ,
-1, ,-49, ,
1, ,-50, ,
-1, ,-50, ,
1, ,-49, ,
1, ,-50, ,
1, ,-49, ,
-1, ,-49, ,
2, ,-49, ,
-1, ,-50, ,
-1, ,-49, ,
1, ,-50, ,
1, ,-49, ,
-1, ,-50, ,
2, ,-49, ,
-1, ,-50, ,
1, ,-49, ,
1, ,-49, ,
1, ,-50, ,
-1, ,-49, ,
1, ,-49, ,
-1, ,-50, ,
-1, ,-49, ,
1, ,-50, ,
1, ,-49, ,
-1, ,-49, ,
1, ,-49, ,
-1, ,-50, ,
1, ,-49, ,
1, ,-50, ,
1, ,-50, ,
-1, ,-50, ,
2, ,-49, ,
-1, ,-50, ,
-1, ,-49, ,
1, ,-50, ,
1, ,-50, ,
-1, ,-49, ,
1, ,-49, ,
-1, ,-50, ,
-1, ,-49, ,
1, ,-50, ,
1, ,-50, ,
-1, ,-50, ,
1, ,-50, ,
-1, ,-50, ,
-1, ,-49, ,
1, ,-50, ,
1, ,-49, ,
-1, ,-49, ,
1, ,-49, ,
-1, ,-50, ,
-1, ,-49, ,
1, ,-49, ,
1, ,-49, ,
-1, ,-49, ,
1, ,-50, ,
-1, ,-50, ,
-1, ,-49, ,
1, ,-50, ,
1, ,-49, ,
-1, ,-50, ,
1, ,-49, ,
-1, ,-50, ,
-1, ,-50, ,
1, ,-49, ,
1, ,-49, ,
-1, ,-49, ,
2, ,-49, ,
-1, ,-50, ,
-1, ,-49, ,
1, ,-50, ,
1, ,-49, ,
-1, ,-50, ,
2, ,-49, ,
-1, ,-50, ,
-1, ,-49, ,
1, ,-49, ,
1, ,-49, ,
-1, ,-50, ,
2, ,-50, ,
-1, ,-50, ,
-1, ,-49, ,
1, ,-49, ,
1, ,-49, ,
-1, ,-50, ,
1, ,-49, ,
-1, ,-50, ,
-1, ,-49, ,
1, ,-49, ,
1, ,-50, ,
-1, ,-49, ,
2, ,-49, ,
-1, ,-50, ,
-1, ,-49, ,
1, ,-50, ,
1, ,-49, ,
-1, ,-49, ,
1, ,-50, ,
-1, ,-50, ,
-1, ,-49, ,
1, ,-50, ,
1, ,-49, ,
-1, ,-49, ,
2, ,-49, ,
-1, ,-50, ,
-1, ,-50, ,
1, ,-50, ,
1, ,-49, ,
-1, ,-50, ,
1, ,-49, ,
-1, ,-50, ,
-1, ,-49, ,
1, ,-49, ,
1, ,-50, ,
-1, ,-50, ,
1, ,-50, ,
-1, ,-50, ,
-1, ,-50, ,
1, ,-50, ,
1, ,-49, ,
-1, ,-50, ,
1, ,-49, ,
-1, ,-50, ,
-1, ,-49, ,
1, ,-49, ,
1, ,-50, ,
-1, ,-49, ,
1, ,-49, ,
-1, ,-50, ,
-1, ,-50, ,
1, ,-49, ,
1, ,-49, ,
-1, ,-49, ,
1, ,-49, ,
-1, ,-50, ,
-1, ,-49, ,
1, ,-50, ,
1, ,-50, ,
-1, ,-50, ,
1, ,-49, ,
-1, ,-50, ,
1, ,-50, ,
1, ,-50, ,
1, ,-49, ,
-1, ,-50, ,
2, ,-50, ,
-1, ,-50, ,
-1, ,-49, ,
1, ,-49, ,
1, ,-50, ,
-1, ,-49, ,
2, ,-50, ,
-1, ,-50, ,
-1, ,-49, ,
1, ,-50, ,
1, ,-49, ,
-1, ,-49, ,
2, ,-49, ,
92, ,-50, ,
55, ,-50, ,
35, ,-49, ,
22, ,-49, ,
13, ,-49, ,
11, ,-49, ,
6, ,-50, ,
5, ,-50, ,
5, ,-50, ,
3, ,-50, ,
2, ,-50, ,
3, ,-49, ,
2, ,-50, ,
2, ,-49, ,
3, ,-49, ,
3, ,-50, ,
2, ,-50, ,
3, ,-50, ,
2, ,-50, ,
2, ,-50, ,
3, ,-50, ,
3, ,-49, ,
1, ,-50, ,
3, ,-49, ,
2, ,-50, ,
2, ,-50, ,
2, ,-49, ,
3, ,-50, ,
1, ,-50, ,
3, ,-49, ,
2, ,-50, ,
2, ,-49, ,
3, ,-50, ,
3, ,-49, ,
1, ,-50, ,
3, ,-49, ,
2, ,-50, ,
2, ,-50, ,
3, ,-50, ,
3, ,-50, ,
1, ,-49, ,
3, ,-49, ,
2, ,-50, ,
2, ,-49, ,
2, ,-50, ,
2, ,-49, ,
1, ,-49, ,
3, ,-49, ,
2, ,-50, ,
2, ,-49, ,
2, ,-50, ,
2, ,-50, ,
1, ,-49, ,
3, ,-49, ,
2, ,-50, ,
2, ,-50, ,
2, ,-49, ,
2, ,-49, ,
1, ,-50, ,
3, ,-49, ,
2, ,-50, ,
2, ,-49, ,
2, ,-49, ,
2, ,-50, ,
1, ,-50, ,
3, ,-50, ,
2, ,-50, ,
2, ,-49, ,
2, ,-50, ,
2, ,-49, ,
1, ,-50, ,
3, ,-49, ,
2, ,-50, ,
2, ,-50, ,
2, ,-49, ,
2, ,-50, ,
1, ,-50, ,
3, ,-49, ,
2, ,-50, ,
2, ,-49, ,
2, ,-49, ,
2, ,-50, ,
1, ,-50, ,
3, ,-50, ,
2, ,-50, ,
2, ,-49, ,
2, ,-49, ,
2, ,-50, ,
1, ,-49, ,
3, ,-50, ,
2, ,-50, ,
2, ,-50, ,
2, ,-50, ,
2, ,-49, ,
1, ,-49, ,
2, ,-50, ,
2, ,-50, ,
2, ,-49, ,
2, ,-49, ,
2, ,-49, ,
1, ,-50, ,
3, ,-50, ,
1, ,-50, ,
2, ,-49, ,
2, ,-50, ,
2, ,-49, ,
1, ,-50, ,
2, ,-50, ,
1, ,-50, ,
2, ,-49, ,
2, ,-49, ,
2, ,-50, ,
1, ,-49, ,
3, ,-50, ,
2, ,-50, ,
2, ,-49, ,
2, ,-49, ,
2, ,-49, ,
1, ,-50, ,
3, ,-50, ,
2, ,-50, ,
2, ,-49, ,
2, ,-50, ,
2, ,-50, ,
1, ,-49, ,
2, ,-49, ,
1, ,-50, ,
2, ,-49, ,
2, ,-50, ,
2, ,-49, ,
1, ,-49, ,
2, ,-49, ,
2, ,-50, ,
2, ,-49, ,
2, ,-50, ,
2, ,-49, ,
1, ,-50, ,
2, ,-49, ,
2, ,-50, ,
2, ,-49, ,
2, ,-49, ,
2, ,-49, ,
1, ,-49, ,
3, ,-45, ,
2, ,-28, ,
2, ,-9, ,
2, ,4, ,
2, ,15, ,
1, ,22, ,
3, ,28, ,
1, ,33, ,
1, ,35, ,
2, ,38, ,
2, ,40, ,
1, ,41, ,
3, ,42, ,
1, ,42, ,
2, ,43, ,
2, ,43, ,
2, ,43, ,
1, ,44, ,
2, ,44, ,
1, ,44, ,
2, ,44, ,
2, ,44, ,
2, ,44, ,
1, ,44, ,
2, ,44, ,
2, ,44, ,
1, ,44, ,
2, ,44, ,
2, ,44, ,
1, ,44, ,
2, ,44, ,
1, ,44, ,
1, ,43, ,
2, ,44, ,
2, ,44, ,
1, ,44, ,
2, ,44, ,
2, ,44, ,
1, ,44, ,
2, ,44, ,
1, ,44, ,
1, ,44, ,
2, ,43, ,
1, ,44, ,
1, ,43, ,
2, ,44, ,
1, ,44, ,
1, ,44, ,
2, ,43, ,
1, ,44, ,
1, ,43, ,
2, ,44, ,
2, ,43, ,
1, ,44, ,
2, ,43, ,
1, ,44, ,
1, ,43, ,
2, ,43, ,
1, ,43, ,
1, ,44, ,
2, ,43, ,
1, ,44, ,
1, ,43, ,
2, ,44, ,
1, ,44, ,
1, ,44, ,
2, ,44, ,
1, ,44, ,
1, ,43, ,
2, ,43, ,
1, ,43, ,
1, ,44, ,
2, ,43, ,
1, ,44, ,
1, ,43, ,
2, ,44, ,
1, ,43, ,
1, ,44, ,
2, ,43, ,
1, ,44, ,
1, ,43, ,
2, ,43, ,
1, ,43, ,
1, ,44, ,
2, ,43, ,
1, ,44, ,
1, ,43, ,
2, ,43, ,
1, ,43, ,
1, ,44, ,
2, ,43, ,
1, ,44, ,
1, ,43, ,
2, ,43, ,
1, ,43, ,
1, ,44, ,
2, ,43, ,
1, ,44, ,
1, ,43, ,
2, ,43, ,
1, ,43, ,
-1, ,44, ,
2, ,44, ,
1, ,44, ,
1, ,43, ,
2, ,43, ,
1, ,43, ,
1, ,44, ,
2, ,43, ,
2, ,43, ,
2, ,43, ,
2, ,43, ,
1, ,43, ,
1, ,44, ,
2, ,43, ,
1, ,44, ,
1, ,43, ,
2, ,43, ,
1, ,43, ,
-1, ,44, ,
2, ,43, ,
1, ,43, ,
1, ,43, ,
1, ,43, ,
1, ,43, ,
1, ,44, ,
2, ,43, ,
1, ,44, ,
1, ,43, ,
2, ,43, ,
1, ,43, ,
-1, ,44, ,
2, ,43, ,
1, ,44, ,
1, ,43, ,
2, ,43, ,
1, ,43, ,
1, ,44, ,
2, ,43, ,
1, ,44, ,
1, ,43, ,
2, ,43, ,
1, ,43, ,
-1, ,44, ,
2, ,43, ,
1, ,44, ,
2, ,43, ,
2, ,43, ,
1, ,43, ,
1, ,44, ,
2, ,43, ,
1, ,44, ,
1, ,43, ,
2, ,43, ,
1, ,43, ,
1, ,32, ,
2, ,11, ,
1, ,-4, ,
1, ,-16, ,
1, ,-24, ,
1, ,-31, ,
1, ,-36, ,
2, ,-40, ,
1, ,-42, ,
1, ,-44, ,
2, ,-45, ,
2, ,-47, ,
-1, ,-47, ,
2, ,-49, ,
1, ,-50, ,
1, ,-49, ,
2, ,-50, ,
1, ,-50, ,
1, ,-50, ,
2, ,-50, ,
1, ,-50, ,
1, ,-50, ,
2, ,-50, ,
1, ,-50, ,
-1, ,-50, ,
2, ,-50, ,
1, ,-50, ,
1, ,-50, ,
2, ,-50, ,
2, ,-50, ,
-1, ,-50, ,
2, ,-50, ,
1, ,-50, ,
1, ,-50, ,
2, ,-50, ,
1, ,-50, ,
-1, ,-50, ,
2, ,-50, ,
1, ,-50, ,
1, ,-50, ,
2, ,-50, ,
2, ,-50, ,
-1, ,-50, ,
2, ,-50, ,
1, ,-50, ,
1, ,-50, ,
2, ,-50, ,
2, ,-50, ,
-1, ,-50, ,
2, ,-50, ,
1, ,-50, ,
1, ,-50, ,
2, ,-50, ,
1, ,-50, ,
-1, ,-50, ,
2, ,-50, ,
1, ,-50, ,
1, ,-50, ,
2, ,-50, ,
1, ,-49, ,
1, ,-49, ,
2, ,-49, ,
1, ,-50, ,
1, ,-49, ,
2, ,-50, ,
1, ,-50, ,
1, ,-49, ,
2, ,-49, ,
1, ,-50, ,
1, ,-50, ,
2, ,-50, ,
1, ,-50, ,
-1, ,-49, ,
2, ,-50, ,
1, ,-50, ,
1, ,-49, ,
2, ,-50, ,
1, ,-49, ,
-1, ,-49, ,
2, ,-50, ,
1, ,-50, ,
1, ,-50, ,
2, ,-50, ,
1, ,-49, ,
-1, ,-50, ,
2, ,-49, ,
1, ,-50, ,
1, ,-50, ,
1, ,-50, ,
1, ,-50, ,
-1, ,-49, ,
2, ,-49, ,
1, ,-50, ,
1, ,-50, ,
1, ,-50, ,
1, ,-49, ,
-1, ,-49, ,
2, ,-49, ,
1, ,-50, ,
1, ,-50, ,
1, ,-50, ,
1, ,-49, ,
-1, ,-49, ,
2, ,-50, ,
1, ,-50, ,
1, ,-50, ,
2, ,-49, ,
1, ,-49, ,
-1, ,-50, ,
2, ,-50, ,
1, ,-50, ,
1, ,-49, ,
1, ,-50, ,
1, ,-50, ,
-1, ,-49, ,
2, ,-49, ,
1, ,-50, ,
1, ,-49, ,
1, ,-49, ,
1, ,-49, ,
-1, ,-50, ,
2, ,-49, ,
1, ,-50, ,
1, ,-49, ,
1, ,-50, ,
1, ,-50, ,
-1, ,-50, ,
2, ,-50, ,
1, ,-50, ,
1, ,-50, ,
1, ,-50, ,
1, ,-49, ,
-1, ,-49, ,
2, ,-49, ,
1, ,-50, ,
1, ,-49, ,
1, ,-50, ,
1, ,-49, ,
-1, ,-49, ,
2, ,-49, ,
1, ,-50, ,
1, ,-49, ,
1, ,-49, ,
2, ,-49, ,
-1, ,-49, ,
2, ,-50, ,
1, ,-50, ,
1, ,-50, ,
2, ,-49, ,
1, ,-49, ,
-1, ,-49, ,
2, ,-50, ,
1, ,-50, ,
1, ,-49, ,
2, ,-50, ,
1, ,-49, ,
-1, ,-49, ,
2, ,-49, ,
1, ,-50, ,
1, ,-49, ,
1, ,-49, ,
1, ,-49, ,
-1, ,-49, ,
2, ,-49, ,
1, ,-50, ,
1, ,-49, ,
1, ,-49, ,
2, ,-49, ,
1, ,-50, ,
2, ,-49, ,
1, ,-50, ,
1, ,-50, ,
1, ,-49, ,
1, ,-49, ,
-1, ,-49, ,
2, ,-49, ,
1, ,-50, ,
1, ,-49, ,
1, ,-50, ,
2, ,-49, ,
-1, ,-49, ,
2, ,-49, ,
1, ,-50, ,
1, ,-49, ,
2, ,-50, ,
1, ,-49, ,
-1, ,-49, ,
2, ,-49, ,
1, ,-50, ,
1, ,-50, ,
2, ,-49, ,
1, ,-49, ,
-1, ,-49, ,
2, ,-49, ,
1, ,-50, ,
1, ,-49, ,
1, ,-50, ,
1, ,-50, ,
-1, ,-49, ,
2, ,-49, ,
1, ,-50, ,
1, ,-49, ,
2, ,-49, ,
1, ,-49, ,
-1, ,-50, ,
2, ,-49, ,
1, ,-50, ,
1, ,-49, ,
1, ,-50, ,
1, ,-49, ,
-1, ,-49, ,
2, ,-49, ,
-1, ,-50, ,
1, ,-49, ,
1, ,-50, ,
2, ,-49, ,
-1, ,-50, ,
2, ,-49, ,
1, ,-50, ,
1, ,-49, ,
1, ,-49, ,
2, ,-49, ,
-1, ,-49, ,
2, ,-49, ,
-1, ,-50, ,
1, ,-50, ,
1, ,-50, ,
1, ,-49, ,
-1, ,-50, ,
2, ,-49, ,
1, ,-50, ,
-1, ,-49, ,
1, ,-49, ,
1, ,-49, ,
-1, ,-49, ,
2, ,-49, ,
-1, ,-50, ,
1, ,-50, ,
1, ,-50, ,
1, ,-49, ,
-1, ,-50, ,
2, ,-49, ,
1, ,-50, ,
1, ,-50, ,
1, ,-49, ,
1, ,-49, ,
-1, ,-49, ,
2, ,-49, ,
-1, ,-50, ,
1, ,-50, ,
1, ,-49, ,
1, ,-49, ,
-1, ,-49, ,
2, ,-50, ,
1, ,-50, ,
-1, ,-49, ,
1, ,-49, ,
1, ,-50, ,
-1, ,-49, ,
2, ,-49, ,
1, ,-50, ,
1, ,-49, ,
2, ,-49, ,
1, ,-50, ,
-1, ,-49, ,
2, ,-49, ,
1, ,-50, ,
1, ,-49, ,
1, ,-49, ,
1, ,-49, ,
-1, ,-49, ,
2, ,-49, ,
1, ,-50, ,
1, ,-49, ,
1, ,-49, ,
1, ,-49, ,
-1, ,-49, ,
2, ,-49, ,
1, ,-50, ,
1, ,-49, ,
1, ,-49, ,
1, ,-49, ,
-1, ,-49, ,
2, ,-49, ,
1, ,-50, ,
1, ,-50, ,
2, ,-49, ,
1, ,-49, ,
-1, ,-50, ,
2, ,-49, ,
1, ,-50, ,
1, ,-49, ,
1, ,-49, ,
1, ,-50, ,
-1, ,-50, ,
1, ,-49, ,
1, ,-50, ,
1, ,-50, ,
1, ,-49, ,
1, ,-49, ,
-1, ,-49, ,
2, ,-49, ,
1, ,-50, ,
1, ,-49, ,
1, ,-49, ,
1, ,-49, ,
-1, ,-49, ,
2, ,-49, ,
1, ,-50, ,
1, ,-50, ,
1, ,-49, ,
2, ,-49, ,
-1, ,-50, ,
2, ,-49, ,
1, ,-50, ,
1, ,-49, ,
2, ,-49, ,
1, ,-49, ,
-1, ,-50, ,
2, ,-49, ,
1, ,-50, ,
1, ,-49, ,
1, ,-49, ,
1, ,-49, ,
-1, ,-50, ,
2, ,-49, ,
1, ,-50, ,
1, ,-49, ,
1, ,-49, ,
1, ,-49, ,
-1, ,-49, ,
2, ,-49, ,
-1, ,-50, ,
1, ,-50, ,
1, ,-50, ,
1, ,-49, ,
-1, ,-50, ,
2, ,-49, ,
1, ,-50, ,
1, ,-49, ,
1, ,-49, ,
1, ,-49, ,
-1, ,-49, ,
1, ,-49, ,
-1, ,-50, ,
1, ,-49, ,
2, ,-49, ,
1, ,-49, ,
-1, ,-49, ,
2, ,-49, ,
-1, ,-50, ,
-1, ,-49, ,
1, ,-49, ,
1, ,-49, ,
-1, ,-50, ,
1, ,-49, ,
-1, ,-50, ,
1, ,-49, ,
1, ,-49, ,
1, ,-49, ,
-1, ,-50, ,
1, ,-50, ,
-1, ,-50, ,
-1, ,-49, ,
1, ,-49, ,
1, ,-49, ,
-1, ,-49, ,
2, ,-50, ,
-1, ,-50, ,
1, ,-50, ,
1, ,-50, ,
1, ,-49, ,
-1, ,-50, ,
1, ,-49, ,
-1, ,-50, ,
-1, ,-49, ,
1, ,-49, ,
1, ,-50, ,
-1, ,-49, ,
2, ,-49, ,
-1, ,-50, ,
-1, ,-50, ,
1, ,-50, ,
1, ,-50, ,
-1, ,-50, ,
1, ,-49, ,
1, ,-50, ,
1, ,-49, ,
1, ,-49, ,
1, ,-50, ,
-1, ,-50, ,
2, ,-50, ,
-1, ,-50, ,
1, ,-50, ,
1, ,-50, ,
1, ,-49, ,
-1, ,-49, ,
2, ,-49, ,
-1, ,-50, ,
1, ,-49, ,
1, ,-49, ,
1, ,-50, ,
-1, ,-50, ,
1, ,-49, ,
-1, ,-50, ,
-1, ,-49, ,
1, ,-50, ,
1, ,-50, ,
-1, ,-50, ,
2, ,-49, ,
1, ,-50, ,
1, ,-50, ,
1, ,-49, ,
1, ,-50, ,
-1, ,-49, ,
2, ,-49, ,
1, ,-50, ,
1, ,-49, ,
1, ,-49, ,
1, ,-49, ,
-1, ,-50, ,
2, ,-49, ,
1, ,-50, ,
1, ,-49, ,
1, ,-49, ,
1, ,-50, ,
-1, ,-50, ,
2, ,-49, ,
-1, ,-50, ,
1, ,-49, ,
1, ,-50, ,
1, ,-49, ,
-1, ,-50, ,
1, ,-50, ,
-1, ,-50, ,
1, ,-49, ,
1, ,-49, ,
1, ,-49, ,
-1, ,-49, ,
2, ,-49, ,
1, ,-50, ,
1, ,-50, ,
1, ,-49, ,
1, ,-49, ,
-1, ,-49, ,
2, ,-49, ,
1, ,-50, ,
1, ,-49, ,
1, ,-49, ,
1, ,-49, ,
-1, ,-50, ,
2, ,-49, ,
-1, ,-50, ,
1, ,-50, ,
1, ,-49, ,
1, ,-49, ,
-1, ,-50, ,
1, ,-50, ,
-1, ,-50, ,
1, ,-49, ,
1, ,-49, ,
1, ,-50, ,
-1, ,-50, ,
1, ,-49, ,
-1, ,-50, ,
-1, ,-50, ,
1, ,-49, ,
1, ,-49, ,
-1, ,-49, ,
2, ,-50, ,
-1, ,-50, ,
