src/varyamp_1560/temp0002026.CSV

Format,1.0B,
Memory Length,10000,Memory Length,10000,
IntpDistance,0,IntpDistance,0,
Trigger Address,4999,Trigger Address,4999,
Trigger Level,1.040E+00,Trigger Level,1.040E+00,
Source,CH1,Source,CH2,
Vertical Units,V,Vertical Units,V,
Vertical Units Div,0,Vertical Units Div,0,
Vertical Units Extend Div,16,Vertical Units Extend Div,16,
Label,,Label,,
Probe Type,0,Probe Type,0,
Probe Ratio,1.000e+01,Probe Ratio,1.000e+00,
Vertical Scale,5.000e-01,Vertical Scale,1.000e+00,
Vertical Position,-1.820e+00,Vertical Position,0.000e+00,
Horizontal Units,S,Horizontal Units,S,
Horizontal Scale,2.000E-05,Horizontal Scale,2.000E-05,
Horizontal Position,0.000E+00,Horizontal Position,0.000E+00,
Horizontal Mode,Main,Horizontal Mode,Main,
SincET Mode,Real Time,SincET Mode,Real Time,
Sampling Period,2.000e-08,Sampling Period,2.000e-08,
Horizontal Old Scale,2.000E-05,Horizontal Old Scale,2.000E-05,
Horizontal Old Position,0.000E+00,Horizontal Old Position,0.000E+00,
Firmware,V1.23,Firmware,V1.23,
Mode,Fast,Mode,Fast,
Waveform Data,,Waveform Data,,
69, ,-52, ,
39, ,-51, ,
25, ,-51, ,
16, ,-51, ,
11, ,-51, ,
6, ,-51, ,
6, ,-51, ,
3, ,-50, ,
3, ,-51, ,
3, ,-51, ,
3, ,-51, ,
2, ,-50, ,
3, ,-51, ,
2, ,-51, ,
2, ,-51, ,
2, ,-51, ,
3, ,-51, ,
2, ,-51, ,
3, ,-52, ,
2, ,-50, ,
2, ,-51, ,
3, ,-51, ,
3, ,-51, ,
2, ,-50, ,
3, ,-52, ,
2, ,-51, ,
2, ,-51, ,
3, ,-51, ,
3, ,-51, ,
2, ,-51, ,
3, ,-51, ,
2, ,-50, ,
2, ,-51, ,
3, ,-52, ,
3, ,-51, ,
2, ,-50, ,
3, ,-52, ,
2, ,-50, ,
2, ,-51, ,
2, ,-51, ,
3, ,-51, ,
1, ,-51, ,
3, ,-52, ,
2, ,-50, ,
2, ,-51, ,
3, ,-52, ,
2, ,-51, ,
1, ,-51, ,
3, ,-52, ,
2, ,-50, ,
2, ,-51, ,
2, ,-51, ,
2, ,-51, ,
1, ,-51, ,
3, ,-52, ,
1, ,-50, ,
1, ,-51, ,
2, ,-52, ,
2, ,-51, ,
1, ,-51, ,
3, ,-52, ,
2, ,-50, ,
2, ,-51, ,
2, ,-51, ,
2, ,-51, ,
1, ,-51, ,
3, ,-52, ,
1, ,-50, ,
1, ,-51, ,
2, ,-51, ,
2, ,-51, ,
1, ,-50, ,
2, ,-52, ,
2, ,-51, ,
2, ,-51, ,
2, ,-51, ,
2, ,-51, ,
1, ,-51, ,
2, ,-51, ,
1, ,-50, ,
2, ,-51, ,
2, ,-51, ,
2, ,-51, ,
1, ,-50, ,
2, ,-52, ,
1, ,-51, ,
1, ,-51, ,
2, ,-51, ,
2, ,-51, ,
1, ,-51, ,
3, ,-52, ,
1, ,-50, ,
1, ,-51, ,
2, ,-52, ,
2, ,-51, ,
1, ,-50, ,
3, ,-52, ,
2, ,-50, ,
1, ,-51, ,
2, ,-51, ,
2, ,-51, ,
1, ,-51, ,
3, ,-52, ,
1, ,-50, ,
2, ,-51, ,
2, ,-52, ,
2, ,-51, ,
1, ,-51, ,
2, ,-52, ,
1, ,-51, ,
1, ,-51, ,
2, ,-51, ,
2, ,-51, ,
1, ,-51, ,
3, ,-51, ,
1, ,-50, ,
2, ,-51, ,
2, ,-52, ,
2, ,-51, ,
1, ,-50, ,
3, ,-52, ,
2, ,-51, ,
2, ,-51, ,
2, ,-52, ,
2, ,-51, ,
1, ,-51, ,
3, ,-52, ,
1, ,-50, ,
1, ,-51, ,
2, ,-51, ,
2, ,-51, ,
1, ,-51, ,
3, ,-52, ,
2, ,-51, ,
2, ,-51, ,
2, ,-51, ,
2, ,-51, ,
1, ,-51, ,
3, ,-52, ,
1, ,-50, ,
1, ,-51, ,
2, ,-52, ,
2, ,-51, ,
1, ,-51, ,
3, ,-52, ,
1, ,-51, ,
1, ,-51, ,
2, ,-52, ,
2, ,-51, ,
1, ,-51, ,
3, ,-52, ,
1, ,-50, ,
1, ,-51, ,
2, ,-51, ,
2, ,-51, ,
1, ,-50, ,
3, ,-52, ,
1, ,-51, ,
1, ,-51, ,
2, ,-51, ,
2, ,-51, ,
1, ,-51, ,
2, ,-52, ,
1, ,-50, ,
1, ,-51, ,
2, ,-51, ,
2, ,-51, ,
1, ,-50, ,
2, ,-52, ,
1, ,-50, ,
1, ,-51, ,
2, ,-51, ,
2, ,-51, ,
1, ,-51, ,
2, ,-52, ,
1, ,-50, ,
2, ,-51, ,
2, ,-52, ,
2, ,-51, ,
1, ,-51, ,
2, ,-52, ,
1, ,-51, ,
1, ,-51, ,
2, ,-51, ,
2, ,-51, ,
1, ,-51, ,
2, ,-52, ,
1, ,-50, ,
1, ,-51, ,
2, ,-52, ,
2, ,-50, ,
1, ,-50, ,
2, ,-52, ,
1, ,-51, ,
1, ,-51, ,
2, ,-51, ,
2, ,-51, ,
1, ,-51, ,
2, ,-52, ,
1, ,-50, ,
1, ,-51, ,
2, ,-52, ,
2, ,-51, ,
1, ,-51, ,
2, ,-52, ,
1, ,-51, ,
1, ,-51, ,
2, ,-51, ,
2, ,-51, ,
1, ,-51, ,
2, ,-51, ,
1, ,-50, ,
2, ,-51, ,
2, ,-52, ,
2, ,-51, ,
-1, ,-51, ,
2, ,-52, ,
1, ,-50, ,
1, ,-51, ,
2, ,-51, ,
1, ,-51, ,
1, ,-51, ,
2, ,-52, ,
1, ,-50, ,
1, ,-51, ,
2, ,-51, ,
2, ,-51, ,
-1, ,-50, ,
2, ,-52, ,
1, ,-50, ,
1, ,-51, ,
2, ,-51, ,
2, ,-51, ,
1, ,-51, ,
2, ,-52, ,
1, ,-51, ,
1, ,-51, ,
2, ,-51, ,
2, ,-51, ,
1, ,-51, ,
2, ,-52, ,
1, ,-51, ,
1, ,-51, ,
2, ,-51, ,
2, ,-51, ,
1, ,-50, ,
2, ,-51, ,
1, ,-50, ,
1, ,-51, ,
2, ,-51, ,
2, ,-51, ,
1, ,-51, ,
2, ,-52, ,
1, ,-50, ,
1, ,-51, ,
2, ,-51, ,
2, ,-51, ,
1, ,-51, ,
2, ,-52, ,
1, ,-50, ,
1, ,-51, ,
2, ,-51, ,
2, ,-51, ,
1, ,-51, ,
2, ,-51, ,
1, ,-50, ,
1, ,-51, ,
2, ,-51, ,
2, ,-51, ,
1, ,-51, ,
2, ,-52, ,
1, ,-50, ,
1, ,-51, ,
2, ,-51, ,
1, ,-51, ,
1, ,-51, ,
2, ,-52, ,
1, ,-50, ,
1, ,-51, ,
2, ,-51, ,
1, ,-51, ,
1, ,-51, ,
2, ,-51, ,
1, ,-51, ,
1, ,-51, ,
2, ,-51, ,
2, ,-51, ,
1, ,-51, ,
2, ,-52, ,
1, ,-51, ,
1, ,-51, ,
2, ,-51, ,
1, ,-51, ,
1, ,-51, ,
2, ,-51, ,
1, ,-50, ,
1, ,-51, ,
2, ,-51, ,
2, ,-51, ,
-1, ,-51, ,
2, ,-52, ,
1, ,-51, ,
1, ,-51, ,
2, ,-51, ,
1, ,-51, ,
1, ,-50, ,
2, ,-36, ,
1, ,-16, ,
1, ,0, ,
2, ,11, ,
2, ,19, ,
1, ,25, ,
2, ,31, ,
1, ,33, ,
1, ,36, ,
2, ,38, ,
1, ,39, ,
1, ,40, ,
2, ,41, ,
1, ,41, ,
1, ,42, ,
2, ,42, ,
1, ,42, ,
1, ,42, ,
2, ,43, ,
1, ,42, ,
1, ,43, ,
1, ,43, ,
1, ,43, ,
1, ,43, ,
2, ,43, ,
1, ,42, ,
1, ,43, ,
2, ,43, ,
1, ,42, ,
-1, ,42, ,
2, ,43, ,
1, ,42, ,
1, ,43, ,
2, ,43, ,
1, ,43, ,
-1, ,43, ,
2, ,43, ,
1, ,42, ,
1, ,42, ,
2, ,42, ,
1, ,42, ,
-1, ,43, ,
2, ,43, ,
1, ,42, ,
1, ,42, ,
2, ,43, ,
1, ,43, ,
-1, ,42, ,
2, ,43, ,
1, ,42, ,
1, ,42, ,
2, ,42, ,
1, ,42, ,
-1, ,42, ,
2, ,43, ,
1, ,42, ,
1, ,42, ,
2, ,42, ,
1, ,42, ,
-1, ,42, ,
2, ,43, ,
1, ,42, ,
1, ,42, ,
2, ,42, ,
1, ,42, ,
-1, ,42, ,
2, ,43, ,
1, ,42, ,
1, ,42, ,
2, ,42, ,
1, ,42, ,
-1, ,42, ,
2, ,43, ,
1, ,42, ,
1, ,42, ,
2, ,42, ,
1, ,42, ,
-1, ,42, ,
2, ,43, ,
1, ,42, ,
1, ,42, ,
2, ,43, ,
1, ,42, ,
-1, ,42, ,
2, ,43, ,
1, ,42, ,
1, ,42, ,
2, ,42, ,
1, ,42, ,
-1, ,42, ,
2, ,43, ,
1, ,42, ,
1, ,42, ,
2, ,42, ,
1, ,42, ,
1, ,42, ,
2, ,43, ,
1, ,42, ,
1, ,42, ,
1, ,42, ,
1, ,42, ,
-1, ,42, ,
2, ,43, ,
1, ,42, ,
1, ,42, ,
2, ,42, ,
1, ,43, ,
-1, ,42, ,
2, ,42, ,
1, ,42, ,
1, ,42, ,
2, ,42, ,
1, ,42, ,
-1, ,42, ,
2, ,43, ,
1, ,42, ,
1, ,42, ,
2, ,42, ,
1, ,42, ,
-1, ,42, ,
2, ,43, ,
1, ,42, ,
1, ,42, ,
2, ,42, ,
1, ,42, ,
-1, ,42, ,
2, ,43, ,
1, ,42, ,
1, ,42, ,
1, ,42, ,
1, ,42, ,
-1, ,42, ,
2, ,43, ,
1, ,42, ,
1, ,42, ,
2, ,42, ,
1, ,42, ,
-1, ,42, ,
2, ,43, ,
1, ,42, ,
1, ,42, ,
2, ,42, ,
1, ,42, ,
-1, ,42, ,
2, ,43, ,
1, ,42, ,
1, ,42, ,
2, ,42, ,
1, ,42, ,
-1, ,42, ,
2, ,43, ,
1, ,42, ,
1, ,42, ,
2, ,42, ,
1, ,37, ,
-1, ,17, ,
2, ,0, ,
-1, ,-14, ,
1, ,-23, ,
1, ,-31, ,
1, ,-36, ,
-1, ,-40, ,
2, ,-43, ,
1, ,-45, ,
1, ,-46, ,
1, ,-47, ,
2, ,-50, ,
-1, ,-50, ,
2, ,-51, ,
-1, ,-50, ,
1, ,-51, ,
1, ,-51, ,
1, ,-51, ,
-1, ,-51, ,
2, ,-52, ,
1, ,-51, ,
1, ,-52, ,
2, ,-52, ,
1, ,-52, ,
-1, ,-52, ,
1, ,-52, ,
-1, ,-51, ,
1, ,-52, ,
2, ,-52, ,
1, ,-51, ,
-1, ,-51, ,
2, ,-52, ,
1, ,-51, ,
1, ,-51, ,
1, ,-51, ,
1, ,-52, ,
-1, ,-51, ,
2, ,-52, ,
-1, ,-51, ,
1, ,-51, ,
1, ,-52, ,
1, ,-51, ,
-1, ,-51, ,
2, ,-52, ,
1, ,-51, ,
1, ,-51, ,
2, ,-51, ,
1, ,-51, ,
-1, ,-51, ,
2, ,-52, ,
1, ,-51, ,
1, ,-51, ,
1, ,-52, ,
1, ,-51, ,
-1, ,-51, ,
2, ,-52, ,
1, ,-51, ,
1, ,-52, ,
2, ,-51, ,
1, ,-51, ,
-1, ,-51, ,
2, ,-52, ,
1, ,-51, ,
1, ,-51, ,
1, ,-51, ,
1, ,-50, ,
-1, ,-51, ,
2, ,-52, ,
-1, ,-51, ,
1, ,-51, ,
1, ,-51, ,
1, ,-51, ,
-1, ,-51, ,
2, ,-52, ,
-1, ,-50, ,
1, ,-51, ,
2, ,-51, ,
1, ,-51, ,
-1, ,-51, ,
1, ,-52, ,
-1, ,-51, ,
-1, ,-51, ,
1, ,-52, ,
1, ,-51, ,
-1, ,-51, ,
2, ,-52, ,
-1, ,-51, ,
1, ,-51, ,
1, ,-51, ,
1, ,-51, ,
-1, ,-51, ,
2, ,-52, ,
-1, ,-51, ,
1, ,-51, ,
1, ,-51, ,
1, ,-51, ,
-1, ,-51, ,
2, ,-52, ,
-1, ,-50, ,
-1, ,-51, ,
2, ,-51, ,
2, ,-51, ,
-1, ,-51, ,
2, ,-52, ,
-1, ,-51, ,
-1, ,-51, ,
1, ,-51, ,
1, ,-51, ,
-1, ,-51, ,
2, ,-52, ,
-1, ,-51, ,
-1, ,-51, ,
1, ,-51, ,
1, ,-51, ,
-1, ,-51, ,
2, ,-52, ,
-1, ,-51, ,
-1, ,-51, ,
1, ,-51, ,
1, ,-51, ,
-1, ,-51, ,
1, ,-52, ,
-1, ,-50, ,
1, ,-51, ,
1, ,-51, ,
1, ,-51, ,
-1, ,-51, ,
2, ,-52, ,
-1, ,-51, ,
-1, ,-51, ,
1, ,-51, ,
1, ,-51, ,
-1, ,-51, ,
2, ,-52, ,
-1, ,-50, ,
1, ,-51, ,
1, ,-51, ,
1, ,-51, ,
-1, ,-50, ,
2, ,-52, ,
1, ,-51, ,
-1, ,-51, ,
1, ,-51, ,
2, ,-51, ,
-1, ,-51, ,
1, ,-52, ,
-1, ,-51, ,
1, ,-51, ,
1, ,-52, ,
1, ,-51, ,
-1, ,-51, ,
1, ,-52, ,
-1, ,-51, ,
1, ,-51, ,
1, ,-51, ,
1, ,-51, ,
-1, ,-51, ,
1, ,-52, ,
-1, ,-50, ,
-1, ,-51, ,
1, ,-52, ,
1, ,-51, ,
-1, ,-51, ,
2, ,-52, ,
1, ,-51, ,
1, ,-51, ,
1, ,-51, ,
1, ,-51, ,
-1, ,-51, ,
2, ,-51, ,
-1, ,-50, ,
1, ,-51, ,
2, ,-51, ,
1, ,-51, ,
-1, ,-51, ,
2, ,-51, ,
-1, ,-51, ,
-1, ,-51, ,
1, ,-51, ,
1, ,-51, ,
-1, ,-51, ,
2, ,-52, ,
1, ,-51, ,
1, ,-51, ,
1, ,-51, ,
1, ,-51, ,
-1, ,-51, ,
2, ,-52, ,
1, ,-51, ,
1, ,-51, ,
1, ,-51, ,
1, ,-51, ,
-1, ,-51, ,
1, ,-52, ,
-1, ,-50, ,
1, ,-51, ,
1, ,-51, ,
1, ,-51, ,
-1, ,-51, ,
2, ,-52, ,
-1, ,-51, ,
1, ,-51, ,
1, ,-51, ,
1, ,-51, ,
-1, ,-51, ,
2, ,-52, ,
-1, ,-50, ,
1, ,-51, ,
1, ,-51, ,
1, ,-51, ,
-1, ,-51, ,
2, ,-52, ,
1, ,-51, ,
1, ,-51, ,
1, ,-51, ,
1, ,-51, ,
-1, ,-51, ,
1, ,-52, ,
-1, ,-51, ,
1, ,-51, ,
1, ,-52, ,
1, ,-51, ,
-1, ,-51, ,
1, ,-52, ,
-1, ,-51, ,
-1, ,-51, ,
1, ,-51, ,
1, ,-51, ,
-1, ,-51, ,
2, ,-51, ,
-1, ,-50, ,
-1, ,-51, ,
1, ,-51, ,
1, ,-51, ,
-1, ,-50, ,
1, ,-52, ,
-1, ,-50, ,
-1, ,-51, ,
1, ,-52, ,
1, ,-51, ,
-1, ,-51, ,
1, ,-52, ,
-1, ,-50, ,
-1, ,-51, ,
1, ,-51, ,
1, ,-51, ,
-1, ,-50, ,
2, ,-52, ,
1, ,-50, ,
-1, ,-51, ,
1, ,-51, ,
2, ,-51, ,
-1, ,-51, ,
2, ,-52, ,
-1, ,-50, ,
1, ,-51, ,
1, ,-51, ,
1, ,-51, ,
-1, ,-51, ,
1, ,-52, ,
-1, ,-51, ,
-1, ,-51, ,
1, ,-51, ,
1, ,-51, ,
-1, ,-51, ,
1, ,-52, ,
-1, ,-50, ,
-1, ,-51, ,
1, ,-51, ,
1, ,-51, ,
-1, ,-51, ,
1, ,-51, ,
-1, ,-51, ,
-1, ,-51, ,
1, ,-51, ,
1, ,-51, ,
-1, ,-51, ,
1, ,-51, ,
-1, ,-50, ,
1, ,-51, ,
2, ,-51, ,
1, ,-50, ,
-1, ,-51, ,
1, ,-52, ,
-1, ,-51, ,
-1, ,-51, ,
1, ,-51, ,
1, ,-51, ,
-1, ,-51, ,
1, ,-52, ,
-1, ,-50, ,
1, ,-51, ,
1, ,-51, ,
1, ,-51, ,
-1, ,-51, ,
2, ,-52, ,
-1, ,-51, ,
1, ,-51, ,
1, ,-51, ,
1, ,-51, ,
-1, ,-51, ,
1, ,-52, ,
-1, ,-50, ,
-1, ,-51, ,
1, ,-52, ,
1, ,-51, ,
-1, ,-50, ,
1, ,-51, ,
-1, ,-51, ,
-1, ,-51, ,
1, ,-51, ,
1, ,-51, ,
-1, ,-51, ,
2, ,-52, ,
-1, ,-50, ,
-1, ,-51, ,
1, ,-51, ,
1, ,-51, ,
-1, ,-51, ,
2, ,-52, ,
-1, ,-50, ,
1, ,-51, ,
1, ,-51, ,
1, ,-51, ,
-1, ,-51, ,
2, ,-52, ,
-1, ,-50, ,
1, ,-51, ,
1, ,-51, ,
1, ,-51, ,
-1, ,-51, ,
1, ,-52, ,
-1, ,-51, ,
-1, ,-51, ,
1, ,-51, ,
1, ,-51, ,
-1, ,-51, ,
1, ,-52, ,
-1, ,-50, ,
-1, ,-51, ,
1, ,-51, ,
2, ,-51, ,
-1, ,-51, ,
1, ,-52, ,
-1, ,-50, ,
-1, ,-51, ,
1, ,-51, ,
1, ,-51, ,
-1, ,-51, ,
2, ,-51, ,
-1, ,-51, ,
-1, ,-51, ,
1, ,-51, ,
1, ,-51, ,
-1, ,-51, ,
2, ,-52, ,
-1, ,-51, ,
-1, ,-51, ,
1, ,-51, ,
1, ,-51, ,
-1, ,-51, ,
1, ,-52, ,
-1, ,-50, ,
-1, ,-51, ,
1, ,-51, ,
1, ,-51, ,
-1, ,-51, ,
1, ,-52, ,
-1, ,-51, ,
-1, ,-51, ,
1, ,-51, ,
1, ,-51, ,
-1, ,-51, ,
2, ,-51, ,
1, ,-50, ,
-1, ,-51, ,
1, ,-51, ,
1, ,-51, ,
-1, ,-51, ,
1, ,-52, ,
-1, ,-51, ,
-1, ,-51, ,
1, ,-52, ,
1, ,-51, ,
-1, ,-51, ,
2, ,-51, ,
-1, ,-50, ,
-1, ,-51, ,
1, ,-52, ,
1, ,-51, ,
-1, ,-50, ,
2, ,-52, ,
-1, ,-51, ,
-1, ,-51, ,
1, ,-51, ,
1, ,-51, ,
-1, ,-51, ,
1, ,-52, ,
-1, ,-50, ,
-1, ,-51, ,
1, ,-52, ,
1, ,-51, ,
-1, ,-51, ,
1, ,-52, ,
-1, ,-51, ,
-1, ,-51, ,
1, ,-51, ,
1, ,-51, ,
-1, ,-51, ,
1, ,-52, ,
-1, ,-50, ,
-1, ,-51, ,
1, ,-51, ,
1, ,-51, ,
-1, ,-51, ,
2, ,-52, ,
-1, ,-51, ,
-1, ,-51, ,
1, ,-51, ,
1, ,-51, ,
-1, ,-51, ,
1, ,-52, ,
-1, ,-50, ,
1, ,-51, ,
1, ,-51, ,
1, ,-51, ,
-1, ,-50, ,
2, ,-51, ,
-1, ,-50, ,
-1, ,-51, ,
1, ,-51, ,
1, ,-51, ,
-1, ,-51, ,
2, ,-52, ,
1, ,-50, ,
-1, ,-51, ,
1, ,-52, ,
1, ,-51, ,
-1, ,-51, ,
2, ,-52, ,
-1, ,-51, ,
-1, ,-51, ,
1, ,-51, ,
2, ,-51, ,
-1, ,-51, ,
1, ,-51, ,
-1, ,-51, ,
1, ,-51, ,
1, ,-51, ,
1, ,-51, ,
-1, ,-51, ,
2, ,-51, ,
-1, ,-51, ,
-1, ,-51, ,
1, ,-52, ,
1, ,-51, ,
-1, ,-51, ,
1, ,-52, ,
-1, ,-50, ,
-1, ,-51, ,
1, ,-51, ,
1, ,-51, ,
-1, ,-50, ,
1, ,-52, ,
-1, ,-51, ,
-1, ,-51, ,
1, ,-51, ,
1, ,-51, ,
-1, ,-51, ,
2, ,-52, ,
-1, ,-50, ,
1, ,-51, ,
1, ,-52, ,
1, ,-51, ,
-1, ,-51, ,
2, ,-52, ,
1, ,-51, ,
-1, ,-51, ,
1, ,-51, ,
1, ,-51, ,
-1, ,-50, ,
2, ,-52, ,
-1, ,-51, ,
-1, ,-51, ,
1, ,-51, ,
2, ,-51, ,
-1, ,-51, ,
1, ,-52, ,
-1, ,-51, ,
-1, ,-51, ,
1, ,-51, ,
2, ,-51, ,
-1, ,-51, ,
2, ,-52, ,
-1, ,-51, ,
-1, ,-51, ,
1, ,-52, ,
1, ,-51, ,
-1, ,-51, ,
1, ,-51, ,
-1, ,-51, ,
-1, ,-51, ,
1, ,-52, ,
1, ,-51, ,
-1, ,-51, ,
1, ,-51, ,
-1, ,-51, ,
-1, ,-51, ,
1, ,-51, ,
1, ,-51, ,
-1, ,-51, ,
1, ,-52, ,
-1, ,-51, ,
-1, ,-51, ,
1, ,-51, ,
1, ,-51, ,
-1, ,-51, ,
1, ,-51, ,
-1, ,-50, ,
-1, ,-51, ,
1, ,-51, ,
1, ,-51, ,
-1, ,-51, ,
1, ,-52, ,
-1, ,-51, ,
-1, ,-51, ,
1, ,-51, ,
1, ,-51, ,
-1, ,-51, ,
1, ,-52, ,
-1, ,-51, ,
-1, ,-51, ,
1, ,-51, ,
1, ,-50, ,
-1, ,-51, ,
1, ,-52, ,
-1, ,-50, ,
-1, ,-51, ,
1, ,-51, ,
1, ,-51, ,
-1, ,-51, ,
1, ,-52, ,
-1, ,-50, ,
-1, ,-51, ,
1, ,-51, ,
1, ,-51, ,
-1, ,-51, ,
1, ,-52, ,
-1, ,-51, ,
-1, ,-51, ,
1, ,-52, ,
1, ,-51, ,
-1, ,-51, ,
1, ,-51, ,
-1, ,-50, ,
-1, ,-51, ,
1, ,-51, ,
1, ,-51, ,
-1, ,-51, ,
1, ,-52, ,
1, ,-51, ,
-1, ,-51, ,
1, ,-51, ,
1, ,-51, ,
-1, ,-51, ,
2, ,-52, ,
-1, ,-50, ,
1, ,-51, ,
1, ,-51, ,
2, ,-51, ,
-1, ,-51, ,
1, ,-52, ,
-1, ,-51, ,
-1, ,-51, ,
1, ,-51, ,
2, ,-51, ,
-1, ,-51, ,
2, ,-51, ,
-1, ,-50, ,
-1, ,-51, ,
1, ,-51, ,
1, ,-51, ,
-1, ,-51, ,
2, ,-52, ,
-1, ,-51, ,
-1, ,-51, ,
1, ,-51, ,
1, ,-51, ,
-1, ,-51, ,
2, ,-52, ,
-1, ,-51, ,
-1, ,-51, ,
1, ,-51, ,
2, ,-51, ,
-1, ,-50, ,
1, ,-52, ,
-1, ,-51, ,
-1, ,-51, ,
1, ,-51, ,
1, ,-51, ,
-1, ,-51, ,
2, ,-51, ,
-1, ,-50, ,
-1, ,-51, ,
1, ,-51, ,
1, ,-51, ,
-1, ,-50, ,
1, ,-52, ,
-1, ,-51, ,
-1, ,-51, ,
1, ,-51, ,
1, ,-51, ,
-1, ,-51, ,
2, ,-51, ,
-1, ,-50, ,
-1, ,-51, ,
1, ,-51, ,
1, ,-51, ,
-1, ,-51, ,
2, ,-52, ,
3, ,-50, ,
76, ,-51, ,
48, ,-51, ,
29, ,-51, ,
16, ,-51, ,
12, ,-52, ,
7, ,-40, ,
5, ,-20, ,
5, ,-4, ,
3, ,8, ,
2, ,17, ,
5, ,24, ,
2, ,28, ,
2, ,33, ,
2, ,35, ,
2, ,38, ,
2, ,39, ,
3, ,40, ,
2, ,41, ,
2, ,41, ,
2, ,42, ,
2, ,42, ,
2, ,42, ,
3, ,43, ,
2, ,42, ,
2, ,43, ,
3, ,43, ,
2, ,43, ,
1, ,43, ,
3, ,43, ,
2, ,42, ,
2, ,43, ,
2, ,43, ,
2, ,42, ,
1, ,43, ,
3, ,43, ,
2, ,42, ,
1, ,42, ,
3, ,43, ,
2, ,43, ,
1, ,42, ,
3, ,43, ,
2, ,42, ,
2, ,42, ,
2, ,43, ,
2, ,42, ,
1, ,43, ,
3, ,43, ,
2, ,42, ,
2, ,42, ,
2, ,42, ,
2, ,42, ,
1, ,42, ,
3, ,43, ,
1, ,42, ,
1, ,42, ,
3, ,43, ,
2, ,42, ,
1, ,43, ,
3, ,43, ,
2, ,42, ,
2, ,42, ,
2, ,42, ,
2, ,42, ,
1, ,42, ,
3, ,43, ,
2, ,42, ,
2, ,42, ,
2, ,42, ,
2, ,42, ,
1, ,42, ,
3, ,43, ,
1, ,42, ,
1, ,42, ,
2, ,43, ,
2, ,43, ,
1, ,42, ,
3, ,43, ,
2, ,42, ,
2, ,42, ,
3, ,42, ,
2, ,42, ,
1, ,42, ,
3, ,43, ,
1, ,42, ,
2, ,42, ,
2, ,42, ,
2, ,42, ,
1, ,42, ,
3, ,43, ,
2, ,42, ,
2, ,42, ,
2, ,42, ,
2, ,42, ,
1, ,42, ,
3, ,43, ,
2, ,42, ,
2, ,42, ,
2, ,43, ,
2, ,42, ,
1, ,42, ,
3, ,43, ,
2, ,41, ,
2, ,42, ,
2, ,42, ,
2, ,42, ,
1, ,42, ,
3, ,43, ,
2, ,42, ,
2, ,42, ,
2, ,42, ,
2, ,42, ,
1, ,42, ,
3, ,43, ,
2, ,42, ,
1, ,42, ,
2, ,42, ,
2, ,42, ,
1, ,42, ,
2, ,43, ,
2, ,42, ,
1, ,42, ,
2, ,43, ,
2, ,42, ,
1, ,42, ,
2, ,42, ,
2, ,42, ,
1, ,42, ,
2, ,42, ,
2, ,42, ,
1, ,42, ,
2, ,43, ,
2, ,42, ,
1, ,42, ,
2, ,42, ,
2, ,42, ,
1, ,42, ,
2, ,43, ,
1, ,42, ,
1, ,42, ,
2, ,43, ,
1, ,42, ,
1, ,42, ,
2, ,43, ,
2, ,42, ,
1, ,42, ,
2, ,42, ,
2, ,42, ,
1, ,42, ,
2, ,43, ,
1, ,42, ,
1, ,42, ,
2, ,42, ,
2, ,42, ,
1, ,42, ,
2, ,43, ,
1, ,42, ,
1, ,42, ,
2, ,42, ,
1, ,43, ,
1, ,39, ,
2, ,21, ,
1, ,3, ,
1, ,-12, ,
2, ,-21, ,
1, ,-30, ,
1, ,-35, ,
2, ,-40, ,
1, ,-42, ,
1, ,-44, ,
2, ,-46, ,
2, ,-47, ,
1, ,-49, ,
2, ,-50, ,
1, ,-49, ,
1, ,-51, ,
2, ,-52, ,
1, ,-51, ,
1, ,-51, ,
2, ,-52, ,
1, ,-51, ,
1, ,-52, ,
2, ,-52, ,
2, ,-52, ,
1, ,-51, ,
2, ,-52, ,
1, ,-51, ,
2, ,-52, ,
2, ,-52, ,
2, ,-51, ,
1, ,-51, ,
2, ,-52, ,
1, ,-51, ,
1, ,-52, ,
2, ,-52, ,
2, ,-52, ,
1, ,-51, ,
2, ,-52, ,
1, ,-50, ,
1, ,-51, ,
2, ,-52, ,
2, ,-51, ,
1, ,-51, ,
2, ,-52, ,
1, ,-51, ,
1, ,-52, ,
2, ,-51, ,
2, ,-51, ,
1, ,-51, ,
2, ,-52, ,
1, ,-50, ,
1, ,-51, ,
2, ,-52, ,
2, ,-51, ,
1, ,-51, ,
2, ,-52, ,
1, ,-50, ,
1, ,-51, ,
2, ,-52, ,
2, ,-51, ,
1, ,-51, ,
2, ,-52, ,
1, ,-50, ,
1, ,-51, ,
2, ,-51, ,
2, ,-51, ,
1, ,-51, ,
2, ,-52, ,
1, ,-50, ,
1, ,-51, ,
2, ,-51, ,
2, ,-51, ,
1, ,-51, ,
2, ,-52, ,
1, ,-50, ,
1, ,-51, ,
2, ,-51, ,
1, ,-51, ,
1, ,-51, ,
2, ,-52, ,
1, ,-51, ,
1, ,-51, ,
2, ,-52, ,
2, ,-51, ,
1, ,-51, ,
2, ,-52, ,
1, ,-50, ,
1, ,-51, ,
2, ,-52, ,
2, ,-51, ,
1, ,-51, ,
2, ,-52, ,
1, ,-51, ,
1, ,-51, ,
2, ,-51, ,
2, ,-51, ,
1, ,-51, ,
2, ,-52, ,
1, ,-50, ,
1, ,-51, ,
2, ,-52, ,
2, ,-51, ,
-1, ,-51, ,
2, ,-52, ,
1, ,-51, ,
1, ,-51, ,
2, ,-51, ,
1, ,-51, ,
1, ,-51, ,
2, ,-52, ,
1, ,-50, ,
1, ,-51, ,
2, ,-51, ,
1, ,-51, ,
-1, ,-51, ,
2, ,-52, ,
1, ,-50, ,
1, ,-51, ,
2, ,-52, ,
1, ,-51, ,
1, ,-51, ,
2, ,-52, ,
1, ,-50, ,
1, ,-51, ,
1, ,-52, ,
1, ,-51, ,
-1, ,-50, ,
2, ,-52, ,
1, ,-50, ,
1, ,-51, ,
2, ,-51, ,
1, ,-51, ,
-1, ,-51, ,
2, ,-52, ,
1, ,-50, ,
1, ,-51, ,
2, ,-52, ,
2, ,-51, ,
-1, ,-51, ,
2, ,-52, ,
1, ,-50, ,
1, ,-51, ,
2, ,-51, ,
2, ,-51, ,
-1, ,-51, ,
2, ,-51, ,
1, ,-50, ,
1, ,-51, ,
2, ,-52, ,
1, ,-51, ,
-1, ,-51, ,
2, ,-52, ,
1, ,-50, ,
1, ,-51, ,
2, ,-51, ,
1, ,-51, ,
-1, ,-51, ,
2, ,-51, ,
1, ,-50, ,
1, ,-51, ,
2, ,-51, ,
1, ,-51, ,
-1, ,-50, ,
2, ,-52, ,
1, ,-50, ,
1, ,-51, ,
2, ,-51, ,
1, ,-51, ,
1, ,-51, ,
2, ,-52, ,
1, ,-50, ,
1, ,-51, ,
2, ,-52, ,
1, ,-51, ,
-1, ,-51, ,
2, ,-52, ,
1, ,-51, ,
1, ,-51, ,
2, ,-51, ,
1, ,-51, ,
-1, ,-51, ,
2, ,-52, ,
1, ,-50, ,
1, ,-51, ,
1, ,-52, ,
1, ,-51, ,
-1, ,-50, ,
2, ,-52, ,
1, ,-51, ,
1, ,-51, ,
2, ,-51, ,
2, ,-51, ,
1, ,-51, ,
2, ,-52, ,
1, ,-50, ,
1, ,-51, ,
2, ,-51, ,
1, ,-51, ,
-1, ,-50, ,
2, ,-52, ,
1, ,-50, ,
1, ,-51, ,
1, ,-51, ,
1, ,-51, ,
-1, ,-51, ,
2, ,-52, ,
1, ,-50, ,
1, ,-51, ,
2, ,-52, ,
2, ,-51, ,
-1, ,-50, ,
2, ,-52, ,
1, ,-50, ,
1, ,-51, ,
1, ,-51, ,
1, ,-51, ,
-1, ,-51, ,
2, ,-52, ,
1, ,-51, ,
1, ,-51, ,
1, ,-51, ,
1, ,-51, ,
-1, ,-50, ,
2, ,-51, ,
1, ,-50, ,
1, ,-51, ,
1, ,-51, ,
1, ,-51, ,
-1, ,-51, ,
2, ,-52, ,
1, ,-50, ,
1, ,-51, ,
2, ,-51, ,
2, ,-51, ,
-1, ,-51, ,
2, ,-52, ,
1, ,-50, ,
1, ,-51, ,
2, ,-51, ,
1, ,-51, ,
-1, ,-51, ,
2, ,-51, ,
1, ,-50, ,
1, ,-51, ,
2, ,-51, ,
1, ,-50, ,
-1, ,-51, ,
2, ,-52, ,
1, ,-51, ,
1, ,-51, ,
1, ,-51, ,
1, ,-51, ,
-1, ,-51, ,
2, ,-52, ,
1, ,-50, ,
1, ,-51, ,
2, ,-51, ,
1, ,-50, ,
-1, ,-50, ,
2, ,-52, ,
1, ,-50, ,
1, ,-51, ,
1, ,-51, ,
1, ,-51, ,
-1, ,-51, ,
2, ,-51, ,
1, ,-50, ,
1, ,-51, ,
1, ,-52, ,
1, ,-51, ,
-1, ,-50, ,
2, ,-52, ,
1, ,-50, ,
1, ,-51, ,
1, ,-51, ,
1, ,-51, ,
-1, ,-51, ,
2, ,-52, ,
1, ,-50, ,
1, ,-51, ,
1, ,-51, ,
2, ,-50, ,
-1, ,-51, ,
2, ,-52, ,
1, ,-51, ,
1, ,-51, ,
1, ,-51, ,
1, ,-51, ,
-1, ,-51, ,
2, ,-52, ,
1, ,-50, ,
1, ,-51, ,
1, ,-51, ,
2, ,-51, ,
-1, ,-51, ,
2, ,-52, ,
1, ,-51, ,
1, ,-51, ,
1, ,-51, ,
1, ,-51, ,
-1, ,-51, ,
2, ,-52, ,
-1, ,-50, ,
1, ,-51, ,
1, ,-51, ,
2, ,-51, ,
-1, ,-50, ,
2, ,-52, ,
1, ,-51, ,
1, ,-51, ,
1, ,-51, ,
1, ,-51, ,
-1, ,-51, ,
2, ,-51, ,
1, ,-50, ,
1, ,-51, ,
1, ,-51, ,
2, ,-51, ,
-1, ,-51, ,
2, ,-52, ,
1, ,-51, ,
1, ,-51, ,
1, ,-51, ,
2, ,-51, ,
-1, ,-51, ,
2, ,-52, ,
-1, ,-50, ,
1, ,-51, ,
1, ,-51, ,
1, ,-51, ,
-1, ,-51, ,
2, ,-52, ,
1, ,-51, ,
1, ,-51, ,
2, ,-51, ,
2, ,-51, ,
-1, ,-51, ,
2, ,-52, ,
1, ,-50, ,
1, ,-51, ,
1, ,-51, ,
1, ,-51, ,
-1, ,-51, ,
2, ,-52, ,
1, ,-51, ,
1, ,-51, ,
1, ,-51, ,
1, ,-51, ,
-1, ,-51, ,
2, ,-51, ,
-1, ,-50, ,
1, ,-51, ,
1, ,-51, ,
1, ,-50, ,
-1, ,-50, ,
2, ,-52, ,
1, ,-50, ,
1, ,-51, ,
1, ,-51, ,
2, ,-51, ,
-1, ,-51, ,
2, ,-52, ,
1, ,-50, ,
1, ,-51, ,
1, ,-52, ,
1, ,-51, ,
-1, ,-51, ,
2, ,-52, ,
1, ,-51, ,
1, ,-51, ,
1, ,-51, ,
1, ,-51, ,
-1, ,-51, ,
2, ,-52, ,
-1, ,-50, ,
1, ,-51, ,
1, ,-51, ,
1, ,-51, ,
-1, ,-50, ,
2, ,-52, ,
-1, ,-51, ,
-1, ,-51, ,
1, ,-51, ,
1, ,-51, ,
-1, ,-51, ,
2, ,-52, ,
-1, ,-51, ,
1, ,-51, ,
1, ,-51, ,
1, ,-51, ,
-1, ,-50, ,
2, ,-52, ,
-1, ,-51, ,
-1, ,-51, ,
1, ,-51, ,
2, ,-51, ,
-1, ,-51, ,
2, ,-52, ,
-1, ,-51, ,
-1, ,-51, ,
1, ,-51, ,
1, ,-51, ,
-1, ,-51, ,
2, ,-52, ,
1, ,-51, ,
1, ,-51, ,
1, ,-51, ,
2, ,-51, ,
-1, ,-51, ,
2, ,-52, ,
-1, ,-50, ,
1, ,-51, ,
1, ,-51, ,
1, ,-51, ,
-1, ,-51, ,
2, ,-52, ,
1, ,-51, ,
-1, ,-51, ,
1, ,-51, ,
1, ,-51, ,
-1, ,-51, ,
2, ,-52, ,
-1, ,-51, ,
1, ,-51, ,
1, ,-51, ,
1, ,-51, ,
-1, ,-51, ,
2, ,-52, ,
-1, ,-51, ,
-1, ,-51, ,
1, ,-51, ,
2, ,-51, ,
-1, ,-51, ,
2, ,-52, ,
1, ,-50, ,
1, ,-51, ,
1, ,-51, ,
2, ,-51, ,
-1, ,-51, ,
1, ,-52, ,
1, ,-51, ,
1, ,-51, ,
1, ,-51, ,
1, ,-51, ,
-1, ,-51, ,
1, ,-51, ,
-1, ,-50, ,
1, ,-51, ,
1, ,-52, ,
1, ,-51, ,
-1, ,-51, ,
2, ,-52, ,
-1, ,-51, ,
-1, ,-51, ,
1, ,-51, ,
1, ,-51, ,
-1, ,-51, ,
2, ,-52, ,
-1, ,-50, ,
-1, ,-51, ,
1, ,-51, ,
1, ,-51, ,
-1, ,-51, ,
2, ,-52, ,
1, ,-51, ,
1, ,-51, ,
1, ,-51, ,
1, ,-51, ,
-1, ,-51, ,
2, ,-52, ,
-1, ,-50, ,
1, ,-51, ,
1, ,-51, ,
1, ,-51, ,
-1, ,-51, ,
1, ,-52, ,
-1, ,-51, ,
