src/varyamp_1560/temp0002848.CSV

Format,1.0B,
Memory Length,10000,Memory Length,10000,
IntpDistance,0,IntpDistance,0,
Trigger Address,4999,Trigger Address,4999,
Trigger Level,1.040E+00,Trigger Level,1.040E+00,
Source,CH1,Source,CH2,
Vertical Units,V,Vertical Units,V,
Vertical Units Div,0,Vertical Units Div,0,
Vertical Units Extend Div,16,Vertical Units Extend Div,16,
Label,,Label,,
Probe Type,0,Probe Type,0,
Probe Ratio,1.000e+01,Probe Ratio,1.000e+00,
Vertical Scale,5.000e-01,Vertical Scale,1.000e+00,
Vertical Position,-1.820e+00,Vertical Position,0.000e+00,
Horizontal Units,S,Horizontal Units,S,
Horizontal Scale,2.000E-05,Horizontal Scale,2.000E-05,
Horizontal Position,0.000E+00,Horizontal Position,0.000E+00,
Horizontal Mode,Main,Horizontal Mode,Main,
SincET Mode,Real Time,SincET Mode,Real Time,
Sampling Period,2.000e-08,Sampling Period,2.000e-08,
Horizontal Old Scale,2.000E-05,Horizontal Old Scale,2.000E-05,
Horizontal Old Position,0.000E+00,Horizontal Old Position,0.000E+00,
Firmware,V1.23,Firmware,V1.23,
Mode,Fast,Mode,Fast,
Waveform Data,,Waveform Data,,
2, ,-49, ,
2, ,-50, ,
1, ,-49, ,
2, ,-49, ,
1, ,-49, ,
2, ,-50, ,
2, ,-49, ,
2, ,-50, ,
1, ,-49, ,
2, ,-50, ,
1, ,-50, ,
1, ,-49, ,
2, ,-49, ,
2, ,-50, ,
1, ,-50, ,
2, ,-49, ,
1, ,-50, ,
2, ,-50, ,
2, ,-49, ,
1, ,-50, ,
1, ,-49, ,
2, ,-50, ,
1, ,-50, ,
1, ,-50, ,
2, ,-49, ,
2, ,-50, ,
-1, ,-49, ,
2, ,-50, ,
1, ,-50, ,
1, ,-50, ,
2, ,-49, ,
1, ,-50, ,
1, ,-49, ,
2, ,-49, ,
1, ,-50, ,
1, ,-49, ,
2, ,-49, ,
2, ,-50, ,
-1, ,-50, ,
2, ,-50, ,
1, ,-49, ,
2, ,-50, ,
2, ,-49, ,
2, ,-50, ,
1, ,-49, ,
2, ,-49, ,
1, ,-50, ,
1, ,-50, ,
2, ,-49, ,
1, ,-50, ,
-1, ,-50, ,
2, ,-50, ,
1, ,-50, ,
1, ,-50, ,
2, ,-49, ,
1, ,-50, ,
1, ,-49, ,
2, ,-50, ,
1, ,-50, ,
1, ,-50, ,
2, ,-49, ,
1, ,-50, ,
-1, ,-49, ,
2, ,-49, ,
1, ,-49, ,
1, ,-50, ,
2, ,-49, ,
2, ,-50, ,
1, ,-49, ,
2, ,-49, ,
1, ,-50, ,
1, ,-49, ,
2, ,-49, ,
1, ,-50, ,
-1, ,-50, ,
2, ,-50, ,
1, ,-49, ,
1, ,-50, ,
2, ,-49, ,
1, ,-50, ,
1, ,-49, ,
2, ,-49, ,
1, ,-49, ,
1, ,-49, ,
2, ,-49, ,
2, ,-50, ,
-1, ,-50, ,
2, ,-50, ,
1, ,-50, ,
1, ,-50, ,
1, ,-49, ,
1, ,-50, ,
1, ,-50, ,
2, ,-49, ,
1, ,-50, ,
1, ,-49, ,
2, ,-50, ,
1, ,-50, ,
1, ,-50, ,
2, ,-49, ,
1, ,-50, ,
1, ,-50, ,
2, ,-49, ,
1, ,-50, ,
-1, ,-49, ,
2, ,-49, ,
1, ,-49, ,
1, ,-50, ,
2, ,-49, ,
1, ,-50, ,
-1, ,-50, ,
2, ,-50, ,
1, ,-50, ,
1, ,-50, ,
2, ,-49, ,
1, ,-50, ,
-1, ,-49, ,
2, ,-50, ,
1, ,-50, ,
1, ,-50, ,
2, ,-50, ,
2, ,-50, ,
-1, ,-50, ,
2, ,-50, ,
1, ,-49, ,
1, ,-50, ,
2, ,-49, ,
2, ,-50, ,
-1, ,-49, ,
2, ,-50, ,
1, ,-50, ,
1, ,-50, ,
2, ,-49, ,
1, ,-50, ,
1, ,-50, ,
2, ,-49, ,
1, ,-49, ,
1, ,-49, ,
1, ,-49, ,
1, ,-50, ,
1, ,-50, ,
2, ,-49, ,
1, ,-49, ,
1, ,-50, ,
1, ,-49, ,
2, ,-50, ,
-1, ,-50, ,
2, ,-49, ,
1, ,-49, ,
1, ,-49, ,
2, ,-49, ,
1, ,-50, ,
-1, ,-49, ,
2, ,-49, ,
1, ,-50, ,
1, ,-49, ,
2, ,-49, ,
1, ,-50, ,
-1, ,-50, ,
2, ,-50, ,
1, ,-50, ,
1, ,-50, ,
2, ,-49, ,
1, ,-50, ,
-1, ,-50, ,
2, ,-49, ,
1, ,-50, ,
1, ,-50, ,
1, ,-49, ,
1, ,-50, ,
-1, ,-49, ,
2, ,-49, ,
1, ,-49, ,
1, ,-50, ,
2, ,-49, ,
1, ,-50, ,
-1, ,-49, ,
2, ,-49, ,
1, ,-50, ,
1, ,-50, ,
1, ,-49, ,
1, ,-50, ,
-1, ,-49, ,
2, ,-50, ,
1, ,-50, ,
1, ,-50, ,
1, ,-49, ,
1, ,-50, ,
-1, ,-50, ,
2, ,-49, ,
1, ,-50, ,
1, ,-49, ,
2, ,-49, ,
1, ,-50, ,
-1, ,-50, ,
2, ,-50, ,
-1, ,-50, ,
1, ,-50, ,
1, ,-50, ,
1, ,-50, ,
-1, ,-49, ,
2, ,-50, ,
1, ,-50, ,
1, ,-50, ,
2, ,-49, ,
1, ,-50, ,
-1, ,-50, ,
1, ,-50, ,
1, ,-49, ,
1, ,-50, ,
1, ,-49, ,
1, ,-50, ,
-1, ,-49, ,
2, ,-50, ,
1, ,-50, ,
1, ,-50, ,
2, ,-50, ,
1, ,-50, ,
-1, ,-50, ,
2, ,-50, ,
1, ,-50, ,
1, ,-49, ,
1, ,-49, ,
1, ,-50, ,
-1, ,-49, ,
2, ,-49, ,
1, ,-50, ,
1, ,-49, ,
1, ,-50, ,
1, ,-50, ,
-1, ,-50, ,
2, ,-50, ,
1, ,-50, ,
1, ,-50, ,
1, ,-49, ,
1, ,-50, ,
-1, ,-49, ,
2, ,-49, ,
1, ,-50, ,
1, ,-50, ,
2, ,-49, ,
1, ,-50, ,
-1, ,-49, ,
2, ,-49, ,
1, ,-49, ,
1, ,-49, ,
1, ,-50, ,
1, ,-50, ,
-1, ,-49, ,
2, ,-49, ,
1, ,-50, ,
1, ,-50, ,
1, ,-49, ,
1, ,-50, ,
-1, ,-50, ,
2, ,-49, ,
1, ,-49, ,
1, ,-50, ,
1, ,-49, ,
1, ,-50, ,
-1, ,-49, ,
1, ,-49, ,
-1, ,-50, ,
1, ,-49, ,
2, ,-49, ,
2, ,-50, ,
-1, ,-49, ,
2, ,-49, ,
1, ,-49, ,
1, ,-49, ,
1, ,-50, ,
1, ,-50, ,
-1, ,-49, ,
2, ,-49, ,
-1, ,-49, ,
1, ,-49, ,
1, ,-49, ,
1, ,-50, ,
-1, ,-50, ,
2, ,-49, ,
1, ,-49, ,
1, ,-50, ,
1, ,-49, ,
2, ,-50, ,
-1, ,-49, ,
2, ,-49, ,
1, ,-50, ,
1, ,-50, ,
1, ,-49, ,
1, ,-50, ,
-1, ,-49, ,
2, ,-50, ,
1, ,-49, ,
1, ,-50, ,
1, ,-50, ,
1, ,-50, ,
-1, ,-49, ,
2, ,-49, ,
1, ,-50, ,
1, ,-49, ,
1, ,-49, ,
2, ,-50, ,
-1, ,-49, ,
2, ,-50, ,
1, ,-49, ,
1, ,-47, ,
1, ,-33, ,
1, ,-13, ,
-1, ,2, ,
2, ,13, ,
1, ,20, ,
1, ,27, ,
2, ,32, ,
2, ,35, ,
-1, ,37, ,
2, ,39, ,
1, ,41, ,
1, ,42, ,
1, ,42, ,
1, ,43, ,
-1, ,43, ,
2, ,43, ,
1, ,43, ,
1, ,44, ,
1, ,44, ,
1, ,44, ,
-1, ,44, ,
2, ,44, ,
-1, ,44, ,
1, ,44, ,
1, ,44, ,
1, ,44, ,
-1, ,44, ,
2, ,44, ,
-1, ,44, ,
-1, ,44, ,
1, ,44, ,
1, ,44, ,
-1, ,43, ,
2, ,44, ,
-1, ,44, ,
-1, ,44, ,
1, ,43, ,
1, ,44, ,
-1, ,43, ,
1, ,44, ,
-1, ,44, ,
1, ,44, ,
1, ,44, ,
1, ,44, ,
-1, ,43, ,
1, ,43, ,
-1, ,43, ,
-1, ,44, ,
1, ,43, ,
1, ,44, ,
-1, ,43, ,
1, ,44, ,
-1, ,44, ,
1, ,44, ,
2, ,44, ,
1, ,44, ,
-1, ,43, ,
1, ,43, ,
-1, ,43, ,
-1, ,44, ,
1, ,43, ,
1, ,44, ,
-1, ,43, ,
2, ,43, ,
-1, ,43, ,
-1, ,44, ,
1, ,44, ,
1, ,44, ,
-1, ,43, ,
2, ,43, ,
-1, ,43, ,
1, ,44, ,
1, ,43, ,
1, ,44, ,
-1, ,43, ,
2, ,44, ,
-1, ,43, ,
-1, ,44, ,
1, ,43, ,
1, ,44, ,
-1, ,43, ,
1, ,43, ,
1, ,44, ,
1, ,44, ,
1, ,43, ,
1, ,44, ,
-1, ,43, ,
1, ,43, ,
-1, ,43, ,
1, ,44, ,
1, ,43, ,
1, ,44, ,
-1, ,43, ,
2, ,43, ,
1, ,43, ,
1, ,44, ,
1, ,43, ,
1, ,44, ,
-1, ,43, ,
2, ,44, ,
1, ,43, ,
1, ,44, ,
1, ,43, ,
1, ,44, ,
-1, ,43, ,
2, ,43, ,
1, ,43, ,
1, ,44, ,
1, ,43, ,
1, ,44, ,
-1, ,43, ,
2, ,43, ,
-1, ,43, ,
1, ,43, ,
1, ,43, ,
1, ,44, ,
-1, ,43, ,
1, ,43, ,
-1, ,43, ,
1, ,44, ,
1, ,43, ,
1, ,43, ,
-1, ,43, ,
2, ,43, ,
1, ,43, ,
1, ,44, ,
1, ,43, ,
1, ,43, ,
-1, ,43, ,
2, ,43, ,
1, ,43, ,
-1, ,44, ,
1, ,43, ,
1, ,44, ,
-1, ,43, ,
1, ,43, ,
-1, ,43, ,
1, ,44, ,
1, ,43, ,
1, ,44, ,
-1, ,43, ,
2, ,43, ,
-1, ,43, ,
1, ,44, ,
1, ,43, ,
1, ,43, ,
-1, ,43, ,
1, ,43, ,
1, ,43, ,
-1, ,44, ,
1, ,43, ,
1, ,44, ,
-1, ,43, ,
1, ,43, ,
-1, ,37, ,
-1, ,18, ,
1, ,0, ,
1, ,-12, ,
-1, ,-22, ,
1, ,-28, ,
-1, ,-35, ,
-1, ,-39, ,
1, ,-41, ,
1, ,-43, ,
-1, ,-45, ,
1, ,-46, ,
-1, ,-47, ,
1, ,-49, ,
1, ,-49, ,
1, ,-50, ,
-1, ,-49, ,
2, ,-50, ,
-1, ,-50, ,
45, ,-50, ,
67, ,-50, ,
41, ,-50, ,
25, ,-50, ,
17, ,-50, ,
10, ,-50, ,
8, ,-50, ,
6, ,-50, ,
5, ,-50, ,
3, ,-50, ,
5, ,-50, ,
3, ,-50, ,
2, ,-50, ,
3, ,-50, ,
3, ,-50, ,
1, ,-50, ,
3, ,-50, ,
2, ,-50, ,
2, ,-50, ,
2, ,-50, ,
3, ,-50, ,
1, ,-50, ,
3, ,-50, ,
2, ,-50, ,
2, ,-50, ,
3, ,-50, ,
2, ,-50, ,
1, ,-50, ,
3, ,-50, ,
2, ,-50, ,
2, ,-50, ,
3, ,-50, ,
3, ,-50, ,
1, ,-49, ,
3, ,-50, ,
2, ,-50, ,
2, ,-50, ,
3, ,-49, ,
3, ,-50, ,
1, ,-50, ,
3, ,-50, ,
2, ,-49, ,
2, ,-50, ,
3, ,-49, ,
3, ,-50, ,
1, ,-49, ,
3, ,-50, ,
2, ,-50, ,
2, ,-49, ,
3, ,-50, ,
3, ,-50, ,
1, ,-49, ,
3, ,-50, ,
2, ,-49, ,
2, ,-50, ,
3, ,-49, ,
2, ,-50, ,
1, ,-49, ,
3, ,-50, ,
2, ,-50, ,
2, ,-50, ,
2, ,-50, ,
3, ,-50, ,
1, ,-49, ,
3, ,-50, ,
2, ,-49, ,
2, ,-50, ,
2, ,-50, ,
3, ,-50, ,
1, ,-49, ,
3, ,-50, ,
2, ,-49, ,
2, ,-49, ,
2, ,-50, ,
2, ,-50, ,
1, ,-49, ,
3, ,-50, ,
2, ,-49, ,
2, ,-50, ,
2, ,-49, ,
2, ,-50, ,
1, ,-49, ,
3, ,-50, ,
2, ,-49, ,
2, ,-49, ,
2, ,-49, ,
2, ,-50, ,
1, ,-50, ,
3, ,-49, ,
2, ,-49, ,
2, ,-49, ,
2, ,-50, ,
2, ,-50, ,
1, ,-49, ,
3, ,-49, ,
2, ,-49, ,
2, ,-49, ,
2, ,-49, ,
2, ,-50, ,
1, ,-50, ,
3, ,-50, ,
2, ,-49, ,
2, ,-49, ,
2, ,-49, ,
2, ,-50, ,
1, ,-49, ,
2, ,-49, ,
2, ,-49, ,
2, ,-49, ,
2, ,-50, ,
2, ,-50, ,
1, ,-50, ,
3, ,-49, ,
1, ,-49, ,
1, ,-50, ,
2, ,-49, ,
2, ,-50, ,
1, ,-49, ,
2, ,-49, ,
1, ,-49, ,
2, ,-49, ,
2, ,-49, ,
2, ,-50, ,
1, ,-50, ,
3, ,-49, ,
2, ,-49, ,
1, ,-50, ,
2, ,-50, ,
2, ,-50, ,
1, ,-49, ,
3, ,-49, ,
1, ,-49, ,
2, ,-49, ,
2, ,-49, ,
2, ,-50, ,
1, ,-50, ,
3, ,-49, ,
2, ,-49, ,
2, ,-50, ,
2, ,-49, ,
2, ,-50, ,
1, ,-49, ,
3, ,-49, ,
1, ,-49, ,
1, ,-49, ,
2, ,-50, ,
2, ,-50, ,
1, ,-50, ,
2, ,-49, ,
2, ,-49, ,
2, ,-49, ,
2, ,-50, ,
2, ,-50, ,
1, ,-49, ,
2, ,-50, ,
1, ,-49, ,
2, ,-49, ,
2, ,-49, ,
2, ,-50, ,
1, ,-50, ,
3, ,-49, ,
1, ,-49, ,
1, ,-49, ,
2, ,-49, ,
2, ,-50, ,
1, ,-49, ,
2, ,-49, ,
1, ,-49, ,
2, ,-49, ,
2, ,-49, ,
2, ,-50, ,
1, ,-50, ,
2, ,-49, ,
1, ,-49, ,
2, ,-49, ,
2, ,-49, ,
2, ,-50, ,
1, ,-49, ,
2, ,-49, ,
1, ,-49, ,
2, ,-49, ,
2, ,-50, ,
2, ,-50, ,
1, ,-50, ,
2, ,-49, ,
1, ,-49, ,
2, ,-49, ,
2, ,-49, ,
2, ,-50, ,
1, ,-49, ,
2, ,-49, ,
1, ,-49, ,
1, ,-49, ,
2, ,-50, ,
2, ,-50, ,
1, ,-49, ,
2, ,-49, ,
1, ,-49, ,
2, ,-50, ,
2, ,-49, ,
2, ,-50, ,
1, ,-49, ,
2, ,-49, ,
1, ,-49, ,
2, ,-49, ,
2, ,-49, ,
2, ,-50, ,
1, ,-49, ,
2, ,-49, ,
1, ,-49, ,
1, ,-49, ,
2, ,-49, ,
2, ,-50, ,
1, ,-49, ,
2, ,-49, ,
1, ,-49, ,
1, ,-49, ,
2, ,-49, ,
2, ,-50, ,
1, ,-49, ,
2, ,-49, ,
1, ,-49, ,
2, ,-50, ,
2, ,-49, ,
2, ,-50, ,
1, ,-49, ,
2, ,-49, ,
1, ,-49, ,
2, ,-50, ,
2, ,-49, ,
2, ,-50, ,
1, ,-50, ,
2, ,-49, ,
1, ,-49, ,
2, ,-49, ,
2, ,-49, ,
2, ,-50, ,
1, ,-49, ,
2, ,-49, ,
1, ,-49, ,
1, ,-49, ,
2, ,-49, ,
1, ,-50, ,
1, ,-49, ,
2, ,-50, ,
1, ,-49, ,
2, ,-50, ,
2, ,-49, ,
1, ,-50, ,
1, ,-49, ,
2, ,-49, ,
1, ,-49, ,
1, ,-49, ,
2, ,-49, ,
2, ,-50, ,
1, ,-50, ,
2, ,-50, ,
1, ,-49, ,
1, ,-50, ,
2, ,-50, ,
2, ,-50, ,
1, ,-49, ,
2, ,-49, ,
1, ,-50, ,
1, ,-50, ,
1, ,-49, ,
2, ,-50, ,
1, ,-50, ,
2, ,-49, ,
1, ,-49, ,
2, ,-50, ,
2, ,-49, ,
1, ,-50, ,
1, ,-49, ,
2, ,-49, ,
1, ,-49, ,
1, ,-49, ,
2, ,-49, ,
2, ,-50, ,
1, ,-50, ,
2, ,-49, ,
1, ,-49, ,
2, ,-50, ,
2, ,-49, ,
1, ,-50, ,
1, ,-50, ,
2, ,-49, ,
1, ,-50, ,
2, ,-49, ,
2, ,-49, ,
2, ,-50, ,
1, ,-50, ,
2, ,-50, ,
1, ,-49, ,
2, ,-50, ,
2, ,-50, ,
1, ,-50, ,
1, ,-49, ,
2, ,-49, ,
1, ,-50, ,
1, ,-50, ,
2, ,-49, ,
2, ,-50, ,
1, ,-50, ,
2, ,-49, ,
1, ,-49, ,
1, ,-49, ,
2, ,-49, ,
2, ,-50, ,
1, ,-50, ,
2, ,-49, ,
1, ,-49, ,
1, ,-49, ,
2, ,-49, ,
2, ,-50, ,
1, ,-50, ,
2, ,-49, ,
1, ,-50, ,
1, ,-50, ,
2, ,-49, ,
2, ,-50, ,
1, ,-50, ,
2, ,-50, ,
1, ,-49, ,
2, ,-50, ,
2, ,-50, ,
1, ,-50, ,
1, ,-49, ,
2, ,-49, ,
1, ,-49, ,
1, ,-50, ,
2, ,-49, ,
1, ,-50, ,
1, ,-49, ,
2, ,-50, ,
1, ,-49, ,
1, ,-50, ,
2, ,-49, ,
2, ,-50, ,
1, ,-50, ,
2, ,-49, ,
1, ,-49, ,
1, ,-49, ,
2, ,-50, ,
1, ,-50, ,
1, ,-50, ,
2, ,-50, ,
1, ,-50, ,
1, ,-50, ,
2, ,-49, ,
1, ,-50, ,
-1, ,-50, ,
2, ,-50, ,
1, ,-49, ,
1, ,-50, ,
2, ,-50, ,
1, ,-50, ,
-1, ,-49, ,
2, ,-50, ,
1, ,-49, ,
1, ,-49, ,
2, ,-49, ,
1, ,-50, ,
1, ,-50, ,
2, ,-49, ,
-1, ,-49, ,
1, ,-50, ,
2, ,-49, ,
1, ,-50, ,
-1, ,-49, ,
2, ,-49, ,
1, ,-50, ,
1, ,-50, ,
1, ,-50, ,
1, ,-50, ,
-1, ,-49, ,
2, ,-49, ,
1, ,-49, ,
1, ,-50, ,
1, ,-49, ,
2, ,-50, ,
-1, ,-49, ,
2, ,-49, ,
1, ,-50, ,
1, ,-50, ,
2, ,-49, ,
1, ,-50, ,
-1, ,-49, ,
2, ,-49, ,
1, ,-50, ,
1, ,-50, ,
1, ,-49, ,
1, ,-50, ,
-1, ,-49, ,
2, ,-49, ,
1, ,-50, ,
1, ,-49, ,
1, ,-49, ,
1, ,-50, ,
-1, ,-50, ,
2, ,-49, ,
1, ,-49, ,
1, ,-50, ,
1, ,-49, ,
1, ,-50, ,
-1, ,-49, ,
2, ,-50, ,
1, ,-50, ,
1, ,-50, ,
1, ,-50, ,
2, ,-50, ,
-1, ,-50, ,
2, ,-50, ,
3, ,-50, ,
57, ,-50, ,
36, ,-49, ,
22, ,-50, ,
13, ,-49, ,
11, ,-50, ,
7, ,-50, ,
6, ,-49, ,
5, ,-50, ,
5, ,-50, ,
2, ,-50, ,
5, ,-50, ,
2, ,-49, ,
2, ,-50, ,
2, ,-49, ,
2, ,-50, ,
2, ,-49, ,
3, ,-49, ,
2, ,-50, ,
2, ,-50, ,
3, ,-49, ,
2, ,-50, ,
2, ,-50, ,
3, ,-49, ,
2, ,-50, ,
2, ,-50, ,
3, ,-49, ,
3, ,-50, ,
2, ,-50, ,
3, ,-50, ,
2, ,-49, ,
2, ,-50, ,
2, ,-50, ,
3, ,-50, ,
1, ,-50, ,
3, ,-50, ,
2, ,-50, ,
2, ,-50, ,
2, ,-49, ,
2, ,-50, ,
2, ,-50, ,
5, ,-49, ,
2, ,-50, ,
2, ,-49, ,
2, ,-49, ,
3, ,-50, ,
1, ,-50, ,
3, ,-50, ,
2, ,-49, ,
2, ,-50, ,
3, ,-49, ,
2, ,-50, ,
1, ,-49, ,
3, ,-49, ,
2, ,-50, ,
2, ,-49, ,
2, ,-50, ,
3, ,-50, ,
1, ,-50, ,
3, ,-50, ,
2, ,-50, ,
2, ,-50, ,
2, ,-49, ,
2, ,-50, ,
2, ,-49, ,
3, ,-49, ,
1, ,-50, ,
2, ,-50, ,
2, ,-49, ,
2, ,-50, ,
1, ,-50, ,
3, ,-49, ,
2, ,-50, ,
2, ,-50, ,
3, ,-49, ,
2, ,-50, ,
1, ,-49, ,
3, ,-49, ,
2, ,-50, ,
2, ,-49, ,
3, ,-49, ,
2, ,-50, ,
1, ,-49, ,
3, ,-50, ,
2, ,-49, ,
2, ,-50, ,
2, ,-50, ,
2, ,-50, ,
1, ,-49, ,
3, ,-49, ,
2, ,-50, ,
2, ,-50, ,
2, ,-49, ,
2, ,-50, ,
1, ,-49, ,
2, ,-50, ,
2, ,-50, ,
2, ,-49, ,
2, ,-50, ,
2, ,-50, ,
1, ,-49, ,
3, ,-50, ,
2, ,-50, ,
2, ,-49, ,
2, ,-49, ,
2, ,-50, ,
1, ,-50, ,
3, ,-50, ,
2, ,-49, ,
2, ,-50, ,
2, ,-50, ,
2, ,-50, ,
1, ,-50, ,
3, ,-50, ,
2, ,-50, ,
2, ,-49, ,
2, ,-50, ,
2, ,-50, ,
1, ,-49, ,
2, ,-49, ,
2, ,-49, ,
2, ,-50, ,
2, ,-50, ,
2, ,-50, ,
1, ,-49, ,
2, ,-50, ,
1, ,-50, ,
1, ,-49, ,
2, ,-49, ,
2, ,-50, ,
1, ,-50, ,
2, ,-50, ,
1, ,-49, ,
2, ,-50, ,
2, ,-49, ,
2, ,-50, ,
1, ,-50, ,
2, ,-49, ,
2, ,-50, ,
1, ,-49, ,
2, ,-50, ,
2, ,-50, ,
1, ,-50, ,
2, ,-49, ,
2, ,-50, ,
2, ,-50, ,
2, ,-50, ,
2, ,-50, ,
1, ,-49, ,
3, ,-49, ,
2, ,-50, ,
2, ,-50, ,
2, ,-50, ,
2, ,-50, ,
1, ,-49, ,
2, ,-49, ,
1, ,-50, ,
1, ,-49, ,
2, ,-49, ,
2, ,-50, ,
1, ,-49, ,
2, ,-50, ,
1, ,-49, ,
2, ,-49, ,
2, ,-49, ,
2, ,-50, ,
1, ,-50, ,
3, ,-49, ,
2, ,-50, ,
2, ,-50, ,
2, ,-49, ,
2, ,-50, ,
1, ,-49, ,
2, ,-49, ,
1, ,-49, ,
1, ,-49, ,
2, ,-50, ,
2, ,-50, ,
1, ,-50, ,
2, ,-50, ,
1, ,-49, ,
2, ,-50, ,
2, ,-49, ,
2, ,-50, ,
1, ,-49, ,
2, ,-50, ,
1, ,-50, ,
1, ,-50, ,
2, ,-50, ,
2, ,-50, ,
1, ,-50, ,
2, ,-50, ,
1, ,-50, ,
2, ,-50, ,
2, ,-49, ,
2, ,-39, ,
1, ,-19, ,
3, ,-2, ,
1, ,9, ,
2, ,18, ,
3, ,25, ,
2, ,31, ,
1, ,34, ,
2, ,37, ,
1, ,39, ,
1, ,40, ,
2, ,41, ,
2, ,42, ,
1, ,43, ,
2, ,43, ,
1, ,43, ,
2, ,43, ,
2, ,44, ,
2, ,44, ,
1, ,44, ,
2, ,44, ,
1, ,44, ,
1, ,44, ,
2, ,44, ,
2, ,44, ,
1, ,44, ,
2, ,44, ,
1, ,44, ,
1, ,44, ,
2, ,44, ,
2, ,44, ,
1, ,44, ,
2, ,44, ,
1, ,44, ,
2, ,44, ,
2, ,44, ,
2, ,44, ,
1, ,44, ,
2, ,44, ,
1, ,44, ,
1, ,44, ,
2, ,44, ,
1, ,44, ,
1, ,44, ,
2, ,44, ,
1, ,44, ,
2, ,44, ,
2, ,43, ,
2, ,44, ,
1, ,44, ,
2, ,44, ,
1, ,43, ,
1, ,44, ,
2, ,43, ,
1, ,44, ,
-1, ,43, ,
2, ,43, ,
1, ,43, ,
1, ,44, ,
2, ,43, ,
1, ,44, ,
1, ,43, ,
2, ,44, ,
1, ,44, ,
1, ,44, ,
2, ,43, ,
1, ,44, ,
1, ,43, ,
2, ,43, ,
1, ,43, ,
1, ,44, ,
2, ,43, ,
1, ,44, ,
1, ,43, ,
2, ,44, ,
1, ,44, ,
1, ,44, ,
2, ,43, ,
1, ,44, ,
1, ,43, ,
2, ,43, ,
1, ,44, ,
1, ,44, ,
2, ,43, ,
1, ,44, ,
1, ,43, ,
2, ,44, ,
1, ,44, ,
1, ,44, ,
2, ,43, ,
1, ,44, ,
1, ,43, ,
2, ,43, ,
1, ,44, ,
1, ,44, ,
2, ,43, ,
1, ,44, ,
1, ,44, ,
2, ,44, ,
1, ,43, ,
1, ,44, ,
2, ,43, ,
1, ,44, ,
1, ,43, ,
2, ,43, ,
1, ,44, ,
1, ,44, ,
2, ,43, ,
1, ,44, ,
1, ,43, ,
2, ,43, ,
1, ,43, ,
1, ,44, ,
2, ,43, ,
2, ,44, ,
-1, ,43, ,
2, ,43, ,
1, ,44, ,
1, ,44, ,
1, ,43, ,
1, ,44, ,
1, ,43, ,
2, ,43, ,
1, ,43, ,
1, ,44, ,
2, ,43, ,
2, ,44, ,
1, ,43, ,
2, ,43, ,
1, ,43, ,
1, ,43, ,
2, ,43, ,
1, ,44, ,
1, ,43, ,
2, ,44, ,
1, ,43, ,
1, ,44, ,
2, ,43, ,
1, ,44, ,
1, ,43, ,
2, ,43, ,
1, ,44, ,
1, ,44, ,
2, ,43, ,
1, ,44, ,
1, ,44, ,
2, ,43, ,
1, ,43, ,
1, ,44, ,
2, ,43, ,
2, ,44, ,
-1, ,43, ,
2, ,43, ,
1, ,43, ,
1, ,40, ,
2, ,22, ,
1, ,4, ,
-1, ,-9, ,
2, ,-20, ,
1, ,-27, ,
1, ,-34, ,
2, ,-38, ,
1, ,-41, ,
-1, ,-43, ,
2, ,-45, ,
1, ,-46, ,
1, ,-47, ,
2, ,-47, ,
1, ,-50, ,
-1, ,-49, ,
2, ,-50, ,
1, ,-50, ,
1, ,-50, ,
2, ,-50, ,
1, ,-50, ,
-1, ,-50, ,
2, ,-50, ,
1, ,-50, ,
1, ,-50, ,
1, ,-50, ,
1, ,-51, ,
-1, ,-50, ,
2, ,-50, ,
1, ,-50, ,
1, ,-50, ,
2, ,-50, ,
2, ,-50, ,
-1, ,-50, ,
2, ,-50, ,
1, ,-50, ,
1, ,-50, ,
1, ,-50, ,
1, ,-50, ,
-1, ,-50, ,
2, ,-50, ,
1, ,-50, ,
1, ,-50, ,
2, ,-50, ,
2, ,-50, ,
-1, ,-50, ,
2, ,-50, ,
1, ,-50, ,
1, ,-50, ,
1, ,-50, ,
1, ,-50, ,
-1, ,-50, ,
2, ,-50, ,
1, ,-50, ,
1, ,-50, ,
2, ,-50, ,
1, ,-50, ,
-1, ,-50, ,
2, ,-50, ,
1, ,-50, ,
1, ,-50, ,
1, ,-50, ,
1, ,-50, ,
-1, ,-50, ,
2, ,-50, ,
-1, ,-50, ,
1, ,-50, ,
1, ,-50, ,
1, ,-50, ,
-1, ,-49, ,
2, ,-50, ,
1, ,-50, ,
1, ,-50, ,
2, ,-50, ,
1, ,-50, ,
-1, ,-49, ,
2, ,-50, ,
1, ,-50, ,
1, ,-50, ,
1, ,-50, ,
1, ,-50, ,
-1, ,-50, ,
2, ,-50, ,
1, ,-50, ,
1, ,-49, ,
2, ,-50, ,
1, ,-50, ,
-1, ,-49, ,
2, ,-50, ,
1, ,-50, ,
1, ,-50, ,
2, ,-49, ,
1, ,-50, ,
-1, ,-50, ,
2, ,-49, ,
1, ,-49, ,
1, ,-50, ,
2, ,-50, ,
1, ,-50, ,
-1, ,-49, ,
2, ,-49, ,
1, ,-50, ,
1, ,-50, ,
1, ,-50, ,
2, ,-50, ,
-1, ,-50, ,
2, ,-50, ,
1, ,-49, ,
1, ,-50, ,
2, ,-50, ,
2, ,-50, ,
1, ,-49, ,
2, ,-49, ,
1, ,-50, ,
1, ,-50, ,
2, ,-50, ,
1, ,-50, ,
-1, ,-50, ,
2, ,-49, ,
1, ,-49, ,
1, ,-50, ,
1, ,-50, ,
1, ,-50, ,
-1, ,-49, ,
2, ,-49, ,
1, ,-50, ,
1, ,-49, ,
2, ,-50, ,
2, ,-50, ,
-1, ,-49, ,
2, ,-49, ,
1, ,-50, ,
1, ,-50, ,
1, ,-49, ,
1, ,-50, ,
-1, ,-49, ,
2, ,-49, ,
1, ,-50, ,
1, ,-50, ,
2, ,-49, ,
2, ,-50, ,
-1, ,-49, ,
2, ,-50, ,
1, ,-49, ,
1, ,-50, ,
1, ,-50, ,
1, ,-50, ,
-1, ,-49, ,
2, ,-49, ,
1, ,-50, ,
1, ,-49, ,
1, ,-49, ,
1, ,-50, ,
-1, ,-49, ,
2, ,-49, ,
1, ,-49, ,
1, ,-49, ,
1, ,-49, ,
1, ,-50, ,
-1, ,-49, ,
2, ,-49, ,
-1, ,-50, ,
1, ,-49, ,
1, ,-50, ,
1, ,-50, ,
-1, ,-49, ,
2, ,-49, ,
1, ,-49, ,
1, ,-50, ,
1, ,-49, ,
2, ,-50, ,
-1, ,-49, ,
2, ,-49, ,
-1, ,-50, ,
1, ,-50, ,
1, ,-49, ,
1, ,-50, ,
-1, ,-49, ,
2, ,-50, ,
1, ,-49, ,
1, ,-50, ,
1, ,-49, ,
1, ,-50, ,
-1, ,-49, ,
2, ,-49, ,
-1, ,-50, ,
1, ,-49, ,
2, ,-49, ,
1, ,-50, ,
-1, ,-49, ,
1, ,-49, ,
1, ,-49, ,
1, ,-49, ,
1, ,-49, ,
1, ,-50, ,
-1, ,-49, ,
2, ,-50, ,
-1, ,-50, ,
1, ,-49, ,
1, ,-49, ,
1, ,-50, ,
-1, ,-50, ,
2, ,-49, ,
1, ,-49, ,
1, ,-49, ,
1, ,-49, ,
1, ,-50, ,
-1, ,-49, ,
2, ,-49, ,
1, ,-49, ,
1, ,-50, ,
1, ,-49, ,
1, ,-50, ,
-1, ,-49, ,
2, ,-50, ,
1, ,-49, ,
1, ,-49, ,
2, ,-49, ,
1, ,-50, ,
-1, ,-49, ,
2, ,-49, ,
1, ,-50, ,
1, ,-49, ,
2, ,-49, ,
1, ,-50, ,
-1, ,-49, ,
2, ,-49, ,
1, ,-49, ,
1, ,-50, ,
1, ,-49, ,
1, ,-50, ,
-1, ,-49, ,
1, ,-49, ,
1, ,-50, ,
1, ,-49, ,
2, ,-49, ,
1, ,-50, ,
-1, ,-49, ,
2, ,-49, ,
1, ,-49, ,
1, ,-50, ,
2, ,-49, ,
1, ,-50, ,
-1, ,-49, ,
2, ,-50, ,
1, ,-50, ,
1, ,-49, ,
1, ,-49, ,
1, ,-50, ,
-1, ,-49, ,
1, ,-49, ,
-1, ,-49, ,
1, ,-50, ,
1, ,-49, ,
1, ,-50, ,
-1, ,-49, ,
1, ,-49, ,
-1, ,-50, ,
1, ,-49, ,
1, ,-49, ,
2, ,-49, ,
-1, ,-49, ,
2, ,-50, ,
1, ,-49, ,
1, ,-49, ,
1, ,-49, ,
1, ,-50, ,
-1, ,-49, ,
2, ,-49, ,
-1, ,-50, ,
1, ,-49, ,
1, ,-49, ,
1, ,-50, ,
-1, ,-49, ,
2, ,-50, ,
-1, ,-49, ,
1, ,-49, ,
1, ,-49, ,
1, ,-50, ,
-1, ,-49, ,
2, ,-49, ,
1, ,-49, ,
1, ,-49, ,
1, ,-49, ,
1, ,-50, ,
-1, ,-49, ,
2, ,-50, ,
1, ,-49, ,
1, ,-49, ,
1, ,-49, ,
1, ,-50, ,
-1, ,-49, ,
2, ,-49, ,
-1, ,-49, ,
1, ,-49, ,
1, ,-49, ,
1, ,-50, ,
-1, ,-49, ,
1, ,-50, ,
-1, ,-49, ,
1, ,-50, ,
1, ,-49, ,
1, ,-50, ,
-1, ,-49, ,
2, ,-49, ,
-1, ,-49, ,
-1, ,-49, ,
1, ,-49, ,
1, ,-50, ,
-1, ,-49, ,
2, ,-50, ,
1, ,-49, ,
-1, ,-50, ,
1, ,-49, ,
1, ,-50, ,
-1, ,-49, ,
1, ,-50, ,
-1, ,-50, ,
1, ,-49, ,
1, ,-49, ,
1, ,-50, ,
-1, ,-49, ,
2, ,-50, ,
-1, ,-49, ,
1, ,-49, ,
1, ,-49, ,
1, ,-49, ,
-1, ,-49, ,
1, ,-49, ,
-1, ,-49, ,
1, ,-49, ,
1, ,-49, ,
1, ,-50, ,
-1, ,-49, ,
2, ,-50, ,
-1, ,-49, ,
-1, ,-49, ,
1, ,-49, ,
1, ,-50, ,
-1, ,-49, ,
2, ,-50, ,
-1, ,-50, ,
1, ,-50, ,
1, ,-49, ,
1, ,-50, ,
-1, ,-49, ,
2, ,-49, ,
-1, ,-49, ,
1, ,-49, ,
1, ,-49, ,
1, ,-50, ,
-1, ,-49, ,
1, ,-50, ,
-1, ,-49, ,
1, ,-49, ,
1, ,-49, ,
1, ,-49, ,
-1, ,-49, ,
2, ,-49, ,
-1, ,-49, ,
1, ,-50, ,
1, ,-50, ,
1, ,-50, ,
-1, ,-49, ,
2, ,-50, ,
-1, ,-49, ,
1, ,-49, ,
1, ,-49, ,
1, ,-50, ,
-1, ,-49, ,
2, ,-49, ,
-1, ,-49, ,
-1, ,-50, ,
1, ,-49, ,
1, ,-50, ,
-1, ,-49, ,
1, ,-49, ,
-1, ,-50, ,
1, ,-50, ,
1, ,-49, ,
1, ,-50, ,
-1, ,-49, ,
1, ,-50, ,
-1, ,-49, ,
1, ,-50, ,
1, ,-49, ,
1, ,-50, ,
-1, ,-49, ,
2, ,-49, ,
-1, ,-49, ,
1, ,-49, ,
1, ,-49, ,
1, ,-50, ,
-1, ,-49, ,
2, ,-49, ,
-1, ,-49, ,
1, ,-49, ,
1, ,-50, ,
1, ,-50, ,
-1, ,-49, ,
2, ,-49, ,
-1, ,-49, ,
1, ,-49, ,
1, ,-49, ,
1, ,-50, ,
-1, ,-49, ,
2, ,-50, ,
1, ,-49, ,
1, ,-49, ,
1, ,-49, ,
1, ,-50, ,
-1, ,-49, ,
2, ,-49, ,
-1, ,-50, ,
1, ,-49, ,
1, ,-49, ,
1, ,-50, ,
-1, ,-49, ,
1, ,-49, ,
-1, ,-49, ,
1, ,-49, ,
1, ,-49, ,
1, ,-50, ,
-1, ,-49, ,
1, ,-49, ,
-1, ,-49, ,
1, ,-49, ,
1, ,-49, ,
1, ,-50, ,
-1, ,-49, ,
2, ,-49, ,
1, ,-49, ,
1, ,-49, ,
1, ,-49, ,
1, ,-50, ,
-1, ,-49, ,
1, ,-50, ,
-1, ,-49, ,
1, ,-49, ,
1, ,-50, ,
1, ,-50, ,
-1, ,-50, ,
1, ,-49, ,
-1, ,-49, ,
1, ,-49, ,
1, ,-49, ,
1, ,-50, ,
-1, ,-49, ,
2, ,-49, ,
-1, ,-50, ,
-1, ,-50, ,
1, ,-49, ,
1, ,-50, ,
-1, ,-49, ,
2, ,-49, ,
-1, ,-49, ,
1, ,-49, ,
1, ,-49, ,
1, ,-50, ,
-1, ,-50, ,
2, ,-49, ,
-1, ,-50, ,
-1, ,-49, ,
1, ,-49, ,
1, ,-50, ,
-1, ,-50, ,
2, ,-50, ,
-1, ,-49, ,
1, ,-50, ,
1, ,-49, ,
1, ,-50, ,
-1, ,-49, ,
2, ,-50, ,
-1, ,-49, ,
1, ,-50, ,
1, ,-49, ,
1, ,-50, ,
-1, ,-49, ,
2, ,-49, ,
-1, ,-49, ,
1, ,-50, ,
1, ,-49, ,
1, ,-50, ,
-1, ,-50, ,
2, ,-50, ,
74, ,-49, ,
46, ,-49, ,
30, ,-49, ,
