src/varyamp_1560/temp0004700.CSV

Format,1.0B,
Memory Length,10000,Memory Length,10000,
IntpDistance,0,IntpDistance,0,
Trigger Address,4999,Trigger Address,4999,
Trigger Level,1.040E+00,Trigger Level,1.040E+00,
Source,CH1,Source,CH2,
Vertical Units,V,Vertical Units,V,
Vertical Units Div,0,Vertical Units Div,0,
Vertical Units Extend Div,16,Vertical Units Extend Div,16,
Label,,Label,,
Probe Type,0,Probe Type,0,
Probe Ratio,1.000e+01,Probe Ratio,1.000e+00,
Vertical Scale,5.000e-01,Vertical Scale,1.000e+00,
Vertical Position,-1.820e+00,Vertical Position,0.000e+00,
Horizontal Units,S,Horizontal Units,S,
Horizontal Scale,2.000E-05,Horizontal Scale,2.000E-05,
Horizontal Position,0.000E+00,Horizontal Position,0.000E+00,
Horizontal Mode,Main,Horizontal Mode,Main,
SincET Mode,Real Time,SincET Mode,Real Time,
Sampling Period,2.000e-08,Sampling Period,2.000e-08,
Horizontal Old Scale,2.000E-05,Horizontal Old Scale,2.000E-05,
Horizontal Old Position,0.000E+00,Horizontal Old Position,0.000E+00,
Firmware,V1.23,Firmware,V1.23,
Mode,Fast,Mode,Fast,
Waveform Data,,Waveform Data,,
1, ,-38, ,
1, ,-39, ,
1, ,-38, ,
-1, ,-38, ,
2, ,-39, ,
1, ,-39, ,
1, ,-39, ,
1, ,-39, ,
2, ,-38, ,
-1, ,-38, ,
2, ,-39, ,
-1, ,-38, ,
1, ,-38, ,
1, ,-39, ,
2, ,-38, ,
-1, ,-38, ,
2, ,-39, ,
1, ,-38, ,
1, ,-39, ,
1, ,-39, ,
1, ,-39, ,
-1, ,-38, ,
2, ,-39, ,
1, ,-38, ,
1, ,-39, ,
2, ,-39, ,
1, ,-38, ,
-1, ,-38, ,
2, ,-39, ,
1, ,-39, ,
1, ,-39, ,
2, ,-39, ,
1, ,-38, ,
-1, ,-38, ,
2, ,-39, ,
1, ,-39, ,
1, ,-39, ,
1, ,-39, ,
1, ,-38, ,
-1, ,-38, ,
2, ,-39, ,
1, ,-38, ,
1, ,-38, ,
1, ,-39, ,
1, ,-38, ,
-1, ,-38, ,
2, ,-39, ,
1, ,-38, ,
1, ,-38, ,
1, ,-39, ,
1, ,-38, ,
-1, ,-38, ,
2, ,-39, ,
-1, ,-39, ,
1, ,-39, ,
1, ,-38, ,
1, ,-38, ,
-1, ,-39, ,
2, ,-39, ,
1, ,-38, ,
1, ,-38, ,
1, ,-39, ,
1, ,-39, ,
-1, ,-39, ,
2, ,-39, ,
-1, ,-39, ,
1, ,-39, ,
1, ,-38, ,
1, ,-38, ,
-1, ,-39, ,
2, ,-39, ,
1, ,-38, ,
1, ,-38, ,
1, ,-38, ,
1, ,-38, ,
-1, ,-38, ,
2, ,-39, ,
-1, ,-39, ,
1, ,-38, ,
1, ,-38, ,
1, ,-38, ,
-1, ,-38, ,
2, ,-39, ,
1, ,-38, ,
1, ,-38, ,
1, ,-39, ,
1, ,-38, ,
-1, ,-38, ,
2, ,-39, ,
-1, ,-39, ,
1, ,-39, ,
1, ,-39, ,
1, ,-38, ,
-1, ,-39, ,
2, ,-39, ,
-1, ,-38, ,
1, ,-38, ,
1, ,-39, ,
1, ,-38, ,
-1, ,-38, ,
2, ,-39, ,
-1, ,-39, ,
1, ,-38, ,
1, ,-39, ,
1, ,-38, ,
-1, ,-38, ,
2, ,-39, ,
-1, ,-38, ,
1, ,-39, ,
1, ,-39, ,
1, ,-38, ,
-1, ,-38, ,
1, ,-39, ,
1, ,-38, ,
1, ,-39, ,
1, ,-39, ,
1, ,-38, ,
-1, ,-38, ,
2, ,-39, ,
-1, ,-38, ,
1, ,-38, ,
1, ,-39, ,
2, ,-38, ,
-1, ,-38, ,
2, ,-39, ,
-1, ,-39, ,
-1, ,-38, ,
1, ,-38, ,
1, ,-38, ,
-1, ,-39, ,
1, ,-39, ,
-1, ,-38, ,
-1, ,-38, ,
1, ,-39, ,
1, ,-38, ,
-1, ,-38, ,
2, ,-39, ,
-1, ,-39, ,
1, ,-39, ,
1, ,-39, ,
1, ,-39, ,
-1, ,-38, ,
2, ,-39, ,
1, ,-38, ,
1, ,-38, ,
1, ,-39, ,
1, ,-39, ,
-1, ,-38, ,
1, ,-39, ,
-1, ,-38, ,
1, ,-39, ,
62, ,-39, ,
59, ,-38, ,
36, ,-38, ,
24, ,-39, ,
15, ,-38, ,
10, ,-38, ,
8, ,-39, ,
6, ,-38, ,
3, ,-38, ,
5, ,-39, ,
2, ,-38, ,
2, ,-39, ,
3, ,-39, ,
3, ,-39, ,
1, ,-39, ,
3, ,-39, ,
2, ,-39, ,
2, ,-39, ,
3, ,-39, ,
2, ,-38, ,
1, ,-39, ,
3, ,-39, ,
2, ,-39, ,
2, ,-39, ,
3, ,-39, ,
3, ,-39, ,
1, ,-38, ,
3, ,-39, ,
1, ,-38, ,
1, ,-39, ,
2, ,-39, ,
2, ,-39, ,
1, ,-38, ,
3, ,-39, ,
2, ,-39, ,
2, ,-38, ,
2, ,-39, ,
2, ,-39, ,
1, ,-38, ,
3, ,-39, ,
2, ,-38, ,
2, ,-39, ,
2, ,-39, ,
2, ,-38, ,
1, ,-38, ,
3, ,-39, ,
2, ,-39, ,
2, ,-39, ,
2, ,-39, ,
2, ,-39, ,
1, ,-38, ,
3, ,-39, ,
2, ,-38, ,
2, ,-39, ,
2, ,-39, ,
2, ,-39, ,
1, ,-39, ,
3, ,-39, ,
2, ,-39, ,
2, ,-39, ,
2, ,-39, ,
2, ,-39, ,
1, ,-38, ,
3, ,-39, ,
2, ,-39, ,
2, ,-38, ,
2, ,-39, ,
2, ,-38, ,
1, ,-39, ,
3, ,-39, ,
1, ,-39, ,
2, ,-38, ,
2, ,-39, ,
2, ,-38, ,
1, ,-38, ,
3, ,-39, ,
2, ,-39, ,
2, ,-39, ,
2, ,-38, ,
2, ,-39, ,
1, ,-38, ,
3, ,-39, ,
1, ,-38, ,
2, ,-38, ,
2, ,-39, ,
2, ,-39, ,
1, ,-39, ,
3, ,-39, ,
2, ,-38, ,
2, ,-39, ,
2, ,-39, ,
2, ,-38, ,
1, ,-38, ,
3, ,-39, ,
1, ,-39, ,
2, ,-39, ,
2, ,-39, ,
2, ,-38, ,
1, ,-39, ,
3, ,-39, ,
2, ,-38, ,
2, ,-38, ,
2, ,-39, ,
2, ,-38, ,
1, ,-38, ,
3, ,-39, ,
1, ,-38, ,
2, ,-38, ,
2, ,-38, ,
2, ,-38, ,
1, ,-39, ,
3, ,-39, ,
2, ,-38, ,
2, ,-39, ,
2, ,-39, ,
2, ,-39, ,
1, ,-39, ,
3, ,-39, ,
2, ,-39, ,
2, ,-39, ,
2, ,-39, ,
2, ,-38, ,
1, ,-38, ,
2, ,-39, ,
1, ,-38, ,
1, ,-39, ,
2, ,-39, ,
2, ,-39, ,
1, ,-38, ,
3, ,-39, ,
1, ,-39, ,
2, ,-39, ,
2, ,-39, ,
2, ,-38, ,
1, ,-39, ,
2, ,-39, ,
1, ,-39, ,
2, ,-39, ,
2, ,-39, ,
2, ,-38, ,
1, ,-38, ,
3, ,-39, ,
1, ,-38, ,
2, ,-39, ,
2, ,-39, ,
2, ,-39, ,
1, ,-38, ,
3, ,-39, ,
1, ,-39, ,
2, ,-38, ,
2, ,-39, ,
2, ,-38, ,
1, ,-38, ,
2, ,-39, ,
1, ,-39, ,
2, ,-39, ,
2, ,-38, ,
2, ,-25, ,
1, ,-6, ,
3, ,9, ,
2, ,21, ,
2, ,30, ,
2, ,36, ,
2, ,41, ,
1, ,45, ,
2, ,49, ,
1, ,50, ,
1, ,51, ,
2, ,53, ,
2, ,53, ,
1, ,53, ,
2, ,55, ,
1, ,54, ,
1, ,54, ,
2, ,55, ,
2, ,55, ,
1, ,55, ,
2, ,55, ,
1, ,55, ,
1, ,55, ,
2, ,55, ,
1, ,54, ,
1, ,55, ,
2, ,55, ,
1, ,55, ,
1, ,55, ,
2, ,55, ,
1, ,55, ,
1, ,55, ,
2, ,55, ,
1, ,55, ,
1, ,55, ,
2, ,55, ,
1, ,55, ,
1, ,55, ,
2, ,55, ,
1, ,55, ,
1, ,55, ,
2, ,55, ,
1, ,54, ,
1, ,54, ,
2, ,56, ,
1, ,55, ,
1, ,55, ,
2, ,55, ,
1, ,55, ,
1, ,55, ,
2, ,55, ,
1, ,54, ,
1, ,55, ,
2, ,55, ,
1, ,54, ,
1, ,54, ,
2, ,55, ,
1, ,54, ,
1, ,54, ,
2, ,55, ,
1, ,54, ,
1, ,54, ,
2, ,55, ,
1, ,55, ,
1, ,55, ,
2, ,55, ,
1, ,54, ,
1, ,54, ,
2, ,55, ,
1, ,54, ,
1, ,54, ,
2, ,55, ,
1, ,54, ,
1, ,54, ,
2, ,55, ,
1, ,54, ,
1, ,55, ,
2, ,54, ,
1, ,55, ,
1, ,55, ,
2, ,55, ,
1, ,54, ,
1, ,54, ,
2, ,55, ,
1, ,54, ,
1, ,54, ,
2, ,55, ,
1, ,54, ,
1, ,55, ,
2, ,55, ,
2, ,54, ,
1, ,55, ,
2, ,55, ,
1, ,54, ,
1, ,54, ,
2, ,55, ,
1, ,54, ,
1, ,54, ,
2, ,55, ,
1, ,54, ,
1, ,55, ,
2, ,55, ,
1, ,54, ,
1, ,54, ,
2, ,55, ,
1, ,54, ,
1, ,55, ,
2, ,55, ,
1, ,54, ,
1, ,54, ,
2, ,55, ,
1, ,54, ,
1, ,55, ,
2, ,55, ,
1, ,54, ,
1, ,54, ,
2, ,55, ,
1, ,54, ,
1, ,54, ,
2, ,55, ,
1, ,55, ,
1, ,54, ,
2, ,55, ,
1, ,54, ,
1, ,54, ,
2, ,55, ,
1, ,54, ,
1, ,54, ,
2, ,55, ,
1, ,54, ,
1, ,54, ,
2, ,55, ,
1, ,54, ,
1, ,54, ,
2, ,55, ,
1, ,54, ,
1, ,54, ,
2, ,55, ,
1, ,55, ,
1, ,54, ,
2, ,55, ,
1, ,54, ,
1, ,54, ,
2, ,55, ,
1, ,54, ,
1, ,54, ,
2, ,55, ,
1, ,54, ,
1, ,54, ,
2, ,55, ,
1, ,54, ,
1, ,54, ,
2, ,55, ,
1, ,54, ,
1, ,50, ,
2, ,31, ,
1, ,13, ,
-1, ,-1, ,
2, ,-11, ,
1, ,-18, ,
1, ,-23, ,
1, ,-27, ,
1, ,-31, ,
-1, ,-33, ,
2, ,-35, ,
1, ,-36, ,
1, ,-37, ,
2, ,-38, ,
2, ,-38, ,
-1, ,-38, ,
2, ,-39, ,
1, ,-38, ,
1, ,-39, ,
1, ,-39, ,
1, ,-39, ,
-1, ,-39, ,
2, ,-40, ,
1, ,-39, ,
1, ,-39, ,
1, ,-39, ,
2, ,-39, ,
-1, ,-39, ,
2, ,-40, ,
1, ,-39, ,
1, ,-39, ,
2, ,-39, ,
2, ,-39, ,
-1, ,-39, ,
2, ,-39, ,
1, ,-39, ,
1, ,-39, ,
1, ,-39, ,
1, ,-39, ,
-1, ,-39, ,
2, ,-39, ,
1, ,-39, ,
1, ,-39, ,
1, ,-39, ,
2, ,-39, ,
-1, ,-39, ,
2, ,-39, ,
1, ,-39, ,
1, ,-39, ,
2, ,-39, ,
2, ,-39, ,
-1, ,-38, ,
2, ,-39, ,
1, ,-39, ,
1, ,-39, ,
1, ,-39, ,
1, ,-39, ,
-1, ,-39, ,
2, ,-39, ,
1, ,-39, ,
1, ,-39, ,
2, ,-39, ,
2, ,-39, ,
-1, ,-38, ,
2, ,-39, ,
1, ,-38, ,
1, ,-38, ,
1, ,-39, ,
1, ,-38, ,
-1, ,-38, ,
2, ,-39, ,
1, ,-39, ,
1, ,-39, ,
1, ,-39, ,
2, ,-38, ,
1, ,-39, ,
2, ,-39, ,
1, ,-39, ,
1, ,-39, ,
2, ,-39, ,
1, ,-38, ,
-1, ,-38, ,
2, ,-39, ,
1, ,-39, ,
1, ,-39, ,
1, ,-39, ,
1, ,-39, ,
-1, ,-39, ,
2, ,-39, ,
1, ,-38, ,
1, ,-38, ,
1, ,-39, ,
2, ,-38, ,
-1, ,-38, ,
2, ,-39, ,
1, ,-39, ,
1, ,-39, ,
2, ,-39, ,
1, ,-38, ,
-1, ,-38, ,
2, ,-39, ,
1, ,-38, ,
1, ,-39, ,
1, ,-39, ,
1, ,-39, ,
-1, ,-38, ,
2, ,-39, ,
1, ,-39, ,
1, ,-39, ,
1, ,-39, ,
1, ,-38, ,
-1, ,-38, ,
2, ,-39, ,
-1, ,-38, ,
1, ,-39, ,
1, ,-39, ,
1, ,-38, ,
-1, ,-38, ,
2, ,-39, ,
-1, ,-38, ,
1, ,-39, ,
1, ,-39, ,
1, ,-38, ,
-1, ,-38, ,
2, ,-39, ,
1, ,-38, ,
1, ,-38, ,
1, ,-39, ,
1, ,-39, ,
-1, ,-39, ,
2, ,-39, ,
-1, ,-38, ,
1, ,-39, ,
1, ,-39, ,
1, ,-39, ,
-1, ,-38, ,
2, ,-39, ,
-1, ,-38, ,
1, ,-38, ,
2, ,-39, ,
1, ,-38, ,
-1, ,-38, ,
2, ,-39, ,
-1, ,-38, ,
1, ,-38, ,
1, ,-38, ,
1, ,-38, ,
-1, ,-39, ,
2, ,-39, ,
1, ,-38, ,
1, ,-39, ,
1, ,-39, ,
2, ,-38, ,
-1, ,-38, ,
2, ,-39, ,
1, ,-38, ,
1, ,-38, ,
1, ,-39, ,
1, ,-38, ,
-1, ,-39, ,
2, ,-39, ,
-1, ,-38, ,
1, ,-38, ,
1, ,-39, ,
1, ,-38, ,
-1, ,-38, ,
2, ,-39, ,
1, ,-38, ,
1, ,-39, ,
1, ,-39, ,
2, ,-39, ,
-1, ,-38, ,
2, ,-39, ,
1, ,-38, ,
1, ,-38, ,
1, ,-39, ,
1, ,-38, ,
-1, ,-38, ,
2, ,-39, ,
1, ,-38, ,
1, ,-38, ,
2, ,-38, ,
1, ,-39, ,
-1, ,-38, ,
2, ,-39, ,
-1, ,-38, ,
1, ,-38, ,
1, ,-39, ,
1, ,-38, ,
-1, ,-38, ,
2, ,-39, ,
-1, ,-38, ,
1, ,-38, ,
1, ,-39, ,
1, ,-38, ,
-1, ,-39, ,
2, ,-39, ,
1, ,-38, ,
-1, ,-39, ,
1, ,-39, ,
1, ,-38, ,
-1, ,-38, ,
2, ,-39, ,
1, ,-38, ,
1, ,-38, ,
2, ,-38, ,
2, ,-38, ,
-1, ,-38, ,
2, ,-39, ,
1, ,-38, ,
1, ,-39, ,
1, ,-39, ,
1, ,-39, ,
-1, ,-38, ,
2, ,-39, ,
-1, ,-38, ,
1, ,-39, ,
1, ,-38, ,
2, ,-38, ,
-1, ,-38, ,
2, ,-39, ,
1, ,-37, ,
1, ,-38, ,
2, ,-39, ,
2, ,-38, ,
-1, ,-38, ,
2, ,-39, ,
-1, ,-39, ,
1, ,-38, ,
1, ,-39, ,
1, ,-38, ,
-1, ,-38, ,
2, ,-39, ,
1, ,-38, ,
1, ,-38, ,
1, ,-39, ,
1, ,-38, ,
-1, ,-38, ,
2, ,-39, ,
-1, ,-38, ,
1, ,-39, ,
2, ,-39, ,
1, ,-39, ,
-1, ,-39, ,
2, ,-39, ,
-1, ,-38, ,
1, ,-38, ,
1, ,-39, ,
1, ,-38, ,
-1, ,-38, ,
2, ,-39, ,
-1, ,-38, ,
1, ,-39, ,
1, ,-38, ,
1, ,-38, ,
-1, ,-38, ,
2, ,-39, ,
1, ,-38, ,
1, ,-39, ,
1, ,-39, ,
1, ,-38, ,
-1, ,-38, ,
2, ,-39, ,
-1, ,-38, ,
1, ,-38, ,
1, ,-38, ,
1, ,-38, ,
-1, ,-38, ,
1, ,-39, ,
-1, ,-38, ,
1, ,-39, ,
1, ,-38, ,
1, ,-39, ,
-1, ,-38, ,
2, ,-39, ,
-1, ,-38, ,
1, ,-39, ,
1, ,-39, ,
1, ,-38, ,
-1, ,-38, ,
2, ,-39, ,
-1, ,-38, ,
1, ,-38, ,
1, ,-39, ,
1, ,-38, ,
-1, ,-38, ,
2, ,-39, ,
-1, ,-39, ,
1, ,-38, ,
1, ,-38, ,
1, ,-38, ,
-1, ,-38, ,
2, ,-39, ,
-1, ,-38, ,
1, ,-38, ,
1, ,-38, ,
1, ,-38, ,
-1, ,-39, ,
2, ,-39, ,
-1, ,-38, ,
1, ,-39, ,
1, ,-38, ,
1, ,-38, ,
-1, ,-38, ,
1, ,-39, ,
-1, ,-38, ,
-1, ,-39, ,
1, ,-39, ,
1, ,-38, ,
-1, ,-39, ,
2, ,-39, ,
-1, ,-38, ,
1, ,-39, ,
1, ,-38, ,
1, ,-38, ,
-1, ,-38, ,
2, ,-39, ,
-1, ,-38, ,
-1, ,-38, ,
2, ,-38, ,
1, ,-38, ,
-1, ,-38, ,
2, ,-39, ,
-1, ,-38, ,
-1, ,-38, ,
1, ,-38, ,
1, ,-39, ,
-1, ,-39, ,
2, ,-39, ,
-1, ,-38, ,
1, ,-38, ,
1, ,-39, ,
2, ,-38, ,
-1, ,-38, ,
2, ,-39, ,
-1, ,-38, ,
-1, ,-39, ,
1, ,-38, ,
1, ,-38, ,
-1, ,-38, ,
2, ,-39, ,
-1, ,-38, ,
1, ,-39, ,
1, ,-39, ,
1, ,-38, ,
-1, ,-38, ,
2, ,-39, ,
-1, ,-39, ,
1, ,-39, ,
1, ,-38, ,
1, ,-38, ,
-1, ,-38, ,
2, ,-39, ,
-1, ,-38, ,
1, ,-39, ,
1, ,-38, ,
1, ,-38, ,
-1, ,-38, ,
2, ,-39, ,
-1, ,-38, ,
1, ,-39, ,
1, ,-39, ,
1, ,-38, ,
-1, ,-38, ,
1, ,-39, ,
-1, ,-39, ,
-1, ,-38, ,
1, ,-38, ,
1, ,-38, ,
-1, ,-38, ,
2, ,-39, ,
-1, ,-38, ,
-1, ,-39, ,
1, ,-39, ,
1, ,-39, ,
-1, ,-38, ,
2, ,-39, ,
-1, ,-38, ,
-1, ,-38, ,
1, ,-38, ,
1, ,-38, ,
-1, ,-38, ,
1, ,-39, ,
-1, ,-38, ,
-1, ,-38, ,
1, ,-38, ,
1, ,-38, ,
-1, ,-38, ,
1, ,-39, ,
-1, ,-39, ,
-1, ,-38, ,
1, ,-39, ,
1, ,-38, ,
-1, ,-38, ,
2, ,-39, ,
-1, ,-39, ,
-1, ,-38, ,
1, ,-38, ,
1, ,-38, ,
-1, ,-38, ,
2, ,-39, ,
-1, ,-38, ,
-1, ,-38, ,
1, ,-38, ,
1, ,-38, ,
-1, ,-38, ,
2, ,-39, ,
-1, ,-39, ,
-1, ,-38, ,
1, ,-38, ,
1, ,-39, ,
-1, ,-38, ,
1, ,-39, ,
-1, ,-38, ,
-1, ,-38, ,
1, ,-39, ,
1, ,-38, ,
-1, ,-38, ,
2, ,-39, ,
-1, ,-38, ,
1, ,-39, ,
1, ,-39, ,
1, ,-39, ,
-1, ,-38, ,
2, ,-39, ,
-1, ,-38, ,
-1, ,-38, ,
1, ,-39, ,
1, ,-39, ,
-1, ,-39, ,
1, ,-39, ,
-1, ,-38, ,
1, ,-38, ,
1, ,-39, ,
1, ,-38, ,
-1, ,-38, ,
1, ,-39, ,
-1, ,-39, ,
-1, ,-39, ,
1, ,-39, ,
1, ,-38, ,
-1, ,-38, ,
1, ,-38, ,
-1, ,-39, ,
-1, ,-39, ,
1, ,-38, ,
1, ,-39, ,
-1, ,-38, ,
2, ,-39, ,
-1, ,-38, ,
-1, ,-38, ,
1, ,-39, ,
1, ,-38, ,
-1, ,-38, ,
2, ,-39, ,
-1, ,-39, ,
-1, ,-38, ,
1, ,-38, ,
1, ,-38, ,
-1, ,-38, ,
1, ,-39, ,
-1, ,-38, ,
-1, ,-38, ,
1, ,-38, ,
1, ,-38, ,
-1, ,-38, ,
2, ,-39, ,
-1, ,-38, ,
-1, ,-38, ,
1, ,-39, ,
1, ,-38, ,
-1, ,-38, ,
48, ,-39, ,
67, ,-39, ,
41, ,-38, ,
26, ,-38, ,
17, ,-39, ,
11, ,-38, ,
10, ,-39, ,
5, ,-38, ,
5, ,-38, ,
3, ,-38, ,
3, ,-38, ,
1, ,-39, ,
3, ,-39, ,
2, ,-39, ,
2, ,-39, ,
2, ,-39, ,
3, ,-38, ,
1, ,-38, ,
3, ,-39, ,
2, ,-39, ,
2, ,-39, ,
2, ,-38, ,
2, ,-39, ,
1, ,-38, ,
3, ,-39, ,
2, ,-38, ,
2, ,-38, ,
2, ,-38, ,
2, ,-39, ,
1, ,-39, ,
3, ,-39, ,
2, ,-39, ,
2, ,-39, ,
2, ,-38, ,
2, ,-38, ,
1, ,-39, ,
3, ,-39, ,
2, ,-38, ,
2, ,-38, ,
2, ,-39, ,
2, ,-38, ,
1, ,-38, ,
3, ,-39, ,
2, ,-38, ,
2, ,-38, ,
2, ,-38, ,
2, ,-38, ,
1, ,-39, ,
3, ,-39, ,
2, ,-39, ,
2, ,-39, ,
2, ,-39, ,
2, ,-38, ,
1, ,-38, ,
3, ,-39, ,
2, ,-38, ,
2, ,-38, ,
2, ,-39, ,
2, ,-38, ,
1, ,-39, ,
3, ,-39, ,
2, ,-38, ,
2, ,-39, ,
2, ,-39, ,
2, ,-38, ,
1, ,-38, ,
3, ,-39, ,
2, ,-39, ,
2, ,-38, ,
2, ,-38, ,
2, ,-39, ,
1, ,-38, ,
3, ,-39, ,
2, ,-38, ,
2, ,-38, ,
2, ,-39, ,
2, ,-38, ,
1, ,-38, ,
3, ,-39, ,
2, ,-39, ,
2, ,-39, ,
2, ,-38, ,
2, ,-38, ,
1, ,-38, ,
3, ,-39, ,
2, ,-38, ,
2, ,-38, ,
2, ,-39, ,
2, ,-38, ,
1, ,-38, ,
3, ,-39, ,
1, ,-38, ,
2, ,-38, ,
2, ,-38, ,
2, ,-39, ,
1, ,-38, ,
3, ,-39, ,
1, ,-38, ,
2, ,-39, ,
2, ,-39, ,
2, ,-38, ,
1, ,-38, ,
3, ,-38, ,
1, ,-39, ,
2, ,-38, ,
2, ,-38, ,
2, ,-38, ,
1, ,-38, ,
3, ,-39, ,
1, ,-38, ,
2, ,-39, ,
2, ,-38, ,
2, ,-38, ,
1, ,-38, ,
3, ,-39, ,
1, ,-38, ,
2, ,-39, ,
2, ,-39, ,
2, ,-38, ,
1, ,-38, ,
3, ,-39, ,
1, ,-38, ,
2, ,-38, ,
2, ,-39, ,
2, ,-38, ,
1, ,-39, ,
3, ,-39, ,
1, ,-39, ,
2, ,-38, ,
2, ,-38, ,
2, ,-38, ,
1, ,-38, ,
3, ,-39, ,
1, ,-38, ,
2, ,-38, ,
2, ,-39, ,
2, ,-38, ,
1, ,-38, ,
2, ,-39, ,
1, ,-39, ,
2, ,-39, ,
2, ,-39, ,
2, ,-38, ,
1, ,-38, ,
3, ,-39, ,
1, ,-38, ,
2, ,-38, ,
2, ,-39, ,
2, ,-39, ,
1, ,-39, ,
2, ,-39, ,
1, ,-39, ,
2, ,-39, ,
2, ,-39, ,
2, ,-38, ,
1, ,-31, ,
3, ,-11, ,
2, ,5, ,
2, ,18, ,
2, ,27, ,
2, ,35, ,
1, ,39, ,
2, ,44, ,
1, ,45, ,
1, ,49, ,
2, ,51, ,
2, ,52, ,
1, ,53, ,
2, ,54, ,
1, ,54, ,
1, ,54, ,
2, ,55, ,
1, ,54, ,
-1, ,55, ,
2, ,56, ,
1, ,54, ,
1, ,55, ,
2, ,55, ,
1, ,56, ,
1, ,55, ,
2, ,55, ,
1, ,55, ,
1, ,55, ,
2, ,55, ,
1, ,55, ,
1, ,55, ,
2, ,56, ,
1, ,54, ,
1, ,55, ,
2, ,55, ,
1, ,54, ,
1, ,54, ,
2, ,55, ,
1, ,55, ,
1, ,55, ,
2, ,55, ,
1, ,55, ,
1, ,55, ,
2, ,55, ,
1, ,54, ,
1, ,55, ,
2, ,55, ,
1, ,54, ,
1, ,55, ,
2, ,55, ,
2, ,54, ,
1, ,54, ,
1, ,55, ,
1, ,54, ,
1, ,54, ,
2, ,55, ,
1, ,54, ,
1, ,54, ,
2, ,55, ,
2, ,55, ,
1, ,55, ,
2, ,55, ,
1, ,55, ,
1, ,54, ,
2, ,55, ,
1, ,55, ,
1, ,54, ,
2, ,55, ,
1, ,54, ,
1, ,54, ,
2, ,55, ,
1, ,54, ,
1, ,54, ,
2, ,55, ,
1, ,54, ,
1, ,55, ,
2, ,55, ,
1, ,54, ,
1, ,55, ,
2, ,55, ,
1, ,54, ,
1, ,55, ,
2, ,55, ,
1, ,55, ,
1, ,54, ,
2, ,55, ,
1, ,54, ,
1, ,54, ,
2, ,55, ,
2, ,54, ,
1, ,55, ,
2, ,55, ,
1, ,53, ,
1, ,55, ,
2, ,55, ,
1, ,55, ,
1, ,55, ,
2, ,55, ,
1, ,54, ,
1, ,55, ,
2, ,55, ,
1, ,54, ,
1, ,54, ,
2, ,55, ,
1, ,54, ,
1, ,54, ,
2, ,55, ,
1, ,55, ,
1, ,54, ,
2, ,55, ,
1, ,54, ,
1, ,54, ,
2, ,54, ,
1, ,54, ,
1, ,54, ,
2, ,55, ,
1, ,53, ,
1, ,54, ,
2, ,55, ,
1, ,54, ,
1, ,54, ,
2, ,55, ,
1, ,54, ,
1, ,54, ,
2, ,54, ,
1, ,54, ,
1, ,54, ,
2, ,55, ,
1, ,53, ,
1, ,54, ,
2, ,55, ,
2, ,54, ,
1, ,54, ,
2, ,55, ,
1, ,54, ,
1, ,54, ,
2, ,55, ,
1, ,54, ,
1, ,54, ,
2, ,55, ,
1, ,54, ,
1, ,54, ,
2, ,55, ,
1, ,54, ,
1, ,54, ,
2, ,55, ,
1, ,54, ,
1, ,54, ,
2, ,55, ,
1, ,54, ,
1, ,54, ,
2, ,55, ,
1, ,54, ,
1, ,54, ,
2, ,53, ,
1, ,35, ,
-1, ,16, ,
2, ,2, ,
1, ,-8, ,
1, ,-16, ,
1, ,-22, ,
1, ,-27, ,
-1, ,-30, ,
2, ,-33, ,
1, ,-35, ,
1, ,-36, ,
2, ,-37, ,
1, ,-37, ,
-1, ,-38, ,
2, ,-39, ,
1, ,-38, ,
1, ,-39, ,
1, ,-39, ,
1, ,-39, ,
-1, ,-39, ,
2, ,-39, ,
1, ,-39, ,
1, ,-39, ,
2, ,-39, ,
1, ,-39, ,
-1, ,-39, ,
2, ,-40, ,
1, ,-39, ,
1, ,-39, ,
1, ,-39, ,
1, ,-39, ,
-1, ,-39, ,
2, ,-40, ,
1, ,-39, ,
1, ,-39, ,
1, ,-39, ,
2, ,-39, ,
-1, ,-39, ,
2, ,-40, ,
1, ,-39, ,
1, ,-39, ,
1, ,-39, ,
1, ,-39, ,
-1, ,-39, ,
2, ,-39, ,
1, ,-39, ,
1, ,-39, ,
1, ,-39, ,
2, ,-38, ,
-1, ,-39, ,
2, ,-39, ,
1, ,-39, ,
1, ,-38, ,
1, ,-39, ,
1, ,-39, ,
-1, ,-39, ,
2, ,-39, ,
1, ,-38, ,
1, ,-39, ,
1, ,-39, ,
1, ,-39, ,
-1, ,-38, ,
2, ,-39, ,
1, ,-39, ,
1, ,-39, ,
1, ,-39, ,
1, ,-39, ,
-1, ,-39, ,
2, ,-39, ,
1, ,-39, ,
1, ,-39, ,
2, ,-39, ,
2, ,-39, ,
1, ,-38, ,
2, ,-39, ,
1, ,-38, ,
1, ,-39, ,
1, ,-39, ,
1, ,-39, ,
-1, ,-38, ,
2, ,-39, ,
1, ,-39, ,
1, ,-39, ,
1, ,-39, ,
2, ,-38, ,
-1, ,-39, ,
2, ,-39, ,
1, ,-39, ,
1, ,-39, ,
1, ,-39, ,
2, ,-39, ,
-1, ,-38, ,
2, ,-39, ,
1, ,-39, ,
1, ,-39, ,
1, ,-39, ,
1, ,-39, ,
-1, ,-38, ,
2, ,-39, ,
1, ,-38, ,
1, ,-39, ,
2, ,-39, ,
1, ,-38, ,
-1, ,-38, ,
2, ,-39, ,
1, ,-38, ,
1, ,-39, ,
2, ,-39, ,
1, ,-39, ,
-1, ,-38, ,
2, ,-39, ,
1, ,-38, ,
1, ,-38, ,
1, ,-39, ,
1, ,-38, ,
-1, ,-38, ,
2, ,-39, ,
-1, ,-38, ,
1, ,-38, ,
2, ,-39, ,
2, ,-39, ,
-1, ,-38, ,
2, ,-39, ,
1, ,-38, ,
1, ,-38, ,
1, ,-39, ,
1, ,-38, ,
-1, ,-38, ,
2, ,-39, ,
1, ,-39, ,
1, ,-38, ,
1, ,-39, ,
1, ,-39, ,
-1, ,-38, ,
2, ,-39, ,
1, ,-38, ,
1, ,-38, ,
1, ,-39, ,
1, ,-38, ,
-1, ,-39, ,
2, ,-39, ,
-1, ,-39, ,
1, ,-39, ,
1, ,-38, ,
1, ,-38, ,
-1, ,-38, ,
2, ,-39, ,
1, ,-38, ,
1, ,-38, ,
1, ,-39, ,
2, ,-38, ,
-1, ,-38, ,
2, ,-39, ,
-1, ,-38, ,
1, ,-39, ,
1, ,-39, ,
1, ,-38, ,
-1, ,-38, ,
2, ,-39, ,
1, ,-38, ,
1, ,-39, ,
1, ,-39, ,
1, ,-38, ,
-1, ,-38, ,
2, ,-39, ,
-1, ,-38, ,
71, ,-39, ,
53, ,-39, ,
31, ,-38, ,
18, ,-38, ,
13, ,-39, ,
8, ,-38, ,
6, ,-39, ,
5, ,-39, ,
3, ,-38, ,
2, ,-38, ,
5, ,-39, ,
2, ,-38, ,
2, ,-38, ,
2, ,-39, ,
2, ,-38, ,
1, ,-38, ,
3, ,-39, ,
2, ,-38, ,
2, ,-38, ,
2, ,-39, ,
3, ,-38, ,
1, ,-38, ,
3, ,-39, ,
2, ,-39, ,
2, ,-39, ,
2, ,-39, ,
2, ,-38, ,
1, ,-38, ,
3, ,-39, ,
2, ,-38, ,
2, ,-38, ,
2, ,-39, ,
3, ,-38, ,
2, ,-38, ,
3, ,-39, ,
2, ,-38, ,
2, ,-39, ,
2, ,-39, ,
3, ,-38, ,
1, ,-38, ,
3, ,-39, ,
2, ,-38, ,
2, ,-39, ,
2, ,-39, ,
2, ,-38, ,
1, ,-38, ,
3, ,-39, ,
2, ,-39, ,
2, ,-38, ,
2, ,-38, ,
2, ,-39, ,
1, ,-38, ,
3, ,-39, ,
2, ,-38, ,
2, ,-38, ,
2, ,-38, ,
2, ,-38, ,
1, ,-38, ,
3, ,-39, ,
2, ,-38, ,
2, ,-38, ,
2, ,-38, ,
2, ,-38, ,
1, ,-38, ,
3, ,-39, ,
2, ,-38, ,
2, ,-38, ,
2, ,-38, ,
2, ,-38, ,
1, ,-38, ,
3, ,-39, ,
1, ,-39, ,
2, ,-38, ,
2, ,-38, ,
2, ,-38, ,
1, ,-38, ,
3, ,-39, ,
2, ,-38, ,
2, ,-38, ,
2, ,-39, ,
2, ,-38, ,
1, ,-38, ,
3, ,-39, ,
1, ,-38, ,
2, ,-39, ,
2, ,-38, ,
2, ,-39, ,
1, ,-38, ,
3, ,-39, ,
1, ,-38, ,
2, ,-38, ,
2, ,-38, ,
2, ,-39, ,
1, ,-38, ,
3, ,-39, ,
1, ,-39, ,
2, ,-38, ,
2, ,-39, ,
2, ,-39, ,
1, ,-38, ,
3, ,-39, ,
1, ,-38, ,
2, ,-38, ,
2, ,-39, ,
2, ,-38, ,
1, ,-39, ,
2, ,-39, ,
1, ,-38, ,
2, ,-38, ,
2, ,-39, ,
2, ,-38, ,
1, ,-39, ,
2, ,-39, ,
1, ,-38, ,
2, ,-39, ,
2, ,-39, ,
2, ,-38, ,
1, ,-38, ,
2, ,-39, ,
1, ,-38, ,
1, ,-39, ,
2, ,-38, ,
2, ,-39, ,
1, ,-38, ,
2, ,-39, ,
1, ,-38, ,
2, ,-39, ,
2, ,-39, ,
2, ,-38, ,
1, ,-38, ,
3, ,-39, ,
1, ,-39, ,
2, ,-38, ,
2, ,-38, ,
2, ,-38, ,
1, ,-38, ,
2, ,-39, ,
1, ,-38, ,
2, ,-38, ,
2, ,-38, ,
2, ,-38, ,
1, ,-38, ,
2, ,-39, ,
1, ,-39, ,
2, ,-38, ,
2, ,-38, ,
2, ,-39, ,
1, ,-38, ,
2, ,-39, ,
2, ,-39, ,
2, ,-38, ,
2, ,-39, ,
2, ,-38, ,
1, ,-38, ,
3, ,-39, ,
1, ,-39, ,
1, ,-38, ,
2, ,-39, ,
2, ,-38, ,
1, ,-38, ,
2, ,-39, ,
1, ,-38, ,
2, ,-38, ,
2, ,-39, ,
2, ,-38, ,
1, ,-38, ,
2, ,-39, ,
1, ,-38, ,
2, ,-39, ,
2, ,-39, ,
2, ,-39, ,
1, ,-38, ,
3, ,-39, ,
2, ,-38, ,
2, ,-38, ,
2, ,-39, ,
2, ,-38, ,
1, ,-38, ,
2, ,-39, ,
1, ,-38, ,
1, ,-38, ,
2, ,-39, ,
2, ,-38, ,
1, ,-38, ,
2, ,-39, ,
1, ,-38, ,
1, ,-38, ,
2, ,-39, ,
2, ,-38, ,
1, ,-38, ,
2, ,-39, ,
1, ,-38, ,
2, ,-38, ,
2, ,-38, ,
2, ,-38, ,
1, ,-38, ,
2, ,-39, ,
1, ,-39, ,
2, ,-39, ,
2, ,-39, ,
2, ,-38, ,
1, ,-39, ,
2, ,-39, ,
1, ,-38, ,
2, ,-38, ,
2, ,-38, ,
2, ,-38, ,
1, ,-38, ,
2, ,-39, ,
1, ,-38, ,
1, ,-38, ,
2, ,-39, ,
2, ,-38, ,
1, ,-38, ,
2, ,-39, ,
1, ,-38, ,
1, ,-38, ,
2, ,-38, ,
2, ,-39, ,
-1, ,-38, ,
2, ,-39, ,
1, ,-38, ,
2, ,-38, ,
2, ,-39, ,
2, ,-38, ,
1, ,-38, ,
2, ,-39, ,
1, ,-38, ,
1, ,-39, ,
2, ,-39, ,
1, ,-38, ,
-1, ,-38, ,
2, ,-39, ,
1, ,-38, ,
2, ,-38, ,
1, ,-39, ,
1, ,-38, ,
1, ,-38, ,
2, ,-39, ,
1, ,-38, ,
1, ,-39, ,
2, ,-39, ,
2, ,-39, ,
-1, ,-38, ,
2, ,-39, ,
1, ,-38, ,
1, ,-39, ,
2, ,-39, ,
2, ,-38, ,
-1, ,-38, ,
2, ,-39, ,
1, ,-38, ,
1, ,-39, ,
2, ,-38, ,
1, ,-38, ,
1, ,-38, ,
2, ,-39, ,
1, ,-38, ,
1, ,-38, ,
2, ,-38, ,
1, ,-38, ,
1, ,-39, ,
2, ,-39, ,
1, ,-39, ,
1, ,-39, ,
2, ,-38, ,
2, ,-38, ,
-1, ,-38, ,
2, ,-39, ,
1, ,-38, ,
1, ,-38, ,
1, ,-39, ,
2, ,-38, ,
-1, ,-39, ,
2, ,-39, ,
1, ,-39, ,
1, ,-38, ,
2, ,-39, ,
2, ,-38, ,
1, ,-38, ,
2, ,-39, ,
1, ,-39, ,
1, ,-38, ,
1, ,-39, ,
1, ,-38, ,
-1, ,-38, ,
2, ,-39, ,
1, ,-38, ,
1, ,-38, ,
2, ,-39, ,
2, ,-39, ,
-1, ,-39, ,
2, ,-39, ,
1, ,-38, ,
1, ,-39, ,
2, ,-39, ,
1, ,-38, ,
-1, ,-38, ,
2, ,-39, ,
1, ,-38, ,
1, ,-39, ,
2, ,-39, ,
1, ,-39, ,
1, ,-39, ,
2, ,-39, ,
1, ,-38, ,
1, ,-39, ,
1, ,-39, ,
1, ,-38, ,
1, ,-38, ,
2, ,-39, ,
1, ,-38, ,
1, ,-39, ,
2, ,-39, ,
2, ,-39, ,
-1, ,-38, ,
2, ,-39, ,
1, ,-38, ,
1, ,-38, ,
