src/varyamp_1560/temp0001081.CSV

Format,1.0B,
Memory Length,10000,Memory Length,10000,
IntpDistance,0,IntpDistance,0,
Trigger Address,4999,Trigger Address,4999,
Trigger Level,1.040E+00,Trigger Level,1.040E+00,
Source,CH1,Source,CH2,
Vertical Units,V,Vertical Units,V,
Vertical Units Div,0,Vertical Units Div,0,
Vertical Units Extend Div,16,Vertical Units Extend Div,16,
Label,,Label,,
Probe Type,0,Probe Type,0,
Probe Ratio,1.000e+01,Probe Ratio,1.000e+00,
Vertical Scale,5.000e-01,Vertical Scale,1.000e+00,
Vertical Position,-1.820e+00,Vertical Position,0.000e+00,
Horizontal Units,S,Horizontal Units,S,
Horizontal Scale,2.000E-05,Horizontal Scale,2.000E-05,
Horizontal Position,0.000E+00,Horizontal Position,0.000E+00,
Horizontal Mode,Main,Horizontal Mode,Main,
SincET Mode,Real Time,SincET Mode,Real Time,
Sampling Period,2.000e-08,Sampling Period,2.000e-08,
Horizontal Old Scale,2.000E-05,Horizontal Old Scale,2.000E-05,
Horizontal Old Position,0.000E+00,Horizontal Old Position,0.000E+00,
Firmware,V1.23,Firmware,V1.23,
Mode,Fast,Mode,Fast,
Waveform Data,,Waveform Data,,
2, ,-56, ,
2, ,-57, ,
1, ,-57, ,
3, ,-56, ,
1, ,-57, ,
2, ,-57, ,
2, ,-56, ,
2, ,-57, ,
1, ,-57, ,
2, ,-57, ,
1, ,-56, ,
2, ,-57, ,
2, ,-56, ,
2, ,-57, ,
1, ,-57, ,
2, ,-57, ,
1, ,-57, ,
2, ,-57, ,
2, ,-56, ,
2, ,-57, ,
1, ,-57, ,
2, ,-56, ,
1, ,-56, ,
2, ,-57, ,
2, ,-56, ,
2, ,-57, ,
1, ,-57, ,
2, ,-57, ,
2, ,-57, ,
2, ,-57, ,
2, ,-56, ,
2, ,-57, ,
1, ,-57, ,
2, ,-57, ,
1, ,-56, ,
2, ,-57, ,
2, ,-56, ,
2, ,-57, ,
1, ,-57, ,
3, ,-56, ,
1, ,-57, ,
2, ,-57, ,
2, ,-56, ,
2, ,-57, ,
1, ,-57, ,
2, ,-56, ,
1, ,-56, ,
2, ,-57, ,
2, ,-56, ,
2, ,-57, ,
1, ,-57, ,
2, ,-56, ,
1, ,-57, ,
2, ,-57, ,
2, ,-56, ,
2, ,-56, ,
1, ,-57, ,
2, ,-57, ,
1, ,-56, ,
2, ,-57, ,
2, ,-56, ,
2, ,-57, ,
1, ,-57, ,
2, ,-57, ,
1, ,-56, ,
2, ,-57, ,
2, ,-56, ,
2, ,-57, ,
1, ,-57, ,
2, ,-56, ,
1, ,-56, ,
1, ,-57, ,
2, ,-56, ,
2, ,-57, ,
1, ,-57, ,
2, ,-57, ,
1, ,-56, ,
1, ,-57, ,
2, ,-56, ,
2, ,-57, ,
1, ,-58, ,
3, ,-57, ,
1, ,-56, ,
2, ,-57, ,
2, ,-56, ,
2, ,-57, ,
1, ,-57, ,
2, ,-56, ,
1, ,-56, ,
1, ,-57, ,
2, ,-55, ,
2, ,-56, ,
1, ,-58, ,
2, ,-56, ,
1, ,-56, ,
2, ,-57, ,
2, ,-56, ,
2, ,-57, ,
1, ,-57, ,
2, ,-57, ,
1, ,-57, ,
2, ,-57, ,
2, ,-56, ,
2, ,-57, ,
1, ,-57, ,
2, ,-57, ,
1, ,-56, ,
1, ,-57, ,
2, ,-56, ,
1, ,-57, ,
-1, ,-57, ,
2, ,-57, ,
1, ,-57, ,
1, ,-57, ,
2, ,-56, ,
1, ,-57, ,
1, ,-58, ,
2, ,-57, ,
1, ,-56, ,
1, ,-57, ,
2, ,-56, ,
2, ,-57, ,
-1, ,-57, ,
2, ,-56, ,
1, ,-56, ,
1, ,-57, ,
2, ,-56, ,
2, ,-57, ,
1, ,-58, ,
2, ,-57, ,
1, ,-56, ,
1, ,-57, ,
2, ,-56, ,
2, ,-57, ,
1, ,-57, ,
2, ,-57, ,
1, ,-56, ,
1, ,-58, ,
1, ,-56, ,
2, ,-57, ,
1, ,-57, ,
2, ,-57, ,
1, ,-56, ,
1, ,-57, ,
2, ,-56, ,
2, ,-57, ,
-1, ,-57, ,
2, ,-56, ,
1, ,-57, ,
1, ,-58, ,
2, ,-56, ,
1, ,-57, ,
1, ,-58, ,
2, ,-57, ,
1, ,-57, ,
1, ,-57, ,
2, ,-56, ,
2, ,-57, ,
1, ,-57, ,
2, ,-56, ,
1, ,-57, ,
1, ,-57, ,
2, ,-56, ,
2, ,-57, ,
1, ,-58, ,
2, ,-57, ,
1, ,-56, ,
1, ,-57, ,
1, ,-56, ,
1, ,-57, ,
-1, ,-57, ,
2, ,-57, ,
1, ,-56, ,
2, ,-57, ,
2, ,-56, ,
2, ,-57, ,
1, ,-58, ,
2, ,-56, ,
1, ,-56, ,
1, ,-57, ,
2, ,-56, ,
2, ,-57, ,
-1, ,-57, ,
2, ,-57, ,
1, ,-56, ,
1, ,-58, ,
2, ,-56, ,
1, ,-57, ,
-1, ,-57, ,
2, ,-56, ,
1, ,-56, ,
1, ,-57, ,
2, ,-56, ,
1, ,-57, ,
-1, ,-57, ,
2, ,-56, ,
1, ,-57, ,
1, ,-58, ,
2, ,-56, ,
2, ,-57, ,
1, ,-58, ,
2, ,-57, ,
1, ,-56, ,
1, ,-57, ,
2, ,-56, ,
2, ,-57, ,
-1, ,-57, ,
2, ,-56, ,
1, ,-56, ,
1, ,-57, ,
1, ,-56, ,
1, ,-57, ,
-1, ,-58, ,
2, ,-57, ,
1, ,-57, ,
1, ,-57, ,
2, ,-56, ,
2, ,-57, ,
-1, ,-57, ,
2, ,-57, ,
24, ,-56, ,
49, ,-57, ,
31, ,-55, ,
20, ,-57, ,
12, ,-57, ,
10, ,-57, ,
6, ,-56, ,
5, ,-57, ,
5, ,-56, ,
3, ,-57, ,
2, ,-57, ,
3, ,-56, ,
2, ,-57, ,
2, ,-57, ,
2, ,-56, ,
2, ,-57, ,
1, ,-57, ,
3, ,-56, ,
2, ,-56, ,
2, ,-57, ,
3, ,-56, ,
2, ,-57, ,
1, ,-57, ,
3, ,-56, ,
2, ,-57, ,
2, ,-57, ,
2, ,-56, ,
2, ,-57, ,
1, ,-57, ,
3, ,-56, ,
2, ,-57, ,
2, ,-57, ,
2, ,-56, ,
2, ,-57, ,
1, ,-57, ,
3, ,-57, ,
2, ,-57, ,
2, ,-57, ,
2, ,-56, ,
2, ,-57, ,
1, ,-58, ,
3, ,-57, ,
2, ,-56, ,
2, ,-57, ,
2, ,-56, ,
2, ,-57, ,
1, ,-57, ,
3, ,-56, ,
2, ,-56, ,
2, ,-58, ,
2, ,-56, ,
2, ,-57, ,
1, ,-57, ,
3, ,-56, ,
1, ,-56, ,
2, ,-57, ,
2, ,-56, ,
2, ,-57, ,
1, ,-57, ,
3, ,-56, ,
2, ,-56, ,
2, ,-57, ,
2, ,-56, ,
2, ,-57, ,
1, ,-58, ,
3, ,-56, ,
1, ,-57, ,
2, ,-57, ,
3, ,-56, ,
2, ,-57, ,
1, ,-57, ,
3, ,-56, ,
2, ,-57, ,
2, ,-57, ,
2, ,-56, ,
2, ,-57, ,
1, ,-57, ,
3, ,-56, ,
2, ,-56, ,
2, ,-57, ,
2, ,-55, ,
2, ,-56, ,
1, ,-57, ,
3, ,-56, ,
2, ,-56, ,
2, ,-44, ,
2, ,-23, ,
2, ,-8, ,
1, ,3, ,
3, ,12, ,
2, ,19, ,
2, ,23, ,
2, ,26, ,
2, ,30, ,
1, ,32, ,
3, ,34, ,
2, ,34, ,
1, ,36, ,
2, ,35, ,
2, ,36, ,
2, ,37, ,
3, ,37, ,
2, ,37, ,
2, ,37, ,
2, ,36, ,
2, ,37, ,
1, ,37, ,
3, ,37, ,
2, ,37, ,
2, ,37, ,
2, ,37, ,
2, ,37, ,
1, ,37, ,
2, ,37, ,
1, ,37, ,
2, ,37, ,
2, ,36, ,
2, ,37, ,
1, ,37, ,
2, ,37, ,
2, ,37, ,
2, ,37, ,
2, ,36, ,
2, ,37, ,
1, ,37, ,
2, ,36, ,
2, ,37, ,
1, ,37, ,
2, ,36, ,
2, ,37, ,
1, ,37, ,
2, ,37, ,
1, ,37, ,
1, ,37, ,
2, ,36, ,
2, ,37, ,
1, ,37, ,
2, ,36, ,
1, ,37, ,
2, ,37, ,
2, ,36, ,
2, ,37, ,
1, ,37, ,
2, ,37, ,
1, ,37, ,
2, ,37, ,
2, ,36, ,
2, ,36, ,
1, ,37, ,
2, ,36, ,
2, ,37, ,
1, ,37, ,
2, ,36, ,
2, ,36, ,
1, ,37, ,
2, ,36, ,
1, ,36, ,
1, ,37, ,
2, ,36, ,
2, ,36, ,
1, ,37, ,
2, ,36, ,
1, ,37, ,
1, ,37, ,
2, ,36, ,
2, ,36, ,
1, ,37, ,
2, ,37, ,
1, ,37, ,
1, ,37, ,
2, ,36, ,
1, ,36, ,
1, ,37, ,
2, ,36, ,
1, ,37, ,
1, ,37, ,
2, ,36, ,
1, ,36, ,
1, ,37, ,
2, ,36, ,
1, ,37, ,
2, ,37, ,
2, ,36, ,
2, ,36, ,
1, ,37, ,
2, ,36, ,
1, ,37, ,
1, ,36, ,
2, ,36, ,
2, ,36, ,
1, ,36, ,
2, ,37, ,
1, ,36, ,
1, ,36, ,
2, ,36, ,
2, ,36, ,
1, ,36, ,
2, ,36, ,
1, ,36, ,
1, ,36, ,
2, ,36, ,
2, ,36, ,
1, ,37, ,
2, ,36, ,
1, ,37, ,
2, ,37, ,
2, ,36, ,
1, ,36, ,
1, ,37, ,
2, ,36, ,
1, ,37, ,
1, ,36, ,
2, ,36, ,
2, ,36, ,
1, ,36, ,
2, ,36, ,
1, ,36, ,
1, ,37, ,
2, ,36, ,
2, ,36, ,
1, ,36, ,
2, ,36, ,
1, ,37, ,
1, ,37, ,
2, ,36, ,
2, ,36, ,
1, ,36, ,
2, ,36, ,
1, ,36, ,
1, ,36, ,
2, ,36, ,
1, ,36, ,
1, ,36, ,
2, ,36, ,
1, ,37, ,
1, ,37, ,
2, ,36, ,
1, ,36, ,
1, ,37, ,
2, ,31, ,
1, ,12, ,
1, ,-5, ,
2, ,-19, ,
1, ,-28, ,
1, ,-36, ,
2, ,-41, ,
1, ,-45, ,
1, ,-50, ,
2, ,-50, ,
2, ,-53, ,
1, ,-54, ,
2, ,-55, ,
1, ,-55, ,
2, ,-57, ,
1, ,-56, ,
2, ,-57, ,
1, ,-57, ,
2, ,-57, ,
1, ,-57, ,
1, ,-58, ,
2, ,-57, ,
2, ,-57, ,
1, ,-57, ,
2, ,-57, ,
1, ,-57, ,
2, ,-58, ,
2, ,-56, ,
2, ,-57, ,
1, ,-57, ,
2, ,-57, ,
1, ,-57, ,
2, ,-58, ,
2, ,-56, ,
1, ,-57, ,
1, ,-57, ,
2, ,-57, ,
1, ,-56, ,
1, ,-58, ,
2, ,-56, ,
1, ,-57, ,
1, ,-57, ,
2, ,-57, ,
1, ,-56, ,
1, ,-57, ,
1, ,-56, ,
1, ,-57, ,
-1, ,-57, ,
2, ,-56, ,
1, ,-56, ,
1, ,-58, ,
2, ,-56, ,
2, ,-57, ,
1, ,-57, ,
2, ,-57, ,
1, ,-56, ,
1, ,-57, ,
2, ,-56, ,
1, ,-57, ,
-1, ,-57, ,
2, ,-56, ,
1, ,-57, ,
1, ,-57, ,
2, ,-56, ,
1, ,-57, ,
-1, ,-57, ,
2, ,-56, ,
1, ,-56, ,
1, ,-57, ,
1, ,-56, ,
1, ,-57, ,
-1, ,-57, ,
2, ,-56, ,
1, ,-56, ,
1, ,-57, ,
2, ,-55, ,
2, ,-57, ,
-1, ,-57, ,
2, ,-57, ,
1, ,-56, ,
1, ,-57, ,
2, ,-56, ,
1, ,-57, ,
-1, ,-57, ,
2, ,-56, ,
1, ,-56, ,
1, ,-57, ,
1, ,-56, ,
1, ,-57, ,
-1, ,-57, ,
2, ,-57, ,
1, ,-56, ,
1, ,-57, ,
2, ,-56, ,
2, ,-57, ,
-1, ,-57, ,
2, ,-56, ,
1, ,-56, ,
1, ,-58, ,
2, ,-56, ,
2, ,-57, ,
1, ,-57, ,
2, ,-56, ,
1, ,-57, ,
1, ,-58, ,
2, ,-56, ,
2, ,-57, ,
-1, ,-57, ,
2, ,-56, ,
1, ,-56, ,
1, ,-57, ,
1, ,-56, ,
2, ,-57, ,
-1, ,-57, ,
2, ,-57, ,
1, ,-56, ,
1, ,-57, ,
2, ,-56, ,
2, ,-57, ,
-1, ,-57, ,
2, ,-56, ,
1, ,-56, ,
1, ,-57, ,
2, ,-56, ,
1, ,-57, ,
-1, ,-57, ,
2, ,-57, ,
1, ,-56, ,
1, ,-57, ,
2, ,-56, ,
1, ,-57, ,
-1, ,-57, ,
2, ,-56, ,
1, ,-56, ,
1, ,-57, ,
1, ,-56, ,
1, ,-56, ,
-1, ,-57, ,
2, ,-56, ,
1, ,-56, ,
1, ,-57, ,
2, ,-56, ,
1, ,-57, ,
-1, ,-57, ,
2, ,-56, ,
1, ,-56, ,
1, ,-57, ,
2, ,-56, ,
1, ,-57, ,
-1, ,-57, ,
2, ,-57, ,
1, ,-56, ,
1, ,-57, ,
2, ,-56, ,
1, ,-57, ,
-1, ,-57, ,
2, ,-56, ,
1, ,-56, ,
1, ,-57, ,
2, ,-56, ,
1, ,-57, ,
-1, ,-57, ,
2, ,-56, ,
1, ,-56, ,
1, ,-57, ,
2, ,-56, ,
2, ,-57, ,
-1, ,-57, ,
2, ,-56, ,
1, ,-56, ,
1, ,-58, ,
1, ,-56, ,
1, ,-57, ,
-1, ,-57, ,
2, ,-56, ,
1, ,-57, ,
1, ,-57, ,
1, ,-56, ,
1, ,-57, ,
-1, ,-57, ,
2, ,-56, ,
1, ,-56, ,
1, ,-57, ,
1, ,-56, ,
1, ,-57, ,
-1, ,-57, ,
2, ,-57, ,
-1, ,-56, ,
1, ,-57, ,
1, ,-56, ,
1, ,-57, ,
-1, ,-57, ,
2, ,-57, ,
1, ,-56, ,
1, ,-57, ,
1, ,-56, ,
1, ,-57, ,
-1, ,-57, ,
2, ,-56, ,
-1, ,-56, ,
1, ,-57, ,
1, ,-56, ,
1, ,-57, ,
-1, ,-57, ,
2, ,-56, ,
1, ,-57, ,
1, ,-57, ,
1, ,-56, ,
1, ,-57, ,
-1, ,-57, ,
2, ,-57, ,
1, ,-56, ,
1, ,-57, ,
1, ,-56, ,
1, ,-57, ,
-1, ,-57, ,
2, ,-56, ,
1, ,-56, ,
1, ,-57, ,
1, ,-56, ,
1, ,-57, ,
-1, ,-57, ,
2, ,-56, ,
-1, ,-56, ,
1, ,-57, ,
1, ,-56, ,
1, ,-57, ,
-1, ,-57, ,
2, ,-57, ,
1, ,-56, ,
1, ,-57, ,
1, ,-56, ,
1, ,-56, ,
-1, ,-57, ,
2, ,-57, ,
1, ,-56, ,
1, ,-58, ,
1, ,-56, ,
1, ,-57, ,
-1, ,-57, ,
2, ,-56, ,
1, ,-56, ,
1, ,-57, ,
1, ,-56, ,
1, ,-57, ,
-1, ,-57, ,
2, ,-56, ,
1, ,-56, ,
1, ,-57, ,
1, ,-56, ,
1, ,-56, ,
-1, ,-57, ,
2, ,-56, ,
1, ,-56, ,
1, ,-57, ,
1, ,-56, ,
2, ,-57, ,
-1, ,-57, ,
2, ,-56, ,
1, ,-56, ,
1, ,-57, ,
2, ,-56, ,
1, ,-57, ,
-1, ,-57, ,
2, ,-57, ,
1, ,-56, ,
1, ,-57, ,
1, ,-56, ,
1, ,-57, ,
-1, ,-57, ,
2, ,-56, ,
-1, ,-56, ,
1, ,-57, ,
1, ,-56, ,
2, ,-57, ,
-1, ,-57, ,
2, ,-56, ,
1, ,-57, ,
1, ,-57, ,
1, ,-56, ,
1, ,-57, ,
-1, ,-57, ,
2, ,-57, ,
1, ,-56, ,
1, ,-57, ,
1, ,-56, ,
2, ,-57, ,
-1, ,-57, ,
2, ,-56, ,
1, ,-56, ,
1, ,-57, ,
2, ,-56, ,
1, ,-56, ,
-1, ,-57, ,
2, ,-56, ,
-1, ,-56, ,
1, ,-57, ,
1, ,-56, ,
1, ,-57, ,
-1, ,-57, ,
2, ,-56, ,
-1, ,-56, ,
1, ,-57, ,
1, ,-56, ,
1, ,-57, ,
-1, ,-57, ,
2, ,-56, ,
-1, ,-56, ,
1, ,-57, ,
1, ,-56, ,
1, ,-57, ,
-1, ,-57, ,
2, ,-56, ,
-1, ,-56, ,
1, ,-57, ,
1, ,-56, ,
1, ,-57, ,
-1, ,-57, ,
2, ,-56, ,
-1, ,-56, ,
1, ,-57, ,
1, ,-56, ,
1, ,-57, ,
-1, ,-57, ,
2, ,-56, ,
-1, ,-56, ,
1, ,-57, ,
1, ,-56, ,
1, ,-57, ,
-1, ,-57, ,
2, ,-56, ,
-1, ,-56, ,
-1, ,-57, ,
1, ,-56, ,
1, ,-57, ,
-1, ,-57, ,
2, ,-56, ,
-1, ,-56, ,
1, ,-58, ,
1, ,-56, ,
1, ,-57, ,
-1, ,-57, ,
1, ,-57, ,
-1, ,-56, ,
1, ,-57, ,
1, ,-56, ,
1, ,-57, ,
-1, ,-57, ,
2, ,-56, ,
-1, ,-56, ,
-1, ,-57, ,
1, ,-56, ,
1, ,-57, ,
-1, ,-57, ,
2, ,-56, ,
-1, ,-56, ,
-1, ,-57, ,
1, ,-56, ,
1, ,-57, ,
-1, ,-57, ,
2, ,-56, ,
1, ,-56, ,
1, ,-58, ,
1, ,-56, ,
1, ,-57, ,
-1, ,-57, ,
2, ,-56, ,
-1, ,-56, ,
1, ,-57, ,
1, ,-56, ,
1, ,-57, ,
-1, ,-57, ,
1, ,-56, ,
-1, ,-56, ,
1, ,-57, ,
1, ,-56, ,
1, ,-57, ,
-1, ,-57, ,
2, ,-56, ,
-1, ,-56, ,
1, ,-57, ,
2, ,-56, ,
1, ,-57, ,
-1, ,-57, ,
2, ,-56, ,
-1, ,-56, ,
1, ,-57, ,
1, ,-56, ,
1, ,-57, ,
-1, ,-57, ,
2, ,-57, ,
-1, ,-56, ,
1, ,-57, ,
1, ,-56, ,
1, ,-57, ,
-1, ,-57, ,
2, ,-56, ,
-1, ,-56, ,
1, ,-57, ,
1, ,-56, ,
1, ,-57, ,
-1, ,-57, ,
1, ,-56, ,
-1, ,-56, ,
1, ,-57, ,
1, ,-56, ,
2, ,-57, ,
-1, ,-57, ,
2, ,-56, ,
-1, ,-56, ,
1, ,-57, ,
1, ,-56, ,
1, ,-57, ,
-1, ,-57, ,
2, ,-56, ,
-1, ,-56, ,
1, ,-58, ,
1, ,-56, ,
1, ,-57, ,
-1, ,-57, ,
2, ,-56, ,
-1, ,-56, ,
-1, ,-57, ,
1, ,-56, ,
1, ,-57, ,
-1, ,-57, ,
1, ,-57, ,
-1, ,-57, ,
1, ,-57, ,
1, ,-56, ,
1, ,-57, ,
-1, ,-57, ,
2, ,-56, ,
-1, ,-56, ,
1, ,-57, ,
1, ,-56, ,
2, ,-57, ,
-1, ,-57, ,
2, ,-56, ,
-1, ,-56, ,
-1, ,-57, ,
1, ,-56, ,
1, ,-57, ,
-1, ,-57, ,
1, ,-56, ,
-1, ,-57, ,
1, ,-57, ,
1, ,-56, ,
1, ,-57, ,
-1, ,-57, ,
1, ,-56, ,
-1, ,-56, ,
1, ,-57, ,
1, ,-56, ,
1, ,-57, ,
-1, ,-57, ,
2, ,-56, ,
-1, ,-56, ,
-1, ,-57, ,
1, ,-56, ,
1, ,-57, ,
-1, ,-57, ,
1, ,-56, ,
-1, ,-56, ,
1, ,-57, ,
1, ,-56, ,
1, ,-57, ,
-1, ,-57, ,
2, ,-56, ,
-1, ,-56, ,
1, ,-57, ,
1, ,-56, ,
1, ,-57, ,
-1, ,-57, ,
1, ,-57, ,
-1, ,-56, ,
-1, ,-58, ,
1, ,-56, ,
1, ,-57, ,
-1, ,-57, ,
2, ,-56, ,
-1, ,-56, ,
-1, ,-58, ,
1, ,-56, ,
1, ,-57, ,
-1, ,-57, ,
1, ,-56, ,
-1, ,-56, ,
1, ,-57, ,
1, ,-56, ,
1, ,-57, ,
-1, ,-57, ,
2, ,-56, ,
-1, ,-56, ,
-1, ,-57, ,
1, ,-56, ,
1, ,-57, ,
-1, ,-57, ,
2, ,-56, ,
-1, ,-56, ,
-1, ,-57, ,
2, ,-56, ,
1, ,-57, ,
-1, ,-57, ,
2, ,-56, ,
-1, ,-56, ,
-1, ,-58, ,
1, ,-56, ,
1, ,-57, ,
-1, ,-57, ,
1, ,-56, ,
-1, ,-57, ,
-1, ,-57, ,
1, ,-56, ,
1, ,-57, ,
-1, ,-57, ,
1, ,-56, ,
-1, ,-56, ,
-1, ,-57, ,
1, ,-56, ,
1, ,-57, ,
-1, ,-57, ,
1, ,-56, ,
-1, ,-56, ,
1, ,-58, ,
1, ,-56, ,
1, ,-57, ,
-1, ,-57, ,
2, ,-56, ,
-1, ,-56, ,
-1, ,-58, ,
1, ,-55, ,
1, ,-57, ,
-1, ,-57, ,
1, ,-57, ,
-1, ,-56, ,
1, ,-57, ,
1, ,-56, ,
1, ,-57, ,
-1, ,-57, ,
2, ,-56, ,
-1, ,-56, ,
-1, ,-57, ,
1, ,-56, ,
1, ,-57, ,
-1, ,-57, ,
1, ,-56, ,
-1, ,-56, ,
-1, ,-57, ,
1, ,-56, ,
1, ,-57, ,
-1, ,-57, ,
2, ,-56, ,
-1, ,-57, ,
1, ,-57, ,
1, ,-56, ,
1, ,-57, ,
-1, ,-57, ,
1, ,-56, ,
-1, ,-56, ,
-1, ,-57, ,
1, ,-56, ,
1, ,-57, ,
-1, ,-57, ,
1, ,-56, ,
-1, ,-57, ,
1, ,-58, ,
1, ,-56, ,
1, ,-57, ,
-1, ,-57, ,
1, ,-56, ,
-1, ,-57, ,
-1, ,-57, ,
1, ,-56, ,
1, ,-57, ,
-1, ,-57, ,
2, ,-56, ,
-1, ,-57, ,
1, ,-58, ,
1, ,-56, ,
1, ,-57, ,
-1, ,-57, ,
1, ,-56, ,
-1, ,-56, ,
-1, ,-57, ,
1, ,-56, ,
1, ,-57, ,
-1, ,-57, ,
2, ,-56, ,
-1, ,-56, ,
1, ,-57, ,
1, ,-55, ,
1, ,-57, ,
-1, ,-57, ,
2, ,-57, ,
-1, ,-57, ,
1, ,-58, ,
1, ,-56, ,
1, ,-57, ,
-1, ,-57, ,
1, ,-56, ,
-1, ,-57, ,
1, ,-57, ,
1, ,-56, ,
1, ,-57, ,
-1, ,-57, ,
1, ,-56, ,
-1, ,-56, ,
-1, ,-57, ,
1, ,-56, ,
1, ,-57, ,
-1, ,-57, ,
2, ,-56, ,
-1, ,-56, ,
-1, ,-57, ,
1, ,-56, ,
1, ,-57, ,
-1, ,-57, ,
2, ,-56, ,
-1, ,-57, ,
1, ,-57, ,
1, ,-56, ,
1, ,-57, ,
-1, ,-57, ,
1, ,-56, ,
-1, ,-56, ,
-1, ,-57, ,
1, ,-47, ,
2, ,-27, ,
-1, ,-12, ,
2, ,1, ,
1, ,11, ,
1, ,17, ,
1, ,22, ,
1, ,26, ,
-1, ,30, ,
1, ,32, ,
-1, ,33, ,
-1, ,34, ,
1, ,35, ,
-1, ,35, ,
-1, ,36, ,
2, ,36, ,
-1, ,36, ,
-1, ,37, ,
2, ,37, ,
1, ,37, ,
-1, ,37, ,
2, ,37, ,
1, ,37, ,
-1, ,37, ,
1, ,37, ,
1, ,37, ,
-1, ,37, ,
2, ,37, ,
-1, ,37, ,
-1, ,37, ,
2, ,36, ,
1, ,37, ,
-1, ,37, ,
1, ,36, ,
-1, ,36, ,
-1, ,37, ,
1, ,37, ,
1, ,37, ,
-1, ,37, ,
1, ,37, ,
-1, ,37, ,
-1, ,37, ,
1, ,36, ,
88, ,36, ,
53, ,37, ,
34, ,37, ,
21, ,37, ,
13, ,37, ,
10, ,36, ,
6, ,36, ,
3, ,36, ,
5, ,36, ,
2, ,36, ,
2, ,37, ,
3, ,36, ,
2, ,36, ,
2, ,37, ,
3, ,36, ,
2, ,36, ,
2, ,37, ,
3, ,37, ,
3, ,36, ,
2, ,37, ,
3, ,36, ,
2, ,36, ,
2, ,37, ,
3, ,36, ,
3, ,36, ,
1, ,37, ,
3, ,36, ,
2, ,36, ,
2, ,37, ,
3, ,36, ,
3, ,36, ,
2, ,37, ,
2, ,36, ,
2, ,36, ,
2, ,37, ,
2, ,36, ,
2, ,37, ,
1, ,37, ,
3, ,36, ,
2, ,36, ,
2, ,37, ,
2, ,36, ,
2, ,36, ,
1, ,36, ,
3, ,36, ,
2, ,36, ,
2, ,37, ,
2, ,36, ,
2, ,36, ,
1, ,37, ,
2, ,36, ,
2, ,36, ,
2, ,37, ,
3, ,36, ,
2, ,36, ,
2, ,36, ,
2, ,36, ,
2, ,36, ,
2, ,37, ,
2, ,36, ,
2, ,36, ,
1, ,37, ,
3, ,36, ,
2, ,36, ,
2, ,37, ,
2, ,36, ,
2, ,36, ,
13, ,36, ,
16, ,36, ,
10, ,36, ,
7, ,37, ,
7, ,36, ,
6, ,36, ,
3, ,37, ,
5, ,36, ,
2, ,36, ,
2, ,37, ,
3, ,36, ,
2, ,36, ,
2, ,36, ,
3, ,36, ,
2, ,36, ,
2, ,37, ,
3, ,36, ,
3, ,36, ,
2, ,37, ,
3, ,36, ,
2, ,36, ,
2, ,37, ,
3, ,36, ,
2, ,36, ,
2, ,36, ,
3, ,36, ,
2, ,36, ,
2, ,37, ,
3, ,36, ,
3, ,36, ,
2, ,37, ,
3, ,36, ,
2, ,36, ,
2, ,36, ,
2, ,36, ,
3, ,36, ,
2, ,36, ,
3, ,36, ,
2, ,36, ,
2, ,37, ,
3, ,36, ,
2, ,36, ,
1, ,37, ,
3, ,36, ,
2, ,34, ,
1, ,17, ,
2, ,-2, ,
2, ,-16, ,
2, ,-26, ,
2, ,-35, ,
2, ,-40, ,
2, ,-45, ,
2, ,-47, ,
2, ,-51, ,
1, ,-53, ,
2, ,-53, ,
2, ,-55, ,
2, ,-57, ,
3, ,-55, ,
2, ,-57, ,
2, ,-57, ,
2, ,-57, ,
2, ,-57, ,
2, ,-58, ,
3, ,-57, ,
3, ,-58, ,
1, ,-58, ,
3, ,-57, ,
2, ,-57, ,
2, ,-58, ,
3, ,-56, ,
3, ,-57, ,
1, ,-58, ,
3, ,-57, ,
2, ,-57, ,
2, ,-58, ,
2, ,-57, ,
2, ,-57, ,
1, ,-58, ,
3, ,-57, ,
2, ,-57, ,
2, ,-58, ,
2, ,-56, ,
2, ,-57, ,
2, ,-57, ,
3, ,-56, ,
1, ,-57, ,
2, ,-58, ,
2, ,-56, ,
2, ,-57, ,
1, ,-57, ,
3, ,-57, ,
2, ,-56, ,
2, ,-57, ,
2, ,-56, ,
2, ,-57, ,
1, ,-57, ,
2, ,-56, ,
2, ,-56, ,
2, ,-58, ,
2, ,-56, ,
2, ,-57, ,
1, ,-57, ,
3, ,-56, ,
1, ,-57, ,
2, ,-57, ,
2, ,-56, ,
2, ,-57, ,
1, ,-57, ,
3, ,-56, ,
1, ,-57, ,
2, ,-57, ,
2, ,-56, ,
2, ,-57, ,
1, ,-57, ,
2, ,-56, ,
2, ,-57, ,
2, ,-57, ,
2, ,-56, ,
2, ,-57, ,
1, ,-57, ,
3, ,-57, ,
1, ,-57, ,
2, ,-57, ,
2, ,-56, ,
2, ,-57, ,
1, ,-57, ,
2, ,-56, ,
1, ,-57, ,
2, ,-57, ,
2, ,-55, ,
2, ,-57, ,
1, ,-57, ,
2, ,-56, ,
1, ,-57, ,
2, ,-57, ,
2, ,-56, ,
2, ,-57, ,
1, ,-57, ,
3, ,-56, ,
1, ,-57, ,
2, ,-57, ,
2, ,-56, ,
2, ,-57, ,
1, ,-57, ,
2, ,-56, ,
1, ,-57, ,
2, ,-57, ,
2, ,-56, ,
2, ,-57, ,
1, ,-57, ,
3, ,-56, ,
1, ,-56, ,
2, ,-57, ,
2, ,-56, ,
2, ,-57, ,
1, ,-57, ,
2, ,-56, ,
1, ,-57, ,
2, ,-57, ,
2, ,-56, ,
2, ,-57, ,
1, ,-57, ,
3, ,-56, ,
1, ,-57, ,
2, ,-57, ,
2, ,-56, ,
2, ,-57, ,
1, ,-57, ,
2, ,-57, ,
1, ,-57, ,
1, ,-57, ,
2, ,-56, ,
2, ,-57, ,
1, ,-57, ,
3, ,-56, ,
1, ,-56, ,
2, ,-57, ,
2, ,-56, ,
2, ,-57, ,
1, ,-57, ,
2, ,-56, ,
1, ,-56, ,
2, ,-58, ,
2, ,-56, ,
1, ,-57, ,
1, ,-57, ,
3, ,-56, ,
1, ,-56, ,
1, ,-58, ,
2, ,-56, ,
2, ,-57, ,
1, ,-57, ,
2, ,-56, ,
1, ,-56, ,
2, ,-57, ,
2, ,-56, ,
2, ,-57, ,
1, ,-57, ,
2, ,-56, ,
1, ,-57, ,
2, ,-58, ,
2, ,-56, ,
2, ,-57, ,
1, ,-57, ,
2, ,-56, ,
1, ,-56, ,
2, ,-57, ,
2, ,-56, ,
2, ,-57, ,
1, ,-57, ,
2, ,-56, ,
1, ,-57, ,
1, ,-57, ,
2, ,-56, ,
2, ,-57, ,
1, ,-57, ,
2, ,-56, ,
1, ,-57, ,
2, ,-57, ,
2, ,-56, ,
2, ,-57, ,
1, ,-57, ,
2, ,-56, ,
1, ,-57, ,
1, ,-57, ,
2, ,-56, ,
2, ,-57, ,
1, ,-57, ,
2, ,-56, ,
1, ,-56, ,
1, ,-57, ,
2, ,-56, ,
2, ,-57, ,
1, ,-57, ,
2, ,-56, ,
1, ,-56, ,
1, ,-58, ,
2, ,-56, ,
1, ,-56, ,
-1, ,-57, ,
2, ,-57, ,
1, ,-57, ,
1, ,-57, ,
2, ,-56, ,
2, ,-57, ,
1, ,-57, ,
3, ,-56, ,
1, ,-56, ,
2, ,-57, ,
2, ,-56, ,
1, ,-57, ,
1, ,-57, ,
2, ,-56, ,
1, ,-57, ,
1, ,-57, ,
2, ,-56, ,
1, ,-57, ,
-1, ,-57, ,
2, ,-56, ,
1, ,-56, ,
1, ,-57, ,
2, ,-55, ,
2, ,-57, ,
-1, ,-57, ,
2, ,-56, ,
1, ,-56, ,
1, ,-57, ,
2, ,-56, ,
2, ,-57, ,
-1, ,-57, ,
2, ,-57, ,
1, ,-56, ,
2, ,-58, ,
2, ,-56, ,
1, ,-57, ,
1, ,-57, ,
2, ,-56, ,
1, ,-56, ,
2, ,-57, ,
2, ,-56, ,
1, ,-57, ,
-1, ,-57, ,
2, ,-56, ,
1, ,-56, ,
1, ,-57, ,
1, ,-55, ,
1, ,-57, ,
1, ,-57, ,
2, ,-56, ,
1, ,-56, ,
1, ,-57, ,
2, ,-56, ,
2, ,-57, ,
-1, ,-57, ,
2, ,-56, ,
1, ,-56, ,
1, ,-57, ,
2, ,-55, ,
2, ,-57, ,
-1, ,-57, ,
2, ,-57, ,
1, ,-57, ,
1, ,-57, ,
2, ,-56, ,
2, ,-57, ,
-1, ,-57, ,
2, ,-56, ,
1, ,-56, ,
1, ,-57, ,
1, ,-56, ,
2, ,-57, ,
1, ,-57, ,
2, ,-56, ,
1, ,-56, ,
1, ,-57, ,
1, ,-56, ,
2, ,-57, ,
-1, ,-57, ,
2, ,-56, ,
1, ,-57, ,
1, ,-57, ,
2, ,-56, ,
2, ,-57, ,
1, ,-57, ,
2, ,-56, ,
1, ,-56, ,
1, ,-57, ,
2, ,-56, ,
2, ,-57, ,
-1, ,-57, ,
2, ,-56, ,
1, ,-57, ,
1, ,-58, ,
1, ,-56, ,
1, ,-56, ,
-1, ,-57, ,
2, ,-56, ,
1, ,-56, ,
1, ,-57, ,
1, ,-55, ,
2, ,-57, ,
-1, ,-57, ,
2, ,-56, ,
1, ,-56, ,
1, ,-57, ,
2, ,-55, ,
1, ,-57, ,
-1, ,-57, ,
2, ,-57, ,
1, ,-56, ,
1, ,-57, ,
2, ,-56, ,
1, ,-57, ,
-1, ,-57, ,
2, ,-56, ,
1, ,-56, ,
1, ,-57, ,
2, ,-56, ,
1, ,-57, ,
-1, ,-57, ,
2, ,-57, ,
1, ,-56, ,
1, ,-57, ,
1, ,-56, ,
1, ,-57, ,
-1, ,-57, ,
2, ,-56, ,
1, ,-56, ,
1, ,-57, ,
2, ,-56, ,
2, ,-57, ,
-1, ,-57, ,
2, ,-57, ,
1, ,-56, ,
1, ,-57, ,
1, ,-56, ,
1, ,-57, ,
-1, ,-57, ,
2, ,-56, ,
-1, ,-56, ,
1, ,-57, ,
1, ,-55, ,
1, ,-56, ,
-1, ,-57, ,
2, ,-56, ,
1, ,-56, ,
1, ,-57, ,
1, ,-56, ,
2, ,-57, ,
-1, ,-57, ,
2, ,-56, ,
1, ,-56, ,
1, ,-58, ,
1, ,-56, ,
1, ,-57, ,
-1, ,-57, ,
2, ,-57, ,
1, ,-57, ,
1, ,-57, ,
1, ,-56, ,
1, ,-57, ,
-1, ,-57, ,
2, ,-56, ,
1, ,-56, ,
1, ,-57, ,
1, ,-55, ,
1, ,-56, ,
-1, ,-57, ,
2, ,-56, ,
-1, ,-56, ,
1, ,-57, ,
1, ,-56, ,
1, ,-57, ,
-1, ,-57, ,
2, ,-56, ,
1, ,-56, ,
1, ,-57, ,
1, ,-56, ,
1, ,-57, ,
-1, ,-57, ,
2, ,-56, ,
1, ,-56, ,
1, ,-57, ,
1, ,-56, ,
1, ,-57, ,
-1, ,-57, ,
1, ,-56, ,
-1, ,-56, ,
1, ,-57, ,
1, ,-55, ,
1, ,-57, ,
-1, ,-57, ,
2, ,-57, ,
1, ,-56, ,
1, ,-57, ,
2, ,-57, ,
2, ,-57, ,
-1, ,-57, ,
2, ,-57, ,
1, ,-56, ,
1, ,-58, ,
2, ,-55, ,
1, ,-57, ,
-1, ,-57, ,
2, ,-56, ,
-1, ,-56, ,
1, ,-57, ,
2, ,-56, ,
2, ,-57, ,
-1, ,-57, ,
2, ,-56, ,
1, ,-56, ,
1, ,-57, ,
2, ,-56, ,
2, ,-57, ,
-1, ,-57, ,
2, ,-57, ,
1, ,-56, ,
1, ,-57, ,
1, ,-56, ,
1, ,-57, ,
-1, ,-57, ,
2, ,-56, ,
1, ,-56, ,
1, ,-57, ,
2, ,-55, ,
2, ,-56, ,
-1, ,-57, ,
2, ,-56, ,
-1, ,-56, ,
1, ,-58, ,
1, ,-56, ,
1, ,-57, ,
-1, ,-57, ,
2, ,-56, ,
1, ,-56, ,
1, ,-58, ,
1, ,-56, ,
1, ,-57, ,
-1, ,-57, ,
2, ,-57, ,
1, ,-56, ,
1, ,-57, ,
1, ,-56, ,
1, ,-56, ,
-1, ,-57, ,
2, ,-56, ,
1, ,-56, ,
1, ,-57, ,
1, ,-55, ,
1, ,-56, ,
-1, ,-57, ,
2, ,-57, ,
1, ,-57, ,
1, ,-57, ,
1, ,-56, ,
1, ,-57, ,
-1, ,-57, ,
2, ,-56, ,
1, ,-56, ,
1, ,-57, ,
1, ,-56, ,
1, ,-57, ,
-1, ,-57, ,
2, ,-56, ,
-1, ,-56, ,
1, ,-58, ,
1, ,-56, ,
1, ,-57, ,
-1, ,-57, ,
2, ,-57, ,
-1, ,-57, ,
1, ,-57, ,
1, ,-56, ,
1, ,-57, ,
-1, ,-57, ,
2, ,-56, ,
-1, ,-56, ,
1, ,-57, ,
1, ,-56, ,
1, ,-57, ,
-1, ,-57, ,
2, ,-56, ,
-1, ,-56, ,
1, ,-57, ,
1, ,-56, ,
1, ,-57, ,
-1, ,-57, ,
2, ,-56, ,
