src/varyamp_1560/temp0005054.CSV

Format,1.0B,
Memory Length,10000,Memory Length,10000,
IntpDistance,0,IntpDistance,0,
Trigger Address,4999,Trigger Address,4999,
Trigger Level,1.040E+00,Trigger Level,1.040E+00,
Source,CH1,Source,CH2,
Vertical Units,V,Vertical Units,V,
Vertical Units Div,0,Vertical Units Div,0,
Vertical Units Extend Div,16,Vertical Units Extend Div,16,
Label,,Label,,
Probe Type,0,Probe Type,0,
Probe Ratio,1.000e+01,Probe Ratio,1.000e+00,
Vertical Scale,5.000e-01,Vertical Scale,1.000e+00,
Vertical Position,-1.820e+00,Vertical Position,0.000e+00,
Horizontal Units,S,Horizontal Units,S,
Horizontal Scale,2.000E-05,Horizontal Scale,2.000E-05,
Horizontal Position,0.000E+00,Horizontal Position,0.000E+00,
Horizontal Mode,Main,Horizontal Mode,Main,
SincET Mode,Real Time,SincET Mode,Real Time,
Sampling Period,2.000e-08,Sampling Period,2.000e-08,
Horizontal Old Scale,2.000E-05,Horizontal Old Scale,2.000E-05,
Horizontal Old Position,0.000E+00,Horizontal Old Position,0.000E+00,
Firmware,V1.23,Firmware,V1.23,
Mode,Fast,Mode,Fast,
Waveform Data,,Waveform Data,,
-1, ,-36, ,
1, ,-36, ,
1, ,-36, ,
1, ,-36, ,
1, ,-36, ,
1, ,-36, ,
-1, ,-36, ,
2, ,-36, ,
-1, ,-36, ,
1, ,-36, ,
1, ,-36, ,
1, ,-36, ,
-1, ,-36, ,
2, ,-36, ,
1, ,-36, ,
1, ,-36, ,
1, ,-36, ,
1, ,-36, ,
-1, ,-36, ,
1, ,-36, ,
-1, ,-36, ,
1, ,-36, ,
1, ,-36, ,
1, ,-36, ,
-1, ,-36, ,
1, ,-36, ,
1, ,-36, ,
1, ,-36, ,
1, ,-36, ,
1, ,-36, ,
-1, ,-36, ,
2, ,-36, ,
1, ,-36, ,
1, ,-36, ,
1, ,-36, ,
1, ,-36, ,
-1, ,-36, ,
2, ,-36, ,
1, ,-36, ,
1, ,-36, ,
1, ,-36, ,
1, ,-36, ,
83, ,-36, ,
55, ,-36, ,
32, ,-36, ,
21, ,-36, ,
13, ,-36, ,
10, ,-36, ,
5, ,-36, ,
6, ,-36, ,
3, ,-36, ,
3, ,-36, ,
3, ,-36, ,
2, ,-36, ,
1, ,-36, ,
3, ,-36, ,
2, ,-36, ,
3, ,-36, ,
3, ,-37, ,
3, ,-36, ,
2, ,-36, ,
3, ,-36, ,
2, ,-36, ,
2, ,-36, ,
3, ,-36, ,
3, ,-36, ,
2, ,-36, ,
3, ,-36, ,
2, ,-36, ,
2, ,-36, ,
3, ,-36, ,
3, ,-36, ,
2, ,-36, ,
3, ,-36, ,
2, ,-36, ,
2, ,-36, ,
2, ,-36, ,
3, ,-36, ,
1, ,-36, ,
3, ,-36, ,
2, ,-36, ,
2, ,-36, ,
2, ,-36, ,
3, ,-36, ,
1, ,-36, ,
3, ,-36, ,
2, ,-36, ,
2, ,-36, ,
3, ,-36, ,
3, ,-36, ,
2, ,-36, ,
3, ,-36, ,
2, ,-36, ,
2, ,-36, ,
2, ,-36, ,
3, ,-36, ,
1, ,-36, ,
3, ,-36, ,
2, ,-36, ,
2, ,-36, ,
2, ,-36, ,
2, ,-36, ,
1, ,-36, ,
3, ,-36, ,
2, ,-36, ,
2, ,-36, ,
2, ,-36, ,
2, ,-36, ,
1, ,-36, ,
3, ,-36, ,
2, ,-36, ,
2, ,-36, ,
2, ,-36, ,
3, ,-36, ,
2, ,-36, ,
3, ,-36, ,
2, ,-36, ,
2, ,-36, ,
2, ,-36, ,
3, ,-36, ,
1, ,-36, ,
3, ,-36, ,
2, ,-36, ,
2, ,-36, ,
2, ,-36, ,
2, ,-36, ,
1, ,-36, ,
3, ,-36, ,
1, ,-36, ,
2, ,-36, ,
2, ,-36, ,
2, ,-36, ,
1, ,-36, ,
2, ,-36, ,
2, ,-36, ,
2, ,-36, ,
2, ,-36, ,
2, ,-36, ,
1, ,-36, ,
3, ,-36, ,
1, ,-36, ,
2, ,-36, ,
2, ,-36, ,
2, ,-36, ,
1, ,-36, ,
2, ,-36, ,
2, ,-36, ,
2, ,-36, ,
2, ,-36, ,
2, ,-36, ,
1, ,-36, ,
3, ,-36, ,
1, ,-36, ,
2, ,-36, ,
2, ,-36, ,
2, ,-36, ,
1, ,-36, ,
3, ,-36, ,
2, ,-36, ,
2, ,-36, ,
2, ,-36, ,
2, ,-36, ,
1, ,-36, ,
3, ,-36, ,
2, ,-36, ,
2, ,-36, ,
2, ,-36, ,
2, ,-36, ,
1, ,-36, ,
2, ,-36, ,
1, ,-36, ,
2, ,-36, ,
2, ,-36, ,
2, ,-36, ,
1, ,-36, ,
3, ,-36, ,
2, ,-36, ,
2, ,-36, ,
2, ,-36, ,
2, ,-36, ,
1, ,-36, ,
2, ,-36, ,
2, ,-36, ,
2, ,-36, ,
2, ,-36, ,
2, ,-36, ,
1, ,-36, ,
2, ,-36, ,
1, ,-36, ,
1, ,-36, ,
2, ,-36, ,
2, ,-36, ,
1, ,-36, ,
2, ,-36, ,
1, ,-36, ,
2, ,-36, ,
2, ,-36, ,
2, ,-36, ,
1, ,-36, ,
2, ,-37, ,
1, ,-36, ,
2, ,-36, ,
2, ,-36, ,
1, ,-36, ,
1, ,-36, ,
2, ,-36, ,
1, ,-36, ,
2, ,-36, ,
2, ,-36, ,
1, ,-36, ,
1, ,-36, ,
2, ,-36, ,
1, ,-36, ,
2, ,-36, ,
2, ,-36, ,
2, ,-36, ,
1, ,-36, ,
2, ,-36, ,
1, ,-36, ,
1, ,-36, ,
2, ,-36, ,
2, ,-36, ,
1, ,-36, ,
3, ,-36, ,
1, ,-36, ,
2, ,-36, ,
2, ,-36, ,
2, ,-36, ,
1, ,-36, ,
2, ,-36, ,
1, ,-36, ,
2, ,-36, ,
2, ,-36, ,
2, ,-36, ,
1, ,-36, ,
2, ,-36, ,
1, ,-36, ,
1, ,-36, ,
2, ,-36, ,
2, ,-36, ,
1, ,-36, ,
2, ,-36, ,
1, ,-36, ,
2, ,-36, ,
2, ,-36, ,
2, ,-36, ,
1, ,-36, ,
2, ,-37, ,
1, ,-36, ,
2, ,-36, ,
2, ,-36, ,
2, ,-36, ,
1, ,-36, ,
2, ,-36, ,
1, ,-36, ,
1, ,-36, ,
2, ,-36, ,
2, ,-36, ,
1, ,-36, ,
2, ,-36, ,
1, ,-36, ,
2, ,-36, ,
2, ,-36, ,
2, ,-36, ,
1, ,-36, ,
2, ,-36, ,
1, ,-36, ,
2, ,-36, ,
2, ,-36, ,
2, ,-36, ,
1, ,-36, ,
2, ,-36, ,
1, ,-36, ,
2, ,-36, ,
2, ,-36, ,
2, ,-36, ,
1, ,-36, ,
2, ,-36, ,
1, ,-36, ,
2, ,-36, ,
2, ,-36, ,
2, ,-36, ,
1, ,-36, ,
2, ,-36, ,
1, ,-36, ,
1, ,-36, ,
2, ,-36, ,
2, ,-36, ,
1, ,-36, ,
2, ,-36, ,
1, ,-36, ,
1, ,-36, ,
2, ,-36, ,
1, ,-36, ,
1, ,-36, ,
2, ,-36, ,
1, ,-36, ,
2, ,-36, ,
2, ,-36, ,
2, ,-36, ,
1, ,-36, ,
2, ,-36, ,
1, ,-36, ,
2, ,-36, ,
2, ,-36, ,
2, ,-36, ,
1, ,-36, ,
2, ,-27, ,
1, ,-8, ,
2, ,8, ,
2, ,21, ,
2, ,31, ,
1, ,37, ,
2, ,43, ,
1, ,45, ,
2, ,50, ,
2, ,52, ,
1, ,53, ,
1, ,54, ,
2, ,55, ,
1, ,55, ,
1, ,56, ,
2, ,56, ,
1, ,57, ,
-1, ,57, ,
2, ,57, ,
1, ,57, ,
1, ,57, ,
2, ,57, ,
1, ,57, ,
1, ,57, ,
2, ,57, ,
1, ,57, ,
1, ,57, ,
2, ,57, ,
1, ,57, ,
-1, ,57, ,
2, ,57, ,
1, ,57, ,
1, ,57, ,
1, ,57, ,
1, ,57, ,
1, ,57, ,
2, ,57, ,
1, ,57, ,
1, ,57, ,
2, ,57, ,
1, ,57, ,
1, ,57, ,
2, ,57, ,
1, ,56, ,
1, ,57, ,
2, ,57, ,
1, ,57, ,
1, ,57, ,
2, ,57, ,
1, ,57, ,
1, ,57, ,
2, ,57, ,
1, ,57, ,
1, ,57, ,
2, ,57, ,
1, ,57, ,
1, ,57, ,
2, ,57, ,
1, ,57, ,
1, ,57, ,
2, ,57, ,
1, ,56, ,
1, ,57, ,
2, ,57, ,
1, ,57, ,
1, ,57, ,
2, ,57, ,
1, ,56, ,
1, ,57, ,
2, ,57, ,
1, ,57, ,
1, ,57, ,
2, ,57, ,
1, ,56, ,
1, ,57, ,
2, ,57, ,
1, ,57, ,
1, ,57, ,
2, ,57, ,
1, ,56, ,
1, ,57, ,
2, ,57, ,
1, ,57, ,
1, ,57, ,
2, ,57, ,
1, ,56, ,
1, ,57, ,
2, ,57, ,
1, ,57, ,
1, ,57, ,
2, ,57, ,
1, ,56, ,
1, ,57, ,
2, ,57, ,
1, ,57, ,
1, ,57, ,
2, ,57, ,
1, ,57, ,
1, ,57, ,
2, ,57, ,
1, ,57, ,
1, ,57, ,
2, ,57, ,
1, ,56, ,
1, ,57, ,
1, ,57, ,
1, ,57, ,
1, ,57, ,
2, ,57, ,
1, ,57, ,
1, ,57, ,
2, ,57, ,
2, ,57, ,
1, ,56, ,
2, ,57, ,
1, ,56, ,
1, ,57, ,
2, ,57, ,
2, ,57, ,
58, ,57, ,
38, ,57, ,
22, ,56, ,
15, ,57, ,
10, ,57, ,
6, ,57, ,
5, ,57, ,
5, ,57, ,
3, ,56, ,
2, ,56, ,
3, ,57, ,
2, ,57, ,
2, ,57, ,
3, ,57, ,
2, ,56, ,
2, ,57, ,
3, ,57, ,
2, ,57, ,
1, ,57, ,
3, ,57, ,
2, ,56, ,
2, ,57, ,
3, ,57, ,
2, ,57, ,
2, ,57, ,
3, ,57, ,
2, ,56, ,
2, ,57, ,
3, ,57, ,
2, ,56, ,
2, ,57, ,
3, ,57, ,
2, ,56, ,
2, ,57, ,
3, ,57, ,
2, ,56, ,
2, ,39, ,
3, ,20, ,
1, ,6, ,
1, ,-5, ,
3, ,-14, ,
2, ,-19, ,
1, ,-23, ,
3, ,-26, ,
2, ,-30, ,
2, ,-32, ,
3, ,-33, ,
2, ,-34, ,
1, ,-35, ,
3, ,-35, ,
2, ,-36, ,
2, ,-36, ,
2, ,-36, ,
3, ,-36, ,
1, ,-36, ,
2, ,-37, ,
1, ,-37, ,
2, ,-37, ,
2, ,-37, ,
2, ,-37, ,
1, ,-37, ,
3, ,-37, ,
2, ,-37, ,
2, ,-37, ,
2, ,-37, ,
2, ,-37, ,
1, ,-37, ,
3, ,-37, ,
2, ,-37, ,
2, ,-37, ,
2, ,-36, ,
2, ,-37, ,
1, ,-36, ,
3, ,-37, ,
2, ,-36, ,
2, ,-36, ,
2, ,-37, ,
2, ,-36, ,
1, ,-37, ,
3, ,-37, ,
2, ,-37, ,
2, ,-36, ,
2, ,-36, ,
2, ,-36, ,
1, ,-36, ,
3, ,-37, ,
2, ,-36, ,
2, ,-36, ,
2, ,-36, ,
2, ,-36, ,
1, ,-36, ,
3, ,-36, ,
2, ,-36, ,
2, ,-36, ,
2, ,-36, ,
2, ,-36, ,
1, ,-36, ,
3, ,-37, ,
2, ,-36, ,
2, ,-36, ,
3, ,-36, ,
2, ,-36, ,
1, ,-36, ,
3, ,-37, ,
2, ,-36, ,
2, ,-36, ,
2, ,-36, ,
2, ,-36, ,
1, ,-36, ,
3, ,-36, ,
2, ,-36, ,
2, ,-36, ,
2, ,-36, ,
2, ,-36, ,
1, ,-36, ,
3, ,-36, ,
1, ,-36, ,
2, ,-36, ,
2, ,-36, ,
2, ,-36, ,
1, ,-36, ,
2, ,-36, ,
1, ,-36, ,
2, ,-36, ,
2, ,-36, ,
2, ,-36, ,
1, ,-36, ,
2, ,-36, ,
1, ,-36, ,
2, ,-36, ,
2, ,-36, ,
2, ,-36, ,
1, ,-36, ,
2, ,-36, ,
1, ,-36, ,
2, ,-36, ,
2, ,-36, ,
2, ,-36, ,
1, ,-36, ,
2, ,-36, ,
2, ,-36, ,
2, ,-36, ,
2, ,-36, ,
2, ,-36, ,
1, ,-36, ,
2, ,-36, ,
1, ,-36, ,
2, ,-36, ,
2, ,-36, ,
2, ,-36, ,
1, ,-36, ,
2, ,-36, ,
1, ,-36, ,
2, ,-36, ,
2, ,-36, ,
2, ,-36, ,
1, ,-36, ,
2, ,-36, ,
1, ,-36, ,
2, ,-36, ,
2, ,-36, ,
2, ,-36, ,
1, ,-36, ,
31, ,-36, ,
29, ,-36, ,
18, ,-36, ,
12, ,-36, ,
8, ,-36, ,
6, ,-36, ,
7, ,-36, ,
5, ,-36, ,
3, ,-36, ,
3, ,-36, ,
2, ,-36, ,
2, ,-36, ,
3, ,-36, ,
2, ,-36, ,
2, ,-36, ,
2, ,-36, ,
3, ,-36, ,
2, ,-36, ,
3, ,-36, ,
2, ,-36, ,
2, ,-37, ,
3, ,-36, ,
2, ,-36, ,
1, ,-36, ,
3, ,-36, ,
2, ,-36, ,
2, ,-36, ,
3, ,-36, ,
2, ,-36, ,
1, ,-36, ,
3, ,-36, ,
2, ,-36, ,
2, ,-36, ,
2, ,-36, ,
3, ,-36, ,
1, ,-36, ,
3, ,-36, ,
2, ,-36, ,
2, ,-36, ,
3, ,-36, ,
3, ,-36, ,
1, ,-36, ,
3, ,-36, ,
2, ,-36, ,
2, ,-36, ,
2, ,-36, ,
2, ,-36, ,
1, ,-36, ,
3, ,-36, ,
2, ,-36, ,
2, ,-36, ,
2, ,-36, ,
3, ,-36, ,
2, ,-36, ,
3, ,-36, ,
2, ,-36, ,
2, ,-36, ,
2, ,-36, ,
3, ,-36, ,
1, ,-36, ,
3, ,-36, ,
2, ,-36, ,
2, ,-36, ,
2, ,-36, ,
3, ,-36, ,
1, ,-36, ,
3, ,-36, ,
2, ,-36, ,
2, ,-36, ,
2, ,-36, ,
2, ,-36, ,
1, ,-36, ,
3, ,-36, ,
2, ,-36, ,
2, ,-36, ,
2, ,-36, ,
2, ,-36, ,
1, ,-36, ,
3, ,-36, ,
2, ,-36, ,
2, ,-36, ,
2, ,-36, ,
3, ,-36, ,
1, ,-36, ,
3, ,-36, ,
2, ,-36, ,
2, ,-36, ,
2, ,-36, ,
3, ,-36, ,
1, ,-36, ,
3, ,-36, ,
2, ,-36, ,
2, ,-36, ,
2, ,-36, ,
2, ,-36, ,
1, ,-36, ,
3, ,-36, ,
2, ,-36, ,
2, ,-36, ,
3, ,-36, ,
2, ,-36, ,
1, ,-36, ,
3, ,-36, ,
2, ,-36, ,
2, ,-36, ,
2, ,-36, ,
2, ,-36, ,
1, ,-36, ,
2, ,-36, ,
1, ,-36, ,
2, ,-36, ,
2, ,-36, ,
2, ,-36, ,
1, ,-36, ,
3, ,-36, ,
2, ,-36, ,
2, ,-36, ,
3, ,-36, ,
2, ,-36, ,
1, ,-36, ,
2, ,-36, ,
1, ,-36, ,
2, ,-36, ,
2, ,-36, ,
2, ,-36, ,
1, ,-36, ,
2, ,-36, ,
1, ,-36, ,
2, ,-36, ,
2, ,-36, ,
2, ,-36, ,
1, ,-36, ,
3, ,-36, ,
2, ,-36, ,
2, ,-36, ,
2, ,-36, ,
2, ,-36, ,
1, ,-36, ,
2, ,-36, ,
1, ,-36, ,
1, ,-36, ,
2, ,-36, ,
2, ,-36, ,
1, ,-36, ,
3, ,-36, ,
2, ,-36, ,
1, ,-36, ,
2, ,-36, ,
2, ,-36, ,
1, ,-36, ,
2, ,-36, ,
1, ,-36, ,
1, ,-36, ,
2, ,-36, ,
2, ,-36, ,
1, ,-36, ,
2, ,-36, ,
1, ,-36, ,
2, ,-36, ,
2, ,-36, ,
2, ,-36, ,
1, ,-36, ,
3, ,-36, ,
1, ,-36, ,
2, ,-36, ,
2, ,-36, ,
2, ,-36, ,
1, ,-36, ,
2, ,-36, ,
1, ,-36, ,
2, ,-36, ,
2, ,-36, ,
2, ,-36, ,
1, ,-36, ,
2, ,-36, ,
1, ,-36, ,
1, ,-36, ,
2, ,-36, ,
2, ,-36, ,
1, ,-36, ,
2, ,-36, ,
1, ,-36, ,
1, ,-36, ,
2, ,-36, ,
2, ,-36, ,
1, ,-36, ,
2, ,-36, ,
1, ,-36, ,
2, ,-36, ,
2, ,-36, ,
2, ,-36, ,
1, ,-36, ,
2, ,-36, ,
1, ,-36, ,
2, ,-36, ,
2, ,-36, ,
2, ,-36, ,
1, ,-36, ,
2, ,-36, ,
1, ,-36, ,
2, ,-36, ,
2, ,-36, ,
2, ,-36, ,
1, ,-36, ,
2, ,-36, ,
1, ,-36, ,
2, ,-36, ,
2, ,-36, ,
2, ,-36, ,
1, ,-36, ,
2, ,-36, ,
1, ,-36, ,
2, ,-36, ,
2, ,-36, ,
2, ,-36, ,
1, ,-36, ,
2, ,-36, ,
1, ,-36, ,
2, ,-36, ,
2, ,-36, ,
2, ,-36, ,
1, ,-36, ,
2, ,-36, ,
1, ,-36, ,
2, ,-36, ,
2, ,-36, ,
1, ,-36, ,
1, ,-36, ,
5, ,-36, ,
40, ,-36, ,
27, ,-36, ,
18, ,-36, ,
12, ,-36, ,
8, ,-36, ,
7, ,-36, ,
5, ,-36, ,
3, ,-36, ,
5, ,-36, ,
3, ,-36, ,
2, ,-36, ,
3, ,-36, ,
2, ,-36, ,
2, ,-36, ,
2, ,-36, ,
2, ,-36, ,
1, ,-36, ,
3, ,-36, ,
2, ,-36, ,
2, ,-36, ,
2, ,-36, ,
2, ,-36, ,
2, ,-36, ,
3, ,-36, ,
2, ,-36, ,
2, ,-36, ,
3, ,-36, ,
3, ,-36, ,
1, ,-36, ,
3, ,-36, ,
2, ,-36, ,
2, ,-36, ,
2, ,-36, ,
2, ,-36, ,
1, ,-36, ,
3, ,-36, ,
2, ,-36, ,
2, ,-36, ,
2, ,-36, ,
3, ,-36, ,
1, ,-36, ,
3, ,-36, ,
2, ,-36, ,
2, ,-36, ,
2, ,-36, ,
3, ,-36, ,
1, ,-36, ,
3, ,-36, ,
2, ,-36, ,
2, ,-36, ,
2, ,-36, ,
2, ,-36, ,
1, ,-36, ,
3, ,-36, ,
2, ,-36, ,
2, ,-36, ,
3, ,-36, ,
2, ,-36, ,
1, ,-36, ,
3, ,-36, ,
2, ,-36, ,
2, ,-36, ,
2, ,-36, ,
3, ,-36, ,
2, ,-36, ,
3, ,-36, ,
2, ,-36, ,
2, ,-36, ,
2, ,-36, ,
2, ,-36, ,
1, ,-36, ,
3, ,-36, ,
2, ,-36, ,
2, ,-36, ,
2, ,-36, ,
2, ,-36, ,
1, ,-36, ,
3, ,-36, ,
2, ,-36, ,
2, ,-36, ,
3, ,-36, ,
2, ,-36, ,
1, ,-36, ,
3, ,-36, ,
2, ,-36, ,
1, ,-36, ,
2, ,-36, ,
2, ,-36, ,
1, ,-36, ,
3, ,-36, ,
2, ,-36, ,
2, ,-36, ,
2, ,-36, ,
2, ,-36, ,
1, ,-36, ,
3, ,-36, ,
2, ,-36, ,
2, ,-36, ,
2, ,-36, ,
2, ,-36, ,
1, ,-36, ,
3, ,-36, ,
2, ,-36, ,
2, ,-36, ,
2, ,-36, ,
2, ,-36, ,
1, ,-36, ,
3, ,-36, ,
2, ,-36, ,
2, ,-36, ,
2, ,-36, ,
2, ,-36, ,
1, ,-36, ,
3, ,-36, ,
2, ,-36, ,
2, ,-36, ,
2, ,-36, ,
2, ,-36, ,
1, ,-36, ,
3, ,-36, ,
2, ,-36, ,
2, ,-36, ,
2, ,-36, ,
2, ,-36, ,
1, ,-36, ,
2, ,-36, ,
1, ,-36, ,
2, ,-36, ,
2, ,-36, ,
2, ,-36, ,
1, ,-36, ,
3, ,-36, ,
2, ,-36, ,
2, ,-36, ,
2, ,-36, ,
2, ,-36, ,
1, ,-36, ,
2, ,-36, ,
1, ,-36, ,
2, ,-36, ,
2, ,-36, ,
2, ,-36, ,
1, ,-36, ,
3, ,-36, ,
1, ,-36, ,
2, ,-36, ,
2, ,-36, ,
2, ,-36, ,
1, ,-36, ,
2, ,-36, ,
1, ,-36, ,
2, ,-36, ,
2, ,-36, ,
2, ,-36, ,
1, ,-36, ,
2, ,-36, ,
1, ,-36, ,
1, ,-36, ,
2, ,-36, ,
1, ,-36, ,
1, ,-36, ,
2, ,-36, ,
1, ,-36, ,
2, ,-36, ,
2, ,-36, ,
2, ,-36, ,
1, ,-36, ,
2, ,-36, ,
2, ,-36, ,
2, ,-36, ,
2, ,-36, ,
2, ,-36, ,
1, ,-36, ,
2, ,-37, ,
1, ,-36, ,
1, ,-36, ,
2, ,-36, ,
2, ,-36, ,
1, ,-36, ,
2, ,-36, ,
1, ,-36, ,
1, ,-36, ,
2, ,-36, ,
2, ,-36, ,
1, ,-36, ,
2, ,-36, ,
2, ,-36, ,
1, ,-36, ,
2, ,-36, ,
2, ,-36, ,
1, ,-36, ,
2, ,-36, ,
1, ,-36, ,
1, ,-36, ,
2, ,-36, ,
2, ,-36, ,
1, ,-36, ,
2, ,-36, ,
1, ,-36, ,
1, ,-36, ,
2, ,-36, ,
2, ,-36, ,
1, ,-36, ,
2, ,-36, ,
1, ,-36, ,
2, ,-36, ,
2, ,-36, ,
2, ,-36, ,
1, ,-36, ,
2, ,-37, ,
1, ,-36, ,
2, ,-36, ,
2, ,-36, ,
2, ,-36, ,
1, ,-36, ,
2, ,-36, ,
2, ,-36, ,
2, ,-36, ,
2, ,-36, ,
2, ,-36, ,
1, ,-36, ,
2, ,-36, ,
1, ,-36, ,
1, ,-36, ,
2, ,-36, ,
2, ,-36, ,
1, ,-36, ,
2, ,-36, ,
1, ,-36, ,
2, ,-36, ,
2, ,-36, ,
2, ,-36, ,
1, ,-36, ,
2, ,-37, ,
1, ,-36, ,
1, ,-36, ,
2, ,-36, ,
2, ,-36, ,
1, ,-36, ,
2, ,-36, ,
1, ,-36, ,
2, ,-36, ,
2, ,-36, ,
2, ,-36, ,
1, ,-36, ,
2, ,-36, ,
1, ,-36, ,
2, ,-36, ,
2, ,-36, ,
2, ,-36, ,
1, ,-36, ,
2, ,-36, ,
1, ,-36, ,
2, ,-36, ,
2, ,-36, ,
2, ,-36, ,
1, ,-36, ,
2, ,-36, ,
1, ,-36, ,
2, ,-36, ,
2, ,-36, ,
2, ,-36, ,
1, ,-36, ,
2, ,-36, ,
1, ,-36, ,
1, ,-36, ,
2, ,-36, ,
2, ,-36, ,
1, ,-36, ,
2, ,-36, ,
1, ,-33, ,
2, ,-14, ,
2, ,4, ,
2, ,18, ,
1, ,27, ,
2, ,36, ,
1, ,41, ,
1, ,45, ,
2, ,49, ,
2, ,51, ,
1, ,53, ,
2, ,55, ,
1, ,55, ,
1, ,56, ,
2, ,56, ,
1, ,56, ,
1, ,57, ,
2, ,57, ,
1, ,57, ,
1, ,57, ,
2, ,57, ,
1, ,57, ,
1, ,57, ,
2, ,57, ,
1, ,57, ,
1, ,57, ,
2, ,57, ,
1, ,57, ,
1, ,57, ,
2, ,58, ,
1, ,56, ,
1, ,57, ,
2, ,57, ,
1, ,57, ,
1, ,57, ,
2, ,57, ,
1, ,57, ,
1, ,57, ,
2, ,57, ,
1, ,57, ,
-1, ,57, ,
2, ,57, ,
1, ,56, ,
1, ,57, ,
2, ,57, ,
1, ,57, ,
1, ,57, ,
2, ,57, ,
1, ,57, ,
1, ,57, ,
2, ,57, ,
1, ,57, ,
1, ,57, ,
2, ,57, ,
1, ,57, ,
1, ,57, ,
2, ,57, ,
1, ,57, ,
1, ,57, ,
2, ,57, ,
1, ,57, ,
1, ,57, ,
2, ,57, ,
1, ,57, ,
1, ,57, ,
2, ,57, ,
1, ,56, ,
1, ,57, ,
2, ,57, ,
1, ,57, ,
1, ,57, ,
2, ,57, ,
1, ,57, ,
1, ,57, ,
2, ,57, ,
1, ,57, ,
1, ,57, ,
2, ,57, ,
1, ,56, ,
1, ,57, ,
2, ,57, ,
1, ,57, ,
1, ,57, ,
2, ,57, ,
1, ,57, ,
1, ,57, ,
2, ,57, ,
1, ,57, ,
1, ,57, ,
2, ,57, ,
1, ,56, ,
1, ,57, ,
2, ,57, ,
1, ,57, ,
1, ,57, ,
2, ,57, ,
1, ,57, ,
1, ,56, ,
2, ,56, ,
1, ,57, ,
1, ,57, ,
2, ,57, ,
1, ,57, ,
1, ,57, ,
2, ,57, ,
1, ,57, ,
1, ,57, ,
2, ,57, ,
1, ,57, ,
1, ,57, ,
2, ,57, ,
1, ,57, ,
1, ,57, ,
2, ,57, ,
1, ,56, ,
1, ,57, ,
2, ,57, ,
1, ,57, ,
1, ,57, ,
2, ,57, ,
1, ,56, ,
1, ,57, ,
2, ,57, ,
1, ,57, ,
1, ,57, ,
2, ,57, ,
1, ,56, ,
1, ,57, ,
2, ,57, ,
1, ,57, ,
1, ,57, ,
2, ,57, ,
1, ,57, ,
1, ,57, ,
2, ,57, ,
1, ,57, ,
1, ,56, ,
2, ,57, ,
1, ,56, ,
1, ,57, ,
2, ,57, ,
1, ,57, ,
-1, ,57, ,
2, ,57, ,
1, ,56, ,
1, ,57, ,
2, ,57, ,
1, ,57, ,
-1, ,57, ,
2, ,57, ,
1, ,56, ,
1, ,57, ,
1, ,57, ,
1, ,57, ,
1, ,56, ,
2, ,44, ,
1, ,24, ,
1, ,8, ,
1, ,-3, ,
1, ,-12, ,
-1, ,-18, ,
1, ,-23, ,
1, ,-26, ,
1, ,-30, ,
1, ,-31, ,
1, ,-33, ,
-1, ,-34, ,
2, ,-35, ,
1, ,-35, ,
1, ,-36, ,
1, ,-36, ,
1, ,-36, ,
-1, ,-37, ,
1, ,-37, ,
1, ,-37, ,
1, ,-37, ,
1, ,-37, ,
1, ,-37, ,
-1, ,-37, ,
2, ,-37, ,
1, ,-37, ,
1, ,-37, ,
1, ,-37, ,
1, ,-37, ,
-1, ,-37, ,
2, ,-37, ,
1, ,-37, ,
1, ,-37, ,
1, ,-37, ,
1, ,-37, ,
-1, ,-37, ,
2, ,-37, ,
1, ,-37, ,
1, ,-37, ,
1, ,-37, ,
1, ,-37, ,
-1, ,-36, ,
2, ,-36, ,
1, ,-37, ,
1, ,-37, ,
1, ,-36, ,
1, ,-36, ,
-1, ,-36, ,
2, ,-37, ,
1, ,-36, ,
1, ,-36, ,
2, ,-36, ,
1, ,-36, ,
-1, ,-37, ,
2, ,-36, ,
1, ,-37, ,
1, ,-36, ,
2, ,-36, ,
1, ,-37, ,
-1, ,-36, ,
2, ,-37, ,
1, ,-36, ,
1, ,-36, ,
1, ,-36, ,
1, ,-36, ,
-1, ,-36, ,
2, ,-36, ,
1, ,-36, ,
1, ,-36, ,
2, ,-36, ,
2, ,-36, ,
-1, ,-36, ,
2, ,-36, ,
1, ,-36, ,
1, ,-36, ,
2, ,-36, ,
1, ,-36, ,
-1, ,-36, ,
2, ,-36, ,
1, ,-36, ,
1, ,-36, ,
2, ,-36, ,
1, ,-36, ,
-1, ,-36, ,
2, ,-36, ,
1, ,-36, ,
1, ,-36, ,
2, ,-36, ,
2, ,-36, ,
-1, ,-36, ,
2, ,-36, ,
1, ,-37, ,
1, ,-36, ,
2, ,-36, ,
1, ,-36, ,
-1, ,-36, ,
2, ,-36, ,
1, ,-36, ,
1, ,-36, ,
2, ,-36, ,
1, ,-36, ,
-1, ,-36, ,
2, ,-36, ,
1, ,-36, ,
1, ,-36, ,
1, ,-36, ,
1, ,-36, ,
-1, ,-36, ,
1, ,-36, ,
1, ,-36, ,
1, ,-36, ,
2, ,-36, ,
2, ,-36, ,
-1, ,-36, ,
2, ,-36, ,
1, ,-36, ,
1, ,-36, ,
1, ,-36, ,
1, ,-36, ,
-1, ,-36, ,
2, ,-36, ,
1, ,-36, ,
1, ,-36, ,
1, ,-36, ,
1, ,-36, ,
-1, ,-36, ,
1, ,-36, ,
1, ,-36, ,
1, ,-36, ,
1, ,-36, ,
1, ,-36, ,
-1, ,-36, ,
2, ,-37, ,
1, ,-36, ,
1, ,-36, ,
1, ,-36, ,
1, ,-36, ,
-1, ,-36, ,
2, ,-36, ,
1, ,-36, ,
1, ,-36, ,
1, ,-36, ,
1, ,-36, ,
-1, ,-36, ,
2, ,-36, ,
1, ,-36, ,
1, ,-36, ,
1, ,-36, ,
2, ,-36, ,
-1, ,-36, ,
1, ,-36, ,
-1, ,-36, ,
1, ,-36, ,
1, ,-36, ,
1, ,-36, ,
-1, ,-36, ,
2, ,-36, ,
-1, ,-36, ,
1, ,-36, ,
1, ,-36, ,
1, ,-36, ,
-1, ,-36, ,
2, ,-36, ,
1, ,-36, ,
1, ,-36, ,
1, ,-36, ,
1, ,-36, ,
-1, ,-36, ,
2, ,-36, ,
1, ,-36, ,
1, ,-36, ,
1, ,-36, ,
1, ,-36, ,
-1, ,-36, ,
2, ,-36, ,
1, ,-36, ,
1, ,-36, ,
1, ,-36, ,
2, ,-36, ,
-1, ,-36, ,
1, ,-36, ,
-1, ,-36, ,
1, ,-36, ,
1, ,-36, ,
1, ,-36, ,
-1, ,-36, ,
2, ,-36, ,
1, ,-36, ,
1, ,-36, ,
1, ,-36, ,
1, ,-36, ,
-1, ,-36, ,
2, ,-36, ,
1, ,-36, ,
1, ,-36, ,
2, ,-36, ,
2, ,-36, ,
-1, ,-36, ,
2, ,-36, ,
1, ,-36, ,
1, ,-36, ,
1, ,-36, ,
1, ,-36, ,
-1, ,-36, ,
2, ,-36, ,
-1, ,-36, ,
1, ,-36, ,
1, ,-36, ,
1, ,-36, ,
-1, ,-36, ,
2, ,-36, ,
1, ,-36, ,
1, ,-36, ,
1, ,-36, ,
1, ,-36, ,
-1, ,-36, ,
2, ,-36, ,
-1, ,-36, ,
1, ,-36, ,
2, ,-36, ,
1, ,-36, ,
-1, ,-36, ,
2, ,-36, ,
1, ,-36, ,
1, ,-36, ,
1, ,-36, ,
1, ,-36, ,
-1, ,-36, ,
2, ,-36, ,
-1, ,-36, ,
1, ,-36, ,
1, ,-36, ,
1, ,-36, ,
-1, ,-36, ,
1, ,-36, ,
-1, ,-36, ,
1, ,-36, ,
1, ,-36, ,
1, ,-36, ,
-1, ,-36, ,
2, ,-36, ,
-1, ,-36, ,
1, ,-36, ,
2, ,-36, ,
1, ,-36, ,
-1, ,-36, ,
2, ,-36, ,
-1, ,-36, ,
1, ,-36, ,
1, ,-36, ,
1, ,-36, ,
-1, ,-36, ,
1, ,-36, ,
-1, ,-36, ,
1, ,-36, ,
1, ,-36, ,
1, ,-36, ,
-1, ,-36, ,
1, ,-36, ,
-1, ,-37, ,
-1, ,-36, ,
1, ,-36, ,
1, ,-36, ,
-1, ,-36, ,
1, ,-36, ,
-1, ,-36, ,
-1, ,-36, ,
2, ,-36, ,
2, ,-36, ,
-1, ,-36, ,
2, ,-36, ,
1, ,-36, ,
1, ,-36, ,
1, ,-36, ,
1, ,-36, ,
-1, ,-36, ,
1, ,-36, ,
-1, ,-36, ,
1, ,-36, ,
1, ,-36, ,
1, ,-36, ,
-1, ,-36, ,
1, ,-36, ,
-1, ,-36, ,
1, ,-36, ,
1, ,-36, ,
1, ,-36, ,
-1, ,-36, ,
1, ,-36, ,
1, ,-36, ,
1, ,-36, ,
1, ,-36, ,
1, ,-36, ,
-1, ,-36, ,
1, ,-36, ,
-1, ,-36, ,
1, ,-36, ,
1, ,-36, ,
1, ,-36, ,
-1, ,-36, ,
1, ,-36, ,
-1, ,-36, ,
1, ,-36, ,
1, ,-36, ,
1, ,-36, ,
-1, ,-36, ,
2, ,-36, ,
1, ,-36, ,
1, ,-36, ,
1, ,-36, ,
1, ,-36, ,
-1, ,-36, ,
2, ,-36, ,
1, ,-36, ,
1, ,-36, ,
1, ,-36, ,
1, ,-36, ,
-1, ,-36, ,
2, ,-36, ,
-1, ,-36, ,
1, ,-36, ,
1, ,-36, ,
1, ,-36, ,
-1, ,-36, ,
1, ,-36, ,
-1, ,-36, ,
1, ,-36, ,
1, ,-36, ,
1, ,-36, ,
-1, ,-36, ,
2, ,-36, ,
1, ,-36, ,
1, ,-36, ,
1, ,-36, ,
1, ,-36, ,
-1, ,-36, ,
2, ,-36, ,
-1, ,-36, ,
1, ,-36, ,
1, ,-36, ,
1, ,-36, ,
-1, ,-36, ,
1, ,-36, ,
-1, ,-36, ,
-1, ,-36, ,
1, ,-36, ,
1, ,-36, ,
-1, ,-36, ,
2, ,-37, ,
1, ,-36, ,
1, ,-36, ,
1, ,-36, ,
1, ,-36, ,
-1, ,-36, ,
2, ,-36, ,
1, ,-36, ,
1, ,-36, ,
1, ,-36, ,
2, ,-36, ,
-1, ,-36, ,
1, ,-36, ,
-1, ,-36, ,
1, ,-36, ,
1, ,-36, ,
1, ,-36, ,
-1, ,-36, ,
2, ,-36, ,
-1, ,-36, ,
1, ,-36, ,
1, ,-36, ,
1, ,-36, ,
-1, ,-36, ,
2, ,-36, ,
1, ,-36, ,
1, ,-36, ,
1, ,-36, ,
1, ,-36, ,
-1, ,-36, ,
1, ,-36, ,
-1, ,-36, ,
1, ,-36, ,
1, ,-36, ,
1, ,-36, ,
-1, ,-36, ,
1, ,-36, ,
-1, ,-36, ,
1, ,-36, ,
1, ,-36, ,
1, ,-36, ,
-1, ,-36, ,
1, ,-36, ,
-1, ,-36, ,
1, ,-36, ,
1, ,-36, ,
1, ,-36, ,
-1, ,-36, ,
1, ,-36, ,
-1, ,-36, ,
-1, ,-36, ,
1, ,-36, ,
1, ,-36, ,
-1, ,-36, ,
1, ,-36, ,
-1, ,-36, ,
1, ,-36, ,
1, ,-36, ,
1, ,-36, ,
-1, ,-36, ,
1, ,-36, ,
-1, ,-36, ,
-1, ,-36, ,
1, ,-36, ,
1, ,-36, ,
-1, ,-36, ,
1, ,-36, ,
-1, ,-36, ,
1, ,-36, ,
1, ,-36, ,
1, ,-36, ,
-1, ,-36, ,
1, ,-36, ,
-1, ,-36, ,
-1, ,-36, ,
1, ,-36, ,
1, ,-36, ,
-1, ,-36, ,
1, ,-37, ,
-1, ,-36, ,
-1, ,-36, ,
1, ,-36, ,
1, ,-36, ,
-1, ,-36, ,
1, ,-36, ,
1, ,-36, ,
1, ,-36, ,
1, ,-36, ,
1, ,-36, ,
-1, ,-36, ,
2, ,-36, ,
-1, ,-36, ,
1, ,-36, ,
1, ,-36, ,
1, ,-36, ,
-1, ,-36, ,
1, ,-36, ,
-1, ,-36, ,
1, ,-36, ,
1, ,-36, ,
1, ,-36, ,
-1, ,-36, ,
2, ,-36, ,
-1, ,-36, ,
-1, ,-36, ,
1, ,-36, ,
1, ,-36, ,
-1, ,-36, ,
1, ,-36, ,
-1, ,-36, ,
-1, ,-36, ,
1, ,-36, ,
1, ,-36, ,
-1, ,-36, ,
2, ,-36, ,
-1, ,-36, ,
-1, ,-36, ,
1, ,-36, ,
1, ,-36, ,
-1, ,-36, ,
2, ,-36, ,
-1, ,-36, ,
1, ,-36, ,
1, ,-36, ,
1, ,-36, ,
-1, ,-36, ,
2, ,-36, ,
1, ,-36, ,
1, ,-36, ,
1, ,-36, ,
1, ,-36, ,
-1, ,-36, ,
2, ,-36, ,
-1, ,-36, ,
1, ,-36, ,
1, ,-36, ,
1, ,-36, ,
-1, ,-36, ,
1, ,-36, ,
-1, ,-36, ,
-1, ,-36, ,
1, ,-36, ,
1, ,-36, ,
-1, ,-36, ,
1, ,-36, ,
-1, ,-36, ,
