src/varyamp_1560/temp0003028.CSV

Format,1.0B,
Memory Length,10000,Memory Length,10000,
IntpDistance,0,IntpDistance,0,
Trigger Address,4999,Trigger Address,4999,
Trigger Level,1.040E+00,Trigger Level,1.040E+00,
Source,CH1,Source,CH2,
Vertical Units,V,Vertical Units,V,
Vertical Units Div,0,Vertical Units Div,0,
Vertical Units Extend Div,16,Vertical Units Extend Div,16,
Label,,Label,,
Probe Type,0,Probe Type,0,
Probe Ratio,1.000e+01,Probe Ratio,1.000e+00,
Vertical Scale,5.000e-01,Vertical Scale,1.000e+00,
Vertical Position,-1.820e+00,Vertical Position,0.000e+00,
Horizontal Units,S,Horizontal Units,S,
Horizontal Scale,2.000E-05,Horizontal Scale,2.000E-05,
Horizontal Position,0.000E+00,Horizontal Position,0.000E+00,
Horizontal Mode,Main,Horizontal Mode,Main,
SincET Mode,Real Time,SincET Mode,Real Time,
Sampling Period,2.000e-08,Sampling Period,2.000e-08,
Horizontal Old Scale,2.000E-05,Horizontal Old Scale,2.000E-05,
Horizontal Old Position,0.000E+00,Horizontal Old Position,0.000E+00,
Firmware,V1.23,Firmware,V1.23,
Mode,Fast,Mode,Fast,
Waveform Data,,Waveform Data,,
1, ,-47, ,
2, ,-47, ,
1, ,-47, ,
-1, ,-47, ,
2, ,-47, ,
1, ,-47, ,
1, ,-47, ,
2, ,-47, ,
1, ,-47, ,
-1, ,-47, ,
2, ,-47, ,
1, ,-47, ,
1, ,-47, ,
2, ,-47, ,
1, ,-47, ,
-1, ,-47, ,
2, ,-47, ,
1, ,-47, ,
1, ,-47, ,
2, ,-47, ,
1, ,-47, ,
-1, ,-47, ,
2, ,-47, ,
1, ,-47, ,
1, ,-47, ,
1, ,-47, ,
1, ,-47, ,
-1, ,-47, ,
2, ,-47, ,
1, ,-47, ,
1, ,-47, ,
1, ,-47, ,
1, ,-47, ,
-1, ,-47, ,
2, ,-47, ,
1, ,-47, ,
1, ,-47, ,
1, ,-47, ,
1, ,-47, ,
-1, ,-47, ,
2, ,-47, ,
1, ,-47, ,
1, ,-47, ,
1, ,-47, ,
2, ,-47, ,
1, ,-47, ,
2, ,-47, ,
1, ,-47, ,
1, ,-47, ,
1, ,-47, ,
1, ,-47, ,
-1, ,-47, ,
2, ,-47, ,
1, ,-47, ,
1, ,-47, ,
2, ,-47, ,
1, ,-47, ,
-1, ,-47, ,
2, ,-47, ,
1, ,-47, ,
1, ,-47, ,
2, ,-47, ,
1, ,-47, ,
-1, ,-47, ,
2, ,-47, ,
1, ,-47, ,
1, ,-47, ,
1, ,-47, ,
1, ,-47, ,
-1, ,-47, ,
2, ,-47, ,
1, ,-47, ,
1, ,-47, ,
2, ,-47, ,
1, ,-47, ,
-1, ,-47, ,
2, ,-49, ,
1, ,-47, ,
1, ,-47, ,
2, ,-47, ,
1, ,-47, ,
-1, ,-47, ,
2, ,-47, ,
1, ,-47, ,
1, ,-47, ,
1, ,-47, ,
1, ,-47, ,
-1, ,-47, ,
2, ,-47, ,
1, ,-47, ,
1, ,-47, ,
1, ,-47, ,
1, ,-47, ,
-1, ,-47, ,
2, ,-47, ,
1, ,-47, ,
1, ,-47, ,
1, ,-47, ,
1, ,-47, ,
-1, ,-47, ,
2, ,-47, ,
1, ,-47, ,
1, ,-47, ,
1, ,-47, ,
2, ,-47, ,
-1, ,-47, ,
2, ,-47, ,
1, ,-47, ,
1, ,-47, ,
2, ,-47, ,
1, ,-47, ,
-1, ,-47, ,
2, ,-47, ,
1, ,-47, ,
1, ,-47, ,
1, ,-47, ,
1, ,-47, ,
-1, ,-47, ,
2, ,-47, ,
1, ,-47, ,
1, ,-47, ,
1, ,-47, ,
1, ,-47, ,
-1, ,-47, ,
2, ,-47, ,
1, ,-47, ,
1, ,-47, ,
1, ,-47, ,
1, ,-47, ,
-1, ,-47, ,
1, ,-47, ,
1, ,-47, ,
1, ,-47, ,
1, ,-47, ,
2, ,-47, ,
-1, ,-47, ,
2, ,-47, ,
-1, ,-47, ,
1, ,-47, ,
1, ,-47, ,
1, ,-47, ,
-1, ,-47, ,
2, ,-47, ,
1, ,-47, ,
1, ,-47, ,
1, ,-47, ,
1, ,-47, ,
-1, ,-47, ,
2, ,-49, ,
1, ,-47, ,
1, ,-47, ,
1, ,-47, ,
1, ,-47, ,
1, ,-47, ,
2, ,-47, ,
-1, ,-47, ,
1, ,-47, ,
2, ,-47, ,
1, ,-47, ,
-1, ,-47, ,
2, ,-47, ,
1, ,-47, ,
1, ,-47, ,
1, ,-47, ,
1, ,-47, ,
-1, ,-47, ,
2, ,-47, ,
1, ,-47, ,
1, ,-47, ,
2, ,-47, ,
1, ,-47, ,
-1, ,-47, ,
2, ,-47, ,
1, ,-47, ,
1, ,-47, ,
2, ,-47, ,
1, ,-47, ,
-1, ,-47, ,
1, ,-47, ,
1, ,-47, ,
1, ,-47, ,
2, ,-47, ,
1, ,-47, ,
-1, ,-47, ,
1, ,-47, ,
1, ,-47, ,
1, ,-47, ,
1, ,-47, ,
1, ,-47, ,
-1, ,-47, ,
2, ,-47, ,
1, ,-47, ,
1, ,-47, ,
1, ,-47, ,
2, ,-47, ,
-1, ,-47, ,
2, ,-47, ,
1, ,-47, ,
1, ,-47, ,
1, ,-47, ,
1, ,-47, ,
-1, ,-47, ,
2, ,-47, ,
1, ,-47, ,
1, ,-47, ,
1, ,-47, ,
1, ,-47, ,
-1, ,-47, ,
1, ,-47, ,
1, ,-47, ,
1, ,-47, ,
1, ,-47, ,
1, ,-47, ,
-1, ,-47, ,
1, ,-47, ,
1, ,-47, ,
1, ,-47, ,
1, ,-47, ,
1, ,-47, ,
-1, ,-47, ,
1, ,-47, ,
1, ,-47, ,
1, ,-47, ,
1, ,-47, ,
1, ,-47, ,
-1, ,-47, ,
2, ,-47, ,
-1, ,-47, ,
1, ,-47, ,
2, ,-47, ,
1, ,-47, ,
-1, ,-47, ,
2, ,-47, ,
1, ,-47, ,
-1, ,-47, ,
1, ,-47, ,
1, ,-47, ,
-1, ,-47, ,
2, ,-47, ,
1, ,-47, ,
1, ,-47, ,
1, ,-47, ,
1, ,-47, ,
-1, ,-47, ,
2, ,-47, ,
1, ,-47, ,
1, ,-47, ,
1, ,-47, ,
1, ,-47, ,
-1, ,-47, ,
2, ,-47, ,
-1, ,-47, ,
1, ,-47, ,
1, ,-47, ,
1, ,-47, ,
-1, ,-47, ,
1, ,-47, ,
-1, ,-47, ,
1, ,-47, ,
1, ,-47, ,
1, ,-47, ,
-1, ,-47, ,
2, ,-47, ,
-1, ,-47, ,
-1, ,-47, ,
1, ,-47, ,
1, ,-47, ,
-1, ,-47, ,
2, ,-49, ,
1, ,-47, ,
1, ,-47, ,
1, ,-47, ,
1, ,-47, ,
-1, ,-47, ,
2, ,-47, ,
1, ,-47, ,
1, ,-47, ,
1, ,-47, ,
1, ,-47, ,
-1, ,-47, ,
2, ,-49, ,
1, ,-47, ,
1, ,-47, ,
1, ,-47, ,
1, ,-47, ,
-1, ,-47, ,
2, ,-47, ,
1, ,-47, ,
1, ,-47, ,
1, ,-47, ,
1, ,-47, ,
-1, ,-47, ,
1, ,-47, ,
1, ,-47, ,
1, ,-47, ,
1, ,-47, ,
1, ,-47, ,
-1, ,-47, ,
2, ,-47, ,
1, ,-47, ,
1, ,-47, ,
1, ,-47, ,
1, ,-47, ,
-1, ,-47, ,
2, ,-47, ,
1, ,-47, ,
1, ,-38, ,
1, ,-18, ,
1, ,-2, ,
-1, ,11, ,
2, ,19, ,
1, ,26, ,
1, ,32, ,
1, ,35, ,
1, ,38, ,
-1, ,40, ,
2, ,42, ,
1, ,43, ,
1, ,43, ,
2, ,44, ,
1, ,45, ,
-1, ,45, ,
2, ,45, ,
1, ,45, ,
-1, ,45, ,
1, ,45, ,
1, ,45, ,
-1, ,45, ,
1, ,46, ,
-1, ,45, ,
1, ,46, ,
1, ,45, ,
1, ,46, ,
-1, ,45, ,
2, ,46, ,
1, ,45, ,
-1, ,45, ,
1, ,46, ,
1, ,46, ,
-1, ,45, ,
1, ,46, ,
-1, ,45, ,
1, ,45, ,
1, ,45, ,
1, ,45, ,
-1, ,45, ,
2, ,46, ,
1, ,45, ,
1, ,45, ,
1, ,45, ,
1, ,45, ,
-1, ,45, ,
1, ,45, ,
-1, ,45, ,
1, ,45, ,
1, ,45, ,
1, ,45, ,
-1, ,45, ,
2, ,45, ,
-1, ,45, ,
-1, ,45, ,
1, ,45, ,
1, ,45, ,
-1, ,45, ,
2, ,45, ,
-1, ,45, ,
-1, ,45, ,
1, ,45, ,
1, ,45, ,
-1, ,45, ,
1, ,45, ,
-1, ,45, ,
-1, ,45, ,
1, ,45, ,
1, ,45, ,
-1, ,45, ,
2, ,45, ,
-1, ,45, ,
-1, ,45, ,
1, ,45, ,
1, ,45, ,
-1, ,45, ,
1, ,45, ,
-1, ,45, ,
-1, ,45, ,
1, ,45, ,
1, ,45, ,
-1, ,45, ,
1, ,45, ,
1, ,45, ,
-1, ,45, ,
1, ,45, ,
1, ,45, ,
-1, ,45, ,
1, ,45, ,
-1, ,45, ,
-1, ,45, ,
1, ,45, ,
1, ,45, ,
-1, ,45, ,
2, ,45, ,
-1, ,45, ,
-1, ,45, ,
1, ,45, ,
1, ,45, ,
-1, ,45, ,
2, ,45, ,
-1, ,45, ,
-1, ,45, ,
1, ,45, ,
1, ,45, ,
-1, ,45, ,
1, ,45, ,
-1, ,45, ,
-1, ,45, ,
1, ,45, ,
1, ,45, ,
-1, ,45, ,
2, ,45, ,
-1, ,45, ,
-1, ,45, ,
1, ,45, ,
1, ,45, ,
-1, ,45, ,
1, ,45, ,
-1, ,45, ,
-1, ,45, ,
1, ,45, ,
1, ,45, ,
-1, ,45, ,
2, ,45, ,
-1, ,45, ,
-1, ,45, ,
1, ,45, ,
1, ,45, ,
-1, ,45, ,
2, ,45, ,
1, ,45, ,
-1, ,45, ,
1, ,45, ,
1, ,45, ,
-1, ,45, ,
1, ,45, ,
-1, ,45, ,
-1, ,45, ,
1, ,45, ,
1, ,45, ,
-1, ,45, ,
2, ,45, ,
-1, ,45, ,
-1, ,45, ,
1, ,45, ,
1, ,45, ,
-1, ,45, ,
2, ,45, ,
-1, ,45, ,
-1, ,45, ,
1, ,45, ,
1, ,45, ,
-1, ,45, ,
1, ,42, ,
-1, ,23, ,
-1, ,4, ,
1, ,-8, ,
1, ,-19, ,
-1, ,-26, ,
2, ,-32, ,
1, ,-36, ,
-1, ,-39, ,
1, ,-42, ,
1, ,-44, ,
-1, ,-45, ,
1, ,-46, ,
1, ,-46, ,
1, ,-46, ,
1, ,-47, ,
1, ,-47, ,
-1, ,-47, ,
2, ,-49, ,
-1, ,-49, ,
1, ,-49, ,
1, ,-49, ,
1, ,-49, ,
-1, ,-49, ,
2, ,-49, ,
-1, ,-49, ,
1, ,-49, ,
1, ,-49, ,
1, ,-47, ,
-1, ,-47, ,
2, ,-49, ,
-1, ,-49, ,
1, ,-49, ,
1, ,-47, ,
1, ,-49, ,
-1, ,-47, ,
1, ,-49, ,
-1, ,-47, ,
1, ,-47, ,
1, ,-47, ,
1, ,-49, ,
-1, ,-47, ,
2, ,-47, ,
-1, ,-47, ,
-1, ,-47, ,
1, ,-47, ,
1, ,-47, ,
-1, ,-47, ,
1, ,-49, ,
-1, ,-47, ,
-1, ,-47, ,
1, ,-47, ,
1, ,-47, ,
-1, ,-47, ,
1, ,-49, ,
-1, ,-47, ,
-1, ,-47, ,
1, ,-47, ,
1, ,-47, ,
-1, ,-47, ,
2, ,-47, ,
1, ,-47, ,
1, ,-47, ,
1, ,-47, ,
1, ,-47, ,
-1, ,-47, ,
1, ,-49, ,
-1, ,-47, ,
-1, ,-47, ,
1, ,-47, ,
1, ,-47, ,
-1, ,-47, ,
1, ,-49, ,
-1, ,-47, ,
-1, ,-47, ,
1, ,-47, ,
1, ,-47, ,
-1, ,-47, ,
1, ,-47, ,
-1, ,-47, ,
-1, ,-47, ,
1, ,-47, ,
1, ,-47, ,
-1, ,-47, ,
1, ,-47, ,
-1, ,-47, ,
-1, ,-47, ,
1, ,-47, ,
1, ,-47, ,
-1, ,-47, ,
1, ,-47, ,
-1, ,-47, ,
-1, ,-47, ,
1, ,-47, ,
1, ,-47, ,
-1, ,-47, ,
1, ,-47, ,
1, ,-47, ,
-1, ,-47, ,
1, ,-47, ,
1, ,-47, ,
-1, ,-47, ,
2, ,-47, ,
-1, ,-47, ,
1, ,-47, ,
1, ,-47, ,
1, ,-47, ,
-1, ,-47, ,
1, ,-47, ,
-1, ,-47, ,
-1, ,-47, ,
1, ,-47, ,
1, ,-47, ,
-1, ,-47, ,
2, ,-49, ,
-1, ,-47, ,
-1, ,-47, ,
1, ,-47, ,
1, ,-47, ,
-1, ,-47, ,
2, ,-49, ,
-1, ,-47, ,
-1, ,-47, ,
1, ,-49, ,
1, ,-47, ,
-1, ,-47, ,
1, ,-47, ,
-1, ,-47, ,
-1, ,-47, ,
1, ,-47, ,
1, ,-47, ,
-1, ,-47, ,
1, ,-47, ,
1, ,-46, ,
-1, ,-47, ,
1, ,-47, ,
1, ,-47, ,
-1, ,-47, ,
1, ,-47, ,
-1, ,-47, ,
1, ,-47, ,
1, ,-47, ,
1, ,-47, ,
-1, ,-47, ,
1, ,-49, ,
-1, ,-47, ,
-1, ,-47, ,
1, ,-47, ,
1, ,-47, ,
-1, ,-47, ,
1, ,-47, ,
-1, ,-47, ,
-1, ,-47, ,
1, ,-47, ,
1, ,-47, ,
-1, ,-47, ,
1, ,-47, ,
-1, ,-47, ,
1, ,-47, ,
1, ,-47, ,
1, ,-47, ,
-1, ,-47, ,
2, ,-47, ,
1, ,-47, ,
-1, ,-47, ,
1, ,-47, ,
1, ,-47, ,
-1, ,-47, ,
1, ,-47, ,
-1, ,-47, ,
1, ,-47, ,
1, ,-47, ,
1, ,-47, ,
-1, ,-47, ,
1, ,-47, ,
-1, ,-47, ,
-1, ,-47, ,
1, ,-47, ,
1, ,-47, ,
-1, ,-47, ,
1, ,-47, ,
-1, ,-47, ,
-1, ,-47, ,
1, ,-47, ,
1, ,-47, ,
-1, ,-47, ,
1, ,-47, ,
-1, ,-47, ,
-1, ,-47, ,
1, ,-47, ,
1, ,-47, ,
-1, ,-47, ,
1, ,-47, ,
-1, ,-47, ,
-1, ,-47, ,
1, ,-47, ,
1, ,-47, ,
-1, ,-47, ,
1, ,-47, ,
-1, ,-47, ,
-1, ,-47, ,
1, ,-47, ,
1, ,-47, ,
-1, ,-47, ,
1, ,-47, ,
-1, ,-47, ,
-1, ,-47, ,
-1, ,-47, ,
1, ,-47, ,
-1, ,-47, ,
1, ,-47, ,
-1, ,-47, ,
-1, ,-47, ,
1, ,-47, ,
1, ,-47, ,
-1, ,-47, ,
1, ,-47, ,
-1, ,-47, ,
-1, ,-47, ,
1, ,-47, ,
1, ,-47, ,
-1, ,-47, ,
1, ,-47, ,
-1, ,-47, ,
-1, ,-47, ,
1, ,-47, ,
1, ,-47, ,
-1, ,-47, ,
1, ,-47, ,
-1, ,-47, ,
-1, ,-47, ,
1, ,-47, ,
1, ,-47, ,
-1, ,-47, ,
1, ,-47, ,
-1, ,-47, ,
-1, ,-47, ,
1, ,-47, ,
1, ,-47, ,
-1, ,-47, ,
1, ,-47, ,
-1, ,-47, ,
-1, ,-47, ,
1, ,-47, ,
1, ,-47, ,
-1, ,-47, ,
1, ,-47, ,
-1, ,-47, ,
1, ,-47, ,
1, ,-47, ,
1, ,-47, ,
-1, ,-47, ,
1, ,-47, ,
1, ,-47, ,
1, ,-47, ,
1, ,-47, ,
1, ,-47, ,
-1, ,-47, ,
1, ,-47, ,
-1, ,-47, ,
1, ,-47, ,
1, ,-47, ,
1, ,-47, ,
-1, ,-47, ,
1, ,-49, ,
1, ,-47, ,
-1, ,-47, ,
1, ,-47, ,
1, ,-47, ,
-1, ,-47, ,
2, ,-47, ,
-1, ,-47, ,
1, ,-47, ,
1, ,-47, ,
1, ,-47, ,
-1, ,-47, ,
2, ,-47, ,
1, ,-47, ,
-1, ,-47, ,
1, ,-47, ,
1, ,-47, ,
-1, ,-47, ,
1, ,-47, ,
-1, ,-47, ,
1, ,-47, ,
1, ,-47, ,
1, ,-47, ,
-1, ,-47, ,
1, ,-47, ,
-1, ,-47, ,
-1, ,-47, ,
1, ,-47, ,
1, ,-47, ,
-1, ,-47, ,
1, ,-47, ,
-1, ,-47, ,
-1, ,-47, ,
1, ,-47, ,
1, ,-47, ,
-1, ,-47, ,
1, ,-47, ,
-1, ,-47, ,
-1, ,-47, ,
1, ,-47, ,
1, ,-47, ,
-1, ,-47, ,
1, ,-47, ,
-1, ,-47, ,
1, ,-47, ,
1, ,-47, ,
1, ,-47, ,
-1, ,-47, ,
1, ,-47, ,
-1, ,-47, ,
-1, ,-47, ,
1, ,-47, ,
1, ,-47, ,
-1, ,-47, ,
1, ,-47, ,
-1, ,-47, ,
-1, ,-47, ,
1, ,-47, ,
1, ,-47, ,
-1, ,-47, ,
1, ,-47, ,
-1, ,-47, ,
-1, ,-47, ,
1, ,-47, ,
1, ,-47, ,
-1, ,-47, ,
1, ,-47, ,
-1, ,-47, ,
1, ,-47, ,
1, ,-47, ,
1, ,-47, ,
-1, ,-47, ,
1, ,-47, ,
-1, ,-47, ,
-1, ,-47, ,
1, ,-47, ,
1, ,-47, ,
-1, ,-47, ,
1, ,-47, ,
-1, ,-47, ,
-1, ,-47, ,
1, ,-47, ,
1, ,-47, ,
-1, ,-47, ,
1, ,-47, ,
-1, ,-47, ,
-1, ,-47, ,
1, ,-47, ,
1, ,-47, ,
-1, ,-47, ,
1, ,-47, ,
-1, ,-47, ,
-1, ,-47, ,
1, ,-47, ,
1, ,-47, ,
-1, ,-47, ,
2, ,-47, ,
-1, ,-47, ,
-1, ,-47, ,
1, ,-47, ,
1, ,-47, ,
-1, ,-47, ,
1, ,-47, ,
-1, ,-47, ,
-1, ,-47, ,
1, ,-47, ,
1, ,-47, ,
-1, ,-47, ,
1, ,-47, ,
-1, ,-47, ,
-1, ,-47, ,
1, ,-47, ,
1, ,-47, ,
-1, ,-47, ,
1, ,-47, ,
-1, ,-47, ,
-1, ,-47, ,
1, ,-47, ,
1, ,-47, ,
-1, ,-47, ,
1, ,-47, ,
1, ,-47, ,
-1, ,-47, ,
1, ,-47, ,
1, ,-47, ,
-1, ,-47, ,
1, ,-47, ,
-1, ,-47, ,
-1, ,-47, ,
1, ,-47, ,
1, ,-47, ,
-1, ,-47, ,
1, ,-47, ,
-1, ,-47, ,
-1, ,-47, ,
1, ,-47, ,
1, ,-47, ,
-1, ,-47, ,
1, ,-47, ,
-1, ,-47, ,
-1, ,-47, ,
1, ,-47, ,
1, ,-47, ,
-1, ,-47, ,
1, ,-47, ,
-1, ,-47, ,
-1, ,-47, ,
1, ,-47, ,
1, ,-47, ,
-1, ,-47, ,
1, ,-47, ,
-1, ,-47, ,
-1, ,-47, ,
1, ,-47, ,
1, ,-47, ,
-1, ,-47, ,
1, ,-47, ,
-1, ,-47, ,
-1, ,-47, ,
1, ,-47, ,
1, ,-47, ,
-1, ,-47, ,
1, ,-47, ,
-1, ,-47, ,
-1, ,-47, ,
1, ,-47, ,
1, ,-47, ,
-1, ,-47, ,
1, ,-49, ,
-1, ,-47, ,
-1, ,-47, ,
1, ,-47, ,
1, ,-47, ,
-1, ,-47, ,
1, ,-47, ,
-1, ,-47, ,
-1, ,-47, ,
1, ,-47, ,
1, ,-47, ,
-1, ,-47, ,
1, ,-47, ,
-1, ,-47, ,
-1, ,-47, ,
1, ,-47, ,
1, ,-47, ,
-1, ,-47, ,
1, ,-47, ,
-1, ,-47, ,
-1, ,-47, ,
1, ,-47, ,
1, ,-47, ,
-1, ,-47, ,
1, ,-49, ,
1, ,-47, ,
-1, ,-47, ,
1, ,-47, ,
1, ,-47, ,
-1, ,-47, ,
1, ,-47, ,
-1, ,-47, ,
-1, ,-47, ,
1, ,-47, ,
1, ,-47, ,
-1, ,-47, ,
1, ,-49, ,
-1, ,-47, ,
-1, ,-47, ,
1, ,-47, ,
1, ,-47, ,
-1, ,-47, ,
1, ,-47, ,
-1, ,-47, ,
-1, ,-47, ,
1, ,-47, ,
1, ,-47, ,
-1, ,-47, ,
1, ,-47, ,
-1, ,-47, ,
-1, ,-47, ,
1, ,-47, ,
1, ,-47, ,
-1, ,-47, ,
1, ,-47, ,
-1, ,-47, ,
-1, ,-47, ,
1, ,-47, ,
1, ,-47, ,
-1, ,-47, ,
1, ,-47, ,
-1, ,-47, ,
-1, ,-47, ,
1, ,-47, ,
1, ,-47, ,
-1, ,-47, ,
2, ,-47, ,
-1, ,-47, ,
-1, ,-47, ,
1, ,-47, ,
1, ,-47, ,
-1, ,-47, ,
1, ,-47, ,
-1, ,-47, ,
1, ,-47, ,
80, ,-47, ,
50, ,-47, ,
30, ,-47, ,
20, ,-47, ,
12, ,-47, ,
8, ,-47, ,
7, ,-47, ,
6, ,-47, ,
3, ,-47, ,
5, ,-47, ,
3, ,-47, ,
2, ,-47, ,
3, ,-47, ,
3, ,-47, ,
1, ,-47, ,
3, ,-47, ,
2, ,-47, ,
2, ,-47, ,
3, ,-47, ,
3, ,-47, ,
2, ,-47, ,
3, ,-49, ,
2, ,-47, ,
2, ,-47, ,
3, ,-47, ,
3, ,-47, ,
2, ,-47, ,
3, ,-47, ,
2, ,-47, ,
2, ,-47, ,
2, ,-47, ,
3, ,-47, ,
2, ,-47, ,
3, ,-47, ,
2, ,-47, ,
2, ,-47, ,
2, ,-47, ,
3, ,-47, ,
1, ,-47, ,
3, ,-47, ,
2, ,-47, ,
2, ,-47, ,
2, ,-47, ,
3, ,-47, ,
1, ,-47, ,
3, ,-47, ,
2, ,-47, ,
2, ,-47, ,
3, ,-47, ,
2, ,-47, ,
1, ,-47, ,
3, ,-47, ,
2, ,-47, ,
2, ,-47, ,
3, ,-47, ,
3, ,-47, ,
2, ,-47, ,
3, ,-47, ,
2, ,-47, ,
2, ,-47, ,
2, ,-47, ,
2, ,-47, ,
1, ,-47, ,
3, ,-47, ,
2, ,-47, ,
2, ,-47, ,
2, ,-47, ,
2, ,-47, ,
1, ,-47, ,
3, ,-49, ,
2, ,-47, ,
2, ,-47, ,
3, ,-47, ,
3, ,-47, ,
1, ,-47, ,
3, ,-47, ,
2, ,-47, ,
1, ,-47, ,
2, ,-47, ,
2, ,-47, ,
1, ,-47, ,
3, ,-47, ,
2, ,-47, ,
2, ,-47, ,
2, ,-47, ,
2, ,-47, ,
1, ,-47, ,
3, ,-47, ,
1, ,-47, ,
2, ,-47, ,
2, ,-47, ,
2, ,-47, ,
1, ,-47, ,
3, ,-49, ,
1, ,-47, ,
2, ,-47, ,
3, ,-47, ,
2, ,-47, ,
1, ,-47, ,
3, ,-47, ,
1, ,-47, ,
2, ,-47, ,
2, ,-47, ,
2, ,-47, ,
1, ,-47, ,
2, ,-47, ,
1, ,-47, ,
2, ,-47, ,
2, ,-47, ,
2, ,-47, ,
1, ,-47, ,
2, ,-47, ,
1, ,-47, ,
2, ,-47, ,
2, ,-47, ,
2, ,-47, ,
1, ,-47, ,
2, ,-47, ,
2, ,-47, ,
2, ,-47, ,
2, ,-43, ,
2, ,-23, ,
1, ,-6, ,
3, ,7, ,
2, ,18, ,
2, ,25, ,
2, ,30, ,
2, ,35, ,
1, ,38, ,
2, ,40, ,
2, ,41, ,
2, ,42, ,
2, ,43, ,
2, ,44, ,
1, ,44, ,
2, ,45, ,
2, ,45, ,
1, ,45, ,
2, ,46, ,
2, ,45, ,
1, ,45, ,
2, ,46, ,
1, ,45, ,
1, ,46, ,
2, ,46, ,
2, ,46, ,
1, ,45, ,
2, ,46, ,
2, ,45, ,
2, ,45, ,
2, ,46, ,
2, ,46, ,
1, ,45, ,
2, ,46, ,
1, ,45, ,
1, ,45, ,
2, ,45, ,
2, ,45, ,
1, ,45, ,
2, ,46, ,
1, ,45, ,
1, ,45, ,
2, ,45, ,
2, ,46, ,
1, ,45, ,
2, ,45, ,
1, ,45, ,
2, ,45, ,
2, ,45, ,
2, ,45, ,
1, ,45, ,
2, ,46, ,
1, ,45, ,
1, ,45, ,
2, ,45, ,
2, ,45, ,
1, ,45, ,
2, ,45, ,
2, ,45, ,
1, ,45, ,
2, ,45, ,
2, ,45, ,
1, ,45, ,
2, ,45, ,
1, ,45, ,
1, ,45, ,
2, ,45, ,
2, ,45, ,
1, ,45, ,
2, ,45, ,
1, ,45, ,
1, ,45, ,
2, ,45, ,
2, ,45, ,
1, ,45, ,
2, ,45, ,
1, ,45, ,
1, ,45, ,
2, ,45, ,
2, ,45, ,
1, ,45, ,
2, ,45, ,
1, ,45, ,
1, ,45, ,
2, ,45, ,
2, ,45, ,
1, ,45, ,
2, ,45, ,
1, ,45, ,
1, ,45, ,
2, ,45, ,
1, ,45, ,
1, ,45, ,
2, ,45, ,
1, ,45, ,
1, ,45, ,
2, ,45, ,
2, ,45, ,
1, ,45, ,
2, ,45, ,
1, ,45, ,
1, ,45, ,
2, ,45, ,
1, ,45, ,
1, ,45, ,
2, ,45, ,
1, ,45, ,
1, ,45, ,
2, ,45, ,
2, ,45, ,
1, ,45, ,
2, ,45, ,
1, ,45, ,
1, ,45, ,
2, ,45, ,
2, ,45, ,
1, ,45, ,
2, ,45, ,
1, ,45, ,
1, ,45, ,
2, ,45, ,
2, ,45, ,
1, ,45, ,
2, ,45, ,
1, ,45, ,
1, ,45, ,
2, ,45, ,
2, ,45, ,
1, ,45, ,
2, ,45, ,
1, ,45, ,
1, ,45, ,
2, ,45, ,
1, ,45, ,
1, ,45, ,
2, ,45, ,
1, ,45, ,
1, ,45, ,
2, ,45, ,
2, ,45, ,
1, ,45, ,
2, ,45, ,
1, ,45, ,
1, ,45, ,
2, ,45, ,
2, ,45, ,
1, ,45, ,
2, ,45, ,
1, ,45, ,
1, ,45, ,
2, ,45, ,
1, ,45, ,
1, ,45, ,
2, ,45, ,
1, ,44, ,
1, ,30, ,
2, ,9, ,
1, ,-5, ,
1, ,-16, ,
2, ,-24, ,
1, ,-31, ,
1, ,-35, ,
2, ,-38, ,
1, ,-41, ,
1, ,-43, ,
2, ,-45, ,
1, ,-45, ,
1, ,-46, ,
2, ,-47, ,
2, ,-47, ,
-1, ,-47, ,
2, ,-47, ,
1, ,-47, ,
2, ,-49, ,
2, ,-49, ,
2, ,-49, ,
1, ,-49, ,
2, ,-49, ,
1, ,-47, ,
1, ,-49, ,
2, ,-49, ,
2, ,-49, ,
1, ,-49, ,
2, ,-49, ,
1, ,-49, ,
1, ,-49, ,
2, ,-49, ,
1, ,-49, ,
-1, ,-47, ,
2, ,-49, ,
1, ,-47, ,
1, ,-47, ,
2, ,-49, ,
1, ,-49, ,
-1, ,-47, ,
2, ,-49, ,
1, ,-47, ,
1, ,-47, ,
2, ,-49, ,
1, ,-49, ,
1, ,-47, ,
2, ,-49, ,
1, ,-47, ,
1, ,-47, ,
2, ,-49, ,
2, ,-47, ,
1, ,-47, ,
2, ,-49, ,
1, ,-49, ,
1, ,-47, ,
2, ,-47, ,
2, ,-49, ,
-1, ,-47, ,
2, ,-49, ,
1, ,-47, ,
1, ,-47, ,
2, ,-49, ,
1, ,-47, ,
-1, ,-47, ,
2, ,-47, ,
1, ,-47, ,
1, ,-47, ,
2, ,-47, ,
1, ,-47, ,
-1, ,-47, ,
2, ,-49, ,
1, ,-47, ,
1, ,-47, ,
1, ,-47, ,
1, ,-47, ,
1, ,-47, ,
2, ,-47, ,
1, ,-47, ,
1, ,-47, ,
2, ,-47, ,
2, ,-47, ,
-1, ,-47, ,
2, ,-47, ,
1, ,-47, ,
1, ,-47, ,
1, ,-47, ,
1, ,-47, ,
-1, ,-47, ,
2, ,-47, ,
1, ,-47, ,
1, ,-49, ,
2, ,-47, ,
2, ,-47, ,
-1, ,-47, ,
2, ,-49, ,
1, ,-47, ,
1, ,-47, ,
2, ,-47, ,
1, ,-47, ,
-1, ,-47, ,
2, ,-47, ,
1, ,-47, ,
1, ,-47, ,
2, ,-47, ,
1, ,-47, ,
-1, ,-47, ,
2, ,-47, ,
1, ,-47, ,
1, ,-47, ,
2, ,-47, ,
1, ,-47, ,
-1, ,-47, ,
2, ,-47, ,
1, ,-47, ,
1, ,-47, ,
2, ,-47, ,
1, ,-47, ,
-1, ,-47, ,
2, ,-49, ,
1, ,-47, ,
1, ,-47, ,
1, ,-47, ,
1, ,-47, ,
-1, ,-47, ,
2, ,-47, ,
1, ,-47, ,
1, ,-47, ,
2, ,-47, ,
1, ,-47, ,
-1, ,-47, ,
2, ,-47, ,
1, ,-47, ,
1, ,-47, ,
1, ,-47, ,
1, ,-47, ,
-1, ,-47, ,
2, ,-47, ,
1, ,-47, ,
1, ,-47, ,
2, ,-47, ,
1, ,-47, ,
-1, ,-47, ,
2, ,-47, ,
1, ,-47, ,
1, ,-47, ,
1, ,-47, ,
1, ,-47, ,
-1, ,-47, ,
2, ,-47, ,
1, ,-47, ,
1, ,-47, ,
1, ,-47, ,
2, ,-47, ,
-1, ,-47, ,
2, ,-47, ,
1, ,-47, ,
1, ,-47, ,
1, ,-47, ,
1, ,-47, ,
-1, ,-47, ,
2, ,-47, ,
1, ,-47, ,
1, ,-47, ,
1, ,-47, ,
1, ,-47, ,
-1, ,-47, ,
2, ,-47, ,
1, ,-47, ,
1, ,-47, ,
1, ,-47, ,
1, ,-47, ,
-1, ,-47, ,
2, ,-47, ,
1, ,-47, ,
1, ,-47, ,
1, ,-47, ,
2, ,-47, ,
-1, ,-47, ,
2, ,-47, ,
1, ,-47, ,
1, ,-47, ,
1, ,-47, ,
1, ,-47, ,
-1, ,-47, ,
1, ,-47, ,
1, ,-47, ,
1, ,-47, ,
1, ,-47, ,
1, ,-47, ,
-1, ,-47, ,
2, ,-47, ,
1, ,-47, ,
1, ,-47, ,
1, ,-47, ,
2, ,-47, ,
-1, ,-47, ,
2, ,-47, ,
1, ,-47, ,
1, ,-47, ,
1, ,-47, ,
1, ,-47, ,
-1, ,-47, ,
2, ,-47, ,
1, ,-47, ,
1, ,-47, ,
1, ,-47, ,
1, ,-47, ,
-1, ,-46, ,
2, ,-47, ,
1, ,-47, ,
1, ,-47, ,
2, ,-47, ,
1, ,-47, ,
-1, ,-47, ,
1, ,-47, ,
1, ,-47, ,
1, ,-47, ,
1, ,-47, ,
1, ,-47, ,
-1, ,-47, ,
2, ,-47, ,
1, ,-47, ,
1, ,-47, ,
1, ,-47, ,
1, ,-47, ,
-1, ,-47, ,
2, ,-47, ,
1, ,-46, ,
1, ,-47, ,
1, ,-47, ,
1, ,-47, ,
-1, ,-47, ,
2, ,-47, ,
1, ,-47, ,
1, ,-47, ,
1, ,-47, ,
1, ,-47, ,
-1, ,-47, ,
1, ,-47, ,
-1, ,-47, ,
-1, ,-47, ,
1, ,-47, ,
1, ,-47, ,
-1, ,-47, ,
1, ,-47, ,
1, ,-47, ,
1, ,-47, ,
1, ,-47, ,
1, ,-47, ,
-1, ,-47, ,
2, ,-47, ,
-1, ,-47, ,
1, ,-47, ,
2, ,-47, ,
1, ,-47, ,
-1, ,-47, ,
1, ,-47, ,
-1, ,-47, ,
1, ,-47, ,
1, ,-47, ,
1, ,-47, ,
-1, ,-47, ,
2, ,-47, ,
-1, ,-46, ,
1, ,-47, ,
1, ,-47, ,
1, ,-47, ,
-1, ,-47, ,
2, ,-47, ,
1, ,-47, ,
1, ,-47, ,
1, ,-47, ,
1, ,-47, ,
-1, ,-47, ,
2, ,-47, ,
1, ,-47, ,
1, ,-47, ,
1, ,-47, ,
1, ,-47, ,
-1, ,-47, ,
2, ,-47, ,
1, ,-47, ,
1, ,-47, ,
2, ,-47, ,
1, ,-47, ,
-1, ,-47, ,
2, ,-47, ,
1, ,-46, ,
1, ,-47, ,
1, ,-47, ,
1, ,-47, ,
-1, ,-47, ,
2, ,-47, ,
1, ,-47, ,
1, ,-47, ,
2, ,-47, ,
1, ,-47, ,
-1, ,-47, ,
2, ,-47, ,
1, ,-47, ,
1, ,-47, ,
1, ,-47, ,
1, ,-47, ,
-1, ,-47, ,
2, ,-47, ,
1, ,-47, ,
1, ,-47, ,
1, ,-47, ,
1, ,-47, ,
-1, ,-47, ,
2, ,-47, ,
1, ,-47, ,
1, ,-47, ,
1, ,-47, ,
1, ,-47, ,
-1, ,-47, ,
2, ,-47, ,
1, ,-47, ,
1, ,-47, ,
2, ,-47, ,
1, ,-47, ,
-1, ,-47, ,
2, ,-47, ,
1, ,-47, ,
1, ,-47, ,
1, ,-47, ,
1, ,-47, ,
-1, ,-47, ,
2, ,-47, ,
1, ,-47, ,
1, ,-47, ,
1, ,-47, ,
1, ,-47, ,
-1, ,-47, ,
1, ,-47, ,
1, ,-47, ,
1, ,-47, ,
1, ,-47, ,
1, ,-47, ,
-1, ,-47, ,
2, ,-47, ,
1, ,-47, ,
1, ,-47, ,
1, ,-47, ,
1, ,-47, ,
-1, ,-47, ,
2, ,-47, ,
-1, ,-47, ,
1, ,-47, ,
1, ,-47, ,
1, ,-47, ,
-1, ,-47, ,
1, ,-47, ,
-1, ,-47, ,
1, ,-47, ,
1, ,-47, ,
1, ,-47, ,
-1, ,-47, ,
2, ,-47, ,
1, ,-47, ,
-1, ,-47, ,
1, ,-47, ,
1, ,-47, ,
-1, ,-47, ,
1, ,-47, ,
-1, ,-47, ,
1, ,-47, ,
1, ,-47, ,
1, ,-47, ,
-1, ,-47, ,
1, ,-47, ,
-1, ,-47, ,
-1, ,-47, ,
1, ,-47, ,
1, ,-47, ,
-1, ,-47, ,
1, ,-47, ,
-1, ,-47, ,
-1, ,-47, ,
1, ,-47, ,
1, ,-47, ,
-1, ,-47, ,
1, ,-47, ,
-1, ,-47, ,
-1, ,-47, ,
1, ,-47, ,
1, ,-47, ,
-1, ,-47, ,
1, ,-47, ,
-1, ,-47, ,
-1, ,-47, ,
1, ,-47, ,
2, ,-47, ,
-1, ,-47, ,
2, ,-47, ,
-1, ,-47, ,
1, ,-47, ,
1, ,-47, ,
1, ,-47, ,
-1, ,-47, ,
1, ,-47, ,
-1, ,-47, ,
1, ,-47, ,
1, ,-47, ,
1, ,-47, ,
-1, ,-47, ,
2, ,-47, ,
1, ,-47, ,
-1, ,-47, ,
1, ,-47, ,
1, ,-47, ,
-1, ,-47, ,
1, ,-47, ,
-1, ,-47, ,
1, ,-47, ,
1, ,-47, ,
1, ,-47, ,
-1, ,-47, ,
2, ,-47, ,
1, ,-47, ,
1, ,-47, ,
1, ,-47, ,
1, ,-47, ,
-1, ,-47, ,
1, ,-47, ,
1, ,-47, ,
1, ,-47, ,
1, ,-47, ,
1, ,-47, ,
-1, ,-47, ,
2, ,-49, ,
1, ,-47, ,
1, ,-47, ,
1, ,-47, ,
1, ,-47, ,
-1, ,-47, ,
1, ,-47, ,
-1, ,-47, ,
1, ,-47, ,
1, ,-47, ,
1, ,-47, ,
-1, ,-47, ,
1, ,-47, ,
1, ,-47, ,
-1, ,-47, ,
1, ,-47, ,
1, ,-47, ,
-1, ,-47, ,
2, ,-47, ,
1, ,-47, ,
1, ,-47, ,
1, ,-47, ,
1, ,-47, ,
-1, ,-47, ,
1, ,-47, ,
1, ,-47, ,
1, ,-47, ,
1, ,-47, ,
1, ,-47, ,
-1, ,-47, ,
1, ,-47, ,
1, ,-47, ,
1, ,-47, ,
1, ,-47, ,
1, ,-47, ,
-1, ,-47, ,
2, ,-47, ,
-1, ,-47, ,
1, ,-47, ,
