src/varyamp_1560/temp0001355.CSV

Format,1.0B,
Memory Length,10000,Memory Length,10000,
IntpDistance,0,IntpDistance,0,
Trigger Address,4999,Trigger Address,4999,
Trigger Level,1.040E+00,Trigger Level,1.040E+00,
Source,CH1,Source,CH2,
Vertical Units,V,Vertical Units,V,
Vertical Units Div,0,Vertical Units Div,0,
Vertical Units Extend Div,16,Vertical Units Extend Div,16,
Label,,Label,,
Probe Type,0,Probe Type,0,
Probe Ratio,1.000e+01,Probe Ratio,1.000e+00,
Vertical Scale,5.000e-01,Vertical Scale,1.000e+00,
Vertical Position,-1.820e+00,Vertical Position,0.000e+00,
Horizontal Units,S,Horizontal Units,S,
Horizontal Scale,2.000E-05,Horizontal Scale,2.000E-05,
Horizontal Position,0.000E+00,Horizontal Position,0.000E+00,
Horizontal Mode,Main,Horizontal Mode,Main,
SincET Mode,Real Time,SincET Mode,Real Time,
Sampling Period,2.000e-08,Sampling Period,2.000e-08,
Horizontal Old Scale,2.000E-05,Horizontal Old Scale,2.000E-05,
Horizontal Old Position,0.000E+00,Horizontal Old Position,0.000E+00,
Firmware,V1.23,Firmware,V1.23,
Mode,Fast,Mode,Fast,
Waveform Data,,Waveform Data,,
1, ,-57, ,
1, ,-57, ,
2, ,-57, ,
2, ,-56, ,
1, ,-57, ,
2, ,-56, ,
1, ,-57, ,
1, ,-57, ,
2, ,-57, ,
2, ,-57, ,
-1, ,-57, ,
3, ,-56, ,
1, ,-57, ,
1, ,-57, ,
2, ,-57, ,
2, ,-56, ,
-1, ,-57, ,
2, ,-57, ,
1, ,-57, ,
1, ,-57, ,
2, ,-57, ,
2, ,-56, ,
-1, ,-57, ,
2, ,-56, ,
1, ,-57, ,
1, ,-56, ,
2, ,-57, ,
2, ,-57, ,
-1, ,-57, ,
2, ,-56, ,
1, ,-57, ,
1, ,-56, ,
2, ,-56, ,
2, ,-56, ,
-1, ,-57, ,
2, ,-56, ,
1, ,-57, ,
1, ,-57, ,
2, ,-57, ,
2, ,-56, ,
-1, ,-57, ,
2, ,-57, ,
1, ,-57, ,
1, ,-57, ,
1, ,-56, ,
1, ,-57, ,
-1, ,-57, ,
2, ,-56, ,
1, ,-57, ,
1, ,-57, ,
2, ,-57, ,
1, ,-56, ,
-1, ,-57, ,
2, ,-56, ,
1, ,-57, ,
1, ,-57, ,
2, ,-57, ,
1, ,-56, ,
-1, ,-57, ,
2, ,-57, ,
49, ,-57, ,
38, ,-57, ,
25, ,-56, ,
16, ,-56, ,
10, ,-57, ,
8, ,-57, ,
5, ,-57, ,
3, ,-57, ,
3, ,-57, ,
2, ,-57, ,
1, ,-57, ,
3, ,-56, ,
2, ,-57, ,
2, ,-57, ,
3, ,-56, ,
2, ,-57, ,
1, ,-57, ,
3, ,-57, ,
2, ,-57, ,
2, ,-56, ,
2, ,-57, ,
2, ,-56, ,
1, ,-57, ,
3, ,-56, ,
2, ,-57, ,
2, ,-57, ,
3, ,-57, ,
3, ,-57, ,
1, ,-57, ,
5, ,-57, ,
2, ,-57, ,
2, ,-57, ,
3, ,-57, ,
3, ,-56, ,
1, ,-57, ,
3, ,-56, ,
2, ,-57, ,
1, ,-57, ,
3, ,-57, ,
2, ,-57, ,
1, ,-57, ,
5, ,-57, ,
2, ,-57, ,
2, ,-57, ,
3, ,-57, ,
3, ,-57, ,
1, ,-57, ,
3, ,-57, ,
2, ,-57, ,
1, ,-57, ,
2, ,-57, ,
2, ,-56, ,
1, ,-57, ,
5, ,-56, ,
2, ,-56, ,
1, ,-57, ,
3, ,-57, ,
2, ,-56, ,
1, ,-57, ,
3, ,-56, ,
2, ,-57, ,
1, ,-57, ,
3, ,-56, ,
2, ,-57, ,
1, ,-57, ,
3, ,-56, ,
2, ,-57, ,
1, ,-57, ,
3, ,-57, ,
2, ,-56, ,
1, ,-57, ,
3, ,-56, ,
2, ,-57, ,
1, ,-57, ,
2, ,-57, ,
2, ,-57, ,
1, ,-57, ,
5, ,-57, ,
1, ,-57, ,
1, ,-57, ,
3, ,-56, ,
2, ,-56, ,
1, ,-57, ,
3, ,-56, ,
1, ,-57, ,
1, ,-57, ,
2, ,-57, ,
2, ,-57, ,
1, ,-57, ,
3, ,-57, ,
1, ,-57, ,
1, ,-57, ,
2, ,-57, ,
2, ,-56, ,
1, ,-57, ,
3, ,-56, ,
1, ,-57, ,
1, ,-57, ,
2, ,-57, ,
2, ,-57, ,
1, ,-57, ,
3, ,-57, ,
1, ,-57, ,
1, ,-57, ,
2, ,-57, ,
2, ,-57, ,
1, ,-57, ,
3, ,-56, ,
1, ,-56, ,
1, ,-57, ,
2, ,-57, ,
2, ,-57, ,
1, ,-57, ,
3, ,-57, ,
1, ,-57, ,
1, ,-57, ,
2, ,-56, ,
2, ,-56, ,
1, ,-57, ,
3, ,-56, ,
1, ,-57, ,
1, ,-57, ,
2, ,-57, ,
2, ,-56, ,
1, ,-57, ,
3, ,-56, ,
1, ,-57, ,
1, ,-57, ,
2, ,-57, ,
2, ,-57, ,
-1, ,-57, ,
3, ,-56, ,
1, ,-56, ,
1, ,-57, ,
2, ,-56, ,
2, ,-57, ,
1, ,-57, ,
3, ,-57, ,
1, ,-57, ,
1, ,-56, ,
2, ,-57, ,
2, ,-56, ,
1, ,-57, ,
3, ,-56, ,
1, ,-57, ,
1, ,-57, ,
2, ,-56, ,
2, ,-57, ,
1, ,-57, ,
3, ,-57, ,
1, ,-57, ,
1, ,-57, ,
2, ,-57, ,
2, ,-56, ,
1, ,-57, ,
3, ,-56, ,
1, ,-57, ,
1, ,-56, ,
2, ,-56, ,
2, ,-57, ,
1, ,-57, ,
3, ,-57, ,
1, ,-57, ,
1, ,-57, ,
2, ,-57, ,
2, ,-57, ,
1, ,-57, ,
3, ,-56, ,
1, ,-57, ,
1, ,-57, ,
2, ,-57, ,
2, ,-57, ,
1, ,-57, ,
3, ,-57, ,
1, ,-57, ,
1, ,-56, ,
2, ,-57, ,
2, ,-56, ,
1, ,-57, ,
3, ,-56, ,
1, ,-57, ,
1, ,-57, ,
2, ,-56, ,
2, ,-57, ,
1, ,-57, ,
3, ,-57, ,
1, ,-57, ,
1, ,-57, ,
2, ,-57, ,
2, ,-56, ,
1, ,-57, ,
2, ,-56, ,
1, ,-57, ,
1, ,-57, ,
2, ,-57, ,
2, ,-56, ,
1, ,-57, ,
3, ,-57, ,
1, ,-57, ,
1, ,-57, ,
2, ,-57, ,
2, ,-56, ,
-1, ,-57, ,
3, ,-56, ,
1, ,-57, ,
1, ,-57, ,
2, ,-56, ,
2, ,-56, ,
-1, ,-57, ,
2, ,-57, ,
1, ,-57, ,
1, ,-57, ,
2, ,-57, ,
1, ,-57, ,
-1, ,-57, ,
2, ,-57, ,
1, ,-57, ,
1, ,-57, ,
2, ,-56, ,
2, ,-57, ,
-1, ,-57, ,
2, ,-57, ,
1, ,-57, ,
1, ,-57, ,
2, ,-57, ,
2, ,-57, ,
-1, ,-57, ,
2, ,-56, ,
1, ,-57, ,
1, ,-57, ,
2, ,-56, ,
2, ,-56, ,
-1, ,-57, ,
2, ,-57, ,
1, ,-57, ,
1, ,-56, ,
2, ,-57, ,
1, ,-56, ,
-1, ,-57, ,
2, ,-56, ,
1, ,-57, ,
1, ,-57, ,
2, ,-57, ,
2, ,-57, ,
-1, ,-55, ,
3, ,-38, ,
1, ,-19, ,
1, ,-4, ,
2, ,6, ,
2, ,14, ,
-1, ,20, ,
2, ,24, ,
1, ,27, ,
1, ,31, ,
2, ,33, ,
1, ,33, ,
-1, ,35, ,
2, ,35, ,
1, ,36, ,
-1, ,36, ,
2, ,37, ,
1, ,37, ,
-1, ,37, ,
2, ,37, ,
1, ,37, ,
1, ,37, ,
2, ,37, ,
1, ,37, ,
-1, ,37, ,
2, ,37, ,
1, ,37, ,
1, ,37, ,
2, ,37, ,
1, ,37, ,
-1, ,37, ,
2, ,37, ,
1, ,37, ,
1, ,37, ,
2, ,37, ,
2, ,37, ,
-1, ,37, ,
2, ,37, ,
1, ,37, ,
1, ,37, ,
2, ,37, ,
1, ,37, ,
1, ,37, ,
2, ,37, ,
1, ,36, ,
1, ,36, ,
2, ,37, ,
2, ,37, ,
-1, ,37, ,
2, ,37, ,
1, ,36, ,
1, ,36, ,
2, ,37, ,
1, ,36, ,
1, ,36, ,
2, ,37, ,
1, ,36, ,
1, ,37, ,
2, ,37, ,
2, ,36, ,
1, ,37, ,
2, ,37, ,
1, ,36, ,
1, ,37, ,
2, ,37, ,
2, ,36, ,
1, ,37, ,
2, ,36, ,
1, ,36, ,
-1, ,36, ,
2, ,36, ,
2, ,36, ,
1, ,37, ,
2, ,36, ,
1, ,36, ,
1, ,36, ,
2, ,37, ,
1, ,36, ,
-1, ,36, ,
2, ,37, ,
1, ,36, ,
1, ,36, ,
2, ,37, ,
1, ,36, ,
-1, ,36, ,
2, ,36, ,
1, ,36, ,
1, ,37, ,
2, ,37, ,
1, ,36, ,
-1, ,37, ,
2, ,37, ,
1, ,36, ,
1, ,36, ,
2, ,36, ,
2, ,36, ,
-1, ,37, ,
2, ,36, ,
1, ,36, ,
1, ,36, ,
2, ,37, ,
1, ,36, ,
-1, ,36, ,
2, ,37, ,
1, ,36, ,
-1, ,36, ,
2, ,36, ,
1, ,36, ,
-1, ,37, ,
2, ,36, ,
1, ,36, ,
1, ,36, ,
2, ,37, ,
1, ,36, ,
-1, ,36, ,
2, ,37, ,
1, ,36, ,
-1, ,36, ,
2, ,36, ,
1, ,36, ,
-1, ,37, ,
2, ,36, ,
1, ,36, ,
1, ,37, ,
2, ,36, ,
1, ,36, ,
-1, ,36, ,
2, ,36, ,
1, ,36, ,
-1, ,36, ,
2, ,36, ,
1, ,36, ,
-1, ,37, ,
2, ,36, ,
1, ,36, ,
1, ,37, ,
1, ,36, ,
1, ,36, ,
-1, ,36, ,
2, ,36, ,
1, ,36, ,
-1, ,36, ,
2, ,37, ,
1, ,36, ,
-1, ,36, ,
2, ,36, ,
1, ,36, ,
-1, ,36, ,
2, ,36, ,
1, ,36, ,
-1, ,36, ,
2, ,36, ,
1, ,36, ,
-1, ,36, ,
2, ,36, ,
1, ,26, ,
-1, ,7, ,
1, ,-9, ,
1, ,-22, ,
-1, ,-31, ,
1, ,-38, ,
1, ,-43, ,
-1, ,-47, ,
2, ,-50, ,
1, ,-52, ,
1, ,-54, ,
1, ,-55, ,
1, ,-55, ,
-1, ,-56, ,
2, ,-56, ,
-1, ,-57, ,
1, ,-57, ,
2, ,-57, ,
1, ,-57, ,
-1, ,-58, ,
2, ,-57, ,
1, ,-57, ,
-1, ,-58, ,
2, ,-57, ,
1, ,-57, ,
-1, ,-58, ,
2, ,-57, ,
1, ,-57, ,
1, ,-57, ,
1, ,-57, ,
1, ,-57, ,
-1, ,-57, ,
2, ,-57, ,
1, ,-57, ,
1, ,-57, ,
2, ,-57, ,
1, ,-57, ,
-1, ,-57, ,
2, ,-57, ,
-1, ,-57, ,
1, ,-57, ,
2, ,-57, ,
1, ,-57, ,
-1, ,-58, ,
2, ,-57, ,
1, ,-57, ,
-1, ,-57, ,
2, ,-57, ,
1, ,-57, ,
-1, ,-57, ,
2, ,-57, ,
-1, ,-57, ,
1, ,-57, ,
2, ,-57, ,
1, ,-57, ,
-1, ,-57, ,
2, ,-56, ,
1, ,-57, ,
-1, ,-57, ,
2, ,-56, ,
1, ,-57, ,
-1, ,-57, ,
2, ,-56, ,
-1, ,-57, ,
1, ,-57, ,
2, ,-57, ,
1, ,-57, ,
-1, ,-57, ,
66, ,-56, ,
41, ,-57, ,
25, ,-57, ,
17, ,-57, ,
11, ,-57, ,
7, ,-57, ,
7, ,-57, ,
3, ,-57, ,
2, ,-57, ,
3, ,-57, ,
2, ,-56, ,
1, ,-57, ,
3, ,-56, ,
2, ,-57, ,
2, ,-57, ,
3, ,-57, ,
3, ,-56, ,
1, ,-57, ,
5, ,-56, ,
2, ,-57, ,
2, ,-57, ,
3, ,-57, ,
2, ,-57, ,
1, ,-58, ,
3, ,-56, ,
2, ,-57, ,
1, ,-57, ,
2, ,-56, ,
2, ,-57, ,
1, ,-57, ,
5, ,-57, ,
2, ,-57, ,
2, ,-57, ,
3, ,-57, ,
3, ,-56, ,
1, ,-57, ,
3, ,-56, ,
2, ,-57, ,
1, ,-57, ,
3, ,-57, ,
2, ,-56, ,
1, ,-57, ,
5, ,-56, ,
2, ,-57, ,
2, ,-57, ,
2, ,-57, ,
2, ,-57, ,
1, ,-57, ,
3, ,-57, ,
2, ,-57, ,
1, ,-57, ,
2, ,-57, ,
2, ,-56, ,
1, ,-57, ,
3, ,-56, ,
2, ,-57, ,
1, ,-56, ,
3, ,-56, ,
2, ,-56, ,
1, ,-57, ,
3, ,-56, ,
2, ,-57, ,
2, ,-57, ,
2, ,-57, ,
2, ,-56, ,
1, ,-57, ,
5, ,-57, ,
2, ,-57, ,
1, ,-56, ,
2, ,-57, ,
2, ,-56, ,
1, ,-57, ,
3, ,-56, ,
1, ,-57, ,
1, ,-57, ,
2, ,-56, ,
2, ,-56, ,
1, ,-57, ,
3, ,-57, ,
1, ,-57, ,
2, ,-57, ,
3, ,-57, ,
2, ,-57, ,
1, ,-57, ,
3, ,-57, ,
2, ,-57, ,
2, ,-57, ,
2, ,-56, ,
2, ,-56, ,
1, ,-57, ,
3, ,-56, ,
2, ,-57, ,
2, ,-57, ,
2, ,-56, ,
2, ,-56, ,
1, ,-57, ,
3, ,-56, ,
2, ,-57, ,
2, ,-57, ,
3, ,-57, ,
2, ,-56, ,
1, ,-57, ,
3, ,-57, ,
1, ,-57, ,
1, ,-57, ,
2, ,-57, ,
2, ,-56, ,
1, ,-57, ,
3, ,-56, ,
1, ,-57, ,
2, ,-57, ,
2, ,-57, ,
2, ,-56, ,
1, ,-57, ,
3, ,-57, ,
2, ,-57, ,
2, ,-57, ,
2, ,-57, ,
2, ,-56, ,
1, ,-57, ,
3, ,-56, ,
1, ,-57, ,
1, ,-57, ,
2, ,-57, ,
2, ,-57, ,
1, ,-57, ,
3, ,-57, ,
1, ,-57, ,
2, ,-56, ,
2, ,-57, ,
2, ,-56, ,
1, ,-57, ,
3, ,-56, ,
1, ,-57, ,
1, ,-57, ,
2, ,-56, ,
2, ,-56, ,
1, ,-57, ,
3, ,-57, ,
1, ,-57, ,
2, ,-57, ,
2, ,-56, ,
2, ,-56, ,
1, ,-57, ,
3, ,-56, ,
1, ,-57, ,
1, ,-57, ,
2, ,-57, ,
2, ,-56, ,
1, ,-57, ,
3, ,-57, ,
1, ,-57, ,
1, ,-57, ,
2, ,-56, ,
2, ,-56, ,
-1, ,-57, ,
2, ,-56, ,
1, ,-57, ,
1, ,-57, ,
1, ,-57, ,
2, ,-56, ,
1, ,-57, ,
5, ,-56, ,
32, ,-56, ,
22, ,-57, ,
16, ,-56, ,
10, ,-56, ,
6, ,-57, ,
6, ,-56, ,
3, ,-56, ,
2, ,-57, ,
3, ,-56, ,
2, ,-56, ,
1, ,-57, ,
5, ,-57, ,
1, ,-57, ,
2, ,-57, ,
3, ,-57, ,
2, ,-57, ,
1, ,-57, ,
3, ,-56, ,
2, ,-57, ,
2, ,-57, ,
2, ,-57, ,
2, ,-56, ,
1, ,-57, ,
3, ,-56, ,
2, ,-57, ,
1, ,-56, ,
2, ,-56, ,
2, ,-56, ,
1, ,-57, ,
3, ,-56, ,
2, ,-57, ,
1, ,-57, ,
2, ,-56, ,
2, ,-56, ,
1, ,-57, ,
5, ,-57, ,
2, ,-57, ,
1, ,-57, ,
2, ,-57, ,
2, ,-56, ,
1, ,-57, ,
3, ,-56, ,
2, ,-57, ,
1, ,-57, ,
2, ,-57, ,
2, ,-56, ,
1, ,-57, ,
3, ,-56, ,
2, ,-57, ,
2, ,-57, ,
2, ,-56, ,
2, ,-56, ,
1, ,-57, ,
3, ,-56, ,
2, ,-57, ,
1, ,-56, ,
2, ,-57, ,
2, ,-56, ,
1, ,-57, ,
3, ,-56, ,
2, ,-57, ,
1, ,-56, ,
2, ,-56, ,
2, ,-56, ,
1, ,-57, ,
3, ,-56, ,
1, ,-57, ,
2, ,-57, ,
2, ,-57, ,
2, ,-57, ,
1, ,-57, ,
3, ,-56, ,
2, ,-57, ,
2, ,-57, ,
2, ,-57, ,
2, ,-56, ,
1, ,-57, ,
3, ,-56, ,
1, ,-57, ,
1, ,-57, ,
2, ,-56, ,
2, ,-56, ,
1, ,-57, ,
3, ,-57, ,
1, ,-57, ,
1, ,-57, ,
2, ,-57, ,
2, ,-57, ,
1, ,-57, ,
3, ,-56, ,
2, ,-57, ,
1, ,-56, ,
2, ,-57, ,
2, ,-56, ,
1, ,-57, ,
3, ,-57, ,
1, ,-57, ,
1, ,-57, ,
2, ,-57, ,
2, ,-57, ,
1, ,-57, ,
3, ,-56, ,
1, ,-57, ,
2, ,-57, ,
2, ,-57, ,
2, ,-56, ,
1, ,-57, ,
3, ,-57, ,
1, ,-57, ,
2, ,-57, ,
2, ,-57, ,
2, ,-57, ,
1, ,-57, ,
2, ,-57, ,
1, ,-57, ,
2, ,-57, ,
2, ,-57, ,
2, ,-56, ,
1, ,-57, ,
3, ,-57, ,
1, ,-57, ,
1, ,-57, ,
2, ,-57, ,
2, ,-56, ,
1, ,-57, ,
3, ,-56, ,
1, ,-57, ,
2, ,-57, ,
2, ,-57, ,
2, ,-56, ,
1, ,-57, ,
3, ,-57, ,
1, ,-57, ,
1, ,-57, ,
2, ,-57, ,
2, ,-57, ,
-1, ,-57, ,
3, ,-56, ,
1, ,-57, ,
1, ,-57, ,
2, ,-57, ,
2, ,-56, ,
1, ,-57, ,
3, ,-56, ,
1, ,-57, ,
1, ,-57, ,
2, ,-57, ,
2, ,-56, ,
-1, ,-57, ,
2, ,-56, ,
1, ,-57, ,
1, ,-57, ,
2, ,-57, ,
2, ,-56, ,
1, ,-57, ,
3, ,-56, ,
1, ,-57, ,
1, ,-57, ,
2, ,-57, ,
2, ,-56, ,
1, ,-57, ,
2, ,-56, ,
1, ,-57, ,
1, ,-57, ,
2, ,-57, ,
2, ,-56, ,
-1, ,-57, ,
3, ,-57, ,
1, ,-57, ,
1, ,-57, ,
2, ,-57, ,
1, ,-56, ,
-1, ,-58, ,
2, ,-56, ,
1, ,-57, ,
1, ,-57, ,
1, ,-57, ,
2, ,-56, ,
1, ,-57, ,
3, ,-57, ,
1, ,-57, ,
1, ,-56, ,
2, ,-57, ,
2, ,-56, ,
-1, ,-57, ,
2, ,-56, ,
1, ,-57, ,
1, ,-57, ,
2, ,-57, ,
2, ,-56, ,
-1, ,-57, ,
2, ,-57, ,
1, ,-57, ,
1, ,-57, ,
2, ,-57, ,
2, ,-57, ,
-1, ,-57, ,
2, ,-56, ,
1, ,-57, ,
1, ,-57, ,
2, ,-57, ,
2, ,-56, ,
-1, ,-57, ,
2, ,-57, ,
1, ,-57, ,
1, ,-56, ,
2, ,-57, ,
2, ,-56, ,
-1, ,-57, ,
2, ,-56, ,
1, ,-57, ,
1, ,-57, ,
2, ,-57, ,
1, ,-56, ,
1, ,-57, ,
3, ,-56, ,
1, ,-57, ,
1, ,-57, ,
2, ,-57, ,
1, ,-56, ,
-1, ,-57, ,
2, ,-56, ,
1, ,-56, ,
1, ,-57, ,
1, ,-57, ,
1, ,-56, ,
1, ,-57, ,
2, ,-56, ,
1, ,-57, ,
1, ,-57, ,
2, ,-57, ,
2, ,-56, ,
-1, ,-57, ,
2, ,-57, ,
1, ,-57, ,
1, ,-57, ,
2, ,-57, ,
1, ,-56, ,
-1, ,-57, ,
2, ,-56, ,
1, ,-57, ,
1, ,-57, ,
2, ,-57, ,
1, ,-56, ,
-1, ,-57, ,
2, ,-56, ,
1, ,-57, ,
1, ,-57, ,
1, ,-57, ,
2, ,-56, ,
-1, ,-57, ,
2, ,-56, ,
1, ,-57, ,
1, ,-57, ,
2, ,-57, ,
1, ,-56, ,
-1, ,-57, ,
2, ,-56, ,
1, ,-57, ,
1, ,-57, ,
2, ,-57, ,
1, ,-56, ,
-1, ,-57, ,
2, ,-56, ,
1, ,-57, ,
1, ,-57, ,
2, ,-56, ,
1, ,-57, ,
-1, ,-57, ,
2, ,-56, ,
1, ,-57, ,
1, ,-57, ,
2, ,-57, ,
1, ,-56, ,
-1, ,-57, ,
2, ,-56, ,
1, ,-57, ,
1, ,-56, ,
2, ,-56, ,
1, ,-56, ,
-1, ,-57, ,
2, ,-56, ,
1, ,-57, ,
1, ,-57, ,
2, ,-57, ,
1, ,-56, ,
-1, ,-57, ,
2, ,-56, ,
1, ,-57, ,
1, ,-57, ,
2, ,-56, ,
1, ,-57, ,
-1, ,-57, ,
1, ,-56, ,
1, ,-57, ,
1, ,-57, ,
1, ,-57, ,
1, ,-56, ,
-1, ,-57, ,
2, ,-56, ,
1, ,-57, ,
1, ,-57, ,
2, ,-57, ,
1, ,-56, ,
-1, ,-57, ,
2, ,-56, ,
1, ,-57, ,
1, ,-57, ,
2, ,-57, ,
1, ,-56, ,
-1, ,-57, ,
2, ,-57, ,
-1, ,-57, ,
1, ,-57, ,
2, ,-56, ,
1, ,-57, ,
-1, ,-57, ,
2, ,-56, ,
1, ,-57, ,
1, ,-57, ,
2, ,-57, ,
1, ,-57, ,
-1, ,-57, ,
2, ,-56, ,
-1, ,-57, ,
1, ,-57, ,
2, ,-57, ,
1, ,-56, ,
-1, ,-57, ,
2, ,-56, ,
1, ,-57, ,
1, ,-57, ,
1, ,-56, ,
1, ,-57, ,
-1, ,-57, ,
2, ,-57, ,
-1, ,-57, ,
1, ,-57, ,
2, ,-56, ,
1, ,-57, ,
-1, ,-57, ,
1, ,-56, ,
1, ,-57, ,
1, ,-57, ,
2, ,-57, ,
1, ,-56, ,
-1, ,-57, ,
2, ,-57, ,
1, ,-57, ,
1, ,-57, ,
1, ,-57, ,
1, ,-57, ,
-1, ,-57, ,
2, ,-56, ,
1, ,-57, ,
1, ,-57, ,
2, ,-57, ,
1, ,-56, ,
-1, ,-57, ,
2, ,-57, ,
1, ,-57, ,
1, ,-57, ,
2, ,-57, ,
1, ,-57, ,
-1, ,-57, ,
2, ,-56, ,
1, ,-57, ,
1, ,-57, ,
2, ,-56, ,
1, ,-57, ,
-1, ,-57, ,
2, ,-57, ,
1, ,-57, ,
1, ,-57, ,
2, ,-57, ,
1, ,-57, ,
-1, ,-58, ,
2, ,-56, ,
1, ,-57, ,
1, ,-57, ,
1, ,-57, ,
1, ,-56, ,
-1, ,-57, ,
2, ,-56, ,
1, ,-57, ,
1, ,-57, ,
2, ,-57, ,
1, ,-56, ,
-1, ,-57, ,
2, ,-56, ,
1, ,-57, ,
1, ,-57, ,
2, ,-57, ,
1, ,-56, ,
-1, ,-57, ,
2, ,-56, ,
1, ,-44, ,
1, ,-24, ,
2, ,-8, ,
1, ,3, ,
-1, ,12, ,
2, ,18, ,
1, ,23, ,
1, ,26, ,
1, ,30, ,
1, ,32, ,
-1, ,34, ,
1, ,34, ,
1, ,35, ,
1, ,36, ,
1, ,36, ,
1, ,36, ,
-1, ,37, ,
2, ,37, ,
1, ,37, ,
1, ,37, ,
1, ,37, ,
1, ,37, ,
-1, ,37, ,
2, ,37, ,
1, ,37, ,
1, ,37, ,
2, ,37, ,
1, ,37, ,
-1, ,37, ,
1, ,37, ,
1, ,37, ,
1, ,37, ,
1, ,37, ,
1, ,37, ,
-1, ,37, ,
2, ,37, ,
1, ,37, ,
-1, ,37, ,
1, ,37, ,
1, ,37, ,
-1, ,37, ,
1, ,37, ,
1, ,36, ,
-1, ,36, ,
1, ,37, ,
1, ,36, ,
-1, ,37, ,
1, ,36, ,
1, ,36, ,
-1, ,37, ,
2, ,37, ,
1, ,37, ,
-1, ,37, ,
2, ,37, ,
1, ,36, ,
-1, ,36, ,
1, ,37, ,
1, ,37, ,
-1, ,36, ,
2, ,36, ,
1, ,36, ,
1, ,37, ,
1, ,37, ,
1, ,36, ,
-1, ,36, ,
1, ,37, ,
1, ,36, ,
1, ,36, ,
1, ,36, ,
1, ,36, ,
-1, ,37, ,
2, ,36, ,
-1, ,36, ,
-1, ,37, ,
1, ,37, ,
1, ,36, ,
-1, ,36, ,
1, ,37, ,
1, ,36, ,
-1, ,36, ,
1, ,36, ,
1, ,36, ,
-1, ,37, ,
2, ,37, ,
1, ,36, ,
-1, ,37, ,
2, ,37, ,
1, ,36, ,
-1, ,36, ,
1, ,37, ,
1, ,36, ,
-1, ,36, ,
2, ,36, ,
1, ,36, ,
-1, ,37, ,
2, ,36, ,
1, ,36, ,
-1, ,37, ,
1, ,37, ,
1, ,36, ,
-1, ,37, ,
1, ,37, ,
1, ,36, ,
1, ,36, ,
1, ,37, ,
1, ,36, ,
-1, ,37, ,
2, ,36, ,
1, ,36, ,
-1, ,36, ,
2, ,37, ,
1, ,36, ,
-1, ,36, ,
1, ,36, ,
1, ,36, ,
-1, ,36, ,
1, ,36, ,
1, ,36, ,
-1, ,36, ,
1, ,36, ,
-1, ,36, ,
1, ,36, ,
1, ,37, ,
1, ,36, ,
-1, ,37, ,
2, ,36, ,
1, ,36, ,
-1, ,36, ,
1, ,36, ,
1, ,36, ,
-1, ,37, ,
2, ,36, ,
-1, ,36, ,
-1, ,37, ,
2, ,36, ,
1, ,36, ,
-1, ,36, ,
1, ,37, ,
1, ,36, ,
-1, ,36, ,
1, ,36, ,
1, ,36, ,
-1, ,37, ,
1, ,36, ,
1, ,36, ,
-1, ,36, ,
1, ,37, ,
1, ,36, ,
-1, ,37, ,
1, ,36, ,
-1, ,36, ,
-1, ,36, ,
1, ,37, ,
1, ,36, ,
-1, ,32, ,
1, ,13, ,
-1, ,-5, ,
-1, ,-18, ,
1, ,-28, ,
1, ,-36, ,
-1, ,-42, ,
1, ,-45, ,
-1, ,-49, ,
-1, ,-52, ,
1, ,-53, ,
1, ,-54, ,
-1, ,-56, ,
2, ,-56, ,
-1, ,-56, ,
-1, ,-57, ,
2, ,-57, ,
1, ,-57, ,
-2, ,-58, ,
2, ,-57, ,
-1, ,-57, ,
-1, ,-57, ,
1, ,-57, ,
1, ,-57, ,
-1, ,-58, ,
2, ,-57, ,
-1, ,-58, ,
1, ,-58, ,
2, ,-57, ,
1, ,-57, ,
-2, ,-58, ,
2, ,-57, ,
1, ,-57, ,
-1, ,-57, ,
1, ,-57, ,
1, ,-57, ,
-1, ,-58, ,
2, ,-57, ,
-1, ,-57, ,
-1, ,-57, ,
2, ,-57, ,
1, ,-57, ,
-1, ,-58, ,
1, ,-57, ,
-1, ,-57, ,
-1, ,-57, ,
1, ,-57, ,
1, ,-57, ,
-1, ,-57, ,
2, ,-56, ,
1, ,-57, ,
-1, ,-57, ,
1, ,-57, ,
1, ,-57, ,
-1, ,-57, ,
2, ,-56, ,
-1, ,-57, ,
1, ,-57, ,
2, ,-57, ,
1, ,-56, ,
-1, ,-57, ,
2, ,-57, ,
-1, ,-57, ,
-1, ,-57, ,
2, ,-57, ,
1, ,-57, ,
-1, ,-57, ,
2, ,-56, ,
-1, ,-57, ,
-1, ,-57, ,
1, ,-57, ,
1, ,-57, ,
-1, ,-58, ,
1, ,-57, ,
-1, ,-57, ,
-1, ,-57, ,
1, ,-57, ,
1, ,-57, ,
-1, ,-57, ,
1, ,-56, ,
-1, ,-57, ,
-1, ,-57, ,
1, ,-57, ,
1, ,-57, ,
-1, ,-57, ,
1, ,-57, ,
-1, ,-57, ,
1, ,-57, ,
1, ,-57, ,
1, ,-56, ,
-1, ,-57, ,
2, ,-56, ,
-1, ,-57, ,
-1, ,-57, ,
1, ,-57, ,
1, ,-56, ,
-1, ,-57, ,
2, ,-57, ,
-1, ,-57, ,
-1, ,-57, ,
1, ,-57, ,
1, ,-56, ,
-1, ,-57, ,
1, ,-56, ,
-1, ,-57, ,
-1, ,-57, ,
1, ,-57, ,
1, ,-56, ,
-1, ,-57, ,
1, ,-57, ,
-1, ,-57, ,
-1, ,-56, ,
2, ,-57, ,
1, ,-56, ,
-1, ,-57, ,
1, ,-56, ,
-1, ,-57, ,
-1, ,-57, ,
1, ,-57, ,
1, ,-57, ,
-1, ,-57, ,
1, ,-56, ,
-1, ,-57, ,
-1, ,-57, ,
1, ,-57, ,
1, ,-56, ,
-2, ,-57, ,
1, ,-56, ,
-1, ,-57, ,
-1, ,-57, ,
1, ,-57, ,
1, ,-56, ,
-1, ,-57, ,
2, ,-57, ,
-1, ,-57, ,
-1, ,-57, ,
1, ,-57, ,
1, ,-57, ,
-1, ,-57, ,
2, ,-56, ,
-1, ,-57, ,
-1, ,-57, ,
1, ,-57, ,
1, ,-56, ,
-1, ,-57, ,
1, ,-56, ,
-1, ,-57, ,
-1, ,-57, ,
1, ,-56, ,
1, ,-57, ,
-2, ,-57, ,
2, ,-56, ,
-1, ,-57, ,
-1, ,-57, ,
1, ,-57, ,
1, ,-56, ,
-1, ,-57, ,
1, ,-56, ,
-1, ,-57, ,
-1, ,-56, ,
1, ,-57, ,
1, ,-56, ,
-1, ,-57, ,
2, ,-56, ,
-1, ,-57, ,
-1, ,-57, ,
1, ,-57, ,
1, ,-56, ,
-1, ,-57, ,
1, ,-56, ,
-1, ,-57, ,
-1, ,-57, ,
2, ,-57, ,
1, ,-56, ,
-1, ,-57, ,
12, ,-56, ,
68, ,-57, ,
43, ,-57, ,
27, ,-57, ,
17, ,-56, ,
11, ,-57, ,
10, ,-57, ,
5, ,-57, ,
5, ,-56, ,
5, ,-57, ,
3, ,-56, ,
2, ,-57, ,
5, ,-56, ,
2, ,-57, ,
2, ,-57, ,
3, ,-57, ,
2, ,-56, ,
1, ,-57, ,
3, ,-56, ,
2, ,-57, ,
2, ,-57, ,
3, ,-57, ,
2, ,-56, ,
1, ,-57, ,
3, ,-56, ,
2, ,-57, ,
2, ,-57, ,
2, ,-57, ,
2, ,-56, ,
1, ,-57, ,
3, ,-56, ,
2, ,-57, ,
2, ,-57, ,
2, ,-57, ,
3, ,-56, ,
1, ,-57, ,
3, ,-56, ,
2, ,-57, ,
2, ,-57, ,
2, ,-56, ,
2, ,-56, ,
1, ,-57, ,
3, ,-56, ,
2, ,-57, ,
2, ,-57, ,
2, ,-57, ,
2, ,-56, ,
1, ,-57, ,
3, ,-56, ,
2, ,-56, ,
2, ,-57, ,
2, ,-57, ,
2, ,-56, ,
1, ,-57, ,
3, ,-57, ,
1, ,-57, ,
1, ,-57, ,
2, ,-57, ,
2, ,-57, ,
1, ,-57, ,
3, ,-57, ,
2, ,-57, ,
2, ,-57, ,
2, ,-56, ,
2, ,-56, ,
1, ,-57, ,
3, ,-56, ,
2, ,-57, ,
1, ,-56, ,
2, ,-57, ,
2, ,-57, ,
1, ,-57, ,
3, ,-56, ,
2, ,-57, ,
2, ,-57, ,
2, ,-57, ,
2, ,-56, ,
1, ,-57, ,
3, ,-56, ,
1, ,-57, ,
1, ,-57, ,
2, ,-57, ,
2, ,-56, ,
1, ,-57, ,
2, ,-56, ,
1, ,-57, ,
1, ,-57, ,
2, ,-57, ,
2, ,-56, ,
1, ,-57, ,
3, ,-56, ,
1, ,-57, ,
2, ,-57, ,
2, ,-56, ,
2, ,-56, ,
1, ,-57, ,
2, ,-56, ,
1, ,-57, ,
1, ,-57, ,
2, ,-57, ,
2, ,-56, ,
1, ,-57, ,
3, ,-56, ,
1, ,-57, ,
1, ,-56, ,
2, ,-57, ,
2, ,-57, ,
1, ,-57, ,
3, ,-56, ,
2, ,-57, ,
2, ,-57, ,
2, ,-57, ,
2, ,-56, ,
1, ,-57, ,
3, ,-56, ,
1, ,-57, ,
1, ,-57, ,
2, ,-57, ,
2, ,-57, ,
1, ,-57, ,
3, ,-56, ,
1, ,-57, ,
1, ,-57, ,
2, ,-57, ,
2, ,-56, ,
1, ,-57, ,
3, ,-56, ,
1, ,-57, ,
2, ,-57, ,
2, ,-57, ,
2, ,-57, ,
1, ,-57, ,
2, ,-56, ,
1, ,-57, ,
1, ,-57, ,
2, ,-57, ,
2, ,-57, ,
1, ,-57, ,
3, ,-57, ,
1, ,-57, ,
1, ,-57, ,
2, ,-57, ,
2, ,-56, ,
1, ,-57, ,
3, ,-56, ,
1, ,-57, ,
1, ,-57, ,
2, ,-57, ,
2, ,-56, ,
1, ,-57, ,
3, ,-57, ,
1, ,-57, ,
1, ,-57, ,
2, ,-57, ,
2, ,-56, ,
1, ,-57, ,
3, ,-56, ,
1, ,-57, ,
1, ,-57, ,
2, ,-57, ,
2, ,-56, ,
1, ,-57, ,
3, ,-56, ,
1, ,-57, ,
1, ,-57, ,
3, ,-57, ,
2, ,-56, ,
-1, ,-57, ,
3, ,-56, ,
1, ,-57, ,
1, ,-57, ,
2, ,-56, ,
2, ,-56, ,
1, ,-57, ,
2, ,-56, ,
1, ,-57, ,
1, ,-57, ,
2, ,-57, ,
2, ,-56, ,
-1, ,-57, ,
3, ,-56, ,
1, ,-57, ,
1, ,-57, ,
2, ,-57, ,
2, ,-56, ,
1, ,-57, ,
2, ,-57, ,
1, ,-57, ,
1, ,-56, ,
2, ,-57, ,
2, ,-57, ,
-1, ,-57, ,
2, ,-56, ,
1, ,-57, ,
1, ,-57, ,
2, ,-57, ,
2, ,-56, ,
1, ,-57, ,
2, ,-57, ,
1, ,-57, ,
1, ,-57, ,
2, ,-57, ,
1, ,-57, ,
-1, ,-57, ,
3, ,-56, ,
1, ,-57, ,
1, ,-57, ,
2, ,-56, ,
2, ,-56, ,
1, ,-57, ,
2, ,-57, ,
1, ,-57, ,
1, ,-56, ,
2, ,-57, ,
1, ,-56, ,
-1, ,-57, ,
3, ,-56, ,
1, ,-57, ,
1, ,-57, ,
2, ,-56, ,
1, ,-56, ,
-1, ,-57, ,
3, ,-56, ,
1, ,-57, ,
1, ,-57, ,
2, ,-57, ,
1, ,-56, ,
-1, ,-57, ,
2, ,-56, ,
1, ,-57, ,
1, ,-57, ,
2, ,-57, ,
2, ,-56, ,
-1, ,-57, ,
3, ,-56, ,
1, ,-57, ,
1, ,-57, ,
2, ,-57, ,
1, ,-56, ,
-1, ,-57, ,
2, ,-56, ,
1, ,-57, ,
1, ,-57, ,
1, ,-56, ,
2, ,-57, ,
-1, ,-57, ,
2, ,-57, ,
1, ,-57, ,
1, ,-57, ,
2, ,-57, ,
2, ,-57, ,
-1, ,-57, ,
2, ,-56, ,
1, ,-57, ,
1, ,-56, ,
2, ,-57, ,
2, ,-56, ,
-1, ,-57, ,
2, ,-56, ,
1, ,-57, ,
1, ,-57, ,
2, ,-57, ,
1, ,-56, ,
-1, ,-57, ,
2, ,-56, ,
1, ,-57, ,
1, ,-57, ,
2, ,-57, ,
2, ,-56, ,
-1, ,-57, ,
2, ,-57, ,
1, ,-57, ,
1, ,-57, ,
1, ,-57, ,
2, ,-56, ,
-1, ,-58, ,
2, ,-56, ,
1, ,-57, ,
1, ,-57, ,
2, ,-57, ,
1, ,-57, ,
-1, ,-57, ,
2, ,-56, ,
1, ,-57, ,
1, ,-57, ,
2, ,-56, ,
2, ,-57, ,
-1, ,-57, ,
2, ,-56, ,
1, ,-57, ,
1, ,-57, ,
1, ,-56, ,
1, ,-57, ,
-1, ,-57, ,
2, ,-57, ,
1, ,-57, ,
1, ,-57, ,
2, ,-57, ,
1, ,-57, ,
-1, ,-57, ,
2, ,-56, ,
1, ,-57, ,
1, ,-57, ,
2, ,-56, ,
1, ,-56, ,
-1, ,-57, ,
2, ,-57, ,
1, ,-57, ,
1, ,-57, ,
2, ,-57, ,
2, ,-56, ,
