src/varyamp_1560/temp0002031.CSV

Format,1.0B,
Memory Length,10000,Memory Length,10000,
IntpDistance,0,IntpDistance,0,
Trigger Address,4999,Trigger Address,4999,
Trigger Level,1.040E+00,Trigger Level,1.040E+00,
Source,CH1,Source,CH2,
Vertical Units,V,Vertical Units,V,
Vertical Units Div,0,Vertical Units Div,0,
Vertical Units Extend Div,16,Vertical Units Extend Div,16,
Label,,Label,,
Probe Type,0,Probe Type,0,
Probe Ratio,1.000e+01,Probe Ratio,1.000e+00,
Vertical Scale,5.000e-01,Vertical Scale,1.000e+00,
Vertical Position,-1.820e+00,Vertical Position,0.000e+00,
Horizontal Units,S,Horizontal Units,S,
Horizontal Scale,2.000E-05,Horizontal Scale,2.000E-05,
Horizontal Position,0.000E+00,Horizontal Position,0.000E+00,
Horizontal Mode,Main,Horizontal Mode,Main,
SincET Mode,Real Time,SincET Mode,Real Time,
Sampling Period,2.000e-08,Sampling Period,2.000e-08,
Horizontal Old Scale,2.000E-05,Horizontal Old Scale,2.000E-05,
Horizontal Old Position,0.000E+00,Horizontal Old Position,0.000E+00,
Firmware,V1.23,Firmware,V1.23,
Mode,Fast,Mode,Fast,
Waveform Data,,Waveform Data,,
1, ,-51, ,
1, ,-51, ,
2, ,-51, ,
1, ,-51, ,
-1, ,-51, ,
2, ,-52, ,
1, ,-51, ,
1, ,-51, ,
1, ,-51, ,
1, ,-51, ,
-1, ,-51, ,
2, ,-51, ,
1, ,-51, ,
1, ,-51, ,
2, ,-52, ,
78, ,-50, ,
49, ,-51, ,
30, ,-51, ,
20, ,-51, ,
12, ,-51, ,
10, ,-51, ,
6, ,-50, ,
3, ,-51, ,
5, ,-51, ,
3, ,-51, ,
2, ,-51, ,
2, ,-51, ,
2, ,-50, ,
1, ,-51, ,
3, ,-51, ,
2, ,-51, ,
2, ,-51, ,
3, ,-52, ,
2, ,-50, ,
2, ,-51, ,
3, ,-51, ,
2, ,-51, ,
2, ,-51, ,
3, ,-51, ,
3, ,-51, ,
2, ,-51, ,
3, ,-51, ,
2, ,-51, ,
2, ,-51, ,
2, ,-52, ,
3, ,-50, ,
1, ,-51, ,
3, ,-52, ,
2, ,-51, ,
2, ,-51, ,
3, ,-51, ,
3, ,-50, ,
1, ,-51, ,
3, ,-51, ,
2, ,-51, ,
2, ,-51, ,
2, ,-52, ,
2, ,-51, ,
1, ,-51, ,
3, ,-52, ,
2, ,-51, ,
2, ,-51, ,
3, ,-51, ,
3, ,-50, ,
1, ,-51, ,
3, ,-51, ,
2, ,-51, ,
2, ,-50, ,
3, ,-52, ,
2, ,-51, ,
1, ,-51, ,
3, ,-52, ,
2, ,-51, ,
1, ,-51, ,
2, ,-51, ,
3, ,-51, ,
2, ,-51, ,
3, ,-51, ,
2, ,-51, ,
2, ,-51, ,
2, ,-52, ,
3, ,-50, ,
1, ,-51, ,
2, ,-52, ,
1, ,-51, ,
2, ,-51, ,
3, ,-51, ,
2, ,-50, ,
1, ,-51, ,
3, ,-51, ,
2, ,-51, ,
2, ,-51, ,
2, ,-52, ,
3, ,-51, ,
1, ,-51, ,
3, ,-51, ,
2, ,-51, ,
1, ,-51, ,
2, ,-51, ,
2, ,-50, ,
1, ,-51, ,
2, ,-52, ,
1, ,-51, ,
2, ,-51, ,
2, ,-52, ,
2, ,-51, ,
1, ,-51, ,
3, ,-52, ,
2, ,-51, ,
2, ,-51, ,
2, ,-52, ,
3, ,-51, ,
1, ,-51, ,
3, ,-52, ,
2, ,-51, ,
2, ,-51, ,
2, ,-52, ,
2, ,-51, ,
1, ,-51, ,
3, ,-51, ,
1, ,-51, ,
1, ,-51, ,
2, ,-51, ,
3, ,-50, ,
1, ,-51, ,
2, ,-51, ,
1, ,-51, ,
2, ,-50, ,
2, ,-52, ,
2, ,-51, ,
1, ,-51, ,
3, ,-52, ,
2, ,-51, ,
2, ,-51, ,
2, ,-51, ,
2, ,-50, ,
1, ,-51, ,
3, ,-51, ,
1, ,-51, ,
1, ,-50, ,
2, ,-52, ,
2, ,-50, ,
1, ,-51, ,
2, ,-52, ,
1, ,-51, ,
2, ,-50, ,
3, ,-52, ,
2, ,-50, ,
1, ,-51, ,
2, ,-51, ,
2, ,-51, ,
2, ,-51, ,
2, ,-51, ,
2, ,-50, ,
1, ,-51, ,
2, ,-52, ,
1, ,-51, ,
1, ,-51, ,
2, ,-51, ,
2, ,-50, ,
1, ,-51, ,
2, ,-51, ,
1, ,-51, ,
1, ,-50, ,
2, ,-51, ,
2, ,-50, ,
1, ,-51, ,
2, ,-52, ,
1, ,-51, ,
1, ,-51, ,
2, ,-51, ,
2, ,-50, ,
1, ,-51, ,
2, ,-51, ,
1, ,-50, ,
2, ,-50, ,
2, ,-51, ,
2, ,-50, ,
1, ,-51, ,
2, ,-51, ,
1, ,-51, ,
1, ,-50, ,
2, ,-51, ,
2, ,-50, ,
1, ,-51, ,
2, ,-51, ,
1, ,-51, ,
1, ,-51, ,
2, ,-52, ,
1, ,-51, ,
1, ,-51, ,
2, ,-52, ,
1, ,-51, ,
2, ,-51, ,
2, ,-51, ,
1, ,-50, ,
1, ,-51, ,
2, ,-51, ,
1, ,-51, ,
2, ,-51, ,
2, ,-52, ,
1, ,-50, ,
1, ,-51, ,
2, ,-52, ,
1, ,-51, ,
1, ,-50, ,
2, ,-51, ,
2, ,-50, ,
1, ,-52, ,
2, ,-51, ,
1, ,-51, ,
2, ,-51, ,
2, ,-51, ,
2, ,-50, ,
1, ,-51, ,
2, ,-51, ,
1, ,-51, ,
2, ,-51, ,
2, ,-51, ,
2, ,-50, ,
1, ,-51, ,
2, ,-51, ,
1, ,-51, ,
1, ,-51, ,
2, ,-52, ,
2, ,-51, ,
1, ,-51, ,
2, ,-51, ,
1, ,-51, ,
1, ,-51, ,
2, ,-51, ,
2, ,-50, ,
1, ,-51, ,
2, ,-51, ,
1, ,-51, ,
1, ,-51, ,
2, ,-52, ,
2, ,-50, ,
1, ,-51, ,
2, ,-52, ,
1, ,-51, ,
2, ,-51, ,
2, ,-51, ,
2, ,-50, ,
1, ,-51, ,
2, ,-51, ,
1, ,-51, ,
1, ,-51, ,
2, ,-52, ,
2, ,-50, ,
1, ,-51, ,
2, ,-51, ,
1, ,-51, ,
1, ,-51, ,
2, ,-51, ,
2, ,-51, ,
1, ,-51, ,
2, ,-51, ,
1, ,-51, ,
1, ,-50, ,
2, ,-52, ,
2, ,-50, ,
1, ,-51, ,
2, ,-51, ,
1, ,-51, ,
1, ,-51, ,
2, ,-52, ,
2, ,-51, ,
1, ,-51, ,
2, ,-51, ,
1, ,-51, ,
2, ,-51, ,
2, ,-52, ,
1, ,-51, ,
1, ,-51, ,
2, ,-51, ,
1, ,-51, ,
1, ,-51, ,
2, ,-52, ,
2, ,-50, ,
1, ,-51, ,
2, ,-51, ,
1, ,-51, ,
1, ,-51, ,
2, ,-51, ,
1, ,-50, ,
1, ,-51, ,
2, ,-51, ,
1, ,-51, ,
1, ,-51, ,
2, ,-51, ,
2, ,-50, ,
1, ,-51, ,
2, ,-51, ,
1, ,-51, ,
1, ,-51, ,
2, ,-51, ,
1, ,-50, ,
1, ,-51, ,
2, ,-51, ,
1, ,-51, ,
1, ,-51, ,
2, ,-51, ,
1, ,-50, ,
1, ,-51, ,
2, ,-42, ,
1, ,-22, ,
1, ,-5, ,
2, ,7, ,
2, ,16, ,
1, ,23, ,
2, ,28, ,
1, ,33, ,
1, ,35, ,
2, ,38, ,
1, ,38, ,
1, ,40, ,
2, ,41, ,
1, ,41, ,
1, ,42, ,
2, ,42, ,
1, ,42, ,
1, ,42, ,
2, ,43, ,
1, ,43, ,
1, ,43, ,
2, ,43, ,
1, ,42, ,
1, ,43, ,
2, ,43, ,
1, ,43, ,
1, ,42, ,
2, ,43, ,
1, ,42, ,
1, ,43, ,
2, ,43, ,
1, ,43, ,
1, ,42, ,
2, ,43, ,
1, ,42, ,
1, ,43, ,
2, ,43, ,
1, ,42, ,
1, ,42, ,
2, ,43, ,
1, ,42, ,
-1, ,42, ,
2, ,42, ,
1, ,43, ,
1, ,42, ,
2, ,43, ,
1, ,42, ,
1, ,42, ,
2, ,43, ,
1, ,42, ,
1, ,42, ,
2, ,43, ,
2, ,42, ,
-1, ,42, ,
2, ,42, ,
1, ,43, ,
1, ,42, ,
2, ,43, ,
1, ,41, ,
1, ,42, ,
2, ,42, ,
1, ,42, ,
1, ,42, ,
2, ,43, ,
1, ,42, ,
1, ,42, ,
2, ,42, ,
1, ,42, ,
1, ,42, ,
2, ,43, ,
1, ,42, ,
1, ,42, ,
2, ,42, ,
1, ,42, ,
1, ,42, ,
2, ,42, ,
1, ,42, ,
1, ,42, ,
2, ,42, ,
1, ,43, ,
1, ,42, ,
2, ,43, ,
1, ,42, ,
1, ,42, ,
2, ,42, ,
1, ,42, ,
1, ,42, ,
2, ,43, ,
1, ,42, ,
-1, ,42, ,
2, ,42, ,
1, ,42, ,
1, ,42, ,
2, ,43, ,
1, ,42, ,
-1, ,42, ,
2, ,43, ,
1, ,42, ,
1, ,42, ,
2, ,43, ,
1, ,42, ,
-1, ,42, ,
2, ,42, ,
1, ,42, ,
1, ,42, ,
2, ,43, ,
1, ,42, ,
-1, ,42, ,
2, ,43, ,
1, ,42, ,
1, ,42, ,
2, ,43, ,
1, ,42, ,
-1, ,42, ,
2, ,42, ,
1, ,43, ,
1, ,42, ,
1, ,43, ,
1, ,42, ,
-1, ,42, ,
2, ,43, ,
1, ,42, ,
1, ,42, ,
2, ,42, ,
1, ,42, ,
-1, ,42, ,
2, ,42, ,
1, ,42, ,
1, ,42, ,
1, ,43, ,
1, ,42, ,
1, ,42, ,
2, ,43, ,
1, ,42, ,
1, ,42, ,
2, ,42, ,
1, ,42, ,
-1, ,42, ,
2, ,42, ,
1, ,42, ,
1, ,42, ,
1, ,43, ,
1, ,42, ,
-1, ,42, ,
2, ,42, ,
1, ,42, ,
1, ,42, ,
1, ,42, ,
1, ,42, ,
-1, ,42, ,
2, ,42, ,
-1, ,42, ,
1, ,42, ,
2, ,42, ,
1, ,40, ,
-1, ,23, ,
2, ,4, ,
-1, ,-9, ,
1, ,-20, ,
1, ,-28, ,
1, ,-34, ,
-1, ,-39, ,
2, ,-42, ,
1, ,-44, ,
1, ,-46, ,
1, ,-49, ,
2, ,-49, ,
-1, ,-50, ,
2, ,-50, ,
-1, ,-51, ,
1, ,-51, ,
2, ,-52, ,
1, ,-51, ,
-1, ,-52, ,
2, ,-52, ,
1, ,-52, ,
1, ,-51, ,
1, ,-52, ,
1, ,-51, ,
-1, ,-52, ,
2, ,-52, ,
1, ,-52, ,
1, ,-52, ,
2, ,-52, ,
1, ,-51, ,
-1, ,-52, ,
2, ,-52, ,
1, ,-52, ,
1, ,-51, ,
1, ,-52, ,
1, ,-51, ,
-1, ,-52, ,
2, ,-52, ,
1, ,-51, ,
1, ,-51, ,
2, ,-52, ,
2, ,-51, ,
-1, ,-51, ,
2, ,-52, ,
1, ,-51, ,
1, ,-51, ,
1, ,-52, ,
1, ,-51, ,
-1, ,-52, ,
2, ,-51, ,
1, ,-51, ,
1, ,-51, ,
2, ,-52, ,
1, ,-51, ,
-1, ,-51, ,
2, ,-52, ,
1, ,-51, ,
1, ,-51, ,
1, ,-52, ,
1, ,-51, ,
-1, ,-51, ,
2, ,-52, ,
-1, ,-51, ,
1, ,-51, ,
1, ,-52, ,
1, ,-51, ,
-1, ,-51, ,
2, ,-51, ,
-1, ,-51, ,
1, ,-51, ,
2, ,-51, ,
1, ,-51, ,
-1, ,-51, ,
2, ,-51, ,
1, ,-51, ,
1, ,-51, ,
2, ,-51, ,
1, ,-51, ,
-1, ,-51, ,
2, ,-51, ,
1, ,-51, ,
1, ,-51, ,
1, ,-52, ,
1, ,-51, ,
-1, ,-51, ,
2, ,-51, ,
-1, ,-51, ,
1, ,-51, ,
1, ,-52, ,
1, ,-51, ,
-1, ,-51, ,
2, ,-52, ,
-1, ,-51, ,
-1, ,-51, ,
1, ,-52, ,
1, ,-51, ,
-1, ,-51, ,
2, ,-51, ,
-1, ,-51, ,
-1, ,-51, ,
1, ,-52, ,
1, ,-50, ,
-1, ,-51, ,
2, ,-52, ,
1, ,-51, ,
1, ,-51, ,
1, ,-51, ,
1, ,-51, ,
-1, ,-51, ,
2, ,-52, ,
-1, ,-51, ,
1, ,-51, ,
1, ,-51, ,
1, ,-50, ,
-1, ,-51, ,
2, ,-52, ,
1, ,-51, ,
1, ,-51, ,
1, ,-51, ,
1, ,-50, ,
-1, ,-51, ,
1, ,-52, ,
-1, ,-51, ,
1, ,-51, ,
1, ,-51, ,
2, ,-51, ,
-1, ,-51, ,
2, ,-51, ,
-1, ,-51, ,
1, ,-51, ,
1, ,-51, ,
1, ,-50, ,
-1, ,-51, ,
2, ,-51, ,
-1, ,-51, ,
1, ,-51, ,
1, ,-52, ,
1, ,-50, ,
-1, ,-51, ,
2, ,-52, ,
1, ,-51, ,
-1, ,-50, ,
1, ,-51, ,
1, ,-50, ,
-1, ,-51, ,
2, ,-51, ,
1, ,-51, ,
1, ,-51, ,
1, ,-52, ,
1, ,-50, ,
-1, ,-51, ,
2, ,-51, ,
1, ,-51, ,
1, ,-51, ,
1, ,-52, ,
1, ,-51, ,
-1, ,-51, ,
2, ,-51, ,
1, ,-51, ,
1, ,-51, ,
1, ,-52, ,
1, ,-50, ,
-1, ,-51, ,
2, ,-52, ,
1, ,-51, ,
1, ,-51, ,
1, ,-51, ,
1, ,-50, ,
-1, ,-51, ,
2, ,-51, ,
-1, ,-51, ,
1, ,-51, ,
2, ,-52, ,
2, ,-51, ,
-1, ,-51, ,
2, ,-51, ,
1, ,-51, ,
-1, ,-51, ,
1, ,-51, ,
1, ,-50, ,
-1, ,-51, ,
2, ,-51, ,
-1, ,-50, ,
1, ,-50, ,
1, ,-51, ,
1, ,-50, ,
-1, ,-51, ,
2, ,-51, ,
1, ,-51, ,
-1, ,-51, ,
1, ,-52, ,
1, ,-51, ,
-1, ,-51, ,
2, ,-51, ,
-1, ,-51, ,
1, ,-51, ,
1, ,-52, ,
1, ,-50, ,
-1, ,-51, ,
2, ,-51, ,
1, ,-51, ,
1, ,-51, ,
1, ,-52, ,
1, ,-50, ,
-1, ,-51, ,
2, ,-51, ,
-1, ,-51, ,
1, ,-51, ,
1, ,-51, ,
1, ,-50, ,
-1, ,-51, ,
2, ,-51, ,
-1, ,-51, ,
-1, ,-50, ,
1, ,-52, ,
1, ,-51, ,
-1, ,-51, ,
2, ,-51, ,
-1, ,-51, ,
-1, ,-50, ,
1, ,-51, ,
1, ,-51, ,
-1, ,-51, ,
2, ,-52, ,
-1, ,-51, ,
-1, ,-51, ,
1, ,-52, ,
1, ,-50, ,
-1, ,-51, ,
1, ,-51, ,
-1, ,-51, ,
-1, ,-51, ,
1, ,-52, ,
1, ,-50, ,
-1, ,-51, ,
1, ,-51, ,
-1, ,-51, ,
-1, ,-51, ,
1, ,-51, ,
1, ,-50, ,
-1, ,-52, ,
1, ,-51, ,
-1, ,-51, ,
1, ,-51, ,
1, ,-51, ,
1, ,-51, ,
-1, ,-51, ,
2, ,-52, ,
-1, ,-51, ,
-1, ,-51, ,
1, ,-51, ,
1, ,-50, ,
-1, ,-51, ,
2, ,-51, ,
-1, ,-51, ,
-1, ,-50, ,
1, ,-52, ,
1, ,-50, ,
-1, ,-51, ,
2, ,-51, ,
-1, ,-51, ,
-1, ,-50, ,
1, ,-51, ,
1, ,-50, ,
-1, ,-51, ,
2, ,-52, ,
-1, ,-51, ,
-1, ,-51, ,
1, ,-51, ,
1, ,-50, ,
-1, ,-51, ,
1, ,-51, ,
-1, ,-51, ,
-1, ,-50, ,
1, ,-51, ,
1, ,-50, ,
-1, ,-51, ,
2, ,-51, ,
-1, ,-51, ,
-1, ,-51, ,
1, ,-52, ,
1, ,-51, ,
-1, ,-51, ,
2, ,-51, ,
-1, ,-51, ,
1, ,-51, ,
1, ,-51, ,
1, ,-50, ,
-1, ,-51, ,
1, ,-51, ,
1, ,-51, ,
-1, ,-50, ,
1, ,-52, ,
1, ,-50, ,
-1, ,-51, ,
2, ,-51, ,
1, ,-51, ,
1, ,-51, ,
1, ,-51, ,
1, ,-50, ,
-1, ,-51, ,
1, ,-51, ,
-1, ,-51, ,
1, ,-51, ,
1, ,-52, ,
1, ,-51, ,
-1, ,-51, ,
1, ,-52, ,
-1, ,-51, ,
-1, ,-51, ,
1, ,-51, ,
1, ,-51, ,
-1, ,-51, ,
1, ,-51, ,
-1, ,-51, ,
-1, ,-51, ,
1, ,-52, ,
1, ,-50, ,
-1, ,-51, ,
1, ,-51, ,
1, ,-51, ,
-1, ,-51, ,
1, ,-52, ,
1, ,-50, ,
-1, ,-51, ,
1, ,-51, ,
-1, ,-51, ,
1, ,-51, ,
1, ,-51, ,
1, ,-50, ,
-1, ,-51, ,
1, ,-51, ,
-1, ,-51, ,
-1, ,-51, ,
1, ,-52, ,
1, ,-51, ,
-1, ,-51, ,
2, ,-52, ,
-1, ,-51, ,
-1, ,-51, ,
1, ,-52, ,
1, ,-50, ,
-1, ,-51, ,
1, ,-52, ,
-1, ,-51, ,
-1, ,-51, ,
1, ,-51, ,
1, ,-50, ,
-1, ,-51, ,
1, ,-51, ,
-1, ,-51, ,
-1, ,-51, ,
1, ,-52, ,
1, ,-51, ,
-1, ,-51, ,
1, ,-51, ,
-1, ,-51, ,
-1, ,-51, ,
1, ,-51, ,
1, ,-51, ,
-1, ,-51, ,
1, ,-51, ,
-1, ,-51, ,
-1, ,-51, ,
1, ,-52, ,
1, ,-51, ,
-1, ,-51, ,
1, ,-52, ,
-1, ,-51, ,
-1, ,-51, ,
1, ,-52, ,
1, ,-50, ,
-1, ,-51, ,
1, ,-52, ,
-1, ,-51, ,
-1, ,-51, ,
1, ,-52, ,
1, ,-50, ,
-1, ,-51, ,
1, ,-51, ,
-1, ,-51, ,
-1, ,-50, ,
1, ,-52, ,
1, ,-50, ,
-1, ,-51, ,
1, ,-52, ,
-1, ,-51, ,
-1, ,-51, ,
1, ,-52, ,
1, ,-50, ,
-1, ,-51, ,
1, ,-52, ,
-1, ,-51, ,
-1, ,-50, ,
1, ,-51, ,
1, ,-50, ,
-1, ,-51, ,
2, ,-52, ,
-1, ,-51, ,
-1, ,-50, ,
1, ,-52, ,
2, ,-50, ,
-1, ,-51, ,
1, ,-52, ,
-1, ,-51, ,
-1, ,-51, ,
1, ,-52, ,
1, ,-51, ,
-1, ,-51, ,
1, ,-52, ,
-1, ,-51, ,
-1, ,-51, ,
1, ,-51, ,
1, ,-50, ,
-1, ,-51, ,
2, ,-52, ,
-1, ,-51, ,
-1, ,-51, ,
1, ,-51, ,
1, ,-50, ,
-1, ,-51, ,
1, ,-52, ,
-1, ,-51, ,
-1, ,-51, ,
1, ,-52, ,
1, ,-51, ,
-1, ,-51, ,
1, ,-52, ,
-1, ,-51, ,
1, ,-51, ,
1, ,-52, ,
1, ,-50, ,
-1, ,-51, ,
1, ,-51, ,
-1, ,-51, ,
-1, ,-51, ,
1, ,-52, ,
1, ,-50, ,
-1, ,-51, ,
2, ,-52, ,
-1, ,-51, ,
-1, ,-50, ,
1, ,-51, ,
1, ,-50, ,
-1, ,-51, ,
1, ,-51, ,
-1, ,-51, ,
-1, ,-51, ,
1, ,-52, ,
1, ,-50, ,
-1, ,-51, ,
1, ,-52, ,
-1, ,-51, ,
-1, ,-51, ,
1, ,-51, ,
1, ,-50, ,
-1, ,-51, ,
2, ,-52, ,
-1, ,-51, ,
-1, ,-51, ,
1, ,-52, ,
1, ,-50, ,
-1, ,-51, ,
1, ,-52, ,
-1, ,-51, ,
-1, ,-51, ,
1, ,-51, ,
1, ,-50, ,
-1, ,-51, ,
2, ,-51, ,
-1, ,-51, ,
-1, ,-50, ,
1, ,-51, ,
1, ,-50, ,
-1, ,-51, ,
1, ,-52, ,
-1, ,-51, ,
-1, ,-51, ,
1, ,-52, ,
1, ,-51, ,
-1, ,-51, ,
1, ,-51, ,
-1, ,-51, ,
-1, ,-51, ,
1, ,-52, ,
1, ,-50, ,
-1, ,-51, ,
2, ,-51, ,
1, ,-51, ,
-1, ,-50, ,
1, ,-51, ,
1, ,-50, ,
-1, ,-51, ,
1, ,-51, ,
-1, ,-50, ,
-1, ,-51, ,
1, ,-52, ,
1, ,-50, ,
-1, ,-51, ,
1, ,-52, ,
-1, ,-51, ,
-1, ,-51, ,
1, ,-51, ,
1, ,-51, ,
-1, ,-51, ,
1, ,-52, ,
-1, ,-51, ,
-1, ,-51, ,
1, ,-52, ,
1, ,-50, ,
-1, ,-51, ,
92, ,-52, ,
66, ,-51, ,
38, ,-50, ,
25, ,-51, ,
16, ,-50, ,
10, ,-51, ,
8, ,-51, ,
5, ,-51, ,
3, ,-50, ,
3, ,-51, ,
2, ,-51, ,
1, ,-51, ,
3, ,-52, ,
2, ,-51, ,
2, ,-51, ,
2, ,-52, ,
3, ,-51, ,
2, ,-51, ,
3, ,-52, ,
2, ,-51, ,
2, ,-51, ,
3, ,-52, ,
2, ,-50, ,
1, ,-51, ,
3, ,-51, ,
2, ,-51, ,
2, ,-51, ,
3, ,-51, ,
3, ,-50, ,
1, ,-51, ,
3, ,-51, ,
2, ,-51, ,
2, ,-51, ,
3, ,-51, ,
3, ,-51, ,
1, ,-51, ,
3, ,-52, ,
2, ,-51, ,
2, ,-51, ,
2, ,-51, ,
3, ,-50, ,
2, ,-51, ,
3, ,-51, ,
2, ,-51, ,
2, ,-51, ,
2, ,-52, ,
3, ,-51, ,
1, ,-51, ,
3, ,-52, ,
2, ,-51, ,
2, ,-51, ,
2, ,-51, ,
3, ,-50, ,
1, ,-51, ,
3, ,-52, ,
2, ,-51, ,
2, ,-51, ,
2, ,-52, ,
3, ,-50, ,
1, ,-51, ,
3, ,-52, ,
2, ,-51, ,
2, ,-51, ,
2, ,-51, ,
3, ,-51, ,
1, ,-51, ,
3, ,-52, ,
2, ,-51, ,
2, ,-51, ,
2, ,-52, ,
2, ,-50, ,
1, ,-51, ,
3, ,-52, ,
2, ,-51, ,
2, ,-51, ,
2, ,-51, ,
3, ,-50, ,
1, ,-51, ,
3, ,-51, ,
2, ,-51, ,
2, ,-50, ,
2, ,-52, ,
3, ,-50, ,
2, ,-51, ,
3, ,-52, ,
2, ,-51, ,
2, ,-51, ,
2, ,-51, ,
2, ,-51, ,
1, ,-51, ,
2, ,-52, ,
2, ,-51, ,
2, ,-50, ,
2, ,-52, ,
2, ,-50, ,
1, ,-51, ,
3, ,-52, ,
2, ,-51, ,
2, ,-51, ,
2, ,-51, ,
2, ,-50, ,
1, ,-51, ,
3, ,-52, ,
1, ,-51, ,
2, ,-51, ,
2, ,-51, ,
2, ,-50, ,
1, ,-51, ,
2, ,-51, ,
2, ,-51, ,
2, ,-51, ,
2, ,-51, ,
2, ,-51, ,
1, ,-51, ,
3, ,-52, ,
1, ,-46, ,
1, ,-27, ,
2, ,-9, ,
2, ,4, ,
1, ,14, ,
3, ,21, ,
2, ,27, ,
2, ,32, ,
2, ,35, ,
2, ,36, ,
1, ,38, ,
2, ,40, ,
1, ,40, ,
1, ,41, ,
2, ,42, ,
2, ,42, ,
1, ,42, ,
2, ,43, ,
2, ,42, ,
1, ,43, ,
2, ,43, ,
1, ,42, ,
1, ,43, ,
2, ,43, ,
1, ,43, ,
1, ,43, ,
2, ,43, ,
1, ,42, ,
1, ,43, ,
2, ,43, ,
1, ,43, ,
1, ,43, ,
2, ,43, ,
2, ,42, ,
1, ,43, ,
2, ,43, ,
1, ,42, ,
2, ,42, ,
2, ,43, ,
2, ,42, ,
1, ,42, ,
2, ,43, ,
2, ,42, ,
1, ,42, ,
2, ,43, ,
1, ,42, ,
1, ,43, ,
2, ,43, ,
1, ,42, ,
1, ,42, ,
2, ,43, ,
2, ,42, ,
1, ,42, ,
2, ,42, ,
1, ,43, ,
1, ,42, ,
2, ,43, ,
2, ,42, ,
1, ,42, ,
2, ,43, ,
1, ,42, ,
1, ,42, ,
2, ,43, ,
2, ,42, ,
1, ,42, ,
2, ,42, ,
1, ,42, ,
1, ,42, ,
2, ,43, ,
2, ,42, ,
1, ,42, ,
2, ,43, ,
1, ,43, ,
1, ,42, ,
2, ,43, ,
2, ,42, ,
1, ,42, ,
2, ,42, ,
1, ,43, ,
1, ,42, ,
2, ,43, ,
2, ,42, ,
1, ,42, ,
2, ,42, ,
1, ,42, ,
1, ,42, ,
2, ,42, ,
2, ,42, ,
1, ,42, ,
2, ,43, ,
1, ,42, ,
1, ,42, ,
2, ,43, ,
2, ,42, ,
1, ,42, ,
2, ,43, ,
1, ,42, ,
1, ,42, ,
2, ,43, ,
2, ,42, ,
1, ,42, ,
2, ,42, ,
1, ,42, ,
1, ,42, ,
2, ,43, ,
2, ,42, ,
1, ,42, ,
2, ,42, ,
1, ,42, ,
2, ,42, ,
2, ,42, ,
1, ,42, ,
1, ,42, ,
2, ,42, ,
1, ,42, ,
1, ,42, ,
2, ,43, ,
2, ,42, ,
1, ,42, ,
2, ,43, ,
1, ,42, ,
1, ,42, ,
2, ,42, ,
1, ,42, ,
1, ,42, ,
2, ,42, ,
1, ,42, ,
1, ,42, ,
2, ,43, ,
1, ,42, ,
1, ,42, ,
2, ,42, ,
1, ,42, ,
1, ,42, ,
2, ,43, ,
1, ,42, ,
-1, ,42, ,
2, ,42, ,
1, ,42, ,
1, ,42, ,
2, ,43, ,
1, ,41, ,
1, ,42, ,
2, ,43, ,
1, ,42, ,
1, ,42, ,
2, ,43, ,
1, ,42, ,
-1, ,42, ,
2, ,42, ,
1, ,42, ,
1, ,42, ,
1, ,43, ,
1, ,42, ,
1, ,42, ,
2, ,28, ,
1, ,9, ,
1, ,-6, ,
1, ,-18, ,
1, ,-26, ,
-1, ,-33, ,
2, ,-38, ,
1, ,-41, ,
1, ,-43, ,
2, ,-46, ,
2, ,-46, ,
1, ,-49, ,
2, ,-50, ,
1, ,-50, ,
1, ,-51, ,
1, ,-52, ,
2, ,-51, ,
-1, ,-51, ,
2, ,-52, ,
1, ,-52, ,
1, ,-51, ,
2, ,-52, ,
2, ,-51, ,
-1, ,-52, ,
2, ,-52, ,
1, ,-52, ,
1, ,-51, ,
2, ,-52, ,
1, ,-51, ,
1, ,-52, ,
2, ,-52, ,
1, ,-51, ,
1, ,-51, ,
1, ,-52, ,
1, ,-51, ,
1, ,-52, ,
2, ,-52, ,
1, ,-52, ,
1, ,-51, ,
2, ,-52, ,
2, ,-51, ,
-1, ,-51, ,
2, ,-52, ,
1, ,-51, ,
1, ,-51, ,
2, ,-52, ,
1, ,-51, ,
1, ,-51, ,
2, ,-52, ,
1, ,-51, ,
1, ,-51, ,
2, ,-52, ,
2, ,-51, ,
-1, ,-51, ,
2, ,-52, ,
1, ,-51, ,
1, ,-51, ,
2, ,-52, ,
1, ,-50, ,
1, ,-52, ,
2, ,-51, ,
1, ,-51, ,
1, ,-51, ,
2, ,-52, ,
1, ,-50, ,
-1, ,-51, ,
2, ,-52, ,
1, ,-51, ,
1, ,-51, ,
2, ,-52, ,
1, ,-51, ,
1, ,-51, ,
2, ,-51, ,
1, ,-51, ,
1, ,-51, ,
2, ,-52, ,
1, ,-50, ,
-1, ,-51, ,
2, ,-51, ,
1, ,-51, ,
1, ,-51, ,
1, ,-52, ,
1, ,-50, ,
-1, ,-51, ,
2, ,-52, ,
1, ,-51, ,
1, ,-51, ,
2, ,-52, ,
2, ,-51, ,
-1, ,-51, ,
2, ,-52, ,
1, ,-51, ,
1, ,-51, ,
1, ,-52, ,
2, ,-51, ,
-1, ,-51, ,
2, ,-51, ,
1, ,-51, ,
1, ,-51, ,
2, ,-52, ,
1, ,-51, ,
-1, ,-51, ,
2, ,-52, ,
-1, ,-51, ,
1, ,-51, ,
1, ,-52, ,
1, ,-51, ,
-1, ,-51, ,
2, ,-51, ,
1, ,-51, ,
1, ,-51, ,
1, ,-52, ,
1, ,-50, ,
-1, ,-51, ,
2, ,-52, ,
1, ,-51, ,
1, ,-51, ,
2, ,-51, ,
1, ,-51, ,
-1, ,-51, ,
2, ,-51, ,
-1, ,-51, ,
1, ,-51, ,
1, ,-52, ,
1, ,-51, ,
-1, ,-51, ,
2, ,-51, ,
1, ,-51, ,
-1, ,-51, ,
1, ,-51, ,
1, ,-51, ,
-1, ,-51, ,
2, ,-51, ,
-1, ,-51, ,
1, ,-51, ,
1, ,-52, ,
1, ,-51, ,
-1, ,-51, ,
2, ,-51, ,
1, ,-51, ,
-1, ,-50, ,
2, ,-52, ,
1, ,-50, ,
-1, ,-51, ,
2, ,-51, ,
1, ,-51, ,
1, ,-50, ,
1, ,-52, ,
1, ,-50, ,
-1, ,-51, ,
2, ,-52, ,
1, ,-51, ,
1, ,-51, ,
2, ,-51, ,
1, ,-51, ,
-1, ,-51, ,
2, ,-52, ,
1, ,-51, ,
1, ,-50, ,
2, ,-52, ,
1, ,-50, ,
-1, ,-51, ,
2, ,-51, ,
1, ,-51, ,
1, ,-51, ,
2, ,-51, ,
1, ,-50, ,
-1, ,-51, ,
2, ,-51, ,
1, ,-51, ,
1, ,-51, ,
2, ,-52, ,
1, ,-50, ,
-1, ,-51, ,
2, ,-51, ,
1, ,-51, ,
1, ,-50, ,
2, ,-51, ,
1, ,-51, ,
-1, ,-51, ,
2, ,-51, ,
1, ,-51, ,
1, ,-51, ,
2, ,-52, ,
1, ,-50, ,
-1, ,-51, ,
2, ,-51, ,
1, ,-51, ,
1, ,-50, ,
2, ,-52, ,
2, ,-51, ,
-1, ,-51, ,
2, ,-51, ,
1, ,-51, ,
1, ,-51, ,
2, ,-52, ,
1, ,-50, ,
-1, ,-51, ,
2, ,-52, ,
1, ,-51, ,
1, ,-50, ,
2, ,-51, ,
1, ,-50, ,
-1, ,-51, ,
2, ,-52, ,
-1, ,-51, ,
1, ,-50, ,
2, ,-52, ,
1, ,-51, ,
-1, ,-51, ,
2, ,-51, ,
1, ,-51, ,
-1, ,-51, ,
2, ,-51, ,
1, ,-50, ,
-1, ,-51, ,
2, ,-51, ,
-1, ,-51, ,
1, ,-50, ,
2, ,-52, ,
1, ,-51, ,
-1, ,-51, ,
2, ,-52, ,
1, ,-51, ,
1, ,-51, ,
1, ,-51, ,
1, ,-51, ,
-1, ,-51, ,
2, ,-51, ,
-1, ,-51, ,
1, ,-50, ,
1, ,-51, ,
1, ,-50, ,
-1, ,-51, ,
1, ,-52, ,
1, ,-51, ,
-1, ,-51, ,
2, ,-52, ,
1, ,-50, ,
-1, ,-51, ,
1, ,-51, ,
-1, ,-51, ,
1, ,-51, ,
1, ,-52, ,
1, ,-50, ,
-1, ,-51, ,
2, ,-52, ,
-1, ,-51, ,
-1, ,-51, ,
1, ,-51, ,
1, ,-50, ,
-1, ,-51, ,
2, ,-51, ,
-1, ,-51, ,
1, ,-50, ,
2, ,-52, ,
1, ,-50, ,
-1, ,-51, ,
2, ,-52, ,
1, ,-51, ,
-1, ,-50, ,
2, ,-51, ,
1, ,-51, ,
-1, ,-51, ,
1, ,-51, ,
-1, ,-51, ,
1, ,-50, ,
1, ,-52, ,
1, ,-50, ,
-1, ,-51, ,
2, ,-51, ,
-1, ,-51, ,
-1, ,-50, ,
1, ,-51, ,
1, ,-50, ,
-1, ,-51, ,
1, ,-51, ,
-1, ,-51, ,
-1, ,-50, ,
1, ,-52, ,
1, ,-50, ,
-1, ,-51, ,
2, ,-51, ,
1, ,-51, ,
1, ,-51, ,
1, ,-51, ,
1, ,-51, ,
-1, ,-51, ,
2, ,-51, ,
-1, ,-51, ,
1, ,-50, ,
2, ,-52, ,
1, ,-50, ,
-1, ,-51, ,
2, ,-52, ,
1, ,-51, ,
1, ,-51, ,
1, ,-51, ,
1, ,-51, ,
-1, ,-51, ,
2, ,-51, ,
-1, ,-51, ,
1, ,-51, ,
1, ,-52, ,
1, ,-51, ,
-1, ,-51, ,
2, ,-51, ,
1, ,-51, ,
1, ,-50, ,
1, ,-51, ,
1, ,-50, ,
-1, ,-51, ,
2, ,-51, ,
-1, ,-51, ,
1, ,-50, ,
2, ,-52, ,
2, ,-50, ,
-1, ,-51, ,
2, ,-51, ,
1, ,-51, ,
1, ,-51, ,
1, ,-52, ,
1, ,-50, ,
-1, ,-51, ,
2, ,-51, ,
-1, ,-51, ,
1, ,-50, ,
1, ,-51, ,
1, ,-50, ,
-1, ,-51, ,
2, ,-51, ,
1, ,-51, ,
1, ,-51, ,
2, ,-51, ,
1, ,-51, ,
-1, ,-51, ,
2, ,-51, ,
1, ,-51, ,
1, ,-50, ,
2, ,-52, ,
1, ,-50, ,
-1, ,-51, ,
2, ,-51, ,
1, ,-51, ,
1, ,-51, ,
1, ,-51, ,
1, ,-50, ,
-1, ,-51, ,
1, ,-51, ,
1, ,-51, ,
1, ,-51, ,
1, ,-52, ,
1, ,-50, ,
-1, ,-51, ,
2, ,-52, ,
-1, ,-51, ,
-1, ,-51, ,
1, ,-51, ,
1, ,-50, ,
-1, ,-51, ,
1, ,-51, ,
1, ,-51, ,
1, ,-51, ,
1, ,-52, ,
1, ,-51, ,
-1, ,-51, ,
2, ,-52, ,
-1, ,-51, ,
1, ,-51, ,
2, ,-52, ,
1, ,-50, ,
-1, ,-51, ,
2, ,-51, ,
-1, ,-51, ,
1, ,-51, ,
1, ,-52, ,
1, ,-50, ,
-1, ,-51, ,
2, ,-52, ,
1, ,-51, ,
-1, ,-51, ,
1, ,-51, ,
1, ,-51, ,
-1, ,-51, ,
1, ,-51, ,
-1, ,-51, ,
1, ,-51, ,
1, ,-51, ,
1, ,-50, ,
-1, ,-51, ,
2, ,-52, ,
-1, ,-51, ,
-1, ,-50, ,
1, ,-51, ,
1, ,-51, ,
-1, ,-51, ,
1, ,-51, ,
-1, ,-51, ,
-1, ,-51, ,
1, ,-52, ,
1, ,-50, ,
-1, ,-51, ,
2, ,-51, ,
-1, ,-51, ,
1, ,-51, ,
1, ,-52, ,
1, ,-50, ,
-1, ,-51, ,
1, ,-51, ,
-1, ,-51, ,
1, ,-50, ,
2, ,-52, ,
1, ,-50, ,
-1, ,-51, ,
2, ,-51, ,
1, ,-51, ,
1, ,-50, ,
2, ,-51, ,
1, ,-50, ,
-1, ,-51, ,
2, ,-51, ,
1, ,-51, ,
1, ,-50, ,
1, ,-52, ,
1, ,-50, ,
-1, ,-51, ,
2, ,-51, ,
-1, ,-51, ,
1, ,-50, ,
1, ,-52, ,
1, ,-51, ,
-1, ,-51, ,
1, ,-51, ,
-1, ,-51, ,
-1, ,-51, ,
1, ,-52, ,
1, ,-50, ,
-1, ,-51, ,
2, ,-51, ,
1, ,-51, ,
1, ,-51, ,
1, ,-51, ,
1, ,-50, ,
-1, ,-51, ,
1, ,-51, ,
-1, ,-51, ,
1, ,-50, ,
1, ,-52, ,
1, ,-50, ,
-1, ,-51, ,
2, ,-51, ,
-1, ,-51, ,
-1, ,-51, ,
1, ,-51, ,
1, ,-51, ,
-1, ,-51, ,
2, ,-51, ,
1, ,-51, ,
1, ,-51, ,
1, ,-52, ,
1, ,-51, ,
-1, ,-51, ,
1, ,-52, ,
-1, ,-51, ,
1, ,-51, ,
1, ,-51, ,
1, ,-51, ,
-1, ,-51, ,
2, ,-52, ,
-1, ,-51, ,
-1, ,-51, ,
1, ,-52, ,
1, ,-50, ,
-1, ,-51, ,
1, ,-51, ,
-1, ,-51, ,
-1, ,-51, ,
1, ,-52, ,
1, ,-50, ,
