src/varyamp_1560/temp0001889.CSV

Format,1.0B,
Memory Length,10000,Memory Length,10000,
IntpDistance,0,IntpDistance,0,
Trigger Address,4999,Trigger Address,4999,
Trigger Level,1.040E+00,Trigger Level,1.040E+00,
Source,CH1,Source,CH2,
Vertical Units,V,Vertical Units,V,
Vertical Units Div,0,Vertical Units Div,0,
Vertical Units Extend Div,16,Vertical Units Extend Div,16,
Label,,Label,,
Probe Type,0,Probe Type,0,
Probe Ratio,1.000e+01,Probe Ratio,1.000e+00,
Vertical Scale,5.000e-01,Vertical Scale,1.000e+00,
Vertical Position,-1.820e+00,Vertical Position,0.000e+00,
Horizontal Units,S,Horizontal Units,S,
Horizontal Scale,2.000E-05,Horizontal Scale,2.000E-05,
Horizontal Position,0.000E+00,Horizontal Position,0.000E+00,
Horizontal Mode,Main,Horizontal Mode,Main,
SincET Mode,Real Time,SincET Mode,Real Time,
Sampling Period,2.000e-08,Sampling Period,2.000e-08,
Horizontal Old Scale,2.000E-05,Horizontal Old Scale,2.000E-05,
Horizontal Old Position,0.000E+00,Horizontal Old Position,0.000E+00,
Firmware,V1.23,Firmware,V1.23,
Mode,Fast,Mode,Fast,
Waveform Data,,Waveform Data,,
2, ,-54, ,
1, ,-54, ,
2, ,-54, ,
2, ,-54, ,
1, ,-54, ,
5, ,-54, ,
2, ,-54, ,
1, ,-54, ,
2, ,-54, ,
3, ,-55, ,
1, ,-54, ,
3, ,-54, ,
2, ,-55, ,
1, ,-54, ,
2, ,-54, ,
2, ,-54, ,
1, ,-54, ,
3, ,-54, ,
2, ,-55, ,
2, ,-54, ,
2, ,-54, ,
2, ,-54, ,
1, ,-54, ,
3, ,-54, ,
1, ,-55, ,
1, ,-54, ,
2, ,-54, ,
2, ,-54, ,
1, ,-54, ,
3, ,-54, ,
2, ,-55, ,
2, ,-54, ,
2, ,-54, ,
2, ,-54, ,
1, ,-55, ,
3, ,-54, ,
2, ,-55, ,
1, ,-54, ,
2, ,-54, ,
3, ,-54, ,
1, ,-54, ,
3, ,-54, ,
2, ,-55, ,
1, ,-54, ,
2, ,-54, ,
2, ,-54, ,
1, ,-54, ,
3, ,-54, ,
2, ,-54, ,
1, ,-54, ,
2, ,-54, ,
2, ,-54, ,
1, ,-54, ,
3, ,-54, ,
1, ,-55, ,
1, ,-54, ,
2, ,-54, ,
2, ,-55, ,
1, ,-54, ,
3, ,-54, ,
1, ,-54, ,
1, ,-54, ,
2, ,-54, ,
2, ,-54, ,
-1, ,-54, ,
3, ,-54, ,
1, ,-55, ,
1, ,-54, ,
2, ,-54, ,
2, ,-55, ,
1, ,-54, ,
3, ,-54, ,
1, ,-55, ,
1, ,-54, ,
2, ,-54, ,
3, ,-54, ,
-1, ,-54, ,
3, ,-54, ,
1, ,-55, ,
1, ,-54, ,
2, ,-54, ,
2, ,-55, ,
1, ,-54, ,
2, ,-54, ,
1, ,-55, ,
1, ,-54, ,
2, ,-54, ,
2, ,-54, ,
-1, ,-54, ,
3, ,-54, ,
1, ,-55, ,
1, ,-54, ,
2, ,-54, ,
2, ,-54, ,
1, ,-54, ,
2, ,-54, ,
1, ,-55, ,
1, ,-54, ,
2, ,-54, ,
2, ,-54, ,
-1, ,-54, ,
3, ,-55, ,
1, ,-55, ,
1, ,-54, ,
2, ,-54, ,
2, ,-54, ,
1, ,-54, ,
3, ,-54, ,
1, ,-54, ,
1, ,-54, ,
2, ,-54, ,
2, ,-54, ,
-1, ,-54, ,
3, ,-55, ,
1, ,-55, ,
1, ,-54, ,
2, ,-54, ,
2, ,-54, ,
1, ,-54, ,
3, ,-54, ,
1, ,-54, ,
1, ,-54, ,
2, ,-55, ,
2, ,-54, ,
-1, ,-54, ,
3, ,-54, ,
1, ,-55, ,
1, ,-54, ,
2, ,-54, ,
2, ,-54, ,
-1, ,-54, ,
3, ,-54, ,
1, ,-54, ,
1, ,-54, ,
2, ,-54, ,
2, ,-54, ,
1, ,-54, ,
2, ,-55, ,
1, ,-55, ,
1, ,-54, ,
2, ,-54, ,
2, ,-55, ,
1, ,-54, ,
3, ,-54, ,
1, ,-55, ,
1, ,-54, ,
2, ,-55, ,
2, ,-54, ,
-1, ,-54, ,
3, ,-54, ,
1, ,-55, ,
1, ,-54, ,
2, ,-54, ,
2, ,-55, ,
1, ,-55, ,
2, ,-54, ,
1, ,-55, ,
1, ,-54, ,
2, ,-54, ,
2, ,-54, ,
-1, ,-54, ,
3, ,-54, ,
1, ,-54, ,
1, ,-54, ,
2, ,-54, ,
2, ,-55, ,
1, ,-54, ,
2, ,-54, ,
1, ,-55, ,
1, ,-54, ,
2, ,-54, ,
2, ,-54, ,
-1, ,-54, ,
3, ,-54, ,
1, ,-55, ,
1, ,-54, ,
2, ,-54, ,
2, ,-54, ,
1, ,-54, ,
2, ,-54, ,
1, ,-55, ,
1, ,-54, ,
2, ,-54, ,
2, ,-55, ,
-1, ,-54, ,
3, ,-54, ,
1, ,-55, ,
1, ,-54, ,
2, ,-54, ,
2, ,-54, ,
-1, ,-54, ,
2, ,-54, ,
1, ,-55, ,
1, ,-54, ,
2, ,-54, ,
2, ,-54, ,
-1, ,-54, ,
2, ,-54, ,
1, ,-55, ,
1, ,-54, ,
2, ,-54, ,
2, ,-54, ,
-1, ,-54, ,
2, ,-54, ,
1, ,-55, ,
1, ,-54, ,
2, ,-55, ,
2, ,-55, ,
-1, ,-54, ,
2, ,-54, ,
1, ,-55, ,
1, ,-54, ,
2, ,-54, ,
2, ,-55, ,
-1, ,-55, ,
2, ,-54, ,
1, ,-55, ,
1, ,-54, ,
2, ,-55, ,
2, ,-54, ,
-1, ,-54, ,
2, ,-54, ,
1, ,-55, ,
1, ,-54, ,
2, ,-54, ,
2, ,-54, ,
-1, ,-54, ,
2, ,-54, ,
1, ,-55, ,
1, ,-54, ,
2, ,-54, ,
2, ,-55, ,
-1, ,-55, ,
2, ,-54, ,
1, ,-55, ,
1, ,-54, ,
1, ,-54, ,
2, ,-55, ,
-1, ,-55, ,
2, ,-54, ,
1, ,-55, ,
1, ,-54, ,
2, ,-54, ,
2, ,-55, ,
-1, ,-54, ,
2, ,-54, ,
1, ,-55, ,
1, ,-54, ,
2, ,-54, ,
1, ,-55, ,
-1, ,-54, ,
2, ,-54, ,
1, ,-55, ,
1, ,-54, ,
2, ,-54, ,
1, ,-54, ,
-1, ,-54, ,
2, ,-54, ,
1, ,-55, ,
1, ,-54, ,
1, ,-54, ,
1, ,-55, ,
-1, ,-55, ,
2, ,-54, ,
1, ,-55, ,
1, ,-54, ,
2, ,-54, ,
2, ,-54, ,
-1, ,-54, ,
2, ,-54, ,
1, ,-55, ,
1, ,-54, ,
2, ,-54, ,
2, ,-54, ,
-1, ,-54, ,
2, ,-54, ,
1, ,-55, ,
1, ,-54, ,
2, ,-54, ,
2, ,-54, ,
-1, ,-55, ,
2, ,-54, ,
1, ,-55, ,
1, ,-54, ,
2, ,-54, ,
2, ,-55, ,
-1, ,-55, ,
2, ,-54, ,
1, ,-54, ,
1, ,-54, ,
2, ,-54, ,
2, ,-54, ,
-1, ,-54, ,
2, ,-54, ,
1, ,-55, ,
1, ,-54, ,
2, ,-54, ,
1, ,-54, ,
-1, ,-55, ,
2, ,-54, ,
1, ,-55, ,
1, ,-54, ,
2, ,-54, ,
2, ,-54, ,
-1, ,-53, ,
2, ,-35, ,
1, ,-16, ,
1, ,-2, ,
2, ,8, ,
1, ,17, ,
-1, ,23, ,
2, ,26, ,
1, ,31, ,
1, ,32, ,
2, ,35, ,
1, ,36, ,
-1, ,37, ,
2, ,38, ,
1, ,38, ,
-1, ,38, ,
2, ,39, ,
1, ,39, ,
-1, ,39, ,
2, ,39, ,
1, ,39, ,
-1, ,39, ,
2, ,39, ,
1, ,39, ,
-1, ,40, ,
2, ,39, ,
1, ,39, ,
1, ,39, ,
2, ,39, ,
1, ,39, ,
-1, ,39, ,
1, ,39, ,
1, ,39, ,
1, ,39, ,
2, ,39, ,
1, ,39, ,
-1, ,39, ,
2, ,39, ,
1, ,39, ,
1, ,39, ,
2, ,39, ,
1, ,39, ,
-1, ,39, ,
2, ,39, ,
1, ,39, ,
1, ,39, ,
2, ,39, ,
1, ,39, ,
-1, ,39, ,
2, ,39, ,
1, ,39, ,
-1, ,39, ,
2, ,39, ,
1, ,39, ,
-1, ,39, ,
2, ,39, ,
1, ,39, ,
-1, ,39, ,
2, ,39, ,
1, ,39, ,
-1, ,39, ,
2, ,39, ,
1, ,39, ,
-1, ,39, ,
2, ,38, ,
1, ,39, ,
-1, ,39, ,
1, ,39, ,
1, ,39, ,
-1, ,39, ,
2, ,39, ,
1, ,39, ,
-1, ,39, ,
2, ,39, ,
1, ,39, ,
1, ,39, ,
2, ,39, ,
1, ,39, ,
-1, ,39, ,
2, ,39, ,
1, ,39, ,
-1, ,38, ,
2, ,38, ,
1, ,39, ,
58, ,39, ,
54, ,39, ,
34, ,38, ,
20, ,39, ,
13, ,38, ,
10, ,39, ,
6, ,39, ,
6, ,39, ,
3, ,39, ,
2, ,38, ,
5, ,38, ,
2, ,39, ,
1, ,39, ,
3, ,39, ,
2, ,39, ,
2, ,39, ,
3, ,38, ,
2, ,39, ,
1, ,39, ,
3, ,39, ,
2, ,39, ,
2, ,38, ,
3, ,39, ,
2, ,39, ,
1, ,39, ,
3, ,39, ,
2, ,39, ,
1, ,38, ,
3, ,38, ,
2, ,38, ,
1, ,39, ,
3, ,39, ,
2, ,38, ,
2, ,38, ,
3, ,39, ,
2, ,39, ,
1, ,39, ,
3, ,39, ,
2, ,39, ,
1, ,39, ,
3, ,38, ,
2, ,39, ,
2, ,39, ,
3, ,39, ,
2, ,38, ,
1, ,38, ,
3, ,38, ,
2, ,39, ,
1, ,39, ,
3, ,39, ,
2, ,39, ,
1, ,39, ,
2, ,38, ,
2, ,39, ,
1, ,39, ,
3, ,39, ,
2, ,39, ,
1, ,38, ,
2, ,39, ,
2, ,39, ,
1, ,39, ,
3, ,39, ,
2, ,39, ,
1, ,39, ,
2, ,39, ,
2, ,39, ,
1, ,39, ,
3, ,39, ,
1, ,39, ,
1, ,39, ,
3, ,39, ,
2, ,28, ,
1, ,8, ,
3, ,-7, ,
2, ,-20, ,
2, ,-28, ,
2, ,-35, ,
2, ,-40, ,
1, ,-44, ,
3, ,-46, ,
1, ,-50, ,
1, ,-51, ,
2, ,-52, ,
2, ,-53, ,
1, ,-53, ,
3, ,-54, ,
2, ,-55, ,
1, ,-54, ,
2, ,-55, ,
3, ,-55, ,
1, ,-55, ,
3, ,-55, ,
1, ,-55, ,
1, ,-55, ,
2, ,-55, ,
2, ,-55, ,
1, ,-55, ,
3, ,-55, ,
2, ,-55, ,
1, ,-54, ,
2, ,-55, ,
2, ,-55, ,
1, ,-55, ,
3, ,-55, ,
1, ,-55, ,
1, ,-55, ,
2, ,-55, ,
2, ,-55, ,
1, ,-55, ,
3, ,-55, ,
1, ,-55, ,
1, ,-55, ,
2, ,-55, ,
2, ,-55, ,
1, ,-55, ,
3, ,-54, ,
1, ,-55, ,
1, ,-54, ,
2, ,-54, ,
2, ,-55, ,
1, ,-54, ,
3, ,-55, ,
1, ,-55, ,
1, ,-54, ,
2, ,-54, ,
2, ,-55, ,
1, ,-55, ,
3, ,-54, ,
1, ,-55, ,
1, ,-55, ,
2, ,-55, ,
2, ,-55, ,
1, ,-55, ,
3, ,-54, ,
1, ,-55, ,
1, ,-54, ,
2, ,-54, ,
2, ,-54, ,
1, ,-54, ,
3, ,-54, ,
1, ,-54, ,
1, ,-54, ,
2, ,-54, ,
2, ,-55, ,
1, ,-55, ,
3, ,-54, ,
1, ,-55, ,
1, ,-54, ,
2, ,-54, ,
2, ,-55, ,
1, ,-55, ,
3, ,-54, ,
1, ,-54, ,
1, ,-54, ,
2, ,-54, ,
2, ,-54, ,
-1, ,-54, ,
3, ,-54, ,
1, ,-55, ,
1, ,-54, ,
2, ,-54, ,
2, ,-55, ,
1, ,-55, ,
2, ,-54, ,
1, ,-55, ,
1, ,-54, ,
2, ,-54, ,
2, ,-54, ,
-1, ,-55, ,
3, ,-54, ,
1, ,-55, ,
1, ,-54, ,
2, ,-54, ,
2, ,-55, ,
1, ,-55, ,
2, ,-54, ,
1, ,-55, ,
1, ,-54, ,
2, ,-54, ,
2, ,-54, ,
1, ,-54, ,
3, ,-54, ,
1, ,-55, ,
1, ,-54, ,
2, ,-54, ,
2, ,-55, ,
1, ,-54, ,
3, ,-54, ,
1, ,-55, ,
1, ,-54, ,
2, ,-54, ,
2, ,-54, ,
1, ,-54, ,
3, ,-54, ,
1, ,-55, ,
1, ,-53, ,
2, ,-54, ,
2, ,-54, ,
-1, ,-54, ,
2, ,-54, ,
1, ,-55, ,
1, ,-54, ,
2, ,-54, ,
2, ,-54, ,
-1, ,-55, ,
2, ,-54, ,
1, ,-55, ,
1, ,-54, ,
2, ,-55, ,
2, ,-55, ,
-1, ,-55, ,
2, ,-54, ,
1, ,-54, ,
1, ,-54, ,
2, ,-54, ,
2, ,-54, ,
-1, ,-54, ,
2, ,-54, ,
1, ,-55, ,
1, ,-54, ,
2, ,-54, ,
2, ,-54, ,
-1, ,-54, ,
2, ,-54, ,
1, ,-55, ,
1, ,-54, ,
2, ,-55, ,
2, ,-54, ,
-1, ,-55, ,
3, ,-54, ,
1, ,-55, ,
1, ,-54, ,
2, ,-54, ,
2, ,-54, ,
-1, ,-54, ,
2, ,-54, ,
1, ,-55, ,
1, ,-54, ,
2, ,-54, ,
2, ,-55, ,
-1, ,-55, ,
2, ,-54, ,
1, ,-55, ,
1, ,-54, ,
2, ,-54, ,
2, ,-54, ,
-1, ,-54, ,
2, ,-54, ,
1, ,-55, ,
1, ,-54, ,
2, ,-54, ,
2, ,-54, ,
-1, ,-54, ,
2, ,-54, ,
1, ,-55, ,
1, ,-54, ,
2, ,-54, ,
2, ,-55, ,
-1, ,-54, ,
2, ,-54, ,
1, ,-54, ,
1, ,-54, ,
2, ,-54, ,
2, ,-54, ,
-1, ,-55, ,
2, ,-54, ,
1, ,-55, ,
1, ,-54, ,
2, ,-54, ,
2, ,-54, ,
1, ,-54, ,
2, ,-54, ,
1, ,-54, ,
1, ,-54, ,
2, ,-54, ,
2, ,-54, ,
-1, ,-55, ,
2, ,-54, ,
1, ,-55, ,
1, ,-54, ,
2, ,-54, ,
2, ,-54, ,
-1, ,-54, ,
2, ,-54, ,
1, ,-55, ,
1, ,-54, ,
2, ,-54, ,
2, ,-54, ,
-1, ,-54, ,
2, ,-54, ,
1, ,-55, ,
1, ,-54, ,
2, ,-54, ,
2, ,-54, ,
-1, ,-54, ,
2, ,-54, ,
1, ,-55, ,
1, ,-54, ,
1, ,-54, ,
2, ,-54, ,
-1, ,-55, ,
2, ,-54, ,
1, ,-55, ,
1, ,-54, ,
2, ,-54, ,
2, ,-55, ,
-1, ,-54, ,
2, ,-54, ,
1, ,-55, ,
1, ,-54, ,
2, ,-54, ,
2, ,-55, ,
-1, ,-54, ,
2, ,-54, ,
1, ,-55, ,
1, ,-54, ,
2, ,-54, ,
2, ,-54, ,
-1, ,-55, ,
2, ,-54, ,
1, ,-55, ,
1, ,-54, ,
2, ,-54, ,
1, ,-54, ,
-1, ,-55, ,
2, ,-54, ,
1, ,-55, ,
1, ,-54, ,
1, ,-54, ,
1, ,-55, ,
-1, ,-54, ,
2, ,-54, ,
1, ,-55, ,
1, ,-54, ,
2, ,-55, ,
1, ,-54, ,
-1, ,-55, ,
2, ,-54, ,
1, ,-55, ,
1, ,-54, ,
1, ,-54, ,
1, ,-54, ,
-1, ,-54, ,
2, ,-54, ,
1, ,-55, ,
1, ,-54, ,
2, ,-54, ,
1, ,-54, ,
-1, ,-54, ,
2, ,-54, ,
1, ,-54, ,
1, ,-54, ,
1, ,-54, ,
1, ,-54, ,
-1, ,-54, ,
2, ,-54, ,
1, ,-54, ,
1, ,-54, ,
1, ,-54, ,
1, ,-54, ,
-1, ,-55, ,
2, ,-54, ,
1, ,-55, ,
1, ,-54, ,
1, ,-54, ,
1, ,-54, ,
-1, ,-55, ,
2, ,-54, ,
1, ,-55, ,
1, ,-54, ,
2, ,-54, ,
1, ,-54, ,
-1, ,-54, ,
2, ,-54, ,
1, ,-55, ,
1, ,-54, ,
2, ,-54, ,
1, ,-55, ,
-1, ,-54, ,
2, ,-54, ,
1, ,-55, ,
1, ,-54, ,
2, ,-54, ,
2, ,-54, ,
-1, ,-54, ,
2, ,-54, ,
1, ,-54, ,
1, ,-54, ,
2, ,-54, ,
1, ,-54, ,
-1, ,-54, ,
2, ,-54, ,
1, ,-55, ,
1, ,-54, ,
1, ,-54, ,
1, ,-55, ,
-1, ,-55, ,
2, ,-54, ,
1, ,-55, ,
1, ,-54, ,
2, ,-54, ,
1, ,-55, ,
-1, ,-54, ,
2, ,-54, ,
1, ,-54, ,
1, ,-54, ,
2, ,-54, ,
2, ,-54, ,
-1, ,-54, ,
2, ,-54, ,
1, ,-55, ,
1, ,-54, ,
1, ,-54, ,
1, ,-54, ,
-1, ,-54, ,
2, ,-54, ,
1, ,-55, ,
1, ,-54, ,
2, ,-54, ,
1, ,-54, ,
-1, ,-54, ,
2, ,-54, ,
1, ,-55, ,
1, ,-54, ,
1, ,-54, ,
2, ,-55, ,
-1, ,-54, ,
2, ,-54, ,
1, ,-54, ,
1, ,-54, ,
1, ,-54, ,
1, ,-54, ,
-1, ,-54, ,
2, ,-54, ,
1, ,-55, ,
1, ,-54, ,
1, ,-54, ,
1, ,-54, ,
-1, ,-54, ,
2, ,-54, ,
1, ,-55, ,
1, ,-54, ,
1, ,-54, ,
1, ,-54, ,
-1, ,-54, ,
2, ,-54, ,
1, ,-55, ,
1, ,-54, ,
1, ,-54, ,
1, ,-54, ,
-1, ,-55, ,
2, ,-54, ,
1, ,-55, ,
-1, ,-54, ,
1, ,-54, ,
1, ,-54, ,
-1, ,-54, ,
2, ,-54, ,
1, ,-55, ,
1, ,-54, ,
1, ,-54, ,
1, ,-54, ,
-1, ,-54, ,
2, ,-54, ,
-1, ,-54, ,
-1, ,-54, ,
1, ,-54, ,
1, ,-54, ,
-1, ,-55, ,
2, ,-54, ,
1, ,-54, ,
-1, ,-54, ,
1, ,-54, ,
2, ,-54, ,
-1, ,-54, ,
1, ,-54, ,
1, ,-55, ,
-1, ,-54, ,
2, ,-54, ,
1, ,-54, ,
-1, ,-54, ,
2, ,-54, ,
1, ,-55, ,
1, ,-54, ,
1, ,-54, ,
1, ,-55, ,
-1, ,-54, ,
2, ,-54, ,
1, ,-55, ,
1, ,-54, ,
1, ,-54, ,
1, ,-54, ,
-1, ,-55, ,
2, ,-54, ,
1, ,-55, ,
1, ,-54, ,
1, ,-54, ,
1, ,-55, ,
-1, ,-54, ,
2, ,-54, ,
-1, ,-55, ,
1, ,-54, ,
2, ,-54, ,
1, ,-54, ,
-1, ,-54, ,
2, ,-54, ,
-1, ,-55, ,
-1, ,-54, ,
1, ,-54, ,
1, ,-54, ,
-1, ,-54, ,
2, ,-54, ,
1, ,-54, ,
-1, ,-54, ,
1, ,-54, ,
1, ,-55, ,
-1, ,-55, ,
2, ,-54, ,
1, ,-55, ,
1, ,-54, ,
1, ,-54, ,
1, ,-55, ,
-1, ,-54, ,
2, ,-54, ,
-1, ,-55, ,
1, ,-54, ,
1, ,-54, ,
1, ,-54, ,
-1, ,-54, ,
2, ,-54, ,
1, ,-55, ,
-1, ,-54, ,
1, ,-54, ,
1, ,-54, ,
-1, ,-54, ,
2, ,-54, ,
1, ,-55, ,
1, ,-54, ,
1, ,-54, ,
1, ,-54, ,
-1, ,-54, ,
2, ,-54, ,
1, ,-55, ,
1, ,-54, ,
2, ,-54, ,
1, ,-54, ,
-1, ,-54, ,
2, ,-54, ,
-1, ,-55, ,
1, ,-54, ,
2, ,-54, ,
1, ,-54, ,
-1, ,-54, ,
2, ,-54, ,
1, ,-55, ,
-1, ,-54, ,
1, ,-54, ,
1, ,-54, ,
-1, ,-55, ,
1, ,-54, ,
-1, ,-55, ,
1, ,-54, ,
1, ,-54, ,
1, ,-54, ,
-1, ,-54, ,
2, ,-54, ,
1, ,-55, ,
-1, ,-54, ,
2, ,-54, ,
1, ,-55, ,
-1, ,-54, ,
2, ,-54, ,
1, ,-55, ,
1, ,-54, ,
1, ,-54, ,
1, ,-55, ,
-1, ,-54, ,
2, ,-54, ,
1, ,-55, ,
1, ,-54, ,
1, ,-54, ,
1, ,-54, ,
-1, ,-54, ,
2, ,-54, ,
-1, ,-55, ,
-1, ,-54, ,
2, ,-54, ,
1, ,-54, ,
-1, ,-54, ,
2, ,-54, ,
1, ,-55, ,
1, ,-54, ,
1, ,-54, ,
1, ,-55, ,
-1, ,-54, ,
2, ,-54, ,
-1, ,-54, ,
1, ,-54, ,
1, ,-54, ,
1, ,-54, ,
-2, ,-54, ,
2, ,-54, ,
1, ,-55, ,
-1, ,-54, ,
1, ,-54, ,
1, ,-55, ,
-1, ,-54, ,
2, ,-54, ,
-1, ,-55, ,
-1, ,-54, ,
2, ,-54, ,
1, ,-54, ,
-1, ,-54, ,
2, ,-54, ,
-1, ,-55, ,
-1, ,-54, ,
1, ,-54, ,
1, ,-55, ,
-1, ,-54, ,
1, ,-54, ,
-1, ,-55, ,
-1, ,-54, ,
1, ,-54, ,
1, ,-54, ,
-1, ,-54, ,
2, ,-54, ,
-1, ,-55, ,
-1, ,-54, ,
1, ,-54, ,
1, ,-55, ,
-1, ,-54, ,
1, ,-54, ,
-1, ,-55, ,
-1, ,-54, ,
1, ,-54, ,
1, ,-54, ,
-2, ,-55, ,
2, ,-54, ,
-1, ,-55, ,
-1, ,-54, ,
1, ,-54, ,
1, ,-55, ,
-1, ,-54, ,
2, ,-54, ,
-1, ,-55, ,
-1, ,-54, ,
1, ,-54, ,
1, ,-55, ,
-1, ,-54, ,
1, ,-54, ,
-1, ,-55, ,
-1, ,-54, ,
1, ,-54, ,
1, ,-55, ,
-1, ,-55, ,
2, ,-54, ,
-1, ,-55, ,
-1, ,-54, ,
1, ,-54, ,
1, ,-55, ,
-2, ,-55, ,
2, ,-54, ,
1, ,-55, ,
-1, ,-54, ,
1, ,-54, ,
1, ,-55, ,
-1, ,-54, ,
2, ,-54, ,
-1, ,-55, ,
-1, ,-54, ,
1, ,-54, ,
1, ,-54, ,
-1, ,-55, ,
2, ,-54, ,
-1, ,-55, ,
-1, ,-54, ,
1, ,-54, ,
1, ,-55, ,
-1, ,-54, ,
2, ,-54, ,
1, ,-55, ,
-1, ,-54, ,
1, ,-54, ,
1, ,-54, ,
-1, ,-54, ,
2, ,-54, ,
1, ,-55, ,
-1, ,-54, ,
1, ,-54, ,
1, ,-54, ,
-1, ,-54, ,
2, ,-54, ,
-1, ,-55, ,
-1, ,-54, ,
2, ,-54, ,
1, ,-54, ,
-1, ,-54, ,
2, ,-53, ,
-1, ,-41, ,
1, ,-20, ,
1, ,-5, ,
1, ,6, ,
-1, ,15, ,
2, ,21, ,
1, ,26, ,
-1, ,30, ,
1, ,33, ,
1, ,34, ,
-1, ,36, ,
2, ,36, ,
-1, ,38, ,
-1, ,38, ,
1, ,38, ,
1, ,39, ,
-1, ,39, ,
2, ,39, ,
-1, ,39, ,
-1, ,39, ,
2, ,39, ,
1, ,40, ,
-1, ,39, ,
2, ,39, ,
-1, ,39, ,
-1, ,39, ,
1, ,39, ,
1, ,39, ,
-1, ,39, ,
2, ,39, ,
1, ,39, ,
-1, ,39, ,
1, ,39, ,
-1, ,39, ,
-1, ,39, ,
2, ,39, ,
1, ,39, ,
-1, ,39, ,
1, ,39, ,
1, ,39, ,
-1, ,39, ,
1, ,39, ,
-1, ,39, ,
-1, ,39, ,
1, ,39, ,
1, ,39, ,
-2, ,39, ,
2, ,39, ,
1, ,39, ,
-1, ,39, ,
1, ,39, ,
-1, ,39, ,
-1, ,39, ,
2, ,39, ,
1, ,39, ,
-1, ,39, ,
1, ,39, ,
-1, ,39, ,
-1, ,39, ,
1, ,38, ,
1, ,39, ,
-1, ,39, ,
1, ,39, ,
1, ,39, ,
-1, ,39, ,
1, ,39, ,
-1, ,39, ,
-1, ,39, ,
2, ,38, ,
-1, ,39, ,
-2, ,39, ,
2, ,38, ,
1, ,39, ,
-1, ,39, ,
1, ,38, ,
1, ,39, ,
-1, ,39, ,
1, ,39, ,
-1, ,39, ,
-1, ,39, ,
2, ,39, ,
1, ,39, ,
-2, ,39, ,
2, ,39, ,
-1, ,38, ,
-1, ,39, ,
1, ,38, ,
1, ,39, ,
-1, ,39, ,
2, ,39, ,
-1, ,39, ,
-1, ,39, ,
1, ,39, ,
1, ,39, ,
-1, ,39, ,
2, ,39, ,
-1, ,39, ,
-1, ,39, ,
1, ,39, ,
1, ,39, ,
-1, ,39, ,
1, ,39, ,
-1, ,39, ,
-1, ,39, ,
2, ,39, ,
1, ,39, ,
-1, ,39, ,
2, ,39, ,
1, ,39, ,
-1, ,39, ,
1, ,39, ,
1, ,39, ,
-1, ,39, ,
2, ,39, ,
-1, ,39, ,
-1, ,38, ,
1, ,39, ,
1, ,39, ,
-1, ,39, ,
2, ,39, ,
1, ,39, ,
-1, ,39, ,
1, ,38, ,
1, ,39, ,
-1, ,39, ,
1, ,39, ,
1, ,39, ,
-1, ,39, ,
2, ,38, ,
-1, ,39, ,
-1, ,39, ,
1, ,38, ,
1, ,39, ,
-1, ,39, ,
1, ,38, ,
1, ,39, ,
-1, ,39, ,
2, ,39, ,
-1, ,39, ,
-1, ,39, ,
2, ,38, ,
1, ,39, ,
-1, ,39, ,
2, ,39, ,
1, ,39, ,
-1, ,39, ,
1, ,39, ,
-1, ,39, ,
-1, ,39, ,
1, ,39, ,
-1, ,39, ,
-1, ,38, ,
1, ,39, ,
1, ,39, ,
-1, ,34, ,
1, ,14, ,
-1, ,-4, ,
-1, ,-17, ,
1, ,-26, ,
-1, ,-34, ,
-1, ,-39, ,
1, ,-43, ,
-1, ,-46, ,
-1, ,-49, ,
1, ,-51, ,
1, ,-52, ,
-2, ,-53, ,
1, ,-53, ,
-1, ,-54, ,
-1, ,-54, ,
1, ,-54, ,
1, ,-55, ,
-2, ,-55, ,
2, ,-55, ,
-1, ,-55, ,
-1, ,-55, ,
1, ,-55, ,
1, ,-55, ,
-1, ,-55, ,
2, ,-55, ,
-1, ,-55, ,
-1, ,-55, ,
1, ,-55, ,
1, ,-55, ,
-1, ,-55, ,
2, ,-55, ,
-1, ,-55, ,
-1, ,-55, ,
1, ,-55, ,
1, ,-55, ,
-2, ,-54, ,
2, ,-55, ,
-1, ,-55, ,
-1, ,-54, ,
1, ,-54, ,
1, ,-55, ,
-1, ,-54, ,
2, ,-55, ,
-1, ,-55, ,
-1, ,-54, ,
1, ,-55, ,
1, ,-55, ,
-2, ,-55, ,
2, ,-55, ,
-1, ,-55, ,
-1, ,-54, ,
1, ,-55, ,
1, ,-55, ,
-1, ,-54, ,
2, ,-55, ,
-1, ,-55, ,
-1, ,-55, ,
1, ,-55, ,
1, ,-55, ,
-2, ,-54, ,
1, ,-55, ,
-1, ,-55, ,
-1, ,-54, ,
1, ,-54, ,
1, ,-54, ,
-1, ,-55, ,
2, ,-54, ,
-1, ,-55, ,
-1, ,-55, ,
1, ,-55, ,
1, ,-54, ,
-1, ,-54, ,
1, ,-54, ,
-1, ,-55, ,
-1, ,-54, ,
1, ,-54, ,
1, ,-55, ,
-1, ,-54, ,
1, ,-54, ,
-1, ,-55, ,
-1, ,-55, ,
1, ,-55, ,
1, ,-54, ,
-1, ,-54, ,
2, ,-54, ,
-1, ,-55, ,
-1, ,-54, ,
1, ,-54, ,
1, ,-55, ,
-1, ,-54, ,
1, ,-55, ,
-1, ,-55, ,
-1, ,-55, ,
2, ,-54, ,
1, ,-54, ,
-2, ,-54, ,
2, ,-54, ,
-1, ,-54, ,
-1, ,-54, ,
1, ,-54, ,
1, ,-55, ,
-1, ,-54, ,
2, ,-54, ,
-1, ,-54, ,
-1, ,-54, ,
1, ,-55, ,
1, ,-54, ,
-2, ,-54, ,
1, ,-54, ,
-1, ,-55, ,
-1, ,-54, ,
1, ,-54, ,
1, ,-55, ,
-1, ,-54, ,
2, ,-54, ,
-1, ,-55, ,
-1, ,-54, ,
1, ,-54, ,
1, ,-54, ,
-1, ,-54, ,
1, ,-54, ,
-1, ,-55, ,
-1, ,-54, ,
1, ,-54, ,
1, ,-54, ,
-2, ,-54, ,
1, ,-54, ,
-1, ,-55, ,
-1, ,-54, ,
1, ,-54, ,
1, ,-54, ,
-2, ,-54, ,
2, ,-54, ,
-1, ,-55, ,
-1, ,-54, ,
1, ,-54, ,
1, ,-54, ,
-1, ,-54, ,
1, ,-54, ,
-1, ,-54, ,
-1, ,-54, ,
1, ,-54, ,
1, ,-54, ,
-2, ,-54, ,
2, ,-54, ,
-1, ,-55, ,
-1, ,-54, ,
1, ,-54, ,
1, ,-54, ,
-1, ,-54, ,
2, ,-54, ,
-1, ,-55, ,
-1, ,-54, ,
1, ,-54, ,
1, ,-54, ,
-2, ,-54, ,
1, ,-54, ,
-1, ,-55, ,
-1, ,-54, ,
1, ,-54, ,
1, ,-54, ,
-1, ,-54, ,
2, ,-54, ,
-1, ,-54, ,
-1, ,-54, ,
1, ,-54, ,
1, ,-54, ,
-2, ,-54, ,
2, ,-54, ,
-1, ,-55, ,
-1, ,-54, ,
1, ,-54, ,
1, ,-54, ,
-2, ,-54, ,
2, ,-54, ,
-1, ,-54, ,
-1, ,-54, ,
1, ,-54, ,
1, ,-54, ,
-2, ,-54, ,
2, ,-54, ,
-1, ,-55, ,
-1, ,-54, ,
1, ,-54, ,
1, ,-54, ,
-1, ,-54, ,
1, ,-54, ,
-1, ,-55, ,
-1, ,-54, ,
1, ,-54, ,
1, ,-54, ,
-2, ,-54, ,
1, ,-54, ,
-1, ,-55, ,
-1, ,-54, ,
1, ,-54, ,
1, ,-55, ,
-1, ,-54, ,
2, ,-54, ,
-1, ,-55, ,
-1, ,-54, ,
1, ,-54, ,
-1, ,-54, ,
-2, ,-54, ,
1, ,-54, ,
-1, ,-55, ,
-1, ,-54, ,
1, ,-54, ,
1, ,-54, ,
-1, ,-54, ,
2, ,-54, ,
-1, ,-55, ,
-1, ,-54, ,
1, ,-54, ,
1, ,-54, ,
-1, ,-54, ,
1, ,-54, ,
-1, ,-55, ,
-1, ,-54, ,
1, ,-54, ,
1, ,-54, ,
-1, ,-54, ,
1, ,-54, ,
-1, ,-54, ,
-1, ,-54, ,
1, ,-54, ,
1, ,-54, ,
-2, ,-54, ,
2, ,-54, ,
-1, ,-54, ,
-1, ,-54, ,
1, ,-54, ,
1, ,-54, ,
-1, ,-54, ,
2, ,-54, ,
-1, ,-55, ,
-1, ,-54, ,
1, ,-54, ,
1, ,-54, ,
-1, ,-54, ,
1, ,-54, ,
-1, ,-55, ,
-1, ,-54, ,
1, ,-54, ,
1, ,-54, ,
-2, ,-54, ,
2, ,-54, ,
-1, ,-55, ,
-1, ,-54, ,
1, ,-54, ,
1, ,-54, ,
-2, ,-54, ,
2, ,-54, ,
-1, ,-55, ,
-1, ,-54, ,
1, ,-54, ,
1, ,-54, ,
-1, ,-54, ,
2, ,-54, ,
-1, ,-55, ,
-1, ,-54, ,
1, ,-54, ,
1, ,-54, ,
-2, ,-54, ,
1, ,-54, ,
-1, ,-55, ,
-1, ,-54, ,
1, ,-54, ,
1, ,-54, ,
-2, ,-54, ,
2, ,-54, ,
-1, ,-55, ,
-1, ,-54, ,
1, ,-54, ,
1, ,-54, ,
-2, ,-54, ,
2, ,-54, ,
-1, ,-55, ,
-1, ,-54, ,
1, ,-54, ,
1, ,-55, ,
-2, ,-54, ,
1, ,-54, ,
-1, ,-55, ,
-1, ,-54, ,
1, ,-54, ,
1, ,-54, ,
-2, ,-55, ,
2, ,-54, ,
-1, ,-55, ,
-1, ,-54, ,
1, ,-54, ,
1, ,-54, ,
-1, ,-54, ,
2, ,-54, ,
-1, ,-55, ,
-1, ,-54, ,
1, ,-54, ,
1, ,-55, ,
-2, ,-54, ,
1, ,-54, ,
-1, ,-55, ,
-1, ,-54, ,
1, ,-54, ,
1, ,-54, ,
-2, ,-54, ,
2, ,-54, ,
-1, ,-55, ,
-1, ,-54, ,
1, ,-54, ,
-1, ,-54, ,
-2, ,-54, ,
2, ,-54, ,
-1, ,-54, ,
-1, ,-54, ,
1, ,-54, ,
1, ,-55, ,
-1, ,-54, ,
2, ,-54, ,
-1, ,-55, ,
-1, ,-54, ,
1, ,-54, ,
1, ,-54, ,
-2, ,-54, ,
1, ,-54, ,
-1, ,-55, ,
-1, ,-54, ,
1, ,-54, ,
1, ,-54, ,
-1, ,-54, ,
2, ,-54, ,
-1, ,-55, ,
-1, ,-54, ,
1, ,-54, ,
1, ,-54, ,
-1, ,-54, ,
2, ,-54, ,
-1, ,-55, ,
-1, ,-54, ,
1, ,-54, ,
1, ,-54, ,
-1, ,-54, ,
2, ,-54, ,
-1, ,-54, ,
-1, ,-54, ,
1, ,-54, ,
1, ,-54, ,
-2, ,-54, ,
1, ,-54, ,
-1, ,-55, ,
-1, ,-54, ,
1, ,-54, ,
1, ,-54, ,
-1, ,-54, ,
1, ,-54, ,
-1, ,-55, ,
-1, ,-54, ,
1, ,-54, ,
1, ,-54, ,
-2, ,-54, ,
2, ,-54, ,
-1, ,-55, ,
-1, ,-54, ,
1, ,-54, ,
1, ,-54, ,
-1, ,-54, ,
1, ,-54, ,
-1, ,-54, ,
-1, ,-54, ,
1, ,-54, ,
1, ,-54, ,
-1, ,-54, ,
1, ,-54, ,
-1, ,-55, ,
-1, ,-54, ,
1, ,-54, ,
1, ,-54, ,
-1, ,-55, ,
1, ,-54, ,
-1, ,-54, ,
-1, ,-54, ,
1, ,-54, ,
1, ,-55, ,
-1, ,-54, ,
1, ,-54, ,
-1, ,-55, ,
-1, ,-54, ,
1, ,-54, ,
1, ,-54, ,
-1, ,-54, ,
1, ,-54, ,
-1, ,-55, ,
-1, ,-54, ,
1, ,-55, ,
1, ,-54, ,
-2, ,-54, ,
2, ,-54, ,
-1, ,-55, ,
-1, ,-54, ,
1, ,-54, ,
1, ,-55, ,
-1, ,-55, ,
2, ,-54, ,
-1, ,-55, ,
-1, ,-54, ,
1, ,-54, ,
1, ,-54, ,
-2, ,-55, ,
1, ,-54, ,
-1, ,-55, ,
-1, ,-54, ,
1, ,-54, ,
1, ,-55, ,
-1, ,-54, ,
2, ,-54, ,
-1, ,-55, ,
-1, ,-54, ,
1, ,-54, ,
1, ,-54, ,
-2, ,-54, ,
2, ,-54, ,
-1, ,-55, ,
-1, ,-54, ,
1, ,-54, ,
1, ,-55, ,
-1, ,-54, ,
2, ,-54, ,
-1, ,-55, ,
-1, ,-54, ,
1, ,-54, ,
1, ,-54, ,
-2, ,-54, ,
1, ,-54, ,
-1, ,-55, ,
-1, ,-54, ,
1, ,-54, ,
1, ,-55, ,
-1, ,-54, ,
2, ,-54, ,
-1, ,-54, ,
-1, ,-54, ,
1, ,-54, ,
1, ,-54, ,
-2, ,-54, ,
1, ,-54, ,
-1, ,-55, ,
-1, ,-54, ,
1, ,-54, ,
1, ,-54, ,
-1, ,-54, ,
2, ,-54, ,
-1, ,-55, ,
-1, ,-54, ,
1, ,-54, ,
1, ,-54, ,
-2, ,-54, ,
1, ,-54, ,
-1, ,-55, ,
-1, ,-54, ,
1, ,-54, ,
1, ,-55, ,
-1, ,-54, ,
2, ,-54, ,
-1, ,-54, ,
-1, ,-54, ,
