src/varyamp_1560/temp0002949.CSV

Format,1.0B,
Memory Length,10000,Memory Length,10000,
IntpDistance,0,IntpDistance,0,
Trigger Address,4999,Trigger Address,4999,
Trigger Level,1.040E+00,Trigger Level,1.040E+00,
Source,CH1,Source,CH2,
Vertical Units,V,Vertical Units,V,
Vertical Units Div,0,Vertical Units Div,0,
Vertical Units Extend Div,16,Vertical Units Extend Div,16,
Label,,Label,,
Probe Type,0,Probe Type,0,
Probe Ratio,1.000e+01,Probe Ratio,1.000e+00,
Vertical Scale,5.000e-01,Vertical Scale,1.000e+00,
Vertical Position,-1.820e+00,Vertical Position,0.000e+00,
Horizontal Units,S,Horizontal Units,S,
Horizontal Scale,2.000E-05,Horizontal Scale,2.000E-05,
Horizontal Position,0.000E+00,Horizontal Position,0.000E+00,
Horizontal Mode,Main,Horizontal Mode,Main,
SincET Mode,Real Time,SincET Mode,Real Time,
Sampling Period,2.000e-08,Sampling Period,2.000e-08,
Horizontal Old Scale,2.000E-05,Horizontal Old Scale,2.000E-05,
Horizontal Old Position,0.000E+00,Horizontal Old Position,0.000E+00,
Firmware,V1.23,Firmware,V1.23,
Mode,Fast,Mode,Fast,
Waveform Data,,Waveform Data,,
3, ,-49, ,
2, ,-50, ,
2, ,-50, ,
3, ,-49, ,
2, ,-50, ,
2, ,-50, ,
3, ,-49, ,
2, ,-50, ,
2, ,-49, ,
3, ,-49, ,
3, ,-50, ,
2, ,-49, ,
3, ,-50, ,
2, ,-50, ,
2, ,-50, ,
3, ,-49, ,
3, ,-50, ,
2, ,-49, ,
3, ,-50, ,
2, ,-50, ,
2, ,-49, ,
2, ,-49, ,
2, ,-50, ,
2, ,-49, ,
3, ,-49, ,
2, ,-50, ,
2, ,-49, ,
2, ,-49, ,
3, ,-50, ,
1, ,-49, ,
3, ,-50, ,
2, ,-50, ,
2, ,-49, ,
3, ,-49, ,
2, ,-50, ,
1, ,-49, ,
3, ,-50, ,
2, ,-50, ,
2, ,-49, ,
2, ,-50, ,
2, ,-50, ,
1, ,-50, ,
3, ,-50, ,
1, ,-49, ,
2, ,-49, ,
2, ,-49, ,
3, ,-50, ,
1, ,-49, ,
3, ,-49, ,
2, ,-50, ,
2, ,-49, ,
2, ,-49, ,
2, ,-50, ,
1, ,-49, ,
3, ,-49, ,
2, ,-50, ,
2, ,-49, ,
2, ,-49, ,
2, ,-50, ,
1, ,-49, ,
3, ,-49, ,
2, ,-50, ,
2, ,-50, ,
3, ,-49, ,
2, ,-50, ,
1, ,-50, ,
3, ,-50, ,
2, ,-50, ,
1, ,-49, ,
2, ,-50, ,
2, ,-50, ,
1, ,-49, ,
3, ,-50, ,
1, ,-50, ,
2, ,-49, ,
2, ,-49, ,
2, ,-50, ,
1, ,-50, ,
3, ,-50, ,
2, ,-50, ,
2, ,-49, ,
2, ,-50, ,
2, ,-50, ,
1, ,-49, ,
3, ,-49, ,
2, ,-50, ,
2, ,-49, ,
2, ,-49, ,
2, ,-50, ,
1, ,-49, ,
3, ,-50, ,
2, ,-50, ,
2, ,-49, ,
2, ,-49, ,
2, ,-50, ,
1, ,-49, ,
3, ,-49, ,
2, ,-50, ,
2, ,-49, ,
2, ,-49, ,
2, ,-50, ,
1, ,-49, ,
2, ,-50, ,
1, ,-50, ,
2, ,-49, ,
2, ,-49, ,
2, ,-50, ,
1, ,-49, ,
2, ,-49, ,
1, ,-50, ,
2, ,-49, ,
2, ,-49, ,
2, ,-50, ,
1, ,-50, ,
2, ,-50, ,
1, ,-50, ,
2, ,-49, ,
2, ,-49, ,
2, ,-50, ,
1, ,-49, ,
3, ,-49, ,
1, ,-50, ,
2, ,-49, ,
2, ,-49, ,
2, ,-50, ,
1, ,-49, ,
2, ,-49, ,
1, ,-50, ,
2, ,-49, ,
2, ,-49, ,
2, ,-50, ,
1, ,-49, ,
2, ,-49, ,
1, ,-50, ,
2, ,-49, ,
2, ,-49, ,
2, ,-50, ,
1, ,-50, ,
2, ,-50, ,
2, ,-50, ,
2, ,-49, ,
2, ,-49, ,
2, ,-50, ,
1, ,-49, ,
2, ,-50, ,
1, ,-50, ,
1, ,-50, ,
2, ,-49, ,
2, ,-50, ,
1, ,-50, ,
2, ,-49, ,
1, ,-50, ,
2, ,-49, ,
2, ,-50, ,
2, ,-50, ,
1, ,-49, ,
2, ,-49, ,
1, ,-50, ,
2, ,-50, ,
2, ,-49, ,
2, ,-50, ,
1, ,-49, ,
2, ,-50, ,
1, ,-50, ,
2, ,-49, ,
2, ,-49, ,
2, ,-50, ,
1, ,-49, ,
2, ,-49, ,
1, ,-50, ,
2, ,-49, ,
2, ,-49, ,
2, ,-50, ,
1, ,-50, ,
2, ,-50, ,
1, ,-50, ,
1, ,-49, ,
2, ,-50, ,
2, ,-51, ,
1, ,-49, ,
2, ,-50, ,
1, ,-50, ,
1, ,-49, ,
2, ,-49, ,
2, ,-50, ,
1, ,-50, ,
2, ,-50, ,
1, ,-50, ,
1, ,-49, ,
2, ,-50, ,
2, ,-50, ,
1, ,-49, ,
2, ,-49, ,
1, ,-50, ,
1, ,-49, ,
2, ,-49, ,
2, ,-50, ,
1, ,-50, ,
2, ,-50, ,
1, ,-50, ,
2, ,-49, ,
2, ,-50, ,
2, ,-50, ,
1, ,-49, ,
2, ,-49, ,
1, ,-50, ,
2, ,-49, ,
2, ,-49, ,
2, ,-50, ,
1, ,-50, ,
2, ,-50, ,
1, ,-50, ,
1, ,-49, ,
2, ,-50, ,
1, ,-50, ,
1, ,-49, ,
2, ,-49, ,
1, ,-50, ,
1, ,-50, ,
2, ,-49, ,
2, ,-50, ,
-1, ,-50, ,
2, ,-50, ,
1, ,-50, ,
1, ,-49, ,
2, ,-49, ,
2, ,-50, ,
-1, ,-49, ,
2, ,-49, ,
1, ,-50, ,
1, ,-49, ,
2, ,-49, ,
2, ,-50, ,
1, ,-50, ,
2, ,-49, ,
1, ,-49, ,
1, ,-49, ,
2, ,-49, ,
2, ,-50, ,
-1, ,-49, ,
2, ,-49, ,
1, ,-50, ,
2, ,-49, ,
2, ,-49, ,
2, ,-50, ,
1, ,-50, ,
2, ,-50, ,
1, ,-50, ,
1, ,-49, ,
2, ,-50, ,
2, ,-50, ,
1, ,-49, ,
2, ,-50, ,
1, ,-50, ,
1, ,-49, ,
2, ,-49, ,
1, ,-50, ,
1, ,-50, ,
2, ,-50, ,
1, ,-50, ,
1, ,-49, ,
2, ,-50, ,
2, ,-50, ,
1, ,-49, ,
2, ,-49, ,
1, ,-50, ,
1, ,-49, ,
2, ,-49, ,
2, ,-50, ,
1, ,-50, ,
2, ,-50, ,
1, ,-49, ,
1, ,-49, ,
2, ,-50, ,
1, ,-50, ,
-1, ,-49, ,
2, ,-49, ,
1, ,-50, ,
1, ,-50, ,
2, ,-49, ,
2, ,-50, ,
1, ,-50, ,
2, ,-50, ,
1, ,-49, ,
1, ,-49, ,
2, ,-50, ,
2, ,-50, ,
-1, ,-49, ,
2, ,-50, ,
1, ,-50, ,
1, ,-49, ,
2, ,-49, ,
2, ,-50, ,
-1, ,-50, ,
2, ,-50, ,
1, ,-50, ,
1, ,-49, ,
2, ,-49, ,
2, ,-50, ,
-1, ,-49, ,
2, ,-49, ,
1, ,-50, ,
1, ,-50, ,
2, ,-49, ,
1, ,-50, ,
-1, ,-49, ,
2, ,-41, ,
1, ,-21, ,
1, ,-4, ,
2, ,8, ,
2, ,18, ,
1, ,24, ,
2, ,30, ,
1, ,34, ,
1, ,36, ,
2, ,39, ,
1, ,41, ,
1, ,41, ,
2, ,42, ,
1, ,43, ,
1, ,43, ,
2, ,43, ,
1, ,44, ,
1, ,43, ,
2, ,44, ,
1, ,44, ,
1, ,44, ,
2, ,44, ,
1, ,45, ,
-1, ,44, ,
2, ,44, ,
1, ,44, ,
1, ,44, ,
1, ,44, ,
1, ,44, ,
1, ,44, ,
2, ,44, ,
1, ,44, ,
1, ,44, ,
2, ,44, ,
2, ,45, ,
-1, ,44, ,
2, ,44, ,
1, ,44, ,
1, ,44, ,
1, ,44, ,
1, ,44, ,
-1, ,44, ,
2, ,44, ,
1, ,44, ,
1, ,43, ,
1, ,44, ,
1, ,44, ,
-1, ,44, ,
2, ,44, ,
1, ,44, ,
1, ,44, ,
1, ,43, ,
1, ,44, ,
-1, ,43, ,
2, ,44, ,
1, ,44, ,
1, ,43, ,
2, ,44, ,
1, ,44, ,
1, ,43, ,
2, ,44, ,
1, ,44, ,
1, ,44, ,
2, ,43, ,
1, ,44, ,
-1, ,43, ,
2, ,44, ,
1, ,44, ,
1, ,43, ,
2, ,44, ,
1, ,44, ,
5, ,44, ,
57, ,44, ,
35, ,44, ,
22, ,43, ,
15, ,43, ,
10, ,44, ,
6, ,43, ,
7, ,44, ,
5, ,44, ,
5, ,44, ,
5, ,43, ,
3, ,44, ,
2, ,43, ,
5, ,44, ,
2, ,44, ,
2, ,43, ,
3, ,43, ,
2, ,44, ,
2, ,43, ,
3, ,44, ,
2, ,44, ,
2, ,44, ,
3, ,44, ,
2, ,44, ,
2, ,44, ,
3, ,44, ,
2, ,44, ,
2, ,43, ,
3, ,43, ,
2, ,44, ,
2, ,43, ,
3, ,43, ,
2, ,44, ,
2, ,43, ,
2, ,43, ,
2, ,44, ,
1, ,43, ,
3, ,44, ,
2, ,44, ,
2, ,44, ,
3, ,44, ,
2, ,44, ,
2, ,43, ,
3, ,43, ,
2, ,44, ,
2, ,44, ,
3, ,43, ,
2, ,44, ,
1, ,43, ,
3, ,43, ,
2, ,44, ,
2, ,43, ,
3, ,43, ,
2, ,44, ,
1, ,43, ,
3, ,44, ,
2, ,44, ,
2, ,44, ,
3, ,43, ,
2, ,44, ,
1, ,43, ,
3, ,43, ,
2, ,44, ,
2, ,44, ,
2, ,43, ,
2, ,44, ,
2, ,43, ,
3, ,44, ,
2, ,44, ,
2, ,44, ,
3, ,43, ,
2, ,44, ,
1, ,43, ,
3, ,44, ,
2, ,44, ,
2, ,43, ,
3, ,43, ,
2, ,44, ,
1, ,43, ,
2, ,44, ,
2, ,44, ,
2, ,44, ,
2, ,43, ,
2, ,42, ,
1, ,25, ,
2, ,6, ,
1, ,-7, ,
1, ,-19, ,
2, ,-26, ,
2, ,-33, ,
1, ,-37, ,
3, ,-40, ,
2, ,-43, ,
2, ,-45, ,
2, ,-46, ,
2, ,-47, ,
1, ,-47, ,
3, ,-49, ,
2, ,-50, ,
2, ,-50, ,
2, ,-50, ,
2, ,-51, ,
1, ,-49, ,
2, ,-50, ,
1, ,-51, ,
1, ,-50, ,
2, ,-50, ,
3, ,-51, ,
2, ,-50, ,
3, ,-50, ,
1, ,-50, ,
2, ,-50, ,
2, ,-50, ,
2, ,-51, ,
1, ,-50, ,
2, ,-50, ,
1, ,-51, ,
2, ,-50, ,
2, ,-50, ,
2, ,-51, ,
1, ,-50, ,
3, ,-50, ,
2, ,-50, ,
1, ,-49, ,
2, ,-50, ,
2, ,-51, ,
1, ,-50, ,
3, ,-50, ,
2, ,-50, ,
2, ,-50, ,
2, ,-49, ,
2, ,-50, ,
1, ,-50, ,
3, ,-50, ,
2, ,-50, ,
2, ,-50, ,
2, ,-50, ,
2, ,-51, ,
1, ,-49, ,
2, ,-50, ,
2, ,-50, ,
2, ,-50, ,
2, ,-49, ,
2, ,-50, ,
1, ,-50, ,
3, ,-50, ,
1, ,-50, ,
2, ,-50, ,
2, ,-50, ,
2, ,-51, ,
1, ,-49, ,
2, ,-50, ,
2, ,-50, ,
2, ,-50, ,
2, ,-49, ,
2, ,-50, ,
1, ,-50, ,
2, ,-50, ,
1, ,-50, ,
2, ,-50, ,
2, ,-50, ,
2, ,-51, ,
1, ,-49, ,
3, ,-50, ,
2, ,-50, ,
2, ,-50, ,
2, ,-49, ,
2, ,-50, ,
1, ,-50, ,
3, ,-50, ,
1, ,-50, ,
1, ,-50, ,
2, ,-50, ,
2, ,-50, ,
1, ,-49, ,
3, ,-50, ,
1, ,-51, ,
2, ,-50, ,
2, ,-49, ,
2, ,-50, ,
1, ,-49, ,
2, ,-50, ,
2, ,-50, ,
2, ,-50, ,
2, ,-50, ,
2, ,-50, ,
1, ,-49, ,
2, ,-50, ,
1, ,-50, ,
1, ,-50, ,
2, ,-49, ,
2, ,-50, ,
1, ,-50, ,
2, ,-50, ,
1, ,-50, ,
2, ,-49, ,
2, ,-50, ,
2, ,-50, ,
1, ,-49, ,
2, ,-50, ,
1, ,-50, ,
2, ,-49, ,
2, ,-49, ,
2, ,-50, ,
1, ,-50, ,
2, ,-50, ,
1, ,-50, ,
2, ,-50, ,
2, ,-50, ,
2, ,-50, ,
1, ,-49, ,
2, ,-50, ,
1, ,-50, ,
1, ,-50, ,
2, ,-49, ,
2, ,-50, ,
1, ,-50, ,
2, ,-50, ,
2, ,-50, ,
2, ,-49, ,
2, ,-50, ,
2, ,-50, ,
1, ,-49, ,
2, ,-50, ,
1, ,-50, ,
1, ,-49, ,
2, ,-49, ,
2, ,-50, ,
1, ,-49, ,
2, ,-50, ,
1, ,-50, ,
2, ,-49, ,
2, ,-50, ,
2, ,-50, ,
1, ,-49, ,
2, ,-50, ,
1, ,-50, ,
1, ,-50, ,
2, ,-49, ,
2, ,-50, ,
1, ,-50, ,
2, ,-50, ,
1, ,-50, ,
1, ,-50, ,
2, ,-50, ,
2, ,-50, ,
1, ,-49, ,
2, ,-49, ,
1, ,-50, ,
1, ,-50, ,
2, ,-49, ,
2, ,-50, ,
-1, ,-50, ,
2, ,-50, ,
1, ,-50, ,
1, ,-50, ,
2, ,-50, ,
1, ,-50, ,
1, ,-49, ,
2, ,-49, ,
1, ,-50, ,
1, ,-50, ,
2, ,-49, ,
2, ,-50, ,
1, ,-50, ,
2, ,-50, ,
1, ,-50, ,
1, ,-49, ,
2, ,-49, ,
1, ,-50, ,
1, ,-49, ,
2, ,-49, ,
1, ,-50, ,
1, ,-50, ,
2, ,-49, ,
2, ,-50, ,
1, ,-50, ,
2, ,-50, ,
1, ,-50, ,
1, ,-49, ,
2, ,-50, ,
1, ,-50, ,
1, ,-49, ,
2, ,-50, ,
1, ,-50, ,
1, ,-50, ,
2, ,-49, ,
2, ,-50, ,
1, ,-50, ,
2, ,-50, ,
1, ,-50, ,
1, ,-49, ,
2, ,-49, ,
2, ,-50, ,
1, ,-49, ,
2, ,-49, ,
1, ,-50, ,
1, ,-49, ,
2, ,-49, ,
2, ,-50, ,
1, ,-50, ,
2, ,-50, ,
1, ,-50, ,
1, ,-49, ,
2, ,-50, ,
2, ,-51, ,
1, ,-49, ,
2, ,-50, ,
1, ,-50, ,
1, ,-49, ,
2, ,-49, ,
2, ,-50, ,
-1, ,-50, ,
2, ,-50, ,
1, ,-50, ,
2, ,-49, ,
2, ,-49, ,
1, ,-50, ,
1, ,-49, ,
2, ,-49, ,
1, ,-50, ,
1, ,-50, ,
2, ,-49, ,
2, ,-50, ,
1, ,-50, ,
2, ,-50, ,
1, ,-50, ,
1, ,-49, ,
2, ,-50, ,
2, ,-50, ,
1, ,-49, ,
2, ,-50, ,
1, ,-50, ,
1, ,-49, ,
2, ,-49, ,
2, ,-50, ,
1, ,-49, ,
2, ,-50, ,
1, ,-50, ,
2, ,-49, ,
2, ,-50, ,
1, ,-50, ,
-1, ,-49, ,
2, ,-50, ,
1, ,-50, ,
1, ,-50, ,
2, ,-49, ,
1, ,-50, ,
1, ,-50, ,
2, ,-49, ,
1, ,-49, ,
1, ,-50, ,
1, ,-50, ,
2, ,-50, ,
1, ,-49, ,
2, ,-50, ,
1, ,-50, ,
1, ,-50, ,
2, ,-49, ,
1, ,-50, ,
-1, ,-50, ,
2, ,-50, ,
1, ,-50, ,
1, ,-49, ,
2, ,-49, ,
1, ,-50, ,
-1, ,-49, ,
2, ,-50, ,
1, ,-50, ,
1, ,-50, ,
2, ,-49, ,
1, ,-50, ,
-1, ,-50, ,
2, ,-50, ,
1, ,-50, ,
1, ,-50, ,
2, ,-49, ,
1, ,-50, ,
-1, ,-49, ,
2, ,-50, ,
1, ,-50, ,
1, ,-49, ,
2, ,-49, ,
1, ,-50, ,
-1, ,-50, ,
2, ,-50, ,
1, ,-50, ,
1, ,-49, ,
2, ,-50, ,
1, ,-50, ,
-1, ,-49, ,
2, ,-49, ,
1, ,-50, ,
1, ,-50, ,
1, ,-49, ,
1, ,-50, ,
-1, ,-50, ,
2, ,-50, ,
1, ,-50, ,
1, ,-50, ,
1, ,-50, ,
2, ,-50, ,
-1, ,-49, ,
2, ,-50, ,
1, ,-50, ,
1, ,-49, ,
2, ,-49, ,
1, ,-50, ,
-1, ,-50, ,
2, ,-50, ,
1, ,-50, ,
1, ,-49, ,
1, ,-49, ,
1, ,-50, ,
-1, ,-49, ,
2, ,-50, ,
1, ,-50, ,
1, ,-49, ,
1, ,-49, ,
2, ,-50, ,
-1, ,-50, ,
2, ,-50, ,
1, ,-50, ,
1, ,-49, ,
2, ,-50, ,
1, ,-50, ,
-1, ,-49, ,
2, ,-50, ,
1, ,-50, ,
1, ,-49, ,
2, ,-49, ,
1, ,-50, ,
-1, ,-50, ,
2, ,-50, ,
1, ,-50, ,
1, ,-49, ,
1, ,-50, ,
1, ,-51, ,
-1, ,-49, ,
2, ,-50, ,
1, ,-50, ,
1, ,-49, ,
2, ,-49, ,
2, ,-50, ,
-1, ,-50, ,
2, ,-50, ,
1, ,-50, ,
1, ,-50, ,
1, ,-50, ,
1, ,-50, ,
-1, ,-49, ,
2, ,-50, ,
1, ,-50, ,
69, ,-50, ,
49, ,-49, ,
29, ,-50, ,
18, ,-49, ,
13, ,-50, ,
8, ,-50, ,
6, ,-49, ,
5, ,-50, ,
3, ,-51, ,
2, ,-49, ,
5, ,-50, ,
2, ,-50, ,
2, ,-50, ,
2, ,-49, ,
2, ,-50, ,
2, ,-49, ,
3, ,-50, ,
2, ,-50, ,
2, ,-50, ,
3, ,-50, ,
2, ,-50, ,
2, ,-49, ,
3, ,-49, ,
2, ,-50, ,
2, ,-50, ,
3, ,-49, ,
3, ,-50, ,
1, ,-50, ,
3, ,-50, ,
2, ,-50, ,
2, ,-50, ,
2, ,-50, ,
2, ,-50, ,
1, ,-49, ,
3, ,-49, ,
2, ,-50, ,
2, ,-50, ,
2, ,-49, ,
2, ,-50, ,
1, ,-49, ,
3, ,-50, ,
2, ,-50, ,
2, ,-50, ,
2, ,-50, ,
2, ,-50, ,
1, ,-49, ,
3, ,-50, ,
2, ,-51, ,
2, ,-49, ,
2, ,-49, ,
2, ,-50, ,
1, ,-49, ,
3, ,-50, ,
2, ,-50, ,
2, ,-49, ,
2, ,-50, ,
2, ,-50, ,
1, ,-49, ,
3, ,-50, ,
2, ,-50, ,
2, ,-50, ,
2, ,-49, ,
2, ,-50, ,
1, ,-49, ,
3, ,-50, ,
2, ,-50, ,
2, ,-50, ,
2, ,-50, ,
2, ,-50, ,
1, ,-49, ,
2, ,-49, ,
2, ,-50, ,
2, ,-50, ,
2, ,-49, ,
2, ,-50, ,
1, ,-49, ,
3, ,-49, ,
2, ,-50, ,
2, ,-49, ,
2, ,-50, ,
2, ,-50, ,
1, ,-49, ,
3, ,-49, ,
2, ,-50, ,
2, ,-50, ,
2, ,-49, ,
2, ,-50, ,
1, ,-50, ,
3, ,-50, ,
2, ,-50, ,
1, ,-49, ,
2, ,-49, ,
2, ,-50, ,
1, ,-49, ,
2, ,-50, ,
1, ,-50, ,
2, ,-49, ,
2, ,-49, ,
2, ,-50, ,
1, ,-49, ,
3, ,-50, ,
2, ,-50, ,
1, ,-49, ,
2, ,-49, ,
2, ,-50, ,
1, ,-49, ,
2, ,-49, ,
2, ,-50, ,
2, ,-50, ,
2, ,-49, ,
2, ,-50, ,
1, ,-49, ,
3, ,-50, ,
2, ,-50, ,
1, ,-50, ,
2, ,-49, ,
2, ,-50, ,
1, ,-49, ,
2, ,-50, ,
2, ,-50, ,
1, ,-50, ,
2, ,-49, ,
2, ,-50, ,
1, ,-49, ,
2, ,-49, ,
2, ,-50, ,
1, ,-49, ,
2, ,-49, ,
2, ,-50, ,
1, ,-49, ,
2, ,-49, ,
2, ,-50, ,
1, ,-50, ,
2, ,-49, ,
2, ,-50, ,
1, ,-49, ,
2, ,-50, ,
1, ,-50, ,
2, ,-50, ,
2, ,-49, ,
2, ,-50, ,
1, ,-49, ,
3, ,-50, ,
1, ,-50, ,
2, ,-50, ,
2, ,-49, ,
2, ,-50, ,
1, ,-50, ,
2, ,-50, ,
2, ,-50, ,
2, ,-49, ,
2, ,-50, ,
2, ,-50, ,
1, ,-49, ,
2, ,-49, ,
1, ,-50, ,
1, ,-49, ,
2, ,-49, ,
2, ,-50, ,
1, ,-50, ,
2, ,-50, ,
1, ,-50, ,
2, ,-50, ,
2, ,-50, ,
2, ,-50, ,
1, ,-49, ,
2, ,-50, ,
1, ,-50, ,
2, ,-50, ,
2, ,-49, ,
2, ,-50, ,
1, ,-50, ,
2, ,-50, ,
1, ,-50, ,
2, ,-49, ,
2, ,-50, ,
2, ,-50, ,
1, ,-49, ,
2, ,-49, ,
1, ,-50, ,
2, ,-50, ,
2, ,-49, ,
2, ,-50, ,
1, ,-50, ,
2, ,-50, ,
2, ,-50, ,
2, ,-50, ,
2, ,-50, ,
2, ,-50, ,
1, ,-49, ,
2, ,-50, ,
1, ,-50, ,
1, ,-49, ,
2, ,-49, ,
2, ,-50, ,
1, ,-50, ,
2, ,-50, ,
1, ,-50, ,
2, ,-50, ,
2, ,-49, ,
2, ,-50, ,
1, ,-49, ,
2, ,-50, ,
1, ,-50, ,
1, ,-49, ,
2, ,-49, ,
2, ,-50, ,
1, ,-50, ,
2, ,-50, ,
1, ,-50, ,
2, ,-50, ,
2, ,-50, ,
2, ,-50, ,
1, ,-49, ,
2, ,-50, ,
1, ,-50, ,
1, ,-49, ,
2, ,-49, ,
2, ,-50, ,
1, ,-49, ,
2, ,-50, ,
1, ,-50, ,
1, ,-50, ,
2, ,-50, ,
2, ,-50, ,
1, ,-49, ,
2, ,-50, ,
1, ,-50, ,
1, ,-49, ,
2, ,-49, ,
2, ,-50, ,
1, ,-50, ,
2, ,-50, ,
1, ,-50, ,
2, ,-49, ,
2, ,-50, ,
2, ,-50, ,
1, ,-49, ,
2, ,-50, ,
1, ,-50, ,
1, ,-49, ,
2, ,-49, ,
2, ,-50, ,
1, ,-49, ,
2, ,-50, ,
1, ,-50, ,
1, ,-49, ,
2, ,-50, ,
2, ,-50, ,
1, ,-49, ,
2, ,-49, ,
1, ,-50, ,
1, ,-50, ,
2, ,-49, ,
2, ,-50, ,
1, ,-50, ,
2, ,-49, ,
1, ,-46, ,
2, ,-26, ,
2, ,-8, ,
2, ,5, ,
1, ,15, ,
2, ,23, ,
1, ,28, ,
1, ,33, ,
2, ,36, ,
2, ,38, ,
1, ,40, ,
2, ,41, ,
1, ,42, ,
1, ,42, ,
2, ,43, ,
1, ,44, ,
1, ,43, ,
2, ,44, ,
1, ,44, ,
1, ,44, ,
2, ,44, ,
1, ,45, ,
1, ,44, ,
2, ,44, ,
1, ,44, ,
1, ,44, ,
2, ,44, ,
1, ,45, ,
1, ,43, ,
2, ,44, ,
1, ,44, ,
1, ,44, ,
2, ,44, ,
2, ,45, ,
-1, ,44, ,
2, ,44, ,
1, ,44, ,
1, ,44, ,
2, ,44, ,
1, ,44, ,
1, ,43, ,
2, ,44, ,
1, ,44, ,
1, ,43, ,
2, ,44, ,
1, ,44, ,
1, ,44, ,
2, ,44, ,
1, ,44, ,
1, ,44, ,
2, ,44, ,
1, ,44, ,
-1, ,43, ,
2, ,44, ,
1, ,44, ,
1, ,44, ,
2, ,43, ,
1, ,44, ,
1, ,43, ,
2, ,44, ,
1, ,44, ,
1, ,43, ,
2, ,44, ,
1, ,44, ,
-1, ,43, ,
2, ,44, ,
1, ,44, ,
1, ,44, ,
2, ,43, ,
1, ,44, ,
1, ,43, ,
2, ,44, ,
1, ,44, ,
1, ,44, ,
2, ,44, ,
1, ,44, ,
-1, ,43, ,
2, ,44, ,
1, ,44, ,
1, ,43, ,
2, ,44, ,
1, ,44, ,
1, ,43, ,
2, ,43, ,
1, ,44, ,
1, ,43, ,
1, ,43, ,
1, ,44, ,
1, ,43, ,
2, ,43, ,
1, ,44, ,
1, ,43, ,
2, ,44, ,
1, ,44, ,
-1, ,43, ,
2, ,44, ,
1, ,44, ,
1, ,44, ,
2, ,43, ,
1, ,44, ,
1, ,43, ,
2, ,43, ,
1, ,44, ,
1, ,43, ,
2, ,44, ,
1, ,44, ,
-1, ,43, ,
2, ,43, ,
1, ,44, ,
1, ,43, ,
2, ,43, ,
1, ,44, ,
1, ,43, ,
2, ,43, ,
1, ,44, ,
1, ,43, ,
2, ,43, ,
1, ,44, ,
-1, ,43, ,
2, ,44, ,
1, ,44, ,
1, ,43, ,
2, ,44, ,
1, ,44, ,
1, ,43, ,
2, ,44, ,
1, ,43, ,
1, ,44, ,
2, ,43, ,
1, ,44, ,
1, ,43, ,
2, ,43, ,
1, ,43, ,
1, ,44, ,
2, ,43, ,
1, ,44, ,
-1, ,43, ,
2, ,43, ,
1, ,43, ,
1, ,43, ,
1, ,43, ,
1, ,44, ,
1, ,43, ,
2, ,43, ,
1, ,44, ,
1, ,43, ,
2, ,44, ,
1, ,44, ,
-1, ,43, ,
2, ,43, ,
1, ,44, ,
1, ,43, ,
2, ,43, ,
1, ,44, ,
-1, ,42, ,
2, ,31, ,
1, ,11, ,
1, ,-5, ,
2, ,-16, ,
1, ,-25, ,
-1, ,-31, ,
2, ,-36, ,
-1, ,-40, ,
1, ,-42, ,
1, ,-44, ,
1, ,-46, ,
-1, ,-46, ,
2, ,-47, ,
1, ,-49, ,
1, ,-50, ,
2, ,-50, ,
1, ,-50, ,
-1, ,-49, ,
2, ,-50, ,
1, ,-51, ,
1, ,-50, ,
2, ,-50, ,
1, ,-51, ,
-1, ,-50, ,
2, ,-50, ,
1, ,-51, ,
1, ,-50, ,
1, ,-50, ,
1, ,-51, ,
-1, ,-49, ,
2, ,-50, ,
1, ,-51, ,
1, ,-50, ,
1, ,-50, ,
1, ,-51, ,
-1, ,-50, ,
2, ,-50, ,
1, ,-51, ,
1, ,-50, ,
2, ,-50, ,
1, ,-51, ,
-1, ,-49, ,
2, ,-50, ,
1, ,-50, ,
1, ,-50, ,
1, ,-50, ,
1, ,-51, ,
-1, ,-49, ,
2, ,-50, ,
1, ,-50, ,
1, ,-50, ,
1, ,-50, ,
1, ,-50, ,
-1, ,-49, ,
2, ,-50, ,
1, ,-50, ,
1, ,-50, ,
1, ,-50, ,
1, ,-50, ,
-1, ,-50, ,
2, ,-50, ,
1, ,-50, ,
1, ,-50, ,
1, ,-50, ,
2, ,-50, ,
-1, ,-49, ,
2, ,-50, ,
1, ,-50, ,
1, ,-50, ,
1, ,-49, ,
2, ,-50, ,
-1, ,-49, ,
2, ,-50, ,
1, ,-50, ,
1, ,-50, ,
1, ,-49, ,
1, ,-50, ,
-1, ,-49, ,
2, ,-50, ,
1, ,-50, ,
1, ,-50, ,
1, ,-49, ,
1, ,-50, ,
-1, ,-49, ,
1, ,-50, ,
1, ,-50, ,
1, ,-50, ,
2, ,-50, ,
1, ,-50, ,
-1, ,-49, ,
2, ,-50, ,
-1, ,-50, ,
1, ,-50, ,
2, ,-49, ,
1, ,-50, ,
-1, ,-49, ,
2, ,-50, ,
1, ,-50, ,
1, ,-50, ,
1, ,-49, ,
1, ,-50, ,
-1, ,-49, ,
2, ,-50, ,
1, ,-50, ,
1, ,-49, ,
2, ,-49, ,
2, ,-50, ,
-1, ,-49, ,
2, ,-50, ,
1, ,-50, ,
1, ,-50, ,
2, ,-49, ,
1, ,-50, ,
-1, ,-49, ,
2, ,-49, ,
1, ,-50, ,
1, ,-49, ,
1, ,-49, ,
1, ,-50, ,
-1, ,-49, ,
2, ,-50, ,
1, ,-50, ,
1, ,-50, ,
1, ,-49, ,
1, ,-50, ,
-1, ,-49, ,
2, ,-49, ,
1, ,-50, ,
1, ,-49, ,
2, ,-49, ,
1, ,-50, ,
-1, ,-49, ,
2, ,-50, ,
1, ,-50, ,
1, ,-49, ,
1, ,-49, ,
1, ,-50, ,
-1, ,-47, ,
2, ,-49, ,
1, ,-50, ,
1, ,-49, ,
1, ,-49, ,
2, ,-50, ,
-1, ,-49, ,
2, ,-49, ,
1, ,-50, ,
1, ,-49, ,
2, ,-49, ,
1, ,-50, ,
-1, ,-49, ,
2, ,-50, ,
-1, ,-50, ,
1, ,-49, ,
1, ,-49, ,
1, ,-50, ,
-1, ,-49, ,
2, ,-50, ,
-1, ,-50, ,
1, ,-49, ,
1, ,-50, ,
1, ,-50, ,
-1, ,-49, ,
2, ,-50, ,
1, ,-50, ,
1, ,-49, ,
1, ,-49, ,
1, ,-50, ,
-1, ,-49, ,
2, ,-50, ,
1, ,-50, ,
1, ,-49, ,
1, ,-49, ,
1, ,-50, ,
-1, ,-49, ,
2, ,-49, ,
-1, ,-50, ,
1, ,-49, ,
1, ,-49, ,
1, ,-50, ,
-1, ,-49, ,
2, ,-50, ,
1, ,-50, ,
-1, ,-49, ,
1, ,-49, ,
1, ,-50, ,
-1, ,-47, ,
1, ,-49, ,
-1, ,-50, ,
1, ,-49, ,
2, ,-49, ,
1, ,-50, ,
-1, ,-49, ,
1, ,-50, ,
1, ,-50, ,
1, ,-49, ,
1, ,-49, ,
1, ,-50, ,
-1, ,-49, ,
2, ,-49, ,
1, ,-50, ,
1, ,-49, ,
1, ,-49, ,
2, ,-50, ,
-1, ,-49, ,
1, ,-50, ,
-1, ,-50, ,
1, ,-49, ,
1, ,-49, ,
1, ,-50, ,
-1, ,-47, ,
2, ,-49, ,
-1, ,-50, ,
-1, ,-49, ,
1, ,-49, ,
2, ,-50, ,
-1, ,-49, ,
2, ,-49, ,
1, ,-50, ,
1, ,-49, ,
1, ,-49, ,
1, ,-50, ,
-1, ,-49, ,
2, ,-50, ,
-1, ,-50, ,
1, ,-50, ,
1, ,-49, ,
1, ,-50, ,
-1, ,-49, ,
2, ,-49, ,
-1, ,-50, ,
-1, ,-49, ,
1, ,-49, ,
1, ,-50, ,
-1, ,-49, ,
2, ,-49, ,
-1, ,-50, ,
1, ,-50, ,
1, ,-49, ,
1, ,-50, ,
-1, ,-49, ,
2, ,-50, ,
1, ,-50, ,
1, ,-49, ,
1, ,-49, ,
1, ,-50, ,
-1, ,-49, ,
2, ,-50, ,
-1, ,-50, ,
1, ,-49, ,
1, ,-49, ,
1, ,-50, ,
-1, ,-49, ,
2, ,-50, ,
1, ,-50, ,
1, ,-49, ,
1, ,-49, ,
1, ,-50, ,
-1, ,-49, ,
2, ,-49, ,
-1, ,-50, ,
1, ,-49, ,
1, ,-49, ,
1, ,-50, ,
-1, ,-49, ,
2, ,-50, ,
1, ,-50, ,
1, ,-49, ,
1, ,-49, ,
1, ,-50, ,
-1, ,-49, ,
2, ,-50, ,
1, ,-50, ,
1, ,-49, ,
1, ,-49, ,
1, ,-50, ,
-1, ,-49, ,
30, ,-50, ,
66, ,-50, ,
41, ,-49, ,
26, ,-49, ,
17, ,-50, ,
11, ,-49, ,
10, ,-49, ,
5, ,-50, ,
5, ,-49, ,
3, ,-49, ,
3, ,-50, ,
2, ,-49, ,
3, ,-49, ,
2, ,-50, ,
2, ,-50, ,
2, ,-49, ,
3, ,-50, ,
2, ,-49, ,
3, ,-49, ,
2, ,-50, ,
2, ,-50, ,
3, ,-49, ,
3, ,-50, ,
2, ,-49, ,
3, ,-50, ,
2, ,-50, ,
2, ,-50, ,
3, ,-49, ,
3, ,-50, ,
2, ,-47, ,
3, ,-49, ,
2, ,-50, ,
2, ,-49, ,
2, ,-49, ,
2, ,-50, ,
2, ,-49, ,
3, ,-50, ,
2, ,-50, ,
2, ,-49, ,
2, ,-49, ,
2, ,-50, ,
1, ,-49, ,
3, ,-50, ,
2, ,-50, ,
2, ,-50, ,
3, ,-49, ,
2, ,-50, ,
1, ,-49, ,
3, ,-50, ,
2, ,-50, ,
2, ,-49, ,
2, ,-49, ,
3, ,-50, ,
1, ,-49, ,
3, ,-50, ,
2, ,-50, ,
2, ,-49, ,
2, ,-49, ,
2, ,-50, ,
1, ,-49, ,
3, ,-50, ,
2, ,-50, ,
2, ,-50, ,
2, ,-49, ,
2, ,-50, ,
1, ,-49, ,
3, ,-49, ,
2, ,-50, ,
2, ,-49, ,
2, ,-49, ,
2, ,-50, ,
1, ,-49, ,
3, ,-50, ,
2, ,-50, ,
2, ,-49, ,
2, ,-49, ,
2, ,-50, ,
1, ,-49, ,
3, ,-50, ,
2, ,-50, ,
2, ,-49, ,
2, ,-49, ,
2, ,-50, ,
1, ,-49, ,
3, ,-50, ,
1, ,-50, ,
2, ,-49, ,
2, ,-49, ,
2, ,-50, ,
1, ,-49, ,
3, ,-49, ,
2, ,-50, ,
2, ,-49, ,
2, ,-49, ,
2, ,-50, ,
1, ,-49, ,
2, ,-50, ,
2, ,-50, ,
2, ,-49, ,
2, ,-49, ,
2, ,-50, ,
1, ,-49, ,
3, ,-49, ,
2, ,-50, ,
2, ,-50, ,
2, ,-49, ,
2, ,-50, ,
1, ,-49, ,
3, ,-49, ,
1, ,-50, ,
2, ,-49, ,
2, ,-49, ,
2, ,-50, ,
1, ,-49, ,
3, ,-50, ,
2, ,-50, ,
2, ,-49, ,
3, ,-49, ,
2, ,-50, ,
1, ,-49, ,
3, ,-49, ,
2, ,-50, ,
2, ,-49, ,
2, ,-50, ,
2, ,-50, ,
1, ,-49, ,
3, ,-50, ,
2, ,-50, ,
1, ,-49, ,
3, ,-49, ,
2, ,-50, ,
1, ,-49, ,
3, ,-50, ,
2, ,-50, ,
2, ,-49, ,
2, ,-49, ,
2, ,-50, ,
1, ,-49, ,
3, ,-49, ,
2, ,-50, ,
2, ,-49, ,
2, ,-49, ,
2, ,-50, ,
1, ,-50, ,
3, ,-50, ,
1, ,-50, ,
1, ,-50, ,
2, ,-49, ,
2, ,-50, ,
1, ,-49, ,
2, ,-49, ,
1, ,-50, ,
2, ,-49, ,
2, ,-49, ,
2, ,-50, ,
1, ,-49, ,
2, ,-49, ,
2, ,-50, ,
2, ,-49, ,
2, ,-49, ,
2, ,-50, ,
1, ,-49, ,
2, ,-49, ,
1, ,-50, ,
1, ,-49, ,
2, ,-49, ,
2, ,-50, ,
1, ,-49, ,
2, ,-50, ,
1, ,-50, ,
2, ,-50, ,
2, ,-49, ,
2, ,-50, ,
1, ,-49, ,
2, ,-50, ,
1, ,-50, ,
2, ,-49, ,
2, ,-49, ,
2, ,-50, ,
1, ,-49, ,
2, ,-50, ,
1, ,-50, ,
2, ,-49, ,
2, ,-49, ,
2, ,-50, ,
1, ,-49, ,
2, ,-50, ,
1, ,-50, ,
1, ,-49, ,
2, ,-49, ,
2, ,-50, ,
1, ,-49, ,
2, ,-50, ,
1, ,-50, ,
2, ,-50, ,
2, ,-49, ,
2, ,-50, ,
1, ,-49, ,
2, ,-49, ,
1, ,-50, ,
1, ,-49, ,
2, ,-49, ,
2, ,-50, ,
1, ,-49, ,
2, ,-50, ,
1, ,-50, ,
1, ,-49, ,
2, ,-49, ,
2, ,-50, ,
1, ,-49, ,
2, ,-50, ,
1, ,-50, ,
1, ,-49, ,
2, ,-49, ,
2, ,-50, ,
1, ,-49, ,
2, ,-49, ,
1, ,-50, ,
2, ,-50, ,
2, ,-50, ,
2, ,-50, ,
1, ,-49, ,
