src/varyamp_1560/temp0004221.CSV

Format,1.0B,
Memory Length,10000,Memory Length,10000,
IntpDistance,0,IntpDistance,0,
Trigger Address,4999,Trigger Address,4999,
Trigger Level,1.040E+00,Trigger Level,1.040E+00,
Source,CH1,Source,CH2,
Vertical Units,V,Vertical Units,V,
Vertical Units Div,0,Vertical Units Div,0,
Vertical Units Extend Div,16,Vertical Units Extend Div,16,
Label,,Label,,
Probe Type,0,Probe Type,0,
Probe Ratio,1.000e+01,Probe Ratio,1.000e+00,
Vertical Scale,5.000e-01,Vertical Scale,1.000e+00,
Vertical Position,-1.820e+00,Vertical Position,0.000e+00,
Horizontal Units,S,Horizontal Units,S,
Horizontal Scale,2.000E-05,Horizontal Scale,2.000E-05,
Horizontal Position,0.000E+00,Horizontal Position,0.000E+00,
Horizontal Mode,Main,Horizontal Mode,Main,
SincET Mode,Real Time,SincET Mode,Real Time,
Sampling Period,2.000e-08,Sampling Period,2.000e-08,
Horizontal Old Scale,2.000E-05,Horizontal Old Scale,2.000E-05,
Horizontal Old Position,0.000E+00,Horizontal Old Position,0.000E+00,
Firmware,V1.23,Firmware,V1.23,
Mode,Fast,Mode,Fast,
Waveform Data,,Waveform Data,,
-1, ,-41, ,
2, ,-41, ,
1, ,-41, ,
1, ,-41, ,
2, ,-41, ,
1, ,-41, ,
-1, ,-41, ,
2, ,-41, ,
1, ,-41, ,
1, ,-41, ,
2, ,-41, ,
1, ,-41, ,
-1, ,-41, ,
2, ,-41, ,
1, ,-41, ,
1, ,-41, ,
1, ,-41, ,
2, ,-41, ,
-1, ,-41, ,
2, ,-41, ,
1, ,-41, ,
1, ,-41, ,
2, ,-41, ,
2, ,-41, ,
-1, ,-41, ,
2, ,-41, ,
1, ,-41, ,
1, ,-41, ,
1, ,-41, ,
2, ,-41, ,
-1, ,-41, ,
2, ,-41, ,
1, ,-41, ,
1, ,-41, ,
2, ,-41, ,
1, ,-41, ,
-1, ,-41, ,
2, ,-41, ,
1, ,-41, ,
1, ,-41, ,
2, ,-41, ,
1, ,-41, ,
-1, ,-41, ,
2, ,-41, ,
1, ,-41, ,
1, ,-41, ,
2, ,-41, ,
1, ,-41, ,
-1, ,-41, ,
2, ,-41, ,
1, ,-41, ,
1, ,-41, ,
2, ,-41, ,
2, ,-41, ,
-1, ,-41, ,
2, ,-41, ,
1, ,-41, ,
1, ,-41, ,
1, ,-41, ,
1, ,-41, ,
-1, ,-41, ,
2, ,-41, ,
1, ,-41, ,
1, ,-41, ,
2, ,-41, ,
2, ,-41, ,
-1, ,-41, ,
2, ,-41, ,
1, ,-41, ,
1, ,-41, ,
2, ,-41, ,
1, ,-41, ,
-1, ,-41, ,
2, ,-41, ,
1, ,-41, ,
1, ,-41, ,
2, ,-41, ,
1, ,-41, ,
-1, ,-41, ,
2, ,-41, ,
1, ,-41, ,
1, ,-41, ,
1, ,-41, ,
1, ,-40, ,
-1, ,-41, ,
2, ,-41, ,
1, ,-41, ,
1, ,-41, ,
1, ,-41, ,
1, ,-41, ,
-1, ,-41, ,
2, ,-41, ,
1, ,-41, ,
1, ,-41, ,
2, ,-41, ,
1, ,-41, ,
-1, ,-41, ,
2, ,-41, ,
1, ,-41, ,
1, ,-41, ,
2, ,-41, ,
1, ,-41, ,
-1, ,-41, ,
2, ,-41, ,
1, ,-41, ,
1, ,-41, ,
1, ,-41, ,
1, ,-41, ,
-1, ,-41, ,
2, ,-41, ,
1, ,-41, ,
-1, ,-41, ,
1, ,-41, ,
1, ,-41, ,
-1, ,-41, ,
2, ,-41, ,
1, ,-41, ,
1, ,-41, ,
2, ,-41, ,
1, ,-41, ,
-1, ,-41, ,
2, ,-41, ,
1, ,-41, ,
-1, ,-41, ,
1, ,-41, ,
1, ,-41, ,
-1, ,-41, ,
2, ,-41, ,
1, ,-41, ,
-1, ,-41, ,
1, ,-41, ,
1, ,-41, ,
-1, ,-41, ,
2, ,-41, ,
-1, ,-41, ,
-1, ,-41, ,
1, ,-41, ,
1, ,-41, ,
-1, ,-41, ,
2, ,-41, ,
-1, ,-41, ,
-1, ,-41, ,
2, ,-41, ,
1, ,-41, ,
-2, ,-41, ,
2, ,-41, ,
1, ,-41, ,
-1, ,-41, ,
2, ,-41, ,
1, ,-41, ,
-1, ,-41, ,
2, ,-41, ,
1, ,-41, ,
1, ,-41, ,
1, ,-41, ,
1, ,-41, ,
-1, ,-41, ,
2, ,-41, ,
1, ,-41, ,
1, ,-41, ,
1, ,-41, ,
1, ,-41, ,
-1, ,-41, ,
2, ,-41, ,
1, ,-41, ,
1, ,-41, ,
1, ,-41, ,
1, ,-41, ,
-1, ,-41, ,
2, ,-41, ,
1, ,-42, ,
-1, ,-41, ,
1, ,-41, ,
1, ,-41, ,
-1, ,-41, ,
2, ,-41, ,
1, ,-41, ,
1, ,-41, ,
1, ,-41, ,
1, ,-41, ,
-1, ,-41, ,
1, ,-41, ,
-1, ,-41, ,
1, ,-41, ,
2, ,-41, ,
1, ,-41, ,
-1, ,-41, ,
2, ,-41, ,
1, ,-41, ,
-1, ,-41, ,
1, ,-41, ,
1, ,-41, ,
-1, ,-41, ,
2, ,-41, ,
-1, ,-41, ,
1, ,-41, ,
1, ,-41, ,
1, ,-41, ,
-1, ,-41, ,
2, ,-41, ,
1, ,-41, ,
-1, ,-41, ,
1, ,-41, ,
2, ,-41, ,
-1, ,-41, ,
2, ,-41, ,
-1, ,-41, ,
1, ,-41, ,
1, ,-41, ,
1, ,-41, ,
-1, ,-41, ,
2, ,-41, ,
1, ,-41, ,
1, ,-41, ,
1, ,-41, ,
1, ,-41, ,
-1, ,-41, ,
2, ,-41, ,
1, ,-41, ,
73, ,-41, ,
46, ,-41, ,
29, ,-41, ,
17, ,-41, ,
12, ,-41, ,
7, ,-41, ,
5, ,-41, ,
5, ,-41, ,
3, ,-41, ,
2, ,-41, ,
3, ,-41, ,
2, ,-41, ,
2, ,-41, ,
2, ,-41, ,
3, ,-41, ,
1, ,-41, ,
3, ,-41, ,
2, ,-41, ,
2, ,-41, ,
3, ,-41, ,
3, ,-41, ,
1, ,-41, ,
3, ,-41, ,
2, ,-41, ,
2, ,-41, ,
2, ,-41, ,
2, ,-41, ,
1, ,-41, ,
3, ,-41, ,
2, ,-41, ,
2, ,-41, ,
2, ,-41, ,
2, ,-41, ,
1, ,-41, ,
3, ,-41, ,
2, ,-41, ,
2, ,-41, ,
3, ,-41, ,
2, ,-41, ,
1, ,-41, ,
3, ,-41, ,
2, ,-41, ,
2, ,-41, ,
2, ,-41, ,
2, ,-41, ,
1, ,-41, ,
3, ,-41, ,
1, ,-41, ,
1, ,-41, ,
2, ,-41, ,
2, ,-41, ,
1, ,-41, ,
3, ,-41, ,
2, ,-41, ,
2, ,-41, ,
2, ,-41, ,
2, ,-41, ,
1, ,-41, ,
3, ,-41, ,
2, ,-41, ,
1, ,-41, ,
2, ,-41, ,
2, ,-41, ,
1, ,-41, ,
3, ,-41, ,
1, ,-41, ,
1, ,-41, ,
2, ,-41, ,
2, ,-41, ,
1, ,-41, ,
3, ,-41, ,
2, ,-41, ,
1, ,-41, ,
2, ,-41, ,
2, ,-41, ,
1, ,-41, ,
2, ,-41, ,
1, ,-41, ,
2, ,-41, ,
2, ,-41, ,
2, ,-41, ,
1, ,-41, ,
3, ,-41, ,
2, ,-41, ,
2, ,-41, ,
2, ,-41, ,
2, ,-41, ,
1, ,-41, ,
3, ,-33, ,
2, ,-13, ,
2, ,3, ,
3, ,16, ,
2, ,25, ,
1, ,32, ,
3, ,38, ,
2, ,41, ,
2, ,44, ,
2, ,46, ,
2, ,47, ,
1, ,50, ,
3, ,51, ,
2, ,51, ,
1, ,51, ,
2, ,52, ,
2, ,52, ,
1, ,53, ,
2, ,52, ,
1, ,53, ,
1, ,52, ,
2, ,53, ,
2, ,53, ,
1, ,53, ,
2, ,52, ,
2, ,53, ,
2, ,52, ,
3, ,53, ,
2, ,53, ,
1, ,53, ,
3, ,52, ,
2, ,53, ,
1, ,52, ,
2, ,52, ,
2, ,52, ,
1, ,53, ,
3, ,52, ,
2, ,53, ,
1, ,52, ,
2, ,52, ,
2, ,52, ,
1, ,53, ,
3, ,52, ,
1, ,53, ,
1, ,52, ,
2, ,52, ,
2, ,52, ,
1, ,52, ,
2, ,52, ,
1, ,52, ,
1, ,52, ,
2, ,52, ,
2, ,52, ,
1, ,52, ,
2, ,52, ,
2, ,52, ,
1, ,51, ,
2, ,52, ,
2, ,52, ,
1, ,52, ,
2, ,52, ,
1, ,52, ,
1, ,52, ,
2, ,52, ,
1, ,52, ,
1, ,52, ,
2, ,52, ,
2, ,52, ,
1, ,52, ,
2, ,52, ,
2, ,52, ,
1, ,52, ,
2, ,52, ,
2, ,52, ,
1, ,52, ,
2, ,52, ,
2, ,52, ,
1, ,52, ,
3, ,52, ,
1, ,52, ,
1, ,52, ,
2, ,52, ,
2, ,52, ,
1, ,52, ,
3, ,52, ,
1, ,52, ,
1, ,52, ,
2, ,52, ,
2, ,52, ,
-1, ,52, ,
3, ,52, ,
1, ,52, ,
1, ,52, ,
2, ,52, ,
2, ,52, ,
-1, ,52, ,
2, ,52, ,
1, ,52, ,
1, ,52, ,
2, ,52, ,
1, ,52, ,
1, ,52, ,
2, ,52, ,
1, ,52, ,
1, ,52, ,
2, ,52, ,
1, ,52, ,
1, ,52, ,
2, ,52, ,
1, ,52, ,
1, ,52, ,
2, ,52, ,
1, ,52, ,
1, ,52, ,
3, ,52, ,
1, ,52, ,
1, ,52, ,
2, ,52, ,
1, ,52, ,
1, ,52, ,
3, ,52, ,
1, ,52, ,
1, ,52, ,
2, ,52, ,
2, ,52, ,
1, ,52, ,
2, ,52, ,
1, ,52, ,
1, ,51, ,
2, ,52, ,
1, ,52, ,
-1, ,52, ,
2, ,52, ,
1, ,52, ,
1, ,52, ,
2, ,52, ,
1, ,52, ,
1, ,52, ,
2, ,52, ,
1, ,52, ,
1, ,52, ,
2, ,52, ,
1, ,52, ,
-1, ,52, ,
2, ,52, ,
1, ,52, ,
1, ,52, ,
2, ,52, ,
1, ,52, ,
-1, ,52, ,
2, ,52, ,
1, ,52, ,
1, ,51, ,
2, ,52, ,
2, ,50, ,
1, ,34, ,
2, ,15, ,
1, ,0, ,
1, ,-11, ,
2, ,-19, ,
1, ,-24, ,
-1, ,-30, ,
2, ,-33, ,
1, ,-35, ,
1, ,-37, ,
1, ,-38, ,
2, ,-39, ,
-1, ,-40, ,
2, ,-40, ,
2, ,-41, ,
1, ,-41, ,
2, ,-41, ,
1, ,-41, ,
-1, ,-41, ,
2, ,-41, ,
1, ,-42, ,
1, ,-41, ,
2, ,-42, ,
2, ,-42, ,
-1, ,-41, ,
2, ,-41, ,
1, ,-42, ,
1, ,-41, ,
2, ,-41, ,
1, ,-41, ,
1, ,-41, ,
2, ,-41, ,
1, ,-42, ,
1, ,-41, ,
2, ,-41, ,
2, ,-41, ,
-1, ,-41, ,
3, ,-41, ,
1, ,-42, ,
1, ,-41, ,
2, ,-42, ,
2, ,-41, ,
-1, ,-41, ,
2, ,-41, ,
1, ,-41, ,
1, ,-41, ,
2, ,-41, ,
2, ,-41, ,
-1, ,-41, ,
2, ,-41, ,
1, ,-42, ,
1, ,-41, ,
2, ,-41, ,
1, ,-41, ,
-1, ,-41, ,
2, ,-41, ,
1, ,-42, ,
1, ,-41, ,
1, ,-41, ,
1, ,-41, ,
-1, ,-41, ,
2, ,-41, ,
1, ,-41, ,
1, ,-41, ,
2, ,-41, ,
2, ,-41, ,
-1, ,-41, ,
2, ,-41, ,
1, ,-41, ,
1, ,-41, ,
2, ,-41, ,
2, ,-41, ,
-1, ,-41, ,
2, ,-41, ,
1, ,-41, ,
1, ,-41, ,
1, ,-41, ,
1, ,-41, ,
-1, ,-41, ,
2, ,-41, ,
1, ,-41, ,
1, ,-41, ,
2, ,-41, ,
2, ,-41, ,
-1, ,-41, ,
2, ,-41, ,
1, ,-41, ,
1, ,-41, ,
1, ,-41, ,
1, ,-41, ,
-1, ,-41, ,
2, ,-41, ,
1, ,-41, ,
1, ,-41, ,
1, ,-41, ,
1, ,-41, ,
-1, ,-41, ,
2, ,-41, ,
1, ,-41, ,
1, ,-41, ,
2, ,-41, ,
2, ,-41, ,
-1, ,-41, ,
2, ,-41, ,
1, ,-41, ,
1, ,-41, ,
2, ,-41, ,
2, ,-41, ,
-1, ,-41, ,
2, ,-41, ,
1, ,-41, ,
1, ,-41, ,
2, ,-41, ,
1, ,-41, ,
-1, ,-41, ,
2, ,-41, ,
1, ,-42, ,
1, ,-41, ,
1, ,-41, ,
2, ,-41, ,
-1, ,-41, ,
2, ,-40, ,
1, ,-41, ,
1, ,-41, ,
1, ,-41, ,
1, ,-41, ,
-1, ,-41, ,
2, ,-41, ,
1, ,-41, ,
1, ,-41, ,
1, ,-41, ,
1, ,-41, ,
-1, ,-41, ,
2, ,-41, ,
1, ,-41, ,
1, ,-41, ,
2, ,-41, ,
1, ,-41, ,
-1, ,-41, ,
2, ,-41, ,
1, ,-41, ,
1, ,-41, ,
1, ,-41, ,
1, ,-41, ,
-1, ,-41, ,
2, ,-41, ,
1, ,-41, ,
1, ,-41, ,
1, ,-41, ,
1, ,-41, ,
-1, ,-41, ,
2, ,-41, ,
1, ,-41, ,
1, ,-41, ,
2, ,-41, ,
2, ,-41, ,
-1, ,-41, ,
2, ,-41, ,
1, ,-41, ,
1, ,-41, ,
2, ,-41, ,
1, ,-41, ,
-1, ,-41, ,
2, ,-41, ,
1, ,-41, ,
1, ,-41, ,
1, ,-41, ,
1, ,-41, ,
-1, ,-41, ,
2, ,-41, ,
1, ,-41, ,
1, ,-41, ,
1, ,-41, ,
1, ,-41, ,
-1, ,-41, ,
2, ,-41, ,
-1, ,-41, ,
1, ,-41, ,
1, ,-41, ,
1, ,-41, ,
-1, ,-41, ,
2, ,-41, ,
1, ,-41, ,
1, ,-41, ,
1, ,-41, ,
2, ,-41, ,
-1, ,-41, ,
2, ,-41, ,
1, ,-41, ,
1, ,-41, ,
1, ,-41, ,
1, ,-41, ,
-1, ,-41, ,
2, ,-41, ,
1, ,-41, ,
1, ,-41, ,
1, ,-41, ,
2, ,-41, ,
-1, ,-41, ,
2, ,-41, ,
1, ,-41, ,
-1, ,-41, ,
1, ,-41, ,
2, ,-41, ,
-1, ,-41, ,
2, ,-41, ,
1, ,-41, ,
1, ,-41, ,
1, ,-41, ,
1, ,-41, ,
-1, ,-41, ,
2, ,-41, ,
-1, ,-41, ,
-1, ,-40, ,
1, ,-41, ,
2, ,-41, ,
-1, ,-41, ,
2, ,-41, ,
1, ,-41, ,
1, ,-41, ,
1, ,-41, ,
2, ,-41, ,
-1, ,-41, ,
2, ,-41, ,
-1, ,-41, ,
-1, ,-41, ,
1, ,-41, ,
2, ,-41, ,
-1, ,-41, ,
2, ,-41, ,
1, ,-41, ,
1, ,-41, ,
1, ,-41, ,
2, ,-40, ,
-1, ,-41, ,
2, ,-41, ,
1, ,-41, ,
1, ,-41, ,
2, ,-41, ,
2, ,-41, ,
-1, ,-41, ,
2, ,-41, ,
1, ,-41, ,
1, ,-41, ,
1, ,-41, ,
1, ,-41, ,
-1, ,-41, ,
2, ,-41, ,
-1, ,-41, ,
1, ,-41, ,
2, ,-41, ,
1, ,-41, ,
-1, ,-41, ,
2, ,-41, ,
1, ,-41, ,
1, ,-41, ,
2, ,-41, ,
1, ,-41, ,
-1, ,-41, ,
2, ,-41, ,
1, ,-41, ,
1, ,-40, ,
1, ,-41, ,
1, ,-41, ,
-1, ,-41, ,
2, ,-41, ,
1, ,-41, ,
-1, ,-41, ,
1, ,-41, ,
1, ,-41, ,
-1, ,-41, ,
2, ,-41, ,
-1, ,-41, ,
1, ,-41, ,
1, ,-41, ,
1, ,-41, ,
-1, ,-41, ,
2, ,-41, ,
-1, ,-41, ,
1, ,-41, ,
2, ,-41, ,
1, ,-41, ,
-1, ,-41, ,
2, ,-41, ,
-1, ,-41, ,
1, ,-40, ,
2, ,-41, ,
1, ,-41, ,
-1, ,-41, ,
2, ,-41, ,
-1, ,-41, ,
1, ,-41, ,
1, ,-41, ,
1, ,-41, ,
-1, ,-41, ,
2, ,-41, ,
-1, ,-41, ,
-1, ,-41, ,
1, ,-41, ,
2, ,-41, ,
-1, ,-40, ,
2, ,-41, ,
1, ,-41, ,
1, ,-41, ,
1, ,-41, ,
2, ,-41, ,
-1, ,-41, ,
2, ,-41, ,
-1, ,-41, ,
-1, ,-41, ,
1, ,-41, ,
1, ,-41, ,
-1, ,-41, ,
2, ,-41, ,
1, ,-41, ,
1, ,-41, ,
1, ,-41, ,
1, ,-40, ,
-1, ,-41, ,
2, ,-41, ,
-1, ,-41, ,
-1, ,-41, ,
1, ,-41, ,
1, ,-41, ,
-2, ,-41, ,
2, ,-41, ,
-1, ,-41, ,
-1, ,-41, ,
1, ,-41, ,
1, ,-41, ,
-1, ,-41, ,
1, ,-41, ,
-1, ,-41, ,
-1, ,-41, ,
1, ,-41, ,
1, ,-41, ,
-1, ,-41, ,
2, ,-41, ,
-1, ,-41, ,
1, ,-41, ,
2, ,-41, ,
1, ,-41, ,
-1, ,-41, ,
2, ,-41, ,
-1, ,-41, ,
-1, ,-40, ,
1, ,-41, ,
1, ,-41, ,
-1, ,-41, ,
1, ,-41, ,
-1, ,-41, ,
-1, ,-41, ,
1, ,-41, ,
1, ,-41, ,
-1, ,-41, ,
2, ,-41, ,
-1, ,-41, ,
-1, ,-41, ,
1, ,-41, ,
1, ,-41, ,
-1, ,-41, ,
1, ,-41, ,
-1, ,-41, ,
1, ,-41, ,
1, ,-41, ,
1, ,-41, ,
-1, ,-41, ,
2, ,-41, ,
-1, ,-41, ,
-1, ,-41, ,
5, ,-41, ,
67, ,-41, ,
43, ,-41, ,
27, ,-41, ,
16, ,-41, ,
10, ,-41, ,
8, ,-41, ,
6, ,-41, ,
3, ,-41, ,
5, ,-41, ,
2, ,-41, ,
2, ,-41, ,
3, ,-41, ,
3, ,-41, ,
1, ,-41, ,
3, ,-41, ,
2, ,-41, ,
2, ,-41, ,
3, ,-41, ,
3, ,-41, ,
2, ,-41, ,
3, ,-41, ,
2, ,-41, ,
2, ,-41, ,
3, ,-41, ,
3, ,-41, ,
1, ,-41, ,
3, ,-41, ,
2, ,-41, ,
2, ,-41, ,
3, ,-41, ,
3, ,-41, ,
1, ,-41, ,
3, ,-41, ,
2, ,-41, ,
2, ,-41, ,
3, ,-41, ,
2, ,-41, ,
1, ,-41, ,
3, ,-41, ,
2, ,-41, ,
2, ,-41, ,
3, ,-41, ,
3, ,-41, ,
1, ,-41, ,
3, ,-41, ,
2, ,-41, ,
2, ,-41, ,
2, ,-41, ,
3, ,-41, ,
1, ,-41, ,
3, ,-41, ,
2, ,-41, ,
2, ,-41, ,
2, ,-41, ,
3, ,-41, ,
1, ,-41, ,
3, ,-41, ,
2, ,-41, ,
1, ,-41, ,
3, ,-41, ,
2, ,-41, ,
1, ,-41, ,
3, ,-41, ,
1, ,-41, ,
1, ,-41, ,
2, ,-41, ,
2, ,-40, ,
1, ,-41, ,
3, ,-41, ,
1, ,-41, ,
1, ,-41, ,
2, ,-41, ,
2, ,-41, ,
1, ,-41, ,
3, ,-41, ,
1, ,-41, ,
2, ,-41, ,
2, ,-41, ,
2, ,-41, ,
1, ,-41, ,
3, ,-41, ,
1, ,-41, ,
1, ,-40, ,
2, ,-41, ,
2, ,-41, ,
1, ,-41, ,
3, ,-41, ,
2, ,-41, ,
2, ,-41, ,
2, ,-41, ,
2, ,-41, ,
1, ,-41, ,
3, ,-41, ,
1, ,-41, ,
2, ,-41, ,
3, ,-41, ,
2, ,-41, ,
1, ,-41, ,
3, ,-41, ,
2, ,-41, ,
2, ,-41, ,
2, ,-41, ,
2, ,-41, ,
1, ,-41, ,
3, ,-41, ,
1, ,-42, ,
1, ,-41, ,
2, ,-41, ,
2, ,-41, ,
1, ,-41, ,
3, ,-41, ,
1, ,-41, ,
1, ,-41, ,
2, ,-41, ,
2, ,-41, ,
1, ,-41, ,
2, ,-41, ,
1, ,-41, ,
2, ,-41, ,
2, ,-41, ,
2, ,-41, ,
1, ,-41, ,
3, ,-41, ,
1, ,-41, ,
2, ,-41, ,
2, ,-41, ,
2, ,-41, ,
1, ,-41, ,
2, ,-41, ,
1, ,-41, ,
1, ,-41, ,
2, ,-41, ,
2, ,-41, ,
1, ,-41, ,
2, ,-41, ,
1, ,-41, ,
2, ,-41, ,
2, ,-41, ,
2, ,-41, ,
1, ,-41, ,
3, ,-41, ,
1, ,-41, ,
1, ,-41, ,
2, ,-41, ,
2, ,-41, ,
1, ,-41, ,
3, ,-41, ,
1, ,-41, ,
1, ,-41, ,
2, ,-41, ,
2, ,-41, ,
1, ,-41, ,
2, ,-41, ,
1, ,-41, ,
2, ,-41, ,
2, ,-41, ,
2, ,-41, ,
1, ,-41, ,
3, ,-41, ,
2, ,-41, ,
2, ,-41, ,
2, ,-41, ,
2, ,-41, ,
1, ,-41, ,
5, ,-41, ,
1, ,-41, ,
1, ,-41, ,
2, ,-41, ,
2, ,-41, ,
1, ,-41, ,
2, ,-41, ,
1, ,-41, ,
2, ,-41, ,
2, ,-41, ,
2, ,-41, ,
1, ,-41, ,
2, ,-41, ,
1, ,-41, ,
2, ,-41, ,
2, ,-41, ,
2, ,-41, ,
1, ,-41, ,
2, ,-41, ,
1, ,-41, ,
1, ,-41, ,
2, ,-41, ,
2, ,-41, ,
1, ,-41, ,
3, ,-41, ,
1, ,-41, ,
1, ,-41, ,
2, ,-41, ,
2, ,-41, ,
1, ,-41, ,
2, ,-41, ,
1, ,-41, ,
1, ,-41, ,
2, ,-41, ,
2, ,-41, ,
-1, ,-41, ,
3, ,-41, ,
1, ,-41, ,
1, ,-41, ,
2, ,-41, ,
2, ,-41, ,
-1, ,-41, ,
2, ,-41, ,
1, ,-41, ,
1, ,-41, ,
2, ,-41, ,
2, ,-41, ,
-1, ,-41, ,
2, ,-41, ,
1, ,-41, ,
1, ,-41, ,
2, ,-41, ,
2, ,-41, ,
-1, ,-41, ,
2, ,-41, ,
1, ,-41, ,
1, ,-41, ,
2, ,-41, ,
1, ,-41, ,
-1, ,-41, ,
2, ,-41, ,
1, ,-41, ,
1, ,-41, ,
2, ,-41, ,
1, ,-41, ,
-1, ,-41, ,
3, ,-41, ,
1, ,-41, ,
1, ,-41, ,
2, ,-41, ,
2, ,-41, ,
-1, ,-41, ,
2, ,-41, ,
1, ,-41, ,
1, ,-41, ,
2, ,-41, ,
2, ,-41, ,
1, ,-41, ,
2, ,-41, ,
1, ,-41, ,
2, ,-41, ,
2, ,-41, ,
2, ,-41, ,
-1, ,-41, ,
2, ,-41, ,
1, ,-41, ,
1, ,-41, ,
2, ,-41, ,
2, ,-41, ,
1, ,-41, ,
2, ,-41, ,
1, ,-38, ,
2, ,-19, ,
2, ,-1, ,
2, ,13, ,
1, ,22, ,
2, ,31, ,
1, ,36, ,
2, ,40, ,
2, ,43, ,
2, ,46, ,
-1, ,47, ,
2, ,49, ,
1, ,51, ,
1, ,51, ,
2, ,52, ,
1, ,52, ,
1, ,52, ,
2, ,52, ,
1, ,52, ,
1, ,52, ,
2, ,52, ,
1, ,53, ,
1, ,52, ,
2, ,53, ,
1, ,53, ,
-1, ,52, ,
2, ,52, ,
1, ,53, ,
1, ,53, ,
2, ,52, ,
1, ,53, ,
1, ,52, ,
2, ,52, ,
1, ,52, ,
-1, ,52, ,
2, ,52, ,
1, ,53, ,
1, ,52, ,
1, ,52, ,
1, ,52, ,
-1, ,53, ,
2, ,52, ,
1, ,52, ,
1, ,52, ,
2, ,52, ,
1, ,52, ,
1, ,52, ,
2, ,52, ,
1, ,53, ,
1, ,52, ,
2, ,52, ,
1, ,52, ,
-1, ,52, ,
2, ,52, ,
1, ,52, ,
1, ,52, ,
2, ,52, ,
1, ,52, ,
-1, ,52, ,
2, ,52, ,
1, ,53, ,
1, ,52, ,
2, ,52, ,
1, ,52, ,
-1, ,52, ,
2, ,52, ,
1, ,52, ,
1, ,52, ,
2, ,52, ,
1, ,52, ,
-1, ,52, ,
2, ,52, ,
1, ,52, ,
1, ,52, ,
1, ,52, ,
1, ,52, ,
1, ,52, ,
2, ,52, ,
1, ,52, ,
1, ,52, ,
2, ,52, ,
1, ,52, ,
1, ,52, ,
2, ,52, ,
1, ,52, ,
1, ,52, ,
2, ,52, ,
1, ,52, ,
-1, ,52, ,
2, ,52, ,
1, ,52, ,
-1, ,52, ,
2, ,52, ,
1, ,52, ,
-1, ,52, ,
1, ,52, ,
1, ,52, ,
-1, ,52, ,
2, ,52, ,
1, ,52, ,
-1, ,52, ,
2, ,52, ,
1, ,52, ,
1, ,52, ,
2, ,52, ,
1, ,52, ,
-1, ,52, ,
2, ,52, ,
1, ,53, ,
1, ,52, ,
2, ,52, ,
1, ,52, ,
-1, ,52, ,
2, ,52, ,
1, ,52, ,
1, ,52, ,
2, ,52, ,
1, ,52, ,
-1, ,52, ,
2, ,52, ,
1, ,52, ,
1, ,52, ,
2, ,52, ,
1, ,52, ,
-1, ,52, ,
2, ,52, ,
1, ,52, ,
-1, ,52, ,
2, ,52, ,
1, ,52, ,
-1, ,52, ,
2, ,52, ,
1, ,52, ,
1, ,52, ,
2, ,52, ,
1, ,52, ,
-1, ,52, ,
2, ,52, ,
1, ,52, ,
-1, ,52, ,
2, ,52, ,
1, ,52, ,
-1, ,52, ,
2, ,52, ,
1, ,52, ,
-1, ,52, ,
2, ,52, ,
1, ,52, ,
1, ,52, ,
2, ,52, ,
1, ,52, ,
-1, ,52, ,
2, ,52, ,
1, ,52, ,
-1, ,52, ,
1, ,39, ,
-1, ,19, ,
1, ,3, ,
2, ,-7, ,
1, ,-17, ,
-1, ,-23, ,
2, ,-27, ,
1, ,-32, ,
1, ,-34, ,
1, ,-36, ,
1, ,-38, ,
-1, ,-39, ,
2, ,-39, ,
1, ,-40, ,
1, ,-41, ,
2, ,-41, ,
1, ,-41, ,
-1, ,-41, ,
2, ,-41, ,
-1, ,-42, ,
1, ,-41, ,
1, ,-42, ,
1, ,-42, ,
-1, ,-42, ,
2, ,-41, ,
-1, ,-42, ,
-1, ,-42, ,
2, ,-42, ,
1, ,-42, ,
-1, ,-41, ,
2, ,-41, ,
-1, ,-42, ,
1, ,-41, ,
2, ,-41, ,
1, ,-41, ,
-1, ,-41, ,
3, ,-41, ,
-1, ,-41, ,
-1, ,-41, ,
2, ,-41, ,
1, ,-41, ,
-1, ,-41, ,
2, ,-41, ,
-1, ,-42, ,
1, ,-41, ,
1, ,-41, ,
1, ,-41, ,
-1, ,-41, ,
2, ,-41, ,
1, ,-41, ,
1, ,-41, ,
2, ,-41, ,
2, ,-41, ,
-1, ,-41, ,
2, ,-41, ,
1, ,-41, ,
1, ,-41, ,
2, ,-41, ,
1, ,-41, ,
-1, ,-41, ,
2, ,-41, ,
-1, ,-41, ,
-1, ,-41, ,
1, ,-41, ,
1, ,-41, ,
-1, ,-41, ,
2, ,-41, ,
-1, ,-41, ,
-1, ,-41, ,
1, ,-41, ,
1, ,-41, ,
-1, ,-41, ,
2, ,-41, ,
-1, ,-41, ,
1, ,-41, ,
1, ,-41, ,
1, ,-41, ,
-1, ,-41, ,
2, ,-41, ,
-1, ,-41, ,
-1, ,-41, ,
1, ,-41, ,
1, ,-41, ,
-1, ,-41, ,
2, ,-41, ,
-1, ,-41, ,
1, ,-41, ,
1, ,-41, ,
1, ,-41, ,
-1, ,-41, ,
2, ,-41, ,
-1, ,-41, ,
1, ,-41, ,
1, ,-41, ,
1, ,-41, ,
-1, ,-41, ,
2, ,-41, ,
1, ,-41, ,
1, ,-41, ,
1, ,-41, ,
1, ,-41, ,
-1, ,-41, ,
2, ,-41, ,
-1, ,-41, ,
-1, ,-41, ,
1, ,-41, ,
1, ,-41, ,
-1, ,-41, ,
2, ,-41, ,
1, ,-41, ,
-1, ,-41, ,
1, ,-41, ,
1, ,-41, ,
-1, ,-41, ,
1, ,-41, ,
-1, ,-41, ,
1, ,-41, ,
1, ,-41, ,
1, ,-41, ,
-1, ,-41, ,
2, ,-41, ,
-1, ,-41, ,
-1, ,-41, ,
1, ,-41, ,
2, ,-41, ,
-1, ,-41, ,
2, ,-41, ,
-1, ,-41, ,
1, ,-41, ,
1, ,-41, ,
1, ,-41, ,
-1, ,-41, ,
2, ,-41, ,
-1, ,-41, ,
-1, ,-41, ,
1, ,-41, ,
1, ,-41, ,
-1, ,-41, ,
2, ,-41, ,
-1, ,-41, ,
-1, ,-41, ,
1, ,-41, ,
1, ,-41, ,
-1, ,-41, ,
2, ,-41, ,
-1, ,-41, ,
-1, ,-41, ,
1, ,-41, ,
2, ,-41, ,
-1, ,-41, ,
2, ,-41, ,
-1, ,-41, ,
-1, ,-41, ,
1, ,-41, ,
1, ,-41, ,
-1, ,-41, ,
2, ,-41, ,
1, ,-41, ,
1, ,-41, ,
1, ,-41, ,
2, ,-41, ,
-1, ,-41, ,
2, ,-41, ,
-1, ,-41, ,
-1, ,-41, ,
1, ,-41, ,
1, ,-41, ,
-1, ,-41, ,
2, ,-41, ,
-1, ,-41, ,
1, ,-41, ,
1, ,-41, ,
1, ,-41, ,
-1, ,-41, ,
2, ,-41, ,
-1, ,-41, ,
-1, ,-41, ,
1, ,-41, ,
1, ,-41, ,
-1, ,-41, ,
2, ,-41, ,
-1, ,-41, ,
1, ,-41, ,
1, ,-41, ,
1, ,-41, ,
-1, ,-41, ,
2, ,-41, ,
-1, ,-41, ,
-1, ,-41, ,
1, ,-41, ,
1, ,-41, ,
-1, ,-41, ,
2, ,-41, ,
-1, ,-41, ,
-1, ,-41, ,
1, ,-41, ,
1, ,-41, ,
-1, ,-41, ,
2, ,-40, ,
-1, ,-41, ,
-1, ,-41, ,
1, ,-41, ,
1, ,-41, ,
-1, ,-41, ,
1, ,-41, ,
-1, ,-41, ,
-1, ,-41, ,
1, ,-41, ,
1, ,-41, ,
-1, ,-41, ,
1, ,-41, ,
-1, ,-41, ,
-1, ,-41, ,
1, ,-41, ,
2, ,-41, ,
-1, ,-41, ,
2, ,-41, ,
1, ,-41, ,
-1, ,-41, ,
1, ,-41, ,
1, ,-41, ,
-2, ,-41, ,
2, ,-41, ,
-1, ,-41, ,
1, ,-41, ,
1, ,-41, ,
1, ,-41, ,
-1, ,-41, ,
2, ,-41, ,
-1, ,-41, ,
-1, ,-41, ,
1, ,-41, ,
1, ,-41, ,
-1, ,-41, ,
2, ,-41, ,
-1, ,-41, ,
1, ,-41, ,
1, ,-41, ,
1, ,-41, ,
-1, ,-41, ,
2, ,-41, ,
-1, ,-41, ,
-1, ,-41, ,
1, ,-41, ,
1, ,-41, ,
-1, ,-41, ,
2, ,-41, ,
-1, ,-41, ,
-1, ,-40, ,
1, ,-41, ,
1, ,-41, ,
-1, ,-41, ,
1, ,-41, ,
-1, ,-41, ,
-1, ,-41, ,
1, ,-41, ,
1, ,-41, ,
-1, ,-41, ,
1, ,-41, ,
-1, ,-41, ,
-1, ,-41, ,
1, ,-41, ,
1, ,-41, ,
-1, ,-41, ,
2, ,-41, ,
-1, ,-41, ,
-1, ,-41, ,
2, ,-41, ,
1, ,-41, ,
-1, ,-41, ,
2, ,-41, ,
-1, ,-41, ,
1, ,-41, ,
1, ,-41, ,
1, ,-41, ,
-1, ,-41, ,
2, ,-41, ,
-1, ,-41, ,
-1, ,-41, ,
1, ,-41, ,
1, ,-41, ,
-1, ,-41, ,
2, ,-41, ,
-1, ,-41, ,
1, ,-41, ,
1, ,-41, ,
1, ,-41, ,
-1, ,-41, ,
1, ,-41, ,
-1, ,-41, ,
-1, ,-41, ,
1, ,-41, ,
1, ,-41, ,
-1, ,-41, ,
2, ,-41, ,
-1, ,-41, ,
1, ,-41, ,
1, ,-41, ,
1, ,-41, ,
-1, ,-41, ,
1, ,-41, ,
-1, ,-41, ,
-1, ,-41, ,
1, ,-41, ,
1, ,-41, ,
-1, ,-41, ,
2, ,-41, ,
-1, ,-41, ,
-1, ,-41, ,
1, ,-41, ,
1, ,-41, ,
-1, ,-41, ,
1, ,-41, ,
-1, ,-41, ,
-1, ,-41, ,
1, ,-41, ,
-1, ,-41, ,
-2, ,-41, ,
1, ,-41, ,
-1, ,-41, ,
-1, ,-41, ,
1, ,-41, ,
1, ,-41, ,
-1, ,-41, ,
2, ,-41, ,
-1, ,-41, ,
-1, ,-41, ,
1, ,-41, ,
1, ,-41, ,
-1, ,-41, ,
1, ,-41, ,
-1, ,-41, ,
-1, ,-41, ,
1, ,-41, ,
1, ,-41, ,
-1, ,-41, ,
2, ,-41, ,
-1, ,-41, ,
-1, ,-41, ,
1, ,-41, ,
1, ,-41, ,
-2, ,-41, ,
2, ,-41, ,
-1, ,-41, ,
-1, ,-41, ,
1, ,-41, ,
1, ,-41, ,
-1, ,-41, ,
2, ,-41, ,
-1, ,-41, ,
-1, ,-41, ,
1, ,-41, ,
1, ,-41, ,
-1, ,-41, ,
2, ,-41, ,
-1, ,-41, ,
1, ,-41, ,
1, ,-41, ,
1, ,-41, ,
-1, ,-41, ,
2, ,-41, ,
-1, ,-41, ,
-1, ,-41, ,
1, ,-41, ,
1, ,-41, ,
-1, ,-41, ,
2, ,-41, ,
-1, ,-41, ,
-1, ,-41, ,
1, ,-41, ,
1, ,-41, ,
-1, ,-41, ,
2, ,-41, ,
-1, ,-41, ,
-1, ,-41, ,
1, ,-41, ,
1, ,-41, ,
-1, ,-41, ,
2, ,-41, ,
-1, ,-41, ,
1, ,-41, ,
1, ,-41, ,
1, ,-41, ,
-1, ,-41, ,
2, ,-41, ,
-1, ,-41, ,
1, ,-41, ,
1, ,-41, ,
2, ,-41, ,
-1, ,-41, ,
2, ,-41, ,
-1, ,-41, ,
-1, ,-41, ,
1, ,-41, ,
1, ,-41, ,
-1, ,-41, ,
1, ,-41, ,
-1, ,-41, ,
-1, ,-41, ,
1, ,-41, ,
1, ,-41, ,
-1, ,-41, ,
1, ,-41, ,
-1, ,-41, ,
-1, ,-41, ,
1, ,-41, ,
1, ,-41, ,
-2, ,-41, ,
2, ,-41, ,
-1, ,-41, ,
-1, ,-41, ,
1, ,-41, ,
1, ,-41, ,
-1, ,-41, ,
2, ,-41, ,
-1, ,-41, ,
-1, ,-41, ,
1, ,-41, ,
1, ,-41, ,
-2, ,-41, ,
1, ,-41, ,
-1, ,-41, ,
-1, ,-41, ,
1, ,-41, ,
1, ,-41, ,
-1, ,-41, ,
2, ,-41, ,
-1, ,-41, ,
1, ,-41, ,
1, ,-41, ,
1, ,-41, ,
-1, ,-41, ,
2, ,-41, ,
-1, ,-41, ,
1, ,-41, ,
1, ,-41, ,
1, ,-41, ,
-1, ,-41, ,
2, ,-41, ,
-1, ,-41, ,
-1, ,-41, ,
1, ,-41, ,
1, ,-41, ,
-1, ,-41, ,
1, ,-41, ,
-1, ,-41, ,
-1, ,-41, ,
1, ,-41, ,
-1, ,-41, ,
-1, ,-41, ,
1, ,-41, ,
-1, ,-41, ,
-1, ,-41, ,
1, ,-41, ,
1, ,-41, ,
-1, ,-41, ,
1, ,-41, ,
-1, ,-41, ,
-1, ,-41, ,
1, ,-41, ,
-1, ,-41, ,
-2, ,-41, ,
1, ,-41, ,
-1, ,-41, ,
-1, ,-41, ,
1, ,-41, ,
1, ,-41, ,
-2, ,-41, ,
2, ,-41, ,
-1, ,-41, ,
-1, ,-41, ,
1, ,-41, ,
1, ,-41, ,
