src/varyamp_1560/temp0001748.CSV

Format,1.0B,
Memory Length,10000,Memory Length,10000,
IntpDistance,0,IntpDistance,0,
Trigger Address,4999,Trigger Address,4999,
Trigger Level,1.040E+00,Trigger Level,1.040E+00,
Source,CH1,Source,CH2,
Vertical Units,V,Vertical Units,V,
Vertical Units Div,0,Vertical Units Div,0,
Vertical Units Extend Div,16,Vertical Units Extend Div,16,
Label,,Label,,
Probe Type,0,Probe Type,0,
Probe Ratio,1.000e+01,Probe Ratio,1.000e+00,
Vertical Scale,5.000e-01,Vertical Scale,1.000e+00,
Vertical Position,-1.820e+00,Vertical Position,0.000e+00,
Horizontal Units,S,Horizontal Units,S,
Horizontal Scale,2.000E-05,Horizontal Scale,2.000E-05,
Horizontal Position,0.000E+00,Horizontal Position,0.000E+00,
Horizontal Mode,Main,Horizontal Mode,Main,
SincET Mode,Real Time,SincET Mode,Real Time,
Sampling Period,2.000e-08,Sampling Period,2.000e-08,
Horizontal Old Scale,2.000E-05,Horizontal Old Scale,2.000E-05,
Horizontal Old Position,0.000E+00,Horizontal Old Position,0.000E+00,
Firmware,V1.23,Firmware,V1.23,
Mode,Fast,Mode,Fast,
Waveform Data,,Waveform Data,,
-2, ,-54, ,
1, ,-54, ,
-1, ,-54, ,
-1, ,-54, ,
1, ,-54, ,
-1, ,-55, ,
-2, ,-54, ,
2, ,-54, ,
-1, ,-54, ,
-1, ,-54, ,
1, ,-54, ,
1, ,-55, ,
-1, ,-54, ,
1, ,-54, ,
-1, ,-54, ,
-1, ,-54, ,
-1, ,-54, ,
1, ,-55, ,
-1, ,-54, ,
1, ,-54, ,
-1, ,-54, ,
-1, ,-54, ,
1, ,-54, ,
1, ,-55, ,
-2, ,-54, ,
1, ,-54, ,
-1, ,-54, ,
-1, ,-54, ,
1, ,-54, ,
1, ,-55, ,
-1, ,-54, ,
2, ,-54, ,
-1, ,-54, ,
-1, ,-54, ,
1, ,-54, ,
1, ,-54, ,
-2, ,-54, ,
1, ,-54, ,
-1, ,-54, ,
-1, ,-54, ,
1, ,-54, ,
1, ,-55, ,
-2, ,-54, ,
2, ,-54, ,
-1, ,-54, ,
-1, ,-54, ,
1, ,-54, ,
1, ,-55, ,
-2, ,-54, ,
1, ,-54, ,
-1, ,-54, ,
-1, ,-54, ,
1, ,-54, ,
1, ,-55, ,
-1, ,-54, ,
1, ,-54, ,
-1, ,-54, ,
-1, ,-54, ,
1, ,-54, ,
1, ,-55, ,
-1, ,-54, ,
1, ,-54, ,
-1, ,-54, ,
-1, ,-54, ,
1, ,-54, ,
1, ,-54, ,
-1, ,-54, ,
1, ,-54, ,
-1, ,-54, ,
-1, ,-54, ,
1, ,-54, ,
1, ,-54, ,
-2, ,-54, ,
1, ,-54, ,
-1, ,-54, ,
-1, ,-54, ,
1, ,-54, ,
1, ,-55, ,
-2, ,-54, ,
2, ,-54, ,
-1, ,-54, ,
-1, ,-54, ,
1, ,-54, ,
1, ,-55, ,
-2, ,-54, ,
1, ,-54, ,
-1, ,-54, ,
-1, ,-54, ,
1, ,-54, ,
-1, ,-55, ,
-1, ,-54, ,
2, ,-54, ,
-1, ,-54, ,
-1, ,-54, ,
1, ,-54, ,
1, ,-54, ,
-2, ,-54, ,
1, ,-54, ,
-1, ,-54, ,
-1, ,-54, ,
-1, ,-54, ,
1, ,-55, ,
-1, ,-54, ,
1, ,-54, ,
-1, ,-54, ,
-1, ,-54, ,
1, ,-54, ,
1, ,-55, ,
-2, ,-54, ,
1, ,-54, ,
-1, ,-54, ,
-1, ,-54, ,
1, ,-54, ,
86, ,-55, ,
71, ,-54, ,
43, ,-54, ,
27, ,-54, ,
17, ,-54, ,
12, ,-54, ,
8, ,-55, ,
3, ,-54, ,
5, ,-54, ,
2, ,-54, ,
2, ,-54, ,
3, ,-54, ,
2, ,-55, ,
1, ,-54, ,
3, ,-54, ,
2, ,-54, ,
2, ,-54, ,
3, ,-54, ,
3, ,-55, ,
1, ,-54, ,
3, ,-54, ,
2, ,-54, ,
2, ,-54, ,
2, ,-54, ,
3, ,-55, ,
1, ,-54, ,
3, ,-54, ,
2, ,-54, ,
1, ,-54, ,
2, ,-54, ,
2, ,-54, ,
1, ,-54, ,
3, ,-54, ,
2, ,-54, ,
2, ,-54, ,
2, ,-54, ,
2, ,-55, ,
1, ,-54, ,
3, ,-54, ,
2, ,-54, ,
1, ,-54, ,
2, ,-54, ,
3, ,-55, ,
1, ,-54, ,
3, ,-54, ,
2, ,-54, ,
1, ,-54, ,
2, ,-54, ,
3, ,-55, ,
1, ,-54, ,
3, ,-54, ,
2, ,-54, ,
1, ,-54, ,
3, ,-54, ,
3, ,-55, ,
1, ,-54, ,
3, ,-54, ,
2, ,-54, ,
2, ,-54, ,
2, ,-54, ,
2, ,-55, ,
1, ,-54, ,
3, ,-54, ,
2, ,-54, ,
1, ,-54, ,
2, ,-54, ,
3, ,-55, ,
1, ,-54, ,
3, ,-54, ,
2, ,-54, ,
1, ,-54, ,
2, ,-54, ,
3, ,-55, ,
1, ,-54, ,
3, ,-54, ,
2, ,-54, ,
1, ,-54, ,
2, ,-54, ,
2, ,-55, ,
1, ,-54, ,
2, ,-54, ,
2, ,-54, ,
1, ,-54, ,
2, ,-54, ,
2, ,-55, ,
1, ,-54, ,
3, ,-54, ,
1, ,-54, ,
1, ,-54, ,
2, ,-54, ,
2, ,-55, ,
1, ,-54, ,
3, ,-54, ,
1, ,-54, ,
1, ,-54, ,
2, ,-54, ,
2, ,-54, ,
1, ,-54, ,
3, ,-54, ,
1, ,-55, ,
1, ,-54, ,
2, ,-54, ,
2, ,-55, ,
1, ,-54, ,
3, ,-54, ,
1, ,-54, ,
1, ,-54, ,
2, ,-54, ,
2, ,-55, ,
1, ,-54, ,
3, ,-54, ,
1, ,-54, ,
1, ,-54, ,
2, ,-54, ,
2, ,-55, ,
1, ,-54, ,
3, ,-54, ,
1, ,-54, ,
1, ,-54, ,
2, ,-54, ,
2, ,-55, ,
1, ,-54, ,
3, ,-54, ,
1, ,-54, ,
1, ,-54, ,
2, ,-54, ,
2, ,-55, ,
1, ,-54, ,
2, ,-54, ,
1, ,-54, ,
1, ,-54, ,
2, ,-54, ,
2, ,-55, ,
1, ,-54, ,
3, ,-54, ,
1, ,-54, ,
1, ,-54, ,
2, ,-54, ,
2, ,-55, ,
-1, ,-54, ,
2, ,-54, ,
1, ,-54, ,
1, ,-54, ,
2, ,-54, ,
2, ,-55, ,
1, ,-54, ,
2, ,-54, ,
1, ,-54, ,
1, ,-54, ,
2, ,-54, ,
2, ,-55, ,
1, ,-54, ,
2, ,-54, ,
1, ,-54, ,
1, ,-54, ,
2, ,-54, ,
2, ,-55, ,
1, ,-54, ,
3, ,-55, ,
1, ,-54, ,
1, ,-54, ,
2, ,-54, ,
2, ,-55, ,
-1, ,-54, ,
2, ,-54, ,
1, ,-54, ,
1, ,-54, ,
2, ,-54, ,
2, ,-55, ,
1, ,-54, ,
2, ,-54, ,
1, ,-54, ,
1, ,-54, ,
2, ,-54, ,
2, ,-55, ,
-1, ,-55, ,
2, ,-54, ,
1, ,-54, ,
1, ,-54, ,
1, ,-54, ,
2, ,-55, ,
1, ,-54, ,
2, ,-54, ,
1, ,-54, ,
1, ,-54, ,
2, ,-54, ,
2, ,-55, ,
-1, ,-54, ,
3, ,-54, ,
1, ,-54, ,
1, ,-54, ,
2, ,-54, ,
2, ,-51, ,
1, ,-32, ,
3, ,-13, ,
1, ,0, ,
1, ,11, ,
2, ,18, ,
2, ,23, ,
-1, ,27, ,
3, ,31, ,
1, ,33, ,
1, ,35, ,
2, ,36, ,
2, ,37, ,
-1, ,38, ,
2, ,38, ,
1, ,39, ,
1, ,39, ,
2, ,39, ,
1, ,39, ,
-1, ,39, ,
2, ,39, ,
1, ,39, ,
1, ,39, ,
2, ,39, ,
2, ,39, ,
1, ,39, ,
2, ,39, ,
1, ,39, ,
1, ,39, ,
2, ,39, ,
1, ,39, ,
-1, ,39, ,
2, ,39, ,
1, ,39, ,
1, ,39, ,
2, ,39, ,
1, ,39, ,
1, ,39, ,
2, ,39, ,
1, ,39, ,
1, ,39, ,
2, ,39, ,
1, ,39, ,
-1, ,39, ,
2, ,39, ,
1, ,39, ,
1, ,39, ,
1, ,39, ,
1, ,39, ,
1, ,39, ,
2, ,39, ,
1, ,39, ,
1, ,39, ,
2, ,39, ,
1, ,39, ,
-1, ,39, ,
2, ,39, ,
1, ,39, ,
1, ,39, ,
1, ,39, ,
1, ,39, ,
-1, ,38, ,
2, ,39, ,
1, ,39, ,
1, ,39, ,
2, ,39, ,
1, ,39, ,
-1, ,39, ,
2, ,39, ,
1, ,39, ,
1, ,39, ,
2, ,39, ,
2, ,39, ,
-1, ,39, ,
2, ,39, ,
1, ,39, ,
1, ,39, ,
2, ,38, ,
1, ,39, ,
-1, ,39, ,
2, ,39, ,
1, ,39, ,
1, ,39, ,
2, ,38, ,
1, ,39, ,
-1, ,39, ,
2, ,39, ,
1, ,39, ,
1, ,39, ,
2, ,39, ,
1, ,39, ,
-1, ,38, ,
2, ,38, ,
1, ,39, ,
1, ,39, ,
1, ,39, ,
1, ,39, ,
-1, ,39, ,
2, ,38, ,
1, ,39, ,
1, ,39, ,
2, ,39, ,
1, ,39, ,
-1, ,39, ,
2, ,39, ,
1, ,39, ,
1, ,39, ,
2, ,39, ,
1, ,39, ,
1, ,39, ,
2, ,39, ,
1, ,39, ,
1, ,39, ,
2, ,39, ,
1, ,39, ,
-1, ,39, ,
2, ,39, ,
1, ,38, ,
1, ,39, ,
2, ,38, ,
1, ,39, ,
-1, ,39, ,
2, ,38, ,
1, ,39, ,
1, ,39, ,
2, ,39, ,
1, ,39, ,
-1, ,39, ,
2, ,39, ,
1, ,39, ,
1, ,39, ,
2, ,38, ,
1, ,39, ,
-1, ,39, ,
2, ,39, ,
1, ,39, ,
1, ,39, ,
2, ,39, ,
1, ,39, ,
-1, ,39, ,
2, ,39, ,
1, ,38, ,
1, ,39, ,
2, ,38, ,
1, ,39, ,
-1, ,39, ,
2, ,38, ,
1, ,39, ,
-1, ,39, ,
2, ,39, ,
1, ,39, ,
-1, ,38, ,
2, ,39, ,
1, ,38, ,
-1, ,38, ,
2, ,25, ,
1, ,5, ,
-1, ,-9, ,
1, ,-21, ,
1, ,-30, ,
-1, ,-37, ,
1, ,-41, ,
1, ,-45, ,
-1, ,-47, ,
2, ,-50, ,
1, ,-51, ,
1, ,-52, ,
1, ,-53, ,
1, ,-54, ,
-1, ,-54, ,
2, ,-54, ,
-1, ,-55, ,
1, ,-55, ,
1, ,-55, ,
2, ,-55, ,
-1, ,-55, ,
2, ,-55, ,
1, ,-55, ,
-1, ,-55, ,
1, ,-55, ,
1, ,-55, ,
-1, ,-55, ,
2, ,-55, ,
1, ,-55, ,
1, ,-55, ,
2, ,-55, ,
2, ,-55, ,
-1, ,-54, ,
2, ,-55, ,
1, ,-55, ,
1, ,-54, ,
1, ,-55, ,
1, ,-55, ,
-1, ,-54, ,
2, ,-55, ,
-1, ,-55, ,
-1, ,-55, ,
2, ,-55, ,
1, ,-55, ,
-1, ,-55, ,
2, ,-54, ,
1, ,-54, ,
1, ,-55, ,
1, ,-54, ,
1, ,-55, ,
-1, ,-54, ,
2, ,-54, ,
-1, ,-55, ,
-1, ,-55, ,
2, ,-54, ,
1, ,-55, ,
-1, ,-54, ,
1, ,-54, ,
1, ,-54, ,
-1, ,-54, ,
1, ,-55, ,
1, ,-55, ,
-1, ,-54, ,
2, ,-54, ,
1, ,-55, ,
1, ,-54, ,
2, ,-54, ,
1, ,-55, ,
-2, ,-54, ,
1, ,-54, ,
1, ,-54, ,
1, ,-55, ,
1, ,-54, ,
1, ,-55, ,
-1, ,-54, ,
2, ,-54, ,
-1, ,-55, ,
-1, ,-54, ,
1, ,-55, ,
1, ,-55, ,
-1, ,-55, ,
1, ,-54, ,
1, ,-54, ,
-1, ,-54, ,
2, ,-54, ,
1, ,-55, ,
-1, ,-54, ,
2, ,-54, ,
1, ,-54, ,
1, ,-54, ,
1, ,-54, ,
1, ,-54, ,
-1, ,-54, ,
2, ,-54, ,
1, ,-54, ,
1, ,-54, ,
2, ,-54, ,
1, ,-55, ,
-1, ,-54, ,
2, ,-54, ,
1, ,-54, ,
1, ,-54, ,
1, ,-54, ,
1, ,-55, ,
-1, ,-54, ,
2, ,-54, ,
1, ,-54, ,
1, ,-54, ,
1, ,-54, ,
1, ,-55, ,
-1, ,-54, ,
2, ,-54, ,
1, ,-54, ,
1, ,-54, ,
1, ,-54, ,
1, ,-55, ,
-1, ,-54, ,
1, ,-54, ,
1, ,-54, ,
1, ,-55, ,
1, ,-54, ,
1, ,-55, ,
-1, ,-54, ,
2, ,-54, ,
1, ,-55, ,
1, ,-54, ,
1, ,-54, ,
1, ,-54, ,
-1, ,-54, ,
2, ,-54, ,
1, ,-54, ,
-1, ,-54, ,
1, ,-54, ,
1, ,-55, ,
-1, ,-54, ,
2, ,-54, ,
1, ,-54, ,
1, ,-54, ,
2, ,-54, ,
1, ,-55, ,
-1, ,-54, ,
2, ,-54, ,
1, ,-54, ,
1, ,-54, ,
1, ,-54, ,
1, ,-55, ,
-1, ,-54, ,
2, ,-54, ,
-1, ,-55, ,
-1, ,-54, ,
1, ,-54, ,
1, ,-55, ,
-1, ,-54, ,
2, ,-55, ,
1, ,-54, ,
-1, ,-54, ,
1, ,-54, ,
1, ,-54, ,
-1, ,-54, ,
2, ,-54, ,
1, ,-55, ,
1, ,-54, ,
2, ,-54, ,
1, ,-55, ,
-1, ,-54, ,
1, ,-54, ,
-1, ,-54, ,
-1, ,-54, ,
1, ,-54, ,
1, ,-55, ,
-1, ,-54, ,
2, ,-54, ,
-1, ,-54, ,
-1, ,-54, ,
1, ,-54, ,
1, ,-55, ,
-1, ,-54, ,
2, ,-54, ,
1, ,-54, ,
-1, ,-54, ,
1, ,-54, ,
1, ,-55, ,
-1, ,-53, ,
2, ,-54, ,
-1, ,-55, ,
-1, ,-54, ,
1, ,-54, ,
1, ,-55, ,
-1, ,-54, ,
1, ,-54, ,
-1, ,-54, ,
-1, ,-54, ,
1, ,-54, ,
1, ,-55, ,
-1, ,-54, ,
1, ,-54, ,
-1, ,-54, ,
-1, ,-54, ,
1, ,-54, ,
1, ,-54, ,
-1, ,-54, ,
2, ,-54, ,
1, ,-54, ,
-1, ,-54, ,
1, ,-54, ,
1, ,-55, ,
-1, ,-54, ,
2, ,-54, ,
-1, ,-55, ,
1, ,-54, ,
2, ,-54, ,
1, ,-54, ,
-1, ,-54, ,
1, ,-54, ,
1, ,-54, ,
-1, ,-55, ,
1, ,-54, ,
1, ,-55, ,
-1, ,-54, ,
2, ,-54, ,
1, ,-54, ,
-1, ,-54, ,
1, ,-54, ,
1, ,-55, ,
-2, ,-54, ,
2, ,-54, ,
1, ,-54, ,
1, ,-54, ,
1, ,-54, ,
1, ,-55, ,
-1, ,-53, ,
2, ,-54, ,
-1, ,-54, ,
-1, ,-54, ,
1, ,-54, ,
1, ,-54, ,
-2, ,-54, ,
1, ,-54, ,
1, ,-54, ,
-1, ,-55, ,
1, ,-54, ,
1, ,-55, ,
-1, ,-54, ,
2, ,-54, ,
-1, ,-55, ,
-1, ,-54, ,
2, ,-54, ,
2, ,-55, ,
-1, ,-54, ,
1, ,-54, ,
1, ,-54, ,
-1, ,-54, ,
1, ,-54, ,
1, ,-54, ,
-1, ,-54, ,
1, ,-54, ,
-1, ,-54, ,
-1, ,-54, ,
1, ,-54, ,
1, ,-54, ,
-1, ,-54, ,
1, ,-54, ,
1, ,-54, ,
-1, ,-54, ,
1, ,-54, ,
1, ,-55, ,
-1, ,-54, ,
2, ,-54, ,
-1, ,-55, ,
1, ,-54, ,
1, ,-54, ,
1, ,-55, ,
-1, ,-54, ,
1, ,-54, ,
-1, ,-54, ,
-1, ,-54, ,
1, ,-54, ,
1, ,-55, ,
-1, ,-54, ,
1, ,-54, ,
-1, ,-54, ,
-1, ,-54, ,
1, ,-54, ,
1, ,-54, ,
-1, ,-54, ,
1, ,-54, ,
1, ,-54, ,
-1, ,-54, ,
1, ,-54, ,
1, ,-55, ,
-1, ,-54, ,
2, ,-54, ,
-1, ,-54, ,
-1, ,-54, ,
1, ,-54, ,
1, ,-54, ,
-2, ,-54, ,
1, ,-54, ,
-1, ,-54, ,
-1, ,-54, ,
1, ,-54, ,
1, ,-55, ,
-1, ,-54, ,
2, ,-55, ,
-1, ,-54, ,
-1, ,-54, ,
1, ,-54, ,
1, ,-54, ,
-1, ,-54, ,
1, ,-54, ,
-1, ,-54, ,
-1, ,-54, ,
1, ,-54, ,
1, ,-55, ,
-1, ,-54, ,
1, ,-54, ,
-1, ,-54, ,
-1, ,-54, ,
1, ,-54, ,
1, ,-55, ,
-1, ,-54, ,
1, ,-54, ,
-1, ,-54, ,
-1, ,-54, ,
1, ,-54, ,
1, ,-54, ,
85, ,-54, ,
53, ,-54, ,
31, ,-54, ,
20, ,-54, ,
13, ,-54, ,
10, ,-54, ,
5, ,-54, ,
6, ,-54, ,
3, ,-54, ,
2, ,-54, ,
3, ,-54, ,
2, ,-55, ,
1, ,-54, ,
3, ,-54, ,
1, ,-54, ,
2, ,-54, ,
3, ,-54, ,
2, ,-54, ,
1, ,-54, ,
3, ,-54, ,
2, ,-54, ,
2, ,-54, ,
2, ,-54, ,
2, ,-55, ,
1, ,-54, ,
3, ,-54, ,
2, ,-54, ,
1, ,-54, ,
2, ,-54, ,
2, ,-55, ,
1, ,-54, ,
3, ,-54, ,
1, ,-54, ,
1, ,-54, ,
2, ,-54, ,
2, ,-54, ,
1, ,-54, ,
3, ,-54, ,
1, ,-54, ,
2, ,-54, ,
2, ,-54, ,
3, ,-55, ,
1, ,-54, ,
3, ,-55, ,
2, ,-54, ,
2, ,-54, ,
2, ,-54, ,
2, ,-55, ,
1, ,-54, ,
5, ,-54, ,
2, ,-54, ,
1, ,-54, ,
2, ,-54, ,
3, ,-54, ,
1, ,-54, ,
3, ,-54, ,
2, ,-54, ,
1, ,-55, ,
2, ,-54, ,
2, ,-55, ,
1, ,-54, ,
3, ,-54, ,
2, ,-54, ,
1, ,-54, ,
2, ,-54, ,
3, ,-55, ,
1, ,-54, ,
3, ,-54, ,
2, ,-54, ,
1, ,-54, ,
2, ,-54, ,
2, ,-55, ,
1, ,-54, ,
3, ,-54, ,
1, ,-54, ,
1, ,-54, ,
2, ,-54, ,
2, ,-54, ,
1, ,-54, ,
3, ,-54, ,
2, ,-54, ,
1, ,-54, ,
2, ,-54, ,
2, ,-55, ,
1, ,-54, ,
3, ,-54, ,
1, ,-54, ,
1, ,-54, ,
2, ,-54, ,
2, ,-54, ,
1, ,-54, ,
3, ,-54, ,
1, ,-54, ,
2, ,-54, ,
2, ,-54, ,
2, ,-54, ,
1, ,-54, ,
3, ,-54, ,
1, ,-54, ,
1, ,-54, ,
2, ,-54, ,
2, ,-55, ,
1, ,-54, ,
3, ,-54, ,
1, ,-54, ,
1, ,-54, ,
2, ,-54, ,
2, ,-54, ,
-1, ,-54, ,
3, ,-54, ,
1, ,-54, ,
1, ,-54, ,
2, ,-54, ,
2, ,-54, ,
1, ,-54, ,
2, ,-54, ,
1, ,-54, ,
1, ,-54, ,
2, ,-54, ,
2, ,-55, ,
1, ,-54, ,
3, ,-54, ,
1, ,-54, ,
1, ,-54, ,
2, ,-54, ,
2, ,-54, ,
1, ,-54, ,
3, ,-54, ,
1, ,-54, ,
1, ,-54, ,
2, ,-54, ,
2, ,-55, ,
1, ,-54, ,
3, ,-54, ,
1, ,-54, ,
1, ,-54, ,
2, ,-54, ,
2, ,-55, ,
-1, ,-54, ,
2, ,-54, ,
1, ,-54, ,
1, ,-54, ,
2, ,-54, ,
2, ,-55, ,
-1, ,-54, ,
2, ,-54, ,
1, ,-55, ,
1, ,-54, ,
2, ,-54, ,
2, ,-55, ,
-1, ,-54, ,
2, ,-54, ,
1, ,-54, ,
1, ,-54, ,
1, ,-54, ,
2, ,-55, ,
1, ,-54, ,
2, ,-54, ,
1, ,-54, ,
1, ,-54, ,
2, ,-54, ,
2, ,-55, ,
-1, ,-54, ,
3, ,-54, ,
1, ,-54, ,
1, ,-54, ,
2, ,-54, ,
2, ,-55, ,
1, ,-54, ,
3, ,-54, ,
1, ,-54, ,
1, ,-54, ,
2, ,-54, ,
2, ,-55, ,
1, ,-54, ,
2, ,-54, ,
1, ,-54, ,
1, ,-54, ,
2, ,-54, ,
2, ,-55, ,
1, ,-54, ,
3, ,-54, ,
1, ,-54, ,
1, ,-54, ,
2, ,-54, ,
2, ,-55, ,
-1, ,-54, ,
3, ,-54, ,
1, ,-54, ,
1, ,-54, ,
2, ,-54, ,
2, ,-54, ,
1, ,-54, ,
3, ,-54, ,
1, ,-54, ,
1, ,-54, ,
2, ,-54, ,
2, ,-55, ,
-1, ,-54, ,
3, ,-54, ,
1, ,-54, ,
1, ,-54, ,
1, ,-54, ,
2, ,-55, ,
-1, ,-54, ,
2, ,-54, ,
1, ,-54, ,
1, ,-54, ,
2, ,-54, ,
2, ,-55, ,
-1, ,-54, ,
2, ,-54, ,
1, ,-54, ,
1, ,-54, ,
2, ,-54, ,
2, ,-55, ,
1, ,-54, ,
2, ,-54, ,
1, ,-54, ,
1, ,-54, ,
1, ,-54, ,
2, ,-55, ,
-1, ,-54, ,
2, ,-54, ,
1, ,-54, ,
1, ,-54, ,
2, ,-54, ,
2, ,-55, ,
-1, ,-54, ,
2, ,-54, ,
1, ,-54, ,
1, ,-54, ,
2, ,-54, ,
2, ,-55, ,
-1, ,-54, ,
2, ,-54, ,
1, ,-54, ,
1, ,-54, ,
46, ,-54, ,
35, ,-55, ,
21, ,-54, ,
16, ,-54, ,
10, ,-54, ,
7, ,-54, ,
6, ,-54, ,
5, ,-55, ,
3, ,-54, ,
5, ,-54, ,
2, ,-54, ,
2, ,-54, ,
2, ,-54, ,
2, ,-55, ,
1, ,-54, ,
5, ,-54, ,
2, ,-54, ,
2, ,-54, ,
3, ,-54, ,
3, ,-55, ,
1, ,-54, ,
3, ,-54, ,
2, ,-54, ,
2, ,-54, ,
2, ,-54, ,
2, ,-54, ,
1, ,-54, ,
3, ,-54, ,
1, ,-54, ,
1, ,-54, ,
2, ,-54, ,
3, ,-55, ,
1, ,-54, ,
3, ,-54, ,
2, ,-54, ,
1, ,-54, ,
2, ,-54, ,
2, ,-55, ,
1, ,-54, ,
3, ,-54, ,
2, ,-54, ,
1, ,-54, ,
2, ,-54, ,
2, ,-55, ,
1, ,-54, ,
3, ,-54, ,
2, ,-54, ,
1, ,-54, ,
2, ,-54, ,
2, ,-55, ,
1, ,-54, ,
5, ,-54, ,
2, ,-54, ,
1, ,-54, ,
2, ,-54, ,
2, ,-55, ,
1, ,-54, ,
3, ,-54, ,
2, ,-54, ,
1, ,-54, ,
2, ,-54, ,
2, ,-55, ,
1, ,-53, ,
3, ,-37, ,
2, ,-18, ,
1, ,-3, ,
2, ,8, ,
2, ,16, ,
1, ,22, ,
3, ,26, ,
2, ,30, ,
1, ,33, ,
2, ,34, ,
2, ,36, ,
1, ,37, ,
3, ,38, ,
2, ,38, ,
1, ,39, ,
2, ,39, ,
1, ,39, ,
1, ,39, ,
3, ,39, ,
2, ,39, ,
1, ,39, ,
2, ,39, ,
2, ,39, ,
1, ,39, ,
3, ,39, ,
2, ,39, ,
1, ,40, ,
2, ,39, ,
2, ,39, ,
1, ,39, ,
3, ,39, ,
2, ,39, ,
1, ,39, ,
2, ,39, ,
2, ,39, ,
1, ,39, ,
3, ,39, ,
1, ,39, ,
1, ,39, ,
2, ,39, ,
2, ,39, ,
1, ,39, ,
3, ,39, ,
2, ,39, ,
2, ,39, ,
2, ,39, ,
2, ,39, ,
1, ,39, ,
5, ,39, ,
2, ,39, ,
1, ,39, ,
2, ,39, ,
2, ,39, ,
1, ,38, ,
3, ,39, ,
1, ,39, ,
1, ,39, ,
2, ,39, ,
2, ,39, ,
1, ,39, ,
3, ,39, ,
2, ,39, ,
1, ,39, ,
2, ,39, ,
2, ,39, ,
1, ,39, ,
3, ,39, ,
2, ,39, ,
1, ,39, ,
2, ,39, ,
2, ,39, ,
1, ,39, ,
3, ,39, ,
1, ,39, ,
1, ,39, ,
2, ,39, ,
2, ,39, ,
1, ,39, ,
2, ,39, ,
2, ,39, ,
1, ,39, ,
2, ,39, ,
2, ,39, ,
1, ,39, ,
3, ,38, ,
1, ,39, ,
1, ,39, ,
2, ,38, ,
1, ,39, ,
1, ,39, ,
3, ,39, ,
1, ,39, ,
1, ,39, ,
2, ,39, ,
2, ,39, ,
1, ,39, ,
3, ,38, ,
1, ,39, ,
1, ,39, ,
2, ,38, ,
2, ,39, ,
1, ,39, ,
3, ,39, ,
1, ,39, ,
1, ,39, ,
2, ,38, ,
1, ,39, ,
1, ,39, ,
3, ,39, ,
1, ,39, ,
1, ,39, ,
2, ,39, ,
2, ,39, ,
1, ,39, ,
2, ,39, ,
1, ,39, ,
1, ,39, ,
2, ,39, ,
2, ,39, ,
1, ,39, ,
3, ,39, ,
1, ,39, ,
1, ,39, ,
2, ,39, ,
2, ,39, ,
1, ,39, ,
2, ,39, ,
1, ,39, ,
1, ,39, ,
2, ,39, ,
2, ,38, ,
1, ,39, ,
3, ,39, ,
1, ,39, ,
1, ,39, ,
2, ,39, ,
2, ,39, ,
1, ,39, ,
2, ,38, ,
1, ,39, ,
1, ,39, ,
2, ,38, ,
2, ,39, ,
1, ,39, ,
3, ,39, ,
1, ,39, ,
1, ,39, ,
2, ,39, ,
1, ,39, ,
-1, ,38, ,
3, ,39, ,
1, ,39, ,
1, ,39, ,
1, ,38, ,
1, ,31, ,
1, ,12, ,
2, ,-6, ,
1, ,-19, ,
1, ,-27, ,
2, ,-35, ,
1, ,-40, ,
-1, ,-43, ,
2, ,-46, ,
1, ,-49, ,
1, ,-51, ,
2, ,-52, ,
1, ,-53, ,
-1, ,-53, ,
2, ,-54, ,
1, ,-54, ,
1, ,-54, ,
2, ,-55, ,
2, ,-55, ,
-1, ,-55, ,
2, ,-55, ,
1, ,-55, ,
1, ,-55, ,
1, ,-55, ,
2, ,-55, ,
1, ,-55, ,
2, ,-55, ,
1, ,-55, ,
1, ,-55, ,
2, ,-54, ,
2, ,-55, ,
-1, ,-55, ,
2, ,-55, ,
1, ,-55, ,
1, ,-55, ,
2, ,-55, ,
2, ,-55, ,
1, ,-54, ,
2, ,-54, ,
1, ,-55, ,
1, ,-54, ,
2, ,-55, ,
2, ,-55, ,
-1, ,-55, ,
2, ,-55, ,
1, ,-54, ,
1, ,-54, ,
2, ,-54, ,
2, ,-55, ,
-1, ,-54, ,
2, ,-54, ,
1, ,-55, ,
1, ,-55, ,
1, ,-54, ,
1, ,-55, ,
-1, ,-54, ,
2, ,-55, ,
1, ,-54, ,
1, ,-55, ,
2, ,-54, ,
2, ,-55, ,
-1, ,-54, ,
2, ,-54, ,
1, ,-54, ,
1, ,-54, ,
1, ,-54, ,
1, ,-55, ,
-1, ,-54, ,
2, ,-55, ,
1, ,-54, ,
1, ,-54, ,
1, ,-54, ,
1, ,-55, ,
-1, ,-54, ,
2, ,-54, ,
1, ,-54, ,
1, ,-54, ,
2, ,-54, ,
1, ,-55, ,
-1, ,-54, ,
2, ,-54, ,
1, ,-54, ,
1, ,-54, ,
2, ,-54, ,
1, ,-55, ,
-1, ,-54, ,
2, ,-54, ,
1, ,-55, ,
1, ,-54, ,
2, ,-54, ,
1, ,-55, ,
-1, ,-54, ,
2, ,-54, ,
1, ,-54, ,
1, ,-54, ,
1, ,-54, ,
1, ,-55, ,
-1, ,-54, ,
2, ,-54, ,
1, ,-54, ,
1, ,-54, ,
2, ,-54, ,
1, ,-55, ,
-1, ,-54, ,
2, ,-54, ,
1, ,-54, ,
1, ,-54, ,
2, ,-54, ,
1, ,-55, ,
-1, ,-54, ,
2, ,-54, ,
1, ,-54, ,
1, ,-54, ,
2, ,-54, ,
1, ,-55, ,
-1, ,-54, ,
2, ,-54, ,
1, ,-54, ,
1, ,-54, ,
1, ,-54, ,
2, ,-55, ,
-1, ,-54, ,
2, ,-54, ,
1, ,-54, ,
1, ,-54, ,
2, ,-54, ,
2, ,-54, ,
-1, ,-54, ,
2, ,-54, ,
1, ,-54, ,
1, ,-54, ,
1, ,-54, ,
1, ,-54, ,
-1, ,-54, ,
2, ,-54, ,
1, ,-54, ,
1, ,-54, ,
2, ,-54, ,
2, ,-55, ,
-1, ,-54, ,
2, ,-54, ,
1, ,-54, ,
1, ,-55, ,
1, ,-54, ,
1, ,-55, ,
-1, ,-54, ,
2, ,-54, ,
1, ,-54, ,
1, ,-54, ,
2, ,-54, ,
1, ,-55, ,
-1, ,-54, ,
2, ,-54, ,
1, ,-54, ,
1, ,-54, ,
2, ,-54, ,
1, ,-55, ,
-1, ,-54, ,
2, ,-54, ,
1, ,-54, ,
1, ,-54, ,
2, ,-54, ,
2, ,-55, ,
-1, ,-54, ,
1, ,-54, ,
1, ,-54, ,
1, ,-54, ,
1, ,-54, ,
1, ,-55, ,
-1, ,-54, ,
2, ,-54, ,
1, ,-54, ,
-1, ,-54, ,
2, ,-54, ,
1, ,-55, ,
-1, ,-54, ,
1, ,-54, ,
1, ,-54, ,
1, ,-54, ,
1, ,-54, ,
1, ,-55, ,
-1, ,-54, ,
2, ,-54, ,
1, ,-54, ,
-1, ,-54, ,
1, ,-54, ,
1, ,-54, ,
-1, ,-54, ,
2, ,-54, ,
1, ,-54, ,
1, ,-54, ,
1, ,-54, ,
1, ,-55, ,
-1, ,-54, ,
2, ,-54, ,
-1, ,-54, ,
1, ,-54, ,
1, ,-54, ,
1, ,-54, ,
-1, ,-54, ,
2, ,-54, ,
1, ,-54, ,
1, ,-54, ,
1, ,-54, ,
2, ,-55, ,
-1, ,-54, ,
2, ,-54, ,
1, ,-54, ,
1, ,-54, ,
2, ,-54, ,
1, ,-55, ,
-1, ,-54, ,
2, ,-54, ,
1, ,-54, ,
1, ,-54, ,
2, ,-54, ,
1, ,-55, ,
-1, ,-54, ,
2, ,-54, ,
1, ,-54, ,
1, ,-54, ,
1, ,-54, ,
1, ,-55, ,
-1, ,-54, ,
2, ,-54, ,
1, ,-54, ,
-1, ,-54, ,
2, ,-54, ,
1, ,-54, ,
-1, ,-54, ,
2, ,-54, ,
-1, ,-54, ,
1, ,-54, ,
1, ,-54, ,
1, ,-54, ,
-1, ,-54, ,
2, ,-54, ,
1, ,-54, ,
-1, ,-54, ,
1, ,-54, ,
1, ,-55, ,
-1, ,-54, ,
2, ,-54, ,
1, ,-54, ,
1, ,-54, ,
2, ,-54, ,
1, ,-54, ,
-1, ,-54, ,
2, ,-54, ,
1, ,-54, ,
1, ,-54, ,
2, ,-54, ,
2, ,-55, ,
-1, ,-54, ,
2, ,-54, ,
1, ,-54, ,
1, ,-54, ,
1, ,-54, ,
1, ,-55, ,
-1, ,-54, ,
2, ,-54, ,
-1, ,-54, ,
-1, ,-54, ,
1, ,-54, ,
1, ,-55, ,
-1, ,-54, ,
1, ,-54, ,
1, ,-54, ,
1, ,-54, ,
1, ,-54, ,
1, ,-54, ,
-1, ,-54, ,
2, ,-54, ,
1, ,-54, ,
1, ,-54, ,
1, ,-54, ,
1, ,-55, ,
-1, ,-54, ,
2, ,-54, ,
1, ,-54, ,
1, ,-54, ,
1, ,-54, ,
1, ,-55, ,
-1, ,-54, ,
2, ,-54, ,
1, ,-54, ,
1, ,-54, ,
2, ,-54, ,
1, ,-55, ,
-1, ,-54, ,
1, ,-54, ,
1, ,-54, ,
-1, ,-54, ,
1, ,-54, ,
1, ,-55, ,
-1, ,-54, ,
2, ,-54, ,
1, ,-54, ,
-1, ,-54, ,
1, ,-54, ,
2, ,-55, ,
-1, ,-54, ,
2, ,-54, ,
-1, ,-54, ,
1, ,-54, ,
1, ,-54, ,
1, ,-54, ,
-2, ,-54, ,
2, ,-54, ,
1, ,-54, ,
-1, ,-54, ,
1, ,-54, ,
1, ,-55, ,
-1, ,-54, ,
2, ,-54, ,
-1, ,-54, ,
1, ,-54, ,
2, ,-54, ,
1, ,-55, ,
-1, ,-54, ,
2, ,-54, ,
1, ,-54, ,
-1, ,-54, ,
2, ,-54, ,
1, ,-55, ,
-1, ,-54, ,
2, ,-54, ,
-1, ,-54, ,
-1, ,-54, ,
1, ,-54, ,
1, ,-55, ,
-1, ,-54, ,
2, ,-54, ,
-1, ,-54, ,
-1, ,-54, ,
1, ,-54, ,
1, ,-55, ,
-1, ,-54, ,
2, ,-54, ,
-1, ,-54, ,
-1, ,-54, ,
1, ,-54, ,
1, ,-55, ,
-1, ,-54, ,
2, ,-54, ,
-1, ,-54, ,
-1, ,-54, ,
1, ,-54, ,
1, ,-55, ,
-1, ,-54, ,
1, ,-54, ,
-1, ,-54, ,
-1, ,-54, ,
1, ,-54, ,
1, ,-55, ,
-1, ,-54, ,
2, ,-54, ,
-1, ,-54, ,
-1, ,-54, ,
1, ,-54, ,
1, ,-55, ,
-1, ,-54, ,
2, ,-54, ,
-1, ,-54, ,
-1, ,-54, ,
1, ,-54, ,
1, ,-54, ,
-1, ,-54, ,
2, ,-54, ,
1, ,-54, ,
-1, ,-55, ,
2, ,-54, ,
1, ,-55, ,
-1, ,-54, ,
2, ,-54, ,
1, ,-54, ,
-1, ,-54, ,
1, ,-54, ,
1, ,-55, ,
-1, ,-54, ,
2, ,-54, ,
1, ,-54, ,
-1, ,-54, ,
1, ,-54, ,
1, ,-55, ,
-1, ,-54, ,
2, ,-54, ,
-1, ,-54, ,
1, ,-54, ,
1, ,-54, ,
1, ,-55, ,
-1, ,-54, ,
2, ,-54, ,
1, ,-54, ,
-1, ,-54, ,
1, ,-54, ,
1, ,-55, ,
-1, ,-54, ,
1, ,-54, ,
-1, ,-55, ,
-1, ,-54, ,
1, ,-54, ,
1, ,-55, ,
-1, ,-54, ,
2, ,-54, ,
-1, ,-54, ,
-1, ,-54, ,
1, ,-54, ,
1, ,-55, ,
-1, ,-54, ,
1, ,-54, ,
-1, ,-54, ,
-1, ,-54, ,
1, ,-54, ,
1, ,-55, ,
-1, ,-54, ,
2, ,-54, ,
-1, ,-54, ,
-1, ,-55, ,
1, ,-54, ,
1, ,-55, ,
-1, ,-54, ,
1, ,-54, ,
-1, ,-54, ,
-1, ,-54, ,
1, ,-54, ,
1, ,-55, ,
-1, ,-54, ,
2, ,-54, ,
-1, ,-54, ,
-1, ,-54, ,
2, ,-54, ,
1, ,-55, ,
-1, ,-54, ,
1, ,-54, ,
-1, ,-55, ,
-1, ,-55, ,
1, ,-54, ,
1, ,-54, ,
-1, ,-54, ,
1, ,-54, ,
-1, ,-54, ,
-1, ,-54, ,
1, ,-54, ,
1, ,-55, ,
-1, ,-54, ,
2, ,-54, ,
-1, ,-55, ,
-1, ,-55, ,
1, ,-55, ,
1, ,-55, ,
-1, ,-54, ,
2, ,-54, ,
-1, ,-54, ,
-1, ,-54, ,
1, ,-54, ,
1, ,-55, ,
-1, ,-54, ,
2, ,-54, ,
-1, ,-55, ,
-1, ,-55, ,
1, ,-54, ,
1, ,-55, ,
-1, ,-54, ,
2, ,-54, ,
-1, ,-54, ,
-1, ,-54, ,
1, ,-54, ,
1, ,-55, ,
-1, ,-54, ,
2, ,-54, ,
-1, ,-55, ,
-1, ,-54, ,
1, ,-54, ,
1, ,-55, ,
-1, ,-54, ,
2, ,-54, ,
