src/varyamp_1560/temp0003969.CSV

Format,1.0B,
Memory Length,10000,Memory Length,10000,
IntpDistance,0,IntpDistance,0,
Trigger Address,4999,Trigger Address,4999,
Trigger Level,1.040E+00,Trigger Level,1.040E+00,
Source,CH1,Source,CH2,
Vertical Units,V,Vertical Units,V,
Vertical Units Div,0,Vertical Units Div,0,
Vertical Units Extend Div,16,Vertical Units Extend Div,16,
Label,,Label,,
Probe Type,0,Probe Type,0,
Probe Ratio,1.000e+01,Probe Ratio,1.000e+00,
Vertical Scale,5.000e-01,Vertical Scale,1.000e+00,
Vertical Position,-1.820e+00,Vertical Position,0.000e+00,
Horizontal Units,S,Horizontal Units,S,
Horizontal Scale,2.000E-05,Horizontal Scale,2.000E-05,
Horizontal Position,0.000E+00,Horizontal Position,0.000E+00,
Horizontal Mode,Main,Horizontal Mode,Main,
SincET Mode,Real Time,SincET Mode,Real Time,
Sampling Period,2.000e-08,Sampling Period,2.000e-08,
Horizontal Old Scale,2.000E-05,Horizontal Old Scale,2.000E-05,
Horizontal Old Position,0.000E+00,Horizontal Old Position,0.000E+00,
Firmware,V1.23,Firmware,V1.23,
Mode,Fast,Mode,Fast,
Waveform Data,,Waveform Data,,
-1, ,-43, ,
1, ,-43, ,
1, ,-43, ,
-1, ,-43, ,
1, ,-43, ,
-1, ,-43, ,
-1, ,-43, ,
1, ,-43, ,
1, ,-44, ,
-1, ,-43, ,
1, ,-43, ,
-1, ,-43, ,
-1, ,-43, ,
1, ,-43, ,
1, ,-43, ,
-1, ,-43, ,
1, ,-43, ,
-1, ,-43, ,
-1, ,-43, ,
1, ,-43, ,
1, ,-43, ,
-1, ,-43, ,
1, ,-43, ,
-1, ,-43, ,
-1, ,-43, ,
1, ,-43, ,
1, ,-43, ,
-1, ,-43, ,
1, ,-43, ,
-1, ,-43, ,
-1, ,-43, ,
1, ,-43, ,
1, ,-43, ,
-1, ,-43, ,
1, ,-43, ,
-1, ,-43, ,
-1, ,-43, ,
1, ,-43, ,
1, ,-43, ,
-1, ,-43, ,
1, ,-43, ,
-1, ,-43, ,
1, ,-43, ,
1, ,-43, ,
1, ,-43, ,
-1, ,-43, ,
1, ,-43, ,
-1, ,-43, ,
-1, ,-43, ,
1, ,-43, ,
1, ,-43, ,
-1, ,-43, ,
1, ,-43, ,
-1, ,-43, ,
-1, ,-43, ,
1, ,-43, ,
1, ,-43, ,
-1, ,-43, ,
1, ,-43, ,
-1, ,-43, ,
-1, ,-43, ,
1, ,-43, ,
1, ,-43, ,
-1, ,-43, ,
1, ,-43, ,
-1, ,-43, ,
-1, ,-44, ,
1, ,-43, ,
1, ,-43, ,
-1, ,-43, ,
1, ,-43, ,
-1, ,-43, ,
-1, ,-43, ,
1, ,-43, ,
1, ,-43, ,
-1, ,-43, ,
1, ,-43, ,
1, ,-43, ,
-1, ,-44, ,
1, ,-43, ,
1, ,-43, ,
-1, ,-43, ,
1, ,-43, ,
-1, ,-43, ,
-1, ,-43, ,
1, ,-43, ,
1, ,-43, ,
-1, ,-43, ,
1, ,-44, ,
-1, ,-43, ,
-1, ,-43, ,
1, ,-43, ,
1, ,-43, ,
-1, ,-43, ,
1, ,-43, ,
-1, ,-43, ,
-1, ,-43, ,
1, ,-44, ,
1, ,-43, ,
-1, ,-43, ,
1, ,-43, ,
-1, ,-43, ,
-1, ,-44, ,
1, ,-43, ,
1, ,-43, ,
-1, ,-43, ,
1, ,-43, ,
-1, ,-43, ,
-1, ,-43, ,
1, ,-43, ,
1, ,-43, ,
-1, ,-43, ,
1, ,-43, ,
-1, ,-43, ,
-1, ,-43, ,
1, ,-43, ,
1, ,-43, ,
-1, ,-43, ,
1, ,-43, ,
-1, ,-43, ,
-1, ,-43, ,
1, ,-44, ,
1, ,-43, ,
-1, ,-43, ,
1, ,-43, ,
-1, ,-43, ,
-1, ,-44, ,
1, ,-43, ,
1, ,-43, ,
-1, ,-43, ,
1, ,-43, ,
-1, ,-43, ,
-1, ,-43, ,
1, ,-43, ,
1, ,-43, ,
-1, ,-43, ,
1, ,-43, ,
-1, ,-43, ,
-1, ,-44, ,
1, ,-43, ,
1, ,-43, ,
-1, ,-43, ,
1, ,-43, ,
-1, ,-43, ,
-1, ,-43, ,
1, ,-43, ,
1, ,-43, ,
-1, ,-43, ,
1, ,-43, ,
-1, ,-43, ,
-1, ,-44, ,
1, ,-43, ,
1, ,-43, ,
-1, ,-43, ,
1, ,-43, ,
-1, ,-43, ,
-1, ,-44, ,
1, ,-43, ,
1, ,-43, ,
-1, ,-43, ,
1, ,-43, ,
-1, ,-43, ,
-1, ,-43, ,
1, ,-43, ,
1, ,-43, ,
-1, ,-43, ,
1, ,-43, ,
-1, ,-43, ,
-1, ,-43, ,
1, ,-44, ,
1, ,-43, ,
-1, ,-43, ,
1, ,-43, ,
-1, ,-43, ,
-1, ,-44, ,
1, ,-43, ,
1, ,-43, ,
-1, ,-43, ,
1, ,-43, ,
-1, ,-43, ,
-1, ,-43, ,
1, ,-43, ,
1, ,-43, ,
-1, ,-43, ,
2, ,-43, ,
-1, ,-43, ,
-1, ,-43, ,
1, ,-43, ,
1, ,-43, ,
-1, ,-43, ,
1, ,-43, ,
-1, ,-43, ,
-1, ,-43, ,
1, ,-43, ,
1, ,-43, ,
-1, ,-43, ,
1, ,-43, ,
-1, ,-43, ,
1, ,-44, ,
1, ,-43, ,
1, ,-43, ,
-1, ,-43, ,
1, ,-43, ,
-1, ,-43, ,
-1, ,-43, ,
1, ,-43, ,
1, ,-43, ,
-1, ,-43, ,
1, ,-43, ,
-1, ,-43, ,
-1, ,-44, ,
1, ,-43, ,
1, ,-43, ,
-1, ,-43, ,
1, ,-43, ,
-1, ,-43, ,
-1, ,-43, ,
1, ,-43, ,
1, ,-43, ,
-1, ,-43, ,
1, ,-44, ,
-1, ,-43, ,
-1, ,-43, ,
1, ,-43, ,
1, ,-43, ,
-1, ,-43, ,
1, ,-43, ,
-1, ,-43, ,
-1, ,-43, ,
1, ,-43, ,
1, ,-43, ,
-1, ,-43, ,
1, ,-43, ,
-1, ,-43, ,
-1, ,-43, ,
1, ,-43, ,
1, ,-43, ,
-1, ,-43, ,
1, ,-43, ,
-1, ,-43, ,
-1, ,-43, ,
1, ,-43, ,
1, ,-43, ,
-1, ,-43, ,
1, ,-43, ,
-1, ,-43, ,
-1, ,-44, ,
1, ,-43, ,
1, ,-43, ,
-1, ,-43, ,
1, ,-43, ,
-1, ,-43, ,
-1, ,-43, ,
1, ,-43, ,
1, ,-43, ,
-1, ,-43, ,
1, ,-43, ,
-1, ,-43, ,
-1, ,-43, ,
1, ,-43, ,
1, ,-43, ,
-1, ,-43, ,
1, ,-43, ,
-1, ,-43, ,
-1, ,-44, ,
1, ,-43, ,
1, ,-43, ,
-1, ,-43, ,
1, ,-43, ,
-1, ,-43, ,
-1, ,-44, ,
1, ,-43, ,
1, ,-43, ,
-1, ,-43, ,
1, ,-43, ,
-1, ,-43, ,
-1, ,-43, ,
1, ,-43, ,
1, ,-44, ,
-1, ,-43, ,
1, ,-43, ,
-1, ,-43, ,
-1, ,-44, ,
1, ,-43, ,
1, ,-43, ,
-1, ,-43, ,
1, ,-43, ,
-1, ,-43, ,
-1, ,-43, ,
1, ,-43, ,
1, ,-43, ,
-1, ,-43, ,
1, ,-43, ,
-1, ,-43, ,
-1, ,-43, ,
1, ,-43, ,
1, ,-43, ,
-1, ,-43, ,
1, ,-43, ,
-1, ,-43, ,
-1, ,-43, ,
1, ,-43, ,
1, ,-43, ,
-1, ,-43, ,
1, ,-43, ,
-1, ,-43, ,
-1, ,-44, ,
1, ,-35, ,
1, ,-15, ,
-1, ,2, ,
1, ,15, ,
1, ,23, ,
1, ,31, ,
1, ,35, ,
1, ,39, ,
-1, ,42, ,
1, ,44, ,
-1, ,46, ,
1, ,47, ,
1, ,47, ,
1, ,49, ,
-1, ,49, ,
1, ,50, ,
-1, ,49, ,
-1, ,50, ,
1, ,50, ,
1, ,50, ,
-1, ,50, ,
1, ,51, ,
-1, ,51, ,
-1, ,51, ,
1, ,50, ,
1, ,50, ,
-1, ,50, ,
1, ,50, ,
-1, ,50, ,
-1, ,51, ,
1, ,50, ,
1, ,50, ,
-1, ,50, ,
1, ,50, ,
-1, ,50, ,
-1, ,50, ,
1, ,50, ,
1, ,50, ,
-1, ,50, ,
2, ,50, ,
-1, ,50, ,
-1, ,51, ,
1, ,50, ,
1, ,50, ,
-1, ,50, ,
1, ,50, ,
-1, ,50, ,
-1, ,50, ,
1, ,50, ,
1, ,50, ,
-1, ,50, ,
1, ,50, ,
-1, ,50, ,
-1, ,50, ,
1, ,49, ,
-1, ,50, ,
-1, ,50, ,
1, ,50, ,
-1, ,49, ,
-1, ,50, ,
1, ,50, ,
1, ,50, ,
-1, ,50, ,
1, ,50, ,
-1, ,50, ,
-1, ,50, ,
1, ,49, ,
1, ,50, ,
-1, ,50, ,
1, ,50, ,
-1, ,49, ,
-1, ,50, ,
1, ,50, ,
1, ,50, ,
-1, ,50, ,
1, ,50, ,
-1, ,49, ,
-1, ,50, ,
1, ,49, ,
1, ,49, ,
-1, ,50, ,
1, ,50, ,
-1, ,50, ,
-1, ,50, ,
1, ,49, ,
1, ,50, ,
-1, ,50, ,
1, ,50, ,
-1, ,50, ,
-1, ,50, ,
1, ,50, ,
1, ,50, ,
-1, ,50, ,
1, ,50, ,
-1, ,49, ,
-1, ,50, ,
1, ,50, ,
1, ,50, ,
-1, ,50, ,
1, ,50, ,
-1, ,50, ,
-1, ,50, ,
1, ,49, ,
1, ,50, ,
-1, ,50, ,
1, ,50, ,
-1, ,50, ,
-1, ,50, ,
1, ,49, ,
1, ,50, ,
-1, ,50, ,
1, ,50, ,
-1, ,50, ,
-1, ,50, ,
1, ,49, ,
1, ,50, ,
-1, ,50, ,
1, ,50, ,
-1, ,49, ,
-1, ,50, ,
1, ,49, ,
1, ,50, ,
-1, ,49, ,
1, ,50, ,
-1, ,50, ,
-1, ,50, ,
1, ,49, ,
1, ,50, ,
-1, ,50, ,
1, ,50, ,
-1, ,50, ,
-1, ,50, ,
1, ,50, ,
1, ,50, ,
-1, ,50, ,
1, ,50, ,
-1, ,50, ,
-1, ,50, ,
1, ,49, ,
1, ,49, ,
-1, ,50, ,
1, ,50, ,
-1, ,50, ,
-1, ,50, ,
1, ,49, ,
1, ,50, ,
-1, ,50, ,
1, ,50, ,
-1, ,50, ,
-1, ,50, ,
1, ,50, ,
1, ,50, ,
-1, ,50, ,
1, ,50, ,
-1, ,47, ,
-1, ,33, ,
1, ,14, ,
1, ,-1, ,
-1, ,-13, ,
1, ,-20, ,
-1, ,-26, ,
-1, ,-32, ,
1, ,-35, ,
1, ,-37, ,
-1, ,-39, ,
1, ,-41, ,
-1, ,-42, ,
-1, ,-42, ,
1, ,-42, ,
1, ,-43, ,
-1, ,-44, ,
1, ,-44, ,
-1, ,-44, ,
-1, ,-44, ,
1, ,-44, ,
1, ,-44, ,
-1, ,-44, ,
1, ,-44, ,
-1, ,-44, ,
-1, ,-44, ,
1, ,-44, ,
1, ,-44, ,
-1, ,-44, ,
1, ,-44, ,
-1, ,-44, ,
-1, ,-44, ,
1, ,-43, ,
1, ,-44, ,
-1, ,-44, ,
1, ,-44, ,
-1, ,-44, ,
-1, ,-44, ,
1, ,-43, ,
1, ,-44, ,
-1, ,-44, ,
1, ,-44, ,
-1, ,-44, ,
-1, ,-44, ,
1, ,-44, ,
1, ,-44, ,
-1, ,-44, ,
1, ,-44, ,
-1, ,-44, ,
-1, ,-44, ,
1, ,-43, ,
1, ,-43, ,
-1, ,-43, ,
1, ,-43, ,
-1, ,-43, ,
-1, ,-43, ,
1, ,-43, ,
1, ,-43, ,
-1, ,-43, ,
1, ,-44, ,
-1, ,-43, ,
-1, ,-44, ,
1, ,-43, ,
1, ,-43, ,
-1, ,-44, ,
1, ,-43, ,
-1, ,-43, ,
-1, ,-43, ,
1, ,-43, ,
1, ,-43, ,
-1, ,-43, ,
1, ,-43, ,
-1, ,-43, ,
-1, ,-44, ,
1, ,-43, ,
1, ,-43, ,
-1, ,-44, ,
1, ,-43, ,
-1, ,-43, ,
-1, ,-43, ,
1, ,-43, ,
1, ,-43, ,
-1, ,-43, ,
1, ,-43, ,
-1, ,-43, ,
-1, ,-44, ,
1, ,-43, ,
1, ,-43, ,
-1, ,-43, ,
1, ,-43, ,
-1, ,-43, ,
-1, ,-43, ,
1, ,-43, ,
1, ,-43, ,
-1, ,-43, ,
1, ,-43, ,
-1, ,-43, ,
-1, ,-44, ,
92, ,-43, ,
55, ,-43, ,
32, ,-43, ,
22, ,-43, ,
13, ,-43, ,
10, ,-43, ,
7, ,-43, ,
6, ,-43, ,
3, ,-43, ,
5, ,-43, ,
2, ,-43, ,
2, ,-43, ,
3, ,-43, ,
3, ,-43, ,
1, ,-43, ,
3, ,-43, ,
2, ,-43, ,
2, ,-43, ,
3, ,-43, ,
3, ,-43, ,
1, ,-43, ,
3, ,-43, ,
2, ,-43, ,
2, ,-43, ,
3, ,-43, ,
3, ,-43, ,
2, ,-43, ,
3, ,-43, ,
2, ,-43, ,
2, ,-43, ,
2, ,-43, ,
2, ,-43, ,
1, ,-43, ,
3, ,-43, ,
2, ,-43, ,
2, ,-43, ,
2, ,-43, ,
2, ,-43, ,
1, ,-43, ,
3, ,-43, ,
2, ,-43, ,
2, ,-43, ,
2, ,-43, ,
3, ,-43, ,
2, ,-43, ,
3, ,-43, ,
2, ,-43, ,
2, ,-43, ,
2, ,-43, ,
2, ,-43, ,
1, ,-43, ,
3, ,-43, ,
2, ,-43, ,
2, ,-43, ,
2, ,-43, ,
2, ,-43, ,
1, ,-43, ,
3, ,-43, ,
2, ,-43, ,
2, ,-44, ,
2, ,-43, ,
2, ,-43, ,
1, ,-43, ,
3, ,-43, ,
2, ,-43, ,
2, ,-43, ,
2, ,-43, ,
2, ,-43, ,
1, ,-43, ,
3, ,-43, ,
2, ,-43, ,
2, ,-43, ,
2, ,-43, ,
2, ,-43, ,
1, ,-43, ,
3, ,-43, ,
2, ,-43, ,
2, ,-43, ,
2, ,-43, ,
2, ,-43, ,
1, ,-43, ,
2, ,-43, ,
1, ,-43, ,
2, ,-43, ,
2, ,-43, ,
2, ,-43, ,
1, ,-43, ,
2, ,-43, ,
2, ,-43, ,
2, ,-43, ,
2, ,-43, ,
2, ,-43, ,
1, ,-43, ,
3, ,-43, ,
2, ,-43, ,
2, ,-43, ,
2, ,-43, ,
2, ,-43, ,
1, ,-43, ,
3, ,-43, ,
2, ,-43, ,
2, ,-43, ,
2, ,-43, ,
2, ,-43, ,
1, ,-43, ,
3, ,-43, ,
2, ,-43, ,
1, ,-44, ,
2, ,-43, ,
2, ,-43, ,
1, ,-43, ,
2, ,-43, ,
1, ,-43, ,
1, ,-43, ,
2, ,-43, ,
2, ,-43, ,
1, ,-43, ,
3, ,-43, ,
2, ,-43, ,
2, ,-43, ,
2, ,-43, ,
2, ,-43, ,
1, ,-43, ,
2, ,-43, ,
2, ,-43, ,
2, ,-43, ,
2, ,-43, ,
2, ,-43, ,
1, ,-43, ,
2, ,-43, ,
2, ,-43, ,
2, ,-43, ,
2, ,-43, ,
2, ,-43, ,
1, ,-43, ,
2, ,-43, ,
2, ,-43, ,
2, ,-44, ,
2, ,-43, ,
2, ,-43, ,
1, ,-43, ,
2, ,-43, ,
1, ,-43, ,
2, ,-43, ,
2, ,-43, ,
2, ,-43, ,
1, ,-43, ,
3, ,-43, ,
1, ,-43, ,
2, ,-43, ,
2, ,-43, ,
2, ,-43, ,
1, ,-43, ,
3, ,-43, ,
2, ,-43, ,
2, ,-43, ,
2, ,-43, ,
2, ,-43, ,
1, ,-43, ,
2, ,-43, ,
1, ,-43, ,
2, ,-43, ,
2, ,-43, ,
2, ,-43, ,
1, ,-43, ,
2, ,-43, ,
2, ,-43, ,
2, ,-44, ,
2, ,-43, ,
2, ,-43, ,
1, ,-43, ,
2, ,-43, ,
1, ,-43, ,
1, ,-43, ,
2, ,-43, ,
1, ,-43, ,
1, ,-43, ,
2, ,-43, ,
1, ,-43, ,
2, ,-43, ,
2, ,-43, ,
2, ,-43, ,
1, ,-43, ,
2, ,-43, ,
1, ,-43, ,
2, ,-43, ,
2, ,-43, ,
2, ,-43, ,
1, ,-43, ,
2, ,-43, ,
1, ,-43, ,
2, ,-43, ,
2, ,-43, ,
2, ,-43, ,
1, ,-43, ,
2, ,-43, ,
1, ,-43, ,
2, ,-43, ,
2, ,-43, ,
2, ,-43, ,
1, ,-43, ,
2, ,-43, ,
1, ,-43, ,
1, ,-43, ,
2, ,-43, ,
2, ,-43, ,
1, ,-43, ,
2, ,-43, ,
1, ,-43, ,
2, ,-43, ,
2, ,-43, ,
2, ,-43, ,
1, ,-43, ,
2, ,-43, ,
2, ,-43, ,
1, ,-43, ,
2, ,-43, ,
2, ,-43, ,
1, ,-43, ,
2, ,-43, ,
1, ,-43, ,
1, ,-43, ,
2, ,-43, ,
2, ,-43, ,
1, ,-43, ,
2, ,-43, ,
1, ,-43, ,
1, ,-43, ,
2, ,-43, ,
1, ,-43, ,
1, ,-43, ,
2, ,-43, ,
1, ,-43, ,
1, ,-44, ,
2, ,-43, ,
2, ,-43, ,
1, ,-43, ,
2, ,-43, ,
1, ,-43, ,
1, ,-44, ,
2, ,-43, ,
2, ,-43, ,
1, ,-43, ,
2, ,-43, ,
1, ,-43, ,
1, ,-43, ,
2, ,-43, ,
2, ,-43, ,
1, ,-43, ,
2, ,-44, ,
1, ,-43, ,
1, ,-43, ,
1, ,-43, ,
2, ,-43, ,
1, ,-43, ,
2, ,-43, ,
1, ,-43, ,
1, ,-43, ,
2, ,-43, ,
2, ,-43, ,
1, ,-43, ,
2, ,-43, ,
1, ,-43, ,
1, ,-44, ,
2, ,-43, ,
2, ,-43, ,
1, ,-43, ,
2, ,-43, ,
1, ,-43, ,
1, ,-43, ,
2, ,-43, ,
2, ,-43, ,
1, ,-43, ,
2, ,-43, ,
1, ,-43, ,
1, ,-44, ,
2, ,-43, ,
1, ,-43, ,
1, ,-43, ,
2, ,-43, ,
1, ,-43, ,
1, ,-43, ,
2, ,-43, ,
1, ,-43, ,
1, ,-43, ,
2, ,-43, ,
1, ,-43, ,
1, ,-43, ,
2, ,-43, ,
1, ,-43, ,
1, ,-43, ,
2, ,-43, ,
1, ,-43, ,
1, ,-43, ,
1, ,-43, ,
2, ,-43, ,
1, ,-43, ,
2, ,-43, ,
1, ,-43, ,
1, ,-43, ,
1, ,-43, ,
2, ,-43, ,
1, ,-43, ,
2, ,-43, ,
1, ,-43, ,
1, ,-43, ,
1, ,-43, ,
2, ,-43, ,
1, ,-43, ,
2, ,-43, ,
1, ,-43, ,
2, ,-44, ,
2, ,-43, ,
1, ,-43, ,
1, ,-43, ,
2, ,-43, ,
1, ,-43, ,
1, ,-43, ,
2, ,-43, ,
1, ,-43, ,
1, ,-43, ,
2, ,-43, ,
1, ,-43, ,
1, ,-44, ,
2, ,-43, ,
2, ,-43, ,
1, ,-43, ,
2, ,-43, ,
1, ,-43, ,
1, ,-43, ,
1, ,-44, ,
1, ,-43, ,
-1, ,-43, ,
2, ,-43, ,
1, ,-43, ,
1, ,-43, ,
1, ,-43, ,
1, ,-43, ,
1, ,-43, ,
2, ,-43, ,
1, ,-43, ,
1, ,-44, ,
1, ,-43, ,
1, ,-43, ,
-1, ,-43, ,
2, ,-43, ,
1, ,-43, ,
1, ,-43, ,
1, ,-43, ,
1, ,-43, ,
-1, ,-43, ,
1, ,-43, ,
1, ,-43, ,
1, ,-43, ,
1, ,-43, ,
1, ,-43, ,
1, ,-43, ,
2, ,-43, ,
1, ,-43, ,
1, ,-43, ,
2, ,-43, ,
2, ,-43, ,
1, ,-43, ,
2, ,-43, ,
1, ,-43, ,
1, ,-43, ,
1, ,-44, ,
1, ,-43, ,
-1, ,-43, ,
2, ,-43, ,
1, ,-43, ,
1, ,-43, ,
1, ,-43, ,
1, ,-44, ,
-1, ,-43, ,
2, ,-43, ,
1, ,-43, ,
1, ,-43, ,
1, ,-43, ,
1, ,-43, ,
-1, ,-43, ,
2, ,-43, ,
1, ,-43, ,
1, ,-43, ,
1, ,-43, ,
2, ,-43, ,
-1, ,-43, ,
2, ,-43, ,
-1, ,-43, ,
1, ,-43, ,
1, ,-44, ,
2, ,-43, ,
-1, ,-43, ,
2, ,-43, ,
1, ,-43, ,
1, ,-43, ,
1, ,-43, ,
1, ,-43, ,
1, ,-43, ,
2, ,-43, ,
1, ,-43, ,
1, ,-43, ,
1, ,-43, ,
1, ,-43, ,
1, ,-43, ,
2, ,-43, ,
1, ,-43, ,
1, ,-44, ,
2, ,-43, ,
1, ,-43, ,
1, ,-43, ,
2, ,-43, ,
1, ,-43, ,
1, ,-43, ,
1, ,-43, ,
1, ,-43, ,
-1, ,-43, ,
2, ,-43, ,
1, ,-43, ,
1, ,-43, ,
1, ,-43, ,
2, ,-43, ,
-1, ,-43, ,
2, ,-43, ,
1, ,-43, ,
1, ,-43, ,
2, ,-43, ,
2, ,-43, ,
-1, ,-43, ,
2, ,-43, ,
1, ,-43, ,
1, ,-43, ,
2, ,-43, ,
1, ,-43, ,
1, ,-43, ,
2, ,-43, ,
1, ,-43, ,
1, ,-43, ,
1, ,-43, ,
1, ,-43, ,
-1, ,-43, ,
2, ,-43, ,
1, ,-43, ,
1, ,-44, ,
1, ,-43, ,
2, ,-43, ,
-1, ,-43, ,
2, ,-43, ,
1, ,-43, ,
1, ,-43, ,
1, ,-43, ,
2, ,-43, ,
-1, ,-43, ,
2, ,-43, ,
1, ,-43, ,
1, ,-43, ,
2, ,-43, ,
2, ,-43, ,
-1, ,-43, ,
2, ,-43, ,
1, ,-43, ,
1, ,-43, ,
1, ,-44, ,
1, ,-43, ,
-1, ,-43, ,
2, ,-43, ,
1, ,-43, ,
1, ,-44, ,
1, ,-43, ,
2, ,-43, ,
1, ,-43, ,
2, ,-43, ,
1, ,-43, ,
1, ,-44, ,
1, ,-43, ,
2, ,-43, ,
-1, ,-43, ,
2, ,-43, ,
1, ,-43, ,
1, ,-44, ,
1, ,-43, ,
1, ,-43, ,
-1, ,-43, ,
2, ,-43, ,
1, ,-43, ,
1, ,-43, ,
1, ,-44, ,
1, ,-43, ,
-1, ,-43, ,
1, ,-43, ,
1, ,-43, ,
1, ,-44, ,
1, ,-43, ,
1, ,-43, ,
-1, ,-43, ,
1, ,-43, ,
-1, ,-43, ,
1, ,-43, ,
1, ,-43, ,
1, ,-43, ,
-1, ,-43, ,
2, ,-43, ,
-1, ,-43, ,
-1, ,-44, ,
1, ,-43, ,
1, ,-43, ,
-1, ,-43, ,
1, ,-43, ,
1, ,-43, ,
-1, ,-43, ,
1, ,-43, ,
1, ,-43, ,
-1, ,-43, ,
2, ,-43, ,
1, ,-43, ,
1, ,-43, ,
1, ,-43, ,
1, ,-43, ,
-1, ,-43, ,
1, ,-43, ,
-1, ,-43, ,
1, ,-44, ,
1, ,-43, ,
1, ,-43, ,
-1, ,-43, ,
2, ,-43, ,
1, ,-43, ,
1, ,-44, ,
1, ,-43, ,
2, ,-39, ,
-1, ,-21, ,
2, ,-3, ,
1, ,11, ,
1, ,21, ,
2, ,28, ,
1, ,34, ,
-1, ,38, ,
2, ,41, ,
-1, ,43, ,
1, ,45, ,
2, ,46, ,
1, ,47, ,
-1, ,49, ,
2, ,49, ,
1, ,49, ,
1, ,50, ,
2, ,50, ,
1, ,50, ,
-1, ,50, ,
2, ,51, ,
1, ,50, ,
1, ,50, ,
1, ,50, ,
1, ,50, ,
-1, ,50, ,
2, ,50, ,
1, ,50, ,
1, ,51, ,
2, ,50, ,
1, ,50, ,
-1, ,50, ,
2, ,50, ,
1, ,50, ,
1, ,50, ,
1, ,50, ,
1, ,50, ,
-1, ,50, ,
2, ,50, ,
1, ,50, ,
1, ,50, ,
2, ,50, ,
1, ,50, ,
-1, ,50, ,
2, ,50, ,
1, ,50, ,
1, ,50, ,
2, ,50, ,
1, ,50, ,
-1, ,50, ,
2, ,50, ,
1, ,50, ,
1, ,50, ,
1, ,50, ,
1, ,50, ,
-1, ,50, ,
2, ,50, ,
1, ,50, ,
1, ,50, ,
1, ,50, ,
1, ,50, ,
-1, ,50, ,
2, ,50, ,
1, ,50, ,
1, ,50, ,
2, ,49, ,
1, ,50, ,
-1, ,50, ,
2, ,50, ,
1, ,50, ,
1, ,50, ,
2, ,50, ,
1, ,50, ,
-1, ,50, ,
2, ,50, ,
-1, ,50, ,
1, ,50, ,
2, ,50, ,
1, ,50, ,
-1, ,50, ,
1, ,50, ,
1, ,50, ,
-1, ,50, ,
1, ,50, ,
1, ,50, ,
-1, ,49, ,
2, ,50, ,
-1, ,49, ,
71, ,50, ,
60, ,50, ,
38, ,50, ,
22, ,50, ,
16, ,50, ,
10, ,49, ,
7, ,50, ,
6, ,50, ,
5, ,50, ,
3, ,50, ,
3, ,50, ,
2, ,50, ,
2, ,50, ,
3, ,49, ,
2, ,49, ,
1, ,50, ,
3, ,50, ,
2, ,49, ,
2, ,50, ,
3, ,50, ,
3, ,50, ,
2, ,50, ,
2, ,50, ,
2, ,50, ,
2, ,50, ,
2, ,50, ,
2, ,50, ,
1, ,50, ,
3, ,50, ,
2, ,49, ,
2, ,50, ,
3, ,50, ,
3, ,50, ,
1, ,49, ,
3, ,50, ,
2, ,50, ,
2, ,50, ,
2, ,50, ,
2, ,50, ,
2, ,50, ,
2, ,50, ,
2, ,49, ,
2, ,50, ,
3, ,50, ,
2, ,50, ,
2, ,50, ,
3, ,50, ,
2, ,49, ,
2, ,50, ,
2, ,49, ,
2, ,50, ,
1, ,50, ,
3, ,50, ,
2, ,49, ,
2, ,50, ,
2, ,50, ,
2, ,49, ,
1, ,50, ,
3, ,50, ,
2, ,50, ,
2, ,50, ,
3, ,50, ,
2, ,50, ,
1, ,50, ,
2, ,50, ,
2, ,50, ,
2, ,50, ,
3, ,38, ,
2, ,18, ,
1, ,2, ,
2, ,-9, ,
2, ,-18, ,
2, ,-25, ,
2, ,-30, ,
2, ,-34, ,
1, ,-37, ,
3, ,-39, ,
2, ,-40, ,
2, ,-41, ,
3, ,-42, ,
3, ,-42, ,
1, ,-43, ,
3, ,-43, ,
2, ,-43, ,
2, ,-44, ,
2, ,-44, ,
2, ,-44, ,
2, ,-44, ,
2, ,-44, ,
2, ,-44, ,
2, ,-44, ,
2, ,-44, ,
2, ,-44, ,
1, ,-44, ,
3, ,-44, ,
2, ,-44, ,
2, ,-44, ,
2, ,-44, ,
2, ,-44, ,
1, ,-44, ,
2, ,-44, ,
2, ,-44, ,
2, ,-44, ,
2, ,-44, ,
2, ,-44, ,
1, ,-44, ,
3, ,-43, ,
2, ,-44, ,
2, ,-44, ,
2, ,-44, ,
2, ,-43, ,
1, ,-44, ,
2, ,-44, ,
2, ,-43, ,
2, ,-44, ,
3, ,-43, ,
2, ,-44, ,
1, ,-44, ,
2, ,-44, ,
2, ,-44, ,
1, ,-44, ,
2, ,-44, ,
2, ,-43, ,
1, ,-43, ,
3, ,-43, ,
1, ,-43, ,
1, ,-43, ,
2, ,-43, ,
2, ,-43, ,
1, ,-44, ,
2, ,-43, ,
1, ,-43, ,
2, ,-43, ,
2, ,-44, ,
2, ,-43, ,
1, ,-43, ,
2, ,-44, ,
1, ,-43, ,
2, ,-44, ,
2, ,-43, ,
2, ,-43, ,
1, ,-43, ,
2, ,-43, ,
1, ,-43, ,
1, ,-43, ,
2, ,-43, ,
2, ,-43, ,
1, ,-43, ,
2, ,-43, ,
1, ,-43, ,
2, ,-44, ,
2, ,-43, ,
2, ,-43, ,
1, ,-44, ,
2, ,-43, ,
1, ,-43, ,
2, ,-43, ,
2, ,-43, ,
2, ,-43, ,
1, ,-43, ,
2, ,-44, ,
1, ,-43, ,
2, ,-44, ,
2, ,-43, ,
2, ,-43, ,
1, ,-43, ,
2, ,-43, ,
1, ,-43, ,
2, ,-44, ,
2, ,-43, ,
2, ,-43, ,
1, ,-43, ,
2, ,-43, ,
1, ,-43, ,
2, ,-44, ,
2, ,-43, ,
2, ,-43, ,
1, ,-43, ,
2, ,-43, ,
1, ,-43, ,
2, ,-44, ,
2, ,-43, ,
2, ,-43, ,
1, ,-43, ,
2, ,-43, ,
1, ,-43, ,
2, ,-43, ,
2, ,-43, ,
2, ,-43, ,
1, ,-43, ,
2, ,-43, ,
1, ,-43, ,
1, ,-43, ,
2, ,-43, ,
2, ,-43, ,
1, ,-43, ,
2, ,-43, ,
1, ,-43, ,
2, ,-44, ,
2, ,-43, ,
2, ,-43, ,
1, ,-43, ,
2, ,-43, ,
1, ,-43, ,
2, ,-43, ,
2, ,-43, ,
2, ,-43, ,
1, ,-43, ,
2, ,-43, ,
1, ,-43, ,
2, ,-43, ,
2, ,-43, ,
2, ,-43, ,
1, ,-44, ,
2, ,-43, ,
1, ,-43, ,
2, ,-43, ,
2, ,-43, ,
2, ,-43, ,
1, ,-43, ,
2, ,-43, ,
1, ,-43, ,
2, ,-44, ,
2, ,-43, ,
2, ,-43, ,
1, ,-43, ,
2, ,-43, ,
1, ,-43, ,
2, ,-43, ,
2, ,-43, ,
2, ,-43, ,
1, ,-43, ,
2, ,-43, ,
1, ,-43, ,
2, ,-44, ,
2, ,-43, ,
2, ,-43, ,
1, ,-43, ,
2, ,-43, ,
1, ,-43, ,
1, ,-43, ,
2, ,-44, ,
2, ,-43, ,
1, ,-43, ,
2, ,-43, ,
2, ,-43, ,
1, ,-43, ,
1, ,-43, ,
1, ,-43, ,
1, ,-44, ,
2, ,-43, ,
1, ,-43, ,
1, ,-43, ,
2, ,-43, ,
2, ,-43, ,
1, ,-43, ,
2, ,-43, ,
1, ,-43, ,
1, ,-44, ,
2, ,-43, ,
1, ,-43, ,
1, ,-43, ,
2, ,-43, ,
1, ,-43, ,
1, ,-44, ,
2, ,-43, ,
1, ,-43, ,
1, ,-43, ,
2, ,-43, ,
1, ,-43, ,
1, ,-43, ,
2, ,-43, ,
2, ,-43, ,
1, ,-43, ,
2, ,-43, ,
1, ,-43, ,
1, ,-43, ,
2, ,-43, ,
2, ,-43, ,
1, ,-43, ,
2, ,-43, ,
1, ,-43, ,
1, ,-44, ,
2, ,-43, ,
2, ,-43, ,
1, ,-43, ,
2, ,-43, ,
1, ,-43, ,
1, ,-43, ,
2, ,-43, ,
1, ,-43, ,
1, ,-43, ,
2, ,-43, ,
1, ,-43, ,
1, ,-43, ,
2, ,-43, ,
1, ,-43, ,
1, ,-43, ,
2, ,-43, ,
1, ,-43, ,
1, ,-43, ,
2, ,-43, ,
2, ,-43, ,
1, ,-43, ,
2, ,-43, ,
1, ,-43, ,
1, ,-43, ,
2, ,-43, ,
1, ,-43, ,
1, ,-43, ,
2, ,-43, ,
1, ,-43, ,
1, ,-43, ,
2, ,-43, ,
1, ,-43, ,
1, ,-43, ,
2, ,-43, ,
1, ,-43, ,
1, ,-44, ,
2, ,-43, ,
1, ,-43, ,
1, ,-43, ,
2, ,-43, ,
1, ,-43, ,
1, ,-44, ,
2, ,-43, ,
1, ,-43, ,
-1, ,-43, ,
2, ,-44, ,
1, ,-43, ,
1, ,-43, ,
2, ,-43, ,
2, ,-43, ,
1, ,-44, ,
2, ,-43, ,
1, ,-43, ,
1, ,-43, ,
2, ,-43, ,
1, ,-43, ,
1, ,-43, ,
2, ,-43, ,
1, ,-43, ,
1, ,-43, ,
2, ,-43, ,
2, ,-43, ,
1, ,-43, ,
2, ,-43, ,
1, ,-43, ,
1, ,-44, ,
2, ,-43, ,
1, ,-43, ,
1, ,-43, ,
2, ,-43, ,
1, ,-43, ,
1, ,-43, ,
2, ,-43, ,
1, ,-43, ,
1, ,-44, ,
2, ,-43, ,
1, ,-43, ,
1, ,-44, ,
2, ,-43, ,
1, ,-43, ,
-1, ,-43, ,
2, ,-43, ,
1, ,-43, ,
1, ,-44, ,
2, ,-43, ,
1, ,-43, ,
1, ,-44, ,
2, ,-43, ,
1, ,-43, ,
1, ,-43, ,
1, ,-43, ,
1, ,-43, ,
-1, ,-43, ,
2, ,-43, ,
1, ,-43, ,
1, ,-43, ,
2, ,-42, ,
2, ,-43, ,
1, ,-43, ,
2, ,-43, ,
1, ,-43, ,
1, ,-43, ,
2, ,-43, ,
1, ,-43, ,
-1, ,-43, ,
2, ,-43, ,
1, ,-43, ,
1, ,-43, ,
1, ,-43, ,
1, ,-43, ,
-1, ,-43, ,
2, ,-43, ,
1, ,-43, ,
1, ,-44, ,
2, ,-43, ,
2, ,-43, ,
-1, ,-43, ,
2, ,-43, ,
-1, ,-43, ,
1, ,-43, ,
1, ,-43, ,
1, ,-43, ,
1, ,-44, ,
1, ,-43, ,
1, ,-43, ,
1, ,-44, ,
2, ,-43, ,
1, ,-43, ,
-1, ,-43, ,
2, ,-43, ,
1, ,-43, ,
1, ,-43, ,
1, ,-43, ,
1, ,-43, ,
1, ,-43, ,
2, ,-43, ,
1, ,-43, ,
1, ,-43, ,
1, ,-43, ,
1, ,-43, ,
-1, ,-43, ,
2, ,-43, ,
1, ,-43, ,
1, ,-43, ,
1, ,-43, ,
2, ,-43, ,
1, ,-43, ,
2, ,-43, ,
1, ,-43, ,
1, ,-43, ,
2, ,-43, ,
1, ,-43, ,
-1, ,-43, ,
2, ,-43, ,
1, ,-43, ,
1, ,-43, ,
2, ,-43, ,
63, ,-43, ,
40, ,-43, ,
25, ,-43, ,
17, ,-43, ,
12, ,-43, ,
8, ,-43, ,
6, ,-43, ,
3, ,-43, ,
5, ,-43, ,
2, ,-43, ,
2, ,-44, ,
3, ,-43, ,
3, ,-43, ,
2, ,-43, ,
3, ,-43, ,
2, ,-43, ,
2, ,-43, ,
3, ,-43, ,
3, ,-43, ,
2, ,-43, ,
3, ,-43, ,
2, ,-43, ,
2, ,-43, ,
2, ,-43, ,
3, ,-43, ,
2, ,-43, ,
3, ,-43, ,
2, ,-43, ,
2, ,-43, ,
3, ,-43, ,
2, ,-43, ,
1, ,-43, ,
3, ,-43, ,
2, ,-43, ,
2, ,-44, ,
2, ,-43, ,
3, ,-43, ,
2, ,-43, ,
3, ,-43, ,
2, ,-43, ,
2, ,-43, ,
2, ,-43, ,
2, ,-43, ,
1, ,-43, ,
3, ,-43, ,
2, ,-43, ,
2, ,-44, ,
2, ,-43, ,
2, ,-43, ,
1, ,-43, ,
3, ,-43, ,
2, ,-43, ,
2, ,-43, ,
3, ,-43, ,
2, ,-43, ,
1, ,-43, ,
3, ,-43, ,
2, ,-43, ,
2, ,-43, ,
2, ,-43, ,
2, ,-43, ,
2, ,-43, ,
3, ,-43, ,
2, ,-43, ,
2, ,-43, ,
2, ,-43, ,
2, ,-43, ,
1, ,-43, ,
3, ,-43, ,
2, ,-43, ,
2, ,-43, ,
2, ,-43, ,
2, ,-43, ,
1, ,-43, ,
3, ,-43, ,
2, ,-43, ,
2, ,-43, ,
2, ,-43, ,
2, ,-43, ,
1, ,-43, ,
3, ,-43, ,
2, ,-43, ,
2, ,-43, ,
2, ,-43, ,
2, ,-44, ,
1, ,-43, ,
3, ,-43, ,
1, ,-43, ,
2, ,-43, ,
2, ,-43, ,
2, ,-43, ,
1, ,-43, ,
3, ,-43, ,
2, ,-43, ,
2, ,-43, ,
2, ,-43, ,
2, ,-43, ,
1, ,-43, ,
3, ,-43, ,
2, ,-43, ,
2, ,-43, ,
2, ,-43, ,
2, ,-43, ,
