src/varyamp_1560/temp0004619.CSV

Format,1.0B,
Memory Length,10000,Memory Length,10000,
IntpDistance,0,IntpDistance,0,
Trigger Address,4999,Trigger Address,4999,
Trigger Level,1.040E+00,Trigger Level,1.040E+00,
Source,CH1,Source,CH2,
Vertical Units,V,Vertical Units,V,
Vertical Units Div,0,Vertical Units Div,0,
Vertical Units Extend Div,16,Vertical Units Extend Div,16,
Label,,Label,,
Probe Type,0,Probe Type,0,
Probe Ratio,1.000e+01,Probe Ratio,1.000e+00,
Vertical Scale,5.000e-01,Vertical Scale,1.000e+00,
Vertical Position,-1.820e+00,Vertical Position,0.000e+00,
Horizontal Units,S,Horizontal Units,S,
Horizontal Scale,2.000E-05,Horizontal Scale,2.000E-05,
Horizontal Position,0.000E+00,Horizontal Position,0.000E+00,
Horizontal Mode,Main,Horizontal Mode,Main,
SincET Mode,Real Time,SincET Mode,Real Time,
Sampling Period,2.000e-08,Sampling Period,2.000e-08,
Horizontal Old Scale,2.000E-05,Horizontal Old Scale,2.000E-05,
Horizontal Old Position,0.000E+00,Horizontal Old Position,0.000E+00,
Firmware,V1.23,Firmware,V1.23,
Mode,Fast,Mode,Fast,
Waveform Data,,Waveform Data,,
1, ,-38, ,
1, ,-39, ,
-2, ,-38, ,
2, ,-39, ,
-1, ,-38, ,
-1, ,-38, ,
1, ,-38, ,
1, ,-39, ,
-2, ,-39, ,
2, ,-38, ,
-1, ,-38, ,
-1, ,-39, ,
1, ,-38, ,
1, ,-39, ,
-2, ,-38, ,
2, ,-39, ,
-1, ,-39, ,
-1, ,-38, ,
1, ,-38, ,
-1, ,-39, ,
-1, ,-39, ,
2, ,-39, ,
-1, ,-38, ,
-1, ,-38, ,
1, ,-39, ,
1, ,-39, ,
-2, ,-38, ,
2, ,-38, ,
-1, ,-38, ,
-1, ,-38, ,
1, ,-38, ,
1, ,-39, ,
-1, ,-39, ,
2, ,-39, ,
-1, ,-38, ,
-1, ,-38, ,
1, ,-38, ,
1, ,-39, ,
-2, ,-38, ,
2, ,-38, ,
-1, ,-38, ,
-1, ,-38, ,
1, ,-38, ,
-1, ,-39, ,
-1, ,-39, ,
2, ,-39, ,
-1, ,-38, ,
-1, ,-38, ,
1, ,-38, ,
1, ,-39, ,
-2, ,-38, ,
2, ,-38, ,
-1, ,-38, ,
-1, ,-38, ,
1, ,-38, ,
1, ,-39, ,
-1, ,-38, ,
2, ,-39, ,
-1, ,-38, ,
-1, ,-38, ,
1, ,-38, ,
-1, ,-39, ,
-2, ,-38, ,
2, ,-38, ,
-1, ,-38, ,
-1, ,-38, ,
1, ,-38, ,
1, ,-39, ,
-1, ,-39, ,
2, ,-39, ,
-1, ,-38, ,
-1, ,-38, ,
1, ,-38, ,
1, ,-39, ,
-1, ,-38, ,
2, ,-38, ,
-1, ,-38, ,
-1, ,-38, ,
1, ,-38, ,
1, ,-39, ,
-1, ,-38, ,
1, ,-38, ,
-1, ,-38, ,
-1, ,-38, ,
1, ,-38, ,
1, ,-39, ,
-1, ,-38, ,
2, ,-38, ,
-1, ,-38, ,
-1, ,-38, ,
1, ,-38, ,
1, ,-38, ,
-1, ,-38, ,
2, ,-38, ,
-1, ,-38, ,
-1, ,-38, ,
1, ,-38, ,
1, ,-39, ,
-2, ,-39, ,
2, ,-39, ,
-1, ,-38, ,
-1, ,-38, ,
1, ,-39, ,
1, ,-39, ,
-2, ,-39, ,
2, ,-39, ,
-1, ,-38, ,
-1, ,-38, ,
1, ,-38, ,
1, ,-39, ,
-2, ,-39, ,
2, ,-39, ,
-1, ,-38, ,
-1, ,-38, ,
1, ,-38, ,
-1, ,-39, ,
-2, ,-39, ,
2, ,-38, ,
-1, ,-39, ,
-2, ,-38, ,
1, ,-38, ,
1, ,-39, ,
-2, ,-38, ,
2, ,-39, ,
-1, ,-38, ,
-1, ,-38, ,
1, ,-38, ,
1, ,-39, ,
-2, ,-39, ,
2, ,-39, ,
-1, ,-38, ,
-1, ,-39, ,
1, ,-38, ,
-1, ,-39, ,
-2, ,-38, ,
2, ,-39, ,
-1, ,-39, ,
-1, ,-38, ,
1, ,-38, ,
1, ,-39, ,
-2, ,-39, ,
2, ,-39, ,
-1, ,-39, ,
-1, ,-38, ,
1, ,-38, ,
1, ,-39, ,
-2, ,-39, ,
2, ,-38, ,
-1, ,-39, ,
-1, ,-38, ,
1, ,-38, ,
-1, ,-38, ,
-2, ,-39, ,
2, ,-39, ,
-1, ,-38, ,
-1, ,-39, ,
1, ,-39, ,
1, ,-39, ,
-1, ,-39, ,
2, ,-38, ,
-1, ,-39, ,
-1, ,-38, ,
1, ,-38, ,
1, ,-39, ,
-2, ,-39, ,
1, ,-39, ,
-1, ,-38, ,
-1, ,-38, ,
1, ,-38, ,
1, ,-39, ,
-1, ,-38, ,
2, ,-38, ,
-1, ,-39, ,
-1, ,-38, ,
1, ,-38, ,
1, ,-39, ,
-2, ,-39, ,
2, ,-39, ,
-1, ,-38, ,
-1, ,-38, ,
1, ,-38, ,
1, ,-39, ,
-1, ,-38, ,
2, ,-39, ,
-1, ,-38, ,
-1, ,-38, ,
1, ,-38, ,
1, ,-39, ,
-1, ,-39, ,
1, ,-39, ,
-1, ,-38, ,
-1, ,-38, ,
1, ,-38, ,
1, ,-39, ,
-2, ,-38, ,
2, ,-38, ,
-1, ,-38, ,
-1, ,-38, ,
1, ,-38, ,
1, ,-39, ,
-1, ,-39, ,
2, ,-39, ,
-1, ,-39, ,
-1, ,-39, ,
1, ,-38, ,
1, ,-39, ,
-2, ,-39, ,
1, ,-38, ,
-1, ,-38, ,
-1, ,-38, ,
1, ,-38, ,
-1, ,-38, ,
-1, ,-39, ,
2, ,-39, ,
-1, ,-39, ,
-1, ,-38, ,
1, ,-38, ,
1, ,-39, ,
-1, ,-39, ,
2, ,-38, ,
-1, ,-38, ,
-1, ,-39, ,
1, ,-38, ,
1, ,-38, ,
-1, ,-39, ,
1, ,-39, ,
-1, ,-39, ,
-1, ,-38, ,
1, ,-38, ,
1, ,-39, ,
-2, ,-39, ,
2, ,-39, ,
-1, ,-39, ,
-1, ,-38, ,
1, ,-38, ,
1, ,-39, ,
-2, ,-38, ,
2, ,-39, ,
-1, ,-38, ,
-1, ,-38, ,
1, ,-38, ,
1, ,-39, ,
-1, ,-38, ,
2, ,-39, ,
-1, ,-39, ,
-1, ,-38, ,
1, ,-38, ,
1, ,-39, ,
-2, ,-39, ,
1, ,-39, ,
-1, ,-38, ,
-1, ,-38, ,
1, ,-38, ,
1, ,-39, ,
-2, ,-38, ,
2, ,-38, ,
-1, ,-39, ,
-1, ,-38, ,
1, ,-38, ,
-1, ,-39, ,
-2, ,-39, ,
1, ,-39, ,
-1, ,-39, ,
-1, ,-38, ,
1, ,-38, ,
1, ,-39, ,
-2, ,-38, ,
2, ,-39, ,
-1, ,-39, ,
-1, ,-38, ,
1, ,-38, ,
1, ,-39, ,
-1, ,-38, ,
2, ,-38, ,
-1, ,-38, ,
-1, ,-38, ,
1, ,-38, ,
1, ,-39, ,
-2, ,-38, ,
1, ,-39, ,
-1, ,-39, ,
-1, ,-38, ,
1, ,-39, ,
1, ,-39, ,
-1, ,-39, ,
2, ,-38, ,
-1, ,-38, ,
-2, ,-38, ,
1, ,-38, ,
1, ,-39, ,
-2, ,-38, ,
1, ,-39, ,
-1, ,-39, ,
-1, ,-38, ,
1, ,-38, ,
1, ,-39, ,
-2, ,-39, ,
2, ,-39, ,
-1, ,-38, ,
-1, ,-38, ,
1, ,-38, ,
1, ,-39, ,
-2, ,-39, ,
2, ,-39, ,
-1, ,-39, ,
-1, ,-38, ,
1, ,-38, ,
1, ,-28, ,
-1, ,-8, ,
2, ,7, ,
-1, ,19, ,
-1, ,28, ,
1, ,36, ,
1, ,41, ,
-1, ,43, ,
2, ,47, ,
-1, ,50, ,
-1, ,51, ,
1, ,52, ,
-1, ,53, ,
-1, ,53, ,
2, ,54, ,
-1, ,55, ,
-1, ,54, ,
1, ,55, ,
1, ,55, ,
-1, ,55, ,
2, ,55, ,
-1, ,55, ,
-1, ,55, ,
1, ,55, ,
1, ,56, ,
-1, ,55, ,
1, ,55, ,
-1, ,55, ,
-1, ,55, ,
1, ,55, ,
-1, ,55, ,
-1, ,55, ,
1, ,55, ,
-1, ,55, ,
-1, ,55, ,
1, ,55, ,
-1, ,55, ,
-1, ,54, ,
1, ,55, ,
-1, ,55, ,
-1, ,55, ,
1, ,54, ,
-1, ,55, ,
-1, ,55, ,
1, ,55, ,
-1, ,55, ,
-1, ,55, ,
1, ,54, ,
1, ,55, ,
-1, ,54, ,
1, ,55, ,
-1, ,55, ,
-1, ,55, ,
1, ,54, ,
1, ,55, ,
-1, ,54, ,
1, ,55, ,
-1, ,54, ,
-1, ,54, ,
1, ,54, ,
1, ,55, ,
-1, ,54, ,
1, ,54, ,
-1, ,55, ,
-1, ,55, ,
1, ,55, ,
-1, ,55, ,
-1, ,54, ,
1, ,54, ,
-1, ,55, ,
-1, ,54, ,
1, ,54, ,
-1, ,55, ,
-1, ,54, ,
1, ,55, ,
-1, ,55, ,
-1, ,55, ,
1, ,54, ,
-1, ,55, ,
-1, ,54, ,
1, ,55, ,
-1, ,55, ,
-1, ,54, ,
1, ,54, ,
-1, ,55, ,
-1, ,54, ,
1, ,54, ,
1, ,55, ,
-1, ,54, ,
1, ,54, ,
-1, ,55, ,
-2, ,54, ,
1, ,54, ,
-1, ,54, ,
-1, ,55, ,
1, ,55, ,
-1, ,55, ,
-2, ,54, ,
1, ,54, ,
-1, ,55, ,
-2, ,54, ,
1, ,55, ,
-1, ,55, ,
-2, ,54, ,
2, ,54, ,
-1, ,55, ,
-1, ,54, ,
1, ,54, ,
1, ,55, ,
-2, ,54, ,
1, ,54, ,
-1, ,55, ,
-2, ,54, ,
1, ,54, ,
-1, ,55, ,
-1, ,54, ,
1, ,55, ,
-1, ,55, ,
-1, ,54, ,
1, ,54, ,
-1, ,55, ,
-1, ,54, ,
1, ,54, ,
-1, ,55, ,
-1, ,54, ,
1, ,54, ,
1, ,55, ,
-1, ,54, ,
1, ,54, ,
-1, ,54, ,
-1, ,54, ,
1, ,54, ,
-1, ,55, ,
-1, ,55, ,
1, ,54, ,
-1, ,55, ,
-1, ,54, ,
1, ,54, ,
-1, ,55, ,
-1, ,54, ,
1, ,54, ,
-1, ,55, ,
-1, ,55, ,
1, ,54, ,
-1, ,55, ,
-1, ,54, ,
1, ,54, ,
-1, ,55, ,
-1, ,54, ,
1, ,54, ,
1, ,55, ,
-1, ,54, ,
2, ,54, ,
-1, ,54, ,
-1, ,52, ,
1, ,34, ,
-1, ,16, ,
-2, ,2, ,
1, ,-8, ,
-1, ,-17, ,
-1, ,-23, ,
1, ,-26, ,
-1, ,-31, ,
-2, ,-33, ,
2, ,-35, ,
-1, ,-36, ,
-1, ,-37, ,
1, ,-38, ,
1, ,-38, ,
-1, ,-38, ,
2, ,-39, ,
-1, ,-39, ,
-1, ,-39, ,
1, ,-39, ,
1, ,-39, ,
-1, ,-39, ,
2, ,-39, ,
-1, ,-39, ,
-1, ,-39, ,
1, ,-39, ,
1, ,-40, ,
-1, ,-39, ,
1, ,-39, ,
-1, ,-39, ,
-1, ,-39, ,
1, ,-39, ,
1, ,-39, ,
-2, ,-39, ,
2, ,-39, ,
-1, ,-39, ,
-1, ,-39, ,
1, ,-39, ,
1, ,-39, ,
-1, ,-39, ,
2, ,-39, ,
-1, ,-39, ,
-1, ,-39, ,
1, ,-39, ,
1, ,-39, ,
-2, ,-39, ,
1, ,-39, ,
-1, ,-39, ,
-1, ,-39, ,
1, ,-39, ,
1, ,-39, ,
-2, ,-39, ,
1, ,-39, ,
-1, ,-38, ,
-1, ,-39, ,
1, ,-39, ,
1, ,-39, ,
-2, ,-39, ,
2, ,-39, ,
-1, ,-39, ,
-1, ,-39, ,
1, ,-39, ,
1, ,-39, ,
-2, ,-39, ,
2, ,-39, ,
-1, ,-39, ,
-1, ,-39, ,
1, ,-38, ,
1, ,-39, ,
-2, ,-38, ,
2, ,-39, ,
-1, ,-39, ,
-1, ,-38, ,
1, ,-38, ,
1, ,-39, ,
-2, ,-39, ,
1, ,-39, ,
-1, ,-39, ,
-1, ,-39, ,
1, ,-38, ,
1, ,-39, ,
-2, ,-38, ,
2, ,-39, ,
-1, ,-39, ,
-1, ,-38, ,
1, ,-38, ,
-1, ,-38, ,
-2, ,-39, ,
1, ,-39, ,
-1, ,-39, ,
-1, ,-39, ,
1, ,-38, ,
1, ,-39, ,
-2, ,-38, ,
2, ,-38, ,
-1, ,-39, ,
-1, ,-38, ,
1, ,-38, ,
1, ,-39, ,
-2, ,-39, ,
2, ,-39, ,
-1, ,-38, ,
-1, ,-39, ,
1, ,-39, ,
1, ,-39, ,
-2, ,-38, ,
2, ,-39, ,
-1, ,-39, ,
-1, ,-39, ,
1, ,-38, ,
-1, ,-39, ,
-2, ,-39, ,
2, ,-39, ,
-1, ,-39, ,
-1, ,-39, ,
1, ,-38, ,
1, ,-39, ,
-1, ,-38, ,
2, ,-38, ,
-1, ,-39, ,
-1, ,-38, ,
1, ,-38, ,
1, ,-39, ,
-1, ,-38, ,
1, ,-39, ,
-1, ,-39, ,
-1, ,-38, ,
1, ,-38, ,
1, ,-39, ,
-2, ,-38, ,
1, ,-39, ,
-1, ,-39, ,
-1, ,-38, ,
1, ,-38, ,
1, ,-39, ,
-1, ,-38, ,
2, ,-39, ,
-1, ,-38, ,
-1, ,-39, ,
1, ,-38, ,
1, ,-39, ,
-1, ,-38, ,
2, ,-39, ,
-1, ,-39, ,
-1, ,-38, ,
1, ,-38, ,
1, ,-39, ,
-2, ,-38, ,
1, ,-39, ,
-1, ,-38, ,
-1, ,-39, ,
1, ,-38, ,
1, ,-39, ,
-1, ,-38, ,
2, ,-39, ,
-1, ,-39, ,
-1, ,-38, ,
1, ,-38, ,
1, ,-39, ,
-1, ,-38, ,
1, ,-39, ,
-1, ,-38, ,
-1, ,-38, ,
1, ,-38, ,
1, ,-39, ,
-1, ,-38, ,
2, ,-39, ,
-1, ,-38, ,
-1, ,-38, ,
1, ,-38, ,
1, ,-39, ,
-1, ,-39, ,
1, ,-38, ,
-1, ,-38, ,
-1, ,-38, ,
1, ,-38, ,
1, ,-39, ,
-2, ,-38, ,
2, ,-39, ,
-1, ,-39, ,
-1, ,-38, ,
1, ,-38, ,
1, ,-39, ,
-2, ,-38, ,
2, ,-39, ,
-1, ,-38, ,
-1, ,-38, ,
1, ,-38, ,
1, ,-39, ,
-2, ,-38, ,
2, ,-38, ,
-1, ,-39, ,
-1, ,-38, ,
1, ,-38, ,
1, ,-39, ,
-2, ,-39, ,
2, ,-38, ,
-1, ,-38, ,
-1, ,-38, ,
1, ,-38, ,
-1, ,-39, ,
-2, ,-38, ,
2, ,-38, ,
-1, ,-38, ,
-1, ,-38, ,
1, ,-38, ,
-1, ,-39, ,
-2, ,-38, ,
1, ,-38, ,
-1, ,-38, ,
-1, ,-38, ,
1, ,-38, ,
1, ,-39, ,
-2, ,-38, ,
2, ,-38, ,
-1, ,-38, ,
-1, ,-38, ,
1, ,-38, ,
1, ,-39, ,
-2, ,-38, ,
1, ,-39, ,
-1, ,-38, ,
-1, ,-38, ,
1, ,-38, ,
1, ,-39, ,
-2, ,-38, ,
2, ,-38, ,
-1, ,-38, ,
-1, ,-38, ,
1, ,-38, ,
-1, ,-39, ,
-2, ,-38, ,
2, ,-38, ,
-1, ,-38, ,
-1, ,-38, ,
1, ,-38, ,
1, ,-39, ,
-2, ,-38, ,
2, ,-39, ,
-1, ,-38, ,
-1, ,-38, ,
1, ,-38, ,
-1, ,-38, ,
-2, ,-38, ,
2, ,-38, ,
-1, ,-38, ,
-1, ,-38, ,
1, ,-38, ,
1, ,-39, ,
-2, ,-38, ,
2, ,-38, ,
-1, ,-39, ,
-1, ,-38, ,
1, ,-38, ,
1, ,-39, ,
-2, ,-38, ,
2, ,-39, ,
-1, ,-38, ,
-1, ,-39, ,
1, ,-38, ,
1, ,-39, ,
-2, ,-38, ,
2, ,-39, ,
-1, ,-38, ,
-1, ,-38, ,
1, ,-38, ,
1, ,-39, ,
-1, ,-38, ,
2, ,-38, ,
-1, ,-38, ,
-1, ,-38, ,
1, ,-38, ,
1, ,-39, ,
-1, ,-38, ,
2, ,-38, ,
-1, ,-38, ,
-1, ,-38, ,
1, ,-38, ,
1, ,-39, ,
-2, ,-39, ,
1, ,-38, ,
-1, ,-38, ,
-1, ,-38, ,
1, ,-38, ,
1, ,-39, ,
-1, ,-38, ,
2, ,-38, ,
-1, ,-39, ,
-1, ,-38, ,
1, ,-38, ,
1, ,-39, ,
-2, ,-38, ,
1, ,-38, ,
-1, ,-38, ,
-1, ,-38, ,
1, ,-38, ,
-1, ,-39, ,
-2, ,-38, ,
2, ,-38, ,
-1, ,-38, ,
-1, ,-38, ,
1, ,-38, ,
1, ,-39, ,
-2, ,-38, ,
2, ,-38, ,
-1, ,-38, ,
-1, ,-38, ,
2, ,-38, ,
1, ,-39, ,
-2, ,-38, ,
2, ,-39, ,
-1, ,-39, ,
-1, ,-38, ,
1, ,-38, ,
-1, ,-39, ,
-2, ,-39, ,
2, ,-39, ,
-1, ,-38, ,
-1, ,-38, ,
1, ,-38, ,
-1, ,-39, ,
-2, ,-38, ,
2, ,-38, ,
-1, ,-38, ,
-1, ,-38, ,
1, ,-38, ,
1, ,-39, ,
-1, ,-38, ,
2, ,-39, ,
-1, ,-38, ,
-1, ,-38, ,
1, ,-38, ,
1, ,-39, ,
-2, ,-38, ,
2, ,-38, ,
-1, ,-39, ,
-1, ,-38, ,
1, ,-38, ,
1, ,-39, ,
-2, ,-39, ,
2, ,-38, ,
-1, ,-38, ,
-1, ,-39, ,
26, ,-38, ,
76, ,-39, ,
46, ,-38, ,
30, ,-38, ,
18, ,-38, ,
12, ,-38, ,
10, ,-38, ,
7, ,-39, ,
5, ,-39, ,
6, ,-38, ,
3, ,-38, ,
2, ,-38, ,
3, ,-38, ,
2, ,-39, ,
1, ,-38, ,
3, ,-39, ,
2, ,-39, ,
2, ,-38, ,
3, ,-38, ,
2, ,-39, ,
1, ,-38, ,
3, ,-38, ,
2, ,-38, ,
2, ,-38, ,
2, ,-39, ,
2, ,-39, ,
1, ,-38, ,
3, ,-39, ,
2, ,-39, ,
2, ,-39, ,
2, ,-38, ,
2, ,-39, ,
1, ,-38, ,
3, ,-38, ,
2, ,-38, ,
2, ,-39, ,
3, ,-38, ,
2, ,-39, ,
1, ,-38, ,
3, ,-39, ,
2, ,-39, ,
2, ,-38, ,
3, ,-38, ,
2, ,-39, ,
1, ,-38, ,
3, ,-38, ,
2, ,-38, ,
3, ,-39, ,
10, ,-38, ,
10, ,-39, ,
7, ,-38, ,
7, ,-38, ,
5, ,-39, ,
3, ,-38, ,
3, ,-38, ,
3, ,-39, ,
1, ,-39, ,
3, ,-38, ,
2, ,-39, ,
2, ,-38, ,
3, ,-38, ,
2, ,-39, ,
1, ,-38, ,
3, ,-38, ,
2, ,-39, ,
2, ,-38, ,
3, ,-38, ,
3, ,-39, ,
1, ,-38, ,
3, ,-38, ,
2, ,-38, ,
2, ,-39, ,
2, ,-38, ,
2, ,-39, ,
1, ,-38, ,
3, ,-39, ,
2, ,-39, ,
2, ,-38, ,
2, ,-38, ,
2, ,-39, ,
1, ,-38, ,
3, ,-39, ,
2, ,-39, ,
2, ,-39, ,
2, ,-39, ,
2, ,-39, ,
1, ,-38, ,
3, ,-39, ,
2, ,-39, ,
1, ,-38, ,
2, ,-38, ,
3, ,-39, ,
1, ,-38, ,
3, ,-38, ,
1, ,-38, ,
2, ,-38, ,
3, ,-38, ,
2, ,-39, ,
1, ,-38, ,
3, ,-38, ,
2, ,-39, ,
1, ,-38, ,
2, ,-38, ,
2, ,-39, ,
1, ,-38, ,
3, ,-39, ,
2, ,-38, ,
1, ,-38, ,
2, ,-38, ,
2, ,-39, ,
1, ,-38, ,
3, ,-39, ,
1, ,-39, ,
1, ,-38, ,
2, ,-38, ,
2, ,-39, ,
1, ,-39, ,
3, ,-38, ,
2, ,-38, ,
2, ,-38, ,
2, ,-38, ,
2, ,-39, ,
1, ,-38, ,
3, ,-38, ,
2, ,-39, ,
1, ,-38, ,
2, ,-38, ,
2, ,-39, ,
1, ,-39, ,
3, ,-38, ,
1, ,-38, ,
1, ,-38, ,
2, ,-38, ,
2, ,-39, ,
1, ,-38, ,
3, ,-39, ,
1, ,-39, ,
1, ,-38, ,
2, ,-38, ,
2, ,-39, ,
-1, ,-38, ,
3, ,-39, ,
1, ,-38, ,
1, ,-38, ,
2, ,-39, ,
2, ,-39, ,
1, ,-38, ,
3, ,-39, ,
2, ,-39, ,
1, ,-38, ,
2, ,-38, ,
2, ,-39, ,
1, ,-39, ,
3, ,-38, ,
1, ,-38, ,
1, ,-38, ,
2, ,-39, ,
2, ,-39, ,
1, ,-38, ,
3, ,-39, ,
1, ,-38, ,
1, ,-38, ,
2, ,-38, ,
2, ,-39, ,
1, ,-38, ,
3, ,-39, ,
1, ,-38, ,
1, ,-38, ,
2, ,-38, ,
2, ,-39, ,
1, ,-38, ,
3, ,-38, ,
1, ,-39, ,
1, ,-38, ,
2, ,-38, ,
2, ,-39, ,
1, ,-38, ,
3, ,-39, ,
1, ,-38, ,
2, ,-38, ,
2, ,-39, ,
2, ,-39, ,
1, ,-38, ,
3, ,-39, ,
1, ,-39, ,
1, ,-38, ,
2, ,-38, ,
2, ,-39, ,
1, ,-38, ,
3, ,-39, ,
1, ,-38, ,
1, ,-38, ,
3, ,-38, ,
2, ,-39, ,
-1, ,-38, ,
3, ,-39, ,
1, ,-39, ,
1, ,-38, ,
2, ,-38, ,
2, ,-39, ,
1, ,-39, ,
3, ,-38, ,
1, ,-39, ,
1, ,-38, ,
2, ,-39, ,
2, ,-39, ,
-1, ,-39, ,
3, ,-39, ,
1, ,-39, ,
1, ,-38, ,
2, ,-38, ,
2, ,-39, ,
-1, ,-38, ,
3, ,-38, ,
1, ,-38, ,
1, ,-38, ,
2, ,-38, ,
2, ,-39, ,
1, ,-38, ,
2, ,-38, ,
1, ,-39, ,
1, ,-38, ,
2, ,-38, ,
2, ,-39, ,
1, ,-39, ,
3, ,-39, ,
1, ,-39, ,
1, ,-38, ,
2, ,-38, ,
2, ,-39, ,
-1, ,-38, ,
2, ,-39, ,
1, ,-38, ,
1, ,-38, ,
2, ,-38, ,
2, ,-39, ,
1, ,-38, ,
3, ,-39, ,
1, ,-38, ,
1, ,-38, ,
2, ,-38, ,
2, ,-39, ,
-1, ,-38, ,
2, ,-38, ,
1, ,-39, ,
1, ,-38, ,
2, ,-38, ,
1, ,-39, ,
-1, ,-39, ,
2, ,-39, ,
1, ,-38, ,
1, ,-39, ,
2, ,-39, ,
2, ,-39, ,
-1, ,-38, ,
2, ,-39, ,
1, ,-39, ,
1, ,-38, ,
2, ,-39, ,
2, ,-39, ,
-1, ,-38, ,
2, ,-38, ,
1, ,-38, ,
1, ,-39, ,
2, ,-38, ,
1, ,-39, ,
-1, ,-38, ,
2, ,-39, ,
1, ,-39, ,
1, ,-38, ,
2, ,-38, ,
2, ,-39, ,
-1, ,-39, ,
2, ,-39, ,
1, ,-38, ,
1, ,-38, ,
2, ,-38, ,
1, ,-39, ,
-1, ,-38, ,
2, ,-39, ,
1, ,-38, ,
1, ,-38, ,
2, ,-38, ,
1, ,-39, ,
-1, ,-34, ,
3, ,-15, ,
1, ,3, ,
1, ,16, ,
2, ,26, ,
1, ,34, ,
-1, ,38, ,
2, ,43, ,
1, ,46, ,
1, ,49, ,
2, ,50, ,
1, ,52, ,
1, ,52, ,
2, ,53, ,
1, ,54, ,
1, ,55, ,
2, ,54, ,
2, ,55, ,
-1, ,54, ,
2, ,55, ,
1, ,55, ,
1, ,55, ,
2, ,55, ,
1, ,55, ,
-1, ,54, ,
2, ,55, ,
1, ,55, ,
1, ,55, ,
2, ,55, ,
1, ,55, ,
1, ,55, ,
2, ,55, ,
1, ,55, ,
1, ,55, ,
2, ,55, ,
1, ,55, ,
-1, ,54, ,
2, ,55, ,
1, ,55, ,
1, ,55, ,
2, ,55, ,
1, ,55, ,
-1, ,54, ,
2, ,54, ,
1, ,54, ,
1, ,55, ,
2, ,55, ,
2, ,55, ,
-1, ,54, ,
2, ,54, ,
1, ,55, ,
1, ,55, ,
2, ,54, ,
2, ,55, ,
1, ,54, ,
2, ,55, ,
1, ,54, ,
1, ,55, ,
2, ,54, ,
1, ,55, ,
-1, ,54, ,
2, ,54, ,
1, ,55, ,
1, ,55, ,
2, ,54, ,
1, ,55, ,
-1, ,54, ,
2, ,54, ,
1, ,54, ,
1, ,55, ,
1, ,55, ,
1, ,55, ,
-1, ,54, ,
3, ,54, ,
1, ,55, ,
1, ,55, ,
2, ,54, ,
1, ,55, ,
-1, ,54, ,
2, ,54, ,
1, ,54, ,
1, ,55, ,
2, ,55, ,
1, ,55, ,
-1, ,54, ,
2, ,54, ,
1, ,55, ,
1, ,55, ,
2, ,54, ,
1, ,55, ,
-1, ,54, ,
2, ,54, ,
1, ,54, ,
-1, ,55, ,
2, ,55, ,
1, ,55, ,
-1, ,54, ,
2, ,54, ,
1, ,54, ,
-1, ,55, ,
2, ,54, ,
1, ,55, ,
-1, ,54, ,
2, ,54, ,
1, ,55, ,
1, ,55, ,
2, ,54, ,
1, ,55, ,
-1, ,54, ,
2, ,54, ,
1, ,55, ,
-1, ,55, ,
2, ,54, ,
57, ,55, ,
45, ,54, ,
29, ,54, ,
17, ,55, ,
11, ,55, ,
8, ,54, ,
6, ,55, ,
3, ,54, ,
5, ,54, ,
2, ,55, ,
2, ,55, ,
3, ,54, ,
2, ,55, ,
1, ,54, ,
3, ,54, ,
2, ,55, ,
2, ,55, ,
3, ,54, ,
2, ,55, ,
1, ,54, ,
3, ,54, ,
2, ,55, ,
1, ,55, ,
3, ,54, ,
2, ,55, ,
1, ,54, ,
3, ,54, ,
2, ,54, ,
2, ,54, ,
2, ,54, ,
2, ,55, ,
1, ,54, ,
3, ,54, ,
2, ,55, ,
1, ,55, ,
3, ,54, ,
2, ,55, ,
1, ,54, ,
3, ,54, ,
2, ,54, ,
2, ,54, ,
2, ,54, ,
2, ,40, ,
1, ,20, ,
3, ,5, ,
1, ,-6, ,
1, ,-15, ,
2, ,-21, ,
2, ,-26, ,
1, ,-30, ,
3, ,-32, ,
2, ,-34, ,
2, ,-36, ,
2, ,-36, ,
2, ,-37, ,
1, ,-38, ,
5, ,-38, ,
2, ,-38, ,
2, ,-39, ,
2, ,-39, ,
2, ,-39, ,
1, ,-39, ,
3, ,-39, ,
2, ,-39, ,
2, ,-39, ,
2, ,-39, ,
2, ,-39, ,
1, ,-39, ,
3, ,-39, ,
1, ,-39, ,
1, ,-39, ,
3, ,-39, ,
2, ,-40, ,
1, ,-39, ,
3, ,-39, ,
2, ,-39, ,
2, ,-39, ,
2, ,-39, ,
2, ,-39, ,
1, ,-39, ,
3, ,-39, ,
2, ,-39, ,
1, ,-39, ,
2, ,-39, ,
2, ,-39, ,
1, ,-39, ,
3, ,-39, ,
2, ,-39, ,
1, ,-39, ,
2, ,-39, ,
2, ,-39, ,
1, ,-39, ,
3, ,-39, ,
1, ,-39, ,
1, ,-39, ,
2, ,-39, ,
2, ,-39, ,
1, ,-39, ,
3, ,-39, ,
1, ,-39, ,
1, ,-39, ,
2, ,-39, ,
2, ,-39, ,
1, ,-39, ,
3, ,-39, ,
1, ,-39, ,
1, ,-38, ,
2, ,-38, ,
2, ,-39, ,
1, ,-39, ,
3, ,-39, ,
1, ,-39, ,
1, ,-39, ,
2, ,-38, ,
2, ,-39, ,
1, ,-39, ,
3, ,-39, ,
1, ,-39, ,
1, ,-39, ,
2, ,-39, ,
2, ,-39, ,
1, ,-38, ,
3, ,-39, ,
1, ,-39, ,
1, ,-39, ,
2, ,-39, ,
2, ,-39, ,
1, ,-39, ,
3, ,-39, ,
1, ,-39, ,
1, ,-38, ,
2, ,-38, ,
2, ,-39, ,
1, ,-38, ,
3, ,-39, ,
1, ,-39, ,
1, ,-38, ,
2, ,-39, ,
2, ,-39, ,
1, ,-39, ,
3, ,-39, ,
1, ,-39, ,
1, ,-39, ,
2, ,-39, ,
2, ,-39, ,
-1, ,-39, ,
3, ,-39, ,
1, ,-39, ,
1, ,-38, ,
2, ,-38, ,
2, ,-39, ,
1, ,-39, ,
2, ,-39, ,
1, ,-38, ,
1, ,-39, ,
2, ,-38, ,
2, ,-39, ,
1, ,-38, ,
3, ,-39, ,
1, ,-39, ,
1, ,-38, ,
2, ,-38, ,
2, ,-39, ,
1, ,-39, ,
3, ,-39, ,
1, ,-39, ,
1, ,-39, ,
2, ,-38, ,
2, ,-39, ,
1, ,-38, ,
2, ,-39, ,
1, ,-38, ,
1, ,-39, ,
2, ,-38, ,
2, ,-39, ,
-1, ,-39, ,
3, ,-39, ,
1, ,-38, ,
1, ,-39, ,
2, ,-38, ,
2, ,-39, ,
1, ,-38, ,
2, ,-39, ,
1, ,-38, ,
1, ,-38, ,
2, ,-38, ,
2, ,-39, ,
-1, ,-39, ,
3, ,-38, ,
1, ,-38, ,
1, ,-38, ,
2, ,-38, ,
2, ,-39, ,
1, ,-38, ,
2, ,-38, ,
1, ,-39, ,
1, ,-38, ,
2, ,-39, ,
2, ,-39, ,
1, ,-39, ,
3, ,-39, ,
1, ,-38, ,
1, ,-38, ,
2, ,-38, ,
2, ,-39, ,
-1, ,-38, ,
2, ,-38, ,
1, ,-38, ,
1, ,-38, ,
2, ,-38, ,
1, ,-39, ,
-1, ,-39, ,
3, ,-39, ,
1, ,-38, ,
1, ,-38, ,
2, ,-38, ,
2, ,-39, ,
-1, ,-38, ,
2, ,-38, ,
1, ,-38, ,
1, ,-38, ,
2, ,-39, ,
2, ,-39, ,
-1, ,-38, ,
3, ,-38, ,
1, ,-38, ,
1, ,-38, ,
2, ,-38, ,
1, ,-39, ,
-1, ,-39, ,
2, ,-38, ,
1, ,-39, ,
1, ,-38, ,
2, ,-38, ,
1, ,-39, ,
-1, ,-39, ,
2, ,-39, ,
1, ,-38, ,
1, ,-39, ,
2, ,-38, ,
1, ,-39, ,
-1, ,-39, ,
2, ,-39, ,
1, ,-39, ,
1, ,-38, ,
2, ,-38, ,
1, ,-39, ,
-1, ,-38, ,
2, ,-39, ,
1, ,-38, ,
1, ,-38, ,
2, ,-38, ,
1, ,-39, ,
-1, ,-39, ,
2, ,-38, ,
1, ,-39, ,
1, ,-38, ,
2, ,-38, ,
1, ,-39, ,
-1, ,-38, ,
2, ,-39, ,
1, ,-38, ,
1, ,-38, ,
2, ,-38, ,
1, ,-39, ,
-1, ,-38, ,
2, ,-38, ,
1, ,-39, ,
1, ,-38, ,
2, ,-38, ,
1, ,-39, ,
-1, ,-38, ,
2, ,-38, ,
1, ,-38, ,
1, ,-38, ,
2, ,-38, ,
1, ,-39, ,
-1, ,-38, ,
2, ,-39, ,
1, ,-39, ,
1, ,-38, ,
2, ,-38, ,
1, ,-39, ,
-1, ,-39, ,
2, ,-39, ,
1, ,-38, ,
1, ,-38, ,
2, ,-39, ,
1, ,-39, ,
-1, ,-38, ,
2, ,-38, ,
1, ,-39, ,
1, ,-38, ,
2, ,-38, ,
1, ,-39, ,
-1, ,-39, ,
2, ,-38, ,
1, ,-39, ,
1, ,-38, ,
2, ,-38, ,
1, ,-39, ,
-1, ,-39, ,
2, ,-39, ,
1, ,-39, ,
1, ,-38, ,
2, ,-38, ,
1, ,-39, ,
-1, ,-39, ,
2, ,-39, ,
1, ,-39, ,
1, ,-38, ,
2, ,-38, ,
1, ,-39, ,
-1, ,-38, ,
2, ,-38, ,
1, ,-38, ,
1, ,-38, ,
2, ,-38, ,
1, ,-39, ,
-1, ,-39, ,
2, ,-38, ,
1, ,-38, ,
1, ,-38, ,
2, ,-38, ,
1, ,-39, ,
-1, ,-38, ,
2, ,-39, ,
1, ,-39, ,
1, ,-38, ,
2, ,-38, ,
1, ,-39, ,
-1, ,-39, ,
2, ,-38, ,
1, ,-38, ,
1, ,-38, ,
2, ,-38, ,
1, ,-39, ,
-1, ,-38, ,
2, ,-38, ,
1, ,-38, ,
1, ,-38, ,
2, ,-38, ,
1, ,-39, ,
-1, ,-38, ,
2, ,-38, ,
1, ,-38, ,
1, ,-38, ,
2, ,-38, ,
1, ,-39, ,
-1, ,-38, ,
2, ,-39, ,
1, ,-38, ,
1, ,-38, ,
2, ,-38, ,
1, ,-38, ,
-1, ,-39, ,
2, ,-39, ,
1, ,-38, ,
-1, ,-38, ,
2, ,-38, ,
1, ,-39, ,
-1, ,-38, ,
2, ,-38, ,
1, ,-38, ,
1, ,-38, ,
1, ,-38, ,
1, ,-38, ,
-1, ,-38, ,
2, ,-39, ,
1, ,-39, ,
1, ,-39, ,
2, ,-38, ,
1, ,-39, ,
-1, ,-39, ,
2, ,-39, ,
1, ,-39, ,
1, ,-38, ,
2, ,-38, ,
1, ,-39, ,
-1, ,-38, ,
2, ,-38, ,
-1, ,-38, ,
1, ,-38, ,
2, ,-38, ,
1, ,-39, ,
-1, ,-38, ,
2, ,-38, ,
1, ,-39, ,
1, ,-38, ,
1, ,-38, ,
1, ,-39, ,
-1, ,-39, ,
2, ,-38, ,
1, ,-38, ,
1, ,-38, ,
1, ,-38, ,
1, ,-39, ,
-1, ,-38, ,
2, ,-39, ,
1, ,-38, ,
1, ,-38, ,
2, ,-38, ,
1, ,-39, ,
-1, ,-38, ,
2, ,-39, ,
-1, ,-38, ,
-1, ,-38, ,
2, ,-38, ,
1, ,-39, ,
-1, ,-39, ,
2, ,-38, ,
1, ,-39, ,
1, ,-38, ,
1, ,-38, ,
1, ,-39, ,
-1, ,-39, ,
2, ,-39, ,
-1, ,-38, ,
1, ,-38, ,
2, ,-39, ,
1, ,-39, ,
-1, ,-38, ,
2, ,-39, ,
1, ,-38, ,
1, ,-38, ,
2, ,-38, ,
1, ,-39, ,
-1, ,-39, ,
2, ,-39, ,
-1, ,-38, ,
1, ,-38, ,
2, ,-38, ,
1, ,-39, ,
-1, ,-38, ,
2, ,-38, ,
1, ,-39, ,
-1, ,-38, ,
1, ,-38, ,
1, ,-39, ,
-1, ,-39, ,
2, ,-39, ,
1, ,-38, ,
1, ,-38, ,
1, ,-38, ,
1, ,-39, ,
-1, ,-38, ,
2, ,-39, ,
1, ,-38, ,
1, ,-38, ,
2, ,-38, ,
1, ,-39, ,
-1, ,-39, ,
2, ,-39, ,
1, ,-39, ,
1, ,-38, ,
2, ,-38, ,
1, ,-39, ,
-1, ,-38, ,
2, ,-38, ,
1, ,-38, ,
1, ,-38, ,
1, ,-38, ,
1, ,-39, ,
-1, ,-39, ,
2, ,-39, ,
-1, ,-38, ,
1, ,-38, ,
1, ,-38, ,
1, ,-39, ,
-1, ,-38, ,
1, ,-39, ,
1, ,-38, ,
1, ,-38, ,
1, ,-38, ,
1, ,-39, ,
-1, ,-38, ,
2, ,-39, ,
-1, ,-38, ,
1, ,-39, ,
1, ,-38, ,
1, ,-39, ,
-1, ,-38, ,
2, ,-39, ,
1, ,-38, ,
-1, ,-38, ,
1, ,-38, ,
1, ,-39, ,
-1, ,-39, ,
2, ,-39, ,
-1, ,-38, ,
1, ,-38, ,
1, ,-38, ,
1, ,-39, ,
-1, ,-38, ,
2, ,-39, ,
-1, ,-39, ,
-1, ,-38, ,
1, ,-38, ,
1, ,-39, ,
-1, ,-39, ,
2, ,-39, ,
