src/varyamp_1560/temp0000166.CSV

Format,1.0B,
Memory Length,10000,Memory Length,10000,
IntpDistance,0,IntpDistance,0,
Trigger Address,4999,Trigger Address,4999,
Trigger Level,1.040E+00,Trigger Level,1.040E+00,
Source,CH1,Source,CH2,
Vertical Units,V,Vertical Units,V,
Vertical Units Div,0,Vertical Units Div,0,
Vertical Units Extend Div,16,Vertical Units Extend Div,16,
Label,,Label,,
Probe Type,0,Probe Type,0,
Probe Ratio,1.000e+01,Probe Ratio,1.000e+00,
Vertical Scale,5.000e-01,Vertical Scale,1.000e+00,
Vertical Position,-1.820e+00,Vertical Position,0.000e+00,
Horizontal Units,S,Horizontal Units,S,
Horizontal Scale,2.000E-05,Horizontal Scale,2.000E-05,
Horizontal Position,0.000E+00,Horizontal Position,0.000E+00,
Horizontal Mode,Main,Horizontal Mode,Main,
SincET Mode,Real Time,SincET Mode,Real Time,
Sampling Period,2.000e-08,Sampling Period,2.000e-08,
Horizontal Old Scale,2.000E-05,Horizontal Old Scale,2.000E-05,
Horizontal Old Position,0.000E+00,Horizontal Old Position,0.000E+00,
Firmware,V1.23,Firmware,V1.23,
Mode,Fast,Mode,Fast,
Waveform Data,,Waveform Data,,
2, ,-63, ,
1, ,-63, ,
-1, ,-63, ,
1, ,-63, ,
1, ,-63, ,
-1, ,-63, ,
2, ,-62, ,
-1, ,-63, ,
-1, ,-63, ,
1, ,-63, ,
1, ,-63, ,
-1, ,-63, ,
2, ,-63, ,
-1, ,-63, ,
-1, ,-63, ,
1, ,-63, ,
1, ,-63, ,
-1, ,-63, ,
1, ,-63, ,
-1, ,-62, ,
-1, ,-63, ,
1, ,-63, ,
1, ,-62, ,
-1, ,-62, ,
2, ,-63, ,
1, ,-62, ,
-1, ,-62, ,
1, ,-63, ,
1, ,-63, ,
-1, ,-63, ,
2, ,-63, ,
-1, ,-63, ,
-1, ,-62, ,
1, ,-63, ,
1, ,-62, ,
-1, ,-63, ,
2, ,-63, ,
1, ,-63, ,
-1, ,-62, ,
1, ,-63, ,
1, ,-63, ,
-1, ,-63, ,
1, ,-63, ,
-1, ,-63, ,
-1, ,-63, ,
1, ,-63, ,
1, ,-62, ,
-1, ,-63, ,
2, ,-63, ,
-1, ,-63, ,
-1, ,-62, ,
1, ,-63, ,
1, ,-62, ,
-1, ,-63, ,
2, ,-63, ,
-1, ,-63, ,
-1, ,-63, ,
1, ,-63, ,
1, ,-62, ,
-1, ,-63, ,
2, ,-63, ,
1, ,-63, ,
-1, ,-62, ,
1, ,-63, ,
1, ,-62, ,
-1, ,-63, ,
2, ,-63, ,
-1, ,-63, ,
-1, ,-63, ,
1, ,-63, ,
1, ,-62, ,
-1, ,-63, ,
2, ,-63, ,
1, ,-63, ,
-1, ,-62, ,
1, ,-63, ,
1, ,-63, ,
-1, ,-63, ,
2, ,-63, ,
-1, ,-63, ,
-1, ,-63, ,
1, ,-63, ,
1, ,-62, ,
-1, ,-63, ,
2, ,-63, ,
1, ,-63, ,
-1, ,-62, ,
1, ,-63, ,
1, ,-62, ,
-1, ,-63, ,
1, ,-63, ,
-1, ,-63, ,
-1, ,-63, ,
1, ,-63, ,
1, ,-62, ,
-1, ,-63, ,
2, ,-63, ,
1, ,-63, ,
-1, ,-62, ,
1, ,-63, ,
1, ,-62, ,
-2, ,-63, ,
2, ,-63, ,
1, ,-63, ,
-1, ,-63, ,
1, ,-63, ,
1, ,-62, ,
-1, ,-63, ,
2, ,-63, ,
1, ,-63, ,
-1, ,-62, ,
1, ,-63, ,
1, ,-62, ,
-1, ,-62, ,
2, ,-63, ,
-1, ,-63, ,
-1, ,-63, ,
1, ,-63, ,
1, ,-62, ,
-1, ,-63, ,
2, ,-63, ,
1, ,-63, ,
-1, ,-62, ,
1, ,-63, ,
1, ,-62, ,
-1, ,-63, ,
2, ,-63, ,
1, ,-63, ,
-1, ,-63, ,
1, ,-63, ,
1, ,-62, ,
-1, ,-63, ,
2, ,-63, ,
1, ,-63, ,
-1, ,-62, ,
1, ,-63, ,
1, ,-62, ,
-1, ,-62, ,
1, ,-63, ,
-1, ,-63, ,
-1, ,-63, ,
1, ,-63, ,
1, ,-62, ,
-1, ,-63, ,
2, ,-63, ,
-1, ,-63, ,
-1, ,-63, ,
1, ,-63, ,
1, ,-62, ,
-1, ,-63, ,
2, ,-63, ,
-1, ,-63, ,
-1, ,-63, ,
1, ,-63, ,
1, ,-62, ,
-1, ,-63, ,
2, ,-63, ,
-1, ,-62, ,
-1, ,-62, ,
1, ,-63, ,
-1, ,-63, ,
-1, ,-63, ,
1, ,-63, ,
-1, ,-63, ,
-1, ,-63, ,
1, ,-63, ,
1, ,-62, ,
-1, ,-63, ,
2, ,-63, ,
1, ,-63, ,
-1, ,-63, ,
1, ,-63, ,
1, ,-62, ,
-1, ,-63, ,
2, ,-63, ,
-1, ,-63, ,
-1, ,-63, ,
1, ,-63, ,
1, ,-63, ,
-1, ,-63, ,
1, ,-63, ,
-1, ,-63, ,
-1, ,-63, ,
1, ,-63, ,
1, ,-62, ,
-1, ,-63, ,
2, ,-63, ,
-1, ,-63, ,
-1, ,-63, ,
1, ,-63, ,
1, ,-62, ,
-1, ,-63, ,
2, ,-63, ,
-1, ,-63, ,
-1, ,-63, ,
1, ,-63, ,
1, ,-62, ,
-1, ,-63, ,
2, ,-63, ,
-1, ,-63, ,
-1, ,-63, ,
1, ,-63, ,
1, ,-62, ,
-1, ,-63, ,
2, ,-63, ,
-1, ,-63, ,
-1, ,-63, ,
1, ,-63, ,
1, ,-62, ,
-1, ,-63, ,
2, ,-63, ,
-1, ,-63, ,
-1, ,-63, ,
1, ,-63, ,
1, ,-62, ,
-1, ,-63, ,
2, ,-63, ,
-1, ,-63, ,
-1, ,-62, ,
1, ,-63, ,
1, ,-62, ,
-1, ,-63, ,
1, ,-63, ,
-1, ,-63, ,
-1, ,-63, ,
1, ,-63, ,
1, ,-62, ,
-1, ,-63, ,
2, ,-63, ,
-1, ,-63, ,
-1, ,-62, ,
1, ,-63, ,
1, ,-62, ,
-1, ,-63, ,
1, ,-63, ,
-1, ,-63, ,
-1, ,-63, ,
1, ,-64, ,
1, ,-62, ,
-1, ,-63, ,
2, ,-63, ,
1, ,-62, ,
-1, ,-63, ,
1, ,-63, ,
1, ,-62, ,
-1, ,-63, ,
1, ,-63, ,
1, ,-63, ,
-1, ,-62, ,
1, ,-63, ,
1, ,-62, ,
-1, ,-63, ,
2, ,-63, ,
1, ,-63, ,
1, ,-63, ,
1, ,-63, ,
1, ,-63, ,
-1, ,-62, ,
2, ,-63, ,
1, ,-63, ,
-1, ,-63, ,
1, ,-63, ,
1, ,-62, ,
-1, ,-63, ,
2, ,-63, ,
-1, ,-63, ,
-1, ,-63, ,
1, ,-63, ,
1, ,-63, ,
-1, ,-63, ,
1, ,-63, ,
-1, ,-63, ,
-1, ,-63, ,
1, ,-63, ,
-1, ,-63, ,
-1, ,-63, ,
2, ,-63, ,
1, ,-63, ,
-1, ,-63, ,
1, ,-63, ,
1, ,-63, ,
-1, ,-63, ,
1, ,-63, ,
-1, ,-63, ,
-1, ,-63, ,
1, ,-63, ,
1, ,-62, ,
-1, ,-63, ,
1, ,-63, ,
-1, ,-63, ,
-1, ,-63, ,
1, ,-63, ,
1, ,-62, ,
-1, ,-63, ,
1, ,-63, ,
-1, ,-63, ,
-1, ,-63, ,
1, ,-63, ,
1, ,-63, ,
-1, ,-63, ,
1, ,-63, ,
-1, ,-63, ,
-1, ,-51, ,
1, ,-31, ,
1, ,-15, ,
-1, ,-3, ,
2, ,5, ,
-1, ,12, ,
-1, ,17, ,
1, ,20, ,
1, ,23, ,
-1, ,25, ,
2, ,26, ,
-1, ,27, ,
-1, ,28, ,
1, ,30, ,
-1, ,30, ,
-1, ,30, ,
2, ,30, ,
-1, ,31, ,
-1, ,31, ,
1, ,31, ,
-1, ,31, ,
-1, ,31, ,
2, ,31, ,
-1, ,31, ,
-1, ,31, ,
1, ,31, ,
-1, ,31, ,
-1, ,31, ,
1, ,31, ,
-1, ,31, ,
-1, ,30, ,
1, ,31, ,
1, ,31, ,
-2, ,31, ,
2, ,31, ,
-1, ,31, ,
-1, ,30, ,
1, ,31, ,
1, ,30, ,
-1, ,30, ,
2, ,30, ,
-1, ,31, ,
-1, ,30, ,
2, ,30, ,
1, ,31, ,
-1, ,30, ,
1, ,30, ,
-1, ,31, ,
-1, ,30, ,
1, ,31, ,
-1, ,30, ,
-1, ,30, ,
1, ,30, ,
-1, ,30, ,
-1, ,30, ,
1, ,30, ,
1, ,30, ,
-1, ,30, ,
1, ,30, ,
-1, ,31, ,
-1, ,30, ,
1, ,30, ,
1, ,30, ,
-1, ,30, ,
2, ,30, ,
-1, ,30, ,
-1, ,30, ,
1, ,30, ,
-1, ,30, ,
-1, ,30, ,
1, ,30, ,
-1, ,30, ,
-1, ,30, ,
1, ,30, ,
1, ,30, ,
-1, ,30, ,
2, ,30, ,
-1, ,30, ,
-1, ,30, ,
1, ,30, ,
-1, ,30, ,
-1, ,30, ,
2, ,30, ,
-1, ,30, ,
-1, ,30, ,
1, ,30, ,
-1, ,30, ,
-1, ,30, ,
2, ,30, ,
-1, ,30, ,
-1, ,30, ,
1, ,30, ,
-1, ,30, ,
-1, ,30, ,
1, ,30, ,
-1, ,30, ,
-1, ,30, ,
1, ,31, ,
-1, ,30, ,
-2, ,30, ,
2, ,30, ,
-1, ,30, ,
-1, ,30, ,
1, ,30, ,
1, ,30, ,
-1, ,30, ,
1, ,30, ,
-1, ,30, ,
-1, ,30, ,
1, ,30, ,
1, ,30, ,
-2, ,30, ,
1, ,30, ,
-1, ,30, ,
-1, ,30, ,
1, ,30, ,
-1, ,30, ,
-2, ,30, ,
1, ,30, ,
-1, ,30, ,
-1, ,30, ,
1, ,30, ,
-1, ,30, ,
-2, ,30, ,
1, ,30, ,
-1, ,30, ,
-1, ,30, ,
1, ,30, ,
1, ,30, ,
-2, ,30, ,
1, ,30, ,
-1, ,30, ,
-1, ,30, ,
1, ,30, ,
1, ,30, ,
-2, ,30, ,
1, ,30, ,
-1, ,30, ,
-1, ,30, ,
1, ,30, ,
1, ,30, ,
-2, ,30, ,
1, ,30, ,
-1, ,30, ,
-1, ,30, ,
1, ,30, ,
1, ,30, ,
-2, ,30, ,
1, ,30, ,
-1, ,30, ,
-1, ,30, ,
1, ,30, ,
1, ,30, ,
-2, ,30, ,
1, ,25, ,
-1, ,6, ,
-1, ,-12, ,
1, ,-25, ,
-1, ,-35, ,
-2, ,-42, ,
1, ,-47, ,
-1, ,-52, ,
-1, ,-55, ,
1, ,-58, ,
1, ,-58, ,
-1, ,-60, ,
2, ,-61, ,
-1, ,-62, ,
-1, ,-62, ,
1, ,-63, ,
1, ,-62, ,
-1, ,-64, ,
1, ,-64, ,
-1, ,-63, ,
-1, ,-63, ,
1, ,-64, ,
1, ,-63, ,
-1, ,-63, ,
2, ,-64, ,
1, ,-63, ,
-1, ,-63, ,
1, ,-64, ,
1, ,-63, ,
-1, ,-63, ,
2, ,-63, ,
-1, ,-63, ,
-1, ,-63, ,
1, ,-64, ,
1, ,-62, ,
-1, ,-63, ,
2, ,-64, ,
-1, ,-63, ,
-1, ,-63, ,
1, ,-64, ,
1, ,-63, ,
-1, ,-63, ,
1, ,-63, ,
1, ,-63, ,
-1, ,-63, ,
1, ,-63, ,
1, ,-62, ,
-1, ,-63, ,
2, ,-63, ,
1, ,-63, ,
-1, ,-63, ,
1, ,-63, ,
1, ,-63, ,
-1, ,-63, ,
2, ,-63, ,
1, ,-63, ,
-1, ,-63, ,
1, ,-63, ,
1, ,-62, ,
-1, ,-63, ,
2, ,-63, ,
-1, ,-63, ,
-1, ,-63, ,
1, ,-63, ,
1, ,-62, ,
-1, ,-63, ,
1, ,-63, ,
-1, ,-63, ,
-1, ,-63, ,
1, ,-63, ,
1, ,-62, ,
-1, ,-63, ,
2, ,-63, ,
-1, ,-63, ,
-1, ,-63, ,
1, ,-63, ,
1, ,-62, ,
-1, ,-63, ,
1, ,-63, ,
-1, ,-63, ,
-1, ,-63, ,
1, ,-63, ,
1, ,-62, ,
-1, ,-63, ,
1, ,-63, ,
-1, ,-62, ,
-1, ,-63, ,
1, ,-63, ,
1, ,-62, ,
-1, ,-63, ,
1, ,-63, ,
-1, ,-63, ,
-1, ,-63, ,
1, ,-63, ,
-1, ,-62, ,
-1, ,-63, ,
1, ,-63, ,
-1, ,-63, ,
-1, ,-63, ,
1, ,-63, ,
1, ,-62, ,
-2, ,-62, ,
1, ,-63, ,
-1, ,-63, ,
-1, ,-63, ,
1, ,-63, ,
1, ,-62, ,
-1, ,-63, ,
2, ,-63, ,
-1, ,-63, ,
-1, ,-63, ,
1, ,-63, ,
-1, ,-62, ,
-2, ,-63, ,
1, ,-63, ,
-1, ,-63, ,
-1, ,-63, ,
1, ,-63, ,
1, ,-62, ,
-1, ,-63, ,
2, ,-62, ,
-1, ,-63, ,
-1, ,-63, ,
1, ,-63, ,
1, ,-62, ,
-1, ,-63, ,
1, ,-63, ,
-1, ,-63, ,
-1, ,-63, ,
1, ,-63, ,
1, ,-62, ,
-1, ,-63, ,
2, ,-63, ,
-1, ,-63, ,
-1, ,-62, ,
1, ,-63, ,
1, ,-62, ,
-1, ,-63, ,
2, ,-63, ,
-1, ,-63, ,
-1, ,-63, ,
1, ,-63, ,
1, ,-62, ,
-1, ,-63, ,
2, ,-63, ,
-1, ,-63, ,
-1, ,-63, ,
1, ,-63, ,
1, ,-62, ,
-1, ,-62, ,
2, ,-62, ,
-1, ,-63, ,
-1, ,-63, ,
1, ,-63, ,
1, ,-62, ,
-1, ,-63, ,
2, ,-63, ,
-1, ,-63, ,
-1, ,-63, ,
1, ,-63, ,
1, ,-62, ,
-1, ,-63, ,
1, ,-63, ,
-1, ,-63, ,
-1, ,-63, ,
1, ,-63, ,
1, ,-62, ,
-1, ,-62, ,
2, ,-63, ,
-1, ,-63, ,
-1, ,-63, ,
1, ,-63, ,
1, ,-63, ,
-1, ,-63, ,
1, ,-63, ,
1, ,-63, ,
-1, ,-63, ,
1, ,-63, ,
1, ,-62, ,
-1, ,-62, ,
2, ,-63, ,
-1, ,-62, ,
-1, ,-63, ,
1, ,-63, ,
1, ,-62, ,
-1, ,-63, ,
1, ,-63, ,
-1, ,-63, ,
-1, ,-63, ,
1, ,-63, ,
1, ,-62, ,
1, ,-62, ,
80, ,-63, ,
50, ,-63, ,
30, ,-62, ,
18, ,-63, ,
11, ,-62, ,
7, ,-63, ,
6, ,-63, ,
3, ,-63, ,
2, ,-63, ,
3, ,-63, ,
2, ,-62, ,
1, ,-63, ,
3, ,-63, ,
2, ,-63, ,
2, ,-63, ,
3, ,-63, ,
2, ,-62, ,
1, ,-62, ,
3, ,-62, ,
2, ,-63, ,
1, ,-63, ,
3, ,-63, ,
3, ,-62, ,
1, ,-63, ,
5, ,-63, ,
2, ,-63, ,
2, ,-63, ,
3, ,-63, ,
2, ,-62, ,
1, ,-63, ,
3, ,-63, ,
2, ,-63, ,
1, ,-63, ,
2, ,-63, ,
2, ,-62, ,
1, ,-63, ,
3, ,-63, ,
1, ,-63, ,
1, ,-62, ,
3, ,-63, ,
3, ,-62, ,
1, ,-63, ,
3, ,-63, ,
2, ,-63, ,
1, ,-63, ,
3, ,-63, ,
2, ,-62, ,
1, ,-62, ,
3, ,-63, ,
2, ,-63, ,
1, ,-63, ,
2, ,-63, ,
2, ,-62, ,
1, ,-63, ,
3, ,-62, ,
2, ,-63, ,
1, ,-63, ,
2, ,-63, ,
3, ,-62, ,
1, ,-62, ,
5, ,-63, ,
1, ,-63, ,
1, ,-63, ,
3, ,-63, ,
2, ,-62, ,
1, ,-62, ,
3, ,-63, ,
1, ,-63, ,
1, ,-62, ,
2, ,-63, ,
2, ,-62, ,
1, ,-62, ,
3, ,-63, ,
2, ,-63, ,
2, ,-62, ,
2, ,-63, ,
2, ,-62, ,
1, ,-62, ,
3, ,-63, ,
2, ,-63, ,
1, ,-63, ,
2, ,-63, ,
2, ,-62, ,
1, ,-63, ,
3, ,-63, ,
2, ,-62, ,
1, ,-63, ,
2, ,-63, ,
2, ,-62, ,
1, ,-63, ,
3, ,-62, ,
2, ,-62, ,
1, ,-63, ,
2, ,-63, ,
2, ,-62, ,
1, ,-63, ,
3, ,-63, ,
2, ,-63, ,
1, ,-62, ,
2, ,-63, ,
2, ,-62, ,
1, ,-62, ,
3, ,-63, ,
2, ,-63, ,
1, ,-62, ,
2, ,-63, ,
2, ,-62, ,
1, ,-63, ,
3, ,-63, ,
1, ,-63, ,
2, ,-62, ,
2, ,-63, ,
2, ,-63, ,
1, ,-62, ,
3, ,-63, ,
1, ,-63, ,
1, ,-63, ,
2, ,-63, ,
2, ,-63, ,
1, ,-62, ,
3, ,-63, ,
2, ,-63, ,
1, ,-62, ,
2, ,-63, ,
2, ,-62, ,
1, ,-62, ,
3, ,-63, ,
1, ,-63, ,
1, ,-62, ,
2, ,-63, ,
2, ,-62, ,
1, ,-63, ,
3, ,-63, ,
2, ,-63, ,
1, ,-63, ,
2, ,-63, ,
2, ,-62, ,
1, ,-63, ,
3, ,-62, ,
1, ,-63, ,
1, ,-63, ,
2, ,-63, ,
2, ,-62, ,
1, ,-62, ,
3, ,-63, ,
1, ,-63, ,
1, ,-63, ,
2, ,-63, ,
2, ,-62, ,
1, ,-63, ,
3, ,-63, ,
1, ,-63, ,
1, ,-63, ,
2, ,-63, ,
2, ,-62, ,
1, ,-62, ,
3, ,-63, ,
1, ,-62, ,
1, ,-62, ,
2, ,-63, ,
2, ,-62, ,
1, ,-63, ,
3, ,-63, ,
2, ,-63, ,
1, ,-63, ,
2, ,-63, ,
2, ,-62, ,
1, ,-63, ,
3, ,-63, ,
1, ,-63, ,
1, ,-62, ,
2, ,-63, ,
2, ,-62, ,
1, ,-62, ,
3, ,-62, ,
1, ,-63, ,
1, ,-63, ,
2, ,-63, ,
2, ,-62, ,
1, ,-63, ,
3, ,-63, ,
1, ,-63, ,
1, ,-62, ,
2, ,-63, ,
2, ,-62, ,
1, ,-63, ,
3, ,-63, ,
1, ,-63, ,
1, ,-63, ,
2, ,-63, ,
2, ,-62, ,
1, ,-63, ,
2, ,-63, ,
1, ,-63, ,
1, ,-62, ,
2, ,-63, ,
2, ,-63, ,
1, ,-63, ,
3, ,-63, ,
1, ,-63, ,
1, ,-63, ,
2, ,-63, ,
2, ,-62, ,
1, ,-63, ,
3, ,-63, ,
1, ,-63, ,
1, ,-63, ,
2, ,-63, ,
2, ,-63, ,
1, ,-63, ,
3, ,-63, ,
1, ,-63, ,
1, ,-63, ,
2, ,-63, ,
2, ,-62, ,
-1, ,-63, ,
2, ,-63, ,
1, ,-63, ,
1, ,-62, ,
2, ,-63, ,
2, ,-62, ,
-1, ,-63, ,
2, ,-63, ,
2, ,-63, ,
1, ,-62, ,
2, ,-63, ,
2, ,-62, ,
-1, ,-62, ,
3, ,-63, ,
1, ,-63, ,
1, ,-62, ,
2, ,-63, ,
2, ,-62, ,
-1, ,-62, ,
2, ,-62, ,
2, ,-62, ,
1, ,-62, ,
2, ,-63, ,
2, ,-62, ,
-1, ,-62, ,
2, ,-63, ,
1, ,-63, ,
1, ,-62, ,
2, ,-63, ,
2, ,-63, ,
1, ,-62, ,
2, ,-63, ,
1, ,-63, ,
1, ,-63, ,
2, ,-63, ,
2, ,-62, ,
1, ,-62, ,
3, ,-63, ,
1, ,-62, ,
1, ,-62, ,
2, ,-63, ,
2, ,-63, ,
-1, ,-63, ,
2, ,-63, ,
1, ,-63, ,
1, ,-63, ,
2, ,-64, ,
2, ,-62, ,
1, ,-62, ,
2, ,-63, ,
1, ,-63, ,
1, ,-62, ,
2, ,-63, ,
2, ,-63, ,
-1, ,-62, ,
2, ,-63, ,
1, ,-63, ,
1, ,-62, ,
2, ,-63, ,
2, ,-62, ,
-1, ,-63, ,
2, ,-63, ,
1, ,-63, ,
1, ,-63, ,
2, ,-63, ,
2, ,-62, ,
-1, ,-63, ,
2, ,-63, ,
1, ,-63, ,
-1, ,-63, ,
2, ,-63, ,
2, ,-62, ,
-1, ,-63, ,
3, ,-63, ,
1, ,-63, ,
1, ,-62, ,
2, ,-63, ,
2, ,-63, ,
-1, ,-62, ,
2, ,-63, ,
1, ,-63, ,
-1, ,-63, ,
2, ,-63, ,
2, ,-62, ,
-1, ,-62, ,
2, ,-63, ,
1, ,-63, ,
1, ,-62, ,
2, ,-63, ,
2, ,-63, ,
-1, ,-63, ,
2, ,-63, ,
1, ,-63, ,
-1, ,-63, ,
2, ,-63, ,
2, ,-62, ,
-1, ,-63, ,
2, ,-63, ,
1, ,-63, ,
1, ,-62, ,
2, ,-63, ,
2, ,-62, ,
-1, ,-63, ,
2, ,-63, ,
1, ,-63, ,
1, ,-63, ,
2, ,-63, ,
2, ,-62, ,
-1, ,-62, ,
2, ,-63, ,
1, ,-63, ,
1, ,-62, ,
1, ,-63, ,
1, ,-62, ,
-1, ,-63, ,
2, ,-63, ,
1, ,-63, ,
-1, ,-63, ,
2, ,-64, ,
1, ,-62, ,
-1, ,-62, ,
2, ,-63, ,
1, ,-63, ,
1, ,-63, ,
2, ,-63, ,
2, ,-62, ,
-1, ,-63, ,
2, ,-63, ,
1, ,-63, ,
1, ,-63, ,
2, ,-63, ,
2, ,-62, ,
-1, ,-63, ,
2, ,-63, ,
1, ,-63, ,
1, ,-63, ,
2, ,-63, ,
2, ,-63, ,
-1, ,-63, ,
2, ,-63, ,
1, ,-63, ,
-1, ,-63, ,
2, ,-63, ,
2, ,-62, ,
-1, ,-63, ,
2, ,-63, ,
1, ,-62, ,
1, ,-62, ,
2, ,-63, ,
1, ,-62, ,
-1, ,-63, ,
2, ,-63, ,
1, ,-63, ,
1, ,-63, ,
1, ,-63, ,
2, ,-62, ,
-1, ,-62, ,
2, ,-63, ,
1, ,-63, ,
1, ,-63, ,
2, ,-63, ,
1, ,-63, ,
-1, ,-63, ,
2, ,-63, ,
1, ,-63, ,
-1, ,-63, ,
1, ,-63, ,
2, ,-62, ,
-1, ,-62, ,
2, ,-63, ,
1, ,-63, ,
1, ,-63, ,
1, ,-63, ,
1, ,-63, ,
-1, ,-63, ,
2, ,-63, ,
1, ,-63, ,
-1, ,-63, ,
2, ,-63, ,
2, ,-63, ,
-1, ,-63, ,
2, ,-63, ,
1, ,-63, ,
1, ,-62, ,
1, ,-63, ,
1, ,-62, ,
-1, ,-63, ,
2, ,-63, ,
1, ,-63, ,
-1, ,-62, ,
1, ,-64, ,
1, ,-62, ,
-1, ,-63, ,
2, ,-63, ,
1, ,-63, ,
1, ,-63, ,
1, ,-63, ,
1, ,-63, ,
-1, ,-63, ,
2, ,-63, ,
1, ,-63, ,
-1, ,-63, ,
1, ,-63, ,
1, ,-62, ,
-1, ,-63, ,
2, ,-63, ,
1, ,-63, ,
1, ,-63, ,
2, ,-63, ,
1, ,-63, ,
-1, ,-63, ,
2, ,-63, ,
1, ,-63, ,
-1, ,-63, ,
1, ,-63, ,
2, ,-62, ,
-1, ,-63, ,
2, ,-63, ,
1, ,-63, ,
1, ,-62, ,
2, ,-57, ,
1, ,-36, ,
-1, ,-19, ,
2, ,-6, ,
1, ,3, ,
-1, ,11, ,
2, ,16, ,
1, ,19, ,
-1, ,22, ,
2, ,24, ,
1, ,26, ,
1, ,27, ,
1, ,28, ,
1, ,28, ,
-1, ,30, ,
2, ,30, ,
1, ,30, ,
-1, ,30, ,
2, ,31, ,
1, ,31, ,
-1, ,31, ,
2, ,31, ,
1, ,31, ,
-1, ,31, ,
2, ,31, ,
1, ,31, ,
-1, ,31, ,
2, ,31, ,
1, ,31, ,
-1, ,31, ,
2, ,31, ,
1, ,31, ,
-1, ,31, ,
2, ,31, ,
1, ,31, ,
1, ,30, ,
2, ,31, ,
1, ,30, ,
-1, ,31, ,
1, ,30, ,
1, ,30, ,
-1, ,31, ,
1, ,30, ,
1, ,31, ,
-1, ,30, ,
2, ,30, ,
1, ,31, ,
-1, ,30, ,
2, ,31, ,
1, ,30, ,
-1, ,30, ,
2, ,30, ,
-1, ,30, ,
-1, ,30, ,
2, ,30, ,
1, ,30, ,
-1, ,30, ,
2, ,30, ,
1, ,30, ,
-1, ,30, ,
2, ,31, ,
1, ,30, ,
-1, ,30, ,
2, ,30, ,
1, ,30, ,
-1, ,30, ,
2, ,30, ,
1, ,30, ,
-1, ,30, ,
2, ,30, ,
1, ,31, ,
-1, ,30, ,
2, ,30, ,
1, ,30, ,
-1, ,30, ,
2, ,30, ,
1, ,31, ,
-1, ,30, ,
2, ,30, ,
1, ,30, ,
-1, ,30, ,
1, ,30, ,
1, ,31, ,
-1, ,30, ,
2, ,30, ,
1, ,30, ,
-1, ,30, ,
2, ,30, ,
1, ,30, ,
-1, ,30, ,
2, ,30, ,
1, ,30, ,
-1, ,30, ,
1, ,30, ,
1, ,30, ,
-1, ,30, ,
2, ,30, ,
1, ,30, ,
-1, ,30, ,
2, ,30, ,
1, ,30, ,
-1, ,30, ,
2, ,30, ,
1, ,30, ,
-1, ,30, ,
2, ,30, ,
-1, ,30, ,
-1, ,30, ,
2, ,31, ,
1, ,30, ,
-1, ,30, ,
2, ,30, ,
-1, ,30, ,
-1, ,30, ,
2, ,30, ,
1, ,30, ,
-1, ,30, ,
1, ,30, ,
-1, ,31, ,
-1, ,30, ,
1, ,30, ,
-1, ,30, ,
-1, ,30, ,
1, ,30, ,
1, ,30, ,
-1, ,30, ,
1, ,30, ,
1, ,30, ,
-1, ,30, ,
2, ,30, ,
-1, ,31, ,
-1, ,30, ,
1, ,30, ,
-1, ,30, ,
-1, ,30, ,
1, ,30, ,
-1, ,30, ,
-1, ,30, ,
1, ,30, ,
1, ,30, ,
-1, ,30, ,
1, ,30, ,
-1, ,30, ,
-1, ,30, ,
2, ,30, ,
1, ,30, ,
-1, ,31, ,
2, ,30, ,
-1, ,30, ,
-1, ,30, ,
2, ,30, ,
1, ,30, ,
-1, ,30, ,
2, ,30, ,
-1, ,28, ,
-1, ,12, ,
1, ,-7, ,
-1, ,-21, ,
-1, ,-33, ,
1, ,-41, ,
-1, ,-46, ,
-1, ,-51, ,
1, ,-55, ,
1, ,-56, ,
-1, ,-59, ,
2, ,-60, ,
-1, ,-61, ,
-1, ,-61, ,
1, ,-63, ,
1, ,-62, ,
-1, ,-63, ,
2, ,-63, ,
-1, ,-63, ,
-1, ,-63, ,
2, ,-64, ,
1, ,-63, ,
-1, ,-63, ,
2, ,-64, ,
1, ,-63, ,
-1, ,-63, ,
2, ,-64, ,
1, ,-63, ,
-1, ,-63, ,
2, ,-64, ,
1, ,-63, ,
-1, ,-63, ,
1, ,-64, ,
1, ,-63, ,
-1, ,-63, ,
2, ,-64, ,
1, ,-63, ,
-1, ,-63, ,
2, ,-64, ,
1, ,-63, ,
-1, ,-63, ,
2, ,-63, ,
1, ,-63, ,
-1, ,-63, ,
1, ,-64, ,
1, ,-63, ,
-1, ,-63, ,
2, ,-64, ,
1, ,-63, ,
1, ,-63, ,
1, ,-63, ,
1, ,-63, ,
-1, ,-63, ,
2, ,-63, ,
1, ,-63, ,
-1, ,-63, ,
1, ,-63, ,
1, ,-62, ,
-1, ,-63, ,
2, ,-63, ,
1, ,-63, ,
-1, ,-63, ,
1, ,-63, ,
1, ,-63, ,
-1, ,-63, ,
2, ,-63, ,
1, ,-63, ,
-1, ,-63, ,
1, ,-63, ,
1, ,-62, ,
-1, ,-63, ,
2, ,-63, ,
1, ,-63, ,
-1, ,-62, ,
1, ,-63, ,
1, ,-63, ,
-1, ,-63, ,
2, ,-63, ,
1, ,-63, ,
-1, ,-63, ,
1, ,-63, ,
1, ,-62, ,
-1, ,-63, ,
2, ,-63, ,
1, ,-63, ,
-1, ,-63, ,
1, ,-63, ,
1, ,-62, ,
-1, ,-63, ,
2, ,-63, ,
1, ,-63, ,
-1, ,-63, ,
1, ,-63, ,
1, ,-63, ,
-1, ,-63, ,
2, ,-63, ,
1, ,-63, ,
-1, ,-62, ,
1, ,-63, ,
1, ,-63, ,
-1, ,-63, ,
1, ,-63, ,
1, ,-63, ,
-1, ,-63, ,
1, ,-63, ,
1, ,-62, ,
-1, ,-63, ,
2, ,-63, ,
1, ,-63, ,
-1, ,-62, ,
1, ,-63, ,
1, ,-63, ,
-1, ,-63, ,
2, ,-63, ,
1, ,-63, ,
-1, ,-63, ,
1, ,-63, ,
1, ,-62, ,
-1, ,-63, ,
2, ,-64, ,
-1, ,-63, ,
-1, ,-62, ,
1, ,-63, ,
-1, ,-62, ,
-2, ,-63, ,
1, ,-63, ,
-1, ,-63, ,
-1, ,-63, ,
1, ,-64, ,
1, ,-62, ,
-1, ,-63, ,
2, ,-63, ,
-1, ,-63, ,
-1, ,-62, ,
1, ,-63, ,
1, ,-62, ,
-1, ,-63, ,
2, ,-63, ,
-1, ,-63, ,
-1, ,-63, ,
1, ,-63, ,
1, ,-62, ,
-1, ,-63, ,
2, ,-63, ,
1, ,-63, ,
-1, ,-63, ,
1, ,-63, ,
1, ,-63, ,
-1, ,-63, ,
2, ,-63, ,
-1, ,-63, ,
-1, ,-63, ,
1, ,-63, ,
1, ,-62, ,
-1, ,-63, ,
2, ,-63, ,
-1, ,-63, ,
-1, ,-63, ,
1, ,-63, ,
1, ,-62, ,
-1, ,-63, ,
1, ,-63, ,
1, ,-63, ,
-1, ,-63, ,
1, ,-63, ,
1, ,-62, ,
-1, ,-62, ,
2, ,-63, ,
1, ,-63, ,
-1, ,-62, ,
1, ,-63, ,
1, ,-62, ,
-1, ,-63, ,
1, ,-63, ,
1, ,-63, ,
-1, ,-63, ,
1, ,-63, ,
1, ,-62, ,
-1, ,-63, ,
2, ,-63, ,
1, ,-63, ,
-1, ,-63, ,
1, ,-63, ,
1, ,-63, ,
-1, ,-63, ,
2, ,-63, ,
-1, ,-63, ,
-1, ,-63, ,
1, ,-63, ,
1, ,-62, ,
-1, ,-63, ,
2, ,-63, ,
-1, ,-63, ,
-1, ,-62, ,
1, ,-63, ,
1, ,-62, ,
-1, ,-62, ,
2, ,-63, ,
-1, ,-63, ,
-1, ,-63, ,
1, ,-63, ,
1, ,-62, ,
-1, ,-63, ,
2, ,-63, ,
1, ,-63, ,
-1, ,-63, ,
1, ,-63, ,
1, ,-63, ,
-1, ,-63, ,
2, ,-63, ,
1, ,-63, ,
-1, ,-63, ,
1, ,-63, ,
1, ,-62, ,
-1, ,-63, ,
2, ,-63, ,
-1, ,-63, ,
-1, ,-62, ,
1, ,-63, ,
1, ,-62, ,
-1, ,-63, ,
1, ,-63, ,
-1, ,-63, ,
-1, ,-63, ,
1, ,-63, ,
1, ,-62, ,
-1, ,-63, ,
2, ,-63, ,
1, ,-63, ,
-1, ,-63, ,
1, ,-63, ,
1, ,-62, ,
-1, ,-63, ,
1, ,-63, ,
-1, ,-63, ,
-1, ,-63, ,
1, ,-63, ,
1, ,-62, ,
-1, ,-63, ,
2, ,-63, ,
-1, ,-62, ,
-1, ,-63, ,
1, ,-63, ,
1, ,-62, ,
-1, ,-63, ,
1, ,-63, ,
-1, ,-63, ,
-1, ,-62, ,
1, ,-63, ,
1, ,-62, ,
-1, ,-63, ,
2, ,-63, ,
-1, ,-63, ,
-1, ,-62, ,
1, ,-63, ,
1, ,-62, ,
-1, ,-63, ,
1, ,-63, ,
-1, ,-63, ,
-1, ,-63, ,
1, ,-63, ,
1, ,-62, ,
-2, ,-63, ,
1, ,-63, ,
-1, ,-63, ,
-1, ,-62, ,
1, ,-63, ,
-1, ,-62, ,
-1, ,-63, ,
2, ,-63, ,
1, ,-63, ,
-1, ,-63, ,
1, ,-63, ,
1, ,-62, ,
-1, ,-63, ,
2, ,-63, ,
-1, ,-63, ,
-1, ,-62, ,
1, ,-63, ,
1, ,-62, ,
-1, ,-63, ,
1, ,-63, ,
-1, ,-63, ,
-1, ,-63, ,
1, ,-63, ,
1, ,-62, ,
-1, ,-63, ,
2, ,-63, ,
-1, ,-63, ,
-1, ,-62, ,
1, ,-63, ,
1, ,-62, ,
-1, ,-63, ,
2, ,-63, ,
-1, ,-63, ,
-1, ,-63, ,
1, ,-63, ,
1, ,-62, ,
-1, ,-63, ,
2, ,-63, ,
1, ,-63, ,
-1, ,-62, ,
1, ,-63, ,
1, ,-62, ,
-1, ,-63, ,
2, ,-62, ,
-1, ,-63, ,
-1, ,-62, ,
1, ,-63, ,
1, ,-62, ,
-1, ,-63, ,
2, ,-63, ,
-1, ,-63, ,
-1, ,-63, ,
1, ,-63, ,
1, ,-62, ,
-1, ,-63, ,
2, ,-63, ,
-1, ,-63, ,
-1, ,-62, ,
1, ,-63, ,
1, ,-62, ,
-1, ,-63, ,
2, ,-63, ,
1, ,-63, ,
-1, ,-62, ,
1, ,-63, ,
1, ,-62, ,
-1, ,-63, ,
2, ,-63, ,
1, ,-63, ,
-1, ,-63, ,
1, ,-63, ,
1, ,-62, ,
-1, ,-62, ,
2, ,-63, ,
-1, ,-62, ,
-1, ,-62, ,
1, ,-63, ,
1, ,-62, ,
-1, ,-63, ,
2, ,-63, ,
1, ,-63, ,
-1, ,-63, ,
1, ,-63, ,
1, ,-62, ,
-1, ,-63, ,
2, ,-63, ,
-1, ,-63, ,
-1, ,-62, ,
1, ,-63, ,
1, ,-62, ,
-1, ,-63, ,
2, ,-63, ,
-1, ,-63, ,
-1, ,-63, ,
1, ,-63, ,
1, ,-62, ,
-1, ,-63, ,
2, ,-63, ,
-1, ,-63, ,
-1, ,-63, ,
1, ,-63, ,
1, ,-62, ,
-1, ,-63, ,
1, ,-63, ,
-1, ,-63, ,
-1, ,-63, ,
1, ,-63, ,
1, ,-62, ,
-1, ,-63, ,
2, ,-63, ,
-1, ,-63, ,
-1, ,-63, ,
1, ,-63, ,
1, ,-62, ,
-1, ,-63, ,
2, ,-63, ,
-1, ,-63, ,
-1, ,-63, ,
1, ,-63, ,
1, ,-62, ,
-1, ,-63, ,
2, ,-63, ,
-1, ,-63, ,
-1, ,-62, ,
1, ,-63, ,
1, ,-62, ,
-1, ,-63, ,
1, ,-63, ,
-1, ,-63, ,
-1, ,-63, ,
1, ,-63, ,
1, ,-62, ,
-1, ,-62, ,
2, ,-63, ,
-1, ,-63, ,
-1, ,-62, ,
1, ,-63, ,
1, ,-62, ,
-1, ,-63, ,
1, ,-63, ,
-1, ,-63, ,
-1, ,-63, ,
1, ,-63, ,
1, ,-62, ,
-1, ,-63, ,
2, ,-63, ,
-1, ,-63, ,
-1, ,-62, ,
1, ,-63, ,
1, ,-62, ,
-1, ,-62, ,
1, ,-63, ,
-1, ,-63, ,
-1, ,-63, ,
1, ,-63, ,
1, ,-62, ,
-1, ,-62, ,
2, ,-63, ,
1, ,-63, ,
-1, ,-63, ,
1, ,-63, ,
1, ,-62, ,
-1, ,-63, ,
1, ,-63, ,
-1, ,-63, ,
-1, ,-62, ,
1, ,-63, ,
1, ,-62, ,
-1, ,-63, ,
2, ,-63, ,
-1, ,-63, ,
-1, ,-63, ,
1, ,-63, ,
1, ,-62, ,
-1, ,-63, ,
2, ,-63, ,
-1, ,-63, ,
-1, ,-63, ,
1, ,-63, ,
1, ,-62, ,
-1, ,-63, ,
2, ,-63, ,
-1, ,-63, ,
-1, ,-63, ,
1, ,-63, ,
1, ,-62, ,
-1, ,-63, ,
2, ,-63, ,
1, ,-63, ,
-1, ,-63, ,
1, ,-63, ,
-1, ,-62, ,
-1, ,-63, ,
2, ,-63, ,
-1, ,-62, ,
