src/varyamp_1560/temp0001709.CSV

Format,1.0B,
Memory Length,10000,Memory Length,10000,
IntpDistance,0,IntpDistance,0,
Trigger Address,4999,Trigger Address,4999,
Trigger Level,1.040E+00,Trigger Level,1.040E+00,
Source,CH1,Source,CH2,
Vertical Units,V,Vertical Units,V,
Vertical Units Div,0,Vertical Units Div,0,
Vertical Units Extend Div,16,Vertical Units Extend Div,16,
Label,,Label,,
Probe Type,0,Probe Type,0,
Probe Ratio,1.000e+01,Probe Ratio,1.000e+00,
Vertical Scale,5.000e-01,Vertical Scale,1.000e+00,
Vertical Position,-1.820e+00,Vertical Position,0.000e+00,
Horizontal Units,S,Horizontal Units,S,
Horizontal Scale,2.000E-05,Horizontal Scale,2.000E-05,
Horizontal Position,0.000E+00,Horizontal Position,0.000E+00,
Horizontal Mode,Main,Horizontal Mode,Main,
SincET Mode,Real Time,SincET Mode,Real Time,
Sampling Period,2.000e-08,Sampling Period,2.000e-08,
Horizontal Old Scale,2.000E-05,Horizontal Old Scale,2.000E-05,
Horizontal Old Position,0.000E+00,Horizontal Old Position,0.000E+00,
Firmware,V1.23,Firmware,V1.23,
Mode,Fast,Mode,Fast,
Waveform Data,,Waveform Data,,
3, ,-54, ,
1, ,-55, ,
3, ,-53, ,
2, ,-54, ,
2, ,-55, ,
2, ,-54, ,
3, ,-54, ,
1, ,-55, ,
3, ,-54, ,
2, ,-54, ,
2, ,-55, ,
3, ,-54, ,
3, ,-54, ,
1, ,-55, ,
3, ,-53, ,
2, ,-54, ,
2, ,-55, ,
2, ,-54, ,
3, ,-54, ,
1, ,-55, ,
3, ,-53, ,
2, ,-54, ,
2, ,-55, ,
2, ,-54, ,
3, ,-54, ,
1, ,-55, ,
3, ,-53, ,
2, ,-54, ,
2, ,-55, ,
2, ,-54, ,
3, ,-54, ,
1, ,-55, ,
3, ,-54, ,
2, ,-55, ,
2, ,-55, ,
2, ,-54, ,
2, ,-54, ,
1, ,-55, ,
3, ,-53, ,
2, ,-54, ,
2, ,-55, ,
2, ,-54, ,
3, ,-54, ,
1, ,-55, ,
3, ,-54, ,
2, ,-54, ,
2, ,-55, ,
2, ,-54, ,
2, ,-54, ,
1, ,-55, ,
3, ,-53, ,
2, ,-54, ,
2, ,-55, ,
2, ,-54, ,
2, ,-54, ,
1, ,-55, ,
2, ,-54, ,
2, ,-54, ,
2, ,-55, ,
2, ,-54, ,
2, ,-54, ,
1, ,-55, ,
2, ,-54, ,
1, ,-54, ,
2, ,-55, ,
2, ,-54, ,
2, ,-54, ,
1, ,-55, ,
3, ,-54, ,
1, ,-55, ,
2, ,-55, ,
2, ,-54, ,
2, ,-54, ,
1, ,-55, ,
3, ,-54, ,
1, ,-54, ,
1, ,-54, ,
2, ,-54, ,
2, ,-54, ,
1, ,-55, ,
2, ,-53, ,
2, ,-55, ,
2, ,-55, ,
2, ,-54, ,
2, ,-54, ,
1, ,-55, ,
2, ,-54, ,
1, ,-54, ,
1, ,-55, ,
2, ,-54, ,
2, ,-54, ,
1, ,-55, ,
2, ,-54, ,
1, ,-54, ,
2, ,-55, ,
2, ,-54, ,
2, ,-54, ,
1, ,-55, ,
2, ,-53, ,
2, ,-54, ,
2, ,-54, ,
2, ,-54, ,
2, ,-54, ,
1, ,-55, ,
2, ,-53, ,
1, ,-54, ,
1, ,-55, ,
2, ,-54, ,
2, ,-54, ,
1, ,-55, ,
2, ,-53, ,
2, ,-54, ,
1, ,-55, ,
2, ,-54, ,
2, ,-54, ,
1, ,-55, ,
3, ,-54, ,
1, ,-54, ,
1, ,-55, ,
2, ,-54, ,
2, ,-54, ,
1, ,-55, ,
2, ,-53, ,
1, ,-54, ,
2, ,-54, ,
2, ,-54, ,
2, ,-54, ,
1, ,-55, ,
2, ,-54, ,
1, ,-54, ,
2, ,-54, ,
2, ,-54, ,
2, ,-54, ,
1, ,-55, ,
2, ,-53, ,
1, ,-54, ,
2, ,-55, ,
2, ,-54, ,
2, ,-54, ,
1, ,-55, ,
2, ,-54, ,
1, ,-54, ,
1, ,-55, ,
2, ,-54, ,
2, ,-54, ,
1, ,-55, ,
2, ,-53, ,
1, ,-54, ,
2, ,-54, ,
2, ,-54, ,
2, ,-54, ,
1, ,-55, ,
2, ,-53, ,
1, ,-54, ,
2, ,-54, ,
2, ,-54, ,
2, ,-54, ,
1, ,-55, ,
2, ,-53, ,
1, ,-54, ,
2, ,-55, ,
2, ,-54, ,
2, ,-54, ,
1, ,-55, ,
2, ,-54, ,
1, ,-54, ,
1, ,-54, ,
2, ,-54, ,
2, ,-54, ,
1, ,-55, ,
2, ,-53, ,
1, ,-54, ,
1, ,-55, ,
2, ,-54, ,
2, ,-54, ,
1, ,-55, ,
2, ,-54, ,
1, ,-55, ,
1, ,-55, ,
2, ,-54, ,
2, ,-54, ,
1, ,-55, ,
2, ,-53, ,
1, ,-54, ,
1, ,-54, ,
2, ,-54, ,
2, ,-54, ,
1, ,-55, ,
2, ,-54, ,
1, ,-54, ,
1, ,-55, ,
2, ,-54, ,
2, ,-54, ,
1, ,-55, ,
2, ,-53, ,
1, ,-54, ,
1, ,-55, ,
2, ,-54, ,
2, ,-54, ,
1, ,-55, ,
2, ,-53, ,
1, ,-55, ,
1, ,-55, ,
2, ,-54, ,
2, ,-54, ,
1, ,-55, ,
2, ,-53, ,
1, ,-54, ,
2, ,-55, ,
2, ,-54, ,
2, ,-54, ,
1, ,-55, ,
2, ,-54, ,
1, ,-54, ,
1, ,-55, ,
2, ,-54, ,
2, ,-55, ,
-1, ,-55, ,
2, ,-53, ,
1, ,-54, ,
1, ,-55, ,
2, ,-54, ,
2, ,-54, ,
1, ,-55, ,
2, ,-54, ,
1, ,-55, ,
1, ,-55, ,
2, ,-54, ,
2, ,-54, ,
1, ,-55, ,
2, ,-53, ,
1, ,-54, ,
1, ,-55, ,
1, ,-54, ,
2, ,-54, ,
-1, ,-55, ,
2, ,-53, ,
1, ,-54, ,
1, ,-55, ,
2, ,-54, ,
2, ,-54, ,
1, ,-55, ,
2, ,-53, ,
2, ,-54, ,
1, ,-55, ,
2, ,-54, ,
2, ,-54, ,
1, ,-55, ,
2, ,-54, ,
1, ,-55, ,
1, ,-55, ,
2, ,-54, ,
1, ,-54, ,
-1, ,-55, ,
2, ,-53, ,
1, ,-54, ,
2, ,-55, ,
2, ,-54, ,
2, ,-54, ,
-1, ,-55, ,
2, ,-53, ,
1, ,-54, ,
1, ,-55, ,
2, ,-54, ,
2, ,-54, ,
-1, ,-55, ,
2, ,-53, ,
1, ,-54, ,
1, ,-55, ,
2, ,-54, ,
2, ,-54, ,
1, ,-55, ,
2, ,-53, ,
1, ,-54, ,
1, ,-55, ,
2, ,-54, ,
2, ,-54, ,
-1, ,-55, ,
2, ,-53, ,
1, ,-54, ,
1, ,-55, ,
2, ,-54, ,
2, ,-54, ,
1, ,-55, ,
2, ,-53, ,
1, ,-54, ,
1, ,-55, ,
1, ,-54, ,
1, ,-54, ,
1, ,-55, ,
2, ,-53, ,
1, ,-54, ,
1, ,-54, ,
2, ,-54, ,
2, ,-54, ,
-1, ,-55, ,
2, ,-54, ,
1, ,-54, ,
1, ,-55, ,
2, ,-54, ,
2, ,-54, ,
-1, ,-55, ,
2, ,-53, ,
1, ,-54, ,
1, ,-53, ,
1, ,-35, ,
1, ,-16, ,
1, ,-1, ,
2, ,8, ,
1, ,17, ,
1, ,22, ,
2, ,27, ,
2, ,31, ,
1, ,33, ,
2, ,34, ,
1, ,36, ,
1, ,37, ,
2, ,38, ,
1, ,38, ,
-1, ,39, ,
2, ,38, ,
1, ,39, ,
1, ,39, ,
2, ,39, ,
1, ,39, ,
1, ,40, ,
2, ,39, ,
1, ,39, ,
1, ,39, ,
1, ,39, ,
1, ,39, ,
1, ,40, ,
2, ,38, ,
1, ,39, ,
1, ,39, ,
1, ,39, ,
1, ,39, ,
1, ,39, ,
2, ,39, ,
1, ,39, ,
1, ,39, ,
2, ,39, ,
2, ,39, ,
1, ,39, ,
2, ,38, ,
2, ,39, ,
1, ,39, ,
2, ,39, ,
1, ,39, ,
1, ,39, ,
2, ,38, ,
1, ,39, ,
1, ,39, ,
2, ,39, ,
1, ,39, ,
1, ,39, ,
2, ,38, ,
1, ,39, ,
1, ,39, ,
2, ,39, ,
1, ,39, ,
1, ,39, ,
2, ,38, ,
1, ,39, ,
1, ,39, ,
2, ,38, ,
1, ,39, ,
-1, ,39, ,
2, ,38, ,
1, ,39, ,
1, ,39, ,
2, ,39, ,
1, ,38, ,
-1, ,39, ,
2, ,38, ,
1, ,39, ,
1, ,39, ,
1, ,39, ,
1, ,39, ,
-1, ,39, ,
2, ,38, ,
1, ,39, ,
1, ,39, ,
1, ,39, ,
1, ,38, ,
-1, ,39, ,
1, ,38, ,
1, ,39, ,
1, ,39, ,
1, ,38, ,
1, ,39, ,
-1, ,39, ,
2, ,38, ,
1, ,39, ,
-1, ,39, ,
2, ,39, ,
1, ,38, ,
-1, ,39, ,
2, ,38, ,
1, ,39, ,
1, ,38, ,
1, ,38, ,
1, ,39, ,
-1, ,39, ,
2, ,38, ,
1, ,39, ,
1, ,39, ,
2, ,38, ,
1, ,38, ,
-1, ,39, ,
2, ,38, ,
1, ,39, ,
1, ,39, ,
2, ,38, ,
1, ,38, ,
-1, ,39, ,
2, ,38, ,
1, ,39, ,
-1, ,39, ,
1, ,39, ,
1, ,38, ,
-1, ,39, ,
2, ,38, ,
1, ,38, ,
1, ,39, ,
1, ,39, ,
1, ,39, ,
-1, ,39, ,
1, ,38, ,
1, ,39, ,
1, ,39, ,
1, ,38, ,
1, ,39, ,
-1, ,39, ,
2, ,38, ,
1, ,39, ,
1, ,39, ,
1, ,38, ,
1, ,38, ,
1, ,39, ,
2, ,38, ,
1, ,38, ,
1, ,39, ,
2, ,39, ,
1, ,38, ,
-1, ,39, ,
1, ,38, ,
1, ,39, ,
1, ,38, ,
2, ,38, ,
1, ,38, ,
-1, ,39, ,
1, ,38, ,
1, ,38, ,
1, ,39, ,
2, ,39, ,
1, ,39, ,
-1, ,39, ,
2, ,38, ,
1, ,27, ,
-1, ,7, ,
2, ,-8, ,
1, ,-20, ,
-1, ,-30, ,
2, ,-36, ,
1, ,-40, ,
1, ,-45, ,
2, ,-47, ,
1, ,-50, ,
-1, ,-51, ,
2, ,-51, ,
1, ,-53, ,
1, ,-54, ,
1, ,-54, ,
1, ,-54, ,
-1, ,-55, ,
2, ,-54, ,
-1, ,-55, ,
1, ,-55, ,
1, ,-54, ,
1, ,-55, ,
-1, ,-56, ,
2, ,-54, ,
1, ,-55, ,
-1, ,-55, ,
1, ,-54, ,
1, ,-55, ,
-1, ,-56, ,
2, ,-54, ,
-1, ,-55, ,
1, ,-55, ,
1, ,-55, ,
2, ,-54, ,
-1, ,-56, ,
2, ,-54, ,
1, ,-55, ,
1, ,-55, ,
2, ,-55, ,
1, ,-54, ,
-1, ,-55, ,
2, ,-54, ,
1, ,-54, ,
1, ,-55, ,
1, ,-54, ,
1, ,-55, ,
-1, ,-55, ,
2, ,-53, ,
-1, ,-54, ,
1, ,-55, ,
1, ,-54, ,
1, ,-54, ,
-1, ,-55, ,
2, ,-53, ,
-1, ,-54, ,
1, ,-55, ,
1, ,-54, ,
1, ,-55, ,
-1, ,-55, ,
2, ,-53, ,
1, ,-54, ,
-1, ,-55, ,
1, ,-54, ,
1, ,-54, ,
-1, ,-55, ,
2, ,-54, ,
-1, ,-55, ,
1, ,-55, ,
1, ,-54, ,
1, ,-54, ,
-1, ,-55, ,
2, ,-53, ,
-1, ,-54, ,
1, ,-55, ,
1, ,-54, ,
1, ,-54, ,
-1, ,-55, ,
1, ,-54, ,
-1, ,-55, ,
1, ,-55, ,
2, ,-54, ,
1, ,-54, ,
-1, ,-55, ,
2, ,-54, ,
-1, ,-54, ,
-1, ,-55, ,
1, ,-54, ,
1, ,-54, ,
-1, ,-55, ,
2, ,-54, ,
1, ,-54, ,
1, ,-55, ,
1, ,-54, ,
2, ,-54, ,
-1, ,-55, ,
2, ,-53, ,
1, ,-54, ,
1, ,-55, ,
2, ,-54, ,
1, ,-54, ,
-1, ,-55, ,
2, ,-54, ,
1, ,-54, ,
1, ,-55, ,
1, ,-54, ,
1, ,-54, ,
-1, ,-55, ,
2, ,-54, ,
1, ,-54, ,
1, ,-55, ,
1, ,-54, ,
2, ,-54, ,
-1, ,-55, ,
2, ,-54, ,
-1, ,-54, ,
1, ,-55, ,
2, ,-54, ,
2, ,-54, ,
-1, ,-55, ,
2, ,-53, ,
1, ,-54, ,
1, ,-55, ,
2, ,-54, ,
1, ,-54, ,
-1, ,-55, ,
2, ,-54, ,
1, ,-54, ,
1, ,-55, ,
1, ,-54, ,
1, ,-54, ,
-1, ,-55, ,
2, ,-53, ,
1, ,-54, ,
1, ,-55, ,
1, ,-54, ,
1, ,-54, ,
-1, ,-55, ,
1, ,-54, ,
1, ,-55, ,
1, ,-55, ,
1, ,-54, ,
1, ,-54, ,
-1, ,-55, ,
1, ,-53, ,
1, ,-54, ,
1, ,-55, ,
1, ,-54, ,
1, ,-54, ,
-1, ,-55, ,
2, ,-54, ,
-1, ,-54, ,
1, ,-55, ,
2, ,-54, ,
1, ,-54, ,
-1, ,-55, ,
1, ,-53, ,
1, ,-54, ,
-1, ,-55, ,
1, ,-54, ,
1, ,-54, ,
-1, ,-55, ,
2, ,-54, ,
1, ,-54, ,
1, ,-55, ,
2, ,-54, ,
1, ,-54, ,
-1, ,-55, ,
2, ,-53, ,
1, ,-54, ,
1, ,-54, ,
1, ,-54, ,
1, ,-54, ,
-1, ,-55, ,
2, ,-53, ,
-1, ,-54, ,
1, ,-55, ,
1, ,-54, ,
1, ,-54, ,
-1, ,-55, ,
2, ,-54, ,
1, ,-54, ,
1, ,-55, ,
1, ,-54, ,
1, ,-54, ,
-1, ,-55, ,
1, ,-54, ,
-1, ,-54, ,
1, ,-55, ,
1, ,-54, ,
1, ,-54, ,
-1, ,-55, ,
1, ,-53, ,
-1, ,-54, ,
-1, ,-55, ,
1, ,-54, ,
1, ,-54, ,
-1, ,-55, ,
1, ,-53, ,
-1, ,-54, ,
1, ,-55, ,
1, ,-54, ,
2, ,-54, ,
-1, ,-55, ,
2, ,-53, ,
-1, ,-54, ,
1, ,-55, ,
1, ,-54, ,
1, ,-54, ,
-1, ,-55, ,
2, ,-54, ,
-1, ,-54, ,
1, ,-55, ,
1, ,-54, ,
2, ,-54, ,
-1, ,-55, ,
1, ,-53, ,
-1, ,-54, ,
1, ,-55, ,
1, ,-54, ,
1, ,-54, ,
-1, ,-55, ,
2, ,-53, ,
-1, ,-54, ,
-1, ,-55, ,
1, ,-54, ,
1, ,-54, ,
-1, ,-55, ,
2, ,-53, ,
-1, ,-54, ,
-1, ,-55, ,
1, ,-54, ,
1, ,-54, ,
-1, ,-55, ,
1, ,-53, ,
-1, ,-54, ,
-1, ,-55, ,
1, ,-54, ,
2, ,-54, ,
-1, ,-55, ,
2, ,-53, ,
-1, ,-54, ,
1, ,-54, ,
1, ,-54, ,
1, ,-54, ,
-1, ,-55, ,
2, ,-54, ,
1, ,-54, ,
1, ,-55, ,
1, ,-54, ,
2, ,-54, ,
-1, ,-55, ,
1, ,-53, ,
1, ,-54, ,
1, ,-55, ,
1, ,-54, ,
1, ,-54, ,
-1, ,-55, ,
2, ,-53, ,
1, ,-54, ,
1, ,-55, ,
1, ,-54, ,
1, ,-54, ,
-1, ,-55, ,
2, ,-53, ,
1, ,-54, ,
1, ,-55, ,
1, ,-54, ,
1, ,-54, ,
-1, ,-55, ,
2, ,-54, ,
-1, ,-54, ,
1, ,-55, ,
1, ,-54, ,
1, ,-54, ,
-1, ,-55, ,
2, ,-54, ,
1, ,-54, ,
1, ,-55, ,
1, ,-54, ,
1, ,-54, ,
-1, ,-55, ,
1, ,-54, ,
-1, ,-54, ,
1, ,-54, ,
1, ,-54, ,
1, ,-55, ,
-1, ,-55, ,
2, ,-54, ,
-1, ,-54, ,
1, ,-54, ,
1, ,-54, ,
1, ,-54, ,
-1, ,-55, ,
2, ,-54, ,
-1, ,-54, ,
1, ,-54, ,
1, ,-54, ,
1, ,-54, ,
-1, ,-55, ,
1, ,-53, ,
-1, ,-54, ,
1, ,-55, ,
1, ,-54, ,
2, ,-54, ,
-1, ,-55, ,
1, ,-53, ,
-1, ,-54, ,
-1, ,-55, ,
1, ,-54, ,
1, ,-54, ,
-1, ,-55, ,
1, ,-53, ,
-1, ,-54, ,
1, ,-55, ,
1, ,-54, ,
1, ,-54, ,
-1, ,-55, ,
1, ,-54, ,
-1, ,-55, ,
-1, ,-55, ,
1, ,-54, ,
1, ,-54, ,
-1, ,-55, ,
1, ,-53, ,
-1, ,-55, ,
-1, ,-55, ,
1, ,-53, ,
1, ,-54, ,
-1, ,-55, ,
2, ,-54, ,
-1, ,-54, ,
-1, ,-55, ,
1, ,-54, ,
1, ,-54, ,
-1, ,-55, ,
2, ,-54, ,
-1, ,-54, ,
-1, ,-55, ,
1, ,-54, ,
1, ,-54, ,
-1, ,-55, ,
1, ,-54, ,
-1, ,-54, ,
-1, ,-55, ,
1, ,-54, ,
1, ,-54, ,
-1, ,-55, ,
1, ,-53, ,
-1, ,-55, ,
-1, ,-55, ,
1, ,-54, ,
1, ,-54, ,
-1, ,-55, ,
1, ,-54, ,
-1, ,-54, ,
1, ,-55, ,
1, ,-54, ,
1, ,-54, ,
-1, ,-55, ,
1, ,-53, ,
-1, ,-54, ,
-1, ,-55, ,
1, ,-53, ,
2, ,-54, ,
-1, ,-55, ,
2, ,-54, ,
-1, ,-54, ,
-1, ,-55, ,
1, ,-54, ,
1, ,-54, ,
-1, ,-55, ,
1, ,-54, ,
-1, ,-55, ,
1, ,-55, ,
1, ,-54, ,
1, ,-54, ,
-1, ,-55, ,
1, ,-54, ,
1, ,-54, ,
1, ,-55, ,
1, ,-54, ,
1, ,-54, ,
-1, ,-55, ,
1, ,-54, ,
-1, ,-54, ,
1, ,-55, ,
1, ,-54, ,
1, ,-54, ,
-1, ,-55, ,
1, ,-54, ,
-1, ,-54, ,
-1, ,-55, ,
1, ,-54, ,
1, ,-54, ,
-1, ,-55, ,
2, ,-54, ,
-1, ,-55, ,
1, ,-55, ,
1, ,-54, ,
2, ,-54, ,
-1, ,-55, ,
1, ,-54, ,
-1, ,-55, ,
-1, ,-55, ,
1, ,-54, ,
1, ,-55, ,
-1, ,-55, ,
1, ,-53, ,
-1, ,-55, ,
-1, ,-55, ,
1, ,-53, ,
1, ,-54, ,
-1, ,-55, ,
1, ,-53, ,
-1, ,-55, ,
1, ,-55, ,
1, ,-54, ,
1, ,-54, ,
-1, ,-55, ,
1, ,-54, ,
-1, ,-54, ,
-1, ,-55, ,
1, ,-54, ,
1, ,-54, ,
-1, ,-55, ,
1, ,-54, ,
-1, ,-54, ,
-1, ,-55, ,
1, ,-54, ,
1, ,-54, ,
-1, ,-55, ,
1, ,-53, ,
-1, ,-54, ,
-1, ,-55, ,
1, ,-53, ,
1, ,-54, ,
-1, ,-55, ,
1, ,-54, ,
-1, ,-54, ,
-1, ,-55, ,
1, ,-54, ,
1, ,-54, ,
-1, ,-55, ,
1, ,-53, ,
-1, ,-54, ,
-1, ,-55, ,
1, ,-54, ,
1, ,-54, ,
-1, ,-55, ,
1, ,-54, ,
-1, ,-54, ,
-1, ,-55, ,
1, ,-54, ,
1, ,-54, ,
-1, ,-55, ,
1, ,-53, ,
-1, ,-54, ,
-1, ,-55, ,
1, ,-54, ,
1, ,-54, ,
-1, ,-55, ,
2, ,-54, ,
-1, ,-54, ,
-1, ,-55, ,
1, ,-54, ,
1, ,-54, ,
-1, ,-55, ,
1, ,-53, ,
-1, ,-54, ,
-1, ,-55, ,
1, ,-53, ,
1, ,-54, ,
-1, ,-55, ,
1, ,-54, ,
-1, ,-55, ,
-1, ,-55, ,
1, ,-54, ,
1, ,-54, ,
-1, ,-55, ,
2, ,-54, ,
-1, ,-54, ,
-1, ,-55, ,
1, ,-54, ,
1, ,-54, ,
-1, ,-55, ,
1, ,-54, ,
-1, ,-54, ,
-1, ,-55, ,
1, ,-54, ,
1, ,-54, ,
-1, ,-55, ,
1, ,-54, ,
-1, ,-54, ,
1, ,-55, ,
1, ,-54, ,
1, ,-54, ,
-1, ,-55, ,
1, ,-54, ,
-1, ,-55, ,
-1, ,-55, ,
1, ,-54, ,
1, ,-54, ,
-1, ,-55, ,
1, ,-54, ,
-1, ,-54, ,
-1, ,-55, ,
1, ,-54, ,
1, ,-54, ,
-1, ,-55, ,
1, ,-54, ,
-1, ,-54, ,
-1, ,-55, ,
1, ,-54, ,
1, ,-54, ,
-1, ,-55, ,
1, ,-53, ,
-1, ,-55, ,
1, ,-55, ,
1, ,-54, ,
1, ,-54, ,
-1, ,-55, ,
1, ,-54, ,
-1, ,-55, ,
-1, ,-55, ,
1, ,-54, ,
1, ,-54, ,
-1, ,-55, ,
2, ,-53, ,
-1, ,-54, ,
-1, ,-55, ,
1, ,-54, ,
1, ,-54, ,
-1, ,-55, ,
1, ,-54, ,
-1, ,-54, ,
1, ,-55, ,
1, ,-54, ,
1, ,-54, ,
-1, ,-55, ,
2, ,-53, ,
-1, ,-55, ,
-1, ,-55, ,
1, ,-54, ,
1, ,-54, ,
-1, ,-55, ,
1, ,-54, ,
-1, ,-54, ,
-1, ,-55, ,
1, ,-54, ,
1, ,-54, ,
-1, ,-55, ,
1, ,-54, ,
-1, ,-54, ,
-1, ,-55, ,
1, ,-54, ,
1, ,-54, ,
-1, ,-55, ,
1, ,-54, ,
-1, ,-54, ,
1, ,-55, ,
1, ,-54, ,
1, ,-54, ,
-1, ,-55, ,
1, ,-54, ,
-1, ,-54, ,
-1, ,-55, ,
1, ,-54, ,
1, ,-54, ,
-1, ,-55, ,
1, ,-54, ,
-1, ,-54, ,
1, ,-55, ,
1, ,-54, ,
1, ,-54, ,
-1, ,-55, ,
1, ,-54, ,
-1, ,-54, ,
1, ,-55, ,
1, ,-54, ,
1, ,-54, ,
-1, ,-55, ,
1, ,-54, ,
-1, ,-55, ,
-1, ,-55, ,
1, ,-54, ,
1, ,-54, ,
-1, ,-55, ,
1, ,-54, ,
-1, ,-54, ,
-1, ,-55, ,
1, ,-54, ,
1, ,-54, ,
-1, ,-55, ,
1, ,-54, ,
-1, ,-54, ,
-1, ,-55, ,
1, ,-54, ,
1, ,-54, ,
-1, ,-55, ,
1, ,-53, ,
-1, ,-54, ,
-1, ,-55, ,
1, ,-54, ,
1, ,-54, ,
-1, ,-55, ,
1, ,-54, ,
-1, ,-54, ,
-1, ,-55, ,
1, ,-54, ,
1, ,-54, ,
-1, ,-55, ,
1, ,-54, ,
-1, ,-55, ,
-1, ,-55, ,
1, ,-54, ,
1, ,-54, ,
-1, ,-55, ,
1, ,-54, ,
-1, ,-54, ,
-1, ,-55, ,
1, ,-54, ,
1, ,-54, ,
-1, ,-55, ,
1, ,-53, ,
-1, ,-54, ,
-1, ,-55, ,
1, ,-53, ,
1, ,-39, ,
-1, ,-20, ,
2, ,-5, ,
1, ,6, ,
1, ,15, ,
1, ,21, ,
2, ,26, ,
-1, ,30, ,
2, ,32, ,
-1, ,34, ,
1, ,36, ,
1, ,37, ,
1, ,37, ,
-1, ,39, ,
1, ,38, ,
-1, ,39, ,
-1, ,39, ,
2, ,39, ,
1, ,39, ,
-1, ,40, ,
1, ,39, ,
1, ,39, ,
-1, ,39, ,
1, ,39, ,
-1, ,39, ,
-1, ,40, ,
1, ,39, ,
-1, ,39, ,
-1, ,39, ,
1, ,39, ,
1, ,39, ,
-1, ,40, ,
1, ,39, ,
-1, ,39, ,
-1, ,40, ,
1, ,38, ,
1, ,39, ,
-1, ,39, ,
1, ,38, ,
1, ,39, ,
-1, ,39, ,
1, ,39, ,
-1, ,39, ,
-1, ,40, ,
1, ,38, ,
1, ,39, ,
-1, ,39, ,
2, ,38, ,
1, ,39, ,
-1, ,39, ,
1, ,38, ,
-1, ,39, ,
-1, ,39, ,
1, ,39, ,
1, ,39, ,
-1, ,39, ,
1, ,38, ,
-1, ,38, ,
-1, ,39, ,
1, ,38, ,
1, ,39, ,
-1, ,39, ,
1, ,38, ,
-1, ,39, ,
-1, ,39, ,
1, ,39, ,
1, ,39, ,
-1, ,39, ,
1, ,39, ,
1, ,39, ,
-1, ,39, ,
1, ,38, ,
1, ,39, ,
-1, ,39, ,
2, ,38, ,
1, ,39, ,
-1, ,39, ,
1, ,39, ,
1, ,38, ,
-1, ,39, ,
1, ,38, ,
-1, ,39, ,
-1, ,39, ,
1, ,38, ,
1, ,39, ,
-1, ,39, ,
1, ,39, ,
-1, ,39, ,
-1, ,39, ,
1, ,39, ,
1, ,38, ,
-1, ,39, ,
1, ,38, ,
1, ,39, ,
-1, ,39, ,
1, ,38, ,
1, ,38, ,
-1, ,39, ,
1, ,38, ,
-1, ,39, ,
-1, ,39, ,
1, ,38, ,
-1, ,38, ,
-1, ,39, ,
1, ,38, ,
-1, ,39, ,
-1, ,39, ,
1, ,38, ,
1, ,38, ,
-1, ,39, ,
1, ,38, ,
1, ,39, ,
-1, ,39, ,
1, ,39, ,
1, ,38, ,
-1, ,39, ,
1, ,38, ,
-1, ,38, ,
-1, ,39, ,
1, ,38, ,
1, ,38, ,
-1, ,39, ,
2, ,38, ,
1, ,39, ,
-1, ,39, ,
1, ,39, ,
1, ,39, ,
-1, ,39, ,
1, ,38, ,
1, ,38, ,
-1, ,39, ,
1, ,38, ,
1, ,39, ,
-1, ,39, ,
1, ,38, ,
-1, ,39, ,
-1, ,39, ,
1, ,38, ,
1, ,39, ,
-1, ,39, ,
1, ,38, ,
-1, ,38, ,
-1, ,39, ,
1, ,38, ,
1, ,38, ,
-1, ,39, ,
1, ,39, ,
1, ,39, ,
-1, ,39, ,
1, ,39, ,
-1, ,38, ,
-1, ,39, ,
1, ,38, ,
1, ,39, ,
-1, ,33, ,
1, ,13, ,
-1, ,-4, ,
-1, ,-17, ,
1, ,-27, ,
-1, ,-34, ,
-1, ,-40, ,
1, ,-43, ,
1, ,-46, ,
-1, ,-50, ,
1, ,-50, ,
1, ,-52, ,
-1, ,-53, ,
1, ,-53, ,
1, ,-53, ,
-1, ,-55, ,
1, ,-54, ,
-1, ,-55, ,
1, ,-55, ,
1, ,-55, ,
1, ,-55, ,
-1, ,-56, ,
1, ,-54, ,
-1, ,-55, ,
-1, ,-56, ,
1, ,-54, ,
1, ,-54, ,
-1, ,-56, ,
1, ,-54, ,
-1, ,-55, ,
-1, ,-55, ,
1, ,-55, ,
1, ,-55, ,
-1, ,-56, ,
1, ,-54, ,
-1, ,-55, ,
-1, ,-55, ,
1, ,-54, ,
1, ,-54, ,
-1, ,-55, ,
1, ,-55, ,
-1, ,-55, ,
-1, ,-55, ,
1, ,-54, ,
1, ,-54, ,
-1, ,-55, ,
1, ,-53, ,
-1, ,-55, ,
-1, ,-55, ,
1, ,-54, ,
1, ,-54, ,
-1, ,-55, ,
1, ,-54, ,
-1, ,-54, ,
1, ,-55, ,
1, ,-54, ,
1, ,-54, ,
-1, ,-55, ,
1, ,-54, ,
-1, ,-55, ,
-1, ,-55, ,
1, ,-54, ,
1, ,-54, ,
-1, ,-55, ,
1, ,-54, ,
-1, ,-55, ,
1, ,-55, ,
1, ,-54, ,
1, ,-54, ,
-1, ,-55, ,
1, ,-54, ,
-1, ,-55, ,
-1, ,-55, ,
1, ,-54, ,
1, ,-54, ,
-1, ,-55, ,
1, ,-54, ,
-1, ,-55, ,
-1, ,-55, ,
1, ,-54, ,
1, ,-55, ,
-1, ,-55, ,
1, ,-54, ,
-1, ,-54, ,
1, ,-55, ,
1, ,-54, ,
1, ,-54, ,
-1, ,-55, ,
1, ,-54, ,
-1, ,-54, ,
-1, ,-55, ,
1, ,-54, ,
1, ,-54, ,
-1, ,-55, ,
1, ,-54, ,
-1, ,-54, ,
-1, ,-56, ,
1, ,-54, ,
1, ,-54, ,
-1, ,-55, ,
1, ,-54, ,
-1, ,-54, ,
-1, ,-55, ,
-1, ,-54, ,
1, ,-54, ,
-1, ,-55, ,
1, ,-53, ,
-1, ,-55, ,
-1, ,-55, ,
1, ,-54, ,
1, ,-54, ,
-1, ,-55, ,
1, ,-54, ,
-1, ,-54, ,
-1, ,-54, ,
1, ,-54, ,
1, ,-54, ,
-1, ,-55, ,
1, ,-54, ,
-1, ,-55, ,
-1, ,-55, ,
1, ,-54, ,
1, ,-54, ,
-1, ,-55, ,
1, ,-54, ,
-1, ,-55, ,
-1, ,-55, ,
1, ,-54, ,
1, ,-54, ,
-1, ,-55, ,
1, ,-54, ,
-1, ,-54, ,
-1, ,-55, ,
1, ,-54, ,
1, ,-53, ,
-1, ,-55, ,
1, ,-54, ,
-1, ,-54, ,
-1, ,-55, ,
1, ,-54, ,
1, ,-54, ,
-1, ,-55, ,
1, ,-54, ,
-1, ,-54, ,
-1, ,-55, ,
1, ,-54, ,
1, ,-54, ,
-1, ,-55, ,
2, ,-54, ,
-1, ,-54, ,
-1, ,-55, ,
1, ,-54, ,
1, ,-54, ,
-1, ,-55, ,
1, ,-54, ,
-1, ,-54, ,
1, ,-55, ,
1, ,-54, ,
1, ,-54, ,
-1, ,-55, ,
1, ,-54, ,
1, ,-55, ,
1, ,-55, ,
1, ,-54, ,
1, ,-54, ,
-1, ,-55, ,
1, ,-54, ,
-1, ,-54, ,
1, ,-55, ,
1, ,-54, ,
1, ,-54, ,
-1, ,-55, ,
2, ,-54, ,
-1, ,-55, ,
-1, ,-55, ,
1, ,-54, ,
1, ,-54, ,
-1, ,-55, ,
1, ,-53, ,
-1, ,-54, ,
1, ,-55, ,
1, ,-54, ,
1, ,-54, ,
-1, ,-55, ,
1, ,-54, ,
-1, ,-54, ,
-1, ,-55, ,
1, ,-54, ,
1, ,-54, ,
-1, ,-55, ,
1, ,-53, ,
-1, ,-54, ,
-1, ,-55, ,
1, ,-54, ,
1, ,-54, ,
-1, ,-55, ,
1, ,-54, ,
-1, ,-54, ,
-1, ,-55, ,
1, ,-54, ,
1, ,-54, ,
-1, ,-55, ,
1, ,-53, ,
-1, ,-55, ,
-1, ,-55, ,
1, ,-54, ,
1, ,-54, ,
-1, ,-55, ,
1, ,-54, ,
-1, ,-55, ,
-1, ,-55, ,
1, ,-54, ,
1, ,-54, ,
-1, ,-55, ,
1, ,-54, ,
-1, ,-54, ,
-1, ,-55, ,
1, ,-54, ,
1, ,-54, ,
-1, ,-55, ,
2, ,-54, ,
-1, ,-54, ,
-1, ,-55, ,
1, ,-54, ,
1, ,-54, ,
-1, ,-55, ,
1, ,-53, ,
-1, ,-54, ,
-1, ,-55, ,
1, ,-54, ,
1, ,-54, ,
-1, ,-55, ,
2, ,-54, ,
-1, ,-54, ,
-1, ,-55, ,
1, ,-54, ,
1, ,-54, ,
-1, ,-55, ,
1, ,-53, ,
-1, ,-54, ,
-1, ,-55, ,
1, ,-54, ,
1, ,-54, ,
-1, ,-55, ,
1, ,-54, ,
-1, ,-55, ,
-1, ,-55, ,
1, ,-54, ,
1, ,-54, ,
-1, ,-55, ,
1, ,-53, ,
-1, ,-54, ,
-1, ,-55, ,
1, ,-54, ,
1, ,-54, ,
-1, ,-55, ,
1, ,-53, ,
-1, ,-54, ,
-1, ,-55, ,
1, ,-55, ,
1, ,-54, ,
-1, ,-55, ,
1, ,-53, ,
-1, ,-55, ,
-1, ,-55, ,
1, ,-54, ,
1, ,-54, ,
-1, ,-55, ,
1, ,-54, ,
-1, ,-54, ,
-1, ,-55, ,
1, ,-54, ,
1, ,-54, ,
-1, ,-55, ,
1, ,-54, ,
-1, ,-54, ,
-1, ,-55, ,
1, ,-54, ,
1, ,-54, ,
-1, ,-55, ,
2, ,-54, ,
-1, ,-54, ,
-1, ,-55, ,
1, ,-54, ,
1, ,-54, ,
-1, ,-55, ,
1, ,-53, ,
-1, ,-54, ,
-1, ,-55, ,
1, ,-54, ,
1, ,-54, ,
-1, ,-55, ,
1, ,-54, ,
-1, ,-54, ,
1, ,-55, ,
1, ,-54, ,
1, ,-54, ,
-1, ,-55, ,
2, ,-53, ,
1, ,-55, ,
1, ,-55, ,
1, ,-53, ,
1, ,-54, ,
-1, ,-55, ,
2, ,-54, ,
-1, ,-55, ,
1, ,-55, ,
1, ,-54, ,
1, ,-54, ,
-1, ,-55, ,
1, ,-53, ,
-1, ,-54, ,
1, ,-55, ,
1, ,-53, ,
1, ,-54, ,
-1, ,-55, ,
1, ,-54, ,
-1, ,-54, ,
-1, ,-55, ,
1, ,-55, ,
1, ,-54, ,
-1, ,-55, ,
1, ,-53, ,
-1, ,-54, ,
-1, ,-55, ,
1, ,-53, ,
1, ,-53, ,
-1, ,-55, ,
1, ,-53, ,
-1, ,-54, ,
-1, ,-55, ,
1, ,-54, ,
1, ,-54, ,
-1, ,-55, ,
1, ,-54, ,
-1, ,-54, ,
-1, ,-55, ,
1, ,-54, ,
1, ,-54, ,
-1, ,-55, ,
1, ,-53, ,
-1, ,-54, ,
-1, ,-55, ,
1, ,-54, ,
1, ,-54, ,
-1, ,-55, ,
1, ,-53, ,
-1, ,-54, ,
-1, ,-55, ,
1, ,-53, ,
1, ,-54, ,
-1, ,-55, ,
1, ,-54, ,
-1, ,-54, ,
-1, ,-55, ,
1, ,-54, ,
1, ,-54, ,
-1, ,-55, ,
1, ,-54, ,
-1, ,-54, ,
-1, ,-55, ,
-1, ,-54, ,
1, ,-54, ,
-1, ,-55, ,
2, ,-54, ,
-1, ,-54, ,
-1, ,-55, ,
1, ,-54, ,
1, ,-54, ,
-1, ,-55, ,
1, ,-53, ,
-1, ,-54, ,
-1, ,-55, ,
1, ,-54, ,
1, ,-54, ,
-1, ,-55, ,
1, ,-54, ,
-1, ,-54, ,
-1, ,-55, ,
1, ,-54, ,
1, ,-55, ,
-1, ,-55, ,
1, ,-54, ,
-1, ,-54, ,
-1, ,-55, ,
1, ,-54, ,
1, ,-54, ,
-1, ,-55, ,
1, ,-54, ,
-1, ,-54, ,
-1, ,-55, ,
1, ,-54, ,
1, ,-54, ,
-1, ,-55, ,
1, ,-53, ,
-1, ,-54, ,
-1, ,-55, ,
1, ,-54, ,
1, ,-54, ,
-1, ,-55, ,
1, ,-54, ,
-1, ,-54, ,
1, ,-54, ,
1, ,-54, ,
1, ,-54, ,
-1, ,-55, ,
1, ,-53, ,
-1, ,-55, ,
-1, ,-55, ,
1, ,-54, ,
1, ,-54, ,
-1, ,-55, ,
1, ,-54, ,
-1, ,-54, ,
-1, ,-55, ,
1, ,-54, ,
1, ,-54, ,
-1, ,-55, ,
1, ,-53, ,
1, ,-54, ,
-1, ,-55, ,
1, ,-54, ,
1, ,-54, ,
-1, ,-55, ,
1, ,-54, ,
-1, ,-54, ,
1, ,-55, ,
1, ,-54, ,
1, ,-54, ,
-1, ,-55, ,
1, ,-54, ,
-1, ,-54, ,
-1, ,-55, ,
1, ,-54, ,
1, ,-54, ,
-1, ,-55, ,
1, ,-54, ,
-1, ,-54, ,
-1, ,-55, ,
1, ,-54, ,
1, ,-54, ,
-1, ,-55, ,
1, ,-53, ,
-1, ,-54, ,
-1, ,-55, ,
1, ,-54, ,
1, ,-54, ,
-1, ,-55, ,
1, ,-54, ,
-1, ,-54, ,
-1, ,-55, ,
1, ,-54, ,
1, ,-54, ,
-1, ,-55, ,
1, ,-53, ,
-1, ,-54, ,
-1, ,-55, ,
1, ,-54, ,
1, ,-54, ,
-1, ,-55, ,
1, ,-54, ,
-1, ,-54, ,
