src/varyamp_1560/temp0000095.CSV

Format,1.0B,
Memory Length,10000,Memory Length,10000,
IntpDistance,0,IntpDistance,0,
Trigger Address,4999,Trigger Address,4999,
Trigger Level,1.040E+00,Trigger Level,1.040E+00,
Source,CH1,Source,CH2,
Vertical Units,V,Vertical Units,V,
Vertical Units Div,0,Vertical Units Div,0,
Vertical Units Extend Div,16,Vertical Units Extend Div,16,
Label,,Label,,
Probe Type,0,Probe Type,0,
Probe Ratio,1.000e+01,Probe Ratio,1.000e+00,
Vertical Scale,5.000e-01,Vertical Scale,1.000e+00,
Vertical Position,-1.820e+00,Vertical Position,0.000e+00,
Horizontal Units,S,Horizontal Units,S,
Horizontal Scale,2.000E-05,Horizontal Scale,2.000E-05,
Horizontal Position,0.000E+00,Horizontal Position,0.000E+00,
Horizontal Mode,Main,Horizontal Mode,Main,
SincET Mode,Real Time,SincET Mode,Real Time,
Sampling Period,2.000e-08,Sampling Period,2.000e-08,
Horizontal Old Scale,2.000E-05,Horizontal Old Scale,2.000E-05,
Horizontal Old Position,0.000E+00,Horizontal Old Position,0.000E+00,
Firmware,V1.23,Firmware,V1.23,
Mode,Fast,Mode,Fast,
Waveform Data,,Waveform Data,,
2, ,-63, ,
2, ,-63, ,
3, ,-63, ,
2, ,-63, ,
1, ,-62, ,
3, ,-63, ,
1, ,-63, ,
1, ,-63, ,
3, ,-63, ,
2, ,-63, ,
1, ,-63, ,
3, ,-63, ,
1, ,-63, ,
1, ,-62, ,
2, ,-63, ,
2, ,-63, ,
1, ,-62, ,
3, ,-62, ,
2, ,-62, ,
1, ,-63, ,
3, ,-62, ,
2, ,-63, ,
1, ,-63, ,
3, ,-63, ,
1, ,-63, ,
1, ,-63, ,
2, ,-63, ,
2, ,-63, ,
1, ,-62, ,
3, ,-62, ,
2, ,-63, ,
1, ,-63, ,
3, ,-62, ,
3, ,-63, ,
1, ,-62, ,
3, ,-63, ,
2, ,-63, ,
1, ,-63, ,
3, ,-63, ,
2, ,-63, ,
1, ,-62, ,
3, ,-62, ,
1, ,-63, ,
1, ,-63, ,
2, ,-62, ,
2, ,-63, ,
1, ,-62, ,
3, ,-63, ,
1, ,-63, ,
1, ,-63, ,
2, ,-63, ,
2, ,-63, ,
1, ,-62, ,
3, ,-62, ,
2, ,-63, ,
1, ,-63, ,
3, ,-62, ,
2, ,-63, ,
1, ,-62, ,
3, ,-63, ,
1, ,-63, ,
1, ,-63, ,
2, ,-62, ,
2, ,-63, ,
1, ,-62, ,
3, ,-62, ,
2, ,-63, ,
1, ,-63, ,
2, ,-62, ,
2, ,-63, ,
1, ,-62, ,
3, ,-63, ,
1, ,-63, ,
1, ,-63, ,
2, ,-63, ,
2, ,-63, ,
1, ,-62, ,
3, ,-62, ,
2, ,-63, ,
1, ,-63, ,
2, ,-63, ,
2, ,-63, ,
1, ,-62, ,
3, ,-63, ,
1, ,-63, ,
1, ,-62, ,
2, ,-63, ,
2, ,-63, ,
1, ,-62, ,
3, ,-62, ,
1, ,-63, ,
1, ,-62, ,
2, ,-62, ,
2, ,-63, ,
1, ,-62, ,
2, ,-63, ,
1, ,-62, ,
1, ,-62, ,
2, ,-63, ,
2, ,-63, ,
1, ,-62, ,
3, ,-62, ,
1, ,-63, ,
1, ,-62, ,
2, ,-62, ,
2, ,-63, ,
1, ,-62, ,
2, ,-63, ,
1, ,-63, ,
1, ,-63, ,
2, ,-63, ,
2, ,-63, ,
1, ,-62, ,
3, ,-63, ,
1, ,-63, ,
1, ,-63, ,
2, ,-62, ,
2, ,-63, ,
1, ,-62, ,
2, ,-63, ,
1, ,-63, ,
1, ,-63, ,
2, ,-63, ,
2, ,-63, ,
-1, ,-62, ,
2, ,-63, ,
1, ,-63, ,
1, ,-63, ,
2, ,-62, ,
2, ,-63, ,
1, ,-62, ,
2, ,-63, ,
1, ,-63, ,
1, ,-63, ,
2, ,-62, ,
2, ,-63, ,
-1, ,-62, ,
2, ,-63, ,
1, ,-63, ,
1, ,-63, ,
2, ,-62, ,
2, ,-63, ,
1, ,-62, ,
2, ,-63, ,
1, ,-63, ,
1, ,-63, ,
2, ,-63, ,
2, ,-63, ,
-1, ,-62, ,
3, ,-62, ,
1, ,-63, ,
1, ,-63, ,
2, ,-62, ,
2, ,-63, ,
1, ,-63, ,
2, ,-63, ,
1, ,-63, ,
1, ,-63, ,
2, ,-63, ,
2, ,-63, ,
-1, ,-62, ,
2, ,-63, ,
1, ,-63, ,
1, ,-62, ,
2, ,-62, ,
2, ,-63, ,
1, ,-63, ,
2, ,-63, ,
1, ,-63, ,
1, ,-63, ,
2, ,-63, ,
2, ,-63, ,
-1, ,-63, ,
3, ,-63, ,
1, ,-63, ,
1, ,-63, ,
2, ,-62, ,
2, ,-63, ,
1, ,-63, ,
2, ,-63, ,
1, ,-63, ,
1, ,-63, ,
2, ,-63, ,
2, ,-63, ,
-1, ,-62, ,
3, ,-63, ,
1, ,-63, ,
1, ,-62, ,
2, ,-62, ,
2, ,-63, ,
1, ,-63, ,
2, ,-62, ,
1, ,-63, ,
1, ,-63, ,
2, ,-63, ,
2, ,-63, ,
1, ,-62, ,
2, ,-62, ,
1, ,-63, ,
1, ,-63, ,
2, ,-63, ,
2, ,-63, ,
1, ,-62, ,
2, ,-62, ,
1, ,-63, ,
1, ,-63, ,
2, ,-63, ,
2, ,-63, ,
-1, ,-62, ,
2, ,-63, ,
1, ,-63, ,
1, ,-63, ,
2, ,-62, ,
1, ,-63, ,
-1, ,-62, ,
2, ,-63, ,
1, ,-63, ,
1, ,-63, ,
2, ,-63, ,
2, ,-63, ,
-1, ,-62, ,
2, ,-62, ,
1, ,-63, ,
1, ,-62, ,
2, ,-63, ,
2, ,-63, ,
-1, ,-62, ,
2, ,-63, ,
1, ,-63, ,
1, ,-62, ,
1, ,-62, ,
1, ,-63, ,
-1, ,-62, ,
2, ,-63, ,
1, ,-63, ,
1, ,-63, ,
2, ,-62, ,
1, ,-63, ,
-1, ,-63, ,
2, ,-63, ,
1, ,-63, ,
1, ,-63, ,
1, ,-63, ,
2, ,-63, ,
-1, ,-62, ,
2, ,-62, ,
1, ,-63, ,
1, ,-63, ,
1, ,-62, ,
1, ,-63, ,
-1, ,-63, ,
2, ,-63, ,
1, ,-63, ,
1, ,-63, ,
1, ,-63, ,
1, ,-63, ,
-1, ,-62, ,
2, ,-62, ,
1, ,-63, ,
1, ,-63, ,
2, ,-62, ,
2, ,-63, ,
-1, ,-63, ,
2, ,-63, ,
1, ,-63, ,
1, ,-63, ,
2, ,-63, ,
2, ,-63, ,
-1, ,-62, ,
2, ,-63, ,
1, ,-63, ,
1, ,-63, ,
2, ,-62, ,
2, ,-63, ,
-1, ,-63, ,
2, ,-62, ,
1, ,-63, ,
1, ,-63, ,
1, ,-63, ,
2, ,-63, ,
-1, ,-62, ,
2, ,-63, ,
1, ,-63, ,
1, ,-62, ,
2, ,-62, ,
1, ,-63, ,
-1, ,-62, ,
2, ,-63, ,
1, ,-63, ,
1, ,-63, ,
2, ,-63, ,
2, ,-63, ,
-1, ,-62, ,
2, ,-62, ,
1, ,-63, ,
1, ,-63, ,
2, ,-63, ,
2, ,-63, ,
-1, ,-63, ,
2, ,-63, ,
1, ,-63, ,
1, ,-62, ,
2, ,-52, ,
2, ,-32, ,
-1, ,-16, ,
2, ,-4, ,
1, ,5, ,
1, ,12, ,
2, ,17, ,
2, ,20, ,
1, ,23, ,
2, ,25, ,
-1, ,26, ,
1, ,28, ,
2, ,28, ,
1, ,30, ,
-1, ,30, ,
2, ,30, ,
1, ,30, ,
-1, ,31, ,
1, ,30, ,
1, ,31, ,
-1, ,31, ,
62, ,31, ,
39, ,31, ,
25, ,31, ,
17, ,31, ,
11, ,31, ,
7, ,31, ,
7, ,31, ,
3, ,31, ,
2, ,31, ,
3, ,30, ,
2, ,31, ,
1, ,31, ,
3, ,31, ,
2, ,31, ,
2, ,31, ,
3, ,30, ,
2, ,31, ,
1, ,31, ,
5, ,30, ,
2, ,30, ,
2, ,31, ,
2, ,30, ,
2, ,31, ,
2, ,31, ,
3, ,30, ,
2, ,30, ,
1, ,31, ,
3, ,30, ,
2, ,30, ,
1, ,31, ,
3, ,30, ,
2, ,30, ,
1, ,31, ,
2, ,30, ,
2, ,30, ,
1, ,31, ,
3, ,30, ,
2, ,30, ,
1, ,31, ,
3, ,30, ,
2, ,30, ,
1, ,31, ,
3, ,30, ,
2, ,30, ,
1, ,31, ,
2, ,30, ,
2, ,30, ,
1, ,31, ,
3, ,30, ,
2, ,30, ,
1, ,31, ,
2, ,30, ,
2, ,30, ,
1, ,31, ,
3, ,30, ,
2, ,30, ,
1, ,31, ,
2, ,30, ,
2, ,30, ,
1, ,30, ,
3, ,30, ,
2, ,30, ,
1, ,30, ,
2, ,30, ,
2, ,30, ,
1, ,31, ,
3, ,30, ,
1, ,30, ,
1, ,31, ,
2, ,30, ,
2, ,31, ,
1, ,31, ,
3, ,30, ,
2, ,30, ,
2, ,30, ,
2, ,30, ,
2, ,30, ,
1, ,31, ,
3, ,30, ,
2, ,30, ,
1, ,31, ,
2, ,30, ,
2, ,31, ,
1, ,30, ,
3, ,30, ,
1, ,30, ,
1, ,30, ,
2, ,30, ,
2, ,30, ,
1, ,30, ,
3, ,30, ,
1, ,30, ,
1, ,31, ,
3, ,30, ,
2, ,30, ,
1, ,30, ,
3, ,30, ,
1, ,30, ,
1, ,31, ,
2, ,30, ,
2, ,30, ,
1, ,30, ,
3, ,30, ,
1, ,30, ,
1, ,30, ,
2, ,30, ,
2, ,30, ,
1, ,30, ,
3, ,30, ,
1, ,30, ,
1, ,30, ,
2, ,30, ,
2, ,30, ,
1, ,30, ,
3, ,30, ,
1, ,30, ,
1, ,31, ,
2, ,30, ,
2, ,30, ,
1, ,30, ,
3, ,30, ,
1, ,30, ,
1, ,30, ,
2, ,30, ,
2, ,30, ,
1, ,30, ,
3, ,30, ,
2, ,30, ,
1, ,30, ,
2, ,30, ,
2, ,31, ,
1, ,30, ,
3, ,30, ,
1, ,26, ,
1, ,7, ,
2, ,-11, ,
1, ,-24, ,
1, ,-35, ,
2, ,-42, ,
1, ,-49, ,
1, ,-52, ,
2, ,-55, ,
2, ,-58, ,
1, ,-58, ,
3, ,-60, ,
1, ,-61, ,
1, ,-62, ,
2, ,-62, ,
2, ,-63, ,
1, ,-63, ,
3, ,-63, ,
1, ,-64, ,
1, ,-63, ,
2, ,-63, ,
3, ,-64, ,
1, ,-63, ,
3, ,-63, ,
2, ,-63, ,
1, ,-64, ,
2, ,-63, ,
2, ,-64, ,
1, ,-62, ,
3, ,-63, ,
1, ,-64, ,
1, ,-63, ,
2, ,-63, ,
2, ,-64, ,
1, ,-63, ,
3, ,-63, ,
1, ,-63, ,
1, ,-63, ,
2, ,-63, ,
3, ,-63, ,
34, ,-63, ,
25, ,-63, ,
16, ,-63, ,
10, ,-63, ,
8, ,-63, ,
6, ,-63, ,
3, ,-62, ,
5, ,-63, ,
2, ,-63, ,
2, ,-63, ,
3, ,-63, ,
2, ,-63, ,
1, ,-63, ,
3, ,-63, ,
2, ,-63, ,
2, ,-63, ,
3, ,-63, ,
3, ,-63, ,
1, ,-63, ,
3, ,-62, ,
2, ,-63, ,
2, ,-63, ,
3, ,-63, ,
3, ,-63, ,
1, ,-62, ,
3, ,-63, ,
2, ,-63, ,
2, ,-63, ,
3, ,-62, ,
2, ,-63, ,
1, ,-62, ,
3, ,-63, ,
2, ,-63, ,
2, ,-63, ,
3, ,-63, ,
3, ,-64, ,
1, ,-62, ,
3, ,-63, ,
2, ,-63, ,
2, ,-63, ,
3, ,-63, ,
2, ,-63, ,
1, ,-62, ,
3, ,-63, ,
2, ,-63, ,
2, ,-63, ,
3, ,-63, ,
3, ,-63, ,
1, ,-62, ,
3, ,-63, ,
2, ,-63, ,
1, ,-63, ,
2, ,-62, ,
2, ,-63, ,
1, ,-63, ,
3, ,-63, ,
2, ,-63, ,
2, ,-63, ,
2, ,-63, ,
3, ,-63, ,
1, ,-62, ,
3, ,-62, ,
2, ,-63, ,
1, ,-63, ,
2, ,-63, ,
3, ,-63, ,
1, ,-62, ,
3, ,-63, ,
2, ,-63, ,
2, ,-62, ,
2, ,-62, ,
2, ,-63, ,
1, ,-62, ,
3, ,-63, ,
2, ,-63, ,
1, ,-62, ,
3, ,-62, ,
3, ,-63, ,
1, ,-63, ,
3, ,-63, ,
2, ,-63, ,
1, ,-63, ,
2, ,-63, ,
2, ,-63, ,
1, ,-62, ,
3, ,-63, ,
2, ,-62, ,
1, ,-63, ,
2, ,-63, ,
2, ,-63, ,
1, ,-63, ,
3, ,-63, ,
2, ,-63, ,
2, ,-62, ,
3, ,-63, ,
2, ,-63, ,
1, ,-62, ,
3, ,-62, ,
2, ,-63, ,
1, ,-63, ,
3, ,-63, ,
2, ,-63, ,
1, ,-63, ,
3, ,-63, ,
2, ,-63, ,
1, ,-62, ,
2, ,-63, ,
2, ,-63, ,
1, ,-62, ,
3, ,-63, ,
2, ,-63, ,
1, ,-63, ,
2, ,-63, ,
2, ,-63, ,
1, ,-62, ,
3, ,-62, ,
2, ,-63, ,
2, ,-63, ,
2, ,-62, ,
2, ,-63, ,
1, ,-62, ,
3, ,-63, ,
1, ,-63, ,
1, ,-63, ,
3, ,-62, ,
2, ,-63, ,
1, ,-63, ,
3, ,-63, ,
2, ,-63, ,
2, ,-63, ,
2, ,-63, ,
2, ,-63, ,
1, ,-63, ,
3, ,-63, ,
2, ,-63, ,
1, ,-62, ,
2, ,-63, ,
2, ,-63, ,
1, ,-63, ,
3, ,-63, ,
1, ,-63, ,
1, ,-63, ,
2, ,-63, ,
2, ,-63, ,
1, ,-62, ,
3, ,-62, ,
1, ,-63, ,
1, ,-63, ,
2, ,-62, ,
2, ,-63, ,
1, ,-62, ,
3, ,-63, ,
1, ,-63, ,
1, ,-63, ,
2, ,-63, ,
2, ,-63, ,
1, ,-62, ,
3, ,-63, ,
1, ,-63, ,
1, ,-62, ,
2, ,-63, ,
2, ,-63, ,
-1, ,-62, ,
2, ,-63, ,
1, ,-63, ,
1, ,-62, ,
2, ,-63, ,
2, ,-63, ,
1, ,-62, ,
2, ,-62, ,
1, ,-63, ,
1, ,-63, ,
2, ,-62, ,
2, ,-63, ,
1, ,-62, ,
3, ,-63, ,
1, ,-63, ,
1, ,-63, ,
2, ,-63, ,
2, ,-63, ,
-1, ,-62, ,
3, ,-63, ,
1, ,-63, ,
1, ,-63, ,
2, ,-63, ,
2, ,-63, ,
1, ,-62, ,
2, ,-63, ,
1, ,-63, ,
1, ,-62, ,
2, ,-63, ,
2, ,-63, ,
1, ,-62, ,
3, ,-63, ,
1, ,-63, ,
1, ,-62, ,
2, ,-62, ,
2, ,-63, ,
-1, ,-62, ,
3, ,-62, ,
1, ,-63, ,
1, ,-62, ,
2, ,-62, ,
2, ,-63, ,
1, ,-62, ,
3, ,-63, ,
1, ,-63, ,
1, ,-62, ,
2, ,-63, ,
2, ,-63, ,
1, ,-62, ,
3, ,-63, ,
1, ,-63, ,
1, ,-63, ,
2, ,-63, ,
2, ,-63, ,
-1, ,-62, ,
2, ,-63, ,
2, ,-63, ,
1, ,-63, ,
2, ,-62, ,
2, ,-63, ,
1, ,-62, ,
2, ,-62, ,
2, ,-63, ,
1, ,-62, ,
2, ,-63, ,
2, ,-63, ,
1, ,-62, ,
3, ,-63, ,
1, ,-63, ,
1, ,-63, ,
2, ,-62, ,
2, ,-63, ,
1, ,-62, ,
2, ,-62, ,
1, ,-62, ,
1, ,-63, ,
2, ,-63, ,
2, ,-63, ,
1, ,-62, ,
2, ,-63, ,
1, ,-63, ,
1, ,-63, ,
2, ,-63, ,
2, ,-63, ,
1, ,-62, ,
2, ,-63, ,
1, ,-63, ,
1, ,-62, ,
2, ,-63, ,
2, ,-63, ,
1, ,-62, ,
3, ,-63, ,
1, ,-63, ,
1, ,-62, ,
2, ,-63, ,
2, ,-63, ,
1, ,-62, ,
2, ,-63, ,
1, ,-63, ,
1, ,-62, ,
2, ,-63, ,
2, ,-63, ,
-1, ,-62, ,
3, ,-63, ,
1, ,-63, ,
1, ,-62, ,
2, ,-63, ,
2, ,-63, ,
1, ,-62, ,
2, ,-63, ,
1, ,-63, ,
1, ,-62, ,
2, ,-63, ,
2, ,-63, ,
-1, ,-62, ,
3, ,-63, ,
1, ,-63, ,
1, ,-63, ,
2, ,-62, ,
2, ,-63, ,
-1, ,-62, ,
2, ,-62, ,
1, ,-62, ,
1, ,-62, ,
1, ,-63, ,
2, ,-63, ,
-1, ,-62, ,
2, ,-63, ,
1, ,-63, ,
1, ,-63, ,
2, ,-63, ,
2, ,-63, ,
-1, ,-62, ,
2, ,-63, ,
1, ,-63, ,
1, ,-63, ,
2, ,-62, ,
2, ,-63, ,
-1, ,-62, ,
2, ,-63, ,
1, ,-63, ,
-1, ,-63, ,
2, ,-63, ,
2, ,-63, ,
-1, ,-62, ,
2, ,-63, ,
1, ,-63, ,
1, ,-63, ,
1, ,-63, ,
1, ,-63, ,
-1, ,-62, ,
2, ,-63, ,
1, ,-63, ,
1, ,-63, ,
2, ,-63, ,
2, ,-63, ,
-1, ,-62, ,
2, ,-63, ,
1, ,-62, ,
1, ,-63, ,
2, ,-62, ,
2, ,-63, ,
-1, ,-62, ,
2, ,-62, ,
1, ,-63, ,
1, ,-62, ,
2, ,-62, ,
2, ,-63, ,
-1, ,-62, ,
2, ,-63, ,
1, ,-63, ,
1, ,-63, ,
2, ,-62, ,
2, ,-63, ,
-1, ,-62, ,
2, ,-62, ,
1, ,-63, ,
1, ,-62, ,
2, ,-62, ,
2, ,-63, ,
-1, ,-62, ,
2, ,-63, ,
1, ,-62, ,
1, ,-62, ,
2, ,-63, ,
2, ,-63, ,
-1, ,-62, ,
2, ,-63, ,
1, ,-63, ,
1, ,-62, ,
2, ,-63, ,
2, ,-63, ,
-1, ,-62, ,
2, ,-63, ,
1, ,-62, ,
1, ,-62, ,
2, ,-63, ,
2, ,-63, ,
-1, ,-62, ,
2, ,-62, ,
1, ,-63, ,
1, ,-62, ,
2, ,-62, ,
2, ,-63, ,
-1, ,-62, ,
2, ,-63, ,
1, ,-63, ,
1, ,-63, ,
2, ,-62, ,
2, ,-63, ,
-1, ,-62, ,
2, ,-63, ,
1, ,-63, ,
1, ,-63, ,
1, ,-63, ,
2, ,-63, ,
-1, ,-62, ,
2, ,-62, ,
1, ,-62, ,
1, ,-62, ,
2, ,-62, ,
1, ,-63, ,
-1, ,-62, ,
2, ,-63, ,
1, ,-63, ,
1, ,-62, ,
2, ,-63, ,
2, ,-63, ,
-1, ,-62, ,
2, ,-63, ,
1, ,-62, ,
1, ,-63, ,
1, ,-62, ,
1, ,-63, ,
-1, ,-62, ,
2, ,-62, ,
1, ,-62, ,
1, ,-63, ,
2, ,-62, ,
1, ,-63, ,
-1, ,-62, ,
2, ,-63, ,
1, ,-63, ,
1, ,-63, ,
1, ,-62, ,
2, ,-63, ,
-1, ,-62, ,
2, ,-62, ,
1, ,-63, ,
1, ,-63, ,
2, ,-63, ,
1, ,-63, ,
-1, ,-62, ,
2, ,-62, ,
1, ,-62, ,
1, ,-63, ,
1, ,-63, ,
1, ,-63, ,
-1, ,-62, ,
2, ,-62, ,
1, ,-63, ,
-1, ,-63, ,
1, ,-63, ,
1, ,-63, ,
-1, ,-62, ,
2, ,-62, ,
1, ,-62, ,
1, ,-63, ,
1, ,-63, ,
1, ,-63, ,
-1, ,-62, ,
2, ,-62, ,
1, ,-63, ,
1, ,-62, ,
2, ,-62, ,
1, ,-63, ,
-1, ,-62, ,
2, ,-63, ,
1, ,-63, ,
1, ,-63, ,
1, ,-63, ,
1, ,-63, ,
-1, ,-62, ,
2, ,-62, ,
1, ,-63, ,
-1, ,-63, ,
2, ,-62, ,
2, ,-63, ,
-1, ,-62, ,
2, ,-63, ,
1, ,-63, ,
1, ,-62, ,
1, ,-62, ,
1, ,-63, ,
-1, ,-62, ,
2, ,-63, ,
1, ,-63, ,
1, ,-63, ,
2, ,-63, ,
1, ,-63, ,
-1, ,-62, ,
2, ,-63, ,
1, ,-63, ,
-1, ,-63, ,
1, ,-62, ,
2, ,-63, ,
-1, ,-62, ,
2, ,-62, ,
1, ,-62, ,
-1, ,-63, ,
2, ,-63, ,
1, ,-63, ,
-1, ,-62, ,
2, ,-63, ,
1, ,-63, ,
1, ,-63, ,
1, ,-63, ,
2, ,-63, ,
-1, ,-62, ,
2, ,-62, ,
1, ,-63, ,
-1, ,-63, ,
2, ,-62, ,
1, ,-63, ,
-1, ,-62, ,
2, ,-63, ,
1, ,-63, ,
1, ,-63, ,
1, ,-63, ,
1, ,-63, ,
-1, ,-62, ,
2, ,-62, ,
1, ,-63, ,
1, ,-63, ,
2, ,-62, ,
1, ,-63, ,
-1, ,-62, ,
2, ,-63, ,
1, ,-63, ,
1, ,-62, ,
1, ,-63, ,
1, ,-63, ,
-1, ,-62, ,
2, ,-62, ,
1, ,-63, ,
-1, ,-62, ,
2, ,-62, ,
1, ,-63, ,
-1, ,-62, ,
2, ,-62, ,
1, ,-63, ,
1, ,-63, ,
1, ,-63, ,
2, ,-63, ,
-1, ,-62, ,
2, ,-63, ,
1, ,-63, ,
-1, ,-62, ,
1, ,-62, ,
1, ,-63, ,
-1, ,-62, ,
2, ,-63, ,
1, ,-62, ,
-1, ,-63, ,
1, ,-63, ,
1, ,-63, ,
-1, ,-62, ,
2, ,-63, ,
1, ,-63, ,
-1, ,-63, ,
2, ,-62, ,
1, ,-63, ,
-1, ,-62, ,
2, ,-63, ,
1, ,-63, ,
1, ,-63, ,
1, ,-63, ,
1, ,-63, ,
-1, ,-63, ,
2, ,-63, ,
1, ,-63, ,
-1, ,-63, ,
1, ,-62, ,
1, ,-63, ,
-1, ,-62, ,
2, ,-63, ,
1, ,-63, ,
1, ,-63, ,
1, ,-62, ,
1, ,-63, ,
-1, ,-62, ,
2, ,-63, ,
1, ,-63, ,
-1, ,-63, ,
1, ,-62, ,
1, ,-63, ,
-1, ,-62, ,
2, ,-62, ,
1, ,-62, ,
1, ,-62, ,
1, ,-63, ,
1, ,-63, ,
-1, ,-62, ,
2, ,-63, ,
1, ,-63, ,
-1, ,-63, ,
1, ,-62, ,
1, ,-63, ,
-1, ,-63, ,
2, ,-63, ,
-1, ,-63, ,
1, ,-63, ,
1, ,-63, ,
1, ,-63, ,
-1, ,-62, ,
2, ,-62, ,
1, ,-63, ,
-1, ,-63, ,
1, ,-62, ,
1, ,-63, ,
-1, ,-63, ,
2, ,-63, ,
1, ,-63, ,
-1, ,-62, ,
1, ,-62, ,
1, ,-57, ,
-1, ,-37, ,
2, ,-19, ,
1, ,-6, ,
1, ,3, ,
2, ,11, ,
2, ,15, ,
-1, ,19, ,
2, ,22, ,
-1, ,25, ,
1, ,26, ,
1, ,27, ,
1, ,28, ,
-1, ,30, ,
2, ,30, ,
1, ,30, ,
-1, ,31, ,
2, ,30, ,
1, ,31, ,
-1, ,31, ,
2, ,31, ,
-1, ,31, ,
-1, ,31, ,
2, ,31, ,
1, ,31, ,
-1, ,31, ,
2, ,31, ,
-1, ,31, ,
-1, ,31, ,
2, ,31, ,
1, ,31, ,
-1, ,31, ,
2, ,31, ,
1, ,31, ,
-1, ,31, ,
2, ,31, ,
1, ,31, ,
-1, ,31, ,
2, ,31, ,
-1, ,31, ,
-1, ,31, ,
2, ,30, ,
1, ,31, ,
-1, ,31, ,
2, ,30, ,
-1, ,31, ,
-1, ,31, ,
2, ,30, ,
1, ,30, ,
-1, ,31, ,
2, ,30, ,
-1, ,30, ,
-1, ,30, ,
2, ,30, ,
1, ,30, ,
-1, ,31, ,
2, ,31, ,
-1, ,30, ,
-1, ,30, ,
1, ,30, ,
1, ,30, ,
-1, ,30, ,
2, ,30, ,
-1, ,30, ,
-1, ,31, ,
2, ,30, ,
1, ,31, ,
-1, ,30, ,
2, ,30, ,
-1, ,31, ,
-1, ,30, ,
2, ,30, ,
1, ,30, ,
-1, ,30, ,
2, ,30, ,
-1, ,30, ,
-1, ,31, ,
1, ,30, ,
-1, ,30, ,
-1, ,30, ,
2, ,30, ,
-1, ,30, ,
-1, ,30, ,
1, ,30, ,
1, ,30, ,
-1, ,30, ,
2, ,30, ,
-1, ,30, ,
-1, ,31, ,
2, ,30, ,
1, ,30, ,
-1, ,31, ,
1, ,30, ,
-1, ,30, ,
-1, ,30, ,
1, ,30, ,
1, ,30, ,
-1, ,31, ,
2, ,30, ,
-1, ,30, ,
-1, ,31, ,
1, ,30, ,
1, ,31, ,
-1, ,30, ,
2, ,30, ,
-1, ,30, ,
-1, ,30, ,
1, ,30, ,
1, ,30, ,
-1, ,30, ,
2, ,30, ,
-1, ,30, ,
-1, ,31, ,
2, ,30, ,
1, ,30, ,
-1, ,31, ,
2, ,31, ,
-1, ,30, ,
-1, ,30, ,
2, ,30, ,
1, ,30, ,
-1, ,30, ,
2, ,30, ,
-1, ,30, ,
-1, ,30, ,
1, ,30, ,
1, ,30, ,
-1, ,30, ,
2, ,30, ,
-1, ,30, ,
-1, ,30, ,
2, ,30, ,
1, ,30, ,
-1, ,30, ,
2, ,30, ,
-1, ,30, ,
-1, ,30, ,
2, ,30, ,
1, ,30, ,
-1, ,30, ,
2, ,30, ,
-1, ,30, ,
-1, ,30, ,
2, ,30, ,
1, ,30, ,
-1, ,30, ,
2, ,30, ,
-1, ,30, ,
-1, ,31, ,
2, ,30, ,
1, ,30, ,
-1, ,30, ,
2, ,30, ,
-1, ,30, ,
-1, ,28, ,
1, ,12, ,
-1, ,-7, ,
-2, ,-21, ,
2, ,-33, ,
-1, ,-40, ,
-1, ,-46, ,
1, ,-51, ,
1, ,-55, ,
-1, ,-57, ,
2, ,-59, ,
-1, ,-60, ,
-1, ,-61, ,
1, ,-61, ,
1, ,-63, ,
-1, ,-62, ,
2, ,-63, ,
-1, ,-63, ,
-1, ,-63, ,
1, ,-63, ,
1, ,-64, ,
-1, ,-63, ,
1, ,-63, ,
-1, ,-63, ,
-1, ,-63, ,
1, ,-63, ,
1, ,-64, ,
-1, ,-63, ,
2, ,-63, ,
1, ,-63, ,
-1, ,-63, ,
1, ,-62, ,
1, ,-64, ,
-1, ,-63, ,
1, ,-63, ,
-1, ,-63, ,
1, ,-63, ,
1, ,-63, ,
1, ,-64, ,
-1, ,-63, ,
1, ,-63, ,
-1, ,-63, ,
-1, ,-63, ,
1, ,-63, ,
1, ,-63, ,
-1, ,-63, ,
1, ,-63, ,
-1, ,-63, ,
-1, ,-63, ,
1, ,-63, ,
1, ,-63, ,
-1, ,-62, ,
1, ,-63, ,
1, ,-63, ,
-1, ,-63, ,
1, ,-62, ,
1, ,-63, ,
-1, ,-62, ,
1, ,-63, ,
-1, ,-63, ,
-1, ,-63, ,
1, ,-63, ,
1, ,-63, ,
-1, ,-62, ,
2, ,-63, ,
-1, ,-63, ,
-1, ,-63, ,
1, ,-63, ,
1, ,-63, ,
-1, ,-62, ,
1, ,-62, ,
-1, ,-63, ,
-1, ,-63, ,
1, ,-63, ,
1, ,-63, ,
-1, ,-62, ,
2, ,-63, ,
-1, ,-63, ,
-1, ,-63, ,
1, ,-62, ,
1, ,-63, ,
-1, ,-63, ,
2, ,-63, ,
-1, ,-62, ,
-1, ,-63, ,
1, ,-63, ,
1, ,-63, ,
-1, ,-62, ,
2, ,-63, ,
-1, ,-63, ,
-1, ,-63, ,
1, ,-63, ,
1, ,-63, ,
-1, ,-62, ,
1, ,-62, ,
-1, ,-63, ,
-1, ,-63, ,
1, ,-63, ,
1, ,-63, ,
-1, ,-62, ,
1, ,-63, ,
-1, ,-63, ,
-1, ,-63, ,
1, ,-62, ,
1, ,-63, ,
-1, ,-63, ,
1, ,-63, ,
-1, ,-63, ,
-1, ,-63, ,
1, ,-63, ,
1, ,-63, ,
-1, ,-62, ,
2, ,-63, ,
1, ,-63, ,
-1, ,-63, ,
1, ,-63, ,
1, ,-63, ,
-1, ,-62, ,
2, ,-62, ,
-1, ,-62, ,
-1, ,-63, ,
1, ,-63, ,
1, ,-63, ,
-1, ,-62, ,
1, ,-62, ,
-1, ,-63, ,
-1, ,-63, ,
1, ,-62, ,
1, ,-63, ,
-1, ,-62, ,
1, ,-63, ,
-1, ,-63, ,
-1, ,-63, ,
1, ,-63, ,
1, ,-63, ,
-1, ,-62, ,
2, ,-63, ,
-1, ,-63, ,
-1, ,-63, ,
1, ,-63, ,
1, ,-63, ,
-1, ,-63, ,
1, ,-62, ,
-1, ,-62, ,
-1, ,-63, ,
1, ,-63, ,
1, ,-63, ,
-1, ,-62, ,
2, ,-62, ,
-1, ,-63, ,
-1, ,-63, ,
1, ,-62, ,
1, ,-63, ,
-1, ,-62, ,
1, ,-63, ,
1, ,-63, ,
-1, ,-63, ,
1, ,-63, ,
1, ,-63, ,
-1, ,-62, ,
1, ,-63, ,
1, ,-63, ,
-1, ,-63, ,
1, ,-62, ,
1, ,-63, ,
-1, ,-63, ,
1, ,-63, ,
-1, ,-63, ,
1, ,-63, ,
1, ,-63, ,
1, ,-63, ,
-1, ,-62, ,
1, ,-62, ,
-1, ,-63, ,
-1, ,-62, ,
1, ,-62, ,
1, ,-63, ,
-1, ,-62, ,
1, ,-62, ,
-1, ,-63, ,
-1, ,-63, ,
1, ,-63, ,
1, ,-63, ,
-1, ,-62, ,
1, ,-62, ,
-1, ,-63, ,
-1, ,-63, ,
1, ,-63, ,
1, ,-63, ,
-1, ,-62, ,
1, ,-62, ,
-1, ,-62, ,
-1, ,-62, ,
1, ,-62, ,
1, ,-63, ,
-2, ,-62, ,
2, ,-63, ,
-1, ,-63, ,
-1, ,-63, ,
2, ,-62, ,
1, ,-63, ,
-1, ,-63, ,
2, ,-63, ,
-1, ,-63, ,
-1, ,-63, ,
1, ,-62, ,
1, ,-63, ,
-1, ,-62, ,
1, ,-63, ,
-1, ,-63, ,
-1, ,-63, ,
1, ,-63, ,
1, ,-63, ,
-1, ,-63, ,
1, ,-63, ,
-1, ,-63, ,
-1, ,-63, ,
1, ,-63, ,
1, ,-63, ,
-1, ,-62, ,
1, ,-62, ,
-1, ,-63, ,
-1, ,-63, ,
1, ,-62, ,
1, ,-63, ,
-1, ,-62, ,
1, ,-63, ,
-1, ,-62, ,
-1, ,-63, ,
1, ,-63, ,
1, ,-63, ,
-1, ,-62, ,
1, ,-62, ,
-1, ,-63, ,
-1, ,-63, ,
1, ,-62, ,
1, ,-63, ,
-1, ,-62, ,
1, ,-63, ,
-1, ,-63, ,
-1, ,-63, ,
1, ,-63, ,
1, ,-63, ,
-1, ,-62, ,
1, ,-63, ,
-1, ,-63, ,
-1, ,-63, ,
1, ,-62, ,
1, ,-63, ,
-1, ,-63, ,
1, ,-63, ,
-1, ,-63, ,
-1, ,-63, ,
1, ,-63, ,
1, ,-63, ,
-1, ,-62, ,
1, ,-62, ,
-1, ,-62, ,
-1, ,-63, ,
1, ,-63, ,
1, ,-63, ,
-1, ,-62, ,
1, ,-63, ,
-1, ,-63, ,
-1, ,-62, ,
1, ,-62, ,
1, ,-63, ,
-1, ,-62, ,
2, ,-63, ,
-1, ,-63, ,
-1, ,-63, ,
1, ,-62, ,
1, ,-63, ,
-1, ,-63, ,
1, ,-63, ,
-1, ,-62, ,
-1, ,-63, ,
1, ,-62, ,
1, ,-63, ,
-1, ,-62, ,
1, ,-63, ,
-1, ,-63, ,
-1, ,-62, ,
1, ,-62, ,
1, ,-63, ,
-1, ,-63, ,
1, ,-63, ,
-1, ,-63, ,
-1, ,-63, ,
1, ,-63, ,
1, ,-63, ,
-1, ,-62, ,
2, ,-62, ,
1, ,-63, ,
-1, ,-63, ,
1, ,-62, ,
1, ,-63, ,
-1, ,-62, ,
1, ,-63, ,
-1, ,-63, ,
-1, ,-63, ,
1, ,-62, ,
1, ,-63, ,
-1, ,-62, ,
2, ,-63, ,
-1, ,-63, ,
-1, ,-63, ,
1, ,-62, ,
1, ,-63, ,
-1, ,-63, ,
2, ,-62, ,
-1, ,-63, ,
-1, ,-63, ,
1, ,-63, ,
1, ,-63, ,
-1, ,-62, ,
1, ,-63, ,
-1, ,-63, ,
-1, ,-63, ,
1, ,-62, ,
1, ,-63, ,
-1, ,-63, ,
1, ,-63, ,
-1, ,-63, ,
-1, ,-63, ,
1, ,-63, ,
1, ,-63, ,
-1, ,-62, ,
1, ,-62, ,
-1, ,-63, ,
-1, ,-63, ,
1, ,-63, ,
1, ,-63, ,
-1, ,-62, ,
1, ,-63, ,
-1, ,-63, ,
-1, ,-63, ,
1, ,-63, ,
1, ,-63, ,
-2, ,-62, ,
1, ,-63, ,
-1, ,-63, ,
-1, ,-62, ,
1, ,-62, ,
1, ,-63, ,
-1, ,-62, ,
1, ,-63, ,
-1, ,-63, ,
-1, ,-63, ,
1, ,-63, ,
-1, ,-63, ,
-1, ,-62, ,
1, ,-63, ,
-1, ,-64, ,
-1, ,-63, ,
1, ,-63, ,
1, ,-63, ,
-1, ,-62, ,
1, ,-62, ,
-1, ,-63, ,
-1, ,-63, ,
1, ,-62, ,
1, ,-63, ,
-1, ,-62, ,
2, ,-62, ,
-1, ,-63, ,
-1, ,-62, ,
1, ,-62, ,
1, ,-63, ,
-1, ,-62, ,
1, ,-62, ,
-1, ,-63, ,
-1, ,-63, ,
1, ,-63, ,
1, ,-63, ,
-1, ,-62, ,
1, ,-63, ,
-1, ,-63, ,
-1, ,-63, ,
1, ,-62, ,
1, ,-63, ,
-1, ,-62, ,
1, ,-63, ,
-1, ,-63, ,
-1, ,-62, ,
1, ,-62, ,
1, ,-63, ,
-1, ,-62, ,
2, ,-63, ,
-1, ,-63, ,
-1, ,-63, ,
1, ,-62, ,
1, ,-63, ,
-1, ,-62, ,
1, ,-63, ,
85, ,-63, ,
69, ,-63, ,
41, ,-63, ,
26, ,-63, ,
16, ,-62, ,
12, ,-63, ,
8, ,-63, ,
6, ,-63, ,
6, ,-63, ,
5, ,-63, ,
2, ,-62, ,
5, ,-63, ,
2, ,-63, ,
2, ,-62, ,
3, ,-63, ,
3, ,-63, ,
2, ,-62, ,
3, ,-62, ,
2, ,-63, ,
2, ,-63, ,
3, ,-62, ,
3, ,-63, ,
1, ,-62, ,
3, ,-62, ,
2, ,-62, ,
2, ,-62, ,
3, ,-63, ,
3, ,-63, ,
1, ,-62, ,
3, ,-63, ,
2, ,-63, ,
2, ,-63, ,
3, ,-62, ,
2, ,-63, ,
1, ,-62, ,
3, ,-63, ,
2, ,-63, ,
2, ,-62, ,
2, ,-63, ,
2, ,-63, ,
1, ,-62, ,
3, ,-63, ,
2, ,-63, ,
2, ,-63, ,
3, ,-62, ,
3, ,-63, ,
1, ,-63, ,
5, ,-63, ,
2, ,-63, ,
2, ,-63, ,
2, ,-62, ,
2, ,-63, ,
1, ,-62, ,
3, ,-63, ,
2, ,-63, ,
1, ,-63, ,
3, ,-63, ,
2, ,-63, ,
1, ,-62, ,
5, ,-62, ,
2, ,-63, ,
1, ,-62, ,
2, ,-63, ,
2, ,-63, ,
1, ,-62, ,
3, ,-62, ,
1, ,-63, ,
1, ,-63, ,
3, ,-62, ,
2, ,-63, ,
1, ,-62, ,
3, ,-63, ,
2, ,-63, ,
1, ,-63, ,
2, ,-63, ,
2, ,-63, ,
1, ,-62, ,
3, ,-63, ,
2, ,-63, ,
1, ,-63, ,
2, ,-62, ,
2, ,-63, ,
1, ,-62, ,
5, ,-62, ,
2, ,-63, ,
