src/timing_folder/2chSin0000062.CSV

Format,1.0B,
Memory Length,10000,Memory Length,10000,
IntpDistance,0,IntpDistance,0,
Trigger Address,4999,Trigger Address,4999,
Trigger Level,1.192E-01,Trigger Level,1.192E-01,
Source,CH1,Source,CH2,
Vertical Units,V,Vertical Units,V,
Vertical Units Div,0,Vertical Units Div,0,
Vertical Units Extend Div,16,Vertical Units Extend Div,16,
Label,,Label,,
Probe Type,0,Probe Type,0,
Probe Ratio,1.000e+01,Probe Ratio,1.000e+00,
Vertical Scale,2.000e-02,Vertical Scale,1.000e+00,
Vertical Position,-5.120e-02,Vertical Position,2.000e-01,
Horizontal Units,S,Horizontal Units,S,
Horizontal Scale,5.000E-07,Horizontal Scale,5.000E-07,
Horizontal Position,0.000E+00,Horizontal Position,0.000E+00,
Horizontal Mode,Main,Horizontal Mode,Main,
SincET Mode,Real Time,SincET Mode,Real Time,
Sampling Period,2.000e-09,Sampling Period,2.000e-09,
Horizontal Old Scale,5.000E-07,Horizontal Old Scale,5.000E-07,
Horizontal Old Position,0.000E+00,Horizontal Old Position,0.000E+00,
Firmware,V1.23,Firmware,V1.23,
Mode,Fast,Mode,Fast,
Waveform Data,,Waveform Data,,
1, ,50, ,
3, ,50, ,
4, ,50, ,
0, ,49, ,
1, ,50, ,
3, ,49, ,
3, ,50, ,
-1, ,50, ,
4, ,50, ,
3, ,50, ,
3, ,51, ,
3, ,48, ,
1, ,50, ,
1, ,50, ,
6, ,50, ,
-1, ,49, ,
1, ,50, ,
5, ,49, ,
4, ,50, ,
-1, ,50, ,
3, ,50, ,
1, ,50, ,
1, ,51, ,
3, ,48, ,
1, ,50, ,
0, ,50, ,
5, ,50, ,
-2, ,50, ,
0, ,51, ,
3, ,49, ,
4, ,51, ,
-2, ,50, ,
4, ,50, ,
3, ,50, ,
3, ,51, ,
0, ,48, ,
-1, ,50, ,
0, ,50, ,
3, ,50, ,
0, ,49, ,
3, ,50, ,
4, ,49, ,
4, ,50, ,
-1, ,50, ,
1, ,50, ,
0, ,50, ,
1, ,51, ,
0, ,48, ,
1, ,50, ,
1, ,50, ,
5, ,50, ,
-2, ,50, ,
1, ,50, ,
4, ,49, ,
3, ,50, ,
0, ,50, ,
4, ,50, ,
3, ,50, ,
3, ,51, ,
1, ,49, ,
0, ,50, ,
-1, ,50, ,
4, ,50, ,
-2, ,50, ,
3, ,50, ,
3, ,49, ,
6, ,50, ,
-4, ,50, ,
3, ,50, ,
1, ,50, ,
0, ,51, ,
1, ,49, ,
3, ,50, ,
0, ,50, ,
4, ,50, ,
-1, ,50, ,
0, ,51, ,
1, ,49, ,
1, ,51, ,
-1, ,50, ,
4, ,50, ,
1, ,50, ,
0, ,51, ,
0, ,48, ,
0, ,50, ,
0, ,50, ,
5, ,50, ,
-1, ,50, ,
1, ,51, ,
4, ,49, ,
4, ,50, ,
-2, ,50, ,
3, ,50, ,
0, ,50, ,
1, ,51, ,
1, ,48, ,
3, ,50, ,
3, ,51, ,
5, ,50, ,
-1, ,49, ,
1, ,51, ,
4, ,49, ,
1, ,50, ,
-2, ,50, ,
1, ,50, ,
0, ,50, ,
3, ,51, ,
4, ,49, ,
1, ,50, ,
-1, ,50, ,
3, ,50, ,
-4, ,49, ,
0, ,50, ,
4, ,49, ,
4, ,50, ,
-4, ,50, ,
3, ,50, ,
0, ,50, ,
3, ,51, ,
3, ,49, ,
3, ,50, ,
3, ,50, ,
4, ,50, ,
0, ,50, ,
1, ,51, ,
0, ,49, ,
1, ,51, ,
-1, ,50, ,
4, ,50, ,
1, ,50, ,
4, ,51, ,
0, ,49, ,
1, ,50, ,
0, ,50, ,
3, ,50, ,
0, ,49, ,
1, ,51, ,
3, ,49, ,
4, ,51, ,
-2, ,50, ,
1, ,50, ,
0, ,50, ,
1, ,51, ,
3, ,48, ,
3, ,50, ,
4, ,50, ,
5, ,50, ,
-2, ,50, ,
0, ,50, ,
3, ,49, ,
4, ,50, ,
-2, ,50, ,
5, ,50, ,
1, ,50, ,
4, ,51, ,
1, ,48, ,
1, ,50, ,
0, ,50, ,
5, ,50, ,
-2, ,50, ,
1, ,51, ,
4, ,49, ,
3, ,50, ,
-1, ,50, ,
4, ,50, ,
3, ,50, ,
1, ,51, ,
3, ,49, ,
4, ,50, ,
3, ,50, ,
4, ,50, ,
-2, ,50, ,
0, ,51, ,
3, ,49, ,
1, ,51, ,
-1, ,50, ,
4, ,50, ,
3, ,50, ,
1, ,51, ,
1, ,48, ,
0, ,50, ,
0, ,50, ,
5, ,50, ,
-1, ,50, ,
3, ,51, ,
3, ,49, ,
1, ,51, ,
-1, ,50, ,
3, ,50, ,
0, ,50, ,
3, ,51, ,
3, ,48, ,
3, ,50, ,
3, ,50, ,
3, ,50, ,
-1, ,50, ,
1, ,50, ,
4, ,50, ,
3, ,51, ,
-2, ,50, ,
5, ,50, ,
4, ,50, ,
3, ,51, ,
1, ,48, ,
0, ,50, ,
-1, ,50, ,
4, ,50, ,
-1, ,50, ,
1, ,51, ,
4, ,49, ,
1, ,51, ,
-2, ,50, ,
5, ,50, ,
1, ,50, ,
1, ,51, ,
1, ,48, ,
1, ,50, ,
0, ,50, ,
4, ,50, ,
-2, ,49, ,
-1, ,50, ,
3, ,49, ,
0, ,51, ,
-1, ,50, ,
5, ,50, ,
1, ,50, ,
4, ,51, ,
0, ,49, ,
1, ,50, ,
0, ,50, ,
4, ,50, ,
-1, ,49, ,
3, ,50, ,
4, ,49, ,
4, ,50, ,
-1, ,50, ,
4, ,50, ,
1, ,50, ,
4, ,51, ,
3, ,48, ,
1, ,50, ,
1, ,50, ,
3, ,50, ,
-1, ,50, ,
1, ,51, ,
3, ,49, ,
3, ,51, ,
-1, ,50, ,
4, ,50, ,
1, ,50, ,
5, ,51, ,
0, ,48, ,
1, ,50, ,
1, ,50, ,
4, ,50, ,
0, ,50, ,
1, ,51, ,
4, ,49, ,
4, ,51, ,
-1, ,50, ,
3, ,50, ,
1, ,50, ,
4, ,51, ,
1, ,48, ,
3, ,50, ,
1, ,50, ,
4, ,50, ,
-2, ,50, ,
1, ,51, ,
3, ,49, ,
3, ,51, ,
-1, ,50, ,
4, ,50, ,
1, ,50, ,
4, ,51, ,
0, ,49, ,
1, ,50, ,
-1, ,50, ,
4, ,50, ,
-1, ,50, ,
1, ,51, ,
3, ,49, ,
3, ,51, ,
-1, ,50, ,
1, ,50, ,
1, ,50, ,
3, ,51, ,
1, ,49, ,
3, ,50, ,
1, ,50, ,
4, ,50, ,
0, ,50, ,
1, ,50, ,
3, ,49, ,
3, ,51, ,
-2, ,50, ,
1, ,50, ,
1, ,50, ,
3, ,51, ,
1, ,49, ,
1, ,50, ,
0, ,50, ,
5, ,50, ,
-1, ,50, ,
0, ,51, ,
3, ,49, ,
3, ,51, ,
-2, ,50, ,
3, ,50, ,
1, ,50, ,
1, ,51, ,
3, ,48, ,
3, ,50, ,
3, ,50, ,
4, ,50, ,
0, ,49, ,
3, ,51, ,
4, ,49, ,
3, ,51, ,
0, ,50, ,
3, ,50, ,
3, ,50, ,
3, ,51, ,
0, ,48, ,
-1, ,50, ,
-1, ,51, ,
3, ,50, ,
-2, ,49, ,
3, ,50, ,
4, ,49, ,
4, ,50, ,
-4, ,50, ,
4, ,50, ,
3, ,50, ,
3, ,51, ,
1, ,48, ,
1, ,50, ,
1, ,50, ,
5, ,50, ,
-2, ,50, ,
0, ,51, ,
1, ,49, ,
3, ,50, ,
-1, ,50, ,
4, ,50, ,
3, ,50, ,
1, ,51, ,
1, ,48, ,
0, ,50, ,
0, ,50, ,
4, ,50, ,
-2, ,50, ,
0, ,50, ,
3, ,49, ,
4, ,50, ,
-2, ,50, ,
5, ,50, ,
0, ,50, ,
3, ,51, ,
3, ,48, ,
1, ,50, ,
0, ,50, ,
6, ,50, ,
-1, ,50, ,
1, ,51, ,
3, ,49, ,
1, ,50, ,
0, ,50, ,
4, ,50, ,
0, ,50, ,
3, ,51, ,
1, ,48, ,
1, ,50, ,
0, ,50, ,
4, ,50, ,
-1, ,50, ,
1, ,51, ,
4, ,49, ,
3, ,50, ,
-1, ,50, ,
3, ,50, ,
0, ,50, ,
0, ,50, ,
1, ,49, ,
1, ,50, ,
3, ,50, ,
5, ,50, ,
-2, ,50, ,
0, ,50, ,
1, ,49, ,
1, ,50, ,
-2, ,50, ,
4, ,50, ,
0, ,50, ,
1, ,51, ,
0, ,49, ,
1, ,50, ,
1, ,50, ,
3, ,50, ,
0, ,50, ,
1, ,51, ,
3, ,49, ,
4, ,50, ,
-1, ,50, ,
4, ,50, ,
0, ,50, ,
1, ,51, ,
1, ,48, ,
1, ,50, ,
1, ,50, ,
3, ,50, ,
-1, ,50, ,
0, ,51, ,
1, ,49, ,
1, ,51, ,
-2, ,50, ,
3, ,50, ,
4, ,50, ,
4, ,51, ,
-1, ,48, ,
0, ,50, ,
-1, ,50, ,
3, ,50, ,
-2, ,50, ,
1, ,50, ,
4, ,50, ,
4, ,51, ,
0, ,50, ,
3, ,50, ,
0, ,50, ,
1, ,51, ,
1, ,49, ,
1, ,50, ,
0, ,50, ,
5, ,50, ,
-2, ,50, ,
0, ,51, ,
3, ,49, ,
3, ,51, ,
-2, ,50, ,
4, ,50, ,
1, ,50, ,
1, ,51, ,
3, ,49, ,
1, ,50, ,
0, ,51, ,
4, ,50, ,
-1, ,49, ,
1, ,51, ,
4, ,50, ,
5, ,50, ,
-1, ,50, ,
1, ,50, ,
-1, ,50, ,
1, ,51, ,
3, ,49, ,
3, ,50, ,
1, ,50, ,
4, ,50, ,
-1, ,50, ,
1, ,51, ,
3, ,49, ,
3, ,51, ,
0, ,50, ,
5, ,50, ,
4, ,50, ,
3, ,51, ,
3, ,48, ,
1, ,50, ,
1, ,50, ,
4, ,50, ,
-1, ,50, ,
3, ,51, ,
5, ,49, ,
5, ,50, ,
-1, ,50, ,
4, ,50, ,
1, ,50, ,
3, ,51, ,
1, ,49, ,
4, ,50, ,
1, ,50, ,
5, ,50, ,
-4, ,50, ,
0, ,51, ,
3, ,49, ,
1, ,51, ,
-1, ,50, ,
3, ,50, ,
1, ,50, ,
3, ,51, ,
3, ,49, ,
1, ,50, ,
-1, ,50, ,
5, ,50, ,
-1, ,50, ,
0, ,50, ,
5, ,49, ,
4, ,51, ,
0, ,50, ,
5, ,50, ,
1, ,50, ,
1, ,51, ,
3, ,48, ,
3, ,50, ,
3, ,50, ,
4, ,50, ,
-1, ,50, ,
0, ,50, ,
1, ,49, ,
1, ,51, ,
-1, ,50, ,
5, ,50, ,
3, ,50, ,
1, ,51, ,
1, ,49, ,
1, ,50, ,
1, ,50, ,
4, ,50, ,
-1, ,50, ,
1, ,50, ,
4, ,49, ,
4, ,50, ,
-1, ,50, ,
3, ,50, ,
0, ,50, ,
1, ,51, ,
1, ,48, ,
1, ,50, ,
1, ,50, ,
5, ,50, ,
-2, ,49, ,
0, ,51, ,
4, ,49, ,
3, ,50, ,
-2, ,50, ,
5, ,50, ,
3, ,50, ,
3, ,51, ,
-1, ,48, ,
1, ,50, ,
0, ,50, ,
5, ,50, ,
-1, ,49, ,
1, ,51, ,
4, ,49, ,
5, ,50, ,
-1, ,50, ,
1, ,50, ,
0, ,50, ,
3, ,51, ,
-1, ,48, ,
0, ,50, ,
3, ,50, ,
5, ,50, ,
-2, ,49, ,
1, ,51, ,
1, ,49, ,
0, ,51, ,
-1, ,50, ,
3, ,50, ,
1, ,50, ,
1, ,51, ,
0, ,49, ,
1, ,51, ,
3, ,50, ,
6, ,50, ,
-2, ,50, ,
1, ,51, ,
5, ,49, ,
3, ,50, ,
-1, ,50, ,
1, ,50, ,
1, ,50, ,
1, ,51, ,
3, ,49, ,
1, ,50, ,
0, ,50, ,
6, ,50, ,
-1, ,50, ,
1, ,51, ,
3, ,50, ,
3, ,50, ,
-2, ,50, ,
4, ,50, ,
1, ,50, ,
1, ,51, ,
1, ,49, ,
3, ,50, ,
-1, ,51, ,
3, ,50, ,
0, ,50, ,
1, ,51, ,
3, ,49, ,
3, ,50, ,
0, ,50, ,
1, ,50, ,
1, ,50, ,
1, ,51, ,
1, ,49, ,
3, ,50, ,
0, ,50, ,
4, ,50, ,
0, ,49, ,
1, ,50, ,
3, ,49, ,
1, ,50, ,
0, ,50, ,
3, ,49, ,
3, ,49, ,
4, ,51, ,
0, ,48, ,
1, ,50, ,
1, ,50, ,
4, ,50, ,
0, ,50, ,
3, ,51, ,
3, ,49, ,
3, ,51, ,
0, ,50, ,
0, ,50, ,
-1, ,50, ,
1, ,51, ,
0, ,49, ,
1, ,50, ,
3, ,50, ,
5, ,50, ,
0, ,49, ,
1, ,51, ,
3, ,49, ,
3, ,51, ,
-2, ,50, ,
4, ,50, ,
1, ,50, ,
3, ,51, ,
0, ,49, ,
3, ,50, ,
0, ,50, ,
3, ,50, ,
-2, ,50, ,
1, ,50, ,
4, ,49, ,
5, ,50, ,
-2, ,50, ,
3, ,50, ,
3, ,50, ,
1, ,51, ,
1, ,48, ,
4, ,50, ,
3, ,50, ,
5, ,50, ,
-2, ,50, ,
1, ,51, ,
1, ,49, ,
1, ,51, ,
0, ,50, ,
4, ,50, ,
1, ,50, ,
1, ,50, ,
1, ,48, ,
3, ,50, ,
1, ,51, ,
3, ,50, ,
-2, ,50, ,
1, ,51, ,
4, ,49, ,
3, ,51, ,
-2, ,50, ,
3, ,50, ,
1, ,50, ,
1, ,51, ,
3, ,49, ,
3, ,50, ,
1, ,50, ,
4, ,50, ,
-2, ,50, ,
0, ,51, ,
1, ,49, ,
1, ,50, ,
-1, ,50, ,
3, ,50, ,
1, ,50, ,
0, ,51, ,
0, ,49, ,
1, ,50, ,
0, ,50, ,
3, ,50, ,
-2, ,50, ,
0, ,50, ,
3, ,49, ,
1, ,50, ,
-2, ,50, ,
3, ,50, ,
1, ,50, ,
1, ,51, ,
1, ,49, ,
1, ,50, ,
3, ,50, ,
5, ,49, ,
-1, ,49, ,
1, ,50, ,
3, ,49, ,
0, ,51, ,
-2, ,51, ,
3, ,50, ,
4, ,50, ,
3, ,51, ,
3, ,48, ,
3, ,50, ,
0, ,50, ,
4, ,50, ,
-1, ,50, ,
3, ,51, ,
5, ,49, ,
3, ,51, ,
-2, ,50, ,
3, ,50, ,
1, ,50, ,
1, ,51, ,
1, ,49, ,
1, ,50, ,
1, ,50, ,
4, ,50, ,
-1, ,49, ,
0, ,50, ,
3, ,49, ,
3, ,51, ,
-1, ,50, ,
3, ,50, ,
1, ,50, ,
3, ,51, ,
-1, ,48, ,
0, ,50, ,
0, ,50, ,
3, ,50, ,
0, ,49, ,
1, ,51, ,
3, ,49, ,
1, ,50, ,
-2, ,50, ,
3, ,50, ,
1, ,50, ,
1, ,51, ,
3, ,48, ,
4, ,50, ,
1, ,50, ,
3, ,50, ,
0, ,50, ,
1, ,51, ,
3, ,49, ,
3, ,51, ,
-2, ,50, ,
3, ,50, ,
1, ,50, ,
3, ,51, ,
-1, ,48, ,
1, ,50, ,
0, ,51, ,
5, ,50, ,
-2, ,50, ,
1, ,51, ,
4, ,50, ,
3, ,51, ,
-2, ,50, ,
1, ,50, ,
0, ,50, ,
4, ,51, ,
1, ,49, ,
3, ,50, ,
1, ,50, ,
6, ,50, ,
-2, ,50, ,
0, ,51, ,
3, ,49, ,
1, ,51, ,
0, ,50, ,
6, ,50, ,
1, ,50, ,
3, ,51, ,
1, ,48, ,
1, ,50, ,
-1, ,50, ,
4, ,50, ,
-2, ,50, ,
1, ,51, ,
4, ,49, ,
1, ,51, ,
-1, ,50, ,
1, ,50, ,
0, ,50, ,
0, ,51, ,
1, ,49, ,
3, ,50, ,
0, ,50, ,
5, ,50, ,
-2, ,49, ,
-1, ,51, ,
3, ,49, ,
0, ,50, ,
-2, ,50, ,
5, ,50, ,
1, ,50, ,
1, ,51, ,
0, ,48, ,
1, ,50, ,
-1, ,51, ,
5, ,50, ,
-2, ,50, ,
0, ,51, ,
3, ,49, ,
3, ,50, ,
-4, ,50, ,
3, ,50, ,
1, ,50, ,
1, ,51, ,
-1, ,49, ,
3, ,50, ,
0, ,50, ,
5, ,50, ,
-2, ,50, ,
3, ,50, ,
3, ,49, ,
0, ,51, ,
-1, ,50, ,
5, ,50, ,
1, ,50, ,
0, ,51, ,
0, ,48, ,
0, ,50, ,
0, ,50, ,
5, ,50, ,
-1, ,50, ,
0, ,50, ,
4, ,49, ,
3, ,50, ,
-2, ,50, ,
3, ,50, ,
1, ,50, ,
3, ,51, ,
1, ,49, ,
0, ,50, ,
1, ,50, ,
5, ,50, ,
-1, ,49, ,
1, ,50, ,
3, ,49, ,
3, ,51, ,
-2, ,50, ,
3, ,50, ,
1, ,50, ,
3, ,51, ,
0, ,48, ,
0, ,50, ,
0, ,50, ,
3, ,50, ,
0, ,50, ,
3, ,51, ,
4, ,49, ,
3, ,50, ,
0, ,50, ,
4, ,50, ,
1, ,50, ,
1, ,51, ,
0, ,49, ,
3, ,50, ,
3, ,50, ,
4, ,50, ,
-1, ,50, ,
0, ,50, ,
3, ,49, ,
3, ,50, ,
-2, ,50, ,
4, ,50, ,
4, ,50, ,
3, ,51, ,
-1, ,48, ,
3, ,50, ,
0, ,51, ,
5, ,50, ,
-1, ,49, ,
1, ,51, ,
4, ,49, ,
4, ,50, ,
-1, ,50, ,
1, ,50, ,
0, ,50, ,
1, ,51, ,
1, ,49, ,
1, ,50, ,
0, ,50, ,
5, ,50, ,
-2, ,49, ,
0, ,51, ,
3, ,49, ,
3, ,51, ,
-2, ,50, ,
6, ,50, ,
1, ,50, ,
0, ,51, ,
0, ,49, ,
1, ,50, ,
-1, ,50, ,
3, ,50, ,
-1, ,50, ,
1, ,50, ,
3, ,50, ,
1, ,51, ,
0, ,50, ,
3, ,50, ,
3, ,50, ,
1, ,51, ,
1, ,49, ,
1, ,50, ,
-1, ,50, ,
5, ,49, ,
-1, ,49, ,
1, ,50, ,
3, ,49, ,
4, ,51, ,
-1, ,50, ,
4, ,50, ,
1, ,50, ,
1, ,51, ,
0, ,48, ,
0, ,50, ,
1, ,51, ,
4, ,50, ,
-2, ,50, ,
0, ,51, ,
3, ,49, ,
1, ,51, ,
-1, ,50, ,
1, ,50, ,
0, ,50, ,
3, ,51, ,
1, ,48, ,
1, ,51, ,
1, ,51, ,
1, ,50, ,
-4, ,49, ,
-1, ,51, ,
1, ,50, ,
1, ,50, ,
-1, ,50, ,
3, ,50, ,
1, ,50, ,
3, ,51, ,
0, ,48, ,
1, ,50, ,
0, ,50, ,
4, ,50, ,
-1, ,50, ,
1, ,51, ,
4, ,49, ,
4, ,51, ,
-1, ,50, ,
1, ,50, ,
3, ,50, ,
3, ,51, ,
1, ,49, ,
3, ,50, ,
3, ,50, ,
4, ,50, ,
-1, ,49, ,
0, ,51, ,
1, ,49, ,
0, ,51, ,
-1, ,50, ,
4, ,50, ,
4, ,50, ,
1, ,51, ,
0, ,48, ,
1, ,50, ,
0, ,51, ,
3, ,50, ,
-1, ,50, ,
1, ,51, ,
3, ,49, ,
3, ,51, ,
-4, ,50, ,
1, ,50, ,
1, ,51, ,
0, ,51, ,
0, ,49, ,
0, ,51, ,
0, ,50, ,
6, ,49, ,
0, ,49, ,
0, ,51, ,
1, ,49, ,
3, ,51, ,
-1, ,50, ,
3, ,50, ,
3, ,50, ,
3, ,51, ,
0, ,48, ,
1, ,50, ,
1, ,51, ,
3, ,50, ,
0, ,50, ,
1, ,51, ,
4, ,50, ,
4, ,50, ,
-4, ,50, ,
3, ,50, ,
1, ,50, ,
1, ,51, ,
0, ,49, ,
1, ,50, ,
0, ,50, ,
5, ,49, ,
-2, ,50, ,
0, ,50, ,
1, ,50, ,
1, ,50, ,
-2, ,50, ,
5, ,50, ,
1, ,50, ,
3, ,51, ,
0, ,49, ,
3, ,50, ,
1, ,50, ,
3, ,50, ,
-1, ,50, ,
0, ,50, ,
3, ,49, ,
4, ,50, ,
-2, ,50, ,
3, ,50, ,
1, ,50, ,
0, ,51, ,
1, ,49, ,
3, ,50, ,
-2, ,50, ,
4, ,50, ,
-1, ,50, ,
0, ,50, ,
1, ,49, ,
3, ,50, ,
-1, ,50, ,
5, ,50, ,
1, ,50, ,
3, ,51, ,
-1, ,48, ,
0, ,50, ,
-1, ,50, ,
3, ,50, ,
-1, ,49, ,
3, ,50, ,
4, ,49, ,
4, ,51, ,
-1, ,50, ,
1, ,49, ,
1, ,50, ,
1, ,51, ,
-1, ,49, ,
3, ,50, ,
1, ,50, ,
4, ,49, ,
1, ,49, ,
1, ,50, ,
3, ,49, ,
1, ,50, ,
-1, ,50, ,
3, ,50, ,
1, ,50, ,
3, ,51, ,
1, ,48, ,
3, ,50, ,
1, ,51, ,
1, ,50, ,
-2, ,50, ,
1, ,50, ,
3, ,49, ,
4, ,50, ,
0, ,50, ,
3, ,50, ,
-2, ,50, ,
0, ,51, ,
0, ,49, ,
3, ,50, ,
3, ,50, ,
4, ,50, ,
1, ,49, ,
0, ,50, ,
1, ,49, ,
1, ,51, ,
0, ,50, ,
3, ,50, ,
3, ,50, ,
1, ,51, ,
0, ,48, ,
0, ,50, ,
0, ,51, ,
3, ,50, ,
0, ,50, ,
3, ,51, ,
3, ,49, ,
1, ,51, ,
-2, ,50, ,
3, ,50, ,
-1, ,50, ,
1, ,51, ,
4, ,49, ,
4, ,50, ,
1, ,50, ,
4, ,50, ,
-1, ,50, ,
1, ,51, ,
1, ,49, ,
4, ,51, ,
-2, ,50, ,
3, ,50, ,
0, ,50, ,
1, ,51, ,
0, ,48, ,
1, ,50, ,
-1, ,50, ,
3, ,50, ,
-1, ,50, ,
1, ,51, ,
3, ,49, ,
4, ,51, ,
-2, ,50, ,
3, ,50, ,
1, ,50, ,
3, ,51, ,
0, ,48, ,
1, ,50, ,
3, ,50, ,
4, ,50, ,
-1, ,49, ,
0, ,51, ,
1, ,49, ,
1, ,51, ,
-2, ,50, ,
4, ,50, ,
3, ,50, ,
3, ,51, ,
-1, ,48, ,
3, ,50, ,
1, ,50, ,
1, ,50, ,
-5, ,49, ,
0, ,51, ,
5, ,49, ,
1, ,51, ,
-4, ,51, ,
3, ,50, ,
1, ,50, ,
0, ,51, ,
1, ,49, ,
3, ,50, ,
1, ,50, ,
4, ,50, ,
-2, ,50, ,
1, ,50, ,
3, ,49, ,
4, ,51, ,
-2, ,50, ,
3, ,50, ,
1, ,50, ,
1, ,51, ,
1, ,48, ,
1, ,50, ,
1, ,50, ,
4, ,50, ,
-1, ,50, ,
1, ,51, ,
3, ,49, ,
3, ,51, ,
-1, ,50, ,
4, ,50, ,
-1, ,50, ,
4, ,51, ,
1, ,49, ,
1, ,50, ,
1, ,50, ,
5, ,50, ,
-1, ,49, ,
0, ,51, ,
1, ,49, ,
1, ,51, ,
-1, ,50, ,
3, ,50, ,
1, ,50, ,
3, ,51, ,
1, ,49, ,
1, ,50, ,
0, ,51, ,
3, ,50, ,
-1, ,50, ,
0, ,50, ,
1, ,49, ,
3, ,51, ,
-1, ,50, ,
4, ,50, ,
0, ,50, ,
0, ,51, ,
1, ,49, ,
3, ,50, ,
-1, ,50, ,
5, ,50, ,
-1, ,50, ,
0, ,51, ,
1, ,49, ,
0, ,51, ,
-1, ,50, ,
4, ,50, ,
1, ,50, ,
3, ,51, ,
1, ,48, ,
3, ,50, ,
-2, ,51, ,
4, ,50, ,
-1, ,49, ,
1, ,50, ,
3, ,49, ,
1, ,51, ,
-2, ,50, ,
4, ,50, ,
0, ,50, ,
1, ,51, ,
3, ,48, ,
3, ,50, ,
1, ,50, ,
3, ,50, ,
-1, ,49, ,
0, ,51, ,
3, ,49, ,
3, ,51, ,
-1, ,50, ,
4, ,50, ,
1, ,50, ,
4, ,51, ,
1, ,48, ,
0, ,50, ,
-1, ,50, ,
4, ,50, ,
-2, ,50, ,
1, ,50, ,
5, ,49, ,
4, ,51, ,
0, ,50, ,
4, ,50, ,
1, ,50, ,
0, ,51, ,
0, ,49, ,
1, ,50, ,
1, ,50, ,
5, ,50, ,
-4, ,49, ,
0, ,50, ,
3, ,49, ,
0, ,50, ,
-1, ,50, ,
5, ,50, ,
0, ,50, ,
1, ,51, ,
1, ,48, ,
1, ,50, ,
0, ,50, ,
4, ,49, ,
-1, ,49, ,
1, ,51, ,
3, ,49, ,
1, ,51, ,
-1, ,50, ,
1, ,50, ,
-1, ,50, ,
0, ,51, ,
1, ,48, ,
1, ,50, ,
-1, ,50, ,
5, ,49, ,
-2, ,50, ,
0, ,51, ,
1, ,49, ,
1, ,51, ,
-1, ,50, ,
4, ,50, ,
1, ,50, ,
3, ,51, ,
-1, ,48, ,
3, ,50, ,
0, ,50, ,
5, ,50, ,
0, ,50, ,
1, ,51, ,
4, ,49, ,
1, ,51, ,
-1, ,50, ,
4, ,50, ,
1, ,50, ,
1, ,51, ,
3, ,49, ,
3, ,50, ,
0, ,50, ,
5, ,50, ,
-2, ,49, ,
-1, ,50, ,
1, ,49, ,
0, ,51, ,
-1, ,50, ,
3, ,50, ,
0, ,50, ,
0, ,51, ,
1, ,48, ,
1, ,50, ,
-1, ,50, ,
4, ,50, ,
-2, ,50, ,
0, ,51, ,
3, ,49, ,
3, ,50, ,
-2, ,50, ,
4, ,50, ,
0, ,50, ,
1, ,51, ,
3, ,49, ,
1, ,50, ,
1, ,50, ,
5, ,50, ,
-1, ,49, ,
0, ,51, ,
3, ,49, ,
4, ,51, ,
-1, ,50, ,
4, ,50, ,
1, ,51, ,
3, ,51, ,
1, ,48, ,
1, ,50, ,
0, ,50, ,
5, ,50, ,
-2, ,50, ,
1, ,51, ,
4, ,49, ,
3, ,51, ,
-1, ,50, ,
4, ,50, ,
0, ,50, ,
3, ,51, ,
3, ,49, ,
1, ,50, ,
1, ,50, ,
5, ,50, ,
-4, ,50, ,
0, ,51, ,
4, ,49, ,
1, ,51, ,
-1, ,50, ,
4, ,50, ,
1, ,50, ,
1, ,51, ,
1, ,48, ,
1, ,50, ,
-1, ,51, ,
3, ,50, ,
-1, ,50, ,
1, ,51, ,
3, ,50, ,
0, ,50, ,
-4, ,50, ,
1, ,50, ,
0, ,50, ,
1, ,51, ,
3, ,49, ,
1, ,50, ,
1, ,50, ,
4, ,50, ,
-1, ,49, ,
-1, ,51, ,
1, ,50, ,
3, ,51, ,
-2, ,50, ,
3, ,50, ,
0, ,50, ,
3, ,51, ,
1, ,48, ,
1, ,50, ,
1, ,51, ,
4, ,50, ,
-1, ,50, ,
1, ,51, ,
4, ,49, ,
1, ,50, ,
-2, ,50, ,
3, ,50, ,
1, ,50, ,
0, ,51, ,
0, ,49, ,
3, ,50, ,
1, ,50, ,
5, ,50, ,
-2, ,49, ,
0, ,51, ,
3, ,49, ,
1, ,51, ,
-5, ,50, ,
4, ,50, ,
3, ,50, ,
1, ,51, ,
0, ,48, ,
0, ,50, ,
0, ,51, ,
3, ,50, ,
-1, ,49, ,
1, ,51, ,
4, ,49, ,
5, ,50, ,
-2, ,50, ,
3, ,50, ,
0, ,50, ,
1, ,51, ,
1, ,48, ,
0, ,50, ,
1, ,50, ,
4, ,50, ,
-4, ,50, ,
0, ,51, ,
1, ,49, ,
0, ,51, ,
-2, ,50, ,
4, ,50, ,
0, ,50, ,
1, ,51, ,
0, ,48, ,
0, ,50, ,
0, ,50, ,
3, ,50, ,
-2, ,50, ,
0, ,50, ,
3, ,49, ,
4, ,50, ,
-2, ,50, ,
1, ,49, ,
0, ,50, ,
0, ,51, ,
0, ,48, ,
-1, ,50, ,
-1, ,50, ,
5, ,50, ,
-1, ,49, ,
-1, ,51, ,
3, ,49, ,
3, ,50, ,
-4, ,50, ,
5, ,50, ,
1, ,50, ,
3, ,51, ,
3, ,48, ,
1, ,50, ,
1, ,50, ,
5, ,50, ,
-4, ,49, ,
1, ,51, ,
5, ,49, ,
1, ,50, ,
0, ,50, ,
3, ,50, ,
1, ,50, ,
1, ,51, ,
3, ,49, ,
1, ,50, ,
-1, ,50, ,
4, ,50, ,
-1, ,49, ,
0, ,51, ,
3, ,49, ,
3, ,51, ,
-1, ,50, ,
5, ,50, ,
4, ,50, ,
1, ,51, ,
1, ,48, ,
0, ,50, ,
0, ,51, ,
4, ,50, ,
-2, ,50, ,
1, ,51, ,
3, ,50, ,
0, ,50, ,
-2, ,50, ,
4, ,50, ,
0, ,50, ,
0, ,51, ,
0, ,49, ,
3, ,50, ,
1, ,50, ,
4, ,50, ,
-1, ,50, ,
1, ,50, ,
3, ,49, ,
1, ,50, ,
-2, ,50, ,
4, ,50, ,
1, ,50, ,
1, ,51, ,
0, ,48, ,
3, ,50, ,
-1, ,51, ,
5, ,50, ,
-1, ,50, ,
1, ,51, ,
3, ,49, ,
3, ,51, ,
-1, ,50, ,
1, ,50, ,
0, ,50, ,
4, ,51, ,
3, ,49, ,
0, ,50, ,
-1, ,50, ,
4, ,50, ,
-1, ,49, ,
0, ,51, ,
4, ,50, ,
3, ,51, ,
-2, ,50, ,
5, ,50, ,
1, ,50, ,
3, ,51, ,
1, ,48, ,
1, ,50, ,
-1, ,50, ,
4, ,50, ,
-1, ,50, ,
1, ,51, ,
4, ,49, ,
1, ,50, ,
-1, ,50, ,
5, ,50, ,
1, ,50, ,
1, ,51, ,
1, ,49, ,
3, ,51, ,
3, ,51, ,
4, ,50, ,
-1, ,49, ,
-1, ,51, ,
3, ,49, ,
3, ,51, ,
-1, ,50, ,
4, ,50, ,
1, ,50, ,
3, ,51, ,
-1, ,48, ,
1, ,50, ,
1, ,51, ,
4, ,50, ,
0, ,50, ,
1, ,51, ,
4, ,49, ,
4, ,51, ,
-2, ,50, ,
1, ,50, ,
1, ,50, ,
1, ,51, ,
-1, ,49, ,
3, ,51, ,
1, ,50, ,
4, ,49, ,
-4, ,50, ,
1, ,50, ,
1, ,50, ,
0, ,51, ,
-1, ,50, ,
4, ,50, ,
3, ,50, ,
1, ,51, ,
-1, ,48, ,
-1, ,50, ,
-1, ,50, ,
3, ,50, ,
-2, ,49, ,
1, ,50, ,
3, ,49, ,
1, ,51, ,
-1, ,50, ,
3, ,49, ,
3, ,49, ,
3, ,51, ,
3, ,48, ,
3, ,50, ,
1, ,50, ,
4, ,50, ,
-4, ,49, ,
1, ,51, ,
3, ,49, ,
0, ,51, ,
0, ,50, ,
5, ,50, ,
3, ,50, ,
3, ,51, ,
1, ,48, ,
1, ,50, ,
3, ,50, ,
4, ,50, ,
-1, ,50, ,
4, ,51, ,
4, ,49, ,
3, ,50, ,
-4, ,50, ,
3, ,50, ,
-1, ,50, ,
0, ,51, ,
1, ,49, ,
3, ,50, ,
1, ,50, ,
3, ,49, ,
-2, ,49, ,
0, ,50, ,
1, ,49, ,
1, ,51, ,
-1, ,50, ,
5, ,50, ,
3, ,50, ,
1, ,51, ,
0, ,48, ,
0, ,50, ,
0, ,51, ,
3, ,50, ,
-1, ,49, ,
1, ,50, ,
3, ,49, ,
3, ,51, ,
0, ,50, ,
3, ,50, ,
1, ,50, ,
3, ,51, ,
1, ,49, ,
3, ,51, ,
1, ,51, ,
4, ,50, ,
-1, ,50, ,
0, ,51, ,
3, ,49, ,
3, ,50, ,
-2, ,50, ,
5, ,50, ,
0, ,50, ,
3, ,51, ,
1, ,48, ,
1, ,50, ,
0, ,51, ,
3, ,50, ,
1, ,50, ,
3, ,51, ,
4, ,49, ,
5, ,51, ,
0, ,50, ,
3, ,50, ,
1, ,50, ,
1, ,51, ,
1, ,49, ,
1, ,51, ,
1, ,51, ,
5, ,50, ,
-1, ,50, ,
3, ,50, ,
4, ,49, ,
3, ,51, ,
0, ,50, ,
4, ,50, ,
3, ,50, ,
1, ,51, ,
1, ,48, ,
1, ,51, ,
0, ,51, ,
1, ,50, ,
-1, ,50, ,
4, ,51, ,
4, ,49, ,
1, ,50, ,
-2, ,50, ,
1, ,50, ,
0, ,50, ,
1, ,51, ,
1, ,49, ,
3, ,50, ,
1, ,50, ,
3, ,50, ,
-1, ,49, ,
1, ,51, ,
3, ,49, ,
3, ,50, ,
-2, ,50, ,
4, ,50, ,
4, ,50, ,
3, ,51, ,
1, ,48, ,
0, ,50, ,
0, ,51, ,
5, ,50, ,
0, ,50, ,
4, ,51, ,
4, ,50, ,
3, ,50, ,
0, ,50, ,
3, ,50, ,
1, ,50, ,
1, ,51, ,
1, ,49, ,
4, ,50, ,
3, ,50, ,
6, ,50, ,
-2, ,50, ,
0, ,51, ,
3, ,49, ,
3, ,50, ,
-2, ,50, ,
5, ,50, ,
1, ,50, ,
3, ,51, ,
3, ,48, ,
1, ,50, ,
0, ,50, ,
5, ,50, ,
-2, ,50, ,
1, ,51, ,
5, ,49, ,
3, ,50, ,
-2, ,50, ,
4, ,50, ,
0, ,50, ,
3, ,51, ,
1, ,48, ,
0, ,50, ,
0, ,50, ,
5, ,50, ,
0, ,49, ,
0, ,50, ,
4, ,49, ,
1, ,51, ,
-1, ,50, ,
3, ,50, ,
1, ,50, ,
1, ,51, ,
1, ,49, ,
3, ,50, ,
0, ,50, ,
3, ,50, ,
0, ,50, ,
0, ,51, ,
4, ,49, ,
3, ,51, ,
0, ,50, ,
3, ,50, ,
-1, ,50, ,
1, ,51, ,
1, ,49, ,
3, ,50, ,
0, ,50, ,
4, ,50, ,
-2, ,49, ,
1, ,51, ,
5, ,49, ,
1, ,51, ,
-1, ,50, ,
5, ,50, ,
1, ,50, ,
1, ,51, ,
1, ,48, ,
3, ,50, ,
-1, ,50, ,
6, ,50, ,
-1, ,50, ,
1, ,51, ,
5, ,49, ,
1, ,50, ,
-2, ,50, ,
3, ,50, ,
0, ,50, ,
3, ,51, ,
1, ,49, ,
4, ,50, ,
3, ,50, ,
4, ,50, ,
0, ,50, ,
3, ,50, ,
3, ,49, ,
3, ,50, ,
-1, ,50, ,
4, ,50, ,
1, ,50, ,
1, ,51, ,
1, ,48, ,
3, ,50, ,
1, ,51, ,
4, ,50, ,
0, ,50, ,
1, ,50, ,
3, ,49, ,
4, ,50, ,
-1, ,50, ,
4, ,50, ,
3, ,50, ,
1, ,51, ,
0, ,49, ,
4, ,50, ,
4, ,50, ,
6, ,50, ,
-2, ,49, ,
1, ,50, ,
4, ,49, ,
4, ,51, ,
-1, ,50, ,
3, ,50, ,
3, ,50, ,
1, ,51, ,
1, ,48, ,
0, ,50, ,
0, ,50, ,
3, ,50, ,
-1, ,50, ,
1, ,51, ,
3, ,49, ,
1, ,51, ,
-2, ,50, ,
1, ,50, ,
1, ,50, ,
3, ,51, ,
0, ,48, ,
3, ,50, ,
1, ,50, ,
4, ,49, ,
0, ,49, ,
0, ,50, ,
1, ,49, ,
4, ,51, ,
-1, ,50, ,
4, ,50, ,
4, ,50, ,
4, ,50, ,
0, ,48, ,
0, ,50, ,
0, ,51, ,
4, ,50, ,
-1, ,49, ,
3, ,51, ,
4, ,49, ,
3, ,50, ,
-1, ,50, ,
3, ,50, ,
0, ,50, ,
3, ,51, ,
4, ,48, ,
3, ,50, ,
1, ,50, ,
5, ,50, ,
-1, ,49, ,
0, ,51, ,
1, ,49, ,
1, ,51, ,
-2, ,50, ,
3, ,50, ,
3, ,50, ,
3, ,51, ,
1, ,48, ,
0, ,50, ,
0, ,51, ,
5, ,50, ,
