src/timing_folder/2chSaw0000062.CSV

Format,1.0B,
Memory Length,10000,Memory Length,10000,
IntpDistance,0,IntpDistance,0,
Trigger Address,4999,Trigger Address,4999,
Trigger Level,1.192E-01,Trigger Level,1.192E-01,
Source,CH1,Source,CH2,
Vertical Units,V,Vertical Units,V,
Vertical Units Div,0,Vertical Units Div,0,
Vertical Units Extend Div,16,Vertical Units Extend Div,16,
Label,,Label,,
Probe Type,0,Probe Type,0,
Probe Ratio,1.000e+01,Probe Ratio,1.000e+00,
Vertical Scale,2.000e-02,Vertical Scale,1.000e+00,
Vertical Position,-5.120e-02,Vertical Position,2.000e-01,
Horizontal Units,S,Horizontal Units,S,
Horizontal Scale,5.000E-07,Horizontal Scale,5.000E-07,
Horizontal Position,0.000E+00,Horizontal Position,0.000E+00,
Horizontal Mode,Main,Horizontal Mode,Main,
SincET Mode,Real Time,SincET Mode,Real Time,
Sampling Period,2.000e-09,Sampling Period,2.000e-09,
Horizontal Old Scale,5.000E-07,Horizontal Old Scale,5.000E-07,
Horizontal Old Position,0.000E+00,Horizontal Old Position,0.000E+00,
Firmware,V1.23,Firmware,V1.23,
Mode,Fast,Mode,Fast,
Waveform Data,,Waveform Data,,
1, ,44, ,
3, ,42, ,
3, ,42, ,
3, ,44, ,
3, ,42, ,
4, ,44, ,
1, ,44, ,
3, ,44, ,
3, ,44, ,
3, ,44, ,
-2, ,41, ,
4, ,42, ,
3, ,44, ,
1, ,42, ,
1, ,42, ,
0, ,44, ,
0, ,42, ,
3, ,44, ,
0, ,44, ,
3, ,44, ,
4, ,44, ,
3, ,44, ,
0, ,41, ,
3, ,42, ,
1, ,42, ,
1, ,42, ,
0, ,44, ,
4, ,44, ,
5, ,42, ,
5, ,44, ,
0, ,44, ,
0, ,44, ,
3, ,44, ,
4, ,44, ,
-1, ,41, ,
4, ,44, ,
3, ,44, ,
1, ,44, ,
1, ,44, ,
1, ,44, ,
1, ,42, ,
3, ,44, ,
0, ,44, ,
3, ,44, ,
5, ,44, ,
4, ,44, ,
-2, ,42, ,
3, ,44, ,
3, ,44, ,
1, ,42, ,
1, ,44, ,
1, ,44, ,
4, ,42, ,
5, ,44, ,
-1, ,44, ,
1, ,42, ,
4, ,42, ,
4, ,44, ,
-1, ,42, ,
4, ,44, ,
5, ,44, ,
3, ,44, ,
1, ,44, ,
1, ,44, ,
1, ,42, ,
4, ,44, ,
-2, ,44, ,
1, ,44, ,
5, ,44, ,
1, ,44, ,
-1, ,42, ,
3, ,44, ,
3, ,44, ,
1, ,42, ,
0, ,42, ,
1, ,44, ,
4, ,42, ,
5, ,44, ,
-1, ,44, ,
0, ,44, ,
3, ,44, ,
1, ,44, ,
0, ,41, ,
4, ,44, ,
4, ,44, ,
4, ,44, ,
3, ,44, ,
1, ,44, ,
3, ,42, ,
3, ,44, ,
0, ,42, ,
3, ,42, ,
4, ,44, ,
1, ,44, ,
1, ,41, ,
1, ,44, ,
1, ,44, ,
1, ,42, ,
1, ,44, ,
1, ,44, ,
3, ,44, ,
4, ,44, ,
-2, ,44, ,
-1, ,44, ,
1, ,44, ,
3, ,44, ,
-2, ,41, ,
5, ,44, ,
5, ,44, ,
4, ,44, ,
3, ,44, ,
1, ,44, ,
1, ,42, ,
4, ,44, ,
-1, ,44, ,
3, ,44, ,
4, ,44, ,
3, ,44, ,
0, ,42, ,
1, ,44, ,
1, ,44, ,
1, ,44, ,
0, ,44, ,
3, ,44, ,
4, ,42, ,
4, ,44, ,
0, ,44, ,
0, ,44, ,
3, ,44, ,
5, ,44, ,
-1, ,41, ,
3, ,42, ,
4, ,44, ,
4, ,42, ,
3, ,42, ,
1, ,44, ,
1, ,42, ,
3, ,44, ,
1, ,44, ,
4, ,42, ,
4, ,44, ,
3, ,44, ,
0, ,41, ,
1, ,44, ,
3, ,44, ,
1, ,42, ,
1, ,44, ,
1, ,44, ,
4, ,42, ,
6, ,44, ,
0, ,44, ,
1, ,44, ,
3, ,44, ,
4, ,44, ,
-1, ,41, ,
3, ,44, ,
4, ,44, ,
3, ,42, ,
1, ,44, ,
1, ,44, ,
1, ,42, ,
3, ,44, ,
1, ,44, ,
3, ,44, ,
4, ,44, ,
4, ,44, ,
0, ,42, ,
1, ,44, ,
3, ,44, ,
3, ,42, ,
3, ,44, ,
3, ,44, ,
4, ,42, ,
3, ,44, ,
0, ,44, ,
1, ,44, ,
1, ,44, ,
1, ,44, ,
0, ,41, ,
4, ,44, ,
4, ,44, ,
3, ,44, ,
1, ,44, ,
0, ,44, ,
-1, ,42, ,
4, ,44, ,
0, ,44, ,
3, ,44, ,
4, ,44, ,
3, ,44, ,
0, ,41, ,
1, ,42, ,
1, ,44, ,
1, ,42, ,
1, ,42, ,
3, ,44, ,
5, ,42, ,
5, ,44, ,
-1, ,44, ,
0, ,44, ,
3, ,44, ,
4, ,44, ,
-1, ,41, ,
4, ,42, ,
4, ,44, ,
0, ,42, ,
0, ,42, ,
0, ,44, ,
-1, ,42, ,
4, ,44, ,
-1, ,44, ,
4, ,42, ,
4, ,44, ,
3, ,44, ,
-2, ,41, ,
3, ,44, ,
0, ,44, ,
3, ,42, ,
3, ,42, ,
3, ,44, ,
4, ,42, ,
4, ,44, ,
-2, ,44, ,
0, ,44, ,
3, ,44, ,
4, ,44, ,
-1, ,42, ,
4, ,42, ,
4, ,44, ,
3, ,42, ,
1, ,42, ,
1, ,44, ,
1, ,42, ,
4, ,44, ,
0, ,44, ,
3, ,42, ,
5, ,44, ,
3, ,44, ,
-1, ,42, ,
3, ,42, ,
3, ,42, ,
1, ,42, ,
0, ,44, ,
3, ,44, ,
4, ,42, ,
4, ,44, ,
-2, ,44, ,
1, ,42, ,
3, ,44, ,
3, ,44, ,
-2, ,42, ,
4, ,44, ,
5, ,44, ,
4, ,42, ,
3, ,42, ,
3, ,44, ,
3, ,44, ,
4, ,44, ,
0, ,44, ,
3, ,42, ,
4, ,44, ,
1, ,44, ,
-1, ,42, ,
3, ,44, ,
3, ,44, ,
3, ,42, ,
0, ,42, ,
4, ,44, ,
3, ,42, ,
5, ,44, ,
1, ,44, ,
1, ,44, ,
3, ,44, ,
4, ,44, ,
0, ,42, ,
5, ,44, ,
4, ,44, ,
3, ,44, ,
3, ,44, ,
3, ,44, ,
1, ,42, ,
3, ,44, ,
-1, ,44, ,
4, ,42, ,
5, ,42, ,
3, ,44, ,
0, ,41, ,
1, ,44, ,
-1, ,44, ,
3, ,42, ,
3, ,44, ,
3, ,44, ,
3, ,42, ,
1, ,44, ,
0, ,44, ,
1, ,44, ,
3, ,44, ,
3, ,44, ,
-1, ,41, ,
5, ,44, ,
4, ,44, ,
3, ,44, ,
3, ,44, ,
1, ,44, ,
0, ,42, ,
4, ,44, ,
-2, ,44, ,
3, ,42, ,
4, ,44, ,
3, ,44, ,
-2, ,42, ,
1, ,44, ,
1, ,44, ,
0, ,42, ,
-2, ,42, ,
4, ,44, ,
1, ,42, ,
5, ,44, ,
0, ,44, ,
1, ,44, ,
3, ,44, ,
1, ,44, ,
-1, ,41, ,
4, ,42, ,
3, ,42, ,
1, ,42, ,
1, ,44, ,
1, ,44, ,
0, ,42, ,
4, ,44, ,
-1, ,44, ,
1, ,44, ,
4, ,44, ,
3, ,44, ,
0, ,41, ,
3, ,44, ,
3, ,44, ,
3, ,42, ,
1, ,44, ,
4, ,44, ,
5, ,42, ,
5, ,44, ,
0, ,44, ,
0, ,44, ,
3, ,44, ,
4, ,44, ,
0, ,41, ,
5, ,44, ,
5, ,44, ,
3, ,44, ,
1, ,44, ,
0, ,44, ,
0, ,42, ,
5, ,44, ,
-1, ,44, ,
3, ,42, ,
5, ,44, ,
3, ,44, ,
0, ,42, ,
3, ,44, ,
0, ,44, ,
1, ,42, ,
3, ,44, ,
3, ,44, ,
4, ,42, ,
3, ,44, ,
3, ,42, ,
1, ,42, ,
3, ,44, ,
4, ,44, ,
0, ,41, ,
4, ,44, ,
3, ,44, ,
1, ,44, ,
1, ,44, ,
1, ,44, ,
1, ,42, ,
4, ,44, ,
0, ,44, ,
1, ,44, ,
4, ,44, ,
3, ,44, ,
0, ,42, ,
0, ,44, ,
1, ,44, ,
1, ,42, ,
3, ,44, ,
3, ,44, ,
4, ,44, ,
4, ,44, ,
-1, ,44, ,
1, ,44, ,
3, ,44, ,
4, ,44, ,
1, ,41, ,
5, ,44, ,
4, ,44, ,
3, ,44, ,
1, ,44, ,
0, ,44, ,
0, ,42, ,
5, ,44, ,
-1, ,44, ,
1, ,42, ,
4, ,44, ,
3, ,44, ,
-1, ,42, ,
1, ,42, ,
1, ,44, ,
3, ,44, ,
0, ,44, ,
1, ,44, ,
3, ,42, ,
4, ,44, ,
-2, ,44, ,
0, ,44, ,
1, ,44, ,
1, ,44, ,
-1, ,42, ,
4, ,42, ,
4, ,42, ,
3, ,42, ,
1, ,44, ,
0, ,44, ,
0, ,42, ,
5, ,44, ,
0, ,44, ,
3, ,44, ,
4, ,44, ,
3, ,44, ,
0, ,42, ,
1, ,42, ,
1, ,42, ,
1, ,42, ,
3, ,44, ,
4, ,44, ,
4, ,42, ,
4, ,44, ,
-1, ,44, ,
1, ,44, ,
3, ,44, ,
1, ,44, ,
0, ,41, ,
3, ,44, ,
3, ,44, ,
3, ,42, ,
1, ,44, ,
1, ,44, ,
1, ,44, ,
3, ,44, ,
-2, ,44, ,
1, ,42, ,
4, ,44, ,
3, ,44, ,
-1, ,42, ,
0, ,44, ,
0, ,44, ,
1, ,44, ,
3, ,42, ,
3, ,44, ,
1, ,42, ,
3, ,44, ,
-1, ,44, ,
0, ,44, ,
1, ,44, ,
4, ,44, ,
-1, ,41, ,
3, ,44, ,
4, ,44, ,
1, ,44, ,
0, ,44, ,
3, ,44, ,
3, ,42, ,
5, ,44, ,
0, ,44, ,
3, ,44, ,
4, ,44, ,
3, ,44, ,
-1, ,42, ,
1, ,44, ,
1, ,44, ,
1, ,42, ,
1, ,44, ,
3, ,44, ,
3, ,44, ,
3, ,44, ,
1, ,44, ,
1, ,44, ,
3, ,44, ,
3, ,44, ,
-1, ,41, ,
5, ,44, ,
4, ,44, ,
3, ,42, ,
1, ,44, ,
1, ,44, ,
1, ,42, ,
4, ,44, ,
-1, ,44, ,
1, ,42, ,
3, ,44, ,
1, ,44, ,
-1, ,42, ,
1, ,44, ,
1, ,44, ,
0, ,42, ,
0, ,44, ,
3, ,44, ,
1, ,42, ,
3, ,44, ,
1, ,44, ,
0, ,44, ,
1, ,44, ,
3, ,44, ,
-1, ,42, ,
5, ,44, ,
5, ,44, ,
3, ,42, ,
0, ,42, ,
0, ,42, ,
1, ,42, ,
3, ,44, ,
3, ,44, ,
3, ,44, ,
3, ,44, ,
3, ,44, ,
-2, ,42, ,
0, ,44, ,
-1, ,44, ,
0, ,42, ,
1, ,44, ,
3, ,44, ,
3, ,42, ,
3, ,44, ,
-1, ,44, ,
0, ,42, ,
4, ,42, ,
4, ,44, ,
0, ,41, ,
5, ,44, ,
3, ,44, ,
3, ,44, ,
1, ,44, ,
1, ,44, ,
1, ,42, ,
4, ,44, ,
0, ,44, ,
1, ,42, ,
3, ,44, ,
3, ,44, ,
-2, ,41, ,
1, ,42, ,
1, ,44, ,
1, ,44, ,
-1, ,42, ,
1, ,44, ,
3, ,42, ,
4, ,44, ,
-2, ,44, ,
0, ,44, ,
3, ,44, ,
4, ,44, ,
-2, ,42, ,
4, ,44, ,
3, ,44, ,
1, ,42, ,
1, ,44, ,
1, ,44, ,
0, ,42, ,
3, ,44, ,
-1, ,44, ,
1, ,44, ,
4, ,44, ,
4, ,44, ,
-1, ,42, ,
1, ,42, ,
3, ,42, ,
1, ,42, ,
-1, ,44, ,
0, ,44, ,
3, ,42, ,
3, ,44, ,
-1, ,44, ,
-1, ,44, ,
3, ,44, ,
3, ,44, ,
-4, ,41, ,
4, ,42, ,
3, ,44, ,
1, ,42, ,
1, ,42, ,
1, ,44, ,
1, ,42, ,
5, ,44, ,
0, ,44, ,
1, ,44, ,
4, ,44, ,
3, ,44, ,
0, ,41, ,
0, ,44, ,
0, ,44, ,
1, ,42, ,
0, ,44, ,
1, ,44, ,
3, ,42, ,
4, ,44, ,
0, ,44, ,
0, ,44, ,
1, ,44, ,
0, ,44, ,
-2, ,41, ,
4, ,42, ,
4, ,44, ,
3, ,42, ,
1, ,42, ,
1, ,44, ,
1, ,42, ,
4, ,44, ,
-2, ,44, ,
3, ,44, ,
4, ,44, ,
1, ,44, ,
0, ,42, ,
1, ,42, ,
3, ,44, ,
1, ,44, ,
1, ,44, ,
1, ,44, ,
3, ,42, ,
3, ,44, ,
1, ,44, ,
0, ,42, ,
1, ,42, ,
1, ,44, ,
1, ,41, ,
1, ,44, ,
3, ,44, ,
1, ,42, ,
1, ,42, ,
0, ,44, ,
0, ,42, ,
4, ,44, ,
-4, ,44, ,
0, ,42, ,
1, ,44, ,
1, ,44, ,
-2, ,42, ,
0, ,42, ,
0, ,44, ,
1, ,42, ,
1, ,42, ,
1, ,44, ,
1, ,42, ,
3, ,44, ,
-1, ,44, ,
0, ,44, ,
3, ,44, ,
3, ,44, ,
-1, ,41, ,
3, ,44, ,
3, ,44, ,
1, ,42, ,
0, ,42, ,
0, ,44, ,
1, ,42, ,
3, ,44, ,
-1, ,44, ,
1, ,42, ,
3, ,42, ,
3, ,44, ,
-1, ,41, ,
3, ,44, ,
0, ,44, ,
1, ,42, ,
1, ,44, ,
1, ,44, ,
1, ,42, ,
3, ,44, ,
0, ,44, ,
3, ,44, ,
4, ,44, ,
3, ,44, ,
-4, ,42, ,
5, ,44, ,
4, ,44, ,
3, ,44, ,
0, ,44, ,
1, ,44, ,
0, ,42, ,
3, ,44, ,
-1, ,44, ,
3, ,42, ,
4, ,44, ,
4, ,44, ,
-2, ,42, ,
1, ,44, ,
0, ,44, ,
1, ,42, ,
0, ,42, ,
3, ,44, ,
3, ,42, ,
3, ,44, ,
-2, ,44, ,
0, ,42, ,
1, ,44, ,
3, ,44, ,
-2, ,41, ,
4, ,42, ,
4, ,44, ,
4, ,42, ,
0, ,42, ,
1, ,44, ,
-1, ,42, ,
4, ,44, ,
0, ,44, ,
3, ,44, ,
5, ,44, ,
3, ,44, ,
-1, ,42, ,
0, ,44, ,
1, ,44, ,
1, ,42, ,
1, ,42, ,
3, ,44, ,
3, ,42, ,
4, ,44, ,
-1, ,44, ,
0, ,44, ,
1, ,44, ,
3, ,44, ,
-1, ,41, ,
6, ,44, ,
5, ,44, ,
3, ,44, ,
0, ,44, ,
1, ,44, ,
1, ,42, ,
4, ,44, ,
1, ,44, ,
3, ,42, ,
4, ,44, ,
5, ,44, ,
-1, ,42, ,
1, ,44, ,
1, ,44, ,
3, ,44, ,
0, ,44, ,
1, ,44, ,
3, ,42, ,
4, ,44, ,
0, ,44, ,
0, ,42, ,
1, ,44, ,
4, ,44, ,
1, ,41, ,
4, ,44, ,
3, ,44, ,
3, ,44, ,
0, ,44, ,
1, ,44, ,
1, ,42, ,
4, ,44, ,
-1, ,44, ,
3, ,44, ,
4, ,44, ,
1, ,44, ,
0, ,41, ,
0, ,44, ,
1, ,44, ,
1, ,42, ,
1, ,44, ,
1, ,44, ,
3, ,42, ,
4, ,44, ,
0, ,44, ,
0, ,44, ,
1, ,44, ,
1, ,44, ,
0, ,41, ,
3, ,44, ,
4, ,44, ,
-1, ,42, ,
0, ,42, ,
1, ,44, ,
0, ,42, ,
5, ,44, ,
-1, ,44, ,
1, ,44, ,
3, ,44, ,
3, ,44, ,
-1, ,42, ,
1, ,44, ,
-1, ,44, ,
3, ,42, ,
1, ,42, ,
3, ,44, ,
3, ,42, ,
4, ,44, ,
-1, ,44, ,
0, ,42, ,
3, ,44, ,
3, ,44, ,
-2, ,41, ,
3, ,42, ,
1, ,44, ,
1, ,42, ,
0, ,42, ,
0, ,44, ,
0, ,42, ,
4, ,44, ,
0, ,44, ,
1, ,44, ,
3, ,44, ,
3, ,44, ,
-1, ,42, ,
1, ,42, ,
0, ,44, ,
3, ,42, ,
0, ,42, ,
1, ,44, ,
3, ,42, ,
5, ,44, ,
-1, ,44, ,
0, ,42, ,
1, ,44, ,
3, ,44, ,
0, ,41, ,
5, ,42, ,
1, ,44, ,
1, ,42, ,
0, ,42, ,
-1, ,44, ,
-1, ,42, ,
4, ,44, ,
-1, ,42, ,
1, ,42, ,
4, ,44, ,
1, ,44, ,
-2, ,41, ,
1, ,44, ,
1, ,44, ,
1, ,42, ,
1, ,42, ,
1, ,44, ,
1, ,42, ,
6, ,44, ,
-2, ,44, ,
-1, ,44, ,
0, ,44, ,
1, ,44, ,
-1, ,41, ,
3, ,44, ,
3, ,44, ,
4, ,44, ,
0, ,44, ,
0, ,44, ,
0, ,42, ,
5, ,44, ,
-1, ,44, ,
3, ,42, ,
4, ,44, ,
4, ,44, ,
0, ,42, ,
1, ,42, ,
1, ,44, ,
4, ,42, ,
0, ,42, ,
1, ,44, ,
3, ,44, ,
4, ,44, ,
-1, ,44, ,
0, ,44, ,
3, ,44, ,
4, ,44, ,
-1, ,41, ,
3, ,42, ,
1, ,44, ,
0, ,42, ,
0, ,42, ,
0, ,44, ,
-1, ,42, ,
3, ,44, ,
0, ,44, ,
1, ,44, ,
3, ,44, ,
3, ,44, ,
-4, ,42, ,
1, ,44, ,
1, ,44, ,
1, ,42, ,
0, ,44, ,
3, ,44, ,
3, ,42, ,
5, ,44, ,
-1, ,44, ,
0, ,44, ,
1, ,44, ,
3, ,44, ,
-1, ,41, ,
3, ,42, ,
3, ,44, ,
1, ,42, ,
-1, ,42, ,
-1, ,44, ,
-1, ,42, ,
5, ,44, ,
-1, ,44, ,
1, ,44, ,
3, ,44, ,
3, ,44, ,
-1, ,42, ,
1, ,44, ,
0, ,44, ,
1, ,42, ,
1, ,42, ,
1, ,44, ,
3, ,42, ,
4, ,44, ,
-1, ,44, ,
-1, ,44, ,
1, ,44, ,
3, ,44, ,
-4, ,42, ,
4, ,44, ,
4, ,44, ,
1, ,44, ,
0, ,44, ,
1, ,44, ,
0, ,42, ,
4, ,44, ,
-1, ,44, ,
1, ,44, ,
3, ,44, ,
3, ,44, ,
-2, ,41, ,
1, ,42, ,
0, ,44, ,
1, ,44, ,
-1, ,42, ,
1, ,44, ,
0, ,42, ,
3, ,44, ,
-1, ,44, ,
0, ,44, ,
1, ,44, ,
1, ,44, ,
-2, ,41, ,
3, ,42, ,
1, ,44, ,
1, ,42, ,
1, ,42, ,
1, ,44, ,
1, ,42, ,
3, ,44, ,
1, ,44, ,
3, ,42, ,
3, ,44, ,
4, ,44, ,
-1, ,42, ,
3, ,42, ,
0, ,42, ,
0, ,42, ,
0, ,44, ,
1, ,44, ,
3, ,42, ,
4, ,44, ,
-2, ,44, ,
0, ,42, ,
3, ,42, ,
3, ,44, ,
-1, ,41, ,
3, ,44, ,
1, ,44, ,
0, ,42, ,
-1, ,44, ,
1, ,44, ,
0, ,42, ,
4, ,44, ,
-1, ,44, ,
1, ,42, ,
3, ,42, ,
3, ,44, ,
-4, ,42, ,
0, ,44, ,
-2, ,44, ,
3, ,42, ,
1, ,44, ,
3, ,44, ,
3, ,42, ,
5, ,44, ,
-2, ,44, ,
-1, ,42, ,
1, ,44, ,
3, ,44, ,
0, ,41, ,
4, ,42, ,
4, ,44, ,
1, ,42, ,
0, ,42, ,
1, ,44, ,
-1, ,42, ,
4, ,44, ,
-1, ,44, ,
1, ,44, ,
3, ,44, ,
1, ,44, ,
-1, ,42, ,
1, ,44, ,
1, ,44, ,
4, ,42, ,
0, ,44, ,
3, ,44, ,
1, ,42, ,
3, ,44, ,
-1, ,44, ,
0, ,44, ,
3, ,44, ,
1, ,44, ,
-1, ,41, ,
4, ,44, ,
3, ,44, ,
3, ,42, ,
1, ,42, ,
0, ,44, ,
-1, ,42, ,
4, ,44, ,
0, ,44, ,
3, ,42, ,
4, ,44, ,
4, ,44, ,
1, ,41, ,
1, ,44, ,
1, ,44, ,
0, ,42, ,
0, ,42, ,
0, ,44, ,
1, ,42, ,
3, ,44, ,
0, ,44, ,
0, ,42, ,
3, ,44, ,
3, ,44, ,
-4, ,41, ,
3, ,44, ,
0, ,44, ,
1, ,44, ,
1, ,44, ,
0, ,44, ,
0, ,42, ,
4, ,44, ,
-2, ,44, ,
3, ,42, ,
4, ,42, ,
3, ,44, ,
-1, ,41, ,
3, ,44, ,
3, ,44, ,
1, ,42, ,
1, ,44, ,
3, ,44, ,
4, ,42, ,
4, ,44, ,
0, ,44, ,
1, ,44, ,
3, ,44, ,
3, ,44, ,
-2, ,41, ,
4, ,44, ,
1, ,44, ,
1, ,42, ,
0, ,42, ,
3, ,44, ,
1, ,42, ,
4, ,44, ,
-2, ,44, ,
3, ,44, ,
4, ,44, ,
4, ,44, ,
-1, ,42, ,
0, ,44, ,
1, ,44, ,
0, ,44, ,
0, ,44, ,
4, ,44, ,
4, ,42, ,
3, ,44, ,
0, ,44, ,
1, ,42, ,
3, ,44, ,
3, ,44, ,
-1, ,41, ,
4, ,44, ,
4, ,44, ,
1, ,42, ,
-1, ,42, ,
0, ,44, ,
1, ,42, ,
5, ,44, ,
-1, ,44, ,
1, ,42, ,
4, ,44, ,
3, ,44, ,
-2, ,42, ,
3, ,42, ,
1, ,44, ,
1, ,42, ,
3, ,42, ,
3, ,44, ,
3, ,42, ,
4, ,44, ,
0, ,44, ,
0, ,44, ,
3, ,44, ,
3, ,44, ,
-1, ,41, ,
4, ,44, ,
3, ,44, ,
3, ,44, ,
0, ,44, ,
1, ,44, ,
3, ,42, ,
4, ,44, ,
-1, ,44, ,
1, ,42, ,
4, ,42, ,
3, ,44, ,
-2, ,42, ,
1, ,42, ,
0, ,44, ,
1, ,42, ,
0, ,42, ,
3, ,44, ,
3, ,42, ,
5, ,44, ,
0, ,44, ,
1, ,44, ,
3, ,44, ,
1, ,44, ,
-1, ,41, ,
1, ,44, ,
3, ,44, ,
3, ,42, ,
1, ,42, ,
0, ,44, ,
0, ,42, ,
3, ,44, ,
0, ,44, ,
1, ,44, ,
3, ,44, ,
3, ,45, ,
-2, ,42, ,
1, ,42, ,
1, ,44, ,
1, ,42, ,
0, ,42, ,
3, ,44, ,
3, ,42, ,
5, ,44, ,
-1, ,44, ,
0, ,44, ,
0, ,44, ,
1, ,44, ,
-1, ,41, ,
4, ,44, ,
3, ,44, ,
1, ,44, ,
1, ,44, ,
0, ,44, ,
0, ,42, ,
4, ,44, ,
0, ,44, ,
3, ,42, ,
5, ,44, ,
1, ,44, ,
-2, ,42, ,
0, ,44, ,
0, ,44, ,
1, ,42, ,
3, ,42, ,
3, ,44, ,
3, ,42, ,
3, ,44, ,
-2, ,44, ,
0, ,44, ,
1, ,44, ,
3, ,44, ,
-1, ,41, ,
4, ,42, ,
4, ,44, ,
3, ,44, ,
1, ,44, ,
0, ,44, ,
-1, ,42, ,
4, ,44, ,
0, ,44, ,
3, ,44, ,
4, ,44, ,
3, ,44, ,
-2, ,42, ,
1, ,42, ,
0, ,44, ,
1, ,42, ,
1, ,42, ,
1, ,44, ,
3, ,42, ,
3, ,44, ,
-1, ,44, ,
-1, ,42, ,
1, ,44, ,
3, ,44, ,
-1, ,41, ,
3, ,42, ,
1, ,44, ,
1, ,42, ,
0, ,42, ,
0, ,44, ,
1, ,42, ,
4, ,44, ,
-2, ,44, ,
1, ,42, ,
5, ,44, ,
1, ,44, ,
0, ,41, ,
3, ,44, ,
-1, ,44, ,
0, ,42, ,
1, ,42, ,
3, ,44, ,
3, ,42, ,
5, ,44, ,
-1, ,44, ,
0, ,44, ,
3, ,44, ,
3, ,44, ,
-1, ,41, ,
3, ,42, ,
4, ,44, ,
3, ,42, ,
3, ,42, ,
1, ,44, ,
0, ,42, ,
4, ,44, ,
0, ,44, ,
1, ,44, ,
3, ,44, ,
3, ,44, ,
-1, ,41, ,
1, ,44, ,
1, ,44, ,
0, ,42, ,
0, ,42, ,
1, ,44, ,
3, ,42, ,
4, ,44, ,
0, ,44, ,
0, ,42, ,
0, ,44, ,
1, ,44, ,
-2, ,41, ,
4, ,44, ,
5, ,44, ,
5, ,42, ,
-1, ,44, ,
0, ,44, ,
0, ,42, ,
3, ,44, ,
0, ,44, ,
3, ,42, ,
4, ,42, ,
3, ,44, ,
0, ,41, ,
1, ,44, ,
1, ,44, ,
1, ,42, ,
1, ,42, ,
3, ,44, ,
4, ,42, ,
4, ,44, ,
-4, ,44, ,
-2, ,42, ,
0, ,44, ,
1, ,44, ,
-2, ,41, ,
4, ,44, ,
0, ,44, ,
3, ,42, ,
0, ,42, ,
-1, ,44, ,
-1, ,42, ,
4, ,44, ,
1, ,44, ,
3, ,44, ,
4, ,44, ,
3, ,45, ,
0, ,41, ,
1, ,44, ,
3, ,44, ,
3, ,42, ,
1, ,42, ,
3, ,44, ,
3, ,42, ,
3, ,44, ,
1, ,44, ,
1, ,42, ,
3, ,44, ,
3, ,44, ,
-1, ,41, ,
4, ,44, ,
4, ,44, ,
3, ,42, ,
1, ,42, ,
0, ,44, ,
0, ,42, ,
3, ,44, ,
-2, ,44, ,
3, ,44, ,
5, ,44, ,
5, ,44, ,
-2, ,41, ,
1, ,42, ,
1, ,42, ,
1, ,42, ,
0, ,44, ,
1, ,44, ,
3, ,42, ,
3, ,44, ,
-1, ,44, ,
0, ,44, ,
1, ,44, ,
1, ,44, ,
-1, ,41, ,
5, ,44, ,
4, ,44, ,
3, ,44, ,
1, ,44, ,
0, ,44, ,
0, ,42, ,
4, ,44, ,
-1, ,44, ,
3, ,42, ,
5, ,44, ,
4, ,44, ,
-1, ,41, ,
1, ,44, ,
1, ,44, ,
1, ,42, ,
1, ,42, ,
4, ,44, ,
3, ,42, ,
4, ,44, ,
-1, ,44, ,
0, ,44, ,
0, ,44, ,
0, ,44, ,
0, ,41, ,
1, ,44, ,
1, ,44, ,
1, ,42, ,
0, ,42, ,
0, ,44, ,
0, ,42, ,
5, ,44, ,
-2, ,44, ,
3, ,42, ,
4, ,44, ,
4, ,44, ,
0, ,41, ,
1, ,44, ,
1, ,44, ,
3, ,42, ,
0, ,44, ,
3, ,44, ,
1, ,42, ,
4, ,44, ,
-1, ,44, ,
-2, ,44, ,
3, ,44, ,
3, ,44, ,
-1, ,41, ,
3, ,42, ,
1, ,44, ,
1, ,44, ,
1, ,44, ,
1, ,44, ,
1, ,42, ,
4, ,44, ,
-4, ,44, ,
0, ,42, ,
3, ,44, ,
1, ,44, ,
-1, ,41, ,
3, ,44, ,
1, ,44, ,
0, ,42, ,
0, ,42, ,
3, ,44, ,
4, ,42, ,
4, ,44, ,
0, ,44, ,
-1, ,42, ,
1, ,42, ,
3, ,44, ,
-4, ,41, ,
1, ,44, ,
1, ,44, ,
3, ,42, ,
0, ,44, ,
1, ,44, ,
1, ,42, ,
5, ,44, ,
-1, ,44, ,
1, ,42, ,
4, ,44, ,
3, ,44, ,
-1, ,41, ,
0, ,44, ,
0, ,44, ,
3, ,42, ,
1, ,42, ,
3, ,44, ,
1, ,42, ,
5, ,44, ,
0, ,44, ,
0, ,42, ,
1, ,42, ,
3, ,44, ,
-2, ,41, ,
5, ,44, ,
1, ,44, ,
1, ,42, ,
3, ,42, ,
1, ,44, ,
0, ,44, ,
3, ,44, ,
0, ,44, ,
0, ,42, ,
4, ,44, ,
3, ,44, ,
0, ,41, ,
3, ,44, ,
-1, ,44, ,
1, ,42, ,
1, ,42, ,
1, ,44, ,
3, ,42, ,
5, ,44, ,
-1, ,44, ,
1, ,44, ,
1, ,44, ,
1, ,44, ,
-4, ,41, ,
4, ,42, ,
3, ,44, ,
3, ,44, ,
3, ,44, ,
1, ,44, ,
0, ,42, ,
3, ,44, ,
-1, ,44, ,
1, ,44, ,
3, ,44, ,
3, ,44, ,
-1, ,41, ,
1, ,44, ,
1, ,44, ,
3, ,42, ,
1, ,44, ,
3, ,44, ,
1, ,42, ,
4, ,44, ,
-2, ,44, ,
-1, ,44, ,
1, ,44, ,
3, ,44, ,
-2, ,41, ,
4, ,44, ,
1, ,44, ,
1, ,42, ,
0, ,44, ,
0, ,44, ,
0, ,42, ,
3, ,44, ,
-2, ,44, ,
0, ,44, ,
1, ,44, ,
4, ,44, ,
-1, ,42, ,
1, ,44, ,
-1, ,44, ,
3, ,42, ,
0, ,42, ,
4, ,44, ,
1, ,42, ,
6, ,44, ,
-2, ,44, ,
0, ,44, ,
1, ,44, ,
0, ,44, ,
-1, ,41, ,
1, ,42, ,
3, ,44, ,
3, ,42, ,
1, ,42, ,
0, ,44, ,
0, ,42, ,
3, ,44, ,
0, ,44, ,
1, ,42, ,
3, ,44, ,
3, ,44, ,
0, ,42, ,
3, ,44, ,
0, ,44, ,
0, ,42, ,
1, ,42, ,
3, ,44, ,
3, ,42, ,
4, ,44, ,
0, ,44, ,
-1, ,42, ,
0, ,44, ,
1, ,44, ,
-1, ,41, ,
4, ,42, ,
3, ,44, ,
1, ,42, ,
1, ,42, ,
0, ,44, ,
0, ,42, ,
5, ,44, ,
0, ,42, ,
3, ,42, ,
3, ,44, ,
1, ,44, ,
-1, ,41, ,
3, ,42, ,
0, ,42, ,
3, ,42, ,
3, ,44, ,
3, ,44, ,
1, ,42, ,
1, ,44, ,
0, ,44, ,
1, ,42, ,
1, ,44, ,
1, ,44, ,
-2, ,41, ,
3, ,42, ,
1, ,44, ,
3, ,44, ,
3, ,44, ,
1, ,44, ,
0, ,42, ,
3, ,44, ,
-1, ,44, ,
1, ,42, ,
4, ,44, ,
3, ,44, ,
-2, ,41, ,
0, ,44, ,
1, ,44, ,
3, ,42, ,
1, ,44, ,
1, ,44, ,
3, ,42, ,
3, ,44, ,
-2, ,44, ,
0, ,44, ,
1, ,44, ,
3, ,44, ,
-1, ,41, ,
1, ,42, ,
1, ,44, ,
1, ,44, ,
0, ,44, ,
0, ,44, ,
1, ,42, ,
1, ,44, ,
-1, ,44, ,
1, ,42, ,
3, ,44, ,
3, ,44, ,
-1, ,41, ,
3, ,44, ,
0, ,44, ,
1, ,42, ,
1, ,42, ,
1, ,44, ,
1, ,42, ,
5, ,44, ,
0, ,44, ,
1, ,44, ,
3, ,44, ,
3, ,44, ,
-4, ,41, ,
4, ,44, ,
3, ,44, ,
3, ,44, ,
0, ,44, ,
0, ,44, ,
-1, ,42, ,
3, ,44, ,
-1, ,44, ,
3, ,42, ,
5, ,44, ,
4, ,44, ,
-2, ,41, ,
3, ,42, ,
1, ,44, ,
1, ,42, ,
1, ,42, ,
1, ,44, ,
3, ,42, ,
4, ,44, ,
0, ,44, ,
0, ,44, ,
1, ,44, ,
1, ,44, ,
-1, ,41, ,
4, ,44, ,
4, ,44, ,
3, ,44, ,
1, ,44, ,
0, ,44, ,
0, ,42, ,
4, ,44, ,
0, ,44, ,
3, ,44, ,
4, ,44, ,
3, ,45, ,
0, ,41, ,
1, ,42, ,
3, ,44, ,
3, ,42, ,
1, ,42, ,
4, ,44, ,
1, ,42, ,
5, ,44, ,
0, ,44, ,
1, ,42, ,
3, ,44, ,
3, ,44, ,
-1, ,41, ,
5, ,42, ,
1, ,44, ,
3, ,42, ,
3, ,42, ,
3, ,44, ,
1, ,42, ,
4, ,44, ,
-1, ,42, ,
1, ,42, ,
3, ,44, ,
3, ,44, ,
0, ,42, ,
1, ,44, ,
1, ,44, ,
3, ,42, ,
0, ,42, ,
1, ,44, ,
4, ,42, ,
4, ,44, ,
-1, ,44, ,
0, ,42, ,
1, ,44, ,
3, ,44, ,
-1, ,41, ,
4, ,42, ,
3, ,42, ,
3, ,42, ,
1, ,44, ,
0, ,44, ,
-1, ,42, ,
3, ,44, ,
-2, ,44, ,
1, ,42, ,
4, ,44, ,
1, ,44, ,
0, ,41, ,
0, ,42, ,
0, ,42, ,
0, ,42, ,
0, ,42, ,
3, ,44, ,
3, ,42, ,
5, ,44, ,
0, ,44, ,
1, ,42, ,
3, ,44, ,
3, ,44, ,
-4, ,41, ,
1, ,42, ,
3, ,44, ,
3, ,44, ,
0, ,44, ,
1, ,44, ,
3, ,42, ,
4, ,44, ,
0, ,44, ,
1, ,44, ,
4, ,44, ,
1, ,44, ,
-1, ,41, ,
3, ,42, ,
3, ,44, ,
3, ,42, ,
1, ,42, ,
1, ,44, ,
3, ,42, ,
4, ,44, ,
0, ,44, ,
1, ,42, ,
3, ,44, ,
3, ,44, ,
0, ,41, ,
3, ,44, ,
1, ,44, ,
3, ,42, ,
3, ,42, ,
1, ,44, ,
3, ,42, ,
4, ,44, ,
-1, ,44, ,
1, ,44, ,
3, ,44, ,
3, ,44, ,
-1, ,42, ,
4, ,44, ,
1, ,44, ,
3, ,42, ,
0, ,42, ,
3, ,44, ,
3, ,42, ,
1, ,44, ,
0, ,44, ,
1, ,44, ,
3, ,44, ,
1, ,44, ,
-1, ,41, ,
3, ,44, ,
4, ,44, ,
1, ,42, ,
1, ,44, ,
1, ,44, ,
0, ,42, ,
4, ,44, ,
1, ,44, ,
3, ,44, ,
3, ,44, ,
1, ,44, ,
0, ,41, ,
0, ,44, ,
0, ,44, ,
0, ,42, ,
1, ,42, ,
3, ,44, ,
4, ,42, ,
3, ,44, ,
-1, ,44, ,
0, ,42, ,
3, ,44, ,
4, ,44, ,
0, ,41, ,
4, ,44, ,
4, ,44, ,
1, ,44, ,
0, ,44, ,
1, ,44, ,
3, ,42, ,
5, ,44, ,
0, ,44, ,
4, ,42, ,
4, ,44, ,
3, ,44, ,
-1, ,41, ,
3, ,44, ,
1, ,44, ,
3, ,42, ,
1, ,44, ,
1, ,44, ,
1, ,42, ,
5, ,44, ,
0, ,44, ,
0, ,42, ,
4, ,42, ,
3, ,44, ,
1, ,41, ,
5, ,44, ,
3, ,44, ,
3, ,44, ,
1, ,44, ,
0, ,44, ,
1, ,42, ,
4, ,44, ,
0, ,44, ,
3, ,42, ,
4, ,44, ,
4, ,44, ,
-1, ,41, ,
1, ,42, ,
3, ,44, ,
4, ,42, ,
4, ,42, ,
5, ,44, ,
5, ,42, ,
4, ,44, ,
-2, ,44, ,
1, ,42, ,
3, ,44, ,
3, ,44, ,
0, ,41, ,
5, ,42, ,
4, ,44, ,
3, ,42, ,
1, ,42, ,
1, ,44, ,
4, ,42, ,
5, ,44, ,
0, ,44, ,
3, ,42, ,
4, ,44, ,
3, ,45, ,
0, ,41, ,
1, ,42, ,
1, ,44, ,
4, ,42, ,
0, ,42, ,
3, ,44, ,
3, ,42, ,
5, ,44, ,
1, ,44, ,
3, ,44, ,
4, ,44, ,
4, ,44, ,
-1, ,41, ,
4, ,42, ,
4, ,44, ,
3, ,42, ,
1, ,42, ,
1, ,44, ,
1, ,42, ,
5, ,44, ,
-1, ,44, ,
3, ,44, ,
4, ,44, ,
4, ,44, ,
-1, ,41, ,
3, ,44, ,
0, ,44, ,
3, ,44, ,
1, ,44, ,
3, ,44, ,
4, ,42, ,
4, ,44, ,
1, ,44, ,
1, ,42, ,
3, ,44, ,
4, ,44, ,
-2, ,41, ,
3, ,44, ,
3, ,44, ,
3, ,44, ,
3, ,44, ,
3, ,44, ,
-1, ,42, ,
5, ,44, ,
-1, ,42, ,
4, ,42, ,
5, ,44, ,
4, ,44, ,
0, ,42, ,
