src/timing_folder/2chSaw0000089.CSV

Format,1.0B,
Memory Length,10000,Memory Length,10000,
IntpDistance,0,IntpDistance,0,
Trigger Address,4999,Trigger Address,4999,
Trigger Level,1.192E-01,Trigger Level,1.192E-01,
Source,CH1,Source,CH2,
Vertical Units,V,Vertical Units,V,
Vertical Units Div,0,Vertical Units Div,0,
Vertical Units Extend Div,16,Vertical Units Extend Div,16,
Label,,Label,,
Probe Type,0,Probe Type,0,
Probe Ratio,1.000e+01,Probe Ratio,1.000e+00,
Vertical Scale,2.000e-02,Vertical Scale,1.000e+00,
Vertical Position,-5.120e-02,Vertical Position,2.000e-01,
Horizontal Units,S,Horizontal Units,S,
Horizontal Scale,5.000E-07,Horizontal Scale,5.000E-07,
Horizontal Position,0.000E+00,Horizontal Position,0.000E+00,
Horizontal Mode,Main,Horizontal Mode,Main,
SincET Mode,Real Time,SincET Mode,Real Time,
Sampling Period,2.000e-09,Sampling Period,2.000e-09,
Horizontal Old Scale,5.000E-07,Horizontal Old Scale,5.000E-07,
Horizontal Old Position,0.000E+00,Horizontal Old Position,0.000E+00,
Firmware,V1.23,Firmware,V1.23,
Mode,Fast,Mode,Fast,
Waveform Data,,Waveform Data,,
1, ,-14, ,
3, ,-14, ,
3, ,-14, ,
3, ,-16, ,
3, ,-16, ,
0, ,-16, ,
3, ,-14, ,
4, ,-14, ,
3, ,-14, ,
-1, ,-14, ,
6, ,-14, ,
3, ,-14, ,
3, ,-14, ,
3, ,-14, ,
3, ,-14, ,
1, ,-14, ,
5, ,-14, ,
0, ,-16, ,
1, ,-16, ,
3, ,-16, ,
4, ,-14, ,
-1, ,-14, ,
4, ,-14, ,
3, ,-14, ,
3, ,-14, ,
4, ,-14, ,
4, ,-14, ,
5, ,-16, ,
4, ,-16, ,
0, ,-16, ,
3, ,-14, ,
4, ,-14, ,
3, ,-14, ,
0, ,-14, ,
4, ,-14, ,
3, ,-14, ,
1, ,-14, ,
4, ,-14, ,
3, ,-14, ,
1, ,-14, ,
4, ,-14, ,
0, ,-14, ,
3, ,-14, ,
5, ,-14, ,
1, ,-14, ,
0, ,-14, ,
4, ,-14, ,
3, ,-14, ,
1, ,-14, ,
1, ,-14, ,
3, ,-14, ,
4, ,-16, ,
4, ,-16, ,
1, ,-16, ,
3, ,-14, ,
3, ,-14, ,
3, ,-14, ,
0, ,-16, ,
5, ,-16, ,
4, ,-16, ,
3, ,-16, ,
1, ,-16, ,
1, ,-14, ,
1, ,-14, ,
3, ,-14, ,
0, ,-14, ,
3, ,-14, ,
4, ,-14, ,
3, ,-14, ,
-1, ,-16, ,
4, ,-16, ,
3, ,-16, ,
1, ,-14, ,
1, ,-14, ,
3, ,-14, ,
4, ,-14, ,
5, ,-14, ,
0, ,-14, ,
3, ,-14, ,
4, ,-14, ,
4, ,-14, ,
1, ,-16, ,
4, ,-16, ,
4, ,-16, ,
3, ,-14, ,
3, ,-14, ,
3, ,-14, ,
3, ,-14, ,
5, ,-14, ,
-1, ,-14, ,
3, ,-14, ,
4, ,-14, ,
4, ,-14, ,
-1, ,-14, ,
3, ,-14, ,
1, ,-14, ,
5, ,-14, ,
3, ,-14, ,
3, ,-14, ,
3, ,-16, ,
5, ,-16, ,
1, ,-16, ,
3, ,-14, ,
3, ,-14, ,
3, ,-14, ,
0, ,-16, ,
5, ,-16, ,
3, ,-16, ,
3, ,-16, ,
3, ,-16, ,
1, ,-14, ,
4, ,-14, ,
5, ,-14, ,
0, ,-16, ,
3, ,-16, ,
5, ,-16, ,
4, ,-14, ,
1, ,-14, ,
3, ,-14, ,
3, ,-14, ,
1, ,-14, ,
1, ,-14, ,
1, ,-14, ,
3, ,-16, ,
4, ,-16, ,
1, ,-16, ,
3, ,-16, ,
4, ,-16, ,
4, ,-14, ,
-2, ,-14, ,
6, ,-14, ,
5, ,-14, ,
4, ,-14, ,
0, ,-14, ,
0, ,-14, ,
0, ,-14, ,
3, ,-14, ,
0, ,-14, ,
3, ,-14, ,
4, ,-14, ,
1, ,-14, ,
-1, ,-14, ,
3, ,-14, ,
1, ,-16, ,
1, ,-16, ,
3, ,-16, ,
3, ,-14, ,
3, ,-14, ,
4, ,-14, ,
1, ,-14, ,
1, ,-14, ,
3, ,-14, ,
3, ,-14, ,
0, ,-16, ,
5, ,-16, ,
4, ,-16, ,
3, ,-14, ,
1, ,-14, ,
3, ,-14, ,
3, ,-16, ,
4, ,-16, ,
0, ,-16, ,
1, ,-14, ,
3, ,-14, ,
3, ,-14, ,
-1, ,-14, ,
4, ,-14, ,
4, ,-14, ,
3, ,-14, ,
1, ,-14, ,
4, ,-14, ,
3, ,-16, ,
3, ,-16, ,
0, ,-16, ,
0, ,-14, ,
3, ,-14, ,
3, ,-14, ,
1, ,-16, ,
5, ,-16, ,
4, ,-16, ,
3, ,-14, ,
3, ,-14, ,
1, ,-14, ,
0, ,-16, ,
5, ,-16, ,
-1, ,-16, ,
3, ,-14, ,
5, ,-14, ,
3, ,-14, ,
0, ,-16, ,
1, ,-16, ,
3, ,-16, ,
3, ,-16, ,
3, ,-16, ,
3, ,-14, ,
4, ,-14, ,
3, ,-14, ,
-1, ,-14, ,
3, ,-14, ,
3, ,-14, ,
1, ,-14, ,
1, ,-14, ,
4, ,-14, ,
5, ,-14, ,
4, ,-14, ,
3, ,-14, ,
3, ,-14, ,
-1, ,-16, ,
4, ,-16, ,
1, ,-16, ,
5, ,-14, ,
6, ,-14, ,
4, ,-14, ,
0, ,-14, ,
4, ,-14, ,
3, ,-14, ,
1, ,-14, ,
3, ,-14, ,
3, ,-14, ,
4, ,-14, ,
4, ,-14, ,
3, ,-14, ,
3, ,-14, ,
4, ,-14, ,
3, ,-14, ,
0, ,-14, ,
5, ,-14, ,
4, ,-14, ,
3, ,-14, ,
3, ,-14, ,
4, ,-14, ,
1, ,-14, ,
4, ,-14, ,
1, ,-14, ,
4, ,-14, ,
5, ,-14, ,
4, ,-14, ,
1, ,-14, ,
5, ,-14, ,
1, ,-16, ,
4, ,-16, ,
3, ,-16, ,
4, ,-14, ,
3, ,-14, ,
5, ,-14, ,
1, ,-14, ,
3, ,-14, ,
3, ,-14, ,
1, ,-14, ,
0, ,-14, ,
6, ,-14, ,
3, ,-14, ,
4, ,-14, ,
1, ,-14, ,
1, ,-14, ,
3, ,-14, ,
4, ,-14, ,
-1, ,-14, ,
3, ,-14, ,
5, ,-14, ,
4, ,-14, ,
1, ,-14, ,
4, ,-14, ,
3, ,-14, ,
3, ,-14, ,
3, ,-14, ,
4, ,-14, ,
3, ,-14, ,
5, ,-14, ,
-1, ,-14, ,
1, ,-14, ,
3, ,-14, ,
3, ,-14, ,
0, ,-14, ,
3, ,-14, ,
3, ,-14, ,
4, ,-14, ,
1, ,-14, ,
3, ,-14, ,
1, ,-16, ,
6, ,-16, ,
0, ,-16, ,
4, ,-14, ,
5, ,-14, ,
4, ,-14, ,
0, ,-14, ,
5, ,-14, ,
1, ,-16, ,
1, ,-16, ,
3, ,-16, ,
5, ,-14, ,
3, ,-16, ,
3, ,-16, ,
1, ,-16, ,
3, ,-14, ,
3, ,-14, ,
1, ,-14, ,
0, ,-14, ,
6, ,-14, ,
5, ,-16, ,
4, ,-16, ,
3, ,-16, ,
1, ,-14, ,
1, ,-14, ,
4, ,-14, ,
1, ,-16, ,
3, ,-16, ,
4, ,-16, ,
4, ,-14, ,
0, ,-14, ,
1, ,-14, ,
3, ,-14, ,
3, ,-14, ,
3, ,-14, ,
4, ,-14, ,
5, ,-16, ,
6, ,-16, ,
0, ,-16, ,
1, ,-14, ,
4, ,-14, ,
3, ,-14, ,
-1, ,-14, ,
5, ,-14, ,
5, ,-16, ,
3, ,-16, ,
1, ,-16, ,
3, ,-14, ,
0, ,-16, ,
4, ,-16, ,
-1, ,-16, ,
3, ,-16, ,
5, ,-16, ,
4, ,-16, ,
1, ,-16, ,
4, ,-16, ,
1, ,-16, ,
3, ,-14, ,
3, ,-14, ,
4, ,-14, ,
5, ,-16, ,
5, ,-16, ,
0, ,-16, ,
1, ,-14, ,
3, ,-14, ,
3, ,-14, ,
-2, ,-14, ,
6, ,-14, ,
3, ,-16, ,
3, ,-16, ,
1, ,-16, ,
4, ,-14, ,
4, ,-14, ,
4, ,-14, ,
0, ,-14, ,
5, ,-14, ,
5, ,-14, ,
3, ,-14, ,
0, ,-16, ,
4, ,-16, ,
4, ,-16, ,
3, ,-14, ,
3, ,-14, ,
4, ,-14, ,
4, ,-14, ,
5, ,-14, ,
0, ,-14, ,
1, ,-14, ,
4, ,-14, ,
4, ,-14, ,
3, ,-14, ,
5, ,-14, ,
4, ,-14, ,
3, ,-14, ,
3, ,-14, ,
1, ,-14, ,
1, ,-16, ,
3, ,-16, ,
-1, ,-16, ,
1, ,-16, ,
4, ,-16, ,
4, ,-14, ,
1, ,-16, ,
3, ,-16, ,
3, ,-16, ,
1, ,-14, ,
1, ,-14, ,
1, ,-14, ,
1, ,-16, ,
4, ,-16, ,
0, ,-16, ,
3, ,-14, ,
4, ,-14, ,
3, ,-14, ,
-1, ,-14, ,
4, ,-14, ,
3, ,-14, ,
4, ,-14, ,
1, ,-14, ,
3, ,-14, ,
3, ,-14, ,
5, ,-14, ,
-1, ,-14, ,
4, ,-14, ,
4, ,-14, ,
3, ,-14, ,
0, ,-14, ,
4, ,-14, ,
1, ,-14, ,
0, ,-14, ,
3, ,-14, ,
4, ,-14, ,
3, ,-16, ,
5, ,-16, ,
0, ,-16, ,
3, ,-14, ,
4, ,-14, ,
3, ,-14, ,
1, ,-14, ,
6, ,-14, ,
5, ,-16, ,
4, ,-16, ,
1, ,-16, ,
1, ,-14, ,
3, ,-16, ,
1, ,-16, ,
-1, ,-16, ,
4, ,-14, ,
4, ,-14, ,
3, ,-14, ,
1, ,-14, ,
1, ,-14, ,
3, ,-14, ,
3, ,-14, ,
3, ,-14, ,
4, ,-14, ,
5, ,-16, ,
5, ,-16, ,
0, ,-16, ,
1, ,-14, ,
3, ,-14, ,
3, ,-14, ,
0, ,-14, ,
4, ,-14, ,
3, ,-16, ,
1, ,-16, ,
3, ,-16, ,
3, ,-14, ,
1, ,-14, ,
4, ,-14, ,
1, ,-14, ,
4, ,-14, ,
5, ,-14, ,
4, ,-14, ,
1, ,-14, ,
3, ,-14, ,
3, ,-14, ,
3, ,-14, ,
1, ,-14, ,
1, ,-14, ,
3, ,-16, ,
5, ,-16, ,
-1, ,-16, ,
4, ,-14, ,
4, ,-14, ,
3, ,-14, ,
0, ,-14, ,
3, ,-14, ,
4, ,-14, ,
3, ,-14, ,
3, ,-14, ,
3, ,-14, ,
3, ,-16, ,
5, ,-16, ,
0, ,-16, ,
3, ,-16, ,
5, ,-16, ,
3, ,-14, ,
1, ,-14, ,
3, ,-14, ,
1, ,-14, ,
1, ,-14, ,
3, ,-14, ,
4, ,-14, ,
4, ,-16, ,
4, ,-16, ,
0, ,-16, ,
1, ,-14, ,
3, ,-14, ,
3, ,-14, ,
-1, ,-14, ,
4, ,-14, ,
1, ,-14, ,
4, ,-14, ,
0, ,-14, ,
1, ,-14, ,
3, ,-14, ,
4, ,-14, ,
0, ,-14, ,
4, ,-14, ,
5, ,-14, ,
4, ,-14, ,
1, ,-14, ,
4, ,-14, ,
1, ,-14, ,
1, ,-14, ,
1, ,-14, ,
4, ,-14, ,
4, ,-14, ,
5, ,-14, ,
0, ,-14, ,
1, ,-14, ,
3, ,-14, ,
3, ,-14, ,
1, ,-14, ,
4, ,-14, ,
4, ,-16, ,
3, ,-16, ,
3, ,-16, ,
3, ,-16, ,
1, ,-14, ,
3, ,-14, ,
0, ,-14, ,
3, ,-14, ,
4, ,-14, ,
4, ,-14, ,
1, ,-14, ,
4, ,-14, ,
1, ,-16, ,
1, ,-16, ,
1, ,-16, ,
5, ,-14, ,
3, ,-16, ,
5, ,-16, ,
-1, ,-16, ,
1, ,-14, ,
3, ,-14, ,
1, ,-14, ,
-1, ,-16, ,
5, ,-16, ,
4, ,-16, ,
3, ,-16, ,
3, ,-16, ,
3, ,-14, ,
0, ,-14, ,
3, ,-14, ,
-1, ,-14, ,
4, ,-14, ,
4, ,-14, ,
3, ,-14, ,
0, ,-16, ,
4, ,-16, ,
3, ,-16, ,
3, ,-16, ,
3, ,-16, ,
3, ,-14, ,
3, ,-16, ,
4, ,-16, ,
0, ,-16, ,
3, ,-14, ,
4, ,-14, ,
3, ,-14, ,
1, ,-14, ,
5, ,-14, ,
3, ,-14, ,
3, ,-14, ,
3, ,-14, ,
1, ,-14, ,
1, ,-14, ,
4, ,-14, ,
3, ,-16, ,
5, ,-16, ,
5, ,-16, ,
3, ,-14, ,
0, ,-14, ,
1, ,-14, ,
3, ,-14, ,
3, ,-14, ,
3, ,-14, ,
3, ,-14, ,
3, ,-16, ,
4, ,-16, ,
0, ,-16, ,
1, ,-14, ,
3, ,-14, ,
3, ,-14, ,
-1, ,-14, ,
4, ,-14, ,
4, ,-14, ,
3, ,-14, ,
3, ,-14, ,
3, ,-14, ,
4, ,-14, ,
5, ,-14, ,
-1, ,-14, ,
3, ,-14, ,
4, ,-14, ,
3, ,-14, ,
1, ,-14, ,
3, ,-14, ,
4, ,-16, ,
4, ,-16, ,
3, ,-16, ,
4, ,-14, ,
3, ,-14, ,
6, ,-14, ,
0, ,-14, ,
1, ,-14, ,
4, ,-14, ,
4, ,-14, ,
-1, ,-14, ,
5, ,-14, ,
4, ,-14, ,
3, ,-14, ,
3, ,-14, ,
3, ,-14, ,
3, ,-14, ,
4, ,-14, ,
0, ,-14, ,
4, ,-14, ,
6, ,-14, ,
4, ,-14, ,
0, ,-14, ,
4, ,-14, ,
3, ,-14, ,
3, ,-14, ,
3, ,-14, ,
3, ,-14, ,
1, ,-14, ,
4, ,-14, ,
-1, ,-14, ,
1, ,-14, ,
4, ,-14, ,
4, ,-14, ,
1, ,-14, ,
5, ,-14, ,
3, ,-14, ,
3, ,-14, ,
3, ,-14, ,
3, ,-14, ,
1, ,-14, ,
6, ,-14, ,
3, ,-14, ,
4, ,-14, ,
4, ,-16, ,
4, ,-16, ,
3, ,-16, ,
3, ,-14, ,
1, ,-14, ,
1, ,-14, ,
1, ,-14, ,
3, ,-14, ,
4, ,-14, ,
4, ,-14, ,
1, ,-14, ,
1, ,-14, ,
1, ,-14, ,
4, ,-14, ,
-1, ,-14, ,
4, ,-14, ,
3, ,-16, ,
1, ,-16, ,
3, ,-16, ,
3, ,-14, ,
1, ,-14, ,
4, ,-14, ,
1, ,-14, ,
3, ,-14, ,
5, ,-14, ,
6, ,-14, ,
1, ,-14, ,
4, ,-14, ,
3, ,-14, ,
3, ,-14, ,
3, ,-14, ,
3, ,-14, ,
1, ,-16, ,
5, ,-16, ,
1, ,-16, ,
1, ,-14, ,
3, ,-14, ,
4, ,-14, ,
1, ,-14, ,
4, ,-14, ,
4, ,-16, ,
3, ,-16, ,
1, ,-16, ,
3, ,-14, ,
3, ,-14, ,
4, ,-14, ,
3, ,-14, ,
4, ,-14, ,
4, ,-14, ,
3, ,-14, ,
1, ,-14, ,
4, ,-14, ,
3, ,-14, ,
3, ,-14, ,
1, ,-14, ,
4, ,-14, ,
3, ,-14, ,
5, ,-14, ,
1, ,-14, ,
1, ,-16, ,
3, ,-16, ,
4, ,-16, ,
0, ,-14, ,
4, ,-14, ,
4, ,-14, ,
4, ,-14, ,
3, ,-14, ,
1, ,-14, ,
1, ,-16, ,
6, ,-16, ,
0, ,-16, ,
3, ,-14, ,
5, ,-14, ,
3, ,-14, ,
0, ,-14, ,
4, ,-14, ,
1, ,-14, ,
4, ,-14, ,
3, ,-14, ,
4, ,-14, ,
4, ,-16, ,
5, ,-16, ,
0, ,-16, ,
3, ,-16, ,
4, ,-16, ,
3, ,-16, ,
0, ,-14, ,
4, ,-14, ,
5, ,-14, ,
4, ,-14, ,
3, ,-14, ,
3, ,-14, ,
0, ,-16, ,
4, ,-16, ,
1, ,-16, ,
4, ,-14, ,
4, ,-14, ,
3, ,-14, ,
-1, ,-14, ,
3, ,-14, ,
4, ,-16, ,
4, ,-16, ,
4, ,-16, ,
4, ,-14, ,
3, ,-16, ,
5, ,-16, ,
0, ,-16, ,
1, ,-14, ,
3, ,-14, ,
3, ,-14, ,
-1, ,-14, ,
5, ,-14, ,
4, ,-14, ,
4, ,-14, ,
3, ,-14, ,
3, ,-14, ,
4, ,-16, ,
4, ,-16, ,
1, ,-16, ,
5, ,-14, ,
5, ,-14, ,
5, ,-14, ,
1, ,-14, ,
4, ,-14, ,
1, ,-14, ,
4, ,-14, ,
3, ,-14, ,
3, ,-14, ,
3, ,-16, ,
4, ,-16, ,
0, ,-16, ,
1, ,-14, ,
5, ,-14, ,
3, ,-14, ,
-1, ,-14, ,
4, ,-14, ,
4, ,-14, ,
3, ,-14, ,
1, ,-14, ,
1, ,-14, ,
3, ,-14, ,
3, ,-14, ,
-1, ,-14, ,
3, ,-14, ,
5, ,-14, ,
3, ,-14, ,
0, ,-14, ,
4, ,-14, ,
4, ,-14, ,
3, ,-14, ,
1, ,-14, ,
4, ,-14, ,
3, ,-14, ,
3, ,-14, ,
0, ,-14, ,
1, ,-16, ,
3, ,-16, ,
4, ,-16, ,
0, ,-14, ,
4, ,-14, ,
4, ,-16, ,
3, ,-16, ,
1, ,-16, ,
1, ,-14, ,
1, ,-16, ,
5, ,-16, ,
0, ,-16, ,
1, ,-14, ,
3, ,-14, ,
3, ,-14, ,
0, ,-14, ,
4, ,-14, ,
3, ,-14, ,
3, ,-14, ,
3, ,-14, ,
3, ,-14, ,
4, ,-16, ,
5, ,-16, ,
0, ,-16, ,
3, ,-14, ,
4, ,-14, ,
5, ,-14, ,
-1, ,-14, ,
5, ,-14, ,
4, ,-16, ,
3, ,-16, ,
1, ,-16, ,
1, ,-14, ,
1, ,-16, ,
5, ,-16, ,
0, ,-16, ,
3, ,-16, ,
5, ,-16, ,
3, ,-16, ,
-2, ,-16, ,
3, ,-16, ,
4, ,-16, ,
3, ,-14, ,
3, ,-14, ,
4, ,-14, ,
5, ,-14, ,
4, ,-14, ,
-1, ,-14, ,
1, ,-14, ,
3, ,-14, ,
3, ,-14, ,
0, ,-14, ,
5, ,-14, ,
3, ,-16, ,
3, ,-16, ,
0, ,-16, ,
0, ,-14, ,
1, ,-14, ,
4, ,-14, ,
1, ,-14, ,
5, ,-14, ,
5, ,-14, ,
3, ,-14, ,
0, ,-14, ,
1, ,-14, ,
3, ,-14, ,
3, ,-14, ,
1, ,-14, ,
4, ,-14, ,
3, ,-14, ,
3, ,-14, ,
0, ,-14, ,
3, ,-14, ,
4, ,-14, ,
3, ,-14, ,
0, ,-14, ,
4, ,-14, ,
4, ,-14, ,
3, ,-14, ,
3, ,-14, ,
3, ,-14, ,
0, ,-16, ,
4, ,-16, ,
0, ,-16, ,
4, ,-14, ,
5, ,-14, ,
4, ,-14, ,
0, ,-14, ,
1, ,-14, ,
3, ,-14, ,
3, ,-14, ,
0, ,-14, ,
4, ,-14, ,
5, ,-14, ,
4, ,-14, ,
1, ,-14, ,
3, ,-14, ,
3, ,-14, ,
4, ,-14, ,
0, ,-14, ,
5, ,-14, ,
5, ,-14, ,
1, ,-14, ,
0, ,-14, ,
1, ,-14, ,
1, ,-14, ,
4, ,-14, ,
0, ,-14, ,
5, ,-14, ,
5, ,-14, ,
3, ,-14, ,
0, ,-14, ,
5, ,-14, ,
1, ,-14, ,
3, ,-14, ,
1, ,-14, ,
4, ,-14, ,
4, ,-16, ,
5, ,-16, ,
1, ,-16, ,
0, ,-14, ,
3, ,-14, ,
3, ,-14, ,
0, ,-14, ,
4, ,-14, ,
4, ,-14, ,
3, ,-14, ,
3, ,-14, ,
3, ,-14, ,
3, ,-14, ,
6, ,-14, ,
1, ,-14, ,
5, ,-14, ,
5, ,-14, ,
3, ,-14, ,
1, ,-16, ,
4, ,-16, ,
4, ,-16, ,
4, ,-14, ,
4, ,-14, ,
4, ,-14, ,
4, ,-16, ,
5, ,-16, ,
1, ,-16, ,
3, ,-14, ,
4, ,-14, ,
4, ,-14, ,
0, ,-14, ,
5, ,-14, ,
4, ,-14, ,
3, ,-14, ,
1, ,-14, ,
0, ,-14, ,
1, ,-16, ,
6, ,-16, ,
0, ,-16, ,
3, ,-14, ,
4, ,-14, ,
3, ,-14, ,
0, ,-14, ,
1, ,-14, ,
1, ,-14, ,
1, ,-14, ,
1, ,-14, ,
5, ,-14, ,
4, ,-16, ,
5, ,-16, ,
3, ,-16, ,
3, ,-14, ,
3, ,-14, ,
1, ,-14, ,
-1, ,-14, ,
5, ,-14, ,
4, ,-16, ,
3, ,-16, ,
1, ,-16, ,
3, ,-14, ,
3, ,-14, ,
5, ,-14, ,
0, ,-14, ,
3, ,-16, ,
4, ,-16, ,
4, ,-16, ,
0, ,-14, ,
4, ,-14, ,
1, ,-14, ,
1, ,-14, ,
1, ,-14, ,
5, ,-14, ,
3, ,-16, ,
5, ,-16, ,
1, ,-16, ,
1, ,-14, ,
1, ,-14, ,
1, ,-14, ,
0, ,-14, ,
5, ,-14, ,
5, ,-14, ,
4, ,-14, ,
3, ,-14, ,
3, ,-14, ,
3, ,-14, ,
4, ,-14, ,
0, ,-14, ,
4, ,-14, ,
5, ,-14, ,
3, ,-14, ,
-1, ,-14, ,
1, ,-14, ,
-1, ,-14, ,
1, ,-14, ,
3, ,-14, ,
4, ,-14, ,
3, ,-14, ,
4, ,-14, ,
-1, ,-14, ,
1, ,-14, ,
3, ,-14, ,
3, ,-14, ,
0, ,-14, ,
6, ,-14, ,
4, ,-16, ,
4, ,-16, ,
1, ,-16, ,
1, ,-14, ,
1, ,-14, ,
3, ,-14, ,
0, ,-14, ,
3, ,-14, ,
5, ,-14, ,
4, ,-14, ,
0, ,-14, ,
3, ,-14, ,
4, ,-14, ,
3, ,-14, ,
3, ,-14, ,
5, ,-14, ,
4, ,-16, ,
5, ,-16, ,
0, ,-16, ,
1, ,-16, ,
1, ,-16, ,
1, ,-16, ,
0, ,-14, ,
6, ,-14, ,
5, ,-14, ,
3, ,-14, ,
0, ,-14, ,
1, ,-14, ,
4, ,-16, ,
4, ,-16, ,
0, ,-16, ,
4, ,-14, ,
5, ,-14, ,
5, ,-14, ,
3, ,-16, ,
3, ,-16, ,
3, ,-16, ,
3, ,-14, ,
4, ,-14, ,
4, ,-14, ,
4, ,-16, ,
3, ,-16, ,
0, ,-16, ,
1, ,-14, ,
3, ,-14, ,
3, ,-14, ,
-2, ,-14, ,
4, ,-14, ,
3, ,-14, ,
4, ,-14, ,
3, ,-14, ,
1, ,-14, ,
1, ,-16, ,
5, ,-16, ,
0, ,-16, ,
4, ,-14, ,
5, ,-14, ,
4, ,-14, ,
1, ,-14, ,
3, ,-14, ,
1, ,-14, ,
1, ,-14, ,
3, ,-14, ,
4, ,-14, ,
4, ,-16, ,
4, ,-16, ,
0, ,-16, ,
3, ,-16, ,
4, ,-16, ,
3, ,-16, ,
0, ,-14, ,
5, ,-14, ,
3, ,-14, ,
4, ,-14, ,
3, ,-14, ,
1, ,-14, ,
1, ,-14, ,
4, ,-14, ,
0, ,-14, ,
3, ,-14, ,
4, ,-14, ,
3, ,-14, ,
0, ,-14, ,
4, ,-14, ,
0, ,-14, ,
1, ,-14, ,
4, ,-14, ,
4, ,-14, ,
4, ,-16, ,
4, ,-16, ,
1, ,-16, ,
3, ,-14, ,
4, ,-14, ,
3, ,-14, ,
0, ,-16, ,
5, ,-16, ,
4, ,-16, ,
3, ,-14, ,
1, ,-14, ,
1, ,-14, ,
3, ,-14, ,
5, ,-14, ,
1, ,-16, ,
3, ,-16, ,
6, ,-16, ,
4, ,-14, ,
0, ,-16, ,
4, ,-16, ,
0, ,-16, ,
4, ,-14, ,
3, ,-14, ,
3, ,-14, ,
4, ,-14, ,
3, ,-14, ,
1, ,-14, ,
1, ,-14, ,
4, ,-14, ,
3, ,-14, ,
0, ,-14, ,
4, ,-14, ,
4, ,-14, ,
4, ,-14, ,
1, ,-14, ,
3, ,-14, ,
1, ,-14, ,
5, ,-14, ,
1, ,-14, ,
3, ,-14, ,
4, ,-14, ,
4, ,-14, ,
3, ,-16, ,
4, ,-16, ,
4, ,-16, ,
3, ,-14, ,
1, ,-14, ,
4, ,-14, ,
4, ,-16, ,
3, ,-16, ,
0, ,-16, ,
3, ,-14, ,
4, ,-14, ,
4, ,-14, ,
0, ,-14, ,
4, ,-14, ,
3, ,-14, ,
3, ,-14, ,
3, ,-14, ,
3, ,-14, ,
3, ,-14, ,
4, ,-14, ,
1, ,-14, ,
4, ,-14, ,
5, ,-14, ,
4, ,-14, ,
0, ,-14, ,
3, ,-14, ,
3, ,-14, ,
3, ,-14, ,
1, ,-14, ,
1, ,-14, ,
3, ,-16, ,
4, ,-16, ,
0, ,-16, ,
3, ,-16, ,
4, ,-16, ,
3, ,-16, ,
-1, ,-16, ,
5, ,-16, ,
3, ,-16, ,
3, ,-16, ,
3, ,-16, ,
3, ,-16, ,
3, ,-14, ,
4, ,-14, ,
0, ,-14, ,
3, ,-14, ,
5, ,-14, ,
3, ,-14, ,
0, ,-14, ,
3, ,-14, ,
3, ,-14, ,
1, ,-14, ,
1, ,-14, ,
3, ,-14, ,
3, ,-16, ,
4, ,-16, ,
0, ,-16, ,
3, ,-16, ,
4, ,-16, ,
3, ,-16, ,
-1, ,-14, ,
6, ,-14, ,
3, ,-16, ,
4, ,-16, ,
0, ,-16, ,
3, ,-14, ,
1, ,-16, ,
4, ,-16, ,
-1, ,-16, ,
1, ,-14, ,
4, ,-14, ,
3, ,-14, ,
0, ,-14, ,
3, ,-14, ,
3, ,-14, ,
3, ,-14, ,
0, ,-14, ,
4, ,-14, ,
4, ,-14, ,
4, ,-14, ,
0, ,-14, ,
1, ,-16, ,
5, ,-16, ,
3, ,-16, ,
0, ,-14, ,
4, ,-14, ,
4, ,-14, ,
4, ,-14, ,
3, ,-14, ,
1, ,-14, ,
3, ,-16, ,
4, ,-16, ,
-1, ,-16, ,
3, ,-16, ,
5, ,-16, ,
4, ,-16, ,
0, ,-14, ,
3, ,-14, ,
3, ,-14, ,
4, ,-14, ,
3, ,-14, ,
4, ,-14, ,
4, ,-16, ,
4, ,-16, ,
0, ,-16, ,
3, ,-14, ,
4, ,-14, ,
3, ,-14, ,
-1, ,-14, ,
4, ,-14, ,
3, ,-14, ,
3, ,-14, ,
3, ,-14, ,
1, ,-14, ,
1, ,-14, ,
4, ,-14, ,
0, ,-14, ,
3, ,-16, ,
4, ,-16, ,
4, ,-16, ,
1, ,-16, ,
1, ,-16, ,
0, ,-16, ,
4, ,-14, ,
0, ,-14, ,
4, ,-14, ,
5, ,-16, ,
6, ,-16, ,
0, ,-16, ,
3, ,-14, ,
4, ,-14, ,
3, ,-14, ,
0, ,-14, ,
5, ,-14, ,
4, ,-14, ,
4, ,-14, ,
0, ,-14, ,
4, ,-14, ,
-1, ,-14, ,
4, ,-14, ,
-2, ,-14, ,
1, ,-14, ,
5, ,-14, ,
3, ,-14, ,
-1, ,-14, ,
4, ,-14, ,
1, ,-14, ,
3, ,-14, ,
1, ,-14, ,
3, ,-14, ,
3, ,-14, ,
4, ,-14, ,
-2, ,-14, ,
1, ,-16, ,
3, ,-16, ,
1, ,-16, ,
-1, ,-14, ,
4, ,-14, ,
3, ,-14, ,
3, ,-14, ,
3, ,-14, ,
3, ,-14, ,
1, ,-16, ,
3, ,-16, ,
1, ,-16, ,
3, ,-16, ,
4, ,-16, ,
3, ,-14, ,
-1, ,-14, ,
4, ,-14, ,
3, ,-16, ,
1, ,-16, ,
1, ,-16, ,
4, ,-14, ,
3, ,-14, ,
5, ,-14, ,
1, ,-14, ,
1, ,-14, ,
3, ,-14, ,
4, ,-14, ,
0, ,-14, ,
6, ,-14, ,
4, ,-16, ,
1, ,-16, ,
1, ,-16, ,
1, ,-14, ,
0, ,-14, ,
3, ,-14, ,
0, ,-14, ,
4, ,-14, ,
4, ,-14, ,
5, ,-14, ,
0, ,-16, ,
4, ,-16, ,
1, ,-16, ,
4, ,-16, ,
3, ,-16, ,
3, ,-14, ,
3, ,-16, ,
4, ,-16, ,
-1, ,-16, ,
1, ,-14, ,
3, ,-14, ,
3, ,-14, ,
-1, ,-14, ,
5, ,-14, ,
4, ,-16, ,
4, ,-16, ,
1, ,-16, ,
0, ,-14, ,
0, ,-14, ,
5, ,-14, ,
1, ,-16, ,
3, ,-16, ,
4, ,-16, ,
4, ,-16, ,
1, ,-16, ,
3, ,-16, ,
3, ,-16, ,
1, ,-16, ,
1, ,-16, ,
4, ,-14, ,
1, ,-16, ,
4, ,-16, ,
0, ,-16, ,
3, ,-16, ,
4, ,-16, ,
3, ,-16, ,
1, ,-14, ,
6, ,-14, ,
5, ,-14, ,
4, ,-14, ,
1, ,-14, ,
0, ,-14, ,
0, ,-14, ,
4, ,-14, ,
1, ,-14, ,
4, ,-16, ,
5, ,-16, ,
4, ,-16, ,
0, ,-16, ,
4, ,-16, ,
4, ,-16, ,
4, ,-14, ,
3, ,-14, ,
4, ,-14, ,
4, ,-14, ,
4, ,-14, ,
-1, ,-14, ,
0, ,-16, ,
3, ,-16, ,
3, ,-16, ,
-1, ,-16, ,
6, ,-16, ,
4, ,-16, ,
3, ,-14, ,
3, ,-14, ,
3, ,-14, ,
3, ,-16, ,
3, ,-16, ,
0, ,-16, ,
4, ,-14, ,
5, ,-14, ,
5, ,-14, ,
1, ,-14, ,
3, ,-14, ,
1, ,-14, ,
1, ,-14, ,
1, ,-14, ,
4, ,-14, ,
3, ,-14, ,
5, ,-14, ,
0, ,-14, ,
1, ,-16, ,
3, ,-16, ,
4, ,-16, ,
0, ,-14, ,
5, ,-14, ,
5, ,-14, ,
3, ,-14, ,
1, ,-14, ,
1, ,-14, ,
1, ,-16, ,
5, ,-16, ,
0, ,-16, ,
4, ,-16, ,
5, ,-16, ,
3, ,-16, ,
-1, ,-16, ,
3, ,-16, ,
3, ,-16, ,
1, ,-14, ,
0, ,-14, ,
3, ,-14, ,
4, ,-14, ,
4, ,-14, ,
1, ,-16, ,
1, ,-16, ,
3, ,-16, ,
4, ,-14, ,
1, ,-16, ,
5, ,-16, ,
5, ,-16, ,
3, ,-14, ,
0, ,-14, ,
0, ,-14, ,
1, ,-14, ,
3, ,-14, ,
-1, ,-14, ,
3, ,-14, ,
5, ,-14, ,
3, ,-14, ,
0, ,-14, ,
4, ,-14, ,
4, ,-14, ,
3, ,-14, ,
4, ,-14, ,
4, ,-14, ,
3, ,-16, ,
8, ,-16, ,
1, ,-16, ,
3, ,-14, ,
4, ,-14, ,
3, ,-14, ,
0, ,-14, ,
5, ,-14, ,
4, ,-14, ,
4, ,-14, ,
4, ,-14, ,
3, ,-14, ,
3, ,-14, ,
4, ,-14, ,
0, ,-14, ,
3, ,-14, ,
4, ,-14, ,
3, ,-14, ,
-1, ,-16, ,
4, ,-16, ,
3, ,-16, ,
3, ,-16, ,
3, ,-16, ,
3, ,-16, ,
4, ,-16, ,
4, ,-16, ,
0, ,-16, ,
1, ,-14, ,
4, ,-14, ,
4, ,-14, ,
0, ,-14, ,
5, ,-14, ,
5, ,-14, ,
4, ,-14, ,
3, ,-14, ,
3, ,-14, ,
3, ,-16, ,
5, ,-16, ,
-1, ,-16, ,
5, ,-16, ,
6, ,-16, ,
4, ,-16, ,
1, ,-14, ,
3, ,-14, ,
1, ,-14, ,
1, ,-14, ,
0, ,-14, ,
4, ,-14, ,
3, ,-14, ,
4, ,-14, ,
-1, ,-14, ,
1, ,-14, ,
3, ,-14, ,
3, ,-14, ,
-1, ,-14, ,
4, ,-14, ,
3, ,-16, ,
3, ,-16, ,
1, ,-16, ,
3, ,-14, ,
4, ,-16, ,
5, ,-16, ,
0, ,-16, ,
3, ,-14, ,
5, ,-14, ,
4, ,-14, ,
1, ,-14, ,
3, ,-14, ,
3, ,-14, ,
3, ,-14, ,
3, ,-14, ,
3, ,-14, ,
4, ,-16, ,
5, ,-16, ,
-2, ,-16, ,
0, ,-14, ,
3, ,-14, ,
1, ,-14, ,
-1, ,-14, ,
4, ,-14, ,
4, ,-14, ,
4, ,-14, ,
3, ,-14, ,
3, ,-14, ,
3, ,-14, ,
4, ,-14, ,
1, ,-16, ,
4, ,-16, ,
6, ,-16, ,
4, ,-16, ,
0, ,-16, ,
4, ,-16, ,
3, ,-16, ,
3, ,-14, ,
3, ,-14, ,
4, ,-14, ,
5, ,-16, ,
4, ,-16, ,
0, ,-16, ,
3, ,-14, ,
4, ,-14, ,
3, ,-14, ,
0, ,-14, ,
4, ,-14, ,
4, ,-14, ,
3, ,-14, ,
1, ,-14, ,
1, ,-14, ,
1, ,-14, ,
5, ,-14, ,
-1, ,-14, ,
3, ,-14, ,
4, ,-14, ,
3, ,-14, ,
0, ,-14, ,
1, ,-14, ,
4, ,-14, ,
4, ,-14, ,
4, ,-14, ,
4, ,-14, ,
4, ,-14, ,
4, ,-14, ,
0, ,-14, ,
1, ,-16, ,
3, ,-16, ,
3, ,-16, ,
0, ,-16, ,
4, ,-16, ,
5, ,-16, ,
4, ,-14, ,
3, ,-14, ,
3, ,-14, ,
0, ,-16, ,
3, ,-16, ,
0, ,-16, ,
1, ,-14, ,
5, ,-14, ,
4, ,-14, ,
1, ,-14, ,
3, ,-14, ,
3, ,-14, ,
1, ,-14, ,
0, ,-14, ,
3, ,-14, ,
3, ,-14, ,
1, ,-14, ,
0, ,-14, ,
1, ,-14, ,
3, ,-14, ,
3, ,-14, ,
0, ,-16, ,
5, ,-16, ,
4, ,-16, ,
3, ,-14, ,
3, ,-14, ,
1, ,-14, ,
0, ,-16, ,
4, ,-16, ,
1, ,-16, ,
3, ,-14, ,
4, ,-14, ,
3, ,-14, ,
-1, ,-14, ,
1, ,-14, ,
1, ,-14, ,
1, ,-14, ,
1, ,-14, ,
3, ,-14, ,
3, ,-14, ,
4, ,-14, ,
-2, ,-14, ,
1, ,-14, ,
4, ,-14, ,
3, ,-14, ,
-1, ,-14, ,
5, ,-14, ,
5, ,-14, ,
4, ,-14, ,
1, ,-14, ,
3, ,-14, ,
3, ,-16, ,
5, ,-16, ,
0, ,-16, ,
4, ,-16, ,
4, ,-16, ,
3, ,-14, ,
0, ,-14, ,
4, ,-14, ,
3, ,-14, ,
4, ,-14, ,
4, ,-14, ,
4, ,-14, ,
5, ,-16, ,
4, ,-16, ,
-1, ,-16, ,
1, ,-16, ,
3, ,-16, ,
3, ,-16, ,
1, ,-14, ,
5, ,-14, ,
4, ,-14, ,
3, ,-14, ,
1, ,-14, ,
1, ,-14, ,
3, ,-16, ,
6, ,-16, ,
0, ,-16, ,
3, ,-16, ,
4, ,-16, ,
3, ,-14, ,
0, ,-14, ,
3, ,-14, ,
3, ,-14, ,
3, ,-16, ,
4, ,-16, ,
3, ,-16, ,
3, ,-14, ,
3, ,-14, ,
0, ,-14, ,
0, ,-14, ,
4, ,-14, ,
3, ,-14, ,
0, ,-14, ,
5, ,-14, ,
4, ,-14, ,
3, ,-14, ,
3, ,-14, ,
3, ,-14, ,
1, ,-14, ,
4, ,-14, ,
0, ,-14, ,
3, ,-16, ,
4, ,-16, ,
3, ,-16, ,
0, ,-14, ,
3, ,-14, ,
1, ,-14, ,
3, ,-14, ,
4, ,-14, ,
4, ,-14, ,
3, ,-14, ,
4, ,-14, ,
1, ,-14, ,
3, ,-14, ,
4, ,-14, ,
4, ,-14, ,
0, ,-14, ,
4, ,-14, ,
4, ,-16, ,
