src/timing_folder/2chSaw0000005.CSV

Format,1.0B,
Memory Length,10000,Memory Length,10000,
IntpDistance,0,IntpDistance,0,
Trigger Address,4999,Trigger Address,4999,
Trigger Level,1.192E-01,Trigger Level,1.192E-01,
Source,CH1,Source,CH2,
Vertical Units,V,Vertical Units,V,
Vertical Units Div,0,Vertical Units Div,0,
Vertical Units Extend Div,16,Vertical Units Extend Div,16,
Label,,Label,,
Probe Type,0,Probe Type,0,
Probe Ratio,1.000e+01,Probe Ratio,1.000e+00,
Vertical Scale,2.000e-02,Vertical Scale,1.000e+00,
Vertical Position,-5.120e-02,Vertical Position,2.000e-01,
Horizontal Units,S,Horizontal Units,S,
Horizontal Scale,5.000E-07,Horizontal Scale,5.000E-07,
Horizontal Position,0.000E+00,Horizontal Position,0.000E+00,
Horizontal Mode,Main,Horizontal Mode,Main,
SincET Mode,Real Time,SincET Mode,Real Time,
Sampling Period,2.000e-09,Sampling Period,2.000e-09,
Horizontal Old Scale,5.000E-07,Horizontal Old Scale,5.000E-07,
Horizontal Old Position,0.000E+00,Horizontal Old Position,0.000E+00,
Firmware,V1.23,Firmware,V1.23,
Mode,Fast,Mode,Fast,
Waveform Data,,Waveform Data,,
3, ,-3, ,
4, ,-4, ,
5, ,-4, ,
3, ,-4, ,
3, ,-3, ,
4, ,-4, ,
3, ,-4, ,
0, ,-4, ,
4, ,-3, ,
4, ,-4, ,
5, ,-4, ,
3, ,-4, ,
1, ,-3, ,
4, ,-4, ,
6, ,-4, ,
-1, ,-4, ,
4, ,-3, ,
5, ,-4, ,
4, ,-4, ,
1, ,-4, ,
3, ,-3, ,
4, ,-3, ,
4, ,-3, ,
1, ,-3, ,
3, ,-3, ,
4, ,-4, ,
3, ,-4, ,
1, ,-4, ,
0, ,-4, ,
3, ,-4, ,
4, ,-4, ,
1, ,-4, ,
4, ,-4, ,
4, ,-3, ,
4, ,-3, ,
3, ,-3, ,
3, ,-3, ,
4, ,-4, ,
4, ,-4, ,
0, ,-4, ,
3, ,-4, ,
5, ,-4, ,
4, ,-4, ,
1, ,-4, ,
3, ,-4, ,
3, ,-4, ,
1, ,-4, ,
1, ,-4, ,
3, ,-3, ,
5, ,-3, ,
5, ,-3, ,
1, ,-3, ,
3, ,-3, ,
3, ,-4, ,
1, ,-4, ,
-1, ,-4, ,
1, ,-3, ,
3, ,-4, ,
3, ,-4, ,
3, ,-4, ,
1, ,-3, ,
4, ,-3, ,
5, ,-4, ,
0, ,-4, ,
4, ,-4, ,
5, ,-4, ,
4, ,-4, ,
1, ,-4, ,
5, ,-3, ,
3, ,-3, ,
4, ,-3, ,
3, ,-3, ,
3, ,-3, ,
4, ,-3, ,
5, ,-3, ,
1, ,-3, ,
3, ,-3, ,
3, ,-3, ,
3, ,-3, ,
-1, ,-3, ,
3, ,-3, ,
3, ,-3, ,
3, ,-4, ,
3, ,-4, ,
3, ,-4, ,
4, ,-4, ,
6, ,-4, ,
1, ,-4, ,
4, ,-3, ,
5, ,-3, ,
4, ,-4, ,
1, ,-4, ,
4, ,-4, ,
1, ,-3, ,
4, ,-3, ,
3, ,-3, ,
4, ,-3, ,
4, ,-3, ,
5, ,-3, ,
-1, ,-3, ,
3, ,-3, ,
4, ,-3, ,
3, ,-3, ,
-1, ,-3, ,
5, ,-3, ,
5, ,-4, ,
4, ,-4, ,
4, ,-4, ,
3, ,-4, ,
3, ,-4, ,
5, ,-4, ,
0, ,-4, ,
3, ,-3, ,
4, ,-4, ,
4, ,-4, ,
1, ,-4, ,
3, ,-3, ,
3, ,-4, ,
4, ,-4, ,
3, ,-4, ,
4, ,-3, ,
4, ,-3, ,
4, ,-3, ,
3, ,-3, ,
3, ,-3, ,
3, ,-4, ,
1, ,-4, ,
-1, ,-4, ,
5, ,-3, ,
5, ,-3, ,
4, ,-3, ,
1, ,-3, ,
3, ,-3, ,
3, ,-4, ,
5, ,-4, ,
0, ,-4, ,
3, ,-3, ,
5, ,-3, ,
4, ,-3, ,
0, ,-3, ,
3, ,-3, ,
3, ,-4, ,
4, ,-4, ,
3, ,-4, ,
4, ,-3, ,
5, ,-4, ,
5, ,-4, ,
4, ,-4, ,
3, ,-3, ,
4, ,-4, ,
4, ,-4, ,
-1, ,-4, ,
4, ,-3, ,
4, ,-3, ,
4, ,-3, ,
3, ,-3, ,
3, ,-3, ,
3, ,-3, ,
4, ,-3, ,
0, ,-3, ,
3, ,-3, ,
5, ,-4, ,
3, ,-4, ,
0, ,-4, ,
4, ,-4, ,
4, ,-4, ,
3, ,-4, ,
4, ,-4, ,
4, ,-3, ,
3, ,-3, ,
4, ,-3, ,
1, ,-3, ,
1, ,-3, ,
3, ,-3, ,
4, ,-3, ,
-1, ,-4, ,
3, ,-4, ,
5, ,-4, ,
4, ,-3, ,
4, ,-3, ,
4, ,-3, ,
4, ,-3, ,
5, ,-3, ,
0, ,-3, ,
3, ,-3, ,
4, ,-4, ,
4, ,-4, ,
1, ,-4, ,
4, ,-3, ,
1, ,-4, ,
3, ,-4, ,
1, ,-4, ,
5, ,-3, ,
4, ,-3, ,
4, ,-3, ,
1, ,-3, ,
3, ,-3, ,
4, ,-4, ,
3, ,-4, ,
0, ,-4, ,
4, ,-3, ,
4, ,-3, ,
4, ,-3, ,
3, ,-3, ,
1, ,-3, ,
1, ,-3, ,
4, ,-3, ,
0, ,-3, ,
4, ,-3, ,
5, ,-4, ,
4, ,-4, ,
0, ,-4, ,
4, ,-4, ,
4, ,-3, ,
4, ,-3, ,
4, ,-3, ,
4, ,-3, ,
5, ,-4, ,
5, ,-4, ,
1, ,-4, ,
3, ,-3, ,
3, ,-3, ,
3, ,-3, ,
1, ,-3, ,
3, ,-3, ,
3, ,-4, ,
3, ,-4, ,
3, ,-4, ,
3, ,-3, ,
1, ,-3, ,
6, ,-3, ,
0, ,-3, ,
3, ,-3, ,
5, ,-3, ,
4, ,-4, ,
0, ,-4, ,
3, ,-4, ,
4, ,-3, ,
3, ,-3, ,
3, ,-3, ,
3, ,-3, ,
4, ,-3, ,
5, ,-3, ,
1, ,-3, ,
1, ,-3, ,
4, ,-3, ,
3, ,-4, ,
0, ,-4, ,
6, ,-4, ,
3, ,-4, ,
3, ,-4, ,
3, ,-4, ,
0, ,-3, ,
3, ,-3, ,
4, ,-3, ,
0, ,-3, ,
3, ,-3, ,
5, ,-3, ,
5, ,-4, ,
1, ,-4, ,
3, ,-4, ,
3, ,-4, ,
4, ,-4, ,
1, ,-4, ,
4, ,-3, ,
5, ,-3, ,
5, ,-3, ,
1, ,-3, ,
1, ,-3, ,
3, ,-3, ,
3, ,-3, ,
0, ,-3, ,
4, ,-3, ,
4, ,-3, ,
4, ,-3, ,
3, ,-3, ,
3, ,-3, ,
0, ,-3, ,
3, ,-3, ,
-1, ,-3, ,
1, ,-3, ,
4, ,-3, ,
4, ,-3, ,
0, ,-3, ,
4, ,-3, ,
3, ,-4, ,
3, ,-4, ,
3, ,-4, ,
3, ,-4, ,
4, ,-3, ,
4, ,-3, ,
1, ,-3, ,
1, ,-3, ,
3, ,-3, ,
4, ,-3, ,
1, ,-3, ,
4, ,-3, ,
4, ,-3, ,
3, ,-3, ,
1, ,-3, ,
3, ,-3, ,
4, ,-3, ,
5, ,-4, ,
0, ,-4, ,
3, ,-4, ,
4, ,-3, ,
4, ,-3, ,
0, ,-3, ,
4, ,-3, ,
3, ,-3, ,
1, ,-4, ,
0, ,-4, ,
4, ,-4, ,
4, ,-4, ,
6, ,-4, ,
0, ,-4, ,
3, ,-3, ,
5, ,-4, ,
3, ,-4, ,
0, ,-4, ,
4, ,-3, ,
4, ,-3, ,
3, ,-4, ,
1, ,-4, ,
1, ,-4, ,
3, ,-3, ,
3, ,-3, ,
0, ,-3, ,
3, ,-3, ,
5, ,-3, ,
5, ,-4, ,
1, ,-4, ,
3, ,-4, ,
3, ,-4, ,
3, ,-4, ,
3, ,-4, ,
3, ,-3, ,
4, ,-3, ,
4, ,-3, ,
1, ,-3, ,
4, ,-3, ,
5, ,-4, ,
3, ,-4, ,
-1, ,-4, ,
3, ,-3, ,
3, ,-4, ,
1, ,-4, ,
1, ,-4, ,
3, ,-4, ,
3, ,-3, ,
3, ,-3, ,
0, ,-3, ,
3, ,-3, ,
5, ,-4, ,
4, ,-4, ,
0, ,-4, ,
3, ,-4, ,
3, ,-3, ,
1, ,-3, ,
1, ,-3, ,
3, ,-3, ,
4, ,-3, ,
4, ,-3, ,
0, ,-3, ,
1, ,-3, ,
4, ,-4, ,
4, ,-4, ,
0, ,-4, ,
3, ,-3, ,
4, ,-3, ,
1, ,-4, ,
1, ,-4, ,
3, ,-4, ,
3, ,-4, ,
4, ,-4, ,
0, ,-4, ,
3, ,-3, ,
5, ,-3, ,
3, ,-3, ,
-1, ,-3, ,
3, ,-3, ,
3, ,-3, ,
1, ,-3, ,
3, ,-3, ,
4, ,-3, ,
4, ,-3, ,
5, ,-3, ,
0, ,-3, ,
1, ,-3, ,
3, ,-3, ,
4, ,-3, ,
0, ,-3, ,
4, ,-3, ,
4, ,-3, ,
3, ,-3, ,
1, ,-3, ,
1, ,-3, ,
3, ,-4, ,
4, ,-4, ,
-1, ,-4, ,
1, ,-3, ,
4, ,-3, ,
4, ,-3, ,
0, ,-3, ,
4, ,-3, ,
3, ,-3, ,
4, ,-3, ,
1, ,-3, ,
1, ,-3, ,
3, ,-3, ,
8, ,-4, ,
1, ,-4, ,
1, ,-4, ,
3, ,-3, ,
4, ,-3, ,
-1, ,-3, ,
4, ,-3, ,
4, ,-4, ,
3, ,-4, ,
-1, ,-4, ,
1, ,-3, ,
1, ,-4, ,
5, ,-4, ,
0, ,-4, ,
4, ,-3, ,
6, ,-4, ,
4, ,-4, ,
0, ,-4, ,
3, ,-3, ,
0, ,-4, ,
4, ,-4, ,
3, ,-4, ,
3, ,-4, ,
3, ,-3, ,
4, ,-3, ,
3, ,-3, ,
3, ,-3, ,
5, ,-4, ,
5, ,-4, ,
-1, ,-4, ,
4, ,-3, ,
3, ,-3, ,
1, ,-3, ,
3, ,-3, ,
3, ,-3, ,
3, ,-3, ,
4, ,-3, ,
-2, ,-3, ,
1, ,-3, ,
5, ,-4, ,
4, ,-4, ,
0, ,-4, ,
4, ,-3, ,
3, ,-3, ,
0, ,-4, ,
-1, ,-4, ,
1, ,-4, ,
4, ,-3, ,
4, ,-3, ,
0, ,-3, ,
1, ,-3, ,
3, ,-3, ,
1, ,-3, ,
0, ,-3, ,
4, ,-3, ,
5, ,-4, ,
4, ,-4, ,
1, ,-4, ,
1, ,-3, ,
1, ,-4, ,
4, ,-4, ,
-1, ,-4, ,
3, ,-3, ,
5, ,-4, ,
4, ,-4, ,
-1, ,-4, ,
3, ,-4, ,
1, ,-3, ,
1, ,-4, ,
0, ,-4, ,
3, ,-4, ,
4, ,-4, ,
4, ,-4, ,
0, ,-4, ,
3, ,-3, ,
4, ,-3, ,
3, ,-3, ,
-2, ,-3, ,
4, ,-3, ,
4, ,-4, ,
3, ,-4, ,
1, ,-4, ,
1, ,-4, ,
3, ,-3, ,
6, ,-3, ,
-1, ,-3, ,
3, ,-4, ,
6, ,-4, ,
4, ,-4, ,
0, ,-3, ,
3, ,-3, ,
4, ,-3, ,
3, ,-3, ,
1, ,-3, ,
3, ,-3, ,
4, ,-4, ,
4, ,-4, ,
1, ,-4, ,
3, ,-3, ,
4, ,-3, ,
4, ,-3, ,
0, ,-3, ,
5, ,-3, ,
4, ,-3, ,
3, ,-4, ,
1, ,-4, ,
3, ,-4, ,
3, ,-3, ,
3, ,-3, ,
1, ,-3, ,
4, ,-3, ,
5, ,-4, ,
3, ,-4, ,
1, ,-4, ,
3, ,-3, ,
4, ,-3, ,
4, ,-3, ,
1, ,-3, ,
3, ,-3, ,
5, ,-4, ,
5, ,-4, ,
-1, ,-4, ,
1, ,-4, ,
4, ,-4, ,
3, ,-4, ,
-1, ,-4, ,
4, ,-3, ,
4, ,-3, ,
3, ,-3, ,
1, ,-3, ,
1, ,-3, ,
3, ,-3, ,
5, ,-3, ,
-1, ,-3, ,
3, ,-3, ,
4, ,-4, ,
3, ,-4, ,
-1, ,-4, ,
3, ,-4, ,
3, ,-3, ,
1, ,-3, ,
1, ,-3, ,
3, ,-3, ,
4, ,-3, ,
4, ,-3, ,
1, ,-3, ,
3, ,-3, ,
3, ,-3, ,
1, ,-4, ,
-1, ,-4, ,
4, ,-4, ,
6, ,-3, ,
4, ,-3, ,
0, ,-3, ,
3, ,-3, ,
1, ,-3, ,
5, ,-3, ,
-1, ,-3, ,
3, ,-3, ,
5, ,-4, ,
3, ,-4, ,
0, ,-4, ,
1, ,-3, ,
3, ,-3, ,
3, ,-4, ,
-1, ,-4, ,
3, ,-4, ,
4, ,-4, ,
4, ,-4, ,
0, ,-4, ,
3, ,-4, ,
4, ,-3, ,
3, ,-3, ,
0, ,-3, ,
3, ,-3, ,
3, ,-4, ,
3, ,-4, ,
3, ,-4, ,
4, ,-4, ,
3, ,-4, ,
4, ,-4, ,
3, ,-4, ,
3, ,-3, ,
5, ,-3, ,
4, ,-3, ,
1, ,-3, ,
3, ,-3, ,
3, ,-3, ,
4, ,-3, ,
1, ,-3, ,
3, ,-3, ,
3, ,-4, ,
4, ,-4, ,
3, ,-4, ,
1, ,-4, ,
4, ,-3, ,
4, ,-4, ,
-1, ,-4, ,
4, ,-4, ,
4, ,-4, ,
3, ,-4, ,
1, ,-4, ,
3, ,-4, ,
1, ,-4, ,
3, ,-4, ,
-1, ,-4, ,
1, ,-3, ,
4, ,-4, ,
5, ,-4, ,
1, ,-4, ,
4, ,-3, ,
3, ,-3, ,
1, ,-3, ,
3, ,-3, ,
3, ,-3, ,
4, ,-4, ,
5, ,-4, ,
-1, ,-4, ,
1, ,-3, ,
3, ,-4, ,
1, ,-4, ,
-2, ,-4, ,
5, ,-4, ,
4, ,-3, ,
3, ,-3, ,
0, ,-3, ,
3, ,-3, ,
1, ,-4, ,
4, ,-4, ,
0, ,-4, ,
3, ,-3, ,
4, ,-3, ,
3, ,-3, ,
0, ,-3, ,
5, ,-3, ,
1, ,-4, ,
1, ,-4, ,
1, ,-4, ,
3, ,-4, ,
4, ,-3, ,
4, ,-3, ,
-1, ,-3, ,
0, ,-3, ,
1, ,-4, ,
1, ,-4, ,
0, ,-4, ,
4, ,-3, ,
4, ,-3, ,
3, ,-3, ,
1, ,-3, ,
1, ,-4, ,
0, ,-4, ,
4, ,-4, ,
-2, ,-3, ,
1, ,-3, ,
4, ,-3, ,
1, ,-4, ,
-1, ,-4, ,
3, ,-4, ,
3, ,-4, ,
4, ,-4, ,
1, ,-4, ,
1, ,-3, ,
1, ,-3, ,
4, ,-3, ,
-1, ,-3, ,
1, ,-3, ,
3, ,-3, ,
1, ,-4, ,
-1, ,-4, ,
5, ,-4, ,
4, ,-4, ,
3, ,-4, ,
3, ,-4, ,
1, ,-3, ,
1, ,-3, ,
6, ,-3, ,
0, ,-3, ,
3, ,-3, ,
5, ,-3, ,
4, ,-4, ,
1, ,-4, ,
4, ,-4, ,
4, ,-3, ,
1, ,-3, ,
0, ,-3, ,
4, ,-3, ,
5, ,-4, ,
5, ,-4, ,
1, ,-4, ,
3, ,-3, ,
3, ,-4, ,
1, ,-4, ,
1, ,-4, ,
3, ,-3, ,
4, ,-4, ,
3, ,-4, ,
1, ,-4, ,
1, ,-4, ,
3, ,-4, ,
1, ,-4, ,
0, ,-4, ,
3, ,-3, ,
5, ,-4, ,
4, ,-4, ,
-1, ,-4, ,
3, ,-4, ,
1, ,-3, ,
4, ,-3, ,
1, ,-3, ,
1, ,-3, ,
3, ,-4, ,
4, ,-4, ,
0, ,-4, ,
1, ,-3, ,
4, ,-4, ,
4, ,-4, ,
-1, ,-4, ,
3, ,-3, ,
5, ,-3, ,
3, ,-4, ,
0, ,-4, ,
1, ,-4, ,
3, ,-3, ,
4, ,-3, ,
0, ,-3, ,
3, ,-3, ,
5, ,-4, ,
3, ,-4, ,
-1, ,-4, ,
3, ,-3, ,
1, ,-3, ,
1, ,-3, ,
3, ,-3, ,
3, ,-3, ,
4, ,-4, ,
4, ,-4, ,
0, ,-4, ,
1, ,-3, ,
4, ,-4, ,
3, ,-4, ,
0, ,-4, ,
3, ,-4, ,
4, ,-3, ,
1, ,-3, ,
1, ,-3, ,
1, ,-3, ,
3, ,-4, ,
3, ,-4, ,
0, ,-4, ,
3, ,-3, ,
4, ,-4, ,
1, ,-4, ,
-1, ,-4, ,
1, ,-3, ,
3, ,-3, ,
3, ,-3, ,
0, ,-3, ,
3, ,-3, ,
4, ,-3, ,
4, ,-3, ,
1, ,-3, ,
3, ,-3, ,
4, ,-3, ,
4, ,-3, ,
-2, ,-3, ,
4, ,-3, ,
4, ,-4, ,
3, ,-4, ,
0, ,-4, ,
1, ,-4, ,
3, ,-3, ,
4, ,-3, ,
-2, ,-3, ,
1, ,-3, ,
5, ,-3, ,
1, ,-4, ,
1, ,-4, ,
3, ,-4, ,
3, ,-4, ,
1, ,-4, ,
-2, ,-4, ,
1, ,-4, ,
4, ,-4, ,
4, ,-4, ,
0, ,-4, ,
1, ,-4, ,
4, ,-4, ,
5, ,-4, ,
-1, ,-4, ,
5, ,-3, ,
6, ,-4, ,
4, ,-4, ,
3, ,-4, ,
1, ,-4, ,
3, ,-4, ,
3, ,-3, ,
0, ,-3, ,
1, ,-3, ,
5, ,-4, ,
3, ,-4, ,
1, ,-4, ,
1, ,-3, ,
0, ,-4, ,
3, ,-4, ,
3, ,-4, ,
3, ,-3, ,
4, ,-3, ,
3, ,-3, ,
-1, ,-3, ,
1, ,-3, ,
3, ,-4, ,
3, ,-4, ,
-1, ,-4, ,
4, ,-3, ,
4, ,-4, ,
3, ,-4, ,
1, ,-4, ,
1, ,-3, ,
1, ,-4, ,
4, ,-4, ,
-1, ,-4, ,
3, ,-4, ,
4, ,-4, ,
3, ,-4, ,
0, ,-4, ,
3, ,-3, ,
3, ,-4, ,
1, ,-4, ,
1, ,-4, ,
3, ,-3, ,
4, ,-4, ,
5, ,-4, ,
0, ,-4, ,
0, ,-3, ,
1, ,-4, ,
3, ,-4, ,
0, ,-4, ,
4, ,-4, ,
4, ,-3, ,
4, ,-3, ,
3, ,-3, ,
3, ,-3, ,
3, ,-3, ,
3, ,-3, ,
1, ,-3, ,
3, ,-3, ,
5, ,-3, ,
4, ,-4, ,
0, ,-4, ,
5, ,-4, ,
1, ,-4, ,
3, ,-4, ,
0, ,-4, ,
3, ,-4, ,
4, ,-3, ,
4, ,-3, ,
-1, ,-3, ,
1, ,-3, ,
1, ,-4, ,
3, ,-4, ,
0, ,-4, ,
3, ,-3, ,
3, ,-4, ,
3, ,-4, ,
1, ,-4, ,
3, ,-4, ,
1, ,-3, ,
5, ,-3, ,
-1, ,-3, ,
1, ,-3, ,
3, ,-3, ,
3, ,-3, ,
3, ,-3, ,
3, ,-3, ,
4, ,-3, ,
3, ,-3, ,
3, ,-3, ,
3, ,-3, ,
4, ,-4, ,
4, ,-4, ,
0, ,-4, ,
3, ,-3, ,
4, ,-3, ,
3, ,-3, ,
-1, ,-3, ,
4, ,-3, ,
4, ,-4, ,
3, ,-4, ,
3, ,-4, ,
1, ,-3, ,
4, ,-3, ,
6, ,-3, ,
0, ,-3, ,
3, ,-3, ,
6, ,-4, ,
4, ,-4, ,
-1, ,-4, ,
0, ,-3, ,
1, ,-4, ,
1, ,-4, ,
1, ,-4, ,
3, ,-4, ,
4, ,-3, ,
4, ,-3, ,
0, ,-3, ,
1, ,-3, ,
4, ,-3, ,
3, ,-3, ,
-1, ,-3, ,
3, ,-3, ,
4, ,-4, ,
3, ,-4, ,
1, ,-4, ,
1, ,-3, ,
3, ,-4, ,
3, ,-4, ,
1, ,-4, ,
3, ,-3, ,
4, ,-3, ,
3, ,-3, ,
0, ,-3, ,
1, ,-3, ,
3, ,-3, ,
3, ,-4, ,
1, ,-4, ,
4, ,-4, ,
5, ,-4, ,
4, ,-4, ,
-1, ,-4, ,
1, ,-3, ,
3, ,-4, ,
3, ,-4, ,
-1, ,-4, ,
4, ,-3, ,
4, ,-4, ,
4, ,-4, ,
0, ,-4, ,
3, ,-4, ,
3, ,-3, ,
4, ,-3, ,
-1, ,-3, ,
3, ,-3, ,
4, ,-3, ,
3, ,-4, ,
-1, ,-4, ,
3, ,-4, ,
3, ,-3, ,
4, ,-4, ,
0, ,-4, ,
1, ,-4, ,
3, ,-4, ,
4, ,-4, ,
0, ,-4, ,
3, ,-4, ,
4, ,-3, ,
3, ,-3, ,
0, ,-3, ,
5, ,-3, ,
4, ,-4, ,
3, ,-4, ,
3, ,-4, ,
3, ,-3, ,
3, ,-4, ,
5, ,-4, ,
0, ,-4, ,
4, ,-3, ,
6, ,-4, ,
4, ,-4, ,
-1, ,-4, ,
4, ,-3, ,
1, ,-4, ,
3, ,-4, ,
1, ,-4, ,
3, ,-3, ,
3, ,-3, ,
4, ,-3, ,
0, ,-3, ,
1, ,-3, ,
3, ,-3, ,
3, ,-4, ,
1, ,-4, ,
5, ,-4, ,
4, ,-4, ,
3, ,-4, ,
0, ,-4, ,
1, ,-3, ,
1, ,-3, ,
4, ,-4, ,
0, ,-4, ,
3, ,-4, ,
5, ,-4, ,
1, ,-4, ,
-2, ,-4, ,
3, ,-3, ,
3, ,-4, ,
3, ,-4, ,
1, ,-4, ,
4, ,-3, ,
4, ,-3, ,
3, ,-3, ,
0, ,-3, ,
0, ,-3, ,
1, ,-4, ,
4, ,-4, ,
-2, ,-4, ,
5, ,-4, ,
5, ,-4, ,
5, ,-4, ,
3, ,-4, ,
3, ,-4, ,
1, ,-4, ,
4, ,-4, ,
-1, ,-4, ,
3, ,-3, ,
5, ,-4, ,
4, ,-4, ,
-1, ,-4, ,
1, ,-3, ,
3, ,-3, ,
3, ,-3, ,
1, ,-3, ,
3, ,-4, ,
4, ,-4, ,
5, ,-4, ,
1, ,-4, ,
1, ,-3, ,
3, ,-4, ,
1, ,-4, ,
-1, ,-4, ,
3, ,-3, ,
3, ,-4, ,
4, ,-4, ,
1, ,-4, ,
1, ,-3, ,
3, ,-3, ,
3, ,-3, ,
1, ,-3, ,
4, ,-3, ,
5, ,-3, ,
5, ,-3, ,
0, ,-3, ,
1, ,-3, ,
3, ,-3, ,
1, ,-4, ,
0, ,-4, ,
4, ,-4, ,
4, ,-4, ,
6, ,-4, ,
0, ,-4, ,
1, ,-3, ,
4, ,-3, ,
4, ,-3, ,
0, ,-3, ,
4, ,-3, ,
4, ,-4, ,
3, ,-4, ,
1, ,-4, ,
0, ,-3, ,
1, ,-3, ,
4, ,-3, ,
0, ,-3, ,
3, ,-3, ,
4, ,-4, ,
3, ,-4, ,
0, ,-4, ,
1, ,-4, ,
1, ,-3, ,
1, ,-3, ,
1, ,-3, ,
3, ,-3, ,
4, ,-4, ,
3, ,-4, ,
0, ,-4, ,
0, ,-3, ,
4, ,-4, ,
3, ,-4, ,
0, ,-4, ,
4, ,-3, ,
4, ,-4, ,
1, ,-4, ,
0, ,-4, ,
3, ,-3, ,
1, ,-4, ,
5, ,-4, ,
-1, ,-4, ,
3, ,-3, ,
5, ,-4, ,
3, ,-4, ,
-2, ,-4, ,
1, ,-4, ,
3, ,-3, ,
3, ,-3, ,
0, ,-3, ,
1, ,-3, ,
3, ,-4, ,
4, ,-4, ,
1, ,-4, ,
1, ,-3, ,
3, ,-4, ,
4, ,-4, ,
-1, ,-4, ,
4, ,-3, ,
4, ,-4, ,
3, ,-4, ,
0, ,-4, ,
1, ,-3, ,
3, ,-3, ,
4, ,-3, ,
-1, ,-3, ,
1, ,-3, ,
5, ,-4, ,
3, ,-4, ,
0, ,-4, ,
1, ,-3, ,
3, ,-3, ,
3, ,-3, ,
1, ,-3, ,
3, ,-3, ,
4, ,-4, ,
3, ,-4, ,
-1, ,-4, ,
1, ,-3, ,
3, ,-3, ,
3, ,-3, ,
-1, ,-3, ,
5, ,-3, ,
5, ,-4, ,
3, ,-4, ,
0, ,-4, ,
1, ,-4, ,
1, ,-3, ,
4, ,-3, ,
0, ,-3, ,
3, ,-3, ,
5, ,-3, ,
4, ,-4, ,
-1, ,-4, ,
3, ,-4, ,
3, ,-4, ,
3, ,-4, ,
1, ,-4, ,
4, ,-3, ,
3, ,-3, ,
3, ,-3, ,
0, ,-3, ,
1, ,-3, ,
3, ,-3, ,
3, ,-4, ,
0, ,-4, ,
5, ,-4, ,
4, ,-4, ,
4, ,-4, ,
0, ,-4, ,
0, ,-3, ,
1, ,-4, ,
5, ,-4, ,
-1, ,-4, ,
1, ,-3, ,
5, ,-4, ,
4, ,-4, ,
1, ,-4, ,
1, ,-4, ,
1, ,-4, ,
0, ,-4, ,
0, ,-4, ,
1, ,-3, ,
3, ,-3, ,
4, ,-4, ,
0, ,-4, ,
1, ,-4, ,
1, ,-3, ,
5, ,-3, ,
0, ,-3, ,
4, ,-3, ,
4, ,-4, ,
1, ,-4, ,
0, ,-4, ,
1, ,-4, ,
1, ,-3, ,
5, ,-3, ,
0, ,-3, ,
3, ,-3, ,
4, ,-4, ,
3, ,-4, ,
-1, ,-4, ,
3, ,-4, ,
3, ,-4, ,
4, ,-4, ,
-1, ,-4, ,
1, ,-4, ,
4, ,-4, ,
4, ,-4, ,
-1, ,-4, ,
1, ,-3, ,
3, ,-4, ,
3, ,-4, ,
-1, ,-4, ,
4, ,-4, ,
3, ,-4, ,
1, ,-4, ,
1, ,-4, ,
3, ,-4, ,
3, ,-4, ,
6, ,-4, ,
-2, ,-4, ,
1, ,-4, ,
3, ,-4, ,
3, ,-4, ,
0, ,-4, ,
3, ,-4, ,
0, ,-3, ,
1, ,-3, ,
1, ,-3, ,
3, ,-3, ,
4, ,-4, ,
4, ,-4, ,
-1, ,-4, ,
1, ,-4, ,
3, ,-4, ,
1, ,-4, ,
0, ,-4, ,
4, ,-3, ,
4, ,-3, ,
3, ,-3, ,
3, ,-3, ,
1, ,-3, ,
3, ,-3, ,
4, ,-3, ,
-1, ,-3, ,
3, ,-3, ,
4, ,-4, ,
3, ,-4, ,
-2, ,-4, ,
1, ,-4, ,
0, ,-3, ,
3, ,-3, ,
1, ,-3, ,
3, ,-4, ,
4, ,-4, ,
4, ,-4, ,
0, ,-4, ,
1, ,-4, ,
3, ,-3, ,
4, ,-3, ,
-2, ,-3, ,
4, ,-3, ,
4, ,-4, ,
3, ,-4, ,
3, ,-4, ,
1, ,-3, ,
1, ,-3, ,
4, ,-3, ,
-1, ,-4, ,
3, ,-4, ,
5, ,-4, ,
4, ,-4, ,
1, ,-4, ,
4, ,-4, ,
3, ,-3, ,
1, ,-3, ,
1, ,-3, ,
3, ,-3, ,
3, ,-4, ,
4, ,-4, ,
-2, ,-4, ,
0, ,-3, ,
3, ,-3, ,
1, ,-3, ,
0, ,-3, ,
4, ,-3, ,
4, ,-4, ,
3, ,-4, ,
1, ,-4, ,
1, ,-4, ,
1, ,-4, ,
4, ,-4, ,
1, ,-4, ,
1, ,-3, ,
4, ,-4, ,
4, ,-4, ,
-1, ,-4, ,
3, ,-4, ,
3, ,-4, ,
1, ,-4, ,
1, ,-4, ,
3, ,-3, ,
3, ,-4, ,
4, ,-4, ,
0, ,-4, ,
1, ,-4, ,
3, ,-4, ,
3, ,-4, ,
0, ,-4, ,
4, ,-3, ,
4, ,-4, ,
3, ,-4, ,
0, ,-4, ,
1, ,-4, ,
3, ,-3, ,
4, ,-3, ,
-1, ,-3, ,
3, ,-3, ,
5, ,-3, ,
3, ,-3, ,
-1, ,-3, ,
3, ,-3, ,
0, ,-3, ,
3, ,-3, ,
0, ,-3, ,
4, ,-3, ,
1, ,-4, ,
4, ,-4, ,
-1, ,-4, ,
0, ,-4, ,
1, ,-3, ,
1, ,-3, ,
-1, ,-3, ,
5, ,-3, ,
3, ,-3, ,
1, ,-3, ,
1, ,-3, ,
1, ,-3, ,
3, ,-4, ,
4, ,-4, ,
-1, ,-4, ,
1, ,-3, ,
4, ,-4, ,
3, ,-4, ,
-1, ,-4, ,
4, ,-3, ,
1, ,-3, ,
1, ,-3, ,
1, ,-3, ,
3, ,-3, ,
3, ,-3, ,
1, ,-3, ,
0, ,-3, ,
1, ,-3, ,
1, ,-3, ,
1, ,-3, ,
-2, ,-3, ,
5, ,-3, ,
5, ,-4, ,
5, ,-4, ,
1, ,-4, ,
3, ,-3, ,
3, ,-3, ,
4, ,-3, ,
-1, ,-3, ,
3, ,-3, ,
5, ,-3, ,
3, ,-3, ,
-2, ,-3, ,
3, ,-3, ,
1, ,-3, ,
1, ,-3, ,
0, ,-3, ,
1, ,-3, ,
3, ,-4, ,
3, ,-4, ,
0, ,-4, ,
1, ,-3, ,
4, ,-3, ,
5, ,-3, ,
-2, ,-3, ,
3, ,-3, ,
3, ,-4, ,
1, ,-4, ,
0, ,-4, ,
3, ,-4, ,
-1, ,-4, ,
6, ,-4, ,
-1, ,-4, ,
3, ,-4, ,
5, ,-4, ,
5, ,-4, ,
-1, ,-4, ,
4, ,-4, ,
1, ,-4, ,
4, ,-4, ,
3, ,-4, ,
3, ,-3, ,
1, ,-4, ,
5, ,-4, ,
0, ,-4, ,
3, ,-3, ,
4, ,-3, ,
4, ,-3, ,
-1, ,-3, ,
4, ,-3, ,
4, ,-3, ,
3, ,-3, ,
1, ,-3, ,
3, ,-3, ,
3, ,-4, ,
4, ,-4, ,
0, ,-4, ,
1, ,-4, ,
5, ,-4, ,
4, ,-4, ,
-1, ,-4, ,
3, ,-3, ,
1, ,-4, ,
1, ,-4, ,
1, ,-4, ,
1, ,-3, ,
3, ,-4, ,
5, ,-4, ,
1, ,-4, ,
3, ,-3, ,
4, ,-4, ,
3, ,-4, ,
0, ,-4, ,
3, ,-3, ,
3, ,-3, ,
3, ,-3, ,
1, ,-3, ,
1, ,-3, ,
1, ,-4, ,
3, ,-4, ,
-1, ,-4, ,
3, ,-3, ,
6, ,-4, ,
4, ,-4, ,
0, ,-4, ,
3, ,-4, ,
1, ,-3, ,
1, ,-3, ,
0, ,-3, ,
4, ,-3, ,
3, ,-3, ,
5, ,-3, ,
1, ,-3, ,
3, ,-3, ,
4, ,-4, ,
4, ,-4, ,
-1, ,-4, ,
3, ,-3, ,
3, ,-3, ,
3, ,-3, ,
1, ,-3, ,
1, ,-3, ,
0, ,-4, ,
4, ,-4, ,
-2, ,-4, ,
3, ,-3, ,
5, ,-3, ,
5, ,-4, ,
-1, ,-4, ,
3, ,-4, ,
1, ,-3, ,
3, ,-4, ,
3, ,-4, ,
4, ,-4, ,
4, ,-3, ,
4, ,-3, ,
-2, ,-3, ,
3, ,-3, ,
4, ,-3, ,
4, ,-4, ,
0, ,-4, ,
6, ,-4, ,
4, ,-4, ,
3, ,-4, ,
3, ,-4, ,
3, ,-3, ,
3, ,-3, ,
4, ,-3, ,
0, ,-3, ,
3, ,-3, ,
4, ,-4, ,
4, ,-4, ,
1, ,-4, ,
3, ,-3, ,
1, ,-3, ,
1, ,-3, ,
0, ,-3, ,
4, ,-3, ,
3, ,-3, ,
4, ,-3, ,
3, ,-3, ,
3, ,-3, ,
3, ,-4, ,
3, ,-4, ,
1, ,-4, ,
4, ,-3, ,
3, ,-4, ,
1, ,-4, ,
1, ,-4, ,
1, ,-3, ,
3, ,-4, ,
6, ,-4, ,
0, ,-4, ,
3, ,-3, ,
5, ,-4, ,
4, ,-4, ,
0, ,-4, ,
1, ,-3, ,
4, ,-4, ,
4, ,-4, ,
0, ,-4, ,
1, ,-3, ,
3, ,-4, ,
4, ,-4, ,
0, ,-4, ,
1, ,-4, ,
3, ,-3, ,
4, ,-3, ,
0, ,-4, ,
3, ,-4, ,
3, ,-4, ,
3, ,-3, ,
3, ,-3, ,
1, ,-3, ,
1, ,-4, ,
4, ,-4, ,
-1, ,-4, ,
3, ,-3, ,
4, ,-3, ,
4, ,-3, ,
1, ,-3, ,
3, ,-3, ,
3, ,-4, ,
5, ,-4, ,
-1, ,-4, ,
4, ,-3, ,
3, ,-4, ,
4, ,-4, ,
1, ,-4, ,
1, ,-4, ,
3, ,-3, ,
4, ,-3, ,
0, ,-3, ,
4, ,-3, ,
4, ,-4, ,
3, ,-4, ,
1, ,-4, ,
1, ,-3, ,
1, ,-4, ,
4, ,-4, ,
-1, ,-4, ,
1, ,-3, ,
4, ,-3, ,
1, ,-3, ,
0, ,-3, ,
3, ,-3, ,
4, ,-3, ,
4, ,-3, ,
4, ,-3, ,
3, ,-3, ,
4, ,-3, ,
4, ,-3, ,
-1, ,-3, ,
1, ,-3, ,
4, ,-4, ,
4, ,-4, ,
0, ,-4, ,
5, ,-3, ,
5, ,-4, ,
3, ,-4, ,
1, ,-4, ,
4, ,-3, ,
4, ,-4, ,
4, ,-4, ,
0, ,-4, ,
4, ,-3, ,
6, ,-4, ,
5, ,-4, ,
-1, ,-4, ,
3, ,-4, ,
3, ,-4, ,
3, ,-4, ,
0, ,-4, ,
4, ,-3, ,
4, ,-3, ,
5, ,-3, ,
0, ,-3, ,
1, ,-3, ,
3, ,-3, ,
4, ,-3, ,
-1, ,-3, ,
4, ,-3, ,
4, ,-3, ,
3, ,-4, ,
1, ,-4, ,
4, ,-4, ,
3, ,-4, ,
5, ,-4, ,
0, ,-4, ,
4, ,-4, ,
4, ,-4, ,
3, ,-4, ,
0, ,-4, ,
3, ,-4, ,
1, ,-3, ,
3, ,-3, ,
0, ,-3, ,
3, ,-3, ,
4, ,-3, ,
6, ,-3, ,
0, ,-3, ,
1, ,-3, ,
3, ,-4, ,
1, ,-4, ,
-1, ,-4, ,
6, ,-3, ,
4, ,-3, ,
3, ,-3, ,
3, ,-3, ,
3, ,-3, ,
3, ,-4, ,
5, ,-4, ,
0, ,-4, ,
4, ,-3, ,
6, ,-4, ,
3, ,-4, ,
0, ,-4, ,
1, ,-3, ,
3, ,-4, ,
3, ,-4, ,
3, ,-4, ,
4, ,-4, ,
5, ,-4, ,
6, ,-4, ,
0, ,-4, ,
1, ,-3, ,
3, ,-4, ,
1, ,-4, ,
-1, ,-4, ,
4, ,-3, ,
4, ,-4, ,
3, ,-4, ,
3, ,-4, ,
1, ,-3, ,
0, ,-4, ,
3, ,-4, ,
-1, ,-4, ,
3, ,-3, ,
5, ,-4, ,
4, ,-4, ,
-1, ,-4, ,
4, ,-4, ,
3, ,-3, ,
1, ,-3, ,
3, ,-3, ,
4, ,-3, ,
4, ,-3, ,
4, ,-3, ,
0, ,-3, ,
3, ,-3, ,
3, ,-3, ,
1, ,-3, ,
0, ,-3, ,
4, ,-3, ,
4, ,-3, ,
3, ,-3, ,
1, ,-3, ,
1, ,-3, ,
1, ,-4, ,
6, ,-4, ,
0, ,-4, ,
4, ,-4, ,
6, ,-3, ,
4, ,-3, ,
0, ,-3, ,
4, ,-3, ,
3, ,-3, ,
3, ,-3, ,
0, ,-3, ,
3, ,-3, ,
4, ,-4, ,
4, ,-4, ,
1, ,-4, ,
3, ,-4, ,
3, ,-4, ,
3, ,-4, ,
1, ,-4, ,
4, ,-3, ,
3, ,-4, ,
1, ,-4, ,
3, ,-4, ,
3, ,-3, ,
3, ,-4, ,
4, ,-4, ,
-2, ,-4, ,
3, ,-3, ,
5, ,-3, ,
3, ,-4, ,
-1, ,-4, ,
3, ,-4, ,
1, ,-4, ,
4, ,-4, ,
0, ,-4, ,
3, ,-3, ,
4, ,-4, ,
4, ,-4, ,
-1, ,-4, ,
1, ,-3, ,
3, ,-3, ,
3, ,-3, ,
-1, ,-3, ,
5, ,-3, ,
5, ,-4, ,
3, ,-4, ,
1, ,-4, ,
1, ,-3, ,
0, ,-4, ,
5, ,-4, ,
0, ,-4, ,
3, ,-4, ,
4, ,-3, ,
5, ,-3, ,
3, ,-3, ,
4, ,-3, ,
3, ,-3, ,
4, ,-4, ,
1, ,-4, ,
4, ,-4, ,
4, ,-4, ,
5, ,-4, ,
-1, ,-4, ,
1, ,-3, ,
3, ,-3, ,
3, ,-4, ,
0, ,-4, ,
3, ,-4, ,
4, ,-4, ,
4, ,-4, ,
4, ,-4, ,
3, ,-4, ,
3, ,-4, ,
4, ,-4, ,
0, ,-4, ,
3, ,-3, ,
5, ,-4, ,
4, ,-4, ,
0, ,-4, ,
3, ,-3, ,
3, ,-4, ,
3, ,-4, ,
1, ,-4, ,
3, ,-3, ,
3, ,-4, ,
3, ,-4, ,
0, ,-4, ,
1, ,-3, ,
1, ,-4, ,
1, ,-4, ,
0, ,-4, ,
4, ,-3, ,
4, ,-4, ,
4, ,-4, ,
4, ,-4, ,
3, ,-3, ,
3, ,-4, ,
3, ,-4, ,
0, ,-4, ,
3, ,-3, ,
5, ,-4, ,
3, ,-4, ,
-1, ,-4, ,
4, ,-4, ,
4, ,-4, ,
4, ,-4, ,
1, ,-4, ,
3, ,-3, ,
4, ,-4, ,
4, ,-4, ,
1, ,-4, ,
1, ,-4, ,
3, ,-3, ,
1, ,-3, ,
-2, ,-3, ,
5, ,-3, ,
4, ,-3, ,
3, ,-3, ,
1, ,-3, ,
1, ,-3, ,
1, ,-3, ,
5, ,-3, ,
0, ,-3, ,
3, ,-3, ,
5, ,-4, ,
4, ,-4, ,
1, ,-4, ,
4, ,-4, ,
3, ,-4, ,
3, ,-4, ,
3, ,-4, ,
3, ,-3, ,
4, ,-4, ,
4, ,-4, ,
0, ,-4, ,
1, ,-3, ,
3, ,-4, ,
4, ,-4, ,
0, ,-4, ,
3, ,-3, ,
4, ,-3, ,
4, ,-3, ,
3, ,-3, ,
1, ,-3, ,
3, ,-3, ,
4, ,-3, ,
-1, ,-3, ,
4, ,-3, ,
5, ,-4, ,
4, ,-4, ,
0, ,-4, ,
4, ,-4, ,
3, ,-3, ,
3, ,-3, ,
1, ,-3, ,
4, ,-3, ,
4, ,-3, ,
3, ,-3, ,
-1, ,-3, ,
0, ,-3, ,
3, ,-3, ,
4, ,-3, ,
0, ,-3, ,
6, ,-3, ,
5, ,-4, ,
1, ,-4, ,
1, ,-4, ,
1, ,-3, ,
1, ,-4, ,
5, ,-4, ,
0, ,-4, ,
3, ,-4, ,
4, ,-3, ,
3, ,-3, ,
1, ,-3, ,
1, ,-3, ,
0, ,-3, ,
4, ,-4, ,
0, ,-4, ,
4, ,-4, ,
3, ,-4, ,
5, ,-4, ,
-4, ,-4, ,
0, ,-3, ,
4, ,-3, ,
4, ,-3, ,
3, ,-3, ,
4, ,-3, ,
3, ,-3, ,
1, ,-3, ,
1, ,-3, ,
1, ,-3, ,
1, ,-3, ,
6, ,-3, ,
1, ,-3, ,
3, ,-3, ,
4, ,-4, ,
3, ,-4, ,
-1, ,-4, ,
4, ,-4, ,
3, ,-4, ,
1, ,-4, ,
1, ,-4, ,
3, ,-4, ,
3, ,-4, ,
5, ,-4, ,
0, ,-4, ,
0, ,-3, ,
1, ,-3, ,
3, ,-3, ,
0, ,-3, ,
4, ,-3, ,
3, ,-3, ,
1, ,-3, ,
