src/timing_folder/2chSin0000027.CSV

Format,1.0B,
Memory Length,10000,Memory Length,10000,
IntpDistance,0,IntpDistance,0,
Trigger Address,4999,Trigger Address,4999,
Trigger Level,1.192E-01,Trigger Level,1.192E-01,
Source,CH1,Source,CH2,
Vertical Units,V,Vertical Units,V,
Vertical Units Div,0,Vertical Units Div,0,
Vertical Units Extend Div,16,Vertical Units Extend Div,16,
Label,,Label,,
Probe Type,0,Probe Type,0,
Probe Ratio,1.000e+01,Probe Ratio,1.000e+00,
Vertical Scale,2.000e-02,Vertical Scale,1.000e+00,
Vertical Position,-5.120e-02,Vertical Position,2.000e-01,
Horizontal Units,S,Horizontal Units,S,
Horizontal Scale,5.000E-07,Horizontal Scale,5.000E-07,
Horizontal Position,0.000E+00,Horizontal Position,0.000E+00,
Horizontal Mode,Main,Horizontal Mode,Main,
SincET Mode,Real Time,SincET Mode,Real Time,
Sampling Period,2.000e-09,Sampling Period,2.000e-09,
Horizontal Old Scale,5.000E-07,Horizontal Old Scale,5.000E-07,
Horizontal Old Position,0.000E+00,Horizontal Old Position,0.000E+00,
Firmware,V1.23,Firmware,V1.23,
Mode,Fast,Mode,Fast,
Waveform Data,,Waveform Data,,
3, ,-28, ,
1, ,-28, ,
1, ,-28, ,
1, ,-28, ,
4, ,-28, ,
0, ,-28, ,
1, ,-28, ,
3, ,-28, ,
3, ,-28, ,
0, ,-28, ,
4, ,-28, ,
5, ,-28, ,
4, ,-28, ,
0, ,-28, ,
1, ,-28, ,
3, ,-28, ,
4, ,-28, ,
-2, ,-28, ,
1, ,-28, ,
5, ,-28, ,
4, ,-28, ,
-1, ,-28, ,
1, ,-28, ,
0, ,-28, ,
3, ,-28, ,
-1, ,-28, ,
0, ,-28, ,
3, ,-28, ,
4, ,-28, ,
-2, ,-28, ,
0, ,-28, ,
3, ,-28, ,
4, ,-28, ,
-1, ,-28, ,
3, ,-28, ,
4, ,-28, ,
4, ,-28, ,
0, ,-28, ,
1, ,-28, ,
1, ,-28, ,
5, ,-28, ,
0, ,-28, ,
4, ,-28, ,
4, ,-28, ,
1, ,-28, ,
-1, ,-28, ,
1, ,-28, ,
3, ,-28, ,
1, ,-28, ,
1, ,-28, ,
3, ,-28, ,
1, ,-28, ,
4, ,-28, ,
-2, ,-28, ,
0, ,-28, ,
3, ,-28, ,
3, ,-28, ,
0, ,-28, ,
4, ,-28, ,
4, ,-28, ,
1, ,-28, ,
0, ,-28, ,
0, ,-28, ,
0, ,-28, ,
6, ,-28, ,
-1, ,-28, ,
3, ,-28, ,
4, ,-28, ,
3, ,-28, ,
-1, ,-28, ,
1, ,-28, ,
0, ,-28, ,
3, ,-28, ,
-1, ,-28, ,
1, ,-28, ,
3, ,-28, ,
3, ,-28, ,
-1, ,-28, ,
1, ,-28, ,
4, ,-28, ,
4, ,-28, ,
-2, ,-28, ,
4, ,-28, ,
3, ,-28, ,
3, ,-28, ,
0, ,-28, ,
3, ,-28, ,
0, ,-28, ,
4, ,-28, ,
-1, ,-28, ,
1, ,-28, ,
3, ,-28, ,
3, ,-28, ,
-1, ,-28, ,
3, ,-28, ,
3, ,-28, ,
4, ,-28, ,
-1, ,-28, ,
3, ,-28, ,
1, ,-28, ,
4, ,-28, ,
0, ,-28, ,
1, ,-28, ,
3, ,-28, ,
3, ,-28, ,
0, ,-28, ,
4, ,-28, ,
3, ,-28, ,
1, ,-28, ,
1, ,-28, ,
1, ,-28, ,
0, ,-28, ,
4, ,-28, ,
-1, ,-28, ,
4, ,-28, ,
5, ,-28, ,
4, ,-28, ,
-1, ,-28, ,
3, ,-28, ,
1, ,-28, ,
4, ,-28, ,
1, ,-28, ,
3, ,-28, ,
3, ,-28, ,
3, ,-28, ,
-1, ,-28, ,
0, ,-28, ,
3, ,-28, ,
4, ,-28, ,
-1, ,-28, ,
4, ,-28, ,
4, ,-28, ,
3, ,-28, ,
1, ,-28, ,
1, ,-28, ,
1, ,-28, ,
5, ,-28, ,
-2, ,-28, ,
1, ,-28, ,
4, ,-28, ,
3, ,-28, ,
0, ,-28, ,
3, ,-28, ,
3, ,-28, ,
4, ,-28, ,
0, ,-28, ,
1, ,-28, ,
1, ,-28, ,
5, ,-28, ,
-1, ,-28, ,
0, ,-28, ,
3, ,-28, ,
3, ,-28, ,
-1, ,-28, ,
4, ,-28, ,
1, ,-28, ,
0, ,-28, ,
0, ,-28, ,
0, ,-28, ,
0, ,-28, ,
5, ,-28, ,
-1, ,-28, ,
1, ,-28, ,
4, ,-28, ,
4, ,-28, ,
-2, ,-28, ,
1, ,-28, ,
1, ,-28, ,
1, ,-28, ,
0, ,-28, ,
1, ,-28, ,
4, ,-28, ,
4, ,-28, ,
0, ,-28, ,
0, ,-28, ,
3, ,-28, ,
1, ,-28, ,
-1, ,-28, ,
4, ,-28, ,
3, ,-28, ,
3, ,-28, ,
1, ,-28, ,
0, ,-28, ,
1, ,-28, ,
5, ,-28, ,
-2, ,-28, ,
3, ,-28, ,
4, ,-28, ,
3, ,-28, ,
0, ,-28, ,
3, ,-28, ,
3, ,-28, ,
4, ,-28, ,
1, ,-28, ,
1, ,-28, ,
1, ,-28, ,
5, ,-28, ,
-1, ,-28, ,
1, ,-28, ,
3, ,-28, ,
3, ,-28, ,
-1, ,-28, ,
3, ,-28, ,
1, ,-28, ,
1, ,-28, ,
-2, ,-28, ,
0, ,-28, ,
3, ,-28, ,
4, ,-28, ,
0, ,-28, ,
3, ,-28, ,
4, ,-28, ,
3, ,-28, ,
-1, ,-28, ,
1, ,-28, ,
0, ,-28, ,
3, ,-28, ,
0, ,-28, ,
3, ,-28, ,
0, ,-28, ,
4, ,-28, ,
0, ,-28, ,
1, ,-28, ,
4, ,-28, ,
5, ,-28, ,
-1, ,-28, ,
3, ,-28, ,
4, ,-28, ,
3, ,-28, ,
0, ,-28, ,
1, ,-28, ,
3, ,-28, ,
5, ,-28, ,
-1, ,-28, ,
1, ,-28, ,
3, ,-28, ,
3, ,-28, ,
0, ,-28, ,
1, ,-28, ,
3, ,-28, ,
4, ,-28, ,
1, ,-28, ,
3, ,-28, ,
4, ,-28, ,
4, ,-28, ,
-1, ,-28, ,
1, ,-28, ,
3, ,-28, ,
3, ,-28, ,
-1, ,-28, ,
4, ,-28, ,
3, ,-28, ,
3, ,-28, ,
0, ,-28, ,
1, ,-28, ,
0, ,-28, ,
4, ,-28, ,
-1, ,-28, ,
4, ,-28, ,
4, ,-28, ,
3, ,-28, ,
-4, ,-28, ,
4, ,-28, ,
4, ,-28, ,
3, ,-28, ,
-1, ,-28, ,
1, ,-28, ,
1, ,-28, ,
4, ,-28, ,
-1, ,-28, ,
0, ,-28, ,
1, ,-28, ,
1, ,-28, ,
-1, ,-28, ,
4, ,-28, ,
3, ,-28, ,
1, ,-28, ,
0, ,-28, ,
1, ,-28, ,
3, ,-28, ,
4, ,-28, ,
0, ,-28, ,
3, ,-28, ,
3, ,-28, ,
1, ,-28, ,
-2, ,-28, ,
1, ,-28, ,
3, ,-28, ,
1, ,-28, ,
0, ,-28, ,
3, ,-28, ,
3, ,-28, ,
4, ,-28, ,
0, ,-28, ,
1, ,-28, ,
3, ,-28, ,
3, ,-28, ,
-1, ,-28, ,
4, ,-28, ,
3, ,-28, ,
1, ,-28, ,
0, ,-28, ,
0, ,-28, ,
-1, ,-28, ,
5, ,-28, ,
-1, ,-28, ,
1, ,-28, ,
4, ,-28, ,
1, ,-28, ,
-1, ,-28, ,
3, ,-28, ,
3, ,-28, ,
3, ,-28, ,
1, ,-28, ,
4, ,-28, ,
3, ,-28, ,
4, ,-28, ,
-2, ,-28, ,
0, ,-28, ,
3, ,-28, ,
3, ,-28, ,
-2, ,-28, ,
4, ,-28, ,
3, ,-28, ,
3, ,-28, ,
0, ,-28, ,
1, ,-28, ,
1, ,-28, ,
5, ,-28, ,
-1, ,-28, ,
3, ,-28, ,
4, ,-28, ,
3, ,-28, ,
-1, ,-28, ,
3, ,-28, ,
1, ,-28, ,
3, ,-28, ,
3, ,-28, ,
3, ,-28, ,
1, ,-28, ,
6, ,-28, ,
-2, ,-28, ,
1, ,-28, ,
1, ,-28, ,
3, ,-28, ,
-1, ,-28, ,
4, ,-28, ,
3, ,-28, ,
3, ,-28, ,
0, ,-28, ,
1, ,-28, ,
-1, ,-29, ,
5, ,-29, ,
-1, ,-28, ,
1, ,-28, ,
6, ,-28, ,
3, ,-28, ,
-1, ,-28, ,
1, ,-28, ,
1, ,-28, ,
1, ,-28, ,
1, ,-28, ,
3, ,-28, ,
4, ,-28, ,
4, ,-28, ,
-1, ,-28, ,
0, ,-28, ,
1, ,-28, ,
1, ,-28, ,
-2, ,-28, ,
5, ,-28, ,
4, ,-28, ,
3, ,-28, ,
3, ,-28, ,
1, ,-28, ,
1, ,-28, ,
8, ,-28, ,
-1, ,-28, ,
4, ,-28, ,
5, ,-28, ,
3, ,-28, ,
-1, ,-28, ,
4, ,-28, ,
3, ,-28, ,
1, ,-28, ,
1, ,-28, ,
1, ,-28, ,
1, ,-28, ,
3, ,-28, ,
0, ,-28, ,
0, ,-28, ,
3, ,-28, ,
1, ,-28, ,
-1, ,-28, ,
5, ,-28, ,
3, ,-28, ,
1, ,-28, ,
-1, ,-28, ,
-1, ,-28, ,
0, ,-28, ,
1, ,-28, ,
0, ,-28, ,
3, ,-28, ,
4, ,-28, ,
4, ,-28, ,
0, ,-28, ,
3, ,-28, ,
1, ,-28, ,
1, ,-28, ,
1, ,-28, ,
3, ,-28, ,
1, ,-28, ,
5, ,-28, ,
0, ,-28, ,
1, ,-28, ,
3, ,-28, ,
4, ,-28, ,
0, ,-28, ,
5, ,-28, ,
4, ,-28, ,
3, ,-28, ,
0, ,-28, ,
0, ,-28, ,
0, ,-28, ,
5, ,-28, ,
1, ,-28, ,
3, ,-28, ,
4, ,-28, ,
1, ,-28, ,
-2, ,-28, ,
1, ,-28, ,
3, ,-28, ,
3, ,-28, ,
3, ,-28, ,
3, ,-28, ,
3, ,-28, ,
5, ,-28, ,
-1, ,-28, ,
0, ,-28, ,
1, ,-28, ,
3, ,-28, ,
0, ,-28, ,
4, ,-28, ,
4, ,-28, ,
3, ,-28, ,
3, ,-28, ,
1, ,-28, ,
1, ,-28, ,
5, ,-28, ,
-1, ,-28, ,
3, ,-28, ,
5, ,-28, ,
4, ,-28, ,
-1, ,-28, ,
3, ,-28, ,
3, ,-28, ,
1, ,-28, ,
0, ,-28, ,
3, ,-28, ,
4, ,-28, ,
5, ,-28, ,
0, ,-28, ,
0, ,-28, ,
3, ,-28, ,
1, ,-28, ,
-2, ,-28, ,
4, ,-28, ,
3, ,-28, ,
3, ,-28, ,
0, ,-28, ,
1, ,-28, ,
1, ,-28, ,
5, ,-28, ,
-1, ,-28, ,
3, ,-28, ,
4, ,-28, ,
4, ,-28, ,
0, ,-28, ,
3, ,-28, ,
0, ,-28, ,
3, ,-28, ,
0, ,-28, ,
3, ,-28, ,
3, ,-28, ,
4, ,-28, ,
-1, ,-28, ,
1, ,-28, ,
3, ,-28, ,
1, ,-28, ,
-1, ,-28, ,
3, ,-28, ,
3, ,-28, ,
1, ,-28, ,
1, ,-28, ,
0, ,-28, ,
0, ,-28, ,
4, ,-28, ,
0, ,-28, ,
3, ,-28, ,
5, ,-28, ,
3, ,-28, ,
-2, ,-28, ,
0, ,-28, ,
3, ,-28, ,
3, ,-28, ,
1, ,-28, ,
3, ,-28, ,
3, ,-28, ,
3, ,-28, ,
-4, ,-28, ,
0, ,-28, ,
3, ,-28, ,
1, ,-28, ,
-1, ,-28, ,
3, ,-28, ,
4, ,-28, ,
3, ,-28, ,
0, ,-28, ,
0, ,-28, ,
0, ,-28, ,
4, ,-28, ,
0, ,-28, ,
4, ,-28, ,
4, ,-28, ,
1, ,-28, ,
-2, ,-28, ,
4, ,-28, ,
1, ,-28, ,
1, ,-28, ,
1, ,-28, ,
1, ,-28, ,
1, ,-28, ,
4, ,-28, ,
-2, ,-28, ,
0, ,-28, ,
3, ,-28, ,
3, ,-28, ,
0, ,-28, ,
4, ,-28, ,
3, ,-28, ,
0, ,-28, ,
-1, ,-28, ,
-1, ,-28, ,
0, ,-28, ,
5, ,-28, ,
0, ,-28, ,
3, ,-28, ,
4, ,-28, ,
1, ,-28, ,
-1, ,-28, ,
3, ,-28, ,
0, ,-28, ,
1, ,-28, ,
1, ,-28, ,
3, ,-28, ,
4, ,-28, ,
4, ,-28, ,
-4, ,-28, ,
-1, ,-28, ,
3, ,-28, ,
4, ,-28, ,
-1, ,-28, ,
4, ,-28, ,
3, ,-28, ,
3, ,-28, ,
1, ,-28, ,
3, ,-28, ,
3, ,-28, ,
5, ,-28, ,
-1, ,-28, ,
3, ,-28, ,
4, ,-28, ,
4, ,-28, ,
-1, ,-28, ,
3, ,-28, ,
3, ,-28, ,
5, ,-28, ,
0, ,-28, ,
4, ,-28, ,
1, ,-28, ,
3, ,-28, ,
-1, ,-28, ,
0, ,-28, ,
3, ,-28, ,
3, ,-28, ,
-2, ,-28, ,
5, ,-28, ,
4, ,-28, ,
1, ,-28, ,
0, ,-28, ,
0, ,-28, ,
1, ,-28, ,
3, ,-28, ,
-1, ,-28, ,
3, ,-28, ,
4, ,-28, ,
1, ,-28, ,
0, ,-28, ,
3, ,-28, ,
1, ,-28, ,
3, ,-28, ,
1, ,-28, ,
3, ,-28, ,
4, ,-28, ,
3, ,-28, ,
0, ,-28, ,
1, ,-28, ,
3, ,-28, ,
3, ,-28, ,
0, ,-28, ,
3, ,-28, ,
1, ,-28, ,
1, ,-28, ,
1, ,-28, ,
1, ,-28, ,
1, ,-28, ,
5, ,-28, ,
-2, ,-28, ,
3, ,-28, ,
4, ,-28, ,
3, ,-28, ,
-1, ,-28, ,
1, ,-28, ,
0, ,-28, ,
3, ,-28, ,
1, ,-28, ,
3, ,-28, ,
4, ,-28, ,
4, ,-28, ,
0, ,-28, ,
1, ,-28, ,
3, ,-28, ,
3, ,-28, ,
-2, ,-28, ,
3, ,-28, ,
4, ,-28, ,
3, ,-28, ,
0, ,-28, ,
1, ,-28, ,
0, ,-28, ,
5, ,-28, ,
-1, ,-28, ,
1, ,-28, ,
5, ,-28, ,
3, ,-28, ,
-2, ,-28, ,
3, ,-28, ,
3, ,-28, ,
3, ,-28, ,
-1, ,-28, ,
3, ,-28, ,
4, ,-28, ,
5, ,-28, ,
0, ,-28, ,
3, ,-28, ,
4, ,-28, ,
5, ,-28, ,
-1, ,-28, ,
4, ,-28, ,
4, ,-28, ,
3, ,-28, ,
3, ,-28, ,
3, ,-28, ,
3, ,-28, ,
4, ,-28, ,
-1, ,-28, ,
3, ,-28, ,
4, ,-28, ,
4, ,-28, ,
-1, ,-28, ,
3, ,-28, ,
1, ,-28, ,
1, ,-28, ,
0, ,-28, ,
3, ,-28, ,
3, ,-28, ,
3, ,-28, ,
-1, ,-28, ,
1, ,-28, ,
4, ,-28, ,
3, ,-28, ,
-1, ,-28, ,
6, ,-28, ,
4, ,-28, ,
3, ,-28, ,
-1, ,-28, ,
3, ,-28, ,
0, ,-28, ,
4, ,-28, ,
-1, ,-28, ,
3, ,-28, ,
4, ,-28, ,
4, ,-28, ,
-1, ,-28, ,
1, ,-28, ,
0, ,-28, ,
3, ,-28, ,
1, ,-28, ,
3, ,-28, ,
4, ,-28, ,
4, ,-28, ,
0, ,-28, ,
3, ,-28, ,
4, ,-28, ,
3, ,-28, ,
0, ,-29, ,
4, ,-29, ,
4, ,-28, ,
3, ,-28, ,
0, ,-28, ,
1, ,-28, ,
1, ,-28, ,
5, ,-28, ,
-1, ,-28, ,
3, ,-28, ,
5, ,-28, ,
5, ,-28, ,
1, ,-28, ,
1, ,-28, ,
1, ,-28, ,
3, ,-28, ,
0, ,-28, ,
3, ,-28, ,
3, ,-28, ,
6, ,-28, ,
-1, ,-28, ,
1, ,-28, ,
3, ,-28, ,
3, ,-28, ,
0, ,-28, ,
5, ,-28, ,
4, ,-28, ,
3, ,-28, ,
1, ,-28, ,
1, ,-28, ,
1, ,-28, ,
5, ,-28, ,
0, ,-28, ,
3, ,-28, ,
4, ,-28, ,
4, ,-28, ,
-1, ,-28, ,
4, ,-28, ,
4, ,-28, ,
3, ,-28, ,
1, ,-28, ,
1, ,-28, ,
3, ,-28, ,
4, ,-28, ,
-1, ,-28, ,
1, ,-28, ,
3, ,-28, ,
4, ,-28, ,
-1, ,-28, ,
5, ,-28, ,
4, ,-28, ,
4, ,-28, ,
0, ,-28, ,
1, ,-28, ,
3, ,-28, ,
6, ,-28, ,
-1, ,-28, ,
4, ,-28, ,
5, ,-28, ,
4, ,-28, ,
-4, ,-28, ,
3, ,-28, ,
0, ,-28, ,
3, ,-28, ,
-1, ,-28, ,
4, ,-28, ,
4, ,-28, ,
4, ,-28, ,
0, ,-28, ,
1, ,-28, ,
4, ,-28, ,
4, ,-28, ,
0, ,-28, ,
4, ,-28, ,
4, ,-28, ,
3, ,-28, ,
1, ,-28, ,
1, ,-28, ,
0, ,-28, ,
4, ,-28, ,
0, ,-28, ,
3, ,-28, ,
5, ,-28, ,
5, ,-28, ,
-2, ,-28, ,
0, ,-28, ,
1, ,-28, ,
1, ,-28, ,
1, ,-28, ,
4, ,-28, ,
1, ,-28, ,
6, ,-28, ,
0, ,-28, ,
1, ,-28, ,
3, ,-28, ,
1, ,-28, ,
0, ,-28, ,
4, ,-28, ,
5, ,-28, ,
4, ,-28, ,
1, ,-28, ,
1, ,-28, ,
1, ,-28, ,
4, ,-28, ,
-2, ,-28, ,
3, ,-28, ,
5, ,-28, ,
4, ,-28, ,
-1, ,-28, ,
4, ,-28, ,
4, ,-28, ,
3, ,-28, ,
0, ,-28, ,
4, ,-28, ,
4, ,-28, ,
5, ,-28, ,
0, ,-28, ,
3, ,-28, ,
1, ,-28, ,
4, ,-28, ,
-1, ,-28, ,
4, ,-28, ,
5, ,-28, ,
3, ,-28, ,
0, ,-28, ,
3, ,-28, ,
1, ,-28, ,
6, ,-28, ,
0, ,-28, ,
3, ,-28, ,
4, ,-28, ,
4, ,-28, ,
0, ,-28, ,
3, ,-28, ,
3, ,-28, ,
3, ,-28, ,
0, ,-28, ,
4, ,-28, ,
4, ,-28, ,
5, ,-28, ,
-1, ,-28, ,
1, ,-28, ,
4, ,-28, ,
3, ,-28, ,
0, ,-28, ,
4, ,-28, ,
4, ,-28, ,
3, ,-28, ,
-1, ,-28, ,
3, ,-28, ,
3, ,-28, ,
4, ,-28, ,
-2, ,-28, ,
3, ,-28, ,
5, ,-28, ,
3, ,-28, ,
0, ,-28, ,
3, ,-28, ,
3, ,-28, ,
3, ,-28, ,
1, ,-28, ,
4, ,-28, ,
5, ,-28, ,
4, ,-28, ,
-1, ,-28, ,
1, ,-28, ,
3, ,-28, ,
5, ,-28, ,
-1, ,-28, ,
4, ,-28, ,
1, ,-28, ,
4, ,-28, ,
1, ,-28, ,
3, ,-28, ,
1, ,-28, ,
5, ,-28, ,
1, ,-28, ,
4, ,-28, ,
4, ,-28, ,
4, ,-28, ,
-1, ,-28, ,
3, ,-28, ,
0, ,-28, ,
3, ,-28, ,
1, ,-28, ,
4, ,-28, ,
4, ,-28, ,
4, ,-28, ,
0, ,-28, ,
1, ,-28, ,
4, ,-28, ,
4, ,-28, ,
-1, ,-28, ,
4, ,-28, ,
4, ,-28, ,
3, ,-28, ,
1, ,-28, ,
1, ,-28, ,
3, ,-28, ,
4, ,-28, ,
0, ,-28, ,
4, ,-28, ,
6, ,-28, ,
3, ,-28, ,
-1, ,-28, ,
3, ,-28, ,
4, ,-28, ,
3, ,-28, ,
1, ,-28, ,
3, ,-28, ,
4, ,-28, ,
4, ,-28, ,
-1, ,-28, ,
0, ,-28, ,
3, ,-28, ,
3, ,-28, ,
0, ,-28, ,
5, ,-28, ,
5, ,-28, ,
3, ,-28, ,
0, ,-28, ,
4, ,-28, ,
3, ,-28, ,
4, ,-28, ,
1, ,-28, ,
3, ,-28, ,
4, ,-28, ,
4, ,-28, ,
-1, ,-28, ,
3, ,-28, ,
4, ,-28, ,
3, ,-28, ,
1, ,-28, ,
5, ,-28, ,
4, ,-28, ,
3, ,-28, ,
1, ,-28, ,
3, ,-28, ,
4, ,-28, ,
4, ,-28, ,
-2, ,-28, ,
5, ,-28, ,
5, ,-28, ,
4, ,-28, ,
3, ,-28, ,
3, ,-28, ,
3, ,-28, ,
5, ,-28, ,
-1, ,-28, ,
4, ,-28, ,
5, ,-28, ,
3, ,-28, ,
-1, ,-28, ,
3, ,-28, ,
1, ,-28, ,
4, ,-28, ,
1, ,-28, ,
4, ,-28, ,
5, ,-28, ,
4, ,-28, ,
1, ,-28, ,
3, ,-28, ,
4, ,-28, ,
4, ,-28, ,
-1, ,-28, ,
6, ,-28, ,
6, ,-28, ,
4, ,-28, ,
3, ,-28, ,
1, ,-28, ,
3, ,-28, ,
5, ,-28, ,
-1, ,-28, ,
3, ,-28, ,
5, ,-28, ,
5, ,-28, ,
-1, ,-28, ,
3, ,-28, ,
3, ,-28, ,
3, ,-28, ,
4, ,-28, ,
4, ,-28, ,
5, ,-28, ,
4, ,-28, ,
0, ,-28, ,
1, ,-28, ,
3, ,-28, ,
3, ,-28, ,
-2, ,-28, ,
5, ,-28, ,
5, ,-28, ,
4, ,-28, ,
1, ,-28, ,
1, ,-28, ,
3, ,-28, ,
5, ,-28, ,
0, ,-28, ,
3, ,-28, ,
4, ,-28, ,
3, ,-28, ,
-1, ,-28, ,
4, ,-29, ,
3, ,-28, ,
3, ,-28, ,
1, ,-28, ,
3, ,-28, ,
3, ,-28, ,
4, ,-28, ,
0, ,-28, ,
1, ,-28, ,
4, ,-28, ,
4, ,-28, ,
1, ,-28, ,
4, ,-28, ,
4, ,-28, ,
4, ,-28, ,
3, ,-28, ,
1, ,-28, ,
1, ,-28, ,
6, ,-28, ,
-1, ,-28, ,
4, ,-28, ,
8, ,-28, ,
5, ,-28, ,
-1, ,-28, ,
4, ,-28, ,
3, ,-28, ,
5, ,-28, ,
1, ,-28, ,
3, ,-28, ,
4, ,-28, ,
4, ,-28, ,
0, ,-28, ,
1, ,-28, ,
3, ,-28, ,
3, ,-28, ,
-1, ,-28, ,
4, ,-28, ,
4, ,-28, ,
1, ,-28, ,
0, ,-28, ,
1, ,-28, ,
3, ,-28, ,
5, ,-28, ,
-2, ,-28, ,
3, ,-28, ,
5, ,-28, ,
4, ,-28, ,
-1, ,-28, ,
4, ,-28, ,
3, ,-28, ,
3, ,-28, ,
3, ,-28, ,
3, ,-28, ,
3, ,-28, ,
3, ,-28, ,
1, ,-28, ,
3, ,-28, ,
4, ,-28, ,
4, ,-28, ,
1, ,-28, ,
4, ,-28, ,
5, ,-28, ,
4, ,-28, ,
1, ,-28, ,
3, ,-28, ,
4, ,-28, ,
5, ,-28, ,
-1, ,-28, ,
3, ,-28, ,
5, ,-28, ,
5, ,-28, ,
-1, ,-28, ,
3, ,-28, ,
3, ,-28, ,
3, ,-28, ,
1, ,-28, ,
3, ,-28, ,
4, ,-28, ,
4, ,-28, ,
0, ,-28, ,
1, ,-28, ,
5, ,-28, ,
4, ,-28, ,
0, ,-28, ,
4, ,-28, ,
5, ,-28, ,
4, ,-28, ,
3, ,-28, ,
1, ,-28, ,
1, ,-28, ,
4, ,-28, ,
-2, ,-28, ,
4, ,-28, ,
6, ,-28, ,
3, ,-28, ,
-1, ,-28, ,
3, ,-28, ,
1, ,-28, ,
4, ,-28, ,
3, ,-28, ,
4, ,-28, ,
4, ,-28, ,
3, ,-28, ,
-1, ,-28, ,
3, ,-28, ,
4, ,-28, ,
4, ,-28, ,
1, ,-28, ,
6, ,-28, ,
5, ,-28, ,
3, ,-28, ,
0, ,-28, ,
1, ,-28, ,
3, ,-28, ,
5, ,-28, ,
0, ,-28, ,
3, ,-28, ,
5, ,-28, ,
3, ,-28, ,
-1, ,-28, ,
4, ,-28, ,
4, ,-28, ,
3, ,-28, ,
3, ,-28, ,
3, ,-28, ,
4, ,-28, ,
6, ,-28, ,
0, ,-28, ,
1, ,-28, ,
4, ,-28, ,
5, ,-28, ,
-1, ,-28, ,
4, ,-28, ,
5, ,-28, ,
4, ,-28, ,
3, ,-28, ,
3, ,-28, ,
3, ,-28, ,
6, ,-28, ,
-1, ,-28, ,
3, ,-28, ,
5, ,-28, ,
4, ,-28, ,
-1, ,-28, ,
3, ,-28, ,
1, ,-28, ,
4, ,-28, ,
1, ,-28, ,
4, ,-28, ,
4, ,-28, ,
5, ,-28, ,
-1, ,-28, ,
1, ,-28, ,
4, ,-28, ,
4, ,-28, ,
0, ,-28, ,
5, ,-28, ,
5, ,-28, ,
3, ,-28, ,
0, ,-28, ,
1, ,-28, ,
1, ,-28, ,
3, ,-28, ,
0, ,-28, ,
3, ,-28, ,
5, ,-28, ,
4, ,-28, ,
-1, ,-28, ,
1, ,-28, ,
3, ,-28, ,
3, ,-28, ,
0, ,-28, ,
3, ,-28, ,
4, ,-28, ,
5, ,-28, ,
-1, ,-28, ,
1, ,-28, ,
4, ,-28, ,
5, ,-28, ,
0, ,-28, ,
3, ,-28, ,
3, ,-28, ,
4, ,-28, ,
1, ,-28, ,
1, ,-28, ,
0, ,-28, ,
6, ,-28, ,
-1, ,-28, ,
3, ,-28, ,
5, ,-28, ,
5, ,-28, ,
-1, ,-28, ,
4, ,-28, ,
3, ,-28, ,
3, ,-28, ,
4, ,-28, ,
5, ,-28, ,
4, ,-28, ,
4, ,-28, ,
0, ,-28, ,
3, ,-28, ,
4, ,-28, ,
5, ,-28, ,
0, ,-28, ,
5, ,-28, ,
4, ,-28, ,
4, ,-28, ,
1, ,-28, ,
3, ,-28, ,
4, ,-28, ,
5, ,-28, ,
-2, ,-28, ,
3, ,-28, ,
5, ,-28, ,
4, ,-28, ,
0, ,-28, ,
3, ,-28, ,
3, ,-28, ,
3, ,-28, ,
0, ,-28, ,
4, ,-28, ,
5, ,-28, ,
4, ,-28, ,
-2, ,-28, ,
3, ,-28, ,
4, ,-28, ,
4, ,-28, ,
0, ,-28, ,
5, ,-28, ,
5, ,-28, ,
4, ,-28, ,
3, ,-28, ,
1, ,-28, ,
1, ,-28, ,
5, ,-28, ,
-1, ,-28, ,
3, ,-28, ,
4, ,-28, ,
4, ,-28, ,
-1, ,-28, ,
1, ,-28, ,
4, ,-28, ,
4, ,-28, ,
1, ,-28, ,
4, ,-28, ,
4, ,-28, ,
5, ,-28, ,
-1, ,-28, ,
1, ,-28, ,
3, ,-28, ,
4, ,-28, ,
1, ,-28, ,
5, ,-28, ,
5, ,-28, ,
4, ,-28, ,
3, ,-28, ,
1, ,-28, ,
0, ,-28, ,
4, ,-28, ,
-1, ,-28, ,
3, ,-28, ,
6, ,-28, ,
3, ,-28, ,
-1, ,-28, ,
3, ,-28, ,
3, ,-28, ,
4, ,-28, ,
3, ,-28, ,
3, ,-28, ,
5, ,-28, ,
4, ,-28, ,
0, ,-28, ,
3, ,-28, ,
5, ,-28, ,
3, ,-28, ,
0, ,-28, ,
4, ,-28, ,
4, ,-28, ,
3, ,-28, ,
0, ,-28, ,
0, ,-28, ,
0, ,-28, ,
4, ,-28, ,
-1, ,-28, ,
3, ,-28, ,
4, ,-28, ,
3, ,-28, ,
-2, ,-28, ,
3, ,-28, ,
4, ,-28, ,
3, ,-28, ,
3, ,-28, ,
3, ,-28, ,
4, ,-28, ,
5, ,-28, ,
0, ,-28, ,
1, ,-28, ,
5, ,-28, ,
3, ,-28, ,
-1, ,-28, ,
3, ,-28, ,
3, ,-28, ,
3, ,-28, ,
1, ,-28, ,
1, ,-28, ,
3, ,-28, ,
5, ,-28, ,
-2, ,-28, ,
1, ,-28, ,
4, ,-28, ,
4, ,-28, ,
1, ,-28, ,
4, ,-28, ,
4, ,-28, ,
3, ,-28, ,
1, ,-28, ,
4, ,-28, ,
4, ,-28, ,
5, ,-28, ,
1, ,-28, ,
1, ,-28, ,
3, ,-28, ,
3, ,-28, ,
-1, ,-28, ,
5, ,-28, ,
3, ,-28, ,
3, ,-28, ,
3, ,-28, ,
3, ,-28, ,
1, ,-28, ,
4, ,-28, ,
1, ,-28, ,
4, ,-28, ,
5, ,-28, ,
4, ,-28, ,
-1, ,-28, ,
4, ,-28, ,
4, ,-28, ,
3, ,-28, ,
3, ,-28, ,
4, ,-28, ,
6, ,-28, ,
6, ,-28, ,
0, ,-28, ,
1, ,-28, ,
3, ,-28, ,
3, ,-28, ,
0, ,-28, ,
4, ,-28, ,
4, ,-28, ,
3, ,-28, ,
3, ,-28, ,
1, ,-28, ,
0, ,-28, ,
5, ,-28, ,
-1, ,-28, ,
3, ,-28, ,
5, ,-28, ,
3, ,-28, ,
-1, ,-28, ,
3, ,-28, ,
0, ,-28, ,
1, ,-28, ,
1, ,-28, ,
3, ,-28, ,
4, ,-28, ,
4, ,-28, ,
-2, ,-28, ,
1, ,-28, ,
5, ,-28, ,
5, ,-28, ,
-2, ,-28, ,
4, ,-28, ,
4, ,-28, ,
4, ,-28, ,
1, ,-28, ,
3, ,-28, ,
4, ,-28, ,
4, ,-28, ,
0, ,-28, ,
3, ,-28, ,
5, ,-28, ,
4, ,-28, ,
0, ,-28, ,
1, ,-28, ,
3, ,-28, ,
3, ,-28, ,
1, ,-28, ,
4, ,-28, ,
4, ,-28, ,
6, ,-28, ,
-1, ,-28, ,
1, ,-28, ,
4, ,-28, ,
5, ,-28, ,
0, ,-28, ,
5, ,-28, ,
5, ,-28, ,
4, ,-28, ,
3, ,-28, ,
1, ,-28, ,
1, ,-28, ,
5, ,-28, ,
0, ,-28, ,
3, ,-28, ,
4, ,-28, ,
1, ,-28, ,
-2, ,-28, ,
5, ,-28, ,
1, ,-28, ,
3, ,-28, ,
1, ,-28, ,
4, ,-28, ,
4, ,-28, ,
6, ,-28, ,
-1, ,-28, ,
3, ,-28, ,
4, ,-28, ,
3, ,-28, ,
0, ,-28, ,
6, ,-28, ,
4, ,-28, ,
3, ,-28, ,
1, ,-28, ,
0, ,-28, ,
-1, ,-28, ,
4, ,-28, ,
-1, ,-28, ,
3, ,-28, ,
6, ,-28, ,
5, ,-28, ,
1, ,-28, ,
4, ,-28, ,
4, ,-28, ,
3, ,-28, ,
3, ,-28, ,
4, ,-28, ,
4, ,-28, ,
3, ,-28, ,
-2, ,-28, ,
1, ,-28, ,
4, ,-28, ,
4, ,-28, ,
-1, ,-28, ,
5, ,-28, ,
4, ,-28, ,
3, ,-28, ,
1, ,-28, ,
1, ,-28, ,
3, ,-28, ,
4, ,-28, ,
0, ,-28, ,
3, ,-28, ,
5, ,-28, ,
4, ,-28, ,
-2, ,-28, ,
3, ,-28, ,
3, ,-28, ,
4, ,-28, ,
3, ,-28, ,
4, ,-28, ,
5, ,-28, ,
5, ,-28, ,
1, ,-28, ,
3, ,-28, ,
4, ,-28, ,
5, ,-28, ,
-2, ,-28, ,
5, ,-28, ,
3, ,-28, ,
4, ,-28, ,
1, ,-28, ,
1, ,-28, ,
3, ,-28, ,
5, ,-28, ,
0, ,-28, ,
4, ,-28, ,
6, ,-28, ,
4, ,-28, ,
0, ,-28, ,
4, ,-28, ,
0, ,-28, ,
4, ,-28, ,
1, ,-28, ,
3, ,-28, ,
4, ,-28, ,
5, ,-28, ,
0, ,-28, ,
1, ,-28, ,
4, ,-28, ,
4, ,-28, ,
-1, ,-28, ,
3, ,-28, ,
4, ,-28, ,
4, ,-28, ,
0, ,-28, ,
1, ,-28, ,
3, ,-28, ,
5, ,-28, ,
-1, ,-28, ,
3, ,-28, ,
5, ,-28, ,
4, ,-28, ,
-1, ,-28, ,
3, ,-28, ,
1, ,-28, ,
3, ,-28, ,
1, ,-28, ,
5, ,-28, ,
4, ,-28, ,
3, ,-28, ,
1, ,-28, ,
1, ,-28, ,
3, ,-28, ,
5, ,-28, ,
-1, ,-28, ,
5, ,-28, ,
4, ,-28, ,
3, ,-28, ,
0, ,-28, ,
3, ,-28, ,
1, ,-28, ,
5, ,-28, ,
0, ,-28, ,
4, ,-28, ,
5, ,-28, ,
4, ,-28, ,
-2, ,-28, ,
3, ,-28, ,
4, ,-28, ,
5, ,-28, ,
3, ,-28, ,
3, ,-28, ,
3, ,-28, ,
4, ,-28, ,
-2, ,-28, ,
0, ,-28, ,
3, ,-28, ,
4, ,-28, ,
-1, ,-28, ,
5, ,-28, ,
4, ,-28, ,
4, ,-28, ,
3, ,-28, ,
3, ,-28, ,
3, ,-28, ,
4, ,-28, ,
-1, ,-28, ,
4, ,-28, ,
6, ,-28, ,
5, ,-28, ,
0, ,-28, ,
4, ,-28, ,
3, ,-28, ,
3, ,-28, ,
1, ,-28, ,
4, ,-28, ,
4, ,-28, ,
5, ,-28, ,
-1, ,-28, ,
1, ,-28, ,
3, ,-28, ,
3, ,-28, ,
1, ,-28, ,
4, ,-28, ,
4, ,-28, ,
3, ,-28, ,
0, ,-28, ,
3, ,-28, ,
3, ,-28, ,
4, ,-28, ,
0, ,-28, ,
3, ,-28, ,
4, ,-28, ,
1, ,-28, ,
-2, ,-28, ,
4, ,-28, ,
4, ,-28, ,
4, ,-28, ,
3, ,-28, ,
3, ,-28, ,
3, ,-28, ,
6, ,-28, ,
0, ,-28, ,
1, ,-28, ,
3, ,-28, ,
4, ,-28, ,
0, ,-28, ,
5, ,-28, ,
4, ,-28, ,
5, ,-28, ,
1, ,-28, ,
0, ,-28, ,
0, ,-28, ,
4, ,-28, ,
-1, ,-28, ,
4, ,-28, ,
5, ,-28, ,
4, ,-28, ,
0, ,-28, ,
3, ,-28, ,
1, ,-28, ,
3, ,-28, ,
1, ,-28, ,
3, ,-28, ,
4, ,-28, ,
3, ,-28, ,
3, ,-28, ,
3, ,-28, ,
3, ,-28, ,
4, ,-28, ,
0, ,-28, ,
5, ,-28, ,
4, ,-28, ,
3, ,-28, ,
3, ,-28, ,
3, ,-28, ,
3, ,-28, ,
4, ,-28, ,
0, ,-28, ,
3, ,-28, ,
5, ,-28, ,
4, ,-28, ,
0, ,-28, ,
3, ,-28, ,
1, ,-28, ,
3, ,-28, ,
-1, ,-28, ,
3, ,-28, ,
4, ,-28, ,
5, ,-28, ,
0, ,-28, ,
1, ,-28, ,
4, ,-28, ,
5, ,-28, ,
0, ,-28, ,
5, ,-28, ,
3, ,-28, ,
1, ,-28, ,
0, ,-28, ,
0, ,-28, ,
0, ,-28, ,
5, ,-28, ,
-2, ,-28, ,
3, ,-28, ,
6, ,-28, ,
4, ,-28, ,
1, ,-28, ,
3, ,-28, ,
0, ,-28, ,
1, ,-28, ,
0, ,-28, ,
3, ,-28, ,
4, ,-28, ,
4, ,-28, ,
-1, ,-28, ,
-1, ,-28, ,
3, ,-28, ,
4, ,-28, ,
1, ,-28, ,
6, ,-28, ,
3, ,-28, ,
3, ,-28, ,
0, ,-28, ,
1, ,-28, ,
1, ,-28, ,
5, ,-28, ,
-2, ,-28, ,
1, ,-28, ,
5, ,-28, ,
3, ,-28, ,
0, ,-28, ,
1, ,-28, ,
3, ,-28, ,
3, ,-28, ,
1, ,-28, ,
3, ,-28, ,
4, ,-28, ,
3, ,-28, ,
0, ,-28, ,
1, ,-28, ,
4, ,-28, ,
3, ,-28, ,
-1, ,-28, ,
4, ,-28, ,
5, ,-28, ,
4, ,-28, ,
-1, ,-28, ,
1, ,-28, ,
1, ,-28, ,
5, ,-28, ,
0, ,-28, ,
3, ,-28, ,
6, ,-28, ,
3, ,-28, ,
-1, ,-28, ,
3, ,-28, ,
3, ,-28, ,
4, ,-28, ,
