src/timing_folder_fast/2chSaw0000023.CSV

Format,1.0B,
Memory Length,10000,Memory Length,10000,
IntpDistance,0,IntpDistance,0,
Trigger Address,4999,Trigger Address,4999,
Trigger Level,1.192E-01,Trigger Level,1.192E-01,
Source,CH1,Source,CH2,
Vertical Units,V,Vertical Units,V,
Vertical Units Div,0,Vertical Units Div,0,
Vertical Units Extend Div,16,Vertical Units Extend Div,16,
Label,,Label,,
Probe Type,0,Probe Type,0,
Probe Ratio,1.000e+01,Probe Ratio,1.000e+00,
Vertical Scale,2.000e-02,Vertical Scale,1.000e+00,
Vertical Position,-5.120e-02,Vertical Position,2.000e-01,
Horizontal Units,S,Horizontal Units,S,
Horizontal Scale,5.000E-09,Horizontal Scale,5.000E-09,
Horizontal Position,0.000E+00,Horizontal Position,0.000E+00,
Horizontal Mode,Main,Horizontal Mode,Main,
SincET Mode,Sinc40,SincET Mode,Sinc40,
Sampling Period,2.000e-09,Sampling Period,2.000e-09,
Horizontal Old Scale,5.000E-09,Horizontal Old Scale,5.000E-09,
Horizontal Old Position,0.000E+00,Horizontal Old Position,0.000E+00,
Firmware,V1.23,Firmware,V1.23,
Mode,Fast,Mode,Fast,
Waveform Data,,Waveform Data,,
4, ,-9, ,
3, ,-9, ,
1, ,-9, ,
0, ,-9, ,
1, ,-9, ,
4, ,-9, ,
4, ,-10, ,
-1, ,-10, ,
1, ,-10, ,
3, ,-9, ,
3, ,-9, ,
1, ,-10, ,
3, ,-10, ,
1, ,-10, ,
0, ,-10, ,
1, ,-10, ,
3, ,-10, ,
3, ,-10, ,
4, ,-9, ,
-2, ,-9, ,
0, ,-9, ,
3, ,-9, ,
1, ,-9, ,
0, ,-9, ,
4, ,-9, ,
4, ,-9, ,
3, ,-9, ,
3, ,-10, ,
3, ,-10, ,
3, ,-10, ,
4, ,-9, ,
0, ,-9, ,
3, ,-9, ,
4, ,-9, ,
3, ,-9, ,
-1, ,-9, ,
0, ,-9, ,
1, ,-9, ,
0, ,-9, ,
-1, ,-9, ,
3, ,-9, ,
4, ,-9, ,
5, ,-9, ,
0, ,-9, ,
3, ,-9, ,
3, ,-9, ,
3, ,-9, ,
-1, ,-9, ,
3, ,-9, ,
4, ,-9, ,
3, ,-9, ,
1, ,-10, ,
1, ,-10, ,
3, ,-10, ,
5, ,-9, ,
-1, ,-9, ,
3, ,-9, ,
4, ,-9, ,
1, ,-9, ,
-1, ,-10, ,
3, ,-10, ,
1, ,-10, ,
1, ,-10, ,
3, ,-10, ,
3, ,-10, ,
3, ,-10, ,
4, ,-9, ,
1, ,-9, ,
3, ,-9, ,
3, ,-10, ,
3, ,-10, ,
0, ,-10, ,
5, ,-9, ,
3, ,-9, ,
0, ,-9, ,
0, ,-10, ,
3, ,-10, ,
-1, ,-10, ,
4, ,-9, ,
0, ,-10, ,
3, ,-10, ,
4, ,-10, ,
3, ,-9, ,
-1, ,-10, ,
3, ,-10, ,
3, ,-10, ,
1, ,-10, ,
1, ,-10, ,
1, ,-10, ,
1, ,-10, ,
1, ,-9, ,
0, ,-9, ,
1, ,-9, ,
3, ,-10, ,
1, ,-10, ,
0, ,-10, ,
4, ,-10, ,
4, ,-10, ,
3, ,-9, ,
1, ,-10, ,
1, ,-10, ,
1, ,-10, ,
3, ,-10, ,
-1, ,-10, ,
1, ,-10, ,
4, ,-9, ,
4, ,-9, ,
0, ,-9, ,
3, ,-9, ,
0, ,-9, ,
1, ,-10, ,
1, ,-10, ,
3, ,-10, ,
4, ,-10, ,
4, ,-9, ,
0, ,-9, ,
1, ,-9, ,
1, ,-9, ,
1, ,-9, ,
0, ,-9, ,
3, ,-9, ,
4, ,-9, ,
3, ,-9, ,
1, ,-10, ,
1, ,-10, ,
0, ,-10, ,
4, ,-9, ,
-2, ,-9, ,
1, ,-9, ,
4, ,-9, ,
3, ,-9, ,
1, ,-9, ,
3, ,-9, ,
1, ,-9, ,
1, ,-9, ,
3, ,-9, ,
3, ,-9, ,
4, ,-9, ,
4, ,-9, ,
-1, ,-9, ,
1, ,-10, ,
3, ,-10, ,
3, ,-10, ,
0, ,-9, ,
4, ,-9, ,
4, ,-9, ,
3, ,-9, ,
1, ,-10, ,
3, ,-10, ,
0, ,-10, ,
3, ,-10, ,
0, ,-10, ,
3, ,-10, ,
5, ,-10, ,
4, ,-10, ,
-1, ,-10, ,
1, ,-10, ,
1, ,-10, ,
3, ,-10, ,
1, ,-10, ,
1, ,-10, ,
3, ,-9, ,
4, ,-9, ,
-1, ,-9, ,
3, ,-9, ,
3, ,-9, ,
0, ,-9, ,
-1, ,-9, ,
4, ,-9, ,
4, ,-9, ,
4, ,-9, ,
3, ,-10, ,
1, ,-10, ,
1, ,-10, ,
3, ,-10, ,
0, ,-10, ,
3, ,-10, ,
4, ,-10, ,
4, ,-9, ,
0, ,-9, ,
3, ,-9, ,
1, ,-9, ,
3, ,-9, ,
3, ,-10, ,
4, ,-10, ,
5, ,-10, ,
5, ,-9, ,
-2, ,-9, ,
0, ,-9, ,
3, ,-9, ,
1, ,-9, ,
0, ,-9, ,
3, ,-9, ,
3, ,-9, ,
0, ,-9, ,
0, ,-9, ,
0, ,-9, ,
0, ,-9, ,
3, ,-9, ,
1, ,-9, ,
-1, ,-9, ,
4, ,-9, ,
3, ,-9, ,
-2, ,-9, ,
1, ,-9, ,
3, ,-9, ,
1, ,-9, ,
1, ,-10, ,
3, ,-10, ,
4, ,-10, ,
5, ,-9, ,
-2, ,-9, ,
1, ,-9, ,
4, ,-10, ,
0, ,-10, ,
-1, ,-10, ,
4, ,-9, ,
4, ,-9, ,
3, ,-9, ,
1, ,-10, ,
3, ,-10, ,
0, ,-10, ,
4, ,-10, ,
0, ,-10, ,
3, ,-10, ,
5, ,-9, ,
3, ,-9, ,
0, ,-10, ,
3, ,-10, ,
3, ,-10, ,
1, ,-9, ,
1, ,-9, ,
3, ,-9, ,
5, ,-9, ,
5, ,-9, ,
-1, ,-10, ,
1, ,-10, ,
3, ,-10, ,
3, ,-9, ,
-1, ,-9, ,
5, ,-9, ,
5, ,-9, ,
4, ,-9, ,
3, ,-9, ,
1, ,-9, ,
1, ,-9, ,
3, ,-9, ,
0, ,-9, ,
3, ,-9, ,
5, ,-9, ,
3, ,-9, ,
-1, ,-9, ,
3, ,-9, ,
1, ,-9, ,
3, ,-9, ,
3, ,-9, ,
1, ,-9, ,
3, ,-9, ,
4, ,-9, ,
0, ,-9, ,
1, ,-9, ,
3, ,-9, ,
3, ,-9, ,
0, ,-9, ,
3, ,-9, ,
3, ,-9, ,
1, ,-9, ,
1, ,-10, ,
1, ,-10, ,
1, ,-10, ,
5, ,-10, ,
-1, ,-10, ,
3, ,-10, ,
5, ,-9, ,
3, ,-9, ,
-1, ,-9, ,
3, ,-9, ,
1, ,-9, ,
1, ,-10, ,
1, ,-10, ,
3, ,-10, ,
4, ,-9, ,
5, ,-10, ,
0, ,-10, ,
1, ,-10, ,
3, ,-9, ,
3, ,-9, ,
-2, ,-9, ,
1, ,-9, ,
4, ,-9, ,
3, ,-9, ,
0, ,-10, ,
1, ,-10, ,
1, ,-10, ,
4, ,-9, ,
1, ,-9, ,
3, ,-9, ,
5, ,-9, ,
3, ,-9, ,
-1, ,-9, ,
4, ,-9, ,
3, ,-9, ,
1, ,-10, ,
0, ,-10, ,
1, ,-10, ,
4, ,-9, ,
4, ,-9, ,
0, ,-9, ,
1, ,-9, ,
3, ,-9, ,
3, ,-9, ,
1, ,-9, ,
4, ,-9, ,
5, ,-9, ,
3, ,-9, ,
0, ,-10, ,
3, ,-10, ,
1, ,-10, ,
4, ,-10, ,
-1, ,-10, ,
1, ,-10, ,
5, ,-9, ,
3, ,-9, ,
-1, ,-10, ,
3, ,-10, ,
1, ,-10, ,
3, ,-9, ,
3, ,-9, ,
3, ,-9, ,
4, ,-9, ,
4, ,-9, ,
0, ,-9, ,
1, ,-9, ,
3, ,-9, ,
3, ,-9, ,
-1, ,-9, ,
1, ,-9, ,
3, ,-9, ,
3, ,-10, ,
3, ,-10, ,
1, ,-10, ,
0, ,-9, ,
4, ,-9, ,
0, ,-9, ,
3, ,-9, ,
6, ,-9, ,
3, ,-9, ,
-1, ,-10, ,
3, ,-10, ,
1, ,-10, ,
3, ,-9, ,
1, ,-9, ,
3, ,-9, ,
4, ,-9, ,
4, ,-9, ,
0, ,-9, ,
0, ,-9, ,
3, ,-9, ,
1, ,-9, ,
0, ,-10, ,
4, ,-10, ,
4, ,-10, ,
3, ,-9, ,
0, ,-10, ,
1, ,-10, ,
0, ,-10, ,
5, ,-10, ,
-1, ,-10, ,
3, ,-9, ,
5, ,-9, ,
4, ,-9, ,
1, ,-10, ,
3, ,-10, ,
0, ,-10, ,
1, ,-9, ,
1, ,-10, ,
3, ,-10, ,
4, ,-10, ,
4, ,-9, ,
0, ,-9, ,
3, ,-9, ,
4, ,-10, ,
3, ,-10, ,
-2, ,-10, ,
3, ,-9, ,
3, ,-9, ,
3, ,-9, ,
1, ,-10, ,
1, ,-10, ,
1, ,-10, ,
4, ,-9, ,
-1, ,-9, ,
1, ,-9, ,
4, ,-9, ,
4, ,-9, ,
-1, ,-9, ,
3, ,-9, ,
3, ,-9, ,
3, ,-10, ,
3, ,-10, ,
1, ,-10, ,
4, ,-9, ,
4, ,-9, ,
3, ,-9, ,
3, ,-9, ,
3, ,-9, ,
3, ,-9, ,
-2, ,-9, ,
4, ,-9, ,
3, ,-9, ,
3, ,-9, ,
3, ,-9, ,
1, ,-9, ,
1, ,-9, ,
4, ,-9, ,
-1, ,-9, ,
1, ,-9, ,
3, ,-10, ,
3, ,-10, ,
-1, ,-10, ,
3, ,-10, ,
1, ,-10, ,
3, ,-9, ,
3, ,-10, ,
3, ,-10, ,
3, ,-10, ,
1, ,-9, ,
0, ,-10, ,
1, ,-10, ,
3, ,-10, ,
3, ,-10, ,
1, ,-10, ,
4, ,-9, ,
1, ,-9, ,
3, ,-9, ,
3, ,-9, ,
1, ,-9, ,
0, ,-9, ,
5, ,-9, ,
0, ,-9, ,
3, ,-9, ,
5, ,-9, ,
5, ,-9, ,
-4, ,-9, ,
4, ,-9, ,
1, ,-9, ,
1, ,-9, ,
1, ,-10, ,
4, ,-10, ,
3, ,-10, ,
4, ,-10, ,
0, ,-10, ,
1, ,-10, ,
1, ,-9, ,
1, ,-9, ,
1, ,-9, ,
3, ,-9, ,
3, ,-9, ,
3, ,-9, ,
1, ,-9, ,
1, ,-9, ,
0, ,-9, ,
4, ,-9, ,
1, ,-9, ,
3, ,-9, ,
4, ,-10, ,
3, ,-10, ,
-2, ,-10, ,
3, ,-10, ,
4, ,-10, ,
3, ,-10, ,
1, ,-10, ,
3, ,-9, ,
4, ,-9, ,
4, ,-9, ,
0, ,-9, ,
1, ,-9, ,
3, ,-10, ,
3, ,-10, ,
1, ,-10, ,
5, ,-9, ,
4, ,-9, ,
3, ,-9, ,
1, ,-9, ,
1, ,-9, ,
0, ,-9, ,
4, ,-9, ,
0, ,-10, ,
3, ,-10, ,
5, ,-10, ,
5, ,-9, ,
-1, ,-9, ,
1, ,-9, ,
0, ,-9, ,
1, ,-9, ,
3, ,-9, ,
3, ,-9, ,
3, ,-9, ,
3, ,-9, ,
0, ,-9, ,
1, ,-9, ,
3, ,-10, ,
1, ,-10, ,
0, ,-10, ,
4, ,-9, ,
4, ,-9, ,
3, ,-9, ,
1, ,-10, ,
1, ,-10, ,
1, ,-10, ,
4, ,-10, ,
0, ,-10, ,
1, ,-10, ,
3, ,-9, ,
3, ,-9, ,
1, ,-9, ,
1, ,-9, ,
1, ,-9, ,
3, ,-10, ,
0, ,-10, ,
3, ,-10, ,
4, ,-9, ,
6, ,-10, ,
0, ,-10, ,
1, ,-10, ,
3, ,-9, ,
4, ,-9, ,
0, ,-9, ,
4, ,-9, ,
3, ,-9, ,
1, ,-10, ,
0, ,-10, ,
1, ,-10, ,
1, ,-10, ,
4, ,-9, ,
-1, ,-9, ,
0, ,-9, ,
5, ,-9, ,
3, ,-9, ,
-1, ,-9, ,
1, ,-9, ,
0, ,-9, ,
1, ,-10, ,
3, ,-10, ,
3, ,-10, ,
4, ,-10, ,
4, ,-9, ,
-1, ,-9, ,
0, ,-9, ,
3, ,-9, ,
4, ,-9, ,
0, ,-9, ,
3, ,-9, ,
4, ,-10, ,
3, ,-10, ,
0, ,-10, ,
1, ,-10, ,
0, ,-10, ,
4, ,-9, ,
0, ,-9, ,
1, ,-9, ,
4, ,-9, ,
3, ,-9, ,
0, ,-9, ,
4, ,-9, ,
1, ,-9, ,
3, ,-10, ,
4, ,-10, ,
3, ,-10, ,
4, ,-9, ,
5, ,-9, ,
0, ,-10, ,
1, ,-10, ,
3, ,-10, ,
4, ,-9, ,
0, ,-9, ,
4, ,-9, ,
3, ,-9, ,
1, ,-9, ,
1, ,-9, ,
3, ,-9, ,
3, ,-9, ,
4, ,-9, ,
-2, ,-9, ,
1, ,-9, ,
4, ,-9, ,
1, ,-9, ,
0, ,-9, ,
3, ,-9, ,
3, ,-9, ,
1, ,-9, ,
1, ,-10, ,
1, ,-10, ,
4, ,-10, ,
4, ,-9, ,
-1, ,-9, ,
1, ,-9, ,
3, ,-9, ,
3, ,-9, ,
0, ,-9, ,
4, ,-9, ,
5, ,-9, ,
4, ,-9, ,
1, ,-10, ,
3, ,-10, ,
0, ,-10, ,
5, ,-10, ,
0, ,-10, ,
3, ,-10, ,
5, ,-9, ,
4, ,-9, ,
-1, ,-9, ,
3, ,-9, ,
3, ,-9, ,
3, ,-9, ,
3, ,-10, ,
3, ,-10, ,
4, ,-10, ,
5, ,-10, ,
0, ,-10, ,
1, ,-10, ,
3, ,-9, ,
3, ,-9, ,
0, ,-9, ,
3, ,-9, ,
3, ,-9, ,
3, ,-9, ,
1, ,-9, ,
1, ,-9, ,
1, ,-9, ,
4, ,-9, ,
0, ,-9, ,
3, ,-9, ,
4, ,-9, ,
3, ,-9, ,
-1, ,-10, ,
4, ,-10, ,
0, ,-10, ,
3, ,-10, ,
3, ,-10, ,
1, ,-10, ,
4, ,-10, ,
4, ,-9, ,
0, ,-9, ,
1, ,-9, ,
1, ,-9, ,
0, ,-9, ,
-1, ,-9, ,
4, ,-9, ,
4, ,-10, ,
3, ,-10, ,
1, ,-10, ,
3, ,-10, ,
1, ,-10, ,
3, ,-9, ,
0, ,-10, ,
3, ,-10, ,
4, ,-10, ,
4, ,-9, ,
1, ,-9, ,
4, ,-9, ,
1, ,-9, ,
3, ,-9, ,
3, ,-10, ,
3, ,-10, ,
3, ,-10, ,
4, ,-9, ,
1, ,-9, ,
1, ,-9, ,
4, ,-9, ,
3, ,-9, ,
0, ,-9, ,
4, ,-9, ,
4, ,-9, ,
3, ,-9, ,
3, ,-9, ,
1, ,-9, ,
-1, ,-9, ,
1, ,-9, ,
-1, ,-9, ,
3, ,-9, ,
4, ,-9, ,
4, ,-9, ,
-1, ,-10, ,
1, ,-10, ,
1, ,-10, ,
1, ,-9, ,
3, ,-9, ,
4, ,-9, ,
1, ,-9, ,
4, ,-9, ,
1, ,-9, ,
3, ,-9, ,
4, ,-9, ,
3, ,-10, ,
0, ,-10, ,
4, ,-10, ,
5, ,-9, ,
4, ,-9, ,
1, ,-10, ,
0, ,-10, ,
1, ,-10, ,
4, ,-9, ,
0, ,-9, ,
3, ,-9, ,
5, ,-9, ,
3, ,-9, ,
0, ,-9, ,
1, ,-9, ,
3, ,-9, ,
3, ,-9, ,
3, ,-10, ,
3, ,-10, ,
3, ,-10, ,
5, ,-9, ,
-1, ,-9, ,
0, ,-9, ,
3, ,-10, ,
4, ,-10, ,
0, ,-10, ,
3, ,-9, ,
4, ,-9, ,
4, ,-9, ,
3, ,-9, ,
1, ,-9, ,
1, ,-9, ,
4, ,-9, ,
0, ,-9, ,
1, ,-9, ,
4, ,-9, ,
3, ,-9, ,
0, ,-9, ,
3, ,-9, ,
3, ,-9, ,
3, ,-10, ,
4, ,-10, ,
0, ,-10, ,
3, ,-10, ,
4, ,-10, ,
3, ,-10, ,
3, ,-10, ,
3, ,-10, ,
3, ,-10, ,
0, ,-10, ,
4, ,-9, ,
3, ,-9, ,
3, ,-10, ,
1, ,-10, ,
1, ,-10, ,
3, ,-10, ,
4, ,-10, ,
0, ,-10, ,
3, ,-9, ,
5, ,-9, ,
3, ,-9, ,
-1, ,-9, ,
4, ,-9, ,
3, ,-9, ,
3, ,-9, ,
3, ,-9, ,
4, ,-9, ,
4, ,-9, ,
4, ,-9, ,
0, ,-9, ,
4, ,-9, ,
4, ,-9, ,
1, ,-9, ,
-1, ,-10, ,
4, ,-10, ,
4, ,-10, ,
3, ,-10, ,
0, ,-10, ,
1, ,-10, ,
1, ,-10, ,
3, ,-10, ,
1, ,-10, ,
3, ,-10, ,
5, ,-9, ,
3, ,-9, ,
-1, ,-10, ,
1, ,-10, ,
3, ,-10, ,
3, ,-9, ,
3, ,-9, ,
3, ,-9, ,
4, ,-9, ,
6, ,-10, ,
1, ,-10, ,
1, ,-10, ,
4, ,-10, ,
3, ,-10, ,
0, ,-10, ,
3, ,-10, ,
3, ,-10, ,
1, ,-9, ,
0, ,-9, ,
3, ,-9, ,
1, ,-9, ,
5, ,-9, ,
0, ,-9, ,
3, ,-9, ,
4, ,-9, ,
4, ,-9, ,
-1, ,-9, ,
1, ,-9, ,
1, ,-9, ,
3, ,-9, ,
3, ,-9, ,
3, ,-9, ,
4, ,-9, ,
4, ,-9, ,
-1, ,-9, ,
1, ,-9, ,
3, ,-9, ,
1, ,-9, ,
-1, ,-9, ,
3, ,-9, ,
4, ,-9, ,
3, ,-9, ,
1, ,-9, ,
1, ,-9, ,
3, ,-10, ,
4, ,-10, ,
0, ,-10, ,
3, ,-9, ,
4, ,-9, ,
3, ,-9, ,
0, ,-9, ,
0, ,-9, ,
1, ,-9, ,
3, ,-9, ,
3, ,-9, ,
3, ,-9, ,
4, ,-9, ,
4, ,-9, ,
-1, ,-9, ,
0, ,-10, ,
3, ,-10, ,
4, ,-10, ,
1, ,-10, ,
4, ,-9, ,
4, ,-9, ,
3, ,-9, ,
1, ,-9, ,
1, ,-9, ,
1, ,-9, ,
5, ,-9, ,
1, ,-9, ,
3, ,-9, ,
4, ,-9, ,
3, ,-9, ,
-2, ,-9, ,
1, ,-9, ,
1, ,-9, ,
1, ,-10, ,
3, ,-10, ,
4, ,-10, ,
5, ,-9, ,
4, ,-9, ,
-1, ,-9, ,
0, ,-9, ,
3, ,-9, ,
3, ,-9, ,
1, ,-10, ,
4, ,-10, ,
5, ,-10, ,
4, ,-9, ,
3, ,-9, ,
1, ,-9, ,
1, ,-9, ,
3, ,-10, ,
-2, ,-10, ,
1, ,-10, ,
5, ,-9, ,
3, ,-9, ,
-2, ,-10, ,
3, ,-10, ,
3, ,-10, ,
3, ,-10, ,
1, ,-9, ,
3, ,-9, ,
4, ,-9, ,
5, ,-9, ,
0, ,-9, ,
1, ,-9, ,
1, ,-9, ,
1, ,-10, ,
-1, ,-10, ,
1, ,-10, ,
4, ,-9, ,
3, ,-9, ,
0, ,-10, ,
1, ,-10, ,
3, ,-10, ,
4, ,-10, ,
1, ,-10, ,
3, ,-9, ,
6, ,-9, ,
3, ,-9, ,
-1, ,-10, ,
3, ,-10, ,
3, ,-10, ,
3, ,-10, ,
3, ,-10, ,
1, ,-10, ,
3, ,-10, ,
4, ,-9, ,
0, ,-9, ,
1, ,-9, ,
1, ,-9, ,
1, ,-9, ,
1, ,-10, ,
5, ,-10, ,
5, ,-10, ,
3, ,-9, ,
1, ,-9, ,
1, ,-9, ,
1, ,-9, ,
6, ,-10, ,
1, ,-10, ,
4, ,-10, ,
5, ,-10, ,
3, ,-9, ,
0, ,-10, ,
3, ,-10, ,
1, ,-10, ,
1, ,-10, ,
3, ,-10, ,
3, ,-10, ,
4, ,-10, ,
4, ,-9, ,
0, ,-9, ,
1, ,-9, ,
4, ,-9, ,
4, ,-9, ,
0, ,-9, ,
3, ,-9, ,
3, ,-9, ,
3, ,-9, ,
1, ,-10, ,
1, ,-10, ,
1, ,-10, ,
3, ,-9, ,
3, ,-9, ,
3, ,-9, ,
6, ,-9, ,
3, ,-9, ,
1, ,-9, ,
3, ,-9, ,
1, ,-9, ,
3, ,-10, ,
1, ,-10, ,
1, ,-10, ,
3, ,-9, ,
4, ,-9, ,
-1, ,-9, ,
1, ,-9, ,
3, ,-9, ,
3, ,-9, ,
3, ,-9, ,
5, ,-9, ,
4, ,-9, ,
3, ,-9, ,
0, ,-9, ,
1, ,-9, ,
1, ,-9, ,
4, ,-9, ,
0, ,-10, ,
3, ,-10, ,
4, ,-10, ,
4, ,-9, ,
0, ,-9, ,
3, ,-9, ,
1, ,-9, ,
3, ,-9, ,
1, ,-9, ,
3, ,-9, ,
4, ,-9, ,
4, ,-9, ,
1, ,-9, ,
3, ,-9, ,
4, ,-9, ,
3, ,-9, ,
-1, ,-10, ,
4, ,-10, ,
3, ,-10, ,
3, ,-9, ,
3, ,-9, ,
1, ,-9, ,
1, ,-9, ,
4, ,-9, ,
0, ,-9, ,
3, ,-9, ,
5, ,-9, ,
3, ,-9, ,
0, ,-9, ,
1, ,-9, ,
1, ,-9, ,
1, ,-9, ,
3, ,-9, ,
4, ,-9, ,
4, ,-9, ,
4, ,-9, ,
-2, ,-9, ,
1, ,-9, ,
4, ,-9, ,
4, ,-9, ,
0, ,-9, ,
3, ,-9, ,
3, ,-9, ,
3, ,-9, ,
4, ,-10, ,
1, ,-10, ,
3, ,-10, ,
3, ,-9, ,
-1, ,-9, ,
3, ,-9, ,
4, ,-9, ,
3, ,-9, ,
-1, ,-9, ,
3, ,-9, ,
1, ,-9, ,
4, ,-9, ,
3, ,-9, ,
3, ,-9, ,
4, ,-9, ,
5, ,-9, ,
1, ,-10, ,
1, ,-10, ,
3, ,-10, ,
3, ,-9, ,
0, ,-9, ,
3, ,-9, ,
3, ,-9, ,
1, ,-9, ,
0, ,-10, ,
0, ,-10, ,
1, ,-10, ,
4, ,-9, ,
0, ,-10, ,
3, ,-10, ,
5, ,-10, ,
4, ,-9, ,
1, ,-9, ,
4, ,-9, ,
1, ,-9, ,
3, ,-9, ,
3, ,-9, ,
3, ,-9, ,
4, ,-9, ,
4, ,-9, ,
0, ,-9, ,
1, ,-9, ,
4, ,-9, ,
4, ,-9, ,
-1, ,-10, ,
4, ,-10, ,
4, ,-10, ,
4, ,-9, ,
3, ,-9, ,
1, ,-9, ,
1, ,-9, ,
5, ,-9, ,
1, ,-9, ,
3, ,-9, ,
4, ,-9, ,
3, ,-9, ,
1, ,-9, ,
1, ,-9, ,
0, ,-9, ,
3, ,-9, ,
3, ,-10, ,
3, ,-10, ,
4, ,-10, ,
3, ,-9, ,
0, ,-9, ,
3, ,-9, ,
5, ,-10, ,
3, ,-10, ,
0, ,-10, ,
4, ,-10, ,
4, ,-9, ,
3, ,-9, ,
1, ,-9, ,
1, ,-9, ,
3, ,-9, ,
5, ,-10, ,
-1, ,-10, ,
3, ,-10, ,
6, ,-10, ,
5, ,-9, ,
-1, ,-9, ,
1, ,-9, ,
1, ,-9, ,
1, ,-10, ,
3, ,-10, ,
3, ,-10, ,
1, ,-10, ,
5, ,-9, ,
-1, ,-9, ,
3, ,-9, ,
3, ,-10, ,
3, ,-10, ,
-2, ,-10, ,
3, ,-10, ,
4, ,-10, ,
4, ,-9, ,
1, ,-9, ,
1, ,-9, ,
1, ,-9, ,
4, ,-10, ,
-1, ,-10, ,
3, ,-10, ,
5, ,-9, ,
4, ,-9, ,
1, ,-10, ,
3, ,-10, ,
1, ,-10, ,
3, ,-9, ,
4, ,-10, ,
3, ,-10, ,
3, ,-10, ,
4, ,-10, ,
0, ,-10, ,
3, ,-10, ,
4, ,-10, ,
3, ,-10, ,
-1, ,-10, ,
5, ,-10, ,
3, ,-10, ,
3, ,-10, ,
3, ,-10, ,
3, ,-10, ,
3, ,-10, ,
4, ,-10, ,
1, ,-10, ,
3, ,-10, ,
4, ,-9, ,
5, ,-9, ,
3, ,-10, ,
3, ,-10, ,
1, ,-10, ,
3, ,-10, ,
3, ,-10, ,
3, ,-10, ,
4, ,-10, ,
4, ,-9, ,
-1, ,-9, ,
0, ,-9, ,
4, ,-9, ,
3, ,-9, ,
1, ,-10, ,
3, ,-10, ,
3, ,-10, ,
1, ,-9, ,
1, ,-9, ,
1, ,-9, ,
-1, ,-9, ,
4, ,-10, ,
1, ,-10, ,
3, ,-10, ,
5, ,-9, ,
1, ,-9, ,
-2, ,-9, ,
3, ,-9, ,
3, ,-9, ,
1, ,-9, ,
1, ,-10, ,
4, ,-10, ,
3, ,-10, ,
5, ,-10, ,
-4, ,-10, ,
0, ,-10, ,
3, ,-9, ,
1, ,-9, ,
1, ,-9, ,
3, ,-9, ,
4, ,-9, ,
3, ,-9, ,
1, ,-10, ,
1, ,-10, ,
-1, ,-10, ,
5, ,-10, ,
1, ,-10, ,
4, ,-10, ,
5, ,-10, ,
4, ,-9, ,
0, ,-10, ,
1, ,-10, ,
1, ,-10, ,
1, ,-10, ,
3, ,-10, ,
3, ,-10, ,
3, ,-9, ,
3, ,-9, ,
0, ,-9, ,
1, ,-9, ,
3, ,-9, ,
3, ,-9, ,
0, ,-9, ,
4, ,-9, ,
4, ,-9, ,
3, ,-9, ,
3, ,-10, ,
1, ,-10, ,
3, ,-10, ,
4, ,-9, ,
-1, ,-9, ,
1, ,-9, ,
4, ,-9, ,
3, ,-9, ,
1, ,-10, ,
3, ,-10, ,
3, ,-10, ,
3, ,-9, ,
3, ,-10, ,
3, ,-10, ,
4, ,-10, ,
5, ,-10, ,
0, ,-10, ,
0, ,-10, ,
3, ,-9, ,
1, ,-9, ,
0, ,-10, ,
5, ,-10, ,
3, ,-10, ,
1, ,-9, ,
0, ,-9, ,
1, ,-9, ,
1, ,-10, ,
4, ,-10, ,
0, ,-10, ,
3, ,-10, ,
5, ,-10, ,
3, ,-9, ,
0, ,-10, ,
1, ,-10, ,
1, ,-10, ,
1, ,-10, ,
0, ,-10, ,
3, ,-10, ,
3, ,-9, ,
5, ,-9, ,
1, ,-9, ,
1, ,-9, ,
4, ,-9, ,
4, ,-9, ,
1, ,-9, ,
3, ,-9, ,
4, ,-9, ,
3, ,-9, ,
1, ,-9, ,
0, ,-9, ,
1, ,-9, ,
3, ,-10, ,
0, ,-10, ,
4, ,-10, ,
6, ,-9, ,
3, ,-9, ,
0, ,-9, ,
3, ,-9, ,
1, ,-9, ,
1, ,-9, ,
1, ,-10, ,
1, ,-10, ,
3, ,-10, ,
4, ,-9, ,
-2, ,-9, ,
0, ,-9, ,
3, ,-9, ,
3, ,-9, ,
0, ,-10, ,
4, ,-10, ,
4, ,-10, ,
3, ,-9, ,
1, ,-10, ,
1, ,-10, ,
1, ,-10, ,
4, ,-10, ,
0, ,-10, ,
3, ,-9, ,
4, ,-9, ,
3, ,-9, ,
0, ,-10, ,
3, ,-10, ,
3, ,-10, ,
1, ,-10, ,
1, ,-10, ,
4, ,-10, ,
5, ,-9, ,
4, ,-10, ,
-1, ,-10, ,
1, ,-10, ,
1, ,-9, ,
4, ,-9, ,
0, ,-9, ,
5, ,-9, ,
4, ,-9, ,
3, ,-9, ,
1, ,-9, ,
1, ,-9, ,
1, ,-10, ,
4, ,-10, ,
1, ,-10, ,
4, ,-10, ,
4, ,-9, ,
3, ,-9, ,
0, ,-9, ,
3, ,-9, ,
3, ,-9, ,
1, ,-9, ,
1, ,-10, ,
3, ,-10, ,
5, ,-10, ,
6, ,-9, ,
-1, ,-10, ,
0, ,-10, ,
1, ,-10, ,
3, ,-10, ,
0, ,-10, ,
4, ,-9, ,
4, ,-9, ,
3, ,-9, ,
0, ,-10, ,
3, ,-10, ,
1, ,-10, ,
5, ,-9, ,
0, ,-9, ,
4, ,-9, ,
6, ,-9, ,
4, ,-9, ,
1, ,-9, ,
3, ,-9, ,
3, ,-10, ,
1, ,-10, ,
4, ,-10, ,
5, ,-10, ,
4, ,-10, ,
4, ,-9, ,
1, ,-9, ,
1, ,-9, ,
3, ,-10, ,
1, ,-10, ,
1, ,-10, ,
4, ,-10, ,
4, ,-10, ,
3, ,-9, ,
0, ,-9, ,
3, ,-9, ,
1, ,-9, ,
4, ,-10, ,
0, ,-10, ,
3, ,-10, ,
5, ,-9, ,
3, ,-9, ,
0, ,-9, ,
4, ,-9, ,
3, ,-9, ,
3, ,-10, ,
4, ,-10, ,
4, ,-10, ,
4, ,-10, ,
5, ,-9, ,
0, ,-9, ,
3, ,-9, ,
4, ,-10, ,
1, ,-10, ,
-1, ,-10, ,
5, ,-9, ,
5, ,-9, ,
3, ,-9, ,
0, ,-9, ,
1, ,-9, ,
3, ,-10, ,
5, ,-10, ,
-1, ,-10, ,
3, ,-10, ,
4, ,-10, ,
1, ,-9, ,
-1, ,-9, ,
3, ,-9, ,
3, ,-9, ,
1, ,-9, ,
3, ,-10, ,
4, ,-10, ,
4, ,-10, ,
3, ,-9, ,
-4, ,-9, ,
1, ,-9, ,
4, ,-9, ,
1, ,-9, ,
0, ,-10, ,
4, ,-10, ,
3, ,-10, ,
3, ,-9, ,
0, ,-9, ,
1, ,-9, ,
3, ,-9, ,
5, ,-10, ,
0, ,-10, ,
1, ,-10, ,
4, ,-9, ,
3, ,-9, ,
0, ,-9, ,
3, ,-9, ,
1, ,-9, ,
3, ,-10, ,
4, ,-10, ,
3, ,-10, ,
3, ,-9, ,
3, ,-9, ,
0, ,-9, ,
1, ,-9, ,
3, ,-9, ,
3, ,-9, ,
1, ,-10, ,
4, ,-10, ,
4, ,-10, ,
3, ,-9, ,
1, ,-10, ,
3, ,-10, ,
3, ,-10, ,
5, ,-10, ,
1, ,-10, ,
3, ,-10, ,
5, ,-9, ,
3, ,-9, ,
-2, ,-9, ,
1, ,-9, ,
1, ,-9, ,
1, ,-9, ,
1, ,-9, ,
1, ,-9, ,
4, ,-9, ,
5, ,-9, ,
-1, ,-9, ,
1, ,-9, ,
4, ,-9, ,
4, ,-9, ,
0, ,-10, ,
4, ,-10, ,
3, ,-10, ,
1, ,-9, ,
1, ,-9, ,
0, ,-9, ,
0, ,-10, ,
3, ,-10, ,
0, ,-10, ,
1, ,-9, ,
5, ,-9, ,
4, ,-9, ,
-1, ,-9, ,
3, ,-9, ,
3, ,-9, ,
3, ,-9, ,
4, ,-10, ,
4, ,-10, ,
4, ,-10, ,
3, ,-9, ,
0, ,-9, ,
1, ,-9, ,
3, ,-9, ,
3, ,-9, ,
-1, ,-9, ,
4, ,-9, ,
4, ,-9, ,
1, ,-9, ,
0, ,-9, ,
1, ,-9, ,
0, ,-9, ,
4, ,-10, ,
-1, ,-10, ,
3, ,-10, ,
5, ,-9, ,
3, ,-9, ,
0, ,-10, ,
3, ,-10, ,
1, ,-10, ,
1, ,-10, ,
3, ,-10, ,
4, ,-10, ,
4, ,-10, ,
3, ,-9, ,
-2, ,-9, ,
4, ,-9, ,
1, ,-9, ,
3, ,-9, ,
0, ,-10, ,
4, ,-10, ,
5, ,-10, ,
4, ,-10, ,
1, ,-10, ,
0, ,-10, ,
0, ,-10, ,
5, ,-10, ,
-1, ,-10, ,
3, ,-10, ,
5, ,-9, ,
3, ,-9, ,
1, ,-10, ,
3, ,-10, ,
3, ,-10, ,
3, ,-10, ,
4, ,-10, ,
4, ,-10, ,
1, ,-10, ,
5, ,-10, ,
0, ,-10, ,
1, ,-10, ,
3, ,-10, ,
3, ,-9, ,
0, ,-9, ,
4, ,-9, ,
4, ,-9, ,
3, ,-9, ,
3, ,-9, ,
0, ,-9, ,
-1, ,-10, ,
3, ,-10, ,
0, ,-10, ,
1, ,-10, ,
4, ,-9, ,
4, ,-9, ,
0, ,-10, ,
1, ,-10, ,
3, ,-10, ,
4, ,-9, ,
4, ,-10, ,
3, ,-10, ,
4, ,-10, ,
4, ,-9, ,
0, ,-9, ,
1, ,-9, ,
3, ,-9, ,
3, ,-9, ,
0, ,-10, ,
4, ,-10, ,
4, ,-10, ,
3, ,-9, ,
0, ,-10, ,
0, ,-10, ,
1, ,-10, ,
4, ,-10, ,
1, ,-10, ,
4, ,-9, ,
5, ,-9, ,
3, ,-9, ,
-1, ,-10, ,
1, ,-10, ,
1, ,-10, ,
1, ,-9, ,
1, ,-10, ,
4, ,-10, ,
4, ,-10, ,
4, ,-9, ,
0, ,-9, ,
3, ,-9, ,
4, ,-9, ,
1, ,-9, ,
-1, ,-10, ,
5, ,-10, ,
4, ,-10, ,
4, ,-10, ,
4, ,-10, ,
3, ,-10, ,
3, ,-10, ,
3, ,-10, ,
-1, ,-10, ,
1, ,-10, ,
4, ,-10, ,
1, ,-9, ,
-1, ,-9, ,
3, ,-9, ,
1, ,-9, ,
3, ,-9, ,
3, ,-9, ,
3, ,-9, ,
4, ,-9, ,
4, ,-10, ,
0, ,-10, ,
1, ,-10, ,
4, ,-9, ,
4, ,-9, ,
0, ,-10, ,
4, ,-10, ,
5, ,-10, ,
5, ,-9, ,
3, ,-9, ,
3, ,-9, ,
3, ,-9, ,
4, ,-10, ,
1, ,-10, ,
4, ,-10, ,
5, ,-9, ,
5, ,-9, ,
0, ,-9, ,
3, ,-9, ,
1, ,-9, ,
3, ,-9, ,
4, ,-10, ,
4, ,-10, ,
4, ,-10, ,
5, ,-9, ,
0, ,-9, ,
1, ,-9, ,
3, ,-9, ,
3, ,-9, ,
-1, ,-10, ,
1, ,-10, ,
3, ,-10, ,
3, ,-9, ,
3, ,-9, ,
1, ,-9, ,
0, ,-9, ,
3, ,-10, ,
1, ,-10, ,
4, ,-10, ,
5, ,-10, ,
3, ,-10, ,
-1, ,-10, ,
3, ,-10, ,
3, ,-10, ,
3, ,-9, ,
3, ,-9, ,
3, ,-9, ,
4, ,-9, ,
5, ,-9, ,
-1, ,-9, ,
0, ,-9, ,
3, ,-9, ,
3, ,-9, ,
1, ,-9, ,
3, ,-9, ,
3, ,-9, ,
1, ,-9, ,
1, ,-9, ,
1, ,-9, ,
1, ,-10, ,
4, ,-10, ,
0, ,-10, ,
3, ,-10, ,
4, ,-9, ,
5, ,-9, ,
1, ,-9, ,
3, ,-9, ,
1, ,-10, ,
3, ,-10, ,
3, ,-10, ,
3, ,-10, ,
3, ,-10, ,
3, ,-9, ,
0, ,-9, ,
0, ,-9, ,
3, ,-9, ,
3, ,-9, ,
-1, ,-9, ,
4, ,-9, ,
4, ,-9, ,
3, ,-9, ,
1, ,-10, ,
0, ,-10, ,
1, ,-10, ,
4, ,-10, ,
0, ,-10, ,
4, ,-10, ,
6, ,-9, ,
3, ,-9, ,
-1, ,-9, ,
3, ,-9, ,
3, ,-9, ,
3, ,-10, ,
3, ,-10, ,
3, ,-10, ,
4, ,-10, ,
3, ,-9, ,
-1, ,-9, ,
0, ,-9, ,
3, ,-9, ,
3, ,-9, ,
-1, ,-9, ,
3, ,-9, ,
4, ,-9, ,
3, ,-9, ,
0, ,-9, ,
3, ,-9, ,
3, ,-9, ,
4, ,-9, ,
0, ,-9, ,
3, ,-9, ,
4, ,-9, ,
3, ,-9, ,
0, ,-10, ,
1, ,-10, ,
3, ,-10, ,
3, ,-10, ,
3, ,-10, ,
1, ,-10, ,
0, ,-9, ,
3, ,-9, ,
-1, ,-9, ,
0, ,-9, ,
3, ,-10, ,
4, ,-10, ,
0, ,-10, ,
4, ,-10, ,
4, ,-10, ,
3, ,-9, ,
1, ,-10, ,
0, ,-10, ,
0, ,-10, ,
5, ,-10, ,
0, ,-10, ,
3, ,-10, ,
5, ,-10, ,
3, ,-9, ,
-1, ,-9, ,
1, ,-9, ,
3, ,-9, ,
3, ,-9, ,
3, ,-10, ,
3, ,-10, ,
4, ,-10, ,
4, ,-9, ,
-1, ,-9, ,
1, ,-9, ,
3, ,-9, ,
5, ,-9, ,
-1, ,-9, ,
4, ,-9, ,
4, ,-9, ,
3, ,-9, ,
1, ,-9, ,
1, ,-9, ,
1, ,-9, ,
3, ,-9, ,
0, ,-10, ,
3, ,-10, ,
3, ,-10, ,
3, ,-9, ,
-1, ,-10, ,
3, ,-10, ,
1, ,-10, ,
1, ,-9, ,
3, ,-10, ,
3, ,-10, ,
4, ,-10, ,
4, ,-9, ,
-2, ,-9, ,
-1, ,-9, ,
1, ,-10, ,
1, ,-10, ,
0, ,-10, ,
3, ,-9, ,
4, ,-9, ,
3, ,-9, ,
0, ,-10, ,
1, ,-10, ,
3, ,-10, ,
5, ,-9, ,
1, ,-9, ,
4, ,-9, ,
5, ,-9, ,
3, ,-9, ,
-1, ,-9, ,
4, ,-9, ,
3, ,-9, ,
3, ,-10, ,
3, ,-10, ,
3, ,-10, ,
4, ,-9, ,
4, ,-9, ,
0, ,-9, ,
0, ,-9, ,
3, ,-10, ,
1, ,-10, ,
0, ,-10, ,
4, ,-9, ,
4, ,-9, ,
3, ,-9, ,
1, ,-10, ,
1, ,-10, ,
0, ,-10, ,
3, ,-9, ,
-1, ,-9, ,
1, ,-9, ,
4, ,-9, ,
3, ,-9, ,
-1, ,-10, ,
3, ,-10, ,
1, ,-10, ,
3, ,-9, ,
3, ,-9, ,
3, ,-9, ,
4, ,-9, ,
3, ,-9, ,
0, ,-9, ,
1, ,-9, ,
3, ,-9, ,
3, ,-9, ,
0, ,-9, ,
4, ,-9, ,
4, ,-9, ,
1, ,-9, ,
0, ,-10, ,
3, ,-10, ,
1, ,-10, ,
4, ,-9, ,
1, ,-9, ,
3, ,-9, ,
4, ,-9, ,
