src/timing_folder_fast/2chSaw0000005.CSV

Format,1.0B,
Memory Length,10000,Memory Length,10000,
IntpDistance,0,IntpDistance,0,
Trigger Address,4999,Trigger Address,4999,
Trigger Level,1.192E-01,Trigger Level,1.192E-01,
Source,CH1,Source,CH2,
Vertical Units,V,Vertical Units,V,
Vertical Units Div,0,Vertical Units Div,0,
Vertical Units Extend Div,16,Vertical Units Extend Div,16,
Label,,Label,,
Probe Type,0,Probe Type,0,
Probe Ratio,1.000e+01,Probe Ratio,1.000e+00,
Vertical Scale,2.000e-02,Vertical Scale,1.000e+00,
Vertical Position,-5.120e-02,Vertical Position,2.000e-01,
Horizontal Units,S,Horizontal Units,S,
Horizontal Scale,5.000E-09,Horizontal Scale,5.000E-09,
Horizontal Position,0.000E+00,Horizontal Position,0.000E+00,
Horizontal Mode,Main,Horizontal Mode,Main,
SincET Mode,Sinc40,SincET Mode,Sinc40,
Sampling Period,2.000e-09,Sampling Period,2.000e-09,
Horizontal Old Scale,5.000E-09,Horizontal Old Scale,5.000E-09,
Horizontal Old Position,0.000E+00,Horizontal Old Position,0.000E+00,
Firmware,V1.23,Firmware,V1.23,
Mode,Fast,Mode,Fast,
Waveform Data,,Waveform Data,,
4, ,-11, ,
4, ,-11, ,
0, ,-11, ,
4, ,-11, ,
3, ,-12, ,
3, ,-12, ,
1, ,-12, ,
1, ,-12, ,
3, ,-12, ,
5, ,-11, ,
0, ,-11, ,
1, ,-11, ,
3, ,-11, ,
1, ,-11, ,
0, ,-11, ,
3, ,-11, ,
4, ,-11, ,
3, ,-11, ,
1, ,-11, ,
1, ,-11, ,
0, ,-11, ,
4, ,-11, ,
-1, ,-11, ,
3, ,-11, ,
5, ,-11, ,
3, ,-11, ,
-2, ,-11, ,
1, ,-11, ,
3, ,-12, ,
3, ,-12, ,
1, ,-12, ,
3, ,-11, ,
3, ,-11, ,
3, ,-11, ,
1, ,-11, ,
1, ,-11, ,
4, ,-11, ,
4, ,-11, ,
-1, ,-11, ,
4, ,-11, ,
3, ,-11, ,
1, ,-11, ,
1, ,-11, ,
0, ,-11, ,
3, ,-11, ,
4, ,-11, ,
0, ,-11, ,
3, ,-11, ,
4, ,-11, ,
1, ,-11, ,
-2, ,-11, ,
3, ,-11, ,
3, ,-11, ,
3, ,-11, ,
3, ,-11, ,
3, ,-11, ,
4, ,-11, ,
4, ,-11, ,
1, ,-11, ,
1, ,-11, ,
3, ,-11, ,
1, ,-11, ,
0, ,-11, ,
3, ,-11, ,
3, ,-11, ,
3, ,-11, ,
1, ,-11, ,
1, ,-12, ,
3, ,-12, ,
5, ,-12, ,
-1, ,-11, ,
1, ,-11, ,
4, ,-11, ,
4, ,-11, ,
1, ,-11, ,
3, ,-12, ,
0, ,-12, ,
3, ,-12, ,
3, ,-11, ,
3, ,-11, ,
3, ,-11, ,
5, ,-11, ,
-1, ,-12, ,
0, ,-12, ,
1, ,-12, ,
3, ,-12, ,
0, ,-12, ,
3, ,-11, ,
4, ,-11, ,
4, ,-11, ,
-1, ,-11, ,
0, ,-11, ,
0, ,-11, ,
3, ,-11, ,
0, ,-11, ,
3, ,-11, ,
4, ,-11, ,
4, ,-11, ,
0, ,-11, ,
3, ,-11, ,
3, ,-11, ,
3, ,-11, ,
0, ,-11, ,
1, ,-12, ,
3, ,-12, ,
5, ,-12, ,
1, ,-11, ,
3, ,-11, ,
4, ,-11, ,
4, ,-12, ,
-1, ,-12, ,
3, ,-12, ,
3, ,-12, ,
3, ,-12, ,
1, ,-12, ,
3, ,-11, ,
3, ,-11, ,
5, ,-11, ,
-1, ,-11, ,
3, ,-11, ,
5, ,-12, ,
3, ,-12, ,
1, ,-12, ,
3, ,-11, ,
3, ,-11, ,
4, ,-11, ,
3, ,-11, ,
3, ,-11, ,
3, ,-11, ,
3, ,-11, ,
-1, ,-11, ,
1, ,-11, ,
3, ,-11, ,
3, ,-11, ,
0, ,-11, ,
4, ,-11, ,
4, ,-11, ,
1, ,-11, ,
1, ,-11, ,
1, ,-12, ,
3, ,-12, ,
3, ,-12, ,
1, ,-12, ,
3, ,-12, ,
5, ,-11, ,
5, ,-11, ,
0, ,-11, ,
3, ,-11, ,
1, ,-11, ,
1, ,-11, ,
3, ,-11, ,
3, ,-12, ,
4, ,-12, ,
5, ,-12, ,
0, ,-11, ,
1, ,-11, ,
5, ,-11, ,
1, ,-11, ,
-2, ,-11, ,
3, ,-11, ,
4, ,-12, ,
3, ,-12, ,
1, ,-12, ,
1, ,-11, ,
1, ,-11, ,
4, ,-11, ,
0, ,-11, ,
3, ,-11, ,
4, ,-11, ,
4, ,-11, ,
0, ,-11, ,
4, ,-11, ,
3, ,-11, ,
1, ,-11, ,
1, ,-11, ,
0, ,-11, ,
3, ,-11, ,
5, ,-11, ,
0, ,-11, ,
1, ,-11, ,
3, ,-11, ,
3, ,-11, ,
-2, ,-11, ,
3, ,-11, ,
4, ,-11, ,
4, ,-11, ,
3, ,-11, ,
1, ,-11, ,
3, ,-11, ,
5, ,-11, ,
1, ,-12, ,
1, ,-12, ,
3, ,-12, ,
5, ,-11, ,
0, ,-11, ,
3, ,-11, ,
3, ,-11, ,
1, ,-11, ,
1, ,-11, ,
1, ,-11, ,
3, ,-12, ,
3, ,-12, ,
0, ,-12, ,
1, ,-11, ,
3, ,-11, ,
1, ,-11, ,
0, ,-11, ,
5, ,-11, ,
3, ,-11, ,
4, ,-11, ,
3, ,-11, ,
3, ,-11, ,
3, ,-11, ,
5, ,-11, ,
1, ,-11, ,
3, ,-11, ,
5, ,-11, ,
3, ,-11, ,
-1, ,-11, ,
3, ,-11, ,
1, ,-11, ,
3, ,-11, ,
3, ,-11, ,
3, ,-11, ,
3, ,-11, ,
3, ,-11, ,
0, ,-11, ,
1, ,-11, ,
3, ,-11, ,
1, ,-11, ,
-1, ,-11, ,
3, ,-11, ,
4, ,-11, ,
5, ,-11, ,
1, ,-11, ,
3, ,-11, ,
4, ,-11, ,
6, ,-11, ,
0, ,-11, ,
3, ,-11, ,
5, ,-11, ,
3, ,-11, ,
-1, ,-11, ,
3, ,-11, ,
3, ,-11, ,
1, ,-11, ,
0, ,-12, ,
3, ,-12, ,
3, ,-12, ,
4, ,-11, ,
1, ,-11, ,
1, ,-11, ,
3, ,-11, ,
3, ,-11, ,
0, ,-11, ,
4, ,-11, ,
4, ,-11, ,
3, ,-11, ,
0, ,-11, ,
1, ,-11, ,
1, ,-11, ,
3, ,-11, ,
-1, ,-11, ,
3, ,-11, ,
5, ,-11, ,
3, ,-11, ,
-1, ,-11, ,
3, ,-11, ,
4, ,-11, ,
5, ,-11, ,
1, ,-11, ,
3, ,-11, ,
4, ,-11, ,
3, ,-11, ,
1, ,-11, ,
3, ,-11, ,
5, ,-11, ,
4, ,-11, ,
1, ,-11, ,
4, ,-11, ,
3, ,-11, ,
3, ,-11, ,
3, ,-11, ,
3, ,-11, ,
1, ,-11, ,
4, ,-11, ,
0, ,-11, ,
3, ,-11, ,
4, ,-11, ,
3, ,-11, ,
0, ,-11, ,
3, ,-11, ,
4, ,-11, ,
4, ,-11, ,
4, ,-11, ,
4, ,-11, ,
5, ,-11, ,
5, ,-11, ,
0, ,-11, ,
0, ,-11, ,
4, ,-11, ,
4, ,-11, ,
0, ,-11, ,
4, ,-11, ,
4, ,-11, ,
4, ,-11, ,
3, ,-11, ,
1, ,-11, ,
1, ,-11, ,
4, ,-11, ,
-2, ,-11, ,
1, ,-11, ,
4, ,-11, ,
4, ,-11, ,
-1, ,-11, ,
1, ,-11, ,
3, ,-12, ,
3, ,-12, ,
3, ,-12, ,
3, ,-11, ,
4, ,-11, ,
3, ,-11, ,
1, ,-11, ,
1, ,-11, ,
3, ,-11, ,
3, ,-11, ,
0, ,-12, ,
3, ,-12, ,
5, ,-12, ,
3, ,-11, ,
0, ,-11, ,
0, ,-11, ,
1, ,-11, ,
5, ,-11, ,
1, ,-11, ,
3, ,-11, ,
4, ,-11, ,
4, ,-11, ,
0, ,-11, ,
0, ,-11, ,
1, ,-11, ,
1, ,-11, ,
3, ,-11, ,
5, ,-11, ,
5, ,-11, ,
5, ,-11, ,
1, ,-11, ,
1, ,-11, ,
3, ,-11, ,
4, ,-11, ,
-1, ,-11, ,
3, ,-11, ,
3, ,-11, ,
1, ,-11, ,
0, ,-11, ,
0, ,-11, ,
1, ,-11, ,
3, ,-11, ,
1, ,-11, ,
3, ,-11, ,
4, ,-11, ,
4, ,-11, ,
-1, ,-11, ,
1, ,-11, ,
0, ,-11, ,
1, ,-11, ,
3, ,-11, ,
3, ,-11, ,
4, ,-11, ,
5, ,-11, ,
-1, ,-11, ,
3, ,-11, ,
4, ,-11, ,
3, ,-11, ,
1, ,-11, ,
4, ,-11, ,
4, ,-11, ,
3, ,-11, ,
3, ,-11, ,
3, ,-12, ,
3, ,-12, ,
4, ,-12, ,
-1, ,-11, ,
3, ,-11, ,
4, ,-11, ,
4, ,-11, ,
-1, ,-11, ,
0, ,-11, ,
3, ,-11, ,
5, ,-11, ,
3, ,-11, ,
3, ,-11, ,
3, ,-11, ,
3, ,-11, ,
0, ,-11, ,
1, ,-11, ,
3, ,-11, ,
1, ,-11, ,
0, ,-11, ,
4, ,-11, ,
4, ,-11, ,
3, ,-11, ,
1, ,-11, ,
1, ,-12, ,
1, ,-12, ,
4, ,-12, ,
0, ,-11, ,
3, ,-11, ,
5, ,-11, ,
3, ,-11, ,
-1, ,-11, ,
0, ,-11, ,
1, ,-11, ,
3, ,-11, ,
3, ,-11, ,
3, ,-11, ,
4, ,-11, ,
5, ,-11, ,
0, ,-11, ,
1, ,-11, ,
3, ,-11, ,
4, ,-11, ,
0, ,-11, ,
4, ,-11, ,
4, ,-12, ,
1, ,-12, ,
0, ,-12, ,
3, ,-11, ,
4, ,-11, ,
3, ,-11, ,
1, ,-11, ,
3, ,-11, ,
4, ,-11, ,
3, ,-11, ,
0, ,-11, ,
3, ,-11, ,
3, ,-11, ,
3, ,-11, ,
1, ,-11, ,
1, ,-11, ,
1, ,-11, ,
6, ,-11, ,
0, ,-11, ,
1, ,-11, ,
3, ,-11, ,
1, ,-11, ,
-1, ,-11, ,
4, ,-11, ,
5, ,-11, ,
4, ,-11, ,
3, ,-11, ,
1, ,-11, ,
0, ,-11, ,
4, ,-11, ,
0, ,-11, ,
3, ,-11, ,
5, ,-11, ,
3, ,-11, ,
-1, ,-11, ,
4, ,-11, ,
3, ,-11, ,
3, ,-11, ,
3, ,-11, ,
3, ,-12, ,
4, ,-12, ,
4, ,-12, ,
0, ,-11, ,
3, ,-11, ,
4, ,-11, ,
3, ,-11, ,
0, ,-11, ,
5, ,-11, ,
3, ,-11, ,
4, ,-11, ,
1, ,-11, ,
1, ,-11, ,
0, ,-11, ,
3, ,-11, ,
-1, ,-11, ,
1, ,-11, ,
4, ,-11, ,
4, ,-11, ,
1, ,-11, ,
3, ,-11, ,
3, ,-11, ,
3, ,-11, ,
3, ,-11, ,
3, ,-11, ,
4, ,-11, ,
5, ,-11, ,
0, ,-11, ,
1, ,-11, ,
3, ,-11, ,
3, ,-11, ,
1, ,-11, ,
4, ,-11, ,
5, ,-11, ,
4, ,-11, ,
1, ,-11, ,
0, ,-11, ,
0, ,-11, ,
4, ,-11, ,
-1, ,-11, ,
3, ,-11, ,
5, ,-11, ,
4, ,-11, ,
0, ,-11, ,
1, ,-11, ,
4, ,-11, ,
4, ,-11, ,
3, ,-11, ,
4, ,-11, ,
5, ,-11, ,
5, ,-11, ,
-1, ,-11, ,
3, ,-11, ,
4, ,-11, ,
4, ,-11, ,
0, ,-11, ,
1, ,-11, ,
3, ,-12, ,
3, ,-12, ,
0, ,-12, ,
1, ,-11, ,
1, ,-11, ,
3, ,-11, ,
0, ,-11, ,
3, ,-11, ,
6, ,-11, ,
4, ,-11, ,
-1, ,-11, ,
3, ,-11, ,
0, ,-11, ,
4, ,-11, ,
1, ,-11, ,
1, ,-12, ,
4, ,-12, ,
5, ,-12, ,
-2, ,-11, ,
3, ,-11, ,
3, ,-11, ,
1, ,-11, ,
1, ,-11, ,
5, ,-11, ,
3, ,-11, ,
4, ,-11, ,
0, ,-11, ,
3, ,-12, ,
3, ,-12, ,
5, ,-12, ,
1, ,-11, ,
4, ,-11, ,
6, ,-11, ,
4, ,-11, ,
-1, ,-11, ,
1, ,-11, ,
3, ,-11, ,
4, ,-11, ,
4, ,-11, ,
3, ,-11, ,
3, ,-11, ,
4, ,-11, ,
-1, ,-11, ,
1, ,-11, ,
3, ,-11, ,
3, ,-11, ,
0, ,-11, ,
3, ,-11, ,
3, ,-11, ,
3, ,-11, ,
3, ,-11, ,
3, ,-11, ,
0, ,-11, ,
5, ,-11, ,
1, ,-11, ,
3, ,-11, ,
6, ,-11, ,
3, ,-11, ,
0, ,-11, ,
4, ,-11, ,
0, ,-12, ,
3, ,-12, ,
0, ,-12, ,
1, ,-11, ,
3, ,-11, ,
4, ,-11, ,
0, ,-11, ,
1, ,-11, ,
3, ,-11, ,
3, ,-11, ,
0, ,-11, ,
4, ,-11, ,
4, ,-12, ,
3, ,-12, ,
1, ,-12, ,
0, ,-11, ,
0, ,-11, ,
3, ,-11, ,
-2, ,-11, ,
1, ,-11, ,
4, ,-12, ,
4, ,-12, ,
-1, ,-12, ,
1, ,-11, ,
3, ,-11, ,
3, ,-11, ,
3, ,-11, ,
3, ,-11, ,
3, ,-11, ,
3, ,-11, ,
0, ,-11, ,
0, ,-11, ,
3, ,-11, ,
1, ,-11, ,
0, ,-11, ,
3, ,-11, ,
3, ,-11, ,
3, ,-11, ,
3, ,-11, ,
3, ,-11, ,
3, ,-11, ,
5, ,-11, ,
0, ,-11, ,
3, ,-11, ,
4, ,-11, ,
5, ,-11, ,
0, ,-11, ,
3, ,-11, ,
3, ,-11, ,
4, ,-11, ,
1, ,-11, ,
1, ,-11, ,
1, ,-11, ,
5, ,-11, ,
0, ,-11, ,
0, ,-11, ,
3, ,-12, ,
3, ,-12, ,
0, ,-12, ,
1, ,-11, ,
3, ,-12, ,
3, ,-12, ,
0, ,-12, ,
1, ,-11, ,
1, ,-11, ,
5, ,-11, ,
-1, ,-12, ,
1, ,-12, ,
4, ,-12, ,
3, ,-11, ,
1, ,-11, ,
3, ,-11, ,
3, ,-11, ,
3, ,-11, ,
3, ,-11, ,
1, ,-11, ,
3, ,-11, ,
5, ,-11, ,
0, ,-11, ,
1, ,-11, ,
3, ,-11, ,
3, ,-11, ,
0, ,-11, ,
1, ,-11, ,
4, ,-11, ,
4, ,-11, ,
1, ,-11, ,
1, ,-11, ,
1, ,-11, ,
4, ,-11, ,
0, ,-11, ,
1, ,-11, ,
3, ,-11, ,
3, ,-11, ,
0, ,-11, ,
3, ,-11, ,
1, ,-12, ,
1, ,-12, ,
3, ,-12, ,
4, ,-11, ,
4, ,-11, ,
4, ,-11, ,
0, ,-11, ,
1, ,-11, ,
3, ,-11, ,
3, ,-11, ,
-1, ,-11, ,
5, ,-11, ,
4, ,-11, ,
4, ,-11, ,
3, ,-11, ,
1, ,-11, ,
1, ,-11, ,
3, ,-11, ,
-1, ,-11, ,
3, ,-11, ,
4, ,-11, ,
3, ,-11, ,
1, ,-11, ,
3, ,-11, ,
4, ,-11, ,
4, ,-11, ,
3, ,-11, ,
1, ,-11, ,
3, ,-11, ,
5, ,-11, ,
-1, ,-11, ,
1, ,-11, ,
3, ,-11, ,
1, ,-11, ,
0, ,-11, ,
1, ,-11, ,
3, ,-11, ,
3, ,-11, ,
3, ,-11, ,
1, ,-11, ,
1, ,-11, ,
5, ,-11, ,
1, ,-12, ,
1, ,-12, ,
5, ,-12, ,
4, ,-11, ,
0, ,-11, ,
3, ,-11, ,
4, ,-11, ,
3, ,-11, ,
3, ,-12, ,
3, ,-12, ,
4, ,-12, ,
4, ,-11, ,
0, ,-11, ,
3, ,-11, ,
4, ,-11, ,
3, ,-11, ,
0, ,-11, ,
4, ,-11, ,
3, ,-12, ,
3, ,-12, ,
1, ,-12, ,
3, ,-11, ,
1, ,-11, ,
4, ,-11, ,
0, ,-11, ,
1, ,-11, ,
5, ,-11, ,
3, ,-11, ,
-1, ,-11, ,
3, ,-11, ,
3, ,-11, ,
3, ,-11, ,
3, ,-11, ,
3, ,-11, ,
4, ,-11, ,
4, ,-11, ,
-1, ,-11, ,
1, ,-11, ,
3, ,-11, ,
3, ,-11, ,
-1, ,-11, ,
1, ,-11, ,
3, ,-11, ,
3, ,-11, ,
3, ,-11, ,
3, ,-11, ,
3, ,-11, ,
6, ,-11, ,
-1, ,-11, ,
0, ,-11, ,
3, ,-11, ,
3, ,-11, ,
0, ,-11, ,
4, ,-11, ,
3, ,-11, ,
4, ,-11, ,
4, ,-11, ,
3, ,-11, ,
3, ,-11, ,
3, ,-11, ,
0, ,-11, ,
3, ,-11, ,
4, ,-11, ,
4, ,-11, ,
-2, ,-11, ,
3, ,-11, ,
4, ,-11, ,
3, ,-11, ,
1, ,-11, ,
3, ,-11, ,
-1, ,-11, ,
5, ,-11, ,
1, ,-11, ,
3, ,-11, ,
5, ,-11, ,
5, ,-11, ,
-1, ,-11, ,
3, ,-11, ,
3, ,-11, ,
3, ,-11, ,
3, ,-11, ,
3, ,-11, ,
4, ,-11, ,
4, ,-11, ,
0, ,-11, ,
1, ,-11, ,
3, ,-11, ,
3, ,-11, ,
0, ,-11, ,
3, ,-11, ,
4, ,-11, ,
4, ,-11, ,
0, ,-11, ,
1, ,-11, ,
3, ,-11, ,
5, ,-11, ,
1, ,-11, ,
3, ,-11, ,
4, ,-11, ,
4, ,-11, ,
1, ,-11, ,
4, ,-11, ,
4, ,-12, ,
3, ,-12, ,
4, ,-12, ,
4, ,-11, ,
4, ,-11, ,
5, ,-11, ,
-1, ,-11, ,
1, ,-11, ,
4, ,-11, ,
3, ,-11, ,
-2, ,-11, ,
3, ,-11, ,
4, ,-11, ,
4, ,-11, ,
3, ,-11, ,
3, ,-11, ,
3, ,-11, ,
5, ,-11, ,
0, ,-11, ,
3, ,-11, ,
4, ,-11, ,
3, ,-11, ,
-1, ,-11, ,
4, ,-11, ,
5, ,-11, ,
4, ,-11, ,
4, ,-11, ,
3, ,-11, ,
4, ,-11, ,
5, ,-11, ,
-1, ,-11, ,
1, ,-11, ,
3, ,-12, ,
1, ,-12, ,
0, ,-12, ,
5, ,-11, ,
4, ,-11, ,
3, ,-11, ,
3, ,-11, ,
1, ,-11, ,
1, ,-11, ,
5, ,-11, ,
-1, ,-12, ,
1, ,-12, ,
4, ,-12, ,
3, ,-11, ,
-1, ,-11, ,
4, ,-11, ,
3, ,-12, ,
3, ,-12, ,
3, ,-12, ,
3, ,-11, ,
3, ,-11, ,
5, ,-11, ,
1, ,-11, ,
4, ,-11, ,
5, ,-11, ,
3, ,-11, ,
-1, ,-11, ,
4, ,-11, ,
4, ,-12, ,
3, ,-12, ,
3, ,-12, ,
4, ,-11, ,
3, ,-11, ,
6, ,-11, ,
1, ,-11, ,
1, ,-11, ,
4, ,-11, ,
4, ,-11, ,
0, ,-11, ,
1, ,-11, ,
3, ,-12, ,
3, ,-12, ,
3, ,-12, ,
3, ,-11, ,
3, ,-11, ,
6, ,-11, ,
-1, ,-11, ,
1, ,-11, ,
3, ,-11, ,
4, ,-11, ,
1, ,-11, ,
4, ,-11, ,
4, ,-11, ,
4, ,-11, ,
4, ,-11, ,
3, ,-11, ,
1, ,-11, ,
8, ,-11, ,
0, ,-11, ,
1, ,-11, ,
3, ,-11, ,
3, ,-11, ,
1, ,-11, ,
3, ,-11, ,
3, ,-11, ,
4, ,-11, ,
3, ,-11, ,
3, ,-11, ,
4, ,-11, ,
5, ,-11, ,
1, ,-11, ,
3, ,-11, ,
4, ,-11, ,
5, ,-11, ,
0, ,-11, ,
3, ,-11, ,
4, ,-11, ,
3, ,-11, ,
3, ,-11, ,
1, ,-11, ,
1, ,-11, ,
5, ,-11, ,
1, ,-11, ,
4, ,-11, ,
5, ,-11, ,
5, ,-11, ,
-1, ,-11, ,
4, ,-11, ,
3, ,-11, ,
3, ,-11, ,
3, ,-11, ,
3, ,-11, ,
3, ,-11, ,
5, ,-11, ,
-1, ,-11, ,
3, ,-11, ,
3, ,-11, ,
1, ,-11, ,
0, ,-11, ,
4, ,-11, ,
4, ,-11, ,
3, ,-11, ,
0, ,-11, ,
1, ,-11, ,
3, ,-11, ,
5, ,-11, ,
-1, ,-11, ,
3, ,-11, ,
5, ,-11, ,
3, ,-11, ,
-1, ,-11, ,
3, ,-11, ,
3, ,-11, ,
3, ,-11, ,
3, ,-11, ,
1, ,-11, ,
3, ,-11, ,
4, ,-11, ,
1, ,-11, ,
3, ,-11, ,
4, ,-11, ,
4, ,-11, ,
0, ,-11, ,
3, ,-11, ,
4, ,-11, ,
4, ,-11, ,
3, ,-11, ,
1, ,-11, ,
1, ,-11, ,
4, ,-11, ,
0, ,-11, ,
1, ,-11, ,
5, ,-11, ,
4, ,-11, ,
-1, ,-11, ,
3, ,-11, ,
3, ,-12, ,
3, ,-12, ,
1, ,-12, ,
3, ,-11, ,
5, ,-11, ,
6, ,-11, ,
0, ,-11, ,
3, ,-11, ,
5, ,-11, ,
4, ,-11, ,
1, ,-11, ,
4, ,-11, ,
5, ,-11, ,
4, ,-11, ,
1, ,-11, ,
1, ,-11, ,
1, ,-11, ,
6, ,-11, ,
-1, ,-11, ,
3, ,-11, ,
6, ,-11, ,
4, ,-11, ,
0, ,-11, ,
5, ,-11, ,
3, ,-12, ,
3, ,-12, ,
1, ,-12, ,
3, ,-11, ,
4, ,-11, ,
4, ,-11, ,
-1, ,-11, ,
3, ,-11, ,
6, ,-11, ,
5, ,-11, ,
0, ,-11, ,
4, ,-11, ,
4, ,-11, ,
3, ,-11, ,
1, ,-11, ,
3, ,-11, ,
1, ,-11, ,
5, ,-11, ,
1, ,-11, ,
4, ,-11, ,
5, ,-11, ,
5, ,-11, ,
0, ,-11, ,
3, ,-11, ,
3, ,-11, ,
3, ,-11, ,
1, ,-11, ,
1, ,-11, ,
3, ,-11, ,
6, ,-11, ,
-1, ,-11, ,
1, ,-11, ,
3, ,-11, ,
4, ,-11, ,
0, ,-11, ,
3, ,-11, ,
4, ,-11, ,
4, ,-11, ,
4, ,-11, ,
3, ,-11, ,
3, ,-11, ,
5, ,-11, ,
0, ,-11, ,
3, ,-11, ,
5, ,-11, ,
3, ,-11, ,
0, ,-11, ,
1, ,-11, ,
3, ,-11, ,
3, ,-11, ,
1, ,-11, ,
1, ,-11, ,
3, ,-11, ,
4, ,-11, ,
-1, ,-11, ,
1, ,-11, ,
3, ,-11, ,
3, ,-11, ,
1, ,-11, ,
4, ,-11, ,
3, ,-12, ,
3, ,-12, ,
1, ,-12, ,
1, ,-12, ,
3, ,-12, ,
5, ,-12, ,
0, ,-11, ,
3, ,-11, ,
5, ,-11, ,
4, ,-11, ,
0, ,-11, ,
4, ,-11, ,
1, ,-11, ,
3, ,-11, ,
3, ,-11, ,
3, ,-11, ,
4, ,-11, ,
8, ,-11, ,
0, ,-11, ,
3, ,-11, ,
4, ,-11, ,
3, ,-11, ,
0, ,-11, ,
4, ,-11, ,
4, ,-11, ,
5, ,-11, ,
3, ,-11, ,
1, ,-12, ,
1, ,-12, ,
5, ,-12, ,
-1, ,-11, ,
1, ,-11, ,
4, ,-12, ,
3, ,-12, ,
0, ,-12, ,
1, ,-11, ,
3, ,-11, ,
3, ,-11, ,
1, ,-11, ,
4, ,-11, ,
5, ,-11, ,
4, ,-11, ,
0, ,-11, ,
3, ,-11, ,
4, ,-11, ,
3, ,-11, ,
0, ,-11, ,
3, ,-11, ,
3, ,-11, ,
5, ,-11, ,
1, ,-11, ,
1, ,-11, ,
3, ,-11, ,
3, ,-11, ,
0, ,-11, ,
0, ,-11, ,
4, ,-11, ,
4, ,-11, ,
0, ,-11, ,
3, ,-11, ,
3, ,-12, ,
4, ,-12, ,
3, ,-12, ,
3, ,-11, ,
4, ,-11, ,
5, ,-11, ,
0, ,-11, ,
3, ,-11, ,
5, ,-11, ,
3, ,-11, ,
-1, ,-11, ,
5, ,-11, ,
4, ,-11, ,
4, ,-11, ,
1, ,-11, ,
3, ,-11, ,
0, ,-11, ,
4, ,-11, ,
0, ,-12, ,
3, ,-12, ,
4, ,-12, ,
4, ,-11, ,
1, ,-11, ,
4, ,-11, ,
3, ,-12, ,
3, ,-12, ,
3, ,-12, ,
3, ,-11, ,
4, ,-11, ,
5, ,-11, ,
-1, ,-11, ,
3, ,-11, ,
3, ,-11, ,
1, ,-11, ,
0, ,-11, ,
5, ,-11, ,
4, ,-11, ,
4, ,-11, ,
3, ,-11, ,
1, ,-11, ,
3, ,-11, ,
5, ,-11, ,
0, ,-11, ,
1, ,-11, ,
3, ,-11, ,
3, ,-11, ,
1, ,-11, ,
4, ,-11, ,
3, ,-11, ,
3, ,-11, ,
1, ,-11, ,
3, ,-11, ,
3, ,-11, ,
3, ,-11, ,
3, ,-11, ,
1, ,-11, ,
3, ,-11, ,
3, ,-11, ,
1, ,-11, ,
3, ,-11, ,
4, ,-11, ,
4, ,-11, ,
3, ,-11, ,
3, ,-11, ,
3, ,-11, ,
4, ,-11, ,
0, ,-11, ,
3, ,-11, ,
4, ,-11, ,
4, ,-11, ,
-1, ,-11, ,
4, ,-11, ,
3, ,-12, ,
4, ,-12, ,
1, ,-12, ,
3, ,-11, ,
4, ,-11, ,
4, ,-11, ,
-1, ,-11, ,
1, ,-11, ,
4, ,-11, ,
3, ,-11, ,
0, ,-11, ,
4, ,-11, ,
4, ,-11, ,
4, ,-11, ,
3, ,-11, ,
1, ,-11, ,
1, ,-11, ,
3, ,-11, ,
3, ,-11, ,
3, ,-11, ,
4, ,-11, ,
3, ,-11, ,
-1, ,-11, ,
5, ,-11, ,
1, ,-12, ,
3, ,-12, ,
4, ,-12, ,
4, ,-11, ,
4, ,-11, ,
4, ,-11, ,
1, ,-11, ,
3, ,-11, ,
5, ,-11, ,
3, ,-11, ,
-1, ,-11, ,
4, ,-11, ,
4, ,-12, ,
3, ,-12, ,
3, ,-12, ,
3, ,-11, ,
3, ,-11, ,
4, ,-11, ,
-1, ,-11, ,
1, ,-11, ,
4, ,-11, ,
3, ,-11, ,
-1, ,-11, ,
3, ,-11, ,
3, ,-11, ,
3, ,-11, ,
3, ,-11, ,
3, ,-11, ,
3, ,-11, ,
6, ,-11, ,
0, ,-11, ,
0, ,-11, ,
3, ,-11, ,
4, ,-11, ,
0, ,-11, ,
4, ,-11, ,
4, ,-12, ,
3, ,-12, ,
1, ,-12, ,
3, ,-11, ,
3, ,-11, ,
4, ,-11, ,
0, ,-11, ,
3, ,-11, ,
4, ,-11, ,
5, ,-11, ,
-1, ,-11, ,
0, ,-11, ,
3, ,-11, ,
3, ,-11, ,
1, ,-11, ,
1, ,-11, ,
4, ,-11, ,
4, ,-11, ,
-1, ,-11, ,
4, ,-11, ,
4, ,-11, ,
1, ,-11, ,
0, ,-11, ,
5, ,-11, ,
5, ,-12, ,
4, ,-12, ,
3, ,-12, ,
1, ,-11, ,
3, ,-11, ,
6, ,-11, ,
0, ,-12, ,
3, ,-12, ,
4, ,-12, ,
3, ,-11, ,
-1, ,-11, ,
4, ,-11, ,
1, ,-11, ,
3, ,-11, ,
3, ,-11, ,
1, ,-11, ,
3, ,-11, ,
5, ,-11, ,
-1, ,-11, ,
1, ,-11, ,
3, ,-11, ,
3, ,-11, ,
0, ,-11, ,
4, ,-11, ,
4, ,-11, ,
1, ,-11, ,
0, ,-12, ,
3, ,-12, ,
1, ,-12, ,
4, ,-11, ,
1, ,-11, ,
3, ,-11, ,
4, ,-11, ,
4, ,-11, ,
1, ,-11, ,
4, ,-11, ,
1, ,-11, ,
3, ,-11, ,
3, ,-12, ,
3, ,-12, ,
4, ,-12, ,
5, ,-11, ,
-1, ,-11, ,
3, ,-11, ,
5, ,-11, ,
3, ,-11, ,
0, ,-11, ,
3, ,-11, ,
3, ,-11, ,
3, ,-11, ,
3, ,-11, ,
3, ,-12, ,
3, ,-12, ,
6, ,-12, ,
-1, ,-11, ,
4, ,-11, ,
6, ,-11, ,
4, ,-11, ,
-1, ,-11, ,
3, ,-11, ,
3, ,-11, ,
1, ,-11, ,
0, ,-11, ,
1, ,-12, ,
3, ,-12, ,
6, ,-12, ,
-1, ,-11, ,
1, ,-11, ,
3, ,-11, ,
3, ,-11, ,
0, ,-11, ,
4, ,-11, ,
4, ,-11, ,
3, ,-11, ,
1, ,-11, ,
0, ,-12, ,
3, ,-12, ,
5, ,-12, ,
0, ,-11, ,
3, ,-11, ,
4, ,-11, ,
5, ,-11, ,
0, ,-11, ,
4, ,-11, ,
4, ,-12, ,
4, ,-12, ,
3, ,-12, ,
3, ,-11, ,
3, ,-11, ,
5, ,-11, ,
0, ,-11, ,
1, ,-11, ,
3, ,-11, ,
3, ,-11, ,
0, ,-11, ,
4, ,-11, ,
5, ,-11, ,
3, ,-11, ,
0, ,-11, ,
1, ,-11, ,
1, ,-11, ,
4, ,-11, ,
-1, ,-11, ,
3, ,-11, ,
6, ,-11, ,
4, ,-11, ,
0, ,-11, ,
3, ,-11, ,
3, ,-11, ,
3, ,-11, ,
3, ,-11, ,
3, ,-11, ,
3, ,-11, ,
8, ,-11, ,
0, ,-11, ,
3, ,-11, ,
5, ,-11, ,
3, ,-11, ,
0, ,-11, ,
4, ,-11, ,
3, ,-12, ,
3, ,-12, ,
3, ,-12, ,
3, ,-12, ,
3, ,-12, ,
8, ,-12, ,
-1, ,-11, ,
0, ,-11, ,
4, ,-11, ,
5, ,-11, ,
-1, ,-11, ,
4, ,-11, ,
3, ,-12, ,
3, ,-12, ,
1, ,-12, ,
1, ,-11, ,
3, ,-11, ,
5, ,-11, ,
0, ,-11, ,
4, ,-11, ,
6, ,-11, ,
4, ,-11, ,
0, ,-11, ,
5, ,-11, ,
5, ,-11, ,
3, ,-11, ,
0, ,-11, ,
4, ,-11, ,
3, ,-11, ,
3, ,-11, ,
3, ,-11, ,
4, ,-11, ,
4, ,-11, ,
3, ,-11, ,
0, ,-11, ,
4, ,-11, ,
4, ,-11, ,
3, ,-11, ,
3, ,-11, ,
3, ,-11, ,
4, ,-11, ,
5, ,-11, ,
0, ,-11, ,
1, ,-11, ,
3, ,-11, ,
1, ,-11, ,
0, ,-11, ,
4, ,-11, ,
3, ,-11, ,
1, ,-11, ,
0, ,-11, ,
4, ,-11, ,
3, ,-11, ,
5, ,-11, ,
1, ,-11, ,
4, ,-11, ,
5, ,-11, ,
4, ,-11, ,
-1, ,-11, ,
4, ,-11, ,
4, ,-12, ,
4, ,-12, ,
3, ,-12, ,
3, ,-11, ,
4, ,-11, ,
4, ,-11, ,
0, ,-11, ,
3, ,-11, ,
5, ,-12, ,
3, ,-12, ,
0, ,-12, ,
5, ,-11, ,
4, ,-11, ,
4, ,-11, ,
3, ,-11, ,
3, ,-11, ,
3, ,-11, ,
5, ,-11, ,
-1, ,-11, ,
1, ,-11, ,
4, ,-11, ,
3, ,-11, ,
1, ,-11, ,
3, ,-11, ,
4, ,-11, ,
3, ,-11, ,
1, ,-11, ,
3, ,-11, ,
4, ,-11, ,
4, ,-11, ,
0, ,-11, ,
3, ,-11, ,
5, ,-11, ,
3, ,-11, ,
-1, ,-11, ,
4, ,-11, ,
4, ,-11, ,
4, ,-11, ,
3, ,-12, ,
1, ,-12, ,
3, ,-12, ,
4, ,-11, ,
0, ,-11, ,
3, ,-11, ,
6, ,-12, ,
4, ,-12, ,
1, ,-12, ,
3, ,-11, ,
4, ,-11, ,
4, ,-11, ,
4, ,-12, ,
4, ,-12, ,
4, ,-12, ,
5, ,-11, ,
0, ,-11, ,
3, ,-11, ,
4, ,-11, ,
3, ,-12, ,
0, ,-12, ,
5, ,-12, ,
4, ,-11, ,
3, ,-11, ,
3, ,-11, ,
1, ,-11, ,
0, ,-11, ,
5, ,-11, ,
1, ,-11, ,
0, ,-11, ,
4, ,-11, ,
6, ,-11, ,
0, ,-11, ,
3, ,-11, ,
3, ,-11, ,
1, ,-11, ,
3, ,-11, ,
5, ,-11, ,
4, ,-11, ,
4, ,-11, ,
0, ,-11, ,
3, ,-11, ,
4, ,-12, ,
5, ,-12, ,
0, ,-12, ,
4, ,-11, ,
5, ,-12, ,
4, ,-12, ,
3, ,-12, ,
1, ,-11, ,
3, ,-11, ,
5, ,-11, ,
1, ,-11, ,
3, ,-11, ,
3, ,-11, ,
3, ,-11, ,
3, ,-11, ,
3, ,-11, ,
3, ,-12, ,
3, ,-12, ,
0, ,-12, ,
3, ,-11, ,
4, ,-11, ,
5, ,-11, ,
0, ,-11, ,
3, ,-11, ,
4, ,-11, ,
5, ,-11, ,
1, ,-11, ,
4, ,-11, ,
4, ,-11, ,
4, ,-11, ,
1, ,-11, ,
3, ,-11, ,
3, ,-11, ,
5, ,-11, ,
1, ,-11, ,
1, ,-11, ,
5, ,-11, ,
4, ,-11, ,
1, ,-11, ,
1, ,-11, ,
3, ,-11, ,
3, ,-11, ,
3, ,-11, ,
1, ,-11, ,
3, ,-11, ,
5, ,-11, ,
3, ,-11, ,
3, ,-11, ,
3, ,-11, ,
3, ,-11, ,
-1, ,-11, ,
4, ,-11, ,
4, ,-11, ,
4, ,-11, ,
3, ,-11, ,
3, ,-11, ,
3, ,-11, ,
4, ,-11, ,
0, ,-11, ,
3, ,-11, ,
6, ,-11, ,
4, ,-11, ,
1, ,-11, ,
3, ,-11, ,
1, ,-12, ,
3, ,-12, ,
3, ,-12, ,
3, ,-11, ,
4, ,-11, ,
4, ,-11, ,
-1, ,-11, ,
1, ,-11, ,
4, ,-11, ,
4, ,-11, ,
0, ,-11, ,
3, ,-11, ,
4, ,-11, ,
4, ,-11, ,
1, ,-11, ,
3, ,-11, ,
4, ,-11, ,
4, ,-11, ,
0, ,-11, ,
3, ,-11, ,
5, ,-11, ,
4, ,-11, ,
0, ,-11, ,
1, ,-11, ,
3, ,-11, ,
3, ,-11, ,
1, ,-11, ,
3, ,-11, ,
5, ,-11, ,
5, ,-11, ,
0, ,-12, ,
3, ,-12, ,
4, ,-12, ,
5, ,-11, ,
0, ,-11, ,
6, ,-11, ,
3, ,-11, ,
3, ,-11, ,
3, ,-11, ,
3, ,-11, ,
4, ,-11, ,
4, ,-11, ,
0, ,-11, ,
3, ,-11, ,
5, ,-11, ,
4, ,-11, ,
0, ,-11, ,
4, ,-11, ,
4, ,-11, ,
3, ,-11, ,
3, ,-11, ,
3, ,-11, ,
4, ,-11, ,
5, ,-11, ,
1, ,-11, ,
4, ,-11, ,
5, ,-12, ,
4, ,-12, ,
1, ,-12, ,
6, ,-11, ,
5, ,-11, ,
3, ,-11, ,
1, ,-11, ,
1, ,-11, ,
1, ,-11, ,
5, ,-11, ,
1, ,-12, ,
3, ,-12, ,
4, ,-12, ,
3, ,-11, ,
0, ,-11, ,
4, ,-11, ,
4, ,-11, ,
4, ,-11, ,
1, ,-11, ,
3, ,-11, ,
3, ,-11, ,
6, ,-11, ,
0, ,-11, ,
0, ,-11, ,
5, ,-11, ,
4, ,-11, ,
1, ,-11, ,
4, ,-11, ,
4, ,-11, ,
5, ,-11, ,
3, ,-11, ,
1, ,-11, ,
1, ,-11, ,
3, ,-11, ,
0, ,-11, ,
1, ,-11, ,
5, ,-11, ,
4, ,-11, ,
1, ,-11, ,
1, ,-11, ,
3, ,-11, ,
1, ,-11, ,
1, ,-11, ,
1, ,-12, ,
3, ,-12, ,
4, ,-12, ,
-1, ,-11, ,
