src/dark_1656/temp00359.CSV

Format,1.0B,
Memory Length,10000,
IntpDistance,0,
Trigger Address,4999,
Trigger Level,-1.800E-01,
Source,CH1,
Vertical Units,V,
Vertical Units Div,0,
Vertical Units Extend Div,16,
Label,,
Probe Type,0,
Probe Ratio,1.000e+01,
Vertical Scale,5.000e-01,
Vertical Position,-1.820e+00,
Horizontal Units,S,
Horizontal Scale,2.000E-06,
Horizontal Position,0.000E+00,
Horizontal Mode,Main,
SincET Mode,Real Time,
Sampling Period,2.000e-09,
Horizontal Old Scale,2.000E-06,
Horizontal Old Position,0.000E+00,
Firmware,V1.23,
Mode,Fast,
Waveform Data,
1,
1,
-1,
3,
1,
1,
3,
1,
1,
3,
1,
-1,
1,
1,
-1,
3,
1,
1,
3,
1,
1,
3,
1,
1,
3,
1,
-1,
3,
1,
1,
3,
1,
1,
3,
1,
1,
3,
1,
-1,
3,
1,
1,
1,
1,
1,
3,
1,
1,
1,
1,
-1,
3,
1,
1,
3,
1,
1,
3,
1,
-1,
1,
1,
-1,
3,
1,
1,
3,
1,
1,
3,
1,
1,
1,
1,
-1,
3,
1,
1,
3,
1,
1,
3,
1,
1,
3,
1,
-1,
3,
-1,
1,
3,
1,
-1,
3,
1,
1,
1,
1,
-1,
3,
1,
1,
3,
1,
1,
3,
1,
1,
1,
1,
-1,
3,
1,
1,
3,
1,
1,
3,
1,
1,
1,
1,
-1,
3,
1,
1,
3,
1,
1,
3,
1,
-1,
1,
1,
-1,
3,
1,
1,
3,
1,
1,
3,
1,
1,
1,
1,
-1,
3,
1,
1,
3,
1,
1,
3,
1,
-1,
1,
1,
-1,
3,
1,
1,
3,
1,
1,
3,
1,
-1,
1,
1,
-1,
3,
1,
1,
3,
1,
1,
3,
1,
-1,
1,
1,
-1,
3,
-1,
1,
3,
1,
1,
3,
1,
1,
1,
1,
-1,
3,
1,
1,
3,
1,
1,
3,
1,
1,
1,
1,
-1,
3,
1,
1,
3,
1,
1,
3,
1,
1,
1,
1,
-1,
3,
1,
1,
3,
1,
1,
3,
1,
-1,
1,
1,
-1,
3,
1,
1,
3,
1,
1,
3,
1,
1,
1,
1,
-1,
3,
1,
1,
3,
1,
1,
3,
1,
-1,
1,
1,
-1,
3,
-1,
1,
3,
1,
1,
3,
1,
1,
1,
1,
-1,
3,
1,
1,
3,
1,
1,
3,
1,
-1,
1,
1,
-1,
3,
1,
1,
3,
1,
1,
3,
1,
1,
1,
1,
-1,
3,
1,
1,
3,
1,
1,
3,
1,
-1,
1,
1,
-1,
3,
1,
1,
3,
1,
1,
3,
1,
-1,
1,
1,
-1,
3,
1,
1,
3,
1,
1,
3,
1,
1,
1,
1,
-1,
3,
1,
1,
3,
1,
1,
3,
1,
1,
1,
1,
-1,
3,
1,
1,
3,
1,
1,
3,
1,
1,
3,
1,
-1,
3,
-1,
1,
3,
1,
1,
3,
1,
-1,
1,
1,
-1,
3,
1,
1,
3,
1,
1,
3,
1,
-1,
1,
1,
-1,
3,
1,
1,
3,
1,
1,
1,
-1,
-1,
1,
1,
-1,
3,
1,
1,
3,
1,
-1,
1,
1,
1,
1,
1,
-1,
3,
1,
1,
3,
1,
1,
3,
1,
-1,
1,
1,
-1,
3,
-1,
1,
3,
1,
1,
1,
1,
-1,
1,
1,
-1,
3,
1,
1,
3,
1,
1,
3,
1,
-1,
1,
1,
-1,
3,
1,
1,
3,
1,
1,
3,
1,
-1,
3,
1,
-1,
3,
-1,
1,
3,
1,
1,
1,
1,
1,
1,
1,
-1,
3,
-1,
1,
3,
1,
1,
3,
1,
1,
1,
1,
-1,
3,
1,
1,
3,
1,
1,
3,
1,
1,
1,
1,
-1,
3,
1,
1,
3,
1,
1,
3,
1,
-1,
1,
1,
-1,
1,
-1,
1,
3,
1,
1,
1,
1,
-1,
1,
1,
-1,
3,
1,
1,
3,
1,
1,
3,
1,
-1,
1,
1,
-1,
3,
1,
1,
3,
1,
1,
1,
1,
-1,
1,
1,
-1,
3,
-1,
1,
3,
1,
1,
3,
1,
1,
1,
1,
-1,
3,
1,
1,
3,
1,
-1,
3,
1,
-1,
1,
1,
-1,
3,
1,
1,
3,
1,
1,
3,
1,
-1,
1,
1,
-1,
3,
-1,
1,
1,
1,
1,
3,
1,
-1,
1,
1,
-1,
3,
1,
1,
3,
1,
1,
3,
1,
-1,
1,
1,
-1,
3,
-1,
1,
3,
1,
1,
3,
1,
-1,
1,
1,
-1,
3,
-1,
1,
3,
1,
1,
3,
1,
-1,
1,
1,
-1,
3,
1,
1,
3,
1,
-1,
1,
1,
-1,
1,
1,
-1,
3,
1,
1,
3,
1,
-1,
3,
1,
-1,
1,
1,
-1,
3,
1,
1,
3,
1,
1,
3,
1,
1,
1,
1,
-1,
3,
1,
1,
3,
1,
1,
3,
1,
1,
1,
1,
-1,
3,
-1,
1,
3,
1,
1,
1,
1,
-1,
1,
1,
-1,
3,
-1,
1,
3,
1,
-1,
1,
1,
1,
1,
1,
-1,
3,
1,
1,
3,
1,
-1,
3,
1,
1,
1,
1,
-1,
3,
1,
1,
3,
1,
1,
3,
1,
-1,
1,
1,
-1,
3,
-1,
1,
3,
1,
1,
3,
1,
-1,
1,
1,
-1,
3,
-1,
1,
3,
1,
-1,
3,
1,
-1,
1,
1,
-1,
3,
-1,
1,
3,
1,
1,
3,
1,
-1,
1,
1,
-1,
3,
1,
1,
3,
1,
1,
1,
1,
-1,
1,
1,
-1,
3,
-1,
1,
3,
1,
-1,
3,
1,
-1,
1,
1,
-1,
3,
-1,
1,
3,
1,
1,
3,
1,
-1,
1,
1,
-1,
3,
-1,
1,
3,
1,
-1,
1,
1,
-1,
1,
1,
-1,
3,
1,
1,
3,
1,
-1,
3,
1,
1,
3,
1,
-1,
3,
1,
1,
3,
1,
1,
3,
1,
-1,
1,
1,
-1,
3,
1,
1,
1,
1,
1,
1,
1,
-1,
1,
1,
-1,
3,
1,
1,
1,
-1,
-1,
3,
1,
-1,
1,
1,
-1,
3,
1,
1,
3,
1,
1,
3,
1,
-1,
1,
1,
-1,
3,
1,
1,
3,
1,
-1,
1,
1,
-1,
1,
1,
-1,
3,
1,
1,
3,
1,
-1,
3,
1,
-1,
1,
1,
-1,
3,
1,
1,
3,
1,
1,
3,
1,
1,
1,
1,
-1,
3,
1,
1,
3,
1,
1,
3,
1,
-1,
1,
1,
-1,
3,
1,
1,
3,
1,
1,
3,
1,
-1,
1,
1,
-1,
3,
1,
1,
3,
1,
1,
3,
1,
1,
1,
1,
-1,
3,
-1,
1,
3,
1,
1,
3,
1,
1,
1,
1,
-1,
3,
1,
1,
3,
1,
-1,
3,
1,
1,
1,
1,
-1,
3,
1,
1,
3,
1,
1,
3,
1,
-1,
1,
1,
-1,
3,
-1,
1,
3,
1,
1,
3,
1,
-1,
1,
1,
-1,
3,
-1,
1,
3,
1,
-1,
3,
1,
-1,
1,
1,
-1,
3,
1,
1,
3,
1,
1,
3,
1,
-1,
1,
1,
-1,
3,
-1,
1,
3,
1,
1,
3,
1,
-1,
1,
1,
-1,
3,
1,
1,
3,
1,
1,
3,
1,
-1,
1,
1,
-1,
3,
1,
1,
3,
1,
1,
3,
1,
-1,
1,
1,
-1,
3,
1,
1,
3,
1,
1,
3,
1,
-1,
1,
1,
-1,
3,
1,
1,
1,
-1,
-1,
3,
1,
1,
1,
1,
-1,
3,
1,
1,
3,
1,
1,
3,
1,
-1,
1,
1,
-1,
3,
-1,
1,
3,
1,
1,
3,
1,
-1,
1,
1,
-1,
3,
-1,
1,
3,
1,
-1,
3,
1,
-1,
1,
1,
-1,
3,
1,
1,
3,
1,
-1,
3,
1,
1,
1,
1,
-1,
3,
1,
1,
3,
1,
1,
1,
1,
-1,
1,
1,
-1,
3,
1,
1,
3,
1,
-1,
3,
1,
-1,
1,
1,
-1,
3,
1,
1,
3,
1,
1,
3,
1,
-1,
1,
1,
-1,
3,
-1,
1,
3,
1,
1,
3,
1,
-1,
1,
1,
-1,
3,
1,
1,
3,
1,
1,
3,
1,
-1,
3,
1,
-1,
3,
-1,
1,
3,
1,
1,
3,
1,
1,
1,
1,
-1,
3,
1,
1,
3,
1,
1,
3,
1,
1,
3,
1,
-1,
3,
1,
1,
3,
1,
1,
3,
1,
1,
1,
1,
-1,
3,
1,
1,
3,
1,
-1,
3,
1,
-1,
1,
1,
-1,
3,
1,
1,
3,
1,
1,
3,
1,
-1,
1,
1,
-1,
3,
1,
1,
3,
1,
1,
1,
1,
-1,
1,
1,
-1,
3,
1,
1,
3,
1,
-1,
3,
1,
-1,
1,
1,
-1,
3,
-1,
1,
3,
1,
1,
3,
1,
-1,
1,
1,
-1,
3,
1,
1,
3,
1,
1,
3,
1,
1,
1,
1,
-1,
3,
1,
1,
3,
1,
1,
3,
1,
1,
1,
1,
-1,
3,
1,
1,
3,
1,
1,
3,
1,
1,
1,
1,
-1,
3,
1,
1,
3,
1,
1,
3,
1,
1,
1,
1,
-1,
3,
1,
1,
3,
1,
-1,
3,
1,
-1,
1,
1,
-1,
3,
1,
1,
3,
1,
1,
3,
1,
-1,
1,
1,
-1,
3,
1,
1,
3,
1,
1,
3,
1,
-1,
1,
1,
-1,
3,
1,
1,
3,
1,
1,
3,
1,
1,
1,
1,
-1,
3,
1,
1,
3,
1,
1,
3,
1,
-1,
1,
1,
-1,
3,
1,
1,
3,
1,
1,
3,
1,
1,
1,
1,
-1,
3,
1,
1,
3,
1,
-1,
3,
1,
1,
1,
1,
-1,
3,
1,
1,
3,
1,
-1,
3,
1,
-1,
3,
1,
-1,
3,
1,
1,
3,
1,
1,
3,
1,
1,
1,
1,
-1,
3,
-1,
1,
3,
1,
1,
3,
1,
1,
1,
1,
-1,
3,
1,
1,
3,
1,
1,
3,
1,
1,
1,
1,
-1,
3,
1,
1,
3,
1,
1,
3,
1,
-1,
1,
1,
-1,
3,
1,
1,
3,
1,
1,
3,
1,
1,
1,
1,
-1,
3,
1,
1,
3,
1,
1,
3,
1,
-1,
1,
1,
-1,
3,
1,
1,
3,
1,
1,
3,
1,
-1,
1,
1,
-1,
3,
1,
1,
3,
1,
1,
3,
1,
-1,
1,
1,
-1,
3,
1,
1,
3,
1,
1,
3,
1,
-1,
1,
1,
-1,
3,
1,
1,
3,
1,
1,
3,
1,
-1,
3,
1,
-1,
3,
1,
1,
3,
1,
1,
3,
1,
1,
1,
1,
-1,
3,
1,
1,
3,
1,
1,
3,
1,
-1,
1,
1,
-1,
3,
1,
1,
3,
1,
1,
3,
1,
1,
1,
1,
-1,
3,
-1,
1,
3,
1,
1,
3,
1,
-1,
1,
1,
-1,
3,
1,
1,
3,
1,
1,
1,
1,
-1,
1,
1,
-1,
3,
1,
1,
3,
1,
1,
1,
1,
-1,
1,
1,
-1,
3,
-1,
1,
3,
1,
1,
3,
1,
1,
1,
1,
-1,
3,
1,
1,
3,
1,
1,
3,
1,
1,
1,
1,
-1,
3,
1,
1,
3,
1,
-1,
3,
1,
-1,
1,
1,
-1,
3,
1,
1,
3,
1,
1,
3,
1,
-1,
3,
1,
-1,
3,
1,
1,
3,
1,
1,
3,
1,
1,
1,
1,
-1,
3,
-1,
1,
3,
1,
-1,
3,
1,
1,
1,
1,
-1,
3,
1,
1,
3,
1,
1,
3,
1,
-1,
1,
1,
-1,
3,
-1,
1,
3,
1,
-1,
3,
1,
-1,
1,
1,
-1,
3,
1,
1,
3,
1,
1,
3,
1,
-1,
1,
1,
-1,
3,
1,
1,
3,
1,
-1,
1,
1,
-1,
1,
1,
-1,
3,
-1,
1,
3,
1,
1,
3,
1,
-1,
1,
1,
-1,
3,
1,
1,
3,
1,
1,
3,
1,
-1,
1,
1,
-1,
3,
1,
1,
3,
1,
1,
3,
1,
-1,
1,
1,
-1,
3,
-1,
1,
3,
1,
1,
3,
1,
-1,
1,
1,
-1,
3,
1,
1,
3,
1,
1,
3,
1,
1,
1,
1,
-1,
3,
-1,
1,
3,
1,
-1,
1,
1,
1,
1,
1,
-1,
3,
1,
1,
3,
1,
1,
3,
1,
1,
1,
1,
-1,
3,
1,
1,
3,
1,
-1,
3,
1,
-1,
1,
1,
-1,
3,
1,
1,
3,
1,
-1,
3,
1,
-1,
1,
1,
-1,
3,
1,
1,
3,
1,
-1,
1,
1,
-1,
1,
1,
-1,
3,
1,
1,
3,
1,
-1,
3,
1,
-1,
1,
1,
-1,
3,
-1,
1,
3,
1,
1,
3,
1,
1,
1,
1,
-1,
3,
1,
1,
3,
1,
1,
3,
1,
-1,
1,
1,
-1,
3,
-1,
-1,
1,
-1,
-1,
3,
1,
-1,
1,
1,
-1,
3,
1,
1,
3,
1,
1,
3,
1,
-1,
1,
1,
-1,
3,
1,
1,
3,
1,
1,
3,
1,
-1,
1,
1,
-1,
3,
-1,
1,
3,
1,
-1,
3,
1,
-1,
1,
1,
-1,
3,
-1,
1,
3,
1,
-1,
3,
1,
-1,
1,
1,
-1,
3,
-1,
1,
3,
1,
1,
1,
1,
1,
1,
1,
-1,
3,
1,
1,
3,
1,
-1,
3,
1,
1,
1,
1,
-1,
3,
-1,
1,
1,
-1,
-1,
3,
1,
-1,
1,
1,
-1,
3,
-1,
1,
3,
1,
1,
3,
1,
-1,
1,
1,
-1,
3,
-1,
-1,
3,
1,
1,
1,
1,
-1,
1,
1,
-1,
3,
1,
1,
3,
1,
1,
1,
1,
-1,
1,
1,
-1,
3,
-1,
1,
3,
1,
-1,
3,
1,
1,
1,
1,
-1,
3,
1,
1,
3,
1,
1,
3,
1,
1,
1,
1,
-1,
3,
1,
1,
3,
1,
1,
3,
1,
-1,
1,
1,
-1,
3,
-1,
1,
3,
1,
-1,
1,
1,
-1,
1,
1,
-1,
3,
1,
1,
3,
1,
-1,
3,
1,
1,
1,
1,
-1,
3,
1,
1,
3,
1,
-1,
1,
1,
-1,
1,
1,
-1,
3,
1,
1,
3,
1,
1,
3,
1,
-1,
1,
1,
-1,
3,
1,
1,
3,
1,
1,
3,
1,
1,
1,
1,
-1,
3,
-1,
1,
3,
1,
1,
1,
1,
-1,
1,
1,
-1,
3,
-1,
1,
3,
1,
-1,
1,
1,
-1,
1,
1,
-1,
3,
1,
1,
3,
1,
-1,
3,
1,
1,
1,
1,
-1,
3,
1,
1,
3,
1,
1,
3,
1,
-1,
1,
1,
-1,
3,
-1,
1,
3,
1,
-1,
1,
1,
1,
1,
1,
-1,
3,
-1,
1,
3,
1,
1,
3,
1,
1,
1,
1,
-1,
3,
1,
1,
3,
1,
-1,
1,
1,
-1,
1,
1,
-1,
3,
1,
1,
3,
1,
-1,
1,
1,
-1,
1,
1,
-1,
3,
1,
1,
3,
1,
1,
3,
1,
-1,
1,
1,
-1,
3,
1,
1,
3,
1,
1,
3,
1,
-1,
1,
1,
-1,
3,
-1,
1,
3,
1,
1,
1,
1,
-1,
1,
1,
-1,
3,
1,
1,
3,
1,
1,
3,
1,
-1,
1,
1,
-1,
3,
1,
1,
3,
1,
1,
3,
1,
1,
1,
1,
-1,
3,
1,
1,
3,
1,
1,
3,
1,
1,
1,
1,
-1,
3,
1,
1,
3,
1,
-1,
3,
1,
1,
1,
1,
-1,
3,
1,
1,
3,
1,
-1,
1,
1,
1,
1,
1,
-1,
3,
1,
1,
3,
1,
-1,
1,
1,
-1,
1,
1,
-1,
3,
1,
1,
3,
1,
-1,
3,
1,
-1,
1,
1,
-1,
3,
-1,
1,
3,
1,
1,
3,
1,
-1,
1,
1,
-1,
3,
1,
1,
3,
1,
1,
1,
1,
-1,
1,
1,
-1,
3,
1,
1,
3,
1,
-1,
3,
1,
1,
1,
1,
-1,
3,
1,
1,
3,
1,
1,
3,
1,
1,
1,
1,
-1,
3,
1,
1,
3,
1,
-1,
3,
1,
1,
1,
1,
-1,
3,
1,
1,
3,
1,
-1,
1,
1,
1,
1,
1,
-1,
3,
1,
1,
3,
1,
1,
3,
1,
-1,
1,
1,
-1,
3,
-1,
1,
3,
1,
1,
3,
1,
-1,
1,
1,
-1,
3,
1,
1,
3,
1,
1,
3,
1,
-1,
1,
1,
-1,
3,
1,
1,
3,
1,
1,
1,
1,
1,
1,
1,
-1,
3,
1,
1,
3,
1,
1,
3,
1,
1,
1,
1,
-1,
3,
-1,
1,
3,
1,
1,
3,
1,
-1,
1,
1,
-1,
3,
-1,
1,
3,
1,
1,
3,
1,
1,
1,
1,
-1,
3,
1,
1,
1,
1,
1,
3,
1,
-1,
3,
1,
-1,
3,
1,
1,
3,
1,
1,
3,
1,
1,
1,
1,
-1,
3,
1,
1,
3,
1,
1,
3,
1,
1,
1,
1,
-1,
3,
-1,
1,
3,
1,
-1,
3,
1,
1,
1,
1,
-1,
3,
1,
1,
3,
1,
1,
3,
1,
-1,
1,
1,
-1,
3,
1,
1,
3,
1,
-1,
3,
1,
1,
1,
1,
-1,
3,
-1,
1,
3,
1,
-1,
1,
1,
-1,
1,
1,
-1,
3,
-1,
1,
3,
1,
-1,
3,
1,
-1,
1,
1,
-1,
3,
1,
1,
3,
1,
1,
3,
1,
-1,
1,
1,
-1,
3,
1,
1,
3,
1,
1,
3,
1,
1,
1,
1,
1,
3,
1,
1,
3,
1,
1,
3,
1,
1,
3,
1,
-1,
3,
1,
1,
3,
1,
1,
3,
1,
1,
1,
1,
-1,
3,
1,
1,
3,
1,
1,
3,
1,
1,
1,
1,
-1,
3,
1,
1,
3,
1,
-1,
3,
1,
1,
1,
1,
-1,
3,
1,
1,
3,
1,
-1,
3,
1,
-1,
1,
1,
-1,
3,
1,
1,
3,
1,
-1,
3,
1,
-1,
1,
1,
-1,
9,
64,
126,
147,
154,
150,
144,
134,
125,
120,
117,
112,
105,
101,
96,
89,
86,
83,
78,
73,
70,
67,
64,
60,
57,
56,
52,
51,
49,
46,
44,
43,
40,
38,
36,
35,
35,
33,
32,
32,
28,
28,
27,
25,
24,
24,
22,
20,
22,
20,
19,
19,
17,
17,
19,
15,
14,
15,
15,
12,
15,
12,
12,
14,
12,
12,
12,
11,
9,
11,
11,
9,
11,
7,
7,
11,
9,
7,
9,
7,
7,
9,
7,
7,
9,
7,
6,
7,
7,
6,
7,
7,
6,
7,
7,
6,
7,
6,
6,
7,
6,
4,
6,
6,
4,
6,
6,
4,
7,
6,
4,
6,
6,
4,
6,
4,
4,
6,
4,
4,
6,
4,
4,
6,
6,
4,
6,
6,
4,
6,
4,
4,
6,
4,
4,
6,
4,
4,
6,
4,
4,
4,
4,
3,
6,
4,
4,
6,
4,
4,
6,
4,
4,
6,
4,
4,
6,
4,
4,
4,
4,
4,
6,
4,
4,
6,
4,
4,
6,
4,
4,
6,
4,
4,
6,
4,
4,
6,
4,
3,
6,
4,
4,
4,
4,
4,
4,
4,
4,
6,
4,
4,
6,
4,
4,
6,
4,
4,
4,
4,
4,
6,
4,
4,
6,
4,
4,
4,
4,
4,
4,
4,
4,
4,
4,
4,
6,
4,
4,
6,
6,
4,
6,
4,
4,
4,
4,
4,
6,
4,
4,
6,
4,
4,
4,
4,
4,
4,
4,
4,
6,
4,
4,
4,
4,
4,
4,
4,
3,
4,
4,
3,
6,
4,
4,
6,
4,
4,
6,
4,
4,
6,
4,
3,
6,
4,
4,
4,
4,
4,
4,
4,
4,
4,
4,
3,
6,
4,
4,
6,
4,
4,
6,
4,
4,
4,
4,
3,
6,
4,
4,
4,
4,
4,
4,
4,
3,
6,
4,
3,
6,
4,
3,
4,
4,
4,
4,
4,
4,
6,
4,
3,
6,
4,
4,
6,
4,
4,
4,
4,
3,
4,
4,
3,
4,
4,
4,
4,
4,
3,
6,
4,
4,
4,
4,
4,
6,
4,
4,
6,
4,
4,
6,
4,
3,
4,
4,
4,
6,
4,
4,
4,
4,
4,
4,
4,
3,
4,
4,
3,
6,
4,
4,
6,
4,
3,
4,
4,
4,
4,
4,
3,
6,
4,
4,
6,
4,
4,
6,
4,
4,
4,
4,
3,
4,
4,
4,
4,
4,
4,
6,
4,
3,
4,
4,
3,
6,
4,
4,
4,
4,
4,
4,
4,
3,
4,
3,
3,
6,
4,
3,
4,
4,
4,
4,
4,
3,
6,
4,
3,
6,
4,
4,
6,
4,
3,
6,
4,
3,
4,
4,
3,
4,
4,
4,
4,
4,
3,
4,
4,
4,
4,
4,
3,
6,
4,
4,
4,
4,
4,
4,
4,
4,
4,
4,
3,
4,
4,
3,
6,
4,
3,
6,
4,
3,
4,
4,
3,
6,
4,
4,
4,
4,
4,
4,
4,
4,
4,
4,
3,
6,
4,
4,
6,
4,
3,
4,
4,
3,
4,
4,
3,
4,
4,
3,
4,
4,
4,
4,
4,
3,
4,
4,
3,
4,
4,
4,
6,
4,
4,
4,
4,
3,
4,
4,
3,
6,
4,
4,
6,
4,
3,
4,
4,
3,
4,
4,
3,
4,
4,
4,
4,
4,
3,
4,
3,
4,
4,
4,
3,
6,
4,
4,
4,
3,
3,
6,
4,
4,
4,
3,
3,
6,
4,
3,
4,
4,
3,
4,
4,
3,
4,
4,
3,
4,
4,
4,
4,
3,
3,
6,
3,
3,
4,
4,
3,
6,
4,
3,
4,
4,
3,
4,
3,
3,
4,
4,
3,
6,
4,
4,
4,
4,
3,
4,
3,
3,
4,
4,
3,
4,
4,
4,
6,
3,
3,
4,
4,
3,
4,
4,
3,
4,
4,
4,
6,
4,
3,
4,
4,
3,
4,
4,
3,
4,
4,
4,
4,
4,
3,
4,
4,
3,
4,
4,
3,
4,
4,
3,
4,
4,
3,
4,
3,
3,
4,
4,
3,
4,
4,
4,
6,
4,
3,
4,
4,
3,
4,
4,
3,
6,
4,
3,
4,
3,
3,
4,
4,
3,
4,
4,
3,
4,
4,
3,
4,
4,
3,
4,
3,
3,
4,
4,
3,
4,
4,
3,
4,
4,
3,
4,
3,
3,
4,
4,
3,
6,
4,
4,
6,
4,
3,
6,
4,
3,
4,
4,
3,
6,
4,
4,
4,
4,
4,
4,
3,
3,
4,
4,
3,
4,
4,
3,
4,
4,
3,
4,
4,
3,
4,
4,
3,
4,
4,
3,
4,
4,
3,
4,
4,
3,
4,
4,
3,
4,
4,
3,
4,
4,
4,
6,
3,
3,
4,
4,
3,
4,
4,
3,
4,
4,
4,
4,
3,
3,
4,
4,
3,
4,
4,
3,
4,
4,
3,
4,
3,
3,
4,
4,
3,
6,
4,
3,
4,
3,
3,
4,
4,
3,
4,
4,
3,
4,
4,
3,
4,
4,
3,
4,
4,
3,
4,
4,
3,
4,
4,
3,
4,
3,
3,
4,
3,
3,
4,
4,
3,
4,
4,
3,
6,
4,
3,
4,
3,
3,
4,
4,
3,
4,
4,
4,
4,
3,
3,
4,
3,
3,
4,
4,
3,
4,
4,
3,
4,
3,
3,
4,
3,
3,
4,
4,
3,
4,
4,
4,
4,
4,
3,
4,
4,
3,
4,
4,
3,
4,
4,
3,
4,
4,
3,
4,
3,
3,
4,
4,
3,
4,
4,
3,
4,
3,
3,
4,
3,
3,
4,
4,
3,
4,
4,
3,
4,
4,
3,
4,
3,
3,
4,
3,
3,
6,
4,
3,
4,
3,
3,
4,
4,
3,
4,
4,
3,
4,
4,
3,
4,
4,
3,
4,
3,
3,
4,
4,
3,
4,
4,
3,
4,
4,
3,
4,
3,
3,
4,
4,
3,
4,
4,
3,
6,
4,
3,
4,
4,
3,
4,
4,
3,
4,
4,
3,
4,
3,
3,
4,
3,
3,
4,
4,
3,
6,
4,
3,
4,
3,
3,
4,
3,
3,
4,
4,
3,
4,
4,
3,
4,
3,
3,
4,
4,
3,
4,
4,
3,
4,
4,
3,
4,
4,
3,
4,
3,
3,
4,
4,
3,
4,
3,
3,
4,
3,
3,
4,
3,
3,
4,
4,
3,
4,
4,
3,
4,
4,
3,
4,
3,
3,
4,
4,
3,
6,
4,
3,
4,
3,
3,
4,
3,
3,
4,
4,
3,
4,
4,
3,
4,
3,
3,
4,
3,
3,
4,
4,
3,
4,
4,
4,
4,
3,
3,
4,
3,
3,
4,
4,
3,
4,
4,
3,
4,
4,
3,
4,
3,
3,
4,
4,
3,
4,
4,
3,
4,
3,
3,
4,
3,
3,
4,
4,
3,
4,
4,
3,
4,
4,
3,
4,
3,
3,
4,
4,
3,
4,
4,
3,
4,
3,
3,
4,
4,
3,
4,
4,
3,
4,
4,
3,
4,
4,
3,
4,
3,
3,
4,
3,
3,
4,
4,
3,
4,
3,
3,
4,
3,
3,
4,
4,
3,
4,
4,
3,
4,
3,
3,
4,
3,
3,
4,
4,
3,
4,
4,
3,
4,
3,
3,
4,
3,
3,
4,
4,
3,
4,
4,
3,
4,
3,
3,
4,
3,
3,
4,
4,
3,
4,
4,
3,
4,
3,
3,
4,
3,
3,
4,
4,
3,
4,
4,
3,
4,
4,
3,
4,
3,
3,
3,
4,
3,
4,
4,
3,
4,
3,
3,
4,
3,
3,
4,
4,
3,
4,
4,
3,
4,
3,
3,
4,
3,
3,
4,
4,
3,
4,
4,
3,
4,
3,
3,
4,
3,
3,
4,
4,
3,
4,
4,
3,
4,
3,
3,
4,
3,
3,
4,
4,
3,
4,
4,
3,
4,
3,
3,
4,
3,
3,
4,
4,
3,
4,
4,
3,
4,
3,
3,
4,
3,
3,
4,
4,
3,
4,
4,
3,
4,
3,
3,
4,
3,
3,
4,
4,
3,
4,
4,
3,
4,
3,
3,
4,
3,
3,
4,
3,
3,
4,
4,
3,
4,
3,
3,
4,
3,
3,
4,
3,
3,
4,
4,
3,
4,
3,
3,
4,
4,
3,
4,
4,
3,
6,
4,
3,
4,
3,
3,
4,
3,
3,
4,
4,
3,
4,
4,
3,
4,
3,
3,
4,
3,
3,
3,
4,
3,
4,
4,
3,
4,
3,
3,
4,
4,
3,
4,
4,
3,
4,
4,
4,
6,
3,
3,
4,
3,
3,
4,
3,
3,
4,
4,
3,
4,
3,
3,
4,
3,
3,
4,
4,
3,
4,
4,
3,
4,
3,
3,
4,
3,
3,
4,
4,
3,
4,
4,
3,
4,
3,
3,
4,
3,
3,
4,
3,
3,
4,
4,
3,
4,
3,
3,
4,
3,
3,
4,
4,
3,
4,
3,
3,
4,
3,
3,
4,
3,
3,
4,
3,
3,
4,
3,
3,
4,
4,
3,
4,
3,
3,
4,
4,
3,
4,
4,
3,
4,
3,
3,
4,
3,
3,
4,
4,
3,
4,
4,
3,
4,
3,
3,
4,
3,
3,
4,
4,
3,
4,
4,
3,
4,
3,
3,
4,
3,
3,
4,
3,
3,
4,
4,
3,
4,
3,
3,
4,
3,
3,
4,
3,
3,
4,
3,
3,
4,
3,
3,
4,
3,
3,
4,
3,
3,
4,
4,
3,
4,
3,
3,
4,
3,
3,
4,
3,
3,
4,
3,
3,
4,
3,
3,
4,
3,
3,
4,
3,
3,
4,
4,
3,
4,
3,
3,
4,
3,
3,
4,
3,
3,
4,
3,
3,
4,
3,
3,
4,
3,
3,
4,
4,
3,
4,
3,
3,
4,
3,
3,
4,
3,
1,
3,
3,
3,
4,
4,
3,
4,
3,
3,
4,
3,
3,
4,
4,
3,
4,
4,
3,
4,
3,
3,
4,
3,
3,
4,
3,
3,
4,
3,
3,
4,
3,
3,
4,
3,
3,
3,
3,
3,
4,
3,
3,
4,
3,
3,
4,
3,
3,
4,
3,
3,
4,
3,
3,
4,
3,
3,
4,
3,
3,
4,
3,
3,
4,
4,
3,
4,
3,
3,
4,
3,
3,
3,
3,
3,
4,
3,
3,
4,
3,
3,
4,
3,
3,
4,
4,
3,
4,
4,
3,
4,
3,
3,
4,
3,
3,
4,
4,
3,
4,
3,
3,
4,
3,
3,
4,
3,
3,
3,
3,
1,
4,
3,
3,
4,
3,
3,
4,
3,
1,
4,
3,
3,
4,
4,
3,
4,
3,
3,
4,
3,
3,
4,
4,
3,
4,
4,
3,
4,
3,
3,
4,
3,
3,
4,
4,
3,
4,
3,
3,
4,
3,
3,
4,
3,
3,
4,
3,
3,
4,
3,
3,
4,
3,
3,
4,
3,
3,
4,
3,
3,
4,
3,
3,
4,
3,
3,
4,
3,
3,
3,
3,
3,
4,
3,
3,
4,
3,
3,
4,
3,
3,
3,
3,
3,
4,
3,
3,
4,
3,
3,
4,
3,
3,
4,
3,
3,
4,
3,
3,
4,
3,
3,
4,
3,
3,
4,
4,
3,
4,
3,
3,
4,
3,
3,
4,
3,
3,
4,
3,
1,
4,
3,
3,
4,
3,
3,
4,
3,
3,
3,
3,
3,
4,
3,
3,
4,
3,
3,
4,
3,
3,
4,
3,
3,
4,
4,
3,
4,
3,
3,
4,
3,
3,
4,
3,
3,
4,
3,
3,
4,
3,
3,
4,
3,
1,
4,
3,
3,
4,
3,
3,
4,
3,
3,
4,
3,
1,
3,
3,
1,
4,
3,
3,
4,
3,
3,
4,
3,
3,
4,
3,
3,
4,
3,
3,
4,
3,
3,
4,
3,
3,
4,
3,
1,
4,
3,
3,
4,
3,
3,
4,
3,
3,
4,
3,
3,
4,
3,
3,
4,
3,
3,
3,
3,
3,
3,
3,
1,
4,
3,
3,
4,
3,
3,
4,
3,
1,
4,
3,
3,
4,
3,
3,
4,
3,
3,
4,
3,
1,
3,
3,
3,
4,
3,
3,
4,
3,
3,
4,
3,
1,
4,
3,
3,
4,
3,
3,
4,
3,
3,
3,
3,
3,
4,
3,
3,
4,
3,
3,
4,
3,
3,
4,
3,
3,
4,
3,
1,
4,
3,
3,
4,
3,
3,
4,
3,
3,
4,
3,
3,
4,
3,
3,
4,
3,
3,
4,
3,
3,
4,
3,
3,
4,
3,
3,
4,
3,
3,
4,
3,
3,
4,
3,
3,
4,
3,
3,
4,
3,
3,
4,
3,
3,
4,
3,
3,
4,
3,
3,
4,
3,
3,
4,
3,
3,
4,
3,
3,
4,
3,
3,
4,
3,
3,
4,
3,
3,
4,
3,
3,
4,
3,
3,
4,
3,
1,
4,
3,
1,
4,
3,
3,
4,
3,
3,
4,
3,
1,
3,
3,
3,
4,
3,
3,
4,
4,
3,
4,
3,
3,
4,
3,
3,
4,
3,
3,
4,
3,
3,
4,
3,
3,
4,
3,
1,
3,
3,
1,
4,
3,
3,
4,
3,
3,
4,
3,
3,
3,
3,
3,
4,
3,
3,
4,
3,
3,
4,
3,
3,
4,
3,
3,
4,
3,
3,
4,
3,
3,
4,
3,
3,
4,
3,
1,
4,
3,
3,
4,
3,
3,
4,
3,
3,
4,
3,
3,
4,
3,
3,
4,
3,
3,
4,
3,
3,
4,
3,
3,
4,
3,
3,
4,
3,
3,
4,
3,
1,
3,
3,
3,
4,
3,
3,
4,
3,
1,
4,
3,
1,
3,
3,
3,
4,
3,
3,
4,
3,
3,
4,
3,
3,
4,
3,
3,
4,
3,
3,
4,
3,
3,
4,
3,
3,
3,
3,
3,
4,
3,
3,
4,
3,
3,
4,
3,
1,
4,
3,
3,
4,
3,
3,
4,
3,
3,
4,
3,
3,
4,
3,
3,
4,
3,
3,
4,
3,
3,
4,
3,
3,
3,
3,
3,
4,
3,
3,
4,
3,
3,
4,
3,
3,
4,
3,
1,
4,
3,
3,
3,
3,
3,
4,
3,
3,
4,
3,
3,
4,
3,
3,
4,
3,
3,
4,
3,
3,
4,
3,
3,
4,
3,
3,
4,
3,
3,
4,
3,
1,
3,
3,
3,
4,
3,
3,
4,
3,
3,
4,
3,
1,
3,
3,
3,
4,
3,
3,
4,
3,
3,
4,
3,
3,
4,
3,
1,
4,
3,
3,
4,
3,
3,
4,
3,
3,
4,
3,
3,
4,
3,
3,
4,
3,
3,
4,
3,
1,
3,
3,
1,
4,
3,
3,
4,
3,
3,
4,
3,
3,
3,
3,
1,
4,
3,
3,
4,
3,
3,
3,
3,
1,
3,
3,
3,
4,
3,
3,
4,
3,
3,
4,
3,
1,
4,
3,
1,
4,
3,
1,
4,
3,
3,
4,
3,
3,
3,
3,
1,
4,
3,
3,
4,
3,
3,
3,
3,
3,
4,
3,
1,
4,
3,
3,
4,
3,
3,
4,
3,
3,
3,
3,
3,
4,
3,
3,
4,
3,
3,
4,
3,
1,
3,
3,
3,
4,
3,
3,
4,
3,
3,
4,
3,
1,
3,
3,
3,
4,
3,
3,
4,
3,
3,
3,
3,
1,
3,
3,
3,
4,
3,
3,
4,
3,
3,
4,
3,
3,
4,
3,
1,
4,
3,
3,
4,
3,
3,
4,
3,
3,
3,
3,
1,
4,
3,
3,
4,
3,
3,
3,
3,
1,
3,
3,
3,
4,
3,
3,
4,
3,
3,
4,
3,
3,
4,
3,
3,
4,
3,
3,
4,
3,
3,
4,
3,
3,
3,
3,
3,
4,
3,
3,
4,
3,
3,
4,
3,
1,
4,
3,
3,
4,
3,
3,
4,
3,
3,
4,
3,
1,
3,
3,
3,
4,
3,
3,
4,
3,
3,
4,
3,
3,
3,
3,
3,
4,
3,
3,
4,
3,
3,
3,
1,
1,
3,
3,
3,
4,
3,
1,
4,
3,
3,
3,
3,
1,
4,
3,
3,
4,
3,
3,
4,
3,
3,
4,
3,
3,
4,
3,
1,
4,
3,
3,
4,
3,
1,
3,
3,
3,
3,
3,
1,
4,
3,
3,
4,
3,
3,
4,
3,
1,
3,
3,
3,
4,
3,
3,
4,
3,
3,
4,
3,
1,
4,
3,
3,
4,
3,
1,
4,
3,
3,
4,
3,
3,
3,
3,
3,
4,
3,
3,
4,
3,
3,
3,
3,
3,
4,
3,
1,
4,
3,
3,
4,
3,
3,
3,
3,
3,
3,
3,
3,
4,
3,
3,
4,
3,
1,
3,
3,
1,
3,
3,
3,
4,
3,
3,
4,
3,
3,
3,
3,
3,
3,
3,
3,
4,
3,
3,
4,
3,
3,
3,
1,
1,
3,
3,
1,
4,
3,
3,
4,
3,
3,
4,
3,
1,
3,
3,
1,
4,
3,
3,
4,
3,
3,
3,
3,
1,
3,
3,
1,
4,
3,
3,
4,
3,
3,
4,
3,
1,
3,
3,
1,
4,
3,
3,
4,
3,
3,
3,
3,
1,
4,
3,
1,
4,
3,
3,
4,
3,
3,
4,
3,
3,
4,
3,
1,
4,
3,
3,
4,
3,
3,
4,
3,
1,
3,
3,
3,
4,
3,
3,
4,
3,
3,
4,
3,
1,
3,
3,
1,
3,
3,
3,
4,
3,
1,
3,
3,
1,
3,
3,
1,
4,
3,
3,
4,
3,
1,
3,
3,
3,
3,
3,
1,
4,
3,
3,
4,
3,
1,
3,
3,
1,
3,
3,
1,
4,
3,
3,
4,
3,
3,
4,
3,
1,
3,
3,
1,
4,
3,
3,
4,
3,
3,
3,
3,
1,
3,
3,
1,
4,
3,
3,
4,
3,
1,
3,
3,
1,
3,
3,
1,
4,
3,
3,
4,
3,
1,
4,
3,
1,
3,
3,
1,
4,
3,
1,
3,
3,
3,
4,
3,
1,
3,
3,
1,
3,
3,
3,
4,
3,
3,
3,
3,
3,
3,
3,
1,
4,
3,
3,
4,
3,
1,
3,
3,
1,
3,
3,
1,
4,
3,
3,
4,
3,
1,
3,
3,
1,
3,
3,
3,
4,
3,
3,
4,
1,
1,
3,
3,
1,
3,
3,
1,
4,
3,
3,
4,
1,
1,
3,
3,
1,
3,
3,
3,
4,
3,
1,
4,
3,
1,
4,
3,
1,
3,
3,
1,
4,
3,
3,
4,
3,
3,
4,
3,
1,
3,
3,
1,
4,
3,
1,
3,
3,
3,
3,
3,
1,
3,
3,
1,
3,
3,
3,
4,
3,
1,
3,
1,
1,
3,
3,
1,
4,
3,
1,
3,
3,
3,
4,
3,
1,
3,
3,
1,
3,
3,
1,
4,
3,
1,
3,
3,
1,
3,
3,
1,
3,
3,
3,
4,
3,
1,
3,
3,
1,
3,
3,
1,
4,
3,
3,
4,
1,
1,
3,
3,
1,
3,
3,
3,
4,
3,
3,
3,
1,
1,
3,
3,
1,
3,
3,
3,
4,
3,
1,
3,
3,
3,
3,
3,
1,
3,
3,
1,
3,
3,
3,
4,
3,
3,
4,
3,
1,
3,
3,
1,
3,
3,
3,
4,
3,
3,
3,
1,
1,
3,
3,
1,
3,
3,
3,
4,
1,
1,
3,
3,
1,
3,
3,
1,
4,
3,
3,
3,
1,
1,
4,
3,
1,
3,
3,
1,
3,
3,
1,
3,
3,
3,
4,
3,
1,
3,
3,
1,
3,
3,
1,
4,
3,
1,
3,
3,
1,
3,
3,
1,
3,
3,
3,
3,
3,
1,
3,
3,
1,
3,
3,
1,
4,
3,
1,
4,
3,
1,
4,
3,
1,
3,
3,
3,
4,
3,
1,
3,
1,
1,
3,
3,
1,
3,
3,
1,
3,
3,
1,
3,
3,
1,
3,
3,
1,
3,
3,
1,
3,
3,
3,
3,
1,
1,
3,
3,
1,
3,
3,
1,
3,
3,
1,
4,
3,
1,
3,
3,
1,
3,
3,
1,
3,
1,
1,
3,
1,
1,
3,
3,
1,
3,
3,
1,
3,
3,
1,
4,
3,
1,
3,
3,
1,
3,
3,
1,
4,
3,
1,
4,
3,
1,
3,
3,
3,
3,
3,
1,
3,
3,
1,
4,
1,
1,
3,
3,
1,
3,
1,
1,
3,
3,
1,
3,
1,
1,
3,
3,
1,
3,
3,
1,
4,
3,
1,
4,
3,
1,
3,
3,
1,
3,
3,
3,
4,
3,
1,
3,
3,
1,
3,
1,
1,
3,
3,
1,
3,
3,
1,
3,
1,
1,
3,
1,
1,
3,
3,
1,
3,
3,
1,
4,
1,
1,
4,
3,
1,
3,
3,
1,
3,
3,
3,
4,
3,
3,
3,
3,
1,
3,
3,
1,
3,
3,
1,
3,
3,
3,
3,
3,
1,
3,
3,
1,
3,
3,
1,
4,
3,
1,
3,
1,
1,
3,
3,
1,
3,
1,
1,
3,
1,
1,
4,
3,
1,
3,
3,
1,
3,
3,
3,
3,
1,
1,
3,
3,
1,
3,
1,
1,
4,
3,
1,
3,
1,
1,
3,
3,
1,
3,
3,
1,
4,
3,
1,
4,
3,
1,
3,
1,
1,
3,
3,
1,
3,
3,
1,
4,
3,
1,
3,
1,
1,
3,
3,
1,
3,
3,
3,
4,
3,
1,
3,
3,
1,
3,
3,
1,
4,
3,
3,
4,
1,
1,
3,
3,
1,
3,
3,
1,
3,
3,
1,
4,
3,
1,
3,
3,
1,
3,
3,
1,
3,
1,
1,
3,
1,
1,
3,
3,
1,
3,
3,
1,
4,
3,
1,
3,
1,
1,
4,
3,
1,
3,
3,
1,
4,
3,
1,
3,
1,
1,
3,
3,
1,
3,
3,
1,
3,
3,
1,
3,
1,
1,
3,
3,
1,
3,
3,
1,
3,
3,
1,
3,
1,
1,
3,
3,
1,
3,
1,
1,
3,
3,
1,
4,
3,
1,
3,
1,
1,
3,
3,
1,
3,
3,
1,
4,
3,
1,
3,
1,
1,
3,
3,
1,
3,
3,
3,
3,
1,
1,
3,
3,
1,
3,
3,
1,
4,
3,
1,
3,
1,
1,
4,
3,
1,
3,
3,
1,
3,
1,
1,
4,
3,
3,
3,
3,
1,
3,
3,
1,
3,
1,
1,
4,
3,
1,
3,
3,
1,
3,
3,
1,
3,
3,
1,
3,
1,
1,
3,
3,
1,
3,
3,
1,
4,
3,
1,
3,
1,
1,
4,
3,
1,
3,
3,
1,
3,
3,
1,
3,
1,
1,
3,
1,
1,
3,
3,
1,
4,
3,
1,
3,
1,
1,
3,
3,
1,
3,
3,
1,
3,
3,
1,
4,
3,
1,
3,
1,
1,
3,
3,
1,
3,
3,
3,
3,
1,
1,
3,
3,
1,
3,
3,
1,
3,
3,
3,
3,
1,
1,
3,
3,
1,
3,
3,
1,
3,
3,
1,
3,
1,
1,
3,
3,
1,
3,
3,
1,
3,
1,
1,
3,
1,
1,
