src/long_1649/temp00469.CSV

Format,1.0B,
Memory Length,10000,
IntpDistance,0,
Trigger Address,4849,
Trigger Level,8.000E-01,
Source,CH1,
Vertical Units,V,
Vertical Units Div,0,
Vertical Units Extend Div,16,
Label,,
Probe Type,0,
Probe Ratio,1.000e+01,
Vertical Scale,2.000e-01,
Vertical Position,-6.800e-01,
Horizontal Units,S,
Horizontal Scale,2.000E-06,
Horizontal Position,3.000E-07,
Horizontal Mode,Main,
SincET Mode,Real Time,
Sampling Period,2.000e-09,
Horizontal Old Scale,2.000E-06,
Horizontal Old Position,3.000E-07,
Firmware,V1.23,
Mode,Fast,
Waveform Data,
3,
2,
4,
3,
3,
4,
3,
2,
3,
3,
3,
4,
3,
2,
4,
3,
3,
3,
3,
2,
4,
3,
3,
3,
2,
2,
4,
3,
2,
4,
2,
3,
4,
3,
3,
3,
3,
3,
4,
2,
2,
4,
3,
2,
3,
3,
2,
3,
3,
2,
4,
3,
3,
4,
3,
2,
3,
2,
3,
3,
3,
2,
4,
3,
2,
3,
3,
2,
3,
3,
3,
3,
3,
2,
4,
3,
3,
3,
2,
2,
4,
3,
3,
4,
3,
2,
4,
3,
2,
3,
2,
3,
4,
3,
2,
3,
2,
2,
4,
3,
2,
3,
3,
2,
3,
2,
2,
3,
3,
2,
3,
2,
2,
3,
3,
2,
4,
3,
3,
3,
3,
2,
4,
3,
2,
3,
2,
3,
4,
3,
3,
3,
3,
2,
4,
2,
2,
3,
3,
2,
3,
2,
3,
3,
3,
2,
4,
3,
2,
4,
2,
2,
3,
3,
3,
3,
2,
2,
4,
3,
2,
3,
3,
2,
4,
3,
0,
3,
2,
2,
4,
3,
2,
3,
3,
2,
3,
2,
2,
3,
3,
2,
3,
3,
2,
4,
3,
2,
4,
3,
3,
3,
2,
2,
4,
3,
2,
3,
3,
2,
4,
2,
2,
3,
3,
2,
4,
3,
2,
3,
3,
2,
4,
3,
2,
3,
2,
2,
4,
3,
2,
3,
3,
2,
3,
2,
2,
3,
2,
2,
3,
2,
2,
3,
3,
2,
3,
2,
2,
3,
3,
2,
4,
3,
2,
3,
3,
2,
3,
2,
3,
3,
2,
2,
4,
2,
2,
3,
3,
2,
4,
3,
2,
3,
2,
2,
4,
2,
2,
3,
3,
2,
3,
2,
2,
3,
2,
2,
4,
2,
2,
3,
3,
2,
4,
3,
2,
3,
2,
2,
4,
3,
2,
3,
3,
2,
3,
2,
2,
3,
2,
2,
4,
2,
2,
3,
3,
2,
3,
2,
2,
3,
2,
2,
4,
3,
2,
3,
3,
2,
3,
2,
2,
3,
2,
2,
4,
2,
2,
3,
3,
2,
3,
2,
2,
3,
3,
2,
3,
2,
2,
3,
3,
2,
3,
2,
3,
3,
2,
2,
3,
2,
2,
3,
3,
2,
4,
3,
2,
3,
2,
2,
4,
3,
2,
3,
3,
2,
3,
3,
2,
3,
2,
2,
4,
2,
2,
2,
3,
2,
3,
2,
2,
3,
2,
2,
4,
2,
2,
3,
3,
2,
3,
2,
2,
3,
2,
2,
3,
2,
2,
3,
3,
2,
3,
2,
2,
3,
3,
2,
3,
3,
2,
3,
2,
2,
3,
3,
3,
3,
2,
2,
4,
3,
2,
3,
3,
2,
4,
3,
2,
3,
2,
2,
4,
2,
2,
3,
3,
2,
3,
2,
2,
3,
2,
2,
3,
2,
2,
3,
3,
2,
3,
2,
2,
3,
3,
2,
7,
33,
86,
119,
128,
127,
120,
112,
104,
101,
98,
93,
89,
84,
79,
76,
74,
70,
66,
62,
60,
57,
56,
53,
52,
48,
46,
45,
43,
41,
40,
37,
36,
36,
33,
32,
32,
31,
28,
28,
27,
24,
26,
23,
23,
23,
22,
21,
22,
19,
19,
19,
19,
17,
18,
17,
17,
17,
16,
14,
17,
16,
14,
16,
14,
13,
16,
13,
13,
13,
13,
12,
14,
12,
12,
12,
12,
12,
13,
12,
10,
12,
10,
10,
12,
10,
9,
12,
10,
10,
12,
9,
9,
10,
10,
9,
12,
9,
10,
10,
10,
9,
10,
9,
9,
10,
9,
8,
10,
10,
9,
10,
9,
9,
10,
9,
9,
10,
9,
9,
10,
9,
9,
10,
9,
9,
9,
9,
9,
10,
9,
9,
10,
9,
9,
10,
9,
9,
10,
9,
9,
10,
9,
8,
10,
8,
8,
9,
9,
8,
9,
9,
9,
10,
9,
8,
9,
8,
8,
9,
9,
8,
10,
9,
9,
9,
9,
8,
10,
9,
9,
9,
8,
8,
10,
8,
9,
9,
9,
8,
9,
9,
8,
9,
9,
8,
10,
8,
8,
9,
9,
8,
9,
9,
8,
9,
9,
8,
9,
8,
9,
10,
8,
8,
9,
9,
9,
9,
8,
8,
9,
8,
8,
9,
8,
8,
9,
9,
8,
9,
8,
8,
9,
8,
8,
9,
9,
8,
9,
8,
8,
9,
8,
8,
9,
8,
8,
9,
8,
8,
9,
9,
9,
9,
8,
8,
9,
8,
8,
9,
8,
8,
9,
8,
8,
8,
8,
7,
9,
8,
8,
9,
8,
8,
9,
8,
7,
9,
8,
8,
9,
8,
8,
8,
8,
8,
8,
8,
8,
9,
8,
8,
9,
8,
8,
8,
8,
8,
9,
7,
8,
9,
8,
8,
9,
8,
8,
9,
8,
8,
9,
8,
8,
9,
8,
7,
8,
8,
8,
8,
8,
8,
9,
9,
8,
8,
8,
8,
9,
8,
8,
8,
8,
8,
9,
8,
7,
8,
8,
8,
9,
8,
7,
8,
8,
8,
9,
8,
8,
9,
8,
7,
9,
8,
8,
9,
8,
7,
9,
8,
8,
8,
8,
8,
9,
7,
7,
9,
8,
7,
9,
8,
7,
8,
8,
7,
8,
7,
8,
8,
8,
7,
8,
8,
8,
8,
8,
7,
9,
8,
8,
9,
7,
7,
9,
8,
7,
8,
7,
7,
9,
8,
7,
9,
8,
8,
9,
7,
7,
8,
8,
7,
9,
7,
7,
9,
8,
7,
8,
8,
7,
8,
8,
7,
9,
7,
8,
8,
8,
7,
8,
8,
7,
8,
8,
7,
8,
8,
7,
8,
8,
7,
8,
7,
7,
8,
8,
7,
8,
7,
7,
8,
8,
7,
8,
7,
7,
8,
8,
7,
8,
7,
7,
8,
7,
7,
8,
7,
8,
8,
7,
7,
8,
7,
7,
8,
8,
7,
8,
7,
7,
8,
8,
7,
8,
7,
7,
7,
7,
7,
9,
7,
7,
8,
7,
7,
8,
7,
7,
8,
8,
7,
8,
7,
7,
8,
8,
7,
8,
5,
7,
8,
7,
5,
8,
7,
7,
8,
7,
5,
8,
7,
7,
8,
7,
7,
8,
7,
7,
8,
7,
7,
8,
7,
7,
8,
8,
7,
8,
7,
7,
8,
7,
7,
8,
7,
7,
8,
8,
7,
8,
7,
7,
8,
7,
5,
8,
7,
7,
7,
7,
5,
8,
7,
7,
8,
7,
5,
8,
7,
7,
7,
7,
7,
8,
5,
7,
8,
7,
7,
8,
7,
7,
7,
7,
5,
8,
7,
7,
8,
7,
7,
8,
7,
7,
8,
7,
5,
8,
5,
5,
8,
7,
7,
8,
7,
7,
7,
7,
5,
7,
5,
7,
8,
7,
5,
8,
7,
7,
7,
7,
5,
8,
7,
7,
7,
5,
5,
8,
7,
5,
7,
7,
5,
8,
5,
5,
7,
7,
7,
7,
5,
5,
7,
7,
5,
7,
5,
5,
7,
7,
5,
7,
7,
7,
7,
7,
5,
8,
7,
7,
7,
5,
5,
7,
5,
7,
7,
7,
5,
7,
7,
5,
7,
5,
5,
8,
7,
5,
7,
5,
5,
8,
7,
5,
7,
5,
5,
7,
5,
5,
5,
5,
5,
7,
5,
4,
7,
7,
5,
7,
5,
5,
8,
7,
5,
7,
5,
7,
7,
7,
5,
7,
5,
5,
7,
7,
5,
7,
7,
7,
7,
7,
5,
7,
7,
5,
7,
5,
4,
7,
5,
5,
7,
5,
5,
7,
5,
5,
5,
5,
5,
7,
5,
5,
7,
5,
5,
7,
5,
5,
7,
5,
5,
7,
5,
5,
7,
5,
5,
7,
7,
5,
7,
5,
5,
7,
5,
4,
7,
7,
5,
7,
5,
5,
7,
7,
5,
7,
5,
5,
7,
5,
5,
7,
5,
5,
7,
5,
5,
7,
5,
5,
7,
5,
5,
7,
5,
4,
7,
5,
5,
7,
5,
5,
7,
5,
5,
7,
5,
5,
7,
5,
5,
7,
5,
5,
7,
5,
4,
7,
5,
5,
7,
5,
4,
7,
5,
5,
7,
5,
5,
7,
5,
4,
5,
5,
5,
7,
5,
4,
7,
5,
5,
7,
5,
4,
7,
5,
4,
5,
5,
5,
7,
5,
4,
7,
5,
5,
7,
5,
5,
7,
5,
4,
7,
5,
4,
7,
5,
5,
7,
5,
4,
7,
5,
5,
7,
5,
5,
7,
5,
5,
7,
5,
4,
5,
5,
5,
7,
5,
4,
7,
5,
5,
7,
5,
4,
7,
5,
5,
5,
5,
4,
5,
5,
5,
5,
5,
4,
7,
5,
4,
5,
5,
4,
7,
4,
4,
5,
5,
4,
7,
4,
5,
5,
5,
4,
7,
4,
4,
5,
5,
4,
5,
5,
4,
7,
5,
4,
5,
5,
4,
7,
4,
4,
5,
5,
5,
7,
4,
4,
7,
5,
5,
5,
5,
4,
5,
5,
5,
5,
5,
4,
7,
4,
4,
5,
5,
4,
5,
4,
5,
7,
5,
4,
5,
4,
4,
5,
4,
4,
5,
4,
4,
5,
5,
4,
7,
5,
4,
5,
5,
4,
5,
4,
4,
5,
5,
4,
7,
5,
5,
7,
5,
4,
5,
4,
4,
5,
5,
4,
7,
5,
5,
5,
5,
4,
5,
4,
4,
5,
4,
4,
5,
4,
4,
5,
4,
4,
5,
4,
4,
5,
4,
4,
7,
4,
4,
5,
5,
4,
7,
4,
4,
5,
4,
4,
5,
4,
4,
5,
5,
4,
5,
5,
4,
7,
5,
4,
5,
4,
4,
7,
4,
3,
5,
5,
4,
5,
4,
4,
7,
5,
4,
5,
4,
3,
5,
5,
4,
5,
4,
4,
5,
4,
4,
4,
4,
4,
5,
4,
4,
5,
4,
4,
5,
4,
4,
5,
5,
4,
5,
4,
4,
5,
4,
4,
5,
4,
4,
5,
5,
4,
5,
4,
4,
5,
4,
4,
5,
4,
4,
5,
5,
4,
5,
4,
4,
5,
4,
4,
5,
4,
4,
5,
4,
4,
5,
4,
4,
5,
4,
4,
5,
4,
4,
5,
4,
4,
5,
4,
3,
5,
4,
4,
5,
4,
4,
5,
4,
4,
5,
4,
4,
5,
4,
3,
5,
4,
4,
5,
4,
4,
5,
5,
4,
5,
4,
4,
7,
5,
4,
4,
4,
4,
5,
4,
3,
5,
4,
4,
5,
4,
4,
5,
5,
4,
5,
4,
3,
5,
4,
4,
5,
4,
4,
5,
4,
3,
5,
4,
4,
5,
4,
3,
5,
4,
4,
5,
4,
4,
5,
4,
3,
5,
4,
4,
5,
4,
4,
5,
4,
4,
5,
4,
3,
5,
4,
4,
5,
4,
4,
5,
4,
4,
5,
4,
3,
4,
4,
4,
5,
4,
4,
5,
5,
4,
5,
4,
4,
5,
4,
4,
5,
4,
4,
5,
4,
4,
5,
4,
3,
5,
4,
4,
5,
4,
4,
4,
4,
3,
5,
4,
4,
5,
4,
4,
5,
4,
4,
5,
4,
4,
5,
5,
4,
5,
4,
3,
5,
4,
4,
5,
4,
4,
5,
5,
3,
5,
4,
4,
5,
4,
3,
5,
4,
4,
4,
4,
3,
5,
5,
4,
5,
4,
4,
4,
4,
3,
5,
4,
3,
5,
4,
3,
4,
4,
4,
5,
4,
4,
5,
4,
3,
5,
4,
4,
5,
4,
3,
5,
4,
3,
5,
4,
3,
5,
3,
3,
4,
4,
4,
5,
4,
3,
5,
4,
3,
5,
4,
3,
5,
4,
4,
5,
3,
3,
5,
4,
3,
5,
3,
4,
5,
4,
4,
4,
4,
4,
5,
4,
3,
5,
4,
4,
5,
4,
3,
5,
4,
4,
5,
4,
3,
5,
3,
3,
5,
4,
4,
4,
4,
3,
4,
4,
4,
5,
4,
3,
4,
4,
3,
5,
4,
3,
5,
4,
3,
5,
4,
4,
5,
4,
3,
5,
4,
3,
4,
4,
3,
5,
4,
3,
4,
4,
4,
5,
4,
3,
4,
4,
3,
5,
3,
4,
4,
4,
4,
4,
4,
3,
4,
4,
3,
5,
4,
3,
5,
4,
3,
5,
4,
3,
5,
4,
3,
5,
3,
3,
5,
4,
3,
5,
4,
4,
5,
4,
3,
5,
4,
3,
4,
3,
3,
5,
4,
3,
4,
4,
3,
4,
3,
3,
4,
3,
3,
4,
3,
3,
4,
4,
3,
4,
3,
3,
5,
3,
2,
4,
4,
3,
4,
4,
3,
5,
4,
3,
4,
3,
3,
5,
4,
3,
4,
4,
3,
5,
3,
3,
5,
4,
3,
5,
4,
3,
5,
4,
3,
5,
3,
3,
4,
3,
3,
4,
4,
3,
4,
4,
3,
5,
3,
3,
4,
3,
3,
4,
3,
3,
4,
4,
3,
4,
3,
3,
4,
4,
3,
4,
3,
3,
4,
4,
3,
4,
3,
3,
5,
4,
3,
5,
4,
3,
5,
4,
3,
4,
3,
3,
4,
3,
3,
4,
3,
3,
4,
3,
2,
4,
3,
3,
4,
3,
3,
4,
3,
3,
3,
3,
3,
5,
3,
3,
4,
3,
3,
5,
3,
3,
4,
4,
3,
5,
3,
3,
4,
4,
3,
4,
3,
3,
5,
4,
3,
4,
3,
4,
5,
4,
3,
5,
4,
4,
5,
4,
3,
5,
3,
4,
5,
4,
3,
5,
4,
3,
5,
4,
3,
5,
4,
4,
4,
4,
3,
4,
4,
3,
4,
4,
3,
4,
4,
3,
4,
3,
3,
3,
3,
2,
4,
3,
3,
4,
3,
3,
4,
3,
3,
4,
3,
3,
4,
3,
3,
4,
3,
3,
4,
3,
3,
4,
3,
3,
4,
4,
3,
4,
3,
3,
4,
3,
3,
4,
3,
3,
4,
4,
2,
4,
3,
3,
4,
3,
3,
4,
3,
3,
4,
4,
3,
4,
3,
3,
4,
3,
3,
4,
4,
4,
4,
3,
3,
4,
3,
3,
4,
3,
3,
4,
4,
3,
4,
3,
3,
4,
3,
3,
4,
3,
3,
4,
3,
3,
4,
4,
3,
4,
3,
3,
4,
3,
3,
4,
3,
2,
4,
3,
3,
4,
3,
3,
4,
3,
3,
4,
3,
3,
3,
3,
2,
3,
4,
3,
4,
3,
2,
4,
3,
3,
4,
3,
3,
4,
3,
3,
4,
3,
3,
4,
3,
3,
4,
4,
3,
4,
3,
3,
4,
3,
3,
4,
3,
2,
4,
4,
3,
4,
3,
3,
4,
3,
3,
4,
3,
3,
4,
3,
2,
4,
3,
3,
4,
3,
3,
4,
3,
3,
4,
3,
3,
4,
3,
3,
4,
3,
3,
4,
3,
3,
4,
3,
3,
4,
3,
2,
4,
3,
3,
3,
3,
2,
4,
3,
2,
4,
2,
3,
4,
3,
3,
3,
3,
3,
4,
4,
2,
4,
3,
3,
4,
3,
3,
3,
3,
3,
4,
3,
2,
4,
3,
3,
4,
3,
3,
4,
3,
2,
3,
3,
3,
4,
3,
2,
4,
3,
3,
4,
3,
3,
4,
3,
3,
4,
3,
3,
4,
3,
2,
4,
3,
2,
4,
3,
3,
4,
3,
2,
4,
3,
3,
3,
3,
2,
4,
3,
3,
3,
3,
2,
4,
2,
3,
4,
3,
3,
4,
3,
2,
4,
3,
2,
4,
2,
3,
4,
3,
2,
4,
3,
3,
3,
3,
2,
3,
3,
3,
3,
2,
2,
4,
3,
2,
4,
3,
3,
4,
3,
2,
3,
2,
2,
4,
3,
2,
4,
3,
3,
4,
2,
3,
3,
3,
2,
4,
3,
2,
3,
3,
3,
4,
3,
3,
3,
3,
2,
4,
3,
2,
4,
3,
2,
4,
2,
2,
4,
3,
2,
3,
3,
2,
3,
3,
2,
3,
2,
3,
3,
3,
2,
3,
3,
2,
4,
2,
2,
3,
3,
3,
3,
2,
2,
4,
3,
2,
3,
3,
2,
4,
3,
2,
3,
3,
2,
4,
2,
2,
3,
3,
2,
3,
2,
3,
3,
3,
2,
4,
3,
2,
3,
3,
2,
4,
3,
3,
3,
3,
2,
4,
3,
2,
3,
3,
2,
3,
2,
3,
3,
3,
2,
3,
2,
2,
3,
4,
2,
4,
3,
2,
3,
3,
2,
4,
2,
2,
3,
3,
2,
3,
2,
3,
3,
3,
2,
4,
3,
2,
3,
3,
2,
4,
3,
3,
3,
3,
2,
4,
3,
2,
3,
3,
2,
4,
3,
2,
3,
3,
2,
4,
3,
2,
3,
3,
2,
3,
2,
2,
3,
3,
2,
4,
2,
2,
3,
3,
2,
3,
2,
3,
3,
2,
2,
4,
3,
2,
3,
3,
2,
4,
3,
2,
3,
3,
2,
4,
3,
2,
3,
3,
3,
4,
2,
2,
3,
3,
2,
3,
2,
2,
3,
3,
2,
3,
2,
3,
3,
3,
2,
4,
3,
2,
3,
3,
2,
3,
3,
3,
3,
3,
2,
4,
3,
2,
3,
3,
2,
4,
3,
2,
3,
3,
2,
4,
3,
2,
3,
3,
2,
3,
2,
2,
3,
2,
2,
4,
2,
2,
3,
3,
2,
3,
2,
2,
3,
3,
2,
3,
2,
2,
3,
3,
2,
3,
2,
3,
3,
3,
2,
3,
2,
2,
3,
3,
2,
4,
3,
2,
2,
2,
2,
4,
3,
2,
3,
3,
2,
3,
2,
2,
3,
2,
2,
4,
2,
0,
3,
3,
2,
3,
2,
2,
3,
3,
2,
4,
2,
2,
3,
3,
2,
3,
2,
3,
3,
2,
2,
3,
2,
2,
3,
2,
2,
3,
3,
3,
3,
2,
2,
4,
2,
2,
3,
2,
2,
3,
2,
2,
3,
2,
2,
4,
2,
2,
3,
3,
2,
4,
3,
0,
3,
2,
2,
4,
2,
2,
3,
3,
2,
3,
2,
2,
3,
2,
2,
3,
3,
2,
3,
3,
2,
3,
2,
2,
3,
2,
2,
4,
3,
2,
3,
2,
2,
3,
2,
2,
3,
2,
2,
3,
2,
2,
3,
3,
2,
3,
2,
2,
3,
2,
2,
3,
2,
2,
3,
3,
2,
3,
2,
2,
3,
2,
2,
4,
2,
2,
2,
3,
2,
3,
2,
2,
3,
2,
2,
4,
2,
0,
3,
2,
2,
3,
2,
2,
3,
2,
2,
3,
2,
2,
3,
3,
2,
3,
3,
2,
3,
2,
2,
4,
3,
2,
3,
3,
2,
3,
2,
2,
3,
2,
2,
3,
2,
0,
3,
3,
2,
3,
2,
2,
3,
2,
2,
4,
2,
2,
3,
2,
2,
3,
2,
2,
3,
2,
2,
4,
13,
65,
112,
130,
132,
127,
119,
108,
104,
101,
98,
93,
86,
81,
79,
75,
71,
69,
65,
60,
58,
57,
55,
52,
48,
46,
46,
45,
42,
41,
38,
37,
36,
34,
33,
32,
31,
29,
29,
28,
27,
27,
26,
24,
24,
23,
22,
22,
21,
21,
21,
19,
18,
19,
18,
17,
18,
17,
16,
17,
16,
14,
16,
14,
13,
16,
14,
14,
14,
13,
12,
14,
13,
12,
12,
12,
12,
13,
12,
10,
12,
10,
10,
12,
10,
10,
12,
10,
10,
12,
9,
10,
10,
10,
9,
12,
9,
9,
10,
10,
9,
10,
9,
9,
10,
9,
8,
10,
10,
9,
10,
9,
9,
10,
9,
9,
10,
9,
9,
10,
9,
9,
10,
9,
9,
9,
9,
9,
10,
9,
8,
10,
9,
9,
10,
8,
9,
10,
9,
9,
9,
9,
8,
9,
8,
8,
9,
9,
9,
10,
9,
9,
9,
8,
8,
10,
8,
8,
9,
9,
8,
10,
8,
8,
9,
9,
9,
9,
9,
8,
9,
9,
8,
9,
8,
8,
10,
9,
8,
9,
9,
8,
9,
8,
8,
9,
8,
9,
9,
8,
8,
9,
9,
8,
9,
8,
8,
9,
8,
8,
9,
8,
8,
9,
9,
8,
9,
8,
8,
9,
8,
8,
9,
9,
8,
9,
9,
8,
9,
8,
8,
9,
8,
8,
9,
8,
8,
9,
9,
8,
9,
8,
8,
9,
8,
8,
9,
9,
8,
9,
8,
8,
9,
8,
8,
9,
8,
8,
9,
8,
8,
9,
9,
8,
9,
8,
8,
9,
8,
8,
9,
9,
8,
9,
8,
8,
9,
8,
8,
9,
7,
8,
9,
8,
7,
9,
7,
8,
9,
8,
8,
9,
8,
8,
9,
8,
8,
9,
8,
8,
9,
8,
8,
9,
8,
8,
9,
8,
7,
9,
8,
8,
8,
8,
8,
9,
8,
8,
9,
8,
8,
9,
8,
7,
8,
8,
8,
9,
8,
8,
9,
9,
8,
9,
8,
8,
9,
8,
8,
9,
7,
8,
9,
8,
7,
9,
8,
7,
9,
8,
7,
9,
8,
7,
8,
7,
7,
9,
9,
7,
8,
8,
8,
9,
8,
7,
8,
8,
8,
8,
8,
7,
8,
8,
7,
8,
7,
7,
8,
8,
7,
9,
7,
7,
9,
8,
7,
8,
8,
7,
9,
8,
7,
8,
7,
7,
8,
7,
7,
8,
7,
7,
9,
8,
7,
8,
8,
7,
8,
8,
7,
8,
8,
8,
8,
8,
7,
9,
8,
7,
8,
7,
7,
8,
8,
7,
8,
7,
7,
9,
8,
7,
8,
8,
8,
9,
7,
7,
8,
8,
7,
8,
7,
7,
8,
8,
7,
9,
7,
7,
9,
8,
7,
8,
7,
8,
8,
7,
7,
8,
7,
7,
8,
8,
7,
8,
7,
7,
8,
8,
7,
8,
7,
7,
8,
8,
7,
8,
7,
7,
8,
7,
7,
8,
7,
7,
8,
7,
7,
8,
7,
7,
8,
7,
7,
8,
8,
7,
8,
8,
7,
8,
7,
7,
8,
7,
7,
8,
7,
7,
8,
8,
7,
8,
7,
7,
8,
7,
7,
8,
7,
7,
7,
7,
7,
8,
7,
7,
8,
7,
7,
8,
7,
7,
8,
8,
7,
8,
5,
7,
8,
7,
7,
8,
7,
7,
8,
7,
5,
8,
7,
7,
8,
7,
7,
8,
7,
7,
7,
7,
7,
8,
7,
7,
8,
7,
5,
8,
7,
7,
7,
7,
5,
7,
5,
7,
7,
7,
5,
8,
5,
7,
7,
7,
5,
8,
7,
5,
8,
7,
5,
8,
7,
5,
7,
7,
7,
8,
7,
7,
8,
7,
7,
8,
5,
7,
7,
7,
5,
7,
7,
7,
7,
7,
5,
8,
7,
7,
7,
5,
5,
8,
7,
5,
7,
5,
7,
8,
7,
5,
7,
7,
5,
7,
5,
5,
8,
7,
5,
7,
5,
5,
7,
7,
5,
7,
5,
7,
8,
5,
5,
7,
7,
5,
7,
7,
5,
7,
7,
7,
7,
5,
5,
8,
7,
5,
7,
7,
5,
8,
5,
5,
7,
7,
7,
7,
5,
7,
7,
7,
5,
7,
5,
5,
7,
7,
5,
7,
5,
5,
7,
5,
5,
7,
5,
7,
7,
5,
5,
7,
5,
7,
7,
5,
5,
7,
7,
5,
7,
7,
5,
8,
7,
5,
7,
7,
5,
8,
5,
5,
7,
5,
5,
7,
5,
5,
7,
5,
5,
7,
5,
5,
7,
5,
5,
7,
5,
5,
7,
5,
5,
7,
5,
5,
7,
5,
5,
7,
5,
5,
7,
5,
5,
7,
5,
5,
7,
5,
5,
7,
5,
5,
7,
5,
5,
7,
7,
7,
7,
5,
5,
7,
5,
5,
7,
5,
5,
7,
5,
5,
7,
5,
5,
7,
5,
5,
7,
5,
5,
7,
5,
5,
7,
5,
5,
7,
5,
5,
7,
5,
5,
7,
5,
5,
7,
5,
5,
7,
5,
5,
7,
5,
4,
7,
5,
5,
7,
5,
5,
7,
5,
5,
7,
5,
5,
7,
5,
5,
7,
5,
5,
7,
5,
4,
7,
5,
4,
7,
5,
5,
7,
4,
4,
7,
5,
5,
7,
5,
5,
7,
7,
5,
7,
5,
4,
7,
5,
4,
7,
5,
5,
7,
5,
5,
5,
5,
5,
7,
5,
4,
7,
5,
5,
5,
5,
5,
5,
7,
5,
7,
5,
5,
7,
5,
4,
7,
5,
5,
7,
5,
4,
7,
5,
5,
7,
5,
4,
7,
5,
5,
7,
5,
4,
7,
5,
4,
5,
4,
4,
7,
5,
4,
5,
5,
5,
7,
5,
4,
5,
5,
5,
5,
5,
5,
7,
5,
5,
7,
5,
5,
5,
5,
4,
5,
5,
5,
5,
5,
4,
7,
5,
5,
5,
5,
4,
5,
5,
5,
7,
5,
4,
7,
5,
4,
5,
5,
4,
7,
5,
5,
7,
5,
4,
5,
5,
4,
5,
5,
4,
5,
5,
4,
5,
4,
4,
7,
5,
4,
5,
5,
4,
5,
5,
4,
7,
5,
4,
5,
4,
4,
5,
5,
4,
5,
5,
5,
7,
5,
4,
7,
5,
4,
5,
5,
4,
5,
5,
5,
5,
4,
4,
5,
5,
4,
5,
4,
4,
5,
5,
4,
5,
5,
4,
7,
4,
4,
5,
5,
4,
5,
4,
4,
5,
5,
4,
5,
4,
5,
5,
4,
4,
5,
4,
4,
5,
5,
4,
5,
4,
4,
5,
4,
4,
5,
4,
4,
5,
5,
4,
5,
4,
5,
5,
4,
4,
5,
5,
4,
5,
5,
4,
7,
4,
4,
5,
4,
4,
7,
5,
4,
5,
4,
4,
7,
4,
4,
5,
5,
4,
5,
4,
3,
5,
5,
4,
5,
4,
4,
5,
5,
4,
5,
4,
4,
7,
4,
4,
5,
4,
4,
5,
5,
3,
5,
4,
4,
5,
4,
4,
5,
5,
4,
5,
4,
3,
5,
5,
4,
5,
4,
4,
5,
4,
4,
4,
4,
4,
5,
4,
3,
5,
4,
4,
5,
4,
4,
5,
5,
4,
5,
4,
4,
5,
4,
4,
5,
4,
4,
5,
5,
4,
5,
5,
4,
5,
4,
3,
5,
4,
4,
5,
4,
4,
5,
5,
4,
5,
4,
4,
5,
4,
4,
5,
4,
4,
5,
4,
3,
5,
5,
4,
5,
4,
3,
5,
4,
4,
5,
4,
4,
5,
4,
4,
5,
4,
4,
5,
4,
4,
5,
5,
4,
5,
4,
4,
5,
4,
4,
5,
4,
4,
5,
4,
4,
5,
4,
4,
5,
4,
4,
5,
4,
3,
5,
4,
4,
5,
4,
4,
5,
4,
4,
5,
4,
4,
5,
4,
3,
5,
4,
4,
5,
4,
4,
5,
4,
4,
5,
4,
3,
5,
4,
3,
5,
4,
4,
5,
4,
3,
5,
4,
3,
4,
3,
3,
5,
4,
4,
4,
4,
4,
5,
4,
3,
5,
5,
4,
5,
4,
3,
5,
4,
4,
5,
4,
3,
5,
4,
4,
5,
4,
4,
5,
4,
4,
4,
4,
3,
5,
4,
3,
5,
4,
3,
5,
4,
4,
5,
4,
4,
5,
3,
4,
4,
4,
4,
4,
4,
3,
5,
4,
3,
5,
3,
3,
5,
4,
3,
4,
4,
4,
5,
4,
3,
5,
3,
3,
5,
4,
3,
5,
4,
3,
4,
4,
3,
5,
4,
3,
4,
4,
4,
5,
4,
3,
4,
4,
3,
5,
4,
4,
5,
3,
3,
5,
4,
4,
4,
4,
3,
5,
4,
3,
4,
3,
4,
5,
4,
3,
4,
3,
3,
5,
3,
3,
4,
4,
4,
5,
4,
3,
4,
4,
3,
5,
3,
3,
5,
4,
4,
4,
3,
3,
5,
4,
3,
5,
3,
3,
5,
4,
3,
4,
4,
4,
5,
4,
3,
4,
4,
3,
4,
3,
3,
4,
3,
3,
4,
4,
3,
5,
3,
4,
4,
3,
4,
5,
4,
3,
4,
4,
3,
5,
3,
3,
4,
3,
4,
5,
4,
3,
4,
4,
4,
5,
3,
3,
5,
4,
3,
4,
3,
3,
4,
4,
3,
4,
4,
4,
5,
4,
3,
4,
3,
3,
4,
3,
3,
5,
3,
3,
4,
3,
4,
5,
4,
3,
4,
4,
3,
5,
3,
3,
5,
4,
3,
4,
4,
3,
4,
4,
3,
4,
3,
3,
4,
4,
4,
4,
4,
3,
4,
4,
3,
4,
3,
3,
4,
4,
3,
4,
4,
3,
4,
3,
3,
5,
3,
3,
4,
3,
3,
5,
4,
3,
4,
4,
3,
5,
4,
3,
5,
4,
3,
5,
3,
3,
4,
4,
3,
4,
3,
3,
4,
3,
3,
4,
3,
3,
4,
4,
3,
4,
3,
3,
5,
4,
3,
5,
3,
3,
4,
4,
3,
4,
3,
3,
4,
4,
3,
4,
3,
3,
4,
4,
3,
4,
3,
3,
4,
3,
3,
4,
3,
3,
4,
4,
3,
5,
3,
3,
4,
3,
3,
4,
4,
3,
4,
4,
3,
4,
3,
3,
5,
4,
3,
4,
3,
2,
4,
4,
3,
4,
3,
3,
4,
3,
3,
4,
3,
3,
4,
4,
2,
4,
3,
3,
4,
3,
3,
5,
4,
3,
4,
3,
3,
5,
3,
3,
4,
3,
3,
5,
4,
3,
4,
4,
3,
5,
3,
3,
4,
3,
3,
4,
3,
3,
4,
4,
3,
4,
3,
3,
4,
3,
3,
4,
3,
3,
4,
4,
3,
4,
3,
3,
4,
3,
3,
4,
4,
3,
4,
4,
3,
5,
3,
3,
4,
3,
3,
4,
4,
3,
3,
3,
3,
4,
3,
3,
4,
3,
3,
4,
3,
3,
4,
4,
3,
4,
3,
3,
4,
3,
3,
4,
3,
3,
4,
4,
3,
4,
3,
3,
4,
3,
3,
4,
4,
3,
4,
3,
3,
4,
3,
3,
4,
3,
3,
4,
3,
2,
3,
4,
2,
4,
2,
3,
4,
3,
3,
4,
3,
2,
4,
3,
2,
4,
3,
3,
4,
3,
3,
4,
3,
3,
4,
3,
3,
4,
3,
3,
4,
4,
3,
5,
4,
3,
4,
3,
3,
5,
3,
3,
4,
3,
3,
5,
4,
3,
4,
4,
3,
4,
3,
3,
4,
4,
3,
4,
3,
2,
4,
4,
3,
4,
2,
3,
4,
3,
3,
3,
3,
2,
4,
3,
2,
3,
4,
3,
4,
3,
3,
4,
3,
2,
4,
3,
3,
4,
3,
2,
4,
3,
3,
4,
3,
3,
4,
4,
3,
4,
3,
3,
4,
3,
3,
4,
3,
2,
4,
3,
3,
4,
3,
2,
4,
3,
3,
4,
3,
3,
4,
4,
3,
4,
3,
3,
4,
4,
3,
4,
3,
2,
4,
3,
3,
4,
3,
2,
4,
3,
3,
4,
3,
2,
4,
2,
2,
3,
3,
2,
4,
3,
3,
27,
76,
108,
117,
115,
113,
103,
96,
93,
90,
86,
82,
77,
74,
71,
69,
65,
60,
57,
55,
53,
52,
48,
46,
45,
42,
41,
40,
37,
34,
34,
33,
32,
32,
29,
28,
28,
27,
26,
26,
24,
22,
23,
21,
21,
21,
19,
19,
19,
18,
17,
18,
17,
16,
17,
16,
16,
16,
14,
14,
14,
14,
13,
14,
13,
13,
13,
13,
12,
13,
12,
12,
12,
12,
12,
13,
12,
12,
12,
10,
12,
12,
10,
10,
12,
10,
9,
12,
10,
10,
12,
12,
9,
10,
9,
9,
12,
9,
9,
10,
9,
9,
10,
9,
9,
10,
9,
8,
9,
9,
8,
10,
9,
8,
9,
9,
8,
10,
9,
9,
9,
9,
8,
9,
9,
8,
10,
9,
8,
10,
9,
9,
10,
9,
8,
9,
9,
8,
9,
9,
9,
10,
9,
8,
9,
9,
8,
9,
8,
8,
9,
9,
8,
10,
8,
8,
10,
9,
8,
9,
8,
8,
9,
9,
8,
9,
8,
9,
9,
8,
8,
9,
9,
8,
9,
8,
8,
9,
8,
8,
9,
8,
8,
9,
9,
8,
9,
9,
8,
9,
8,
8,
9,
8,
8,
9,
9,
8,
9,
9,
8,
9,
8,
8,
9,
9,
8,
9,
9,
8,
9,
8,
8,
9,
8,
8,
9,
8,
8,
9,
8,
8,
9,
9,
8,
9,
8,
8,
9,
8,
7,
8,
8,
8,
9,
8,
7,
9,
8,
8,
8,
8,
7,
9,
8,
8,
9,
8,
8,
9,
8,
8,
8,
8,
8,
9,
8,
8,
9,
8,
8,
9,
8,
8,
8,
8,
7,
9,
8,
8,
9,
8,
8,
9,
8,
7,
9,
8,
7,
8,
8,
7,
9,
8,
8,
9,
7,
7,
9,
8,
7,
8,
7,
8,
9,
8,
7,
8,
7,
8,
8,
8,
7,
8,
8,
8,
8,
7,
7,
8,
8,
7,
9,
7,
7,
9,
7,
7,
8,
7,
7,
8,
7,
8,
9,
8,
7,
9,
8,
7,
8,
8,
8,
9,
8,
7,
8,
8,
8,
8,
8,
7,
8,
8,
7,
8,
7,
7,
8,
8,
7,
8,
7,
8,
9,
7,
7,
8,
7,
7,
8,
8,
7,
8,
8,
7,
8,
8,
7,
9,
7,
7,
8,
8,
7,
8,
8,
7,
8,
8,
7,
8,
7,
7,
8,
8,
7,
8,
7,
7,
9,
8,
7,
8,
7,
8,
8,
8,
5,
7,
7,
7,
8,
7,
7,
8,
8,
7,
7,
7,
5,
9,
7,
7,
8,
7,
7,
9,
7,
7,
8,
7,
8,
8,
8,
7,
8,
8,
7,
8,
7,
7,
8,
8,
7,
8,
7,
7,
8,
8,
7,
8,
7,
7,
8,
8,
7,
7,
7,
7,
8,
7,
7,
8,
7,
7,
8,
7,
7,
8,
7,
7,
8,
7,
5,
8,
7,
7,
7,
7,
5,
8,
7,
7,
7,
7,
7,
8,
7,
5,
7,
7,
7,
8,
7,
7,
8,
7,
7,
8,
7,
7,
8,
8,
7,
8,
7,
7,
8,
7,
7,
8,
7,
7,
7,
7,
7,
8,
7,
7,
8,
7,
7,
8,
7,
7,
8,
7,
5,
8,
7,
7,
8,
7,
5,
8,
7,
7,
7,
7,
7,
8,
7,
7,
7,
7,
5,
8,
7,
7,
7,
7,
7,
8,
5,
7,
8,
7,
7,
8,
5,
7,
7,
7,
5,
8,
5,
7,
8,
7,
7,
8,
7,
7,
8,
7,
5,
7,
5,
7,
7,
7,
5,
8,
5,
7,
7,
7,
5,
8,
5,
7,
8,
7,
5,
8,
5,
7,
7,
7,
5,
8,
7,
7,
7,
5,
5,
8,
7,
5,
7,
7,
5,
8,
7,
7,
7,
5,
7,
7,
5,
7,
7,
7,
5,
7,
7,
5,
7,
7,
5,
8,
7,
7,
7,
7,
5,
7,
5,
7,
8,
7,
5,
7,
5,
5,
8,
7,
5,
7,
5,
5,
7,
7,
5,
8,
5,
5,
7,
5,
5,
7,
7,
5,
7,
5,
5,
7,
5,
7,
7,
7,
5,
7,
5,
5,
7,
5,
5,
8,
5,
5,
7,
5,
4,
7,
5,
5,
7,
7,
5,
7,
7,
7,
7,
7,
5,
7,
5,
5,
7,
5,
5,
7,
7,
5,
7,
5,
5,
7,
5,
5,
7,
7,
5,
7,
5,
5,
7,
7,
5,
7,
5,
5,
7,
7,
5,
7,
5,
5,
7,
5,
5,
7,
5,
5,
7,
5,
5,
7,
5,
5,
7,
5,
5,
7,
5,
5,
7,
5,
5,
7,
5,
5,
7,
5,
5,
7,
5,
5,
7,
5,
5,
7,
7,
5,
7,
5,
5,
7,
7,
5,
7,
7,
5,
7,
5,
5,
7,
7,
5,
7,
5,
5,
7,
5,
5,
7,
5,
5,
7,
5,
5,
7,
5,
5,
7,
7,
5,
7,
5,
5,
7,
5,
4,
7,
5,
5,
7,
5,
5,
7,
5,
5,
7,
5,
4,
5,
5,
5,
7,
5,
4,
7,
7,
5,
7,
5,
4,
7,
5,
5,
5,
5,
5,
7,
5,
5,
5,
5,
5,
7,
5,
4,
7,
5,
5,
7,
5,
4,
5,
5,
5,
7,
5,
5,
7,
5,
5,
7,
5,
5,
7,
5,
4,
7,
5,
5,
7,
5,
4,
7,
5,
5,
5,
5,
4,
7,
5,
5,
7,
5,
4,
7,
5,
5,
7,
5,
5,
7,
5,
5,
5,
5,
5,
7,
5,
4,
7,
5,
5,
5,
5,
5,
7,
5,
5,
7,
5,
5,
7,
5,
4,
5,
5,
5,
7,
5,
4,
7,
5,
5,
7,
5,
4,
5,
5,
5,
5,
5,
5,
7,
5,
5,
7,
5,
5,
7,
5,
5,
5,
5,
5,
7,
5,
4,
5,
5,
4,
5,
5,
5,
7,
5,
4,
7,
4,
4,
7,
5,
4,
5,
5,
4,
7,
5,
4,
7,
5,
4,
5,
5,
4,
7,
5,
5,
7,
5,
4,
5,
5,
4,
5,
5,
4,
5,
5,
4,
5,
5,
4,
5,
5,
4,
5,
5,
4,
7,
5,
5,
5,
4,
4,
7,
4,
4,
7,
5,
4,
5,
5,
5,
5,
5,
5,
5,
5,
4,
5,
4,
4,
5,
5,
5,
5,
4,
4,
5,
5,
5,
5,
5,
4,
7,
5,
4,
5,
4,
4,
7,
5,
4,
5,
5,
4,
7,
4,
4,
5,
4,
4,
5,
4,
4,
7,
5,
4,
5,
4,
4,
5,
4,
4,
5,
5,
4,
5,
5,
4,
5,
4,
4,
5,
5,
4,
5,
4,
4,
5,
5,
4,
5,
4,
4,
7,
4,
4,
5,
4,
4,
5,
5,
4,
5,
5,
5,
5,
4,
4,
5,
5,
4,
5,
4,
4,
5,
4,
4,
5,
4,
4,
5,
4,
4,
5,
4,
4,
5,
4,
4,
5,
4,
4,
5,
4,
4,
5,
4,
4,
5,
4,
4,
5,
4,
4,
7,
4,
4,
5,
4,
4,
5,
4,
4,
5,
4,
4,
5,
4,
4,
5,
4,
3,
5,
4,
4,
5,
4,
4,
5,
5,
4,
5,
4,
4,
5,
4,
4,
5,
4,
4,
5,
4,
4,
5,
4,
4,
5,
4,
3,
5,
4,
4,
5,
4,
4,
5,
4,
4,
5,
4,
3,
5,
4,
4,
5,
4,
4,
5,
4,
4,
5,
4,
3,
5,
4,
4,
5,
4,
4,
5,
4,
4,
5,
4,
4,
5,
4,
4,
5,
4,
4,
5,
4,
3,
5,
4,
4,
5,
4,
3,
5,
4,
4,
5,
4,
4,
5,
4,
4,
5,
4,
4,
5,
4,
4,
5,
4,
4,
4,
4,
3,
5,
4,
4,
5,
4,
4,
5,
4,
3,
5,
4,
4,
5,
4,
3,
5,
4,
4,
5,
4,
4,
5,
4,
3,
5,
4,
4,
5,
4,
3,
5,
4,
3,
5,
4,
3,
5,
4,
4,
5,
4,
4,
5,
4,
3,
4,
4,
3,
5,
4,
4,
5,
4,
4,
5,
4,
3,
5,
4,
4,
5,
4,
3,
5,
4,
4,
5,
4,
4,
4,
4,
3,
5,
3,
3,
5,
4,
4,
4,
3,
3,
5,
4,
3,
5,
3,
3,
5,
4,
3,
4,
4,
4,
5,
4,
3,
5,
4,
4,
5,
4,
3,
5,
4,
4,
4,
4,
3,
5,
4,
3,
4,
3,
3,
5,
4,
3,
4,
4,
3,
5,
4,
3,
5,
4,
4,
5,
4,
3,
5,
4,
3,
5,
3,
3,
4,
4,
4,
5,
3,
3,
4,
4,
3,
5,
4,
4,
5,
4,
3,
5,
4,
3,
4,
3,
3,
5,
3,
4,
4,
4,
4,
5,
4,
3,
4,
4,
3,
4,
3,
3,
5,
4,
4,
4,
4,
3,
5,
4,
3,
5,
3,
4,
5,
3,
3,
4,
4,
3,
4,
3,
3,
5,
4,
3,
5,
4,
3,
4,
4,
3,
4,
4,
3,
5,
3,
3,
4,
3,
3,
5,
4,
3,
4,
4,
3,
5,
3,
3,
4,
3,
3,
5,
4,
3,
4,
4,
3,
5,
3,
3,
5,
4,
3,
4,
4,
3,
4,
4,
3,
4,
4,
3,
4,
3,
3,
4,
4,
3,
4,
3,
3,
5,
4,
3,
4,
3,
3,
5,
3,
3,
4,
4,
3,
5,
3,
3,
4,
4,
3,
4,
4,
3,
4,
4,
3,
4,
3,
3,
5,
