src/long_1649/temp00772.CSV

Format,1.0B,
Memory Length,10000,
IntpDistance,0,
Trigger Address,4849,
Trigger Level,8.000E-01,
Source,CH1,
Vertical Units,V,
Vertical Units Div,0,
Vertical Units Extend Div,16,
Label,,
Probe Type,0,
Probe Ratio,1.000e+01,
Vertical Scale,2.000e-01,
Vertical Position,-6.800e-01,
Horizontal Units,S,
Horizontal Scale,2.000E-06,
Horizontal Position,3.000E-07,
Horizontal Mode,Main,
SincET Mode,Real Time,
Sampling Period,2.000e-09,
Horizontal Old Scale,2.000E-06,
Horizontal Old Position,3.000E-07,
Firmware,V1.23,
Mode,Fast,
Waveform Data,
3,
2,
4,
3,
3,
4,
3,
2,
4,
3,
3,
4,
2,
3,
4,
3,
3,
4,
3,
2,
4,
3,
2,
4,
2,
3,
4,
3,
3,
3,
3,
3,
4,
3,
3,
4,
3,
3,
4,
3,
3,
3,
3,
3,
4,
3,
3,
3,
3,
2,
4,
3,
3,
4,
3,
2,
4,
3,
2,
4,
3,
3,
4,
3,
3,
4,
3,
3,
4,
3,
2,
4,
3,
3,
4,
3,
3,
4,
3,
2,
4,
3,
3,
4,
3,
2,
4,
3,
3,
4,
3,
2,
4,
3,
2,
4,
3,
2,
3,
3,
3,
4,
3,
2,
4,
3,
3,
4,
2,
2,
4,
3,
3,
4,
3,
3,
4,
3,
2,
3,
2,
3,
4,
3,
3,
3,
3,
2,
4,
3,
2,
3,
3,
2,
4,
3,
3,
4,
3,
2,
3,
3,
2,
4,
3,
2,
4,
3,
3,
3,
3,
2,
4,
3,
2,
4,
2,
2,
4,
2,
3,
4,
3,
2,
4,
3,
2,
3,
3,
2,
4,
3,
3,
4,
3,
2,
4,
3,
2,
3,
2,
3,
4,
3,
3,
3,
2,
2,
4,
3,
2,
3,
3,
2,
4,
3,
3,
3,
3,
3,
4,
3,
3,
4,
3,
2,
4,
3,
3,
3,
3,
2,
4,
3,
2,
3,
3,
2,
4,
2,
3,
3,
3,
2,
4,
3,
2,
3,
3,
2,
4,
2,
3,
3,
3,
2,
4,
3,
2,
3,
3,
2,
4,
3,
2,
3,
3,
2,
4,
2,
2,
3,
3,
2,
4,
2,
3,
3,
3,
2,
4,
3,
2,
3,
3,
2,
4,
3,
3,
3,
3,
2,
4,
3,
2,
4,
3,
3,
4,
3,
3,
3,
3,
2,
4,
3,
2,
3,
3,
2,
4,
3,
3,
3,
3,
2,
4,
3,
2,
3,
3,
2,
4,
3,
3,
3,
3,
2,
4,
3,
2,
3,
3,
2,
4,
3,
3,
3,
3,
2,
4,
2,
2,
3,
3,
2,
3,
2,
3,
3,
3,
2,
4,
3,
2,
3,
3,
2,
3,
2,
3,
3,
3,
2,
4,
3,
2,
3,
3,
2,
3,
3,
3,
3,
3,
2,
4,
3,
3,
3,
3,
2,
4,
3,
3,
3,
2,
2,
4,
3,
2,
3,
3,
2,
4,
3,
2,
3,
3,
2,
4,
3,
2,
2,
3,
2,
4,
2,
2,
3,
3,
2,
4,
2,
2,
3,
3,
2,
3,
2,
2,
3,
3,
2,
4,
2,
2,
3,
3,
2,
4,
2,
2,
3,
3,
2,
4,
2,
2,
3,
3,
2,
3,
2,
2,
3,
2,
2,
3,
3,
2,
3,
2,
2,
3,
3,
2,
3,
2,
2,
4,
2,
2,
3,
2,
2,
3,
2,
3,
3,
3,
2,
4,
3,
2,
3,
3,
2,
4,
3,
3,
3,
2,
2,
4,
3,
2,
3,
3,
2,
4,
2,
2,
3,
3,
2,
4,
2,
2,
3,
3,
2,
3,
2,
2,
3,
3,
2,
3,
2,
2,
3,
3,
2,
3,
3,
3,
3,
3,
2,
3,
2,
2,
3,
3,
2,
4,
3,
2,
3,
2,
0,
4,
3,
2,
3,
7,
37,
94,
123,
129,
127,
122,
112,
103,
101,
98,
93,
88,
82,
79,
76,
72,
70,
66,
62,
60,
58,
56,
53,
51,
47,
46,
45,
42,
41,
38,
36,
36,
34,
32,
32,
31,
28,
28,
27,
26,
26,
24,
23,
24,
23,
22,
22,
21,
19,
21,
19,
18,
18,
17,
17,
18,
17,
14,
16,
16,
14,
16,
14,
13,
14,
13,
13,
14,
13,
12,
13,
13,
12,
13,
12,
12,
13,
12,
10,
12,
10,
10,
12,
10,
10,
12,
10,
9,
10,
10,
9,
12,
10,
9,
10,
10,
9,
10,
9,
9,
10,
9,
9,
10,
9,
9,
10,
9,
9,
10,
9,
9,
10,
9,
9,
10,
9,
9,
10,
9,
8,
10,
9,
9,
10,
9,
8,
9,
9,
8,
10,
8,
8,
10,
9,
9,
10,
9,
8,
10,
8,
8,
9,
8,
9,
10,
9,
9,
9,
9,
8,
9,
9,
8,
9,
9,
8,
10,
9,
8,
9,
9,
8,
9,
9,
8,
9,
9,
8,
10,
8,
8,
10,
9,
8,
9,
9,
8,
9,
8,
7,
9,
8,
8,
9,
8,
8,
9,
8,
8,
9,
8,
8,
9,
8,
8,
9,
8,
7,
8,
9,
8,
9,
8,
7,
8,
8,
8,
9,
8,
7,
8,
8,
7,
8,
8,
8,
9,
7,
7,
8,
8,
8,
9,
8,
7,
9,
8,
7,
8,
7,
7,
9,
8,
7,
8,
5,
7,
8,
8,
7,
8,
7,
8,
9,
8,
7,
9,
8,
8,
8,
8,
8,
9,
8,
8,
9,
9,
8,
10,
8,
8,
10,
9,
9,
9,
9,
9,
10,
9,
9,
10,
9,
9,
9,
9,
8,
10,
9,
9,
9,
9,
8,
10,
8,
8,
9,
8,
8,
9,
8,
8,
8,
8,
7,
8,
8,
7,
8,
7,
7,
8,
7,
7,
8,
8,
7,
8,
7,
7,
8,
7,
7,
8,
7,
7,
8,
8,
7,
8,
8,
8,
8,
8,
8,
9,
7,
8,
9,
8,
8,
9,
8,
8,
9,
8,
7,
8,
7,
8,
9,
8,
7,
8,
8,
7,
8,
7,
7,
8,
7,
7,
8,
7,
7,
8,
8,
7,
8,
7,
7,
8,
8,
8,
8,
8,
7,
9,
7,
7,
8,
7,
7,
9,
7,
7,
8,
8,
7,
8,
5,
7,
8,
7,
7,
8,
7,
7,
8,
7,
5,
8,
5,
7,
8,
7,
7,
8,
7,
7,
8,
7,
5,
8,
8,
7,
8,
7,
7,
8,
7,
7,
8,
8,
7,
8,
8,
7,
8,
7,
7,
8,
8,
8,
8,
7,
7,
8,
7,
7,
8,
7,
7,
8,
7,
7,
8,
8,
7,
9,
7,
7,
8,
8,
7,
9,
8,
8,
8,
8,
7,
9,
8,
7,
8,
8,
7,
8,
7,
7,
8,
8,
7,
8,
5,
7,
8,
7,
7,
8,
7,
7,
7,
7,
5,
8,
7,
7,
8,
7,
5,
8,
7,
7,
7,
7,
5,
7,
5,
5,
7,
7,
5,
8,
7,
5,
7,
7,
5,
8,
7,
5,
7,
7,
7,
8,
7,
7,
7,
7,
7,
8,
7,
5,
8,
7,
7,
8,
7,
7,
8,
7,
7,
8,
7,
7,
8,
8,
7,
8,
7,
8,
8,
8,
7,
8,
7,
7,
8,
7,
5,
8,
7,
7,
7,
7,
5,
8,
7,
7,
7,
5,
5,
8,
7,
7,
7,
7,
5,
8,
7,
7,
7,
7,
7,
7,
7,
7,
8,
7,
5,
7,
5,
7,
8,
5,
5,
7,
5,
7,
7,
7,
5,
7,
7,
7,
8,
7,
5,
8,
7,
7,
7,
7,
5,
8,
7,
7,
7,
5,
5,
8,
7,
7,
7,
7,
5,
8,
7,
5,
7,
7,
7,
8,
7,
7,
8,
7,
7,
7,
5,
7,
7,
7,
5,
7,
7,
7,
7,
7,
5,
7,
7,
5,
7,
5,
5,
8,
7,
7,
7,
5,
5,
7,
7,
7,
7,
7,
7,
8,
7,
5,
7,
7,
7,
8,
7,
5,
7,
5,
5,
7,
7,
7,
7,
7,
5,
7,
5,
5,
7,
5,
5,
7,
5,
5,
7,
7,
5,
7,
7,
5,
7,
7,
5,
7,
7,
7,
7,
5,
5,
7,
7,
5,
7,
5,
5,
8,
7,
5,
7,
5,
5,
7,
7,
5,
7,
7,
5,
8,
7,
5,
7,
5,
5,
8,
5,
5,
7,
7,
5,
7,
5,
5,
7,
7,
5,
7,
5,
7,
7,
7,
5,
7,
7,
5,
8,
7,
5,
7,
7,
7,
7,
5,
5,
7,
7,
7,
7,
7,
5,
7,
5,
5,
7,
5,
5,
7,
5,
5,
5,
5,
4,
7,
5,
5,
7,
5,
5,
7,
5,
5,
7,
5,
5,
7,
5,
5,
7,
5,
5,
7,
5,
5,
7,
5,
5,
7,
7,
5,
7,
5,
5,
7,
5,
5,
7,
5,
5,
7,
5,
4,
7,
5,
5,
7,
5,
5,
7,
7,
5,
7,
5,
5,
7,
7,
5,
8,
5,
5,
7,
5,
4,
7,
5,
5,
7,
5,
5,
7,
7,
5,
7,
5,
4,
7,
5,
5,
7,
5,
5,
7,
5,
5,
7,
5,
5,
7,
5,
5,
7,
5,
5,
7,
5,
5,
7,
5,
4,
7,
5,
5,
7,
4,
5,
7,
5,
5,
7,
5,
5,
7,
5,
4,
5,
5,
5,
7,
5,
4,
7,
5,
4,
5,
5,
5,
7,
5,
5,
5,
5,
5,
7,
5,
5,
7,
5,
5,
7,
5,
4,
7,
5,
5,
7,
5,
5,
7,
5,
5,
5,
5,
5,
7,
5,
5,
7,
5,
5,
5,
5,
5,
5,
5,
4,
7,
5,
5,
7,
5,
4,
7,
5,
5,
7,
5,
5,
7,
5,
4,
7,
5,
5,
5,
5,
4,
7,
5,
5,
7,
5,
4,
7,
5,
4,
5,
4,
5,
7,
4,
4,
5,
5,
4,
5,
5,
4,
7,
5,
5,
5,
5,
4,
7,
5,
5,
7,
5,
4,
5,
5,
5,
5,
5,
4,
7,
5,
5,
5,
5,
4,
5,
5,
5,
5,
4,
4,
7,
5,
4,
5,
4,
4,
5,
5,
5,
5,
5,
4,
5,
5,
4,
7,
5,
5,
7,
5,
4,
5,
5,
4,
5,
4,
4,
7,
5,
4,
5,
5,
5,
7,
4,
4,
5,
4,
5,
5,
5,
4,
5,
5,
5,
5,
5,
4,
5,
5,
5,
5,
4,
4,
5,
5,
5,
5,
4,
4,
7,
5,
4,
5,
5,
4,
5,
5,
4,
5,
5,
4,
5,
4,
4,
5,
5,
4,
5,
4,
4,
7,
5,
4,
5,
4,
4,
5,
5,
4,
5,
5,
4,
5,
5,
4,
5,
5,
4,
5,
4,
3,
5,
5,
4,
5,
4,
5,
7,
4,
4,
5,
4,
4,
5,
4,
4,
5,
4,
4,
7,
5,
4,
5,
5,
4,
5,
4,
4,
5,
4,
4,
5,
4,
4,
5,
5,
4,
5,
4,
3,
5,
4,
4,
5,
4,
4,
5,
5,
4,
5,
4,
4,
5,
4,
4,
5,
4,
4,
5,
4,
4,
5,
4,
4,
5,
4,
4,
5,
4,
4,
5,
4,
4,
5,
4,
4,
5,
4,
3,
5,
4,
4,
5,
4,
4,
5,
4,
4,
5,
4,
4,
5,
5,
4,
5,
4,
3,
5,
5,
4,
5,
4,
4,
5,
4,
4,
5,
4,
3,
5,
4,
3,
5,
4,
4,
5,
4,
4,
5,
4,
4,
5,
4,
4,
5,
4,
4,
5,
4,
4,
5,
5,
4,
4,
4,
3,
5,
4,
4,
5,
4,
4,
5,
4,
3,
5,
4,
4,
5,
4,
4,
5,
4,
4,
5,
4,
4,
5,
5,
3,
5,
4,
4,
5,
4,
4,
5,
4,
4,
5,
4,
4,
5,
4,
4,
5,
4,
4,
5,
5,
4,
5,
5,
4,
5,
5,
4,
5,
4,
4,
5,
4,
4,
5,
4,
4,
5,
4,
4,
5,
4,
4,
5,
5,
3,
4,
4,
3,
5,
4,
4,
5,
4,
4,
5,
4,
3,
5,
4,
4,
5,
4,
4,
5,
4,
4,
5,
4,
4,
5,
4,
4,
5,
4,
3,
5,
4,
4,
5,
4,
3,
5,
4,
4,
5,
4,
4,
5,
4,
4,
4,
4,
3,
4,
4,
3,
5,
4,
3,
5,
4,
4,
5,
4,
3,
5,
4,
4,
5,
4,
4,
5,
4,
4,
5,
5,
4,
5,
4,
3,
5,
4,
3,
5,
4,
4,
5,
4,
3,
4,
4,
3,
5,
3,
3,
4,
4,
4,
5,
4,
3,
5,
4,
3,
5,
4,
4,
5,
4,
4,
5,
4,
4,
5,
4,
3,
5,
4,
4,
5,
4,
4,
5,
4,
3,
4,
4,
3,
5,
4,
3,
5,
3,
3,
5,
4,
3,
4,
4,
3,
5,
4,
4,
4,
4,
4,
4,
4,
3,
4,
4,
3,
5,
3,
3,
5,
4,
4,
5,
4,
3,
4,
4,
3,
4,
3,
3,
5,
4,
4,
5,
4,
3,
5,
4,
3,
5,
4,
4,
5,
4,
3,
5,
4,
3,
4,
4,
3,
4,
4,
3,
4,
3,
3,
5,
4,
3,
4,
4,
3,
5,
4,
3,
4,
4,
3,
5,
4,
3,
4,
4,
3,
4,
3,
3,
4,
4,
3,
4,
3,
3,
4,
4,
3,
4,
3,
3,
4,
4,
3,
5,
3,
3,
4,
4,
3,
5,
3,
3,
4,
3,
3,
5,
3,
3,
4,
4,
3,
4,
3,
3,
5,
4,
3,
4,
3,
3,
4,
4,
3,
4,
3,
3,
4,
3,
3,
4,
3,
3,
4,
4,
2,
4,
3,
3,
4,
3,
3,
5,
3,
2,
4,
3,
3,
4,
3,
3,
4,
3,
3,
4,
3,
3,
4,
3,
3,
4,
3,
2,
4,
3,
3,
4,
3,
3,
4,
4,
3,
4,
3,
3,
4,
3,
3,
4,
3,
3,
4,
3,
2,
4,
3,
3,
4,
3,
3,
4,
3,
3,
4,
3,
3,
4,
3,
3,
4,
3,
3,
4,
3,
3,
4,
4,
3,
4,
3,
3,
4,
3,
3,
3,
3,
2,
4,
3,
3,
4,
3,
3,
4,
3,
2,
4,
3,
3,
4,
3,
2,
4,
3,
3,
4,
3,
3,
4,
3,
3,
4,
4,
3,
4,
3,
3,
4,
3,
3,
4,
3,
3,
4,
3,
2,
3,
3,
2,
4,
3,
3,
4,
3,
2,
4,
3,
2,
4,
3,
3,
4,
3,
3,
4,
3,
3,
4,
3,
2,
4,
3,
3,
4,
3,
3,
4,
3,
3,
4,
3,
2,
4,
3,
2,
3,
2,
3,
4,
3,
2,
4,
3,
2,
4,
3,
0,
4,
3,
3,
4,
3,
2,
4,
4,
2,
3,
2,
2,
4,
3,
3,
3,
3,
3,
4,
3,
2,
3,
3,
3,
4,
3,
3,
3,
3,
2,
4,
3,
2,
4,
3,
2,
4,
3,
3,
4,
3,
3,
4,
3,
2,
4,
3,
2,
4,
3,
3,
4,
3,
2,
4,
3,
2,
3,
3,
3,
4,
3,
3,
4,
3,
2,
4,
3,
2,
3,
3,
2,
4,
3,
2,
4,
3,
2,
4,
3,
2,
3,
3,
2,
3,
3,
3,
4,
3,
2,
4,
3,
2,
3,
3,
2,
3,
3,
3,
3,
3,
2,
4,
3,
2,
3,
3,
2,
4,
2,
3,
3,
3,
3,
4,
3,
2,
3,
3,
2,
4,
3,
3,
3,
3,
2,
4,
3,
2,
3,
3,
2,
4,
3,
3,
3,
3,
3,
4,
3,
2,
3,
3,
2,
4,
3,
3,
3,
3,
2,
4,
3,
2,
4,
3,
2,
4,
3,
3,
4,
3,
2,
3,
3,
2,
3,
3,
2,
4,
3,
2,
3,
3,
2,
4,
3,
2,
3,
3,
2,
3,
3,
3,
4,
3,
2,
4,
3,
2,
3,
3,
2,
4,
3,
3,
4,
3,
2,
4,
3,
2,
3,
3,
2,
4,
3,
3,
3,
3,
2,
4,
3,
2,
3,
3,
2,
4,
3,
2,
4,
3,
2,
4,
3,
2,
3,
4,
3,
4,
3,
3,
3,
3,
2,
4,
3,
2,
3,
3,
2,
4,
3,
3,
3,
3,
2,
4,
2,
2,
3,
3,
2,
3,
2,
2,
3,
3,
3,
4,
3,
2,
3,
3,
2,
4,
3,
3,
4,
3,
2,
4,
3,
3,
4,
3,
2,
4,
2,
3,
3,
3,
2,
4,
3,
2,
3,
3,
2,
4,
3,
2,
3,
3,
2,
4,
3,
2,
3,
3,
3,
4,
3,
3,
3,
3,
2,
4,
3,
2,
3,
3,
2,
4,
3,
3,
3,
3,
2,
4,
3,
2,
3,
3,
2,
3,
2,
3,
4,
3,
2,
3,
3,
2,
3,
3,
2,
4,
3,
3,
3,
3,
2,
4,
3,
2,
4,
3,
2,
3,
3,
3,
3,
3,
2,
4,
3,
2,
3,
3,
2,
4,
3,
3,
3,
2,
2,
4,
3,
2,
3,
3,
2,
4,
2,
2,
3,
3,
2,
4,
3,
2,
3,
4,
2,
4,
3,
2,
3,
3,
2,
4,
2,
2,
3,
3,
2,
4,
2,
2,
3,
3,
2,
4,
3,
2,
3,
3,
2,
4,
2,
3,
3,
3,
2,
4,
3,
3,
3,
3,
2,
4,
3,
3,
3,
3,
2,
4,
3,
2,
3,
3,
2,
4,
3,
3,
4,
3,
2,
4,
3,
2,
3,
4,
2,
4,
3,
3,
3,
3,
2,
4,
3,
2,
3,
3,
2,
4,
3,
3,
3,
3,
2,
4,
3,
2,
3,
3,
2,
4,
3,
2,
3,
3,
2,
4,
3,
2,
3,
3,
2,
3,
2,
2,
4,
3,
2,
4,
3,
2,
4,
3,
2,
3,
2,
3,
3,
3,
2,
3,
2,
2,
3,
3,
0,
3,
3,
3,
3,
2,
0,
4,
3,
2,
3,
3,
2,
4,
3,
3,
3,
3,
2,
4,
3,
2,
3,
3,
3,
4,
3,
2,
3,
3,
2,
4,
2,
2,
3,
3,
2,
3,
2,
2,
3,
3,
2,
3,
2,
2,
3,
3,
2,
4,
3,
3,
3,
3,
2,
4,
2,
2,
3,
3,
2,
4,
3,
3,
3,
3,
2,
4,
3,
2,
3,
3,
2,
4,
3,
3,
3,
3,
2,
4,
3,
2,
3,
3,
2,
4,
2,
3,
3,
3,
2,
4,
3,
2,
3,
3,
2,
3,
3,
3,
3,
3,
2,
4,
3,
3,
3,
3,
2,
4,
2,
3,
3,
3,
2,
4,
3,
2,
3,
3,
2,
4,
3,
3,
3,
2,
2,
4,
3,
2,
3,
3,
2,
4,
2,
2,
3,
3,
2,
4,
2,
2,
3,
3,
2,
4,
3,
3,
3,
3,
2,
4,
3,
2,
3,
3,
2,
4,
2,
2,
3,
3,
2,
4,
3,
2,
3,
3,
2,
4,
3,
2,
3,
3,
2,
4,
3,
2,
4,
3,
2,
3,
2,
3,
3,
3,
2,
4,
3,
2,
3,
3,
2,
3,
3,
2,
3,
2,
2,
4,
2,
2,
3,
3,
2,
3,
3,
3,
3,
3,
2,
4,
3,
2,
3,
3,
2,
4,
3,
2,
3,
3,
2,
4,
2,
2,
3,
3,
2,
3,
2,
2,
3,
3,
2,
4,
2,
2,
3,
3,
2,
3,
3,
3,
3,
3,
2,
4,
2,
2,
3,
2,
2,
3,
2,
2,
3,
3,
2,
3,
2,
2,
3,
3,
2,
3,
2,
2,
4,
2,
2,
3,
2,
3,
3,
3,
2,
3,
3,
3,
3,
2,
2,
4,
3,
2,
2,
3,
2,
4,
2,
2,
3,
2,
2,
4,
2,
2,
3,
3,
2,
3,
2,
2,
3,
3,
2,
4,
2,
2,
2,
3,
2,
4,
3,
2,
3,
2,
2,
4,
2,
2,
3,
3,
2,
3,
2,
2,
3,
3,
2,
4,
2,
0,
3,
3,
2,
3,
2,
2,
3,
2,
2,
3,
2,
2,
3,
2,
2,
3,
3,
2,
3,
2,
2,
4,
2,
2,
2,
3,
2,
4,
3,
2,
3,
2,
2,
3,
2,
2,
3,
3,
2,
3,
2,
2,
3,
3,
2,
3,
2,
2,
2,
3,
2,
3,
2,
2,
3,
2,
0,
3,
2,
2,
2,
2,
2,
3,
2,
2,
3,
3,
2,
3,
2,
2,
3,
2,
2,
3,
2,
2,
3,
2,
0,
4,
2,
2,
2,
2,
2,
3,
3,
2,
3,
2,
2,
4,
2,
0,
2,
3,
2,
3,
2,
2,
3,
2,
2,
3,
2,
2,
3,
3,
2,
3,
2,
2,
3,
2,
0,
3,
2,
0,
2,
2,
0,
3,
2,
2,
3,
2,
0,
3,
2,
2,
2,
2,
2,
3,
2,
2,
3,
2,
2,
3,
2,
2,
3,
3,
2,
3,
3,
2,
3,
2,
2,
4,
2,
2,
3,
3,
2,
3,
2,
2,
3,
2,
0,
3,
2,
2,
3,
2,
2,
3,
3,
0,
3,
2,
0,
4,
2,
2,
2,
2,
2,
3,
2,
0,
2,
2,
0,
3,
0,
0,
2,
2,
0,
3,
2,
0,
3,
2,
0,
3,
2,
0,
3,
2,
2,
3,
2,
2,
3,
2,
0,
3,
2,
2,
2,
2,
0,
3,
2,
2,
2,
2,
0,
3,
2,
2,
2,
2,
2,
3,
2,
2,
3,
2,
2,
4,
2,
0,
3,
3,
2,
3,
2,
2,
3,
3,
2,
3,
2,
0,
3,
2,
0,
2,
0,
2,
2,
2,
0,
2,
0,
0,
2,
2,
0,
2,
2,
0,
3,
0,
0,
3,
2,
2,
2,
2,
2,
3,
2,
0,
3,
2,
0,
3,
2,
0,
2,
2,
2,
3,
2,
0,
3,
0,
0,
3,
2,
0,
2,
2,
0,
2,
2,
0,
3,
2,
0,
3,
0,
0,
2,
2,
0,
2,
0,
0,
3,
2,
0,
3,
2,
0,
2,
2,
0,
3,
2,
2,
3,
2,
0,
3,
2,
0,
2,
2,
2,
3,
2,
0,
3,
2,
0,
3,
2,
0,
3,
3,
2,
2,
2,
2,
3,
2,
0,
3,
2,
2,
2,
2,
0,
2,
2,
0,
3,
0,
0,
3,
2,
0,
2,
2,
0,
2,
2,
0,
2,
2,
0,
3,
0,
0,
2,
2,
0,
3,
2,
0,
3,
2,
0,
3,
0,
0,
2,
2,
0,
3,
2,
0,
2,
2,
0,
2,
0,
0,
2,
2,
0,
3,
2,
0,
2,
0,
0,
3,
2,
0,
2,
2,
2,
2,
2,
2,
3,
0,
0,
3,
2,
0,
2,
2,
0,
3,
2,
0,
3,
0,
0,
3,
0,
0,
0,
2,
0,
2,
2,
0,
2,
2,
0,
2,
0,
0,
2,
2,
0,
2,
2,
0,
2,
0,
0,
3,
0,
0,
2,
2,
0,
2,
2,
0,
3,
2,
0,
3,
0,
0,
2,
2,
0,
2,
2,
0,
3,
2,
0,
3,
2,
0,
2,
2,
0,
2,
0,
2,
3,
0,
0,
3,
2,
0,
2,
2,
0,
3,
2,
0,
3,
0,
0,
3,
0,
0,
2,
2,
0,
2,
0,
0,
3,
0,
0,
2,
0,
0,
2,
2,
0,
3,
2,
0,
3,
0,
0,
3,
2,
0,
2,
2,
2,
2,
2,
0,
2,
2,
0,
2,
2,
0,
2,
2,
0,
3,
2,
0,
3,
2,
0,
2,
2,
0,
2,
0,
0,
3,
2,
0,
2,
2,
0,
2,
0,
0,
2,
2,
0,
2,
2,
0,
3,
0,
0,
2,
0,
0,
2,
2,
0,
2,
2,
0,
3,
0,
0,
3,
2,
0,
2,
2,
0,
2,
2,
0,
3,
2,
0,
3,
0,
0,
2,
2,
0,
2,
2,
0,
3,
2,
0,
2,
2,
0,
2,
2,
0,
2,
2,
0,
3,
0,
0,
3,
0,
0,
2,
2,
0,
3,
0,
0,
2,
0,
0,
2,
2,
0,
2,
2,
0,
2,
2,
0,
3,
0,
0,
2,
2,
2,
2,
2,
0,
2,
2,
2,
3,
0,
0,
2,
2,
0,
2,
2,
0,
3,
2,
0,
2,
2,
0,
3,
0,
0,
2,
2,
0,
2,
2,
0,
2,
2,
0,
3,
0,
0,
2,
2,
0,
2,
2,
0,
3,
0,
0,
3,
0,
0,
2,
2,
0,
3,
2,
0,
3,
0,
0,
3,
2,
0,
2,
2,
0,
3,
2,
0,
3,
0,
0,
3,
2,
0,
2,
2,
0,
3,
2,
0,
2,
2,
2,
3,
0,
0,
2,
2,
2,
2,
0,
0,
3,
2,
0,
2,
0,
0,
3,
2,
0,
2,
0,
2,
3,
2,
-1,
2,
2,
0,
2,
2,
0,
3,
2,
0,
2,
0,
0,
3,
2,
2,
2,
0,
0,
3,
2,
0,
2,
0,
0,
3,
2,
0,
2,
2,
0,
3,
2,
0,
3,
0,
0,
3,
0,
0,
2,
2,
2,
2,
0,
0,
3,
2,
0,
2,
0,
0,
2,
2,
0,
2,
2,
2,
3,
2,
0,
3,
2,
2,
2,
2,
0,
3,
2,
0,
3,
0,
0,
3,
0,
0,
2,
2,
0,
2,
2,
0,
3,
0,
0,
3,
0,
0,
2,
2,
0,
2,
0,
2,
3,
2,
0,
3,
2,
0,
2,
2,
0,
3,
2,
0,
3,
2,
0,
3,
2,
2,
2,
2,
2,
3,
2,
0,
2,
0,
0,
2,
2,
0,
2,
2,
2,
3,
2,
0,
3,
0,
0,
3,
0,
0,
2,
2,
0,
2,
2,
0,
3,
2,
0,
2,
0,
0,
2,
2,
0,
3,
2,
0,
3,
0,
0,
3,
0,
0,
2,
2,
0,
2,
2,
2,
3,
0,
0,
3,
2,
0,
2,
2,
0,
3,
2,
0,
2,
0,
0,
3,
0,
0,
2,
2,
0,
2,
2,
0,
3,
2,
0,
3,
2,
0,
2,
2,
0,
2,
2,
0,
3,
0,
0,
3,
0,
0,
2,
2,
0,
2,
2,
2,
2,
2,
0,
3,
2,
0,
2,
2,
0,
2,
2,
0,
3,
0,
0,
3,
2,
2,
2,
2,
0,
3,
2,
0,
3,
0,
0,
3,
2,
0,
2,
2,
0,
3,
2,
0,
3,
0,
0,
3,
2,
0,
2,
2,
0,
2,
2,
0,
2,
2,
0,
2,
2,
0,
2,
2,
0,
3,
2,
0,
3,
0,
0,
3,
0,
0,
2,
2,
0,
2,
2,
2,
3,
2,
0,
2,
0,
0,
2,
2,
0,
2,
2,
0,
3,
0,
0,
3,
2,
0,
2,
2,
0,
2,
2,
0,
3,
2,
0,
3,
0,
0,
2,
2,
0,
2,
2,
0,
3,
2,
0,
3,
2,
0,
2,
2,
0,
2,
2,
0,
3,
2,
0,
3,
0,
0,
2,
2,
0,
2,
2,
0,
3,
0,
0,
2,
2,
0,
2,
2,
0,
2,
2,
0,
3,
0,
0,
2,
2,
0,
2,
2,
0,
3,
2,
0,
3,
0,
0,
2,
0,
0,
2,
2,
0,
2,
2,
0,
3,
2,
0,
2,
0,
0,
2,
2,
0,
2,
2,
0,
3,
2,
0,
3,
0,
0,
2,
2,
0,
2,
0,
2,
3,
2,
0,
2,
0,
0,
2,
2,
0,
2,
2,
0,
3,
0,
0,
3,
2,
2,
2,
2,
0,
2,
2,
0,
3,
2,
0,
3,
0,
0,
2,
2,
0,
2,
2,
0,
3,
2,
0,
3,
2,
0,
2,
0,
0,
2,
2,
0,
2,
0,
0,
3,
0,
0,
0,
2,
0,
3,
2,
-1,
2,
2,
0,
2,
0,
0,
2,
2,
0,
3,
2,
0,
2,
2,
0,
2,
0,
0,
2,
2,
0,
2,
2,
-1,
3,
0,
0,
3,
0,
0,
2,
2,
0,
2,
2,
0,
2,
2,
0,
2,
0,
0,
2,
2,
-1,
2,
0,
0,
3,
0,
-1,
3,
2,
0,
2,
0,
0,
3,
2,
0,
2,
0,
0,
3,
0,
0,
0,
2,
0,
2,
2,
0,
2,
0,
0,
2,
0,
0,
2,
2,
0,
2,
0,
0,
3,
0,
0,
2,
0,
0,
2,
2,
0,
2,
2,
0,
3,
0,
0,
2,
0,
0,
2,
2,
0,
2,
2,
0,
2,
0,
0,
3,
2,
0,
2,
2,
0,
2,
2,
0,
3,
0,
0,
2,
0,
0,
2,
2,
0,
2,
2,
0,
3,
0,
0,
0,
0,
0,
2,
2,
0,
2,
2,
0,
3,
0,
-1,
3,
2,
0,
2,
2,
0,
2,
0,
0,
2,
0,
0,
3,
0,
0,
0,
2,
0,
2,
0,
-1,
3,
0,
-1,
2,
0,
0,
2,
2,
0,
2,
0,
2,
2,
0,
-1,
2,
2,
0,
0,
0,
0,
2,
2,
0,
2,
0,
0,
3,
0,
0,
2,
0,
0,
2,
0,
0,
3,
0,
0,
2,
0,
0,
2,
2,
0,
2,
0,
-1,
2,
0,
0,
2,
0,
0,
2,
0,
0,
2,
0,
0,
3,
2,
0,
2,
0,
0,
2,
2,
0,
2,
0,
0,
3,
0,
-1,
2,
0,
0,
2,
0,
-1,
2,
0,
0,
2,
0,
0,
2,
0,
0,
0,
0,
0,
2,
2,
0,
2,
0,
0,
3,
0,
0,
2,
2,
0,
2,
0,
0,
2,
2,
0,
2,
0,
0,
0,
0,
0,
2,
0,
0,
3,
0,
-1,
3,
0,
0,
0,
2,
0,
2,
0,
0,
2,
2,
0,
2,
0,
0,
0,
2,
0,
2,
0,
0,
2,
0,
0,
2,
0,
0,
2,
0,
0,
2,
0,
0,
3,
0,
0,
2,
0,
0,
2,
0,
0,
2,
0,
0,
2,
0,
0,
2,
0,
0,
0,
0,
0,
2,
0,
0,
2,
0,
0,
2,
0,
0,
0,
0,
0,
2,
0,
-1,
2,
0,
0,
2,
0,
0,
2,
0,
0,
2,
0,
0,
3,
0,
-1,
2,
0,
0,
2,
0,
0,
2,
0,
0,
3,
0,
-1,
2,
0,
0,
2,
2,
0,
2,
0,
0,
2,
0,
0,
2,
0,
0,
2,
2,
0,
2,
0,
0,
2,
0,
-1,
3,
0,
0,
2,
0,
0,
2,
0,
0,
2,
0,
-1,
2,
0,
0,
0,
2,
0,
2,
0,
0,
2,
0,
0,
2,
0,
0,
2,
0,
0,
2,
0,
0,
2,
2,
0,
2,
0,
0,
2,
0,
-1,
2,
0,
-1,
2,
0,
0,
2,
0,
0,
2,
2,
0,
2,
0,
0,
2,
0,
0,
2,
0,
0,
0,
0,
0,
2,
2,
0,
2,
0,
-1,
2,
0,
0,
0,
0,
0,
2,
0,
-1,
2,
0,
0,
2,
0,
0,
2,
2,
0,
2,
0,
0,
2,
0,
0,
2,
0,
0,
2,
2,
0,
2,
0,
0,
2,
0,
0,
2,
0,
0,
5,
50,
120,
147,
152,
149,
142,
127,
119,
117,
113,
108,
101,
95,
90,
86,
84,
80,
75,
70,
67,
66,
64,
60,
57,
53,
51,
51,
48,
46,
43,
41,
40,
40,
37,
34,
34,
33,
31,
32,
29,
27,
28,
26,
26,
26,
23,
22,
22,
22,
21,
21,
19,
18,
19,
18,
18,
18,
17,
16,
17,
17,
14,
16,
14,
14,
16,
14,
13,
14,
13,
13,
13,
13,
10,
13,
12,
12,
12,
10,
10,
12,
12,
10,
12,
10,
10,
12,
10,
9,
10,
10,
9,
12,
10,
9,
10,
10,
9,
10,
9,
9,
10,
9,
9,
10,
9,
9,
10,
9,
9,
10,
9,
9,
10,
9,
8,
10,
9,
9,
10,
9,
8,
10,
9,
9,
10,
8,
8,
10,
9,
9,
10,
9,
9,
10,
9,
9,
9,
9,
9,
9,
9,
8,
9,
9,
9,
9,
8,
8,
10,
9,
8,
9,
8,
8,
9,
9,
8,
9,
8,
8,
10,
9,
8,
9,
9,
8,
9,
9,
8,
9,
8,
9,
10,
9,
8,
9,
9,
8,
9,
8,
8,
9,
9,
8,
9,
9,
9,
9,
9,
8,
9,
8,
8,
9,
8,
8,
9,
9,
8,
9,
8,
8,
9,
8,
8,
9,
8,
8,
9,
8,
8,
9,
9,
8,
9,
9,
8,
9,
8,
8,
9,
8,
8,
9,
9,
8,
9,
8,
8,
9,
8,
8,
9,
8,
8,
9,
8,
8,
9,
8,
8,
9,
8,
8,
9,
8,
8,
9,
8,
7,
8,
8,
8,
9,
8,
8,
9,
9,
8,
9,
8,
7,
9,
8,
7,
8,
8,
8,
9,
8,
7,
9,
8,
8,
9,
7,
8,
9,
8,
8,
8,
8,
8,
9,
9,
8,
9,
8,
8,
9,
8,
8,
9,
8,
8,
9,
8,
8,
9,
8,
8,
9,
8,
8,
9,
8,
7,
9,
9,
8,
8,
8,
8,
9,
8,
8,
8,
8,
8,
9,
7,
7,
9,
8,
8,
9,
7,
7,
9,
8,
7,
8,
8,
8,
9,
8,
7,
8,
8,
8,
9,
8,
7,
8,
8,
8,
8,
8,
7,
8,
8,
7,
9,
8,
7,
8,
8,
7,
8,
8,
7,
9,
8,
8,
9,
7,
7,
8,
8,
7,
8,
8,
7,
9,
8,
8,
9,
8,
8,
9,
7,
7,
8,
8,
8,
9,
7,
7,
8,
8,
7,
8,
7,
7,
9,
8,
7,
8,
7,
8,
9,
8,
7,
8,
8,
7,
9,
7,
7,
8,
7,
8,
8,
8,
7,
8,
7,
7,
8,
7,
7,
8,
7,
8,
8,
8,
7,
8,
7,
7,
8,
8,
7,
9,
7,
8,
8,
7,
7,
8,
7,
7,
8,
7,
7,
8,
7,
7,
8,
8,
7,
8,
7,
7,
8,
8,
7,
8,
7,
7,
8,
8,
7,
8,
7,
7,
8,
7,
7,
8,
7,
7,
8,
8,
7,
8,
7,
7,
8,
7,
7,
8,
7,
7,
8,
8,
7,
8,
5,
7,
8,
7,
7,
8,
7,
7,
8,
8,
7,
8,
7,
7,
8,
7,
7,
8,
7,
7,
8,
7,
7,
8,
7,
7,
8,
7,
7,
8,
7,
7,
8,
7,
7,
8,
7,
5,
8,
5,
7,
8,
7,
7,
7,
7,
7,
8,
7,
7,
8,
7,
5,
8,
7,
7,
7,
7,
7,
8,
5,
7,
8,
7,
7,
8,
7,
7,
8,
8,
7,
8,
7,
7,
8,
7,
7,
8,
7,
7,
8,
7,
5,
7,
7,
7,
8,
7,
5,
8,
7,
7,
7,
7,
5,
8,
7,
7,
8,
7,
7,
8,
7,
7,
8,
7,
7,
8,
7,
7,
8,
7,
5,
8,
5,
7,
8,
7,
5,
8,
7,
5,
8,
7,
7,
7,
7,
7,
7,
7,
5,
8,
5,
5,
8,
7,
5,
8,
7,
7,
7,
7,
5,
7,
7,
7,
7,
5,
5,
8,
7,
7,
7,
7,
5,
8,
5,
5,
7,
5,
5,
7,
7,
5,
7,
7,
5,
8,
5,
5,
8,
7,
5,
8,
5,
7,
7,
7,
5,
7,
5,
5,
7,
7,
5,
8,
5,
7,
7,
7,
5,
7,
7,
7,
8,
7,
5,
8,
5,
5,
7,
5,
4,
7,
7,
7,
7,
7,
5,
8,
7,
5,
7,
5,
5,
7,
5,
7,
7,
7,
5,
7,
7,
7,
7,
7,
5,
7,
7,
7,
7,
5,
5,
8,
7,
7,
7,
7,
5,
7,
7,
5,
7,
5,
5,
7,
7,
5,
7,
5,
5,
7,
5,
5,
7,
5,
5,
7,
5,
5,
8,
5,
5,
7,
5,
5,
7,
7,
5,
7,
5,
5,
8,
7,
5,
7,
5,
5,
7,
5,
4,
7,
5,
5,
7,
5,
4,
7,
5,
5,
7,
5,
5,
7,
5,
5,
5,
5,
5,
7,
5,
5,
7,
5,
5,
7,
5,
5,
7,
5,
5,
7,
5,
5,
7,
5,
5,
7,
5,
5,
7,
5,
5,
7,
7,
5,
7,
7,
5,
7,
5,
5,
7,
5,
4,
7,
5,
5,
7,
5,
5,
7,
5,
5,
7,
5,
5,
7,
5,
5,
5,
5,
5,
7,
5,
5,
7,
5,
4,
5,
5,
5,
5,
5,
4,
7,
5,
5,
7,
5,
4,
5,
5,
5,
7,
5,
4,
7,
5,
5,
7,
4,
4,
7,
5,
5,
5,
5,
4,
7,
5,
5,
7,
5,
4,
7,
5,
5,
7,
5,
5,
7,
5,
5,
7,
5,
5,
7,
5,
5,
7,
5,
5,
7,
5,
5,
7,
5,
4,
5,
5,
5,
7,
5,
4,
5,
5,
5,
7,
5,
4,
5,
5,
5,
7,
5,
4,
7,
5,
5,
7,
5,
3,
5,
5,
5,
5,
5,
4,
7,
5,
4,
5,
5,
4,
5,
4,
4,
5,
5,
4,
5,
4,
4,
5,
4,
4,
5,
4,
4,
5,
5,
4,
5,
4,
4,
5,
4,
3,
5,
4,
4,
5,
5,
4,
7,
4,
4,
5,
5,
4,
5,
4,
5,
5,
5,
4,
7,
5,
5,
7,
5,
4,
7,
5,
5,
7,
5,
5,
7,
5,
5,
5,
5,
4,
7,
5,
5,
7,
5,
4,
7,
5,
5,
7,
5,
4,
5,
5,
4,
5,
4,
4,
5,
4,
4,
5,
5,
4,
5,
4,
4,
5,
4,
4,
5,
4,
4,
5,
5,
4,
5,
4,
4,
5,
4,
4,
5,
4,
4,
5,
4,
3,
4,
4,
4,
5,
4,
4,
5,
4,
4,
5,
4,
3,
5,
4,
4,
5,
4,
4,
5,
4,
4,
5,
4,
4,
5,
5,
4,
5,
4,
4,
7,
4,
4,
5,
5,
4,
5,
4,
4,
5,
5,
4,
7,
5,
4,
5,
5,
4,
5,
5,
4,
5,
5,
4,
5,
4,
4,
5,
5,
4,
5,
5,
4,
5,
4,
4,
5,
4,
4,
5,
4,
3,
5,
5,
4,
5,
4,
4,
5,
5,
4,
5,
4,
4,
5,
5,
4,
5,
4,
4,
5,
4,
4,
5,
5,
4,
5,
4,
3,
5,
4,
4,
5,
4,
4,
5,
4,
4,
5,
4,
4,
5,
4,
4,
5,
4,
4,
5,
4,
4,
5,
4,
4,
5,
5,
4,
5,
4,
4,
5,
4,
3,
5,
4,
4,
5,
4,
4,
5,
4,
4,
5,
4,
4,
5,
4,
3,
5,
4,
4,
5,
4,
4,
5,
5,
4,
5,
4,
3,
5,
4,
4,
5,
4,
4,
5,
4,
3,
4,
4,
3,
4,
4,
3,
5,
4,
4,
5,
4,
3,
5,
4,
3,
4,
4,
4,
5,
4,
4,
5,
4,
4,
5,
4,
3,
5,
5,
4,
5,
4,
4,
5,
5,
4,
5,
4,
3,
5,
4,
3,
5,
4,
4,
5,
4,
4,
5,
4,
4,
5,
4,
3,
5,
4,
4,
5,
4,
3,
5,
5,
3,
5,
3,
3,
5,
4,
3,
5,
4,
3,
5,
4,
3,
4,
4,
4,
5,
4,
3,
5,
4,
4,
4,
4,
3,
4,
4,
4,
4,
3,
3,
5,
4,
3,
4,
4,
3,
5,
4,
3,
5,
4,
4,
5,
4,
3,
5,
4,
3,
5,
3,
3,
4,
4,
4,
5,
4,
3,
4,
4,
3,
5,
4,
3,
5,
4,
4,
5,
4,
3,
5,
4,
3,
5,
3,
3,
5,
4,
4,
5,
4,
3,
5,
4,
3,
5,
4,
3,
5,
4,
3,
4,
4,
3,
4,
4,
3,
5,
4,
4,
4,
4,
4,
4,
4,
4,
4,
4,
3,
5,
4,
3,
5,
4,
3,
5,
4,
3,
4,
4,
3,
5,
4,
3,
4,
3,
3,
5,
4,
3,
4,
4,
3,
5,
3,
3,
4,
4,
3,
5,
3,
3,
4,
4,
3,
4,
3,
3,
5,
4,
3,
4,
3,
3,
4,
4,
3,
4,
3,
4,
5,
4,
3,
5,
4,
3,
4,
4,
3,
4,
3,
3,
4,
4,
4,
5,
4,
3,
4,
4,
3,
4,
3,
3,
5,
4,
3,
5,
3,
3,
5,
4,
3,
4,
3,
4,
5,
3,
3,
5,
4,
3,
4,
3,
3,
5,
3,
3,
4,
4,
3,
5,
4,
3,
4,
4,
3,
5,
3,
3,
4,
4,
3,
5,
4,
3,
4,
4,
3,
5,
3,
3,
5,
4,
3,
5,
3,
3,
4,
4,
3,
5,
3,
3,
5,
3,
3,
4,
3,
3,
4,
3,
3,
4,
4,
3,
4,
3,
3,
5,
4,
3,
4,
4,
3,
5,
3,
