src/long_1649/temp00971.CSV

Format,1.0B,
Memory Length,10000,
IntpDistance,0,
Trigger Address,4849,
Trigger Level,8.000E-01,
Source,CH1,
Vertical Units,V,
Vertical Units Div,0,
Vertical Units Extend Div,16,
Label,,
Probe Type,0,
Probe Ratio,1.000e+01,
Vertical Scale,2.000e-01,
Vertical Position,-6.800e-01,
Horizontal Units,S,
Horizontal Scale,2.000E-06,
Horizontal Position,3.000E-07,
Horizontal Mode,Main,
SincET Mode,Real Time,
Sampling Period,2.000e-09,
Horizontal Old Scale,2.000E-06,
Horizontal Old Position,3.000E-07,
Firmware,V1.23,
Mode,Fast,
Waveform Data,
2,
2,
3,
2,
2,
2,
2,
2,
3,
2,
2,
3,
2,
0,
3,
2,
0,
2,
2,
0,
3,
2,
0,
3,
0,
0,
3,
0,
0,
2,
2,
0,
3,
0,
0,
3,
2,
0,
3,
2,
0,
2,
2,
0,
3,
2,
2,
3,
0,
0,
3,
2,
2,
2,
2,
0,
2,
2,
2,
3,
2,
2,
3,
2,
0,
2,
2,
0,
3,
2,
0,
3,
2,
0,
3,
2,
0,
2,
2,
0,
3,
2,
0,
3,
0,
0,
3,
2,
2,
2,
2,
0,
3,
2,
0,
3,
2,
0,
3,
2,
2,
2,
2,
0,
2,
2,
0,
4,
2,
2,
3,
2,
0,
3,
3,
2,
3,
2,
2,
3,
2,
0,
3,
2,
2,
3,
2,
2,
2,
2,
2,
3,
0,
0,
3,
2,
2,
2,
2,
0,
3,
2,
0,
2,
0,
0,
3,
2,
0,
2,
2,
0,
2,
2,
0,
3,
2,
0,
3,
2,
0,
2,
2,
0,
2,
2,
0,
3,
0,
0,
3,
2,
0,
2,
2,
2,
2,
2,
0,
3,
2,
2,
3,
2,
0,
3,
2,
0,
3,
2,
0,
3,
2,
0,
3,
2,
0,
3,
2,
2,
2,
2,
0,
3,
2,
2,
3,
2,
2,
2,
2,
2,
3,
2,
0,
2,
2,
0,
3,
2,
0,
2,
2,
0,
2,
2,
0,
3,
2,
0,
3,
2,
0,
2,
2,
0,
3,
3,
0,
3,
2,
0,
3,
2,
0,
2,
2,
2,
3,
2,
0,
3,
2,
0,
3,
2,
0,
2,
2,
0,
3,
2,
0,
3,
2,
0,
3,
0,
0,
3,
2,
0,
2,
0,
0,
2,
2,
2,
2,
2,
0,
2,
2,
0,
2,
2,
0,
3,
2,
0,
2,
2,
2,
3,
0,
0,
3,
2,
0,
3,
0,
0,
3,
2,
2,
2,
2,
0,
3,
2,
-1,
2,
0,
0,
3,
0,
0,
2,
2,
2,
3,
0,
0,
2,
2,
0,
3,
0,
0,
2,
2,
0,
2,
2,
0,
3,
2,
0,
3,
0,
0,
2,
2,
0,
2,
2,
0,
3,
2,
0,
3,
2,
0,
2,
2,
0,
3,
2,
0,
3,
0,
0,
3,
2,
0,
2,
2,
2,
3,
2,
0,
2,
2,
0,
3,
2,
0,
2,
3,
0,
2,
2,
0,
3,
2,
0,
2,
2,
2,
3,
2,
0,
2,
2,
0,
3,
2,
0,
3,
2,
2,
2,
2,
0,
3,
2,
0,
2,
0,
0,
3,
2,
0,
2,
2,
2,
2,
0,
0,
3,
2,
0,
2,
0,
0,
2,
2,
0,
3,
2,
0,
3,
0,
0,
2,
2,
2,
2,
2,
0,
2,
2,
0,
2,
0,
0,
2,
2,
0,
2,
2,
0,
2,
0,
0,
3,
0,
0,
3,
2,
0,
2,
2,
0,
2,
2,
0,
3,
2,
0,
3,
2,
0,
2,
2,
0,
2,
2,
0,
3,
2,
0,
2,
0,
0,
2,
2,
0,
2,
2,
2,
2,
0,
0,
3,
2,
0,
2,
2,
0,
3,
2,
0,
3,
0,
0,
3,
2,
0,
2,
2,
0,
2,
0,
-1,
2,
2,
0,
2,
0,
0,
2,
2,
0,
2,
2,
0,
3,
0,
0,
2,
2,
0,
2,
2,
0,
2,
2,
0,
2,
0,
0,
2,
2,
0,
2,
2,
0,
3,
2,
0,
3,
2,
0,
2,
0,
0,
2,
2,
0,
2,
0,
0,
3,
0,
0,
2,
2,
0,
2,
2,
0,
2,
2,
0,
3,
0,
0,
3,
0,
0,
2,
2,
0,
2,
2,
0,
3,
0,
0,
3,
0,
0,
2,
2,
0,
3,
2,
0,
3,
2,
0,
3,
0,
0,
2,
2,
2,
2,
0,
0,
3,
2,
0,
2,
0,
0,
2,
2,
0,
2,
2,
0,
3,
0,
0,
3,
2,
2,
3,
2,
0,
2,
2,
0,
3,
0,
0,
3,
2,
0,
2,
2,
0,
3,
2,
0,
2,
0,
0,
3,
0,
0,
2,
2,
2,
2,
0,
0,
2,
0,
0,
2,
0,
0,
2,
2,
0,
2,
2,
0,
3,
0,
0,
2,
0,
0,
2,
2,
0,
2,
0,
0,
3,
0,
0,
3,
2,
2,
2,
2,
0,
2,
2,
0,
3,
0,
0,
3,
2,
0,
2,
2,
0,
2,
2,
0,
3,
0,
0,
3,
0,
0,
0,
2,
0,
2,
2,
0,
3,
0,
0,
3,
0,
0,
2,
0,
0,
2,
0,
0,
2,
0,
0,
2,
0,
0,
2,
2,
0,
2,
2,
0,
3,
0,
0,
3,
0,
0,
2,
2,
0,
2,
0,
0,
2,
0,
0,
2,
2,
0,
0,
2,
0,
2,
2,
-1,
3,
0,
0,
2,
0,
0,
2,
2,
0,
2,
0,
0,
2,
0,
-1,
2,
0,
-1,
0,
0,
-1,
2,
0,
-1,
2,
-1,
-2,
0,
-1,
-1,
0,
0,
-1,
0,
-1,
-2,
0,
-1,
-2,
0,
-1,
-1,
0,
0,
-1,
2,
0,
-1,
3,
0,
0,
3,
2,
2,
3,
2,
3,
4,
3,
3,
5,
3,
3,
5,
3,
3,
3,
4,
3,
4,
3,
3,
4,
3,
2,
3,
2,
2,
3,
2,
2,
2,
2,
0,
2,
0,
0,
2,
0,
-1,
0,
0,
0,
2,
0,
-1,
2,
-1,
-1,
2,
0,
-1,
2,
0,
-1,
2,
-1,
-1,
2,
0,
0,
3,
0,
0,
2,
2,
0,
2,
0,
2,
3,
0,
0,
3,
2,
0,
3,
2,
0,
2,
0,
2,
2,
0,
0,
2,
0,
0,
2,
-1,
0,
2,
0,
-1,
2,
0,
0,
2,
2,
0,
2,
2,
2,
2,
0,
0,
3,
2,
0,
3,
0,
-1,
2,
2,
0,
2,
0,
-1,
2,
0,
-1,
2,
0,
-1,
2,
0,
-1,
2,
0,
0,
2,
2,
0,
2,
0,
0,
2,
2,
0,
3,
2,
0,
3,
2,
0,
3,
0,
0,
2,
2,
0,
2,
0,
0,
3,
0,
0,
2,
0,
0,
0,
0,
-1,
2,
0,
0,
2,
0,
-1,
2,
0,
0,
2,
0,
0,
2,
2,
0,
2,
0,
0,
2,
2,
-1,
0,
0,
0,
2,
0,
0,
2,
0,
0,
3,
2,
0,
2,
2,
0,
2,
0,
0,
2,
2,
0,
2,
2,
0,
2,
2,
2,
3,
0,
0,
3,
2,
0,
2,
0,
0,
2,
2,
0,
0,
0,
0,
2,
0,
-1,
2,
0,
0,
0,
0,
-1,
2,
0,
0,
2,
0,
0,
2,
0,
0,
2,
2,
0,
2,
0,
-1,
3,
2,
0,
3,
0,
-1,
2,
2,
0,
2,
2,
0,
3,
0,
0,
2,
0,
0,
2,
0,
0,
2,
2,
0,
2,
0,
0,
2,
0,
0,
2,
2,
0,
3,
2,
0,
3,
2,
0,
3,
0,
0,
2,
2,
-1,
2,
0,
0,
2,
0,
0,
2,
0,
0,
2,
0,
0,
2,
0,
0,
2,
0,
0,
2,
0,
0,
2,
0,
0,
2,
2,
0,
2,
0,
0,
3,
2,
0,
2,
0,
0,
3,
2,
0,
2,
0,
0,
2,
0,
0,
2,
2,
0,
2,
0,
0,
2,
0,
0,
2,
0,
0,
2,
2,
0,
2,
2,
0,
2,
0,
0,
3,
0,
0,
2,
0,
0,
2,
0,
0,
2,
0,
0,
3,
0,
0,
0,
0,
0,
3,
2,
0,
2,
0,
0,
2,
0,
0,
2,
0,
0,
2,
0,
0,
3,
0,
0,
2,
0,
-1,
2,
2,
0,
2,
2,
0,
3,
2,
0,
2,
0,
0,
2,
2,
0,
2,
0,
0,
3,
0,
0,
2,
0,
0,
2,
2,
0,
2,
2,
0,
2,
0,
0,
3,
0,
0,
2,
0,
0,
2,
2,
0,
2,
2,
0,
2,
0,
0,
2,
2,
0,
3,
0,
0,
3,
0,
0,
2,
0,
0,
2,
2,
0,
2,
0,
0,
2,
0,
0,
3,
2,
0,
2,
2,
0,
2,
2,
0,
2,
0,
0,
3,
0,
0,
2,
2,
0,
2,
0,
0,
3,
2,
0,
2,
0,
0,
2,
2,
0,
3,
2,
0,
3,
0,
0,
3,
0,
0,
2,
2,
0,
2,
2,
0,
3,
0,
0,
2,
0,
0,
2,
2,
0,
3,
2,
0,
2,
0,
0,
3,
2,
0,
2,
0,
0,
2,
0,
-1,
2,
0,
0,
3,
2,
-1,
2,
2,
0,
2,
0,
-1,
3,
0,
0,
2,
0,
0,
2,
2,
0,
2,
0,
0,
3,
2,
0,
2,
0,
0,
2,
2,
0,
3,
2,
0,
3,
0,
-1,
2,
0,
0,
2,
2,
0,
2,
2,
0,
2,
0,
0,
2,
2,
0,
0,
2,
0,
3,
2,
-1,
2,
0,
0,
3,
0,
0,
2,
2,
2,
2,
0,
-1,
3,
2,
0,
2,
0,
-1,
2,
2,
0,
2,
2,
0,
3,
0,
-1,
2,
0,
0,
2,
2,
0,
2,
0,
2,
3,
0,
0,
2,
0,
0,
2,
2,
0,
3,
2,
0,
3,
0,
0,
3,
2,
0,
2,
0,
0,
2,
0,
-1,
2,
0,
0,
2,
0,
0,
2,
2,
0,
2,
2,
0,
2,
0,
0,
2,
0,
0,
2,
2,
0,
2,
0,
0,
3,
0,
0,
3,
2,
0,
2,
0,
0,
3,
2,
-1,
3,
0,
0,
3,
0,
0,
2,
2,
0,
2,
0,
0,
2,
0,
0,
2,
0,
0,
2,
2,
0,
2,
0,
-1,
2,
0,
-1,
2,
0,
0,
2,
0,
0,
2,
0,
0,
3,
0,
0,
2,
0,
0,
0,
0,
0,
3,
2,
0,
2,
0,
0,
3,
2,
0,
2,
2,
0,
2,
0,
0,
3,
2,
0,
2,
0,
0,
2,
2,
0,
2,
2,
0,
2,
0,
0,
3,
0,
0,
2,
0,
-1,
2,
0,
0,
2,
0,
0,
2,
2,
0,
2,
2,
0,
2,
0,
0,
2,
0,
0,
3,
2,
0,
2,
2,
0,
2,
0,
0,
3,
2,
0,
2,
0,
0,
2,
2,
0,
2,
0,
-1,
3,
0,
-1,
2,
0,
0,
2,
0,
0,
2,
0,
0,
2,
0,
0,
2,
0,
0,
0,
2,
0,
2,
0,
0,
3,
0,
0,
2,
0,
0,
2,
2,
0,
2,
0,
0,
3,
0,
0,
2,
0,
0,
2,
0,
0,
2,
0,
0,
2,
0,
-1,
2,
0,
0,
2,
0,
0,
2,
2,
2,
2,
0,
0,
3,
0,
0,
0,
0,
0,
3,
2,
-1,
2,
0,
0,
2,
0,
0,
2,
2,
0,
2,
0,
-1,
2,
2,
0,
2,
0,
0,
2,
2,
0,
2,
2,
0,
3,
0,
-1,
2,
0,
0,
2,
0,
-1,
2,
0,
0,
2,
0,
0,
3,
2,
0,
0,
0,
0,
3,
2,
-1,
3,
0,
0,
3,
0,
0,
2,
2,
0,
2,
0,
-1,
2,
0,
0,
2,
0,
0,
2,
0,
0,
2,
0,
-1,
2,
0,
0,
2,
0,
0,
2,
2,
0,
2,
0,
0,
3,
2,
0,
2,
0,
0,
2,
2,
-1,
2,
2,
0,
2,
0,
-1,
2,
0,
0,
0,
0,
0,
2,
0,
-1,
2,
0,
0,
2,
0,
0,
2,
2,
0,
2,
2,
0,
3,
0,
0,
2,
0,
0,
2,
2,
0,
2,
2,
0,
2,
0,
0,
3,
2,
0,
2,
2,
0,
3,
0,
0,
2,
2,
0,
3,
2,
0,
2,
2,
2,
2,
2,
0,
3,
2,
0,
2,
0,
0,
2,
2,
0,
2,
2,
0,
2,
0,
-1,
2,
0,
0,
2,
0,
0,
2,
0,
0,
2,
0,
-1,
2,
0,
0,
2,
2,
0,
2,
2,
0,
3,
0,
-1,
2,
2,
2,
2,
0,
0,
2,
0,
0,
3,
0,
0,
3,
0,
0,
0,
2,
0,
2,
2,
0,
3,
0,
0,
2,
0,
0,
2,
2,
0,
2,
2,
0,
3,
0,
0,
3,
2,
2,
2,
2,
0,
3,
2,
0,
3,
0,
0,
3,
0,
0,
2,
2,
0,
2,
0,
0,
2,
0,
0,
2,
0,
0,
0,
0,
0,
2,
0,
0,
2,
0,
0,
3,
2,
0,
2,
2,
0,
2,
2,
0,
3,
2,
0,
2,
0,
0,
2,
2,
0,
3,
0,
0,
2,
0,
-1,
2,
0,
0,
2,
2,
0,
2,
0,
0,
2,
0,
0,
3,
2,
0,
2,
2,
0,
2,
2,
0,
2,
0,
0,
3,
0,
0,
2,
2,
0,
2,
0,
0,
2,
0,
0,
3,
0,
0,
0,
2,
0,
2,
0,
0,
2,
0,
0,
2,
0,
0,
2,
2,
0,
2,
2,
0,
2,
0,
0,
2,
0,
0,
0,
0,
0,
2,
0,
0,
2,
0,
-1,
2,
0,
0,
2,
2,
-1,
2,
0,
-1,
2,
0,
0,
2,
0,
0,
2,
0,
0,
2,
0,
-1,
3,
0,
0,
2,
0,
0,
2,
0,
0,
2,
0,
0,
2,
0,
0,
2,
0,
0,
0,
2,
0,
2,
0,
-1,
2,
0,
0,
2,
0,
0,
2,
2,
0,
2,
0,
-1,
2,
0,
0,
2,
0,
0,
0,
0,
0,
2,
0,
0,
2,
0,
-1,
2,
0,
0,
2,
0,
0,
2,
0,
0,
2,
0,
-1,
2,
0,
0,
0,
0,
-1,
2,
0,
-1,
2,
0,
-1,
2,
0,
0,
0,
0,
0,
2,
0,
-1,
2,
0,
0,
2,
3,
38,
113,
149,
156,
151,
146,
132,
122,
119,
117,
109,
104,
98,
93,
89,
85,
81,
77,
72,
69,
66,
65,
62,
58,
55,
53,
52,
48,
47,
43,
42,
41,
40,
37,
36,
34,
33,
32,
32,
29,
29,
27,
26,
27,
24,
23,
24,
23,
22,
22,
21,
19,
21,
19,
18,
19,
17,
16,
17,
16,
16,
16,
16,
14,
16,
14,
14,
16,
13,
12,
14,
13,
12,
13,
12,
12,
13,
12,
12,
12,
12,
12,
13,
10,
10,
12,
10,
10,
12,
10,
10,
12,
10,
9,
10,
9,
8,
10,
10,
9,
10,
9,
9,
10,
9,
9,
9,
9,
8,
10,
9,
9,
10,
9,
9,
9,
9,
9,
10,
9,
8,
9,
9,
8,
9,
9,
8,
9,
9,
8,
9,
8,
8,
10,
8,
8,
9,
9,
8,
9,
9,
8,
9,
9,
8,
9,
8,
8,
9,
8,
8,
9,
8,
8,
9,
8,
8,
9,
8,
8,
9,
8,
8,
9,
9,
8,
9,
9,
8,
9,
8,
8,
9,
8,
8,
9,
8,
8,
9,
9,
8,
9,
8,
8,
9,
8,
8,
10,
9,
8,
8,
8,
8,
9,
9,
8,
9,
8,
8,
9,
8,
8,
9,
9,
8,
9,
8,
8,
9,
8,
8,
9,
8,
7,
9,
9,
8,
8,
9,
8,
9,
8,
8,
9,
8,
8,
9,
8,
7,
9,
8,
8,
9,
8,
8,
9,
8,
8,
9,
8,
8,
8,
8,
8,
9,
8,
8,
9,
8,
8,
9,
8,
8,
9,
8,
8,
9,
8,
8,
9,
8,
8,
9,
8,
8,
9,
8,
7,
9,
8,
8,
8,
8,
7,
9,
8,
8,
8,
7,
8,
9,
8,
7,
7,
8,
8,
9,
7,
7,
8,
8,
7,
9,
7,
7,
9,
8,
7,
8,
7,
8,
9,
8,
7,
8,
7,
8,
8,
8,
7,
8,
7,
8,
9,
7,
7,
8,
8,
8,
8,
8,
7,
9,
8,
8,
9,
8,
8,
9,
8,
8,
9,
8,
7,
9,
8,
7,
8,
8,
8,
9,
8,
8,
8,
8,
7,
9,
8,
7,
8,
7,
8,
8,
7,
7,
8,
8,
7,
8,
7,
7,
8,
8,
7,
8,
7,
8,
8,
8,
7,
8,
8,
8,
9,
8,
7,
8,
8,
7,
8,
8,
7,
8,
8,
7,
8,
8,
7,
9,
7,
7,
8,
7,
7,
8,
7,
5,
8,
7,
5,
8,
5,
7,
8,
7,
5,
8,
7,
7,
8,
7,
5,
8,
7,
7,
8,
8,
7,
8,
8,
7,
8,
7,
7,
9,
7,
7,
8,
8,
7,
9,
7,
7,
8,
8,
7,
9,
8,
8,
8,
8,
7,
8,
7,
7,
8,
8,
8,
9,
7,
8,
9,
8,
7,
8,
7,
7,
8,
8,
7,
8,
8,
8,
8,
8,
7,
8,
7,
8,
8,
7,
7,
8,
7,
7,
8,
7,
5,
8,
7,
7,
8,
7,
5,
8,
7,
7,
7,
7,
5,
8,
5,
5,
8,
7,
7,
8,
7,
5,
7,
7,
7,
8,
7,
7,
8,
7,
7,
8,
7,
7,
8,
7,
7,
8,
7,
5,
8,
7,
7,
8,
7,
7,
8,
7,
7,
8,
8,
7,
8,
7,
7,
8,
7,
7,
8,
8,
7,
7,
7,
7,
8,
7,
7,
8,
7,
7,
8,
8,
5,
8,
7,
7,
8,
7,
7,
8,
7,
7,
8,
7,
5,
7,
7,
7,
8,
7,
5,
8,
7,
7,
7,
7,
5,
8,
7,
5,
7,
7,
7,
8,
7,
7,
8,
7,
5,
7,
5,
5,
8,
7,
7,
8,
5,
5,
8,
7,
5,
7,
7,
7,
8,
7,
5,
8,
7,
7,
7,
7,
5,
8,
7,
7,
8,
7,
5,
8,
7,
7,
7,
7,
7,
8,
7,
7,
7,
7,
5,
8,
7,
7,
7,
7,
5,
8,
7,
7,
7,
7,
7,
7,
7,
7,
7,
7,
5,
7,
7,
7,
8,
7,
5,
8,
7,
7,
8,
7,
5,
7,
7,
7,
8,
7,
5,
8,
7,
7,
7,
7,
5,
8,
7,
5,
7,
7,
7,
8,
7,
7,
7,
7,
5,
8,
5,
5,
8,
7,
5,
7,
5,
7,
8,
7,
5,
7,
5,
7,
8,
7,
5,
8,
7,
7,
7,
7,
5,
7,
7,
7,
8,
7,
5,
7,
7,
7,
7,
7,
5,
7,
7,
5,
7,
5,
5,
8,
7,
5,
8,
5,
5,
8,
5,
5,
7,
5,
5,
7,
5,
5,
7,
7,
5,
7,
5,
5,
7,
7,
5,
7,
5,
5,
8,
7,
5,
7,
7,
7,
7,
5,
5,
7,
7,
7,
7,
5,
5,
7,
7,
5,
7,
5,
5,
7,
7,
5,
7,
7,
5,
7,
5,
5,
7,
5,
5,
7,
5,
5,
7,
7,
5,
7,
5,
5,
7,
7,
5,
7,
7,
5,
7,
5,
5,
7,
5,
7,
7,
5,
5,
7,
5,
5,
7,
7,
5,
7,
7,
5,
7,
7,
5,
7,
7,
5,
7,
5,
5,
7,
5,
5,
7,
5,
5,
7,
5,
5,
7,
5,
5,
7,
5,
5,
7,
7,
5,
7,
5,
5,
7,
5,
5,
7,
5,
5,
7,
7,
5,
7,
5,
5,
7,
5,
5,
7,
5,
5,
7,
7,
5,
7,
5,
5,
7,
5,
5,
7,
5,
5,
7,
5,
5,
7,
5,
5,
7,
5,
5,
7,
5,
5,
7,
5,
5,
7,
5,
5,
7,
5,
5,
7,
5,
5,
7,
5,
5,
7,
5,
5,
7,
5,
5,
7,
5,
5,
7,
5,
5,
7,
5,
5,
7,
5,
4,
7,
5,
5,
7,
5,
5,
7,
5,
5,
7,
5,
4,
7,
5,
4,
5,
5,
5,
7,
5,
4,
7,
5,
4,
5,
4,
5,
7,
5,
4,
7,
5,
5,
7,
5,
4,
5,
5,
5,
5,
5,
4,
7,
5,
4,
7,
4,
4,
7,
5,
5,
7,
5,
5,
7,
5,
4,
5,
5,
4,
7,
5,
5,
7,
5,
4,
7,
5,
4,
7,
5,
4,
5,
5,
5,
5,
4,
4,
7,
5,
4,
5,
5,
4,
5,
5,
4,
5,
5,
4,
7,
5,
4,
7,
5,
4,
5,
5,
5,
7,
5,
4,
5,
5,
5,
7,
5,
4,
5,
5,
5,
5,
5,
4,
7,
5,
5,
5,
5,
4,
5,
4,
5,
5,
5,
4,
5,
5,
4,
7,
5,
4,
5,
5,
4,
5,
4,
4,
7,
5,
4,
5,
4,
4,
5,
5,
4,
5,
4,
4,
5,
4,
4,
5,
5,
4,
5,
4,
4,
5,
5,
4,
5,
4,
4,
5,
5,
4,
5,
4,
4,
7,
5,
4,
5,
4,
4,
5,
5,
4,
5,
4,
4,
5,
5,
4,
5,
4,
4,
5,
4,
4,
5,
4,
5,
5,
4,
4,
5,
4,
4,
5,
4,
4,
5,
5,
4,
5,
4,
4,
7,
4,
4,
5,
5,
4,
5,
4,
4,
5,
5,
4,
5,
4,
4,
5,
5,
4,
5,
4,
4,
5,
4,
4,
5,
4,
4,
5,
4,
3,
5,
4,
4,
5,
4,
4,
5,
4,
4,
5,
4,
3,
5,
4,
4,
4,
4,
4,
5,
4,
4,
5,
4,
4,
5,
4,
4,
5,
4,
4,
5,
4,
4,
5,
5,
4,
5,
4,
3,
5,
5,
4,
5,
4,
4,
5,
4,
3,
4,
4,
4,
7,
4,
3,
4,
4,
4,
5,
4,
3,
5,
4,
4,
5,
4,
3,
5,
4,
4,
5,
4,
4,
5,
4,
3,
5,
4,
3,
5,
4,
4,
5,
4,
3,
4,
4,
3,
5,
4,
3,
5,
4,
4,
5,
4,
3,
4,
4,
3,
4,
4,
4,
5,
4,
4,
4,
4,
4,
5,
4,
3,
5,
4,
4,
5,
4,
4,
4,
4,
3,
4,
4,
3,
5,
3,
4,
5,
4,
4,
5,
4,
4,
4,
3,
3,
5,
4,
3,
5,
4,
4,
5,
4,
3,
4,
4,
3,
5,
3,
3,
4,
4,
4,
4,
4,
3,
4,
4,
3,
4,
3,
4,
5,
4,
3,
4,
3,
3,
5,
4,
3,
5,
4,
3,
4,
3,
3,
4,
4,
4,
4,
4,
3,
4,
4,
3,
4,
4,
3,
5,
3,
3,
4,
4,
3,
5,
4,
3,
4,
3,
3,
5,
4,
3,
4,
4,
3,
4,
4,
3,
5,
4,
3,
5,
4,
3,
4,
4,
3,
5,
3,
3,
4,
3,
4,
4,
3,
3,
4,
4,
3,
4,
4,
3,
5,
4,
3,
4,
4,
3,
4,
4,
3,
5,
3,
3,
4,
4,
3,
5,
4,
3,
4,
4,
3,
4,
3,
3,
4,
4,
3,
4,
4,
3,
4,
4,
3,
4,
3,
3,
4,
3,
3,
4,
3,
3,
4,
4,
3,
4,
3,
3,
4,
4,
3,
5,
4,
3,
4,
4,
3,
5,
3,
3,
5,
3,
3,
4,
3,
3,
4,
4,
3,
4,
3,
3,
4,
4,
3,
4,
3,
2,
4,
4,
3,
4,
3,
3,
4,
4,
3,
4,
3,
3,
4,
4,
3,
4,
3,
3,
5,
3,
3,
5,
4,
3,
4,
4,
3,
5,
3,
3,
4,
3,
3,
4,
3,
3,
3,
3,
3,
4,
3,
3,
4,
3,
3,
4,
3,
3,
4,
4,
3,
4,
3,
3,
4,
3,
3,
5,
4,
3,
4,
4,
3,
4,
3,
3,
4,
4,
3,
4,
3,
3,
4,
4,
3,
4,
3,
3,
4,
3,
3,
4,
3,
3,
4,
3,
3,
4,
3,
3,
4,
3,
3,
4,
4,
3,
4,
4,
3,
5,
3,
3,
4,
4,
3,
4,
3,
3,
4,
4,
3,
4,
3,
3,
4,
3,
2,
4,
3,
3,
4,
4,
3,
4,
3,
3,
4,
3,
3,
4,
3,
3,
4,
4,
3,
4,
3,
3,
4,
3,
3,
4,
3,
3,
4,
3,
3,
4,
3,
3,
4,
3,
3,
4,
3,
3,
3,
3,
3,
4,
3,
3,
4,
3,
3,
4,
3,
2,
4,
4,
3,
4,
3,
3,
4,
3,
3,
4,
3,
3,
4,
3,
3,
4,
3,
3,
4,
3,
3,
4,
3,
3,
4,
3,
3,
4,
3,
3,
4,
3,
3,
4,
3,
3,
4,
4,
3,
4,
3,
3,
4,
3,
3,
4,
3,
3,
4,
3,
2,
4,
3,
3,
4,
3,
3,
4,
4,
3,
4,
3,
3,
4,
3,
3,
4,
4,
3,
4,
3,
3,
5,
4,
3,
4,
3,
3,
4,
3,
3,
3,
3,
2,
4,
3,
3,
4,
3,
3,
4,
3,
3,
4,
4,
3,
4,
4,
3,
4,
3,
3,
4,
3,
3,
4,
3,
3,
4,
3,
3,
4,
3,
2,
4,
3,
3,
4,
3,
2,
4,
3,
3,
4,
3,
2,
4,
3,
3,
4,
3,
3,
4,
4,
3,
4,
2,
3,
4,
3,
3,
4,
3,
3,
5,
3,
2,
4,
3,
3,
4,
3,
3,
4,
4,
3,
3,
3,
3,
4,
3,
2,
4,
3,
3,
4,
3,
2,
3,
4,
3,
4,
3,
3,
4,
4,
3,
4,
3,
3,
4,
3,
2,
4,
3,
3,
4,
3,
3,
4,
3,
3,
4,
3,
2,
4,
3,
3,
4,
3,
3,
4,
3,
2,
4,
3,
2,
4,
3,
3,
4,
3,
3,
4,
3,
2,
4,
3,
3,
4,
3,
2,
4,
3,
3,
4,
3,
2,
4,
4,
3,
4,
2,
3,
4,
3,
3,
3,
3,
3,
4,
4,
2,
4,
3,
3,
4,
3,
3,
4,
3,
2,
4,
3,
2,
3,
4,
3,
4,
3,
3,
4,
3,
3,
4,
3,
3,
4,
3,
2,
4,
3,
3,
4,
3,
3,
4,
3,
3,
3,
3,
2,
4,
3,
2,
4,
3,
2,
4,
3,
3,
4,
3,
3,
4,
3,
3,
3,
3,
3,
4,
3,
3,
4,
3,
3,
4,
3,
3,
4,
3,
2,
4,
3,
3,
4,
3,
2,
4,
3,
3,
4,
3,
2,
4,
3,
2,
3,
3,
2,
4,
3,
3,
4,
3,
2,
4,
3,
3,
4,
3,
3,
4,
3,
3,
4,
3,
2,
4,
3,
3,
4,
3,
3,
4,
3,
3,
4,
3,
2,
4,
3,
3,
4,
3,
3,
4,
3,
3,
4,
3,
3,
4,
3,
2,
3,
2,
2,
4,
3,
3,
4,
3,
2,
3,
3,
2,
4,
3,
2,
4,
3,
3,
4,
3,
2,
4,
3,
3,
3,
3,
2,
4,
3,
3,
3,
3,
2,
4,
3,
2,
4,
3,
3,
4,
3,
2,
3,
3,
3,
4,
3,
3,
4,
2,
3,
4,
3,
3,
3,
3,
2,
4,
3,
3,
4,
2,
2,
4,
3,
3,
3,
3,
2,
4,
3,
2,
3,
3,
2,
4,
3,
3,
4,
3,
2,
3,
3,
3,
3,
3,
2,
3,
3,
3,
3,
3,
3,
4,
3,
2,
4,
3,
3,
4,
3,
3,
3,
3,
2,
4,
3,
2,
4,
3,
2,
3,
3,
3,
4,
3,
2,
4,
3,
2,
3,
2,
2,
4,
3,
2,
3,
3,
2,
3,
3,
2,
3,
2,
2,
3,
2,
3,
4,
2,
2,
4,
3,
3,
3,
3,
2,
4,
3,
3,
3,
2,
2,
4,
3,
2,
3,
2,
2,
4,
2,
2,
3,
3,
2,
3,
2,
2,
3,
3,
2,
3,
2,
2,
3,
3,
2,
4,
3,
2,
3,
3,
2,
3,
2,
2,
3,
3,
2,
3,
3,
2,
3,
3,
2,
3,
3,
3,
3,
3,
2,
4,
3,
3,
3,
3,
2,
4,
3,
3,
3,
2,
2,
4,
3,
2,
3,
2,
2,
4,
3,
2,
3,
3,
2,
4,
2,
2,
3,
3,
3,
4,
2,
2,
3,
3,
2,
4,
2,
2,
3,
3,
2,
4,
3,
3,
3,
2,
0,
3,
2,
2,
3,
2,
2,
3,
2,
2,
3,
3,
2,
4,
3,
2,
3,
3,
2,
4,
2,
2,
3,
3,
2,
4,
3,
2,
4,
2,
2,
3,
2,
2,
3,
2,
2,
4,
2,
2,
3,
3,
2,
3,
2,
2,
3,
3,
2,
3,
2,
2,
3,
3,
2,
3,
2,
3,
3,
3,
2,
4,
3,
2,
2,
3,
2,
4,
3,
2,
3,
3,
2,
4,
2,
2,
3,
3,
2,
3,
2,
2,
3,
3,
2,
3,
2,
2,
3,
3,
2,
3,
2,
2,
3,
3,
2,
4,
3,
2,
3,
3,
2,
3,
3,
3,
3,
3,
2,
4,
3,
0,
2,
3,
2,
4,
3,
2,
3,
2,
2,
3,
2,
2,
3,
3,
2,
3,
2,
2,
3,
2,
2,
3,
2,
2,
3,
3,
2,
3,
2,
2,
3,
3,
2,
3,
2,
2,
3,
3,
2,
3,
2,
2,
3,
2,
0,
3,
3,
2,
2,
2,
2,
3,
2,
2,
2,
2,
2,
4,
3,
2,
2,
3,
2,
3,
2,
2,
3,
3,
2,
3,
2,
2,
3,
3,
2,
3,
2,
2,
3,
2,
0,
3,
2,
2,
3,
2,
2,
3,
2,
2,
3,
2,
0,
3,
2,
2,
2,
3,
2,
3,
2,
2,
2,
2,
2,
3,
2,
2,
3,
2,
2,
2,
2,
2,
3,
2,
2,
3,
3,
2,
2,
2,
0,
3,
3,
2,
3,
2,
0,
4,
2,
2,
2,
3,
2,
3,
2,
2,
3,
2,
2,
3,
2,
2,
2,
2,
2,
3,
2,
2,
2,
2,
2,
4,
2,
0,
3,
3,
2,
3,
2,
2,
3,
2,
2,
3,
2,
2,
2,
3,
0,
3,
2,
2,
3,
2,
0,
3,
2,
2,
3,
2,
2,
3,
2,
2,
3,
2,
2,
3,
2,
2,
2,
2,
0,
3,
2,
2,
3,
2,
0,
3,
2,
2,
2,
2,
2,
3,
2,
2,
3,
2,
2,
3,
2,
0,
2,
2,
2,
3,
2,
0,
3,
2,
0,
3,
2,
2,
3,
2,
2,
2,
2,
2,
3,
2,
0,
3,
2,
0,
2,
2,
2,
3,
2,
2,
3,
2,
0,
3,
2,
2,
3,
2,
2,
3,
2,
2,
3,
2,
2,
3,
2,
2,
2,
2,
2,
3,
2,
2,
3,
2,
0,
3,
2,
2,
2,
2,
0,
3,
2,
0,
2,
2,
0,
3,
2,
2,
2,
2,
2,
3,
2,
4,
38,
98,
129,
134,
132,
127,
115,
108,
105,
103,
96,
91,
86,
81,
79,
76,
72,
67,
65,
61,
58,
58,
55,
52,
50,
47,
46,
45,
42,
40,
38,
38,
36,
36,
33,
32,
32,
31,
28,
28,
27,
26,
26,
24,
23,
23,
22,
21,
22,
19,
19,
19,
18,
17,
18,
17,
16,
17,
16,
14,
16,
14,
14,
16,
14,
13,
14,
14,
13,
13,
12,
12,
14,
12,
12,
12,
10,
10,
12,
12,
10,
12,
12,
10,
12,
10,
9,
10,
10,
10,
10,
10,
9,
10,
10,
10,
10,
9,
9,
12,
10,
9,
10,
9,
9,
10,
9,
9,
10,
9,
9,
10,
9,
9,
9,
9,
9,
10,
8,
8,
10,
9,
8,
9,
9,
8,
10,
9,
9,
9,
9,
8,
9,
9,
8,
9,
9,
8,
10,
8,
8,
10,
9,
9,
9,
8,
8,
9,
9,
8,
9,
9,
8,
10,
8,
8,
9,
9,
8,
9,
9,
8,
9,
9,
8,
9,
9,
9,
10,
9,
8,
9,
9,
8,
10,
9,
8,
10,
9,
9,
10,
9,
8,
9,
9,
8,
9,
8,
8,
9,
9,
8,
9,
8,
8,
9,
9,
8,
9,
8,
8,
9,
8,
8,
9,
8,
8,
9,
8,
7,
8,
8,
8,
9,
8,
8,
9,
9,
8,
9,
8,
7,
9,
8,
8,
9,
8,
8,
9,
9,
8,
9,
8,
8,
9,
8,
8,
9,
8,
8,
9,
8,
7,
8,
9,
8,
9,
7,
7,
9,
8,
8,
9,
8,
8,
9,
8,
8,
9,
8,
8,
9,
8,
8,
9,
9,
8,
9,
8,
7,
9,
8,
8,
9,
7,
7,
8,
8,
7,
8,
7,
7,
8,
8,
7,
8,
7,
8,
9,
8,
7,
8,
8,
8,
9,
8,
7,
8,
8,
8,
9,
8,
7,
9,
8,
8,
8,
8,
8,
9,
8,
8,
8,
8,
7,
9,
7,
7,
8,
8,
8,
9,
7,
8,
8,
8,
7,
8,
8,
7,
8,
8,
7,
8,
7,
8,
9,
8,
7,
9,
7,
8,
9,
7,
7,
9,
8,
7,
8,
8,
8,
9,
8,
7,
8,
8,
8,
9,
7,
7,
8,
8,
8,
8,
8,
7,
9,
8,
8,
9,
8,
8,
8,
8,
7,
8,
8,
8,
8,
8,
7,
9,
8,
7,
8,
8,
7,
8,
7,
8,
8,
8,
7,
8,
7,
7,
8,
8,
7,
8,
7,
7,
8,
8,
7,
8,
8,
7,
8,
7,
7,
8,
8,
7,
8,
7,
8,
8,
7,
7,
8,
8,
7,
9,
7,
7,
8,
8,
7,
8,
7,
7,
9,
8,
7,
8,
7,
7,
9,
8,
7,
8,
7,
7,
8,
7,
7,
8,
7,
7,
8,
7,
7,
8,
7,
7,
8,
8,
7,
8,
7,
7,
8,
7,
7,
8,
7,
7,
8,
8,
7,
8,
7,
7,
8,
7,
7,
8,
8,
7,
7,
7,
7,
8,
8,
7,
8,
7,
7,
8,
7,
7,
7,
7,
7,
8,
7,
7,
8,
7,
7,
8,
7,
7,
8,
8,
7,
8,
5,
7,
8,
7,
7,
8,
7,
7,
8,
7,
5,
8,
7,
7,
8,
7,
7,
8,
7,
7,
7,
7,
5,
8,
7,
7,
8,
7,
7,
8,
7,
7,
8,
8,
7,
8,
7,
5,
8,
7,
7,
8,
7,
7,
8,
7,
7,
8,
5,
7,
8,
7,
7,
7,
7,
7,
8,
7,
5,
8,
5,
5,
8,
5,
7,
8,
7,
7,
8,
7,
5,
8,
5,
7,
8,
7,
5,
8,
7,
7,
7,
7,
7,
8,
7,
7,
8,
7,
5,
8,
7,
7,
7,
7,
7,
8,
7,
7,
7,
5,
5,
8,
7,
7,
7,
7,
5,
8,
7,
5,
7,
7,
7,
8,
5,
7,
8,
7,
5,
7,
5,
7,
8,
7,
5,
7,
7,
7,
7,
7,
5,
7,
7,
7,
8,
5,
5,
8,
7,
7,
7,
7,
5,
8,
7,
7,
7,
5,
7,
8,
7,
7,
7,
7,
5,
8,
7,
5,
7,
5,
5,
8,
7,
5,
7,
5,
5,
7,
5,
5,
7,
7,
5,
7,
5,
7,
7,
7,
5,
7,
7,
7,
8,
7,
5,
8,
5,
5,
7,
7,
5,
7,
7,
7,
7,
5,
5,
7,
7,
5,
5,
5,
5,
7,
7,
5,
7,
7,
5,
7,
5,
5,
7,
7,
5,
7,
5,
5,
8,
7,
5,
7,
5,
7,
7,
7,
5,
7,
7,
7,
7,
5,
5,
7,
5,
5,
7,
5,
4,
7,
7,
5,
7,
5,
5,
8,
7,
5,
7,
5,
4,
7,
5,
5,
7,
5,
5,
7,
7,
5,
7,
5,
5,
7,
5,
5,
7,
7,
5,
7,
5,
5,
7,
7,
5,
7,
5,
5,
7,
5,
5,
7,
5,
5,
7,
5,
4,
5,
7,
7,
7,
5,
5,
7,
5,
5,
7,
5,
4,
7,
5,
5,
7,
5,
5,
7,
5,
5,
7,
5,
5,
7,
5,
5,
7,
5,
5,
7,
5,
4,
7,
7,
5,
7,
5,
5,
7,
5,
5,
7,
5,
5,
7,
5,
5,
7,
5,
5,
7,
5,
5,
7,
5,
5,
7,
5,
4,
5,
5,
5,
7,
5,
4,
7,
5,
4,
7,
5,
4,
5,
5,
5,
7,
5,
5,
7,
5,
4,
7,
5,
4,
7,
5,
5,
7,
5,
5,
7,
5,
4,
7,
5,
4,
5,
5,
5,
7,
4,
4,
7,
5,
5,
7,
5,
4,
7,
5,
4,
5,
5,
5,
7,
5,
4,
7,
5,
4,
5,
4,
4,
5,
5,
4,
7,
5,
4,
7,
5,
4,
5,
5,
5,
7,
5,
4,
7,
5,
5,
7,
5,
4,
7,
5,
5,
5,
5,
4,
7,
5,
4,
5,
5,
4,
7,
5,
5,
5,
5,
4,
7,
5,
4,
5,
5,
4,
5,
5,
5,
5,
5,
5,
7,
4,
4,
5,
5,
4,
5,
4,
4,
7,
5,
4,
7,
5,
4,
7,
5,
4,
5,
5,
4,
7,
4,
4,
7,
5,
5,
5,
5,
4,
5,
5,
4,
5,
5,
5,
7,
5,
4,
5,
5,
4,
5,
4,
5,
7,
5,
4,
5,
4,
4,
5,
5,
4,
5,
5,
4,
5,
5,
4,
7,
5,
4,
5,
5,
4,
5,
4,
4,
5,
4,
4,
5,
4,
4,
5,
5,
4,
5,
4,
4,
5,
5,
4,
5,
5,
4,
7,
5,
4,
5,
4,
4,
5,
4,
4,
5,
4,
4,
5,
4,
4,
5,
4,
4,
5,
4,
4,
5,
4,
4,
5,
4,
4,
5,
4,
5,
5,
4,
4,
5,
5,
5,
5,
4,
4,
5,
5,
4,
5,
4,
4,
7,
4,
3,
5,
4,
4,
5,
4,
3,
5,
5,
4,
5,
4,
4,
5,
5,
4,
5,
4,
4,
5,
4,
4,
5,
4,
4,
5,
4,
4,
5,
4,
4,
5,
4,
4,
5,
4,
4,
5,
5,
4,
5,
4,
4,
5,
4,
4,
5,
4,
4,
5,
4,
3,
5,
4,
4,
5,
4,
4,
5,
4,
4,
5,
4,
4,
5,
4,
3,
5,
4,
4,
5,
4,
4,
5,
4,
4,
5,
4,
3,
5,
4,
4,
5,
4,
4,
5,
4,
4,
5,
4,
3,
5,
4,
4,
5,
4,
4,
5,
4,
4,
5,
4,
4,
5,
4,
4,
5,
4,
4,
5,
5,
4,
5,
4,
3,
5,
4,
3,
5,
4,
4,
5,
4,
4,
5,
4,
4,
5,
4,
4,
5,
4,
4,
5,
4,
4,
5,
4,
3,
5,
4,
4,
5,
4,
4,
5,
4,
3,
5,
4,
4,
5,
3,
3,
5,
4,
4,
4,
4,
4,
5,
4,
3,
4,
4,
4,
5,
4,
4,
5,
4,
4,
5,
3,
3,
5,
4,
4,
4,
4,
4,
5,
4,
3,
4,
4,
4,
5,
3,
3,
5,
4,
4,
5,
4,
3,
5,
4,
3,
5,
4,
4,
5,
4,
3,
4,
4,
4,
5,
4,
3,
5,
4,
4,
5,
4,
4,
5,
4,
3,
5,
4,
3,
5,
4,
3,
4,
4,
4,
5,
4,
3,
4,
4,
4,
5,
4,
3,
5,
4,
4,
5,
4,
3,
4,
4,
3,
5,
3,
4,
5,
4,
3,
4,
4,
4,
5,
4,
3,
4,
3,
4,
5,
4,
3,
5,
4,
4,
4,
4,
3,
5,
4,
3,
4,
4,
3,
5,
4,
3,
4,
4,
3,
5,
3,
3,
5,
4,
4,
5,
4,
3,
4,
4,
3,
5,
3,
4,
5,
4,
4,
4,
4,
3,
5,
4,
3,
4,
3,
3,
5,
4,
3,
5,
4,
3,
4,
4,
3,
5,
4,
3,
5,
4,
3,
4,
4,
3,
4,
4,
3,
4,
4,
3,
5,
3,
3,
5,
4,
3,
4,
4,
3,
4,
3,
3,
4,
4,
3,
4,
4,
3,
4,
4,
3,
4,
3,
3,
5,
4,
3,
4,
4,
3,
4,
4,
3,
5,
4,
4,
4,
3,
3,
5,
4,
3,
4,
4,
3,
5,
4,
3,
4,
3,
4,
5,
3,
3,
4,
4,
4,
5,
3,
3,
5,
4,
4,
4,
3,
3,
4,
4,
3,
4,
3,
4,
5,
4,
3,
4,
3,
3,
4,
4,
3,
5,
3,
3,
4,
4,
3,
4,
3,
3,
4,
4,
3,
4,
4,
3,
