src/long_1649/temp00543.CSV

Format,1.0B,
Memory Length,10000,
IntpDistance,0,
Trigger Address,4849,
Trigger Level,8.000E-01,
Source,CH1,
Vertical Units,V,
Vertical Units Div,0,
Vertical Units Extend Div,16,
Label,,
Probe Type,0,
Probe Ratio,1.000e+01,
Vertical Scale,2.000e-01,
Vertical Position,-6.800e-01,
Horizontal Units,S,
Horizontal Scale,2.000E-06,
Horizontal Position,3.000E-07,
Horizontal Mode,Main,
SincET Mode,Real Time,
Sampling Period,2.000e-09,
Horizontal Old Scale,2.000E-06,
Horizontal Old Position,3.000E-07,
Firmware,V1.23,
Mode,Fast,
Waveform Data,
-1,
0,
0,
0,
2,
0,
-1,
2,
0,
0,
2,
0,
-1,
0,
0,
-1,
2,
0,
-1,
2,
0,
-1,
0,
0,
0,
0,
0,
-1,
2,
0,
-1,
2,
0,
-1,
2,
23,
96,
144,
158,
157,
149,
138,
125,
122,
119,
114,
108,
101,
96,
91,
89,
84,
80,
75,
71,
70,
67,
65,
61,
57,
55,
55,
52,
50,
47,
45,
43,
42,
41,
38,
37,
36,
34,
33,
32,
31,
31,
28,
28,
28,
26,
24,
26,
23,
23,
23,
23,
21,
22,
21,
21,
21,
18,
18,
19,
18,
17,
18,
17,
16,
17,
16,
16,
16,
14,
13,
16,
14,
13,
14,
13,
12,
13,
12,
12,
13,
12,
12,
13,
12,
10,
13,
12,
10,
12,
10,
10,
12,
10,
9,
12,
10,
10,
12,
10,
9,
12,
10,
9,
12,
9,
9,
10,
10,
9,
10,
9,
9,
12,
10,
9,
10,
10,
9,
10,
9,
9,
10,
9,
9,
10,
9,
9,
10,
10,
9,
10,
9,
8,
10,
9,
9,
9,
9,
8,
10,
9,
8,
9,
9,
8,
10,
9,
9,
9,
9,
9,
10,
8,
8,
9,
9,
8,
9,
8,
8,
10,
8,
8,
9,
8,
8,
9,
9,
8,
9,
8,
8,
9,
8,
8,
9,
8,
9,
10,
8,
8,
9,
9,
8,
9,
8,
8,
9,
9,
8,
9,
9,
8,
9,
8,
8,
9,
8,
8,
9,
8,
8,
8,
8,
8,
9,
8,
7,
9,
8,
8,
9,
8,
8,
9,
9,
8,
9,
8,
8,
10,
8,
8,
9,
8,
8,
9,
9,
8,
9,
8,
8,
10,
8,
8,
9,
8,
8,
9,
8,
8,
9,
8,
8,
9,
8,
8,
9,
9,
8,
9,
9,
8,
9,
9,
8,
9,
8,
8,
10,
9,
8,
9,
8,
8,
9,
8,
8,
10,
9,
9,
9,
8,
8,
9,
8,
8,
9,
8,
9,
9,
8,
8,
9,
8,
8,
9,
9,
8,
9,
8,
8,
9,
8,
8,
9,
9,
8,
9,
8,
8,
9,
8,
8,
9,
8,
8,
8,
8,
8,
9,
9,
8,
9,
8,
8,
9,
8,
8,
9,
8,
8,
9,
8,
8,
9,
8,
8,
9,
7,
8,
9,
8,
8,
8,
8,
7,
8,
7,
7,
8,
7,
7,
8,
8,
7,
8,
7,
7,
8,
8,
7,
8,
7,
7,
8,
8,
7,
8,
7,
7,
8,
7,
7,
8,
7,
7,
8,
7,
7,
8,
8,
7,
8,
7,
7,
8,
7,
7,
8,
8,
7,
8,
7,
5,
7,
7,
7,
8,
7,
7,
8,
8,
7,
8,
5,
7,
8,
7,
7,
8,
7,
7,
8,
8,
7,
8,
8,
7,
8,
8,
7,
9,
7,
7,
8,
8,
7,
9,
7,
7,
8,
7,
7,
8,
7,
7,
8,
8,
7,
8,
7,
7,
8,
7,
7,
8,
8,
8,
8,
7,
7,
8,
8,
8,
8,
7,
7,
9,
7,
7,
7,
7,
7,
8,
8,
8,
8,
7,
7,
9,
7,
7,
8,
8,
7,
8,
7,
7,
8,
7,
7,
8,
7,
7,
8,
8,
7,
8,
7,
7,
9,
8,
7,
8,
7,
7,
8,
8,
7,
8,
7,
7,
8,
7,
7,
8,
7,
7,
8,
7,
5,
8,
7,
7,
8,
7,
7,
8,
7,
7,
7,
7,
5,
8,
7,
7,
7,
7,
7,
8,
7,
7,
7,
7,
7,
7,
7,
7,
7,
7,
5,
8,
7,
5,
7,
7,
5,
8,
5,
5,
8,
7,
5,
8,
5,
7,
7,
7,
5,
8,
7,
7,
8,
5,
5,
7,
7,
5,
7,
5,
5,
8,
7,
5,
7,
5,
5,
8,
5,
5,
7,
7,
5,
8,
5,
5,
7,
7,
7,
8,
5,
5,
7,
7,
5,
7,
5,
7,
8,
7,
7,
7,
5,
7,
7,
7,
5,
7,
7,
7,
7,
5,
5,
7,
7,
7,
7,
7,
5,
8,
7,
7,
8,
7,
7,
8,
7,
7,
8,
7,
5,
8,
7,
7,
8,
7,
7,
8,
7,
7,
8,
7,
5,
8,
7,
7,
8,
5,
5,
8,
7,
7,
7,
7,
5,
8,
7,
7,
7,
7,
7,
8,
7,
7,
7,
7,
7,
8,
7,
7,
8,
7,
5,
8,
7,
5,
7,
7,
5,
8,
5,
7,
7,
7,
7,
8,
7,
5,
7,
7,
5,
7,
5,
5,
8,
5,
5,
7,
7,
5,
7,
7,
5,
7,
5,
5,
8,
5,
5,
7,
5,
5,
7,
5,
5,
7,
5,
5,
7,
5,
5,
7,
5,
5,
7,
5,
5,
7,
5,
5,
7,
5,
4,
7,
5,
5,
5,
5,
4,
7,
5,
5,
7,
5,
5,
7,
5,
5,
7,
5,
5,
7,
4,
4,
5,
5,
5,
7,
5,
5,
7,
5,
5,
5,
5,
5,
7,
5,
5,
7,
5,
5,
7,
5,
5,
7,
5,
5,
7,
5,
5,
7,
5,
5,
7,
5,
5,
7,
5,
5,
7,
5,
5,
7,
5,
5,
7,
5,
5,
7,
7,
5,
7,
5,
5,
7,
5,
5,
7,
5,
5,
7,
5,
7,
7,
5,
5,
7,
7,
5,
7,
5,
5,
7,
7,
5,
7,
5,
5,
8,
7,
5,
7,
5,
5,
7,
5,
5,
7,
7,
5,
7,
5,
5,
7,
5,
5,
7,
5,
5,
7,
7,
5,
7,
5,
5,
7,
5,
5,
7,
5,
5,
7,
5,
5,
7,
5,
5,
7,
5,
5,
7,
5,
5,
5,
5,
5,
7,
5,
5,
7,
5,
5,
7,
5,
5,
5,
5,
5,
7,
5,
5,
5,
5,
5,
7,
5,
4,
5,
5,
5,
7,
4,
4,
7,
5,
5,
7,
5,
5,
7,
5,
4,
7,
5,
5,
5,
5,
4,
5,
5,
5,
7,
5,
4,
7,
5,
4,
5,
5,
4,
7,
5,
5,
5,
4,
4,
7,
5,
4,
5,
5,
4,
7,
5,
4,
5,
5,
4,
7,
5,
4,
7,
5,
5,
5,
5,
5,
7,
5,
4,
7,
5,
4,
7,
5,
5,
7,
7,
5,
7,
5,
4,
7,
5,
5,
7,
5,
4,
7,
5,
5,
7,
5,
5,
7,
5,
4,
7,
5,
4,
7,
5,
5,
5,
5,
4,
7,
5,
4,
5,
5,
4,
5,
5,
4,
7,
5,
4,
5,
5,
4,
5,
5,
4,
5,
5,
4,
7,
5,
4,
7,
5,
4,
5,
5,
4,
7,
5,
5,
7,
5,
5,
7,
5,
4,
7,
5,
5,
7,
5,
5,
7,
5,
5,
7,
5,
4,
7,
5,
4,
7,
5,
5,
5,
5,
4,
5,
5,
5,
5,
5,
4,
7,
5,
5,
5,
4,
4,
7,
5,
4,
5,
4,
3,
5,
5,
4,
5,
5,
5,
7,
4,
4,
5,
4,
4,
5,
4,
4,
5,
5,
4,
5,
4,
4,
5,
4,
4,
5,
4,
4,
5,
4,
4,
5,
4,
4,
5,
4,
4,
5,
4,
4,
4,
4,
3,
5,
4,
4,
5,
4,
3,
4,
4,
4,
5,
4,
4,
5,
4,
4,
5,
4,
4,
5,
4,
5,
5,
5,
4,
5,
5,
4,
7,
5,
4,
5,
5,
4,
7,
5,
4,
7,
5,
4,
5,
5,
4,
7,
5,
4,
5,
5,
4,
7,
5,
4,
5,
4,
4,
5,
5,
4,
5,
4,
5,
5,
4,
4,
5,
5,
4,
5,
4,
4,
5,
4,
4,
5,
4,
4,
5,
4,
4,
5,
4,
4,
5,
4,
4,
5,
4,
4,
5,
4,
4,
5,
4,
4,
5,
4,
4,
5,
4,
4,
5,
4,
4,
5,
5,
4,
5,
4,
4,
7,
5,
4,
5,
5,
4,
5,
4,
3,
5,
5,
4,
7,
4,
4,
5,
4,
4,
5,
4,
4,
5,
5,
4,
5,
4,
4,
5,
5,
4,
5,
5,
4,
5,
4,
4,
5,
4,
4,
5,
4,
3,
5,
4,
4,
5,
3,
3,
5,
4,
3,
4,
4,
4,
5,
4,
3,
4,
4,
4,
5,
4,
3,
5,
4,
4,
5,
4,
3,
5,
4,
3,
5,
4,
4,
4,
4,
4,
4,
4,
3,
5,
4,
4,
5,
4,
4,
5,
4,
3,
4,
4,
4,
5,
4,
3,
5,
4,
4,
5,
4,
3,
5,
4,
4,
5,
4,
3,
5,
4,
4,
4,
4,
4,
5,
4,
3,
5,
3,
4,
5,
4,
4,
5,
4,
4,
5,
4,
3,
5,
4,
4,
5,
4,
4,
5,
4,
4,
5,
4,
3,
5,
3,
4,
5,
4,
4,
5,
4,
4,
4,
4,
3,
5,
3,
4,
5,
4,
3,
5,
4,
3,
5,
4,
3,
5,
4,
4,
5,
4,
3,
5,
4,
4,
5,
4,
3,
5,
4,
4,
4,
4,
3,
5,
4,
3,
4,
4,
3,
5,
4,
3,
4,
4,
4,
5,
4,
3,
4,
4,
3,
5,
3,
3,
5,
4,
3,
4,
4,
3,
4,
4,
3,
5,
3,
4,
4,
3,
3,
4,
4,
4,
4,
4,
3,
4,
3,
3,
4,
3,
3,
5,
3,
3,
4,
3,
3,
5,
3,
3,
4,
3,
3,
5,
4,
3,
4,
3,
3,
4,
3,
3,
4,
4,
3,
5,
3,
3,
4,
3,
3,
4,
3,
3,
4,
3,
3,
4,
3,
3,
4,
4,
3,
4,
3,
3,
4,
3,
3,
5,
3,
3,
4,
4,
3,
5,
3,
3,
4,
3,
3,
4,
4,
3,
4,
4,
3,
4,
4,
3,
4,
3,
3,
4,
3,
3,
4,
4,
3,
5,
3,
3,
4,
3,
3,
4,
3,
3,
4,
4,
3,
4,
3,
3,
4,
4,
3,
4,
4,
3,
5,
4,
3,
5,
3,
3,
4,
4,
4,
4,
3,
3,
4,
4,
3,
4,
3,
3,
5,
4,
3,
4,
3,
3,
5,
4,
3,
4,
3,
3,
5,
3,
3,
4,
4,
3,
4,
3,
3,
4,
3,
3,
4,
3,
3,
5,
4,
3,
4,
3,
3,
5,
3,
3,
4,
3,
3,
5,
3,
3,
4,
4,
3,
4,
3,
3,
4,
3,
3,
4,
3,
3,
4,
3,
3,
4,
3,
3,
4,
3,
3,
4,
3,
3,
4,
3,
2,
4,
3,
3,
4,
3,
3,
4,
3,
3,
4,
4,
3,
4,
3,
3,
4,
3,
3,
4,
3,
3,
4,
3,
2,
4,
3,
3,
4,
3,
2,
4,
3,
2,
4,
3,
3,
4,
3,
3,
4,
3,
3,
4,
3,
3,
4,
4,
3,
4,
3,
3,
4,
3,
3,
4,
3,
3,
4,
3,
3,
4,
3,
3,
4,
3,
3,
4,
3,
2,
4,
4,
3,
3,
3,
2,
4,
4,
3,
4,
3,
3,
4,
4,
3,
4,
3,
3,
4,
3,
3,
4,
3,
3,
4,
3,
3,
4,
3,
3,
4,
3,
3,
4,
3,
3,
4,
3,
3,
4,
3,
3,
4,
3,
3,
4,
3,
2,
4,
4,
3,
4,
3,
2,
4,
3,
3,
4,
3,
2,
4,
4,
3,
4,
3,
3,
4,
3,
3,
4,
3,
3,
4,
3,
2,
4,
3,
3,
4,
3,
2,
4,
3,
2,
4,
3,
3,
4,
3,
2,
3,
3,
3,
4,
3,
2,
4,
3,
3,
4,
3,
3,
4,
3,
3,
4,
3,
3,
4,
3,
3,
4,
3,
3,
4,
3,
3,
4,
3,
2,
3,
3,
2,
3,
2,
2,
4,
3,
3,
3,
3,
2,
4,
3,
2,
3,
2,
3,
4,
3,
3,
4,
3,
3,
4,
3,
2,
4,
3,
3,
4,
3,
3,
3,
3,
2,
4,
3,
2,
4,
2,
3,
4,
3,
3,
4,
3,
2,
4,
4,
2,
4,
2,
2,
4,
3,
3,
4,
3,
2,
4,
3,
3,
4,
3,
3,
4,
3,
3,
3,
3,
2,
4,
3,
2,
3,
3,
2,
4,
4,
3,
3,
3,
2,
4,
3,
2,
4,
3,
3,
4,
3,
3,
4,
3,
3,
4,
3,
2,
3,
3,
2,
4,
3,
3,
3,
3,
2,
4,
3,
2,
3,
3,
3,
4,
3,
3,
4,
3,
2,
4,
3,
2,
3,
3,
2,
4,
3,
3,
4,
3,
2,
4,
3,
2,
4,
3,
2,
3,
3,
3,
4,
3,
2,
4,
3,
3,
3,
3,
2,
4,
3,
3,
3,
2,
2,
5,
3,
2,
3,
2,
2,
4,
2,
2,
3,
3,
2,
4,
3,
2,
3,
3,
2,
4,
2,
2,
3,
3,
2,
4,
3,
2,
3,
3,
2,
4,
2,
2,
3,
3,
3,
4,
3,
2,
3,
3,
2,
3,
3,
2,
3,
3,
0,
4,
3,
3,
3,
3,
2,
3,
3,
3,
3,
3,
2,
4,
3,
2,
3,
2,
3,
4,
3,
2,
3,
3,
2,
4,
2,
2,
3,
3,
2,
4,
3,
3,
3,
3,
2,
4,
3,
2,
3,
3,
2,
4,
3,
3,
3,
3,
2,
4,
3,
2,
3,
3,
2,
4,
2,
2,
3,
3,
2,
4,
3,
2,
3,
4,
3,
4,
3,
3,
3,
3,
2,
4,
3,
3,
4,
3,
2,
4,
2,
3,
3,
3,
2,
4,
3,
3,
3,
3,
2,
4,
3,
3,
3,
3,
2,
4,
3,
2,
3,
3,
2,
4,
3,
3,
3,
3,
2,
4,
3,
2,
3,
3,
2,
4,
3,
2,
3,
3,
2,
4,
2,
2,
3,
3,
2,
3,
2,
3,
4,
3,
2,
3,
3,
3,
3,
3,
2,
4,
3,
3,
3,
3,
2,
4,
3,
2,
4,
2,
3,
4,
2,
2,
4,
3,
2,
4,
3,
2,
3,
2,
2,
4,
2,
2,
3,
3,
2,
4,
2,
2,
3,
3,
2,
3,
2,
2,
3,
3,
2,
3,
2,
2,
3,
3,
2,
4,
3,
2,
3,
3,
2,
4,
3,
2,
3,
3,
2,
4,
2,
3,
3,
3,
2,
3,
3,
2,
4,
3,
2,
4,
3,
3,
3,
3,
2,
4,
3,
2,
3,
3,
2,
3,
3,
3,
3,
2,
2,
4,
3,
2,
3,
3,
2,
4,
3,
2,
3,
3,
2,
4,
3,
2,
3,
3,
3,
4,
2,
2,
3,
3,
2,
3,
3,
2,
3,
3,
2,
3,
2,
2,
3,
3,
2,
4,
2,
2,
3,
3,
2,
3,
2,
3,
3,
3,
2,
4,
3,
2,
3,
3,
2,
4,
3,
3,
3,
3,
2,
4,
3,
2,
3,
3,
2,
4,
3,
2,
3,
2,
2,
4,
3,
2,
2,
3,
2,
4,
2,
2,
3,
3,
2,
4,
2,
2,
3,
3,
2,
3,
2,
2,
3,
2,
2,
3,
2,
2,
3,
3,
2,
3,
3,
3,
3,
3,
2,
3,
2,
2,
3,
3,
2,
3,
2,
2,
3,
2,
2,
3,
2,
2,
3,
3,
2,
4,
2,
2,
3,
2,
2,
4,
2,
2,
3,
3,
2,
3,
2,
2,
3,
3,
2,
3,
2,
2,
3,
3,
2,
3,
2,
2,
3,
2,
2,
4,
2,
2,
3,
2,
2,
3,
2,
2,
3,
2,
2,
4,
2,
0,
2,
3,
2,
4,
2,
2,
3,
3,
2,
4,
2,
2,
3,
3,
2,
3,
2,
2,
3,
2,
2,
3,
2,
2,
3,
3,
2,
3,
2,
2,
3,
2,
2,
4,
2,
2,
3,
3,
2,
4,
2,
2,
3,
3,
2,
3,
3,
3,
3,
3,
2,
4,
3,
2,
2,
2,
2,
4,
3,
2,
2,
3,
2,
3,
2,
2,
2,
2,
2,
3,
2,
2,
3,
3,
2,
3,
2,
2,
3,
3,
2,
3,
2,
2,
3,
3,
2,
3,
2,
2,
3,
2,
2,
3,
2,
2,
3,
3,
2,
3,
3,
2,
3,
2,
0,
4,
2,
2,
3,
3,
2,
3,
2,
2,
3,
3,
2,
4,
2,
0,
3,
2,
2,
3,
2,
2,
3,
2,
2,
3,
2,
0,
3,
3,
2,
3,
2,
2,
4,
2,
2,
3,
2,
2,
3,
3,
2,
3,
2,
2,
3,
2,
0,
3,
3,
2,
3,
2,
2,
3,
2,
2,
2,
2,
2,
3,
3,
2,
2,
2,
2,
3,
2,
0,
3,
2,
2,
4,
2,
2,
3,
3,
2,
3,
2,
2,
3,
2,
2,
3,
2,
2,
3,
3,
2,
3,
2,
0,
3,
2,
0,
3,
2,
0,
3,
3,
2,
3,
2,
2,
3,
2,
0,
3,
2,
2,
3,
3,
2,
3,
2,
0,
3,
2,
0,
3,
2,
2,
3,
3,
2,
3,
2,
2,
3,
2,
0,
3,
2,
2,
2,
2,
2,
3,
3,
2,
3,
2,
0,
3,
3,
2,
2,
2,
2,
3,
2,
0,
3,
2,
2,
3,
2,
2,
2,
3,
2,
3,
2,
0,
3,
2,
0,
3,
2,
2,
3,
2,
0,
3,
2,
2,
3,
2,
0,
3,
2,
2,
2,
2,
0,
3,
3,
2,
3,
2,
2,
4,
2,
2,
2,
3,
2,
3,
2,
2,
3,
2,
2,
3,
2,
2,
2,
2,
0,
3,
2,
2,
3,
2,
0,
3,
2,
2,
3,
2,
2,
3,
2,
2,
3,
2,
0,
3,
2,
0,
2,
2,
0,
3,
2,
2,
3,
2,
0,
3,
2,
2,
3,
2,
2,
3,
2,
2,
3,
2,
2,
3,
2,
0,
2,
3,
2,
3,
2,
0,
3,
2,
0,
3,
2,
2,
3,
2,
2,
3,
2,
2,
3,
2,
0,
3,
2,
2,
2,
2,
0,
3,
2,
2,
2,
2,
0,
3,
2,
0,
2,
2,
2,
3,
2,
0,
2,
2,
2,
3,
2,
2,
2,
3,
2,
3,
2,
0,
3,
2,
2,
3,
2,
0,
3,
2,
2,
2,
2,
2,
3,
2,
0,
3,
2,
2,
2,
2,
0,
3,
2,
0,
3,
2,
0,
3,
2,
2,
2,
2,
2,
3,
2,
0,
2,
2,
0,
3,
2,
0,
2,
2,
2,
3,
2,
0,
3,
0,
0,
3,
2,
0,
2,
2,
2,
10,
56,
114,
134,
137,
134,
127,
115,
109,
106,
103,
98,
91,
86,
82,
80,
76,
72,
69,
64,
61,
61,
58,
55,
52,
50,
48,
47,
45,
42,
41,
38,
37,
36,
34,
33,
33,
32,
31,
29,
28,
27,
28,
27,
26,
27,
24,
23,
24,
23,
22,
22,
21,
19,
21,
19,
18,
19,
18,
16,
18,
17,
16,
17,
14,
14,
16,
14,
14,
14,
14,
13,
14,
13,
13,
13,
13,
12,
13,
12,
12,
12,
12,
12,
13,
10,
10,
12,
10,
9,
12,
10,
10,
12,
10,
10,
12,
9,
9,
10,
10,
9,
10,
9,
9,
10,
9,
9,
10,
9,
9,
10,
9,
9,
10,
9,
9,
10,
9,
9,
10,
8,
9,
10,
9,
8,
10,
9,
8,
10,
9,
9,
9,
9,
9,
10,
9,
8,
9,
9,
8,
9,
8,
9,
10,
9,
8,
9,
9,
8,
9,
8,
8,
9,
9,
9,
9,
9,
9,
10,
9,
8,
9,
8,
8,
10,
9,
8,
10,
8,
8,
9,
9,
8,
9,
9,
8,
9,
8,
8,
9,
8,
8,
10,
9,
8,
10,
8,
8,
9,
8,
8,
9,
8,
8,
9,
9,
8,
9,
8,
8,
9,
9,
8,
10,
8,
8,
9,
8,
8,
9,
8,
8,
9,
9,
8,
9,
7,
8,
9,
8,
8,
9,
8,
8,
9,
8,
8,
9,
8,
8,
9,
8,
8,
9,
9,
8,
9,
8,
8,
9,
8,
8,
9,
8,
8,
9,
8,
8,
8,
8,
8,
9,
8,
8,
9,
8,
7,
9,
8,
8,
9,
8,
8,
9,
8,
8,
9,
8,
8,
9,
9,
8,
9,
8,
8,
9,
8,
8,
8,
8,
8,
9,
8,
7,
9,
8,
8,
9,
8,
8,
8,
8,
8,
9,
7,
7,
9,
8,
8,
9,
8,
8,
8,
8,
8,
8,
8,
7,
9,
8,
7,
8,
7,
8,
9,
8,
7,
8,
7,
8,
9,
7,
7,
9,
8,
8,
8,
8,
7,
9,
8,
8,
8,
8,
8,
9,
8,
7,
8,
8,
8,
9,
7,
7,
8,
8,
8,
9,
7,
7,
8,
8,
7,
8,
7,
7,
8,
8,
7,
8,
7,
7,
9,
8,
7,
8,
7,
7,
8,
8,
7,
9,
8,
7,
9,
8,
7,
8,
8,
7,
8,
8,
7,
8,
8,
8,
9,
8,
7,
8,
8,
7,
8,
8,
7,
8,
7,
7,
8,
8,
7,
8,
8,
7,
8,
8,
7,
8,
7,
7,
8,
7,
7,
9,
7,
7,
9,
8,
7,
8,
8,
7,
8,
8,
7,
9,
7,
7,
8,
7,
7,
9,
7,
7,
8,
8,
7,
8,
7,
7,
8,
8,
7,
8,
7,
7,
8,
8,
7,
8,
7,
7,
9,
8,
7,
8,
7,
8,
8,
7,
5,
8,
7,
7,
8,
7,
7,
8,
7,
7,
7,
7,
7,
8,
7,
7,
8,
7,
7,
8,
7,
7,
8,
8,
7,
8,
7,
7,
8,
7,
7,
8,
7,
7,
8,
8,
5,
8,
7,
7,
8,
7,
7,
8,
7,
7,
8,
7,
5,
8,
7,
7,
8,
7,
7,
8,
7,
7,
8,
8,
7,
8,
7,
7,
8,
7,
7,
8,
7,
7,
7,
7,
7,
8,
7,
5,
7,
7,
7,
7,
7,
7,
7,
7,
5,
8,
5,
7,
8,
7,
7,
8,
7,
7,
8,
8,
7,
8,
7,
7,
8,
7,
7,
8,
7,
7,
7,
7,
5,
8,
5,
7,
8,
7,
7,
8,
7,
7,
7,
7,
5,
8,
7,
5,
8,
7,
7,
8,
7,
7,
7,
7,
7,
7,
7,
5,
7,
7,
7,
7,
5,
7,
7,
7,
5,
7,
5,
5,
7,
5,
5,
8,
7,
7,
7,
7,
5,
8,
7,
7,
7,
5,
7,
8,
7,
7,
7,
7,
7,
8,
7,
7,
7,
7,
7,
8,
7,
7,
7,
7,
7,
8,
5,
5,
8,
7,
5,
7,
5,
7,
7,
7,
5,
7,
7,
7,
8,
7,
5,
7,
5,
7,
7,
7,
5,
7,
5,
7,
8,
5,
5,
7,
7,
5,
7,
5,
5,
7,
7,
5,
7,
5,
5,
8,
7,
5,
7,
7,
5,
7,
5,
5,
7,
7,
5,
8,
7,
7,
7,
7,
5,
8,
5,
5,
7,
7,
5,
7,
5,
5,
7,
7,
5,
7,
5,
7,
8,
7,
5,
7,
7,
7,
8,
7,
5,
7,
7,
5,
7,
7,
5,
8,
7,
7,
7,
5,
4,
7,
5,
5,
7,
5,
5,
7,
5,
5,
7,
5,
5,
7,
5,
5,
7,
5,
5,
7,
5,
5,
7,
5,
5,
7,
5,
7,
7,
5,
5,
7,
5,
5,
7,
7,
5,
7,
5,
5,
7,
5,
5,
7,
5,
5,
7,
5,
4,
7,
5,
5,
7,
5,
5,
7,
5,
5,
5,
5,
5,
7,
5,
5,
7,
5,
5,
8,
5,
4,
7,
5,
5,
7,
5,
5,
7,
5,
5,
7,
5,
5,
7,
5,
5,
7,
5,
5,
7,
7,
5,
7,
7,
5,
7,
5,
5,
7,
5,
5,
7,
5,
5,
7,
5,
5,
7,
5,
5,
7,
5,
5,
7,
5,
5,
7,
5,
5,
7,
5,
5,
7,
5,
5,
7,
5,
5,
7,
5,
5,
7,
5,
5,
7,
5,
5,
5,
5,
4,
7,
5,
5,
5,
5,
4,
7,
5,
5,
7,
5,
4,
7,
5,
4,
7,
5,
5,
7,
5,
5,
7,
5,
5,
7,
5,
5,
7,
5,
5,
7,
5,
5,
5,
4,
4,
7,
5,
5,
7,
5,
4,
5,
5,
5,
7,
5,
5,
7,
5,
4,
7,
5,
4,
5,
5,
5,
7,
5,
4,
7,
5,
5,
5,
4,
4,
5,
5,
5,
7,
5,
4,
7,
5,
4,
7,
5,
4,
7,
5,
5,
7,
5,
5,
7,
5,
5,
7,
5,
4,
5,
5,
5,
5,
5,
4,
7,
5,
5,
5,
4,
4,
7,
5,
5,
5,
5,
5,
7,
5,
4,
5,
5,
5,
7,
4,
5,
7,
5,
4,
7,
5,
4,
7,
5,
4,
5,
4,
5,
7,
5,
4,
7,
5,
5,
5,
5,
4,
5,
5,
5,
7,
4,
4,
7,
5,
4,
7,
4,
4,
7,
5,
5,
5,
4,
5,
7,
5,
4,
5,
5,
4,
5,
5,
4,
5,
5,
4,
7,
5,
4,
5,
5,
4,
5,
4,
5,
5,
5,
4,
5,
4,
5,
5,
5,
4,
5,
5,
5,
7,
5,
4,
7,
5,
4,
5,
4,
4,
5,
5,
5,
5,
4,
4,
5,
5,
4,
5,
4,
4,
5,
4,
4,
5,
5,
4,
7,
5,
4,
5,
5,
4,
5,
4,
4,
5,
4,
4,
5,
4,
4,
5,
5,
4,
5,
4,
4,
5,
5,
4,
7,
5,
4,
5,
5,
4,
5,
4,
4,
5,
5,
4,
5,
4,
3,
5,
5,
4,
5,
4,
5,
5,
5,
4,
5,
4,
4,
5,
4,
4,
5,
4,
5,
5,
5,
4,
5,
4,
4,
5,
4,
4,
5,
4,
4,
5,
4,
4,
5,
4,
4,
5,
4,
4,
5,
4,
4,
5,
4,
4,
5,
4,
4,
5,
4,
4,
5,
4,
4,
5,
5,
4,
5,
4,
4,
5,
4,
4,
5,
4,
4,
5,
4,
4,
5,
4,
4,
5,
4,
3,
5,
4,
4,
5,
4,
4,
5,
4,
4,
5,
4,
4,
5,
4,
4,
5,
4,
4,
5,
4,
4,
5,
5,
4,
5,
4,
4,
5,
4,
4,
5,
4,
4,
5,
4,
4,
5,
4,
4,
5,
4,
4,
5,
4,
3,
5,
5,
4,
5,
4,
4,
5,
5,
4,
5,
4,
3,
5,
4,
4,
4,
4,
4,
5,
4,
4,
5,
4,
4,
5,
4,
4,
4,
4,
3,
5,
4,
3,
5,
4,
3,
5,
4,
3,
4,
4,
3,
5,
4,
4,
5,
4,
4,
5,
4,
4,
5,
4,
3,
5,
4,
4,
5,
4,
3,
5,
4,
3,
5,
4,
4,
5,
4,
4,
5,
4,
4,
5,
4,
4,
4,
4,
3,
4,
4,
4,
5,
4,
4,
5,
4,
3,
5,
4,
3,
5,
4,
4,
5,
4,
4,
5,
4,
3,
4,
4,
3,
5,
4,
4,
5,
4,
4,
5,
4,
3,
4,
4,
3,
5,
3,
3,
5,
3,
3,
5,
4,
4,
4,
4,
4,
5,
3,
3,
5,
4,
3,
5,
3,
3,
5,
4,
4,
5,
3,
4,
5,
4,
3,
4,
4,
4,
4,
4,
3,
5,
4,
4,
5,
3,
3,
5,
4,
3,
4,
4,
4,
5,
4,
4,
4,
4,
4,
5,
4,
3,
4,
4,
3,
5,
3,
3,
4,
4,
4,
5,
4,
3,
4,
4,
3,
5,
3,
4,
5,
4,
4,
5,
4,
3,
5,
4,
3,
4,
3,
4,
5,
4,
3,
5,
4,
3,
4,
3,
3,
5,
4,
3,
4,
3,
4,
4,
4,
3,
4,
4,
3,
5,
3,
3,
5,
4,
3,
5,
4,
3,
4,
4,
3,
5,
3,
3,
4,
4,
3,
4,
4,
3,
4,
4,
3,
4,
3,
3,
4,
4,
3,
4,
3,
3,
4,
4,
3,
4,
3,
3,
4,
4,
3,
4,
3,
3,
5,
3,
3,
4,
4,
3,
5,
4,
3,
4,
3,
3,
5,
3,
3,
4,
4,
3,
5,
3,
3,
4,
4,
3,
4,
3,
3,
4,
4,
3,
4,
3,
3,
5,
4,
3,
4,
3,
3,
5,
3,
3,
4,
4,
3,
5,
4,
3,
4,
4,
3,
4,
3,
3,
4,
4,
3,
4,
3,
3,
4,
4,
3,
4,
3,
3,
4,
4,
3,
4,
3,
3,
4,
4,
3,
4,
3,
3,
5,
3,
3,
4,
3,
3,
4,
4,
3,
5,
3,
3,
4,
3,
3,
4,
4,
3,
4,
4,
3,
5,
3,
3,
4,
4,
3,
4,
3,
3,
4,
4,
3,
4,
3,
3,
4,
3,
3,
4,
3,
3,
4,
3,
2,
4,
3,
3,
4,
3,
3,
5,
4,
3,
4,
3,
3,
5,
3,
3,
4,
3,
3,
4,
3,
3,
4,
4,
3,
4,
2,
3,
4,
3,
3,
4,
3,
2,
3,
3,
2,
3,
2,
2,
4,
2,
2,
4,
3,
2,
3,
2,
0,
3,
2,
2,
4,
2,
2,
3,
2,
2,
3,
3,
2,
3,
2,
2,
3,
2,
2,
3,
2,
2,
3,
2,
2,
3,
3,
2,
3,
3,
2,
4,
3,
2,
4,
3,
3,
5,
3,
3,
5,
4,
4,
4,
4,
4,
5,
4,
4,
5,
4,
4,
5,
4,
4,
4,
4,
4,
5,
4,
4,
5,
5,
3,
4,
4,
4,
4,
3,
3,
4,
3,
3,
4,
3,
2,
4,
4,
3,
4,
3,
2,
4,
3,
3,
4,
3,
3,
4,
3,
3,
4,
3,
3,
4,
3,
3,
4,
3,
3,
4,
3,
3,
3,
3,
2,
4,
3,
2,
4,
2,
3,
4,
2,
3,
4,
4,
3,
4,
3,
2,
4,
3,
3,
4,
3,
3,
4,
4,
2,
3,
3,
3,
4,
3,
3,
4,
3,
3,
4,
3,
2,
3,
3,
3,
4,
2,
2,
4,
3,
3,
4,
3,
2,
4,
3,
2,
4,
3,
3,
4,
3,
3,
4,
3,
3,
4,
4,
3,
4,
3,
3,
4,
3,
3,
3,
3,
3,
4,
3,
3,
3,
3,
2,
4,
2,
3,
4,
3,
2,
3,
3,
3,
4,
3,
2,
4,
3,
2,
4,
3,
2,
4,
3,
3,
4,
3,
3,
4,
3,
2,
3,
3,
2,
3,
3,
2,
4,
3,
2,
4,
3,
3,
3,
3,
2,
5,
27,
77,
109,
117,
117,
112,
103,
95,
93,
89,
85,
81,
76,
72,
70,
67,
64,
61,
57,
55,
53,
52,
50,
47,
45,
42,
42,
41,
38,
38,
36,
34,
33,
32,
31,
32,
29,
27,
28,
27,
26,
26,
24,
23,
23,
23,
22,
22,
21,
19,
21,
18,
18,
18,
17,
17,
18,
17,
16,
16,
16,
14,
16,
14,
13,
14,
13,
13,
13,
13,
12,
14,
12,
12,
13,
12,
12,
13,
10,
10,
12,
12,
10,
12,
10,
10,
12,
10,
9,
12,
10,
10,
12,
10,
9,
12,
9,
9,
12,
10,
9,
10,
10,
9,
10,
10,
9,
10,
9,
9,
10,
9,
9,
10,
9,
9,
10,
9,
9,
10,
9,
9,
10,
9,
9,
9,
9,
9,
10,
9,
8,
10,
9,
8,
10,
8,
9,
10,
9,
9,
9,
9,
8,
9,
9,
9,
9,
9,
8,
9,
9,
9,
9,
9,
8,
9,
9,
9,
9,
9,
8,
10,
9,
9,
9,
9,
8,
9,
9,
8,
9,
9,
8,
10,
9,
8,
9,
9,
8,
10,
9,
8,
9,
9,
9,
10,
8,
8,
9,
9,
8,
9,
9,
8,
9,
9,
8,
9,
8,
9,
9,
9,
8,
9,
9,
8,
9,
8,
8,
9,
9,
8,
9,
8,
8,
9,
9,
8,
9,
9,
8,
9,
8,
8,
9,
9,
8,
9,
9,
8,
9,
8,
8,
9,
8,
8,
9,
8,
8,
9,
9,
8,
9,
8,
8,
9,
8,
8,
9,
8,
8,
9,
8,
8,
9,
8,
8,
9,
8,
8,
9,
8,
8,
9,
9,
8,
9,
8,
8,
9,
8,
8,
9,
8,
8,
9,
9,
8,
9,
8,
8,
9,
8,
8,
8,
8,
8,
9,
8,
8,
9,
8,
8,
9,
8,
8,
9,
8,
8,
9,
8,
8,
9,
8,
8,
9,
8,
8,
8,
8,
8,
9,
8,
8,
9,
8,
8,
9,
8,
8,
8,
8,
8,
9,
8,
8,
9,
8,
8,
9,
8,
8,
9,
9,
8,
9,
7,
8,
9,
8,
8,
9,
8,
8,
8,
8,
7,
8,
7,
8,
9,
8,
7,
8,
8,
8,
9,
7,
7,
9,
9,
8,
8,
7,
8,
9,
8,
7,
9,
8,
8,
9,
8,
7,
8,
8,
8,
9,
8,
8,
8,
8,
7,
8,
8,
7,
8,
8,
8,
9,
8,
8,
9,
8,
7,
8,
8,
7,
8,
8,
7,
8,
7,
7,
9,
8,
7,
8,
8,
7,
9,
8,
7,
8,
7,
7,
9,
7,
7,
8,
8,
7,
8,
7,
7,
8,
7,
7,
8,
7,
7,
9,
7,
7,
8,
7,
8,
9,
7,
8,
8,
8,
7,
9,
7,
7,
9,
8,
7,
9,
7,
7,
8,
8,
7,
8,
7,
7,
8,
7,
7,
8,
7,
7,
8,
7,
7,
8,
8,
7,
8,
7,
7,
8,
7,
7,
8,
8,
7,
8,
7,
8,
8,
7,
7,
8,
7,
7,
8,
7,
7,
8,
7,
7,
8,
7,
7,
8,
7,
7,
8,
8,
7,
8,
7,
7,
8,
7,
7,
8,
7,
7,
8,
8,
7,
8,
7,
7,
8,
7,
7,
8,
7,
7,
7,
7,
7,
9,
7,
7,
8,
7,
7,
8,
7,
7,
8,
8,
7,
8,
5,
7,
8,
8,
7,
8,
5,
7,
8,
8,
5,
8,
7,
7,
8,
7,
7,
7,
7,
7,
8,
7,
5,
8,
7,
7,
8,
7,
7,
8,
7,
7,
7,
7,
5,
8,
7,
7,
8,
7,
7,
8,
7,
7,
7,
7,
5,
8,
7,
5,
8,
7,
7,
8,
7,
7,
7,
7,
7,
8,
5,
7,
8,
7,
7,
8,
5,
7,
8,
7,
5,
7,
5,
5,
7,
7,
5,
8,
7,
7,
7,
7,
5,
7,
7,
7,
8,
7,
7,
8,
7,
7,
7,
7,
7,
7,
5,
5,
8,
7,
7,
8,
7,
7,
7,
7,
5,
7,
5,
7,
8,
7,
5,
7,
7,
7,
7,
7,
5,
7,
7,
7,
8,
5,
5,
8,
7,
5,
7,
7,
5,
7,
5,
5,
7,
5,
5,
8,
7,
7,
7,
7,
5,
7,
7,
5,
7,
7,
5,
7,
7,
5,
7,
5,
5,
7,
5,
5,
7,
7,
7,
7,
5,
5,
7,
7,
5,
7,
7,
5,
7,
5,
5,
7,
7,
5,
7,
7,
5,
7,
5,
5,
7,
7,
5,
7,
5,
5,
7,
7,
5,
7,
5,
5,
7,
7,
5,
7,
7,
5,
8,
5,
5,
7,
5,
5,
7,
5,
5,
7,
5,
5,
7,
5,
5,
7,
7,
5,
7,
5,
5,
7,
5,
5,
7,
5,
4,
7,
5,
5,
7,
5,
5,
8,
7,
5,
7,
7,
5,
7,
7,
5,
7,
5,
5,
7,
5,
4,
7,
5,
5,
7,
5,
5,
7,
5,
5,
7,
5,
5,
5,
5,
5,
7,
5,
5,
7,
5,
5,
7,
5,
5,
7,
5,
5,
7,
5,
5,
7,
5,
5,
8,
5,
5,
7,
7,
5,
7,
7,
5,
7,
7,
5,
7,
5,
5,
7,
7,
5,
7,
5,
5,
8,
5,
5,
7,
7,
5,
8,
5,
4,
7,
7,
5,
7,
5,
5,
8,
7,
5,
7,
5,
5,
7,
5,
5,
7,
5,
5,
7,
5,
5,
7,
7,
5,
7,
5,
5,
7,
5,
5,
7,
5,
4,
7,
5,
5,
7,
4,
5,
7,
5,
4,
7,
5,
5,
5,
5,
4,
5,
5,
5,
7,
5,
4,
7,
5,
5,
5,
5,
4,
7,
5,
5,
7,
5,
4,
7,
5,
5,
5,
5,
5,
7,
5,
5,
7,
5,
5,
8,
5,
4,
5,
5,
4,
7,
5,
5,
7,
5,
5,
7,
5,
5,
7,
5,
5,
7,
5,
5,
7,
5,
5,
7,
5,
5,
7,
5,
4,
7,
5,
5,
7,
5,
4,
7,
5,
5,
7,
5,
4,
5,
5,
4,
5,
4,
5,
7,
5,
5,
7,
5,
4,
7,
5,
5,
7,
5,
5,
7,
5,
5,
7,
5,
4,
5,
5,
5,
7,
5,
4,
7,
5,
5,
7,
5,
4,
5,
5,
5,
7,
5,
4,
7,
5,
4,
5,
5,
5,
7,
5,
5,
7,
5,
4,
5,
5,
4,
5,
5,
4,
7,
5,
5,
5,
4,
4,
5,
4,
4,
5,
5,
4,
5,
5,
4,
5,
5,
4,
7,
5,
4,
7,
5,
4,
5,
5,
5,
7,
5,
4,
7,
5,
5,
5,
4,
3,
5,
4,
5,
5,
4,
4,
7,
5,
4,
5,
4,
4,
5,
5,
5,
5,
5,
4,
7,
5,
4,
5,
5,
4,
5,
4,
4,
5,
4,
5,
7,
5,
4,
5,
5,
4,
5,
4,
4,
7,
5,
4,
5,
4,
4,
5,
4,
4,
5,
5,
4,
5,
4,
4,
5,
4,
4,
5,
4,
4,
5,
5,
4,
5,
4,
4,
5,
4,
4,
5,
4,
4,
5,
4,
4,
5,
4,
4,
5,
4,
4,
4,
4,
4,
5,
4,
4,
5,
4,
4,
5,
4,
4,
5,
4,
3,
4,
4,
4,
5,
4,
3,
5,
4,
3,
5,
4,
3,
4,
4,
4,
5,
4,
4,
5,
4,
4,
4,
4,
4,
5,
4,
3,
5,
4,
3,
5,
4,
4,
5,
4,
3,
5,
4,
3,
5,
4,
4,
5,
4,
3,
5,
4,
3,
5,
4,
3,
4,
4,
4,
5,
4,
4,
5,
4,
4,
5,
4,
3,
5,
4,
4,
5,
4,
4,
5,
4,
4,
5,
4,
3,
5,
3,
3,
5,
4,
4,
4,
4,
3,
4,
4,
3,
5,
3,
3,
5,
4,
3,
5,
4,
3,
4,
4,
4,
5,
4,
3,
5,
4,
4,
5,
4,
3,
5,
4,
3,
4,
3,
3,
5,
4,
3,
4,
3,
3,
4,
4,
3,
4,
4,
3,
5,
4,
3,
5,
4,
3,
4,
4,
4,
5,
4,
4,
5,
4,
4,
4,
4,
3,
4,
4,
3,
5,
3,
4,
5,
3,
3,
5,
3,
3,
4,
4,
3,
4,
3,
3,
4,
3,
3,
4,
4,
3,
4,
4,
4,
18,
53,
84,
94,
95,
93,
88,
81,
77,
76,
72,
69,
66,
62,
58,
57,
55,
52,
50,
47,
45,
45,
43,
41,
40,
37,
36,
36,
33,
32,
31,
29,
28,
28,
27,
24,
26,
23,
23,
23,
22,
21,
21,
19,
19,
19,
18,
17,
18,
17,
17,
17,
16,
16,
17,
16,
14,
14,
14,
13,
14,
13,
13,
14,
13,
13,
14,
13,
12,
13,
12,
12,
13,
10,
10,
13,
12,
10,
12,
10,
10,
12,
10,
10,
12,
10,
10,
12,
10,
10,
10,
10,
9,
12,
10,
9,
10,
9,
9,
10,
9,
8,
10,
9,
9,
9,
8,
8,
9,
9,
8,
9,
8,
8,
10,
8,
8,
9,
8,
8,
9,
9,
8,
9,
9,
8,
9,
8,
7,
9,
9,
8,
10,
8,
8,
9,
9,
9,
9,
8,
8,
9,
9,
