src/long_1649/temp00882.CSV

Format,1.0B,
Memory Length,10000,
IntpDistance,0,
Trigger Address,4849,
Trigger Level,8.000E-01,
Source,CH1,
Vertical Units,V,
Vertical Units Div,0,
Vertical Units Extend Div,16,
Label,,
Probe Type,0,
Probe Ratio,1.000e+01,
Vertical Scale,2.000e-01,
Vertical Position,-6.800e-01,
Horizontal Units,S,
Horizontal Scale,2.000E-06,
Horizontal Position,3.000E-07,
Horizontal Mode,Main,
SincET Mode,Real Time,
Sampling Period,2.000e-09,
Horizontal Old Scale,2.000E-06,
Horizontal Old Position,3.000E-07,
Firmware,V1.23,
Mode,Fast,
Waveform Data,
7,
7,
7,
5,
8,
7,
7,
8,
7,
7,
8,
5,
7,
7,
7,
5,
8,
7,
7,
8,
7,
7,
8,
5,
7,
8,
7,
5,
8,
5,
5,
8,
7,
5,
7,
7,
7,
8,
7,
5,
7,
7,
7,
8,
5,
5,
8,
7,
7,
7,
7,
5,
8,
7,
7,
7,
5,
5,
8,
7,
5,
7,
7,
5,
8,
7,
5,
7,
5,
7,
8,
7,
5,
7,
7,
5,
7,
5,
5,
8,
7,
5,
7,
5,
5,
7,
7,
5,
7,
5,
5,
8,
5,
5,
7,
5,
7,
7,
7,
5,
7,
7,
7,
7,
7,
5,
8,
7,
5,
7,
7,
5,
8,
7,
5,
7,
5,
5,
7,
7,
7,
7,
5,
5,
7,
5,
5,
7,
5,
5,
8,
5,
5,
7,
5,
5,
7,
7,
5,
7,
5,
5,
7,
5,
5,
7,
7,
5,
7,
5,
5,
7,
5,
5,
7,
7,
7,
7,
7,
5,
7,
7,
5,
7,
5,
5,
7,
5,
5,
7,
5,
5,
7,
5,
5,
7,
5,
5,
7,
5,
5,
7,
7,
5,
7,
5,
5,
7,
5,
5,
7,
7,
5,
8,
5,
5,
7,
5,
5,
7,
5,
5,
7,
5,
5,
7,
7,
5,
7,
7,
5,
7,
5,
5,
7,
5,
5,
7,
5,
4,
7,
7,
5,
7,
5,
5,
7,
5,
5,
7,
5,
4,
7,
5,
5,
7,
5,
5,
7,
5,
4,
7,
5,
5,
7,
5,
5,
7,
5,
5,
7,
5,
5,
7,
5,
5,
7,
5,
5,
7,
5,
4,
7,
5,
5,
7,
5,
4,
7,
5,
5,
7,
5,
5,
7,
5,
5,
7,
5,
5,
7,
5,
5,
7,
5,
5,
7,
5,
5,
7,
5,
5,
7,
5,
5,
7,
5,
5,
7,
5,
5,
7,
5,
4,
7,
5,
5,
7,
5,
4,
7,
5,
5,
7,
5,
4,
7,
5,
5,
7,
5,
5,
7,
5,
4,
7,
5,
5,
7,
5,
5,
7,
5,
4,
7,
5,
4,
7,
5,
4,
7,
5,
5,
7,
5,
4,
5,
5,
5,
5,
5,
4,
7,
5,
5,
7,
5,
4,
7,
5,
4,
7,
5,
4,
7,
5,
5,
7,
5,
4,
7,
5,
4,
5,
5,
4,
5,
5,
5,
7,
5,
4,
7,
5,
4,
7,
5,
4,
5,
5,
5,
5,
4,
4,
7,
5,
5,
5,
5,
4,
5,
5,
5,
5,
5,
4,
7,
5,
4,
5,
5,
4,
7,
5,
5,
5,
5,
5,
7,
5,
4,
5,
5,
5,
7,
4,
4,
7,
5,
4,
5,
4,
4,
7,
5,
4,
5,
4,
5,
7,
5,
4,
5,
5,
5,
5,
5,
4,
5,
5,
5,
7,
5,
4,
7,
5,
4,
5,
5,
4,
5,
5,
5,
7,
5,
4,
7,
5,
4,
5,
4,
4,
5,
5,
4,
5,
5,
4,
7,
5,
4,
5,
5,
4,
5,
4,
4,
5,
4,
4,
5,
4,
4,
5,
5,
4,
5,
4,
4,
7,
5,
4,
5,
4,
4,
5,
4,
3,
5,
5,
5,
5,
5,
4,
7,
5,
4,
5,
4,
4,
5,
5,
4,
5,
5,
4,
5,
4,
4,
5,
5,
4,
5,
4,
4,
5,
4,
4,
5,
5,
5,
5,
5,
4,
5,
5,
4,
5,
4,
4,
7,
5,
4,
5,
4,
4,
7,
5,
4,
5,
4,
4,
7,
4,
4,
5,
4,
4,
5,
4,
4,
5,
4,
4,
5,
4,
4,
5,
5,
4,
5,
4,
4,
5,
4,
4,
5,
4,
4,
5,
5,
4,
5,
5,
4,
7,
4,
4,
5,
4,
4,
5,
4,
4,
5,
5,
4,
5,
4,
4,
5,
4,
4,
5,
5,
4,
5,
4,
3,
5,
5,
4,
5,
4,
4,
5,
4,
3,
5,
4,
3,
5,
4,
4,
5,
4,
4,
5,
5,
4,
5,
5,
4,
5,
5,
4,
5,
5,
4,
5,
4,
3,
5,
5,
4,
5,
4,
4,
5,
4,
4,
5,
5,
4,
5,
4,
3,
5,
4,
4,
5,
4,
4,
5,
4,
4,
5,
4,
4,
5,
4,
4,
5,
4,
4,
5,
5,
4,
5,
4,
4,
5,
4,
4,
5,
4,
4,
5,
4,
3,
5,
4,
4,
5,
4,
3,
5,
4,
4,
5,
4,
3,
5,
4,
3,
5,
4,
3,
5,
4,
3,
5,
4,
3,
5,
4,
4,
5,
4,
4,
5,
4,
4,
5,
5,
3,
4,
5,
4,
5,
4,
4,
5,
4,
4,
5,
4,
3,
5,
4,
3,
5,
4,
4,
5,
4,
4,
5,
4,
4,
5,
4,
3,
5,
4,
4,
5,
4,
4,
5,
4,
4,
5,
4,
3,
5,
4,
4,
5,
4,
4,
5,
4,
4,
5,
4,
3,
5,
4,
3,
5,
4,
4,
5,
5,
4,
4,
4,
4,
5,
4,
3,
5,
4,
4,
5,
4,
3,
5,
5,
4,
5,
4,
3,
5,
4,
3,
5,
4,
3,
5,
5,
3,
5,
4,
4,
5,
4,
3,
4,
4,
4,
5,
4,
3,
5,
4,
4,
5,
4,
3,
5,
4,
4,
5,
4,
3,
5,
4,
4,
5,
4,
4,
5,
4,
3,
4,
4,
3,
5,
3,
3,
4,
4,
4,
5,
4,
3,
5,
4,
3,
5,
3,
3,
5,
4,
3,
5,
4,
4,
5,
4,
3,
4,
4,
3,
5,
4,
3,
5,
4,
3,
5,
4,
3,
5,
4,
3,
5,
4,
4,
5,
4,
3,
5,
4,
3,
5,
4,
3,
5,
4,
3,
5,
4,
3,
5,
4,
3,
5,
4,
4,
4,
4,
4,
5,
4,
3,
5,
4,
3,
5,
3,
3,
4,
4,
3,
5,
4,
3,
4,
4,
3,
5,
3,
3,
5,
4,
3,
5,
4,
3,
4,
4,
3,
5,
3,
3,
5,
4,
3,
4,
3,
3,
5,
4,
3,
4,
3,
3,
4,
4,
3,
4,
4,
3,
5,
4,
3,
5,
4,
3,
5,
4,
3,
5,
4,
3,
4,
4,
3,
5,
3,
3,
4,
4,
3,
4,
4,
3,
4,
4,
3,
4,
3,
3,
4,
4,
3,
4,
3,
3,
4,
4,
3,
4,
3,
3,
4,
3,
3,
4,
3,
3,
4,
4,
2,
4,
3,
3,
4,
3,
3,
4,
4,
3,
5,
4,
3,
5,
3,
3,
4,
4,
4,
5,
4,
3,
5,
4,
3,
4,
3,
3,
5,
4,
4,
4,
4,
3,
5,
4,
3,
4,
3,
3,
5,
3,
3,
4,
4,
3,
4,
4,
3,
4,
3,
3,
4,
3,
3,
4,
4,
2,
4,
3,
3,
5,
3,
2,
4,
3,
3,
5,
4,
3,
4,
4,
3,
4,
3,
3,
4,
4,
3,
4,
4,
3,
4,
4,
3,
4,
3,
3,
4,
4,
3,
4,
4,
3,
4,
4,
2,
4,
3,
3,
5,
4,
3,
5,
4,
3,
4,
4,
3,
5,
3,
3,
4,
3,
3,
5,
4,
3,
4,
3,
2,
4,
2,
2,
4,
3,
2,
4,
3,
2,
4,
3,
2,
4,
2,
2,
4,
3,
3,
4,
3,
3,
5,
3,
2,
4,
3,
3,
4,
3,
2,
4,
4,
3,
4,
3,
3,
4,
3,
3,
4,
3,
3,
4,
4,
3,
4,
3,
3,
4,
3,
2,
4,
3,
2,
4,
3,
2,
4,
3,
2,
4,
3,
3,
4,
3,
2,
4,
3,
2,
4,
3,
2,
4,
3,
2,
4,
3,
3,
4,
3,
2,
5,
4,
3,
3,
3,
3,
4,
4,
3,
4,
4,
3,
4,
3,
2,
4,
4,
3,
4,
3,
3,
4,
3,
2,
4,
3,
3,
4,
3,
3,
4,
3,
3,
4,
3,
2,
4,
3,
2,
4,
3,
2,
4,
3,
3,
3,
3,
2,
4,
3,
2,
4,
3,
2,
3,
3,
3,
3,
3,
2,
4,
3,
2,
3,
3,
2,
4,
3,
3,
4,
3,
3,
4,
3,
2,
4,
3,
3,
4,
3,
3,
4,
3,
3,
4,
3,
3,
4,
3,
2,
4,
3,
3,
4,
3,
2,
4,
3,
3,
4,
3,
3,
4,
3,
2,
3,
3,
3,
4,
3,
2,
3,
4,
2,
4,
3,
2,
4,
3,
2,
4,
3,
2,
3,
3,
2,
4,
3,
3,
4,
3,
3,
4,
3,
3,
3,
3,
2,
4,
3,
3,
4,
3,
2,
4,
3,
2,
4,
3,
2,
4,
3,
3,
4,
3,
2,
4,
3,
2,
4,
3,
2,
4,
3,
3,
3,
3,
2,
4,
3,
2,
4,
3,
3,
3,
2,
2,
3,
3,
2,
4,
2,
2,
4,
3,
2,
4,
3,
3,
4,
3,
2,
3,
3,
2,
4,
3,
2,
4,
3,
2,
4,
3,
2,
4,
3,
2,
4,
3,
2,
4,
3,
2,
4,
3,
2,
4,
3,
2,
3,
3,
2,
3,
3,
3,
3,
3,
2,
4,
3,
2,
3,
3,
2,
4,
3,
2,
3,
3,
2,
4,
3,
2,
3,
3,
2,
4,
2,
3,
3,
3,
2,
4,
3,
2,
3,
3,
3,
4,
3,
3,
4,
3,
2,
4,
3,
2,
3,
3,
2,
4,
3,
3,
3,
3,
2,
4,
3,
2,
3,
3,
2,
3,
3,
3,
3,
3,
2,
4,
3,
2,
3,
3,
2,
4,
3,
2,
3,
3,
2,
4,
3,
2,
3,
3,
2,
3,
2,
2,
3,
3,
2,
4,
3,
2,
3,
3,
2,
3,
3,
2,
3,
2,
2,
4,
3,
2,
3,
3,
2,
4,
3,
2,
3,
2,
2,
4,
3,
2,
3,
3,
2,
4,
2,
2,
3,
3,
2,
4,
3,
2,
3,
3,
2,
3,
2,
2,
3,
3,
2,
4,
2,
2,
3,
3,
2,
3,
2,
2,
3,
3,
2,
4,
3,
2,
3,
3,
2,
4,
3,
2,
3,
3,
2,
4,
2,
2,
3,
3,
2,
4,
3,
3,
3,
3,
2,
4,
3,
2,
3,
3,
2,
3,
2,
2,
3,
4,
32,
89,
118,
124,
122,
117,
108,
99,
98,
95,
90,
85,
80,
76,
72,
70,
67,
64,
58,
56,
55,
53,
51,
47,
46,
45,
43,
41,
40,
38,
36,
36,
34,
32,
32,
31,
29,
29,
28,
26,
26,
26,
24,
26,
23,
22,
22,
22,
21,
22,
21,
19,
21,
19,
18,
19,
18,
17,
18,
18,
16,
17,
16,
16,
17,
16,
14,
16,
14,
14,
14,
13,
12,
14,
13,
13,
13,
12,
12,
13,
13,
12,
13,
12,
10,
12,
12,
10,
12,
12,
10,
12,
10,
10,
10,
10,
9,
12,
10,
9,
12,
10,
9,
10,
10,
9,
10,
9,
9,
10,
10,
9,
10,
9,
9,
10,
9,
9,
10,
9,
9,
10,
10,
8,
10,
9,
9,
10,
9,
9,
10,
9,
8,
10,
9,
8,
10,
9,
9,
10,
9,
9,
10,
9,
8,
9,
9,
8,
10,
9,
8,
9,
9,
8,
9,
9,
8,
9,
9,
9,
10,
9,
8,
10,
9,
9,
10,
9,
8,
10,
9,
8,
9,
9,
8,
10,
9,
8,
9,
9,
8,
9,
9,
8,
9,
9,
8,
10,
8,
8,
9,
9,
8,
9,
8,
8,
9,
8,
8,
9,
8,
8,
9,
9,
8,
9,
9,
8,
9,
8,
8,
9,
8,
8,
10,
8,
8,
9,
9,
8,
9,
8,
8,
9,
8,
8,
9,
8,
8,
9,
9,
8,
9,
8,
8,
9,
8,
8,
9,
8,
8,
9,
9,
8,
9,
8,
8,
9,
8,
8,
9,
9,
8,
9,
8,
8,
9,
8,
8,
9,
8,
8,
9,
8,
8,
9,
9,
8,
9,
8,
8,
9,
8,
8,
9,
8,
8,
9,
8,
8,
9,
8,
8,
9,
8,
7,
9,
8,
8,
9,
8,
7,
9,
8,
7,
8,
8,
8,
8,
8,
7,
9,
8,
8,
9,
8,
8,
9,
8,
8,
9,
9,
8,
9,
7,
7,
9,
8,
8,
9,
8,
8,
9,
8,
7,
9,
8,
7,
9,
8,
7,
9,
8,
8,
9,
7,
7,
9,
8,
7,
9,
8,
7,
9,
8,
7,
8,
8,
7,
9,
8,
7,
9,
8,
7,
8,
7,
7,
8,
8,
7,
9,
8,
8,
9,
7,
7,
8,
7,
8,
9,
8,
7,
9,
8,
7,
8,
8,
7,
8,
8,
7,
8,
8,
7,
9,
7,
8,
9,
8,
7,
8,
8,
7,
8,
8,
7,
9,
8,
8,
9,
8,
7,
8,
7,
7,
8,
8,
7,
8,
7,
7,
9,
8,
7,
8,
7,
8,
9,
8,
7,
8,
8,
7,
8,
8,
7,
8,
8,
7,
9,
7,
7,
8,
8,
7,
8,
7,
7,
8,
8,
7,
8,
8,
7,
8,
7,
7,
8,
8,
7,
8,
7,
7,
8,
8,
7,
8,
7,
7,
8,
7,
7,
8,
7,
7,
8,
7,
7,
8,
8,
7,
8,
7,
7,
8,
7,
7,
8,
7,
7,
9,
7,
7,
8,
7,
7,
8,
7,
7,
9,
8,
7,
8,
7,
7,
8,
7,
7,
8,
7,
7,
8,
7,
5,
8,
7,
7,
8,
7,
5,
8,
7,
7,
7,
7,
7,
8,
7,
7,
8,
7,
7,
8,
7,
7,
8,
7,
5,
8,
7,
7,
8,
7,
7,
8,
7,
7,
7,
7,
7,
8,
7,
7,
8,
8,
7,
8,
7,
7,
8,
8,
5,
8,
7,
7,
8,
7,
5,
8,
7,
7,
8,
7,
5,
8,
7,
7,
8,
7,
5,
8,
7,
7,
7,
7,
5,
8,
7,
5,
8,
5,
7,
8,
7,
7,
7,
7,
7,
8,
7,
5,
8,
7,
5,
8,
7,
7,
8,
7,
5,
8,
5,
7,
8,
7,
5,
7,
7,
7,
7,
7,
5,
8,
7,
5,
8,
7,
5,
8,
7,
7,
7,
7,
5,
8,
5,
7,
8,
5,
5,
8,
7,
7,
7,
7,
5,
7,
7,
5,
7,
7,
7,
8,
7,
5,
7,
7,
5,
8,
7,
7,
8,
7,
5,
7,
5,
7,
7,
7,
5,
7,
7,
5,
7,
7,
5,
7,
7,
7,
7,
7,
5,
8,
7,
5,
7,
5,
5,
8,
7,
5,
7,
7,
5,
7,
5,
5,
7,
5,
5,
8,
7,
5,
7,
7,
5,
7,
5,
5,
8,
5,
5,
7,
5,
5,
7,
7,
5,
7,
7,
5,
7,
7,
5,
7,
7,
5,
7,
7,
5,
7,
5,
5,
7,
7,
5,
8,
7,
5,
7,
7,
5,
7,
7,
5,
7,
5,
5,
8,
7,
5,
7,
5,
5,
7,
5,
5,
7,
5,
5,
7,
5,
5,
7,
7,
5,
7,
5,
5,
7,
5,
5,
7,
7,
5,
7,
7,
5,
7,
5,
5,
7,
5,
5,
7,
7,
5,
7,
7,
5,
7,
5,
5,
7,
5,
5,
7,
5,
5,
7,
5,
4,
7,
7,
5,
7,
5,
5,
7,
5,
5,
7,
5,
5,
7,
5,
5,
7,
5,
5,
7,
5,
5,
7,
5,
5,
7,
5,
5,
7,
7,
5,
7,
5,
5,
7,
7,
5,
7,
5,
5,
7,
5,
5,
7,
5,
5,
7,
5,
4,
7,
7,
5,
7,
5,
5,
7,
5,
5,
5,
5,
4,
7,
5,
5,
5,
5,
5,
7,
5,
5,
7,
5,
5,
7,
5,
5,
7,
5,
5,
7,
5,
5,
7,
5,
4,
7,
5,
5,
7,
5,
4,
7,
5,
5,
7,
5,
4,
7,
5,
5,
7,
5,
5,
7,
5,
5,
7,
5,
4,
5,
5,
5,
7,
5,
4,
7,
5,
4,
7,
5,
4,
5,
5,
5,
7,
5,
4,
7,
5,
5,
5,
5,
4,
5,
5,
5,
5,
5,
4,
7,
5,
4,
5,
5,
4,
7,
5,
5,
7,
5,
4,
7,
5,
4,
5,
5,
4,
5,
5,
5,
7,
5,
4,
7,
5,
4,
7,
5,
4,
5,
4,
5,
7,
5,
4,
5,
5,
5,
5,
5,
4,
5,
5,
5,
7,
5,
4,
7,
5,
4,
7,
5,
4,
7,
5,
5,
7,
4,
4,
7,
5,
4,
7,
5,
4,
5,
5,
5,
5,
5,
4,
7,
5,
4,
7,
4,
4,
5,
5,
4,
7,
5,
4,
7,
5,
4,
5,
5,
4,
5,
5,
5,
5,
5,
4,
7,
5,
4,
5,
4,
4,
5,
5,
4,
5,
4,
4,
7,
5,
4,
5,
5,
4,
5,
4,
4,
5,
5,
4,
5,
4,
4,
7,
5,
4,
5,
4,
4,
7,
4,
4,
5,
5,
4,
5,
5,
4,
5,
5,
4,
5,
5,
4,
7,
5,
4,
5,
4,
3,
7,
5,
4,
5,
4,
4,
7,
5,
4,
5,
5,
4,
5,
4,
4,
5,
5,
4,
5,
4,
4,
5,
5,
4,
5,
4,
4,
7,
5,
4,
5,
4,
4,
5,
4,
3,
5,
5,
4,
5,
4,
4,
7,
5,
4,
5,
4,
3,
5,
5,
4,
5,
4,
4,
5,
4,
4,
5,
4,
4,
5,
4,
4,
5,
5,
4,
7,
4,
4,
7,
5,
4,
5,
4,
4,
5,
4,
4,
5,
4,
4,
5,
5,
3,
5,
4,
4,
5,
5,
4,
5,
4,
4,
5,
4,
3,
5,
4,
4,
5,
4,
4,
5,
5,
4,
5,
4,
4,
5,
5,
3,
5,
5,
4,
5,
4,
4,
5,
4,
4,
5,
4,
3,
5,
4,
4,
5,
4,
4,
5,
5,
4,
5,
5,
3,
5,
4,
4,
5,
4,
4,
5,
4,
3,
5,
4,
3,
5,
4,
4,
5,
4,
4,
5,
4,
4,
5,
4,
3,
5,
5,
4,
5,
4,
4,
5,
4,
4,
5,
4,
4,
5,
4,
3,
5,
4,
4,
5,
4,
4,
5,
5,
3,
5,
4,
4,
5,
4,
4,
5,
4,
3,
5,
5,
4,
5,
4,
4,
5,
4,
4,
5,
4,
4,
5,
5,
3,
5,
4,
4,
5,
4,
4,
5,
4,
4,
5,
4,
3,
5,
4,
4,
5,
4,
4,
5,
4,
3,
4,
4,
3,
5,
4,
4,
5,
4,
4,
5,
4,
3,
5,
4,
4,
5,
4,
4,
5,
4,
4,
5,
4,
3,
4,
4,
3,
5,
3,
3,
5,
4,
4,
5,
4,
3,
5,
4,
3,
5,
3,
3,
5,
4,
3,
5,
4,
4,
5,
4,
3,
5,
4,
4,
5,
4,
3,
5,
4,
3,
5,
4,
3,
5,
4,
3,
5,
4,
4,
5,
4,
3,
4,
4,
3,
5,
4,
4,
5,
4,
3,
5,
4,
3,
5,
4,
3,
5,
4,
3,
5,
4,
4,
5,
4,
3,
4,
4,
3,
5,
3,
3,
5,
4,
4,
5,
4,
3,
5,
4,
3,
5,
3,
3,
5,
4,
3,
4,
4,
3,
4,
4,
3,
4,
4,
3,
5,
4,
3,
5,
4,
3,
5,
4,
3,
5,
3,
4,
5,
4,
3,
4,
4,
4,
5,
4,
3,
5,
4,
4,
5,
4,
3,
5,
4,
3,
4,
4,
3,
5,
3,
3,
4,
3,
3,
4,
4,
3,
4,
4,
3,
5,
3,
3,
5,
4,
3,
5,
4,
3,
4,
4,
3,
5,
3,
3,
4,
4,
3,
5,
4,
3,
4,
4,
3,
4,
3,
3,
4,
4,
3,
5,
4,
3,
4,
4,
3,
4,
3,
3,
5,
4,
3,
5,
4,
3,
4,
4,
3,
4,
3,
3,
4,
4,
3,
5,
4,
3,
5,
4,
3,
5,
3,
3,
4,
4,
3,
4,
4,
3,
5,
4,
3,
4,
4,
3,
5,
4,
3,
4,
4,
3,
5,
4,
3,
4,
3,
3,
4,
3,
3,
4,
4,
3,
4,
4,
3,
4,
3,
3,
5,
4,
3,
5,
4,
3,
4,
4,
3,
5,
3,
3,
4,
4,
3,
4,
4,
3,
4,
4,
3,
4,
3,
3,
4,
3,
3,
5,
3,
3,
4,
4,
3,
5,
3,
3,
4,
4,
3,
4,
4,
3,
4,
4,
3,
4,
3,
3,
4,
4,
3,
4,
3,
2,
4,
3,
2,
4,
3,
3,
4,
3,
2,
4,
3,
2,
3,
3,
0,
3,
2,
2,
4,
2,
2,
4,
2,
0,
3,
3,
2,
4,
2,
2,
3,
2,
2,
4,
3,
2,
3,
3,
2,
3,
2,
2,
3,
3,
2,
3,
3,
2,
4,
3,
2,
4,
3,
3,
4,
4,
3,
5,
4,
3,
5,
4,
3,
5,
4,
4,
5,
4,
4,
5,
5,
4,
5,
4,
3,
5,
5,
3,
5,
4,
4,
5,
4,
3,
5,
4,
4,
5,
5,
3,
5,
4,
4,
4,
4,
3,
5,
4,
3,
4,
4,
3,
5,
4,
3,
4,
3,
3,
4,
3,
2,
3,
4,
3,
4,
3,
3,
4,
3,
2,
4,
3,
2,
3,
3,
2,
3,
2,
3,
4,
3,
2,
3,
3,
2,
4,
2,
3,
5,
4,
3,
4,
3,
2,
4,
4,
2,
4,
3,
3,
4,
3,
2,
4,
4,
3,
4,
4,
2,
4,
3,
3,
4,
2,
2,
4,
3,
2,
4,
3,
2,
4,
3,
2,
4,
3,
3,
4,
3,
2,
3,
3,
2,
4,
4,
2,
4,
3,
3,
4,
3,
2,
4,
3,
3,
4,
3,
2,
4,
3,
3,
3,
3,
2,
5,
4,
3,
3,
3,
2,
4,
3,
3,
3,
3,
3,
5,
3,
2,
3,
3,
3,
4,
3,
2,
4,
3,
3,
4,
3,
2,
3,
4,
2,
4,
3,
3,
4,
3,
2,
4,
3,
2,
3,
3,
2,
4,
3,
3,
4,
3,
2,
3,
3,
2,
4,
3,
2,
4,
3,
2,
4,
3,
2,
4,
4,
3,
4,
3,
3,
4,
3,
3,
4,
3,
3,
4,
4,
3,
4,
3,
2,
4,
3,
3,
4,
3,
2,
4,
3,
2,
4,
3,
2,
3,
2,
2,
4,
3,
2,
3,
3,
2,
3,
3,
2,
4,
3,
3,
3,
3,
2,
4,
3,
2,
4,
3,
2,
3,
3,
2,
4,
3,
2,
3,
2,
2,
4,
3,
2,
4,
3,
2,
4,
3,
3,
4,
3,
3,
4,
3,
2,
4,
3,
3,
4,
3,
3,
4,
3,
2,
4,
3,
3,
4,
3,
3,
4,
3,
2,
4,
3,
2,
3,
3,
2,
4,
3,
3,
3,
3,
2,
4,
3,
2,
3,
3,
2,
4,
3,
2,
3,
3,
2,
4,
3,
2,
3,
3,
2,
3,
2,
3,
3,
3,
2,
4,
3,
2,
3,
3,
2,
4,
3,
3,
3,
3,
2,
4,
3,
2,
4,
2,
2,
4,
3,
3,
3,
3,
3,
4,
3,
2,
3,
3,
2,
4,
3,
3,
3,
3,
2,
4,
3,
3,
3,
3,
2,
4,
3,
2,
3,
3,
2,
4,
3,
2,
3,
3,
2,
4,
3,
3,
4,
3,
2,
4,
3,
3,
4,
3,
2,
4,
3,
3,
3,
3,
2,
4,
3,
2,
3,
3,
2,
4,
3,
3,
4,
3,
2,
4,
3,
2,
3,
3,
2,
3,
3,
3,
4,
3,
2,
4,
3,
2,
3,
3,
2,
4,
3,
3,
3,
3,
2,
4,
3,
2,
3,
2,
2,
3,
2,
2,
3,
3,
3,
4,
3,
2,
3,
4,
2,
3,
3,
3,
3,
3,
2,
4,
3,
3,
5,
3,
2,
4,
3,
3,
4,
3,
2,
4,
3,
3,
3,
3,
2,
4,
3,
3,
3,
2,
2,
4,
3,
2,
3,
3,
2,
4,
3,
2,
2,
2,
2,
4,
3,
0,
2,
3,
2,
3,
2,
2,
3,
3,
2,
4,
2,
2,
4,
3,
2,
3,
2,
2,
4,
3,
2,
4,
3,
3,
3,
3,
2,
4,
4,
3,
3,
3,
2,
4,
3,
2,
4,
2,
2,
4,
3,
3,
3,
3,
2,
4,
3,
2,
3,
3,
3,
4,
3,
2,
3,
2,
2,
4,
2,
2,
3,
3,
2,
3,
3,
2,
4,
2,
2,
4,
3,
2,
3,
3,
2,
4,
3,
3,
3,
3,
2,
4,
3,
2,
3,
3,
3,
4,
2,
2,
3,
3,
2,
4,
3,
0,
3,
2,
2,
3,
2,
2,
3,
2,
0,
3,
2,
2,
3,
3,
0,
3,
2,
2,
3,
3,
2,
3,
2,
2,
3,
3,
0,
4,
3,
2,
3,
3,
2,
4,
3,
2,
3,
3,
2,
4,
3,
3,
3,
3,
2,
4,
3,
3,
3,
4,
3,
4,
3,
3,
4,
3,
2,
4,
3,
2,
3,
3,
3,
4,
3,
3,
3,
3,
2,
4,
3,
2,
3,
3,
2,
3,
3,
2,
3,
3,
2,
3,
2,
2,
3,
2,
2,
3,
2,
2,
3,
2,
2,
3,
2,
0,
2,
3,
2,
3,
2,
2,
3,
2,
2,
4,
2,
2,
3,
3,
2,
3,
2,
2,
3,
3,
2,
3,
3,
2,
4,
3,
2,
3,
2,
2,
3,
2,
2,
4,
2,
2,
3,
3,
2,
3,
2,
2,
3,
2,
2,
3,
3,
2,
3,
3,
0,
3,
3,
3,
3,
2,
2,
4,
3,
2,
3,
3,
3,
4,
3,
2,
3,
2,
2,
4,
3,
2,
3,
3,
2,
3,
2,
2,
3,
2,
0,
4,
2,
2,
3,
2,
2,
3,
2,
2,
3,
3,
2,
3,
2,
0,
3,
2,
2,
3,
2,
2,
3,
2,
0,
3,
2,
2,
3,
3,
2,
3,
2,
2,
3,
3,
2,
3,
3,
2,
3,
3,
2,
4,
3,
2,
3,
3,
2,
4,
3,
2,
3,
3,
2,
3,
3,
2,
3,
3,
2,
4,
3,
2,
3,
3,
2,
3,
3,
2,
3,
2,
0,
4,
3,
2,
3,
3,
2,
4,
2,
2,
3,
3,
2,
3,
2,
2,
2,
3,
2,
3,
2,
2,
3,
2,
0,
3,
2,
2,
3,
2,
2,
3,
2,
2,
3,
3,
2,
3,
2,
2,
3,
3,
2,
3,
2,
2,
3,
2,
0,
4,
2,
2,
3,
2,
2,
3,
2,
2,
2,
2,
2,
3,
2,
2,
3,
2,
2,
3,
3,
2,
3,
2,
0,
4,
2,
0,
3,
2,
2,
3,
2,
2,
3,
2,
2,
3,
2,
2,
3,
3,
2,
3,
2,
2,
3,
2,
2,
4,
3,
2,
3,
2,
2,
3,
2,
2,
2,
2,
2,
4,
2,
2,
2,
3,
2,
3,
2,
2,
3,
3,
2,
3,
2,
2,
3,
3,
0,
3,
2,
2,
3,
2,
2,
3,
3,
2,
3,
2,
0,
4,
3,
2,
3,
2,
2,
4,
3,
2,
3,
2,
2,
4,
3,
2,
3,
2,
2,
3,
3,
0,
3,
3,
2,
3,
2,
2,
3,
3,
2,
4,
3,
2,
3,
3,
2,
3,
2,
2,
4,
2,
2,
4,
3,
2,
3,
3,
2,
4,
3,
2,
3,
2,
0,
4,
2,
2,
3,
2,
2,
3,
2,
2,
3,
2,
2,
4,
2,
0,
2,
2,
0,
3,
2,
2,
3,
2,
2,
3,
2,
2,
3,
3,
2,
3,
2,
2,
3,
2,
0,
3,
2,
2,
2,
2,
0,
3,
2,
2,
2,
2,
0,
4,
2,
2,
3,
3,
2,
3,
2,
2,
2,
2,
2,
4,
2,
0,
3,
2,
0,
3,
2,
2,
3,
2,
0,
3,
2,
2,
3,
3,
2,
3,
3,
3,
3,
3,
2,
4,
3,
2,
3,
2,
2,
3,
3,
2,
3,
2,
0,
4,
2,
2,
2,
2,
2,
3,
2,
2,
3,
2,
2,
3,
2,
0,
2,
3,
2,
3,
2,
0,
4,
2,
2,
4,
2,
2,
3,
3,
2,
3,
2,
2,
3,
2,
0,
3,
2,
2,
3,
2,
0,
3,
2,
2,
3,
2,
0,
4,
2,
2,
2,
2,
0,
3,
2,
2,
2,
2,
2,
4,
2,
0,
2,
3,
2,
3,
2,
0,
3,
2,
0,
3,
2,
0,
3,
3,
2,
3,
2,
2,
3,
2,
0,
3,
2,
2,
3,
2,
0,
3,
2,
2,
3,
2,
0,
3,
2,
2,
2,
2,
0,
3,
2,
2,
3,
2,
0,
3,
2,
0,
2,
2,
0,
3,
2,
0,
3,
0,
0,
3,
2,
0,
2,
2,
2,
3,
2,
0,
3,
2,
2,
3,
2,
0,
3,
2,
0,
3,
2,
0,
3,
2,
0,
3,
2,
2,
3,
2,
0,
3,
0,
2,
3,
2,
0,
3,
2,
0,
3,
2,
0,
3,
2,
0,
3,
2,
0,
3,
2,
0,
2,
2,
0,
2,
2,
0,
3,
2,
0,
3,
2,
0,
2,
2,
0,
3,
2,
0,
3,
0,
0,
3,
0,
0,
2,
2,
0,
2,
2,
0,
2,
0,
0,
2,
2,
0,
2,
2,
0,
3,
2,
0,
3,
0,
0,
3,
2,
0,
2,
0,
0,
2,
2,
0,
3,
2,
0,
2,
0,
0,
2,
2,
0,
2,
2,
0,
3,
2,
0,
3,
0,
0,
2,
2,
0,
2,
0,
0,
3,
0,
0,
2,
0,
0,
2,
2,
0,
3,
2,
0,
3,
0,
0,
3,
2,
0,
2,
2,
0,
3,
2,
0,
3,
0,
0,
3,
2,
0,
2,
2,
0,
3,
2,
-1,
3,
2,
0,
3,
0,
0,
2,
2,
0,
2,
0,
0,
2,
2,
0,
2,
0,
0,
2,
2,
0,
3,
2,
0,
3,
0,
0,
3,
0,
0,
2,
2,
0,
2,
2,
0,
3,
2,
0,
2,
2,
0,
2,
2,
0,
3,
2,
0,
3,
0,
0,
3,
2,
0,
2,
0,
0,
2,
2,
0,
3,
0,
0,
2,
0,
0,
2,
2,
0,
2,
2,
0,
2,
2,
0,
3,
0,
0,
2,
2,
0,
2,
0,
0,
2,
2,
0,
2,
0,
0,
2,
2,
0,
3,
22,
85,
129,
141,
141,
136,
125,
114,
110,
108,
103,
96,
91,
88,
82,
79,
76,
72,
67,
64,
62,
61,
57,
55,
52,
50,
48,
46,
45,
42,
41,
38,
38,
37,
34,
34,
33,
31,
31,
29,
28,
28,
26,
24,
26,
24,
23,
24,
22,
22,
23,
21,
19,
21,
18,
18,
19,
18,
17,
18,
17,
16,
17,
14,
14,
16,
14,
13,
14,
13,
13,
14,
13,
12,
13,
12,
12,
13,
12,
12,
13,
10,
10,
12,
10,
10,
10,
10,
10,
12,
10,
9,
10,
10,
10,
12,
9,
9,
10,
10,
9,
10,
9,
9,
10,
9,
9,
10,
9,
9,
10,
9,
8,
10,
9,
9,
9,
9,
8,
10,
9,
9,
10,
9,
8,
10,
9,
8,
9,
8,
9,
9,
9,
8,
9,
9,
9,
9,
9,
7,
9,
9,
8,
9,
9,
8,
10,
9,
8,
9,
9,
8,
9,
8,
8,
10,
8,
8,
9,
9,
8,
9,
9,
8,
9,
8,
8,
10,
8,
8,
9,
8,
8,
9,
9,
8,
9,
8,
8,
9,
8,
8,
9,
9,
8,
10,
9,
8,
9,
9,
8,
9,
8,
8,
10,
9,
8,
9,
8,
8,
9,
8,
8,
9,
7,
8,
9,
8,
8,
9,
8,
8,
9,
8,
7,
9,
8,
8,
9,
8,
8,
9,
9,
8,
9,
7,
8,
9,
8,
8,
9,
8,
8,
9,
8,
7,
9,
8,
8,
9,
8,
7,
9,
8,
8,
9,
8,
8,
9,
7,
8,
9,
8,
8,
9,
8,
8,
9,
8,
7,
9,
8,
8,
9,
7,
7,
9,
8,
8,
9,
8,
8,
9,
8,
8,
8,
8,
8,
9,
9,
8,
9,
9,
8,
9,
8,
7,
9,
8,
8,
8,
8,
7,
9,
8,
8,
9,
8,
8,
9,
8,
8,
8,
8,
7,
9,
8,
7,
9,
8,
8,
9,
8,
8,
8,
8,
8,
9,
7,
8,
9,
7,
8,
9,
8,
8,
8,
8,
7,
9,
8,
7,
9,
8,
7,
9,
8,
8,
9,
8,
7,
9,
8,
7,
8,
7,
7,
9,
7,
8,
9,
8,
7,
9,
7,
7,
9,
8,
7,
9,
8,
8,
8,
8,
7,
8,
8,
7,
9,
8,
7,
8,
7,
7,
9,
8,
7,
9,
7,
7,
8,
8,
7,
8,
7,
7,
8,
8,
7,
9,
8,
7,
8,
8,
7,
9,
7,
7,
8,
8,
7,
9,
8,
7,
8,
8,
7,
9,
7,
7,
9,
8,
7,
9,
7,
7,
8,
8,
7,
9,
7,
7,
8,
8,
7,
9,
7,
7,
8,
8,
7,
8,
7,
7,
9,
7,
7,
8,
8,
8,
8,
7,
7,
8,
7,
7,
8,
8,
7,
8,
7,
7,
8,
8,
7,
9,
7,
7,
8,
8,
7,
8,
7,
7,
8,
7,
7,
8,
7,
7,
9,
7,
7,
8,
7,
7,
8,
7,
7,
9,
7,
7,
8,
8,
7,
9,
7,
7,
8,
7,
7,
9,
7,
7,
8,
8,
7,
9,
7,
7,
8,
8,
7,
8,
7,
7,
8,
7,
7,
8,
8,
7,
8,
7,
7,
8,
7,
7,
8,
8,
7,
8,
7,
7,
8,
7,
7,
8,
7,
7,
8,
8,
7,
8,
7,
7,
8,
7,
7,
8,
7,
7,
8,
7,
7,
8,
7,
7,
8,
8,
7,
8,
7,
7,
8,
8,
7,
8,
7,
7,
8,
7,
5,
8,
7,
7,
8,
8,
7,
8,
7,
7,
8,
7,
5,
8,
7,
7,
8,
7,
5,
8,
7,
7,
7,
5,
7,
8,
7,
7,
7,
7,
7,
8,
7,
5,
8,
7,
7,
8,
7,
7,
8,
7,
5,
8,
5,
7,
8,
7,
7,
8,
5,
7,
7,
7,
7,
8,
5,
7,
8,
7,
5,
8,
7,
7,
8,
7,
5,
8,
7,
7,
8,
7,
5,
8,
7,
7,
7,
7,
5,
8,
7,
5,
8,
7,
7,
8,
7,
5,
8,
7,
5,
8,
5,
7,
8,
7,
5,
7,
7,
7,
7,
7,
5,
8,
7,
7,
7,
5,
5,
8,
7,
7,
7,
7,
5,
8,
7,
5,
7,
5,
7,
8,
7,
5,
7,
7,
7,
7,
5,
5,
7,
7,
7,
7,
5,
7,
8,
7,
5,
7,
5,
5,
8,
5,
5,
7,
7,
7,
8,
5,
5,
7,
7,
7,
7,
5,
5,
8,
7,
7,
7,
5,
4,
8,
7,
5,
7,
5,
5,
8,
7,
5,
7,
7,
5,
8,
7,
5,
7,
7,
5,
7,
5,
5,
7,
7,
5,
7,
5,
7,
7,
5,
5,
7,
5,
5,
7,
7,
5,
7,
7,
5,
7,
7,
5,
8,
7,
5,
7,
7,
5,
7,
7,
7,
7,
5,
5,
7,
5,
5,
7,
5,
5,
7,
5,
5,
7,
5,
5,
7,
5,
5,
7,
5,
4,
7,
5,
5,
7,
5,
5,
7,
5,
5,
7,
5,
5,
7,
5,
5,
7,
5,
5,
7,
5,
5,
7,
7,
5,
7,
7,
5,
7,
5,
5,
8,
7,
5,
7,
5,
5,
7,
5,
5,
7,
5,
5,
7,
5,
4,
7,
5,
5,
7,
5,
5,
7,
5,
5,
7,
5,
5,
7,
5,
5,
7,
5,
5,
7,
5,
4,
7,
5,
5,
7,
5,
5,
7,
5,
5,
7,
5,
5,
7,
5,
4,
7,
5,
5,
7,
5,
5,
7,
5,
5,
7,
5,
5,
7,
5,
5,
7,
5,
5,
7,
5,
4,
7,
5,
5,
7,
5,
5,
7,
5,
5,
7,
5,
5,
7,
5,
4,
7,
5,
5,
7,
5,
5,
7,
5,
4,
7,
5,
5,
7,
5,
4,
5,
5,
5,
7,
4,
4,
7,
5,
4,
5,
5,
4,
7,
5,
4,
5,
5,
4,
7,
5,
4,
7,
5,
5,
7,
4,
5,
7,
5,
4,
7,
5,
4,
7,
5,
4,
5,
5,
5,
7,
5,
4,
7,
4,
4,
5,
5,
4,
5,
5,
5,
5,
5,
4,
7,
5,
5,
7,
5,
4,
5,
5,
5,
7,
4,
4,
7,
5,
4,
5,
4,
4,
7,
5,
4,
5,
4,
4,
7,
4,
4,
5,
5,
4,
7,
4,
4,
7,
5,
4,
5,
4,
4,
5,
5,
4,
5,
5,
4,
7,
5,
4,
7,
5,
4,
5,
5,
4,
5,
5,
5,
5,
5,
4,
5,
4,
4,
5,
5,
4,
5,
4,
4,
5,
4,
4,
5,
4,
4,
5,
4,
4,
5,
4,
4,
5,
4,
4,
5,
4,
4,
5,
5,
4,
5,
4,
4,
5,
4,
4,
7,
4,
4,
5,
4,
4,
5,
4,
4,
5,
4,
4,
5,
4,
4,
5,
4,
4,
5,
4,
4,
5,
5,
4,
5,
4,
4,
5,
5,
4,
5,
4,
4,
5,
4,
4,
5,
4,
4,
5,
5,
4,
5,
4,
4,
5,
4,
4,
5,
4,
4,
5,
4,
4,
5,
4,
4,
5,
4,
4,
5,
4,
4,
5,
5,
4,
5,
4,
4,
5,
4,
4,
5,
4,
4,
5,
4,
4,
5,
4,
4,
5,
4,
4,
5,
4,
4,
5,
4,
4,
5,
4,
4,
5,
4,
4,
5,
4,
4,
5,
4,
4,
5,
4,
3,
5,
4,
4,
5,
4,
3,
5,
4,
4,
5,
4,
3,
5,
4,
3,
5,
4,
3,
5,
4,
3,
5,
4,
4,
5,
4,
3,
5,
4,
4,
5,
4,
3,
5,
4,
4,
5,
4,
3,
5,
4,
4,
5,
4,
4,
5,
4,
4,
4,
3,
4,
5,
4,
3,
4,
4,
4,
5,
4,
3,
5,
4,
4,
5,
4,
3,
5,
5,
4,
5,
4,
3,
5,
4,
4,
4,
3,
3,
5,
4,
3,
4,
4,
4,
5,
3,
3,
5,
4,
4,
5,
4,
3,
4,
4,
3,
5,
3,
3,
5,
4,
4,
5,
4,
3,
5,
4,
3,
5,
3,
4,
5,
3,
3,
5,
4,
3,
5,
3,
3,
4,
4,
3,
4,
3,
3,
5,
4,
3,
4,
4,
3,
5,
4,
3,
5,
4,
4,
5,
4,
3,
4,
5,
3,
5,
3,
3,
5,
4,
4,
5,
4,
4,
5,
4,
3,
4,
3,
3,
5,
4,
3,
5,
4,
4,
5,
4,
3,
5,
4,
3,
4,
3,
3,
5,
4,
4,
4,
4,
3,
5,
3,
3,
5,
4,
3,
5,
4,
3,
4,
4,
3,
5,
4,
3,
4,
4,
3,
5,
3,
3,
5,
4,
3,
5,
3,
3,
5,
4,
3,
5,
4,
3,
4,
4,
3,
5,
3,
3,
4,
4,
3,
5,
4,
3,
4,
4,
3,
4,
4,
3,
4,
4,
3,
4,
4,
3,
4,
4,
3,
5,
3,
3,
4,
4,
3,
5,
4,
3,
4,
4,
3,
5,
3,
3,
5,
4,
3,
5,
4,
3,
4,
4,
3,
4,
3,
4,
4,
3,
3,
4,
4,
3,
4,
4,
3,
4,
3,
3,
5,
3,
3,
5,
4,
3,
4,
4,
3,
5,
3,
3,
4,
4,
4,
5,
3,
3,
4,
4,
3,
5,
3,
3,
5,
4,
3,
5,
3,
3,
4,
4,
3,
5,
3,
3,
4,
4,
3,
4,
3,
3,
5,
4,
3,
4,
3,
3,
4,
3,
3,
5,
4,
3,
4,
4,
3,
4,
3,
3,
4,
3,
3,
5,
4,
3,
4,
4,
3,
5,
3,
3,
4,
3,
3,
5,
4,
3,
4,
4,
3,
5,
3,
3,
4,
4,
4,
5,
4,
3,
4,
4,
3,
