src/long_1649/temp00387.CSV

Format,1.0B,
Memory Length,10000,
IntpDistance,0,
Trigger Address,4849,
Trigger Level,8.000E-01,
Source,CH1,
Vertical Units,V,
Vertical Units Div,0,
Vertical Units Extend Div,16,
Label,,
Probe Type,0,
Probe Ratio,1.000e+01,
Vertical Scale,2.000e-01,
Vertical Position,-6.800e-01,
Horizontal Units,S,
Horizontal Scale,2.000E-06,
Horizontal Position,3.000E-07,
Horizontal Mode,Main,
SincET Mode,Real Time,
Sampling Period,2.000e-09,
Horizontal Old Scale,2.000E-06,
Horizontal Old Position,3.000E-07,
Firmware,V1.23,
Mode,Fast,
Waveform Data,
5,
4,
3,
5,
5,
4,
4,
4,
4,
5,
5,
4,
4,
4,
4,
5,
4,
4,
4,
5,
4,
4,
4,
3,
4,
5,
4,
5,
4,
4,
4,
4,
4,
4,
4,
4,
5,
4,
4,
5,
4,
4,
4,
4,
4,
4,
4,
4,
5,
4,
4,
4,
4,
4,
5,
4,
4,
5,
4,
4,
5,
3,
4,
4,
4,
4,
4,
4,
4,
4,
4,
3,
4,
4,
4,
5,
4,
4,
5,
4,
4,
4,
4,
4,
5,
4,
4,
5,
4,
4,
4,
4,
4,
4,
4,
4,
4,
4,
4,
5,
4,
4,
4,
4,
4,
4,
4,
4,
5,
4,
4,
5,
4,
4,
4,
4,
4,
4,
4,
3,
5,
4,
4,
4,
4,
4,
4,
4,
3,
4,
4,
4,
5,
4,
4,
4,
4,
4,
5,
4,
4,
4,
4,
4,
5,
4,
4,
4,
4,
4,
4,
4,
4,
4,
4,
3,
4,
4,
4,
4,
4,
4,
4,
4,
4,
4,
4,
3,
4,
4,
4,
5,
4,
4,
4,
4,
4,
4,
4,
3,
5,
4,
4,
4,
4,
4,
4,
4,
4,
4,
4,
3,
4,
3,
3,
4,
4,
4,
4,
4,
3,
4,
4,
3,
5,
3,
4,
4,
4,
4,
4,
4,
4,
4,
4,
3,
5,
4,
4,
4,
4,
4,
5,
4,
3,
4,
4,
4,
4,
4,
3,
4,
4,
4,
4,
4,
4,
4,
4,
3,
4,
3,
4,
4,
4,
3,
4,
4,
3,
4,
4,
3,
4,
3,
4,
4,
4,
4,
5,
3,
3,
4,
4,
3,
4,
3,
3,
4,
4,
3,
4,
3,
3,
4,
4,
3,
4,
3,
4,
4,
4,
4,
4,
4,
4,
4,
4,
3,
4,
3,
3,
4,
4,
4,
4,
4,
3,
4,
4,
3,
4,
3,
4,
4,
4,
4,
4,
4,
4,
4,
4,
3,
4,
4,
4,
4,
4,
4,
4,
4,
4,
4,
4,
3,
4,
3,
3,
4,
3,
3,
4,
3,
3,
4,
4,
4,
4,
4,
3,
4,
4,
4,
4,
3,
3,
4,
4,
4,
4,
3,
3,
4,
4,
4,
4,
3,
3,
4,
4,
3,
4,
3,
3,
4,
4,
3,
4,
3,
3,
4,
4,
3,
4,
3,
4,
4,
3,
3,
4,
4,
4,
4,
3,
3,
4,
3,
3,
4,
3,
3,
4,
3,
3,
4,
4,
3,
4,
3,
3,
4,
3,
3,
4,
3,
3,
3,
4,
3,
4,
3,
3,
4,
4,
3,
4,
3,
3,
3,
4,
3,
4,
3,
3,
4,
3,
3,
4,
3,
3,
4,
4,
3,
4,
3,
3,
4,
4,
3,
4,
3,
3,
4,
4,
3,
4,
3,
3,
4,
3,
3,
3,
3,
3,
4,
4,
3,
4,
3,
3,
4,
3,
3,
4,
3,
3,
4,
4,
3,
4,
3,
3,
4,
3,
3,
4,
3,
3,
3,
3,
3,
4,
3,
3,
4,
3,
3,
4,
3,
3,
3,
3,
3,
4,
3,
3,
3,
3,
3,
4,
3,
3,
4,
4,
3,
4,
3,
3,
4,
3,
3,
3,
3,
3,
4,
4,
3,
3,
3,
3,
4,
3,
3,
4,
3,
3,
3,
3,
3,
4,
3,
3,
4,
3,
3,
4,
3,
3,
3,
3,
3,
4,
3,
3,
4,
3,
3,
4,
3,
3,
3,
3,
3,
4,
3,
3,
4,
3,
3,
4,
3,
3,
4,
4,
3,
3,
3,
3,
4,
3,
3,
4,
3,
3,
3,
3,
3,
4,
3,
3,
3,
3,
3,
4,
3,
3,
3,
3,
3,
4,
3,
3,
3,
3,
3,
4,
3,
3,
3,
3,
3,
3,
3,
3,
3,
3,
3,
4,
3,
2,
3,
3,
3,
4,
3,
3,
3,
3,
3,
3,
3,
3,
3,
3,
3,
4,
3,
3,
4,
3,
3,
3,
3,
3,
4,
3,
3,
4,
3,
3,
4,
3,
3,
3,
3,
3,
3,
3,
3,
3,
3,
3,
4,
3,
3,
3,
2,
2,
4,
3,
3,
3,
3,
3,
4,
3,
2,
4,
3,
3,
3,
3,
3,
4,
3,
3,
3,
3,
3,
4,
3,
2,
3,
3,
3,
3,
2,
3,
3,
3,
3,
4,
3,
3,
3,
3,
3,
3,
3,
3,
4,
3,
3,
3,
3,
2,
3,
3,
3,
3,
2,
2,
3,
3,
3,
3,
2,
3,
3,
3,
2,
3,
3,
3,
4,
3,
3,
3,
3,
2,
3,
3,
2,
3,
3,
3,
3,
3,
2,
4,
3,
2,
3,
3,
2,
3,
2,
3,
3,
3,
3,
3,
2,
2,
3,
2,
3,
3,
2,
3,
3,
3,
2,
3,
2,
2,
3,
3,
3,
3,
3,
2,
3,
3,
3,
3,
2,
2,
4,
3,
2,
3,
2,
3,
3,
3,
3,
3,
3,
3,
4,
2,
2,
3,
3,
2,
3,
3,
2,
4,
3,
2,
3,
3,
2,
3,
3,
3,
3,
3,
3,
3,
3,
2,
3,
3,
3,
3,
3,
2,
3,
3,
3,
3,
3,
2,
3,
2,
3,
3,
2,
2,
3,
3,
3,
3,
2,
2,
3,
3,
3,
3,
2,
2,
3,
3,
3,
3,
3,
2,
4,
3,
3,
3,
3,
2,
3,
3,
3,
3,
2,
2,
3,
3,
2,
3,
3,
2,
3,
3,
2,
3,
2,
2,
3,
3,
2,
3,
3,
3,
3,
3,
2,
3,
2,
2,
3,
3,
2,
3,
2,
2,
3,
3,
2,
3,
3,
2,
3,
3,
3,
4,
2,
2,
3,
3,
3,
3,
2,
2,
3,
3,
3,
3,
2,
2,
3,
3,
2,
3,
2,
2,
3,
3,
2,
3,
2,
2,
3,
3,
3,
3,
3,
2,
3,
2,
2,
3,
3,
2,
3,
3,
2,
3,
2,
2,
4,
2,
2,
3,
3,
2,
3,
3,
2,
3,
2,
2,
3,
2,
2,
2,
3,
2,
3,
3,
2,
3,
2,
2,
3,
3,
2,
3,
2,
2,
3,
3,
3,
3,
3,
2,
3,
2,
2,
3,
3,
2,
3,
3,
3,
3,
2,
2,
3,
2,
2,
3,
3,
2,
3,
3,
3,
3,
2,
2,
3,
3,
3,
3,
3,
2,
3,
3,
3,
3,
2,
2,
4,
2,
2,
2,
3,
3,
3,
2,
2,
3,
2,
2,
3,
2,
2,
3,
3,
2,
3,
2,
2,
3,
3,
2,
3,
2,
3,
3,
3,
2,
2,
2,
3,
3,
2,
2,
3,
3,
2,
2,
2,
2,
3,
3,
3,
3,
2,
2,
3,
2,
2,
3,
3,
3,
3,
3,
2,
2,
3,
3,
3,
2,
2,
3,
3,
2,
3,
2,
2,
3,
3,
2,
3,
2,
2,
3,
3,
2,
3,
2,
2,
3,
2,
2,
3,
2,
2,
3,
3,
2,
3,
3,
2,
3,
2,
2,
3,
3,
2,
3,
2,
2,
3,
2,
2,
3,
2,
2,
3,
2,
2,
2,
3,
2,
3,
2,
2,
3,
2,
2,
3,
2,
2,
3,
3,
2,
3,
2,
3,
3,
2,
2,
3,
2,
2,
3,
3,
2,
3,
3,
2,
3,
2,
0,
3,
3,
2,
3,
2,
2,
3,
3,
2,
2,
2,
2,
3,
2,
2,
2,
3,
2,
3,
2,
2,
3,
2,
2,
3,
2,
2,
3,
3,
2,
3,
2,
2,
3,
2,
2,
3,
2,
2,
3,
3,
2,
3,
3,
2,
3,
2,
2,
3,
2,
2,
3,
3,
3,
3,
2,
2,
3,
2,
2,
3,
2,
2,
2,
3,
2,
3,
3,
2,
3,
2,
2,
3,
2,
2,
3,
3,
2,
3,
3,
2,
3,
2,
2,
3,
2,
2,
3,
3,
2,
3,
3,
2,
3,
2,
2,
3,
2,
2,
3,
3,
2,
3,
3,
3,
3,
2,
2,
3,
3,
2,
2,
3,
3,
3,
3,
2,
2,
2,
2,
4,
2,
2,
2,
2,
2,
3,
2,
2,
2,
2,
2,
3,
2,
2,
2,
3,
2,
3,
3,
2,
3,
2,
2,
3,
2,
2,
3,
3,
2,
3,
2,
2,
3,
2,
2,
3,
2,
2,
3,
3,
2,
3,
3,
2,
3,
2,
2,
3,
2,
2,
2,
2,
2,
3,
3,
3,
3,
2,
2,
3,
2,
2,
3,
3,
2,
3,
3,
2,
3,
2,
2,
4,
2,
2,
2,
2,
2,
3,
2,
2,
2,
2,
2,
3,
2,
2,
2,
3,
2,
3,
2,
2,
3,
3,
2,
3,
2,
2,
3,
3,
2,
3,
2,
2,
3,
2,
2,
3,
2,
2,
3,
3,
2,
3,
3,
2,
3,
2,
2,
3,
2,
2,
3,
3,
2,
3,
3,
2,
3,
2,
2,
3,
2,
2,
2,
2,
2,
2,
2,
2,
2,
0,
0,
3,
2,
2,
2,
2,
2,
3,
2,
2,
2,
2,
2,
2,
2,
2,
2,
3,
2,
2,
2,
2,
3,
2,
0,
2,
2,
2,
3,
2,
2,
3,
3,
3,
3,
2,
2,
3,
2,
2,
2,
3,
3,
3,
3,
2,
2,
2,
2,
3,
2,
2,
2,
3,
2,
3,
2,
2,
2,
2,
2,
2,
2,
2,
2,
3,
0,
2,
2,
2,
3,
2,
0,
3,
2,
2,
3,
3,
2,
3,
3,
3,
3,
2,
2,
3,
2,
2,
2,
3,
2,
3,
2,
2,
2,
2,
0,
3,
2,
2,
2,
2,
2,
2,
2,
2,
2,
0,
0,
2,
0,
0,
2,
2,
2,
2,
2,
2,
2,
2,
0,
3,
2,
2,
2,
3,
2,
2,
2,
2,
3,
2,
2,
3,
2,
2,
3,
3,
2,
3,
3,
2,
3,
2,
2,
3,
2,
2,
3,
3,
3,
3,
3,
2,
3,
3,
3,
3,
2,
2,
3,
3,
2,
3,
2,
2,
3,
2,
2,
3,
2,
2,
3,
3,
0,
2,
2,
2,
3,
2,
2,
2,
2,
2,
2,
2,
0,
3,
2,
0,
2,
0,
0,
2,
2,
2,
2,
2,
2,
2,
2,
2,
2,
0,
2,
3,
2,
0,
0,
2,
2,
3,
2,
0,
2,
2,
2,
3,
2,
2,
2,
3,
2,
2,
2,
2,
3,
3,
2,
2,
2,
2,
3,
3,
2,
3,
3,
3,
3,
2,
2,
3,
2,
2,
3,
3,
2,
2,
2,
2,
3,
2,
2,
3,
2,
2,
2,
3,
2,
3,
3,
0,
3,
2,
2,
3,
2,
2,
2,
3,
2,
3,
2,
0,
2,
2,
0,
2,
2,
2,
2,
2,
2,
2,
2,
0,
2,
0,
2,
3,
2,
0,
2,
2,
2,
2,
2,
2,
2,
2,
0,
2,
2,
0,
2,
2,
2,
2,
2,
2,
3,
2,
2,
3,
2,
2,
3,
3,
2,
3,
2,
2,
3,
2,
2,
3,
2,
2,
3,
3,
2,
2,
2,
2,
3,
2,
0,
3,
2,
2,
2,
3,
0,
2,
2,
2,
2,
2,
2,
3,
2,
2,
2,
4,
34,
96,
132,
141,
137,
132,
122,
112,
109,
106,
100,
95,
90,
85,
81,
79,
75,
71,
66,
64,
61,
60,
57,
53,
51,
48,
47,
46,
43,
41,
40,
38,
37,
36,
34,
33,
32,
32,
31,
29,
28,
27,
26,
26,
24,
23,
23,
23,
22,
22,
22,
21,
21,
19,
19,
19,
18,
18,
17,
17,
16,
17,
16,
14,
16,
14,
14,
16,
14,
13,
13,
13,
13,
13,
13,
13,
13,
12,
12,
12,
12,
10,
12,
10,
10,
12,
10,
10,
12,
12,
10,
10,
10,
10,
10,
10,
9,
10,
10,
10,
10,
9,
9,
10,
9,
9,
10,
9,
9,
10,
10,
9,
10,
9,
9,
10,
9,
9,
9,
9,
9,
10,
9,
9,
10,
9,
9,
9,
9,
8,
10,
9,
9,
9,
9,
9,
9,
9,
9,
9,
9,
9,
9,
8,
8,
9,
9,
9,
9,
9,
9,
9,
8,
8,
9,
9,
8,
9,
9,
9,
9,
9,
9,
9,
9,
8,
9,
9,
8,
9,
9,
9,
9,
9,
8,
9,
9,
9,
9,
8,
8,
9,
9,
9,
9,
9,
8,
9,
9,
9,
9,
8,
8,
9,
9,
8,
9,
9,
8,
9,
9,
8,
8,
9,
8,
9,
8,
8,
9,
8,
9,
9,
8,
8,
9,
9,
8,
8,
8,
8,
9,
9,
8,
8,
8,
8,
9,
8,
8,
8,
8,
8,
9,
8,
8,
8,
8,
8,
8,
8,
8,
9,
8,
8,
9,
8,
8,
9,
8,
8,
8,
9,
8,
9,
8,
8,
9,
8,
8,
8,
8,
8,
8,
8,
8,
9,
8,
8,
9,
8,
8,
8,
8,
8,
8,
8,
8,
8,
8,
8,
9,
8,
8,
8,
8,
8,
8,
8,
8,
9,
8,
8,
9,
8,
8,
8,
8,
8,
8,
8,
8,
8,
8,
8,
8,
8,
8,
8,
8,
7,
8,
8,
8,
8,
8,
8,
8,
8,
7,
8,
8,
8,
9,
8,
8,
8,
8,
8,
8,
8,
8,
8,
8,
8,
8,
7,
7,
9,
8,
8,
8,
8,
8,
8,
8,
7,
8,
8,
8,
8,
8,
7,
8,
8,
8,
8,
8,
7,
8,
8,
8,
8,
8,
7,
8,
8,
7,
8,
8,
7,
8,
7,
7,
8,
8,
8,
8,
8,
7,
8,
8,
7,
8,
8,
7,
8,
8,
8,
8,
8,
8,
8,
8,
7,
8,
7,
7,
8,
8,
8,
8,
7,
7,
8,
8,
7,
7,
8,
8,
8,
7,
7,
7,
7,
7,
8,
7,
8,
8,
8,
7,
8,
7,
8,
8,
8,
7,
8,
7,
7,
8,
7,
7,
8,
8,
7,
8,
8,
7,
8,
7,
7,
8,
7,
7,
8,
7,
7,
8,
8,
7,
8,
7,
7,
8,
7,
7,
7,
7,
7,
8,
7,
7,
7,
7,
7,
8,
7,
7,
7,
7,
7,
8,
7,
7,
8,
8,
7,
8,
7,
7,
8,
7,
7,
7,
7,
7,
8,
8,
7,
7,
7,
7,
7,
7,
7,
7,
7,
7,
8,
8,
7,
7,
7,
7,
8,
7,
7,
7,
7,
7,
7,
7,
7,
8,
8,
7,
7,
7,
7,
8,
7,
7,
7,
7,
7,
7,
7,
5,
8,
7,
7,
7,
7,
5,
8,
7,
7,
8,
7,
7,
8,
7,
7,
7,
7,
7,
7,
7,
7,
7,
7,
7,
7,
7,
7,
7,
7,
5,
7,
7,
7,
7,
7,
7,
8,
7,
7,
7,
7,
5,
7,
7,
7,
7,
7,
7,
7,
7,
7,
7,
7,
7,
7,
7,
7,
8,
7,
7,
7,
7,
7,
7,
7,
5,
7,
7,
7,
7,
7,
5,
7,
7,
7,
7,
7,
5,
7,
7,
7,
7,
7,
7,
7,
7,
7,
7,
7,
5,
8,
5,
5,
7,
7,
7,
8,
7,
5,
7,
7,
5,
7,
5,
7,
7,
7,
5,
7,
7,
7,
7,
7,
5,
7,
7,
7,
7,
7,
5,
7,
7,
7,
7,
7,
5,
7,
5,
7,
7,
7,
7,
8,
7,
7,
7,
7,
5,
7,
7,
5,
7,
7,
7,
8,
5,
5,
7,
7,
5,
7,
5,
5,
7,
7,
5,
7,
7,
7,
7,
7,
5,
7,
7,
5,
7,
7,
5,
7,
7,
5,
5,
5,
5,
7,
7,
7,
7,
7,
5,
7,
5,
5,
7,
7,
5,
7,
7,
5,
7,
7,
5,
7,
5,
5,
7,
7,
5,
7,
5,
5,
7,
7,
5,
7,
7,
7,
7,
5,
5,
7,
7,
5,
7,
5,
5,
7,
5,
5,
5,
5,
5,
7,
7,
7,
5,
7,
5,
7,
5,
5,
7,
5,
5,
7,
5,
5,
5,
7,
5,
7,
5,
5,
7,
5,
5,
7,
5,
5,
7,
7,
5,
7,
5,
5,
7,
5,
5,
5,
5,
7,
7,
7,
5,
7,
7,
5,
5,
5,
5,
7,
5,
5,
5,
7,
5,
7,
5,
5,
7,
7,
5,
5,
5,
5,
7,
7,
5,
7,
5,
5,
7,
5,
4,
7,
5,
7,
7,
5,
5,
7,
5,
5,
5,
5,
4,
7,
5,
5,
5,
5,
5,
7,
5,
5,
5,
5,
5,
7,
5,
5,
5,
5,
5,
7,
5,
5,
5,
5,
5,
5,
5,
5,
7,
7,
5,
7,
5,
5,
7,
7,
5,
7,
5,
5,
7,
5,
5,
7,
5,
5,
7,
5,
4,
5,
5,
5,
5,
5,
5,
7,
5,
5,
5,
5,
4,
7,
5,
5,
5,
5,
5,
7,
5,
5,
5,
7,
5,
5,
5,
5,
5,
5,
5,
7,
5,
5,
5,
5,
4,
5,
5,
5,
5,
5,
5,
7,
5,
5,
5,
7,
5,
5,
5,
5,
5,
5,
5,
7,
5,
5,
5,
5,
4,
5,
5,
5,
5,
5,
5,
7,
5,
5,
5,
5,
5,
5,
5,
5,
5,
5,
4,
5,
5,
5,
5,
5,
4,
5,
5,
5,
5,
5,
4,
5,
5,
5,
5,
5,
4,
5,
5,
5,
5,
5,
4,
5,
5,
5,
5,
5,
4,
5,
5,
5,
5,
5,
4,
5,
5,
5,
5,
5,
5,
5,
5,
5,
5,
5,
5,
7,
5,
4,
5,
5,
4,
5,
5,
5,
5,
5,
4,
5,
5,
5,
5,
5,
5,
5,
5,
5,
5,
5,
4,
5,
5,
5,
5,
5,
4,
5,
5,
5,
5,
5,
4,
5,
5,
4,
5,
5,
4,
5,
5,
5,
5,
5,
4,
5,
5,
4,
5,
5,
4,
5,
5,
5,
5,
5,
4,
5,
4,
4,
5,
5,
4,
5,
5,
5,
5,
5,
4,
5,
5,
4,
5,
5,
4,
5,
5,
5,
5,
4,
4,
5,
5,
5,
5,
5,
4,
5,
5,
5,
5,
5,
4,
5,
5,
5,
5,
4,
4,
5,
5,
5,
5,
4,
4,
5,
4,
4,
5,
5,
5,
5,
4,
4,
5,
5,
4,
5,
4,
4,
5,
5,
4,
5,
4,
4,
5,
4,
4,
4,
4,
5,
5,
5,
4,
5,
5,
5,
5,
4,
4,
5,
5,
4,
5,
4,
4,
5,
5,
5,
5,
5,
4,
5,
5,
5,
5,
5,
4,
5,
5,
5,
5,
5,
4,
5,
4,
4,
4,
4,
4,
5,
5,
4,
4,
4,
4,
5,
4,
4,
4,
5,
4,
5,
4,
4,
5,
5,
4,
5,
4,
4,
4,
4,
4,
5,
4,
4,
5,
4,
4,
5,
4,
4,
4,
5,
4,
4,
4,
4,
5,
4,
4,
5,
4,
4,
5,
4,
4,
5,
4,
4,
5,
4,
4,
4,
4,
4,
4,
5,
4,
5,
5,
4,
5,
4,
4,
5,
4,
4,
4,
4,
4,
5,
4,
4,
4,
4,
4,
4,
4,
4,
4,
4,
4,
5,
4,
4,
5,
4,
4,
5,
4,
4,
4,
4,
4,
5,
4,
4,
5,
4,
4,
5,
4,
4,
4,
4,
3,
4,
4,
4,
5,
4,
4,
5,
4,
4,
4,
4,
4,
5,
4,
4,
4,
4,
4,
5,
4,
4,
4,
5,
4,
4,
4,
4,
4,
4,
4,
4,
4,
4,
5,
4,
4,
4,
4,
4,
5,
4,
4,
4,
4,
4,
4,
4,
3,
4,
4,
4,
4,
4,
4,
5,
4,
4,
4,
4,
3,
4,
4,
3,
4,
4,
4,
4,
4,
4,
4,
5,
4,
4,
4,
3,
4,
4,
4,
4,
4,
4,
5,
4,
4,
4,
4,
4,
5,
4,
3,
4,
4,
4,
4,
4,
3,
4,
4,
3,
4,
3,
4,
4,
4,
4,
4,
4,
3,
4,
4,
4,
4,
3,
3,
4,
4,
4,
4,
4,
3,
4,
4,
3,
4,
4,
4,
4,
4,
3,
4,
4,
3,
4,
4,
3,
4,
4,
3,
4,
3,
3,
4,
4,
3,
4,
4,
4,
4,
3,
3,
4,
4,
4,
4,
3,
3,
4,
4,
3,
4,
3,
4,
4,
4,
4,
4,
4,
4,
4,
4,
3,
4,
4,
4,
4,
4,
3,
4,
3,
3,
4,
4,
3,
4,
3,
3,
4,
4,
4,
4,
4,
4,
4,
4,
3,
4,
4,
3,
4,
4,
4,
4,
4,
3,
4,
4,
4,
5,
3,
3,
4,
4,
4,
4,
4,
3,
4,
4,
3,
4,
3,
3,
4,
4,
3,
4,
3,
3,
4,
4,
3,
4,
3,
3,
4,
3,
3,
4,
3,
3,
4,
4,
3,
4,
3,
3,
4,
4,
3,
4,
3,
3,
4,
4,
3,
4,
3,
3,
4,
3,
3,
4,
4,
4,
4,
4,
3,
4,
3,
3,
4,
3,
3,
4,
3,
3,
3,
3,
3,
4,
3,
3,
4,
4,
4,
4,
3,
3,
4,
4,
3,
4,
3,
3,
4,
4,
4,
4,
3,
3,
4,
4,
3,
4,
3,
3,
4,
3,
3,
4,
3,
3,
4,
4,
3,
4,
3,
3,
4,
3,
3,
4,
3,
3,
4,
4,
3,
4,
3,
3,
4,
3,
3,
4,
3,
3,
4,
4,
3,
4,
3,
3,
4,
3,
3,
4,
3,
3,
4,
4,
3,
4,
3,
3,
3,
3,
3,
4,
3,
3,
4,
4,
3,
4,
3,
3,
4,
4,
3,
4,
2,
3,
4,
4,
3,
4,
3,
3,
4,
3,
3,
4,
3,
3,
4,
4,
3,
4,
3,
3,
4,
3,
3,
4,
3,
3,
3,
3,
3,
4,
3,
3,
3,
3,
3,
4,
3,
3,
3,
3,
3,
4,
3,
3,
4,
3,
3,
4,
3,
3,
4,
4,
3,
4,
3,
3,
4,
3,
3,
4,
3,
3,
4,
3,
3,
4,
3,
3,
3,
3,
3,
4,
3,
3,
4,
3,
3,
4,
3,
3,
3,
3,
3,
4,
3,
3,
4,
4,
3,
4,
3,
3,
4,
4,
3,
4,
3,
3,
4,
4,
3,
3,
3,
3,
4,
3,
3,
4,
3,
3,
4,
3,
2,
3,
3,
3,
4,
3,
3,
4,
3,
3,
3,
3,
3,
4,
3,
3,
3,
3,
3,
4,
3,
2,
3,
3,
3,
4,
3,
3,
4,
4,
3,
4,
2,
2,
4,
4,
3,
4,
3,
3,
4,
3,
3,
3,
3,
3,
4,
4,
3,
3,
3,
3,
4,
3,
3,
3,
3,
3,
4,
3,
3,
3,
3,
3,
4,
3,
3,
4,
3,
3,
3,
3,
3,
3,
4,
3,
3,
3,
3,
3,
3,
2,
3,
3,
3,
4,
3,
3,
3,
3,
3,
3,
3,
3,
3,
3,
3,
4,
3,
3,
4,
3,
3,
3,
3,
3,
4,
3,
3,
4,
3,
3,
3,
3,
3,
4,
3,
3,
3,
3,
3,
3,
3,
3,
4,
3,
3,
3,
3,
3,
3,
3,
3,
3,
3,
3,
3,
3,
3,
4,
3,
3,
3,
3,
3,
4,
3,
3,
4,
3,
3,
4,
2,
2,
3,
3,
3,
3,
3,
3,
4,
3,
3,
3,
3,
3,
3,
3,
3,
3,
3,
3,
3,
3,
3,
3,
3,
2,
3,
3,
3,
3,
3,
3,
4,
3,
3,
3,
3,
3,
4,
2,
2,
4,
3,
3,
3,
3,
3,
3,
3,
3,
3,
3,
3,
4,
3,
3,
3,
3,
3,
4,
2,
2,
3,
3,
3,
3,
3,
3,
3,
3,
3,
3,
3,
2,
4,
3,
3,
3,
3,
3,
4,
3,
3,
3,
3,
3,
3,
3,
2,
3,
3,
2,
3,
3,
3,
3,
3,
2,
3,
3,
2,
3,
3,
2,
3,
3,
3,
3,
3,
3,
3,
3,
2,
3,
3,
3,
3,
3,
3,
3,
3,
3,
3,
3,
3,
3,
3,
2,
3,
3,
3,
3,
3,
2,
3,
3,
3,
3,
2,
2,
3,
3,
2,
3,
2,
2,
3,
3,
2,
3,
3,
3,
3,
3,
3,
4,
3,
2,
3,
3,
3,
3,
3,
2,
3,
3,
3,
3,
2,
2,
4,
3,
3,
3,
3,
3,
3,
3,
2,
3,
3,
3,
3,
3,
2,
3,
3,
2,
3,
3,
2,
3,
3,
2,
3,
3,
2,
3,
2,
2,
3,
3,
2,
3,
3,
3,
3,
3,
3,
3,
3,
3,
3,
3,
3,
3,
3,
2,
3,
3,
3,
4,
3,
2,
3,
3,
3,
4,
2,
2,
3,
3,
3,
3,
2,
2,
4,
4,
3,
3,
2,
3,
4,
3,
2,
3,
3,
3,
3,
3,
2,
3,
3,
3,
3,
2,
2,
3,
3,
2,
3,
3,
3,
3,
3,
2,
3,
3,
2,
3,
3,
2,
3,
3,
3,
3,
3,
2,
3,
3,
2,
3,
3,
2,
3,
3,
3,
3,
2,
2,
3,
3,
3,
3,
2,
2,
3,
3,
3,
3,
2,
2,
3,
3,
2,
3,
3,
3,
3,
3,
3,
3,
2,
2,
4,
2,
2,
3,
3,
2,
3,
3,
2,
3,
2,
2,
3,
3,
3,
3,
3,
2,
3,
3,
3,
3,
2,
2,
3,
3,
2,
3,
3,
3,
3,
3,
2,
3,
3,
2,
3,
3,
2,
2,
3,
2,
3,
3,
2,
3,
2,
2,
3,
2,
2,
3,
2,
3,
3,
3,
3,
3,
3,
2,
3,
2,
2,
3,
3,
2,
3,
3,
3,
3,
2,
2,
3,
2,
2,
3,
3,
2,
3,
3,
3,
3,
2,
2,
3,
2,
2,
3,
2,
2,
3,
3,
2,
3,
3,
3,
4,
3,
3,
3,
3,
3,
3,
3,
3,
3,
3,
2,
3,
3,
3,
3,
3,
3,
3,
3,
3,
3,
2,
2,
3,
2,
2,
3,
3,
3,
3,
3,
2,
3,
2,
2,
3,
2,
2,
2,
3,
2,
3,
2,
2,
3,
2,
2,
3,
2,
2,
3,
3,
2,
3,
3,
3,
3,
2,
2,
3,
2,
2,
3,
3,
2,
3,
3,
2,
3,
2,
2,
3,
3,
3,
3,
2,
2,
3,
3,
3,
3,
3,
2,
3,
3,
3,
3,
2,
2,
3,
3,
3,
3,
2,
2,
3,
2,
3,
3,
3,
2,
3,
2,
2,
3,
2,
2,
3,
2,
2,
2,
2,
2,
3,
2,
2,
2,
2,
2,
3,
2,
2,
2,
3,
3,
3,
2,
2,
2,
2,
2,
3,
2,
2,
3,
3,
2,
2,
2,
2,
3,
2,
2,
3,
2,
2,
3,
2,
2,
2,
2,
3,
3,
2,
2,
3,
3,
2,
2,
2,
2,
3,
3,
2,
3,
2,
2,
3,
2,
2,
3,
2,
2,
3,
3,
2,
2,
2,
2,
3,
2,
2,
2,
2,
2,
3,
2,
2,
3,
2,
2,
3,
2,
2,
3,
3,
2,
3,
2,
3,
3,
2,
2,
3,
2,
2,
3,
3,
3,
3,
3,
2,
3,
3,
2,
3,
2,
2,
3,
3,
2,
3,
2,
2,
3,
2,
2,
3,
2,
2,
2,
2,
2,
3,
3,
2,
2,
2,
2,
3,
2,
2,
2,
2,
2,
3,
2,
2,
3,
2,
2,
3,
2,
2,
2,
3,
2,
3,
2,
2,
3,
2,
2,
3,
2,
2,
3,
2,
2,
3,
2,
2,
3,
2,
2,
3,
2,
2,
2,
3,
2,
3,
2,
2,
3,
2,
2,
2,
2,
2,
3,
3,
2,
3,
2,
2,
2,
2,
2,
3,
2,
2,
3,
3,
2,
3,
2,
2,
3,
2,
2,
3,
2,
2,
2,
2,
2,
2,
2,
2,
2,
2,
2,
3,
2,
2,
3,
3,
2,
3,
3,
2,
3,
2,
2,
3,
2,
2,
2,
3,
2,
3,
2,
2,
2,
2,
2,
3,
2,
0,
2,
3,
2,
3,
2,
2,
3,
2,
0,
3,
2,
2,
3,
2,
2,
2,
2,
2,
3,
2,
0,
2,
2,
2,
2,
2,
2,
3,
3,
2,
2,
2,
2,
3,
2,
2,
3,
2,
2,
3,
2,
2,
2,
2,
2,
3,
2,
0,
2,
3,
2,
2,
2,
2,
2,
2,
2,
3,
2,
2,
2,
2,
2,
2,
2,
2,
2,
2,
2,
3,
2,
2,
2,
3,
2,
3,
2,
2,
2,
2,
2,
3,
2,
2,
3,
2,
0,
2,
2,
2,
2,
2,
2,
3,
2,
0,
2,
2,
2,
2,
2,
2,
2,
2,
2,
2,
2,
2,
3,
3,
2,
2,
2,
2,
3,
2,
2,
2,
2,
2,
2,
2,
2,
2,
2,
2,
2,
2,
2,
3,
2,
0,
2,
2,
2,
2,
2,
0,
3,
2,
2,
3,
2,
2,
2,
3,
2,
3,
2,
2,
3,
2,
0,
3,
2,
2,
3,
2,
2,
2,
2,
2,
2,
2,
2,
2,
2,
2,
2,
2,
2,
3,
2,
2,
2,
0,
0,
3,
2,
2,
2,
2,
2,
2,
2,
2,
2,
2,
2,
3,
0,
0,
2,
2,
2,
2,
2,
0,
3,
2,
2,
3,
2,
0,
2,
3,
2,
2,
2,
2,
3,
2,
2,
2,
2,
2,
3,
2,
2,
2,
3,
2,
3,
0,
0,
2,
2,
2,
2,
2,
2,
2,
2,
2,
2,
2,
2,
3,
2,
0,
2,
2,
2,
3,
2,
0,
2,
2,
2,
3,
2,
2,
3,
3,
2,
2,
2,
2,
2,
2,
2,
2,
2,
2,
2,
2,
0,
2,
2,
2,
2,
2,
0,
3,
2,
2,
2,
2,
0,
2,
2,
2,
2,
2,
0,
2,
2,
2,
2,
3,
2,
3,
2,
2,
3,
2,
0,
3,
2,
0,
3,
2,
2,
2,
2,
2,
2,
2,
0,
2,
2,
2,
2,
2,
0,
2,
2,
2,
2,
0,
0,
3,
2,
2,
2,
2,
0,
2,
2,
2,
2,
2,
2,
2,
0,
0,
2,
2,
2,
3,
2,
0,
2,
2,
0,
3,
2,
2,
3,
2,
2,
2,
2,
2,
2,
2,
2,
3,
0,
0,
2,
2,
0,
2,
2,
0,
3,
2,
2,
2,
2,
2,
2,
3,
0,
2,
2,
2,
3,
0,
0,
2,
3,
29,
95,
132,
141,
138,
133,
123,
112,
109,
106,
100,
95,
89,
85,
81,
79,
75,
71,
66,
64,
61,
60,
57,
53,
51,
50,
48,
46,
43,
41,
40,
38,
36,
36,
34,
33,
32,
31,
31,
29,
29,
27,
26,
26,
26,
24,
24,
23,
22,
23,
23,
21,
21,
19,
19,
19,
18,
18,
18,
17,
17,
17,
17,
16,
17,
16,
16,
16,
14,
14,
16,
14,
14,
14,
14,
14,
14,
14,
13,
14,
14,
13,
14,
13,
13,
13,
13,
13,
13,
13,
13,
13,
13,
12,
13,
13,
13,
13,
13,
12,
13,
13,
12,
13,
13,
12,
13,
13,
12,
12,
12,
12,
12,
12,
12,
12,
12,
10,
12,
10,
10,
12,
12,
10,
12,
10,
10,
12,
10,
9,
10,
10,
9,
10,
10,
9,
10,
9,
9,
10,
9,
9,
10,
10,
9,
10,
9,
9,
10,
9,
9,
9,
9,
9,
10,
10,
9,
10,
9,
9,
10,
9,
9,
9,
9,
9,
9,
8,
9,
10,
9,
9,
9,
9,
9,
9,
9,
8,
9,
9,
9,
10,
9,
8,
9,
9,
9,
9,
9,
9,
10,
9,
9,
9,
9,
8,
10,
9,
9,
9,
9,
9,
9,
9,
8,
9,
9,
9,
9,
9,
9,
9,
9,
9,
9,
9,
8,
9,
9,
8,
9,
8,
9,
9,
9,
8,
9,
9,
9,
9,
9,
8,
9,
9,
9,
9,
9,
9,
9,
9,
9,
9,
8,
8,
9,
9,
8,
9,
9,
8,
9,
9,
8,
9,
9,
8,
9,
8,
8,
9,
9,
8,
9,
9,
8,
8,
9,
8,
9,
8,
9,
9,
9,
8,
8,
8,
8,
9,
9,
8,
9,
8,
9,
9,
8,
8,
8,
9,
8,
9,
8,
8,
9,
9,
8,
8,
8,
8,
9,
9,
8,
8,
8,
8,
9,
8,
8,
8,
8,
8,
8,
8,
7,
8,
9,
8,
8,
8,
8,
9,
8,
8,
8,
7,
8,
8,
8,
7,
8,
8,
8,
8,
8,
7,
7,
7,
7,
8,
7,
5,
7,
7,
7,
8,
5,
5,
7,
7,
5,
7,
5,
5,
7,
7,
7,
7,
5,
7,
7,
7,
7,
7,
8,
8,
9,
9,
9,
9,
9,
9,
10,
9,
9,
10,
10,
10,
10,
10,
10,
12,
10,
10,
10,
10,
10,
10,
10,
9,
9,
9,
9,
10,
9,
8,
9,
9,
8,
9,
8,
8,
8,
8,
7,
8,
7,
7,
7,
7,
7,
7,
7,
5,
7,
7,
7,
7,
5,
5,
7,
7,
7,
7,
7,
7,
8,
7,
7,
8,
8,
7,
8,
8,
8,
9,
9,
8,
9,
9,
9,
9,
9,
8,
8,
8,
8,
8,
8,
7,
8,
7,
7,
7,
7,
7,
8,
7,
7,
7,
7,
7,
8,
7,
7,
8,
8,
7,
8,
7,
7,
8,
8,
8,
8,
8,
8,
8,
8,
7,
8,
8,
7,
7,
8,
7,
8,
7,
7,
7,
7,
7,
7,
7,
7,
7,
7,
7,
7,
7,
7,
8,
8,
7,
8,
8,
7,
8,
8,
8,
8,
8,
8,
9,
8,
7,
8,
8,
7,
8,
8,
7,
7,
7,
7,
7,
7,
5,
7,
7,
7,
7,
7,
7,
7,
7,
7,
7,
7,
5,
7,
7,
7,
8,
7,
7,
8,
7,
7,
8,
8,
7,
8,
7,
7,
8,
7,
7,
8,
7,
7,
8,
7,
7,
8,
7,
7,
8,
8,
7,
8,
7,
7,
7,
8,
7,
7,
7,
7,
8,
8,
7,
8,
7,
7,
7,
7,
7,
8,
7,
7,
8,
7,
7,
7,
7,
7,
7,
7,
5,
7,
7,
7,
7,
7,
5,
7,
7,
7,
7,
7,
5,
7,
7,
7,
7,
7,
7,
7,
7,
7,
7,
7,
7,
8,
7,
7,
8,
7,
7,
8,
7,
7,
7,
7,
7,
8,
7,
7,
8,
7,
7,
7,
8,
8,
7,
7,
5,
7,
7,
7,
7,
5,
5,
7,
7,
7,
7,
5,
5,
7,
5,
5,
7,
7,
7,
8,
5,
5,
7,
8,
7,
7,
7,
7,
8,
7,
7,
8,
7,
7,
7,
7,
5,
7,
7,
7,
7,
7,
5,
7,
7,
7,
7,
7,
5,
7,
7,
7,
7,
7,
5,
7,
7,
7,
7,
5,
5,
7,
7,
5,
7,
7,
7,
8,
7,
7,
7,
7,
7,
7,
7,
5,
7,
7,
7,
8,
5,
5,
7,
7,
5,
7,
5,
7,
7,
7,
5,
5,
7,
7,
8,
7,
5,
7,
7,
7,
7,
7,
5,
7,
7,
7,
7,
7,
5,
7,
7,
5,
7,
7,
5,
7,
5,
5,
7,
7,
5,
7,
5,
5,
7,
7,
7,
7,
7,
5,
7,
7,
5,
7,
5,
7,
7,
7,
5,
7,
5,
5,
7,
5,
5,
7,
7,
7,
7,
7,
5,
7,
7,
5,
5,
5,
5,
7,
5,
5,
7,
5,
5,
7,
5,
5,
7,
7,
5,
5,
5,
5,
7,
7,
5,
7,
5,
5,
7,
7,
5,
5,
5,
7,
7,
7,
5,
7,
5,
5,
7,
5,
5,
7,
7,
7,
7,
7,
5,
7,
7,
5,
7,
5,
5,
7,
7,
5,
7,
5,
5,
7,
5,
5,
7,
7,
5,
7,
5,
5,
5,
7,
5,
7,
5,
5,
7,
7,
5,
7,
5,
5,
7,
7,
5,
5,
5,
5,
7,
5,
5,
5,
5,
5,
7,
5,
5,
7,
5,
5,
5,
5,
5,
5,
5,
5,
7,
5,
5,
7,
5,
5,
7,
5,
4,
5,
5,
5,
5,
7,
5,
7,
5,
5,
5,
7,
5,
7,
5,
5,
5,
5,
5,
7,
5,
5,
5,
5,
5,
7,
5,
5,
5,
5,
5,
5,
5,
5,
7,
5,
5,
7,
7,
7,
7,
5,
5,
5,
5,
5,
5,
5,
5,
7,
5,
5,
5,
5,
5,
7,
5,
5,
5,
5,
4,
7,
5,
5,
5,
5,
5,
7,
5,
5,
5,
7,
5,
5,
5,
5,
5,
5,
5,
5,
5,
5,
5,
5,
4,
5,
5,
5,
5,
5,
4,
7,
5,
5,
5,
5,
4,
7,
5,
5,
5,
5,
5,
5,
5,
5,
5,
5,
5,
5,
5,
5,
5,
5,
4,
5,
5,
5,
5,
5,
4,
5,
5,
5,
5,
5,
4,
7,
5,
5,
5,
5,
4,
5,
5,
5,
5,
5,
5,
7,
5,
5,
5,
5,
4,
5,
5,
5,
5,
5,
4,
5,
5,
5,
5,
5,
4,
5,
5,
5,
5,
5,
5,
7,
5,
4,
5,
5,
4,
5,
5,
5,
5,
5,
5,
5,
5,
5,
5,
5,
4,
5,
5,
5,
7,
5,
4,
5,
5,
5,
5,
5,
4,
5,
5,
5,
5,
5,
5,
7,
5,
4,
5,
5,
4,
7,
5,
5,
5,
5,
4,
5,
5,
5,
5,
5,
4,
5,
5,
5,
5,
5,
5,
7,
4,
4,
5,
5,
4,
5,
4,
4,
5,
5,
4,
5,
5,
5,
5,
5,
4,
5,
5,
5,
5,
5,
4,
5,
4,
4,
5,
5,
4,
5,
4,
5,
5,
4,
4,
5,
4,
4,
4,
5,
4,
5,
5,
5,
5,
5,
4,
5,
4,
4,
5,
5,
4,
5,
5,
5,
5,
4,
4,
5,
4,
4,
5,
5,
4,
5,
5,
5,
5,
5,
4,
5,
5,
4,
5,
5,
4,
5,
4,
4,
5,
4,
4,
5,
4,
4,
4,
5,
4,
5,
4,
4,
4,
5,
4,
5,
4,
4,
5,
5,
4,
5,
4,
4,
5,
5,
4,
5,
4,
4,
5,
5,
4,
5,
5,
5,
5,
4,
4,
5,
4,
4,
5,
4,
3,
5,
5,
5,
5,
4,
4,
5,
5,
4,
4,
5,
4,
5,
5,
4,
5,
4,
4,
5,
4,
4,
5,
5,
4,
5,
4,
4,
5,
4,
4,
5,
4,
4,
5,
5,
3,
4,
5,
4,
5,
4,
4,
5,
5,
4,
4,
4,
4,
5,
4,
4,
5,
4,
4,
4,
4,
4,
5,
5,
4,
4,
4,
4,
5,
4,
4,
4,
4,
4,
5,
4,
3,
4,
4,
4,
5,
4,
4,
5,
5,
5,
5,
4,
3,
5,
5,
4,
4,
4,
4,
5,
4,
4,
4,
4,
4,
4,
4,
3,
4,
4,
4,
5,
4,
4,
4,
4,
4,
5,
4,
3,
4,
4,
4,
5,
4,
4,
5,
5,
4,
4,
4,
4,
5,
4,
4,
4,
4,
4,
5,
4,
3,
4,
5,
4,
5,
4,
4,
5,
5,
4,
4,
4,
4,
5,
4,
4,
4,
4,
4,
5,
4,
4,
4,
5,
5,
5,
4,
4,
5,
4,
4,
4,
4,
4,
4,
4,
4,
4,
4,
3,
4,
3,
4,
4,
4,
4,
4,
4,
3,
4,
4,
4,
4,
4,
4,
4,
4,
4,
4,
4,
4,
5,
4,
4,
5,
4,
4,
5,
4,
4,
4,
5,
4,
5,
5,
4,
4,
4,
4,
5,
4,
4,
4,
3,
3,
4,
4,
4,
4,
4,
4,
5,
4,
4,
5,
5,
4,
4,
4,
4,
5,
5,
4,
5,
4,
4,
5,
4,
4,
5,
5,
4,
5,
4,
3,
4,
4,
4,
4,
3,
3,
4,
4,
3,
4,
3,
3,
4,
4,
3,
4,
3,
3,
4,
4,
4,
4,
4,
4,
5,
4,
4,
5,
5,
4,
4,
4,
4,
4,
4,
4,
4,
4,
4,
