src/varyamp_1558/temp0004695.CSV

Format,1.0B,
Memory Length,10000,Memory Length,10000,
IntpDistance,0,IntpDistance,0,
Trigger Address,4999,Trigger Address,4999,
Trigger Level,1.040E+00,Trigger Level,1.040E+00,
Source,CH1,Source,CH2,
Vertical Units,V,Vertical Units,V,
Vertical Units Div,0,Vertical Units Div,0,
Vertical Units Extend Div,16,Vertical Units Extend Div,16,
Label,,Label,,
Probe Type,0,Probe Type,0,
Probe Ratio,1.000e+01,Probe Ratio,1.000e+00,
Vertical Scale,5.000e-01,Vertical Scale,1.000e+00,
Vertical Position,-1.820e+00,Vertical Position,0.000e+00,
Horizontal Units,S,Horizontal Units,S,
Horizontal Scale,2.000E-05,Horizontal Scale,2.000E-05,
Horizontal Position,0.000E+00,Horizontal Position,0.000E+00,
Horizontal Mode,Main,Horizontal Mode,Main,
SincET Mode,Real Time,SincET Mode,Real Time,
Sampling Period,2.000e-08,Sampling Period,2.000e-08,
Horizontal Old Scale,2.000E-05,Horizontal Old Scale,2.000E-05,
Horizontal Old Position,0.000E+00,Horizontal Old Position,0.000E+00,
Firmware,V1.23,Firmware,V1.23,
Mode,Fast,Mode,Fast,
Waveform Data,,Waveform Data,,
2, ,-44, ,
1, ,-43, ,
1, ,-43, ,
2, ,-44, ,
1, ,-43, ,
1, ,-43, ,
2, ,-44, ,
1, ,-44, ,
1, ,-43, ,
1, ,-44, ,
1, ,-43, ,
1, ,-44, ,
2, ,-44, ,
1, ,-43, ,
1, ,-43, ,
2, ,-44, ,
1, ,-43, ,
1, ,-43, ,
2, ,-44, ,
1, ,-44, ,
1, ,-43, ,
2, ,-44, ,
1, ,-43, ,
1, ,-43, ,
2, ,-44, ,
1, ,-44, ,
1, ,-43, ,
1, ,-44, ,
1, ,-43, ,
-1, ,-43, ,
2, ,-44, ,
1, ,-43, ,
1, ,-43, ,
2, ,-44, ,
2, ,-43, ,
1, ,-43, ,
2, ,-44, ,
1, ,-43, ,
1, ,-43, ,
1, ,-44, ,
1, ,-43, ,
-1, ,-44, ,
2, ,-43, ,
1, ,-43, ,
1, ,-44, ,
2, ,-44, ,
2, ,-43, ,
1, ,-43, ,
2, ,-44, ,
1, ,-44, ,
1, ,-43, ,
1, ,-44, ,
1, ,-43, ,
1, ,-43, ,
2, ,-44, ,
1, ,-44, ,
1, ,-43, ,
2, ,-44, ,
1, ,-43, ,
1, ,-44, ,
2, ,-44, ,
1, ,-43, ,
1, ,-43, ,
2, ,-44, ,
1, ,-43, ,
1, ,-43, ,
2, ,-44, ,
1, ,-44, ,
1, ,-43, ,
2, ,-44, ,
1, ,-43, ,
1, ,-44, ,
2, ,-43, ,
1, ,-43, ,
1, ,-43, ,
1, ,-44, ,
1, ,-43, ,
1, ,-43, ,
2, ,-43, ,
1, ,-44, ,
1, ,-43, ,
2, ,-44, ,
1, ,-43, ,
-1, ,-43, ,
2, ,-44, ,
1, ,-43, ,
1, ,-43, ,
1, ,-44, ,
1, ,-43, ,
1, ,-43, ,
2, ,-44, ,
1, ,-44, ,
1, ,-43, ,
2, ,-44, ,
1, ,-43, ,
-1, ,-44, ,
2, ,-44, ,
1, ,-43, ,
1, ,-43, ,
1, ,-43, ,
1, ,-43, ,
-1, ,-43, ,
2, ,-43, ,
1, ,-44, ,
1, ,-43, ,
1, ,-44, ,
1, ,-43, ,
-1, ,-44, ,
1, ,-44, ,
1, ,-43, ,
1, ,-43, ,
2, ,-44, ,
1, ,-43, ,
-1, ,-43, ,
1, ,-44, ,
1, ,-44, ,
1, ,-43, ,
1, ,-44, ,
1, ,-43, ,
-1, ,-44, ,
2, ,-44, ,
1, ,-43, ,
1, ,-43, ,
2, ,-44, ,
1, ,-43, ,
-1, ,-43, ,
2, ,-44, ,
1, ,-44, ,
1, ,-43, ,
1, ,-44, ,
1, ,-43, ,
-1, ,-43, ,
2, ,-44, ,
1, ,-43, ,
1, ,-43, ,
1, ,-44, ,
1, ,-43, ,
-1, ,-43, ,
2, ,-44, ,
1, ,-44, ,
1, ,-43, ,
1, ,-44, ,
1, ,-42, ,
-1, ,-43, ,
1, ,-44, ,
1, ,-43, ,
1, ,-43, ,
1, ,-44, ,
1, ,-43, ,
-1, ,-43, ,
2, ,-44, ,
1, ,-43, ,
1, ,-43, ,
1, ,-44, ,
1, ,-43, ,
-1, ,-44, ,
2, ,-44, ,
1, ,-43, ,
1, ,-43, ,
1, ,-44, ,
1, ,-43, ,
-1, ,-43, ,
2, ,-43, ,
1, ,-44, ,
1, ,-43, ,
2, ,-44, ,
1, ,-43, ,
-1, ,-43, ,
2, ,-44, ,
1, ,-43, ,
1, ,-43, ,
1, ,-44, ,
1, ,-43, ,
-1, ,-43, ,
2, ,-43, ,
1, ,-44, ,
1, ,-43, ,
1, ,-44, ,
1, ,-43, ,
-1, ,-43, ,
2, ,-44, ,
1, ,-43, ,
1, ,-43, ,
1, ,-43, ,
1, ,-43, ,
-1, ,-43, ,
2, ,-44, ,
1, ,-43, ,
1, ,-43, ,
1, ,-44, ,
1, ,-43, ,
-1, ,-43, ,
2, ,-44, ,
1, ,-43, ,
1, ,-43, ,
1, ,-44, ,
1, ,-43, ,
-1, ,-43, ,
2, ,-44, ,
-1, ,-44, ,
1, ,-43, ,
1, ,-44, ,
1, ,-43, ,
-1, ,-44, ,
2, ,-44, ,
-1, ,-43, ,
1, ,-43, ,
2, ,-44, ,
2, ,-43, ,
-1, ,-43, ,
2, ,-44, ,
1, ,-44, ,
1, ,-43, ,
2, ,-44, ,
1, ,-43, ,
-1, ,-44, ,
2, ,-44, ,
-1, ,-44, ,
1, ,-43, ,
1, ,-44, ,
1, ,-44, ,
-1, ,-44, ,
2, ,-43, ,
1, ,-44, ,
1, ,-43, ,
1, ,-44, ,
2, ,-43, ,
-1, ,-43, ,
2, ,-44, ,
1, ,-43, ,
1, ,-43, ,
1, ,-43, ,
1, ,-43, ,
-1, ,-44, ,
1, ,-44, ,
1, ,-43, ,
1, ,-43, ,
1, ,-44, ,
2, ,-43, ,
-1, ,-43, ,
1, ,-44, ,
1, ,-43, ,
1, ,-43, ,
1, ,-44, ,
1, ,-43, ,
-1, ,-43, ,
2, ,-44, ,
1, ,-43, ,
1, ,-43, ,
1, ,-44, ,
1, ,-43, ,
-1, ,-44, ,
1, ,-44, ,
1, ,-43, ,
1, ,-43, ,
77, ,-44, ,
57, ,-43, ,
34, ,-43, ,
22, ,-44, ,
13, ,-44, ,
10, ,-43, ,
7, ,-44, ,
5, ,-43, ,
3, ,-44, ,
5, ,-44, ,
2, ,-43, ,
2, ,-43, ,
3, ,-44, ,
2, ,-43, ,
1, ,-43, ,
3, ,-44, ,
2, ,-43, ,
2, ,-43, ,
3, ,-44, ,
3, ,-43, ,
2, ,-43, ,
3, ,-44, ,
2, ,-44, ,
2, ,-43, ,
2, ,-44, ,
3, ,-43, ,
1, ,-43, ,
3, ,-44, ,
2, ,-44, ,
2, ,-43, ,
3, ,-44, ,
3, ,-43, ,
1, ,-43, ,
3, ,-44, ,
2, ,-43, ,
2, ,-43, ,
2, ,-44, ,
2, ,-43, ,
2, ,-43, ,
3, ,-43, ,
2, ,-44, ,
2, ,-43, ,
2, ,-44, ,
2, ,-43, ,
2, ,-44, ,
3, ,-44, ,
2, ,-43, ,
2, ,-43, ,
2, ,-44, ,
3, ,-43, ,
1, ,-43, ,
3, ,-41, ,
2, ,-23, ,
2, ,-4, ,
3, ,9, ,
2, ,20, ,
2, ,27, ,
3, ,33, ,
2, ,38, ,
2, ,41, ,
3, ,44, ,
2, ,45, ,
2, ,46, ,
3, ,47, ,
2, ,49, ,
2, ,49, ,
3, ,50, ,
2, ,49, ,
1, ,50, ,
3, ,50, ,
2, ,50, ,
2, ,50, ,
3, ,51, ,
3, ,50, ,
1, ,50, ,
2, ,51, ,
2, ,51, ,
2, ,50, ,
2, ,51, ,
2, ,50, ,
1, ,50, ,
3, ,51, ,
2, ,50, ,
2, ,50, ,
2, ,51, ,
2, ,50, ,
1, ,50, ,
2, ,50, ,
1, ,50, ,
1, ,50, ,
3, ,50, ,
2, ,49, ,
1, ,50, ,
2, ,50, ,
1, ,50, ,
2, ,50, ,
2, ,50, ,
2, ,49, ,
1, ,50, ,
2, ,50, ,
2, ,50, ,
2, ,50, ,
2, ,50, ,
2, ,49, ,
1, ,50, ,
2, ,50, ,
2, ,50, ,
1, ,50, ,
2, ,51, ,
2, ,49, ,
1, ,50, ,
2, ,50, ,
2, ,50, ,
1, ,50, ,
2, ,50, ,
2, ,49, ,
1, ,50, ,
2, ,50, ,
1, ,50, ,
2, ,50, ,
2, ,51, ,
2, ,49, ,
1, ,49, ,
2, ,50, ,
1, ,50, ,
2, ,50, ,
2, ,50, ,
2, ,49, ,
1, ,50, ,
3, ,50, ,
1, ,50, ,
2, ,50, ,
2, ,50, ,
2, ,49, ,
1, ,50, ,
2, ,50, ,
1, ,50, ,
2, ,50, ,
2, ,50, ,
2, ,49, ,
1, ,50, ,
2, ,50, ,
2, ,49, ,
1, ,50, ,
2, ,50, ,
2, ,49, ,
1, ,50, ,
2, ,50, ,
1, ,50, ,
1, ,50, ,
2, ,50, ,
2, ,49, ,
1, ,50, ,
2, ,50, ,
1, ,49, ,
2, ,50, ,
2, ,50, ,
2, ,49, ,
1, ,50, ,
2, ,50, ,
2, ,50, ,
2, ,50, ,
2, ,50, ,
2, ,49, ,
1, ,50, ,
2, ,50, ,
1, ,50, ,
1, ,50, ,
2, ,50, ,
2, ,49, ,
1, ,50, ,
2, ,50, ,
1, ,50, ,
1, ,49, ,
2, ,50, ,
2, ,49, ,
1, ,50, ,
2, ,50, ,
1, ,50, ,
1, ,50, ,
2, ,50, ,
2, ,49, ,
1, ,49, ,
2, ,50, ,
1, ,49, ,
2, ,50, ,
2, ,50, ,
2, ,49, ,
1, ,50, ,
2, ,50, ,
1, ,50, ,
1, ,50, ,
2, ,50, ,
2, ,49, ,
1, ,50, ,
2, ,50, ,
1, ,50, ,
1, ,50, ,
2, ,50, ,
2, ,49, ,
1, ,50, ,
2, ,50, ,
1, ,49, ,
2, ,50, ,
2, ,50, ,
2, ,49, ,
1, ,37, ,
2, ,17, ,
1, ,1, ,
1, ,-11, ,
2, ,-19, ,
1, ,-25, ,
1, ,-31, ,
2, ,-34, ,
1, ,-37, ,
1, ,-38, ,
2, ,-41, ,
2, ,-41, ,
1, ,-42, ,
2, ,-43, ,
1, ,-43, ,
1, ,-43, ,
2, ,-44, ,
2, ,-44, ,
1, ,-44, ,
2, ,-44, ,
1, ,-44, ,
2, ,-44, ,
2, ,-44, ,
2, ,-44, ,
1, ,-44, ,
2, ,-44, ,
1, ,-44, ,
2, ,-44, ,
2, ,-44, ,
1, ,-43, ,
1, ,-44, ,
2, ,-44, ,
2, ,-44, ,
1, ,-43, ,
2, ,-44, ,
2, ,-44, ,
1, ,-44, ,
2, ,-44, ,
1, ,-44, ,
1, ,-44, ,
2, ,-44, ,
1, ,-43, ,
1, ,-44, ,
2, ,-44, ,
1, ,-44, ,
1, ,-43, ,
2, ,-44, ,
2, ,-43, ,
1, ,-44, ,
2, ,-44, ,
1, ,-44, ,
1, ,-43, ,
2, ,-44, ,
1, ,-43, ,
1, ,-44, ,
2, ,-44, ,
1, ,-43, ,
1, ,-43, ,
2, ,-44, ,
1, ,-44, ,
1, ,-44, ,
2, ,-44, ,
1, ,-44, ,
1, ,-43, ,
2, ,-44, ,
1, ,-43, ,
-1, ,-44, ,
2, ,-44, ,
1, ,-43, ,
1, ,-43, ,
2, ,-44, ,
1, ,-43, ,
1, ,-43, ,
2, ,-44, ,
1, ,-44, ,
1, ,-43, ,
1, ,-44, ,
2, ,-43, ,
1, ,-44, ,
2, ,-44, ,
1, ,-44, ,
1, ,-43, ,
2, ,-44, ,
2, ,-43, ,
1, ,-43, ,
2, ,-44, ,
1, ,-44, ,
1, ,-43, ,
2, ,-44, ,
1, ,-42, ,
1, ,-43, ,
2, ,-44, ,
1, ,-44, ,
1, ,-43, ,
1, ,-44, ,
1, ,-43, ,
1, ,-43, ,
2, ,-44, ,
1, ,-44, ,
1, ,-43, ,
2, ,-44, ,
1, ,-42, ,
1, ,-43, ,
2, ,-44, ,
1, ,-44, ,
1, ,-43, ,
2, ,-44, ,
1, ,-43, ,
1, ,-43, ,
2, ,-44, ,
1, ,-44, ,
1, ,-43, ,
2, ,-44, ,
2, ,-42, ,
1, ,-43, ,
2, ,-44, ,
1, ,-43, ,
1, ,-43, ,
1, ,-44, ,
1, ,-43, ,
1, ,-43, ,
2, ,-43, ,
1, ,-44, ,
1, ,-43, ,
2, ,-44, ,
2, ,-43, ,
1, ,-44, ,
2, ,-44, ,
1, ,-44, ,
1, ,-43, ,
2, ,-44, ,
1, ,-43, ,
1, ,-43, ,
2, ,-44, ,
1, ,-44, ,
1, ,-43, ,
2, ,-44, ,
2, ,-42, ,
-1, ,-43, ,
2, ,-44, ,
1, ,-43, ,
2, ,-43, ,
2, ,-43, ,
2, ,-43, ,
1, ,-44, ,
2, ,-43, ,
1, ,-44, ,
1, ,-43, ,
1, ,-44, ,
1, ,-42, ,
-1, ,-43, ,
2, ,-44, ,
1, ,-43, ,
1, ,-43, ,
2, ,-44, ,
2, ,-43, ,
1, ,-43, ,
2, ,-43, ,
1, ,-44, ,
1, ,-43, ,
2, ,-44, ,
1, ,-42, ,
-1, ,-43, ,
2, ,-44, ,
1, ,-43, ,
1, ,-43, ,
1, ,-44, ,
1, ,-43, ,
-1, ,-43, ,
2, ,-43, ,
1, ,-43, ,
1, ,-43, ,
1, ,-44, ,
2, ,-43, ,
-1, ,-44, ,
2, ,-44, ,
1, ,-44, ,
1, ,-43, ,
1, ,-44, ,
2, ,-43, ,
-1, ,-43, ,
2, ,-43, ,
1, ,-43, ,
1, ,-43, ,
2, ,-44, ,
1, ,-42, ,
-1, ,-43, ,
2, ,-44, ,
1, ,-43, ,
1, ,-43, ,
1, ,-44, ,
1, ,-43, ,
-1, ,-44, ,
2, ,-44, ,
-1, ,-44, ,
1, ,-43, ,
2, ,-44, ,
2, ,-42, ,
-1, ,-43, ,
2, ,-44, ,
1, ,-43, ,
1, ,-43, ,
1, ,-43, ,
1, ,-43, ,
-1, ,-43, ,
2, ,-44, ,
1, ,-43, ,
1, ,-43, ,
1, ,-44, ,
1, ,-43, ,
-1, ,-43, ,
2, ,-44, ,
1, ,-43, ,
1, ,-43, ,
1, ,-44, ,
2, ,-43, ,
-1, ,-43, ,
1, ,-43, ,
1, ,-44, ,
1, ,-43, ,
1, ,-44, ,
2, ,-43, ,
-1, ,-43, ,
2, ,-44, ,
1, ,-43, ,
1, ,-43, ,
1, ,-43, ,
2, ,-43, ,
-1, ,-43, ,
2, ,-44, ,
1, ,-44, ,
1, ,-43, ,
1, ,-44, ,
1, ,-43, ,
-1, ,-43, ,
2, ,-43, ,
1, ,-43, ,
1, ,-43, ,
1, ,-44, ,
1, ,-43, ,
1, ,-43, ,
2, ,-43, ,
1, ,-43, ,
1, ,-43, ,
1, ,-44, ,
2, ,-43, ,
-1, ,-43, ,
2, ,-44, ,
1, ,-43, ,
1, ,-43, ,
2, ,-44, ,
1, ,-43, ,
1, ,-43, ,
2, ,-43, ,
1, ,-43, ,
1, ,-43, ,
1, ,-44, ,
1, ,-42, ,
-1, ,-43, ,
2, ,-44, ,
-1, ,-43, ,
1, ,-43, ,
1, ,-44, ,
2, ,-43, ,
-1, ,-43, ,
2, ,-43, ,
1, ,-44, ,
1, ,-43, ,
2, ,-44, ,
2, ,-43, ,
-1, ,-43, ,
2, ,-44, ,
1, ,-43, ,
1, ,-43, ,
1, ,-44, ,
1, ,-43, ,
-1, ,-43, ,
2, ,-43, ,
1, ,-43, ,
1, ,-43, ,
1, ,-44, ,
1, ,-43, ,
-1, ,-43, ,
1, ,-44, ,
1, ,-43, ,
1, ,-43, ,
1, ,-44, ,
2, ,-43, ,
-1, ,-43, ,
2, ,-44, ,
1, ,-43, ,
1, ,-43, ,
1, ,-44, ,
1, ,-43, ,
-1, ,-44, ,
2, ,-44, ,
1, ,-43, ,
1, ,-43, ,
1, ,-44, ,
2, ,-43, ,
-1, ,-43, ,
2, ,-43, ,
1, ,-43, ,
1, ,-43, ,
1, ,-44, ,
2, ,-43, ,
-1, ,-43, ,
2, ,-43, ,
1, ,-43, ,
1, ,-43, ,
1, ,-44, ,
2, ,-43, ,
-1, ,-43, ,
2, ,-43, ,
1, ,-44, ,
1, ,-44, ,
1, ,-44, ,
2, ,-43, ,
-1, ,-44, ,
2, ,-43, ,
1, ,-43, ,
1, ,-43, ,
1, ,-43, ,
1, ,-43, ,
-1, ,-43, ,
1, ,-43, ,
-1, ,-43, ,
1, ,-43, ,
1, ,-44, ,
1, ,-43, ,
-1, ,-43, ,
2, ,-44, ,
1, ,-43, ,
1, ,-43, ,
1, ,-44, ,
1, ,-43, ,
-1, ,-43, ,
2, ,-43, ,
-1, ,-43, ,
1, ,-43, ,
1, ,-44, ,
1, ,-43, ,
-1, ,-43, ,
1, ,-44, ,
-1, ,-43, ,
-1, ,-43, ,
1, ,-43, ,
1, ,-43, ,
-1, ,-44, ,
1, ,-43, ,
-1, ,-43, ,
1, ,-43, ,
1, ,-44, ,
1, ,-43, ,
-1, ,-44, ,
1, ,-44, ,
1, ,-43, ,
1, ,-43, ,
1, ,-44, ,
1, ,-43, ,
-1, ,-43, ,
2, ,-43, ,
1, ,-43, ,
1, ,-43, ,
1, ,-44, ,
1, ,-43, ,
-1, ,-44, ,
2, ,-43, ,
1, ,-43, ,
1, ,-43, ,
1, ,-44, ,
1, ,-43, ,
-1, ,-43, ,
2, ,-44, ,
1, ,-43, ,
1, ,-43, ,
1, ,-44, ,
1, ,-43, ,
-1, ,-43, ,
2, ,-44, ,
1, ,-43, ,
1, ,-43, ,
1, ,-44, ,
1, ,-43, ,
-1, ,-43, ,
1, ,-43, ,
1, ,-43, ,
1, ,-43, ,
1, ,-44, ,
1, ,-43, ,
-1, ,-43, ,
2, ,-44, ,
1, ,-43, ,
1, ,-43, ,
1, ,-44, ,
1, ,-43, ,
-1, ,-43, ,
2, ,-43, ,
1, ,-44, ,
1, ,-43, ,
1, ,-44, ,
1, ,-43, ,
-1, ,-44, ,
2, ,-44, ,
1, ,-43, ,
1, ,-43, ,
1, ,-44, ,
1, ,-43, ,
-1, ,-43, ,
2, ,-43, ,
1, ,-44, ,
1, ,-43, ,
1, ,-44, ,
1, ,-43, ,
-1, ,-44, ,
1, ,-44, ,
1, ,-43, ,
1, ,-43, ,
1, ,-44, ,
1, ,-43, ,
-1, ,-43, ,
2, ,-44, ,
1, ,-44, ,
1, ,-43, ,
1, ,-44, ,
1, ,-43, ,
-1, ,-43, ,
2, ,-44, ,
1, ,-43, ,
1, ,-43, ,
1, ,-44, ,
1, ,-43, ,
-1, ,-43, ,
2, ,-43, ,
-1, ,-43, ,
1, ,-43, ,
1, ,-44, ,
2, ,-43, ,
-1, ,-44, ,
2, ,-44, ,
1, ,-43, ,
1, ,-43, ,
1, ,-44, ,
1, ,-43, ,
-1, ,-43, ,
2, ,-43, ,
1, ,-44, ,
1, ,-43, ,
1, ,-44, ,
1, ,-43, ,
-1, ,-43, ,
2, ,-44, ,
-1, ,-43, ,
-1, ,-43, ,
1, ,-44, ,
1, ,-43, ,
-1, ,-43, ,
1, ,-43, ,
-1, ,-43, ,
-1, ,-43, ,
1, ,-44, ,
1, ,-43, ,
-1, ,-43, ,
1, ,-44, ,
-1, ,-43, ,
1, ,-43, ,
1, ,-44, ,
1, ,-43, ,
-1, ,-43, ,
1, ,-43, ,
-1, ,-44, ,
-1, ,-44, ,
1, ,-44, ,
1, ,-43, ,
-1, ,-43, ,
1, ,-44, ,
-1, ,-43, ,
1, ,-43, ,
1, ,-44, ,
1, ,-43, ,
-1, ,-44, ,
2, ,-44, ,
-1, ,-43, ,
1, ,-43, ,
1, ,-44, ,
1, ,-43, ,
-1, ,-43, ,
1, ,-44, ,
1, ,-43, ,
1, ,-43, ,
1, ,-44, ,
1, ,-43, ,
-1, ,-43, ,
1, ,-43, ,
-1, ,-43, ,
1, ,-43, ,
1, ,-44, ,
1, ,-43, ,
-1, ,-43, ,
1, ,-43, ,
-1, ,-44, ,
-1, ,-43, ,
1, ,-44, ,
1, ,-43, ,
-1, ,-43, ,
2, ,-44, ,
-1, ,-43, ,
-1, ,-44, ,
1, ,-44, ,
1, ,-43, ,
-1, ,-43, ,
1, ,-43, ,
1, ,-43, ,
1, ,-43, ,
1, ,-44, ,
1, ,-43, ,
-1, ,-43, ,
2, ,-43, ,
-1, ,-44, ,
1, ,-43, ,
1, ,-44, ,
1, ,-42, ,
-1, ,-43, ,
1, ,-44, ,
1, ,-43, ,
1, ,-43, ,
1, ,-44, ,
1, ,-43, ,
-1, ,-43, ,
2, ,-43, ,
1, ,-44, ,
1, ,-43, ,
1, ,-44, ,
1, ,-43, ,
-1, ,-44, ,
1, ,-44, ,
-1, ,-44, ,
1, ,-43, ,
1, ,-44, ,
1, ,-43, ,
-1, ,-43, ,
2, ,-44, ,
-1, ,-44, ,
1, ,-43, ,
1, ,-44, ,
1, ,-43, ,
-1, ,-44, ,
2, ,-44, ,
1, ,-43, ,
1, ,-43, ,
1, ,-44, ,
1, ,-43, ,
-1, ,-44, ,
1, ,-44, ,
-1, ,-44, ,
1, ,-43, ,
1, ,-44, ,
1, ,-43, ,
-1, ,-43, ,
2, ,-44, ,
1, ,-43, ,
1, ,-43, ,
1, ,-44, ,
1, ,-43, ,
-1, ,-43, ,
1, ,-44, ,
-1, ,-44, ,
1, ,-43, ,
1, ,-44, ,
1, ,-43, ,
-1, ,-43, ,
1, ,-44, ,
1, ,-43, ,
1, ,-43, ,
1, ,-43, ,
1, ,-43, ,
-1, ,-43, ,
1, ,-43, ,
-1, ,-44, ,
-1, ,-44, ,
1, ,-44, ,
1, ,-43, ,
-1, ,-43, ,
1, ,-44, ,
-1, ,-43, ,
-1, ,-43, ,
1, ,-44, ,
1, ,-43, ,
-1, ,-43, ,
2, ,-43, ,
-1, ,-44, ,
-1, ,-43, ,
1, ,-44, ,
1, ,-43, ,
-1, ,-43, ,
1, ,-44, ,
-1, ,-43, ,
-1, ,-43, ,
1, ,-44, ,
1, ,-43, ,
-1, ,-43, ,
2, ,-43, ,
1, ,-44, ,
-1, ,-43, ,
1, ,-44, ,
1, ,-43, ,
-1, ,-43, ,
1, ,-44, ,
1, ,-43, ,
1, ,-43, ,
1, ,-44, ,
1, ,-43, ,
-1, ,-43, ,
1, ,-44, ,
-1, ,-43, ,
1, ,-44, ,
1, ,-44, ,
1, ,-43, ,
-1, ,-43, ,
1, ,-44, ,
-1, ,-43, ,
-1, ,-43, ,
1, ,-44, ,
1, ,-43, ,
-1, ,-43, ,
1, ,-43, ,
-1, ,-43, ,
1, ,-27, ,
1, ,-8, ,
1, ,6, ,
-1, ,18, ,
2, ,26, ,
1, ,33, ,
-1, ,37, ,
1, ,41, ,
1, ,42, ,
-1, ,44, ,
2, ,46, ,
-1, ,47, ,
-1, ,47, ,
1, ,49, ,
1, ,49, ,
-1, ,50, ,
1, ,50, ,
1, ,50, ,
-1, ,50, ,
1, ,51, ,
1, ,50, ,
-1, ,51, ,
2, ,51, ,
-1, ,51, ,
-1, ,50, ,
1, ,51, ,
1, ,50, ,
-1, ,50, ,
1, ,50, ,
1, ,50, ,
-1, ,50, ,
1, ,51, ,
1, ,49, ,
-1, ,50, ,
2, ,50, ,
1, ,50, ,
1, ,50, ,
1, ,51, ,
1, ,49, ,
-1, ,50, ,
1, ,50, ,
1, ,50, ,
1, ,50, ,
1, ,51, ,
1, ,49, ,
-1, ,50, ,
1, ,50, ,
-1, ,50, ,
1, ,50, ,
1, ,50, ,
1, ,49, ,
-1, ,50, ,
1, ,50, ,
1, ,49, ,
-1, ,50, ,
1, ,51, ,
1, ,49, ,
-1, ,50, ,
1, ,50, ,
-1, ,50, ,
1, ,50, ,
1, ,50, ,
-1, ,49, ,
-1, ,50, ,
2, ,50, ,
-1, ,50, ,
-1, ,50, ,
1, ,50, ,
1, ,49, ,
-1, ,50, ,
1, ,50, ,
-1, ,50, ,
-1, ,50, ,
1, ,50, ,
1, ,49, ,
-1, ,50, ,
1, ,50, ,
-1, ,50, ,
-1, ,50, ,
1, ,50, ,
1, ,49, ,
-1, ,50, ,
2, ,50, ,
1, ,50, ,
-1, ,50, ,
1, ,50, ,
1, ,49, ,
-1, ,50, ,
1, ,50, ,
-1, ,50, ,
-1, ,50, ,
1, ,50, ,
1, ,49, ,
-1, ,50, ,
1, ,50, ,
-1, ,50, ,
-1, ,50, ,
1, ,51, ,
1, ,49, ,
-1, ,50, ,
1, ,50, ,
-1, ,50, ,
-1, ,50, ,
1, ,50, ,
1, ,49, ,
-1, ,50, ,
1, ,50, ,
-1, ,50, ,
-1, ,50, ,
1, ,50, ,
1, ,49, ,
-1, ,50, ,
1, ,50, ,
1, ,50, ,
-1, ,50, ,
91, ,50, ,
55, ,49, ,
32, ,50, ,
22, ,50, ,
12, ,50, ,
8, ,50, ,
6, ,50, ,
5, ,49, ,
2, ,50, ,
3, ,50, ,
2, ,49, ,
2, ,49, ,
3, ,51, ,
2, ,49, ,
2, ,50, ,
3, ,51, ,
2, ,50, ,
2, ,50, ,
2, ,50, ,
2, ,49, ,
2, ,50, ,
3, ,50, ,
2, ,49, ,
2, ,50, ,
2, ,51, ,
2, ,49, ,
2, ,50, ,
3, ,50, ,
2, ,50, ,
2, ,50, ,
3, ,50, ,
3, ,49, ,
1, ,50, ,
3, ,50, ,
2, ,50, ,
2, ,50, ,
3, ,51, ,
3, ,49, ,
2, ,50, ,
3, ,42, ,
2, ,22, ,
1, ,5, ,
2, ,-7, ,
2, ,-17, ,
1, ,-24, ,
2, ,-30, ,
2, ,-34, ,
1, ,-36, ,
2, ,-39, ,
3, ,-39, ,
2, ,-41, ,
3, ,-43, ,
2, ,-43, ,
2, ,-43, ,
2, ,-44, ,
2, ,-43, ,
1, ,-44, ,
3, ,-44, ,
2, ,-44, ,
2, ,-44, ,
2, ,-44, ,
3, ,-44, ,
1, ,-44, ,
3, ,-44, ,
2, ,-44, ,
1, ,-44, ,
2, ,-44, ,
3, ,-43, ,
1, ,-44, ,
3, ,-44, ,
2, ,-44, ,
2, ,-43, ,
2, ,-44, ,
2, ,-44, ,
1, ,-44, ,
3, ,-44, ,
2, ,-44, ,
2, ,-44, ,
2, ,-44, ,
2, ,-43, ,
1, ,-44, ,
2, ,-44, ,
2, ,-44, ,
2, ,-43, ,
2, ,-44, ,
2, ,-43, ,
1, ,-44, ,
3, ,-44, ,
2, ,-44, ,
1, ,-44, ,
2, ,-44, ,
2, ,-43, ,
1, ,-44, ,
2, ,-44, ,
1, ,-44, ,
1, ,-43, ,
2, ,-44, ,
2, ,-44, ,
1, ,-44, ,
2, ,-44, ,
2, ,-44, ,
2, ,-43, ,
2, ,-44, ,
2, ,-43, ,
1, ,-43, ,
2, ,-44, ,
2, ,-44, ,
1, ,-43, ,
2, ,-44, ,
2, ,-43, ,
1, ,-44, ,
2, ,-44, ,
1, ,-44, ,
1, ,-43, ,
2, ,-44, ,
2, ,-43, ,
1, ,-44, ,
2, ,-44, ,
1, ,-43, ,
2, ,-43, ,
2, ,-44, ,
2, ,-43, ,
1, ,-43, ,
2, ,-44, ,
1, ,-43, ,
1, ,-43, ,
2, ,-44, ,
2, ,-43, ,
1, ,-44, ,
2, ,-44, ,
2, ,-43, ,
2, ,-43, ,
2, ,-44, ,
2, ,-43, ,
1, ,-43, ,
2, ,-44, ,
1, ,-44, ,
1, ,-43, ,
2, ,-44, ,
1, ,-43, ,
1, ,-43, ,
3, ,-44, ,
1, ,-43, ,
2, ,-43, ,
2, ,-44, ,
2, ,-43, ,
1, ,-43, ,
2, ,-43, ,
1, ,-44, ,
2, ,-43, ,
2, ,-44, ,
2, ,-43, ,
1, ,-43, ,
2, ,-44, ,
1, ,-43, ,
2, ,-43, ,
2, ,-44, ,
2, ,-43, ,
1, ,-43, ,
2, ,-43, ,
1, ,-44, ,
2, ,-43, ,
2, ,-44, ,
2, ,-43, ,
1, ,-43, ,
2, ,-44, ,
1, ,-43, ,
1, ,-43, ,
2, ,-44, ,
2, ,-43, ,
1, ,-43, ,
2, ,-44, ,
1, ,-44, ,
2, ,-43, ,
2, ,-44, ,
2, ,-43, ,
1, ,-43, ,
2, ,-44, ,
1, ,-43, ,
2, ,-43, ,
2, ,-43, ,
2, ,-43, ,
1, ,-43, ,
2, ,-43, ,
1, ,-44, ,
2, ,-43, ,
2, ,-44, ,
2, ,-43, ,
1, ,-44, ,
2, ,-44, ,
2, ,-43, ,
2, ,-43, ,
2, ,-44, ,
2, ,-43, ,
1, ,-43, ,
2, ,-43, ,
1, ,-44, ,
1, ,-43, ,
2, ,-44, ,
2, ,-43, ,
1, ,-44, ,
2, ,-44, ,
1, ,-43, ,
2, ,-43, ,
2, ,-44, ,
2, ,-43, ,
1, ,-43, ,
2, ,-44, ,
1, ,-44, ,
1, ,-43, ,
2, ,-44, ,
1, ,-42, ,
1, ,-43, ,
2, ,-44, ,
1, ,-43, ,
1, ,-43, ,
2, ,-44, ,
2, ,-43, ,
1, ,-43, ,
2, ,-44, ,
1, ,-43, ,
1, ,-43, ,
2, ,-44, ,
2, ,-43, ,
1, ,-44, ,
2, ,-44, ,
1, ,-43, ,
1, ,-43, ,
2, ,-44, ,
2, ,-43, ,
1, ,-43, ,
2, ,-43, ,
1, ,-43, ,
1, ,-43, ,
2, ,-44, ,
2, ,-43, ,
1, ,-43, ,
2, ,-44, ,
1, ,-43, ,
1, ,-43, ,
2, ,-44, ,
2, ,-43, ,
1, ,-43, ,
2, ,-43, ,
1, ,-44, ,
1, ,-43, ,
2, ,-44, ,
2, ,-43, ,
1, ,-43, ,
2, ,-44, ,
1, ,-43, ,
1, ,-43, ,
2, ,-44, ,
2, ,-43, ,
1, ,-43, ,
2, ,-44, ,
1, ,-44, ,
1, ,-43, ,
2, ,-44, ,
1, ,-43, ,
1, ,-43, ,
2, ,-44, ,
1, ,-43, ,
1, ,-43, ,
2, ,-43, ,
2, ,-43, ,
1, ,-43, ,
2, ,-44, ,
1, ,-44, ,
1, ,-43, ,
2, ,-44, ,
2, ,-43, ,
1, ,-44, ,
2, ,-44, ,
1, ,-43, ,
1, ,-43, ,
2, ,-44, ,
2, ,-43, ,
1, ,-44, ,
2, ,-43, ,
1, ,-44, ,
1, ,-43, ,
2, ,-44, ,
2, ,-43, ,
1, ,-43, ,
2, ,-44, ,
1, ,-43, ,
1, ,-43, ,
1, ,-44, ,
1, ,-43, ,
1, ,-43, ,
2, ,-43, ,
1, ,-44, ,
1, ,-43, ,
2, ,-44, ,
2, ,-43, ,
1, ,-44, ,
2, ,-44, ,
1, ,-43, ,
1, ,-43, ,
2, ,-44, ,
1, ,-43, ,
1, ,-43, ,
2, ,-44, ,
1, ,-44, ,
1, ,-43, ,
2, ,-44, ,
2, ,-43, ,
1, ,-44, ,
2, ,-44, ,
1, ,-43, ,
1, ,-43, ,
2, ,-43, ,
2, ,-43, ,
1, ,-43, ,
2, ,-43, ,
1, ,-43, ,
1, ,-43, ,
2, ,-44, ,
1, ,-43, ,
1, ,-43, ,
2, ,-44, ,
1, ,-43, ,
1, ,-43, ,
1, ,-44, ,
2, ,-43, ,
1, ,-43, ,
2, ,-44, ,
1, ,-44, ,
1, ,-43, ,
2, ,-44, ,
2, ,-43, ,
1, ,-43, ,
2, ,-44, ,
1, ,-43, ,
2, ,-43, ,
2, ,-44, ,
1, ,-43, ,
-1, ,-43, ,
2, ,-44, ,
1, ,-44, ,
1, ,-43, ,
1, ,-44, ,
1, ,-43, ,
1, ,-43, ,
2, ,-44, ,
1, ,-43, ,
1, ,-43, ,
2, ,-44, ,
2, ,-43, ,
1, ,-43, ,
2, ,-43, ,
1, ,-43, ,
1, ,-43, ,
2, ,-44, ,
1, ,-43, ,
-1, ,-43, ,
2, ,-44, ,
1, ,-43, ,
1, ,-43, ,
2, ,-44, ,
1, ,-43, ,
1, ,-43, ,
2, ,-43, ,
1, ,-44, ,
1, ,-43, ,
2, ,-44, ,
1, ,-43, ,
-1, ,-43, ,
2, ,-44, ,
1, ,-43, ,
1, ,-43, ,
2, ,-44, ,
1, ,-43, ,
-1, ,-44, ,
1, ,-44, ,
1, ,-43, ,
2, ,-43, ,
2, ,-44, ,
1, ,-43, ,
-1, ,-44, ,
2, ,-44, ,
1, ,-43, ,
1, ,-43, ,
1, ,-44, ,
1, ,-43, ,
-1, ,-43, ,
2, ,-43, ,
1, ,-44, ,
1, ,-43, ,
2, ,-44, ,
2, ,-43, ,
-1, ,-43, ,
2, ,-44, ,
1, ,-43, ,
1, ,-43, ,
1, ,-44, ,
1, ,-43, ,
-1, ,-43, ,
2, ,-44, ,
1, ,-44, ,
1, ,-43, ,
1, ,-44, ,
1, ,-43, ,
-1, ,-43, ,
2, ,-44, ,
1, ,-43, ,
1, ,-43, ,
1, ,-43, ,
1, ,-42, ,
1, ,-43, ,
2, ,-43, ,
1, ,-43, ,
1, ,-43, ,
1, ,-44, ,
2, ,-43, ,
-1, ,-43, ,
2, ,-44, ,
1, ,-43, ,
1, ,-43, ,
1, ,-44, ,
1, ,-43, ,
-1, ,-43, ,
2, ,-43, ,
1, ,-44, ,
1, ,-43, ,
1, ,-44, ,
1, ,-42, ,
1, ,-43, ,
2, ,-43, ,
1, ,-43, ,
1, ,-43, ,
2, ,-44, ,
2, ,-43, ,
1, ,-43, ,
2, ,-43, ,
1, ,-44, ,
1, ,-43, ,
1, ,-44, ,
1, ,-43, ,
-1, ,-44, ,
2, ,-44, ,
1, ,-43, ,
1, ,-43, ,
2, ,-43, ,
2, ,-43, ,
1, ,-43, ,
2, ,-43, ,
1, ,-44, ,
1, ,-43, ,
1, ,-43, ,
1, ,-43, ,
-1, ,-43, ,
2, ,-44, ,
1, ,-44, ,
1, ,-43, ,
1, ,-44, ,
1, ,-43, ,
1, ,-43, ,
1, ,-43, ,
1, ,-44, ,
1, ,-43, ,
2, ,-44, ,
1, ,-42, ,
-1, ,-43, ,
2, ,-44, ,
1, ,-43, ,
1, ,-43, ,
1, ,-44, ,
1, ,-43, ,
1, ,-43, ,
2, ,-44, ,
1, ,-43, ,
1, ,-43, ,
1, ,-44, ,
1, ,-42, ,
-1, ,-43, ,
2, ,-44, ,
1, ,-43, ,
1, ,-43, ,
2, ,-44, ,
1, ,-42, ,
-1, ,-43, ,
2, ,-43, ,
1, ,-43, ,
1, ,-43, ,
1, ,-44, ,
1, ,-42, ,
1, ,-44, ,
2, ,-43, ,
1, ,-43, ,
1, ,-43, ,
1, ,-43, ,
1, ,-43, ,
-1, ,-43, ,
1, ,-44, ,
1, ,-43, ,
1, ,-43, ,
2, ,-44, ,
2, ,-42, ,
-1, ,-43, ,
2, ,-44, ,
1, ,-43, ,
1, ,-43, ,
1, ,-43, ,
1, ,-43, ,
-1, ,-43, ,
2, ,-44, ,
1, ,-43, ,
1, ,-43, ,
1, ,-44, ,
1, ,-43, ,
-1, ,-43, ,
1, ,-44, ,
1, ,-43, ,
1, ,-43, ,
1, ,-44, ,
1, ,-43, ,
-1, ,-43, ,
1, ,-43, ,
1, ,-43, ,
1, ,-43, ,
1, ,-44, ,
1, ,-42, ,
-1, ,-43, ,
1, ,-44, ,
1, ,-44, ,
1, ,-43, ,
