src/varyamp_1558/temp0002602.CSV

Format,1.0B,
Memory Length,10000,Memory Length,10000,
IntpDistance,0,IntpDistance,0,
Trigger Address,4999,Trigger Address,4999,
Trigger Level,1.040E+00,Trigger Level,1.040E+00,
Source,CH1,Source,CH2,
Vertical Units,V,Vertical Units,V,
Vertical Units Div,0,Vertical Units Div,0,
Vertical Units Extend Div,16,Vertical Units Extend Div,16,
Label,,Label,,
Probe Type,0,Probe Type,0,
Probe Ratio,1.000e+01,Probe Ratio,1.000e+00,
Vertical Scale,5.000e-01,Vertical Scale,1.000e+00,
Vertical Position,-1.820e+00,Vertical Position,0.000e+00,
Horizontal Units,S,Horizontal Units,S,
Horizontal Scale,2.000E-05,Horizontal Scale,2.000E-05,
Horizontal Position,0.000E+00,Horizontal Position,0.000E+00,
Horizontal Mode,Main,Horizontal Mode,Main,
SincET Mode,Real Time,SincET Mode,Real Time,
Sampling Period,2.000e-08,Sampling Period,2.000e-08,
Horizontal Old Scale,2.000E-05,Horizontal Old Scale,2.000E-05,
Horizontal Old Position,0.000E+00,Horizontal Old Position,0.000E+00,
Firmware,V1.23,Firmware,V1.23,
Mode,Fast,Mode,Fast,
Waveform Data,,Waveform Data,,
2, ,-32, ,
2, ,-32, ,
2, ,-32, ,
1, ,-32, ,
2, ,-32, ,
1, ,-32, ,
2, ,-32, ,
2, ,-32, ,
2, ,-32, ,
1, ,-32, ,
2, ,-32, ,
2, ,-32, ,
1, ,-32, ,
2, ,-32, ,
2, ,-32, ,
1, ,-32, ,
2, ,-33, ,
1, ,-32, ,
1, ,-32, ,
2, ,-32, ,
2, ,-33, ,
1, ,-33, ,
2, ,-32, ,
2, ,-32, ,
1, ,-32, ,
2, ,-32, ,
2, ,-32, ,
1, ,-32, ,
2, ,-32, ,
1, ,-32, ,
2, ,-32, ,
2, ,-32, ,
2, ,-33, ,
1, ,-32, ,
2, ,-32, ,
2, ,-32, ,
2, ,-32, ,
2, ,-32, ,
2, ,-32, ,
1, ,-32, ,
2, ,-32, ,
1, ,-32, ,
1, ,-32, ,
2, ,-32, ,
1, ,-33, ,
1, ,-32, ,
2, ,-32, ,
1, ,-32, ,
1, ,-32, ,
2, ,-32, ,
2, ,-32, ,
1, ,-32, ,
2, ,-32, ,
1, ,-32, ,
1, ,-32, ,
2, ,-32, ,
1, ,-32, ,
1, ,-32, ,
2, ,-32, ,
1, ,-32, ,
2, ,-32, ,
2, ,-32, ,
2, ,-32, ,
1, ,-32, ,
2, ,-33, ,
1, ,-32, ,
2, ,-32, ,
2, ,-32, ,
2, ,-33, ,
1, ,-32, ,
2, ,-32, ,
1, ,-32, ,
2, ,-32, ,
2, ,-33, ,
2, ,-32, ,
1, ,-32, ,
2, ,-32, ,
1, ,-32, ,
1, ,-32, ,
2, ,-32, ,
2, ,-33, ,
1, ,-32, ,
2, ,-32, ,
1, ,-32, ,
1, ,-32, ,
2, ,-33, ,
2, ,-32, ,
1, ,-32, ,
2, ,-33, ,
1, ,-32, ,
1, ,-32, ,
2, ,-32, ,
2, ,-33, ,
1, ,-32, ,
2, ,-32, ,
1, ,-32, ,
1, ,-32, ,
2, ,-32, ,
2, ,-32, ,
1, ,-32, ,
2, ,-32, ,
1, ,-32, ,
1, ,-32, ,
2, ,-32, ,
2, ,-32, ,
1, ,-32, ,
2, ,-32, ,
1, ,-32, ,
1, ,-32, ,
2, ,-32, ,
2, ,-32, ,
1, ,-32, ,
2, ,-32, ,
1, ,-32, ,
1, ,-32, ,
2, ,-32, ,
2, ,-32, ,
1, ,-32, ,
2, ,-32, ,
1, ,-32, ,
1, ,-32, ,
2, ,-32, ,
2, ,-32, ,
1, ,-32, ,
2, ,-32, ,
1, ,-32, ,
1, ,-32, ,
2, ,-32, ,
2, ,-33, ,
1, ,-32, ,
2, ,-32, ,
1, ,-32, ,
1, ,-32, ,
2, ,-32, ,
2, ,-32, ,
1, ,-32, ,
2, ,-33, ,
1, ,-32, ,
2, ,-32, ,
2, ,-32, ,
1, ,-32, ,
1, ,-32, ,
2, ,-32, ,
1, ,-32, ,
1, ,-32, ,
2, ,-32, ,
2, ,-33, ,
1, ,-32, ,
2, ,-33, ,
1, ,-32, ,
2, ,-32, ,
2, ,-33, ,
2, ,-33, ,
1, ,-33, ,
2, ,-32, ,
1, ,-32, ,
1, ,-32, ,
2, ,-32, ,
2, ,-33, ,
1, ,-32, ,
2, ,-33, ,
1, ,-32, ,
1, ,-32, ,
2, ,-32, ,
1, ,-33, ,
1, ,-33, ,
2, ,-32, ,
1, ,-33, ,
1, ,-32, ,
2, ,-33, ,
2, ,-32, ,
1, ,-32, ,
2, ,-32, ,
1, ,-32, ,
1, ,-32, ,
2, ,-32, ,
2, ,-33, ,
1, ,-32, ,
2, ,-32, ,
1, ,-32, ,
1, ,-32, ,
2, ,-33, ,
2, ,-32, ,
-1, ,-32, ,
2, ,-32, ,
1, ,-32, ,
1, ,-32, ,
2, ,-32, ,
1, ,-32, ,
1, ,-32, ,
2, ,-33, ,
1, ,-32, ,
1, ,-32, ,
2, ,-33, ,
1, ,-32, ,
1, ,-32, ,
2, ,-33, ,
1, ,-32, ,
1, ,-32, ,
2, ,-32, ,
1, ,-33, ,
1, ,-32, ,
2, ,-32, ,
1, ,-32, ,
1, ,-32, ,
2, ,-33, ,
1, ,-32, ,
-1, ,-32, ,
2, ,-32, ,
1, ,-32, ,
1, ,-33, ,
2, ,-32, ,
1, ,-32, ,
-1, ,-32, ,
1, ,-32, ,
1, ,-32, ,
1, ,-32, ,
2, ,-32, ,
1, ,-32, ,
1, ,-32, ,
1, ,-32, ,
1, ,-32, ,
1, ,-33, ,
2, ,-32, ,
1, ,-32, ,
-1, ,-32, ,
2, ,-32, ,
1, ,-32, ,
1, ,-32, ,
2, ,-33, ,
2, ,-32, ,
1, ,-32, ,
1, ,-32, ,
1, ,-32, ,
1, ,-33, ,
2, ,-32, ,
1, ,-33, ,
1, ,-33, ,
2, ,-33, ,
1, ,-32, ,
1, ,-32, ,
2, ,-32, ,
1, ,-32, ,
1, ,-32, ,
2, ,-33, ,
1, ,-32, ,
1, ,-32, ,
2, ,-32, ,
1, ,-33, ,
-1, ,-32, ,
2, ,-32, ,
1, ,-32, ,
1, ,-32, ,
2, ,-32, ,
2, ,-32, ,
1, ,-32, ,
2, ,-33, ,
1, ,-32, ,
1, ,-32, ,
2, ,-32, ,
2, ,-33, ,
1, ,-33, ,
2, ,-32, ,
1, ,-32, ,
1, ,-32, ,
2, ,-33, ,
1, ,-33, ,
1, ,-32, ,
2, ,-33, ,
1, ,-32, ,
1, ,-32, ,
2, ,-32, ,
1, ,-32, ,
-1, ,-32, ,
2, ,-32, ,
1, ,-32, ,
1, ,-32, ,
2, ,-33, ,
1, ,-32, ,
1, ,-33, ,
2, ,-32, ,
1, ,-32, ,
1, ,-33, ,
2, ,-32, ,
2, ,-33, ,
1, ,-33, ,
2, ,-32, ,
1, ,-32, ,
1, ,-32, ,
2, ,-33, ,
1, ,-32, ,
-1, ,-32, ,
2, ,-33, ,
1, ,-32, ,
1, ,-32, ,
2, ,-32, ,
1, ,-32, ,
-1, ,-32, ,
2, ,-32, ,
1, ,-32, ,
1, ,-32, ,
2, ,-33, ,
1, ,-33, ,
1, ,-32, ,
1, ,-33, ,
1, ,-32, ,
1, ,-32, ,
2, ,-30, ,
1, ,-14, ,
-1, ,5, ,
2, ,20, ,
1, ,31, ,
1, ,38, ,
2, ,43, ,
1, ,49, ,
-1, ,52, ,
2, ,55, ,
1, ,56, ,
1, ,58, ,
1, ,58, ,
1, ,59, ,
1, ,60, ,
1, ,60, ,
1, ,60, ,
1, ,61, ,
1, ,60, ,
1, ,61, ,
-1, ,61, ,
2, ,61, ,
-1, ,61, ,
1, ,61, ,
1, ,61, ,
1, ,61, ,
-1, ,61, ,
2, ,61, ,
1, ,61, ,
1, ,62, ,
1, ,61, ,
1, ,61, ,
-1, ,62, ,
2, ,60, ,
-1, ,61, ,
1, ,61, ,
2, ,61, ,
1, ,61, ,
-1, ,61, ,
2, ,61, ,
-1, ,61, ,
1, ,61, ,
1, ,60, ,
1, ,61, ,
71, ,61, ,
53, ,61, ,
30, ,60, ,
18, ,61, ,
12, ,60, ,
7, ,61, ,
5, ,61, ,
5, ,61, ,
2, ,60, ,
2, ,61, ,
3, ,60, ,
2, ,61, ,
2, ,61, ,
3, ,61, ,
2, ,60, ,
2, ,61, ,
3, ,60, ,
2, ,61, ,
1, ,61, ,
3, ,61, ,
2, ,60, ,
2, ,61, ,
3, ,60, ,
2, ,61, ,
2, ,61, ,
7, ,61, ,
7, ,61, ,
6, ,61, ,
7, ,60, ,
5, ,61, ,
3, ,61, ,
5, ,61, ,
2, ,61, ,
2, ,61, ,
2, ,60, ,
2, ,60, ,
1, ,61, ,
3, ,61, ,
2, ,61, ,
2, ,61, ,
3, ,60, ,
2, ,61, ,
1, ,61, ,
3, ,61, ,
2, ,61, ,
2, ,61, ,
3, ,60, ,
2, ,60, ,
1, ,61, ,
3, ,61, ,
2, ,60, ,
2, ,61, ,
3, ,60, ,
2, ,61, ,
1, ,61, ,
3, ,61, ,
2, ,60, ,
2, ,61, ,
3, ,60, ,
2, ,60, ,
1, ,61, ,
3, ,61, ,
2, ,60, ,
2, ,61, ,
3, ,60, ,
2, ,61, ,
1, ,61, ,
3, ,61, ,
2, ,60, ,
2, ,61, ,
3, ,60, ,
2, ,60, ,
1, ,61, ,
3, ,61, ,
2, ,60, ,
2, ,61, ,
3, ,60, ,
2, ,61, ,
1, ,61, ,
3, ,61, ,
2, ,60, ,
2, ,61, ,
2, ,60, ,
2, ,61, ,
1, ,61, ,
3, ,61, ,
1, ,60, ,
2, ,61, ,
2, ,60, ,
2, ,60, ,
1, ,61, ,
3, ,61, ,
2, ,60, ,
11, ,61, ,
15, ,60, ,
10, ,60, ,
7, ,61, ,
7, ,61, ,
5, ,60, ,
3, ,61, ,
3, ,60, ,
2, ,60, ,
2, ,60, ,
3, ,60, ,
2, ,60, ,
2, ,61, ,
2, ,60, ,
2, ,60, ,
1, ,61, ,
3, ,60, ,
2, ,60, ,
2, ,53, ,
3, ,33, ,
2, ,16, ,
1, ,4, ,
3, ,-5, ,
2, ,-13, ,
2, ,-18, ,
3, ,-21, ,
2, ,-24, ,
1, ,-26, ,
3, ,-28, ,
2, ,-30, ,
2, ,-31, ,
3, ,-31, ,
2, ,-32, ,
1, ,-32, ,
3, ,-32, ,
2, ,-33, ,
2, ,-33, ,
2, ,-33, ,
3, ,-33, ,
2, ,-33, ,
3, ,-33, ,
2, ,-33, ,
2, ,-33, ,
2, ,-33, ,
3, ,-33, ,
1, ,-33, ,
3, ,-33, ,
2, ,-33, ,
2, ,-33, ,
2, ,-33, ,
3, ,-33, ,
2, ,-33, ,
3, ,-33, ,
2, ,-33, ,
2, ,-33, ,
2, ,-33, ,
3, ,-32, ,
1, ,-33, ,
3, ,-33, ,
2, ,-33, ,
2, ,-33, ,
2, ,-33, ,
3, ,-33, ,
2, ,-33, ,
3, ,-33, ,
2, ,-32, ,
2, ,-33, ,
2, ,-32, ,
3, ,-33, ,
1, ,-33, ,
3, ,-32, ,
2, ,-33, ,
2, ,-32, ,
2, ,-33, ,
2, ,-33, ,
2, ,-33, ,
3, ,-33, ,
2, ,-32, ,
2, ,-33, ,
2, ,-32, ,
2, ,-33, ,
1, ,-32, ,
2, ,-32, ,
2, ,-33, ,
2, ,-32, ,
2, ,-33, ,
3, ,-33, ,
1, ,-32, ,
3, ,-33, ,
2, ,-32, ,
2, ,-32, ,
2, ,-32, ,
2, ,-33, ,
1, ,-32, ,
2, ,-32, ,
2, ,-32, ,
2, ,-32, ,
2, ,-33, ,
2, ,-33, ,
1, ,-33, ,
3, ,-32, ,
2, ,-32, ,
8, ,-32, ,
20, ,-32, ,
15, ,-33, ,
8, ,-32, ,
7, ,-32, ,
6, ,-33, ,
5, ,-32, ,
5, ,-32, ,
3, ,-33, ,
2, ,-32, ,
3, ,-33, ,
2, ,-32, ,
2, ,-32, ,
3, ,-32, ,
3, ,-32, ,
2, ,-32, ,
3, ,-32, ,
2, ,-33, ,
2, ,-32, ,
3, ,-32, ,
3, ,-32, ,
1, ,-33, ,
3, ,-33, ,
2, ,-32, ,
2, ,-32, ,
2, ,-32, ,
3, ,-33, ,
2, ,-32, ,
3, ,-32, ,
2, ,-32, ,
2, ,-32, ,
2, ,-32, ,
2, ,-32, ,
2, ,-32, ,
3, ,-32, ,
2, ,-32, ,
2, ,-32, ,
2, ,-32, ,
3, ,-33, ,
2, ,-32, ,
2, ,-32, ,
2, ,-32, ,
2, ,-32, ,
3, ,-33, ,
2, ,-32, ,
1, ,-32, ,
3, ,-32, ,
2, ,-32, ,
2, ,-32, ,
2, ,-32, ,
2, ,-32, ,
2, ,-32, ,
3, ,-32, ,
2, ,-32, ,
2, ,-32, ,
2, ,-32, ,
2, ,-32, ,
1, ,-32, ,
2, ,-33, ,
2, ,-32, ,
2, ,-32, ,
2, ,-32, ,
2, ,-33, ,
2, ,-32, ,
2, ,-32, ,
2, ,-32, ,
2, ,-32, ,
2, ,-33, ,
3, ,-32, ,
2, ,-32, ,
2, ,-32, ,
2, ,-32, ,
2, ,-32, ,
2, ,-32, ,
2, ,-32, ,
2, ,-32, ,
2, ,-32, ,
2, ,-32, ,
2, ,-32, ,
2, ,-33, ,
3, ,-32, ,
1, ,-32, ,
2, ,-32, ,
2, ,-32, ,
2, ,-33, ,
2, ,-32, ,
2, ,-32, ,
1, ,-32, ,
3, ,-32, ,
2, ,-32, ,
2, ,-32, ,
2, ,-32, ,
2, ,-32, ,
2, ,-32, ,
3, ,-32, ,
2, ,-32, ,
2, ,-32, ,
2, ,-32, ,
2, ,-32, ,
1, ,-32, ,
2, ,-32, ,
2, ,-32, ,
2, ,-32, ,
2, ,-33, ,
2, ,-32, ,
1, ,-32, ,
2, ,-32, ,
2, ,-32, ,
2, ,-32, ,
2, ,-32, ,
2, ,-32, ,
1, ,-32, ,
2, ,-32, ,
2, ,-32, ,
2, ,-32, ,
2, ,-32, ,
2, ,-32, ,
1, ,-32, ,
3, ,-32, ,
2, ,-32, ,
2, ,-32, ,
2, ,-32, ,
2, ,-33, ,
1, ,-32, ,
2, ,-32, ,
2, ,-32, ,
2, ,-32, ,
2, ,-32, ,
2, ,-32, ,
1, ,-32, ,
2, ,-32, ,
2, ,-32, ,
2, ,-32, ,
2, ,-32, ,
2, ,-33, ,
1, ,-32, ,
2, ,-32, ,
2, ,-32, ,
2, ,-32, ,
2, ,-32, ,
2, ,-32, ,
1, ,-32, ,
3, ,-32, ,
2, ,-32, ,
2, ,-32, ,
2, ,-32, ,
2, ,-32, ,
1, ,-32, ,
2, ,-32, ,
2, ,-32, ,
2, ,-32, ,
2, ,-32, ,
2, ,-32, ,
1, ,-32, ,
3, ,-32, ,
2, ,-32, ,
2, ,-32, ,
2, ,-32, ,
2, ,-32, ,
1, ,-32, ,
2, ,-32, ,
2, ,-32, ,
2, ,-32, ,
2, ,-32, ,
2, ,-32, ,
1, ,-32, ,
2, ,-32, ,
1, ,-32, ,
1, ,-32, ,
2, ,-32, ,
2, ,-33, ,
1, ,-32, ,
2, ,-32, ,
1, ,-32, ,
2, ,-32, ,
2, ,-32, ,
2, ,-32, ,
1, ,-32, ,
2, ,-32, ,
2, ,-32, ,
1, ,-33, ,
2, ,-32, ,
2, ,-32, ,
1, ,-32, ,
2, ,-32, ,
2, ,-32, ,
1, ,-32, ,
2, ,-32, ,
2, ,-32, ,
1, ,-32, ,
2, ,-32, ,
1, ,-32, ,
1, ,-32, ,
2, ,-32, ,
2, ,-33, ,
1, ,-32, ,
2, ,-32, ,
2, ,-32, ,
2, ,-32, ,
2, ,-32, ,
2, ,-32, ,
1, ,-32, ,
2, ,-33, ,
1, ,-32, ,
1, ,-32, ,
2, ,-32, ,
2, ,-33, ,
1, ,-32, ,
2, ,-32, ,
2, ,-32, ,
2, ,-32, ,
2, ,-32, ,
2, ,-32, ,
1, ,-32, ,
2, ,-32, ,
2, ,-32, ,
1, ,-32, ,
2, ,-32, ,
2, ,-33, ,
1, ,-32, ,
2, ,-32, ,
1, ,-32, ,
1, ,-32, ,
2, ,-33, ,
2, ,-32, ,
1, ,-32, ,
2, ,-32, ,
1, ,-32, ,
1, ,-32, ,
2, ,-32, ,
2, ,-33, ,
1, ,-32, ,
2, ,-32, ,
1, ,-32, ,
2, ,-32, ,
2, ,-32, ,
2, ,-32, ,
1, ,-32, ,
2, ,-32, ,
1, ,-32, ,
2, ,-32, ,
2, ,-32, ,
2, ,-32, ,
1, ,-32, ,
2, ,-32, ,
1, ,-32, ,
1, ,-32, ,
2, ,-33, ,
2, ,-33, ,
1, ,-32, ,
2, ,-32, ,
1, ,-32, ,
2, ,-32, ,
2, ,-32, ,
2, ,-33, ,
1, ,-32, ,
2, ,-32, ,
1, ,-33, ,
1, ,-32, ,
2, ,-32, ,
2, ,-32, ,
1, ,-32, ,
2, ,-32, ,
1, ,-32, ,
1, ,-32, ,
2, ,-32, ,
2, ,-33, ,
1, ,-33, ,
2, ,-32, ,
1, ,-32, ,
2, ,-32, ,
2, ,-32, ,
2, ,-32, ,
1, ,-33, ,
2, ,-32, ,
1, ,-32, ,
1, ,-32, ,
2, ,-32, ,
2, ,-32, ,
1, ,-32, ,
2, ,-32, ,
1, ,-32, ,
1, ,-32, ,
2, ,-32, ,
2, ,-32, ,
1, ,-32, ,
2, ,-33, ,
1, ,-32, ,
1, ,-32, ,
2, ,-32, ,
2, ,-33, ,
1, ,-32, ,
2, ,-32, ,
1, ,-32, ,
1, ,-32, ,
2, ,-32, ,
1, ,-33, ,
1, ,-32, ,
2, ,-32, ,
1, ,-32, ,
1, ,-32, ,
2, ,-32, ,
2, ,-32, ,
1, ,-32, ,
2, ,-32, ,
1, ,-32, ,
1, ,-32, ,
2, ,-32, ,
1, ,-32, ,
1, ,-32, ,
2, ,-32, ,
1, ,-32, ,
1, ,-32, ,
2, ,-32, ,
1, ,-32, ,
1, ,-33, ,
2, ,-32, ,
1, ,-32, ,
1, ,-32, ,
2, ,-32, ,
2, ,-32, ,
1, ,-32, ,
2, ,-32, ,
1, ,-32, ,
1, ,-32, ,
2, ,-32, ,
2, ,-33, ,
1, ,-32, ,
2, ,-32, ,
1, ,-32, ,
1, ,-33, ,
2, ,-32, ,
2, ,-32, ,
1, ,-32, ,
2, ,-32, ,
1, ,-32, ,
1, ,-32, ,
2, ,-32, ,
1, ,-33, ,
1, ,-32, ,
2, ,-32, ,
1, ,-32, ,
1, ,-32, ,
2, ,-33, ,
2, ,-32, ,
1, ,-32, ,
2, ,-32, ,
1, ,-32, ,
1, ,-32, ,
2, ,-32, ,
1, ,-32, ,
1, ,-32, ,
2, ,-32, ,
1, ,-32, ,
1, ,-32, ,
2, ,-33, ,
2, ,-32, ,
1, ,-32, ,
2, ,-33, ,
1, ,-32, ,
1, ,-32, ,
2, ,-32, ,
1, ,-32, ,
1, ,-32, ,
2, ,-32, ,
1, ,-32, ,
1, ,-32, ,
2, ,-32, ,
2, ,-32, ,
1, ,-32, ,
2, ,-32, ,
1, ,-32, ,
1, ,-32, ,
2, ,-33, ,
1, ,-33, ,
1, ,-32, ,
2, ,-32, ,
1, ,-33, ,
1, ,-32, ,
2, ,-33, ,
1, ,-33, ,
1, ,-32, ,
2, ,-32, ,
1, ,-32, ,
1, ,-32, ,
2, ,-32, ,
1, ,-33, ,
1, ,-32, ,
2, ,-32, ,
1, ,-32, ,
1, ,-32, ,
2, ,-32, ,
1, ,-32, ,
1, ,-32, ,
2, ,-33, ,
1, ,-32, ,
1, ,-32, ,
2, ,-32, ,
1, ,-32, ,
1, ,-32, ,
2, ,-32, ,
1, ,-32, ,
1, ,-32, ,
2, ,-32, ,
2, ,-32, ,
1, ,-32, ,
2, ,-32, ,
1, ,-32, ,
1, ,-32, ,
2, ,-32, ,
2, ,-32, ,
-1, ,-32, ,
2, ,-32, ,
1, ,-32, ,
1, ,-32, ,
2, ,-32, ,
1, ,-32, ,
1, ,-32, ,
2, ,-32, ,
1, ,-32, ,
1, ,-32, ,
2, ,-32, ,
1, ,-33, ,
-1, ,-32, ,
2, ,-32, ,
1, ,-32, ,
1, ,-32, ,
2, ,-33, ,
1, ,-32, ,
1, ,-32, ,
2, ,-32, ,
1, ,-32, ,
1, ,-32, ,
2, ,-32, ,
1, ,-33, ,
-1, ,-32, ,
2, ,-32, ,
1, ,-32, ,
1, ,-32, ,
1, ,-32, ,
1, ,-32, ,
-1, ,-32, ,
1, ,-32, ,
1, ,-32, ,
1, ,-33, ,
1, ,-32, ,
1, ,-32, ,
1, ,-32, ,
2, ,-32, ,
1, ,-32, ,
1, ,-32, ,
1, ,-32, ,
1, ,-32, ,
-1, ,-33, ,
2, ,-33, ,
1, ,-32, ,
1, ,-32, ,
2, ,-32, ,
1, ,-32, ,
-1, ,-32, ,
1, ,-32, ,
1, ,-32, ,
1, ,-32, ,
2, ,-32, ,
1, ,-32, ,
-1, ,-32, ,
1, ,-32, ,
1, ,-32, ,
1, ,-32, ,
2, ,-33, ,
1, ,-32, ,
-1, ,-32, ,
2, ,-32, ,
1, ,-32, ,
1, ,-32, ,
2, ,-32, ,
1, ,-32, ,
-1, ,-32, ,
1, ,-33, ,
1, ,-32, ,
1, ,-32, ,
2, ,-32, ,
1, ,-33, ,
-1, ,-32, ,
2, ,-32, ,
1, ,-32, ,
1, ,-32, ,
2, ,-32, ,
1, ,-33, ,
1, ,-32, ,
2, ,-32, ,
1, ,-32, ,
1, ,-32, ,
2, ,-32, ,
2, ,-33, ,
-1, ,-32, ,
2, ,-32, ,
1, ,-33, ,
1, ,-32, ,
2, ,-32, ,
1, ,-33, ,
-1, ,-32, ,
2, ,-32, ,
1, ,-32, ,
1, ,-32, ,
2, ,-32, ,
1, ,-33, ,
-1, ,-33, ,
2, ,-32, ,
1, ,-32, ,
1, ,-32, ,
1, ,-32, ,
1, ,-32, ,
-1, ,-32, ,
1, ,-33, ,
1, ,-32, ,
1, ,-32, ,
1, ,-32, ,
2, ,-33, ,
-1, ,-32, ,
1, ,-32, ,
34, ,-32, ,
55, ,-32, ,
35, ,-32, ,
22, ,-32, ,
15, ,-32, ,
11, ,-33, ,
8, ,-32, ,
6, ,-32, ,
5, ,-32, ,
3, ,-33, ,
2, ,-32, ,
3, ,-32, ,
2, ,-32, ,
2, ,-32, ,
3, ,-32, ,
3, ,-32, ,
2, ,-32, ,
3, ,-32, ,
2, ,-32, ,
2, ,-32, ,
2, ,-32, ,
3, ,-32, ,
2, ,-18, ,
3, ,1, ,
2, ,17, ,
2, ,27, ,
3, ,36, ,
3, ,43, ,
2, ,47, ,
3, ,51, ,
2, ,54, ,
2, ,56, ,
3, ,56, ,
3, ,58, ,
1, ,59, ,
3, ,60, ,
2, ,60, ,
2, ,61, ,
3, ,60, ,
2, ,60, ,
1, ,61, ,
3, ,61, ,
2, ,61, ,
2, ,62, ,
3, ,60, ,
2, ,61, ,
1, ,61, ,
3, ,61, ,
2, ,61, ,
2, ,61, ,
2, ,60, ,
2, ,61, ,
1, ,61, ,
3, ,61, ,
2, ,61, ,
2, ,61, ,
2, ,60, ,
2, ,61, ,
1, ,61, ,
2, ,61, ,
1, ,61, ,
2, ,61, ,
2, ,60, ,
2, ,61, ,
1, ,61, ,
2, ,61, ,
1, ,60, ,
2, ,62, ,
2, ,60, ,
2, ,61, ,
1, ,61, ,
3, ,60, ,
1, ,60, ,
2, ,61, ,
2, ,61, ,
1, ,61, ,
1, ,61, ,
2, ,61, ,
2, ,61, ,
2, ,61, ,
2, ,60, ,
2, ,61, ,
1, ,61, ,
3, ,61, ,
2, ,61, ,
1, ,61, ,
2, ,60, ,
2, ,61, ,
1, ,61, ,
2, ,61, ,
1, ,60, ,
1, ,61, ,
2, ,60, ,
2, ,61, ,
1, ,61, ,
3, ,61, ,
1, ,60, ,
2, ,61, ,
2, ,60, ,
2, ,60, ,
1, ,61, ,
3, ,60, ,
1, ,60, ,
1, ,61, ,
2, ,60, ,
2, ,61, ,
1, ,61, ,
2, ,61, ,
1, ,60, ,
2, ,61, ,
2, ,60, ,
2, ,61, ,
1, ,61, ,
3, ,61, ,
1, ,61, ,
2, ,61, ,
2, ,60, ,
3, ,61, ,
22, ,61, ,
18, ,61, ,
11, ,60, ,
8, ,61, ,
6, ,60, ,
5, ,61, ,
3, ,61, ,
3, ,61, ,
2, ,61, ,
2, ,61, ,
3, ,60, ,
2, ,61, ,
2, ,61, ,
3, ,61, ,
2, ,60, ,
2, ,61, ,
3, ,60, ,
2, ,60, ,
2, ,61, ,
3, ,61, ,
2, ,60, ,
2, ,61, ,
3, ,60, ,
2, ,61, ,
2, ,61, ,
3, ,61, ,
2, ,60, ,
2, ,61, ,
3, ,60, ,
2, ,60, ,
2, ,61, ,
3, ,61, ,
2, ,61, ,
2, ,61, ,
3, ,60, ,
2, ,61, ,
1, ,61, ,
3, ,61, ,
2, ,60, ,
2, ,61, ,
5, ,60, ,
10, ,61, ,
8, ,61, ,
8, ,60, ,
6, ,61, ,
5, ,61, ,
5, ,60, ,
3, ,60, ,
2, ,61, ,
3, ,61, ,
2, ,60, ,
2, ,61, ,
2, ,60, ,
3, ,61, ,
2, ,61, ,
3, ,60, ,
2, ,60, ,
2, ,61, ,
3, ,55, ,
2, ,36, ,
1, ,18, ,
3, ,5, ,
2, ,-4, ,
2, ,-12, ,
5, ,-17, ,
5, ,-21, ,
5, ,-24, ,
6, ,-26, ,
2, ,-28, ,
2, ,-30, ,
3, ,-31, ,
2, ,-32, ,
2, ,-32, ,
3, ,-32, ,
2, ,-32, ,
2, ,-33, ,
2, ,-33, ,
3, ,-33, ,
2, ,-33, ,
3, ,-33, ,
2, ,-33, ,
2, ,-33, ,
2, ,-33, ,
3, ,-33, ,
1, ,-33, ,
2, ,-33, ,
2, ,-33, ,
2, ,-33, ,
3, ,-33, ,
2, ,-33, ,
2, ,-33, ,
3, ,-33, ,
2, ,-33, ,
2, ,-33, ,
2, ,-33, ,
3, ,-33, ,
1, ,-33, ,
3, ,-33, ,
2, ,-33, ,
2, ,-33, ,
2, ,-33, ,
3, ,-33, ,
2, ,-33, ,
2, ,-33, ,
2, ,-33, ,
2, ,-33, ,
2, ,-32, ,
3, ,-33, ,
2, ,-33, ,
3, ,-32, ,
2, ,-33, ,
2, ,-32, ,
2, ,-32, ,
3, ,-32, ,
1, ,-32, ,
3, ,-33, ,
2, ,-32, ,
2, ,-33, ,
2, ,-32, ,
2, ,-33, ,
1, ,-32, ,
3, ,-32, ,
2, ,-33, ,
2, ,-32, ,
2, ,-33, ,
3, ,-32, ,
1, ,-32, ,
2, ,-33, ,
2, ,-32, ,
2, ,-32, ,
2, ,-32, ,
2, ,-33, ,
1, ,-33, ,
2, ,-32, ,
2, ,-33, ,
2, ,-32, ,
2, ,-33, ,
3, ,-32, ,
2, ,-32, ,
2, ,-33, ,
2, ,-32, ,
2, ,-33, ,
2, ,-32, ,
3, ,-32, ,
1, ,-32, ,
2, ,-33, ,
2, ,-33, ,
2, ,-32, ,
2, ,-33, ,
2, ,-32, ,
1, ,-32, ,
3, ,-33, ,
2, ,-32, ,
2, ,-32, ,
2, ,-32, ,
3, ,-32, ,
1, ,-32, ,
2, ,-32, ,
2, ,-32, ,
2, ,-32, ,
2, ,-33, ,
3, ,-32, ,
2, ,-32, ,
3, ,-33, ,
2, ,-32, ,
2, ,-32, ,
2, ,-32, ,
2, ,-32, ,
1, ,-32, ,
2, ,-32, ,
2, ,-32, ,
2, ,-32, ,
2, ,-32, ,
2, ,-32, ,
1, ,-32, ,
3, ,-33, ,
2, ,-32, ,
2, ,-32, ,
2, ,-32, ,
2, ,-32, ,
1, ,-32, ,
2, ,-32, ,
2, ,-32, ,
2, ,-32, ,
2, ,-32, ,
3, ,-32, ,
1, ,-32, ,
2, ,-32, ,
2, ,-32, ,
2, ,-32, ,
2, ,-32, ,
2, ,-33, ,
1, ,-32, ,
2, ,-32, ,
2, ,-32, ,
2, ,-32, ,
2, ,-32, ,
2, ,-32, ,
1, ,-32, ,
2, ,-32, ,
2, ,-32, ,
2, ,-32, ,
2, ,-32, ,
2, ,-32, ,
1, ,-32, ,
2, ,-32, ,
2, ,-32, ,
1, ,-32, ,
3, ,-32, ,
2, ,-32, ,
1, ,-32, ,
2, ,-32, ,
2, ,-32, ,
2, ,-32, ,
2, ,-32, ,
2, ,-33, ,
1, ,-33, ,
2, ,-32, ,
2, ,-32, ,
1, ,-32, ,
2, ,-32, ,
2, ,-32, ,
1, ,-32, ,
2, ,-32, ,
2, ,-32, ,
1, ,-32, ,
2, ,-32, ,
2, ,-32, ,
1, ,-32, ,
2, ,-32, ,
1, ,-32, ,
1, ,-32, ,
2, ,-32, ,
2, ,-32, ,
1, ,-32, ,
3, ,-32, ,
1, ,-32, ,
2, ,-32, ,
2, ,-32, ,
2, ,-33, ,
1, ,-32, ,
2, ,-32, ,
2, ,-32, ,
2, ,-32, ,
2, ,-33, ,
2, ,-32, ,
1, ,-32, ,
2, ,-33, ,
2, ,-32, ,
1, ,-32, ,
2, ,-32, ,
2, ,-33, ,
1, ,-32, ,
2, ,-32, ,
2, ,-32, ,
1, ,-32, ,
2, ,-32, ,
2, ,-32, ,
1, ,-32, ,
2, ,-32, ,
2, ,-32, ,
1, ,-32, ,
2, ,-32, ,
2, ,-32, ,
1, ,-32, ,
2, ,-32, ,
2, ,-32, ,
2, ,-32, ,
2, ,-32, ,
2, ,-33, ,
1, ,-33, ,
2, ,-32, ,
2, ,-32, ,
2, ,-32, ,
2, ,-32, ,
2, ,-33, ,
1, ,-32, ,
2, ,-32, ,
2, ,-32, ,
1, ,-32, ,
2, ,-32, ,
2, ,-32, ,
1, ,-32, ,
2, ,-32, ,
1, ,-32, ,
1, ,-32, ,
2, ,-32, ,
2, ,-32, ,
1, ,-32, ,
2, ,-32, ,
2, ,-32, ,
2, ,-32, ,
2, ,-32, ,
2, ,-32, ,
1, ,-32, ,
2, ,-32, ,
1, ,-32, ,
2, ,-32, ,
2, ,-32, ,
2, ,-33, ,
1, ,-32, ,
2, ,-32, ,
1, ,-32, ,
2, ,-32, ,
2, ,-32, ,
2, ,-32, ,
1, ,-32, ,
2, ,-32, ,
1, ,-32, ,
1, ,-32, ,
2, ,-32, ,
2, ,-33, ,
1, ,-32, ,
2, ,-32, ,
1, ,-32, ,
2, ,-32, ,
2, ,-32, ,
2, ,-32, ,
1, ,-32, ,
2, ,-33, ,
1, ,-32, ,
1, ,-32, ,
2, ,-32, ,
2, ,-33, ,
1, ,-33, ,
2, ,-32, ,
1, ,-32, ,
1, ,-32, ,
2, ,-32, ,
2, ,-32, ,
1, ,-32, ,
2, ,-33, ,
1, ,-32, ,
1, ,-32, ,
2, ,-32, ,
2, ,-33, ,
1, ,-32, ,
2, ,-32, ,
1, ,-32, ,
1, ,-32, ,
2, ,-32, ,
2, ,-33, ,
1, ,-32, ,
2, ,-33, ,
1, ,-32, ,
1, ,-32, ,
2, ,-32, ,
2, ,-32, ,
1, ,-32, ,
2, ,-32, ,
1, ,-32, ,
1, ,-32, ,
2, ,-32, ,
2, ,-32, ,
1, ,-32, ,
2, ,-32, ,
1, ,-32, ,
1, ,-32, ,
2, ,-32, ,
2, ,-32, ,
1, ,-32, ,
2, ,-32, ,
1, ,-32, ,
1, ,-32, ,
2, ,-32, ,
2, ,-32, ,
1, ,-32, ,
2, ,-33, ,
1, ,-32, ,
1, ,-32, ,
2, ,-32, ,
2, ,-33, ,
1, ,-32, ,
2, ,-32, ,
1, ,-32, ,
1, ,-32, ,
2, ,-32, ,
2, ,-33, ,
1, ,-32, ,
2, ,-32, ,
1, ,-32, ,
1, ,-32, ,
2, ,-32, ,
2, ,-33, ,
1, ,-32, ,
2, ,-32, ,
1, ,-32, ,
1, ,-32, ,
2, ,-32, ,
2, ,-32, ,
1, ,-32, ,
2, ,-33, ,
1, ,-32, ,
1, ,-32, ,
2, ,-32, ,
1, ,-33, ,
1, ,-33, ,
2, ,-32, ,
1, ,-32, ,
1, ,-32, ,
2, ,-32, ,
2, ,-33, ,
1, ,-32, ,
2, ,-32, ,
1, ,-32, ,
1, ,-32, ,
2, ,-32, ,
1, ,-33, ,
1, ,-32, ,
2, ,-32, ,
1, ,-32, ,
1, ,-32, ,
2, ,-32, ,
2, ,-32, ,
1, ,-32, ,
2, ,-32, ,
1, ,-32, ,
1, ,-32, ,
2, ,-32, ,
2, ,-33, ,
1, ,-32, ,
2, ,-32, ,
1, ,-32, ,
1, ,-32, ,
2, ,-33, ,
1, ,-32, ,
1, ,-32, ,
2, ,-33, ,
1, ,-32, ,
1, ,-32, ,
2, ,-32, ,
2, ,-33, ,
1, ,-33, ,
2, ,-32, ,
1, ,-32, ,
1, ,-32, ,
2, ,-32, ,
2, ,-33, ,
1, ,-32, ,
1, ,-33, ,
1, ,-32, ,
1, ,-33, ,
2, ,-33, ,
1, ,-33, ,
1, ,-32, ,
2, ,-32, ,
1, ,-32, ,
1, ,-32, ,
2, ,-32, ,
1, ,-32, ,
1, ,-32, ,
2, ,-33, ,
1, ,-32, ,
1, ,-32, ,
2, ,-32, ,
1, ,-33, ,
-1, ,-32, ,
2, ,-32, ,
1, ,-32, ,
1, ,-32, ,
2, ,-32, ,
1, ,-32, ,
-1, ,-32, ,
1, ,-32, ,
1, ,-32, ,
1, ,-32, ,
2, ,-32, ,
1, ,-33, ,
-1, ,-32, ,
1, ,-32, ,
1, ,-32, ,
1, ,-32, ,
2, ,-32, ,
2, ,-32, ,
1, ,-32, ,
1, ,-32, ,
1, ,-32, ,
1, ,-32, ,
2, ,-32, ,
1, ,-33, ,
-1, ,-32, ,
2, ,-32, ,
1, ,-32, ,
1, ,-32, ,
2, ,-32, ,
2, ,-33, ,
-1, ,-32, ,
1, ,-33, ,
1, ,-32, ,
1, ,-32, ,
2, ,-32, ,
1, ,-33, ,
-1, ,-32, ,
1, ,-32, ,
1, ,-32, ,
1, ,-32, ,
1, ,-33, ,
1, ,-32, ,
1, ,-33, ,
1, ,-32, ,
1, ,-32, ,
1, ,-32, ,
2, ,-32, ,
2, ,-33, ,
-1, ,-32, ,
2, ,-32, ,
1, ,-32, ,
1, ,-32, ,
2, ,-32, ,
1, ,-33, ,
1, ,-32, ,
2, ,-33, ,
1, ,-32, ,
1, ,-32, ,
2, ,-32, ,
2, ,-33, ,
-1, ,-32, ,
2, ,-32, ,
1, ,-32, ,
1, ,-32, ,
2, ,-33, ,
1, ,-32, ,
-1, ,-32, ,
1, ,-32, ,
1, ,-32, ,
1, ,-32, ,
2, ,-32, ,
2, ,-33, ,
1, ,-32, ,
1, ,-32, ,
1, ,-32, ,
1, ,-32, ,
2, ,-32, ,
1, ,-33, ,
-1, ,-32, ,
2, ,-32, ,
1, ,-32, ,
1, ,-32, ,
2, ,-32, ,
1, ,-33, ,
-1, ,-33, ,
2, ,-32, ,
1, ,-32, ,
1, ,-32, ,
2, ,-33, ,
1, ,-32, ,
-1, ,-32, ,
1, ,-32, ,
1, ,-32, ,
1, ,-32, ,
2, ,-32, ,
2, ,-33, ,
1, ,-32, ,
1, ,-32, ,
1, ,-32, ,
1, ,-32, ,
2, ,-33, ,
2, ,-33, ,
-1, ,-32, ,
2, ,-33, ,
1, ,-32, ,
