src/varyamp_1558/temp0003083.CSV

Format,1.0B,
Memory Length,10000,Memory Length,10000,
IntpDistance,0,IntpDistance,0,
Trigger Address,4999,Trigger Address,4999,
Trigger Level,1.040E+00,Trigger Level,1.040E+00,
Source,CH1,Source,CH2,
Vertical Units,V,Vertical Units,V,
Vertical Units Div,0,Vertical Units Div,0,
Vertical Units Extend Div,16,Vertical Units Extend Div,16,
Label,,Label,,
Probe Type,0,Probe Type,0,
Probe Ratio,1.000e+01,Probe Ratio,1.000e+00,
Vertical Scale,5.000e-01,Vertical Scale,1.000e+00,
Vertical Position,-1.820e+00,Vertical Position,0.000e+00,
Horizontal Units,S,Horizontal Units,S,
Horizontal Scale,2.000E-05,Horizontal Scale,2.000E-05,
Horizontal Position,0.000E+00,Horizontal Position,0.000E+00,
Horizontal Mode,Main,Horizontal Mode,Main,
SincET Mode,Real Time,SincET Mode,Real Time,
Sampling Period,2.000e-08,Sampling Period,2.000e-08,
Horizontal Old Scale,2.000E-05,Horizontal Old Scale,2.000E-05,
Horizontal Old Position,0.000E+00,Horizontal Old Position,0.000E+00,
Firmware,V1.23,Firmware,V1.23,
Mode,Fast,Mode,Fast,
Waveform Data,,Waveform Data,,
2, ,-31, ,
2, ,-32, ,
1, ,-31, ,
3, ,-31, ,
1, ,-32, ,
1, ,-32, ,
2, ,-31, ,
2, ,-31, ,
1, ,-31, ,
2, ,-31, ,
2, ,-31, ,
1, ,-31, ,
2, ,-31, ,
2, ,-32, ,
1, ,-31, ,
2, ,-31, ,
1, ,-31, ,
1, ,-32, ,
2, ,-31, ,
2, ,-32, ,
1, ,-32, ,
2, ,-31, ,
1, ,-31, ,
2, ,-32, ,
2, ,-31, ,
2, ,-32, ,
1, ,-31, ,
2, ,-31, ,
1, ,-31, ,
1, ,-31, ,
2, ,-31, ,
2, ,-31, ,
1, ,-31, ,
2, ,-31, ,
1, ,-31, ,
2, ,-31, ,
2, ,-31, ,
2, ,-32, ,
1, ,-31, ,
2, ,-31, ,
1, ,-31, ,
1, ,-32, ,
2, ,-31, ,
2, ,-31, ,
1, ,-32, ,
2, ,-31, ,
2, ,-31, ,
2, ,-32, ,
2, ,-31, ,
2, ,-32, ,
1, ,-31, ,
2, ,-31, ,
1, ,-31, ,
1, ,-32, ,
2, ,-31, ,
2, ,-32, ,
1, ,-31, ,
2, ,-31, ,
1, ,-31, ,
2, ,-32, ,
2, ,-31, ,
2, ,-32, ,
1, ,-31, ,
2, ,-31, ,
1, ,-31, ,
1, ,-31, ,
2, ,-31, ,
2, ,-31, ,
1, ,-32, ,
2, ,-31, ,
2, ,-31, ,
1, ,-31, ,
2, ,-31, ,
2, ,-32, ,
1, ,-31, ,
2, ,-31, ,
1, ,-31, ,
1, ,-31, ,
2, ,-31, ,
2, ,-31, ,
1, ,-31, ,
2, ,-31, ,
1, ,-31, ,
2, ,-31, ,
2, ,-31, ,
1, ,-32, ,
1, ,-31, ,
2, ,-31, ,
1, ,-31, ,
1, ,-31, ,
2, ,-31, ,
2, ,-31, ,
1, ,-32, ,
2, ,-31, ,
1, ,-31, ,
2, ,-31, ,
2, ,-31, ,
2, ,-32, ,
1, ,-31, ,
2, ,-31, ,
1, ,-31, ,
1, ,-31, ,
2, ,-31, ,
2, ,-31, ,
1, ,-32, ,
2, ,-31, ,
1, ,-31, ,
1, ,-31, ,
2, ,-31, ,
1, ,-32, ,
1, ,-31, ,
2, ,-31, ,
1, ,-31, ,
1, ,-31, ,
2, ,-31, ,
2, ,-32, ,
1, ,-32, ,
2, ,-31, ,
1, ,-31, ,
1, ,-31, ,
2, ,-31, ,
1, ,-32, ,
1, ,-31, ,
2, ,-31, ,
1, ,-31, ,
1, ,-32, ,
2, ,-31, ,
1, ,-31, ,
50, ,-32, ,
34, ,-31, ,
21, ,-31, ,
15, ,-31, ,
10, ,-31, ,
7, ,-31, ,
5, ,-31, ,
5, ,-31, ,
2, ,-31, ,
2, ,-31, ,
3, ,-31, ,
2, ,-32, ,
1, ,-32, ,
3, ,-31, ,
2, ,-31, ,
2, ,-31, ,
2, ,-31, ,
2, ,-32, ,
1, ,-31, ,
3, ,-31, ,
2, ,-31, ,
2, ,-31, ,
3, ,-31, ,
2, ,-31, ,
1, ,-32, ,
3, ,-31, ,
2, ,-31, ,
2, ,-31, ,
2, ,-31, ,
3, ,-32, ,
1, ,-31, ,
2, ,-31, ,
2, ,-31, ,
2, ,-31, ,
3, ,-31, ,
3, ,-31, ,
2, ,-32, ,
3, ,-31, ,
2, ,-31, ,
2, ,-31, ,
2, ,-31, ,
2, ,-32, ,
1, ,-31, ,
2, ,-31, ,
2, ,-31, ,
2, ,-31, ,
2, ,-31, ,
3, ,-32, ,
1, ,-32, ,
3, ,-31, ,
2, ,-31, ,
2, ,-31, ,
2, ,-31, ,
3, ,-32, ,
2, ,-31, ,
3, ,-31, ,
2, ,-32, ,
2, ,-32, ,
3, ,-31, ,
3, ,-31, ,
1, ,-32, ,
2, ,-31, ,
2, ,-31, ,
2, ,-31, ,
2, ,-31, ,
3, ,-32, ,
2, ,-31, ,
3, ,-31, ,
2, ,-32, ,
2, ,-31, ,
2, ,-31, ,
2, ,-31, ,
2, ,-32, ,
2, ,-31, ,
2, ,-31, ,
2, ,-31, ,
2, ,-31, ,
3, ,-32, ,
1, ,-31, ,
2, ,-31, ,
2, ,-31, ,
2, ,-31, ,
2, ,-31, ,
2, ,-31, ,
1, ,-31, ,
2, ,-31, ,
2, ,-31, ,
2, ,-31, ,
2, ,-31, ,
2, ,-31, ,
2, ,-31, ,
3, ,-31, ,
2, ,-32, ,
2, ,-31, ,
2, ,-31, ,
2, ,-31, ,
1, ,-32, ,
2, ,-31, ,
2, ,-31, ,
2, ,-31, ,
2, ,-32, ,
2, ,-32, ,
1, ,-31, ,
3, ,-31, ,
2, ,-32, ,
2, ,-31, ,
2, ,-31, ,
2, ,-31, ,
1, ,-31, ,
2, ,-31, ,
2, ,-32, ,
2, ,-31, ,
2, ,-31, ,
2, ,-32, ,
1, ,-31, ,
2, ,-31, ,
1, ,-31, ,
1, ,-31, ,
2, ,-31, ,
2, ,-32, ,
1, ,-32, ,
2, ,-31, ,
2, ,-31, ,
2, ,-31, ,
2, ,-31, ,
2, ,-32, ,
1, ,-31, ,
2, ,-31, ,
25, ,-31, ,
20, ,-31, ,
13, ,-31, ,
11, ,-31, ,
7, ,-32, ,
6, ,-31, ,
5, ,-31, ,
2, ,-31, ,
3, ,-31, ,
2, ,-32, ,
2, ,-31, ,
3, ,-31, ,
2, ,-31, ,
2, ,-32, ,
3, ,-31, ,
3, ,-32, ,
1, ,-32, ,
3, ,-31, ,
2, ,-31, ,
2, ,-31, ,
2, ,-31, ,
3, ,-32, ,
2, ,-32, ,
3, ,-31, ,
2, ,-31, ,
2, ,-31, ,
2, ,-31, ,
3, ,-31, ,
2, ,-32, ,
2, ,-31, ,
2, ,-31, ,
2, ,-32, ,
2, ,-31, ,
3, ,-32, ,
2, ,-31, ,
3, ,-31, ,
2, ,-31, ,
2, ,-31, ,
2, ,-31, ,
3, ,-32, ,
1, ,-32, ,
3, ,-31, ,
2, ,-31, ,
2, ,-32, ,
3, ,-31, ,
3, ,-32, ,
2, ,-31, ,
3, ,-31, ,
2, ,-32, ,
2, ,-32, ,
2, ,-31, ,
2, ,-31, ,
2, ,-27, ,
3, ,-9, ,
2, ,8, ,
2, ,22, ,
2, ,33, ,
3, ,40, ,
2, ,45, ,
3, ,50, ,
2, ,54, ,
2, ,56, ,
2, ,58, ,
2, ,60, ,
1, ,59, ,
3, ,60, ,
2, ,61, ,
1, ,61, ,
2, ,61, ,
2, ,62, ,
1, ,62, ,
3, ,62, ,
1, ,62, ,
1, ,62, ,
3, ,62, ,
2, ,63, ,
1, ,62, ,
3, ,62, ,
2, ,63, ,
2, ,61, ,
2, ,62, ,
2, ,63, ,
1, ,61, ,
3, ,62, ,
2, ,63, ,
2, ,62, ,
2, ,62, ,
2, ,63, ,
1, ,61, ,
3, ,62, ,
1, ,63, ,
1, ,61, ,
2, ,63, ,
2, ,63, ,
1, ,61, ,
11, ,62, ,
18, ,62, ,
13, ,62, ,
10, ,62, ,
6, ,63, ,
3, ,61, ,
5, ,62, ,
3, ,62, ,
2, ,61, ,
2, ,61, ,
2, ,62, ,
1, ,61, ,
3, ,62, ,
2, ,62, ,
2, ,61, ,
3, ,61, ,
2, ,63, ,
2, ,61, ,
3, ,62, ,
2, ,62, ,
2, ,61, ,
3, ,62, ,
2, ,62, ,
1, ,61, ,
3, ,62, ,
2, ,62, ,
2, ,61, ,
3, ,61, ,
2, ,62, ,
1, ,61, ,
3, ,62, ,
2, ,62, ,
2, ,61, ,
2, ,62, ,
3, ,62, ,
6, ,61, ,
10, ,62, ,
6, ,62, ,
5, ,61, ,
5, ,61, ,
3, ,62, ,
2, ,61, ,
3, ,62, ,
2, ,62, ,
2, ,61, ,
3, ,62, ,
2, ,62, ,
1, ,61, ,
3, ,62, ,
2, ,62, ,
2, ,62, ,
2, ,62, ,
2, ,63, ,
1, ,61, ,
3, ,62, ,
2, ,63, ,
2, ,61, ,
2, ,62, ,
2, ,62, ,
1, ,61, ,
3, ,62, ,
2, ,62, ,
2, ,61, ,
3, ,61, ,
2, ,62, ,
2, ,61, ,
5, ,62, ,
6, ,62, ,
6, ,61, ,
7, ,62, ,
5, ,62, ,
3, ,60, ,
5, ,62, ,
2, ,62, ,
2, ,62, ,
3, ,62, ,
2, ,62, ,
2, ,61, ,
3, ,62, ,
2, ,62, ,
2, ,61, ,
2, ,61, ,
2, ,62, ,
1, ,60, ,
3, ,62, ,
2, ,62, ,
2, ,61, ,
3, ,62, ,
2, ,62, ,
1, ,61, ,
3, ,62, ,
2, ,62, ,
2, ,61, ,
2, ,61, ,
2, ,62, ,
1, ,61, ,
3, ,62, ,
2, ,63, ,
2, ,61, ,
3, ,61, ,
2, ,62, ,
1, ,61, ,
3, ,62, ,
2, ,62, ,
2, ,61, ,
3, ,62, ,
3, ,62, ,
8, ,61, ,
8, ,62, ,
6, ,62, ,
5, ,61, ,
5, ,61, ,
3, ,51, ,
2, ,30, ,
3, ,14, ,
2, ,2, ,
2, ,-6, ,
2, ,-13, ,
2, ,-18, ,
1, ,-21, ,
3, ,-24, ,
2, ,-26, ,
2, ,-27, ,
3, ,-28, ,
2, ,-30, ,
1, ,-31, ,
3, ,-31, ,
2, ,-31, ,
2, ,-32, ,
2, ,-32, ,
3, ,-32, ,
1, ,-32, ,
3, ,-32, ,
2, ,-32, ,
2, ,-32, ,
2, ,-32, ,
3, ,-32, ,
2, ,-32, ,
3, ,-32, ,
2, ,-32, ,
2, ,-32, ,
3, ,-32, ,
2, ,-32, ,
2, ,-31, ,
3, ,-32, ,
2, ,-32, ,
2, ,-32, ,
2, ,-32, ,
3, ,-32, ,
2, ,-32, ,
2, ,-32, ,
2, ,-32, ,
2, ,-32, ,
2, ,-32, ,
2, ,-32, ,
2, ,-31, ,
3, ,-32, ,
2, ,-32, ,
2, ,-32, ,
2, ,-31, ,
3, ,-32, ,
2, ,-32, ,
3, ,-32, ,
2, ,-31, ,
2, ,-31, ,
2, ,-31, ,
2, ,-32, ,
2, ,-31, ,
3, ,-31, ,
2, ,-32, ,
2, ,-32, ,
2, ,-31, ,
3, ,-32, ,
1, ,-31, ,
2, ,-31, ,
2, ,-32, ,
2, ,-31, ,
2, ,-32, ,
2, ,-32, ,
1, ,-31, ,
3, ,-31, ,
2, ,-32, ,
2, ,-32, ,
2, ,-31, ,
2, ,-32, ,
1, ,-32, ,
3, ,-31, ,
2, ,-31, ,
2, ,-31, ,
3, ,-32, ,
2, ,-32, ,
1, ,-31, ,
3, ,-31, ,
2, ,-32, ,
2, ,-32, ,
2, ,-31, ,
2, ,-31, ,
1, ,-32, ,
2, ,-31, ,
2, ,-31, ,
1, ,-31, ,
2, ,-31, ,
2, ,-32, ,
1, ,-31, ,
3, ,-31, ,
2, ,-32, ,
2, ,-31, ,
2, ,-31, ,
2, ,-32, ,
1, ,-32, ,
3, ,-31, ,
2, ,-31, ,
2, ,-31, ,
2, ,-31, ,
2, ,-32, ,
1, ,-31, ,
2, ,-31, ,
2, ,-31, ,
2, ,-31, ,
2, ,-31, ,
2, ,-32, ,
1, ,-31, ,
3, ,-31, ,
2, ,-31, ,
2, ,-31, ,
2, ,-31, ,
2, ,-32, ,
1, ,-31, ,
3, ,-31, ,
2, ,-32, ,
2, ,-32, ,
2, ,-32, ,
2, ,-32, ,
1, ,-31, ,
3, ,-31, ,
2, ,-31, ,
2, ,-31, ,
2, ,-31, ,
2, ,-32, ,
1, ,-31, ,
3, ,-31, ,
2, ,-31, ,
2, ,-31, ,
2, ,-32, ,
2, ,-31, ,
1, ,-31, ,
3, ,-31, ,
1, ,-31, ,
1, ,-31, ,
2, ,-31, ,
2, ,-31, ,
1, ,-31, ,
2, ,-32, ,
1, ,-31, ,
2, ,-32, ,
2, ,-31, ,
2, ,-31, ,
1, ,-32, ,
3, ,-31, ,
2, ,-31, ,
2, ,-31, ,
2, ,-31, ,
2, ,-31, ,
1, ,-31, ,
3, ,-31, ,
2, ,-32, ,
1, ,-31, ,
2, ,-31, ,
2, ,-31, ,
1, ,-32, ,
3, ,-31, ,
1, ,-31, ,
1, ,-31, ,
2, ,-31, ,
2, ,-31, ,
1, ,-31, ,
2, ,-31, ,
1, ,-31, ,
2, ,-31, ,
2, ,-31, ,
2, ,-31, ,
1, ,-31, ,
2, ,-31, ,
2, ,-31, ,
2, ,-31, ,
2, ,-31, ,
2, ,-32, ,
1, ,-31, ,
2, ,-31, ,
1, ,-31, ,
1, ,-31, ,
2, ,-31, ,
2, ,-31, ,
1, ,-31, ,
2, ,-31, ,
2, ,-31, ,
1, ,-31, ,
2, ,-31, ,
2, ,-32, ,
1, ,-31, ,
2, ,-31, ,
1, ,-31, ,
1, ,-31, ,
2, ,-31, ,
2, ,-31, ,
1, ,-31, ,
2, ,-31, ,
1, ,-31, ,
2, ,-31, ,
2, ,-31, ,
2, ,-32, ,
1, ,-31, ,
2, ,-32, ,
1, ,-31, ,
2, ,-32, ,
2, ,-31, ,
2, ,-31, ,
1, ,-31, ,
2, ,-31, ,
1, ,-31, ,
1, ,-31, ,
2, ,-31, ,
2, ,-32, ,
1, ,-32, ,
2, ,-31, ,
1, ,-31, ,
1, ,-31, ,
2, ,-31, ,
1, ,-32, ,
1, ,-32, ,
2, ,-31, ,
1, ,-31, ,
1, ,-31, ,
2, ,-31, ,
2, ,-31, ,
1, ,-31, ,
2, ,-31, ,
1, ,-31, ,
2, ,-31, ,
2, ,-31, ,
2, ,-31, ,
1, ,-32, ,
2, ,-31, ,
1, ,-31, ,
2, ,-31, ,
2, ,-31, ,
2, ,-32, ,
1, ,-31, ,
2, ,-31, ,
1, ,-31, ,
2, ,-31, ,
2, ,-32, ,
2, ,-31, ,
1, ,-32, ,
2, ,-31, ,
1, ,-31, ,
2, ,-31, ,
2, ,-31, ,
2, ,-32, ,
1, ,-31, ,
3, ,-31, ,
1, ,-31, ,
1, ,-31, ,
2, ,-31, ,
2, ,-31, ,
1, ,-31, ,
2, ,-31, ,
1, ,-31, ,
2, ,-31, ,
2, ,-31, ,
1, ,-32, ,
1, ,-31, ,
2, ,-31, ,
1, ,-31, ,
2, ,-32, ,
2, ,-32, ,
1, ,-31, ,
1, ,-32, ,
2, ,-31, ,
1, ,-31, ,
1, ,-31, ,
2, ,-31, ,
2, ,-31, ,
1, ,-31, ,
2, ,-31, ,
1, ,-32, ,
1, ,-31, ,
2, ,-31, ,
2, ,-31, ,
1, ,-31, ,
2, ,-31, ,
1, ,-32, ,
1, ,-31, ,
2, ,-32, ,
2, ,-31, ,
1, ,-31, ,
2, ,-31, ,
1, ,-32, ,
1, ,-31, ,
2, ,-31, ,
2, ,-31, ,
1, ,-31, ,
2, ,-31, ,
1, ,-31, ,
1, ,-31, ,
2, ,-31, ,
2, ,-31, ,
1, ,-31, ,
2, ,-31, ,
1, ,-31, ,
1, ,-31, ,
2, ,-31, ,
1, ,-31, ,
1, ,-32, ,
2, ,-31, ,
1, ,-31, ,
1, ,-31, ,
2, ,-31, ,
1, ,-32, ,
1, ,-31, ,
2, ,-31, ,
1, ,-31, ,
1, ,-31, ,
2, ,-31, ,
2, ,-31, ,
1, ,-31, ,
2, ,-31, ,
1, ,-31, ,
1, ,-31, ,
2, ,-31, ,
1, ,-32, ,
1, ,-31, ,
2, ,-31, ,
1, ,-32, ,
1, ,-31, ,
2, ,-31, ,
2, ,-31, ,
1, ,-31, ,
2, ,-31, ,
1, ,-31, ,
1, ,-31, ,
2, ,-31, ,
1, ,-31, ,
1, ,-31, ,
2, ,-31, ,
1, ,-31, ,
1, ,-31, ,
1, ,-31, ,
1, ,-31, ,
-1, ,-32, ,
2, ,-31, ,
1, ,-31, ,
2, ,-31, ,
2, ,-31, ,
2, ,-31, ,
-1, ,-31, ,
2, ,-31, ,
1, ,-31, ,
1, ,-32, ,
2, ,-31, ,
2, ,-31, ,
-1, ,-31, ,
2, ,-31, ,
1, ,-31, ,
1, ,-31, ,
2, ,-31, ,
2, ,-31, ,
1, ,-31, ,
2, ,-31, ,
1, ,-31, ,
1, ,-31, ,
2, ,-31, ,
1, ,-31, ,
-1, ,-31, ,
2, ,-31, ,
1, ,-31, ,
1, ,-31, ,
2, ,-31, ,
1, ,-32, ,
1, ,-31, ,
2, ,-31, ,
1, ,-32, ,
1, ,-32, ,
2, ,-32, ,
1, ,-31, ,
-1, ,-31, ,
2, ,-31, ,
1, ,-31, ,
1, ,-32, ,
2, ,-32, ,
1, ,-32, ,
1, ,-31, ,
2, ,-31, ,
1, ,-31, ,
1, ,-31, ,
2, ,-31, ,
1, ,-32, ,
-1, ,-31, ,
2, ,-31, ,
1, ,-31, ,
1, ,-31, ,
2, ,-32, ,
2, ,-32, ,
1, ,-31, ,
2, ,-31, ,
1, ,-31, ,
1, ,-31, ,
2, ,-31, ,
1, ,-31, ,
1, ,-31, ,
2, ,-31, ,
1, ,-31, ,
1, ,-31, ,
2, ,-32, ,
1, ,-32, ,
1, ,-31, ,
2, ,-31, ,
1, ,-32, ,
1, ,-31, ,
2, ,-31, ,
1, ,-31, ,
-1, ,-31, ,
2, ,-31, ,
1, ,-31, ,
1, ,-31, ,
2, ,-31, ,
2, ,-31, ,
1, ,-31, ,
1, ,-31, ,
1, ,-32, ,
1, ,-32, ,
2, ,-31, ,
1, ,-32, ,
-1, ,-31, ,
2, ,-31, ,
1, ,-31, ,
1, ,-31, ,
1, ,-32, ,
1, ,-32, ,
1, ,-31, ,
1, ,-31, ,
1, ,-31, ,
1, ,-31, ,
2, ,-31, ,
2, ,-32, ,
59, ,-31, ,
39, ,-31, ,
24, ,-31, ,
16, ,-31, ,
11, ,-32, ,
8, ,-32, ,
5, ,-31, ,
6, ,-31, ,
3, ,-32, ,
2, ,-31, ,
3, ,-32, ,
2, ,-32, ,
2, ,-32, ,
3, ,-31, ,
2, ,-31, ,
2, ,-31, ,
3, ,-31, ,
3, ,-31, ,
2, ,-31, ,
3, ,-31, ,
2, ,-31, ,
2, ,-31, ,
3, ,-31, ,
3, ,-31, ,
2, ,-32, ,
3, ,-31, ,
2, ,-31, ,
2, ,-31, ,
3, ,-31, ,
3, ,-32, ,
1, ,-31, ,
3, ,-31, ,
2, ,-31, ,
2, ,-31, ,
3, ,-31, ,
2, ,-31, ,
1, ,-31, ,
2, ,-31, ,
2, ,-31, ,
2, ,-31, ,
2, ,-31, ,
3, ,-31, ,
2, ,-31, ,
3, ,-31, ,
2, ,-31, ,
2, ,-31, ,
2, ,-31, ,
2, ,-31, ,
1, ,-31, ,
2, ,-31, ,
2, ,-31, ,
2, ,-31, ,
2, ,-31, ,
2, ,-32, ,
1, ,-31, ,
2, ,-31, ,
2, ,-32, ,
2, ,-31, ,
2, ,-31, ,
2, ,-31, ,
1, ,-32, ,
3, ,-31, ,
2, ,-31, ,
2, ,-31, ,
2, ,-32, ,
2, ,-32, ,
2, ,-31, ,
2, ,-31, ,
1, ,-31, ,
2, ,-31, ,
2, ,-31, ,
2, ,-31, ,
1, ,-32, ,
2, ,-31, ,
2, ,-31, ,
2, ,-31, ,
2, ,-31, ,
3, ,-31, ,
1, ,-31, ,
3, ,-31, ,
2, ,-31, ,
2, ,-32, ,
2, ,-31, ,
2, ,-31, ,
1, ,-31, ,
2, ,-31, ,
2, ,-31, ,
2, ,-32, ,
2, ,-31, ,
2, ,-32, ,
1, ,-31, ,
2, ,-31, ,
2, ,-31, ,
2, ,-32, ,
2, ,-31, ,
2, ,-32, ,
1, ,-31, ,
2, ,-31, ,
2, ,-31, ,
2, ,-31, ,
2, ,-31, ,
2, ,-32, ,
1, ,-31, ,
2, ,-31, ,
2, ,-31, ,
2, ,-31, ,
2, ,-31, ,
2, ,-31, ,
1, ,-31, ,
2, ,-31, ,
2, ,-31, ,
2, ,-32, ,
2, ,-31, ,
2, ,-32, ,
1, ,-31, ,
2, ,-31, ,
2, ,-31, ,
2, ,-32, ,
2, ,-31, ,
2, ,-31, ,
1, ,-32, ,
2, ,-31, ,
2, ,-31, ,
2, ,-31, ,
2, ,-31, ,
2, ,-31, ,
2, ,-31, ,
3, ,-31, ,
2, ,-31, ,
2, ,-31, ,
2, ,-31, ,
2, ,-31, ,
1, ,-32, ,
2, ,-31, ,
2, ,-31, ,
2, ,-32, ,
2, ,-31, ,
2, ,-32, ,
1, ,-31, ,
2, ,-31, ,
2, ,-31, ,
2, ,-31, ,
2, ,-31, ,
3, ,-31, ,
1, ,-31, ,
2, ,-31, ,
2, ,-31, ,
1, ,-31, ,
2, ,-31, ,
2, ,-32, ,
1, ,-31, ,
2, ,-31, ,
1, ,-31, ,
1, ,-32, ,
2, ,-31, ,
2, ,-32, ,
1, ,-32, ,
2, ,-31, ,
1, ,-31, ,
2, ,-32, ,
2, ,-31, ,
2, ,-32, ,
1, ,-31, ,
2, ,-31, ,
1, ,-32, ,
2, ,-32, ,
2, ,-31, ,
2, ,-32, ,
1, ,-32, ,
2, ,-31, ,
1, ,-31, ,
2, ,-31, ,
2, ,-31, ,
2, ,-32, ,
1, ,-31, ,
2, ,-31, ,
1, ,-31, ,
2, ,-32, ,
2, ,-31, ,
2, ,-31, ,
1, ,-32, ,
2, ,-31, ,
1, ,-31, ,
1, ,-32, ,
2, ,-31, ,
2, ,-32, ,
1, ,-31, ,
2, ,-31, ,
1, ,-31, ,
2, ,-31, ,
2, ,-32, ,
2, ,-31, ,
1, ,-31, ,
2, ,-30, ,
2, ,-15, ,
2, ,4, ,
2, ,19, ,
2, ,30, ,
1, ,37, ,
2, ,44, ,
1, ,50, ,
1, ,53, ,
2, ,55, ,
1, ,58, ,
1, ,58, ,
2, ,59, ,
1, ,61, ,
1, ,60, ,
2, ,61, ,
1, ,62, ,
1, ,61, ,
2, ,62, ,
1, ,63, ,
1, ,62, ,
2, ,62, ,
1, ,63, ,
1, ,61, ,
2, ,63, ,
1, ,63, ,
1, ,62, ,
2, ,62, ,
1, ,63, ,
1, ,61, ,
2, ,62, ,
1, ,63, ,
1, ,61, ,
2, ,62, ,
1, ,63, ,
1, ,61, ,
2, ,62, ,
1, ,63, ,
1, ,61, ,
2, ,62, ,
2, ,63, ,
1, ,61, ,
2, ,62, ,
2, ,62, ,
41, ,61, ,
27, ,62, ,
17, ,63, ,
11, ,61, ,
8, ,62, ,
6, ,63, ,
3, ,61, ,
3, ,62, ,
3, ,62, ,
2, ,61, ,
3, ,62, ,
2, ,62, ,
2, ,61, ,
2, ,62, ,
3, ,62, ,
1, ,61, ,
3, ,61, ,
2, ,62, ,
2, ,61, ,
3, ,62, ,
2, ,62, ,
1, ,61, ,
3, ,62, ,
2, ,62, ,
2, ,61, ,
2, ,61, ,
2, ,63, ,
1, ,61, ,
3, ,62, ,
2, ,62, ,
2, ,61, ,
3, ,62, ,
2, ,62, ,
2, ,61, ,
3, ,62, ,
2, ,62, ,
2, ,61, ,
3, ,62, ,
2, ,62, ,
1, ,61, ,
3, ,62, ,
2, ,62, ,
2, ,61, ,
3, ,61, ,
2, ,62, ,
1, ,60, ,
3, ,62, ,
2, ,62, ,
2, ,61, ,
2, ,61, ,
2, ,62, ,
1, ,60, ,
3, ,62, ,
2, ,62, ,
2, ,61, ,
3, ,62, ,
2, ,63, ,
2, ,61, ,
3, ,62, ,
1, ,62, ,
1, ,62, ,
2, ,61, ,
3, ,62, ,
8, ,61, ,
15, ,62, ,
11, ,63, ,
7, ,61, ,
6, ,62, ,
5, ,62, ,
3, ,61, ,
5, ,62, ,
2, ,63, ,
2, ,61, ,
3, ,62, ,
2, ,62, ,
1, ,61, ,
3, ,62, ,
2, ,62, ,
2, ,61, ,
3, ,61, ,
2, ,63, ,
2, ,60, ,
3, ,62, ,
2, ,62, ,
2, ,61, ,
3, ,61, ,
2, ,62, ,
1, ,61, ,
3, ,62, ,
2, ,62, ,
2, ,61, ,
3, ,62, ,
2, ,62, ,
1, ,61, ,
3, ,62, ,
2, ,62, ,
2, ,61, ,
3, ,61, ,
2, ,62, ,
1, ,61, ,
3, ,62, ,
2, ,62, ,
2, ,61, ,
5, ,61, ,
8, ,63, ,
7, ,61, ,
7, ,62, ,
5, ,62, ,
3, ,62, ,
5, ,61, ,
3, ,62, ,
1, ,54, ,
3, ,35, ,
1, ,17, ,
2, ,5, ,
2, ,-4, ,
2, ,-12, ,
1, ,-16, ,
3, ,-20, ,
2, ,-23, ,
2, ,-25, ,
2, ,-27, ,
2, ,-28, ,
2, ,-30, ,
3, ,-30, ,
2, ,-31, ,
2, ,-31, ,
3, ,-31, ,
3, ,-32, ,
2, ,-31, ,
5, ,-32, ,
5, ,-32, ,
6, ,-32, ,
6, ,-32, ,
6, ,-32, ,
3, ,-32, ,
5, ,-32, ,
3, ,-32, ,
2, ,-32, ,
3, ,-32, ,
3, ,-32, ,
2, ,-32, ,
3, ,-32, ,
2, ,-32, ,
2, ,-32, ,
2, ,-32, ,
3, ,-32, ,
2, ,-32, ,
3, ,-32, ,
2, ,-32, ,
2, ,-31, ,
3, ,-32, ,
3, ,-32, ,
2, ,-31, ,
3, ,-32, ,
2, ,-32, ,
2, ,-32, ,
2, ,-32, ,
3, ,-32, ,
2, ,-32, ,
3, ,-32, ,
2, ,-32, ,
2, ,-32, ,
2, ,-32, ,
3, ,-32, ,
2, ,-31, ,
3, ,-31, ,
2, ,-32, ,
2, ,-32, ,
2, ,-31, ,
2, ,-32, ,
1, ,-32, ,
3, ,-31, ,
2, ,-32, ,
2, ,-32, ,
3, ,-32, ,
3, ,-32, ,
1, ,-31, ,
2, ,-31, ,
2, ,-32, ,
2, ,-32, ,
3, ,-31, ,
2, ,-31, ,
1, ,-32, ,
3, ,-31, ,
2, ,-31, ,
2, ,-32, ,
2, ,-32, ,
3, ,-32, ,
2, ,-31, ,
3, ,-31, ,
2, ,-32, ,
2, ,-32, ,
2, ,-31, ,
2, ,-31, ,
1, ,-32, ,
2, ,-32, ,
2, ,-31, ,
2, ,-31, ,
3, ,-31, ,
3, ,-32, ,
2, ,-31, ,
2, ,-31, ,
2, ,-31, ,
2, ,-31, ,
2, ,-31, ,
2, ,-31, ,
1, ,-31, ,
2, ,-31, ,
2, ,-31, ,
2, ,-32, ,
2, ,-32, ,
3, ,-32, ,
2, ,-31, ,
3, ,-31, ,
2, ,-32, ,
2, ,-31, ,
2, ,-32, ,
2, ,-31, ,
1, ,-31, ,
2, ,-31, ,
2, ,-31, ,
2, ,-31, ,
2, ,-31, ,
2, ,-32, ,
1, ,-31, ,
2, ,-31, ,
2, ,-31, ,
2, ,-31, ,
2, ,-31, ,
2, ,-31, ,
1, ,-32, ,
3, ,-31, ,
2, ,-31, ,
2, ,-32, ,
2, ,-31, ,
3, ,-32, ,
1, ,-31, ,
2, ,-31, ,
2, ,-32, ,
2, ,-31, ,
2, ,-31, ,
2, ,-31, ,
1, ,-32, ,
2, ,-31, ,
2, ,-31, ,
2, ,-31, ,
2, ,-31, ,
2, ,-31, ,
1, ,-31, ,
2, ,-31, ,
2, ,-32, ,
2, ,-32, ,
2, ,-31, ,
3, ,-31, ,
1, ,-31, ,
17, ,-31, ,
22, ,-31, ,
15, ,-32, ,
11, ,-31, ,
8, ,-32, ,
5, ,-31, ,
5, ,-31, ,
3, ,-31, ,
2, ,-31, ,
3, ,-32, ,
2, ,-32, ,
2, ,-31, ,
3, ,-31, ,
2, ,-31, ,
2, ,-31, ,
2, ,-31, ,
3, ,-32, ,
2, ,-31, ,
3, ,-31, ,
2, ,-31, ,
2, ,-31, ,
3, ,-31, ,
3, ,-31, ,
2, ,-31, ,
3, ,-31, ,
2, ,-31, ,
2, ,-31, ,
3, ,-31, ,
3, ,-32, ,
2, ,-31, ,
3, ,-31, ,
2, ,-31, ,
2, ,-31, ,
3, ,-31, ,
2, ,-31, ,
1, ,-32, ,
3, ,-31, ,
2, ,-31, ,
2, ,-31, ,
3, ,-31, ,
2, ,-32, ,
2, ,-31, ,
3, ,-31, ,
2, ,-31, ,
2, ,-31, ,
3, ,-31, ,
2, ,-31, ,
1, ,-31, ,
2, ,-31, ,
2, ,-31, ,
2, ,-32, ,
3, ,-31, ,
3, ,-32, ,
1, ,-31, ,
3, ,-31, ,
2, ,-32, ,
2, ,-31, ,
2, ,-32, ,
3, ,-31, ,
1, ,-31, ,
2, ,-32, ,
2, ,-31, ,
2, ,-31, ,
3, ,-31, ,
3, ,-32, ,
1, ,-31, ,
2, ,-31, ,
2, ,-31, ,
2, ,-31, ,
3, ,-31, ,
2, ,-32, ,
1, ,-32, ,
2, ,-31, ,
2, ,-31, ,
2, ,-31, ,
2, ,-31, ,
2, ,-32, ,
1, ,-31, ,
3, ,-31, ,
2, ,-31, ,
2, ,-31, ,
2, ,-31, ,
3, ,-31, ,
1, ,-31, ,
2, ,-31, ,
1, ,-31, ,
2, ,-31, ,
3, ,-31, ,
2, ,-31, ,
1, ,-31, ,
2, ,-31, ,
2, ,-31, ,
2, ,-31, ,
2, ,-31, ,
2, ,-31, ,
1, ,-31, ,
2, ,-31, ,
2, ,-31, ,
2, ,-31, ,
2, ,-31, ,
2, ,-32, ,
1, ,-31, ,
3, ,-31, ,
1, ,-32, ,
1, ,-32, ,
2, ,-31, ,
2, ,-32, ,
1, ,-31, ,
2, ,-31, ,
2, ,-31, ,
2, ,-31, ,
2, ,-31, ,
2, ,-31, ,
1, ,-31, ,
2, ,-31, ,
2, ,-31, ,
2, ,-31, ,
2, ,-31, ,
2, ,-32, ,
1, ,-32, ,
2, ,-31, ,
2, ,-31, ,
2, ,-31, ,
2, ,-32, ,
2, ,-32, ,
1, ,-31, ,
2, ,-31, ,
2, ,-32, ,
2, ,-32, ,
2, ,-31, ,
2, ,-31, ,
1, ,-31, ,
2, ,-31, ,
2, ,-31, ,
2, ,-31, ,
2, ,-31, ,
2, ,-32, ,
1, ,-31, ,
2, ,-31, ,
1, ,-31, ,
2, ,-31, ,
2, ,-31, ,
2, ,-31, ,
1, ,-32, ,
2, ,-31, ,
2, ,-31, ,
2, ,-32, ,
2, ,-31, ,
2, ,-32, ,
1, ,-31, ,
2, ,-31, ,
1, ,-32, ,
2, ,-31, ,
2, ,-31, ,
2, ,-31, ,
1, ,-32, ,
2, ,-31, ,
2, ,-31, ,
2, ,-31, ,
2, ,-31, ,
2, ,-31, ,
1, ,-31, ,
2, ,-31, ,
1, ,-32, ,
2, ,-31, ,
2, ,-32, ,
2, ,-31, ,
1, ,-32, ,
2, ,-31, ,
2, ,-31, ,
2, ,-32, ,
2, ,-31, ,
2, ,-32, ,
1, ,-31, ,
2, ,-31, ,
2, ,-31, ,
2, ,-32, ,
2, ,-31, ,
2, ,-31, ,
1, ,-31, ,
2, ,-31, ,
1, ,-31, ,
1, ,-31, ,
2, ,-32, ,
2, ,-32, ,
1, ,-31, ,
2, ,-31, ,
1, ,-31, ,
2, ,-32, ,
2, ,-31, ,
2, ,-31, ,
1, ,-31, ,
2, ,-31, ,
2, ,-31, ,
2, ,-32, ,
2, ,-31, ,
2, ,-32, ,
1, ,-31, ,
2, ,-31, ,
1, ,-32, ,
1, ,-32, ,
2, ,-31, ,
2, ,-31, ,
1, ,-32, ,
2, ,-31, ,
2, ,-31, ,
2, ,-31, ,
2, ,-31, ,
2, ,-32, ,
1, ,-31, ,
2, ,-31, ,
1, ,-31, ,
1, ,-32, ,
2, ,-31, ,
2, ,-32, ,
1, ,-32, ,
2, ,-31, ,
1, ,-31, ,
1, ,-31, ,
2, ,-31, ,
2, ,-32, ,
1, ,-31, ,
2, ,-31, ,
1, ,-32, ,
1, ,-32, ,
2, ,-31, ,
2, ,-31, ,
1, ,-32, ,
2, ,-31, ,
1, ,-31, ,
2, ,-31, ,
2, ,-31, ,
2, ,-32, ,
1, ,-31, ,
2, ,-31, ,
1, ,-31, ,
1, ,-31, ,
2, ,-31, ,
2, ,-31, ,
1, ,-32, ,
2, ,-32, ,
1, ,-31, ,
2, ,-32, ,
2, ,-32, ,
2, ,-32, ,
1, ,-31, ,
2, ,-31, ,
1, ,-31, ,
1, ,-31, ,
2, ,-31, ,
1, ,-31, ,
1, ,-32, ,
2, ,-31, ,
1, ,-31, ,
1, ,-31, ,
2, ,-31, ,
2, ,-32, ,
1, ,-31, ,
2, ,-31, ,
1, ,-31, ,
2, ,-32, ,
2, ,-31, ,
1, ,-31, ,
1, ,-32, ,
2, ,-32, ,
1, ,-31, ,
2, ,-31, ,
2, ,-31, ,
2, ,-32, ,
1, ,-31, ,
2, ,-31, ,
1, ,-31, ,
1, ,-31, ,
2, ,-31, ,
2, ,-31, ,
1, ,-31, ,
2, ,-31, ,
1, ,-31, ,
1, ,-31, ,
2, ,-31, ,
2, ,-32, ,
1, ,-31, ,
2, ,-31, ,
1, ,-32, ,
1, ,-31, ,
2, ,-31, ,
2, ,-31, ,
1, ,-32, ,
2, ,-31, ,
1, ,-31, ,
1, ,-31, ,
2, ,-31, ,
1, ,-32, ,
1, ,-31, ,
2, ,-31, ,
1, ,-32, ,
2, ,-31, ,
2, ,-31, ,
2, ,-31, ,
1, ,-32, ,
2, ,-31, ,
1, ,-31, ,
1, ,-31, ,
2, ,-31, ,
1, ,-31, ,
1, ,-31, ,
2, ,-31, ,
1, ,-31, ,
1, ,-31, ,
2, ,-31, ,
1, ,-31, ,
1, ,-31, ,
2, ,-32, ,
1, ,-31, ,
1, ,-31, ,
2, ,-31, ,
1, ,-32, ,
1, ,-31, ,
2, ,-31, ,
1, ,-31, ,
1, ,-31, ,
2, ,-31, ,
2, ,-31, ,
1, ,-32, ,
2, ,-31, ,
1, ,-31, ,
1, ,-31, ,
2, ,-31, ,
1, ,-32, ,
1, ,-31, ,
2, ,-31, ,
1, ,-31, ,
1, ,-31, ,
2, ,-31, ,
2, ,-32, ,
1, ,-32, ,
2, ,-31, ,
1, ,-31, ,
1, ,-32, ,
2, ,-31, ,
1, ,-32, ,
1, ,-31, ,
2, ,-31, ,
1, ,-31, ,
1, ,-32, ,
1, ,-31, ,
1, ,-31, ,
-1, ,-32, ,
2, ,-31, ,
1, ,-31, ,
1, ,-31, ,
2, ,-31, ,
2, ,-31, ,
1, ,-31, ,
2, ,-31, ,
1, ,-32, ,
1, ,-31, ,
2, ,-31, ,
2, ,-31, ,
1, ,-32, ,
