src/varyamp_1558/temp0005257.CSV

Format,1.0B,
Memory Length,10000,Memory Length,10000,
IntpDistance,0,IntpDistance,0,
Trigger Address,4999,Trigger Address,4999,
Trigger Level,1.040E+00,Trigger Level,1.040E+00,
Source,CH1,Source,CH2,
Vertical Units,V,Vertical Units,V,
Vertical Units Div,0,Vertical Units Div,0,
Vertical Units Extend Div,16,Vertical Units Extend Div,16,
Label,,Label,,
Probe Type,0,Probe Type,0,
Probe Ratio,1.000e+01,Probe Ratio,1.000e+00,
Vertical Scale,5.000e-01,Vertical Scale,1.000e+00,
Vertical Position,-1.820e+00,Vertical Position,0.000e+00,
Horizontal Units,S,Horizontal Units,S,
Horizontal Scale,2.000E-05,Horizontal Scale,2.000E-05,
Horizontal Position,0.000E+00,Horizontal Position,0.000E+00,
Horizontal Mode,Main,Horizontal Mode,Main,
SincET Mode,Real Time,SincET Mode,Real Time,
Sampling Period,2.000e-08,Sampling Period,2.000e-08,
Horizontal Old Scale,2.000E-05,Horizontal Old Scale,2.000E-05,
Horizontal Old Position,0.000E+00,Horizontal Old Position,0.000E+00,
Firmware,V1.23,Firmware,V1.23,
Mode,Fast,Mode,Fast,
Waveform Data,,Waveform Data,,
1, ,-45, ,
-1, ,-46, ,
-1, ,-46, ,
1, ,-45, ,
1, ,-46, ,
-1, ,-46, ,
1, ,-45, ,
-1, ,-46, ,
-1, ,-46, ,
1, ,-46, ,
1, ,-46, ,
-1, ,-46, ,
1, ,-46, ,
-1, ,-46, ,
-1, ,-46, ,
1, ,-45, ,
1, ,-46, ,
-1, ,-46, ,
1, ,-45, ,
-1, ,-46, ,
-1, ,-46, ,
1, ,-45, ,
1, ,-46, ,
-1, ,-45, ,
1, ,-45, ,
-1, ,-46, ,
-1, ,-46, ,
1, ,-45, ,
1, ,-46, ,
-1, ,-46, ,
1, ,-46, ,
1, ,-46, ,
-1, ,-46, ,
1, ,-45, ,
1, ,-46, ,
-1, ,-46, ,
2, ,-45, ,
-1, ,-46, ,
-1, ,-46, ,
1, ,-46, ,
1, ,-46, ,
-1, ,-45, ,
1, ,-46, ,
-1, ,-46, ,
-1, ,-46, ,
1, ,-46, ,
1, ,-46, ,
-1, ,-46, ,
1, ,-46, ,
-1, ,-46, ,
-1, ,-46, ,
1, ,-46, ,
1, ,-46, ,
-1, ,-46, ,
1, ,-45, ,
-1, ,-46, ,
-1, ,-46, ,
1, ,-45, ,
1, ,-46, ,
-1, ,-45, ,
1, ,-46, ,
-1, ,-46, ,
-1, ,-46, ,
1, ,-46, ,
1, ,-46, ,
-1, ,-46, ,
1, ,-45, ,
-1, ,-46, ,
-1, ,-46, ,
1, ,-46, ,
1, ,-46, ,
-1, ,-45, ,
1, ,-45, ,
-1, ,-46, ,
-1, ,-46, ,
1, ,-46, ,
1, ,-46, ,
-1, ,-46, ,
1, ,-46, ,
-1, ,-46, ,
-1, ,-46, ,
1, ,-46, ,
1, ,-46, ,
-1, ,-46, ,
2, ,-46, ,
-1, ,-46, ,
-1, ,-46, ,
1, ,-45, ,
1, ,-46, ,
-1, ,-46, ,
1, ,-46, ,
-1, ,-46, ,
-1, ,-46, ,
1, ,-46, ,
1, ,-46, ,
-1, ,-45, ,
1, ,-45, ,
-1, ,-46, ,
-1, ,-46, ,
1, ,-46, ,
1, ,-46, ,
-1, ,-46, ,
1, ,-46, ,
-1, ,-46, ,
-1, ,-46, ,
1, ,-46, ,
1, ,-46, ,
-1, ,-46, ,
2, ,-46, ,
-1, ,-46, ,
-1, ,-46, ,
1, ,-46, ,
1, ,-46, ,
-1, ,-46, ,
1, ,-46, ,
-1, ,-46, ,
-1, ,-46, ,
1, ,-46, ,
1, ,-46, ,
-1, ,-46, ,
1, ,-45, ,
-1, ,-46, ,
-1, ,-46, ,
1, ,-46, ,
1, ,-46, ,
-1, ,-46, ,
1, ,-45, ,
-1, ,-46, ,
-1, ,-46, ,
1, ,-45, ,
1, ,-46, ,
-1, ,-46, ,
1, ,-46, ,
-1, ,-46, ,
-1, ,-46, ,
1, ,-46, ,
1, ,-46, ,
-1, ,-46, ,
1, ,-46, ,
-1, ,-46, ,
-1, ,-46, ,
1, ,-46, ,
1, ,-46, ,
-1, ,-46, ,
1, ,-46, ,
-1, ,-46, ,
-1, ,-46, ,
1, ,-46, ,
1, ,-46, ,
-1, ,-46, ,
1, ,-46, ,
-1, ,-46, ,
-1, ,-46, ,
1, ,-46, ,
1, ,-46, ,
-1, ,-46, ,
1, ,-45, ,
-1, ,-46, ,
-1, ,-46, ,
1, ,-46, ,
1, ,-46, ,
-1, ,-46, ,
1, ,-46, ,
-1, ,-46, ,
-1, ,-46, ,
1, ,-46, ,
1, ,-46, ,
-1, ,-45, ,
2, ,-46, ,
-1, ,-46, ,
-1, ,-46, ,
1, ,-46, ,
1, ,-46, ,
-1, ,-46, ,
1, ,-46, ,
-1, ,-46, ,
-1, ,-46, ,
1, ,-46, ,
1, ,-46, ,
-1, ,-46, ,
1, ,-46, ,
-1, ,-46, ,
-1, ,-46, ,
1, ,-45, ,
1, ,-46, ,
-1, ,-46, ,
1, ,-46, ,
-1, ,-46, ,
-1, ,-46, ,
1, ,-45, ,
1, ,-46, ,
-1, ,-46, ,
1, ,-46, ,
-1, ,-45, ,
-1, ,-46, ,
1, ,-46, ,
1, ,-46, ,
-1, ,-46, ,
1, ,-46, ,
1, ,-46, ,
-1, ,-46, ,
1, ,-45, ,
1, ,-46, ,
-1, ,-46, ,
1, ,-45, ,
-1, ,-46, ,
-1, ,-45, ,
1, ,-46, ,
1, ,-46, ,
-1, ,-46, ,
1, ,-46, ,
-1, ,-46, ,
-1, ,-46, ,
1, ,-46, ,
1, ,-46, ,
-1, ,-45, ,
1, ,-46, ,
-1, ,-46, ,
-1, ,-46, ,
1, ,-46, ,
1, ,-46, ,
-1, ,-46, ,
1, ,-46, ,
-1, ,-46, ,
-1, ,-46, ,
1, ,-46, ,
1, ,-46, ,
-1, ,-46, ,
1, ,-46, ,
-1, ,-46, ,
95, ,-46, ,
64, ,-46, ,
38, ,-46, ,
24, ,-46, ,
16, ,-46, ,
10, ,-46, ,
6, ,-46, ,
6, ,-46, ,
3, ,-46, ,
2, ,-46, ,
3, ,-46, ,
2, ,-46, ,
1, ,-46, ,
2, ,-46, ,
2, ,-46, ,
1, ,-46, ,
3, ,-46, ,
2, ,-45, ,
2, ,-46, ,
3, ,-46, ,
3, ,-46, ,
1, ,-45, ,
3, ,-46, ,
2, ,-46, ,
1, ,-46, ,
3, ,-46, ,
2, ,-46, ,
1, ,-46, ,
3, ,-46, ,
2, ,-46, ,
1, ,-46, ,
3, ,-46, ,
3, ,-46, ,
1, ,-46, ,
3, ,-46, ,
2, ,-46, ,
1, ,-46, ,
3, ,-46, ,
2, ,-46, ,
1, ,-46, ,
3, ,-46, ,
2, ,-46, ,
1, ,-46, ,
3, ,-46, ,
2, ,-46, ,
1, ,-46, ,
3, ,-46, ,
2, ,-46, ,
1, ,-45, ,
3, ,-46, ,
2, ,-46, ,
1, ,-46, ,
3, ,-46, ,
2, ,-46, ,
1, ,-46, ,
3, ,-46, ,
3, ,-46, ,
1, ,-46, ,
3, ,-46, ,
2, ,-46, ,
1, ,-46, ,
3, ,-46, ,
2, ,-46, ,
1, ,-46, ,
3, ,-46, ,
2, ,-46, ,
1, ,-46, ,
2, ,-46, ,
2, ,-46, ,
1, ,-46, ,
3, ,-46, ,
2, ,-46, ,
1, ,-45, ,
2, ,-46, ,
2, ,-46, ,
1, ,-46, ,
3, ,-42, ,
2, ,-23, ,
2, ,-6, ,
3, ,8, ,
3, ,18, ,
2, ,25, ,
3, ,31, ,
1, ,35, ,
2, ,39, ,
2, ,41, ,
2, ,43, ,
1, ,44, ,
3, ,45, ,
2, ,46, ,
1, ,46, ,
2, ,46, ,
2, ,47, ,
1, ,46, ,
3, ,47, ,
1, ,47, ,
1, ,47, ,
3, ,47, ,
2, ,47, ,
1, ,47, ,
3, ,47, ,
2, ,47, ,
1, ,47, ,
2, ,47, ,
2, ,47, ,
1, ,47, ,
3, ,47, ,
2, ,47, ,
1, ,47, ,
2, ,46, ,
2, ,47, ,
1, ,46, ,
3, ,47, ,
2, ,47, ,
1, ,47, ,
2, ,47, ,
2, ,47, ,
1, ,46, ,
3, ,46, ,
2, ,47, ,
1, ,47, ,
2, ,46, ,
2, ,47, ,
1, ,46, ,
3, ,46, ,
2, ,47, ,
1, ,46, ,
2, ,46, ,
2, ,46, ,
1, ,46, ,
3, ,47, ,
2, ,47, ,
1, ,46, ,
2, ,46, ,
2, ,47, ,
1, ,46, ,
3, ,46, ,
2, ,46, ,
1, ,46, ,
2, ,46, ,
2, ,46, ,
1, ,46, ,
3, ,46, ,
1, ,46, ,
1, ,46, ,
2, ,46, ,
2, ,46, ,
1, ,46, ,
2, ,46, ,
1, ,47, ,
1, ,47, ,
2, ,46, ,
2, ,46, ,
1, ,46, ,
3, ,46, ,
1, ,46, ,
1, ,47, ,
2, ,46, ,
2, ,47, ,
1, ,46, ,
2, ,46, ,
1, ,46, ,
1, ,47, ,
3, ,46, ,
2, ,46, ,
1, ,46, ,
3, ,46, ,
1, ,46, ,
1, ,46, ,
2, ,46, ,
2, ,46, ,
1, ,46, ,
2, ,46, ,
1, ,47, ,
1, ,46, ,
2, ,46, ,
2, ,46, ,
1, ,46, ,
2, ,46, ,
1, ,46, ,
1, ,46, ,
2, ,46, ,
2, ,46, ,
1, ,46, ,
2, ,46, ,
1, ,46, ,
1, ,46, ,
2, ,46, ,
2, ,46, ,
1, ,46, ,
2, ,46, ,
1, ,46, ,
1, ,46, ,
2, ,46, ,
1, ,46, ,
1, ,46, ,
3, ,46, ,
1, ,46, ,
1, ,46, ,
2, ,46, ,
2, ,46, ,
1, ,46, ,
2, ,46, ,
1, ,46, ,
1, ,46, ,
2, ,46, ,
2, ,46, ,
1, ,46, ,
2, ,46, ,
1, ,46, ,
1, ,46, ,
2, ,46, ,
2, ,46, ,
1, ,46, ,
2, ,46, ,
1, ,46, ,
1, ,46, ,
2, ,46, ,
2, ,46, ,
1, ,46, ,
2, ,46, ,
1, ,46, ,
1, ,46, ,
3, ,46, ,
2, ,46, ,
1, ,46, ,
2, ,46, ,
1, ,47, ,
1, ,46, ,
2, ,46, ,
2, ,46, ,
1, ,32, ,
2, ,12, ,
1, ,-3, ,
1, ,-14, ,
2, ,-22, ,
1, ,-30, ,
-1, ,-34, ,
2, ,-37, ,
1, ,-40, ,
1, ,-41, ,
2, ,-42, ,
2, ,-44, ,
1, ,-44, ,
2, ,-45, ,
1, ,-46, ,
1, ,-46, ,
2, ,-46, ,
2, ,-47, ,
1, ,-46, ,
3, ,-47, ,
1, ,-47, ,
1, ,-46, ,
2, ,-46, ,
2, ,-46, ,
1, ,-46, ,
3, ,-46, ,
1, ,-46, ,
1, ,-46, ,
2, ,-46, ,
2, ,-47, ,
1, ,-46, ,
2, ,-46, ,
1, ,-46, ,
1, ,-46, ,
1, ,-46, ,
1, ,-46, ,
-1, ,-46, ,
2, ,-46, ,
1, ,-46, ,
1, ,-46, ,
2, ,-46, ,
1, ,-46, ,
-1, ,-45, ,
2, ,-46, ,
1, ,-46, ,
1, ,-46, ,
2, ,-46, ,
1, ,-46, ,
-1, ,-46, ,
2, ,-46, ,
1, ,-46, ,
1, ,-46, ,
2, ,-46, ,
2, ,-46, ,
-1, ,-46, ,
2, ,-46, ,
1, ,-46, ,
1, ,-45, ,
2, ,-45, ,
2, ,-46, ,
-1, ,-45, ,
2, ,-46, ,
1, ,-46, ,
1, ,-46, ,
2, ,-46, ,
2, ,-46, ,
-1, ,-46, ,
2, ,-46, ,
1, ,-46, ,
1, ,-46, ,
1, ,-46, ,
1, ,-46, ,
-1, ,-46, ,
2, ,-46, ,
1, ,-46, ,
1, ,-46, ,
2, ,-46, ,
1, ,-46, ,
1, ,-45, ,
2, ,-46, ,
-1, ,-46, ,
1, ,-46, ,
2, ,-45, ,
1, ,-46, ,
-1, ,-46, ,
2, ,-46, ,
1, ,-45, ,
-1, ,-46, ,
2, ,-46, ,
2, ,-46, ,
-1, ,-45, ,
2, ,-46, ,
1, ,-46, ,
1, ,-45, ,
2, ,-45, ,
1, ,-46, ,
-1, ,-45, ,
2, ,-46, ,
1, ,-45, ,
1, ,-46, ,
1, ,-46, ,
1, ,-46, ,
-1, ,-46, ,
2, ,-46, ,
1, ,-46, ,
1, ,-45, ,
2, ,-45, ,
1, ,-46, ,
-1, ,-46, ,
2, ,-46, ,
1, ,-45, ,
1, ,-46, ,
2, ,-45, ,
2, ,-46, ,
-1, ,-45, ,
2, ,-46, ,
1, ,-46, ,
1, ,-45, ,
2, ,-45, ,
2, ,-46, ,
-1, ,-46, ,
2, ,-46, ,
1, ,-46, ,
1, ,-45, ,
2, ,-46, ,
2, ,-46, ,
-1, ,-45, ,
2, ,-46, ,
1, ,-46, ,
1, ,-46, ,
1, ,-45, ,
1, ,-46, ,
-1, ,-46, ,
2, ,-46, ,
1, ,-46, ,
1, ,-46, ,
2, ,-45, ,
1, ,-46, ,
-1, ,-46, ,
2, ,-46, ,
1, ,-46, ,
1, ,-45, ,
1, ,-46, ,
2, ,-46, ,
-1, ,-46, ,
1, ,-46, ,
1, ,-46, ,
1, ,-46, ,
1, ,-45, ,
1, ,-46, ,
-1, ,-45, ,
2, ,-45, ,
1, ,-46, ,
1, ,-45, ,
1, ,-45, ,
1, ,-46, ,
-1, ,-46, ,
2, ,-46, ,
1, ,-45, ,
1, ,-46, ,
1, ,-46, ,
1, ,-46, ,
-1, ,-45, ,
2, ,-46, ,
1, ,-46, ,
1, ,-45, ,
1, ,-45, ,
1, ,-46, ,
-1, ,-45, ,
2, ,-46, ,
1, ,-46, ,
-1, ,-45, ,
1, ,-46, ,
1, ,-46, ,
-1, ,-46, ,
2, ,-46, ,
1, ,-46, ,
-1, ,-45, ,
1, ,-46, ,
1, ,-46, ,
-1, ,-46, ,
2, ,-46, ,
1, ,-46, ,
1, ,-45, ,
1, ,-45, ,
1, ,-46, ,
-1, ,-45, ,
2, ,-45, ,
1, ,-45, ,
-1, ,-45, ,
1, ,-45, ,
1, ,-46, ,
-1, ,-45, ,
2, ,-46, ,
1, ,-46, ,
-1, ,-46, ,
1, ,-46, ,
1, ,-46, ,
-1, ,-46, ,
2, ,-46, ,
1, ,-45, ,
1, ,-45, ,
2, ,-46, ,
1, ,-46, ,
-1, ,-46, ,
2, ,-46, ,
1, ,-45, ,
-1, ,-45, ,
1, ,-45, ,
2, ,-46, ,
-1, ,-45, ,
2, ,-46, ,
1, ,-46, ,
-1, ,-45, ,
1, ,-46, ,
1, ,-46, ,
-1, ,-46, ,
2, ,-46, ,
1, ,-45, ,
-1, ,-46, ,
1, ,-46, ,
1, ,-46, ,
-1, ,-46, ,
2, ,-46, ,
1, ,-46, ,
1, ,-45, ,
1, ,-45, ,
1, ,-46, ,
-1, ,-46, ,
2, ,-46, ,
1, ,-45, ,
-1, ,-46, ,
1, ,-46, ,
1, ,-46, ,
-1, ,-45, ,
2, ,-45, ,
1, ,-46, ,
1, ,-45, ,
2, ,-45, ,
1, ,-46, ,
-1, ,-46, ,
2, ,-46, ,
1, ,-45, ,
1, ,-46, ,
1, ,-46, ,
2, ,-46, ,
-1, ,-46, ,
2, ,-46, ,
1, ,-46, ,
-1, ,-45, ,
1, ,-45, ,
1, ,-46, ,
-1, ,-46, ,
2, ,-46, ,
1, ,-45, ,
-1, ,-46, ,
1, ,-46, ,
1, ,-46, ,
-1, ,-45, ,
2, ,-45, ,
1, ,-46, ,
1, ,-45, ,
1, ,-45, ,
1, ,-46, ,
-1, ,-46, ,
2, ,-46, ,
1, ,-46, ,
-1, ,-45, ,
1, ,-45, ,
1, ,-46, ,
-1, ,-45, ,
2, ,-46, ,
1, ,-46, ,
1, ,-45, ,
1, ,-45, ,
1, ,-46, ,
-1, ,-46, ,
2, ,-46, ,
1, ,-45, ,
-1, ,-46, ,
1, ,-46, ,
1, ,-46, ,
-1, ,-45, ,
2, ,-45, ,
1, ,-46, ,
-1, ,-46, ,
1, ,-46, ,
1, ,-46, ,
-1, ,-46, ,
2, ,-46, ,
1, ,-46, ,
-1, ,-45, ,
1, ,-45, ,
1, ,-46, ,
-1, ,-45, ,
2, ,-46, ,
-1, ,-46, ,
-1, ,-45, ,
1, ,-46, ,
1, ,-46, ,
-1, ,-46, ,
1, ,-46, ,
1, ,-45, ,
-1, ,-46, ,
1, ,-46, ,
1, ,-46, ,
-1, ,-46, ,
2, ,-45, ,
-1, ,-46, ,
-1, ,-46, ,
1, ,-45, ,
1, ,-46, ,
-1, ,-46, ,
1, ,-46, ,
-1, ,-46, ,
-1, ,-46, ,
1, ,-45, ,
1, ,-46, ,
-1, ,-45, ,
2, ,-46, ,
1, ,-46, ,
-1, ,-46, ,
1, ,-45, ,
1, ,-46, ,
-1, ,-46, ,
2, ,-46, ,
1, ,-45, ,
-1, ,-46, ,
1, ,-45, ,
1, ,-46, ,
-1, ,-45, ,
2, ,-45, ,
-1, ,-46, ,
-1, ,-46, ,
1, ,-45, ,
1, ,-46, ,
-1, ,-46, ,
2, ,-45, ,
1, ,-45, ,
-1, ,-46, ,
1, ,-45, ,
1, ,-46, ,
-1, ,-45, ,
1, ,-46, ,
-1, ,-46, ,
-1, ,-46, ,
1, ,-46, ,
1, ,-46, ,
-1, ,-46, ,
1, ,-45, ,
1, ,-46, ,
-1, ,-46, ,
1, ,-45, ,
1, ,-46, ,
-1, ,-45, ,
2, ,-46, ,
-1, ,-46, ,
-1, ,-46, ,
1, ,-46, ,
1, ,-46, ,
-1, ,-46, ,
1, ,-46, ,
1, ,-46, ,
-1, ,-46, ,
1, ,-46, ,
1, ,-46, ,
-1, ,-46, ,
2, ,-45, ,
1, ,-46, ,
-1, ,-46, ,
1, ,-46, ,
1, ,-46, ,
-1, ,-46, ,
1, ,-46, ,
1, ,-45, ,
-1, ,-46, ,
1, ,-46, ,
1, ,-46, ,
-1, ,-45, ,
2, ,-45, ,
-1, ,-45, ,
-1, ,-45, ,
1, ,-46, ,
1, ,-46, ,
-1, ,-46, ,
1, ,-46, ,
1, ,-45, ,
-1, ,-46, ,
1, ,-46, ,
1, ,-46, ,
-1, ,-45, ,
2, ,-45, ,
-1, ,-46, ,
-1, ,-46, ,
1, ,-46, ,
1, ,-46, ,
-1, ,-46, ,
2, ,-45, ,
1, ,-45, ,
-1, ,-46, ,
2, ,-46, ,
1, ,-46, ,
-1, ,-45, ,
2, ,-46, ,
-1, ,-46, ,
-1, ,-45, ,
1, ,-46, ,
1, ,-46, ,
-1, ,-45, ,
1, ,-45, ,
1, ,-45, ,
-1, ,-46, ,
1, ,-46, ,
1, ,-46, ,
-1, ,-46, ,
2, ,-46, ,
-1, ,-46, ,
-1, ,-45, ,
1, ,-46, ,
1, ,-46, ,
-1, ,-46, ,
1, ,-45, ,
1, ,-45, ,
-1, ,-46, ,
1, ,-45, ,
1, ,-46, ,
-1, ,-45, ,
2, ,-46, ,
-1, ,-46, ,
-1, ,-46, ,
1, ,-46, ,
1, ,-46, ,
-1, ,-46, ,
1, ,-46, ,
1, ,-45, ,
-1, ,-46, ,
1, ,-45, ,
1, ,-46, ,
-1, ,-46, ,
1, ,-45, ,
-1, ,-46, ,
-1, ,-46, ,
1, ,-45, ,
1, ,-46, ,
-1, ,-46, ,
2, ,-46, ,
-1, ,-46, ,
-1, ,-46, ,
1, ,-46, ,
1, ,-46, ,
-1, ,-45, ,
2, ,-46, ,
-1, ,-46, ,
-1, ,-46, ,
1, ,-46, ,
1, ,-46, ,
-1, ,-46, ,
2, ,-45, ,
-1, ,-46, ,
-1, ,-46, ,
1, ,-46, ,
1, ,-46, ,
-1, ,-46, ,
2, ,-46, ,
-1, ,-46, ,
-1, ,-46, ,
1, ,-46, ,
1, ,-46, ,
-1, ,-46, ,
1, ,-46, ,
-1, ,-46, ,
-1, ,-46, ,
1, ,-45, ,
1, ,-46, ,
-1, ,-46, ,
2, ,-45, ,
-1, ,-46, ,
-1, ,-46, ,
1, ,-46, ,
1, ,-46, ,
-1, ,-46, ,
1, ,-46, ,
-1, ,-46, ,
-1, ,-46, ,
1, ,-46, ,
1, ,-46, ,
-1, ,-46, ,
1, ,-45, ,
-1, ,-46, ,
-1, ,-46, ,
1, ,-46, ,
1, ,-46, ,
-1, ,-46, ,
1, ,-45, ,
-1, ,-46, ,
-1, ,-46, ,
1, ,-46, ,
1, ,-46, ,
-1, ,-45, ,
2, ,-45, ,
-1, ,-46, ,
-1, ,-46, ,
1, ,-45, ,
1, ,-46, ,
-1, ,-46, ,
1, ,-46, ,
-1, ,-46, ,
-1, ,-46, ,
1, ,-46, ,
1, ,-46, ,
-1, ,-46, ,
2, ,-45, ,
-1, ,-46, ,
-1, ,-46, ,
1, ,-46, ,
1, ,-46, ,
-1, ,-46, ,
2, ,-45, ,
1, ,-46, ,
-1, ,-46, ,
1, ,-45, ,
1, ,-46, ,
-1, ,-45, ,
2, ,-45, ,
-1, ,-46, ,
-1, ,-46, ,
1, ,-46, ,
1, ,-46, ,
-1, ,-46, ,
1, ,-46, ,
1, ,-46, ,
26, ,-46, ,
68, ,-46, ,
43, ,-46, ,
25, ,-46, ,
17, ,-46, ,
11, ,-46, ,
7, ,-46, ,
6, ,-46, ,
5, ,-46, ,
2, ,-46, ,
3, ,-46, ,
2, ,-46, ,
2, ,-46, ,
3, ,-46, ,
3, ,-46, ,
2, ,-45, ,
3, ,-46, ,
2, ,-46, ,
1, ,-45, ,
3, ,-45, ,
2, ,-46, ,
1, ,-46, ,
2, ,-45, ,
2, ,-46, ,
1, ,-46, ,
3, ,-46, ,
3, ,-46, ,
2, ,-46, ,
3, ,-46, ,
2, ,-46, ,
1, ,-45, ,
2, ,-45, ,
2, ,-46, ,
1, ,-46, ,
3, ,-46, ,
2, ,-46, ,
1, ,-45, ,
2, ,-46, ,
3, ,-46, ,
1, ,-46, ,
3, ,-46, ,
2, ,-46, ,
1, ,-46, ,
2, ,-45, ,
2, ,-46, ,
1, ,-46, ,
3, ,-45, ,
2, ,-46, ,
1, ,-46, ,
2, ,-46, ,
2, ,-46, ,
1, ,-46, ,
3, ,-45, ,
2, ,-46, ,
1, ,-46, ,
2, ,-46, ,
3, ,-46, ,
1, ,-46, ,
3, ,-46, ,
2, ,-46, ,
1, ,-46, ,
3, ,-46, ,
3, ,-46, ,
1, ,-46, ,
3, ,-46, ,
2, ,-46, ,
1, ,-46, ,
2, ,-45, ,
2, ,-46, ,
1, ,-46, ,
3, ,-46, ,
2, ,-46, ,
1, ,-46, ,
2, ,-46, ,
2, ,-46, ,
1, ,-45, ,
3, ,-46, ,
2, ,-46, ,
1, ,-46, ,
2, ,-46, ,
2, ,-46, ,
1, ,-46, ,
3, ,-45, ,
2, ,-46, ,
1, ,-46, ,
2, ,-46, ,
2, ,-46, ,
1, ,-46, ,
3, ,-45, ,
2, ,-46, ,
1, ,-46, ,
2, ,-46, ,
2, ,-46, ,
1, ,-46, ,
3, ,-46, ,
1, ,-44, ,
1, ,-30, ,
2, ,-11, ,
3, ,5, ,
1, ,16, ,
3, ,24, ,
2, ,30, ,
2, ,35, ,
2, ,38, ,
2, ,41, ,
1, ,42, ,
3, ,43, ,
2, ,45, ,
1, ,45, ,
3, ,46, ,
2, ,46, ,
1, ,46, ,
3, ,46, ,
2, ,47, ,
1, ,47, ,
2, ,47, ,
2, ,47, ,
1, ,47, ,
3, ,47, ,
1, ,47, ,
1, ,47, ,
2, ,47, ,
2, ,47, ,
1, ,47, ,
3, ,47, ,
1, ,47, ,
1, ,47, ,
2, ,47, ,
2, ,47, ,
1, ,46, ,
3, ,46, ,
2, ,47, ,
1, ,47, ,
2, ,47, ,
2, ,47, ,
1, ,46, ,
3, ,46, ,
1, ,47, ,
1, ,47, ,
2, ,47, ,
2, ,47, ,
1, ,46, ,
3, ,46, ,
1, ,46, ,
1, ,47, ,
2, ,47, ,
2, ,47, ,
1, ,46, ,
2, ,46, ,
1, ,46, ,
1, ,47, ,
2, ,46, ,
2, ,47, ,
1, ,46, ,
3, ,46, ,
2, ,46, ,
1, ,47, ,
2, ,46, ,
2, ,47, ,
1, ,46, ,
3, ,46, ,
1, ,46, ,
1, ,46, ,
2, ,46, ,
2, ,47, ,
1, ,46, ,
3, ,46, ,
1, ,46, ,
1, ,47, ,
2, ,46, ,
2, ,47, ,
1, ,46, ,
2, ,46, ,
1, ,46, ,
1, ,46, ,
2, ,46, ,
2, ,46, ,
1, ,46, ,
3, ,46, ,
1, ,47, ,
1, ,47, ,
2, ,46, ,
2, ,47, ,
1, ,46, ,
2, ,46, ,
1, ,46, ,
1, ,46, ,
2, ,46, ,
1, ,47, ,
1, ,46, ,
2, ,46, ,
1, ,47, ,
1, ,46, ,
1, ,46, ,
1, ,47, ,
-1, ,46, ,
2, ,46, ,
1, ,46, ,
1, ,46, ,
2, ,46, ,
1, ,46, ,
1, ,46, ,
2, ,46, ,
1, ,46, ,
1, ,47, ,
2, ,46, ,
2, ,46, ,
-1, ,46, ,
3, ,46, ,
1, ,46, ,
1, ,46, ,
2, ,46, ,
1, ,46, ,
-1, ,46, ,
2, ,46, ,
1, ,47, ,
1, ,46, ,
2, ,46, ,
1, ,46, ,
1, ,46, ,
2, ,46, ,
1, ,46, ,
1, ,46, ,
2, ,46, ,
1, ,46, ,
1, ,46, ,
2, ,46, ,
1, ,46, ,
1, ,46, ,
2, ,46, ,
2, ,47, ,
1, ,46, ,
3, ,46, ,
1, ,46, ,
1, ,46, ,
2, ,46, ,
1, ,47, ,
-1, ,46, ,
2, ,46, ,
2, ,46, ,
1, ,46, ,
2, ,46, ,
2, ,46, ,
1, ,46, ,
2, ,46, ,
1, ,47, ,
1, ,46, ,
2, ,46, ,
1, ,46, ,
-1, ,46, ,
2, ,37, ,
1, ,17, ,
-1, ,0, ,
2, ,-12, ,
1, ,-20, ,
-1, ,-27, ,
2, ,-32, ,
1, ,-36, ,
1, ,-39, ,
2, ,-41, ,
2, ,-43, ,
-1, ,-43, ,
2, ,-44, ,
1, ,-45, ,
1, ,-46, ,
2, ,-46, ,
2, ,-47, ,
-1, ,-46, ,
2, ,-46, ,
1, ,-46, ,
1, ,-46, ,
2, ,-46, ,
2, ,-47, ,
-1, ,-46, ,
2, ,-46, ,
1, ,-46, ,
1, ,-46, ,
2, ,-46, ,
2, ,-46, ,
-1, ,-46, ,
2, ,-46, ,
1, ,-46, ,
1, ,-46, ,
2, ,-46, ,
1, ,-46, ,
-1, ,-46, ,
2, ,-46, ,
1, ,-46, ,
1, ,-46, ,
2, ,-46, ,
2, ,-46, ,
-1, ,-46, ,
2, ,-46, ,
1, ,-46, ,
1, ,-46, ,
2, ,-46, ,
1, ,-46, ,
-1, ,-46, ,
2, ,-46, ,
1, ,-46, ,
1, ,-46, ,
2, ,-46, ,
2, ,-46, ,
-1, ,-46, ,
2, ,-46, ,
1, ,-46, ,
1, ,-46, ,
2, ,-46, ,
2, ,-46, ,
-1, ,-46, ,
2, ,-46, ,
1, ,-46, ,
1, ,-46, ,
1, ,-46, ,
2, ,-46, ,
-1, ,-46, ,
2, ,-46, ,
1, ,-46, ,
1, ,-46, ,
2, ,-46, ,
1, ,-46, ,
-1, ,-46, ,
2, ,-46, ,
1, ,-46, ,
-1, ,-46, ,
2, ,-46, ,
2, ,-46, ,
-1, ,-46, ,
2, ,-46, ,
1, ,-46, ,
1, ,-46, ,
1, ,-45, ,
1, ,-46, ,
-1, ,-46, ,
2, ,-46, ,
1, ,-46, ,
-1, ,-46, ,
2, ,-46, ,
1, ,-46, ,
-1, ,-46, ,
2, ,-46, ,
1, ,-46, ,
1, ,-46, ,
1, ,-46, ,
2, ,-46, ,
-1, ,-46, ,
2, ,-45, ,
1, ,-46, ,
-1, ,-46, ,
1, ,-46, ,
1, ,-46, ,
-1, ,-45, ,
2, ,-45, ,
1, ,-46, ,
-1, ,-45, ,
2, ,-46, ,
1, ,-46, ,
-1, ,-46, ,
1, ,-46, ,
1, ,-46, ,
-1, ,-46, ,
1, ,-46, ,
1, ,-46, ,
-1, ,-46, ,
2, ,-45, ,
1, ,-46, ,
-1, ,-46, ,
1, ,-46, ,
1, ,-46, ,
-1, ,-46, ,
2, ,-45, ,
1, ,-46, ,
-1, ,-46, ,
1, ,-46, ,
1, ,-46, ,
-1, ,-45, ,
2, ,-45, ,
1, ,-46, ,
-1, ,-46, ,
1, ,-46, ,
1, ,-46, ,
-1, ,-46, ,
2, ,-45, ,
1, ,-46, ,
1, ,-46, ,
2, ,-46, ,
1, ,-46, ,
-1, ,-45, ,
2, ,-45, ,
1, ,-46, ,
-1, ,-46, ,
1, ,-46, ,
2, ,-46, ,
-1, ,-46, ,
2, ,-46, ,
1, ,-46, ,
-1, ,-46, ,
2, ,-46, ,
1, ,-46, ,
-1, ,-45, ,
2, ,-46, ,
1, ,-46, ,
1, ,-46, ,
1, ,-46, ,
1, ,-46, ,
-1, ,-46, ,
2, ,-45, ,
1, ,-45, ,
-1, ,-46, ,
1, ,-46, ,
1, ,-46, ,
-1, ,-46, ,
2, ,-46, ,
1, ,-46, ,
1, ,-45, ,
1, ,-46, ,
1, ,-46, ,
-1, ,-46, ,
2, ,-46, ,
1, ,-46, ,
-1, ,-46, ,
2, ,-46, ,
1, ,-46, ,
-1, ,-45, ,
2, ,-45, ,
1, ,-46, ,
1, ,-46, ,
1, ,-46, ,
1, ,-46, ,
-1, ,-46, ,
2, ,-45, ,
1, ,-45, ,
1, ,-46, ,
1, ,-46, ,
2, ,-46, ,
-1, ,-46, ,
2, ,-45, ,
1, ,-46, ,
1, ,-46, ,
2, ,-46, ,
1, ,-46, ,
-1, ,-46, ,
2, ,-46, ,
1, ,-46, ,
-1, ,-46, ,
1, ,-46, ,
1, ,-46, ,
-1, ,-45, ,
2, ,-45, ,
1, ,-46, ,
-1, ,-46, ,
2, ,-46, ,
1, ,-46, ,
-1, ,-46, ,
1, ,-45, ,
1, ,-46, ,
-1, ,-46, ,
1, ,-46, ,
2, ,-46, ,
-1, ,-46, ,
2, ,-46, ,
1, ,-46, ,
-1, ,-46, ,
1, ,-45, ,
1, ,-46, ,
-1, ,-46, ,
1, ,-46, ,
1, ,-46, ,
-1, ,-46, ,
1, ,-46, ,
1, ,-46, ,
-1, ,-45, ,
2, ,-45, ,
-1, ,-46, ,
-1, ,-46, ,
1, ,-45, ,
1, ,-46, ,
-1, ,-45, ,
2, ,-45, ,
1, ,-46, ,
-1, ,-46, ,
1, ,-46, ,
1, ,-46, ,
-1, ,-46, ,
1, ,-46, ,
-1, ,-46, ,
-1, ,-45, ,
1, ,-46, ,
1, ,-46, ,
-1, ,-45, ,
2, ,-45, ,
1, ,-46, ,
-1, ,-46, ,
1, ,-46, ,
1, ,-46, ,
-1, ,-45, ,
2, ,-45, ,
-1, ,-46, ,
-1, ,-46, ,
1, ,-45, ,
1, ,-46, ,
-1, ,-46, ,
2, ,-46, ,
-1, ,-46, ,
-1, ,-46, ,
2, ,-46, ,
1, ,-46, ,
-1, ,-46, ,
2, ,-46, ,
1, ,-46, ,
-1, ,-46, ,
10, ,-45, ,
62, ,-46, ,
39, ,-45, ,
25, ,-45, ,
16, ,-46, ,
10, ,-46, ,
8, ,-46, ,
6, ,-46, ,
5, ,-45, ,
6, ,-46, ,
3, ,-46, ,
2, ,-46, ,
3, ,-46, ,
3, ,-46, ,
1, ,-46, ,
3, ,-46, ,
2, ,-45, ,
2, ,-46, ,
3, ,-46, ,
3, ,-46, ,
1, ,-45, ,
3, ,-46, ,
2, ,-46, ,
2, ,-46, ,
2, ,-46, ,
3, ,-46, ,
2, ,-46, ,
3, ,-46, ,
2, ,-46, ,
2, ,-46, ,
3, ,-46, ,
3, ,-46, ,
1, ,-45, ,
3, ,-45, ,
2, ,-46, ,
2, ,-46, ,
2, ,-46, ,
2, ,-46, ,
2, ,-46, ,
3, ,-46, ,
2, ,-45, ,
1, ,-46, ,
3, ,-46, ,
3, ,-46, ,
1, ,-46, ,
3, ,-45, ,
2, ,-46, ,
2, ,-46, ,
3, ,-46, ,
2, ,-46, ,
1, ,-45, ,
3, ,-45, ,
2, ,-46, ,
1, ,-46, ,
3, ,-45, ,
3, ,-46, ,
1, ,-45, ,
3, ,-45, ,
2, ,-46, ,
1, ,-46, ,
2, ,-45, ,
3, ,-46, ,
1, ,-46, ,
3, ,-46, ,
2, ,-46, ,
1, ,-46, ,
2, ,-46, ,
3, ,-46, ,
1, ,-45, ,
3, ,-45, ,
2, ,-46, ,
1, ,-45, ,
3, ,-45, ,
3, ,-46, ,
1, ,-46, ,
2, ,-46, ,
1, ,-46, ,
1, ,-46, ,
2, ,-46, ,
2, ,-46, ,
1, ,-45, ,
3, ,-45, ,
1, ,-46, ,
1, ,-46, ,
2, ,-46, ,
2, ,-46, ,
1, ,-45, ,
3, ,-45, ,
2, ,-46, ,
1, ,-46, ,
2, ,-46, ,
2, ,-46, ,
1, ,-45, ,
3, ,-46, ,
1, ,-46, ,
1, ,-46, ,
2, ,-46, ,
2, ,-46, ,
1, ,-46, ,
3, ,-45, ,
2, ,-46, ,
1, ,-46, ,
2, ,-45, ,
2, ,-46, ,
1, ,-45, ,
3, ,-46, ,
1, ,-46, ,
1, ,-46, ,
2, ,-46, ,
2, ,-46, ,
1, ,-46, ,
2, ,-46, ,
1, ,-46, ,
1, ,-46, ,
2, ,-46, ,
2, ,-46, ,
1, ,-45, ,
3, ,-46, ,
1, ,-46, ,
1, ,-46, ,
2, ,-45, ,
2, ,-46, ,
1, ,-46, ,
3, ,-46, ,
2, ,-46, ,
1, ,-46, ,
2, ,-46, ,
2, ,-46, ,
1, ,-45, ,
2, ,-46, ,
1, ,-46, ,
1, ,-46, ,
2, ,-46, ,
2, ,-46, ,
1, ,-46, ,
3, ,-46, ,
2, ,-46, ,
1, ,-46, ,
3, ,-46, ,
2, ,-46, ,
1, ,-46, ,
3, ,-46, ,
1, ,-46, ,
1, ,-46, ,
2, ,-46, ,
2, ,-46, ,
1, ,-46, ,
3, ,-46, ,
1, ,-46, ,
1, ,-46, ,
2, ,-46, ,
2, ,-46, ,
1, ,-46, ,
3, ,-46, ,
2, ,-46, ,
1, ,-46, ,
2, ,-46, ,
2, ,-46, ,
1, ,-46, ,
3, ,-46, ,
1, ,-46, ,
1, ,-46, ,
2, ,-46, ,
2, ,-46, ,
1, ,-46, ,
3, ,-46, ,
2, ,-46, ,
1, ,-46, ,
2, ,-46, ,
2, ,-46, ,
1, ,-46, ,
2, ,-46, ,
1, ,-46, ,
1, ,-46, ,
2, ,-46, ,
2, ,-46, ,
1, ,-45, ,
3, ,-46, ,
1, ,-46, ,
1, ,-46, ,
2, ,-45, ,
2, ,-46, ,
1, ,-46, ,
2, ,-46, ,
1, ,-46, ,
1, ,-46, ,
2, ,-46, ,
2, ,-46, ,
1, ,-45, ,
3, ,-46, ,
1, ,-46, ,
1, ,-45, ,
2, ,-46, ,
2, ,-46, ,
1, ,-46, ,
3, ,-46, ,
1, ,-46, ,
1, ,-46, ,
2, ,-46, ,
2, ,-46, ,
1, ,-45, ,
3, ,-46, ,
1, ,-46, ,
1, ,-45, ,
2, ,-46, ,
2, ,-46, ,
1, ,-46, ,
2, ,-45, ,
1, ,-46, ,
1, ,-45, ,
2, ,-46, ,
2, ,-46, ,
1, ,-45, ,
3, ,-46, ,
1, ,-46, ,
