src/varyamp_1558/temp0002912.CSV

Format,1.0B,
Memory Length,10000,Memory Length,10000,
IntpDistance,0,IntpDistance,0,
Trigger Address,4999,Trigger Address,4999,
Trigger Level,1.040E+00,Trigger Level,1.040E+00,
Source,CH1,Source,CH2,
Vertical Units,V,Vertical Units,V,
Vertical Units Div,0,Vertical Units Div,0,
Vertical Units Extend Div,16,Vertical Units Extend Div,16,
Label,,Label,,
Probe Type,0,Probe Type,0,
Probe Ratio,1.000e+01,Probe Ratio,1.000e+00,
Vertical Scale,5.000e-01,Vertical Scale,1.000e+00,
Vertical Position,-1.820e+00,Vertical Position,0.000e+00,
Horizontal Units,S,Horizontal Units,S,
Horizontal Scale,2.000E-05,Horizontal Scale,2.000E-05,
Horizontal Position,0.000E+00,Horizontal Position,0.000E+00,
Horizontal Mode,Main,Horizontal Mode,Main,
SincET Mode,Real Time,SincET Mode,Real Time,
Sampling Period,2.000e-08,Sampling Period,2.000e-08,
Horizontal Old Scale,2.000E-05,Horizontal Old Scale,2.000E-05,
Horizontal Old Position,0.000E+00,Horizontal Old Position,0.000E+00,
Firmware,V1.23,Firmware,V1.23,
Mode,Fast,Mode,Fast,
Waveform Data,,Waveform Data,,
2, ,-32, ,
1, ,-32, ,
3, ,-32, ,
1, ,-33, ,
1, ,-33, ,
2, ,-32, ,
2, ,-32, ,
1, ,-32, ,
3, ,-32, ,
1, ,-32, ,
1, ,-32, ,
2, ,-32, ,
2, ,-32, ,
1, ,-32, ,
3, ,-32, ,
1, ,-33, ,
1, ,-32, ,
2, ,-32, ,
2, ,-32, ,
1, ,-32, ,
3, ,-32, ,
2, ,-33, ,
1, ,-32, ,
2, ,-33, ,
2, ,-32, ,
1, ,-32, ,
3, ,-32, ,
1, ,-33, ,
1, ,-33, ,
2, ,-32, ,
2, ,-32, ,
1, ,-32, ,
3, ,-33, ,
2, ,-32, ,
1, ,-32, ,
2, ,-33, ,
2, ,-32, ,
1, ,-32, ,
2, ,-32, ,
1, ,-33, ,
1, ,-33, ,
2, ,-32, ,
2, ,-32, ,
1, ,-32, ,
3, ,-33, ,
1, ,-33, ,
1, ,-32, ,
2, ,-32, ,
2, ,-32, ,
1, ,-32, ,
3, ,-32, ,
1, ,-33, ,
1, ,-32, ,
2, ,-32, ,
2, ,-32, ,
1, ,-32, ,
3, ,-33, ,
2, ,-33, ,
1, ,-32, ,
2, ,-33, ,
2, ,-32, ,
1, ,-32, ,
3, ,-32, ,
1, ,-33, ,
1, ,-32, ,
2, ,-32, ,
2, ,-32, ,
-1, ,-32, ,
3, ,-33, ,
1, ,-33, ,
1, ,-32, ,
2, ,-33, ,
2, ,-32, ,
1, ,-32, ,
3, ,-32, ,
1, ,-32, ,
1, ,-32, ,
2, ,-32, ,
2, ,-32, ,
-1, ,-32, ,
3, ,-33, ,
1, ,-32, ,
1, ,-32, ,
2, ,-33, ,
2, ,-32, ,
1, ,-32, ,
2, ,-32, ,
1, ,-33, ,
1, ,-32, ,
2, ,-32, ,
2, ,-32, ,
1, ,-32, ,
3, ,-33, ,
1, ,-33, ,
1, ,-32, ,
2, ,-33, ,
2, ,-32, ,
1, ,-32, ,
3, ,-32, ,
1, ,-33, ,
1, ,-32, ,
2, ,-32, ,
2, ,-33, ,
-1, ,-32, ,
3, ,-33, ,
1, ,-33, ,
1, ,-32, ,
2, ,-33, ,
2, ,-32, ,
1, ,-33, ,
2, ,-32, ,
1, ,-32, ,
1, ,-32, ,
2, ,-32, ,
2, ,-32, ,
-1, ,-32, ,
2, ,-33, ,
1, ,-33, ,
1, ,-32, ,
2, ,-33, ,
2, ,-32, ,
-1, ,-32, ,
2, ,-32, ,
1, ,-33, ,
1, ,-32, ,
2, ,-33, ,
2, ,-32, ,
-1, ,-32, ,
2, ,-33, ,
1, ,-33, ,
1, ,-32, ,
2, ,-33, ,
2, ,-32, ,
-1, ,-32, ,
2, ,-32, ,
1, ,-32, ,
1, ,-32, ,
2, ,-32, ,
2, ,-32, ,
-1, ,-32, ,
2, ,-32, ,
1, ,-32, ,
1, ,-32, ,
2, ,-32, ,
2, ,-32, ,
-1, ,-32, ,
2, ,-32, ,
1, ,-33, ,
1, ,-33, ,
2, ,-32, ,
2, ,-33, ,
-1, ,-32, ,
2, ,-33, ,
1, ,-32, ,
1, ,-32, ,
2, ,-32, ,
2, ,-32, ,
-1, ,-32, ,
2, ,-32, ,
1, ,-33, ,
1, ,-33, ,
2, ,-33, ,
2, ,-32, ,
-1, ,-32, ,
2, ,-33, ,
1, ,-32, ,
1, ,-32, ,
2, ,-33, ,
2, ,-32, ,
-1, ,-32, ,
2, ,-32, ,
1, ,-32, ,
1, ,-32, ,
2, ,-32, ,
2, ,-32, ,
-1, ,-32, ,
2, ,-32, ,
1, ,-32, ,
1, ,-32, ,
2, ,-33, ,
2, ,-32, ,
-1, ,-32, ,
2, ,-32, ,
1, ,-33, ,
1, ,-33, ,
2, ,-32, ,
2, ,-32, ,
-1, ,-32, ,
2, ,-33, ,
1, ,-32, ,
1, ,-32, ,
2, ,-33, ,
2, ,-32, ,
-1, ,-32, ,
2, ,-32, ,
1, ,-32, ,
1, ,-32, ,
2, ,-32, ,
2, ,-33, ,
-1, ,-32, ,
2, ,-33, ,
1, ,-32, ,
1, ,-32, ,
2, ,-32, ,
2, ,-32, ,
-1, ,-32, ,
2, ,-32, ,
1, ,-33, ,
1, ,-32, ,
2, ,-32, ,
2, ,-33, ,
-1, ,-32, ,
2, ,-32, ,
1, ,-32, ,
1, ,-32, ,
2, ,-32, ,
2, ,-32, ,
-1, ,-32, ,
2, ,-32, ,
1, ,-33, ,
1, ,-33, ,
2, ,-32, ,
2, ,-32, ,
-1, ,-32, ,
2, ,-32, ,
1, ,-33, ,
1, ,-32, ,
2, ,-33, ,
2, ,-32, ,
-1, ,-32, ,
2, ,-32, ,
1, ,-32, ,
1, ,-32, ,
2, ,-32, ,
1, ,-32, ,
-1, ,-32, ,
2, ,-32, ,
1, ,-32, ,
1, ,-32, ,
1, ,-33, ,
1, ,-32, ,
-1, ,-32, ,
2, ,-32, ,
1, ,-32, ,
1, ,-33, ,
2, ,-32, ,
1, ,-33, ,
-1, ,-32, ,
2, ,-33, ,
1, ,-33, ,
1, ,-32, ,
2, ,-33, ,
1, ,-32, ,
-1, ,-33, ,
2, ,-32, ,
1, ,-32, ,
1, ,-33, ,
2, ,-32, ,
2, ,-32, ,
-1, ,-32, ,
2, ,-32, ,
1, ,-33, ,
1, ,-32, ,
2, ,-33, ,
1, ,-32, ,
-1, ,-33, ,
2, ,-32, ,
1, ,-33, ,
1, ,-32, ,
1, ,-32, ,
1, ,-32, ,
-1, ,-32, ,
2, ,-33, ,
1, ,-33, ,
1, ,-32, ,
1, ,-33, ,
1, ,-32, ,
-1, ,-32, ,
2, ,-32, ,
1, ,-33, ,
-1, ,-33, ,
2, ,-32, ,
1, ,-33, ,
-1, ,-32, ,
2, ,-32, ,
1, ,-33, ,
1, ,-32, ,
2, ,-33, ,
1, ,-32, ,
-1, ,-33, ,
2, ,-32, ,
1, ,-32, ,
1, ,-32, ,
2, ,-33, ,
2, ,-32, ,
-1, ,-32, ,
2, ,-33, ,
1, ,-33, ,
1, ,-32, ,
2, ,-33, ,
2, ,-32, ,
-1, ,-32, ,
2, ,-32, ,
1, ,-32, ,
-1, ,-33, ,
2, ,-32, ,
1, ,-32, ,
-1, ,-31, ,
2, ,-16, ,
1, ,4, ,
1, ,19, ,
2, ,30, ,
1, ,37, ,
-1, ,43, ,
2, ,47, ,
1, ,52, ,
-1, ,55, ,
2, ,56, ,
1, ,57, ,
-1, ,58, ,
2, ,58, ,
1, ,60, ,
1, ,60, ,
1, ,61, ,
1, ,60, ,
-1, ,61, ,
2, ,60, ,
1, ,61, ,
-1, ,61, ,
2, ,61, ,
1, ,61, ,
-1, ,62, ,
2, ,60, ,
1, ,61, ,
1, ,61, ,
2, ,61, ,
1, ,61, ,
-1, ,61, ,
2, ,61, ,
1, ,61, ,
-1, ,61, ,
2, ,61, ,
1, ,61, ,
-1, ,61, ,
1, ,60, ,
1, ,61, ,
-1, ,61, ,
2, ,61, ,
1, ,60, ,
-1, ,61, ,
1, ,60, ,
-1, ,61, ,
-1, ,61, ,
2, ,60, ,
1, ,61, ,
-1, ,61, ,
66, ,59, ,
53, ,61, ,
31, ,61, ,
21, ,61, ,
13, ,60, ,
7, ,61, ,
7, ,60, ,
3, ,61, ,
2, ,61, ,
5, ,61, ,
2, ,61, ,
2, ,61, ,
3, ,60, ,
2, ,61, ,
2, ,61, ,
3, ,61, ,
2, ,60, ,
1, ,61, ,
3, ,60, ,
2, ,60, ,
1, ,61, ,
3, ,61, ,
2, ,60, ,
1, ,61, ,
3, ,60, ,
2, ,60, ,
1, ,61, ,
3, ,61, ,
2, ,60, ,
1, ,61, ,
3, ,60, ,
2, ,61, ,
1, ,61, ,
3, ,61, ,
2, ,60, ,
1, ,61, ,
3, ,60, ,
2, ,60, ,
1, ,61, ,
3, ,61, ,
2, ,60, ,
1, ,61, ,
3, ,60, ,
2, ,61, ,
1, ,61, ,
2, ,61, ,
2, ,60, ,
1, ,61, ,
3, ,60, ,
2, ,60, ,
1, ,61, ,
3, ,60, ,
2, ,60, ,
1, ,61, ,
10, ,60, ,
11, ,60, ,
8, ,61, ,
8, ,61, ,
6, ,60, ,
3, ,61, ,
5, ,60, ,
2, ,60, ,
2, ,61, ,
3, ,61, ,
2, ,60, ,
1, ,61, ,
3, ,60, ,
2, ,61, ,
1, ,61, ,
3, ,61, ,
2, ,61, ,
1, ,61, ,
3, ,60, ,
2, ,60, ,
2, ,61, ,
3, ,60, ,
2, ,61, ,
1, ,61, ,
3, ,60, ,
2, ,61, ,
1, ,61, ,
3, ,60, ,
2, ,60, ,
1, ,61, ,
3, ,60, ,
2, ,61, ,
3, ,61, ,
8, ,61, ,
6, ,60, ,
5, ,61, ,
6, ,60, ,
3, ,61, ,
2, ,61, ,
3, ,60, ,
3, ,60, ,
1, ,61, ,
3, ,60, ,
1, ,60, ,
2, ,61, ,
3, ,61, ,
2, ,60, ,
1, ,61, ,
3, ,59, ,
2, ,60, ,
2, ,61, ,
3, ,60, ,
2, ,54, ,
1, ,35, ,
3, ,17, ,
1, ,5, ,
1, ,-5, ,
3, ,-12, ,
2, ,-17, ,
2, ,-21, ,
6, ,-24, ,
5, ,-26, ,
5, ,-28, ,
6, ,-30, ,
5, ,-31, ,
2, ,-32, ,
5, ,-32, ,
2, ,-32, ,
2, ,-33, ,
3, ,-33, ,
3, ,-33, ,
1, ,-33, ,
3, ,-33, ,
2, ,-33, ,
2, ,-33, ,
3, ,-33, ,
2, ,-33, ,
1, ,-33, ,
3, ,-33, ,
2, ,-33, ,
2, ,-33, ,
3, ,-33, ,
2, ,-33, ,
1, ,-33, ,
3, ,-33, ,
2, ,-33, ,
1, ,-33, ,
3, ,-33, ,
3, ,-33, ,
1, ,-33, ,
3, ,-33, ,
2, ,-33, ,
2, ,-33, ,
2, ,-33, ,
3, ,-32, ,
1, ,-33, ,
3, ,-32, ,
2, ,-32, ,
1, ,-33, ,
3, ,-33, ,
3, ,-33, ,
1, ,-33, ,
3, ,-33, ,
2, ,-32, ,
1, ,-33, ,
3, ,-33, ,
2, ,-32, ,
1, ,-33, ,
3, ,-32, ,
2, ,-33, ,
1, ,-32, ,
3, ,-32, ,
2, ,-32, ,
1, ,-32, ,
3, ,-33, ,
2, ,-33, ,
2, ,-33, ,
2, ,-33, ,
2, ,-32, ,
1, ,-33, ,
3, ,-33, ,
2, ,-33, ,
1, ,-33, ,
3, ,-32, ,
2, ,-32, ,
1, ,-32, ,
3, ,-32, ,
2, ,-32, ,
1, ,-32, ,
2, ,-33, ,
2, ,-32, ,
1, ,-33, ,
3, ,-32, ,
2, ,-33, ,
1, ,-33, ,
2, ,-32, ,
2, ,-33, ,
1, ,-32, ,
3, ,-33, ,
2, ,-32, ,
1, ,-32, ,
3, ,-32, ,
2, ,-32, ,
1, ,-32, ,
3, ,-32, ,
2, ,-33, ,
1, ,-32, ,
3, ,-32, ,
2, ,-32, ,
1, ,-32, ,
3, ,-33, ,
2, ,-32, ,
2, ,-32, ,
3, ,-33, ,
2, ,-32, ,
1, ,-32, ,
3, ,-32, ,
2, ,-32, ,
1, ,-33, ,
2, ,-32, ,
2, ,-32, ,
1, ,-33, ,
3, ,-32, ,
2, ,-33, ,
1, ,-32, ,
2, ,-33, ,
2, ,-32, ,
1, ,-32, ,
3, ,-32, ,
2, ,-32, ,
1, ,-32, ,
3, ,-32, ,
2, ,-32, ,
1, ,-32, ,
3, ,-32, ,
2, ,-33, ,
1, ,-32, ,
2, ,-32, ,
2, ,-32, ,
1, ,-32, ,
3, ,-32, ,
1, ,-33, ,
1, ,-33, ,
2, ,-32, ,
2, ,-32, ,
1, ,-32, ,
3, ,-32, ,
2, ,-32, ,
2, ,-32, ,
2, ,-32, ,
2, ,-32, ,
1, ,-32, ,
3, ,-32, ,
1, ,-33, ,
1, ,-32, ,
3, ,-32, ,
2, ,-32, ,
1, ,-32, ,
3, ,-32, ,
2, ,-33, ,
2, ,-32, ,
2, ,-33, ,
2, ,-32, ,
1, ,-32, ,
3, ,-32, ,
1, ,-33, ,
1, ,-32, ,
2, ,-32, ,
2, ,-32, ,
1, ,-32, ,
2, ,-32, ,
1, ,-32, ,
2, ,-32, ,
2, ,-32, ,
2, ,-32, ,
1, ,-32, ,
15, ,-32, ,
27, ,-33, ,
18, ,-32, ,
13, ,-32, ,
10, ,-32, ,
5, ,-32, ,
6, ,-33, ,
3, ,-33, ,
2, ,-32, ,
3, ,-33, ,
2, ,-32, ,
1, ,-32, ,
3, ,-32, ,
1, ,-33, ,
2, ,-32, ,
3, ,-32, ,
2, ,-32, ,
1, ,-32, ,
5, ,-33, ,
2, ,-32, ,
2, ,-32, ,
3, ,-33, ,
3, ,-32, ,
1, ,-32, ,
3, ,-32, ,
2, ,-33, ,
2, ,-32, ,
3, ,-32, ,
2, ,-32, ,
1, ,-32, ,
3, ,-33, ,
2, ,-33, ,
2, ,-32, ,
3, ,-32, ,
2, ,-32, ,
1, ,-32, ,
3, ,-32, ,
2, ,-33, ,
1, ,-32, ,
2, ,-32, ,
2, ,-32, ,
1, ,-32, ,
3, ,-32, ,
2, ,-33, ,
1, ,-32, ,
3, ,-33, ,
2, ,-32, ,
1, ,-32, ,
3, ,-32, ,
2, ,-32, ,
1, ,-32, ,
3, ,-32, ,
2, ,-32, ,
1, ,-32, ,
3, ,-33, ,
2, ,-32, ,
1, ,-32, ,
3, ,-32, ,
2, ,-32, ,
1, ,-32, ,
3, ,-32, ,
2, ,-33, ,
1, ,-32, ,
3, ,-32, ,
2, ,-32, ,
1, ,-32, ,
3, ,-32, ,
2, ,-32, ,
1, ,-32, ,
3, ,-32, ,
2, ,-32, ,
1, ,-32, ,
3, ,-32, ,
2, ,-33, ,
1, ,-32, ,
2, ,-32, ,
2, ,-32, ,
1, ,-32, ,
3, ,-32, ,
2, ,-32, ,
2, ,-32, ,
2, ,-32, ,
2, ,-32, ,
1, ,-32, ,
3, ,-32, ,
2, ,-33, ,
1, ,-33, ,
3, ,-32, ,
2, ,-32, ,
1, ,-32, ,
3, ,-32, ,
2, ,-32, ,
1, ,-32, ,
2, ,-32, ,
2, ,-32, ,
1, ,-32, ,
3, ,-32, ,
2, ,-33, ,
1, ,-32, ,
2, ,-32, ,
2, ,-32, ,
1, ,-32, ,
3, ,-32, ,
2, ,-32, ,
1, ,-32, ,
2, ,-32, ,
2, ,-32, ,
1, ,-32, ,
3, ,-32, ,
2, ,-33, ,
1, ,-33, ,
2, ,-32, ,
2, ,-32, ,
1, ,-32, ,
3, ,-33, ,
2, ,-32, ,
1, ,-32, ,
2, ,-32, ,
2, ,-32, ,
1, ,-32, ,
3, ,-32, ,
2, ,-33, ,
1, ,-32, ,
2, ,-32, ,
2, ,-32, ,
1, ,-32, ,
3, ,-32, ,
2, ,-32, ,
1, ,-32, ,
2, ,-32, ,
2, ,-32, ,
1, ,-32, ,
3, ,-32, ,
2, ,-33, ,
1, ,-32, ,
2, ,-32, ,
2, ,-32, ,
1, ,-32, ,
3, ,-32, ,
2, ,-32, ,
1, ,-32, ,
2, ,-32, ,
2, ,-32, ,
1, ,-32, ,
3, ,-32, ,
1, ,-33, ,
1, ,-33, ,
2, ,-32, ,
2, ,-32, ,
1, ,-32, ,
3, ,-33, ,
2, ,-33, ,
1, ,-32, ,
2, ,-32, ,
2, ,-32, ,
1, ,-32, ,
3, ,-32, ,
2, ,-32, ,
1, ,-32, ,
2, ,-32, ,
2, ,-32, ,
1, ,-32, ,
3, ,-32, ,
1, ,-32, ,
1, ,-32, ,
2, ,-32, ,
2, ,-32, ,
1, ,-32, ,
3, ,-32, ,
1, ,-33, ,
1, ,-32, ,
2, ,-32, ,
2, ,-32, ,
1, ,-32, ,
3, ,-32, ,
1, ,-32, ,
1, ,-32, ,
2, ,-33, ,
2, ,-32, ,
1, ,-32, ,
3, ,-32, ,
1, ,-33, ,
1, ,-33, ,
2, ,-32, ,
2, ,-32, ,
-1, ,-32, ,
3, ,-32, ,
1, ,-32, ,
1, ,-32, ,
2, ,-32, ,
2, ,-32, ,
-1, ,-33, ,
2, ,-32, ,
1, ,-33, ,
1, ,-32, ,
2, ,-32, ,
2, ,-32, ,
1, ,-32, ,
2, ,-32, ,
1, ,-33, ,
1, ,-32, ,
2, ,-32, ,
2, ,-32, ,
-1, ,-32, ,
3, ,-32, ,
1, ,-33, ,
1, ,-32, ,
2, ,-32, ,
2, ,-32, ,
1, ,-32, ,
2, ,-32, ,
1, ,-32, ,
1, ,-32, ,
2, ,-32, ,
2, ,-32, ,
-1, ,-32, ,
2, ,-32, ,
1, ,-33, ,
1, ,-32, ,
2, ,-32, ,
2, ,-32, ,
1, ,-32, ,
2, ,-32, ,
1, ,-33, ,
1, ,-32, ,
2, ,-32, ,
2, ,-32, ,
1, ,-32, ,
2, ,-32, ,
1, ,-33, ,
1, ,-32, ,
2, ,-32, ,
2, ,-32, ,
-1, ,-33, ,
3, ,-33, ,
1, ,-32, ,
1, ,-32, ,
2, ,-32, ,
2, ,-32, ,
1, ,-32, ,
2, ,-32, ,
1, ,-32, ,
1, ,-32, ,
2, ,-32, ,
2, ,-32, ,
1, ,-32, ,
3, ,-33, ,
1, ,-33, ,
1, ,-32, ,
2, ,-32, ,
2, ,-32, ,
-1, ,-32, ,
2, ,-32, ,
1, ,-33, ,
1, ,-32, ,
2, ,-32, ,
2, ,-32, ,
-1, ,-32, ,
2, ,-33, ,
1, ,-33, ,
1, ,-32, ,
1, ,-32, ,
2, ,-32, ,
-1, ,-33, ,
2, ,-32, ,
1, ,-33, ,
1, ,-33, ,
2, ,-32, ,
2, ,-32, ,
-1, ,-32, ,
2, ,-33, ,
1, ,-32, ,
1, ,-32, ,
2, ,-33, ,
2, ,-32, ,
-1, ,-32, ,
2, ,-32, ,
1, ,-33, ,
1, ,-33, ,
2, ,-32, ,
2, ,-32, ,
-1, ,-32, ,
2, ,-33, ,
1, ,-33, ,
1, ,-32, ,
2, ,-33, ,
1, ,-32, ,
-1, ,-32, ,
2, ,-32, ,
1, ,-33, ,
1, ,-32, ,
2, ,-32, ,
2, ,-32, ,
-1, ,-32, ,
2, ,-33, ,
1, ,-33, ,
1, ,-32, ,
1, ,-32, ,
1, ,-32, ,
-1, ,-33, ,
2, ,-32, ,
1, ,-33, ,
1, ,-33, ,
2, ,-32, ,
2, ,-32, ,
-1, ,-32, ,
2, ,-33, ,
1, ,-33, ,
1, ,-32, ,
2, ,-32, ,
1, ,-32, ,
-1, ,-32, ,
2, ,-32, ,
1, ,-33, ,
1, ,-32, ,
2, ,-32, ,
2, ,-32, ,
-1, ,-32, ,
2, ,-33, ,
1, ,-32, ,
1, ,-33, ,
2, ,-32, ,
2, ,-32, ,
-1, ,-32, ,
2, ,-32, ,
1, ,-33, ,
1, ,-32, ,
2, ,-32, ,
1, ,-32, ,
-1, ,-32, ,
2, ,-33, ,
1, ,-33, ,
1, ,-33, ,
2, ,-33, ,
2, ,-32, ,
-1, ,-33, ,
2, ,-32, ,
1, ,-33, ,
1, ,-33, ,
2, ,-32, ,
2, ,-32, ,
-1, ,-32, ,
2, ,-33, ,
1, ,-32, ,
1, ,-32, ,
1, ,-32, ,
1, ,-32, ,
-1, ,-32, ,
2, ,-32, ,
1, ,-33, ,
1, ,-32, ,
2, ,-32, ,
1, ,-32, ,
-1, ,-32, ,
2, ,-33, ,
1, ,-33, ,
1, ,-32, ,
2, ,-32, ,
1, ,-32, ,
-1, ,-32, ,
2, ,-32, ,
1, ,-33, ,
1, ,-32, ,
2, ,-32, ,
2, ,-32, ,
-1, ,-32, ,
2, ,-33, ,
1, ,-33, ,
1, ,-32, ,
2, ,-32, ,
2, ,-32, ,
-1, ,-32, ,
2, ,-32, ,
1, ,-32, ,
1, ,-32, ,
2, ,-32, ,
2, ,-32, ,
-1, ,-32, ,
2, ,-33, ,
1, ,-33, ,
1, ,-32, ,
2, ,-32, ,
1, ,-32, ,
-1, ,-32, ,
2, ,-32, ,
1, ,-33, ,
1, ,-32, ,
2, ,-32, ,
1, ,-32, ,
-1, ,-32, ,
2, ,-32, ,
1, ,-33, ,
1, ,-33, ,
2, ,-32, ,
2, ,-32, ,
-1, ,-32, ,
2, ,-33, ,
1, ,-33, ,
1, ,-32, ,
2, ,-32, ,
1, ,-32, ,
-1, ,-32, ,
2, ,-33, ,
1, ,-33, ,
1, ,-32, ,
2, ,-33, ,
1, ,-32, ,
-1, ,-32, ,
2, ,-32, ,
1, ,-33, ,
-1, ,-32, ,
1, ,-32, ,
1, ,-32, ,
-1, ,-32, ,
2, ,-32, ,
1, ,-33, ,
1, ,-33, ,
2, ,-32, ,
1, ,-32, ,
-1, ,-32, ,
2, ,-33, ,
1, ,-32, ,
-1, ,-32, ,
2, ,-32, ,
1, ,-32, ,
-1, ,-32, ,
2, ,-32, ,
1, ,-32, ,
1, ,-32, ,
1, ,-33, ,
1, ,-32, ,
-1, ,-33, ,
2, ,-32, ,
1, ,-33, ,
1, ,-32, ,
2, ,-32, ,
1, ,-32, ,
-1, ,-32, ,
2, ,-32, ,
1, ,-32, ,
1, ,-32, ,
2, ,-33, ,
1, ,-32, ,
-1, ,-32, ,
2, ,-32, ,
1, ,-32, ,
1, ,-32, ,
1, ,-32, ,
1, ,-32, ,
-1, ,-32, ,
2, ,-33, ,
1, ,-33, ,
1, ,-32, ,
1, ,-32, ,
1, ,-32, ,
-1, ,-32, ,
2, ,-32, ,
1, ,-33, ,
-1, ,-33, ,
2, ,-32, ,
1, ,-32, ,
-1, ,-32, ,
2, ,-32, ,
1, ,-21, ,
1, ,-1, ,
1, ,15, ,
1, ,26, ,
-1, ,36, ,
2, ,42, ,
1, ,47, ,
1, ,51, ,
2, ,54, ,
1, ,55, ,
-1, ,58, ,
2, ,58, ,
1, ,59, ,
-1, ,60, ,
2, ,60, ,
1, ,60, ,
-1, ,61, ,
2, ,60, ,
1, ,61, ,
-1, ,61, ,
2, ,61, ,
1, ,61, ,
-1, ,62, ,
2, ,61, ,
1, ,61, ,
-1, ,61, ,
2, ,61, ,
1, ,61, ,
-1, ,62, ,
2, ,61, ,
1, ,61, ,
68, ,61, ,
43, ,61, ,
27, ,61, ,
17, ,61, ,
12, ,61, ,
7, ,61, ,
5, ,61, ,
6, ,61, ,
3, ,60, ,
2, ,61, ,
3, ,60, ,
2, ,61, ,
2, ,61, ,
3, ,61, ,
2, ,60, ,
1, ,61, ,
3, ,60, ,
2, ,61, ,
2, ,61, ,
3, ,61, ,
2, ,60, ,
1, ,61, ,
3, ,60, ,
2, ,61, ,
1, ,61, ,
3, ,61, ,
2, ,60, ,
1, ,61, ,
3, ,60, ,
2, ,60, ,
2, ,61, ,
3, ,60, ,
2, ,61, ,
1, ,61, ,
3, ,60, ,
2, ,61, ,
1, ,60, ,
3, ,60, ,
2, ,60, ,
1, ,61, ,
3, ,60, ,
2, ,61, ,
1, ,61, ,
2, ,60, ,
2, ,60, ,
2, ,61, ,
3, ,60, ,
2, ,61, ,
1, ,61, ,
3, ,61, ,
2, ,61, ,
1, ,61, ,
3, ,60, ,
2, ,61, ,
1, ,61, ,
3, ,60, ,
2, ,60, ,
1, ,61, ,
3, ,60, ,
2, ,61, ,
1, ,61, ,
2, ,60, ,
2, ,60, ,
1, ,61, ,
3, ,59, ,
2, ,61, ,
1, ,60, ,
3, ,60, ,
2, ,60, ,
1, ,60, ,
3, ,60, ,
1, ,61, ,
1, ,61, ,
2, ,61, ,
2, ,60, ,
1, ,61, ,
3, ,60, ,
1, ,61, ,
1, ,61, ,
2, ,61, ,
2, ,60, ,
1, ,61, ,
3, ,60, ,
1, ,61, ,
1, ,61, ,
2, ,60, ,
2, ,60, ,
1, ,61, ,
3, ,60, ,
2, ,60, ,
1, ,61, ,
3, ,60, ,
18, ,60, ,
13, ,61, ,
11, ,60, ,
7, ,61, ,
5, ,61, ,
6, ,60, ,
3, ,60, ,
2, ,61, ,
3, ,60, ,
2, ,60, ,
1, ,61, ,
3, ,60, ,
2, ,60, ,
1, ,61, ,
3, ,60, ,
2, ,61, ,
1, ,61, ,
3, ,60, ,
2, ,61, ,
1, ,61, ,
3, ,60, ,
2, ,61, ,
1, ,61, ,
2, ,60, ,
2, ,60, ,
1, ,61, ,
3, ,60, ,
2, ,60, ,
1, ,60, ,
2, ,61, ,
2, ,60, ,
1, ,58, ,
3, ,40, ,
2, ,21, ,
1, ,7, ,
2, ,-2, ,
2, ,-11, ,
1, ,-16, ,
3, ,-20, ,
1, ,-23, ,
1, ,-26, ,
3, ,-27, ,
2, ,-28, ,
1, ,-30, ,
3, ,-31, ,
2, ,-32, ,
2, ,-32, ,
2, ,-33, ,
3, ,-33, ,
1, ,-33, ,
3, ,-33, ,
2, ,-33, ,
1, ,-33, ,
3, ,-33, ,
2, ,-33, ,
1, ,-33, ,
3, ,-33, ,
2, ,-33, ,
2, ,-33, ,
3, ,-33, ,
2, ,-33, ,
1, ,-33, ,
3, ,-33, ,
2, ,-33, ,
1, ,-33, ,
3, ,-33, ,
2, ,-33, ,
1, ,-33, ,
3, ,-33, ,
2, ,-33, ,
2, ,-33, ,
3, ,-33, ,
2, ,-32, ,
1, ,-33, ,
3, ,-33, ,
2, ,-33, ,
1, ,-33, ,
2, ,-33, ,
2, ,-33, ,
1, ,-33, ,
3, ,-33, ,
2, ,-33, ,
2, ,-32, ,
2, ,-33, ,
2, ,-33, ,
1, ,-33, ,
3, ,-33, ,
2, ,-33, ,
1, ,-33, ,
2, ,-33, ,
2, ,-33, ,
1, ,-32, ,
3, ,-33, ,
2, ,-32, ,
1, ,-32, ,
2, ,-33, ,
2, ,-32, ,
1, ,-33, ,
3, ,-32, ,
2, ,-32, ,
1, ,-32, ,
2, ,-32, ,
2, ,-33, ,
1, ,-32, ,
3, ,-33, ,
2, ,-32, ,
1, ,-33, ,
2, ,-33, ,
2, ,-32, ,
1, ,-33, ,
3, ,-32, ,
2, ,-33, ,
1, ,-33, ,
2, ,-32, ,
2, ,-32, ,
1, ,-32, ,
3, ,-32, ,
1, ,-32, ,
1, ,-32, ,
2, ,-33, ,
2, ,-32, ,
1, ,-32, ,
3, ,-32, ,
2, ,-32, ,
1, ,-33, ,
2, ,-33, ,
2, ,-33, ,
1, ,-32, ,
3, ,-33, ,
1, ,-32, ,
1, ,-33, ,
2, ,-33, ,
2, ,-32, ,
1, ,-32, ,
3, ,-32, ,
2, ,-32, ,
1, ,-32, ,
2, ,-32, ,
2, ,-32, ,
1, ,-32, ,
3, ,-33, ,
1, ,-32, ,
1, ,-32, ,
2, ,-32, ,
2, ,-32, ,
1, ,-32, ,
3, ,-32, ,
1, ,-32, ,
1, ,-32, ,
2, ,-32, ,
2, ,-32, ,
1, ,-32, ,
3, ,-32, ,
1, ,-32, ,
1, ,-32, ,
2, ,-33, ,
2, ,-32, ,
1, ,-32, ,
3, ,-32, ,
1, ,-33, ,
1, ,-32, ,
3, ,-32, ,
2, ,-32, ,
1, ,-32, ,
3, ,-32, ,
2, ,-33, ,
1, ,-33, ,
2, ,-32, ,
2, ,-32, ,
1, ,-32, ,
3, ,-32, ,
1, ,-33, ,
1, ,-32, ,
2, ,-32, ,
2, ,-32, ,
1, ,-32, ,
3, ,-32, ,
1, ,-32, ,
1, ,-32, ,
2, ,-32, ,
2, ,-32, ,
1, ,-32, ,
3, ,-32, ,
2, ,-33, ,
1, ,-33, ,
2, ,-32, ,
2, ,-32, ,
1, ,-32, ,
3, ,-32, ,
2, ,-33, ,
1, ,-32, ,
2, ,-33, ,
2, ,-32, ,
1, ,-32, ,
3, ,-32, ,
1, ,-32, ,
1, ,-32, ,
2, ,-32, ,
2, ,-32, ,
-1, ,-32, ,
3, ,-33, ,
1, ,-33, ,
1, ,-33, ,
2, ,-32, ,
2, ,-32, ,
-1, ,-32, ,
3, ,-32, ,
1, ,-33, ,
1, ,-32, ,
2, ,-32, ,
2, ,-32, ,
-1, ,-32, ,
3, ,-32, ,
1, ,-32, ,
1, ,-32, ,
2, ,-33, ,
2, ,-33, ,
-1, ,-32, ,
2, ,-32, ,
1, ,-32, ,
1, ,-33, ,
2, ,-32, ,
2, ,-32, ,
-1, ,-32, ,
2, ,-32, ,
1, ,-32, ,
1, ,-32, ,
2, ,-32, ,
2, ,-32, ,
-1, ,-32, ,
3, ,-32, ,
1, ,-32, ,
1, ,-33, ,
2, ,-32, ,
2, ,-32, ,
-1, ,-32, ,
2, ,-33, ,
1, ,-32, ,
1, ,-32, ,
2, ,-32, ,
2, ,-32, ,
-1, ,-32, ,
2, ,-32, ,
1, ,-33, ,
1, ,-32, ,
2, ,-32, ,
2, ,-32, ,
-1, ,-32, ,
2, ,-32, ,
1, ,-32, ,
1, ,-32, ,
2, ,-32, ,
2, ,-32, ,
1, ,-33, ,
2, ,-32, ,
1, ,-32, ,
1, ,-32, ,
2, ,-32, ,
2, ,-32, ,
-1, ,-32, ,
3, ,-32, ,
1, ,-32, ,
1, ,-32, ,
2, ,-33, ,
2, ,-32, ,
-1, ,-33, ,
2, ,-32, ,
1, ,-32, ,
1, ,-32, ,
2, ,-32, ,
2, ,-32, ,
-1, ,-32, ,
2, ,-32, ,
1, ,-32, ,
1, ,-32, ,
2, ,-32, ,
2, ,-32, ,
-1, ,-33, ,
2, ,-32, ,
1, ,-32, ,
1, ,-32, ,
2, ,-32, ,
2, ,-32, ,
-1, ,-32, ,
2, ,-32, ,
1, ,-33, ,
1, ,-32, ,
2, ,-32, ,
2, ,-32, ,
-1, ,-32, ,
3, ,-32, ,
1, ,-33, ,
1, ,-32, ,
2, ,-32, ,
2, ,-32, ,
-1, ,-32, ,
2, ,-32, ,
1, ,-32, ,
1, ,-32, ,
2, ,-32, ,
2, ,-32, ,
-1, ,-32, ,
2, ,-32, ,
1, ,-32, ,
1, ,-32, ,
2, ,-32, ,
2, ,-32, ,
-1, ,-32, ,
2, ,-32, ,
1, ,-33, ,
1, ,-32, ,
2, ,-33, ,
2, ,-32, ,
-1, ,-32, ,
2, ,-32, ,
1, ,-33, ,
1, ,-32, ,
2, ,-32, ,
2, ,-32, ,
-1, ,-32, ,
2, ,-33, ,
1, ,-33, ,
1, ,-32, ,
2, ,-32, ,
1, ,-32, ,
-1, ,-32, ,
2, ,-32, ,
1, ,-32, ,
1, ,-33, ,
2, ,-32, ,
2, ,-32, ,
-1, ,-32, ,
2, ,-32, ,
1, ,-32, ,
1, ,-32, ,
2, ,-33, ,
2, ,-32, ,
-1, ,-32, ,
2, ,-32, ,
1, ,-32, ,
1, ,-32, ,
2, ,-32, ,
2, ,-32, ,
-1, ,-32, ,
2, ,-32, ,
1, ,-32, ,
1, ,-32, ,
1, ,-33, ,
2, ,-32, ,
-1, ,-32, ,
2, ,-32, ,
1, ,-33, ,
1, ,-32, ,
2, ,-32, ,
1, ,-32, ,
-1, ,-32, ,
2, ,-33, ,
1, ,-32, ,
1, ,-32, ,
2, ,-32, ,
2, ,-32, ,
-1, ,-32, ,
2, ,-32, ,
1, ,-32, ,
1, ,-32, ,
2, ,-32, ,
1, ,-32, ,
-1, ,-32, ,
3, ,-32, ,
1, ,-32, ,
1, ,-32, ,
2, ,-32, ,
1, ,-32, ,
-1, ,-32, ,
2, ,-32, ,
1, ,-33, ,
-1, ,-32, ,
2, ,-32, ,
2, ,-32, ,
-1, ,-32, ,
2, ,-33, ,
1, ,-33, ,
1, ,-32, ,
2, ,-33, ,
1, ,-32, ,
-1, ,-32, ,
2, ,-32, ,
1, ,-33, ,
-1, ,-32, ,
2, ,-32, ,
1, ,-32, ,
-1, ,-32, ,
2, ,-33, ,
1, ,-32, ,
1, ,-32, ,
1, ,-33, ,
1, ,-32, ,
-1, ,-32, ,
2, ,-32, ,
1, ,-33, ,
1, ,-32, ,
2, ,-32, ,
1, ,-32, ,
-1, ,-32, ,
2, ,-33, ,
1, ,-32, ,
1, ,-32, ,
2, ,-33, ,
1, ,-32, ,
-1, ,-32, ,
2, ,-32, ,
1, ,-33, ,
1, ,-33, ,
2, ,-32, ,
1, ,-32, ,
-1, ,-32, ,
2, ,-33, ,
1, ,-32, ,
1, ,-33, ,
1, ,-32, ,
1, ,-32, ,
-1, ,-32, ,
2, ,-32, ,
1, ,-32, ,
1, ,-32, ,
2, ,-33, ,
1, ,-32, ,
-1, ,-32, ,
2, ,-33, ,
1, ,-33, ,
1, ,-32, ,
2, ,-32, ,
1, ,-32, ,
-1, ,-32, ,
2, ,-32, ,
1, ,-32, ,
1, ,-33, ,
2, ,-32, ,
2, ,-32, ,
-1, ,-32, ,
2, ,-33, ,
1, ,-32, ,
1, ,-32, ,
2, ,-33, ,
2, ,-32, ,
-1, ,-33, ,
2, ,-32, ,
1, ,-33, ,
1, ,-32, ,
2, ,-33, ,
1, ,-32, ,
-1, ,-32, ,
2, ,-32, ,
1, ,-32, ,
1, ,-33, ,
2, ,-33, ,
2, ,-32, ,
-1, ,-32, ,
2, ,-32, ,
1, ,-33, ,
1, ,-32, ,
2, ,-32, ,
2, ,-32, ,
-1, ,-32, ,
2, ,-32, ,
1, ,-32, ,
1, ,-32, ,
1, ,-33, ,
2, ,-32, ,
-1, ,-32, ,
2, ,-32, ,
1, ,-33, ,
1, ,-33, ,
2, ,-32, ,
1, ,-32, ,
-1, ,-32, ,
2, ,-33, ,
1, ,-33, ,
1, ,-32, ,
1, ,-33, ,
1, ,-32, ,
-1, ,-33, ,
2, ,-32, ,
1, ,-33, ,
-1, ,-32, ,
2, ,-32, ,
1, ,-32, ,
-1, ,-32, ,
2, ,-32, ,
1, ,-33, ,
1, ,-33, ,
2, ,-33, ,
1, ,-32, ,
-1, ,-33, ,
2, ,-32, ,
1, ,-32, ,
-1, ,-32, ,
2, ,-32, ,
1, ,-32, ,
-1, ,-32, ,
2, ,-33, ,
1, ,-32, ,
1, ,-33, ,
1, ,-33, ,
1, ,-32, ,
-1, ,-32, ,
2, ,-32, ,
1, ,-33, ,
-1, ,-32, ,
2, ,-32, ,
1, ,-32, ,
-1, ,-32, ,
2, ,-32, ,
1, ,-32, ,
1, ,-33, ,
1, ,-32, ,
1, ,-32, ,
-1, ,-33, ,
2, ,-32, ,
1, ,-33, ,
-1, ,-32, ,
1, ,-32, ,
1, ,-32, ,
