src/varyamp_1558/temp0004140.CSV

Format,1.0B,
Memory Length,10000,Memory Length,10000,
IntpDistance,0,IntpDistance,0,
Trigger Address,4999,Trigger Address,4999,
Trigger Level,1.040E+00,Trigger Level,1.040E+00,
Source,CH1,Source,CH2,
Vertical Units,V,Vertical Units,V,
Vertical Units Div,0,Vertical Units Div,0,
Vertical Units Extend Div,16,Vertical Units Extend Div,16,
Label,,Label,,
Probe Type,0,Probe Type,0,
Probe Ratio,1.000e+01,Probe Ratio,1.000e+00,
Vertical Scale,5.000e-01,Vertical Scale,1.000e+00,
Vertical Position,-1.820e+00,Vertical Position,0.000e+00,
Horizontal Units,S,Horizontal Units,S,
Horizontal Scale,2.000E-05,Horizontal Scale,2.000E-05,
Horizontal Position,0.000E+00,Horizontal Position,0.000E+00,
Horizontal Mode,Main,Horizontal Mode,Main,
SincET Mode,Real Time,SincET Mode,Real Time,
Sampling Period,2.000e-08,Sampling Period,2.000e-08,
Horizontal Old Scale,2.000E-05,Horizontal Old Scale,2.000E-05,
Horizontal Old Position,0.000E+00,Horizontal Old Position,0.000E+00,
Firmware,V1.23,Firmware,V1.23,
Mode,Fast,Mode,Fast,
Waveform Data,,Waveform Data,,
3, ,-37, ,
2, ,-37, ,
2, ,-37, ,
2, ,-38, ,
3, ,-38, ,
1, ,-38, ,
3, ,-37, ,
1, ,-37, ,
1, ,-38, ,
2, ,-38, ,
2, ,-38, ,
1, ,-38, ,
3, ,-38, ,
2, ,-37, ,
2, ,-37, ,
2, ,-38, ,
2, ,-38, ,
1, ,-38, ,
3, ,-38, ,
2, ,-37, ,
2, ,-37, ,
2, ,-38, ,
2, ,-37, ,
1, ,-38, ,
3, ,-38, ,
1, ,-37, ,
1, ,-37, ,
2, ,-38, ,
2, ,-38, ,
1, ,-37, ,
3, ,-37, ,
2, ,-38, ,
2, ,-37, ,
2, ,-38, ,
2, ,-38, ,
1, ,-38, ,
3, ,-38, ,
1, ,-37, ,
1, ,-37, ,
2, ,-38, ,
2, ,-38, ,
1, ,-38, ,
3, ,-37, ,
1, ,-38, ,
2, ,-37, ,
2, ,-38, ,
2, ,-38, ,
1, ,-37, ,
2, ,-37, ,
1, ,-38, ,
1, ,-37, ,
2, ,-38, ,
2, ,-38, ,
1, ,-38, ,
3, ,-37, ,
2, ,-38, ,
2, ,-38, ,
2, ,-38, ,
2, ,-38, ,
1, ,-38, ,
2, ,-37, ,
1, ,-37, ,
1, ,-37, ,
2, ,-38, ,
2, ,-38, ,
1, ,-38, ,
2, ,-37, ,
2, ,-37, ,
2, ,-37, ,
2, ,-38, ,
2, ,-38, ,
1, ,-38, ,
2, ,-38, ,
1, ,-37, ,
1, ,-38, ,
2, ,-38, ,
2, ,-38, ,
1, ,-37, ,
2, ,-37, ,
1, ,-38, ,
1, ,-37, ,
2, ,-38, ,
2, ,-38, ,
1, ,-38, ,
2, ,-38, ,
1, ,-38, ,
1, ,-37, ,
2, ,-38, ,
2, ,-38, ,
1, ,-38, ,
2, ,-38, ,
1, ,-37, ,
1, ,-38, ,
2, ,-38, ,
2, ,-38, ,
1, ,-37, ,
2, ,-37, ,
1, ,-38, ,
1, ,-38, ,
2, ,-38, ,
2, ,-38, ,
1, ,-38, ,
2, ,-38, ,
1, ,-37, ,
2, ,-37, ,
2, ,-38, ,
2, ,-37, ,
1, ,-38, ,
2, ,-38, ,
1, ,-38, ,
1, ,-38, ,
2, ,-38, ,
2, ,-38, ,
1, ,-38, ,
2, ,-37, ,
1, ,-38, ,
1, ,-38, ,
2, ,-38, ,
2, ,-38, ,
1, ,-38, ,
2, ,-38, ,
1, ,-38, ,
1, ,-38, ,
2, ,-38, ,
2, ,-38, ,
1, ,-38, ,
2, ,-37, ,
1, ,-38, ,
1, ,-38, ,
2, ,-38, ,
1, ,-37, ,
1, ,-38, ,
2, ,-38, ,
1, ,-37, ,
1, ,-38, ,
2, ,-38, ,
1, ,-38, ,
1, ,-37, ,
2, ,-37, ,
1, ,-38, ,
1, ,-38, ,
2, ,-38, ,
2, ,-38, ,
1, ,-38, ,
2, ,-38, ,
1, ,-38, ,
2, ,-38, ,
2, ,-38, ,
2, ,-38, ,
1, ,-38, ,
2, ,-37, ,
1, ,-38, ,
1, ,-38, ,
2, ,-38, ,
2, ,-37, ,
1, ,-37, ,
2, ,-38, ,
1, ,-38, ,
1, ,-38, ,
2, ,-38, ,
2, ,-38, ,
1, ,-38, ,
2, ,-37, ,
1, ,-38, ,
1, ,-38, ,
2, ,-38, ,
2, ,-38, ,
1, ,-38, ,
2, ,-38, ,
1, ,-37, ,
1, ,-38, ,
2, ,-38, ,
1, ,-38, ,
1, ,-38, ,
2, ,-37, ,
1, ,-38, ,
1, ,-38, ,
2, ,-38, ,
2, ,-38, ,
1, ,-38, ,
2, ,-37, ,
1, ,-37, ,
1, ,-37, ,
2, ,-38, ,
2, ,-38, ,
1, ,-38, ,
2, ,-37, ,
1, ,-37, ,
1, ,-37, ,
2, ,-38, ,
1, ,-37, ,
1, ,-38, ,
2, ,-38, ,
1, ,-37, ,
1, ,-37, ,
2, ,-38, ,
1, ,-38, ,
-1, ,-38, ,
2, ,-38, ,
1, ,-38, ,
1, ,-37, ,
2, ,-38, ,
1, ,-38, ,
1, ,-38, ,
2, ,-38, ,
1, ,-37, ,
1, ,-37, ,
2, ,-38, ,
1, ,-38, ,
-1, ,-38, ,
2, ,-37, ,
1, ,-37, ,
1, ,-38, ,
2, ,-38, ,
2, ,-38, ,
1, ,-38, ,
2, ,-38, ,
1, ,-37, ,
1, ,-37, ,
2, ,-38, ,
2, ,-38, ,
-1, ,-38, ,
2, ,-37, ,
1, ,-37, ,
1, ,-37, ,
2, ,-38, ,
1, ,-38, ,
1, ,-38, ,
2, ,-38, ,
1, ,-37, ,
1, ,-37, ,
2, ,-38, ,
1, ,-38, ,
-1, ,-38, ,
2, ,-38, ,
1, ,-37, ,
1, ,-37, ,
2, ,-38, ,
1, ,-37, ,
-1, ,-38, ,
2, ,-37, ,
1, ,-37, ,
1, ,-37, ,
2, ,-38, ,
1, ,-38, ,
-1, ,-37, ,
2, ,-37, ,
1, ,-37, ,
1, ,-37, ,
2, ,-38, ,
1, ,-37, ,
-1, ,-38, ,
2, ,-37, ,
1, ,-37, ,
1, ,-37, ,
2, ,-38, ,
1, ,-38, ,
-1, ,-38, ,
2, ,-37, ,
1, ,-37, ,
1, ,-37, ,
1, ,-38, ,
1, ,-37, ,
1, ,-38, ,
2, ,-38, ,
1, ,-37, ,
1, ,-37, ,
2, ,-38, ,
1, ,-38, ,
-1, ,-37, ,
2, ,-38, ,
1, ,-37, ,
1, ,-37, ,
2, ,-38, ,
1, ,-38, ,
-1, ,-38, ,
2, ,-38, ,
1, ,-37, ,
1, ,-37, ,
2, ,-38, ,
1, ,-38, ,
-1, ,-38, ,
2, ,-37, ,
1, ,-37, ,
1, ,-37, ,
2, ,-38, ,
1, ,-38, ,
1, ,-38, ,
2, ,-38, ,
1, ,-37, ,
1, ,-37, ,
2, ,-38, ,
1, ,-38, ,
-1, ,-38, ,
2, ,-37, ,
1, ,-37, ,
1, ,-38, ,
2, ,-38, ,
1, ,-38, ,
-1, ,-38, ,
2, ,-38, ,
1, ,-37, ,
1, ,-37, ,
2, ,-38, ,
1, ,-38, ,
-1, ,-38, ,
2, ,-37, ,
1, ,-32, ,
1, ,-12, ,
2, ,6, ,
2, ,19, ,
-1, ,28, ,
2, ,35, ,
1, ,41, ,
1, ,44, ,
2, ,49, ,
1, ,50, ,
1, ,52, ,
2, ,53, ,
1, ,54, ,
1, ,54, ,
1, ,55, ,
1, ,55, ,
1, ,55, ,
2, ,55, ,
1, ,56, ,
1, ,56, ,
2, ,56, ,
1, ,55, ,
1, ,56, ,
2, ,56, ,
1, ,56, ,
1, ,55, ,
2, ,56, ,
1, ,56, ,
-1, ,55, ,
1, ,56, ,
1, ,56, ,
1, ,56, ,
2, ,56, ,
1, ,56, ,
1, ,56, ,
68, ,56, ,
44, ,56, ,
26, ,56, ,
18, ,56, ,
12, ,56, ,
8, ,56, ,
7, ,56, ,
5, ,56, ,
3, ,55, ,
5, ,56, ,
2, ,55, ,
2, ,55, ,
3, ,56, ,
2, ,56, ,
2, ,55, ,
3, ,56, ,
2, ,55, ,
2, ,55, ,
3, ,55, ,
2, ,55, ,
2, ,55, ,
3, ,56, ,
2, ,55, ,
2, ,55, ,
3, ,56, ,
2, ,56, ,
2, ,55, ,
3, ,55, ,
2, ,55, ,
2, ,55, ,
3, ,55, ,
2, ,55, ,
2, ,55, ,
3, ,56, ,
2, ,55, ,
1, ,55, ,
3, ,56, ,
2, ,56, ,
2, ,55, ,
3, ,55, ,
2, ,55, ,
2, ,55, ,
3, ,56, ,
2, ,55, ,
2, ,55, ,
3, ,55, ,
2, ,55, ,
1, ,55, ,
3, ,56, ,
2, ,56, ,
2, ,55, ,
3, ,56, ,
2, ,55, ,
1, ,55, ,
3, ,55, ,
2, ,55, ,
2, ,55, ,
3, ,56, ,
2, ,55, ,
1, ,55, ,
3, ,56, ,
2, ,56, ,
2, ,55, ,
3, ,56, ,
2, ,55, ,
2, ,55, ,
2, ,55, ,
2, ,55, ,
2, ,55, ,
3, ,56, ,
2, ,55, ,
1, ,55, ,
3, ,55, ,
2, ,56, ,
1, ,55, ,
3, ,55, ,
2, ,55, ,
1, ,55, ,
3, ,55, ,
2, ,55, ,
2, ,55, ,
2, ,56, ,
2, ,55, ,
1, ,55, ,
3, ,56, ,
2, ,56, ,
1, ,55, ,
2, ,55, ,
2, ,55, ,
1, ,55, ,
2, ,55, ,
1, ,55, ,
1, ,55, ,
3, ,56, ,
2, ,55, ,
1, ,55, ,
2, ,55, ,
2, ,55, ,
2, ,55, ,
3, ,55, ,
2, ,55, ,
1, ,55, ,
3, ,55, ,
2, ,55, ,
1, ,55, ,
2, ,55, ,
2, ,55, ,
1, ,55, ,
2, ,56, ,
2, ,55, ,
1, ,55, ,
2, ,55, ,
2, ,55, ,
1, ,55, ,
2, ,55, ,
2, ,55, ,
1, ,55, ,
2, ,56, ,
2, ,55, ,
1, ,54, ,
2, ,37, ,
1, ,18, ,
1, ,4, ,
2, ,-6, ,
2, ,-15, ,
1, ,-21, ,
2, ,-25, ,
1, ,-28, ,
1, ,-31, ,
2, ,-34, ,
2, ,-35, ,
1, ,-36, ,
2, ,-36, ,
1, ,-37, ,
2, ,-37, ,
3, ,-38, ,
2, ,-38, ,
1, ,-38, ,
2, ,-38, ,
1, ,-38, ,
2, ,-38, ,
2, ,-39, ,
2, ,-38, ,
1, ,-38, ,
2, ,-38, ,
1, ,-38, ,
1, ,-38, ,
2, ,-39, ,
2, ,-38, ,
1, ,-38, ,
2, ,-38, ,
1, ,-38, ,
2, ,-38, ,
2, ,-38, ,
2, ,-38, ,
1, ,-38, ,
2, ,-38, ,
1, ,-38, ,
2, ,-38, ,
2, ,-38, ,
2, ,-38, ,
1, ,-38, ,
2, ,-38, ,
1, ,-38, ,
1, ,-38, ,
2, ,-38, ,
2, ,-38, ,
1, ,-38, ,
2, ,-38, ,
1, ,-38, ,
1, ,-38, ,
2, ,-38, ,
2, ,-38, ,
1, ,-38, ,
2, ,-38, ,
1, ,-38, ,
1, ,-38, ,
2, ,-38, ,
2, ,-38, ,
1, ,-38, ,
2, ,-38, ,
1, ,-38, ,
1, ,-38, ,
2, ,-38, ,
2, ,-38, ,
1, ,-38, ,
2, ,-38, ,
1, ,-37, ,
2, ,-38, ,
2, ,-38, ,
2, ,-38, ,
1, ,-38, ,
3, ,-37, ,
1, ,-38, ,
2, ,-37, ,
2, ,-38, ,
2, ,-38, ,
1, ,-38, ,
2, ,-38, ,
1, ,-37, ,
1, ,-37, ,
2, ,-38, ,
2, ,-38, ,
1, ,-38, ,
3, ,-38, ,
1, ,-38, ,
1, ,-37, ,
2, ,-38, ,
2, ,-38, ,
1, ,-38, ,
2, ,-38, ,
1, ,-38, ,
1, ,-38, ,
2, ,-38, ,
2, ,-38, ,
1, ,-38, ,
2, ,-38, ,
1, ,-38, ,
2, ,-37, ,
2, ,-38, ,
2, ,-38, ,
1, ,-38, ,
2, ,-38, ,
1, ,-37, ,
1, ,-37, ,
2, ,-38, ,
2, ,-38, ,
1, ,-38, ,
2, ,-37, ,
1, ,-37, ,
1, ,-37, ,
2, ,-38, ,
2, ,-38, ,
1, ,-38, ,
2, ,-37, ,
1, ,-37, ,
1, ,-37, ,
2, ,-38, ,
2, ,-38, ,
1, ,-38, ,
2, ,-37, ,
1, ,-37, ,
2, ,-37, ,
2, ,-38, ,
1, ,-38, ,
1, ,-38, ,
2, ,-38, ,
1, ,-37, ,
1, ,-37, ,
2, ,-38, ,
2, ,-38, ,
1, ,-38, ,
2, ,-38, ,
1, ,-38, ,
1, ,-37, ,
2, ,-38, ,
2, ,-38, ,
1, ,-38, ,
2, ,-38, ,
1, ,-37, ,
1, ,-38, ,
2, ,-38, ,
2, ,-38, ,
1, ,-38, ,
2, ,-37, ,
1, ,-38, ,
1, ,-37, ,
2, ,-38, ,
2, ,-38, ,
1, ,-38, ,
2, ,-38, ,
1, ,-38, ,
1, ,-37, ,
2, ,-38, ,
1, ,-38, ,
1, ,-38, ,
2, ,-37, ,
1, ,-37, ,
1, ,-37, ,
2, ,-38, ,
2, ,-38, ,
1, ,-38, ,
2, ,-37, ,
1, ,-38, ,
1, ,-37, ,
2, ,-38, ,
2, ,-38, ,
-1, ,-37, ,
2, ,-37, ,
1, ,-37, ,
1, ,-37, ,
2, ,-38, ,
2, ,-38, ,
1, ,-38, ,
2, ,-38, ,
1, ,-37, ,
1, ,-37, ,
2, ,-38, ,
2, ,-38, ,
-1, ,-38, ,
2, ,-37, ,
1, ,-38, ,
1, ,-37, ,
2, ,-38, ,
2, ,-37, ,
-1, ,-37, ,
2, ,-37, ,
1, ,-37, ,
1, ,-37, ,
2, ,-38, ,
1, ,-38, ,
-1, ,-38, ,
2, ,-37, ,
1, ,-38, ,
1, ,-37, ,
2, ,-38, ,
1, ,-38, ,
-1, ,-38, ,
2, ,-37, ,
1, ,-37, ,
1, ,-37, ,
2, ,-38, ,
1, ,-38, ,
-1, ,-38, ,
2, ,-37, ,
1, ,-38, ,
1, ,-37, ,
2, ,-38, ,
1, ,-38, ,
-1, ,-38, ,
2, ,-38, ,
1, ,-37, ,
1, ,-37, ,
2, ,-38, ,
1, ,-38, ,
-1, ,-38, ,
2, ,-38, ,
1, ,-38, ,
1, ,-37, ,
2, ,-38, ,
2, ,-38, ,
1, ,-37, ,
2, ,-37, ,
1, ,-37, ,
1, ,-37, ,
2, ,-38, ,
2, ,-37, ,
-1, ,-38, ,
2, ,-37, ,
1, ,-37, ,
1, ,-37, ,
2, ,-38, ,
2, ,-38, ,
-1, ,-38, ,
2, ,-37, ,
1, ,-37, ,
1, ,-37, ,
2, ,-38, ,
2, ,-38, ,
-1, ,-37, ,
2, ,-37, ,
1, ,-38, ,
1, ,-37, ,
2, ,-38, ,
1, ,-37, ,
-1, ,-38, ,
2, ,-38, ,
1, ,-38, ,
1, ,-38, ,
2, ,-38, ,
1, ,-38, ,
-1, ,-38, ,
2, ,-38, ,
1, ,-37, ,
1, ,-38, ,
1, ,-38, ,
2, ,-38, ,
-1, ,-37, ,
2, ,-38, ,
1, ,-37, ,
1, ,-38, ,
2, ,-38, ,
1, ,-38, ,
-1, ,-38, ,
2, ,-38, ,
1, ,-37, ,
1, ,-37, ,
1, ,-38, ,
1, ,-38, ,
-1, ,-38, ,
2, ,-38, ,
1, ,-37, ,
1, ,-37, ,
1, ,-38, ,
1, ,-38, ,
-1, ,-38, ,
2, ,-37, ,
1, ,-38, ,
1, ,-38, ,
2, ,-38, ,
1, ,-38, ,
-1, ,-38, ,
2, ,-38, ,
1, ,-38, ,
1, ,-38, ,
1, ,-38, ,
2, ,-38, ,
-1, ,-38, ,
2, ,-38, ,
1, ,-37, ,
1, ,-38, ,
2, ,-38, ,
1, ,-37, ,
-1, ,-38, ,
2, ,-38, ,
1, ,-37, ,
1, ,-38, ,
2, ,-38, ,
1, ,-38, ,
-1, ,-38, ,
2, ,-38, ,
1, ,-38, ,
1, ,-38, ,
2, ,-38, ,
1, ,-37, ,
-1, ,-38, ,
2, ,-37, ,
1, ,-38, ,
1, ,-38, ,
1, ,-38, ,
1, ,-38, ,
-1, ,-37, ,
2, ,-38, ,
1, ,-38, ,
1, ,-37, ,
1, ,-38, ,
2, ,-37, ,
-1, ,-37, ,
2, ,-38, ,
-1, ,-38, ,
1, ,-38, ,
1, ,-38, ,
1, ,-38, ,
-1, ,-38, ,
2, ,-37, ,
-1, ,-38, ,
1, ,-38, ,
1, ,-38, ,
2, ,-38, ,
-1, ,-37, ,
2, ,-38, ,
1, ,-37, ,
1, ,-38, ,
1, ,-38, ,
2, ,-38, ,
-1, ,-38, ,
2, ,-37, ,
1, ,-38, ,
1, ,-37, ,
1, ,-38, ,
1, ,-38, ,
-1, ,-38, ,
2, ,-37, ,
1, ,-37, ,
-1, ,-37, ,
1, ,-38, ,
1, ,-37, ,
-1, ,-38, ,
2, ,-38, ,
1, ,-38, ,
1, ,-37, ,
1, ,-38, ,
1, ,-38, ,
-1, ,-38, ,
2, ,-38, ,
-1, ,-37, ,
1, ,-38, ,
2, ,-38, ,
1, ,-38, ,
-1, ,-38, ,
2, ,-37, ,
1, ,-38, ,
1, ,-37, ,
1, ,-38, ,
1, ,-38, ,
-1, ,-38, ,
2, ,-38, ,
1, ,-38, ,
1, ,-38, ,
2, ,-38, ,
1, ,-38, ,
-1, ,-38, ,
2, ,-38, ,
-1, ,-38, ,
1, ,-38, ,
1, ,-38, ,
1, ,-37, ,
-1, ,-37, ,
2, ,-38, ,
1, ,-38, ,
1, ,-38, ,
1, ,-38, ,
2, ,-38, ,
-1, ,-38, ,
2, ,-38, ,
1, ,-38, ,
1, ,-37, ,
1, ,-38, ,
2, ,-37, ,
-1, ,-38, ,
2, ,-38, ,
-1, ,-38, ,
1, ,-38, ,
1, ,-38, ,
1, ,-38, ,
-1, ,-38, ,
2, ,-37, ,
1, ,-38, ,
1, ,-37, ,
1, ,-38, ,
1, ,-37, ,
-1, ,-38, ,
2, ,-38, ,
1, ,-38, ,
1, ,-37, ,
1, ,-38, ,
2, ,-38, ,
-1, ,-38, ,
2, ,-37, ,
1, ,-37, ,
1, ,-37, ,
1, ,-38, ,
2, ,-38, ,
1, ,-38, ,
2, ,-38, ,
-1, ,-37, ,
1, ,-38, ,
1, ,-38, ,
2, ,-38, ,
-1, ,-38, ,
2, ,-38, ,
1, ,-37, ,
1, ,-37, ,
1, ,-38, ,
1, ,-38, ,
-1, ,-38, ,
2, ,-38, ,
-1, ,-37, ,
1, ,-37, ,
1, ,-38, ,
1, ,-38, ,
-1, ,-38, ,
2, ,-37, ,
1, ,-38, ,
1, ,-37, ,
1, ,-38, ,
2, ,-38, ,
-1, ,-38, ,
2, ,-38, ,
-1, ,-37, ,
1, ,-37, ,
1, ,-38, ,
1, ,-37, ,
-1, ,-38, ,
2, ,-37, ,
1, ,-37, ,
1, ,-37, ,
1, ,-38, ,
1, ,-37, ,
-1, ,-38, ,
2, ,-38, ,
-1, ,-37, ,
1, ,-37, ,
1, ,-38, ,
1, ,-38, ,
-1, ,-37, ,
2, ,-38, ,
-1, ,-38, ,
-1, ,-37, ,
1, ,-38, ,
1, ,-37, ,
-1, ,-38, ,
2, ,-38, ,
-1, ,-37, ,
-1, ,-37, ,
1, ,-38, ,
1, ,-38, ,
-1, ,-37, ,
2, ,-38, ,
-1, ,-37, ,
-1, ,-37, ,
1, ,-38, ,
1, ,-37, ,
-1, ,-38, ,
2, ,-38, ,
-1, ,-37, ,
-1, ,-37, ,
1, ,-38, ,
1, ,-37, ,
-1, ,-38, ,
2, ,-37, ,
-1, ,-37, ,
-1, ,-37, ,
1, ,-38, ,
1, ,-38, ,
-1, ,-38, ,
2, ,-37, ,
-1, ,-37, ,
-1, ,-37, ,
71, ,-38, ,
45, ,-38, ,
26, ,-38, ,
17, ,-38, ,
11, ,-38, ,
7, ,-38, ,
6, ,-38, ,
3, ,-37, ,
2, ,-38, ,
5, ,-38, ,
2, ,-37, ,
2, ,-37, ,
3, ,-38, ,
3, ,-38, ,
2, ,-37, ,
3, ,-37, ,
2, ,-37, ,
2, ,-38, ,
3, ,-38, ,
3, ,-37, ,
1, ,-38, ,
3, ,-37, ,
2, ,-37, ,
2, ,-37, ,
2, ,-38, ,
3, ,-38, ,
1, ,-38, ,
3, ,-38, ,
2, ,-38, ,
2, ,-37, ,
3, ,-38, ,
2, ,-38, ,
1, ,-38, ,
3, ,-38, ,
2, ,-37, ,
2, ,-37, ,
2, ,-38, ,
3, ,-38, ,
1, ,-38, ,
3, ,-37, ,
2, ,-38, ,
2, ,-37, ,
2, ,-38, ,
3, ,-37, ,
1, ,-38, ,
3, ,-38, ,
2, ,-38, ,
2, ,-37, ,
2, ,-38, ,
3, ,-38, ,
1, ,-38, ,
3, ,-37, ,
2, ,-38, ,
2, ,-37, ,
2, ,-38, ,
2, ,-37, ,
1, ,-38, ,
3, ,-38, ,
2, ,-37, ,
2, ,-37, ,
2, ,-38, ,
2, ,-38, ,
1, ,-38, ,
3, ,-37, ,
2, ,-37, ,
1, ,-37, ,
2, ,-38, ,
2, ,-37, ,
1, ,-38, ,
3, ,-38, ,
2, ,-37, ,
2, ,-37, ,
2, ,-38, ,
2, ,-38, ,
1, ,-38, ,
3, ,-37, ,
1, ,-37, ,
1, ,-38, ,
2, ,-38, ,
2, ,-38, ,
1, ,-38, ,
3, ,-37, ,
2, ,-37, ,
2, ,-37, ,
2, ,-38, ,
3, ,-38, ,
1, ,-38, ,
3, ,-38, ,
2, ,-38, ,
1, ,-38, ,
2, ,-38, ,
2, ,-38, ,
1, ,-38, ,
3, ,-38, ,
2, ,-37, ,
1, ,-37, ,
2, ,-38, ,
2, ,-38, ,
1, ,-37, ,
2, ,-37, ,
2, ,-38, ,
2, ,-38, ,
2, ,-38, ,
2, ,-38, ,
1, ,-38, ,
2, ,-38, ,
1, ,-37, ,
2, ,-38, ,
2, ,-38, ,
2, ,-38, ,
1, ,-38, ,
3, ,-38, ,
1, ,-37, ,
1, ,-37, ,
2, ,-38, ,
2, ,-37, ,
1, ,-38, ,
3, ,-38, ,
1, ,-37, ,
2, ,-37, ,
2, ,-38, ,
2, ,-38, ,
1, ,-38, ,
2, ,-37, ,
1, ,-38, ,
2, ,-38, ,
2, ,-38, ,
2, ,-38, ,
1, ,-38, ,
2, ,-38, ,
1, ,-37, ,
1, ,-37, ,
2, ,-38, ,
2, ,-38, ,
1, ,-37, ,
2, ,-37, ,
1, ,-38, ,
2, ,-35, ,
2, ,-17, ,
2, ,1, ,
1, ,15, ,
3, ,25, ,
1, ,33, ,
2, ,39, ,
3, ,43, ,
2, ,46, ,
1, ,50, ,
2, ,51, ,
1, ,53, ,
2, ,53, ,
2, ,54, ,
2, ,54, ,
1, ,55, ,
2, ,55, ,
1, ,56, ,
1, ,56, ,
2, ,56, ,
2, ,55, ,
1, ,56, ,
2, ,56, ,
2, ,56, ,
1, ,56, ,
2, ,56, ,
2, ,56, ,
1, ,56, ,
2, ,56, ,
2, ,56, ,
1, ,56, ,
2, ,56, ,
1, ,55, ,
1, ,56, ,
2, ,56, ,
1, ,56, ,
1, ,55, ,
2, ,56, ,
1, ,55, ,
1, ,55, ,
2, ,56, ,
1, ,56, ,
1, ,55, ,
2, ,56, ,
2, ,55, ,
1, ,55, ,
3, ,56, ,
2, ,56, ,
1, ,55, ,
2, ,56, ,
1, ,55, ,
1, ,55, ,
2, ,56, ,
1, ,56, ,
1, ,55, ,
2, ,56, ,
1, ,55, ,
1, ,55, ,
2, ,56, ,
1, ,56, ,
1, ,55, ,
2, ,56, ,
1, ,55, ,
1, ,55, ,
2, ,55, ,
1, ,55, ,
1, ,55, ,
2, ,56, ,
1, ,55, ,
1, ,55, ,
2, ,56, ,
1, ,56, ,
1, ,55, ,
2, ,56, ,
1, ,55, ,
1, ,55, ,
2, ,55, ,
1, ,55, ,
1, ,55, ,
2, ,56, ,
1, ,55, ,
1, ,55, ,
2, ,55, ,
1, ,56, ,
1, ,55, ,
2, ,56, ,
1, ,55, ,
1, ,55, ,
2, ,56, ,
1, ,56, ,
1, ,55, ,
2, ,55, ,
1, ,55, ,
1, ,55, ,
2, ,56, ,
1, ,55, ,
1, ,55, ,
2, ,55, ,
1, ,55, ,
1, ,55, ,
2, ,55, ,
1, ,56, ,
1, ,55, ,
2, ,56, ,
1, ,55, ,
1, ,55, ,
2, ,56, ,
1, ,56, ,
1, ,55, ,
2, ,55, ,
1, ,55, ,
1, ,55, ,
2, ,55, ,
1, ,55, ,
1, ,55, ,
2, ,56, ,
1, ,55, ,
1, ,55, ,
2, ,56, ,
2, ,55, ,
1, ,55, ,
2, ,55, ,
1, ,55, ,
1, ,55, ,
2, ,55, ,
1, ,55, ,
1, ,55, ,
2, ,55, ,
1, ,55, ,
1, ,55, ,
2, ,56, ,
1, ,56, ,
1, ,55, ,
2, ,55, ,
1, ,55, ,
1, ,55, ,
2, ,55, ,
1, ,55, ,
1, ,55, ,
2, ,56, ,
1, ,55, ,
1, ,55, ,
2, ,56, ,
1, ,55, ,
1, ,55, ,
2, ,56, ,
1, ,55, ,
1, ,55, ,
2, ,55, ,
1, ,56, ,
1, ,55, ,
2, ,56, ,
1, ,55, ,
1, ,55, ,
2, ,55, ,
1, ,43, ,
1, ,23, ,
1, ,7, ,
1, ,-4, ,
1, ,-13, ,
2, ,-19, ,
1, ,-24, ,
1, ,-28, ,
1, ,-31, ,
1, ,-33, ,
-1, ,-34, ,
2, ,-35, ,
1, ,-36, ,
1, ,-37, ,
2, ,-38, ,
2, ,-37, ,
1, ,-38, ,
2, ,-38, ,
1, ,-38, ,
1, ,-38, ,
2, ,-38, ,
2, ,-38, ,
-1, ,-38, ,
2, ,-38, ,
1, ,-38, ,
1, ,-38, ,
2, ,-38, ,
1, ,-38, ,
1, ,-38, ,
2, ,-38, ,
1, ,-38, ,
1, ,-38, ,
2, ,-38, ,
2, ,-38, ,
-1, ,-38, ,
2, ,-38, ,
1, ,-38, ,
1, ,-38, ,
2, ,-38, ,
1, ,-38, ,
1, ,-38, ,
2, ,-38, ,
1, ,-38, ,
1, ,-38, ,
1, ,-38, ,
1, ,-38, ,
-1, ,-38, ,
2, ,-38, ,
1, ,-38, ,
1, ,-37, ,
1, ,-38, ,
1, ,-38, ,
-1, ,-38, ,
2, ,-38, ,
1, ,-38, ,
1, ,-38, ,
2, ,-38, ,
2, ,-38, ,
-1, ,-38, ,
2, ,-38, ,
1, ,-38, ,
1, ,-37, ,
2, ,-38, ,
1, ,-38, ,
-1, ,-38, ,
2, ,-38, ,
1, ,-38, ,
1, ,-37, ,
1, ,-38, ,
1, ,-38, ,
-1, ,-38, ,
2, ,-38, ,
1, ,-38, ,
1, ,-38, ,
1, ,-38, ,
1, ,-38, ,
-1, ,-38, ,
2, ,-38, ,
1, ,-38, ,
1, ,-38, ,
2, ,-38, ,
2, ,-38, ,
-1, ,-38, ,
2, ,-38, ,
1, ,-38, ,
1, ,-37, ,
2, ,-38, ,
1, ,-38, ,
-1, ,-38, ,
2, ,-38, ,
1, ,-38, ,
1, ,-37, ,
2, ,-38, ,
1, ,-38, ,
-1, ,-38, ,
2, ,-38, ,
1, ,-38, ,
1, ,-37, ,
1, ,-38, ,
1, ,-38, ,
-1, ,-38, ,
2, ,-38, ,
1, ,-37, ,
1, ,-38, ,
2, ,-38, ,
1, ,-38, ,
-1, ,-38, ,
2, ,-37, ,
1, ,-38, ,
1, ,-38, ,
2, ,-38, ,
1, ,-38, ,
-1, ,-38, ,
2, ,-38, ,
1, ,-38, ,
1, ,-38, ,
1, ,-38, ,
1, ,-38, ,
-1, ,-38, ,
2, ,-38, ,
1, ,-38, ,
1, ,-38, ,
2, ,-38, ,
1, ,-38, ,
-1, ,-38, ,
2, ,-38, ,
1, ,-38, ,
1, ,-37, ,
2, ,-38, ,
1, ,-38, ,
-1, ,-38, ,
2, ,-38, ,
1, ,-38, ,
1, ,-37, ,
2, ,-38, ,
1, ,-38, ,
1, ,-38, ,
2, ,-38, ,
1, ,-37, ,
1, ,-37, ,
1, ,-38, ,
1, ,-38, ,
-1, ,-38, ,
2, ,-38, ,
1, ,-38, ,
1, ,-38, ,
2, ,-38, ,
1, ,-38, ,
-1, ,-38, ,
2, ,-38, ,
1, ,-38, ,
1, ,-37, ,
2, ,-38, ,
1, ,-38, ,
-1, ,-37, ,
2, ,-37, ,
1, ,-38, ,
1, ,-37, ,
1, ,-38, ,
1, ,-38, ,
-1, ,-38, ,
2, ,-37, ,
1, ,-37, ,
1, ,-38, ,
2, ,-38, ,
1, ,-38, ,
-1, ,-38, ,
2, ,-38, ,
1, ,-38, ,
1, ,-37, ,
1, ,-38, ,
1, ,-38, ,
64, ,-38, ,
54, ,-38, ,
32, ,-37, ,
21, ,-37, ,
15, ,-38, ,
10, ,-38, ,
5, ,-38, ,
6, ,-37, ,
3, ,-38, ,
2, ,-37, ,
3, ,-38, ,
2, ,-38, ,
2, ,-38, ,
3, ,-38, ,
2, ,-37, ,
2, ,-37, ,
2, ,-38, ,
3, ,-38, ,
1, ,-38, ,
3, ,-37, ,
2, ,-38, ,
2, ,-38, ,
2, ,-38, ,
2, ,-38, ,
1, ,-38, ,
3, ,-38, ,
2, ,-38, ,
2, ,-38, ,
2, ,-38, ,
2, ,-38, ,
1, ,-38, ,
3, ,-37, ,
2, ,-38, ,
2, ,-38, ,
2, ,-38, ,
3, ,-37, ,
1, ,-38, ,
3, ,-38, ,
1, ,-37, ,
2, ,-37, ,
2, ,-38, ,
3, ,-38, ,
1, ,-38, ,
3, ,-37, ,
2, ,-38, ,
2, ,-38, ,
2, ,-38, ,
2, ,-38, ,
1, ,-37, ,
3, ,-38, ,
2, ,-38, ,
2, ,-38, ,
2, ,-38, ,
3, ,-38, ,
1, ,-38, ,
3, ,-37, ,
2, ,-38, ,
2, ,-37, ,
2, ,-38, ,
2, ,-38, ,
1, ,-38, ,
3, ,-38, ,
2, ,-37, ,
2, ,-38, ,
2, ,-38, ,
2, ,-38, ,
1, ,-38, ,
3, ,-38, ,
2, ,-38, ,
2, ,-38, ,
2, ,-38, ,
2, ,-38, ,
1, ,-38, ,
3, ,-38, ,
2, ,-38, ,
2, ,-38, ,
2, ,-38, ,
2, ,-38, ,
1, ,-38, ,
3, ,-38, ,
2, ,-38, ,
2, ,-37, ,
2, ,-38, ,
2, ,-37, ,
1, ,-38, ,
3, ,-38, ,
2, ,-38, ,
2, ,-38, ,
2, ,-38, ,
3, ,-38, ,
1, ,-37, ,
3, ,-37, ,
2, ,-38, ,
2, ,-38, ,
2, ,-38, ,
3, ,-37, ,
1, ,-38, ,
2, ,-38, ,
2, ,-38, ,
1, ,-38, ,
2, ,-38, ,
2, ,-38, ,
1, ,-38, ,
3, ,-38, ,
2, ,-38, ,
2, ,-37, ,
2, ,-38, ,
2, ,-38, ,
1, ,-38, ,
3, ,-38, ,
1, ,-38, ,
1, ,-38, ,
2, ,-38, ,
2, ,-38, ,
1, ,-38, ,
3, ,-38, ,
2, ,-38, ,
1, ,-37, ,
2, ,-38, ,
2, ,-38, ,
1, ,-38, ,
2, ,-38, ,
1, ,-38, ,
2, ,-38, ,
2, ,-38, ,
2, ,-38, ,
1, ,-38, ,
2, ,-38, ,
2, ,-38, ,
2, ,-38, ,
2, ,-38, ,
2, ,-38, ,
1, ,-38, ,
2, ,-38, ,
1, ,-38, ,
1, ,-38, ,
2, ,-38, ,
2, ,-38, ,
1, ,-38, ,
2, ,-38, ,
1, ,-38, ,
1, ,-38, ,
2, ,-38, ,
2, ,-38, ,
1, ,-38, ,
2, ,-38, ,
1, ,-38, ,
1, ,-38, ,
2, ,-38, ,
2, ,-38, ,
1, ,-38, ,
2, ,-38, ,
1, ,-38, ,
1, ,-37, ,
2, ,-38, ,
2, ,-38, ,
1, ,-38, ,
2, ,-38, ,
1, ,-37, ,
1, ,-38, ,
2, ,-38, ,
2, ,-38, ,
1, ,-38, ,
2, ,-38, ,
1, ,-38, ,
1, ,-37, ,
2, ,-38, ,
2, ,-37, ,
1, ,-38, ,
2, ,-38, ,
1, ,-38, ,
1, ,-37, ,
2, ,-38, ,
2, ,-38, ,
1, ,-38, ,
2, ,-38, ,
1, ,-38, ,
1, ,-37, ,
2, ,-38, ,
2, ,-37, ,
1, ,-38, ,
2, ,-38, ,
1, ,-38, ,
1, ,-38, ,
2, ,-38, ,
2, ,-38, ,
1, ,-38, ,
2, ,-38, ,
1, ,-38, ,
1, ,-38, ,
2, ,-38, ,
2, ,-38, ,
1, ,-38, ,
2, ,-38, ,
1, ,-38, ,
1, ,-38, ,
2, ,-38, ,
2, ,-38, ,
-1, ,-37, ,
2, ,-38, ,
1, ,-38, ,
1, ,-38, ,
2, ,-38, ,
2, ,-38, ,
1, ,-38, ,
3, ,-38, ,
1, ,-38, ,
1, ,-38, ,
2, ,-38, ,
2, ,-38, ,
-1, ,-38, ,
2, ,-38, ,
1, ,-38, ,
1, ,-37, ,
2, ,-38, ,
2, ,-38, ,
1, ,-38, ,
2, ,-38, ,
1, ,-38, ,
1, ,-38, ,
2, ,-38, ,
2, ,-38, ,
-1, ,-38, ,
2, ,-38, ,
1, ,-37, ,
1, ,-37, ,
2, ,-38, ,
2, ,-38, ,
1, ,-38, ,
2, ,-38, ,
1, ,-38, ,
1, ,-38, ,
2, ,-38, ,
2, ,-38, ,
1, ,-37, ,
2, ,-37, ,
1, ,-38, ,
1, ,-37, ,
2, ,-38, ,
2, ,-37, ,
1, ,-38, ,
2, ,-38, ,
1, ,-38, ,
1, ,-38, ,
2, ,-38, ,
2, ,-38, ,
1, ,-37, ,
2, ,-37, ,
1, ,-38, ,
1, ,-38, ,
2, ,-38, ,
2, ,-37, ,
1, ,-37, ,
2, ,-38, ,
1, ,-38, ,
1, ,-37, ,
2, ,-38, ,
2, ,-37, ,
-1, ,-37, ,
2, ,-38, ,
1, ,-38, ,
1, ,-38, ,
2, ,-38, ,
2, ,-38, ,
1, ,-38, ,
2, ,-38, ,
1, ,-38, ,
1, ,-38, ,
2, ,-38, ,
2, ,-38, ,
1, ,-38, ,
2, ,-37, ,
1, ,-38, ,
1, ,-38, ,
2, ,-38, ,
2, ,-37, ,
1, ,-38, ,
2, ,-37, ,
1, ,-38, ,
1, ,-38, ,
2, ,-38, ,
2, ,-38, ,
1, ,-38, ,
2, ,-37, ,
1, ,-38, ,
1, ,-37, ,
2, ,-38, ,
2, ,-37, ,
1, ,-38, ,
2, ,-38, ,
1, ,-37, ,
1, ,-37, ,
2, ,-38, ,
2, ,-38, ,
-1, ,-38, ,
2, ,-37, ,
1, ,-37, ,
1, ,-37, ,
2, ,-38, ,
2, ,-38, ,
-1, ,-38, ,
2, ,-38, ,
1, ,-37, ,
1, ,-37, ,
2, ,-38, ,
2, ,-38, ,
1, ,-38, ,
2, ,-37, ,
1, ,-38, ,
1, ,-38, ,
2, ,-38, ,
2, ,-38, ,
1, ,-38, ,
2, ,-38, ,
1, ,-38, ,
1, ,-38, ,
2, ,-38, ,
1, ,-38, ,
1, ,-38, ,
2, ,-37, ,
1, ,-37, ,
1, ,-38, ,
2, ,-38, ,
1, ,-38, ,
