src/varyamp_1558/temp0004437.CSV

Format,1.0B,
Memory Length,10000,Memory Length,10000,
IntpDistance,0,IntpDistance,0,
Trigger Address,4999,Trigger Address,4999,
Trigger Level,1.040E+00,Trigger Level,1.040E+00,
Source,CH1,Source,CH2,
Vertical Units,V,Vertical Units,V,
Vertical Units Div,0,Vertical Units Div,0,
Vertical Units Extend Div,16,Vertical Units Extend Div,16,
Label,,Label,,
Probe Type,0,Probe Type,0,
Probe Ratio,1.000e+01,Probe Ratio,1.000e+00,
Vertical Scale,5.000e-01,Vertical Scale,1.000e+00,
Vertical Position,-1.820e+00,Vertical Position,0.000e+00,
Horizontal Units,S,Horizontal Units,S,
Horizontal Scale,2.000E-05,Horizontal Scale,2.000E-05,
Horizontal Position,0.000E+00,Horizontal Position,0.000E+00,
Horizontal Mode,Main,Horizontal Mode,Main,
SincET Mode,Real Time,SincET Mode,Real Time,
Sampling Period,2.000e-08,Sampling Period,2.000e-08,
Horizontal Old Scale,2.000E-05,Horizontal Old Scale,2.000E-05,
Horizontal Old Position,0.000E+00,Horizontal Old Position,0.000E+00,
Firmware,V1.23,Firmware,V1.23,
Mode,Fast,Mode,Fast,
Waveform Data,,Waveform Data,,
-1, ,-37, ,
1, ,-38, ,
1, ,-37, ,
-1, ,-37, ,
1, ,-38, ,
-1, ,-38, ,
-1, ,-38, ,
1, ,-38, ,
1, ,-38, ,
-1, ,-37, ,
1, ,-37, ,
-1, ,-38, ,
-1, ,-38, ,
1, ,-38, ,
1, ,-37, ,
-1, ,-37, ,
1, ,-37, ,
-1, ,-38, ,
-1, ,-37, ,
1, ,-38, ,
1, ,-37, ,
-1, ,-37, ,
1, ,-37, ,
-1, ,-38, ,
-1, ,-37, ,
1, ,-37, ,
1, ,-37, ,
-1, ,-37, ,
1, ,-38, ,
-1, ,-38, ,
-1, ,-37, ,
1, ,-38, ,
1, ,-38, ,
-1, ,-37, ,
1, ,-38, ,
-1, ,-38, ,
-1, ,-38, ,
1, ,-37, ,
1, ,-37, ,
-1, ,-37, ,
1, ,-37, ,
-1, ,-38, ,
-1, ,-37, ,
1, ,-38, ,
1, ,-37, ,
-1, ,-37, ,
1, ,-37, ,
-1, ,-38, ,
-1, ,-37, ,
1, ,-38, ,
1, ,-37, ,
-1, ,-37, ,
2, ,-37, ,
-1, ,-38, ,
-1, ,-37, ,
1, ,-38, ,
1, ,-38, ,
-1, ,-37, ,
1, ,-38, ,
-1, ,-38, ,
-1, ,-38, ,
1, ,-38, ,
1, ,-37, ,
-1, ,-38, ,
1, ,-37, ,
-1, ,-38, ,
-1, ,-38, ,
1, ,-38, ,
1, ,-38, ,
-1, ,-37, ,
1, ,-37, ,
-1, ,-38, ,
-1, ,-38, ,
1, ,-38, ,
1, ,-37, ,
-1, ,-37, ,
1, ,-37, ,
-1, ,-38, ,
-1, ,-37, ,
1, ,-38, ,
1, ,-38, ,
-1, ,-37, ,
1, ,-37, ,
-1, ,-38, ,
-1, ,-37, ,
1, ,-38, ,
1, ,-38, ,
-1, ,-38, ,
1, ,-37, ,
-1, ,-38, ,
-1, ,-37, ,
1, ,-37, ,
1, ,-38, ,
-1, ,-37, ,
1, ,-37, ,
-1, ,-38, ,
-1, ,-38, ,
1, ,-38, ,
1, ,-37, ,
-1, ,-38, ,
1, ,-37, ,
-1, ,-38, ,
-1, ,-37, ,
1, ,-38, ,
1, ,-37, ,
-1, ,-37, ,
1, ,-37, ,
-1, ,-38, ,
-1, ,-37, ,
1, ,-37, ,
1, ,-37, ,
-1, ,-37, ,
1, ,-37, ,
-1, ,-38, ,
-1, ,-37, ,
1, ,-37, ,
1, ,-37, ,
-1, ,-37, ,
1, ,-37, ,
-1, ,-38, ,
-1, ,-38, ,
1, ,-38, ,
1, ,-37, ,
-1, ,-37, ,
1, ,-37, ,
-1, ,-38, ,
-1, ,-37, ,
1, ,-38, ,
1, ,-37, ,
-1, ,-37, ,
1, ,-37, ,
-1, ,-37, ,
-1, ,-38, ,
1, ,-37, ,
1, ,-37, ,
-1, ,-37, ,
1, ,-38, ,
-1, ,-38, ,
-1, ,-37, ,
1, ,-38, ,
1, ,-38, ,
-1, ,-37, ,
1, ,-37, ,
-1, ,-38, ,
-1, ,-38, ,
1, ,-38, ,
1, ,-37, ,
-1, ,-37, ,
1, ,-37, ,
-1, ,-38, ,
-1, ,-38, ,
1, ,-38, ,
1, ,-37, ,
-1, ,-37, ,
1, ,-37, ,
-1, ,-38, ,
-1, ,-38, ,
1, ,-38, ,
1, ,-37, ,
-1, ,-37, ,
2, ,-38, ,
-1, ,-38, ,
-1, ,-38, ,
1, ,-38, ,
1, ,-38, ,
-1, ,-37, ,
1, ,-37, ,
-1, ,-38, ,
-1, ,-38, ,
1, ,-38, ,
1, ,-37, ,
-1, ,-37, ,
1, ,-37, ,
-1, ,-38, ,
-1, ,-38, ,
1, ,-38, ,
1, ,-38, ,
-1, ,-37, ,
1, ,-37, ,
-1, ,-38, ,
-1, ,-38, ,
1, ,-38, ,
1, ,-37, ,
-1, ,-38, ,
1, ,-38, ,
-1, ,-38, ,
-1, ,-37, ,
1, ,-38, ,
1, ,-37, ,
-1, ,-38, ,
1, ,-37, ,
-1, ,-38, ,
-1, ,-38, ,
1, ,-38, ,
1, ,-38, ,
-1, ,-38, ,
2, ,-37, ,
-1, ,-38, ,
-1, ,-38, ,
1, ,-37, ,
1, ,-38, ,
-1, ,-37, ,
1, ,-38, ,
-1, ,-38, ,
-1, ,-38, ,
1, ,-38, ,
1, ,-37, ,
-1, ,-38, ,
1, ,-37, ,
-1, ,-38, ,
-1, ,-38, ,
1, ,-38, ,
1, ,-38, ,
-1, ,-37, ,
1, ,-37, ,
-1, ,-38, ,
-1, ,-38, ,
1, ,-37, ,
1, ,-37, ,
-1, ,-38, ,
1, ,-37, ,
-1, ,-38, ,
-1, ,-38, ,
1, ,-37, ,
1, ,-38, ,
-1, ,-37, ,
1, ,-38, ,
-1, ,-38, ,
-1, ,-38, ,
1, ,-37, ,
1, ,-37, ,
-1, ,-37, ,
2, ,-37, ,
-1, ,-38, ,
-1, ,-38, ,
1, ,-38, ,
2, ,-38, ,
95, ,-37, ,
57, ,-37, ,
34, ,-38, ,
22, ,-38, ,
15, ,-37, ,
11, ,-37, ,
6, ,-38, ,
6, ,-37, ,
3, ,-38, ,
3, ,-38, ,
2, ,-38, ,
2, ,-38, ,
2, ,-37, ,
3, ,-37, ,
2, ,-38, ,
2, ,-38, ,
3, ,-38, ,
2, ,-38, ,
1, ,-37, ,
3, ,-38, ,
2, ,-38, ,
2, ,-38, ,
3, ,-38, ,
3, ,-38, ,
2, ,-38, ,
3, ,-38, ,
2, ,-38, ,
2, ,-38, ,
2, ,-38, ,
3, ,-37, ,
1, ,-38, ,
3, ,-37, ,
2, ,-38, ,
2, ,-38, ,
2, ,-38, ,
3, ,-38, ,
2, ,-37, ,
3, ,-38, ,
2, ,-38, ,
2, ,-38, ,
3, ,-38, ,
3, ,-37, ,
2, ,-37, ,
3, ,-37, ,
2, ,-38, ,
2, ,-38, ,
2, ,-37, ,
3, ,-38, ,
2, ,-38, ,
3, ,-38, ,
2, ,-38, ,
2, ,-38, ,
3, ,-38, ,
3, ,-37, ,
1, ,-38, ,
3, ,-38, ,
2, ,-38, ,
2, ,-38, ,
2, ,-38, ,
3, ,-38, ,
1, ,-37, ,
3, ,-37, ,
2, ,-38, ,
2, ,-38, ,
2, ,-38, ,
3, ,-38, ,
1, ,-37, ,
3, ,-37, ,
2, ,-38, ,
2, ,-38, ,
2, ,-35, ,
3, ,-18, ,
2, ,1, ,
3, ,15, ,
2, ,25, ,
2, ,33, ,
3, ,39, ,
3, ,43, ,
1, ,46, ,
3, ,49, ,
2, ,52, ,
2, ,52, ,
3, ,54, ,
2, ,54, ,
1, ,55, ,
3, ,55, ,
2, ,56, ,
2, ,56, ,
3, ,55, ,
2, ,56, ,
1, ,56, ,
3, ,56, ,
2, ,56, ,
2, ,56, ,
3, ,56, ,
2, ,56, ,
2, ,56, ,
2, ,55, ,
2, ,56, ,
2, ,56, ,
3, ,56, ,
2, ,56, ,
1, ,56, ,
2, ,56, ,
2, ,56, ,
1, ,56, ,
3, ,56, ,
2, ,56, ,
1, ,55, ,
2, ,56, ,
2, ,56, ,
2, ,55, ,
2, ,55, ,
2, ,56, ,
1, ,56, ,
2, ,55, ,
2, ,56, ,
1, ,55, ,
2, ,55, ,
2, ,55, ,
1, ,55, ,
2, ,55, ,
2, ,56, ,
1, ,55, ,
2, ,55, ,
2, ,56, ,
1, ,56, ,
2, ,55, ,
1, ,56, ,
1, ,55, ,
2, ,55, ,
2, ,55, ,
1, ,55, ,
2, ,55, ,
1, ,56, ,
1, ,55, ,
2, ,55, ,
2, ,56, ,
1, ,56, ,
2, ,55, ,
1, ,56, ,
1, ,55, ,
2, ,55, ,
2, ,55, ,
1, ,55, ,
2, ,55, ,
1, ,56, ,
1, ,55, ,
2, ,55, ,
2, ,56, ,
1, ,55, ,
2, ,55, ,
1, ,56, ,
1, ,55, ,
2, ,55, ,
2, ,55, ,
1, ,55, ,
2, ,55, ,
2, ,56, ,
1, ,55, ,
2, ,55, ,
1, ,56, ,
1, ,55, ,
2, ,55, ,
2, ,56, ,
1, ,55, ,
2, ,55, ,
2, ,55, ,
1, ,55, ,
2, ,55, ,
1, ,56, ,
1, ,55, ,
2, ,55, ,
2, ,56, ,
1, ,56, ,
2, ,55, ,
1, ,56, ,
1, ,55, ,
2, ,55, ,
2, ,55, ,
1, ,55, ,
2, ,55, ,
1, ,55, ,
1, ,55, ,
2, ,55, ,
1, ,56, ,
1, ,55, ,
2, ,55, ,
1, ,56, ,
1, ,55, ,
2, ,55, ,
1, ,55, ,
1, ,56, ,
2, ,55, ,
1, ,56, ,
1, ,55, ,
2, ,55, ,
2, ,56, ,
1, ,55, ,
2, ,55, ,
2, ,55, ,
1, ,55, ,
2, ,55, ,
2, ,55, ,
1, ,55, ,
2, ,55, ,
1, ,56, ,
1, ,55, ,
2, ,55, ,
2, ,55, ,
1, ,56, ,
2, ,55, ,
2, ,56, ,
1, ,55, ,
2, ,55, ,
2, ,55, ,
1, ,55, ,
2, ,55, ,
1, ,56, ,
1, ,55, ,
2, ,55, ,
1, ,55, ,
1, ,55, ,
2, ,55, ,
1, ,55, ,
1, ,43, ,
2, ,23, ,
1, ,7, ,
1, ,-3, ,
2, ,-13, ,
1, ,-19, ,
1, ,-24, ,
2, ,-27, ,
1, ,-31, ,
1, ,-33, ,
2, ,-34, ,
1, ,-36, ,
1, ,-36, ,
2, ,-37, ,
2, ,-37, ,
1, ,-38, ,
2, ,-38, ,
1, ,-38, ,
2, ,-38, ,
2, ,-38, ,
2, ,-38, ,
1, ,-38, ,
2, ,-38, ,
1, ,-39, ,
1, ,-38, ,
2, ,-38, ,
1, ,-38, ,
1, ,-38, ,
2, ,-38, ,
1, ,-38, ,
1, ,-38, ,
2, ,-38, ,
1, ,-38, ,
1, ,-38, ,
2, ,-38, ,
1, ,-38, ,
1, ,-38, ,
2, ,-38, ,
2, ,-38, ,
1, ,-38, ,
2, ,-38, ,
1, ,-38, ,
1, ,-38, ,
2, ,-38, ,
2, ,-38, ,
1, ,-38, ,
2, ,-38, ,
1, ,-38, ,
1, ,-38, ,
2, ,-38, ,
1, ,-38, ,
1, ,-38, ,
2, ,-38, ,
1, ,-38, ,
1, ,-38, ,
2, ,-38, ,
1, ,-38, ,
-1, ,-38, ,
2, ,-37, ,
1, ,-38, ,
1, ,-38, ,
1, ,-38, ,
1, ,-38, ,
1, ,-37, ,
2, ,-38, ,
1, ,-38, ,
1, ,-38, ,
2, ,-38, ,
1, ,-38, ,
-1, ,-38, ,
2, ,-38, ,
1, ,-38, ,
1, ,-38, ,
1, ,-38, ,
1, ,-38, ,
-1, ,-38, ,
2, ,-38, ,
1, ,-38, ,
1, ,-38, ,
2, ,-38, ,
1, ,-38, ,
1, ,-38, ,
2, ,-38, ,
1, ,-38, ,
1, ,-38, ,
2, ,-38, ,
1, ,-38, ,
1, ,-37, ,
2, ,-37, ,
1, ,-38, ,
1, ,-38, ,
2, ,-38, ,
1, ,-38, ,
1, ,-38, ,
2, ,-38, ,
1, ,-38, ,
1, ,-38, ,
2, ,-37, ,
1, ,-38, ,
1, ,-37, ,
2, ,-38, ,
1, ,-38, ,
1, ,-38, ,
2, ,-38, ,
1, ,-37, ,
-1, ,-38, ,
2, ,-37, ,
1, ,-38, ,
1, ,-38, ,
2, ,-37, ,
1, ,-38, ,
1, ,-38, ,
2, ,-38, ,
1, ,-38, ,
1, ,-38, ,
2, ,-38, ,
2, ,-38, ,
-1, ,-38, ,
2, ,-37, ,
1, ,-38, ,
1, ,-38, ,
2, ,-37, ,
1, ,-38, ,
1, ,-38, ,
2, ,-37, ,
1, ,-38, ,
1, ,-38, ,
2, ,-37, ,
1, ,-38, ,
-1, ,-38, ,
2, ,-38, ,
1, ,-38, ,
1, ,-38, ,
2, ,-38, ,
1, ,-37, ,
-1, ,-38, ,
2, ,-38, ,
1, ,-38, ,
1, ,-38, ,
2, ,-38, ,
1, ,-37, ,
-1, ,-38, ,
2, ,-38, ,
1, ,-38, ,
1, ,-38, ,
1, ,-37, ,
1, ,-38, ,
1, ,-38, ,
2, ,-38, ,
1, ,-38, ,
1, ,-38, ,
2, ,-38, ,
2, ,-37, ,
-1, ,-38, ,
2, ,-37, ,
1, ,-38, ,
1, ,-38, ,
2, ,-37, ,
1, ,-38, ,
-1, ,-37, ,
2, ,-38, ,
1, ,-38, ,
1, ,-38, ,
2, ,-37, ,
2, ,-38, ,
-1, ,-38, ,
2, ,-37, ,
1, ,-38, ,
1, ,-38, ,
1, ,-37, ,
1, ,-38, ,
-1, ,-37, ,
2, ,-37, ,
1, ,-38, ,
1, ,-38, ,
2, ,-38, ,
1, ,-37, ,
-1, ,-38, ,
2, ,-37, ,
1, ,-38, ,
1, ,-38, ,
1, ,-38, ,
1, ,-38, ,
-1, ,-38, ,
2, ,-37, ,
1, ,-38, ,
1, ,-38, ,
2, ,-38, ,
1, ,-37, ,
-1, ,-38, ,
2, ,-37, ,
1, ,-38, ,
1, ,-38, ,
1, ,-38, ,
1, ,-38, ,
-1, ,-37, ,
2, ,-38, ,
-1, ,-38, ,
1, ,-37, ,
2, ,-38, ,
1, ,-38, ,
-1, ,-38, ,
2, ,-37, ,
1, ,-38, ,
1, ,-38, ,
1, ,-38, ,
1, ,-37, ,
-1, ,-37, ,
2, ,-38, ,
-1, ,-38, ,
1, ,-38, ,
2, ,-38, ,
1, ,-37, ,
-1, ,-37, ,
2, ,-37, ,
1, ,-38, ,
-1, ,-38, ,
1, ,-38, ,
1, ,-38, ,
-1, ,-37, ,
2, ,-37, ,
1, ,-38, ,
1, ,-38, ,
2, ,-38, ,
2, ,-38, ,
-1, ,-38, ,
2, ,-37, ,
1, ,-38, ,
1, ,-38, ,
2, ,-38, ,
1, ,-38, ,
-1, ,-38, ,
2, ,-37, ,
1, ,-38, ,
1, ,-37, ,
2, ,-38, ,
1, ,-37, ,
-1, ,-37, ,
2, ,-37, ,
1, ,-38, ,
1, ,-38, ,
1, ,-38, ,
1, ,-38, ,
-1, ,-38, ,
2, ,-38, ,
1, ,-38, ,
1, ,-38, ,
2, ,-37, ,
2, ,-37, ,
-1, ,-38, ,
2, ,-38, ,
1, ,-38, ,
1, ,-37, ,
1, ,-38, ,
1, ,-38, ,
-1, ,-37, ,
2, ,-38, ,
1, ,-38, ,
1, ,-38, ,
1, ,-38, ,
1, ,-37, ,
-1, ,-37, ,
2, ,-38, ,
1, ,-38, ,
1, ,-38, ,
1, ,-38, ,
1, ,-38, ,
-1, ,-38, ,
2, ,-37, ,
1, ,-38, ,
1, ,-38, ,
1, ,-38, ,
2, ,-37, ,
-1, ,-37, ,
2, ,-37, ,
1, ,-38, ,
1, ,-38, ,
1, ,-38, ,
2, ,-38, ,
-1, ,-38, ,
2, ,-37, ,
1, ,-38, ,
1, ,-38, ,
2, ,-37, ,
1, ,-37, ,
-1, ,-37, ,
2, ,-38, ,
1, ,-38, ,
1, ,-37, ,
1, ,-38, ,
1, ,-38, ,
-1, ,-37, ,
2, ,-38, ,
-1, ,-38, ,
1, ,-38, ,
1, ,-38, ,
1, ,-37, ,
-1, ,-38, ,
2, ,-37, ,
1, ,-38, ,
1, ,-38, ,
1, ,-38, ,
1, ,-38, ,
-1, ,-38, ,
2, ,-37, ,
-1, ,-38, ,
1, ,-38, ,
1, ,-38, ,
1, ,-37, ,
-1, ,-38, ,
2, ,-38, ,
1, ,-38, ,
-1, ,-38, ,
1, ,-38, ,
1, ,-38, ,
-1, ,-37, ,
2, ,-37, ,
-1, ,-38, ,
1, ,-38, ,
1, ,-37, ,
2, ,-38, ,
-1, ,-38, ,
2, ,-38, ,
-1, ,-38, ,
1, ,-38, ,
1, ,-37, ,
1, ,-38, ,
-1, ,-38, ,
2, ,-38, ,
-1, ,-38, ,
-1, ,-38, ,
1, ,-37, ,
1, ,-37, ,
-1, ,-37, ,
2, ,-38, ,
1, ,-38, ,
-1, ,-37, ,
1, ,-38, ,
1, ,-38, ,
-1, ,-37, ,
2, ,-38, ,
-1, ,-38, ,
1, ,-38, ,
1, ,-38, ,
2, ,-38, ,
-1, ,-37, ,
2, ,-37, ,
1, ,-38, ,
1, ,-38, ,
2, ,-37, ,
1, ,-38, ,
-1, ,-37, ,
2, ,-37, ,
-1, ,-38, ,
1, ,-38, ,
1, ,-37, ,
1, ,-37, ,
-1, ,-37, ,
2, ,-38, ,
1, ,-38, ,
1, ,-38, ,
1, ,-37, ,
1, ,-38, ,
-1, ,-38, ,
2, ,-38, ,
1, ,-38, ,
1, ,-38, ,
1, ,-38, ,
1, ,-37, ,
-1, ,-38, ,
2, ,-38, ,
1, ,-38, ,
1, ,-38, ,
1, ,-38, ,
1, ,-38, ,
-1, ,-38, ,
2, ,-38, ,
-1, ,-38, ,
1, ,-38, ,
1, ,-37, ,
1, ,-37, ,
-1, ,-38, ,
2, ,-38, ,
-1, ,-38, ,
1, ,-38, ,
1, ,-38, ,
1, ,-38, ,
-1, ,-37, ,
1, ,-38, ,
1, ,-38, ,
1, ,-38, ,
1, ,-38, ,
1, ,-38, ,
-1, ,-38, ,
2, ,-38, ,
1, ,-38, ,
-1, ,-38, ,
1, ,-38, ,
1, ,-38, ,
-1, ,-37, ,
2, ,-38, ,
-1, ,-38, ,
1, ,-38, ,
1, ,-38, ,
1, ,-37, ,
-1, ,-38, ,
2, ,-37, ,
-1, ,-38, ,
-1, ,-37, ,
1, ,-38, ,
1, ,-38, ,
-1, ,-37, ,
2, ,-37, ,
1, ,-38, ,
1, ,-38, ,
1, ,-37, ,
1, ,-38, ,
-1, ,-37, ,
1, ,-38, ,
-1, ,-38, ,
-1, ,-37, ,
1, ,-38, ,
1, ,-38, ,
-1, ,-38, ,
1, ,-38, ,
-1, ,-38, ,
-1, ,-38, ,
1, ,-38, ,
1, ,-38, ,
-1, ,-38, ,
1, ,-38, ,
-1, ,-38, ,
-1, ,-38, ,
1, ,-38, ,
1, ,-38, ,
-1, ,-38, ,
1, ,-37, ,
-1, ,-38, ,
-1, ,-38, ,
1, ,-37, ,
1, ,-38, ,
-1, ,-38, ,
2, ,-37, ,
-1, ,-38, ,
-1, ,-38, ,
1, ,-38, ,
1, ,-38, ,
-1, ,-38, ,
1, ,-38, ,
-1, ,-38, ,
1, ,-38, ,
1, ,-38, ,
1, ,-38, ,
-1, ,-38, ,
1, ,-37, ,
-1, ,-38, ,
-1, ,-37, ,
1, ,-38, ,
1, ,-38, ,
-1, ,-38, ,
2, ,-38, ,
-1, ,-38, ,
-1, ,-38, ,
1, ,-38, ,
2, ,-37, ,
-1, ,-37, ,
2, ,-37, ,
-1, ,-38, ,
-1, ,-37, ,
1, ,-38, ,
1, ,-38, ,
-1, ,-37, ,
2, ,-37, ,
-1, ,-38, ,
1, ,-38, ,
1, ,-38, ,
1, ,-38, ,
-1, ,-38, ,
2, ,-37, ,
-1, ,-38, ,
-1, ,-38, ,
1, ,-38, ,
2, ,-37, ,
-1, ,-38, ,
2, ,-38, ,
-1, ,-38, ,
1, ,-38, ,
1, ,-38, ,
1, ,-37, ,
-1, ,-38, ,
2, ,-37, ,
-1, ,-38, ,
-1, ,-37, ,
1, ,-37, ,
1, ,-38, ,
-1, ,-38, ,
2, ,-37, ,
-1, ,-38, ,
1, ,-37, ,
1, ,-38, ,
1, ,-37, ,
-1, ,-38, ,
1, ,-37, ,
-1, ,-38, ,
1, ,-37, ,
1, ,-38, ,
1, ,-38, ,
-1, ,-37, ,
2, ,-38, ,
-1, ,-38, ,
-1, ,-38, ,
1, ,-38, ,
1, ,-37, ,
-1, ,-38, ,
2, ,-37, ,
-1, ,-38, ,
-1, ,-38, ,
1, ,-37, ,
1, ,-38, ,
-1, ,-38, ,
2, ,-38, ,
-1, ,-38, ,
1, ,-38, ,
1, ,-38, ,
2, ,-38, ,
-1, ,-38, ,
2, ,-38, ,
-1, ,-38, ,
-1, ,-38, ,
1, ,-38, ,
1, ,-38, ,
-1, ,-38, ,
2, ,-38, ,
-1, ,-38, ,
-1, ,-38, ,
1, ,-38, ,
1, ,-38, ,
-1, ,-38, ,
2, ,-38, ,
1, ,-38, ,
-1, ,-38, ,
1, ,-37, ,
1, ,-38, ,
-1, ,-38, ,
1, ,-38, ,
-1, ,-38, ,
-1, ,-38, ,
1, ,-38, ,
1, ,-38, ,
-1, ,-38, ,
1, ,-38, ,
-1, ,-38, ,
-1, ,-38, ,
1, ,-38, ,
1, ,-38, ,
-1, ,-38, ,
1, ,-38, ,
-1, ,-38, ,
1, ,-38, ,
1, ,-38, ,
1, ,-37, ,
-1, ,-38, ,
2, ,-38, ,
-1, ,-38, ,
-1, ,-38, ,
1, ,-38, ,
1, ,-38, ,
-1, ,-38, ,
2, ,-38, ,
-1, ,-38, ,
-1, ,-38, ,
1, ,-37, ,
1, ,-37, ,
-1, ,-37, ,
1, ,-38, ,
-1, ,-38, ,
-1, ,-38, ,
1, ,-38, ,
1, ,-38, ,
-1, ,-38, ,
2, ,-38, ,
-1, ,-38, ,
-1, ,-38, ,
1, ,-38, ,
1, ,-38, ,
-1, ,-37, ,
1, ,-38, ,
-1, ,-38, ,
-1, ,-38, ,
1, ,-37, ,
1, ,-38, ,
-1, ,-38, ,
2, ,-38, ,
-1, ,-38, ,
-1, ,-38, ,
1, ,-38, ,
1, ,-37, ,
-1, ,-38, ,
2, ,-37, ,
-1, ,-38, ,
-1, ,-38, ,
1, ,-38, ,
1, ,-38, ,
-1, ,-38, ,
1, ,-38, ,
-1, ,-38, ,
-1, ,-38, ,
1, ,-38, ,
1, ,-38, ,
-1, ,-38, ,
2, ,-37, ,
-1, ,-38, ,
-1, ,-37, ,
1, ,-38, ,
2, ,-38, ,
-1, ,-38, ,
2, ,-38, ,
-1, ,-38, ,
-1, ,-38, ,
1, ,-38, ,
1, ,-38, ,
-1, ,-38, ,
1, ,-38, ,
-1, ,-38, ,
-1, ,-38, ,
1, ,-38, ,
1, ,-37, ,
-1, ,-23, ,
2, ,-3, ,
-1, ,12, ,
1, ,23, ,
1, ,32, ,
1, ,38, ,
-1, ,43, ,
2, ,46, ,
1, ,49, ,
-1, ,51, ,
1, ,52, ,
1, ,53, ,
-1, ,54, ,
1, ,54, ,
-1, ,55, ,
1, ,55, ,
1, ,55, ,
1, ,56, ,
-1, ,56, ,
1, ,56, ,
1, ,56, ,
-1, ,56, ,
1, ,56, ,
1, ,56, ,
-1, ,56, ,
1, ,56, ,
-1, ,56, ,
-1, ,55, ,
1, ,56, ,
1, ,56, ,
-1, ,56, ,
1, ,56, ,
1, ,56, ,
-1, ,56, ,
1, ,56, ,
1, ,56, ,
-1, ,55, ,
1, ,56, ,
1, ,56, ,
-1, ,55, ,
1, ,55, ,
-1, ,56, ,
-1, ,56, ,
1, ,55, ,
1, ,56, ,
-1, ,55, ,
1, ,55, ,
1, ,55, ,
-1, ,55, ,
1, ,55, ,
-1, ,56, ,
-1, ,55, ,
1, ,55, ,
1, ,56, ,
-1, ,56, ,
1, ,55, ,
1, ,56, ,
-1, ,55, ,
1, ,55, ,
1, ,56, ,
-1, ,55, ,
2, ,55, ,
1, ,56, ,
-1, ,55, ,
1, ,55, ,
-1, ,56, ,
-1, ,55, ,
1, ,55, ,
-1, ,56, ,
-1, ,55, ,
1, ,55, ,
1, ,56, ,
-1, ,55, ,
1, ,56, ,
-1, ,56, ,
-1, ,55, ,
1, ,55, ,
1, ,56, ,
-1, ,55, ,
1, ,55, ,
1, ,55, ,
-1, ,55, ,
1, ,55, ,
1, ,56, ,
-1, ,55, ,
2, ,55, ,
-1, ,56, ,
-1, ,55, ,
1, ,55, ,
1, ,56, ,
-1, ,55, ,
1, ,55, ,
1, ,55, ,
-1, ,55, ,
1, ,55, ,
1, ,56, ,
-1, ,55, ,
1, ,55, ,
-1, ,56, ,
-1, ,55, ,
1, ,55, ,
1, ,56, ,
-1, ,56, ,
1, ,56, ,
1, ,56, ,
-1, ,55, ,
1, ,55, ,
1, ,56, ,
-1, ,55, ,
2, ,55, ,
-1, ,56, ,
-1, ,55, ,
1, ,55, ,
1, ,56, ,
-1, ,55, ,
1, ,56, ,
-1, ,56, ,
-1, ,55, ,
1, ,55, ,
-1, ,56, ,
-1, ,55, ,
2, ,56, ,
1, ,56, ,
-1, ,55, ,
1, ,55, ,
1, ,56, ,
-1, ,56, ,
1, ,56, ,
1, ,56, ,
-1, ,55, ,
1, ,55, ,
1, ,55, ,
-1, ,55, ,
2, ,55, ,
-1, ,56, ,
-1, ,55, ,
1, ,55, ,
1, ,56, ,
-1, ,56, ,
1, ,55, ,
1, ,56, ,
-1, ,55, ,
1, ,55, ,
1, ,55, ,
-1, ,55, ,
1, ,55, ,
1, ,56, ,
-1, ,55, ,
1, ,55, ,
1, ,56, ,
-1, ,56, ,
2, ,56, ,
1, ,56, ,
-1, ,55, ,
1, ,49, ,
1, ,30, ,
-1, ,12, ,
1, ,-1, ,
-1, ,-11, ,
-1, ,-18, ,
1, ,-22, ,
1, ,-26, ,
-1, ,-30, ,
1, ,-33, ,
-1, ,-34, ,
-1, ,-35, ,
1, ,-36, ,
1, ,-36, ,
-1, ,-37, ,
1, ,-38, ,
1, ,-38, ,
-1, ,-38, ,
1, ,-38, ,
1, ,-38, ,
-1, ,-38, ,
1, ,-38, ,
1, ,-38, ,
1, ,-38, ,
1, ,-38, ,
1, ,-39, ,
-1, ,-38, ,
1, ,-38, ,
-1, ,-38, ,
1, ,-38, ,
1, ,-38, ,
1, ,-38, ,
-1, ,-38, ,
1, ,-38, ,
-1, ,-38, ,
-1, ,-38, ,
1, ,-38, ,
1, ,-38, ,
-1, ,-38, ,
1, ,-38, ,
-1, ,-38, ,
-1, ,-38, ,
1, ,-38, ,
1, ,-38, ,
-1, ,-38, ,
2, ,-38, ,
-1, ,-38, ,
-1, ,-38, ,
1, ,-38, ,
1, ,-38, ,
-1, ,-38, ,
1, ,-38, ,
-1, ,-38, ,
-1, ,-38, ,
1, ,-38, ,
1, ,-38, ,
-1, ,-38, ,
1, ,-38, ,
-1, ,-38, ,
-1, ,-38, ,
1, ,-38, ,
1, ,-38, ,
-1, ,-38, ,
1, ,-38, ,
-1, ,-38, ,
-1, ,-38, ,
1, ,-38, ,
1, ,-38, ,
-1, ,-38, ,
1, ,-38, ,
-1, ,-38, ,
-1, ,-38, ,
1, ,-38, ,
1, ,-38, ,
-1, ,-38, ,
1, ,-38, ,
-1, ,-38, ,
-1, ,-38, ,
1, ,-38, ,
1, ,-38, ,
-1, ,-38, ,
1, ,-37, ,
-1, ,-38, ,
-1, ,-38, ,
1, ,-38, ,
1, ,-38, ,
-1, ,-38, ,
1, ,-38, ,
-1, ,-38, ,
-1, ,-38, ,
1, ,-38, ,
1, ,-38, ,
-1, ,-38, ,
1, ,-38, ,
-1, ,-38, ,
-1, ,-37, ,
1, ,-38, ,
1, ,-38, ,
-1, ,-37, ,
1, ,-37, ,
-1, ,-38, ,
-1, ,-38, ,
1, ,-38, ,
1, ,-38, ,
-1, ,-38, ,
1, ,-38, ,
-1, ,-38, ,
-1, ,-38, ,
1, ,-38, ,
1, ,-38, ,
-1, ,-38, ,
2, ,-38, ,
-1, ,-38, ,
-1, ,-38, ,
1, ,-38, ,
1, ,-38, ,
-1, ,-37, ,
2, ,-38, ,
-1, ,-38, ,
-1, ,-37, ,
1, ,-38, ,
1, ,-38, ,
-1, ,-38, ,
1, ,-37, ,
-1, ,-38, ,
-1, ,-38, ,
1, ,-37, ,
1, ,-37, ,
-1, ,-38, ,
1, ,-38, ,
-1, ,-38, ,
-1, ,-37, ,
1, ,-37, ,
1, ,-38, ,
-1, ,-37, ,
1, ,-38, ,
-1, ,-38, ,
-1, ,-38, ,
1, ,-37, ,
1, ,-38, ,
-1, ,-37, ,
2, ,-38, ,
-1, ,-38, ,
1, ,-37, ,
1, ,-38, ,
1, ,-38, ,
-1, ,-38, ,
1, ,-37, ,
-1, ,-38, ,
-1, ,-38, ,
1, ,-38, ,
1, ,-38, ,
-1, ,-38, ,
2, ,-38, ,
-1, ,-38, ,
-1, ,-38, ,
1, ,-38, ,
1, ,-38, ,
-1, ,-38, ,
1, ,-38, ,
-1, ,-38, ,
-1, ,-38, ,
1, ,-38, ,
1, ,-37, ,
-1, ,-38, ,
1, ,-38, ,
-1, ,-38, ,
-1, ,-37, ,
1, ,-38, ,
1, ,-37, ,
-1, ,-38, ,
1, ,-37, ,
-1, ,-38, ,
-1, ,-38, ,
1, ,-37, ,
1, ,-37, ,
-1, ,-37, ,
1, ,-38, ,
-1, ,-38, ,
-1, ,-37, ,
1, ,-38, ,
1, ,-38, ,
-1, ,-38, ,
1, ,-37, ,
-1, ,-38, ,
-1, ,-38, ,
1, ,-38, ,
1, ,-38, ,
-1, ,-37, ,
1, ,-38, ,
-1, ,-38, ,
-1, ,-37, ,
1, ,-38, ,
1, ,-38, ,
-1, ,-37, ,
2, ,-37, ,
-1, ,-38, ,
-1, ,-38, ,
1, ,-38, ,
1, ,-37, ,
-1, ,-37, ,
1, ,-37, ,
-1, ,-38, ,
-1, ,-37, ,
1, ,-37, ,
1, ,-37, ,
-1, ,-37, ,
1, ,-37, ,
-1, ,-38, ,
-1, ,-38, ,
1, ,-37, ,
1, ,-38, ,
-1, ,-37, ,
1, ,-37, ,
-1, ,-38, ,
-1, ,-37, ,
1, ,-37, ,
1, ,-38, ,
-1, ,-37, ,
1, ,-37, ,
-1, ,-38, ,
-1, ,-38, ,
1, ,-37, ,
1, ,-37, ,
-1, ,-37, ,
1, ,-37, ,
-1, ,-38, ,
-1, ,-37, ,
1, ,-38, ,
1, ,-38, ,
-1, ,-37, ,
1, ,-37, ,
-1, ,-38, ,
-1, ,-38, ,
1, ,-38, ,
1, ,-37, ,
-1, ,-38, ,
1, ,-37, ,
-1, ,-38, ,
-1, ,-37, ,
1, ,-38, ,
1, ,-37, ,
-1, ,-37, ,
1, ,-37, ,
-1, ,-38, ,
-1, ,-37, ,
1, ,-38, ,
1, ,-37, ,
-1, ,-37, ,
1, ,-37, ,
-1, ,-38, ,
-1, ,-37, ,
1, ,-38, ,
1, ,-37, ,
-1, ,-37, ,
1, ,-37, ,
-1, ,-38, ,
-1, ,-38, ,
1, ,-38, ,
1, ,-37, ,
-1, ,-37, ,
1, ,-37, ,
-1, ,-38, ,
-1, ,-38, ,
1, ,-38, ,
1, ,-37, ,
-1, ,-37, ,
1, ,-37, ,
-1, ,-38, ,
-1, ,-38, ,
1, ,-37, ,
1, ,-37, ,
-1, ,-38, ,
1, ,-37, ,
-1, ,-38, ,
-1, ,-38, ,
1, ,-38, ,
1, ,-37, ,
-1, ,-38, ,
1, ,-37, ,
-1, ,-38, ,
-1, ,-38, ,
1, ,-37, ,
1, ,-37, ,
-1, ,-37, ,
1, ,-37, ,
-1, ,-38, ,
-1, ,-37, ,
1, ,-38, ,
1, ,-37, ,
-1, ,-37, ,
2, ,-37, ,
-1, ,-38, ,
-1, ,-37, ,
1, ,-38, ,
1, ,-37, ,
-1, ,-37, ,
1, ,-37, ,
-1, ,-38, ,
-1, ,-38, ,
1, ,-38, ,
1, ,-38, ,
-1, ,-37, ,
1, ,-37, ,
-1, ,-38, ,
-1, ,-37, ,
1, ,-38, ,
1, ,-38, ,
-1, ,-37, ,
1, ,-37, ,
-1, ,-38, ,
-1, ,-37, ,
1, ,-38, ,
1, ,-38, ,
-1, ,-37, ,
1, ,-37, ,
-1, ,-38, ,
-1, ,-37, ,
1, ,-38, ,
1, ,-37, ,
-1, ,-37, ,
1, ,-37, ,
-1, ,-38, ,
-1, ,-37, ,
1, ,-38, ,
1, ,-38, ,
-1, ,-37, ,
1, ,-37, ,
-1, ,-38, ,
-1, ,-38, ,
1, ,-38, ,
1, ,-37, ,
-1, ,-38, ,
1, ,-37, ,
-1, ,-38, ,
-1, ,-38, ,
1, ,-37, ,
1, ,-38, ,
-1, ,-37, ,
1, ,-37, ,
-1, ,-38, ,
-1, ,-38, ,
1, ,-38, ,
1, ,-37, ,
-1, ,-38, ,
2, ,-37, ,
-1, ,-38, ,
-1, ,-38, ,
1, ,-38, ,
1, ,-37, ,
-1, ,-37, ,
1, ,-38, ,
-1, ,-38, ,
-1, ,-38, ,
1, ,-38, ,
1, ,-38, ,
-1, ,-37, ,
1, ,-37, ,
-1, ,-38, ,
-1, ,-38, ,
1, ,-38, ,
1, ,-38, ,
-1, ,-37, ,
1, ,-38, ,
-1, ,-38, ,
-1, ,-38, ,
1, ,-37, ,
1, ,-37, ,
-1, ,-37, ,
2, ,-37, ,
-1, ,-38, ,
-1, ,-38, ,
1, ,-38, ,
1, ,-37, ,
-1, ,-37, ,
1, ,-38, ,
-1, ,-38, ,
-1, ,-37, ,
1, ,-38, ,
1, ,-37, ,
-1, ,-38, ,
1, ,-37, ,
-1, ,-38, ,
-1, ,-38, ,
1, ,-37, ,
1, ,-38, ,
-1, ,-37, ,
2, ,-37, ,
-1, ,-38, ,
-1, ,-38, ,
1, ,-38, ,
1, ,-38, ,
-1, ,-37, ,
1, ,-37, ,
-1, ,-38, ,
-1, ,-37, ,
1, ,-38, ,
1, ,-37, ,
-1, ,-37, ,
1, ,-38, ,
-1, ,-38, ,
-1, ,-37, ,
1, ,-38, ,
1, ,-38, ,
-1, ,-37, ,
1, ,-37, ,
-1, ,-38, ,
-1, ,-38, ,
1, ,-38, ,
1, ,-38, ,
-1, ,-37, ,
1, ,-37, ,
-1, ,-38, ,
-1, ,-38, ,
1, ,-38, ,
1, ,-37, ,
-1, ,-38, ,
1, ,-37, ,
-1, ,-38, ,
-1, ,-38, ,
1, ,-37, ,
1, ,-38, ,
-1, ,-37, ,
1, ,-37, ,
-1, ,-38, ,
-1, ,-38, ,
1, ,-38, ,
1, ,-37, ,
-1, ,-37, ,
1, ,-37, ,
-1, ,-38, ,
-1, ,-38, ,
1, ,-37, ,
1, ,-38, ,
-1, ,-37, ,
1, ,-38, ,
-1, ,-38, ,
-1, ,-38, ,
1, ,-38, ,
1, ,-37, ,
-1, ,-37, ,
1, ,-37, ,
-1, ,-38, ,
-1, ,-38, ,
1, ,-37, ,
1, ,-37, ,
96, ,-37, ,
59, ,-37, ,
35, ,-38, ,
22, ,-37, ,
15, ,-38, ,
10, ,-37, ,
6, ,-38, ,
6, ,-37, ,
3, ,-38, ,
2, ,-37, ,
