src/varyamp_1558/temp0003626.CSV

Format,1.0B,
Memory Length,10000,Memory Length,10000,
IntpDistance,0,IntpDistance,0,
Trigger Address,4999,Trigger Address,4999,
Trigger Level,1.040E+00,Trigger Level,1.040E+00,
Source,CH1,Source,CH2,
Vertical Units,V,Vertical Units,V,
Vertical Units Div,0,Vertical Units Div,0,
Vertical Units Extend Div,16,Vertical Units Extend Div,16,
Label,,Label,,
Probe Type,0,Probe Type,0,
Probe Ratio,1.000e+01,Probe Ratio,1.000e+00,
Vertical Scale,5.000e-01,Vertical Scale,1.000e+00,
Vertical Position,-1.820e+00,Vertical Position,0.000e+00,
Horizontal Units,S,Horizontal Units,S,
Horizontal Scale,2.000E-05,Horizontal Scale,2.000E-05,
Horizontal Position,0.000E+00,Horizontal Position,0.000E+00,
Horizontal Mode,Main,Horizontal Mode,Main,
SincET Mode,Real Time,SincET Mode,Real Time,
Sampling Period,2.000e-08,Sampling Period,2.000e-08,
Horizontal Old Scale,2.000E-05,Horizontal Old Scale,2.000E-05,
Horizontal Old Position,0.000E+00,Horizontal Old Position,0.000E+00,
Firmware,V1.23,Firmware,V1.23,
Mode,Fast,Mode,Fast,
Waveform Data,,Waveform Data,,
2, ,-30, ,
2, ,-31, ,
2, ,-31, ,
2, ,-31, ,
1, ,-30, ,
2, ,-30, ,
2, ,-30, ,
1, ,-31, ,
2, ,-30, ,
2, ,-31, ,
1, ,-31, ,
2, ,-31, ,
2, ,-31, ,
1, ,-31, ,
2, ,-31, ,
2, ,-31, ,
1, ,-30, ,
2, ,-31, ,
1, ,-31, ,
1, ,-31, ,
2, ,-30, ,
2, ,-30, ,
1, ,-31, ,
2, ,-30, ,
1, ,-30, ,
2, ,-31, ,
2, ,-31, ,
2, ,-31, ,
1, ,-30, ,
2, ,-31, ,
1, ,-31, ,
2, ,-31, ,
2, ,-30, ,
2, ,-31, ,
1, ,-31, ,
2, ,-31, ,
1, ,-31, ,
2, ,-31, ,
2, ,-31, ,
2, ,-31, ,
1, ,-30, ,
2, ,-30, ,
2, ,-31, ,
1, ,-31, ,
2, ,-30, ,
2, ,-31, ,
1, ,-31, ,
2, ,-30, ,
2, ,-31, ,
1, ,-31, ,
2, ,-30, ,
2, ,-31, ,
1, ,-30, ,
2, ,-30, ,
1, ,-31, ,
1, ,-31, ,
2, ,-30, ,
2, ,-30, ,
1, ,-30, ,
2, ,-31, ,
1, ,-30, ,
2, ,-31, ,
2, ,-31, ,
2, ,-31, ,
1, ,-30, ,
2, ,-30, ,
2, ,-31, ,
1, ,-31, ,
2, ,-31, ,
2, ,-31, ,
1, ,-31, ,
2, ,-31, ,
2, ,-31, ,
1, ,-31, ,
2, ,-30, ,
2, ,-31, ,
1, ,-30, ,
2, ,-30, ,
1, ,-31, ,
1, ,-31, ,
2, ,-31, ,
2, ,-31, ,
1, ,-30, ,
2, ,-31, ,
1, ,-31, ,
2, ,-31, ,
2, ,-31, ,
2, ,-31, ,
1, ,-30, ,
2, ,-30, ,
1, ,-31, ,
1, ,-30, ,
2, ,-31, ,
2, ,-31, ,
1, ,-30, ,
2, ,-31, ,
1, ,-31, ,
1, ,-31, ,
2, ,-30, ,
2, ,-31, ,
1, ,-30, ,
2, ,-30, ,
1, ,-31, ,
2, ,-31, ,
2, ,-31, ,
1, ,-31, ,
1, ,-31, ,
2, ,-30, ,
1, ,-31, ,
1, ,-31, ,
2, ,-31, ,
2, ,-31, ,
1, ,-30, ,
2, ,-30, ,
1, ,-31, ,
1, ,-31, ,
2, ,-30, ,
2, ,-30, ,
1, ,-30, ,
2, ,-30, ,
1, ,-31, ,
1, ,-31, ,
2, ,-31, ,
2, ,-31, ,
1, ,-30, ,
2, ,-30, ,
1, ,-31, ,
1, ,-31, ,
2, ,-31, ,
2, ,-31, ,
1, ,-31, ,
2, ,-30, ,
1, ,-31, ,
1, ,-31, ,
2, ,-31, ,
1, ,-31, ,
1, ,-30, ,
2, ,-30, ,
1, ,-31, ,
1, ,-30, ,
2, ,-30, ,
2, ,-31, ,
1, ,-30, ,
2, ,-31, ,
1, ,-30, ,
1, ,-31, ,
2, ,-31, ,
2, ,-31, ,
1, ,-30, ,
2, ,-30, ,
1, ,-31, ,
1, ,-31, ,
2, ,-31, ,
2, ,-31, ,
1, ,-31, ,
2, ,-31, ,
1, ,-31, ,
1, ,-31, ,
2, ,-31, ,
2, ,-31, ,
1, ,-30, ,
2, ,-30, ,
1, ,-31, ,
1, ,-31, ,
2, ,-31, ,
2, ,-31, ,
1, ,-31, ,
2, ,-31, ,
1, ,-31, ,
1, ,-31, ,
2, ,-31, ,
1, ,-31, ,
1, ,-30, ,
2, ,-30, ,
1, ,-31, ,
1, ,-31, ,
2, ,-31, ,
2, ,-31, ,
1, ,-31, ,
2, ,-30, ,
1, ,-31, ,
2, ,-31, ,
2, ,-31, ,
2, ,-31, ,
1, ,-30, ,
2, ,-31, ,
1, ,-31, ,
1, ,-31, ,
2, ,-31, ,
1, ,-31, ,
1, ,-31, ,
2, ,-31, ,
1, ,-30, ,
2, ,-31, ,
2, ,-31, ,
1, ,-31, ,
1, ,-30, ,
2, ,-30, ,
1, ,-31, ,
1, ,-31, ,
2, ,-31, ,
1, ,-31, ,
1, ,-30, ,
2, ,-30, ,
1, ,-31, ,
1, ,-31, ,
2, ,-31, ,
1, ,-31, ,
1, ,-30, ,
2, ,-30, ,
1, ,-31, ,
1, ,-31, ,
2, ,-30, ,
2, ,-31, ,
1, ,-30, ,
2, ,-31, ,
1, ,-31, ,
1, ,-31, ,
1, ,-31, ,
1, ,-31, ,
1, ,-31, ,
2, ,-31, ,
1, ,-31, ,
1, ,-31, ,
2, ,-31, ,
2, ,-31, ,
1, ,-31, ,
2, ,-30, ,
1, ,-31, ,
1, ,-31, ,
2, ,-31, ,
1, ,-31, ,
1, ,-30, ,
2, ,-31, ,
1, ,-31, ,
1, ,-31, ,
2, ,-31, ,
2, ,-31, ,
1, ,-30, ,
2, ,-30, ,
1, ,-31, ,
1, ,-31, ,
2, ,-31, ,
1, ,-31, ,
1, ,-30, ,
2, ,-31, ,
1, ,-31, ,
1, ,-31, ,
2, ,-31, ,
1, ,-31, ,
-1, ,-31, ,
2, ,-31, ,
1, ,-31, ,
1, ,-31, ,
2, ,-31, ,
1, ,-31, ,
-1, ,-30, ,
2, ,-31, ,
1, ,-31, ,
1, ,-31, ,
2, ,-30, ,
1, ,-31, ,
1, ,-31, ,
2, ,-30, ,
1, ,-31, ,
1, ,-31, ,
2, ,-30, ,
2, ,-31, ,
1, ,-30, ,
2, ,-30, ,
1, ,-31, ,
1, ,-31, ,
2, ,-31, ,
1, ,-31, ,
1, ,-31, ,
2, ,-31, ,
1, ,-31, ,
1, ,-31, ,
2, ,-31, ,
2, ,-31, ,
1, ,-30, ,
63, ,-31, ,
48, ,-31, ,
29, ,-30, ,
20, ,-30, ,
12, ,-31, ,
8, ,-31, ,
7, ,-31, ,
5, ,-31, ,
3, ,-31, ,
3, ,-31, ,
2, ,-31, ,
2, ,-30, ,
3, ,-30, ,
2, ,-30, ,
2, ,-31, ,
3, ,-31, ,
2, ,-31, ,
2, ,-31, ,
3, ,-31, ,
2, ,-31, ,
2, ,-31, ,
3, ,-30, ,
3, ,-31, ,
2, ,-30, ,
3, ,-30, ,
2, ,-31, ,
2, ,-30, ,
3, ,-26, ,
3, ,-7, ,
2, ,11, ,
3, ,24, ,
2, ,34, ,
2, ,41, ,
3, ,46, ,
3, ,52, ,
1, ,53, ,
3, ,57, ,
2, ,59, ,
2, ,59, ,
3, ,60, ,
2, ,62, ,
1, ,60, ,
3, ,62, ,
2, ,63, ,
2, ,62, ,
3, ,62, ,
2, ,64, ,
1, ,61, ,
3, ,63, ,
2, ,63, ,
2, ,62, ,
3, ,62, ,
2, ,64, ,
1, ,61, ,
3, ,63, ,
2, ,63, ,
1, ,62, ,
3, ,62, ,
2, ,64, ,
1, ,61, ,
3, ,63, ,
2, ,63, ,
2, ,62, ,
3, ,62, ,
2, ,63, ,
1, ,62, ,
3, ,63, ,
2, ,63, ,
1, ,62, ,
3, ,62, ,
2, ,63, ,
1, ,61, ,
3, ,63, ,
11, ,64, ,
15, ,62, ,
12, ,62, ,
10, ,63, ,
6, ,61, ,
6, ,63, ,
3, ,63, ,
2, ,62, ,
3, ,62, ,
2, ,63, ,
2, ,61, ,
3, ,62, ,
1, ,63, ,
2, ,61, ,
3, ,62, ,
3, ,63, ,
1, ,61, ,
3, ,63, ,
2, ,63, ,
2, ,62, ,
3, ,62, ,
2, ,63, ,
1, ,61, ,
3, ,63, ,
2, ,63, ,
2, ,62, ,
2, ,62, ,
2, ,63, ,
1, ,61, ,
3, ,62, ,
2, ,63, ,
3, ,62, ,
7, ,62, ,
7, ,63, ,
5, ,61, ,
7, ,63, ,
5, ,63, ,
3, ,62, ,
5, ,62, ,
3, ,63, ,
1, ,61, ,
3, ,62, ,
2, ,63, ,
2, ,62, ,
2, ,62, ,
2, ,63, ,
2, ,61, ,
3, ,62, ,
2, ,63, ,
2, ,62, ,
2, ,62, ,
2, ,63, ,
1, ,61, ,
3, ,62, ,
2, ,63, ,
2, ,62, ,
2, ,62, ,
2, ,63, ,
2, ,61, ,
3, ,62, ,
3, ,63, ,
3, ,62, ,
6, ,62, ,
5, ,63, ,
2, ,61, ,
5, ,62, ,
2, ,63, ,
2, ,62, ,
2, ,62, ,
2, ,63, ,
2, ,61, ,
3, ,63, ,
2, ,63, ,
2, ,62, ,
3, ,62, ,
3, ,63, ,
3, ,61, ,
6, ,62, ,
3, ,63, ,
3, ,62, ,
5, ,62, ,
5, ,63, ,
2, ,61, ,
3, ,62, ,
2, ,63, ,
2, ,62, ,
3, ,62, ,
2, ,63, ,
2, ,61, ,
3, ,62, ,
2, ,63, ,
2, ,62, ,
3, ,62, ,
5, ,63, ,
3, ,61, ,
6, ,62, ,
3, ,63, ,
3, ,62, ,
3, ,62, ,
3, ,63, ,
2, ,61, ,
3, ,62, ,
2, ,63, ,
2, ,62, ,
2, ,62, ,
3, ,63, ,
1, ,61, ,
3, ,62, ,
2, ,62, ,
2, ,50, ,
3, ,30, ,
2, ,14, ,
1, ,3, ,
3, ,-5, ,
2, ,-13, ,
3, ,-17, ,
5, ,-21, ,
5, ,-23, ,
3, ,-25, ,
5, ,-26, ,
3, ,-28, ,
2, ,-28, ,
3, ,-30, ,
3, ,-30, ,
1, ,-31, ,
3, ,-31, ,
2, ,-31, ,
3, ,-31, ,
3, ,-31, ,
3, ,-31, ,
2, ,-31, ,
3, ,-31, ,
2, ,-32, ,
2, ,-31, ,
3, ,-31, ,
3, ,-31, ,
1, ,-31, ,
3, ,-31, ,
2, ,-31, ,
2, ,-31, ,
2, ,-31, ,
2, ,-31, ,
1, ,-31, ,
3, ,-31, ,
2, ,-31, ,
2, ,-31, ,
2, ,-31, ,
3, ,-31, ,
1, ,-31, ,
3, ,-31, ,
2, ,-31, ,
2, ,-31, ,
2, ,-31, ,
2, ,-31, ,
1, ,-30, ,
3, ,-31, ,
2, ,-31, ,
2, ,-31, ,
2, ,-31, ,
2, ,-31, ,
1, ,-31, ,
3, ,-31, ,
2, ,-31, ,
2, ,-31, ,
2, ,-31, ,
3, ,-31, ,
1, ,-30, ,
3, ,-31, ,
2, ,-31, ,
2, ,-31, ,
2, ,-31, ,
6, ,-31, ,
11, ,-30, ,
11, ,-30, ,
8, ,-31, ,
6, ,-31, ,
5, ,-31, ,
5, ,-31, ,
2, ,-30, ,
3, ,-31, ,
2, ,-31, ,
2, ,-31, ,
3, ,-30, ,
3, ,-31, ,
2, ,-30, ,
3, ,-30, ,
2, ,-31, ,
2, ,-30, ,
3, ,-31, ,
3, ,-31, ,
2, ,-30, ,
3, ,-30, ,
2, ,-31, ,
2, ,-31, ,
2, ,-31, ,
3, ,-31, ,
2, ,-30, ,
3, ,-31, ,
2, ,-31, ,
2, ,-31, ,
2, ,-31, ,
3, ,-31, ,
2, ,-30, ,
3, ,-31, ,
2, ,-31, ,
2, ,-31, ,
2, ,-31, ,
3, ,-31, ,
1, ,-31, ,
3, ,-30, ,
2, ,-31, ,
2, ,-31, ,
2, ,-31, ,
2, ,-31, ,
1, ,-30, ,
3, ,-30, ,
2, ,-31, ,
2, ,-31, ,
2, ,-31, ,
3, ,-31, ,
2, ,-30, ,
3, ,-30, ,
2, ,-31, ,
2, ,-31, ,
2, ,-31, ,
3, ,-31, ,
2, ,-30, ,
3, ,-30, ,
2, ,-31, ,
2, ,-31, ,
3, ,-31, ,
2, ,-31, ,
1, ,-30, ,
2, ,-30, ,
2, ,-31, ,
2, ,-31, ,
2, ,-31, ,
3, ,-31, ,
1, ,-30, ,
3, ,-30, ,
2, ,-31, ,
2, ,-31, ,
2, ,-31, ,
2, ,-31, ,
1, ,-31, ,
3, ,-31, ,
2, ,-30, ,
2, ,-31, ,
2, ,-30, ,
3, ,-31, ,
1, ,-30, ,
2, ,-30, ,
2, ,-31, ,
2, ,-31, ,
2, ,-31, ,
2, ,-31, ,
1, ,-30, ,
3, ,-30, ,
2, ,-30, ,
2, ,-31, ,
2, ,-31, ,
2, ,-31, ,
1, ,-30, ,
3, ,-30, ,
2, ,-31, ,
2, ,-31, ,
2, ,-30, ,
2, ,-31, ,
1, ,-30, ,
3, ,-30, ,
2, ,-30, ,
2, ,-30, ,
2, ,-31, ,
2, ,-31, ,
1, ,-30, ,
2, ,-30, ,
2, ,-31, ,
2, ,-30, ,
2, ,-31, ,
2, ,-31, ,
1, ,-31, ,
2, ,-30, ,
2, ,-30, ,
2, ,-31, ,
3, ,-31, ,
2, ,-31, ,
2, ,-30, ,
3, ,-30, ,
1, ,-31, ,
2, ,-31, ,
2, ,-31, ,
2, ,-30, ,
1, ,-30, ,
2, ,-30, ,
2, ,-31, ,
2, ,-31, ,
2, ,-31, ,
2, ,-31, ,
1, ,-30, ,
3, ,-30, ,
2, ,-31, ,
2, ,-31, ,
3, ,-31, ,
2, ,-31, ,
1, ,-31, ,
2, ,-30, ,
1, ,-31, ,
2, ,-31, ,
2, ,-31, ,
2, ,-31, ,
1, ,-30, ,
2, ,-31, ,
1, ,-31, ,
2, ,-31, ,
2, ,-31, ,
2, ,-30, ,
1, ,-30, ,
2, ,-31, ,
2, ,-31, ,
2, ,-31, ,
2, ,-31, ,
2, ,-31, ,
1, ,-30, ,
3, ,-31, ,
1, ,-31, ,
1, ,-30, ,
2, ,-30, ,
2, ,-30, ,
1, ,-31, ,
2, ,-30, ,
1, ,-30, ,
1, ,-31, ,
2, ,-31, ,
2, ,-31, ,
1, ,-30, ,
2, ,-30, ,
1, ,-31, ,
1, ,-31, ,
2, ,-30, ,
2, ,-30, ,
1, ,-30, ,
2, ,-30, ,
2, ,-31, ,
2, ,-31, ,
2, ,-31, ,
2, ,-31, ,
1, ,-30, ,
2, ,-30, ,
2, ,-30, ,
1, ,-30, ,
2, ,-31, ,
2, ,-30, ,
1, ,-30, ,
2, ,-31, ,
1, ,-31, ,
1, ,-31, ,
2, ,-30, ,
2, ,-31, ,
1, ,-30, ,
2, ,-31, ,
1, ,-31, ,
2, ,-30, ,
2, ,-30, ,
2, ,-31, ,
1, ,-31, ,
3, ,-30, ,
2, ,-30, ,
2, ,-31, ,
2, ,-31, ,
2, ,-31, ,
1, ,-30, ,
2, ,-30, ,
1, ,-31, ,
1, ,-31, ,
2, ,-30, ,
2, ,-31, ,
1, ,-31, ,
2, ,-31, ,
2, ,-30, ,
2, ,-31, ,
2, ,-31, ,
2, ,-31, ,
1, ,-30, ,
2, ,-31, ,
1, ,-31, ,
1, ,-30, ,
2, ,-31, ,
2, ,-31, ,
1, ,-31, ,
2, ,-31, ,
2, ,-31, ,
2, ,-30, ,
2, ,-31, ,
2, ,-31, ,
1, ,-30, ,
3, ,-31, ,
1, ,-31, ,
1, ,-30, ,
2, ,-30, ,
2, ,-31, ,
1, ,-30, ,
2, ,-31, ,
2, ,-30, ,
1, ,-31, ,
2, ,-30, ,
2, ,-31, ,
1, ,-30, ,
2, ,-30, ,
1, ,-31, ,
1, ,-30, ,
2, ,-31, ,
2, ,-31, ,
1, ,-31, ,
2, ,-30, ,
2, ,-31, ,
2, ,-30, ,
2, ,-30, ,
2, ,-31, ,
1, ,-30, ,
2, ,-31, ,
1, ,-31, ,
1, ,-31, ,
2, ,-30, ,
2, ,-31, ,
1, ,-31, ,
2, ,-31, ,
2, ,-30, ,
2, ,-31, ,
2, ,-30, ,
1, ,-31, ,
1, ,-30, ,
2, ,-30, ,
1, ,-31, ,
2, ,-31, ,
2, ,-30, ,
2, ,-31, ,
1, ,-31, ,
2, ,-30, ,
2, ,-30, ,
1, ,-31, ,
2, ,-31, ,
2, ,-31, ,
1, ,-30, ,
2, ,-31, ,
1, ,-31, ,
1, ,-31, ,
2, ,-30, ,
2, ,-31, ,
1, ,-31, ,
2, ,-30, ,
1, ,-31, ,
1, ,-31, ,
2, ,-31, ,
2, ,-31, ,
1, ,-30, ,
2, ,-30, ,
1, ,-30, ,
1, ,-31, ,
2, ,-30, ,
1, ,-31, ,
1, ,-31, ,
2, ,-31, ,
1, ,-31, ,
1, ,-31, ,
2, ,-30, ,
2, ,-31, ,
1, ,-30, ,
2, ,-31, ,
1, ,-31, ,
1, ,-31, ,
2, ,-30, ,
2, ,-31, ,
1, ,-30, ,
2, ,-31, ,
1, ,-30, ,
1, ,-31, ,
2, ,-31, ,
2, ,-31, ,
1, ,-30, ,
2, ,-31, ,
1, ,-31, ,
1, ,-31, ,
2, ,-31, ,
1, ,-31, ,
1, ,-31, ,
2, ,-30, ,
1, ,-31, ,
1, ,-31, ,
2, ,-30, ,
2, ,-31, ,
1, ,-31, ,
2, ,-31, ,
1, ,-31, ,
1, ,-31, ,
2, ,-30, ,
1, ,-31, ,
1, ,-30, ,
2, ,-31, ,
1, ,-30, ,
1, ,-31, ,
2, ,-31, ,
1, ,-31, ,
1, ,-31, ,
2, ,-30, ,
1, ,-31, ,
1, ,-31, ,
2, ,-30, ,
2, ,-30, ,
1, ,-31, ,
2, ,-30, ,
1, ,-31, ,
1, ,-31, ,
2, ,-30, ,
1, ,-31, ,
1, ,-30, ,
2, ,-30, ,
1, ,-31, ,
1, ,-31, ,
2, ,-30, ,
1, ,-31, ,
1, ,-30, ,
2, ,-31, ,
1, ,-31, ,
1, ,-31, ,
2, ,-30, ,
1, ,-31, ,
1, ,-30, ,
2, ,-30, ,
1, ,-31, ,
1, ,-31, ,
2, ,-30, ,
1, ,-31, ,
1, ,-31, ,
2, ,-30, ,
1, ,-30, ,
1, ,-31, ,
2, ,-30, ,
2, ,-31, ,
1, ,-30, ,
2, ,-30, ,
1, ,-31, ,
1, ,-31, ,
2, ,-31, ,
1, ,-31, ,
1, ,-31, ,
2, ,-31, ,
1, ,-30, ,
1, ,-31, ,
1, ,-30, ,
1, ,-31, ,
1, ,-30, ,
2, ,-31, ,
1, ,-31, ,
1, ,-31, ,
2, ,-30, ,
1, ,-30, ,
-1, ,-31, ,
2, ,-30, ,
1, ,-30, ,
1, ,-31, ,
2, ,-31, ,
2, ,-31, ,
1, ,-31, ,
2, ,-31, ,
1, ,-31, ,
1, ,-31, ,
2, ,-30, ,
2, ,-31, ,
1, ,-31, ,
2, ,-31, ,
1, ,-31, ,
1, ,-31, ,
2, ,-30, ,
1, ,-31, ,
1, ,-31, ,
2, ,-31, ,
1, ,-31, ,
1, ,-31, ,
2, ,-30, ,
1, ,-30, ,
-1, ,-31, ,
2, ,-30, ,
1, ,-31, ,
1, ,-31, ,
1, ,-30, ,
1, ,-31, ,
-1, ,-30, ,
2, ,-31, ,
1, ,-31, ,
1, ,-31, ,
2, ,-30, ,
1, ,-30, ,
-1, ,-31, ,
2, ,-30, ,
1, ,-31, ,
1, ,-31, ,
2, ,-30, ,
1, ,-31, ,
-1, ,-30, ,
2, ,-30, ,
1, ,-31, ,
1, ,-31, ,
2, ,-30, ,
1, ,-31, ,
-1, ,-30, ,
2, ,-30, ,
1, ,-31, ,
1, ,-31, ,
1, ,-30, ,
2, ,-31, ,
1, ,-30, ,
2, ,-31, ,
1, ,-31, ,
1, ,-31, ,
1, ,-30, ,
1, ,-30, ,
-1, ,-31, ,
2, ,-30, ,
1, ,-31, ,
1, ,-31, ,
2, ,-30, ,
2, ,-31, ,
-1, ,-30, ,
2, ,-31, ,
1, ,-31, ,
1, ,-30, ,
2, ,-30, ,
1, ,-31, ,
1, ,-31, ,
2, ,-31, ,
1, ,-31, ,
1, ,-31, ,
1, ,-30, ,
1, ,-31, ,
1, ,-31, ,
2, ,-30, ,
1, ,-31, ,
1, ,-31, ,
1, ,-30, ,
1, ,-31, ,
1, ,-31, ,
2, ,-31, ,
1, ,-30, ,
1, ,-31, ,
2, ,-30, ,
1, ,-31, ,
-1, ,-30, ,
2, ,-30, ,
1, ,-31, ,
1, ,-31, ,
1, ,-31, ,
1, ,-31, ,
-1, ,-31, ,
2, ,-31, ,
1, ,-31, ,
1, ,-31, ,
1, ,-30, ,
1, ,-31, ,
1, ,-30, ,
1, ,-30, ,
1, ,-30, ,
1, ,-31, ,
1, ,-30, ,
1, ,-31, ,
-1, ,-31, ,
2, ,-30, ,
1, ,-31, ,
1, ,-31, ,
1, ,-30, ,
1, ,-31, ,
-1, ,-30, ,
1, ,-31, ,
1, ,-31, ,
1, ,-31, ,
1, ,-30, ,
2, ,-31, ,
-1, ,-31, ,
2, ,-31, ,
1, ,-31, ,
1, ,-31, ,
1, ,-30, ,
1, ,-31, ,
1, ,-30, ,
2, ,-31, ,
1, ,-31, ,
1, ,-31, ,
2, ,-30, ,
1, ,-30, ,
-1, ,-31, ,
2, ,-30, ,
1, ,-31, ,
1, ,-31, ,
1, ,-31, ,
1, ,-31, ,
-1, ,-30, ,
2, ,-30, ,
1, ,-31, ,
1, ,-31, ,
1, ,-30, ,
2, ,-31, ,
-1, ,-31, ,
2, ,-30, ,
1, ,-31, ,
1, ,-31, ,
1, ,-30, ,
1, ,-31, ,
-1, ,-30, ,
1, ,-31, ,
1, ,-31, ,
1, ,-31, ,
2, ,-30, ,
1, ,-31, ,
-1, ,-31, ,
1, ,-31, ,
1, ,-31, ,
1, ,-31, ,
1, ,-30, ,
1, ,-31, ,
-1, ,-30, ,
1, ,-31, ,
1, ,-31, ,
1, ,-31, ,
2, ,-30, ,
1, ,-31, ,
-1, ,-31, ,
1, ,-30, ,
1, ,-31, ,
1, ,-31, ,
1, ,-31, ,
1, ,-31, ,
-1, ,-31, ,
1, ,-31, ,
1, ,-31, ,
1, ,-31, ,
1, ,-30, ,
1, ,-28, ,
-1, ,-14, ,
2, ,6, ,
1, ,21, ,
1, ,32, ,
2, ,40, ,
2, ,46, ,
1, ,50, ,
2, ,54, ,
-1, ,57, ,
1, ,58, ,
2, ,59, ,
1, ,61, ,
-1, ,60, ,
2, ,61, ,
1, ,62, ,
-1, ,62, ,
1, ,62, ,
1, ,64, ,
-1, ,62, ,
2, ,63, ,
1, ,63, ,
1, ,62, ,
1, ,62, ,
1, ,64, ,
-1, ,62, ,
2, ,63, ,
1, ,63, ,
1, ,62, ,
1, ,63, ,
1, ,64, ,
12, ,61, ,
60, ,63, ,
38, ,64, ,
24, ,62, ,
16, ,63, ,
11, ,64, ,
7, ,61, ,
7, ,63, ,
3, ,63, ,
2, ,62, ,
3, ,62, ,
2, ,63, ,
2, ,61, ,
3, ,63, ,
2, ,63, ,
2, ,62, ,
3, ,62, ,
2, ,63, ,
1, ,61, ,
3, ,63, ,
2, ,63, ,
2, ,62, ,
2, ,62, ,
2, ,63, ,
1, ,61, ,
3, ,62, ,
2, ,63, ,
2, ,62, ,
3, ,62, ,
2, ,63, ,
1, ,61, ,
3, ,62, ,
2, ,63, ,
2, ,62, ,
2, ,62, ,
2, ,63, ,
3, ,61, ,
8, ,62, ,
6, ,63, ,
6, ,61, ,
6, ,62, ,
5, ,63, ,
3, ,61, ,
5, ,62, ,
3, ,63, ,
3, ,62, ,
3, ,62, ,
3, ,63, ,
2, ,61, ,
3, ,63, ,
2, ,63, ,
2, ,62, ,
3, ,62, ,
3, ,63, ,
2, ,62, ,
3, ,63, ,
2, ,63, ,
2, ,62, ,
2, ,62, ,
2, ,63, ,
1, ,61, ,
3, ,62, ,
2, ,63, ,
2, ,62, ,
3, ,62, ,
2, ,63, ,
1, ,61, ,
3, ,62, ,
2, ,63, ,
2, ,62, ,
2, ,62, ,
2, ,63, ,
1, ,62, ,
3, ,62, ,
2, ,63, ,
2, ,62, ,
2, ,62, ,
2, ,63, ,
1, ,61, ,
3, ,62, ,
2, ,63, ,
2, ,62, ,
2, ,62, ,
2, ,63, ,
2, ,61, ,
7, ,62, ,
7, ,63, ,
6, ,62, ,
6, ,62, ,
5, ,63, ,
3, ,62, ,
5, ,62, ,
2, ,63, ,
2, ,62, ,
3, ,62, ,
3, ,63, ,
1, ,61, ,
3, ,62, ,
2, ,63, ,
2, ,61, ,
3, ,62, ,
2, ,63, ,
1, ,61, ,
3, ,62, ,
2, ,63, ,
2, ,62, ,
3, ,62, ,
2, ,63, ,
2, ,61, ,
3, ,63, ,
2, ,63, ,
2, ,62, ,
2, ,62, ,
2, ,63, ,
1, ,61, ,
3, ,62, ,
2, ,63, ,
2, ,62, ,
2, ,62, ,
2, ,63, ,
2, ,61, ,
3, ,62, ,
2, ,63, ,
2, ,62, ,
2, ,54, ,
2, ,34, ,
1, ,17, ,
3, ,5, ,
2, ,-4, ,
2, ,-12, ,
2, ,-17, ,
2, ,-20, ,
1, ,-23, ,
3, ,-25, ,
2, ,-26, ,
1, ,-27, ,
2, ,-28, ,
2, ,-30, ,
1, ,-30, ,
3, ,-30, ,
2, ,-31, ,
2, ,-31, ,
2, ,-31, ,
6, ,-31, ,
11, ,-31, ,
11, ,-31, ,
7, ,-31, ,
6, ,-31, ,
5, ,-31, ,
5, ,-31, ,
2, ,-31, ,
3, ,-31, ,
2, ,-31, ,
2, ,-31, ,
3, ,-31, ,
3, ,-31, ,
2, ,-30, ,
3, ,-31, ,
2, ,-31, ,
2, ,-31, ,
3, ,-31, ,
3, ,-31, ,
2, ,-31, ,
3, ,-31, ,
2, ,-31, ,
2, ,-31, ,
3, ,-31, ,
3, ,-31, ,
2, ,-30, ,
3, ,-31, ,
2, ,-31, ,
2, ,-31, ,
3, ,-31, ,
3, ,-31, ,
2, ,-31, ,
3, ,-31, ,
2, ,-31, ,
2, ,-31, ,
3, ,-31, ,
3, ,-31, ,
2, ,-31, ,
3, ,-30, ,
2, ,-31, ,
2, ,-31, ,
2, ,-31, ,
3, ,-31, ,
2, ,-31, ,
3, ,-31, ,
2, ,-31, ,
2, ,-31, ,
3, ,-30, ,
3, ,-31, ,
1, ,-30, ,
3, ,-31, ,
2, ,-31, ,
2, ,-31, ,
3, ,-31, ,
2, ,-31, ,
1, ,-31, ,
3, ,-31, ,
2, ,-31, ,
2, ,-31, ,
2, ,-31, ,
3, ,-31, ,
2, ,-30, ,
3, ,-30, ,
2, ,-31, ,
2, ,-31, ,
2, ,-31, ,
2, ,-31, ,
1, ,-31, ,
2, ,-31, ,
2, ,-31, ,
2, ,-31, ,
3, ,-31, ,
3, ,-31, ,
1, ,-30, ,
3, ,-30, ,
2, ,-31, ,
2, ,-31, ,
2, ,-31, ,
2, ,-31, ,
1, ,-31, ,
3, ,-31, ,
2, ,-31, ,
2, ,-30, ,
2, ,-31, ,
2, ,-31, ,
1, ,-30, ,
2, ,-30, ,
2, ,-31, ,
2, ,-30, ,
2, ,-31, ,
2, ,-31, ,
1, ,-30, ,
2, ,-30, ,
2, ,-30, ,
2, ,-31, ,
3, ,-30, ,
3, ,-31, ,
1, ,-30, ,
3, ,-30, ,
2, ,-31, ,
3, ,-31, ,
20, ,-31, ,
16, ,-31, ,
10, ,-30, ,
8, ,-30, ,
6, ,-31, ,
5, ,-31, ,
3, ,-30, ,
3, ,-31, ,
2, ,-30, ,
3, ,-30, ,
2, ,-31, ,
2, ,-31, ,
3, ,-31, ,
3, ,-30, ,
2, ,-30, ,
3, ,-30, ,
2, ,-31, ,
2, ,-31, ,
2, ,-31, ,
2, ,-31, ,
2, ,-30, ,
3, ,-30, ,
2, ,-31, ,
2, ,-31, ,
2, ,-31, ,
3, ,-31, ,
2, ,-30, ,
3, ,-31, ,
2, ,-30, ,
2, ,-31, ,
3, ,-31, ,
3, ,-31, ,
1, ,-30, ,
3, ,-30, ,
2, ,-31, ,
2, ,-31, ,
3, ,-31, ,
3, ,-31, ,
1, ,-31, ,
3, ,-30, ,
2, ,-31, ,
2, ,-31, ,
3, ,-31, ,
3, ,-31, ,
2, ,-30, ,
3, ,-30, ,
2, ,-31, ,
2, ,-31, ,
3, ,-31, ,
3, ,-31, ,
2, ,-30, ,
2, ,-30, ,
2, ,-31, ,
2, ,-31, ,
3, ,-31, ,
2, ,-31, ,
2, ,-30, ,
3, ,-30, ,
2, ,-31, ,
2, ,-31, ,
3, ,-31, ,
3, ,-31, ,
1, ,-30, ,
2, ,-31, ,
2, ,-31, ,
2, ,-31, ,
2, ,-31, ,
2, ,-31, ,
2, ,-30, ,
3, ,-31, ,
1, ,-31, ,
2, ,-31, ,
2, ,-31, ,
3, ,-30, ,
1, ,-30, ,
3, ,-30, ,
2, ,-30, ,
2, ,-31, ,
3, ,-30, ,
2, ,-31, ,
2, ,-30, ,
3, ,-31, ,
1, ,-31, ,
2, ,-31, ,
2, ,-31, ,
2, ,-31, ,
1, ,-30, ,
2, ,-30, ,
2, ,-30, ,
2, ,-31, ,
2, ,-31, ,
2, ,-31, ,
2, ,-30, ,
2, ,-30, ,
2, ,-31, ,
2, ,-31, ,
2, ,-31, ,
2, ,-31, ,
1, ,-31, ,
2, ,-30, ,
2, ,-30, ,
2, ,-30, ,
2, ,-31, ,
2, ,-31, ,
2, ,-30, ,
3, ,-30, ,
2, ,-31, ,
2, ,-31, ,
2, ,-30, ,
2, ,-31, ,
1, ,-31, ,
2, ,-30, ,
2, ,-30, ,
1, ,-31, ,
2, ,-31, ,
2, ,-31, ,
1, ,-30, ,
2, ,-30, ,
1, ,-31, ,
2, ,-31, ,
3, ,-31, ,
3, ,-31, ,
1, ,-31, ,
2, ,-30, ,
2, ,-30, ,
2, ,-31, ,
2, ,-31, ,
2, ,-31, ,
1, ,-30, ,
2, ,-30, ,
2, ,-30, ,
1, ,-30, ,
2, ,-31, ,
2, ,-31, ,
1, ,-31, ,
2, ,-30, ,
2, ,-31, ,
1, ,-31, ,
3, ,-31, ,
2, ,-31, ,
1, ,-31, ,
2, ,-31, ,
1, ,-31, ,
2, ,-31, ,
2, ,-30, ,
2, ,-31, ,
1, ,-31, ,
2, ,-30, ,
2, ,-30, ,
2, ,-31, ,
2, ,-31, ,
2, ,-31, ,
1, ,-30, ,
2, ,-31, ,
2, ,-31, ,
1, ,-31, ,
2, ,-30, ,
2, ,-31, ,
1, ,-31, ,
2, ,-31, ,
2, ,-31, ,
2, ,-31, ,
3, ,-31, ,
2, ,-31, ,
1, ,-30, ,
2, ,-30, ,
1, ,-30, ,
2, ,-31, ,
2, ,-31, ,
2, ,-31, ,
1, ,-31, ,
2, ,-30, ,
2, ,-30, ,
2, ,-31, ,
2, ,-31, ,
2, ,-31, ,
1, ,-30, ,
2, ,-30, ,
2, ,-31, ,
1, ,-31, ,
2, ,-30, ,
2, ,-31, ,
1, ,-30, ,
2, ,-31, ,
1, ,-31, ,
2, ,-30, ,
2, ,-31, ,
2, ,-31, ,
1, ,-30, ,
2, ,-30, ,
1, ,-31, ,
2, ,-31, ,
2, ,-31, ,
2, ,-31, ,
1, ,-30, ,
2, ,-31, ,
1, ,-31, ,
2, ,-31, ,
2, ,-30, ,
2, ,-31, ,
1, ,-30, ,
2, ,-30, ,
1, ,-31, ,
1, ,-31, ,
2, ,-30, ,
2, ,-30, ,
1, ,-30, ,
2, ,-30, ,
2, ,-30, ,
2, ,-31, ,
2, ,-30, ,
2, ,-31, ,
1, ,-30, ,
2, ,-30, ,
1, ,-31, ,
1, ,-31, ,
2, ,-31, ,
2, ,-30, ,
1, ,-30, ,
2, ,-30, ,
1, ,-31, ,
2, ,-31, ,
2, ,-31, ,
2, ,-31, ,
1, ,-30, ,
2, ,-30, ,
1, ,-31, ,
1, ,-31, ,
3, ,-30, ,
2, ,-31, ,
1, ,-30, ,
2, ,-30, ,
2, ,-31, ,
2, ,-31, ,
2, ,-31, ,
2, ,-31, ,
1, ,-30, ,
2, ,-30, ,
1, ,-31, ,
1, ,-31, ,
2, ,-31, ,
2, ,-31, ,
1, ,-30, ,
2, ,-31, ,
1, ,-31, ,
2, ,-31, ,
2, ,-31, ,
2, ,-31, ,
1, ,-30, ,
2, ,-30, ,
1, ,-31, ,
1, ,-31, ,
2, ,-31, ,
2, ,-31, ,
1, ,-31, ,
2, ,-30, ,
1, ,-31, ,
1, ,-31, ,
2, ,-31, ,
2, ,-31, ,
1, ,-30, ,
2, ,-30, ,
1, ,-31, ,
1, ,-31, ,
2, ,-30, ,
2, ,-31, ,
1, ,-31, ,
2, ,-31, ,
1, ,-30, ,
1, ,-30, ,
2, ,-31, ,
2, ,-31, ,
1, ,-30, ,
2, ,-30, ,
1, ,-30, ,
1, ,-31, ,
2, ,-30, ,
1, ,-31, ,
1, ,-31, ,
2, ,-30, ,
1, ,-31, ,
1, ,-31, ,
2, ,-30, ,
1, ,-31, ,
1, ,-30, ,
2, ,-31, ,
1, ,-31, ,
1, ,-30, ,
2, ,-31, ,
2, ,-31, ,
1, ,-30, ,
2, ,-31, ,
1, ,-31, ,
1, ,-31, ,
2, ,-30, ,
1, ,-31, ,
1, ,-30, ,
2, ,-31, ,
1, ,-31, ,
1, ,-31, ,
2, ,-31, ,
2, ,-31, ,
1, ,-30, ,
2, ,-30, ,
1, ,-31, ,
1, ,-31, ,
2, ,-30, ,
2, ,-31, ,
1, ,-30, ,
2, ,-30, ,
1, ,-31, ,
2, ,-31, ,
2, ,-31, ,
1, ,-31, ,
1, ,-31, ,
2, ,-30, ,
1, ,-30, ,
2, ,-31, ,
2, ,-30, ,
2, ,-31, ,
1, ,-30, ,
2, ,-31, ,
1, ,-31, ,
1, ,-31, ,
2, ,-31, ,
1, ,-31, ,
1, ,-30, ,
2, ,-31, ,
1, ,-31, ,
1, ,-31, ,
2, ,-31, ,
2, ,-31, ,
1, ,-30, ,
2, ,-30, ,
1, ,-31, ,
1, ,-31, ,
2, ,-30, ,
2, ,-31, ,
1, ,-31, ,
2, ,-31, ,
1, ,-31, ,
1, ,-31, ,
2, ,-31, ,
2, ,-31, ,
1, ,-30, ,
2, ,-30, ,
1, ,-31, ,
1, ,-31, ,
2, ,-30, ,
2, ,-31, ,
1, ,-30, ,
2, ,-30, ,
1, ,-30, ,
1, ,-31, ,
2, ,-30, ,
2, ,-31, ,
1, ,-30, ,
2, ,-30, ,
1, ,-31, ,
1, ,-30, ,
2, ,-31, ,
1, ,-31, ,
1, ,-31, ,
2, ,-30, ,
1, ,-30, ,
1, ,-31, ,
2, ,-31, ,
2, ,-31, ,
1, ,-30, ,
2, ,-30, ,
1, ,-31, ,
1, ,-31, ,
2, ,-31, ,
1, ,-31, ,
1, ,-31, ,
2, ,-30, ,
1, ,-31, ,
1, ,-31, ,
2, ,-31, ,
1, ,-31, ,
1, ,-30, ,
2, ,-30, ,
1, ,-31, ,
