src/varyamp_1558/temp0001343.CSV

Format,1.0B,
Memory Length,10000,Memory Length,10000,
IntpDistance,0,IntpDistance,0,
Trigger Address,4999,Trigger Address,4999,
Trigger Level,1.040E+00,Trigger Level,1.040E+00,
Source,CH1,Source,CH2,
Vertical Units,V,Vertical Units,V,
Vertical Units Div,0,Vertical Units Div,0,
Vertical Units Extend Div,16,Vertical Units Extend Div,16,
Label,,Label,,
Probe Type,0,Probe Type,0,
Probe Ratio,1.000e+01,Probe Ratio,1.000e+00,
Vertical Scale,5.000e-01,Vertical Scale,1.000e+00,
Vertical Position,-1.820e+00,Vertical Position,0.000e+00,
Horizontal Units,S,Horizontal Units,S,
Horizontal Scale,2.000E-05,Horizontal Scale,2.000E-05,
Horizontal Position,0.000E+00,Horizontal Position,0.000E+00,
Horizontal Mode,Main,Horizontal Mode,Main,
SincET Mode,Real Time,SincET Mode,Real Time,
Sampling Period,2.000e-08,Sampling Period,2.000e-08,
Horizontal Old Scale,2.000E-05,Horizontal Old Scale,2.000E-05,
Horizontal Old Position,0.000E+00,Horizontal Old Position,0.000E+00,
Firmware,V1.23,Firmware,V1.23,
Mode,Fast,Mode,Fast,
Waveform Data,,Waveform Data,,
1, ,-34, ,
3, ,-34, ,
1, ,-34, ,
1, ,-34, ,
2, ,-34, ,
2, ,-34, ,
1, ,-34, ,
3, ,-34, ,
1, ,-34, ,
1, ,-34, ,
2, ,-34, ,
2, ,-34, ,
1, ,-34, ,
3, ,-34, ,
1, ,-34, ,
1, ,-34, ,
2, ,-34, ,
2, ,-34, ,
1, ,-34, ,
2, ,-34, ,
1, ,-34, ,
1, ,-34, ,
2, ,-34, ,
2, ,-34, ,
1, ,-34, ,
2, ,-34, ,
1, ,-34, ,
1, ,-34, ,
2, ,-34, ,
2, ,-34, ,
1, ,-34, ,
2, ,-34, ,
1, ,-34, ,
1, ,-34, ,
2, ,-34, ,
2, ,-34, ,
1, ,-34, ,
3, ,-34, ,
1, ,-35, ,
1, ,-34, ,
2, ,-34, ,
2, ,-34, ,
1, ,-35, ,
3, ,-34, ,
1, ,-34, ,
1, ,-34, ,
2, ,-34, ,
2, ,-34, ,
1, ,-34, ,
3, ,-34, ,
1, ,-34, ,
1, ,-34, ,
2, ,-34, ,
2, ,-34, ,
1, ,-34, ,
3, ,-34, ,
1, ,-34, ,
1, ,-34, ,
2, ,-34, ,
2, ,-34, ,
1, ,-34, ,
2, ,-34, ,
1, ,-34, ,
1, ,-34, ,
2, ,-34, ,
2, ,-34, ,
1, ,-35, ,
2, ,-34, ,
1, ,-34, ,
1, ,-34, ,
2, ,-34, ,
2, ,-34, ,
-1, ,-34, ,
3, ,-34, ,
1, ,-34, ,
1, ,-34, ,
2, ,-34, ,
2, ,-34, ,
-1, ,-34, ,
2, ,-34, ,
1, ,-34, ,
1, ,-34, ,
2, ,-34, ,
2, ,-34, ,
-1, ,-34, ,
2, ,-34, ,
1, ,-34, ,
1, ,-34, ,
2, ,-34, ,
2, ,-34, ,
-1, ,-34, ,
2, ,-34, ,
1, ,-34, ,
1, ,-34, ,
2, ,-34, ,
2, ,-34, ,
-1, ,-34, ,
2, ,-34, ,
1, ,-34, ,
1, ,-34, ,
2, ,-34, ,
2, ,-34, ,
-1, ,-34, ,
2, ,-34, ,
1, ,-34, ,
1, ,-34, ,
2, ,-34, ,
1, ,-35, ,
-1, ,-34, ,
2, ,-34, ,
1, ,-34, ,
1, ,-34, ,
2, ,-34, ,
1, ,-34, ,
-1, ,-35, ,
2, ,-34, ,
1, ,-34, ,
1, ,-34, ,
1, ,-34, ,
1, ,-34, ,
-1, ,-34, ,
2, ,-34, ,
1, ,-34, ,
1, ,-34, ,
2, ,-34, ,
1, ,-34, ,
-1, ,-34, ,
2, ,-34, ,
1, ,-34, ,
1, ,-34, ,
2, ,-34, ,
1, ,-34, ,
-1, ,-34, ,
2, ,-34, ,
1, ,-34, ,
1, ,-34, ,
2, ,-34, ,
1, ,-34, ,
-1, ,-35, ,
2, ,-34, ,
1, ,-34, ,
1, ,-34, ,
2, ,-34, ,
1, ,-35, ,
-1, ,-34, ,
2, ,-34, ,
1, ,-34, ,
1, ,-34, ,
2, ,-35, ,
2, ,-34, ,
-1, ,-35, ,
2, ,-34, ,
1, ,-34, ,
1, ,-34, ,
2, ,-34, ,
1, ,-34, ,
-1, ,-34, ,
2, ,-34, ,
1, ,-34, ,
1, ,-34, ,
2, ,-34, ,
2, ,-34, ,
-1, ,-34, ,
2, ,-34, ,
1, ,-34, ,
1, ,-34, ,
1, ,-35, ,
1, ,-34, ,
-1, ,-34, ,
2, ,-34, ,
1, ,-34, ,
1, ,-34, ,
1, ,-34, ,
1, ,-34, ,
-1, ,-34, ,
2, ,-34, ,
1, ,-34, ,
1, ,-34, ,
2, ,-34, ,
1, ,-34, ,
-1, ,-34, ,
2, ,-34, ,
1, ,-34, ,
1, ,-34, ,
2, ,-34, ,
1, ,-34, ,
-1, ,-34, ,
2, ,-34, ,
1, ,-34, ,
1, ,-34, ,
1, ,-34, ,
1, ,-35, ,
-1, ,-34, ,
2, ,-34, ,
1, ,-35, ,
1, ,-34, ,
2, ,-34, ,
1, ,-34, ,
-1, ,-34, ,
2, ,-34, ,
1, ,-34, ,
1, ,-34, ,
2, ,-34, ,
1, ,-35, ,
-1, ,-34, ,
2, ,-34, ,
1, ,-34, ,
1, ,-34, ,
1, ,-34, ,
1, ,-34, ,
-1, ,-34, ,
2, ,-34, ,
1, ,-34, ,
-1, ,-34, ,
2, ,-34, ,
1, ,-34, ,
-1, ,-34, ,
2, ,-34, ,
1, ,-34, ,
1, ,-34, ,
2, ,-34, ,
1, ,-34, ,
-1, ,-34, ,
2, ,-34, ,
1, ,-34, ,
1, ,-34, ,
2, ,-34, ,
1, ,-34, ,
-1, ,-34, ,
2, ,-34, ,
1, ,-34, ,
1, ,-34, ,
2, ,-34, ,
1, ,-34, ,
-1, ,-34, ,
2, ,-34, ,
1, ,-34, ,
-1, ,-34, ,
2, ,-34, ,
1, ,-35, ,
-1, ,-34, ,
2, ,-34, ,
1, ,-34, ,
1, ,-34, ,
2, ,-34, ,
1, ,-34, ,
-1, ,-35, ,
2, ,-34, ,
1, ,-34, ,
1, ,-34, ,
2, ,-34, ,
1, ,-34, ,
-1, ,-34, ,
2, ,-34, ,
1, ,-34, ,
1, ,-34, ,
2, ,-34, ,
1, ,-34, ,
-1, ,-34, ,
2, ,-34, ,
1, ,-34, ,
-1, ,-34, ,
1, ,-34, ,
1, ,-35, ,
-1, ,-34, ,
1, ,-34, ,
1, ,-34, ,
1, ,-34, ,
1, ,-34, ,
1, ,-34, ,
-1, ,-34, ,
2, ,-34, ,
1, ,-34, ,
-1, ,-34, ,
2, ,-34, ,
1, ,-35, ,
-1, ,-34, ,
2, ,-34, ,
1, ,-35, ,
1, ,-34, ,
2, ,-34, ,
1, ,-34, ,
-1, ,-34, ,
2, ,-34, ,
1, ,-34, ,
1, ,-34, ,
2, ,-34, ,
1, ,-34, ,
-1, ,-34, ,
2, ,-34, ,
1, ,-34, ,
1, ,-34, ,
2, ,-34, ,
1, ,-34, ,
-1, ,-35, ,
2, ,-34, ,
1, ,-34, ,
1, ,-34, ,
2, ,-34, ,
1, ,-35, ,
-1, ,-34, ,
2, ,-34, ,
1, ,-34, ,
1, ,-34, ,
2, ,-34, ,
1, ,-34, ,
-1, ,-35, ,
2, ,-31, ,
1, ,-13, ,
1, ,5, ,
2, ,19, ,
2, ,30, ,
-1, ,38, ,
2, ,43, ,
1, ,47, ,
1, ,51, ,
1, ,53, ,
1, ,55, ,
-1, ,56, ,
2, ,56, ,
1, ,57, ,
1, ,58, ,
1, ,59, ,
1, ,58, ,
-1, ,59, ,
2, ,60, ,
-1, ,59, ,
1, ,59, ,
2, ,60, ,
1, ,59, ,
-1, ,59, ,
2, ,59, ,
-1, ,59, ,
-1, ,59, ,
2, ,60, ,
1, ,59, ,
-1, ,59, ,
1, ,59, ,
-1, ,59, ,
-1, ,59, ,
1, ,60, ,
1, ,59, ,
-1, ,59, ,
2, ,59, ,
-1, ,59, ,
-1, ,59, ,
2, ,60, ,
1, ,59, ,
-1, ,59, ,
2, ,59, ,
-1, ,59, ,
-1, ,59, ,
2, ,59, ,
1, ,59, ,
-1, ,59, ,
2, ,59, ,
-1, ,58, ,
-1, ,59, ,
2, ,59, ,
1, ,58, ,
-1, ,59, ,
2, ,59, ,
-1, ,58, ,
-1, ,58, ,
2, ,59, ,
1, ,59, ,
-1, ,59, ,
2, ,59, ,
1, ,59, ,
-1, ,59, ,
2, ,59, ,
1, ,58, ,
-1, ,59, ,
2, ,59, ,
-1, ,58, ,
-1, ,59, ,
1, ,59, ,
1, ,59, ,
-1, ,59, ,
2, ,59, ,
-1, ,59, ,
-1, ,59, ,
1, ,59, ,
1, ,59, ,
-1, ,58, ,
2, ,59, ,
-1, ,58, ,
-1, ,58, ,
1, ,59, ,
1, ,59, ,
-1, ,59, ,
2, ,59, ,
-1, ,59, ,
-1, ,59, ,
74, ,59, ,
48, ,58, ,
27, ,58, ,
20, ,59, ,
12, ,59, ,
8, ,59, ,
7, ,59, ,
3, ,58, ,
2, ,59, ,
5, ,58, ,
2, ,58, ,
1, ,59, ,
3, ,59, ,
2, ,58, ,
1, ,58, ,
3, ,59, ,
2, ,58, ,
1, ,58, ,
3, ,59, ,
3, ,58, ,
1, ,59, ,
3, ,59, ,
2, ,58, ,
1, ,59, ,
2, ,59, ,
2, ,58, ,
1, ,58, ,
3, ,59, ,
2, ,59, ,
1, ,58, ,
2, ,59, ,
2, ,59, ,
1, ,59, ,
3, ,59, ,
2, ,58, ,
1, ,58, ,
2, ,59, ,
2, ,58, ,
1, ,58, ,
3, ,59, ,
1, ,58, ,
2, ,58, ,
3, ,59, ,
2, ,58, ,
1, ,58, ,
3, ,58, ,
2, ,58, ,
1, ,58, ,
3, ,59, ,
2, ,59, ,
1, ,58, ,
3, ,59, ,
2, ,59, ,
1, ,58, ,
2, ,59, ,
2, ,58, ,
1, ,58, ,
2, ,59, ,
1, ,59, ,
1, ,58, ,
2, ,59, ,
2, ,58, ,
1, ,58, ,
3, ,59, ,
1, ,59, ,
1, ,58, ,
3, ,59, ,
2, ,58, ,
1, ,47, ,
3, ,27, ,
1, ,12, ,
1, ,0, ,
2, ,-8, ,
2, ,-16, ,
-1, ,-20, ,
2, ,-24, ,
1, ,-27, ,
1, ,-28, ,
2, ,-31, ,
2, ,-32, ,
1, ,-33, ,
3, ,-34, ,
1, ,-34, ,
1, ,-34, ,
2, ,-34, ,
2, ,-35, ,
1, ,-35, ,
3, ,-35, ,
2, ,-35, ,
1, ,-35, ,
2, ,-35, ,
2, ,-35, ,
1, ,-35, ,
3, ,-35, ,
1, ,-35, ,
1, ,-35, ,
2, ,-35, ,
2, ,-35, ,
1, ,-35, ,
3, ,-35, ,
1, ,-35, ,
2, ,-35, ,
2, ,-35, ,
2, ,-35, ,
1, ,-35, ,
3, ,-35, ,
1, ,-34, ,
1, ,-34, ,
2, ,-35, ,
2, ,-35, ,
1, ,-34, ,
3, ,-35, ,
1, ,-35, ,
1, ,-34, ,
2, ,-34, ,
2, ,-35, ,
1, ,-35, ,
3, ,-35, ,
2, ,-34, ,
1, ,-34, ,
2, ,-35, ,
2, ,-35, ,
1, ,-34, ,
3, ,-34, ,
1, ,-35, ,
1, ,-34, ,
2, ,-35, ,
2, ,-34, ,
1, ,-34, ,
3, ,-34, ,
2, ,-34, ,
1, ,-35, ,
2, ,-34, ,
2, ,-35, ,
-1, ,-34, ,
3, ,-34, ,
1, ,-34, ,
1, ,-34, ,
2, ,-35, ,
2, ,-34, ,
1, ,-34, ,
3, ,-34, ,
1, ,-34, ,
1, ,-34, ,
2, ,-34, ,
31, ,-34, ,
22, ,-34, ,
17, ,-34, ,
11, ,-35, ,
7, ,-34, ,
6, ,-34, ,
5, ,-34, ,
2, ,-34, ,
5, ,-35, ,
2, ,-34, ,
2, ,-34, ,
3, ,-34, ,
2, ,-34, ,
1, ,-34, ,
3, ,-34, ,
1, ,-35, ,
2, ,-34, ,
3, ,-34, ,
3, ,-34, ,
1, ,-35, ,
3, ,-34, ,
2, ,-34, ,
2, ,-34, ,
3, ,-34, ,
2, ,-34, ,
1, ,-34, ,
5, ,-34, ,
2, ,-34, ,
2, ,-34, ,
3, ,-35, ,
2, ,-34, ,
1, ,-34, ,
3, ,-34, ,
2, ,-34, ,
2, ,-34, ,
3, ,-34, ,
2, ,-35, ,
1, ,-34, ,
3, ,-34, ,
2, ,-34, ,
2, ,-34, ,
3, ,-34, ,
2, ,-34, ,
1, ,-34, ,
3, ,-34, ,
2, ,-34, ,
2, ,-34, ,
2, ,-34, ,
3, ,-34, ,
1, ,-34, ,
5, ,-34, ,
2, ,-34, ,
1, ,-34, ,
3, ,-34, ,
2, ,-34, ,
1, ,-35, ,
3, ,-34, ,
1, ,-34, ,
1, ,-34, ,
2, ,-34, ,
2, ,-34, ,
1, ,-34, ,
3, ,-34, ,
2, ,-34, ,
2, ,-34, ,
3, ,-34, ,
2, ,-34, ,
1, ,-35, ,
3, ,-34, ,
2, ,-34, ,
1, ,-34, ,
2, ,-34, ,
2, ,-34, ,
1, ,-34, ,
3, ,-34, ,
2, ,-34, ,
1, ,-34, ,
2, ,-34, ,
2, ,-34, ,
1, ,-34, ,
3, ,-34, ,
1, ,-34, ,
1, ,-34, ,
2, ,-34, ,
2, ,-34, ,
1, ,-34, ,
2, ,-34, ,
1, ,-34, ,
1, ,-34, ,
2, ,-34, ,
2, ,-34, ,
1, ,-34, ,
3, ,-34, ,
1, ,-34, ,
1, ,-34, ,
2, ,-34, ,
2, ,-34, ,
1, ,-34, ,
3, ,-34, ,
1, ,-34, ,
1, ,-34, ,
2, ,-34, ,
2, ,-34, ,
1, ,-34, ,
3, ,-34, ,
1, ,-34, ,
1, ,-34, ,
2, ,-34, ,
2, ,-34, ,
1, ,-34, ,
3, ,-34, ,
1, ,-34, ,
1, ,-34, ,
2, ,-34, ,
2, ,-34, ,
1, ,-35, ,
3, ,-34, ,
1, ,-34, ,
1, ,-34, ,
2, ,-34, ,
2, ,-35, ,
1, ,-34, ,
3, ,-34, ,
1, ,-34, ,
1, ,-34, ,
2, ,-34, ,
2, ,-34, ,
1, ,-34, ,
3, ,-34, ,
2, ,-34, ,
2, ,-34, ,
2, ,-34, ,
2, ,-34, ,
1, ,-34, ,
3, ,-34, ,
2, ,-34, ,
1, ,-34, ,
2, ,-34, ,
2, ,-34, ,
1, ,-34, ,
3, ,-34, ,
2, ,-34, ,
1, ,-34, ,
2, ,-34, ,
2, ,-34, ,
1, ,-34, ,
3, ,-34, ,
2, ,-34, ,
1, ,-34, ,
2, ,-34, ,
2, ,-34, ,
1, ,-34, ,
3, ,-34, ,
2, ,-34, ,
1, ,-34, ,
2, ,-34, ,
2, ,-34, ,
1, ,-34, ,
3, ,-34, ,
2, ,-34, ,
1, ,-34, ,
2, ,-34, ,
2, ,-34, ,
1, ,-34, ,
3, ,-34, ,
1, ,-34, ,
1, ,-34, ,
2, ,-34, ,
2, ,-34, ,
1, ,-34, ,
3, ,-34, ,
1, ,-34, ,
1, ,-34, ,
2, ,-34, ,
2, ,-34, ,
1, ,-34, ,
3, ,-34, ,
1, ,-34, ,
1, ,-34, ,
2, ,-34, ,
2, ,-34, ,
1, ,-34, ,
3, ,-34, ,
1, ,-35, ,
1, ,-34, ,
2, ,-34, ,
2, ,-34, ,
1, ,-34, ,
3, ,-34, ,
1, ,-34, ,
1, ,-34, ,
2, ,-34, ,
2, ,-34, ,
-1, ,-34, ,
3, ,-34, ,
1, ,-34, ,
1, ,-34, ,
2, ,-34, ,
2, ,-34, ,
-1, ,-34, ,
2, ,-34, ,
1, ,-34, ,
1, ,-34, ,
2, ,-34, ,
2, ,-34, ,
-1, ,-34, ,
2, ,-34, ,
1, ,-34, ,
1, ,-34, ,
2, ,-34, ,
2, ,-34, ,
-1, ,-34, ,
2, ,-34, ,
1, ,-34, ,
1, ,-34, ,
2, ,-34, ,
2, ,-34, ,
-1, ,-34, ,
2, ,-34, ,
1, ,-34, ,
1, ,-34, ,
2, ,-35, ,
2, ,-34, ,
-1, ,-34, ,
2, ,-34, ,
1, ,-34, ,
1, ,-34, ,
2, ,-34, ,
2, ,-34, ,
-1, ,-34, ,
2, ,-34, ,
1, ,-34, ,
1, ,-34, ,
2, ,-34, ,
2, ,-34, ,
-1, ,-35, ,
2, ,-34, ,
1, ,-34, ,
1, ,-34, ,
2, ,-34, ,
2, ,-34, ,
-1, ,-34, ,
2, ,-34, ,
1, ,-34, ,
1, ,-34, ,
2, ,-34, ,
1, ,-34, ,
-1, ,-34, ,
2, ,-34, ,
1, ,-34, ,
1, ,-34, ,
2, ,-34, ,
2, ,-34, ,
-1, ,-34, ,
2, ,-34, ,
1, ,-35, ,
1, ,-34, ,
2, ,-34, ,
2, ,-34, ,
1, ,-35, ,
3, ,-34, ,
1, ,-34, ,
1, ,-34, ,
2, ,-34, ,
2, ,-34, ,
-1, ,-34, ,
3, ,-34, ,
1, ,-35, ,
1, ,-34, ,
2, ,-34, ,
2, ,-34, ,
-1, ,-34, ,
2, ,-34, ,
1, ,-34, ,
1, ,-34, ,
2, ,-34, ,
2, ,-34, ,
-1, ,-34, ,
2, ,-34, ,
1, ,-35, ,
1, ,-34, ,
2, ,-34, ,
1, ,-34, ,
-1, ,-35, ,
3, ,-34, ,
1, ,-34, ,
1, ,-34, ,
2, ,-34, ,
2, ,-34, ,
-1, ,-34, ,
2, ,-34, ,
1, ,-34, ,
1, ,-34, ,
2, ,-34, ,
2, ,-34, ,
-1, ,-34, ,
2, ,-34, ,
1, ,-34, ,
1, ,-34, ,
1, ,-34, ,
1, ,-35, ,
-1, ,-34, ,
2, ,-34, ,
1, ,-35, ,
1, ,-34, ,
2, ,-34, ,
1, ,-34, ,
-1, ,-34, ,
2, ,-34, ,
1, ,-34, ,
1, ,-34, ,
2, ,-34, ,
2, ,-35, ,
-1, ,-34, ,
2, ,-34, ,
1, ,-34, ,
1, ,-34, ,
2, ,-34, ,
1, ,-34, ,
-1, ,-34, ,
2, ,-34, ,
1, ,-34, ,
1, ,-34, ,
2, ,-34, ,
1, ,-34, ,
-1, ,-34, ,
2, ,-34, ,
1, ,-35, ,
1, ,-34, ,
2, ,-34, ,
2, ,-34, ,
-1, ,-34, ,
2, ,-34, ,
1, ,-34, ,
1, ,-34, ,
2, ,-34, ,
1, ,-34, ,
-1, ,-34, ,
2, ,-34, ,
1, ,-34, ,
1, ,-34, ,
2, ,-34, ,
1, ,-34, ,
-1, ,-34, ,
2, ,-34, ,
1, ,-34, ,
1, ,-34, ,
2, ,-34, ,
1, ,-34, ,
-1, ,-34, ,
2, ,-34, ,
1, ,-34, ,
1, ,-34, ,
2, ,-34, ,
1, ,-34, ,
-1, ,-34, ,
2, ,-34, ,
1, ,-34, ,
1, ,-34, ,
2, ,-34, ,
2, ,-34, ,
-1, ,-34, ,
2, ,-34, ,
1, ,-34, ,
1, ,-34, ,
1, ,-34, ,
1, ,-34, ,
-1, ,-34, ,
2, ,-34, ,
1, ,-34, ,
1, ,-34, ,
2, ,-34, ,
1, ,-35, ,
-1, ,-34, ,
2, ,-34, ,
1, ,-35, ,
1, ,-34, ,
2, ,-34, ,
1, ,-34, ,
-1, ,-34, ,
2, ,-34, ,
1, ,-34, ,
1, ,-34, ,
2, ,-34, ,
1, ,-35, ,
-1, ,-34, ,
2, ,-34, ,
1, ,-34, ,
1, ,-34, ,
2, ,-34, ,
1, ,-34, ,
-1, ,-34, ,
2, ,-34, ,
1, ,-34, ,
1, ,-34, ,
2, ,-34, ,
1, ,-35, ,
-1, ,-34, ,
2, ,-34, ,
1, ,-34, ,
1, ,-34, ,
2, ,-34, ,
1, ,-34, ,
-1, ,-35, ,
2, ,-34, ,
1, ,-34, ,
1, ,-34, ,
2, ,-34, ,
1, ,-34, ,
-1, ,-34, ,
2, ,-34, ,
1, ,-35, ,
1, ,-34, ,
2, ,-34, ,
1, ,-34, ,
-1, ,-34, ,
2, ,-34, ,
1, ,-34, ,
1, ,-34, ,
2, ,-34, ,
1, ,-34, ,
-1, ,-34, ,
2, ,-34, ,
1, ,-34, ,
1, ,-34, ,
1, ,-34, ,
1, ,-34, ,
-1, ,-34, ,
2, ,-34, ,
1, ,-34, ,
1, ,-34, ,
1, ,-34, ,
1, ,-35, ,
-1, ,-34, ,
2, ,-34, ,
1, ,-34, ,
1, ,-34, ,
2, ,-34, ,
1, ,-34, ,
-1, ,-34, ,
2, ,-34, ,
1, ,-34, ,
1, ,-34, ,
2, ,-34, ,
1, ,-34, ,
-1, ,-34, ,
2, ,-34, ,
1, ,-34, ,
1, ,-34, ,
2, ,-34, ,
1, ,-34, ,
-1, ,-34, ,
2, ,-34, ,
1, ,-34, ,
-1, ,-34, ,
2, ,-34, ,
1, ,-34, ,
-1, ,-34, ,
2, ,-34, ,
1, ,-34, ,
1, ,-34, ,
2, ,-34, ,
1, ,-34, ,
-1, ,-35, ,
2, ,-34, ,
1, ,-34, ,
1, ,-34, ,
2, ,-34, ,
1, ,-34, ,
-1, ,-34, ,
1, ,-34, ,
1, ,-34, ,
1, ,-34, ,
1, ,-34, ,
1, ,-34, ,
-1, ,-35, ,
2, ,-34, ,
1, ,-34, ,
1, ,-34, ,
2, ,-34, ,
1, ,-34, ,
-1, ,-34, ,
2, ,-34, ,
-1, ,-35, ,
1, ,-34, ,
2, ,-34, ,
1, ,-34, ,
-1, ,-34, ,
2, ,-34, ,
1, ,-34, ,
-1, ,-34, ,
2, ,-34, ,
1, ,-35, ,
-1, ,-34, ,
2, ,-34, ,
1, ,-34, ,
1, ,-34, ,
2, ,-34, ,
1, ,-35, ,
-1, ,-34, ,
2, ,-34, ,
1, ,-34, ,
1, ,-34, ,
2, ,-34, ,
1, ,-34, ,
-1, ,-34, ,
1, ,-34, ,
1, ,-34, ,
1, ,-34, ,
1, ,-34, ,
1, ,-34, ,
-1, ,-34, ,
2, ,-34, ,
1, ,-34, ,
1, ,-34, ,
2, ,-34, ,
1, ,-35, ,
-1, ,-34, ,
2, ,-34, ,
1, ,-34, ,
-1, ,-34, ,
2, ,-34, ,
1, ,-34, ,
-1, ,-34, ,
2, ,-34, ,
1, ,-34, ,
1, ,-34, ,
2, ,-34, ,
1, ,-35, ,
-1, ,-34, ,
2, ,-34, ,
1, ,-34, ,
1, ,-34, ,
1, ,-34, ,
1, ,-34, ,
-1, ,-34, ,
2, ,-34, ,
1, ,-34, ,
1, ,-34, ,
2, ,-34, ,
1, ,-34, ,
-1, ,-34, ,
1, ,-34, ,
-1, ,-34, ,
1, ,-34, ,
2, ,-34, ,
1, ,-34, ,
-1, ,-34, ,
2, ,-34, ,
1, ,-34, ,
-1, ,-19, ,
2, ,0, ,
1, ,16, ,
-1, ,27, ,
2, ,35, ,
1, ,41, ,
1, ,45, ,
2, ,50, ,
1, ,52, ,
-1, ,54, ,
2, ,55, ,
-1, ,57, ,
-1, ,57, ,
2, ,59, ,
1, ,58, ,
-1, ,58, ,
2, ,59, ,
1, ,59, ,
-1, ,59, ,
2, ,59, ,
1, ,59, ,
-1, ,59, ,
2, ,59, ,
-1, ,59, ,
-1, ,59, ,
2, ,60, ,
1, ,59, ,
-1, ,59, ,
2, ,59, ,
-1, ,59, ,
-1, ,59, ,
1, ,60, ,
-1, ,59, ,
-1, ,59, ,
2, ,59, ,
-1, ,59, ,
-1, ,59, ,
2, ,60, ,
1, ,59, ,
-1, ,59, ,
2, ,59, ,
-1, ,59, ,
-1, ,59, ,
1, ,59, ,
1, ,59, ,
-1, ,59, ,
2, ,59, ,
-1, ,59, ,
-1, ,59, ,
2, ,59, ,
1, ,58, ,
-2, ,59, ,
2, ,60, ,
-1, ,58, ,
-1, ,59, ,
1, ,59, ,
1, ,58, ,
-1, ,59, ,
2, ,59, ,
-1, ,58, ,
-1, ,59, ,
2, ,59, ,
1, ,58, ,
-1, ,59, ,
2, ,59, ,
-1, ,59, ,
-1, ,59, ,
1, ,59, ,
1, ,59, ,
-1, ,59, ,
1, ,59, ,
-1, ,59, ,
-1, ,59, ,
2, ,59, ,
1, ,58, ,
-1, ,59, ,
2, ,59, ,
-1, ,58, ,
-1, ,59, ,
2, ,59, ,
1, ,58, ,
-1, ,59, ,
2, ,59, ,
-1, ,58, ,
-1, ,59, ,
2, ,59, ,
1, ,58, ,
-1, ,59, ,
1, ,59, ,
-1, ,59, ,
-1, ,59, ,
1, ,59, ,
1, ,59, ,
-1, ,59, ,
2, ,59, ,
-1, ,58, ,
-1, ,58, ,
2, ,59, ,
1, ,58, ,
-1, ,59, ,
2, ,59, ,
-1, ,59, ,
-1, ,59, ,
1, ,59, ,
1, ,58, ,
-1, ,58, ,
2, ,59, ,
-1, ,59, ,
-1, ,59, ,
2, ,59, ,
1, ,58, ,
-1, ,59, ,
2, ,59, ,
-1, ,59, ,
-1, ,59, ,
2, ,59, ,
1, ,58, ,
-1, ,59, ,
2, ,59, ,
-1, ,59, ,
-1, ,58, ,
77, ,59, ,
48, ,58, ,
27, ,58, ,
20, ,59, ,
12, ,58, ,
7, ,59, ,
7, ,59, ,
3, ,58, ,
2, ,59, ,
5, ,59, ,
2, ,58, ,
1, ,59, ,
3, ,59, ,
2, ,58, ,
1, ,58, ,
3, ,59, ,
2, ,59, ,
1, ,59, ,
3, ,59, ,
2, ,58, ,
1, ,59, ,
3, ,59, ,
2, ,58, ,
2, ,59, ,
2, ,59, ,
2, ,58, ,
1, ,58, ,
2, ,59, ,
2, ,59, ,
1, ,59, ,
3, ,59, ,
2, ,58, ,
1, ,59, ,
3, ,52, ,
1, ,32, ,
1, ,15, ,
2, ,2, ,
2, ,-7, ,
1, ,-14, ,
2, ,-19, ,
2, ,-23, ,
2, ,-26, ,
2, ,-28, ,
2, ,-31, ,
1, ,-32, ,
3, ,-33, ,
1, ,-33, ,
1, ,-34, ,
2, ,-34, ,
2, ,-35, ,
1, ,-34, ,
3, ,-35, ,
2, ,-35, ,
2, ,-35, ,
3, ,-35, ,
3, ,-35, ,
1, ,-35, ,
3, ,-35, ,
2, ,-35, ,
1, ,-35, ,
2, ,-35, ,
2, ,-35, ,
1, ,-35, ,
3, ,-35, ,
1, ,-35, ,
2, ,-34, ,
2, ,-35, ,
2, ,-34, ,
1, ,-35, ,
3, ,-35, ,
1, ,-35, ,
1, ,-34, ,
3, ,-34, ,
3, ,-35, ,
1, ,-34, ,
3, ,-34, ,
1, ,-35, ,
2, ,-34, ,
3, ,-34, ,
3, ,-34, ,
1, ,-35, ,
3, ,-34, ,
2, ,-34, ,
1, ,-34, ,
2, ,-34, ,
2, ,-35, ,
1, ,-34, ,
3, ,-34, ,
1, ,-35, ,
1, ,-34, ,
2, ,-34, ,
2, ,-34, ,
1, ,-34, ,
3, ,-34, ,
2, ,-34, ,
1, ,-34, ,
2, ,-34, ,
2, ,-35, ,
1, ,-34, ,
3, ,-34, ,
1, ,-35, ,
1, ,-34, ,
2, ,-34, ,
2, ,-34, ,
1, ,-35, ,
3, ,-34, ,
1, ,-34, ,
1, ,-34, ,
2, ,-34, ,
2, ,-34, ,
1, ,-34, ,
3, ,-34, ,
1, ,-35, ,
1, ,-34, ,
3, ,-34, ,
2, ,-34, ,
1, ,-35, ,
3, ,-34, ,
1, ,-34, ,
1, ,-34, ,
2, ,-34, ,
2, ,-34, ,
1, ,-34, ,
3, ,-34, ,
1, ,-34, ,
2, ,-34, ,
2, ,-34, ,
2, ,-34, ,
1, ,-35, ,
2, ,-34, ,
2, ,-34, ,
1, ,-34, ,
2, ,-34, ,
2, ,-35, ,
1, ,-34, ,
3, ,-34, ,
1, ,-34, ,
1, ,-34, ,
2, ,-34, ,
2, ,-34, ,
1, ,-34, ,
3, ,-34, ,
1, ,-34, ,
1, ,-34, ,
3, ,-34, ,
2, ,-34, ,
1, ,-34, ,
3, ,-34, ,
1, ,-34, ,
1, ,-34, ,
2, ,-34, ,
2, ,-34, ,
1, ,-34, ,
3, ,-34, ,
1, ,-34, ,
1, ,-34, ,
2, ,-34, ,
2, ,-34, ,
-1, ,-34, ,
3, ,-34, ,
1, ,-34, ,
1, ,-34, ,
2, ,-34, ,
2, ,-34, ,
1, ,-35, ,
2, ,-34, ,
1, ,-34, ,
1, ,-34, ,
2, ,-34, ,
1, ,-34, ,
-1, ,-34, ,
2, ,-34, ,
1, ,-34, ,
1, ,-34, ,
2, ,-34, ,
2, ,-34, ,
1, ,-34, ,
2, ,-34, ,
1, ,-34, ,
1, ,-34, ,
2, ,-34, ,
2, ,-34, ,
1, ,-34, ,
3, ,-34, ,
1, ,-34, ,
1, ,-34, ,
2, ,-34, ,
2, ,-34, ,
1, ,-34, ,
2, ,-34, ,
1, ,-34, ,
1, ,-34, ,
2, ,-34, ,
2, ,-34, ,
-1, ,-34, ,
3, ,-34, ,
1, ,-34, ,
1, ,-34, ,
2, ,-34, ,
2, ,-34, ,
-1, ,-34, ,
3, ,-34, ,
1, ,-34, ,
1, ,-34, ,
2, ,-34, ,
2, ,-34, ,
-1, ,-34, ,
2, ,-34, ,
1, ,-35, ,
1, ,-34, ,
2, ,-34, ,
2, ,-34, ,
-1, ,-34, ,
2, ,-34, ,
1, ,-34, ,
1, ,-34, ,
2, ,-34, ,
2, ,-34, ,
-1, ,-34, ,
2, ,-34, ,
1, ,-35, ,
1, ,-34, ,
2, ,-34, ,
2, ,-34, ,
1, ,-35, ,
2, ,-34, ,
1, ,-34, ,
1, ,-34, ,
2, ,-34, ,
2, ,-34, ,
-1, ,-34, ,
2, ,-34, ,
1, ,-34, ,
1, ,-34, ,
2, ,-34, ,
1, ,-34, ,
-1, ,-34, ,
2, ,-34, ,
1, ,-34, ,
1, ,-34, ,
2, ,-34, ,
2, ,-34, ,
-1, ,-34, ,
2, ,-34, ,
1, ,-34, ,
1, ,-34, ,
2, ,-34, ,
2, ,-34, ,
1, ,-34, ,
2, ,-34, ,
1, ,-34, ,
1, ,-34, ,
2, ,-34, ,
2, ,-34, ,
-1, ,-34, ,
2, ,-34, ,
1, ,-34, ,
1, ,-34, ,
2, ,-34, ,
2, ,-34, ,
-1, ,-34, ,
2, ,-34, ,
1, ,-34, ,
1, ,-34, ,
2, ,-34, ,
2, ,-34, ,
-1, ,-34, ,
2, ,-34, ,
1, ,-34, ,
1, ,-34, ,
2, ,-34, ,
2, ,-34, ,
-1, ,-34, ,
2, ,-34, ,
1, ,-34, ,
1, ,-34, ,
2, ,-34, ,
2, ,-34, ,
-1, ,-34, ,
2, ,-34, ,
1, ,-34, ,
1, ,-34, ,
2, ,-34, ,
2, ,-34, ,
-1, ,-34, ,
2, ,-34, ,
1, ,-34, ,
1, ,-34, ,
2, ,-34, ,
2, ,-34, ,
-1, ,-34, ,
2, ,-34, ,
1, ,-34, ,
1, ,-34, ,
2, ,-34, ,
2, ,-34, ,
-1, ,-34, ,
2, ,-34, ,
1, ,-34, ,
1, ,-34, ,
2, ,-34, ,
2, ,-34, ,
-1, ,-34, ,
2, ,-34, ,
1, ,-34, ,
1, ,-34, ,
2, ,-34, ,
2, ,-34, ,
-1, ,-34, ,
2, ,-34, ,
1, ,-34, ,
1, ,-34, ,
2, ,-34, ,
2, ,-34, ,
-1, ,-34, ,
2, ,-34, ,
1, ,-34, ,
1, ,-34, ,
2, ,-34, ,
1, ,-34, ,
-1, ,-35, ,
2, ,-34, ,
1, ,-34, ,
1, ,-34, ,
2, ,-34, ,
1, ,-34, ,
-1, ,-34, ,
2, ,-34, ,
1, ,-35, ,
1, ,-34, ,
2, ,-34, ,
1, ,-34, ,
-1, ,-34, ,
2, ,-34, ,
1, ,-34, ,
1, ,-34, ,
2, ,-34, ,
1, ,-35, ,
-1, ,-34, ,
2, ,-34, ,
1, ,-34, ,
1, ,-34, ,
2, ,-34, ,
1, ,-34, ,
-1, ,-34, ,
2, ,-34, ,
1, ,-34, ,
1, ,-34, ,
2, ,-34, ,
1, ,-35, ,
-1, ,-34, ,
2, ,-34, ,
-1, ,-34, ,
1, ,-34, ,
2, ,-34, ,
2, ,-34, ,
-1, ,-34, ,
2, ,-34, ,
1, ,-34, ,
1, ,-34, ,
2, ,-34, ,
1, ,-34, ,
-1, ,-34, ,
2, ,-34, ,
1, ,-34, ,
1, ,-34, ,
2, ,-34, ,
1, ,-34, ,
-1, ,-34, ,
2, ,-34, ,
1, ,-34, ,
1, ,-34, ,
1, ,-34, ,
2, ,-34, ,
-1, ,-34, ,
2, ,-34, ,
1, ,-34, ,
1, ,-34, ,
2, ,-34, ,
1, ,-34, ,
-1, ,-34, ,
2, ,-34, ,
1, ,-34, ,
1, ,-34, ,
2, ,-34, ,
2, ,-35, ,
-1, ,-34, ,
2, ,-34, ,
1, ,-34, ,
1, ,-34, ,
2, ,-34, ,
1, ,-34, ,
-1, ,-35, ,
2, ,-34, ,
1, ,-34, ,
1, ,-34, ,
2, ,-34, ,
2, ,-34, ,
-1, ,-34, ,
2, ,-34, ,
1, ,-34, ,
1, ,-34, ,
2, ,-34, ,
1, ,-34, ,
-1, ,-34, ,
2, ,-34, ,
1, ,-34, ,
1, ,-34, ,
2, ,-34, ,
1, ,-34, ,
-1, ,-34, ,
2, ,-34, ,
1, ,-34, ,
1, ,-34, ,
2, ,-34, ,
1, ,-34, ,
-1, ,-35, ,
2, ,-34, ,
1, ,-34, ,
1, ,-34, ,
2, ,-34, ,
2, ,-35, ,
-1, ,-34, ,
2, ,-34, ,
1, ,-34, ,
1, ,-34, ,
2, ,-34, ,
1, ,-34, ,
-1, ,-34, ,
2, ,-34, ,
1, ,-34, ,
1, ,-34, ,
2, ,-34, ,
1, ,-35, ,
-1, ,-34, ,
2, ,-34, ,
1, ,-35, ,
1, ,-34, ,
2, ,-34, ,
1, ,-34, ,
-1, ,-34, ,
2, ,-34, ,
1, ,-34, ,
1, ,-34, ,
1, ,-34, ,
1, ,-34, ,
-1, ,-34, ,
2, ,-34, ,
1, ,-34, ,
1, ,-34, ,
2, ,-34, ,
1, ,-34, ,
-1, ,-34, ,
2, ,-34, ,
-1, ,-34, ,
-1, ,-34, ,
2, ,-34, ,
1, ,-35, ,
-1, ,-34, ,
2, ,-34, ,
-1, ,-34, ,
-1, ,-34, ,
1, ,-34, ,
1, ,-34, ,
-1, ,-35, ,
2, ,-34, ,
1, ,-34, ,
-1, ,-34, ,
1, ,-34, ,
1, ,-34, ,
-1, ,-34, ,
2, ,-34, ,
-1, ,-34, ,
1, ,-34, ,
1, ,-34, ,
1, ,-34, ,
-1, ,-34, ,
2, ,-34, ,
1, ,-34, ,
-1, ,-34, ,
2, ,-34, ,
1, ,-35, ,
-1, ,-34, ,
2, ,-34, ,
-1, ,-34, ,
1, ,-34, ,
2, ,-34, ,
1, ,-34, ,
-1, ,-34, ,
2, ,-34, ,
1, ,-34, ,
-1, ,-34, ,
1, ,-34, ,
1, ,-34, ,
-1, ,-34, ,
2, ,-34, ,
1, ,-34, ,
1, ,-34, ,
1, ,-34, ,
1, ,-34, ,
-1, ,-35, ,
2, ,-34, ,
1, ,-34, ,
1, ,-34, ,
2, ,-34, ,
1, ,-34, ,
-1, ,-34, ,
2, ,-34, ,
1, ,-35, ,
1, ,-34, ,
2, ,-34, ,
1, ,-34, ,
-1, ,-34, ,
2, ,-34, ,
1, ,-34, ,
-1, ,-34, ,
