src/varyamp_1558/temp0000615.CSV

Format,1.0B,
Memory Length,10000,Memory Length,10000,
IntpDistance,0,IntpDistance,0,
Trigger Address,4999,Trigger Address,4999,
Trigger Level,1.040E+00,Trigger Level,1.040E+00,
Source,CH1,Source,CH2,
Vertical Units,V,Vertical Units,V,
Vertical Units Div,0,Vertical Units Div,0,
Vertical Units Extend Div,16,Vertical Units Extend Div,16,
Label,,Label,,
Probe Type,0,Probe Type,0,
Probe Ratio,1.000e+01,Probe Ratio,1.000e+00,
Vertical Scale,5.000e-01,Vertical Scale,1.000e+00,
Vertical Position,-1.820e+00,Vertical Position,0.000e+00,
Horizontal Units,S,Horizontal Units,S,
Horizontal Scale,2.000E-05,Horizontal Scale,2.000E-05,
Horizontal Position,0.000E+00,Horizontal Position,0.000E+00,
Horizontal Mode,Main,Horizontal Mode,Main,
SincET Mode,Real Time,SincET Mode,Real Time,
Sampling Period,2.000e-08,Sampling Period,2.000e-08,
Horizontal Old Scale,2.000E-05,Horizontal Old Scale,2.000E-05,
Horizontal Old Position,0.000E+00,Horizontal Old Position,0.000E+00,
Firmware,V1.23,Firmware,V1.23,
Mode,Fast,Mode,Fast,
Waveform Data,,Waveform Data,,
1, ,-35, ,
1, ,-35, ,
2, ,-35, ,
1, ,-34, ,
-1, ,-35, ,
3, ,-34, ,
1, ,-35, ,
1, ,-35, ,
2, ,-35, ,
2, ,-35, ,
1, ,-35, ,
2, ,-34, ,
1, ,-35, ,
1, ,-35, ,
2, ,-35, ,
2, ,-35, ,
1, ,-35, ,
2, ,-34, ,
1, ,-35, ,
2, ,-35, ,
2, ,-35, ,
2, ,-35, ,
-1, ,-35, ,
3, ,-34, ,
1, ,-35, ,
1, ,-35, ,
2, ,-35, ,
2, ,-35, ,
-1, ,-35, ,
2, ,-34, ,
1, ,-35, ,
1, ,-34, ,
2, ,-35, ,
1, ,-35, ,
-1, ,-35, ,
2, ,-34, ,
1, ,-34, ,
1, ,-35, ,
2, ,-35, ,
1, ,-35, ,
-1, ,-35, ,
2, ,-34, ,
1, ,-35, ,
2, ,-35, ,
2, ,-35, ,
1, ,-35, ,
-1, ,-35, ,
2, ,-35, ,
1, ,-35, ,
1, ,-35, ,
2, ,-35, ,
2, ,-34, ,
-1, ,-35, ,
2, ,-34, ,
1, ,-35, ,
1, ,-35, ,
1, ,-35, ,
1, ,-35, ,
1, ,-35, ,
2, ,-35, ,
1, ,-35, ,
1, ,-35, ,
2, ,-35, ,
2, ,-35, ,
1, ,-35, ,
2, ,-35, ,
1, ,-35, ,
1, ,-34, ,
2, ,-35, ,
1, ,-35, ,
-1, ,-34, ,
3, ,-35, ,
1, ,-35, ,
1, ,-35, ,
2, ,-35, ,
1, ,-34, ,
-1, ,-35, ,
2, ,-35, ,
1, ,-35, ,
-1, ,-35, ,
2, ,-35, ,
1, ,-35, ,
-1, ,-34, ,
2, ,-35, ,
1, ,-35, ,
1, ,-35, ,
2, ,-35, ,
1, ,-35, ,
-1, ,-35, ,
2, ,-34, ,
1, ,-35, ,
1, ,-35, ,
2, ,-35, ,
1, ,-35, ,
-1, ,-35, ,
2, ,-34, ,
1, ,-35, ,
-1, ,-35, ,
1, ,-35, ,
1, ,-35, ,
-1, ,-35, ,
2, ,-35, ,
1, ,-35, ,
1, ,-35, ,
2, ,-35, ,
1, ,-35, ,
-1, ,-34, ,
2, ,-34, ,
1, ,-35, ,
1, ,-35, ,
2, ,-35, ,
1, ,-35, ,
-1, ,-35, ,
2, ,-34, ,
1, ,-35, ,
1, ,-35, ,
2, ,-35, ,
2, ,-35, ,
-1, ,-35, ,
2, ,-34, ,
1, ,-35, ,
1, ,-35, ,
2, ,-35, ,
1, ,-34, ,
1, ,-35, ,
2, ,-35, ,
1, ,-35, ,
1, ,-35, ,
2, ,-35, ,
1, ,-35, ,
-1, ,-34, ,
2, ,-34, ,
1, ,-35, ,
1, ,-35, ,
1, ,-35, ,
1, ,-35, ,
-1, ,-35, ,
1, ,-34, ,
1, ,-35, ,
1, ,-35, ,
1, ,-35, ,
1, ,-35, ,
-1, ,-35, ,
2, ,-34, ,
1, ,-35, ,
1, ,-35, ,
2, ,-35, ,
2, ,-35, ,
-1, ,-35, ,
2, ,-35, ,
1, ,-35, ,
1, ,-35, ,
1, ,-35, ,
1, ,-35, ,
-1, ,-35, ,
2, ,-35, ,
1, ,-35, ,
1, ,-35, ,
2, ,-35, ,
1, ,-34, ,
-1, ,-35, ,
2, ,-34, ,
1, ,-35, ,
1, ,-35, ,
2, ,-35, ,
1, ,-35, ,
-1, ,-35, ,
2, ,-35, ,
1, ,-35, ,
1, ,-35, ,
2, ,-35, ,
1, ,-35, ,
-1, ,-35, ,
2, ,-35, ,
1, ,-35, ,
1, ,-35, ,
1, ,-35, ,
1, ,-35, ,
-1, ,-34, ,
2, ,-35, ,
1, ,-35, ,
1, ,-35, ,
2, ,-35, ,
1, ,-34, ,
-1, ,-35, ,
2, ,-35, ,
1, ,-35, ,
1, ,-35, ,
2, ,-35, ,
1, ,-35, ,
-1, ,-35, ,
2, ,-35, ,
1, ,-34, ,
1, ,-35, ,
2, ,-35, ,
1, ,-35, ,
-1, ,-35, ,
2, ,-34, ,
1, ,-35, ,
1, ,-35, ,
2, ,-35, ,
1, ,-35, ,
-1, ,-35, ,
2, ,-35, ,
1, ,-35, ,
1, ,-35, ,
1, ,-35, ,
1, ,-35, ,
-1, ,-35, ,
2, ,-35, ,
1, ,-35, ,
-1, ,-35, ,
2, ,-35, ,
1, ,-35, ,
-1, ,-35, ,
2, ,-34, ,
-1, ,-35, ,
1, ,-35, ,
2, ,-35, ,
1, ,-35, ,
-1, ,-35, ,
2, ,-35, ,
1, ,-35, ,
-1, ,-35, ,
1, ,-35, ,
1, ,-35, ,
-1, ,-35, ,
2, ,-35, ,
-1, ,-35, ,
-1, ,-35, ,
1, ,-35, ,
1, ,-35, ,
-1, ,-35, ,
2, ,-34, ,
1, ,-35, ,
-1, ,-35, ,
2, ,-35, ,
1, ,-35, ,
-1, ,-35, ,
2, ,-34, ,
-1, ,-35, ,
-1, ,-35, ,
1, ,-35, ,
1, ,-35, ,
-1, ,-35, ,
1, ,-34, ,
1, ,-35, ,
-1, ,-35, ,
1, ,-35, ,
1, ,-35, ,
-1, ,-35, ,
2, ,-35, ,
1, ,-35, ,
1, ,-35, ,
2, ,-35, ,
1, ,-35, ,
-1, ,-35, ,
2, ,-34, ,
1, ,-35, ,
1, ,-35, ,
1, ,-35, ,
1, ,-35, ,
-1, ,-35, ,
2, ,-35, ,
1, ,-35, ,
1, ,-35, ,
1, ,-35, ,
1, ,-35, ,
-1, ,-35, ,
2, ,-35, ,
1, ,-35, ,
1, ,-35, ,
2, ,-35, ,
1, ,-35, ,
-1, ,-35, ,
2, ,-35, ,
1, ,-35, ,
1, ,-35, ,
1, ,-35, ,
1, ,-35, ,
-1, ,-35, ,
2, ,-35, ,
1, ,-35, ,
1, ,-35, ,
1, ,-35, ,
1, ,-35, ,
-1, ,-35, ,
2, ,-35, ,
-1, ,-35, ,
1, ,-35, ,
1, ,-35, ,
1, ,-34, ,
-1, ,-35, ,
2, ,-35, ,
1, ,-35, ,
-1, ,-35, ,
1, ,-35, ,
1, ,-35, ,
-1, ,-35, ,
2, ,-34, ,
1, ,-35, ,
1, ,-35, ,
2, ,-35, ,
1, ,-35, ,
-1, ,-35, ,
2, ,-35, ,
1, ,-35, ,
-1, ,-32, ,
2, ,-14, ,
1, ,4, ,
-1, ,19, ,
2, ,28, ,
-1, ,37, ,
-1, ,42, ,
2, ,46, ,
1, ,50, ,
-1, ,53, ,
2, ,54, ,
-1, ,56, ,
-1, ,56, ,
1, ,57, ,
1, ,58, ,
-1, ,58, ,
2, ,58, ,
1, ,59, ,
-1, ,58, ,
2, ,59, ,
1, ,59, ,
-1, ,59, ,
76, ,59, ,
52, ,59, ,
30, ,59, ,
21, ,59, ,
12, ,59, ,
8, ,59, ,
7, ,58, ,
5, ,59, ,
3, ,58, ,
5, ,59, ,
3, ,59, ,
2, ,59, ,
3, ,59, ,
2, ,59, ,
2, ,59, ,
2, ,58, ,
2, ,59, ,
1, ,59, ,
3, ,59, ,
2, ,59, ,
2, ,58, ,
2, ,58, ,
2, ,59, ,
1, ,59, ,
3, ,58, ,
2, ,59, ,
2, ,58, ,
3, ,58, ,
2, ,59, ,
1, ,58, ,
3, ,58, ,
2, ,59, ,
2, ,58, ,
2, ,58, ,
2, ,58, ,
1, ,58, ,
3, ,58, ,
2, ,59, ,
1, ,58, ,
3, ,58, ,
2, ,59, ,
1, ,58, ,
3, ,58, ,
2, ,59, ,
2, ,58, ,
2, ,58, ,
2, ,59, ,
1, ,59, ,
3, ,58, ,
2, ,59, ,
1, ,58, ,
3, ,58, ,
2, ,58, ,
1, ,58, ,
3, ,58, ,
2, ,59, ,
1, ,58, ,
3, ,58, ,
2, ,59, ,
1, ,58, ,
3, ,58, ,
2, ,59, ,
2, ,58, ,
2, ,58, ,
2, ,58, ,
1, ,58, ,
3, ,58, ,
2, ,59, ,
1, ,58, ,
2, ,58, ,
2, ,59, ,
1, ,58, ,
3, ,58, ,
2, ,59, ,
2, ,58, ,
2, ,58, ,
2, ,58, ,
1, ,58, ,
3, ,58, ,
2, ,59, ,
1, ,58, ,
2, ,58, ,
2, ,58, ,
1, ,58, ,
2, ,58, ,
2, ,59, ,
1, ,58, ,
2, ,58, ,
2, ,58, ,
1, ,58, ,
3, ,58, ,
2, ,59, ,
1, ,58, ,
3, ,58, ,
2, ,58, ,
1, ,59, ,
3, ,58, ,
2, ,58, ,
1, ,58, ,
2, ,58, ,
2, ,58, ,
1, ,58, ,
3, ,58, ,
2, ,59, ,
2, ,58, ,
3, ,58, ,
2, ,59, ,
1, ,58, ,
3, ,58, ,
2, ,59, ,
1, ,58, ,
3, ,58, ,
2, ,58, ,
1, ,58, ,
3, ,58, ,
1, ,59, ,
1, ,58, ,
2, ,58, ,
2, ,58, ,
1, ,58, ,
3, ,58, ,
2, ,59, ,
1, ,58, ,
2, ,58, ,
2, ,59, ,
-1, ,58, ,
2, ,58, ,
1, ,59, ,
1, ,58, ,
2, ,58, ,
2, ,58, ,
1, ,58, ,
3, ,58, ,
1, ,49, ,
1, ,28, ,
2, ,12, ,
2, ,0, ,
1, ,-8, ,
2, ,-16, ,
1, ,-21, ,
1, ,-24, ,
27, ,-27, ,
21, ,-30, ,
13, ,-31, ,
12, ,-32, ,
7, ,-33, ,
6, ,-34, ,
6, ,-34, ,
5, ,-35, ,
3, ,-35, ,
5, ,-35, ,
2, ,-35, ,
2, ,-35, ,
3, ,-35, ,
3, ,-35, ,
1, ,-35, ,
3, ,-35, ,
2, ,-36, ,
1, ,-35, ,
2, ,-35, ,
2, ,-35, ,
1, ,-35, ,
3, ,-35, ,
2, ,-35, ,
1, ,-35, ,
3, ,-35, ,
3, ,-35, ,
2, ,-35, ,
3, ,-35, ,
2, ,-35, ,
2, ,-35, ,
3, ,-35, ,
2, ,-35, ,
1, ,-35, ,
3, ,-35, ,
2, ,-35, ,
2, ,-35, ,
3, ,-35, ,
3, ,-35, ,
2, ,-35, ,
3, ,-35, ,
2, ,-35, ,
1, ,-35, ,
3, ,-35, ,
2, ,-35, ,
1, ,-35, ,
3, ,-35, ,
2, ,-35, ,
2, ,-35, ,
3, ,-35, ,
2, ,-35, ,
1, ,-35, ,
2, ,-35, ,
2, ,-35, ,
2, ,-35, ,
3, ,-35, ,
2, ,-35, ,
1, ,-35, ,
3, ,-35, ,
2, ,-35, ,
1, ,-35, ,
2, ,-35, ,
2, ,-35, ,
1, ,-35, ,
3, ,-35, ,
2, ,-35, ,
2, ,-34, ,
2, ,-35, ,
3, ,-35, ,
1, ,-35, ,
3, ,-35, ,
2, ,-35, ,
2, ,-35, ,
2, ,-35, ,
3, ,-35, ,
1, ,-35, ,
3, ,-35, ,
2, ,-35, ,
2, ,-35, ,
3, ,-35, ,
3, ,-35, ,
1, ,-35, ,
3, ,-35, ,
2, ,-35, ,
2, ,-35, ,
3, ,-35, ,
3, ,-35, ,
1, ,-35, ,
3, ,-35, ,
2, ,-35, ,
1, ,-35, ,
3, ,-35, ,
2, ,-35, ,
1, ,-35, ,
3, ,-34, ,
2, ,-35, ,
1, ,-35, ,
2, ,-35, ,
2, ,-35, ,
1, ,-35, ,
5, ,-35, ,
2, ,-35, ,
1, ,-35, ,
2, ,-35, ,
2, ,-35, ,
1, ,-35, ,
2, ,-35, ,
2, ,-35, ,
2, ,-35, ,
2, ,-35, ,
2, ,-35, ,
1, ,-35, ,
3, ,-35, ,
1, ,-35, ,
1, ,-34, ,
2, ,-35, ,
2, ,-35, ,
1, ,-35, ,
2, ,-34, ,
2, ,-35, ,
2, ,-35, ,
2, ,-35, ,
2, ,-35, ,
1, ,-35, ,
2, ,-34, ,
1, ,-35, ,
1, ,-34, ,
2, ,-35, ,
2, ,-35, ,
1, ,-35, ,
2, ,-34, ,
1, ,-35, ,
2, ,-35, ,
2, ,-34, ,
2, ,-34, ,
1, ,-35, ,
2, ,-34, ,
2, ,-35, ,
2, ,-35, ,
2, ,-35, ,
2, ,-35, ,
1, ,-34, ,
3, ,-34, ,
1, ,-35, ,
1, ,-35, ,
2, ,-35, ,
2, ,-35, ,
1, ,-35, ,
2, ,-34, ,
1, ,-35, ,
2, ,-35, ,
2, ,-35, ,
2, ,-35, ,
1, ,-35, ,
2, ,-34, ,
1, ,-35, ,
2, ,-35, ,
3, ,-34, ,
2, ,-35, ,
1, ,-35, ,
2, ,-34, ,
1, ,-35, ,
1, ,-35, ,
2, ,-35, ,
2, ,-35, ,
1, ,-35, ,
2, ,-34, ,
1, ,-35, ,
2, ,-35, ,
2, ,-35, ,
2, ,-35, ,
1, ,-35, ,
3, ,-34, ,
1, ,-35, ,
1, ,-34, ,
2, ,-35, ,
2, ,-35, ,
1, ,-34, ,
2, ,-34, ,
1, ,-35, ,
2, ,-35, ,
2, ,-34, ,
1, ,-35, ,
1, ,-35, ,
2, ,-34, ,
1, ,-34, ,
1, ,-35, ,
2, ,-35, ,
2, ,-35, ,
1, ,-35, ,
2, ,-34, ,
1, ,-35, ,
1, ,-35, ,
2, ,-35, ,
2, ,-35, ,
1, ,-35, ,
2, ,-35, ,
1, ,-35, ,
1, ,-34, ,
2, ,-35, ,
2, ,-35, ,
1, ,-35, ,
3, ,-35, ,
1, ,-35, ,
2, ,-35, ,
2, ,-35, ,
2, ,-34, ,
1, ,-35, ,
3, ,-35, ,
1, ,-35, ,
2, ,-34, ,
2, ,-35, ,
2, ,-35, ,
1, ,-34, ,
2, ,-34, ,
1, ,-35, ,
1, ,-35, ,
2, ,-35, ,
1, ,-35, ,
1, ,-35, ,
2, ,-34, ,
1, ,-35, ,
1, ,-34, ,
2, ,-35, ,
2, ,-35, ,
1, ,-34, ,
2, ,-35, ,
1, ,-35, ,
1, ,-35, ,
2, ,-35, ,
1, ,-35, ,
-1, ,-35, ,
2, ,-34, ,
1, ,-35, ,
1, ,-35, ,
2, ,-35, ,
2, ,-35, ,
-1, ,-34, ,
2, ,-35, ,
1, ,-35, ,
1, ,-35, ,
2, ,-35, ,
1, ,-34, ,
-1, ,-35, ,
2, ,-34, ,
1, ,-35, ,
1, ,-35, ,
2, ,-35, ,
2, ,-35, ,
1, ,-35, ,
2, ,-34, ,
1, ,-35, ,
1, ,-35, ,
2, ,-35, ,
2, ,-35, ,
1, ,-35, ,
2, ,-34, ,
1, ,-35, ,
1, ,-35, ,
2, ,-35, ,
1, ,-35, ,
1, ,-34, ,
2, ,-35, ,
1, ,-34, ,
1, ,-35, ,
2, ,-35, ,
1, ,-35, ,
-1, ,-35, ,
2, ,-34, ,
1, ,-35, ,
1, ,-34, ,
2, ,-35, ,
1, ,-35, ,
-1, ,-35, ,
2, ,-34, ,
1, ,-35, ,
1, ,-35, ,
2, ,-35, ,
1, ,-35, ,
-1, ,-35, ,
2, ,-34, ,
1, ,-35, ,
1, ,-35, ,
2, ,-35, ,
1, ,-35, ,
-1, ,-35, ,
2, ,-35, ,
1, ,-35, ,
1, ,-35, ,
2, ,-35, ,
1, ,-34, ,
-1, ,-35, ,
2, ,-35, ,
1, ,-35, ,
1, ,-35, ,
2, ,-35, ,
2, ,-35, ,
-1, ,-35, ,
2, ,-35, ,
1, ,-35, ,
1, ,-35, ,
2, ,-35, ,
1, ,-35, ,
1, ,-35, ,
2, ,-34, ,
1, ,-35, ,
1, ,-35, ,
2, ,-35, ,
2, ,-35, ,
1, ,-34, ,
2, ,-35, ,
1, ,-35, ,
1, ,-35, ,
2, ,-35, ,
2, ,-35, ,
-1, ,-35, ,
2, ,-35, ,
1, ,-35, ,
1, ,-34, ,
2, ,-35, ,
1, ,-35, ,
-1, ,-35, ,
2, ,-34, ,
1, ,-35, ,
1, ,-35, ,
2, ,-34, ,
2, ,-34, ,
-1, ,-35, ,
2, ,-35, ,
1, ,-35, ,
1, ,-35, ,
2, ,-35, ,
2, ,-35, ,
-1, ,-35, ,
2, ,-34, ,
1, ,-35, ,
1, ,-35, ,
2, ,-35, ,
1, ,-34, ,
-1, ,-35, ,
2, ,-34, ,
1, ,-35, ,
1, ,-35, ,
2, ,-35, ,
2, ,-35, ,
-1, ,-35, ,
2, ,-35, ,
1, ,-35, ,
1, ,-35, ,
2, ,-34, ,
1, ,-34, ,
-1, ,-35, ,
2, ,-34, ,
1, ,-35, ,
1, ,-35, ,
2, ,-35, ,
1, ,-35, ,
-1, ,-35, ,
2, ,-35, ,
1, ,-35, ,
-1, ,-35, ,
2, ,-35, ,
12, ,-35, ,
49, ,-35, ,
32, ,-35, ,
20, ,-35, ,
13, ,-35, ,
10, ,-35, ,
7, ,-35, ,
3, ,-34, ,
5, ,-34, ,
2, ,-35, ,
2, ,-35, ,
3, ,-35, ,
2, ,-35, ,
1, ,-35, ,
3, ,-34, ,
2, ,-35, ,
2, ,-35, ,
2, ,-35, ,
2, ,-35, ,
1, ,-35, ,
2, ,-35, ,
2, ,-35, ,
2, ,-35, ,
2, ,-35, ,
2, ,-35, ,
1, ,-35, ,
2, ,-35, ,
2, ,-35, ,
2, ,-35, ,
3, ,-35, ,
2, ,-35, ,
1, ,-35, ,
5, ,-35, ,
2, ,-35, ,
2, ,-35, ,
2, ,-35, ,
2, ,-35, ,
1, ,-35, ,
2, ,-35, ,
2, ,-35, ,
2, ,-35, ,
2, ,-35, ,
3, ,-35, ,
1, ,-35, ,
3, ,-34, ,
2, ,-35, ,
1, ,-35, ,
2, ,-35, ,
2, ,-35, ,
1, ,-35, ,
5, ,-35, ,
2, ,-35, ,
2, ,-35, ,
2, ,-35, ,
2, ,-35, ,
1, ,-34, ,
2, ,-35, ,
2, ,-35, ,
2, ,-35, ,
3, ,-35, ,
2, ,-34, ,
1, ,-35, ,
3, ,-34, ,
2, ,-35, ,
2, ,-34, ,
2, ,-35, ,
3, ,-35, ,
1, ,-35, ,
2, ,-34, ,
2, ,-35, ,
2, ,-35, ,
2, ,-35, ,
2, ,-35, ,
1, ,-35, ,
3, ,-35, ,
2, ,-35, ,
2, ,-35, ,
2, ,-35, ,
2, ,-35, ,
1, ,-35, ,
3, ,-34, ,
2, ,-35, ,
2, ,-35, ,
2, ,-35, ,
2, ,-35, ,
1, ,-35, ,
3, ,-34, ,
2, ,-35, ,
2, ,-35, ,
3, ,-35, ,
3, ,-35, ,
1, ,-35, ,
2, ,-35, ,
2, ,-35, ,
2, ,-35, ,
3, ,-35, ,
2, ,-35, ,
1, ,-35, ,
2, ,-35, ,
1, ,-35, ,
2, ,-35, ,
2, ,-35, ,
3, ,-35, ,
1, ,-35, ,
3, ,-35, ,
2, ,-35, ,
1, ,-35, ,
2, ,-35, ,
2, ,-35, ,
1, ,-35, ,
2, ,-35, ,
2, ,-35, ,
2, ,-35, ,
2, ,-35, ,
2, ,-35, ,
1, ,-35, ,
3, ,-35, ,
2, ,-35, ,
1, ,-35, ,
2, ,-34, ,
2, ,-35, ,
1, ,-35, ,
3, ,-35, ,
2, ,-35, ,
1, ,-35, ,
2, ,-35, ,
2, ,-35, ,
1, ,-35, ,
2, ,-35, ,
1, ,-35, ,
1, ,-35, ,
2, ,-35, ,
2, ,-35, ,
1, ,-35, ,
3, ,-34, ,
1, ,-35, ,
2, ,-34, ,
2, ,-35, ,
2, ,-35, ,
1, ,-35, ,
2, ,-34, ,
2, ,-35, ,
2, ,-35, ,
2, ,-35, ,
2, ,-35, ,
1, ,-35, ,
3, ,-34, ,
1, ,-35, ,
1, ,-35, ,
2, ,-35, ,
2, ,-35, ,
1, ,-35, ,
2, ,-35, ,
1, ,-35, ,
1, ,-35, ,
2, ,-35, ,
2, ,-35, ,
1, ,-35, ,
3, ,-35, ,
1, ,-35, ,
1, ,-34, ,
2, ,-35, ,
2, ,-35, ,
1, ,-35, ,
2, ,-34, ,
1, ,-35, ,
1, ,-35, ,
2, ,-35, ,
2, ,-35, ,
1, ,-35, ,
3, ,-35, ,
1, ,-35, ,
1, ,-35, ,
2, ,-35, ,
2, ,-35, ,
1, ,-35, ,
2, ,-35, ,
1, ,-35, ,
1, ,-35, ,
2, ,-35, ,
2, ,-35, ,
-1, ,-35, ,
3, ,-34, ,
1, ,-35, ,
1, ,-35, ,
2, ,-35, ,
2, ,-35, ,
-1, ,-35, ,
2, ,-35, ,
1, ,-35, ,
1, ,-35, ,
2, ,-35, ,
2, ,-35, ,
-1, ,-35, ,
3, ,-35, ,
1, ,-35, ,
1, ,-35, ,
2, ,-35, ,
2, ,-35, ,
1, ,-35, ,
2, ,-35, ,
1, ,-35, ,
1, ,-35, ,
2, ,-35, ,
2, ,-35, ,
1, ,-35, ,
2, ,-35, ,
1, ,-35, ,
1, ,-35, ,
2, ,-35, ,
2, ,-35, ,
-1, ,-34, ,
3, ,-34, ,
2, ,-35, ,
36, ,-35, ,
34, ,-35, ,
21, ,-34, ,
13, ,-35, ,
10, ,-35, ,
6, ,-35, ,
5, ,-34, ,
5, ,-35, ,
3, ,-35, ,
2, ,-35, ,
5, ,-35, ,
2, ,-35, ,
2, ,-35, ,
3, ,-35, ,
3, ,-35, ,
1, ,-35, ,
3, ,-35, ,
2, ,-35, ,
2, ,-34, ,
3, ,-35, ,
2, ,-35, ,
1, ,-35, ,
3, ,-35, ,
2, ,-35, ,
2, ,-35, ,
3, ,-35, ,
2, ,-35, ,
1, ,-35, ,
3, ,-35, ,
2, ,-35, ,
2, ,-35, ,
3, ,-35, ,
2, ,-35, ,
1, ,-35, ,
3, ,-34, ,
2, ,-35, ,
2, ,-35, ,
3, ,-35, ,
2, ,-35, ,
1, ,-35, ,
5, ,-35, ,
2, ,-35, ,
2, ,-35, ,
3, ,-34, ,
3, ,-20, ,
2, ,0, ,
3, ,15, ,
2, ,26, ,
2, ,34, ,
3, ,41, ,
3, ,45, ,
1, ,50, ,
3, ,52, ,
2, ,54, ,
1, ,55, ,
3, ,56, ,
2, ,57, ,
1, ,58, ,
3, ,58, ,
2, ,59, ,
2, ,58, ,
2, ,59, ,
2, ,59, ,
1, ,59, ,
3, ,59, ,
2, ,59, ,
1, ,58, ,
3, ,59, ,
2, ,59, ,
1, ,59, ,
3, ,58, ,
1, ,59, ,
1, ,58, ,
3, ,59, ,
2, ,59, ,
1, ,59, ,
2, ,59, ,
1, ,59, ,
2, ,59, ,
2, ,59, ,
2, ,59, ,
1, ,59, ,
3, ,58, ,
2, ,59, ,
1, ,58, ,
2, ,58, ,
2, ,58, ,
1, ,58, ,
3, ,59, ,
2, ,59, ,
1, ,58, ,
2, ,59, ,
2, ,58, ,
1, ,58, ,
2, ,58, ,
1, ,59, ,
1, ,58, ,
2, ,58, ,
2, ,59, ,
1, ,59, ,
3, ,58, ,
2, ,59, ,
1, ,58, ,
2, ,59, ,
2, ,59, ,
1, ,58, ,
2, ,58, ,
1, ,59, ,
1, ,58, ,
3, ,58, ,
2, ,59, ,
1, ,59, ,
3, ,58, ,
2, ,59, ,
1, ,58, ,
3, ,58, ,
2, ,58, ,
1, ,58, ,
3, ,58, ,
1, ,59, ,
1, ,58, ,
2, ,58, ,
2, ,58, ,
-1, ,58, ,
2, ,58, ,
1, ,59, ,
1, ,58, ,
2, ,58, ,
2, ,58, ,
1, ,59, ,
2, ,58, ,
1, ,59, ,
1, ,58, ,
3, ,58, ,
2, ,59, ,
1, ,58, ,
2, ,58, ,
1, ,59, ,
2, ,58, ,
2, ,58, ,
2, ,59, ,
1, ,58, ,
3, ,58, ,
1, ,59, ,
2, ,58, ,
2, ,58, ,
2, ,59, ,
1, ,58, ,
2, ,58, ,
1, ,59, ,
1, ,58, ,
2, ,58, ,
2, ,59, ,
1, ,58, ,
2, ,58, ,
1, ,59, ,
1, ,58, ,
2, ,58, ,
2, ,59, ,
1, ,58, ,
2, ,58, ,
2, ,59, ,
1, ,58, ,
2, ,59, ,
2, ,58, ,
1, ,58, ,
3, ,58, ,
1, ,59, ,
1, ,58, ,
2, ,58, ,
1, ,59, ,
1, ,58, ,
2, ,58, ,
1, ,58, ,
1, ,58, ,
3, ,58, ,
2, ,59, ,
1, ,58, ,
3, ,58, ,
1, ,59, ,
1, ,58, ,
2, ,58, ,
2, ,59, ,
-1, ,58, ,
2, ,58, ,
1, ,59, ,
1, ,58, ,
2, ,59, ,
2, ,58, ,
1, ,58, ,
3, ,58, ,
1, ,59, ,
1, ,58, ,
2, ,58, ,
2, ,58, ,
1, ,58, ,
2, ,58, ,
1, ,58, ,
1, ,52, ,
2, ,33, ,
1, ,15, ,
-1, ,2, ,
2, ,-7, ,
1, ,-14, ,
1, ,-20, ,
2, ,-23, ,
1, ,-26, ,
-1, ,-30, ,
2, ,-31, ,
1, ,-32, ,
1, ,-33, ,
2, ,-34, ,
1, ,-35, ,
1, ,-35, ,
2, ,-35, ,
1, ,-35, ,
1, ,-35, ,
2, ,-35, ,
2, ,-35, ,
-1, ,-35, ,
2, ,-35, ,
1, ,-36, ,
2, ,-35, ,
2, ,-35, ,
2, ,-35, ,
1, ,-35, ,
2, ,-35, ,
1, ,-35, ,
1, ,-35, ,
2, ,-35, ,
2, ,-35, ,
-1, ,-35, ,
3, ,-35, ,
1, ,-35, ,
1, ,-35, ,
2, ,-35, ,
2, ,-35, ,
-1, ,-35, ,
2, ,-35, ,
1, ,-35, ,
1, ,-35, ,
2, ,-35, ,
2, ,-35, ,
-1, ,-35, ,
2, ,-35, ,
1, ,-35, ,
2, ,-35, ,
2, ,-35, ,
2, ,-35, ,
-1, ,-35, ,
2, ,-35, ,
1, ,-35, ,
1, ,-35, ,
2, ,-35, ,
2, ,-34, ,
-1, ,-35, ,
2, ,-35, ,
1, ,-35, ,
1, ,-35, ,
2, ,-35, ,
2, ,-35, ,
-1, ,-35, ,
2, ,-35, ,
1, ,-35, ,
1, ,-35, ,
2, ,-35, ,
1, ,-35, ,
-1, ,-35, ,
2, ,-35, ,
1, ,-35, ,
1, ,-35, ,
2, ,-35, ,
2, ,-35, ,
-1, ,-35, ,
2, ,-34, ,
1, ,-35, ,
1, ,-35, ,
2, ,-35, ,
1, ,-35, ,
1, ,-35, ,
2, ,-35, ,
1, ,-35, ,
2, ,-35, ,
2, ,-35, ,
2, ,-35, ,
-1, ,-35, ,
3, ,-35, ,
1, ,-35, ,
1, ,-35, ,
2, ,-35, ,
2, ,-35, ,
-1, ,-35, ,
2, ,-35, ,
1, ,-35, ,
1, ,-34, ,
2, ,-35, ,
1, ,-35, ,
-1, ,-35, ,
2, ,-35, ,
1, ,-35, ,
1, ,-35, ,
2, ,-35, ,
1, ,-35, ,
-1, ,-35, ,
2, ,-35, ,
1, ,-35, ,
1, ,-35, ,
1, ,-35, ,
2, ,-35, ,
-1, ,-34, ,
2, ,-34, ,
1, ,-35, ,
1, ,-35, ,
2, ,-35, ,
1, ,-35, ,
-1, ,-35, ,
2, ,-35, ,
1, ,-35, ,
1, ,-34, ,
2, ,-35, ,
2, ,-35, ,
-1, ,-35, ,
2, ,-34, ,
1, ,-35, ,
1, ,-35, ,
2, ,-35, ,
1, ,-35, ,
-1, ,-35, ,
2, ,-34, ,
1, ,-35, ,
1, ,-35, ,
2, ,-35, ,
2, ,-35, ,
-1, ,-35, ,
2, ,-34, ,
1, ,-35, ,
1, ,-35, ,
2, ,-35, ,
1, ,-35, ,
-1, ,-35, ,
1, ,-34, ,
1, ,-35, ,
1, ,-34, ,
2, ,-35, ,
1, ,-35, ,
-1, ,-35, ,
2, ,-35, ,
1, ,-35, ,
1, ,-35, ,
2, ,-35, ,
2, ,-35, ,
-1, ,-35, ,
2, ,-34, ,
1, ,-35, ,
1, ,-35, ,
1, ,-35, ,
1, ,-35, ,
-1, ,-35, ,
3, ,-34, ,
1, ,-35, ,
1, ,-35, ,
2, ,-35, ,
2, ,-35, ,
-1, ,-35, ,
2, ,-35, ,
1, ,-35, ,
1, ,-34, ,
2, ,-35, ,
2, ,-35, ,
1, ,-35, ,
2, ,-34, ,
1, ,-35, ,
1, ,-35, ,
2, ,-35, ,
2, ,-35, ,
-1, ,-35, ,
2, ,-34, ,
1, ,-35, ,
1, ,-35, ,
1, ,-35, ,
1, ,-35, ,
1, ,-35, ,
2, ,-34, ,
1, ,-35, ,
1, ,-35, ,
2, ,-35, ,
2, ,-35, ,
-1, ,-35, ,
3, ,-35, ,
1, ,-35, ,
1, ,-34, ,
1, ,-35, ,
1, ,-35, ,
-1, ,-35, ,
2, ,-34, ,
1, ,-35, ,
1, ,-35, ,
2, ,-35, ,
1, ,-34, ,
-1, ,-35, ,
2, ,-35, ,
1, ,-35, ,
1, ,-35, ,
1, ,-35, ,
1, ,-35, ,
-1, ,-35, ,
2, ,-34, ,
1, ,-35, ,
1, ,-35, ,
2, ,-35, ,
1, ,-35, ,
-1, ,-35, ,
2, ,-34, ,
1, ,-35, ,
-1, ,-35, ,
2, ,-35, ,
1, ,-35, ,
-1, ,-34, ,
2, ,-35, ,
1, ,-35, ,
1, ,-35, ,
2, ,-35, ,
1, ,-35, ,
-1, ,-35, ,
2, ,-35, ,
1, ,-35, ,
-1, ,-35, ,
1, ,-35, ,
1, ,-35, ,
-1, ,-34, ,
2, ,-34, ,
1, ,-35, ,
1, ,-35, ,
2, ,-35, ,
1, ,-35, ,
-1, ,-35, ,
2, ,-35, ,
1, ,-35, ,
1, ,-35, ,
2, ,-35, ,
1, ,-35, ,
-1, ,-34, ,
2, ,-34, ,
1, ,-35, ,
-1, ,-35, ,
1, ,-35, ,
1, ,-34, ,
-1, ,-35, ,
2, ,-35, ,
1, ,-35, ,
-1, ,-35, ,
1, ,-35, ,
1, ,-35, ,
-1, ,-35, ,
2, ,-34, ,
1, ,-35, ,
-1, ,-35, ,
1, ,-35, ,
1, ,-35, ,
-1, ,-35, ,
2, ,-35, ,
1, ,-35, ,
1, ,-35, ,
2, ,-35, ,
1, ,-35, ,
-1, ,-35, ,
2, ,-35, ,
1, ,-35, ,
1, ,-35, ,
1, ,-35, ,
1, ,-34, ,
-1, ,-35, ,
2, ,-34, ,
1, ,-35, ,
-1, ,-34, ,
1, ,-35, ,
1, ,-35, ,
-1, ,-35, ,
1, ,-34, ,
1, ,-35, ,
1, ,-35, ,
2, ,-35, ,
2, ,-35, ,
-1, ,-35, ,
2, ,-35, ,
1, ,-35, ,
1, ,-35, ,
1, ,-35, ,
1, ,-35, ,
-1, ,-35, ,
2, ,-34, ,
-1, ,-35, ,
1, ,-35, ,
1, ,-35, ,
1, ,-35, ,
-1, ,-35, ,
1, ,-35, ,
1, ,-35, ,
1, ,-35, ,
2, ,-35, ,
1, ,-35, ,
-1, ,-35, ,
2, ,-35, ,
1, ,-35, ,
1, ,-35, ,
1, ,-35, ,
1, ,-35, ,
-1, ,-35, ,
2, ,-34, ,
1, ,-35, ,
1, ,-35, ,
1, ,-35, ,
1, ,-35, ,
-1, ,-35, ,
2, ,-34, ,
1, ,-35, ,
1, ,-35, ,
1, ,-35, ,
1, ,-35, ,
-1, ,-35, ,
2, ,-35, ,
1, ,-35, ,
1, ,-34, ,
1, ,-35, ,
1, ,-35, ,
-1, ,-34, ,
2, ,-34, ,
1, ,-35, ,
1, ,-35, ,
2, ,-35, ,
2, ,-35, ,
-1, ,-35, ,
2, ,-34, ,
1, ,-35, ,
1, ,-35, ,
1, ,-35, ,
1, ,-35, ,
-1, ,-35, ,
1, ,-34, ,
1, ,-35, ,
1, ,-35, ,
2, ,-35, ,
1, ,-34, ,
-1, ,-35, ,
2, ,-34, ,
1, ,-35, ,
1, ,-35, ,
2, ,-35, ,
1, ,-35, ,
-1, ,-34, ,
2, ,-34, ,
1, ,-35, ,
1, ,-35, ,
1, ,-35, ,
1, ,-35, ,
-1, ,-35, ,
2, ,-35, ,
1, ,-35, ,
1, ,-35, ,
1, ,-35, ,
1, ,-35, ,
-1, ,-35, ,
1, ,-34, ,
-1, ,-35, ,
1, ,-35, ,
2, ,-35, ,
1, ,-35, ,
-1, ,-35, ,
2, ,-34, ,
1, ,-35, ,
1, ,-35, ,
1, ,-35, ,
1, ,-35, ,
-1, ,-34, ,
1, ,-34, ,
1, ,-35, ,
1, ,-35, ,
1, ,-35, ,
1, ,-35, ,
-1, ,-35, ,
1, ,-34, ,
1, ,-35, ,
1, ,-35, ,
2, ,-35, ,
1, ,-35, ,
-1, ,-35, ,
1, ,-35, ,
-1, ,-35, ,
1, ,-35, ,
1, ,-35, ,
1, ,-35, ,
-1, ,-35, ,
1, ,-34, ,
1, ,-35, ,
1, ,-34, ,
1, ,-35, ,
1, ,-35, ,
-1, ,-35, ,
2, ,-34, ,
1, ,-35, ,
1, ,-35, ,
1, ,-35, ,
1, ,-35, ,
-1, ,-35, ,
2, ,-35, ,
1, ,-35, ,
1, ,-35, ,
1, ,-35, ,
1, ,-35, ,
-1, ,-34, ,
2, ,-34, ,
1, ,-35, ,
1, ,-35, ,
2, ,-35, ,
1, ,-35, ,
-1, ,-35, ,
1, ,-34, ,
1, ,-35, ,
1, ,-35, ,
1, ,-35, ,
1, ,-35, ,
-1, ,-35, ,
1, ,-34, ,
1, ,-35, ,
1, ,-35, ,
1, ,-35, ,
2, ,-35, ,
-1, ,-35, ,
1, ,-34, ,
1, ,-35, ,
1, ,-35, ,
1, ,-35, ,
1, ,-35, ,
-1, ,-35, ,
2, ,-34, ,
1, ,-35, ,
1, ,-35, ,
1, ,-35, ,
1, ,-34, ,
-1, ,-35, ,
1, ,-34, ,
1, ,-35, ,
1, ,-35, ,
1, ,-35, ,
1, ,-35, ,
-1, ,-34, ,
2, ,-34, ,
1, ,-34, ,
1, ,-35, ,
2, ,-35, ,
1, ,-35, ,
-1, ,-35, ,
2, ,-34, ,
1, ,-35, ,
1, ,-35, ,
1, ,-35, ,
1, ,-35, ,
-1, ,-35, ,
1, ,-35, ,
1, ,-35, ,
1, ,-35, ,
1, ,-35, ,
1, ,-35, ,
-1, ,-35, ,
1, ,-35, ,
-1, ,-35, ,
1, ,-35, ,
1, ,-35, ,
2, ,-35, ,
-1, ,-35, ,
2, ,-35, ,
1, ,-34, ,
1, ,-35, ,
2, ,-35, ,
1, ,-35, ,
-1, ,-35, ,
1, ,-34, ,
1, ,-35, ,
1, ,-35, ,
1, ,-35, ,
1, ,-35, ,
-1, ,-35, ,
2, ,-35, ,
1, ,-35, ,
1, ,-35, ,
1, ,-35, ,
1, ,-35, ,
-1, ,-35, ,
1, ,-35, ,
