src/varyamp_1558/temp0000261.CSV

Format,1.0B,
Memory Length,10000,Memory Length,10000,
IntpDistance,0,IntpDistance,0,
Trigger Address,4999,Trigger Address,4999,
Trigger Level,1.040E+00,Trigger Level,1.040E+00,
Source,CH1,Source,CH2,
Vertical Units,V,Vertical Units,V,
Vertical Units Div,0,Vertical Units Div,0,
Vertical Units Extend Div,16,Vertical Units Extend Div,16,
Label,,Label,,
Probe Type,0,Probe Type,0,
Probe Ratio,1.000e+01,Probe Ratio,1.000e+00,
Vertical Scale,5.000e-01,Vertical Scale,1.000e+00,
Vertical Position,-1.820e+00,Vertical Position,0.000e+00,
Horizontal Units,S,Horizontal Units,S,
Horizontal Scale,2.000E-05,Horizontal Scale,2.000E-05,
Horizontal Position,0.000E+00,Horizontal Position,0.000E+00,
Horizontal Mode,Main,Horizontal Mode,Main,
SincET Mode,Real Time,SincET Mode,Real Time,
Sampling Period,2.000e-08,Sampling Period,2.000e-08,
Horizontal Old Scale,2.000E-05,Horizontal Old Scale,2.000E-05,
Horizontal Old Position,0.000E+00,Horizontal Old Position,0.000E+00,
Firmware,V1.23,Firmware,V1.23,
Mode,Fast,Mode,Fast,
Waveform Data,,Waveform Data,,
1, ,-35, ,
2, ,-35, ,
2, ,-35, ,
1, ,-35, ,
2, ,-35, ,
1, ,-35, ,
1, ,-35, ,
2, ,-35, ,
2, ,-34, ,
1, ,-35, ,
2, ,-35, ,
1, ,-35, ,
1, ,-35, ,
2, ,-35, ,
2, ,-35, ,
1, ,-35, ,
2, ,-35, ,
1, ,-35, ,
1, ,-35, ,
2, ,-35, ,
1, ,-35, ,
1, ,-35, ,
2, ,-35, ,
1, ,-35, ,
1, ,-35, ,
2, ,-35, ,
1, ,-35, ,
1, ,-35, ,
2, ,-34, ,
1, ,-35, ,
1, ,-35, ,
2, ,-35, ,
2, ,-35, ,
1, ,-35, ,
2, ,-34, ,
1, ,-35, ,
1, ,-35, ,
2, ,-35, ,
2, ,-35, ,
1, ,-35, ,
2, ,-35, ,
1, ,-35, ,
1, ,-35, ,
1, ,-35, ,
1, ,-34, ,
-1, ,-35, ,
2, ,-35, ,
1, ,-35, ,
1, ,-35, ,
1, ,-35, ,
2, ,-35, ,
-1, ,-34, ,
2, ,-35, ,
1, ,-35, ,
1, ,-35, ,
2, ,-35, ,
1, ,-35, ,
-1, ,-35, ,
2, ,-35, ,
1, ,-35, ,
1, ,-35, ,
2, ,-35, ,
1, ,-35, ,
-1, ,-35, ,
2, ,-34, ,
1, ,-35, ,
1, ,-35, ,
2, ,-35, ,
1, ,-35, ,
-1, ,-35, ,
2, ,-34, ,
1, ,-35, ,
1, ,-34, ,
2, ,-35, ,
2, ,-35, ,
1, ,-35, ,
2, ,-34, ,
1, ,-35, ,
1, ,-35, ,
2, ,-35, ,
2, ,-35, ,
-1, ,-35, ,
2, ,-35, ,
1, ,-35, ,
1, ,-35, ,
2, ,-35, ,
1, ,-35, ,
-1, ,-34, ,
2, ,-35, ,
1, ,-35, ,
1, ,-35, ,
2, ,-35, ,
1, ,-35, ,
1, ,-35, ,
2, ,-34, ,
1, ,-35, ,
1, ,-35, ,
2, ,-35, ,
2, ,-35, ,
-1, ,-35, ,
2, ,-35, ,
1, ,-35, ,
1, ,-35, ,
2, ,-35, ,
1, ,-35, ,
-1, ,-35, ,
2, ,-35, ,
1, ,-35, ,
1, ,-35, ,
2, ,-35, ,
1, ,-35, ,
-1, ,-35, ,
2, ,-35, ,
1, ,-35, ,
2, ,-35, ,
1, ,-35, ,
1, ,-35, ,
1, ,-35, ,
2, ,-35, ,
1, ,-35, ,
1, ,-35, ,
2, ,-35, ,
2, ,-35, ,
-1, ,-35, ,
2, ,-35, ,
1, ,-35, ,
1, ,-35, ,
2, ,-35, ,
1, ,-35, ,
-1, ,-35, ,
2, ,-35, ,
1, ,-35, ,
1, ,-35, ,
2, ,-35, ,
1, ,-35, ,
1, ,-35, ,
1, ,-35, ,
1, ,-35, ,
1, ,-35, ,
2, ,-35, ,
1, ,-35, ,
-1, ,-35, ,
2, ,-35, ,
1, ,-35, ,
1, ,-35, ,
2, ,-35, ,
1, ,-35, ,
-1, ,-35, ,
2, ,-35, ,
1, ,-35, ,
1, ,-35, ,
1, ,-35, ,
2, ,-35, ,
-1, ,-35, ,
2, ,-34, ,
1, ,-35, ,
1, ,-35, ,
2, ,-35, ,
1, ,-35, ,
-1, ,-35, ,
2, ,-35, ,
1, ,-35, ,
1, ,-35, ,
1, ,-35, ,
1, ,-35, ,
-1, ,-35, ,
2, ,-35, ,
1, ,-35, ,
1, ,-35, ,
2, ,-35, ,
1, ,-35, ,
-1, ,-35, ,
2, ,-34, ,
1, ,-35, ,
1, ,-35, ,
1, ,-35, ,
1, ,-35, ,
-1, ,-35, ,
2, ,-35, ,
1, ,-35, ,
1, ,-35, ,
2, ,-35, ,
2, ,-35, ,
-1, ,-35, ,
1, ,-35, ,
1, ,-35, ,
1, ,-35, ,
2, ,-35, ,
1, ,-35, ,
-1, ,-35, ,
2, ,-35, ,
1, ,-35, ,
1, ,-35, ,
2, ,-35, ,
1, ,-35, ,
-1, ,-35, ,
1, ,-35, ,
1, ,-35, ,
1, ,-35, ,
2, ,-35, ,
1, ,-35, ,
-1, ,-35, ,
2, ,-35, ,
-1, ,-35, ,
1, ,-35, ,
1, ,-35, ,
1, ,-35, ,
-1, ,-35, ,
1, ,-35, ,
1, ,-35, ,
1, ,-35, ,
1, ,-35, ,
1, ,-35, ,
-1, ,-35, ,
2, ,-34, ,
1, ,-35, ,
1, ,-35, ,
1, ,-35, ,
1, ,-35, ,
-1, ,-35, ,
2, ,-35, ,
1, ,-35, ,
1, ,-35, ,
1, ,-34, ,
2, ,-35, ,
-1, ,-35, ,
2, ,-34, ,
1, ,-35, ,
1, ,-35, ,
2, ,-35, ,
1, ,-35, ,
-1, ,-34, ,
2, ,-35, ,
1, ,-35, ,
1, ,-35, ,
1, ,-35, ,
1, ,-35, ,
-1, ,-35, ,
1, ,-35, ,
1, ,-35, ,
1, ,-35, ,
2, ,-35, ,
2, ,-35, ,
-1, ,-35, ,
1, ,-35, ,
1, ,-35, ,
1, ,-35, ,
2, ,-35, ,
1, ,-35, ,
-1, ,-35, ,
2, ,-35, ,
1, ,-35, ,
1, ,-35, ,
1, ,-35, ,
1, ,-35, ,
-1, ,-35, ,
1, ,-35, ,
1, ,-35, ,
1, ,-35, ,
2, ,-35, ,
1, ,-35, ,
1, ,-35, ,
2, ,-35, ,
1, ,-35, ,
1, ,-35, ,
2, ,-35, ,
1, ,-35, ,
-1, ,-35, ,
2, ,-35, ,
1, ,-35, ,
1, ,-35, ,
2, ,-35, ,
1, ,-35, ,
-1, ,-35, ,
2, ,-35, ,
1, ,-35, ,
1, ,-35, ,
1, ,-35, ,
1, ,-35, ,
-1, ,-35, ,
1, ,-35, ,
1, ,-35, ,
1, ,-35, ,
1, ,-34, ,
1, ,-35, ,
-1, ,-35, ,
2, ,-34, ,
-1, ,-35, ,
1, ,-35, ,
1, ,-35, ,
1, ,-35, ,
-1, ,-35, ,
1, ,-35, ,
1, ,-35, ,
1, ,-35, ,
1, ,-35, ,
1, ,-35, ,
-1, ,-35, ,
1, ,-35, ,
1, ,-35, ,
1, ,-35, ,
1, ,-35, ,
1, ,-35, ,
-1, ,-35, ,
1, ,-35, ,
1, ,-35, ,
1, ,-35, ,
1, ,-34, ,
1, ,-23, ,
-1, ,-4, ,
2, ,13, ,
1, ,24, ,
1, ,33, ,
2, ,40, ,
1, ,44, ,
-1, ,49, ,
1, ,51, ,
1, ,54, ,
-1, ,55, ,
1, ,56, ,
1, ,57, ,
-1, ,58, ,
1, ,58, ,
1, ,59, ,
1, ,58, ,
2, ,58, ,
1, ,59, ,
-1, ,59, ,
1, ,58, ,
1, ,59, ,
-1, ,59, ,
1, ,59, ,
1, ,59, ,
-1, ,59, ,
2, ,59, ,
-1, ,59, ,
1, ,59, ,
2, ,59, ,
1, ,59, ,
-1, ,59, ,
2, ,59, ,
1, ,59, ,
-1, ,58, ,
1, ,58, ,
-1, ,59, ,
-1, ,58, ,
1, ,59, ,
-1, ,59, ,
-1, ,58, ,
1, ,58, ,
1, ,59, ,
-1, ,58, ,
2, ,58, ,
1, ,59, ,
-1, ,58, ,
1, ,58, ,
1, ,59, ,
-1, ,58, ,
2, ,59, ,
1, ,59, ,
1, ,58, ,
1, ,58, ,
1, ,59, ,
-1, ,58, ,
2, ,58, ,
1, ,59, ,
1, ,58, ,
1, ,58, ,
1, ,59, ,
-1, ,58, ,
2, ,58, ,
1, ,59, ,
-1, ,58, ,
1, ,58, ,
1, ,59, ,
-1, ,58, ,
2, ,58, ,
1, ,59, ,
1, ,58, ,
1, ,58, ,
1, ,59, ,
-1, ,58, ,
2, ,58, ,
1, ,59, ,
1, ,58, ,
2, ,58, ,
1, ,58, ,
-1, ,58, ,
2, ,58, ,
1, ,59, ,
1, ,58, ,
1, ,58, ,
1, ,59, ,
-1, ,58, ,
2, ,58, ,
1, ,59, ,
80, ,58, ,
49, ,59, ,
30, ,58, ,
18, ,58, ,
13, ,58, ,
10, ,59, ,
6, ,58, ,
6, ,58, ,
5, ,58, ,
3, ,58, ,
5, ,58, ,
3, ,58, ,
2, ,58, ,
5, ,58, ,
3, ,59, ,
2, ,58, ,
3, ,58, ,
2, ,59, ,
2, ,58, ,
3, ,58, ,
3, ,59, ,
1, ,58, ,
3, ,58, ,
2, ,59, ,
2, ,58, ,
3, ,59, ,
2, ,59, ,
1, ,58, ,
2, ,58, ,
2, ,59, ,
2, ,58, ,
3, ,58, ,
2, ,58, ,
1, ,58, ,
2, ,58, ,
2, ,59, ,
1, ,58, ,
2, ,58, ,
3, ,58, ,
1, ,58, ,
3, ,58, ,
2, ,59, ,
1, ,58, ,
3, ,58, ,
3, ,59, ,
1, ,58, ,
3, ,58, ,
2, ,59, ,
2, ,58, ,
3, ,58, ,
2, ,58, ,
1, ,58, ,
3, ,58, ,
2, ,59, ,
1, ,58, ,
3, ,58, ,
2, ,59, ,
1, ,58, ,
3, ,58, ,
2, ,58, ,
2, ,58, ,
2, ,58, ,
2, ,59, ,
1, ,58, ,
3, ,58, ,
2, ,59, ,
2, ,54, ,
2, ,36, ,
2, ,18, ,
1, ,4, ,
2, ,-5, ,
2, ,-13, ,
1, ,-19, ,
2, ,-23, ,
2, ,-26, ,
1, ,-28, ,
3, ,-31, ,
1, ,-32, ,
2, ,-33, ,
2, ,-34, ,
2, ,-34, ,
1, ,-35, ,
2, ,-35, ,
2, ,-35, ,
2, ,-35, ,
2, ,-35, ,
2, ,-36, ,
1, ,-35, ,
3, ,-35, ,
2, ,-36, ,
2, ,-36, ,
2, ,-35, ,
3, ,-35, ,
1, ,-35, ,
3, ,-35, ,
2, ,-36, ,
2, ,-35, ,
2, ,-35, ,
2, ,-35, ,
1, ,-35, ,
3, ,-35, ,
1, ,-35, ,
2, ,-35, ,
2, ,-35, ,
2, ,-35, ,
1, ,-35, ,
2, ,-35, ,
1, ,-35, ,
2, ,-35, ,
2, ,-35, ,
2, ,-35, ,
1, ,-35, ,
2, ,-35, ,
2, ,-35, ,
2, ,-35, ,
2, ,-35, ,
2, ,-35, ,
1, ,-35, ,
2, ,-35, ,
2, ,-35, ,
2, ,-35, ,
2, ,-35, ,
2, ,-35, ,
1, ,-35, ,
2, ,-35, ,
1, ,-35, ,
2, ,-35, ,
2, ,-35, ,
2, ,-35, ,
1, ,-35, ,
3, ,-35, ,
2, ,-35, ,
2, ,-35, ,
2, ,-35, ,
2, ,-35, ,
1, ,-35, ,
2, ,-35, ,
1, ,-35, ,
2, ,-35, ,
2, ,-35, ,
2, ,-35, ,
1, ,-35, ,
3, ,-35, ,
1, ,-35, ,
2, ,-34, ,
2, ,-35, ,
2, ,-35, ,
1, ,-35, ,
2, ,-35, ,
1, ,-35, ,
2, ,-35, ,
2, ,-35, ,
2, ,-35, ,
1, ,-35, ,
2, ,-34, ,
1, ,-35, ,
2, ,-35, ,
2, ,-35, ,
2, ,-35, ,
1, ,-35, ,
2, ,-35, ,
1, ,-35, ,
1, ,-35, ,
2, ,-35, ,
2, ,-35, ,
1, ,-35, ,
2, ,-35, ,
2, ,-35, ,
2, ,-34, ,
2, ,-35, ,
2, ,-35, ,
1, ,-35, ,
2, ,-35, ,
1, ,-35, ,
2, ,-35, ,
2, ,-35, ,
2, ,-34, ,
1, ,-35, ,
2, ,-35, ,
1, ,-35, ,
2, ,-35, ,
2, ,-35, ,
2, ,-35, ,
1, ,-35, ,
2, ,-35, ,
2, ,-35, ,
2, ,-35, ,
2, ,-35, ,
2, ,-35, ,
1, ,-35, ,
2, ,-35, ,
1, ,-35, ,
1, ,-34, ,
2, ,-35, ,
2, ,-35, ,
1, ,-35, ,
2, ,-35, ,
1, ,-35, ,
2, ,-34, ,
2, ,-35, ,
2, ,-35, ,
1, ,-35, ,
2, ,-34, ,
1, ,-35, ,
1, ,-34, ,
2, ,-35, ,
2, ,-35, ,
1, ,-35, ,
2, ,-35, ,
1, ,-35, ,
2, ,-35, ,
2, ,-35, ,
2, ,-35, ,
1, ,-35, ,
2, ,-35, ,
1, ,-35, ,
2, ,-34, ,
2, ,-35, ,
2, ,-35, ,
1, ,-35, ,
2, ,-35, ,
2, ,-35, ,
2, ,-35, ,
2, ,-35, ,
2, ,-34, ,
1, ,-35, ,
2, ,-35, ,
1, ,-35, ,
1, ,-34, ,
2, ,-35, ,
2, ,-35, ,
1, ,-34, ,
2, ,-35, ,
1, ,-35, ,
2, ,-35, ,
2, ,-35, ,
2, ,-35, ,
1, ,-35, ,
2, ,-35, ,
1, ,-35, ,
1, ,-35, ,
2, ,-35, ,
2, ,-35, ,
1, ,-35, ,
2, ,-34, ,
1, ,-35, ,
1, ,-35, ,
2, ,-35, ,
2, ,-35, ,
1, ,-35, ,
2, ,-34, ,
1, ,-35, ,
1, ,-34, ,
2, ,-35, ,
1, ,-35, ,
1, ,-34, ,
2, ,-34, ,
1, ,-34, ,
1, ,-35, ,
2, ,-35, ,
2, ,-34, ,
1, ,-35, ,
2, ,-35, ,
2, ,-35, ,
2, ,-34, ,
2, ,-35, ,
2, ,-35, ,
1, ,-35, ,
2, ,-35, ,
1, ,-35, ,
1, ,-35, ,
2, ,-35, ,
2, ,-35, ,
1, ,-35, ,
2, ,-34, ,
1, ,-35, ,
1, ,-34, ,
2, ,-35, ,
2, ,-35, ,
1, ,-35, ,
2, ,-35, ,
1, ,-35, ,
1, ,-35, ,
2, ,-35, ,
2, ,-35, ,
1, ,-35, ,
2, ,-34, ,
1, ,-35, ,
1, ,-35, ,
2, ,-35, ,
1, ,-35, ,
1, ,-35, ,
2, ,-35, ,
1, ,-35, ,
1, ,-35, ,
2, ,-35, ,
1, ,-35, ,
-1, ,-35, ,
2, ,-34, ,
1, ,-35, ,
1, ,-34, ,
2, ,-35, ,
1, ,-35, ,
1, ,-35, ,
2, ,-34, ,
1, ,-35, ,
1, ,-35, ,
2, ,-35, ,
1, ,-35, ,
-1, ,-35, ,
2, ,-35, ,
1, ,-35, ,
1, ,-34, ,
1, ,-35, ,
1, ,-35, ,
-1, ,-35, ,
1, ,-34, ,
1, ,-35, ,
1, ,-35, ,
1, ,-35, ,
1, ,-34, ,
-1, ,-35, ,
2, ,-34, ,
1, ,-35, ,
1, ,-34, ,
2, ,-35, ,
2, ,-35, ,
-1, ,-34, ,
1, ,-34, ,
1, ,-35, ,
1, ,-35, ,
2, ,-35, ,
1, ,-35, ,
-1, ,-35, ,
2, ,-34, ,
1, ,-35, ,
1, ,-35, ,
2, ,-35, ,
1, ,-35, ,
-1, ,-34, ,
2, ,-35, ,
1, ,-35, ,
1, ,-35, ,
2, ,-35, ,
1, ,-35, ,
-1, ,-35, ,
2, ,-35, ,
1, ,-35, ,
1, ,-35, ,
1, ,-35, ,
1, ,-35, ,
1, ,-35, ,
2, ,-35, ,
1, ,-35, ,
1, ,-35, ,
2, ,-35, ,
2, ,-35, ,
-1, ,-35, ,
2, ,-35, ,
1, ,-35, ,
1, ,-34, ,
2, ,-35, ,
2, ,-35, ,
-1, ,-35, ,
2, ,-35, ,
1, ,-35, ,
1, ,-35, ,
1, ,-35, ,
1, ,-35, ,
1, ,-35, ,
2, ,-34, ,
1, ,-35, ,
1, ,-35, ,
2, ,-34, ,
2, ,-35, ,
1, ,-35, ,
2, ,-35, ,
1, ,-35, ,
1, ,-35, ,
2, ,-35, ,
2, ,-35, ,
-1, ,-35, ,
2, ,-34, ,
1, ,-35, ,
1, ,-34, ,
1, ,-35, ,
1, ,-35, ,
-1, ,-35, ,
2, ,-35, ,
1, ,-35, ,
1, ,-35, ,
2, ,-34, ,
2, ,-35, ,
-1, ,-35, ,
2, ,-35, ,
1, ,-35, ,
1, ,-34, ,
2, ,-35, ,
2, ,-35, ,
-1, ,-35, ,
2, ,-35, ,
1, ,-35, ,
1, ,-35, ,
2, ,-35, ,
1, ,-34, ,
-1, ,-35, ,
2, ,-34, ,
1, ,-35, ,
1, ,-34, ,
1, ,-35, ,
1, ,-34, ,
-1, ,-35, ,
2, ,-35, ,
1, ,-35, ,
1, ,-35, ,
1, ,-35, ,
1, ,-35, ,
-1, ,-35, ,
2, ,-34, ,
1, ,-35, ,
1, ,-34, ,
2, ,-35, ,
1, ,-35, ,
-1, ,-34, ,
2, ,-35, ,
1, ,-35, ,
1, ,-35, ,
1, ,-35, ,
1, ,-35, ,
-1, ,-35, ,
2, ,-35, ,
1, ,-35, ,
1, ,-34, ,
2, ,-35, ,
1, ,-35, ,
-1, ,-35, ,
1, ,-34, ,
1, ,-35, ,
1, ,-35, ,
2, ,-35, ,
1, ,-35, ,
-1, ,-35, ,
2, ,-34, ,
1, ,-35, ,
1, ,-35, ,
1, ,-35, ,
1, ,-35, ,
-1, ,-35, ,
1, ,-34, ,
1, ,-35, ,
1, ,-35, ,
1, ,-35, ,
1, ,-35, ,
-1, ,-35, ,
2, ,-35, ,
-1, ,-35, ,
1, ,-35, ,
1, ,-35, ,
1, ,-35, ,
-1, ,-35, ,
2, ,-35, ,
1, ,-35, ,
1, ,-35, ,
2, ,-34, ,
1, ,-34, ,
-1, ,-35, ,
1, ,-34, ,
1, ,-35, ,
1, ,-34, ,
2, ,-35, ,
1, ,-35, ,
-1, ,-35, ,
2, ,-34, ,
1, ,-35, ,
1, ,-35, ,
1, ,-35, ,
1, ,-35, ,
-1, ,-35, ,
2, ,-34, ,
1, ,-35, ,
1, ,-34, ,
1, ,-35, ,
1, ,-35, ,
-1, ,-35, ,
1, ,-35, ,
1, ,-35, ,
1, ,-35, ,
1, ,-35, ,
1, ,-35, ,
-1, ,-35, ,
2, ,-35, ,
-1, ,-35, ,
1, ,-34, ,
2, ,-35, ,
1, ,-35, ,
-1, ,-35, ,
2, ,-34, ,
1, ,-35, ,
1, ,-35, ,
2, ,-35, ,
1, ,-34, ,
-1, ,-35, ,
2, ,-34, ,
1, ,-35, ,
1, ,-34, ,
2, ,-35, ,
1, ,-35, ,
-1, ,-35, ,
2, ,-34, ,
1, ,-35, ,
1, ,-35, ,
2, ,-35, ,
1, ,-34, ,
-1, ,-35, ,
2, ,-34, ,
1, ,-35, ,
1, ,-35, ,
1, ,-35, ,
2, ,-35, ,
-1, ,-35, ,
2, ,-34, ,
1, ,-35, ,
1, ,-35, ,
1, ,-35, ,
1, ,-35, ,
-1, ,-35, ,
2, ,-34, ,
1, ,-35, ,
1, ,-34, ,
1, ,-35, ,
1, ,-35, ,
-1, ,-35, ,
2, ,-34, ,
1, ,-35, ,
1, ,-35, ,
1, ,-35, ,
1, ,-35, ,
-1, ,-35, ,
1, ,-35, ,
1, ,-35, ,
1, ,-34, ,
1, ,-35, ,
2, ,-35, ,
-1, ,-35, ,
1, ,-35, ,
1, ,-35, ,
1, ,-35, ,
1, ,-35, ,
1, ,-35, ,
-1, ,-35, ,
1, ,-35, ,
1, ,-35, ,
1, ,-35, ,
2, ,-35, ,
1, ,-35, ,
-1, ,-35, ,
1, ,-34, ,
1, ,-34, ,
-1, ,-35, ,
1, ,-35, ,
1, ,-35, ,
-1, ,-35, ,
1, ,-35, ,
1, ,-35, ,
1, ,-34, ,
1, ,-35, ,
1, ,-35, ,
-1, ,-35, ,
1, ,-35, ,
1, ,-35, ,
1, ,-35, ,
1, ,-35, ,
1, ,-35, ,
-1, ,-35, ,
1, ,-34, ,
1, ,-35, ,
1, ,-34, ,
1, ,-35, ,
1, ,-35, ,
-1, ,-35, ,
1, ,-35, ,
1, ,-35, ,
1, ,-35, ,
1, ,-35, ,
1, ,-34, ,
-1, ,-35, ,
1, ,-35, ,
-1, ,-35, ,
1, ,-35, ,
1, ,-35, ,
1, ,-35, ,
-1, ,-35, ,
1, ,-35, ,
1, ,-35, ,
1, ,-35, ,
1, ,-35, ,
1, ,-35, ,
-1, ,-35, ,
1, ,-35, ,
-1, ,-35, ,
1, ,-35, ,
1, ,-35, ,
1, ,-35, ,
-1, ,-35, ,
1, ,-35, ,
1, ,-35, ,
1, ,-35, ,
1, ,-35, ,
1, ,-35, ,
-1, ,-35, ,
2, ,-35, ,
1, ,-35, ,
1, ,-34, ,
1, ,-35, ,
1, ,-35, ,
-1, ,-35, ,
1, ,-35, ,
1, ,-35, ,
1, ,-35, ,
1, ,-34, ,
1, ,-35, ,
-1, ,-35, ,
2, ,-34, ,
1, ,-35, ,
1, ,-34, ,
1, ,-35, ,
1, ,-35, ,
-1, ,-35, ,
1, ,-35, ,
1, ,-35, ,
1, ,-35, ,
1, ,-35, ,
1, ,-35, ,
-1, ,-35, ,
2, ,-35, ,
1, ,-35, ,
1, ,-34, ,
1, ,-35, ,
1, ,-35, ,
-1, ,-35, ,
1, ,-35, ,
1, ,-35, ,
1, ,-35, ,
1, ,-35, ,
1, ,-35, ,
-1, ,-35, ,
2, ,-35, ,
-1, ,-35, ,
1, ,-34, ,
1, ,-35, ,
1, ,-35, ,
-1, ,-35, ,
1, ,-35, ,
1, ,-34, ,
1, ,-35, ,
1, ,-35, ,
1, ,-35, ,
-1, ,-35, ,
1, ,-35, ,
1, ,-35, ,
1, ,-34, ,
1, ,-35, ,
2, ,-35, ,
-1, ,-35, ,
1, ,-35, ,
1, ,-35, ,
1, ,-35, ,
1, ,-35, ,
1, ,-35, ,
-1, ,-35, ,
1, ,-35, ,
1, ,-35, ,
1, ,-35, ,
2, ,-35, ,
1, ,-35, ,
-1, ,-35, ,
1, ,-35, ,
1, ,-35, ,
1, ,-35, ,
1, ,-35, ,
1, ,-35, ,
-1, ,-35, ,
1, ,-35, ,
-1, ,-35, ,
1, ,-34, ,
1, ,-35, ,
1, ,-35, ,
-1, ,-35, ,
1, ,-35, ,
1, ,-35, ,
1, ,-35, ,
1, ,-35, ,
1, ,-34, ,
-1, ,-28, ,
2, ,-8, ,
1, ,9, ,
1, ,22, ,
2, ,32, ,
1, ,38, ,
-1, ,43, ,
1, ,47, ,
1, ,52, ,
1, ,53, ,
1, ,55, ,
1, ,56, ,
-1, ,57, ,
2, ,57, ,
-1, ,58, ,
1, ,58, ,
1, ,58, ,
1, ,58, ,
-1, ,59, ,
1, ,58, ,
-1, ,59, ,
-1, ,58, ,
1, ,59, ,
-1, ,59, ,
-1, ,59, ,
1, ,59, ,
-1, ,59, ,
-1, ,58, ,
1, ,59, ,
1, ,58, ,
-1, ,59, ,
2, ,58, ,
1, ,59, ,
1, ,58, ,
1, ,59, ,
1, ,59, ,
-1, ,59, ,
2, ,58, ,
-1, ,59, ,
-1, ,58, ,
1, ,59, ,
1, ,59, ,
-1, ,58, ,
2, ,58, ,
1, ,59, ,
-1, ,58, ,
1, ,59, ,
1, ,59, ,
-1, ,59, ,
2, ,58, ,
1, ,59, ,
1, ,58, ,
1, ,58, ,
1, ,59, ,
-1, ,59, ,
2, ,58, ,
1, ,59, ,
1, ,58, ,
1, ,58, ,
1, ,58, ,
-1, ,59, ,
2, ,58, ,
1, ,59, ,
-1, ,58, ,
1, ,58, ,
1, ,58, ,
-1, ,58, ,
2, ,58, ,
1, ,59, ,
-1, ,58, ,
1, ,58, ,
1, ,58, ,
-1, ,58, ,
2, ,58, ,
1, ,59, ,
-1, ,58, ,
1, ,58, ,
1, ,58, ,
-1, ,58, ,
1, ,58, ,
-1, ,59, ,
-1, ,58, ,
1, ,58, ,
1, ,58, ,
-1, ,59, ,
2, ,58, ,
1, ,59, ,
-1, ,58, ,
1, ,58, ,
1, ,58, ,
-1, ,58, ,
2, ,58, ,
1, ,59, ,
-1, ,58, ,
1, ,58, ,
1, ,59, ,
-1, ,58, ,
2, ,58, ,
-1, ,59, ,
-1, ,58, ,
1, ,58, ,
1, ,58, ,
-1, ,58, ,
2, ,58, ,
1, ,59, ,
-1, ,58, ,
1, ,58, ,
1, ,58, ,
-1, ,59, ,
1, ,58, ,
1, ,59, ,
-1, ,58, ,
1, ,58, ,
1, ,58, ,
-1, ,58, ,
2, ,58, ,
-1, ,59, ,
-1, ,58, ,
2, ,58, ,
73, ,59, ,
45, ,58, ,
29, ,58, ,
18, ,59, ,
12, ,58, ,
10, ,58, ,
7, ,58, ,
5, ,58, ,
6, ,58, ,
5, ,59, ,
3, ,58, ,
5, ,58, ,
3, ,58, ,
2, ,58, ,
3, ,58, ,
2, ,59, ,
2, ,58, ,
2, ,58, ,
2, ,58, ,
1, ,58, ,
3, ,58, ,
3, ,58, ,
2, ,58, ,
3, ,58, ,
2, ,58, ,
2, ,58, ,
3, ,58, ,
2, ,59, ,
2, ,58, ,
2, ,58, ,
2, ,58, ,
1, ,59, ,
3, ,58, ,
2, ,59, ,
2, ,58, ,
2, ,57, ,
2, ,41, ,
1, ,22, ,
2, ,7, ,
2, ,-3, ,
2, ,-12, ,
2, ,-18, ,
2, ,-22, ,
1, ,-26, ,
3, ,-28, ,
2, ,-31, ,
2, ,-32, ,
2, ,-33, ,
2, ,-33, ,
1, ,-34, ,
3, ,-34, ,
2, ,-35, ,
2, ,-35, ,
2, ,-35, ,
3, ,-35, ,
1, ,-35, ,
3, ,-35, ,
2, ,-35, ,
2, ,-35, ,
3, ,-35, ,
3, ,-35, ,
1, ,-36, ,
3, ,-35, ,
2, ,-36, ,
2, ,-35, ,
2, ,-35, ,
3, ,-35, ,
1, ,-35, ,
3, ,-35, ,
2, ,-35, ,
2, ,-35, ,
3, ,-35, ,
2, ,-35, ,
1, ,-35, ,
3, ,-35, ,
2, ,-35, ,
2, ,-35, ,
2, ,-35, ,
2, ,-35, ,
1, ,-35, ,
3, ,-35, ,
2, ,-35, ,
2, ,-35, ,
2, ,-35, ,
2, ,-35, ,
1, ,-35, ,
3, ,-35, ,
1, ,-35, ,
2, ,-35, ,
2, ,-35, ,
2, ,-35, ,
1, ,-35, ,
3, ,-35, ,
2, ,-35, ,
2, ,-35, ,
2, ,-35, ,
2, ,-35, ,
1, ,-35, ,
3, ,-34, ,
2, ,-35, ,
2, ,-35, ,
2, ,-35, ,
2, ,-35, ,
1, ,-35, ,
2, ,-35, ,
1, ,-35, ,
2, ,-35, ,
2, ,-35, ,
2, ,-35, ,
1, ,-35, ,
3, ,-35, ,
2, ,-35, ,
2, ,-34, ,
2, ,-35, ,
2, ,-35, ,
1, ,-35, ,
3, ,-35, ,
1, ,-35, ,
2, ,-35, ,
3, ,-35, ,
2, ,-35, ,
1, ,-35, ,
2, ,-35, ,
1, ,-35, ,
2, ,-35, ,
2, ,-35, ,
2, ,-35, ,
1, ,-35, ,
2, ,-35, ,
1, ,-35, ,
2, ,-35, ,
2, ,-35, ,
2, ,-35, ,
1, ,-35, ,
2, ,-35, ,
1, ,-35, ,
2, ,-34, ,
2, ,-35, ,
2, ,-35, ,
1, ,-35, ,
2, ,-35, ,
2, ,-35, ,
2, ,-35, ,
2, ,-35, ,
2, ,-35, ,
1, ,-35, ,
2, ,-35, ,
1, ,-35, ,
1, ,-34, ,
2, ,-35, ,
2, ,-35, ,
1, ,-35, ,
2, ,-34, ,
1, ,-35, ,
2, ,-35, ,
2, ,-35, ,
2, ,-35, ,
1, ,-35, ,
2, ,-34, ,
1, ,-35, ,
2, ,-35, ,
2, ,-35, ,
2, ,-35, ,
1, ,-35, ,
2, ,-35, ,
1, ,-35, ,
2, ,-35, ,
2, ,-35, ,
2, ,-35, ,
1, ,-35, ,
2, ,-34, ,
2, ,-35, ,
2, ,-34, ,
2, ,-35, ,
2, ,-35, ,
1, ,-35, ,
2, ,-34, ,
2, ,-35, ,
2, ,-35, ,
2, ,-35, ,
2, ,-34, ,
1, ,-35, ,
2, ,-35, ,
1, ,-35, ,
2, ,-34, ,
2, ,-35, ,
2, ,-35, ,
1, ,-35, ,
2, ,-35, ,
1, ,-35, ,
1, ,-35, ,
2, ,-35, ,
2, ,-35, ,
1, ,-35, ,
2, ,-35, ,
1, ,-35, ,
2, ,-35, ,
2, ,-35, ,
2, ,-35, ,
1, ,-34, ,
2, ,-34, ,
1, ,-35, ,
2, ,-35, ,
2, ,-35, ,
2, ,-35, ,
1, ,-35, ,
2, ,-34, ,
1, ,-35, ,
2, ,-35, ,
2, ,-35, ,
2, ,-35, ,
1, ,-35, ,
2, ,-35, ,
2, ,-35, ,
2, ,-35, ,
2, ,-35, ,
2, ,-35, ,
1, ,-35, ,
2, ,-34, ,
1, ,-35, ,
1, ,-35, ,
2, ,-35, ,
2, ,-35, ,
1, ,-35, ,
3, ,-35, ,
1, ,-35, ,
1, ,-35, ,
2, ,-35, ,
2, ,-35, ,
1, ,-35, ,
2, ,-34, ,
1, ,-35, ,
1, ,-35, ,
2, ,-35, ,
1, ,-35, ,
-1, ,-35, ,
2, ,-35, ,
1, ,-35, ,
2, ,-35, ,
2, ,-35, ,
2, ,-35, ,
1, ,-35, ,
2, ,-34, ,
1, ,-35, ,
1, ,-35, ,
2, ,-35, ,
2, ,-35, ,
1, ,-35, ,
2, ,-35, ,
1, ,-35, ,
1, ,-35, ,
2, ,-35, ,
2, ,-35, ,
1, ,-35, ,
2, ,-35, ,
1, ,-35, ,
1, ,-35, ,
2, ,-35, ,
2, ,-35, ,
-1, ,-35, ,
2, ,-35, ,
1, ,-35, ,
1, ,-35, ,
2, ,-35, ,
2, ,-35, ,
-1, ,-35, ,
2, ,-34, ,
1, ,-35, ,
1, ,-35, ,
2, ,-35, ,
1, ,-35, ,
-1, ,-35, ,
2, ,-35, ,
1, ,-35, ,
1, ,-35, ,
1, ,-35, ,
1, ,-35, ,
1, ,-35, ,
2, ,-35, ,
1, ,-35, ,
2, ,-35, ,
2, ,-35, ,
2, ,-35, ,
-1, ,-35, ,
2, ,-35, ,
1, ,-35, ,
1, ,-35, ,
2, ,-35, ,
1, ,-35, ,
1, ,-35, ,
2, ,-34, ,
1, ,-35, ,
1, ,-35, ,
2, ,-35, ,
2, ,-35, ,
-1, ,-35, ,
2, ,-35, ,
1, ,-35, ,
1, ,-35, ,
2, ,-35, ,
2, ,-34, ,
-1, ,-35, ,
2, ,-34, ,
1, ,-35, ,
1, ,-35, ,
2, ,-35, ,
2, ,-35, ,
1, ,-35, ,
2, ,-34, ,
1, ,-35, ,
1, ,-35, ,
2, ,-35, ,
1, ,-35, ,
1, ,-35, ,
2, ,-35, ,
1, ,-35, ,
1, ,-35, ,
2, ,-35, ,
1, ,-35, ,
-1, ,-35, ,
2, ,-35, ,
1, ,-35, ,
1, ,-35, ,
2, ,-35, ,
1, ,-35, ,
-1, ,-35, ,
2, ,-35, ,
1, ,-35, ,
1, ,-34, ,
2, ,-35, ,
1, ,-35, ,
-1, ,-35, ,
2, ,-35, ,
1, ,-35, ,
1, ,-35, ,
2, ,-35, ,
2, ,-35, ,
-1, ,-35, ,
2, ,-34, ,
1, ,-35, ,
1, ,-35, ,
2, ,-35, ,
1, ,-35, ,
-1, ,-35, ,
2, ,-35, ,
1, ,-35, ,
1, ,-35, ,
2, ,-34, ,
1, ,-35, ,
1, ,-35, ,
2, ,-34, ,
1, ,-35, ,
1, ,-34, ,
2, ,-35, ,
2, ,-35, ,
-1, ,-35, ,
2, ,-35, ,
1, ,-35, ,
1, ,-35, ,
2, ,-35, ,
2, ,-35, ,
-1, ,-35, ,
2, ,-35, ,
1, ,-35, ,
1, ,-34, ,
2, ,-34, ,
1, ,-34, ,
-1, ,-35, ,
2, ,-35, ,
1, ,-35, ,
1, ,-35, ,
1, ,-35, ,
1, ,-35, ,
-1, ,-35, ,
2, ,-34, ,
1, ,-35, ,
1, ,-35, ,
2, ,-35, ,
2, ,-35, ,
1, ,-35, ,
2, ,-35, ,
1, ,-35, ,
1, ,-35, ,
2, ,-35, ,
1, ,-35, ,
1, ,-35, ,
2, ,-35, ,
1, ,-35, ,
1, ,-35, ,
1, ,-35, ,
1, ,-35, ,
1, ,-35, ,
2, ,-35, ,
1, ,-35, ,
1, ,-35, ,
2, ,-35, ,
1, ,-35, ,
-1, ,-35, ,
1, ,-34, ,
1, ,-35, ,
1, ,-35, ,
2, ,-35, ,
1, ,-35, ,
-1, ,-35, ,
2, ,-35, ,
1, ,-35, ,
1, ,-35, ,
2, ,-35, ,
1, ,-35, ,
-1, ,-35, ,
2, ,-35, ,
1, ,-35, ,
1, ,-35, ,
2, ,-35, ,
1, ,-35, ,
-1, ,-35, ,
2, ,-35, ,
1, ,-35, ,
1, ,-35, ,
2, ,-35, ,
1, ,-35, ,
-1, ,-35, ,
1, ,-35, ,
1, ,-35, ,
1, ,-35, ,
1, ,-35, ,
1, ,-35, ,
-1, ,-34, ,
2, ,-35, ,
1, ,-35, ,
1, ,-35, ,
1, ,-35, ,
2, ,-34, ,
-1, ,-35, ,
2, ,-35, ,
1, ,-35, ,
1, ,-35, ,
2, ,-35, ,
1, ,-35, ,
-1, ,-35, ,
2, ,-35, ,
1, ,-35, ,
1, ,-35, ,
1, ,-35, ,
1, ,-35, ,
-1, ,-35, ,
2, ,-35, ,
1, ,-35, ,
1, ,-34, ,
2, ,-35, ,
1, ,-35, ,
-1, ,-35, ,
1, ,-35, ,
1, ,-35, ,
1, ,-35, ,
2, ,-35, ,
1, ,-35, ,
-1, ,-35, ,
2, ,-34, ,
1, ,-35, ,
1, ,-35, ,
2, ,-35, ,
1, ,-35, ,
-1, ,-35, ,
2, ,-35, ,
1, ,-35, ,
1, ,-35, ,
2, ,-35, ,
1, ,-35, ,
-1, ,-35, ,
2, ,-34, ,
1, ,-35, ,
1, ,-35, ,
2, ,-35, ,
1, ,-35, ,
-1, ,-34, ,
1, ,-35, ,
1, ,-35, ,
1, ,-35, ,
2, ,-35, ,
1, ,-35, ,
-1, ,-35, ,
2, ,-35, ,
1, ,-35, ,
1, ,-35, ,
2, ,-35, ,
1, ,-35, ,
-1, ,-35, ,
2, ,-35, ,
1, ,-35, ,
1, ,-35, ,
2, ,-35, ,
1, ,-35, ,
-1, ,-35, ,
2, ,-35, ,
1, ,-35, ,
1, ,-35, ,
1, ,-35, ,
1, ,-35, ,
-1, ,-35, ,
2, ,-35, ,
1, ,-35, ,
1, ,-35, ,
2, ,-35, ,
1, ,-35, ,
-1, ,-35, ,
2, ,-35, ,
1, ,-35, ,
1, ,-34, ,
2, ,-34, ,
1, ,-35, ,
-1, ,-35, ,
1, ,-35, ,
1, ,-35, ,
1, ,-35, ,
2, ,-35, ,
1, ,-35, ,
-1, ,-35, ,
2, ,-34, ,
1, ,-35, ,
1, ,-35, ,
2, ,-35, ,
1, ,-35, ,
