src/varyamp_1558/temp0003794.CSV

Format,1.0B,
Memory Length,10000,Memory Length,10000,
IntpDistance,0,IntpDistance,0,
Trigger Address,4999,Trigger Address,4999,
Trigger Level,1.040E+00,Trigger Level,1.040E+00,
Source,CH1,Source,CH2,
Vertical Units,V,Vertical Units,V,
Vertical Units Div,0,Vertical Units Div,0,
Vertical Units Extend Div,16,Vertical Units Extend Div,16,
Label,,Label,,
Probe Type,0,Probe Type,0,
Probe Ratio,1.000e+01,Probe Ratio,1.000e+00,
Vertical Scale,5.000e-01,Vertical Scale,1.000e+00,
Vertical Position,-1.820e+00,Vertical Position,0.000e+00,
Horizontal Units,S,Horizontal Units,S,
Horizontal Scale,2.000E-05,Horizontal Scale,2.000E-05,
Horizontal Position,0.000E+00,Horizontal Position,0.000E+00,
Horizontal Mode,Main,Horizontal Mode,Main,
SincET Mode,Real Time,SincET Mode,Real Time,
Sampling Period,2.000e-08,Sampling Period,2.000e-08,
Horizontal Old Scale,2.000E-05,Horizontal Old Scale,2.000E-05,
Horizontal Old Position,0.000E+00,Horizontal Old Position,0.000E+00,
Firmware,V1.23,Firmware,V1.23,
Mode,Fast,Mode,Fast,
Waveform Data,,Waveform Data,,
3, ,-30, ,
2, ,-30, ,
3, ,-31, ,
2, ,-31, ,
2, ,-31, ,
3, ,-31, ,
3, ,-30, ,
2, ,-31, ,
3, ,-31, ,
2, ,-31, ,
2, ,-31, ,
2, ,-31, ,
3, ,-31, ,
1, ,-30, ,
3, ,-31, ,
2, ,-31, ,
2, ,-31, ,
2, ,-31, ,
2, ,-31, ,
2, ,-30, ,
3, ,-30, ,
2, ,-31, ,
2, ,-31, ,
3, ,-30, ,
2, ,-30, ,
1, ,-31, ,
2, ,-31, ,
2, ,-31, ,
2, ,-31, ,
2, ,-31, ,
2, ,-30, ,
2, ,-31, ,
3, ,-31, ,
2, ,-31, ,
2, ,-31, ,
2, ,-31, ,
3, ,-30, ,
2, ,-31, ,
3, ,-31, ,
2, ,-31, ,
2, ,-31, ,
2, ,-31, ,
2, ,-31, ,
1, ,-31, ,
3, ,-31, ,
2, ,-30, ,
2, ,-31, ,
2, ,-31, ,
2, ,-30, ,
1, ,-31, ,
2, ,-31, ,
2, ,-31, ,
2, ,-31, ,
2, ,-31, ,
2, ,-30, ,
2, ,-31, ,
3, ,-31, ,
2, ,-31, ,
2, ,-31, ,
2, ,-31, ,
2, ,-30, ,
1, ,-30, ,
2, ,-31, ,
2, ,-31, ,
2, ,-31, ,
2, ,-31, ,
3, ,-30, ,
1, ,-30, ,
3, ,-30, ,
2, ,-31, ,
2, ,-31, ,
2, ,-31, ,
2, ,-30, ,
1, ,-30, ,
2, ,-31, ,
2, ,-31, ,
2, ,-31, ,
2, ,-31, ,
2, ,-30, ,
1, ,-31, ,
3, ,-30, ,
1, ,-31, ,
2, ,-31, ,
2, ,-30, ,
2, ,-30, ,
1, ,-31, ,
2, ,-31, ,
2, ,-31, ,
2, ,-31, ,
3, ,-31, ,
2, ,-30, ,
1, ,-31, ,
2, ,-30, ,
2, ,-31, ,
2, ,-31, ,
2, ,-31, ,
2, ,-30, ,
1, ,-31, ,
2, ,-31, ,
2, ,-31, ,
2, ,-30, ,
2, ,-31, ,
2, ,-30, ,
1, ,-31, ,
2, ,-30, ,
2, ,-31, ,
2, ,-31, ,
2, ,-31, ,
2, ,-30, ,
1, ,-31, ,
2, ,-31, ,
2, ,-31, ,
2, ,-31, ,
2, ,-31, ,
2, ,-30, ,
1, ,-31, ,
3, ,-30, ,
2, ,-31, ,
2, ,-31, ,
3, ,-31, ,
2, ,-30, ,
1, ,-31, ,
2, ,-31, ,
1, ,-31, ,
1, ,-31, ,
2, ,-31, ,
2, ,-31, ,
1, ,-31, ,
2, ,-31, ,
1, ,-31, ,
2, ,-31, ,
2, ,-31, ,
2, ,-30, ,
1, ,-30, ,
3, ,-31, ,
2, ,-31, ,
2, ,-31, ,
2, ,-31, ,
2, ,-30, ,
1, ,-31, ,
2, ,-30, ,
2, ,-31, ,
2, ,-31, ,
2, ,-30, ,
2, ,-30, ,
1, ,-30, ,
2, ,-31, ,
2, ,-31, ,
2, ,-31, ,
2, ,-31, ,
2, ,-30, ,
1, ,-31, ,
2, ,-30, ,
2, ,-31, ,
2, ,-31, ,
2, ,-30, ,
2, ,-30, ,
1, ,-30, ,
2, ,-31, ,
1, ,-31, ,
1, ,-31, ,
2, ,-31, ,
2, ,-30, ,
1, ,-30, ,
2, ,-30, ,
1, ,-31, ,
2, ,-31, ,
2, ,-31, ,
2, ,-31, ,
1, ,-30, ,
2, ,-31, ,
1, ,-31, ,
2, ,-31, ,
2, ,-31, ,
2, ,-30, ,
1, ,-31, ,
2, ,-31, ,
1, ,-31, ,
2, ,-31, ,
2, ,-31, ,
2, ,-30, ,
1, ,-30, ,
2, ,-31, ,
2, ,-31, ,
2, ,-31, ,
2, ,-31, ,
2, ,-31, ,
1, ,-31, ,
2, ,-30, ,
1, ,-31, ,
1, ,-31, ,
2, ,-31, ,
2, ,-30, ,
1, ,-30, ,
2, ,-31, ,
1, ,-31, ,
1, ,-31, ,
2, ,-31, ,
2, ,-30, ,
1, ,-31, ,
2, ,-31, ,
1, ,-31, ,
1, ,-31, ,
2, ,-31, ,
2, ,-30, ,
1, ,-31, ,
2, ,-31, ,
1, ,-31, ,
2, ,-31, ,
2, ,-31, ,
1, ,-30, ,
1, ,-31, ,
2, ,-30, ,
1, ,-31, ,
1, ,-31, ,
2, ,-31, ,
2, ,-30, ,
1, ,-30, ,
2, ,-31, ,
1, ,-31, ,
1, ,-31, ,
2, ,-31, ,
2, ,-30, ,
1, ,-30, ,
2, ,-31, ,
1, ,-31, ,
1, ,-31, ,
2, ,-31, ,
2, ,-31, ,
1, ,-30, ,
2, ,-31, ,
1, ,-31, ,
1, ,-31, ,
2, ,-31, ,
2, ,-30, ,
1, ,-31, ,
2, ,-30, ,
1, ,-31, ,
1, ,-31, ,
2, ,-31, ,
2, ,-30, ,
1, ,-31, ,
2, ,-31, ,
1, ,-31, ,
1, ,-31, ,
2, ,-31, ,
2, ,-31, ,
1, ,-31, ,
2, ,-31, ,
1, ,-31, ,
1, ,-31, ,
2, ,-31, ,
2, ,-30, ,
1, ,-31, ,
2, ,-31, ,
2, ,-31, ,
1, ,-31, ,
2, ,-31, ,
2, ,-30, ,
1, ,-31, ,
2, ,-31, ,
1, ,-31, ,
1, ,-31, ,
2, ,-31, ,
2, ,-30, ,
1, ,-30, ,
2, ,-31, ,
1, ,-31, ,
1, ,-31, ,
2, ,-31, ,
2, ,-30, ,
1, ,-31, ,
2, ,-30, ,
1, ,-31, ,
1, ,-31, ,
2, ,-31, ,
2, ,-30, ,
1, ,-30, ,
2, ,-31, ,
2, ,-31, ,
1, ,-31, ,
2, ,-31, ,
2, ,-31, ,
1, ,-31, ,
2, ,-31, ,
1, ,-31, ,
1, ,-31, ,
2, ,-30, ,
2, ,-30, ,
1, ,-30, ,
2, ,-31, ,
1, ,-31, ,
1, ,-31, ,
2, ,-31, ,
1, ,-30, ,
1, ,-31, ,
2, ,-31, ,
1, ,-31, ,
1, ,-31, ,
2, ,-31, ,
2, ,-30, ,
1, ,-31, ,
2, ,-31, ,
2, ,-31, ,
1, ,-31, ,
2, ,-31, ,
1, ,-30, ,
1, ,-31, ,
2, ,-22, ,
1, ,-2, ,
1, ,15, ,
2, ,27, ,
2, ,36, ,
1, ,43, ,
2, ,49, ,
1, ,53, ,
1, ,55, ,
2, ,58, ,
1, ,58, ,
1, ,60, ,
2, ,60, ,
1, ,61, ,
1, ,62, ,
2, ,62, ,
1, ,62, ,
1, ,63, ,
2, ,62, ,
1, ,62, ,
1, ,63, ,
2, ,63, ,
1, ,62, ,
53, ,63, ,
43, ,62, ,
26, ,63, ,
17, ,63, ,
12, ,63, ,
8, ,63, ,
5, ,63, ,
6, ,63, ,
3, ,63, ,
2, ,63, ,
3, ,62, ,
2, ,62, ,
2, ,63, ,
3, ,62, ,
2, ,63, ,
2, ,62, ,
3, ,62, ,
2, ,62, ,
1, ,63, ,
3, ,62, ,
2, ,63, ,
2, ,63, ,
2, ,62, ,
2, ,62, ,
2, ,63, ,
3, ,62, ,
2, ,63, ,
2, ,63, ,
3, ,62, ,
2, ,62, ,
1, ,63, ,
3, ,62, ,
2, ,63, ,
2, ,63, ,
3, ,63, ,
2, ,63, ,
2, ,63, ,
3, ,62, ,
2, ,62, ,
2, ,62, ,
3, ,62, ,
2, ,62, ,
1, ,63, ,
3, ,61, ,
2, ,62, ,
3, ,62, ,
8, ,62, ,
8, ,62, ,
6, ,63, ,
6, ,62, ,
3, ,62, ,
2, ,63, ,
3, ,62, ,
2, ,62, ,
2, ,63, ,
3, ,61, ,
2, ,62, ,
2, ,62, ,
2, ,62, ,
3, ,62, ,
1, ,63, ,
3, ,62, ,
2, ,62, ,
3, ,63, ,
6, ,62, ,
6, ,62, ,
5, ,63, ,
6, ,62, ,
3, ,63, ,
3, ,63, ,
3, ,62, ,
3, ,62, ,
2, ,63, ,
5, ,61, ,
2, ,62, ,
2, ,62, ,
2, ,62, ,
3, ,62, ,
2, ,62, ,
3, ,62, ,
2, ,62, ,
2, ,62, ,
3, ,62, ,
2, ,62, ,
2, ,63, ,
3, ,62, ,
2, ,62, ,
2, ,63, ,
3, ,62, ,
2, ,62, ,
1, ,63, ,
3, ,61, ,
2, ,63, ,
2, ,62, ,
3, ,62, ,
2, ,62, ,
2, ,63, ,
3, ,62, ,
2, ,62, ,
2, ,62, ,
3, ,62, ,
2, ,62, ,
1, ,63, ,
3, ,62, ,
2, ,62, ,
2, ,63, ,
3, ,62, ,
2, ,62, ,
1, ,63, ,
3, ,61, ,
2, ,62, ,
2, ,63, ,
3, ,62, ,
2, ,62, ,
1, ,63, ,
3, ,62, ,
8, ,62, ,
8, ,63, ,
7, ,62, ,
6, ,62, ,
3, ,63, ,
5, ,62, ,
2, ,62, ,
2, ,62, ,
3, ,62, ,
2, ,62, ,
1, ,63, ,
3, ,61, ,
2, ,62, ,
2, ,62, ,
3, ,62, ,
3, ,60, ,
1, ,44, ,
3, ,25, ,
3, ,11, ,
3, ,0, ,
5, ,-7, ,
3, ,-14, ,
2, ,-18, ,
3, ,-21, ,
2, ,-24, ,
2, ,-25, ,
2, ,-27, ,
3, ,-28, ,
2, ,-28, ,
3, ,-30, ,
2, ,-30, ,
2, ,-31, ,
3, ,-31, ,
2, ,-31, ,
2, ,-31, ,
3, ,-31, ,
2, ,-31, ,
2, ,-31, ,
2, ,-31, ,
2, ,-31, ,
1, ,-31, ,
2, ,-31, ,
2, ,-31, ,
2, ,-31, ,
2, ,-31, ,
2, ,-31, ,
1, ,-31, ,
2, ,-31, ,
2, ,-31, ,
2, ,-31, ,
2, ,-31, ,
3, ,-31, ,
2, ,-31, ,
3, ,-31, ,
2, ,-31, ,
2, ,-31, ,
2, ,-31, ,
2, ,-31, ,
2, ,-31, ,
3, ,-31, ,
2, ,-31, ,
2, ,-31, ,
2, ,-31, ,
2, ,-31, ,
1, ,-31, ,
2, ,-31, ,
2, ,-31, ,
2, ,-31, ,
2, ,-31, ,
2, ,-30, ,
1, ,-31, ,
2, ,-31, ,
1, ,-31, ,
2, ,-31, ,
2, ,-31, ,
2, ,-31, ,
1, ,-31, ,
2, ,-31, ,
2, ,-31, ,
2, ,-31, ,
2, ,-31, ,
2, ,-31, ,
1, ,-31, ,
3, ,-31, ,
2, ,-31, ,
2, ,-31, ,
2, ,-31, ,
2, ,-31, ,
2, ,-31, ,
3, ,-31, ,
2, ,-31, ,
2, ,-31, ,
2, ,-31, ,
3, ,-31, ,
1, ,-30, ,
2, ,-31, ,
2, ,-31, ,
2, ,-31, ,
2, ,-31, ,
2, ,-30, ,
1, ,-30, ,
2, ,-31, ,
2, ,-31, ,
1, ,-31, ,
2, ,-31, ,
2, ,-30, ,
1, ,-31, ,
3, ,-31, ,
2, ,-31, ,
2, ,-30, ,
3, ,-31, ,
2, ,-30, ,
1, ,-31, ,
2, ,-31, ,
2, ,-31, ,
2, ,-31, ,
2, ,-31, ,
3, ,-30, ,
2, ,-31, ,
2, ,-31, ,
2, ,-31, ,
2, ,-31, ,
2, ,-31, ,
3, ,-31, ,
1, ,-31, ,
3, ,-30, ,
2, ,-31, ,
2, ,-31, ,
2, ,-30, ,
2, ,-31, ,
1, ,-30, ,
2, ,-30, ,
2, ,-31, ,
2, ,-30, ,
2, ,-31, ,
2, ,-30, ,
1, ,-30, ,
2, ,-30, ,
1, ,-31, ,
2, ,-30, ,
2, ,-31, ,
2, ,-30, ,
1, ,-31, ,
2, ,-30, ,
2, ,-31, ,
2, ,-31, ,
2, ,-31, ,
2, ,-31, ,
1, ,-31, ,
3, ,-30, ,
2, ,-31, ,
2, ,-31, ,
2, ,-31, ,
2, ,-31, ,
1, ,-30, ,
2, ,-31, ,
2, ,-31, ,
2, ,-30, ,
2, ,-31, ,
2, ,-30, ,
1, ,-30, ,
2, ,-31, ,
2, ,-31, ,
2, ,-31, ,
2, ,-30, ,
2, ,-30, ,
1, ,-30, ,
3, ,-31, ,
2, ,-31, ,
2, ,-30, ,
2, ,-31, ,
2, ,-30, ,
1, ,-30, ,
2, ,-31, ,
2, ,-31, ,
1, ,-31, ,
2, ,-31, ,
2, ,-30, ,
1, ,-30, ,
2, ,-31, ,
2, ,-31, ,
1, ,-31, ,
2, ,-31, ,
2, ,-30, ,
1, ,-31, ,
2, ,-31, ,
1, ,-31, ,
1, ,-31, ,
2, ,-31, ,
2, ,-30, ,
1, ,-31, ,
2, ,-31, ,
2, ,-31, ,
2, ,-31, ,
2, ,-30, ,
2, ,-30, ,
1, ,-30, ,
2, ,-30, ,
1, ,-31, ,
1, ,-31, ,
2, ,-31, ,
2, ,-30, ,
1, ,-30, ,
2, ,-31, ,
2, ,-31, ,
2, ,-30, ,
2, ,-31, ,
2, ,-30, ,
1, ,-30, ,
2, ,-31, ,
1, ,-31, ,
1, ,-31, ,
2, ,-31, ,
2, ,-30, ,
1, ,-30, ,
2, ,-31, ,
1, ,-31, ,
2, ,-31, ,
2, ,-31, ,
2, ,-30, ,
1, ,-31, ,
2, ,-31, ,
1, ,-31, ,
2, ,-31, ,
2, ,-31, ,
2, ,-30, ,
1, ,-30, ,
2, ,-31, ,
1, ,-31, ,
1, ,-31, ,
2, ,-31, ,
2, ,-30, ,
1, ,-30, ,
2, ,-30, ,
1, ,-31, ,
1, ,-31, ,
2, ,-30, ,
2, ,-30, ,
1, ,-30, ,
2, ,-31, ,
2, ,-30, ,
1, ,-31, ,
2, ,-31, ,
2, ,-30, ,
1, ,-30, ,
2, ,-30, ,
1, ,-31, ,
1, ,-31, ,
2, ,-30, ,
2, ,-30, ,
1, ,-30, ,
2, ,-31, ,
1, ,-31, ,
1, ,-31, ,
2, ,-31, ,
2, ,-30, ,
1, ,-30, ,
2, ,-30, ,
2, ,-31, ,
2, ,-31, ,
2, ,-31, ,
2, ,-30, ,
1, ,-30, ,
2, ,-31, ,
1, ,-31, ,
1, ,-31, ,
2, ,-31, ,
2, ,-30, ,
1, ,-31, ,
2, ,-31, ,
1, ,-30, ,
1, ,-30, ,
2, ,-31, ,
2, ,-30, ,
1, ,-30, ,
1, ,-31, ,
1, ,-31, ,
2, ,-31, ,
2, ,-31, ,
2, ,-30, ,
1, ,-30, ,
2, ,-31, ,
1, ,-31, ,
2, ,-30, ,
2, ,-30, ,
2, ,-30, ,
1, ,-31, ,
2, ,-31, ,
2, ,-31, ,
1, ,-31, ,
2, ,-31, ,
2, ,-30, ,
1, ,-30, ,
2, ,-31, ,
1, ,-31, ,
1, ,-31, ,
2, ,-31, ,
2, ,-30, ,
1, ,-30, ,
2, ,-31, ,
1, ,-31, ,
1, ,-31, ,
2, ,-31, ,
1, ,-30, ,
1, ,-31, ,
2, ,-31, ,
1, ,-31, ,
1, ,-31, ,
2, ,-31, ,
2, ,-30, ,
1, ,-30, ,
2, ,-31, ,
1, ,-31, ,
1, ,-31, ,
2, ,-31, ,
2, ,-30, ,
1, ,-30, ,
2, ,-30, ,
1, ,-31, ,
1, ,-31, ,
2, ,-30, ,
2, ,-30, ,
1, ,-30, ,
2, ,-31, ,
1, ,-31, ,
1, ,-31, ,
2, ,-31, ,
2, ,-30, ,
1, ,-30, ,
2, ,-31, ,
1, ,-31, ,
1, ,-31, ,
2, ,-30, ,
1, ,-30, ,
1, ,-30, ,
2, ,-31, ,
1, ,-31, ,
1, ,-31, ,
2, ,-31, ,
1, ,-30, ,
1, ,-31, ,
2, ,-31, ,
1, ,-31, ,
1, ,-31, ,
2, ,-31, ,
1, ,-30, ,
-1, ,-30, ,
2, ,-31, ,
1, ,-31, ,
1, ,-31, ,
2, ,-31, ,
2, ,-30, ,
1, ,-31, ,
2, ,-31, ,
1, ,-31, ,
1, ,-31, ,
2, ,-31, ,
1, ,-30, ,
1, ,-31, ,
2, ,-31, ,
1, ,-31, ,
2, ,-31, ,
2, ,-31, ,
2, ,-30, ,
1, ,-31, ,
2, ,-30, ,
1, ,-31, ,
1, ,-31, ,
2, ,-31, ,
1, ,-30, ,
1, ,-31, ,
2, ,-31, ,
1, ,-31, ,
1, ,-31, ,
2, ,-31, ,
2, ,-30, ,
1, ,-30, ,
2, ,-31, ,
1, ,-31, ,
1, ,-31, ,
2, ,-31, ,
1, ,-30, ,
1, ,-30, ,
2, ,-31, ,
1, ,-31, ,
1, ,-31, ,
1, ,-31, ,
1, ,-31, ,
1, ,-30, ,
2, ,-30, ,
1, ,-31, ,
1, ,-31, ,
2, ,-31, ,
1, ,-30, ,
1, ,-31, ,
2, ,-31, ,
1, ,-31, ,
1, ,-31, ,
1, ,-31, ,
1, ,-30, ,
1, ,-31, ,
2, ,-30, ,
1, ,-31, ,
1, ,-31, ,
2, ,-31, ,
2, ,-30, ,
1, ,-31, ,
2, ,-31, ,
1, ,-31, ,
1, ,-31, ,
2, ,-31, ,
1, ,-31, ,
1, ,-31, ,
2, ,-31, ,
1, ,-31, ,
1, ,-31, ,
2, ,-31, ,
1, ,-30, ,
1, ,-31, ,
2, ,-31, ,
1, ,-31, ,
1, ,-30, ,
2, ,-31, ,
1, ,-30, ,
1, ,-31, ,
2, ,-31, ,
1, ,-31, ,
1, ,-31, ,
2, ,-31, ,
1, ,-30, ,
-1, ,-30, ,
2, ,-31, ,
1, ,-31, ,
1, ,-31, ,
1, ,-31, ,
1, ,-31, ,
1, ,-31, ,
2, ,-31, ,
1, ,-31, ,
1, ,-31, ,
2, ,-31, ,
1, ,-30, ,
1, ,-31, ,
2, ,-31, ,
1, ,-31, ,
1, ,-31, ,
2, ,-31, ,
1, ,-31, ,
1, ,-31, ,
2, ,-31, ,
1, ,-31, ,
1, ,-31, ,
2, ,-31, ,
1, ,-31, ,
-1, ,-31, ,
2, ,-31, ,
1, ,-31, ,
1, ,-31, ,
2, ,-31, ,
1, ,-30, ,
-1, ,-31, ,
2, ,-31, ,
1, ,-31, ,
1, ,-31, ,
2, ,-30, ,
1, ,-30, ,
-1, ,-30, ,
1, ,-31, ,
1, ,-31, ,
1, ,-31, ,
2, ,-31, ,
1, ,-30, ,
-1, ,-31, ,
2, ,-31, ,
1, ,-30, ,
1, ,-31, ,
2, ,-31, ,
1, ,-31, ,
-1, ,-30, ,
2, ,-31, ,
1, ,-31, ,
1, ,-31, ,
2, ,-31, ,
2, ,-30, ,
-1, ,-31, ,
1, ,-31, ,
1, ,-31, ,
1, ,-31, ,
2, ,-31, ,
1, ,-30, ,
-1, ,-30, ,
2, ,-31, ,
1, ,-31, ,
1, ,-30, ,
1, ,-31, ,
1, ,-30, ,
-1, ,-30, ,
2, ,-31, ,
1, ,-30, ,
1, ,-31, ,
1, ,-31, ,
2, ,-31, ,
-1, ,-31, ,
1, ,-31, ,
1, ,-31, ,
1, ,-31, ,
1, ,-31, ,
1, ,-31, ,
1, ,-31, ,
2, ,-31, ,
1, ,-31, ,
1, ,-31, ,
2, ,-31, ,
2, ,-31, ,
-1, ,-31, ,
2, ,-31, ,
1, ,-31, ,
1, ,-31, ,
2, ,-31, ,
1, ,-30, ,
-1, ,-31, ,
2, ,-31, ,
1, ,-31, ,
1, ,-31, ,
2, ,-31, ,
1, ,-30, ,
-1, ,-30, ,
2, ,-31, ,
1, ,-30, ,
1, ,-31, ,
1, ,-31, ,
1, ,-31, ,
-1, ,-30, ,
2, ,-30, ,
1, ,-31, ,
1, ,-31, ,
1, ,-31, ,
1, ,-30, ,
-1, ,-31, ,
2, ,-31, ,
1, ,-31, ,
1, ,-31, ,
2, ,-31, ,
2, ,-31, ,
-1, ,-31, ,
2, ,-31, ,
1, ,-31, ,
1, ,-31, ,
2, ,-31, ,
1, ,-30, ,
-1, ,-31, ,
1, ,-31, ,
1, ,-31, ,
1, ,-30, ,
1, ,-31, ,
1, ,-30, ,
-1, ,-30, ,
2, ,-31, ,
1, ,-31, ,
1, ,-31, ,
2, ,-31, ,
1, ,-30, ,
-1, ,-30, ,
1, ,-31, ,
1, ,-31, ,
1, ,-31, ,
1, ,-31, ,
1, ,-30, ,
-1, ,-31, ,
1, ,-31, ,
1, ,-31, ,
1, ,-31, ,
2, ,-31, ,
1, ,-30, ,
-1, ,-31, ,
1, ,-31, ,
1, ,-31, ,
1, ,-31, ,
2, ,-31, ,
1, ,-31, ,
-1, ,-30, ,
2, ,-31, ,
1, ,-31, ,
1, ,-31, ,
1, ,-31, ,
1, ,-30, ,
-1, ,-30, ,
1, ,-31, ,
1, ,-31, ,
1, ,-30, ,
1, ,-31, ,
1, ,-31, ,
-1, ,-31, ,
2, ,-31, ,
1, ,-31, ,
1, ,-31, ,
1, ,-31, ,
1, ,-30, ,
-1, ,-30, ,
1, ,-31, ,
1, ,-31, ,
1, ,-31, ,
1, ,-31, ,
1, ,-30, ,
-1, ,-31, ,
1, ,-31, ,
1, ,-31, ,
1, ,-31, ,
1, ,-30, ,
1, ,-30, ,
-1, ,-30, ,
1, ,-31, ,
1, ,-31, ,
1, ,-31, ,
1, ,-31, ,
1, ,-30, ,
-1, ,-31, ,
1, ,-30, ,
1, ,-31, ,
1, ,-31, ,
1, ,-30, ,
1, ,-30, ,
-1, ,-31, ,
1, ,-31, ,
1, ,-31, ,
1, ,-31, ,
2, ,-31, ,
1, ,-30, ,
-1, ,-31, ,
2, ,-31, ,
1, ,-31, ,
1, ,-31, ,
2, ,-31, ,
1, ,-30, ,
-1, ,-30, ,
1, ,-31, ,
1, ,-31, ,
1, ,-31, ,
1, ,-31, ,
1, ,-30, ,
-1, ,-31, ,
2, ,-30, ,
1, ,-26, ,
1, ,-7, ,
2, ,11, ,
2, ,24, ,
-1, ,34, ,
2, ,41, ,
1, ,47, ,
1, ,52, ,
1, ,55, ,
1, ,57, ,
-1, ,59, ,
2, ,59, ,
1, ,61, ,
1, ,61, ,
1, ,62, ,
1, ,62, ,
-1, ,63, ,
2, ,62, ,
1, ,63, ,
1, ,63, ,
1, ,63, ,
1, ,63, ,
-1, ,63, ,
2, ,62, ,
-1, ,63, ,
-1, ,63, ,
1, ,63, ,
1, ,62, ,
-1, ,63, ,
2, ,62, ,
1, ,62, ,
76, ,63, ,
48, ,63, ,
30, ,63, ,
18, ,63, ,
13, ,62, ,
8, ,63, ,
7, ,63, ,
6, ,63, ,
3, ,62, ,
2, ,63, ,
3, ,62, ,
2, ,62, ,
2, ,62, ,
2, ,63, ,
2, ,63, ,
2, ,63, ,
3, ,62, ,
2, ,63, ,
2, ,63, ,
3, ,62, ,
2, ,62, ,
1, ,63, ,
3, ,62, ,
2, ,62, ,
2, ,63, ,
3, ,62, ,
2, ,62, ,
1, ,63, ,
3, ,61, ,
2, ,62, ,
2, ,63, ,
3, ,62, ,
3, ,63, ,
3, ,63, ,
6, ,62, ,
6, ,63, ,
5, ,63, ,
6, ,62, ,
5, ,62, ,
2, ,63, ,
5, ,62, ,
2, ,62, ,
2, ,63, ,
2, ,62, ,
3, ,62, ,
1, ,63, ,
3, ,62, ,
2, ,62, ,
2, ,63, ,
2, ,62, ,
2, ,62, ,
1, ,63, ,
3, ,62, ,
2, ,62, ,
2, ,62, ,
3, ,62, ,
2, ,62, ,
1, ,63, ,
3, ,62, ,
2, ,63, ,
2, ,63, ,
3, ,62, ,
2, ,62, ,
1, ,63, ,
3, ,62, ,
2, ,62, ,
2, ,62, ,
3, ,62, ,
7, ,62, ,
6, ,62, ,
7, ,62, ,
5, ,62, ,
3, ,62, ,
3, ,62, ,
3, ,62, ,
2, ,63, ,
5, ,61, ,
2, ,62, ,
2, ,62, ,
2, ,62, ,
2, ,62, ,
1, ,63, ,
3, ,61, ,
2, ,62, ,
2, ,63, ,
2, ,62, ,
2, ,62, ,
1, ,63, ,
3, ,62, ,
2, ,62, ,
2, ,62, ,
3, ,62, ,
2, ,62, ,
1, ,62, ,
3, ,61, ,
2, ,62, ,
2, ,62, ,
7, ,62, ,
7, ,62, ,
6, ,63, ,
7, ,61, ,
5, ,62, ,
3, ,62, ,
3, ,62, ,
3, ,62, ,
2, ,63, ,
5, ,62, ,
2, ,62, ,
2, ,63, ,
2, ,62, ,
3, ,62, ,
1, ,63, ,
3, ,62, ,
2, ,62, ,
2, ,62, ,
3, ,62, ,
2, ,62, ,
1, ,63, ,
3, ,62, ,
2, ,62, ,
2, ,63, ,
3, ,62, ,
5, ,62, ,
5, ,62, ,
6, ,50, ,
3, ,30, ,
2, ,14, ,
3, ,3, ,
3, ,-6, ,
1, ,-13, ,
3, ,-17, ,
1, ,-20, ,
2, ,-23, ,
3, ,-25, ,
3, ,-26, ,
2, ,-28, ,
3, ,-28, ,
2, ,-30, ,
2, ,-30, ,
3, ,-31, ,
2, ,-31, ,
1, ,-31, ,
3, ,-31, ,
2, ,-31, ,
2, ,-31, ,
2, ,-31, ,
3, ,-31, ,
2, ,-31, ,
3, ,-31, ,
2, ,-31, ,
2, ,-31, ,
2, ,-31, ,
3, ,-31, ,
1, ,-31, ,
3, ,-31, ,
2, ,-31, ,
2, ,-31, ,
3, ,-31, ,
3, ,-31, ,
1, ,-31, ,
3, ,-31, ,
2, ,-31, ,
2, ,-31, ,
2, ,-31, ,
2, ,-31, ,
1, ,-31, ,
3, ,-31, ,
2, ,-31, ,
2, ,-31, ,
2, ,-31, ,
3, ,-31, ,
1, ,-31, ,
3, ,-31, ,
2, ,-31, ,
2, ,-31, ,
2, ,-31, ,
2, ,-31, ,
1, ,-31, ,
3, ,-31, ,
2, ,-31, ,
2, ,-31, ,
2, ,-31, ,
3, ,-31, ,
1, ,-31, ,
3, ,-31, ,
2, ,-31, ,
2, ,-31, ,
2, ,-31, ,
2, ,-30, ,
1, ,-31, ,
2, ,-31, ,
2, ,-31, ,
1, ,-31, ,
2, ,-31, ,
2, ,-31, ,
2, ,-31, ,
3, ,-31, ,
2, ,-31, ,
2, ,-31, ,
3, ,-31, ,
2, ,-31, ,
2, ,-31, ,
2, ,-31, ,
2, ,-31, ,
2, ,-31, ,
2, ,-31, ,
2, ,-31, ,
1, ,-31, ,
3, ,-31, ,
2, ,-31, ,
2, ,-31, ,
2, ,-31, ,
2, ,-30, ,
1, ,-31, ,
2, ,-31, ,
2, ,-31, ,
2, ,-31, ,
3, ,-31, ,
2, ,-30, ,
2, ,-31, ,
3, ,-30, ,
2, ,-31, ,
2, ,-31, ,
2, ,-31, ,
2, ,-31, ,
1, ,-31, ,
2, ,-31, ,
2, ,-31, ,
2, ,-30, ,
2, ,-31, ,
2, ,-31, ,
1, ,-31, ,
3, ,-30, ,
2, ,-31, ,
2, ,-31, ,
2, ,-31, ,
2, ,-30, ,
1, ,-31, ,
3, ,-31, ,
2, ,-31, ,
2, ,-30, ,
2, ,-31, ,
2, ,-30, ,
1, ,-31, ,
2, ,-30, ,
2, ,-31, ,
2, ,-31, ,
3, ,-31, ,
2, ,-31, ,
1, ,-31, ,
2, ,-30, ,
2, ,-31, ,
2, ,-30, ,
2, ,-31, ,
2, ,-31, ,
2, ,-31, ,
3, ,-31, ,
2, ,-31, ,
1, ,-31, ,
2, ,-31, ,
2, ,-30, ,
1, ,-31, ,
2, ,-31, ,
2, ,-30, ,
1, ,-31, ,
2, ,-31, ,
2, ,-30, ,
1, ,-30, ,
2, ,-30, ,
2, ,-31, ,
2, ,-31, ,
2, ,-31, ,
2, ,-30, ,
1, ,-30, ,
2, ,-31, ,
2, ,-31, ,
1, ,-31, ,
2, ,-31, ,
2, ,-31, ,
1, ,-31, ,
3, ,-30, ,
2, ,-31, ,
1, ,-31, ,
2, ,-31, ,
2, ,-30, ,
1, ,-30, ,
2, ,-31, ,
2, ,-31, ,
1, ,-31, ,
2, ,-31, ,
2, ,-30, ,
1, ,-31, ,
2, ,-30, ,
2, ,-30, ,
1, ,-31, ,
2, ,-31, ,
2, ,-30, ,
1, ,-30, ,
2, ,-31, ,
1, ,-31, ,
1, ,-31, ,
2, ,-31, ,
2, ,-30, ,
1, ,-30, ,
2, ,-30, ,
2, ,-30, ,
2, ,-31, ,
2, ,-31, ,
2, ,-30, ,
1, ,-31, ,
2, ,-31, ,
1, ,-31, ,
1, ,-31, ,
2, ,-31, ,
2, ,-30, ,
1, ,-31, ,
2, ,-30, ,
1, ,-31, ,
2, ,-31, ,
31, ,-31, ,
30, ,-30, ,
18, ,-30, ,
15, ,-31, ,
8, ,-30, ,
6, ,-30, ,
5, ,-31, ,
3, ,-30, ,
2, ,-31, ,
3, ,-30, ,
2, ,-31, ,
2, ,-31, ,
3, ,-31, ,
3, ,-30, ,
2, ,-30, ,
3, ,-31, ,
2, ,-31, ,
2, ,-30, ,
3, ,-30, ,
3, ,-30, ,
1, ,-30, ,
3, ,-30, ,
2, ,-31, ,
2, ,-30, ,
2, ,-30, ,
3, ,-30, ,
2, ,-30, ,
3, ,-31, ,
2, ,-31, ,
2, ,-31, ,
3, ,-30, ,
3, ,-30, ,
2, ,-31, ,
3, ,-30, ,
2, ,-31, ,
2, ,-31, ,
2, ,-31, ,
3, ,-30, ,
2, ,-31, ,
3, ,-31, ,
2, ,-31, ,
2, ,-31, ,
2, ,-31, ,
2, ,-30, ,
1, ,-30, ,
3, ,-30, ,
2, ,-31, ,
2, ,-30, ,
2, ,-30, ,
3, ,-30, ,
1, ,-30, ,
3, ,-31, ,
2, ,-30, ,
2, ,-31, ,
2, ,-30, ,
3, ,-30, ,
1, ,-30, ,
3, ,-31, ,
2, ,-30, ,
2, ,-31, ,
2, ,-31, ,
3, ,-30, ,
1, ,-31, ,
3, ,-31, ,
2, ,-31, ,
2, ,-30, ,
2, ,-31, ,
3, ,-30, ,
1, ,-30, ,
3, ,-30, ,
2, ,-31, ,
2, ,-31, ,
2, ,-30, ,
2, ,-30, ,
1, ,-31, ,
2, ,-31, ,
2, ,-31, ,
2, ,-31, ,
2, ,-31, ,
2, ,-30, ,
2, ,-30, ,
3, ,-30, ,
1, ,-31, ,
2, ,-31, ,
2, ,-31, ,
2, ,-30, ,
1, ,-30, ,
2, ,-31, ,
2, ,-31, ,
2, ,-31, ,
2, ,-31, ,
3, ,-30, ,
2, ,-30, ,
3, ,-31, ,
2, ,-31, ,
2, ,-31, ,
2, ,-31, ,
2, ,-30, ,
1, ,-30, ,
2, ,-31, ,
2, ,-31, ,
2, ,-30, ,
2, ,-31, ,
2, ,-30, ,
1, ,-31, ,
3, ,-31, ,
2, ,-31, ,
2, ,-31, ,
3, ,-31, ,
2, ,-30, ,
1, ,-30, ,
3, ,-31, ,
2, ,-31, ,
2, ,-31, ,
2, ,-31, ,
2, ,-30, ,
1, ,-31, ,
2, ,-30, ,
2, ,-31, ,
1, ,-31, ,
2, ,-30, ,
2, ,-30, ,
1, ,-30, ,
3, ,-31, ,
2, ,-31, ,
2, ,-31, ,
2, ,-31, ,
2, ,-30, ,
1, ,-31, ,
2, ,-30, ,
2, ,-31, ,
2, ,-31, ,
2, ,-30, ,
2, ,-30, ,
1, ,-30, ,
3, ,-31, ,
2, ,-31, ,
2, ,-31, ,
2, ,-31, ,
2, ,-30, ,
1, ,-30, ,
3, ,-30, ,
1, ,-31, ,
2, ,-31, ,
2, ,-30, ,
2, ,-31, ,
1, ,-30, ,
2, ,-31, ,
1, ,-31, ,
1, ,-31, ,
2, ,-31, ,
2, ,-31, ,
1, ,-31, ,
2, ,-31, ,
2, ,-31, ,
1, ,-31, ,
2, ,-30, ,
2, ,-30, ,
1, ,-31, ,
2, ,-31, ,
2, ,-31, ,
1, ,-31, ,
2, ,-31, ,
2, ,-31, ,
1, ,-31, ,
2, ,-30, ,
2, ,-31, ,
1, ,-31, ,
2, ,-31, ,
2, ,-30, ,
1, ,-30, ,
2, ,-31, ,
2, ,-31, ,
1, ,-31, ,
2, ,-31, ,
2, ,-30, ,
1, ,-30, ,
2, ,-31, ,
1, ,-31, ,
1, ,-31, ,
2, ,-31, ,
2, ,-30, ,
1, ,-31, ,
2, ,-31, ,
2, ,-31, ,
1, ,-31, ,
2, ,-31, ,
2, ,-31, ,
8, ,-31, ,
32, ,-31, ,
22, ,-31, ,
13, ,-31, ,
10, ,-30, ,
6, ,-30, ,
3, ,-31, ,
5, ,-31, ,
3, ,-31, ,
2, ,-31, ,
3, ,-31, ,
2, ,-31, ,
2, ,-31, ,
3, ,-31, ,
2, ,-31, ,
2, ,-31, ,
3, ,-31, ,
3, ,-31, ,
2, ,-30, ,
3, ,-31, ,
2, ,-30, ,
2, ,-30, ,
2, ,-31, ,
3, ,-30, ,
2, ,-31, ,
3, ,-31, ,
2, ,-31, ,
2, ,-31, ,
2, ,-31, ,
2, ,-30, ,
2, ,-30, ,
3, ,-31, ,
2, ,-31, ,
2, ,-30, ,
2, ,-31, ,
2, ,-30, ,
2, ,-31, ,
3, ,-31, ,
2, ,-31, ,
2, ,-31, ,
2, ,-31, ,
3, ,-30, ,
1, ,-31, ,
3, ,-31, ,
2, ,-31, ,
2, ,-31, ,
2, ,-31, ,
2, ,-30, ,
1, ,-30, ,
3, ,-31, ,
2, ,-30, ,
2, ,-31, ,
2, ,-31, ,
3, ,-31, ,
2, ,-31, ,
3, ,-31, ,
2, ,-31, ,
2, ,-31, ,
2, ,-31, ,
3, ,-31, ,
1, ,-31, ,
2, ,-31, ,
2, ,-31, ,
2, ,-31, ,
2, ,-30, ,
3, ,-30, ,
1, ,-31, ,
3, ,-31, ,
2, ,-31, ,
2, ,-30, ,
2, ,-31, ,
2, ,-30, ,
1, ,-31, ,
3, ,-31, ,
2, ,-31, ,
2, ,-31, ,
2, ,-31, ,
2, ,-30, ,
1, ,-31, ,
2, ,-31, ,
2, ,-31, ,
2, ,-31, ,
2, ,-31, ,
2, ,-30, ,
1, ,-31, ,
2, ,-31, ,
2, ,-30, ,
2, ,-31, ,
2, ,-31, ,
2, ,-30, ,
1, ,-30, ,
3, ,-31, ,
2, ,-31, ,
2, ,-31, ,
2, ,-31, ,
2, ,-31, ,
1, ,-31, ,
2, ,-31, ,
1, ,-31, ,
2, ,-31, ,
2, ,-31, ,
2, ,-30, ,
1, ,-30, ,
2, ,-31, ,
2, ,-31, ,
2, ,-31, ,
2, ,-31, ,
2, ,-30, ,
1, ,-31, ,
2, ,-30, ,
2, ,-31, ,
2, ,-31, ,
2, ,-31, ,
2, ,-30, ,
1, ,-30, ,
2, ,-31, ,
2, ,-31, ,
2, ,-31, ,
2, ,-31, ,
2, ,-31, ,
