src/varyamp_1558/temp0002660.CSV

Format,1.0B,
Memory Length,10000,Memory Length,10000,
IntpDistance,0,IntpDistance,0,
Trigger Address,4999,Trigger Address,4999,
Trigger Level,1.040E+00,Trigger Level,1.040E+00,
Source,CH1,Source,CH2,
Vertical Units,V,Vertical Units,V,
Vertical Units Div,0,Vertical Units Div,0,
Vertical Units Extend Div,16,Vertical Units Extend Div,16,
Label,,Label,,
Probe Type,0,Probe Type,0,
Probe Ratio,1.000e+01,Probe Ratio,1.000e+00,
Vertical Scale,5.000e-01,Vertical Scale,1.000e+00,
Vertical Position,-1.820e+00,Vertical Position,0.000e+00,
Horizontal Units,S,Horizontal Units,S,
Horizontal Scale,2.000E-05,Horizontal Scale,2.000E-05,
Horizontal Position,0.000E+00,Horizontal Position,0.000E+00,
Horizontal Mode,Main,Horizontal Mode,Main,
SincET Mode,Real Time,SincET Mode,Real Time,
Sampling Period,2.000e-08,Sampling Period,2.000e-08,
Horizontal Old Scale,2.000E-05,Horizontal Old Scale,2.000E-05,
Horizontal Old Position,0.000E+00,Horizontal Old Position,0.000E+00,
Firmware,V1.23,Firmware,V1.23,
Mode,Fast,Mode,Fast,
Waveform Data,,Waveform Data,,
2, ,-33, ,
2, ,-32, ,
2, ,-32, ,
2, ,-32, ,
1, ,-32, ,
3, ,-33, ,
2, ,-32, ,
2, ,-33, ,
2, ,-33, ,
2, ,-32, ,
1, ,-33, ,
2, ,-32, ,
1, ,-32, ,
2, ,-33, ,
2, ,-32, ,
2, ,-32, ,
1, ,-32, ,
2, ,-33, ,
1, ,-32, ,
2, ,-32, ,
2, ,-32, ,
2, ,-33, ,
1, ,-33, ,
2, ,-32, ,
2, ,-32, ,
1, ,-32, ,
2, ,-32, ,
2, ,-32, ,
1, ,-33, ,
2, ,-33, ,
1, ,-32, ,
2, ,-32, ,
2, ,-32, ,
2, ,-32, ,
1, ,-32, ,
2, ,-33, ,
1, ,-32, ,
2, ,-32, ,
2, ,-32, ,
2, ,-32, ,
1, ,-32, ,
2, ,-33, ,
2, ,-32, ,
2, ,-32, ,
2, ,-32, ,
2, ,-32, ,
1, ,-33, ,
2, ,-33, ,
1, ,-32, ,
1, ,-32, ,
2, ,-32, ,
2, ,-32, ,
1, ,-32, ,
2, ,-33, ,
2, ,-32, ,
2, ,-32, ,
2, ,-33, ,
2, ,-32, ,
1, ,-32, ,
2, ,-32, ,
1, ,-32, ,
2, ,-33, ,
2, ,-32, ,
2, ,-32, ,
1, ,-32, ,
2, ,-33, ,
2, ,-32, ,
2, ,-32, ,
2, ,-32, ,
2, ,-32, ,
1, ,-33, ,
2, ,-32, ,
2, ,-32, ,
1, ,-32, ,
2, ,-32, ,
2, ,-32, ,
1, ,-32, ,
2, ,-33, ,
2, ,-32, ,
1, ,-32, ,
2, ,-33, ,
2, ,-32, ,
1, ,-32, ,
2, ,-32, ,
2, ,-32, ,
1, ,-32, ,
2, ,-32, ,
2, ,-32, ,
1, ,-32, ,
2, ,-33, ,
2, ,-32, ,
2, ,-32, ,
2, ,-32, ,
2, ,-32, ,
1, ,-33, ,
2, ,-33, ,
1, ,-32, ,
1, ,-32, ,
2, ,-33, ,
2, ,-32, ,
1, ,-32, ,
2, ,-33, ,
1, ,-33, ,
2, ,-32, ,
2, ,-32, ,
2, ,-33, ,
1, ,-33, ,
2, ,-32, ,
1, ,-33, ,
2, ,-33, ,
2, ,-32, ,
2, ,-32, ,
1, ,-32, ,
2, ,-33, ,
2, ,-32, ,
1, ,-32, ,
2, ,-33, ,
2, ,-32, ,
1, ,-33, ,
2, ,-33, ,
2, ,-32, ,
1, ,-32, ,
2, ,-32, ,
2, ,-32, ,
1, ,-32, ,
2, ,-33, ,
1, ,-32, ,
1, ,-32, ,
2, ,-32, ,
2, ,-32, ,
1, ,-33, ,
2, ,-32, ,
1, ,-32, ,
1, ,-32, ,
2, ,-32, ,
2, ,-32, ,
1, ,-32, ,
2, ,-33, ,
1, ,-32, ,
2, ,-32, ,
2, ,-32, ,
2, ,-32, ,
1, ,-33, ,
2, ,-32, ,
1, ,-33, ,
1, ,-32, ,
45, ,-32, ,
36, ,-32, ,
21, ,-32, ,
15, ,-33, ,
10, ,-32, ,
8, ,-32, ,
6, ,-33, ,
5, ,-32, ,
3, ,-33, ,
5, ,-32, ,
2, ,-32, ,
2, ,-33, ,
3, ,-32, ,
3, ,-32, ,
2, ,-32, ,
3, ,-33, ,
2, ,-32, ,
2, ,-32, ,
2, ,-33, ,
3, ,-32, ,
2, ,-33, ,
3, ,-32, ,
2, ,-33, ,
2, ,-33, ,
2, ,-32, ,
3, ,-32, ,
2, ,-32, ,
3, ,-32, ,
2, ,-32, ,
2, ,-32, ,
2, ,-32, ,
2, ,-32, ,
1, ,-33, ,
3, ,-32, ,
2, ,-33, ,
2, ,-33, ,
2, ,-32, ,
3, ,-32, ,
1, ,-32, ,
2, ,-33, ,
2, ,-32, ,
2, ,-32, ,
3, ,-32, ,
2, ,-32, ,
1, ,-33, ,
3, ,-33, ,
2, ,-33, ,
2, ,-33, ,
2, ,-33, ,
2, ,-32, ,
1, ,-32, ,
2, ,-33, ,
2, ,-32, ,
2, ,-32, ,
2, ,-32, ,
3, ,-32, ,
2, ,-33, ,
3, ,-32, ,
2, ,-33, ,
2, ,-32, ,
2, ,-32, ,
3, ,-32, ,
1, ,-32, ,
3, ,-33, ,
2, ,-32, ,
2, ,-32, ,
2, ,-32, ,
2, ,-32, ,
2, ,-32, ,
3, ,-32, ,
2, ,-32, ,
2, ,-32, ,
2, ,-33, ,
2, ,-32, ,
1, ,-32, ,
3, ,-33, ,
2, ,-32, ,
2, ,-32, ,
2, ,-33, ,
2, ,-32, ,
2, ,-32, ,
3, ,-33, ,
2, ,-32, ,
2, ,-32, ,
2, ,-32, ,
2, ,-32, ,
1, ,-32, ,
3, ,-33, ,
2, ,-32, ,
2, ,-32, ,
2, ,-32, ,
3, ,-32, ,
1, ,-33, ,
3, ,-33, ,
2, ,-32, ,
2, ,-32, ,
2, ,-32, ,
3, ,-32, ,
1, ,-32, ,
2, ,-32, ,
2, ,-32, ,
2, ,-33, ,
2, ,-32, ,
2, ,-32, ,
1, ,-32, ,
3, ,-33, ,
2, ,-32, ,
2, ,-32, ,
2, ,-33, ,
3, ,-32, ,
1, ,-32, ,
3, ,-33, ,
2, ,-32, ,
1, ,-32, ,
2, ,-32, ,
2, ,-33, ,
1, ,-33, ,
2, ,-32, ,
2, ,-33, ,
2, ,-32, ,
2, ,-32, ,
2, ,-32, ,
1, ,-32, ,
2, ,-33, ,
2, ,-32, ,
2, ,-33, ,
2, ,-33, ,
2, ,-32, ,
1, ,-32, ,
2, ,-32, ,
2, ,-32, ,
2, ,-32, ,
2, ,-32, ,
2, ,-32, ,
1, ,-32, ,
2, ,-32, ,
2, ,-32, ,
2, ,-32, ,
2, ,-32, ,
2, ,-33, ,
1, ,-32, ,
2, ,-32, ,
1, ,-32, ,
2, ,-33, ,
2, ,-33, ,
3, ,-33, ,
1, ,-32, ,
2, ,-33, ,
2, ,-33, ,
2, ,-33, ,
2, ,-33, ,
2, ,-33, ,
1, ,-32, ,
2, ,-32, ,
1, ,-32, ,
2, ,-32, ,
2, ,-32, ,
2, ,-33, ,
1, ,-32, ,
2, ,-33, ,
2, ,-32, ,
2, ,-31, ,
2, ,-15, ,
2, ,4, ,
2, ,19, ,
3, ,30, ,
1, ,37, ,
2, ,44, ,
2, ,49, ,
2, ,52, ,
1, ,54, ,
2, ,57, ,
1, ,57, ,
1, ,58, ,
2, ,60, ,
2, ,59, ,
1, ,60, ,
2, ,61, ,
2, ,59, ,
1, ,60, ,
2, ,61, ,
2, ,60, ,
1, ,60, ,
2, ,62, ,
1, ,60, ,
1, ,61, ,
2, ,61, ,
2, ,61, ,
1, ,61, ,
2, ,62, ,
1, ,60, ,
2, ,61, ,
2, ,61, ,
1, ,61, ,
1, ,61, ,
2, ,62, ,
1, ,60, ,
1, ,61, ,
2, ,61, ,
1, ,60, ,
1, ,61, ,
2, ,62, ,
1, ,60, ,
1, ,61, ,
2, ,62, ,
2, ,60, ,
1, ,60, ,
2, ,61, ,
1, ,60, ,
1, ,61, ,
2, ,61, ,
1, ,60, ,
1, ,60, ,
2, ,61, ,
1, ,60, ,
1, ,61, ,
2, ,62, ,
1, ,60, ,
1, ,60, ,
2, ,61, ,
1, ,60, ,
1, ,61, ,
2, ,61, ,
2, ,60, ,
1, ,60, ,
2, ,61, ,
1, ,59, ,
1, ,61, ,
2, ,61, ,
1, ,60, ,
1, ,60, ,
2, ,61, ,
1, ,60, ,
2, ,61, ,
2, ,61, ,
1, ,60, ,
1, ,60, ,
2, ,61, ,
1, ,59, ,
1, ,60, ,
2, ,61, ,
1, ,60, ,
15, ,60, ,
39, ,61, ,
25, ,59, ,
16, ,60, ,
11, ,61, ,
7, ,60, ,
5, ,60, ,
6, ,62, ,
3, ,59, ,
2, ,60, ,
3, ,61, ,
2, ,60, ,
2, ,60, ,
3, ,61, ,
2, ,60, ,
2, ,60, ,
3, ,61, ,
3, ,60, ,
2, ,61, ,
3, ,62, ,
2, ,59, ,
2, ,61, ,
3, ,61, ,
2, ,60, ,
1, ,60, ,
3, ,61, ,
2, ,59, ,
2, ,61, ,
2, ,61, ,
2, ,60, ,
1, ,60, ,
3, ,61, ,
2, ,59, ,
2, ,60, ,
2, ,61, ,
2, ,59, ,
1, ,60, ,
3, ,61, ,
2, ,60, ,
2, ,61, ,
2, ,61, ,
2, ,60, ,
1, ,61, ,
3, ,61, ,
2, ,59, ,
2, ,60, ,
2, ,61, ,
2, ,59, ,
1, ,60, ,
3, ,61, ,
1, ,59, ,
1, ,61, ,
2, ,61, ,
2, ,60, ,
1, ,61, ,
3, ,62, ,
2, ,59, ,
2, ,60, ,
2, ,61, ,
2, ,60, ,
1, ,60, ,
3, ,61, ,
2, ,60, ,
1, ,61, ,
2, ,61, ,
2, ,60, ,
1, ,60, ,
3, ,61, ,
1, ,59, ,
2, ,60, ,
2, ,61, ,
2, ,60, ,
1, ,60, ,
3, ,61, ,
2, ,51, ,
1, ,31, ,
2, ,14, ,
1, ,3, ,
1, ,-6, ,
2, ,-14, ,
1, ,-18, ,
1, ,-22, ,
2, ,-25, ,
15, ,-26, ,
13, ,-28, ,
11, ,-30, ,
7, ,-31, ,
6, ,-31, ,
5, ,-32, ,
3, ,-32, ,
2, ,-32, ,
3, ,-33, ,
2, ,-33, ,
2, ,-33, ,
3, ,-33, ,
2, ,-33, ,
2, ,-33, ,
3, ,-33, ,
2, ,-33, ,
2, ,-33, ,
2, ,-33, ,
3, ,-33, ,
2, ,-33, ,
3, ,-33, ,
2, ,-33, ,
2, ,-33, ,
2, ,-33, ,
3, ,-33, ,
1, ,-33, ,
3, ,-33, ,
2, ,-32, ,
2, ,-32, ,
2, ,-33, ,
3, ,-32, ,
1, ,-32, ,
3, ,-33, ,
2, ,-32, ,
2, ,-33, ,
2, ,-33, ,
3, ,-33, ,
2, ,-32, ,
3, ,-33, ,
2, ,-32, ,
2, ,-32, ,
2, ,-33, ,
3, ,-33, ,
2, ,-33, ,
3, ,-33, ,
2, ,-33, ,
2, ,-33, ,
2, ,-33, ,
3, ,-32, ,
1, ,-32, ,
3, ,-33, ,
2, ,-32, ,
2, ,-32, ,
3, ,-33, ,
3, ,-33, ,
2, ,-32, ,
3, ,-33, ,
2, ,-32, ,
2, ,-32, ,
2, ,-32, ,
2, ,-32, ,
1, ,-33, ,
3, ,-33, ,
2, ,-32, ,
2, ,-32, ,
2, ,-32, ,
2, ,-32, ,
2, ,-33, ,
3, ,-33, ,
2, ,-32, ,
2, ,-32, ,
2, ,-32, ,
2, ,-32, ,
2, ,-33, ,
3, ,-33, ,
2, ,-32, ,
2, ,-32, ,
2, ,-33, ,
3, ,-33, ,
1, ,-33, ,
2, ,-33, ,
2, ,-32, ,
2, ,-33, ,
2, ,-32, ,
2, ,-32, ,
1, ,-32, ,
2, ,-33, ,
2, ,-32, ,
2, ,-32, ,
2, ,-33, ,
2, ,-33, ,
1, ,-32, ,
2, ,-33, ,
1, ,-32, ,
2, ,-33, ,
2, ,-32, ,
3, ,-32, ,
1, ,-32, ,
3, ,-33, ,
2, ,-32, ,
2, ,-32, ,
2, ,-32, ,
2, ,-32, ,
1, ,-32, ,
2, ,-33, ,
2, ,-32, ,
2, ,-33, ,
2, ,-32, ,
2, ,-32, ,
1, ,-32, ,
2, ,-33, ,
2, ,-32, ,
2, ,-32, ,
2, ,-32, ,
2, ,-32, ,
1, ,-33, ,
2, ,-32, ,
2, ,-32, ,
2, ,-32, ,
2, ,-32, ,
2, ,-32, ,
1, ,-32, ,
2, ,-33, ,
2, ,-32, ,
2, ,-32, ,
2, ,-32, ,
2, ,-32, ,
1, ,-32, ,
2, ,-32, ,
2, ,-32, ,
2, ,-32, ,
2, ,-33, ,
2, ,-32, ,
1, ,-32, ,
2, ,-33, ,
2, ,-32, ,
2, ,-32, ,
2, ,-32, ,
2, ,-32, ,
1, ,-32, ,
2, ,-32, ,
2, ,-32, ,
1, ,-32, ,
2, ,-33, ,
2, ,-32, ,
1, ,-32, ,
3, ,-33, ,
2, ,-32, ,
2, ,-32, ,
2, ,-33, ,
2, ,-32, ,
1, ,-32, ,
2, ,-32, ,
1, ,-32, ,
2, ,-32, ,
2, ,-32, ,
2, ,-32, ,
1, ,-32, ,
2, ,-33, ,
2, ,-32, ,
2, ,-32, ,
2, ,-32, ,
2, ,-32, ,
1, ,-32, ,
3, ,-32, ,
2, ,-32, ,
2, ,-32, ,
2, ,-32, ,
2, ,-32, ,
1, ,-32, ,
2, ,-33, ,
2, ,-32, ,
2, ,-32, ,
2, ,-32, ,
2, ,-32, ,
1, ,-33, ,
3, ,-33, ,
2, ,-32, ,
1, ,-33, ,
2, ,-32, ,
2, ,-32, ,
1, ,-32, ,
2, ,-33, ,
2, ,-32, ,
1, ,-32, ,
2, ,-32, ,
2, ,-32, ,
1, ,-32, ,
2, ,-32, ,
2, ,-32, ,
1, ,-32, ,
2, ,-32, ,
2, ,-32, ,
1, ,-32, ,
3, ,-33, ,
2, ,-32, ,
1, ,-32, ,
2, ,-32, ,
2, ,-32, ,
1, ,-33, ,
2, ,-33, ,
2, ,-32, ,
2, ,-32, ,
2, ,-32, ,
2, ,-32, ,
1, ,-32, ,
2, ,-33, ,
1, ,-32, ,
1, ,-32, ,
2, ,-32, ,
2, ,-33, ,
1, ,-32, ,
2, ,-32, ,
1, ,-32, ,
2, ,-32, ,
2, ,-32, ,
2, ,-32, ,
1, ,-32, ,
2, ,-33, ,
1, ,-32, ,
1, ,-32, ,
2, ,-32, ,
2, ,-32, ,
1, ,-33, ,
2, ,-32, ,
1, ,-32, ,
1, ,-33, ,
2, ,-32, ,
2, ,-32, ,
1, ,-33, ,
2, ,-33, ,
1, ,-32, ,
2, ,-32, ,
2, ,-32, ,
2, ,-32, ,
1, ,-32, ,
2, ,-32, ,
1, ,-32, ,
1, ,-32, ,
2, ,-32, ,
2, ,-32, ,
1, ,-32, ,
2, ,-33, ,
1, ,-32, ,
1, ,-32, ,
2, ,-32, ,
2, ,-32, ,
1, ,-33, ,
2, ,-32, ,
1, ,-32, ,
1, ,-32, ,
2, ,-32, ,
1, ,-32, ,
1, ,-32, ,
2, ,-33, ,
1, ,-32, ,
1, ,-32, ,
2, ,-32, ,
2, ,-32, ,
1, ,-32, ,
2, ,-33, ,
1, ,-32, ,
1, ,-32, ,
2, ,-32, ,
2, ,-32, ,
1, ,-32, ,
2, ,-33, ,
2, ,-32, ,
1, ,-32, ,
2, ,-32, ,
2, ,-32, ,
1, ,-33, ,
2, ,-33, ,
1, ,-32, ,
1, ,-32, ,
2, ,-32, ,
2, ,-32, ,
1, ,-32, ,
2, ,-33, ,
1, ,-32, ,
1, ,-32, ,
2, ,-32, ,
2, ,-33, ,
1, ,-33, ,
2, ,-33, ,
1, ,-32, ,
1, ,-32, ,
2, ,-32, ,
2, ,-32, ,
1, ,-32, ,
2, ,-33, ,
1, ,-32, ,
2, ,-32, ,
2, ,-32, ,
2, ,-32, ,
1, ,-33, ,
2, ,-32, ,
1, ,-32, ,
1, ,-32, ,
2, ,-32, ,
2, ,-32, ,
1, ,-32, ,
2, ,-33, ,
1, ,-32, ,
1, ,-32, ,
2, ,-32, ,
2, ,-32, ,
1, ,-32, ,
2, ,-33, ,
1, ,-32, ,
1, ,-32, ,
2, ,-32, ,
1, ,-32, ,
1, ,-32, ,
2, ,-33, ,
2, ,-32, ,
1, ,-32, ,
2, ,-32, ,
2, ,-32, ,
1, ,-33, ,
2, ,-32, ,
1, ,-32, ,
1, ,-32, ,
2, ,-32, ,
1, ,-32, ,
1, ,-33, ,
2, ,-33, ,
1, ,-32, ,
1, ,-32, ,
2, ,-32, ,
1, ,-32, ,
1, ,-33, ,
2, ,-33, ,
1, ,-32, ,
1, ,-32, ,
2, ,-32, ,
1, ,-32, ,
1, ,-32, ,
2, ,-33, ,
1, ,-32, ,
1, ,-32, ,
2, ,-32, ,
1, ,-32, ,
1, ,-33, ,
2, ,-33, ,
1, ,-33, ,
1, ,-32, ,
2, ,-32, ,
2, ,-32, ,
1, ,-32, ,
2, ,-33, ,
1, ,-32, ,
1, ,-32, ,
2, ,-32, ,
1, ,-32, ,
1, ,-32, ,
2, ,-33, ,
1, ,-32, ,
1, ,-32, ,
2, ,-32, ,
2, ,-32, ,
1, ,-32, ,
2, ,-33, ,
1, ,-32, ,
1, ,-32, ,
2, ,-32, ,
2, ,-32, ,
1, ,-32, ,
2, ,-32, ,
1, ,-32, ,
1, ,-32, ,
2, ,-32, ,
1, ,-32, ,
-1, ,-33, ,
2, ,-33, ,
1, ,-33, ,
1, ,-32, ,
2, ,-32, ,
1, ,-32, ,
1, ,-33, ,
1, ,-32, ,
1, ,-33, ,
1, ,-32, ,
2, ,-32, ,
1, ,-32, ,
-1, ,-32, ,
2, ,-33, ,
1, ,-32, ,
1, ,-32, ,
2, ,-32, ,
2, ,-32, ,
1, ,-33, ,
2, ,-32, ,
1, ,-32, ,
1, ,-32, ,
2, ,-32, ,
1, ,-32, ,
-1, ,-32, ,
2, ,-33, ,
1, ,-32, ,
1, ,-32, ,
2, ,-33, ,
1, ,-32, ,
-1, ,-32, ,
2, ,-32, ,
1, ,-32, ,
1, ,-32, ,
2, ,-32, ,
2, ,-32, ,
1, ,-32, ,
2, ,-33, ,
1, ,-32, ,
1, ,-32, ,
1, ,-32, ,
1, ,-32, ,
-1, ,-33, ,
2, ,-33, ,
1, ,-32, ,
1, ,-32, ,
2, ,-32, ,
1, ,-32, ,
-1, ,-32, ,
2, ,-33, ,
1, ,-32, ,
1, ,-32, ,
2, ,-32, ,
1, ,-32, ,
-1, ,-33, ,
1, ,-33, ,
1, ,-32, ,
1, ,-32, ,
1, ,-32, ,
1, ,-32, ,
1, ,-32, ,
2, ,-33, ,
1, ,-32, ,
1, ,-32, ,
2, ,-32, ,
2, ,-32, ,
1, ,-33, ,
2, ,-33, ,
1, ,-33, ,
2, ,-32, ,
2, ,-32, ,
1, ,-32, ,
-1, ,-33, ,
2, ,-32, ,
1, ,-32, ,
1, ,-32, ,
1, ,-32, ,
1, ,-32, ,
-1, ,-32, ,
1, ,-32, ,
1, ,-32, ,
1, ,-32, ,
2, ,-32, ,
2, ,-32, ,
1, ,-32, ,
2, ,-33, ,
1, ,-32, ,
1, ,-32, ,
2, ,-32, ,
1, ,-32, ,
-1, ,-33, ,
1, ,-32, ,
1, ,-32, ,
1, ,-32, ,
2, ,-33, ,
1, ,-32, ,
-1, ,-32, ,
2, ,-32, ,
1, ,-33, ,
1, ,-32, ,
2, ,-32, ,
1, ,-32, ,
-1, ,-33, ,
2, ,-32, ,
1, ,-32, ,
1, ,-32, ,
1, ,-32, ,
2, ,-32, ,
-1, ,-32, ,
2, ,-33, ,
1, ,-32, ,
1, ,-32, ,
2, ,-32, ,
1, ,-32, ,
-1, ,-33, ,
2, ,-32, ,
1, ,-32, ,
1, ,-32, ,
2, ,-32, ,
1, ,-32, ,
-1, ,-32, ,
1, ,-33, ,
1, ,-32, ,
1, ,-32, ,
1, ,-32, ,
1, ,-32, ,
-1, ,-33, ,
2, ,-33, ,
1, ,-33, ,
1, ,-32, ,
1, ,-33, ,
1, ,-32, ,
-1, ,-32, ,
2, ,-33, ,
1, ,-32, ,
1, ,-32, ,
2, ,-32, ,
1, ,-32, ,
-1, ,-32, ,
1, ,-32, ,
1, ,-32, ,
1, ,-32, ,
1, ,-32, ,
1, ,-32, ,
-1, ,-32, ,
1, ,-33, ,
1, ,-32, ,
1, ,-32, ,
1, ,-32, ,
1, ,-32, ,
1, ,-32, ,
1, ,-33, ,
1, ,-32, ,
1, ,-32, ,
1, ,-32, ,
1, ,-32, ,
-1, ,-32, ,
2, ,-33, ,
1, ,-32, ,
1, ,-32, ,
2, ,-32, ,
1, ,-32, ,
-1, ,-33, ,
2, ,-33, ,
1, ,-33, ,
1, ,-32, ,
1, ,-32, ,
1, ,-32, ,
-1, ,-32, ,
1, ,-33, ,
1, ,-32, ,
1, ,-32, ,
1, ,-32, ,
1, ,-32, ,
-1, ,-33, ,
1, ,-33, ,
1, ,-32, ,
1, ,-32, ,
2, ,-32, ,
2, ,-32, ,
-1, ,-32, ,
1, ,-33, ,
1, ,-32, ,
1, ,-32, ,
2, ,-32, ,
1, ,-33, ,
-1, ,-33, ,
1, ,-33, ,
1, ,-33, ,
1, ,-33, ,
2, ,-32, ,
1, ,-32, ,
-1, ,-32, ,
1, ,-33, ,
1, ,-32, ,
1, ,-32, ,
2, ,-32, ,
1, ,-33, ,
-1, ,-33, ,
1, ,-33, ,
1, ,-32, ,
1, ,-32, ,
2, ,-32, ,
1, ,-32, ,
-1, ,-32, ,
1, ,-33, ,
1, ,-32, ,
1, ,-32, ,
2, ,-32, ,
1, ,-32, ,
-1, ,-33, ,
1, ,-33, ,
1, ,-32, ,
1, ,-32, ,
2, ,-32, ,
1, ,-32, ,
-1, ,-32, ,
1, ,-33, ,
1, ,-32, ,
1, ,-32, ,
2, ,-32, ,
1, ,-32, ,
-1, ,-33, ,
2, ,-32, ,
1, ,-32, ,
1, ,-32, ,
1, ,-32, ,
1, ,-32, ,
-1, ,-32, ,
1, ,-33, ,
1, ,-32, ,
1, ,-32, ,
1, ,-32, ,
1, ,-32, ,
-1, ,-33, ,
1, ,-32, ,
1, ,-32, ,
1, ,-32, ,
2, ,-32, ,
1, ,-32, ,
-1, ,-32, ,
1, ,-33, ,
1, ,-32, ,
1, ,-32, ,
1, ,-32, ,
1, ,-20, ,
-1, ,0, ,
2, ,16, ,
1, ,26, ,
1, ,36, ,
2, ,43, ,
2, ,47, ,
-1, ,51, ,
1, ,54, ,
1, ,55, ,
1, ,57, ,
1, ,58, ,
1, ,58, ,
-1, ,60, ,
1, ,61, ,
1, ,59, ,
1, ,61, ,
1, ,62, ,
1, ,60, ,
-1, ,61, ,
2, ,62, ,
1, ,60, ,
1, ,61, ,
1, ,61, ,
1, ,61, ,
-1, ,61, ,
2, ,62, ,
-1, ,60, ,
1, ,61, ,
1, ,62, ,
1, ,60, ,
-1, ,60, ,
1, ,62, ,
-1, ,60, ,
-1, ,61, ,
1, ,61, ,
1, ,60, ,
-1, ,61, ,
2, ,62, ,
-1, ,60, ,
-1, ,61, ,
1, ,61, ,
1, ,60, ,
-1, ,60, ,
2, ,62, ,
-1, ,60, ,
1, ,61, ,
1, ,61, ,
1, ,60, ,
74, ,60, ,
46, ,61, ,
29, ,59, ,
18, ,61, ,
13, ,61, ,
8, ,60, ,
6, ,60, ,
5, ,61, ,
3, ,60, ,
2, ,61, ,
3, ,61, ,
2, ,60, ,
2, ,60, ,
5, ,62, ,
2, ,60, ,
2, ,61, ,
3, ,61, ,
2, ,60, ,
1, ,60, ,
3, ,61, ,
2, ,60, ,
2, ,61, ,
3, ,61, ,
2, ,60, ,
1, ,60, ,
3, ,62, ,
2, ,59, ,
2, ,60, ,
3, ,61, ,
2, ,60, ,
1, ,60, ,
3, ,61, ,
2, ,59, ,
2, ,61, ,
2, ,61, ,
2, ,60, ,
1, ,61, ,
2, ,61, ,
2, ,59, ,
2, ,61, ,
3, ,61, ,
2, ,60, ,
1, ,60, ,
3, ,61, ,
2, ,60, ,
1, ,61, ,
3, ,61, ,
2, ,60, ,
1, ,61, ,
3, ,62, ,
2, ,59, ,
2, ,60, ,
3, ,61, ,
2, ,60, ,
1, ,60, ,
3, ,61, ,
2, ,60, ,
2, ,61, ,
3, ,61, ,
2, ,60, ,
1, ,60, ,
3, ,61, ,
1, ,59, ,
1, ,60, ,
2, ,61, ,
2, ,60, ,
6, ,60, ,
15, ,61, ,
11, ,59, ,
8, ,61, ,
7, ,61, ,
5, ,60, ,
3, ,60, ,
5, ,61, ,
2, ,59, ,
2, ,60, ,
3, ,61, ,
2, ,60, ,
1, ,60, ,
3, ,62, ,
2, ,59, ,
2, ,61, ,
3, ,61, ,
2, ,60, ,
2, ,60, ,
3, ,61, ,
2, ,59, ,
2, ,60, ,
3, ,61, ,
2, ,60, ,
1, ,60, ,
3, ,61, ,
2, ,60, ,
2, ,60, ,
3, ,61, ,
2, ,60, ,
1, ,60, ,
3, ,61, ,
2, ,59, ,
2, ,60, ,
3, ,61, ,
2, ,60, ,
1, ,60, ,
3, ,61, ,
2, ,59, ,
2, ,56, ,
2, ,36, ,
2, ,19, ,
1, ,5, ,
2, ,-4, ,
1, ,-12, ,
1, ,-17, ,
2, ,-21, ,
2, ,-24, ,
1, ,-26, ,
3, ,-28, ,
2, ,-30, ,
2, ,-30, ,
2, ,-31, ,
2, ,-32, ,
1, ,-32, ,
3, ,-33, ,
2, ,-32, ,
2, ,-33, ,
2, ,-33, ,
2, ,-33, ,
1, ,-33, ,
3, ,-33, ,
2, ,-33, ,
2, ,-33, ,
2, ,-33, ,
3, ,-33, ,
1, ,-33, ,
3, ,-33, ,
1, ,-33, ,
2, ,-33, ,
2, ,-33, ,
3, ,-33, ,
1, ,-33, ,
2, ,-33, ,
2, ,-33, ,
2, ,-32, ,
2, ,-33, ,
3, ,-33, ,
1, ,-33, ,
3, ,-33, ,
2, ,-32, ,
2, ,-32, ,
2, ,-33, ,
3, ,-32, ,
1, ,-33, ,
2, ,-33, ,
2, ,-32, ,
2, ,-32, ,
2, ,-33, ,
3, ,-32, ,
1, ,-32, ,
3, ,-33, ,
2, ,-32, ,
2, ,-32, ,
2, ,-33, ,
3, ,-32, ,
1, ,-32, ,
3, ,-33, ,
2, ,-32, ,
2, ,-32, ,
2, ,-33, ,
2, ,-33, ,
1, ,-33, ,
3, ,-33, ,
2, ,-32, ,
2, ,-32, ,
2, ,-32, ,
2, ,-32, ,
1, ,-33, ,
2, ,-33, ,
2, ,-32, ,
2, ,-32, ,
2, ,-32, ,
2, ,-32, ,
1, ,-32, ,
3, ,-33, ,
2, ,-32, ,
2, ,-32, ,
2, ,-32, ,
2, ,-32, ,
1, ,-32, ,
2, ,-33, ,
2, ,-32, ,
2, ,-32, ,
2, ,-33, ,
3, ,-33, ,
1, ,-32, ,
3, ,-33, ,
2, ,-32, ,
1, ,-32, ,
2, ,-32, ,
2, ,-32, ,
1, ,-32, ,
2, ,-33, ,
2, ,-32, ,
2, ,-32, ,
2, ,-32, ,
2, ,-32, ,
1, ,-33, ,
2, ,-33, ,
2, ,-32, ,
1, ,-32, ,
2, ,-32, ,
2, ,-32, ,
1, ,-32, ,
2, ,-33, ,
2, ,-32, ,
2, ,-32, ,
2, ,-32, ,
2, ,-32, ,
2, ,-33, ,
3, ,-32, ,
2, ,-32, ,
1, ,-33, ,
2, ,-32, ,
2, ,-32, ,
1, ,-33, ,
2, ,-33, ,
1, ,-32, ,
1, ,-32, ,
2, ,-32, ,
2, ,-32, ,
1, ,-33, ,
2, ,-33, ,
2, ,-32, ,
2, ,-32, ,
2, ,-32, ,
2, ,-32, ,
1, ,-32, ,
2, ,-33, ,
2, ,-32, ,
1, ,-32, ,
2, ,-32, ,
2, ,-33, ,
1, ,-32, ,
2, ,-33, ,
2, ,-32, ,
1, ,-32, ,
2, ,-32, ,
2, ,-32, ,
1, ,-32, ,
2, ,-33, ,
1, ,-32, ,
1, ,-32, ,
2, ,-33, ,
2, ,-32, ,
1, ,-33, ,
2, ,-33, ,
1, ,-32, ,
1, ,-32, ,
2, ,-32, ,
2, ,-32, ,
1, ,-33, ,
2, ,-33, ,
1, ,-32, ,
1, ,-32, ,
2, ,-32, ,
2, ,-32, ,
1, ,-33, ,
2, ,-32, ,
1, ,-32, ,
2, ,-32, ,
2, ,-32, ,
2, ,-32, ,
1, ,-33, ,
2, ,-33, ,
1, ,-32, ,
1, ,-32, ,
2, ,-32, ,
2, ,-32, ,
1, ,-33, ,
2, ,-33, ,
1, ,-32, ,
1, ,-32, ,
2, ,-33, ,
2, ,-32, ,
1, ,-32, ,
2, ,-33, ,
1, ,-32, ,
2, ,-32, ,
2, ,-32, ,
2, ,-32, ,
1, ,-32, ,
2, ,-32, ,
1, ,-32, ,
2, ,-32, ,
2, ,-32, ,
2, ,-32, ,
1, ,-33, ,
2, ,-32, ,
2, ,-32, ,
2, ,-32, ,
2, ,-32, ,
2, ,-32, ,
1, ,-32, ,
2, ,-32, ,
1, ,-32, ,
1, ,-32, ,
2, ,-32, ,
2, ,-32, ,
1, ,-32, ,
2, ,-33, ,
2, ,-32, ,
2, ,-32, ,
2, ,-32, ,
2, ,-32, ,
1, ,-33, ,
2, ,-32, ,
1, ,-32, ,
1, ,-32, ,
2, ,-32, ,
2, ,-32, ,
1, ,-32, ,
2, ,-32, ,
1, ,-32, ,
2, ,-32, ,
2, ,-32, ,
2, ,-32, ,
1, ,-32, ,
2, ,-32, ,
1, ,-32, ,
1, ,-32, ,
2, ,-32, ,
2, ,-32, ,
1, ,-32, ,
2, ,-33, ,
1, ,-32, ,
2, ,-32, ,
2, ,-32, ,
2, ,-32, ,
1, ,-32, ,
2, ,-33, ,
1, ,-32, ,
1, ,-32, ,
2, ,-32, ,
2, ,-32, ,
1, ,-32, ,
2, ,-32, ,
1, ,-32, ,
1, ,-32, ,
2, ,-32, ,
2, ,-32, ,
1, ,-32, ,
2, ,-33, ,
1, ,-32, ,
1, ,-32, ,
2, ,-32, ,
2, ,-32, ,
1, ,-32, ,
2, ,-33, ,
1, ,-32, ,
2, ,-32, ,
2, ,-32, ,
2, ,-32, ,
1, ,-32, ,
2, ,-32, ,
1, ,-32, ,
1, ,-32, ,
2, ,-32, ,
2, ,-32, ,
1, ,-32, ,
2, ,-33, ,
1, ,-32, ,
2, ,-32, ,
2, ,-32, ,
2, ,-32, ,
1, ,-32, ,
2, ,-32, ,
1, ,-32, ,
1, ,-32, ,
2, ,-32, ,
1, ,-32, ,
1, ,-32, ,
2, ,-33, ,
1, ,-32, ,
1, ,-32, ,
2, ,-32, ,
1, ,-32, ,
1, ,-32, ,
2, ,-33, ,
1, ,-32, ,
1, ,-32, ,
2, ,-32, ,
1, ,-32, ,
1, ,-32, ,
2, ,-33, ,
1, ,-32, ,
1, ,-32, ,
2, ,-32, ,
1, ,-32, ,
1, ,-33, ,
2, ,-32, ,
1, ,-32, ,
1, ,-32, ,
2, ,-32, ,
2, ,-32, ,
1, ,-32, ,
2, ,-33, ,
1, ,-32, ,
1, ,-32, ,
2, ,-32, ,
2, ,-32, ,
1, ,-32, ,
2, ,-33, ,
1, ,-32, ,
1, ,-32, ,
2, ,-33, ,
2, ,-32, ,
1, ,-32, ,
2, ,-33, ,
1, ,-32, ,
1, ,-32, ,
2, ,-32, ,
2, ,-32, ,
1, ,-32, ,
2, ,-33, ,
1, ,-32, ,
1, ,-32, ,
2, ,-32, ,
2, ,-32, ,
1, ,-32, ,
2, ,-32, ,
1, ,-32, ,
1, ,-32, ,
2, ,-33, ,
2, ,-33, ,
1, ,-33, ,
2, ,-33, ,
1, ,-32, ,
1, ,-32, ,
2, ,-32, ,
1, ,-32, ,
1, ,-32, ,
2, ,-32, ,
1, ,-32, ,
1, ,-32, ,
2, ,-32, ,
1, ,-32, ,
1, ,-33, ,
2, ,-32, ,
1, ,-32, ,
1, ,-32, ,
2, ,-32, ,
2, ,-32, ,
1, ,-32, ,
2, ,-32, ,
1, ,-32, ,
2, ,-32, ,
2, ,-32, ,
1, ,-32, ,
1, ,-33, ,
2, ,-32, ,
1, ,-32, ,
1, ,-32, ,
2, ,-32, ,
2, ,-32, ,
1, ,-32, ,
2, ,-33, ,
1, ,-32, ,
1, ,-32, ,
2, ,-32, ,
1, ,-33, ,
1, ,-33, ,
2, ,-33, ,
1, ,-32, ,
1, ,-32, ,
2, ,-32, ,
1, ,-32, ,
1, ,-32, ,
2, ,-33, ,
1, ,-32, ,
1, ,-32, ,
2, ,-32, ,
1, ,-32, ,
1, ,-32, ,
2, ,-32, ,
1, ,-32, ,
1, ,-32, ,
2, ,-32, ,
1, ,-32, ,
1, ,-32, ,
2, ,-33, ,
1, ,-32, ,
1, ,-32, ,
2, ,-32, ,
1, ,-32, ,
1, ,-32, ,
2, ,-32, ,
1, ,-32, ,
1, ,-32, ,
2, ,-33, ,
1, ,-32, ,
-1, ,-32, ,
2, ,-33, ,
1, ,-32, ,
1, ,-32, ,
2, ,-32, ,
1, ,-32, ,
1, ,-33, ,
1, ,-33, ,
1, ,-32, ,
1, ,-32, ,
2, ,-32, ,
1, ,-32, ,
1, ,-32, ,
2, ,-33, ,
1, ,-32, ,
1, ,-32, ,
2, ,-32, ,
1, ,-32, ,
-1, ,-33, ,
2, ,-33, ,
1, ,-32, ,
1, ,-32, ,
2, ,-32, ,
1, ,-32, ,
-1, ,-32, ,
1, ,-33, ,
1, ,-32, ,
1, ,-32, ,
1, ,-32, ,
1, ,-32, ,
1, ,-32, ,
2, ,-33, ,
1, ,-32, ,
1, ,-32, ,
1, ,-32, ,
1, ,-32, ,
-1, ,-32, ,
1, ,-33, ,
1, ,-32, ,
1, ,-32, ,
1, ,-32, ,
1, ,-32, ,
-1, ,-32, ,
2, ,-33, ,
1, ,-32, ,
1, ,-32, ,
2, ,-32, ,
1, ,-32, ,
-1, ,-32, ,
1, ,-33, ,
1, ,-32, ,
1, ,-32, ,
2, ,-32, ,
1, ,-32, ,
-1, ,-33, ,
2, ,-33, ,
1, ,-32, ,
1, ,-32, ,
2, ,-32, ,
1, ,-32, ,
-1, ,-32, ,
1, ,-33, ,
1, ,-32, ,
1, ,-32, ,
1, ,-32, ,
1, ,-32, ,
1, ,-33, ,
1, ,-32, ,
1, ,-32, ,
1, ,-32, ,
2, ,-32, ,
1, ,-32, ,
-1, ,-32, ,
2, ,-33, ,
1, ,-32, ,
1, ,-32, ,
2, ,-32, ,
1, ,-32, ,
1, ,-33, ,
2, ,-33, ,
1, ,-32, ,
1, ,-32, ,
2, ,-32, ,
2, ,-32, ,
-1, ,-32, ,
2, ,-33, ,
1, ,-32, ,
1, ,-32, ,
1, ,-32, ,
1, ,-32, ,
-1, ,-32, ,
1, ,-32, ,
1, ,-32, ,
1, ,-32, ,
2, ,-33, ,
1, ,-32, ,
-1, ,-32, ,
2, ,-33, ,
1, ,-32, ,
1, ,-32, ,
1, ,-32, ,
1, ,-32, ,
1, ,-32, ,
1, ,-33, ,
1, ,-32, ,
1, ,-32, ,
1, ,-32, ,
1, ,-32, ,
-1, ,-32, ,
