src/varyamp_1558/temp0003413.CSV

Format,1.0B,
Memory Length,10000,Memory Length,10000,
IntpDistance,0,IntpDistance,0,
Trigger Address,4999,Trigger Address,4999,
Trigger Level,1.040E+00,Trigger Level,1.040E+00,
Source,CH1,Source,CH2,
Vertical Units,V,Vertical Units,V,
Vertical Units Div,0,Vertical Units Div,0,
Vertical Units Extend Div,16,Vertical Units Extend Div,16,
Label,,Label,,
Probe Type,0,Probe Type,0,
Probe Ratio,1.000e+01,Probe Ratio,1.000e+00,
Vertical Scale,5.000e-01,Vertical Scale,1.000e+00,
Vertical Position,-1.820e+00,Vertical Position,0.000e+00,
Horizontal Units,S,Horizontal Units,S,
Horizontal Scale,2.000E-05,Horizontal Scale,2.000E-05,
Horizontal Position,0.000E+00,Horizontal Position,0.000E+00,
Horizontal Mode,Main,Horizontal Mode,Main,
SincET Mode,Real Time,SincET Mode,Real Time,
Sampling Period,2.000e-08,Sampling Period,2.000e-08,
Horizontal Old Scale,2.000E-05,Horizontal Old Scale,2.000E-05,
Horizontal Old Position,0.000E+00,Horizontal Old Position,0.000E+00,
Firmware,V1.23,Firmware,V1.23,
Mode,Fast,Mode,Fast,
Waveform Data,,Waveform Data,,
1, ,-31, ,
2, ,-31, ,
1, ,-31, ,
2, ,-32, ,
2, ,-31, ,
2, ,-31, ,
1, ,-31, ,
2, ,-32, ,
1, ,-31, ,
1, ,-31, ,
2, ,-32, ,
2, ,-31, ,
1, ,-31, ,
2, ,-31, ,
1, ,-31, ,
1, ,-32, ,
2, ,-32, ,
1, ,-31, ,
1, ,-31, ,
2, ,-31, ,
1, ,-31, ,
2, ,-31, ,
2, ,-31, ,
2, ,-31, ,
1, ,-31, ,
2, ,-31, ,
1, ,-31, ,
1, ,-32, ,
2, ,-31, ,
2, ,-31, ,
1, ,-31, ,
2, ,-31, ,
1, ,-31, ,
1, ,-31, ,
2, ,-31, ,
2, ,-32, ,
1, ,-31, ,
2, ,-31, ,
1, ,-31, ,
1, ,-32, ,
2, ,-31, ,
2, ,-31, ,
1, ,-31, ,
2, ,-31, ,
1, ,-31, ,
1, ,-31, ,
2, ,-31, ,
2, ,-32, ,
1, ,-31, ,
2, ,-31, ,
1, ,-31, ,
1, ,-32, ,
2, ,-31, ,
2, ,-31, ,
1, ,-31, ,
2, ,-31, ,
1, ,-31, ,
1, ,-31, ,
2, ,-31, ,
2, ,-32, ,
1, ,-31, ,
2, ,-31, ,
1, ,-31, ,
1, ,-32, ,
2, ,-32, ,
2, ,-31, ,
1, ,-31, ,
2, ,-31, ,
1, ,-31, ,
1, ,-31, ,
2, ,-31, ,
2, ,-32, ,
1, ,-31, ,
2, ,-31, ,
1, ,-31, ,
1, ,-31, ,
2, ,-31, ,
2, ,-31, ,
1, ,-31, ,
2, ,-31, ,
1, ,-31, ,
1, ,-31, ,
2, ,-32, ,
2, ,-32, ,
1, ,-31, ,
2, ,-31, ,
1, ,-31, ,
1, ,-32, ,
2, ,-32, ,
2, ,-32, ,
1, ,-31, ,
2, ,-31, ,
1, ,-31, ,
1, ,-32, ,
2, ,-31, ,
2, ,-32, ,
1, ,-31, ,
2, ,-31, ,
1, ,-31, ,
1, ,-32, ,
2, ,-31, ,
1, ,-31, ,
-1, ,-31, ,
2, ,-31, ,
1, ,-31, ,
1, ,-31, ,
2, ,-31, ,
1, ,-32, ,
1, ,-31, ,
2, ,-31, ,
1, ,-31, ,
1, ,-32, ,
2, ,-31, ,
1, ,-31, ,
-1, ,-31, ,
2, ,-32, ,
1, ,-31, ,
1, ,-31, ,
2, ,-31, ,
2, ,-32, ,
1, ,-31, ,
2, ,-31, ,
1, ,-31, ,
1, ,-32, ,
2, ,-31, ,
1, ,-32, ,
-1, ,-31, ,
2, ,-31, ,
1, ,-31, ,
1, ,-31, ,
2, ,-31, ,
1, ,-32, ,
-1, ,-31, ,
2, ,-31, ,
1, ,-31, ,
1, ,-31, ,
2, ,-31, ,
1, ,-32, ,
1, ,-31, ,
2, ,-31, ,
1, ,-31, ,
1, ,-31, ,
2, ,-31, ,
1, ,-32, ,
1, ,-31, ,
2, ,-31, ,
1, ,-31, ,
1, ,-31, ,
2, ,-31, ,
2, ,-31, ,
1, ,-31, ,
2, ,-31, ,
1, ,-31, ,
1, ,-31, ,
2, ,-31, ,
2, ,-32, ,
1, ,-31, ,
2, ,-31, ,
1, ,-31, ,
1, ,-31, ,
2, ,-31, ,
1, ,-31, ,
-1, ,-31, ,
2, ,-31, ,
1, ,-31, ,
1, ,-32, ,
2, ,-31, ,
1, ,-32, ,
1, ,-31, ,
2, ,-31, ,
1, ,-32, ,
1, ,-32, ,
2, ,-31, ,
1, ,-31, ,
1, ,-31, ,
2, ,-31, ,
1, ,-31, ,
1, ,-32, ,
2, ,-31, ,
1, ,-32, ,
1, ,-31, ,
2, ,-31, ,
1, ,-31, ,
1, ,-32, ,
2, ,-31, ,
1, ,-31, ,
-1, ,-31, ,
2, ,-31, ,
1, ,-31, ,
1, ,-31, ,
2, ,-31, ,
1, ,-32, ,
1, ,-31, ,
2, ,-31, ,
1, ,-31, ,
1, ,-31, ,
2, ,-31, ,
1, ,-31, ,
-1, ,-31, ,
2, ,-31, ,
1, ,-31, ,
1, ,-31, ,
2, ,-31, ,
1, ,-32, ,
1, ,-31, ,
2, ,-31, ,
1, ,-31, ,
1, ,-32, ,
2, ,-31, ,
1, ,-32, ,
-1, ,-31, ,
2, ,-31, ,
1, ,-31, ,
1, ,-31, ,
1, ,-31, ,
1, ,-32, ,
-1, ,-31, ,
2, ,-31, ,
1, ,-31, ,
1, ,-32, ,
2, ,-31, ,
2, ,-32, ,
-1, ,-31, ,
1, ,-31, ,
1, ,-31, ,
1, ,-31, ,
2, ,-31, ,
1, ,-32, ,
-1, ,-31, ,
1, ,-31, ,
1, ,-32, ,
1, ,-32, ,
2, ,-31, ,
1, ,-31, ,
-1, ,-31, ,
2, ,-31, ,
1, ,-32, ,
1, ,-31, ,
2, ,-31, ,
1, ,-32, ,
-1, ,-31, ,
1, ,-31, ,
1, ,-31, ,
1, ,-31, ,
2, ,-31, ,
1, ,-31, ,
-1, ,-31, ,
1, ,-31, ,
1, ,-31, ,
1, ,-31, ,
1, ,-31, ,
1, ,-32, ,
-1, ,-31, ,
1, ,-31, ,
1, ,-31, ,
1, ,-31, ,
2, ,-31, ,
1, ,-32, ,
-1, ,-31, ,
2, ,-31, ,
1, ,-31, ,
1, ,-31, ,
1, ,-32, ,
1, ,-32, ,
-1, ,-31, ,
2, ,-31, ,
1, ,-31, ,
1, ,-32, ,
2, ,-31, ,
1, ,-31, ,
-1, ,-31, ,
2, ,-31, ,
1, ,-32, ,
1, ,-31, ,
1, ,-31, ,
1, ,-32, ,
-1, ,-31, ,
1, ,-31, ,
1, ,-32, ,
1, ,-32, ,
1, ,-32, ,
1, ,-31, ,
-1, ,-31, ,
2, ,-31, ,
1, ,-31, ,
1, ,-31, ,
2, ,-31, ,
1, ,-32, ,
-1, ,-31, ,
2, ,-31, ,
1, ,-32, ,
1, ,-32, ,
1, ,-32, ,
1, ,-31, ,
-1, ,-31, ,
1, ,-31, ,
1, ,-32, ,
1, ,-31, ,
1, ,-31, ,
1, ,-32, ,
-1, ,-31, ,
1, ,-31, ,
1, ,-32, ,
1, ,-31, ,
2, ,-31, ,
1, ,-31, ,
-1, ,-31, ,
2, ,-31, ,
1, ,-18, ,
1, ,1, ,
2, ,17, ,
2, ,28, ,
-1, ,37, ,
2, ,43, ,
1, ,49, ,
1, ,52, ,
2, ,55, ,
1, ,58, ,
-1, ,57, ,
2, ,59, ,
1, ,61, ,
1, ,60, ,
1, ,61, ,
1, ,62, ,
-1, ,60, ,
2, ,62, ,
1, ,63, ,
1, ,62, ,
2, ,62, ,
1, ,63, ,
-1, ,61, ,
2, ,62, ,
1, ,63, ,
1, ,62, ,
2, ,62, ,
6, ,63, ,
60, ,61, ,
39, ,62, ,
24, ,63, ,
16, ,62, ,
11, ,62, ,
7, ,63, ,
5, ,60, ,
6, ,62, ,
3, ,62, ,
2, ,61, ,
3, ,61, ,
3, ,63, ,
2, ,62, ,
5, ,62, ,
2, ,63, ,
2, ,62, ,
3, ,62, ,
2, ,63, ,
1, ,61, ,
3, ,62, ,
2, ,62, ,
2, ,61, ,
3, ,61, ,
3, ,63, ,
2, ,60, ,
3, ,62, ,
2, ,62, ,
2, ,62, ,
3, ,62, ,
2, ,63, ,
1, ,60, ,
3, ,62, ,
2, ,62, ,
1, ,61, ,
2, ,61, ,
2, ,63, ,
1, ,61, ,
3, ,62, ,
2, ,62, ,
2, ,62, ,
2, ,61, ,
2, ,63, ,
1, ,60, ,
3, ,62, ,
2, ,62, ,
2, ,61, ,
2, ,61, ,
2, ,63, ,
1, ,60, ,
3, ,62, ,
2, ,62, ,
2, ,61, ,
2, ,61, ,
2, ,62, ,
2, ,60, ,
5, ,62, ,
8, ,62, ,
8, ,62, ,
7, ,62, ,
6, ,63, ,
3, ,61, ,
5, ,62, ,
3, ,62, ,
3, ,62, ,
2, ,62, ,
2, ,63, ,
1, ,60, ,
3, ,62, ,
2, ,62, ,
2, ,61, ,
3, ,61, ,
3, ,63, ,
2, ,60, ,
3, ,62, ,
2, ,62, ,
2, ,62, ,
3, ,62, ,
2, ,62, ,
1, ,61, ,
3, ,62, ,
2, ,62, ,
2, ,61, ,
2, ,61, ,
2, ,63, ,
2, ,61, ,
3, ,62, ,
2, ,62, ,
2, ,62, ,
2, ,62, ,
2, ,62, ,
1, ,61, ,
3, ,62, ,
2, ,62, ,
2, ,61, ,
2, ,61, ,
2, ,62, ,
2, ,60, ,
3, ,62, ,
2, ,62, ,
2, ,61, ,
3, ,61, ,
2, ,62, ,
1, ,60, ,
3, ,62, ,
3, ,62, ,
7, ,61, ,
8, ,61, ,
7, ,63, ,
5, ,61, ,
6, ,62, ,
3, ,62, ,
3, ,61, ,
3, ,61, ,
3, ,62, ,
1, ,60, ,
3, ,62, ,
1, ,63, ,
2, ,61, ,
3, ,61, ,
2, ,63, ,
1, ,60, ,
3, ,62, ,
2, ,62, ,
2, ,62, ,
3, ,62, ,
2, ,62, ,
1, ,56, ,
3, ,37, ,
2, ,19, ,
1, ,6, ,
2, ,-3, ,
2, ,-11, ,
1, ,-16, ,
3, ,-20, ,
2, ,-23, ,
2, ,-25, ,
2, ,-27, ,
2, ,-28, ,
1, ,-30, ,
2, ,-30, ,
2, ,-31, ,
2, ,-31, ,
2, ,-32, ,
2, ,-32, ,
2, ,-31, ,
2, ,-32, ,
2, ,-32, ,
2, ,-32, ,
3, ,-32, ,
2, ,-32, ,
2, ,-32, ,
3, ,-32, ,
2, ,-32, ,
2, ,-32, ,
2, ,-32, ,
3, ,-32, ,
1, ,-32, ,
2, ,-32, ,
2, ,-32, ,
2, ,-32, ,
2, ,-32, ,
3, ,-32, ,
2, ,-32, ,
3, ,-32, ,
2, ,-32, ,
2, ,-31, ,
2, ,-32, ,
3, ,-32, ,
1, ,-31, ,
3, ,-31, ,
2, ,-32, ,
2, ,-32, ,
3, ,-31, ,
2, ,-32, ,
1, ,-32, ,
2, ,-32, ,
2, ,-32, ,
2, ,-32, ,
2, ,-32, ,
2, ,-32, ,
1, ,-31, ,
3, ,-31, ,
1, ,-32, ,
2, ,-32, ,
2, ,-32, ,
2, ,-31, ,
1, ,-31, ,
2, ,-31, ,
2, ,-32, ,
2, ,-32, ,
2, ,-32, ,
2, ,-32, ,
1, ,-31, ,
3, ,-31, ,
2, ,-32, ,
2, ,-32, ,
2, ,-31, ,
2, ,-32, ,
1, ,-31, ,
3, ,-31, ,
2, ,-31, ,
2, ,-31, ,
2, ,-31, ,
2, ,-32, ,
1, ,-31, ,
2, ,-31, ,
2, ,-32, ,
2, ,-32, ,
2, ,-31, ,
2, ,-32, ,
1, ,-31, ,
2, ,-31, ,
2, ,-31, ,
2, ,-32, ,
2, ,-31, ,
2, ,-32, ,
1, ,-31, ,
3, ,-31, ,
2, ,-32, ,
2, ,-32, ,
2, ,-31, ,
2, ,-31, ,
1, ,-31, ,
3, ,-31, ,
2, ,-32, ,
2, ,-31, ,
2, ,-31, ,
2, ,-31, ,
1, ,-31, ,
2, ,-31, ,
2, ,-31, ,
2, ,-31, ,
2, ,-32, ,
2, ,-31, ,
1, ,-31, ,
3, ,-31, ,
2, ,-31, ,
2, ,-31, ,
2, ,-31, ,
2, ,-32, ,
1, ,-31, ,
2, ,-31, ,
2, ,-31, ,
2, ,-32, ,
2, ,-31, ,
2, ,-31, ,
1, ,-31, ,
2, ,-31, ,
2, ,-31, ,
1, ,-31, ,
2, ,-31, ,
2, ,-32, ,
1, ,-31, ,
2, ,-31, ,
1, ,-31, ,
1, ,-32, ,
2, ,-31, ,
2, ,-31, ,
1, ,-31, ,
2, ,-31, ,
2, ,-31, ,
2, ,-31, ,
2, ,-31, ,
2, ,-32, ,
1, ,-31, ,
2, ,-31, ,
1, ,-32, ,
1, ,-32, ,
2, ,-31, ,
2, ,-31, ,
1, ,-31, ,
2, ,-31, ,
2, ,-31, ,
2, ,-31, ,
2, ,-32, ,
2, ,-32, ,
1, ,-31, ,
2, ,-31, ,
1, ,-32, ,
1, ,-32, ,
2, ,-31, ,
2, ,-31, ,
1, ,-31, ,
2, ,-31, ,
2, ,-31, ,
2, ,-31, ,
2, ,-31, ,
2, ,-32, ,
1, ,-31, ,
2, ,-31, ,
1, ,-31, ,
1, ,-32, ,
2, ,-31, ,
2, ,-31, ,
1, ,-31, ,
2, ,-31, ,
2, ,-31, ,
2, ,-31, ,
2, ,-31, ,
2, ,-32, ,
1, ,-31, ,
2, ,-32, ,
1, ,-31, ,
1, ,-31, ,
2, ,-31, ,
2, ,-31, ,
1, ,-31, ,
2, ,-31, ,
2, ,-31, ,
2, ,-31, ,
2, ,-31, ,
2, ,-32, ,
1, ,-31, ,
2, ,-31, ,
1, ,-31, ,
1, ,-31, ,
2, ,-31, ,
2, ,-31, ,
1, ,-32, ,
2, ,-31, ,
1, ,-31, ,
1, ,-31, ,
2, ,-31, ,
2, ,-31, ,
1, ,-31, ,
2, ,-31, ,
1, ,-31, ,
1, ,-31, ,
2, ,-31, ,
2, ,-31, ,
1, ,-31, ,
2, ,-31, ,
1, ,-31, ,
1, ,-31, ,
2, ,-31, ,
1, ,-32, ,
1, ,-31, ,
2, ,-31, ,
1, ,-31, ,
1, ,-32, ,
2, ,-31, ,
2, ,-32, ,
1, ,-31, ,
2, ,-31, ,
1, ,-31, ,
1, ,-31, ,
2, ,-31, ,
2, ,-32, ,
1, ,-31, ,
2, ,-31, ,
1, ,-31, ,
1, ,-32, ,
2, ,-31, ,
2, ,-31, ,
1, ,-31, ,
2, ,-31, ,
1, ,-31, ,
3, ,-31, ,
43, ,-31, ,
29, ,-31, ,
17, ,-31, ,
13, ,-31, ,
8, ,-31, ,
6, ,-31, ,
6, ,-31, ,
3, ,-31, ,
3, ,-31, ,
3, ,-31, ,
2, ,-31, ,
2, ,-31, ,
2, ,-31, ,
3, ,-32, ,
2, ,-31, ,
3, ,-31, ,
2, ,-32, ,
2, ,-32, ,
3, ,-31, ,
3, ,-31, ,
2, ,-31, ,
3, ,-31, ,
2, ,-31, ,
2, ,-31, ,
2, ,-31, ,
3, ,-32, ,
2, ,-31, ,
3, ,-31, ,
2, ,-32, ,
2, ,-31, ,
2, ,-31, ,
3, ,-31, ,
1, ,-31, ,
2, ,-31, ,
2, ,-31, ,
2, ,-31, ,
2, ,-31, ,
3, ,-32, ,
2, ,-31, ,
3, ,-31, ,
2, ,-31, ,
2, ,-31, ,
2, ,-31, ,
3, ,-31, ,
2, ,-31, ,
3, ,-31, ,
2, ,-31, ,
2, ,-31, ,
2, ,-31, ,
3, ,-32, ,
2, ,-31, ,
3, ,-31, ,
2, ,-31, ,
2, ,-31, ,
2, ,-31, ,
3, ,-31, ,
1, ,-31, ,
3, ,-31, ,
2, ,-31, ,
2, ,-31, ,
2, ,-31, ,
3, ,-32, ,
1, ,-31, ,
3, ,-31, ,
2, ,-31, ,
2, ,-32, ,
2, ,-32, ,
3, ,-31, ,
1, ,-32, ,
3, ,-31, ,
2, ,-31, ,
2, ,-31, ,
3, ,-31, ,
3, ,-31, ,
1, ,-31, ,
3, ,-31, ,
2, ,-31, ,
2, ,-31, ,
2, ,-31, ,
2, ,-31, ,
1, ,-31, ,
2, ,-31, ,
2, ,-31, ,
2, ,-32, ,
2, ,-31, ,
2, ,-31, ,
1, ,-31, ,
2, ,-31, ,
2, ,-31, ,
2, ,-31, ,
2, ,-31, ,
2, ,-31, ,
1, ,-31, ,
2, ,-31, ,
2, ,-31, ,
2, ,-31, ,
2, ,-31, ,
2, ,-31, ,
1, ,-31, ,
2, ,-31, ,
1, ,-31, ,
2, ,-31, ,
2, ,-31, ,
2, ,-31, ,
1, ,-31, ,
2, ,-31, ,
2, ,-31, ,
1, ,-31, ,
2, ,-31, ,
2, ,-32, ,
1, ,-31, ,
2, ,-31, ,
1, ,-31, ,
2, ,-31, ,
2, ,-31, ,
2, ,-31, ,
1, ,-31, ,
2, ,-31, ,
2, ,-31, ,
2, ,-31, ,
2, ,-31, ,
2, ,-32, ,
1, ,-31, ,
2, ,-32, ,
1, ,-31, ,
2, ,-31, ,
2, ,-31, ,
2, ,-31, ,
1, ,-31, ,
2, ,-31, ,
2, ,-31, ,
2, ,-31, ,
2, ,-31, ,
2, ,-32, ,
1, ,-31, ,
2, ,-31, ,
1, ,-31, ,
2, ,-31, ,
2, ,-31, ,
2, ,-31, ,
1, ,-31, ,
2, ,-31, ,
2, ,-31, ,
2, ,-31, ,
3, ,-31, ,
2, ,-32, ,
1, ,-31, ,
2, ,-31, ,
1, ,-31, ,
1, ,-31, ,
2, ,-31, ,
2, ,-31, ,
1, ,-31, ,
2, ,-31, ,
2, ,-31, ,
2, ,-31, ,
2, ,-31, ,
2, ,-31, ,
1, ,-31, ,
3, ,-31, ,
1, ,-32, ,
1, ,-31, ,
2, ,-31, ,
2, ,-32, ,
1, ,-31, ,
2, ,-31, ,
2, ,-31, ,
2, ,-32, ,
2, ,-31, ,
2, ,-31, ,
1, ,-31, ,
3, ,-31, ,
2, ,-31, ,
2, ,-31, ,
2, ,-31, ,
2, ,-31, ,
1, ,-31, ,
2, ,-31, ,
2, ,-32, ,
1, ,-31, ,
2, ,-31, ,
2, ,-32, ,
1, ,-31, ,
2, ,-31, ,
1, ,-32, ,
1, ,-31, ,
2, ,-31, ,
2, ,-31, ,
1, ,-31, ,
2, ,-31, ,
2, ,-32, ,
2, ,-31, ,
2, ,-31, ,
2, ,-31, ,
1, ,-31, ,
3, ,-31, ,
1, ,-31, ,
1, ,-31, ,
2, ,-31, ,
2, ,-31, ,
1, ,-31, ,
2, ,-31, ,
1, ,-32, ,
1, ,-32, ,
2, ,-31, ,
2, ,-31, ,
1, ,-31, ,
2, ,-31, ,
1, ,-32, ,
1, ,-31, ,
2, ,-31, ,
2, ,-32, ,
1, ,-31, ,
2, ,-31, ,
1, ,-32, ,
1, ,-31, ,
2, ,-31, ,
1, ,-32, ,
1, ,-31, ,
2, ,-31, ,
1, ,-32, ,
1, ,-31, ,
2, ,-31, ,
2, ,-31, ,
1, ,-31, ,
2, ,-31, ,
1, ,-32, ,
1, ,-32, ,
2, ,-31, ,
1, ,-31, ,
-1, ,-31, ,
2, ,-31, ,
1, ,-31, ,
1, ,-31, ,
2, ,-31, ,
2, ,-31, ,
1, ,-31, ,
2, ,-31, ,
1, ,-32, ,
1, ,-31, ,
2, ,-31, ,
2, ,-32, ,
1, ,-31, ,
2, ,-31, ,
1, ,-31, ,
2, ,-31, ,
2, ,-31, ,
2, ,-32, ,
1, ,-31, ,
2, ,-31, ,
1, ,-31, ,
1, ,-31, ,
2, ,-31, ,
1, ,-32, ,
1, ,-31, ,
2, ,-31, ,
1, ,-32, ,
1, ,-31, ,
2, ,-31, ,
2, ,-32, ,
1, ,-31, ,
2, ,-31, ,
1, ,-32, ,
1, ,-31, ,
2, ,-31, ,
2, ,-32, ,
-1, ,-31, ,
2, ,-31, ,
1, ,-32, ,
1, ,-31, ,
2, ,-31, ,
1, ,-31, ,
1, ,-31, ,
2, ,-31, ,
1, ,-32, ,
1, ,-31, ,
2, ,-31, ,
2, ,-32, ,
1, ,-31, ,
2, ,-31, ,
1, ,-31, ,
1, ,-31, ,
2, ,-31, ,
2, ,-31, ,
1, ,-31, ,
2, ,-31, ,
1, ,-32, ,
1, ,-31, ,
2, ,-31, ,
2, ,-31, ,
1, ,-31, ,
2, ,-31, ,
1, ,-32, ,
1, ,-31, ,
2, ,-31, ,
2, ,-31, ,
1, ,-31, ,
2, ,-31, ,
1, ,-31, ,
1, ,-31, ,
2, ,-31, ,
2, ,-31, ,
1, ,-31, ,
2, ,-32, ,
1, ,-31, ,
1, ,-31, ,
2, ,-31, ,
2, ,-31, ,
1, ,-31, ,
2, ,-31, ,
1, ,-32, ,
1, ,-31, ,
2, ,-31, ,
2, ,-31, ,
1, ,-31, ,
2, ,-31, ,
1, ,-31, ,
1, ,-32, ,
2, ,-31, ,
1, ,-31, ,
1, ,-31, ,
2, ,-31, ,
1, ,-32, ,
1, ,-31, ,
2, ,-32, ,
2, ,-31, ,
1, ,-31, ,
2, ,-31, ,
1, ,-32, ,
1, ,-31, ,
2, ,-31, ,
2, ,-31, ,
1, ,-31, ,
2, ,-31, ,
1, ,-31, ,
1, ,-31, ,
2, ,-31, ,
1, ,-32, ,
-1, ,-31, ,
2, ,-31, ,
1, ,-31, ,
1, ,-31, ,
2, ,-31, ,
1, ,-31, ,
1, ,-31, ,
2, ,-31, ,
1, ,-32, ,
1, ,-31, ,
1, ,-32, ,
1, ,-32, ,
1, ,-31, ,
2, ,-31, ,
1, ,-31, ,
1, ,-31, ,
2, ,-31, ,
2, ,-31, ,
1, ,-31, ,
2, ,-31, ,
1, ,-32, ,
1, ,-31, ,
2, ,-31, ,
1, ,-31, ,
-1, ,-31, ,
2, ,-31, ,
1, ,-32, ,
1, ,-31, ,
2, ,-31, ,
1, ,-31, ,
-1, ,-31, ,
2, ,-31, ,
1, ,-31, ,
1, ,-32, ,
1, ,-31, ,
1, ,-32, ,
-1, ,-31, ,
2, ,-31, ,
1, ,-31, ,
1, ,-31, ,
2, ,-31, ,
2, ,-31, ,
-1, ,-31, ,
1, ,-31, ,
1, ,-32, ,
1, ,-31, ,
2, ,-31, ,
1, ,-32, ,
-1, ,-32, ,
2, ,-31, ,
1, ,-31, ,
1, ,-31, ,
2, ,-32, ,
1, ,-32, ,
1, ,-31, ,
2, ,-31, ,
1, ,-31, ,
1, ,-23, ,
2, ,-3, ,
2, ,13, ,
1, ,25, ,
2, ,35, ,
1, ,42, ,
1, ,46, ,
2, ,51, ,
2, ,55, ,
1, ,55, ,
2, ,58, ,
1, ,60, ,
1, ,59, ,
2, ,60, ,
1, ,61, ,
-1, ,61, ,
2, ,62, ,
1, ,62, ,
1, ,61, ,
2, ,61, ,
1, ,63, ,
-1, ,61, ,
2, ,62, ,
1, ,63, ,
1, ,62, ,
2, ,62, ,
1, ,63, ,
-1, ,62, ,
2, ,62, ,
1, ,62, ,
1, ,61, ,
2, ,62, ,
1, ,63, ,
-1, ,61, ,
2, ,62, ,
1, ,63, ,
1, ,62, ,
1, ,61, ,
1, ,63, ,
-1, ,61, ,
2, ,62, ,
1, ,63, ,
1, ,61, ,
2, ,62, ,
1, ,63, ,
-1, ,61, ,
2, ,62, ,
1, ,62, ,
1, ,62, ,
66, ,62, ,
46, ,62, ,
27, ,61, ,
20, ,62, ,
11, ,62, ,
7, ,61, ,
6, ,61, ,
3, ,62, ,
2, ,60, ,
3, ,62, ,
2, ,63, ,
2, ,61, ,
3, ,62, ,
3, ,62, ,
1, ,61, ,
3, ,62, ,
2, ,62, ,
2, ,61, ,
3, ,62, ,
2, ,63, ,
1, ,60, ,
3, ,62, ,
2, ,62, ,
2, ,61, ,
3, ,61, ,
2, ,62, ,
1, ,61, ,
3, ,62, ,
2, ,62, ,
2, ,62, ,
3, ,61, ,
2, ,62, ,
1, ,60, ,
3, ,62, ,
2, ,63, ,
2, ,61, ,
3, ,61, ,
2, ,62, ,
3, ,61, ,
8, ,62, ,
8, ,62, ,
6, ,61, ,
6, ,61, ,
5, ,62, ,
2, ,61, ,
5, ,62, ,
2, ,62, ,
2, ,61, ,
2, ,61, ,
2, ,62, ,
2, ,61, ,
3, ,62, ,
2, ,62, ,
2, ,61, ,
2, ,62, ,
2, ,62, ,
1, ,60, ,
3, ,62, ,
2, ,62, ,
2, ,61, ,
3, ,61, ,
6, ,62, ,
5, ,61, ,
6, ,62, ,
3, ,62, ,
3, ,61, ,
3, ,61, ,
3, ,62, ,
1, ,60, ,
3, ,62, ,
2, ,63, ,
2, ,62, ,
2, ,61, ,
2, ,62, ,
2, ,61, ,
3, ,62, ,
2, ,62, ,
2, ,61, ,
2, ,61, ,
2, ,62, ,
2, ,61, ,
3, ,62, ,
2, ,62, ,
2, ,61, ,
3, ,61, ,
2, ,62, ,
1, ,61, ,
3, ,62, ,
2, ,62, ,
2, ,61, ,
3, ,61, ,
2, ,62, ,
2, ,60, ,
3, ,62, ,
2, ,63, ,
2, ,61, ,
3, ,61, ,
6, ,62, ,
7, ,61, ,
7, ,62, ,
5, ,62, ,
5, ,61, ,
5, ,61, ,
3, ,63, ,
2, ,60, ,
5, ,59, ,
2, ,43, ,
2, ,23, ,
2, ,9, ,
2, ,-1, ,
1, ,-9, ,
3, ,-15, ,
2, ,-19, ,
2, ,-22, ,
3, ,-24, ,
2, ,-26, ,
2, ,-28, ,
3, ,-28, ,
2, ,-30, ,
2, ,-31, ,
3, ,-31, ,
3, ,-32, ,
1, ,-31, ,
3, ,-32, ,
2, ,-32, ,
2, ,-32, ,
3, ,-32, ,
2, ,-32, ,
1, ,-32, ,
3, ,-32, ,
2, ,-32, ,
2, ,-32, ,
3, ,-32, ,
3, ,-32, ,
2, ,-32, ,
3, ,-32, ,
2, ,-32, ,
2, ,-32, ,
2, ,-32, ,
3, ,-32, ,
1, ,-31, ,
2, ,-32, ,
2, ,-32, ,
2, ,-32, ,
2, ,-32, ,
2, ,-32, ,
1, ,-32, ,
2, ,-31, ,
2, ,-32, ,
2, ,-31, ,
2, ,-32, ,
3, ,-32, ,
1, ,-31, ,
3, ,-31, ,
2, ,-32, ,
2, ,-32, ,
2, ,-32, ,
2, ,-32, ,
1, ,-31, ,
2, ,-32, ,
2, ,-32, ,
2, ,-32, ,
2, ,-32, ,
3, ,-31, ,
1, ,-32, ,
2, ,-31, ,
2, ,-32, ,
2, ,-31, ,
2, ,-31, ,
2, ,-32, ,
1, ,-32, ,
2, ,-31, ,
2, ,-32, ,
2, ,-32, ,
2, ,-32, ,
2, ,-32, ,
1, ,-31, ,
2, ,-31, ,
2, ,-32, ,
2, ,-32, ,
3, ,-31, ,
2, ,-32, ,
1, ,-31, ,
2, ,-31, ,
2, ,-32, ,
2, ,-32, ,
2, ,-32, ,
2, ,-32, ,
1, ,-31, ,
2, ,-31, ,
2, ,-31, ,
2, ,-31, ,
2, ,-31, ,
2, ,-31, ,
1, ,-31, ,
3, ,-31, ,
1, ,-32, ,
2, ,-31, ,
2, ,-32, ,
2, ,-31, ,
1, ,-31, ,
2, ,-31, ,
1, ,-31, ,
2, ,-32, ,
2, ,-32, ,
2, ,-32, ,
1, ,-31, ,
2, ,-31, ,
2, ,-31, ,
2, ,-31, ,
2, ,-32, ,
2, ,-32, ,
1, ,-31, ,
2, ,-31, ,
2, ,-31, ,
2, ,-31, ,
2, ,-31, ,
2, ,-32, ,
1, ,-31, ,
2, ,-31, ,
2, ,-32, ,
2, ,-31, ,
2, ,-31, ,
2, ,-32, ,
1, ,-31, ,
2, ,-31, ,
2, ,-32, ,
2, ,-31, ,
2, ,-31, ,
2, ,-31, ,
1, ,-31, ,
2, ,-31, ,
2, ,-31, ,
2, ,-31, ,
2, ,-31, ,
2, ,-32, ,
1, ,-31, ,
2, ,-31, ,
2, ,-32, ,
1, ,-31, ,
2, ,-31, ,
2, ,-31, ,
1, ,-31, ,
2, ,-31, ,
2, ,-32, ,
2, ,-31, ,
2, ,-31, ,
2, ,-31, ,
1, ,-31, ,
2, ,-31, ,
2, ,-32, ,
2, ,-31, ,
2, ,-31, ,
2, ,-31, ,
1, ,-31, ,
2, ,-32, ,
2, ,-32, ,
1, ,-31, ,
2, ,-31, ,
2, ,-32, ,
1, ,-31, ,
2, ,-31, ,
2, ,-31, ,
2, ,-31, ,
2, ,-31, ,
2, ,-31, ,
1, ,-31, ,
2, ,-31, ,
1, ,-32, ,
1, ,-31, ,
2, ,-31, ,
2, ,-32, ,
1, ,-31, ,
2, ,-31, ,
1, ,-31, ,
2, ,-31, ,
2, ,-31, ,
2, ,-32, ,
1, ,-31, ,
2, ,-31, ,
1, ,-31, ,
2, ,-31, ,
2, ,-31, ,
2, ,-31, ,
1, ,-31, ,
2, ,-31, ,
1, ,-31, ,
1, ,-31, ,
2, ,-31, ,
2, ,-32, ,
1, ,-31, ,
2, ,-31, ,
1, ,-31, ,
2, ,-31, ,
2, ,-31, ,
2, ,-31, ,
1, ,-31, ,
2, ,-31, ,
1, ,-31, ,
2, ,-31, ,
2, ,-31, ,
2, ,-31, ,
1, ,-31, ,
2, ,-31, ,
1, ,-31, ,
2, ,-31, ,
2, ,-31, ,
2, ,-31, ,
1, ,-31, ,
2, ,-31, ,
1, ,-31, ,
2, ,-31, ,
2, ,-31, ,
2, ,-32, ,
1, ,-31, ,
2, ,-31, ,
1, ,-31, ,
2, ,-31, ,
2, ,-31, ,
2, ,-31, ,
1, ,-31, ,
2, ,-31, ,
1, ,-31, ,
1, ,-31, ,
2, ,-31, ,
2, ,-31, ,
1, ,-31, ,
2, ,-31, ,
1, ,-31, ,
2, ,-31, ,
2, ,-31, ,
2, ,-31, ,
1, ,-31, ,
2, ,-31, ,
1, ,-31, ,
1, ,-31, ,
2, ,-31, ,
2, ,-31, ,
1, ,-31, ,
2, ,-31, ,
1, ,-31, ,
1, ,-31, ,
2, ,-31, ,
1, ,-32, ,
1, ,-32, ,
2, ,-31, ,
1, ,-31, ,
1, ,-31, ,
2, ,-31, ,
2, ,-32, ,
1, ,-31, ,
2, ,-31, ,
1, ,-31, ,
1, ,-31, ,
2, ,-31, ,
2, ,-32, ,
1, ,-31, ,
2, ,-31, ,
1, ,-32, ,
1, ,-32, ,
2, ,-31, ,
1, ,-31, ,
1, ,-31, ,
2, ,-31, ,
1, ,-32, ,
1, ,-31, ,
2, ,-31, ,
2, ,-32, ,
1, ,-32, ,
2, ,-31, ,
1, ,-31, ,
1, ,-31, ,
2, ,-31, ,
2, ,-32, ,
1, ,-31, ,
2, ,-31, ,
1, ,-32, ,
1, ,-31, ,
2, ,-31, ,
2, ,-31, ,
1, ,-31, ,
2, ,-31, ,
1, ,-31, ,
1, ,-32, ,
2, ,-31, ,
2, ,-32, ,
1, ,-31, ,
2, ,-31, ,
1, ,-32, ,
1, ,-31, ,
2, ,-31, ,
1, ,-32, ,
1, ,-31, ,
2, ,-31, ,
1, ,-32, ,
1, ,-32, ,
2, ,-31, ,
2, ,-31, ,
1, ,-31, ,
2, ,-31, ,
1, ,-32, ,
1, ,-31, ,
2, ,-31, ,
2, ,-31, ,
1, ,-31, ,
2, ,-31, ,
1, ,-32, ,
1, ,-31, ,
2, ,-31, ,
2, ,-32, ,
1, ,-31, ,
2, ,-31, ,
1, ,-32, ,
1, ,-31, ,
2, ,-31, ,
2, ,-31, ,
-1, ,-31, ,
2, ,-31, ,
1, ,-31, ,
1, ,-31, ,
2, ,-31, ,
1, ,-32, ,
1, ,-31, ,
2, ,-31, ,
1, ,-32, ,
1, ,-31, ,
2, ,-31, ,
1, ,-32, ,
1, ,-31, ,
1, ,-31, ,
1, ,-31, ,
1, ,-32, ,
2, ,-31, ,
1, ,-32, ,
-1, ,-31, ,
2, ,-31, ,
1, ,-31, ,
2, ,-31, ,
2, ,-31, ,
2, ,-31, ,
-1, ,-31, ,
1, ,-31, ,
1, ,-32, ,
1, ,-31, ,
2, ,-31, ,
1, ,-32, ,
-1, ,-31, ,
2, ,-31, ,
1, ,-31, ,
1, ,-31, ,
2, ,-32, ,
2, ,-31, ,
-1, ,-31, ,
2, ,-31, ,
1, ,-31, ,
1, ,-31, ,
2, ,-31, ,
1, ,-32, ,
-1, ,-31, ,
1, ,-31, ,
1, ,-32, ,
1, ,-31, ,
2, ,-31, ,
1, ,-31, ,
1, ,-31, ,
2, ,-31, ,
1, ,-32, ,
1, ,-31, ,
2, ,-31, ,
1, ,-32, ,
1, ,-31, ,
2, ,-31, ,
1, ,-31, ,
1, ,-31, ,
2, ,-31, ,
1, ,-31, ,
-1, ,-31, ,
2, ,-31, ,
1, ,-31, ,
1, ,-32, ,
2, ,-32, ,
2, ,-32, ,
1, ,-31, ,
2, ,-31, ,
1, ,-32, ,
1, ,-31, ,
2, ,-31, ,
1, ,-31, ,
-1, ,-31, ,
2, ,-31, ,
1, ,-31, ,
1, ,-31, ,
2, ,-31, ,
1, ,-31, ,
1, ,-31, ,
2, ,-31, ,
1, ,-31, ,
1, ,-31, ,
2, ,-31, ,
2, ,-31, ,
-1, ,-31, ,
2, ,-31, ,
1, ,-32, ,
1, ,-31, ,
2, ,-31, ,
1, ,-32, ,
1, ,-31, ,
1, ,-31, ,
1, ,-31, ,
1, ,-31, ,
2, ,-31, ,
1, ,-31, ,
-1, ,-31, ,
2, ,-31, ,
1, ,-32, ,
1, ,-31, ,
2, ,-32, ,
1, ,-31, ,
1, ,-31, ,
2, ,-31, ,
1, ,-31, ,
1, ,-31, ,
2, ,-31, ,
1, ,-31, ,
-1, ,-31, ,
1, ,-31, ,
1, ,-32, ,
1, ,-32, ,
2, ,-32, ,
1, ,-32, ,
1, ,-31, ,
2, ,-31, ,
1, ,-31, ,
1, ,-31, ,
2, ,-31, ,
1, ,-31, ,
1, ,-31, ,
2, ,-31, ,
1, ,-31, ,
1, ,-31, ,
2, ,-31, ,
1, ,-31, ,
1, ,-31, ,
2, ,-31, ,
1, ,-31, ,
1, ,-31, ,
2, ,-31, ,
1, ,-32, ,
1, ,-31, ,
2, ,-31, ,
1, ,-31, ,
1, ,-32, ,
2, ,-31, ,
1, ,-32, ,
-1, ,-31, ,
2, ,-32, ,
1, ,-32, ,
1, ,-31, ,
2, ,-31, ,
1, ,-31, ,
-1, ,-31, ,
2, ,-31, ,
1, ,-31, ,
1, ,-31, ,
2, ,-31, ,
1, ,-32, ,
-1, ,-32, ,
1, ,-31, ,
1, ,-32, ,
1, ,-31, ,
2, ,-31, ,
1, ,-31, ,
-1, ,-31, ,
1, ,-31, ,
1, ,-31, ,
1, ,-32, ,
2, ,-31, ,
1, ,-32, ,
-1, ,-31, ,
1, ,-31, ,
1, ,-31, ,
1, ,-31, ,
2, ,-31, ,
1, ,-32, ,
-1, ,-31, ,
1, ,-31, ,
1, ,-31, ,
1, ,-31, ,
1, ,-31, ,
1, ,-32, ,
-1, ,-31, ,
1, ,-31, ,
1, ,-31, ,
1, ,-31, ,
2, ,-31, ,
1, ,-31, ,
-1, ,-31, ,
2, ,-31, ,
1, ,-32, ,
1, ,-32, ,
1, ,-31, ,
1, ,-32, ,
-1, ,-31, ,
1, ,-31, ,
-1, ,-31, ,
68, ,-31, ,
43, ,-31, ,
