src/varyamp_1558/temp0000461.CSV

Format,1.0B,
Memory Length,10000,Memory Length,10000,
IntpDistance,0,IntpDistance,0,
Trigger Address,4999,Trigger Address,4999,
Trigger Level,1.040E+00,Trigger Level,1.040E+00,
Source,CH1,Source,CH2,
Vertical Units,V,Vertical Units,V,
Vertical Units Div,0,Vertical Units Div,0,
Vertical Units Extend Div,16,Vertical Units Extend Div,16,
Label,,Label,,
Probe Type,0,Probe Type,0,
Probe Ratio,1.000e+01,Probe Ratio,1.000e+00,
Vertical Scale,5.000e-01,Vertical Scale,1.000e+00,
Vertical Position,-1.820e+00,Vertical Position,0.000e+00,
Horizontal Units,S,Horizontal Units,S,
Horizontal Scale,2.000E-05,Horizontal Scale,2.000E-05,
Horizontal Position,0.000E+00,Horizontal Position,0.000E+00,
Horizontal Mode,Main,Horizontal Mode,Main,
SincET Mode,Real Time,SincET Mode,Real Time,
Sampling Period,2.000e-08,Sampling Period,2.000e-08,
Horizontal Old Scale,2.000E-05,Horizontal Old Scale,2.000E-05,
Horizontal Old Position,0.000E+00,Horizontal Old Position,0.000E+00,
Firmware,V1.23,Firmware,V1.23,
Mode,Fast,Mode,Fast,
Waveform Data,,Waveform Data,,
1, ,-34, ,
2, ,-35, ,
1, ,-35, ,
-1, ,-35, ,
2, ,-35, ,
1, ,-35, ,
1, ,-34, ,
2, ,-35, ,
1, ,-35, ,
-1, ,-35, ,
2, ,-34, ,
1, ,-35, ,
1, ,-34, ,
2, ,-35, ,
2, ,-34, ,
-1, ,-35, ,
2, ,-35, ,
1, ,-35, ,
1, ,-35, ,
2, ,-35, ,
1, ,-35, ,
-1, ,-35, ,
2, ,-35, ,
1, ,-35, ,
1, ,-35, ,
2, ,-35, ,
1, ,-35, ,
-1, ,-35, ,
2, ,-35, ,
1, ,-35, ,
1, ,-34, ,
2, ,-35, ,
1, ,-35, ,
-1, ,-35, ,
2, ,-35, ,
1, ,-35, ,
1, ,-35, ,
2, ,-35, ,
1, ,-35, ,
-1, ,-35, ,
2, ,-35, ,
1, ,-35, ,
1, ,-35, ,
1, ,-35, ,
1, ,-35, ,
-1, ,-35, ,
2, ,-35, ,
1, ,-35, ,
1, ,-35, ,
1, ,-35, ,
1, ,-34, ,
-1, ,-35, ,
2, ,-35, ,
1, ,-35, ,
1, ,-35, ,
2, ,-35, ,
1, ,-35, ,
-1, ,-35, ,
2, ,-35, ,
1, ,-35, ,
1, ,-35, ,
1, ,-35, ,
1, ,-35, ,
-1, ,-35, ,
1, ,-35, ,
1, ,-34, ,
1, ,-34, ,
1, ,-35, ,
1, ,-35, ,
-1, ,-35, ,
2, ,-35, ,
1, ,-35, ,
1, ,-34, ,
1, ,-35, ,
1, ,-34, ,
-1, ,-35, ,
2, ,-35, ,
1, ,-35, ,
1, ,-34, ,
1, ,-35, ,
1, ,-35, ,
-1, ,-35, ,
2, ,-35, ,
-1, ,-35, ,
1, ,-35, ,
2, ,-35, ,
1, ,-35, ,
-1, ,-35, ,
2, ,-35, ,
1, ,-34, ,
1, ,-34, ,
2, ,-35, ,
1, ,-35, ,
-1, ,-35, ,
2, ,-35, ,
1, ,-35, ,
1, ,-34, ,
2, ,-35, ,
1, ,-35, ,
-1, ,-35, ,
2, ,-35, ,
-1, ,-35, ,
1, ,-34, ,
1, ,-35, ,
1, ,-35, ,
-1, ,-35, ,
2, ,-35, ,
-1, ,-35, ,
1, ,-34, ,
1, ,-35, ,
1, ,-35, ,
-1, ,-35, ,
2, ,-35, ,
1, ,-34, ,
1, ,-34, ,
1, ,-34, ,
2, ,-35, ,
-1, ,-35, ,
1, ,-35, ,
1, ,-35, ,
1, ,-34, ,
1, ,-35, ,
1, ,-35, ,
-1, ,-35, ,
2, ,-35, ,
1, ,-35, ,
1, ,-34, ,
1, ,-35, ,
1, ,-35, ,
-1, ,-35, ,
1, ,-35, ,
1, ,-35, ,
1, ,-35, ,
2, ,-35, ,
1, ,-35, ,
-1, ,-35, ,
1, ,-35, ,
1, ,-35, ,
1, ,-34, ,
2, ,-34, ,
1, ,-35, ,
-1, ,-35, ,
1, ,-35, ,
-1, ,-35, ,
1, ,-35, ,
1, ,-35, ,
1, ,-35, ,
-1, ,-35, ,
1, ,-35, ,
1, ,-35, ,
1, ,-34, ,
2, ,-35, ,
1, ,-35, ,
-1, ,-35, ,
2, ,-35, ,
1, ,-35, ,
1, ,-34, ,
1, ,-35, ,
1, ,-35, ,
-1, ,-35, ,
2, ,-35, ,
1, ,-35, ,
1, ,-34, ,
1, ,-35, ,
1, ,-35, ,
-1, ,-35, ,
2, ,-35, ,
1, ,-35, ,
1, ,-35, ,
2, ,-35, ,
1, ,-35, ,
-1, ,-35, ,
1, ,-35, ,
1, ,-35, ,
1, ,-34, ,
1, ,-35, ,
1, ,-35, ,
-1, ,-35, ,
1, ,-35, ,
1, ,-35, ,
1, ,-34, ,
1, ,-35, ,
1, ,-35, ,
-1, ,-35, ,
1, ,-35, ,
1, ,-35, ,
1, ,-34, ,
1, ,-35, ,
1, ,-35, ,
-1, ,-35, ,
2, ,-35, ,
1, ,-35, ,
1, ,-35, ,
1, ,-35, ,
1, ,-35, ,
-1, ,-35, ,
1, ,-35, ,
1, ,-35, ,
1, ,-34, ,
1, ,-35, ,
1, ,-35, ,
-1, ,-35, ,
1, ,-34, ,
1, ,-35, ,
1, ,-35, ,
1, ,-35, ,
2, ,-35, ,
-1, ,-35, ,
1, ,-35, ,
-1, ,-35, ,
1, ,-35, ,
1, ,-35, ,
1, ,-35, ,
-1, ,-35, ,
1, ,-35, ,
1, ,-35, ,
1, ,-34, ,
1, ,-35, ,
1, ,-35, ,
-1, ,-35, ,
1, ,-35, ,
-1, ,-35, ,
1, ,-35, ,
1, ,-35, ,
1, ,-35, ,
-1, ,-35, ,
1, ,-35, ,
-1, ,-35, ,
1, ,-35, ,
1, ,-35, ,
2, ,-35, ,
-1, ,-35, ,
1, ,-35, ,
1, ,-35, ,
1, ,-34, ,
1, ,-35, ,
1, ,-35, ,
-1, ,-35, ,
1, ,-35, ,
1, ,-35, ,
1, ,-34, ,
1, ,-35, ,
1, ,-35, ,
-1, ,-35, ,
1, ,-35, ,
-1, ,-35, ,
1, ,-35, ,
1, ,-35, ,
1, ,-35, ,
-1, ,-35, ,
1, ,-35, ,
1, ,-35, ,
1, ,-35, ,
1, ,-35, ,
1, ,-35, ,
-1, ,-35, ,
1, ,-35, ,
-1, ,-35, ,
1, ,-35, ,
1, ,-35, ,
1, ,-35, ,
-1, ,-35, ,
1, ,-35, ,
-1, ,-35, ,
-1, ,-35, ,
1, ,-35, ,
1, ,-35, ,
-1, ,-35, ,
1, ,-35, ,
1, ,-35, ,
1, ,-34, ,
1, ,-35, ,
1, ,-35, ,
-1, ,-35, ,
1, ,-35, ,
-1, ,-35, ,
1, ,-35, ,
1, ,-35, ,
1, ,-35, ,
-1, ,-35, ,
1, ,-35, ,
1, ,-35, ,
1, ,-35, ,
1, ,-35, ,
1, ,-35, ,
-1, ,-35, ,
2, ,-35, ,
1, ,-35, ,
1, ,-35, ,
1, ,-35, ,
1, ,-35, ,
-1, ,-35, ,
1, ,-35, ,
1, ,-35, ,
1, ,-35, ,
1, ,-35, ,
1, ,-35, ,
-1, ,-35, ,
1, ,-35, ,
1, ,-35, ,
1, ,-34, ,
1, ,-35, ,
1, ,-35, ,
-1, ,-35, ,
1, ,-35, ,
1, ,-35, ,
1, ,-35, ,
1, ,-35, ,
1, ,-22, ,
-1, ,-3, ,
2, ,14, ,
1, ,25, ,
1, ,34, ,
1, ,40, ,
2, ,45, ,
-1, ,49, ,
2, ,52, ,
1, ,54, ,
1, ,55, ,
2, ,57, ,
1, ,56, ,
-1, ,57, ,
2, ,58, ,
1, ,58, ,
1, ,58, ,
1, ,59, ,
-1, ,59, ,
-1, ,59, ,
1, ,59, ,
1, ,59, ,
-1, ,59, ,
1, ,59, ,
1, ,59, ,
-1, ,59, ,
1, ,59, ,
66, ,59, ,
63, ,59, ,
38, ,59, ,
24, ,58, ,
15, ,59, ,
11, ,59, ,
7, ,58, ,
6, ,59, ,
6, ,59, ,
3, ,58, ,
2, ,59, ,
3, ,59, ,
2, ,59, ,
2, ,59, ,
3, ,59, ,
3, ,58, ,
2, ,58, ,
3, ,58, ,
2, ,58, ,
2, ,58, ,
3, ,59, ,
2, ,58, ,
1, ,58, ,
3, ,59, ,
2, ,59, ,
2, ,58, ,
3, ,59, ,
2, ,58, ,
1, ,58, ,
3, ,58, ,
2, ,58, ,
2, ,58, ,
2, ,59, ,
2, ,58, ,
1, ,58, ,
3, ,59, ,
2, ,58, ,
2, ,58, ,
3, ,59, ,
2, ,58, ,
1, ,58, ,
3, ,59, ,
2, ,58, ,
2, ,58, ,
3, ,59, ,
2, ,58, ,
1, ,58, ,
3, ,59, ,
2, ,59, ,
2, ,58, ,
2, ,59, ,
2, ,58, ,
1, ,58, ,
3, ,59, ,
2, ,58, ,
2, ,58, ,
3, ,59, ,
2, ,58, ,
1, ,58, ,
3, ,58, ,
2, ,58, ,
2, ,58, ,
2, ,59, ,
2, ,58, ,
1, ,58, ,
2, ,59, ,
2, ,58, ,
2, ,58, ,
2, ,59, ,
2, ,58, ,
1, ,58, ,
3, ,59, ,
2, ,58, ,
1, ,58, ,
2, ,59, ,
2, ,58, ,
1, ,58, ,
3, ,58, ,
2, ,58, ,
1, ,58, ,
2, ,59, ,
2, ,58, ,
1, ,58, ,
2, ,58, ,
1, ,58, ,
1, ,58, ,
2, ,59, ,
2, ,58, ,
1, ,58, ,
3, ,58, ,
2, ,58, ,
2, ,58, ,
2, ,59, ,
2, ,58, ,
1, ,58, ,
3, ,59, ,
1, ,59, ,
1, ,58, ,
2, ,58, ,
2, ,58, ,
1, ,58, ,
3, ,58, ,
2, ,58, ,
2, ,58, ,
2, ,59, ,
2, ,58, ,
1, ,58, ,
3, ,59, ,
2, ,58, ,
2, ,58, ,
2, ,59, ,
2, ,58, ,
1, ,58, ,
2, ,58, ,
2, ,58, ,
2, ,58, ,
2, ,59, ,
2, ,58, ,
1, ,58, ,
2, ,59, ,
1, ,58, ,
1, ,58, ,
2, ,59, ,
2, ,58, ,
1, ,58, ,
2, ,58, ,
2, ,58, ,
1, ,54, ,
2, ,35, ,
1, ,17, ,
1, ,3, ,
2, ,-6, ,
1, ,-14, ,
1, ,-20, ,
3, ,-23, ,
2, ,-26, ,
1, ,-28, ,
2, ,-31, ,
1, ,-32, ,
2, ,-33, ,
2, ,-34, ,
2, ,-34, ,
1, ,-35, ,
2, ,-35, ,
1, ,-35, ,
1, ,-35, ,
2, ,-36, ,
2, ,-35, ,
1, ,-35, ,
2, ,-35, ,
1, ,-35, ,
2, ,-35, ,
2, ,-35, ,
2, ,-36, ,
1, ,-35, ,
2, ,-35, ,
1, ,-35, ,
2, ,-35, ,
2, ,-35, ,
2, ,-35, ,
1, ,-35, ,
2, ,-35, ,
1, ,-35, ,
1, ,-35, ,
2, ,-35, ,
2, ,-35, ,
1, ,-35, ,
2, ,-35, ,
1, ,-35, ,
2, ,-35, ,
3, ,-35, ,
2, ,-35, ,
1, ,-35, ,
2, ,-35, ,
1, ,-35, ,
1, ,-35, ,
2, ,-35, ,
2, ,-35, ,
1, ,-35, ,
2, ,-35, ,
1, ,-35, ,
2, ,-35, ,
2, ,-35, ,
2, ,-35, ,
1, ,-35, ,
2, ,-35, ,
1, ,-35, ,
1, ,-35, ,
2, ,-35, ,
2, ,-35, ,
1, ,-35, ,
2, ,-35, ,
1, ,-35, ,
1, ,-35, ,
2, ,-35, ,
2, ,-35, ,
1, ,-35, ,
2, ,-35, ,
2, ,-35, ,
2, ,-35, ,
2, ,-35, ,
2, ,-35, ,
1, ,-35, ,
2, ,-35, ,
1, ,-35, ,
1, ,-35, ,
2, ,-35, ,
2, ,-35, ,
1, ,-35, ,
2, ,-35, ,
1, ,-35, ,
1, ,-35, ,
2, ,-35, ,
2, ,-35, ,
1, ,-35, ,
2, ,-35, ,
1, ,-35, ,
2, ,-35, ,
2, ,-35, ,
2, ,-35, ,
1, ,-35, ,
2, ,-35, ,
2, ,-35, ,
2, ,-35, ,
2, ,-35, ,
2, ,-35, ,
1, ,-35, ,
2, ,-35, ,
1, ,-35, ,
2, ,-35, ,
2, ,-35, ,
2, ,-35, ,
1, ,-35, ,
2, ,-35, ,
1, ,-35, ,
2, ,-35, ,
2, ,-35, ,
2, ,-35, ,
1, ,-35, ,
2, ,-35, ,
1, ,-35, ,
1, ,-35, ,
2, ,-35, ,
2, ,-35, ,
1, ,-35, ,
2, ,-35, ,
1, ,-35, ,
2, ,-35, ,
2, ,-35, ,
2, ,-35, ,
1, ,-34, ,
2, ,-35, ,
1, ,-35, ,
2, ,-34, ,
2, ,-35, ,
1, ,-35, ,
1, ,-35, ,
2, ,-35, ,
1, ,-35, ,
1, ,-35, ,
2, ,-35, ,
2, ,-35, ,
1, ,-35, ,
2, ,-35, ,
1, ,-35, ,
2, ,-35, ,
2, ,-35, ,
2, ,-35, ,
1, ,-35, ,
2, ,-35, ,
1, ,-35, ,
2, ,-35, ,
2, ,-35, ,
2, ,-35, ,
1, ,-35, ,
2, ,-35, ,
1, ,-35, ,
1, ,-35, ,
2, ,-35, ,
2, ,-34, ,
1, ,-35, ,
2, ,-35, ,
1, ,-35, ,
1, ,-35, ,
2, ,-35, ,
1, ,-35, ,
1, ,-34, ,
2, ,-35, ,
1, ,-35, ,
1, ,-35, ,
2, ,-35, ,
2, ,-35, ,
1, ,-35, ,
2, ,-35, ,
1, ,-35, ,
1, ,-35, ,
2, ,-35, ,
1, ,-35, ,
1, ,-35, ,
2, ,-35, ,
1, ,-35, ,
1, ,-35, ,
2, ,-35, ,
1, ,-35, ,
-1, ,-35, ,
2, ,-35, ,
1, ,-34, ,
1, ,-35, ,
1, ,-35, ,
1, ,-35, ,
-1, ,-35, ,
2, ,-35, ,
1, ,-35, ,
1, ,-35, ,
2, ,-35, ,
2, ,-35, ,
-1, ,-35, ,
2, ,-35, ,
1, ,-35, ,
1, ,-35, ,
2, ,-35, ,
1, ,-35, ,
-1, ,-35, ,
2, ,-35, ,
1, ,-35, ,
1, ,-35, ,
2, ,-35, ,
1, ,-35, ,
-1, ,-35, ,
2, ,-35, ,
1, ,-35, ,
1, ,-35, ,
2, ,-35, ,
1, ,-35, ,
-1, ,-35, ,
2, ,-35, ,
1, ,-35, ,
1, ,-35, ,
1, ,-35, ,
2, ,-35, ,
1, ,-35, ,
2, ,-35, ,
1, ,-35, ,
1, ,-35, ,
1, ,-35, ,
1, ,-35, ,
-1, ,-35, ,
2, ,-35, ,
1, ,-35, ,
1, ,-35, ,
1, ,-35, ,
1, ,-35, ,
-1, ,-35, ,
2, ,-35, ,
1, ,-35, ,
1, ,-35, ,
1, ,-35, ,
1, ,-35, ,
-1, ,-34, ,
2, ,-35, ,
1, ,-35, ,
1, ,-35, ,
2, ,-35, ,
2, ,-35, ,
-1, ,-35, ,
2, ,-35, ,
1, ,-35, ,
1, ,-35, ,
1, ,-35, ,
2, ,-35, ,
1, ,-35, ,
2, ,-35, ,
1, ,-35, ,
1, ,-34, ,
2, ,-35, ,
1, ,-35, ,
-1, ,-35, ,
2, ,-35, ,
1, ,-35, ,
1, ,-35, ,
2, ,-34, ,
1, ,-35, ,
-1, ,-35, ,
2, ,-35, ,
1, ,-35, ,
1, ,-35, ,
2, ,-35, ,
1, ,-35, ,
-1, ,-35, ,
2, ,-35, ,
1, ,-35, ,
1, ,-35, ,
2, ,-35, ,
1, ,-35, ,
1, ,-35, ,
2, ,-34, ,
1, ,-35, ,
1, ,-35, ,
2, ,-35, ,
1, ,-35, ,
-1, ,-35, ,
2, ,-35, ,
1, ,-35, ,
1, ,-35, ,
1, ,-35, ,
1, ,-35, ,
-1, ,-35, ,
1, ,-35, ,
1, ,-35, ,
1, ,-35, ,
2, ,-35, ,
2, ,-35, ,
-1, ,-35, ,
2, ,-35, ,
1, ,-35, ,
1, ,-35, ,
2, ,-35, ,
1, ,-35, ,
-1, ,-34, ,
2, ,-35, ,
1, ,-35, ,
1, ,-35, ,
2, ,-35, ,
1, ,-35, ,
-1, ,-35, ,
1, ,-35, ,
1, ,-35, ,
1, ,-35, ,
1, ,-35, ,
1, ,-35, ,
-1, ,-35, ,
1, ,-35, ,
1, ,-35, ,
1, ,-35, ,
1, ,-35, ,
1, ,-35, ,
-1, ,-35, ,
2, ,-35, ,
1, ,-35, ,
1, ,-35, ,
2, ,-35, ,
2, ,-35, ,
-1, ,-35, ,
2, ,-34, ,
1, ,-35, ,
1, ,-35, ,
2, ,-35, ,
1, ,-35, ,
-1, ,-35, ,
2, ,-35, ,
1, ,-35, ,
1, ,-35, ,
1, ,-35, ,
1, ,-35, ,
-1, ,-35, ,
2, ,-35, ,
1, ,-35, ,
1, ,-35, ,
1, ,-35, ,
2, ,-35, ,
-1, ,-35, ,
2, ,-35, ,
1, ,-35, ,
1, ,-35, ,
1, ,-35, ,
1, ,-35, ,
-1, ,-35, ,
1, ,-35, ,
1, ,-35, ,
1, ,-34, ,
1, ,-35, ,
1, ,-35, ,
-1, ,-35, ,
69, ,-35, ,
48, ,-34, ,
29, ,-35, ,
20, ,-35, ,
12, ,-35, ,
8, ,-34, ,
7, ,-35, ,
5, ,-35, ,
3, ,-35, ,
5, ,-35, ,
3, ,-35, ,
2, ,-35, ,
5, ,-35, ,
2, ,-35, ,
2, ,-35, ,
3, ,-35, ,
2, ,-35, ,
1, ,-35, ,
3, ,-34, ,
2, ,-35, ,
2, ,-35, ,
3, ,-35, ,
3, ,-35, ,
1, ,-35, ,
3, ,-35, ,
2, ,-35, ,
2, ,-35, ,
3, ,-35, ,
3, ,-35, ,
1, ,-34, ,
3, ,-35, ,
2, ,-35, ,
2, ,-35, ,
3, ,-35, ,
3, ,-35, ,
1, ,-35, ,
3, ,-35, ,
2, ,-35, ,
2, ,-35, ,
3, ,-35, ,
3, ,-35, ,
1, ,-35, ,
3, ,-35, ,
2, ,-35, ,
2, ,-35, ,
2, ,-35, ,
3, ,-35, ,
1, ,-35, ,
3, ,-35, ,
2, ,-35, ,
2, ,-35, ,
2, ,-35, ,
3, ,-35, ,
1, ,-35, ,
3, ,-35, ,
2, ,-35, ,
2, ,-34, ,
3, ,-35, ,
2, ,-35, ,
1, ,-35, ,
3, ,-35, ,
2, ,-35, ,
2, ,-35, ,
2, ,-35, ,
3, ,-35, ,
1, ,-35, ,
3, ,-35, ,
2, ,-35, ,
2, ,-34, ,
2, ,-35, ,
2, ,-35, ,
1, ,-35, ,
3, ,-35, ,
2, ,-35, ,
2, ,-35, ,
2, ,-34, ,
3, ,-35, ,
1, ,-35, ,
2, ,-35, ,
2, ,-35, ,
1, ,-34, ,
2, ,-35, ,
2, ,-35, ,
1, ,-35, ,
3, ,-35, ,
2, ,-35, ,
2, ,-35, ,
2, ,-35, ,
2, ,-35, ,
1, ,-35, ,
2, ,-35, ,
2, ,-35, ,
2, ,-35, ,
2, ,-35, ,
2, ,-35, ,
1, ,-35, ,
2, ,-35, ,
2, ,-35, ,
2, ,-35, ,
2, ,-35, ,
2, ,-35, ,
1, ,-35, ,
2, ,-35, ,
2, ,-35, ,
2, ,-35, ,
2, ,-35, ,
2, ,-35, ,
1, ,-35, ,
3, ,-35, ,
2, ,-35, ,
2, ,-35, ,
2, ,-35, ,
2, ,-35, ,
1, ,-34, ,
3, ,-35, ,
1, ,-35, ,
2, ,-35, ,
2, ,-35, ,
2, ,-35, ,
1, ,-35, ,
2, ,-35, ,
1, ,-35, ,
2, ,-35, ,
2, ,-35, ,
2, ,-35, ,
1, ,-35, ,
2, ,-35, ,
2, ,-35, ,
2, ,-35, ,
2, ,-35, ,
2, ,-35, ,
1, ,-35, ,
3, ,-35, ,
2, ,-35, ,
2, ,-35, ,
2, ,-35, ,
2, ,-35, ,
1, ,-35, ,
2, ,-35, ,
2, ,-35, ,
1, ,-35, ,
3, ,-35, ,
2, ,-35, ,
1, ,-35, ,
2, ,-35, ,
2, ,-34, ,
2, ,-35, ,
2, ,-35, ,
2, ,-35, ,
1, ,-35, ,
2, ,-35, ,
1, ,-35, ,
1, ,-35, ,
2, ,-35, ,
2, ,-35, ,
1, ,-35, ,
2, ,-35, ,
1, ,-35, ,
2, ,-35, ,
2, ,-35, ,
2, ,-35, ,
1, ,-35, ,
3, ,-35, ,
2, ,-35, ,
2, ,-34, ,
2, ,-35, ,
2, ,-35, ,
1, ,-35, ,
2, ,-35, ,
2, ,-35, ,
2, ,-35, ,
2, ,-35, ,
2, ,-35, ,
1, ,-35, ,
2, ,-35, ,
2, ,-35, ,
1, ,-35, ,
2, ,-35, ,
2, ,-35, ,
1, ,-35, ,
2, ,-35, ,
1, ,-35, ,
2, ,-34, ,
2, ,-35, ,
2, ,-35, ,
1, ,-35, ,
3, ,-35, ,
1, ,-35, ,
2, ,-35, ,
2, ,-35, ,
2, ,-35, ,
1, ,-35, ,
2, ,-35, ,
1, ,-35, ,
2, ,-35, ,
2, ,-35, ,
2, ,-35, ,
1, ,-35, ,
2, ,-35, ,
1, ,-35, ,
1, ,-35, ,
2, ,-35, ,
2, ,-35, ,
1, ,-35, ,
2, ,-35, ,
1, ,-35, ,
2, ,-35, ,
2, ,-35, ,
2, ,-35, ,
1, ,-35, ,
2, ,-35, ,
1, ,-35, ,
2, ,-35, ,
2, ,-35, ,
2, ,-35, ,
1, ,-35, ,
2, ,-35, ,
1, ,-35, ,
1, ,-35, ,
2, ,-35, ,
2, ,-35, ,
1, ,-35, ,
2, ,-35, ,
1, ,-35, ,
1, ,-35, ,
2, ,-35, ,
2, ,-35, ,
1, ,-35, ,
2, ,-35, ,
1, ,-35, ,
1, ,-35, ,
2, ,-35, ,
2, ,-35, ,
1, ,-35, ,
2, ,-35, ,
1, ,-35, ,
1, ,-35, ,
2, ,-35, ,
2, ,-35, ,
1, ,-35, ,
2, ,-35, ,
1, ,-35, ,
1, ,-35, ,
2, ,-35, ,
2, ,-35, ,
-1, ,-35, ,
2, ,-35, ,
1, ,-35, ,
1, ,-34, ,
2, ,-35, ,
2, ,-35, ,
1, ,-35, ,
2, ,-35, ,
1, ,-35, ,
1, ,-35, ,
2, ,-35, ,
2, ,-35, ,
1, ,-35, ,
2, ,-35, ,
1, ,-35, ,
1, ,-35, ,
2, ,-35, ,
1, ,-35, ,
1, ,-35, ,
2, ,-35, ,
1, ,-35, ,
2, ,-35, ,
2, ,-35, ,
2, ,-35, ,
-1, ,-35, ,
2, ,-35, ,
1, ,-35, ,
2, ,-34, ,
2, ,-35, ,
2, ,-35, ,
1, ,-35, ,
2, ,-35, ,
1, ,-35, ,
1, ,-35, ,
2, ,-35, ,
2, ,-35, ,
1, ,-26, ,
2, ,-6, ,
1, ,11, ,
2, ,22, ,
2, ,32, ,
2, ,39, ,
1, ,44, ,
2, ,47, ,
1, ,51, ,
1, ,53, ,
2, ,55, ,
1, ,56, ,
1, ,57, ,
2, ,58, ,
1, ,58, ,
1, ,58, ,
2, ,59, ,
1, ,59, ,
1, ,59, ,
2, ,58, ,
1, ,59, ,
1, ,59, ,
2, ,59, ,
1, ,59, ,
1, ,59, ,
2, ,59, ,
1, ,59, ,
1, ,59, ,
2, ,59, ,
1, ,58, ,
-1, ,59, ,
2, ,59, ,
1, ,59, ,
1, ,59, ,
2, ,59, ,
1, ,58, ,
-1, ,58, ,
2, ,59, ,
1, ,59, ,
1, ,59, ,
2, ,59, ,
1, ,58, ,
-1, ,59, ,
2, ,59, ,
1, ,58, ,
1, ,58, ,
2, ,59, ,
1, ,58, ,
-1, ,58, ,
2, ,59, ,
1, ,58, ,
1, ,58, ,
2, ,59, ,
1, ,58, ,
-1, ,58, ,
2, ,58, ,
1, ,58, ,
1, ,58, ,
1, ,59, ,
1, ,58, ,
1, ,58, ,
2, ,59, ,
1, ,58, ,
1, ,59, ,
2, ,59, ,
1, ,58, ,
-1, ,58, ,
55, ,59, ,
35, ,58, ,
22, ,58, ,
16, ,59, ,
10, ,58, ,
7, ,58, ,
6, ,59, ,
3, ,58, ,
2, ,58, ,
3, ,59, ,
2, ,58, ,
1, ,58, ,
3, ,58, ,
2, ,58, ,
2, ,58, ,
2, ,59, ,
2, ,58, ,
1, ,58, ,
3, ,59, ,
2, ,58, ,
2, ,58, ,
2, ,59, ,
2, ,58, ,
1, ,58, ,
2, ,58, ,
2, ,58, ,
2, ,58, ,
3, ,59, ,
2, ,58, ,
1, ,58, ,
3, ,59, ,
2, ,58, ,
2, ,58, ,
2, ,59, ,
2, ,58, ,
1, ,58, ,
3, ,58, ,
2, ,58, ,
2, ,58, ,
2, ,59, ,
2, ,58, ,
1, ,58, ,
3, ,58, ,
2, ,58, ,
2, ,58, ,
3, ,59, ,
2, ,58, ,
1, ,58, ,
3, ,58, ,
2, ,58, ,
2, ,58, ,
3, ,59, ,
2, ,58, ,
1, ,58, ,
3, ,59, ,
2, ,58, ,
2, ,58, ,
2, ,59, ,
2, ,58, ,
1, ,58, ,
3, ,59, ,
2, ,58, ,
1, ,58, ,
3, ,59, ,
2, ,58, ,
1, ,58, ,
11, ,59, ,
13, ,58, ,
10, ,58, ,
8, ,59, ,
7, ,58, ,
5, ,58, ,
6, ,58, ,
3, ,58, ,
2, ,58, ,
3, ,59, ,
3, ,58, ,
1, ,58, ,
3, ,59, ,
2, ,58, ,
2, ,58, ,
3, ,59, ,
3, ,58, ,
1, ,58, ,
3, ,58, ,
2, ,58, ,
2, ,58, ,
3, ,58, ,
2, ,40, ,
1, ,21, ,
2, ,6, ,
2, ,-4, ,
2, ,-13, ,
2, ,-18, ,
2, ,-22, ,
2, ,-25, ,
3, ,-28, ,
2, ,-30, ,
2, ,-32, ,
3, ,-33, ,
3, ,-34, ,
1, ,-34, ,
3, ,-34, ,
2, ,-35, ,
2, ,-35, ,
2, ,-35, ,
3, ,-35, ,
1, ,-35, ,
3, ,-35, ,
2, ,-35, ,
2, ,-35, ,
2, ,-35, ,
3, ,-35, ,
1, ,-35, ,
3, ,-35, ,
2, ,-35, ,
2, ,-35, ,
2, ,-35, ,
2, ,-35, ,
1, ,-35, ,
3, ,-35, ,
2, ,-35, ,
2, ,-35, ,
2, ,-35, ,
2, ,-35, ,
1, ,-35, ,
3, ,-35, ,
2, ,-35, ,
2, ,-35, ,
2, ,-35, ,
3, ,-35, ,
1, ,-35, ,
3, ,-35, ,
2, ,-35, ,
2, ,-35, ,
2, ,-35, ,
2, ,-35, ,
1, ,-35, ,
3, ,-35, ,
2, ,-35, ,
2, ,-35, ,
2, ,-35, ,
3, ,-35, ,
1, ,-35, ,
3, ,-35, ,
1, ,-35, ,
2, ,-35, ,
2, ,-35, ,
2, ,-35, ,
1, ,-35, ,
3, ,-35, ,
1, ,-35, ,
2, ,-35, ,
2, ,-35, ,
2, ,-35, ,
1, ,-35, ,
3, ,-35, ,
2, ,-35, ,
2, ,-34, ,
2, ,-35, ,
2, ,-35, ,
1, ,-35, ,
2, ,-35, ,
2, ,-35, ,
2, ,-35, ,
2, ,-35, ,
2, ,-35, ,
1, ,-35, ,
3, ,-35, ,
2, ,-35, ,
2, ,-35, ,
3, ,-35, ,
3, ,-35, ,
1, ,-35, ,
2, ,-35, ,
2, ,-35, ,
2, ,-35, ,
2, ,-35, ,
3, ,-35, ,
1, ,-35, ,
2, ,-35, ,
2, ,-35, ,
2, ,-35, ,
2, ,-35, ,
2, ,-35, ,
1, ,-35, ,
2, ,-35, ,
2, ,-35, ,
2, ,-35, ,
2, ,-35, ,
2, ,-35, ,
1, ,-35, ,
2, ,-35, ,
1, ,-35, ,
2, ,-35, ,
2, ,-35, ,
2, ,-35, ,
1, ,-35, ,
2, ,-35, ,
2, ,-35, ,
2, ,-35, ,
3, ,-35, ,
3, ,-35, ,
1, ,-35, ,
2, ,-35, ,
1, ,-35, ,
2, ,-35, ,
2, ,-35, ,
2, ,-35, ,
1, ,-35, ,
2, ,-35, ,
2, ,-35, ,
2, ,-35, ,
2, ,-35, ,
2, ,-35, ,
1, ,-35, ,
2, ,-35, ,
2, ,-35, ,
2, ,-34, ,
2, ,-35, ,
2, ,-35, ,
1, ,-35, ,
2, ,-35, ,
1, ,-35, ,
1, ,-35, ,
2, ,-35, ,
2, ,-35, ,
1, ,-35, ,
2, ,-35, ,
1, ,-35, ,
2, ,-35, ,
2, ,-35, ,
2, ,-35, ,
1, ,-35, ,
2, ,-34, ,
1, ,-35, ,
2, ,-35, ,
2, ,-35, ,
2, ,-34, ,
1, ,-35, ,
2, ,-35, ,
1, ,-35, ,
2, ,-34, ,
2, ,-35, ,
2, ,-35, ,
1, ,-35, ,
2, ,-35, ,
1, ,-35, ,
2, ,-35, ,
2, ,-35, ,
2, ,-35, ,
1, ,-35, ,
2, ,-35, ,
1, ,-35, ,
2, ,-35, ,
2, ,-35, ,
2, ,-35, ,
1, ,-35, ,
2, ,-35, ,
1, ,-35, ,
1, ,-34, ,
2, ,-35, ,
1, ,-34, ,
1, ,-35, ,
2, ,-35, ,
1, ,-35, ,
2, ,-35, ,
2, ,-35, ,
2, ,-35, ,
1, ,-35, ,
2, ,-35, ,
1, ,-35, ,
1, ,-34, ,
2, ,-35, ,
1, ,-35, ,
1, ,-35, ,
2, ,-35, ,
1, ,-34, ,
2, ,-35, ,
2, ,-35, ,
2, ,-35, ,
1, ,-35, ,
2, ,-35, ,
1, ,-35, ,
1, ,-35, ,
2, ,-35, ,
2, ,-35, ,
1, ,-35, ,
2, ,-35, ,
1, ,-35, ,
1, ,-35, ,
2, ,-35, ,
2, ,-35, ,
1, ,-35, ,
2, ,-35, ,
1, ,-35, ,
1, ,-35, ,
2, ,-35, ,
2, ,-35, ,
1, ,-35, ,
2, ,-35, ,
1, ,-35, ,
2, ,-35, ,
2, ,-34, ,
1, ,-35, ,
1, ,-35, ,
2, ,-35, ,
1, ,-35, ,
1, ,-35, ,
2, ,-35, ,
1, ,-35, ,
1, ,-35, ,
2, ,-35, ,
1, ,-35, ,
2, ,-34, ,
2, ,-35, ,
2, ,-35, ,
1, ,-35, ,
2, ,-34, ,
1, ,-35, ,
2, ,-35, ,
2, ,-35, ,
1, ,-35, ,
1, ,-35, ,
2, ,-35, ,
1, ,-35, ,
2, ,-35, ,
2, ,-35, ,
2, ,-35, ,
1, ,-35, ,
2, ,-35, ,
1, ,-35, ,
2, ,-35, ,
2, ,-35, ,
2, ,-35, ,
1, ,-35, ,
2, ,-35, ,
1, ,-35, ,
1, ,-35, ,
2, ,-35, ,
1, ,-35, ,
1, ,-35, ,
2, ,-35, ,
1, ,-35, ,
2, ,-35, ,
2, ,-35, ,
2, ,-35, ,
1, ,-35, ,
2, ,-35, ,
1, ,-35, ,
1, ,-35, ,
2, ,-35, ,
2, ,-35, ,
1, ,-35, ,
2, ,-35, ,
1, ,-35, ,
1, ,-35, ,
2, ,-35, ,
1, ,-35, ,
1, ,-35, ,
2, ,-35, ,
1, ,-35, ,
1, ,-35, ,
2, ,-35, ,
2, ,-35, ,
1, ,-34, ,
2, ,-35, ,
1, ,-35, ,
1, ,-34, ,
2, ,-35, ,
2, ,-35, ,
1, ,-35, ,
2, ,-35, ,
1, ,-35, ,
2, ,-35, ,
2, ,-35, ,
2, ,-35, ,
1, ,-35, ,
2, ,-35, ,
1, ,-35, ,
1, ,-35, ,
2, ,-35, ,
1, ,-34, ,
1, ,-35, ,
2, ,-35, ,
1, ,-35, ,
2, ,-34, ,
2, ,-35, ,
2, ,-35, ,
-1, ,-35, ,
2, ,-35, ,
1, ,-35, ,
1, ,-35, ,
2, ,-35, ,
1, ,-35, ,
1, ,-35, ,
2, ,-35, ,
1, ,-35, ,
1, ,-34, ,
2, ,-34, ,
1, ,-35, ,
-1, ,-35, ,
2, ,-35, ,
1, ,-35, ,
1, ,-34, ,
2, ,-35, ,
1, ,-35, ,
-1, ,-35, ,
2, ,-35, ,
1, ,-35, ,
1, ,-34, ,
2, ,-35, ,
1, ,-35, ,
-1, ,-35, ,
2, ,-35, ,
1, ,-35, ,
1, ,-35, ,
2, ,-35, ,
1, ,-35, ,
-1, ,-35, ,
2, ,-35, ,
1, ,-35, ,
1, ,-34, ,
1, ,-35, ,
1, ,-35, ,
1, ,-35, ,
2, ,-35, ,
1, ,-35, ,
1, ,-34, ,
2, ,-35, ,
1, ,-35, ,
-1, ,-35, ,
2, ,-35, ,
1, ,-35, ,
1, ,-34, ,
1, ,-34, ,
1, ,-35, ,
-1, ,-35, ,
2, ,-35, ,
1, ,-35, ,
1, ,-35, ,
2, ,-35, ,
2, ,-35, ,
-1, ,-35, ,
2, ,-35, ,
1, ,-34, ,
1, ,-35, ,
2, ,-35, ,
1, ,-35, ,
-1, ,-35, ,
2, ,-35, ,
1, ,-35, ,
1, ,-34, ,
2, ,-35, ,
1, ,-35, ,
-1, ,-35, ,
2, ,-35, ,
1, ,-35, ,
1, ,-35, ,
2, ,-35, ,
1, ,-35, ,
1, ,-35, ,
2, ,-34, ,
1, ,-35, ,
1, ,-35, ,
2, ,-35, ,
1, ,-35, ,
1, ,-35, ,
2, ,-35, ,
1, ,-34, ,
1, ,-35, ,
2, ,-35, ,
1, ,-35, ,
-1, ,-35, ,
2, ,-35, ,
1, ,-35, ,
1, ,-34, ,
2, ,-35, ,
1, ,-35, ,
1, ,-35, ,
2, ,-35, ,
1, ,-35, ,
1, ,-34, ,
2, ,-35, ,
2, ,-35, ,
-1, ,-35, ,
2, ,-34, ,
1, ,-35, ,
1, ,-34, ,
2, ,-35, ,
1, ,-35, ,
-1, ,-35, ,
2, ,-35, ,
1, ,-35, ,
1, ,-35, ,
2, ,-35, ,
1, ,-35, ,
-1, ,-35, ,
2, ,-35, ,
1, ,-35, ,
1, ,-35, ,
2, ,-35, ,
2, ,-34, ,
1, ,-35, ,
2, ,-35, ,
1, ,-35, ,
1, ,-35, ,
2, ,-35, ,
1, ,-35, ,
-1, ,-35, ,
2, ,-35, ,
1, ,-35, ,
1, ,-34, ,
2, ,-35, ,
1, ,-35, ,
-1, ,-35, ,
2, ,-35, ,
1, ,-35, ,
1, ,-35, ,
2, ,-35, ,
1, ,-35, ,
-1, ,-35, ,
2, ,-35, ,
1, ,-35, ,
1, ,-35, ,
1, ,-35, ,
1, ,-35, ,
-1, ,-35, ,
2, ,-35, ,
1, ,-34, ,
1, ,-34, ,
2, ,-35, ,
1, ,-35, ,
-1, ,-35, ,
2, ,-35, ,
1, ,-35, ,
1, ,-35, ,
1, ,-35, ,
1, ,-35, ,
-1, ,-35, ,
1, ,-35, ,
1, ,-35, ,
1, ,-35, ,
1, ,-35, ,
1, ,-35, ,
-1, ,-35, ,
2, ,-35, ,
1, ,-35, ,
1, ,-34, ,
1, ,-35, ,
1, ,-35, ,
-1, ,-35, ,
2, ,-35, ,
1, ,-35, ,
1, ,-34, ,
2, ,-34, ,
1, ,-35, ,
-1, ,-35, ,
1, ,-35, ,
1, ,-35, ,
1, ,-34, ,
2, ,-35, ,
1, ,-35, ,
-1, ,-35, ,
1, ,-35, ,
1, ,-35, ,
1, ,-35, ,
1, ,-35, ,
1, ,-35, ,
-1, ,-35, ,
2, ,-35, ,
1, ,-35, ,
1, ,-35, ,
1, ,-35, ,
1, ,-34, ,
-1, ,-35, ,
2, ,-35, ,
1, ,-35, ,
1, ,-35, ,
2, ,-35, ,
1, ,-35, ,
-1, ,-35, ,
