src/varyamp_1558/temp0004498.CSV

Format,1.0B,
Memory Length,10000,Memory Length,10000,
IntpDistance,0,IntpDistance,0,
Trigger Address,4999,Trigger Address,4999,
Trigger Level,1.040E+00,Trigger Level,1.040E+00,
Source,CH1,Source,CH2,
Vertical Units,V,Vertical Units,V,
Vertical Units Div,0,Vertical Units Div,0,
Vertical Units Extend Div,16,Vertical Units Extend Div,16,
Label,,Label,,
Probe Type,0,Probe Type,0,
Probe Ratio,1.000e+01,Probe Ratio,1.000e+00,
Vertical Scale,5.000e-01,Vertical Scale,1.000e+00,
Vertical Position,-1.820e+00,Vertical Position,0.000e+00,
Horizontal Units,S,Horizontal Units,S,
Horizontal Scale,2.000E-05,Horizontal Scale,2.000E-05,
Horizontal Position,0.000E+00,Horizontal Position,0.000E+00,
Horizontal Mode,Main,Horizontal Mode,Main,
SincET Mode,Real Time,SincET Mode,Real Time,
Sampling Period,2.000e-08,Sampling Period,2.000e-08,
Horizontal Old Scale,2.000E-05,Horizontal Old Scale,2.000E-05,
Horizontal Old Position,0.000E+00,Horizontal Old Position,0.000E+00,
Firmware,V1.23,Firmware,V1.23,
Mode,Fast,Mode,Fast,
Waveform Data,,Waveform Data,,
1, ,-37, ,
2, ,-38, ,
2, ,-37, ,
1, ,-38, ,
2, ,-37, ,
1, ,-38, ,
2, ,-38, ,
2, ,-38, ,
2, ,-37, ,
1, ,-38, ,
3, ,-38, ,
2, ,-38, ,
2, ,-38, ,
2, ,-37, ,
2, ,-37, ,
1, ,-38, ,
2, ,-37, ,
1, ,-37, ,
1, ,-37, ,
2, ,-38, ,
2, ,-37, ,
1, ,-38, ,
2, ,-38, ,
1, ,-38, ,
1, ,-37, ,
2, ,-38, ,
2, ,-37, ,
1, ,-38, ,
2, ,-38, ,
1, ,-38, ,
2, ,-38, ,
2, ,-38, ,
2, ,-37, ,
1, ,-38, ,
2, ,-38, ,
1, ,-37, ,
2, ,-37, ,
2, ,-38, ,
2, ,-37, ,
1, ,-38, ,
2, ,-38, ,
2, ,-38, ,
1, ,-38, ,
2, ,-37, ,
2, ,-38, ,
1, ,-38, ,
2, ,-38, ,
2, ,-38, ,
1, ,-37, ,
2, ,-38, ,
2, ,-38, ,
1, ,-38, ,
2, ,-37, ,
1, ,-38, ,
1, ,-38, ,
2, ,-37, ,
2, ,-37, ,
1, ,-38, ,
2, ,-38, ,
1, ,-37, ,
2, ,-37, ,
2, ,-37, ,
2, ,-37, ,
1, ,-38, ,
2, ,-38, ,
1, ,-37, ,
2, ,-38, ,
2, ,-37, ,
2, ,-37, ,
1, ,-38, ,
2, ,-38, ,
1, ,-37, ,
1, ,-38, ,
2, ,-37, ,
2, ,-38, ,
1, ,-38, ,
2, ,-38, ,
1, ,-38, ,
2, ,-38, ,
2, ,-37, ,
2, ,-37, ,
1, ,-38, ,
2, ,-38, ,
1, ,-37, ,
1, ,-37, ,
2, ,-37, ,
2, ,-37, ,
1, ,-38, ,
2, ,-38, ,
1, ,-38, ,
1, ,-38, ,
2, ,-37, ,
2, ,-37, ,
1, ,-38, ,
2, ,-38, ,
1, ,-37, ,
1, ,-37, ,
2, ,-37, ,
2, ,-38, ,
1, ,-38, ,
2, ,-38, ,
1, ,-38, ,
1, ,-38, ,
2, ,-37, ,
1, ,-38, ,
1, ,-38, ,
2, ,-38, ,
1, ,-38, ,
1, ,-37, ,
2, ,-38, ,
2, ,-37, ,
1, ,-38, ,
2, ,-37, ,
1, ,-38, ,
2, ,-38, ,
2, ,-38, ,
2, ,-38, ,
1, ,-38, ,
2, ,-38, ,
1, ,-38, ,
1, ,-37, ,
2, ,-37, ,
2, ,-37, ,
1, ,-38, ,
2, ,-38, ,
1, ,-38, ,
1, ,-38, ,
2, ,-37, ,
1, ,-38, ,
-1, ,-38, ,
2, ,-38, ,
1, ,-38, ,
1, ,-38, ,
2, ,-38, ,
2, ,-37, ,
1, ,-38, ,
2, ,-38, ,
1, ,-37, ,
1, ,-38, ,
2, ,-38, ,
2, ,-38, ,
-1, ,-38, ,
2, ,-38, ,
1, ,-38, ,
1, ,-37, ,
1, ,-38, ,
1, ,-38, ,
1, ,-38, ,
2, ,-38, ,
1, ,-37, ,
1, ,-38, ,
2, ,-37, ,
2, ,-38, ,
-1, ,-38, ,
2, ,-38, ,
1, ,-38, ,
1, ,-38, ,
2, ,-38, ,
1, ,-38, ,
1, ,-38, ,
2, ,-38, ,
1, ,-37, ,
1, ,-37, ,
2, ,-38, ,
1, ,-38, ,
1, ,-38, ,
2, ,-38, ,
1, ,-38, ,
1, ,-37, ,
2, ,-38, ,
1, ,-37, ,
1, ,-38, ,
2, ,-38, ,
1, ,-38, ,
1, ,-38, ,
2, ,-38, ,
2, ,-38, ,
-1, ,-38, ,
2, ,-38, ,
1, ,-38, ,
1, ,-37, ,
2, ,-38, ,
1, ,-37, ,
-1, ,-38, ,
2, ,-38, ,
1, ,-38, ,
1, ,-38, ,
2, ,-38, ,
2, ,-37, ,
1, ,-38, ,
2, ,-38, ,
1, ,-38, ,
1, ,-37, ,
2, ,-38, ,
1, ,-37, ,
1, ,-38, ,
2, ,-37, ,
1, ,-38, ,
1, ,-38, ,
2, ,-37, ,
1, ,-38, ,
-1, ,-38, ,
2, ,-38, ,
1, ,-38, ,
1, ,-38, ,
2, ,-38, ,
2, ,-38, ,
-1, ,-38, ,
2, ,-38, ,
1, ,-38, ,
1, ,-38, ,
2, ,-37, ,
1, ,-38, ,
1, ,-38, ,
2, ,-38, ,
1, ,-38, ,
1, ,-38, ,
2, ,-37, ,
1, ,-38, ,
-1, ,-38, ,
2, ,-38, ,
1, ,-38, ,
1, ,-38, ,
2, ,-38, ,
1, ,-37, ,
-1, ,-38, ,
2, ,-38, ,
1, ,-38, ,
1, ,-38, ,
2, ,-38, ,
1, ,-37, ,
-1, ,-38, ,
2, ,-38, ,
1, ,-37, ,
1, ,-38, ,
1, ,-38, ,
2, ,-37, ,
-1, ,-38, ,
2, ,-38, ,
1, ,-38, ,
1, ,-37, ,
2, ,-38, ,
1, ,-38, ,
-1, ,-38, ,
2, ,-38, ,
1, ,-38, ,
1, ,-38, ,
1, ,-38, ,
1, ,-38, ,
-1, ,-38, ,
2, ,-38, ,
1, ,-38, ,
1, ,-38, ,
2, ,-38, ,
1, ,-38, ,
-1, ,-38, ,
2, ,-38, ,
1, ,-38, ,
1, ,-38, ,
1, ,-37, ,
1, ,-37, ,
-1, ,-38, ,
2, ,-38, ,
1, ,-38, ,
1, ,-38, ,
1, ,-38, ,
1, ,-38, ,
-1, ,-38, ,
2, ,-38, ,
1, ,-38, ,
1, ,-38, ,
1, ,-38, ,
2, ,-38, ,
-1, ,-38, ,
2, ,-38, ,
1, ,-38, ,
1, ,-38, ,
1, ,-38, ,
1, ,-38, ,
1, ,-38, ,
2, ,-38, ,
1, ,-37, ,
1, ,-38, ,
2, ,-38, ,
1, ,-37, ,
-1, ,-38, ,
2, ,-38, ,
1, ,-38, ,
1, ,-37, ,
1, ,-38, ,
1, ,-37, ,
-1, ,-38, ,
2, ,-38, ,
1, ,-38, ,
1, ,-38, ,
1, ,-37, ,
1, ,-38, ,
-1, ,-38, ,
2, ,-38, ,
1, ,-38, ,
1, ,-37, ,
2, ,-38, ,
1, ,-37, ,
-1, ,-38, ,
2, ,-38, ,
1, ,-38, ,
1, ,-38, ,
1, ,-38, ,
1, ,-27, ,
-1, ,-7, ,
2, ,8, ,
1, ,21, ,
1, ,30, ,
1, ,37, ,
1, ,41, ,
-1, ,45, ,
2, ,47, ,
1, ,50, ,
1, ,52, ,
2, ,53, ,
1, ,53, ,
-1, ,55, ,
1, ,55, ,
1, ,55, ,
1, ,56, ,
2, ,56, ,
1, ,56, ,
-1, ,56, ,
2, ,56, ,
1, ,56, ,
1, ,55, ,
2, ,56, ,
1, ,56, ,
-1, ,56, ,
2, ,55, ,
1, ,55, ,
1, ,56, ,
1, ,56, ,
1, ,56, ,
1, ,56, ,
2, ,55, ,
1, ,55, ,
1, ,56, ,
2, ,56, ,
1, ,56, ,
-1, ,56, ,
2, ,55, ,
1, ,55, ,
1, ,56, ,
2, ,56, ,
1, ,56, ,
1, ,56, ,
2, ,55, ,
1, ,55, ,
1, ,56, ,
1, ,55, ,
1, ,56, ,
-1, ,56, ,
2, ,55, ,
1, ,55, ,
1, ,55, ,
1, ,56, ,
1, ,55, ,
1, ,55, ,
2, ,55, ,
1, ,56, ,
-1, ,56, ,
1, ,56, ,
1, ,56, ,
-1, ,56, ,
1, ,55, ,
1, ,55, ,
-1, ,56, ,
1, ,55, ,
1, ,55, ,
-1, ,56, ,
2, ,55, ,
1, ,55, ,
1, ,56, ,
1, ,55, ,
-1, ,55, ,
-1, ,56, ,
2, ,55, ,
1, ,55, ,
-1, ,56, ,
1, ,55, ,
1, ,55, ,
-1, ,56, ,
1, ,55, ,
1, ,55, ,
1, ,55, ,
1, ,55, ,
1, ,55, ,
-1, ,56, ,
2, ,55, ,
1, ,55, ,
-1, ,56, ,
1, ,55, ,
1, ,55, ,
-1, ,56, ,
2, ,55, ,
1, ,55, ,
1, ,55, ,
2, ,55, ,
1, ,55, ,
-1, ,56, ,
2, ,55, ,
1, ,55, ,
1, ,55, ,
1, ,55, ,
1, ,55, ,
-1, ,55, ,
2, ,55, ,
1, ,55, ,
1, ,56, ,
1, ,55, ,
1, ,56, ,
-1, ,56, ,
2, ,55, ,
1, ,55, ,
1, ,56, ,
1, ,55, ,
1, ,55, ,
-1, ,56, ,
2, ,55, ,
1, ,55, ,
1, ,55, ,
1, ,55, ,
1, ,55, ,
1, ,56, ,
2, ,55, ,
1, ,55, ,
1, ,56, ,
77, ,55, ,
48, ,56, ,
29, ,55, ,
20, ,55, ,
12, ,55, ,
8, ,56, ,
7, ,55, ,
3, ,55, ,
2, ,56, ,
5, ,55, ,
2, ,55, ,
2, ,56, ,
3, ,55, ,
2, ,56, ,
2, ,56, ,
3, ,55, ,
2, ,55, ,
2, ,55, ,
3, ,55, ,
2, ,55, ,
2, ,56, ,
3, ,55, ,
2, ,55, ,
2, ,56, ,
2, ,56, ,
2, ,55, ,
1, ,56, ,
3, ,55, ,
2, ,55, ,
2, ,52, ,
3, ,33, ,
2, ,15, ,
1, ,1, ,
3, ,-9, ,
2, ,-16, ,
2, ,-22, ,
3, ,-26, ,
2, ,-30, ,
2, ,-32, ,
3, ,-34, ,
2, ,-35, ,
2, ,-36, ,
2, ,-37, ,
3, ,-37, ,
1, ,-38, ,
3, ,-38, ,
2, ,-38, ,
2, ,-38, ,
2, ,-38, ,
3, ,-38, ,
1, ,-39, ,
3, ,-38, ,
2, ,-38, ,
2, ,-39, ,
2, ,-38, ,
2, ,-38, ,
1, ,-38, ,
3, ,-38, ,
2, ,-38, ,
2, ,-38, ,
2, ,-38, ,
2, ,-38, ,
1, ,-38, ,
3, ,-38, ,
2, ,-38, ,
2, ,-38, ,
2, ,-38, ,
2, ,-37, ,
1, ,-38, ,
3, ,-38, ,
2, ,-38, ,
2, ,-38, ,
2, ,-38, ,
2, ,-38, ,
1, ,-38, ,
3, ,-38, ,
2, ,-38, ,
2, ,-38, ,
2, ,-38, ,
2, ,-38, ,
1, ,-38, ,
3, ,-38, ,
1, ,-38, ,
1, ,-38, ,
2, ,-38, ,
2, ,-38, ,
1, ,-38, ,
3, ,-37, ,
2, ,-38, ,
2, ,-38, ,
2, ,-38, ,
2, ,-38, ,
1, ,-38, ,
2, ,-38, ,
1, ,-38, ,
1, ,-37, ,
2, ,-38, ,
2, ,-37, ,
1, ,-38, ,
3, ,-38, ,
2, ,-38, ,
2, ,-38, ,
2, ,-37, ,
2, ,-37, ,
1, ,-38, ,
2, ,-38, ,
2, ,-38, ,
2, ,-37, ,
2, ,-37, ,
2, ,-37, ,
1, ,-38, ,
2, ,-38, ,
2, ,-38, ,
1, ,-38, ,
2, ,-37, ,
2, ,-38, ,
1, ,-38, ,
3, ,-38, ,
2, ,-38, ,
1, ,-37, ,
2, ,-37, ,
2, ,-38, ,
1, ,-38, ,
2, ,-37, ,
1, ,-38, ,
1, ,-38, ,
2, ,-37, ,
2, ,-37, ,
1, ,-38, ,
3, ,-38, ,
2, ,-38, ,
2, ,-38, ,
2, ,-38, ,
2, ,-37, ,
1, ,-38, ,
2, ,-38, ,
1, ,-38, ,
1, ,-38, ,
2, ,-37, ,
2, ,-37, ,
1, ,-38, ,
2, ,-38, ,
2, ,-38, ,
2, ,-37, ,
2, ,-37, ,
2, ,-38, ,
1, ,-38, ,
2, ,-37, ,
1, ,-38, ,
1, ,-38, ,
2, ,-37, ,
2, ,-37, ,
1, ,-38, ,
2, ,-38, ,
2, ,-38, ,
2, ,-38, ,
2, ,-38, ,
2, ,-37, ,
1, ,-38, ,
2, ,-38, ,
1, ,-37, ,
1, ,-38, ,
2, ,-37, ,
2, ,-37, ,
1, ,-37, ,
2, ,-38, ,
1, ,-37, ,
2, ,-37, ,
2, ,-38, ,
2, ,-37, ,
1, ,-38, ,
2, ,-37, ,
1, ,-37, ,
1, ,-38, ,
2, ,-37, ,
2, ,-37, ,
1, ,-38, ,
2, ,-38, ,
2, ,-38, ,
1, ,-37, ,
2, ,-37, ,
2, ,-37, ,
1, ,-38, ,
2, ,-37, ,
1, ,-37, ,
1, ,-38, ,
2, ,-37, ,
2, ,-37, ,
1, ,-38, ,
2, ,-38, ,
1, ,-38, ,
1, ,-38, ,
2, ,-38, ,
2, ,-38, ,
1, ,-38, ,
2, ,-38, ,
1, ,-38, ,
1, ,-38, ,
2, ,-37, ,
2, ,-37, ,
1, ,-38, ,
2, ,-38, ,
1, ,-38, ,
1, ,-37, ,
2, ,-37, ,
2, ,-37, ,
1, ,-38, ,
2, ,-38, ,
1, ,-38, ,
2, ,-38, ,
2, ,-38, ,
2, ,-38, ,
1, ,-38, ,
2, ,-38, ,
1, ,-37, ,
1, ,-37, ,
2, ,-37, ,
2, ,-37, ,
1, ,-38, ,
2, ,-37, ,
1, ,-38, ,
1, ,-38, ,
2, ,-38, ,
2, ,-37, ,
1, ,-38, ,
2, ,-38, ,
1, ,-38, ,
1, ,-37, ,
2, ,-37, ,
1, ,-37, ,
1, ,-38, ,
2, ,-37, ,
1, ,-38, ,
1, ,-37, ,
2, ,-37, ,
1, ,-37, ,
1, ,-38, ,
2, ,-38, ,
1, ,-37, ,
1, ,-38, ,
2, ,-37, ,
2, ,-37, ,
1, ,-38, ,
2, ,-38, ,
1, ,-38, ,
1, ,-38, ,
2, ,-37, ,
1, ,-37, ,
-1, ,-38, ,
2, ,-38, ,
1, ,-38, ,
1, ,-37, ,
2, ,-37, ,
1, ,-38, ,
-1, ,-38, ,
2, ,-37, ,
1, ,-37, ,
1, ,-37, ,
2, ,-37, ,
1, ,-37, ,
-1, ,-38, ,
2, ,-38, ,
1, ,-38, ,
1, ,-37, ,
2, ,-38, ,
1, ,-37, ,
-1, ,-38, ,
2, ,-38, ,
1, ,-38, ,
1, ,-38, ,
2, ,-37, ,
2, ,-37, ,
1, ,-38, ,
2, ,-38, ,
1, ,-38, ,
1, ,-38, ,
2, ,-37, ,
1, ,-37, ,
-1, ,-38, ,
2, ,-38, ,
1, ,-38, ,
1, ,-37, ,
2, ,-37, ,
1, ,-37, ,
-1, ,-38, ,
2, ,-38, ,
1, ,-38, ,
1, ,-37, ,
2, ,-38, ,
2, ,-37, ,
1, ,-38, ,
2, ,-38, ,
1, ,-37, ,
1, ,-38, ,
2, ,-37, ,
2, ,-37, ,
-1, ,-38, ,
2, ,-38, ,
1, ,-38, ,
1, ,-38, ,
2, ,-37, ,
1, ,-37, ,
1, ,-38, ,
2, ,-38, ,
1, ,-37, ,
1, ,-37, ,
2, ,-37, ,
1, ,-37, ,
-1, ,-38, ,
2, ,-38, ,
1, ,-38, ,
1, ,-37, ,
2, ,-38, ,
1, ,-37, ,
1, ,-38, ,
2, ,-38, ,
1, ,-38, ,
1, ,-38, ,
2, ,-37, ,
2, ,-37, ,
-1, ,-38, ,
2, ,-37, ,
1, ,-38, ,
1, ,-37, ,
2, ,-38, ,
2, ,-37, ,
1, ,-38, ,
2, ,-38, ,
1, ,-38, ,
1, ,-38, ,
2, ,-38, ,
1, ,-37, ,
-1, ,-38, ,
2, ,-38, ,
1, ,-38, ,
1, ,-37, ,
1, ,-38, ,
1, ,-38, ,
1, ,-38, ,
2, ,-38, ,
1, ,-38, ,
1, ,-37, ,
2, ,-37, ,
2, ,-38, ,
-1, ,-38, ,
2, ,-38, ,
1, ,-37, ,
1, ,-37, ,
1, ,-38, ,
1, ,-37, ,
-1, ,-38, ,
2, ,-38, ,
1, ,-38, ,
1, ,-38, ,
2, ,-38, ,
1, ,-37, ,
-1, ,-38, ,
2, ,-38, ,
1, ,-38, ,
1, ,-38, ,
1, ,-37, ,
1, ,-38, ,
-1, ,-38, ,
2, ,-38, ,
1, ,-37, ,
1, ,-38, ,
1, ,-37, ,
1, ,-37, ,
-1, ,-38, ,
2, ,-38, ,
1, ,-38, ,
1, ,-37, ,
1, ,-38, ,
2, ,-38, ,
-1, ,-38, ,
2, ,-38, ,
1, ,-38, ,
1, ,-37, ,
2, ,-37, ,
1, ,-38, ,
-1, ,-38, ,
2, ,-38, ,
1, ,-37, ,
1, ,-37, ,
1, ,-37, ,
1, ,-37, ,
-1, ,-38, ,
2, ,-38, ,
1, ,-38, ,
1, ,-37, ,
1, ,-37, ,
1, ,-37, ,
-1, ,-38, ,
2, ,-38, ,
1, ,-38, ,
1, ,-38, ,
1, ,-37, ,
1, ,-37, ,
-1, ,-38, ,
2, ,-38, ,
-1, ,-38, ,
1, ,-37, ,
1, ,-38, ,
1, ,-38, ,
-1, ,-38, ,
2, ,-38, ,
1, ,-37, ,
1, ,-37, ,
1, ,-38, ,
1, ,-38, ,
-1, ,-38, ,
2, ,-38, ,
1, ,-38, ,
1, ,-38, ,
1, ,-37, ,
2, ,-37, ,
-1, ,-38, ,
2, ,-38, ,
1, ,-37, ,
1, ,-37, ,
2, ,-37, ,
1, ,-38, ,
-1, ,-38, ,
2, ,-38, ,
1, ,-38, ,
1, ,-38, ,
1, ,-37, ,
1, ,-37, ,
-1, ,-38, ,
2, ,-37, ,
1, ,-37, ,
1, ,-37, ,
1, ,-38, ,
2, ,-37, ,
-1, ,-38, ,
2, ,-38, ,
1, ,-38, ,
1, ,-38, ,
2, ,-37, ,
2, ,-37, ,
-1, ,-38, ,
2, ,-38, ,
1, ,-38, ,
1, ,-38, ,
2, ,-37, ,
1, ,-38, ,
-1, ,-38, ,
2, ,-37, ,
1, ,-37, ,
1, ,-38, ,
2, ,-38, ,
1, ,-37, ,
-1, ,-38, ,
2, ,-38, ,
1, ,-38, ,
1, ,-37, ,
1, ,-37, ,
1, ,-37, ,
1, ,-38, ,
2, ,-38, ,
-1, ,-38, ,
1, ,-38, ,
2, ,-38, ,
2, ,-37, ,
-1, ,-38, ,
2, ,-38, ,
1, ,-38, ,
1, ,-38, ,
2, ,-38, ,
1, ,-37, ,
-1, ,-38, ,
2, ,-38, ,
-1, ,-37, ,
1, ,-38, ,
1, ,-38, ,
1, ,-37, ,
-1, ,-38, ,
2, ,-38, ,
1, ,-38, ,
-1, ,-37, ,
1, ,-38, ,
2, ,-38, ,
-1, ,-38, ,
2, ,-38, ,
1, ,-38, ,
1, ,-38, ,
1, ,-37, ,
1, ,-37, ,
1, ,-38, ,
2, ,-38, ,
1, ,-38, ,
1, ,-38, ,
1, ,-38, ,
1, ,-38, ,
-1, ,-38, ,
2, ,-38, ,
1, ,-38, ,
1, ,-38, ,
1, ,-37, ,
1, ,-37, ,
-1, ,-38, ,
2, ,-38, ,
-1, ,-37, ,
1, ,-38, ,
1, ,-38, ,
1, ,-37, ,
-1, ,-38, ,
2, ,-38, ,
-1, ,-38, ,
1, ,-37, ,
1, ,-38, ,
1, ,-37, ,
-1, ,-38, ,
2, ,-38, ,
1, ,-38, ,
1, ,-38, ,
1, ,-37, ,
1, ,-37, ,
-1, ,-38, ,
2, ,-38, ,
1, ,-38, ,
1, ,-38, ,
1, ,-38, ,
1, ,-38, ,
-1, ,-38, ,
2, ,-38, ,
-1, ,-38, ,
1, ,-37, ,
1, ,-38, ,
1, ,-37, ,
-1, ,-38, ,
2, ,-38, ,
-1, ,-38, ,
1, ,-38, ,
2, ,-37, ,
2, ,-37, ,
-1, ,-38, ,
1, ,-38, ,
1, ,-38, ,
1, ,-38, ,
1, ,-38, ,
1, ,-38, ,
-1, ,-38, ,
2, ,-38, ,
-1, ,-38, ,
1, ,-38, ,
1, ,-37, ,
1, ,-38, ,
-1, ,-38, ,
2, ,-38, ,
-1, ,-38, ,
1, ,-38, ,
1, ,-38, ,
2, ,-37, ,
-1, ,-38, ,
2, ,-38, ,
-1, ,-37, ,
1, ,-37, ,
1, ,-38, ,
2, ,-37, ,
-1, ,-38, ,
2, ,-38, ,
1, ,-38, ,
1, ,-38, ,
1, ,-37, ,
1, ,-38, ,
-1, ,-38, ,
2, ,-38, ,
1, ,-38, ,
1, ,-38, ,
2, ,-38, ,
1, ,-38, ,
-1, ,-38, ,
1, ,-38, ,
1, ,-38, ,
1, ,-38, ,
1, ,-38, ,
1, ,-37, ,
-1, ,-38, ,
2, ,-38, ,
-1, ,-38, ,
1, ,-38, ,
1, ,-38, ,
1, ,-37, ,
-1, ,-38, ,
2, ,-38, ,
1, ,-38, ,
1, ,-38, ,
1, ,-37, ,
1, ,-38, ,
-1, ,-38, ,
2, ,-38, ,
-1, ,-38, ,
1, ,-38, ,
1, ,-38, ,
2, ,-38, ,
-1, ,-38, ,
2, ,-38, ,
1, ,-37, ,
1, ,-38, ,
1, ,-38, ,
1, ,-38, ,
-1, ,-38, ,
2, ,-38, ,
-1, ,-37, ,
-1, ,-38, ,
1, ,-38, ,
1, ,-38, ,
-1, ,-38, ,
1, ,-38, ,
1, ,-37, ,
-1, ,-38, ,
1, ,-38, ,
2, ,-38, ,
-1, ,-38, ,
2, ,-38, ,
-1, ,-37, ,
1, ,-38, ,
1, ,-38, ,
1, ,-38, ,
-1, ,-38, ,
1, ,-38, ,
-1, ,-38, ,
-1, ,-38, ,
1, ,-38, ,
1, ,-38, ,
-1, ,-38, ,
2, ,-37, ,
1, ,-38, ,
1, ,-38, ,
1, ,-38, ,
1, ,-38, ,
-1, ,-38, ,
1, ,-38, ,
-1, ,-38, ,
1, ,-37, ,
1, ,-38, ,
1, ,-38, ,
-1, ,-38, ,
2, ,-38, ,
-1, ,-38, ,
-1, ,-38, ,
1, ,-38, ,
1, ,-37, ,
-1, ,-38, ,
2, ,-38, ,
1, ,-38, ,
-1, ,-37, ,
1, ,-38, ,
1, ,-38, ,
-1, ,-38, ,
2, ,-37, ,
-1, ,-38, ,
1, ,-38, ,
1, ,-37, ,
1, ,-37, ,
-1, ,-32, ,
2, ,-13, ,
1, ,5, ,
-1, ,18, ,
1, ,27, ,
1, ,35, ,
-1, ,41, ,
2, ,44, ,
1, ,47, ,
1, ,50, ,
1, ,51, ,
1, ,53, ,
-1, ,54, ,
2, ,54, ,
1, ,55, ,
1, ,55, ,
1, ,55, ,
1, ,55, ,
-1, ,56, ,
2, ,55, ,
-1, ,56, ,
1, ,56, ,
1, ,56, ,
1, ,56, ,
-1, ,56, ,
2, ,56, ,
1, ,56, ,
-1, ,56, ,
1, ,56, ,
1, ,56, ,
-1, ,56, ,
2, ,55, ,
1, ,56, ,
-1, ,56, ,
1, ,55, ,
1, ,56, ,
-1, ,56, ,
1, ,55, ,
1, ,55, ,
-1, ,56, ,
1, ,56, ,
1, ,56, ,
-1, ,56, ,
2, ,55, ,
1, ,56, ,
-1, ,56, ,
1, ,55, ,
1, ,55, ,
-1, ,56, ,
2, ,55, ,
1, ,55, ,
-1, ,56, ,
1, ,55, ,
1, ,55, ,
-1, ,56, ,
2, ,55, ,
1, ,56, ,
-1, ,56, ,
1, ,55, ,
1, ,55, ,
-1, ,56, ,
1, ,55, ,
1, ,55, ,
-1, ,55, ,
1, ,55, ,
-1, ,55, ,
-1, ,55, ,
2, ,55, ,
-1, ,56, ,
-1, ,56, ,
1, ,55, ,
1, ,55, ,
-1, ,56, ,
2, ,55, ,
2, ,55, ,
71, ,56, ,
45, ,55, ,
27, ,55, ,
16, ,56, ,
12, ,55, ,
8, ,55, ,
5, ,56, ,
6, ,55, ,
3, ,55, ,
2, ,55, ,
3, ,55, ,
2, ,55, ,
2, ,55, ,
3, ,56, ,
3, ,55, ,
2, ,55, ,
3, ,55, ,
2, ,55, ,
2, ,56, ,
3, ,55, ,
2, ,55, ,
1, ,55, ,
3, ,55, ,
2, ,55, ,
2, ,55, ,
3, ,55, ,
3, ,55, ,
2, ,55, ,
3, ,55, ,
2, ,55, ,
2, ,55, ,
3, ,55, ,
2, ,55, ,
2, ,56, ,
3, ,55, ,
2, ,55, ,
2, ,55, ,
2, ,55, ,
2, ,55, ,
1, ,55, ,
3, ,55, ,
2, ,55, ,
2, ,56, ,
2, ,56, ,
2, ,55, ,
2, ,56, ,
3, ,55, ,
2, ,55, ,
1, ,55, ,
3, ,56, ,
2, ,55, ,
1, ,55, ,
3, ,55, ,
2, ,55, ,
1, ,55, ,
3, ,56, ,
2, ,55, ,
1, ,56, ,
3, ,55, ,
2, ,55, ,
2, ,56, ,
2, ,56, ,
2, ,55, ,
2, ,55, ,
3, ,55, ,
2, ,55, ,
1, ,55, ,
3, ,56, ,
2, ,55, ,
1, ,55, ,
3, ,55, ,
2, ,55, ,
1, ,55, ,
2, ,55, ,
2, ,55, ,
1, ,56, ,
2, ,55, ,
2, ,55, ,
1, ,55, ,
3, ,54, ,
2, ,38, ,
1, ,19, ,
2, ,4, ,
2, ,-6, ,
1, ,-15, ,
2, ,-21, ,
2, ,-25, ,
1, ,-28, ,
3, ,-32, ,
2, ,-33, ,
1, ,-35, ,
2, ,-36, ,
2, ,-36, ,
1, ,-37, ,
3, ,-37, ,
2, ,-38, ,
2, ,-38, ,
2, ,-38, ,
2, ,-38, ,
1, ,-38, ,
2, ,-38, ,
2, ,-38, ,
2, ,-38, ,
2, ,-38, ,
2, ,-38, ,
1, ,-38, ,
3, ,-38, ,
2, ,-38, ,
1, ,-38, ,
2, ,-38, ,
2, ,-38, ,
1, ,-38, ,
3, ,-38, ,
1, ,-38, ,
1, ,-38, ,
2, ,-38, ,
2, ,-38, ,
1, ,-38, ,
2, ,-38, ,
1, ,-38, ,
2, ,-38, ,
2, ,-38, ,
2, ,-38, ,
1, ,-38, ,
2, ,-38, ,
1, ,-38, ,
2, ,-38, ,
2, ,-38, ,
2, ,-38, ,
1, ,-38, ,
3, ,-38, ,
1, ,-38, ,
2, ,-38, ,
2, ,-38, ,
2, ,-38, ,
1, ,-38, ,
2, ,-38, ,
1, ,-38, ,
2, ,-38, ,
2, ,-38, ,
2, ,-37, ,
1, ,-38, ,
2, ,-38, ,
1, ,-38, ,
2, ,-37, ,
2, ,-38, ,
2, ,-38, ,
1, ,-38, ,
2, ,-38, ,
1, ,-38, ,
1, ,-38, ,
2, ,-38, ,
2, ,-38, ,
1, ,-38, ,
2, ,-38, ,
1, ,-38, ,
1, ,-37, ,
2, ,-37, ,
2, ,-38, ,
1, ,-38, ,
2, ,-38, ,
1, ,-38, ,
2, ,-38, ,
2, ,-37, ,
2, ,-38, ,
1, ,-38, ,
3, ,-38, ,
1, ,-38, ,
1, ,-38, ,
2, ,-38, ,
2, ,-38, ,
1, ,-38, ,
2, ,-38, ,
1, ,-37, ,
1, ,-38, ,
2, ,-38, ,
2, ,-37, ,
1, ,-38, ,
2, ,-38, ,
1, ,-38, ,
1, ,-38, ,
2, ,-37, ,
2, ,-38, ,
1, ,-38, ,
2, ,-38, ,
1, ,-38, ,
1, ,-38, ,
2, ,-37, ,
2, ,-37, ,
1, ,-38, ,
2, ,-38, ,
1, ,-38, ,
2, ,-38, ,
2, ,-38, ,
1, ,-38, ,
1, ,-38, ,
2, ,-38, ,
1, ,-37, ,
1, ,-38, ,
2, ,-37, ,
2, ,-37, ,
1, ,-38, ,
2, ,-38, ,
1, ,-38, ,
1, ,-37, ,
2, ,-38, ,
2, ,-37, ,
1, ,-38, ,
2, ,-37, ,
1, ,-38, ,
1, ,-38, ,
2, ,-38, ,
2, ,-38, ,
1, ,-38, ,
2, ,-38, ,
1, ,-38, ,
1, ,-38, ,
2, ,-38, ,
2, ,-38, ,
1, ,-38, ,
2, ,-38, ,
1, ,-38, ,
1, ,-38, ,
2, ,-37, ,
2, ,-38, ,
1, ,-38, ,
2, ,-38, ,
1, ,-38, ,
1, ,-37, ,
2, ,-38, ,
2, ,-37, ,
1, ,-38, ,
2, ,-38, ,
1, ,-38, ,
1, ,-38, ,
2, ,-37, ,
2, ,-37, ,
1, ,-38, ,
2, ,-38, ,
1, ,-38, ,
1, ,-37, ,
2, ,-38, ,
2, ,-37, ,
1, ,-38, ,
2, ,-38, ,
1, ,-37, ,
1, ,-37, ,
2, ,-38, ,
2, ,-37, ,
1, ,-38, ,
2, ,-38, ,
1, ,-38, ,
1, ,-37, ,
2, ,-37, ,
1, ,-37, ,
1, ,-38, ,
2, ,-38, ,
1, ,-38, ,
1, ,-38, ,
2, ,-38, ,
1, ,-37, ,
-1, ,-38, ,
2, ,-38, ,
1, ,-38, ,
1, ,-37, ,
2, ,-38, ,
1, ,-37, ,
1, ,-38, ,
2, ,-37, ,
1, ,-37, ,
1, ,-37, ,
2, ,-38, ,
2, ,-37, ,
1, ,-38, ,
2, ,-38, ,
1, ,-38, ,
1, ,-37, ,
2, ,-37, ,
2, ,-38, ,
1, ,-38, ,
2, ,-38, ,
1, ,-38, ,
1, ,-38, ,
2, ,-38, ,
2, ,-38, ,
1, ,-38, ,
2, ,-37, ,
1, ,-37, ,
1, ,-38, ,
2, ,-38, ,
2, ,-38, ,
-1, ,-38, ,
2, ,-38, ,
1, ,-38, ,
1, ,-37, ,
2, ,-38, ,
1, ,-38, ,
-1, ,-38, ,
2, ,-38, ,
1, ,-37, ,
1, ,-38, ,
2, ,-38, ,
1, ,-37, ,
-1, ,-38, ,
2, ,-38, ,
-1, ,-37, ,
1, ,-38, ,
2, ,-37, ,
1, ,-37, ,
1, ,-38, ,
2, ,-38, ,
1, ,-38, ,
1, ,-37, ,
2, ,-38, ,
1, ,-37, ,
-1, ,-38, ,
2, ,-37, ,
1, ,-37, ,
1, ,-38, ,
2, ,-38, ,
1, ,-38, ,
-1, ,-38, ,
2, ,-38, ,
1, ,-38, ,
1, ,-38, ,
1, ,-38, ,
1, ,-38, ,
1, ,-38, ,
2, ,-37, ,
1, ,-37, ,
1, ,-38, ,
2, ,-38, ,
2, ,-38, ,
-1, ,-38, ,
2, ,-38, ,
1, ,-38, ,
1, ,-38, ,
2, ,-38, ,
1, ,-37, ,
-1, ,-38, ,
2, ,-38, ,
1, ,-37, ,
1, ,-38, ,
2, ,-38, ,
1, ,-37, ,
-1, ,-38, ,
2, ,-38, ,
1, ,-38, ,
1, ,-37, ,
2, ,-37, ,
1, ,-37, ,
-1, ,-38, ,
2, ,-38, ,
1, ,-38, ,
1, ,-38, ,
2, ,-37, ,
1, ,-38, ,
-1, ,-38, ,
2, ,-38, ,
1, ,-38, ,
1, ,-37, ,
2, ,-37, ,
2, ,-38, ,
-1, ,-38, ,
2, ,-38, ,
1, ,-37, ,
1, ,-38, ,
2, ,-38, ,
1, ,-37, ,
-1, ,-38, ,
2, ,-38, ,
1, ,-38, ,
1, ,-37, ,
2, ,-38, ,
1, ,-38, ,
-1, ,-38, ,
2, ,-38, ,
1, ,-38, ,
1, ,-38, ,
2, ,-37, ,
1, ,-37, ,
-1, ,-38, ,
2, ,-38, ,
1, ,-37, ,
1, ,-37, ,
1, ,-38, ,
1, ,-38, ,
-1, ,-38, ,
2, ,-38, ,
1, ,-38, ,
1, ,-38, ,
2, ,-38, ,
1, ,-38, ,
-1, ,-38, ,
2, ,-38, ,
1, ,-38, ,
1, ,-37, ,
2, ,-37, ,
1, ,-37, ,
-1, ,-38, ,
2, ,-37, ,
1, ,-38, ,
1, ,-38, ,
1, ,-37, ,
1, ,-37, ,
-1, ,-38, ,
2, ,-38, ,
1, ,-38, ,
1, ,-38, ,
2, ,-38, ,
2, ,-38, ,
-1, ,-38, ,
2, ,-37, ,
1, ,-37, ,
1, ,-38, ,
2, ,-38, ,
1, ,-38, ,
-1, ,-38, ,
2, ,-38, ,
1, ,-38, ,
1, ,-38, ,
2, ,-38, ,
1, ,-38, ,
-1, ,-38, ,
2, ,-38, ,
1, ,-38, ,
1, ,-38, ,
1, ,-38, ,
1, ,-38, ,
-1, ,-37, ,
2, ,-38, ,
1, ,-38, ,
1, ,-38, ,
2, ,-37, ,
1, ,-37, ,
-1, ,-38, ,
2, ,-37, ,
1, ,-38, ,
1, ,-38, ,
1, ,-38, ,
1, ,-38, ,
-1, ,-38, ,
2, ,-37, ,
1, ,-38, ,
1, ,-38, ,
1, ,-38, ,
1, ,-38, ,
-1, ,-38, ,
2, ,-37, ,
1, ,-38, ,
1, ,-38, ,
1, ,-38, ,
1, ,-38, ,
-1, ,-38, ,
2, ,-38, ,
-1, ,-37, ,
1, ,-38, ,
1, ,-38, ,
1, ,-38, ,
-1, ,-38, ,
2, ,-37, ,
-1, ,-37, ,
1, ,-38, ,
1, ,-37, ,
1, ,-38, ,
-1, ,-38, ,
2, ,-38, ,
1, ,-37, ,
1, ,-37, ,
1, ,-38, ,
1, ,-38, ,
-1, ,-38, ,
2, ,-37, ,
-1, ,-38, ,
1, ,-38, ,
1, ,-37, ,
2, ,-38, ,
-1, ,-38, ,
2, ,-37, ,
-1, ,-37, ,
1, ,-37, ,
2, ,-37, ,
1, ,-37, ,
-1, ,-38, ,
1, ,-37, ,
-1, ,-37, ,
1, ,-38, ,
1, ,-38, ,
1, ,-37, ,
-1, ,-38, ,
2, ,-37, ,
1, ,-37, ,
1, ,-37, ,
1, ,-37, ,
2, ,-37, ,
-1, ,-38, ,
2, ,-37, ,
1, ,-38, ,
1, ,-38, ,
2, ,-38, ,
2, ,-37, ,
-1, ,-38, ,
2, ,-38, ,
1, ,-38, ,
1, ,-37, ,
1, ,-37, ,
1, ,-37, ,
-1, ,-38, ,
2, ,-37, ,
-1, ,-37, ,
1, ,-37, ,
2, ,-37, ,
1, ,-37, ,
-1, ,-38, ,
2, ,-38, ,
1, ,-38, ,
1, ,-37, ,
1, ,-38, ,
1, ,-37, ,
-1, ,-38, ,
2, ,-38, ,
-1, ,-38, ,
1, ,-38, ,
1, ,-37, ,
2, ,-37, ,
-1, ,-38, ,
2, ,-38, ,
1, ,-38, ,
1, ,-38, ,
1, ,-38, ,
1, ,-38, ,
-1, ,-38, ,
2, ,-37, ,
1, ,-38, ,
1, ,-37, ,
2, ,-37, ,
1, ,-37, ,
-1, ,-38, ,
2, ,-38, ,
-1, ,-38, ,
1, ,-38, ,
2, ,-37, ,
1, ,-37, ,
-1, ,-38, ,
1, ,-37, ,
-1, ,-38, ,
-1, ,-38, ,
1, ,-37, ,
1, ,-37, ,
-1, ,-38, ,
2, ,-38, ,
1, ,-38, ,
1, ,-38, ,
1, ,-38, ,
1, ,-37, ,
-1, ,-38, ,
2, ,-38, ,
1, ,-37, ,
1, ,-38, ,
1, ,-37, ,
1, ,-37, ,
-1, ,-38, ,
2, ,-38, ,
-1, ,-37, ,
1, ,-38, ,
1, ,-37, ,
1, ,-38, ,
-1, ,-38, ,
