src/varyamp_1558/temp0003258.CSV

Format,1.0B,
Memory Length,10000,Memory Length,10000,
IntpDistance,0,IntpDistance,0,
Trigger Address,4999,Trigger Address,4999,
Trigger Level,1.040E+00,Trigger Level,1.040E+00,
Source,CH1,Source,CH2,
Vertical Units,V,Vertical Units,V,
Vertical Units Div,0,Vertical Units Div,0,
Vertical Units Extend Div,16,Vertical Units Extend Div,16,
Label,,Label,,
Probe Type,0,Probe Type,0,
Probe Ratio,1.000e+01,Probe Ratio,1.000e+00,
Vertical Scale,5.000e-01,Vertical Scale,1.000e+00,
Vertical Position,-1.820e+00,Vertical Position,0.000e+00,
Horizontal Units,S,Horizontal Units,S,
Horizontal Scale,2.000E-05,Horizontal Scale,2.000E-05,
Horizontal Position,0.000E+00,Horizontal Position,0.000E+00,
Horizontal Mode,Main,Horizontal Mode,Main,
SincET Mode,Real Time,SincET Mode,Real Time,
Sampling Period,2.000e-08,Sampling Period,2.000e-08,
Horizontal Old Scale,2.000E-05,Horizontal Old Scale,2.000E-05,
Horizontal Old Position,0.000E+00,Horizontal Old Position,0.000E+00,
Firmware,V1.23,Firmware,V1.23,
Mode,Fast,Mode,Fast,
Waveform Data,,Waveform Data,,
2, ,-31, ,
1, ,-31, ,
1, ,-31, ,
2, ,-31, ,
2, ,-31, ,
1, ,-31, ,
2, ,-31, ,
1, ,-31, ,
1, ,-31, ,
2, ,-31, ,
2, ,-31, ,
1, ,-32, ,
2, ,-31, ,
1, ,-31, ,
1, ,-31, ,
2, ,-31, ,
2, ,-31, ,
1, ,-32, ,
2, ,-31, ,
1, ,-31, ,
1, ,-31, ,
2, ,-31, ,
2, ,-31, ,
-1, ,-32, ,
2, ,-31, ,
1, ,-31, ,
1, ,-31, ,
2, ,-31, ,
2, ,-31, ,
1, ,-32, ,
2, ,-31, ,
1, ,-31, ,
1, ,-31, ,
2, ,-31, ,
1, ,-31, ,
-1, ,-31, ,
2, ,-31, ,
1, ,-31, ,
1, ,-31, ,
2, ,-31, ,
2, ,-31, ,
1, ,-32, ,
2, ,-31, ,
1, ,-31, ,
1, ,-31, ,
2, ,-31, ,
1, ,-31, ,
1, ,-31, ,
2, ,-31, ,
1, ,-31, ,
1, ,-31, ,
2, ,-31, ,
1, ,-31, ,
1, ,-32, ,
2, ,-31, ,
1, ,-31, ,
1, ,-31, ,
2, ,-31, ,
1, ,-31, ,
1, ,-32, ,
2, ,-31, ,
1, ,-31, ,
1, ,-31, ,
2, ,-31, ,
1, ,-31, ,
1, ,-32, ,
2, ,-31, ,
1, ,-31, ,
1, ,-31, ,
2, ,-31, ,
2, ,-31, ,
1, ,-31, ,
2, ,-31, ,
1, ,-31, ,
1, ,-31, ,
2, ,-31, ,
1, ,-31, ,
1, ,-32, ,
2, ,-31, ,
1, ,-31, ,
1, ,-31, ,
2, ,-32, ,
1, ,-31, ,
1, ,-32, ,
2, ,-31, ,
1, ,-31, ,
1, ,-31, ,
2, ,-31, ,
1, ,-31, ,
-1, ,-32, ,
2, ,-31, ,
1, ,-31, ,
1, ,-31, ,
2, ,-31, ,
1, ,-31, ,
1, ,-31, ,
2, ,-31, ,
1, ,-31, ,
1, ,-31, ,
2, ,-31, ,
2, ,-31, ,
1, ,-31, ,
1, ,-31, ,
1, ,-31, ,
1, ,-31, ,
2, ,-31, ,
1, ,-31, ,
1, ,-31, ,
2, ,-31, ,
1, ,-31, ,
1, ,-31, ,
2, ,-31, ,
1, ,-31, ,
1, ,-32, ,
2, ,-31, ,
1, ,-31, ,
1, ,-31, ,
2, ,-31, ,
1, ,-31, ,
1, ,-31, ,
2, ,-31, ,
1, ,-31, ,
1, ,-31, ,
2, ,-31, ,
1, ,-31, ,
-1, ,-32, ,
2, ,-31, ,
1, ,-31, ,
1, ,-31, ,
2, ,-31, ,
1, ,-31, ,
-1, ,-31, ,
2, ,-31, ,
1, ,-31, ,
1, ,-31, ,
2, ,-31, ,
1, ,-31, ,
1, ,-32, ,
2, ,-31, ,
1, ,-31, ,
1, ,-31, ,
2, ,-31, ,
1, ,-31, ,
-1, ,-32, ,
2, ,-31, ,
1, ,-31, ,
1, ,-31, ,
2, ,-31, ,
1, ,-31, ,
-1, ,-32, ,
1, ,-31, ,
1, ,-31, ,
1, ,-31, ,
2, ,-31, ,
1, ,-31, ,
1, ,-31, ,
2, ,-31, ,
1, ,-31, ,
1, ,-31, ,
2, ,-31, ,
1, ,-31, ,
1, ,-32, ,
2, ,-31, ,
1, ,-31, ,
1, ,-31, ,
2, ,-31, ,
1, ,-31, ,
-1, ,-31, ,
1, ,-31, ,
1, ,-31, ,
1, ,-31, ,
2, ,-31, ,
1, ,-31, ,
1, ,-32, ,
2, ,-31, ,
1, ,-31, ,
1, ,-31, ,
2, ,-31, ,
1, ,-31, ,
-1, ,-31, ,
2, ,-31, ,
1, ,-31, ,
1, ,-31, ,
1, ,-32, ,
1, ,-31, ,
-1, ,-31, ,
2, ,-31, ,
1, ,-31, ,
1, ,-31, ,
2, ,-31, ,
1, ,-31, ,
-1, ,-32, ,
1, ,-31, ,
1, ,-31, ,
1, ,-31, ,
2, ,-31, ,
1, ,-31, ,
-1, ,-32, ,
1, ,-31, ,
1, ,-31, ,
1, ,-32, ,
2, ,-31, ,
1, ,-32, ,
-1, ,-31, ,
1, ,-31, ,
1, ,-31, ,
1, ,-31, ,
2, ,-31, ,
1, ,-31, ,
-1, ,-32, ,
1, ,-31, ,
1, ,-31, ,
1, ,-32, ,
2, ,-32, ,
1, ,-31, ,
-1, ,-31, ,
2, ,-31, ,
1, ,-31, ,
1, ,-31, ,
2, ,-31, ,
1, ,-31, ,
-1, ,-31, ,
2, ,-31, ,
1, ,-31, ,
1, ,-31, ,
2, ,-31, ,
1, ,-31, ,
-1, ,-31, ,
1, ,-31, ,
1, ,-31, ,
1, ,-31, ,
2, ,-31, ,
1, ,-31, ,
1, ,-32, ,
1, ,-31, ,
-1, ,-31, ,
1, ,-31, ,
2, ,-31, ,
1, ,-31, ,
-1, ,-32, ,
2, ,-32, ,
1, ,-31, ,
1, ,-31, ,
2, ,-31, ,
1, ,-31, ,
-1, ,-32, ,
2, ,-31, ,
1, ,-31, ,
1, ,-31, ,
2, ,-31, ,
1, ,-31, ,
-1, ,-32, ,
1, ,-31, ,
1, ,-31, ,
1, ,-31, ,
2, ,-31, ,
1, ,-31, ,
-1, ,-31, ,
2, ,-31, ,
1, ,-31, ,
1, ,-31, ,
2, ,-31, ,
1, ,-31, ,
-1, ,-31, ,
2, ,-31, ,
1, ,-31, ,
1, ,-31, ,
2, ,-31, ,
1, ,-31, ,
1, ,-31, ,
2, ,-31, ,
1, ,-31, ,
1, ,-31, ,
2, ,-31, ,
1, ,-31, ,
-1, ,-32, ,
1, ,-31, ,
1, ,-31, ,
1, ,-31, ,
2, ,-31, ,
1, ,-31, ,
-1, ,-32, ,
2, ,-31, ,
1, ,-31, ,
1, ,-31, ,
2, ,-31, ,
1, ,-31, ,
-1, ,-32, ,
2, ,-31, ,
1, ,-31, ,
1, ,-31, ,
2, ,-31, ,
1, ,-31, ,
-1, ,-32, ,
2, ,-31, ,
1, ,-31, ,
1, ,-31, ,
2, ,-31, ,
1, ,-31, ,
-1, ,-32, ,
1, ,-31, ,
1, ,-31, ,
1, ,-31, ,
2, ,-31, ,
1, ,-31, ,
-1, ,-31, ,
2, ,-31, ,
1, ,-31, ,
1, ,-16, ,
2, ,3, ,
1, ,18, ,
-1, ,30, ,
2, ,37, ,
1, ,44, ,
1, ,50, ,
2, ,53, ,
1, ,55, ,
-1, ,58, ,
2, ,57, ,
1, ,59, ,
-1, ,60, ,
1, ,60, ,
1, ,61, ,
-1, ,62, ,
1, ,61, ,
1, ,62, ,
-1, ,63, ,
1, ,61, ,
1, ,62, ,
-1, ,63, ,
2, ,61, ,
-1, ,62, ,
1, ,62, ,
1, ,61, ,
1, ,62, ,
-1, ,63, ,
2, ,61, ,
-1, ,62, ,
-1, ,62, ,
2, ,61, ,
1, ,61, ,
-1, ,62, ,
2, ,61, ,
-1, ,62, ,
-1, ,61, ,
1, ,61, ,
1, ,62, ,
-1, ,63, ,
76, ,60, ,
49, ,62, ,
30, ,62, ,
20, ,62, ,
13, ,62, ,
8, ,63, ,
7, ,61, ,
5, ,62, ,
3, ,62, ,
5, ,62, ,
2, ,62, ,
2, ,63, ,
3, ,60, ,
2, ,62, ,
2, ,62, ,
3, ,61, ,
2, ,61, ,
1, ,62, ,
3, ,60, ,
2, ,62, ,
2, ,62, ,
2, ,61, ,
2, ,62, ,
1, ,63, ,
3, ,61, ,
2, ,62, ,
2, ,62, ,
3, ,61, ,
2, ,61, ,
1, ,62, ,
3, ,61, ,
2, ,62, ,
2, ,61, ,
3, ,61, ,
2, ,62, ,
1, ,63, ,
3, ,60, ,
2, ,62, ,
2, ,62, ,
3, ,61, ,
3, ,61, ,
3, ,62, ,
8, ,60, ,
7, ,61, ,
6, ,62, ,
5, ,61, ,
3, ,61, ,
2, ,63, ,
3, ,60, ,
2, ,62, ,
2, ,62, ,
3, ,61, ,
2, ,61, ,
2, ,62, ,
3, ,61, ,
2, ,62, ,
2, ,62, ,
3, ,61, ,
2, ,61, ,
2, ,63, ,
3, ,61, ,
2, ,62, ,
2, ,62, ,
3, ,61, ,
2, ,61, ,
1, ,62, ,
3, ,61, ,
2, ,62, ,
2, ,62, ,
3, ,61, ,
2, ,62, ,
2, ,62, ,
3, ,60, ,
2, ,62, ,
2, ,62, ,
3, ,61, ,
2, ,61, ,
1, ,62, ,
3, ,61, ,
2, ,62, ,
2, ,62, ,
3, ,61, ,
2, ,61, ,
1, ,62, ,
3, ,60, ,
5, ,62, ,
11, ,62, ,
10, ,61, ,
7, ,61, ,
5, ,62, ,
6, ,60, ,
3, ,61, ,
3, ,62, ,
3, ,61, ,
2, ,61, ,
1, ,62, ,
3, ,60, ,
2, ,62, ,
2, ,62, ,
3, ,61, ,
2, ,61, ,
1, ,62, ,
3, ,61, ,
2, ,62, ,
2, ,62, ,
3, ,61, ,
2, ,62, ,
1, ,63, ,
3, ,60, ,
2, ,62, ,
2, ,62, ,
3, ,61, ,
5, ,61, ,
5, ,62, ,
6, ,55, ,
3, ,36, ,
3, ,18, ,
3, ,6, ,
3, ,-4, ,
2, ,-11, ,
3, ,-16, ,
2, ,-20, ,
2, ,-23, ,
2, ,-25, ,
2, ,-27, ,
2, ,-28, ,
3, ,-30, ,
2, ,-30, ,
2, ,-31, ,
3, ,-31, ,
3, ,-31, ,
2, ,-32, ,
3, ,-32, ,
2, ,-32, ,
2, ,-32, ,
2, ,-32, ,
3, ,-32, ,
1, ,-32, ,
3, ,-32, ,
2, ,-32, ,
2, ,-32, ,
2, ,-32, ,
3, ,-32, ,
1, ,-32, ,
3, ,-31, ,
2, ,-32, ,
2, ,-32, ,
2, ,-32, ,
2, ,-32, ,
2, ,-32, ,
3, ,-31, ,
2, ,-32, ,
2, ,-31, ,
2, ,-32, ,
3, ,-32, ,
1, ,-32, ,
3, ,-32, ,
2, ,-32, ,
2, ,-32, ,
3, ,-32, ,
3, ,-31, ,
2, ,-32, ,
3, ,-31, ,
2, ,-31, ,
2, ,-32, ,
2, ,-32, ,
3, ,-32, ,
2, ,-32, ,
2, ,-31, ,
2, ,-31, ,
2, ,-32, ,
2, ,-32, ,
2, ,-31, ,
1, ,-32, ,
2, ,-31, ,
2, ,-31, ,
2, ,-32, ,
2, ,-31, ,
2, ,-31, ,
1, ,-32, ,
3, ,-31, ,
2, ,-32, ,
2, ,-31, ,
2, ,-31, ,
2, ,-31, ,
1, ,-32, ,
3, ,-31, ,
2, ,-31, ,
2, ,-31, ,
2, ,-32, ,
3, ,-32, ,
1, ,-32, ,
2, ,-31, ,
2, ,-32, ,
2, ,-31, ,
2, ,-31, ,
2, ,-31, ,
1, ,-31, ,
3, ,-31, ,
2, ,-32, ,
2, ,-31, ,
2, ,-31, ,
3, ,-31, ,
2, ,-31, ,
3, ,-31, ,
2, ,-31, ,
2, ,-31, ,
2, ,-31, ,
3, ,-31, ,
1, ,-31, ,
2, ,-31, ,
2, ,-31, ,
2, ,-31, ,
2, ,-31, ,
2, ,-31, ,
1, ,-32, ,
2, ,-31, ,
2, ,-31, ,
2, ,-31, ,
2, ,-31, ,
2, ,-31, ,
1, ,-32, ,
2, ,-31, ,
2, ,-31, ,
2, ,-31, ,
2, ,-31, ,
2, ,-32, ,
1, ,-31, ,
2, ,-31, ,
2, ,-31, ,
2, ,-31, ,
2, ,-31, ,
2, ,-31, ,
1, ,-31, ,
2, ,-31, ,
1, ,-31, ,
2, ,-31, ,
2, ,-31, ,
2, ,-31, ,
1, ,-31, ,
2, ,-31, ,
2, ,-31, ,
2, ,-32, ,
2, ,-31, ,
2, ,-31, ,
1, ,-32, ,
2, ,-31, ,
1, ,-31, ,
1, ,-32, ,
2, ,-31, ,
2, ,-31, ,
1, ,-32, ,
2, ,-31, ,
1, ,-31, ,
2, ,-31, ,
2, ,-31, ,
2, ,-31, ,
1, ,-32, ,
2, ,-31, ,
1, ,-31, ,
2, ,-31, ,
2, ,-31, ,
2, ,-31, ,
1, ,-32, ,
2, ,-31, ,
2, ,-31, ,
2, ,-31, ,
2, ,-31, ,
2, ,-31, ,
1, ,-32, ,
2, ,-31, ,
2, ,-31, ,
2, ,-31, ,
2, ,-31, ,
2, ,-31, ,
1, ,-31, ,
2, ,-31, ,
2, ,-31, ,
2, ,-31, ,
2, ,-31, ,
2, ,-31, ,
1, ,-32, ,
2, ,-31, ,
2, ,-31, ,
2, ,-32, ,
2, ,-31, ,
2, ,-31, ,
1, ,-31, ,
2, ,-31, ,
2, ,-31, ,
1, ,-31, ,
2, ,-31, ,
2, ,-31, ,
1, ,-31, ,
2, ,-31, ,
2, ,-31, ,
1, ,-31, ,
2, ,-31, ,
2, ,-31, ,
1, ,-31, ,
2, ,-31, ,
2, ,-31, ,
1, ,-31, ,
2, ,-31, ,
2, ,-31, ,
1, ,-31, ,
2, ,-31, ,
2, ,-31, ,
1, ,-31, ,
2, ,-31, ,
2, ,-31, ,
1, ,-31, ,
2, ,-31, ,
2, ,-31, ,
2, ,-31, ,
2, ,-31, ,
2, ,-31, ,
1, ,-32, ,
2, ,-31, ,
1, ,-31, ,
2, ,-31, ,
2, ,-31, ,
2, ,-31, ,
1, ,-32, ,
2, ,-31, ,
2, ,-31, ,
2, ,-31, ,
2, ,-31, ,
2, ,-31, ,
1, ,-32, ,
2, ,-31, ,
1, ,-31, ,
1, ,-31, ,
2, ,-31, ,
2, ,-31, ,
1, ,-31, ,
2, ,-31, ,
1, ,-31, ,
2, ,-31, ,
2, ,-31, ,
2, ,-31, ,
1, ,-31, ,
2, ,-31, ,
1, ,-31, ,
1, ,-31, ,
2, ,-31, ,
2, ,-31, ,
1, ,-32, ,
2, ,-31, ,
1, ,-31, ,
2, ,-31, ,
2, ,-32, ,
2, ,-31, ,
1, ,-31, ,
2, ,-31, ,
1, ,-31, ,
1, ,-31, ,
2, ,-31, ,
2, ,-31, ,
1, ,-31, ,
2, ,-31, ,
1, ,-31, ,
2, ,-31, ,
2, ,-31, ,
2, ,-31, ,
1, ,-32, ,
2, ,-31, ,
1, ,-31, ,
1, ,-31, ,
2, ,-31, ,
2, ,-31, ,
1, ,-31, ,
2, ,-31, ,
1, ,-31, ,
1, ,-31, ,
2, ,-31, ,
1, ,-31, ,
1, ,-32, ,
2, ,-31, ,
1, ,-31, ,
1, ,-31, ,
2, ,-31, ,
2, ,-32, ,
1, ,-32, ,
2, ,-31, ,
1, ,-31, ,
1, ,-31, ,
2, ,-31, ,
1, ,-31, ,
1, ,-32, ,
2, ,-31, ,
1, ,-31, ,
1, ,-31, ,
2, ,-31, ,
2, ,-31, ,
1, ,-31, ,
2, ,-31, ,
1, ,-31, ,
1, ,-31, ,
2, ,-31, ,
2, ,-31, ,
1, ,-31, ,
2, ,-31, ,
1, ,-31, ,
1, ,-31, ,
2, ,-31, ,
1, ,-31, ,
1, ,-31, ,
2, ,-31, ,
1, ,-31, ,
1, ,-31, ,
2, ,-31, ,
2, ,-32, ,
1, ,-32, ,
2, ,-31, ,
1, ,-31, ,
1, ,-31, ,
2, ,-31, ,
1, ,-32, ,
1, ,-31, ,
2, ,-31, ,
1, ,-31, ,
1, ,-31, ,
2, ,-31, ,
2, ,-31, ,
1, ,-32, ,
2, ,-31, ,
1, ,-31, ,
1, ,-31, ,
2, ,-32, ,
1, ,-31, ,
1, ,-32, ,
2, ,-31, ,
1, ,-31, ,
1, ,-31, ,
2, ,-31, ,
2, ,-31, ,
1, ,-31, ,
2, ,-31, ,
1, ,-31, ,
1, ,-31, ,
2, ,-31, ,
2, ,-32, ,
1, ,-31, ,
2, ,-31, ,
1, ,-31, ,
1, ,-31, ,
2, ,-31, ,
1, ,-31, ,
1, ,-32, ,
2, ,-31, ,
1, ,-31, ,
1, ,-31, ,
2, ,-31, ,
1, ,-31, ,
-1, ,-31, ,
2, ,-31, ,
1, ,-31, ,
1, ,-31, ,
2, ,-31, ,
2, ,-31, ,
1, ,-31, ,
2, ,-31, ,
1, ,-31, ,
1, ,-31, ,
2, ,-31, ,
1, ,-31, ,
1, ,-31, ,
2, ,-31, ,
1, ,-31, ,
1, ,-31, ,
2, ,-31, ,
1, ,-31, ,
1, ,-32, ,
2, ,-31, ,
1, ,-31, ,
1, ,-31, ,
2, ,-31, ,
1, ,-31, ,
-1, ,-31, ,
2, ,-31, ,
1, ,-31, ,
1, ,-31, ,
2, ,-31, ,
1, ,-31, ,
1, ,-32, ,
1, ,-31, ,
1, ,-31, ,
1, ,-31, ,
2, ,-31, ,
1, ,-32, ,
-1, ,-32, ,
1, ,-31, ,
1, ,-31, ,
1, ,-31, ,
2, ,-31, ,
1, ,-31, ,
-1, ,-32, ,
1, ,-31, ,
1, ,-31, ,
1, ,-31, ,
2, ,-31, ,
1, ,-31, ,
-1, ,-31, ,
1, ,-31, ,
1, ,-31, ,
1, ,-31, ,
2, ,-31, ,
1, ,-31, ,
-1, ,-31, ,
2, ,-31, ,
1, ,-31, ,
1, ,-31, ,
1, ,-31, ,
1, ,-31, ,
-1, ,-31, ,
2, ,-31, ,
1, ,-31, ,
1, ,-32, ,
1, ,-31, ,
1, ,-31, ,
-1, ,-32, ,
2, ,-31, ,
1, ,-31, ,
1, ,-31, ,
2, ,-31, ,
1, ,-31, ,
-1, ,-32, ,
1, ,-31, ,
1, ,-31, ,
1, ,-31, ,
2, ,-31, ,
1, ,-31, ,
-1, ,-32, ,
2, ,-31, ,
1, ,-31, ,
2, ,-31, ,
2, ,-31, ,
1, ,-31, ,
1, ,-32, ,
2, ,-32, ,
1, ,-31, ,
1, ,-31, ,
2, ,-31, ,
1, ,-31, ,
1, ,-31, ,
2, ,-31, ,
1, ,-31, ,
1, ,-31, ,
2, ,-31, ,
1, ,-31, ,
1, ,-31, ,
1, ,-31, ,
1, ,-31, ,
1, ,-31, ,
2, ,-31, ,
1, ,-31, ,
-1, ,-32, ,
2, ,-31, ,
1, ,-31, ,
1, ,-31, ,
2, ,-31, ,
1, ,-31, ,
-1, ,-31, ,
2, ,-31, ,
1, ,-32, ,
1, ,-31, ,
2, ,-31, ,
1, ,-31, ,
-1, ,-32, ,
1, ,-31, ,
1, ,-31, ,
1, ,-31, ,
1, ,-31, ,
1, ,-31, ,
-1, ,-31, ,
2, ,-31, ,
1, ,-31, ,
1, ,-31, ,
1, ,-31, ,
1, ,-31, ,
-1, ,-32, ,
2, ,-31, ,
1, ,-31, ,
1, ,-31, ,
2, ,-31, ,
1, ,-31, ,
-1, ,-32, ,
2, ,-31, ,
1, ,-31, ,
1, ,-31, ,
1, ,-32, ,
1, ,-31, ,
-1, ,-31, ,
2, ,-31, ,
1, ,-31, ,
1, ,-31, ,
2, ,-31, ,
1, ,-31, ,
-1, ,-32, ,
2, ,-31, ,
1, ,-31, ,
1, ,-31, ,
1, ,-31, ,
1, ,-31, ,
-1, ,-32, ,
1, ,-31, ,
1, ,-31, ,
1, ,-31, ,
2, ,-31, ,
1, ,-31, ,
-1, ,-31, ,
2, ,-31, ,
1, ,-31, ,
1, ,-31, ,
2, ,-31, ,
1, ,-31, ,
-1, ,-31, ,
1, ,-31, ,
1, ,-31, ,
1, ,-31, ,
2, ,-31, ,
1, ,-31, ,
-1, ,-31, ,
1, ,-32, ,
1, ,-31, ,
1, ,-31, ,
1, ,-31, ,
1, ,-31, ,
-1, ,-32, ,
2, ,-31, ,
1, ,-31, ,
1, ,-31, ,
2, ,-31, ,
1, ,-31, ,
-1, ,-32, ,
1, ,-31, ,
1, ,-31, ,
1, ,-31, ,
1, ,-31, ,
1, ,-31, ,
-1, ,-32, ,
1, ,-31, ,
1, ,-31, ,
1, ,-32, ,
2, ,-31, ,
1, ,-31, ,
-1, ,-32, ,
1, ,-31, ,
1, ,-31, ,
1, ,-31, ,
1, ,-31, ,
1, ,-31, ,
-1, ,-31, ,
1, ,-31, ,
1, ,-31, ,
1, ,-31, ,
2, ,-31, ,
1, ,-31, ,
-1, ,-31, ,
1, ,-31, ,
1, ,-31, ,
1, ,-31, ,
1, ,-31, ,
1, ,-31, ,
-1, ,-32, ,
2, ,-31, ,
1, ,-31, ,
1, ,-31, ,
1, ,-32, ,
1, ,-31, ,
-1, ,-31, ,
1, ,-31, ,
1, ,-31, ,
1, ,-31, ,
1, ,-31, ,
1, ,-31, ,
-1, ,-31, ,
1, ,-31, ,
1, ,-31, ,
1, ,-31, ,
1, ,-31, ,
1, ,-31, ,
-1, ,-32, ,
1, ,-31, ,
1, ,-31, ,
1, ,-31, ,
2, ,-31, ,
1, ,-31, ,
-1, ,-32, ,
2, ,-31, ,
1, ,-31, ,
1, ,-31, ,
2, ,-31, ,
1, ,-31, ,
-1, ,-32, ,
1, ,-31, ,
1, ,-31, ,
1, ,-31, ,
2, ,-31, ,
1, ,-31, ,
-1, ,-32, ,
2, ,-31, ,
1, ,-31, ,
1, ,-31, ,
2, ,-32, ,
1, ,-31, ,
-1, ,-31, ,
1, ,-31, ,
1, ,-31, ,
1, ,-31, ,
1, ,-31, ,
1, ,-31, ,
-1, ,-31, ,
1, ,-31, ,
1, ,-31, ,
1, ,-31, ,
2, ,-31, ,
1, ,-31, ,
-1, ,-32, ,
1, ,-31, ,
1, ,-31, ,
1, ,-31, ,
1, ,-31, ,
1, ,-31, ,
-1, ,-32, ,
2, ,-31, ,
1, ,-31, ,
1, ,-31, ,
2, ,-32, ,
1, ,-31, ,
-1, ,-31, ,
1, ,-31, ,
1, ,-31, ,
1, ,-31, ,
1, ,-32, ,
1, ,-31, ,
-1, ,-32, ,
1, ,-31, ,
1, ,-31, ,
1, ,-31, ,
1, ,-22, ,
2, ,-2, ,
-1, ,15, ,
2, ,26, ,
1, ,36, ,
1, ,42, ,
1, ,47, ,
1, ,51, ,
-1, ,55, ,
2, ,56, ,
1, ,58, ,
1, ,59, ,
2, ,60, ,
1, ,60, ,
-1, ,62, ,
2, ,60, ,
1, ,61, ,
1, ,62, ,
1, ,61, ,
1, ,61, ,
-1, ,63, ,
67, ,61, ,
41, ,62, ,
25, ,62, ,
16, ,62, ,
11, ,62, ,
7, ,63, ,
7, ,61, ,
5, ,62, ,
3, ,63, ,
5, ,61, ,
3, ,62, ,
2, ,63, ,
5, ,61, ,
2, ,62, ,
2, ,62, ,
2, ,61, ,
2, ,62, ,
1, ,63, ,
3, ,61, ,
2, ,62, ,
2, ,62, ,
3, ,61, ,
2, ,62, ,
2, ,62, ,
3, ,61, ,
2, ,62, ,
2, ,62, ,
3, ,61, ,
2, ,62, ,
1, ,63, ,
3, ,61, ,
2, ,62, ,
2, ,62, ,
2, ,61, ,
2, ,61, ,
2, ,62, ,
3, ,60, ,
2, ,62, ,
2, ,62, ,
2, ,61, ,
2, ,61, ,
1, ,63, ,
3, ,61, ,
2, ,62, ,
2, ,62, ,
2, ,61, ,
2, ,61, ,
1, ,62, ,
3, ,61, ,
2, ,61, ,
2, ,62, ,
3, ,61, ,
2, ,62, ,
1, ,63, ,
3, ,60, ,
2, ,62, ,
2, ,62, ,
2, ,61, ,
2, ,62, ,
1, ,62, ,
3, ,61, ,
2, ,62, ,
2, ,62, ,
10, ,62, ,
11, ,62, ,
8, ,63, ,
8, ,61, ,
6, ,62, ,
5, ,62, ,
5, ,61, ,
3, ,61, ,
2, ,62, ,
3, ,61, ,
2, ,62, ,
3, ,62, ,
3, ,61, ,
2, ,62, ,
2, ,63, ,
5, ,60, ,
2, ,62, ,
2, ,62, ,
3, ,61, ,
2, ,61, ,
2, ,62, ,
3, ,61, ,
2, ,62, ,
2, ,62, ,
3, ,61, ,
3, ,61, ,
1, ,62, ,
3, ,60, ,
2, ,62, ,
2, ,62, ,
3, ,60, ,
2, ,61, ,
2, ,62, ,
3, ,60, ,
2, ,62, ,
2, ,62, ,
2, ,61, ,
2, ,62, ,
1, ,62, ,
3, ,60, ,
2, ,62, ,
2, ,62, ,
2, ,61, ,
6, ,61, ,
6, ,62, ,
8, ,60, ,
6, ,61, ,
5, ,61, ,
5, ,61, ,
3, ,61, ,
2, ,63, ,
5, ,61, ,
2, ,62, ,
2, ,62, ,
2, ,61, ,
2, ,61, ,
2, ,63, ,
3, ,60, ,
2, ,62, ,
2, ,62, ,
3, ,61, ,
2, ,61, ,
2, ,62, ,
3, ,60, ,
2, ,62, ,
2, ,62, ,
3, ,61, ,
3, ,61, ,
1, ,62, ,
3, ,60, ,
2, ,59, ,
2, ,42, ,
2, ,23, ,
2, ,9, ,
5, ,-1, ,
7, ,-9, ,
5, ,-15, ,
5, ,-19, ,
5, ,-23, ,
3, ,-24, ,
2, ,-26, ,
5, ,-28, ,
2, ,-28, ,
2, ,-30, ,
3, ,-31, ,
3, ,-31, ,
2, ,-32, ,
3, ,-32, ,
2, ,-32, ,
2, ,-32, ,
2, ,-32, ,
3, ,-32, ,
2, ,-32, ,
2, ,-32, ,
2, ,-32, ,
2, ,-32, ,
2, ,-32, ,
2, ,-32, ,
2, ,-32, ,
3, ,-32, ,
2, ,-32, ,
2, ,-32, ,
2, ,-32, ,
3, ,-32, ,
2, ,-32, ,
3, ,-32, ,
2, ,-31, ,
1, ,-32, ,
2, ,-32, ,
3, ,-32, ,
2, ,-32, ,
3, ,-32, ,
2, ,-32, ,
2, ,-32, ,
2, ,-32, ,
2, ,-31, ,
1, ,-32, ,
2, ,-31, ,
2, ,-31, ,
2, ,-32, ,
2, ,-32, ,
2, ,-32, ,
1, ,-32, ,
3, ,-31, ,
2, ,-31, ,
2, ,-32, ,
2, ,-32, ,
2, ,-31, ,
1, ,-32, ,
3, ,-31, ,
2, ,-31, ,
2, ,-32, ,
2, ,-32, ,
2, ,-32, ,
1, ,-32, ,
2, ,-31, ,
2, ,-31, ,
2, ,-32, ,
2, ,-31, ,
2, ,-32, ,
2, ,-32, ,
3, ,-31, ,
2, ,-31, ,
2, ,-31, ,
2, ,-32, ,
3, ,-31, ,
1, ,-32, ,
2, ,-31, ,
2, ,-31, ,
2, ,-32, ,
2, ,-31, ,
3, ,-32, ,
1, ,-32, ,
2, ,-31, ,
2, ,-31, ,
2, ,-32, ,
2, ,-31, ,
2, ,-31, ,
2, ,-31, ,
3, ,-31, ,
2, ,-31, ,
2, ,-31, ,
2, ,-31, ,
2, ,-31, ,
1, ,-31, ,
3, ,-31, ,
2, ,-31, ,
2, ,-31, ,
2, ,-31, ,
3, ,-31, ,
1, ,-31, ,
3, ,-31, ,
2, ,-31, ,
2, ,-31, ,
2, ,-31, ,
3, ,-31, ,
2, ,-31, ,
3, ,-31, ,
2, ,-31, ,
2, ,-31, ,
2, ,-31, ,
2, ,-31, ,
1, ,-32, ,
2, ,-31, ,
2, ,-31, ,
2, ,-31, ,
2, ,-31, ,
2, ,-31, ,
1, ,-32, ,
3, ,-31, ,
2, ,-31, ,
2, ,-31, ,
2, ,-31, ,
2, ,-31, ,
1, ,-31, ,
2, ,-31, ,
2, ,-31, ,
2, ,-31, ,
2, ,-32, ,
3, ,-31, ,
1, ,-32, ,
2, ,-31, ,
2, ,-31, ,
2, ,-31, ,
2, ,-31, ,
2, ,-31, ,
1, ,-31, ,
3, ,-31, ,
2, ,-31, ,
1, ,-31, ,
2, ,-31, ,
2, ,-31, ,
1, ,-31, ,
2, ,-31, ,
2, ,-31, ,
1, ,-31, ,
2, ,-31, ,
2, ,-31, ,
1, ,-31, ,
2, ,-31, ,
2, ,-31, ,
1, ,-31, ,
2, ,-31, ,
2, ,-31, ,
1, ,-32, ,
2, ,-31, ,
1, ,-31, ,
1, ,-31, ,
2, ,-31, ,
2, ,-31, ,
1, ,-31, ,
3, ,-31, ,
1, ,-32, ,
1, ,-31, ,
2, ,-31, ,
2, ,-31, ,
1, ,-31, ,
2, ,-31, ,
1, ,-31, ,
2, ,-32, ,
2, ,-31, ,
2, ,-32, ,
1, ,-31, ,
2, ,-31, ,
1, ,-31, ,
2, ,-31, ,
2, ,-31, ,
2, ,-31, ,
1, ,-31, ,
2, ,-31, ,
1, ,-31, ,
2, ,-31, ,
2, ,-31, ,
2, ,-31, ,
1, ,-31, ,
2, ,-31, ,
1, ,-31, ,
1, ,-31, ,
2, ,-31, ,
2, ,-31, ,
1, ,-31, ,
2, ,-31, ,
1, ,-31, ,
2, ,-31, ,
2, ,-31, ,
2, ,-31, ,
1, ,-31, ,
2, ,-31, ,
1, ,-31, ,
2, ,-31, ,
2, ,-31, ,
2, ,-31, ,
1, ,-31, ,
2, ,-31, ,
1, ,-31, ,
1, ,-31, ,
2, ,-31, ,
2, ,-31, ,
1, ,-31, ,
2, ,-31, ,
2, ,-31, ,
2, ,-31, ,
2, ,-31, ,
2, ,-31, ,
1, ,-31, ,
2, ,-31, ,
1, ,-31, ,
1, ,-31, ,
2, ,-31, ,
2, ,-31, ,
1, ,-31, ,
2, ,-31, ,
2, ,-31, ,
1, ,-31, ,
2, ,-31, ,
2, ,-31, ,
1, ,-32, ,
2, ,-31, ,
1, ,-31, ,
1, ,-31, ,
2, ,-31, ,
2, ,-32, ,
1, ,-31, ,
2, ,-31, ,
1, ,-31, ,
2, ,-31, ,
2, ,-31, ,
2, ,-31, ,
1, ,-31, ,
2, ,-31, ,
1, ,-31, ,
2, ,-31, ,
2, ,-31, ,
2, ,-31, ,
1, ,-31, ,
2, ,-31, ,
1, ,-31, ,
1, ,-31, ,
2, ,-31, ,
2, ,-31, ,
1, ,-31, ,
2, ,-31, ,
1, ,-31, ,
2, ,-31, ,
2, ,-32, ,
2, ,-31, ,
1, ,-31, ,
2, ,-31, ,
1, ,-31, ,
1, ,-31, ,
2, ,-31, ,
2, ,-31, ,
1, ,-32, ,
2, ,-31, ,
1, ,-31, ,
2, ,-31, ,
2, ,-32, ,
2, ,-31, ,
1, ,-32, ,
2, ,-31, ,
1, ,-31, ,
1, ,-31, ,
2, ,-31, ,
1, ,-31, ,
1, ,-31, ,
2, ,-31, ,
1, ,-31, ,
1, ,-31, ,
2, ,-31, ,
2, ,-31, ,
1, ,-31, ,
2, ,-31, ,
1, ,-31, ,
1, ,-31, ,
2, ,-31, ,
2, ,-31, ,
1, ,-32, ,
2, ,-31, ,
1, ,-31, ,
1, ,-31, ,
2, ,-31, ,
2, ,-31, ,
1, ,-31, ,
2, ,-31, ,
1, ,-31, ,
2, ,-31, ,
2, ,-31, ,
1, ,-31, ,
-1, ,-32, ,
2, ,-31, ,
1, ,-31, ,
1, ,-31, ,
2, ,-31, ,
2, ,-31, ,
1, ,-31, ,
2, ,-31, ,
1, ,-31, ,
1, ,-31, ,
2, ,-31, ,
2, ,-31, ,
1, ,-32, ,
2, ,-31, ,
1, ,-31, ,
1, ,-32, ,
2, ,-31, ,
1, ,-31, ,
-1, ,-32, ,
2, ,-31, ,
1, ,-31, ,
1, ,-31, ,
2, ,-31, ,
2, ,-31, ,
1, ,-32, ,
2, ,-31, ,
1, ,-31, ,
1, ,-31, ,
2, ,-31, ,
2, ,-32, ,
1, ,-32, ,
2, ,-31, ,
1, ,-31, ,
1, ,-31, ,
2, ,-31, ,
2, ,-31, ,
1, ,-31, ,
2, ,-31, ,
1, ,-31, ,
1, ,-31, ,
2, ,-31, ,
1, ,-31, ,
1, ,-32, ,
2, ,-31, ,
2, ,-31, ,
49, ,-31, ,
34, ,-31, ,
21, ,-31, ,
13, ,-32, ,
10, ,-31, ,
6, ,-31, ,
5, ,-31, ,
5, ,-31, ,
3, ,-31, ,
2, ,-31, ,
3, ,-31, ,
2, ,-31, ,
2, ,-31, ,
3, ,-31, ,
3, ,-31, ,
2, ,-32, ,
3, ,-31, ,
2, ,-31, ,
2, ,-31, ,
3, ,-31, ,
3, ,-31, ,
2, ,-32, ,
3, ,-31, ,
2, ,-31, ,
2, ,-31, ,
2, ,-31, ,
3, ,-31, ,
2, ,-31, ,
3, ,-31, ,
2, ,-31, ,
2, ,-31, ,
3, ,-31, ,
3, ,-32, ,
1, ,-31, ,
3, ,-31, ,
2, ,-32, ,
2, ,-31, ,
2, ,-31, ,
3, ,-31, ,
2, ,-32, ,
2, ,-31, ,
2, ,-31, ,
2, ,-31, ,
2, ,-32, ,
2, ,-32, ,
2, ,-32, ,
3, ,-31, ,
2, ,-31, ,
2, ,-31, ,
2, ,-31, ,
2, ,-31, ,
2, ,-32, ,
2, ,-31, ,
2, ,-31, ,
2, ,-31, ,
2, ,-31, ,
3, ,-32, ,
1, ,-32, ,
2, ,-31, ,
2, ,-31, ,
2, ,-31, ,
2, ,-31, ,
2, ,-31, ,
1, ,-32, ,
2, ,-31, ,
2, ,-31, ,
2, ,-31, ,
2, ,-31, ,
2, ,-31, ,
1, ,-31, ,
2, ,-31, ,
2, ,-31, ,
2, ,-31, ,
2, ,-31, ,
3, ,-31, ,
1, ,-32, ,
3, ,-31, ,
2, ,-31, ,
2, ,-31, ,
2, ,-31, ,
2, ,-32, ,
1, ,-32, ,
2, ,-31, ,
2, ,-31, ,
2, ,-31, ,
2, ,-31, ,
2, ,-31, ,
1, ,-32, ,
2, ,-31, ,
2, ,-31, ,
2, ,-31, ,
2, ,-31, ,
2, ,-32, ,
1, ,-32, ,
2, ,-31, ,
2, ,-31, ,
1, ,-31, ,
2, ,-31, ,
2, ,-31, ,
1, ,-32, ,
2, ,-31, ,
2, ,-31, ,
2, ,-31, ,
2, ,-32, ,
2, ,-31, ,
1, ,-32, ,
2, ,-31, ,
2, ,-31, ,
2, ,-31, ,
2, ,-31, ,
2, ,-31, ,
2, ,-31, ,
2, ,-31, ,
2, ,-31, ,
2, ,-31, ,
3, ,-31, ,
2, ,-31, ,
1, ,-31, ,
2, ,-31, ,
1, ,-31, ,
1, ,-31, ,
2, ,-31, ,
2, ,-31, ,
1, ,-32, ,
2, ,-31, ,
2, ,-31, ,
2, ,-31, ,
2, ,-31, ,
2, ,-32, ,
1, ,-32, ,
2, ,-31, ,
2, ,-32, ,
1, ,-31, ,
2, ,-31, ,
2, ,-31, ,
1, ,-32, ,
2, ,-31, ,
2, ,-31, ,
2, ,-31, ,
2, ,-31, ,
2, ,-31, ,
1, ,-31, ,
2, ,-31, ,
2, ,-32, ,
2, ,-31, ,
2, ,-31, ,
2, ,-31, ,
1, ,-32, ,
2, ,-31, ,
1, ,-31, ,
2, ,-31, ,
2, ,-31, ,
2, ,-31, ,
1, ,-32, ,
2, ,-31, ,
1, ,-31, ,
