src/varyamp_1558/temp0003867.CSV

Format,1.0B,
Memory Length,10000,Memory Length,10000,
IntpDistance,0,IntpDistance,0,
Trigger Address,4999,Trigger Address,4999,
Trigger Level,1.040E+00,Trigger Level,1.040E+00,
Source,CH1,Source,CH2,
Vertical Units,V,Vertical Units,V,
Vertical Units Div,0,Vertical Units Div,0,
Vertical Units Extend Div,16,Vertical Units Extend Div,16,
Label,,Label,,
Probe Type,0,Probe Type,0,
Probe Ratio,1.000e+01,Probe Ratio,1.000e+00,
Vertical Scale,5.000e-01,Vertical Scale,1.000e+00,
Vertical Position,-1.820e+00,Vertical Position,0.000e+00,
Horizontal Units,S,Horizontal Units,S,
Horizontal Scale,2.000E-05,Horizontal Scale,2.000E-05,
Horizontal Position,0.000E+00,Horizontal Position,0.000E+00,
Horizontal Mode,Main,Horizontal Mode,Main,
SincET Mode,Real Time,SincET Mode,Real Time,
Sampling Period,2.000e-08,Sampling Period,2.000e-08,
Horizontal Old Scale,2.000E-05,Horizontal Old Scale,2.000E-05,
Horizontal Old Position,0.000E+00,Horizontal Old Position,0.000E+00,
Firmware,V1.23,Firmware,V1.23,
Mode,Fast,Mode,Fast,
Waveform Data,,Waveform Data,,
2, ,-31, ,
2, ,-31, ,
2, ,-31, ,
2, ,-31, ,
2, ,-31, ,
1, ,-31, ,
2, ,-31, ,
2, ,-31, ,
2, ,-31, ,
2, ,-31, ,
2, ,-31, ,
1, ,-31, ,
2, ,-31, ,
2, ,-31, ,
2, ,-31, ,
2, ,-31, ,
2, ,-31, ,
1, ,-30, ,
2, ,-31, ,
1, ,-31, ,
1, ,-30, ,
2, ,-31, ,
2, ,-31, ,
1, ,-30, ,
2, ,-31, ,
1, ,-31, ,
2, ,-30, ,
2, ,-30, ,
2, ,-31, ,
1, ,-30, ,
2, ,-31, ,
2, ,-31, ,
2, ,-31, ,
2, ,-31, ,
2, ,-31, ,
1, ,-31, ,
2, ,-31, ,
2, ,-31, ,
1, ,-31, ,
2, ,-31, ,
2, ,-31, ,
1, ,-31, ,
2, ,-31, ,
2, ,-31, ,
2, ,-30, ,
2, ,-31, ,
2, ,-31, ,
1, ,-30, ,
2, ,-31, ,
1, ,-31, ,
1, ,-31, ,
2, ,-31, ,
2, ,-31, ,
1, ,-31, ,
2, ,-31, ,
1, ,-31, ,
1, ,-31, ,
2, ,-31, ,
2, ,-30, ,
1, ,-30, ,
2, ,-31, ,
2, ,-31, ,
1, ,-31, ,
2, ,-31, ,
2, ,-31, ,
1, ,-30, ,
2, ,-31, ,
1, ,-31, ,
1, ,-31, ,
2, ,-31, ,
1, ,-31, ,
1, ,-30, ,
2, ,-31, ,
1, ,-31, ,
1, ,-30, ,
2, ,-30, ,
2, ,-31, ,
1, ,-31, ,
2, ,-31, ,
1, ,-30, ,
1, ,-31, ,
2, ,-31, ,
2, ,-31, ,
1, ,-30, ,
2, ,-31, ,
1, ,-31, ,
1, ,-31, ,
2, ,-31, ,
2, ,-31, ,
1, ,-31, ,
2, ,-31, ,
1, ,-31, ,
1, ,-30, ,
2, ,-31, ,
2, ,-31, ,
1, ,-30, ,
2, ,-31, ,
1, ,-31, ,
1, ,-31, ,
1, ,-31, ,
2, ,-31, ,
1, ,-31, ,
2, ,-31, ,
1, ,-31, ,
1, ,-31, ,
2, ,-31, ,
2, ,-31, ,
1, ,-31, ,
2, ,-31, ,
1, ,-31, ,
1, ,-31, ,
2, ,-31, ,
2, ,-31, ,
1, ,-31, ,
2, ,-31, ,
1, ,-31, ,
1, ,-30, ,
2, ,-31, ,
2, ,-31, ,
1, ,-31, ,
2, ,-31, ,
1, ,-31, ,
1, ,-31, ,
2, ,-31, ,
1, ,-31, ,
1, ,-31, ,
2, ,-31, ,
1, ,-31, ,
1, ,-31, ,
2, ,-31, ,
2, ,-31, ,
1, ,-31, ,
2, ,-31, ,
1, ,-31, ,
2, ,-31, ,
2, ,-31, ,
2, ,-31, ,
1, ,-31, ,
2, ,-31, ,
1, ,-31, ,
1, ,-31, ,
2, ,-31, ,
2, ,-31, ,
1, ,-30, ,
2, ,-31, ,
1, ,-31, ,
1, ,-30, ,
2, ,-30, ,
2, ,-31, ,
1, ,-30, ,
2, ,-31, ,
1, ,-31, ,
1, ,-31, ,
2, ,-31, ,
2, ,-31, ,
1, ,-30, ,
2, ,-31, ,
1, ,-31, ,
1, ,-31, ,
2, ,-31, ,
1, ,-31, ,
1, ,-31, ,
2, ,-31, ,
1, ,-31, ,
1, ,-31, ,
2, ,-31, ,
1, ,-31, ,
1, ,-31, ,
2, ,-31, ,
1, ,-31, ,
1, ,-31, ,
2, ,-31, ,
2, ,-31, ,
1, ,-31, ,
2, ,-31, ,
1, ,-31, ,
1, ,-31, ,
2, ,-31, ,
1, ,-31, ,
1, ,-30, ,
2, ,-31, ,
1, ,-31, ,
1, ,-31, ,
2, ,-31, ,
2, ,-31, ,
1, ,-31, ,
2, ,-31, ,
1, ,-31, ,
1, ,-31, ,
2, ,-31, ,
1, ,-31, ,
-1, ,-31, ,
2, ,-31, ,
1, ,-31, ,
1, ,-31, ,
2, ,-31, ,
1, ,-31, ,
1, ,-31, ,
2, ,-31, ,
1, ,-31, ,
1, ,-31, ,
2, ,-31, ,
1, ,-31, ,
-1, ,-31, ,
2, ,-31, ,
1, ,-31, ,
1, ,-30, ,
2, ,-31, ,
1, ,-31, ,
-1, ,-31, ,
2, ,-31, ,
1, ,-31, ,
1, ,-31, ,
2, ,-31, ,
1, ,-31, ,
-1, ,-31, ,
2, ,-31, ,
1, ,-31, ,
1, ,-31, ,
2, ,-31, ,
1, ,-31, ,
-1, ,-31, ,
1, ,-31, ,
1, ,-31, ,
1, ,-31, ,
2, ,-31, ,
1, ,-31, ,
-1, ,-30, ,
2, ,-31, ,
1, ,-31, ,
1, ,-31, ,
1, ,-31, ,
1, ,-31, ,
-1, ,-31, ,
2, ,-31, ,
1, ,-31, ,
1, ,-31, ,
2, ,-31, ,
2, ,-31, ,
-1, ,-30, ,
1, ,-31, ,
1, ,-31, ,
1, ,-30, ,
2, ,-31, ,
1, ,-31, ,
-1, ,-30, ,
2, ,-31, ,
1, ,-31, ,
1, ,-31, ,
2, ,-31, ,
1, ,-31, ,
-1, ,-30, ,
2, ,-31, ,
1, ,-31, ,
1, ,-31, ,
2, ,-31, ,
2, ,-31, ,
-1, ,-31, ,
1, ,-31, ,
1, ,-31, ,
1, ,-31, ,
2, ,-31, ,
1, ,-31, ,
-1, ,-30, ,
2, ,-31, ,
1, ,-31, ,
1, ,-31, ,
2, ,-31, ,
1, ,-31, ,
-1, ,-31, ,
2, ,-31, ,
1, ,-31, ,
1, ,-31, ,
2, ,-31, ,
1, ,-31, ,
-1, ,-31, ,
2, ,-31, ,
1, ,-31, ,
1, ,-31, ,
2, ,-31, ,
1, ,-31, ,
1, ,-30, ,
2, ,-31, ,
1, ,-31, ,
1, ,-31, ,
2, ,-31, ,
1, ,-31, ,
-1, ,-30, ,
2, ,-31, ,
1, ,-31, ,
1, ,-31, ,
2, ,-31, ,
2, ,-31, ,
1, ,-31, ,
2, ,-31, ,
1, ,-31, ,
1, ,-31, ,
2, ,-31, ,
1, ,-31, ,
-1, ,-30, ,
2, ,-31, ,
1, ,-31, ,
1, ,-31, ,
2, ,-31, ,
1, ,-31, ,
-1, ,-30, ,
2, ,-31, ,
1, ,-31, ,
1, ,-24, ,
2, ,-4, ,
2, ,13, ,
1, ,25, ,
2, ,36, ,
1, ,42, ,
1, ,47, ,
2, ,52, ,
1, ,55, ,
-1, ,57, ,
2, ,59, ,
1, ,59, ,
1, ,61, ,
2, ,62, ,
1, ,61, ,
-1, ,62, ,
2, ,63, ,
-1, ,62, ,
1, ,63, ,
1, ,63, ,
1, ,63, ,
-1, ,63, ,
2, ,63, ,
-1, ,62, ,
-1, ,63, ,
1, ,64, ,
1, ,62, ,
-1, ,63, ,
2, ,64, ,
-1, ,62, ,
10, ,63, ,
57, ,63, ,
36, ,62, ,
21, ,63, ,
16, ,63, ,
10, ,63, ,
7, ,63, ,
6, ,64, ,
3, ,62, ,
2, ,63, ,
3, ,63, ,
2, ,62, ,
1, ,62, ,
3, ,63, ,
3, ,62, ,
1, ,62, ,
3, ,63, ,
2, ,62, ,
2, ,62, ,
3, ,63, ,
2, ,62, ,
1, ,63, ,
2, ,63, ,
2, ,61, ,
2, ,62, ,
3, ,63, ,
2, ,62, ,
1, ,62, ,
3, ,63, ,
2, ,62, ,
2, ,63, ,
3, ,63, ,
3, ,62, ,
1, ,62, ,
3, ,63, ,
2, ,61, ,
2, ,62, ,
7, ,63, ,
7, ,62, ,
6, ,62, ,
7, ,63, ,
5, ,62, ,
3, ,63, ,
5, ,63, ,
3, ,61, ,
2, ,63, ,
3, ,63, ,
2, ,61, ,
2, ,62, ,
3, ,63, ,
2, ,62, ,
1, ,62, ,
3, ,63, ,
2, ,62, ,
2, ,62, ,
3, ,63, ,
2, ,61, ,
1, ,63, ,
3, ,63, ,
2, ,62, ,
2, ,62, ,
3, ,63, ,
3, ,62, ,
1, ,62, ,
3, ,63, ,
2, ,62, ,
2, ,63, ,
3, ,63, ,
2, ,62, ,
1, ,62, ,
3, ,63, ,
2, ,61, ,
2, ,62, ,
3, ,63, ,
3, ,62, ,
1, ,62, ,
3, ,63, ,
3, ,62, ,
7, ,62, ,
8, ,63, ,
6, ,61, ,
5, ,62, ,
5, ,63, ,
3, ,61, ,
3, ,62, ,
3, ,63, ,
3, ,62, ,
1, ,62, ,
3, ,63, ,
2, ,62, ,
2, ,63, ,
3, ,63, ,
2, ,61, ,
1, ,62, ,
3, ,63, ,
2, ,62, ,
2, ,62, ,
2, ,63, ,
2, ,62, ,
2, ,62, ,
3, ,62, ,
2, ,62, ,
2, ,62, ,
3, ,63, ,
2, ,62, ,
1, ,62, ,
3, ,63, ,
2, ,61, ,
2, ,62, ,
3, ,63, ,
3, ,62, ,
1, ,62, ,
3, ,63, ,
2, ,62, ,
2, ,62, ,
7, ,63, ,
8, ,62, ,
6, ,62, ,
6, ,63, ,
3, ,61, ,
3, ,62, ,
3, ,63, ,
3, ,62, ,
2, ,62, ,
3, ,62, ,
1, ,45, ,
2, ,25, ,
2, ,11, ,
2, ,1, ,
1, ,-7, ,
3, ,-14, ,
2, ,-18, ,
2, ,-21, ,
2, ,-24, ,
2, ,-26, ,
1, ,-27, ,
3, ,-28, ,
2, ,-28, ,
2, ,-30, ,
3, ,-31, ,
2, ,-31, ,
1, ,-31, ,
3, ,-31, ,
2, ,-31, ,
2, ,-31, ,
2, ,-31, ,
2, ,-31, ,
2, ,-31, ,
3, ,-32, ,
2, ,-31, ,
2, ,-31, ,
3, ,-32, ,
3, ,-31, ,
1, ,-31, ,
2, ,-31, ,
2, ,-31, ,
2, ,-31, ,
5, ,-31, ,
8, ,-31, ,
7, ,-31, ,
7, ,-31, ,
5, ,-31, ,
3, ,-31, ,
3, ,-31, ,
3, ,-31, ,
2, ,-31, ,
3, ,-31, ,
2, ,-31, ,
2, ,-31, ,
3, ,-31, ,
3, ,-31, ,
2, ,-31, ,
2, ,-31, ,
2, ,-31, ,
2, ,-31, ,
2, ,-31, ,
3, ,-31, ,
1, ,-31, ,
3, ,-31, ,
2, ,-31, ,
2, ,-31, ,
2, ,-31, ,
3, ,-31, ,
2, ,-31, ,
3, ,-31, ,
2, ,-31, ,
2, ,-31, ,
3, ,-31, ,
3, ,-31, ,
2, ,-31, ,
3, ,-31, ,
2, ,-31, ,
2, ,-30, ,
3, ,-31, ,
3, ,-31, ,
2, ,-31, ,
3, ,-31, ,
2, ,-31, ,
2, ,-30, ,
2, ,-31, ,
2, ,-31, ,
2, ,-31, ,
2, ,-31, ,
2, ,-30, ,
2, ,-31, ,
3, ,-31, ,
3, ,-31, ,
2, ,-31, ,
3, ,-31, ,
2, ,-31, ,
2, ,-31, ,
3, ,-31, ,
3, ,-31, ,
1, ,-31, ,
2, ,-31, ,
2, ,-31, ,
2, ,-30, ,
3, ,-31, ,
3, ,-31, ,
2, ,-30, ,
3, ,-31, ,
2, ,-31, ,
2, ,-31, ,
2, ,-31, ,
3, ,-31, ,
1, ,-30, ,
2, ,-31, ,
2, ,-30, ,
2, ,-30, ,
2, ,-31, ,
3, ,-31, ,
1, ,-31, ,
3, ,-31, ,
2, ,-31, ,
2, ,-31, ,
2, ,-31, ,
2, ,-31, ,
1, ,-31, ,
3, ,-31, ,
2, ,-30, ,
2, ,-30, ,
2, ,-31, ,
2, ,-31, ,
1, ,-31, ,
3, ,-31, ,
2, ,-31, ,
2, ,-31, ,
2, ,-31, ,
2, ,-30, ,
1, ,-31, ,
2, ,-31, ,
2, ,-31, ,
2, ,-31, ,
2, ,-31, ,
3, ,-31, ,
1, ,-31, ,
2, ,-31, ,
2, ,-31, ,
2, ,-31, ,
2, ,-31, ,
2, ,-30, ,
1, ,-30, ,
3, ,-31, ,
2, ,-31, ,
2, ,-31, ,
2, ,-31, ,
2, ,-31, ,
1, ,-31, ,
2, ,-30, ,
2, ,-31, ,
1, ,-31, ,
2, ,-31, ,
2, ,-31, ,
1, ,-31, ,
2, ,-31, ,
2, ,-31, ,
2, ,-30, ,
2, ,-31, ,
2, ,-31, ,
1, ,-31, ,
2, ,-31, ,
2, ,-31, ,
2, ,-31, ,
2, ,-31, ,
2, ,-31, ,
1, ,-31, ,
2, ,-31, ,
2, ,-31, ,
2, ,-31, ,
2, ,-31, ,
2, ,-31, ,
1, ,-30, ,
2, ,-31, ,
2, ,-31, ,
1, ,-30, ,
2, ,-31, ,
2, ,-31, ,
1, ,-31, ,
2, ,-31, ,
1, ,-31, ,
2, ,-30, ,
2, ,-31, ,
2, ,-31, ,
1, ,-30, ,
2, ,-31, ,
2, ,-31, ,
2, ,-31, ,
2, ,-31, ,
2, ,-31, ,
1, ,-31, ,
2, ,-31, ,
2, ,-31, ,
2, ,-30, ,
2, ,-31, ,
2, ,-31, ,
2, ,-31, ,
2, ,-31, ,
1, ,-31, ,
1, ,-31, ,
2, ,-31, ,
2, ,-30, ,
1, ,-31, ,
2, ,-31, ,
2, ,-30, ,
2, ,-31, ,
2, ,-31, ,
2, ,-31, ,
1, ,-30, ,
2, ,-31, ,
2, ,-31, ,
1, ,-30, ,
2, ,-31, ,
2, ,-31, ,
1, ,-30, ,
2, ,-31, ,
2, ,-31, ,
1, ,-31, ,
2, ,-31, ,
2, ,-31, ,
1, ,-30, ,
2, ,-31, ,
2, ,-30, ,
1, ,-31, ,
2, ,-31, ,
2, ,-30, ,
1, ,-31, ,
2, ,-30, ,
1, ,-31, ,
1, ,-31, ,
2, ,-31, ,
2, ,-31, ,
1, ,-31, ,
2, ,-31, ,
1, ,-31, ,
1, ,-31, ,
2, ,-31, ,
2, ,-31, ,
1, ,-31, ,
2, ,-31, ,
2, ,-31, ,
2, ,-31, ,
2, ,-31, ,
2, ,-31, ,
1, ,-31, ,
2, ,-31, ,
2, ,-30, ,
1, ,-31, ,
2, ,-31, ,
2, ,-30, ,
1, ,-30, ,
2, ,-31, ,
1, ,-31, ,
1, ,-31, ,
2, ,-31, ,
2, ,-31, ,
1, ,-30, ,
2, ,-31, ,
1, ,-31, ,
2, ,-31, ,
2, ,-31, ,
2, ,-31, ,
1, ,-31, ,
2, ,-31, ,
1, ,-30, ,
2, ,-30, ,
2, ,-30, ,
2, ,-31, ,
1, ,-31, ,
2, ,-31, ,
1, ,-31, ,
1, ,-31, ,
2, ,-31, ,
2, ,-31, ,
1, ,-31, ,
2, ,-31, ,
1, ,-31, ,
1, ,-31, ,
2, ,-31, ,
2, ,-31, ,
1, ,-31, ,
2, ,-31, ,
1, ,-31, ,
2, ,-31, ,
2, ,-31, ,
2, ,-31, ,
1, ,-31, ,
2, ,-31, ,
1, ,-31, ,
1, ,-30, ,
2, ,-31, ,
1, ,-31, ,
1, ,-30, ,
2, ,-31, ,
1, ,-31, ,
1, ,-31, ,
2, ,-31, ,
2, ,-31, ,
1, ,-30, ,
2, ,-31, ,
1, ,-31, ,
1, ,-31, ,
2, ,-31, ,
1, ,-31, ,
1, ,-31, ,
1, ,-31, ,
1, ,-31, ,
1, ,-31, ,
2, ,-31, ,
2, ,-31, ,
1, ,-31, ,
2, ,-30, ,
1, ,-31, ,
2, ,-30, ,
2, ,-31, ,
2, ,-31, ,
1, ,-31, ,
2, ,-31, ,
1, ,-31, ,
1, ,-31, ,
2, ,-31, ,
2, ,-31, ,
1, ,-31, ,
2, ,-31, ,
1, ,-31, ,
1, ,-31, ,
2, ,-31, ,
2, ,-31, ,
1, ,-31, ,
2, ,-31, ,
1, ,-31, ,
1, ,-31, ,
2, ,-31, ,
2, ,-31, ,
1, ,-31, ,
2, ,-31, ,
1, ,-31, ,
1, ,-31, ,
2, ,-30, ,
2, ,-31, ,
1, ,-31, ,
2, ,-31, ,
1, ,-31, ,
1, ,-31, ,
2, ,-30, ,
1, ,-30, ,
1, ,-31, ,
2, ,-31, ,
1, ,-31, ,
1, ,-31, ,
2, ,-30, ,
2, ,-31, ,
1, ,-31, ,
2, ,-31, ,
1, ,-31, ,
1, ,-30, ,
2, ,-31, ,
1, ,-31, ,
1, ,-31, ,
2, ,-31, ,
1, ,-31, ,
1, ,-30, ,
2, ,-31, ,
2, ,-31, ,
1, ,-31, ,
2, ,-31, ,
1, ,-31, ,
1, ,-30, ,
2, ,-31, ,
2, ,-31, ,
1, ,-31, ,
2, ,-31, ,
1, ,-31, ,
1, ,-31, ,
2, ,-31, ,
1, ,-31, ,
1, ,-31, ,
2, ,-31, ,
1, ,-31, ,
1, ,-31, ,
2, ,-31, ,
2, ,-31, ,
1, ,-30, ,
2, ,-31, ,
1, ,-31, ,
1, ,-30, ,
2, ,-30, ,
2, ,-31, ,
1, ,-30, ,
2, ,-31, ,
1, ,-31, ,
1, ,-31, ,
2, ,-31, ,
2, ,-31, ,
1, ,-30, ,
2, ,-31, ,
1, ,-31, ,
1, ,-30, ,
2, ,-31, ,
1, ,-31, ,
1, ,-31, ,
2, ,-31, ,
1, ,-31, ,
1, ,-30, ,
2, ,-31, ,
2, ,-31, ,
1, ,-30, ,
2, ,-31, ,
1, ,-31, ,
1, ,-31, ,
2, ,-31, ,
2, ,-31, ,
1, ,-31, ,
2, ,-31, ,
1, ,-31, ,
1, ,-31, ,
1, ,-31, ,
1, ,-31, ,
-1, ,-30, ,
2, ,-31, ,
1, ,-31, ,
2, ,-31, ,
2, ,-31, ,
2, ,-31, ,
1, ,-31, ,
2, ,-31, ,
1, ,-31, ,
1, ,-31, ,
2, ,-31, ,
1, ,-31, ,
-1, ,-30, ,
2, ,-31, ,
1, ,-31, ,
1, ,-31, ,
1, ,-31, ,
1, ,-31, ,
-1, ,-31, ,
1, ,-31, ,
1, ,-31, ,
1, ,-30, ,
2, ,-31, ,
2, ,-30, ,
-1, ,-30, ,
2, ,-31, ,
1, ,-31, ,
1, ,-31, ,
2, ,-31, ,
1, ,-31, ,
1, ,-31, ,
2, ,-31, ,
1, ,-31, ,
1, ,-31, ,
2, ,-31, ,
1, ,-31, ,
-1, ,-31, ,
2, ,-31, ,
1, ,-31, ,
1, ,-31, ,
1, ,-30, ,
1, ,-31, ,
1, ,-31, ,
2, ,-31, ,
1, ,-31, ,
1, ,-31, ,
2, ,-31, ,
1, ,-31, ,
-1, ,-30, ,
2, ,-31, ,
1, ,-30, ,
1, ,-31, ,
2, ,-31, ,
1, ,-31, ,
1, ,-31, ,
2, ,-31, ,
1, ,-31, ,
1, ,-31, ,
2, ,-31, ,
1, ,-30, ,
1, ,-31, ,
2, ,-31, ,
1, ,-31, ,
1, ,-30, ,
2, ,-31, ,
1, ,-31, ,
1, ,-31, ,
2, ,-31, ,
1, ,-31, ,
1, ,-31, ,
2, ,-31, ,
1, ,-31, ,
1, ,-30, ,
2, ,-31, ,
1, ,-31, ,
1, ,-30, ,
2, ,-31, ,
2, ,-31, ,
1, ,-30, ,
2, ,-31, ,
1, ,-31, ,
1, ,-31, ,
62, ,-31, ,
50, ,-31, ,
29, ,-30, ,
20, ,-31, ,
12, ,-31, ,
8, ,-31, ,
6, ,-31, ,
5, ,-31, ,
3, ,-30, ,
3, ,-31, ,
2, ,-31, ,
2, ,-30, ,
3, ,-31, ,
3, ,-31, ,
1, ,-31, ,
3, ,-31, ,
2, ,-31, ,
2, ,-31, ,
3, ,-31, ,
3, ,-31, ,
2, ,-31, ,
3, ,-31, ,
2, ,-31, ,
2, ,-31, ,
3, ,-31, ,
3, ,-31, ,
1, ,-31, ,
2, ,-31, ,
2, ,-31, ,
2, ,-30, ,
2, ,-31, ,
3, ,-31, ,
2, ,-31, ,
3, ,-31, ,
2, ,-31, ,
2, ,-31, ,
3, ,-31, ,
3, ,-31, ,
1, ,-31, ,
3, ,-31, ,
2, ,-31, ,
2, ,-31, ,
3, ,-31, ,
3, ,-31, ,
2, ,-31, ,
3, ,-31, ,
2, ,-31, ,
2, ,-31, ,
2, ,-31, ,
3, ,-31, ,
2, ,-31, ,
3, ,-31, ,
2, ,-31, ,
2, ,-31, ,
2, ,-31, ,
2, ,-31, ,
1, ,-31, ,
2, ,-31, ,
2, ,-31, ,
2, ,-31, ,
3, ,-31, ,
2, ,-31, ,
1, ,-31, ,
2, ,-31, ,
2, ,-31, ,
2, ,-31, ,
2, ,-31, ,
2, ,-31, ,
1, ,-31, ,
3, ,-31, ,
2, ,-31, ,
2, ,-31, ,
2, ,-31, ,
2, ,-31, ,
1, ,-31, ,
2, ,-31, ,
2, ,-31, ,
2, ,-31, ,
2, ,-31, ,
2, ,-31, ,
1, ,-30, ,
3, ,-31, ,
2, ,-31, ,
2, ,-31, ,
2, ,-31, ,
2, ,-31, ,
1, ,-31, ,
2, ,-31, ,
2, ,-31, ,
2, ,-31, ,
2, ,-30, ,
2, ,-31, ,
1, ,-30, ,
3, ,-31, ,
2, ,-30, ,
2, ,-30, ,
2, ,-31, ,
2, ,-31, ,
1, ,-31, ,
2, ,-31, ,
2, ,-31, ,
2, ,-31, ,
2, ,-31, ,
2, ,-31, ,
1, ,-31, ,
3, ,-31, ,
1, ,-31, ,
2, ,-31, ,
2, ,-31, ,
2, ,-31, ,
1, ,-31, ,
2, ,-31, ,
2, ,-31, ,
2, ,-30, ,
2, ,-31, ,
3, ,-31, ,
2, ,-30, ,
2, ,-31, ,
2, ,-31, ,
2, ,-31, ,
2, ,-31, ,
2, ,-31, ,
1, ,-31, ,
2, ,-31, ,
2, ,-31, ,
1, ,-31, ,
2, ,-31, ,
2, ,-31, ,
1, ,-31, ,
2, ,-31, ,
2, ,-31, ,
2, ,-31, ,
3, ,-27, ,
2, ,-9, ,
1, ,9, ,
3, ,23, ,
2, ,33, ,
2, ,41, ,
2, ,46, ,
2, ,51, ,
1, ,54, ,
2, ,57, ,
1, ,58, ,
1, ,59, ,
3, ,61, ,
2, ,61, ,
1, ,62, ,
2, ,63, ,
2, ,62, ,
2, ,62, ,
2, ,63, ,
2, ,63, ,
1, ,62, ,
2, ,63, ,
1, ,62, ,
1, ,63, ,
2, ,64, ,
2, ,62, ,
1, ,63, ,
2, ,64, ,
1, ,62, ,
5, ,62, ,
31, ,64, ,
21, ,63, ,
13, ,62, ,
11, ,64, ,
7, ,62, ,
6, ,63, ,
6, ,63, ,
3, ,62, ,
2, ,62, ,
3, ,63, ,
2, ,61, ,
2, ,62, ,
2, ,63, ,
2, ,62, ,
1, ,62, ,
3, ,63, ,
2, ,62, ,
2, ,63, ,
3, ,63, ,
2, ,62, ,
1, ,62, ,
3, ,63, ,
2, ,61, ,
2, ,62, ,
2, ,63, ,
2, ,62, ,
1, ,62, ,
3, ,63, ,
2, ,62, ,
2, ,62, ,
3, ,63, ,
2, ,62, ,
1, ,62, ,
3, ,64, ,
2, ,62, ,
2, ,62, ,
2, ,63, ,
2, ,62, ,
1, ,62, ,
3, ,63, ,
2, ,62, ,
2, ,63, ,
2, ,63, ,
2, ,62, ,
1, ,62, ,
3, ,63, ,
2, ,61, ,
2, ,62, ,
2, ,63, ,
2, ,62, ,
1, ,62, ,
6, ,62, ,
8, ,62, ,
8, ,62, ,
7, ,63, ,
6, ,62, ,
3, ,62, ,
6, ,63, ,
3, ,62, ,
2, ,62, ,
3, ,63, ,
3, ,62, ,
2, ,62, ,
3, ,63, ,
2, ,62, ,
2, ,63, ,
3, ,63, ,
3, ,62, ,
2, ,63, ,
3, ,63, ,
2, ,61, ,
2, ,62, ,
3, ,63, ,
3, ,62, ,
1, ,62, ,
3, ,63, ,
2, ,61, ,
2, ,62, ,
3, ,63, ,
2, ,62, ,
1, ,62, ,
3, ,63, ,
2, ,61, ,
2, ,62, ,
3, ,62, ,
2, ,62, ,
1, ,62, ,
3, ,63, ,
2, ,62, ,
2, ,62, ,
2, ,63, ,
2, ,62, ,
1, ,62, ,
6, ,63, ,
7, ,61, ,
6, ,62, ,
6, ,63, ,
5, ,62, ,
3, ,62, ,
5, ,63, ,
3, ,61, ,
2, ,62, ,
2, ,63, ,
2, ,62, ,
2, ,62, ,
3, ,63, ,
2, ,61, ,
2, ,62, ,
3, ,63, ,
2, ,62, ,
2, ,62, ,
3, ,63, ,
2, ,62, ,
2, ,63, ,
3, ,63, ,
2, ,62, ,
1, ,62, ,
3, ,63, ,
2, ,61, ,
2, ,62, ,
3, ,63, ,
2, ,62, ,
1, ,62, ,
3, ,63, ,
2, ,61, ,
2, ,52, ,
2, ,32, ,
2, ,15, ,
1, ,3, ,
2, ,-5, ,
1, ,-13, ,
2, ,-17, ,
6, ,-20, ,
8, ,-23, ,
6, ,-25, ,
7, ,-27, ,
5, ,-28, ,
3, ,-28, ,
3, ,-30, ,
3, ,-30, ,
1, ,-31, ,
3, ,-31, ,
2, ,-31, ,
2, ,-31, ,
3, ,-32, ,
3, ,-31, ,
2, ,-31, ,
3, ,-31, ,
2, ,-31, ,
2, ,-31, ,
3, ,-32, ,
3, ,-31, ,
1, ,-31, ,
2, ,-31, ,
2, ,-31, ,
2, ,-31, ,
2, ,-31, ,
3, ,-31, ,
1, ,-31, ,
3, ,-31, ,
2, ,-31, ,
2, ,-31, ,
2, ,-31, ,
3, ,-31, ,
1, ,-31, ,
3, ,-31, ,
2, ,-31, ,
2, ,-31, ,
2, ,-31, ,
3, ,-31, ,
2, ,-31, ,
3, ,-31, ,
2, ,-31, ,
2, ,-31, ,
2, ,-31, ,
3, ,-31, ,
1, ,-31, ,
2, ,-31, ,
2, ,-31, ,
2, ,-30, ,
8, ,-31, ,
10, ,-31, ,
7, ,-31, ,
7, ,-31, ,
5, ,-31, ,
5, ,-31, ,
5, ,-31, ,
3, ,-31, ,
2, ,-30, ,
3, ,-31, ,
2, ,-31, ,
2, ,-31, ,
3, ,-30, ,
2, ,-31, ,
2, ,-31, ,
3, ,-31, ,
2, ,-31, ,
2, ,-31, ,
3, ,-31, ,
3, ,-31, ,
2, ,-31, ,
3, ,-31, ,
2, ,-30, ,
2, ,-31, ,
2, ,-31, ,
3, ,-31, ,
2, ,-31, ,
3, ,-31, ,
2, ,-31, ,
2, ,-31, ,
2, ,-31, ,
3, ,-31, ,
1, ,-31, ,
3, ,-31, ,
2, ,-30, ,
2, ,-30, ,
3, ,-31, ,
3, ,-31, ,
2, ,-31, ,
3, ,-31, ,
2, ,-31, ,
2, ,-30, ,
2, ,-31, ,
3, ,-31, ,
1, ,-31, ,
2, ,-31, ,
2, ,-31, ,
2, ,-30, ,
2, ,-30, ,
3, ,-31, ,
2, ,-31, ,
3, ,-31, ,
2, ,-31, ,
2, ,-31, ,
2, ,-31, ,
3, ,-31, ,
1, ,-31, ,
3, ,-31, ,
2, ,-31, ,
2, ,-31, ,
2, ,-31, ,
3, ,-31, ,
1, ,-31, ,
3, ,-31, ,
2, ,-30, ,
2, ,-30, ,
2, ,-31, ,
2, ,-31, ,
2, ,-31, ,
3, ,-31, ,
2, ,-31, ,
2, ,-31, ,
2, ,-31, ,
3, ,-31, ,
1, ,-31, ,
3, ,-31, ,
2, ,-30, ,
2, ,-30, ,
2, ,-31, ,
3, ,-31, ,
1, ,-31, ,
3, ,-31, ,
2, ,-31, ,
2, ,-30, ,
2, ,-30, ,
2, ,-31, ,
1, ,-31, ,
3, ,-31, ,
2, ,-30, ,
2, ,-31, ,
2, ,-31, ,
2, ,-31, ,
1, ,-31, ,
2, ,-31, ,
2, ,-31, ,
2, ,-30, ,
2, ,-30, ,
2, ,-31, ,
1, ,-30, ,
3, ,-31, ,
2, ,-31, ,
2, ,-31, ,
2, ,-31, ,
2, ,-31, ,
1, ,-31, ,
3, ,-31, ,
1, ,-30, ,
2, ,-30, ,
2, ,-30, ,
2, ,-31, ,
1, ,-31, ,
2, ,-31, ,
2, ,-31, ,
2, ,-31, ,
2, ,-31, ,
2, ,-31, ,
1, ,-31, ,
3, ,-31, ,
2, ,-31, ,
2, ,-31, ,
2, ,-31, ,
2, ,-31, ,
1, ,-31, ,
2, ,-31, ,
2, ,-30, ,
2, ,-30, ,
2, ,-31, ,
2, ,-31, ,
1, ,-30, ,
3, ,-31, ,
2, ,-30, ,
1, ,-31, ,
2, ,-31, ,
2, ,-31, ,
1, ,-31, ,
2, ,-31, ,
1, ,-30, ,
1, ,-31, ,
2, ,-31, ,
2, ,-31, ,
1, ,-30, ,
2, ,-31, ,
2, ,-30, ,
2, ,-31, ,
2, ,-30, ,
2, ,-31, ,
1, ,-31, ,
3, ,-30, ,
2, ,-30, ,
1, ,-31, ,
2, ,-31, ,
2, ,-31, ,
1, ,-31, ,
3, ,-30, ,
2, ,-31, ,
1, ,-30, ,
2, ,-31, ,
2, ,-31, ,
1, ,-30, ,
2, ,-31, ,
2, ,-30, ,
1, ,-31, ,
2, ,-31, ,
2, ,-31, ,
1, ,-31, ,
2, ,-31, ,
1, ,-31, ,
1, ,-31, ,
2, ,-31, ,
2, ,-31, ,
1, ,-31, ,
3, ,-31, ,
2, ,-31, ,
2, ,-30, ,
2, ,-30, ,
2, ,-30, ,
1, ,-31, ,
3, ,-31, ,
1, ,-30, ,
1, ,-30, ,
2, ,-31, ,
2, ,-31, ,
1, ,-30, ,
2, ,-31, ,
1, ,-31, ,
1, ,-31, ,
2, ,-31, ,
2, ,-31, ,
1, ,-31, ,
2, ,-31, ,
2, ,-31, ,
2, ,-30, ,
2, ,-31, ,
2, ,-31, ,
1, ,-30, ,
2, ,-31, ,
2, ,-30, ,
1, ,-31, ,
2, ,-31, ,
2, ,-31, ,
1, ,-30, ,
2, ,-31, ,
2, ,-30, ,
1, ,-30, ,
2, ,-31, ,
2, ,-31, ,
1, ,-31, ,
2, ,-31, ,
1, ,-31, ,
1, ,-30, ,
2, ,-31, ,
2, ,-30, ,
1, ,-30, ,
2, ,-31, ,
1, ,-31, ,
2, ,-30, ,
2, ,-30, ,
2, ,-31, ,
1, ,-30, ,
2, ,-31, ,
1, ,-31, ,
1, ,-31, ,
2, ,-31, ,
2, ,-31, ,
1, ,-31, ,
2, ,-31, ,
1, ,-31, ,
2, ,-30, ,
2, ,-31, ,
2, ,-31, ,
1, ,-30, ,
2, ,-31, ,
1, ,-31, ,
1, ,-31, ,
2, ,-31, ,
2, ,-31, ,
1, ,-30, ,
2, ,-31, ,
1, ,-31, ,
2, ,-30, ,
2, ,-31, ,
2, ,-31, ,
1, ,-30, ,
2, ,-31, ,
1, ,-31, ,
1, ,-31, ,
2, ,-31, ,
2, ,-31, ,
1, ,-30, ,
2, ,-31, ,
1, ,-31, ,
1, ,-30, ,
2, ,-30, ,
2, ,-31, ,
1, ,-31, ,
2, ,-31, ,
1, ,-31, ,
1, ,-31, ,
2, ,-31, ,
2, ,-30, ,
1, ,-30, ,
2, ,-31, ,
2, ,-31, ,
1, ,-30, ,
2, ,-31, ,
1, ,-31, ,
1, ,-30, ,
2, ,-31, ,
1, ,-31, ,
1, ,-31, ,
2, ,-31, ,
2, ,-31, ,
1, ,-30, ,
2, ,-31, ,
2, ,-31, ,
1, ,-31, ,
2, ,-31, ,
2, ,-31, ,
1, ,-31, ,
2, ,-31, ,
1, ,-31, ,
1, ,-30, ,
2, ,-31, ,
1, ,-31, ,
1, ,-30, ,
2, ,-31, ,
1, ,-31, ,
1, ,-30, ,
2, ,-31, ,
1, ,-31, ,
1, ,-31, ,
2, ,-31, ,
1, ,-31, ,
1, ,-31, ,
2, ,-31, ,
2, ,-31, ,
1, ,-30, ,
2, ,-31, ,
1, ,-31, ,
1, ,-30, ,
2, ,-31, ,
2, ,-31, ,
1, ,-31, ,
2, ,-31, ,
1, ,-31, ,
1, ,-31, ,
2, ,-31, ,
1, ,-31, ,
1, ,-30, ,
2, ,-31, ,
1, ,-31, ,
1, ,-30, ,
2, ,-30, ,
1, ,-31, ,
1, ,-31, ,
2, ,-31, ,
1, ,-31, ,
1, ,-31, ,
2, ,-31, ,
2, ,-31, ,
1, ,-30, ,
2, ,-31, ,
1, ,-31, ,
1, ,-30, ,
2, ,-31, ,
1, ,-31, ,
1, ,-31, ,
2, ,-31, ,
1, ,-31, ,
1, ,-31, ,
2, ,-31, ,
1, ,-31, ,
1, ,-30, ,
2, ,-31, ,
1, ,-31, ,
2, ,-31, ,
2, ,-31, ,
1, ,-31, ,
1, ,-31, ,
2, ,-31, ,
1, ,-30, ,
1, ,-31, ,
2, ,-31, ,
1, ,-31, ,
-1, ,-31, ,
2, ,-31, ,
1, ,-31, ,
1, ,-30, ,
1, ,-31, ,
2, ,-31, ,
1, ,-30, ,
2, ,-31, ,
1, ,-30, ,
1, ,-31, ,
2, ,-31, ,
1, ,-30, ,
-1, ,-30, ,
2, ,-31, ,
1, ,-31, ,
1, ,-31, ,
2, ,-31, ,
1, ,-31, ,
-1, ,-31, ,
2, ,-31, ,
1, ,-31, ,
1, ,-31, ,
2, ,-31, ,
1, ,-31, ,
1, ,-30, ,
2, ,-31, ,
1, ,-31, ,
1, ,-30, ,
2, ,-30, ,
2, ,-31, ,
1, ,-30, ,
2, ,-31, ,
1, ,-30, ,
1, ,-30, ,
57, ,-31, ,
44, ,-31, ,
25, ,-30, ,
18, ,-31, ,
11, ,-31, ,
8, ,-30, ,
6, ,-31, ,
5, ,-31, ,
3, ,-31, ,
5, ,-31, ,
2, ,-31, ,
2, ,-30, ,
3, ,-31, ,
3, ,-31, ,
2, ,-31, ,
3, ,-31, ,
2, ,-31, ,
2, ,-31, ,
3, ,-31, ,
3, ,-31, ,
2, ,-31, ,
3, ,-31, ,
2, ,-31, ,
2, ,-30, ,
3, ,-31, ,
2, ,-31, ,
2, ,-30, ,
3, ,-31, ,
2, ,-31, ,
2, ,-30, ,
2, ,-31, ,
3, ,-31, ,
2, ,-30, ,
3, ,-31, ,
2, ,-31, ,
2, ,-31, ,
3, ,-31, ,
3, ,-31, ,
1, ,-30, ,
3, ,-31, ,
2, ,-31, ,
2, ,-30, ,
2, ,-31, ,
3, ,-31, ,
2, ,-30, ,
3, ,-31, ,
2, ,-31, ,
2, ,-30, ,
3, ,-30, ,
3, ,-31, ,
1, ,-30, ,
2, ,-31, ,
2, ,-31, ,
2, ,-31, ,
2, ,-31, ,
2, ,-31, ,
2, ,-31, ,
3, ,-31, ,
2, ,-31, ,
2, ,-31, ,
3, ,-31, ,
3, ,-31, ,
1, ,-30, ,
2, ,-31, ,
2, ,-30, ,
2, ,-31, ,
2, ,-31, ,
2, ,-31, ,
1, ,-30, ,
3, ,-31, ,
