src/varyamp_1558/temp0001604.CSV

Format,1.0B,
Memory Length,10000,Memory Length,10000,
IntpDistance,0,IntpDistance,0,
Trigger Address,4999,Trigger Address,4999,
Trigger Level,1.040E+00,Trigger Level,1.040E+00,
Source,CH1,Source,CH2,
Vertical Units,V,Vertical Units,V,
Vertical Units Div,0,Vertical Units Div,0,
Vertical Units Extend Div,16,Vertical Units Extend Div,16,
Label,,Label,,
Probe Type,0,Probe Type,0,
Probe Ratio,1.000e+01,Probe Ratio,1.000e+00,
Vertical Scale,5.000e-01,Vertical Scale,1.000e+00,
Vertical Position,-1.820e+00,Vertical Position,0.000e+00,
Horizontal Units,S,Horizontal Units,S,
Horizontal Scale,2.000E-05,Horizontal Scale,2.000E-05,
Horizontal Position,0.000E+00,Horizontal Position,0.000E+00,
Horizontal Mode,Main,Horizontal Mode,Main,
SincET Mode,Real Time,SincET Mode,Real Time,
Sampling Period,2.000e-08,Sampling Period,2.000e-08,
Horizontal Old Scale,2.000E-05,Horizontal Old Scale,2.000E-05,
Horizontal Old Position,0.000E+00,Horizontal Old Position,0.000E+00,
Firmware,V1.23,Firmware,V1.23,
Mode,Fast,Mode,Fast,
Waveform Data,,Waveform Data,,
2, ,-34, ,
1, ,-34, ,
-1, ,-34, ,
1, ,-34, ,
1, ,-34, ,
-1, ,-34, ,
2, ,-34, ,
1, ,-34, ,
1, ,-34, ,
2, ,-34, ,
1, ,-34, ,
-1, ,-34, ,
2, ,-34, ,
1, ,-34, ,
1, ,-34, ,
1, ,-34, ,
1, ,-34, ,
-1, ,-34, ,
2, ,-34, ,
1, ,-34, ,
-1, ,-34, ,
2, ,-34, ,
1, ,-33, ,
-1, ,-34, ,
2, ,-34, ,
1, ,-34, ,
-1, ,-34, ,
1, ,-34, ,
1, ,-34, ,
-1, ,-34, ,
2, ,-34, ,
1, ,-34, ,
1, ,-34, ,
1, ,-34, ,
1, ,-34, ,
-1, ,-34, ,
2, ,-34, ,
1, ,-34, ,
1, ,-34, ,
1, ,-34, ,
1, ,-34, ,
-1, ,-34, ,
2, ,-34, ,
1, ,-34, ,
-1, ,-34, ,
2, ,-34, ,
1, ,-34, ,
-1, ,-34, ,
2, ,-34, ,
1, ,-34, ,
1, ,-34, ,
1, ,-34, ,
1, ,-34, ,
-1, ,-34, ,
2, ,-34, ,
1, ,-34, ,
-1, ,-34, ,
2, ,-34, ,
1, ,-34, ,
-1, ,-34, ,
2, ,-34, ,
1, ,-34, ,
8, ,-34, ,
57, ,-34, ,
36, ,-34, ,
22, ,-34, ,
15, ,-34, ,
10, ,-34, ,
6, ,-34, ,
5, ,-34, ,
3, ,-34, ,
2, ,-34, ,
3, ,-34, ,
2, ,-34, ,
1, ,-34, ,
2, ,-34, ,
3, ,-33, ,
1, ,-34, ,
3, ,-34, ,
2, ,-34, ,
2, ,-34, ,
3, ,-34, ,
3, ,-33, ,
1, ,-34, ,
3, ,-34, ,
2, ,-34, ,
1, ,-34, ,
2, ,-34, ,
3, ,-33, ,
1, ,-34, ,
3, ,-34, ,
2, ,-34, ,
2, ,-34, ,
3, ,-34, ,
3, ,-34, ,
1, ,-34, ,
3, ,-34, ,
2, ,-34, ,
2, ,-34, ,
2, ,-34, ,
2, ,-33, ,
1, ,-33, ,
3, ,-34, ,
2, ,-34, ,
2, ,-34, ,
3, ,-34, ,
3, ,-34, ,
1, ,-34, ,
3, ,-34, ,
2, ,-34, ,
1, ,-34, ,
2, ,-34, ,
2, ,-34, ,
1, ,-34, ,
3, ,-34, ,
1, ,-34, ,
1, ,-34, ,
3, ,-34, ,
3, ,-33, ,
1, ,-34, ,
3, ,-34, ,
1, ,-34, ,
2, ,-34, ,
2, ,-34, ,
2, ,-33, ,
1, ,-34, ,
3, ,-34, ,
2, ,-34, ,
1, ,-34, ,
2, ,-34, ,
2, ,-34, ,
1, ,-34, ,
3, ,-34, ,
2, ,-34, ,
1, ,-34, ,
2, ,-34, ,
2, ,-33, ,
1, ,-34, ,
3, ,-34, ,
2, ,-34, ,
1, ,-34, ,
3, ,-34, ,
2, ,-34, ,
1, ,-34, ,
3, ,-34, ,
2, ,-34, ,
1, ,-34, ,
2, ,-34, ,
2, ,-33, ,
1, ,-34, ,
3, ,-34, ,
1, ,-34, ,
1, ,-34, ,
2, ,-34, ,
2, ,-34, ,
1, ,-34, ,
3, ,-34, ,
1, ,-34, ,
1, ,-34, ,
2, ,-34, ,
2, ,-33, ,
1, ,-34, ,
3, ,-34, ,
2, ,-34, ,
1, ,-34, ,
2, ,-34, ,
2, ,-34, ,
1, ,-34, ,
3, ,-34, ,
2, ,-34, ,
1, ,-34, ,
2, ,-34, ,
2, ,-33, ,
1, ,-34, ,
3, ,-34, ,
1, ,-34, ,
1, ,-34, ,
2, ,-34, ,
2, ,-34, ,
1, ,-34, ,
3, ,-34, ,
2, ,-34, ,
1, ,-34, ,
2, ,-34, ,
3, ,-34, ,
1, ,-34, ,
3, ,-34, ,
1, ,-34, ,
1, ,-34, ,
2, ,-34, ,
2, ,-34, ,
1, ,-34, ,
3, ,-34, ,
1, ,-34, ,
1, ,-34, ,
2, ,-34, ,
2, ,-33, ,
1, ,-34, ,
3, ,-34, ,
1, ,-34, ,
1, ,-34, ,
2, ,-34, ,
2, ,-34, ,
1, ,-34, ,
3, ,-34, ,
2, ,-34, ,
1, ,-34, ,
2, ,-34, ,
2, ,-34, ,
1, ,-33, ,
3, ,-34, ,
2, ,-34, ,
1, ,-34, ,
2, ,-34, ,
2, ,-34, ,
1, ,-34, ,
3, ,-34, ,
1, ,-34, ,
1, ,-34, ,
2, ,-34, ,
2, ,-34, ,
1, ,-34, ,
3, ,-34, ,
1, ,-34, ,
1, ,-34, ,
3, ,-34, ,
2, ,-34, ,
-1, ,-34, ,
3, ,-34, ,
2, ,-34, ,
1, ,-34, ,
2, ,-34, ,
2, ,-34, ,
1, ,-34, ,
2, ,-34, ,
1, ,-34, ,
1, ,-34, ,
2, ,-34, ,
2, ,-34, ,
1, ,-34, ,
3, ,-34, ,
1, ,-34, ,
1, ,-34, ,
2, ,-34, ,
2, ,-34, ,
1, ,-34, ,
3, ,-34, ,
1, ,-34, ,
1, ,-34, ,
2, ,-34, ,
2, ,-34, ,
-1, ,-34, ,
3, ,-34, ,
1, ,-34, ,
1, ,-34, ,
2, ,-34, ,
2, ,-33, ,
1, ,-34, ,
2, ,-34, ,
1, ,-34, ,
1, ,-34, ,
2, ,-34, ,
2, ,-34, ,
-1, ,-34, ,
3, ,-34, ,
1, ,-34, ,
1, ,-34, ,
2, ,-34, ,
2, ,-34, ,
1, ,-34, ,
2, ,-34, ,
1, ,-34, ,
1, ,-34, ,
2, ,-34, ,
2, ,-34, ,
-1, ,-34, ,
2, ,-34, ,
1, ,-34, ,
1, ,-34, ,
2, ,-34, ,
2, ,-33, ,
1, ,-34, ,
2, ,-34, ,
1, ,-34, ,
1, ,-34, ,
2, ,-34, ,
2, ,-34, ,
-1, ,-34, ,
3, ,-34, ,
1, ,-34, ,
1, ,-34, ,
2, ,-34, ,
2, ,-34, ,
-1, ,-34, ,
2, ,-34, ,
1, ,-34, ,
1, ,-34, ,
2, ,-34, ,
2, ,-34, ,
-1, ,-34, ,
2, ,-34, ,
1, ,-34, ,
1, ,-34, ,
2, ,-34, ,
2, ,-33, ,
-1, ,-34, ,
2, ,-34, ,
1, ,-32, ,
1, ,-17, ,
2, ,2, ,
2, ,17, ,
-1, ,28, ,
2, ,36, ,
1, ,42, ,
1, ,46, ,
2, ,51, ,
2, ,53, ,
-1, ,55, ,
2, ,56, ,
1, ,57, ,
1, ,58, ,
2, ,58, ,
2, ,58, ,
-1, ,59, ,
2, ,59, ,
1, ,59, ,
1, ,59, ,
2, ,60, ,
2, ,60, ,
-1, ,60, ,
2, ,59, ,
1, ,59, ,
1, ,60, ,
2, ,60, ,
2, ,60, ,
-1, ,60, ,
2, ,60, ,
1, ,60, ,
1, ,59, ,
2, ,60, ,
1, ,59, ,
-1, ,60, ,
2, ,59, ,
1, ,60, ,
1, ,60, ,
2, ,59, ,
1, ,59, ,
-1, ,60, ,
2, ,59, ,
1, ,59, ,
1, ,59, ,
2, ,59, ,
1, ,59, ,
-1, ,60, ,
2, ,59, ,
1, ,59, ,
1, ,59, ,
2, ,59, ,
1, ,59, ,
-1, ,60, ,
2, ,59, ,
1, ,59, ,
1, ,59, ,
2, ,59, ,
1, ,59, ,
-1, ,59, ,
2, ,59, ,
1, ,59, ,
-1, ,59, ,
2, ,59, ,
2, ,59, ,
-1, ,60, ,
2, ,59, ,
1, ,59, ,
1, ,59, ,
2, ,59, ,
1, ,59, ,
-1, ,60, ,
2, ,58, ,
1, ,60, ,
1, ,60, ,
2, ,59, ,
1, ,59, ,
-1, ,60, ,
2, ,59, ,
1, ,59, ,
1, ,59, ,
52, ,59, ,
34, ,59, ,
20, ,60, ,
15, ,59, ,
10, ,59, ,
7, ,60, ,
6, ,59, ,
3, ,59, ,
2, ,60, ,
3, ,59, ,
2, ,59, ,
1, ,60, ,
3, ,59, ,
2, ,59, ,
1, ,60, ,
3, ,59, ,
2, ,59, ,
1, ,60, ,
3, ,59, ,
2, ,59, ,
1, ,59, ,
3, ,59, ,
2, ,59, ,
1, ,59, ,
2, ,59, ,
2, ,59, ,
1, ,60, ,
3, ,59, ,
2, ,59, ,
1, ,60, ,
3, ,59, ,
2, ,59, ,
1, ,60, ,
3, ,59, ,
2, ,59, ,
1, ,59, ,
2, ,59, ,
2, ,59, ,
1, ,59, ,
3, ,59, ,
2, ,59, ,
1, ,59, ,
3, ,59, ,
2, ,59, ,
1, ,60, ,
3, ,59, ,
1, ,59, ,
1, ,59, ,
2, ,59, ,
2, ,59, ,
1, ,60, ,
3, ,59, ,
1, ,59, ,
1, ,59, ,
3, ,59, ,
2, ,59, ,
1, ,59, ,
3, ,59, ,
2, ,59, ,
1, ,59, ,
2, ,59, ,
2, ,59, ,
1, ,60, ,
3, ,59, ,
2, ,59, ,
1, ,59, ,
2, ,59, ,
2, ,59, ,
1, ,59, ,
3, ,59, ,
1, ,59, ,
1, ,59, ,
2, ,59, ,
2, ,59, ,
1, ,60, ,
3, ,51, ,
1, ,32, ,
1, ,15, ,
2, ,2, ,
2, ,-7, ,
1, ,-14, ,
2, ,-19, ,
2, ,-23, ,
1, ,-26, ,
2, ,-28, ,
2, ,-30, ,
1, ,-32, ,
3, ,-32, ,
1, ,-33, ,
1, ,-33, ,
2, ,-34, ,
2, ,-34, ,
1, ,-34, ,
3, ,-34, ,
2, ,-35, ,
1, ,-34, ,
2, ,-34, ,
2, ,-34, ,
1, ,-34, ,
3, ,-35, ,
2, ,-34, ,
1, ,-34, ,
2, ,-35, ,
2, ,-34, ,
1, ,-34, ,
3, ,-34, ,
1, ,-34, ,
1, ,-34, ,
2, ,-34, ,
2, ,-34, ,
1, ,-34, ,
3, ,-34, ,
1, ,-34, ,
1, ,-34, ,
2, ,-34, ,
2, ,-34, ,
1, ,-34, ,
3, ,-34, ,
2, ,-34, ,
1, ,-34, ,
2, ,-34, ,
2, ,-34, ,
1, ,-34, ,
3, ,-34, ,
1, ,-34, ,
1, ,-34, ,
2, ,-34, ,
2, ,-34, ,
1, ,-34, ,
3, ,-34, ,
1, ,-34, ,
1, ,-34, ,
2, ,-34, ,
2, ,-34, ,
1, ,-34, ,
3, ,-34, ,
1, ,-34, ,
1, ,-34, ,
2, ,-34, ,
2, ,-34, ,
1, ,-34, ,
3, ,-34, ,
1, ,-34, ,
1, ,-34, ,
2, ,-34, ,
2, ,-34, ,
1, ,-34, ,
3, ,-34, ,
1, ,-34, ,
1, ,-34, ,
2, ,-34, ,
2, ,-34, ,
1, ,-34, ,
3, ,-34, ,
1, ,-34, ,
1, ,-34, ,
2, ,-34, ,
2, ,-34, ,
1, ,-34, ,
3, ,-34, ,
1, ,-34, ,
1, ,-34, ,
2, ,-34, ,
2, ,-34, ,
1, ,-34, ,
3, ,-34, ,
1, ,-34, ,
1, ,-34, ,
2, ,-34, ,
2, ,-34, ,
1, ,-34, ,
3, ,-34, ,
1, ,-34, ,
1, ,-34, ,
2, ,-34, ,
2, ,-34, ,
-1, ,-34, ,
3, ,-34, ,
1, ,-34, ,
1, ,-34, ,
2, ,-34, ,
2, ,-34, ,
1, ,-34, ,
3, ,-34, ,
1, ,-34, ,
1, ,-34, ,
3, ,-34, ,
2, ,-34, ,
1, ,-34, ,
3, ,-34, ,
1, ,-34, ,
1, ,-34, ,
2, ,-34, ,
2, ,-34, ,
1, ,-34, ,
2, ,-34, ,
1, ,-34, ,
1, ,-34, ,
2, ,-34, ,
2, ,-34, ,
-1, ,-34, ,
3, ,-34, ,
1, ,-34, ,
1, ,-34, ,
2, ,-34, ,
2, ,-34, ,
1, ,-34, ,
2, ,-34, ,
1, ,-34, ,
1, ,-34, ,
2, ,-34, ,
2, ,-33, ,
1, ,-34, ,
3, ,-34, ,
1, ,-34, ,
1, ,-34, ,
2, ,-34, ,
2, ,-33, ,
1, ,-34, ,
3, ,-33, ,
1, ,-34, ,
1, ,-34, ,
2, ,-34, ,
2, ,-34, ,
1, ,-34, ,
3, ,-33, ,
1, ,-34, ,
1, ,-34, ,
2, ,-34, ,
2, ,-33, ,
1, ,-34, ,
3, ,-34, ,
1, ,-34, ,
1, ,-34, ,
1, ,-34, ,
2, ,-33, ,
1, ,-34, ,
2, ,-33, ,
2, ,-34, ,
1, ,-34, ,
1, ,-34, ,
2, ,-33, ,
1, ,-34, ,
2, ,-34, ,
1, ,-34, ,
1, ,-34, ,
2, ,-34, ,
2, ,-33, ,
1, ,-34, ,
2, ,-33, ,
1, ,-34, ,
1, ,-34, ,
2, ,-34, ,
2, ,-34, ,
1, ,-34, ,
2, ,-34, ,
1, ,-34, ,
1, ,-34, ,
2, ,-34, ,
2, ,-34, ,
-1, ,-34, ,
2, ,-33, ,
1, ,-34, ,
1, ,-34, ,
1, ,-34, ,
2, ,-34, ,
1, ,-34, ,
3, ,-34, ,
1, ,-34, ,
1, ,-34, ,
2, ,-34, ,
2, ,-33, ,
-1, ,-34, ,
2, ,-34, ,
1, ,-34, ,
1, ,-34, ,
2, ,-34, ,
2, ,-34, ,
1, ,-34, ,
2, ,-34, ,
1, ,-33, ,
1, ,-34, ,
2, ,-34, ,
2, ,-33, ,
-1, ,-34, ,
2, ,-34, ,
1, ,-34, ,
1, ,-34, ,
2, ,-34, ,
2, ,-33, ,
-1, ,-34, ,
2, ,-34, ,
1, ,-34, ,
1, ,-34, ,
2, ,-34, ,
2, ,-33, ,
-1, ,-34, ,
2, ,-33, ,
1, ,-34, ,
1, ,-34, ,
2, ,-34, ,
2, ,-33, ,
-1, ,-34, ,
2, ,-34, ,
1, ,-34, ,
1, ,-34, ,
2, ,-34, ,
2, ,-34, ,
1, ,-34, ,
2, ,-34, ,
1, ,-34, ,
1, ,-34, ,
2, ,-34, ,
2, ,-34, ,
-1, ,-34, ,
3, ,-34, ,
1, ,-34, ,
1, ,-34, ,
2, ,-34, ,
2, ,-33, ,
-1, ,-34, ,
2, ,-34, ,
1, ,-34, ,
1, ,-34, ,
2, ,-34, ,
1, ,-33, ,
-1, ,-34, ,
2, ,-34, ,
1, ,-34, ,
1, ,-34, ,
2, ,-34, ,
1, ,-34, ,
-1, ,-34, ,
2, ,-34, ,
1, ,-34, ,
1, ,-34, ,
2, ,-34, ,
2, ,-34, ,
-1, ,-34, ,
2, ,-34, ,
1, ,-34, ,
1, ,-34, ,
1, ,-34, ,
1, ,-34, ,
-1, ,-34, ,
2, ,-34, ,
1, ,-34, ,
1, ,-34, ,
2, ,-34, ,
2, ,-34, ,
-1, ,-34, ,
3, ,-34, ,
1, ,-34, ,
1, ,-34, ,
2, ,-34, ,
1, ,-34, ,
1, ,-34, ,
2, ,-34, ,
1, ,-34, ,
1, ,-34, ,
2, ,-34, ,
2, ,-34, ,
-1, ,-33, ,
3, ,-34, ,
1, ,-34, ,
1, ,-34, ,
2, ,-34, ,
1, ,-33, ,
-1, ,-34, ,
2, ,-33, ,
1, ,-34, ,
-1, ,-34, ,
1, ,-34, ,
1, ,-33, ,
-1, ,-34, ,
2, ,-34, ,
1, ,-34, ,
1, ,-34, ,
1, ,-34, ,
1, ,-34, ,
-1, ,-34, ,
2, ,-34, ,
1, ,-34, ,
1, ,-34, ,
2, ,-34, ,
1, ,-34, ,
-1, ,-34, ,
2, ,-34, ,
1, ,-34, ,
1, ,-34, ,
2, ,-34, ,
1, ,-34, ,
-1, ,-34, ,
2, ,-34, ,
1, ,-34, ,
1, ,-34, ,
1, ,-34, ,
1, ,-34, ,
-1, ,-34, ,
2, ,-34, ,
1, ,-34, ,
1, ,-34, ,
2, ,-34, ,
1, ,-34, ,
-1, ,-34, ,
2, ,-34, ,
1, ,-34, ,
-1, ,-34, ,
2, ,-34, ,
1, ,-33, ,
-1, ,-34, ,
2, ,-34, ,
1, ,-34, ,
1, ,-34, ,
2, ,-34, ,
1, ,-34, ,
-1, ,-34, ,
2, ,-34, ,
1, ,-34, ,
1, ,-34, ,
2, ,-34, ,
2, ,-33, ,
-1, ,-34, ,
2, ,-34, ,
1, ,-34, ,
1, ,-34, ,
2, ,-34, ,
2, ,-33, ,
-1, ,-34, ,
2, ,-34, ,
1, ,-34, ,
-1, ,-34, ,
2, ,-34, ,
2, ,-34, ,
-1, ,-34, ,
2, ,-34, ,
-1, ,-34, ,
-1, ,-34, ,
2, ,-34, ,
1, ,-34, ,
-1, ,-34, ,
2, ,-34, ,
1, ,-34, ,
-1, ,-34, ,
2, ,-34, ,
1, ,-34, ,
-1, ,-34, ,
2, ,-34, ,
1, ,-34, ,
1, ,-34, ,
1, ,-34, ,
1, ,-34, ,
-1, ,-34, ,
2, ,-34, ,
1, ,-34, ,
1, ,-34, ,
2, ,-34, ,
1, ,-34, ,
-1, ,-34, ,
2, ,-34, ,
1, ,-34, ,
-1, ,-34, ,
2, ,-34, ,
2, ,-34, ,
-1, ,-34, ,
2, ,-34, ,
1, ,-34, ,
1, ,-34, ,
2, ,-34, ,
1, ,-34, ,
-1, ,-34, ,
2, ,-34, ,
1, ,-34, ,
1, ,-34, ,
2, ,-34, ,
1, ,-34, ,
-1, ,-34, ,
2, ,-34, ,
1, ,-34, ,
1, ,-34, ,
1, ,-34, ,
1, ,-34, ,
-1, ,-34, ,
2, ,-34, ,
1, ,-34, ,
1, ,-33, ,
1, ,-34, ,
1, ,-33, ,
-1, ,-34, ,
1, ,-34, ,
1, ,-34, ,
-1, ,-34, ,
1, ,-34, ,
1, ,-33, ,
-1, ,-34, ,
2, ,-34, ,
1, ,-34, ,
1, ,-34, ,
1, ,-34, ,
1, ,-34, ,
-1, ,-34, ,
2, ,-34, ,
-1, ,-34, ,
-1, ,-34, ,
1, ,-34, ,
1, ,-34, ,
-1, ,-34, ,
2, ,-34, ,
1, ,-34, ,
1, ,-34, ,
1, ,-34, ,
1, ,-33, ,
-1, ,-34, ,
2, ,-34, ,
1, ,-34, ,
-1, ,-34, ,
1, ,-34, ,
1, ,-34, ,
-1, ,-34, ,
2, ,-34, ,
-1, ,-34, ,
-1, ,-34, ,
2, ,-34, ,
1, ,-34, ,
-1, ,-34, ,
2, ,-34, ,
1, ,-34, ,
-1, ,-34, ,
1, ,-34, ,
1, ,-34, ,
-1, ,-34, ,
2, ,-34, ,
1, ,-34, ,
1, ,-34, ,
1, ,-34, ,
1, ,-33, ,
-1, ,-34, ,
2, ,-34, ,
1, ,-34, ,
-1, ,-34, ,
1, ,-34, ,
1, ,-33, ,
-1, ,-34, ,
2, ,-34, ,
1, ,-34, ,
1, ,-34, ,
1, ,-34, ,
1, ,-34, ,
-1, ,-34, ,
2, ,-34, ,
1, ,-34, ,
-1, ,-34, ,
2, ,-34, ,
1, ,-34, ,
-1, ,-34, ,
2, ,-34, ,
-1, ,-34, ,
-1, ,-34, ,
2, ,-34, ,
1, ,-34, ,
-1, ,-34, ,
2, ,-34, ,
1, ,-34, ,
-1, ,-34, ,
1, ,-34, ,
1, ,-34, ,
-1, ,-34, ,
2, ,-34, ,
1, ,-34, ,
1, ,-34, ,
1, ,-34, ,
1, ,-34, ,
-1, ,-34, ,
2, ,-34, ,
1, ,-34, ,
-1, ,-34, ,
1, ,-34, ,
1, ,-34, ,
-1, ,-34, ,
2, ,-34, ,
-1, ,-34, ,
1, ,-34, ,
2, ,-34, ,
1, ,-34, ,
-1, ,-34, ,
2, ,-34, ,
1, ,-34, ,
-1, ,-34, ,
1, ,-34, ,
1, ,-34, ,
-1, ,-34, ,
2, ,-34, ,
-1, ,-34, ,
-1, ,-34, ,
2, ,-34, ,
1, ,-33, ,
-1, ,-34, ,
2, ,-34, ,
1, ,-34, ,
-1, ,-34, ,
1, ,-34, ,
1, ,-33, ,
-1, ,-34, ,
2, ,-34, ,
1, ,-34, ,
-1, ,-34, ,
1, ,-34, ,
1, ,-34, ,
-1, ,-34, ,
2, ,-34, ,
1, ,-34, ,
-1, ,-34, ,
2, ,-34, ,
1, ,-34, ,
-1, ,-34, ,
2, ,-34, ,
1, ,-34, ,
1, ,-34, ,
1, ,-34, ,
1, ,-34, ,
-1, ,-34, ,
1, ,-34, ,
-1, ,-34, ,
-1, ,-34, ,
1, ,-34, ,
1, ,-34, ,
-1, ,-34, ,
2, ,-34, ,
-1, ,-34, ,
-1, ,-34, ,
1, ,-34, ,
1, ,-34, ,
-1, ,-34, ,
2, ,-34, ,
1, ,-34, ,
-1, ,-34, ,
1, ,-34, ,
1, ,-34, ,
-1, ,-34, ,
2, ,-34, ,
-1, ,-34, ,
-1, ,-34, ,
1, ,-34, ,
1, ,-34, ,
-1, ,-34, ,
1, ,-34, ,
-1, ,-34, ,
-1, ,-34, ,
1, ,-34, ,
1, ,-34, ,
-1, ,-34, ,
2, ,-34, ,
-1, ,-34, ,
-1, ,-34, ,
1, ,-34, ,
1, ,-34, ,
-1, ,-34, ,
2, ,-34, ,
-1, ,-34, ,
-1, ,-34, ,
2, ,-34, ,
1, ,-34, ,
-1, ,-34, ,
2, ,-34, ,
-1, ,-34, ,
-1, ,-34, ,
1, ,-34, ,
1, ,-34, ,
-1, ,-34, ,
2, ,-34, ,
1, ,-34, ,
-1, ,-34, ,
1, ,-34, ,
1, ,-34, ,
-1, ,-34, ,
2, ,-34, ,
-1, ,-34, ,
-1, ,-34, ,
1, ,-34, ,
1, ,-34, ,
-1, ,-34, ,
2, ,-34, ,
1, ,-34, ,
-1, ,-34, ,
2, ,-34, ,
1, ,-34, ,
-1, ,-34, ,
2, ,-34, ,
1, ,-34, ,
-1, ,-34, ,
1, ,-34, ,
1, ,-34, ,
-1, ,-34, ,
2, ,-34, ,
-1, ,-34, ,
-1, ,-34, ,
2, ,-34, ,
1, ,-34, ,
-1, ,-34, ,
2, ,-34, ,
-1, ,-34, ,
-1, ,-33, ,
1, ,-22, ,
1, ,-2, ,
-1, ,14, ,
2, ,25, ,
1, ,34, ,
-1, ,41, ,
2, ,46, ,
1, ,50, ,
-1, ,53, ,
2, ,54, ,
-1, ,56, ,
-1, ,57, ,
2, ,58, ,
1, ,58, ,
-1, ,59, ,
1, ,58, ,
-1, ,59, ,
-1, ,60, ,
2, ,59, ,
1, ,59, ,
-1, ,60, ,
2, ,59, ,
-1, ,60, ,
-1, ,60, ,
2, ,60, ,
1, ,60, ,
-1, ,60, ,
1, ,59, ,
-1, ,60, ,
-1, ,60, ,
2, ,60, ,
1, ,59, ,
-1, ,60, ,
2, ,59, ,
-1, ,59, ,
-1, ,60, ,
2, ,59, ,
1, ,59, ,
-1, ,60, ,
2, ,59, ,
-1, ,59, ,
-1, ,60, ,
2, ,59, ,
1, ,60, ,
-1, ,60, ,
2, ,59, ,
-1, ,59, ,
-1, ,60, ,
1, ,59, ,
1, ,59, ,
-1, ,60, ,
2, ,59, ,
-1, ,59, ,
-1, ,59, ,
2, ,59, ,
1, ,59, ,
-1, ,60, ,
2, ,59, ,
-1, ,59, ,
-1, ,60, ,
1, ,59, ,
1, ,59, ,
-1, ,60, ,
2, ,59, ,
-1, ,59, ,
-1, ,59, ,
2, ,59, ,
1, ,59, ,
-2, ,60, ,
83, ,59, ,
58, ,59, ,
34, ,59, ,
24, ,59, ,
15, ,59, ,
8, ,60, ,
7, ,59, ,
5, ,59, ,
2, ,59, ,
5, ,59, ,
2, ,59, ,
1, ,60, ,
3, ,59, ,
2, ,59, ,
2, ,60, ,
3, ,59, ,
2, ,59, ,
1, ,60, ,
3, ,59, ,
2, ,59, ,
1, ,59, ,
2, ,59, ,
2, ,59, ,
1, ,60, ,
3, ,59, ,
2, ,59, ,
1, ,59, ,
3, ,59, ,
2, ,59, ,
1, ,59, ,
3, ,59, ,
2, ,59, ,
1, ,60, ,
3, ,59, ,
2, ,60, ,
1, ,60, ,
3, ,58, ,
2, ,59, ,
1, ,59, ,
3, ,59, ,
2, ,59, ,
1, ,59, ,
3, ,59, ,
2, ,59, ,
1, ,59, ,
3, ,59, ,
2, ,59, ,
1, ,60, ,
3, ,59, ,
2, ,59, ,
1, ,59, ,
3, ,59, ,
2, ,59, ,
1, ,60, ,
3, ,59, ,
2, ,59, ,
1, ,59, ,
3, ,59, ,
2, ,59, ,
1, ,60, ,
3, ,59, ,
2, ,59, ,
1, ,60, ,
3, ,59, ,
2, ,59, ,
1, ,60, ,
3, ,58, ,
1, ,59, ,
1, ,59, ,
2, ,59, ,
2, ,59, ,
1, ,60, ,
3, ,58, ,
1, ,59, ,
1, ,60, ,
3, ,59, ,
2, ,59, ,
1, ,60, ,
3, ,59, ,
2, ,59, ,
1, ,59, ,
2, ,59, ,
2, ,59, ,
1, ,60, ,
3, ,58, ,
1, ,56, ,
1, ,37, ,
2, ,19, ,
3, ,5, ,
16, ,-4, ,
17, ,-13, ,
11, ,-18, ,
8, ,-22, ,
7, ,-25, ,
6, ,-27, ,
3, ,-30, ,
5, ,-31, ,
2, ,-32, ,
2, ,-33, ,
3, ,-33, ,
3, ,-33, ,
1, ,-34, ,
3, ,-34, ,
2, ,-34, ,
1, ,-34, ,
3, ,-34, ,
3, ,-34, ,
1, ,-34, ,
5, ,-35, ,
2, ,-34, ,
2, ,-34, ,
3, ,-34, ,
2, ,-34, ,
2, ,-34, ,
3, ,-34, ,
2, ,-34, ,
1, ,-34, ,
2, ,-34, ,
2, ,-34, ,
2, ,-34, ,
3, ,-34, ,
2, ,-34, ,
2, ,-34, ,
2, ,-35, ,
2, ,-34, ,
1, ,-34, ,
3, ,-34, ,
2, ,-34, ,
1, ,-34, ,
2, ,-34, ,
2, ,-34, ,
1, ,-34, ,
3, ,-34, ,
2, ,-34, ,
2, ,-34, ,
2, ,-34, ,
2, ,-34, ,
1, ,-34, ,
3, ,-34, ,
2, ,-34, ,
1, ,-34, ,
2, ,-34, ,
2, ,-34, ,
1, ,-34, ,
3, ,-34, ,
2, ,-34, ,
2, ,-34, ,
3, ,-34, ,
2, ,-34, ,
1, ,-34, ,
3, ,-34, ,
2, ,-34, ,
1, ,-34, ,
3, ,-34, ,
2, ,-34, ,
1, ,-34, ,
3, ,-34, ,
2, ,-34, ,
2, ,-34, ,
2, ,-34, ,
2, ,-34, ,
1, ,-34, ,
3, ,-34, ,
1, ,-34, ,
1, ,-34, ,
3, ,-34, ,
2, ,-34, ,
1, ,-34, ,
3, ,-34, ,
2, ,-34, ,
1, ,-34, ,
3, ,-34, ,
2, ,-34, ,
1, ,-34, ,
3, ,-34, ,
1, ,-34, ,
1, ,-34, ,
2, ,-34, ,
2, ,-34, ,
1, ,-34, ,
3, ,-34, ,
1, ,-34, ,
2, ,-34, ,
2, ,-34, ,
2, ,-34, ,
1, ,-34, ,
3, ,-34, ,
2, ,-34, ,
1, ,-34, ,
3, ,-34, ,
2, ,-34, ,
1, ,-34, ,
3, ,-34, ,
2, ,-34, ,
1, ,-34, ,
3, ,-34, ,
3, ,-34, ,
1, ,-34, ,
3, ,-34, ,
2, ,-34, ,
1, ,-34, ,
2, ,-34, ,
2, ,-34, ,
1, ,-34, ,
3, ,-34, ,
1, ,-34, ,
1, ,-34, ,
2, ,-34, ,
3, ,-34, ,
1, ,-34, ,
3, ,-34, ,
2, ,-34, ,
1, ,-34, ,
2, ,-34, ,
2, ,-34, ,
1, ,-33, ,
3, ,-34, ,
1, ,-34, ,
1, ,-34, ,
3, ,-34, ,
2, ,-33, ,
1, ,-34, ,
3, ,-33, ,
2, ,-34, ,
1, ,-34, ,
2, ,-34, ,
2, ,-34, ,
1, ,-34, ,
3, ,-34, ,
1, ,-34, ,
1, ,-34, ,
2, ,-34, ,
2, ,-33, ,
1, ,-34, ,
3, ,-34, ,
2, ,-34, ,
1, ,-34, ,
2, ,-34, ,
2, ,-34, ,
1, ,-34, ,
3, ,-34, ,
1, ,-34, ,
1, ,-34, ,
3, ,-34, ,
2, ,-33, ,
1, ,-34, ,
3, ,-33, ,
1, ,-34, ,
1, ,-34, ,
2, ,-34, ,
2, ,-34, ,
1, ,-34, ,
3, ,-34, ,
1, ,-34, ,
1, ,-34, ,
2, ,-34, ,
2, ,-33, ,
1, ,-34, ,
3, ,-33, ,
2, ,-34, ,
1, ,-34, ,
2, ,-34, ,
2, ,-34, ,
1, ,-34, ,
3, ,-34, ,
1, ,-34, ,
1, ,-34, ,
2, ,-34, ,
2, ,-34, ,
1, ,-34, ,
3, ,-34, ,
2, ,-34, ,
1, ,-34, ,
2, ,-34, ,
2, ,-33, ,
1, ,-34, ,
3, ,-34, ,
1, ,-34, ,
1, ,-34, ,
2, ,-34, ,
2, ,-33, ,
1, ,-34, ,
3, ,-34, ,
1, ,-34, ,
1, ,-34, ,
2, ,-34, ,
2, ,-33, ,
1, ,-34, ,
3, ,-34, ,
1, ,-34, ,
1, ,-34, ,
2, ,-34, ,
2, ,-34, ,
-1, ,-34, ,
3, ,-33, ,
1, ,-34, ,
1, ,-34, ,
2, ,-33, ,
2, ,-34, ,
1, ,-34, ,
3, ,-34, ,
1, ,-34, ,
1, ,-34, ,
2, ,-34, ,
2, ,-34, ,
1, ,-34, ,
3, ,-34, ,
1, ,-34, ,
1, ,-34, ,
2, ,-34, ,
2, ,-34, ,
1, ,-34, ,
3, ,-34, ,
1, ,-34, ,
1, ,-34, ,
2, ,-34, ,
2, ,-33, ,
1, ,-34, ,
3, ,-34, ,
1, ,-34, ,
1, ,-34, ,
2, ,-34, ,
2, ,-34, ,
1, ,-34, ,
3, ,-34, ,
1, ,-34, ,
1, ,-34, ,
2, ,-34, ,
2, ,-33, ,
1, ,-34, ,
3, ,-34, ,
1, ,-34, ,
1, ,-34, ,
2, ,-34, ,
2, ,-34, ,
-1, ,-34, ,
3, ,-34, ,
2, ,-34, ,
1, ,-34, ,
2, ,-34, ,
2, ,-34, ,
1, ,-34, ,
2, ,-34, ,
1, ,-34, ,
1, ,-34, ,
2, ,-34, ,
2, ,-34, ,
1, ,-34, ,
3, ,-34, ,
1, ,-33, ,
1, ,-34, ,
2, ,-34, ,
2, ,-34, ,
-1, ,-34, ,
2, ,-34, ,
1, ,-34, ,
1, ,-34, ,
2, ,-34, ,
2, ,-34, ,
-1, ,-34, ,
2, ,-34, ,
1, ,-34, ,
1, ,-34, ,
2, ,-34, ,
1, ,-34, ,
1, ,-34, ,
2, ,-34, ,
1, ,-34, ,
1, ,-34, ,
2, ,-34, ,
1, ,-34, ,
-1, ,-34, ,
3, ,-34, ,
1, ,-34, ,
1, ,-34, ,
2, ,-34, ,
2, ,-34, ,
1, ,-34, ,
2, ,-34, ,
1, ,-34, ,
1, ,-34, ,
2, ,-34, ,
2, ,-34, ,
-1, ,-34, ,
3, ,-34, ,
1, ,-34, ,
1, ,-34, ,
2, ,-34, ,
2, ,-33, ,
-1, ,-34, ,
2, ,-34, ,
1, ,-34, ,
1, ,-34, ,
2, ,-34, ,
2, ,-34, ,
-1, ,-34, ,
2, ,-34, ,
1, ,-34, ,
1, ,-34, ,
2, ,-34, ,
2, ,-34, ,
-1, ,-34, ,
2, ,-34, ,
1, ,-34, ,
1, ,-34, ,
2, ,-34, ,
2, ,-34, ,
-1, ,-34, ,
2, ,-34, ,
1, ,-33, ,
1, ,-34, ,
2, ,-34, ,
2, ,-34, ,
-1, ,-34, ,
2, ,-34, ,
1, ,-34, ,
1, ,-34, ,
2, ,-34, ,
1, ,-33, ,
-1, ,-34, ,
2, ,-34, ,
1, ,-34, ,
1, ,-34, ,
2, ,-34, ,
2, ,-33, ,
-1, ,-34, ,
2, ,-33, ,
1, ,-34, ,
-1, ,-34, ,
2, ,-33, ,
1, ,-34, ,
-1, ,-34, ,
2, ,-34, ,
1, ,-34, ,
1, ,-34, ,
2, ,-34, ,
1, ,-34, ,
-1, ,-34, ,
2, ,-34, ,
1, ,-34, ,
1, ,-34, ,
2, ,-34, ,
2, ,-34, ,
-1, ,-34, ,
2, ,-34, ,
1, ,-34, ,
1, ,-34, ,
2, ,-34, ,
1, ,-34, ,
-1, ,-34, ,
2, ,-34, ,
1, ,-34, ,
1, ,-34, ,
2, ,-34, ,
2, ,-33, ,
-1, ,-34, ,
2, ,-34, ,
1, ,-34, ,
1, ,-34, ,
2, ,-34, ,
2, ,-34, ,
-1, ,-34, ,
2, ,-34, ,
1, ,-34, ,
-1, ,-34, ,
2, ,-33, ,
2, ,-33, ,
1, ,-34, ,
2, ,-34, ,
1, ,-34, ,
1, ,-34, ,
2, ,-34, ,
1, ,-33, ,
-1, ,-34, ,
2, ,-34, ,
1, ,-34, ,
1, ,-34, ,
1, ,-34, ,
1, ,-33, ,
-1, ,-34, ,
2, ,-34, ,
1, ,-34, ,
1, ,-34, ,
2, ,-34, ,
2, ,-34, ,
-1, ,-34, ,
2, ,-33, ,
1, ,-34, ,
-1, ,-34, ,
2, ,-34, ,
1, ,-34, ,
-1, ,-34, ,
2, ,-34, ,
1, ,-34, ,
1, ,-34, ,
1, ,-34, ,
2, ,-33, ,
-1, ,-34, ,
2, ,-34, ,
1, ,-34, ,
-1, ,-34, ,
2, ,-34, ,
1, ,-33, ,
-1, ,-34, ,
2, ,-34, ,
1, ,-34, ,
1, ,-34, ,
1, ,-34, ,
1, ,-34, ,
-1, ,-34, ,
2, ,-34, ,
1, ,-34, ,
1, ,-34, ,
2, ,-34, ,
1, ,-33, ,
-1, ,-34, ,
2, ,-34, ,
1, ,-34, ,
1, ,-34, ,
1, ,-34, ,
1, ,-34, ,
-1, ,-34, ,
2, ,-34, ,
1, ,-34, ,
1, ,-34, ,
1, ,-34, ,
1, ,-34, ,
-1, ,-34, ,
2, ,-34, ,
1, ,-34, ,
-1, ,-34, ,
1, ,-34, ,
1, ,-34, ,
-1, ,-34, ,
2, ,-34, ,
1, ,-34, ,
-1, ,-34, ,
2, ,-34, ,
1, ,-34, ,
-1, ,-34, ,
2, ,-34, ,
1, ,-34, ,
1, ,-34, ,
1, ,-34, ,
1, ,-34, ,
-1, ,-34, ,
2, ,-34, ,
1, ,-34, ,
-1, ,-34, ,
1, ,-34, ,
1, ,-33, ,
-1, ,-34, ,
2, ,-34, ,
1, ,-34, ,
1, ,-34, ,
2, ,-34, ,
1, ,-34, ,
-1, ,-33, ,
2, ,-34, ,
1, ,-34, ,
-1, ,-34, ,
2, ,-34, ,
2, ,-34, ,
-1, ,-34, ,
2, ,-34, ,
1, ,-34, ,
1, ,-34, ,
2, ,-34, ,
1, ,-33, ,
-1, ,-34, ,
1, ,-34, ,
