src/varyamp_1558/temp0004047.CSV

Format,1.0B,
Memory Length,10000,Memory Length,10000,
IntpDistance,0,IntpDistance,0,
Trigger Address,4999,Trigger Address,4999,
Trigger Level,1.040E+00,Trigger Level,1.040E+00,
Source,CH1,Source,CH2,
Vertical Units,V,Vertical Units,V,
Vertical Units Div,0,Vertical Units Div,0,
Vertical Units Extend Div,16,Vertical Units Extend Div,16,
Label,,Label,,
Probe Type,0,Probe Type,0,
Probe Ratio,1.000e+01,Probe Ratio,1.000e+00,
Vertical Scale,5.000e-01,Vertical Scale,1.000e+00,
Vertical Position,-1.820e+00,Vertical Position,0.000e+00,
Horizontal Units,S,Horizontal Units,S,
Horizontal Scale,2.000E-05,Horizontal Scale,2.000E-05,
Horizontal Position,0.000E+00,Horizontal Position,0.000E+00,
Horizontal Mode,Main,Horizontal Mode,Main,
SincET Mode,Real Time,SincET Mode,Real Time,
Sampling Period,2.000e-08,Sampling Period,2.000e-08,
Horizontal Old Scale,2.000E-05,Horizontal Old Scale,2.000E-05,
Horizontal Old Position,0.000E+00,Horizontal Old Position,0.000E+00,
Firmware,V1.23,Firmware,V1.23,
Mode,Fast,Mode,Fast,
Waveform Data,,Waveform Data,,
2, ,-37, ,
1, ,-38, ,
1, ,-37, ,
1, ,-37, ,
1, ,-38, ,
-1, ,-37, ,
2, ,-37, ,
1, ,-38, ,
1, ,-37, ,
2, ,-38, ,
1, ,-38, ,
-1, ,-38, ,
2, ,-37, ,
1, ,-38, ,
1, ,-38, ,
2, ,-38, ,
2, ,-38, ,
-1, ,-37, ,
2, ,-38, ,
1, ,-38, ,
1, ,-37, ,
1, ,-38, ,
1, ,-38, ,
-1, ,-38, ,
2, ,-37, ,
1, ,-38, ,
1, ,-37, ,
2, ,-37, ,
1, ,-38, ,
-1, ,-37, ,
2, ,-37, ,
1, ,-38, ,
1, ,-37, ,
1, ,-37, ,
1, ,-38, ,
-1, ,-37, ,
2, ,-37, ,
-1, ,-38, ,
1, ,-37, ,
2, ,-38, ,
1, ,-38, ,
-1, ,-38, ,
2, ,-37, ,
1, ,-38, ,
1, ,-37, ,
2, ,-37, ,
1, ,-38, ,
-1, ,-37, ,
2, ,-37, ,
1, ,-38, ,
1, ,-37, ,
1, ,-38, ,
1, ,-38, ,
-1, ,-37, ,
2, ,-38, ,
-1, ,-38, ,
1, ,-37, ,
2, ,-37, ,
1, ,-38, ,
-1, ,-38, ,
1, ,-37, ,
-1, ,-38, ,
-1, ,-38, ,
1, ,-38, ,
2, ,-38, ,
1, ,-38, ,
2, ,-38, ,
1, ,-38, ,
1, ,-37, ,
1, ,-38, ,
2, ,-38, ,
-1, ,-37, ,
2, ,-37, ,
-1, ,-38, ,
-1, ,-37, ,
1, ,-38, ,
1, ,-38, ,
-1, ,-37, ,
2, ,-37, ,
1, ,-38, ,
1, ,-37, ,
1, ,-37, ,
1, ,-38, ,
-1, ,-38, ,
1, ,-37, ,
-1, ,-38, ,
1, ,-38, ,
1, ,-38, ,
1, ,-38, ,
-1, ,-37, ,
2, ,-37, ,
1, ,-38, ,
1, ,-37, ,
1, ,-38, ,
1, ,-38, ,
-1, ,-38, ,
2, ,-37, ,
1, ,-38, ,
1, ,-38, ,
1, ,-38, ,
1, ,-38, ,
-1, ,-37, ,
2, ,-37, ,
-1, ,-38, ,
1, ,-37, ,
1, ,-37, ,
1, ,-38, ,
-1, ,-37, ,
2, ,-38, ,
-1, ,-38, ,
1, ,-38, ,
1, ,-38, ,
1, ,-38, ,
-1, ,-38, ,
2, ,-37, ,
1, ,-38, ,
1, ,-37, ,
2, ,-37, ,
2, ,-38, ,
-1, ,-38, ,
2, ,-38, ,
1, ,-38, ,
1, ,-37, ,
2, ,-38, ,
1, ,-38, ,
-1, ,-38, ,
2, ,-38, ,
-1, ,-38, ,
1, ,-37, ,
2, ,-37, ,
1, ,-38, ,
-1, ,-38, ,
2, ,-37, ,
1, ,-38, ,
1, ,-38, ,
2, ,-38, ,
1, ,-38, ,
-1, ,-37, ,
2, ,-37, ,
-1, ,-38, ,
1, ,-37, ,
1, ,-38, ,
1, ,-38, ,
-1, ,-38, ,
2, ,-37, ,
-1, ,-38, ,
1, ,-38, ,
1, ,-38, ,
1, ,-38, ,
-1, ,-38, ,
2, ,-37, ,
1, ,-38, ,
1, ,-37, ,
1, ,-37, ,
1, ,-38, ,
-1, ,-38, ,
2, ,-38, ,
-1, ,-38, ,
1, ,-37, ,
1, ,-38, ,
2, ,-38, ,
-1, ,-38, ,
1, ,-37, ,
1, ,-39, ,
-1, ,-37, ,
2, ,-38, ,
2, ,-38, ,
-1, ,-37, ,
2, ,-37, ,
-1, ,-38, ,
1, ,-37, ,
2, ,-38, ,
1, ,-38, ,
-1, ,-38, ,
2, ,-37, ,
1, ,-38, ,
1, ,-37, ,
1, ,-38, ,
1, ,-38, ,
-1, ,-38, ,
2, ,-38, ,
-1, ,-38, ,
1, ,-38, ,
2, ,-38, ,
2, ,-38, ,
-1, ,-38, ,
2, ,-38, ,
-1, ,-38, ,
1, ,-37, ,
2, ,-37, ,
1, ,-38, ,
-1, ,-38, ,
2, ,-38, ,
-1, ,-38, ,
-1, ,-38, ,
1, ,-38, ,
1, ,-38, ,
-1, ,-38, ,
2, ,-38, ,
-1, ,-38, ,
-1, ,-37, ,
1, ,-38, ,
1, ,-38, ,
-1, ,-38, ,
2, ,-38, ,
-1, ,-38, ,
1, ,-38, ,
1, ,-38, ,
1, ,-38, ,
-1, ,-38, ,
2, ,-38, ,
-1, ,-38, ,
-1, ,-38, ,
1, ,-38, ,
1, ,-38, ,
-1, ,-38, ,
1, ,-37, ,
-1, ,-38, ,
-1, ,-38, ,
1, ,-38, ,
1, ,-38, ,
-1, ,-38, ,
2, ,-38, ,
-1, ,-38, ,
-1, ,-37, ,
1, ,-38, ,
2, ,-38, ,
-1, ,-37, ,
1, ,-38, ,
-1, ,-38, ,
-1, ,-38, ,
1, ,-38, ,
1, ,-38, ,
-1, ,-38, ,
2, ,-38, ,
-1, ,-38, ,
-1, ,-37, ,
1, ,-38, ,
1, ,-38, ,
-1, ,-38, ,
2, ,-38, ,
-1, ,-38, ,
-1, ,-37, ,
1, ,-38, ,
2, ,-38, ,
-1, ,-38, ,
1, ,-38, ,
-1, ,-38, ,
1, ,-37, ,
1, ,-38, ,
1, ,-38, ,
-1, ,-38, ,
2, ,-38, ,
-1, ,-38, ,
-1, ,-37, ,
1, ,-38, ,
1, ,-38, ,
-1, ,-38, ,
2, ,-38, ,
1, ,-38, ,
-1, ,-37, ,
1, ,-38, ,
1, ,-38, ,
-1, ,-38, ,
2, ,-38, ,
1, ,-38, ,
1, ,-37, ,
1, ,-38, ,
1, ,-38, ,
-1, ,-38, ,
2, ,-37, ,
-1, ,-38, ,
1, ,-37, ,
1, ,-38, ,
2, ,-38, ,
-1, ,-38, ,
2, ,-37, ,
-1, ,-38, ,
1, ,-37, ,
1, ,-38, ,
2, ,-38, ,
-1, ,-38, ,
2, ,-38, ,
-1, ,-38, ,
1, ,-38, ,
1, ,-38, ,
1, ,-38, ,
-1, ,-38, ,
2, ,-37, ,
-1, ,-38, ,
1, ,-38, ,
1, ,-38, ,
2, ,-38, ,
-1, ,-38, ,
2, ,-38, ,
1, ,-38, ,
1, ,-37, ,
2, ,-38, ,
1, ,-38, ,
-1, ,-38, ,
2, ,-38, ,
-1, ,-38, ,
1, ,-37, ,
1, ,-38, ,
1, ,-38, ,
-1, ,-38, ,
2, ,-38, ,
1, ,-36, ,
1, ,-19, ,
1, ,0, ,
1, ,14, ,
-1, ,25, ,
2, ,33, ,
-1, ,39, ,
1, ,42, ,
1, ,46, ,
1, ,50, ,
-1, ,51, ,
2, ,52, ,
1, ,54, ,
-1, ,54, ,
1, ,55, ,
1, ,55, ,
-1, ,56, ,
1, ,56, ,
-1, ,57, ,
-1, ,55, ,
1, ,56, ,
1, ,56, ,
-1, ,56, ,
1, ,56, ,
-1, ,56, ,
-1, ,56, ,
1, ,56, ,
1, ,56, ,
-1, ,56, ,
1, ,56, ,
1, ,57, ,
-1, ,55, ,
1, ,56, ,
1, ,57, ,
-1, ,56, ,
1, ,56, ,
1, ,56, ,
1, ,55, ,
1, ,56, ,
-1, ,56, ,
-1, ,56, ,
1, ,56, ,
-1, ,56, ,
-1, ,55, ,
1, ,56, ,
1, ,56, ,
-1, ,56, ,
1, ,55, ,
-1, ,56, ,
-1, ,55, ,
1, ,56, ,
1, ,56, ,
-1, ,56, ,
1, ,56, ,
1, ,56, ,
1, ,55, ,
1, ,56, ,
-1, ,56, ,
-1, ,55, ,
2, ,55, ,
-1, ,56, ,
-1, ,55, ,
1, ,56, ,
1, ,56, ,
-1, ,55, ,
2, ,56, ,
-1, ,56, ,
-1, ,55, ,
2, ,55, ,
1, ,56, ,
-1, ,56, ,
1, ,55, ,
-1, ,56, ,
-1, ,55, ,
1, ,56, ,
1, ,56, ,
-1, ,56, ,
1, ,56, ,
-1, ,56, ,
-1, ,55, ,
1, ,56, ,
1, ,56, ,
-1, ,55, ,
2, ,55, ,
1, ,56, ,
-1, ,55, ,
1, ,56, ,
1, ,56, ,
-1, ,56, ,
2, ,55, ,
1, ,56, ,
1, ,55, ,
2, ,55, ,
1, ,56, ,
-1, ,55, ,
1, ,55, ,
1, ,56, ,
1, ,55, ,
1, ,56, ,
1, ,56, ,
-1, ,56, ,
2, ,55, ,
1, ,56, ,
1, ,55, ,
1, ,56, ,
1, ,56, ,
-1, ,55, ,
2, ,55, ,
1, ,56, ,
1, ,55, ,
1, ,55, ,
1, ,56, ,
-1, ,55, ,
1, ,56, ,
1, ,56, ,
-1, ,54, ,
1, ,55, ,
-1, ,56, ,
-1, ,55, ,
1, ,55, ,
1, ,56, ,
1, ,55, ,
1, ,55, ,
1, ,56, ,
-1, ,55, ,
2, ,55, ,
1, ,56, ,
-1, ,55, ,
1, ,55, ,
1, ,56, ,
-1, ,55, ,
1, ,55, ,
1, ,56, ,
-1, ,55, ,
1, ,55, ,
1, ,56, ,
-1, ,56, ,
2, ,56, ,
1, ,56, ,
1, ,55, ,
1, ,55, ,
1, ,56, ,
-1, ,55, ,
2, ,55, ,
1, ,56, ,
-1, ,55, ,
1, ,55, ,
-1, ,56, ,
-1, ,55, ,
1, ,56, ,
-1, ,56, ,
-1, ,55, ,
1, ,56, ,
1, ,56, ,
-1, ,55, ,
1, ,45, ,
-1, ,25, ,
-1, ,9, ,
1, ,-3, ,
1, ,-12, ,
-1, ,-19, ,
1, ,-23, ,
-1, ,-27, ,
-1, ,-31, ,
1, ,-33, ,
1, ,-34, ,
-1, ,-35, ,
1, ,-36, ,
-1, ,-37, ,
1, ,-37, ,
1, ,-37, ,
1, ,-38, ,
-1, ,-38, ,
2, ,-38, ,
-1, ,-39, ,
-1, ,-38, ,
1, ,-38, ,
1, ,-39, ,
-1, ,-38, ,
2, ,-38, ,
-1, ,-39, ,
-1, ,-38, ,
1, ,-38, ,
1, ,-39, ,
-1, ,-38, ,
1, ,-38, ,
-1, ,-38, ,
-1, ,-38, ,
1, ,-38, ,
1, ,-38, ,
-1, ,-38, ,
1, ,-38, ,
-1, ,-39, ,
1, ,-38, ,
1, ,-38, ,
1, ,-38, ,
-1, ,-38, ,
2, ,-38, ,
-1, ,-38, ,
1, ,-38, ,
1, ,-38, ,
1, ,-38, ,
-1, ,-38, ,
1, ,-38, ,
-1, ,-38, ,
-1, ,-37, ,
1, ,-38, ,
1, ,-38, ,
-1, ,-38, ,
1, ,-38, ,
-1, ,-38, ,
-1, ,-38, ,
1, ,-38, ,
2, ,-38, ,
-1, ,-38, ,
2, ,-38, ,
-1, ,-38, ,
-1, ,-38, ,
1, ,-38, ,
2, ,-38, ,
-1, ,-38, ,
1, ,-38, ,
-1, ,-38, ,
-1, ,-37, ,
1, ,-38, ,
1, ,-38, ,
-1, ,-38, ,
2, ,-38, ,
-1, ,-38, ,
1, ,-37, ,
1, ,-38, ,
1, ,-38, ,
-1, ,-38, ,
1, ,-38, ,
-1, ,-38, ,
-1, ,-38, ,
1, ,-38, ,
1, ,-38, ,
-1, ,-38, ,
2, ,-37, ,
-1, ,-38, ,
-1, ,-37, ,
1, ,-38, ,
1, ,-38, ,
-1, ,-38, ,
2, ,-38, ,
-1, ,-38, ,
-1, ,-37, ,
1, ,-38, ,
2, ,-38, ,
-1, ,-38, ,
2, ,-37, ,
-1, ,-38, ,
-1, ,-37, ,
1, ,-38, ,
1, ,-38, ,
-1, ,-38, ,
1, ,-38, ,
-1, ,-38, ,
-1, ,-38, ,
1, ,-38, ,
1, ,-38, ,
-1, ,-38, ,
1, ,-38, ,
-1, ,-38, ,
-1, ,-37, ,
1, ,-38, ,
2, ,-38, ,
-1, ,-38, ,
2, ,-37, ,
-1, ,-38, ,
-1, ,-38, ,
1, ,-38, ,
1, ,-38, ,
-1, ,-38, ,
2, ,-37, ,
-1, ,-38, ,
-1, ,-37, ,
1, ,-38, ,
1, ,-38, ,
-1, ,-38, ,
1, ,-38, ,
-1, ,-38, ,
-1, ,-37, ,
1, ,-38, ,
1, ,-38, ,
-1, ,-38, ,
2, ,-38, ,
-1, ,-38, ,
-1, ,-37, ,
1, ,-38, ,
1, ,-38, ,
-1, ,-38, ,
1, ,-38, ,
-1, ,-38, ,
-1, ,-37, ,
1, ,-38, ,
1, ,-38, ,
-1, ,-38, ,
1, ,-37, ,
-1, ,-38, ,
-1, ,-37, ,
1, ,-38, ,
1, ,-38, ,
-1, ,-38, ,
1, ,-38, ,
-1, ,-38, ,
-1, ,-37, ,
1, ,-38, ,
1, ,-38, ,
-1, ,-38, ,
1, ,-38, ,
-1, ,-38, ,
-1, ,-37, ,
1, ,-38, ,
1, ,-38, ,
-1, ,-37, ,
1, ,-38, ,
-1, ,-38, ,
-1, ,-37, ,
1, ,-38, ,
1, ,-38, ,
-1, ,-38, ,
1, ,-38, ,
-1, ,-38, ,
-1, ,-37, ,
1, ,-37, ,
1, ,-38, ,
-1, ,-38, ,
1, ,-37, ,
-1, ,-38, ,
-1, ,-37, ,
1, ,-38, ,
1, ,-38, ,
-1, ,-38, ,
1, ,-37, ,
-1, ,-38, ,
-1, ,-37, ,
1, ,-38, ,
1, ,-38, ,
-1, ,-38, ,
1, ,-37, ,
-1, ,-38, ,
-1, ,-38, ,
1, ,-38, ,
1, ,-38, ,
-1, ,-38, ,
1, ,-37, ,
-1, ,-38, ,
-1, ,-38, ,
1, ,-38, ,
1, ,-38, ,
-1, ,-38, ,
1, ,-38, ,
-1, ,-38, ,
-1, ,-37, ,
1, ,-38, ,
1, ,-38, ,
-1, ,-38, ,
1, ,-37, ,
-1, ,-38, ,
-1, ,-37, ,
1, ,-37, ,
1, ,-38, ,
-1, ,-38, ,
1, ,-38, ,
-1, ,-38, ,
-1, ,-38, ,
1, ,-38, ,
1, ,-38, ,
-1, ,-38, ,
2, ,-37, ,
-1, ,-38, ,
-1, ,-37, ,
1, ,-37, ,
1, ,-38, ,
-1, ,-38, ,
2, ,-37, ,
-1, ,-38, ,
-1, ,-38, ,
1, ,-38, ,
1, ,-38, ,
-1, ,-38, ,
1, ,-37, ,
-1, ,-38, ,
92, ,-37, ,
57, ,-38, ,
35, ,-38, ,
22, ,-38, ,
15, ,-37, ,
10, ,-38, ,
7, ,-37, ,
7, ,-38, ,
6, ,-38, ,
3, ,-38, ,
5, ,-37, ,
2, ,-38, ,
2, ,-37, ,
3, ,-38, ,
3, ,-38, ,
1, ,-38, ,
3, ,-37, ,
2, ,-38, ,
2, ,-37, ,
3, ,-38, ,
3, ,-38, ,
2, ,-37, ,
3, ,-38, ,
2, ,-38, ,
2, ,-37, ,
2, ,-38, ,
3, ,-38, ,
2, ,-38, ,
3, ,-38, ,
2, ,-38, ,
2, ,-38, ,
3, ,-38, ,
3, ,-38, ,
1, ,-38, ,
3, ,-37, ,
2, ,-38, ,
2, ,-37, ,
2, ,-38, ,
3, ,-38, ,
1, ,-38, ,
3, ,-37, ,
2, ,-38, ,
2, ,-37, ,
2, ,-38, ,
3, ,-38, ,
1, ,-37, ,
3, ,-37, ,
2, ,-38, ,
2, ,-37, ,
2, ,-38, ,
3, ,-38, ,
1, ,-38, ,
3, ,-38, ,
2, ,-38, ,
2, ,-37, ,
2, ,-38, ,
3, ,-38, ,
1, ,-38, ,
3, ,-37, ,
2, ,-38, ,
2, ,-37, ,
2, ,-38, ,
2, ,-38, ,
1, ,-37, ,
3, ,-38, ,
1, ,-38, ,
1, ,-38, ,
3, ,-38, ,
2, ,-38, ,
1, ,-38, ,
2, ,-37, ,
2, ,-38, ,
2, ,-37, ,
3, ,-37, ,
2, ,-38, ,
1, ,-38, ,
3, ,-38, ,
1, ,-38, ,
2, ,-37, ,
2, ,-38, ,
2, ,-38, ,
1, ,-38, ,
3, ,-37, ,
2, ,-38, ,
2, ,-37, ,
2, ,-38, ,
2, ,-38, ,
1, ,-38, ,
3, ,-38, ,
2, ,-38, ,
1, ,-38, ,
2, ,-38, ,
2, ,-38, ,
1, ,-38, ,
3, ,-37, ,
1, ,-38, ,
2, ,-38, ,
2, ,-38, ,
2, ,-38, ,
1, ,-38, ,
3, ,-37, ,
2, ,-38, ,
2, ,-37, ,
2, ,-38, ,
2, ,-38, ,
1, ,-38, ,
3, ,-37, ,
2, ,-38, ,
2, ,-37, ,
2, ,-38, ,
2, ,-38, ,
1, ,-38, ,
3, ,-37, ,
1, ,-38, ,
2, ,-37, ,
2, ,-38, ,
2, ,-38, ,
1, ,-37, ,
3, ,-37, ,
1, ,-38, ,
2, ,-37, ,
2, ,-38, ,
2, ,-38, ,
1, ,-37, ,
2, ,-38, ,
1, ,-38, ,
2, ,-37, ,
2, ,-38, ,
2, ,-38, ,
1, ,-38, ,
2, ,-37, ,
1, ,-38, ,
2, ,-37, ,
2, ,-37, ,
2, ,-38, ,
1, ,-38, ,
2, ,-37, ,
1, ,-38, ,
2, ,-37, ,
2, ,-38, ,
2, ,-38, ,
1, ,-38, ,
3, ,-37, ,
1, ,-38, ,
2, ,-37, ,
2, ,-38, ,
2, ,-38, ,
1, ,-38, ,
2, ,-37, ,
1, ,-38, ,
1, ,-38, ,
2, ,-38, ,
2, ,-38, ,
1, ,-37, ,
2, ,-37, ,
1, ,-38, ,
2, ,-38, ,
2, ,-38, ,
2, ,-38, ,
1, ,-38, ,
2, ,-38, ,
1, ,-38, ,
2, ,-37, ,
2, ,-38, ,
2, ,-38, ,
1, ,-38, ,
2, ,-38, ,
1, ,-38, ,
1, ,-37, ,
2, ,-38, ,
2, ,-38, ,
1, ,-37, ,
2, ,-37, ,
1, ,-38, ,
1, ,-37, ,
2, ,-38, ,
2, ,-38, ,
1, ,-38, ,
2, ,-37, ,
1, ,-38, ,
1, ,-37, ,
2, ,-37, ,
2, ,-38, ,
1, ,-38, ,
2, ,-38, ,
1, ,-38, ,
1, ,-38, ,
2, ,-38, ,
2, ,-38, ,
1, ,-37, ,
2, ,-38, ,
1, ,-38, ,
1, ,-37, ,
2, ,-38, ,
2, ,-38, ,
1, ,-37, ,
2, ,-37, ,
1, ,-38, ,
1, ,-37, ,
2, ,-38, ,
2, ,-38, ,
1, ,-38, ,
2, ,-37, ,
1, ,-38, ,
1, ,-37, ,
2, ,-37, ,
2, ,-38, ,
1, ,-38, ,
2, ,-38, ,
1, ,-38, ,
1, ,-37, ,
2, ,-38, ,
2, ,-38, ,
1, ,-38, ,
2, ,-38, ,
1, ,-38, ,
1, ,-37, ,
2, ,-37, ,
2, ,-38, ,
1, ,-38, ,
2, ,-37, ,
1, ,-38, ,
2, ,-38, ,
2, ,-38, ,
2, ,-38, ,
1, ,-38, ,
2, ,-37, ,
1, ,-38, ,
1, ,-37, ,
2, ,-38, ,
2, ,-38, ,
1, ,-38, ,
2, ,-38, ,
1, ,-38, ,
1, ,-38, ,
2, ,-38, ,
2, ,-38, ,
1, ,-38, ,
2, ,-38, ,
1, ,-38, ,
1, ,-37, ,
2, ,-38, ,
2, ,-38, ,
1, ,-38, ,
2, ,-37, ,
1, ,-38, ,
2, ,-38, ,
2, ,-38, ,
2, ,-38, ,
1, ,-37, ,
2, ,-37, ,
1, ,-38, ,
1, ,-37, ,
2, ,-37, ,
2, ,-38, ,
1, ,-38, ,
2, ,-38, ,
1, ,-38, ,
1, ,-37, ,
2, ,-38, ,
2, ,-38, ,
1, ,-37, ,
2, ,-37, ,
1, ,-38, ,
1, ,-37, ,
2, ,-38, ,
2, ,-38, ,
1, ,-38, ,
2, ,-38, ,
1, ,-38, ,
1, ,-37, ,
2, ,-38, ,
1, ,-38, ,
-1, ,-37, ,
2, ,-37, ,
1, ,-38, ,
1, ,-37, ,
1, ,-38, ,
1, ,-38, ,
-1, ,-38, ,
2, ,-38, ,
1, ,-38, ,
1, ,-37, ,
1, ,-38, ,
2, ,-38, ,
1, ,-37, ,
2, ,-37, ,
1, ,-38, ,
1, ,-37, ,
2, ,-37, ,
2, ,-38, ,
1, ,-38, ,
2, ,-38, ,
1, ,-38, ,
1, ,-37, ,
2, ,-38, ,
1, ,-38, ,
1, ,-37, ,
2, ,-37, ,
1, ,-38, ,
1, ,-37, ,
1, ,-38, ,
1, ,-38, ,
1, ,-38, ,
2, ,-38, ,
1, ,-38, ,
1, ,-37, ,
1, ,-38, ,
2, ,-38, ,
-1, ,-37, ,
2, ,-37, ,
1, ,-38, ,
1, ,-37, ,
2, ,-38, ,
2, ,-38, ,
-1, ,-38, ,
2, ,-38, ,
1, ,-38, ,
1, ,-38, ,
2, ,-38, ,
1, ,-38, ,
-1, ,-38, ,
2, ,-37, ,
1, ,-38, ,
1, ,-37, ,
2, ,-38, ,
1, ,-38, ,
-1, ,-38, ,
2, ,-38, ,
1, ,-38, ,
1, ,-38, ,
1, ,-38, ,
1, ,-38, ,
-1, ,-38, ,
2, ,-37, ,
1, ,-38, ,
1, ,-37, ,
2, ,-38, ,
2, ,-38, ,
1, ,-38, ,
2, ,-38, ,
1, ,-38, ,
1, ,-38, ,
2, ,-38, ,
1, ,-38, ,
-1, ,-38, ,
2, ,-37, ,
1, ,-38, ,
1, ,-37, ,
1, ,-38, ,
2, ,-38, ,
-1, ,-38, ,
2, ,-38, ,
1, ,-38, ,
1, ,-37, ,
2, ,-38, ,
2, ,-38, ,
-1, ,-38, ,
2, ,-38, ,
1, ,-38, ,
1, ,-37, ,
1, ,-38, ,
1, ,-38, ,
1, ,-38, ,
2, ,-38, ,
1, ,-38, ,
1, ,-37, ,
1, ,-38, ,
2, ,-38, ,
-1, ,-38, ,
2, ,-37, ,
1, ,-38, ,
1, ,-37, ,
2, ,-38, ,
1, ,-38, ,
-1, ,-38, ,
2, ,-38, ,
1, ,-38, ,
1, ,-37, ,
1, ,-38, ,
1, ,-38, ,
-1, ,-38, ,
2, ,-38, ,
1, ,-38, ,
1, ,-37, ,
2, ,-38, ,
2, ,-38, ,
1, ,-38, ,
2, ,-38, ,
1, ,-38, ,
1, ,-38, ,
1, ,-38, ,
1, ,-38, ,
-1, ,-38, ,
2, ,-37, ,
1, ,-38, ,
1, ,-37, ,
2, ,-24, ,
2, ,-4, ,
1, ,12, ,
2, ,22, ,
1, ,32, ,
1, ,37, ,
2, ,42, ,
2, ,46, ,
1, ,49, ,
2, ,51, ,
1, ,53, ,
1, ,53, ,
2, ,54, ,
1, ,55, ,
1, ,55, ,
2, ,55, ,
1, ,56, ,
1, ,55, ,
2, ,56, ,
1, ,57, ,
-1, ,55, ,
2, ,56, ,
1, ,57, ,
1, ,55, ,
1, ,56, ,
1, ,57, ,
-1, ,56, ,
2, ,56, ,
1, ,57, ,
-1, ,55, ,
1, ,56, ,
1, ,56, ,
-1, ,56, ,
2, ,55, ,
1, ,56, ,
1, ,55, ,
1, ,56, ,
1, ,56, ,
-1, ,56, ,
2, ,56, ,
1, ,56, ,
1, ,54, ,
1, ,56, ,
1, ,56, ,
-1, ,55, ,
2, ,55, ,
1, ,56, ,
-1, ,54, ,
1, ,56, ,
1, ,56, ,
1, ,55, ,
1, ,56, ,
1, ,56, ,
1, ,55, ,
1, ,56, ,
1, ,56, ,
-1, ,55, ,
2, ,55, ,
1, ,56, ,
1, ,55, ,
2, ,56, ,
1, ,56, ,
-1, ,55, ,
2, ,55, ,
1, ,56, ,
1, ,55, ,
1, ,56, ,
1, ,56, ,
-1, ,55, ,
2, ,55, ,
1, ,56, ,
1, ,55, ,
1, ,55, ,
1, ,56, ,
-1, ,55, ,
2, ,55, ,
1, ,56, ,
1, ,55, ,
1, ,56, ,
1, ,57, ,
-1, ,55, ,
2, ,55, ,
1, ,56, ,
1, ,55, ,
2, ,56, ,
1, ,56, ,
1, ,55, ,
2, ,55, ,
1, ,56, ,
1, ,54, ,
2, ,56, ,
1, ,56, ,
1, ,55, ,
2, ,55, ,
1, ,56, ,
1, ,55, ,
1, ,55, ,
1, ,56, ,
1, ,55, ,
2, ,56, ,
1, ,56, ,
1, ,55, ,
1, ,56, ,
1, ,56, ,
1, ,55, ,
1, ,55, ,
1, ,56, ,
1, ,55, ,
1, ,55, ,
1, ,56, ,
1, ,55, ,
2, ,56, ,
1, ,56, ,
1, ,55, ,
2, ,56, ,
1, ,56, ,
-1, ,55, ,
2, ,55, ,
1, ,56, ,
1, ,55, ,
2, ,55, ,
1, ,56, ,
-1, ,55, ,
2, ,56, ,
1, ,56, ,
1, ,54, ,
1, ,56, ,
1, ,56, ,
-1, ,55, ,
2, ,55, ,
1, ,56, ,
1, ,55, ,
1, ,55, ,
1, ,56, ,
-1, ,56, ,
2, ,56, ,
1, ,56, ,
1, ,54, ,
2, ,55, ,
1, ,56, ,
-1, ,55, ,
2, ,55, ,
1, ,56, ,
1, ,54, ,
1, ,55, ,
1, ,56, ,
-1, ,56, ,
2, ,55, ,
1, ,56, ,
1, ,54, ,
1, ,55, ,
1, ,56, ,
-1, ,55, ,
2, ,55, ,
1, ,51, ,
-1, ,31, ,
1, ,14, ,
1, ,0, ,
-1, ,-9, ,
1, ,-17, ,
-1, ,-22, ,
1, ,-26, ,
1, ,-30, ,
1, ,-32, ,
-1, ,-34, ,
2, ,-35, ,
1, ,-36, ,
1, ,-36, ,
1, ,-37, ,
1, ,-38, ,
-1, ,-38, ,
1, ,-38, ,
-1, ,-38, ,
1, ,-38, ,
1, ,-38, ,
1, ,-39, ,
-1, ,-38, ,
2, ,-38, ,
1, ,-39, ,
-1, ,-38, ,
1, ,-38, ,
1, ,-39, ,
-1, ,-38, ,
2, ,-38, ,
-1, ,-39, ,
1, ,-38, ,
1, ,-38, ,
1, ,-38, ,
-1, ,-38, ,
1, ,-38, ,
1, ,-39, ,
1, ,-37, ,
1, ,-38, ,
1, ,-38, ,
-1, ,-38, ,
2, ,-38, ,
-1, ,-39, ,
1, ,-37, ,
1, ,-38, ,
1, ,-38, ,
-1, ,-38, ,
2, ,-38, ,
73, ,-38, ,
45, ,-37, ,
29, ,-38, ,
18, ,-38, ,
11, ,-38, ,
8, ,-38, ,
5, ,-38, ,
3, ,-38, ,
5, ,-38, ,
3, ,-38, ,
2, ,-38, ,
5, ,-38, ,
2, ,-38, ,
2, ,-37, ,
2, ,-38, ,
2, ,-38, ,
1, ,-38, ,
3, ,-38, ,
2, ,-38, ,
2, ,-37, ,
3, ,-38, ,
2, ,-38, ,
1, ,-38, ,
3, ,-38, ,
2, ,-38, ,
2, ,-37, ,
2, ,-37, ,
3, ,-38, ,
1, ,-38, ,
3, ,-37, ,
2, ,-38, ,
2, ,-37, ,
2, ,-38, ,
3, ,-38, ,
1, ,-38, ,
3, ,-37, ,
2, ,-38, ,
2, ,-37, ,
2, ,-38, ,
3, ,-38, ,
1, ,-38, ,
3, ,-38, ,
2, ,-38, ,
2, ,-38, ,
2, ,-38, ,
3, ,-38, ,
1, ,-38, ,
3, ,-37, ,
2, ,-38, ,
2, ,-37, ,
2, ,-38, ,
3, ,-38, ,
1, ,-38, ,
3, ,-38, ,
2, ,-38, ,
2, ,-37, ,
2, ,-38, ,
2, ,-38, ,
1, ,-38, ,
3, ,-38, ,
2, ,-38, ,
1, ,-37, ,
2, ,-38, ,
3, ,-38, ,
1, ,-38, ,
2, ,-38, ,
1, ,-38, ,
2, ,-37, ,
2, ,-38, ,
2, ,-38, ,
1, ,-38, ,
3, ,-37, ,
2, ,-38, ,
2, ,-37, ,
2, ,-38, ,
3, ,-38, ,
1, ,-38, ,
3, ,-37, ,
1, ,-38, ,
1, ,-37, ,
2, ,-38, ,
2, ,-38, ,
1, ,-38, ,
2, ,-38, ,
1, ,-38, ,
2, ,-37, ,
2, ,-38, ,
2, ,-38, ,
1, ,-38, ,
2, ,-37, ,
1, ,-38, ,
2, ,-37, ,
2, ,-38, ,
2, ,-38, ,
1, ,-38, ,
2, ,-37, ,
1, ,-38, ,
2, ,-37, ,
2, ,-38, ,
2, ,-38, ,
1, ,-38, ,
2, ,-38, ,
1, ,-38, ,
2, ,-37, ,
2, ,-38, ,
2, ,-38, ,
1, ,-37, ,
2, ,-37, ,
1, ,-38, ,
2, ,-37, ,
2, ,-37, ,
2, ,-38, ,
1, ,-38, ,
3, ,-37, ,
1, ,-38, ,
2, ,-38, ,
2, ,-38, ,
2, ,-38, ,
1, ,-38, ,
3, ,-37, ,
1, ,-38, ,
1, ,-37, ,
2, ,-38, ,
2, ,-38, ,
1, ,-38, ,
3, ,-38, ,
1, ,-38, ,
2, ,-38, ,
2, ,-38, ,
2, ,-38, ,
1, ,-38, ,
3, ,-37, ,
1, ,-38, ,
2, ,-37, ,
2, ,-37, ,
2, ,-38, ,
1, ,-38, ,
2, ,-37, ,
1, ,-38, ,
2, ,-37, ,
2, ,-38, ,
2, ,-38, ,
1, ,-38, ,
3, ,-38, ,
1, ,-38, ,
2, ,-38, ,
2, ,-38, ,
2, ,-38, ,
1, ,-38, ,
2, ,-38, ,
1, ,-38, ,
2, ,-38, ,
2, ,-38, ,
2, ,-38, ,
1, ,-38, ,
2, ,-37, ,
1, ,-38, ,
1, ,-37, ,
2, ,-38, ,
2, ,-38, ,
1, ,-38, ,
2, ,-37, ,
1, ,-38, ,
2, ,-38, ,
2, ,-38, ,
2, ,-38, ,
1, ,-38, ,
2, ,-38, ,
1, ,-38, ,
1, ,-37, ,
2, ,-37, ,
2, ,-38, ,
1, ,-38, ,
2, ,-37, ,
1, ,-38, ,
1, ,-37, ,
2, ,-38, ,
2, ,-38, ,
1, ,-38, ,
2, ,-37, ,
1, ,-38, ,
1, ,-37, ,
2, ,-37, ,
2, ,-38, ,
1, ,-38, ,
2, ,-37, ,
1, ,-38, ,
1, ,-37, ,
2, ,-38, ,
2, ,-38, ,
1, ,-37, ,
2, ,-37, ,
1, ,-38, ,
1, ,-37, ,
2, ,-38, ,
2, ,-38, ,
-1, ,-38, ,
2, ,-37, ,
1, ,-38, ,
1, ,-38, ,
1, ,-38, ,
2, ,-38, ,
1, ,-37, ,
2, ,-37, ,
1, ,-38, ,
1, ,-37, ,
2, ,-37, ,
1, ,-38, ,
1, ,-38, ,
2, ,-37, ,
1, ,-38, ,
1, ,-38, ,
2, ,-38, ,
2, ,-38, ,
1, ,-38, ,
2, ,-37, ,
1, ,-38, ,
1, ,-37, ,
2, ,-38, ,
2, ,-38, ,
1, ,-38, ,
2, ,-38, ,
1, ,-38, ,
1, ,-37, ,
2, ,-38, ,
1, ,-38, ,
1, ,-38, ,
2, ,-37, ,
1, ,-38, ,
1, ,-37, ,
2, ,-37, ,
2, ,-38, ,
1, ,-38, ,
2, ,-37, ,
1, ,-38, ,
1, ,-37, ,
2, ,-38, ,
1, ,-38, ,
1, ,-38, ,
2, ,-37, ,
1, ,-38, ,
1, ,-37, ,
2, ,-37, ,
2, ,-38, ,
1, ,-38, ,
2, ,-38, ,
1, ,-38, ,
1, ,-37, ,
2, ,-38, ,
1, ,-38, ,
1, ,-38, ,
2, ,-37, ,
1, ,-38, ,
1, ,-37, ,
2, ,-38, ,
1, ,-38, ,
1, ,-38, ,
2, ,-37, ,
1, ,-38, ,
1, ,-38, ,
2, ,-38, ,
2, ,-38, ,
-1, ,-37, ,
2, ,-37, ,
1, ,-38, ,
1, ,-37, ,
2, ,-38, ,
1, ,-38, ,
1, ,-38, ,
2, ,-37, ,
1, ,-38, ,
1, ,-37, ,
2, ,-38, ,
2, ,-38, ,
1, ,-38, ,
2, ,-38, ,
1, ,-38, ,
1, ,-37, ,
1, ,-38, ,
1, ,-38, ,
-1, ,-38, ,
2, ,-37, ,
1, ,-38, ,
1, ,-38, ,
2, ,-38, ,
1, ,-38, ,
-1, ,-37, ,
2, ,-37, ,
1, ,-38, ,
1, ,-37, ,
2, ,-38, ,
1, ,-38, ,
1, ,-38, ,
2, ,-37, ,
1, ,-38, ,
1, ,-37, ,
2, ,-38, ,
2, ,-38, ,
1, ,-37, ,
2, ,-37, ,
1, ,-38, ,
1, ,-37, ,
1, ,-37, ,
2, ,-38, ,
1, ,-38, ,
2, ,-38, ,
1, ,-38, ,
1, ,-38, ,
2, ,-38, ,
2, ,-38, ,
-1, ,-37, ,
2, ,-37, ,
1, ,-38, ,
1, ,-38, ,
2, ,-38, ,
2, ,-38, ,
1, ,-38, ,
2, ,-38, ,
1, ,-38, ,
1, ,-37, ,
2, ,-38, ,
1, ,-38, ,
-1, ,-38, ,
2, ,-37, ,
1, ,-38, ,
1, ,-37, ,
1, ,-37, ,
1, ,-38, ,
1, ,-38, ,
2, ,-38, ,
1, ,-38, ,
1, ,-37, ,
2, ,-38, ,
1, ,-38, ,
-1, ,-38, ,
2, ,-37, ,
1, ,-38, ,
1, ,-37, ,
1, ,-38, ,
1, ,-38, ,
-1, ,-38, ,
2, ,-38, ,
1, ,-38, ,
1, ,-37, ,
1, ,-38, ,
1, ,-38, ,
-1, ,-38, ,
2, ,-37, ,
1, ,-38, ,
1, ,-37, ,
1, ,-38, ,
1, ,-38, ,
-1, ,-38, ,
2, ,-38, ,
1, ,-38, ,
1, ,-37, ,
1, ,-38, ,
2, ,-38, ,
-1, ,-38, ,
2, ,-38, ,
1, ,-38, ,
1, ,-37, ,
1, ,-38, ,
2, ,-38, ,
-1, ,-38, ,
2, ,-38, ,
1, ,-38, ,
1, ,-37, ,
2, ,-38, ,
1, ,-38, ,
-1, ,-38, ,
2, ,-37, ,
1, ,-38, ,
1, ,-37, ,
1, ,-38, ,
1, ,-38, ,
-1, ,-38, ,
2, ,-38, ,
1, ,-38, ,
1, ,-37, ,
1, ,-38, ,
2, ,-38, ,
-1, ,-38, ,
2, ,-37, ,
1, ,-38, ,
1, ,-37, ,
2, ,-38, ,
1, ,-38, ,
-1, ,-38, ,
2, ,-38, ,
1, ,-38, ,
1, ,-38, ,
2, ,-38, ,
1, ,-38, ,
-1, ,-38, ,
2, ,-38, ,
-1, ,-38, ,
1, ,-37, ,
2, ,-38, ,
1, ,-38, ,
-1, ,-38, ,
2, ,-37, ,
1, ,-38, ,
1, ,-38, ,
2, ,-38, ,
1, ,-38, ,
-1, ,-38, ,
2, ,-37, ,
1, ,-38, ,
1, ,-37, ,
2, ,-38, ,
1, ,-38, ,
-1, ,-38, ,
2, ,-37, ,
1, ,-38, ,
1, ,-37, ,
2, ,-38, ,
1, ,-38, ,
-1, ,-38, ,
2, ,-37, ,
1, ,-38, ,
1, ,-37, ,
1, ,-38, ,
1, ,-38, ,
-1, ,-38, ,
2, ,-37, ,
1, ,-38, ,
1, ,-38, ,
2, ,-38, ,
1, ,-38, ,
