src/varyamp_1558/temp0004589.CSV

Format,1.0B,
Memory Length,10000,Memory Length,10000,
IntpDistance,0,IntpDistance,0,
Trigger Address,4999,Trigger Address,4999,
Trigger Level,1.040E+00,Trigger Level,1.040E+00,
Source,CH1,Source,CH2,
Vertical Units,V,Vertical Units,V,
Vertical Units Div,0,Vertical Units Div,0,
Vertical Units Extend Div,16,Vertical Units Extend Div,16,
Label,,Label,,
Probe Type,0,Probe Type,0,
Probe Ratio,1.000e+01,Probe Ratio,1.000e+00,
Vertical Scale,5.000e-01,Vertical Scale,1.000e+00,
Vertical Position,-1.820e+00,Vertical Position,0.000e+00,
Horizontal Units,S,Horizontal Units,S,
Horizontal Scale,2.000E-05,Horizontal Scale,2.000E-05,
Horizontal Position,0.000E+00,Horizontal Position,0.000E+00,
Horizontal Mode,Main,Horizontal Mode,Main,
SincET Mode,Real Time,SincET Mode,Real Time,
Sampling Period,2.000e-08,Sampling Period,2.000e-08,
Horizontal Old Scale,2.000E-05,Horizontal Old Scale,2.000E-05,
Horizontal Old Position,0.000E+00,Horizontal Old Position,0.000E+00,
Firmware,V1.23,Firmware,V1.23,
Mode,Fast,Mode,Fast,
Waveform Data,,Waveform Data,,
41, ,-43, ,
50, ,-44, ,
31, ,-43, ,
20, ,-43, ,
12, ,-43, ,
10, ,-43, ,
7, ,-43, ,
5, ,-43, ,
5, ,-43, ,
3, ,-43, ,
2, ,-43, ,
5, ,-43, ,
2, ,-43, ,
2, ,-44, ,
3, ,-43, ,
2, ,-43, ,
1, ,-43, ,
3, ,-43, ,
2, ,-43, ,
2, ,-43, ,
2, ,-43, ,
2, ,-43, ,
1, ,-43, ,
5, ,-43, ,
2, ,-43, ,
2, ,-43, ,
3, ,-43, ,
2, ,-43, ,
1, ,-43, ,
3, ,-43, ,
2, ,-43, ,
2, ,-44, ,
2, ,-43, ,
2, ,-43, ,
1, ,-43, ,
5, ,-43, ,
2, ,-43, ,
2, ,-43, ,
3, ,-43, ,
3, ,-43, ,
1, ,-44, ,
3, ,-43, ,
2, ,-43, ,
2, ,-44, ,
2, ,-43, ,
2, ,-43, ,
1, ,-43, ,
5, ,-43, ,
2, ,-43, ,
1, ,-43, ,
2, ,-43, ,
2, ,-43, ,
1, ,-43, ,
3, ,-43, ,
2, ,-43, ,
1, ,-43, ,
2, ,-44, ,
2, ,-43, ,
1, ,-43, ,
3, ,-43, ,
2, ,-43, ,
2, ,-44, ,
2, ,-43, ,
2, ,-43, ,
1, ,-43, ,
3, ,-43, ,
2, ,-43, ,
2, ,-43, ,
2, ,-43, ,
2, ,-44, ,
1, ,-43, ,
3, ,-43, ,
2, ,-43, ,
1, ,-44, ,
2, ,-43, ,
2, ,-43, ,
1, ,-43, ,
3, ,-43, ,
1, ,-43, ,
1, ,-44, ,
2, ,-43, ,
2, ,-43, ,
1, ,-43, ,
3, ,-43, ,
2, ,-43, ,
2, ,-43, ,
2, ,-43, ,
2, ,-43, ,
1, ,-44, ,
3, ,-43, ,
1, ,-43, ,
1, ,-43, ,
2, ,-43, ,
2, ,-43, ,
1, ,-43, ,
3, ,-43, ,
1, ,-43, ,
1, ,-44, ,
2, ,-43, ,
2, ,-43, ,
1, ,-43, ,
3, ,-43, ,
2, ,-43, ,
2, ,-43, ,
2, ,-43, ,
2, ,-43, ,
1, ,-44, ,
3, ,-43, ,
1, ,-43, ,
1, ,-44, ,
2, ,-43, ,
2, ,-43, ,
1, ,-43, ,
3, ,-43, ,
1, ,-43, ,
2, ,-43, ,
2, ,-43, ,
2, ,-43, ,
1, ,-43, ,
3, ,-43, ,
1, ,-43, ,
1, ,-44, ,
2, ,-43, ,
2, ,-43, ,
1, ,-44, ,
3, ,-43, ,
2, ,-43, ,
1, ,-43, ,
2, ,-43, ,
2, ,-43, ,
1, ,-44, ,
3, ,-43, ,
1, ,-43, ,
1, ,-44, ,
2, ,-43, ,
2, ,-43, ,
1, ,-43, ,
3, ,-43, ,
1, ,-43, ,
1, ,-44, ,
2, ,-43, ,
2, ,-43, ,
1, ,-43, ,
3, ,-43, ,
1, ,-43, ,
1, ,-43, ,
2, ,-43, ,
1, ,-43, ,
1, ,-44, ,
3, ,-43, ,
2, ,-43, ,
2, ,-44, ,
2, ,-43, ,
2, ,-43, ,
1, ,-43, ,
3, ,-43, ,
1, ,-43, ,
1, ,-44, ,
2, ,-43, ,
2, ,-43, ,
1, ,-43, ,
2, ,-43, ,
1, ,-43, ,
1, ,-43, ,
2, ,-43, ,
2, ,-43, ,
1, ,-43, ,
3, ,-43, ,
1, ,-43, ,
1, ,-44, ,
2, ,-43, ,
1, ,-43, ,
1, ,-43, ,
3, ,-43, ,
1, ,-43, ,
1, ,-43, ,
2, ,-43, ,
2, ,-43, ,
1, ,-43, ,
3, ,-43, ,
1, ,-43, ,
1, ,-43, ,
2, ,-43, ,
2, ,-43, ,
1, ,-44, ,
3, ,-43, ,
1, ,-43, ,
1, ,-43, ,
2, ,-43, ,
2, ,-43, ,
-1, ,-43, ,
3, ,-43, ,
1, ,-43, ,
1, ,-44, ,
2, ,-43, ,
1, ,-43, ,
1, ,-44, ,
2, ,-43, ,
1, ,-43, ,
1, ,-44, ,
2, ,-43, ,
2, ,-43, ,
1, ,-43, ,
3, ,-43, ,
1, ,-43, ,
1, ,-43, ,
2, ,-43, ,
2, ,-43, ,
-1, ,-43, ,
3, ,-43, ,
1, ,-43, ,
1, ,-43, ,
2, ,-43, ,
1, ,-43, ,
-1, ,-43, ,
3, ,-43, ,
1, ,-43, ,
1, ,-43, ,
2, ,-43, ,
2, ,-43, ,
1, ,-44, ,
2, ,-43, ,
1, ,-43, ,
1, ,-43, ,
2, ,-43, ,
1, ,-43, ,
-1, ,-43, ,
3, ,-43, ,
1, ,-43, ,
1, ,-44, ,
2, ,-43, ,
1, ,-43, ,
-1, ,-43, ,
2, ,-43, ,
1, ,-43, ,
1, ,-43, ,
2, ,-43, ,
1, ,-44, ,
-1, ,-43, ,
2, ,-43, ,
1, ,-43, ,
1, ,-43, ,
2, ,-43, ,
2, ,-43, ,
-1, ,-43, ,
2, ,-43, ,
1, ,-43, ,
1, ,-43, ,
2, ,-43, ,
1, ,-43, ,
-1, ,-43, ,
2, ,-43, ,
1, ,-43, ,
-1, ,-44, ,
1, ,-43, ,
1, ,-44, ,
-1, ,-43, ,
2, ,-43, ,
1, ,-43, ,
2, ,-43, ,
2, ,-43, ,
1, ,-43, ,
-1, ,-43, ,
2, ,-43, ,
1, ,-43, ,
-1, ,-43, ,
2, ,-43, ,
1, ,-43, ,
-1, ,-43, ,
2, ,-43, ,
1, ,-43, ,
1, ,-43, ,
2, ,-43, ,
1, ,-43, ,
-1, ,-43, ,
3, ,-43, ,
1, ,-43, ,
1, ,-44, ,
2, ,-43, ,
1, ,-43, ,
-1, ,-43, ,
2, ,-43, ,
1, ,-43, ,
1, ,-43, ,
2, ,-43, ,
1, ,-43, ,
-1, ,-43, ,
2, ,-43, ,
1, ,-43, ,
1, ,-43, ,
2, ,-43, ,
2, ,-44, ,
-1, ,-44, ,
2, ,-43, ,
1, ,-43, ,
1, ,-43, ,
2, ,-43, ,
1, ,-43, ,
-1, ,-43, ,
2, ,-43, ,
1, ,-43, ,
1, ,-44, ,
2, ,-43, ,
1, ,-43, ,
-1, ,-43, ,
2, ,-43, ,
1, ,-43, ,
1, ,-32, ,
2, ,-12, ,
2, ,4, ,
-1, ,16, ,
2, ,24, ,
1, ,31, ,
1, ,36, ,
2, ,39, ,
1, ,42, ,
-1, ,44, ,
2, ,46, ,
1, ,47, ,
1, ,49, ,
2, ,47, ,
1, ,49, ,
-1, ,50, ,
2, ,50, ,
1, ,50, ,
1, ,50, ,
2, ,50, ,
1, ,50, ,
-1, ,50, ,
2, ,50, ,
1, ,50, ,
1, ,50, ,
2, ,50, ,
1, ,50, ,
-1, ,50, ,
2, ,51, ,
1, ,50, ,
1, ,50, ,
2, ,50, ,
1, ,50, ,
-1, ,50, ,
2, ,50, ,
1, ,50, ,
1, ,50, ,
2, ,49, ,
1, ,50, ,
-1, ,50, ,
2, ,50, ,
1, ,50, ,
1, ,50, ,
2, ,49, ,
1, ,50, ,
-1, ,50, ,
2, ,50, ,
1, ,50, ,
1, ,50, ,
2, ,49, ,
1, ,50, ,
-1, ,50, ,
2, ,50, ,
1, ,50, ,
1, ,49, ,
2, ,50, ,
1, ,50, ,
-1, ,50, ,
2, ,50, ,
1, ,50, ,
1, ,50, ,
2, ,49, ,
1, ,50, ,
-1, ,50, ,
2, ,50, ,
1, ,50, ,
1, ,50, ,
2, ,50, ,
1, ,50, ,
-1, ,50, ,
2, ,50, ,
1, ,49, ,
1, ,50, ,
2, ,49, ,
1, ,50, ,
-1, ,50, ,
2, ,50, ,
1, ,50, ,
1, ,50, ,
2, ,50, ,
1, ,50, ,
-1, ,50, ,
1, ,50, ,
1, ,50, ,
1, ,50, ,
2, ,49, ,
1, ,49, ,
-1, ,49, ,
2, ,50, ,
-1, ,49, ,
-1, ,50, ,
2, ,49, ,
1, ,50, ,
-1, ,50, ,
2, ,50, ,
1, ,50, ,
1, ,50, ,
2, ,50, ,
1, ,50, ,
-1, ,50, ,
2, ,50, ,
1, ,50, ,
-1, ,50, ,
1, ,50, ,
1, ,50, ,
-1, ,49, ,
1, ,50, ,
-1, ,50, ,
-1, ,50, ,
2, ,49, ,
1, ,49, ,
-1, ,50, ,
2, ,50, ,
1, ,49, ,
-1, ,50, ,
2, ,49, ,
1, ,49, ,
-1, ,50, ,
2, ,49, ,
1, ,49, ,
1, ,50, ,
2, ,49, ,
1, ,49, ,
-1, ,49, ,
2, ,50, ,
1, ,49, ,
1, ,50, ,
1, ,50, ,
1, ,50, ,
-1, ,50, ,
2, ,50, ,
1, ,49, ,
1, ,50, ,
2, ,49, ,
1, ,49, ,
-1, ,50, ,
2, ,50, ,
1, ,49, ,
1, ,50, ,
2, ,49, ,
1, ,49, ,
-1, ,49, ,
2, ,50, ,
1, ,49, ,
1, ,50, ,
2, ,49, ,
1, ,50, ,
-1, ,50, ,
2, ,50, ,
1, ,50, ,
1, ,50, ,
2, ,50, ,
1, ,49, ,
-1, ,50, ,
1, ,44, ,
-1, ,25, ,
-1, ,7, ,
2, ,-5, ,
1, ,-15, ,
-1, ,-23, ,
2, ,-28, ,
1, ,-33, ,
-1, ,-36, ,
1, ,-38, ,
1, ,-40, ,
-1, ,-41, ,
2, ,-42, ,
1, ,-42, ,
1, ,-43, ,
1, ,-43, ,
1, ,-44, ,
-1, ,-43, ,
2, ,-44, ,
-1, ,-44, ,
1, ,-44, ,
2, ,-44, ,
1, ,-44, ,
-1, ,-44, ,
1, ,-44, ,
1, ,-44, ,
1, ,-44, ,
1, ,-44, ,
1, ,-44, ,
-1, ,-44, ,
2, ,-44, ,
1, ,-44, ,
1, ,-44, ,
1, ,-44, ,
1, ,-44, ,
-1, ,-43, ,
1, ,-44, ,
1, ,-44, ,
-1, ,-44, ,
1, ,-44, ,
1, ,-44, ,
-1, ,-43, ,
2, ,-44, ,
-1, ,-44, ,
1, ,-44, ,
2, ,-43, ,
1, ,-44, ,
-1, ,-44, ,
1, ,-44, ,
1, ,-44, ,
1, ,-44, ,
2, ,-44, ,
1, ,-43, ,
-1, ,-43, ,
2, ,-44, ,
1, ,-43, ,
1, ,-44, ,
1, ,-43, ,
1, ,-43, ,
-1, ,-43, ,
1, ,-44, ,
-1, ,-43, ,
1, ,-44, ,
1, ,-43, ,
1, ,-43, ,
-1, ,-43, ,
1, ,-43, ,
-1, ,-43, ,
-1, ,-44, ,
1, ,-43, ,
1, ,-44, ,
-1, ,-43, ,
1, ,-43, ,
-1, ,-43, ,
-1, ,-44, ,
2, ,-44, ,
1, ,-43, ,
-1, ,-43, ,
2, ,-43, ,
-1, ,-43, ,
-1, ,-44, ,
1, ,-43, ,
1, ,-43, ,
-1, ,-43, ,
1, ,-43, ,
-1, ,-43, ,
-1, ,-44, ,
1, ,-43, ,
1, ,-43, ,
-1, ,-43, ,
2, ,-44, ,
1, ,-43, ,
1, ,-44, ,
1, ,-43, ,
1, ,-43, ,
-1, ,-43, ,
2, ,-43, ,
1, ,-43, ,
-1, ,-44, ,
1, ,-43, ,
1, ,-43, ,
-1, ,-43, ,
1, ,-43, ,
-1, ,-43, ,
1, ,-44, ,
1, ,-43, ,
1, ,-43, ,
-1, ,-43, ,
2, ,-43, ,
-1, ,-43, ,
-1, ,-43, ,
1, ,-43, ,
1, ,-43, ,
-1, ,-43, ,
2, ,-43, ,
1, ,-43, ,
-1, ,-44, ,
1, ,-43, ,
1, ,-43, ,
-1, ,-43, ,
1, ,-43, ,
-1, ,-43, ,
1, ,-43, ,
2, ,-43, ,
1, ,-43, ,
-1, ,-43, ,
2, ,-43, ,
-1, ,-43, ,
-1, ,-44, ,
1, ,-43, ,
1, ,-43, ,
-1, ,-43, ,
2, ,-43, ,
-1, ,-43, ,
1, ,-43, ,
2, ,-43, ,
1, ,-43, ,
-1, ,-43, ,
2, ,-43, ,
-1, ,-43, ,
-1, ,-44, ,
1, ,-43, ,
1, ,-43, ,
-1, ,-43, ,
2, ,-43, ,
-1, ,-43, ,
-1, ,-43, ,
1, ,-43, ,
1, ,-43, ,
-1, ,-43, ,
2, ,-43, ,
-1, ,-43, ,
-1, ,-43, ,
1, ,-43, ,
1, ,-43, ,
-1, ,-43, ,
2, ,-43, ,
1, ,-43, ,
-1, ,-43, ,
1, ,-43, ,
1, ,-43, ,
-1, ,-43, ,
2, ,-44, ,
-1, ,-43, ,
-1, ,-44, ,
1, ,-43, ,
1, ,-43, ,
-1, ,-43, ,
2, ,-43, ,
-1, ,-43, ,
-1, ,-43, ,
1, ,-43, ,
1, ,-43, ,
-1, ,-43, ,
2, ,-43, ,
-1, ,-43, ,
-1, ,-44, ,
1, ,-43, ,
1, ,-43, ,
-1, ,-43, ,
1, ,-43, ,
-1, ,-43, ,
-1, ,-43, ,
1, ,-43, ,
1, ,-43, ,
-1, ,-43, ,
1, ,-43, ,
-1, ,-43, ,
-1, ,-44, ,
1, ,-43, ,
1, ,-43, ,
-1, ,-43, ,
1, ,-43, ,
-1, ,-43, ,
-1, ,-43, ,
1, ,-43, ,
1, ,-43, ,
-1, ,-43, ,
2, ,-43, ,
-1, ,-43, ,
-1, ,-44, ,
1, ,-43, ,
1, ,-43, ,
-1, ,-43, ,
2, ,-43, ,
-1, ,-43, ,
-1, ,-43, ,
1, ,-43, ,
1, ,-43, ,
-1, ,-43, ,
2, ,-43, ,
-1, ,-43, ,
-1, ,-43, ,
2, ,-43, ,
1, ,-43, ,
-2, ,-43, ,
1, ,-43, ,
-1, ,-43, ,
-1, ,-44, ,
1, ,-43, ,
1, ,-43, ,
-1, ,-43, ,
2, ,-43, ,
-1, ,-43, ,
-1, ,-44, ,
1, ,-43, ,
1, ,-43, ,
-1, ,-43, ,
1, ,-43, ,
-1, ,-43, ,
-1, ,-43, ,
1, ,-43, ,
1, ,-43, ,
-1, ,-43, ,
2, ,-43, ,
-1, ,-43, ,
-1, ,-44, ,
1, ,-43, ,
1, ,-43, ,
-1, ,-43, ,
1, ,-43, ,
-1, ,-43, ,
-1, ,-43, ,
1, ,-43, ,
1, ,-43, ,
-1, ,-43, ,
2, ,-43, ,
-1, ,-43, ,
-1, ,-44, ,
1, ,-43, ,
1, ,-43, ,
-1, ,-43, ,
2, ,-43, ,
-1, ,-43, ,
-1, ,-43, ,
1, ,-43, ,
1, ,-43, ,
-1, ,-43, ,
2, ,-43, ,
-1, ,-43, ,
-1, ,-44, ,
1, ,-43, ,
1, ,-43, ,
-1, ,-43, ,
1, ,-43, ,
-1, ,-43, ,
-1, ,-43, ,
1, ,-43, ,
1, ,-43, ,
-1, ,-43, ,
2, ,-43, ,
-1, ,-43, ,
-1, ,-43, ,
1, ,-43, ,
1, ,-43, ,
-1, ,-43, ,
2, ,-43, ,
-1, ,-43, ,
-1, ,-43, ,
1, ,-43, ,
1, ,-43, ,
-1, ,-44, ,
1, ,-43, ,
-1, ,-43, ,
-1, ,-43, ,
1, ,-43, ,
1, ,-43, ,
-1, ,-44, ,
1, ,-43, ,
-1, ,-43, ,
-1, ,-43, ,
1, ,-43, ,
1, ,-43, ,
-1, ,-43, ,
1, ,-43, ,
-1, ,-43, ,
-1, ,-44, ,
1, ,-43, ,
1, ,-43, ,
-1, ,-43, ,
1, ,-43, ,
-1, ,-43, ,
-1, ,-43, ,
1, ,-43, ,
1, ,-43, ,
-1, ,-43, ,
2, ,-43, ,
-1, ,-43, ,
-1, ,-43, ,
1, ,-43, ,
1, ,-43, ,
-1, ,-43, ,
1, ,-43, ,
-1, ,-43, ,
-1, ,-43, ,
1, ,-43, ,
1, ,-43, ,
-1, ,-43, ,
2, ,-43, ,
-1, ,-43, ,
-1, ,-44, ,
1, ,-43, ,
1, ,-43, ,
-1, ,-43, ,
1, ,-43, ,
-1, ,-43, ,
-1, ,-43, ,
1, ,-43, ,
1, ,-43, ,
-1, ,-43, ,
2, ,-43, ,
-1, ,-43, ,
-1, ,-43, ,
1, ,-43, ,
1, ,-43, ,
-1, ,-43, ,
1, ,-43, ,
-1, ,-43, ,
-1, ,-43, ,
1, ,-43, ,
1, ,-43, ,
-1, ,-43, ,
1, ,-43, ,
-1, ,-43, ,
-1, ,-44, ,
1, ,-43, ,
1, ,-43, ,
-1, ,-43, ,
1, ,-43, ,
-1, ,-43, ,
-1, ,-43, ,
1, ,-43, ,
1, ,-43, ,
-1, ,-43, ,
2, ,-43, ,
-1, ,-43, ,
-1, ,-43, ,
1, ,-43, ,
1, ,-43, ,
-1, ,-43, ,
1, ,-43, ,
-1, ,-43, ,
-1, ,-43, ,
1, ,-43, ,
-1, ,-43, ,
-1, ,-43, ,
1, ,-43, ,
-1, ,-43, ,
-1, ,-44, ,
1, ,-43, ,
-1, ,-43, ,
-1, ,-43, ,
1, ,-43, ,
-1, ,-43, ,
-1, ,-43, ,
1, ,-43, ,
1, ,-43, ,
-1, ,-44, ,
2, ,-44, ,
-1, ,-43, ,
-1, ,-44, ,
1, ,-43, ,
1, ,-43, ,
-1, ,-43, ,
2, ,-43, ,
-1, ,-43, ,
-1, ,-43, ,
1, ,-43, ,
1, ,-43, ,
-1, ,-43, ,
1, ,-43, ,
-1, ,-43, ,
-1, ,-44, ,
1, ,-43, ,
1, ,-43, ,
-1, ,-43, ,
1, ,-43, ,
-1, ,-43, ,
1, ,-44, ,
1, ,-43, ,
1, ,-43, ,
-1, ,-43, ,
2, ,-43, ,
-1, ,-43, ,
-1, ,-43, ,
1, ,-43, ,
1, ,-43, ,
-1, ,-43, ,
1, ,-43, ,
-1, ,-43, ,
-1, ,-43, ,
1, ,-43, ,
1, ,-43, ,
-1, ,-43, ,
2, ,-43, ,
-1, ,-43, ,
-1, ,-43, ,
1, ,-43, ,
1, ,-43, ,
-1, ,-43, ,
1, ,-43, ,
-1, ,-43, ,
-1, ,-43, ,
1, ,-43, ,
1, ,-43, ,
-1, ,-43, ,
2, ,-43, ,
-1, ,-43, ,
-1, ,-44, ,
1, ,-43, ,
1, ,-43, ,
-1, ,-43, ,
1, ,-43, ,
-1, ,-43, ,
-1, ,-43, ,
1, ,-43, ,
1, ,-43, ,
-1, ,-43, ,
2, ,-43, ,
-1, ,-43, ,
-1, ,-44, ,
1, ,-43, ,
1, ,-43, ,
-1, ,-43, ,
1, ,-43, ,
-1, ,-43, ,
-1, ,-44, ,
1, ,-43, ,
1, ,-43, ,
-2, ,-43, ,
1, ,-43, ,
-1, ,-43, ,
-1, ,-44, ,
1, ,-43, ,
1, ,-43, ,
-1, ,-43, ,
2, ,-43, ,
-1, ,-43, ,
-1, ,-43, ,
1, ,-43, ,
1, ,-43, ,
-1, ,-43, ,
2, ,-43, ,
-1, ,-43, ,
-1, ,-44, ,
1, ,-43, ,
1, ,-43, ,
-1, ,-43, ,
1, ,-43, ,
-1, ,-43, ,
-1, ,-43, ,
1, ,-43, ,
1, ,-43, ,
-1, ,-43, ,
2, ,-43, ,
-1, ,-43, ,
-1, ,-44, ,
1, ,-43, ,
-1, ,-43, ,
-2, ,-43, ,
1, ,-43, ,
-1, ,-43, ,
-1, ,-43, ,
1, ,-43, ,
-1, ,-43, ,
-1, ,-43, ,
1, ,-43, ,
-1, ,-43, ,
-1, ,-44, ,
1, ,-43, ,
1, ,-43, ,
-1, ,-43, ,
1, ,-43, ,
-1, ,-43, ,
-1, ,-43, ,
1, ,-43, ,
-1, ,-43, ,
-1, ,-43, ,
2, ,-43, ,
-1, ,-43, ,
-1, ,-43, ,
1, ,-43, ,
1, ,-43, ,
-2, ,-43, ,
1, ,-43, ,
-1, ,-43, ,
-1, ,-43, ,
1, ,-43, ,
1, ,-43, ,
-1, ,-43, ,
2, ,-43, ,
-1, ,-43, ,
-1, ,-44, ,
1, ,-43, ,
1, ,-43, ,
-1, ,-43, ,
1, ,-43, ,
-1, ,-43, ,
-1, ,-43, ,
1, ,-43, ,
1, ,-43, ,
-1, ,-43, ,
2, ,-43, ,
-1, ,-43, ,
-1, ,-44, ,
1, ,-43, ,
1, ,-43, ,
-1, ,-43, ,
1, ,-43, ,
-1, ,-43, ,
-1, ,-43, ,
1, ,-43, ,
1, ,-43, ,
-1, ,-43, ,
2, ,-43, ,
-1, ,-43, ,
-1, ,-44, ,
1, ,-43, ,
1, ,-43, ,
-1, ,-43, ,
1, ,-43, ,
-1, ,-43, ,
-1, ,-43, ,
1, ,-43, ,
1, ,-43, ,
-1, ,-43, ,
1, ,-43, ,
-1, ,-43, ,
-1, ,-43, ,
1, ,-43, ,
1, ,-43, ,
-1, ,-44, ,
1, ,-43, ,
-1, ,-43, ,
-1, ,-44, ,
1, ,-43, ,
-1, ,-43, ,
-2, ,-43, ,
1, ,-43, ,
-1, ,-43, ,
-1, ,-44, ,
1, ,-43, ,
1, ,-43, ,
-1, ,-43, ,
2, ,-43, ,
-1, ,-43, ,
-1, ,-43, ,
1, ,-44, ,
-1, ,-44, ,
-1, ,-43, ,
1, ,-43, ,
-1, ,-43, ,
-1, ,-43, ,
1, ,-43, ,
-1, ,-43, ,
-1, ,-43, ,
1, ,-43, ,
-1, ,-43, ,
-1, ,-43, ,
1, ,-43, ,
1, ,-43, ,
-1, ,-43, ,
1, ,-43, ,
-1, ,-43, ,
-1, ,-44, ,
1, ,-43, ,
1, ,-43, ,
-1, ,-43, ,
1, ,-43, ,
-1, ,-43, ,
-1, ,-43, ,
1, ,-43, ,
1, ,-43, ,
-1, ,-43, ,
1, ,-43, ,
-1, ,-43, ,
-1, ,-44, ,
1, ,-43, ,
1, ,-43, ,
-1, ,-44, ,
1, ,-43, ,
-1, ,-43, ,
-1, ,-44, ,
1, ,-43, ,
1, ,-43, ,
-1, ,-43, ,
1, ,-43, ,
-1, ,-43, ,
-1, ,-43, ,
1, ,-43, ,
1, ,-43, ,
-1, ,-43, ,
1, ,-43, ,
-1, ,-43, ,
-1, ,-43, ,
1, ,-43, ,
1, ,-43, ,
-1, ,-43, ,
1, ,-43, ,
-1, ,-43, ,
-1, ,-44, ,
1, ,-43, ,
-1, ,-43, ,
-1, ,-44, ,
1, ,-43, ,
-1, ,-43, ,
-1, ,-43, ,
1, ,-36, ,
1, ,-17, ,
-1, ,0, ,
2, ,13, ,
1, ,22, ,
-1, ,30, ,
1, ,35, ,
1, ,39, ,
-2, ,42, ,
1, ,44, ,
-1, ,45, ,
-1, ,47, ,
1, ,47, ,
1, ,49, ,
-1, ,49, ,
2, ,49, ,
-1, ,49, ,
-1, ,50, ,
1, ,50, ,
1, ,50, ,
-1, ,50, ,
1, ,50, ,
-1, ,50, ,
-1, ,50, ,
1, ,50, ,
1, ,50, ,
-1, ,50, ,
2, ,50, ,
-1, ,50, ,
-1, ,50, ,
1, ,50, ,
-1, ,50, ,
-2, ,50, ,
1, ,50, ,
-1, ,50, ,
-1, ,50, ,
1, ,50, ,
-1, ,50, ,
-2, ,50, ,
1, ,50, ,
-1, ,50, ,
-1, ,50, ,
1, ,50, ,
1, ,50, ,
-1, ,50, ,
1, ,50, ,
-1, ,50, ,
-1, ,50, ,
1, ,50, ,
-1, ,50, ,
-2, ,50, ,
2, ,50, ,
-1, ,49, ,
-1, ,50, ,
1, ,50, ,
1, ,50, ,
-1, ,50, ,
1, ,49, ,
-1, ,50, ,
-1, ,50, ,
1, ,50, ,
-1, ,50, ,
-1, ,50, ,
1, ,50, ,
-1, ,49, ,
-1, ,50, ,
1, ,50, ,
1, ,50, ,
-1, ,50, ,
1, ,50, ,
-1, ,50, ,
-1, ,50, ,
1, ,50, ,
-1, ,50, ,
-2, ,50, ,
1, ,50, ,
-1, ,50, ,
-1, ,50, ,
1, ,50, ,
1, ,50, ,
-1, ,50, ,
1, ,49, ,
-1, ,50, ,
-1, ,50, ,
1, ,49, ,
-1, ,50, ,
-1, ,50, ,
2, ,50, ,
-1, ,50, ,
-1, ,50, ,
1, ,50, ,
1, ,50, ,
-2, ,50, ,
1, ,50, ,
-1, ,50, ,
-1, ,50, ,
1, ,49, ,
-1, ,49, ,
-2, ,50, ,
2, ,50, ,
-1, ,50, ,
-1, ,50, ,
1, ,49, ,
1, ,50, ,
-1, ,50, ,
1, ,49, ,
-1, ,50, ,
-1, ,50, ,
2, ,49, ,
1, ,50, ,
-2, ,50, ,
2, ,50, ,
-1, ,50, ,
-1, ,50, ,
1, ,50, ,
-1, ,50, ,
-2, ,50, ,
1, ,49, ,
-1, ,50, ,
-1, ,50, ,
1, ,49, ,
-1, ,50, ,
-1, ,50, ,
2, ,50, ,
-1, ,49, ,
-1, ,50, ,
1, ,49, ,
1, ,50, ,
-1, ,50, ,
1, ,50, ,
-1, ,50, ,
-1, ,50, ,
1, ,50, ,
-1, ,50, ,
-2, ,50, ,
1, ,50, ,
-1, ,50, ,
-1, ,50, ,
1, ,50, ,
1, ,50, ,
-1, ,50, ,
1, ,50, ,
-1, ,49, ,
-1, ,50, ,
1, ,49, ,
-1, ,50, ,
-1, ,50, ,
2, ,50, ,
-1, ,50, ,
-1, ,50, ,
1, ,50, ,
-1, ,50, ,
-1, ,50, ,
1, ,50, ,
-1, ,47, ,
-1, ,32, ,
1, ,12, ,
-1, ,-2, ,
-2, ,-13, ,
1, ,-21, ,
-1, ,-27, ,
-1, ,-32, ,
1, ,-35, ,
-1, ,-38, ,
-1, ,-39, ,
2, ,-40, ,
-1, ,-42, ,
-1, ,-42, ,
1, ,-43, ,
1, ,-43, ,
-1, ,-43, ,
2, ,-44, ,
-1, ,-44, ,
-1, ,-44, ,
1, ,-44, ,
1, ,-44, ,
-2, ,-44, ,
1, ,-44, ,
-1, ,-44, ,
-1, ,-44, ,
1, ,-44, ,
92, ,-44, ,
55, ,-44, ,
35, ,-44, ,
21, ,-44, ,
13, ,-44, ,
11, ,-44, ,
8, ,-44, ,
5, ,-44, ,
6, ,-44, ,
3, ,-44, ,
2, ,-44, ,
3, ,-44, ,
2, ,-44, ,
1, ,-44, ,
3, ,-44, ,
1, ,-44, ,
2, ,-44, ,
3, ,-43, ,
2, ,-43, ,
1, ,-44, ,
3, ,-44, ,
2, ,-44, ,
2, ,-44, ,
3, ,-44, ,
3, ,-44, ,
1, ,-43, ,
3, ,-43, ,
2, ,-43, ,
2, ,-44, ,
2, ,-43, ,
2, ,-43, ,
1, ,-43, ,
3, ,-43, ,
2, ,-43, ,
2, ,-43, ,
2, ,-44, ,
2, ,-43, ,
1, ,-44, ,
5, ,-43, ,
2, ,-43, ,
2, ,-44, ,
2, ,-43, ,
2, ,-43, ,
1, ,-43, ,
3, ,-43, ,
2, ,-43, ,
1, ,-44, ,
2, ,-44, ,
2, ,-43, ,
1, ,-43, ,
3, ,-43, ,
2, ,-43, ,
1, ,-44, ,
2, ,-44, ,
2, ,-43, ,
1, ,-44, ,
3, ,-43, ,
1, ,-44, ,
1, ,-43, ,
2, ,-44, ,
2, ,-43, ,
1, ,-43, ,
3, ,-43, ,
2, ,-43, ,
2, ,-44, ,
2, ,-43, ,
2, ,-43, ,
1, ,-44, ,
3, ,-44, ,
2, ,-43, ,
1, ,-44, ,
2, ,-43, ,
2, ,-43, ,
1, ,-43, ,
3, ,-43, ,
1, ,-43, ,
1, ,-44, ,
2, ,-43, ,
2, ,-43, ,
1, ,-43, ,
3, ,-43, ,
1, ,-43, ,
1, ,-43, ,
2, ,-43, ,
2, ,-43, ,
1, ,-43, ,
3, ,-43, ,
2, ,-43, ,
1, ,-44, ,
2, ,-43, ,
2, ,-43, ,
1, ,-43, ,
3, ,-43, ,
1, ,-43, ,
1, ,-44, ,
2, ,-43, ,
2, ,-43, ,
1, ,-43, ,
3, ,-44, ,
1, ,-43, ,
1, ,-44, ,
2, ,-43, ,
2, ,-43, ,
1, ,-43, ,
3, ,-43, ,
2, ,-43, ,
1, ,-43, ,
2, ,-43, ,
2, ,-44, ,
1, ,-43, ,
3, ,-43, ,
2, ,-43, ,
1, ,-44, ,
2, ,-43, ,
2, ,-43, ,
1, ,-43, ,
3, ,-43, ,
2, ,-43, ,
1, ,-43, ,
2, ,-43, ,
2, ,-43, ,
1, ,-43, ,
3, ,-43, ,
2, ,-43, ,
1, ,-44, ,
2, ,-43, ,
2, ,-43, ,
1, ,-43, ,
2, ,-43, ,
1, ,-43, ,
2, ,-43, ,
2, ,-43, ,
2, ,-44, ,
1, ,-43, ,
3, ,-43, ,
1, ,-43, ,
1, ,-43, ,
2, ,-43, ,
2, ,-43, ,
1, ,-43, ,
2, ,-43, ,
1, ,-43, ,
1, ,-43, ,
2, ,-43, ,
2, ,-43, ,
1, ,-43, ,
3, ,-43, ,
2, ,-43, ,
1, ,-43, ,
2, ,-43, ,
2, ,-43, ,
1, ,-43, ,
3, ,-43, ,
1, ,-43, ,
1, ,-43, ,
2, ,-43, ,
2, ,-43, ,
1, ,-43, ,
3, ,-43, ,
1, ,-43, ,
1, ,-44, ,
2, ,-43, ,
2, ,-43, ,
1, ,-43, ,
3, ,-43, ,
1, ,-43, ,
1, ,-43, ,
2, ,-43, ,
1, ,-43, ,
1, ,-43, ,
3, ,-43, ,
1, ,-43, ,
1, ,-44, ,
2, ,-43, ,
1, ,-43, ,
1, ,-43, ,
3, ,-43, ,
1, ,-43, ,
1, ,-43, ,
2, ,-43, ,
2, ,-43, ,
1, ,-43, ,
3, ,-43, ,
1, ,-43, ,
1, ,-44, ,
2, ,-43, ,
2, ,-43, ,
-1, ,-43, ,
3, ,-43, ,
1, ,-43, ,
1, ,-43, ,
2, ,-43, ,
1, ,-43, ,
-1, ,-43, ,
2, ,-43, ,
1, ,-43, ,
1, ,-43, ,
2, ,-43, ,
2, ,-43, ,
-1, ,-43, ,
2, ,-43, ,
1, ,-43, ,
1, ,-43, ,
2, ,-43, ,
1, ,-43, ,
-1, ,-43, ,
3, ,-43, ,
1, ,-43, ,
1, ,-44, ,
2, ,-43, ,
1, ,-43, ,
-1, ,-43, ,
2, ,-43, ,
1, ,-43, ,
1, ,-44, ,
2, ,-43, ,
2, ,-43, ,
-1, ,-43, ,
3, ,-43, ,
1, ,-43, ,
1, ,-44, ,
2, ,-43, ,
2, ,-43, ,
-1, ,-43, ,
2, ,-43, ,
1, ,-43, ,
1, ,-44, ,
2, ,-43, ,
1, ,-43, ,
-1, ,-43, ,
2, ,-43, ,
1, ,-43, ,
1, ,-44, ,
2, ,-43, ,
2, ,-43, ,
-1, ,-44, ,
2, ,-43, ,
1, ,-43, ,
1, ,-43, ,
2, ,-43, ,
1, ,-43, ,
-1, ,-43, ,
3, ,-43, ,
1, ,-43, ,
1, ,-43, ,
2, ,-43, ,
1, ,-43, ,
-1, ,-44, ,
2, ,-43, ,
1, ,-43, ,
1, ,-44, ,
2, ,-43, ,
1, ,-43, ,
-1, ,-43, ,
3, ,-43, ,
1, ,-43, ,
1, ,-43, ,
2, ,-43, ,
2, ,-43, ,
-1, ,-43, ,
2, ,-43, ,
1, ,-43, ,
1, ,-43, ,
2, ,-43, ,
2, ,-43, ,
-1, ,-43, ,
2, ,-43, ,
1, ,-43, ,
1, ,-43, ,
2, ,-43, ,
1, ,-43, ,
-1, ,-43, ,
2, ,-43, ,
1, ,-43, ,
1, ,-43, ,
2, ,-43, ,
2, ,-43, ,
-1, ,-43, ,
2, ,-43, ,
1, ,-43, ,
1, ,-44, ,
2, ,-43, ,
2, ,-43, ,
-1, ,-43, ,
2, ,-43, ,
1, ,-43, ,
1, ,-43, ,
2, ,-43, ,
2, ,-43, ,
-1, ,-43, ,
2, ,-43, ,
1, ,-43, ,
1, ,-44, ,
2, ,-43, ,
1, ,-43, ,
-1, ,-43, ,
2, ,-43, ,
1, ,-43, ,
1, ,-43, ,
2, ,-43, ,
1, ,-43, ,
-1, ,-43, ,
2, ,-43, ,
1, ,-43, ,
1, ,-43, ,
2, ,-43, ,
1, ,-43, ,
-1, ,-43, ,
2, ,-43, ,
1, ,-43, ,
1, ,-43, ,
2, ,-43, ,
1, ,-43, ,
-1, ,-43, ,
2, ,-43, ,
1, ,-43, ,
1, ,-43, ,
2, ,-43, ,
1, ,-43, ,
-1, ,-43, ,
1, ,-43, ,
1, ,-43, ,
1, ,-43, ,
2, ,-43, ,
1, ,-43, ,
-1, ,-43, ,
2, ,-43, ,
1, ,-43, ,
1, ,-43, ,
2, ,-43, ,
1, ,-43, ,
-1, ,-43, ,
2, ,-43, ,
1, ,-43, ,
1, ,-43, ,
1, ,-43, ,
1, ,-43, ,
-1, ,-43, ,
2, ,-43, ,
1, ,-43, ,
1, ,-44, ,
2, ,-43, ,
1, ,-43, ,
-1, ,-43, ,
2, ,-43, ,
1, ,-43, ,
1, ,-43, ,
2, ,-43, ,
1, ,-43, ,
-1, ,-43, ,
2, ,-43, ,
-1, ,-43, ,
-1, ,-43, ,
2, ,-43, ,
1, ,-43, ,
-1, ,-43, ,
1, ,-43, ,
1, ,-43, ,
1, ,-43, ,
2, ,-43, ,
1, ,-43, ,
-1, ,-43, ,
2, ,-43, ,
1, ,-43, ,
1, ,-43, ,
2, ,-43, ,
1, ,-43, ,
-1, ,-43, ,
2, ,-43, ,
1, ,-43, ,
1, ,-43, ,
1, ,-43, ,
1, ,-43, ,
-1, ,-43, ,
2, ,-43, ,
1, ,-43, ,
1, ,-43, ,
1, ,-43, ,
1, ,-43, ,
-1, ,-43, ,
2, ,-43, ,
1, ,-43, ,
1, ,-43, ,
2, ,-43, ,
1, ,-43, ,
-1, ,-43, ,
2, ,-43, ,
1, ,-43, ,
1, ,-43, ,
2, ,-43, ,
1, ,-43, ,
-1, ,-43, ,
2, ,-43, ,
1, ,-44, ,
1, ,-43, ,
2, ,-43, ,
1, ,-43, ,
-1, ,-43, ,
2, ,-43, ,
1, ,-43, ,
1, ,-44, ,
1, ,-43, ,
1, ,-43, ,
-1, ,-43, ,
2, ,-43, ,
1, ,-43, ,
1, ,-43, ,
2, ,-43, ,
1, ,-43, ,
-1, ,-43, ,
2, ,-43, ,
1, ,-43, ,
1, ,-43, ,
2, ,-43, ,
1, ,-43, ,
-1, ,-44, ,
2, ,-43, ,
-1, ,-43, ,
1, ,-43, ,
1, ,-43, ,
1, ,-43, ,
-1, ,-43, ,
2, ,-43, ,
1, ,-43, ,
-1, ,-44, ,
1, ,-43, ,
1, ,-43, ,
-1, ,-44, ,
2, ,-43, ,
1, ,-43, ,
1, ,-43, ,
2, ,-43, ,
1, ,-43, ,
-1, ,-43, ,
2, ,-43, ,
1, ,-43, ,
