src/varyamp_1558/temp0002173.CSV

Format,1.0B,
Memory Length,10000,Memory Length,10000,
IntpDistance,0,IntpDistance,0,
Trigger Address,4999,Trigger Address,4999,
Trigger Level,1.040E+00,Trigger Level,1.040E+00,
Source,CH1,Source,CH2,
Vertical Units,V,Vertical Units,V,
Vertical Units Div,0,Vertical Units Div,0,
Vertical Units Extend Div,16,Vertical Units Extend Div,16,
Label,,Label,,
Probe Type,0,Probe Type,0,
Probe Ratio,1.000e+01,Probe Ratio,1.000e+00,
Vertical Scale,5.000e-01,Vertical Scale,1.000e+00,
Vertical Position,-1.820e+00,Vertical Position,0.000e+00,
Horizontal Units,S,Horizontal Units,S,
Horizontal Scale,2.000E-05,Horizontal Scale,2.000E-05,
Horizontal Position,0.000E+00,Horizontal Position,0.000E+00,
Horizontal Mode,Main,Horizontal Mode,Main,
SincET Mode,Real Time,SincET Mode,Real Time,
Sampling Period,2.000e-08,Sampling Period,2.000e-08,
Horizontal Old Scale,2.000E-05,Horizontal Old Scale,2.000E-05,
Horizontal Old Position,0.000E+00,Horizontal Old Position,0.000E+00,
Firmware,V1.23,Firmware,V1.23,
Mode,Fast,Mode,Fast,
Waveform Data,,Waveform Data,,
1, ,-33, ,
1, ,-33, ,
2, ,-33, ,
1, ,-34, ,
-1, ,-33, ,
2, ,-33, ,
1, ,-33, ,
1, ,-33, ,
2, ,-33, ,
1, ,-34, ,
-1, ,-33, ,
2, ,-33, ,
1, ,-33, ,
1, ,-33, ,
1, ,-33, ,
1, ,-34, ,
1, ,-33, ,
2, ,-33, ,
1, ,-33, ,
1, ,-33, ,
2, ,-33, ,
2, ,-34, ,
1, ,-33, ,
2, ,-33, ,
1, ,-33, ,
1, ,-33, ,
2, ,-33, ,
1, ,-33, ,
-1, ,-33, ,
2, ,-33, ,
1, ,-33, ,
1, ,-33, ,
2, ,-33, ,
1, ,-34, ,
-1, ,-33, ,
2, ,-33, ,
1, ,-33, ,
1, ,-33, ,
2, ,-34, ,
1, ,-33, ,
-1, ,-33, ,
2, ,-33, ,
1, ,-33, ,
1, ,-33, ,
2, ,-33, ,
1, ,-34, ,
-1, ,-33, ,
1, ,-33, ,
1, ,-33, ,
1, ,-33, ,
2, ,-33, ,
1, ,-34, ,
-1, ,-33, ,
2, ,-33, ,
1, ,-33, ,
1, ,-33, ,
1, ,-33, ,
1, ,-33, ,
-1, ,-33, ,
2, ,-33, ,
1, ,-34, ,
1, ,-33, ,
2, ,-34, ,
1, ,-34, ,
-1, ,-33, ,
2, ,-33, ,
1, ,-33, ,
1, ,-33, ,
1, ,-33, ,
1, ,-34, ,
-1, ,-33, ,
2, ,-33, ,
1, ,-33, ,
1, ,-33, ,
2, ,-34, ,
1, ,-33, ,
-1, ,-33, ,
2, ,-33, ,
1, ,-33, ,
1, ,-33, ,
1, ,-33, ,
1, ,-34, ,
-1, ,-33, ,
1, ,-33, ,
1, ,-33, ,
1, ,-33, ,
2, ,-34, ,
1, ,-34, ,
-1, ,-33, ,
2, ,-33, ,
1, ,-34, ,
1, ,-33, ,
2, ,-33, ,
1, ,-34, ,
-1, ,-33, ,
2, ,-33, ,
1, ,-33, ,
1, ,-33, ,
2, ,-33, ,
1, ,-33, ,
1, ,-33, ,
2, ,-33, ,
1, ,-33, ,
1, ,-33, ,
2, ,-33, ,
1, ,-33, ,
-1, ,-33, ,
2, ,-33, ,
1, ,-34, ,
1, ,-34, ,
1, ,-33, ,
1, ,-33, ,
-1, ,-33, ,
2, ,-33, ,
1, ,-33, ,
1, ,-33, ,
1, ,-33, ,
1, ,-34, ,
-1, ,-33, ,
2, ,-33, ,
1, ,-33, ,
1, ,-33, ,
2, ,-33, ,
1, ,-33, ,
-1, ,-33, ,
2, ,-33, ,
-1, ,-33, ,
1, ,-33, ,
2, ,-33, ,
1, ,-34, ,
-1, ,-33, ,
2, ,-33, ,
1, ,-33, ,
1, ,-33, ,
2, ,-33, ,
1, ,-33, ,
-1, ,-33, ,
2, ,-33, ,
1, ,-33, ,
1, ,-33, ,
2, ,-33, ,
1, ,-34, ,
-1, ,-33, ,
2, ,-33, ,
1, ,-33, ,
1, ,-33, ,
1, ,-33, ,
1, ,-33, ,
-1, ,-33, ,
2, ,-33, ,
1, ,-33, ,
1, ,-33, ,
1, ,-33, ,
2, ,-33, ,
-1, ,-33, ,
1, ,-33, ,
1, ,-33, ,
1, ,-33, ,
1, ,-33, ,
1, ,-34, ,
-1, ,-34, ,
2, ,-33, ,
1, ,-33, ,
1, ,-33, ,
1, ,-33, ,
2, ,-34, ,
-1, ,-33, ,
1, ,-33, ,
1, ,-33, ,
1, ,-33, ,
1, ,-33, ,
2, ,-33, ,
-1, ,-33, ,
1, ,-33, ,
1, ,-33, ,
1, ,-33, ,
1, ,-34, ,
1, ,-34, ,
-1, ,-33, ,
1, ,-33, ,
1, ,-33, ,
1, ,-33, ,
1, ,-33, ,
1, ,-33, ,
-1, ,-33, ,
2, ,-33, ,
1, ,-34, ,
1, ,-33, ,
1, ,-33, ,
1, ,-34, ,
-1, ,-33, ,
1, ,-33, ,
1, ,-33, ,
1, ,-33, ,
1, ,-33, ,
1, ,-33, ,
-1, ,-33, ,
2, ,-33, ,
1, ,-33, ,
1, ,-33, ,
1, ,-33, ,
1, ,-34, ,
-1, ,-33, ,
2, ,-33, ,
1, ,-33, ,
1, ,-33, ,
1, ,-34, ,
1, ,-34, ,
-1, ,-34, ,
2, ,-33, ,
-1, ,-33, ,
1, ,-33, ,
2, ,-33, ,
1, ,-34, ,
-1, ,-33, ,
1, ,-33, ,
1, ,-33, ,
1, ,-33, ,
1, ,-33, ,
1, ,-33, ,
-1, ,-33, ,
2, ,-33, ,
1, ,-33, ,
1, ,-33, ,
1, ,-33, ,
2, ,-33, ,
-1, ,-33, ,
2, ,-33, ,
1, ,-33, ,
1, ,-33, ,
1, ,-33, ,
1, ,-34, ,
-1, ,-33, ,
2, ,-33, ,
1, ,-34, ,
-1, ,-33, ,
1, ,-33, ,
1, ,-34, ,
-1, ,-33, ,
2, ,-33, ,
1, ,-33, ,
1, ,-33, ,
1, ,-34, ,
2, ,-33, ,
-1, ,-34, ,
1, ,-33, ,
1, ,-33, ,
1, ,-33, ,
2, ,-33, ,
1, ,-34, ,
-1, ,-33, ,
1, ,-33, ,
1, ,-34, ,
1, ,-33, ,
1, ,-34, ,
1, ,-33, ,
-1, ,-33, ,
2, ,-33, ,
1, ,-33, ,
1, ,-33, ,
2, ,-33, ,
1, ,-34, ,
-1, ,-33, ,
2, ,-33, ,
1, ,-34, ,
1, ,-33, ,
1, ,-33, ,
1, ,-33, ,
-1, ,-33, ,
2, ,-33, ,
1, ,-33, ,
1, ,-33, ,
2, ,-33, ,
1, ,-34, ,
-1, ,-33, ,
1, ,-33, ,
1, ,-33, ,
1, ,-33, ,
1, ,-33, ,
1, ,-34, ,
-1, ,-33, ,
1, ,-33, ,
1, ,-33, ,
1, ,-34, ,
2, ,-33, ,
1, ,-33, ,
-1, ,-33, ,
1, ,-33, ,
-1, ,-33, ,
1, ,-33, ,
1, ,-33, ,
1, ,-34, ,
-1, ,-33, ,
2, ,-33, ,
1, ,-33, ,
-1, ,-33, ,
1, ,-33, ,
1, ,-34, ,
-1, ,-33, ,
1, ,-33, ,
1, ,-34, ,
1, ,-33, ,
1, ,-33, ,
1, ,-34, ,
-1, ,-33, ,
2, ,-33, ,
-1, ,-33, ,
1, ,-32, ,
1, ,-16, ,
1, ,2, ,
-1, ,18, ,
1, ,28, ,
1, ,37, ,
1, ,42, ,
1, ,47, ,
1, ,52, ,
-1, ,53, ,
2, ,55, ,
-1, ,57, ,
1, ,57, ,
1, ,58, ,
1, ,59, ,
-1, ,58, ,
2, ,60, ,
1, ,60, ,
-1, ,59, ,
1, ,60, ,
1, ,61, ,
-1, ,59, ,
1, ,60, ,
-1, ,61, ,
1, ,60, ,
1, ,60, ,
1, ,61, ,
-1, ,59, ,
2, ,60, ,
-1, ,60, ,
-1, ,59, ,
1, ,60, ,
1, ,61, ,
-1, ,59, ,
2, ,60, ,
-1, ,61, ,
-1, ,59, ,
1, ,60, ,
1, ,61, ,
-1, ,59, ,
2, ,60, ,
-1, ,61, ,
-1, ,59, ,
1, ,60, ,
1, ,61, ,
-1, ,59, ,
1, ,60, ,
-1, ,60, ,
-1, ,59, ,
1, ,59, ,
1, ,60, ,
-1, ,59, ,
1, ,60, ,
-1, ,60, ,
-1, ,59, ,
1, ,60, ,
1, ,61, ,
-1, ,59, ,
1, ,60, ,
-1, ,61, ,
-1, ,59, ,
1, ,59, ,
1, ,60, ,
-1, ,59, ,
1, ,60, ,
-1, ,60, ,
-1, ,59, ,
1, ,60, ,
83, ,61, ,
54, ,59, ,
34, ,60, ,
21, ,61, ,
13, ,59, ,
11, ,60, ,
7, ,60, ,
3, ,59, ,
5, ,60, ,
2, ,60, ,
2, ,59, ,
3, ,60, ,
2, ,61, ,
1, ,59, ,
3, ,59, ,
2, ,60, ,
2, ,59, ,
3, ,60, ,
2, ,60, ,
2, ,59, ,
3, ,60, ,
2, ,60, ,
2, ,59, ,
3, ,59, ,
2, ,60, ,
1, ,59, ,
3, ,60, ,
2, ,61, ,
2, ,59, ,
2, ,59, ,
2, ,60, ,
1, ,58, ,
3, ,60, ,
2, ,60, ,
1, ,59, ,
2, ,59, ,
2, ,60, ,
2, ,58, ,
3, ,60, ,
1, ,61, ,
2, ,59, ,
2, ,59, ,
2, ,60, ,
1, ,58, ,
3, ,60, ,
2, ,60, ,
2, ,59, ,
3, ,59, ,
2, ,60, ,
1, ,58, ,
3, ,60, ,
2, ,60, ,
2, ,59, ,
2, ,59, ,
2, ,60, ,
1, ,58, ,
3, ,60, ,
2, ,60, ,
2, ,59, ,
2, ,59, ,
8, ,60, ,
12, ,58, ,
12, ,60, ,
7, ,60, ,
6, ,59, ,
6, ,59, ,
5, ,60, ,
2, ,59, ,
3, ,60, ,
2, ,60, ,
2, ,59, ,
2, ,59, ,
3, ,60, ,
2, ,58, ,
3, ,60, ,
2, ,61, ,
2, ,59, ,
3, ,59, ,
2, ,60, ,
1, ,59, ,
3, ,60, ,
2, ,60, ,
2, ,59, ,
3, ,59, ,
2, ,61, ,
1, ,59, ,
3, ,60, ,
2, ,52, ,
1, ,31, ,
2, ,14, ,
2, ,2, ,
1, ,-7, ,
2, ,-14, ,
2, ,-19, ,
2, ,-23, ,
2, ,-26, ,
2, ,-28, ,
1, ,-30, ,
3, ,-31, ,
2, ,-32, ,
2, ,-33, ,
2, ,-33, ,
2, ,-33, ,
2, ,-33, ,
3, ,-33, ,
2, ,-34, ,
2, ,-34, ,
3, ,-34, ,
3, ,-34, ,
1, ,-34, ,
3, ,-34, ,
2, ,-34, ,
2, ,-34, ,
2, ,-34, ,
3, ,-34, ,
1, ,-33, ,
3, ,-34, ,
2, ,-34, ,
2, ,-34, ,
3, ,-34, ,
2, ,-34, ,
1, ,-33, ,
3, ,-34, ,
2, ,-34, ,
2, ,-34, ,
3, ,-34, ,
3, ,-34, ,
1, ,-33, ,
3, ,-33, ,
2, ,-34, ,
2, ,-34, ,
2, ,-34, ,
2, ,-33, ,
1, ,-33, ,
2, ,-33, ,
2, ,-34, ,
2, ,-34, ,
2, ,-34, ,
2, ,-34, ,
1, ,-33, ,
3, ,-33, ,
2, ,-34, ,
2, ,-33, ,
2, ,-34, ,
3, ,-34, ,
1, ,-34, ,
2, ,-34, ,
2, ,-34, ,
2, ,-33, ,
2, ,-33, ,
3, ,-34, ,
1, ,-33, ,
2, ,-33, ,
2, ,-34, ,
1, ,-33, ,
2, ,-33, ,
2, ,-33, ,
1, ,-33, ,
2, ,-34, ,
1, ,-33, ,
1, ,-33, ,
2, ,-33, ,
2, ,-34, ,
1, ,-33, ,
2, ,-33, ,
2, ,-34, ,
2, ,-33, ,
2, ,-34, ,
3, ,-34, ,
1, ,-33, ,
2, ,-33, ,
2, ,-34, ,
1, ,-33, ,
2, ,-33, ,
2, ,-34, ,
1, ,-33, ,
2, ,-33, ,
2, ,-33, ,
2, ,-33, ,
2, ,-34, ,
2, ,-34, ,
1, ,-33, ,
2, ,-33, ,
1, ,-34, ,
1, ,-33, ,
2, ,-33, ,
2, ,-34, ,
1, ,-33, ,
3, ,-33, ,
2, ,-33, ,
1, ,-33, ,
2, ,-33, ,
2, ,-34, ,
1, ,-33, ,
2, ,-33, ,
1, ,-34, ,
1, ,-33, ,
2, ,-33, ,
2, ,-34, ,
1, ,-33, ,
2, ,-33, ,
2, ,-34, ,
1, ,-33, ,
2, ,-33, ,
2, ,-34, ,
1, ,-33, ,
2, ,-33, ,
2, ,-33, ,
1, ,-33, ,
2, ,-33, ,
2, ,-33, ,
1, ,-33, ,
2, ,-33, ,
2, ,-34, ,
1, ,-33, ,
2, ,-34, ,
2, ,-33, ,
1, ,-33, ,
2, ,-33, ,
1, ,-34, ,
1, ,-33, ,
2, ,-33, ,
2, ,-33, ,
1, ,-33, ,
2, ,-33, ,
2, ,-33, ,
2, ,-33, ,
2, ,-33, ,
2, ,-34, ,
1, ,-33, ,
2, ,-33, ,
1, ,-34, ,
1, ,-33, ,
2, ,-33, ,
2, ,-34, ,
1, ,-33, ,
2, ,-33, ,
2, ,-33, ,
2, ,-33, ,
2, ,-33, ,
2, ,-33, ,
1, ,-33, ,
2, ,-33, ,
1, ,-33, ,
1, ,-33, ,
2, ,-33, ,
2, ,-34, ,
1, ,-33, ,
2, ,-33, ,
1, ,-33, ,
2, ,-33, ,
2, ,-33, ,
2, ,-33, ,
1, ,-34, ,
2, ,-33, ,
1, ,-33, ,
2, ,-33, ,
2, ,-34, ,
2, ,-33, ,
1, ,-33, ,
2, ,-33, ,
1, ,-34, ,
1, ,-34, ,
2, ,-33, ,
2, ,-33, ,
1, ,-34, ,
2, ,-33, ,
1, ,-33, ,
2, ,-33, ,
2, ,-33, ,
2, ,-33, ,
1, ,-33, ,
2, ,-33, ,
1, ,-34, ,
1, ,-33, ,
2, ,-33, ,
2, ,-34, ,
1, ,-34, ,
2, ,-33, ,
1, ,-33, ,
2, ,-33, ,
2, ,-33, ,
2, ,-34, ,
1, ,-33, ,
2, ,-33, ,
1, ,-34, ,
1, ,-33, ,
2, ,-33, ,
2, ,-34, ,
1, ,-33, ,
2, ,-33, ,
1, ,-34, ,
1, ,-33, ,
2, ,-33, ,
2, ,-34, ,
1, ,-33, ,
2, ,-33, ,
1, ,-34, ,
2, ,-33, ,
2, ,-33, ,
2, ,-34, ,
1, ,-33, ,
2, ,-33, ,
1, ,-33, ,
1, ,-33, ,
2, ,-33, ,
2, ,-34, ,
1, ,-33, ,
2, ,-33, ,
1, ,-34, ,
1, ,-33, ,
2, ,-34, ,
2, ,-34, ,
1, ,-34, ,
2, ,-33, ,
1, ,-34, ,
1, ,-33, ,
2, ,-33, ,
2, ,-34, ,
1, ,-33, ,
2, ,-33, ,
1, ,-33, ,
1, ,-33, ,
2, ,-33, ,
1, ,-34, ,
-1, ,-33, ,
1, ,-33, ,
1, ,-33, ,
1, ,-33, ,
2, ,-33, ,
2, ,-34, ,
1, ,-33, ,
2, ,-33, ,
1, ,-34, ,
1, ,-33, ,
2, ,-33, ,
1, ,-33, ,
1, ,-33, ,
2, ,-33, ,
1, ,-34, ,
1, ,-33, ,
2, ,-33, ,
2, ,-33, ,
1, ,-33, ,
2, ,-33, ,
1, ,-34, ,
1, ,-33, ,
2, ,-33, ,
1, ,-33, ,
1, ,-33, ,
2, ,-33, ,
1, ,-33, ,
1, ,-33, ,
2, ,-33, ,
2, ,-33, ,
1, ,-33, ,
2, ,-33, ,
1, ,-34, ,
1, ,-33, ,
2, ,-33, ,
2, ,-33, ,
1, ,-33, ,
2, ,-33, ,
1, ,-34, ,
1, ,-33, ,
2, ,-33, ,
1, ,-34, ,
-1, ,-33, ,
2, ,-33, ,
1, ,-33, ,
1, ,-33, ,
2, ,-33, ,
2, ,-33, ,
1, ,-33, ,
2, ,-33, ,
1, ,-33, ,
1, ,-34, ,
2, ,-33, ,
2, ,-33, ,
1, ,-33, ,
2, ,-33, ,
1, ,-34, ,
1, ,-33, ,
2, ,-34, ,
2, ,-34, ,
1, ,-33, ,
2, ,-33, ,
1, ,-33, ,
1, ,-33, ,
2, ,-33, ,
2, ,-34, ,
8, ,-33, ,
48, ,-33, ,
31, ,-34, ,
20, ,-33, ,
13, ,-33, ,
10, ,-33, ,
6, ,-33, ,
5, ,-33, ,
3, ,-33, ,
2, ,-33, ,
3, ,-33, ,
2, ,-33, ,
2, ,-33, ,
3, ,-33, ,
2, ,-34, ,
2, ,-33, ,
3, ,-34, ,
3, ,-33, ,
2, ,-33, ,
3, ,-33, ,
2, ,-33, ,
2, ,-33, ,
3, ,-33, ,
3, ,-33, ,
2, ,-33, ,
3, ,-33, ,
2, ,-33, ,
2, ,-33, ,
2, ,-33, ,
2, ,-33, ,
1, ,-33, ,
3, ,-33, ,
2, ,-33, ,
2, ,-33, ,
2, ,-33, ,
3, ,-33, ,
2, ,-33, ,
3, ,-33, ,
2, ,-33, ,
2, ,-33, ,
2, ,-33, ,
3, ,-34, ,
2, ,-33, ,
3, ,-33, ,
2, ,-33, ,
2, ,-33, ,
2, ,-33, ,
3, ,-34, ,
1, ,-33, ,
3, ,-33, ,
2, ,-33, ,
2, ,-33, ,
2, ,-33, ,
3, ,-34, ,
2, ,-33, ,
3, ,-33, ,
2, ,-33, ,
2, ,-33, ,
2, ,-33, ,
3, ,-34, ,
1, ,-33, ,
3, ,-33, ,
1, ,-34, ,
1, ,-33, ,
2, ,-33, ,
3, ,-33, ,
1, ,-33, ,
2, ,-33, ,
2, ,-33, ,
2, ,-33, ,
2, ,-33, ,
3, ,-33, ,
1, ,-33, ,
3, ,-33, ,
2, ,-33, ,
1, ,-33, ,
2, ,-33, ,
2, ,-34, ,
1, ,-33, ,
2, ,-33, ,
2, ,-33, ,
2, ,-33, ,
2, ,-33, ,
2, ,-33, ,
1, ,-33, ,
2, ,-33, ,
2, ,-34, ,
1, ,-33, ,
2, ,-33, ,
2, ,-33, ,
1, ,-33, ,
2, ,-33, ,
2, ,-33, ,
2, ,-33, ,
2, ,-33, ,
2, ,-33, ,
1, ,-33, ,
2, ,-33, ,
1, ,-34, ,
1, ,-33, ,
2, ,-33, ,
2, ,-33, ,
1, ,-33, ,
2, ,-33, ,
1, ,-33, ,
2, ,-33, ,
2, ,-33, ,
2, ,-34, ,
1, ,-33, ,
2, ,-33, ,
2, ,-33, ,
2, ,-33, ,
2, ,-33, ,
3, ,-34, ,
1, ,-33, ,
2, ,-33, ,
1, ,-33, ,
1, ,-33, ,
2, ,-33, ,
2, ,-33, ,
1, ,-33, ,
2, ,-33, ,
2, ,-34, ,
2, ,-34, ,
2, ,-33, ,
2, ,-34, ,
1, ,-33, ,
2, ,-33, ,
1, ,-34, ,
2, ,-33, ,
2, ,-33, ,
2, ,-34, ,
1, ,-33, ,
2, ,-33, ,
2, ,-34, ,
2, ,-33, ,
2, ,-34, ,
3, ,-33, ,
1, ,-33, ,
2, ,-33, ,
1, ,-33, ,
2, ,-33, ,
2, ,-33, ,
2, ,-34, ,
1, ,-33, ,
2, ,-33, ,
2, ,-33, ,
2, ,-33, ,
2, ,-33, ,
3, ,-33, ,
1, ,-33, ,
2, ,-33, ,
1, ,-33, ,
2, ,-33, ,
2, ,-33, ,
2, ,-34, ,
1, ,-33, ,
2, ,-33, ,
2, ,-33, ,
2, ,-33, ,
2, ,-33, ,
2, ,-34, ,
1, ,-33, ,
2, ,-33, ,
1, ,-33, ,
1, ,-33, ,
2, ,-33, ,
2, ,-33, ,
1, ,-33, ,
2, ,-33, ,
1, ,-33, ,
2, ,-33, ,
2, ,-33, ,
2, ,-33, ,
1, ,-34, ,
2, ,-33, ,
1, ,-33, ,
2, ,-33, ,
2, ,-33, ,
2, ,-34, ,
1, ,-33, ,
2, ,-33, ,
1, ,-34, ,
1, ,-33, ,
2, ,-33, ,
2, ,-34, ,
1, ,-33, ,
2, ,-33, ,
1, ,-34, ,
2, ,-33, ,
2, ,-33, ,
2, ,-33, ,
1, ,-33, ,
2, ,-33, ,
1, ,-34, ,
1, ,-33, ,
2, ,-33, ,
2, ,-34, ,
1, ,-33, ,
2, ,-33, ,
1, ,-33, ,
1, ,-33, ,
2, ,-33, ,
2, ,-34, ,
1, ,-33, ,
2, ,-33, ,
1, ,-33, ,
1, ,-33, ,
1, ,-33, ,
2, ,-34, ,
1, ,-33, ,
2, ,-33, ,
1, ,-33, ,
1, ,-33, ,
2, ,-34, ,
1, ,-33, ,
1, ,-33, ,
2, ,-33, ,
1, ,-33, ,
1, ,-33, ,
2, ,-33, ,
2, ,-33, ,
1, ,-33, ,
2, ,-33, ,
1, ,-34, ,
1, ,-33, ,
2, ,-34, ,
2, ,-33, ,
-1, ,-33, ,
2, ,-33, ,
1, ,-33, ,
1, ,-33, ,
2, ,-33, ,
2, ,-33, ,
1, ,-33, ,
2, ,-33, ,
1, ,-33, ,
1, ,-33, ,
2, ,-33, ,
2, ,-34, ,
1, ,-33, ,
2, ,-33, ,
1, ,-33, ,
1, ,-33, ,
2, ,-33, ,
1, ,-34, ,
1, ,-33, ,
1, ,-33, ,
1, ,-33, ,
1, ,-33, ,
2, ,-34, ,
2, ,-34, ,
1, ,-33, ,
2, ,-33, ,
1, ,-33, ,
1, ,-33, ,
2, ,-33, ,
2, ,-34, ,
1, ,-33, ,
2, ,-33, ,
1, ,-34, ,
1, ,-33, ,
2, ,-33, ,
2, ,-33, ,
1, ,-33, ,
2, ,-33, ,
1, ,-34, ,
1, ,-33, ,
2, ,-33, ,
2, ,-34, ,
1, ,-33, ,
2, ,-33, ,
1, ,-33, ,
2, ,-33, ,
2, ,-33, ,
2, ,-34, ,
1, ,-33, ,
2, ,-33, ,
1, ,-34, ,
1, ,-33, ,
1, ,-34, ,
2, ,-33, ,
1, ,-33, ,
2, ,-33, ,
1, ,-33, ,
1, ,-33, ,
2, ,-34, ,
2, ,-34, ,
1, ,-33, ,
2, ,-33, ,
1, ,-33, ,
1, ,-33, ,
2, ,-33, ,
2, ,-33, ,
1, ,-33, ,
2, ,-33, ,
1, ,-33, ,
1, ,-33, ,
2, ,-33, ,
2, ,-34, ,
1, ,-33, ,
2, ,-33, ,
1, ,-33, ,
1, ,-33, ,
2, ,-34, ,
2, ,-34, ,
1, ,-33, ,
2, ,-33, ,
1, ,-34, ,
1, ,-33, ,
2, ,-34, ,
2, ,-33, ,
1, ,-33, ,
2, ,-33, ,
1, ,-33, ,
1, ,-33, ,
2, ,-33, ,
2, ,-34, ,
1, ,-33, ,
2, ,-33, ,
1, ,-34, ,
1, ,-33, ,
2, ,-33, ,
2, ,-21, ,
1, ,-1, ,
2, ,15, ,
1, ,26, ,
1, ,35, ,
2, ,41, ,
2, ,46, ,
-1, ,49, ,
2, ,53, ,
1, ,56, ,
1, ,56, ,
2, ,57, ,
1, ,59, ,
1, ,58, ,
2, ,59, ,
1, ,60, ,
1, ,59, ,
2, ,60, ,
1, ,61, ,
1, ,59, ,
2, ,60, ,
1, ,61, ,
1, ,60, ,
2, ,60, ,
1, ,61, ,
-1, ,59, ,
2, ,60, ,
1, ,61, ,
1, ,60, ,
2, ,60, ,
1, ,61, ,
-1, ,59, ,
2, ,60, ,
1, ,61, ,
1, ,59, ,
1, ,60, ,
1, ,61, ,
-1, ,59, ,
2, ,60, ,
1, ,60, ,
1, ,59, ,
2, ,60, ,
1, ,61, ,
1, ,59, ,
2, ,60, ,
55, ,61, ,
36, ,59, ,
22, ,59, ,
15, ,61, ,
8, ,59, ,
8, ,60, ,
6, ,60, ,
3, ,59, ,
5, ,60, ,
3, ,61, ,
2, ,59, ,
3, ,60, ,
2, ,61, ,
2, ,59, ,
3, ,59, ,
2, ,60, ,
2, ,58, ,
3, ,60, ,
2, ,60, ,
2, ,59, ,
3, ,60, ,
2, ,60, ,
1, ,59, ,
3, ,60, ,
2, ,61, ,
2, ,59, ,
3, ,60, ,
2, ,61, ,
1, ,59, ,
3, ,60, ,
2, ,60, ,
1, ,60, ,
3, ,59, ,
2, ,61, ,
1, ,59, ,
3, ,60, ,
2, ,61, ,
2, ,59, ,
3, ,59, ,
2, ,60, ,
1, ,58, ,
3, ,59, ,
2, ,60, ,
2, ,59, ,
3, ,60, ,
3, ,61, ,
1, ,59, ,
3, ,60, ,
2, ,61, ,
2, ,59, ,
3, ,59, ,
2, ,60, ,
1, ,58, ,
3, ,60, ,
2, ,60, ,
2, ,59, ,
3, ,59, ,
2, ,60, ,
1, ,58, ,
3, ,60, ,
2, ,60, ,
1, ,59, ,
2, ,59, ,
2, ,60, ,
1, ,58, ,
3, ,60, ,
2, ,60, ,
1, ,59, ,
2, ,59, ,
2, ,60, ,
1, ,58, ,
3, ,60, ,
1, ,60, ,
2, ,59, ,
2, ,59, ,
2, ,60, ,
1, ,58, ,
3, ,60, ,
2, ,60, ,
2, ,59, ,
3, ,59, ,
2, ,60, ,
1, ,59, ,
3, ,60, ,
1, ,60, ,
1, ,59, ,
2, ,59, ,
2, ,60, ,
1, ,58, ,
2, ,60, ,
1, ,60, ,
2, ,59, ,
2, ,59, ,
2, ,60, ,
1, ,58, ,
2, ,60, ,
1, ,60, ,
1, ,59, ,
2, ,59, ,
2, ,60, ,
1, ,58, ,
2, ,60, ,
1, ,60, ,
1, ,59, ,
3, ,59, ,
2, ,60, ,
18, ,58, ,
18, ,59, ,
12, ,60, ,
8, ,55, ,
7, ,37, ,
5, ,19, ,
2, ,5, ,
3, ,-4, ,
2, ,-13, ,
1, ,-18, ,
3, ,-22, ,
2, ,-25, ,
1, ,-27, ,
3, ,-28, ,
2, ,-31, ,
2, ,-32, ,
3, ,-32, ,
3, ,-33, ,
1, ,-33, ,
3, ,-33, ,
2, ,-34, ,
2, ,-34, ,
2, ,-34, ,
3, ,-34, ,
2, ,-34, ,
2, ,-34, ,
2, ,-34, ,
2, ,-34, ,
3, ,-34, ,
3, ,-34, ,
1, ,-34, ,
3, ,-34, ,
2, ,-34, ,
2, ,-34, ,
3, ,-34, ,
3, ,-34, ,
2, ,-33, ,
3, ,-34, ,
2, ,-34, ,
2, ,-34, ,
3, ,-33, ,
2, ,-34, ,
2, ,-33, ,
3, ,-33, ,
2, ,-34, ,
2, ,-34, ,
2, ,-34, ,
2, ,-34, ,
2, ,-34, ,
3, ,-33, ,
2, ,-34, ,
2, ,-33, ,
2, ,-33, ,
3, ,-34, ,
1, ,-33, ,
3, ,-34, ,
2, ,-34, ,
2, ,-34, ,
2, ,-33, ,
2, ,-33, ,
2, ,-34, ,
3, ,-33, ,
2, ,-34, ,
2, ,-34, ,
2, ,-34, ,
3, ,-34, ,
1, ,-33, ,
3, ,-33, ,
2, ,-34, ,
1, ,-34, ,
2, ,-34, ,
2, ,-34, ,
1, ,-33, ,
3, ,-33, ,
2, ,-33, ,
2, ,-33, ,
2, ,-34, ,
2, ,-34, ,
1, ,-33, ,
3, ,-33, ,
2, ,-34, ,
2, ,-34, ,
2, ,-34, ,
3, ,-34, ,
1, ,-33, ,
2, ,-34, ,
2, ,-34, ,
2, ,-33, ,
2, ,-33, ,
2, ,-34, ,
1, ,-33, ,
3, ,-33, ,
2, ,-33, ,
2, ,-33, ,
2, ,-34, ,
3, ,-34, ,
1, ,-33, ,
2, ,-33, ,
2, ,-34, ,
1, ,-33, ,
2, ,-33, ,
2, ,-34, ,
1, ,-33, ,
2, ,-33, ,
2, ,-33, ,
2, ,-34, ,
2, ,-33, ,
3, ,-34, ,
1, ,-33, ,
2, ,-33, ,
1, ,-33, ,
1, ,-33, ,
2, ,-34, ,
2, ,-33, ,
1, ,-32, ,
2, ,-33, ,
2, ,-33, ,
2, ,-33, ,
2, ,-33, ,
2, ,-34, ,
1, ,-33, ,
2, ,-33, ,
1, ,-34, ,
1, ,-33, ,
2, ,-33, ,
2, ,-34, ,
1, ,-33, ,
2, ,-33, ,
2, ,-34, ,
2, ,-33, ,
2, ,-33, ,
2, ,-33, ,
1, ,-33, ,
2, ,-33, ,
1, ,-34, ,
1, ,-33, ,
2, ,-33, ,
2, ,-33, ,
1, ,-33, ,
2, ,-33, ,
2, ,-33, ,
1, ,-33, ,
2, ,-33, ,
2, ,-34, ,
1, ,-33, ,
3, ,-33, ,
2, ,-33, ,
1, ,-33, ,
2, ,-33, ,
2, ,-33, ,
1, ,-33, ,
2, ,-33, ,
1, ,-33, ,
1, ,-33, ,
2, ,-33, ,
2, ,-33, ,
1, ,-33, ,
2, ,-33, ,
2, ,-33, ,
1, ,-33, ,
2, ,-33, ,
2, ,-33, ,
1, ,-33, ,
2, ,-33, ,
2, ,-34, ,
1, ,-33, ,
2, ,-33, ,
3, ,-33, ,
1, ,-33, ,
2, ,-33, ,
2, ,-33, ,
1, ,-33, ,
2, ,-33, ,
2, ,-34, ,
1, ,-33, ,
2, ,-33, ,
1, ,-33, ,
1, ,-33, ,
2, ,-33, ,
2, ,-33, ,
1, ,-33, ,
2, ,-33, ,
2, ,-33, ,
2, ,-33, ,
2, ,-33, ,
2, ,-33, ,
1, ,-33, ,
2, ,-33, ,
1, ,-33, ,
1, ,-33, ,
2, ,-33, ,
2, ,-33, ,
1, ,-33, ,
2, ,-33, ,
1, ,-34, ,
1, ,-33, ,
2, ,-33, ,
2, ,-34, ,
1, ,-33, ,
3, ,-33, ,
2, ,-33, ,
2, ,-33, ,
2, ,-33, ,
2, ,-33, ,
1, ,-33, ,
2, ,-33, ,
1, ,-33, ,
1, ,-33, ,
2, ,-33, ,
2, ,-33, ,
1, ,-33, ,
2, ,-33, ,
1, ,-33, ,
1, ,-33, ,
2, ,-33, ,
2, ,-33, ,
1, ,-33, ,
2, ,-33, ,
1, ,-33, ,
1, ,-33, ,
2, ,-33, ,
2, ,-33, ,
1, ,-33, ,
2, ,-33, ,
2, ,-34, ,
1, ,-33, ,
2, ,-33, ,
2, ,-33, ,
1, ,-33, ,
2, ,-33, ,
1, ,-33, ,
1, ,-33, ,
2, ,-33, ,
2, ,-33, ,
1, ,-33, ,
2, ,-33, ,
1, ,-33, ,
1, ,-33, ,
2, ,-33, ,
2, ,-34, ,
1, ,-33, ,
2, ,-33, ,
1, ,-33, ,
1, ,-33, ,
2, ,-33, ,
2, ,-34, ,
-1, ,-33, ,
2, ,-33, ,
1, ,-33, ,
1, ,-33, ,
2, ,-33, ,
2, ,-33, ,
1, ,-33, ,
2, ,-33, ,
1, ,-34, ,
1, ,-33, ,
2, ,-33, ,
2, ,-34, ,
1, ,-33, ,
2, ,-33, ,
1, ,-34, ,
1, ,-33, ,
2, ,-33, ,
2, ,-34, ,
1, ,-33, ,
2, ,-33, ,
1, ,-33, ,
2, ,-33, ,
2, ,-33, ,
2, ,-34, ,
1, ,-33, ,
2, ,-33, ,
1, ,-33, ,
1, ,-33, ,
2, ,-33, ,
2, ,-33, ,
1, ,-33, ,
2, ,-33, ,
1, ,-33, ,
1, ,-33, ,
2, ,-33, ,
1, ,-34, ,
1, ,-33, ,
2, ,-33, ,
1, ,-33, ,
1, ,-33, ,
2, ,-33, ,
2, ,-34, ,
1, ,-33, ,
2, ,-33, ,
1, ,-33, ,
1, ,-33, ,
2, ,-33, ,
1, ,-34, ,
1, ,-33, ,
2, ,-33, ,
1, ,-33, ,
1, ,-33, ,
2, ,-33, ,
1, ,-33, ,
1, ,-33, ,
2, ,-33, ,
1, ,-33, ,
1, ,-33, ,
2, ,-33, ,
2, ,-34, ,
1, ,-33, ,
2, ,-33, ,
1, ,-34, ,
1, ,-34, ,
2, ,-33, ,
2, ,-34, ,
1, ,-33, ,
2, ,-33, ,
1, ,-34, ,
1, ,-33, ,
2, ,-33, ,
2, ,-34, ,
1, ,-33, ,
2, ,-33, ,
1, ,-34, ,
1, ,-33, ,
2, ,-34, ,
2, ,-33, ,
1, ,-33, ,
2, ,-33, ,
1, ,-33, ,
1, ,-33, ,
2, ,-33, ,
1, ,-34, ,
1, ,-33, ,
2, ,-33, ,
1, ,-34, ,
1, ,-33, ,
2, ,-33, ,
2, ,-33, ,
1, ,-33, ,
2, ,-33, ,
1, ,-33, ,
1, ,-33, ,
2, ,-33, ,
2, ,-33, ,
1, ,-33, ,
2, ,-33, ,
1, ,-33, ,
1, ,-33, ,
2, ,-33, ,
2, ,-34, ,
1, ,-33, ,
2, ,-33, ,
1, ,-33, ,
1, ,-33, ,
2, ,-33, ,
2, ,-34, ,
-1, ,-33, ,
2, ,-33, ,
1, ,-33, ,
1, ,-33, ,
2, ,-33, ,
1, ,-34, ,
1, ,-33, ,
2, ,-33, ,
1, ,-33, ,
1, ,-33, ,
2, ,-33, ,
1, ,-34, ,
-1, ,-33, ,
2, ,-33, ,
1, ,-34, ,
1, ,-33, ,
2, ,-34, ,
1, ,-34, ,
-1, ,-34, ,
2, ,-33, ,
1, ,-33, ,
1, ,-33, ,
2, ,-33, ,
1, ,-34, ,
-1, ,-33, ,
2, ,-33, ,
1, ,-34, ,
1, ,-33, ,
2, ,-33, ,
1, ,-34, ,
-1, ,-33, ,
2, ,-33, ,
1, ,-33, ,
1, ,-33, ,
2, ,-33, ,
1, ,-34, ,
-1, ,-33, ,
2, ,-33, ,
1, ,-33, ,
1, ,-33, ,
1, ,-34, ,
1, ,-34, ,
-1, ,-33, ,
2, ,-33, ,
1, ,-33, ,
2, ,-33, ,
1, ,-33, ,
2, ,-34, ,
-1, ,-33, ,
2, ,-33, ,
1, ,-34, ,
1, ,-33, ,
2, ,-33, ,
2, ,-33, ,
-1, ,-33, ,
2, ,-33, ,
1, ,-33, ,
1, ,-33, ,
2, ,-33, ,
1, ,-34, ,
-1, ,-33, ,
2, ,-33, ,
1, ,-33, ,
1, ,-34, ,
2, ,-34, ,
1, ,-33, ,
-1, ,-33, ,
2, ,-33, ,
1, ,-33, ,
1, ,-33, ,
2, ,-33, ,
2, ,-33, ,
-1, ,-33, ,
2, ,-33, ,
1, ,-33, ,
1, ,-33, ,
1, ,-33, ,
1, ,-34, ,
1, ,-33, ,
2, ,-33, ,
1, ,-33, ,
1, ,-33, ,
2, ,-33, ,
2, ,-34, ,
1, ,-33, ,
2, ,-33, ,
1, ,-33, ,
1, ,-33, ,
1, ,-33, ,
1, ,-33, ,
-1, ,-33, ,
2, ,-33, ,
1, ,-33, ,
1, ,-33, ,
2, ,-34, ,
1, ,-33, ,
-1, ,-33, ,
2, ,-33, ,
1, ,-33, ,
1, ,-33, ,
2, ,-34, ,
1, ,-34, ,
-1, ,-33, ,
2, ,-33, ,
1, ,-33, ,
1, ,-33, ,
2, ,-33, ,
2, ,-34, ,
1, ,-33, ,
2, ,-33, ,
1, ,-34, ,
1, ,-33, ,
2, ,-34, ,
1, ,-33, ,
-1, ,-33, ,
2, ,-33, ,
1, ,-33, ,
1, ,-33, ,
1, ,-33, ,
1, ,-34, ,
1, ,-33, ,
2, ,-33, ,
1, ,-33, ,
1, ,-33, ,
1, ,-33, ,
1, ,-34, ,
-1, ,-34, ,
2, ,-33, ,
1, ,-34, ,
1, ,-33, ,
2, ,-33, ,
2, ,-34, ,
-1, ,-33, ,
2, ,-33, ,
1, ,-33, ,
1, ,-33, ,
1, ,-33, ,
1, ,-34, ,
-1, ,-33, ,
2, ,-33, ,
1, ,-34, ,
1, ,-33, ,
1, ,-33, ,
1, ,-34, ,
-1, ,-33, ,
2, ,-33, ,
