src/varyamp_1558/temp0002738.CSV

Format,1.0B,
Memory Length,10000,Memory Length,10000,
IntpDistance,0,IntpDistance,0,
Trigger Address,4999,Trigger Address,4999,
Trigger Level,1.040E+00,Trigger Level,1.040E+00,
Source,CH1,Source,CH2,
Vertical Units,V,Vertical Units,V,
Vertical Units Div,0,Vertical Units Div,0,
Vertical Units Extend Div,16,Vertical Units Extend Div,16,
Label,,Label,,
Probe Type,0,Probe Type,0,
Probe Ratio,1.000e+01,Probe Ratio,1.000e+00,
Vertical Scale,5.000e-01,Vertical Scale,1.000e+00,
Vertical Position,-1.820e+00,Vertical Position,0.000e+00,
Horizontal Units,S,Horizontal Units,S,
Horizontal Scale,2.000E-05,Horizontal Scale,2.000E-05,
Horizontal Position,0.000E+00,Horizontal Position,0.000E+00,
Horizontal Mode,Main,Horizontal Mode,Main,
SincET Mode,Real Time,SincET Mode,Real Time,
Sampling Period,2.000e-08,Sampling Period,2.000e-08,
Horizontal Old Scale,2.000E-05,Horizontal Old Scale,2.000E-05,
Horizontal Old Position,0.000E+00,Horizontal Old Position,0.000E+00,
Firmware,V1.23,Firmware,V1.23,
Mode,Fast,Mode,Fast,
Waveform Data,,Waveform Data,,
1, ,-32, ,
2, ,-32, ,
2, ,-32, ,
1, ,-32, ,
2, ,-32, ,
1, ,-32, ,
2, ,-33, ,
2, ,-32, ,
2, ,-32, ,
1, ,-32, ,
2, ,-32, ,
1, ,-32, ,
1, ,-32, ,
2, ,-32, ,
2, ,-32, ,
1, ,-32, ,
2, ,-32, ,
1, ,-32, ,
1, ,-33, ,
2, ,-32, ,
2, ,-32, ,
1, ,-32, ,
2, ,-32, ,
1, ,-32, ,
1, ,-32, ,
2, ,-33, ,
2, ,-32, ,
-1, ,-32, ,
2, ,-32, ,
1, ,-32, ,
1, ,-32, ,
2, ,-32, ,
1, ,-32, ,
1, ,-32, ,
2, ,-32, ,
1, ,-32, ,
1, ,-32, ,
2, ,-32, ,
1, ,-32, ,
1, ,-32, ,
2, ,-32, ,
1, ,-32, ,
1, ,-33, ,
2, ,-32, ,
1, ,-32, ,
1, ,-32, ,
2, ,-32, ,
1, ,-32, ,
1, ,-32, ,
1, ,-32, ,
1, ,-32, ,
1, ,-32, ,
2, ,-32, ,
1, ,-32, ,
1, ,-33, ,
2, ,-32, ,
2, ,-32, ,
-1, ,-32, ,
2, ,-32, ,
1, ,-32, ,
1, ,-33, ,
2, ,-33, ,
2, ,-32, ,
-1, ,-32, ,
2, ,-32, ,
1, ,-32, ,
1, ,-32, ,
2, ,-32, ,
1, ,-32, ,
-1, ,-32, ,
1, ,-32, ,
1, ,-32, ,
1, ,-32, ,
1, ,-32, ,
1, ,-32, ,
1, ,-32, ,
2, ,-32, ,
1, ,-32, ,
1, ,-33, ,
2, ,-32, ,
1, ,-32, ,
-1, ,-33, ,
2, ,-32, ,
1, ,-32, ,
1, ,-32, ,
1, ,-33, ,
1, ,-33, ,
1, ,-32, ,
1, ,-32, ,
1, ,-32, ,
1, ,-33, ,
2, ,-32, ,
1, ,-32, ,
-1, ,-32, ,
2, ,-32, ,
1, ,-32, ,
1, ,-32, ,
2, ,-32, ,
1, ,-32, ,
1, ,-32, ,
2, ,-32, ,
1, ,-32, ,
1, ,-32, ,
2, ,-33, ,
1, ,-32, ,
1, ,-32, ,
2, ,-32, ,
1, ,-32, ,
1, ,-32, ,
2, ,-32, ,
1, ,-33, ,
-1, ,-32, ,
2, ,-32, ,
1, ,-32, ,
1, ,-33, ,
2, ,-32, ,
1, ,-32, ,
-1, ,-32, ,
2, ,-32, ,
1, ,-32, ,
1, ,-32, ,
2, ,-32, ,
1, ,-32, ,
1, ,-32, ,
2, ,-32, ,
1, ,-32, ,
1, ,-33, ,
2, ,-32, ,
1, ,-32, ,
-1, ,-32, ,
2, ,-32, ,
1, ,-32, ,
1, ,-32, ,
2, ,-33, ,
1, ,-32, ,
-1, ,-32, ,
2, ,-32, ,
1, ,-32, ,
1, ,-32, ,
2, ,-32, ,
1, ,-32, ,
1, ,-32, ,
1, ,-32, ,
1, ,-33, ,
1, ,-32, ,
2, ,-33, ,
1, ,-32, ,
-1, ,-32, ,
2, ,-32, ,
1, ,-32, ,
1, ,-32, ,
2, ,-32, ,
2, ,-32, ,
-1, ,-32, ,
1, ,-32, ,
1, ,-32, ,
1, ,-32, ,
2, ,-32, ,
1, ,-33, ,
1, ,-32, ,
2, ,-32, ,
1, ,-32, ,
1, ,-33, ,
2, ,-32, ,
1, ,-33, ,
-1, ,-33, ,
2, ,-32, ,
1, ,-32, ,
1, ,-32, ,
1, ,-33, ,
1, ,-32, ,
-1, ,-32, ,
1, ,-32, ,
1, ,-32, ,
1, ,-32, ,
2, ,-33, ,
1, ,-32, ,
-1, ,-33, ,
1, ,-32, ,
1, ,-32, ,
1, ,-32, ,
1, ,-33, ,
1, ,-32, ,
-1, ,-32, ,
1, ,-32, ,
1, ,-32, ,
1, ,-33, ,
1, ,-32, ,
1, ,-32, ,
-1, ,-32, ,
1, ,-32, ,
1, ,-32, ,
1, ,-32, ,
1, ,-32, ,
2, ,-32, ,
-1, ,-32, ,
1, ,-32, ,
1, ,-32, ,
1, ,-33, ,
1, ,-33, ,
1, ,-32, ,
-1, ,-33, ,
1, ,-32, ,
1, ,-32, ,
1, ,-32, ,
1, ,-33, ,
1, ,-33, ,
-1, ,-32, ,
1, ,-32, ,
1, ,-32, ,
1, ,-33, ,
1, ,-32, ,
1, ,-32, ,
-1, ,-32, ,
1, ,-32, ,
1, ,-33, ,
1, ,-32, ,
2, ,-33, ,
1, ,-32, ,
-1, ,-32, ,
1, ,-32, ,
1, ,-32, ,
1, ,-33, ,
1, ,-32, ,
1, ,-32, ,
-1, ,-33, ,
1, ,-32, ,
1, ,-32, ,
1, ,-32, ,
1, ,-33, ,
1, ,-32, ,
1, ,-32, ,
1, ,-32, ,
1, ,-32, ,
1, ,-32, ,
2, ,-32, ,
1, ,-32, ,
-1, ,-32, ,
2, ,-32, ,
1, ,-32, ,
1, ,-33, ,
1, ,-33, ,
1, ,-32, ,
-1, ,-32, ,
1, ,-32, ,
1, ,-32, ,
1, ,-33, ,
1, ,-33, ,
1, ,-32, ,
-1, ,-32, ,
1, ,-32, ,
1, ,-32, ,
1, ,-32, ,
1, ,-33, ,
1, ,-32, ,
-1, ,-32, ,
1, ,-32, ,
1, ,-32, ,
1, ,-33, ,
1, ,-32, ,
1, ,-32, ,
-1, ,-33, ,
1, ,-32, ,
1, ,-32, ,
1, ,-32, ,
1, ,-32, ,
1, ,-33, ,
-1, ,-32, ,
1, ,-32, ,
1, ,-32, ,
1, ,-33, ,
1, ,-32, ,
1, ,-32, ,
-1, ,-33, ,
1, ,-32, ,
1, ,-33, ,
1, ,-32, ,
1, ,-33, ,
1, ,-32, ,
-1, ,-32, ,
1, ,-32, ,
1, ,-32, ,
1, ,-32, ,
1, ,-32, ,
1, ,-32, ,
-1, ,-33, ,
2, ,-32, ,
1, ,-32, ,
1, ,-32, ,
1, ,-33, ,
1, ,-32, ,
-1, ,-32, ,
1, ,-32, ,
1, ,-32, ,
1, ,-33, ,
1, ,-33, ,
1, ,-32, ,
-1, ,-33, ,
1, ,-32, ,
1, ,-33, ,
1, ,-32, ,
1, ,-33, ,
1, ,-32, ,
-1, ,-32, ,
1, ,-32, ,
1, ,-32, ,
1, ,-33, ,
1, ,-32, ,
1, ,-21, ,
-1, ,-2, ,
2, ,14, ,
1, ,26, ,
1, ,35, ,
1, ,42, ,
1, ,46, ,
-1, ,51, ,
2, ,54, ,
-1, ,56, ,
-1, ,57, ,
2, ,58, ,
1, ,59, ,
-1, ,60, ,
2, ,60, ,
1, ,61, ,
-1, ,61, ,
1, ,61, ,
1, ,61, ,
-1, ,61, ,
2, ,61, ,
-1, ,62, ,
-1, ,61, ,
1, ,61, ,
1, ,61, ,
-1, ,61, ,
2, ,61, ,
-1, ,61, ,
-1, ,60, ,
1, ,61, ,
1, ,61, ,
-1, ,61, ,
2, ,61, ,
-1, ,62, ,
-1, ,61, ,
1, ,61, ,
1, ,61, ,
-1, ,61, ,
2, ,61, ,
-1, ,62, ,
-1, ,60, ,
7, ,61, ,
66, ,61, ,
41, ,60, ,
26, ,61, ,
16, ,61, ,
10, ,60, ,
8, ,61, ,
6, ,61, ,
5, ,61, ,
5, ,60, ,
2, ,61, ,
2, ,60, ,
3, ,61, ,
2, ,61, ,
1, ,61, ,
3, ,61, ,
2, ,61, ,
2, ,60, ,
3, ,61, ,
2, ,61, ,
2, ,61, ,
3, ,61, ,
2, ,61, ,
2, ,60, ,
3, ,61, ,
2, ,61, ,
2, ,61, ,
3, ,61, ,
2, ,61, ,
2, ,60, ,
3, ,61, ,
2, ,61, ,
5, ,61, ,
8, ,60, ,
6, ,61, ,
5, ,60, ,
5, ,61, ,
5, ,60, ,
3, ,61, ,
5, ,61, ,
2, ,61, ,
2, ,60, ,
2, ,61, ,
2, ,61, ,
2, ,61, ,
3, ,60, ,
2, ,61, ,
2, ,60, ,
3, ,61, ,
2, ,61, ,
2, ,61, ,
3, ,60, ,
2, ,61, ,
2, ,60, ,
3, ,60, ,
2, ,61, ,
1, ,61, ,
3, ,60, ,
2, ,61, ,
2, ,60, ,
3, ,61, ,
3, ,61, ,
3, ,61, ,
6, ,61, ,
6, ,61, ,
5, ,60, ,
6, ,60, ,
5, ,61, ,
2, ,61, ,
3, ,61, ,
2, ,61, ,
2, ,60, ,
3, ,61, ,
2, ,61, ,
2, ,61, ,
3, ,60, ,
2, ,61, ,
2, ,60, ,
3, ,61, ,
2, ,61, ,
2, ,61, ,
3, ,60, ,
2, ,61, ,
2, ,60, ,
2, ,61, ,
2, ,61, ,
1, ,61, ,
3, ,61, ,
2, ,61, ,
2, ,60, ,
2, ,61, ,
2, ,61, ,
1, ,61, ,
3, ,60, ,
2, ,61, ,
2, ,60, ,
2, ,61, ,
2, ,61, ,
1, ,61, ,
3, ,61, ,
2, ,61, ,
2, ,60, ,
3, ,60, ,
2, ,61, ,
1, ,60, ,
3, ,61, ,
2, ,61, ,
2, ,60, ,
2, ,60, ,
2, ,61, ,
1, ,61, ,
3, ,60, ,
1, ,61, ,
2, ,58, ,
2, ,40, ,
2, ,21, ,
1, ,7, ,
3, ,-2, ,
2, ,-11, ,
1, ,-16, ,
3, ,-20, ,
2, ,-23, ,
1, ,-25, ,
3, ,-27, ,
2, ,-30, ,
2, ,-31, ,
2, ,-31, ,
2, ,-32, ,
1, ,-32, ,
3, ,-32, ,
2, ,-33, ,
1, ,-33, ,
2, ,-33, ,
13, ,-33, ,
12, ,-33, ,
11, ,-33, ,
7, ,-33, ,
5, ,-33, ,
5, ,-33, ,
3, ,-33, ,
2, ,-33, ,
3, ,-33, ,
2, ,-33, ,
2, ,-33, ,
3, ,-33, ,
3, ,-33, ,
2, ,-33, ,
3, ,-33, ,
2, ,-33, ,
2, ,-33, ,
2, ,-33, ,
3, ,-32, ,
2, ,-33, ,
3, ,-32, ,
2, ,-33, ,
2, ,-32, ,
2, ,-33, ,
3, ,-33, ,
2, ,-33, ,
3, ,-33, ,
2, ,-32, ,
2, ,-33, ,
2, ,-33, ,
3, ,-32, ,
1, ,-33, ,
3, ,-32, ,
2, ,-33, ,
2, ,-33, ,
2, ,-32, ,
3, ,-32, ,
1, ,-32, ,
3, ,-32, ,
2, ,-32, ,
2, ,-33, ,
2, ,-32, ,
3, ,-33, ,
1, ,-33, ,
2, ,-32, ,
2, ,-33, ,
2, ,-32, ,
2, ,-32, ,
3, ,-32, ,
2, ,-33, ,
3, ,-33, ,
2, ,-32, ,
2, ,-33, ,
2, ,-32, ,
2, ,-32, ,
2, ,-33, ,
2, ,-32, ,
2, ,-32, ,
2, ,-32, ,
2, ,-32, ,
2, ,-32, ,
2, ,-33, ,
3, ,-32, ,
2, ,-32, ,
2, ,-32, ,
2, ,-32, ,
3, ,-32, ,
1, ,-32, ,
2, ,-32, ,
2, ,-32, ,
2, ,-32, ,
2, ,-33, ,
3, ,-32, ,
11, ,-32, ,
15, ,-32, ,
11, ,-32, ,
8, ,-33, ,
6, ,-32, ,
5, ,-32, ,
2, ,-32, ,
5, ,-32, ,
2, ,-32, ,
2, ,-32, ,
3, ,-33, ,
2, ,-33, ,
2, ,-32, ,
3, ,-32, ,
2, ,-32, ,
2, ,-33, ,
3, ,-32, ,
3, ,-32, ,
2, ,-32, ,
3, ,-32, ,
2, ,-32, ,
2, ,-32, ,
2, ,-32, ,
3, ,-32, ,
2, ,-32, ,
3, ,-32, ,
2, ,-32, ,
2, ,-32, ,
2, ,-32, ,
3, ,-32, ,
2, ,-33, ,
3, ,-32, ,
2, ,-32, ,
2, ,-32, ,
3, ,-32, ,
3, ,-32, ,
1, ,-32, ,
2, ,-32, ,
1, ,-32, ,
2, ,-32, ,
2, ,-32, ,
3, ,-32, ,
2, ,-32, ,
3, ,-32, ,
2, ,-32, ,
2, ,-32, ,
2, ,-33, ,
3, ,-33, ,
1, ,-32, ,
2, ,-32, ,
2, ,-33, ,
2, ,-32, ,
2, ,-32, ,
2, ,-32, ,
1, ,-32, ,
3, ,-32, ,
2, ,-32, ,
2, ,-32, ,
2, ,-32, ,
2, ,-32, ,
1, ,-32, ,
2, ,-32, ,
2, ,-32, ,
2, ,-32, ,
2, ,-32, ,
3, ,-32, ,
2, ,-32, ,
3, ,-32, ,
2, ,-33, ,
2, ,-32, ,
2, ,-32, ,
3, ,-32, ,
2, ,-32, ,
2, ,-32, ,
2, ,-32, ,
2, ,-32, ,
2, ,-32, ,
3, ,-32, ,
1, ,-32, ,
2, ,-32, ,
2, ,-32, ,
2, ,-32, ,
2, ,-32, ,
2, ,-32, ,
1, ,-32, ,
2, ,-32, ,
2, ,-32, ,
2, ,-33, ,
2, ,-32, ,
2, ,-32, ,
1, ,-32, ,
3, ,-32, ,
2, ,-32, ,
2, ,-32, ,
2, ,-32, ,
3, ,-32, ,
2, ,-32, ,
3, ,-32, ,
2, ,-32, ,
2, ,-32, ,
2, ,-32, ,
2, ,-32, ,
2, ,-32, ,
2, ,-33, ,
2, ,-32, ,
2, ,-32, ,
2, ,-32, ,
3, ,-32, ,
1, ,-32, ,
2, ,-32, ,
2, ,-32, ,
2, ,-32, ,
2, ,-32, ,
2, ,-32, ,
2, ,-32, ,
2, ,-32, ,
2, ,-32, ,
2, ,-32, ,
2, ,-32, ,
2, ,-32, ,
1, ,-32, ,
2, ,-32, ,
2, ,-32, ,
2, ,-32, ,
2, ,-32, ,
2, ,-32, ,
1, ,-32, ,
2, ,-32, ,
2, ,-32, ,
2, ,-32, ,
2, ,-32, ,
2, ,-32, ,
1, ,-32, ,
2, ,-32, ,
2, ,-32, ,
1, ,-32, ,
2, ,-32, ,
2, ,-32, ,
1, ,-32, ,
2, ,-32, ,
2, ,-32, ,
2, ,-32, ,
2, ,-32, ,
2, ,-32, ,
1, ,-32, ,
3, ,-32, ,
2, ,-32, ,
2, ,-32, ,
2, ,-32, ,
2, ,-32, ,
1, ,-32, ,
2, ,-32, ,
2, ,-32, ,
2, ,-32, ,
2, ,-32, ,
2, ,-32, ,
1, ,-32, ,
3, ,-32, ,
1, ,-32, ,
1, ,-32, ,
2, ,-32, ,
2, ,-32, ,
1, ,-32, ,
2, ,-32, ,
2, ,-32, ,
2, ,-32, ,
2, ,-32, ,
2, ,-32, ,
1, ,-32, ,
2, ,-32, ,
2, ,-32, ,
2, ,-32, ,
2, ,-32, ,
2, ,-32, ,
1, ,-32, ,
2, ,-32, ,
2, ,-32, ,
1, ,-32, ,
2, ,-32, ,
2, ,-32, ,
1, ,-32, ,
2, ,-32, ,
1, ,-32, ,
1, ,-32, ,
2, ,-32, ,
2, ,-32, ,
1, ,-32, ,
2, ,-32, ,
1, ,-33, ,
2, ,-32, ,
2, ,-33, ,
2, ,-32, ,
1, ,-32, ,
2, ,-32, ,
1, ,-32, ,
2, ,-33, ,
2, ,-32, ,
2, ,-32, ,
1, ,-32, ,
2, ,-32, ,
1, ,-32, ,
1, ,-32, ,
2, ,-32, ,
2, ,-32, ,
1, ,-32, ,
2, ,-32, ,
1, ,-32, ,
2, ,-32, ,
2, ,-32, ,
2, ,-32, ,
1, ,-32, ,
2, ,-32, ,
1, ,-32, ,
1, ,-32, ,
2, ,-32, ,
2, ,-32, ,
1, ,-32, ,
2, ,-32, ,
1, ,-32, ,
1, ,-32, ,
2, ,-32, ,
2, ,-32, ,
1, ,-32, ,
2, ,-32, ,
2, ,-32, ,
2, ,-32, ,
2, ,-33, ,
2, ,-32, ,
1, ,-32, ,
2, ,-32, ,
1, ,-32, ,
1, ,-32, ,
2, ,-32, ,
2, ,-32, ,
1, ,-32, ,
2, ,-32, ,
1, ,-32, ,
1, ,-32, ,
2, ,-32, ,
2, ,-32, ,
1, ,-32, ,
2, ,-32, ,
1, ,-32, ,
2, ,-32, ,
2, ,-32, ,
2, ,-32, ,
1, ,-32, ,
2, ,-32, ,
2, ,-32, ,
2, ,-32, ,
2, ,-33, ,
2, ,-32, ,
1, ,-32, ,
2, ,-32, ,
1, ,-32, ,
1, ,-32, ,
2, ,-32, ,
2, ,-32, ,
1, ,-32, ,
2, ,-32, ,
1, ,-32, ,
1, ,-32, ,
2, ,-33, ,
2, ,-32, ,
1, ,-32, ,
2, ,-32, ,
1, ,-32, ,
2, ,-32, ,
2, ,-33, ,
2, ,-32, ,
1, ,-32, ,
2, ,-32, ,
1, ,-32, ,
1, ,-32, ,
2, ,-32, ,
2, ,-32, ,
1, ,-32, ,
2, ,-32, ,
1, ,-32, ,
1, ,-32, ,
2, ,-32, ,
2, ,-32, ,
1, ,-32, ,
2, ,-32, ,
1, ,-32, ,
1, ,-32, ,
2, ,-32, ,
2, ,-32, ,
1, ,-32, ,
2, ,-32, ,
1, ,-32, ,
2, ,-33, ,
2, ,-33, ,
1, ,-32, ,
1, ,-32, ,
2, ,-32, ,
1, ,-32, ,
2, ,-32, ,
2, ,-33, ,
1, ,-32, ,
1, ,-32, ,
2, ,-32, ,
1, ,-32, ,
1, ,-33, ,
2, ,-32, ,
2, ,-32, ,
1, ,-32, ,
2, ,-32, ,
1, ,-32, ,
1, ,-32, ,
2, ,-32, ,
2, ,-32, ,
1, ,-32, ,
2, ,-32, ,
1, ,-32, ,
1, ,-32, ,
2, ,-32, ,
1, ,-32, ,
1, ,-32, ,
2, ,-32, ,
1, ,-32, ,
1, ,-33, ,
2, ,-32, ,
1, ,-33, ,
1, ,-32, ,
2, ,-32, ,
1, ,-32, ,
1, ,-32, ,
2, ,-32, ,
2, ,-32, ,
1, ,-32, ,
2, ,-32, ,
1, ,-32, ,
1, ,-32, ,
2, ,-33, ,
1, ,-32, ,
1, ,-32, ,
2, ,-32, ,
1, ,-32, ,
1, ,-32, ,
2, ,-32, ,
1, ,-32, ,
1, ,-32, ,
2, ,-32, ,
1, ,-32, ,
1, ,-32, ,
2, ,-33, ,
2, ,-32, ,
1, ,-32, ,
2, ,-32, ,
1, ,-32, ,
1, ,-33, ,
2, ,-32, ,
1, ,-32, ,
1, ,-32, ,
2, ,-32, ,
1, ,-32, ,
1, ,-32, ,
2, ,-33, ,
1, ,-32, ,
1, ,-32, ,
2, ,-32, ,
1, ,-32, ,
1, ,-32, ,
2, ,-33, ,
2, ,-32, ,
1, ,-32, ,
2, ,-32, ,
1, ,-32, ,
1, ,-32, ,
2, ,-33, ,
2, ,-32, ,
1, ,-32, ,
2, ,-32, ,
1, ,-32, ,
1, ,-32, ,
2, ,-32, ,
1, ,-32, ,
1, ,-32, ,
2, ,-32, ,
1, ,-32, ,
1, ,-32, ,
2, ,-32, ,
2, ,-33, ,
1, ,-32, ,
2, ,-32, ,
1, ,-32, ,
1, ,-32, ,
2, ,-32, ,
1, ,-32, ,
1, ,-32, ,
2, ,-32, ,
1, ,-32, ,
1, ,-32, ,
2, ,-33, ,
1, ,-33, ,
1, ,-32, ,
2, ,-32, ,
1, ,-32, ,
1, ,-32, ,
2, ,-32, ,
2, ,-32, ,
-1, ,-32, ,
2, ,-32, ,
1, ,-32, ,
1, ,-32, ,
2, ,-33, ,
2, ,-32, ,
1, ,-32, ,
1, ,-32, ,
1, ,-32, ,
1, ,-33, ,
2, ,-33, ,
1, ,-32, ,
1, ,-32, ,
2, ,-32, ,
1, ,-32, ,
1, ,-32, ,
2, ,-32, ,
2, ,-32, ,
1, ,-32, ,
2, ,-32, ,
1, ,-32, ,
1, ,-33, ,
2, ,-32, ,
1, ,-32, ,
1, ,-33, ,
2, ,-32, ,
1, ,-32, ,
1, ,-32, ,
2, ,-33, ,
1, ,-33, ,
1, ,-32, ,
2, ,-32, ,
1, ,-32, ,
1, ,-33, ,
2, ,-32, ,
1, ,-32, ,
1, ,-33, ,
2, ,-32, ,
1, ,-32, ,
1, ,-32, ,
2, ,-33, ,
1, ,-32, ,
-1, ,-32, ,
2, ,-32, ,
1, ,-32, ,
1, ,-33, ,
1, ,-32, ,
1, ,-32, ,
1, ,-33, ,
2, ,-32, ,
1, ,-32, ,
1, ,-32, ,
2, ,-33, ,
1, ,-32, ,
-1, ,-32, ,
2, ,-32, ,
1, ,-32, ,
1, ,-33, ,
2, ,-32, ,
1, ,-32, ,
-1, ,-32, ,
1, ,-32, ,
1, ,-32, ,
1, ,-32, ,
2, ,-33, ,
1, ,-32, ,
-1, ,-32, ,
1, ,-32, ,
1, ,-32, ,
1, ,-33, ,
2, ,-33, ,
1, ,-32, ,
-1, ,-32, ,
1, ,-32, ,
1, ,-32, ,
1, ,-32, ,
2, ,-33, ,
1, ,-32, ,
1, ,-32, ,
2, ,-32, ,
1, ,-32, ,
1, ,-33, ,
2, ,-33, ,
1, ,-32, ,
-1, ,-32, ,
2, ,-32, ,
1, ,-32, ,
1, ,-32, ,
2, ,-33, ,
1, ,-33, ,
1, ,-32, ,
1, ,-32, ,
1, ,-32, ,
1, ,-32, ,
2, ,-32, ,
2, ,-32, ,
-1, ,-32, ,
1, ,-32, ,
1, ,-32, ,
1, ,-32, ,
2, ,-33, ,
1, ,-32, ,
-1, ,-32, ,
2, ,-32, ,
1, ,-32, ,
1, ,-33, ,
2, ,-32, ,
2, ,-32, ,
-1, ,-32, ,
1, ,-32, ,
1, ,-33, ,
1, ,-32, ,
2, ,-32, ,
1, ,-32, ,
1, ,-32, ,
2, ,-32, ,
1, ,-32, ,
1, ,-32, ,
2, ,-32, ,
1, ,-32, ,
-1, ,-32, ,
2, ,-32, ,
1, ,-32, ,
1, ,-32, ,
2, ,-33, ,
1, ,-32, ,
-1, ,-32, ,
1, ,-32, ,
1, ,-32, ,
1, ,-32, ,
2, ,-32, ,
1, ,-32, ,
-1, ,-26, ,
2, ,-7, ,
1, ,11, ,
1, ,23, ,
2, ,34, ,
1, ,40, ,
1, ,46, ,
2, ,50, ,
1, ,53, ,
1, ,54, ,
2, ,57, ,
1, ,58, ,
1, ,59, ,
2, ,59, ,
1, ,60, ,
1, ,60, ,
2, ,61, ,
1, ,61, ,
-1, ,61, ,
2, ,61, ,
-1, ,62, ,
-1, ,61, ,
1, ,61, ,
1, ,62, ,
-1, ,61, ,
2, ,61, ,
1, ,62, ,
-1, ,61, ,
1, ,61, ,
1, ,61, ,
-1, ,61, ,
2, ,61, ,
1, ,61, ,
1, ,60, ,
1, ,61, ,
1, ,61, ,
-1, ,61, ,
2, ,60, ,
-1, ,61, ,
-1, ,61, ,
5, ,61, ,
60, ,61, ,
39, ,60, ,
25, ,61, ,
15, ,61, ,
10, ,60, ,
8, ,61, ,
5, ,61, ,
3, ,61, ,
6, ,61, ,
3, ,61, ,
3, ,61, ,
5, ,61, ,
3, ,61, ,
2, ,61, ,
3, ,61, ,
2, ,62, ,
2, ,60, ,
2, ,61, ,
2, ,61, ,
2, ,60, ,
3, ,60, ,
2, ,61, ,
2, ,61, ,
2, ,61, ,
2, ,61, ,
1, ,61, ,
3, ,60, ,
2, ,61, ,
2, ,60, ,
3, ,60, ,
2, ,61, ,
1, ,61, ,
3, ,60, ,
2, ,61, ,
2, ,60, ,
3, ,60, ,
2, ,61, ,
2, ,61, ,
3, ,60, ,
2, ,61, ,
2, ,60, ,
3, ,60, ,
2, ,61, ,
1, ,60, ,
3, ,60, ,
2, ,61, ,
2, ,60, ,
2, ,61, ,
2, ,61, ,
1, ,61, ,
3, ,60, ,
2, ,61, ,
2, ,60, ,
3, ,61, ,
2, ,61, ,
1, ,61, ,
3, ,60, ,
2, ,61, ,
1, ,60, ,
2, ,61, ,
2, ,61, ,
1, ,61, ,
3, ,60, ,
2, ,61, ,
2, ,59, ,
3, ,60, ,
2, ,61, ,
1, ,61, ,
10, ,60, ,
12, ,61, ,
10, ,60, ,
8, ,61, ,
6, ,61, ,
5, ,61, ,
6, ,60, ,
3, ,61, ,
2, ,60, ,
3, ,61, ,
3, ,61, ,
2, ,61, ,
5, ,60, ,
2, ,61, ,
2, ,60, ,
2, ,61, ,
3, ,61, ,
1, ,61, ,
3, ,61, ,
2, ,61, ,
2, ,60, ,
3, ,60, ,
2, ,61, ,
2, ,60, ,
3, ,61, ,
2, ,61, ,
2, ,60, ,
3, ,61, ,
3, ,61, ,
2, ,61, ,
3, ,61, ,
2, ,62, ,
2, ,60, ,
3, ,61, ,
2, ,61, ,
1, ,60, ,
3, ,60, ,
2, ,61, ,
2, ,60, ,
3, ,61, ,
2, ,61, ,
1, ,61, ,
3, ,61, ,
2, ,61, ,
2, ,60, ,
3, ,60, ,
2, ,46, ,
1, ,26, ,
2, ,12, ,
1, ,0, ,
1, ,-8, ,
2, ,-15, ,
2, ,-19, ,
1, ,-23, ,
2, ,-25, ,
1, ,-27, ,
2, ,-28, ,
2, ,-30, ,
2, ,-31, ,
1, ,-32, ,
3, ,-32, ,
2, ,-32, ,
2, ,-32, ,
2, ,-33, ,
3, ,-33, ,
2, ,-33, ,
3, ,-33, ,
2, ,-33, ,
2, ,-33, ,
2, ,-33, ,
2, ,-33, ,
1, ,-33, ,
3, ,-33, ,
2, ,-33, ,
2, ,-33, ,
2, ,-33, ,
3, ,-33, ,
1, ,-33, ,
3, ,-33, ,
2, ,-33, ,
2, ,-33, ,
2, ,-33, ,
2, ,-33, ,
1, ,-33, ,
2, ,-33, ,
2, ,-33, ,
2, ,-33, ,
2, ,-33, ,
2, ,-33, ,
1, ,-33, ,
2, ,-33, ,
2, ,-32, ,
1, ,-33, ,
2, ,-33, ,
2, ,-33, ,
1, ,-33, ,
2, ,-32, ,
2, ,-33, ,
2, ,-32, ,
2, ,-32, ,
2, ,-32, ,
1, ,-32, ,
2, ,-32, ,
2, ,-32, ,
1, ,-32, ,
2, ,-32, ,
2, ,-32, ,
1, ,-33, ,
3, ,-32, ,
2, ,-32, ,
2, ,-32, ,
2, ,-32, ,
2, ,-32, ,
1, ,-32, ,
3, ,-32, ,
2, ,-32, ,
2, ,-32, ,
2, ,-32, ,
2, ,-32, ,
1, ,-32, ,
2, ,-32, ,
2, ,-32, ,
2, ,-32, ,
2, ,-32, ,
2, ,-33, ,
1, ,-32, ,
3, ,-32, ,
2, ,-32, ,
1, ,-33, ,
2, ,-32, ,
2, ,-32, ,
1, ,-33, ,
2, ,-32, ,
2, ,-32, ,
2, ,-32, ,
2, ,-33, ,
2, ,-32, ,
1, ,-32, ,
2, ,-32, ,
2, ,-32, ,
2, ,-33, ,
2, ,-32, ,
2, ,-32, ,
1, ,-33, ,
2, ,-32, ,
2, ,-32, ,
2, ,-32, ,
2, ,-32, ,
2, ,-32, ,
1, ,-32, ,
3, ,-32, ,
2, ,-32, ,
2, ,-32, ,
2, ,-32, ,
2, ,-32, ,
1, ,-33, ,
3, ,-32, ,
2, ,-32, ,
2, ,-32, ,
2, ,-33, ,
2, ,-32, ,
1, ,-32, ,
2, ,-33, ,
2, ,-32, ,
2, ,-32, ,
2, ,-32, ,
2, ,-32, ,
1, ,-32, ,
2, ,-32, ,
2, ,-32, ,
1, ,-32, ,
2, ,-32, ,
2, ,-32, ,
1, ,-32, ,
2, ,-32, ,
2, ,-32, ,
2, ,-32, ,
2, ,-32, ,
2, ,-33, ,
1, ,-32, ,
2, ,-32, ,
2, ,-32, ,
2, ,-32, ,
2, ,-33, ,
2, ,-32, ,
1, ,-33, ,
2, ,-32, ,
2, ,-32, ,
1, ,-32, ,
2, ,-32, ,
2, ,-32, ,
1, ,-32, ,
2, ,-32, ,
1, ,-32, ,
2, ,-32, ,
2, ,-32, ,
2, ,-32, ,
1, ,-32, ,
2, ,-32, ,
2, ,-32, ,
2, ,-32, ,
2, ,-32, ,
2, ,-32, ,
1, ,-32, ,
2, ,-32, ,
1, ,-32, ,
1, ,-32, ,
2, ,-32, ,
2, ,-32, ,
1, ,-32, ,
2, ,-32, ,
2, ,-32, ,
2, ,-32, ,
2, ,-32, ,
2, ,-32, ,
1, ,-32, ,
2, ,-32, ,
2, ,-32, ,
1, ,-32, ,
2, ,-33, ,
2, ,-32, ,
1, ,-32, ,
2, ,-32, ,
1, ,-32, ,
1, ,-32, ,
7, ,-32, ,
36, ,-32, ,
24, ,-32, ,
17, ,-32, ,
11, ,-32, ,
7, ,-32, ,
6, ,-33, ,
5, ,-32, ,
2, ,-32, ,
5, ,-32, ,
2, ,-32, ,
2, ,-32, ,
3, ,-32, ,
3, ,-32, ,
2, ,-32, ,
3, ,-32, ,
2, ,-32, ,
2, ,-32, ,
2, ,-32, ,
3, ,-32, ,
2, ,-32, ,
3, ,-32, ,
2, ,-32, ,
2, ,-32, ,
2, ,-32, ,
3, ,-32, ,
2, ,-33, ,
2, ,-32, ,
2, ,-32, ,
2, ,-32, ,
2, ,-32, ,
3, ,-32, ,
2, ,-32, ,
3, ,-32, ,
2, ,-32, ,
2, ,-32, ,
2, ,-33, ,
3, ,-32, ,
2, ,-32, ,
3, ,-32, ,
2, ,-32, ,
2, ,-32, ,
2, ,-32, ,
2, ,-32, ,
2, ,-32, ,
3, ,-32, ,
2, ,-32, ,
2, ,-32, ,
2, ,-32, ,
3, ,-32, ,
2, ,-32, ,
3, ,-32, ,
2, ,-32, ,
2, ,-32, ,
2, ,-33, ,
3, ,-32, ,
2, ,-32, ,
2, ,-32, ,
2, ,-32, ,
2, ,-32, ,
2, ,-32, ,
2, ,-32, ,
1, ,-32, ,
2, ,-32, ,
2, ,-32, ,
2, ,-32, ,
2, ,-32, ,
3, ,-32, ,
2, ,-32, ,
3, ,-32, ,
2, ,-33, ,
2, ,-32, ,
2, ,-32, ,
2, ,-32, ,
1, ,-32, ,
2, ,-32, ,
2, ,-33, ,
2, ,-32, ,
2, ,-32, ,
2, ,-32, ,
2, ,-32, ,
3, ,-33, ,
2, ,-32, ,
2, ,-33, ,
2, ,-32, ,
2, ,-32, ,
1, ,-33, ,
2, ,-32, ,
1, ,-33, ,
2, ,-32, ,
2, ,-32, ,
3, ,-32, ,
2, ,-32, ,
3, ,-32, ,
2, ,-32, ,
2, ,-33, ,
2, ,-32, ,
2, ,-32, ,
1, ,-32, ,
2, ,-32, ,
2, ,-32, ,
2, ,-32, ,
2, ,-32, ,
2, ,-32, ,
1, ,-32, ,
3, ,-32, ,
2, ,-32, ,
2, ,-33, ,
2, ,-32, ,
2, ,-32, ,
1, ,-32, ,
3, ,-32, ,
2, ,-32, ,
1, ,-32, ,
2, ,-32, ,
2, ,-32, ,
1, ,-32, ,
2, ,-32, ,
2, ,-32, ,
2, ,-32, ,
2, ,-32, ,
2, ,-32, ,
1, ,-33, ,
3, ,-32, ,
2, ,-32, ,
2, ,-32, ,
2, ,-32, ,
2, ,-32, ,
1, ,-32, ,
3, ,-32, ,
2, ,-32, ,
2, ,-32, ,
2, ,-32, ,
2, ,-32, ,
1, ,-32, ,
2, ,-32, ,
2, ,-32, ,
2, ,-32, ,
2, ,-32, ,
2, ,-32, ,
1, ,-32, ,
2, ,-32, ,
1, ,-32, ,
2, ,-32, ,
2, ,-32, ,
2, ,-32, ,
1, ,-32, ,
2, ,-32, ,
2, ,-33, ,
2, ,-32, ,
2, ,-32, ,
2, ,-32, ,
1, ,-32, ,
3, ,-32, ,
2, ,-32, ,
1, ,-32, ,
2, ,-32, ,
2, ,-32, ,
1, ,-32, ,
2, ,-32, ,
2, ,-32, ,
2, ,-32, ,
2, ,-32, ,
2, ,-32, ,
2, ,-32, ,
2, ,-32, ,
2, ,-32, ,
1, ,-32, ,
2, ,-32, ,
2, ,-32, ,
1, ,-32, ,
2, ,-32, ,
2, ,-32, ,
1, ,-32, ,
2, ,-32, ,
2, ,-32, ,
1, ,-32, ,
3, ,-32, ,
1, ,-32, ,
1, ,-32, ,
2, ,-32, ,
2, ,-32, ,
1, ,-32, ,
2, ,-32, ,
2, ,-32, ,
2, ,-32, ,
2, ,-32, ,
2, ,-32, ,
1, ,-32, ,
3, ,-32, ,
2, ,-32, ,
1, ,-32, ,
2, ,-32, ,
2, ,-32, ,
1, ,-33, ,
2, ,-32, ,
2, ,-32, ,
2, ,-32, ,
2, ,-32, ,
2, ,-32, ,
1, ,-32, ,
2, ,-32, ,
1, ,-32, ,
2, ,-32, ,
2, ,-32, ,
2, ,-32, ,
1, ,-32, ,
2, ,-32, ,
1, ,-32, ,
2, ,-32, ,
2, ,-33, ,
2, ,-32, ,
1, ,-33, ,
2, ,-32, ,
2, ,-32, ,
2, ,-33, ,
2, ,-32, ,
2, ,-32, ,
1, ,-33, ,
2, ,-32, ,
1, ,-32, ,
1, ,-32, ,
2, ,-33, ,
2, ,-32, ,
1, ,-33, ,
2, ,-32, ,
1, ,-32, ,
1, ,-32, ,
2, ,-32, ,
1, ,-32, ,
1, ,-32, ,
2, ,-32, ,
1, ,-32, ,
2, ,-32, ,
2, ,-33, ,
2, ,-32, ,
1, ,-32, ,
2, ,-32, ,
1, ,-32, ,
1, ,-32, ,
2, ,-32, ,
2, ,-32, ,
1, ,-33, ,
2, ,-32, ,
1, ,-32, ,
1, ,-32, ,
2, ,-32, ,
2, ,-32, ,
1, ,-32, ,
2, ,-32, ,
1, ,-32, ,
1, ,-32, ,
2, ,-32, ,
2, ,-32, ,
1, ,-32, ,
2, ,-32, ,
1, ,-32, ,
1, ,-32, ,
2, ,-33, ,
2, ,-32, ,
1, ,-32, ,
2, ,-32, ,
1, ,-32, ,
1, ,-32, ,
2, ,-32, ,
2, ,-32, ,
1, ,-32, ,
2, ,-32, ,
1, ,-32, ,
1, ,-32, ,
2, ,-32, ,
2, ,-32, ,
1, ,-32, ,
2, ,-32, ,
1, ,-32, ,
1, ,-32, ,
2, ,-32, ,
2, ,-32, ,
1, ,-32, ,
2, ,-32, ,
1, ,-32, ,
1, ,-32, ,
2, ,-32, ,
2, ,-32, ,
1, ,-32, ,
2, ,-32, ,
1, ,-32, ,
1, ,-32, ,
2, ,-32, ,
2, ,-32, ,
1, ,-33, ,
2, ,-32, ,
1, ,-32, ,
1, ,-32, ,
2, ,-32, ,
2, ,-33, ,
1, ,-32, ,
2, ,-33, ,
1, ,-32, ,
1, ,-32, ,
2, ,-32, ,
2, ,-32, ,
1, ,-32, ,
2, ,-32, ,
1, ,-32, ,
1, ,-32, ,
2, ,-33, ,
2, ,-32, ,
1, ,-32, ,
2, ,-32, ,
1, ,-32, ,
1, ,-32, ,
2, ,-32, ,
1, ,-32, ,
1, ,-32, ,
2, ,-32, ,
1, ,-32, ,
1, ,-32, ,
2, ,-33, ,
2, ,-32, ,
