src/varyamp_1558/temp0000195.CSV

Format,1.0B,
Memory Length,10000,Memory Length,10000,
IntpDistance,0,IntpDistance,0,
Trigger Address,4999,Trigger Address,4999,
Trigger Level,1.040E+00,Trigger Level,1.040E+00,
Source,CH1,Source,CH2,
Vertical Units,V,Vertical Units,V,
Vertical Units Div,0,Vertical Units Div,0,
Vertical Units Extend Div,16,Vertical Units Extend Div,16,
Label,,Label,,
Probe Type,0,Probe Type,0,
Probe Ratio,1.000e+01,Probe Ratio,1.000e+00,
Vertical Scale,5.000e-01,Vertical Scale,1.000e+00,
Vertical Position,-1.820e+00,Vertical Position,0.000e+00,
Horizontal Units,S,Horizontal Units,S,
Horizontal Scale,2.000E-05,Horizontal Scale,2.000E-05,
Horizontal Position,0.000E+00,Horizontal Position,0.000E+00,
Horizontal Mode,Main,Horizontal Mode,Main,
SincET Mode,Real Time,SincET Mode,Real Time,
Sampling Period,2.000e-08,Sampling Period,2.000e-08,
Horizontal Old Scale,2.000E-05,Horizontal Old Scale,2.000E-05,
Horizontal Old Position,0.000E+00,Horizontal Old Position,0.000E+00,
Firmware,V1.23,Firmware,V1.23,
Mode,Fast,Mode,Fast,
Waveform Data,,Waveform Data,,
1, ,-35, ,
1, ,-35, ,
1, ,-35, ,
-1, ,-35, ,
2, ,-35, ,
1, ,-35, ,
1, ,-35, ,
1, ,-35, ,
1, ,-35, ,
-1, ,-35, ,
1, ,-35, ,
1, ,-34, ,
1, ,-35, ,
1, ,-35, ,
2, ,-35, ,
-1, ,-35, ,
2, ,-35, ,
1, ,-35, ,
2, ,-35, ,
2, ,-35, ,
1, ,-35, ,
-1, ,-35, ,
2, ,-35, ,
1, ,-35, ,
1, ,-35, ,
1, ,-35, ,
1, ,-35, ,
-1, ,-35, ,
1, ,-35, ,
1, ,-34, ,
1, ,-35, ,
1, ,-35, ,
2, ,-35, ,
-1, ,-34, ,
2, ,-35, ,
1, ,-34, ,
1, ,-35, ,
2, ,-35, ,
2, ,-35, ,
-1, ,-35, ,
2, ,-35, ,
1, ,-34, ,
1, ,-34, ,
2, ,-35, ,
1, ,-35, ,
-1, ,-35, ,
2, ,-35, ,
1, ,-35, ,
1, ,-35, ,
2, ,-35, ,
1, ,-35, ,
-1, ,-35, ,
2, ,-35, ,
1, ,-35, ,
1, ,-35, ,
2, ,-35, ,
1, ,-35, ,
-1, ,-35, ,
2, ,-35, ,
1, ,-35, ,
1, ,-35, ,
2, ,-35, ,
1, ,-35, ,
-1, ,-35, ,
2, ,-35, ,
1, ,-35, ,
1, ,-35, ,
2, ,-35, ,
1, ,-35, ,
-1, ,-35, ,
2, ,-35, ,
1, ,-34, ,
1, ,-35, ,
1, ,-35, ,
1, ,-35, ,
-1, ,-35, ,
1, ,-35, ,
1, ,-35, ,
1, ,-35, ,
2, ,-35, ,
1, ,-35, ,
-1, ,-35, ,
2, ,-35, ,
1, ,-35, ,
1, ,-35, ,
1, ,-35, ,
1, ,-35, ,
-1, ,-35, ,
1, ,-35, ,
1, ,-35, ,
1, ,-35, ,
2, ,-35, ,
2, ,-35, ,
-1, ,-35, ,
2, ,-35, ,
-1, ,-34, ,
1, ,-35, ,
1, ,-34, ,
1, ,-35, ,
-1, ,-35, ,
2, ,-35, ,
1, ,-35, ,
1, ,-35, ,
1, ,-35, ,
1, ,-35, ,
-1, ,-35, ,
1, ,-35, ,
1, ,-35, ,
1, ,-35, ,
1, ,-35, ,
2, ,-35, ,
-1, ,-35, ,
2, ,-35, ,
1, ,-35, ,
1, ,-35, ,
2, ,-35, ,
1, ,-35, ,
-1, ,-35, ,
1, ,-35, ,
1, ,-35, ,
1, ,-35, ,
1, ,-34, ,
1, ,-35, ,
-1, ,-35, ,
2, ,-35, ,
1, ,-35, ,
1, ,-35, ,
1, ,-35, ,
1, ,-35, ,
-1, ,-35, ,
2, ,-35, ,
-1, ,-35, ,
1, ,-35, ,
1, ,-35, ,
1, ,-35, ,
-1, ,-35, ,
1, ,-35, ,
1, ,-35, ,
1, ,-35, ,
1, ,-35, ,
1, ,-35, ,
-1, ,-35, ,
2, ,-35, ,
1, ,-35, ,
1, ,-35, ,
1, ,-35, ,
1, ,-35, ,
-1, ,-35, ,
1, ,-35, ,
1, ,-35, ,
1, ,-35, ,
1, ,-35, ,
2, ,-35, ,
-1, ,-35, ,
2, ,-35, ,
-1, ,-35, ,
1, ,-35, ,
2, ,-35, ,
1, ,-35, ,
-1, ,-35, ,
1, ,-35, ,
1, ,-35, ,
1, ,-35, ,
2, ,-35, ,
1, ,-35, ,
-1, ,-35, ,
1, ,-35, ,
1, ,-34, ,
1, ,-35, ,
1, ,-35, ,
1, ,-35, ,
-1, ,-35, ,
2, ,-35, ,
1, ,-35, ,
1, ,-35, ,
2, ,-35, ,
2, ,-35, ,
-1, ,-35, ,
1, ,-35, ,
1, ,-34, ,
1, ,-35, ,
1, ,-35, ,
1, ,-35, ,
-1, ,-35, ,
2, ,-35, ,
-1, ,-35, ,
1, ,-35, ,
1, ,-35, ,
1, ,-35, ,
-1, ,-35, ,
2, ,-35, ,
1, ,-34, ,
1, ,-35, ,
2, ,-35, ,
1, ,-35, ,
-1, ,-35, ,
1, ,-35, ,
1, ,-35, ,
1, ,-35, ,
1, ,-35, ,
1, ,-35, ,
-1, ,-35, ,
1, ,-35, ,
1, ,-35, ,
1, ,-35, ,
2, ,-35, ,
2, ,-35, ,
-1, ,-35, ,
2, ,-35, ,
1, ,-35, ,
1, ,-35, ,
1, ,-35, ,
1, ,-35, ,
-1, ,-35, ,
2, ,-35, ,
-1, ,-35, ,
1, ,-35, ,
1, ,-35, ,
1, ,-35, ,
-1, ,-35, ,
1, ,-35, ,
1, ,-35, ,
1, ,-35, ,
1, ,-35, ,
1, ,-35, ,
-1, ,-35, ,
1, ,-35, ,
-1, ,-35, ,
1, ,-35, ,
2, ,-35, ,
1, ,-35, ,
-1, ,-35, ,
1, ,-35, ,
1, ,-35, ,
1, ,-35, ,
1, ,-35, ,
1, ,-35, ,
-1, ,-35, ,
2, ,-35, ,
-1, ,-35, ,
1, ,-35, ,
1, ,-35, ,
1, ,-35, ,
-1, ,-35, ,
1, ,-35, ,
1, ,-35, ,
1, ,-35, ,
1, ,-35, ,
1, ,-35, ,
-1, ,-35, ,
2, ,-35, ,
-1, ,-35, ,
1, ,-35, ,
1, ,-35, ,
1, ,-35, ,
-1, ,-35, ,
1, ,-35, ,
-1, ,-35, ,
1, ,-35, ,
1, ,-35, ,
1, ,-35, ,
-1, ,-35, ,
1, ,-35, ,
-1, ,-35, ,
1, ,-35, ,
1, ,-35, ,
1, ,-35, ,
-1, ,-35, ,
1, ,-35, ,
-1, ,-35, ,
1, ,-35, ,
1, ,-35, ,
1, ,-35, ,
-1, ,-35, ,
1, ,-35, ,
-1, ,-35, ,
-1, ,-35, ,
1, ,-35, ,
1, ,-35, ,
-1, ,-35, ,
1, ,-35, ,
1, ,-34, ,
1, ,-35, ,
1, ,-35, ,
1, ,-35, ,
-1, ,-35, ,
1, ,-35, ,
-1, ,-35, ,
1, ,-35, ,
1, ,-35, ,
1, ,-35, ,
-1, ,-35, ,
1, ,-35, ,
1, ,-35, ,
-1, ,-35, ,
1, ,-35, ,
1, ,-35, ,
-1, ,-35, ,
1, ,-35, ,
-1, ,-35, ,
1, ,-35, ,
1, ,-35, ,
1, ,-35, ,
-1, ,-35, ,
1, ,-35, ,
-1, ,-35, ,
1, ,-35, ,
1, ,-33, ,
1, ,-15, ,
-1, ,3, ,
2, ,18, ,
1, ,28, ,
1, ,36, ,
2, ,42, ,
1, ,46, ,
-1, ,50, ,
2, ,52, ,
1, ,54, ,
1, ,56, ,
1, ,56, ,
1, ,57, ,
-1, ,58, ,
1, ,58, ,
-1, ,58, ,
1, ,59, ,
1, ,58, ,
1, ,58, ,
-1, ,59, ,
2, ,58, ,
1, ,59, ,
-1, ,59, ,
1, ,59, ,
1, ,59, ,
-1, ,59, ,
2, ,59, ,
-1, ,59, ,
-1, ,59, ,
1, ,58, ,
1, ,59, ,
-1, ,59, ,
1, ,58, ,
-1, ,58, ,
-1, ,59, ,
1, ,58, ,
1, ,58, ,
-1, ,59, ,
1, ,58, ,
-1, ,58, ,
-1, ,59, ,
1, ,58, ,
-1, ,59, ,
-1, ,58, ,
2, ,58, ,
1, ,58, ,
-1, ,59, ,
1, ,58, ,
1, ,58, ,
-1, ,59, ,
2, ,58, ,
1, ,58, ,
-1, ,59, ,
1, ,58, ,
1, ,58, ,
-1, ,58, ,
1, ,59, ,
-1, ,58, ,
1, ,59, ,
1, ,58, ,
1, ,58, ,
-1, ,58, ,
2, ,58, ,
-1, ,58, ,
-1, ,59, ,
1, ,58, ,
1, ,58, ,
-1, ,58, ,
1, ,58, ,
1, ,58, ,
-1, ,59, ,
1, ,58, ,
-1, ,58, ,
-2, ,59, ,
1, ,58, ,
-1, ,58, ,
-1, ,59, ,
1, ,58, ,
1, ,58, ,
-1, ,58, ,
1, ,58, ,
-1, ,58, ,
-1, ,59, ,
55, ,58, ,
64, ,58, ,
39, ,59, ,
26, ,58, ,
16, ,58, ,
10, ,59, ,
8, ,58, ,
6, ,58, ,
3, ,58, ,
5, ,58, ,
2, ,58, ,
2, ,59, ,
3, ,58, ,
2, ,58, ,
1, ,59, ,
3, ,58, ,
2, ,58, ,
2, ,59, ,
3, ,58, ,
2, ,58, ,
1, ,59, ,
3, ,58, ,
2, ,58, ,
2, ,59, ,
2, ,58, ,
2, ,58, ,
1, ,59, ,
3, ,58, ,
2, ,58, ,
2, ,59, ,
3, ,58, ,
2, ,58, ,
2, ,58, ,
3, ,58, ,
2, ,58, ,
2, ,59, ,
3, ,58, ,
2, ,58, ,
1, ,59, ,
3, ,58, ,
2, ,58, ,
2, ,59, ,
3, ,58, ,
2, ,58, ,
1, ,58, ,
3, ,58, ,
2, ,58, ,
1, ,59, ,
2, ,58, ,
2, ,58, ,
1, ,58, ,
3, ,58, ,
2, ,58, ,
2, ,59, ,
3, ,58, ,
2, ,58, ,
1, ,58, ,
3, ,58, ,
2, ,58, ,
1, ,59, ,
2, ,58, ,
2, ,58, ,
1, ,58, ,
3, ,58, ,
1, ,58, ,
2, ,58, ,
2, ,58, ,
2, ,58, ,
1, ,58, ,
3, ,58, ,
2, ,58, ,
2, ,49, ,
2, ,28, ,
2, ,12, ,
1, ,0, ,
2, ,-9, ,
2, ,-16, ,
1, ,-21, ,
2, ,-24, ,
2, ,-27, ,
1, ,-30, ,
3, ,-31, ,
2, ,-33, ,
2, ,-33, ,
2, ,-34, ,
2, ,-34, ,
1, ,-35, ,
2, ,-35, ,
2, ,-35, ,
2, ,-36, ,
2, ,-35, ,
2, ,-35, ,
1, ,-36, ,
2, ,-36, ,
2, ,-36, ,
2, ,-36, ,
2, ,-36, ,
2, ,-35, ,
1, ,-35, ,
3, ,-35, ,
1, ,-35, ,
2, ,-35, ,
2, ,-35, ,
2, ,-35, ,
1, ,-35, ,
3, ,-35, ,
2, ,-35, ,
2, ,-35, ,
2, ,-35, ,
2, ,-35, ,
1, ,-35, ,
2, ,-35, ,
1, ,-35, ,
2, ,-35, ,
2, ,-35, ,
2, ,-35, ,
1, ,-35, ,
2, ,-35, ,
2, ,-35, ,
2, ,-35, ,
2, ,-35, ,
2, ,-35, ,
1, ,-35, ,
2, ,-35, ,
2, ,-35, ,
2, ,-35, ,
2, ,-35, ,
2, ,-35, ,
1, ,-35, ,
2, ,-35, ,
1, ,-35, ,
1, ,-35, ,
2, ,-35, ,
2, ,-35, ,
1, ,-35, ,
2, ,-35, ,
1, ,-35, ,
1, ,-35, ,
2, ,-35, ,
2, ,-35, ,
1, ,-35, ,
2, ,-35, ,
1, ,-35, ,
2, ,-35, ,
2, ,-35, ,
2, ,-35, ,
1, ,-35, ,
2, ,-35, ,
1, ,-35, ,
2, ,-35, ,
2, ,-35, ,
2, ,-35, ,
1, ,-35, ,
2, ,-35, ,
1, ,-35, ,
1, ,-35, ,
2, ,-35, ,
2, ,-35, ,
1, ,-35, ,
2, ,-35, ,
1, ,-35, ,
2, ,-35, ,
2, ,-35, ,
2, ,-35, ,
1, ,-35, ,
2, ,-35, ,
1, ,-35, ,
2, ,-35, ,
2, ,-35, ,
2, ,-35, ,
1, ,-35, ,
2, ,-35, ,
1, ,-35, ,
1, ,-35, ,
2, ,-35, ,
2, ,-35, ,
1, ,-35, ,
2, ,-35, ,
1, ,-35, ,
2, ,-35, ,
2, ,-35, ,
2, ,-35, ,
1, ,-35, ,
2, ,-35, ,
1, ,-34, ,
1, ,-35, ,
2, ,-35, ,
2, ,-35, ,
1, ,-35, ,
2, ,-35, ,
2, ,-35, ,
2, ,-35, ,
2, ,-35, ,
2, ,-35, ,
1, ,-35, ,
2, ,-35, ,
1, ,-35, ,
1, ,-35, ,
2, ,-35, ,
2, ,-35, ,
1, ,-35, ,
2, ,-35, ,
1, ,-35, ,
2, ,-35, ,
2, ,-35, ,
2, ,-35, ,
1, ,-35, ,
2, ,-35, ,
1, ,-34, ,
1, ,-35, ,
2, ,-35, ,
2, ,-35, ,
1, ,-35, ,
2, ,-34, ,
1, ,-35, ,
2, ,-35, ,
2, ,-35, ,
2, ,-35, ,
1, ,-35, ,
2, ,-35, ,
1, ,-35, ,
1, ,-35, ,
2, ,-35, ,
1, ,-35, ,
1, ,-35, ,
2, ,-35, ,
1, ,-35, ,
2, ,-35, ,
2, ,-35, ,
2, ,-35, ,
1, ,-35, ,
2, ,-35, ,
1, ,-35, ,
1, ,-35, ,
2, ,-35, ,
2, ,-35, ,
1, ,-35, ,
2, ,-35, ,
1, ,-35, ,
1, ,-35, ,
2, ,-35, ,
2, ,-35, ,
1, ,-35, ,
2, ,-35, ,
1, ,-35, ,
1, ,-35, ,
2, ,-35, ,
2, ,-35, ,
1, ,-35, ,
2, ,-35, ,
1, ,-35, ,
1, ,-35, ,
2, ,-35, ,
2, ,-35, ,
1, ,-35, ,
2, ,-35, ,
1, ,-34, ,
1, ,-35, ,
2, ,-35, ,
1, ,-35, ,
1, ,-35, ,
2, ,-35, ,
1, ,-35, ,
1, ,-35, ,
2, ,-35, ,
2, ,-34, ,
1, ,-35, ,
2, ,-35, ,
1, ,-35, ,
1, ,-35, ,
2, ,-35, ,
2, ,-35, ,
1, ,-35, ,
2, ,-35, ,
1, ,-35, ,
1, ,-35, ,
2, ,-35, ,
2, ,-35, ,
-1, ,-35, ,
2, ,-35, ,
1, ,-34, ,
1, ,-35, ,
2, ,-34, ,
2, ,-35, ,
1, ,-35, ,
2, ,-35, ,
1, ,-35, ,
1, ,-35, ,
2, ,-35, ,
2, ,-35, ,
-1, ,-35, ,
2, ,-35, ,
1, ,-34, ,
1, ,-35, ,
2, ,-35, ,
1, ,-35, ,
-1, ,-35, ,
2, ,-35, ,
1, ,-35, ,
1, ,-35, ,
2, ,-35, ,
1, ,-35, ,
1, ,-35, ,
2, ,-35, ,
1, ,-35, ,
1, ,-35, ,
2, ,-34, ,
1, ,-35, ,
1, ,-35, ,
2, ,-35, ,
1, ,-34, ,
1, ,-35, ,
1, ,-35, ,
1, ,-35, ,
1, ,-35, ,
2, ,-35, ,
1, ,-34, ,
1, ,-35, ,
2, ,-35, ,
2, ,-35, ,
-1, ,-35, ,
2, ,-35, ,
1, ,-35, ,
1, ,-35, ,
2, ,-35, ,
1, ,-35, ,
-1, ,-35, ,
2, ,-35, ,
1, ,-34, ,
1, ,-35, ,
2, ,-35, ,
1, ,-35, ,
1, ,-35, ,
2, ,-35, ,
1, ,-34, ,
1, ,-35, ,
2, ,-35, ,
2, ,-35, ,
-1, ,-35, ,
2, ,-35, ,
1, ,-34, ,
1, ,-35, ,
2, ,-35, ,
1, ,-35, ,
1, ,-35, ,
2, ,-35, ,
1, ,-35, ,
1, ,-35, ,
2, ,-35, ,
2, ,-35, ,
1, ,-35, ,
2, ,-35, ,
1, ,-34, ,
1, ,-35, ,
2, ,-34, ,
1, ,-35, ,
1, ,-35, ,
2, ,-35, ,
1, ,-35, ,
1, ,-35, ,
1, ,-35, ,
1, ,-35, ,
-1, ,-34, ,
2, ,-35, ,
1, ,-34, ,
1, ,-35, ,
1, ,-35, ,
2, ,-35, ,
1, ,-35, ,
2, ,-34, ,
1, ,-34, ,
1, ,-34, ,
2, ,-35, ,
1, ,-35, ,
-1, ,-35, ,
2, ,-35, ,
1, ,-34, ,
1, ,-35, ,
1, ,-35, ,
1, ,-35, ,
-1, ,-35, ,
2, ,-35, ,
1, ,-34, ,
1, ,-35, ,
1, ,-35, ,
1, ,-35, ,
-1, ,-35, ,
2, ,-35, ,
1, ,-35, ,
1, ,-35, ,
1, ,-35, ,
2, ,-35, ,
-1, ,-35, ,
2, ,-34, ,
1, ,-35, ,
1, ,-35, ,
1, ,-35, ,
2, ,-35, ,
-1, ,-35, ,
2, ,-35, ,
1, ,-34, ,
1, ,-35, ,
2, ,-35, ,
1, ,-35, ,
-1, ,-35, ,
1, ,-35, ,
1, ,-35, ,
1, ,-34, ,
1, ,-35, ,
1, ,-35, ,
-1, ,-35, ,
2, ,-35, ,
1, ,-35, ,
1, ,-35, ,
1, ,-35, ,
1, ,-35, ,
-1, ,-35, ,
2, ,-35, ,
1, ,-34, ,
1, ,-35, ,
2, ,-35, ,
1, ,-35, ,
-1, ,-35, ,
2, ,-35, ,
1, ,-35, ,
1, ,-35, ,
1, ,-34, ,
1, ,-35, ,
-1, ,-35, ,
2, ,-35, ,
1, ,-35, ,
1, ,-35, ,
1, ,-35, ,
1, ,-35, ,
-1, ,-35, ,
2, ,-35, ,
1, ,-35, ,
1, ,-35, ,
1, ,-34, ,
2, ,-35, ,
-1, ,-35, ,
2, ,-35, ,
1, ,-35, ,
1, ,-35, ,
1, ,-35, ,
1, ,-35, ,
-1, ,-35, ,
2, ,-35, ,
1, ,-34, ,
1, ,-35, ,
1, ,-35, ,
1, ,-35, ,
-1, ,-35, ,
2, ,-35, ,
1, ,-35, ,
1, ,-35, ,
1, ,-35, ,
1, ,-35, ,
-1, ,-35, ,
2, ,-35, ,
1, ,-35, ,
1, ,-35, ,
1, ,-35, ,
1, ,-35, ,
-1, ,-35, ,
1, ,-35, ,
1, ,-34, ,
1, ,-35, ,
1, ,-34, ,
2, ,-34, ,
-1, ,-35, ,
2, ,-35, ,
1, ,-35, ,
1, ,-35, ,
1, ,-34, ,
1, ,-35, ,
-1, ,-35, ,
1, ,-35, ,
1, ,-35, ,
1, ,-35, ,
1, ,-35, ,
1, ,-35, ,
-1, ,-35, ,
1, ,-35, ,
1, ,-35, ,
1, ,-35, ,
1, ,-35, ,
1, ,-35, ,
-1, ,-35, ,
2, ,-34, ,
1, ,-35, ,
1, ,-35, ,
1, ,-35, ,
1, ,-35, ,
-1, ,-35, ,
2, ,-35, ,
1, ,-35, ,
1, ,-35, ,
1, ,-35, ,
2, ,-35, ,
-1, ,-35, ,
2, ,-35, ,
1, ,-34, ,
1, ,-35, ,
1, ,-35, ,
1, ,-35, ,
-1, ,-35, ,
2, ,-35, ,
1, ,-35, ,
1, ,-35, ,
1, ,-35, ,
1, ,-35, ,
-1, ,-35, ,
2, ,-35, ,
1, ,-34, ,
1, ,-35, ,
1, ,-35, ,
1, ,-35, ,
-1, ,-35, ,
1, ,-35, ,
-1, ,-35, ,
1, ,-35, ,
1, ,-35, ,
1, ,-35, ,
-1, ,-35, ,
2, ,-35, ,
1, ,-35, ,
-1, ,-35, ,
1, ,-35, ,
1, ,-35, ,
-1, ,-34, ,
2, ,-35, ,
1, ,-35, ,
1, ,-35, ,
1, ,-35, ,
1, ,-35, ,
-1, ,-35, ,
1, ,-35, ,
1, ,-35, ,
1, ,-35, ,
1, ,-35, ,
1, ,-35, ,
-1, ,-35, ,
2, ,-35, ,
-1, ,-35, ,
1, ,-35, ,
1, ,-34, ,
1, ,-35, ,
-1, ,-35, ,
1, ,-35, ,
1, ,-35, ,
1, ,-35, ,
1, ,-35, ,
1, ,-35, ,
-1, ,-35, ,
1, ,-35, ,
-1, ,-34, ,
1, ,-35, ,
1, ,-35, ,
1, ,-35, ,
-1, ,-35, ,
1, ,-35, ,
1, ,-35, ,
1, ,-35, ,
1, ,-35, ,
1, ,-35, ,
-1, ,-35, ,
1, ,-35, ,
1, ,-35, ,
1, ,-35, ,
1, ,-35, ,
1, ,-35, ,
-1, ,-35, ,
2, ,-35, ,
1, ,-34, ,
1, ,-35, ,
1, ,-35, ,
1, ,-35, ,
-1, ,-35, ,
2, ,-35, ,
1, ,-35, ,
1, ,-35, ,
1, ,-35, ,
1, ,-35, ,
-1, ,-35, ,
1, ,-35, ,
1, ,-35, ,
1, ,-35, ,
1, ,-35, ,
1, ,-35, ,
-1, ,-35, ,
2, ,-35, ,
1, ,-35, ,
1, ,-35, ,
1, ,-35, ,
1, ,-35, ,
-1, ,-35, ,
1, ,-35, ,
-1, ,-35, ,
1, ,-35, ,
1, ,-35, ,
1, ,-35, ,
-1, ,-35, ,
2, ,-35, ,
-1, ,-35, ,
1, ,-35, ,
1, ,-35, ,
1, ,-35, ,
-1, ,-35, ,
2, ,-35, ,
1, ,-35, ,
1, ,-35, ,
1, ,-35, ,
1, ,-35, ,
-1, ,-35, ,
2, ,-35, ,
1, ,-35, ,
1, ,-35, ,
1, ,-35, ,
1, ,-35, ,
-1, ,-35, ,
1, ,-35, ,
-1, ,-35, ,
1, ,-35, ,
1, ,-35, ,
1, ,-35, ,
-1, ,-35, ,
1, ,-35, ,
1, ,-35, ,
1, ,-35, ,
1, ,-34, ,
1, ,-35, ,
-1, ,-35, ,
2, ,-35, ,
1, ,-35, ,
1, ,-35, ,
1, ,-35, ,
1, ,-35, ,
-1, ,-35, ,
1, ,-35, ,
1, ,-35, ,
1, ,-35, ,
1, ,-35, ,
1, ,-35, ,
-1, ,-35, ,
1, ,-35, ,
-1, ,-35, ,
1, ,-35, ,
1, ,-35, ,
1, ,-35, ,
-1, ,-35, ,
1, ,-35, ,
1, ,-35, ,
1, ,-35, ,
1, ,-35, ,
1, ,-35, ,
-1, ,-35, ,
1, ,-35, ,
1, ,-35, ,
1, ,-35, ,
1, ,-35, ,
1, ,-35, ,
-1, ,-35, ,
2, ,-35, ,
-1, ,-35, ,
1, ,-35, ,
1, ,-35, ,
1, ,-35, ,
-1, ,-35, ,
1, ,-35, ,
-1, ,-35, ,
1, ,-35, ,
1, ,-35, ,
1, ,-35, ,
-1, ,-35, ,
1, ,-35, ,
-1, ,-35, ,
1, ,-35, ,
1, ,-35, ,
1, ,-35, ,
-1, ,-35, ,
1, ,-35, ,
1, ,-34, ,
-1, ,-35, ,
1, ,-35, ,
1, ,-35, ,
-1, ,-35, ,
1, ,-35, ,
-1, ,-35, ,
1, ,-35, ,
1, ,-35, ,
1, ,-35, ,
-1, ,-35, ,
1, ,-35, ,
-1, ,-35, ,
1, ,-35, ,
1, ,-35, ,
1, ,-34, ,
-1, ,-21, ,
1, ,-2, ,
1, ,14, ,
1, ,25, ,
1, ,34, ,
1, ,41, ,
-1, ,45, ,
1, ,49, ,
1, ,52, ,
-1, ,54, ,
1, ,55, ,
1, ,56, ,
-1, ,57, ,
1, ,57, ,
-1, ,57, ,
1, ,58, ,
1, ,58, ,
1, ,58, ,
-1, ,59, ,
1, ,58, ,
1, ,59, ,
-1, ,59, ,
1, ,59, ,
1, ,59, ,
-1, ,59, ,
2, ,59, ,
-1, ,59, ,
-1, ,59, ,
1, ,58, ,
1, ,59, ,
-1, ,59, ,
2, ,59, ,
1, ,58, ,
-1, ,59, ,
1, ,58, ,
1, ,58, ,
-1, ,59, ,
2, ,58, ,
1, ,58, ,
1, ,59, ,
1, ,58, ,
1, ,58, ,
-1, ,59, ,
2, ,58, ,
1, ,59, ,
1, ,59, ,
1, ,58, ,
1, ,58, ,
-1, ,59, ,
2, ,59, ,
-1, ,58, ,
-1, ,59, ,
1, ,58, ,
1, ,58, ,
-1, ,58, ,
2, ,58, ,
-1, ,58, ,
-1, ,59, ,
1, ,58, ,
1, ,58, ,
-1, ,58, ,
2, ,58, ,
1, ,58, ,
-1, ,59, ,
1, ,58, ,
1, ,58, ,
-1, ,58, ,
2, ,58, ,
1, ,58, ,
-1, ,59, ,
1, ,58, ,
-1, ,58, ,
-1, ,59, ,
2, ,58, ,
1, ,59, ,
1, ,59, ,
1, ,58, ,
1, ,59, ,
-1, ,58, ,
1, ,58, ,
1, ,58, ,
-1, ,59, ,
1, ,58, ,
1, ,58, ,
-1, ,59, ,
1, ,59, ,
-1, ,58, ,
-1, ,58, ,
1, ,58, ,
1, ,58, ,
-1, ,59, ,
1, ,58, ,
1, ,58, ,
-1, ,59, ,
1, ,58, ,
1, ,58, ,
-1, ,59, ,
2, ,58, ,
-1, ,58, ,
-1, ,59, ,
1, ,58, ,
1, ,58, ,
-1, ,58, ,
1, ,58, ,
1, ,58, ,
-1, ,59, ,
1, ,57, ,
1, ,58, ,
-1, ,58, ,
2, ,58, ,
1, ,58, ,
-1, ,59, ,
1, ,57, ,
1, ,58, ,
-1, ,59, ,
1, ,58, ,
1, ,58, ,
-1, ,59, ,
1, ,58, ,
1, ,58, ,
-1, ,58, ,
2, ,58, ,
-1, ,58, ,
-1, ,59, ,
1, ,58, ,
1, ,58, ,
-1, ,58, ,
1, ,58, ,
-1, ,58, ,
-1, ,59, ,
1, ,58, ,
1, ,58, ,
-1, ,59, ,
2, ,58, ,
1, ,58, ,
-1, ,59, ,
1, ,58, ,
1, ,58, ,
-1, ,59, ,
2, ,58, ,
1, ,58, ,
-1, ,59, ,
1, ,58, ,
1, ,58, ,
-1, ,59, ,
1, ,58, ,
1, ,58, ,
1, ,59, ,
1, ,58, ,
1, ,58, ,
-1, ,58, ,
2, ,58, ,
52, ,58, ,
66, ,59, ,
40, ,52, ,
25, ,32, ,
15, ,15, ,
11, ,2, ,
7, ,-7, ,
5, ,-15, ,
5, ,-20, ,
2, ,-23, ,
2, ,-27, ,
3, ,-28, ,
2, ,-31, ,
2, ,-32, ,
2, ,-33, ,
2, ,-34, ,
1, ,-34, ,
3, ,-35, ,
2, ,-35, ,
2, ,-35, ,
3, ,-35, ,
3, ,-35, ,
2, ,-36, ,
3, ,-35, ,
2, ,-35, ,
2, ,-36, ,
2, ,-35, ,
3, ,-35, ,
1, ,-35, ,
3, ,-35, ,
2, ,-35, ,
2, ,-35, ,
3, ,-35, ,
2, ,-35, ,
1, ,-35, ,
3, ,-35, ,
2, ,-35, ,
2, ,-35, ,
2, ,-35, ,
2, ,-35, ,
1, ,-35, ,
3, ,-35, ,
2, ,-35, ,
2, ,-35, ,
2, ,-35, ,
3, ,-35, ,
1, ,-35, ,
3, ,-35, ,
1, ,-35, ,
2, ,-35, ,
3, ,-35, ,
2, ,-35, ,
1, ,-35, ,
3, ,-35, ,
2, ,-35, ,
2, ,-35, ,
2, ,-34, ,
2, ,-35, ,
1, ,-35, ,
3, ,-35, ,
2, ,-35, ,
2, ,-35, ,
2, ,-35, ,
2, ,-35, ,
1, ,-35, ,
3, ,-35, ,
1, ,-35, ,
2, ,-35, ,
2, ,-35, ,
2, ,-35, ,
1, ,-35, ,
3, ,-35, ,
2, ,-35, ,
2, ,-35, ,
2, ,-35, ,
2, ,-35, ,
1, ,-35, ,
2, ,-35, ,
2, ,-35, ,
2, ,-35, ,
2, ,-35, ,
2, ,-35, ,
1, ,-35, ,
2, ,-35, ,
1, ,-35, ,
2, ,-35, ,
3, ,-35, ,
2, ,-35, ,
1, ,-35, ,
3, ,-35, ,
2, ,-35, ,
2, ,-35, ,
2, ,-35, ,
2, ,-35, ,
1, ,-35, ,
2, ,-35, ,
1, ,-35, ,
2, ,-35, ,
2, ,-35, ,
2, ,-35, ,
1, ,-35, ,
2, ,-35, ,
2, ,-35, ,
2, ,-35, ,
2, ,-35, ,
2, ,-35, ,
1, ,-35, ,
2, ,-35, ,
1, ,-35, ,
2, ,-35, ,
2, ,-35, ,
2, ,-35, ,
1, ,-35, ,
3, ,-35, ,
2, ,-34, ,
2, ,-35, ,
2, ,-34, ,
2, ,-35, ,
1, ,-35, ,
3, ,-35, ,
2, ,-35, ,
2, ,-35, ,
2, ,-35, ,
2, ,-35, ,
1, ,-35, ,
3, ,-35, ,
2, ,-35, ,
2, ,-35, ,
2, ,-34, ,
2, ,-35, ,
1, ,-35, ,
2, ,-35, ,
1, ,-34, ,
1, ,-35, ,
2, ,-35, ,
2, ,-35, ,
1, ,-35, ,
2, ,-35, ,
1, ,-35, ,
2, ,-35, ,
3, ,-34, ,
2, ,-35, ,
1, ,-35, ,
2, ,-34, ,
2, ,-35, ,
2, ,-34, ,
2, ,-35, ,
2, ,-35, ,
1, ,-35, ,
3, ,-35, ,
1, ,-34, ,
1, ,-35, ,
2, ,-35, ,
2, ,-35, ,
1, ,-35, ,
2, ,-35, ,
1, ,-35, ,
2, ,-34, ,
2, ,-35, ,
2, ,-35, ,
1, ,-35, ,
2, ,-35, ,
1, ,-34, ,
2, ,-35, ,
2, ,-35, ,
2, ,-35, ,
1, ,-35, ,
2, ,-35, ,
1, ,-34, ,
1, ,-35, ,
2, ,-35, ,
2, ,-35, ,
1, ,-35, ,
2, ,-35, ,
1, ,-34, ,
2, ,-35, ,
2, ,-34, ,
2, ,-35, ,
-1, ,-35, ,
2, ,-35, ,
1, ,-34, ,
2, ,-35, ,
2, ,-35, ,
2, ,-35, ,
1, ,-35, ,
3, ,-35, ,
1, ,-35, ,
2, ,-35, ,
2, ,-35, ,
2, ,-35, ,
1, ,-35, ,
2, ,-34, ,
1, ,-34, ,
2, ,-34, ,
2, ,-35, ,
2, ,-35, ,
1, ,-35, ,
2, ,-35, ,
1, ,-35, ,
2, ,-35, ,
2, ,-34, ,
2, ,-35, ,
1, ,-35, ,
2, ,-35, ,
1, ,-34, ,
2, ,-35, ,
2, ,-35, ,
2, ,-35, ,
1, ,-35, ,
2, ,-35, ,
1, ,-34, ,
1, ,-34, ,
2, ,-35, ,
2, ,-35, ,
1, ,-35, ,
2, ,-35, ,
1, ,-34, ,
1, ,-35, ,
2, ,-35, ,
2, ,-35, ,
1, ,-35, ,
2, ,-35, ,
1, ,-35, ,
1, ,-35, ,
2, ,-35, ,
2, ,-35, ,
-1, ,-35, ,
2, ,-35, ,
1, ,-34, ,
1, ,-35, ,
2, ,-35, ,
1, ,-35, ,
1, ,-34, ,
2, ,-35, ,
1, ,-34, ,
1, ,-35, ,
2, ,-35, ,
2, ,-35, ,
-1, ,-35, ,
2, ,-35, ,
1, ,-34, ,
1, ,-35, ,
2, ,-35, ,
1, ,-35, ,
1, ,-35, ,
2, ,-35, ,
1, ,-35, ,
1, ,-35, ,
2, ,-34, ,
2, ,-35, ,
1, ,-35, ,
2, ,-35, ,
1, ,-34, ,
1, ,-35, ,
1, ,-35, ,
1, ,-35, ,
1, ,-35, ,
2, ,-35, ,
1, ,-35, ,
1, ,-35, ,
2, ,-35, ,
2, ,-35, ,
1, ,-35, ,
2, ,-35, ,
1, ,-35, ,
1, ,-35, ,
2, ,-35, ,
2, ,-35, ,
1, ,-35, ,
2, ,-35, ,
1, ,-34, ,
1, ,-35, ,
2, ,-35, ,
1, ,-35, ,
1, ,-35, ,
2, ,-35, ,
1, ,-35, ,
2, ,-35, ,
1, ,-35, ,
1, ,-35, ,
1, ,-35, ,
2, ,-35, ,
1, ,-34, ,
1, ,-35, ,
2, ,-35, ,
2, ,-35, ,
1, ,-35, ,
2, ,-35, ,
1, ,-35, ,
1, ,-35, ,
2, ,-35, ,
2, ,-35, ,
1, ,-35, ,
2, ,-35, ,
1, ,-34, ,
1, ,-35, ,
2, ,-34, ,
1, ,-35, ,
1, ,-35, ,
2, ,-35, ,
1, ,-35, ,
1, ,-35, ,
2, ,-35, ,
2, ,-35, ,
1, ,-34, ,
2, ,-35, ,
1, ,-34, ,
1, ,-35, ,
2, ,-35, ,
1, ,-35, ,
1, ,-35, ,
2, ,-35, ,
1, ,-35, ,
2, ,-35, ,
2, ,-35, ,
1, ,-35, ,
-1, ,-35, ,
2, ,-35, ,
1, ,-34, ,
1, ,-35, ,
2, ,-34, ,
1, ,-35, ,
-1, ,-35, ,
2, ,-35, ,
1, ,-35, ,
1, ,-35, ,
1, ,-35, ,
2, ,-35, ,
-1, ,-35, ,
2, ,-35, ,
1, ,-35, ,
1, ,-35, ,
2, ,-34, ,
2, ,-35, ,
-1, ,-35, ,
2, ,-35, ,
1, ,-35, ,
1, ,-35, ,
1, ,-35, ,
1, ,-35, ,
1, ,-35, ,
2, ,-35, ,
1, ,-35, ,
1, ,-35, ,
2, ,-35, ,
2, ,-35, ,
-1, ,-35, ,
2, ,-35, ,
1, ,-35, ,
1, ,-35, ,
1, ,-35, ,
1, ,-35, ,
-1, ,-35, ,
2, ,-35, ,
1, ,-35, ,
1, ,-35, ,
1, ,-34, ,
2, ,-35, ,
-1, ,-35, ,
2, ,-35, ,
1, ,-34, ,
1, ,-35, ,
2, ,-35, ,
1, ,-35, ,
-1, ,-35, ,
2, ,-35, ,
1, ,-35, ,
1, ,-35, ,
2, ,-34, ,
1, ,-35, ,
-1, ,-35, ,
2, ,-35, ,
1, ,-35, ,
1, ,-35, ,
1, ,-35, ,
1, ,-35, ,
-1, ,-35, ,
1, ,-35, ,
1, ,-34, ,
1, ,-35, ,
1, ,-34, ,
1, ,-35, ,
-1, ,-35, ,
2, ,-35, ,
1, ,-35, ,
1, ,-35, ,
1, ,-35, ,
1, ,-35, ,
-1, ,-35, ,
2, ,-35, ,
1, ,-35, ,
1, ,-35, ,
2, ,-35, ,
1, ,-35, ,
-1, ,-35, ,
2, ,-35, ,
1, ,-35, ,
1, ,-35, ,
2, ,-35, ,
1, ,-35, ,
-1, ,-35, ,
2, ,-35, ,
1, ,-34, ,
1, ,-35, ,
2, ,-35, ,
1, ,-35, ,
-1, ,-35, ,
1, ,-35, ,
1, ,-35, ,
1, ,-35, ,
2, ,-35, ,
2, ,-35, ,
-1, ,-35, ,
2, ,-35, ,
1, ,-34, ,
1, ,-35, ,
2, ,-34, ,
1, ,-35, ,
-1, ,-35, ,
1, ,-35, ,
1, ,-35, ,
1, ,-35, ,
1, ,-35, ,
1, ,-35, ,
1, ,-35, ,
2, ,-35, ,
1, ,-35, ,
1, ,-35, ,
2, ,-35, ,
2, ,-35, ,
-1, ,-35, ,
2, ,-35, ,
1, ,-34, ,
1, ,-35, ,
2, ,-35, ,
1, ,-35, ,
-1, ,-35, ,
2, ,-35, ,
1, ,-35, ,
1, ,-35, ,
2, ,-35, ,
1, ,-35, ,
-1, ,-35, ,
2, ,-35, ,
1, ,-35, ,
1, ,-35, ,
2, ,-35, ,
1, ,-35, ,
-1, ,-35, ,
2, ,-35, ,
1, ,-35, ,
1, ,-35, ,
2, ,-35, ,
1, ,-35, ,
-1, ,-35, ,
2, ,-35, ,
1, ,-35, ,
1, ,-35, ,
2, ,-35, ,
1, ,-35, ,
-1, ,-35, ,
2, ,-35, ,
1, ,-34, ,
1, ,-35, ,
1, ,-34, ,
1, ,-35, ,
-1, ,-35, ,
2, ,-35, ,
1, ,-35, ,
1, ,-35, ,
2, ,-35, ,
2, ,-35, ,
-1, ,-35, ,
2, ,-35, ,
1, ,-34, ,
1, ,-35, ,
1, ,-34, ,
1, ,-35, ,
-1, ,-35, ,
1, ,-35, ,
1, ,-34, ,
1, ,-35, ,
1, ,-35, ,
1, ,-35, ,
-1, ,-35, ,
2, ,-35, ,
