src/varyamp_1558/temp0002538.CSV

Format,1.0B,
Memory Length,10000,Memory Length,10000,
IntpDistance,0,IntpDistance,0,
Trigger Address,4999,Trigger Address,4999,
Trigger Level,1.040E+00,Trigger Level,1.040E+00,
Source,CH1,Source,CH2,
Vertical Units,V,Vertical Units,V,
Vertical Units Div,0,Vertical Units Div,0,
Vertical Units Extend Div,16,Vertical Units Extend Div,16,
Label,,Label,,
Probe Type,0,Probe Type,0,
Probe Ratio,1.000e+01,Probe Ratio,1.000e+00,
Vertical Scale,5.000e-01,Vertical Scale,1.000e+00,
Vertical Position,-1.820e+00,Vertical Position,0.000e+00,
Horizontal Units,S,Horizontal Units,S,
Horizontal Scale,2.000E-05,Horizontal Scale,2.000E-05,
Horizontal Position,0.000E+00,Horizontal Position,0.000E+00,
Horizontal Mode,Main,Horizontal Mode,Main,
SincET Mode,Real Time,SincET Mode,Real Time,
Sampling Period,2.000e-08,Sampling Period,2.000e-08,
Horizontal Old Scale,2.000E-05,Horizontal Old Scale,2.000E-05,
Horizontal Old Position,0.000E+00,Horizontal Old Position,0.000E+00,
Firmware,V1.23,Firmware,V1.23,
Mode,Fast,Mode,Fast,
Waveform Data,,Waveform Data,,
2, ,-32, ,
2, ,-32, ,
2, ,-32, ,
2, ,-32, ,
3, ,-32, ,
1, ,-32, ,
2, ,-32, ,
2, ,-32, ,
2, ,-32, ,
2, ,-32, ,
2, ,-32, ,
1, ,-32, ,
3, ,-32, ,
2, ,-32, ,
2, ,-32, ,
2, ,-32, ,
2, ,-32, ,
1, ,-32, ,
3, ,-32, ,
2, ,-32, ,
2, ,-32, ,
2, ,-32, ,
2, ,-32, ,
1, ,-32, ,
2, ,-32, ,
2, ,-32, ,
2, ,-32, ,
2, ,-32, ,
2, ,-32, ,
1, ,-32, ,
2, ,-32, ,
2, ,-32, ,
1, ,-32, ,
2, ,-32, ,
2, ,-32, ,
1, ,-32, ,
2, ,-32, ,
2, ,-32, ,
2, ,-32, ,
2, ,-32, ,
2, ,-32, ,
1, ,-32, ,
2, ,-32, ,
1, ,-32, ,
1, ,-32, ,
2, ,-32, ,
1, ,-32, ,
1, ,-32, ,
2, ,-32, ,
2, ,-32, ,
2, ,-32, ,
2, ,-32, ,
2, ,-32, ,
1, ,-32, ,
2, ,-32, ,
1, ,-32, ,
1, ,-32, ,
2, ,-32, ,
2, ,-32, ,
1, ,-32, ,
2, ,-32, ,
1, ,-32, ,
2, ,-32, ,
2, ,-32, ,
2, ,-32, ,
1, ,-32, ,
2, ,-32, ,
1, ,-32, ,
2, ,-32, ,
2, ,-32, ,
2, ,-32, ,
1, ,-32, ,
2, ,-32, ,
2, ,-32, ,
2, ,-32, ,
2, ,-32, ,
2, ,-32, ,
1, ,-32, ,
2, ,-32, ,
1, ,-32, ,
1, ,-32, ,
2, ,-32, ,
2, ,-32, ,
1, ,-32, ,
2, ,-32, ,
1, ,-32, ,
1, ,-32, ,
2, ,-32, ,
2, ,-32, ,
1, ,-32, ,
2, ,-32, ,
1, ,-32, ,
2, ,-32, ,
2, ,-32, ,
2, ,-32, ,
1, ,-32, ,
2, ,-32, ,
2, ,-32, ,
2, ,-32, ,
2, ,-32, ,
2, ,-32, ,
1, ,-32, ,
2, ,-32, ,
1, ,-32, ,
1, ,-32, ,
2, ,-32, ,
2, ,-32, ,
1, ,-32, ,
2, ,-32, ,
2, ,-32, ,
2, ,-32, ,
2, ,-32, ,
2, ,-32, ,
1, ,-32, ,
2, ,-32, ,
2, ,-32, ,
2, ,-32, ,
2, ,-32, ,
2, ,-32, ,
1, ,-32, ,
2, ,-32, ,
1, ,-32, ,
1, ,-32, ,
2, ,-32, ,
2, ,-32, ,
1, ,-32, ,
2, ,-32, ,
2, ,-32, ,
2, ,-32, ,
2, ,-32, ,
2, ,-32, ,
1, ,-32, ,
2, ,-32, ,
1, ,-32, ,
1, ,-32, ,
2, ,-32, ,
2, ,-32, ,
1, ,-32, ,
2, ,-32, ,
1, ,-32, ,
2, ,-32, ,
2, ,-32, ,
2, ,-32, ,
1, ,-32, ,
2, ,-32, ,
2, ,-32, ,
2, ,-32, ,
2, ,-32, ,
2, ,-32, ,
1, ,-32, ,
2, ,-32, ,
1, ,-32, ,
1, ,-32, ,
2, ,-32, ,
2, ,-32, ,
1, ,-32, ,
2, ,-32, ,
1, ,-32, ,
2, ,-32, ,
2, ,-32, ,
2, ,-32, ,
1, ,-32, ,
2, ,-32, ,
1, ,-32, ,
1, ,-32, ,
2, ,-32, ,
2, ,-32, ,
1, ,-32, ,
2, ,-32, ,
1, ,-32, ,
1, ,-32, ,
2, ,-32, ,
2, ,-32, ,
1, ,-32, ,
2, ,-32, ,
1, ,-32, ,
1, ,-32, ,
2, ,-32, ,
2, ,-32, ,
1, ,-32, ,
2, ,-32, ,
1, ,-32, ,
1, ,-32, ,
2, ,-32, ,
2, ,-32, ,
1, ,-32, ,
2, ,-32, ,
1, ,-32, ,
2, ,-32, ,
2, ,-32, ,
1, ,-32, ,
1, ,-32, ,
2, ,-32, ,
1, ,-32, ,
1, ,-32, ,
2, ,-32, ,
2, ,-32, ,
1, ,-32, ,
2, ,-32, ,
1, ,-32, ,
1, ,-32, ,
2, ,-32, ,
2, ,-32, ,
1, ,-32, ,
2, ,-32, ,
1, ,-32, ,
1, ,-32, ,
2, ,-32, ,
1, ,-32, ,
1, ,-32, ,
2, ,-32, ,
1, ,-32, ,
1, ,-32, ,
2, ,-32, ,
2, ,-32, ,
-1, ,-32, ,
1, ,-32, ,
1, ,-32, ,
1, ,-32, ,
2, ,-32, ,
2, ,-32, ,
1, ,-32, ,
2, ,-32, ,
1, ,-32, ,
1, ,-32, ,
2, ,-32, ,
1, ,-32, ,
-1, ,-32, ,
2, ,-32, ,
2, ,-32, ,
1, ,-32, ,
2, ,-32, ,
2, ,-32, ,
1, ,-32, ,
2, ,-32, ,
1, ,-32, ,
1, ,-32, ,
2, ,-32, ,
2, ,-32, ,
1, ,-32, ,
2, ,-32, ,
1, ,-32, ,
1, ,-32, ,
2, ,-32, ,
2, ,-32, ,
1, ,-32, ,
2, ,-32, ,
1, ,-32, ,
1, ,-32, ,
2, ,-32, ,
1, ,-32, ,
1, ,-32, ,
2, ,-32, ,
1, ,-32, ,
1, ,-32, ,
2, ,-32, ,
2, ,-32, ,
1, ,-32, ,
2, ,-32, ,
1, ,-32, ,
1, ,-32, ,
2, ,-32, ,
2, ,-32, ,
1, ,-32, ,
2, ,-32, ,
1, ,-32, ,
1, ,-32, ,
2, ,-32, ,
2, ,-32, ,
1, ,-32, ,
2, ,-32, ,
1, ,-32, ,
1, ,-32, ,
2, ,-32, ,
2, ,-32, ,
1, ,-32, ,
2, ,-32, ,
1, ,-32, ,
1, ,-32, ,
2, ,-32, ,
2, ,-32, ,
1, ,-32, ,
2, ,-32, ,
1, ,-32, ,
1, ,-32, ,
2, ,-32, ,
1, ,-32, ,
1, ,-32, ,
2, ,-32, ,
1, ,-32, ,
1, ,-32, ,
2, ,-32, ,
2, ,-32, ,
1, ,-32, ,
2, ,-32, ,
1, ,-32, ,
1, ,-32, ,
2, ,-32, ,
1, ,-32, ,
1, ,-32, ,
2, ,-32, ,
1, ,-32, ,
1, ,-32, ,
2, ,-32, ,
1, ,-32, ,
-1, ,-32, ,
2, ,-32, ,
1, ,-32, ,
1, ,-28, ,
2, ,-12, ,
1, ,6, ,
1, ,21, ,
2, ,31, ,
1, ,39, ,
1, ,45, ,
2, ,50, ,
1, ,52, ,
-1, ,55, ,
2, ,57, ,
1, ,58, ,
1, ,59, ,
2, ,60, ,
1, ,60, ,
-1, ,61, ,
2, ,61, ,
1, ,61, ,
1, ,61, ,
1, ,62, ,
1, ,61, ,
1, ,61, ,
2, ,62, ,
1, ,62, ,
1, ,61, ,
2, ,62, ,
1, ,61, ,
-1, ,62, ,
2, ,62, ,
1, ,62, ,
1, ,62, ,
1, ,62, ,
1, ,61, ,
-1, ,61, ,
2, ,61, ,
-1, ,62, ,
1, ,61, ,
2, ,61, ,
1, ,61, ,
-1, ,62, ,
2, ,62, ,
1, ,61, ,
52, ,62, ,
52, ,62, ,
31, ,61, ,
20, ,62, ,
15, ,61, ,
10, ,61, ,
7, ,61, ,
5, ,62, ,
3, ,61, ,
2, ,61, ,
3, ,61, ,
2, ,61, ,
2, ,61, ,
3, ,62, ,
2, ,61, ,
2, ,61, ,
3, ,61, ,
2, ,61, ,
2, ,61, ,
3, ,62, ,
2, ,60, ,
1, ,61, ,
3, ,61, ,
2, ,61, ,
2, ,61, ,
2, ,62, ,
2, ,60, ,
1, ,61, ,
3, ,61, ,
2, ,61, ,
2, ,61, ,
3, ,62, ,
2, ,61, ,
1, ,61, ,
3, ,61, ,
2, ,61, ,
2, ,61, ,
3, ,61, ,
2, ,60, ,
1, ,61, ,
3, ,61, ,
2, ,61, ,
2, ,61, ,
3, ,61, ,
2, ,60, ,
1, ,61, ,
3, ,61, ,
2, ,61, ,
2, ,61, ,
2, ,62, ,
2, ,61, ,
1, ,61, ,
3, ,61, ,
2, ,61, ,
2, ,61, ,
2, ,62, ,
2, ,60, ,
1, ,61, ,
3, ,61, ,
2, ,61, ,
2, ,61, ,
2, ,61, ,
2, ,60, ,
1, ,61, ,
3, ,61, ,
1, ,61, ,
2, ,61, ,
2, ,61, ,
2, ,60, ,
1, ,61, ,
3, ,61, ,
2, ,61, ,
2, ,61, ,
2, ,62, ,
2, ,60, ,
1, ,61, ,
2, ,61, ,
1, ,61, ,
1, ,61, ,
2, ,61, ,
2, ,61, ,
10, ,61, ,
16, ,61, ,
11, ,61, ,
8, ,61, ,
7, ,62, ,
5, ,61, ,
3, ,61, ,
5, ,61, ,
2, ,61, ,
2, ,61, ,
3, ,61, ,
2, ,61, ,
1, ,61, ,
3, ,61, ,
2, ,61, ,
2, ,61, ,
3, ,61, ,
2, ,60, ,
1, ,61, ,
3, ,61, ,
2, ,61, ,
2, ,61, ,
3, ,62, ,
2, ,60, ,
1, ,61, ,
3, ,61, ,
2, ,61, ,
2, ,61, ,
3, ,62, ,
2, ,60, ,
1, ,61, ,
3, ,61, ,
1, ,52, ,
1, ,31, ,
2, ,15, ,
2, ,3, ,
1, ,-5, ,
2, ,-13, ,
1, ,-18, ,
2, ,-21, ,
2, ,-24, ,
2, ,-26, ,
2, ,-27, ,
3, ,-30, ,
2, ,-31, ,
2, ,-31, ,
2, ,-32, ,
2, ,-32, ,
2, ,-32, ,
3, ,-32, ,
2, ,-32, ,
2, ,-32, ,
2, ,-32, ,
3, ,-32, ,
1, ,-32, ,
2, ,-32, ,
2, ,-33, ,
2, ,-32, ,
2, ,-33, ,
3, ,-32, ,
1, ,-32, ,
2, ,-32, ,
2, ,-32, ,
2, ,-32, ,
2, ,-32, ,
3, ,-32, ,
2, ,-32, ,
3, ,-32, ,
2, ,-32, ,
2, ,-32, ,
2, ,-32, ,
2, ,-32, ,
2, ,-33, ,
2, ,-32, ,
2, ,-32, ,
2, ,-32, ,
2, ,-32, ,
3, ,-32, ,
1, ,-32, ,
2, ,-32, ,
2, ,-32, ,
2, ,-32, ,
2, ,-32, ,
2, ,-32, ,
1, ,-32, ,
3, ,-32, ,
2, ,-32, ,
2, ,-32, ,
2, ,-32, ,
2, ,-32, ,
1, ,-32, ,
2, ,-32, ,
2, ,-32, ,
2, ,-32, ,
2, ,-32, ,
2, ,-32, ,
1, ,-32, ,
2, ,-32, ,
2, ,-32, ,
2, ,-32, ,
2, ,-32, ,
2, ,-32, ,
1, ,-32, ,
2, ,-32, ,
2, ,-32, ,
2, ,-32, ,
2, ,-32, ,
2, ,-32, ,
1, ,-32, ,
3, ,-32, ,
2, ,-32, ,
2, ,-32, ,
2, ,-32, ,
2, ,-32, ,
1, ,-32, ,
3, ,-32, ,
2, ,-32, ,
2, ,-32, ,
3, ,-32, ,
2, ,-32, ,
1, ,-32, ,
2, ,-32, ,
2, ,-32, ,
2, ,-32, ,
2, ,-32, ,
2, ,-32, ,
1, ,-32, ,
2, ,-32, ,
2, ,-32, ,
2, ,-32, ,
2, ,-32, ,
2, ,-32, ,
1, ,-32, ,
2, ,-32, ,
2, ,-32, ,
1, ,-32, ,
2, ,-32, ,
2, ,-32, ,
1, ,-32, ,
2, ,-32, ,
1, ,-32, ,
2, ,-32, ,
2, ,-32, ,
2, ,-32, ,
1, ,-32, ,
2, ,-32, ,
2, ,-32, ,
2, ,-32, ,
2, ,-32, ,
2, ,-32, ,
1, ,-32, ,
2, ,-32, ,
2, ,-32, ,
2, ,-32, ,
2, ,-32, ,
2, ,-32, ,
1, ,-32, ,
2, ,-32, ,
1, ,-32, ,
2, ,-32, ,
2, ,-32, ,
2, ,-32, ,
1, ,-32, ,
2, ,-32, ,
2, ,-32, ,
2, ,-32, ,
2, ,-32, ,
2, ,-32, ,
1, ,-32, ,
2, ,-32, ,
2, ,-32, ,
2, ,-32, ,
2, ,-32, ,
2, ,-32, ,
1, ,-32, ,
2, ,-32, ,
1, ,-32, ,
2, ,-32, ,
2, ,-32, ,
2, ,-32, ,
1, ,-32, ,
2, ,-32, ,
1, ,-32, ,
2, ,-31, ,
2, ,-32, ,
2, ,-32, ,
1, ,-32, ,
2, ,-32, ,
1, ,-32, ,
2, ,-32, ,
2, ,-32, ,
2, ,-32, ,
1, ,-32, ,
2, ,-32, ,
2, ,-32, ,
2, ,-32, ,
2, ,-32, ,
2, ,-32, ,
1, ,-32, ,
2, ,-32, ,
1, ,-32, ,
1, ,-32, ,
2, ,-32, ,
2, ,-31, ,
1, ,-32, ,
2, ,-32, ,
1, ,-32, ,
2, ,-32, ,
2, ,-32, ,
2, ,-32, ,
1, ,-32, ,
2, ,-32, ,
1, ,-32, ,
2, ,-32, ,
2, ,-32, ,
2, ,-32, ,
1, ,-32, ,
2, ,-32, ,
1, ,-32, ,
2, ,-32, ,
2, ,-32, ,
2, ,-32, ,
1, ,-32, ,
2, ,-32, ,
1, ,-32, ,
2, ,-32, ,
2, ,-32, ,
2, ,-32, ,
1, ,-32, ,
2, ,-32, ,
1, ,-32, ,
2, ,-32, ,
2, ,-32, ,
2, ,-32, ,
1, ,-32, ,
2, ,-32, ,
1, ,-32, ,
2, ,-32, ,
2, ,-32, ,
2, ,-32, ,
1, ,-32, ,
2, ,-32, ,
1, ,-32, ,
1, ,-31, ,
2, ,-32, ,
2, ,-32, ,
1, ,-32, ,
2, ,-32, ,
1, ,-32, ,
1, ,-32, ,
2, ,-32, ,
2, ,-32, ,
1, ,-32, ,
2, ,-32, ,
1, ,-32, ,
1, ,-32, ,
2, ,-32, ,
2, ,-32, ,
1, ,-32, ,
2, ,-32, ,
1, ,-32, ,
1, ,-32, ,
2, ,-32, ,
2, ,-32, ,
1, ,-32, ,
2, ,-32, ,
1, ,-32, ,
1, ,-32, ,
2, ,-32, ,
2, ,-32, ,
1, ,-32, ,
2, ,-32, ,
1, ,-32, ,
1, ,-32, ,
2, ,-32, ,
2, ,-31, ,
1, ,-32, ,
2, ,-32, ,
1, ,-32, ,
1, ,-32, ,
2, ,-32, ,
1, ,-32, ,
1, ,-32, ,
2, ,-32, ,
1, ,-32, ,
1, ,-32, ,
3, ,-32, ,
46, ,-32, ,
30, ,-32, ,
20, ,-32, ,
12, ,-32, ,
8, ,-32, ,
7, ,-32, ,
5, ,-32, ,
3, ,-32, ,
3, ,-32, ,
2, ,-32, ,
2, ,-32, ,
3, ,-32, ,
3, ,-32, ,
2, ,-32, ,
3, ,-32, ,
2, ,-32, ,
2, ,-32, ,
2, ,-32, ,
3, ,-32, ,
2, ,-32, ,
3, ,-32, ,
2, ,-32, ,
2, ,-32, ,
2, ,-32, ,
2, ,-32, ,
1, ,-32, ,
2, ,-32, ,
2, ,-32, ,
2, ,-31, ,
2, ,-32, ,
3, ,-32, ,
2, ,-32, ,
3, ,-32, ,
2, ,-32, ,
2, ,-32, ,
2, ,-32, ,
3, ,-32, ,
2, ,-32, ,
3, ,-32, ,
2, ,-32, ,
2, ,-32, ,
2, ,-32, ,
3, ,-32, ,
2, ,-32, ,
2, ,-32, ,
2, ,-32, ,
2, ,-32, ,
3, ,-32, ,
3, ,-32, ,
1, ,-32, ,
2, ,-32, ,
2, ,-32, ,
2, ,-32, ,
2, ,-31, ,
3, ,-32, ,
2, ,-32, ,
3, ,-32, ,
2, ,-32, ,
2, ,-31, ,
2, ,-32, ,
3, ,-32, ,
1, ,-32, ,
2, ,-32, ,
2, ,-32, ,
2, ,-32, ,
2, ,-32, ,
3, ,-32, ,
2, ,-32, ,
2, ,-32, ,
2, ,-32, ,
2, ,-32, ,
2, ,-32, ,
3, ,-32, ,
1, ,-32, ,
3, ,-32, ,
2, ,-32, ,
2, ,-32, ,
2, ,-32, ,
2, ,-32, ,
1, ,-32, ,
3, ,-32, ,
2, ,-32, ,
2, ,-32, ,
2, ,-32, ,
2, ,-32, ,
1, ,-32, ,
2, ,-32, ,
2, ,-32, ,
2, ,-31, ,
2, ,-32, ,
3, ,-32, ,
1, ,-32, ,
3, ,-32, ,
2, ,-32, ,
2, ,-32, ,
2, ,-32, ,
2, ,-32, ,
1, ,-32, ,
2, ,-32, ,
2, ,-32, ,
1, ,-32, ,
2, ,-32, ,
2, ,-32, ,
1, ,-32, ,
2, ,-32, ,
2, ,-32, ,
2, ,-32, ,
2, ,-32, ,
3, ,-32, ,
1, ,-32, ,
2, ,-32, ,
1, ,-32, ,
1, ,-32, ,
2, ,-32, ,
2, ,-32, ,
1, ,-32, ,
2, ,-32, ,
2, ,-32, ,
2, ,-32, ,
2, ,-32, ,
2, ,-32, ,
1, ,-32, ,
3, ,-32, ,
2, ,-32, ,
1, ,-32, ,
2, ,-32, ,
2, ,-32, ,
1, ,-32, ,
3, ,-32, ,
2, ,-32, ,
2, ,-32, ,
2, ,-32, ,
2, ,-32, ,
1, ,-32, ,
2, ,-32, ,
2, ,-32, ,
2, ,-32, ,
2, ,-32, ,
2, ,-32, ,
1, ,-32, ,
2, ,-32, ,
2, ,-32, ,
1, ,-32, ,
2, ,-32, ,
2, ,-32, ,
1, ,-32, ,
2, ,-32, ,
2, ,-32, ,
1, ,-32, ,
2, ,-32, ,
2, ,-32, ,
1, ,-32, ,
2, ,-32, ,
1, ,-32, ,
1, ,-32, ,
2, ,-32, ,
2, ,-31, ,
1, ,-32, ,
2, ,-32, ,
2, ,-32, ,
2, ,-32, ,
2, ,-32, ,
2, ,-32, ,
1, ,-32, ,
2, ,-32, ,
2, ,-32, ,
2, ,-32, ,
2, ,-32, ,
2, ,-32, ,
1, ,-32, ,
2, ,-32, ,
1, ,-32, ,
2, ,-32, ,
2, ,-32, ,
2, ,-32, ,
1, ,-32, ,
2, ,-32, ,
2, ,-32, ,
2, ,-32, ,
2, ,-32, ,
2, ,-32, ,
1, ,-32, ,
2, ,-32, ,
2, ,-32, ,
1, ,-32, ,
2, ,-32, ,
2, ,-32, ,
1, ,-32, ,
2, ,-32, ,
1, ,-32, ,
1, ,-32, ,
2, ,-32, ,
2, ,-32, ,
1, ,-32, ,
2, ,-32, ,
2, ,-32, ,
2, ,-32, ,
2, ,-32, ,
2, ,-32, ,
1, ,-32, ,
2, ,-32, ,
2, ,-32, ,
2, ,-32, ,
2, ,-32, ,
2, ,-32, ,
1, ,-32, ,
2, ,-32, ,
1, ,-32, ,
1, ,-32, ,
2, ,-32, ,
2, ,-32, ,
1, ,-32, ,
2, ,-32, ,
1, ,-32, ,
2, ,-32, ,
2, ,-32, ,
2, ,-32, ,
1, ,-32, ,
2, ,-32, ,
2, ,-32, ,
2, ,-32, ,
2, ,-32, ,
2, ,-32, ,
1, ,-32, ,
2, ,-32, ,
1, ,-32, ,
1, ,-32, ,
2, ,-32, ,
2, ,-32, ,
1, ,-32, ,
2, ,-32, ,
1, ,-32, ,
2, ,-32, ,
2, ,-32, ,
2, ,-32, ,
1, ,-32, ,
2, ,-32, ,
1, ,-32, ,
2, ,-32, ,
2, ,-32, ,
2, ,-32, ,
1, ,-32, ,
2, ,-32, ,
1, ,-32, ,
1, ,-32, ,
2, ,-32, ,
2, ,-32, ,
1, ,-32, ,
2, ,-32, ,
1, ,-32, ,
1, ,-32, ,
2, ,-32, ,
2, ,-32, ,
1, ,-32, ,
2, ,-32, ,
1, ,-32, ,
2, ,-32, ,
2, ,-32, ,
2, ,-32, ,
1, ,-32, ,
2, ,-32, ,
1, ,-32, ,
1, ,-32, ,
2, ,-32, ,
1, ,-32, ,
1, ,-32, ,
2, ,-32, ,
1, ,-32, ,
1, ,-32, ,
2, ,-32, ,
2, ,-32, ,
1, ,-32, ,
2, ,-32, ,
1, ,-32, ,
1, ,-32, ,
2, ,-32, ,
1, ,-32, ,
-1, ,-32, ,
2, ,-32, ,
1, ,-32, ,
1, ,-32, ,
2, ,-32, ,
2, ,-32, ,
1, ,-32, ,
2, ,-32, ,
1, ,-32, ,
1, ,-32, ,
2, ,-32, ,
1, ,-32, ,
1, ,-32, ,
2, ,-32, ,
1, ,-32, ,
1, ,-32, ,
2, ,-32, ,
2, ,-32, ,
1, ,-32, ,
2, ,-32, ,
1, ,-32, ,
1, ,-32, ,
2, ,-32, ,
2, ,-32, ,
1, ,-32, ,
2, ,-32, ,
1, ,-32, ,
1, ,-32, ,
2, ,-32, ,
1, ,-32, ,
1, ,-32, ,
2, ,-32, ,
1, ,-32, ,
1, ,-32, ,
2, ,-32, ,
1, ,-32, ,
1, ,-32, ,
2, ,-32, ,
1, ,-32, ,
1, ,-32, ,
2, ,-32, ,
1, ,-32, ,
1, ,-32, ,
2, ,-32, ,
1, ,-32, ,
1, ,-32, ,
2, ,-32, ,
2, ,-32, ,
1, ,-32, ,
2, ,-32, ,
1, ,-32, ,
1, ,-32, ,
2, ,-32, ,
2, ,-32, ,
1, ,-32, ,
2, ,-32, ,
1, ,-32, ,
1, ,-32, ,
2, ,-32, ,
2, ,-32, ,
-1, ,-32, ,
2, ,-32, ,
1, ,-32, ,
1, ,-32, ,
2, ,-32, ,
1, ,-32, ,
1, ,-32, ,
2, ,-32, ,
1, ,-32, ,
1, ,-32, ,
2, ,-32, ,
1, ,-32, ,
1, ,-32, ,
2, ,-32, ,
1, ,-32, ,
1, ,-32, ,
2, ,-32, ,
2, ,-32, ,
1, ,-32, ,
2, ,-32, ,
1, ,-32, ,
2, ,-32, ,
2, ,-32, ,
1, ,-32, ,
1, ,-32, ,
2, ,-32, ,
1, ,-32, ,
1, ,-32, ,
2, ,-32, ,
2, ,-32, ,
1, ,-32, ,
2, ,-32, ,
1, ,-32, ,
1, ,-32, ,
2, ,-31, ,
2, ,-17, ,
1, ,2, ,
2, ,18, ,
1, ,28, ,
1, ,37, ,
2, ,43, ,
2, ,47, ,
1, ,52, ,
2, ,55, ,
1, ,56, ,
1, ,58, ,
2, ,59, ,
1, ,59, ,
1, ,60, ,
2, ,61, ,
1, ,61, ,
1, ,61, ,
2, ,62, ,
1, ,61, ,
1, ,61, ,
2, ,61, ,
1, ,61, ,
1, ,61, ,
1, ,62, ,
1, ,61, ,
1, ,62, ,
2, ,62, ,
1, ,61, ,
1, ,61, ,
2, ,62, ,
1, ,61, ,
-1, ,61, ,
2, ,61, ,
1, ,62, ,
1, ,61, ,
2, ,62, ,
1, ,61, ,
-1, ,61, ,
2, ,61, ,
1, ,61, ,
1, ,61, ,
1, ,62, ,
40, ,61, ,
49, ,61, ,
31, ,61, ,
20, ,61, ,
13, ,62, ,
10, ,62, ,
7, ,61, ,
5, ,61, ,
6, ,61, ,
3, ,61, ,
2, ,61, ,
2, ,62, ,
2, ,61, ,
1, ,61, ,
3, ,61, ,
1, ,61, ,
2, ,61, ,
3, ,62, ,
2, ,61, ,
1, ,61, ,
3, ,61, ,
2, ,61, ,
2, ,61, ,
2, ,62, ,
2, ,60, ,
1, ,61, ,
3, ,61, ,
2, ,61, ,
2, ,61, ,
2, ,61, ,
2, ,60, ,
1, ,61, ,
3, ,61, ,
2, ,61, ,
1, ,61, ,
2, ,62, ,
2, ,60, ,
1, ,61, ,
3, ,61, ,
2, ,61, ,
2, ,61, ,
2, ,62, ,
2, ,61, ,
1, ,61, ,
3, ,61, ,
2, ,61, ,
2, ,61, ,
2, ,62, ,
2, ,60, ,
1, ,61, ,
3, ,61, ,
2, ,61, ,
2, ,61, ,
2, ,61, ,
2, ,61, ,
1, ,61, ,
3, ,61, ,
2, ,61, ,
2, ,61, ,
2, ,62, ,
2, ,60, ,
1, ,61, ,
3, ,61, ,
2, ,61, ,
2, ,61, ,
2, ,61, ,
2, ,60, ,
1, ,61, ,
3, ,61, ,
2, ,61, ,
2, ,61, ,
2, ,61, ,
2, ,61, ,
1, ,61, ,
3, ,62, ,
2, ,60, ,
2, ,61, ,
15, ,62, ,
12, ,61, ,
8, ,61, ,
8, ,61, ,
6, ,61, ,
5, ,61, ,
5, ,61, ,
3, ,60, ,
2, ,61, ,
5, ,61, ,
2, ,61, ,
2, ,61, ,
3, ,62, ,
2, ,61, ,
2, ,61, ,
3, ,61, ,
2, ,61, ,
2, ,61, ,
3, ,62, ,
2, ,61, ,
2, ,61, ,
3, ,61, ,
2, ,61, ,
2, ,61, ,
3, ,61, ,
2, ,60, ,
2, ,61, ,
3, ,61, ,
2, ,61, ,
2, ,61, ,
2, ,62, ,
2, ,60, ,
1, ,61, ,
3, ,61, ,
2, ,61, ,
2, ,55, ,
3, ,36, ,
2, ,19, ,
1, ,5, ,
3, ,-4, ,
2, ,-12, ,
2, ,-17, ,
3, ,-20, ,
2, ,-23, ,
1, ,-26, ,
3, ,-27, ,
2, ,-28, ,
2, ,-30, ,
3, ,-31, ,
3, ,-31, ,
1, ,-32, ,
3, ,-32, ,
2, ,-32, ,
2, ,-32, ,
3, ,-32, ,
2, ,-33, ,
2, ,-33, ,
2, ,-32, ,
2, ,-33, ,
2, ,-32, ,
2, ,-33, ,
2, ,-32, ,
1, ,-33, ,
3, ,-32, ,
2, ,-32, ,
2, ,-33, ,
2, ,-32, ,
3, ,-32, ,
1, ,-32, ,
3, ,-32, ,
2, ,-32, ,
2, ,-32, ,
2, ,-32, ,
2, ,-32, ,
1, ,-32, ,
3, ,-32, ,
2, ,-32, ,
2, ,-32, ,
2, ,-32, ,
2, ,-32, ,
1, ,-32, ,
3, ,-32, ,
1, ,-32, ,
2, ,-32, ,
2, ,-32, ,
2, ,-32, ,
1, ,-32, ,
2, ,-32, ,
2, ,-32, ,
2, ,-32, ,
2, ,-32, ,
3, ,-32, ,
2, ,-32, ,
3, ,-32, ,
2, ,-32, ,
2, ,-32, ,
2, ,-32, ,
2, ,-32, ,
1, ,-32, ,
2, ,-32, ,
2, ,-32, ,
2, ,-32, ,
2, ,-32, ,
2, ,-32, ,
1, ,-32, ,
2, ,-32, ,
2, ,-32, ,
2, ,-32, ,
3, ,-32, ,
2, ,-32, ,
1, ,-32, ,
2, ,-32, ,
2, ,-32, ,
2, ,-32, ,
2, ,-32, ,
2, ,-32, ,
2, ,-32, ,
3, ,-32, ,
2, ,-32, ,
2, ,-32, ,
2, ,-32, ,
2, ,-32, ,
1, ,-32, ,
2, ,-32, ,
2, ,-32, ,
2, ,-32, ,
2, ,-32, ,
2, ,-32, ,
1, ,-32, ,
3, ,-32, ,
2, ,-32, ,
2, ,-32, ,
2, ,-32, ,
2, ,-32, ,
1, ,-32, ,
3, ,-32, ,
2, ,-32, ,
2, ,-32, ,
2, ,-32, ,
2, ,-32, ,
1, ,-32, ,
2, ,-32, ,
2, ,-32, ,
2, ,-32, ,
2, ,-32, ,
2, ,-32, ,
1, ,-32, ,
3, ,-32, ,
2, ,-32, ,
2, ,-32, ,
2, ,-32, ,
2, ,-32, ,
1, ,-32, ,
3, ,-32, ,
1, ,-32, ,
2, ,-32, ,
2, ,-32, ,
2, ,-32, ,
1, ,-32, ,
2, ,-32, ,
2, ,-32, ,
2, ,-32, ,
2, ,-32, ,
2, ,-32, ,
1, ,-32, ,
2, ,-32, ,
2, ,-32, ,
1, ,-32, ,
2, ,-32, ,
2, ,-32, ,
1, ,-32, ,
2, ,-32, ,
2, ,-32, ,
1, ,-32, ,
2, ,-32, ,
2, ,-32, ,
1, ,-32, ,
2, ,-32, ,
1, ,-32, ,
1, ,-32, ,
2, ,-32, ,
2, ,-32, ,
1, ,-32, ,
2, ,-32, ,
1, ,-32, ,
2, ,-32, ,
2, ,-32, ,
2, ,-32, ,
1, ,-32, ,
2, ,-32, ,
1, ,-32, ,
2, ,-32, ,
2, ,-32, ,
2, ,-32, ,
1, ,-32, ,
2, ,-32, ,
1, ,-32, ,
2, ,-32, ,
2, ,-32, ,
2, ,-32, ,
1, ,-32, ,
2, ,-32, ,
1, ,-32, ,
2, ,-32, ,
2, ,-32, ,
2, ,-32, ,
1, ,-32, ,
2, ,-32, ,
2, ,-32, ,
1, ,-32, ,
2, ,-32, ,
2, ,-32, ,
1, ,-32, ,
2, ,-32, ,
1, ,-32, ,
1, ,-32, ,
2, ,-32, ,
2, ,-32, ,
1, ,-32, ,
2, ,-32, ,
2, ,-32, ,
1, ,-32, ,
2, ,-32, ,
2, ,-32, ,
1, ,-32, ,
2, ,-32, ,
1, ,-32, ,
1, ,-32, ,
2, ,-32, ,
2, ,-32, ,
1, ,-32, ,
2, ,-32, ,
1, ,-32, ,
2, ,-32, ,
2, ,-32, ,
2, ,-32, ,
1, ,-32, ,
2, ,-32, ,
1, ,-32, ,
2, ,-32, ,
2, ,-32, ,
2, ,-32, ,
1, ,-32, ,
2, ,-32, ,
1, ,-32, ,
2, ,-32, ,
2, ,-32, ,
2, ,-32, ,
1, ,-32, ,
2, ,-32, ,
1, ,-32, ,
1, ,-32, ,
2, ,-32, ,
2, ,-32, ,
1, ,-32, ,
2, ,-32, ,
2, ,-32, ,
1, ,-32, ,
2, ,-32, ,
2, ,-32, ,
1, ,-32, ,
2, ,-32, ,
1, ,-32, ,
1, ,-32, ,
2, ,-32, ,
2, ,-32, ,
1, ,-32, ,
2, ,-32, ,
1, ,-31, ,
1, ,-32, ,
2, ,-32, ,
2, ,-32, ,
1, ,-32, ,
2, ,-32, ,
1, ,-32, ,
1, ,-32, ,
2, ,-32, ,
2, ,-32, ,
1, ,-32, ,
2, ,-32, ,
1, ,-32, ,
2, ,-32, ,
2, ,-32, ,
2, ,-32, ,
1, ,-32, ,
2, ,-32, ,
40, ,-32, ,
39, ,-32, ,
25, ,-32, ,
16, ,-32, ,
10, ,-32, ,
8, ,-32, ,
6, ,-32, ,
5, ,-32, ,
5, ,-32, ,
3, ,-32, ,
2, ,-32, ,
3, ,-32, ,
2, ,-32, ,
2, ,-32, ,
2, ,-32, ,
2, ,-32, ,
2, ,-32, ,
3, ,-32, ,
2, ,-32, ,
2, ,-32, ,
2, ,-32, ,
2, ,-32, ,
2, ,-32, ,
3, ,-32, ,
2, ,-32, ,
2, ,-32, ,
2, ,-32, ,
3, ,-32, ,
1, ,-32, ,
2, ,-32, ,
2, ,-32, ,
2, ,-31, ,
2, ,-32, ,
2, ,-32, ,
2, ,-32, ,
3, ,-32, ,
2, ,-32, ,
2, ,-32, ,
2, ,-32, ,
3, ,-32, ,
1, ,-32, ,
2, ,-32, ,
2, ,-32, ,
2, ,-32, ,
2, ,-32, ,
3, ,-32, ,
1, ,-32, ,
3, ,-32, ,
2, ,-32, ,
2, ,-32, ,
2, ,-32, ,
2, ,-32, ,
2, ,-32, ,
3, ,-32, ,
2, ,-32, ,
2, ,-32, ,
2, ,-32, ,
2, ,-32, ,
1, ,-32, ,
2, ,-32, ,
2, ,-32, ,
2, ,-32, ,
2, ,-32, ,
3, ,-32, ,
2, ,-32, ,
2, ,-32, ,
2, ,-31, ,
2, ,-32, ,
2, ,-32, ,
2, ,-32, ,
1, ,-32, ,
2, ,-32, ,
2, ,-32, ,
2, ,-32, ,
2, ,-32, ,
3, ,-32, ,
2, ,-32, ,
3, ,-32, ,
2, ,-32, ,
2, ,-32, ,
2, ,-32, ,
2, ,-32, ,
1, ,-32, ,
2, ,-32, ,
2, ,-32, ,
2, ,-32, ,
2, ,-32, ,
2, ,-32, ,
1, ,-32, ,
3, ,-32, ,
2, ,-32, ,
2, ,-32, ,
2, ,-32, ,
2, ,-32, ,
1, ,-32, ,
3, ,-32, ,
2, ,-32, ,
2, ,-32, ,
2, ,-32, ,
2, ,-32, ,
1, ,-32, ,
2, ,-32, ,
2, ,-32, ,
2, ,-32, ,
2, ,-32, ,
2, ,-32, ,
1, ,-32, ,
2, ,-32, ,
2, ,-32, ,
2, ,-32, ,
2, ,-32, ,
2, ,-32, ,
1, ,-32, ,
3, ,-32, ,
2, ,-32, ,
2, ,-32, ,
2, ,-32, ,
2, ,-32, ,
1, ,-32, ,
3, ,-32, ,
2, ,-32, ,
1, ,-32, ,
2, ,-32, ,
2, ,-32, ,
1, ,-32, ,
3, ,-32, ,
2, ,-32, ,
2, ,-32, ,
2, ,-32, ,
2, ,-32, ,
1, ,-32, ,
3, ,-32, ,
1, ,-32, ,
2, ,-32, ,
2, ,-32, ,
2, ,-32, ,
1, ,-32, ,
3, ,-32, ,
2, ,-32, ,
2, ,-32, ,
2, ,-32, ,
2, ,-32, ,
1, ,-32, ,
2, ,-32, ,
1, ,-32, ,
2, ,-32, ,
2, ,-32, ,
2, ,-32, ,
1, ,-32, ,
2, ,-32, ,
2, ,-32, ,
2, ,-32, ,
2, ,-32, ,
2, ,-32, ,
1, ,-32, ,
2, ,-32, ,
2, ,-32, ,
1, ,-32, ,
2, ,-32, ,
2, ,-32, ,
1, ,-32, ,
2, ,-32, ,
1, ,-32, ,
1, ,-32, ,
2, ,-32, ,
2, ,-32, ,
1, ,-32, ,
2, ,-32, ,
1, ,-32, ,
2, ,-32, ,
2, ,-32, ,
2, ,-32, ,
1, ,-32, ,
2, ,-32, ,
2, ,-32, ,
2, ,-32, ,
2, ,-32, ,
2, ,-32, ,
1, ,-32, ,
2, ,-32, ,
2, ,-32, ,
1, ,-32, ,
2, ,-32, ,
2, ,-32, ,
1, ,-32, ,
2, ,-32, ,
1, ,-32, ,
1, ,-31, ,
2, ,-32, ,
2, ,-32, ,
1, ,-32, ,
2, ,-32, ,
1, ,-32, ,
2, ,-32, ,
2, ,-32, ,
2, ,-32, ,
1, ,-32, ,
2, ,-32, ,
1, ,-32, ,
2, ,-31, ,
2, ,-32, ,
2, ,-32, ,
1, ,-32, ,
2, ,-32, ,
1, ,-32, ,
2, ,-32, ,
2, ,-32, ,
2, ,-32, ,
1, ,-32, ,
2, ,-32, ,
1, ,-32, ,
1, ,-32, ,
2, ,-32, ,
2, ,-32, ,
1, ,-32, ,
2, ,-32, ,
1, ,-32, ,
2, ,-32, ,
2, ,-32, ,
2, ,-32, ,
1, ,-32, ,
2, ,-32, ,
1, ,-32, ,
2, ,-32, ,
2, ,-32, ,
2, ,-32, ,
1, ,-32, ,
2, ,-32, ,
1, ,-32, ,
2, ,-32, ,
2, ,-32, ,
2, ,-32, ,
1, ,-32, ,
2, ,-32, ,
1, ,-32, ,
2, ,-32, ,
2, ,-32, ,
2, ,-32, ,
1, ,-32, ,
2, ,-32, ,
1, ,-32, ,
1, ,-32, ,
2, ,-32, ,
1, ,-32, ,
1, ,-32, ,
2, ,-32, ,
1, ,-32, ,
1, ,-32, ,
2, ,-32, ,
2, ,-32, ,
1, ,-32, ,
2, ,-32, ,
1, ,-32, ,
