src/varyamp_1558/temp0004126.CSV

Format,1.0B,
Memory Length,10000,Memory Length,10000,
IntpDistance,0,IntpDistance,0,
Trigger Address,4999,Trigger Address,4999,
Trigger Level,1.040E+00,Trigger Level,1.040E+00,
Source,CH1,Source,CH2,
Vertical Units,V,Vertical Units,V,
Vertical Units Div,0,Vertical Units Div,0,
Vertical Units Extend Div,16,Vertical Units Extend Div,16,
Label,,Label,,
Probe Type,0,Probe Type,0,
Probe Ratio,1.000e+01,Probe Ratio,1.000e+00,
Vertical Scale,5.000e-01,Vertical Scale,1.000e+00,
Vertical Position,-1.820e+00,Vertical Position,0.000e+00,
Horizontal Units,S,Horizontal Units,S,
Horizontal Scale,2.000E-05,Horizontal Scale,2.000E-05,
Horizontal Position,0.000E+00,Horizontal Position,0.000E+00,
Horizontal Mode,Main,Horizontal Mode,Main,
SincET Mode,Real Time,SincET Mode,Real Time,
Sampling Period,2.000e-08,Sampling Period,2.000e-08,
Horizontal Old Scale,2.000E-05,Horizontal Old Scale,2.000E-05,
Horizontal Old Position,0.000E+00,Horizontal Old Position,0.000E+00,
Firmware,V1.23,Firmware,V1.23,
Mode,Fast,Mode,Fast,
Waveform Data,,Waveform Data,,
2, ,-38, ,
1, ,-37, ,
1, ,-38, ,
1, ,-38, ,
1, ,-38, ,
-1, ,-37, ,
2, ,-38, ,
-1, ,-37, ,
1, ,-38, ,
1, ,-38, ,
2, ,-38, ,
-1, ,-37, ,
2, ,-38, ,
1, ,-37, ,
1, ,-38, ,
1, ,-38, ,
2, ,-37, ,
-1, ,-37, ,
2, ,-38, ,
1, ,-37, ,
1, ,-38, ,
2, ,-38, ,
1, ,-38, ,
-1, ,-37, ,
2, ,-38, ,
1, ,-37, ,
1, ,-37, ,
1, ,-38, ,
1, ,-38, ,
-1, ,-37, ,
2, ,-38, ,
-1, ,-37, ,
1, ,-38, ,
1, ,-38, ,
2, ,-38, ,
-1, ,-37, ,
2, ,-38, ,
1, ,-37, ,
1, ,-38, ,
2, ,-38, ,
1, ,-38, ,
-1, ,-38, ,
2, ,-38, ,
1, ,-37, ,
1, ,-38, ,
2, ,-38, ,
1, ,-38, ,
-1, ,-37, ,
2, ,-38, ,
1, ,-37, ,
-1, ,-38, ,
1, ,-38, ,
1, ,-38, ,
-1, ,-38, ,
2, ,-38, ,
1, ,-37, ,
1, ,-38, ,
1, ,-38, ,
1, ,-37, ,
-1, ,-37, ,
2, ,-38, ,
1, ,-38, ,
1, ,-38, ,
2, ,-38, ,
2, ,-38, ,
-1, ,-38, ,
2, ,-38, ,
1, ,-37, ,
1, ,-38, ,
1, ,-38, ,
1, ,-38, ,
-1, ,-37, ,
2, ,-38, ,
1, ,-38, ,
1, ,-37, ,
1, ,-38, ,
2, ,-38, ,
-1, ,-37, ,
2, ,-38, ,
-1, ,-38, ,
1, ,-38, ,
1, ,-38, ,
1, ,-38, ,
-1, ,-37, ,
2, ,-38, ,
-1, ,-37, ,
1, ,-38, ,
2, ,-38, ,
1, ,-37, ,
-1, ,-37, ,
2, ,-38, ,
1, ,-38, ,
1, ,-38, ,
1, ,-38, ,
1, ,-38, ,
-1, ,-37, ,
2, ,-38, ,
1, ,-37, ,
1, ,-38, ,
1, ,-38, ,
1, ,-38, ,
-1, ,-37, ,
2, ,-38, ,
1, ,-37, ,
1, ,-38, ,
1, ,-38, ,
1, ,-38, ,
-1, ,-37, ,
2, ,-38, ,
1, ,-37, ,
1, ,-38, ,
1, ,-38, ,
1, ,-38, ,
-1, ,-37, ,
2, ,-38, ,
-1, ,-37, ,
1, ,-37, ,
1, ,-38, ,
1, ,-37, ,
-1, ,-37, ,
2, ,-38, ,
1, ,-38, ,
1, ,-38, ,
1, ,-38, ,
1, ,-38, ,
-1, ,-37, ,
2, ,-38, ,
1, ,-37, ,
1, ,-38, ,
1, ,-38, ,
1, ,-38, ,
-1, ,-37, ,
2, ,-38, ,
1, ,-37, ,
1, ,-38, ,
2, ,-38, ,
1, ,-37, ,
-1, ,-37, ,
2, ,-38, ,
-1, ,-37, ,
1, ,-38, ,
1, ,-38, ,
1, ,-37, ,
-1, ,-37, ,
1, ,-38, ,
1, ,-37, ,
-1, ,-37, ,
1, ,-38, ,
1, ,-38, ,
-1, ,-38, ,
2, ,-38, ,
-1, ,-38, ,
1, ,-38, ,
1, ,-38, ,
2, ,-38, ,
-1, ,-37, ,
2, ,-38, ,
1, ,-37, ,
1, ,-38, ,
1, ,-38, ,
1, ,-38, ,
-1, ,-37, ,
2, ,-38, ,
-1, ,-37, ,
1, ,-38, ,
2, ,-38, ,
1, ,-38, ,
-1, ,-37, ,
2, ,-38, ,
1, ,-37, ,
1, ,-38, ,
1, ,-38, ,
1, ,-38, ,
-1, ,-38, ,
2, ,-38, ,
1, ,-37, ,
1, ,-38, ,
1, ,-38, ,
1, ,-38, ,
-1, ,-37, ,
2, ,-38, ,
-1, ,-37, ,
1, ,-38, ,
1, ,-38, ,
1, ,-38, ,
-1, ,-38, ,
1, ,-38, ,
-1, ,-37, ,
-1, ,-38, ,
1, ,-38, ,
1, ,-37, ,
-1, ,-37, ,
2, ,-38, ,
-1, ,-38, ,
-1, ,-38, ,
1, ,-38, ,
1, ,-38, ,
-1, ,-37, ,
2, ,-38, ,
-1, ,-37, ,
-1, ,-38, ,
1, ,-38, ,
1, ,-37, ,
-1, ,-37, ,
1, ,-38, ,
-1, ,-38, ,
-1, ,-38, ,
1, ,-38, ,
1, ,-38, ,
-1, ,-37, ,
1, ,-38, ,
-1, ,-37, ,
1, ,-38, ,
1, ,-38, ,
1, ,-38, ,
-1, ,-37, ,
1, ,-38, ,
-1, ,-37, ,
-1, ,-38, ,
1, ,-38, ,
1, ,-38, ,
-1, ,-37, ,
2, ,-38, ,
-1, ,-37, ,
-1, ,-38, ,
1, ,-38, ,
1, ,-38, ,
-1, ,-37, ,
1, ,-38, ,
-1, ,-37, ,
1, ,-37, ,
1, ,-38, ,
1, ,-38, ,
-1, ,-38, ,
2, ,-38, ,
1, ,-38, ,
-1, ,-38, ,
1, ,-38, ,
1, ,-38, ,
-1, ,-37, ,
1, ,-38, ,
1, ,-37, ,
1, ,-38, ,
1, ,-38, ,
1, ,-38, ,
-1, ,-38, ,
2, ,-38, ,
-1, ,-38, ,
1, ,-38, ,
1, ,-38, ,
2, ,-38, ,
-1, ,-37, ,
2, ,-38, ,
-1, ,-37, ,
-1, ,-37, ,
1, ,-38, ,
1, ,-37, ,
-1, ,-37, ,
2, ,-38, ,
1, ,-37, ,
1, ,-38, ,
1, ,-38, ,
1, ,-38, ,
-1, ,-37, ,
2, ,-38, ,
-1, ,-37, ,
1, ,-38, ,
1, ,-38, ,
1, ,-38, ,
-1, ,-37, ,
2, ,-38, ,
-1, ,-38, ,
1, ,-38, ,
2, ,-38, ,
1, ,-37, ,
-1, ,-37, ,
2, ,-38, ,
-1, ,-37, ,
-1, ,-38, ,
1, ,-38, ,
1, ,-38, ,
-1, ,-38, ,
2, ,-38, ,
-1, ,-37, ,
-1, ,-38, ,
1, ,-38, ,
1, ,-38, ,
-1, ,-37, ,
2, ,-38, ,
-1, ,-37, ,
1, ,-38, ,
1, ,-38, ,
1, ,-38, ,
-1, ,-37, ,
2, ,-38, ,
1, ,-37, ,
-1, ,-38, ,
1, ,-38, ,
1, ,-38, ,
-1, ,-37, ,
2, ,-38, ,
1, ,-37, ,
1, ,-38, ,
1, ,-38, ,
1, ,-38, ,
-1, ,-38, ,
1, ,-38, ,
-1, ,-35, ,
1, ,-18, ,
72, ,0, ,
45, ,15, ,
26, ,25, ,
18, ,34, ,
11, ,38, ,
8, ,43, ,
7, ,47, ,
5, ,49, ,
3, ,51, ,
5, ,53, ,
2, ,53, ,
2, ,54, ,
3, ,55, ,
2, ,55, ,
2, ,55, ,
3, ,57, ,
2, ,54, ,
1, ,56, ,
3, ,57, ,
2, ,55, ,
2, ,56, ,
3, ,56, ,
2, ,55, ,
2, ,56, ,
2, ,57, ,
2, ,56, ,
1, ,56, ,
3, ,56, ,
2, ,55, ,
2, ,56, ,
2, ,57, ,
2, ,56, ,
1, ,55, ,
3, ,56, ,
2, ,55, ,
2, ,56, ,
2, ,56, ,
2, ,55, ,
1, ,56, ,
3, ,57, ,
2, ,55, ,
2, ,56, ,
2, ,57, ,
2, ,55, ,
1, ,56, ,
3, ,56, ,
2, ,55, ,
2, ,56, ,
3, ,56, ,
2, ,55, ,
2, ,56, ,
3, ,56, ,
2, ,55, ,
1, ,56, ,
2, ,56, ,
2, ,55, ,
2, ,55, ,
3, ,56, ,
2, ,55, ,
1, ,56, ,
3, ,57, ,
2, ,55, ,
1, ,55, ,
3, ,56, ,
2, ,55, ,
2, ,56, ,
3, ,57, ,
2, ,55, ,
1, ,55, ,
3, ,56, ,
2, ,56, ,
1, ,56, ,
3, ,56, ,
2, ,55, ,
1, ,55, ,
3, ,56, ,
2, ,55, ,
1, ,55, ,
2, ,57, ,
2, ,55, ,
1, ,55, ,
2, ,56, ,
2, ,55, ,
1, ,56, ,
3, ,56, ,
2, ,55, ,
1, ,55, ,
2, ,56, ,
2, ,55, ,
2, ,55, ,
2, ,56, ,
2, ,55, ,
1, ,55, ,
3, ,56, ,
2, ,55, ,
1, ,55, ,
2, ,56, ,
2, ,55, ,
1, ,55, ,
3, ,56, ,
2, ,55, ,
2, ,55, ,
2, ,57, ,
2, ,55, ,
1, ,55, ,
2, ,56, ,
2, ,55, ,
1, ,55, ,
2, ,56, ,
2, ,55, ,
1, ,55, ,
2, ,56, ,
2, ,55, ,
1, ,55, ,
2, ,57, ,
2, ,55, ,
1, ,55, ,
2, ,56, ,
2, ,55, ,
1, ,55, ,
2, ,56, ,
2, ,55, ,
1, ,55, ,
2, ,56, ,
1, ,55, ,
1, ,55, ,
2, ,57, ,
1, ,55, ,
1, ,55, ,
2, ,56, ,
1, ,55, ,
2, ,55, ,
2, ,56, ,
2, ,55, ,
1, ,55, ,
2, ,56, ,
2, ,54, ,
1, ,55, ,
2, ,57, ,
2, ,55, ,
1, ,55, ,
2, ,56, ,
2, ,55, ,
1, ,55, ,
2, ,56, ,
1, ,55, ,
1, ,55, ,
2, ,56, ,
1, ,55, ,
1, ,55, ,
2, ,57, ,
1, ,55, ,
1, ,55, ,
2, ,44, ,
1, ,24, ,
1, ,8, ,
2, ,-3, ,
1, ,-13, ,
1, ,-19, ,
2, ,-24, ,
2, ,-27, ,
1, ,-31, ,
2, ,-33, ,
2, ,-35, ,
1, ,-35, ,
2, ,-36, ,
1, ,-37, ,
1, ,-37, ,
2, ,-38, ,
2, ,-38, ,
1, ,-38, ,
2, ,-38, ,
1, ,-38, ,
2, ,-38, ,
2, ,-39, ,
2, ,-38, ,
1, ,-38, ,
2, ,-39, ,
1, ,-38, ,
2, ,-38, ,
2, ,-39, ,
2, ,-38, ,
1, ,-38, ,
2, ,-38, ,
1, ,-38, ,
2, ,-38, ,
2, ,-39, ,
2, ,-38, ,
1, ,-38, ,
2, ,-38, ,
1, ,-38, ,
1, ,-38, ,
2, ,-38, ,
2, ,-38, ,
1, ,-38, ,
2, ,-38, ,
1, ,-38, ,
2, ,-38, ,
2, ,-38, ,
1, ,-38, ,
1, ,-38, ,
2, ,-38, ,
1, ,-37, ,
1, ,-38, ,
2, ,-38, ,
2, ,-38, ,
1, ,-38, ,
2, ,-38, ,
1, ,-38, ,
1, ,-38, ,
2, ,-38, ,
2, ,-38, ,
1, ,-38, ,
2, ,-38, ,
1, ,-37, ,
1, ,-38, ,
2, ,-38, ,
2, ,-38, ,
-1, ,-37, ,
2, ,-38, ,
1, ,-38, ,
1, ,-38, ,
2, ,-38, ,
2, ,-38, ,
1, ,-38, ,
2, ,-38, ,
1, ,-37, ,
1, ,-38, ,
2, ,-38, ,
1, ,-38, ,
1, ,-37, ,
2, ,-38, ,
1, ,-37, ,
1, ,-38, ,
2, ,-38, ,
2, ,-38, ,
1, ,-38, ,
2, ,-38, ,
1, ,-37, ,
1, ,-38, ,
2, ,-38, ,
2, ,-38, ,
1, ,-37, ,
2, ,-38, ,
1, ,-37, ,
2, ,-38, ,
2, ,-38, ,
2, ,-38, ,
1, ,-38, ,
2, ,-38, ,
1, ,-37, ,
1, ,-38, ,
2, ,-38, ,
2, ,-38, ,
-1, ,-37, ,
2, ,-38, ,
1, ,-38, ,
1, ,-38, ,
2, ,-38, ,
1, ,-38, ,
1, ,-38, ,
2, ,-38, ,
1, ,-37, ,
1, ,-37, ,
2, ,-38, ,
1, ,-38, ,
1, ,-37, ,
2, ,-38, ,
1, ,-37, ,
1, ,-38, ,
2, ,-38, ,
1, ,-38, ,
1, ,-37, ,
2, ,-38, ,
1, ,-37, ,
1, ,-37, ,
2, ,-38, ,
1, ,-38, ,
1, ,-37, ,
2, ,-38, ,
1, ,-38, ,
1, ,-38, ,
2, ,-38, ,
1, ,-38, ,
-1, ,-37, ,
2, ,-38, ,
1, ,-37, ,
1, ,-38, ,
2, ,-38, ,
1, ,-38, ,
-1, ,-37, ,
2, ,-38, ,
1, ,-37, ,
1, ,-38, ,
1, ,-38, ,
1, ,-38, ,
1, ,-38, ,
2, ,-38, ,
1, ,-37, ,
1, ,-38, ,
2, ,-38, ,
2, ,-37, ,
-1, ,-37, ,
2, ,-38, ,
1, ,-37, ,
1, ,-38, ,
2, ,-38, ,
1, ,-38, ,
1, ,-37, ,
2, ,-38, ,
1, ,-37, ,
1, ,-38, ,
2, ,-38, ,
2, ,-38, ,
1, ,-37, ,
2, ,-38, ,
1, ,-37, ,
1, ,-38, ,
2, ,-38, ,
2, ,-37, ,
1, ,-38, ,
2, ,-38, ,
1, ,-37, ,
1, ,-38, ,
2, ,-38, ,
2, ,-38, ,
-1, ,-37, ,
2, ,-38, ,
1, ,-38, ,
1, ,-38, ,
1, ,-38, ,
2, ,-38, ,
1, ,-38, ,
2, ,-38, ,
1, ,-37, ,
1, ,-38, ,
2, ,-38, ,
2, ,-38, ,
-1, ,-37, ,
2, ,-38, ,
1, ,-37, ,
1, ,-38, ,
1, ,-38, ,
1, ,-38, ,
1, ,-38, ,
2, ,-38, ,
1, ,-37, ,
1, ,-37, ,
2, ,-38, ,
2, ,-37, ,
-1, ,-37, ,
2, ,-38, ,
1, ,-37, ,
2, ,-37, ,
2, ,-38, ,
1, ,-38, ,
1, ,-37, ,
2, ,-38, ,
1, ,-37, ,
1, ,-38, ,
2, ,-38, ,
1, ,-38, ,
-1, ,-37, ,
2, ,-38, ,
1, ,-37, ,
1, ,-38, ,
1, ,-38, ,
1, ,-38, ,
-1, ,-37, ,
2, ,-38, ,
1, ,-37, ,
1, ,-37, ,
2, ,-38, ,
2, ,-38, ,
-1, ,-37, ,
2, ,-38, ,
1, ,-37, ,
1, ,-38, ,
2, ,-38, ,
1, ,-38, ,
-1, ,-37, ,
2, ,-38, ,
1, ,-37, ,
1, ,-38, ,
2, ,-38, ,
1, ,-38, ,
-1, ,-37, ,
2, ,-38, ,
1, ,-37, ,
1, ,-37, ,
2, ,-38, ,
1, ,-37, ,
-1, ,-37, ,
2, ,-38, ,
1, ,-37, ,
1, ,-37, ,
2, ,-38, ,
2, ,-37, ,
-1, ,-37, ,
2, ,-38, ,
1, ,-38, ,
1, ,-38, ,
2, ,-38, ,
1, ,-38, ,
-1, ,-37, ,
2, ,-38, ,
-1, ,-37, ,
1, ,-37, ,
2, ,-38, ,
1, ,-37, ,
-1, ,-37, ,
2, ,-38, ,
1, ,-37, ,
1, ,-38, ,
1, ,-38, ,
1, ,-38, ,
-1, ,-38, ,
2, ,-38, ,
1, ,-37, ,
1, ,-37, ,
2, ,-38, ,
1, ,-37, ,
-1, ,-37, ,
2, ,-38, ,
1, ,-37, ,
1, ,-38, ,
1, ,-38, ,
1, ,-37, ,
-1, ,-38, ,
2, ,-38, ,
1, ,-38, ,
1, ,-38, ,
2, ,-38, ,
2, ,-37, ,
-1, ,-37, ,
2, ,-38, ,
1, ,-38, ,
1, ,-38, ,
2, ,-38, ,
1, ,-38, ,
-1, ,-37, ,
2, ,-38, ,
1, ,-37, ,
1, ,-38, ,
2, ,-38, ,
1, ,-37, ,
-1, ,-37, ,
2, ,-38, ,
-1, ,-37, ,
1, ,-38, ,
2, ,-38, ,
1, ,-38, ,
-1, ,-37, ,
2, ,-38, ,
1, ,-38, ,
1, ,-38, ,
2, ,-38, ,
2, ,-38, ,
-1, ,-37, ,
2, ,-38, ,
-1, ,-37, ,
1, ,-38, ,
1, ,-38, ,
2, ,-38, ,
-1, ,-37, ,
2, ,-38, ,
1, ,-37, ,
1, ,-38, ,
2, ,-38, ,
1, ,-38, ,
-1, ,-37, ,
2, ,-38, ,
1, ,-38, ,
1, ,-37, ,
1, ,-38, ,
2, ,-37, ,
-1, ,-37, ,
2, ,-38, ,
1, ,-37, ,
1, ,-38, ,
1, ,-38, ,
2, ,-37, ,
-1, ,-37, ,
2, ,-38, ,
1, ,-37, ,
1, ,-37, ,
1, ,-38, ,
1, ,-38, ,
-1, ,-38, ,
2, ,-38, ,
-1, ,-37, ,
1, ,-37, ,
1, ,-38, ,
2, ,-38, ,
-1, ,-37, ,
2, ,-38, ,
1, ,-37, ,
1, ,-38, ,
1, ,-38, ,
1, ,-38, ,
-1, ,-37, ,
2, ,-38, ,
1, ,-38, ,
1, ,-38, ,
2, ,-38, ,
1, ,-38, ,
-1, ,-37, ,
2, ,-38, ,
1, ,-37, ,
1, ,-38, ,
1, ,-38, ,
1, ,-38, ,
-1, ,-37, ,
2, ,-38, ,
1, ,-37, ,
1, ,-38, ,
1, ,-38, ,
2, ,-37, ,
-1, ,-37, ,
2, ,-38, ,
-1, ,-37, ,
1, ,-38, ,
1, ,-38, ,
1, ,-38, ,
-1, ,-38, ,
2, ,-38, ,
-1, ,-38, ,
1, ,-38, ,
2, ,-38, ,
1, ,-38, ,
-1, ,-37, ,
2, ,-38, ,
1, ,-37, ,
1, ,-38, ,
1, ,-38, ,
1, ,-38, ,
-1, ,-38, ,
2, ,-38, ,
-1, ,-37, ,
1, ,-37, ,
1, ,-38, ,
1, ,-37, ,
-1, ,-38, ,
2, ,-38, ,
-1, ,-37, ,
1, ,-38, ,
1, ,-38, ,
1, ,-38, ,
-1, ,-38, ,
2, ,-38, ,
-1, ,-38, ,
-1, ,-38, ,
1, ,-38, ,
1, ,-38, ,
-1, ,-37, ,
2, ,-38, ,
1, ,-37, ,
1, ,-38, ,
1, ,-38, ,
1, ,-38, ,
-1, ,-38, ,
1, ,-38, ,
-1, ,-37, ,
1, ,-38, ,
1, ,-38, ,
1, ,-37, ,
-1, ,-37, ,
1, ,-38, ,
-1, ,-37, ,
-1, ,-37, ,
1, ,-38, ,
1, ,-38, ,
-1, ,-38, ,
2, ,-38, ,
-1, ,-37, ,
1, ,-37, ,
1, ,-38, ,
1, ,-37, ,
-1, ,-38, ,
2, ,-38, ,
-1, ,-38, ,
1, ,-38, ,
1, ,-37, ,
1, ,-37, ,
-1, ,-37, ,
1, ,-38, ,
-1, ,-37, ,
1, ,-38, ,
1, ,-38, ,
1, ,-38, ,
-1, ,-38, ,
2, ,-38, ,
-1, ,-38, ,
1, ,-38, ,
1, ,-38, ,
1, ,-38, ,
-1, ,-37, ,
2, ,-38, ,
-1, ,-37, ,
-1, ,-38, ,
1, ,-38, ,
2, ,-37, ,
-1, ,-37, ,
2, ,-38, ,
1, ,-37, ,
-1, ,-38, ,
1, ,-38, ,
1, ,-38, ,
-1, ,-37, ,
2, ,-38, ,
-1, ,-37, ,
1, ,-38, ,
2, ,-38, ,
2, ,-37, ,
-1, ,-37, ,
2, ,-38, ,
-1, ,-37, ,
1, ,-38, ,
1, ,-38, ,
1, ,-38, ,
-1, ,-37, ,
2, ,-38, ,
1, ,-38, ,
1, ,-38, ,
1, ,-38, ,
1, ,-37, ,
-1, ,-38, ,
2, ,-38, ,
1, ,-38, ,
1, ,-38, ,
1, ,-38, ,
1, ,-37, ,
-1, ,-38, ,
2, ,-38, ,
-1, ,-37, ,
1, ,-38, ,
1, ,-38, ,
2, ,-37, ,
-1, ,-38, ,
2, ,-38, ,
-1, ,-37, ,
1, ,-38, ,
2, ,-37, ,
1, ,-38, ,
-1, ,-38, ,
2, ,-38, ,
-1, ,-38, ,
1, ,-38, ,
1, ,-38, ,
1, ,-38, ,
-1, ,-37, ,
2, ,-38, ,
-1, ,-37, ,
-1, ,-37, ,
1, ,-38, ,
1, ,-38, ,
-1, ,-38, ,
2, ,-38, ,
-1, ,-38, ,
1, ,-38, ,
1, ,-38, ,
1, ,-37, ,
-1, ,-38, ,
2, ,-38, ,
-1, ,-37, ,
1, ,-38, ,
1, ,-37, ,
1, ,-37, ,
-1, ,-37, ,
2, ,-38, ,
-1, ,-37, ,
1, ,-38, ,
1, ,-38, ,
1, ,-38, ,
-1, ,-38, ,
2, ,-38, ,
-1, ,-37, ,
-1, ,-38, ,
1, ,-38, ,
1, ,-38, ,
-1, ,-38, ,
1, ,-38, ,
-1, ,-37, ,
-1, ,-38, ,
1, ,-38, ,
1, ,-37, ,
-1, ,-37, ,
2, ,-38, ,
1, ,-37, ,
1, ,-37, ,
1, ,-38, ,
1, ,-38, ,
-1, ,-38, ,
1, ,-38, ,
-1, ,-38, ,
1, ,-38, ,
1, ,-38, ,
1, ,-38, ,
-1, ,-38, ,
2, ,-38, ,
-1, ,-37, ,
-1, ,-38, ,
1, ,-37, ,
1, ,-38, ,
-1, ,-37, ,
1, ,-38, ,
-1, ,-37, ,
-1, ,-37, ,
1, ,-38, ,
1, ,-37, ,
-1, ,-38, ,
2, ,-38, ,
-1, ,-37, ,
-1, ,-38, ,
1, ,-38, ,
1, ,-38, ,
-1, ,-38, ,
2, ,-38, ,
-1, ,-37, ,
-1, ,-38, ,
1, ,-38, ,
1, ,-38, ,
-1, ,-38, ,
1, ,-38, ,
-1, ,-37, ,
1, ,-38, ,
1, ,-38, ,
1, ,-38, ,
-1, ,-38, ,
2, ,-38, ,
-1, ,-37, ,
-1, ,-38, ,
1, ,-38, ,
1, ,-37, ,
-1, ,-38, ,
2, ,-38, ,
1, ,-37, ,
-1, ,-38, ,
1, ,-38, ,
1, ,-37, ,
-1, ,-38, ,
2, ,-38, ,
-1, ,-37, ,
1, ,-37, ,
1, ,-38, ,
1, ,-38, ,
-1, ,-38, ,
2, ,-38, ,
-1, ,-38, ,
-1, ,-38, ,
1, ,-38, ,
1, ,-38, ,
-1, ,-38, ,
2, ,-38, ,
-1, ,-37, ,
-1, ,-38, ,
1, ,-38, ,
1, ,-37, ,
-1, ,-38, ,
2, ,-38, ,
-1, ,-37, ,
-1, ,-38, ,
1, ,-38, ,
1, ,-38, ,
-1, ,-37, ,
2, ,-38, ,
-1, ,-38, ,
-1, ,-38, ,
1, ,-38, ,
1, ,-37, ,
-1, ,-37, ,
2, ,-38, ,
-1, ,-38, ,
-1, ,-38, ,
1, ,-38, ,
1, ,-38, ,
-1, ,-38, ,
2, ,-38, ,
-1, ,-38, ,
-1, ,-37, ,
1, ,-24, ,
1, ,-4, ,
-1, ,11, ,
2, ,22, ,
-1, ,31, ,
1, ,37, ,
1, ,42, ,
2, ,45, ,
-1, ,49, ,
2, ,51, ,
1, ,52, ,
-1, ,54, ,
2, ,54, ,
1, ,54, ,
-1, ,55, ,
2, ,56, ,
1, ,55, ,
-1, ,56, ,
1, ,56, ,
1, ,55, ,
-1, ,56, ,
2, ,57, ,
-1, ,56, ,
1, ,56, ,
1, ,57, ,
1, ,56, ,
-1, ,56, ,
1, ,56, ,
1, ,55, ,
-1, ,56, ,
1, ,56, ,
1, ,55, ,
-1, ,55, ,
1, ,56, ,
1, ,55, ,
-1, ,56, ,
1, ,56, ,
1, ,55, ,
-1, ,56, ,
1, ,56, ,
-1, ,55, ,
-1, ,56, ,
1, ,56, ,
1, ,55, ,
-1, ,55, ,
1, ,56, ,
-1, ,56, ,
-1, ,56, ,
1, ,56, ,
1, ,55, ,
-1, ,56, ,
1, ,56, ,
-1, ,55, ,
-1, ,56, ,
1, ,56, ,
1, ,55, ,
-1, ,55, ,
1, ,56, ,
-1, ,55, ,
-1, ,56, ,
1, ,56, ,
1, ,55, ,
-1, ,56, ,
1, ,56, ,
-1, ,55, ,
-1, ,55, ,
1, ,56, ,
1, ,55, ,
-1, ,56, ,
1, ,56, ,
-1, ,55, ,
-1, ,55, ,
1, ,56, ,
1, ,55, ,
-1, ,56, ,
1, ,56, ,
-1, ,55, ,
-1, ,56, ,
1, ,56, ,
1, ,55, ,
-1, ,55, ,
1, ,56, ,
1, ,55, ,
-1, ,56, ,
1, ,56, ,
1, ,55, ,
-1, ,55, ,
2, ,56, ,
1, ,54, ,
1, ,55, ,
1, ,56, ,
1, ,55, ,
-1, ,55, ,
1, ,56, ,
-1, ,55, ,
-1, ,55, ,
1, ,56, ,
1, ,55, ,
-1, ,56, ,
1, ,56, ,
1, ,55, ,
-1, ,55, ,
1, ,56, ,
1, ,55, ,
-1, ,55, ,
2, ,56, ,
1, ,55, ,
-1, ,55, ,
1, ,56, ,
1, ,55, ,
-1, ,56, ,
2, ,56, ,
1, ,55, ,
-1, ,55, ,
1, ,56, ,
1, ,55, ,
-1, ,55, ,
2, ,56, ,
1, ,55, ,
-1, ,55, ,
1, ,56, ,
1, ,55, ,
-1, ,55, ,
2, ,56, ,
1, ,55, ,
-1, ,55, ,
1, ,56, ,
1, ,55, ,
-1, ,55, ,
2, ,56, ,
1, ,56, ,
-1, ,55, ,
1, ,56, ,
1, ,55, ,
-1, ,55, ,
2, ,56, ,
1, ,55, ,
1, ,56, ,
1, ,56, ,
1, ,55, ,
-1, ,56, ,
1, ,56, ,
1, ,56, ,
1, ,55, ,
1, ,56, ,
1, ,55, ,
-1, ,55, ,
2, ,56, ,
1, ,55, ,
-1, ,55, ,
1, ,55, ,
1, ,55, ,
-1, ,55, ,
1, ,56, ,
-1, ,50, ,
-1, ,28, ,
1, ,12, ,
1, ,-1, ,
-1, ,-11, ,
1, ,-18, ,
-1, ,-23, ,
-1, ,-27, ,
1, ,-30, ,
1, ,-33, ,
-1, ,-34, ,
1, ,-36, ,
-1, ,-36, ,
-1, ,-37, ,
1, ,-37, ,
1, ,-38, ,
-1, ,-38, ,
1, ,-38, ,
-1, ,-38, ,
-1, ,-38, ,
1, ,-38, ,
1, ,-38, ,
-1, ,-38, ,
1, ,-39, ,
-1, ,-38, ,
-1, ,-38, ,
1, ,-38, ,
1, ,-38, ,
-1, ,-38, ,
1, ,-39, ,
-1, ,-38, ,
-1, ,-38, ,
1, ,-38, ,
1, ,-38, ,
-1, ,-38, ,
2, ,-39, ,
-1, ,-38, ,
-1, ,-38, ,
1, ,-38, ,
1, ,-38, ,
-1, ,-38, ,
2, ,-38, ,
-1, ,-38, ,
-1, ,-38, ,
1, ,-38, ,
1, ,-38, ,
-1, ,-38, ,
1, ,-38, ,
-1, ,-38, ,
-1, ,-38, ,
1, ,-38, ,
1, ,-38, ,
-1, ,-38, ,
1, ,-38, ,
-1, ,-38, ,
-1, ,-38, ,
1, ,-38, ,
1, ,-38, ,
-1, ,-38, ,
1, ,-38, ,
-1, ,-38, ,
-1, ,-38, ,
1, ,-38, ,
2, ,-38, ,
-1, ,-38, ,
1, ,-38, ,
-1, ,-38, ,
1, ,-38, ,
1, ,-38, ,
1, ,-38, ,
-1, ,-38, ,
2, ,-38, ,
-1, ,-38, ,
-1, ,-38, ,
1, ,-38, ,
1, ,-38, ,
-1, ,-37, ,
1, ,-38, ,
-1, ,-38, ,
-1, ,-38, ,
1, ,-38, ,
1, ,-38, ,
-1, ,-38, ,
1, ,-38, ,
-1, ,-38, ,
-1, ,-38, ,
1, ,-38, ,
1, ,-38, ,
-1, ,-38, ,
1, ,-38, ,
-1, ,-38, ,
1, ,-38, ,
1, ,-38, ,
1, ,-38, ,
-1, ,-38, ,
1, ,-38, ,
-1, ,-38, ,
-1, ,-38, ,
1, ,-38, ,
1, ,-38, ,
-1, ,-37, ,
1, ,-38, ,
-1, ,-38, ,
-1, ,-38, ,
1, ,-38, ,
1, ,-38, ,
-1, ,-38, ,
2, ,-38, ,
-1, ,-38, ,
-1, ,-38, ,
1, ,-38, ,
1, ,-37, ,
-1, ,-38, ,
2, ,-38, ,
-1, ,-38, ,
-1, ,-38, ,
1, ,-38, ,
1, ,-38, ,
-1, ,-38, ,
1, ,-38, ,
-1, ,-38, ,
-1, ,-38, ,
1, ,-38, ,
1, ,-38, ,
-1, ,-38, ,
1, ,-38, ,
-1, ,-38, ,
-1, ,-38, ,
1, ,-38, ,
1, ,-38, ,
-1, ,-38, ,
1, ,-38, ,
-1, ,-38, ,
-1, ,-38, ,
1, ,-38, ,
2, ,-38, ,
-1, ,-38, ,
1, ,-38, ,
-1, ,-37, ,
-1, ,-38, ,
1, ,-38, ,
1, ,-38, ,
-1, ,-37, ,
1, ,-38, ,
-1, ,-38, ,
-1, ,-37, ,
1, ,-38, ,
1, ,-37, ,
-1, ,-38, ,
1, ,-38, ,
-1, ,-38, ,
-1, ,-37, ,
1, ,-38, ,
1, ,-38, ,
-1, ,-37, ,
1, ,-38, ,
-1, ,-38, ,
-1, ,-37, ,
1, ,-38, ,
1, ,-38, ,
-1, ,-37, ,
1, ,-38, ,
-1, ,-38, ,
-1, ,-38, ,
1, ,-38, ,
1, ,-37, ,
-1, ,-37, ,
2, ,-38, ,
-1, ,-38, ,
-1, ,-38, ,
1, ,-38, ,
1, ,-37, ,
-1, ,-38, ,
1, ,-38, ,
-1, ,-38, ,
-1, ,-38, ,
1, ,-38, ,
1, ,-38, ,
-1, ,-37, ,
1, ,-38, ,
-1, ,-38, ,
-1, ,-37, ,
1, ,-38, ,
1, ,-38, ,
-1, ,-38, ,
1, ,-38, ,
-1, ,-38, ,
-1, ,-37, ,
1, ,-38, ,
1, ,-38, ,
-1, ,-37, ,
1, ,-38, ,
-1, ,-38, ,
-1, ,-38, ,
1, ,-38, ,
1, ,-37, ,
-1, ,-37, ,
1, ,-38, ,
-1, ,-38, ,
-1, ,-38, ,
1, ,-38, ,
1, ,-38, ,
-1, ,-38, ,
1, ,-38, ,
-1, ,-38, ,
-1, ,-38, ,
1, ,-38, ,
1, ,-38, ,
-1, ,-37, ,
2, ,-38, ,
-1, ,-37, ,
-1, ,-37, ,
1, ,-38, ,
1, ,-37, ,
-1, ,-38, ,
1, ,-38, ,
-1, ,-38, ,
-1, ,-38, ,
1, ,-38, ,
1, ,-38, ,
-1, ,-37, ,
1, ,-38, ,
-1, ,-38, ,
-1, ,-38, ,
1, ,-38, ,
1, ,-38, ,
-1, ,-37, ,
1, ,-38, ,
-1, ,-38, ,
-1, ,-37, ,
1, ,-38, ,
1, ,-37, ,
-1, ,-38, ,
2, ,-38, ,
-1, ,-38, ,
-1, ,-38, ,
1, ,-38, ,
1, ,-37, ,
-1, ,-37, ,
1, ,-38, ,
-1, ,-38, ,
-1, ,-38, ,
1, ,-38, ,
1, ,-38, ,
-1, ,-38, ,
1, ,-38, ,
-1, ,-38, ,
-1, ,-38, ,
1, ,-38, ,
1, ,-38, ,
-1, ,-37, ,
1, ,-38, ,
-1, ,-38, ,
-1, ,-38, ,
1, ,-38, ,
1, ,-38, ,
-1, ,-37, ,
1, ,-38, ,
-1, ,-38, ,
-1, ,-38, ,
1, ,-38, ,
1, ,-38, ,
-1, ,-37, ,
2, ,-38, ,
-1, ,-37, ,
-1, ,-38, ,
1, ,-38, ,
1, ,-38, ,
-1, ,-38, ,
1, ,-38, ,
-1, ,-38, ,
-1, ,-38, ,
1, ,-38, ,
1, ,-38, ,
-1, ,-37, ,
1, ,-38, ,
-1, ,-38, ,
-1, ,-38, ,
1, ,-38, ,
1, ,-37, ,
-1, ,-37, ,
2, ,-38, ,
-1, ,-37, ,
-1, ,-37, ,
1, ,-38, ,
1, ,-38, ,
-1, ,-38, ,
2, ,-38, ,
-1, ,-37, ,
-1, ,-38, ,
1, ,-38, ,
1, ,-37, ,
-1, ,-37, ,
1, ,-38, ,
-1, ,-37, ,
-1, ,-37, ,
1, ,-38, ,
1, ,-38, ,
-1, ,-37, ,
1, ,-38, ,
-1, ,-37, ,
-1, ,-37, ,
1, ,-38, ,
1, ,-37, ,
-1, ,-38, ,
2, ,-38, ,
-1, ,-38, ,
-1, ,-38, ,
1, ,-38, ,
1, ,-38, ,
-1, ,-37, ,
1, ,-38, ,
-1, ,-37, ,
-1, ,-38, ,
1, ,-38, ,
1, ,-37, ,
-1, ,-38, ,
1, ,-38, ,
-1, ,-37, ,
-1, ,-38, ,
1, ,-38, ,
1, ,-38, ,
-1, ,-38, ,
1, ,-38, ,
-1, ,-38, ,
-1, ,-38, ,
1, ,-38, ,
1, ,-38, ,
-1, ,-38, ,
2, ,-38, ,
-1, ,-38, ,
-1, ,-38, ,
1, ,-38, ,
1, ,-38, ,
-1, ,-37, ,
2, ,-38, ,
-1, ,-37, ,
1, ,-38, ,
1, ,-38, ,
1, ,-38, ,
-1, ,-37, ,
2, ,-38, ,
-1, ,-38, ,
-1, ,-38, ,
1, ,-38, ,
1, ,-38, ,
-1, ,-37, ,
1, ,-38, ,
-1, ,-38, ,
-1, ,-38, ,
1, ,-38, ,
1, ,-38, ,
-1, ,-38, ,
2, ,-38, ,
-1, ,-38, ,
-1, ,-38, ,
1, ,-38, ,
1, ,-38, ,
-1, ,-38, ,
1, ,-38, ,
-1, ,-38, ,
-1, ,-38, ,
1, ,-38, ,
1, ,-38, ,
-1, ,-38, ,
2, ,-38, ,
-1, ,-38, ,
-1, ,-37, ,
1, ,-38, ,
1, ,-38, ,
-1, ,-37, ,
1, ,-38, ,
-1, ,-37, ,
-1, ,-38, ,
1, ,-38, ,
1, ,-37, ,
-1, ,-38, ,
2, ,-38, ,
-1, ,-38, ,
-1, ,-38, ,
1, ,-38, ,
1, ,-38, ,
-1, ,-38, ,
1, ,-38, ,
-1, ,-38, ,
-1, ,-38, ,
1, ,-38, ,
1, ,-37, ,
-1, ,-37, ,
1, ,-38, ,
-1, ,-38, ,
-1, ,-38, ,
1, ,-38, ,
1, ,-38, ,
-1, ,-37, ,
2, ,-38, ,
-1, ,-38, ,
-1, ,-38, ,
1, ,-38, ,
1, ,-37, ,
-1, ,-37, ,
1, ,-38, ,
-1, ,-38, ,
-1, ,-38, ,
1, ,-38, ,
1, ,-37, ,
-1, ,-37, ,
1, ,-38, ,
-1, ,-38, ,
-1, ,-38, ,
1, ,-38, ,
1, ,-38, ,
-1, ,-38, ,
1, ,-38, ,
-1, ,-38, ,
-1, ,-38, ,
1, ,-38, ,
1, ,-38, ,
-1, ,-38, ,
1, ,-38, ,
-1, ,-37, ,
-1, ,-37, ,
1, ,-38, ,
1, ,-37, ,
-1, ,-38, ,
1, ,-38, ,
-1, ,-38, ,
-1, ,-37, ,
1, ,-38, ,
1, ,-38, ,
-1, ,-38, ,
2, ,-38, ,
-1, ,-38, ,
-1, ,-38, ,
1, ,-38, ,
1, ,-38, ,
-1, ,-37, ,
1, ,-38, ,
-1, ,-38, ,
-1, ,-38, ,
1, ,-38, ,
1, ,-38, ,
-1, ,-37, ,
2, ,-38, ,
-1, ,-38, ,
-1, ,-38, ,
1, ,-38, ,
1, ,-37, ,
-1, ,-38, ,
1, ,-38, ,
-1, ,-38, ,
-1, ,-38, ,
1, ,-38, ,
1, ,-38, ,
-1, ,-38, ,
1, ,-38, ,
-1, ,-38, ,
-1, ,-38, ,
1, ,-38, ,
1, ,-38, ,
-1, ,-38, ,
1, ,-38, ,
