src/varyamp_1558/temp0003744.CSV

Format,1.0B,
Memory Length,10000,Memory Length,10000,
IntpDistance,0,IntpDistance,0,
Trigger Address,4999,Trigger Address,4999,
Trigger Level,1.040E+00,Trigger Level,1.040E+00,
Source,CH1,Source,CH2,
Vertical Units,V,Vertical Units,V,
Vertical Units Div,0,Vertical Units Div,0,
Vertical Units Extend Div,16,Vertical Units Extend Div,16,
Label,,Label,,
Probe Type,0,Probe Type,0,
Probe Ratio,1.000e+01,Probe Ratio,1.000e+00,
Vertical Scale,5.000e-01,Vertical Scale,1.000e+00,
Vertical Position,-1.820e+00,Vertical Position,0.000e+00,
Horizontal Units,S,Horizontal Units,S,
Horizontal Scale,2.000E-05,Horizontal Scale,2.000E-05,
Horizontal Position,0.000E+00,Horizontal Position,0.000E+00,
Horizontal Mode,Main,Horizontal Mode,Main,
SincET Mode,Real Time,SincET Mode,Real Time,
Sampling Period,2.000e-08,Sampling Period,2.000e-08,
Horizontal Old Scale,2.000E-05,Horizontal Old Scale,2.000E-05,
Horizontal Old Position,0.000E+00,Horizontal Old Position,0.000E+00,
Firmware,V1.23,Firmware,V1.23,
Mode,Fast,Mode,Fast,
Waveform Data,,Waveform Data,,
2, ,-30, ,
1, ,-30, ,
1, ,-31, ,
2, ,-30, ,
1, ,-30, ,
1, ,-31, ,
2, ,-31, ,
2, ,-30, ,
1, ,-31, ,
2, ,-31, ,
1, ,-30, ,
1, ,-30, ,
2, ,-30, ,
1, ,-31, ,
1, ,-31, ,
2, ,-30, ,
1, ,-30, ,
1, ,-31, ,
2, ,-31, ,
1, ,-31, ,
1, ,-30, ,
2, ,-30, ,
1, ,-30, ,
1, ,-31, ,
2, ,-30, ,
1, ,-31, ,
1, ,-31, ,
1, ,-30, ,
1, ,-31, ,
1, ,-31, ,
2, ,-31, ,
1, ,-31, ,
1, ,-31, ,
2, ,-30, ,
1, ,-31, ,
1, ,-31, ,
2, ,-30, ,
1, ,-30, ,
1, ,-31, ,
2, ,-30, ,
1, ,-30, ,
1, ,-31, ,
2, ,-31, ,
1, ,-31, ,
1, ,-31, ,
2, ,-30, ,
1, ,-30, ,
1, ,-31, ,
2, ,-30, ,
1, ,-30, ,
1, ,-31, ,
2, ,-30, ,
1, ,-30, ,
1, ,-31, ,
2, ,-30, ,
1, ,-31, ,
1, ,-31, ,
2, ,-31, ,
1, ,-30, ,
1, ,-31, ,
2, ,-31, ,
1, ,-30, ,
1, ,-31, ,
2, ,-30, ,
1, ,-30, ,
1, ,-31, ,
2, ,-31, ,
1, ,-31, ,
1, ,-30, ,
2, ,-31, ,
1, ,-31, ,
1, ,-31, ,
2, ,-30, ,
1, ,-31, ,
1, ,-31, ,
2, ,-30, ,
1, ,-30, ,
1, ,-31, ,
2, ,-31, ,
1, ,-31, ,
1, ,-31, ,
2, ,-31, ,
1, ,-31, ,
1, ,-30, ,
2, ,-31, ,
1, ,-30, ,
1, ,-31, ,
2, ,-30, ,
1, ,-31, ,
1, ,-31, ,
1, ,-31, ,
1, ,-30, ,
1, ,-31, ,
2, ,-31, ,
1, ,-31, ,
1, ,-30, ,
2, ,-30, ,
2, ,-30, ,
-1, ,-31, ,
2, ,-30, ,
1, ,-31, ,
1, ,-31, ,
2, ,-31, ,
1, ,-31, ,
-1, ,-30, ,
2, ,-31, ,
1, ,-31, ,
1, ,-30, ,
1, ,-31, ,
1, ,-30, ,
1, ,-31, ,
2, ,-30, ,
1, ,-31, ,
1, ,-31, ,
2, ,-30, ,
1, ,-31, ,
1, ,-31, ,
2, ,-31, ,
1, ,-30, ,
1, ,-31, ,
2, ,-30, ,
1, ,-31, ,
-1, ,-31, ,
2, ,-30, ,
1, ,-30, ,
1, ,-31, ,
2, ,-31, ,
1, ,-30, ,
1, ,-31, ,
2, ,-31, ,
1, ,-31, ,
1, ,-30, ,
2, ,-31, ,
2, ,-31, ,
1, ,-31, ,
2, ,-30, ,
1, ,-30, ,
1, ,-31, ,
2, ,-31, ,
1, ,-31, ,
-1, ,-31, ,
2, ,-31, ,
1, ,-31, ,
1, ,-30, ,
2, ,-31, ,
1, ,-30, ,
-1, ,-31, ,
1, ,-31, ,
1, ,-30, ,
1, ,-31, ,
1, ,-31, ,
1, ,-31, ,
-1, ,-31, ,
2, ,-31, ,
1, ,-31, ,
1, ,-31, ,
1, ,-31, ,
2, ,-30, ,
-1, ,-31, ,
2, ,-30, ,
1, ,-30, ,
1, ,-31, ,
1, ,-31, ,
1, ,-31, ,
-1, ,-31, ,
2, ,-31, ,
1, ,-31, ,
1, ,-30, ,
1, ,-31, ,
1, ,-31, ,
-1, ,-31, ,
1, ,-30, ,
1, ,-30, ,
1, ,-31, ,
1, ,-30, ,
1, ,-31, ,
-1, ,-30, ,
2, ,-31, ,
1, ,-31, ,
1, ,-30, ,
2, ,-30, ,
2, ,-30, ,
-1, ,-31, ,
1, ,-30, ,
1, ,-30, ,
1, ,-31, ,
2, ,-31, ,
1, ,-31, ,
-1, ,-31, ,
2, ,-31, ,
1, ,-30, ,
1, ,-30, ,
1, ,-31, ,
1, ,-30, ,
-1, ,-31, ,
1, ,-30, ,
1, ,-31, ,
1, ,-31, ,
2, ,-31, ,
2, ,-30, ,
1, ,-30, ,
2, ,-31, ,
1, ,-31, ,
1, ,-30, ,
2, ,-31, ,
1, ,-31, ,
-1, ,-31, ,
1, ,-31, ,
1, ,-30, ,
1, ,-31, ,
1, ,-30, ,
1, ,-30, ,
-1, ,-31, ,
2, ,-31, ,
1, ,-31, ,
1, ,-31, ,
1, ,-30, ,
1, ,-31, ,
-1, ,-31, ,
2, ,-30, ,
1, ,-31, ,
1, ,-31, ,
1, ,-31, ,
1, ,-31, ,
-1, ,-31, ,
1, ,-31, ,
1, ,-31, ,
1, ,-30, ,
2, ,-30, ,
2, ,-31, ,
-1, ,-31, ,
2, ,-30, ,
1, ,-30, ,
1, ,-31, ,
1, ,-31, ,
1, ,-31, ,
-1, ,-31, ,
2, ,-31, ,
1, ,-30, ,
1, ,-30, ,
1, ,-30, ,
2, ,-30, ,
-1, ,-31, ,
2, ,-30, ,
1, ,-30, ,
71, ,-31, ,
49, ,-31, ,
29, ,-31, ,
18, ,-31, ,
13, ,-31, ,
8, ,-30, ,
7, ,-31, ,
6, ,-31, ,
5, ,-30, ,
3, ,-31, ,
5, ,-30, ,
3, ,-30, ,
2, ,-31, ,
3, ,-31, ,
3, ,-30, ,
2, ,-31, ,
3, ,-31, ,
2, ,-31, ,
2, ,-30, ,
3, ,-31, ,
3, ,-31, ,
1, ,-31, ,
3, ,-31, ,
2, ,-31, ,
2, ,-31, ,
2, ,-31, ,
3, ,-31, ,
1, ,-31, ,
3, ,-31, ,
2, ,-31, ,
2, ,-31, ,
3, ,-31, ,
2, ,-31, ,
1, ,-31, ,
3, ,-30, ,
2, ,-30, ,
2, ,-31, ,
2, ,-31, ,
3, ,-31, ,
1, ,-31, ,
3, ,-30, ,
2, ,-30, ,
2, ,-30, ,
2, ,-31, ,
2, ,-31, ,
1, ,-31, ,
2, ,-30, ,
2, ,-30, ,
2, ,-31, ,
2, ,-31, ,
3, ,-30, ,
1, ,-31, ,
3, ,-31, ,
2, ,-31, ,
2, ,-31, ,
2, ,-31, ,
3, ,-30, ,
1, ,-31, ,
2, ,-30, ,
2, ,-31, ,
2, ,-31, ,
2, ,-31, ,
2, ,-30, ,
2, ,-26, ,
3, ,-7, ,
2, ,11, ,
2, ,24, ,
2, ,34, ,
2, ,41, ,
1, ,47, ,
2, ,50, ,
2, ,55, ,
2, ,57, ,
2, ,58, ,
2, ,59, ,
1, ,61, ,
3, ,60, ,
2, ,62, ,
1, ,63, ,
3, ,62, ,
2, ,62, ,
1, ,63, ,
3, ,62, ,
2, ,63, ,
1, ,64, ,
2, ,62, ,
2, ,63, ,
1, ,64, ,
2, ,62, ,
2, ,63, ,
2, ,63, ,
2, ,62, ,
2, ,62, ,
1, ,64, ,
2, ,62, ,
1, ,63, ,
1, ,63, ,
2, ,62, ,
2, ,62, ,
1, ,63, ,
3, ,61, ,
1, ,63, ,
1, ,64, ,
2, ,62, ,
2, ,62, ,
1, ,63, ,
2, ,61, ,
1, ,62, ,
2, ,63, ,
2, ,61, ,
2, ,62, ,
1, ,63, ,
3, ,61, ,
1, ,63, ,
20, ,63, ,
20, ,61, ,
13, ,63, ,
10, ,63, ,
8, ,61, ,
5, ,63, ,
3, ,63, ,
3, ,61, ,
2, ,62, ,
2, ,63, ,
3, ,61, ,
2, ,62, ,
2, ,63, ,
2, ,62, ,
3, ,62, ,
2, ,63, ,
3, ,61, ,
2, ,63, ,
2, ,63, ,
3, ,62, ,
2, ,62, ,
1, ,63, ,
3, ,61, ,
2, ,63, ,
2, ,63, ,
3, ,62, ,
2, ,62, ,
1, ,63, ,
3, ,61, ,
2, ,62, ,
2, ,63, ,
3, ,61, ,
2, ,62, ,
2, ,63, ,
3, ,61, ,
2, ,62, ,
2, ,63, ,
3, ,61, ,
2, ,62, ,
1, ,63, ,
3, ,61, ,
2, ,62, ,
2, ,63, ,
2, ,62, ,
2, ,62, ,
1, ,64, ,
3, ,62, ,
2, ,62, ,
2, ,63, ,
2, ,62, ,
2, ,62, ,
1, ,63, ,
3, ,62, ,
2, ,62, ,
2, ,63, ,
3, ,61, ,
2, ,62, ,
1, ,63, ,
3, ,61, ,
5, ,62, ,
11, ,63, ,
11, ,62, ,
8, ,63, ,
5, ,63, ,
6, ,61, ,
3, ,62, ,
2, ,63, ,
3, ,61, ,
2, ,62, ,
1, ,63, ,
3, ,61, ,
2, ,62, ,
2, ,63, ,
2, ,61, ,
3, ,62, ,
2, ,63, ,
5, ,61, ,
3, ,62, ,
3, ,63, ,
5, ,62, ,
3, ,62, ,
2, ,63, ,
5, ,61, ,
2, ,62, ,
2, ,62, ,
3, ,61, ,
3, ,62, ,
2, ,63, ,
3, ,61, ,
2, ,62, ,
2, ,63, ,
3, ,61, ,
2, ,62, ,
1, ,63, ,
3, ,61, ,
2, ,63, ,
2, ,63, ,
3, ,61, ,
2, ,62, ,
1, ,62, ,
3, ,61, ,
2, ,62, ,
2, ,63, ,
5, ,61, ,
3, ,49, ,
3, ,30, ,
5, ,14, ,
3, ,2, ,
3, ,-6, ,
3, ,-13, ,
2, ,-17, ,
2, ,-21, ,
3, ,-23, ,
2, ,-25, ,
2, ,-27, ,
2, ,-27, ,
3, ,-28, ,
1, ,-30, ,
3, ,-30, ,
2, ,-30, ,
2, ,-31, ,
3, ,-31, ,
3, ,-31, ,
2, ,-31, ,
3, ,-31, ,
2, ,-31, ,
2, ,-31, ,
3, ,-31, ,
3, ,-31, ,
2, ,-31, ,
3, ,-31, ,
2, ,-31, ,
2, ,-31, ,
2, ,-31, ,
3, ,-31, ,
2, ,-31, ,
2, ,-30, ,
2, ,-31, ,
2, ,-31, ,
3, ,-31, ,
2, ,-31, ,
2, ,-31, ,
3, ,-31, ,
2, ,-31, ,
2, ,-31, ,
2, ,-31, ,
2, ,-31, ,
1, ,-31, ,
2, ,-31, ,
2, ,-31, ,
2, ,-31, ,
2, ,-31, ,
2, ,-31, ,
2, ,-31, ,
2, ,-31, ,
2, ,-30, ,
3, ,-31, ,
8, ,-31, ,
11, ,-30, ,
8, ,-31, ,
7, ,-30, ,
5, ,-30, ,
3, ,-31, ,
3, ,-31, ,
3, ,-31, ,
2, ,-31, ,
3, ,-31, ,
2, ,-31, ,
2, ,-31, ,
3, ,-31, ,
2, ,-31, ,
1, ,-31, ,
3, ,-30, ,
2, ,-30, ,
2, ,-31, ,
2, ,-31, ,
3, ,-31, ,
2, ,-31, ,
3, ,-30, ,
2, ,-30, ,
2, ,-31, ,
2, ,-31, ,
3, ,-31, ,
1, ,-31, ,
3, ,-30, ,
2, ,-30, ,
2, ,-31, ,
2, ,-31, ,
2, ,-31, ,
1, ,-31, ,
3, ,-31, ,
2, ,-30, ,
2, ,-31, ,
2, ,-30, ,
3, ,-31, ,
2, ,-31, ,
3, ,-30, ,
2, ,-30, ,
2, ,-31, ,
2, ,-31, ,
2, ,-30, ,
2, ,-31, ,
3, ,-30, ,
2, ,-30, ,
2, ,-30, ,
2, ,-31, ,
3, ,-31, ,
1, ,-31, ,
2, ,-30, ,
2, ,-30, ,
2, ,-31, ,
2, ,-31, ,
3, ,-31, ,
2, ,-31, ,
3, ,-31, ,
2, ,-30, ,
2, ,-30, ,
2, ,-31, ,
2, ,-31, ,
2, ,-31, ,
2, ,-30, ,
2, ,-31, ,
2, ,-31, ,
2, ,-31, ,
2, ,-30, ,
1, ,-31, ,
2, ,-30, ,
2, ,-31, ,
2, ,-31, ,
2, ,-30, ,
2, ,-31, ,
1, ,-31, ,
2, ,-30, ,
2, ,-30, ,
2, ,-31, ,
2, ,-31, ,
3, ,-31, ,
1, ,-31, ,
3, ,-31, ,
2, ,-30, ,
2, ,-31, ,
2, ,-30, ,
2, ,-31, ,
1, ,-31, ,
2, ,-30, ,
2, ,-30, ,
2, ,-31, ,
2, ,-31, ,
2, ,-31, ,
2, ,-31, ,
3, ,-30, ,
2, ,-30, ,
2, ,-31, ,
2, ,-31, ,
2, ,-30, ,
1, ,-31, ,
2, ,-30, ,
2, ,-30, ,
2, ,-31, ,
2, ,-31, ,
2, ,-31, ,
1, ,-30, ,
3, ,-30, ,
2, ,-30, ,
1, ,-31, ,
2, ,-30, ,
2, ,-30, ,
1, ,-31, ,
2, ,-30, ,
2, ,-31, ,
2, ,-31, ,
2, ,-30, ,
2, ,-30, ,
1, ,-31, ,
2, ,-31, ,
1, ,-30, ,
1, ,-30, ,
2, ,-30, ,
2, ,-30, ,
1, ,-31, ,
3, ,-30, ,
2, ,-30, ,
2, ,-31, ,
2, ,-30, ,
2, ,-30, ,
1, ,-30, ,
3, ,-30, ,
2, ,-31, ,
2, ,-31, ,
2, ,-31, ,
2, ,-31, ,
1, ,-31, ,
2, ,-30, ,
2, ,-30, ,
2, ,-31, ,
2, ,-30, ,
2, ,-30, ,
1, ,-31, ,
2, ,-30, ,
1, ,-31, ,
1, ,-31, ,
2, ,-30, ,
2, ,-30, ,
1, ,-31, ,
2, ,-30, ,
2, ,-30, ,
2, ,-31, ,
2, ,-30, ,
2, ,-30, ,
1, ,-30, ,
2, ,-30, ,
2, ,-30, ,
1, ,-31, ,
2, ,-31, ,
2, ,-30, ,
1, ,-31, ,
2, ,-30, ,
1, ,-30, ,
1, ,-31, ,
2, ,-30, ,
2, ,-30, ,
2, ,-31, ,
3, ,-30, ,
2, ,-30, ,
2, ,-30, ,
2, ,-30, ,
2, ,-31, ,
1, ,-31, ,
2, ,-30, ,
2, ,-30, ,
1, ,-31, ,
2, ,-31, ,
2, ,-31, ,
1, ,-31, ,
2, ,-31, ,
1, ,-31, ,
2, ,-31, ,
2, ,-31, ,
2, ,-30, ,
1, ,-31, ,
2, ,-30, ,
2, ,-30, ,
2, ,-31, ,
2, ,-31, ,
2, ,-30, ,
1, ,-30, ,
2, ,-30, ,
2, ,-31, ,
1, ,-31, ,
2, ,-31, ,
2, ,-31, ,
1, ,-31, ,
2, ,-30, ,
2, ,-30, ,
1, ,-31, ,
2, ,-30, ,
2, ,-31, ,
1, ,-31, ,
2, ,-31, ,
1, ,-30, ,
1, ,-30, ,
2, ,-30, ,
2, ,-30, ,
1, ,-31, ,
2, ,-30, ,
1, ,-30, ,
1, ,-31, ,
2, ,-31, ,
2, ,-31, ,
1, ,-31, ,
2, ,-30, ,
1, ,-31, ,
1, ,-31, ,
2, ,-30, ,
2, ,-31, ,
1, ,-31, ,
2, ,-30, ,
2, ,-30, ,
1, ,-31, ,
2, ,-30, ,
2, ,-31, ,
1, ,-31, ,
2, ,-31, ,
1, ,-31, ,
1, ,-30, ,
2, ,-30, ,
2, ,-30, ,
1, ,-31, ,
2, ,-30, ,
1, ,-31, ,
2, ,-31, ,
2, ,-31, ,
2, ,-31, ,
1, ,-31, ,
2, ,-31, ,
1, ,-30, ,
1, ,-30, ,
2, ,-30, ,
2, ,-30, ,
1, ,-31, ,
2, ,-30, ,
2, ,-30, ,
1, ,-31, ,
2, ,-31, ,
2, ,-30, ,
1, ,-31, ,
2, ,-31, ,
1, ,-31, ,
1, ,-31, ,
2, ,-31, ,
2, ,-31, ,
1, ,-31, ,
2, ,-30, ,
1, ,-30, ,
1, ,-31, ,
2, ,-30, ,
2, ,-30, ,
1, ,-31, ,
2, ,-31, ,
1, ,-31, ,
1, ,-30, ,
2, ,-30, ,
2, ,-30, ,
1, ,-31, ,
2, ,-30, ,
1, ,-30, ,
1, ,-31, ,
2, ,-30, ,
2, ,-31, ,
1, ,-31, ,
2, ,-31, ,
1, ,-31, ,
1, ,-30, ,
2, ,-31, ,
1, ,-30, ,
1, ,-31, ,
2, ,-30, ,
1, ,-30, ,
1, ,-31, ,
2, ,-31, ,
2, ,-30, ,
1, ,-30, ,
2, ,-31, ,
1, ,-31, ,
1, ,-31, ,
2, ,-31, ,
2, ,-30, ,
1, ,-31, ,
2, ,-30, ,
1, ,-30, ,
1, ,-31, ,
2, ,-30, ,
1, ,-31, ,
1, ,-31, ,
2, ,-30, ,
1, ,-31, ,
1, ,-30, ,
2, ,-31, ,
2, ,-30, ,
1, ,-31, ,
1, ,-30, ,
1, ,-31, ,
1, ,-31, ,
2, ,-31, ,
1, ,-30, ,
1, ,-31, ,
2, ,-30, ,
1, ,-31, ,
1, ,-31, ,
2, ,-31, ,
1, ,-30, ,
1, ,-31, ,
2, ,-30, ,
1, ,-31, ,
1, ,-30, ,
1, ,-31, ,
1, ,-31, ,
1, ,-30, ,
2, ,-31, ,
1, ,-31, ,
1, ,-30, ,
2, ,-30, ,
1, ,-30, ,
1, ,-31, ,
2, ,-30, ,
1, ,-30, ,
1, ,-31, ,
2, ,-31, ,
1, ,-30, ,
1, ,-31, ,
2, ,-31, ,
1, ,-31, ,
1, ,-30, ,
2, ,-31, ,
1, ,-30, ,
1, ,-31, ,
2, ,-30, ,
1, ,-30, ,
1, ,-31, ,
2, ,-31, ,
1, ,-30, ,
1, ,-31, ,
2, ,-31, ,
1, ,-30, ,
2, ,-30, ,
2, ,-31, ,
1, ,-31, ,
1, ,-31, ,
2, ,-30, ,
1, ,-30, ,
1, ,-31, ,
2, ,-31, ,
1, ,-30, ,
1, ,-31, ,
2, ,-31, ,
1, ,-31, ,
1, ,-31, ,
2, ,-31, ,
1, ,-30, ,
1, ,-31, ,
2, ,-30, ,
1, ,-30, ,
1, ,-31, ,
2, ,-30, ,
1, ,-31, ,
1, ,-31, ,
2, ,-31, ,
1, ,-31, ,
1, ,-31, ,
2, ,-31, ,
1, ,-30, ,
1, ,-31, ,
2, ,-30, ,
1, ,-30, ,
1, ,-31, ,
2, ,-31, ,
1, ,-30, ,
1, ,-31, ,
2, ,-31, ,
1, ,-31, ,
1, ,-30, ,
2, ,-30, ,
2, ,-30, ,
1, ,-31, ,
2, ,-30, ,
1, ,-30, ,
1, ,-31, ,
2, ,-31, ,
1, ,-31, ,
1, ,-31, ,
2, ,-31, ,
1, ,-31, ,
1, ,-31, ,
2, ,-31, ,
1, ,-30, ,
1, ,-31, ,
1, ,-30, ,
1, ,-30, ,
1, ,-31, ,
2, ,-31, ,
2, ,-30, ,
1, ,-31, ,
2, ,-31, ,
1, ,-30, ,
1, ,-31, ,
2, ,-31, ,
1, ,-30, ,
1, ,-31, ,
1, ,-30, ,
1, ,-30, ,
1, ,-31, ,
2, ,-30, ,
1, ,-31, ,
1, ,-31, ,
2, ,-30, ,
1, ,-31, ,
1, ,-30, ,
2, ,-31, ,
1, ,-30, ,
1, ,-31, ,
2, ,-30, ,
1, ,-30, ,
1, ,-31, ,
2, ,-30, ,
1, ,-30, ,
-1, ,-31, ,
2, ,-30, ,
1, ,-30, ,
1, ,-30, ,
1, ,-31, ,
1, ,-31, ,
-1, ,-31, ,
1, ,-30, ,
1, ,-30, ,
1, ,-31, ,
2, ,-31, ,
1, ,-31, ,
1, ,-31, ,
1, ,-31, ,
1, ,-31, ,
1, ,-31, ,
2, ,-31, ,
1, ,-30, ,
-1, ,-31, ,
2, ,-30, ,
1, ,-30, ,
1, ,-31, ,
1, ,-31, ,
1, ,-30, ,
-1, ,-31, ,
2, ,-31, ,
1, ,-31, ,
1, ,-31, ,
1, ,-31, ,
1, ,-30, ,
-1, ,-31, ,
1, ,-30, ,
1, ,-30, ,
1, ,-31, ,
1, ,-31, ,
1, ,-30, ,
-1, ,-31, ,
2, ,-30, ,
1, ,-31, ,
1, ,-30, ,
1, ,-31, ,
2, ,-30, ,
-1, ,-31, ,
1, ,-30, ,
1, ,-31, ,
1, ,-31, ,
1, ,-31, ,
1, ,-30, ,
-1, ,-31, ,
1, ,-30, ,
1, ,-31, ,
1, ,-30, ,
2, ,-31, ,
1, ,-31, ,
1, ,-31, ,
1, ,-30, ,
1, ,-30, ,
1, ,-31, ,
2, ,-31, ,
1, ,-30, ,
1, ,-31, ,
2, ,-31, ,
1, ,-30, ,
1, ,-31, ,
2, ,-30, ,
1, ,-30, ,
-1, ,-31, ,
1, ,-30, ,
1, ,-31, ,
1, ,-31, ,
2, ,-31, ,
2, ,-30, ,
1, ,-31, ,
2, ,-30, ,
1, ,-31, ,
1, ,-31, ,
2, ,-30, ,
1, ,-30, ,
1, ,-31, ,
1, ,-30, ,
1, ,-30, ,
1, ,-31, ,
2, ,-31, ,
1, ,-31, ,
1, ,-31, ,
1, ,-31, ,
1, ,-31, ,
1, ,-31, ,
2, ,-31, ,
1, ,-31, ,
-1, ,-31, ,
2, ,-30, ,
1, ,-31, ,
1, ,-31, ,
1, ,-31, ,
1, ,-30, ,
1, ,-31, ,
1, ,-31, ,
1, ,-31, ,
1, ,-31, ,
2, ,-31, ,
2, ,-30, ,
-1, ,-31, ,
2, ,-30, ,
1, ,-31, ,
1, ,-31, ,
1, ,-30, ,
1, ,-30, ,
-1, ,-31, ,
1, ,-31, ,
1, ,-30, ,
1, ,-30, ,
2, ,-31, ,
2, ,-31, ,
-1, ,-31, ,
1, ,-30, ,
1, ,-30, ,
1, ,-31, ,
1, ,-31, ,
1, ,-30, ,
-1, ,-31, ,
1, ,-31, ,
1, ,-31, ,
1, ,-31, ,
1, ,-31, ,
1, ,-30, ,
-1, ,-31, ,
1, ,-30, ,
1, ,-30, ,
1, ,-31, ,
1, ,-31, ,
1, ,-30, ,
-1, ,-31, ,
1, ,-31, ,
1, ,-31, ,
1, ,-30, ,
1, ,-31, ,
1, ,-30, ,
-1, ,-31, ,
1, ,-30, ,
1, ,-30, ,
1, ,-31, ,
1, ,-31, ,
1, ,-30, ,
-1, ,-31, ,
1, ,-28, ,
1, ,-13, ,
1, ,6, ,
2, ,21, ,
1, ,32, ,
-1, ,40, ,
1, ,45, ,
1, ,51, ,
1, ,54, ,
1, ,56, ,
1, ,58, ,
-1, ,60, ,
2, ,59, ,
1, ,61, ,
1, ,63, ,
1, ,61, ,
1, ,62, ,
-1, ,63, ,
2, ,61, ,
-1, ,63, ,
1, ,63, ,
2, ,62, ,
1, ,63, ,
-1, ,64, ,
2, ,62, ,
-1, ,63, ,
-1, ,64, ,
1, ,62, ,
73, ,62, ,
54, ,63, ,
34, ,62, ,
21, ,62, ,
13, ,64, ,
10, ,62, ,
7, ,63, ,
5, ,64, ,
6, ,62, ,
3, ,63, ,
3, ,64, ,
3, ,62, ,
2, ,62, ,
2, ,63, ,
3, ,62, ,
2, ,63, ,
2, ,63, ,
3, ,62, ,
3, ,62, ,
1, ,63, ,
3, ,61, ,
2, ,62, ,
2, ,63, ,
3, ,62, ,
2, ,62, ,
1, ,63, ,
3, ,61, ,
2, ,62, ,
2, ,63, ,
3, ,62, ,
2, ,62, ,
2, ,63, ,
3, ,61, ,
2, ,62, ,
2, ,63, ,
3, ,62, ,
2, ,62, ,
1, ,63, ,
3, ,61, ,
2, ,62, ,
2, ,63, ,
3, ,62, ,
2, ,62, ,
1, ,63, ,
3, ,61, ,
2, ,63, ,
2, ,64, ,
3, ,62, ,
6, ,62, ,
8, ,63, ,
10, ,62, ,
6, ,63, ,
5, ,63, ,
6, ,62, ,
5, ,62, ,
2, ,63, ,
5, ,61, ,
2, ,63, ,
2, ,63, ,
3, ,62, ,
3, ,63, ,
2, ,63, ,
3, ,61, ,
2, ,62, ,
2, ,63, ,
3, ,62, ,
2, ,62, ,
2, ,63, ,
3, ,61, ,
2, ,62, ,
2, ,63, ,
3, ,61, ,
2, ,62, ,
2, ,63, ,
3, ,61, ,
2, ,62, ,
2, ,63, ,
3, ,62, ,
3, ,62, ,
1, ,63, ,
3, ,61, ,
2, ,63, ,
2, ,63, ,
3, ,62, ,
3, ,62, ,
6, ,63, ,
8, ,61, ,
6, ,63, ,
5, ,63, ,
5, ,62, ,
3, ,62, ,
2, ,63, ,
3, ,61, ,
2, ,62, ,
2, ,63, ,
2, ,62, ,
2, ,62, ,
1, ,63, ,
3, ,61, ,
2, ,63, ,
2, ,62, ,
2, ,62, ,
2, ,62, ,
1, ,63, ,
3, ,61, ,
2, ,63, ,
2, ,63, ,
3, ,62, ,
2, ,62, ,
1, ,63, ,
3, ,62, ,
2, ,62, ,
2, ,63, ,
3, ,62, ,
2, ,62, ,
2, ,63, ,
3, ,61, ,
2, ,62, ,
5, ,63, ,
8, ,61, ,
7, ,62, ,
5, ,63, ,
6, ,61, ,
3, ,62, ,
2, ,63, ,
3, ,61, ,
3, ,62, ,
1, ,55, ,
3, ,34, ,
1, ,18, ,
2, ,5, ,
2, ,-3, ,
2, ,-11, ,
1, ,-16, ,
3, ,-20, ,
2, ,-22, ,
2, ,-25, ,
3, ,-26, ,
2, ,-27, ,
1, ,-28, ,
3, ,-30, ,
2, ,-30, ,
2, ,-31, ,
3, ,-31, ,
2, ,-31, ,
1, ,-31, ,
2, ,-31, ,
2, ,-31, ,
2, ,-31, ,
2, ,-31, ,
2, ,-31, ,
2, ,-31, ,
3, ,-31, ,
2, ,-31, ,
2, ,-31, ,
2, ,-31, ,
3, ,-31, ,
1, ,-31, ,
3, ,-30, ,
2, ,-31, ,
2, ,-31, ,
3, ,-31, ,
3, ,-31, ,
2, ,-31, ,
3, ,-31, ,
2, ,-31, ,
2, ,-31, ,
2, ,-31, ,
3, ,-31, ,
1, ,-31, ,
2, ,-30, ,
2, ,-31, ,
2, ,-31, ,
2, ,-31, ,
2, ,-31, ,
2, ,-31, ,
3, ,-31, ,
2, ,-31, ,
2, ,-31, ,
3, ,-31, ,
3, ,-31, ,
1, ,-31, ,
3, ,-30, ,
2, ,-31, ,
2, ,-31, ,
3, ,-31, ,
3, ,-31, ,
1, ,-31, ,
3, ,-30, ,
2, ,-31, ,
2, ,-31, ,
2, ,-31, ,
2, ,-31, ,
1, ,-31, ,
2, ,-30, ,
2, ,-30, ,
2, ,-31, ,
2, ,-31, ,
2, ,-31, ,
1, ,-31, ,
2, ,-31, ,
2, ,-31, ,
2, ,-31, ,
2, ,-30, ,
2, ,-31, ,
1, ,-31, ,
2, ,-30, ,
2, ,-30, ,
2, ,-31, ,
2, ,-31, ,
2, ,-31, ,
1, ,-31, ,
3, ,-31, ,
2, ,-31, ,
2, ,-31, ,
2, ,-30, ,
2, ,-30, ,
1, ,-31, ,
3, ,-30, ,
2, ,-30, ,
1, ,-31, ,
2, ,-31, ,
2, ,-30, ,
1, ,-31, ,
2, ,-30, ,
1, ,-30, ,
2, ,-31, ,
2, ,-30, ,
2, ,-31, ,
1, ,-31, ,
2, ,-30, ,
2, ,-31, ,
2, ,-31, ,
2, ,-31, ,
2, ,-30, ,
1, ,-31, ,
2, ,-31, ,
2, ,-31, ,
1, ,-30, ,
2, ,-31, ,
2, ,-30, ,
1, ,-31, ,
2, ,-30, ,
2, ,-30, ,
2, ,-31, ,
2, ,-31, ,
2, ,-31, ,
1, ,-31, ,
3, ,-30, ,
2, ,-31, ,
2, ,-31, ,
2, ,-31, ,
2, ,-31, ,
1, ,-30, ,
2, ,-30, ,
2, ,-30, ,
2, ,-31, ,
2, ,-31, ,
2, ,-31, ,
1, ,-31, ,
2, ,-31, ,
1, ,-31, ,
2, ,-30, ,
2, ,-31, ,
2, ,-31, ,
1, ,-31, ,
2, ,-30, ,
2, ,-30, ,
2, ,-31, ,
2, ,-30, ,
2, ,-30, ,
1, ,-31, ,
2, ,-31, ,
2, ,-30, ,
2, ,-30, ,
2, ,-31, ,
2, ,-30, ,
1, ,-31, ,
2, ,-30, ,
2, ,-30, ,
2, ,-31, ,
2, ,-31, ,
2, ,-31, ,
1, ,-31, ,
2, ,-30, ,
1, ,-30, ,
2, ,-30, ,
2, ,-30, ,
2, ,-31, ,
1, ,-31, ,
2, ,-30, ,
2, ,-30, ,
2, ,-31, ,
2, ,-30, ,
2, ,-31, ,
1, ,-30, ,
2, ,-30, ,
1, ,-30, ,
2, ,-31, ,
2, ,-30, ,
2, ,-30, ,
1, ,-31, ,
2, ,-30, ,
2, ,-30, ,
2, ,-31, ,
2, ,-31, ,
2, ,-30, ,
1, ,-30, ,
2, ,-30, ,
1, ,-30, ,
1, ,-31, ,
2, ,-31, ,
2, ,-31, ,
1, ,-31, ,
2, ,-30, ,
2, ,-30, ,
2, ,-31, ,
2, ,-31, ,
2, ,-30, ,
1, ,-30, ,
2, ,-30, ,
2, ,-30, ,
1, ,-31, ,
2, ,-31, ,
2, ,-30, ,
1, ,-31, ,
2, ,-30, ,
1, ,-30, ,
1, ,-31, ,
2, ,-31, ,
2, ,-30, ,
1, ,-30, ,
2, ,-30, ,
1, ,-30, ,
1, ,-30, ,
2, ,-30, ,
2, ,-31, ,
1, ,-31, ,
2, ,-30, ,
2, ,-30, ,
1, ,-31, ,
2, ,-31, ,
2, ,-30, ,
1, ,-31, ,
2, ,-30, ,
1, ,-31, ,
1, ,-30, ,
2, ,-30, ,
2, ,-30, ,
1, ,-31, ,
2, ,-30, ,
1, ,-30, ,
1, ,-31, ,
2, ,-31, ,
2, ,-30, ,
1, ,-30, ,
2, ,-30, ,
1, ,-31, ,
1, ,-31, ,
2, ,-30, ,
2, ,-30, ,
1, ,-31, ,
2, ,-30, ,
1, ,-30, ,
1, ,-31, ,
2, ,-30, ,
1, ,-31, ,
1, ,-31, ,
2, ,-30, ,
1, ,-31, ,
1, ,-31, ,
2, ,-30, ,
1, ,-30, ,
1, ,-31, ,
2, ,-30, ,
2, ,-31, ,
1, ,-31, ,
2, ,-30, ,
1, ,-31, ,
1, ,-30, ,
2, ,-31, ,
1, ,-31, ,
1, ,-31, ,
2, ,-30, ,
2, ,-30, ,
1, ,-31, ,
2, ,-30, ,
1, ,-30, ,
1, ,-31, ,
2, ,-31, ,
2, ,-31, ,
1, ,-30, ,
2, ,-31, ,
1, ,-31, ,
2, ,-31, ,
2, ,-31, ,
2, ,-30, ,
1, ,-31, ,
2, ,-30, ,
1, ,-30, ,
1, ,-31, ,
2, ,-30, ,
1, ,-30, ,
1, ,-30, ,
2, ,-31, ,
1, ,-31, ,
1, ,-30, ,
2, ,-31, ,
2, ,-31, ,
1, ,-31, ,
2, ,-30, ,
1, ,-30, ,
1, ,-31, ,
2, ,-31, ,
2, ,-31, ,
1, ,-30, ,
2, ,-30, ,
1, ,-30, ,
1, ,-30, ,
2, ,-30, ,
2, ,-30, ,
1, ,-31, ,
2, ,-30, ,
1, ,-30, ,
1, ,-31, ,
2, ,-30, ,
1, ,-30, ,
1, ,-30, ,
2, ,-30, ,
1, ,-31, ,
1, ,-31, ,
2, ,-31, ,
1, ,-31, ,
43, ,-31, ,
41, ,-30, ,
26, ,-30, ,
17, ,-31, ,
12, ,-31, ,
8, ,-30, ,
6, ,-31, ,
6, ,-31, ,
5, ,-31, ,
3, ,-31, ,
3, ,-30, ,
2, ,-31, ,
2, ,-31, ,
3, ,-30, ,
2, ,-30, ,
2, ,-31, ,
3, ,-31, ,
3, ,-30, ,
2, ,-31, ,
3, ,-30, ,
2, ,-31, ,
2, ,-31, ,
3, ,-31, ,
3, ,-31, ,
1, ,-31, ,
3, ,-30, ,
2, ,-30, ,
2, ,-31, ,
3, ,-31, ,
3, ,-30, ,
2, ,-31, ,
3, ,-31, ,
2, ,-31, ,
2, ,-30, ,
2, ,-31, ,
3, ,-30, ,
1, ,-31, ,
2, ,-30, ,
2, ,-30, ,
2, ,-31, ,
3, ,-31, ,
3, ,-30, ,
2, ,-31, ,
3, ,-31, ,
2, ,-31, ,
2, ,-30, ,
2, ,-31, ,
3, ,-31, ,
1, ,-31, ,
3, ,-30, ,
2, ,-30, ,
2, ,-31, ,
2, ,-31, ,
2, ,-31, ,
1, ,-31, ,
3, ,-30, ,
2, ,-30, ,
2, ,-31, ,
2, ,-31, ,
2, ,-30, ,
1, ,-31, ,
2, ,-30, ,
2, ,-31, ,
2, ,-31, ,
2, ,-31, ,
3, ,-30, ,
2, ,-30, ,
2, ,-30, ,
2, ,-30, ,
2, ,-31, ,
2, ,-31, ,
2, ,-30, ,
1, ,-31, ,
3, ,-30, ,
2, ,-31, ,
2, ,-31, ,
2, ,-31, ,
2, ,-30, ,
1, ,-31, ,
3, ,-30, ,
2, ,-30, ,
2, ,-31, ,
3, ,-31, ,
2, ,-31, ,
1, ,-31, ,
2, ,-31, ,
2, ,-31, ,
2, ,-31, ,
2, ,-31, ,
2, ,-30, ,
1, ,-31, ,
3, ,-30, ,
2, ,-30, ,
2, ,-31, ,
2, ,-31, ,
2, ,-31, ,
1, ,-31, ,
2, ,-30, ,
2, ,-30, ,
2, ,-31, ,
2, ,-31, ,
2, ,-31, ,
1, ,-31, ,
3, ,-30, ,
2, ,-31, ,
2, ,-31, ,
2, ,-30, ,
2, ,-31, ,
1, ,-31, ,
2, ,-30, ,
2, ,-30, ,
2, ,-31, ,
2, ,-30, ,
2, ,-30, ,
1, ,-31, ,
2, ,-30, ,
2, ,-30, ,
2, ,-30, ,
2, ,-30, ,
2, ,-31, ,
1, ,-30, ,
3, ,-30, ,
2, ,-30, ,
2, ,-31, ,
2, ,-31, ,
2, ,-31, ,
1, ,-31, ,
2, ,-30, ,
2, ,-30, ,
1, ,-31, ,
2, ,-31, ,
2, ,-31, ,
1, ,-31, ,
2, ,-30, ,
2, ,-30, ,
2, ,-31, ,
2, ,-31, ,
2, ,-31, ,
1, ,-30, ,
2, ,-31, ,
2, ,-30, ,
2, ,-31, ,
2, ,-31, ,
2, ,-31, ,
1, ,-31, ,
2, ,-30, ,
2, ,-31, ,
1, ,-31, ,
2, ,-31, ,
2, ,-31, ,
1, ,-31, ,
2, ,-30, ,
2, ,-30, ,
2, ,-30, ,
2, ,-31, ,
2, ,-31, ,
1, ,-31, ,
2, ,-30, ,
1, ,-30, ,
1, ,-31, ,
2, ,-31, ,
2, ,-31, ,
1, ,-31, ,
2, ,-30, ,
2, ,-31, ,
2, ,-31, ,
2, ,-30, ,
2, ,-31, ,
1, ,-31, ,
2, ,-30, ,
2, ,-31, ,
2, ,-31, ,
2, ,-30, ,
2, ,-30, ,
1, ,-30, ,
2, ,-30, ,
2, ,-31, ,
1, ,-31, ,
2, ,-31, ,
2, ,-31, ,
1, ,-31, ,
2, ,-30, ,
1, ,-30, ,
1, ,-31, ,
2, ,-31, ,
2, ,-31, ,
2, ,-31, ,
2, ,-31, ,
1, ,-31, ,
2, ,-30, ,
2, ,-30, ,
2, ,-31, ,
1, ,-31, ,
2, ,-30, ,
2, ,-30, ,
2, ,-31, ,
