src/varyamp_1558/temp0002305.CSV

Format,1.0B,
Memory Length,10000,Memory Length,10000,
IntpDistance,0,IntpDistance,0,
Trigger Address,4999,Trigger Address,4999,
Trigger Level,1.040E+00,Trigger Level,1.040E+00,
Source,CH1,Source,CH2,
Vertical Units,V,Vertical Units,V,
Vertical Units Div,0,Vertical Units Div,0,
Vertical Units Extend Div,16,Vertical Units Extend Div,16,
Label,,Label,,
Probe Type,0,Probe Type,0,
Probe Ratio,1.000e+01,Probe Ratio,1.000e+00,
Vertical Scale,5.000e-01,Vertical Scale,1.000e+00,
Vertical Position,-1.820e+00,Vertical Position,0.000e+00,
Horizontal Units,S,Horizontal Units,S,
Horizontal Scale,2.000E-05,Horizontal Scale,2.000E-05,
Horizontal Position,0.000E+00,Horizontal Position,0.000E+00,
Horizontal Mode,Main,Horizontal Mode,Main,
SincET Mode,Real Time,SincET Mode,Real Time,
Sampling Period,2.000e-08,Sampling Period,2.000e-08,
Horizontal Old Scale,2.000E-05,Horizontal Old Scale,2.000E-05,
Horizontal Old Position,0.000E+00,Horizontal Old Position,0.000E+00,
Firmware,V1.23,Firmware,V1.23,
Mode,Fast,Mode,Fast,
Waveform Data,,Waveform Data,,
2, ,-33, ,
2, ,-33, ,
1, ,-33, ,
3, ,-33, ,
2, ,-33, ,
1, ,-33, ,
2, ,-33, ,
3, ,-33, ,
29, ,-33, ,
22, ,-33, ,
15, ,-33, ,
10, ,-33, ,
8, ,-33, ,
6, ,-33, ,
3, ,-33, ,
5, ,-33, ,
3, ,-33, ,
2, ,-34, ,
3, ,-34, ,
3, ,-33, ,
1, ,-33, ,
3, ,-33, ,
2, ,-33, ,
2, ,-33, ,
3, ,-33, ,
3, ,-33, ,
1, ,-33, ,
3, ,-33, ,
2, ,-33, ,
2, ,-34, ,
2, ,-33, ,
2, ,-33, ,
1, ,-33, ,
3, ,-33, ,
2, ,-34, ,
2, ,-33, ,
3, ,-33, ,
3, ,-33, ,
1, ,-33, ,
3, ,-33, ,
2, ,-33, ,
1, ,-33, ,
2, ,-33, ,
2, ,-33, ,
1, ,-33, ,
3, ,-33, ,
2, ,-33, ,
1, ,-33, ,
2, ,-33, ,
2, ,-34, ,
1, ,-33, ,
3, ,-33, ,
2, ,-33, ,
2, ,-34, ,
2, ,-33, ,
2, ,-33, ,
1, ,-33, ,
3, ,-33, ,
2, ,-33, ,
1, ,-33, ,
2, ,-33, ,
2, ,-33, ,
1, ,-33, ,
3, ,-34, ,
2, ,-33, ,
1, ,-33, ,
2, ,-33, ,
2, ,-33, ,
1, ,-33, ,
3, ,-33, ,
2, ,-34, ,
1, ,-33, ,
2, ,-33, ,
3, ,-33, ,
1, ,-33, ,
3, ,-33, ,
2, ,-33, ,
1, ,-33, ,
2, ,-33, ,
2, ,-33, ,
1, ,-33, ,
3, ,-33, ,
1, ,-33, ,
1, ,-33, ,
2, ,-33, ,
2, ,-33, ,
1, ,-33, ,
3, ,-33, ,
2, ,-33, ,
1, ,-33, ,
2, ,-33, ,
2, ,-33, ,
1, ,-33, ,
3, ,-33, ,
1, ,-33, ,
1, ,-33, ,
2, ,-33, ,
2, ,-33, ,
1, ,-33, ,
3, ,-33, ,
2, ,-34, ,
1, ,-34, ,
2, ,-33, ,
2, ,-33, ,
1, ,-33, ,
3, ,-33, ,
1, ,-34, ,
1, ,-33, ,
2, ,-33, ,
2, ,-33, ,
1, ,-33, ,
3, ,-33, ,
2, ,-33, ,
2, ,-33, ,
2, ,-33, ,
2, ,-33, ,
1, ,-33, ,
3, ,-33, ,
2, ,-34, ,
1, ,-33, ,
2, ,-33, ,
2, ,-33, ,
1, ,-33, ,
3, ,-33, ,
2, ,-33, ,
1, ,-33, ,
2, ,-33, ,
2, ,-33, ,
1, ,-33, ,
3, ,-33, ,
1, ,-33, ,
1, ,-33, ,
2, ,-33, ,
2, ,-33, ,
1, ,-33, ,
3, ,-33, ,
1, ,-33, ,
1, ,-34, ,
2, ,-33, ,
2, ,-33, ,
1, ,-33, ,
3, ,-33, ,
2, ,-33, ,
1, ,-33, ,
2, ,-33, ,
2, ,-34, ,
1, ,-33, ,
3, ,-33, ,
1, ,-34, ,
1, ,-33, ,
2, ,-33, ,
2, ,-33, ,
1, ,-33, ,
3, ,-33, ,
1, ,-34, ,
1, ,-34, ,
2, ,-33, ,
2, ,-34, ,
1, ,-33, ,
3, ,-33, ,
1, ,-33, ,
1, ,-33, ,
2, ,-33, ,
2, ,-33, ,
1, ,-33, ,
3, ,-33, ,
2, ,-34, ,
1, ,-33, ,
2, ,-33, ,
2, ,-33, ,
-1, ,-33, ,
3, ,-33, ,
1, ,-33, ,
1, ,-34, ,
2, ,-33, ,
2, ,-33, ,
1, ,-33, ,
2, ,-33, ,
1, ,-34, ,
1, ,-33, ,
2, ,-33, ,
2, ,-33, ,
-1, ,-33, ,
3, ,-33, ,
1, ,-33, ,
1, ,-33, ,
2, ,-33, ,
2, ,-33, ,
1, ,-33, ,
3, ,-33, ,
1, ,-34, ,
1, ,-33, ,
2, ,-33, ,
2, ,-34, ,
1, ,-33, ,
2, ,-34, ,
1, ,-33, ,
1, ,-33, ,
2, ,-33, ,
2, ,-33, ,
1, ,-33, ,
3, ,-33, ,
1, ,-33, ,
1, ,-33, ,
2, ,-33, ,
2, ,-33, ,
-1, ,-33, ,
2, ,-34, ,
1, ,-33, ,
1, ,-33, ,
2, ,-34, ,
2, ,-33, ,
1, ,-33, ,
2, ,-33, ,
1, ,-34, ,
1, ,-33, ,
2, ,-33, ,
2, ,-34, ,
-1, ,-33, ,
3, ,-33, ,
2, ,-33, ,
1, ,-33, ,
1, ,-33, ,
2, ,-33, ,
1, ,-34, ,
3, ,-33, ,
1, ,-34, ,
1, ,-33, ,
2, ,-33, ,
2, ,-33, ,
-1, ,-33, ,
3, ,-33, ,
1, ,-33, ,
1, ,-33, ,
2, ,-33, ,
2, ,-33, ,
1, ,-33, ,
2, ,-33, ,
1, ,-34, ,
1, ,-33, ,
2, ,-33, ,
2, ,-34, ,
-1, ,-33, ,
2, ,-34, ,
1, ,-33, ,
1, ,-33, ,
1, ,-33, ,
2, ,-33, ,
1, ,-33, ,
2, ,-33, ,
1, ,-34, ,
1, ,-33, ,
2, ,-33, ,
2, ,-33, ,
-1, ,-33, ,
2, ,-33, ,
1, ,-33, ,
1, ,-33, ,
2, ,-33, ,
2, ,-33, ,
-1, ,-33, ,
2, ,-33, ,
1, ,-33, ,
1, ,-33, ,
2, ,-34, ,
2, ,-34, ,
-1, ,-33, ,
2, ,-34, ,
1, ,-33, ,
1, ,-33, ,
1, ,-33, ,
2, ,-33, ,
1, ,-33, ,
2, ,-33, ,
1, ,-34, ,
1, ,-33, ,
2, ,-33, ,
2, ,-34, ,
-1, ,-33, ,
2, ,-33, ,
1, ,-33, ,
1, ,-33, ,
2, ,-33, ,
2, ,-33, ,
1, ,-33, ,
2, ,-33, ,
1, ,-33, ,
1, ,-33, ,
2, ,-33, ,
2, ,-34, ,
-1, ,-33, ,
2, ,-34, ,
1, ,-33, ,
1, ,-33, ,
1, ,-33, ,
2, ,-33, ,
-1, ,-33, ,
2, ,-33, ,
1, ,-34, ,
1, ,-33, ,
2, ,-33, ,
2, ,-34, ,
-1, ,-33, ,
2, ,-33, ,
1, ,-33, ,
1, ,-33, ,
1, ,-33, ,
1, ,-33, ,
-1, ,-28, ,
2, ,-11, ,
1, ,7, ,
1, ,20, ,
2, ,31, ,
2, ,39, ,
-1, ,44, ,
2, ,49, ,
1, ,51, ,
1, ,54, ,
1, ,56, ,
1, ,57, ,
-1, ,57, ,
2, ,59, ,
1, ,58, ,
1, ,59, ,
2, ,60, ,
1, ,60, ,
-1, ,60, ,
2, ,60, ,
1, ,60, ,
1, ,60, ,
1, ,60, ,
1, ,60, ,
-1, ,60, ,
2, ,60, ,
1, ,59, ,
-1, ,60, ,
2, ,61, ,
1, ,60, ,
-1, ,60, ,
2, ,60, ,
1, ,60, ,
-1, ,60, ,
2, ,60, ,
1, ,60, ,
-1, ,60, ,
2, ,61, ,
1, ,59, ,
1, ,60, ,
2, ,60, ,
2, ,60, ,
50, ,60, ,
34, ,60, ,
21, ,59, ,
13, ,60, ,
10, ,60, ,
6, ,60, ,
3, ,60, ,
5, ,60, ,
2, ,59, ,
1, ,60, ,
3, ,60, ,
2, ,60, ,
1, ,59, ,
3, ,60, ,
2, ,59, ,
1, ,60, ,
2, ,60, ,
2, ,60, ,
2, ,59, ,
3, ,61, ,
2, ,59, ,
2, ,60, ,
3, ,61, ,
2, ,60, ,
1, ,59, ,
3, ,60, ,
2, ,59, ,
1, ,60, ,
2, ,60, ,
2, ,59, ,
1, ,60, ,
3, ,60, ,
1, ,59, ,
1, ,60, ,
2, ,60, ,
2, ,60, ,
1, ,60, ,
3, ,60, ,
2, ,59, ,
2, ,60, ,
2, ,60, ,
2, ,60, ,
1, ,60, ,
3, ,60, ,
2, ,59, ,
1, ,60, ,
2, ,60, ,
2, ,59, ,
1, ,59, ,
3, ,60, ,
2, ,59, ,
1, ,60, ,
2, ,60, ,
2, ,59, ,
1, ,60, ,
3, ,60, ,
1, ,59, ,
1, ,60, ,
2, ,60, ,
2, ,60, ,
1, ,59, ,
2, ,60, ,
2, ,59, ,
1, ,60, ,
2, ,60, ,
2, ,60, ,
1, ,60, ,
3, ,60, ,
2, ,59, ,
1, ,59, ,
2, ,60, ,
2, ,60, ,
1, ,59, ,
3, ,60, ,
1, ,59, ,
1, ,59, ,
2, ,60, ,
2, ,60, ,
1, ,60, ,
3, ,60, ,
1, ,59, ,
1, ,60, ,
2, ,60, ,
2, ,60, ,
1, ,59, ,
3, ,60, ,
2, ,60, ,
1, ,60, ,
2, ,60, ,
2, ,60, ,
1, ,59, ,
3, ,60, ,
1, ,59, ,
1, ,60, ,
2, ,60, ,
2, ,60, ,
17, ,60, ,
18, ,60, ,
12, ,59, ,
10, ,60, ,
7, ,60, ,
6, ,59, ,
2, ,59, ,
5, ,60, ,
2, ,59, ,
2, ,59, ,
3, ,60, ,
2, ,59, ,
1, ,60, ,
3, ,60, ,
2, ,59, ,
1, ,60, ,
2, ,59, ,
2, ,46, ,
1, ,26, ,
3, ,11, ,
1, ,0, ,
1, ,-8, ,
2, ,-15, ,
2, ,-20, ,
1, ,-23, ,
3, ,-26, ,
2, ,-28, ,
2, ,-30, ,
2, ,-31, ,
2, ,-32, ,
1, ,-33, ,
5, ,-33, ,
2, ,-33, ,
2, ,-34, ,
3, ,-34, ,
2, ,-34, ,
1, ,-34, ,
3, ,-34, ,
2, ,-34, ,
1, ,-34, ,
2, ,-34, ,
2, ,-34, ,
1, ,-34, ,
3, ,-34, ,
2, ,-34, ,
2, ,-34, ,
3, ,-34, ,
3, ,-34, ,
1, ,-34, ,
3, ,-34, ,
2, ,-34, ,
1, ,-34, ,
2, ,-34, ,
2, ,-34, ,
1, ,-34, ,
3, ,-34, ,
2, ,-34, ,
1, ,-33, ,
2, ,-34, ,
2, ,-34, ,
1, ,-33, ,
3, ,-34, ,
2, ,-33, ,
2, ,-33, ,
2, ,-34, ,
2, ,-33, ,
1, ,-33, ,
5, ,-33, ,
2, ,-33, ,
1, ,-33, ,
2, ,-33, ,
3, ,-34, ,
1, ,-34, ,
3, ,-34, ,
2, ,-33, ,
1, ,-33, ,
2, ,-33, ,
2, ,-34, ,
1, ,-34, ,
3, ,-33, ,
2, ,-34, ,
1, ,-33, ,
2, ,-33, ,
3, ,-34, ,
1, ,-33, ,
3, ,-34, ,
2, ,-33, ,
1, ,-33, ,
2, ,-33, ,
3, ,-33, ,
1, ,-34, ,
3, ,-33, ,
2, ,-33, ,
1, ,-33, ,
2, ,-33, ,
2, ,-34, ,
1, ,-33, ,
3, ,-33, ,
2, ,-33, ,
1, ,-33, ,
2, ,-33, ,
2, ,-33, ,
1, ,-33, ,
3, ,-33, ,
2, ,-33, ,
1, ,-33, ,
2, ,-33, ,
3, ,-34, ,
1, ,-33, ,
3, ,-33, ,
2, ,-33, ,
1, ,-33, ,
2, ,-33, ,
2, ,-33, ,
1, ,-33, ,
3, ,-33, ,
1, ,-34, ,
1, ,-33, ,
2, ,-33, ,
2, ,-34, ,
-1, ,-33, ,
3, ,-33, ,
2, ,-33, ,
1, ,-33, ,
2, ,-33, ,
2, ,-33, ,
1, ,-33, ,
3, ,-33, ,
1, ,-33, ,
1, ,-33, ,
2, ,-33, ,
2, ,-33, ,
1, ,-33, ,
2, ,-33, ,
1, ,-33, ,
1, ,-34, ,
2, ,-33, ,
2, ,-33, ,
1, ,-33, ,
3, ,-33, ,
1, ,-34, ,
1, ,-33, ,
2, ,-34, ,
2, ,-33, ,
1, ,-33, ,
3, ,-33, ,
1, ,-33, ,
1, ,-33, ,
2, ,-34, ,
2, ,-33, ,
1, ,-33, ,
3, ,-33, ,
1, ,-33, ,
1, ,-33, ,
2, ,-33, ,
2, ,-33, ,
1, ,-33, ,
3, ,-33, ,
1, ,-33, ,
1, ,-33, ,
1, ,-33, ,
2, ,-33, ,
1, ,-33, ,
3, ,-33, ,
1, ,-34, ,
1, ,-33, ,
2, ,-33, ,
2, ,-34, ,
1, ,-34, ,
3, ,-33, ,
1, ,-33, ,
1, ,-33, ,
2, ,-33, ,
2, ,-33, ,
1, ,-33, ,
3, ,-33, ,
1, ,-33, ,
1, ,-33, ,
2, ,-33, ,
2, ,-34, ,
-1, ,-33, ,
3, ,-33, ,
2, ,-33, ,
1, ,-34, ,
2, ,-33, ,
2, ,-33, ,
1, ,-33, ,
3, ,-33, ,
2, ,-33, ,
1, ,-33, ,
32, ,-33, ,
30, ,-33, ,
18, ,-33, ,
13, ,-33, ,
8, ,-33, ,
7, ,-33, ,
6, ,-33, ,
5, ,-33, ,
2, ,-33, ,
3, ,-33, ,
2, ,-33, ,
2, ,-33, ,
2, ,-33, ,
3, ,-33, ,
1, ,-33, ,
3, ,-33, ,
2, ,-33, ,
2, ,-33, ,
2, ,-33, ,
3, ,-33, ,
1, ,-33, ,
3, ,-33, ,
2, ,-33, ,
1, ,-33, ,
2, ,-33, ,
3, ,-33, ,
1, ,-33, ,
3, ,-33, ,
2, ,-33, ,
2, ,-33, ,
3, ,-33, ,
3, ,-33, ,
1, ,-33, ,
3, ,-33, ,
2, ,-33, ,
1, ,-33, ,
2, ,-33, ,
3, ,-33, ,
1, ,-33, ,
3, ,-33, ,
2, ,-33, ,
2, ,-34, ,
2, ,-33, ,
2, ,-33, ,
1, ,-33, ,
3, ,-33, ,
2, ,-33, ,
1, ,-33, ,
2, ,-33, ,
3, ,-33, ,
1, ,-33, ,
3, ,-34, ,
2, ,-33, ,
2, ,-33, ,
2, ,-33, ,
2, ,-34, ,
1, ,-33, ,
3, ,-33, ,
2, ,-34, ,
1, ,-33, ,
2, ,-33, ,
2, ,-33, ,
1, ,-33, ,
3, ,-33, ,
2, ,-33, ,
1, ,-33, ,
2, ,-33, ,
2, ,-33, ,
1, ,-33, ,
3, ,-33, ,
1, ,-33, ,
1, ,-33, ,
2, ,-33, ,
3, ,-33, ,
1, ,-33, ,
2, ,-33, ,
2, ,-33, ,
2, ,-33, ,
2, ,-33, ,
2, ,-33, ,
1, ,-33, ,
2, ,-33, ,
2, ,-33, ,
1, ,-33, ,
2, ,-33, ,
2, ,-34, ,
1, ,-33, ,
2, ,-33, ,
2, ,-33, ,
1, ,-33, ,
2, ,-33, ,
2, ,-33, ,
1, ,-33, ,
3, ,-33, ,
1, ,-33, ,
1, ,-33, ,
2, ,-33, ,
2, ,-33, ,
1, ,-33, ,
3, ,-33, ,
2, ,-33, ,
1, ,-33, ,
2, ,-33, ,
2, ,-33, ,
1, ,-33, ,
3, ,-33, ,
1, ,-34, ,
1, ,-33, ,
2, ,-33, ,
2, ,-34, ,
1, ,-33, ,
3, ,-33, ,
2, ,-33, ,
1, ,-34, ,
2, ,-33, ,
2, ,-33, ,
1, ,-33, ,
3, ,-33, ,
2, ,-33, ,
1, ,-33, ,
2, ,-33, ,
2, ,-33, ,
1, ,-33, ,
3, ,-33, ,
2, ,-33, ,
1, ,-33, ,
2, ,-33, ,
2, ,-33, ,
1, ,-33, ,
2, ,-33, ,
1, ,-33, ,
1, ,-33, ,
2, ,-34, ,
2, ,-34, ,
1, ,-33, ,
3, ,-33, ,
2, ,-33, ,
1, ,-33, ,
2, ,-33, ,
2, ,-33, ,
1, ,-33, ,
3, ,-33, ,
2, ,-33, ,
1, ,-33, ,
2, ,-33, ,
2, ,-33, ,
1, ,-33, ,
3, ,-33, ,
2, ,-33, ,
1, ,-33, ,
2, ,-33, ,
2, ,-33, ,
1, ,-33, ,
3, ,-33, ,
1, ,-34, ,
1, ,-33, ,
2, ,-33, ,
2, ,-34, ,
1, ,-33, ,
3, ,-33, ,
2, ,-33, ,
1, ,-34, ,
2, ,-33, ,
2, ,-33, ,
1, ,-33, ,
3, ,-33, ,
1, ,-33, ,
1, ,-34, ,
2, ,-33, ,
2, ,-34, ,
1, ,-33, ,
3, ,-34, ,
1, ,-33, ,
1, ,-33, ,
2, ,-34, ,
2, ,-33, ,
1, ,-33, ,
3, ,-33, ,
1, ,-34, ,
1, ,-33, ,
2, ,-33, ,
2, ,-34, ,
-1, ,-33, ,
3, ,-33, ,
1, ,-33, ,
1, ,-33, ,
2, ,-33, ,
2, ,-33, ,
1, ,-33, ,
2, ,-33, ,
1, ,-33, ,
1, ,-33, ,
2, ,-33, ,
2, ,-34, ,
1, ,-33, ,
3, ,-33, ,
1, ,-33, ,
1, ,-34, ,
2, ,-33, ,
2, ,-33, ,
1, ,-33, ,
2, ,-33, ,
1, ,-34, ,
1, ,-33, ,
2, ,-33, ,
2, ,-33, ,
-1, ,-33, ,
3, ,-33, ,
1, ,-33, ,
1, ,-34, ,
2, ,-33, ,
2, ,-33, ,
1, ,-33, ,
2, ,-33, ,
1, ,-33, ,
1, ,-33, ,
1, ,-33, ,
2, ,-33, ,
-1, ,-33, ,
2, ,-33, ,
1, ,-33, ,
1, ,-33, ,
2, ,-33, ,
2, ,-33, ,
1, ,-33, ,
2, ,-33, ,
1, ,-33, ,
1, ,-33, ,
2, ,-33, ,
2, ,-33, ,
1, ,-33, ,
2, ,-34, ,
1, ,-33, ,
1, ,-33, ,
2, ,-33, ,
2, ,-33, ,
1, ,-33, ,
3, ,-33, ,
1, ,-33, ,
1, ,-33, ,
2, ,-33, ,
2, ,-33, ,
1, ,-33, ,
3, ,-33, ,
1, ,-33, ,
1, ,-34, ,
2, ,-33, ,
2, ,-33, ,
1, ,-33, ,
2, ,-33, ,
1, ,-33, ,
1, ,-33, ,
2, ,-33, ,
2, ,-33, ,
-1, ,-33, ,
3, ,-33, ,
1, ,-33, ,
1, ,-34, ,
2, ,-33, ,
2, ,-33, ,
1, ,-33, ,
2, ,-33, ,
1, ,-34, ,
1, ,-33, ,
1, ,-33, ,
2, ,-33, ,
-1, ,-33, ,
3, ,-33, ,
1, ,-33, ,
1, ,-33, ,
2, ,-33, ,
2, ,-33, ,
-1, ,-33, ,
2, ,-33, ,
1, ,-33, ,
1, ,-33, ,
2, ,-33, ,
1, ,-34, ,
-1, ,-33, ,
2, ,-33, ,
1, ,-33, ,
1, ,-34, ,
2, ,-33, ,
2, ,-33, ,
-1, ,-33, ,
2, ,-34, ,
1, ,-33, ,
1, ,-33, ,
2, ,-33, ,
2, ,-33, ,
-1, ,-33, ,
2, ,-34, ,
1, ,-33, ,
1, ,-33, ,
2, ,-33, ,
2, ,-33, ,
1, ,-33, ,
2, ,-33, ,
1, ,-33, ,
1, ,-33, ,
1, ,-33, ,
2, ,-33, ,
-1, ,-33, ,
3, ,-33, ,
1, ,-33, ,
1, ,-34, ,
2, ,-33, ,
2, ,-33, ,
-1, ,-33, ,
2, ,-33, ,
1, ,-33, ,
1, ,-33, ,
1, ,-33, ,
2, ,-33, ,
-1, ,-33, ,
2, ,-33, ,
1, ,-33, ,
1, ,-34, ,
2, ,-33, ,
1, ,-33, ,
-1, ,-33, ,
2, ,-33, ,
1, ,-34, ,
1, ,-33, ,
1, ,-33, ,
1, ,-34, ,
-1, ,-33, ,
2, ,-34, ,
1, ,-33, ,
1, ,-33, ,
1, ,-33, ,
1, ,-33, ,
-1, ,-33, ,
2, ,-33, ,
1, ,-33, ,
1, ,-33, ,
1, ,-33, ,
1, ,-34, ,
-1, ,-33, ,
2, ,-33, ,
1, ,-33, ,
1, ,-34, ,
2, ,-33, ,
2, ,-33, ,
-1, ,-33, ,
2, ,-33, ,
1, ,-34, ,
1, ,-33, ,
1, ,-33, ,
2, ,-33, ,
-1, ,-33, ,
2, ,-33, ,
1, ,-33, ,
1, ,-33, ,
1, ,-33, ,
1, ,-33, ,
-1, ,-33, ,
2, ,-33, ,
1, ,-34, ,
1, ,-33, ,
1, ,-33, ,
1, ,-33, ,
-1, ,-33, ,
2, ,-33, ,
1, ,-33, ,
1, ,-33, ,
2, ,-33, ,
1, ,-33, ,
-1, ,-33, ,
2, ,-33, ,
1, ,-34, ,
1, ,-33, ,
2, ,-33, ,
1, ,-34, ,
-1, ,-33, ,
2, ,-33, ,
1, ,-33, ,
1, ,-33, ,
1, ,-33, ,
2, ,-33, ,
-1, ,-33, ,
2, ,-33, ,
1, ,-34, ,
1, ,-33, ,
1, ,-33, ,
1, ,-34, ,
-1, ,-33, ,
2, ,-33, ,
1, ,-33, ,
-1, ,-33, ,
1, ,-33, ,
1, ,-33, ,
-1, ,-34, ,
2, ,-34, ,
1, ,-34, ,
1, ,-33, ,
1, ,-33, ,
1, ,-34, ,
-1, ,-33, ,
2, ,-33, ,
1, ,-33, ,
1, ,-33, ,
1, ,-33, ,
1, ,-33, ,
-1, ,-33, ,
2, ,-33, ,
1, ,-34, ,
1, ,-33, ,
1, ,-33, ,
1, ,-33, ,
-1, ,-33, ,
2, ,-33, ,
1, ,-33, ,
1, ,-33, ,
1, ,-33, ,
1, ,-33, ,
-1, ,-33, ,
2, ,-33, ,
1, ,-34, ,
1, ,-33, ,
2, ,-33, ,
1, ,-33, ,
-1, ,-33, ,
2, ,-33, ,
1, ,-33, ,
1, ,-33, ,
1, ,-33, ,
2, ,-33, ,
-1, ,-33, ,
2, ,-33, ,
1, ,-33, ,
1, ,-33, ,
1, ,-33, ,
1, ,-34, ,
-1, ,-33, ,
2, ,-33, ,
1, ,-33, ,
1, ,-33, ,
1, ,-33, ,
1, ,-33, ,
-1, ,-33, ,
2, ,-33, ,
1, ,-33, ,
1, ,-33, ,
1, ,-33, ,
1, ,-33, ,
-1, ,-33, ,
2, ,-33, ,
1, ,-33, ,
-1, ,-33, ,
2, ,-33, ,
1, ,-33, ,
-1, ,-33, ,
2, ,-32, ,
1, ,-16, ,
1, ,3, ,
1, ,18, ,
2, ,28, ,
-1, ,37, ,
2, ,43, ,
1, ,47, ,
-1, ,51, ,
1, ,53, ,
1, ,55, ,
-1, ,57, ,
2, ,58, ,
-1, ,58, ,
1, ,59, ,
2, ,59, ,
1, ,60, ,
-1, ,60, ,
1, ,60, ,
1, ,60, ,
-1, ,60, ,
2, ,60, ,
1, ,60, ,
-1, ,60, ,
2, ,61, ,
1, ,60, ,
1, ,60, ,
1, ,60, ,
1, ,60, ,
-1, ,60, ,
2, ,60, ,
-1, ,60, ,
-1, ,60, ,
2, ,60, ,
1, ,60, ,
-1, ,60, ,
2, ,60, ,
-1, ,59, ,
-1, ,60, ,
2, ,60, ,
1, ,60, ,
-1, ,60, ,
2, ,60, ,
-1, ,60, ,
64, ,60, ,
52, ,60, ,
31, ,60, ,
18, ,59, ,
13, ,60, ,
8, ,59, ,
6, ,59, ,
5, ,60, ,
3, ,60, ,
2, ,60, ,
5, ,60, ,
2, ,59, ,
1, ,60, ,
3, ,60, ,
2, ,60, ,
2, ,59, ,
3, ,60, ,
2, ,59, ,
2, ,60, ,
2, ,60, ,
2, ,60, ,
1, ,59, ,
3, ,60, ,
1, ,59, ,
1, ,60, ,
2, ,60, ,
2, ,59, ,
1, ,59, ,
3, ,60, ,
2, ,60, ,
2, ,60, ,
2, ,60, ,
2, ,60, ,
1, ,59, ,
3, ,60, ,
2, ,59, ,
1, ,60, ,
2, ,59, ,
2, ,59, ,
1, ,59, ,
3, ,60, ,
2, ,59, ,
1, ,59, ,
2, ,60, ,
2, ,59, ,
1, ,59, ,
3, ,60, ,
2, ,60, ,
1, ,60, ,
2, ,60, ,
2, ,59, ,
1, ,60, ,
3, ,60, ,
1, ,59, ,
1, ,59, ,
2, ,60, ,
2, ,60, ,
1, ,59, ,
11, ,60, ,
12, ,59, ,
10, ,60, ,
8, ,60, ,
6, ,59, ,
3, ,60, ,
5, ,60, ,
2, ,59, ,
2, ,59, ,
3, ,60, ,
2, ,60, ,
1, ,60, ,
3, ,60, ,
2, ,59, ,
2, ,60, ,
3, ,60, ,
2, ,60, ,
1, ,59, ,
3, ,60, ,
2, ,59, ,
2, ,59, ,
2, ,60, ,
2, ,59, ,
1, ,60, ,
3, ,60, ,
2, ,59, ,
1, ,59, ,
3, ,60, ,
2, ,59, ,
2, ,59, ,
3, ,60, ,
2, ,59, ,
2, ,60, ,
2, ,60, ,
2, ,59, ,
1, ,59, ,
3, ,60, ,
2, ,59, ,
1, ,60, ,
3, ,60, ,
2, ,59, ,
1, ,59, ,
3, ,60, ,
1, ,59, ,
1, ,59, ,
2, ,60, ,
2, ,59, ,
1, ,59, ,
3, ,60, ,
2, ,59, ,
1, ,59, ,
2, ,60, ,
2, ,60, ,
1, ,52, ,
3, ,32, ,
1, ,15, ,
1, ,2, ,
2, ,-7, ,
2, ,-14, ,
1, ,-19, ,
3, ,-23, ,
1, ,-25, ,
1, ,-27, ,
2, ,-30, ,
2, ,-31, ,
1, ,-32, ,
3, ,-32, ,
1, ,-33, ,
2, ,-33, ,
2, ,-33, ,
2, ,-34, ,
1, ,-34, ,
3, ,-34, ,
2, ,-34, ,
2, ,-34, ,
2, ,-34, ,
2, ,-34, ,
1, ,-34, ,
3, ,-34, ,
1, ,-34, ,
1, ,-34, ,
2, ,-34, ,
2, ,-34, ,
1, ,-34, ,
3, ,-34, ,
2, ,-33, ,
1, ,-34, ,
2, ,-34, ,
5, ,-33, ,
17, ,-33, ,
15, ,-34, ,
10, ,-34, ,
7, ,-34, ,
6, ,-33, ,
5, ,-34, ,
2, ,-33, ,
3, ,-34, ,
2, ,-34, ,
1, ,-34, ,
3, ,-33, ,
2, ,-33, ,
2, ,-33, ,
3, ,-34, ,
2, ,-34, ,
2, ,-33, ,
3, ,-33, ,
3, ,-34, ,
1, ,-34, ,
3, ,-34, ,
2, ,-33, ,
1, ,-34, ,
3, ,-33, ,
3, ,-33, ,
1, ,-33, ,
3, ,-33, ,
2, ,-34, ,
2, ,-33, ,
2, ,-34, ,
2, ,-34, ,
2, ,-33, ,
3, ,-33, ,
2, ,-34, ,
2, ,-33, ,
2, ,-33, ,
3, ,-33, ,
1, ,-33, ,
3, ,-34, ,
2, ,-33, ,
2, ,-33, ,
2, ,-33, ,
3, ,-34, ,
2, ,-33, ,
3, ,-34, ,
2, ,-33, ,
2, ,-34, ,
3, ,-33, ,
3, ,-33, ,
2, ,-33, ,
3, ,-33, ,
2, ,-34, ,
2, ,-33, ,
2, ,-33, ,
3, ,-33, ,
1, ,-33, ,
3, ,-34, ,
2, ,-33, ,
2, ,-33, ,
3, ,-33, ,
3, ,-34, ,
1, ,-33, ,
3, ,-33, ,
2, ,-33, ,
1, ,-33, ,
2, ,-33, ,
2, ,-34, ,
1, ,-33, ,
3, ,-33, ,
2, ,-33, ,
1, ,-33, ,
3, ,-33, ,
2, ,-33, ,
1, ,-34, ,
3, ,-33, ,
2, ,-33, ,
1, ,-33, ,
2, ,-33, ,
2, ,-33, ,
1, ,-33, ,
3, ,-33, ,
2, ,-33, ,
1, ,-33, ,
3, ,-33, ,
3, ,-33, ,
1, ,-33, ,
3, ,-33, ,
1, ,-33, ,
1, ,-33, ,
2, ,-33, ,
2, ,-33, ,
1, ,-33, ,
3, ,-33, ,
2, ,-33, ,
2, ,-33, ,
2, ,-33, ,
2, ,-33, ,
1, ,-33, ,
3, ,-33, ,
2, ,-33, ,
1, ,-33, ,
2, ,-33, ,
3, ,-34, ,
15, ,-33, ,
20, ,-33, ,
13, ,-33, ,
8, ,-33, ,
7, ,-33, ,
6, ,-33, ,
3, ,-33, ,
5, ,-33, ,
2, ,-34, ,
2, ,-33, ,
3, ,-33, ,
3, ,-33, ,
1, ,-33, ,
3, ,-34, ,
2, ,-33, ,
2, ,-34, ,
2, ,-33, ,
3, ,-33, ,
2, ,-33, ,
3, ,-33, ,
2, ,-33, ,
2, ,-33, ,
2, ,-33, ,
3, ,-33, ,
1, ,-33, ,
3, ,-33, ,
2, ,-33, ,
1, ,-33, ,
3, ,-33, ,
3, ,-33, ,
1, ,-33, ,
3, ,-33, ,
2, ,-33, ,
1, ,-33, ,
2, ,-33, ,
2, ,-33, ,
1, ,-33, ,
3, ,-33, ,
2, ,-33, ,
2, ,-33, ,
3, ,-33, ,
3, ,-33, ,
1, ,-33, ,
3, ,-33, ,
2, ,-33, ,
2, ,-33, ,
3, ,-33, ,
2, ,-33, ,
1, ,-33, ,
3, ,-34, ,
2, ,-33, ,
1, ,-33, ,
3, ,-33, ,
2, ,-34, ,
1, ,-33, ,
3, ,-33, ,
2, ,-34, ,
2, ,-33, ,
2, ,-33, ,
3, ,-33, ,
1, ,-33, ,
3, ,-33, ,
2, ,-33, ,
1, ,-34, ,
2, ,-33, ,
2, ,-33, ,
1, ,-33, ,
3, ,-33, ,
2, ,-33, ,
1, ,-33, ,
2, ,-33, ,
3, ,-33, ,
1, ,-33, ,
3, ,-33, ,
2, ,-33, ,
1, ,-33, ,
2, ,-33, ,
2, ,-33, ,
1, ,-33, ,
3, ,-33, ,
2, ,-33, ,
1, ,-33, ,
2, ,-33, ,
2, ,-34, ,
1, ,-33, ,
3, ,-33, ,
2, ,-33, ,
1, ,-33, ,
2, ,-33, ,
2, ,-33, ,
1, ,-33, ,
3, ,-33, ,
2, ,-33, ,
1, ,-33, ,
2, ,-33, ,
2, ,-33, ,
1, ,-33, ,
3, ,-33, ,
2, ,-33, ,
2, ,-33, ,
2, ,-33, ,
2, ,-33, ,
1, ,-33, ,
3, ,-33, ,
1, ,-33, ,
1, ,-33, ,
2, ,-33, ,
2, ,-33, ,
1, ,-33, ,
3, ,-33, ,
2, ,-33, ,
1, ,-34, ,
2, ,-33, ,
2, ,-33, ,
1, ,-33, ,
3, ,-33, ,
1, ,-33, ,
1, ,-33, ,
2, ,-33, ,
2, ,-33, ,
1, ,-33, ,
3, ,-33, ,
1, ,-33, ,
1, ,-33, ,
2, ,-33, ,
2, ,-33, ,
1, ,-33, ,
3, ,-33, ,
2, ,-33, ,
1, ,-33, ,
2, ,-33, ,
2, ,-33, ,
1, ,-33, ,
3, ,-33, ,
1, ,-33, ,
1, ,-33, ,
2, ,-33, ,
2, ,-33, ,
1, ,-33, ,
3, ,-33, ,
1, ,-33, ,
1, ,-33, ,
2, ,-33, ,
2, ,-33, ,
1, ,-33, ,
3, ,-33, ,
1, ,-33, ,
1, ,-33, ,
2, ,-33, ,
2, ,-33, ,
1, ,-33, ,
3, ,-33, ,
1, ,-33, ,
1, ,-33, ,
2, ,-33, ,
2, ,-33, ,
1, ,-33, ,
3, ,-33, ,
1, ,-33, ,
1, ,-33, ,
2, ,-34, ,
2, ,-33, ,
1, ,-33, ,
2, ,-33, ,
1, ,-33, ,
1, ,-33, ,
2, ,-33, ,
2, ,-33, ,
1, ,-33, ,
3, ,-33, ,
2, ,-33, ,
1, ,-33, ,
2, ,-33, ,
2, ,-33, ,
1, ,-33, ,
2, ,-33, ,
1, ,-33, ,
1, ,-33, ,
2, ,-33, ,
2, ,-33, ,
1, ,-33, ,
3, ,-33, ,
1, ,-33, ,
1, ,-33, ,
2, ,-33, ,
2, ,-33, ,
1, ,-33, ,
2, ,-33, ,
1, ,-33, ,
1, ,-33, ,
2, ,-33, ,
2, ,-33, ,
1, ,-33, ,
3, ,-33, ,
1, ,-33, ,
1, ,-33, ,
2, ,-33, ,
2, ,-33, ,
1, ,-33, ,
3, ,-33, ,
1, ,-33, ,
1, ,-33, ,
2, ,-33, ,
2, ,-34, ,
1, ,-33, ,
3, ,-33, ,
2, ,-33, ,
1, ,-33, ,
2, ,-33, ,
2, ,-33, ,
1, ,-33, ,
3, ,-33, ,
1, ,-33, ,
1, ,-33, ,
2, ,-33, ,
2, ,-34, ,
1, ,-33, ,
3, ,-33, ,
1, ,-33, ,
1, ,-33, ,
2, ,-33, ,
2, ,-33, ,
1, ,-33, ,
2, ,-33, ,
1, ,-34, ,
1, ,-33, ,
2, ,-33, ,
2, ,-33, ,
1, ,-33, ,
3, ,-34, ,
1, ,-33, ,
1, ,-33, ,
2, ,-33, ,
2, ,-33, ,
1, ,-33, ,
2, ,-33, ,
1, ,-34, ,
1, ,-33, ,
2, ,-33, ,
2, ,-33, ,
-1, ,-33, ,
3, ,-34, ,
1, ,-33, ,
1, ,-33, ,
2, ,-33, ,
2, ,-33, ,
-1, ,-33, ,
2, ,-33, ,
1, ,-34, ,
1, ,-33, ,
1, ,-33, ,
2, ,-34, ,
1, ,-33, ,
2, ,-33, ,
1, ,-33, ,
1, ,-34, ,
2, ,-33, ,
1, ,-33, ,
1, ,-33, ,
2, ,-33, ,
1, ,-33, ,
1, ,-33, ,
1, ,-33, ,
2, ,-33, ,
-1, ,-33, ,
2, ,-33, ,
1, ,-34, ,
1, ,-34, ,
1, ,-33, ,
1, ,-33, ,
-1, ,-33, ,
2, ,-33, ,
1, ,-34, ,
1, ,-33, ,
1, ,-33, ,
1, ,-33, ,
-1, ,-33, ,
2, ,-33, ,
1, ,-33, ,
1, ,-33, ,
2, ,-33, ,
2, ,-33, ,
-1, ,-33, ,
2, ,-33, ,
1, ,-34, ,
1, ,-33, ,
2, ,-33, ,
2, ,-33, ,
-1, ,-33, ,
2, ,-33, ,
1, ,-33, ,
1, ,-33, ,
1, ,-33, ,
2, ,-33, ,
-1, ,-33, ,
2, ,-33, ,
1, ,-34, ,
1, ,-33, ,
1, ,-33, ,
1, ,-33, ,
-1, ,-33, ,
2, ,-33, ,
1, ,-33, ,
1, ,-33, ,
2, ,-33, ,
2, ,-33, ,
-1, ,-33, ,
2, ,-33, ,
1, ,-34, ,
1, ,-33, ,
1, ,-33, ,
2, ,-33, ,
-1, ,-33, ,
2, ,-33, ,
1, ,-33, ,
1, ,-34, ,
2, ,-33, ,
2, ,-33, ,
1, ,-33, ,
2, ,-33, ,
1, ,-33, ,
1, ,-33, ,
1, ,-33, ,
2, ,-33, ,
-1, ,-33, ,
2, ,-34, ,
1, ,-33, ,
1, ,-33, ,
2, ,-33, ,
1, ,-33, ,
1, ,-33, ,
2, ,-33, ,
1, ,-33, ,
1, ,-33, ,
1, ,-33, ,
2, ,-34, ,
-1, ,-33, ,
2, ,-33, ,
1, ,-33, ,
1, ,-33, ,
2, ,-33, ,
1, ,-33, ,
-1, ,-33, ,
2, ,-33, ,
1, ,-34, ,
1, ,-34, ,
1, ,-33, ,
2, ,-33, ,
-1, ,-33, ,
2, ,-33, ,
1, ,-33, ,
1, ,-33, ,
1, ,-33, ,
1, ,-33, ,
-1, ,-33, ,
2, ,-33, ,
1, ,-34, ,
1, ,-33, ,
1, ,-33, ,
