src/varyamp_1558/temp0004133.CSV

Format,1.0B,
Memory Length,10000,Memory Length,10000,
IntpDistance,0,IntpDistance,0,
Trigger Address,4999,Trigger Address,4999,
Trigger Level,1.040E+00,Trigger Level,1.040E+00,
Source,CH1,Source,CH2,
Vertical Units,V,Vertical Units,V,
Vertical Units Div,0,Vertical Units Div,0,
Vertical Units Extend Div,16,Vertical Units Extend Div,16,
Label,,Label,,
Probe Type,0,Probe Type,0,
Probe Ratio,1.000e+01,Probe Ratio,1.000e+00,
Vertical Scale,5.000e-01,Vertical Scale,1.000e+00,
Vertical Position,-1.820e+00,Vertical Position,0.000e+00,
Horizontal Units,S,Horizontal Units,S,
Horizontal Scale,2.000E-05,Horizontal Scale,2.000E-05,
Horizontal Position,0.000E+00,Horizontal Position,0.000E+00,
Horizontal Mode,Main,Horizontal Mode,Main,
SincET Mode,Real Time,SincET Mode,Real Time,
Sampling Period,2.000e-08,Sampling Period,2.000e-08,
Horizontal Old Scale,2.000E-05,Horizontal Old Scale,2.000E-05,
Horizontal Old Position,0.000E+00,Horizontal Old Position,0.000E+00,
Firmware,V1.23,Firmware,V1.23,
Mode,Fast,Mode,Fast,
Waveform Data,,Waveform Data,,
1, ,-37, ,
1, ,-38, ,
2, ,-38, ,
2, ,-37, ,
-1, ,-38, ,
2, ,-38, ,
1, ,-38, ,
1, ,-38, ,
2, ,-38, ,
2, ,-38, ,
1, ,-38, ,
2, ,-38, ,
1, ,-37, ,
1, ,-38, ,
2, ,-38, ,
2, ,-37, ,
-1, ,-37, ,
2, ,-38, ,
1, ,-38, ,
1, ,-38, ,
2, ,-38, ,
2, ,-38, ,
-1, ,-38, ,
3, ,-37, ,
1, ,-38, ,
1, ,-38, ,
2, ,-37, ,
2, ,-38, ,
1, ,-38, ,
2, ,-37, ,
1, ,-37, ,
1, ,-38, ,
2, ,-38, ,
2, ,-37, ,
-1, ,-37, ,
3, ,-38, ,
1, ,-37, ,
1, ,-38, ,
2, ,-37, ,
2, ,-37, ,
-1, ,-38, ,
2, ,-38, ,
1, ,-38, ,
1, ,-38, ,
2, ,-38, ,
2, ,-38, ,
-1, ,-38, ,
2, ,-38, ,
1, ,-38, ,
1, ,-38, ,
2, ,-37, ,
2, ,-37, ,
1, ,-38, ,
2, ,-38, ,
1, ,-37, ,
1, ,-38, ,
2, ,-38, ,
2, ,-38, ,
-1, ,-38, ,
2, ,-38, ,
1, ,-37, ,
1, ,-38, ,
1, ,-38, ,
2, ,-37, ,
-1, ,-38, ,
2, ,-38, ,
1, ,-38, ,
1, ,-38, ,
2, ,-38, ,
2, ,-38, ,
-1, ,-37, ,
2, ,-38, ,
1, ,-38, ,
1, ,-38, ,
2, ,-37, ,
2, ,-38, ,
-1, ,-38, ,
2, ,-37, ,
1, ,-37, ,
1, ,-38, ,
2, ,-38, ,
2, ,-37, ,
-1, ,-38, ,
2, ,-38, ,
1, ,-37, ,
1, ,-38, ,
2, ,-37, ,
2, ,-37, ,
-1, ,-38, ,
2, ,-37, ,
1, ,-37, ,
1, ,-38, ,
2, ,-38, ,
1, ,-37, ,
-1, ,-38, ,
2, ,-38, ,
1, ,-37, ,
-1, ,-38, ,
1, ,-38, ,
2, ,-37, ,
-1, ,-38, ,
2, ,-38, ,
1, ,-37, ,
1, ,-38, ,
2, ,-37, ,
2, ,-37, ,
-1, ,-37, ,
2, ,-37, ,
1, ,-37, ,
1, ,-38, ,
1, ,-37, ,
2, ,-38, ,
-1, ,-38, ,
2, ,-37, ,
1, ,-37, ,
1, ,-38, ,
2, ,-38, ,
1, ,-38, ,
-1, ,-38, ,
2, ,-38, ,
1, ,-37, ,
1, ,-38, ,
2, ,-38, ,
2, ,-37, ,
-1, ,-37, ,
2, ,-37, ,
1, ,-37, ,
1, ,-38, ,
2, ,-38, ,
1, ,-38, ,
-1, ,-37, ,
2, ,-38, ,
1, ,-37, ,
1, ,-38, ,
2, ,-38, ,
1, ,-37, ,
-1, ,-38, ,
2, ,-37, ,
1, ,-37, ,
1, ,-38, ,
2, ,-38, ,
1, ,-38, ,
-1, ,-37, ,
2, ,-37, ,
1, ,-38, ,
1, ,-38, ,
2, ,-38, ,
1, ,-37, ,
-1, ,-38, ,
2, ,-37, ,
1, ,-37, ,
1, ,-37, ,
1, ,-38, ,
1, ,-37, ,
-1, ,-37, ,
2, ,-38, ,
1, ,-37, ,
1, ,-38, ,
1, ,-37, ,
1, ,-38, ,
-1, ,-37, ,
2, ,-37, ,
1, ,-38, ,
1, ,-38, ,
2, ,-38, ,
1, ,-38, ,
-1, ,-38, ,
2, ,-38, ,
1, ,-37, ,
1, ,-38, ,
2, ,-38, ,
1, ,-38, ,
-1, ,-38, ,
2, ,-37, ,
1, ,-37, ,
1, ,-37, ,
1, ,-38, ,
1, ,-38, ,
-1, ,-38, ,
2, ,-37, ,
1, ,-37, ,
1, ,-38, ,
1, ,-37, ,
1, ,-38, ,
-1, ,-38, ,
2, ,-37, ,
1, ,-37, ,
1, ,-38, ,
2, ,-38, ,
1, ,-37, ,
-1, ,-38, ,
2, ,-38, ,
1, ,-38, ,
1, ,-38, ,
1, ,-37, ,
1, ,-38, ,
-1, ,-38, ,
2, ,-37, ,
1, ,-37, ,
1, ,-38, ,
1, ,-38, ,
1, ,-38, ,
-1, ,-38, ,
2, ,-38, ,
1, ,-37, ,
1, ,-38, ,
1, ,-37, ,
1, ,-38, ,
-1, ,-37, ,
2, ,-37, ,
1, ,-37, ,
1, ,-38, ,
2, ,-38, ,
1, ,-38, ,
-1, ,-37, ,
2, ,-37, ,
1, ,-37, ,
1, ,-38, ,
2, ,-38, ,
2, ,-38, ,
-1, ,-38, ,
2, ,-38, ,
1, ,-37, ,
1, ,-38, ,
2, ,-38, ,
1, ,-37, ,
-1, ,-38, ,
2, ,-37, ,
1, ,-37, ,
1, ,-38, ,
2, ,-37, ,
1, ,-38, ,
-1, ,-37, ,
1, ,-37, ,
1, ,-37, ,
1, ,-38, ,
1, ,-38, ,
1, ,-38, ,
-1, ,-37, ,
2, ,-38, ,
1, ,-38, ,
-1, ,-38, ,
1, ,-37, ,
1, ,-38, ,
-1, ,-38, ,
2, ,-37, ,
-1, ,-37, ,
-1, ,-38, ,
2, ,-38, ,
1, ,-38, ,
-1, ,-38, ,
2, ,-37, ,
1, ,-37, ,
-1, ,-38, ,
1, ,-37, ,
1, ,-37, ,
-1, ,-38, ,
2, ,-37, ,
-1, ,-37, ,
-1, ,-38, ,
1, ,-38, ,
1, ,-37, ,
-1, ,-37, ,
2, ,-38, ,
-1, ,-37, ,
-1, ,-38, ,
1, ,-37, ,
1, ,-38, ,
-1, ,-38, ,
1, ,-38, ,
-1, ,-38, ,
-1, ,-37, ,
1, ,-38, ,
1, ,-37, ,
-1, ,-37, ,
2, ,-37, ,
1, ,-37, ,
-1, ,-38, ,
1, ,-37, ,
1, ,-38, ,
-1, ,-38, ,
2, ,-37, ,
-1, ,-38, ,
-1, ,-37, ,
1, ,-38, ,
1, ,-38, ,
-1, ,-38, ,
2, ,-38, ,
1, ,-37, ,
-1, ,-38, ,
1, ,-38, ,
1, ,-38, ,
-1, ,-38, ,
1, ,-37, ,
-1, ,-38, ,
-1, ,-38, ,
1, ,-38, ,
1, ,-38, ,
-1, ,-38, ,
2, ,-38, ,
1, ,-37, ,
-1, ,-38, ,
1, ,-37, ,
1, ,-38, ,
-1, ,-38, ,
1, ,-38, ,
-1, ,-37, ,
-1, ,-30, ,
1, ,-8, ,
1, ,7, ,
-1, ,20, ,
2, ,30, ,
1, ,36, ,
1, ,41, ,
2, ,44, ,
1, ,49, ,
-1, ,50, ,
2, ,52, ,
1, ,53, ,
-1, ,54, ,
2, ,54, ,
1, ,55, ,
-1, ,55, ,
2, ,56, ,
1, ,55, ,
1, ,56, ,
2, ,55, ,
1, ,56, ,
-1, ,56, ,
2, ,56, ,
1, ,56, ,
-1, ,56, ,
2, ,55, ,
1, ,56, ,
-1, ,56, ,
2, ,56, ,
1, ,56, ,
-1, ,56, ,
2, ,56, ,
1, ,56, ,
-1, ,56, ,
1, ,56, ,
1, ,56, ,
1, ,56, ,
2, ,55, ,
1, ,55, ,
-1, ,56, ,
2, ,56, ,
1, ,55, ,
-1, ,56, ,
2, ,55, ,
1, ,55, ,
-1, ,56, ,
1, ,56, ,
1, ,55, ,
-1, ,56, ,
1, ,55, ,
1, ,55, ,
-1, ,55, ,
2, ,56, ,
1, ,55, ,
-1, ,55, ,
2, ,55, ,
1, ,55, ,
-1, ,56, ,
1, ,56, ,
1, ,55, ,
-1, ,56, ,
1, ,55, ,
-1, ,55, ,
-1, ,56, ,
1, ,56, ,
1, ,55, ,
-1, ,56, ,
1, ,55, ,
1, ,55, ,
-1, ,56, ,
1, ,56, ,
1, ,55, ,
-1, ,56, ,
2, ,55, ,
1, ,55, ,
-1, ,56, ,
1, ,55, ,
1, ,55, ,
-1, ,55, ,
1, ,55, ,
1, ,55, ,
-1, ,56, ,
1, ,55, ,
1, ,55, ,
-1, ,56, ,
1, ,55, ,
1, ,55, ,
-1, ,56, ,
1, ,55, ,
1, ,55, ,
-1, ,56, ,
1, ,55, ,
-1, ,55, ,
-1, ,55, ,
2, ,55, ,
1, ,55, ,
-1, ,56, ,
2, ,55, ,
1, ,55, ,
-1, ,56, ,
2, ,56, ,
1, ,56, ,
-1, ,56, ,
2, ,55, ,
1, ,55, ,
-1, ,56, ,
2, ,55, ,
-1, ,55, ,
-1, ,56, ,
1, ,55, ,
1, ,55, ,
-1, ,55, ,
2, ,55, ,
-1, ,55, ,
-1, ,55, ,
2, ,55, ,
-1, ,55, ,
-1, ,56, ,
2, ,55, ,
1, ,55, ,
-1, ,56, ,
1, ,55, ,
-1, ,55, ,
-1, ,55, ,
2, ,55, ,
1, ,55, ,
-1, ,55, ,
2, ,55, ,
1, ,55, ,
-1, ,55, ,
2, ,55, ,
1, ,55, ,
-1, ,56, ,
2, ,55, ,
1, ,55, ,
-1, ,56, ,
2, ,55, ,
1, ,55, ,
-1, ,56, ,
1, ,55, ,
1, ,55, ,
-1, ,55, ,
2, ,55, ,
1, ,55, ,
-1, ,56, ,
1, ,55, ,
1, ,55, ,
-1, ,55, ,
2, ,55, ,
1, ,55, ,
-1, ,56, ,
2, ,55, ,
1, ,55, ,
-1, ,55, ,
2, ,51, ,
-1, ,32, ,
-1, ,14, ,
1, ,1, ,
-1, ,-9, ,
-1, ,-17, ,
1, ,-22, ,
-1, ,-26, ,
-1, ,-30, ,
1, ,-32, ,
1, ,-33, ,
-1, ,-35, ,
1, ,-36, ,
-1, ,-37, ,
-1, ,-37, ,
1, ,-38, ,
1, ,-38, ,
-1, ,-38, ,
2, ,-38, ,
-1, ,-38, ,
-1, ,-39, ,
1, ,-38, ,
1, ,-38, ,
-1, ,-38, ,
1, ,-38, ,
-1, ,-38, ,
-1, ,-39, ,
1, ,-38, ,
1, ,-38, ,
-1, ,-38, ,
1, ,-38, ,
-1, ,-38, ,
-1, ,-38, ,
1, ,-38, ,
1, ,-38, ,
-1, ,-38, ,
1, ,-38, ,
-1, ,-38, ,
-1, ,-38, ,
2, ,-38, ,
1, ,-38, ,
-2, ,-38, ,
2, ,-38, ,
-1, ,-38, ,
-1, ,-38, ,
1, ,-38, ,
1, ,-38, ,
-1, ,-38, ,
2, ,-38, ,
-1, ,-38, ,
-1, ,-38, ,
1, ,-38, ,
1, ,-38, ,
-1, ,-38, ,
2, ,-38, ,
1, ,-37, ,
-1, ,-38, ,
1, ,-38, ,
1, ,-38, ,
-1, ,-38, ,
1, ,-38, ,
-1, ,-38, ,
-1, ,-38, ,
1, ,-38, ,
1, ,-38, ,
-2, ,-38, ,
2, ,-38, ,
-1, ,-37, ,
-1, ,-38, ,
1, ,-38, ,
1, ,-38, ,
-1, ,-38, ,
2, ,-37, ,
-1, ,-38, ,
-1, ,-38, ,
1, ,-38, ,
1, ,-38, ,
-1, ,-38, ,
2, ,-38, ,
-1, ,-37, ,
-1, ,-38, ,
1, ,-38, ,
1, ,-38, ,
-2, ,-37, ,
1, ,-37, ,
-1, ,-37, ,
-1, ,-38, ,
1, ,-38, ,
1, ,-38, ,
-1, ,-38, ,
2, ,-38, ,
-1, ,-38, ,
-1, ,-38, ,
1, ,-38, ,
1, ,-38, ,
-2, ,-38, ,
1, ,-38, ,
-1, ,-37, ,
-1, ,-38, ,
1, ,-38, ,
1, ,-37, ,
-1, ,-38, ,
2, ,-38, ,
-1, ,-37, ,
-1, ,-38, ,
1, ,-38, ,
1, ,-38, ,
-1, ,-38, ,
1, ,-38, ,
-1, ,-38, ,
-1, ,-38, ,
1, ,-38, ,
1, ,-38, ,
-2, ,-37, ,
1, ,-38, ,
-1, ,-38, ,
-1, ,-38, ,
1, ,-38, ,
1, ,-37, ,
-1, ,-38, ,
2, ,-37, ,
-1, ,-37, ,
-1, ,-38, ,
1, ,-38, ,
1, ,-37, ,
-1, ,-38, ,
2, ,-38, ,
-1, ,-38, ,
-1, ,-38, ,
1, ,-37, ,
1, ,-38, ,
-1, ,-38, ,
1, ,-38, ,
-1, ,-38, ,
-1, ,-38, ,
1, ,-38, ,
1, ,-38, ,
-1, ,-38, ,
2, ,-38, ,
-1, ,-37, ,
-1, ,-38, ,
1, ,-37, ,
1, ,-37, ,
-1, ,-38, ,
1, ,-38, ,
-1, ,-37, ,
-1, ,-38, ,
1, ,-38, ,
1, ,-38, ,
-1, ,-38, ,
2, ,-37, ,
-1, ,-37, ,
-1, ,-38, ,
1, ,-38, ,
1, ,-38, ,
-1, ,-37, ,
1, ,-38, ,
-1, ,-37, ,
-1, ,-38, ,
1, ,-38, ,
1, ,-37, ,
-1, ,-37, ,
2, ,-38, ,
-1, ,-37, ,
-1, ,-38, ,
1, ,-38, ,
1, ,-38, ,
-1, ,-38, ,
1, ,-37, ,
-1, ,-37, ,
-1, ,-38, ,
1, ,-38, ,
1, ,-37, ,
-2, ,-38, ,
1, ,-38, ,
-1, ,-37, ,
-1, ,-38, ,
1, ,-37, ,
1, ,-38, ,
-2, ,-38, ,
1, ,-38, ,
-1, ,-37, ,
-1, ,-38, ,
1, ,-38, ,
1, ,-38, ,
-2, ,-38, ,
2, ,-38, ,
-1, ,-37, ,
-1, ,-38, ,
1, ,-38, ,
1, ,-37, ,
-1, ,-38, ,
2, ,-37, ,
-1, ,-37, ,
-1, ,-38, ,
1, ,-38, ,
1, ,-38, ,
-1, ,-37, ,
1, ,-38, ,
-1, ,-37, ,
-1, ,-38, ,
1, ,-38, ,
1, ,-37, ,
-1, ,-38, ,
1, ,-37, ,
-1, ,-37, ,
-1, ,-38, ,
1, ,-38, ,
1, ,-38, ,
-1, ,-37, ,
2, ,-38, ,
-1, ,-38, ,
-1, ,-38, ,
1, ,-38, ,
1, ,-38, ,
-1, ,-38, ,
1, ,-38, ,
-1, ,-37, ,
-1, ,-38, ,
1, ,-37, ,
1, ,-38, ,
-2, ,-38, ,
1, ,-37, ,
-1, ,-37, ,
-1, ,-38, ,
1, ,-37, ,
1, ,-38, ,
-1, ,-38, ,
1, ,-38, ,
-1, ,-37, ,
-1, ,-38, ,
1, ,-38, ,
1, ,-37, ,
-1, ,-37, ,
1, ,-38, ,
-1, ,-37, ,
-1, ,-38, ,
1, ,-37, ,
1, ,-38, ,
-2, ,-38, ,
1, ,-37, ,
-1, ,-37, ,
-1, ,-38, ,
1, ,-38, ,
1, ,-37, ,
-1, ,-38, ,
2, ,-37, ,
-1, ,-38, ,
-1, ,-38, ,
1, ,-37, ,
1, ,-38, ,
-1, ,-38, ,
1, ,-37, ,
-1, ,-38, ,
-1, ,-38, ,
1, ,-38, ,
1, ,-38, ,
-2, ,-37, ,
2, ,-38, ,
-1, ,-38, ,
-1, ,-38, ,
1, ,-38, ,
1, ,-37, ,
-1, ,-38, ,
2, ,-37, ,
-1, ,-37, ,
-1, ,-38, ,
1, ,-37, ,
1, ,-38, ,
-2, ,-38, ,
2, ,-38, ,
-1, ,-37, ,
-1, ,-38, ,
1, ,-37, ,
1, ,-38, ,
-1, ,-38, ,
1, ,-37, ,
-1, ,-37, ,
-1, ,-38, ,
1, ,-37, ,
1, ,-38, ,
-2, ,-37, ,
1, ,-38, ,
-1, ,-37, ,
-1, ,-38, ,
1, ,-37, ,
52, ,-38, ,
68, ,-38, ,
43, ,-37, ,
25, ,-38, ,
16, ,-38, ,
11, ,-38, ,
10, ,-38, ,
5, ,-37, ,
6, ,-38, ,
3, ,-38, ,
2, ,-38, ,
3, ,-37, ,
2, ,-37, ,
1, ,-38, ,
3, ,-37, ,
1, ,-37, ,
2, ,-38, ,
3, ,-38, ,
2, ,-38, ,
1, ,-38, ,
3, ,-38, ,
2, ,-38, ,
2, ,-38, ,
2, ,-38, ,
2, ,-38, ,
1, ,-38, ,
3, ,-37, ,
2, ,-37, ,
1, ,-38, ,
2, ,-38, ,
2, ,-38, ,
1, ,-38, ,
3, ,-38, ,
1, ,-37, ,
1, ,-38, ,
2, ,-38, ,
3, ,-38, ,
1, ,-38, ,
3, ,-37, ,
2, ,-38, ,
2, ,-38, ,
2, ,-38, ,
2, ,-38, ,
1, ,-38, ,
3, ,-38, ,
2, ,-37, ,
1, ,-38, ,
2, ,-37, ,
2, ,-38, ,
1, ,-38, ,
3, ,-38, ,
2, ,-38, ,
1, ,-38, ,
2, ,-38, ,
2, ,-37, ,
1, ,-37, ,
3, ,-38, ,
1, ,-37, ,
1, ,-38, ,
2, ,-37, ,
2, ,-38, ,
1, ,-38, ,
3, ,-38, ,
1, ,-38, ,
2, ,-38, ,
2, ,-37, ,
2, ,-37, ,
1, ,-37, ,
3, ,-38, ,
2, ,-37, ,
1, ,-38, ,
2, ,-38, ,
2, ,-38, ,
1, ,-38, ,
3, ,-37, ,
2, ,-37, ,
1, ,-38, ,
2, ,-38, ,
2, ,-38, ,
1, ,-37, ,
3, ,-38, ,
1, ,-37, ,
1, ,-38, ,
2, ,-37, ,
2, ,-37, ,
1, ,-38, ,
2, ,-37, ,
2, ,-38, ,
2, ,-38, ,
2, ,-38, ,
2, ,-38, ,
1, ,-37, ,
3, ,-38, ,
2, ,-37, ,
2, ,-38, ,
2, ,-38, ,
2, ,-37, ,
1, ,-38, ,
3, ,-38, ,
1, ,-38, ,
1, ,-38, ,
2, ,-38, ,
2, ,-38, ,
1, ,-38, ,
3, ,-38, ,
2, ,-37, ,
2, ,-38, ,
2, ,-38, ,
2, ,-37, ,
1, ,-38, ,
3, ,-38, ,
1, ,-38, ,
1, ,-38, ,
2, ,-38, ,
2, ,-38, ,
1, ,-38, ,
3, ,-38, ,
1, ,-37, ,
1, ,-38, ,
2, ,-37, ,
2, ,-37, ,
1, ,-38, ,
3, ,-38, ,
1, ,-38, ,
2, ,-38, ,
2, ,-38, ,
2, ,-37, ,
1, ,-37, ,
2, ,-37, ,
1, ,-38, ,
1, ,-38, ,
2, ,-37, ,
2, ,-37, ,
1, ,-37, ,
3, ,-38, ,
1, ,-38, ,
1, ,-38, ,
2, ,-38, ,
2, ,-37, ,
1, ,-37, ,
2, ,-38, ,
1, ,-37, ,
1, ,-38, ,
2, ,-38, ,
2, ,-38, ,
1, ,-38, ,
3, ,-37, ,
1, ,-38, ,
1, ,-38, ,
2, ,-38, ,
2, ,-38, ,
1, ,-38, ,
2, ,-38, ,
1, ,-37, ,
1, ,-38, ,
2, ,-38, ,
2, ,-38, ,
1, ,-37, ,
2, ,-37, ,
1, ,-38, ,
1, ,-38, ,
2, ,-38, ,
2, ,-38, ,
-1, ,-37, ,
2, ,-38, ,
1, ,-38, ,
1, ,-38, ,
2, ,-38, ,
2, ,-37, ,
-1, ,-38, ,
2, ,-38, ,
1, ,-37, ,
1, ,-38, ,
2, ,-38, ,
2, ,-38, ,
1, ,-38, ,
2, ,-38, ,
1, ,-38, ,
1, ,-38, ,
2, ,-37, ,
2, ,-37, ,
1, ,-38, ,
3, ,-38, ,
1, ,-38, ,
1, ,-38, ,
2, ,-38, ,
2, ,-37, ,
1, ,-37, ,
2, ,-38, ,
1, ,-37, ,
1, ,-38, ,
2, ,-38, ,
1, ,-37, ,
1, ,-38, ,
3, ,-37, ,
1, ,-38, ,
1, ,-38, ,
2, ,-38, ,
2, ,-38, ,
1, ,-38, ,
2, ,-37, ,
1, ,-38, ,
1, ,-38, ,
2, ,-38, ,
2, ,-37, ,
-1, ,-38, ,
2, ,-38, ,
1, ,-38, ,
1, ,-38, ,
2, ,-38, ,
1, ,-38, ,
-1, ,-38, ,
2, ,-38, ,
1, ,-38, ,
1, ,-38, ,
2, ,-38, ,
2, ,-37, ,
-1, ,-38, ,
2, ,-38, ,
1, ,-37, ,
1, ,-38, ,
1, ,-38, ,
1, ,-38, ,
1, ,-37, ,
2, ,-38, ,
1, ,-37, ,
1, ,-38, ,
2, ,-38, ,
2, ,-38, ,
-1, ,-38, ,
2, ,-38, ,
1, ,-38, ,
1, ,-38, ,
2, ,-38, ,
2, ,-38, ,
-1, ,-38, ,
2, ,-38, ,
1, ,-37, ,
1, ,-38, ,
2, ,-38, ,
2, ,-38, ,
-1, ,-37, ,
2, ,-38, ,
1, ,-38, ,
1, ,-38, ,
1, ,-38, ,
1, ,-38, ,
-1, ,-38, ,
2, ,-38, ,
1, ,-37, ,
1, ,-38, ,
2, ,-38, ,
2, ,-38, ,
-1, ,-38, ,
2, ,-37, ,
1, ,-38, ,
1, ,-38, ,
1, ,-38, ,
1, ,-38, ,
-1, ,-37, ,
2, ,-38, ,
1, ,-37, ,
1, ,-38, ,
2, ,-38, ,
1, ,-37, ,
-1, ,-38, ,
2, ,-37, ,
1, ,-38, ,
1, ,-38, ,
2, ,-38, ,
1, ,-37, ,
-1, ,-38, ,
2, ,-38, ,
1, ,-38, ,
1, ,-38, ,
2, ,-37, ,
1, ,-37, ,
-1, ,-38, ,
2, ,-38, ,
1, ,-38, ,
1, ,-38, ,
2, ,-38, ,
1, ,-38, ,
-1, ,-38, ,
2, ,-38, ,
1, ,-38, ,
1, ,-38, ,
1, ,-38, ,
1, ,-38, ,
-1, ,-38, ,
2, ,-38, ,
1, ,-37, ,
1, ,-38, ,
2, ,-38, ,
2, ,-38, ,
-1, ,-38, ,
2, ,-38, ,
1, ,-38, ,
1, ,-38, ,
2, ,-38, ,
1, ,-38, ,
-1, ,-38, ,
2, ,-38, ,
1, ,-38, ,
1, ,-38, ,
2, ,-38, ,
2, ,-38, ,
-1, ,-37, ,
2, ,-38, ,
1, ,-37, ,
1, ,-38, ,
2, ,-37, ,
1, ,-38, ,
-1, ,-38, ,
2, ,-38, ,
1, ,-38, ,
1, ,-38, ,
2, ,-38, ,
1, ,-38, ,
-1, ,-38, ,
2, ,-38, ,
1, ,-38, ,
1, ,-38, ,
1, ,-37, ,
1, ,-37, ,
-1, ,-38, ,
2, ,-38, ,
1, ,-38, ,
1, ,-38, ,
2, ,-37, ,
1, ,-37, ,
-1, ,-38, ,
2, ,-38, ,
1, ,-38, ,
1, ,-38, ,
1, ,-38, ,
1, ,-38, ,
-1, ,-38, ,
2, ,-38, ,
1, ,-38, ,
1, ,-38, ,
2, ,-33, ,
1, ,-14, ,
-1, ,4, ,
2, ,18, ,
1, ,27, ,
1, ,35, ,
2, ,40, ,
1, ,44, ,
-1, ,46, ,
2, ,50, ,
1, ,51, ,
1, ,53, ,
2, ,53, ,
1, ,54, ,
-1, ,55, ,
2, ,55, ,
1, ,55, ,
1, ,56, ,
2, ,56, ,
1, ,56, ,
-1, ,56, ,
2, ,56, ,
1, ,56, ,
1, ,56, ,
2, ,56, ,
1, ,56, ,
-1, ,56, ,
2, ,56, ,
1, ,55, ,
-1, ,56, ,
2, ,55, ,
1, ,56, ,
-1, ,56, ,
2, ,56, ,
1, ,56, ,
1, ,56, ,
2, ,55, ,
1, ,55, ,
-1, ,56, ,
2, ,56, ,
1, ,56, ,
1, ,56, ,
2, ,55, ,
1, ,55, ,
-1, ,56, ,
2, ,56, ,
1, ,55, ,
-1, ,56, ,
2, ,55, ,
1, ,55, ,
-1, ,56, ,
2, ,56, ,
1, ,56, ,
-1, ,56, ,
1, ,55, ,
1, ,55, ,
-1, ,55, ,
2, ,55, ,
1, ,55, ,
-1, ,56, ,
2, ,55, ,
1, ,55, ,
-1, ,56, ,
2, ,56, ,
1, ,55, ,
-1, ,56, ,
1, ,55, ,
1, ,56, ,
-1, ,55, ,
2, ,56, ,
1, ,55, ,
-1, ,56, ,
2, ,55, ,
1, ,55, ,
-1, ,56, ,
2, ,56, ,
1, ,55, ,
-1, ,56, ,
2, ,55, ,
1, ,55, ,
-1, ,55, ,
2, ,55, ,
1, ,55, ,
-1, ,56, ,
2, ,55, ,
1, ,55, ,
-1, ,56, ,
2, ,55, ,
1, ,55, ,
-1, ,56, ,
2, ,55, ,
1, ,55, ,
-1, ,56, ,
1, ,55, ,
1, ,56, ,
-1, ,56, ,
2, ,55, ,
1, ,55, ,
-1, ,56, ,
1, ,55, ,
1, ,55, ,
1, ,55, ,
2, ,55, ,
1, ,55, ,
-1, ,56, ,
1, ,55, ,
1, ,55, ,
-1, ,56, ,
2, ,55, ,
1, ,55, ,
-1, ,56, ,
1, ,55, ,
1, ,55, ,
-1, ,56, ,
2, ,55, ,
1, ,55, ,
-1, ,56, ,
2, ,55, ,
1, ,55, ,
-1, ,56, ,
2, ,55, ,
1, ,55, ,
-1, ,56, ,
2, ,55, ,
1, ,55, ,
-1, ,56, ,
1, ,55, ,
1, ,55, ,
-1, ,55, ,
2, ,55, ,
1, ,55, ,
1, ,56, ,
2, ,55, ,
1, ,55, ,
-1, ,56, ,
2, ,56, ,
1, ,55, ,
-1, ,56, ,
2, ,55, ,
1, ,55, ,
-1, ,56, ,
2, ,56, ,
1, ,55, ,
-1, ,56, ,
2, ,55, ,
1, ,55, ,
-1, ,56, ,
2, ,55, ,
1, ,55, ,
-1, ,56, ,
2, ,55, ,
1, ,55, ,
-1, ,55, ,
2, ,55, ,
1, ,53, ,
-1, ,37, ,
1, ,18, ,
-1, ,3, ,
-1, ,-7, ,
2, ,-15, ,
-1, ,-21, ,
-1, ,-25, ,
2, ,-28, ,
1, ,-31, ,
-1, ,-34, ,
2, ,-35, ,
1, ,-36, ,
-1, ,-36, ,
1, ,-37, ,
1, ,-37, ,
-1, ,-38, ,
1, ,-38, ,
-1, ,-38, ,
-1, ,-38, ,
1, ,-38, ,
1, ,-38, ,
-1, ,-38, ,
2, ,-38, ,
-1, ,-38, ,
-1, ,-38, ,
2, ,-38, ,
1, ,-39, ,
-1, ,-38, ,
1, ,-38, ,
-1, ,-38, ,
-1, ,-38, ,
1, ,-38, ,
1, ,-38, ,
-1, ,-38, ,
1, ,-38, ,
-1, ,-38, ,
-1, ,-38, ,
1, ,-38, ,
1, ,-38, ,
-1, ,-38, ,
1, ,-38, ,
-1, ,-38, ,
-1, ,-38, ,
1, ,-38, ,
1, ,-38, ,
-1, ,-38, ,
1, ,-38, ,
-1, ,-38, ,
-1, ,-38, ,
1, ,-38, ,
1, ,-38, ,
-1, ,-38, ,
1, ,-38, ,
-1, ,-38, ,
-1, ,-38, ,
1, ,-38, ,
1, ,-38, ,
-1, ,-38, ,
1, ,-38, ,
-1, ,-38, ,
-1, ,-38, ,
1, ,-38, ,
1, ,-38, ,
-1, ,-38, ,
1, ,-38, ,
-1, ,-38, ,
-1, ,-38, ,
1, ,-38, ,
1, ,-38, ,
-1, ,-38, ,
2, ,-37, ,
-1, ,-38, ,
-1, ,-38, ,
1, ,-38, ,
1, ,-38, ,
-1, ,-38, ,
1, ,-38, ,
-1, ,-38, ,
-1, ,-38, ,
1, ,-38, ,
1, ,-38, ,
-1, ,-38, ,
2, ,-38, ,
-1, ,-38, ,
-1, ,-38, ,
1, ,-38, ,
1, ,-38, ,
-1, ,-38, ,
1, ,-38, ,
-1, ,-38, ,
-1, ,-38, ,
1, ,-37, ,
1, ,-37, ,
-1, ,-38, ,
1, ,-38, ,
-1, ,-38, ,
-1, ,-38, ,
1, ,-38, ,
1, ,-38, ,
-1, ,-38, ,
1, ,-38, ,
1, ,-38, ,
-1, ,-38, ,
1, ,-38, ,
1, ,-38, ,
-1, ,-38, ,
2, ,-38, ,
-1, ,-38, ,
-1, ,-38, ,
1, ,-38, ,
1, ,-38, ,
-1, ,-38, ,
1, ,-38, ,
-1, ,-37, ,
-1, ,-38, ,
1, ,-38, ,
1, ,-38, ,
-1, ,-38, ,
2, ,-38, ,
-1, ,-38, ,
-1, ,-38, ,
1, ,-38, ,
1, ,-38, ,
-1, ,-38, ,
1, ,-38, ,
-1, ,-37, ,
-1, ,-38, ,
1, ,-38, ,
1, ,-38, ,
-1, ,-38, ,
2, ,-38, ,
-1, ,-38, ,
-1, ,-38, ,
1, ,-38, ,
1, ,-38, ,
-1, ,-38, ,
1, ,-38, ,
-1, ,-37, ,
-1, ,-38, ,
1, ,-37, ,
1, ,-37, ,
-1, ,-38, ,
1, ,-38, ,
-1, ,-38, ,
-1, ,-38, ,
1, ,-37, ,
1, ,-38, ,
-1, ,-38, ,
1, ,-38, ,
-1, ,-37, ,
-1, ,-38, ,
1, ,-38, ,
1, ,-38, ,
-1, ,-38, ,
2, ,-38, ,
-1, ,-38, ,
-1, ,-37, ,
1, ,-38, ,
1, ,-37, ,
-1, ,-38, ,
1, ,-38, ,
-1, ,-38, ,
-1, ,-38, ,
1, ,-37, ,
1, ,-37, ,
-1, ,-38, ,
1, ,-38, ,
-1, ,-38, ,
-1, ,-38, ,
1, ,-38, ,
1, ,-38, ,
-1, ,-38, ,
1, ,-38, ,
-1, ,-38, ,
-1, ,-38, ,
1, ,-38, ,
1, ,-38, ,
-1, ,-37, ,
2, ,-38, ,
-1, ,-38, ,
-1, ,-38, ,
1, ,-38, ,
1, ,-38, ,
-1, ,-37, ,
1, ,-38, ,
-1, ,-37, ,
-1, ,-38, ,
1, ,-38, ,
1, ,-37, ,
-1, ,-38, ,
1, ,-37, ,
-1, ,-37, ,
-1, ,-38, ,
1, ,-38, ,
1, ,-38, ,
-1, ,-38, ,
1, ,-38, ,
-1, ,-38, ,
-1, ,-38, ,
1, ,-38, ,
1, ,-38, ,
-1, ,-38, ,
1, ,-38, ,
-1, ,-38, ,
-1, ,-38, ,
1, ,-38, ,
1, ,-37, ,
66, ,-38, ,
63, ,-38, ,
38, ,-38, ,
24, ,-38, ,
16, ,-38, ,
11, ,-37, ,
7, ,-38, ,
6, ,-37, ,
3, ,-38, ,
2, ,-38, ,
3, ,-38, ,
2, ,-37, ,
1, ,-38, ,
3, ,-37, ,
1, ,-38, ,
2, ,-38, ,
3, ,-37, ,
3, ,-38, ,
1, ,-38, ,
3, ,-38, ,
2, ,-38, ,
2, ,-38, ,
2, ,-38, ,
3, ,-37, ,
1, ,-38, ,
3, ,-38, ,
2, ,-38, ,
1, ,-38, ,
3, ,-37, ,
3, ,-37, ,
1, ,-38, ,
3, ,-38, ,
1, ,-38, ,
2, ,-38, ,
2, ,-38, ,
2, ,-38, ,
1, ,-38, ,
3, ,-38, ,
2, ,-37, ,
1, ,-38, ,
2, ,-38, ,
3, ,-38, ,
1, ,-38, ,
3, ,-38, ,
2, ,-37, ,
2, ,-38, ,
2, ,-38, ,
2, ,-38, ,
1, ,-38, ,
3, ,-38, ,
1, ,-38, ,
1, ,-38, ,
2, ,-37, ,
3, ,-38, ,
1, ,-38, ,
3, ,-38, ,
2, ,-38, ,
2, ,-38, ,
2, ,-38, ,
2, ,-38, ,
1, ,-37, ,
3, ,-38, ,
2, ,-38, ,
1, ,-38, ,
2, ,-38, ,
2, ,-37, ,
1, ,-38, ,
3, ,-38, ,
1, ,-38, ,
1, ,-38, ,
2, ,-38, ,
2, ,-38, ,
1, ,-38, ,
3, ,-38, ,
1, ,-38, ,
1, ,-38, ,
2, ,-37, ,
2, ,-37, ,
1, ,-38, ,
2, ,-38, ,
1, ,-37, ,
1, ,-38, ,
2, ,-38, ,
3, ,-38, ,
1, ,-37, ,
3, ,-37, ,
1, ,-37, ,
1, ,-38, ,
2, ,-38, ,
2, ,-38, ,
1, ,-38, ,
3, ,-38, ,
1, ,-38, ,
2, ,-38, ,
2, ,-38, ,
2, ,-38, ,
1, ,-38, ,
2, ,-38, ,
2, ,-38, ,
1, ,-38, ,
2, ,-38, ,
2, ,-38, ,
1, ,-38, ,
3, ,-38, ,
1, ,-38, ,
1, ,-38, ,
2, ,-38, ,
2, ,-37, ,
1, ,-38, ,
2, ,-38, ,
2, ,-38, ,
1, ,-38, ,
2, ,-38, ,
2, ,-38, ,
1, ,-38, ,
2, ,-37, ,
1, ,-38, ,
1, ,-38, ,
2, ,-38, ,
2, ,-38, ,
1, ,-38, ,
2, ,-38, ,
1, ,-38, ,
1, ,-38, ,
2, ,-37, ,
2, ,-38, ,
1, ,-38, ,
3, ,-38, ,
1, ,-37, ,
1, ,-38, ,
2, ,-38, ,
2, ,-38, ,
1, ,-38, ,
3, ,-38, ,
1, ,-38, ,
1, ,-38, ,
2, ,-38, ,
2, ,-37, ,
1, ,-38, ,
3, ,-38, ,
1, ,-38, ,
1, ,-38, ,
2, ,-38, ,
2, ,-38, ,
1, ,-38, ,
2, ,-38, ,
1, ,-38, ,
1, ,-38, ,
2, ,-38, ,
2, ,-38, ,
1, ,-38, ,
3, ,-38, ,
1, ,-38, ,
1, ,-38, ,
2, ,-38, ,
2, ,-38, ,
1, ,-38, ,
2, ,-38, ,
1, ,-37, ,
1, ,-38, ,
2, ,-38, ,
2, ,-37, ,
1, ,-38, ,
3, ,-38, ,
1, ,-37, ,
1, ,-38, ,
2, ,-38, ,
2, ,-38, ,
1, ,-38, ,
2, ,-38, ,
1, ,-38, ,
1, ,-38, ,
2, ,-38, ,
2, ,-38, ,
1, ,-38, ,
3, ,-38, ,
1, ,-38, ,
1, ,-38, ,
2, ,-38, ,
2, ,-38, ,
1, ,-38, ,
2, ,-38, ,
1, ,-37, ,
1, ,-38, ,
2, ,-38, ,
2, ,-38, ,
1, ,-38, ,
3, ,-38, ,
1, ,-38, ,
1, ,-38, ,
2, ,-37, ,
2, ,-38, ,
-1, ,-38, ,
2, ,-38, ,
1, ,-37, ,
1, ,-38, ,
2, ,-37, ,
2, ,-38, ,
-1, ,-38, ,
2, ,-38, ,
1, ,-38, ,
1, ,-38, ,
2, ,-38, ,
2, ,-38, ,
-1, ,-38, ,
2, ,-38, ,
1, ,-38, ,
1, ,-38, ,
2, ,-38, ,
2, ,-38, ,
-1, ,-38, ,
2, ,-38, ,
1, ,-38, ,
1, ,-38, ,
1, ,-38, ,
2, ,-38, ,
-1, ,-38, ,
2, ,-38, ,
1, ,-38, ,
1, ,-38, ,
2, ,-38, ,
1, ,-38, ,
-1, ,-38, ,
2, ,-38, ,
1, ,-37, ,
1, ,-38, ,
1, ,-38, ,
2, ,-38, ,
-1, ,-38, ,
2, ,-38, ,
1, ,-37, ,
1, ,-38, ,
2, ,-38, ,
1, ,-37, ,
-1, ,-38, ,
2, ,-38, ,
1, ,-38, ,
1, ,-38, ,
2, ,-37, ,
2, ,-38, ,
-1, ,-38, ,
2, ,-38, ,
1, ,-38, ,
1, ,-38, ,
2, ,-38, ,
2, ,-38, ,
-1, ,-38, ,
2, ,-38, ,
1, ,-38, ,
1, ,-38, ,
2, ,-38, ,
1, ,-38, ,
-1, ,-38, ,
2, ,-38, ,
1, ,-38, ,
1, ,-38, ,
2, ,-38, ,
1, ,-37, ,
-1, ,-38, ,
2, ,-38, ,
