src/varyamp_1558/temp0001988.CSV

Format,1.0B,
Memory Length,10000,Memory Length,10000,
IntpDistance,0,IntpDistance,0,
Trigger Address,4999,Trigger Address,4999,
Trigger Level,1.040E+00,Trigger Level,1.040E+00,
Source,CH1,Source,CH2,
Vertical Units,V,Vertical Units,V,
Vertical Units Div,0,Vertical Units Div,0,
Vertical Units Extend Div,16,Vertical Units Extend Div,16,
Label,,Label,,
Probe Type,0,Probe Type,0,
Probe Ratio,1.000e+01,Probe Ratio,1.000e+00,
Vertical Scale,5.000e-01,Vertical Scale,1.000e+00,
Vertical Position,-1.820e+00,Vertical Position,0.000e+00,
Horizontal Units,S,Horizontal Units,S,
Horizontal Scale,2.000E-05,Horizontal Scale,2.000E-05,
Horizontal Position,0.000E+00,Horizontal Position,0.000E+00,
Horizontal Mode,Main,Horizontal Mode,Main,
SincET Mode,Real Time,SincET Mode,Real Time,
Sampling Period,2.000e-08,Sampling Period,2.000e-08,
Horizontal Old Scale,2.000E-05,Horizontal Old Scale,2.000E-05,
Horizontal Old Position,0.000E+00,Horizontal Old Position,0.000E+00,
Firmware,V1.23,Firmware,V1.23,
Mode,Fast,Mode,Fast,
Waveform Data,,Waveform Data,,
1, ,-34, ,
1, ,-34, ,
2, ,-34, ,
1, ,-34, ,
1, ,-33, ,
2, ,-34, ,
2, ,-34, ,
1, ,-34, ,
2, ,-34, ,
1, ,-34, ,
1, ,-34, ,
2, ,-34, ,
1, ,-34, ,
1, ,-34, ,
2, ,-34, ,
1, ,-34, ,
1, ,-33, ,
2, ,-34, ,
2, ,-34, ,
1, ,-34, ,
2, ,-34, ,
1, ,-34, ,
1, ,-33, ,
2, ,-34, ,
1, ,-34, ,
1, ,-34, ,
2, ,-34, ,
1, ,-34, ,
1, ,-33, ,
2, ,-34, ,
2, ,-34, ,
1, ,-34, ,
2, ,-34, ,
1, ,-34, ,
1, ,-34, ,
2, ,-34, ,
1, ,-34, ,
1, ,-34, ,
2, ,-34, ,
1, ,-34, ,
1, ,-33, ,
2, ,-34, ,
2, ,-34, ,
1, ,-34, ,
2, ,-34, ,
1, ,-34, ,
1, ,-34, ,
2, ,-34, ,
2, ,-34, ,
1, ,-34, ,
2, ,-34, ,
1, ,-34, ,
1, ,-34, ,
2, ,-34, ,
1, ,-34, ,
1, ,-34, ,
2, ,-34, ,
1, ,-34, ,
1, ,-33, ,
2, ,-34, ,
2, ,-34, ,
1, ,-34, ,
2, ,-34, ,
1, ,-34, ,
1, ,-34, ,
2, ,-34, ,
1, ,-34, ,
1, ,-34, ,
2, ,-34, ,
1, ,-34, ,
1, ,-33, ,
2, ,-34, ,
1, ,-34, ,
1, ,-34, ,
1, ,-34, ,
1, ,-34, ,
1, ,-34, ,
2, ,-34, ,
1, ,-34, ,
1, ,-34, ,
2, ,-34, ,
1, ,-34, ,
1, ,-34, ,
2, ,-34, ,
1, ,-34, ,
1, ,-34, ,
2, ,-34, ,
1, ,-34, ,
1, ,-33, ,
2, ,-34, ,
1, ,-34, ,
-1, ,-34, ,
1, ,-34, ,
1, ,-34, ,
1, ,-33, ,
2, ,-34, ,
1, ,-34, ,
1, ,-34, ,
2, ,-34, ,
1, ,-34, ,
1, ,-33, ,
2, ,-34, ,
1, ,-34, ,
-1, ,-34, ,
2, ,-34, ,
1, ,-34, ,
1, ,-33, ,
2, ,-34, ,
1, ,-34, ,
-1, ,-34, ,
2, ,-34, ,
1, ,-34, ,
1, ,-34, ,
2, ,-34, ,
1, ,-34, ,
1, ,-34, ,
2, ,-34, ,
1, ,-34, ,
1, ,-34, ,
2, ,-34, ,
1, ,-34, ,
-1, ,-34, ,
1, ,-34, ,
1, ,-34, ,
1, ,-33, ,
2, ,-34, ,
1, ,-34, ,
-1, ,-34, ,
2, ,-34, ,
1, ,-34, ,
1, ,-34, ,
2, ,-34, ,
1, ,-34, ,
1, ,-34, ,
2, ,-34, ,
1, ,-34, ,
1, ,-34, ,
2, ,-34, ,
1, ,-34, ,
1, ,-34, ,
1, ,-34, ,
1, ,-34, ,
1, ,-34, ,
2, ,-34, ,
1, ,-34, ,
-1, ,-34, ,
1, ,-34, ,
1, ,-34, ,
1, ,-33, ,
2, ,-34, ,
1, ,-34, ,
-1, ,-34, ,
2, ,-34, ,
1, ,-34, ,
1, ,-34, ,
2, ,-34, ,
1, ,-34, ,
-1, ,-34, ,
2, ,-34, ,
1, ,-34, ,
1, ,-34, ,
2, ,-34, ,
1, ,-34, ,
-1, ,-34, ,
2, ,-34, ,
1, ,-34, ,
1, ,-34, ,
2, ,-34, ,
1, ,-34, ,
-1, ,-34, ,
2, ,-34, ,
1, ,-34, ,
1, ,-33, ,
2, ,-34, ,
1, ,-34, ,
-1, ,-34, ,
2, ,-34, ,
1, ,-34, ,
1, ,-34, ,
2, ,-34, ,
1, ,-34, ,
-1, ,-34, ,
2, ,-34, ,
1, ,-34, ,
1, ,-34, ,
2, ,-34, ,
1, ,-34, ,
-1, ,-34, ,
2, ,-34, ,
1, ,-34, ,
1, ,-34, ,
2, ,-34, ,
1, ,-34, ,
-1, ,-34, ,
2, ,-34, ,
1, ,-34, ,
1, ,-34, ,
2, ,-34, ,
1, ,-34, ,
-1, ,-34, ,
2, ,-34, ,
1, ,-34, ,
1, ,-34, ,
1, ,-34, ,
1, ,-34, ,
-1, ,-34, ,
2, ,-34, ,
1, ,-34, ,
1, ,-34, ,
2, ,-34, ,
1, ,-34, ,
-1, ,-34, ,
2, ,-34, ,
1, ,-34, ,
1, ,-33, ,
2, ,-34, ,
1, ,-34, ,
-1, ,-34, ,
2, ,-34, ,
1, ,-34, ,
1, ,-33, ,
2, ,-34, ,
1, ,-34, ,
-1, ,-34, ,
1, ,-34, ,
1, ,-34, ,
1, ,-34, ,
1, ,-34, ,
1, ,-34, ,
-1, ,-34, ,
2, ,-34, ,
1, ,-34, ,
1, ,-34, ,
2, ,-34, ,
1, ,-34, ,
-1, ,-33, ,
2, ,-34, ,
1, ,-34, ,
1, ,-34, ,
2, ,-34, ,
1, ,-34, ,
-1, ,-34, ,
2, ,-34, ,
1, ,-34, ,
1, ,-34, ,
2, ,-34, ,
1, ,-34, ,
-1, ,-34, ,
2, ,-34, ,
1, ,-34, ,
1, ,-34, ,
2, ,-34, ,
1, ,-34, ,
-1, ,-34, ,
2, ,-34, ,
1, ,-34, ,
1, ,-34, ,
1, ,-34, ,
1, ,-34, ,
-1, ,-34, ,
1, ,-34, ,
1, ,-34, ,
1, ,-34, ,
1, ,-34, ,
1, ,-34, ,
-1, ,-34, ,
2, ,-34, ,
1, ,-34, ,
1, ,-34, ,
1, ,-34, ,
1, ,-34, ,
-1, ,-34, ,
1, ,-34, ,
1, ,-34, ,
1, ,-34, ,
1, ,-34, ,
1, ,-34, ,
-1, ,-34, ,
2, ,-34, ,
-1, ,-34, ,
1, ,-34, ,
1, ,-34, ,
1, ,-34, ,
-1, ,-34, ,
1, ,-34, ,
1, ,-34, ,
1, ,-34, ,
1, ,-34, ,
1, ,-34, ,
-1, ,-34, ,
1, ,-34, ,
-1, ,-34, ,
1, ,-34, ,
1, ,-34, ,
1, ,-34, ,
-1, ,-34, ,
1, ,-34, ,
1, ,-34, ,
-1, ,-34, ,
1, ,-34, ,
1, ,-34, ,
-1, ,-34, ,
2, ,-34, ,
-1, ,-34, ,
1, ,-34, ,
1, ,-34, ,
1, ,-34, ,
-1, ,-34, ,
2, ,-24, ,
1, ,-4, ,
1, ,12, ,
1, ,24, ,
1, ,34, ,
1, ,40, ,
2, ,45, ,
1, ,50, ,
-1, ,52, ,
1, ,55, ,
1, ,55, ,
-1, ,57, ,
2, ,58, ,
1, ,58, ,
1, ,59, ,
2, ,59, ,
1, ,59, ,
-1, ,59, ,
2, ,59, ,
1, ,60, ,
1, ,60, ,
1, ,60, ,
1, ,59, ,
-1, ,59, ,
2, ,60, ,
1, ,60, ,
1, ,59, ,
1, ,60, ,
1, ,59, ,
-1, ,60, ,
2, ,60, ,
-1, ,59, ,
1, ,59, ,
1, ,60, ,
1, ,59, ,
-1, ,59, ,
2, ,60, ,
1, ,59, ,
-1, ,59, ,
1, ,60, ,
1, ,59, ,
69, ,59, ,
44, ,60, ,
27, ,59, ,
17, ,59, ,
12, ,60, ,
10, ,59, ,
6, ,59, ,
6, ,60, ,
3, ,60, ,
2, ,59, ,
3, ,60, ,
2, ,59, ,
2, ,59, ,
3, ,60, ,
2, ,59, ,
2, ,59, ,
3, ,60, ,
3, ,59, ,
1, ,59, ,
3, ,59, ,
2, ,59, ,
2, ,59, ,
3, ,60, ,
2, ,59, ,
1, ,59, ,
3, ,59, ,
2, ,59, ,
2, ,59, ,
3, ,60, ,
2, ,59, ,
1, ,59, ,
3, ,60, ,
2, ,59, ,
2, ,59, ,
3, ,60, ,
2, ,59, ,
1, ,59, ,
3, ,60, ,
2, ,59, ,
2, ,59, ,
2, ,60, ,
2, ,59, ,
1, ,59, ,
3, ,60, ,
2, ,59, ,
2, ,59, ,
3, ,60, ,
2, ,59, ,
1, ,59, ,
3, ,60, ,
2, ,59, ,
1, ,60, ,
3, ,60, ,
2, ,59, ,
1, ,60, ,
3, ,60, ,
2, ,59, ,
2, ,59, ,
2, ,60, ,
2, ,59, ,
1, ,59, ,
3, ,60, ,
2, ,59, ,
2, ,59, ,
2, ,60, ,
2, ,59, ,
1, ,59, ,
3, ,59, ,
2, ,59, ,
2, ,59, ,
2, ,60, ,
2, ,59, ,
1, ,59, ,
3, ,59, ,
1, ,59, ,
1, ,59, ,
2, ,60, ,
2, ,59, ,
1, ,59, ,
3, ,59, ,
2, ,59, ,
2, ,59, ,
3, ,59, ,
2, ,59, ,
1, ,59, ,
3, ,59, ,
1, ,59, ,
1, ,59, ,
2, ,60, ,
2, ,59, ,
1, ,59, ,
3, ,59, ,
2, ,59, ,
1, ,59, ,
3, ,60, ,
2, ,59, ,
1, ,59, ,
3, ,59, ,
2, ,59, ,
1, ,59, ,
2, ,60, ,
2, ,59, ,
1, ,59, ,
3, ,60, ,
1, ,59, ,
1, ,59, ,
3, ,60, ,
2, ,59, ,
1, ,59, ,
3, ,60, ,
2, ,59, ,
1, ,59, ,
2, ,60, ,
2, ,56, ,
1, ,37, ,
2, ,19, ,
1, ,5, ,
1, ,-4, ,
2, ,-12, ,
2, ,-18, ,
1, ,-22, ,
2, ,-25, ,
1, ,-27, ,
2, ,-30, ,
2, ,-31, ,
2, ,-32, ,
1, ,-33, ,
3, ,-33, ,
2, ,-34, ,
2, ,-34, ,
2, ,-34, ,
2, ,-34, ,
1, ,-34, ,
2, ,-34, ,
2, ,-34, ,
1, ,-35, ,
3, ,-34, ,
2, ,-35, ,
1, ,-34, ,
2, ,-34, ,
1, ,-35, ,
1, ,-34, ,
2, ,-35, ,
2, ,-34, ,
1, ,-34, ,
2, ,-34, ,
2, ,-34, ,
2, ,-34, ,
2, ,-34, ,
2, ,-34, ,
1, ,-34, ,
2, ,-34, ,
1, ,-34, ,
1, ,-34, ,
2, ,-34, ,
2, ,-34, ,
1, ,-34, ,
2, ,-34, ,
1, ,-34, ,
2, ,-34, ,
2, ,-34, ,
2, ,-34, ,
1, ,-34, ,
2, ,-34, ,
1, ,-34, ,
2, ,-34, ,
2, ,-34, ,
2, ,-34, ,
1, ,-34, ,
2, ,-34, ,
1, ,-34, ,
2, ,-34, ,
2, ,-34, ,
2, ,-34, ,
1, ,-34, ,
2, ,-34, ,
1, ,-34, ,
1, ,-34, ,
2, ,-34, ,
2, ,-34, ,
1, ,-34, ,
2, ,-34, ,
1, ,-34, ,
2, ,-34, ,
2, ,-34, ,
2, ,-34, ,
1, ,-34, ,
2, ,-34, ,
1, ,-34, ,
2, ,-34, ,
2, ,-34, ,
2, ,-34, ,
1, ,-34, ,
2, ,-34, ,
1, ,-34, ,
1, ,-34, ,
2, ,-34, ,
2, ,-34, ,
1, ,-34, ,
2, ,-34, ,
1, ,-34, ,
1, ,-34, ,
2, ,-34, ,
2, ,-34, ,
1, ,-34, ,
2, ,-34, ,
1, ,-34, ,
1, ,-33, ,
2, ,-34, ,
2, ,-34, ,
1, ,-34, ,
2, ,-34, ,
2, ,-34, ,
1, ,-34, ,
2, ,-34, ,
2, ,-34, ,
1, ,-34, ,
2, ,-34, ,
1, ,-34, ,
1, ,-34, ,
2, ,-34, ,
2, ,-34, ,
1, ,-34, ,
2, ,-34, ,
1, ,-34, ,
2, ,-34, ,
2, ,-34, ,
2, ,-34, ,
1, ,-34, ,
2, ,-34, ,
1, ,-34, ,
1, ,-34, ,
2, ,-34, ,
2, ,-34, ,
1, ,-34, ,
2, ,-34, ,
1, ,-34, ,
1, ,-33, ,
2, ,-34, ,
2, ,-34, ,
1, ,-34, ,
2, ,-34, ,
1, ,-34, ,
1, ,-33, ,
2, ,-34, ,
1, ,-34, ,
1, ,-34, ,
2, ,-34, ,
1, ,-34, ,
1, ,-34, ,
2, ,-34, ,
2, ,-34, ,
1, ,-34, ,
2, ,-34, ,
1, ,-34, ,
1, ,-34, ,
2, ,-34, ,
2, ,-34, ,
1, ,-34, ,
2, ,-34, ,
1, ,-34, ,
1, ,-34, ,
2, ,-34, ,
1, ,-33, ,
1, ,-34, ,
2, ,-34, ,
1, ,-34, ,
1, ,-34, ,
2, ,-34, ,
2, ,-34, ,
1, ,-34, ,
2, ,-34, ,
1, ,-34, ,
2, ,-34, ,
2, ,-34, ,
1, ,-34, ,
1, ,-34, ,
2, ,-34, ,
1, ,-33, ,
1, ,-34, ,
2, ,-34, ,
2, ,-34, ,
1, ,-34, ,
2, ,-34, ,
1, ,-34, ,
1, ,-34, ,
2, ,-34, ,
2, ,-34, ,
1, ,-34, ,
2, ,-34, ,
1, ,-34, ,
1, ,-33, ,
2, ,-34, ,
1, ,-34, ,
1, ,-34, ,
2, ,-34, ,
1, ,-34, ,
1, ,-34, ,
2, ,-34, ,
2, ,-33, ,
1, ,-34, ,
2, ,-34, ,
1, ,-34, ,
1, ,-33, ,
2, ,-34, ,
2, ,-34, ,
1, ,-34, ,
2, ,-34, ,
1, ,-34, ,
1, ,-33, ,
2, ,-34, ,
1, ,-34, ,
1, ,-34, ,
2, ,-34, ,
1, ,-34, ,
1, ,-34, ,
2, ,-34, ,
1, ,-34, ,
1, ,-34, ,
2, ,-34, ,
1, ,-34, ,
1, ,-34, ,
2, ,-34, ,
1, ,-34, ,
1, ,-34, ,
2, ,-34, ,
1, ,-34, ,
1, ,-34, ,
2, ,-34, ,
1, ,-34, ,
1, ,-34, ,
2, ,-34, ,
1, ,-34, ,
1, ,-33, ,
2, ,-34, ,
2, ,-34, ,
1, ,-34, ,
2, ,-34, ,
1, ,-34, ,
1, ,-34, ,
2, ,-34, ,
1, ,-34, ,
1, ,-33, ,
2, ,-34, ,
1, ,-34, ,
1, ,-34, ,
2, ,-34, ,
1, ,-34, ,
1, ,-34, ,
2, ,-34, ,
1, ,-34, ,
1, ,-34, ,
2, ,-33, ,
1, ,-34, ,
1, ,-34, ,
2, ,-34, ,
1, ,-34, ,
1, ,-34, ,
2, ,-34, ,
1, ,-34, ,
1, ,-34, ,
2, ,-34, ,
1, ,-34, ,
1, ,-34, ,
2, ,-34, ,
1, ,-34, ,
1, ,-34, ,
2, ,-34, ,
1, ,-34, ,
1, ,-34, ,
2, ,-34, ,
1, ,-34, ,
1, ,-34, ,
2, ,-34, ,
1, ,-34, ,
1, ,-33, ,
2, ,-34, ,
1, ,-34, ,
1, ,-34, ,
2, ,-34, ,
1, ,-34, ,
1, ,-34, ,
2, ,-34, ,
1, ,-34, ,
1, ,-34, ,
2, ,-34, ,
1, ,-34, ,
1, ,-33, ,
2, ,-34, ,
1, ,-34, ,
1, ,-34, ,
2, ,-34, ,
1, ,-34, ,
1, ,-33, ,
2, ,-34, ,
1, ,-34, ,
-1, ,-34, ,
2, ,-34, ,
1, ,-34, ,
1, ,-34, ,
2, ,-34, ,
1, ,-34, ,
1, ,-34, ,
2, ,-34, ,
1, ,-34, ,
1, ,-33, ,
1, ,-34, ,
1, ,-34, ,
1, ,-34, ,
1, ,-34, ,
1, ,-34, ,
1, ,-33, ,
2, ,-34, ,
2, ,-34, ,
1, ,-34, ,
2, ,-34, ,
1, ,-34, ,
1, ,-33, ,
2, ,-34, ,
1, ,-34, ,
-1, ,-34, ,
1, ,-34, ,
1, ,-33, ,
1, ,-34, ,
2, ,-34, ,
1, ,-34, ,
-1, ,-34, ,
2, ,-34, ,
1, ,-34, ,
1, ,-34, ,
2, ,-34, ,
1, ,-34, ,
1, ,-34, ,
2, ,-34, ,
1, ,-34, ,
1, ,-33, ,
2, ,-34, ,
1, ,-34, ,
-1, ,-34, ,
2, ,-34, ,
1, ,-34, ,
1, ,-34, ,
2, ,-34, ,
1, ,-34, ,
-1, ,-34, ,
2, ,-34, ,
1, ,-34, ,
1, ,-34, ,
2, ,-34, ,
1, ,-34, ,
-1, ,-34, ,
2, ,-34, ,
1, ,-34, ,
1, ,-34, ,
2, ,-34, ,
1, ,-33, ,
-1, ,-34, ,
2, ,-34, ,
1, ,-34, ,
1, ,-34, ,
2, ,-34, ,
1, ,-34, ,
-1, ,-34, ,
2, ,-34, ,
1, ,-34, ,
1, ,-34, ,
2, ,-34, ,
1, ,-34, ,
-1, ,-34, ,
2, ,-34, ,
1, ,-34, ,
1, ,-34, ,
2, ,-34, ,
1, ,-34, ,
-1, ,-34, ,
1, ,-34, ,
1, ,-34, ,
1, ,-34, ,
2, ,-34, ,
1, ,-34, ,
-1, ,-34, ,
2, ,-34, ,
1, ,-34, ,
1, ,-34, ,
2, ,-34, ,
1, ,-34, ,
-1, ,-34, ,
2, ,-34, ,
1, ,-34, ,
1, ,-34, ,
2, ,-34, ,
1, ,-34, ,
1, ,-34, ,
2, ,-34, ,
1, ,-34, ,
1, ,-34, ,
2, ,-34, ,
1, ,-34, ,
-1, ,-34, ,
1, ,-34, ,
1, ,-34, ,
1, ,-34, ,
2, ,-34, ,
1, ,-34, ,
-1, ,-34, ,
1, ,-34, ,
1, ,-34, ,
1, ,-34, ,
2, ,-34, ,
1, ,-34, ,
-1, ,-34, ,
2, ,-34, ,
1, ,-34, ,
1, ,-34, ,
2, ,-34, ,
1, ,-34, ,
-1, ,-34, ,
2, ,-34, ,
1, ,-34, ,
1, ,-34, ,
2, ,-34, ,
1, ,-34, ,
-1, ,-34, ,
2, ,-34, ,
1, ,-34, ,
1, ,-34, ,
2, ,-34, ,
1, ,-34, ,
-1, ,-34, ,
2, ,-34, ,
1, ,-34, ,
1, ,-34, ,
2, ,-34, ,
1, ,-34, ,
-1, ,-34, ,
2, ,-34, ,
1, ,-34, ,
1, ,-34, ,
2, ,-34, ,
1, ,-34, ,
-1, ,-34, ,
2, ,-34, ,
1, ,-34, ,
1, ,-34, ,
2, ,-34, ,
1, ,-34, ,
-1, ,-34, ,
2, ,-34, ,
1, ,-34, ,
1, ,-34, ,
2, ,-34, ,
1, ,-34, ,
-1, ,-34, ,
2, ,-34, ,
1, ,-34, ,
1, ,-33, ,
2, ,-34, ,
1, ,-34, ,
-1, ,-34, ,
2, ,-34, ,
1, ,-34, ,
1, ,-34, ,
1, ,-34, ,
1, ,-34, ,
-1, ,-34, ,
1, ,-34, ,
1, ,-34, ,
1, ,-34, ,
1, ,-34, ,
1, ,-34, ,
-1, ,-34, ,
1, ,-34, ,
1, ,-34, ,
1, ,-34, ,
1, ,-34, ,
1, ,-34, ,
-1, ,-34, ,
2, ,-34, ,
1, ,-34, ,
1, ,-34, ,
2, ,-34, ,
1, ,-34, ,
-1, ,-34, ,
1, ,-34, ,
1, ,-34, ,
1, ,-34, ,
2, ,-34, ,
1, ,-34, ,
-1, ,-34, ,
2, ,-34, ,
1, ,-34, ,
1, ,-34, ,
1, ,-34, ,
1, ,-34, ,
-1, ,-34, ,
2, ,-34, ,
1, ,-34, ,
1, ,-34, ,
2, ,-34, ,
1, ,-34, ,
-1, ,-34, ,
2, ,-34, ,
1, ,-34, ,
1, ,-34, ,
2, ,-34, ,
1, ,-34, ,
-1, ,-34, ,
2, ,-34, ,
1, ,-34, ,
1, ,-34, ,
1, ,-34, ,
1, ,-34, ,
-1, ,-34, ,
1, ,-34, ,
1, ,-34, ,
1, ,-34, ,
1, ,-34, ,
1, ,-34, ,
-1, ,-34, ,
2, ,-34, ,
-1, ,-34, ,
1, ,-34, ,
2, ,-34, ,
1, ,-34, ,
-1, ,-34, ,
2, ,-34, ,
-1, ,-34, ,
-1, ,-34, ,
2, ,-34, ,
1, ,-34, ,
-1, ,-34, ,
1, ,-34, ,
1, ,-34, ,
1, ,-34, ,
2, ,-34, ,
1, ,-34, ,
-1, ,-34, ,
2, ,-34, ,
-1, ,-34, ,
1, ,-34, ,
1, ,-34, ,
1, ,-34, ,
-1, ,-34, ,
1, ,-34, ,
1, ,-34, ,
-1, ,-34, ,
1, ,-34, ,
1, ,-34, ,
-1, ,-34, ,
2, ,-34, ,
1, ,-34, ,
1, ,-34, ,
2, ,-34, ,
1, ,-34, ,
-1, ,-34, ,
1, ,-34, ,
1, ,-34, ,
1, ,-34, ,
2, ,-34, ,
1, ,-34, ,
-1, ,-34, ,
1, ,-34, ,
1, ,-34, ,
1, ,-34, ,
2, ,-34, ,
1, ,-34, ,
-1, ,-34, ,
2, ,-34, ,
1, ,-34, ,
1, ,-34, ,
2, ,-34, ,
1, ,-34, ,
-1, ,-34, ,
2, ,-34, ,
1, ,-34, ,
1, ,-34, ,
1, ,-34, ,
1, ,-34, ,
-1, ,-34, ,
2, ,-34, ,
1, ,-34, ,
1, ,-34, ,
1, ,-34, ,
1, ,-34, ,
-1, ,-34, ,
2, ,-34, ,
-1, ,-34, ,
1, ,-34, ,
2, ,-34, ,
1, ,-34, ,
-1, ,-34, ,
1, ,-34, ,
1, ,-34, ,
1, ,-34, ,
2, ,-34, ,
1, ,-34, ,
-1, ,-34, ,
1, ,-34, ,
-1, ,-34, ,
1, ,-33, ,
2, ,-34, ,
1, ,-34, ,
-1, ,-34, ,
1, ,-34, ,
1, ,-34, ,
1, ,-34, ,
1, ,-34, ,
1, ,-34, ,
-1, ,-34, ,
1, ,-34, ,
-1, ,-34, ,
-1, ,-34, ,
1, ,-34, ,
1, ,-34, ,
-1, ,-34, ,
1, ,-34, ,
1, ,-34, ,
1, ,-34, ,
1, ,-34, ,
1, ,-34, ,
-1, ,-34, ,
2, ,-34, ,
-1, ,-34, ,
-1, ,-33, ,
1, ,-34, ,
2, ,-34, ,
-1, ,-34, ,
1, ,-34, ,
1, ,-34, ,
1, ,-34, ,
1, ,-34, ,
1, ,-34, ,
-1, ,-34, ,
1, ,-34, ,
1, ,-34, ,
1, ,-34, ,
1, ,-34, ,
1, ,-34, ,
-1, ,-34, ,
1, ,-34, ,
1, ,-27, ,
1, ,-8, ,
2, ,8, ,
1, ,22, ,
-1, ,32, ,
2, ,39, ,
1, ,44, ,
1, ,49, ,
1, ,52, ,
1, ,53, ,
-1, ,55, ,
2, ,57, ,
1, ,57, ,
-1, ,58, ,
1, ,59, ,
1, ,58, ,
-1, ,59, ,
1, ,60, ,
1, ,59, ,
1, ,59, ,
1, ,60, ,
1, ,59, ,
-1, ,59, ,
2, ,60, ,
-1, ,60, ,
-1, ,59, ,
1, ,60, ,
1, ,59, ,
-1, ,59, ,
2, ,60, ,
-1, ,59, ,
-1, ,59, ,
1, ,60, ,
1, ,59, ,
-1, ,59, ,
1, ,60, ,
-1, ,60, ,
-1, ,59, ,
1, ,60, ,
1, ,59, ,
-1, ,59, ,
2, ,60, ,
1, ,59, ,
-1, ,59, ,
1, ,60, ,
1, ,59, ,
-1, ,59, ,
2, ,60, ,
-1, ,59, ,
1, ,59, ,
1, ,60, ,
1, ,59, ,
-1, ,59, ,
2, ,60, ,
-1, ,59, ,
-1, ,59, ,
1, ,60, ,
1, ,59, ,
-1, ,59, ,
2, ,60, ,
1, ,59, ,
-1, ,59, ,
1, ,60, ,
1, ,59, ,
-1, ,59, ,
2, ,59, ,
-1, ,59, ,
-1, ,59, ,
2, ,60, ,
1, ,59, ,
-1, ,59, ,
2, ,60, ,
-1, ,59, ,
-1, ,59, ,
2, ,60, ,
1, ,59, ,
-1, ,59, ,
2, ,60, ,
-1, ,59, ,
-1, ,59, ,
1, ,60, ,
1, ,59, ,
-1, ,59, ,
1, ,60, ,
-1, ,59, ,
1, ,59, ,
1, ,60, ,
1, ,59, ,
-1, ,59, ,
2, ,59, ,
-1, ,59, ,
-1, ,59, ,
1, ,60, ,
1, ,59, ,
-1, ,59, ,
2, ,60, ,
-1, ,59, ,
-1, ,59, ,
1, ,60, ,
1, ,59, ,
-1, ,59, ,
2, ,59, ,
-1, ,59, ,
-1, ,59, ,
1, ,60, ,
1, ,59, ,
-1, ,59, ,
2, ,59, ,
-1, ,59, ,
-1, ,59, ,
1, ,60, ,
1, ,59, ,
-1, ,59, ,
1, ,60, ,
-1, ,59, ,
-1, ,59, ,
1, ,60, ,
1, ,59, ,
82, ,59, ,
62, ,59, ,
36, ,59, ,
24, ,59, ,
16, ,60, ,
10, ,59, ,
6, ,59, ,
6, ,59, ,
3, ,59, ,
2, ,59, ,
3, ,60, ,
2, ,59, ,
1, ,59, ,
3, ,59, ,
2, ,59, ,
2, ,59, ,
3, ,59, ,
2, ,59, ,
1, ,59, ,
3, ,59, ,
2, ,59, ,
2, ,59, ,
2, ,60, ,
2, ,59, ,
1, ,59, ,
3, ,59, ,
2, ,59, ,
2, ,59, ,
3, ,60, ,
2, ,59, ,
1, ,59, ,
3, ,59, ,
1, ,59, ,
2, ,59, ,
3, ,60, ,
2, ,59, ,
1, ,58, ,
3, ,44, ,
1, ,24, ,
1, ,9, ,
2, ,-1, ,
2, ,-11, ,
1, ,-16, ,
2, ,-21, ,
2, ,-24, ,
2, ,-26, ,
2, ,-30, ,
2, ,-31, ,
2, ,-32, ,
3, ,-32, ,
2, ,-33, ,
2, ,-33, ,
3, ,-34, ,
2, ,-34, ,
2, ,-34, ,
2, ,-34, ,
2, ,-34, ,
2, ,-34, ,
3, ,-34, ,
2, ,-34, ,
1, ,-34, ,
3, ,-34, ,
2, ,-34, ,
2, ,-34, ,
3, ,-34, ,
2, ,-34, ,
2, ,-34, ,
3, ,-34, ,
2, ,-34, ,
2, ,-34, ,
3, ,-34, ,
3, ,-34, ,
1, ,-34, ,
3, ,-34, ,
2, ,-34, ,
2, ,-34, ,
3, ,-34, ,
3, ,-34, ,
1, ,-34, ,
2, ,-34, ,
2, ,-34, ,
2, ,-34, ,
2, ,-34, ,
2, ,-34, ,
1, ,-34, ,
2, ,-34, ,
2, ,-34, ,
2, ,-34, ,
2, ,-34, ,
2, ,-34, ,
1, ,-34, ,
2, ,-34, ,
1, ,-34, ,
2, ,-34, ,
2, ,-34, ,
2, ,-34, ,
1, ,-34, ,
2, ,-34, ,
2, ,-34, ,
2, ,-34, ,
2, ,-34, ,
2, ,-34, ,
1, ,-34, ,
2, ,-34, ,
2, ,-34, ,
1, ,-34, ,
2, ,-34, ,
2, ,-34, ,
1, ,-34, ,
2, ,-34, ,
2, ,-34, ,
2, ,-33, ,
2, ,-34, ,
2, ,-34, ,
2, ,-34, ,
2, ,-34, ,
2, ,-34, ,
1, ,-33, ,
2, ,-34, ,
2, ,-34, ,
1, ,-34, ,
2, ,-34, ,
2, ,-34, ,
1, ,-34, ,
2, ,-34, ,
2, ,-34, ,
1, ,-34, ,
2, ,-34, ,
1, ,-34, ,
1, ,-34, ,
2, ,-34, ,
2, ,-34, ,
1, ,-34, ,
2, ,-34, ,
2, ,-34, ,
2, ,-34, ,
2, ,-34, ,
2, ,-34, ,
1, ,-34, ,
2, ,-34, ,
1, ,-34, ,
1, ,-33, ,
2, ,-34, ,
2, ,-34, ,
1, ,-34, ,
2, ,-34, ,
2, ,-34, ,
1, ,-34, ,
2, ,-34, ,
2, ,-33, ,
1, ,-34, ,
2, ,-34, ,
1, ,-34, ,
1, ,-33, ,
2, ,-34, ,
2, ,-34, ,
1, ,-34, ,
2, ,-34, ,
1, ,-34, ,
1, ,-34, ,
2, ,-34, ,
2, ,-34, ,
1, ,-34, ,
2, ,-34, ,
1, ,-34, ,
1, ,-33, ,
2, ,-34, ,
2, ,-34, ,
1, ,-34, ,
2, ,-34, ,
2, ,-34, ,
2, ,-34, ,
2, ,-34, ,
2, ,-34, ,
1, ,-34, ,
2, ,-34, ,
2, ,-34, ,
1, ,-33, ,
2, ,-34, ,
2, ,-34, ,
1, ,-34, ,
2, ,-34, ,
1, ,-34, ,
1, ,-34, ,
2, ,-34, ,
2, ,-34, ,
1, ,-34, ,
2, ,-34, ,
1, ,-34, ,
2, ,-34, ,
2, ,-34, ,
2, ,-34, ,
1, ,-34, ,
2, ,-34, ,
2, ,-34, ,
1, ,-34, ,
2, ,-34, ,
2, ,-34, ,
1, ,-34, ,
2, ,-34, ,
2, ,-34, ,
1, ,-33, ,
2, ,-34, ,
2, ,-34, ,
1, ,-33, ,
2, ,-34, ,
1, ,-34, ,
1, ,-33, ,
2, ,-34, ,
2, ,-34, ,
1, ,-34, ,
2, ,-34, ,
1, ,-34, ,
1, ,-34, ,
2, ,-34, ,
2, ,-34, ,
1, ,-34, ,
2, ,-34, ,
2, ,-34, ,
1, ,-34, ,
2, ,-34, ,
2, ,-34, ,
1, ,-34, ,
2, ,-34, ,
1, ,-34, ,
1, ,-33, ,
2, ,-34, ,
2, ,-34, ,
1, ,-34, ,
2, ,-34, ,
1, ,-34, ,
1, ,-34, ,
2, ,-34, ,
1, ,-34, ,
1, ,-34, ,
2, ,-34, ,
2, ,-34, ,
1, ,-33, ,
2, ,-34, ,
2, ,-34, ,
1, ,-34, ,
2, ,-34, ,
1, ,-34, ,
1, ,-34, ,
2, ,-34, ,
2, ,-34, ,
1, ,-34, ,
2, ,-34, ,
1, ,-34, ,
1, ,-34, ,
2, ,-34, ,
2, ,-34, ,
1, ,-34, ,
2, ,-34, ,
1, ,-34, ,
1, ,-33, ,
2, ,-34, ,
2, ,-34, ,
1, ,-34, ,
2, ,-34, ,
1, ,-34, ,
1, ,-33, ,
2, ,-34, ,
1, ,-34, ,
-1, ,-34, ,
2, ,-34, ,
1, ,-34, ,
1, ,-34, ,
2, ,-34, ,
2, ,-34, ,
1, ,-34, ,
2, ,-34, ,
1, ,-33, ,
1, ,-34, ,
2, ,-34, ,
1, ,-34, ,
1, ,-34, ,
2, ,-34, ,
1, ,-34, ,
1, ,-34, ,
2, ,-34, ,
2, ,-34, ,
1, ,-34, ,
2, ,-34, ,
1, ,-34, ,
1, ,-34, ,
2, ,-34, ,
2, ,-34, ,
1, ,-34, ,
2, ,-34, ,
1, ,-34, ,
1, ,-33, ,
2, ,-34, ,
2, ,-34, ,
1, ,-34, ,
2, ,-34, ,
1, ,-33, ,
1, ,-34, ,
2, ,-34, ,
2, ,-34, ,
1, ,-34, ,
2, ,-34, ,
1, ,-34, ,
1, ,-33, ,
2, ,-34, ,
1, ,-34, ,
1, ,-34, ,
2, ,-34, ,
1, ,-33, ,
1, ,-34, ,
2, ,-34, ,
2, ,-34, ,
1, ,-33, ,
2, ,-34, ,
1, ,-34, ,
1, ,-33, ,
2, ,-34, ,
1, ,-34, ,
1, ,-34, ,
2, ,-34, ,
1, ,-34, ,
1, ,-34, ,
2, ,-34, ,
1, ,-34, ,
1, ,-34, ,
2, ,-34, ,
1, ,-34, ,
1, ,-34, ,
2, ,-34, ,
1, ,-34, ,
1, ,-34, ,
2, ,-34, ,
1, ,-34, ,
1, ,-34, ,
2, ,-34, ,
2, ,-34, ,
-1, ,-34, ,
1, ,-34, ,
1, ,-34, ,
1, ,-34, ,
2, ,-34, ,
2, ,-34, ,
1, ,-34, ,
2, ,-34, ,
1, ,-34, ,
1, ,-34, ,
2, ,-34, ,
1, ,-34, ,
1, ,-34, ,
2, ,-34, ,
1, ,-34, ,
1, ,-34, ,
2, ,-34, ,
1, ,-34, ,
1, ,-34, ,
2, ,-34, ,
1, ,-34, ,
1, ,-34, ,
2, ,-34, ,
2, ,-34, ,
-1, ,-34, ,
2, ,-34, ,
1, ,-34, ,
1, ,-33, ,
2, ,-34, ,
1, ,-34, ,
1, ,-34, ,
2, ,-34, ,
1, ,-34, ,
1, ,-34, ,
2, ,-34, ,
1, ,-34, ,
1, ,-34, ,
1, ,-34, ,
1, ,-34, ,
1, ,-34, ,
2, ,-34, ,
1, ,-34, ,
-1, ,-34, ,
2, ,-34, ,
1, ,-34, ,
1, ,-34, ,
2, ,-34, ,
1, ,-34, ,
-1, ,-34, ,
1, ,-34, ,
1, ,-34, ,
1, ,-34, ,
2, ,-34, ,
1, ,-34, ,
1, ,-34, ,
2, ,-34, ,
1, ,-34, ,
1, ,-34, ,
2, ,-34, ,
1, ,-34, ,
-1, ,-34, ,
1, ,-34, ,
1, ,-34, ,
1, ,-34, ,
2, ,-34, ,
1, ,-34, ,
-1, ,-34, ,
2, ,-34, ,
1, ,-34, ,
1, ,-34, ,
2, ,-34, ,
1, ,-34, ,
-1, ,-34, ,
2, ,-34, ,
1, ,-34, ,
1, ,-34, ,
2, ,-34, ,
1, ,-34, ,
1, ,-34, ,
2, ,-34, ,
1, ,-34, ,
1, ,-34, ,
2, ,-34, ,
1, ,-34, ,
-1, ,-34, ,
1, ,-34, ,
1, ,-34, ,
1, ,-34, ,
2, ,-34, ,
1, ,-33, ,
-1, ,-34, ,
2, ,-34, ,
1, ,-34, ,
1, ,-33, ,
2, ,-34, ,
1, ,-34, ,
-1, ,-34, ,
1, ,-34, ,
1, ,-34, ,
1, ,-34, ,
2, ,-34, ,
1, ,-34, ,
1, ,-34, ,
2, ,-34, ,
1, ,-34, ,
1, ,-34, ,
2, ,-34, ,
1, ,-34, ,
-1, ,-34, ,
2, ,-34, ,
1, ,-34, ,
1, ,-33, ,
2, ,-34, ,
1, ,-34, ,
-1, ,-34, ,
2, ,-34, ,
1, ,-34, ,
1, ,-33, ,
2, ,-34, ,
1, ,-34, ,
1, ,-34, ,
2, ,-34, ,
1, ,-34, ,
1, ,-34, ,
2, ,-34, ,
1, ,-34, ,
-1, ,-34, ,
2, ,-34, ,
1, ,-34, ,
1, ,-33, ,
2, ,-34, ,
1, ,-34, ,
-1, ,-34, ,
2, ,-34, ,
1, ,-34, ,
1, ,-34, ,
2, ,-34, ,
2, ,-34, ,
1, ,-34, ,
2, ,-34, ,
1, ,-34, ,
1, ,-34, ,
2, ,-34, ,
2, ,-34, ,
-1, ,-34, ,
2, ,-34, ,
1, ,-34, ,
1, ,-34, ,
2, ,-34, ,
1, ,-34, ,
-1, ,-34, ,
2, ,-34, ,
1, ,-34, ,
1, ,-34, ,
2, ,-34, ,
1, ,-34, ,
-1, ,-34, ,
2, ,-34, ,
1, ,-34, ,
1, ,-34, ,
1, ,-34, ,
1, ,-34, ,
-1, ,-34, ,
2, ,-34, ,
1, ,-34, ,
1, ,-33, ,
2, ,-34, ,
1, ,-34, ,
-1, ,-34, ,
2, ,-34, ,
1, ,-34, ,
1, ,-34, ,
2, ,-34, ,
1, ,-34, ,
-1, ,-34, ,
2, ,-34, ,
1, ,-34, ,
1, ,-33, ,
1, ,-34, ,
1, ,-34, ,
-1, ,-34, ,
1, ,-34, ,
1, ,-34, ,
1, ,-33, ,
1, ,-34, ,
1, ,-34, ,
-1, ,-34, ,
1, ,-34, ,
1, ,-34, ,
1, ,-33, ,
1, ,-34, ,
