src/varyamp_1558/temp0003357.CSV

Format,1.0B,
Memory Length,10000,Memory Length,10000,
IntpDistance,0,IntpDistance,0,
Trigger Address,4999,Trigger Address,4999,
Trigger Level,1.040E+00,Trigger Level,1.040E+00,
Source,CH1,Source,CH2,
Vertical Units,V,Vertical Units,V,
Vertical Units Div,0,Vertical Units Div,0,
Vertical Units Extend Div,16,Vertical Units Extend Div,16,
Label,,Label,,
Probe Type,0,Probe Type,0,
Probe Ratio,1.000e+01,Probe Ratio,1.000e+00,
Vertical Scale,5.000e-01,Vertical Scale,1.000e+00,
Vertical Position,-1.820e+00,Vertical Position,0.000e+00,
Horizontal Units,S,Horizontal Units,S,
Horizontal Scale,2.000E-05,Horizontal Scale,2.000E-05,
Horizontal Position,0.000E+00,Horizontal Position,0.000E+00,
Horizontal Mode,Main,Horizontal Mode,Main,
SincET Mode,Real Time,SincET Mode,Real Time,
Sampling Period,2.000e-08,Sampling Period,2.000e-08,
Horizontal Old Scale,2.000E-05,Horizontal Old Scale,2.000E-05,
Horizontal Old Position,0.000E+00,Horizontal Old Position,0.000E+00,
Firmware,V1.23,Firmware,V1.23,
Mode,Fast,Mode,Fast,
Waveform Data,,Waveform Data,,
2, ,-32, ,
2, ,-31, ,
2, ,-31, ,
1, ,-31, ,
2, ,-31, ,
1, ,-32, ,
2, ,-31, ,
2, ,-31, ,
2, ,-31, ,
1, ,-31, ,
2, ,-32, ,
2, ,-31, ,
2, ,-31, ,
2, ,-31, ,
2, ,-32, ,
1, ,-31, ,
2, ,-31, ,
1, ,-31, ,
1, ,-31, ,
2, ,-31, ,
2, ,-31, ,
1, ,-31, ,
2, ,-31, ,
2, ,-31, ,
2, ,-32, ,
2, ,-31, ,
2, ,-31, ,
1, ,-31, ,
2, ,-31, ,
2, ,-31, ,
1, ,-31, ,
2, ,-31, ,
2, ,-31, ,
1, ,-31, ,
2, ,-32, ,
1, ,-31, ,
1, ,-32, ,
2, ,-31, ,
2, ,-31, ,
1, ,-31, ,
2, ,-31, ,
1, ,-31, ,
2, ,-31, ,
2, ,-31, ,
2, ,-31, ,
1, ,-31, ,
2, ,-31, ,
1, ,-31, ,
2, ,-31, ,
2, ,-31, ,
2, ,-31, ,
1, ,-31, ,
2, ,-32, ,
1, ,-31, ,
2, ,-31, ,
2, ,-31, ,
2, ,-31, ,
1, ,-31, ,
2, ,-32, ,
2, ,-31, ,
2, ,-32, ,
2, ,-31, ,
2, ,-32, ,
1, ,-31, ,
2, ,-32, ,
1, ,-31, ,
1, ,-31, ,
2, ,-31, ,
2, ,-31, ,
1, ,-31, ,
2, ,-32, ,
2, ,-31, ,
2, ,-31, ,
2, ,-31, ,
2, ,-31, ,
1, ,-31, ,
2, ,-31, ,
1, ,-32, ,
1, ,-31, ,
2, ,-31, ,
2, ,-31, ,
1, ,-32, ,
2, ,-32, ,
1, ,-31, ,
1, ,-31, ,
2, ,-31, ,
2, ,-31, ,
1, ,-31, ,
2, ,-31, ,
1, ,-31, ,
1, ,-31, ,
2, ,-31, ,
2, ,-31, ,
1, ,-32, ,
2, ,-32, ,
1, ,-31, ,
2, ,-31, ,
2, ,-31, ,
2, ,-31, ,
1, ,-31, ,
2, ,-32, ,
1, ,-32, ,
2, ,-31, ,
2, ,-31, ,
2, ,-31, ,
1, ,-31, ,
2, ,-31, ,
1, ,-31, ,
2, ,-31, ,
2, ,-31, ,
2, ,-31, ,
1, ,-31, ,
2, ,-31, ,
1, ,-31, ,
1, ,-31, ,
2, ,-31, ,
1, ,-31, ,
1, ,-31, ,
2, ,-31, ,
1, ,-31, ,
1, ,-31, ,
2, ,-31, ,
2, ,-31, ,
1, ,-32, ,
2, ,-31, ,
1, ,-31, ,
1, ,-31, ,
2, ,-31, ,
2, ,-31, ,
1, ,-32, ,
2, ,-32, ,
1, ,-31, ,
1, ,-32, ,
2, ,-31, ,
2, ,-31, ,
1, ,-31, ,
2, ,-31, ,
1, ,-31, ,
1, ,-31, ,
2, ,-31, ,
2, ,-31, ,
1, ,-32, ,
2, ,-31, ,
1, ,-31, ,
1, ,-32, ,
2, ,-31, ,
2, ,-32, ,
1, ,-31, ,
2, ,-31, ,
1, ,-32, ,
1, ,-31, ,
2, ,-31, ,
1, ,-31, ,
-1, ,-32, ,
2, ,-32, ,
1, ,-31, ,
1, ,-31, ,
2, ,-31, ,
1, ,-32, ,
1, ,-31, ,
2, ,-31, ,
1, ,-32, ,
1, ,-31, ,
2, ,-31, ,
1, ,-31, ,
1, ,-32, ,
2, ,-31, ,
1, ,-31, ,
1, ,-31, ,
2, ,-31, ,
2, ,-32, ,
1, ,-31, ,
1, ,-31, ,
1, ,-32, ,
1, ,-31, ,
2, ,-31, ,
1, ,-31, ,
1, ,-31, ,
2, ,-31, ,
1, ,-31, ,
1, ,-31, ,
2, ,-31, ,
2, ,-32, ,
1, ,-31, ,
2, ,-32, ,
1, ,-32, ,
1, ,-31, ,
2, ,-31, ,
2, ,-31, ,
1, ,-31, ,
2, ,-31, ,
1, ,-31, ,
1, ,-31, ,
2, ,-31, ,
2, ,-32, ,
1, ,-32, ,
2, ,-31, ,
1, ,-31, ,
1, ,-31, ,
2, ,-31, ,
2, ,-31, ,
-1, ,-32, ,
2, ,-32, ,
1, ,-31, ,
1, ,-31, ,
2, ,-31, ,
1, ,-31, ,
1, ,-31, ,
2, ,-31, ,
1, ,-31, ,
1, ,-31, ,
2, ,-31, ,
2, ,-31, ,
-1, ,-31, ,
2, ,-31, ,
1, ,-31, ,
1, ,-31, ,
2, ,-31, ,
2, ,-31, ,
1, ,-31, ,
2, ,-31, ,
1, ,-31, ,
1, ,-31, ,
2, ,-31, ,
1, ,-31, ,
-1, ,-31, ,
2, ,-31, ,
1, ,-31, ,
1, ,-31, ,
2, ,-31, ,
1, ,-31, ,
1, ,-31, ,
2, ,-32, ,
1, ,-31, ,
1, ,-31, ,
2, ,-31, ,
1, ,-31, ,
-1, ,-32, ,
2, ,-31, ,
1, ,-31, ,
1, ,-32, ,
2, ,-31, ,
1, ,-31, ,
-1, ,-31, ,
2, ,-32, ,
1, ,-31, ,
1, ,-32, ,
2, ,-31, ,
2, ,-31, ,
-1, ,-32, ,
1, ,-31, ,
1, ,-31, ,
1, ,-31, ,
2, ,-31, ,
1, ,-31, ,
1, ,-31, ,
2, ,-32, ,
1, ,-32, ,
1, ,-31, ,
1, ,-31, ,
1, ,-31, ,
-1, ,-31, ,
2, ,-31, ,
1, ,-31, ,
1, ,-31, ,
2, ,-31, ,
1, ,-31, ,
-1, ,-31, ,
2, ,-31, ,
1, ,-31, ,
1, ,-32, ,
2, ,-31, ,
1, ,-31, ,
-1, ,-32, ,
2, ,-32, ,
1, ,-31, ,
1, ,-31, ,
2, ,-31, ,
1, ,-31, ,
-1, ,-31, ,
2, ,-32, ,
1, ,-32, ,
1, ,-31, ,
2, ,-31, ,
1, ,-31, ,
-1, ,-32, ,
1, ,-32, ,
1, ,-31, ,
1, ,-31, ,
2, ,-31, ,
1, ,-31, ,
1, ,-31, ,
2, ,-32, ,
1, ,-31, ,
1, ,-31, ,
2, ,-31, ,
1, ,-31, ,
-1, ,-32, ,
2, ,-31, ,
1, ,-31, ,
1, ,-31, ,
2, ,-31, ,
1, ,-31, ,
-1, ,-31, ,
2, ,-31, ,
1, ,-31, ,
1, ,-31, ,
2, ,-31, ,
2, ,-22, ,
-1, ,-2, ,
2, ,15, ,
1, ,27, ,
1, ,36, ,
2, ,43, ,
1, ,49, ,
1, ,51, ,
2, ,55, ,
1, ,57, ,
1, ,58, ,
2, ,59, ,
1, ,60, ,
-1, ,60, ,
2, ,61, ,
1, ,61, ,
1, ,61, ,
1, ,61, ,
1, ,62, ,
-1, ,62, ,
2, ,62, ,
1, ,62, ,
1, ,62, ,
1, ,62, ,
1, ,63, ,
-1, ,62, ,
2, ,62, ,
1, ,62, ,
1, ,62, ,
2, ,62, ,
1, ,62, ,
-1, ,61, ,
2, ,62, ,
-1, ,62, ,
1, ,61, ,
2, ,62, ,
1, ,63, ,
-1, ,62, ,
2, ,62, ,
-1, ,62, ,
1, ,62, ,
1, ,62, ,
57, ,62, ,
52, ,61, ,
32, ,62, ,
21, ,62, ,
13, ,61, ,
10, ,61, ,
8, ,62, ,
5, ,61, ,
6, ,62, ,
3, ,62, ,
2, ,61, ,
2, ,61, ,
2, ,62, ,
2, ,61, ,
3, ,62, ,
2, ,62, ,
2, ,62, ,
3, ,62, ,
2, ,62, ,
1, ,61, ,
3, ,62, ,
2, ,62, ,
2, ,62, ,
3, ,62, ,
2, ,62, ,
1, ,61, ,
3, ,62, ,
2, ,62, ,
2, ,61, ,
2, ,62, ,
2, ,62, ,
1, ,61, ,
3, ,62, ,
2, ,62, ,
2, ,61, ,
3, ,61, ,
2, ,62, ,
1, ,61, ,
3, ,61, ,
2, ,61, ,
2, ,61, ,
3, ,62, ,
2, ,62, ,
1, ,61, ,
3, ,62, ,
2, ,62, ,
2, ,62, ,
2, ,62, ,
2, ,62, ,
2, ,61, ,
3, ,62, ,
2, ,62, ,
2, ,61, ,
3, ,61, ,
3, ,62, ,
8, ,61, ,
11, ,62, ,
7, ,62, ,
5, ,62, ,
6, ,62, ,
5, ,62, ,
3, ,61, ,
5, ,62, ,
2, ,62, ,
2, ,61, ,
3, ,61, ,
3, ,62, ,
2, ,61, ,
3, ,62, ,
2, ,61, ,
2, ,61, ,
2, ,61, ,
2, ,61, ,
2, ,61, ,
3, ,62, ,
2, ,62, ,
2, ,61, ,
3, ,61, ,
2, ,62, ,
1, ,61, ,
3, ,61, ,
2, ,62, ,
2, ,62, ,
3, ,61, ,
2, ,62, ,
1, ,61, ,
3, ,62, ,
2, ,62, ,
2, ,62, ,
2, ,61, ,
2, ,62, ,
1, ,61, ,
3, ,61, ,
2, ,62, ,
2, ,61, ,
5, ,62, ,
8, ,62, ,
7, ,61, ,
7, ,62, ,
5, ,62, ,
3, ,61, ,
3, ,61, ,
3, ,62, ,
1, ,61, ,
3, ,61, ,
2, ,61, ,
2, ,62, ,
2, ,61, ,
2, ,62, ,
2, ,61, ,
3, ,62, ,
2, ,62, ,
2, ,59, ,
3, ,40, ,
2, ,22, ,
1, ,8, ,
3, ,-1, ,
2, ,-9, ,
1, ,-15, ,
2, ,-19, ,
2, ,-22, ,
1, ,-24, ,
3, ,-26, ,
2, ,-28, ,
2, ,-30, ,
3, ,-30, ,
3, ,-31, ,
1, ,-31, ,
3, ,-31, ,
2, ,-32, ,
2, ,-32, ,
2, ,-32, ,
2, ,-32, ,
1, ,-32, ,
3, ,-32, ,
2, ,-32, ,
2, ,-32, ,
2, ,-32, ,
3, ,-32, ,
2, ,-32, ,
3, ,-32, ,
2, ,-32, ,
2, ,-32, ,
2, ,-32, ,
3, ,-32, ,
2, ,-32, ,
3, ,-32, ,
2, ,-32, ,
2, ,-32, ,
2, ,-32, ,
2, ,-32, ,
1, ,-32, ,
3, ,-32, ,
2, ,-32, ,
2, ,-32, ,
2, ,-31, ,
3, ,-32, ,
1, ,-31, ,
2, ,-31, ,
2, ,-32, ,
2, ,-32, ,
2, ,-31, ,
3, ,-32, ,
1, ,-32, ,
2, ,-32, ,
2, ,-32, ,
2, ,-31, ,
2, ,-31, ,
2, ,-31, ,
1, ,-32, ,
2, ,-32, ,
2, ,-32, ,
2, ,-31, ,
2, ,-31, ,
2, ,-32, ,
2, ,-32, ,
3, ,-31, ,
2, ,-31, ,
2, ,-32, ,
2, ,-31, ,
2, ,-31, ,
1, ,-32, ,
2, ,-31, ,
2, ,-32, ,
1, ,-31, ,
2, ,-31, ,
2, ,-31, ,
1, ,-32, ,
2, ,-32, ,
2, ,-31, ,
2, ,-31, ,
2, ,-31, ,
2, ,-31, ,
1, ,-31, ,
2, ,-32, ,
2, ,-32, ,
2, ,-31, ,
2, ,-31, ,
2, ,-32, ,
1, ,-32, ,
2, ,-32, ,
2, ,-31, ,
2, ,-31, ,
2, ,-31, ,
2, ,-31, ,
1, ,-31, ,
3, ,-32, ,
2, ,-31, ,
2, ,-32, ,
2, ,-31, ,
2, ,-31, ,
1, ,-32, ,
2, ,-31, ,
2, ,-31, ,
2, ,-31, ,
2, ,-31, ,
2, ,-31, ,
1, ,-31, ,
2, ,-31, ,
1, ,-31, ,
2, ,-31, ,
2, ,-31, ,
2, ,-31, ,
1, ,-32, ,
2, ,-31, ,
1, ,-31, ,
2, ,-31, ,
2, ,-31, ,
2, ,-31, ,
1, ,-31, ,
2, ,-31, ,
2, ,-31, ,
2, ,-31, ,
2, ,-31, ,
2, ,-31, ,
1, ,-31, ,
2, ,-31, ,
2, ,-31, ,
2, ,-31, ,
2, ,-31, ,
2, ,-31, ,
1, ,-31, ,
2, ,-31, ,
1, ,-31, ,
1, ,-31, ,
2, ,-31, ,
2, ,-31, ,
1, ,-31, ,
2, ,-31, ,
1, ,-31, ,
1, ,-31, ,
2, ,-31, ,
2, ,-31, ,
1, ,-31, ,
2, ,-32, ,
1, ,-31, ,
2, ,-31, ,
2, ,-31, ,
2, ,-31, ,
1, ,-31, ,
3, ,-31, ,
2, ,-31, ,
1, ,-31, ,
2, ,-31, ,
2, ,-31, ,
1, ,-31, ,
2, ,-32, ,
2, ,-31, ,
1, ,-31, ,
2, ,-31, ,
2, ,-31, ,
1, ,-31, ,
2, ,-31, ,
2, ,-31, ,
2, ,-31, ,
2, ,-31, ,
2, ,-31, ,
1, ,-31, ,
2, ,-31, ,
2, ,-32, ,
1, ,-31, ,
2, ,-31, ,
2, ,-31, ,
1, ,-32, ,
2, ,-31, ,
2, ,-31, ,
1, ,-31, ,
2, ,-31, ,
2, ,-31, ,
1, ,-31, ,
2, ,-31, ,
1, ,-31, ,
2, ,-31, ,
2, ,-31, ,
2, ,-31, ,
1, ,-32, ,
2, ,-31, ,
1, ,-31, ,
2, ,-31, ,
2, ,-31, ,
2, ,-31, ,
1, ,-31, ,
2, ,-31, ,
2, ,-31, ,
2, ,-31, ,
2, ,-31, ,
2, ,-31, ,
1, ,-32, ,
2, ,-32, ,
1, ,-32, ,
1, ,-31, ,
2, ,-31, ,
2, ,-32, ,
1, ,-31, ,
2, ,-31, ,
1, ,-31, ,
2, ,-31, ,
2, ,-31, ,
2, ,-31, ,
1, ,-31, ,
2, ,-31, ,
1, ,-31, ,
2, ,-31, ,
2, ,-31, ,
2, ,-31, ,
1, ,-31, ,
2, ,-32, ,
1, ,-31, ,
1, ,-31, ,
2, ,-31, ,
2, ,-31, ,
1, ,-31, ,
2, ,-32, ,
1, ,-31, ,
1, ,-31, ,
2, ,-31, ,
2, ,-31, ,
1, ,-32, ,
2, ,-32, ,
1, ,-31, ,
1, ,-31, ,
2, ,-31, ,
2, ,-31, ,
1, ,-32, ,
16, ,-31, ,
38, ,-31, ,
25, ,-31, ,
17, ,-31, ,
11, ,-32, ,
7, ,-31, ,
6, ,-31, ,
3, ,-31, ,
3, ,-31, ,
3, ,-31, ,
2, ,-31, ,
2, ,-31, ,
3, ,-31, ,
2, ,-31, ,
2, ,-31, ,
2, ,-31, ,
3, ,-31, ,
1, ,-31, ,
2, ,-32, ,
2, ,-31, ,
2, ,-31, ,
2, ,-31, ,
2, ,-31, ,
1, ,-32, ,
3, ,-31, ,
2, ,-31, ,
2, ,-31, ,
2, ,-31, ,
2, ,-31, ,
1, ,-31, ,
2, ,-31, ,
2, ,-31, ,
2, ,-31, ,
2, ,-31, ,
3, ,-31, ,
1, ,-31, ,
3, ,-32, ,
2, ,-31, ,
2, ,-31, ,
2, ,-31, ,
2, ,-32, ,
1, ,-31, ,
3, ,-31, ,
2, ,-31, ,
2, ,-31, ,
3, ,-31, ,
2, ,-31, ,
1, ,-32, ,
3, ,-31, ,
2, ,-31, ,
2, ,-32, ,
2, ,-31, ,
3, ,-31, ,
1, ,-31, ,
3, ,-31, ,
2, ,-32, ,
2, ,-31, ,
2, ,-31, ,
2, ,-31, ,
1, ,-32, ,
3, ,-32, ,
2, ,-31, ,
2, ,-31, ,
2, ,-31, ,
3, ,-32, ,
1, ,-31, ,
3, ,-31, ,
2, ,-31, ,
2, ,-31, ,
2, ,-31, ,
3, ,-31, ,
1, ,-31, ,
3, ,-32, ,
2, ,-31, ,
2, ,-31, ,
2, ,-31, ,
3, ,-31, ,
1, ,-31, ,
3, ,-31, ,
2, ,-31, ,
2, ,-31, ,
2, ,-31, ,
2, ,-31, ,
1, ,-32, ,
3, ,-31, ,
2, ,-31, ,
2, ,-31, ,
2, ,-31, ,
2, ,-31, ,
1, ,-31, ,
3, ,-32, ,
2, ,-31, ,
2, ,-31, ,
2, ,-31, ,
2, ,-31, ,
1, ,-31, ,
2, ,-31, ,
2, ,-31, ,
2, ,-32, ,
2, ,-31, ,
2, ,-31, ,
1, ,-31, ,
3, ,-31, ,
2, ,-31, ,
2, ,-31, ,
2, ,-31, ,
2, ,-31, ,
1, ,-32, ,
2, ,-31, ,
2, ,-31, ,
1, ,-31, ,
2, ,-31, ,
2, ,-31, ,
1, ,-31, ,
2, ,-32, ,
1, ,-31, ,
2, ,-31, ,
2, ,-31, ,
2, ,-31, ,
1, ,-31, ,
2, ,-31, ,
2, ,-31, ,
2, ,-31, ,
2, ,-31, ,
2, ,-31, ,
1, ,-32, ,
2, ,-31, ,
2, ,-31, ,
2, ,-31, ,
2, ,-31, ,
2, ,-32, ,
1, ,-31, ,
2, ,-31, ,
2, ,-31, ,
1, ,-32, ,
2, ,-31, ,
2, ,-31, ,
1, ,-31, ,
2, ,-31, ,
1, ,-31, ,
1, ,-31, ,
2, ,-31, ,
2, ,-31, ,
1, ,-31, ,
2, ,-31, ,
1, ,-31, ,
2, ,-31, ,
2, ,-31, ,
2, ,-32, ,
1, ,-31, ,
2, ,-31, ,
1, ,-31, ,
2, ,-31, ,
2, ,-31, ,
2, ,-31, ,
1, ,-32, ,
2, ,-31, ,
1, ,-31, ,
2, ,-31, ,
2, ,-31, ,
2, ,-31, ,
1, ,-32, ,
2, ,-31, ,
1, ,-31, ,
1, ,-31, ,
2, ,-31, ,
2, ,-31, ,
1, ,-31, ,
2, ,-31, ,
2, ,-31, ,
1, ,-31, ,
2, ,-31, ,
2, ,-31, ,
1, ,-31, ,
2, ,-31, ,
1, ,-31, ,
1, ,-31, ,
2, ,-31, ,
2, ,-31, ,
1, ,-31, ,
2, ,-32, ,
2, ,-31, ,
2, ,-32, ,
2, ,-31, ,
2, ,-31, ,
1, ,-31, ,
2, ,-31, ,
1, ,-31, ,
1, ,-31, ,
2, ,-31, ,
2, ,-31, ,
1, ,-32, ,
2, ,-31, ,
2, ,-31, ,
2, ,-31, ,
2, ,-31, ,
2, ,-31, ,
1, ,-31, ,
2, ,-31, ,
1, ,-31, ,
2, ,-31, ,
2, ,-31, ,
1, ,-31, ,
1, ,-32, ,
2, ,-31, ,
1, ,-31, ,
1, ,-31, ,
2, ,-31, ,
2, ,-31, ,
1, ,-31, ,
2, ,-31, ,
1, ,-31, ,
2, ,-31, ,
2, ,-31, ,
2, ,-31, ,
1, ,-31, ,
2, ,-31, ,
1, ,-32, ,
1, ,-32, ,
2, ,-31, ,
2, ,-31, ,
1, ,-31, ,
2, ,-31, ,
1, ,-31, ,
2, ,-31, ,
2, ,-31, ,
2, ,-31, ,
1, ,-31, ,
2, ,-32, ,
1, ,-31, ,
2, ,-31, ,
2, ,-31, ,
2, ,-31, ,
1, ,-31, ,
2, ,-31, ,
1, ,-31, ,
2, ,-32, ,
2, ,-31, ,
2, ,-31, ,
1, ,-31, ,
2, ,-31, ,
1, ,-31, ,
1, ,-32, ,
2, ,-31, ,
2, ,-31, ,
1, ,-31, ,
2, ,-31, ,
1, ,-31, ,
2, ,-31, ,
2, ,-31, ,
2, ,-31, ,
1, ,-32, ,
2, ,-31, ,
1, ,-31, ,
2, ,-32, ,
2, ,-31, ,
2, ,-32, ,
1, ,-31, ,
2, ,-31, ,
1, ,-32, ,
1, ,-31, ,
2, ,-31, ,
2, ,-31, ,
1, ,-31, ,
2, ,-31, ,
1, ,-31, ,
1, ,-31, ,
2, ,-31, ,
1, ,-32, ,
-1, ,-31, ,
2, ,-31, ,
1, ,-31, ,
2, ,-31, ,
2, ,-31, ,
2, ,-31, ,
1, ,-31, ,
2, ,-32, ,
1, ,-31, ,
1, ,-31, ,
2, ,-31, ,
1, ,-32, ,
1, ,-31, ,
2, ,-31, ,
1, ,-31, ,
1, ,-31, ,
2, ,-31, ,
1, ,-31, ,
1, ,-31, ,
2, ,-31, ,
1, ,-31, ,
1, ,-32, ,
2, ,-31, ,
2, ,-32, ,
-1, ,-31, ,
2, ,-31, ,
1, ,-31, ,
1, ,-31, ,
2, ,-31, ,
1, ,-31, ,
1, ,-31, ,
2, ,-31, ,
1, ,-31, ,
1, ,-31, ,
2, ,-31, ,
2, ,-32, ,
-1, ,-31, ,
2, ,-32, ,
1, ,-31, ,
1, ,-32, ,
2, ,-31, ,
2, ,-31, ,
1, ,-31, ,
2, ,-31, ,
2, ,-31, ,
2, ,-32, ,
2, ,-31, ,
1, ,-31, ,
1, ,-31, ,
2, ,-32, ,
1, ,-32, ,
1, ,-31, ,
2, ,-31, ,
2, ,-31, ,
1, ,-32, ,
2, ,-32, ,
1, ,-31, ,
1, ,-31, ,
2, ,-31, ,
1, ,-31, ,
1, ,-31, ,
2, ,-31, ,
1, ,-31, ,
2, ,-31, ,
2, ,-31, ,
1, ,-31, ,
1, ,-32, ,
2, ,-32, ,
1, ,-31, ,
1, ,-32, ,
2, ,-31, ,
1, ,-31, ,
1, ,-31, ,
2, ,-31, ,
1, ,-31, ,
1, ,-31, ,
2, ,-31, ,
1, ,-31, ,
1, ,-31, ,
2, ,-31, ,
1, ,-31, ,
1, ,-31, ,
2, ,-31, ,
1, ,-31, ,
-1, ,-31, ,
2, ,-32, ,
1, ,-31, ,
1, ,-31, ,
2, ,-31, ,
2, ,-31, ,
-1, ,-31, ,
2, ,-32, ,
1, ,-31, ,
1, ,-32, ,
2, ,-31, ,
1, ,-32, ,
1, ,-31, ,
2, ,-32, ,
1, ,-31, ,
1, ,-31, ,
2, ,-31, ,
1, ,-31, ,
1, ,-32, ,
2, ,-32, ,
1, ,-31, ,
1, ,-31, ,
2, ,-31, ,
1, ,-31, ,
1, ,-32, ,
2, ,-32, ,
1, ,-31, ,
1, ,-31, ,
2, ,-31, ,
1, ,-31, ,
1, ,-31, ,
2, ,-32, ,
1, ,-31, ,
1, ,-31, ,
2, ,-31, ,
1, ,-31, ,
-1, ,-31, ,
1, ,-32, ,
1, ,-31, ,
1, ,-31, ,
2, ,-31, ,
2, ,-31, ,
-1, ,-26, ,
2, ,-7, ,
1, ,9, ,
2, ,24, ,
2, ,34, ,
1, ,41, ,
1, ,46, ,
2, ,51, ,
1, ,54, ,
1, ,56, ,
2, ,58, ,
1, ,59, ,
1, ,59, ,
2, ,60, ,
1, ,61, ,
1, ,62, ,
1, ,61, ,
1, ,62, ,
-1, ,61, ,
2, ,62, ,
-1, ,62, ,
1, ,62, ,
55, ,62, ,
36, ,63, ,
21, ,62, ,
16, ,62, ,
10, ,62, ,
7, ,62, ,
6, ,62, ,
3, ,63, ,
2, ,62, ,
5, ,62, ,
2, ,62, ,
1, ,62, ,
2, ,62, ,
2, ,62, ,
1, ,61, ,
3, ,62, ,
2, ,62, ,
2, ,62, ,
3, ,62, ,
2, ,62, ,
2, ,61, ,
3, ,62, ,
2, ,62, ,
2, ,61, ,
3, ,62, ,
2, ,62, ,
1, ,61, ,
3, ,62, ,
2, ,62, ,
2, ,62, ,
2, ,62, ,
2, ,62, ,
1, ,61, ,
3, ,61, ,
2, ,62, ,
2, ,62, ,
3, ,61, ,
2, ,62, ,
1, ,61, ,
3, ,62, ,
2, ,62, ,
1, ,62, ,
3, ,62, ,
2, ,62, ,
1, ,61, ,
3, ,62, ,
2, ,62, ,
2, ,62, ,
3, ,61, ,
2, ,62, ,
1, ,61, ,
3, ,61, ,
2, ,62, ,
2, ,62, ,
3, ,62, ,
8, ,62, ,
12, ,61, ,
11, ,62, ,
7, ,62, ,
5, ,61, ,
5, ,61, ,
3, ,62, ,
2, ,61, ,
3, ,61, ,
2, ,62, ,
2, ,62, ,
3, ,61, ,
2, ,62, ,
2, ,61, ,
3, ,62, ,
2, ,62, ,
2, ,61, ,
3, ,61, ,
2, ,62, ,
1, ,61, ,
3, ,62, ,
2, ,62, ,
2, ,61, ,
3, ,61, ,
2, ,62, ,
2, ,61, ,
3, ,62, ,
2, ,62, ,
1, ,61, ,
3, ,61, ,
2, ,62, ,
1, ,61, ,
3, ,61, ,
2, ,62, ,
2, ,62, ,
2, ,61, ,
2, ,62, ,
1, ,61, ,
5, ,62, ,
7, ,62, ,
7, ,62, ,
7, ,62, ,
5, ,62, ,
3, ,61, ,
5, ,62, ,
2, ,61, ,
2, ,61, ,
3, ,61, ,
2, ,62, ,
1, ,61, ,
3, ,61, ,
2, ,61, ,
2, ,62, ,
3, ,61, ,
2, ,62, ,
2, ,61, ,
3, ,62, ,
2, ,62, ,
2, ,62, ,
3, ,61, ,
2, ,62, ,
2, ,61, ,
6, ,62, ,
5, ,62, ,
5, ,61, ,
5, ,61, ,
5, ,62, ,
2, ,61, ,
3, ,62, ,
2, ,62, ,
2, ,61, ,
2, ,61, ,
2, ,62, ,
1, ,61, ,
3, ,62, ,
2, ,61, ,
2, ,61, ,
3, ,61, ,
2, ,47, ,
1, ,27, ,
3, ,12, ,
2, ,1, ,
2, ,-7, ,
2, ,-14, ,
2, ,-18, ,
1, ,-21, ,
3, ,-24, ,
2, ,-26, ,
2, ,-27, ,
3, ,-28, ,
2, ,-30, ,
2, ,-31, ,
3, ,-31, ,
2, ,-31, ,
2, ,-32, ,
2, ,-31, ,
3, ,-32, ,
2, ,-32, ,
2, ,-32, ,
2, ,-32, ,
2, ,-32, ,
3, ,-32, ,
2, ,-32, ,
1, ,-32, ,
3, ,-32, ,
2, ,-32, ,
2, ,-32, ,
2, ,-32, ,
3, ,-32, ,
2, ,-32, ,
3, ,-32, ,
2, ,-32, ,
2, ,-32, ,
8, ,-32, ,
11, ,-32, ,
8, ,-32, ,
7, ,-32, ,
5, ,-32, ,
3, ,-32, ,
5, ,-32, ,
3, ,-31, ,
2, ,-32, ,
5, ,-32, ,
2, ,-32, ,
2, ,-31, ,
3, ,-32, ,
2, ,-32, ,
2, ,-32, ,
3, ,-32, ,
2, ,-32, ,
2, ,-32, ,
3, ,-31, ,
3, ,-32, ,
2, ,-32, ,
3, ,-32, ,
2, ,-32, ,
2, ,-32, ,
3, ,-31, ,
3, ,-31, ,
2, ,-32, ,
3, ,-32, ,
2, ,-32, ,
2, ,-32, ,
3, ,-31, ,
2, ,-32, ,
2, ,-32, ,
3, ,-32, ,
2, ,-32, ,
2, ,-32, ,
2, ,-31, ,
3, ,-31, ,
2, ,-32, ,
3, ,-32, ,
2, ,-32, ,
2, ,-31, ,
2, ,-31, ,
3, ,-31, ,
2, ,-31, ,
2, ,-32, ,
2, ,-31, ,
2, ,-31, ,
3, ,-31, ,
2, ,-31, ,
2, ,-32, ,
2, ,-32, ,
2, ,-31, ,
2, ,-32, ,
2, ,-31, ,
2, ,-31, ,
2, ,-31, ,
2, ,-31, ,
2, ,-32, ,
2, ,-31, ,
2, ,-31, ,
2, ,-31, ,
1, ,-31, ,
2, ,-31, ,
2, ,-31, ,
2, ,-32, ,
2, ,-31, ,
2, ,-31, ,
1, ,-31, ,
2, ,-32, ,
2, ,-32, ,
2, ,-31, ,
2, ,-31, ,
2, ,-31, ,
1, ,-32, ,
2, ,-31, ,
2, ,-31, ,
2, ,-31, ,
2, ,-31, ,
2, ,-32, ,
1, ,-31, ,
2, ,-32, ,
2, ,-31, ,
2, ,-31, ,
2, ,-31, ,
2, ,-31, ,
1, ,-32, ,
2, ,-31, ,
2, ,-31, ,
2, ,-32, ,
2, ,-31, ,
2, ,-31, ,
1, ,-31, ,
2, ,-32, ,
2, ,-32, ,
2, ,-31, ,
2, ,-31, ,
3, ,-31, ,
1, ,-31, ,
2, ,-31, ,
2, ,-31, ,
2, ,-31, ,
2, ,-31, ,
2, ,-31, ,
1, ,-31, ,
2, ,-31, ,
2, ,-31, ,
2, ,-31, ,
2, ,-31, ,
2, ,-31, ,
1, ,-31, ,
2, ,-31, ,
2, ,-31, ,
2, ,-31, ,
2, ,-31, ,
2, ,-31, ,
1, ,-31, ,
2, ,-31, ,
2, ,-31, ,
2, ,-31, ,
2, ,-31, ,
2, ,-31, ,
1, ,-31, ,
2, ,-31, ,
2, ,-31, ,
2, ,-31, ,
2, ,-31, ,
2, ,-31, ,
1, ,-31, ,
2, ,-32, ,
2, ,-31, ,
2, ,-31, ,
2, ,-31, ,
2, ,-31, ,
1, ,-31, ,
2, ,-31, ,
2, ,-31, ,
2, ,-32, ,
2, ,-31, ,
2, ,-32, ,
1, ,-31, ,
2, ,-31, ,
1, ,-31, ,
1, ,-31, ,
2, ,-31, ,
2, ,-31, ,
1, ,-31, ,
2, ,-32, ,
2, ,-31, ,
2, ,-31, ,
2, ,-31, ,
2, ,-31, ,
1, ,-31, ,
2, ,-31, ,
1, ,-31, ,
1, ,-31, ,
2, ,-31, ,
2, ,-31, ,
1, ,-31, ,
2, ,-31, ,
2, ,-31, ,
2, ,-32, ,
2, ,-31, ,
2, ,-32, ,
1, ,-31, ,
2, ,-31, ,
1, ,-32, ,
1, ,-31, ,
2, ,-31, ,
2, ,-31, ,
1, ,-32, ,
2, ,-32, ,
2, ,-31, ,
2, ,-31, ,
2, ,-31, ,
2, ,-31, ,
1, ,-31, ,
2, ,-31, ,
1, ,-31, ,
1, ,-31, ,
2, ,-31, ,
2, ,-31, ,
1, ,-31, ,
2, ,-31, ,
1, ,-31, ,
2, ,-31, ,
2, ,-31, ,
2, ,-31, ,
1, ,-31, ,
2, ,-31, ,
1, ,-31, ,
2, ,-31, ,
2, ,-31, ,
2, ,-31, ,
1, ,-31, ,
2, ,-31, ,
1, ,-31, ,
1, ,-32, ,
2, ,-31, ,
2, ,-32, ,
1, ,-32, ,
2, ,-31, ,
1, ,-32, ,
2, ,-31, ,
2, ,-31, ,
2, ,-31, ,
1, ,-31, ,
2, ,-31, ,
1, ,-31, ,
2, ,-31, ,
2, ,-31, ,
1, ,-31, ,
1, ,-31, ,
2, ,-32, ,
1, ,-31, ,
1, ,-31, ,
2, ,-31, ,
2, ,-31, ,
1, ,-31, ,
2, ,-32, ,
1, ,-31, ,
2, ,-31, ,
2, ,-31, ,
2, ,-32, ,
1, ,-31, ,
2, ,-32, ,
1, ,-31, ,
1, ,-31, ,
2, ,-31, ,
2, ,-31, ,
1, ,-32, ,
2, ,-31, ,
1, ,-31, ,
2, ,-31, ,
2, ,-31, ,
2, ,-31, ,
1, ,-31, ,
2, ,-32, ,
1, ,-31, ,
2, ,-31, ,
2, ,-31, ,
2, ,-31, ,
1, ,-31, ,
2, ,-31, ,
1, ,-31, ,
1, ,-31, ,
2, ,-31, ,
2, ,-31, ,
1, ,-31, ,
2, ,-31, ,
1, ,-31, ,
1, ,-31, ,
2, ,-31, ,
2, ,-31, ,
1, ,-32, ,
2, ,-32, ,
1, ,-31, ,
1, ,-31, ,
2, ,-31, ,
2, ,-31, ,
1, ,-31, ,
2, ,-31, ,
1, ,-31, ,
1, ,-31, ,
2, ,-31, ,
1, ,-31, ,
1, ,-32, ,
2, ,-31, ,
1, ,-31, ,
1, ,-31, ,
2, ,-31, ,
2, ,-31, ,
1, ,-32, ,
2, ,-31, ,
1, ,-32, ,
1, ,-31, ,
2, ,-31, ,
2, ,-31, ,
1, ,-32, ,
2, ,-31, ,
1, ,-32, ,
1, ,-31, ,
2, ,-31, ,
2, ,-32, ,
1, ,-31, ,
2, ,-31, ,
1, ,-31, ,
1, ,-31, ,
2, ,-31, ,
2, ,-31, ,
1, ,-31, ,
2, ,-31, ,
1, ,-31, ,
1, ,-31, ,
2, ,-31, ,
2, ,-31, ,
1, ,-31, ,
2, ,-32, ,
1, ,-31, ,
1, ,-31, ,
2, ,-31, ,
2, ,-31, ,
1, ,-32, ,
2, ,-31, ,
1, ,-31, ,
1, ,-31, ,
2, ,-31, ,
2, ,-31, ,
1, ,-31, ,
2, ,-31, ,
1, ,-31, ,
1, ,-31, ,
2, ,-31, ,
1, ,-31, ,
1, ,-31, ,
2, ,-31, ,
1, ,-31, ,
1, ,-31, ,
2, ,-31, ,
2, ,-31, ,
1, ,-31, ,
2, ,-32, ,
1, ,-32, ,
1, ,-31, ,
2, ,-31, ,
2, ,-31, ,
1, ,-31, ,
2, ,-31, ,
1, ,-31, ,
1, ,-31, ,
2, ,-31, ,
1, ,-31, ,
1, ,-31, ,
2, ,-32, ,
1, ,-31, ,
1, ,-31, ,
2, ,-31, ,
1, ,-32, ,
1, ,-32, ,
2, ,-31, ,
1, ,-31, ,
1, ,-31, ,
2, ,-31, ,
2, ,-31, ,
1, ,-31, ,
2, ,-31, ,
1, ,-31, ,
1, ,-31, ,
2, ,-31, ,
1, ,-31, ,
-1, ,-32, ,
2, ,-31, ,
1, ,-31, ,
1, ,-31, ,
2, ,-31, ,
1, ,-31, ,
-1, ,-31, ,
2, ,-32, ,
1, ,-31, ,
1, ,-31, ,
2, ,-31, ,
2, ,-31, ,
-1, ,-31, ,
2, ,-31, ,
1, ,-31, ,
1, ,-31, ,
2, ,-31, ,
1, ,-31, ,
-1, ,-31, ,
2, ,-31, ,
1, ,-31, ,
1, ,-31, ,
2, ,-31, ,
1, ,-31, ,
1, ,-31, ,
1, ,-31, ,
1, ,-31, ,
1, ,-32, ,
2, ,-31, ,
1, ,-31, ,
-1, ,-31, ,
2, ,-31, ,
1, ,-31, ,
1, ,-31, ,
1, ,-31, ,
1, ,-31, ,
-1, ,-32, ,
2, ,-31, ,
1, ,-31, ,
1, ,-31, ,
2, ,-31, ,
1, ,-31, ,
-1, ,-31, ,
1, ,-31, ,
1, ,-32, ,
1, ,-31, ,
2, ,-31, ,
1, ,-31, ,
-1, ,-32, ,
2, ,-31, ,
1, ,-32, ,
1, ,-31, ,
2, ,-31, ,
2, ,-31, ,
1, ,-31, ,
1, ,-31, ,
1, ,-32, ,
1, ,-31, ,
2, ,-31, ,
1, ,-31, ,
-1, ,-32, ,
1, ,-31, ,
1, ,-31, ,
1, ,-31, ,
2, ,-31, ,
1, ,-31, ,
-1, ,-31, ,
2, ,-32, ,
1, ,-31, ,
1, ,-31, ,
2, ,-31, ,
2, ,-31, ,
-1, ,-32, ,
1, ,-31, ,
1, ,-31, ,
1, ,-31, ,
2, ,-31, ,
1, ,-31, ,
-1, ,-31, ,
2, ,-31, ,
1, ,-31, ,
1, ,-32, ,
2, ,-31, ,
2, ,-31, ,
-1, ,-32, ,
2, ,-32, ,
1, ,-31, ,
1, ,-31, ,
2, ,-31, ,
1, ,-32, ,
1, ,-31, ,
2, ,-32, ,
1, ,-32, ,
1, ,-31, ,
2, ,-31, ,
1, ,-31, ,
-1, ,-32, ,
2, ,-32, ,
1, ,-32, ,
1, ,-32, ,
2, ,-31, ,
1, ,-31, ,
1, ,-31, ,
2, ,-31, ,
1, ,-31, ,
1, ,-32, ,
2, ,-31, ,
1, ,-31, ,
-1, ,-32, ,
2, ,-31, ,
1, ,-31, ,
1, ,-32, ,
2, ,-31, ,
1, ,-31, ,
1, ,-31, ,
2, ,-32, ,
1, ,-31, ,
