src/varyamp_1558/temp0004007.CSV

Format,1.0B,
Memory Length,10000,Memory Length,10000,
IntpDistance,0,IntpDistance,0,
Trigger Address,4999,Trigger Address,4999,
Trigger Level,1.040E+00,Trigger Level,1.040E+00,
Source,CH1,Source,CH2,
Vertical Units,V,Vertical Units,V,
Vertical Units Div,0,Vertical Units Div,0,
Vertical Units Extend Div,16,Vertical Units Extend Div,16,
Label,,Label,,
Probe Type,0,Probe Type,0,
Probe Ratio,1.000e+01,Probe Ratio,1.000e+00,
Vertical Scale,5.000e-01,Vertical Scale,1.000e+00,
Vertical Position,-1.820e+00,Vertical Position,0.000e+00,
Horizontal Units,S,Horizontal Units,S,
Horizontal Scale,2.000E-05,Horizontal Scale,2.000E-05,
Horizontal Position,0.000E+00,Horizontal Position,0.000E+00,
Horizontal Mode,Main,Horizontal Mode,Main,
SincET Mode,Real Time,SincET Mode,Real Time,
Sampling Period,2.000e-08,Sampling Period,2.000e-08,
Horizontal Old Scale,2.000E-05,Horizontal Old Scale,2.000E-05,
Horizontal Old Position,0.000E+00,Horizontal Old Position,0.000E+00,
Firmware,V1.23,Firmware,V1.23,
Mode,Fast,Mode,Fast,
Waveform Data,,Waveform Data,,
1, ,-30, ,
2, ,-31, ,
1, ,-30, ,
-1, ,-31, ,
2, ,-31, ,
1, ,-31, ,
1, ,-30, ,
2, ,-30, ,
2, ,-31, ,
-1, ,-31, ,
2, ,-31, ,
1, ,-31, ,
1, ,-30, ,
2, ,-31, ,
2, ,-31, ,
-1, ,-31, ,
2, ,-31, ,
1, ,-30, ,
1, ,-30, ,
2, ,-31, ,
2, ,-31, ,
-1, ,-31, ,
2, ,-31, ,
1, ,-31, ,
1, ,-30, ,
2, ,-31, ,
1, ,-31, ,
-1, ,-31, ,
2, ,-31, ,
1, ,-31, ,
1, ,-30, ,
2, ,-30, ,
2, ,-31, ,
-1, ,-31, ,
2, ,-30, ,
1, ,-31, ,
1, ,-30, ,
2, ,-31, ,
1, ,-31, ,
-1, ,-31, ,
2, ,-31, ,
1, ,-31, ,
1, ,-30, ,
2, ,-30, ,
1, ,-31, ,
-1, ,-31, ,
2, ,-31, ,
1, ,-31, ,
1, ,-30, ,
2, ,-31, ,
2, ,-31, ,
-1, ,-31, ,
2, ,-31, ,
1, ,-31, ,
1, ,-31, ,
1, ,-30, ,
1, ,-31, ,
-1, ,-31, ,
2, ,-31, ,
1, ,-31, ,
1, ,-30, ,
2, ,-30, ,
1, ,-30, ,
-1, ,-31, ,
2, ,-31, ,
1, ,-31, ,
1, ,-30, ,
2, ,-30, ,
2, ,-31, ,
-1, ,-31, ,
2, ,-31, ,
1, ,-31, ,
1, ,-30, ,
2, ,-31, ,
1, ,-31, ,
-1, ,-31, ,
2, ,-31, ,
1, ,-30, ,
1, ,-30, ,
1, ,-30, ,
1, ,-31, ,
-1, ,-31, ,
2, ,-31, ,
1, ,-31, ,
1, ,-30, ,
2, ,-31, ,
1, ,-31, ,
-1, ,-31, ,
2, ,-31, ,
1, ,-31, ,
1, ,-30, ,
2, ,-31, ,
1, ,-31, ,
-1, ,-31, ,
2, ,-30, ,
1, ,-31, ,
1, ,-30, ,
1, ,-30, ,
1, ,-31, ,
-1, ,-31, ,
2, ,-31, ,
1, ,-31, ,
1, ,-30, ,
2, ,-31, ,
1, ,-31, ,
-1, ,-31, ,
2, ,-30, ,
1, ,-31, ,
1, ,-31, ,
2, ,-30, ,
2, ,-30, ,
-1, ,-31, ,
2, ,-31, ,
1, ,-30, ,
1, ,-30, ,
2, ,-30, ,
1, ,-31, ,
-1, ,-31, ,
1, ,-31, ,
1, ,-31, ,
1, ,-30, ,
1, ,-30, ,
1, ,-31, ,
-1, ,-31, ,
2, ,-31, ,
1, ,-31, ,
1, ,-30, ,
2, ,-31, ,
1, ,-31, ,
-1, ,-31, ,
2, ,-31, ,
1, ,-31, ,
1, ,-30, ,
2, ,-31, ,
1, ,-31, ,
-1, ,-31, ,
2, ,-31, ,
1, ,-31, ,
1, ,-30, ,
2, ,-30, ,
1, ,-31, ,
-1, ,-31, ,
2, ,-31, ,
1, ,-31, ,
1, ,-30, ,
1, ,-31, ,
1, ,-30, ,
-1, ,-31, ,
2, ,-31, ,
1, ,-31, ,
1, ,-30, ,
2, ,-31, ,
1, ,-31, ,
-1, ,-31, ,
2, ,-31, ,
1, ,-31, ,
1, ,-30, ,
2, ,-31, ,
1, ,-31, ,
-1, ,-30, ,
2, ,-31, ,
1, ,-30, ,
1, ,-30, ,
2, ,-31, ,
2, ,-31, ,
-1, ,-31, ,
1, ,-30, ,
1, ,-31, ,
1, ,-31, ,
2, ,-31, ,
1, ,-31, ,
-1, ,-31, ,
2, ,-31, ,
1, ,-31, ,
1, ,-31, ,
2, ,-31, ,
1, ,-31, ,
-1, ,-31, ,
2, ,-31, ,
1, ,-31, ,
1, ,-30, ,
2, ,-31, ,
1, ,-31, ,
-1, ,-31, ,
2, ,-30, ,
1, ,-30, ,
1, ,-30, ,
2, ,-31, ,
2, ,-31, ,
-1, ,-31, ,
2, ,-31, ,
1, ,-31, ,
1, ,-31, ,
1, ,-31, ,
1, ,-31, ,
-1, ,-30, ,
2, ,-31, ,
1, ,-31, ,
1, ,-30, ,
1, ,-30, ,
1, ,-31, ,
-1, ,-31, ,
2, ,-31, ,
1, ,-31, ,
-1, ,-30, ,
2, ,-31, ,
1, ,-31, ,
-1, ,-30, ,
1, ,-31, ,
-1, ,-31, ,
1, ,-30, ,
2, ,-30, ,
58, ,-31, ,
53, ,-31, ,
32, ,-31, ,
20, ,-31, ,
13, ,-31, ,
10, ,-31, ,
6, ,-30, ,
3, ,-31, ,
5, ,-31, ,
2, ,-30, ,
2, ,-30, ,
3, ,-31, ,
2, ,-31, ,
1, ,-31, ,
3, ,-31, ,
2, ,-31, ,
2, ,-31, ,
3, ,-31, ,
3, ,-31, ,
1, ,-31, ,
3, ,-31, ,
2, ,-31, ,
1, ,-31, ,
3, ,-30, ,
2, ,-31, ,
1, ,-31, ,
3, ,-31, ,
2, ,-31, ,
1, ,-31, ,
3, ,-31, ,
2, ,-30, ,
1, ,-31, ,
3, ,-31, ,
2, ,-30, ,
2, ,-31, ,
3, ,-31, ,
3, ,-31, ,
1, ,-31, ,
3, ,-31, ,
2, ,-31, ,
1, ,-31, ,
3, ,-31, ,
2, ,-30, ,
1, ,-31, ,
3, ,-30, ,
2, ,-31, ,
2, ,-31, ,
3, ,-31, ,
2, ,-31, ,
1, ,-31, ,
3, ,-31, ,
2, ,-31, ,
2, ,-30, ,
3, ,-31, ,
2, ,-30, ,
1, ,-31, ,
3, ,-31, ,
2, ,-31, ,
1, ,-30, ,
2, ,-30, ,
2, ,-31, ,
1, ,-31, ,
3, ,-31, ,
1, ,-31, ,
1, ,-31, ,
3, ,-31, ,
2, ,-31, ,
1, ,-31, ,
3, ,-31, ,
2, ,-30, ,
2, ,-31, ,
2, ,-30, ,
2, ,-31, ,
1, ,-31, ,
3, ,-31, ,
2, ,-31, ,
2, ,-31, ,
2, ,-31, ,
2, ,-31, ,
1, ,-30, ,
3, ,-31, ,
1, ,-31, ,
1, ,-30, ,
2, ,-30, ,
3, ,-31, ,
1, ,-31, ,
3, ,-31, ,
2, ,-31, ,
2, ,-30, ,
3, ,-31, ,
2, ,-31, ,
1, ,-31, ,
3, ,-31, ,
1, ,-31, ,
1, ,-30, ,
2, ,-30, ,
2, ,-28, ,
1, ,-12, ,
3, ,7, ,
2, ,21, ,
2, ,32, ,
3, ,40, ,
2, ,45, ,
1, ,51, ,
3, ,54, ,
1, ,56, ,
1, ,58, ,
2, ,60, ,
2, ,60, ,
1, ,61, ,
3, ,62, ,
1, ,62, ,
1, ,62, ,
2, ,63, ,
2, ,62, ,
1, ,63, ,
2, ,63, ,
1, ,63, ,
1, ,62, ,
2, ,63, ,
2, ,62, ,
1, ,63, ,
2, ,63, ,
1, ,63, ,
1, ,63, ,
2, ,63, ,
2, ,62, ,
1, ,62, ,
2, ,62, ,
1, ,63, ,
1, ,62, ,
2, ,63, ,
2, ,62, ,
-1, ,63, ,
2, ,63, ,
1, ,62, ,
1, ,63, ,
20, ,63, ,
26, ,62, ,
16, ,63, ,
12, ,64, ,
8, ,62, ,
5, ,62, ,
6, ,63, ,
5, ,62, ,
2, ,62, ,
3, ,62, ,
2, ,62, ,
1, ,62, ,
3, ,63, ,
3, ,62, ,
1, ,62, ,
3, ,63, ,
1, ,62, ,
2, ,62, ,
2, ,63, ,
2, ,62, ,
1, ,62, ,
3, ,62, ,
2, ,62, ,
2, ,62, ,
3, ,63, ,
2, ,62, ,
1, ,62, ,
3, ,63, ,
2, ,62, ,
1, ,62, ,
2, ,63, ,
2, ,62, ,
1, ,63, ,
3, ,62, ,
2, ,62, ,
3, ,62, ,
6, ,62, ,
6, ,62, ,
5, ,62, ,
6, ,62, ,
5, ,62, ,
3, ,62, ,
5, ,63, ,
3, ,62, ,
1, ,62, ,
3, ,62, ,
2, ,62, ,
2, ,62, ,
3, ,63, ,
2, ,62, ,
1, ,63, ,
3, ,62, ,
2, ,62, ,
2, ,62, ,
3, ,63, ,
2, ,62, ,
1, ,62, ,
3, ,63, ,
2, ,62, ,
2, ,62, ,
2, ,63, ,
2, ,62, ,
1, ,62, ,
3, ,63, ,
2, ,62, ,
1, ,62, ,
3, ,63, ,
6, ,62, ,
5, ,62, ,
7, ,63, ,
5, ,62, ,
3, ,62, ,
5, ,63, ,
3, ,62, ,
2, ,62, ,
3, ,63, ,
2, ,62, ,
2, ,62, ,
3, ,63, ,
2, ,62, ,
1, ,62, ,
3, ,62, ,
2, ,62, ,
2, ,62, ,
3, ,63, ,
2, ,62, ,
1, ,63, ,
3, ,63, ,
2, ,62, ,
1, ,62, ,
3, ,63, ,
2, ,62, ,
1, ,62, ,
3, ,63, ,
1, ,62, ,
1, ,62, ,
2, ,63, ,
2, ,62, ,
1, ,62, ,
3, ,62, ,
2, ,62, ,
2, ,62, ,
3, ,63, ,
5, ,62, ,
6, ,62, ,
8, ,62, ,
6, ,62, ,
3, ,62, ,
5, ,63, ,
3, ,62, ,
2, ,62, ,
3, ,63, ,
2, ,62, ,
2, ,62, ,
3, ,53, ,
2, ,33, ,
1, ,16, ,
3, ,4, ,
1, ,-4, ,
1, ,-12, ,
2, ,-17, ,
2, ,-20, ,
2, ,-23, ,
5, ,-25, ,
3, ,-26, ,
3, ,-27, ,
5, ,-28, ,
3, ,-30, ,
2, ,-30, ,
3, ,-30, ,
2, ,-31, ,
2, ,-31, ,
3, ,-31, ,
3, ,-31, ,
1, ,-31, ,
3, ,-31, ,
2, ,-31, ,
2, ,-31, ,
3, ,-31, ,
2, ,-32, ,
1, ,-31, ,
3, ,-31, ,
2, ,-31, ,
2, ,-31, ,
3, ,-31, ,
2, ,-31, ,
1, ,-31, ,
3, ,-31, ,
2, ,-31, ,
2, ,-31, ,
3, ,-31, ,
3, ,-31, ,
1, ,-31, ,
5, ,-31, ,
6, ,-31, ,
6, ,-31, ,
7, ,-31, ,
6, ,-31, ,
5, ,-31, ,
6, ,-31, ,
3, ,-31, ,
3, ,-31, ,
3, ,-31, ,
3, ,-31, ,
1, ,-31, ,
3, ,-31, ,
2, ,-31, ,
2, ,-31, ,
3, ,-31, ,
2, ,-31, ,
1, ,-31, ,
3, ,-31, ,
2, ,-31, ,
2, ,-31, ,
3, ,-30, ,
3, ,-31, ,
1, ,-31, ,
3, ,-31, ,
2, ,-31, ,
2, ,-31, ,
3, ,-31, ,
3, ,-31, ,
1, ,-31, ,
3, ,-31, ,
2, ,-31, ,
1, ,-31, ,
2, ,-31, ,
3, ,-31, ,
1, ,-31, ,
3, ,-31, ,
2, ,-31, ,
2, ,-30, ,
3, ,-31, ,
2, ,-31, ,
1, ,-31, ,
3, ,-31, ,
2, ,-31, ,
2, ,-31, ,
2, ,-31, ,
2, ,-31, ,
1, ,-31, ,
3, ,-31, ,
2, ,-31, ,
2, ,-30, ,
3, ,-31, ,
3, ,-30, ,
1, ,-31, ,
3, ,-31, ,
2, ,-31, ,
2, ,-31, ,
3, ,-31, ,
2, ,-31, ,
1, ,-31, ,
3, ,-31, ,
2, ,-31, ,
2, ,-30, ,
3, ,-31, ,
2, ,-31, ,
1, ,-31, ,
3, ,-31, ,
1, ,-31, ,
1, ,-30, ,
2, ,-30, ,
3, ,-31, ,
1, ,-31, ,
3, ,-31, ,
2, ,-31, ,
2, ,-31, ,
3, ,-31, ,
2, ,-31, ,
1, ,-31, ,
3, ,-31, ,
2, ,-31, ,
1, ,-30, ,
2, ,-31, ,
2, ,-31, ,
1, ,-31, ,
3, ,-30, ,
2, ,-31, ,
1, ,-31, ,
2, ,-30, ,
2, ,-31, ,
1, ,-31, ,
3, ,-30, ,
1, ,-31, ,
1, ,-30, ,
2, ,-31, ,
2, ,-31, ,
1, ,-31, ,
3, ,-30, ,
2, ,-31, ,
1, ,-31, ,
3, ,-31, ,
3, ,-31, ,
1, ,-31, ,
3, ,-31, ,
2, ,-31, ,
1, ,-30, ,
2, ,-31, ,
2, ,-31, ,
1, ,-31, ,
2, ,-31, ,
1, ,-31, ,
1, ,-30, ,
3, ,-30, ,
2, ,-31, ,
1, ,-31, ,
3, ,-31, ,
1, ,-31, ,
2, ,-31, ,
2, ,-31, ,
2, ,-31, ,
1, ,-30, ,
3, ,-31, ,
1, ,-31, ,
1, ,-31, ,
3, ,-31, ,
3, ,-31, ,
1, ,-31, ,
3, ,-31, ,
1, ,-30, ,
1, ,-30, ,
2, ,-31, ,
2, ,-31, ,
1, ,-31, ,
2, ,-31, ,
2, ,-31, ,
1, ,-30, ,
2, ,-31, ,
2, ,-31, ,
1, ,-31, ,
3, ,-31, ,
2, ,-30, ,
1, ,-31, ,
2, ,-30, ,
2, ,-31, ,
1, ,-31, ,
3, ,-30, ,
2, ,-31, ,
1, ,-30, ,
2, ,-30, ,
2, ,-30, ,
1, ,-30, ,
3, ,-30, ,
1, ,-30, ,
1, ,-30, ,
2, ,-30, ,
2, ,-31, ,
1, ,-31, ,
3, ,-31, ,
1, ,-31, ,
1, ,-30, ,
2, ,-31, ,
2, ,-30, ,
1, ,-30, ,
3, ,-31, ,
1, ,-31, ,
1, ,-30, ,
2, ,-31, ,
2, ,-30, ,
1, ,-31, ,
3, ,-31, ,
1, ,-31, ,
1, ,-30, ,
3, ,-30, ,
2, ,-31, ,
1, ,-30, ,
3, ,-31, ,
2, ,-30, ,
1, ,-31, ,
2, ,-31, ,
2, ,-31, ,
1, ,-30, ,
3, ,-30, ,
1, ,-31, ,
1, ,-30, ,
2, ,-30, ,
2, ,-31, ,
1, ,-30, ,
3, ,-31, ,
1, ,-31, ,
1, ,-30, ,
2, ,-30, ,
2, ,-31, ,
1, ,-31, ,
3, ,-31, ,
2, ,-31, ,
1, ,-31, ,
2, ,-31, ,
2, ,-30, ,
1, ,-31, ,
3, ,-31, ,
1, ,-31, ,
1, ,-31, ,
2, ,-30, ,
2, ,-31, ,
-1, ,-31, ,
3, ,-30, ,
1, ,-31, ,
1, ,-30, ,
2, ,-31, ,
2, ,-30, ,
1, ,-31, ,
3, ,-31, ,
1, ,-31, ,
1, ,-31, ,
2, ,-30, ,
2, ,-31, ,
-1, ,-31, ,
3, ,-31, ,
2, ,-31, ,
1, ,-30, ,
2, ,-31, ,
2, ,-31, ,
1, ,-31, ,
2, ,-31, ,
1, ,-31, ,
1, ,-30, ,
2, ,-30, ,
2, ,-31, ,
-1, ,-31, ,
3, ,-30, ,
1, ,-31, ,
1, ,-30, ,
2, ,-30, ,
2, ,-30, ,
-1, ,-30, ,
2, ,-31, ,
1, ,-31, ,
1, ,-30, ,
2, ,-30, ,
2, ,-31, ,
-1, ,-31, ,
2, ,-31, ,
1, ,-31, ,
1, ,-30, ,
2, ,-31, ,
2, ,-31, ,
-1, ,-31, ,
2, ,-31, ,
1, ,-31, ,
1, ,-30, ,
2, ,-31, ,
2, ,-31, ,
-1, ,-30, ,
2, ,-31, ,
1, ,-31, ,
1, ,-31, ,
2, ,-30, ,
1, ,-30, ,
-1, ,-31, ,
2, ,-31, ,
1, ,-30, ,
1, ,-30, ,
2, ,-30, ,
1, ,-31, ,
-1, ,-31, ,
2, ,-31, ,
1, ,-31, ,
1, ,-30, ,
2, ,-31, ,
1, ,-31, ,
-1, ,-31, ,
2, ,-30, ,
1, ,-30, ,
1, ,-30, ,
2, ,-30, ,
2, ,-30, ,
-1, ,-31, ,
2, ,-31, ,
1, ,-31, ,
1, ,-30, ,
2, ,-31, ,
1, ,-31, ,
-1, ,-31, ,
2, ,-31, ,
1, ,-31, ,
1, ,-30, ,
2, ,-30, ,
2, ,-31, ,
-1, ,-31, ,
2, ,-30, ,
1, ,-31, ,
1, ,-30, ,
2, ,-31, ,
2, ,-30, ,
-1, ,-31, ,
49, ,-31, ,
35, ,-30, ,
22, ,-30, ,
16, ,-30, ,
11, ,-31, ,
6, ,-31, ,
6, ,-30, ,
5, ,-30, ,
2, ,-30, ,
3, ,-30, ,
2, ,-31, ,
2, ,-31, ,
5, ,-31, ,
2, ,-31, ,
2, ,-30, ,
3, ,-30, ,
2, ,-31, ,
1, ,-31, ,
3, ,-31, ,
2, ,-31, ,
2, ,-30, ,
3, ,-31, ,
3, ,-30, ,
1, ,-31, ,
3, ,-31, ,
2, ,-31, ,
2, ,-30, ,
3, ,-30, ,
2, ,-31, ,
1, ,-31, ,
3, ,-30, ,
2, ,-31, ,
1, ,-30, ,
3, ,-31, ,
2, ,-30, ,
1, ,-31, ,
3, ,-31, ,
2, ,-31, ,
2, ,-30, ,
2, ,-30, ,
2, ,-31, ,
1, ,-31, ,
3, ,-30, ,
1, ,-31, ,
2, ,-30, ,
3, ,-30, ,
2, ,-30, ,
1, ,-30, ,
3, ,-31, ,
2, ,-30, ,
2, ,-30, ,
2, ,-30, ,
3, ,-31, ,
1, ,-31, ,
3, ,-31, ,
2, ,-31, ,
2, ,-30, ,
3, ,-30, ,
2, ,-30, ,
1, ,-31, ,
3, ,-31, ,
1, ,-31, ,
1, ,-30, ,
3, ,-30, ,
2, ,-31, ,
1, ,-31, ,
3, ,-31, ,
2, ,-31, ,
2, ,-30, ,
3, ,-30, ,
2, ,-30, ,
1, ,-30, ,
3, ,-31, ,
2, ,-31, ,
1, ,-30, ,
2, ,-31, ,
2, ,-31, ,
1, ,-31, ,
3, ,-31, ,
1, ,-31, ,
1, ,-30, ,
2, ,-30, ,
2, ,-31, ,
1, ,-31, ,
3, ,-31, ,
2, ,-31, ,
1, ,-30, ,
2, ,-30, ,
2, ,-31, ,
1, ,-31, ,
3, ,-31, ,
2, ,-31, ,
1, ,-30, ,
2, ,-30, ,
2, ,-30, ,
1, ,-31, ,
3, ,-31, ,
2, ,-31, ,
1, ,-30, ,
2, ,-31, ,
2, ,-31, ,
1, ,-31, ,
3, ,-30, ,
2, ,-31, ,
1, ,-30, ,
2, ,-31, ,
2, ,-30, ,
1, ,-31, ,
3, ,-31, ,
1, ,-30, ,
1, ,-30, ,
2, ,-31, ,
2, ,-31, ,
1, ,-31, ,
3, ,-31, ,
1, ,-31, ,
1, ,-30, ,
2, ,-30, ,
2, ,-30, ,
1, ,-31, ,
3, ,-31, ,
2, ,-30, ,
1, ,-30, ,
2, ,-30, ,
3, ,-31, ,
1, ,-31, ,
3, ,-31, ,
1, ,-31, ,
1, ,-30, ,
2, ,-30, ,
2, ,-30, ,
1, ,-31, ,
3, ,-31, ,
1, ,-31, ,
1, ,-30, ,
2, ,-30, ,
2, ,-31, ,
1, ,-31, ,
3, ,-31, ,
2, ,-31, ,
2, ,-30, ,
2, ,-31, ,
2, ,-31, ,
1, ,-31, ,
3, ,-31, ,
1, ,-31, ,
1, ,-30, ,
2, ,-31, ,
2, ,-30, ,
1, ,-31, ,
3, ,-30, ,
2, ,-31, ,
1, ,-30, ,
2, ,-31, ,
2, ,-30, ,
1, ,-31, ,
3, ,-31, ,
1, ,-31, ,
1, ,-30, ,
2, ,-31, ,
2, ,-30, ,
-1, ,-31, ,
3, ,-31, ,
1, ,-31, ,
1, ,-30, ,
2, ,-31, ,
2, ,-30, ,
1, ,-31, ,
2, ,-31, ,
1, ,-31, ,
1, ,-30, ,
2, ,-31, ,
2, ,-31, ,
1, ,-31, ,
2, ,-31, ,
1, ,-31, ,
1, ,-30, ,
2, ,-31, ,
2, ,-30, ,
1, ,-31, ,
3, ,-31, ,
2, ,-31, ,
1, ,-30, ,
2, ,-30, ,
2, ,-31, ,
-1, ,-30, ,
2, ,-31, ,
1, ,-31, ,
1, ,-31, ,
2, ,-31, ,
2, ,-31, ,
1, ,-31, ,
3, ,-31, ,
1, ,-30, ,
1, ,-30, ,
2, ,-31, ,
2, ,-31, ,
-1, ,-31, ,
2, ,-31, ,
1, ,-31, ,
1, ,-30, ,
2, ,-31, ,
2, ,-31, ,
-1, ,-31, ,
2, ,-31, ,
1, ,-30, ,
1, ,-30, ,
2, ,-30, ,
2, ,-31, ,
-1, ,-31, ,
2, ,-31, ,
1, ,-31, ,
1, ,-30, ,
2, ,-31, ,
2, ,-30, ,
1, ,-31, ,
2, ,-31, ,
1, ,-31, ,
1, ,-30, ,
2, ,-31, ,
2, ,-31, ,
-1, ,-31, ,
3, ,-31, ,
2, ,-31, ,
1, ,-30, ,
2, ,-31, ,
2, ,-30, ,
1, ,-31, ,
2, ,-31, ,
1, ,-31, ,
1, ,-30, ,
2, ,-30, ,
1, ,-31, ,
-1, ,-31, ,
2, ,-31, ,
1, ,-31, ,
1, ,-30, ,
2, ,-31, ,
1, ,-31, ,
1, ,-31, ,
2, ,-31, ,
1, ,-31, ,
1, ,-30, ,
2, ,-31, ,
2, ,-31, ,
-1, ,-31, ,
2, ,-31, ,
1, ,-31, ,
1, ,-30, ,
2, ,-31, ,
2, ,-31, ,
1, ,-31, ,
2, ,-31, ,
1, ,-31, ,
1, ,-30, ,
2, ,-30, ,
2, ,-31, ,
-1, ,-31, ,
3, ,-31, ,
1, ,-31, ,
1, ,-30, ,
2, ,-31, ,
2, ,-30, ,
-1, ,-31, ,
2, ,-31, ,
1, ,-31, ,
1, ,-30, ,
2, ,-31, ,
2, ,-31, ,
-1, ,-31, ,
2, ,-31, ,
1, ,-31, ,
1, ,-30, ,
2, ,-30, ,
2, ,-31, ,
1, ,-31, ,
2, ,-31, ,
1, ,-31, ,
1, ,-30, ,
2, ,-30, ,
2, ,-31, ,
-1, ,-31, ,
2, ,-31, ,
1, ,-31, ,
1, ,-31, ,
1, ,-31, ,
1, ,-31, ,
-1, ,-31, ,
2, ,-31, ,
1, ,-31, ,
1, ,-30, ,
2, ,-31, ,
2, ,-31, ,
-1, ,-30, ,
2, ,-18, ,
1, ,2, ,
1, ,18, ,
2, ,30, ,
2, ,38, ,
-1, ,45, ,
2, ,50, ,
1, ,53, ,
1, ,56, ,
2, ,58, ,
1, ,58, ,
-1, ,60, ,
2, ,61, ,
1, ,61, ,
1, ,62, ,
2, ,62, ,
1, ,62, ,
-1, ,62, ,
2, ,63, ,
1, ,63, ,
1, ,62, ,
2, ,63, ,
2, ,62, ,
-1, ,63, ,
2, ,63, ,
1, ,63, ,
1, ,63, ,
2, ,64, ,
1, ,63, ,
-1, ,63, ,
38, ,63, ,
43, ,62, ,
27, ,62, ,
18, ,63, ,
12, ,62, ,
7, ,63, ,
7, ,63, ,
3, ,63, ,
2, ,62, ,
3, ,63, ,
2, ,62, ,
1, ,62, ,
3, ,63, ,
1, ,63, ,
2, ,62, ,
3, ,62, ,
3, ,62, ,
2, ,62, ,
5, ,62, ,
3, ,62, ,
3, ,62, ,
5, ,63, ,
3, ,62, ,
2, ,62, ,
5, ,62, ,
2, ,62, ,
2, ,62, ,
3, ,62, ,
3, ,61, ,
1, ,62, ,
3, ,63, ,
2, ,62, ,
1, ,62, ,
3, ,62, ,
2, ,62, ,
1, ,62, ,
3, ,63, ,
1, ,62, ,
1, ,62, ,
3, ,63, ,
2, ,61, ,
1, ,62, ,
3, ,63, ,
2, ,62, ,
2, ,62, ,
2, ,62, ,
2, ,61, ,
1, ,62, ,
3, ,63, ,
1, ,62, ,
1, ,62, ,
3, ,63, ,
2, ,62, ,
1, ,63, ,
3, ,62, ,
2, ,62, ,
2, ,62, ,
2, ,63, ,
2, ,62, ,
1, ,62, ,
6, ,63, ,
7, ,62, ,
6, ,62, ,
7, ,63, ,
5, ,62, ,
2, ,62, ,
5, ,63, ,
2, ,62, ,
2, ,62, ,
3, ,62, ,
2, ,62, ,
1, ,62, ,
3, ,63, ,
3, ,62, ,
3, ,62, ,
5, ,62, ,
3, ,61, ,
2, ,62, ,
5, ,62, ,
2, ,62, ,
2, ,62, ,
3, ,63, ,
2, ,61, ,
1, ,62, ,
3, ,62, ,
2, ,62, ,
2, ,62, ,
2, ,63, ,
2, ,62, ,
1, ,62, ,
3, ,62, ,
2, ,62, ,
2, ,62, ,
3, ,62, ,
5, ,62, ,
5, ,62, ,
7, ,62, ,
5, ,62, ,
3, ,62, ,
5, ,62, ,
3, ,62, ,
2, ,62, ,
5, ,63, ,
2, ,62, ,
2, ,62, ,
3, ,63, ,
2, ,62, ,
1, ,62, ,
3, ,63, ,
2, ,62, ,
1, ,62, ,
3, ,63, ,
2, ,61, ,
1, ,62, ,
3, ,62, ,
2, ,62, ,
2, ,62, ,
3, ,62, ,
3, ,61, ,
1, ,62, ,
3, ,63, ,
2, ,62, ,
1, ,62, ,
3, ,63, ,
2, ,56, ,
1, ,37, ,
2, ,19, ,
1, ,6, ,
1, ,-3, ,
3, ,-9, ,
2, ,-16, ,
1, ,-19, ,
3, ,-22, ,
2, ,-24, ,
2, ,-26, ,
2, ,-27, ,
2, ,-28, ,
1, ,-30, ,
3, ,-30, ,
2, ,-31, ,
1, ,-31, ,
2, ,-31, ,
2, ,-31, ,
1, ,-31, ,
3, ,-31, ,
2, ,-31, ,
6, ,-31, ,
10, ,-31, ,
8, ,-31, ,
5, ,-31, ,
6, ,-31, ,
3, ,-31, ,
3, ,-31, ,
3, ,-31, ,
3, ,-31, ,
1, ,-31, ,
3, ,-31, ,
2, ,-31, ,
2, ,-31, ,
2, ,-31, ,
2, ,-31, ,
1, ,-31, ,
5, ,-31, ,
2, ,-31, ,
2, ,-31, ,
3, ,-31, ,
3, ,-31, ,
1, ,-31, ,
5, ,-31, ,
2, ,-31, ,
2, ,-31, ,
3, ,-31, ,
2, ,-31, ,
1, ,-31, ,
3, ,-31, ,
2, ,-31, ,
2, ,-31, ,
2, ,-31, ,
2, ,-31, ,
1, ,-31, ,
3, ,-31, ,
2, ,-31, ,
2, ,-31, ,
3, ,-31, ,
2, ,-31, ,
1, ,-31, ,
3, ,-31, ,
2, ,-31, ,
2, ,-31, ,
2, ,-31, ,
3, ,-31, ,
1, ,-31, ,
3, ,-31, ,
2, ,-31, ,
1, ,-31, ,
3, ,-31, ,
2, ,-31, ,
1, ,-31, ,
3, ,-31, ,
2, ,-31, ,
2, ,-31, ,
2, ,-31, ,
2, ,-30, ,
1, ,-31, ,
3, ,-31, ,
1, ,-31, ,
1, ,-30, ,
2, ,-31, ,
3, ,-31, ,
1, ,-31, ,
3, ,-31, ,
2, ,-31, ,
2, ,-31, ,
3, ,-31, ,
2, ,-31, ,
1, ,-31, ,
3, ,-31, ,
2, ,-31, ,
2, ,-30, ,
2, ,-31, ,
2, ,-31, ,
1, ,-31, ,
3, ,-31, ,
2, ,-31, ,
1, ,-31, ,
2, ,-31, ,
2, ,-31, ,
1, ,-31, ,
3, ,-31, ,
2, ,-31, ,
1, ,-31, ,
3, ,-31, ,
3, ,-31, ,
1, ,-31, ,
3, ,-31, ,
2, ,-31, ,
1, ,-30, ,
2, ,-31, ,
2, ,-31, ,
1, ,-31, ,
3, ,-31, ,
2, ,-30, ,
1, ,-30, ,
2, ,-30, ,
2, ,-31, ,
1, ,-31, ,
3, ,-31, ,
1, ,-31, ,
1, ,-31, ,
2, ,-31, ,
2, ,-31, ,
1, ,-30, ,
3, ,-31, ,
1, ,-31, ,
1, ,-30, ,
2, ,-31, ,
2, ,-30, ,
-1, ,-31, ,
3, ,-30, ,
2, ,-31, ,
2, ,-31, ,
2, ,-31, ,
2, ,-30, ,
1, ,-30, ,
2, ,-31, ,
1, ,-31, ,
1, ,-31, ,
2, ,-30, ,
2, ,-31, ,
1, ,-31, ,
3, ,-31, ,
2, ,-31, ,
1, ,-30, ,
2, ,-31, ,
2, ,-31, ,
1, ,-30, ,
3, ,-31, ,
2, ,-30, ,
1, ,-30, ,
2, ,-31, ,
2, ,-31, ,
-1, ,-31, ,
3, ,-31, ,
1, ,-31, ,
1, ,-30, ,
3, ,-31, ,
2, ,-30, ,
1, ,-31, ,
3, ,-31, ,
1, ,-31, ,
1, ,-30, ,
2, ,-30, ,
2, ,-31, ,
1, ,-30, ,
3, ,-30, ,
2, ,-31, ,
1, ,-31, ,
2, ,-31, ,
2, ,-31, ,
1, ,-30, ,
3, ,-31, ,
1, ,-30, ,
1, ,-30, ,
2, ,-30, ,
2, ,-31, ,
-1, ,-31, ,
3, ,-30, ,
2, ,-31, ,
1, ,-30, ,
2, ,-30, ,
2, ,-30, ,
1, ,-30, ,
2, ,-31, ,
1, ,-31, ,
1, ,-30, ,
2, ,-30, ,
2, ,-31, ,
1, ,-31, ,
3, ,-31, ,
32, ,-31, ,
24, ,-30, ,
16, ,-30, ,
11, ,-30, ,
6, ,-31, ,
7, ,-31, ,
3, ,-31, ,
2, ,-30, ,
3, ,-30, ,
2, ,-31, ,
1, ,-31, ,
3, ,-31, ,
2, ,-31, ,
2, ,-30, ,
3, ,-30, ,
3, ,-30, ,
1, ,-30, ,
3, ,-31, ,
2, ,-31, ,
2, ,-30, ,
2, ,-30, ,
2, ,-30, ,
1, ,-31, ,
3, ,-31, ,
2, ,-31, ,
1, ,-30, ,
3, ,-30, ,
2, ,-31, ,
1, ,-31, ,
3, ,-31, ,
2, ,-31, ,
2, ,-30, ,
2, ,-30, ,
2, ,-30, ,
1, ,-31, ,
3, ,-31, ,
2, ,-31, ,
2, ,-31, ,
3, ,-31, ,
2, ,-30, ,
1, ,-31, ,
3, ,-30, ,
2, ,-31, ,
2, ,-31, ,
2, ,-31, ,
3, ,-31, ,
1, ,-30, ,
3, ,-31, ,
2, ,-31, ,
1, ,-31, ,
2, ,-31, ,
2, ,-30, ,
1, ,-30, ,
3, ,-31, ,
1, ,-31, ,
1, ,-30, ,
2, ,-30, ,
2, ,-31, ,
1, ,-31, ,
3, ,-31, ,
2, ,-31, ,
2, ,-30, ,
3, ,-31, ,
3, ,-31, ,
1, ,-30, ,
3, ,-31, ,
2, ,-30, ,
1, ,-30, ,
2, ,-31, ,
2, ,-31, ,
1, ,-30, ,
3, ,-31, ,
1, ,-31, ,
1, ,-31, ,
2, ,-31, ,
2, ,-31, ,
1, ,-31, ,
3, ,-31, ,
2, ,-31, ,
2, ,-30, ,
3, ,-31, ,
2, ,-31, ,
1, ,-30, ,
3, ,-30, ,
1, ,-31, ,
1, ,-30, ,
2, ,-31, ,
2, ,-30, ,
1, ,-30, ,
3, ,-31, ,
1, ,-30, ,
1, ,-31, ,
2, ,-31, ,
2, ,-31, ,
1, ,-31, ,
3, ,-30, ,
1, ,-31, ,
2, ,-31, ,
2, ,-31, ,
3, ,-30, ,
1, ,-31, ,
3, ,-31, ,
2, ,-31, ,
1, ,-30, ,
2, ,-31, ,
2, ,-31, ,
1, ,-31, ,
2, ,-30, ,
1, ,-31, ,
1, ,-31, ,
2, ,-31, ,
2, ,-30, ,
1, ,-31, ,
3, ,-31, ,
1, ,-31, ,
1, ,-31, ,
2, ,-31, ,
2, ,-31, ,
1, ,-31, ,
3, ,-31, ,
2, ,-31, ,
1, ,-31, ,
2, ,-31, ,
2, ,-30, ,
1, ,-31, ,
3, ,-31, ,
1, ,-31, ,
1, ,-31, ,
2, ,-31, ,
2, ,-31, ,
-1, ,-30, ,
3, ,-31, ,
1, ,-31, ,
2, ,-30, ,
2, ,-31, ,
2, ,-30, ,
1, ,-31, ,
3, ,-31, ,
2, ,-31, ,
1, ,-30, ,
2, ,-30, ,
2, ,-31, ,
-1, ,-31, ,
3, ,-31, ,
1, ,-31, ,
1, ,-31, ,
2, ,-31, ,
2, ,-31, ,
1, ,-30, ,
3, ,-31, ,
2, ,-31, ,
1, ,-30, ,
2, ,-31, ,
2, ,-31, ,
-1, ,-30, ,
3, ,-31, ,
2, ,-31, ,
1, ,-30, ,
2, ,-31, ,
2, ,-31, ,
1, ,-30, ,
3, ,-31, ,
1, ,-31, ,
1, ,-30, ,
2, ,-30, ,
2, ,-31, ,
1, ,-31, ,
3, ,-31, ,
1, ,-31, ,
1, ,-30, ,
2, ,-31, ,
2, ,-30, ,
1, ,-31, ,
3, ,-30, ,
1, ,-31, ,
1, ,-31, ,
2, ,-31, ,
2, ,-31, ,
1, ,-30, ,
3, ,-31, ,
1, ,-31, ,
1, ,-30, ,
2, ,-31, ,
2, ,-31, ,
1, ,-30, ,
3, ,-31, ,
1, ,-31, ,
1, ,-30, ,
2, ,-30, ,
2, ,-31, ,
1, ,-31, ,
3, ,-31, ,
1, ,-31, ,
1, ,-30, ,
2, ,-30, ,
2, ,-30, ,
1, ,-31, ,
3, ,-31, ,
1, ,-31, ,
2, ,-30, ,
2, ,-31, ,
2, ,-31, ,
-1, ,-31, ,
2, ,-30, ,
1, ,-31, ,
1, ,-31, ,
2, ,-31, ,
2, ,-30, ,
1, ,-31, ,
2, ,-31, ,
1, ,-31, ,
1, ,-30, ,
1, ,-30, ,
2, ,-31, ,
-1, ,-31, ,
2, ,-31, ,
1, ,-31, ,
1, ,-31, ,
2, ,-31, ,
2, ,-31, ,
-1, ,-31, ,
3, ,-31, ,
1, ,-31, ,
1, ,-31, ,
2, ,-30, ,
1, ,-31, ,
-1, ,-31, ,
2, ,-31, ,
1, ,-31, ,
1, ,-30, ,
2, ,-31, ,
2, ,-30, ,
-1, ,-31, ,
2, ,-31, ,
1, ,-31, ,
1, ,-30, ,
2, ,-31, ,
2, ,-31, ,
-1, ,-31, ,
2, ,-31, ,
1, ,-31, ,
1, ,-30, ,
2, ,-30, ,
1, ,-30, ,
-1, ,-31, ,
2, ,-31, ,
1, ,-31, ,
1, ,-30, ,
2, ,-31, ,
2, ,-31, ,
-1, ,-31, ,
1, ,-31, ,
1, ,-31, ,
1, ,-31, ,
2, ,-31, ,
2, ,-31, ,
-1, ,-31, ,
2, ,-31, ,
1, ,-30, ,
1, ,-30, ,
2, ,-30, ,
2, ,-31, ,
-1, ,-30, ,
2, ,-30, ,
1, ,-30, ,
1, ,-30, ,
2, ,-30, ,
2, ,-31, ,
1, ,-31, ,
2, ,-31, ,
1, ,-31, ,
1, ,-30, ,
2, ,-31, ,
2, ,-31, ,
-1, ,-31, ,
3, ,-31, ,
1, ,-31, ,
1, ,-30, ,
2, ,-30, ,
1, ,-30, ,
-1, ,-31, ,
2, ,-31, ,
1, ,-30, ,
1, ,-30, ,
2, ,-30, ,
2, ,-31, ,
-1, ,-31, ,
2, ,-31, ,
1, ,-31, ,
1, ,-31, ,
2, ,-30, ,
2, ,-31, ,
-1, ,-31, ,
2, ,-31, ,
1, ,-31, ,
1, ,-30, ,
2, ,-31, ,
1, ,-31, ,
-1, ,-31, ,
2, ,-31, ,
1, ,-31, ,
1, ,-30, ,
