src/test_folder/1hertzsinwave0000042.CSV

Format,1.0B,
Memory Length,10000,Memory Length,10000,
IntpDistance,0,IntpDistance,0,
Trigger Address,4999,Trigger Address,4999,
Trigger Level,1.272E-01,Trigger Level,1.272E-01,
Source,CH1,Source,CH2,
Vertical Units,V,Vertical Units,V,
Vertical Units Div,0,Vertical Units Div,0,
Vertical Units Extend Div,16,Vertical Units Extend Div,16,
Label,,Label,,
Probe Type,0,Probe Type,0,
Probe Ratio,1.000e+01,Probe Ratio,1.000e+00,
Vertical Scale,2.000e-02,Vertical Scale,1.000e+00,
Vertical Position,-5.120e-02,Vertical Position,2.000e-01,
Horizontal Units,S,Horizontal Units,S,
Horizontal Scale,5.000E-07,Horizontal Scale,5.000E-07,
Horizontal Position,0.000E+00,Horizontal Position,0.000E+00,
Horizontal Mode,Main,Horizontal Mode,Main,
SincET Mode,Real Time,SincET Mode,Real Time,
Sampling Period,2.000e-09,Sampling Period,2.000e-09,
Horizontal Old Scale,5.000E-07,Horizontal Old Scale,5.000E-07,
Horizontal Old Position,0.000E+00,Horizontal Old Position,0.000E+00,
Firmware,V1.23,Firmware,V1.23,
Mode,Fast,Mode,Fast,
Waveform Data,,Waveform Data,,
1, ,44, ,
4, ,44, ,
0, ,44, ,
3, ,45, ,
4, ,45, ,
3, ,42, ,
0, ,44, ,
5, ,44, ,
0, ,44, ,
4, ,44, ,
0, ,45, ,
1, ,42, ,
0, ,45, ,
5, ,45, ,
-1, ,44, ,
1, ,45, ,
3, ,45, ,
4, ,42, ,
-2, ,44, ,
4, ,44, ,
3, ,44, ,
4, ,44, ,
1, ,44, ,
3, ,44, ,
1, ,44, ,
4, ,44, ,
-1, ,44, ,
3, ,45, ,
4, ,45, ,
3, ,42, ,
-2, ,44, ,
1, ,44, ,
4, ,44, ,
4, ,44, ,
1, ,44, ,
3, ,44, ,
1, ,44, ,
4, ,44, ,
-1, ,44, ,
3, ,44, ,
4, ,45, ,
4, ,42, ,
-2, ,44, ,
3, ,44, ,
3, ,44, ,
4, ,44, ,
-1, ,45, ,
1, ,42, ,
0, ,44, ,
5, ,44, ,
0, ,44, ,
3, ,44, ,
3, ,45, ,
3, ,42, ,
-1, ,44, ,
4, ,44, ,
4, ,44, ,
3, ,44, ,
1, ,44, ,
3, ,44, ,
1, ,44, ,
5, ,44, ,
0, ,44, ,
1, ,45, ,
4, ,45, ,
4, ,42, ,
-2, ,44, ,
3, ,44, ,
3, ,44, ,
3, ,44, ,
0, ,44, ,
4, ,44, ,
0, ,44, ,
5, ,44, ,
-1, ,44, ,
1, ,45, ,
3, ,45, ,
4, ,42, ,
1, ,44, ,
5, ,44, ,
3, ,44, ,
3, ,44, ,
3, ,45, ,
3, ,42, ,
0, ,45, ,
5, ,45, ,
-1, ,44, ,
1, ,45, ,
4, ,45, ,
1, ,42, ,
-1, ,44, ,
1, ,44, ,
1, ,44, ,
1, ,44, ,
0, ,44, ,
3, ,42, ,
1, ,45, ,
3, ,45, ,
0, ,44, ,
1, ,44, ,
3, ,45, ,
1, ,42, ,
-2, ,44, ,
4, ,44, ,
0, ,44, ,
3, ,44, ,
1, ,44, ,
1, ,44, ,
1, ,45, ,
5, ,45, ,
-2, ,44, ,
0, ,44, ,
3, ,45, ,
4, ,42, ,
0, ,44, ,
4, ,45, ,
3, ,44, ,
1, ,44, ,
0, ,44, ,
1, ,44, ,
3, ,44, ,
4, ,44, ,
0, ,44, ,
3, ,45, ,
4, ,45, ,
3, ,42, ,
-4, ,44, ,
4, ,44, ,
4, ,44, ,
4, ,44, ,
0, ,44, ,
3, ,42, ,
1, ,45, ,
3, ,44, ,
-4, ,44, ,
1, ,45, ,
3, ,45, ,
1, ,42, ,
-1, ,44, ,
1, ,44, ,
3, ,44, ,
3, ,44, ,
3, ,44, ,
1, ,42, ,
1, ,44, ,
5, ,44, ,
-1, ,44, ,
1, ,44, ,
4, ,45, ,
4, ,42, ,
-1, ,44, ,
1, ,44, ,
3, ,44, ,
1, ,44, ,
0, ,44, ,
0, ,42, ,
0, ,44, ,
3, ,44, ,
-2, ,44, ,
0, ,45, ,
4, ,45, ,
5, ,42, ,
-1, ,44, ,
3, ,44, ,
3, ,44, ,
3, ,44, ,
-1, ,44, ,
1, ,42, ,
0, ,44, ,
5, ,44, ,
-1, ,44, ,
1, ,44, ,
1, ,45, ,
3, ,42, ,
0, ,44, ,
1, ,44, ,
3, ,44, ,
3, ,44, ,
0, ,45, ,
1, ,42, ,
0, ,44, ,
4, ,44, ,
-1, ,44, ,
1, ,45, ,
3, ,45, ,
3, ,42, ,
-2, ,44, ,
1, ,45, ,
1, ,44, ,
1, ,44, ,
0, ,45, ,
1, ,42, ,
3, ,45, ,
5, ,45, ,
-1, ,44, ,
1, ,44, ,
3, ,45, ,
1, ,42, ,
-2, ,44, ,
4, ,45, ,
4, ,44, ,
5, ,44, ,
1, ,45, ,
1, ,44, ,
0, ,44, ,
5, ,44, ,
-4, ,44, ,
0, ,45, ,
0, ,45, ,
3, ,42, ,
-2, ,44, ,
4, ,44, ,
1, ,44, ,
1, ,44, ,
-1, ,44, ,
1, ,42, ,
3, ,44, ,
4, ,44, ,
-2, ,44, ,
0, ,45, ,
3, ,45, ,
3, ,42, ,
-1, ,44, ,
3, ,44, ,
3, ,44, ,
1, ,44, ,
0, ,44, ,
1, ,44, ,
3, ,44, ,
4, ,44, ,
-1, ,44, ,
3, ,45, ,
4, ,45, ,
3, ,42, ,
-2, ,44, ,
4, ,44, ,
1, ,44, ,
1, ,44, ,
1, ,44, ,
1, ,42, ,
0, ,44, ,
4, ,44, ,
-1, ,44, ,
1, ,44, ,
3, ,44, ,
1, ,42, ,
0, ,44, ,
3, ,44, ,
3, ,44, ,
1, ,44, ,
1, ,44, ,
1, ,44, ,
3, ,44, ,
5, ,44, ,
-1, ,44, ,
1, ,44, ,
3, ,45, ,
3, ,42, ,
-1, ,44, ,
4, ,44, ,
1, ,44, ,
1, ,44, ,
0, ,44, ,
0, ,44, ,
0, ,44, ,
4, ,44, ,
-1, ,44, ,
0, ,45, ,
3, ,45, ,
3, ,44, ,
-2, ,44, ,
4, ,45, ,
3, ,44, ,
3, ,44, ,
-1, ,45, ,
1, ,42, ,
1, ,45, ,
5, ,45, ,
-1, ,44, ,
0, ,45, ,
1, ,45, ,
1, ,42, ,
-1, ,44, ,
4, ,44, ,
0, ,44, ,
1, ,45, ,
-1, ,45, ,
1, ,42, ,
1, ,44, ,
4, ,44, ,
-1, ,44, ,
0, ,45, ,
1, ,45, ,
4, ,42, ,
0, ,44, ,
3, ,44, ,
0, ,44, ,
1, ,44, ,
1, ,45, ,
3, ,42, ,
3, ,45, ,
5, ,45, ,
-2, ,44, ,
1, ,44, ,
1, ,45, ,
0, ,42, ,
-2, ,44, ,
3, ,44, ,
1, ,44, ,
3, ,44, ,
-1, ,45, ,
0, ,42, ,
-1, ,44, ,
5, ,44, ,
-4, ,44, ,
1, ,45, ,
3, ,45, ,
4, ,42, ,
-1, ,44, ,
3, ,44, ,
1, ,44, ,
1, ,44, ,
1, ,44, ,
1, ,44, ,
0, ,45, ,
5, ,45, ,
-1, ,44, ,
1, ,45, ,
3, ,45, ,
4, ,42, ,
0, ,44, ,
4, ,44, ,
1, ,44, ,
1, ,44, ,
1, ,45, ,
1, ,42, ,
1, ,44, ,
5, ,45, ,
-1, ,45, ,
1, ,45, ,
4, ,45, ,
4, ,42, ,
-2, ,44, ,
3, ,44, ,
3, ,44, ,
1, ,44, ,
0, ,44, ,
0, ,44, ,
-2, ,45, ,
5, ,45, ,
-2, ,44, ,
3, ,45, ,
1, ,45, ,
4, ,42, ,
-1, ,44, ,
4, ,44, ,
3, ,44, ,
3, ,44, ,
-1, ,45, ,
1, ,42, ,
1, ,44, ,
4, ,44, ,
-2, ,44, ,
0, ,44, ,
3, ,45, ,
3, ,42, ,
-1, ,44, ,
4, ,44, ,
0, ,44, ,
3, ,44, ,
3, ,45, ,
1, ,42, ,
0, ,45, ,
4, ,45, ,
-1, ,44, ,
0, ,44, ,
1, ,45, ,
1, ,42, ,
-4, ,44, ,
4, ,44, ,
1, ,44, ,
4, ,44, ,
0, ,45, ,
1, ,42, ,
0, ,45, ,
4, ,44, ,
-1, ,44, ,
1, ,45, ,
1, ,45, ,
4, ,42, ,
-2, ,44, ,
3, ,44, ,
3, ,44, ,
1, ,44, ,
-1, ,45, ,
3, ,42, ,
1, ,45, ,
3, ,45, ,
-1, ,44, ,
1, ,45, ,
3, ,45, ,
1, ,42, ,
-1, ,44, ,
4, ,44, ,
0, ,44, ,
1, ,44, ,
1, ,45, ,
3, ,42, ,
0, ,44, ,
5, ,44, ,
1, ,44, ,
1, ,44, ,
3, ,45, ,
3, ,42, ,
-1, ,44, ,
1, ,44, ,
3, ,44, ,
1, ,44, ,
-1, ,45, ,
0, ,44, ,
0, ,45, ,
1, ,45, ,
-2, ,44, ,
1, ,44, ,
1, ,45, ,
3, ,42, ,
-2, ,44, ,
3, ,45, ,
1, ,44, ,
3, ,44, ,
0, ,45, ,
3, ,44, ,
0, ,44, ,
3, ,45, ,
1, ,44, ,
3, ,44, ,
1, ,45, ,
3, ,42, ,
-4, ,44, ,
3, ,44, ,
1, ,44, ,
1, ,44, ,
1, ,45, ,
1, ,42, ,
0, ,44, ,
4, ,44, ,
0, ,44, ,
1, ,44, ,
3, ,45, ,
3, ,42, ,
-1, ,44, ,
4, ,44, ,
1, ,44, ,
0, ,44, ,
0, ,45, ,
1, ,42, ,
1, ,44, ,
5, ,44, ,
-1, ,44, ,
1, ,44, ,
3, ,45, ,
3, ,42, ,
-1, ,44, ,
3, ,44, ,
0, ,44, ,
1, ,44, ,
-1, ,45, ,
1, ,44, ,
0, ,44, ,
4, ,44, ,
-1, ,44, ,
0, ,45, ,
1, ,45, ,
3, ,42, ,
-2, ,44, ,
3, ,45, ,
0, ,44, ,
4, ,44, ,
0, ,45, ,
0, ,42, ,
0, ,44, ,
4, ,45, ,
-1, ,44, ,
0, ,44, ,
3, ,45, ,
4, ,42, ,
-4, ,44, ,
1, ,45, ,
3, ,44, ,
3, ,44, ,
1, ,44, ,
1, ,44, ,
0, ,44, ,
3, ,44, ,
0, ,44, ,
1, ,44, ,
3, ,45, ,
1, ,42, ,
-1, ,44, ,
1, ,44, ,
0, ,44, ,
5, ,44, ,
1, ,44, ,
0, ,44, ,
1, ,44, ,
5, ,44, ,
-4, ,44, ,
4, ,44, ,
1, ,45, ,
4, ,42, ,
-2, ,44, ,
1, ,44, ,
1, ,44, ,
3, ,44, ,
0, ,45, ,
1, ,42, ,
1, ,44, ,
3, ,44, ,
-1, ,44, ,
0, ,45, ,
3, ,45, ,
4, ,42, ,
-5, ,44, ,
1, ,44, ,
0, ,44, ,
0, ,44, ,
1, ,44, ,
1, ,44, ,
0, ,44, ,
4, ,44, ,
-2, ,44, ,
0, ,44, ,
3, ,45, ,
4, ,42, ,
-2, ,44, ,
1, ,44, ,
1, ,44, ,
3, ,44, ,
0, ,44, ,
3, ,44, ,
1, ,44, ,
6, ,44, ,
-1, ,44, ,
1, ,44, ,
3, ,45, ,
3, ,42, ,
-2, ,44, ,
4, ,44, ,
3, ,44, ,
1, ,44, ,
1, ,44, ,
0, ,42, ,
-1, ,44, ,
3, ,44, ,
-2, ,44, ,
-1, ,44, ,
1, ,45, ,
1, ,42, ,
-4, ,44, ,
3, ,45, ,
1, ,44, ,
3, ,44, ,
1, ,44, ,
3, ,42, ,
1, ,44, ,
4, ,44, ,
0, ,44, ,
0, ,45, ,
1, ,45, ,
3, ,42, ,
-2, ,44, ,
3, ,44, ,
3, ,44, ,
1, ,44, ,
0, ,45, ,
1, ,42, ,
0, ,45, ,
3, ,45, ,
-4, ,44, ,
1, ,45, ,
1, ,45, ,
1, ,42, ,
-2, ,44, ,
3, ,44, ,
1, ,44, ,
1, ,44, ,
3, ,45, ,
4, ,42, ,
0, ,45, ,
4, ,45, ,
-2, ,44, ,
0, ,44, ,
3, ,45, ,
0, ,42, ,
-1, ,44, ,
4, ,44, ,
4, ,44, ,
1, ,44, ,
0, ,44, ,
3, ,42, ,
0, ,44, ,
4, ,44, ,
0, ,44, ,
3, ,44, ,
4, ,45, ,
3, ,42, ,
-1, ,44, ,
0, ,45, ,
1, ,44, ,
1, ,44, ,
1, ,44, ,
4, ,42, ,
1, ,45, ,
4, ,45, ,
-1, ,44, ,
0, ,45, ,
1, ,45, ,
1, ,42, ,
-1, ,44, ,
4, ,44, ,
0, ,44, ,
3, ,44, ,
0, ,44, ,
1, ,42, ,
0, ,45, ,
3, ,45, ,
-1, ,44, ,
0, ,45, ,
3, ,45, ,
3, ,42, ,
-2, ,44, ,
1, ,44, ,
3, ,44, ,
1, ,44, ,
1, ,44, ,
3, ,44, ,
1, ,45, ,
4, ,45, ,
0, ,44, ,
1, ,44, ,
3, ,45, ,
3, ,42, ,
-4, ,44, ,
3, ,44, ,
1, ,44, ,
1, ,44, ,
0, ,44, ,
0, ,44, ,
-1, ,44, ,
5, ,45, ,
0, ,44, ,
1, ,44, ,
3, ,45, ,
1, ,42, ,
-2, ,44, ,
3, ,44, ,
3, ,44, ,
1, ,44, ,
1, ,44, ,
1, ,44, ,
1, ,45, ,
4, ,45, ,
-1, ,44, ,
0, ,45, ,
1, ,45, ,
1, ,42, ,
-1, ,44, ,
5, ,44, ,
1, ,44, ,
0, ,44, ,
0, ,44, ,
0, ,44, ,
0, ,45, ,
4, ,45, ,
-1, ,44, ,
0, ,45, ,
3, ,45, ,
4, ,42, ,
-1, ,44, ,
0, ,44, ,
1, ,44, ,
1, ,44, ,
0, ,44, ,
1, ,44, ,
0, ,45, ,
4, ,45, ,
-2, ,44, ,
1, ,44, ,
1, ,44, ,
3, ,42, ,
-1, ,44, ,
4, ,45, ,
1, ,44, ,
3, ,44, ,
0, ,44, ,
0, ,42, ,
0, ,44, ,
4, ,44, ,
-1, ,44, ,
0, ,45, ,
1, ,45, ,
0, ,42, ,
-2, ,44, ,
3, ,44, ,
1, ,44, ,
1, ,44, ,
1, ,44, ,
3, ,44, ,
-1, ,45, ,
3, ,45, ,
-2, ,44, ,
0, ,44, ,
3, ,44, ,
4, ,42, ,
-1, ,44, ,
4, ,44, ,
1, ,44, ,
1, ,44, ,
1, ,45, ,
1, ,42, ,
1, ,44, ,
3, ,44, ,
-1, ,44, ,
1, ,45, ,
3, ,45, ,
3, ,42, ,
-4, ,44, ,
1, ,44, ,
0, ,44, ,
3, ,44, ,
0, ,44, ,
1, ,42, ,
0, ,45, ,
3, ,45, ,
-4, ,44, ,
0, ,44, ,
3, ,45, ,
4, ,42, ,
-2, ,44, ,
3, ,45, ,
0, ,44, ,
0, ,44, ,
0, ,44, ,
3, ,42, ,
0, ,44, ,
5, ,44, ,
1, ,44, ,
1, ,44, ,
1, ,45, ,
1, ,44, ,
-4, ,44, ,
1, ,44, ,
0, ,44, ,
1, ,44, ,
1, ,44, ,
1, ,44, ,
1, ,44, ,
4, ,44, ,
-2, ,44, ,
1, ,44, ,
3, ,45, ,
1, ,42, ,
-1, ,44, ,
3, ,44, ,
1, ,44, ,
0, ,44, ,
0, ,45, ,
0, ,42, ,
1, ,44, ,
5, ,44, ,
1, ,44, ,
1, ,45, ,
1, ,45, ,
1, ,42, ,
-1, ,44, ,
1, ,44, ,
1, ,44, ,
3, ,44, ,
1, ,45, ,
3, ,42, ,
1, ,45, ,
4, ,45, ,
-2, ,44, ,
0, ,44, ,
1, ,44, ,
1, ,42, ,
-2, ,44, ,
3, ,45, ,
-1, ,44, ,
3, ,44, ,
-1, ,45, ,
3, ,44, ,
4, ,44, ,
4, ,44, ,
0, ,44, ,
3, ,45, ,
3, ,45, ,
3, ,42, ,
-4, ,44, ,
3, ,44, ,
1, ,44, ,
1, ,44, ,
1, ,44, ,
1, ,44, ,
1, ,44, ,
4, ,44, ,
-1, ,44, ,
3, ,44, ,
3, ,44, ,
1, ,42, ,
0, ,44, ,
3, ,45, ,
1, ,44, ,
1, ,44, ,
0, ,45, ,
0, ,42, ,
0, ,44, ,
4, ,44, ,
-2, ,44, ,
0, ,44, ,
3, ,45, ,
3, ,42, ,
-2, ,44, ,
3, ,44, ,
0, ,44, ,
3, ,44, ,
-1, ,45, ,
1, ,42, ,
3, ,45, ,
3, ,45, ,
-1, ,44, ,
1, ,44, ,
4, ,45, ,
4, ,42, ,
-1, ,44, ,
3, ,45, ,
3, ,44, ,
1, ,44, ,
0, ,44, ,
0, ,44, ,
1, ,44, ,
4, ,44, ,
-1, ,44, ,
1, ,44, ,
3, ,45, ,
1, ,42, ,
-2, ,44, ,
1, ,44, ,
3, ,44, ,
3, ,44, ,
0, ,45, ,
3, ,42, ,
1, ,45, ,
3, ,45, ,
-1, ,44, ,
1, ,45, ,
3, ,45, ,
0, ,42, ,
-2, ,44, ,
3, ,45, ,
1, ,44, ,
4, ,44, ,
-1, ,44, ,
0, ,42, ,
3, ,44, ,
4, ,44, ,
0, ,44, ,
3, ,45, ,
3, ,45, ,
4, ,42, ,
-2, ,44, ,
1, ,44, ,
1, ,44, ,
3, ,44, ,
-1, ,45, ,
0, ,44, ,
1, ,45, ,
3, ,45, ,
-4, ,44, ,
1, ,45, ,
3, ,45, ,
3, ,42, ,
-1, ,44, ,
4, ,44, ,
0, ,44, ,
1, ,44, ,
0, ,45, ,
1, ,42, ,
0, ,44, ,
5, ,44, ,
0, ,44, ,
3, ,44, ,
4, ,45, ,
3, ,42, ,
-2, ,44, ,
1, ,44, ,
3, ,44, ,
3, ,44, ,
-1, ,44, ,
1, ,44, ,
0, ,44, ,
5, ,44, ,
-2, ,44, ,
0, ,44, ,
3, ,45, ,
3, ,42, ,
-1, ,44, ,
4, ,45, ,
1, ,44, ,
0, ,44, ,
0, ,45, ,
0, ,42, ,
1, ,44, ,
4, ,44, ,
0, ,44, ,
1, ,45, ,
1, ,45, ,
1, ,44, ,
-2, ,44, ,
3, ,44, ,
1, ,44, ,
1, ,44, ,
0, ,45, ,
1, ,42, ,
1, ,44, ,
6, ,44, ,
-1, ,44, ,
1, ,44, ,
4, ,45, ,
3, ,42, ,
-1, ,44, ,
4, ,45, ,
1, ,44, ,
3, ,44, ,
-1, ,45, ,
0, ,44, ,
1, ,44, ,
4, ,44, ,
-2, ,44, ,
1, ,45, ,
4, ,45, ,
5, ,42, ,
0, ,44, ,
1, ,44, ,
1, ,44, ,
0, ,44, ,
0, ,44, ,
3, ,44, ,
1, ,45, ,
5, ,45, ,
-1, ,44, ,
1, ,44, ,
3, ,45, ,
3, ,42, ,
-2, ,44, ,
3, ,45, ,
3, ,44, ,
1, ,44, ,
0, ,44, ,
0, ,42, ,
1, ,44, ,
4, ,44, ,
-2, ,44, ,
1, ,45, ,
3, ,45, ,
1, ,42, ,
-1, ,44, ,
3, ,44, ,
3, ,44, ,
0, ,44, ,
-1, ,44, ,
3, ,44, ,
3, ,45, ,
4, ,45, ,
-2, ,44, ,
1, ,44, ,
3, ,45, ,
3, ,42, ,
-1, ,44, ,
5, ,45, ,
0, ,44, ,
1, ,44, ,
-1, ,45, ,
1, ,42, ,
3, ,44, ,
4, ,44, ,
-1, ,44, ,
1, ,45, ,
3, ,45, ,
1, ,44, ,
-1, ,45, ,
1, ,44, ,
0, ,44, ,
4, ,44, ,
1, ,45, ,
1, ,42, ,
0, ,45, ,
4, ,45, ,
-2, ,44, ,
0, ,44, ,
1, ,45, ,
5, ,42, ,
-2, ,44, ,
3, ,45, ,
3, ,44, ,
0, ,44, ,
-1, ,45, ,
1, ,42, ,
-1, ,44, ,
5, ,44, ,
1, ,44, ,
3, ,44, ,
1, ,45, ,
0, ,44, ,
-1, ,44, ,
3, ,45, ,
3, ,44, ,
1, ,44, ,
0, ,44, ,
0, ,44, ,
-1, ,44, ,
3, ,44, ,
-2, ,44, ,
1, ,44, ,
4, ,45, ,
3, ,42, ,
0, ,44, ,
3, ,45, ,
1, ,44, ,
0, ,44, ,
-1, ,44, ,
1, ,44, ,
1, ,44, ,
5, ,44, ,
0, ,44, ,
1, ,44, ,
3, ,44, ,
1, ,44, ,
-1, ,44, ,
4, ,44, ,
3, ,44, ,
3, ,44, ,
0, ,44, ,
1, ,44, ,
1, ,44, ,
1, ,44, ,
-1, ,44, ,
0, ,45, ,
1, ,45, ,
3, ,42, ,
-1, ,44, ,
0, ,44, ,
0, ,44, ,
0, ,44, ,
-1, ,44, ,
0, ,42, ,
0, ,44, ,
6, ,44, ,
-2, ,44, ,
1, ,45, ,
3, ,45, ,
3, ,42, ,
-5, ,44, ,
1, ,44, ,
3, ,44, ,
1, ,44, ,
0, ,44, ,
1, ,44, ,
0, ,44, ,
3, ,44, ,
-1, ,44, ,
-1, ,44, ,
1, ,45, ,
3, ,42, ,
-2, ,44, ,
4, ,45, ,
1, ,44, ,
3, ,44, ,
-1, ,44, ,
1, ,44, ,
0, ,44, ,
4, ,44, ,
-1, ,44, ,
1, ,44, ,
1, ,45, ,
1, ,42, ,
-2, ,44, ,
3, ,44, ,
3, ,44, ,
3, ,44, ,
3, ,44, ,
3, ,44, ,
3, ,45, ,
5, ,44, ,
-1, ,44, ,
1, ,44, ,
3, ,45, ,
3, ,42, ,
-2, ,44, ,
4, ,45, ,
3, ,44, ,
3, ,44, ,
0, ,45, ,
0, ,44, ,
0, ,44, ,
3, ,44, ,
0, ,44, ,
1, ,45, ,
3, ,45, ,
3, ,42, ,
-1, ,44, ,
1, ,44, ,
1, ,44, ,
1, ,44, ,
-1, ,45, ,
1, ,44, ,
0, ,45, ,
4, ,45, ,
-1, ,44, ,
0, ,44, ,
1, ,45, ,
0, ,42, ,
-2, ,44, ,
4, ,44, ,
3, ,44, ,
1, ,44, ,
0, ,45, ,
1, ,42, ,
1, ,44, ,
5, ,44, ,
1, ,44, ,
1, ,45, ,
3, ,45, ,
3, ,42, ,
-2, ,44, ,
3, ,45, ,
3, ,44, ,
3, ,44, ,
0, ,44, ,
1, ,44, ,
3, ,44, ,
4, ,44, ,
0, ,44, ,
1, ,45, ,
3, ,45, ,
0, ,42, ,
-1, ,44, ,
3, ,45, ,
3, ,44, ,
1, ,44, ,
0, ,45, ,
1, ,44, ,
1, ,44, ,
5, ,44, ,
-2, ,44, ,
1, ,45, ,
4, ,45, ,
3, ,42, ,
-1, ,44, ,
3, ,44, ,
1, ,44, ,
1, ,44, ,
1, ,44, ,
3, ,44, ,
-1, ,45, ,
5, ,44, ,
0, ,44, ,
1, ,45, ,
3, ,45, ,
1, ,42, ,
-1, ,44, ,
3, ,44, ,
1, ,44, ,
0, ,44, ,
-1, ,45, ,
1, ,42, ,
1, ,44, ,
5, ,44, ,
-2, ,44, ,
3, ,45, ,
4, ,45, ,
4, ,44, ,
-2, ,44, ,
1, ,44, ,
1, ,44, ,
1, ,44, ,
-1, ,44, ,
3, ,44, ,
1, ,44, ,
4, ,44, ,
-4, ,44, ,
3, ,44, ,
4, ,45, ,
3, ,42, ,
0, ,44, ,
3, ,44, ,
1, ,44, ,
3, ,44, ,
3, ,44, ,
3, ,42, ,
1, ,44, ,
3, ,44, ,
-1, ,44, ,
1, ,44, ,
3, ,45, ,
3, ,42, ,
-1, ,44, ,
4, ,44, ,
3, ,44, ,
3, ,44, ,
0, ,44, ,
1, ,44, ,
1, ,44, ,
4, ,44, ,
-2, ,44, ,
0, ,44, ,
3, ,45, ,
3, ,42, ,
0, ,44, ,
4, ,45, ,
1, ,44, ,
0, ,44, ,
0, ,45, ,
0, ,42, ,
0, ,44, ,
4, ,44, ,
-1, ,44, ,
1, ,45, ,
3, ,45, ,
4, ,44, ,
-2, ,44, ,
3, ,44, ,
3, ,44, ,
4, ,44, ,
1, ,45, ,
3, ,42, ,
1, ,45, ,
5, ,44, ,
-1, ,44, ,
1, ,44, ,
4, ,45, ,
1, ,42, ,
-1, ,44, ,
4, ,45, ,
3, ,44, ,
4, ,44, ,
0, ,45, ,
3, ,42, ,
3, ,44, ,
4, ,44, ,
0, ,44, ,
1, ,44, ,
3, ,45, ,
1, ,42, ,
0, ,44, ,
3, ,44, ,
1, ,44, ,
1, ,44, ,
1, ,44, ,
1, ,42, ,
0, ,44, ,
5, ,44, ,
-2, ,44, ,
3, ,44, ,
4, ,44, ,
4, ,42, ,
-1, ,44, ,
5, ,44, ,
4, ,44, ,
3, ,44, ,
0, ,44, ,
3, ,44, ,
1, ,44, ,
6, ,44, ,
-2, ,44, ,
0, ,45, ,
3, ,45, ,
4, ,42, ,
-1, ,44, ,
4, ,44, ,
1, ,44, ,
1, ,44, ,
3, ,44, ,
3, ,42, ,
0, ,44, ,
3, ,44, ,
-1, ,44, ,
1, ,44, ,
3, ,45, ,
3, ,42, ,
-2, ,44, ,
3, ,44, ,
3, ,44, ,
1, ,44, ,
0, ,44, ,
1, ,42, ,
1, ,44, ,
4, ,44, ,
-1, ,44, ,
1, ,44, ,
4, ,45, ,
5, ,42, ,
-1, ,44, ,
3, ,45, ,
4, ,44, ,
3, ,44, ,
0, ,44, ,
4, ,44, ,
0, ,44, ,
5, ,44, ,
-1, ,44, ,
1, ,45, ,
3, ,45, ,
3, ,42, ,
-4, ,44, ,
4, ,44, ,
1, ,44, ,
3, ,44, ,
0, ,44, ,
0, ,42, ,
0, ,44, ,
3, ,44, ,
-2, ,44, ,
1, ,44, ,
3, ,45, ,
1, ,42, ,
-2, ,44, ,
4, ,44, ,
4, ,44, ,
3, ,44, ,
1, ,45, ,
3, ,44, ,
0, ,45, ,
4, ,45, ,
-1, ,44, ,
1, ,45, ,
1, ,45, ,
1, ,42, ,
-4, ,44, ,
4, ,45, ,
3, ,44, ,
1, ,44, ,
0, ,44, ,
0, ,42, ,
3, ,44, ,
4, ,44, ,
-1, ,44, ,
1, ,45, ,
4, ,45, ,
4, ,42, ,
-4, ,44, ,
4, ,44, ,
1, ,44, ,
3, ,44, ,
0, ,44, ,
4, ,44, ,
1, ,44, ,
4, ,44, ,
0, ,44, ,
1, ,44, ,
3, ,45, ,
3, ,42, ,
-1, ,44, ,
3, ,44, ,
3, ,44, ,
3, ,44, ,
3, ,44, ,
1, ,42, ,
0, ,44, ,
4, ,44, ,
0, ,44, ,
1, ,44, ,
3, ,45, ,
4, ,42, ,
-4, ,44, ,
3, ,45, ,
3, ,44, ,
3, ,44, ,
1, ,45, ,
3, ,44, ,
-1, ,45, ,
3, ,45, ,
-1, ,44, ,
1, ,44, ,
3, ,45, ,
4, ,42, ,
1, ,44, ,
3, ,45, ,
3, ,44, ,
1, ,44, ,
1, ,44, ,
3, ,44, ,
1, ,44, ,
5, ,44, ,
-1, ,44, ,
1, ,44, ,
3, ,45, ,
3, ,42, ,
-1, ,44, ,
4, ,44, ,
1, ,44, ,
3, ,44, ,
1, ,45, ,
1, ,42, ,
3, ,44, ,
4, ,44, ,
-1, ,44, ,
0, ,44, ,
1, ,45, ,
5, ,42, ,
1, ,44, ,
4, ,45, ,
1, ,44, ,
1, ,44, ,
-1, ,45, ,
1, ,42, ,
0, ,44, ,
6, ,44, ,
0, ,44, ,
1, ,45, ,
1, ,45, ,
4, ,44, ,
-2, ,44, ,
0, ,44, ,
1, ,44, ,
3, ,44, ,
3, ,44, ,
3, ,44, ,
-1, ,45, ,
5, ,44, ,
-1, ,44, ,
3, ,44, ,
3, ,45, ,
1, ,42, ,
-2, ,44, ,
3, ,45, ,
3, ,44, ,
1, ,44, ,
0, ,44, ,
1, ,44, ,
1, ,44, ,
5, ,44, ,
-1, ,44, ,
3, ,44, ,
4, ,45, ,
5, ,42, ,
0, ,44, ,
4, ,45, ,
3, ,44, ,
3, ,44, ,
1, ,44, ,
1, ,44, ,
0, ,45, ,
3, ,45, ,
-1, ,44, ,
1, ,44, ,
3, ,45, ,
4, ,42, ,
-1, ,44, ,
3, ,45, ,
4, ,44, ,
4, ,44, ,
1, ,44, ,
1, ,42, ,
3, ,44, ,
4, ,44, ,
-1, ,44, ,
4, ,44, ,
4, ,45, ,
4, ,42, ,
-1, ,44, ,
3, ,44, ,
0, ,44, ,
4, ,44, ,
-1, ,44, ,
1, ,42, ,
3, ,45, ,
4, ,45, ,
-2, ,44, ,
1, ,44, ,
3, ,45, ,
3, ,42, ,
-2, ,44, ,
1, ,44, ,
0, ,44, ,
3, ,44, ,
3, ,45, ,
1, ,42, ,
1, ,44, ,
5, ,44, ,
0, ,44, ,
3, ,45, ,
3, ,45, ,
1, ,42, ,
-1, ,44, ,
3, ,44, ,
1, ,44, ,
1, ,44, ,
1, ,45, ,
1, ,44, ,
3, ,44, ,
5, ,44, ,
-1, ,44, ,
1, ,44, ,
3, ,45, ,
4, ,42, ,
0, ,44, ,
5, ,45, ,
3, ,44, ,
3, ,44, ,
1, ,44, ,
0, ,42, ,
0, ,44, ,
5, ,44, ,
-2, ,44, ,
1, ,44, ,
3, ,45, ,
3, ,42, ,
-1, ,44, ,
3, ,44, ,
1, ,44, ,
3, ,44, ,
-1, ,44, ,
1, ,42, ,
1, ,44, ,
5, ,44, ,
-1, ,44, ,
1, ,44, ,
3, ,45, ,
3, ,42, ,
-2, ,44, ,
4, ,45, ,
3, ,44, ,
3, ,44, ,
0, ,44, ,
1, ,44, ,
1, ,44, ,
5, ,44, ,
-1, ,44, ,
1, ,44, ,
4, ,45, ,
4, ,42, ,
-1, ,44, ,
4, ,44, ,
3, ,44, ,
3, ,44, ,
0, ,45, ,
4, ,44, ,
0, ,45, ,
3, ,45, ,
-1, ,44, ,
1, ,44, ,
3, ,45, ,
3, ,42, ,
-1, ,44, ,
4, ,45, ,
3, ,44, ,
1, ,44, ,
0, ,45, ,
0, ,44, ,
0, ,44, ,
5, ,44, ,
-1, ,44, ,
1, ,45, ,
3, ,45, ,
3, ,42, ,
-2, ,44, ,
3, ,44, ,
3, ,44, ,
4, ,44, ,
0, ,44, ,
3, ,44, ,
0, ,44, ,
5, ,44, ,
-2, ,44, ,
0, ,44, ,
3, ,45, ,
3, ,42, ,
-1, ,44, ,
3, ,44, ,
1, ,44, ,
4, ,44, ,
1, ,45, ,
1, ,42, ,
1, ,44, ,
3, ,44, ,
0, ,44, ,
1, ,44, ,
3, ,45, ,
3, ,44, ,
-1, ,44, ,
3, ,44, ,
3, ,44, ,
1, ,44, ,
0, ,44, ,
3, ,44, ,
1, ,44, ,
3, ,44, ,
-1, ,44, ,
0, ,44, ,
4, ,45, ,
1, ,42, ,
-1, ,44, ,
5, ,44, ,
0, ,44, ,
0, ,44, ,
1, ,44, ,
1, ,44, ,
3, ,44, ,
4, ,44, ,
-1, ,44, ,
3, ,44, ,
4, ,45, ,
4, ,42, ,
1, ,44, ,
4, ,44, ,
4, ,44, ,
3, ,44, ,
1, ,44, ,
3, ,44, ,
-1, ,45, ,
4, ,45, ,
-1, ,44, ,
1, ,44, ,
4, ,44, ,
4, ,42, ,
-1, ,44, ,
5, ,45, ,
1, ,44, ,
3, ,44, ,
1, ,44, ,
1, ,44, ,
-1, ,44, ,
5, ,44, ,
-2, ,44, ,
0, ,44, ,
3, ,45, ,
3, ,42, ,
1, ,44, ,
1, ,44, ,
3, ,44, ,
1, ,44, ,
1, ,44, ,
3, ,44, ,
0, ,45, ,
4, ,45, ,
0, ,44, ,
1, ,44, ,
3, ,44, ,
4, ,42, ,
0, ,44, ,
4, ,45, ,
0, ,44, ,
3, ,44, ,
0, ,44, ,
3, ,42, ,
0, ,44, ,
4, ,44, ,
-4, ,44, ,
1, ,45, ,
4, ,45, ,
4, ,44, ,
-4, ,44, ,
4, ,44, ,
1, ,44, ,
3, ,44, ,
1, ,44, ,
1, ,44, ,
1, ,44, ,
5, ,44, ,
-2, ,44, ,
3, ,44, ,
4, ,44, ,
4, ,42, ,
0, ,44, ,
3, ,45, ,
4, ,44, ,
4, ,44, ,
-1, ,44, ,
1, ,44, ,
0, ,44, ,
5, ,44, ,
-1, ,44, ,
1, ,45, ,
3, ,45, ,
4, ,42, ,
-1, ,44, ,
3, ,44, ,
3, ,44, ,
3, ,44, ,
-1, ,45, ,
3, ,42, ,
0, ,45, ,
5, ,45, ,
-1, ,44, ,
0, ,44, ,
3, ,44, ,
4, ,42, ,
0, ,44, ,
4, ,45, ,
3, ,44, ,
4, ,44, ,
1, ,45, ,
1, ,42, ,
1, ,44, ,
3, ,44, ,
1, ,44, ,
3, ,44, ,
3, ,45, ,
3, ,44, ,
-1, ,44, ,
4, ,44, ,
0, ,44, ,
4, ,44, ,
0, ,44, ,
1, ,44, ,
0, ,44, ,
3, ,44, ,
-1, ,44, ,
1, ,44, ,
3, ,45, ,
1, ,42, ,
-1, ,44, ,
5, ,45, ,
3, ,44, ,
3, ,44, ,
0, ,44, ,
1, ,44, ,
-1, ,44, ,
6, ,44, ,
-1, ,44, ,
1, ,45, ,
3, ,45, ,
4, ,42, ,
-1, ,44, ,
4, ,44, ,
3, ,44, ,
1, ,44, ,
1, ,45, ,
3, ,44, ,
1, ,45, ,
4, ,45, ,
-1, ,44, ,
1, ,45, ,
3, ,45, ,
4, ,42, ,
-2, ,44, ,
4, ,45, ,
0, ,44, ,
3, ,44, ,
0, ,44, ,
1, ,42, ,
1, ,44, ,
4, ,44, ,
-1, ,44, ,
3, ,44, ,
3, ,45, ,
4, ,42, ,
-1, ,44, ,
3, ,44, ,
1, ,44, ,
3, ,44, ,
3, ,44, ,
4, ,44, ,
0, ,44, ,
4, ,44, ,
-1, ,44, ,
1, ,44, ,
3, ,45, ,
3, ,42, ,
-2, ,44, ,
4, ,45, ,
3, ,44, ,
1, ,44, ,
1, ,44, ,
0, ,44, ,
0, ,44, ,
4, ,44, ,
-1, ,44, ,
1, ,44, ,
1, ,45, ,
3, ,42, ,
-1, ,44, ,
3, ,44, ,
3, ,44, ,
3, ,44, ,
1, ,44, ,
4, ,44, ,
0, ,44, ,
4, ,44, ,
-1, ,44, ,
3, ,44, ,
3, ,45, ,
6, ,42, ,
-2, ,44, ,
4, ,45, ,
1, ,44, ,
3, ,44, ,
-1, ,44, ,
0, ,42, ,
0, ,44, ,
6, ,44, ,
-2, ,44, ,
1, ,44, ,
3, ,45, ,
1, ,42, ,
-1, ,44, ,
3, ,44, ,
1, ,42, ,
4, ,42, ,
-1, ,44, ,
3, ,44, ,
-1, ,45, ,
5, ,44, ,
-1, ,44, ,
0, ,44, ,
3, ,45, ,
3, ,42, ,
-2, ,44, ,
4, ,44, ,
3, ,44, ,
3, ,44, ,
-1, ,44, ,
1, ,42, ,
3, ,44, ,
5, ,44, ,
-2, ,44, ,
0, ,45, ,
4, ,45, ,
5, ,44, ,
1, ,44, ,
3, ,44, ,
4, ,44, ,
3, ,44, ,
1, ,44, ,
3, ,44, ,
1, ,44, ,
5, ,44, ,
-1, ,44, ,
1, ,44, ,
4, ,45, ,
4, ,42, ,
-2, ,44, ,
5, ,45, ,
1, ,44, ,
3, ,44, ,
0, ,45, ,
1, ,42, ,
1, ,44, ,
5, ,44, ,
0, ,44, ,
1, ,45, ,
3, ,45, ,
3, ,42, ,
-4, ,44, ,
1, ,44, ,
3, ,44, ,
3, ,44, ,
0, ,44, ,
0, ,44, ,
0, ,44, ,
5, ,44, ,
0, ,44, ,
1, ,44, ,
3, ,45, ,
