src/test_folder/1hzsinwave0000014.CSV

Format,1.0B,
Memory Length,10000,Memory Length,10000,
IntpDistance,0,IntpDistance,0,
Trigger Address,4999,Trigger Address,4999,
Trigger Level,1.192E-01,Trigger Level,1.192E-01,
Source,CH1,Source,CH2,
Vertical Units,V,Vertical Units,V,
Vertical Units Div,0,Vertical Units Div,0,
Vertical Units Extend Div,16,Vertical Units Extend Div,16,
Label,,Label,,
Probe Type,0,Probe Type,0,
Probe Ratio,1.000e+01,Probe Ratio,1.000e+00,
Vertical Scale,2.000e-02,Vertical Scale,1.000e+00,
Vertical Position,-5.120e-02,Vertical Position,2.000e-01,
Horizontal Units,S,Horizontal Units,S,
Horizontal Scale,5.000E-07,Horizontal Scale,5.000E-07,
Horizontal Position,0.000E+00,Horizontal Position,0.000E+00,
Horizontal Mode,Main,Horizontal Mode,Main,
SincET Mode,Real Time,SincET Mode,Real Time,
Sampling Period,2.000e-09,Sampling Period,2.000e-09,
Horizontal Old Scale,5.000E-07,Horizontal Old Scale,5.000E-07,
Horizontal Old Position,0.000E+00,Horizontal Old Position,0.000E+00,
Firmware,V1.23,Firmware,V1.23,
Mode,Fast,Mode,Fast,
Waveform Data,,Waveform Data,,
0, ,17, ,
1, ,18, ,
4, ,18, ,
3, ,18, ,
0, ,18, ,
3, ,17, ,
4, ,17, ,
3, ,18, ,
3, ,18, ,
3, ,18, ,
4, ,17, ,
6, ,17, ,
0, ,17, ,
1, ,17, ,
3, ,17, ,
3, ,18, ,
0, ,18, ,
4, ,17, ,
3, ,17, ,
4, ,18, ,
1, ,17, ,
3, ,17, ,
0, ,17, ,
3, ,18, ,
0, ,18, ,
4, ,18, ,
4, ,18, ,
1, ,18, ,
-1, ,17, ,
3, ,17, ,
1, ,17, ,
1, ,18, ,
0, ,17, ,
3, ,17, ,
4, ,17, ,
6, ,18, ,
0, ,18, ,
3, ,18, ,
3, ,18, ,
1, ,18, ,
1, ,18, ,
5, ,17, ,
4, ,17, ,
3, ,18, ,
3, ,17, ,
3, ,17, ,
1, ,17, ,
5, ,18, ,
0, ,18, ,
3, ,18, ,
4, ,18, ,
3, ,18, ,
-2, ,18, ,
3, ,17, ,
3, ,17, ,
3, ,18, ,
1, ,17, ,
3, ,17, ,
4, ,17, ,
5, ,17, ,
1, ,17, ,
3, ,18, ,
3, ,18, ,
3, ,18, ,
0, ,18, ,
4, ,17, ,
4, ,17, ,
3, ,18, ,
1, ,17, ,
1, ,17, ,
3, ,18, ,
4, ,17, ,
-1, ,17, ,
3, ,17, ,
5, ,17, ,
3, ,18, ,
-1, ,18, ,
3, ,17, ,
3, ,18, ,
1, ,18, ,
0, ,18, ,
3, ,18, ,
4, ,18, ,
3, ,18, ,
0, ,18, ,
3, ,18, ,
3, ,18, ,
1, ,18, ,
0, ,17, ,
5, ,17, ,
4, ,17, ,
3, ,18, ,
0, ,17, ,
1, ,17, ,
1, ,17, ,
3, ,18, ,
0, ,18, ,
3, ,17, ,
4, ,17, ,
3, ,17, ,
0, ,17, ,
3, ,17, ,
-1, ,17, ,
1, ,18, ,
0, ,18, ,
3, ,18, ,
4, ,18, ,
4, ,18, ,
-1, ,18, ,
0, ,18, ,
1, ,18, ,
3, ,18, ,
-1, ,17, ,
4, ,17, ,
1, ,17, ,
1, ,18, ,
3, ,17, ,
3, ,17, ,
3, ,17, ,
5, ,17, ,
1, ,17, ,
3, ,18, ,
4, ,18, ,
3, ,18, ,
1, ,18, ,
4, ,17, ,
3, ,17, ,
3, ,18, ,
3, ,18, ,
5, ,18, ,
1, ,18, ,
5, ,18, ,
-1, ,18, ,
1, ,18, ,
4, ,18, ,
4, ,18, ,
-1, ,18, ,
4, ,17, ,
3, ,17, ,
3, ,18, ,
3, ,17, ,
1, ,17, ,
0, ,18, ,
4, ,18, ,
0, ,18, ,
3, ,17, ,
4, ,17, ,
4, ,18, ,
-1, ,18, ,
3, ,17, ,
1, ,17, ,
3, ,18, ,
3, ,17, ,
3, ,17, ,
3, ,17, ,
4, ,17, ,
0, ,17, ,
1, ,18, ,
1, ,18, ,
1, ,18, ,
1, ,17, ,
4, ,17, ,
3, ,17, ,
3, ,18, ,
3, ,18, ,
1, ,18, ,
1, ,18, ,
3, ,18, ,
-1, ,18, ,
1, ,18, ,
4, ,18, ,
3, ,18, ,
1, ,17, ,
4, ,17, ,
3, ,17, ,
1, ,18, ,
1, ,17, ,
1, ,17, ,
3, ,17, ,
4, ,17, ,
-2, ,17, ,
0, ,18, ,
1, ,18, ,
1, ,18, ,
-1, ,18, ,
3, ,17, ,
3, ,17, ,
3, ,17, ,
3, ,17, ,
1, ,18, ,
0, ,18, ,
5, ,18, ,
0, ,17, ,
3, ,17, ,
5, ,17, ,
3, ,17, ,
-2, ,17, ,
1, ,17, ,
0, ,17, ,
1, ,18, ,
1, ,18, ,
1, ,18, ,
3, ,18, ,
3, ,18, ,
-1, ,18, ,
0, ,18, ,
1, ,18, ,
1, ,18, ,
0, ,18, ,
3, ,17, ,
3, ,17, ,
1, ,18, ,
3, ,17, ,
3, ,17, ,
1, ,17, ,
3, ,18, ,
-1, ,18, ,
3, ,18, ,
4, ,18, ,
3, ,18, ,
-1, ,18, ,
3, ,17, ,
3, ,17, ,
3, ,18, ,
1, ,17, ,
1, ,17, ,
3, ,17, ,
4, ,18, ,
-2, ,18, ,
0, ,18, ,
1, ,18, ,
3, ,18, ,
3, ,18, ,
4, ,17, ,
3, ,17, ,
1, ,18, ,
-1, ,17, ,
1, ,17, ,
3, ,17, ,
4, ,17, ,
-1, ,18, ,
3, ,18, ,
5, ,18, ,
3, ,18, ,
-1, ,18, ,
3, ,17, ,
0, ,17, ,
1, ,18, ,
0, ,17, ,
3, ,17, ,
3, ,17, ,
5, ,17, ,
0, ,17, ,
1, ,18, ,
4, ,18, ,
3, ,18, ,
-1, ,18, ,
3, ,17, ,
3, ,17, ,
3, ,18, ,
1, ,18, ,
3, ,18, ,
3, ,17, ,
4, ,17, ,
0, ,17, ,
3, ,18, ,
4, ,18, ,
3, ,18, ,
0, ,18, ,
4, ,17, ,
3, ,17, ,
3, ,18, ,
1, ,18, ,
3, ,18, ,
4, ,18, ,
5, ,18, ,
-2, ,18, ,
-1, ,18, ,
1, ,18, ,
1, ,18, ,
0, ,18, ,
5, ,17, ,
0, ,17, ,
0, ,18, ,
1, ,17, ,
0, ,17, ,
0, ,17, ,
4, ,18, ,
0, ,18, ,
3, ,17, ,
5, ,17, ,
3, ,17, ,
-1, ,17, ,
3, ,17, ,
-2, ,17, ,
1, ,18, ,
1, ,17, ,
3, ,17, ,
3, ,17, ,
3, ,18, ,
0, ,17, ,
1, ,17, ,
1, ,17, ,
1, ,18, ,
1, ,18, ,
4, ,17, ,
1, ,17, ,
3, ,18, ,
3, ,17, ,
0, ,17, ,
-1, ,18, ,
3, ,17, ,
-1, ,17, ,
0, ,17, ,
4, ,17, ,
3, ,18, ,
-1, ,18, ,
3, ,17, ,
0, ,18, ,
1, ,18, ,
0, ,17, ,
4, ,17, ,
4, ,18, ,
3, ,18, ,
-1, ,18, ,
0, ,18, ,
3, ,18, ,
4, ,18, ,
-2, ,18, ,
3, ,17, ,
4, ,17, ,
4, ,18, ,
4, ,17, ,
3, ,17, ,
3, ,17, ,
3, ,17, ,
1, ,17, ,
3, ,18, ,
4, ,18, ,
1, ,18, ,
-2, ,18, ,
1, ,17, ,
3, ,17, ,
3, ,18, ,
3, ,17, ,
3, ,17, ,
3, ,17, ,
4, ,18, ,
-1, ,18, ,
1, ,18, ,
3, ,18, ,
3, ,18, ,
0, ,18, ,
3, ,17, ,
3, ,17, ,
3, ,18, ,
3, ,18, ,
1, ,18, ,
1, ,18, ,
3, ,18, ,
0, ,17, ,
3, ,17, ,
4, ,17, ,
1, ,18, ,
-2, ,18, ,
3, ,17, ,
0, ,17, ,
4, ,18, ,
3, ,17, ,
3, ,17, ,
4, ,17, ,
3, ,17, ,
-1, ,17, ,
1, ,18, ,
3, ,18, ,
3, ,18, ,
0, ,18, ,
1, ,17, ,
3, ,17, ,
1, ,18, ,
1, ,17, ,
1, ,17, ,
0, ,17, ,
1, ,17, ,
0, ,17, ,
3, ,17, ,
4, ,17, ,
4, ,18, ,
-2, ,18, ,
3, ,17, ,
3, ,17, ,
3, ,18, ,
1, ,17, ,
1, ,17, ,
0, ,17, ,
4, ,17, ,
1, ,17, ,
1, ,18, ,
1, ,18, ,
1, ,18, ,
-1, ,18, ,
3, ,17, ,
3, ,17, ,
3, ,18, ,
1, ,17, ,
0, ,17, ,
0, ,17, ,
5, ,17, ,
0, ,17, ,
3, ,17, ,
6, ,17, ,
1, ,18, ,
0, ,17, ,
4, ,17, ,
0, ,17, ,
1, ,18, ,
1, ,17, ,
1, ,17, ,
1, ,17, ,
5, ,18, ,
-2, ,18, ,
1, ,18, ,
3, ,18, ,
1, ,18, ,
-1, ,17, ,
3, ,17, ,
4, ,17, ,
1, ,18, ,
-1, ,17, ,
1, ,17, ,
1, ,17, ,
3, ,17, ,
-1, ,17, ,
3, ,17, ,
3, ,17, ,
1, ,18, ,
-1, ,17, ,
3, ,17, ,
0, ,17, ,
1, ,18, ,
1, ,17, ,
3, ,17, ,
1, ,18, ,
3, ,17, ,
-2, ,17, ,
0, ,18, ,
1, ,18, ,
1, ,18, ,
-5, ,18, ,
3, ,17, ,
1, ,17, ,
3, ,18, ,
0, ,17, ,
1, ,17, ,
3, ,17, ,
3, ,18, ,
-2, ,17, ,
0, ,17, ,
3, ,17, ,
3, ,18, ,
-1, ,18, ,
0, ,17, ,
-1, ,17, ,
1, ,18, ,
1, ,17, ,
1, ,17, ,
3, ,17, ,
3, ,18, ,
-4, ,18, ,
-1, ,18, ,
3, ,18, ,
4, ,18, ,
0, ,18, ,
3, ,17, ,
1, ,17, ,
0, ,18, ,
-1, ,17, ,
3, ,17, ,
3, ,18, ,
5, ,18, ,
-1, ,17, ,
1, ,17, ,
4, ,17, ,
3, ,18, ,
0, ,18, ,
3, ,17, ,
-1, ,17, ,
1, ,18, ,
1, ,17, ,
3, ,17, ,
3, ,17, ,
4, ,17, ,
0, ,17, ,
-1, ,18, ,
1, ,18, ,
1, ,18, ,
-2, ,18, ,
4, ,17, ,
1, ,17, ,
0, ,18, ,
0, ,17, ,
0, ,17, ,
0, ,17, ,
5, ,17, ,
-1, ,17, ,
1, ,17, ,
4, ,17, ,
4, ,18, ,
-1, ,17, ,
3, ,17, ,
3, ,17, ,
1, ,18, ,
1, ,17, ,
3, ,17, ,
4, ,17, ,
5, ,18, ,
0, ,18, ,
1, ,18, ,
1, ,18, ,
0, ,18, ,
0, ,17, ,
5, ,17, ,
3, ,17, ,
1, ,18, ,
1, ,18, ,
1, ,18, ,
3, ,18, ,
4, ,18, ,
0, ,18, ,
1, ,18, ,
4, ,18, ,
4, ,18, ,
-1, ,18, ,
1, ,17, ,
1, ,17, ,
0, ,18, ,
0, ,17, ,
4, ,17, ,
4, ,17, ,
5, ,18, ,
0, ,18, ,
0, ,18, ,
1, ,18, ,
0, ,18, ,
0, ,18, ,
4, ,17, ,
3, ,17, ,
1, ,18, ,
-1, ,18, ,
0, ,18, ,
0, ,18, ,
5, ,18, ,
-1, ,18, ,
1, ,18, ,
4, ,18, ,
1, ,18, ,
-2, ,17, ,
3, ,17, ,
1, ,17, ,
1, ,18, ,
-1, ,17, ,
3, ,17, ,
1, ,17, ,
3, ,18, ,
0, ,18, ,
1, ,18, ,
1, ,18, ,
1, ,18, ,
-1, ,18, ,
3, ,17, ,
1, ,17, ,
3, ,18, ,
0, ,17, ,
3, ,17, ,
3, ,17, ,
5, ,18, ,
-1, ,18, ,
3, ,18, ,
3, ,18, ,
4, ,18, ,
-1, ,18, ,
4, ,17, ,
0, ,17, ,
3, ,18, ,
0, ,17, ,
1, ,17, ,
3, ,17, ,
4, ,17, ,
-2, ,17, ,
0, ,18, ,
3, ,18, ,
1, ,18, ,
-1, ,18, ,
3, ,17, ,
1, ,17, ,
1, ,18, ,
3, ,18, ,
3, ,18, ,
1, ,18, ,
3, ,18, ,
0, ,18, ,
1, ,18, ,
4, ,18, ,
5, ,18, ,
-2, ,18, ,
1, ,17, ,
0, ,17, ,
3, ,18, ,
1, ,17, ,
3, ,17, ,
3, ,17, ,
4, ,18, ,
-1, ,18, ,
0, ,18, ,
4, ,18, ,
4, ,18, ,
-2, ,18, ,
4, ,17, ,
4, ,17, ,
4, ,18, ,
3, ,17, ,
3, ,17, ,
-1, ,17, ,
3, ,18, ,
-1, ,18, ,
4, ,18, ,
3, ,18, ,
0, ,18, ,
-4, ,18, ,
1, ,17, ,
1, ,17, ,
3, ,18, ,
0, ,17, ,
3, ,17, ,
1, ,17, ,
3, ,18, ,
-2, ,18, ,
1, ,18, ,
3, ,18, ,
3, ,18, ,
-2, ,18, ,
4, ,17, ,
1, ,17, ,
3, ,18, ,
0, ,17, ,
1, ,17, ,
1, ,17, ,
5, ,17, ,
-2, ,17, ,
0, ,17, ,
3, ,17, ,
4, ,18, ,
0, ,17, ,
3, ,17, ,
1, ,17, ,
1, ,18, ,
3, ,17, ,
3, ,17, ,
4, ,18, ,
3, ,18, ,
1, ,18, ,
-1, ,18, ,
3, ,18, ,
1, ,18, ,
-1, ,18, ,
5, ,17, ,
3, ,17, ,
3, ,18, ,
1, ,17, ,
1, ,17, ,
3, ,18, ,
3, ,18, ,
-2, ,18, ,
3, ,18, ,
4, ,18, ,
3, ,18, ,
1, ,17, ,
4, ,17, ,
0, ,17, ,
3, ,18, ,
1, ,17, ,
4, ,17, ,
4, ,17, ,
3, ,17, ,
-1, ,17, ,
0, ,18, ,
1, ,18, ,
0, ,18, ,
-1, ,17, ,
4, ,17, ,
3, ,17, ,
1, ,18, ,
1, ,17, ,
0, ,17, ,
0, ,17, ,
4, ,18, ,
-2, ,18, ,
1, ,18, ,
4, ,18, ,
3, ,18, ,
-2, ,18, ,
3, ,17, ,
1, ,17, ,
1, ,18, ,
1, ,17, ,
1, ,17, ,
3, ,17, ,
3, ,17, ,
1, ,17, ,
1, ,18, ,
3, ,18, ,
3, ,18, ,
-2, ,18, ,
4, ,17, ,
4, ,17, ,
1, ,18, ,
0, ,17, ,
3, ,17, ,
0, ,17, ,
1, ,18, ,
-1, ,17, ,
1, ,17, ,
4, ,17, ,
3, ,18, ,
-1, ,18, ,
4, ,17, ,
3, ,17, ,
3, ,18, ,
0, ,17, ,
3, ,17, ,
4, ,17, ,
3, ,17, ,
0, ,17, ,
1, ,18, ,
3, ,18, ,
1, ,18, ,
-1, ,18, ,
3, ,17, ,
4, ,17, ,
3, ,18, ,
1, ,17, ,
0, ,17, ,
1, ,17, ,
3, ,18, ,
1, ,18, ,
4, ,18, ,
4, ,18, ,
3, ,18, ,
0, ,18, ,
3, ,17, ,
3, ,18, ,
4, ,18, ,
0, ,17, ,
1, ,17, ,
4, ,17, ,
4, ,17, ,
0, ,17, ,
3, ,18, ,
1, ,18, ,
1, ,18, ,
-1, ,17, ,
4, ,17, ,
3, ,17, ,
3, ,18, ,
0, ,17, ,
0, ,17, ,
1, ,18, ,
4, ,18, ,
0, ,18, ,
1, ,18, ,
5, ,18, ,
3, ,18, ,
0, ,18, ,
1, ,17, ,
1, ,17, ,
0, ,18, ,
0, ,17, ,
3, ,17, ,
1, ,17, ,
4, ,17, ,
-2, ,17, ,
1, ,18, ,
3, ,18, ,
1, ,18, ,
-2, ,18, ,
3, ,17, ,
3, ,17, ,
3, ,18, ,
3, ,17, ,
3, ,17, ,
-1, ,17, ,
4, ,18, ,
-2, ,18, ,
3, ,18, ,
4, ,18, ,
4, ,18, ,
0, ,17, ,
4, ,17, ,
3, ,17, ,
1, ,18, ,
1, ,17, ,
1, ,17, ,
1, ,17, ,
4, ,18, ,
0, ,18, ,
1, ,18, ,
3, ,18, ,
3, ,18, ,
-2, ,17, ,
3, ,17, ,
4, ,17, ,
4, ,18, ,
3, ,18, ,
1, ,18, ,
1, ,18, ,
4, ,17, ,
-1, ,17, ,
1, ,17, ,
4, ,17, ,
3, ,18, ,
-2, ,17, ,
3, ,17, ,
3, ,17, ,
3, ,18, ,
3, ,17, ,
3, ,17, ,
1, ,17, ,
3, ,17, ,
0, ,17, ,
0, ,17, ,
1, ,17, ,
1, ,18, ,
-2, ,18, ,
3, ,17, ,
3, ,17, ,
1, ,18, ,
1, ,17, ,
1, ,17, ,
-1, ,17, ,
4, ,18, ,
0, ,18, ,
1, ,17, ,
3, ,17, ,
1, ,17, ,
-1, ,17, ,
3, ,17, ,
1, ,17, ,
3, ,18, ,
0, ,17, ,
1, ,17, ,
1, ,17, ,
4, ,18, ,
1, ,18, ,
1, ,18, ,
1, ,18, ,
3, ,18, ,
1, ,18, ,
4, ,17, ,
3, ,17, ,
4, ,18, ,
1, ,17, ,
1, ,17, ,
1, ,17, ,
3, ,17, ,
-1, ,17, ,
1, ,18, ,
5, ,18, ,
1, ,18, ,
-2, ,18, ,
4, ,17, ,
-1, ,17, ,
1, ,18, ,
1, ,17, ,
3, ,17, ,
4, ,17, ,
3, ,17, ,
0, ,17, ,
3, ,18, ,
1, ,18, ,
0, ,18, ,
-1, ,18, ,
3, ,17, ,
3, ,17, ,
4, ,18, ,
1, ,17, ,
1, ,17, ,
0, ,18, ,
3, ,18, ,
-1, ,18, ,
4, ,18, ,
4, ,18, ,
1, ,18, ,
-2, ,17, ,
3, ,17, ,
0, ,17, ,
0, ,18, ,
0, ,17, ,
4, ,17, ,
3, ,18, ,
4, ,17, ,
-1, ,17, ,
1, ,18, ,
3, ,18, ,
3, ,18, ,
0, ,18, ,
3, ,17, ,
3, ,17, ,
3, ,18, ,
3, ,18, ,
1, ,18, ,
0, ,17, ,
3, ,17, ,
0, ,17, ,
1, ,17, ,
4, ,17, ,
3, ,18, ,
1, ,18, ,
3, ,17, ,
0, ,17, ,
3, ,18, ,
1, ,17, ,
6, ,17, ,
3, ,17, ,
3, ,17, ,
-1, ,17, ,
1, ,18, ,
4, ,18, ,
3, ,18, ,
-1, ,18, ,
4, ,17, ,
1, ,17, ,
3, ,18, ,
3, ,17, ,
3, ,17, ,
3, ,17, ,
5, ,17, ,
-2, ,17, ,
3, ,17, ,
5, ,17, ,
4, ,18, ,
0, ,18, ,
3, ,17, ,
0, ,17, ,
3, ,18, ,
1, ,17, ,
3, ,17, ,
1, ,17, ,
4, ,17, ,
0, ,17, ,
0, ,18, ,
4, ,18, ,
4, ,18, ,
-2, ,18, ,
3, ,17, ,
4, ,17, ,
4, ,18, ,
1, ,17, ,
1, ,17, ,
0, ,17, ,
4, ,18, ,
0, ,17, ,
3, ,17, ,
5, ,17, ,
3, ,18, ,
0, ,17, ,
4, ,17, ,
4, ,17, ,
1, ,18, ,
0, ,17, ,
1, ,17, ,
4, ,17, ,
5, ,18, ,
-2, ,18, ,
0, ,18, ,
1, ,18, ,
1, ,18, ,
-1, ,18, ,
3, ,17, ,
3, ,18, ,
3, ,18, ,
1, ,17, ,
1, ,17, ,
0, ,17, ,
4, ,18, ,
-1, ,17, ,
3, ,17, ,
6, ,17, ,
4, ,18, ,
-1, ,17, ,
3, ,17, ,
3, ,17, ,
3, ,18, ,
1, ,17, ,
1, ,17, ,
1, ,17, ,
5, ,18, ,
0, ,17, ,
4, ,17, ,
4, ,17, ,
1, ,18, ,
-1, ,18, ,
4, ,17, ,
3, ,18, ,
3, ,18, ,
1, ,17, ,
0, ,17, ,
0, ,17, ,
4, ,18, ,
0, ,17, ,
3, ,17, ,
5, ,17, ,
3, ,18, ,
-1, ,18, ,
1, ,17, ,
1, ,18, ,
3, ,18, ,
3, ,17, ,
4, ,17, ,
5, ,17, ,
5, ,17, ,
0, ,17, ,
1, ,18, ,
1, ,18, ,
1, ,18, ,
0, ,18, ,
4, ,17, ,
4, ,17, ,
3, ,18, ,
1, ,17, ,
1, ,17, ,
1, ,17, ,
4, ,18, ,
-1, ,17, ,
1, ,17, ,
4, ,17, ,
4, ,18, ,
-1, ,18, ,
1, ,17, ,
0, ,17, ,
1, ,18, ,
3, ,17, ,
4, ,17, ,
5, ,18, ,
5, ,17, ,
-1, ,17, ,
-1, ,18, ,
3, ,18, ,
4, ,18, ,
-1, ,18, ,
3, ,17, ,
4, ,17, ,
3, ,18, ,
3, ,17, ,
1, ,17, ,
1, ,17, ,
5, ,17, ,
-4, ,17, ,
0, ,17, ,
4, ,17, ,
3, ,17, ,
-2, ,17, ,
1, ,17, ,
0, ,17, ,
4, ,18, ,
1, ,17, ,
3, ,17, ,
3, ,17, ,
4, ,17, ,
0, ,17, ,
1, ,18, ,
3, ,18, ,
4, ,18, ,
-1, ,18, ,
4, ,17, ,
3, ,17, ,
4, ,17, ,
1, ,17, ,
1, ,17, ,
0, ,17, ,
3, ,17, ,
-1, ,17, ,
1, ,18, ,
4, ,18, ,
4, ,18, ,
-2, ,17, ,
1, ,17, ,
1, ,17, ,
1, ,18, ,
0, ,17, ,
1, ,17, ,
3, ,17, ,
3, ,17, ,
-1, ,17, ,
1, ,18, ,
3, ,18, ,
1, ,18, ,
0, ,18, ,
3, ,17, ,
1, ,17, ,
3, ,18, ,
0, ,17, ,
1, ,17, ,
1, ,17, ,
3, ,17, ,
0, ,17, ,
1, ,17, ,
3, ,17, ,
3, ,18, ,
0, ,18, ,
1, ,17, ,
1, ,17, ,
1, ,18, ,
0, ,17, ,
3, ,17, ,
3, ,17, ,
3, ,17, ,
-1, ,17, ,
0, ,18, ,
1, ,18, ,
1, ,18, ,
0, ,18, ,
5, ,17, ,
3, ,17, ,
1, ,18, ,
0, ,18, ,
1, ,18, ,
1, ,17, ,
3, ,17, ,
1, ,17, ,
3, ,18, ,
4, ,18, ,
4, ,18, ,
-1, ,18, ,
3, ,17, ,
0, ,18, ,
1, ,18, ,
1, ,17, ,
1, ,17, ,
3, ,17, ,
3, ,18, ,
1, ,18, ,
3, ,18, ,
3, ,18, ,
0, ,18, ,
-2, ,18, ,
4, ,17, ,
5, ,17, ,
4, ,18, ,
1, ,17, ,
1, ,17, ,
1, ,17, ,
4, ,17, ,
0, ,17, ,
3, ,17, ,
3, ,17, ,
3, ,18, ,
4, ,17, ,
4, ,17, ,
4, ,17, ,
3, ,18, ,
0, ,17, ,
1, ,17, ,
4, ,17, ,
4, ,17, ,
0, ,17, ,
1, ,18, ,
1, ,18, ,
1, ,18, ,
0, ,18, ,
5, ,17, ,
5, ,17, ,
3, ,18, ,
1, ,17, ,
3, ,17, ,
4, ,17, ,
5, ,18, ,
-2, ,18, ,
3, ,18, ,
4, ,18, ,
3, ,18, ,
-1, ,17, ,
3, ,17, ,
3, ,17, ,
1, ,18, ,
-1, ,17, ,
3, ,17, ,
4, ,17, ,
5, ,17, ,
-1, ,17, ,
1, ,18, ,
1, ,18, ,
0, ,18, ,
0, ,17, ,
5, ,17, ,
4, ,17, ,
3, ,18, ,
3, ,17, ,
1, ,17, ,
0, ,17, ,
4, ,17, ,
0, ,17, ,
4, ,18, ,
5, ,18, ,
5, ,18, ,
-1, ,18, ,
3, ,17, ,
0, ,17, ,
1, ,18, ,
1, ,17, ,
3, ,17, ,
4, ,17, ,
5, ,17, ,
0, ,17, ,
0, ,18, ,
4, ,18, ,
3, ,18, ,
0, ,18, ,
3, ,17, ,
3, ,17, ,
3, ,18, ,
3, ,18, ,
1, ,18, ,
1, ,18, ,
3, ,17, ,
0, ,17, ,
1, ,18, ,
3, ,18, ,
4, ,18, ,
0, ,18, ,
1, ,17, ,
1, ,17, ,
1, ,18, ,
3, ,17, ,
3, ,17, ,
3, ,17, ,
5, ,17, ,
1, ,17, ,
1, ,18, ,
3, ,18, ,
3, ,18, ,
-1, ,18, ,
6, ,17, ,
4, ,17, ,
3, ,18, ,
1, ,17, ,
1, ,17, ,
3, ,17, ,
4, ,18, ,
0, ,17, ,
1, ,17, ,
4, ,17, ,
4, ,18, ,
0, ,17, ,
4, ,17, ,
1, ,18, ,
3, ,18, ,
3, ,17, ,
5, ,17, ,
3, ,18, ,
6, ,17, ,
-1, ,17, ,
0, ,18, ,
3, ,18, ,
3, ,18, ,
-2, ,18, ,
4, ,17, ,
4, ,17, ,
1, ,18, ,
0, ,17, ,
1, ,17, ,
1, ,18, ,
5, ,18, ,
-1, ,17, ,
1, ,17, ,
3, ,17, ,
4, ,18, ,
0, ,18, ,
3, ,17, ,
1, ,18, ,
3, ,18, ,
3, ,17, ,
4, ,17, ,
5, ,17, ,
5, ,17, ,
0, ,17, ,
1, ,18, ,
3, ,18, ,
1, ,18, ,
-1, ,18, ,
4, ,17, ,
4, ,17, ,
3, ,18, ,
3, ,17, ,
3, ,17, ,
3, ,17, ,
5, ,17, ,
-2, ,17, ,
1, ,18, ,
4, ,18, ,
4, ,18, ,
3, ,18, ,
3, ,17, ,
1, ,17, ,
4, ,18, ,
1, ,17, ,
3, ,17, ,
4, ,17, ,
6, ,17, ,
1, ,17, ,
1, ,18, ,
4, ,18, ,
3, ,18, ,
0, ,18, ,
3, ,17, ,
4, ,17, ,
3, ,18, ,
1, ,17, ,
1, ,17, ,
1, ,18, ,
4, ,18, ,
0, ,18, ,
3, ,18, ,
4, ,18, ,
3, ,18, ,
1, ,18, ,
3, ,17, ,
0, ,17, ,
1, ,18, ,
0, ,17, ,
3, ,17, ,
3, ,17, ,
5, ,17, ,
0, ,17, ,
0, ,18, ,
3, ,18, ,
3, ,18, ,
0, ,18, ,
4, ,17, ,
3, ,17, ,
1, ,18, ,
-1, ,17, ,
0, ,17, ,
0, ,17, ,
4, ,18, ,
0, ,18, ,
3, ,18, ,
4, ,17, ,
3, ,18, ,
0, ,18, ,
4, ,17, ,
3, ,17, ,
1, ,18, ,
3, ,17, ,
3, ,17, ,
4, ,17, ,
4, ,17, ,
-1, ,17, ,
0, ,18, ,
4, ,18, ,
3, ,18, ,
0, ,18, ,
4, ,17, ,
1, ,17, ,
3, ,18, ,
1, ,17, ,
4, ,17, ,
0, ,17, ,
3, ,18, ,
0, ,18, ,
3, ,18, ,
5, ,18, ,
4, ,18, ,
-1, ,17, ,
3, ,17, ,
0, ,17, ,
1, ,18, ,
1, ,17, ,
3, ,17, ,
3, ,17, ,
5, ,17, ,
-1, ,17, ,
0, ,18, ,
1, ,18, ,
1, ,18, ,
-1, ,17, ,
4, ,17, ,
4, ,17, ,
4, ,18, ,
3, ,17, ,
3, ,17, ,
0, ,17, ,
4, ,17, ,
-2, ,18, ,
1, ,18, ,
4, ,18, ,
4, ,18, ,
-1, ,18, ,
3, ,17, ,
1, ,17, ,
1, ,18, ,
1, ,17, ,
3, ,17, ,
3, ,17, ,
4, ,17, ,
-1, ,17, ,
1, ,18, ,
3, ,18, ,
4, ,18, ,
-2, ,18, ,
3, ,17, ,
3, ,17, ,
3, ,18, ,
1, ,17, ,
1, ,17, ,
1, ,18, ,
3, ,18, ,
0, ,18, ,
3, ,18, ,
4, ,18, ,
4, ,18, ,
0, ,18, ,
3, ,17, ,
1, ,17, ,
3, ,18, ,
3, ,17, ,
3, ,17, ,
3, ,17, ,
5, ,17, ,
-2, ,17, ,
0, ,18, ,
3, ,18, ,
1, ,18, ,
0, ,18, ,
4, ,17, ,
4, ,17, ,
3, ,18, ,
3, ,17, ,
3, ,17, ,
1, ,18, ,
3, ,17, ,
-1, ,17, ,
3, ,17, ,
4, ,17, ,
4, ,18, ,
0, ,18, ,
3, ,17, ,
3, ,17, ,
4, ,18, ,
1, ,17, ,
3, ,17, ,
3, ,17, ,
4, ,17, ,
-1, ,17, ,
1, ,18, ,
4, ,18, ,
3, ,18, ,
-1, ,18, ,
4, ,17, ,
5, ,17, ,
4, ,18, ,
1, ,17, ,
0, ,17, ,
-1, ,18, ,
3, ,18, ,
-1, ,18, ,
1, ,17, ,
4, ,17, ,
4, ,18, ,
-2, ,17, ,
1, ,17, ,
3, ,18, ,
4, ,18, ,
0, ,17, ,
3, ,17, ,
4, ,17, ,
5, ,17, ,
0, ,17, ,
1, ,17, ,
1, ,17, ,
0, ,18, ,
-1, ,18, ,
4, ,17, ,
4, ,17, ,
3, ,18, ,
0, ,17, ,
0, ,17, ,
4, ,17, ,
4, ,18, ,
-1, ,18, ,
3, ,17, ,
4, ,17, ,
3, ,17, ,
0, ,17, ,
1, ,17, ,
1, ,17, ,
0, ,18, ,
1, ,17, ,
4, ,17, ,
5, ,17, ,
4, ,18, ,
-1, ,18, ,
0, ,18, ,
3, ,18, ,
3, ,18, ,
-2, ,18, ,
5, ,17, ,
4, ,17, ,
1, ,18, ,
1, ,17, ,
1, ,17, ,
0, ,18, ,
4, ,18, ,
-1, ,18, ,
1, ,18, ,
4, ,18, ,
4, ,18, ,
0, ,18, ,
1, ,17, ,
1, ,17, ,
3, ,18, ,
1, ,17, ,
3, ,17, ,
3, ,17, ,
5, ,17, ,
0, ,17, ,
1, ,18, ,
4, ,18, ,
4, ,18, ,
-1, ,18, ,
4, ,17, ,
4, ,17, ,
3, ,18, ,
0, ,17, ,
0, ,17, ,
0, ,17, ,
4, ,18, ,
0, ,17, ,
3, ,17, ,
4, ,17, ,
3, ,18, ,
0, ,18, ,
4, ,17, ,
1, ,17, ,
3, ,18, ,
1, ,17, ,
1, ,17, ,
3, ,17, ,
6, ,18, ,
-1, ,18, ,
1, ,18, ,
3, ,18, ,
5, ,18, ,
0, ,17, ,
3, ,17, ,
3, ,17, ,
3, ,18, ,
3, ,17, ,
1, ,17, ,
3, ,18, ,
6, ,18, ,
0, ,17, ,
3, ,17, ,
4, ,17, ,
4, ,18, ,
0, ,18, ,
3, ,17, ,
4, ,17, ,
3, ,18, ,
-1, ,17, ,
4, ,17, ,
0, ,17, ,
4, ,18, ,
-1, ,18, ,
1, ,18, ,
3, ,18, ,
0, ,18, ,
-4, ,18, ,
4, ,17, ,
3, ,17, ,
1, ,18, ,
1, ,17, ,
1, ,17, ,
3, ,17, ,
6, ,18, ,
1, ,18, ,
3, ,18, ,
4, ,18, ,
3, ,18, ,
0, ,17, ,
3, ,17, ,
1, ,17, ,
1, ,18, ,
-1, ,17, ,
3, ,17, ,
4, ,17, ,
5, ,18, ,
1, ,18, ,
1, ,18, ,
3, ,18, ,
3, ,18, ,
0, ,18, ,
4, ,17, ,
3, ,17, ,
1, ,18, ,
1, ,17, ,
1, ,17, ,
3, ,17, ,
3, ,18, ,
-4, ,18, ,
3, ,18, ,
4, ,18, ,
5, ,18, ,
-1, ,17, ,
1, ,17, ,
1, ,18, ,
1, ,18, ,
1, ,18, ,
4, ,18, ,
3, ,18, ,
5, ,18, ,
-1, ,17, ,
1, ,17, ,
1, ,17, ,
1, ,18, ,
-2, ,18, ,
4, ,17, ,
4, ,17, ,
5, ,18, ,
4, ,17, ,
1, ,17, ,
0, ,17, ,
4, ,18, ,
1, ,17, ,
3, ,17, ,
4, ,17, ,
3, ,17, ,
-1, ,17, ,
3, ,17, ,
1, ,17, ,
3, ,18, ,
0, ,17, ,
3, ,17, ,
4, ,17, ,
5, ,17, ,
1, ,17, ,
1, ,18, ,
1, ,18, ,
1, ,18, ,
0, ,17, ,
6, ,17, ,
4, ,17, ,
4, ,17, ,
1, ,17, ,
1, ,17, ,
1, ,17, ,
4, ,18, ,
-2, ,18, ,
4, ,18, ,
4, ,18, ,
1, ,18, ,
0, ,18, ,
1, ,17, ,
1, ,17, ,
3, ,18, ,
0, ,17, ,
3, ,17, ,
5, ,17, ,
4, ,17, ,
0, ,17, ,
1, ,17, ,
3, ,17, ,
3, ,18, ,
1, ,18, ,
5, ,17, ,
4, ,17, ,
3, ,18, ,
3, ,17, ,
3, ,17, ,
3, ,18, ,
5, ,17, ,
0, ,17, ,
3, ,17, ,
5, ,17, ,
4, ,18, ,
1, ,18, ,
1, ,17, ,
1, ,17, ,
1, ,18, ,
0, ,18, ,
4, ,18, ,
5, ,17, ,
5, ,17, ,
0, ,17, ,
1, ,18, ,
3, ,18, ,
3, ,18, ,
0, ,18, ,
4, ,17, ,
4, ,17, ,
4, ,18, ,
3, ,18, ,
1, ,18, ,
1, ,18, ,
5, ,18, ,
0, ,17, ,
1, ,17, ,
3, ,17, ,
3, ,18, ,
-1, ,17, ,
3, ,17, ,
3, ,17, ,
1, ,18, ,
0, ,17, ,
4, ,17, ,
5, ,17, ,
5, ,17, ,
0, ,17, ,
1, ,18, ,
4, ,18, ,
4, ,18, ,
-1, ,18, ,
5, ,17, ,
4, ,17, ,
4, ,17, ,
0, ,17, ,
1, ,17, ,
4, ,18, ,
6, ,18, ,
0, ,18, ,
3, ,18, ,
4, ,18, ,
3, ,18, ,
0, ,17, ,
5, ,17, ,
1, ,17, ,
1, ,18, ,
3, ,17, ,
5, ,17, ,
5, ,17, ,
5, ,17, ,
1, ,17, ,
1, ,18, ,
3, ,18, ,
3, ,18, ,
-1, ,18, ,
5, ,17, ,
3, ,17, ,
4, ,17, ,
4, ,17, ,
0, ,17, ,
3, ,18, ,
4, ,18, ,
0, ,18, ,
3, ,18, ,
4, ,18, ,
4, ,18, ,
-1, ,18, ,
1, ,17, ,
3, ,17, ,
1, ,18, ,
0, ,17, ,
4, ,17, ,
5, ,17, ,
4, ,17, ,
0, ,17, ,
0, ,18, ,
1, ,18, ,
3, ,18, ,
1, ,18, ,
6, ,17, ,
4, ,17, ,
1, ,17, ,
1, ,17, ,
3, ,17, ,
3, ,17, ,
5, ,17, ,
-1, ,17, ,
1, ,18, ,
4, ,18, ,
3, ,18, ,
-1, ,18, ,
3, ,17, ,
3, ,17, ,
1, ,18, ,
1, ,17, ,
3, ,17, ,
5, ,17, ,
6, ,17, ,
0, ,17, ,
1, ,18, ,
4, ,18, ,
5, ,18, ,
0, ,18, ,
6, ,17, ,
5, ,17, ,
4, ,18, ,
3, ,17, ,
1, ,17, ,
3, ,17, ,
4, ,18, ,
0, ,17, ,
3, ,17, ,
4, ,17, ,
3, ,17, ,
1, ,17, ,
3, ,17, ,
3, ,17, ,
3, ,18, ,
1, ,17, ,
3, ,17, ,
5, ,18, ,
5, ,17, ,
3, ,17, ,
3, ,18, ,
3, ,18, ,
1, ,18, ,
-1, ,18, ,
5, ,17, ,
5, ,17, ,
4, ,18, ,
3, ,18, ,
1, ,18, ,
0, ,18, ,
4, ,18, ,
0, ,17, ,
3, ,17, ,
5, ,17, ,
4, ,18, ,
0, ,18, ,
3, ,17, ,
3, ,18, ,
1, ,18, ,
-1, ,17, ,
4, ,17, ,
5, ,17, ,
5, ,18, ,
3, ,18, ,
3, ,18, ,
4, ,18, ,
5, ,18, ,
0, ,18, ,
3, ,17, ,
1, ,17, ,
3, ,18, ,
1, ,17, ,
3, ,17, ,
1, ,17, ,
5, ,17, ,
0, ,17, ,
3, ,18, ,
5, ,18, ,
4, ,18, ,
1, ,17, ,
3, ,17, ,
-1, ,17, ,
1, ,18, ,
1, ,17, ,
3, ,17, ,
4, ,17, ,
4, ,18, ,
3, ,18, ,
3, ,18, ,
3, ,18, ,
3, ,18, ,
-2, ,18, ,
4, ,17, ,
4, ,17, ,
3, ,18, ,
3, ,17, ,
3, ,17, ,
4, ,17, ,
4, ,18, ,
0, ,17, ,
3, ,17, ,
4, ,17, ,
3, ,17, ,
-1, ,17, ,
