src/test_folder/1hzsinwave1chn0000013.CSV

Format,1.0B,
Memory Length,10000,Memory Length,10000,
IntpDistance,0,IntpDistance,0,
Trigger Address,4999,Trigger Address,4999,
Trigger Level,1.192E-01,Trigger Level,1.192E-01,
Source,CH1,Source,CH2,
Vertical Units,V,Vertical Units,V,
Vertical Units Div,0,Vertical Units Div,0,
Vertical Units Extend Div,16,Vertical Units Extend Div,16,
Label,,Label,,
Probe Type,0,Probe Type,0,
Probe Ratio,1.000e+01,Probe Ratio,1.000e+00,
Vertical Scale,2.000e-02,Vertical Scale,1.000e+00,
Vertical Position,-5.120e-02,Vertical Position,2.000e-01,
Horizontal Units,S,Horizontal Units,S,
Horizontal Scale,5.000E-07,Horizontal Scale,5.000E-07,
Horizontal Position,0.000E+00,Horizontal Position,0.000E+00,
Horizontal Mode,Main,Horizontal Mode,Main,
SincET Mode,Real Time,SincET Mode,Real Time,
Sampling Period,2.000e-09,Sampling Period,2.000e-09,
Horizontal Old Scale,5.000E-07,Horizontal Old Scale,5.000E-07,
Horizontal Old Position,0.000E+00,Horizontal Old Position,0.000E+00,
Firmware,V1.23,Firmware,V1.23,
Mode,Fast,Mode,Fast,
Waveform Data,,Waveform Data,,
3, ,34, ,
4, ,34, ,
1, ,34, ,
1, ,33, ,
3, ,33, ,
4, ,33, ,
0, ,33, ,
1, ,34, ,
3, ,34, ,
1, ,34, ,
-2, ,34, ,
3, ,33, ,
3, ,33, ,
1, ,33, ,
0, ,33, ,
3, ,33, ,
0, ,34, ,
3, ,33, ,
1, ,34, ,
3, ,34, ,
4, ,34, ,
4, ,34, ,
-1, ,34, ,
3, ,33, ,
0, ,34, ,
1, ,34, ,
3, ,34, ,
3, ,33, ,
1, ,34, ,
4, ,33, ,
-1, ,34, ,
3, ,33, ,
3, ,33, ,
3, ,34, ,
0, ,34, ,
6, ,32, ,
4, ,33, ,
3, ,34, ,
0, ,33, ,
1, ,33, ,
3, ,34, ,
4, ,34, ,
-2, ,34, ,
1, ,34, ,
4, ,33, ,
3, ,33, ,
1, ,34, ,
4, ,33, ,
3, ,33, ,
3, ,34, ,
3, ,33, ,
5, ,33, ,
1, ,34, ,
4, ,33, ,
0, ,33, ,
1, ,33, ,
3, ,33, ,
3, ,34, ,
0, ,34, ,
4, ,33, ,
3, ,33, ,
1, ,34, ,
1, ,33, ,
1, ,33, ,
0, ,34, ,
4, ,33, ,
-2, ,34, ,
3, ,34, ,
4, ,33, ,
3, ,33, ,
-1, ,34, ,
1, ,33, ,
1, ,33, ,
3, ,34, ,
0, ,33, ,
4, ,33, ,
3, ,34, ,
3, ,33, ,
-1, ,34, ,
1, ,34, ,
3, ,34, ,
3, ,34, ,
1, ,34, ,
4, ,33, ,
1, ,33, ,
1, ,34, ,
1, ,33, ,
3, ,33, ,
1, ,34, ,
5, ,33, ,
-1, ,34, ,
3, ,34, ,
5, ,33, ,
4, ,33, ,
-1, ,34, ,
4, ,32, ,
1, ,33, ,
1, ,33, ,
3, ,33, ,
3, ,33, ,
3, ,33, ,
6, ,33, ,
0, ,33, ,
1, ,34, ,
3, ,33, ,
3, ,33, ,
1, ,34, ,
5, ,33, ,
4, ,33, ,
4, ,34, ,
0, ,33, ,
1, ,33, ,
3, ,34, ,
3, ,33, ,
1, ,34, ,
3, ,34, ,
4, ,34, ,
3, ,34, ,
-2, ,34, ,
4, ,33, ,
3, ,33, ,
1, ,34, ,
1, ,33, ,
3, ,33, ,
4, ,34, ,
5, ,33, ,
0, ,34, ,
1, ,34, ,
3, ,34, ,
3, ,34, ,
0, ,34, ,
5, ,32, ,
4, ,33, ,
3, ,34, ,
3, ,33, ,
3, ,33, ,
3, ,34, ,
3, ,33, ,
0, ,33, ,
4, ,34, ,
4, ,33, ,
4, ,33, ,
0, ,34, ,
3, ,33, ,
1, ,33, ,
3, ,34, ,
0, ,33, ,
3, ,33, ,
3, ,34, ,
4, ,33, ,
-1, ,33, ,
1, ,34, ,
3, ,34, ,
3, ,34, ,
-1, ,34, ,
5, ,33, ,
4, ,33, ,
3, ,34, ,
1, ,33, ,
3, ,33, ,
0, ,34, ,
4, ,33, ,
-1, ,34, ,
1, ,34, ,
3, ,34, ,
1, ,34, ,
-2, ,34, ,
1, ,33, ,
3, ,34, ,
1, ,34, ,
0, ,33, ,
3, ,33, ,
1, ,34, ,
5, ,33, ,
-1, ,33, ,
1, ,34, ,
3, ,34, ,
4, ,34, ,
0, ,34, ,
4, ,33, ,
4, ,33, ,
3, ,34, ,
1, ,33, ,
3, ,33, ,
0, ,34, ,
3, ,33, ,
-2, ,34, ,
1, ,34, ,
3, ,33, ,
1, ,33, ,
-1, ,34, ,
1, ,33, ,
1, ,33, ,
3, ,34, ,
0, ,33, ,
3, ,33, ,
4, ,34, ,
3, ,33, ,
-2, ,33, ,
0, ,34, ,
3, ,34, ,
3, ,34, ,
0, ,34, ,
4, ,33, ,
1, ,33, ,
4, ,34, ,
0, ,33, ,
1, ,33, ,
1, ,34, ,
4, ,33, ,
-1, ,34, ,
4, ,34, ,
4, ,34, ,
3, ,34, ,
-1, ,33, ,
3, ,33, ,
1, ,33, ,
4, ,34, ,
1, ,34, ,
4, ,34, ,
4, ,34, ,
5, ,33, ,
-1, ,33, ,
0, ,34, ,
3, ,34, ,
3, ,34, ,
-2, ,34, ,
4, ,33, ,
3, ,34, ,
3, ,34, ,
-1, ,33, ,
3, ,33, ,
1, ,34, ,
5, ,33, ,
-1, ,34, ,
3, ,34, ,
4, ,33, ,
3, ,34, ,
0, ,34, ,
1, ,33, ,
1, ,33, ,
1, ,33, ,
1, ,33, ,
3, ,34, ,
1, ,34, ,
4, ,33, ,
-1, ,33, ,
0, ,34, ,
3, ,34, ,
1, ,34, ,
0, ,34, ,
4, ,33, ,
3, ,34, ,
1, ,34, ,
1, ,33, ,
1, ,33, ,
1, ,34, ,
4, ,33, ,
-1, ,34, ,
3, ,34, ,
4, ,34, ,
1, ,34, ,
-2, ,34, ,
1, ,33, ,
1, ,34, ,
1, ,34, ,
1, ,34, ,
3, ,34, ,
4, ,34, ,
4, ,33, ,
1, ,33, ,
3, ,34, ,
3, ,34, ,
1, ,34, ,
-1, ,34, ,
4, ,33, ,
4, ,33, ,
3, ,34, ,
0, ,33, ,
3, ,33, ,
0, ,34, ,
4, ,33, ,
0, ,33, ,
3, ,34, ,
3, ,34, ,
1, ,34, ,
-1, ,33, ,
3, ,33, ,
1, ,33, ,
3, ,34, ,
-1, ,33, ,
3, ,33, ,
4, ,34, ,
4, ,33, ,
-1, ,34, ,
1, ,34, ,
4, ,33, ,
1, ,33, ,
-1, ,34, ,
4, ,33, ,
1, ,33, ,
3, ,34, ,
1, ,33, ,
3, ,33, ,
1, ,34, ,
5, ,33, ,
-1, ,33, ,
3, ,33, ,
4, ,33, ,
1, ,34, ,
-1, ,34, ,
3, ,32, ,
0, ,33, ,
0, ,33, ,
-1, ,33, ,
3, ,34, ,
4, ,34, ,
5, ,33, ,
1, ,34, ,
1, ,34, ,
3, ,34, ,
1, ,34, ,
-1, ,34, ,
5, ,32, ,
4, ,33, ,
3, ,34, ,
0, ,33, ,
1, ,33, ,
0, ,34, ,
5, ,33, ,
-1, ,33, ,
3, ,34, ,
4, ,33, ,
3, ,33, ,
-1, ,34, ,
3, ,33, ,
1, ,33, ,
3, ,34, ,
-2, ,33, ,
3, ,33, ,
3, ,34, ,
4, ,33, ,
-1, ,34, ,
0, ,34, ,
3, ,34, ,
3, ,34, ,
-1, ,34, ,
5, ,33, ,
5, ,33, ,
3, ,34, ,
1, ,33, ,
1, ,33, ,
1, ,34, ,
1, ,33, ,
-2, ,34, ,
1, ,34, ,
3, ,33, ,
3, ,33, ,
-1, ,34, ,
4, ,33, ,
1, ,33, ,
1, ,34, ,
0, ,33, ,
5, ,33, ,
3, ,34, ,
6, ,33, ,
1, ,34, ,
3, ,34, ,
3, ,34, ,
3, ,34, ,
-2, ,33, ,
3, ,33, ,
3, ,33, ,
1, ,34, ,
-1, ,33, ,
0, ,33, ,
-1, ,34, ,
5, ,33, ,
-2, ,34, ,
3, ,34, ,
4, ,33, ,
3, ,34, ,
0, ,34, ,
1, ,33, ,
1, ,34, ,
3, ,34, ,
0, ,33, ,
1, ,33, ,
3, ,34, ,
4, ,33, ,
-1, ,34, ,
1, ,34, ,
3, ,34, ,
3, ,34, ,
-1, ,34, ,
4, ,33, ,
3, ,33, ,
0, ,34, ,
-2, ,33, ,
0, ,33, ,
0, ,33, ,
4, ,34, ,
-4, ,34, ,
1, ,34, ,
4, ,33, ,
3, ,33, ,
-4, ,34, ,
1, ,32, ,
3, ,33, ,
1, ,34, ,
0, ,33, ,
4, ,33, ,
3, ,34, ,
3, ,33, ,
-1, ,34, ,
1, ,34, ,
3, ,33, ,
3, ,33, ,
-1, ,33, ,
5, ,32, ,
1, ,33, ,
1, ,34, ,
3, ,33, ,
3, ,33, ,
3, ,34, ,
3, ,33, ,
0, ,33, ,
3, ,34, ,
3, ,34, ,
1, ,34, ,
-2, ,33, ,
3, ,33, ,
3, ,33, ,
3, ,34, ,
0, ,33, ,
1, ,33, ,
3, ,34, ,
3, ,33, ,
-1, ,33, ,
1, ,34, ,
1, ,34, ,
0, ,34, ,
-1, ,34, ,
5, ,33, ,
3, ,33, ,
0, ,34, ,
-1, ,33, ,
1, ,33, ,
4, ,34, ,
4, ,33, ,
0, ,33, ,
3, ,33, ,
4, ,33, ,
3, ,34, ,
-1, ,34, ,
1, ,33, ,
1, ,34, ,
1, ,34, ,
1, ,33, ,
4, ,33, ,
3, ,34, ,
4, ,33, ,
0, ,33, ,
1, ,34, ,
3, ,34, ,
3, ,34, ,
0, ,34, ,
5, ,33, ,
4, ,33, ,
3, ,34, ,
3, ,34, ,
1, ,34, ,
1, ,34, ,
3, ,33, ,
-2, ,34, ,
4, ,34, ,
4, ,33, ,
1, ,33, ,
-4, ,33, ,
1, ,33, ,
3, ,33, ,
1, ,34, ,
0, ,33, ,
4, ,33, ,
4, ,34, ,
3, ,33, ,
-2, ,34, ,
0, ,34, ,
3, ,34, ,
4, ,34, ,
-1, ,34, ,
5, ,33, ,
4, ,33, ,
3, ,34, ,
1, ,33, ,
1, ,33, ,
3, ,34, ,
3, ,33, ,
-1, ,34, ,
4, ,34, ,
4, ,34, ,
3, ,34, ,
-1, ,34, ,
3, ,33, ,
1, ,33, ,
3, ,34, ,
0, ,33, ,
1, ,33, ,
3, ,34, ,
6, ,33, ,
0, ,33, ,
1, ,34, ,
3, ,34, ,
3, ,34, ,
-2, ,34, ,
3, ,33, ,
3, ,34, ,
3, ,34, ,
0, ,33, ,
1, ,33, ,
3, ,34, ,
3, ,33, ,
-1, ,34, ,
1, ,34, ,
3, ,33, ,
1, ,34, ,
-2, ,34, ,
1, ,32, ,
3, ,33, ,
3, ,34, ,
-1, ,33, ,
3, ,33, ,
3, ,34, ,
4, ,33, ,
0, ,33, ,
3, ,34, ,
4, ,34, ,
3, ,34, ,
0, ,34, ,
4, ,33, ,
3, ,33, ,
1, ,33, ,
0, ,33, ,
3, ,33, ,
-2, ,34, ,
4, ,33, ,
0, ,33, ,
3, ,33, ,
4, ,33, ,
3, ,34, ,
-2, ,34, ,
3, ,32, ,
1, ,33, ,
1, ,33, ,
3, ,33, ,
3, ,33, ,
3, ,34, ,
3, ,33, ,
-2, ,34, ,
0, ,34, ,
1, ,34, ,
3, ,34, ,
0, ,34, ,
5, ,33, ,
3, ,33, ,
1, ,34, ,
1, ,33, ,
1, ,33, ,
1, ,34, ,
5, ,33, ,
0, ,34, ,
1, ,34, ,
3, ,34, ,
3, ,34, ,
-1, ,33, ,
1, ,33, ,
1, ,33, ,
1, ,34, ,
1, ,33, ,
4, ,33, ,
3, ,34, ,
5, ,33, ,
-1, ,33, ,
-1, ,33, ,
3, ,33, ,
1, ,34, ,
-1, ,34, ,
4, ,33, ,
1, ,33, ,
3, ,34, ,
0, ,33, ,
3, ,33, ,
3, ,34, ,
5, ,33, ,
-1, ,34, ,
4, ,34, ,
4, ,33, ,
3, ,33, ,
-1, ,34, ,
0, ,33, ,
1, ,33, ,
1, ,34, ,
0, ,33, ,
3, ,33, ,
4, ,34, ,
3, ,33, ,
-1, ,34, ,
0, ,34, ,
1, ,33, ,
1, ,34, ,
-1, ,34, ,
5, ,33, ,
4, ,33, ,
1, ,33, ,
0, ,33, ,
1, ,33, ,
3, ,34, ,
4, ,33, ,
-2, ,34, ,
5, ,34, ,
4, ,34, ,
1, ,34, ,
-1, ,34, ,
3, ,33, ,
3, ,33, ,
1, ,34, ,
1, ,34, ,
4, ,34, ,
3, ,34, ,
5, ,33, ,
1, ,33, ,
1, ,33, ,
3, ,33, ,
3, ,34, ,
-2, ,34, ,
4, ,33, ,
4, ,33, ,
3, ,33, ,
1, ,33, ,
1, ,33, ,
3, ,34, ,
5, ,33, ,
-2, ,33, ,
3, ,34, ,
4, ,34, ,
4, ,34, ,
-2, ,34, ,
3, ,33, ,
1, ,33, ,
3, ,34, ,
1, ,33, ,
4, ,33, ,
3, ,34, ,
5, ,33, ,
-1, ,34, ,
1, ,34, ,
3, ,34, ,
4, ,34, ,
0, ,34, ,
5, ,32, ,
4, ,33, ,
3, ,34, ,
1, ,33, ,
1, ,33, ,
3, ,34, ,
3, ,33, ,
-2, ,34, ,
3, ,33, ,
5, ,33, ,
4, ,33, ,
-1, ,34, ,
4, ,32, ,
1, ,33, ,
0, ,34, ,
0, ,34, ,
3, ,33, ,
4, ,34, ,
4, ,33, ,
0, ,33, ,
1, ,34, ,
3, ,34, ,
3, ,34, ,
-1, ,34, ,
3, ,32, ,
3, ,33, ,
1, ,34, ,
-2, ,33, ,
3, ,33, ,
1, ,34, ,
1, ,33, ,
-1, ,34, ,
1, ,34, ,
3, ,33, ,
3, ,33, ,
-1, ,34, ,
1, ,32, ,
0, ,33, ,
1, ,34, ,
0, ,33, ,
4, ,33, ,
1, ,34, ,
4, ,33, ,
-2, ,34, ,
0, ,34, ,
1, ,33, ,
0, ,33, ,
-1, ,34, ,
6, ,32, ,
3, ,33, ,
1, ,34, ,
1, ,34, ,
1, ,34, ,
0, ,34, ,
1, ,33, ,
-4, ,34, ,
3, ,34, ,
4, ,33, ,
3, ,33, ,
-2, ,34, ,
3, ,32, ,
1, ,33, ,
1, ,34, ,
1, ,33, ,
4, ,33, ,
1, ,34, ,
3, ,33, ,
-1, ,34, ,
1, ,34, ,
3, ,34, ,
3, ,34, ,
-2, ,34, ,
3, ,33, ,
1, ,33, ,
3, ,34, ,
1, ,33, ,
1, ,33, ,
3, ,34, ,
3, ,33, ,
0, ,33, ,
5, ,33, ,
4, ,33, ,
3, ,34, ,
-5, ,34, ,
3, ,33, ,
1, ,33, ,
0, ,33, ,
-1, ,33, ,
1, ,33, ,
4, ,34, ,
5, ,33, ,
-4, ,34, ,
0, ,34, ,
1, ,34, ,
1, ,34, ,
-2, ,33, ,
4, ,32, ,
1, ,33, ,
0, ,34, ,
0, ,33, ,
1, ,33, ,
0, ,34, ,
4, ,33, ,
-1, ,33, ,
1, ,34, ,
4, ,33, ,
4, ,33, ,
-2, ,34, ,
1, ,33, ,
1, ,34, ,
0, ,34, ,
1, ,34, ,
3, ,33, ,
3, ,34, ,
4, ,33, ,
-1, ,34, ,
1, ,34, ,
3, ,34, ,
3, ,34, ,
-2, ,34, ,
4, ,32, ,
3, ,33, ,
0, ,34, ,
-1, ,33, ,
0, ,33, ,
0, ,34, ,
3, ,34, ,
-1, ,34, ,
1, ,34, ,
4, ,33, ,
0, ,33, ,
0, ,34, ,
3, ,33, ,
0, ,33, ,
0, ,34, ,
0, ,33, ,
3, ,33, ,
3, ,34, ,
4, ,33, ,
-1, ,33, ,
0, ,34, ,
3, ,34, ,
3, ,34, ,
-1, ,34, ,
5, ,33, ,
4, ,33, ,
1, ,34, ,
-1, ,33, ,
3, ,33, ,
1, ,34, ,
3, ,33, ,
-2, ,33, ,
1, ,33, ,
4, ,33, ,
1, ,34, ,
-2, ,34, ,
1, ,33, ,
1, ,33, ,
1, ,33, ,
1, ,33, ,
3, ,33, ,
1, ,34, ,
3, ,33, ,
1, ,34, ,
1, ,34, ,
1, ,34, ,
-1, ,34, ,
-1, ,34, ,
5, ,32, ,
3, ,33, ,
1, ,34, ,
1, ,33, ,
1, ,33, ,
3, ,34, ,
4, ,34, ,
-2, ,34, ,
4, ,33, ,
5, ,33, ,
3, ,34, ,
0, ,34, ,
1, ,33, ,
4, ,34, ,
4, ,34, ,
1, ,34, ,
3, ,33, ,
3, ,34, ,
5, ,33, ,
-1, ,33, ,
1, ,34, ,
3, ,33, ,
3, ,33, ,
1, ,34, ,
5, ,32, ,
4, ,33, ,
3, ,34, ,
0, ,34, ,
1, ,34, ,
3, ,34, ,
5, ,34, ,
-2, ,33, ,
4, ,33, ,
3, ,33, ,
3, ,34, ,
-4, ,34, ,
1, ,33, ,
1, ,33, ,
1, ,34, ,
0, ,33, ,
3, ,33, ,
3, ,34, ,
1, ,33, ,
-2, ,34, ,
0, ,34, ,
3, ,34, ,
4, ,34, ,
-2, ,34, ,
5, ,33, ,
1, ,33, ,
3, ,34, ,
1, ,33, ,
1, ,33, ,
3, ,34, ,
3, ,33, ,
1, ,33, ,
4, ,34, ,
4, ,34, ,
1, ,34, ,
-1, ,34, ,
1, ,33, ,
0, ,33, ,
1, ,34, ,
0, ,33, ,
4, ,33, ,
3, ,34, ,
3, ,33, ,
-1, ,33, ,
0, ,34, ,
1, ,34, ,
3, ,34, ,
-1, ,34, ,
5, ,33, ,
4, ,33, ,
1, ,34, ,
0, ,33, ,
1, ,33, ,
3, ,34, ,
3, ,33, ,
-1, ,34, ,
1, ,34, ,
3, ,33, ,
1, ,34, ,
-2, ,34, ,
1, ,33, ,
1, ,34, ,
1, ,34, ,
0, ,33, ,
3, ,33, ,
1, ,33, ,
4, ,34, ,
-4, ,34, ,
1, ,34, ,
4, ,34, ,
4, ,34, ,
0, ,34, ,
4, ,32, ,
3, ,33, ,
3, ,34, ,
1, ,33, ,
1, ,33, ,
1, ,34, ,
3, ,33, ,
0, ,33, ,
3, ,33, ,
3, ,33, ,
1, ,34, ,
-2, ,34, ,
4, ,33, ,
3, ,33, ,
0, ,33, ,
0, ,33, ,
3, ,34, ,
3, ,34, ,
4, ,33, ,
0, ,33, ,
0, ,34, ,
3, ,34, ,
1, ,34, ,
-1, ,34, ,
3, ,33, ,
3, ,33, ,
3, ,34, ,
0, ,33, ,
3, ,33, ,
0, ,34, ,
4, ,33, ,
-1, ,33, ,
3, ,34, ,
4, ,33, ,
4, ,33, ,
-2, ,34, ,
3, ,33, ,
1, ,34, ,
0, ,34, ,
0, ,34, ,
3, ,33, ,
3, ,34, ,
5, ,33, ,
-2, ,33, ,
1, ,34, ,
4, ,33, ,
3, ,33, ,
0, ,34, ,
4, ,33, ,
3, ,33, ,
1, ,34, ,
-1, ,33, ,
1, ,33, ,
3, ,34, ,
4, ,33, ,
-1, ,34, ,
1, ,34, ,
4, ,34, ,
1, ,34, ,
-2, ,34, ,
1, ,33, ,
1, ,33, ,
1, ,34, ,
0, ,34, ,
3, ,34, ,
3, ,34, ,
3, ,33, ,
0, ,34, ,
1, ,34, ,
3, ,34, ,
4, ,34, ,
1, ,33, ,
4, ,32, ,
3, ,33, ,
3, ,34, ,
-1, ,33, ,
0, ,33, ,
1, ,34, ,
4, ,33, ,
-1, ,34, ,
1, ,34, ,
3, ,33, ,
4, ,34, ,
0, ,34, ,
1, ,33, ,
0, ,33, ,
3, ,33, ,
3, ,33, ,
3, ,33, ,
3, ,33, ,
5, ,33, ,
-1, ,34, ,
0, ,34, ,
3, ,34, ,
5, ,34, ,
0, ,34, ,
5, ,33, ,
4, ,33, ,
3, ,34, ,
0, ,33, ,
1, ,33, ,
4, ,34, ,
6, ,33, ,
0, ,34, ,
3, ,34, ,
4, ,33, ,
3, ,34, ,
-1, ,34, ,
3, ,33, ,
3, ,33, ,
1, ,33, ,
0, ,33, ,
3, ,33, ,
4, ,34, ,
4, ,33, ,
-1, ,34, ,
0, ,34, ,
3, ,34, ,
3, ,34, ,
-2, ,34, ,
4, ,33, ,
3, ,33, ,
4, ,34, ,
0, ,33, ,
1, ,33, ,
3, ,34, ,
6, ,33, ,
-1, ,34, ,
3, ,34, ,
4, ,33, ,
3, ,33, ,
0, ,34, ,
3, ,33, ,
3, ,33, ,
3, ,34, ,
0, ,33, ,
5, ,33, ,
3, ,34, ,
5, ,33, ,
-1, ,34, ,
1, ,34, ,
3, ,34, ,
3, ,34, ,
0, ,34, ,
4, ,33, ,
1, ,33, ,
4, ,34, ,
0, ,33, ,
0, ,33, ,
1, ,34, ,
3, ,33, ,
-1, ,34, ,
4, ,34, ,
5, ,33, ,
3, ,34, ,
-2, ,34, ,
3, ,32, ,
1, ,33, ,
1, ,34, ,
1, ,33, ,
5, ,33, ,
4, ,34, ,
5, ,33, ,
-1, ,34, ,
1, ,34, ,
4, ,34, ,
1, ,34, ,
-4, ,33, ,
4, ,33, ,
4, ,33, ,
1, ,34, ,
0, ,33, ,
1, ,33, ,
3, ,34, ,
5, ,33, ,
1, ,33, ,
3, ,33, ,
4, ,33, ,
3, ,34, ,
-2, ,34, ,
3, ,33, ,
1, ,33, ,
1, ,34, ,
1, ,33, ,
4, ,33, ,
1, ,34, ,
6, ,33, ,
-1, ,33, ,
1, ,34, ,
4, ,34, ,
1, ,34, ,
-2, ,34, ,
5, ,33, ,
3, ,33, ,
3, ,34, ,
3, ,33, ,
1, ,33, ,
0, ,34, ,
4, ,33, ,
0, ,34, ,
3, ,33, ,
4, ,33, ,
4, ,34, ,
-1, ,34, ,
3, ,33, ,
1, ,34, ,
1, ,34, ,
1, ,34, ,
3, ,33, ,
4, ,34, ,
5, ,33, ,
-1, ,34, ,
0, ,34, ,
1, ,33, ,
3, ,33, ,
-2, ,34, ,
4, ,32, ,
1, ,33, ,
1, ,34, ,
1, ,33, ,
1, ,33, ,
1, ,34, ,
5, ,33, ,
-4, ,34, ,
4, ,33, ,
5, ,33, ,
4, ,34, ,
-1, ,34, ,
1, ,33, ,
1, ,33, ,
4, ,34, ,
3, ,33, ,
3, ,33, ,
3, ,33, ,
4, ,33, ,
-1, ,34, ,
1, ,33, ,
3, ,33, ,
3, ,34, ,
-1, ,34, ,
4, ,33, ,
3, ,33, ,
1, ,34, ,
1, ,33, ,
1, ,33, ,
0, ,34, ,
3, ,33, ,
-1, ,34, ,
3, ,34, ,
5, ,33, ,
3, ,33, ,
0, ,34, ,
4, ,33, ,
1, ,34, ,
3, ,34, ,
-1, ,33, ,
4, ,33, ,
3, ,34, ,
5, ,33, ,
-1, ,33, ,
1, ,34, ,
3, ,34, ,
1, ,34, ,
0, ,34, ,
5, ,33, ,
3, ,33, ,
1, ,34, ,
0, ,33, ,
-1, ,33, ,
3, ,34, ,
4, ,33, ,
-2, ,34, ,
3, ,34, ,
4, ,33, ,
4, ,34, ,
0, ,34, ,
3, ,33, ,
1, ,33, ,
1, ,34, ,
3, ,33, ,
3, ,33, ,
3, ,34, ,
4, ,33, ,
-1, ,33, ,
0, ,33, ,
4, ,33, ,
3, ,34, ,
0, ,34, ,
3, ,33, ,
4, ,33, ,
4, ,34, ,
3, ,33, ,
1, ,33, ,
1, ,34, ,
4, ,33, ,
-1, ,33, ,
3, ,34, ,
4, ,34, ,
4, ,34, ,
-1, ,34, ,
1, ,33, ,
1, ,33, ,
1, ,34, ,
1, ,33, ,
3, ,33, ,
5, ,34, ,
8, ,33, ,
0, ,34, ,
1, ,34, ,
3, ,34, ,
4, ,34, ,
-1, ,33, ,
6, ,32, ,
4, ,33, ,
3, ,34, ,
1, ,33, ,
0, ,33, ,
0, ,34, ,
5, ,33, ,
-1, ,33, ,
3, ,33, ,
5, ,33, ,
3, ,34, ,
-1, ,34, ,
3, ,33, ,
1, ,33, ,
3, ,34, ,
1, ,33, ,
4, ,33, ,
4, ,34, ,
5, ,33, ,
0, ,33, ,
1, ,34, ,
3, ,34, ,
1, ,34, ,
-1, ,34, ,
4, ,32, ,
3, ,33, ,
1, ,34, ,
1, ,33, ,
1, ,33, ,
0, ,34, ,
1, ,33, ,
-1, ,33, ,
1, ,34, ,
4, ,33, ,
3, ,33, ,
-1, ,34, ,
1, ,33, ,
1, ,33, ,
3, ,34, ,
1, ,33, ,
4, ,33, ,
1, ,34, ,
4, ,33, ,
-1, ,33, ,
0, ,34, ,
4, ,34, ,
4, ,34, ,
-1, ,34, ,
5, ,33, ,
3, ,34, ,
3, ,34, ,
0, ,33, ,
1, ,33, ,
1, ,34, ,
4, ,33, ,
0, ,33, ,
3, ,33, ,
4, ,33, ,
4, ,33, ,
0, ,34, ,
3, ,33, ,
3, ,33, ,
4, ,34, ,
3, ,33, ,
6, ,33, ,
3, ,34, ,
5, ,33, ,
4, ,33, ,
1, ,34, ,
3, ,34, ,
1, ,34, ,
-2, ,34, ,
5, ,32, ,
3, ,33, ,
3, ,34, ,
3, ,33, ,
1, ,33, ,
1, ,34, ,
4, ,33, ,
-1, ,33, ,
1, ,34, ,
3, ,33, ,
4, ,33, ,
-5, ,34, ,
3, ,33, ,
3, ,33, ,
1, ,33, ,
0, ,33, ,
5, ,33, ,
3, ,34, ,
4, ,33, ,
-1, ,34, ,
1, ,34, ,
3, ,34, ,
3, ,34, ,
-1, ,34, ,
4, ,32, ,
1, ,33, ,
3, ,34, ,
1, ,34, ,
1, ,34, ,
1, ,34, ,
4, ,33, ,
-2, ,34, ,
3, ,34, ,
3, ,33, ,
1, ,33, ,
-1, ,34, ,
3, ,33, ,
3, ,33, ,
1, ,34, ,
1, ,33, ,
5, ,33, ,
4, ,34, ,
4, ,33, ,
-1, ,34, ,
1, ,34, ,
3, ,34, ,
3, ,34, ,
0, ,34, ,
5, ,32, ,
4, ,33, ,
3, ,34, ,
0, ,33, ,
3, ,33, ,
1, ,34, ,
4, ,33, ,
0, ,34, ,
3, ,34, ,
4, ,33, ,
3, ,33, ,
0, ,34, ,
1, ,33, ,
3, ,33, ,
4, ,34, ,
4, ,33, ,
4, ,33, ,
3, ,34, ,
4, ,33, ,
0, ,34, ,
1, ,34, ,
3, ,34, ,
1, ,34, ,
0, ,34, ,
5, ,33, ,
3, ,33, ,
1, ,34, ,
1, ,33, ,
1, ,33, ,
1, ,34, ,
6, ,33, ,
0, ,33, ,
5, ,33, ,
5, ,33, ,
4, ,34, ,
-2, ,34, ,
3, ,33, ,
3, ,33, ,
3, ,34, ,
0, ,33, ,
3, ,33, ,
3, ,34, ,
5, ,33, ,
-1, ,34, ,
1, ,34, ,
3, ,34, ,
3, ,34, ,
-2, ,34, ,
4, ,33, ,
3, ,33, ,
1, ,34, ,
0, ,33, ,
0, ,33, ,
1, ,33, ,
4, ,33, ,
-1, ,34, ,
1, ,34, ,
3, ,33, ,
1, ,34, ,
-1, ,34, ,
4, ,32, ,
1, ,33, ,
3, ,33, ,
1, ,33, ,
4, ,34, ,
4, ,34, ,
4, ,33, ,
1, ,34, ,
3, ,34, ,
3, ,33, ,
3, ,34, ,
-2, ,34, ,
5, ,32, ,
4, ,33, ,
1, ,34, ,
-2, ,33, ,
3, ,33, ,
1, ,34, ,
4, ,33, ,
0, ,34, ,
3, ,34, ,
4, ,33, ,
3, ,34, ,
0, ,34, ,
1, ,33, ,
3, ,33, ,
3, ,34, ,
1, ,33, ,
4, ,33, ,
3, ,34, ,
3, ,33, ,
-1, ,34, ,
3, ,34, ,
4, ,34, ,
4, ,34, ,
0, ,34, ,
4, ,33, ,
5, ,33, ,
5, ,34, ,
3, ,33, ,
1, ,33, ,
0, ,34, ,
4, ,33, ,
0, ,33, ,
3, ,34, ,
4, ,34, ,
4, ,34, ,
3, ,34, ,
4, ,33, ,
4, ,33, ,
3, ,33, ,
1, ,33, ,
4, ,34, ,
5, ,34, ,
5, ,33, ,
-1, ,34, ,
1, ,34, ,
4, ,34, ,
3, ,34, ,
-1, ,34, ,
6, ,32, ,
3, ,33, ,
1, ,34, ,
1, ,33, ,
1, ,33, ,
1, ,34, ,
3, ,33, ,
-4, ,34, ,
4, ,34, ,
5, ,33, ,
4, ,34, ,
0, ,34, ,
3, ,33, ,
4, ,33, ,
3, ,34, ,
1, ,33, ,
4, ,33, ,
1, ,34, ,
4, ,33, ,
0, ,33, ,
1, ,34, ,
5, ,34, ,
4, ,34, ,
0, ,34, ,
4, ,33, ,
4, ,33, ,
3, ,34, ,
3, ,33, ,
3, ,33, ,
4, ,34, ,
4, ,33, ,
-1, ,34, ,
4, ,34, ,
5, ,33, ,
4, ,33, ,
0, ,34, ,
3, ,33, ,
3, ,33, ,
3, ,34, ,
1, ,33, ,
3, ,33, ,
4, ,34, ,
5, ,33, ,
0, ,34, ,
1, ,34, ,
3, ,34, ,
3, ,34, ,
-2, ,33, ,
5, ,33, ,
3, ,33, ,
3, ,34, ,
0, ,33, ,
3, ,33, ,
4, ,34, ,
5, ,33, ,
1, ,33, ,
6, ,34, ,
6, ,34, ,
4, ,34, ,
0, ,34, ,
4, ,33, ,
1, ,33, ,
3, ,34, ,
4, ,33, ,
5, ,33, ,
5, ,34, ,
4, ,33, ,
0, ,34, ,
3, ,34, ,
4, ,34, ,
3, ,34, ,
0, ,34, ,
6, ,32, ,
4, ,33, ,
4, ,34, ,
0, ,33, ,
4, ,33, ,
1, ,34, ,
5, ,33, ,
1, ,34, ,
5, ,34, ,
6, ,34, ,
4, ,34, ,
0, ,34, ,
4, ,33, ,
0, ,33, ,
1, ,33, ,
1, ,33, ,
4, ,33, ,
4, ,34, ,
4, ,33, ,
-1, ,33, ,
1, ,34, ,
4, ,34, ,
4, ,34, ,
0, ,34, ,
4, ,33, ,
4, ,33, ,
3, ,34, ,
1, ,33, ,
3, ,33, ,
4, ,34, ,
5, ,33, ,
-1, ,33, ,
5, ,33, ,
5, ,33, ,
4, ,33, ,
-1, ,34, ,
3, ,33, ,
1, ,33, ,
1, ,34, ,
3, ,33, ,
4, ,33, ,
1, ,33, ,
5, ,33, ,
0, ,34, ,
1, ,34, ,
4, ,33, ,
4, ,34, ,
0, ,34, ,
6, ,32, ,
4, ,33, ,
3, ,34, ,
1, ,33, ,
1, ,33, ,
1, ,33, ,
4, ,33, ,
0, ,34, ,
3, ,34, ,
4, ,33, ,
1, ,34, ,
-1, ,34, ,
4, ,32, ,
3, ,33, ,
1, ,33, ,
1, ,33, ,
4, ,33, ,
4, ,34, ,
3, ,33, ,
0, ,34, ,
1, ,34, ,
3, ,34, ,
3, ,34, ,
0, ,34, ,
6, ,32, ,
3, ,33, ,
3, ,34, ,
0, ,33, ,
1, ,33, ,
1, ,34, ,
4, ,33, ,
-1, ,34, ,
3, ,34, ,
4, ,33, ,
1, ,34, ,
0, ,34, ,
3, ,33, ,
0, ,33, ,
1, ,34, ,
1, ,33, ,
4, ,33, ,
3, ,34, ,
5, ,33, ,
3, ,33, ,
3, ,34, ,
3, ,34, ,
3, ,34, ,
0, ,34, ,
5, ,33, ,
5, ,33, ,
3, ,34, ,
1, ,33, ,
3, ,33, ,
1, ,34, ,
5, ,33, ,
1, ,34, ,
3, ,34, ,
4, ,33, ,
3, ,33, ,
0, ,34, ,
4, ,33, ,
3, ,33, ,
3, ,34, ,
3, ,33, ,
3, ,33, ,
1, ,34, ,
3, ,33, ,
0, ,34, ,
1, ,34, ,
3, ,33, ,
1, ,33, ,
0, ,34, ,
5, ,32, ,
3, ,33, ,
1, ,34, ,
1, ,33, ,
3, ,33, ,
1, ,34, ,
3, ,33, ,
-1, ,34, ,
3, ,33, ,
4, ,33, ,
3, ,33, ,
-1, ,34, ,
4, ,33, ,
3, ,34, ,
3, ,34, ,
4, ,33, ,
4, ,33, ,
3, ,34, ,
5, ,33, ,
0, ,33, ,
1, ,34, ,
3, ,34, ,
3, ,34, ,
-2, ,34, ,
4, ,33, ,
1, ,34, ,
1, ,34, ,
3, ,33, ,
3, ,33, ,
3, ,34, ,
5, ,33, ,
0, ,34, ,
1, ,34, ,
3, ,33, ,
3, ,33, ,
-1, ,34, ,
4, ,33, ,
1, ,33, ,
3, ,34, ,
1, ,33, ,
4, ,33, ,
5, ,34, ,
5, ,33, ,
1, ,34, ,
3, ,34, ,
4, ,34, ,
3, ,34, ,
-1, ,33, ,
5, ,32, ,
4, ,33, ,
3, ,34, ,
3, ,33, ,
4, ,33, ,
3, ,34, ,
5, ,33, ,
1, ,34, ,
4, ,34, ,
5, ,33, ,
3, ,33, ,
-1, ,34, ,
3, ,33, ,
4, ,33, ,
3, ,34, ,
3, ,33, ,
4, ,33, ,
3, ,33, ,
5, ,34, ,
1, ,34, ,
3, ,34, ,
3, ,34, ,
3, ,34, ,
0, ,34, ,
6, ,32, ,
4, ,33, ,
3, ,34, ,
1, ,33, ,
1, ,33, ,
1, ,34, ,
6, ,33, ,
0, ,34, ,
4, ,33, ,
5, ,33, ,
4, ,33, ,
0, ,34, ,
1, ,33, ,
3, ,33, ,
4, ,34, ,
4, ,33, ,
4, ,33, ,
4, ,34, ,
4, ,33, ,
-1, ,34, ,
1, ,34, ,
4, ,34, ,
4, ,34, ,
3, ,34, ,
5, ,33, ,
1, ,33, ,
4, ,34, ,
4, ,33, ,
4, ,33, ,
3, ,34, ,
5, ,33, ,
-1, ,33, ,
4, ,33, ,
6, ,33, ,
4, ,34, ,
1, ,34, ,
3, ,33, ,
0, ,34, ,
3, ,34, ,
1, ,33, ,
3, ,33, ,
1, ,33, ,
4, ,33, ,
-1, ,33, ,
1, ,34, ,
3, ,34, ,
3, ,34, ,
0, ,34, ,
5, ,32, ,
4, ,33, ,
3, ,34, ,
1, ,33, ,
4, ,33, ,
1, ,33, ,
3, ,33, ,
0, ,34, ,
3, ,34, ,
4, ,33, ,
3, ,33, ,
0, ,34, ,
4, ,33, ,
4, ,33, ,
3, ,34, ,
0, ,33, ,
5, ,33, ,
4, ,34, ,
5, ,33, ,
1, ,33, ,
1, ,34, ,
3, ,34, ,
1, ,34, ,
0, ,34, ,
5, ,32, ,
4, ,33, ,
1, ,34, ,
3, ,33, ,
3, ,33, ,
4, ,34, ,
5, ,33, ,
0, ,34, ,
4, ,33, ,
5, ,33, ,
4, ,33, ,
0, ,34, ,
1, ,33, ,
3, ,33, ,
1, ,33, ,
1, ,33, ,
3, ,34, ,
3, ,34, ,
5, ,33, ,
-1, ,34, ,
1, ,34, ,
3, ,33, ,
3, ,34, ,
-2, ,34, ,
3, ,33, ,
4, ,33, ,
3, ,34, ,
0, ,33, ,
0, ,33, ,
1, ,34, ,
5, ,33, ,
-2, ,34, ,
4, ,33, ,
4, ,33, ,
1, ,34, ,
-2, ,34, ,
1, ,33, ,
0, ,33, ,
0, ,34, ,
0, ,33, ,
5, ,33, ,
1, ,34, ,
4, ,33, ,
0, ,33, ,
1, ,34, ,
3, ,34, ,
1, ,34, ,
-1, ,34, ,
5, ,33, ,
3, ,33, ,
1, ,34, ,
0, ,34, ,
1, ,34, ,
4, ,34, ,
4, ,33, ,
-1, ,33, ,
4, ,34, ,
5, ,33, ,
4, ,33, ,
1, ,34, ,
5, ,33, ,
1, ,33, ,
4, ,34, ,
