src/test_folder/switching30000084.CSV

Format,1.0B,
Memory Length,10000,Memory Length,10000,
IntpDistance,0,IntpDistance,0,
Trigger Address,4999,Trigger Address,4999,
Trigger Level,1.760E+00,Trigger Level,1.760E+00,
Source,CH1,Source,CH2,
Vertical Units,V,Vertical Units,V,
Vertical Units Div,0,Vertical Units Div,0,
Vertical Units Extend Div,16,Vertical Units Extend Div,16,
Label,,Label,,
Probe Type,0,Probe Type,0,
Probe Ratio,1.000e+01,Probe Ratio,1.000e+00,
Vertical Scale,2.000e-02,Vertical Scale,1.000e+00,
Vertical Position,-5.120e-02,Vertical Position,2.000e-01,
Horizontal Units,S,Horizontal Units,S,
Horizontal Scale,1.000E-01,Horizontal Scale,1.000E-01,
Horizontal Position,0.000E+00,Horizontal Position,0.000E+00,
Horizontal Mode,Roll Mode,Horizontal Mode,Roll Mode,
Display Last Dot Address,10000,Display Last Dot Address,10000,
Waveform Last Dot Address,0,Waveform Last Dot Address,0,
SincET Mode,Real Time,SincET Mode,Real Time,
Sampling Period,1.000e-04,Sampling Period,1.000e-04,
Horizontal Old Scale,1.000E-01,Horizontal Old Scale,1.000E-01,
Mode,Fast,Mode,Fast,
Firmware,V1.23,,Firmware,V1.23,,
4, ,50, ,
4, ,50, ,
-4, ,49, ,
1, ,49, ,
4, ,50, ,
3, ,50, ,
1, ,48, ,
3, ,49, ,
1, ,51, ,
-1, ,50, ,
3, ,49, ,
3, ,50, ,
0, ,49, ,
3, ,50, ,
3, ,50, ,
-1, ,50, ,
0, ,50, ,
4, ,50, ,
0, ,49, ,
1, ,49, ,
3, ,51, ,
3, ,50, ,
1, ,49, ,
-2, ,50, ,
1, ,50, ,
3, ,49, ,
0, ,50, ,
3, ,50, ,
5, ,49, ,
1, ,49, ,
1, ,50, ,
3, ,49, ,
3, ,50, ,
1, ,50, ,
5, ,51, ,
1, ,50, ,
1, ,50, ,
4, ,49, ,
-1, ,49, ,
5, ,49, ,
-1, ,50, ,
3, ,49, ,
1, ,50, ,
1, ,50, ,
3, ,49, ,
1, ,49, ,
3, ,50, ,
-2, ,50, ,
3, ,50, ,
-1, ,49, ,
3, ,49, ,
1, ,49, ,
0, ,50, ,
3, ,50, ,
3, ,50, ,
5, ,49, ,
1, ,50, ,
3, ,49, ,
3, ,50, ,
3, ,49, ,
-2, ,50, ,
3, ,51, ,
3, ,50, ,
4, ,50, ,
4, ,50, ,
3, ,48, ,
4, ,50, ,
-1, ,49, ,
3, ,50, ,
1, ,50, ,
3, ,49, ,
3, ,50, ,
4, ,48, ,
1, ,49, ,
3, ,50, ,
-2, ,50, ,
0, ,49, ,
-2, ,50, ,
3, ,50, ,
0, ,49, ,
3, ,49, ,
-4, ,49, ,
3, ,50, ,
1, ,50, ,
1, ,49, ,
1, ,49, ,
3, ,50, ,
4, ,50, ,
1, ,49, ,
3, ,50, ,
3, ,49, ,
1, ,49, ,
3, ,49, ,
3, ,49, ,
1, ,50, ,
1, ,50, ,
4, ,50, ,
1, ,50, ,
1, ,49, ,
-1, ,50, ,
1, ,50, ,
3, ,50, ,
1, ,50, ,
0, ,49, ,
3, ,49, ,
-4, ,50, ,
3, ,48, ,
6, ,49, ,
-1, ,50, ,
0, ,49, ,
3, ,50, ,
3, ,50, ,
-2, ,49, ,
3, ,50, ,
-2, ,50, ,
1, ,50, ,
0, ,50, ,
1, ,50, ,
1, ,51, ,
3, ,49, ,
4, ,50, ,
1, ,50, ,
1, ,50, ,
3, ,50, ,
3, ,50, ,
1, ,50, ,
-4, ,49, ,
0, ,50, ,
4, ,49, ,
4, ,49, ,
-1, ,50, ,
4, ,50, ,
-1, ,49, ,
0, ,50, ,
0, ,48, ,
3, ,49, ,
-2, ,51, ,
0, ,50, ,
-2, ,50, ,
4, ,50, ,
1, ,50, ,
1, ,48, ,
1, ,51, ,
0, ,50, ,
1, ,50, ,
4, ,50, ,
1, ,50, ,
4, ,51, ,
-4, ,49, ,
4, ,50, ,
-4, ,50, ,
1, ,50, ,
1, ,50, ,
1, ,50, ,
4, ,50, ,
3, ,50, ,
6, ,49, ,
3, ,50, ,
1, ,48, ,
3, ,51, ,
3, ,50, ,
4, ,50, ,
4, ,50, ,
3, ,50, ,
1, ,50, ,
1, ,49, ,
-2, ,50, ,
4, ,50, ,
0, ,50, ,
0, ,50, ,
1, ,49, ,
-2, ,50, ,
3, ,49, ,
3, ,49, ,
1, ,50, ,
0, ,50, ,
3, ,48, ,
-1, ,50, ,
1, ,49, ,
1, ,50, ,
1, ,50, ,
3, ,49, ,
4, ,50, ,
3, ,49, ,
1, ,50, ,
1, ,50, ,
1, ,50, ,
1, ,50, ,
0, ,50, ,
-2, ,50, ,
4, ,50, ,
4, ,49, ,
3, ,51, ,
4, ,50, ,
1, ,50, ,
0, ,50, ,
4, ,50, ,
4, ,50, ,
3, ,49, ,
3, ,50, ,
1, ,50, ,
1, ,49, ,
0, ,50, ,
4, ,50, ,
-2, ,49, ,
0, ,50, ,
0, ,50, ,
4, ,50, ,
3, ,50, ,
3, ,50, ,
-1, ,49, ,
3, ,48, ,
4, ,50, ,
3, ,49, ,
-1, ,50, ,
5, ,50, ,
-2, ,50, ,
0, ,50, ,
3, ,48, ,
1, ,50, ,
3, ,50, ,
5, ,50, ,
0, ,50, ,
1, ,50, ,
4, ,48, ,
1, ,49, ,
3, ,51, ,
3, ,50, ,
1, ,50, ,
-4, ,50, ,
-1, ,48, ,
3, ,51, ,
0, ,49, ,
1, ,50, ,
3, ,49, ,
1, ,50, ,
1, ,50, ,
4, ,50, ,
3, ,51, ,
3, ,50, ,
3, ,50, ,
-1, ,50, ,
3, ,50, ,
4, ,49, ,
1, ,50, ,
1, ,49, ,
4, ,49, ,
3, ,48, ,
3, ,50, ,
1, ,49, ,
1, ,50, ,
1, ,50, ,
4, ,49, ,
1, ,49, ,
0, ,50, ,
4, ,50, ,
3, ,49, ,
0, ,50, ,
1, ,50, ,
1, ,48, ,
3, ,50, ,
5, ,51, ,
4, ,50, ,
5, ,50, ,
-4, ,49, ,
1, ,49, ,
-1, ,50, ,
3, ,50, ,
1, ,50, ,
3, ,49, ,
1, ,49, ,
1, ,50, ,
1, ,50, ,
4, ,50, ,
0, ,50, ,
-2, ,49, ,
1, ,50, ,
0, ,50, ,
3, ,50, ,
4, ,49, ,
1, ,50, ,
5, ,50, ,
1, ,49, ,
1, ,48, ,
3, ,50, ,
-1, ,50, ,
3, ,50, ,
-4, ,50, ,
0, ,50, ,
3, ,50, ,
5, ,49, ,
4, ,50, ,
3, ,49, ,
3, ,49, ,
-1, ,50, ,
4, ,50, ,
1, ,49, ,
1, ,49, ,
3, ,50, ,
-1, ,49, ,
4, ,49, ,
3, ,50, ,
3, ,49, ,
0, ,49, ,
3, ,50, ,
-4, ,49, ,
1, ,49, ,
-1, ,49, ,
3, ,49, ,
1, ,49, ,
0, ,50, ,
0, ,49, ,
4, ,49, ,
1, ,50, ,
1, ,49, ,
-1, ,48, ,
3, ,50, ,
1, ,50, ,
3, ,50, ,
-2, ,49, ,
1, ,49, ,
-1, ,49, ,
1, ,50, ,
3, ,49, ,
-2, ,50, ,
1, ,50, ,
3, ,50, ,
3, ,48, ,
-1, ,50, ,
3, ,50, ,
-1, ,49, ,
3, ,49, ,
1, ,50, ,
3, ,50, ,
1, ,50, ,
-1, ,50, ,
-1, ,49, ,
3, ,49, ,
-1, ,50, ,
3, ,50, ,
1, ,50, ,
3, ,50, ,
-1, ,49, ,
4, ,50, ,
0, ,50, ,
1, ,49, ,
3, ,50, ,
4, ,49, ,
3, ,49, ,
4, ,49, ,
1, ,50, ,
1, ,50, ,
3, ,49, ,
4, ,50, ,
1, ,49, ,
1, ,50, ,
1, ,50, ,
-1, ,50, ,
1, ,49, ,
0, ,50, ,
3, ,49, ,
-1, ,49, ,
3, ,49, ,
0, ,50, ,
1, ,50, ,
4, ,49, ,
3, ,49, ,
1, ,50, ,
3, ,50, ,
1, ,48, ,
0, ,50, ,
3, ,50, ,
0, ,50, ,
3, ,50, ,
1, ,50, ,
8, ,50, ,
0, ,50, ,
1, ,50, ,
0, ,50, ,
3, ,50, ,
0, ,49, ,
1, ,50, ,
3, ,50, ,
4, ,50, ,
3, ,50, ,
-1, ,49, ,
1, ,49, ,
0, ,49, ,
3, ,50, ,
-1, ,49, ,
3, ,50, ,
-2, ,50, ,
3, ,50, ,
0, ,49, ,
1, ,50, ,
-1, ,49, ,
6, ,50, ,
3, ,49, ,
3, ,50, ,
1, ,50, ,
4, ,49, ,
-2, ,50, ,
1, ,50, ,
3, ,50, ,
3, ,48, ,
1, ,49, ,
0, ,50, ,
-1, ,49, ,
3, ,49, ,
-2, ,49, ,
3, ,50, ,
0, ,50, ,
3, ,50, ,
-1, ,49, ,
3, ,50, ,
-2, ,50, ,
3, ,50, ,
1, ,50, ,
4, ,49, ,
3, ,49, ,
0, ,50, ,
0, ,50, ,
3, ,49, ,
1, ,49, ,
1, ,50, ,
-2, ,49, ,
0, ,50, ,
0, ,50, ,
3, ,50, ,
4, ,50, ,
6, ,50, ,
1, ,49, ,
1, ,50, ,
3, ,49, ,
0, ,50, ,
1, ,49, ,
3, ,49, ,
4, ,49, ,
1, ,49, ,
1, ,50, ,
1, ,50, ,
1, ,50, ,
1, ,50, ,
4, ,49, ,
3, ,49, ,
3, ,49, ,
1, ,50, ,
3, ,50, ,
0, ,50, ,
-1, ,49, ,
3, ,49, ,
-1, ,49, ,
4, ,50, ,
-1, ,50, ,
0, ,50, ,
1, ,50, ,
0, ,50, ,
0, ,49, ,
3, ,50, ,
1, ,49, ,
1, ,50, ,
-2, ,49, ,
1, ,50, ,
-1, ,50, ,
3, ,50, ,
-1, ,50, ,
1, ,50, ,
-1, ,49, ,
1, ,50, ,
3, ,50, ,
3, ,49, ,
0, ,50, ,
5, ,49, ,
-1, ,49, ,
1, ,50, ,
-2, ,50, ,
4, ,50, ,
1, ,50, ,
1, ,49, ,
3, ,50, ,
4, ,50, ,
4, ,49, ,
1, ,49, ,
1, ,49, ,
-1, ,50, ,
0, ,50, ,
-1, ,50, ,
4, ,49, ,
3, ,50, ,
3, ,50, ,
0, ,49, ,
1, ,50, ,
-1, ,49, ,
1, ,49, ,
0, ,50, ,
3, ,49, ,
1, ,49, ,
0, ,50, ,
-2, ,49, ,
1, ,50, ,
3, ,49, ,
3, ,50, ,
0, ,50, ,
0, ,50, ,
4, ,50, ,
-1, ,50, ,
3, ,49, ,
1, ,50, ,
1, ,50, ,
3, ,50, ,
-2, ,49, ,
1, ,48, ,
3, ,50, ,
1, ,50, ,
1, ,50, ,
-1, ,50, ,
0, ,49, ,
3, ,48, ,
3, ,50, ,
1, ,49, ,
1, ,50, ,
1, ,49, ,
4, ,50, ,
-1, ,50, ,
3, ,50, ,
0, ,49, ,
3, ,50, ,
4, ,49, ,
4, ,50, ,
3, ,50, ,
4, ,50, ,
4, ,49, ,
5, ,50, ,
1, ,50, ,
-1, ,49, ,
3, ,50, ,
3, ,49, ,
-1, ,50, ,
0, ,50, ,
1, ,49, ,
0, ,50, ,
1, ,50, ,
-1, ,49, ,
1, ,50, ,
-2, ,50, ,
3, ,50, ,
-1, ,50, ,
1, ,50, ,
3, ,50, ,
1, ,51, ,
-1, ,49, ,
4, ,49, ,
1, ,50, ,
1, ,50, ,
4, ,49, ,
0, ,49, ,
1, ,49, ,
3, ,50, ,
1, ,49, ,
3, ,50, ,
3, ,50, ,
3, ,50, ,
3, ,50, ,
4, ,49, ,
4, ,49, ,
3, ,50, ,
0, ,48, ,
3, ,50, ,
1, ,50, ,
-1, ,49, ,
1, ,50, ,
1, ,48, ,
1, ,50, ,
1, ,49, ,
3, ,49, ,
5, ,49, ,
4, ,50, ,
0, ,50, ,
3, ,48, ,
4, ,49, ,
5, ,51, ,
0, ,50, ,
1, ,50, ,
3, ,49, ,
0, ,49, ,
5, ,50, ,
-1, ,49, ,
3, ,50, ,
1, ,49, ,
1, ,49, ,
-1, ,50, ,
3, ,49, ,
3, ,48, ,
4, ,49, ,
-1, ,50, ,
3, ,50, ,
-1, ,50, ,
5, ,50, ,
-1, ,49, ,
3, ,50, ,
3, ,49, ,
3, ,50, ,
3, ,50, ,
0, ,49, ,
4, ,51, ,
4, ,50, ,
3, ,50, ,
4, ,50, ,
1, ,49, ,
1, ,50, ,
4, ,50, ,
3, ,50, ,
1, ,50, ,
4, ,50, ,
1, ,48, ,
1, ,51, ,
4, ,49, ,
3, ,50, ,
1, ,50, ,
-2, ,48, ,
1, ,50, ,
1, ,49, ,
1, ,50, ,
-1, ,49, ,
5, ,49, ,
4, ,50, ,
3, ,50, ,
1, ,50, ,
4, ,50, ,
0, ,50, ,
-1, ,49, ,
-1, ,48, ,
3, ,50, ,
3, ,50, ,
3, ,50, ,
1, ,50, ,
1, ,50, ,
0, ,50, ,
3, ,50, ,
0, ,49, ,
1, ,50, ,
-2, ,49, ,
1, ,50, ,
3, ,50, ,
3, ,50, ,
1, ,50, ,
4, ,49, ,
-1, ,49, ,
1, ,49, ,
3, ,50, ,
1, ,50, ,
0, ,50, ,
1, ,49, ,
0, ,50, ,
1, ,50, ,
-2, ,50, ,
3, ,50, ,
1, ,50, ,
3, ,50, ,
3, ,50, ,
1, ,49, ,
3, ,50, ,
3, ,49, ,
1, ,50, ,
5, ,50, ,
3, ,50, ,
0, ,49, ,
4, ,48, ,
3, ,50, ,
3, ,49, ,
-4, ,50, ,
4, ,50, ,
0, ,50, ,
-2, ,49, ,
4, ,50, ,
-2, ,49, ,
3, ,49, ,
3, ,49, ,
1, ,50, ,
-4, ,50, ,
1, ,50, ,
3, ,49, ,
3, ,51, ,
-1, ,49, ,
4, ,50, ,
-1, ,50, ,
3, ,50, ,
4, ,50, ,
-2, ,50, ,
1, ,50, ,
0, ,49, ,
1, ,49, ,
1, ,50, ,
0, ,49, ,
1, ,51, ,
-1, ,50, ,
1, ,50, ,
0, ,50, ,
3, ,48, ,
1, ,49, ,
4, ,50, ,
-1, ,50, ,
5, ,50, ,
4, ,50, ,
-5, ,49, ,
1, ,49, ,
-2, ,49, ,
1, ,50, ,
-4, ,50, ,
1, ,49, ,
-4, ,50, ,
1, ,50, ,
1, ,48, ,
1, ,50, ,
1, ,50, ,
4, ,50, ,
-2, ,49, ,
0, ,50, ,
0, ,50, ,
4, ,50, ,
-1, ,49, ,
3, ,50, ,
-2, ,49, ,
3, ,49, ,
0, ,49, ,
3, ,50, ,
0, ,50, ,
3, ,50, ,
-4, ,49, ,
3, ,48, ,
0, ,51, ,
4, ,50, ,
-1, ,50, ,
1, ,50, ,
4, ,50, ,
-1, ,49, ,
3, ,49, ,
0, ,50, ,
1, ,49, ,
-2, ,50, ,
3, ,50, ,
0, ,50, ,
1, ,50, ,
-1, ,50, ,
1, ,50, ,
1, ,50, ,
3, ,49, ,
1, ,50, ,
1, ,50, ,
0, ,49, ,
1, ,49, ,
3, ,48, ,
4, ,50, ,
-1, ,49, ,
0, ,50, ,
3, ,50, ,
1, ,50, ,
-2, ,50, ,
3, ,48, ,
3, ,50, ,
3, ,49, ,
3, ,49, ,
4, ,49, ,
1, ,50, ,
1, ,50, ,
1, ,51, ,
0, ,50, ,
-2, ,49, ,
4, ,50, ,
3, ,50, ,
-1, ,49, ,
0, ,50, ,
0, ,49, ,
3, ,49, ,
-2, ,50, ,
3, ,50, ,
1, ,48, ,
0, ,49, ,
1, ,51, ,
-4, ,50, ,
3, ,50, ,
4, ,50, ,
-1, ,50, ,
3, ,49, ,
-1, ,49, ,
1, ,49, ,
5, ,50, ,
4, ,50, ,
0, ,50, ,
1, ,49, ,
0, ,50, ,
-4, ,49, ,
1, ,49, ,
-1, ,49, ,
3, ,50, ,
1, ,50, ,
1, ,50, ,
-1, ,50, ,
1, ,49, ,
4, ,48, ,
3, ,50, ,
3, ,49, ,
5, ,49, ,
1, ,50, ,
5, ,50, ,
3, ,50, ,
4, ,51, ,
3, ,49, ,
5, ,50, ,
0, ,50, ,
-2, ,49, ,
3, ,49, ,
-2, ,50, ,
1, ,49, ,
-1, ,50, ,
1, ,50, ,
0, ,50, ,
1, ,48, ,
-1, ,50, ,
1, ,50, ,
0, ,50, ,
3, ,50, ,
-1, ,50, ,
3, ,50, ,
1, ,49, ,
4, ,50, ,
-1, ,49, ,
3, ,49, ,
1, ,50, ,
3, ,50, ,
4, ,50, ,
4, ,50, ,
-2, ,50, ,
3, ,50, ,
3, ,50, ,
0, ,50, ,
-2, ,50, ,
4, ,49, ,
-1, ,50, ,
1, ,49, ,
3, ,50, ,
-1, ,50, ,
1, ,49, ,
-1, ,50, ,
3, ,50, ,
0, ,50, ,
0, ,50, ,
3, ,50, ,
3, ,51, ,
1, ,50, ,
-2, ,49, ,
3, ,50, ,
1, ,50, ,
1, ,49, ,
4, ,51, ,
-1, ,50, ,
1, ,50, ,
1, ,50, ,
3, ,50, ,
-4, ,50, ,
0, ,50, ,
3, ,50, ,
1, ,50, ,
1, ,50, ,
0, ,50, ,
-2, ,49, ,
3, ,50, ,
0, ,50, ,
4, ,50, ,
0, ,49, ,
4, ,50, ,
0, ,49, ,
4, ,50, ,
-2, ,50, ,
3, ,50, ,
3, ,50, ,
-1, ,50, ,
4, ,50, ,
0, ,48, ,
4, ,50, ,
4, ,49, ,
1, ,49, ,
0, ,50, ,
1, ,50, ,
5, ,50, ,
4, ,50, ,
0, ,49, ,
1, ,50, ,
-2, ,50, ,
1, ,50, ,
0, ,48, ,
1, ,50, ,
1, ,49, ,
4, ,50, ,
3, ,50, ,
1, ,50, ,
3, ,49, ,
4, ,49, ,
1, ,49, ,
1, ,50, ,
3, ,50, ,
-1, ,50, ,
1, ,49, ,
0, ,50, ,
1, ,49, ,
0, ,49, ,
5, ,50, ,
4, ,50, ,
3, ,49, ,
3, ,50, ,
4, ,49, ,
1, ,49, ,
3, ,50, ,
3, ,50, ,
4, ,49, ,
-2, ,49, ,
4, ,50, ,
0, ,50, ,
1, ,49, ,
-1, ,50, ,
3, ,48, ,
5, ,50, ,
-1, ,50, ,
3, ,49, ,
1, ,49, ,
1, ,50, ,
6, ,48, ,
-2, ,49, ,
1, ,49, ,
3, ,49, ,
0, ,49, ,
1, ,49, ,
0, ,50, ,
3, ,49, ,
1, ,50, ,
0, ,50, ,
1, ,49, ,
0, ,50, ,
-1, ,50, ,
3, ,49, ,
3, ,50, ,
0, ,49, ,
3, ,50, ,
4, ,50, ,
3, ,50, ,
3, ,50, ,
4, ,50, ,
0, ,48, ,
5, ,51, ,
3, ,50, ,
0, ,49, ,
-2, ,50, ,
1, ,50, ,
1, ,50, ,
1, ,50, ,
5, ,50, ,
1, ,50, ,
-2, ,50, ,
3, ,50, ,
1, ,49, ,
3, ,51, ,
3, ,50, ,
1, ,50, ,
4, ,50, ,
0, ,50, ,
4, ,49, ,
3, ,49, ,
3, ,50, ,
1, ,50, ,
1, ,49, ,
-4, ,50, ,
1, ,49, ,
-4, ,50, ,
1, ,50, ,
0, ,49, ,
0, ,50, ,
3, ,50, ,
1, ,49, ,
4, ,50, ,
4, ,49, ,
1, ,49, ,
3, ,48, ,
0, ,50, ,
4, ,49, ,
-2, ,50, ,
1, ,50, ,
0, ,49, ,
3, ,50, ,
-1, ,49, ,
1, ,51, ,
-1, ,50, ,
0, ,50, ,
0, ,49, ,
4, ,48, ,
0, ,50, ,
4, ,49, ,
3, ,50, ,
0, ,50, ,
1, ,49, ,
3, ,50, ,
1, ,50, ,
4, ,50, ,
3, ,50, ,
0, ,49, ,
3, ,49, ,
3, ,49, ,
3, ,50, ,
3, ,50, ,
3, ,48, ,
0, ,49, ,
5, ,49, ,
5, ,49, ,
3, ,50, ,
4, ,50, ,
0, ,48, ,
3, ,51, ,
4, ,49, ,
3, ,50, ,
4, ,49, ,
3, ,49, ,
4, ,50, ,
1, ,49, ,
3, ,50, ,
4, ,50, ,
0, ,49, ,
-2, ,49, ,
3, ,50, ,
0, ,49, ,
3, ,50, ,
1, ,50, ,
3, ,50, ,
-1, ,49, ,
3, ,50, ,
-1, ,50, ,
1, ,49, ,
0, ,49, ,
-1, ,50, ,
3, ,50, ,
4, ,50, ,
3, ,49, ,
0, ,49, ,
3, ,50, ,
0, ,49, ,
4, ,50, ,
1, ,50, ,
1, ,50, ,
0, ,49, ,
1, ,48, ,
4, ,50, ,
0, ,50, ,
3, ,49, ,
0, ,49, ,
1, ,50, ,
-1, ,50, ,
4, ,50, ,
0, ,49, ,
3, ,51, ,
0, ,50, ,
0, ,49, ,
-1, ,50, ,
4, ,50, ,
0, ,50, ,
5, ,49, ,
-1, ,48, ,
1, ,50, ,
5, ,50, ,
1, ,49, ,
1, ,50, ,
0, ,49, ,
1, ,50, ,
-1, ,48, ,
3, ,49, ,
0, ,50, ,
0, ,50, ,
-2, ,50, ,
1, ,49, ,
6, ,50, ,
1, ,50, ,
1, ,50, ,
1, ,50, ,
-1, ,50, ,
1, ,49, ,
3, ,50, ,
5, ,49, ,
0, ,49, ,
1, ,49, ,
3, ,50, ,
3, ,50, ,
1, ,50, ,
3, ,49, ,
-1, ,50, ,
4, ,50, ,
1, ,48, ,
3, ,48, ,
-2, ,50, ,
1, ,50, ,
1, ,50, ,
1, ,49, ,
0, ,50, ,
1, ,49, ,
4, ,50, ,
3, ,50, ,
3, ,50, ,
3, ,49, ,
3, ,50, ,
1, ,49, ,
3, ,50, ,
3, ,50, ,
0, ,49, ,
5, ,49, ,
0, ,51, ,
1, ,50, ,
1, ,50, ,
1, ,50, ,
4, ,49, ,
5, ,51, ,
-2, ,49, ,
0, ,50, ,
1, ,50, ,
3, ,50, ,
-1, ,50, ,
4, ,49, ,
-1, ,49, ,
3, ,50, ,
1, ,50, ,
-2, ,50, ,
-1, ,49, ,
0, ,49, ,
1, ,49, ,
-2, ,50, ,
3, ,50, ,
0, ,50, ,
5, ,48, ,
3, ,49, ,
1, ,50, ,
3, ,50, ,
3, ,49, ,
0, ,50, ,
-2, ,49, ,
3, ,50, ,
1, ,50, ,
0, ,50, ,
4, ,50, ,
1, ,49, ,
-2, ,50, ,
1, ,49, ,
3, ,50, ,
1, ,50, ,
0, ,50, ,
-2, ,50, ,
0, ,49, ,
0, ,50, ,
3, ,49, ,
0, ,50, ,
1, ,49, ,
1, ,50, ,
-1, ,50, ,
4, ,49, ,
3, ,49, ,
1, ,49, ,
1, ,50, ,
-1, ,50, ,
3, ,49, ,
3, ,50, ,
4, ,49, ,
3, ,50, ,
5, ,50, ,
1, ,50, ,
0, ,48, ,
1, ,50, ,
0, ,50, ,
1, ,49, ,
-1, ,50, ,
-1, ,49, ,
1, ,50, ,
3, ,50, ,
-1, ,50, ,
-1, ,50, ,
5, ,49, ,
3, ,50, ,
-1, ,50, ,
-1, ,49, ,
1, ,50, ,
1, ,50, ,
3, ,50, ,
3, ,50, ,
4, ,49, ,
-2, ,49, ,
0, ,49, ,
1, ,49, ,
1, ,50, ,
-1, ,50, ,
3, ,49, ,
0, ,49, ,
1, ,49, ,
1, ,50, ,
0, ,49, ,
4, ,50, ,
0, ,50, ,
0, ,49, ,
-2, ,49, ,
1, ,50, ,
-1, ,50, ,
3, ,50, ,
0, ,50, ,
0, ,49, ,
4, ,50, ,
5, ,50, ,
1, ,49, ,
4, ,50, ,
1, ,50, ,
1, ,50, ,
3, ,48, ,
1, ,50, ,
1, ,49, ,
0, ,50, ,
3, ,50, ,
3, ,50, ,
3, ,49, ,
-1, ,49, ,
0, ,51, ,
1, ,50, ,
1, ,49, ,
3, ,50, ,
-1, ,50, ,
-1, ,49, ,
3, ,50, ,
3, ,50, ,
1, ,49, ,
1, ,50, ,
4, ,50, ,
0, ,49, ,
-1, ,50, ,
1, ,50, ,
0, ,49, ,
5, ,49, ,
-1, ,50, ,
4, ,50, ,
0, ,50, ,
3, ,49, ,
4, ,50, ,
0, ,49, ,
0, ,50, ,
0, ,50, ,
1, ,51, ,
-2, ,50, ,
0, ,50, ,
-1, ,50, ,
1, ,50, ,
3, ,50, ,
5, ,51, ,
4, ,50, ,
4, ,50, ,
4, ,50, ,
-2, ,48, ,
1, ,50, ,
-1, ,49, ,
0, ,49, ,
-1, ,50, ,
3, ,50, ,
1, ,48, ,
0, ,49, ,
1, ,51, ,
-1, ,50, ,
-1, ,50, ,
1, ,50, ,
0, ,49, ,
3, ,49, ,
0, ,49, ,
3, ,50, ,
3, ,49, ,
0, ,50, ,
1, ,50, ,
0, ,50, ,
3, ,49, ,
3, ,50, ,
-1, ,49, ,
1, ,50, ,
3, ,50, ,
1, ,50, ,
1, ,50, ,
1, ,50, ,
5, ,50, ,
1, ,50, ,
0, ,50, ,
-1, ,50, ,
4, ,49, ,
3, ,50, ,
4, ,50, ,
3, ,50, ,
-1, ,50, ,
-2, ,50, ,
3, ,48, ,
3, ,49, ,
4, ,50, ,
3, ,50, ,
-1, ,50, ,
1, ,50, ,
-2, ,49, ,
3, ,49, ,
-2, ,50, ,
1, ,50, ,
0, ,50, ,
1, ,49, ,
3, ,50, ,
-4, ,50, ,
4, ,50, ,
1, ,50, ,
3, ,50, ,
-1, ,48, ,
1, ,49, ,
-2, ,49, ,
3, ,50, ,
-1, ,50, ,
3, ,49, ,
4, ,49, ,
1, ,49, ,
4, ,50, ,
0, ,49, ,
3, ,50, ,
3, ,50, ,
3, ,50, ,
0, ,50, ,
3, ,49, ,
0, ,49, ,
1, ,50, ,
3, ,48, ,
3, ,50, ,
1, ,49, ,
4, ,49, ,
3, ,50, ,
3, ,50, ,
-1, ,50, ,
0, ,49, ,
0, ,49, ,
1, ,49, ,
0, ,50, ,
0, ,50, ,
-2, ,48, ,
3, ,50, ,
1, ,50, ,
0, ,50, ,
4, ,50, ,
4, ,50, ,
1, ,49, ,
3, ,50, ,
1, ,49, ,
3, ,50, ,
3, ,50, ,
-1, ,50, ,
4, ,49, ,
1, ,50, ,
3, ,50, ,
-2, ,49, ,
3, ,49, ,
0, ,49, ,
3, ,50, ,
1, ,50, ,
0, ,50, ,
4, ,49, ,
-2, ,49, ,
3, ,50, ,
5, ,49, ,
3, ,50, ,
1, ,50, ,
1, ,50, ,
3, ,50, ,
0, ,48, ,
0, ,50, ,
4, ,49, ,
1, ,50, ,
3, ,49, ,
4, ,50, ,
-1, ,48, ,
3, ,50, ,
1, ,51, ,
-2, ,50, ,
3, ,50, ,
-2, ,49, ,
4, ,50, ,
0, ,50, ,
1, ,49, ,
-1, ,50, ,
3, ,50, ,
-2, ,49, ,
3, ,49, ,
-2, ,50, ,
4, ,51, ,
3, ,49, ,
3, ,49, ,
-1, ,50, ,
1, ,48, ,
1, ,50, ,
1, ,49, ,
3, ,50, ,
5, ,50, ,
-2, ,49, ,
0, ,50, ,
3, ,50, ,
1, ,49, ,
4, ,50, ,
3, ,49, ,
3, ,49, ,
3, ,49, ,
0, ,50, ,
4, ,50, ,
-1, ,49, ,
1, ,50, ,
5, ,49, ,
-1, ,50, ,
3, ,49, ,
3, ,49, ,
1, ,50, ,
-1, ,49, ,
1, ,50, ,
1, ,49, ,
1, ,50, ,
-1, ,49, ,
3, ,50, ,
1, ,51, ,
1, ,50, ,
3, ,49, ,
3, ,50, ,
-1, ,50, ,
3, ,48, ,
4, ,49, ,
-2, ,50, ,
3, ,49, ,
1, ,50, ,
-1, ,50, ,
3, ,50, ,
0, ,50, ,
3, ,50, ,
0, ,50, ,
4, ,49, ,
1, ,50, ,
1, ,50, ,
1, ,49, ,
1, ,50, ,
3, ,50, ,
-1, ,50, ,
1, ,49, ,
0, ,50, ,
1, ,49, ,
-1, ,51, ,
3, ,50, ,
5, ,50, ,
3, ,50, ,
3, ,50, ,
4, ,49, ,
1, ,50, ,
-1, ,50, ,
3, ,50, ,
0, ,49, ,
3, ,50, ,
-2, ,49, ,
3, ,50, ,
-1, ,49, ,
3, ,50, ,
1, ,49, ,
3, ,48, ,
-1, ,49, ,
1, ,49, ,
-1, ,49, ,
0, ,50, ,
-1, ,50, ,
4, ,50, ,
-2, ,49, ,
1, ,50, ,
-1, ,50, ,
0, ,50, ,
-1, ,50, ,
3, ,50, ,
1, ,49, ,
-1, ,51, ,
1, ,50, ,
1, ,50, ,
4, ,49, ,
-2, ,50, ,
4, ,49, ,
1, ,49, ,
1, ,49, ,
3, ,50, ,
-1, ,50, ,
1, ,49, ,
1, ,50, ,
3, ,49, ,
1, ,50, ,
1, ,49, ,
4, ,50, ,
3, ,49, ,
1, ,50, ,
1, ,50, ,
0, ,49, ,
3, ,50, ,
3, ,50, ,
1, ,49, ,
3, ,49, ,
5, ,49, ,
1, ,50, ,
0, ,49, ,
-1, ,50, ,
0, ,49, ,
3, ,50, ,
1, ,50, ,
1, ,51, ,
3, ,49, ,
3, ,49, ,
1, ,50, ,
4, ,49, ,
1, ,49, ,
1, ,50, ,
4, ,50, ,
3, ,50, ,
1, ,50, ,
3, ,50, ,
-4, ,49, ,
1, ,50, ,
-2, ,50, ,
1, ,50, ,
0, ,50, ,
1, ,50, ,
-1, ,49, ,
3, ,48, ,
-4, ,50, ,
1, ,50, ,
1, ,50, ,
-2, ,50, ,
1, ,51, ,
-1, ,50, ,
3, ,49, ,
0, ,50, ,
1, ,50, ,
3, ,50, ,
1, ,49, ,
4, ,50, ,
0, ,50, ,
0, ,49, ,
5, ,50, ,
1, ,50, ,
-1, ,49, ,
3, ,50, ,
-1, ,49, ,
1, ,50, ,
-1, ,50, ,
1, ,50, ,
-2, ,51, ,
1, ,50, ,
0, ,50, ,
4, ,49, ,
-2, ,50, ,
0, ,50, ,
0, ,50, ,
-1, ,50, ,
4, ,50, ,
-2, ,50, ,
3, ,49, ,
4, ,49, ,
0, ,49, ,
-1, ,50, ,
0, ,49, ,
1, ,49, ,
3, ,50, ,
0, ,49, ,
3, ,50, ,
4, ,50, ,
0, ,50, ,
4, ,49, ,
-1, ,50, ,
1, ,50, ,
-4, ,50, ,
1, ,49, ,
1, ,50, ,
1, ,50, ,
4, ,50, ,
-4, ,50, ,
3, ,50, ,
0, ,50, ,
1, ,50, ,
-4, ,50, ,
-1, ,49, ,
-1, ,49, ,
1, ,49, ,
4, ,50, ,
3, ,48, ,
-2, ,49, ,
1, ,49, ,
-1, ,50, ,
1, ,50, ,
0, ,50, ,
0, ,50, ,
-1, ,50, ,
3, ,49, ,
4, ,49, ,
1, ,50, ,
3, ,50, ,
0, ,50, ,
1, ,49, ,
1, ,50, ,
-4, ,50, ,
1, ,48, ,
-1, ,50, ,
3, ,49, ,
-1, ,49, ,
1, ,50, ,
0, ,50, ,
3, ,50, ,
-2, ,49, ,
1, ,51, ,
1, ,50, ,
3, ,49, ,
4, ,50, ,
-1, ,49, ,
1, ,49, ,
-1, ,50, ,
1, ,50, ,
3, ,49, ,
-2, ,50, ,
5, ,50, ,
1, ,50, ,
3, ,50, ,
0, ,49, ,
4, ,51, ,
1, ,49, ,
3, ,50, ,
0, ,50, ,
0, ,49, ,
3, ,49, ,
1, ,50, ,
3, ,50, ,
1, ,50, ,
1, ,49, ,
4, ,50, ,
3, ,50, ,
1, ,50, ,
1, ,50, ,
0, ,49, ,
5, ,49, ,
-2, ,50, ,
4, ,50, ,
-1, ,50, ,
1, ,49, ,
-1, ,50, ,
5, ,49, ,
-4, ,49, ,
3, ,50, ,
1, ,49, ,
3, ,50, ,
1, ,49, ,
1, ,49, ,
0, ,50, ,
1, ,50, ,
1, ,49, ,
1, ,50, ,
-2, ,50, ,
3, ,49, ,
-1, ,51, ,
0, ,50, ,
1, ,50, ,
1, ,50, ,
-1, ,50, ,
4, ,49, ,
0, ,51, ,
-1, ,51, ,
1, ,49, ,
3, ,50, ,
4, ,50, ,
1, ,50, ,
0, ,49, ,
-1, ,50, ,
1, ,50, ,
-1, ,50, ,
3, ,50, ,
1, ,50, ,
3, ,49, ,
1, ,50, ,
3, ,50, ,
3, ,49, ,
1, ,50, ,
3, ,50, ,
3, ,50, ,
0, ,50, ,
3, ,50, ,
0, ,49, ,
0, ,50, ,
0, ,50, ,
0, ,50, ,
1, ,48, ,
5, ,50, ,
3, ,49, ,
3, ,50, ,
1, ,50, ,
3, ,50, ,
3, ,50, ,
3, ,50, ,
4, ,49, ,
1, ,49, ,
3, ,50, ,
-1, ,50, ,
3, ,48, ,
3, ,50, ,
-4, ,50, ,
3, ,50, ,
0, ,50, ,
3, ,50, ,
3, ,50, ,
1, ,49, ,
0, ,50, ,
1, ,50, ,
-1, ,49, ,
3, ,50, ,
-1, ,50, ,
3, ,49, ,
0, ,50, ,
3, ,49, ,
-1, ,49, ,
0, ,49, ,
0, ,50, ,
1, ,49, ,
1, ,50, ,
1, ,50, ,
4, ,49, ,
3, ,49, ,
1, ,50, ,
1, ,50, ,
1, ,50, ,
1, ,50, ,
4, ,49, ,
3, ,50, ,
-4, ,50, ,
3, ,49, ,
-1, ,49, ,
1, ,50, ,
0, ,50, ,
0, ,50, ,
3, ,49, ,
0, ,51, ,
3, ,50, ,
1, ,50, ,
0, ,50, ,
-2, ,50, ,
1, ,50, ,
3, ,51, ,
4, ,50, ,
-1, ,50, ,
-2, ,50, ,
3, ,51, ,
1, ,49, ,
1, ,49, ,
3, ,50, ,
-2, ,50, ,
4, ,50, ,
-1, ,48, ,
0, ,51, ,
-1, ,50, ,
3, ,50, ,
4, ,50, ,
1, ,50, ,
1, ,48, ,
3, ,50, ,
-1, ,49, ,
-2, ,49, ,
4, ,49, ,
1, ,50, ,
-1, ,48, ,
-1, ,50, ,
4, ,49, ,
4, ,49, ,
-2, ,50, ,
0, ,50, ,
3, ,50, ,
1, ,51, ,
3, ,50, ,
3, ,49, ,
3, ,50, ,
-1, ,50, ,
-1, ,48, ,
1, ,51, ,
4, ,50, ,
-1, ,50, ,
1, ,49, ,
4, ,50, ,
0, ,49, ,
0, ,50, ,
1, ,50, ,
1, ,50, ,
0, ,50, ,
0, ,48, ,
4, ,50, ,
5, ,49, ,
-2, ,50, ,
0, ,50, ,
4, ,49, ,
1, ,49, ,
3, ,50, ,
0, ,50, ,
0, ,50, ,
-2, ,49, ,
3, ,50, ,
3, ,49, ,
4, ,50, ,
0, ,50, ,
3, ,49, ,
-4, ,51, ,
3, ,49, ,
3, ,50, ,
-2, ,49, ,
3, ,50, ,
0, ,49, ,
3, ,49, ,
4, ,50, ,
-1, ,50, ,
3, ,49, ,
3, ,50, ,
3, ,50, ,
3, ,50, ,
0, ,51, ,
4, ,50, ,
3, ,50, ,
1, ,50, ,
1, ,50, ,
-2, ,50, ,
5, ,50, ,
1, ,49, ,
3, ,50, ,
1, ,49, ,
1, ,50, ,
3, ,50, ,
5, ,50, ,
0, ,50, ,
-2, ,49, ,
3, ,50, ,
0, ,50, ,
1, ,50, ,
0, ,49, ,
3, ,50, ,
-1, ,50, ,
1, ,50, ,
-1, ,50, ,
4, ,50, ,
3, ,50, ,
1, ,50, ,
0, ,48, ,
0, ,50, ,
1, ,49, ,
4, ,50, ,
3, ,50, ,
-2, ,50, ,
3, ,48, ,
1, ,49, ,
0, ,49, ,
0, ,50, ,
-1, ,50, ,
5, ,50, ,
3, ,49, ,
1, ,49, ,
4, ,49, ,
-1, ,50, ,
3, ,50, ,
