src/test_folder/switching30000027.CSV

Format,1.0B,
Memory Length,10000,Memory Length,10000,
IntpDistance,0,IntpDistance,0,
Trigger Address,4999,Trigger Address,4999,
Trigger Level,1.760E+00,Trigger Level,1.760E+00,
Source,CH1,Source,CH2,
Vertical Units,V,Vertical Units,V,
Vertical Units Div,0,Vertical Units Div,0,
Vertical Units Extend Div,16,Vertical Units Extend Div,16,
Label,,Label,,
Probe Type,0,Probe Type,0,
Probe Ratio,1.000e+01,Probe Ratio,1.000e+00,
Vertical Scale,2.000e-02,Vertical Scale,1.000e+00,
Vertical Position,-5.120e-02,Vertical Position,2.000e-01,
Horizontal Units,S,Horizontal Units,S,
Horizontal Scale,1.000E-01,Horizontal Scale,1.000E-01,
Horizontal Position,0.000E+00,Horizontal Position,0.000E+00,
Horizontal Mode,Roll Mode,Horizontal Mode,Roll Mode,
Display Last Dot Address,10000,Display Last Dot Address,10000,
Waveform Last Dot Address,0,Waveform Last Dot Address,0,
SincET Mode,Real Time,SincET Mode,Real Time,
Sampling Period,1.000e-04,Sampling Period,1.000e-04,
Horizontal Old Scale,1.000E-01,Horizontal Old Scale,1.000E-01,
Mode,Fast,Mode,Fast,
Firmware,V1.23,,Firmware,V1.23,,
0, ,50, ,
3, ,50, ,
0, ,50, ,
3, ,49, ,
3, ,50, ,
5, ,50, ,
3, ,51, ,
4, ,50, ,
-1, ,49, ,
4, ,50, ,
0, ,48, ,
1, ,49, ,
1, ,49, ,
3, ,50, ,
-2, ,49, ,
4, ,50, ,
-1, ,49, ,
4, ,50, ,
1, ,50, ,
-1, ,50, ,
3, ,50, ,
-2, ,50, ,
1, ,50, ,
1, ,49, ,
1, ,50, ,
4, ,50, ,
0, ,51, ,
3, ,50, ,
1, ,49, ,
-2, ,50, ,
1, ,50, ,
3, ,49, ,
1, ,49, ,
-2, ,50, ,
0, ,49, ,
3, ,50, ,
1, ,48, ,
3, ,49, ,
-2, ,49, ,
0, ,50, ,
-1, ,49, ,
0, ,-43, ,
-1, ,-42, ,
4, ,-43, ,
1, ,-43, ,
5, ,-43, ,
-5, ,-43, ,
0, ,-43, ,
0, ,-43, ,
3, ,-43, ,
0, ,-44, ,
1, ,-44, ,
4, ,-43, ,
0, ,-43, ,
1, ,-44, ,
0, ,-43, ,
3, ,-43, ,
1, ,-43, ,
3, ,-43, ,
4, ,-43, ,
1, ,-43, ,
4, ,-43, ,
-1, ,-44, ,
3, ,-43, ,
-1, ,-44, ,
3, ,-44, ,
1, ,-43, ,
3, ,-43, ,
1, ,-44, ,
1, ,-43, ,
3, ,-43, ,
5, ,-43, ,
1, ,-43, ,
3, ,-43, ,
3, ,-43, ,
4, ,-43, ,
0, ,-43, ,
4, ,-43, ,
0, ,-43, ,
1, ,-44, ,
-1, ,-43, ,
4, ,-43, ,
-1, ,-43, ,
1, ,-43, ,
1, ,-43, ,
0, ,-44, ,
0, ,-43, ,
1, ,-43, ,
-1, ,-43, ,
0, ,-43, ,
-2, ,-43, ,
1, ,-43, ,
3, ,-43, ,
3, ,-42, ,
-4, ,-43, ,
4, ,-43, ,
0, ,-42, ,
1, ,-42, ,
-2, ,-43, ,
4, ,-43, ,
0, ,-42, ,
3, ,-43, ,
0, ,-43, ,
1, ,-43, ,
4, ,-43, ,
1, ,-43, ,
-4, ,-43, ,
3, ,-43, ,
3, ,-42, ,
0, ,-43, ,
-1, ,-43, ,
3, ,-43, ,
3, ,-43, ,
3, ,-43, ,
-1, ,-43, ,
3, ,-42, ,
3, ,-42, ,
1, ,-42, ,
4, ,-42, ,
0, ,-42, ,
1, ,-42, ,
3, ,-42, ,
-1, ,-43, ,
3, ,-42, ,
0, ,-42, ,
-1, ,-42, ,
3, ,-42, ,
4, ,-42, ,
4, ,-43, ,
5, ,-43, ,
1, ,-42, ,
-2, ,-42, ,
1, ,-42, ,
0, ,-42, ,
-1, ,-43, ,
4, ,-43, ,
1, ,-42, ,
3, ,-42, ,
-1, ,-43, ,
0, ,-42, ,
1, ,-43, ,
3, ,-42, ,
-1, ,-43, ,
4, ,-42, ,
3, ,-43, ,
5, ,-42, ,
1, ,-42, ,
-2, ,-42, ,
4, ,-42, ,
1, ,-42, ,
1, ,-42, ,
-2, ,-42, ,
4, ,-42, ,
1, ,-42, ,
-4, ,-42, ,
1, ,-42, ,
1, ,-42, ,
3, ,-42, ,
-1, ,-42, ,
3, ,-42, ,
1, ,-42, ,
1, ,-42, ,
0, ,-42, ,
1, ,-42, ,
3, ,-42, ,
4, ,-42, ,
-1, ,-43, ,
1, ,-43, ,
3, ,-42, ,
3, ,-42, ,
1, ,-42, ,
4, ,-42, ,
0, ,-42, ,
1, ,-43, ,
1, ,-42, ,
4, ,-42, ,
0, ,-42, ,
1, ,-42, ,
1, ,-42, ,
0, ,-42, ,
1, ,-43, ,
-2, ,-43, ,
4, ,-42, ,
0, ,-42, ,
4, ,-43, ,
-1, ,-42, ,
5, ,-42, ,
-4, ,-42, ,
3, ,-42, ,
3, ,-42, ,
-1, ,-42, ,
3, ,-43, ,
-2, ,-42, ,
3, ,-43, ,
-1, ,-42, ,
3, ,-42, ,
3, ,-43, ,
4, ,-42, ,
-1, ,-42, ,
4, ,-43, ,
-1, ,-42, ,
1, ,-42, ,
1, ,-43, ,
1, ,-43, ,
3, ,-43, ,
4, ,-43, ,
-1, ,-42, ,
4, ,-42, ,
1, ,-42, ,
1, ,-43, ,
-2, ,-42, ,
4, ,-43, ,
1, ,-42, ,
3, ,-42, ,
1, ,-42, ,
3, ,-43, ,
0, ,-42, ,
5, ,-43, ,
-2, ,-42, ,
1, ,-42, ,
0, ,-42, ,
4, ,-43, ,
-1, ,-42, ,
5, ,-42, ,
4, ,-42, ,
1, ,-42, ,
3, ,-43, ,
3, ,-42, ,
4, ,-43, ,
3, ,-43, ,
0, ,-42, ,
4, ,-42, ,
4, ,-42, ,
4, ,-43, ,
0, ,-42, ,
4, ,-42, ,
0, ,-42, ,
5, ,-42, ,
-2, ,-43, ,
1, ,-42, ,
1, ,-42, ,
3, ,-42, ,
4, ,-42, ,
1, ,-42, ,
3, ,-42, ,
5, ,-43, ,
5, ,-42, ,
4, ,-42, ,
4, ,-42, ,
1, ,-42, ,
4, ,-43, ,
4, ,-42, ,
3, ,-42, ,
3, ,-42, ,
4, ,-43, ,
1, ,-42, ,
4, ,-42, ,
-1, ,-42, ,
4, ,-42, ,
3, ,-42, ,
3, ,-42, ,
1, ,-42, ,
-1, ,-42, ,
3, ,-43, ,
1, ,-42, ,
1, ,-43, ,
4, ,-42, ,
-1, ,-43, ,
0, ,-42, ,
-2, ,-42, ,
3, ,-42, ,
-2, ,-43, ,
-1, ,-42, ,
1, ,-43, ,
1, ,-42, ,
0, ,-42, ,
1, ,-43, ,
1, ,-43, ,
4, ,-42, ,
0, ,-42, ,
3, ,-43, ,
1, ,-43, ,
0, ,-42, ,
4, ,-42, ,
1, ,-43, ,
1, ,-42, ,
-4, ,-42, ,
3, ,-42, ,
0, ,-43, ,
1, ,-42, ,
3, ,-42, ,
1, ,-43, ,
4, ,-42, ,
4, ,-42, ,
1, ,-42, ,
4, ,-42, ,
3, ,-42, ,
1, ,-42, ,
4, ,-42, ,
4, ,-43, ,
1, ,-42, ,
4, ,-42, ,
3, ,-42, ,
0, ,-42, ,
3, ,-43, ,
-1, ,-42, ,
4, ,-42, ,
3, ,-42, ,
1, ,-42, ,
1, ,-42, ,
1, ,-42, ,
4, ,-43, ,
0, ,-42, ,
0, ,-42, ,
-2, ,-42, ,
1, ,-42, ,
1, ,-43, ,
1, ,-42, ,
-2, ,-42, ,
5, ,-42, ,
-4, ,-42, ,
3, ,-43, ,
-1, ,-43, ,
1, ,-43, ,
-2, ,-42, ,
5, ,-42, ,
-2, ,-42, ,
3, ,-43, ,
3, ,-43, ,
0, ,-42, ,
-2, ,-43, ,
4, ,-42, ,
-2, ,-42, ,
3, ,-43, ,
0, ,-42, ,
1, ,-42, ,
-1, ,-42, ,
3, ,-42, ,
-2, ,-43, ,
1, ,-43, ,
1, ,-42, ,
1, ,-42, ,
1, ,-42, ,
0, ,-42, ,
1, ,-43, ,
1, ,-43, ,
3, ,-42, ,
-1, ,-42, ,
1, ,-42, ,
1, ,-42, ,
3, ,-43, ,
1, ,-43, ,
4, ,-42, ,
3, ,-43, ,
-2, ,-42, ,
3, ,-42, ,
3, ,-42, ,
3, ,-42, ,
-1, ,-42, ,
-1, ,-42, ,
6, ,-43, ,
1, ,-43, ,
1, ,-42, ,
3, ,-43, ,
3, ,-42, ,
3, ,-42, ,
4, ,-42, ,
1, ,-43, ,
3, ,-42, ,
1, ,-42, ,
-2, ,-42, ,
1, ,-43, ,
4, ,-42, ,
-1, ,-42, ,
1, ,-42, ,
3, ,-43, ,
-1, ,-42, ,
5, ,-43, ,
-2, ,-42, ,
4, ,-42, ,
0, ,-42, ,
-1, ,-42, ,
3, ,-43, ,
1, ,-43, ,
3, ,-42, ,
0, ,-42, ,
1, ,-42, ,
4, ,-42, ,
1, ,-42, ,
1, ,-42, ,
1, ,-42, ,
1, ,-42, ,
1, ,-43, ,
4, ,-43, ,
0, ,-42, ,
3, ,-43, ,
3, ,-42, ,
1, ,-42, ,
3, ,-43, ,
-2, ,-43, ,
5, ,-42, ,
-2, ,-43, ,
4, ,-42, ,
0, ,-42, ,
1, ,-42, ,
-1, ,-42, ,
-1, ,-42, ,
0, ,-42, ,
1, ,-42, ,
4, ,-42, ,
1, ,-43, ,
4, ,-42, ,
-2, ,-42, ,
5, ,-42, ,
0, ,-43, ,
3, ,-43, ,
4, ,-42, ,
3, ,-42, ,
1, ,-42, ,
1, ,-42, ,
1, ,-42, ,
0, ,-42, ,
1, ,-42, ,
4, ,-42, ,
1, ,-42, ,
1, ,-42, ,
1, ,-43, ,
3, ,-42, ,
3, ,-42, ,
3, ,-43, ,
-1, ,-42, ,
1, ,-42, ,
0, ,-43, ,
1, ,-43, ,
1, ,-42, ,
1, ,-42, ,
3, ,-42, ,
4, ,-42, ,
1, ,-42, ,
-2, ,-42, ,
1, ,-42, ,
1, ,-42, ,
0, ,-43, ,
4, ,-42, ,
0, ,-43, ,
-1, ,-42, ,
3, ,-42, ,
3, ,-42, ,
3, ,-42, ,
-1, ,-42, ,
4, ,-43, ,
1, ,-42, ,
-4, ,-42, ,
1, ,-42, ,
1, ,-42, ,
-2, ,-42, ,
4, ,-42, ,
4, ,-42, ,
0, ,-42, ,
1, ,-42, ,
1, ,-42, ,
1, ,-43, ,
-2, ,-42, ,
4, ,-42, ,
0, ,-42, ,
1, ,-42, ,
0, ,-42, ,
3, ,-43, ,
3, ,-42, ,
-2, ,-43, ,
3, ,-42, ,
0, ,-43, ,
1, ,-42, ,
1, ,-42, ,
3, ,-42, ,
0, ,-43, ,
3, ,-42, ,
-1, ,-42, ,
0, ,-43, ,
4, ,-43, ,
-1, ,-42, ,
-1, ,-42, ,
3, ,-43, ,
4, ,-42, ,
1, ,-42, ,
4, ,-42, ,
0, ,-42, ,
3, ,-42, ,
-2, ,-43, ,
0, ,-42, ,
-1, ,-43, ,
4, ,-42, ,
0, ,-42, ,
3, ,-42, ,
1, ,-42, ,
-1, ,-42, ,
1, ,-42, ,
1, ,-42, ,
1, ,-43, ,
1, ,-42, ,
-1, ,-43, ,
3, ,-42, ,
0, ,-42, ,
3, ,-43, ,
-2, ,-42, ,
4, ,-42, ,
-2, ,-42, ,
5, ,-42, ,
1, ,-43, ,
-2, ,-42, ,
0, ,-42, ,
-2, ,-42, ,
3, ,-43, ,
-1, ,-42, ,
1, ,-42, ,
0, ,-42, ,
0, ,-42, ,
1, ,-42, ,
3, ,-43, ,
0, ,-43, ,
3, ,-42, ,
1, ,-43, ,
3, ,-42, ,
3, ,-43, ,
0, ,-43, ,
0, ,-43, ,
-4, ,-42, ,
0, ,-42, ,
-2, ,-42, ,
1, ,-42, ,
3, ,-42, ,
-1, ,-42, ,
3, ,-43, ,
1, ,-42, ,
-1, ,-42, ,
3, ,-42, ,
-1, ,-42, ,
0, ,51, ,
1, ,50, ,
4, ,50, ,
4, ,50, ,
0, ,49, ,
0, ,51, ,
4, ,51, ,
0, ,50, ,
-1, ,51, ,
1, ,49, ,
1, ,51, ,
5, ,50, ,
-1, ,50, ,
3, ,51, ,
0, ,51, ,
5, ,52, ,
1, ,50, ,
1, ,50, ,
5, ,50, ,
3, ,51, ,
1, ,51, ,
-1, ,52, ,
3, ,51, ,
4, ,51, ,
3, ,51, ,
0, ,51, ,
3, ,50, ,
3, ,52, ,
5, ,51, ,
4, ,50, ,
1, ,51, ,
3, ,51, ,
1, ,49, ,
3, ,50, ,
-1, ,50, ,
5, ,50, ,
4, ,50, ,
-2, ,51, ,
0, ,50, ,
0, ,51, ,
4, ,50, ,
0, ,50, ,
1, ,50, ,
3, ,51, ,
3, ,50, ,
3, ,51, ,
3, ,51, ,
4, ,51, ,
4, ,50, ,
1, ,50, ,
5, ,50, ,
1, ,49, ,
4, ,49, ,
4, ,51, ,
1, ,50, ,
3, ,50, ,
4, ,50, ,
3, ,51, ,
-1, ,49, ,
5, ,50, ,
3, ,49, ,
4, ,50, ,
4, ,50, ,
1, ,51, ,
3, ,50, ,
4, ,50, ,
1, ,50, ,
4, ,49, ,
3, ,49, ,
1, ,49, ,
3, ,50, ,
3, ,50, ,
0, ,50, ,
8, ,49, ,
3, ,49, ,
3, ,49, ,
3, ,51, ,
-1, ,50, ,
1, ,50, ,
5, ,50, ,
1, ,50, ,
1, ,51, ,
4, ,50, ,
-1, ,50, ,
4, ,50, ,
-2, ,50, ,
3, ,49, ,
4, ,49, ,
1, ,50, ,
1, ,49, ,
1, ,50, ,
6, ,50, ,
3, ,50, ,
0, ,51, ,
3, ,50, ,
3, ,49, ,
4, ,50, ,
-1, ,50, ,
1, ,50, ,
3, ,48, ,
-4, ,49, ,
4, ,50, ,
0, ,49, ,
1, ,50, ,
-1, ,50, ,
4, ,50, ,
4, ,50, ,
3, ,50, ,
4, ,49, ,
0, ,50, ,
5, ,50, ,
0, ,49, ,
5, ,49, ,
5, ,50, ,
0, ,49, ,
0, ,50, ,
0, ,50, ,
3, ,49, ,
5, ,50, ,
0, ,50, ,
3, ,50, ,
5, ,50, ,
3, ,50, ,
4, ,49, ,
4, ,49, ,
-1, ,50, ,
4, ,50, ,
0, ,49, ,
1, ,50, ,
4, ,50, ,
4, ,50, ,
3, ,50, ,
3, ,49, ,
0, ,50, ,
4, ,50, ,
6, ,51, ,
0, ,50, ,
1, ,50, ,
1, ,50, ,
1, ,50, ,
-1, ,50, ,
1, ,50, ,
0, ,50, ,
3, ,50, ,
3, ,50, ,
-4, ,50, ,
3, ,50, ,
0, ,50, ,
3, ,50, ,
0, ,49, ,
5, ,50, ,
3, ,48, ,
1, ,50, ,
-2, ,49, ,
1, ,49, ,
4, ,50, ,
5, ,48, ,
3, ,50, ,
3, ,49, ,
-1, ,50, ,
3, ,50, ,
3, ,49, ,
3, ,49, ,
3, ,50, ,
0, ,50, ,
0, ,49, ,
3, ,50, ,
3, ,50, ,
4, ,50, ,
-2, ,49, ,
0, ,49, ,
4, ,49, ,
3, ,49, ,
-2, ,50, ,
4, ,50, ,
4, ,50, ,
-2, ,49, ,
1, ,50, ,
-4, ,50, ,
3, ,50, ,
1, ,50, ,
1, ,50, ,
3, ,49, ,
-2, ,49, ,
1, ,49, ,
1, ,50, ,
1, ,48, ,
-4, ,50, ,
1, ,49, ,
1, ,50, ,
3, ,49, ,
3, ,49, ,
1, ,48, ,
3, ,50, ,
0, ,49, ,
1, ,50, ,
-2, ,50, ,
1, ,50, ,
-4, ,50, ,
4, ,50, ,
1, ,50, ,
1, ,49, ,
-1, ,49, ,
3, ,50, ,
-1, ,50, ,
4, ,48, ,
1, ,49, ,
-1, ,49, ,
1, ,49, ,
-1, ,50, ,
6, ,50, ,
4, ,50, ,
0, ,50, ,
3, ,50, ,
-2, ,50, ,
3, ,50, ,
6, ,48, ,
0, ,50, ,
-1, ,49, ,
3, ,50, ,
-1, ,49, ,
1, ,49, ,
0, ,50, ,
4, ,50, ,
1, ,50, ,
3, ,48, ,
4, ,50, ,
-2, ,50, ,
3, ,49, ,
-4, ,50, ,
4, ,50, ,
-2, ,49, ,
1, ,49, ,
1, ,49, ,
4, ,50, ,
-2, ,49, ,
3, ,50, ,
4, ,49, ,
1, ,48, ,
1, ,49, ,
5, ,50, ,
1, ,49, ,
1, ,50, ,
5, ,50, ,
3, ,50, ,
3, ,49, ,
3, ,50, ,
1, ,50, ,
1, ,50, ,
3, ,50, ,
1, ,49, ,
4, ,49, ,
1, ,49, ,
-4, ,49, ,
4, ,49, ,
3, ,50, ,
0, ,49, ,
-1, ,50, ,
4, ,49, ,
-1, ,49, ,
1, ,49, ,
1, ,49, ,
4, ,50, ,
1, ,50, ,
3, ,49, ,
3, ,49, ,
3, ,50, ,
0, ,50, ,
1, ,50, ,
3, ,50, ,
1, ,50, ,
1, ,49, ,
3, ,48, ,
4, ,50, ,
3, ,49, ,
1, ,50, ,
-2, ,50, ,
1, ,50, ,
-2, ,48, ,
4, ,50, ,
6, ,49, ,
0, ,50, ,
3, ,49, ,
3, ,50, ,
0, ,50, ,
1, ,49, ,
-2, ,49, ,
5, ,49, ,
1, ,50, ,
3, ,50, ,
3, ,49, ,
3, ,50, ,
-1, ,49, ,
1, ,50, ,
0, ,49, ,
3, ,51, ,
-4, ,50, ,
4, ,50, ,
4, ,50, ,
-2, ,50, ,
3, ,50, ,
0, ,51, ,
5, ,50, ,
-1, ,50, ,
4, ,49, ,
0, ,50, ,
0, ,50, ,
-1, ,50, ,
1, ,49, ,
3, ,50, ,
-2, ,49, ,
0, ,50, ,
3, ,50, ,
1, ,50, ,
-1, ,50, ,
1, ,50, ,
1, ,50, ,
4, ,48, ,
1, ,51, ,
4, ,50, ,
3, ,49, ,
1, ,50, ,
-5, ,48, ,
3, ,51, ,
1, ,49, ,
-1, ,50, ,
1, ,49, ,
3, ,50, ,
-2, ,50, ,
3, ,48, ,
3, ,49, ,
-1, ,49, ,
0, ,50, ,
4, ,50, ,
0, ,50, ,
0, ,50, ,
4, ,49, ,
1, ,50, ,
-1, ,50, ,
1, ,49, ,
-2, ,50, ,
3, ,49, ,
0, ,51, ,
1, ,49, ,
4, ,50, ,
1, ,50, ,
3, ,50, ,
3, ,50, ,
1, ,49, ,
3, ,49, ,
3, ,49, ,
1, ,50, ,
-1, ,49, ,
4, ,50, ,
-1, ,49, ,
1, ,50, ,
-1, ,50, ,
0, ,49, ,
1, ,48, ,
0, ,50, ,
4, ,49, ,
4, ,50, ,
4, ,50, ,
1, ,49, ,
1, ,48, ,
0, ,50, ,
3, ,50, ,
1, ,50, ,
1, ,50, ,
4, ,50, ,
3, ,48, ,
1, ,50, ,
0, ,49, ,
-2, ,50, ,
1, ,50, ,
0, ,49, ,
1, ,49, ,
4, ,50, ,
3, ,51, ,
-1, ,49, ,
3, ,49, ,
1, ,50, ,
-1, ,50, ,
0, ,49, ,
-1, ,51, ,
3, ,49, ,
3, ,49, ,
3, ,50, ,
-1, ,50, ,
0, ,50, ,
0, ,50, ,
4, ,50, ,
1, ,49, ,
4, ,50, ,
4, ,50, ,
1, ,48, ,
-1, ,49, ,
3, ,51, ,
1, ,50, ,
1, ,50, ,
1, ,50, ,
-1, ,50, ,
4, ,49, ,
-2, ,49, ,
1, ,50, ,
-1, ,50, ,
1, ,50, ,
-1, ,50, ,
4, ,49, ,
4, ,51, ,
3, ,50, ,
-1, ,49, ,
4, ,50, ,
0, ,48, ,
3, ,50, ,
1, ,50, ,
4, ,50, ,
1, ,49, ,
-2, ,49, ,
3, ,50, ,
-4, ,49, ,
1, ,50, ,
-1, ,50, ,
1, ,49, ,
3, ,50, ,
3, ,49, ,
0, ,50, ,
5, ,50, ,
-2, ,50, ,
3, ,48, ,
1, ,49, ,
3, ,50, ,
1, ,50, ,
4, ,50, ,
-2, ,50, ,
4, ,50, ,
0, ,50, ,
4, ,49, ,
0, ,50, ,
4, ,50, ,
-1, ,50, ,
0, ,49, ,
-4, ,50, ,
4, ,50, ,
0, ,49, ,
3, ,50, ,
-4, ,50, ,
4, ,49, ,
4, ,50, ,
-1, ,49, ,
3, ,50, ,
0, ,49, ,
1, ,50, ,
-1, ,49, ,
4, ,49, ,
4, ,50, ,
3, ,49, ,
3, ,50, ,
3, ,50, ,
4, ,50, ,
0, ,50, ,
1, ,50, ,
4, ,50, ,
1, ,50, ,
3, ,49, ,
3, ,50, ,
1, ,50, ,
4, ,50, ,
4, ,50, ,
3, ,50, ,
1, ,50, ,
3, ,50, ,
1, ,49, ,
1, ,50, ,
4, ,48, ,
4, ,50, ,
1, ,51, ,
3, ,49, ,
-1, ,50, ,
4, ,49, ,
-2, ,50, ,
3, ,50, ,
-2, ,50, ,
3, ,49, ,
1, ,48, ,
1, ,50, ,
-4, ,50, ,
4, ,50, ,
4, ,50, ,
3, ,50, ,
1, ,50, ,
4, ,50, ,
3, ,49, ,
4, ,50, ,
-1, ,50, ,
3, ,50, ,
1, ,-43, ,
0, ,-43, ,
3, ,-44, ,
-1, ,-42, ,
3, ,-43, ,
0, ,-43, ,
1, ,-43, ,
1, ,-43, ,
-1, ,-44, ,
1, ,-43, ,
1, ,-44, ,
1, ,-43, ,
0, ,-43, ,
3, ,-43, ,
0, ,-44, ,
3, ,-43, ,
0, ,-43, ,
3, ,-43, ,
1, ,-44, ,
4, ,-43, ,
4, ,-44, ,
0, ,-43, ,
-4, ,-43, ,
3, ,-43, ,
3, ,-43, ,
4, ,-43, ,
5, ,-43, ,
3, ,-44, ,
3, ,-43, ,
-1, ,-43, ,
4, ,-43, ,
4, ,-43, ,
0, ,-43, ,
1, ,-43, ,
0, ,-43, ,
1, ,-43, ,
4, ,-43, ,
1, ,-43, ,
4, ,-43, ,
0, ,-43, ,
3, ,-43, ,
-1, ,-43, ,
0, ,-43, ,
4, ,-43, ,
3, ,-43, ,
0, ,-43, ,
4, ,-43, ,
1, ,-43, ,
4, ,-43, ,
-1, ,-43, ,
3, ,-43, ,
1, ,-43, ,
-2, ,-43, ,
4, ,-43, ,
5, ,-43, ,
-2, ,-43, ,
1, ,-43, ,
3, ,-42, ,
1, ,-43, ,
-1, ,-42, ,
5, ,-42, ,
0, ,-43, ,
4, ,-43, ,
1, ,-43, ,
4, ,-43, ,
-2, ,-43, ,
5, ,-42, ,
-1, ,-43, ,
3, ,-43, ,
0, ,-42, ,
5, ,-42, ,
1, ,-42, ,
1, ,-42, ,
-2, ,-43, ,
0, ,-43, ,
-2, ,-43, ,
3, ,-42, ,
-1, ,-43, ,
1, ,-43, ,
4, ,-42, ,
1, ,-42, ,
4, ,-43, ,
3, ,-42, ,
3, ,-43, ,
3, ,-43, ,
4, ,-43, ,
1, ,-43, ,
3, ,-42, ,
1, ,-43, ,
3, ,-42, ,
1, ,-42, ,
1, ,-43, ,
-2, ,-42, ,
4, ,-42, ,
-4, ,-42, ,
3, ,-43, ,
1, ,-43, ,
3, ,-42, ,
-4, ,-43, ,
3, ,-42, ,
4, ,-43, ,
-1, ,-42, ,
1, ,-42, ,
0, ,-43, ,
0, ,-42, ,
1, ,-43, ,
3, ,-42, ,
4, ,-42, ,
1, ,-43, ,
0, ,-43, ,
3, ,-42, ,
-1, ,-42, ,
1, ,-43, ,
1, ,-42, ,
1, ,-42, ,
0, ,-42, ,
4, ,-42, ,
-1, ,-42, ,
6, ,-42, ,
1, ,-42, ,
-1, ,-43, ,
0, ,-43, ,
3, ,-42, ,
-2, ,-42, ,
1, ,-42, ,
5, ,-43, ,
3, ,-43, ,
-1, ,-43, ,
3, ,-42, ,
-1, ,-42, ,
3, ,-42, ,
1, ,-42, ,
-1, ,-42, ,
4, ,-42, ,
3, ,-42, ,
4, ,-42, ,
1, ,-42, ,
3, ,-42, ,
3, ,-42, ,
6, ,-42, ,
3, ,-42, ,
4, ,-42, ,
1, ,-42, ,
4, ,-42, ,
1, ,-42, ,
4, ,-42, ,
-2, ,-42, ,
3, ,-43, ,
-2, ,-42, ,
1, ,-43, ,
0, ,-43, ,
4, ,-42, ,
3, ,-43, ,
3, ,-43, ,
4, ,-43, ,
-1, ,-42, ,
3, ,-42, ,
6, ,-43, ,
4, ,-43, ,
3, ,-42, ,
-1, ,-43, ,
0, ,-42, ,
1, ,-42, ,
1, ,-42, ,
3, ,-42, ,
-2, ,-42, ,
-2, ,-42, ,
3, ,-42, ,
3, ,-42, ,
6, ,-42, ,
1, ,-42, ,
3, ,-42, ,
4, ,-43, ,
0, ,-42, ,
4, ,-42, ,
0, ,-42, ,
3, ,-42, ,
-2, ,-42, ,
4, ,-43, ,
4, ,-43, ,
3, ,-43, ,
-2, ,-42, ,
3, ,-42, ,
0, ,-43, ,
1, ,-42, ,
0, ,-43, ,
4, ,-42, ,
-1, ,-43, ,
1, ,-42, ,
1, ,-42, ,
1, ,-42, ,
0, ,-42, ,
3, ,-43, ,
1, ,-42, ,
4, ,-42, ,
3, ,-43, ,
1, ,-42, ,
-1, ,-42, ,
4, ,-42, ,
0, ,-42, ,
1, ,-42, ,
0, ,-42, ,
3, ,-42, ,
-4, ,-42, ,
1, ,-43, ,
-2, ,-42, ,
3, ,-42, ,
4, ,-42, ,
1, ,-43, ,
4, ,-42, ,
1, ,-42, ,
4, ,-42, ,
4, ,-42, ,
0, ,-42, ,
-1, ,-42, ,
3, ,-42, ,
0, ,-42, ,
3, ,-43, ,
4, ,-43, ,
3, ,-42, ,
4, ,-43, ,
0, ,-43, ,
1, ,-42, ,
-1, ,-42, ,
1, ,-43, ,
-1, ,-42, ,
4, ,-42, ,
3, ,-42, ,
5, ,-42, ,
0, ,-43, ,
4, ,-43, ,
0, ,-43, ,
1, ,-42, ,
3, ,-43, ,
4, ,-42, ,
3, ,-42, ,
1, ,-43, ,
3, ,-42, ,
1, ,-42, ,
-1, ,-42, ,
1, ,-42, ,
0, ,-43, ,
1, ,-43, ,
1, ,-42, ,
3, ,-42, ,
-1, ,-42, ,
5, ,-42, ,
1, ,-42, ,
4, ,-42, ,
0, ,-42, ,
3, ,-42, ,
-1, ,-42, ,
1, ,-43, ,
-2, ,-42, ,
1, ,-42, ,
1, ,-42, ,
4, ,-43, ,
-2, ,-42, ,
3, ,-42, ,
4, ,-42, ,
4, ,-42, ,
1, ,-42, ,
3, ,-43, ,
3, ,-42, ,
1, ,-42, ,
1, ,-42, ,
-1, ,-42, ,
1, ,-42, ,
1, ,-43, ,
3, ,-42, ,
1, ,-42, ,
4, ,-42, ,
4, ,-42, ,
4, ,-42, ,
5, ,-43, ,
4, ,-42, ,
1, ,-42, ,
1, ,-42, ,
0, ,-42, ,
3, ,-43, ,
4, ,-42, ,
0, ,-42, ,
-1, ,-43, ,
4, ,-43, ,
3, ,-42, ,
0, ,-42, ,
0, ,-42, ,
4, ,-43, ,
0, ,-43, ,
3, ,-42, ,
-1, ,-42, ,
3, ,-42, ,
0, ,-43, ,
1, ,-42, ,
3, ,-42, ,
-2, ,-42, ,
3, ,-42, ,
1, ,-43, ,
3, ,-42, ,
1, ,-42, ,
3, ,-42, ,
-2, ,-43, ,
1, ,-42, ,
0, ,-42, ,
0, ,-42, ,
1, ,-42, ,
1, ,-42, ,
-4, ,-43, ,
1, ,-42, ,
-1, ,-42, ,
1, ,-42, ,
1, ,-43, ,
-2, ,-42, ,
4, ,-43, ,
-1, ,-43, ,
3, ,-42, ,
5, ,-42, ,
1, ,-42, ,
3, ,-43, ,
0, ,-42, ,
3, ,-43, ,
3, ,-42, ,
4, ,-42, ,
0, ,-42, ,
-2, ,-42, ,
1, ,-42, ,
3, ,-42, ,
1, ,-42, ,
5, ,-43, ,
4, ,-42, ,
3, ,-43, ,
1, ,-42, ,
3, ,-42, ,
0, ,-42, ,
3, ,-42, ,
0, ,-43, ,
5, ,-42, ,
-1, ,-42, ,
1, ,-42, ,
-1, ,-43, ,
1, ,-42, ,
-1, ,-42, ,
5, ,-42, ,
4, ,-42, ,
0, ,-43, ,
3, ,-42, ,
3, ,-42, ,
4, ,-42, ,
3, ,-42, ,
3, ,-43, ,
1, ,-42, ,
1, ,-43, ,
4, ,-42, ,
3, ,-42, ,
4, ,-42, ,
4, ,-43, ,
1, ,-42, ,
3, ,-42, ,
0, ,-42, ,
1, ,-42, ,
-1, ,-42, ,
5, ,-42, ,
-1, ,-43, ,
1, ,-42, ,
3, ,-42, ,
5, ,-43, ,
3, ,-43, ,
5, ,-42, ,
0, ,-42, ,
1, ,-42, ,
-2, ,-43, ,
1, ,-42, ,
0, ,-42, ,
1, ,-42, ,
4, ,-43, ,
1, ,-42, ,
5, ,-42, ,
3, ,-42, ,
4, ,-42, ,
-1, ,-42, ,
8, ,-43, ,
1, ,-43, ,
3, ,-42, ,
3, ,-42, ,
0, ,-42, ,
4, ,-42, ,
-2, ,-42, ,
4, ,-43, ,
-1, ,-42, ,
3, ,-42, ,
-2, ,-42, ,
4, ,-43, ,
4, ,-42, ,
1, ,-42, ,
0, ,-43, ,
0, ,-42, ,
1, ,-42, ,
1, ,-42, ,
4, ,-42, ,
3, ,-42, ,
0, ,-43, ,
1, ,-42, ,
1, ,-43, ,
-2, ,-42, ,
0, ,-42, ,
4, ,-42, ,
1, ,-42, ,
1, ,-42, ,
1, ,-42, ,
0, ,-42, ,
3, ,-42, ,
0, ,-42, ,
0, ,-43, ,
3, ,-42, ,
3, ,-42, ,
3, ,-42, ,
1, ,-42, ,
-1, ,-42, ,
5, ,-42, ,
1, ,-42, ,
-1, ,-42, ,
1, ,-42, ,
-2, ,-42, ,
-1, ,-42, ,
0, ,-42, ,
3, ,-42, ,
-1, ,-42, ,
1, ,-42, ,
4, ,-42, ,
-2, ,-42, ,
3, ,-42, ,
1, ,-42, ,
5, ,-42, ,
4, ,-42, ,
3, ,-42, ,
4, ,-42, ,
3, ,-42, ,
1, ,-42, ,
5, ,-42, ,
4, ,-42, ,
1, ,-42, ,
3, ,-42, ,
1, ,-42, ,
0, ,-42, ,
-1, ,-42, ,
3, ,-41, ,
3, ,-42, ,
3, ,-42, ,
-1, ,-42, ,
-1, ,-42, ,
3, ,-41, ,
1, ,-17, ,
3, ,-18, ,
0, ,-18, ,
3, ,-18, ,
-1, ,-19, ,
-1, ,-18, ,
3, ,-18, ,
4, ,-18, ,
1, ,-18, ,
0, ,-18, ,
0, ,-18, ,
0, ,-18, ,
1, ,-18, ,
4, ,-18, ,
3, ,-18, ,
1, ,-18, ,
3, ,-18, ,
4, ,-18, ,
1, ,-18, ,
3, ,-18, ,
0, ,-18, ,
1, ,-18, ,
-2, ,-18, ,
3, ,-18, ,
1, ,-18, ,
-2, ,-18, ,
4, ,-18, ,
0, ,-18, ,
3, ,-18, ,
0, ,-18, ,
1, ,-18, ,
4, ,-18, ,
1, ,-18, ,
1, ,-19, ,
3, ,-18, ,
0, ,-18, ,
0, ,-18, ,
-2, ,-19, ,
4, ,-18, ,
4, ,-19, ,
1, ,-18, ,
-1, ,-19, ,
0, ,-18, ,
-1, ,-18, ,
-1, ,-18, ,
3, ,-18, ,
3, ,-19, ,
3, ,-19, ,
3, ,-19, ,
-4, ,-19, ,
3, ,-19, ,
-1, ,-19, ,
1, ,-19, ,
1, ,-19, ,
0, ,-19, ,
1, ,-19, ,
-1, ,-19, ,
3, ,-19, ,
1, ,-19, ,
0, ,-18, ,
1, ,-19, ,
4, ,-18, ,
0, ,-19, ,
3, ,-18, ,
4, ,-19, ,
3, ,-19, ,
4, ,-19, ,
4, ,-19, ,
1, ,-19, ,
4, ,-19, ,
1, ,-18, ,
1, ,-18, ,
3, ,-18, ,
3, ,-19, ,
4, ,-18, ,
3, ,-19, ,
3, ,-19, ,
3, ,-19, ,
0, ,-19, ,
3, ,-19, ,
1, ,-19, ,
4, ,-19, ,
3, ,-19, ,
3, ,-19, ,
4, ,-19, ,
3, ,-19, ,
3, ,-19, ,
-1, ,-19, ,
4, ,-19, ,
-2, ,-19, ,
3, ,-19, ,
-1, ,-19, ,
4, ,-19, ,
0, ,-19, ,
5, ,-19, ,
0, ,-19, ,
0, ,-19, ,
-1, ,-19, ,
1, ,-19, ,
-2, ,-19, ,
3, ,-19, ,
-1, ,-19, ,
3, ,-19, ,
1, ,-19, ,
4, ,-19, ,
5, ,-18, ,
-2, ,-19, ,
0, ,-19, ,
4, ,-19, ,
1, ,-19, ,
-2, ,-18, ,
4, ,-19, ,
3, ,-18, ,
4, ,-19, ,
1, ,-19, ,
3, ,-19, ,
-1, ,-19, ,
4, ,-19, ,
0, ,-19, ,
1, ,-19, ,
1, ,-18, ,
1, ,-19, ,
4, ,-19, ,
-1, ,-19, ,
3, ,-19, ,
1, ,-19, ,
3, ,-19, ,
1, ,-19, ,
3, ,-19, ,
3, ,-19, ,
3, ,-19, ,
4, ,-19, ,
5, ,-19, ,
1, ,-19, ,
1, ,-19, ,
3, ,-19, ,
1, ,-18, ,
1, ,-19, ,
6, ,-19, ,
4, ,-19, ,
0, ,-19, ,
4, ,-19, ,
1, ,-18, ,
3, ,-19, ,
-1, ,-19, ,
3, ,-19, ,
1, ,-18, ,
0, ,-19, ,
0, ,-19, ,
3, ,-19, ,
4, ,-19, ,
1, ,-19, ,
3, ,-19, ,
3, ,-19, ,
3, ,-19, ,
1, ,-19, ,
4, ,-19, ,
4, ,-19, ,
1, ,-19, ,
1, ,-18, ,
3, ,-19, ,
-4, ,-19, ,
3, ,-19, ,
-2, ,-18, ,
3, ,-19, ,
4, ,-18, ,
4, ,-19, ,
3, ,-19, ,
-1, ,-19, ,
0, ,-19, ,
-2, ,-19, ,
3, ,-19, ,
1, ,-19, ,
1, ,-19, ,
1, ,-19, ,
0, ,-18, ,
3, ,-19, ,
-4, ,-19, ,
3, ,-18, ,
-1, ,-19, ,
3, ,-18, ,
1, ,-19, ,
3, ,-18, ,
5, ,-19, ,
0, ,-19, ,
0, ,-19, ,
3, ,-19, ,
1, ,-19, ,
-1, ,-19, ,
1, ,-19, ,
1, ,-19, ,
0, ,-19, ,
4, ,-19, ,
4, ,-19, ,
3, ,-19, ,
1, ,-18, ,
4, ,-19, ,
3, ,-19, ,
-1, ,-19, ,
1, ,-19, ,
1, ,-19, ,
4, ,-19, ,
3, ,-18, ,
1, ,-19, ,
1, ,-19, ,
3, ,-19, ,
4, ,-19, ,
-1, ,-19, ,
5, ,-18, ,
-1, ,-18, ,
3, ,-19, ,
-1, ,-19, ,
3, ,-18, ,
-1, ,-19, ,
3, ,-19, ,
3, ,-19, ,
1, ,-19, ,
-2, ,-18, ,
4, ,-19, ,
-1, ,-18, ,
4, ,-18, ,
1, ,-19, ,
3, ,-19, ,
-1, ,-19, ,
3, ,-18, ,
-4, ,-19, ,
1, ,-19, ,
1, ,-19, ,
3, ,-19, ,
3, ,-19, ,
3, ,-19, ,
6, ,-19, ,
0, ,-19, ,
0, ,-19, ,
-1, ,-19, ,
4, ,-18, ,
-1, ,-18, ,
3, ,-18, ,
4, ,-19, ,
3, ,-18, ,
1, ,-19, ,
3, ,-18, ,
-1, ,-18, ,
5, ,-19, ,
-2, ,-18, ,
4, ,-18, ,
1, ,-18, ,
6, ,-19, ,
3, ,-18, ,
4, ,-18, ,
4, ,-19, ,
3, ,-18, ,
0, ,-18, ,
4, ,-19, ,
4, ,-19, ,
4, ,-18, ,
-4, ,-18, ,
