src/test_folder/switch3faster0000084.CSV

Format,1.0B,
Memory Length,10000,Memory Length,10000,
IntpDistance,0,IntpDistance,0,
Trigger Address,4999,Trigger Address,4999,
Trigger Level,1.272E-01,Trigger Level,1.272E-01,
Source,CH1,Source,CH2,
Vertical Units,V,Vertical Units,V,
Vertical Units Div,0,Vertical Units Div,0,
Vertical Units Extend Div,16,Vertical Units Extend Div,16,
Label,,Label,,
Probe Type,0,Probe Type,0,
Probe Ratio,1.000e+01,Probe Ratio,1.000e+00,
Vertical Scale,2.000e-02,Vertical Scale,1.000e+00,
Vertical Position,-5.120e-02,Vertical Position,2.000e-01,
Horizontal Units,S,Horizontal Units,S,
Horizontal Scale,2.000E-02,Horizontal Scale,2.000E-02,
Horizontal Position,0.000E+00,Horizontal Position,0.000E+00,
Horizontal Mode,Main,Horizontal Mode,Main,
SincET Mode,Real Time,SincET Mode,Real Time,
Sampling Period,2.000e-05,Sampling Period,2.000e-05,
Horizontal Old Scale,2.000E-02,Horizontal Old Scale,2.000E-02,
Horizontal Old Position,0.000E+00,Horizontal Old Position,0.000E+00,
Firmware,V1.23,Firmware,V1.23,
Mode,Fast,Mode,Fast,
Waveform Data,,Waveform Data,,
-1, ,10, ,
6, ,10, ,
-1, ,10, ,
1, ,11, ,
0, ,10, ,
1, ,11, ,
-2, ,11, ,
3, ,11, ,
-2, ,11, ,
4, ,11, ,
1, ,11, ,
3, ,11, ,
-1, ,11, ,
1, ,11, ,
1, ,11, ,
5, ,11, ,
1, ,11, ,
4, ,11, ,
-2, ,11, ,
3, ,11, ,
-1, ,11, ,
1, ,11, ,
1, ,11, ,
1, ,11, ,
1, ,11, ,
3, ,12, ,
4, ,11, ,
1, ,11, ,
1, ,12, ,
4, ,12, ,
4, ,12, ,
1, ,12, ,
5, ,12, ,
1, ,12, ,
0, ,12, ,
1, ,12, ,
-1, ,12, ,
1, ,12, ,
0, ,12, ,
1, ,12, ,
1, ,12, ,
3, ,12, ,
0, ,12, ,
5, ,12, ,
1, ,12, ,
4, ,12, ,
-4, ,12, ,
0, ,12, ,
0, ,12, ,
1, ,12, ,
3, ,12, ,
-4, ,12, ,
0, ,12, ,
1, ,13, ,
4, ,12, ,
1, ,13, ,
0, ,12, ,
-1, ,12, ,
4, ,12, ,
0, ,13, ,
1, ,13, ,
1, ,13, ,
1, ,12, ,
1, ,13, ,
0, ,13, ,
3, ,13, ,
3, ,13, ,
1, ,13, ,
1, ,13, ,
3, ,13, ,
-1, ,13, ,
1, ,13, ,
1, ,13, ,
0, ,13, ,
3, ,13, ,
-1, ,13, ,
1, ,14, ,
3, ,13, ,
3, ,13, ,
0, ,13, ,
3, ,13, ,
-1, ,13, ,
1, ,13, ,
1, ,14, ,
1, ,13, ,
1, ,13, ,
5, ,13, ,
-1, ,13, ,
3, ,14, ,
3, ,14, ,
3, ,14, ,
3, ,14, ,
0, ,14, ,
-1, ,14, ,
3, ,14, ,
3, ,13, ,
1, ,14, ,
4, ,14, ,
1, ,14, ,
1, ,14, ,
-4, ,14, ,
4, ,14, ,
3, ,14, ,
0, ,14, ,
1, ,14, ,
1, ,14, ,
1, ,14, ,
0, ,14, ,
4, ,14, ,
-1, ,14, ,
3, ,14, ,
-2, ,14, ,
5, ,15, ,
0, ,15, ,
4, ,14, ,
3, ,15, ,
3, ,15, ,
3, ,15, ,
-2, ,14, ,
5, ,14, ,
-1, ,15, ,
3, ,15, ,
0, ,15, ,
3, ,15, ,
3, ,15, ,
3, ,15, ,
5, ,14, ,
4, ,15, ,
3, ,15, ,
3, ,15, ,
4, ,15, ,
1, ,15, ,
4, ,15, ,
-2, ,15, ,
4, ,15, ,
-4, ,15, ,
4, ,15, ,
1, ,15, ,
4, ,15, ,
3, ,15, ,
0, ,15, ,
3, ,16, ,
3, ,15, ,
3, ,15, ,
0, ,15, ,
4, ,16, ,
4, ,15, ,
0, ,16, ,
4, ,16, ,
0, ,16, ,
3, ,16, ,
-2, ,16, ,
4, ,16, ,
0, ,16, ,
3, ,16, ,
1, ,16, ,
3, ,16, ,
3, ,16, ,
0, ,16, ,
5, ,16, ,
-1, ,16, ,
5, ,16, ,
1, ,16, ,
4, ,16, ,
1, ,16, ,
3, ,16, ,
-1, ,16, ,
4, ,16, ,
3, ,16, ,
3, ,17, ,
3, ,16, ,
3, ,16, ,
-1, ,16, ,
3, ,17, ,
5, ,17, ,
-1, ,17, ,
1, ,16, ,
1, ,17, ,
3, ,17, ,
3, ,17, ,
4, ,16, ,
4, ,17, ,
3, ,17, ,
3, ,17, ,
5, ,17, ,
1, ,17, ,
-4, ,17, ,
3, ,17, ,
0, ,17, ,
-1, ,17, ,
3, ,17, ,
-1, ,17, ,
1, ,17, ,
-1, ,17, ,
3, ,17, ,
4, ,17, ,
-1, ,17, ,
4, ,17, ,
-1, ,18, ,
3, ,17, ,
3, ,18, ,
-1, ,18, ,
4, ,17, ,
4, ,17, ,
4, ,18, ,
1, ,18, ,
1, ,18, ,
-1, ,18, ,
3, ,17, ,
3, ,18, ,
3, ,18, ,
0, ,18, ,
1, ,18, ,
3, ,18, ,
1, ,18, ,
3, ,18, ,
4, ,18, ,
0, ,18, ,
1, ,18, ,
3, ,18, ,
5, ,18, ,
4, ,18, ,
0, ,18, ,
0, ,18, ,
4, ,18, ,
-1, ,18, ,
5, ,18, ,
1, ,18, ,
-2, ,18, ,
3, ,19, ,
5, ,19, ,
-2, ,18, ,
3, ,18, ,
0, ,19, ,
3, ,19, ,
0, ,19, ,
1, ,19, ,
5, ,18, ,
-1, ,18, ,
-2, ,19, ,
4, ,19, ,
-1, ,19, ,
1, ,19, ,
4, ,19, ,
5, ,18, ,
-1, ,19, ,
3, ,19, ,
3, ,19, ,
0, ,19, ,
0, ,19, ,
5, ,19, ,
5, ,19, ,
-1, ,19, ,
1, ,19, ,
4, ,19, ,
-1, ,20, ,
5, ,19, ,
-2, ,19, ,
3, ,20, ,
4, ,20, ,
1, ,19, ,
-2, ,20, ,
3, ,19, ,
-1, ,20, ,
1, ,20, ,
1, ,19, ,
3, ,20, ,
0, ,20, ,
3, ,20, ,
3, ,20, ,
1, ,20, ,
3, ,20, ,
3, ,19, ,
1, ,20, ,
1, ,20, ,
1, ,20, ,
3, ,20, ,
3, ,20, ,
1, ,20, ,
-4, ,20, ,
3, ,20, ,
1, ,20, ,
4, ,20, ,
1, ,20, ,
5, ,20, ,
-2, ,21, ,
3, ,20, ,
3, ,21, ,
3, ,20, ,
1, ,21, ,
1, ,21, ,
-2, ,21, ,
3, ,20, ,
-2, ,21, ,
4, ,21, ,
0, ,21, ,
4, ,20, ,
4, ,21, ,
4, ,21, ,
5, ,21, ,
4, ,21, ,
1, ,21, ,
4, ,21, ,
5, ,21, ,
-1, ,21, ,
3, ,21, ,
5, ,21, ,
4, ,21, ,
4, ,21, ,
4, ,21, ,
3, ,21, ,
0, ,21, ,
0, ,22, ,
-2, ,21, ,
0, ,21, ,
4, ,22, ,
4, ,21, ,
1, ,21, ,
4, ,21, ,
1, ,21, ,
0, ,22, ,
1, ,21, ,
-2, ,22, ,
4, ,21, ,
-1, ,22, ,
1, ,21, ,
0, ,22, ,
1, ,22, ,
3, ,21, ,
3, ,22, ,
4, ,21, ,
4, ,22, ,
-1, ,22, ,
1, ,22, ,
5, ,22, ,
4, ,21, ,
-2, ,22, ,
3, ,22, ,
0, ,22, ,
4, ,22, ,
-4, ,22, ,
1, ,22, ,
3, ,22, ,
3, ,22, ,
1, ,22, ,
3, ,23, ,
4, ,22, ,
4, ,23, ,
3, ,22, ,
5, ,22, ,
4, ,23, ,
3, ,23, ,
4, ,23, ,
3, ,23, ,
1, ,23, ,
-2, ,23, ,
5, ,22, ,
-1, ,23, ,
4, ,23, ,
1, ,23, ,
3, ,23, ,
3, ,23, ,
-2, ,23, ,
0, ,23, ,
3, ,23, ,
4, ,22, ,
0, ,23, ,
3, ,23, ,
-2, ,23, ,
5, ,23, ,
3, ,25, ,
-1, ,23, ,
0, ,25, ,
1, ,23, ,
3, ,23, ,
-2, ,23, ,
3, ,25, ,
5, ,25, ,
-1, ,23, ,
-2, ,25, ,
3, ,23, ,
-2, ,25, ,
3, ,25, ,
-2, ,25, ,
3, ,25, ,
-2, ,25, ,
3, ,25, ,
-2, ,25, ,
3, ,25, ,
3, ,25, ,
0, ,25, ,
3, ,25, ,
-1, ,25, ,
3, ,25, ,
-4, ,25, ,
0, ,25, ,
3, ,25, ,
-2, ,25, ,
4, ,25, ,
1, ,26, ,
1, ,26, ,
-2, ,25, ,
1, ,26, ,
0, ,26, ,
-1, ,25, ,
-2, ,26, ,
0, ,26, ,
-1, ,25, ,
4, ,26, ,
-5, ,26, ,
0, ,25, ,
0, ,25, ,
0, ,26, ,
-1, ,26, ,
1, ,26, ,
3, ,26, ,
1, ,26, ,
3, ,25, ,
-4, ,26, ,
3, ,26, ,
1, ,26, ,
1, ,26, ,
3, ,26, ,
1, ,26, ,
3, ,26, ,
1, ,26, ,
3, ,26, ,
4, ,27, ,
4, ,26, ,
3, ,26, ,
3, ,26, ,
4, ,27, ,
1, ,26, ,
1, ,26, ,
0, ,26, ,
1, ,27, ,
4, ,26, ,
3, ,27, ,
1, ,26, ,
-2, ,27, ,
0, ,27, ,
0, ,27, ,
0, ,27, ,
-2, ,27, ,
3, ,26, ,
-2, ,27, ,
4, ,27, ,
0, ,27, ,
1, ,27, ,
5, ,27, ,
3, ,27, ,
1, ,27, ,
4, ,27, ,
1, ,27, ,
0, ,27, ,
-1, ,27, ,
5, ,27, ,
0, ,27, ,
3, ,28, ,
1, ,27, ,
0, ,27, ,
3, ,27, ,
-2, ,28, ,
4, ,27, ,
0, ,28, ,
1, ,28, ,
3, ,28, ,
-1, ,28, ,
3, ,27, ,
3, ,27, ,
4, ,28, ,
-1, ,27, ,
1, ,28, ,
4, ,27, ,
1, ,27, ,
3, ,28, ,
0, ,28, ,
1, ,28, ,
1, ,28, ,
1, ,28, ,
0, ,28, ,
1, ,28, ,
-4, ,28, ,
1, ,28, ,
4, ,28, ,
5, ,28, ,
3, ,28, ,
3, ,29, ,
3, ,28, ,
4, ,29, ,
1, ,28, ,
3, ,28, ,
1, ,28, ,
4, ,29, ,
3, ,29, ,
0, ,29, ,
1, ,29, ,
4, ,28, ,
1, ,29, ,
4, ,29, ,
3, ,29, ,
1, ,29, ,
4, ,29, ,
3, ,28, ,
4, ,29, ,
1, ,29, ,
3, ,29, ,
1, ,29, ,
3, ,29, ,
3, ,29, ,
1, ,29, ,
3, ,29, ,
-4, ,29, ,
1, ,29, ,
0, ,30, ,
3, ,30, ,
1, ,29, ,
1, ,29, ,
5, ,29, ,
3, ,29, ,
-1, ,29, ,
3, ,29, ,
1, ,30, ,
3, ,30, ,
-1, ,30, ,
5, ,29, ,
3, ,30, ,
1, ,30, ,
3, ,30, ,
-1, ,30, ,
4, ,30, ,
3, ,30, ,
3, ,30, ,
-1, ,30, ,
1, ,30, ,
1, ,30, ,
-1, ,30, ,
1, ,30, ,
1, ,30, ,
1, ,30, ,
0, ,30, ,
-1, ,30, ,
-2, ,31, ,
3, ,30, ,
5, ,30, ,
4, ,30, ,
0, ,30, ,
3, ,31, ,
0, ,30, ,
4, ,31, ,
3, ,30, ,
4, ,30, ,
3, ,30, ,
3, ,31, ,
3, ,31, ,
1, ,31, ,
4, ,31, ,
-4, ,31, ,
5, ,30, ,
1, ,30, ,
-1, ,31, ,
1, ,31, ,
1, ,31, ,
4, ,31, ,
-5, ,31, ,
3, ,31, ,
3, ,31, ,
0, ,31, ,
1, ,31, ,
5, ,31, ,
3, ,32, ,
3, ,31, ,
-1, ,31, ,
3, ,31, ,
1, ,32, ,
1, ,31, ,
1, ,32, ,
1, ,31, ,
-2, ,32, ,
4, ,31, ,
1, ,32, ,
-1, ,31, ,
0, ,32, ,
5, ,31, ,
1, ,32, ,
3, ,32, ,
1, ,32, ,
0, ,32, ,
4, ,31, ,
4, ,31, ,
4, ,32, ,
3, ,32, ,
3, ,32, ,
0, ,32, ,
0, ,32, ,
4, ,32, ,
4, ,32, ,
3, ,33, ,
1, ,32, ,
4, ,33, ,
0, ,33, ,
5, ,32, ,
1, ,32, ,
4, ,33, ,
-2, ,33, ,
1, ,33, ,
-1, ,32, ,
4, ,32, ,
0, ,33, ,
1, ,32, ,
-4, ,33, ,
3, ,33, ,
3, ,32, ,
3, ,33, ,
0, ,33, ,
4, ,33, ,
4, ,33, ,
1, ,33, ,
3, ,33, ,
4, ,32, ,
3, ,33, ,
-1, ,33, ,
3, ,33, ,
0, ,33, ,
3, ,33, ,
4, ,33, ,
0, ,33, ,
3, ,33, ,
-1, ,33, ,
3, ,32, ,
-2, ,33, ,
3, ,34, ,
0, ,33, ,
3, ,33, ,
1, ,33, ,
1, ,34, ,
1, ,34, ,
5, ,33, ,
3, ,33, ,
0, ,34, ,
0, ,34, ,
3, ,34, ,
1, ,33, ,
6, ,33, ,
1, ,34, ,
1, ,34, ,
3, ,34, ,
3, ,34, ,
3, ,34, ,
4, ,34, ,
3, ,34, ,
-2, ,34, ,
3, ,34, ,
0, ,34, ,
-1, ,34, ,
3, ,34, ,
0, ,34, ,
3, ,35, ,
1, ,34, ,
5, ,34, ,
1, ,34, ,
4, ,35, ,
0, ,34, ,
-1, ,35, ,
1, ,34, ,
-1, ,35, ,
-2, ,34, ,
3, ,35, ,
5, ,34, ,
-1, ,35, ,
3, ,35, ,
1, ,35, ,
3, ,35, ,
3, ,35, ,
4, ,35, ,
1, ,34, ,
1, ,35, ,
1, ,35, ,
1, ,35, ,
1, ,35, ,
1, ,35, ,
5, ,34, ,
-1, ,35, ,
1, ,35, ,
-1, ,35, ,
4, ,35, ,
-4, ,36, ,
1, ,35, ,
4, ,34, ,
0, ,35, ,
1, ,35, ,
3, ,35, ,
4, ,35, ,
3, ,35, ,
1, ,36, ,
0, ,35, ,
1, ,36, ,
0, ,36, ,
3, ,36, ,
0, ,36, ,
1, ,36, ,
1, ,36, ,
3, ,36, ,
1, ,36, ,
-4, ,36, ,
3, ,35, ,
1, ,37, ,
0, ,36, ,
0, ,36, ,
1, ,35, ,
3, ,36, ,
-1, ,36, ,
0, ,36, ,
0, ,37, ,
1, ,37, ,
-4, ,37, ,
1, ,37, ,
-2, ,36, ,
1, ,37, ,
3, ,37, ,
3, ,37, ,
1, ,36, ,
-2, ,37, ,
1, ,37, ,
4, ,36, ,
4, ,36, ,
1, ,37, ,
-4, ,37, ,
3, ,37, ,
0, ,37, ,
1, ,37, ,
-4, ,37, ,
3, ,37, ,
5, ,37, ,
3, ,37, ,
4, ,37, ,
3, ,36, ,
1, ,37, ,
-1, ,37, ,
3, ,37, ,
-4, ,38, ,
4, ,37, ,
-2, ,37, ,
1, ,38, ,
1, ,37, ,
3, ,37, ,
4, ,37, ,
1, ,38, ,
-4, ,37, ,
1, ,38, ,
3, ,37, ,
-1, ,38, ,
1, ,38, ,
-4, ,37, ,
4, ,38, ,
1, ,38, ,
-1, ,37, ,
3, ,38, ,
5, ,37, ,
4, ,37, ,
0, ,38, ,
3, ,38, ,
0, ,38, ,
4, ,38, ,
-2, ,38, ,
1, ,38, ,
3, ,37, ,
5, ,38, ,
1, ,38, ,
-1, ,38, ,
1, ,39, ,
3, ,38, ,
4, ,39, ,
4, ,38, ,
1, ,38, ,
4, ,39, ,
1, ,38, ,
3, ,39, ,
1, ,39, ,
4, ,37, ,
3, ,39, ,
3, ,39, ,
4, ,39, ,
3, ,39, ,
1, ,39, ,
-1, ,39, ,
1, ,39, ,
0, ,39, ,
4, ,39, ,
1, ,39, ,
3, ,39, ,
1, ,39, ,
1, ,39, ,
0, ,39, ,
-1, ,39, ,
1, ,39, ,
-1, ,39, ,
1, ,39, ,
0, ,40, ,
3, ,39, ,
0, ,39, ,
3, ,40, ,
5, ,39, ,
5, ,38, ,
3, ,40, ,
4, ,40, ,
1, ,40, ,
3, ,40, ,
3, ,39, ,
5, ,39, ,
4, ,39, ,
-4, ,40, ,
0, ,40, ,
0, ,40, ,
3, ,40, ,
1, ,40, ,
5, ,39, ,
0, ,40, ,
4, ,40, ,
1, ,40, ,
-1, ,40, ,
3, ,40, ,
-2, ,41, ,
3, ,39, ,
-2, ,41, ,
3, ,40, ,
4, ,40, ,
3, ,40, ,
5, ,39, ,
-2, ,40, ,
3, ,40, ,
0, ,40, ,
1, ,40, ,
4, ,40, ,
3, ,40, ,
3, ,41, ,
0, ,40, ,
3, ,41, ,
1, ,41, ,
-1, ,41, ,
3, ,40, ,
4, ,41, ,
3, ,41, ,
3, ,41, ,
-2, ,41, ,
0, ,41, ,
3, ,41, ,
3, ,41, ,
1, ,41, ,
4, ,41, ,
3, ,40, ,
1, ,41, ,
0, ,41, ,
4, ,41, ,
3, ,41, ,
5, ,41, ,
1, ,41, ,
-2, ,42, ,
1, ,41, ,
-2, ,41, ,
4, ,42, ,
1, ,41, ,
1, ,42, ,
5, ,40, ,
1, ,41, ,
4, ,42, ,
3, ,42, ,
3, ,42, ,
-4, ,42, ,
1, ,41, ,
1, ,42, ,
4, ,42, ,
3, ,42, ,
4, ,42, ,
3, ,41, ,
3, ,42, ,
-1, ,42, ,
3, ,42, ,
4, ,42, ,
3, ,41, ,
-4, ,42, ,
1, ,42, ,
0, ,42, ,
4, ,42, ,
3, ,42, ,
1, ,42, ,
-2, ,42, ,
3, ,42, ,
1, ,42, ,
5, ,42, ,
3, ,42, ,
4, ,42, ,
1, ,42, ,
3, ,42, ,
0, ,44, ,
1, ,42, ,
1, ,42, ,
3, ,44, ,
-2, ,44, ,
4, ,42, ,
3, ,44, ,
1, ,44, ,
0, ,44, ,
3, ,44, ,
1, ,44, ,
-4, ,44, ,
4, ,44, ,
-1, ,44, ,
4, ,44, ,
4, ,44, ,
1, ,44, ,
6, ,42, ,
3, ,44, ,
1, ,44, ,
4, ,44, ,
3, ,45, ,
0, ,44, ,
1, ,44, ,
0, ,45, ,
4, ,45, ,
3, ,44, ,
3, ,45, ,
4, ,44, ,
4, ,42, ,
3, ,45, ,
1, ,45, ,
3, ,45, ,
3, ,45, ,
0, ,45, ,
-2, ,46, ,
5, ,44, ,
5, ,44, ,
-1, ,45, ,
1, ,45, ,
1, ,45, ,
1, ,45, ,
3, ,45, ,
1, ,45, ,
-2, ,46, ,
0, ,45, ,
1, ,45, ,
5, ,45, ,
-2, ,46, ,
3, ,44, ,
0, ,45, ,
0, ,45, ,
0, ,46, ,
-1, ,46, ,
4, ,45, ,
-2, ,46, ,
3, ,46, ,
0, ,46, ,
3, ,46, ,
-2, ,46, ,
4, ,45, ,
-2, ,46, ,
4, ,46, ,
0, ,46, ,
3, ,45, ,
3, ,45, ,
4, ,46, ,
3, ,46, ,
4, ,46, ,
3, ,46, ,
5, ,45, ,
6, ,45, ,
4, ,46, ,
-4, ,46, ,
3, ,46, ,
0, ,46, ,
4, ,46, ,
3, ,46, ,
4, ,45, ,
4, ,45, ,
-2, ,47, ,
3, ,46, ,
1, ,47, ,
3, ,46, ,
3, ,46, ,
1, ,47, ,
-2, ,47, ,
-1, ,47, ,
3, ,47, ,
-2, ,48, ,
3, ,46, ,
1, ,47, ,
3, ,46, ,
1, ,47, ,
-1, ,47, ,
4, ,46, ,
3, ,47, ,
-2, ,47, ,
3, ,47, ,
0, ,47, ,
0, ,48, ,
5, ,46, ,
0, ,47, ,
3, ,47, ,
1, ,47, ,
1, ,47, ,
3, ,46, ,
3, ,47, ,
1, ,48, ,
3, ,48, ,
1, ,47, ,
-1, ,47, ,
3, ,48, ,
0, ,48, ,
4, ,47, ,
4, ,46, ,
-2, ,48, ,
1, ,47, ,
-1, ,47, ,
1, ,48, ,
-2, ,49, ,
1, ,48, ,
0, ,48, ,
3, ,48, ,
3, ,48, ,
3, ,48, ,
-1, ,49, ,
4, ,47, ,
5, ,49, ,
1, ,48, ,
1, ,49, ,
-4, ,49, ,
5, ,47, ,
4, ,47, ,
4, ,48, ,
3, ,48, ,
0, ,48, ,
5, ,48, ,
-2, ,49, ,
1, ,49, ,
-2, ,49, ,
3, ,49, ,
1, ,49, ,
4, ,49, ,
1, ,48, ,
1, ,49, ,
-2, ,49, ,
1, ,49, ,
-1, ,48, ,
4, ,49, ,
-2, ,50, ,
0, ,49, ,
0, ,49, ,
3, ,49, ,
4, ,49, ,
0, ,49, ,
5, ,48, ,
4, ,48, ,
-2, ,49, ,
1, ,49, ,
-1, ,49, ,
3, ,49, ,
-4, ,50, ,
3, ,50, ,
3, ,48, ,
3, ,49, ,
0, ,49, ,
0, ,49, ,
0, ,50, ,
0, ,50, ,
3, ,48, ,
4, ,48, ,
3, ,49, ,
1, ,50, ,
5, ,49, ,
1, ,50, ,
3, ,48, ,
1, ,49, ,
4, ,50, ,
3, ,50, ,
3, ,50, ,
1, ,49, ,
3, ,50, ,
-2, ,51, ,
4, ,50, ,
-1, ,50, ,
0, ,50, ,
1, ,50, ,
0, ,49, ,
1, ,49, ,
1, ,49, ,
3, ,49, ,
3, ,50, ,
-1, ,49, ,
1, ,50, ,
4, ,49, ,
3, ,50, ,
1, ,50, ,
3, ,49, ,
3, ,50, ,
4, ,48, ,
4, ,49, ,
1, ,49, ,
1, ,50, ,
3, ,49, ,
1, ,50, ,
4, ,48, ,
3, ,49, ,
0, ,49, ,
3, ,49, ,
1, ,49, ,
3, ,49, ,
3, ,49, ,
-2, ,50, ,
4, ,48, ,
-4, ,50, ,
1, ,49, ,
0, ,49, ,
1, ,49, ,
-1, ,50, ,
1, ,48, ,
1, ,48, ,
3, ,49, ,
1, ,49, ,
1, ,49, ,
3, ,48, ,
-5, ,49, ,
3, ,47, ,
3, ,49, ,
3, ,49, ,
3, ,49, ,
-1, ,49, ,
1, ,48, ,
4, ,49, ,
4, ,48, ,
0, ,48, ,
-1, ,49, ,
-2, ,49, ,
3, ,48, ,
-1, ,48, ,
3, ,48, ,
1, ,48, ,
0, ,48, ,
3, ,48, ,
3, ,48, ,
0, ,48, ,
5, ,48, ,
0, ,47, ,
1, ,49, ,
-2, ,48, ,
6, ,47, ,
-4, ,48, ,
3, ,48, ,
-2, ,47, ,
1, ,48, ,
-2, ,48, ,
1, ,47, ,
-2, ,48, ,
1, ,47, ,
3, ,47, ,
3, ,47, ,
4, ,46, ,
3, ,48, ,
1, ,47, ,
4, ,47, ,
1, ,47, ,
3, ,47, ,
0, ,48, ,
3, ,47, ,
3, ,48, ,
4, ,47, ,
1, ,47, ,
3, ,47, ,
-4, ,47, ,
5, ,46, ,
-1, ,47, ,
3, ,47, ,
0, ,47, ,
-1, ,46, ,
4, ,47, ,
3, ,46, ,
1, ,47, ,
4, ,45, ,
4, ,46, ,
1, ,47, ,
1, ,46, ,
3, ,46, ,
3, ,47, ,
4, ,45, ,
3, ,46, ,
4, ,46, ,
3, ,46, ,
0, ,46, ,
3, ,47, ,
-1, ,46, ,
1, ,46, ,
1, ,46, ,
3, ,46, ,
-1, ,47, ,
3, ,46, ,
-4, ,46, ,
1, ,46, ,
3, ,46, ,
-1, ,47, ,
3, ,46, ,
-1, ,46, ,
0, ,46, ,
1, ,46, ,
1, ,46, ,
3, ,45, ,
5, ,45, ,
-1, ,46, ,
4, ,45, ,
1, ,45, ,
0, ,46, ,
-4, ,46, ,
4, ,45, ,
3, ,44, ,
-1, ,45, ,
3, ,45, ,
3, ,45, ,
4, ,45, ,
-2, ,45, ,
3, ,44, ,
1, ,45, ,
3, ,45, ,
4, ,45, ,
3, ,45, ,
4, ,44, ,
-1, ,45, ,
3, ,45, ,
1, ,44, ,
0, ,45, ,
3, ,44, ,
3, ,45, ,
3, ,45, ,
-1, ,45, ,
1, ,45, ,
3, ,42, ,
3, ,44, ,
1, ,44, ,
4, ,44, ,
-2, ,45, ,
3, ,42, ,
4, ,45, ,
3, ,44, ,
4, ,44, ,
0, ,45, ,
4, ,44, ,
4, ,42, ,
3, ,44, ,
1, ,44, ,
0, ,44, ,
3, ,44, ,
-1, ,45, ,
3, ,44, ,
-1, ,44, ,
3, ,44, ,
-1, ,44, ,
3, ,44, ,
3, ,44, ,
1, ,44, ,
3, ,44, ,
4, ,42, ,
1, ,44, ,
4, ,44, ,
-1, ,44, ,
0, ,44, ,
0, ,42, ,
1, ,42, ,
1, ,44, ,
1, ,42, ,
1, ,42, ,
4, ,41, ,
0, ,42, ,
3, ,42, ,
1, ,42, ,
4, ,42, ,
4, ,42, ,
4, ,44, ,
3, ,41, ,
3, ,42, ,
0, ,42, ,
1, ,42, ,
-2, ,42, ,
3, ,42, ,
0, ,42, ,
3, ,41, ,
1, ,42, ,
1, ,41, ,
-2, ,42, ,
3, ,42, ,
1, ,41, ,
4, ,41, ,
1, ,42, ,
3, ,42, ,
5, ,41, ,
4, ,42, ,
1, ,42, ,
-1, ,42, ,
5, ,41, ,
3, ,41, ,
3, ,42, ,
1, ,41, ,
1, ,41, ,
3, ,41, ,
-1, ,41, ,
4, ,40, ,
-1, ,41, ,
3, ,41, ,
0, ,41, ,
3, ,41, ,
-1, ,41, ,
3, ,41, ,
-2, ,41, ,
1, ,41, ,
0, ,41, ,
-2, ,42, ,
4, ,40, ,
-1, ,41, ,
5, ,41, ,
3, ,41, ,
4, ,40, ,
3, ,40, ,
0, ,40, ,
1, ,40, ,
5, ,40, ,
4, ,40, ,
-1, ,40, ,
5, ,40, ,
0, ,40, ,
4, ,40, ,
5, ,40, ,
3, ,39, ,
0, ,41, ,
4, ,40, ,
4, ,40, ,
5, ,39, ,
4, ,40, ,
-2, ,40, ,
1, ,40, ,
0, ,39, ,
3, ,40, ,
4, ,40, ,
3, ,39, ,
-2, ,40, ,
4, ,40, ,
3, ,40, ,
0, ,40, ,
-2, ,40, ,
4, ,39, ,
3, ,39, ,
3, ,40, ,
1, ,39, ,
1, ,40, ,
-1, ,40, ,
4, ,39, ,
-1, ,39, ,
1, ,40, ,
3, ,40, ,
0, ,39, ,
3, ,39, ,
1, ,39, ,
1, ,39, ,
1, ,39, ,
-1, ,39, ,
3, ,39, ,
3, ,39, ,
1, ,39, ,
-2, ,39, ,
1, ,39, ,
-1, ,39, ,
3, ,39, ,
0, ,39, ,
3, ,39, ,
3, ,39, ,
-2, ,39, ,
4, ,38, ,
3, ,39, ,
3, ,39, ,
-1, ,39, ,
5, ,38, ,
-1, ,39, ,
4, ,39, ,
1, ,38, ,
3, ,39, ,
3, ,38, ,
3, ,39, ,
4, ,38, ,
4, ,38, ,
0, ,38, ,
3, ,38, ,
0, ,38, ,
3, ,38, ,
3, ,37, ,
5, ,38, ,
1, ,38, ,
4, ,38, ,
3, ,38, ,
1, ,38, ,
1, ,37, ,
6, ,37, ,
1, ,38, ,
4, ,37, ,
1, ,38, ,
0, ,38, ,
3, ,38, ,
-2, ,38, ,
1, ,38, ,
3, ,38, ,
4, ,38, ,
1, ,37, ,
1, ,38, ,
1, ,37, ,
3, ,37, ,
0, ,38, ,
4, ,37, ,
0, ,37, ,
1, ,38, ,
3, ,37, ,
-4, ,37, ,
1, ,36, ,
1, ,37, ,
1, ,37, ,
-1, ,37, ,
3, ,37, ,
-1, ,37, ,
3, ,37, ,
3, ,36, ,
5, ,36, ,
1, ,37, ,
-1, ,37, ,
1, ,37, ,
1, ,37, ,
3, ,37, ,
0, ,37, ,
6, ,36, ,
4, ,36, ,
3, ,37, ,
1, ,37, ,
3, ,37, ,
-1, ,37, ,
3, ,36, ,
-1, ,37, ,
3, ,36, ,
1, ,36, ,
3, ,36, ,
-2, ,37, ,
1, ,36, ,
4, ,36, ,
3, ,36, ,
1, ,36, ,
3, ,36, ,
-1, ,37, ,
0, ,36, ,
1, ,36, ,
3, ,36, ,
0, ,36, ,
3, ,36, ,
-4, ,36, ,
5, ,35, ,
-1, ,36, ,
3, ,36, ,
3, ,36, ,
3, ,36, ,
1, ,35, ,
-1, ,36, ,
1, ,35, ,
-2, ,35, ,
1, ,35, ,
3, ,35, ,
4, ,35, ,
-1, ,36, ,
4, ,35, ,
0, ,35, ,
1, ,35, ,
1, ,35, ,
4, ,35, ,
3, ,35, ,
3, ,35, ,
5, ,34, ,
4, ,35, ,
3, ,35, ,
5, ,35, ,
0, ,35, ,
3, ,35, ,
3, ,35, ,
5, ,34, ,
1, ,35, ,
3, ,34, ,
-1, ,35, ,
3, ,35, ,
3, ,34, ,
3, ,34, ,
1, ,34, ,
-2, ,35, ,
1, ,34, ,
1, ,34, ,
3, ,35, ,
-1, ,35, ,
5, ,34, ,
5, ,34, ,
-1, ,34, ,
3, ,34, ,
0, ,34, ,
3, ,35, ,
1, ,34, ,
3, ,34, ,
1, ,34, ,
8, ,33, ,
1, ,34, ,
4, ,34, ,
1, ,34, ,
1, ,34, ,
3, ,33, ,
4, ,34, ,
1, ,34, ,
3, ,34, ,
-2, ,34, ,
1, ,33, ,
-2, ,33, ,
1, ,34, ,
3, ,34, ,
-4, ,34, ,
1, ,33, ,
0, ,34, ,
4, ,33, ,
4, ,33, ,
4, ,33, ,
3, ,33, ,
1, ,34, ,
4, ,33, ,
3, ,33, ,
4, ,33, ,
3, ,33, ,
3, ,33, ,
0, ,33, ,
1, ,33, ,
-2, ,34, ,
3, ,32, ,
3, ,33, ,
1, ,33, ,
3, ,33, ,
-1, ,33, ,
4, ,33, ,
3, ,33, ,
1, ,33, ,
3, ,33, ,
3, ,32, ,
-1, ,33, ,
3, ,32, ,
4, ,33, ,
4, ,32, ,
4, ,33, ,
3, ,32, ,
3, ,32, ,
3, ,32, ,
4, ,33, ,
-1, ,33, ,
3, ,32, ,
4, ,32, ,
1, ,32, ,
1, ,33, ,
3, ,32, ,
4, ,32, ,
4, ,32, ,
4, ,31, ,
5, ,32, ,
1, ,32, ,
3, ,32, ,
3, ,32, ,
3, ,32, ,
3, ,32, ,
-1, ,32, ,
4, ,31, ,
-1, ,32, ,
3, ,32, ,
1, ,32, ,
0, ,32, ,
3, ,31, ,
-2, ,32, ,
3, ,31, ,
-2, ,32, ,
1, ,31, ,
0, ,31, ,
-4, ,32, ,
5, ,30, ,
4, ,31, ,
3, ,31, ,
-2, ,31, ,
3, ,31, ,
1, ,31, ,
4, ,30, ,
4, ,30, ,
-2, ,31, ,
1, ,31, ,
-2, ,31, ,
4, ,31, ,
4, ,31, ,
1, ,31, ,
-2, ,31, ,
0, ,31, ,
5, ,31, ,
-1, ,31, ,
1, ,31, ,
-4, ,30, ,
3, ,31, ,
1, ,31, ,
0, ,31, ,
-2, ,31, ,
1, ,30, ,
-2, ,30, ,
3, ,30, ,
3, ,30, ,
4, ,31, ,
3, ,30, ,
6, ,30, ,
1, ,30, ,
-1, ,30, ,
3, ,30, ,
0, ,30, ,
4, ,30, ,
-4, ,30, ,
3, ,30, ,
1, ,29, ,
3, ,29, ,
0, ,30, ,
4, ,30, ,
-2, ,30, ,
1, ,30, ,
-2, ,29, ,
0, ,30, ,
5, ,30, ,
1, ,30, ,
6, ,29, ,
3, ,29, ,
-4, ,30, ,
0, ,30, ,
3, ,29, ,
3, ,29, ,
-2, ,30, ,
3, ,29, ,
-2, ,29, ,
0, ,30, ,
1, ,29, ,
-1, ,30, ,
5, ,29, ,
1, ,29, ,
-2, ,29, ,
0, ,29, ,
1, ,29, ,
-2, ,30, ,
4, ,28, ,
-2, ,29, ,
3, ,29, ,
0, ,29, ,
3, ,29, ,
-4, ,29, ,
4, ,29, ,
3, ,28, ,
0, ,29, ,
1, ,29, ,
0, ,29, ,
4, ,29, ,
1, ,28, ,
3, ,29, ,
1, ,28, ,
3, ,29, ,
4, ,28, ,
0, ,29, ,
0, ,28, ,
1, ,28, ,
3, ,28, ,
3, ,28, ,
1, ,28, ,
1, ,28, ,
-2, ,28, ,
0, ,28, ,
-1, ,28, ,
0, ,28, ,
0, ,28, ,
5, ,28, ,
-2, ,28, ,
4, ,27, ,
1, ,28, ,
0, ,28, ,
1, ,28, ,
1, ,27, ,
4, ,27, ,
4, ,27, ,
0, ,28, ,
3, ,27, ,
3, ,28, ,
1, ,28, ,
0, ,27, ,
0, ,28, ,
3, ,27, ,
-2, ,28, ,
3, ,27, ,
0, ,27, ,
0, ,28, ,
0, ,27, ,
1, ,27, ,
-2, ,27, ,
3, ,27, ,
-1, ,27, ,
4, ,27, ,
1, ,27, ,
3, ,26, ,
1, ,27, ,
1, ,27, ,
1, ,27, ,
1, ,27, ,
-2, ,27, ,
1, ,27, ,
4, ,27, ,
-1, ,27, ,
3, ,26, ,
-1, ,27, ,
1, ,27, ,
1, ,27, ,
1, ,26, ,
1, ,26, ,
4, ,26, ,
3, ,27, ,
-1, ,26, ,
1, ,27, ,
-2, ,27, ,
4, ,26, ,
-2, ,26, ,
3, ,27, ,
1, ,26, ,
-4, ,26, ,
3, ,26, ,
1, ,26, ,
1, ,26, ,
5, ,26, ,
5, ,25, ,
1, ,26, ,
-5, ,26, ,
3, ,26, ,
1, ,26, ,
1, ,26, ,
3, ,26, ,
1, ,26, ,
0, ,26, ,
3, ,26, ,
4, ,26, ,
4, ,25, ,
1, ,25, ,
1, ,26, ,
4, ,26, ,
3, ,26, ,
5, ,25, ,
0, ,25, ,
-2, ,25, ,
4, ,25, ,
4, ,26, ,
1, ,25, ,
4, ,25, ,
4, ,25, ,
1, ,25, ,
1, ,25, ,
1, ,25, ,
3, ,25, ,
-1, ,25, ,
-2, ,25, ,
1, ,25, ,
-1, ,25, ,
4, ,25, ,
-4, ,25, ,
3, ,23, ,
0, ,25, ,
1, ,25, ,
0, ,25, ,
-2, ,25, ,
1, ,23, ,
-4, ,25, ,
1, ,23, ,
-1, ,25, ,
3, ,23, ,
3, ,23, ,
3, ,23, ,
3, ,25, ,
1, ,23, ,
3, ,23, ,
-2, ,23, ,
1, ,23, ,
3, ,25, ,
-4, ,25, ,
1, ,23, ,
-1, ,23, ,
1, ,25, ,
1, ,23, ,
4, ,23, ,
0, ,23, ,
5, ,23, ,
5, ,22, ,
3, ,23, ,
-2, ,22, ,
3, ,23, ,
0, ,23, ,
3, ,22, ,
-1, ,23, ,
1, ,23, ,
-4, ,22, ,
1, ,23, ,
-2, ,23, ,
1, ,22, ,
1, ,23, ,
4, ,22, ,
0, ,23, ,
1, ,22, ,
-4, ,23, ,
6, ,22, ,
4, ,22, ,
1, ,23, ,
3, ,22, ,
3, ,22, ,
0, ,22, ,
3, ,22, ,
3, ,22, ,
-2, ,22, ,
4, ,22, ,
3, ,22, ,
5, ,22, ,
1, ,22, ,
0, ,22, ,
4, ,21, ,
1, ,22, ,
0, ,22, ,
3, ,22, ,
-2, ,22, ,
0, ,21, ,
-1, ,21, ,
4, ,21, ,
3, ,22, ,
4, ,21, ,
-2, ,22, ,
4, ,21, ,
4, ,21, ,
5, ,21, ,
3, ,21, ,
1, ,21, ,
1, ,21, ,
1, ,21, ,
3, ,21, ,
3, ,21, ,
4, ,21, ,
0, ,21, ,
0, ,21, ,
1, ,21, ,
3, ,20, ,
3, ,21, ,
1, ,21, ,
-1, ,21, ,
4, ,21, ,
-1, ,21, ,
3, ,21, ,
1, ,21, ,
3, ,20, ,
3, ,20, ,
-1, ,21, ,
3, ,21, ,
-1, ,20, ,
1, ,20, ,
4, ,21, ,
4, ,20, ,
5, ,20, ,
