src/test_folder/switching30000078.CSV

Format,1.0B,
Memory Length,10000,Memory Length,10000,
IntpDistance,0,IntpDistance,0,
Trigger Address,4999,Trigger Address,4999,
Trigger Level,1.760E+00,Trigger Level,1.760E+00,
Source,CH1,Source,CH2,
Vertical Units,V,Vertical Units,V,
Vertical Units Div,0,Vertical Units Div,0,
Vertical Units Extend Div,16,Vertical Units Extend Div,16,
Label,,Label,,
Probe Type,0,Probe Type,0,
Probe Ratio,1.000e+01,Probe Ratio,1.000e+00,
Vertical Scale,2.000e-02,Vertical Scale,1.000e+00,
Vertical Position,-5.120e-02,Vertical Position,2.000e-01,
Horizontal Units,S,Horizontal Units,S,
Horizontal Scale,1.000E-01,Horizontal Scale,1.000E-01,
Horizontal Position,0.000E+00,Horizontal Position,0.000E+00,
Horizontal Mode,Roll Mode,Horizontal Mode,Roll Mode,
Display Last Dot Address,10000,Display Last Dot Address,10000,
Waveform Last Dot Address,0,Waveform Last Dot Address,0,
SincET Mode,Real Time,SincET Mode,Real Time,
Sampling Period,1.000e-04,Sampling Period,1.000e-04,
Horizontal Old Scale,1.000E-01,Horizontal Old Scale,1.000E-01,
Mode,Fast,Mode,Fast,
Firmware,V1.23,,Firmware,V1.23,,
3, ,48, ,
-1, ,47, ,
4, ,48, ,
-1, ,47, ,
3, ,47, ,
3, ,47, ,
-1, ,47, ,
1, ,47, ,
3, ,46, ,
3, ,46, ,
-1, ,46, ,
6, ,45, ,
-1, ,46, ,
3, ,46, ,
0, ,45, ,
3, ,45, ,
-1, ,45, ,
4, ,45, ,
-4, ,42, ,
0, ,45, ,
0, ,44, ,
1, ,44, ,
3, ,44, ,
3, ,42, ,
-4, ,41, ,
1, ,44, ,
1, ,42, ,
-4, ,41, ,
3, ,42, ,
5, ,42, ,
0, ,41, ,
1, ,41, ,
3, ,41, ,
3, ,41, ,
0, ,40, ,
3, ,40, ,
5, ,40, ,
6, ,39, ,
4, ,40, ,
-1, ,40, ,
3, ,39, ,
3, ,39, ,
-1, ,39, ,
-1, ,39, ,
1, ,38, ,
3, ,38, ,
-2, ,38, ,
1, ,38, ,
-4, ,38, ,
4, ,38, ,
4, ,38, ,
-1, ,38, ,
3, ,38, ,
-2, ,38, ,
3, ,37, ,
1, ,37, ,
1, ,36, ,
0, ,37, ,
-2, ,36, ,
4, ,37, ,
-2, ,36, ,
3, ,35, ,
-1, ,36, ,
3, ,35, ,
-1, ,35, ,
4, ,35, ,
1, ,35, ,
5, ,35, ,
0, ,34, ,
3, ,34, ,
4, ,34, ,
1, ,34, ,
3, ,34, ,
1, ,34, ,
0, ,34, ,
-1, ,34, ,
3, ,32, ,
1, ,33, ,
1, ,33, ,
-2, ,32, ,
-1, ,32, ,
1, ,31, ,
1, ,32, ,
-1, ,32, ,
0, ,32, ,
-2, ,31, ,
3, ,31, ,
-2, ,31, ,
3, ,31, ,
-1, ,31, ,
1, ,30, ,
-2, ,30, ,
-1, ,31, ,
1, ,30, ,
3, ,30, ,
-2, ,30, ,
-1, ,30, ,
-2, ,29, ,
3, ,29, ,
-1, ,28, ,
3, ,29, ,
3, ,29, ,
1, ,28, ,
-1, ,28, ,
3, ,28, ,
3, ,28, ,
-1, ,28, ,
0, ,28, ,
1, ,27, ,
0, ,27, ,
3, ,27, ,
4, ,27, ,
1, ,27, ,
1, ,26, ,
1, ,26, ,
-1, ,26, ,
1, ,26, ,
4, ,25, ,
1, ,26, ,
-2, ,26, ,
5, ,25, ,
4, ,25, ,
4, ,25, ,
0, ,25, ,
1, ,25, ,
5, ,23, ,
3, ,23, ,
4, ,23, ,
1, ,23, ,
3, ,23, ,
1, ,23, ,
3, ,22, ,
4, ,22, ,
-2, ,22, ,
4, ,22, ,
-1, ,22, ,
-1, ,21, ,
3, ,21, ,
1, ,21, ,
-2, ,21, ,
3, ,21, ,
1, ,20, ,
4, ,20, ,
-1, ,20, ,
1, ,20, ,
1, ,20, ,
3, ,20, ,
3, ,20, ,
-1, ,19, ,
3, ,19, ,
1, ,19, ,
4, ,19, ,
-2, ,19, ,
3, ,18, ,
-1, ,18, ,
0, ,18, ,
-1, ,18, ,
4, ,18, ,
-2, ,17, ,
3, ,18, ,
-1, ,17, ,
3, ,18, ,
1, ,17, ,
3, ,16, ,
1, ,16, ,
1, ,16, ,
4, ,16, ,
1, ,16, ,
1, ,16, ,
0, ,16, ,
1, ,15, ,
1, ,15, ,
3, ,15, ,
5, ,15, ,
3, ,14, ,
0, ,15, ,
4, ,15, ,
-1, ,14, ,
4, ,14, ,
0, ,14, ,
4, ,14, ,
4, ,13, ,
-1, ,14, ,
1, ,13, ,
1, ,13, ,
3, ,12, ,
1, ,13, ,
1, ,12, ,
0, ,12, ,
1, ,12, ,
0, ,12, ,
0, ,12, ,
4, ,12, ,
1, ,12, ,
1, ,12, ,
-2, ,11, ,
1, ,11, ,
-2, ,11, ,
3, ,11, ,
1, ,10, ,
0, ,10, ,
0, ,10, ,
-2, ,10, ,
1, ,10, ,
3, ,10, ,
0, ,9, ,
0, ,9, ,
4, ,9, ,
-1, ,9, ,
1, ,9, ,
4, ,8, ,
4, ,8, ,
0, ,8, ,
3, ,8, ,
1, ,8, ,
0, ,8, ,
1, ,8, ,
-1, ,7, ,
1, ,7, ,
1, ,7, ,
1, ,7, ,
3, ,7, ,
3, ,6, ,
-2, ,6, ,
4, ,6, ,
5, ,6, ,
0, ,6, ,
1, ,6, ,
0, ,4, ,
-1, ,4, ,
1, ,4, ,
0, ,4, ,
3, ,4, ,
1, ,4, ,
3, ,3, ,
0, ,3, ,
1, ,3, ,
3, ,3, ,
-2, ,3, ,
1, ,3, ,
-4, ,2, ,
1, ,2, ,
-1, ,2, ,
1, ,2, ,
1, ,2, ,
0, ,1, ,
0, ,1, ,
3, ,1, ,
-1, ,1, ,
3, ,1, ,
-4, ,1, ,
0, ,1, ,
1, ,0, ,
-2, ,0, ,
3, ,0, ,
-2, ,0, ,
0, ,0, ,
3, ,-1, ,
-1, ,-1, ,
1, ,-1, ,
0, ,-1, ,
1, ,-1, ,
-2, ,-1, ,
1, ,-2, ,
1, ,-2, ,
0, ,-2, ,
4, ,-2, ,
-1, ,-2, ,
3, ,-3, ,
0, ,-3, ,
0, ,-3, ,
-4, ,-3, ,
3, ,-3, ,
3, ,-3, ,
0, ,-4, ,
1, ,-4, ,
5, ,-4, ,
3, ,-4, ,
0, ,-4, ,
1, ,-5, ,
0, ,-5, ,
3, ,-5, ,
-2, ,-5, ,
3, ,-5, ,
1, ,-5, ,
3, ,-6, ,
-4, ,-6, ,
3, ,-6, ,
-4, ,-6, ,
3, ,-6, ,
0, ,-7, ,
1, ,-6, ,
3, ,-7, ,
-2, ,-7, ,
1, ,-7, ,
3, ,-7, ,
1, ,-8, ,
1, ,-8, ,
1, ,-8, ,
-2, ,-8, ,
4, ,-8, ,
1, ,-8, ,
1, ,-9, ,
1, ,-9, ,
-2, ,-9, ,
4, ,-9, ,
3, ,-9, ,
0, ,-10, ,
3, ,-10, ,
4, ,-10, ,
0, ,-10, ,
0, ,-10, ,
4, ,-10, ,
0, ,-11, ,
4, ,-11, ,
1, ,-11, ,
0, ,-11, ,
3, ,-11, ,
3, ,-11, ,
-1, ,-12, ,
0, ,-12, ,
0, ,-12, ,
3, ,-12, ,
-4, ,-12, ,
4, ,-12, ,
3, ,-13, ,
3, ,-13, ,
0, ,-13, ,
0, ,-13, ,
4, ,-13, ,
-1, ,-14, ,
4, ,-14, ,
3, ,-14, ,
1, ,-14, ,
-1, ,-14, ,
4, ,-14, ,
1, ,-16, ,
1, ,-16, ,
3, ,-16, ,
-2, ,-16, ,
3, ,-16, ,
-2, ,-16, ,
1, ,-17, ,
0, ,-17, ,
3, ,-17, ,
0, ,-17, ,
3, ,-17, ,
-1, ,-18, ,
1, ,-18, ,
0, ,-18, ,
1, ,-18, ,
4, ,-18, ,
-5, ,-18, ,
3, ,-19, ,
-1, ,-19, ,
4, ,-19, ,
1, ,-19, ,
3, ,-19, ,
-1, ,-20, ,
3, ,-20, ,
4, ,-20, ,
3, ,-20, ,
1, ,-20, ,
1, ,-21, ,
0, ,-21, ,
1, ,-21, ,
-1, ,-21, ,
3, ,-21, ,
-1, ,-21, ,
1, ,-22, ,
-1, ,-22, ,
3, ,-22, ,
-2, ,-22, ,
1, ,-22, ,
-1, ,-22, ,
1, ,-23, ,
-1, ,-23, ,
4, ,-23, ,
0, ,-23, ,
-1, ,-23, ,
1, ,-24, ,
1, ,-24, ,
3, ,-24, ,
-1, ,-24, ,
0, ,-24, ,
0, ,-24, ,
1, ,-24, ,
-2, ,-25, ,
3, ,-25, ,
4, ,-25, ,
1, ,-25, ,
3, ,-25, ,
0, ,-26, ,
3, ,-26, ,
-1, ,-26, ,
3, ,-26, ,
-4, ,-26, ,
3, ,-26, ,
-2, ,-27, ,
3, ,-27, ,
-2, ,-27, ,
1, ,-27, ,
3, ,-27, ,
0, ,-28, ,
0, ,-28, ,
4, ,-28, ,
3, ,-28, ,
0, ,-28, ,
1, ,-28, ,
3, ,-29, ,
0, ,-29, ,
-4, ,-29, ,
3, ,-29, ,
1, ,-29, ,
4, ,-29, ,
3, ,-30, ,
1, ,-29, ,
3, ,-30, ,
3, ,-30, ,
0, ,-30, ,
1, ,-30, ,
-1, ,-31, ,
3, ,-31, ,
6, ,-31, ,
0, ,-31, ,
4, ,-31, ,
0, ,-31, ,
0, ,-32, ,
1, ,-32, ,
-1, ,-32, ,
3, ,-32, ,
1, ,-32, ,
1, ,-33, ,
0, ,-33, ,
1, ,-33, ,
0, ,-33, ,
3, ,-33, ,
-1, ,-35, ,
3, ,-33, ,
3, ,-35, ,
-1, ,-35, ,
3, ,-35, ,
0, ,-36, ,
3, ,-35, ,
-2, ,-36, ,
0, ,-36, ,
1, ,-36, ,
-2, ,-36, ,
4, ,-37, ,
-2, ,-37, ,
1, ,-37, ,
-1, ,-37, ,
1, ,-37, ,
3, ,-37, ,
0, ,-37, ,
-1, ,-37, ,
0, ,-38, ,
3, ,-38, ,
1, ,-38, ,
4, ,-39, ,
1, ,-39, ,
-2, ,-39, ,
3, ,-39, ,
1, ,-39, ,
1, ,-40, ,
3, ,-39, ,
1, ,-39, ,
-2, ,-40, ,
0, ,-40, ,
3, ,-40, ,
1, ,-41, ,
-2, ,-41, ,
4, ,-41, ,
1, ,-41, ,
3, ,-42, ,
-1, ,-41, ,
1, ,-42, ,
3, ,-42, ,
3, ,-42, ,
5, ,-42, ,
1, ,-42, ,
1, ,-42, ,
-1, ,-43, ,
3, ,-43, ,
1, ,-42, ,
0, ,-42, ,
1, ,-42, ,
-2, ,-42, ,
0, ,-42, ,
0, ,-41, ,
1, ,-41, ,
1, ,-41, ,
-2, ,-41, ,
3, ,-41, ,
-2, ,-40, ,
1, ,-40, ,
3, ,-40, ,
3, ,-40, ,
3, ,-39, ,
1, ,-39, ,
4, ,-39, ,
0, ,-39, ,
1, ,-39, ,
1, ,-39, ,
3, ,-39, ,
3, ,-38, ,
1, ,-38, ,
4, ,-38, ,
3, ,-38, ,
-2, ,-38, ,
1, ,-38, ,
-2, ,-37, ,
1, ,-37, ,
3, ,-37, ,
3, ,-37, ,
4, ,-37, ,
1, ,-36, ,
1, ,-36, ,
1, ,-36, ,
1, ,-36, ,
5, ,-36, ,
1, ,-35, ,
1, ,-35, ,
1, ,-35, ,
-1, ,-35, ,
1, ,-35, ,
0, ,-35, ,
3, ,-33, ,
3, ,-33, ,
-2, ,-33, ,
1, ,-33, ,
-1, ,-33, ,
3, ,-32, ,
-1, ,-32, ,
3, ,-32, ,
5, ,-32, ,
4, ,-32, ,
3, ,-32, ,
1, ,-31, ,
3, ,-31, ,
5, ,-31, ,
-2, ,-31, ,
1, ,-31, ,
1, ,-31, ,
1, ,-30, ,
5, ,-30, ,
3, ,-30, ,
5, ,-30, ,
3, ,-30, ,
1, ,-30, ,
0, ,-29, ,
3, ,-29, ,
1, ,-29, ,
1, ,-29, ,
1, ,-29, ,
0, ,-29, ,
1, ,-28, ,
3, ,-28, ,
3, ,-28, ,
0, ,-28, ,
1, ,-27, ,
-2, ,-28, ,
3, ,-27, ,
-1, ,-27, ,
-1, ,-27, ,
0, ,-27, ,
0, ,-26, ,
1, ,-26, ,
6, ,-26, ,
4, ,-26, ,
-2, ,-26, ,
1, ,-25, ,
0, ,-26, ,
4, ,-25, ,
-2, ,-25, ,
4, ,-25, ,
-1, ,-24, ,
3, ,-24, ,
1, ,-24, ,
4, ,-24, ,
0, ,-24, ,
0, ,-24, ,
1, ,-24, ,
4, ,-23, ,
0, ,-23, ,
1, ,-23, ,
1, ,-23, ,
3, ,-23, ,
4, ,-23, ,
5, ,-22, ,
-2, ,-22, ,
0, ,-22, ,
-2, ,-22, ,
3, ,-22, ,
4, ,-22, ,
1, ,-21, ,
1, ,-21, ,
4, ,-21, ,
4, ,-21, ,
3, ,-21, ,
4, ,-20, ,
-2, ,-20, ,
5, ,-20, ,
5, ,-20, ,
3, ,-20, ,
0, ,-20, ,
1, ,-19, ,
3, ,-19, ,
1, ,-19, ,
0, ,-19, ,
3, ,-19, ,
0, ,-19, ,
1, ,-18, ,
4, ,-18, ,
1, ,-18, ,
1, ,-18, ,
0, ,-17, ,
4, ,-17, ,
-4, ,-17, ,
1, ,-17, ,
-2, ,-17, ,
1, ,-17, ,
-2, ,-16, ,
3, ,-16, ,
3, ,-16, ,
4, ,-16, ,
3, ,-16, ,
-2, ,-16, ,
3, ,-14, ,
3, ,-14, ,
3, ,-14, ,
3, ,-14, ,
0, ,-14, ,
3, ,-13, ,
3, ,-13, ,
1, ,-13, ,
3, ,-13, ,
4, ,-13, ,
-1, ,-13, ,
3, ,-12, ,
1, ,-12, ,
4, ,-12, ,
1, ,-12, ,
0, ,-11, ,
3, ,-12, ,
4, ,-11, ,
-2, ,-11, ,
3, ,-11, ,
4, ,-11, ,
0, ,-11, ,
0, ,-10, ,
3, ,-10, ,
-4, ,-10, ,
3, ,-10, ,
3, ,-10, ,
1, ,-10, ,
0, ,-9, ,
4, ,-9, ,
1, ,-9, ,
3, ,-9, ,
-1, ,-9, ,
1, ,-9, ,
1, ,-8, ,
3, ,-8, ,
-2, ,-8, ,
4, ,-8, ,
-2, ,-8, ,
1, ,-7, ,
1, ,-7, ,
0, ,-7, ,
-2, ,-7, ,
4, ,-7, ,
-1, ,-7, ,
1, ,-6, ,
1, ,-6, ,
-2, ,-6, ,
3, ,-6, ,
-2, ,-6, ,
4, ,-6, ,
1, ,-5, ,
3, ,-5, ,
3, ,-5, ,
3, ,-5, ,
3, ,-4, ,
4, ,-4, ,
3, ,-4, ,
5, ,-4, ,
1, ,-4, ,
1, ,-4, ,
1, ,-4, ,
1, ,-3, ,
3, ,-3, ,
-2, ,-3, ,
4, ,-3, ,
0, ,-3, ,
4, ,-3, ,
-2, ,-2, ,
1, ,-2, ,
4, ,-2, ,
5, ,-2, ,
1, ,-2, ,
4, ,-2, ,
3, ,-1, ,
-1, ,-1, ,
4, ,-1, ,
-4, ,-1, ,
5, ,-1, ,
-2, ,-1, ,
4, ,0, ,
-1, ,0, ,
4, ,0, ,
6, ,0, ,
1, ,0, ,
-4, ,1, ,
3, ,0, ,
3, ,1, ,
1, ,1, ,
4, ,1, ,
-4, ,1, ,
1, ,2, ,
4, ,2, ,
1, ,2, ,
3, ,2, ,
3, ,2, ,
3, ,3, ,
3, ,3, ,
-2, ,3, ,
3, ,3, ,
1, ,3, ,
4, ,3, ,
3, ,3, ,
1, ,4, ,
5, ,4, ,
3, ,4, ,
-1, ,4, ,
4, ,4, ,
4, ,4, ,
0, ,6, ,
-1, ,6, ,
3, ,6, ,
3, ,6, ,
5, ,7, ,
1, ,7, ,
4, ,7, ,
5, ,7, ,
0, ,7, ,
3, ,7, ,
1, ,7, ,
1, ,8, ,
1, ,8, ,
4, ,8, ,
0, ,8, ,
1, ,8, ,
0, ,8, ,
3, ,9, ,
1, ,9, ,
3, ,9, ,
0, ,9, ,
-1, ,10, ,
3, ,9, ,
0, ,10, ,
3, ,10, ,
1, ,10, ,
3, ,10, ,
0, ,10, ,
4, ,11, ,
-4, ,11, ,
1, ,11, ,
1, ,11, ,
1, ,11, ,
-1, ,11, ,
5, ,11, ,
-1, ,12, ,
4, ,12, ,
0, ,12, ,
3, ,12, ,
-1, ,13, ,
4, ,13, ,
-2, ,13, ,
1, ,13, ,
4, ,13, ,
4, ,13, ,
3, ,14, ,
4, ,14, ,
6, ,14, ,
5, ,14, ,
4, ,14, ,
3, ,14, ,
1, ,15, ,
3, ,15, ,
1, ,15, ,
3, ,15, ,
5, ,15, ,
4, ,16, ,
-2, ,16, ,
3, ,15, ,
5, ,16, ,
1, ,16, ,
0, ,16, ,
-2, ,16, ,
3, ,17, ,
0, ,17, ,
3, ,17, ,
0, ,17, ,
1, ,17, ,
0, ,17, ,
3, ,18, ,
3, ,18, ,
-1, ,18, ,
5, ,18, ,
1, ,18, ,
4, ,19, ,
0, ,19, ,
1, ,19, ,
-2, ,19, ,
4, ,19, ,
1, ,20, ,
4, ,4, ,
0, ,3, ,
3, ,3, ,
6, ,3, ,
0, ,4, ,
0, ,3, ,
4, ,3, ,
1, ,3, ,
3, ,3, ,
1, ,3, ,
-1, ,3, ,
1, ,3, ,
3, ,3, ,
3, ,3, ,
3, ,3, ,
1, ,3, ,
1, ,3, ,
1, ,3, ,
4, ,4, ,
4, ,3, ,
-2, ,3, ,
5, ,3, ,
3, ,3, ,
3, ,3, ,
0, ,3, ,
1, ,3, ,
-2, ,3, ,
3, ,3, ,
-1, ,3, ,
0, ,3, ,
-2, ,3, ,
3, ,3, ,
1, ,3, ,
3, ,3, ,
1, ,3, ,
4, ,3, ,
-1, ,4, ,
1, ,3, ,
0, ,3, ,
4, ,3, ,
1, ,3, ,
3, ,3, ,
3, ,3, ,
1, ,4, ,
-1, ,4, ,
0, ,3, ,
-1, ,4, ,
0, ,3, ,
1, ,3, ,
3, ,3, ,
-2, ,3, ,
4, ,3, ,
5, ,3, ,
1, ,3, ,
-1, ,4, ,
3, ,3, ,
0, ,3, ,
3, ,3, ,
1, ,3, ,
1, ,3, ,
1, ,3, ,
-2, ,4, ,
5, ,3, ,
-1, ,3, ,
4, ,3, ,
0, ,3, ,
3, ,3, ,
-1, ,3, ,
4, ,3, ,
-1, ,3, ,
4, ,3, ,
0, ,3, ,
3, ,4, ,
3, ,3, ,
3, ,3, ,
3, ,3, ,
5, ,3, ,
3, ,3, ,
1, ,3, ,
3, ,3, ,
0, ,3, ,
1, ,3, ,
-1, ,3, ,
1, ,3, ,
-2, ,4, ,
3, ,3, ,
3, ,3, ,
0, ,3, ,
3, ,4, ,
5, ,4, ,
0, ,4, ,
3, ,3, ,
1, ,3, ,
1, ,4, ,
4, ,4, ,
1, ,3, ,
-1, ,4, ,
3, ,3, ,
0, ,3, ,
1, ,3, ,
1, ,3, ,
3, ,3, ,
3, ,4, ,
1, ,3, ,
1, ,3, ,
0, ,3, ,
1, ,3, ,
4, ,3, ,
-1, ,3, ,
3, ,3, ,
0, ,3, ,
0, ,4, ,
3, ,4, ,
5, ,3, ,
4, ,3, ,
-1, ,4, ,
5, ,3, ,
-1, ,4, ,
1, ,3, ,
3, ,4, ,
1, ,3, ,
3, ,4, ,
4, ,3, ,
1, ,3, ,
1, ,3, ,
-1, ,3, ,
3, ,3, ,
3, ,3, ,
1, ,3, ,
4, ,3, ,
1, ,3, ,
6, ,3, ,
4, ,3, ,
0, ,3, ,
4, ,3, ,
1, ,4, ,
-1, ,4, ,
1, ,3, ,
4, ,3, ,
-2, ,3, ,
1, ,3, ,
5, ,3, ,
0, ,3, ,
1, ,3, ,
4, ,3, ,
-2, ,3, ,
3, ,4, ,
4, ,3, ,
3, ,3, ,
0, ,3, ,
3, ,4, ,
4, ,3, ,
4, ,4, ,
3, ,3, ,
5, ,3, ,
1, ,3, ,
-2, ,3, ,
1, ,3, ,
-2, ,3, ,
3, ,4, ,
4, ,3, ,
1, ,3, ,
-4, ,3, ,
3, ,3, ,
-2, ,3, ,
3, ,3, ,
1, ,4, ,
3, ,3, ,
-1, ,4, ,
1, ,3, ,
-2, ,3, ,
3, ,3, ,
-1, ,3, ,
3, ,3, ,
4, ,3, ,
1, ,3, ,
-4, ,3, ,
3, ,3, ,
-1, ,3, ,
1, ,3, ,
-1, ,4, ,
3, ,4, ,
-4, ,3, ,
1, ,3, ,
0, ,3, ,
4, ,3, ,
-1, ,3, ,
3, ,4, ,
4, ,3, ,
3, ,3, ,
0, ,3, ,
1, ,3, ,
5, ,3, ,
-2, ,3, ,
1, ,3, ,
5, ,3, ,
1, ,3, ,
0, ,3, ,
1, ,3, ,
-1, ,3, ,
3, ,4, ,
1, ,3, ,
0, ,3, ,
1, ,3, ,
-5, ,3, ,
3, ,3, ,
0, ,3, ,
1, ,3, ,
1, ,3, ,
1, ,3, ,
5, ,3, ,
4, ,3, ,
-1, ,3, ,
3, ,3, ,
1, ,3, ,
1, ,3, ,
5, ,4, ,
-1, ,4, ,
3, ,3, ,
3, ,3, ,
-1, ,3, ,
3, ,4, ,
-4, ,4, ,
1, ,3, ,
4, ,3, ,
3, ,3, ,
-1, ,3, ,
3, ,4, ,
4, ,3, ,
1, ,3, ,
-2, ,3, ,
1, ,3, ,
-1, ,3, ,
1, ,3, ,
-4, ,3, ,
0, ,3, ,
-4, ,4, ,
4, ,3, ,
-1, ,3, ,
1, ,3, ,
3, ,3, ,
-2, ,4, ,
4, ,3, ,
-4, ,3, ,
3, ,3, ,
-1, ,4, ,
1, ,4, ,
3, ,4, ,
1, ,3, ,
-1, ,3, ,
3, ,3, ,
0, ,3, ,
1, ,3, ,
-2, ,3, ,
5, ,3, ,
-4, ,3, ,
4, ,4, ,
0, ,3, ,
3, ,4, ,
4, ,3, ,
3, ,3, ,
1, ,3, ,
3, ,3, ,
-1, ,3, ,
4, ,4, ,
-2, ,3, ,
4, ,3, ,
1, ,3, ,
3, ,3, ,
3, ,3, ,
1, ,3, ,
1, ,3, ,
3, ,3, ,
-1, ,3, ,
3, ,3, ,
3, ,3, ,
-1, ,3, ,
3, ,3, ,
3, ,3, ,
1, ,3, ,
0, ,3, ,
1, ,3, ,
-1, ,3, ,
-1, ,4, ,
4, ,3, ,
1, ,4, ,
0, ,3, ,
1, ,4, ,
-1, ,3, ,
0, ,3, ,
-5, ,4, ,
3, ,3, ,
3, ,3, ,
3, ,3, ,
4, ,4, ,
0, ,4, ,
3, ,3, ,
-4, ,3, ,
4, ,3, ,
-4, ,3, ,
-1, ,3, ,
0, ,3, ,
0, ,3, ,
-1, ,3, ,
0, ,3, ,
4, ,3, ,
1, ,3, ,
0, ,3, ,
-4, ,3, ,
3, ,3, ,
3, ,3, ,
1, ,3, ,
1, ,3, ,
-1, ,3, ,
-2, ,4, ,
3, ,4, ,
0, ,3, ,
3, ,3, ,
-2, ,3, ,
4, ,4, ,
-2, ,3, ,
3, ,3, ,
0, ,3, ,
3, ,3, ,
3, ,3, ,
1, ,4, ,
4, ,3, ,
0, ,3, ,
3, ,3, ,
-4, ,4, ,
0, ,3, ,
3, ,3, ,
0, ,4, ,
0, ,3, ,
3, ,3, ,
-4, ,3, ,
1, ,4, ,
-1, ,4, ,
5, ,4, ,
1, ,4, ,
3, ,3, ,
3, ,3, ,
4, ,4, ,
4, ,4, ,
1, ,4, ,
3, ,4, ,
0, ,3, ,
1, ,3, ,
4, ,4, ,
3, ,3, ,
1, ,4, ,
1, ,3, ,
0, ,3, ,
4, ,3, ,
0, ,4, ,
-2, ,4, ,
4, ,3, ,
-2, ,3, ,
3, ,4, ,
0, ,3, ,
-1, ,3, ,
0, ,3, ,
1, ,3, ,
1, ,3, ,
1, ,3, ,
3, ,3, ,
0, ,3, ,
1, ,3, ,
0, ,3, ,
1, ,3, ,
1, ,3, ,
1, ,3, ,
1, ,4, ,
1, ,3, ,
3, ,3, ,
0, ,3, ,
-2, ,3, ,
3, ,4, ,
1, ,3, ,
3, ,3, ,
3, ,3, ,
3, ,4, ,
-2, ,4, ,
3, ,4, ,
0, ,3, ,
3, ,3, ,
3, ,3, ,
1, ,3, ,
4, ,3, ,
3, ,4, ,
3, ,3, ,
4, ,3, ,
3, ,4, ,
1, ,4, ,
1, ,4, ,
-2, ,4, ,
3, ,3, ,
3, ,3, ,
1, ,3, ,
0, ,3, ,
4, ,3, ,
3, ,3, ,
3, ,3, ,
1, ,3, ,
3, ,3, ,
-4, ,3, ,
0, ,4, ,
1, ,3, ,
3, ,3, ,
3, ,3, ,
-1, ,3, ,
1, ,4, ,
3, ,3, ,
-1, ,4, ,
1, ,4, ,
-4, ,3, ,
3, ,3, ,
1, ,3, ,
4, ,3, ,
-2, ,3, ,
5, ,3, ,
-2, ,3, ,
3, ,3, ,
4, ,3, ,
1, ,3, ,
3, ,3, ,
1, ,3, ,
3, ,3, ,
5, ,3, ,
0, ,3, ,
3, ,4, ,
-4, ,3, ,
6, ,3, ,
-4, ,3, ,
3, ,4, ,
1, ,3, ,
-1, ,3, ,
3, ,3, ,
5, ,3, ,
3, ,3, ,
4, ,4, ,
1, ,3, ,
-1, ,4, ,
4, ,3, ,
-1, ,3, ,
1, ,4, ,
1, ,4, ,
0, ,3, ,
4, ,3, ,
1, ,4, ,
3, ,3, ,
-2, ,3, ,
1, ,4, ,
3, ,4, ,
-2, ,3, ,
1, ,4, ,
3, ,3, ,
1, ,4, ,
3, ,4, ,
0, ,3, ,
4, ,3, ,
3, ,4, ,
3, ,3, ,
-1, ,3, ,
3, ,3, ,
-1, ,3, ,
1, ,3, ,
3, ,3, ,
0, ,4, ,
0, ,3, ,
1, ,3, ,
1, ,3, ,
0, ,4, ,
3, ,4, ,
3, ,3, ,
3, ,3, ,
1, ,3, ,
-2, ,3, ,
1, ,3, ,
1, ,4, ,
4, ,3, ,
1, ,3, ,
3, ,3, ,
3, ,3, ,
3, ,4, ,
4, ,4, ,
3, ,4, ,
5, ,3, ,
-1, ,3, ,
3, ,3, ,
0, ,3, ,
0, ,4, ,
3, ,3, ,
0, ,3, ,
3, ,3, ,
-1, ,3, ,
3, ,3, ,
0, ,4, ,
0, ,4, ,
0, ,3, ,
3, ,3, ,
-1, ,3, ,
1, ,3, ,
1, ,4, ,
1, ,3, ,
-4, ,3, ,
3, ,3, ,
1, ,3, ,
-2, ,3, ,
1, ,3, ,
4, ,3, ,
-2, ,3, ,
3, ,3, ,
0, ,3, ,
0, ,3, ,
1, ,3, ,
3, ,3, ,
-2, ,3, ,
1, ,4, ,
1, ,3, ,
3, ,4, ,
0, ,3, ,
1, ,3, ,
0, ,4, ,
1, ,4, ,
1, ,3, ,
4, ,4, ,
1, ,3, ,
0, ,3, ,
1, ,3, ,
3, ,3, ,
1, ,3, ,
1, ,3, ,
1, ,4, ,
3, ,3, ,
3, ,3, ,
1, ,4, ,
3, ,4, ,
-4, ,3, ,
3, ,3, ,
5, ,3, ,
0, ,3, ,
0, ,4, ,
1, ,4, ,
1, ,3, ,
3, ,3, ,
-2, ,3, ,
3, ,4, ,
0, ,3, ,
3, ,3, ,
-2, ,3, ,
4, ,4, ,
-4, ,3, ,
3, ,3, ,
0, ,3, ,
1, ,4, ,
1, ,3, ,
1, ,3, ,
3, ,3, ,
-1, ,3, ,
4, ,3, ,
-2, ,3, ,
-1, ,3, ,
1, ,3, ,
1, ,3, ,
1, ,3, ,
-1, ,4, ,
-1, ,3, ,
0, ,3, ,
1, ,3, ,
1, ,3, ,
0, ,3, ,
4, ,3, ,
0, ,3, ,
0, ,4, ,
1, ,3, ,
-4, ,3, ,
1, ,3, ,
-4, ,3, ,
3, ,3, ,
3, ,3, ,
1, ,3, ,
-1, ,3, ,
3, ,4, ,
3, ,4, ,
-2, ,3, ,
1, ,3, ,
-2, ,3, ,
3, ,3, ,
3, ,3, ,
-2, ,3, ,
3, ,3, ,
1, ,3, ,
3, ,3, ,
1, ,4, ,
4, ,3, ,
4, ,3, ,
-1, ,3, ,
3, ,3, ,
1, ,4, ,
0, ,3, ,
3, ,3, ,
1, ,3, ,
3, ,3, ,
4, ,3, ,
-2, ,3, ,
3, ,3, ,
0, ,4, ,
3, ,4, ,
0, ,3, ,
3, ,3, ,
0, ,3, ,
1, ,3, ,
4, ,3, ,
3, ,3, ,
-2, ,3, ,
3, ,3, ,
3, ,4, ,
3, ,3, ,
1, ,3, ,
-4, ,3, ,
3, ,3, ,
3, ,3, ,
3, ,4, ,
0, ,4, ,
-4, ,3, ,
4, ,3, ,
1, ,3, ,
1, ,3, ,
0, ,4, ,
-1, ,3, ,
1, ,3, ,
0, ,3, ,
-4, ,3, ,
0, ,3, ,
-1, ,3, ,
4, ,3, ,
-4, ,3, ,
4, ,3, ,
4, ,4, ,
1, ,3, ,
1, ,3, ,
3, ,3, ,
0, ,3, ,
3, ,3, ,
4, ,3, ,
3, ,3, ,
1, ,3, ,
1, ,3, ,
1, ,3, ,
1, ,3, ,
3, ,3, ,
1, ,3, ,
0, ,3, ,
3, ,3, ,
3, ,4, ,
3, ,4, ,
4, ,3, ,
1, ,3, ,
1, ,3, ,
3, ,3, ,
3, ,3, ,
1, ,3, ,
0, ,3, ,
0, ,3, ,
5, ,3, ,
-2, ,3, ,
3, ,3, ,
-2, ,3, ,
1, ,4, ,
3, ,3, ,
4, ,4, ,
-1, ,3, ,
4, ,3, ,
1, ,4, ,
4, ,3, ,
-2, ,3, ,
4, ,3, ,
-1, ,3, ,
3, ,3, ,
1, ,3, ,
1, ,3, ,
3, ,3, ,
3, ,4, ,
-1, ,3, ,
0, ,3, ,
3, ,3, ,
0, ,3, ,
-1, ,3, ,
0, ,3, ,
3, ,3, ,
1, ,3, ,
0, ,3, ,
1, ,3, ,
1, ,3, ,
0, ,3, ,
3, ,3, ,
-2, ,3, ,
1, ,3, ,
4, ,3, ,
3, ,4, ,
1, ,3, ,
0, ,3, ,
-2, ,4, ,
1, ,3, ,
3, ,3, ,
1, ,3, ,
0, ,3, ,
3, ,3, ,
-2, ,3, ,
3, ,3, ,
-1, ,3, ,
1, ,4, ,
0, ,3, ,
1, ,3, ,
4, ,3, ,
-2, ,4, ,
3, ,3, ,
1, ,3, ,
1, ,3, ,
0, ,4, ,
5, ,4, ,
3, ,3, ,
-2, ,3, ,
3, ,3, ,
0, ,3, ,
1, ,3, ,
0, ,4, ,
4, ,3, ,
-1, ,3, ,
1, ,3, ,
3, ,4, ,
4, ,3, ,
3, ,4, ,
1, ,3, ,
3, ,3, ,
3, ,3, ,
-2, ,3, ,
3, ,4, ,
-2, ,3, ,
4, ,3, ,
0, ,3, ,
1, ,3, ,
1, ,4, ,
1, ,3, ,
1, ,3, ,
-2, ,3, ,
3, ,3, ,
3, ,3, ,
5, ,3, ,
5, ,3, ,
1, ,3, ,
-2, ,3, ,
4, ,4, ,
1, ,3, ,
3, ,3, ,
0, ,3, ,
3, ,3, ,
1, ,4, ,
3, ,3, ,
1, ,3, ,
1, ,3, ,
-1, ,3, ,
1, ,3, ,
1, ,3, ,
4, ,4, ,
1, ,3, ,
4, ,3, ,
4, ,3, ,
1, ,3, ,
-4, ,3, ,
4, ,3, ,
3, ,3, ,
1, ,3, ,
1, ,3, ,
4, ,3, ,
-1, ,3, ,
1, ,3, ,
3, ,4, ,
0, ,4, ,
1, ,4, ,
3, ,3, ,
4, ,3, ,
3, ,3, ,
-2, ,3, ,
1, ,3, ,
-1, ,3, ,
1, ,3, ,
3, ,3, ,
1, ,3, ,
3, ,3, ,
0, ,3, ,
3, ,3, ,
1, ,3, ,
-1, ,4, ,
3, ,3, ,
4, ,3, ,
1, ,3, ,
3, ,4, ,
4, ,4, ,
4, ,4, ,
0, ,3, ,
-2, ,3, ,
1, ,3, ,
1, ,3, ,
1, ,3, ,
3, ,3, ,
1, ,4, ,
3, ,3, ,
5, ,4, ,
1, ,4, ,
4, ,4, ,
3, ,4, ,
1, ,3, ,
1, ,4, ,
4, ,3, ,
5, ,3, ,
0, ,4, ,
0, ,3, ,
3, ,4, ,
1, ,3, ,
-1, ,3, ,
-1, ,3, ,
1, ,3, ,
3, ,4, ,
0, ,3, ,
1, ,4, ,
-1, ,3, ,
4, ,3, ,
4, ,3, ,
1, ,4, ,
-1, ,3, ,
4, ,3, ,
-1, ,4, ,
3, ,4, ,
-1, ,4, ,
1, ,3, ,
-1, ,3, ,
0, ,3, ,
-4, ,3, ,
3, ,3, ,
-1, ,3, ,
4, ,3, ,
0, ,3, ,
3, ,3, ,
5, ,4, ,
1, ,3, ,
-1, ,3, ,
4, ,3, ,
4, ,3, ,
-4, ,3, ,
3, ,3, ,
4, ,3, ,
0, ,3, ,
-2, ,3, ,
0, ,3, ,
0, ,4, ,
4, ,3, ,
0, ,3, ,
1, ,3, ,
4, ,3, ,
-1, ,3, ,
0, ,3, ,
1, ,3, ,
1, ,3, ,
5, ,3, ,
-2, ,3, ,
3, ,3, ,
3, ,3, ,
5, ,3, ,
-2, ,3, ,
4, ,4, ,
4, ,3, ,
1, ,3, ,
1, ,3, ,
1, ,4, ,
0, ,3, ,
1, ,3, ,
3, ,3, ,
0, ,4, ,
1, ,4, ,
4, ,3, ,
0, ,3, ,
3, ,4, ,
4, ,3, ,
4, ,3, ,
-4, ,3, ,
3, ,4, ,
1, ,4, ,
-1, ,3, ,
3, ,3, ,
1, ,3, ,
1, ,3, ,
4, ,3, ,
3, ,3, ,
4, ,3, ,
4, ,4, ,
0, ,3, ,
4, ,3, ,
5, ,4, ,
1, ,3, ,
0, ,4, ,
5, ,3, ,
1, ,3, ,
3, ,3, ,
6, ,3, ,
3, ,4, ,
-1, ,4, ,
4, ,3, ,
5, ,3, ,
5, ,4, ,
5, ,3, ,
4, ,4, ,
1, ,3, ,
-2, ,3, ,
4, ,3, ,
1, ,3, ,
5, ,4, ,
4, ,3, ,
3, ,3, ,
4, ,3, ,
4, ,4, ,
0, ,3, ,
1, ,3, ,
-1, ,3, ,
1, ,3, ,
-2, ,3, ,
3, ,3, ,
3, ,4, ,
5, ,3, ,
0, ,3, ,
1, ,3, ,
3, ,3, ,
0, ,3, ,
6, ,3, ,
0, ,3, ,
4, ,3, ,
0, ,3, ,
-1, ,3, ,
1, ,3, ,
-1, ,3, ,
3, ,3, ,
0, ,3, ,
3, ,3, ,
0, ,3, ,
6, ,3, ,
-1, ,4, ,
3, ,4, ,
-4, ,4, ,
1, ,3, ,
-1, ,3, ,
0, ,3, ,
-1, ,3, ,
3, ,3, ,
4, ,3, ,
4, ,3, ,
1, ,3, ,
0, ,3, ,
4, ,3, ,
1, ,3, ,
3, ,3, ,
4, ,4, ,
4, ,3, ,
1, ,3, ,
4, ,3, ,
1, ,3, ,
0, ,3, ,
3, ,4, ,
3, ,3, ,
3, ,3, ,
4, ,4, ,
-2, ,3, ,
4, ,3, ,
3, ,3, ,
1, ,4, ,
1, ,3, ,
-1, ,3, ,
1, ,3, ,
-4, ,3, ,
3, ,3, ,
1, ,3, ,
4, ,3, ,
4, ,3, ,
1, ,3, ,
1, ,3, ,
4, ,3, ,
-1, ,3, ,
3, ,3, ,
-4, ,3, ,
1, ,3, ,
-2, ,3, ,
0, ,3, ,
-1, ,3, ,
0, ,3, ,
3, ,3, ,
4, ,4, ,
-1, ,3, ,
3, ,4, ,
1, ,4, ,
0, ,3, ,
3, ,3, ,
-1, ,3, ,
3, ,3, ,
4, ,4, ,
0, ,3, ,
4, ,3, ,
5, ,3, ,
3, ,3, ,
3, ,4, ,
3, ,3, ,
3, ,4, ,
3, ,4, ,
-2, ,3, ,
1, ,3, ,
3, ,4, ,
1, ,4, ,
4, ,3, ,
0, ,4, ,
3, ,3, ,
-1, ,3, ,
1, ,3, ,
-2, ,4, ,
4, ,3, ,
-1, ,4, ,
0, ,4, ,
-2, ,3, ,
0, ,3, ,
3, ,3, ,
3, ,3, ,
1, ,4, ,
3, ,3, ,
4, ,4, ,
0, ,3, ,
1, ,4, ,
4, ,3, ,
3, ,4, ,
3, ,3, ,
6, ,3, ,
1, ,3, ,
-1, ,3, ,
-1, ,4, ,
3, ,3, ,
-1, ,3, ,
3, ,3, ,
5, ,3, ,
0, ,3, ,
-1, ,3, ,
3, ,3, ,
3, ,3, ,
4, ,3, ,
5, ,3, ,
4, ,3, ,
-2, ,3, ,
0, ,3, ,
0, ,3, ,
4, ,3, ,
4, ,4, ,
1, ,3, ,
-4, ,4, ,
3, ,4, ,
0, ,4, ,
3, ,3, ,
-1, ,3, ,
3, ,3, ,
3, ,3, ,
1, ,3, ,
4, ,4, ,
-1, ,4, ,
1, ,4, ,
0, ,3, ,
3, ,3, ,
-1, ,3, ,
1, ,4, ,
-2, ,3, ,
1, ,4, ,
-1, ,3, ,
4, ,3, ,
-2, ,3, ,
3, ,3, ,
-1, ,3, ,
1, ,3, ,
3, ,3, ,
3, ,3, ,
1, ,4, ,
1, ,3, ,
1, ,3, ,
-1, ,3, ,
1, ,3, ,
1, ,3, ,
3, ,4, ,
1, ,3, ,
-4, ,3, ,
3, ,3, ,
0, ,4, ,
3, ,3, ,
0, ,3, ,
3, ,4, ,
-1, ,3, ,
3, ,3, ,
1, ,3, ,
-2, ,3, ,
3, ,4, ,
-2, ,3, ,
4, ,3, ,
0, ,3, ,
1, ,3, ,
-1, ,3, ,
5, ,3, ,
4, ,3, ,
-1, ,3, ,
3, ,3, ,
3, ,3, ,
1, ,4, ,
3, ,3, ,
4, ,3, ,
3, ,3, ,
0, ,3, ,
0, ,3, ,
4, ,4, ,
1, ,3, ,
-1, ,3, ,
3, ,3, ,
1, ,3, ,
1, ,4, ,
-2, ,3, ,
