src/test_folder/switch3faster0000030.CSV

Format,1.0B,
Memory Length,10000,Memory Length,10000,
IntpDistance,0,IntpDistance,0,
Trigger Address,4999,Trigger Address,4999,
Trigger Level,1.272E-01,Trigger Level,1.272E-01,
Source,CH1,Source,CH2,
Vertical Units,V,Vertical Units,V,
Vertical Units Div,0,Vertical Units Div,0,
Vertical Units Extend Div,16,Vertical Units Extend Div,16,
Label,,Label,,
Probe Type,0,Probe Type,0,
Probe Ratio,1.000e+01,Probe Ratio,1.000e+00,
Vertical Scale,2.000e-02,Vertical Scale,1.000e+00,
Vertical Position,-5.120e-02,Vertical Position,2.000e-01,
Horizontal Units,S,Horizontal Units,S,
Horizontal Scale,2.000E-02,Horizontal Scale,2.000E-02,
Horizontal Position,0.000E+00,Horizontal Position,0.000E+00,
Horizontal Mode,Main,Horizontal Mode,Main,
SincET Mode,Real Time,SincET Mode,Real Time,
Sampling Period,2.000e-05,Sampling Period,2.000e-05,
Horizontal Old Scale,2.000E-02,Horizontal Old Scale,2.000E-02,
Horizontal Old Position,0.000E+00,Horizontal Old Position,0.000E+00,
Firmware,V1.23,Firmware,V1.23,
Mode,Fast,Mode,Fast,
Waveform Data,,Waveform Data,,
-2, ,50, ,
0, ,51, ,
3, ,49, ,
-1, ,49, ,
1, ,50, ,
-2, ,50, ,
4, ,50, ,
0, ,49, ,
3, ,50, ,
1, ,50, ,
3, ,50, ,
4, ,50, ,
-1, ,49, ,
1, ,50, ,
3, ,51, ,
-1, ,49, ,
-1, ,50, ,
-2, ,50, ,
1, ,50, ,
1, ,49, ,
1, ,49, ,
3, ,49, ,
0, ,50, ,
1, ,50, ,
3, ,49, ,
0, ,50, ,
3, ,49, ,
1, ,50, ,
4, ,49, ,
-1, ,50, ,
0, ,50, ,
1, ,50, ,
3, ,50, ,
4, ,49, ,
1, ,50, ,
-1, ,50, ,
1, ,50, ,
3, ,49, ,
3, ,49, ,
-1, ,49, ,
1, ,50, ,
0, ,50, ,
1, ,49, ,
-2, ,49, ,
3, ,49, ,
-2, ,49, ,
1, ,50, ,
0, ,50, ,
1, ,49, ,
0, ,50, ,
3, ,49, ,
1, ,49, ,
3, ,50, ,
0, ,49, ,
3, ,50, ,
-4, ,50, ,
3, ,50, ,
3, ,50, ,
-1, ,48, ,
-1, ,49, ,
3, ,50, ,
3, ,50, ,
-4, ,50, ,
1, ,50, ,
-1, ,50, ,
3, ,49, ,
3, ,49, ,
1, ,50, ,
1, ,50, ,
0, ,50, ,
3, ,50, ,
4, ,51, ,
1, ,49, ,
1, ,49, ,
3, ,50, ,
1, ,50, ,
1, ,50, ,
5, ,50, ,
1, ,49, ,
-1, ,50, ,
3, ,49, ,
0, ,50, ,
1, ,49, ,
4, ,49, ,
1, ,49, ,
4, ,50, ,
1, ,50, ,
3, ,50, ,
3, ,50, ,
-1, ,50, ,
1, ,49, ,
1, ,49, ,
3, ,50, ,
3, ,49, ,
1, ,50, ,
0, ,49, ,
1, ,50, ,
-1, ,51, ,
3, ,49, ,
5, ,50, ,
0, ,50, ,
1, ,50, ,
0, ,50, ,
1, ,51, ,
-2, ,49, ,
6, ,50, ,
1, ,50, ,
0, ,50, ,
1, ,49, ,
-1, ,49, ,
5, ,50, ,
-2, ,50, ,
3, ,49, ,
0, ,50, ,
0, ,49, ,
-1, ,48, ,
3, ,50, ,
-1, ,50, ,
3, ,49, ,
3, ,50, ,
-1, ,50, ,
3, ,50, ,
-4, ,49, ,
3, ,50, ,
1, ,50, ,
1, ,50, ,
0, ,50, ,
4, ,50, ,
3, ,49, ,
3, ,50, ,
3, ,49, ,
1, ,49, ,
4, ,50, ,
1, ,51, ,
4, ,49, ,
0, ,50, ,
1, ,50, ,
-1, ,50, ,
4, ,50, ,
3, ,50, ,
1, ,49, ,
3, ,50, ,
1, ,50, ,
1, ,49, ,
4, ,51, ,
4, ,50, ,
0, ,49, ,
1, ,50, ,
0, ,50, ,
3, ,50, ,
4, ,50, ,
-1, ,51, ,
3, ,49, ,
1, ,49, ,
3, ,50, ,
4, ,50, ,
4, ,49, ,
1, ,49, ,
3, ,49, ,
1, ,49, ,
3, ,50, ,
5, ,50, ,
0, ,51, ,
1, ,50, ,
4, ,50, ,
3, ,50, ,
5, ,50, ,
1, ,50, ,
-1, ,50, ,
3, ,49, ,
3, ,50, ,
1, ,50, ,
-1, ,50, ,
3, ,50, ,
1, ,50, ,
3, ,49, ,
5, ,50, ,
1, ,50, ,
1, ,50, ,
-1, ,49, ,
0, ,50, ,
-1, ,51, ,
3, ,49, ,
4, ,50, ,
1, ,49, ,
-1, ,49, ,
3, ,50, ,
0, ,50, ,
4, ,49, ,
0, ,49, ,
1, ,50, ,
3, ,50, ,
0, ,50, ,
3, ,50, ,
4, ,49, ,
3, ,50, ,
4, ,50, ,
3, ,50, ,
1, ,49, ,
1, ,49, ,
1, ,49, ,
3, ,50, ,
4, ,50, ,
1, ,50, ,
4, ,50, ,
3, ,50, ,
-2, ,49, ,
1, ,50, ,
0, ,50, ,
1, ,50, ,
1, ,49, ,
1, ,49, ,
3, ,50, ,
-2, ,48, ,
4, ,51, ,
1, ,49, ,
-1, ,50, ,
4, ,50, ,
-1, ,50, ,
-1, ,50, ,
3, ,50, ,
1, ,49, ,
3, ,50, ,
4, ,51, ,
4, ,49, ,
5, ,50, ,
3, ,49, ,
3, ,50, ,
1, ,50, ,
4, ,51, ,
4, ,49, ,
1, ,49, ,
-1, ,50, ,
3, ,50, ,
-1, ,50, ,
3, ,49, ,
-1, ,51, ,
5, ,49, ,
-2, ,50, ,
1, ,49, ,
0, ,49, ,
1, ,50, ,
4, ,49, ,
4, ,50, ,
4, ,49, ,
6, ,49, ,
0, ,50, ,
3, ,50, ,
4, ,50, ,
3, ,49, ,
5, ,50, ,
3, ,51, ,
4, ,49, ,
4, ,50, ,
3, ,50, ,
4, ,50, ,
5, ,49, ,
5, ,49, ,
1, ,50, ,
4, ,50, ,
4, ,49, ,
-1, ,50, ,
3, ,50, ,
4, ,50, ,
6, ,50, ,
-1, ,50, ,
1, ,50, ,
1, ,50, ,
-1, ,49, ,
3, ,50, ,
-2, ,50, ,
0, ,50, ,
-2, ,49, ,
0, ,50, ,
1, ,48, ,
3, ,49, ,
1, ,50, ,
0, ,50, ,
0, ,50, ,
3, ,50, ,
1, ,48, ,
6, ,50, ,
4, ,50, ,
4, ,50, ,
1, ,50, ,
1, ,48, ,
3, ,50, ,
-4, ,50, ,
0, ,50, ,
-1, ,50, ,
4, ,49, ,
0, ,50, ,
1, ,48, ,
6, ,50, ,
1, ,49, ,
3, ,49, ,
0, ,49, ,
4, ,50, ,
4, ,50, ,
1, ,50, ,
4, ,50, ,
-4, ,51, ,
5, ,49, ,
3, ,50, ,
4, ,50, ,
1, ,49, ,
3, ,50, ,
4, ,50, ,
4, ,50, ,
3, ,50, ,
-2, ,50, ,
0, ,49, ,
-1, ,50, ,
-1, ,49, ,
3, ,49, ,
-2, ,50, ,
0, ,49, ,
-1, ,49, ,
4, ,50, ,
-1, ,51, ,
1, ,50, ,
-2, ,50, ,
4, ,50, ,
-1, ,49, ,
4, ,51, ,
1, ,51, ,
1, ,50, ,
3, ,50, ,
1, ,50, ,
1, ,49, ,
3, ,50, ,
3, ,50, ,
3, ,49, ,
5, ,50, ,
1, ,49, ,
3, ,50, ,
4, ,50, ,
3, ,50, ,
3, ,49, ,
5, ,50, ,
0, ,50, ,
3, ,50, ,
-2, ,49, ,
0, ,49, ,
4, ,50, ,
1, ,50, ,
1, ,50, ,
1, ,50, ,
0, ,49, ,
0, ,49, ,
1, ,49, ,
-2, ,50, ,
3, ,50, ,
3, ,50, ,
4, ,49, ,
4, ,49, ,
4, ,49, ,
1, ,50, ,
1, ,50, ,
1, ,50, ,
-2, ,50, ,
1, ,49, ,
-1, ,49, ,
1, ,50, ,
1, ,50, ,
3, ,49, ,
1, ,50, ,
1, ,51, ,
-1, ,49, ,
3, ,48, ,
1, ,50, ,
3, ,50, ,
3, ,50, ,
4, ,50, ,
3, ,50, ,
1, ,50, ,
1, ,50, ,
3, ,51, ,
0, ,49, ,
1, ,49, ,
4, ,50, ,
3, ,50, ,
3, ,49, ,
-1, ,50, ,
4, ,49, ,
3, ,50, ,
1, ,50, ,
0, ,50, ,
1, ,50, ,
3, ,49, ,
3, ,50, ,
0, ,50, ,
3, ,49, ,
0, ,50, ,
3, ,50, ,
-1, ,48, ,
3, ,50, ,
0, ,50, ,
3, ,50, ,
4, ,49, ,
3, ,50, ,
4, ,49, ,
-1, ,50, ,
0, ,49, ,
1, ,50, ,
0, ,50, ,
1, ,50, ,
3, ,49, ,
4, ,50, ,
-2, ,49, ,
1, ,49, ,
0, ,49, ,
1, ,50, ,
-1, ,50, ,
1, ,48, ,
-1, ,49, ,
3, ,50, ,
0, ,50, ,
1, ,50, ,
0, ,50, ,
4, ,48, ,
3, ,50, ,
0, ,50, ,
3, ,50, ,
1, ,49, ,
-4, ,50, ,
3, ,50, ,
3, ,50, ,
1, ,50, ,
-1, ,50, ,
0, ,50, ,
4, ,50, ,
1, ,50, ,
1, ,50, ,
3, ,49, ,
4, ,49, ,
3, ,50, ,
3, ,49, ,
3, ,50, ,
1, ,50, ,
3, ,49, ,
3, ,50, ,
0, ,50, ,
0, ,50, ,
3, ,50, ,
3, ,49, ,
3, ,50, ,
3, ,50, ,
4, ,51, ,
5, ,50, ,
3, ,50, ,
0, ,50, ,
3, ,49, ,
1, ,49, ,
1, ,51, ,
0, ,48, ,
1, ,50, ,
0, ,50, ,
3, ,50, ,
-1, ,51, ,
4, ,48, ,
1, ,51, ,
3, ,50, ,
3, ,50, ,
-2, ,50, ,
3, ,49, ,
1, ,50, ,
1, ,49, ,
4, ,50, ,
-2, ,50, ,
3, ,49, ,
3, ,49, ,
4, ,51, ,
3, ,50, ,
1, ,48, ,
4, ,50, ,
-2, ,50, ,
3, ,49, ,
-2, ,51, ,
1, ,51, ,
-1, ,50, ,
5, ,50, ,
-1, ,49, ,
4, ,49, ,
4, ,49, ,
1, ,50, ,
4, ,50, ,
-2, ,50, ,
1, ,49, ,
3, ,50, ,
3, ,49, ,
1, ,50, ,
1, ,49, ,
-4, ,49, ,
4, ,50, ,
-1, ,50, ,
4, ,49, ,
1, ,50, ,
4, ,48, ,
4, ,49, ,
1, ,50, ,
3, ,50, ,
3, ,49, ,
4, ,50, ,
0, ,48, ,
3, ,50, ,
1, ,50, ,
1, ,50, ,
4, ,49, ,
-1, ,50, ,
0, ,49, ,
-2, ,49, ,
5, ,50, ,
-2, ,50, ,
3, ,49, ,
-1, ,50, ,
3, ,48, ,
-2, ,49, ,
1, ,49, ,
1, ,50, ,
1, ,50, ,
3, ,50, ,
4, ,50, ,
0, ,50, ,
1, ,49, ,
3, ,49, ,
3, ,50, ,
1, ,49, ,
4, ,50, ,
5, ,51, ,
1, ,49, ,
3, ,50, ,
-1, ,49, ,
5, ,50, ,
4, ,49, ,
0, ,49, ,
3, ,50, ,
1, ,50, ,
6, ,50, ,
5, ,50, ,
1, ,50, ,
1, ,50, ,
1, ,50, ,
-1, ,50, ,
0, ,50, ,
-1, ,49, ,
3, ,50, ,
0, ,51, ,
1, ,49, ,
-1, ,49, ,
3, ,50, ,
4, ,50, ,
1, ,49, ,
0, ,50, ,
1, ,50, ,
3, ,50, ,
-1, ,50, ,
5, ,50, ,
-1, ,50, ,
1, ,50, ,
3, ,49, ,
4, ,50, ,
4, ,50, ,
4, ,49, ,
1, ,50, ,
-1, ,50, ,
1, ,50, ,
-1, ,50, ,
4, ,50, ,
3, ,50, ,
4, ,50, ,
1, ,50, ,
4, ,49, ,
1, ,50, ,
-1, ,50, ,
4, ,50, ,
-1, ,50, ,
3, ,50, ,
3, ,50, ,
-1, ,50, ,
3, ,50, ,
-2, ,51, ,
1, ,50, ,
-1, ,50, ,
0, ,50, ,
-2, ,50, ,
3, ,50, ,
-2, ,50, ,
1, ,48, ,
1, ,48, ,
0, ,50, ,
1, ,50, ,
-2, ,50, ,
1, ,49, ,
-1, ,49, ,
4, ,50, ,
3, ,50, ,
1, ,50, ,
3, ,50, ,
1, ,48, ,
-1, ,50, ,
-4, ,50, ,
4, ,50, ,
-1, ,50, ,
3, ,50, ,
0, ,51, ,
3, ,50, ,
-4, ,50, ,
4, ,50, ,
-2, ,49, ,
3, ,50, ,
1, ,49, ,
1, ,49, ,
4, ,50, ,
0, ,50, ,
3, ,50, ,
-1, ,49, ,
0, ,49, ,
-1, ,49, ,
1, ,50, ,
0, ,50, ,
0, ,50, ,
-1, ,48, ,
1, ,50, ,
-5, ,50, ,
0, ,50, ,
0, ,50, ,
0, ,50, ,
-2, ,50, ,
5, ,48, ,
1, ,49, ,
1, ,50, ,
1, ,50, ,
-1, ,50, ,
4, ,50, ,
4, ,49, ,
1, ,50, ,
-2, ,49, ,
0, ,50, ,
0, ,50, ,
-2, ,49, ,
1, ,50, ,
-1, ,49, ,
0, ,50, ,
-1, ,48, ,
3, ,50, ,
-2, ,50, ,
1, ,50, ,
3, ,49, ,
0, ,50, ,
1, ,48, ,
0, ,50, ,
1, ,50, ,
4, ,50, ,
4, ,51, ,
4, ,49, ,
0, ,50, ,
-1, ,50, ,
3, ,50, ,
-1, ,51, ,
4, ,50, ,
1, ,50, ,
3, ,49, ,
-1, ,50, ,
0, ,50, ,
1, ,50, ,
1, ,49, ,
3, ,49, ,
1, ,49, ,
-2, ,50, ,
4, ,49, ,
-2, ,49, ,
1, ,50, ,
0, ,49, ,
0, ,50, ,
-1, ,50, ,
1, ,49, ,
0, ,50, ,
4, ,50, ,
1, ,50, ,
0, ,49, ,
3, ,49, ,
3, ,50, ,
0, ,49, ,
4, ,50, ,
5, ,49, ,
1, ,49, ,
-1, ,49, ,
4, ,49, ,
1, ,50, ,
3, ,49, ,
3, ,50, ,
3, ,49, ,
0, ,49, ,
0, ,50, ,
0, ,50, ,
-1, ,50, ,
5, ,50, ,
0, ,49, ,
1, ,50, ,
1, ,49, ,
3, ,50, ,
3, ,49, ,
5, ,50, ,
1, ,49, ,
-2, ,50, ,
4, ,50, ,
0, ,50, ,
1, ,49, ,
5, ,50, ,
0, ,50, ,
3, ,49, ,
1, ,50, ,
4, ,50, ,
-2, ,49, ,
-2, ,50, ,
1, ,50, ,
-1, ,49, ,
3, ,50, ,
0, ,50, ,
-1, ,49, ,
1, ,50, ,
-1, ,50, ,
3, ,50, ,
5, ,49, ,
4, ,50, ,
1, ,49, ,
0, ,51, ,
3, ,50, ,
1, ,50, ,
3, ,49, ,
4, ,49, ,
1, ,49, ,
1, ,49, ,
3, ,50, ,
1, ,50, ,
-4, ,50, ,
1, ,50, ,
-1, ,49, ,
4, ,50, ,
4, ,50, ,
0, ,49, ,
1, ,50, ,
1, ,49, ,
3, ,50, ,
3, ,50, ,
3, ,49, ,
1, ,50, ,
1, ,50, ,
3, ,49, ,
4, ,50, ,
4, ,50, ,
-1, ,49, ,
6, ,50, ,
-1, ,50, ,
4, ,50, ,
-1, ,49, ,
3, ,50, ,
-2, ,50, ,
0, ,50, ,
-2, ,49, ,
1, ,50, ,
0, ,49, ,
1, ,50, ,
4, ,50, ,
0, ,50, ,
1, ,49, ,
3, ,49, ,
1, ,49, ,
4, ,50, ,
3, ,50, ,
3, ,50, ,
1, ,50, ,
-2, ,49, ,
3, ,49, ,
-1, ,50, ,
3, ,50, ,
0, ,49, ,
1, ,50, ,
-4, ,49, ,
1, ,50, ,
-2, ,50, ,
4, ,49, ,
3, ,50, ,
4, ,49, ,
1, ,49, ,
1, ,50, ,
0, ,50, ,
4, ,49, ,
4, ,50, ,
0, ,50, ,
-2, ,50, ,
3, ,49, ,
-1, ,50, ,
0, ,50, ,
1, ,49, ,
4, ,50, ,
1, ,51, ,
-2, ,49, ,
0, ,50, ,
1, ,49, ,
3, ,50, ,
3, ,50, ,
3, ,50, ,
-1, ,49, ,
4, ,50, ,
3, ,50, ,
0, ,50, ,
0, ,49, ,
4, ,49, ,
1, ,49, ,
1, ,50, ,
3, ,50, ,
3, ,49, ,
4, ,50, ,
4, ,49, ,
1, ,49, ,
3, ,50, ,
3, ,49, ,
1, ,50, ,
5, ,48, ,
0, ,49, ,
-1, ,50, ,
1, ,50, ,
1, ,49, ,
1, ,50, ,
0, ,50, ,
3, ,50, ,
1, ,50, ,
-2, ,50, ,
3, ,50, ,
0, ,49, ,
3, ,50, ,
4, ,49, ,
3, ,49, ,
4, ,50, ,
4, ,50, ,
1, ,50, ,
4, ,50, ,
1, ,49, ,
0, ,50, ,
-1, ,50, ,
1, ,49, ,
0, ,50, ,
1, ,49, ,
1, ,49, ,
3, ,50, ,
1, ,50, ,
3, ,50, ,
0, ,50, ,
4, ,50, ,
1, ,49, ,
1, ,50, ,
4, ,49, ,
1, ,49, ,
1, ,50, ,
1, ,49, ,
-2, ,49, ,
3, ,-43, ,
-1, ,-43, ,
3, ,-43, ,
0, ,-43, ,
0, ,-42, ,
4, ,-43, ,
0, ,-42, ,
0, ,-43, ,
1, ,-42, ,
1, ,-42, ,
1, ,-43, ,
3, ,-43, ,
0, ,-43, ,
0, ,-43, ,
4, ,-43, ,
1, ,-43, ,
4, ,-43, ,
0, ,-43, ,
0, ,-43, ,
0, ,-43, ,
3, ,-43, ,
0, ,-43, ,
3, ,-43, ,
4, ,-43, ,
0, ,-43, ,
0, ,-43, ,
4, ,-43, ,
0, ,-43, ,
4, ,-43, ,
1, ,-43, ,
1, ,-43, ,
3, ,-43, ,
4, ,-43, ,
1, ,-43, ,
5, ,-43, ,
4, ,-44, ,
1, ,-43, ,
0, ,-43, ,
4, ,-43, ,
1, ,-43, ,
4, ,-43, ,
3, ,-43, ,
3, ,-43, ,
-1, ,-43, ,
1, ,-43, ,
1, ,-43, ,
3, ,-43, ,
0, ,-43, ,
-1, ,-43, ,
3, ,-43, ,
-1, ,-44, ,
3, ,-43, ,
-4, ,-43, ,
0, ,-43, ,
-1, ,-43, ,
1, ,-43, ,
-2, ,-44, ,
4, ,-44, ,
-2, ,-43, ,
1, ,-43, ,
-2, ,-43, ,
1, ,-44, ,
-4, ,-43, ,
3, ,-43, ,
-1, ,-43, ,
0, ,-43, ,
-1, ,-43, ,
1, ,-43, ,
-2, ,-44, ,
3, ,-44, ,
-4, ,-43, ,
3, ,-43, ,
0, ,-44, ,
1, ,-43, ,
1, ,-43, ,
0, ,-43, ,
0, ,-43, ,
3, ,-44, ,
4, ,-43, ,
0, ,-43, ,
3, ,-43, ,
0, ,-43, ,
0, ,-43, ,
3, ,-44, ,
3, ,-43, ,
3, ,-43, ,
1, ,-43, ,
1, ,-43, ,
-1, ,-44, ,
1, ,-44, ,
1, ,-43, ,
0, ,-43, ,
3, ,-43, ,
1, ,-43, ,
4, ,-43, ,
-4, ,-43, ,
3, ,-43, ,
1, ,-43, ,
4, ,-43, ,
0, ,-43, ,
1, ,-43, ,
0, ,-43, ,
-2, ,-43, ,
1, ,-43, ,
1, ,-43, ,
0, ,-43, ,
0, ,-43, ,
1, ,-44, ,
-2, ,-43, ,
1, ,-43, ,
1, ,-43, ,
0, ,-43, ,
0, ,-43, ,
0, ,-43, ,
1, ,-43, ,
-1, ,-43, ,
1, ,-43, ,
1, ,-44, ,
1, ,-43, ,
0, ,-44, ,
4, ,-43, ,
-2, ,-43, ,
4, ,-43, ,
-1, ,-44, ,
1, ,-43, ,
4, ,-44, ,
3, ,-43, ,
1, ,-43, ,
4, ,-43, ,
0, ,-43, ,
4, ,-43, ,
-2, ,-44, ,
4, ,-43, ,
-2, ,-43, ,
4, ,-43, ,
1, ,-43, ,
4, ,-43, ,
3, ,-43, ,
1, ,-44, ,
-2, ,-43, ,
3, ,-43, ,
0, ,-43, ,
0, ,-43, ,
4, ,-43, ,
0, ,-43, ,
1, ,-43, ,
3, ,-43, ,
0, ,-43, ,
0, ,-43, ,
0, ,-43, ,
-1, ,-44, ,
3, ,-43, ,
-1, ,-43, ,
-1, ,-43, ,
0, ,-43, ,
0, ,-43, ,
-1, ,-43, ,
1, ,-43, ,
-1, ,-43, ,
0, ,-43, ,
1, ,-43, ,
-1, ,-43, ,
-4, ,-44, ,
5, ,-43, ,
-2, ,-43, ,
3, ,-43, ,
1, ,-43, ,
-2, ,-44, ,
-1, ,-43, ,
0, ,-43, ,
3, ,-43, ,
0, ,-43, ,
1, ,-43, ,
3, ,-44, ,
0, ,-43, ,
0, ,-43, ,
4, ,-43, ,
-2, ,-43, ,
3, ,-43, ,
-4, ,-43, ,
3, ,-43, ,
-2, ,-43, ,
0, ,-43, ,
0, ,-43, ,
1, ,-43, ,
4, ,-43, ,
0, ,-43, ,
3, ,-43, ,
0, ,-43, ,
0, ,-43, ,
4, ,-43, ,
3, ,-43, ,
-1, ,-43, ,
4, ,-43, ,
0, ,-43, ,
3, ,-43, ,
1, ,-43, ,
5, ,-43, ,
1, ,-43, ,
4, ,-43, ,
1, ,-43, ,
1, ,-43, ,
1, ,-43, ,
4, ,-44, ,
1, ,-43, ,
1, ,-43, ,
1, ,-42, ,
1, ,-43, ,
3, ,-43, ,
3, ,-43, ,
0, ,-43, ,
1, ,-43, ,
1, ,-43, ,
1, ,-43, ,
3, ,-43, ,
5, ,-43, ,
1, ,-42, ,
0, ,-43, ,
1, ,-43, ,
1, ,-43, ,
-2, ,-43, ,
3, ,-43, ,
0, ,-43, ,
1, ,-43, ,
3, ,-43, ,
0, ,-43, ,
1, ,-43, ,
-4, ,-43, ,
1, ,-43, ,
1, ,-42, ,
3, ,-43, ,
0, ,-43, ,
0, ,-43, ,
1, ,-43, ,
-4, ,-43, ,
0, ,-43, ,
-1, ,-43, ,
0, ,-43, ,
1, ,-43, ,
3, ,-43, ,
1, ,-43, ,
1, ,-42, ,
4, ,-43, ,
3, ,-43, ,
1, ,-43, ,
0, ,-43, ,
1, ,-43, ,
1, ,-43, ,
1, ,-43, ,
5, ,-43, ,
0, ,-43, ,
1, ,-43, ,
3, ,-43, ,
0, ,-43, ,
-2, ,-43, ,
4, ,-43, ,
3, ,-42, ,
1, ,-42, ,
3, ,-43, ,
-2, ,-43, ,
1, ,-43, ,
0, ,-43, ,
4, ,-43, ,
1, ,-42, ,
0, ,-43, ,
3, ,-43, ,
0, ,-43, ,
3, ,-44, ,
4, ,-42, ,
0, ,-43, ,
0, ,-43, ,
1, ,-43, ,
-2, ,-43, ,
4, ,-43, ,
-1, ,-42, ,
0, ,-43, ,
1, ,-42, ,
3, ,-43, ,
-2, ,-43, ,
0, ,-43, ,
-4, ,-43, ,
3, ,-42, ,
0, ,-43, ,
3, ,-43, ,
3, ,-42, ,
4, ,-42, ,
1, ,-43, ,
3, ,-43, ,
-1, ,-43, ,
3, ,-43, ,
-4, ,-43, ,
4, ,-43, ,
3, ,-43, ,
1, ,-42, ,
0, ,-43, ,
3, ,-43, ,
5, ,-43, ,
-2, ,-43, ,
0, ,-43, ,
0, ,-43, ,
-1, ,-43, ,
3, ,-43, ,
4, ,-42, ,
3, ,-43, ,
1, ,-43, ,
3, ,-43, ,
0, ,-43, ,
3, ,-42, ,
4, ,-43, ,
0, ,-42, ,
5, ,-43, ,
3, ,-42, ,
1, ,-42, ,
0, ,-43, ,
3, ,-43, ,
0, ,-43, ,
4, ,-42, ,
3, ,-43, ,
3, ,-42, ,
0, ,-43, ,
3, ,-43, ,
0, ,-43, ,
1, ,-43, ,
1, ,-43, ,
3, ,-43, ,
1, ,-43, ,
3, ,-43, ,
1, ,-42, ,
0, ,-42, ,
-4, ,-42, ,
3, ,-42, ,
-2, ,-43, ,
4, ,-43, ,
1, ,-43, ,
3, ,-43, ,
1, ,-43, ,
0, ,-43, ,
3, ,-43, ,
5, ,-43, ,
4, ,-43, ,
1, ,-43, ,
0, ,-42, ,
0, ,-43, ,
3, ,-43, ,
1, ,-43, ,
3, ,-42, ,
4, ,-42, ,
3, ,-42, ,
-1, ,-43, ,
3, ,-43, ,
-2, ,-42, ,
4, ,-42, ,
-1, ,-42, ,
3, ,-43, ,
1, ,-42, ,
1, ,-43, ,
4, ,-43, ,
0, ,-43, ,
4, ,-42, ,
3, ,-43, ,
1, ,-43, ,
3, ,-43, ,
-4, ,-43, ,
1, ,-42, ,
3, ,-43, ,
1, ,-42, ,
3, ,-42, ,
0, ,-43, ,
3, ,-42, ,
0, ,-42, ,
1, ,-42, ,
-4, ,-43, ,
1, ,-43, ,
-1, ,-43, ,
3, ,-42, ,
-1, ,-42, ,
0, ,-42, ,
3, ,-43, ,
-1, ,-43, ,
4, ,-43, ,
3, ,-42, ,
1, ,-42, ,
-1, ,-43, ,
3, ,-43, ,
-1, ,-42, ,
3, ,-43, ,
3, ,-43, ,
3, ,-42, ,
1, ,-43, ,
3, ,-42, ,
-2, ,-43, ,
3, ,-43, ,
-1, ,-42, ,
1, ,-43, ,
0, ,-42, ,
4, ,-43, ,
-4, ,-42, ,
0, ,-42, ,
-2, ,-43, ,
1, ,-42, ,
0, ,-43, ,
1, ,-42, ,
-2, ,-42, ,
3, ,-43, ,
-2, ,-43, ,
0, ,-43, ,
0, ,-42, ,
3, ,-43, ,
1, ,-42, ,
1, ,-43, ,
4, ,-43, ,
3, ,-42, ,
-1, ,-43, ,
1, ,-42, ,
1, ,-43, ,
-2, ,-42, ,
0, ,-42, ,
0, ,-42, ,
-1, ,-42, ,
1, ,-42, ,
-1, ,-42, ,
0, ,-43, ,
4, ,-42, ,
3, ,-43, ,
4, ,-42, ,
3, ,-43, ,
0, ,-42, ,
0, ,-42, ,
0, ,-43, ,
-4, ,-42, ,
3, ,-42, ,
3, ,-43, ,
3, ,-42, ,
0, ,-42, ,
3, ,-42, ,
3, ,-43, ,
1, ,-42, ,
1, ,-42, ,
1, ,-43, ,
3, ,-43, ,
4, ,-42, ,
3, ,-43, ,
1, ,-42, ,
0, ,-43, ,
3, ,-42, ,
0, ,-43, ,
0, ,-42, ,
-4, ,-42, ,
4, ,-42, ,
1, ,-42, ,
1, ,-43, ,
-1, ,-43, ,
0, ,-42, ,
1, ,-42, ,
-4, ,-42, ,
4, ,-42, ,
-1, ,-43, ,
3, ,-43, ,
-1, ,-42, ,
1, ,-43, ,
5, ,-42, ,
-4, ,-43, ,
3, ,-42, ,
-1, ,-43, ,
3, ,-43, ,
-2, ,-43, ,
3, ,-43, ,
1, ,-43, ,
3, ,-42, ,
1, ,-42, ,
3, ,-43, ,
4, ,-42, ,
3, ,-43, ,
-1, ,-43, ,
3, ,-43, ,
0, ,-43, ,
0, ,-42, ,
-6, ,-43, ,
3, ,-42, ,
1, ,-42, ,
3, ,-42, ,
0, ,-42, ,
4, ,-42, ,
5, ,-43, ,
1, ,-43, ,
3, ,-42, ,
0, ,-42, ,
3, ,-42, ,
-4, ,-42, ,
3, ,-42, ,
3, ,-42, ,
3, ,-43, ,
0, ,-42, ,
1, ,-42, ,
3, ,-43, ,
4, ,-43, ,
0, ,-42, ,
3, ,-42, ,
-2, ,-42, ,
4, ,-43, ,
1, ,-42, ,
3, ,-42, ,
0, ,-43, ,
1, ,-42, ,
1, ,-43, ,
1, ,-42, ,
3, ,-42, ,
-1, ,-42, ,
4, ,-42, ,
-2, ,-42, ,
3, ,-42, ,
3, ,-43, ,
1, ,-42, ,
4, ,-42, ,
0, ,-43, ,
-2, ,-43, ,
3, ,-42, ,
1, ,-42, ,
1, ,-42, ,
0, ,-43, ,
0, ,-42, ,
3, ,-42, ,
3, ,-42, ,
-1, ,-42, ,
4, ,-42, ,
4, ,-42, ,
0, ,-43, ,
-1, ,-42, ,
3, ,-42, ,
1, ,-42, ,
3, ,-42, ,
1, ,-42, ,
-2, ,-42, ,
3, ,-42, ,
-2, ,-42, ,
3, ,-43, ,
0, ,-43, ,
4, ,-43, ,
-2, ,-42, ,
4, ,-42, ,
0, ,-42, ,
0, ,-43, ,
1, ,-43, ,
-1, ,-42, ,
3, ,-43, ,
-1, ,-42, ,
3, ,-42, ,
0, ,-42, ,
1, ,-42, ,
5, ,-43, ,
-4, ,-42, ,
4, ,-42, ,
4, ,-42, ,
3, ,-43, ,
1, ,-42, ,
3, ,-42, ,
-2, ,-43, ,
3, ,-43, ,
0, ,-42, ,
1, ,-43, ,
1, ,-42, ,
1, ,-43, ,
-2, ,-42, ,
4, ,-42, ,
-1, ,-43, ,
3, ,-43, ,
1, ,-43, ,
1, ,-43, ,
-4, ,-42, ,
1, ,-42, ,
3, ,-42, ,
4, ,-42, ,
4, ,-43, ,
-2, ,-43, ,
3, ,-42, ,
1, ,-42, ,
1, ,-42, ,
-2, ,-42, ,
3, ,-43, ,
-2, ,-42, ,
1, ,-43, ,
0, ,-43, ,
0, ,-42, ,
-1, ,-42, ,
4, ,-43, ,
-1, ,-42, ,
1, ,-42, ,
-1, ,-42, ,
3, ,-42, ,
4, ,-43, ,
3, ,-42, ,
-1, ,-42, ,
3, ,-42, ,
3, ,-43, ,
4, ,-42, ,
4, ,-42, ,
3, ,-42, ,
1, ,-42, ,
3, ,-42, ,
1, ,-43, ,
3, ,-42, ,
3, ,-42, ,
0, ,-42, ,
4, ,-42, ,
4, ,-42, ,
0, ,-42, ,
0, ,-43, ,
0, ,-42, ,
0, ,-42, ,
1, ,-43, ,
-2, ,-42, ,
0, ,-42, ,
4, ,-42, ,
3, ,-42, ,
1, ,-43, ,
4, ,-42, ,
-2, ,-43, ,
3, ,-42, ,
-4, ,-43, ,
3, ,-43, ,
1, ,-43, ,
3, ,-42, ,
3, ,-42, ,
0, ,-42, ,
5, ,-42, ,
3, ,-43, ,
1, ,-42, ,
4, ,-42, ,
4, ,-42, ,
1, ,-42, ,
4, ,-42, ,
5, ,-42, ,
3, ,-42, ,
-2, ,-42, ,
1, ,-42, ,
-1, ,-43, ,
3, ,-42, ,
3, ,-42, ,
-2, ,-42, ,
4, ,-43, ,
-2, ,-42, ,
3, ,-42, ,
3, ,-42, ,
0, ,-42, ,
4, ,-42, ,
4, ,-42, ,
-1, ,-42, ,
0, ,-43, ,
3, ,-42, ,
-2, ,-43, ,
4, ,-42, ,
1, ,-42, ,
6, ,-42, ,
0, ,-43, ,
1, ,-42, ,
5, ,-42, ,
3, ,-42, ,
-2, ,-42, ,
4, ,-43, ,
0, ,-42, ,
3, ,-42, ,
4, ,-42, ,
3, ,-43, ,
4, ,-42, ,
-1, ,-43, ,
1, ,-42, ,
3, ,-43, ,
-2, ,-43, ,
3, ,-42, ,
1, ,-42, ,
1, ,-42, ,
3, ,-42, ,
1, ,-43, ,
4, ,-42, ,
-1, ,-43, ,
3, ,-42, ,
-2, ,-42, ,
1, ,-42, ,
-2, ,-43, ,
3, ,-42, ,
1, ,-43, ,
4, ,-42, ,
-4, ,-42, ,
3, ,-42, ,
3, ,-42, ,
3, ,-42, ,
1, ,-42, ,
3, ,-42, ,
5, ,-42, ,
6, ,-43, ,
-1, ,-42, ,
1, ,-43, ,
0, ,-42, ,
3, ,-43, ,
3, ,-42, ,
0, ,-42, ,
5, ,-42, ,
3, ,-43, ,
1, ,-42, ,
3, ,-42, ,
-2, ,-42, ,
4, ,-42, ,
-2, ,-43, ,
3, ,-42, ,
-1, ,-42, ,
3, ,-42, ,
-2, ,-43, ,
0, ,-42, ,
0, ,-43, ,
1, ,-43, ,
0, ,-42, ,
3, ,-42, ,
-4, ,-42, ,
3, ,-42, ,
3, ,-42, ,
3, ,-42, ,
1, ,-42, ,
0, ,-42, ,
0, ,-42, ,
-1, ,-42, ,
5, ,-43, ,
4, ,-42, ,
3, ,-42, ,
3, ,-42, ,
4, ,-42, ,
1, ,-42, ,
1, ,-43, ,
3, ,-42, ,
1, ,-42, ,
3, ,-42, ,
3, ,-42, ,
0, ,-42, ,
1, ,-43, ,
-2, ,-43, ,
3, ,-42, ,
1, ,-42, ,
1, ,-43, ,
3, ,-42, ,
0, ,-42, ,
1, ,-42, ,
4, ,-42, ,
3, ,-42, ,
-1, ,-42, ,
3, ,-42, ,
0, ,-42, ,
-1, ,-42, ,
3, ,-42, ,
1, ,-42, ,
1, ,-42, ,
1, ,-42, ,
4, ,-42, ,
4, ,-42, ,
1, ,-42, ,
4, ,-42, ,
1, ,-42, ,
3, ,-42, ,
4, ,-43, ,
3, ,-42, ,
1, ,-42, ,
3, ,-42, ,
3, ,-42, ,
-1, ,-42, ,
-1, ,-43, ,
4, ,-42, ,
0, ,-43, ,
1, ,-42, ,
1, ,-42, ,
4, ,-43, ,
3, ,-42, ,
1, ,-42, ,
3, ,-42, ,
-2, ,-42, ,
4, ,-43, ,
-1, ,-43, ,
1, ,-42, ,
1, ,-42, ,
3, ,-43, ,
-4, ,-42, ,
5, ,-42, ,
-4, ,-43, ,
4, ,-43, ,
3, ,-42, ,
1, ,-42, ,
-4, ,-42, ,
4, ,-43, ,
-2, ,-42, ,
1, ,-42, ,
-2, ,-42, ,
0, ,-42, ,
-2, ,-42, ,
5, ,-43, ,
5, ,-42, ,
3, ,-42, ,
-1, ,-42, ,
4, ,-42, ,
3, ,-42, ,
5, ,-42, ,
-5, ,-43, ,
3, ,-42, ,
1, ,-42, ,
0, ,-42, ,
1, ,-42, ,
-2, ,-43, ,
1, ,-42, ,
-2, ,-42, ,
0, ,-42, ,
1, ,-42, ,
-1, ,-42, ,
3, ,-43, ,
1, ,-43, ,
1, ,-42, ,
3, ,-42, ,
3, ,-43, ,
0, ,-43, ,
0, ,-43, ,
3, ,-43, ,
-2, ,-42, ,
3, ,-43, ,
-2, ,-42, ,
1, ,-42, ,
-1, ,-42, ,
0, ,-42, ,
-1, ,-42, ,
3, ,-42, ,
0, ,-42, ,
1, ,-43, ,
-1, ,-42, ,
1, ,-42, ,
-2, ,-43, ,
1, ,-42, ,
3, ,-42, ,
3, ,-42, ,
1, ,-42, ,
0, ,-42, ,
1, ,-42, ,
0, ,-42, ,
-1, ,-42, ,
4, ,-42, ,
0, ,-42, ,
1, ,-42, ,
1, ,-42, ,
1, ,-43, ,
-2, ,-42, ,
1, ,-42, ,
1, ,-42, ,
-2, ,-42, ,
4, ,-42, ,
-1, ,-42, ,
1, ,-42, ,
0, ,-42, ,
3, ,-42, ,
1, ,-42, ,
4, ,-42, ,
-1, ,-42, ,
1, ,-43, ,
0, ,-43, ,
-1, ,-42, ,
3, ,-42, ,
0, ,-42, ,
1, ,-42, ,
4, ,-43, ,
0, ,-43, ,
0, ,-42, ,
3, ,-42, ,
-1, ,-42, ,
3, ,-42, ,
-1, ,-42, ,
1, ,-42, ,
1, ,-42, ,
1, ,-42, ,
-5, ,-42, ,
1, ,-43, ,
1, ,-42, ,
4, ,-42, ,
3, ,-42, ,
3, ,-42, ,
1, ,-42, ,
3, ,-42, ,
4, ,-42, ,
5, ,-42, ,
3, ,-43, ,
1, ,-42, ,
1, ,-43, ,
-2, ,-42, ,
3, ,-43, ,
-4, ,-43, ,
4, ,-42, ,
0, ,-42, ,
1, ,-42, ,
3, ,-43, ,
-2, ,-42, ,
1, ,-42, ,
5, ,-42, ,
-1, ,-42, ,
4, ,-42, ,
-1, ,-43, ,
3, ,-43, ,
-1, ,-42, ,
5, ,-42, ,
3, ,-43, ,
1, ,-42, ,
-1, ,-42, ,
3, ,-42, ,
-4, ,-43, ,
4, ,-42, ,
0, ,-42, ,
-2, ,-43, ,
1, ,-43, ,
0, ,-42, ,
1, ,-42, ,
-4, ,-43, ,
0, ,-42, ,
0, ,-42, ,
