src/test_folder/temp50000074.CSV

Format,1.0B,
Memory Length,10000,Memory Length,10000,
IntpDistance,0,IntpDistance,0,
Trigger Address,4999,Trigger Address,4999,
Trigger Level,1.760E+00,Trigger Level,1.760E+00,
Source,CH1,Source,CH2,
Vertical Units,V,Vertical Units,V,
Vertical Units Div,0,Vertical Units Div,0,
Vertical Units Extend Div,16,Vertical Units Extend Div,16,
Label,,Label,,
Probe Type,0,Probe Type,0,
Probe Ratio,1.000e+01,Probe Ratio,1.000e+00,
Vertical Scale,2.000e-02,Vertical Scale,1.000e+00,
Vertical Position,-5.120e-02,Vertical Position,2.000e-01,
Horizontal Units,S,Horizontal Units,S,
Horizontal Scale,1.000E+00,Horizontal Scale,1.000E+00,
Horizontal Position,0.000E+00,Horizontal Position,0.000E+00,
Horizontal Mode,Roll Mode,Horizontal Mode,Roll Mode,
Display Last Dot Address,10000,Display Last Dot Address,10000,
Waveform Last Dot Address,0,Waveform Last Dot Address,0,
SincET Mode,Real Time,SincET Mode,Real Time,
Sampling Period,1.000e-03,Sampling Period,1.000e-03,
Horizontal Old Scale,1.000E+00,Horizontal Old Scale,1.000E+00,
Mode,Fast,Mode,Fast,
Firmware,V1.23,,Firmware,V1.23,,
4, ,-18, ,
3, ,-16, ,
1, ,-14, ,
4, ,-12, ,
3, ,-10, ,
0, ,-8, ,
4, ,-7, ,
3, ,-5, ,
4, ,-3, ,
0, ,-1, ,
4, ,0, ,
4, ,2, ,
4, ,4, ,
4, ,7, ,
1, ,8, ,
3, ,10, ,
3, ,12, ,
1, ,13, ,
3, ,15, ,
3, ,17, ,
4, ,18, ,
3, ,20, ,
4, ,22, ,
3, ,25, ,
1, ,27, ,
3, ,28, ,
0, ,30, ,
1, ,32, ,
3, ,33, ,
-1, ,35, ,
5, ,37, ,
-2, ,38, ,
4, ,41, ,
0, ,42, ,
0, ,45, ,
3, ,46, ,
-2, ,49, ,
1, ,50, ,
4, ,47, ,
3, ,47, ,
1, ,44, ,
4, ,42, ,
-1, ,40, ,
1, ,38, ,
0, ,36, ,
0, ,35, ,
0, ,33, ,
3, ,31, ,
-1, ,30, ,
4, ,28, ,
4, ,26, ,
3, ,25, ,
-1, ,22, ,
4, ,20, ,
-2, ,18, ,
3, ,16, ,
-1, ,15, ,
3, ,13, ,
3, ,11, ,
3, ,9, ,
3, ,8, ,
3, ,6, ,
5, ,3, ,
3, ,2, ,
0, ,0, ,
1, ,-2, ,
1, ,-4, ,
1, ,-5, ,
5, ,-7, ,
4, ,-9, ,
1, ,-11, ,
1, ,-12, ,
1, ,-14, ,
0, ,-17, ,
5, ,-19, ,
3, ,-20, ,
-2, ,-22, ,
3, ,-24, ,
1, ,-26, ,
1, ,-27, ,
1, ,-29, ,
4, ,-31, ,
1, ,-33, ,
3, ,-36, ,
4, ,-37, ,
1, ,-39, ,
1, ,-41, ,
-1, ,-42, ,
3, ,-41, ,
-2, ,-39, ,
3, ,-37, ,
3, ,-36, ,
1, ,-33, ,
0, ,-31, ,
3, ,-29, ,
3, ,-27, ,
0, ,-26, ,
4, ,-24, ,
-2, ,-22, ,
1, ,-20, ,
4, ,-18, ,
5, ,-17, ,
-4, ,-14, ,
3, ,-12, ,
-2, ,-10, ,
4, ,-9, ,
-1, ,-7, ,
4, ,-5, ,
3, ,-3, ,
1, ,-2, ,
4, ,0, ,
1, ,2, ,
4, ,3, ,
3, ,6, ,
4, ,8, ,
1, ,10, ,
6, ,11, ,
0, ,13, ,
3, ,15, ,
4, ,17, ,
0, ,19, ,
3, ,21, ,
3, ,22, ,
1, ,25, ,
3, ,26, ,
-2, ,29, ,
5, ,30, ,
4, ,32, ,
-2, ,33, ,
0, ,35, ,
4, ,37, ,
4, ,38, ,
1, ,40, ,
1, ,41, ,
-1, ,45, ,
1, ,46, ,
3, ,48, ,
4, ,50, ,
4, ,48, ,
4, ,45, ,
-2, ,45, ,
1, ,42, ,
3, ,39, ,
4, ,38, ,
0, ,36, ,
4, ,34, ,
1, ,33, ,
0, ,31, ,
-1, ,29, ,
4, ,27, ,
1, ,26, ,
-4, ,23, ,
3, ,21, ,
1, ,19, ,
3, ,18, ,
4, ,16, ,
1, ,14, ,
3, ,13, ,
5, ,11, ,
1, ,9, ,
5, ,7, ,
-1, ,6, ,
3, ,3, ,
3, ,1, ,
3, ,-1, ,
0, ,-2, ,
0, ,-4, ,
0, ,-6, ,
3, ,-8, ,
0, ,-9, ,
1, ,-11, ,
0, ,-13, ,
5, ,-16, ,
1, ,-17, ,
3, ,-19, ,
0, ,-21, ,
4, ,-23, ,
1, ,-24, ,
3, ,-26, ,
4, ,-28, ,
4, ,-30, ,
3, ,-32, ,
3, ,-33, ,
1, ,-36, ,
5, ,-38, ,
4, ,-40, ,
0, ,-41, ,
3, ,-42, ,
-1, ,-40, ,
3, ,-38, ,
3, ,-36, ,
1, ,-35, ,
0, ,-32, ,
3, ,-30, ,
-1, ,-28, ,
5, ,-26, ,
3, ,-25, ,
3, ,-23, ,
1, ,-21, ,
-2, ,-19, ,
3, ,-18, ,
5, ,-16, ,
1, ,-13, ,
0, ,-11, ,
3, ,-10, ,
3, ,-8, ,
1, ,-6, ,
3, ,-4, ,
1, ,-2, ,
0, ,-1, ,
3, ,1, ,
4, ,3, ,
1, ,4, ,
-4, ,7, ,
3, ,9, ,
0, ,11, ,
3, ,12, ,
4, ,14, ,
-1, ,16, ,
1, ,18, ,
3, ,19, ,
0, ,21, ,
1, ,23, ,
4, ,25, ,
4, ,28, ,
5, ,29, ,
-2, ,31, ,
3, ,33, ,
1, ,34, ,
1, ,36, ,
-1, ,38, ,
1, ,40, ,
1, ,42, ,
3, ,45, ,
4, ,45, ,
-2, ,48, ,
4, ,49, ,
5, ,49, ,
3, ,46, ,
3, ,45, ,
0, ,42, ,
3, ,40, ,
3, ,39, ,
1, ,37, ,
3, ,35, ,
3, ,33, ,
4, ,32, ,
3, ,30, ,
3, ,28, ,
1, ,26, ,
4, ,23, ,
0, ,22, ,
6, ,20, ,
-2, ,18, ,
1, ,16, ,
3, ,15, ,
1, ,13, ,
3, ,11, ,
4, ,9, ,
5, ,8, ,
3, ,6, ,
0, ,3, ,
3, ,2, ,
-1, ,0, ,
1, ,-2, ,
3, ,-3, ,
4, ,-5, ,
0, ,-7, ,
4, ,-9, ,
3, ,-11, ,
1, ,-12, ,
3, ,-14, ,
1, ,-17, ,
0, ,-19, ,
4, ,-21, ,
-1, ,-22, ,
3, ,-24, ,
-1, ,-26, ,
3, ,-28, ,
0, ,-29, ,
4, ,-31, ,
3, ,-33, ,
3, ,-36, ,
4, ,-37, ,
1, ,-40, ,
3, ,-41, ,
1, ,-42, ,
0, ,-40, ,
3, ,-38, ,
-2, ,-37, ,
3, ,-35, ,
3, ,-32, ,
3, ,-30, ,
4, ,-29, ,
0, ,-27, ,
5, ,-25, ,
-1, ,-23, ,
3, ,-22, ,
4, ,-19, ,
3, ,-18, ,
4, ,-16, ,
4, ,-13, ,
1, ,-11, ,
4, ,-10, ,
3, ,-8, ,
0, ,-6, ,
3, ,-4, ,
-2, ,-3, ,
3, ,-1, ,
3, ,1, ,
6, ,3, ,
4, ,4, ,
0, ,7, ,
4, ,9, ,
3, ,11, ,
1, ,12, ,
1, ,14, ,
0, ,16, ,
4, ,18, ,
-1, ,20, ,
5, ,21, ,
3, ,23, ,
3, ,26, ,
1, ,28, ,
3, ,29, ,
-2, ,31, ,
3, ,33, ,
3, ,34, ,
3, ,36, ,
5, ,38, ,
3, ,40, ,
3, ,42, ,
3, ,42, ,
3, ,45, ,
4, ,48, ,
-2, ,49, ,
3, ,49, ,
3, ,47, ,
3, ,44, ,
1, ,42, ,
4, ,41, ,
1, ,39, ,
1, ,37, ,
1, ,36, ,
4, ,33, ,
0, ,32, ,
1, ,30, ,
4, ,28, ,
3, ,26, ,
1, ,25, ,
3, ,22, ,
3, ,20, ,
4, ,18, ,
1, ,16, ,
3, ,15, ,
5, ,13, ,
-1, ,11, ,
3, ,10, ,
1, ,8, ,
0, ,6, ,
3, ,3, ,
3, ,1, ,
-1, ,0, ,
4, ,-2, ,
3, ,-4, ,
3, ,-5, ,
3, ,-7, ,
3, ,-9, ,
3, ,-11, ,
0, ,-13, ,
3, ,-14, ,
-1, ,-17, ,
1, ,-19, ,
3, ,-21, ,
4, ,-22, ,
0, ,-24, ,
1, ,-26, ,
3, ,-27, ,
1, ,-30, ,
1, ,-31, ,
1, ,-33, ,
1, ,-36, ,
5, ,-37, ,
-1, ,-39, ,
0, ,-41, ,
3, ,-42, ,
-1, ,-40, ,
1, ,-38, ,
-2, ,-37, ,
3, ,-35, ,
1, ,-32, ,
3, ,-30, ,
0, ,-29, ,
1, ,-27, ,
-1, ,-25, ,
1, ,-23, ,
0, ,-21, ,
3, ,-19, ,
-1, ,-18, ,
1, ,-16, ,
1, ,-13, ,
1, ,-11, ,
1, ,-10, ,
4, ,-8, ,
3, ,-6, ,
6, ,-4, ,
1, ,-3, ,
-1, ,-1, ,
3, ,1, ,
-1, ,3, ,
3, ,4, ,
5, ,7, ,
-1, ,9, ,
3, ,10, ,
1, ,12, ,
1, ,14, ,
-1, ,15, ,
4, ,17, ,
0, ,19, ,
3, ,21, ,
3, ,23, ,
-1, ,25, ,
0, ,27, ,
1, ,29, ,
3, ,30, ,
0, ,32, ,
3, ,34, ,
1, ,36, ,
4, ,38, ,
3, ,40, ,
3, ,42, ,
0, ,44, ,
3, ,47, ,
-1, ,47, ,
0, ,50, ,
4, ,48, ,
1, ,48, ,
1, ,46, ,
4, ,44, ,
4, ,41, ,
3, ,38, ,
1, ,38, ,
0, ,36, ,
3, ,34, ,
4, ,32, ,
3, ,30, ,
3, ,28, ,
4, ,27, ,
3, ,25, ,
3, ,22, ,
4, ,20, ,
0, ,19, ,
4, ,16, ,
3, ,15, ,
-2, ,13, ,
4, ,12, ,
0, ,10, ,
3, ,8, ,
3, ,6, ,
3, ,4, ,
3, ,2, ,
1, ,0, ,
5, ,-2, ,
1, ,-3, ,
4, ,-5, ,
3, ,-7, ,
3, ,-8, ,
0, ,-10, ,
4, ,-12, ,
1, ,-14, ,
3, ,-17, ,
3, ,-18, ,
4, ,-20, ,
-2, ,-22, ,
1, ,-24, ,
1, ,-26, ,
5, ,-27, ,
-1, ,-29, ,
4, ,-31, ,
3, ,-33, ,
3, ,-35, ,
1, ,-37, ,
3, ,-39, ,
-1, ,-41, ,
4, ,-43, ,
-1, ,-41, ,
3, ,-39, ,
3, ,-37, ,
1, ,-35, ,
-1, ,-33, ,
1, ,-31, ,
-2, ,-29, ,
1, ,-27, ,
0, ,-26, ,
3, ,-24, ,
0, ,-22, ,
4, ,-20, ,
5, ,-18, ,
4, ,-17, ,
4, ,-14, ,
3, ,-12, ,
3, ,-10, ,
1, ,-9, ,
1, ,-7, ,
-5, ,-5, ,
1, ,-3, ,
1, ,-2, ,
0, ,0, ,
4, ,2, ,
1, ,4, ,
3, ,7, ,
-2, ,8, ,
3, ,10, ,
-2, ,11, ,
3, ,13, ,
3, ,15, ,
3, ,17, ,
-1, ,18, ,
0, ,20, ,
-2, ,22, ,
3, ,25, ,
3, ,26, ,
0, ,29, ,
3, ,30, ,
4, ,31, ,
-1, ,33, ,
4, ,35, ,
0, ,37, ,
1, ,39, ,
0, ,41, ,
1, ,42, ,
-1, ,45, ,
3, ,47, ,
0, ,49, ,
5, ,49, ,
4, ,48, ,
1, ,46, ,
4, ,45, ,
-1, ,41, ,
4, ,41, ,
0, ,38, ,
3, ,36, ,
4, ,35, ,
4, ,33, ,
-1, ,30, ,
1, ,29, ,
-2, ,28, ,
3, ,26, ,
1, ,23, ,
3, ,21, ,
0, ,20, ,
4, ,18, ,
-2, ,16, ,
1, ,14, ,
0, ,12, ,
1, ,11, ,
-2, ,9, ,
4, ,8, ,
-1, ,6, ,
1, ,3, ,
1, ,2, ,
5, ,-1, ,
-1, ,-2, ,
5, ,-4, ,
0, ,-6, ,
3, ,-7, ,
-1, ,-9, ,
3, ,-11, ,
-1, ,-13, ,
6, ,-14, ,
1, ,-17, ,
4, ,-19, ,
1, ,-21, ,
-1, ,-22, ,
3, ,-24, ,
-2, ,-26, ,
1, ,-28, ,
3, ,-30, ,
3, ,-31, ,
0, ,-33, ,
0, ,-36, ,
4, ,-37, ,
3, ,-39, ,
1, ,-41, ,
4, ,-42, ,
1, ,-40, ,
0, ,-39, ,
3, ,-37, ,
-2, ,-35, ,
1, ,-32, ,
6, ,-31, ,
1, ,-29, ,
4, ,-27, ,
3, ,-25, ,
3, ,-23, ,
1, ,-22, ,
5, ,-20, ,
3, ,-18, ,
1, ,-16, ,
-1, ,-14, ,
3, ,-12, ,
1, ,-10, ,
4, ,-8, ,
-5, ,-7, ,
1, ,-5, ,
-2, ,-3, ,
3, ,-1, ,
3, ,0, ,
1, ,2, ,
3, ,4, ,
4, ,6, ,
-1, ,8, ,
4, ,10, ,
1, ,12, ,
1, ,13, ,
3, ,15, ,
4, ,17, ,
4, ,18, ,
0, ,20, ,
3, ,22, ,
1, ,25, ,
1, ,27, ,
-1, ,29, ,
0, ,30, ,
4, ,32, ,
3, ,33, ,
-1, ,35, ,
4, ,37, ,
4, ,38, ,
3, ,40, ,
1, ,42, ,
5, ,45, ,
4, ,46, ,
3, ,47, ,
3, ,51, ,
1, ,48, ,
3, ,47, ,
-2, ,45, ,
3, ,42, ,
3, ,41, ,
1, ,38, ,
-1, ,36, ,
3, ,35, ,
5, ,33, ,
3, ,32, ,
3, ,30, ,
1, ,28, ,
4, ,26, ,
1, ,25, ,
3, ,22, ,
1, ,20, ,
3, ,18, ,
-1, ,16, ,
3, ,15, ,
1, ,13, ,
1, ,11, ,
3, ,10, ,
1, ,8, ,
-1, ,6, ,
4, ,3, ,
4, ,2, ,
1, ,0, ,
1, ,-2, ,
1, ,-3, ,
1, ,-5, ,
1, ,-7, ,
-1, ,-9, ,
3, ,-11, ,
1, ,-12, ,
3, ,-14, ,
0, ,-17, ,
5, ,-18, ,
0, ,-20, ,
3, ,-22, ,
-2, ,-24, ,
3, ,-25, ,
-2, ,-27, ,
4, ,-29, ,
-1, ,-30, ,
1, ,-33, ,
3, ,-35, ,
3, ,-37, ,
1, ,-38, ,
3, ,-40, ,
0, ,-42, ,
1, ,-41, ,
4, ,-40, ,
3, ,-38, ,
-2, ,-36, ,
1, ,-33, ,
-4, ,-31, ,
1, ,-30, ,
3, ,-28, ,
1, ,-26, ,
3, ,-24, ,
1, ,-22, ,
-1, ,-21, ,
3, ,-19, ,
3, ,-17, ,
3, ,-16, ,
0, ,-13, ,
4, ,-11, ,
3, ,-9, ,
3, ,-7, ,
1, ,-6, ,
4, ,-4, ,
0, ,-2, ,
3, ,-1, ,
3, ,1, ,
3, ,3, ,
-4, ,4, ,
0, ,7, ,
0, ,9, ,
4, ,10, ,
-1, ,12, ,
3, ,14, ,
-2, ,16, ,
1, ,18, ,
1, ,19, ,
1, ,21, ,
1, ,22, ,
1, ,26, ,
3, ,27, ,
-1, ,29, ,
3, ,31, ,
-2, ,33, ,
3, ,33, ,
3, ,36, ,
0, ,38, ,
4, ,39, ,
-2, ,41, ,
3, ,44, ,
4, ,46, ,
1, ,47, ,
3, ,49, ,
1, ,49, ,
3, ,48, ,
1, ,46, ,
3, ,44, ,
3, ,41, ,
1, ,40, ,
0, ,38, ,
3, ,36, ,
1, ,34, ,
3, ,33, ,
3, ,31, ,
3, ,29, ,
3, ,27, ,
5, ,26, ,
3, ,22, ,
3, ,21, ,
4, ,19, ,
1, ,18, ,
-1, ,16, ,
4, ,14, ,
0, ,12, ,
1, ,11, ,
4, ,9, ,
1, ,7, ,
1, ,6, ,
4, ,3, ,
1, ,1, ,
3, ,0, ,
1, ,-2, ,
3, ,-4, ,
3, ,-6, ,
0, ,-7, ,
3, ,-9, ,
3, ,-11, ,
0, ,-13, ,
3, ,-14, ,
1, ,-17, ,
3, ,-19, ,
1, ,-20, ,
1, ,-22, ,
4, ,-24, ,
4, ,-25, ,
3, ,-27, ,
3, ,-29, ,
3, ,-31, ,
1, ,-33, ,
0, ,-36, ,
4, ,-37, ,
-1, ,-39, ,
5, ,-41, ,
4, ,-42, ,
-2, ,-41, ,
3, ,-39, ,
0, ,-37, ,
1, ,-36, ,
-1, ,-33, ,
1, ,-31, ,
4, ,-29, ,
1, ,-28, ,
-1, ,-26, ,
1, ,-24, ,
3, ,-22, ,
1, ,-21, ,
4, ,-19, ,
3, ,-17, ,
3, ,-14, ,
3, ,-12, ,
3, ,-11, ,
0, ,-9, ,
-2, ,-7, ,
1, ,-6, ,
1, ,-4, ,
3, ,-2, ,
4, ,0, ,
0, ,1, ,
3, ,3, ,
3, ,4, ,
1, ,8, ,
4, ,9, ,
3, ,11, ,
3, ,12, ,
-4, ,14, ,
-1, ,16, ,
-1, ,18, ,
4, ,19, ,
1, ,21, ,
4, ,22, ,
4, ,25, ,
3, ,27, ,
4, ,29, ,
1, ,31, ,
-4, ,32, ,
1, ,34, ,
-4, ,36, ,
4, ,38, ,
3, ,39, ,
-1, ,41, ,
0, ,42, ,
4, ,45, ,
4, ,47, ,
1, ,50, ,
1, ,49, ,
3, ,48, ,
3, ,46, ,
-1, ,44, ,
0, ,41, ,
3, ,39, ,
0, ,38, ,
4, ,36, ,
-2, ,34, ,
3, ,33, ,
-1, ,31, ,
1, ,29, ,
-1, ,27, ,
3, ,26, ,
-1, ,23, ,
3, ,21, ,
-1, ,20, ,
0, ,18, ,
0, ,16, ,
4, ,14, ,
-1, ,12, ,
3, ,11, ,
1, ,9, ,
0, ,7, ,
3, ,6, ,
1, ,3, ,
-1, ,1, ,
1, ,0, ,
1, ,-2, ,
1, ,-4, ,
4, ,-6, ,
3, ,-7, ,
0, ,-9, ,
1, ,-11, ,
4, ,-13, ,
0, ,-14, ,
1, ,-17, ,
0, ,-19, ,
4, ,-20, ,
5, ,-22, ,
-2, ,-24, ,
1, ,-26, ,
3, ,-27, ,
0, ,-29, ,
3, ,-31, ,
3, ,-33, ,
-2, ,-36, ,
1, ,-37, ,
-1, ,-39, ,
1, ,-41, ,
-2, ,-42, ,
1, ,-41, ,
-1, ,-39, ,
-1, ,-37, ,
1, ,-36, ,
3, ,-33, ,
0, ,-31, ,
4, ,-29, ,
3, ,-27, ,
-2, ,-26, ,
1, ,-24, ,
-2, ,-22, ,
3, ,-21, ,
3, ,-19, ,
3, ,-17, ,
1, ,-14, ,
4, ,-12, ,
1, ,-11, ,
4, ,-9, ,
3, ,-7, ,
3, ,-6, ,
1, ,-4, ,
3, ,-2, ,
-1, ,0, ,
3, ,1, ,
0, ,3, ,
4, ,6, ,
1, ,7, ,
0, ,9, ,
4, ,11, ,
4, ,13, ,
-1, ,14, ,
0, ,16, ,
0, ,18, ,
3, ,19, ,
1, ,21, ,
-1, ,22, ,
1, ,25, ,
-2, ,27, ,
0, ,29, ,
0, ,31, ,
3, ,33, ,
-2, ,33, ,
1, ,35, ,
4, ,38, ,
3, ,40, ,
1, ,42, ,
1, ,44, ,
1, ,46, ,
0, ,47, ,
-1, ,49, ,
0, ,50, ,
5, ,46, ,
3, ,45, ,
0, ,44, ,
1, ,41, ,
0, ,39, ,
4, ,38, ,
3, ,36, ,
0, ,34, ,
1, ,32, ,
-1, ,30, ,
3, ,29, ,
4, ,27, ,
-4, ,25, ,
0, ,23, ,
1, ,21, ,
1, ,20, ,
1, ,17, ,
0, ,15, ,
1, ,14, ,
0, ,12, ,
0, ,10, ,
3, ,9, ,
-1, ,7, ,
4, ,4, ,
3, ,3, ,
-1, ,1, ,
3, ,-1, ,
-1, ,-2, ,
1, ,-4, ,
-2, ,-6, ,
1, ,-7, ,
3, ,-9, ,
1, ,-11, ,
1, ,-13, ,
3, ,-14, ,
1, ,-17, ,
4, ,-19, ,
1, ,-21, ,
1, ,-23, ,
0, ,-24, ,
3, ,-26, ,
0, ,-28, ,
3, ,-30, ,
3, ,-31, ,
0, ,-33, ,
3, ,-36, ,
3, ,-38, ,
3, ,-39, ,
5, ,-41, ,
1, ,-42, ,
3, ,-41, ,
4, ,-38, ,
3, ,-37, ,
1, ,-35, ,
1, ,-32, ,
-2, ,-31, ,
4, ,-29, ,
4, ,-27, ,
1, ,-25, ,
0, ,-23, ,
0, ,-22, ,
3, ,-20, ,
3, ,-18, ,
4, ,-17, ,
-2, ,-14, ,
3, ,-12, ,
3, ,-10, ,
1, ,-8, ,
3, ,-7, ,
0, ,-5, ,
1, ,-3, ,
-1, ,-2, ,
1, ,0, ,
3, ,2, ,
-4, ,3, ,
1, ,6, ,
0, ,8, ,
0, ,10, ,
0, ,12, ,
3, ,13, ,
1, ,15, ,
3, ,17, ,
1, ,19, ,
1, ,20, ,
3, ,22, ,
3, ,23, ,
3, ,26, ,
1, ,28, ,
4, ,30, ,
4, ,32, ,
-4, ,34, ,
1, ,35, ,
0, ,36, ,
1, ,39, ,
5, ,40, ,
4, ,42, ,
0, ,45, ,
1, ,47, ,
3, ,47, ,
0, ,51, ,
1, ,49, ,
3, ,46, ,
0, ,45, ,
1, ,42, ,
0, ,39, ,
3, ,38, ,
-1, ,37, ,
3, ,35, ,
-1, ,33, ,
3, ,31, ,
1, ,29, ,
4, ,28, ,
1, ,26, ,
0, ,23, ,
5, ,22, ,
3, ,20, ,
3, ,18, ,
1, ,16, ,
1, ,15, ,
1, ,13, ,
3, ,11, ,
4, ,9, ,
4, ,8, ,
3, ,6, ,
5, ,3, ,
-1, ,2, ,
3, ,0, ,
-2, ,-2, ,
4, ,-4, ,
1, ,-5, ,
-2, ,-7, ,
4, ,-9, ,
3, ,-10, ,
1, ,-12, ,
4, ,-14, ,
0, ,-17, ,
3, ,-19, ,
4, ,-21, ,
1, ,-22, ,
3, ,-24, ,
4, ,-26, ,
1, ,-27, ,
1, ,-29, ,
-1, ,-31, ,
5, ,-33, ,
5, ,-35, ,
0, ,-37, ,
1, ,-39, ,
0, ,-41, ,
-1, ,-43, ,
3, ,-41, ,
-2, ,-39, ,
4, ,-37, ,
3, ,-35, ,
3, ,-33, ,
3, ,-31, ,
-1, ,-29, ,
0, ,-27, ,
4, ,-26, ,
1, ,-23, ,
0, ,-22, ,
3, ,-20, ,
1, ,-19, ,
0, ,-17, ,
4, ,-14, ,
1, ,-12, ,
1, ,-10, ,
3, ,-9, ,
1, ,-7, ,
3, ,-5, ,
5, ,-3, ,
1, ,-2, ,
3, ,0, ,
1, ,2, ,
1, ,3, ,
1, ,6, ,
4, ,8, ,
4, ,9, ,
1, ,11, ,
3, ,13, ,
-1, ,15, ,
4, ,17, ,
-2, ,18, ,
1, ,20, ,
1, ,22, ,
1, ,25, ,
1, ,26, ,
1, ,28, ,
3, ,30, ,
5, ,31, ,
1, ,33, ,
0, ,34, ,
1, ,37, ,
1, ,39, ,
-1, ,40, ,
0, ,44, ,
4, ,45, ,
-2, ,47, ,
0, ,49, ,
-2, ,51, ,
0, ,48, ,
3, ,46, ,
-1, ,44, ,
-1, ,41, ,
1, ,40, ,
-1, ,39, ,
3, ,36, ,
1, ,34, ,
3, ,33, ,
1, ,30, ,
3, ,29, ,
-1, ,28, ,
3, ,26, ,
0, ,23, ,
1, ,21, ,
3, ,19, ,
1, ,18, ,
0, ,16, ,
3, ,14, ,
0, ,13, ,
3, ,11, ,
-2, ,9, ,
1, ,7, ,
0, ,6, ,
4, ,3, ,
1, ,1, ,
1, ,-1, ,
-2, ,-2, ,
0, ,-4, ,
0, ,-6, ,
-2, ,-8, ,
1, ,-9, ,
3, ,-11, ,
0, ,-13, ,
1, ,-16, ,
1, ,-17, ,
1, ,-19, ,
-2, ,-21, ,
4, ,-23, ,
3, ,-24, ,
-1, ,-26, ,
1, ,-28, ,
1, ,-30, ,
4, ,-32, ,
0, ,-35, ,
0, ,-36, ,
1, ,-38, ,
-2, ,-40, ,
3, ,-42, ,
-1, ,-42, ,
4, ,-40, ,
1, ,-38, ,
3, ,-37, ,
-1, ,-33, ,
4, ,-32, ,
6, ,-30, ,
0, ,-28, ,
1, ,-26, ,
0, ,-24, ,
1, ,-23, ,
-1, ,-21, ,
1, ,-19, ,
6, ,-18, ,
3, ,-16, ,
1, ,-13, ,
0, ,-11, ,
3, ,-9, ,
1, ,-8, ,
3, ,-6, ,
-1, ,-4, ,
1, ,-2, ,
0, ,-1, ,
3, ,1, ,
1, ,3, ,
3, ,4, ,
0, ,7, ,
1, ,9, ,
-2, ,10, ,
3, ,12, ,
0, ,14, ,
1, ,16, ,
5, ,18, ,
1, ,19, ,
3, ,21, ,
3, ,23, ,
0, ,26, ,
5, ,27, ,
1, ,29, ,
1, ,30, ,
1, ,32, ,
1, ,35, ,
-1, ,36, ,
1, ,38, ,
-2, ,39, ,
3, ,41, ,
3, ,42, ,
1, ,46, ,
1, ,47, ,
-2, ,49, ,
3, ,47, ,
3, ,47, ,
1, ,45, ,
-4, ,42, ,
1, ,40, ,
-1, ,39, ,
4, ,37, ,
1, ,35, ,
1, ,34, ,
3, ,31, ,
-1, ,30, ,
4, ,29, ,
0, ,26, ,
3, ,25, ,
0, ,21, ,
6, ,20, ,
3, ,18, ,
3, ,16, ,
4, ,14, ,
-2, ,13, ,
4, ,11, ,
4, ,10, ,
0, ,8, ,
1, ,6, ,
1, ,3, ,
-2, ,2, ,
5, ,0, ,
1, ,-2, ,
0, ,-4, ,
-1, ,-5, ,
5, ,-7, ,
0, ,-9, ,
0, ,-11, ,
-1, ,-13, ,
1, ,-14, ,
1, ,-17, ,
1, ,-19, ,
1, ,-21, ,
1, ,-22, ,
1, ,-24, ,
0, ,-26, ,
3, ,-28, ,
3, ,-29, ,
3, ,-31, ,
4, ,-33, ,
3, ,-36, ,
3, ,-38, ,
4, ,-39, ,
1, ,-41, ,
0, ,-42, ,
-2, ,-40, ,
1, ,-39, ,
1, ,-37, ,
4, ,-35, ,
0, ,-32, ,
-4, ,-30, ,
1, ,-29, ,
-1, ,-27, ,
3, ,-25, ,
1, ,-23, ,
1, ,-21, ,
3, ,-20, ,
3, ,-18, ,
-1, ,-16, ,
1, ,-13, ,
-1, ,-12, ,
3, ,-10, ,
-4, ,-8, ,
4, ,-6, ,
3, ,-4, ,
1, ,-3, ,
3, ,-1, ,
4, ,1, ,
3, ,3, ,
3, ,4, ,
0, ,7, ,
3, ,9, ,
-1, ,11, ,
3, ,12, ,
0, ,14, ,
3, ,16, ,
3, ,17, ,
5, ,19, ,
-1, ,21, ,
3, ,23, ,
3, ,26, ,
3, ,27, ,
4, ,29, ,
1, ,31, ,
1, ,32, ,
4, ,34, ,
-2, ,35, ,
0, ,37, ,
1, ,40, ,
4, ,41, ,
3, ,45, ,
0, ,46, ,
1, ,48, ,
4, ,49, ,
1, ,48, ,
3, ,46, ,
4, ,46, ,
3, ,42, ,
1, ,40, ,
1, ,39, ,
3, ,37, ,
1, ,36, ,
3, ,33, ,
1, ,32, ,
1, ,30, ,
1, ,28, ,
3, ,26, ,
0, ,25, ,
1, ,22, ,
1, ,20, ,
1, ,18, ,
4, ,17, ,
0, ,15, ,
3, ,13, ,
4, ,12, ,
1, ,9, ,
1, ,8, ,
1, ,6, ,
-2, ,3, ,
3, ,2, ,
-1, ,0, ,
1, ,-2, ,
0, ,-3, ,
0, ,-5, ,
4, ,-7, ,
-2, ,-9, ,
4, ,-11, ,
-1, ,-12, ,
3, ,-14, ,
0, ,-17, ,
3, ,-19, ,
-1, ,-21, ,
4, ,-22, ,
1, ,-24, ,
4, ,-26, ,
1, ,-28, ,
0, ,-29, ,
3, ,-31, ,
3, ,-33, ,
3, ,-36, ,
4, ,-37, ,
1, ,-39, ,
0, ,-41, ,
-2, ,-42, ,
3, ,-41, ,
-1, ,-39, ,
1, ,-37, ,
1, ,-35, ,
5, ,-32, ,
3, ,-30, ,
-2, ,-29, ,
1, ,-27, ,
4, ,-25, ,
4, ,-23, ,
4, ,-21, ,
1, ,-20, ,
1, ,-18, ,
-1, ,-16, ,
4, ,-13, ,
3, ,-12, ,
-2, ,-10, ,
1, ,-8, ,
1, ,-6, ,
1, ,-4, ,
-2, ,-3, ,
4, ,-1, ,
4, ,1, ,
4, ,2, ,
0, ,4, ,
1, ,7, ,
4, ,9, ,
-1, ,10, ,
0, ,12, ,
3, ,14, ,
4, ,16, ,
-2, ,17, ,
0, ,19, ,
4, ,21, ,
3, ,23, ,
1, ,25, ,
-2, ,28, ,
-1, ,29, ,
4, ,31, ,
-1, ,33, ,
3, ,35, ,
3, ,36, ,
-1, ,38, ,
1, ,40, ,
3, ,40, ,
3, ,42, ,
1, ,46, ,
3, ,47, ,
4, ,50, ,
0, ,49, ,
3, ,48, ,
1, ,46, ,
3, ,44, ,
1, ,41, ,
-4, ,39, ,
1, ,37, ,
-1, ,35, ,
1, ,33, ,
1, ,32, ,
1, ,30, ,
1, ,28, ,
0, ,26, ,
1, ,23, ,
4, ,22, ,
-2, ,20, ,
-1, ,19, ,
0, ,17, ,
1, ,15, ,
1, ,13, ,
-1, ,11, ,
4, ,10, ,
3, ,8, ,
0, ,6, ,
0, ,4, ,
-1, ,2, ,
4, ,0, ,
-1, ,-2, ,
3, ,-3, ,
-2, ,-5, ,
1, ,-7, ,
1, ,-8, ,
3, ,-10, ,
-2, ,-12, ,
1, ,-14, ,
3, ,-17, ,
1, ,-18, ,
4, ,-20, ,
0, ,-22, ,
1, ,-24, ,
1, ,-25, ,
-4, ,-28, ,
3, ,-29, ,
1, ,-31, ,
1, ,-33, ,
1, ,-35, ,
3, ,-37, ,
-5, ,-39, ,
1, ,-41, ,
0, ,-42, ,
-5, ,-41, ,
0, ,-39, ,
1, ,-37, ,
1, ,-36, ,
3, ,-33, ,
3, ,-31, ,
4, ,-29, ,
1, ,-27, ,
1, ,-25, ,
3, ,-24, ,
0, ,-22, ,
-2, ,-20, ,
0, ,-18, ,
3, ,-17, ,
1, ,-14, ,
0, ,-12, ,
3, ,-10, ,
6, ,-9, ,
5, ,-7, ,
3, ,-5, ,
1, ,-3, ,
-1, ,-2, ,
0, ,0, ,
-4, ,2, ,
1, ,4, ,
0, ,6, ,
4, ,8, ,
4, ,10, ,
3, ,12, ,
5, ,13, ,
4, ,15, ,
3, ,17, ,
1, ,19, ,
4, ,20, ,
0, ,22, ,
0, ,25, ,
-2, ,26, ,
5, ,28, ,
-1, ,30, ,
0, ,32, ,
4, ,34, ,
0, ,34, ,
3, ,37, ,
3, ,39, ,
1, ,40, ,
3, ,42, ,
-1, ,44, ,
1, ,48, ,
3, ,49, ,
4, ,50, ,
3, ,48, ,
3, ,45, ,
3, ,44, ,
-1, ,41, ,
3, ,40, ,
-2, ,38, ,
1, ,37, ,
-2, ,35, ,
0, ,33, ,
1, ,31, ,
1, ,29, ,
0, ,28, ,
4, ,26, ,
0, ,23, ,
3, ,21, ,
1, ,20, ,
1, ,18, ,
3, ,16, ,
1, ,14, ,
-4, ,13, ,
1, ,11, ,
0, ,9, ,
-1, ,8, ,
4, ,6, ,
3, ,3, ,
-2, ,1, ,
1, ,0, ,
0, ,-2, ,
4, ,-4, ,
4, ,-6, ,
1, ,-7, ,
-4, ,-9, ,
3, ,-11, ,
-2, ,-13, ,
1, ,-14, ,
3, ,-17, ,
-2, ,-19, ,
5, ,-21, ,
4, ,-22, ,
3, ,-24, ,
-2, ,-26, ,
0, ,-28, ,
0, ,-30, ,
3, ,-31, ,
1, ,-33, ,
4, ,-36, ,
1, ,-37, ,
-1, ,-39, ,
5, ,-41, ,
-1, ,-42, ,
3, ,-41, ,
3, ,-38, ,
0, ,-37, ,
3, ,-35, ,
-2, ,-32, ,
3, ,-31, ,
-1, ,-29, ,
0, ,-27, ,
0, ,-25, ,
1, ,-24, ,
-1, ,-22, ,
3, ,-20, ,
3, ,-18, ,
5, ,-16, ,
0, ,-14, ,
0, ,-12, ,
3, ,-10, ,
-1, ,-8, ,
1, ,-7, ,
-2, ,-5, ,
3, ,-3, ,
3, ,-1, ,
-1, ,0, ,
5, ,2, ,
3, ,4, ,
4, ,6, ,
-1, ,8, ,
0, ,10, ,
1, ,11, ,
-2, ,13, ,
1, ,15, ,
1, ,17, ,
5, ,18, ,
0, ,20, ,
-1, ,22, ,
3, ,25, ,
0, ,26, ,
1, ,28, ,
1, ,30, ,
0, ,32, ,
4, ,34, ,
1, ,35, ,
5, ,36, ,
-1, ,39, ,
1, ,41, ,
3, ,42, ,
0, ,45, ,
1, ,47, ,
3, ,49, ,
0, ,50, ,
1, ,49, ,
3, ,46, ,
3, ,44, ,
1, ,42, ,
3, ,40, ,
3, ,37, ,
3, ,36, ,
-1, ,35, ,
4, ,33, ,
4, ,31, ,
1, ,30, ,
0, ,27, ,
3, ,26, ,
4, ,25, ,
0, ,22, ,
5, ,20, ,
1, ,19, ,
1, ,16, ,
1, ,15, ,
3, ,13, ,
1, ,11, ,
4, ,9, ,
4, ,8, ,
-1, ,6, ,
1, ,3, ,
-1, ,2, ,
3, ,0, ,
3, ,-2, ,
-1, ,-3, ,
3, ,-5, ,
0, ,-7, ,
0, ,-9, ,
1, ,-10, ,
3, ,-12, ,
1, ,-14, ,
3, ,-16, ,
0, ,-18, ,
0, ,-20, ,
0, ,-22, ,
1, ,-24, ,
1, ,-25, ,
1, ,-27, ,
-2, ,-29, ,
5, ,-30, ,
-2, ,-32, ,
1, ,-35, ,
-2, ,-37, ,
3, ,-39, ,
1, ,-40, ,
3, ,-42, ,
3, ,-41, ,
-4, ,-39, ,
0, ,-38, ,
1, ,-36, ,
3, ,-33, ,
1, ,-31, ,
0, ,-30, ,
3, ,-28, ,
-2, ,-26, ,
1, ,-24, ,
3, ,-22, ,
1, ,-21, ,
0, ,-19, ,
1, ,-17, ,
4, ,-14, ,
1, ,-13, ,
-2, ,-11, ,
3, ,-9, ,
0, ,-7, ,
0, ,-6, ,
-1, ,-4, ,
-1, ,-2, ,
-1, ,-1, ,
4, ,1, ,
3, ,3, ,
3, ,4, ,
-1, ,7, ,
1, ,9, ,
4, ,10, ,
-1, ,12, ,
1, ,14, ,
-1, ,16, ,
4, ,17, ,
4, ,19, ,
5, ,20, ,
-1, ,23, ,
3, ,25, ,
1, ,28, ,
1, ,28, ,
4, ,31, ,
5, ,32, ,
1, ,34, ,
1, ,36, ,
3, ,38, ,
3, ,39, ,
3, ,41, ,
3, ,42, ,
0, ,44, ,
1, ,48, ,
3, ,49, ,
0, ,49, ,
1, ,48, ,
-1, ,46, ,
4, ,44, ,
1, ,42, ,
3, ,39, ,
4, ,38, ,
0, ,36, ,
0, ,34, ,
1, ,33, ,
1, ,30, ,
4, ,29, ,
3, ,27, ,
1, ,26, ,
3, ,23, ,
0, ,21, ,
1, ,20, ,
5, ,18, ,
4, ,16, ,
0, ,14, ,
3, ,12, ,
0, ,11, ,
4, ,9, ,
4, ,7, ,
3, ,6, ,
-1, ,3, ,
1, ,1, ,
3, ,0, ,
-2, ,-2, ,
1, ,-4, ,
0, ,-6, ,
0, ,-7, ,
4, ,-9, ,
0, ,-11, ,
4, ,-12, ,
1, ,-14, ,
0, ,-17, ,
3, ,-18, ,
-2, ,-21, ,
4, ,-22, ,
-1, ,-24, ,
3, ,-26, ,
3, ,-27, ,
5, ,-29, ,
1, ,-31, ,
0, ,-33, ,
3, ,-35, ,
-1, ,-37, ,
1, ,-39, ,
3, ,-40, ,
3, ,-42, ,
0, ,-41, ,
3, ,-40, ,
0, ,-37, ,
3, ,-36, ,
3, ,-33, ,
4, ,-31, ,
0, ,-29, ,
3, ,-27, ,
1, ,-26, ,
1, ,-24, ,
5, ,-22, ,
0, ,-21, ,
4, ,-19, ,
4, ,-17, ,
3, ,-14, ,
1, ,-12, ,
4, ,-11, ,
-2, ,-9, ,
3, ,-7, ,
-2, ,-6, ,
1, ,-4, ,
1, ,-2, ,
0, ,-1, ,
1, ,1, ,
0, ,3, ,
-1, ,6, ,
3, ,7, ,
-1, ,9, ,
0, ,11, ,
0, ,12, ,
1, ,14, ,
3, ,16, ,
5, ,17, ,
4, ,19, ,
