src/test_folder/temp50000035.CSV

Format,1.0B,
Memory Length,10000,Memory Length,10000,
IntpDistance,0,IntpDistance,0,
Trigger Address,4999,Trigger Address,4999,
Trigger Level,1.760E+00,Trigger Level,1.760E+00,
Source,CH1,Source,CH2,
Vertical Units,V,Vertical Units,V,
Vertical Units Div,0,Vertical Units Div,0,
Vertical Units Extend Div,16,Vertical Units Extend Div,16,
Label,,Label,,
Probe Type,0,Probe Type,0,
Probe Ratio,1.000e+01,Probe Ratio,1.000e+00,
Vertical Scale,2.000e-02,Vertical Scale,1.000e+00,
Vertical Position,-5.120e-02,Vertical Position,2.000e-01,
Horizontal Units,S,Horizontal Units,S,
Horizontal Scale,1.000E+00,Horizontal Scale,1.000E+00,
Horizontal Position,0.000E+00,Horizontal Position,0.000E+00,
Horizontal Mode,Roll Mode,Horizontal Mode,Roll Mode,
Display Last Dot Address,10000,Display Last Dot Address,10000,
Waveform Last Dot Address,0,Waveform Last Dot Address,0,
SincET Mode,Real Time,SincET Mode,Real Time,
Sampling Period,1.000e-03,Sampling Period,1.000e-03,
Horizontal Old Scale,1.000E+00,Horizontal Old Scale,1.000E+00,
Mode,Fast,Mode,Fast,
Firmware,V1.23,,Firmware,V1.23,,
1, ,49, ,
0, ,46, ,
4, ,44, ,
-4, ,44, ,
1, ,40, ,
3, ,38, ,
4, ,37, ,
3, ,34, ,
0, ,33, ,
1, ,32, ,
3, ,30, ,
1, ,28, ,
1, ,26, ,
1, ,23, ,
5, ,22, ,
-1, ,20, ,
4, ,18, ,
1, ,16, ,
0, ,15, ,
-1, ,12, ,
0, ,11, ,
4, ,9, ,
4, ,8, ,
1, ,6, ,
3, ,3, ,
4, ,1, ,
3, ,0, ,
3, ,-2, ,
3, ,-4, ,
1, ,-6, ,
5, ,-7, ,
4, ,-9, ,
4, ,-11, ,
4, ,-13, ,
-1, ,-16, ,
1, ,-17, ,
-1, ,-19, ,
3, ,-21, ,
0, ,-23, ,
5, ,-24, ,
-1, ,-26, ,
3, ,-28, ,
-2, ,-30, ,
0, ,-32, ,
0, ,-33, ,
1, ,-36, ,
3, ,-38, ,
-2, ,-39, ,
3, ,-41, ,
1, ,-41, ,
1, ,-40, ,
3, ,-38, ,
1, ,-36, ,
3, ,-35, ,
-1, ,-32, ,
3, ,-30, ,
4, ,-28, ,
4, ,-26, ,
1, ,-25, ,
1, ,-23, ,
4, ,-21, ,
1, ,-19, ,
-1, ,-18, ,
4, ,-16, ,
3, ,-13, ,
-1, ,-11, ,
4, ,-9, ,
1, ,-8, ,
3, ,-6, ,
0, ,-4, ,
0, ,-2, ,
1, ,-1, ,
-1, ,1, ,
3, ,3, ,
4, ,6, ,
1, ,7, ,
4, ,9, ,
1, ,11, ,
1, ,12, ,
1, ,14, ,
-1, ,16, ,
1, ,18, ,
1, ,20, ,
4, ,21, ,
-2, ,23, ,
4, ,25, ,
-1, ,28, ,
3, ,29, ,
-1, ,31, ,
3, ,33, ,
1, ,35, ,
4, ,37, ,
-1, ,38, ,
3, ,40, ,
1, ,41, ,
3, ,44, ,
0, ,46, ,
0, ,48, ,
5, ,50, ,
4, ,49, ,
3, ,46, ,
3, ,44, ,
0, ,42, ,
1, ,41, ,
1, ,39, ,
-2, ,37, ,
0, ,35, ,
-1, ,33, ,
1, ,31, ,
1, ,29, ,
1, ,28, ,
4, ,26, ,
1, ,25, ,
3, ,22, ,
5, ,20, ,
1, ,18, ,
3, ,16, ,
1, ,15, ,
3, ,13, ,
-1, ,11, ,
1, ,9, ,
3, ,8, ,
4, ,6, ,
-2, ,3, ,
4, ,2, ,
-1, ,0, ,
3, ,-2, ,
-4, ,-4, ,
3, ,-5, ,
4, ,-7, ,
1, ,-9, ,
-1, ,-11, ,
3, ,-12, ,
-2, ,-14, ,
3, ,-17, ,
4, ,-19, ,
1, ,-21, ,
0, ,-22, ,
3, ,-24, ,
-2, ,-26, ,
1, ,-28, ,
1, ,-29, ,
3, ,-31, ,
0, ,-33, ,
0, ,-35, ,
-1, ,-37, ,
1, ,-39, ,
-2, ,-41, ,
1, ,-42, ,
-1, ,-40, ,
1, ,-39, ,
4, ,-37, ,
4, ,-35, ,
1, ,-32, ,
3, ,-31, ,
3, ,-29, ,
4, ,-27, ,
0, ,-25, ,
3, ,-23, ,
3, ,-22, ,
-1, ,-20, ,
3, ,-18, ,
-1, ,-16, ,
-1, ,-14, ,
-1, ,-12, ,
0, ,-10, ,
1, ,-8, ,
4, ,-6, ,
3, ,-5, ,
1, ,-3, ,
1, ,-1, ,
1, ,0, ,
4, ,2, ,
4, ,4, ,
1, ,7, ,
3, ,9, ,
1, ,10, ,
3, ,12, ,
0, ,13, ,
-2, ,15, ,
4, ,17, ,
3, ,19, ,
1, ,20, ,
0, ,22, ,
3, ,25, ,
1, ,27, ,
1, ,28, ,
4, ,30, ,
1, ,32, ,
1, ,34, ,
3, ,35, ,
3, ,38, ,
1, ,39, ,
-1, ,41, ,
3, ,42, ,
1, ,45, ,
4, ,46, ,
1, ,49, ,
0, ,49, ,
-2, ,48, ,
0, ,46, ,
-2, ,42, ,
3, ,42, ,
1, ,40, ,
1, ,38, ,
-1, ,36, ,
4, ,34, ,
3, ,33, ,
-2, ,31, ,
1, ,29, ,
0, ,27, ,
1, ,25, ,
-4, ,23, ,
4, ,21, ,
-2, ,20, ,
0, ,17, ,
3, ,16, ,
4, ,14, ,
3, ,12, ,
0, ,11, ,
4, ,9, ,
3, ,7, ,
1, ,4, ,
1, ,3, ,
0, ,1, ,
1, ,-1, ,
-4, ,-3, ,
3, ,-4, ,
0, ,-6, ,
1, ,-8, ,
3, ,-10, ,
-2, ,-11, ,
0, ,-13, ,
0, ,-16, ,
4, ,-17, ,
5, ,-19, ,
1, ,-21, ,
1, ,-23, ,
3, ,-24, ,
4, ,-26, ,
4, ,-28, ,
4, ,-30, ,
0, ,-32, ,
-2, ,-35, ,
1, ,-36, ,
1, ,-38, ,
-2, ,-39, ,
1, ,-42, ,
6, ,-42, ,
3, ,-40, ,
-2, ,-39, ,
3, ,-37, ,
-1, ,-35, ,
-1, ,-32, ,
4, ,-30, ,
4, ,-29, ,
-2, ,-27, ,
3, ,-25, ,
0, ,-23, ,
4, ,-21, ,
-5, ,-20, ,
0, ,-18, ,
3, ,-16, ,
3, ,-13, ,
-2, ,-12, ,
4, ,-10, ,
3, ,-8, ,
4, ,-6, ,
1, ,-4, ,
3, ,-3, ,
1, ,-1, ,
1, ,1, ,
-1, ,2, ,
4, ,4, ,
-1, ,7, ,
1, ,8, ,
3, ,10, ,
-1, ,12, ,
1, ,14, ,
-2, ,15, ,
3, ,17, ,
0, ,19, ,
0, ,21, ,
-2, ,22, ,
0, ,25, ,
1, ,27, ,
3, ,29, ,
-1, ,30, ,
4, ,31, ,
3, ,34, ,
0, ,35, ,
4, ,37, ,
0, ,39, ,
5, ,40, ,
0, ,42, ,
3, ,45, ,
1, ,47, ,
-2, ,49, ,
1, ,50, ,
-2, ,48, ,
0, ,47, ,
1, ,44, ,
3, ,42, ,
-2, ,40, ,
1, ,38, ,
3, ,36, ,
-2, ,34, ,
1, ,33, ,
4, ,31, ,
5, ,30, ,
-1, ,27, ,
4, ,26, ,
1, ,23, ,
0, ,22, ,
-1, ,20, ,
1, ,18, ,
-2, ,16, ,
5, ,15, ,
1, ,12, ,
0, ,11, ,
0, ,9, ,
-2, ,8, ,
3, ,6, ,
0, ,3, ,
1, ,1, ,
1, ,0, ,
3, ,-2, ,
1, ,-4, ,
3, ,-6, ,
4, ,-7, ,
1, ,-9, ,
3, ,-11, ,
4, ,-12, ,
3, ,-14, ,
1, ,-17, ,
3, ,-19, ,
1, ,-20, ,
1, ,-22, ,
1, ,-24, ,
0, ,-26, ,
4, ,-27, ,
0, ,-29, ,
4, ,-31, ,
1, ,-32, ,
0, ,-35, ,
-4, ,-37, ,
5, ,-39, ,
5, ,-41, ,
-4, ,-43, ,
3, ,-41, ,
3, ,-39, ,
3, ,-37, ,
4, ,-36, ,
5, ,-33, ,
-4, ,-31, ,
0, ,-29, ,
0, ,-27, ,
1, ,-26, ,
0, ,-24, ,
1, ,-22, ,
6, ,-20, ,
0, ,-19, ,
4, ,-17, ,
4, ,-14, ,
-1, ,-12, ,
5, ,-11, ,
1, ,-9, ,
-1, ,-7, ,
1, ,-5, ,
3, ,-4, ,
-1, ,-2, ,
1, ,0, ,
-2, ,2, ,
1, ,3, ,
1, ,6, ,
3, ,7, ,
4, ,9, ,
0, ,11, ,
5, ,13, ,
1, ,15, ,
3, ,16, ,
1, ,18, ,
4, ,20, ,
-1, ,21, ,
4, ,23, ,
1, ,26, ,
1, ,28, ,
0, ,30, ,
0, ,30, ,
-2, ,33, ,
3, ,34, ,
1, ,36, ,
1, ,37, ,
0, ,40, ,
3, ,40, ,
-1, ,45, ,
5, ,46, ,
0, ,47, ,
1, ,50, ,
-1, ,49, ,
1, ,48, ,
-1, ,46, ,
4, ,42, ,
-1, ,41, ,
3, ,39, ,
-2, ,38, ,
4, ,35, ,
-2, ,33, ,
4, ,32, ,
0, ,30, ,
1, ,29, ,
-4, ,27, ,
0, ,25, ,
-2, ,23, ,
3, ,21, ,
0, ,18, ,
3, ,17, ,
0, ,16, ,
4, ,14, ,
4, ,12, ,
-1, ,10, ,
1, ,9, ,
3, ,7, ,
1, ,4, ,
5, ,3, ,
3, ,1, ,
0, ,-1, ,
1, ,-2, ,
-1, ,-4, ,
4, ,-6, ,
0, ,-8, ,
3, ,-9, ,
-1, ,-11, ,
1, ,-13, ,
3, ,-14, ,
0, ,-17, ,
1, ,-19, ,
-2, ,-21, ,
4, ,-22, ,
3, ,-24, ,
1, ,-26, ,
3, ,-28, ,
3, ,-30, ,
4, ,-31, ,
-1, ,-33, ,
1, ,-36, ,
4, ,-38, ,
1, ,-39, ,
1, ,-41, ,
3, ,-43, ,
3, ,-41, ,
1, ,-39, ,
5, ,-37, ,
3, ,-35, ,
3, ,-33, ,
4, ,-31, ,
3, ,-29, ,
0, ,-28, ,
3, ,-25, ,
1, ,-24, ,
3, ,-22, ,
-1, ,-20, ,
3, ,-18, ,
1, ,-17, ,
3, ,-14, ,
-2, ,-12, ,
3, ,-10, ,
-2, ,-9, ,
1, ,-7, ,
0, ,-5, ,
1, ,-4, ,
-2, ,-2, ,
1, ,0, ,
-2, ,1, ,
3, ,3, ,
-1, ,6, ,
0, ,8, ,
-2, ,9, ,
1, ,11, ,
4, ,12, ,
-1, ,14, ,
3, ,16, ,
4, ,18, ,
1, ,20, ,
3, ,21, ,
1, ,23, ,
4, ,26, ,
3, ,28, ,
1, ,29, ,
1, ,31, ,
3, ,33, ,
3, ,35, ,
4, ,37, ,
0, ,38, ,
4, ,40, ,
3, ,42, ,
3, ,44, ,
-1, ,45, ,
3, ,47, ,
3, ,48, ,
-4, ,49, ,
5, ,47, ,
3, ,46, ,
1, ,44, ,
0, ,41, ,
3, ,38, ,
0, ,38, ,
-4, ,36, ,
3, ,34, ,
0, ,32, ,
1, ,30, ,
-1, ,29, ,
0, ,27, ,
-2, ,25, ,
1, ,23, ,
-1, ,20, ,
3, ,19, ,
-1, ,17, ,
1, ,16, ,
-1, ,14, ,
0, ,12, ,
1, ,10, ,
1, ,9, ,
0, ,7, ,
1, ,4, ,
-2, ,3, ,
3, ,1, ,
0, ,-1, ,
3, ,-2, ,
4, ,-4, ,
1, ,-6, ,
3, ,-8, ,
-1, ,-9, ,
1, ,-11, ,
3, ,-13, ,
0, ,-14, ,
3, ,-17, ,
-1, ,-19, ,
4, ,-21, ,
3, ,-22, ,
1, ,-24, ,
1, ,-26, ,
1, ,-28, ,
3, ,-30, ,
-2, ,-31, ,
3, ,-33, ,
1, ,-36, ,
4, ,-37, ,
0, ,-39, ,
1, ,-41, ,
-2, ,-43, ,
1, ,-41, ,
-1, ,-39, ,
-1, ,-37, ,
1, ,-35, ,
4, ,-33, ,
-2, ,-31, ,
1, ,-29, ,
4, ,-27, ,
1, ,-25, ,
1, ,-24, ,
3, ,-22, ,
-1, ,-20, ,
1, ,-18, ,
-2, ,-17, ,
3, ,-14, ,
1, ,-12, ,
3, ,-10, ,
-4, ,-9, ,
1, ,-7, ,
6, ,-5, ,
5, ,-4, ,
4, ,-2, ,
1, ,0, ,
4, ,1, ,
0, ,3, ,
1, ,6, ,
4, ,8, ,
3, ,10, ,
0, ,11, ,
1, ,13, ,
3, ,14, ,
3, ,16, ,
0, ,18, ,
1, ,20, ,
1, ,21, ,
1, ,23, ,
3, ,26, ,
-4, ,28, ,
0, ,29, ,
3, ,31, ,
-2, ,33, ,
4, ,34, ,
4, ,37, ,
-4, ,38, ,
3, ,40, ,
-2, ,42, ,
4, ,45, ,
1, ,46, ,
1, ,48, ,
5, ,48, ,
1, ,49, ,
1, ,47, ,
4, ,45, ,
-1, ,42, ,
4, ,41, ,
-4, ,38, ,
1, ,37, ,
3, ,35, ,
0, ,34, ,
4, ,32, ,
1, ,31, ,
3, ,28, ,
-2, ,27, ,
3, ,25, ,
-4, ,22, ,
0, ,20, ,
1, ,19, ,
1, ,17, ,
-1, ,16, ,
0, ,14, ,
-2, ,12, ,
0, ,10, ,
-1, ,8, ,
1, ,7, ,
1, ,4, ,
3, ,3, ,
-1, ,0, ,
1, ,-1, ,
0, ,-3, ,
1, ,-5, ,
-1, ,-6, ,
4, ,-8, ,
-4, ,-9, ,
1, ,-11, ,
0, ,-13, ,
-1, ,-16, ,
-4, ,-18, ,
4, ,-19, ,
4, ,-21, ,
1, ,-23, ,
0, ,-25, ,
1, ,-26, ,
1, ,-28, ,
-2, ,-30, ,
0, ,-31, ,
3, ,-33, ,
4, ,-36, ,
1, ,-38, ,
-4, ,-40, ,
1, ,-41, ,
1, ,-42, ,
1, ,-40, ,
-2, ,-39, ,
3, ,-37, ,
-2, ,-33, ,
4, ,-32, ,
-1, ,-30, ,
3, ,-28, ,
0, ,-27, ,
-1, ,-25, ,
3, ,-23, ,
1, ,-21, ,
3, ,-20, ,
0, ,-18, ,
3, ,-16, ,
-2, ,-13, ,
4, ,-12, ,
-4, ,-10, ,
1, ,-8, ,
1, ,-6, ,
0, ,-5, ,
4, ,-3, ,
-2, ,-1, ,
3, ,0, ,
4, ,2, ,
1, ,4, ,
0, ,7, ,
1, ,8, ,
5, ,10, ,
0, ,12, ,
1, ,14, ,
0, ,15, ,
-1, ,17, ,
3, ,19, ,
3, ,20, ,
0, ,22, ,
1, ,25, ,
3, ,27, ,
1, ,28, ,
0, ,30, ,
3, ,32, ,
-1, ,34, ,
3, ,35, ,
-2, ,37, ,
-1, ,39, ,
3, ,41, ,
3, ,44, ,
3, ,45, ,
1, ,47, ,
3, ,48, ,
3, ,50, ,
3, ,47, ,
1, ,45, ,
1, ,45, ,
0, ,42, ,
4, ,40, ,
4, ,38, ,
3, ,36, ,
1, ,34, ,
4, ,33, ,
3, ,31, ,
3, ,29, ,
-2, ,28, ,
0, ,25, ,
0, ,23, ,
0, ,22, ,
0, ,19, ,
1, ,18, ,
1, ,16, ,
-4, ,15, ,
1, ,13, ,
3, ,11, ,
4, ,9, ,
1, ,7, ,
1, ,6, ,
4, ,3, ,
-2, ,1, ,
4, ,0, ,
4, ,-2, ,
3, ,-4, ,
-4, ,-6, ,
3, ,-7, ,
1, ,-9, ,
0, ,-11, ,
0, ,-13, ,
3, ,-14, ,
1, ,-17, ,
0, ,-19, ,
1, ,-21, ,
-1, ,-22, ,
4, ,-24, ,
3, ,-26, ,
3, ,-28, ,
4, ,-29, ,
3, ,-31, ,
1, ,-33, ,
1, ,-36, ,
1, ,-38, ,
1, ,-39, ,
6, ,-41, ,
0, ,-42, ,
4, ,-41, ,
1, ,-39, ,
1, ,-37, ,
1, ,-35, ,
1, ,-32, ,
-2, ,-31, ,
0, ,-29, ,
4, ,-27, ,
1, ,-25, ,
0, ,-23, ,
3, ,-22, ,
3, ,-20, ,
1, ,-18, ,
-1, ,-17, ,
1, ,-13, ,
3, ,-12, ,
3, ,-10, ,
-1, ,-8, ,
4, ,-7, ,
-2, ,-5, ,
3, ,-3, ,
1, ,-1, ,
3, ,0, ,
3, ,2, ,
3, ,4, ,
4, ,6, ,
3, ,8, ,
0, ,10, ,
5, ,12, ,
4, ,14, ,
1, ,15, ,
-2, ,17, ,
3, ,19, ,
4, ,21, ,
-2, ,22, ,
4, ,25, ,
3, ,27, ,
3, ,29, ,
-2, ,30, ,
0, ,32, ,
3, ,34, ,
3, ,36, ,
4, ,37, ,
5, ,39, ,
-1, ,40, ,
1, ,42, ,
1, ,45, ,
3, ,46, ,
1, ,50, ,
1, ,50, ,
-4, ,48, ,
3, ,46, ,
3, ,44, ,
1, ,41, ,
4, ,40, ,
-1, ,38, ,
1, ,36, ,
0, ,33, ,
1, ,32, ,
-2, ,31, ,
1, ,29, ,
1, ,28, ,
3, ,25, ,
1, ,22, ,
5, ,21, ,
4, ,19, ,
0, ,18, ,
3, ,16, ,
1, ,14, ,
1, ,12, ,
3, ,11, ,
3, ,9, ,
3, ,7, ,
1, ,4, ,
-1, ,3, ,
3, ,1, ,
-1, ,-1, ,
3, ,-3, ,
0, ,-4, ,
1, ,-6, ,
3, ,-8, ,
5, ,-10, ,
0, ,-11, ,
1, ,-13, ,
1, ,-16, ,
3, ,-18, ,
3, ,-19, ,
-4, ,-21, ,
3, ,-23, ,
3, ,-25, ,
-1, ,-26, ,
4, ,-28, ,
-2, ,-30, ,
1, ,-32, ,
-1, ,-35, ,
-1, ,-36, ,
1, ,-38, ,
4, ,-40, ,
1, ,-42, ,
-2, ,-42, ,
4, ,-40, ,
3, ,-38, ,
4, ,-36, ,
-1, ,-33, ,
1, ,-31, ,
1, ,-30, ,
5, ,-28, ,
6, ,-27, ,
-2, ,-24, ,
0, ,-23, ,
1, ,-21, ,
3, ,-19, ,
-2, ,-17, ,
1, ,-16, ,
-1, ,-13, ,
3, ,-11, ,
-1, ,-9, ,
3, ,-7, ,
-1, ,-6, ,
4, ,-4, ,
-4, ,-2, ,
3, ,-1, ,
3, ,1, ,
1, ,3, ,
3, ,6, ,
1, ,7, ,
1, ,9, ,
3, ,11, ,
1, ,13, ,
4, ,15, ,
1, ,16, ,
1, ,17, ,
-2, ,19, ,
3, ,21, ,
4, ,23, ,
5, ,26, ,
-1, ,28, ,
3, ,30, ,
3, ,31, ,
1, ,33, ,
4, ,35, ,
4, ,37, ,
5, ,38, ,
0, ,40, ,
0, ,41, ,
3, ,45, ,
4, ,46, ,
4, ,48, ,
4, ,50, ,
1, ,49, ,
3, ,45, ,
1, ,46, ,
-1, ,42, ,
4, ,40, ,
4, ,38, ,
1, ,37, ,
4, ,35, ,
3, ,33, ,
-1, ,32, ,
0, ,29, ,
-4, ,28, ,
1, ,26, ,
3, ,23, ,
4, ,22, ,
0, ,19, ,
5, ,18, ,
3, ,16, ,
0, ,14, ,
0, ,12, ,
1, ,11, ,
3, ,9, ,
3, ,7, ,
3, ,6, ,
0, ,3, ,
3, ,1, ,
1, ,0, ,
-1, ,-2, ,
5, ,-4, ,
-1, ,-6, ,
3, ,-7, ,
-1, ,-10, ,
3, ,-11, ,
3, ,-13, ,
0, ,-16, ,
5, ,-17, ,
3, ,-19, ,
1, ,-21, ,
4, ,-23, ,
3, ,-24, ,
1, ,-27, ,
4, ,-28, ,
3, ,-30, ,
1, ,-32, ,
0, ,-35, ,
3, ,-36, ,
0, ,-38, ,
1, ,-40, ,
-1, ,-41, ,
1, ,-42, ,
3, ,-40, ,
1, ,-38, ,
0, ,-37, ,
1, ,-35, ,
3, ,-32, ,
0, ,-30, ,
3, ,-28, ,
1, ,-26, ,
-1, ,-25, ,
0, ,-23, ,
3, ,-21, ,
0, ,-19, ,
3, ,-18, ,
-1, ,-16, ,
3, ,-13, ,
1, ,-11, ,
-5, ,-9, ,
5, ,-8, ,
-5, ,-6, ,
3, ,-4, ,
0, ,-2, ,
3, ,-1, ,
-2, ,1, ,
4, ,3, ,
0, ,4, ,
3, ,7, ,
1, ,9, ,
3, ,11, ,
0, ,13, ,
3, ,14, ,
1, ,16, ,
3, ,18, ,
-1, ,20, ,
-2, ,22, ,
4, ,23, ,
0, ,26, ,
0, ,27, ,
4, ,29, ,
-2, ,31, ,
0, ,33, ,
-1, ,35, ,
3, ,36, ,
-1, ,38, ,
4, ,40, ,
-2, ,42, ,
4, ,42, ,
1, ,45, ,
1, ,48, ,
-4, ,50, ,
4, ,49, ,
-1, ,46, ,
3, ,45, ,
0, ,42, ,
0, ,40, ,
-4, ,39, ,
3, ,36, ,
3, ,35, ,
-4, ,32, ,
1, ,31, ,
3, ,30, ,
0, ,28, ,
3, ,26, ,
-2, ,25, ,
3, ,22, ,
1, ,20, ,
1, ,18, ,
4, ,16, ,
3, ,15, ,
0, ,13, ,
1, ,11, ,
3, ,9, ,
-2, ,8, ,
0, ,6, ,
3, ,3, ,
-2, ,1, ,
4, ,-1, ,
3, ,-2, ,
3, ,-4, ,
1, ,-6, ,
-1, ,-7, ,
3, ,-9, ,
1, ,-11, ,
3, ,-13, ,
3, ,-16, ,
6, ,-17, ,
1, ,-19, ,
5, ,-21, ,
1, ,-23, ,
0, ,-24, ,
4, ,-26, ,
3, ,-28, ,
-1, ,-30, ,
3, ,-31, ,
1, ,-33, ,
3, ,-36, ,
0, ,-38, ,
-1, ,-39, ,
3, ,-41, ,
-1, ,-42, ,
3, ,-40, ,
1, ,-38, ,
-1, ,-37, ,
3, ,-35, ,
0, ,-32, ,
4, ,-30, ,
3, ,-28, ,
0, ,-26, ,
3, ,-25, ,
0, ,-23, ,
1, ,-21, ,
0, ,-19, ,
4, ,-17, ,
1, ,-16, ,
1, ,-13, ,
1, ,-11, ,
1, ,-9, ,
1, ,-8, ,
1, ,-6, ,
4, ,-4, ,
4, ,-2, ,
-1, ,-1, ,
1, ,1, ,
-1, ,3, ,
-2, ,4, ,
4, ,7, ,
1, ,9, ,
3, ,10, ,
-1, ,13, ,
0, ,14, ,
0, ,16, ,
4, ,17, ,
-4, ,19, ,
0, ,21, ,
0, ,23, ,
0, ,25, ,
-1, ,27, ,
4, ,29, ,
-1, ,31, ,
0, ,33, ,
3, ,35, ,
4, ,36, ,
4, ,38, ,
-1, ,40, ,
1, ,41, ,
-1, ,45, ,
0, ,46, ,
-1, ,48, ,
1, ,50, ,
4, ,49, ,
1, ,47, ,
3, ,45, ,
1, ,42, ,
4, ,41, ,
-2, ,39, ,
3, ,37, ,
-1, ,35, ,
1, ,33, ,
-2, ,32, ,
3, ,30, ,
0, ,28, ,
4, ,26, ,
4, ,25, ,
3, ,22, ,
4, ,20, ,
1, ,18, ,
4, ,16, ,
4, ,15, ,
1, ,13, ,
1, ,11, ,
3, ,10, ,
0, ,8, ,
-1, ,6, ,
-4, ,3, ,
0, ,2, ,
0, ,0, ,
1, ,-2, ,
0, ,-4, ,
3, ,-5, ,
1, ,-7, ,
1, ,-9, ,
3, ,-11, ,
3, ,-13, ,
0, ,-14, ,
1, ,-17, ,
5, ,-19, ,
0, ,-20, ,
4, ,-22, ,
3, ,-24, ,
1, ,-26, ,
3, ,-28, ,
4, ,-30, ,
-4, ,-31, ,
3, ,-33, ,
3, ,-36, ,
-1, ,-38, ,
3, ,-39, ,
4, ,-41, ,
1, ,-42, ,
-2, ,-40, ,
4, ,-39, ,
3, ,-37, ,
3, ,-35, ,
-2, ,-32, ,
0, ,-31, ,
4, ,-29, ,
4, ,-27, ,
3, ,-25, ,
3, ,-23, ,
3, ,-22, ,
0, ,-20, ,
1, ,-18, ,
1, ,-16, ,
3, ,-14, ,
4, ,-12, ,
-2, ,-10, ,
1, ,-8, ,
-4, ,-6, ,
-1, ,-5, ,
3, ,-3, ,
3, ,-1, ,
-5, ,0, ,
1, ,2, ,
0, ,4, ,
1, ,6, ,
1, ,8, ,
1, ,10, ,
-2, ,12, ,
-1, ,13, ,
1, ,15, ,
0, ,16, ,
1, ,18, ,
3, ,21, ,
5, ,22, ,
3, ,25, ,
1, ,26, ,
-4, ,29, ,
5, ,30, ,
-2, ,32, ,
1, ,33, ,
1, ,35, ,
4, ,37, ,
0, ,39, ,
1, ,41, ,
4, ,42, ,
5, ,44, ,
1, ,47, ,
1, ,48, ,
1, ,49, ,
3, ,48, ,
-2, ,45, ,
1, ,44, ,
1, ,42, ,
1, ,39, ,
0, ,38, ,
1, ,36, ,
0, ,34, ,
4, ,32, ,
1, ,31, ,
4, ,29, ,
-1, ,28, ,
3, ,26, ,
-2, ,23, ,
3, ,21, ,
0, ,19, ,
-1, ,18, ,
4, ,16, ,
0, ,14, ,
1, ,13, ,
-1, ,11, ,
3, ,9, ,
-1, ,7, ,
4, ,6, ,
3, ,3, ,
4, ,1, ,
0, ,-1, ,
4, ,-2, ,
3, ,-4, ,
4, ,-6, ,
1, ,-8, ,
1, ,-9, ,
3, ,-11, ,
-2, ,-13, ,
3, ,-16, ,
-1, ,-17, ,
3, ,-19, ,
4, ,-21, ,
3, ,-23, ,
3, ,-24, ,
5, ,-26, ,
0, ,-28, ,
-4, ,-30, ,
1, ,-32, ,
0, ,-33, ,
3, ,-36, ,
4, ,-38, ,
4, ,-39, ,
0, ,-41, ,
3, ,-42, ,
0, ,-40, ,
1, ,-38, ,
0, ,-37, ,
3, ,-35, ,
5, ,-32, ,
-1, ,-30, ,
1, ,-28, ,
0, ,-26, ,
3, ,-25, ,
0, ,-23, ,
0, ,-21, ,
4, ,-20, ,
3, ,-18, ,
3, ,-16, ,
3, ,-13, ,
5, ,-12, ,
1, ,-10, ,
1, ,-8, ,
3, ,-6, ,
3, ,-5, ,
1, ,-3, ,
3, ,-1, ,
3, ,0, ,
4, ,2, ,
1, ,4, ,
3, ,7, ,
4, ,8, ,
3, ,10, ,
1, ,11, ,
4, ,14, ,
4, ,15, ,
5, ,17, ,
4, ,18, ,
4, ,21, ,
3, ,22, ,
3, ,25, ,
4, ,27, ,
4, ,28, ,
4, ,31, ,
3, ,32, ,
-1, ,34, ,
0, ,36, ,
1, ,37, ,
4, ,39, ,
-2, ,40, ,
0, ,42, ,
3, ,45, ,
-1, ,47, ,
5, ,47, ,
1, ,50, ,
3, ,48, ,
3, ,46, ,
1, ,44, ,
0, ,41, ,
3, ,40, ,
0, ,37, ,
0, ,37, ,
4, ,35, ,
3, ,33, ,
-1, ,31, ,
3, ,30, ,
-1, ,27, ,
3, ,25, ,
-1, ,23, ,
3, ,21, ,
3, ,20, ,
3, ,18, ,
-1, ,16, ,
3, ,14, ,
4, ,13, ,
4, ,11, ,
0, ,10, ,
1, ,8, ,
1, ,6, ,
0, ,3, ,
1, ,1, ,
1, ,0, ,
5, ,-2, ,
3, ,-4, ,
4, ,-5, ,
1, ,-7, ,
0, ,-9, ,
3, ,-11, ,
0, ,-12, ,
4, ,-14, ,
1, ,-17, ,
1, ,-18, ,
3, ,-21, ,
-1, ,-22, ,
1, ,-24, ,
4, ,-26, ,
0, ,-27, ,
1, ,-29, ,
0, ,-31, ,
-2, ,-33, ,
1, ,-35, ,
1, ,-37, ,
3, ,-39, ,
3, ,-40, ,
-1, ,-43, ,
-1, ,-41, ,
3, ,-39, ,
3, ,-37, ,
4, ,-35, ,
4, ,-33, ,
-1, ,-31, ,
0, ,-29, ,
0, ,-28, ,
1, ,-26, ,
0, ,-24, ,
1, ,-22, ,
4, ,-21, ,
1, ,-19, ,
3, ,-17, ,
3, ,-14, ,
0, ,-12, ,
4, ,-11, ,
1, ,-9, ,
-1, ,-7, ,
1, ,-6, ,
5, ,-4, ,
1, ,-2, ,
-2, ,-1, ,
3, ,1, ,
1, ,3, ,
4, ,4, ,
-1, ,7, ,
5, ,9, ,
-2, ,11, ,
3, ,12, ,
1, ,14, ,
-1, ,16, ,
3, ,18, ,
4, ,19, ,
5, ,21, ,
4, ,22, ,
1, ,25, ,
3, ,27, ,
-1, ,30, ,
0, ,31, ,
4, ,33, ,
3, ,34, ,
-1, ,36, ,
3, ,37, ,
-1, ,39, ,
6, ,41, ,
-2, ,44, ,
0, ,46, ,
1, ,46, ,
0, ,49, ,
-2, ,49, ,
3, ,47, ,
3, ,45, ,
3, ,44, ,
0, ,41, ,
0, ,39, ,
1, ,38, ,
3, ,36, ,
4, ,34, ,
-2, ,32, ,
3, ,30, ,
3, ,29, ,
4, ,27, ,
4, ,26, ,
3, ,22, ,
1, ,20, ,
3, ,19, ,
0, ,18, ,
3, ,16, ,
1, ,14, ,
3, ,12, ,
-2, ,11, ,
3, ,9, ,
3, ,7, ,
3, ,6, ,
-1, ,3, ,
3, ,1, ,
4, ,-1, ,
3, ,-2, ,
1, ,-4, ,
1, ,-6, ,
1, ,-8, ,
3, ,-9, ,
4, ,-11, ,
4, ,-13, ,
1, ,-14, ,
1, ,-17, ,
3, ,-19, ,
1, ,-21, ,
1, ,-23, ,
-1, ,-24, ,
4, ,-26, ,
5, ,-28, ,
-2, ,-30, ,
1, ,-31, ,
-1, ,-33, ,
1, ,-36, ,
5, ,-37, ,
5, ,-39, ,
1, ,-41, ,
4, ,-43, ,
4, ,-41, ,
-2, ,-39, ,
4, ,-37, ,
3, ,-35, ,
3, ,-33, ,
-1, ,-31, ,
3, ,-29, ,
5, ,-27, ,
0, ,-25, ,
-1, ,-24, ,
1, ,-22, ,
1, ,-20, ,
0, ,-18, ,
3, ,-17, ,
4, ,-14, ,
5, ,-12, ,
0, ,-11, ,
0, ,-9, ,
1, ,-7, ,
4, ,-5, ,
3, ,-4, ,
3, ,-2, ,
0, ,0, ,
3, ,2, ,
-2, ,3, ,
3, ,6, ,
0, ,7, ,
1, ,9, ,
-1, ,11, ,
1, ,13, ,
-2, ,14, ,
0, ,16, ,
1, ,18, ,
3, ,20, ,
1, ,21, ,
0, ,23, ,
3, ,26, ,
3, ,28, ,
3, ,29, ,
4, ,31, ,
0, ,32, ,
4, ,34, ,
3, ,36, ,
1, ,38, ,
1, ,39, ,
3, ,41, ,
3, ,42, ,
3, ,46, ,
5, ,48, ,
5, ,49, ,
3, ,49, ,
4, ,47, ,
1, ,46, ,
0, ,44, ,
4, ,41, ,
0, ,39, ,
-1, ,38, ,
0, ,36, ,
-1, ,34, ,
3, ,33, ,
-2, ,30, ,
3, ,29, ,
4, ,27, ,
-2, ,25, ,
4, ,22, ,
3, ,21, ,
-1, ,19, ,
1, ,18, ,
4, ,16, ,
-1, ,14, ,
4, ,12, ,
-2, ,10, ,
4, ,9, ,
1, ,7, ,
3, ,4, ,
1, ,3, ,
3, ,1, ,
-2, ,-1, ,
3, ,-2, ,
1, ,-4, ,
3, ,-6, ,
-1, ,-8, ,
3, ,-9, ,
-1, ,-11, ,
3, ,-13, ,
3, ,-14, ,
3, ,-17, ,
-2, ,-19, ,
1, ,-21, ,
1, ,-22, ,
1, ,-24, ,
3, ,-26, ,
1, ,-28, ,
1, ,-29, ,
-1, ,-31, ,
1, ,-33, ,
-2, ,-36, ,
1, ,-37, ,
0, ,-39, ,
4, ,-41, ,
3, ,-42, ,
3, ,-41, ,
8, ,-39, ,
1, ,-37, ,
3, ,-35, ,
5, ,-33, ,
-1, ,-31, ,
4, ,-29, ,
1, ,-27, ,
3, ,-26, ,
3, ,-24, ,
1, ,-22, ,
4, ,-20, ,
-2, ,-18, ,
3, ,-17, ,
0, ,-14, ,
0, ,-12, ,
-1, ,-11, ,
3, ,-9, ,
-5, ,-7, ,
4, ,-5, ,
0, ,-3, ,
0, ,-2, ,
-1, ,0, ,
4, ,2, ,
-4, ,3, ,
3, ,6, ,
3, ,8, ,
1, ,9, ,
-4, ,11, ,
3, ,13, ,
-1, ,15, ,
3, ,16, ,
0, ,18, ,
4, ,20, ,
-2, ,21, ,
5, ,23, ,
-2, ,26, ,
3, ,28, ,
3, ,29, ,
1, ,31, ,
-2, ,33, ,
4, ,34, ,
-1, ,36, ,
4, ,38, ,
3, ,39, ,
-1, ,41, ,
4, ,44, ,
3, ,45, ,
3, ,48, ,
3, ,49, ,
3, ,48, ,
0, ,47, ,
4, ,46, ,
1, ,42, ,
3, ,41, ,
-4, ,39, ,
4, ,37, ,
1, ,35, ,
3, ,33, ,
-1, ,32, ,
3, ,30, ,
-5, ,29, ,
3, ,26, ,
-1, ,25, ,
3, ,23, ,
-1, ,20, ,
4, ,19, ,
-4, ,17, ,
4, ,15, ,
-2, ,14, ,
3, ,12, ,
3, ,11, ,
0, ,9, ,
4, ,7, ,
-1, ,4, ,
4, ,2, ,
1, ,1, ,
1, ,-1, ,
4, ,-3, ,
-4, ,-4, ,
1, ,-6, ,
3, ,-8, ,
1, ,-10, ,
-2, ,-11, ,
5, ,-13, ,
-2, ,-16, ,
1, ,-18, ,
1, ,-19, ,
-1, ,-21, ,
1, ,-23, ,
-1, ,-25, ,
1, ,-26, ,
1, ,-28, ,
0, ,-30, ,
-2, ,-31, ,
4, ,-33, ,
-1, ,-36, ,
3, ,-38, ,
3, ,-39, ,
0, ,-41, ,
6, ,-42, ,
4, ,-40, ,
4, ,-38, ,
-4, ,-37, ,
3, ,-35, ,
-2, ,-32, ,
1, ,-30, ,
1, ,-28, ,
3, ,-27, ,
4, ,-25, ,
1, ,-23, ,
1, ,-22, ,
0, ,-20, ,
3, ,-18, ,
-2, ,-16, ,
3, ,-13, ,
0, ,-12, ,
1, ,-10, ,
1, ,-8, ,
4, ,-6, ,
-4, ,-5, ,
0, ,-3, ,
1, ,-1, ,
1, ,0, ,
1, ,2, ,
1, ,4, ,
-1, ,6, ,
1, ,8, ,
1, ,10, ,
1, ,12, ,
4, ,13, ,
4, ,15, ,
3, ,17, ,
0, ,18, ,
3, ,20, ,
-2, ,22, ,
1, ,25, ,
0, ,27, ,
3, ,28, ,
-1, ,30, ,
1, ,31, ,
4, ,34, ,
3, ,36, ,
4, ,37, ,
3, ,39, ,
1, ,40, ,
1, ,42, ,
0, ,45, ,
5, ,47, ,
1, ,47, ,
-2, ,50, ,
0, ,48, ,
1, ,46, ,
1, ,44, ,
4, ,41, ,
0, ,40, ,
1, ,37, ,
3, ,37, ,
1, ,34, ,
4, ,33, ,
1, ,31, ,
4, ,29, ,
4, ,27, ,
-1, ,26, ,
3, ,23, ,
1, ,21, ,
0, ,19, ,
4, ,18, ,
-1, ,17, ,
1, ,15, ,
0, ,13, ,
4, ,11, ,
0, ,10, ,
5, ,7, ,
4, ,6, ,
3, ,3, ,
3, ,2, ,
4, ,0, ,
0, ,-2, ,
3, ,-4, ,
-2, ,-6, ,
4, ,-7, ,
-1, ,-9, ,
4, ,-11, ,
1, ,-13, ,
5, ,-14, ,
1, ,-17, ,
4, ,-19, ,
-1, ,-21, ,
3, ,-22, ,
1, ,-24, ,
4, ,-26, ,
0, ,-27, ,
4, ,-29, ,
0, ,-31, ,
4, ,-33, ,
1, ,-36, ,
4, ,-37, ,
4, ,-39, ,
3, ,-41, ,
4, ,-42, ,
-2, ,-41, ,
4, ,-39, ,
3, ,-37, ,
1, ,-35, ,
3, ,-32, ,
5, ,-31, ,
1, ,-29, ,
1, ,-27, ,
3, ,-25, ,
4, ,-23, ,
4, ,-22, ,
4, ,-20, ,
0, ,-18, ,
-4, ,-16, ,
1, ,-14, ,
0, ,-12, ,
0, ,-10, ,
3, ,-8, ,
-2, ,-7, ,
1, ,-5, ,
5, ,-3, ,
0, ,-1, ,
1, ,0, ,
1, ,2, ,
-1, ,4, ,
1, ,7, ,
4, ,8, ,
4, ,10, ,
4, ,12, ,
3, ,13, ,
4, ,15, ,
1, ,17, ,
3, ,19, ,
5, ,20, ,
1, ,22, ,
3, ,25, ,
-2, ,26, ,
4, ,29, ,
-1, ,30, ,
3, ,31, ,
4, ,34, ,
3, ,36, ,
-1, ,38, ,
3, ,39, ,
0, ,41, ,
3, ,42, ,
5, ,46, ,
1, ,47, ,
3, ,48, ,
4, ,49, ,
-1, ,48, ,
3, ,46, ,
1, ,44, ,
3, ,41, ,
1, ,40, ,
3, ,38, ,
0, ,36, ,
1, ,35, ,
1, ,32, ,
0, ,30, ,
0, ,29, ,
1, ,27, ,
