src/test_folder/temp0000006.CSV

Format,1.0B,
Memory Length,10000,
IntpDistance,0,
Trigger Address,4999,
Trigger Level,0.000E+00,
Source,CH2,
Vertical Units,V,
Vertical Units Div,0,
Vertical Units Extend Div,16,
Label,,
Probe Type,0,
Probe Ratio,1.000e+00,
Vertical Scale,1.000e+00,
Vertical Position,2.000e-01,
Horizontal Units,S,
Horizontal Scale,5.000E-09,
Horizontal Position,0.000E+00,
Horizontal Mode,Main,
SincET Mode,Sinc20,
Sampling Period,1.000e-09,
Horizontal Old Scale,5.000E-09,
Horizontal Old Position,0.000E+00,
Firmware,V1.23,
Mode,Fast,
Waveform Data,
21,
21,
21,
21,
21,
21,
21,
21,
21,
21,
21,
21,
21,
21,
21,
21,
21,
21,
21,
21,
21,
21,
21,
21,
21,
21,
21,
21,
21,
21,
21,
21,
21,
21,
21,
21,
21,
21,
21,
21,
22,
22,
21,
21,
21,
22,
22,
22,
21,
21,
21,
22,
22,
22,
22,
21,
21,
21,
22,
22,
21,
21,
21,
22,
22,
22,
21,
21,
21,
22,
22,
22,
22,
22,
22,
22,
22,
22,
22,
22,
22,
22,
22,
22,
22,
22,
22,
22,
22,
22,
22,
22,
22,
22,
22,
22,
22,
22,
22,
22,
22,
23,
23,
22,
22,
22,
22,
22,
22,
22,
22,
22,
22,
22,
22,
22,
22,
23,
23,
23,
22,
22,
22,
23,
23,
23,
23,
22,
22,
22,
22,
23,
23,
23,
23,
23,
23,
23,
22,
22,
22,
23,
23,
23,
23,
23,
23,
23,
23,
23,
23,
23,
23,
23,
23,
23,
23,
22,
23,
23,
23,
23,
23,
23,
23,
23,
23,
23,
23,
23,
23,
23,
23,
23,
23,
23,
23,
23,
23,
23,
23,
23,
23,
23,
23,
23,
23,
23,
23,
25,
25,
25,
23,
23,
23,
23,
23,
25,
25,
23,
23,
23,
23,
23,
23,
23,
23,
25,
25,
25,
25,
25,
25,
25,
25,
25,
25,
25,
25,
25,
25,
25,
25,
25,
25,
25,
25,
25,
25,
25,
25,
25,
25,
25,
25,
25,
25,
25,
25,
25,
25,
25,
25,
25,
25,
26,
26,
25,
25,
25,
25,
25,
25,
25,
25,
25,
25,
25,
26,
25,
25,
26,
26,
26,
25,
25,
25,
26,
26,
26,
26,
25,
25,
25,
26,
26,
26,
26,
26,
26,
26,
26,
26,
25,
25,
26,
26,
26,
26,
26,
26,
26,
26,
26,
26,
26,
26,
26,
26,
26,
26,
26,
26,
26,
26,
26,
26,
26,
26,
26,
26,
26,
26,
26,
26,
26,
26,
26,
26,
26,
26,
26,
26,
26,
26,
26,
26,
26,
26,
26,
26,
26,
26,
26,
26,
27,
26,
26,
26,
27,
27,
27,
27,
27,
27,
27,
27,
27,
26,
26,
26,
27,
26,
26,
27,
27,
27,
27,
27,
27,
27,
26,
26,
27,
27,
27,
27,
27,
27,
27,
27,
27,
27,
27,
27,
27,
27,
27,
27,
27,
27,
27,
27,
27,
27,
27,
27,
27,
27,
27,
27,
27,
27,
27,
27,
27,
27,
27,
27,
27,
27,
27,
27,
27,
27,
27,
27,
28,
27,
27,
27,
28,
27,
27,
27,
28,
27,
27,
27,
28,
28,
27,
28,
28,
28,
28,
28,
27,
27,
27,
27,
28,
27,
27,
27,
28,
28,
28,
28,
28,
28,
28,
28,
28,
28,
27,
28,
28,
28,
28,
28,
28,
28,
28,
28,
28,
28,
28,
28,
28,
28,
28,
28,
28,
28,
28,
28,
28,
28,
28,
28,
28,
28,
28,
28,
28,
28,
28,
28,
29,
28,
28,
28,
28,
28,
28,
28,
29,
29,
29,
29,
28,
28,
28,
28,
29,
29,
29,
28,
28,
28,
29,
29,
29,
29,
28,
28,
29,
29,
29,
29,
29,
29,
29,
29,
29,
29,
28,
29,
29,
29,
29,
29,
28,
29,
29,
29,
29,
29,
29,
29,
29,
29,
29,
29,
29,
29,
29,
29,
29,
29,
29,
29,
29,
29,
29,
29,
29,
29,
29,
29,
31,
29,
29,
29,
29,
29,
29,
29,
29,
29,
29,
29,
29,
29,
29,
29,
29,
29,
29,
29,
29,
29,
29,
29,
31,
29,
29,
29,
31,
31,
31,
31,
31,
31,
31,
31,
31,
31,
29,
29,
31,
31,
31,
31,
31,
31,
31,
31,
31,
31,
31,
31,
31,
31,
31,
31,
31,
31,
31,
31,
31,
31,
31,
31,
31,
31,
31,
31,
31,
31,
31,
31,
32,
31,
31,
31,
31,
31,
31,
31,
31,
31,
31,
31,
31,
32,
31,
31,
31,
32,
32,
31,
31,
31,
32,
32,
32,
31,
31,
31,
32,
32,
32,
32,
31,
31,
31,
32,
32,
31,
31,
31,
32,
32,
32,
31,
31,
31,
32,
32,
32,
32,
31,
31,
32,
32,
32,
32,
32,
32,
32,
32,
32,
32,
32,
32,
32,
32,
32,
32,
32,
32,
32,
32,
32,
32,
31,
32,
32,
32,
32,
32,
32,
32,
32,
32,
33,
32,
32,
32,
32,
32,
32,
32,
32,
32,
32,
32,
33,
32,
32,
32,
33,
33,
33,
33,
33,
32,
32,
32,
33,
32,
32,
32,
33,
32,
32,
32,
32,
32,
33,
33,
33,
33,
33,
33,
33,
33,
33,
33,
33,
33,
33,
33,
33,
33,
33,
33,
33,
33,
33,
33,
33,
33,
33,
33,
33,
33,
32,
32,
33,
33,
33,
33,
33,
33,
33,
33,
34,
33,
32,
33,
33,
33,
33,
33,
33,
33,
33,
33,
33,
33,
33,
33,
33,
33,
33,
33,
33,
33,
33,
34,
33,
34,
33,
33,
33,
34,
34,
33,
33,
33,
33,
33,
34,
33,
33,
33,
34,
34,
34,
34,
34,
34,
34,
34,
34,
34,
33,
33,
34,
34,
34,
34,
33,
33,
34,
34,
34,
34,
33,
34,
34,
34,
34,
34,
34,
34,
34,
34,
34,
34,
34,
34,
34,
34,
34,
34,
34,
34,
34,
34,
36,
34,
34,
34,
34,
34,
34,
34,
34,
34,
34,
34,
34,
34,
34,
34,
34,
34,
34,
36,
34,
34,
34,
34,
36,
34,
34,
34,
34,
34,
34,
34,
36,
34,
34,
34,
36,
36,
34,
34,
34,
36,
36,
36,
34,
34,
34,
34,
36,
34,
34,
34,
36,
36,
36,
36,
36,
36,
36,
36,
34,
36,
34,
34,
36,
36,
36,
36,
34,
34,
36,
36,
36,
36,
34,
36,
36,
36,
36,
36,
36,
36,
36,
36,
36,
36,
36,
36,
36,
36,
36,
36,
34,
36,
36,
36,
36,
36,
36,
36,
36,
36,
37,
37,
37,
36,
36,
37,
36,
36,
36,
36,
37,
36,
36,
36,
36,
36,
36,
36,
37,
37,
36,
36,
36,
36,
37,
36,
36,
36,
36,
37,
37,
37,
37,
37,
37,
37,
37,
37,
36,
36,
37,
37,
37,
37,
36,
37,
37,
37,
37,
37,
37,
37,
37,
37,
37,
37,
37,
37,
37,
37,
37,
37,
36,
36,
37,
37,
37,
37,
36,
37,
37,
37,
37,
37,
37,
37,
37,
37,
37,
37,
37,
37,
37,
37,
37,
37,
37,
37,
37,
37,
37,
37,
37,
37,
37,
37,
38,
37,
37,
37,
37,
38,
37,
37,
37,
37,
38,
37,
37,
37,
37,
37,
38,
38,
38,
38,
37,
37,
38,
38,
38,
37,
37,
37,
38,
38,
38,
38,
38,
38,
38,
37,
37,
38,
37,
37,
38,
38,
38,
38,
37,
37,
38,
38,
38,
38,
38,
38,
38,
38,
38,
38,
38,
38,
38,
38,
38,
38,
38,
38,
38,
39,
39,
38,
38,
38,
38,
38,
38,
38,
38,
38,
38,
38,
38,
38,
38,
38,
38,
38,
38,
38,
38,
38,
38,
38,
39,
38,
38,
38,
38,
39,
39,
39,
39,
38,
38,
39,
38,
39,
38,
38,
39,
38,
38,
38,
38,
38,
39,
39,
39,
38,
38,
38,
38,
39,
39,
39,
39,
39,
39,
39,
39,
39,
38,
39,
39,
39,
39,
39,
38,
38,
39,
39,
39,
38,
38,
39,
39,
39,
39,
39,
39,
39,
39,
39,
39,
39,
38,
39,
39,
39,
39,
39,
38,
39,
39,
39,
41,
39,
39,
39,
39,
39,
39,
39,
39,
39,
39,
39,
39,
39,
39,
39,
39,
39,
39,
39,
39,
39,
41,
41,
41,
39,
39,
39,
39,
39,
41,
39,
39,
39,
41,
41,
39,
41,
39,
39,
39,
39,
39,
39,
39,
39,
41,
41,
41,
41,
39,
39,
39,
41,
41,
41,
39,
39,
41,
41,
39,
41,
41,
41,
41,
41,
41,
41,
39,
39,
41,
41,
41,
41,
39,
41,
39,
41,
41,
41,
41,
41,
41,
41,
41,
41,
41,
41,
41,
41,
41,
41,
39,
41,
41,
41,
41,
41,
41,
41,
41,
41,
41,
41,
41,
41,
41,
42,
41,
41,
41,
41,
41,
41,
41,
41,
39,
41,
41,
41,
42,
41,
39,
41,
41,
41,
42,
41,
41,
41,
41,
42,
41,
41,
41,
41,
42,
42,
42,
42,
41,
41,
42,
42,
42,
42,
41,
42,
41,
41,
42,
42,
42,
41,
41,
42,
42,
42,
42,
42,
42,
42,
42,
42,
41,
41,
42,
42,
42,
42,
41,
42,
42,
42,
42,
42,
42,
42,
42,
43,
42,
42,
42,
42,
42,
42,
42,
42,
41,
42,
42,
42,
42,
42,
41,
42,
42,
42,
43,
42,
42,
42,
42,
42,
42,
42,
42,
42,
42,
42,
42,
42,
41,
41,
42,
42,
43,
42,
41,
42,
42,
42,
43,
42,
42,
42,
42,
42,
42,
42,
42,
42,
42,
42,
42,
43,
42,
42,
43,
43,
43,
43,
42,
42,
43,
43,
43,
42,
42,
42,
42,
42,
42,
42,
43,
43,
43,
42,
42,
43,
42,
42,
43,
43,
43,
43,
42,
42,
43,
43,
43,
43,
43,
43,
43,
43,
43,
42,
42,
42,
43,
43,
42,
43,
42,
42,
43,
43,
43,
43,
42,
42,
43,
43,
43,
43,
43,
43,
43,
44,
43,
43,
43,
43,
43,
43,
43,
43,
42,
42,
43,
43,
44,
43,
43,
43,
43,
43,
44,
43,
43,
43,
43,
44,
43,
43,
43,
43,
43,
43,
43,
43,
43,
43,
43,
44,
44,
43,
43,
43,
43,
43,
43,
43,
43,
43,
43,
44,
43,
43,
43,
43,
43,
43,
43,
44,
43,
43,
44,
44,
44,
43,
43,
44,
43,
43,
44,
44,
44,
43,
43,
44,
43,
43,
43,
43,
44,
44,
44,
44,
43,
43,
44,
44,
44,
43,
43,
44,
43,
43,
44,
44,
44,
44,
44,
45,
44,
44,
44,
44,
44,
44,
44,
44,
43,
43,
44,
44,
44,
44,
43,
44,
44,
44,
44,
44,
44,
44,
44,
44,
44,
44,
44,
44,
44,
44,
44,
44,
43,
43,
44,
44,
45,
44,
43,
44,
44,
44,
44,
44,
44,
44,
44,
45,
44,
44,
44,
44,
45,
44,
44,
44,
43,
44,
44,
44,
44,
44,
43,
44,
44,
44,
45,
44,
44,
44,
44,
45,
44,
44,
44,
44,
45,
44,
44,
45,
44,
44,
44,
45,
45,
44,
44,
44,
44,
44,
45,
44,
44,
44,
45,
45,
45,
45,
45,
45,
45,
45,
44,
45,
44,
44,
45,
45,
45,
44,
44,
44,
45,
45,
45,
45,
45,
45,
45,
45,
45,
44,
44,
44,
45,
45,
45,
45,
44,
45,
45,
45,
45,
45,
44,
45,
45,
45,
45,
45,
44,
44,
45,
45,
45,
45,
45,
45,
45,
45,
45,
45,
44,
45,
45,
45,
45,
45,
44,
45,
45,
45,
45,
45,
45,
45,
45,
47,
45,
45,
44,
45,
45,
45,
45,
47,
45,
45,
45,
47,
47,
45,
45,
45,
45,
45,
45,
45,
45,
45,
45,
47,
47,
45,
45,
45,
47,
45,
45,
47,
45,
45,
45,
47,
47,
47,
45,
45,
47,
47,
47,
47,
45,
45,
45,
47,
47,
45,
45,
45,
47,
47,
45,
47,
45,
45,
47,
47,
47,
45,
45,
45,
47,
47,
45,
47,
45,
45,
47,
47,
47,
45,
45,
45,
47,
47,
45,
47,
45,
45,
47,
47,
47,
47,
45,
45,
47,
47,
47,
47,
47,
47,
47,
47,
47,
47,
45,
45,
47,
47,
47,
47,
45,
45,
47,
47,
48,
47,
45,
45,
47,
47,
47,
47,
47,
47,
47,
47,
47,
47,
47,
47,
47,
47,
47,
47,
45,
45,
47,
47,
47,
47,
45,
45,
47,
47,
47,
47,
47,
47,
47,
47,
47,
47,
47,
47,
47,
47,
47,
47,
47,
47,
47,
47,
48,
48,
47,
47,
47,
47,
47,
47,
47,
47,
47,
48,
47,
48,
47,
47,
48,
48,
47,
47,
47,
47,
47,
47,
48,
48,
47,
47,
47,
47,
47,
47,
47,
47,
47,
48,
47,
48,
47,
47,
48,
48,
48,
47,
47,
47,
48,
48,
48,
48,
47,
47,
47,
48,
47,
48,
47,
47,
47,
48,
47,
48,
47,
47,
48,
48,
48,
48,
47,
47,
48,
48,
48,
48,
47,
47,
48,
48,
48,
48,
47,
47,
48,
48,
47,
48,
47,
47,
48,
48,
48,
48,
47,
47,
48,
48,
48,
48,
47,
48,
48,
48,
48,
48,
48,
48,
48,
48,
48,
48,
47,
47,
48,
48,
48,
48,
47,
47,
48,
48,
48,
48,
47,
48,
48,
48,
48,
48,
48,
48,
48,
49,
48,
48,
48,
48,
49,
48,
48,
48,
48,
48,
48,
48,
49,
48,
47,
48,
48,
48,
48,
48,
48,
48,
48,
48,
48,
48,
48,
48,
49,
48,
48,
48,
48,
48,
48,
49,
49,
48,
48,
48,
48,
49,
49,
48,
48,
48,
48,
49,
48,
49,
48,
48,
49,
48,
48,
49,
48,
48,
49,
49,
49,
48,
48,
49,
48,
48,
49,
49,
48,
48,
49,
49,
48,
49,
48,
48,
49,
48,
48,
49,
48,
48,
48,
49,
49,
48,
48,
48,
48,
49,
49,
49,
49,
49,
49,
49,
49,
49,
48,
48,
49,
49,
49,
49,
48,
48,
49,
49,
49,
49,
48,
48,
48,
49,
49,
49,
48,
48,
49,
49,
48,
49,
48,
48,
49,
49,
49,
49,
48,
48,
49,
49,
49,
49,
48,
48,
49,
49,
49,
49,
49,
49,
49,
49,
48,
49,
48,
48,
49,
49,
49,
49,
48,
48,
49,
49,
49,
49,
48,
49,
49,
49,
49,
49,
49,
49,
49,
49,
49,
49,
49,
49,
49,
49,
49,
49,
49,
49,
49,
49,
49,
49,
48,
49,
49,
49,
50,
49,
49,
49,
49,
49,
49,
49,
49,
49,
50,
49,
49,
49,
49,
49,
50,
50,
50,
49,
49,
49,
49,
49,
49,
49,
49,
49,
49,
50,
49,
49,
49,
49,
49,
49,
49,
49,
49,
49,
49,
49,
49,
49,
49,
49,
49,
49,
50,
49,
49,
49,
49,
50,
49,
50,
49,
49,
49,
49,
49,
49,
49,
49,
50,
50,
50,
50,
49,
49,
49,
49,
50,
50,
49,
49,
50,
50,
49,
50,
49,
49,
50,
50,
50,
50,
49,
49,
49,
49,
50,
50,
49,
49,
49,
49,
50,
49,
49,
49,
50,
50,
49,
50,
49,
49,
50,
50,
50,
50,
49,
49,
50,
50,
50,
50,
49,
50,
49,
49,
50,
50,
49,
49,
49,
50,
50,
49,
49,
49,
50,
50,
50,
50,
49,
49,
50,
50,
50,
50,
49,
50,
50,
50,
50,
50,
50,
49,
49,
50,
50,
49,
49,
49,
50,
50,
50,
50,
49,
49,
50,
50,
50,
50,
49,
50,
50,
50,
50,
50,
50,
50,
50,
50,
50,
50,
49,
49,
50,
50,
50,
50,
49,
49,
50,
50,
50,
50,
49,
50,
50,
50,
50,
50,
50,
50,
50,
50,
50,
50,
49,
49,
50,
50,
50,
50,
49,
49,
50,
50,
52,
50,
49,
50,
50,
50,
50,
50,
50,
50,
50,
52,
50,
50,
50,
50,
50,
50,
50,
50,
49,
50,
50,
50,
52,
50,
49,
50,
50,
50,
52,
50,
50,
50,
50,
52,
50,
50,
50,
50,
50,
50,
50,
52,
50,
50,
50,
50,
52,
50,
49,
50,
50,
50,
50,
50,
50,
50,
50,
50,
52,
50,
50,
50,
50,
50,
50,
50,
49,
49,
50,
50,
52,
50,
50,
50,
52,
52,
52,
50,
50,
50,
50,
52,
50,
50,
50,
50,
52,
50,
50,
52,
50,
50,
50,
52,
52,
52,
50,
50,
50,
50,
52,
50,
50,
50,
50,
52,
52,
50,
50,
50,
52,
50,
50,
52,
50,
50,
50,
50,
52,
52,
50,
50,
52,
52,
52,
52,
50,
50,
50,
52,
52,
50,
50,
50,
52,
50,
50,
52,
50,
50,
52,
52,
52,
52,
50,
50,
52,
52,
52,
52,
50,
50,
50,
52,
52,
50,
50,
50,
52,
52,
50,
52,
50,
50,
52,
52,
52,
52,
50,
50,
52,
52,
52,
50,
50,
50,
50,
52,
52,
50,
50,
50,
52,
52,
50,
52,
50,
50,
50,
52,
52,
52,
50,
50,
52,
52,
52,
52,
50,
50,
50,
52,
50,
52,
50,
50,
52,
52,
50,
52,
50,
50,
52,
52,
52,
52,
50,
52,
52,
52,
52,
52,
52,
50,
50,
52,
52,
50,
50,
50,
52,
52,
52,
52,
50,
50,
52,
52,
52,
52,
50,
50,
52,
52,
52,
52,
52,
50,
50,
52,
52,
52,
50,
50,
52,
52,
52,
52,
50,
50,
52,
52,
52,
52,
50,
52,
52,
52,
52,
52,
52,
50,
50,
52,
52,
52,
50,
50,
52,
52,
52,
52,
50,
50,
52,
52,
53,
52,
50,
52,
52,
52,
52,
52,
52,
50,
50,
52,
52,
52,
50,
50,
52,
52,
52,
52,
50,
50,
52,
52,
52,
52,
50,
52,
52,
52,
52,
52,
52,
52,
52,
53,
52,
52,
50,
50,
52,
52,
52,
52,
52,
52,
52,
52,
53,
52,
50,
52,
50,
52,
52,
52,
52,
52,
52,
52,
52,
52,
50,
52,
52,
52,
52,
52,
52,
52,
52,
52,
53,
52,
50,
52,
52,
52,
52,
52,
52,
52,
52,
53,
52,
52,
50,
50,
52,
52,
52,
52,
52,
52,
52,
52,
53,
52,
50,
52,
52,
52,
52,
52,
52,
52,
52,
53,
52,
52,
52,
52,
52,
52,
52,
52,
52,
52,
52,
52,
53,
52,
50,
52,
52,
52,
52,
52,
52,
52,
52,
53,
52,
52,
50,
50,
52,
52,
52,
52,
52,
52,
52,
52,
53,
52,
50,
52,
52,
52,
52,
52,
52,
52,
52,
53,
52,
52,
52,
52,
52,
52,
52,
53,
52,
52,
52,
52,
53,
52,
50,
52,
52,
52,
52,
52,
52,
52,
52,
53,
52,
52,
50,
52,
52,
52,
52,
52,
50,
50,
52,
52,
53,
53,
50,
50,
52,
52,
52,
52,
52,
52,
52,
53,
52,
52,
52,
52,
52,
52,
52,
52,
50,
50,
52,
52,
52,
52,
50,
52,
52,
52,
52,
52,
52,
52,
52,
53,
52,
52,
50,
52,
52,
52,
52,
52,
50,
50,
52,
52,
53,
52,
50,
52,
52,
52,
52,
52,
52,
52,
52,
53,
52,
52,
52,
52,
52,
52,
52,
52,
50,
50,
52,
52,
53,
52,
50,
52,
52,
52,
52,
52,
52,
52,
52,
53,
52,
52,
52,
52,
52,
52,
52,
52,
50,
50,
52,
52,
53,
52,
50,
52,
52,
52,
52,
52,
52,
52,
52,
53,
52,
52,
52,
52,
53,
52,
52,
52,
50,
50,
52,
52,
53,
52,
50,
52,
52,
52,
52,
52,
52,
52,
52,
53,
52,
52,
50,
52,
53,
52,
52,
52,
52,
52,
52,
52,
53,
52,
50,
52,
52,
52,
52,
53,
52,
52,
52,
53,
52,
52,
52,
52,
53,
52,
52,
52,
52,
52,
52,
52,
53,
52,
50,
52,
52,
52,
52,
52,
52,
52,
52,
53,
52,
52,
50,
52,
53,
52,
52,
52,
52,
52,
52,
53,
53,
52,
50,
52,
52,
52,
52,
52,
52,
52,
52,
53,
52,
52,
52,
52,
52,
52,
52,
52,
52,
52,
52,
52,
52,
52,
50,
52,
52,
52,
52,
52,
52,
52,
52,
53,
52,
52,
50,
52,
52,
52,
52,
52,
52,
52,
52,
53,
53,
52,
50,
52,
52,
52,
52,
52,
52,
52,
52,
53,
52,
52,
50,
52,
52,
52,
52,
53,
52,
52,
52,
52,
53,
52,
50,
52,
52,
52,
52,
52,
52,
52,
52,
53,
52,
52,
52,
52,
52,
52,
52,
52,
50,
50,
52,
52,
53,
52,
50,
52,
52,
52,
52,
53,
52,
52,
52,
53,
52,
52,
52,
52,
53,
52,
52,
52,
50,
50,
52,
52,
53,
52,
50,
52,
52,
52,
52,
52,
52,
52,
52,
53,
52,
52,
50,
50,
52,
52,
52,
52,
50,
50,
52,
52,
53,
52,
50,
52,
52,
52,
52,
52,
52,
52,
52,
53,
52,
52,
50,
52,
52,
52,
52,
52,
50,
50,
52,
52,
52,
52,
50,
52,
52,
52,
52,
52,
52,
52,
52,
53,
52,
52,
50,
50,
52,
52,
52,
52,
50,
50,
52,
52,
53,
52,
50,
52,
52,
52,
52,
52,
52,
52,
52,
53,
52,
52,
50,
52,
52,
52,
52,
52,
50,
50,
52,
52,
52,
52,
50,
52,
52,
52,
52,
52,
52,
52,
52,
53,
52,
52,
50,
50,
52,
52,
52,
52,
52,
52,
52,
52,
53,
52,
50,
52,
52,
52,
52,
52,
52,
52,
52,
53,
52,
52,
50,
52,
52,
52,
52,
52,
52,
52,
52,
52,
53,
52,
50,
52,
52,
52,
52,
52,
52,
52,
52,
53,
52,
52,
50,
50,
52,
52,
52,
52,
52,
52,
52,
52,
52,
52,
50,
52,
50,
52,
52,
52,
52,
52,
52,
53,
52,
52,
50,
50,
52,
52,
50,
52,
52,
52,
52,
52,
52,
52,
50,
50,
52,
52,
52,
52,
52,
52,
52,
53,
52,
52,
50,
50,
52,
52,
52,
52,
50,
50,
52,
52,
52,
52,
50,
52,
52,
52,
50,
52,
50,
50,
50,
52,
52,
52,
50,
50,
52,
50,
50,
52,
50,
50,
52,
52,
52,
50,
50,
52,
52,
50,
50,
52,
52,
50,
50,
52,
52,
52,
50,
50,
52,
50,
50,
52,
50,
50,
52,
52,
52,
50,
50,
52,
50,
52,
50,
52,
50,
50,
50,
52,
50,
50,
50,
50,
52,
50,
50,
52,
50,
50,
52,
52,
52,
50,
50,
52,
52,
52,
52,
50,
50,
50,
50,
52,
50,
50,
50,
50,
52,
50,
50,
52,
50,
50,
52,
52,
52,
52,
50,
50,
52,
52,
52,
50,
50,
50,
50,
52,
50,
50,
50,
50,
52,
50,
50,
50,
50,
50,
52,
52,
52,
50,
50,
50,
50,
50,
50,
50,
50,
50,
50,
52,
50,
50,
50,
50,
52,
50,
50,
52,
50,
50,
50,
52,
52,
50,
50,
50,
50,
52,
50,
50,
50,
50,
50,
52,
50,
50,
50,
50,
50,
50,
50,
50,
50,
50,
50,
50,
52,
50,
49,
50,
50,
50,
52,
50,
50,
50,
50,
52,
50,
50,
50,
50,
50,
50,
50,
50,
50,
50,
50,
50,
52,
52,
50,
50,
50,
50,
50,
50,
50,
50,
50,
50,
52,
50,
50,
50,
50,
50,
50,
50,
50,
50,
50,
50,
52,
50,
49,
50,
50,
50,
50,
50,
50,
50,
50,
50,
50,
50,
50,
50,
50,
50,
50,
50,
50,
50,
50,
50,
52,
50,
49,
50,
50,
50,
50,
50,
50,
50,
50,
50,
50,
50,
50,
50,
50,
50,
50,
50,
49,
49,
50,
50,
50,
50,
49,
50,
50,
50,
50,
50,
50,
50,
50,
50,
50,
50,
49,
49,
50,
50,
50,
50,
49,
49,
50,
50,
50,
50,
49,
49,
50,
50,
50,
50,
49,
49,
50,
50,
50,
49,
49,
49,
50,
50,
50,
50,
49,
49,
50,
50,
50,
50,
49,
49,
50,
50,
50,
50,
49,
49,
49,
50,
50,
49,
49,
49,
50,
50,
49,
50,
49,
49,
50,
50,
50,
50,
49,
49,
50,
50,
50,
50,
49,
49,
49,
50,
49,
49,
49,
49,
50,
50,
49,
50,
49,
49,
49,
50,
50,
50,
49,
49,
50,
50,
50,
49,
49,
49,
49,
49,
50,
49,
49,
49,
50,
50,
49,
49,
49,
49,
49,
50,
50,
49,
49,
49,
50,
50,
50,
49,
49,
49,
49,
49,
50,
49,
49,
49,
50,
49,
49,
50,
49,
49,
49,
49,
50,
49,
48,
49,
50,
49,
49,
49,
49,
49,
49,
49,
49,
49,
49,
49,
50,
49,
49,
50,
49,
49,
49,
49,
50,
50,
49,
49,
50,
49,
49,
49,
49,
49,
49,
49,
49,
49,
49,
49,
49,
49,
49,
49,
48,
48,
49,
49,
49,
49,
48,
48,
49,
49,
50,
49,
49,
49,
49,
49,
49,
49,
49,
49,
49,
49,
49,
49,
49,
49,
49,
49,
49,
49,
48,
48,
49,
49,
49,
49,
49,
48,
48,
49,
49,
49,
49,
49,
49,
49,
49,
49,
48,
48,
49,
49,
49,
49,
48,
48,
49,
49,
49,
49,
49,
48,
48,
49,
49,
48,
48,
48,
49,
48,
48,
49,
48,
48,
49,
49,
49,
49,
48,
48,
49,
49,
49,
49,
48,
48,
48,
49,
49,
48,
48,
48,
49,
49,
48,
49,
48,
48,
48,
49,
49,
49,
48,
48,
49,
49,
49,
48,
48,
48,
48,
49,
48,
48,
48,
48,
49,
48,
48,
49,
48,
48,
48,
49,
49,
49,
48,
48,
49,
49,
49,
48,
48,
48,
48,
49,
49,
48,
48,
48,
48,
48,
48,
48,
48,
48,
48,
48,
49,
48,
47,
48,
49,
49,
49,
48,
48,
48,
48,
49,
48,
48,
48,
48,
49,
48,
48,
49,
48,
48,
48,
48,
49,
48,
47,
48,
48,
48,
48,
48,
48,
48,
48,
49,
48,
48,
48,
48,
48,
48,
48,
48,
47,
48,
48,
48,
48,
48,
47,
48,
48,
48,
48,
48,
48,
48,
48,
48,
48,
48,
47,
47,
48,
48,
48,
48,
47,
47,
48,
48,
48,
48,
47,
48,
48,
48,
48,
48,
48,
47,
47,
48,
48,
47,
47,
47,
48,
48,
48,
48,
47,
47,
47,
48,
48,
48,
47,
47,
48,
48,
48,
48,
48,
48,
48,
48,
47,
48,
47,
47,
48,
48,
48,
48,
47,
47,
48,
48,
48,
48,
47,
47,
48,
48,
48,
48,
47,
47,
47,
48,
48,
47,
47,
47,
47,
47,
47,
47,
47,
47,
47,
47,
48,
47,
45,
47,
47,
47,
48,
47,
47,
47,
47,
48,
47,
47,
47,
47,
47,
47,
47,
47,
45,
45,
47,
47,
48,
47,
45,
47,
47,
47,
47,
47,
47,
47,
47,
47,
47,
47,
47,
47,
47,
47,
47,
47,
45,
45,
47,
47,
47,
47,
45,
45,
47,
47,
47,
47,
47,
47,
47,
47,
47,
47,
45,
45,
47,
47,
47,
47,
45,
45,
47,
47,
47,
47,
45,
45,
47,
47,
47,
47,
45,
45,
47,
47,
47,
47,
45,
45,
47,
47,
47,
47,
45,
45,
45,
47,
47,
45,
45,
45,
47,
47,
47,
45,
45,
45,
47,
47,
45,
47,
45,
45,
47,
45,
45,
47,
45,
45,
45,
45,
47,
45,
45,
45,
45,
47,
45,
47,
45,
45,
47,
45,
45,
45,
45,
45,
47,
45,
45,
45,
45,
45,
45,
45,
47,
45,
45,
45,
45,
45,
45,
45,
45,
45,
45,
47,
45,
45,
44,
45,
47,
45,
45,
45,
45,
45,
45,
45,
47,
45,
44,
45,
45,
45,
45,
45,
45,
45,
45,
47,
45,
45,
45,
45,
45,
45,
45,
45,
45,
45,
45,
45,
45,
45,
44,
45,
45,
45,
45,
45,
45,
45,
45,
45,
44,
45,
44,
44,
45,
45,
45,
45,
44,
44,
45,
45,
45,
45,
44,
45,
44,
45,
45,
45,
45,
45,
45,
45,
45,
45,
44,
44,
45,
45,
45,
44,
44,
44,
44,
45,
45,
44,
44,
44,
44,
45,
45,
45,
44,
44,
44,
44,
45,
44,
44,
44,
45,
44,
44,
44,
44,
44,
44,
44,
45,
45,
44,
44,
45,
44,
44,
45,
44,
44,
44,
44,
44,
44,
44,
44,
45,
44,
44,
44,
44,
44,
44,
44,
45,
45,
44,
44,
45,
44,
44,
44,
44,
44,
44,
44,
44,
44,
43,
44,
44,
44,
44,
44,
44,
44,
44,
44,
44,
44,
43,
43,
44,
44,
44,
44,
44,
44,
44,
44,
44,
44,
44,
44,
44,
44,
44,
44,
43,
43,
44,
44,
44,
44,
43,
43,
44,
44,
44,
44,
44,
44,
44,
44,
44,
44,
43,
43,
44,
44,
43,
44,
43,
43,
44,
44,
44,
44,
43,
43,
43,
44,
43,
44,
43,
43,
44,
44,
44,
43,
43,
43,
44,
43,
43,
44,
43,
43,
43,
43,
44,
43,
42,
43,
43,
43,
44,
43,
43,
43,
43,
43,
44,
43,
43,
43,
44,
43,
43,
44,
43,
43,
43,
43,
44,
43,
42,
43,
43,
43,
43,
43,
43,
43,
43,
43,
43,
43,
43,
43,
43,
43,
43,
44,
43,
43,
43,
43,
43,
43,
42,
42,
43,
43,
43,
43,
43,
42,
42,
43,
43,
43,
42,
42,
43,
42,
42,
43,
42,
42,
43,
43,
43,
43,
42,
42,
43,
43,
43,
43,
43,
42,
42,
43,
43,
42,
42,
42,
43,
42,
42,
43,
42,
42,
42,
43,
43,
42,
42,
42,
43,
43,
43,
42,
42,
42,
42,
43,
43,
42,
42,
42,
43,
42,
42,
43,
42,
42,
42,
43,
43,
42,
42,
42,
42,
42,
43,
42,
42,
42,
42,
43,
43,
42,
42,
42,
42,
42,
42,
43,
42,
42,
42,
42,
42,
42,
41,
42,
42,
42,
42,
42,
42,
42,
42,
42,
42,
42,
41,
41,
42,
42,
42,
42,
41,
41,
42,
42,
42,
42,
41,
41,
41,
41,
42,
42,
42,
42,
42,
42,
42,
42,
42,
42,
42,
42,
42,
42,
41,
41,
42,
42,
42,
41,
41,
41,
42,
42,
42,
42,
42,
42,
42,
42,
41,
41,
41,
41,
42,
41,
41,
42,
41,
41,
42,
42,
42,
41,
41,
41,
41,
41,
42,
41,
41,
41,
41,
42,
41,
41,
41,
41,
41,
41,
41,
41,
39,
39,
41,
41,
41,
41,
41,
41,
41,
41,
41,
41,
41,
41,
41,
42,
41,
41,
41,
41,
41,
41,
41,
