src/test_folder/temp20000060.CSV

Format,1.0B,
Memory Length,10000,Memory Length,10000,
IntpDistance,0,IntpDistance,0,
Trigger Address,4999,Trigger Address,4999,
Trigger Level,1.760E+00,Trigger Level,1.760E+00,
Source,CH1,Source,CH2,
Vertical Units,V,Vertical Units,V,
Vertical Units Div,0,Vertical Units Div,0,
Vertical Units Extend Div,16,Vertical Units Extend Div,16,
Label,,Label,,
Probe Type,0,Probe Type,0,
Probe Ratio,1.000e+01,Probe Ratio,1.000e+00,
Vertical Scale,2.000e-02,Vertical Scale,1.000e+00,
Vertical Position,-5.120e-02,Vertical Position,2.000e-01,
Horizontal Units,S,Horizontal Units,S,
Horizontal Scale,5.000E-05,Horizontal Scale,5.000E-05,
Horizontal Position,0.000E+00,Horizontal Position,0.000E+00,
Horizontal Mode,Main,Horizontal Mode,Main,
SincET Mode,Real Time,SincET Mode,Real Time,
Sampling Period,5.000e-08,Sampling Period,5.000e-08,
Horizontal Old Scale,5.000E-05,Horizontal Old Scale,5.000E-05,
Horizontal Old Position,0.000E+00,Horizontal Old Position,0.000E+00,
Firmware,V1.23,Firmware,V1.23,
Mode,Fast,Mode,Fast,
Waveform Data,,Waveform Data,,
-1, ,45, ,
4, ,45, ,
3, ,46, ,
4, ,47, ,
-2, ,48, ,
3, ,46, ,
1, ,48, ,
3, ,49, ,
0, ,49, ,
3, ,49, ,
1, ,50, ,
5, ,48, ,
-1, ,49, ,
4, ,48, ,
3, ,48, ,
1, ,47, ,
-2, ,48, ,
3, ,45, ,
1, ,45, ,
4, ,45, ,
-1, ,44, ,
3, ,42, ,
-1, ,42, ,
4, ,41, ,
-2, ,41, ,
1, ,41, ,
4, ,40, ,
3, ,39, ,
-2, ,39, ,
3, ,37, ,
1, ,37, ,
3, ,37, ,
1, ,36, ,
1, ,36, ,
1, ,36, ,
4, ,34, ,
-1, ,34, ,
0, ,34, ,
4, ,33, ,
1, ,33, ,
-2, ,32, ,
3, ,31, ,
1, ,31, ,
3, ,30, ,
-1, ,29, ,
3, ,29, ,
0, ,29, ,
4, ,28, ,
-4, ,27, ,
1, ,27, ,
3, ,26, ,
1, ,26, ,
-1, ,25, ,
4, ,23, ,
3, ,23, ,
3, ,23, ,
-2, ,22, ,
0, ,21, ,
0, ,21, ,
4, ,20, ,
0, ,20, ,
3, ,19, ,
1, ,19, ,
1, ,18, ,
-2, ,18, ,
4, ,16, ,
1, ,16, ,
0, ,16, ,
0, ,15, ,
1, ,14, ,
1, ,14, ,
3, ,14, ,
-1, ,13, ,
4, ,12, ,
1, ,12, ,
0, ,12, ,
-1, ,11, ,
3, ,10, ,
3, ,9, ,
3, ,9, ,
-1, ,9, ,
1, ,8, ,
1, ,7, ,
4, ,7, ,
-1, ,6, ,
1, ,6, ,
3, ,4, ,
3, ,4, ,
-2, ,3, ,
3, ,3, ,
1, ,2, ,
3, ,2, ,
-1, ,1, ,
3, ,0, ,
3, ,0, ,
5, ,-1, ,
-2, ,-1, ,
4, ,-2, ,
4, ,-2, ,
3, ,-3, ,
-1, ,-4, ,
4, ,-4, ,
3, ,-5, ,
1, ,-5, ,
-2, ,-6, ,
1, ,-6, ,
0, ,-7, ,
3, ,-7, ,
-5, ,-8, ,
1, ,-8, ,
3, ,-9, ,
4, ,-9, ,
-2, ,-10, ,
1, ,-11, ,
4, ,-11, ,
1, ,-12, ,
1, ,-12, ,
1, ,-13, ,
1, ,-14, ,
1, ,-14, ,
-1, ,-16, ,
0, ,-16, ,
3, ,-17, ,
0, ,-18, ,
-2, ,-18, ,
3, ,-18, ,
4, ,-19, ,
3, ,-19, ,
1, ,-20, ,
3, ,-21, ,
1, ,-21, ,
4, ,-22, ,
-1, ,-22, ,
1, ,-23, ,
4, ,-24, ,
3, ,-24, ,
-1, ,-25, ,
3, ,-25, ,
3, ,-26, ,
3, ,-26, ,
1, ,-27, ,
3, ,-28, ,
1, ,-28, ,
5, ,-29, ,
-2, ,-29, ,
0, ,-30, ,
1, ,-30, ,
1, ,-31, ,
-4, ,-32, ,
4, ,-32, ,
0, ,-32, ,
3, ,-33, ,
1, ,-33, ,
1, ,-35, ,
1, ,-36, ,
5, ,-36, ,
-1, ,-37, ,
1, ,-37, ,
1, ,-38, ,
3, ,-39, ,
-2, ,-40, ,
4, ,-40, ,
4, ,-40, ,
1, ,-41, ,
1, ,-41, ,
1, ,-42, ,
0, ,-42, ,
3, ,-42, ,
-2, ,-42, ,
0, ,-41, ,
3, ,-40, ,
0, ,-40, ,
-4, ,-40, ,
4, ,-39, ,
3, ,-38, ,
1, ,-37, ,
-1, ,-37, ,
3, ,-36, ,
1, ,-36, ,
3, ,-35, ,
0, ,-35, ,
3, ,-33, ,
3, ,-33, ,
4, ,-32, ,
-2, ,-32, ,
1, ,-31, ,
3, ,-30, ,
1, ,-30, ,
0, ,-29, ,
3, ,-28, ,
1, ,-28, ,
0, ,-27, ,
-2, ,-27, ,
0, ,-26, ,
1, ,-26, ,
1, ,-25, ,
-1, ,-25, ,
4, ,-24, ,
1, ,-23, ,
3, ,-23, ,
-1, ,-22, ,
3, ,-22, ,
3, ,-21, ,
1, ,-21, ,
-1, ,-20, ,
1, ,-19, ,
3, ,-19, ,
0, ,-18, ,
-4, ,-18, ,
1, ,-17, ,
0, ,-16, ,
-1, ,-16, ,
-1, ,-16, ,
1, ,-14, ,
3, ,-13, ,
3, ,-13, ,
-4, ,-12, ,
1, ,-12, ,
3, ,-11, ,
3, ,-11, ,
-2, ,-10, ,
4, ,-9, ,
1, ,-9, ,
1, ,-8, ,
0, ,-7, ,
1, ,-7, ,
0, ,-7, ,
3, ,-6, ,
-2, ,-6, ,
1, ,-5, ,
1, ,-4, ,
1, ,-4, ,
-5, ,-3, ,
4, ,-3, ,
0, ,-2, ,
1, ,-2, ,
-1, ,-1, ,
3, ,-1, ,
0, ,0, ,
4, ,1, ,
-2, ,1, ,
1, ,2, ,
1, ,2, ,
1, ,3, ,
-2, ,3, ,
3, ,4, ,
3, ,4, ,
0, ,6, ,
0, ,7, ,
4, ,7, ,
1, ,7, ,
3, ,8, ,
0, ,9, ,
3, ,9, ,
3, ,10, ,
3, ,11, ,
-2, ,11, ,
4, ,11, ,
1, ,12, ,
0, ,13, ,
1, ,13, ,
1, ,14, ,
3, ,14, ,
4, ,15, ,
-2, ,15, ,
0, ,16, ,
0, ,17, ,
3, ,17, ,
-4, ,18, ,
4, ,18, ,
1, ,18, ,
0, ,20, ,
0, ,20, ,
3, ,20, ,
1, ,21, ,
4, ,21, ,
-1, ,22, ,
3, ,23, ,
3, ,23, ,
4, ,25, ,
-2, ,26, ,
4, ,25, ,
1, ,26, ,
4, ,27, ,
3, ,27, ,
0, ,28, ,
0, ,29, ,
4, ,29, ,
-1, ,30, ,
1, ,30, ,
3, ,31, ,
0, ,31, ,
-2, ,32, ,
3, ,32, ,
3, ,33, ,
1, ,34, ,
-1, ,34, ,
1, ,35, ,
-1, ,36, ,
4, ,35, ,
-1, ,37, ,
1, ,37, ,
3, ,37, ,
0, ,39, ,
-4, ,40, ,
3, ,38, ,
0, ,40, ,
3, ,40, ,
0, ,41, ,
1, ,41, ,
0, ,42, ,
3, ,42, ,
-2, ,44, ,
0, ,45, ,
3, ,45, ,
0, ,46, ,
-4, ,47, ,
3, ,46, ,
3, ,48, ,
4, ,48, ,
-2, ,48, ,
3, ,49, ,
1, ,50, ,
1, ,49, ,
-1, ,49, ,
1, ,49, ,
1, ,48, ,
1, ,48, ,
-2, ,48, ,
4, ,45, ,
1, ,46, ,
3, ,45, ,
0, ,44, ,
0, ,44, ,
-1, ,42, ,
1, ,42, ,
-2, ,41, ,
1, ,41, ,
3, ,40, ,
1, ,39, ,
-2, ,40, ,
1, ,38, ,
1, ,38, ,
3, ,37, ,
1, ,37, ,
1, ,36, ,
-1, ,36, ,
5, ,34, ,
-1, ,34, ,
1, ,34, ,
1, ,33, ,
1, ,33, ,
-2, ,32, ,
3, ,31, ,
1, ,31, ,
3, ,31, ,
-1, ,30, ,
1, ,29, ,
3, ,29, ,
3, ,28, ,
-2, ,28, ,
1, ,27, ,
3, ,26, ,
3, ,26, ,
-2, ,26, ,
3, ,23, ,
1, ,23, ,
1, ,23, ,
0, ,22, ,
1, ,22, ,
1, ,21, ,
3, ,20, ,
-2, ,20, ,
1, ,19, ,
1, ,19, ,
0, ,18, ,
-2, ,18, ,
3, ,17, ,
0, ,16, ,
0, ,16, ,
0, ,15, ,
5, ,15, ,
-1, ,14, ,
3, ,14, ,
-1, ,13, ,
0, ,13, ,
1, ,12, ,
0, ,12, ,
-1, ,11, ,
1, ,10, ,
0, ,10, ,
3, ,10, ,
0, ,9, ,
1, ,9, ,
0, ,8, ,
3, ,7, ,
-4, ,7, ,
0, ,6, ,
3, ,6, ,
3, ,4, ,
-4, ,3, ,
3, ,3, ,
-1, ,2, ,
4, ,2, ,
0, ,1, ,
1, ,1, ,
0, ,0, ,
4, ,0, ,
-2, ,-1, ,
0, ,-2, ,
1, ,-2, ,
3, ,-3, ,
-1, ,-3, ,
4, ,-4, ,
1, ,-4, ,
1, ,-5, ,
-1, ,-5, ,
3, ,-6, ,
3, ,-7, ,
5, ,-7, ,
-2, ,-8, ,
1, ,-8, ,
4, ,-9, ,
1, ,-9, ,
-2, ,-10, ,
1, ,-10, ,
1, ,-11, ,
3, ,-12, ,
-1, ,-12, ,
3, ,-13, ,
3, ,-13, ,
4, ,-14, ,
0, ,-14, ,
1, ,-16, ,
3, ,-16, ,
3, ,-17, ,
-1, ,-18, ,
1, ,-18, ,
3, ,-19, ,
1, ,-19, ,
-2, ,-20, ,
0, ,-20, ,
1, ,-21, ,
3, ,-21, ,
0, ,-22, ,
1, ,-23, ,
3, ,-23, ,
4, ,-24, ,
-2, ,-25, ,
3, ,-25, ,
1, ,-25, ,
1, ,-26, ,
1, ,-26, ,
4, ,-27, ,
3, ,-28, ,
5, ,-28, ,
-2, ,-29, ,
1, ,-30, ,
1, ,-30, ,
1, ,-31, ,
-1, ,-31, ,
4, ,-32, ,
4, ,-32, ,
3, ,-33, ,
-1, ,-33, ,
3, ,-35, ,
3, ,-35, ,
3, ,-36, ,
-1, ,-37, ,
1, ,-37, ,
3, ,-38, ,
4, ,-38, ,
-2, ,-39, ,
4, ,-40, ,
1, ,-40, ,
0, ,-41, ,
0, ,-41, ,
1, ,-42, ,
3, ,-42, ,
3, ,-42, ,
-1, ,-42, ,
1, ,-41, ,
3, ,-40, ,
3, ,-40, ,
-2, ,-40, ,
3, ,-39, ,
3, ,-38, ,
3, ,-38, ,
-2, ,-37, ,
0, ,-37, ,
1, ,-36, ,
4, ,-35, ,
-2, ,-35, ,
0, ,-33, ,
3, ,-33, ,
1, ,-32, ,
-4, ,-32, ,
0, ,-31, ,
1, ,-31, ,
1, ,-30, ,
0, ,-29, ,
0, ,-29, ,
0, ,-28, ,
3, ,-28, ,
-1, ,-27, ,
-1, ,-26, ,
3, ,-26, ,
0, ,-26, ,
-2, ,-25, ,
3, ,-24, ,
1, ,-24, ,
1, ,-23, ,
-1, ,-22, ,
1, ,-22, ,
1, ,-21, ,
1, ,-21, ,
-4, ,-20, ,
0, ,-20, ,
0, ,-19, ,
0, ,-19, ,
-2, ,-18, ,
3, ,-17, ,
1, ,-17, ,
0, ,-16, ,
0, ,-16, ,
1, ,-14, ,
0, ,-13, ,
3, ,-13, ,
0, ,-12, ,
0, ,-12, ,
1, ,-11, ,
1, ,-11, ,
-4, ,-10, ,
1, ,-10, ,
1, ,-9, ,
3, ,-9, ,
0, ,-8, ,
3, ,-8, ,
3, ,-7, ,
4, ,-6, ,
-1, ,-6, ,
0, ,-5, ,
3, ,-5, ,
0, ,-4, ,
0, ,-4, ,
1, ,-3, ,
0, ,-3, ,
1, ,-2, ,
0, ,-1, ,
1, ,-1, ,
1, ,0, ,
4, ,1, ,
-2, ,1, ,
1, ,2, ,
1, ,2, ,
1, ,3, ,
-1, ,3, ,
6, ,4, ,
3, ,4, ,
3, ,6, ,
0, ,6, ,
1, ,7, ,
-1, ,7, ,
4, ,8, ,
0, ,8, ,
1, ,9, ,
3, ,10, ,
0, ,10, ,
-2, ,11, ,
5, ,11, ,
1, ,12, ,
1, ,13, ,
-2, ,13, ,
1, ,13, ,
3, ,14, ,
5, ,14, ,
-1, ,15, ,
1, ,16, ,
1, ,16, ,
1, ,17, ,
-2, ,18, ,
3, ,17, ,
1, ,18, ,
3, ,20, ,
0, ,19, ,
1, ,20, ,
0, ,20, ,
1, ,21, ,
-2, ,22, ,
1, ,22, ,
1, ,23, ,
4, ,25, ,
-1, ,25, ,
3, ,25, ,
0, ,26, ,
0, ,27, ,
-1, ,27, ,
1, ,28, ,
0, ,28, ,
4, ,29, ,
-1, ,30, ,
1, ,30, ,
3, ,31, ,
0, ,31, ,
-1, ,32, ,
1, ,32, ,
1, ,32, ,
4, ,34, ,
1, ,34, ,
3, ,34, ,
1, ,35, ,
3, ,35, ,
-1, ,36, ,
1, ,37, ,
4, ,37, ,
1, ,39, ,
-2, ,39, ,
1, ,38, ,
3, ,39, ,
0, ,40, ,
1, ,41, ,
3, ,41, ,
1, ,42, ,
3, ,42, ,
-2, ,44, ,
1, ,45, ,
1, ,45, ,
4, ,46, ,
-2, ,47, ,
1, ,46, ,
0, ,47, ,
0, ,48, ,
0, ,48, ,
1, ,49, ,
0, ,50, ,
3, ,49, ,
-1, ,50, ,
1, ,49, ,
3, ,48, ,
3, ,48, ,
-2, ,48, ,
4, ,45, ,
1, ,46, ,
3, ,45, ,
1, ,44, ,
3, ,44, ,
1, ,42, ,
3, ,42, ,
-2, ,41, ,
3, ,41, ,
1, ,40, ,
1, ,40, ,
-1, ,40, ,
4, ,38, ,
3, ,38, ,
1, ,38, ,
-1, ,37, ,
1, ,36, ,
1, ,36, ,
3, ,34, ,
-2, ,35, ,
0, ,34, ,
4, ,33, ,
4, ,33, ,
-2, ,33, ,
3, ,31, ,
1, ,31, ,
4, ,31, ,
-1, ,30, ,
3, ,30, ,
0, ,29, ,
4, ,28, ,
-2, ,28, ,
0, ,28, ,
3, ,27, ,
3, ,26, ,
0, ,26, ,
4, ,23, ,
4, ,23, ,
3, ,25, ,
-2, ,22, ,
3, ,22, ,
0, ,21, ,
4, ,21, ,
-1, ,20, ,
4, ,20, ,
3, ,19, ,
5, ,19, ,
-2, ,18, ,
3, ,17, ,
1, ,17, ,
1, ,16, ,
0, ,16, ,
3, ,15, ,
1, ,15, ,
5, ,14, ,
-4, ,14, ,
4, ,13, ,
4, ,13, ,
3, ,12, ,
-1, ,11, ,
4, ,10, ,
1, ,10, ,
4, ,10, ,
-1, ,9, ,
0, ,9, ,
0, ,8, ,
3, ,7, ,
-2, ,7, ,
3, ,6, ,
3, ,6, ,
0, ,4, ,
-4, ,4, ,
3, ,3, ,
1, ,3, ,
3, ,2, ,
-1, ,1, ,
3, ,1, ,
0, ,0, ,
3, ,0, ,
0, ,-1, ,
1, ,-1, ,
3, ,-2, ,
3, ,-2, ,
-1, ,-3, ,
4, ,-3, ,
3, ,-4, ,
4, ,-4, ,
-1, ,-5, ,
1, ,-6, ,
1, ,-6, ,
5, ,-7, ,
-2, ,-7, ,
1, ,-8, ,
1, ,-8, ,
1, ,-9, ,
-2, ,-9, ,
4, ,-10, ,
0, ,-11, ,
3, ,-11, ,
0, ,-12, ,
3, ,-12, ,
4, ,-13, ,
1, ,-14, ,
-2, ,-14, ,
0, ,-14, ,
3, ,-16, ,
3, ,-17, ,
-1, ,-17, ,
1, ,-18, ,
3, ,-18, ,
4, ,-19, ,
0, ,-19, ,
3, ,-20, ,
3, ,-21, ,
3, ,-21, ,
-2, ,-22, ,
1, ,-22, ,
5, ,-23, ,
3, ,-24, ,
-1, ,-24, ,
1, ,-25, ,
1, ,-25, ,
1, ,-26, ,
1, ,-26, ,
4, ,-27, ,
3, ,-27, ,
5, ,-28, ,
-2, ,-28, ,
1, ,-29, ,
3, ,-30, ,
1, ,-31, ,
-2, ,-31, ,
5, ,-32, ,
4, ,-32, ,
1, ,-32, ,
3, ,-33, ,
3, ,-35, ,
3, ,-35, ,
5, ,-36, ,
-1, ,-36, ,
1, ,-37, ,
4, ,-37, ,
4, ,-38, ,
-4, ,-39, ,
3, ,-39, ,
3, ,-40, ,
3, ,-40, ,
0, ,-40, ,
0, ,-41, ,
4, ,-42, ,
3, ,-43, ,
-1, ,-42, ,
0, ,-41, ,
3, ,-41, ,
3, ,-40, ,
-2, ,-40, ,
5, ,-39, ,
4, ,-38, ,
1, ,-38, ,
1, ,-37, ,
0, ,-37, ,
1, ,-36, ,
3, ,-36, ,
-2, ,-35, ,
1, ,-33, ,
3, ,-33, ,
3, ,-32, ,
-1, ,-32, ,
4, ,-31, ,
3, ,-31, ,
1, ,-30, ,
-1, ,-29, ,
3, ,-29, ,
3, ,-29, ,
3, ,-28, ,
-1, ,-27, ,
1, ,-27, ,
3, ,-26, ,
3, ,-26, ,
-1, ,-25, ,
5, ,-25, ,
4, ,-24, ,
1, ,-23, ,
0, ,-23, ,
0, ,-22, ,
1, ,-22, ,
3, ,-21, ,
-1, ,-21, ,
1, ,-20, ,
3, ,-19, ,
1, ,-19, ,
-2, ,-18, ,
3, ,-18, ,
1, ,-17, ,
3, ,-17, ,
-1, ,-16, ,
1, ,-16, ,
1, ,-14, ,
5, ,-13, ,
-2, ,-13, ,
1, ,-12, ,
1, ,-12, ,
-1, ,-11, ,
-2, ,-11, ,
3, ,-10, ,
3, ,-9, ,
3, ,-9, ,
0, ,-8, ,
1, ,-8, ,
-1, ,-7, ,
4, ,-7, ,
-1, ,-6, ,
1, ,-6, ,
1, ,-5, ,
1, ,-4, ,
-4, ,-4, ,
1, ,-3, ,
0, ,-3, ,
0, ,-2, ,
0, ,-2, ,
4, ,-1, ,
3, ,-1, ,
4, ,0, ,
-1, ,1, ,
1, ,1, ,
1, ,2, ,
0, ,2, ,
-4, ,3, ,
3, ,3, ,
0, ,4, ,
1, ,6, ,
-2, ,6, ,
3, ,7, ,
3, ,7, ,
5, ,8, ,
-2, ,8, ,
3, ,9, ,
3, ,9, ,
0, ,10, ,
-2, ,10, ,
4, ,11, ,
0, ,11, ,
3, ,12, ,
0, ,13, ,
1, ,13, ,
3, ,14, ,
4, ,14, ,
-2, ,15, ,
3, ,16, ,
1, ,16, ,
1, ,17, ,
-2, ,17, ,
4, ,17, ,
3, ,18, ,
1, ,19, ,
0, ,19, ,
1, ,20, ,
0, ,20, ,
3, ,21, ,
-2, ,22, ,
3, ,22, ,
3, ,23, ,
4, ,23, ,
-1, ,25, ,
5, ,25, ,
3, ,25, ,
3, ,27, ,
1, ,27, ,
0, ,27, ,
1, ,28, ,
5, ,28, ,
-1, ,29, ,
1, ,30, ,
1, ,30, ,
4, ,31, ,
-1, ,32, ,
4, ,32, ,
1, ,32, ,
1, ,34, ,
3, ,34, ,
0, ,34, ,
1, ,35, ,
3, ,35, ,
-2, ,36, ,
1, ,37, ,
3, ,37, ,
0, ,38, ,
-1, ,39, ,
3, ,38, ,
3, ,39, ,
3, ,40, ,
1, ,40, ,
1, ,41, ,
0, ,41, ,
3, ,41, ,
-1, ,44, ,
0, ,44, ,
3, ,45, ,
3, ,46, ,
-1, ,47, ,
3, ,45, ,
0, ,47, ,
3, ,48, ,
0, ,48, ,
1, ,48, ,
-1, ,49, ,
4, ,49, ,
-1, ,50, ,
0, ,49, ,
1, ,48, ,
1, ,48, ,
-4, ,48, ,
4, ,46, ,
3, ,46, ,
0, ,46, ,
0, ,45, ,
1, ,44, ,
0, ,44, ,
3, ,42, ,
-2, ,42, ,
3, ,41, ,
3, ,40, ,
0, ,40, ,
-4, ,40, ,
3, ,38, ,
3, ,38, ,
3, ,38, ,
1, ,37, ,
4, ,37, ,
-1, ,36, ,
4, ,35, ,
0, ,35, ,
0, ,34, ,
3, ,34, ,
5, ,33, ,
-1, ,33, ,
4, ,32, ,
-1, ,31, ,
3, ,31, ,
0, ,31, ,
1, ,30, ,
3, ,29, ,
4, ,28, ,
-1, ,28, ,
1, ,28, ,
1, ,27, ,
4, ,27, ,
-2, ,26, ,
3, ,25, ,
1, ,23, ,
1, ,25, ,
0, ,23, ,
1, ,22, ,
-1, ,22, ,
5, ,21, ,
-2, ,20, ,
1, ,20, ,
1, ,19, ,
4, ,19, ,
0, ,18, ,
3, ,17, ,
0, ,17, ,
3, ,17, ,
0, ,16, ,
0, ,15, ,
3, ,15, ,
4, ,15, ,
-2, ,14, ,
1, ,13, ,
1, ,13, ,
1, ,12, ,
-2, ,11, ,
3, ,11, ,
3, ,10, ,
1, ,10, ,
-1, ,9, ,
1, ,9, ,
0, ,8, ,
3, ,8, ,
-1, ,7, ,
3, ,7, ,
3, ,6, ,
1, ,6, ,
-2, ,4, ,
3, ,3, ,
0, ,3, ,
1, ,2, ,
0, ,2, ,
3, ,1, ,
-1, ,1, ,
4, ,0, ,
-2, ,0, ,
1, ,-1, ,
3, ,-2, ,
0, ,-2, ,
-1, ,-3, ,
3, ,-3, ,
1, ,-4, ,
1, ,-4, ,
-1, ,-5, ,
0, ,-5, ,
1, ,-6, ,
5, ,-6, ,
-1, ,-7, ,
1, ,-7, ,
3, ,-8, ,
1, ,-9, ,
-2, ,-9, ,
3, ,-10, ,
1, ,-10, ,
1, ,-11, ,
-1, ,-11, ,
3, ,-12, ,
4, ,-13, ,
6, ,-13, ,
-2, ,-14, ,
1, ,-14, ,
1, ,-16, ,
-1, ,-17, ,
-2, ,-17, ,
1, ,-17, ,
1, ,-18, ,
1, ,-19, ,
-1, ,-19, ,
0, ,-20, ,
1, ,-20, ,
3, ,-21, ,
-2, ,-22, ,
0, ,-22, ,
5, ,-22, ,
3, ,-24, ,
-2, ,-24, ,
4, ,-24, ,
1, ,-25, ,
3, ,-25, ,
0, ,-26, ,
1, ,-27, ,
3, ,-27, ,
4, ,-28, ,
-1, ,-28, ,
0, ,-29, ,
3, ,-29, ,
1, ,-30, ,
0, ,-31, ,
1, ,-31, ,
3, ,-31, ,
1, ,-32, ,
0, ,-33, ,
-1, ,-33, ,
3, ,-35, ,
3, ,-36, ,
-1, ,-36, ,
3, ,-37, ,
4, ,-37, ,
3, ,-38, ,
-4, ,-39, ,
3, ,-39, ,
3, ,-39, ,
0, ,-40, ,
0, ,-40, ,
3, ,-41, ,
3, ,-42, ,
3, ,-42, ,
-4, ,-42, ,
1, ,-42, ,
4, ,-41, ,
3, ,-41, ,
-1, ,-41, ,
1, ,-39, ,
3, ,-39, ,
1, ,-38, ,
0, ,-38, ,
0, ,-37, ,
1, ,-37, ,
1, ,-36, ,
-1, ,-35, ,
1, ,-35, ,
3, ,-33, ,
3, ,-33, ,
-1, ,-32, ,
3, ,-32, ,
3, ,-31, ,
0, ,-30, ,
0, ,-30, ,
1, ,-29, ,
1, ,-29, ,
5, ,-28, ,
-1, ,-28, ,
-1, ,-27, ,
4, ,-27, ,
3, ,-26, ,
-1, ,-25, ,
3, ,-25, ,
-1, ,-24, ,
1, ,-24, ,
-2, ,-23, ,
0, ,-22, ,
0, ,-22, ,
3, ,-21, ,
-2, ,-21, ,
0, ,-20, ,
1, ,-20, ,
1, ,-19, ,
-2, ,-19, ,
1, ,-18, ,
1, ,-18, ,
0, ,-17, ,
-1, ,-16, ,
1, ,-16, ,
1, ,-14, ,
4, ,-14, ,
-1, ,-13, ,
0, ,-12, ,
1, ,-12, ,
-1, ,-11, ,
-4, ,-11, ,
1, ,-10, ,
0, ,-10, ,
1, ,-9, ,
0, ,-8, ,
-1, ,-8, ,
1, ,-7, ,
1, ,-7, ,
-1, ,-6, ,
1, ,-6, ,
0, ,-5, ,
1, ,-5, ,
-2, ,-4, ,
3, ,-3, ,
0, ,-3, ,
-1, ,-2, ,
-1, ,-2, ,
0, ,-1, ,
0, ,-1, ,
3, ,0, ,
-2, ,0, ,
0, ,1, ,
1, ,1, ,
0, ,2, ,
-2, ,3, ,
3, ,3, ,
3, ,3, ,
1, ,4, ,
-2, ,6, ,
-1, ,6, ,
0, ,7, ,
4, ,7, ,
-2, ,8, ,
0, ,8, ,
1, ,9, ,
1, ,10, ,
-4, ,10, ,
3, ,11, ,
0, ,11, ,
0, ,12, ,
1, ,12, ,
1, ,13, ,
-1, ,13, ,
4, ,14, ,
-1, ,14, ,
3, ,15, ,
1, ,16, ,
0, ,17, ,
1, ,17, ,
4, ,17, ,
3, ,17, ,
0, ,19, ,
-1, ,19, ,
1, ,19, ,
1, ,20, ,
3, ,20, ,
-2, ,21, ,
0, ,22, ,
3, ,22, ,
3, ,23, ,
-2, ,25, ,
3, ,25, ,
1, ,26, ,
0, ,26, ,
0, ,26, ,
0, ,27, ,
-1, ,28, ,
3, ,28, ,
-4, ,29, ,
0, ,30, ,
1, ,30, ,
1, ,31, ,
-1, ,32, ,
4, ,31, ,
3, ,32, ,
1, ,33, ,
0, ,33, ,
1, ,34, ,
0, ,34, ,
3, ,34, ,
-4, ,36, ,
1, ,36, ,
3, ,37, ,
1, ,38, ,
-1, ,38, ,
1, ,38, ,
-1, ,38, ,
1, ,40, ,
-1, ,40, ,
0, ,40, ,
3, ,41, ,
3, ,42, ,
-4, ,44, ,
0, ,44, ,
1, ,44, ,
1, ,45, ,
-1, ,46, ,
3, ,45, ,
1, ,47, ,
0, ,47, ,
0, ,48, ,
1, ,48, ,
1, ,49, ,
1, ,49, ,
-1, ,50, ,
1, ,49, ,
1, ,49, ,
0, ,48, ,
-4, ,49, ,
1, ,46, ,
0, ,47, ,
1, ,46, ,
0, ,45, ,
1, ,44, ,
0, ,44, ,
1, ,42, ,
-1, ,42, ,
1, ,42, ,
3, ,41, ,
3, ,41, ,
-2, ,40, ,
3, ,39, ,
1, ,38, ,
0, ,38, ,
0, ,37, ,
1, ,37, ,
0, ,36, ,
3, ,35, ,
-1, ,35, ,
0, ,35, ,
1, ,34, ,
4, ,34, ,
-2, ,33, ,
3, ,32, ,
1, ,32, ,
1, ,32, ,
1, ,31, ,
4, ,30, ,
1, ,29, ,
4, ,29, ,
-1, ,29, ,
1, ,28, ,
3, ,28, ,
4, ,27, ,
-5, ,26, ,
4, ,25, ,
1, ,25, ,
1, ,25, ,
1, ,23, ,
4, ,22, ,
0, ,22, ,
3, ,21, ,
-2, ,21, ,
1, ,20, ,
3, ,20, ,
1, ,19, ,
-2, ,19, ,
1, ,17, ,
0, ,17, ,
1, ,17, ,
0, ,16, ,
3, ,16, ,
3, ,15, ,
1, ,15, ,
-2, ,14, ,
-1, ,14, ,
1, ,13, ,
3, ,13, ,
-1, ,12, ,
3, ,11, ,
4, ,11, ,
1, ,11, ,
-1, ,10, ,
3, ,9, ,
0, ,8, ,
3, ,8, ,
-1, ,7, ,
1, ,7, ,
3, ,6, ,
1, ,6, ,
-1, ,4, ,
3, ,4, ,
1, ,3, ,
3, ,3, ,
1, ,2, ,
1, ,2, ,
0, ,1, ,
1, ,1, ,
-2, ,0, ,
0, ,-1, ,
0, ,-1, ,
1, ,-2, ,
-1, ,-2, ,
3, ,-3, ,
1, ,-3, ,
1, ,-4, ,
0, ,-5, ,
1, ,-5, ,
0, ,-6, ,
3, ,-6, ,
-1, ,-7, ,
3, ,-7, ,
3, ,-8, ,
4, ,-8, ,
-2, ,-9, ,
1, ,-10, ,
1, ,-10, ,
4, ,-11, ,
0, ,-11, ,
3, ,-12, ,
1, ,-12, ,
3, ,-13, ,
0, ,-13, ,
0, ,-14, ,
3, ,-16, ,
3, ,-16, ,
-4, ,-17, ,
1, ,-17, ,
1, ,-18, ,
1, ,-18, ,
-2, ,-19, ,
0, ,-19, ,
1, ,-20, ,
4, ,-21, ,
-1, ,-21, ,
4, ,-22, ,
3, ,-23, ,
0, ,-23, ,
-2, ,-24, ,
1, ,-24, ,
1, ,-25, ,
0, ,-25, ,
0, ,-26, ,
1, ,-26, ,
0, ,-27, ,
5, ,-28, ,
-4, ,-28, ,
1, ,-28, ,
3, ,-29, ,
1, ,-30, ,
-2, ,-31, ,
3, ,-31, ,
1, ,-31, ,
3, ,-32, ,
0, ,-32, ,
3, ,-33, ,
1, ,-35, ,
4, ,-35, ,
-1, ,-36, ,
1, ,-36, ,
3, ,-37, ,
1, ,-38, ,
-1, ,-38, ,
3, ,-38, ,
1, ,-39, ,
1, ,-39, ,
1, ,-40, ,
3, ,-41, ,
4, ,-42, ,
4, ,-42, ,
-2, ,-43, ,
1, ,-42, ,
1, ,-41, ,
1, ,-41, ,
-1, ,-41, ,
3, ,-40, ,
3, ,-39, ,
3, ,-39, ,
-1, ,-38, ,
1, ,-37, ,
3, ,-37, ,
3, ,-36, ,
-1, ,-36, ,
1, ,-35, ,
3, ,-35, ,
4, ,-33, ,
-1, ,-33, ,
1, ,-32, ,
3, ,-31, ,
3, ,-31, ,
3, ,-30, ,
3, ,-30, ,
1, ,-29, ,
3, ,-28, ,
0, ,-28, ,
1, ,-27, ,
3, ,-27, ,
3, ,-26, ,
0, ,-26, ,
1, ,-25, ,
4, ,-24, ,
1, ,-24, ,
0, ,-23, ,
1, ,-23, ,
-1, ,-22, ,
4, ,-22, ,
-2, ,-21, ,
1, ,-21, ,
3, ,-20, ,
3, ,-19, ,
-4, ,-19, ,
3, ,-18, ,
1, ,-18, ,
3, ,-17, ,
0, ,-16, ,
4, ,-16, ,
1, ,-14, ,
4, ,-14, ,
-1, ,-13, ,
3, ,-13, ,
4, ,-12, ,
1, ,-12, ,
-1, ,-11, ,
4, ,-11, ,
3, ,-10, ,
3, ,-9, ,
-1, ,-9, ,
3, ,-8, ,
3, ,-8, ,
3, ,-7, ,
-1, ,-7, ,
3, ,-6, ,
4, ,-5, ,
1, ,-5, ,
-1, ,-4, ,
3, ,-4, ,
1, ,-3, ,
1, ,-3, ,
1, ,-2, ,
1, ,-2, ,
3, ,-1, ,
4, ,-1, ,
0, ,0, ,
1, ,1, ,
3, ,1, ,
3, ,2, ,
-4, ,2, ,
1, ,3, ,
1, ,3, ,
1, ,4, ,
-1, ,4, ,
3, ,6, ,
0, ,6, ,
4, ,7, ,
-1, ,8, ,
1, ,8, ,
4, ,9, ,
4, ,10, ,
-2, ,10, ,
4, ,10, ,
3, ,11, ,
1, ,12, ,
1, ,12, ,
4, ,12, ,
1, ,13, ,
3, ,14, ,
-2, ,14, ,
3, ,15, ,
3, ,16, ,
3, ,16, ,
-1, ,17, ,
4, ,17, ,
1, ,17, ,
3, ,19, ,
-1, ,18, ,
3, ,19, ,
0, ,20, ,
3, ,20, ,
-4, ,21, ,
3, ,22, ,
4, ,22, ,
3, ,23, ,
-4, ,23, ,
3, ,23, ,
0, ,25, ,
3, ,26, ,
0, ,26, ,
3, ,27, ,
3, ,28, ,
0, ,28, ,
-4, ,29, ,
1, ,29, ,
1, ,30, ,
1, ,31, ,
-1, ,31, ,
4, ,31, ,
3, ,32, ,
3, ,33, ,
0, ,33, ,
1, ,34, ,
0, ,34, ,
5, ,34, ,
-2, ,35, ,
1, ,36, ,
1, ,36, ,
0, ,38, ,
-2, ,38, ,
3, ,38, ,
3, ,39, ,
1, ,39, ,
0, ,40, ,
1, ,40, ,
1, ,41, ,
4, ,41, ,
-4, ,42, ,
-1, ,44, ,
3, ,44, ,
3, ,45, ,
-4, ,46, ,
3, ,45, ,
0, ,46, ,
3, ,47, ,
0, ,47, ,
0, ,48, ,
0, ,49, ,
1, ,48, ,
-2, ,50, ,
3, ,50, ,
1, ,49, ,
1, ,49, ,
-2, ,49, ,
3, ,46, ,
-1, ,47, ,
1, ,46, ,
-1, ,45, ,
1, ,45, ,
3, ,45, ,
4, ,42, ,
-4, ,44, ,
1, ,42, ,
1, ,41, ,
1, ,40, ,
-1, ,41, ,
1, ,39, ,
-1, ,39, ,
1, ,39, ,
0, ,38, ,
1, ,37, ,
-1, ,37, ,
3, ,35, ,
-1, ,35, ,
1, ,35, ,
3, ,35, ,
3, ,34, ,
-2, ,34, ,
4, ,32, ,
1, ,32, ,
0, ,32, ,
1, ,31, ,
1, ,31, ,
3, ,30, ,
4, ,29, ,
-1, ,29, ,
3, ,29, ,
3, ,28, ,
1, ,27, ,
-2, ,27, ,
3, ,25, ,
1, ,25, ,
1, ,25, ,
1, ,23, ,
4, ,23, ,
1, ,22, ,
4, ,22, ,
-4, ,21, ,
3, ,21, ,
4, ,20, ,
5, ,20, ,
-2, ,19, ,
3, ,18, ,
0, ,17, ,
1, ,18, ,
-1, ,16, ,
3, ,16, ,
3, ,15, ,
4, ,15, ,
-1, ,15, ,
1, ,14, ,
3, ,14, ,
3, ,13, ,
-1, ,12, ,
3, ,11, ,
3, ,11, ,
4, ,11, ,
0, ,10, ,
1, ,10, ,
0, ,9, ,
1, ,8, ,
-1, ,8, ,
1, ,7, ,
3, ,7, ,
1, ,6, ,
-2, ,4, ,
4, ,4, ,
1, ,3, ,
4, ,3, ,
1, ,2, ,
1, ,2, ,
1, ,1, ,
6, ,1, ,
-2, ,0, ,
4, ,0, ,
3, ,-1, ,
1, ,-1, ,
-2, ,-2, ,
4, ,-3, ,
3, ,-3, ,
4, ,-4, ,
1, ,-4, ,
1, ,-5, ,
3, ,-5, ,
4, ,-6, ,
-1, ,-7, ,
1, ,-7, ,
3, ,-8, ,
3, ,-8, ,
-2, ,-9, ,
6, ,-9, ,
4, ,-10, ,
5, ,-10, ,
1, ,-11, ,
3, ,-12, ,
4, ,-12, ,
5, ,-13, ,
-1, ,-13, ,
3, ,-14, ,
4, ,-14, ,
3, ,-16, ,
-1, ,-17, ,
5, ,-17, ,
3, ,-17, ,
3, ,-18, ,
-1, ,-19, ,
1, ,-19, ,
0, ,-20, ,
5, ,-21, ,
0, ,-21, ,
1, ,-21, ,
3, ,-22, ,
5, ,-23, ,
-2, ,-23, ,
3, ,-24, ,
1, ,-24, ,
5, ,-25, ,
1, ,-25, ,
3, ,-26, ,
3, ,-27, ,
4, ,-27, ,
-2, ,-28, ,
0, ,-28, ,
3, ,-29, ,
4, ,-30, ,
1, ,-30, ,
3, ,-31, ,
4, ,-31, ,
3, ,-31, ,
0, ,-32, ,
3, ,-33, ,
3, ,-35, ,
5, ,-35, ,
-2, ,-36, ,
1, ,-36, ,
5, ,-37, ,
1, ,-38, ,
-4, ,-38, ,
5, ,-38, ,
1, ,-39, ,
3, ,-39, ,
0, ,-40, ,
3, ,-40, ,
3, ,-41, ,
4, ,-41, ,
-1, ,-42, ,
3, ,-42, ,
5, ,-42, ,
3, ,-41, ,
-1, ,-41, ,
4, ,-40, ,
4, ,-39, ,
3, ,-38, ,
-1, ,-38, ,
4, ,-38, ,
3, ,-37, ,
3, ,-36, ,
0, ,-36, ,
3, ,-35, ,
4, ,-35, ,
3, ,-35, ,
-2, ,-33, ,
4, ,-32, ,
3, ,-32, ,
1, ,-31, ,
3, ,-30, ,
1, ,-30, ,
3, ,-29, ,
6, ,-29, ,
-2, ,-28, ,
3, ,-28, ,
3, ,-27, ,
1, ,-27, ,
-2, ,-26, ,
3, ,-26, ,
4, ,-25, ,
0, ,-24, ,
0, ,-23, ,
4, ,-23, ,
3, ,-22, ,
4, ,-22, ,
-2, ,-21, ,
3, ,-21, ,
4, ,-20, ,
3, ,-20, ,
0, ,-19, ,
4, ,-19, ,
3, ,-18, ,
3, ,-17, ,
1, ,-17, ,
1, ,-16, ,
4, ,-16, ,
5, ,-14, ,
-4, ,-14, ,
0, ,-13, ,
3, ,-13, ,
1, ,-12, ,
0, ,-11, ,
4, ,-11, ,
3, ,-10, ,
4, ,-10, ,
-2, ,-9, ,
3, ,-9, ,
-1, ,-8, ,
4, ,-7, ,
-1, ,-7, ,
0, ,-6, ,
3, ,-6, ,
3, ,-5, ,
-4, ,-5, ,
1, ,-4, ,
0, ,-3, ,
3, ,-3, ,
0, ,-2, ,
0, ,-2, ,
0, ,-1, ,
5, ,-1, ,
-2, ,0, ,
0, ,0, ,
1, ,1, ,
-1, ,1, ,
-2, ,2, ,
3, ,2, ,
3, ,3, ,
1, ,4, ,
-1, ,4, ,
3, ,6, ,
0, ,6, ,
4, ,7, ,
