src/test_folder/temp50000007.CSV

Format,1.0B,
Memory Length,10000,Memory Length,10000,
IntpDistance,0,IntpDistance,0,
Trigger Address,4999,Trigger Address,4999,
Trigger Level,1.760E+00,Trigger Level,1.760E+00,
Source,CH1,Source,CH2,
Vertical Units,V,Vertical Units,V,
Vertical Units Div,0,Vertical Units Div,0,
Vertical Units Extend Div,16,Vertical Units Extend Div,16,
Label,,Label,,
Probe Type,0,Probe Type,0,
Probe Ratio,1.000e+01,Probe Ratio,1.000e+00,
Vertical Scale,2.000e-02,Vertical Scale,1.000e+00,
Vertical Position,-5.120e-02,Vertical Position,2.000e-01,
Horizontal Units,S,Horizontal Units,S,
Horizontal Scale,1.000E+00,Horizontal Scale,1.000E+00,
Horizontal Position,0.000E+00,Horizontal Position,0.000E+00,
Horizontal Mode,Roll Mode,Horizontal Mode,Roll Mode,
Display Last Dot Address,10000,Display Last Dot Address,10000,
Waveform Last Dot Address,0,Waveform Last Dot Address,0,
SincET Mode,Real Time,SincET Mode,Real Time,
Sampling Period,1.000e-03,Sampling Period,1.000e-03,
Horizontal Old Scale,1.000E+00,Horizontal Old Scale,1.000E+00,
Mode,Fast,Mode,Fast,
Firmware,V1.23,,Firmware,V1.23,,
1, ,-8, ,
1, ,-10, ,
-2, ,-12, ,
0, ,-13, ,
4, ,-16, ,
1, ,-18, ,
1, ,-20, ,
1, ,-21, ,
3, ,-23, ,
3, ,-25, ,
4, ,-26, ,
1, ,-28, ,
1, ,-30, ,
1, ,-32, ,
-2, ,-35, ,
5, ,-36, ,
-1, ,-38, ,
1, ,-40, ,
1, ,-41, ,
4, ,-42, ,
4, ,-40, ,
-1, ,-38, ,
3, ,-37, ,
-1, ,-35, ,
3, ,-32, ,
3, ,-30, ,
0, ,-28, ,
5, ,-27, ,
-2, ,-25, ,
1, ,-23, ,
1, ,-21, ,
3, ,-20, ,
3, ,-18, ,
1, ,-16, ,
-4, ,-13, ,
3, ,-11, ,
0, ,-10, ,
-2, ,-8, ,
0, ,-6, ,
0, ,-4, ,
0, ,-3, ,
1, ,-1, ,
0, ,0, ,
3, ,2, ,
-2, ,4, ,
6, ,7, ,
0, ,9, ,
4, ,10, ,
-1, ,12, ,
3, ,14, ,
-2, ,16, ,
4, ,17, ,
1, ,18, ,
0, ,21, ,
0, ,22, ,
1, ,25, ,
0, ,27, ,
-1, ,29, ,
3, ,30, ,
1, ,32, ,
4, ,34, ,
3, ,36, ,
4, ,38, ,
4, ,39, ,
-1, ,41, ,
3, ,44, ,
-4, ,44, ,
3, ,46, ,
-1, ,48, ,
1, ,49, ,
-2, ,48, ,
1, ,46, ,
-2, ,42, ,
1, ,41, ,
-2, ,39, ,
5, ,38, ,
0, ,36, ,
0, ,34, ,
3, ,32, ,
3, ,31, ,
3, ,29, ,
-1, ,27, ,
1, ,26, ,
1, ,23, ,
1, ,21, ,
3, ,19, ,
4, ,18, ,
0, ,16, ,
-2, ,14, ,
0, ,12, ,
0, ,11, ,
4, ,9, ,
4, ,7, ,
1, ,4, ,
3, ,3, ,
3, ,1, ,
1, ,-1, ,
-2, ,-2, ,
4, ,-4, ,
1, ,-6, ,
3, ,-8, ,
3, ,-9, ,
3, ,-11, ,
4, ,-13, ,
3, ,-14, ,
1, ,-18, ,
3, ,-19, ,
-1, ,-21, ,
0, ,-23, ,
1, ,-24, ,
3, ,-26, ,
3, ,-28, ,
5, ,-30, ,
3, ,-31, ,
1, ,-33, ,
0, ,-36, ,
3, ,-38, ,
-1, ,-39, ,
8, ,-41, ,
0, ,-42, ,
0, ,-40, ,
4, ,-39, ,
5, ,-37, ,
-1, ,-35, ,
1, ,-32, ,
3, ,-30, ,
1, ,-28, ,
-1, ,-27, ,
0, ,-25, ,
3, ,-23, ,
3, ,-21, ,
0, ,-20, ,
3, ,-18, ,
-4, ,-16, ,
4, ,-13, ,
4, ,-12, ,
-1, ,-10, ,
4, ,-8, ,
3, ,-6, ,
3, ,-4, ,
-1, ,-3, ,
3, ,-1, ,
-4, ,1, ,
3, ,2, ,
-1, ,4, ,
3, ,7, ,
1, ,9, ,
4, ,10, ,
3, ,12, ,
1, ,14, ,
1, ,15, ,
1, ,17, ,
3, ,19, ,
3, ,21, ,
1, ,22, ,
-1, ,25, ,
0, ,27, ,
3, ,29, ,
3, ,31, ,
4, ,32, ,
1, ,33, ,
1, ,36, ,
0, ,37, ,
3, ,39, ,
6, ,41, ,
-1, ,44, ,
4, ,45, ,
4, ,48, ,
3, ,49, ,
-1, ,49, ,
1, ,47, ,
3, ,46, ,
1, ,42, ,
3, ,42, ,
4, ,39, ,
4, ,38, ,
0, ,35, ,
1, ,33, ,
1, ,32, ,
1, ,30, ,
-4, ,29, ,
0, ,27, ,
1, ,26, ,
3, ,23, ,
-4, ,21, ,
3, ,19, ,
3, ,17, ,
-1, ,16, ,
3, ,14, ,
-1, ,12, ,
1, ,10, ,
1, ,8, ,
3, ,7, ,
0, ,4, ,
4, ,2, ,
4, ,1, ,
4, ,-1, ,
3, ,-3, ,
1, ,-5, ,
3, ,-6, ,
4, ,-8, ,
4, ,-10, ,
1, ,-12, ,
4, ,-13, ,
4, ,-16, ,
1, ,-18, ,
4, ,-20, ,
4, ,-21, ,
1, ,-24, ,
0, ,-25, ,
3, ,-27, ,
3, ,-29, ,
3, ,-30, ,
3, ,-32, ,
3, ,-35, ,
-4, ,-37, ,
3, ,-39, ,
0, ,-40, ,
4, ,-42, ,
5, ,-41, ,
3, ,-39, ,
1, ,-38, ,
1, ,-36, ,
1, ,-33, ,
4, ,-31, ,
0, ,-30, ,
0, ,-28, ,
1, ,-26, ,
-1, ,-24, ,
5, ,-22, ,
-1, ,-20, ,
1, ,-19, ,
0, ,-17, ,
3, ,-14, ,
-1, ,-12, ,
6, ,-11, ,
3, ,-9, ,
3, ,-7, ,
1, ,-5, ,
-1, ,-4, ,
4, ,-2, ,
-4, ,0, ,
1, ,1, ,
1, ,3, ,
1, ,6, ,
-1, ,8, ,
0, ,9, ,
-1, ,11, ,
1, ,12, ,
6, ,15, ,
0, ,16, ,
5, ,18, ,
4, ,20, ,
0, ,21, ,
3, ,25, ,
1, ,26, ,
4, ,28, ,
3, ,29, ,
0, ,32, ,
3, ,33, ,
0, ,35, ,
1, ,37, ,
-1, ,39, ,
3, ,40, ,
3, ,41, ,
0, ,44, ,
3, ,46, ,
-2, ,48, ,
1, ,50, ,
-1, ,49, ,
1, ,45, ,
-1, ,44, ,
4, ,42, ,
-4, ,40, ,
3, ,38, ,
1, ,36, ,
0, ,35, ,
0, ,33, ,
1, ,31, ,
4, ,30, ,
-2, ,28, ,
3, ,26, ,
1, ,23, ,
3, ,21, ,
4, ,19, ,
0, ,18, ,
1, ,16, ,
-2, ,14, ,
-1, ,12, ,
4, ,11, ,
3, ,9, ,
3, ,7, ,
1, ,6, ,
1, ,3, ,
4, ,1, ,
4, ,-1, ,
-2, ,-2, ,
0, ,-4, ,
1, ,-6, ,
3, ,-8, ,
3, ,-9, ,
1, ,-11, ,
3, ,-13, ,
4, ,-16, ,
3, ,-18, ,
0, ,-19, ,
3, ,-21, ,
0, ,-23, ,
1, ,-24, ,
3, ,-27, ,
1, ,-28, ,
-4, ,-30, ,
3, ,-32, ,
-1, ,-35, ,
1, ,-37, ,
-2, ,-38, ,
4, ,-40, ,
4, ,-42, ,
0, ,-41, ,
3, ,-40, ,
3, ,-38, ,
1, ,-36, ,
4, ,-33, ,
5, ,-31, ,
3, ,-30, ,
3, ,-28, ,
1, ,-27, ,
-1, ,-24, ,
5, ,-23, ,
-2, ,-21, ,
5, ,-19, ,
4, ,-17, ,
1, ,-14, ,
4, ,-13, ,
4, ,-11, ,
1, ,-9, ,
3, ,-7, ,
1, ,-6, ,
-1, ,-4, ,
5, ,-2, ,
1, ,0, ,
3, ,1, ,
-1, ,3, ,
4, ,6, ,
6, ,8, ,
5, ,9, ,
5, ,11, ,
0, ,13, ,
3, ,15, ,
0, ,16, ,
4, ,18, ,
1, ,20, ,
0, ,21, ,
3, ,23, ,
-1, ,26, ,
1, ,28, ,
-1, ,30, ,
3, ,31, ,
3, ,33, ,
3, ,35, ,
-4, ,37, ,
1, ,39, ,
5, ,40, ,
0, ,42, ,
4, ,45, ,
1, ,46, ,
3, ,48, ,
3, ,50, ,
4, ,49, ,
3, ,46, ,
1, ,45, ,
1, ,41, ,
3, ,40, ,
3, ,38, ,
3, ,37, ,
1, ,35, ,
3, ,33, ,
3, ,31, ,
-4, ,30, ,
4, ,28, ,
-2, ,26, ,
3, ,22, ,
-1, ,21, ,
1, ,19, ,
3, ,18, ,
6, ,16, ,
-2, ,14, ,
1, ,13, ,
1, ,11, ,
1, ,9, ,
-1, ,7, ,
4, ,6, ,
4, ,3, ,
1, ,1, ,
0, ,-1, ,
1, ,-2, ,
-2, ,-4, ,
1, ,-6, ,
6, ,-8, ,
1, ,-9, ,
1, ,-11, ,
3, ,-13, ,
-2, ,-16, ,
1, ,-17, ,
5, ,-19, ,
3, ,-21, ,
3, ,-23, ,
0, ,-25, ,
-2, ,-26, ,
3, ,-28, ,
4, ,-30, ,
4, ,-32, ,
3, ,-33, ,
1, ,-36, ,
3, ,-38, ,
0, ,-40, ,
4, ,-42, ,
3, ,-41, ,
4, ,-40, ,
3, ,-38, ,
1, ,-36, ,
3, ,-35, ,
-1, ,-32, ,
3, ,-30, ,
0, ,-28, ,
-2, ,-26, ,
1, ,-24, ,
-1, ,-23, ,
1, ,-21, ,
-1, ,-19, ,
3, ,-17, ,
1, ,-16, ,
4, ,-13, ,
4, ,-11, ,
-1, ,-9, ,
3, ,-7, ,
-1, ,-6, ,
4, ,-4, ,
0, ,-2, ,
1, ,-1, ,
-1, ,1, ,
3, ,3, ,
3, ,6, ,
3, ,7, ,
1, ,9, ,
4, ,11, ,
4, ,13, ,
3, ,15, ,
3, ,16, ,
1, ,18, ,
0, ,19, ,
4, ,21, ,
0, ,23, ,
1, ,26, ,
3, ,28, ,
0, ,29, ,
3, ,31, ,
1, ,33, ,
4, ,35, ,
1, ,37, ,
4, ,38, ,
5, ,41, ,
1, ,42, ,
3, ,44, ,
3, ,47, ,
0, ,48, ,
3, ,50, ,
-1, ,49, ,
3, ,46, ,
-2, ,44, ,
5, ,42, ,
-1, ,40, ,
3, ,39, ,
4, ,36, ,
4, ,35, ,
3, ,33, ,
-1, ,31, ,
1, ,30, ,
-2, ,28, ,
1, ,26, ,
0, ,23, ,
4, ,22, ,
1, ,20, ,
4, ,18, ,
1, ,17, ,
4, ,15, ,
3, ,13, ,
1, ,11, ,
1, ,9, ,
3, ,8, ,
3, ,6, ,
1, ,3, ,
0, ,1, ,
3, ,0, ,
1, ,-2, ,
1, ,-4, ,
3, ,-5, ,
0, ,-7, ,
3, ,-9, ,
3, ,-11, ,
1, ,-13, ,
-4, ,-14, ,
3, ,-17, ,
0, ,-19, ,
1, ,-21, ,
-1, ,-23, ,
3, ,-24, ,
-4, ,-26, ,
1, ,-28, ,
3, ,-30, ,
1, ,-31, ,
-1, ,-33, ,
1, ,-36, ,
-2, ,-38, ,
1, ,-39, ,
1, ,-41, ,
4, ,-42, ,
-2, ,-41, ,
3, ,-38, ,
-1, ,-37, ,
3, ,-35, ,
1, ,-32, ,
0, ,-30, ,
-1, ,-28, ,
5, ,-27, ,
3, ,-25, ,
0, ,-23, ,
4, ,-22, ,
-1, ,-20, ,
1, ,-18, ,
-4, ,-16, ,
5, ,-13, ,
4, ,-12, ,
1, ,-10, ,
5, ,-8, ,
3, ,-6, ,
4, ,-4, ,
0, ,-3, ,
0, ,-1, ,
-1, ,1, ,
3, ,2, ,
-1, ,4, ,
1, ,7, ,
0, ,9, ,
3, ,10, ,
3, ,12, ,
-1, ,13, ,
3, ,16, ,
5, ,17, ,
3, ,19, ,
1, ,20, ,
3, ,23, ,
3, ,25, ,
4, ,27, ,
1, ,29, ,
0, ,30, ,
4, ,32, ,
1, ,34, ,
3, ,36, ,
3, ,37, ,
1, ,40, ,
-1, ,41, ,
1, ,44, ,
1, ,46, ,
4, ,47, ,
3, ,48, ,
1, ,50, ,
4, ,48, ,
3, ,46, ,
-1, ,44, ,
5, ,40, ,
0, ,40, ,
-1, ,37, ,
3, ,36, ,
3, ,34, ,
3, ,31, ,
1, ,30, ,
1, ,29, ,
4, ,28, ,
1, ,25, ,
3, ,22, ,
3, ,20, ,
1, ,19, ,
5, ,17, ,
1, ,16, ,
3, ,14, ,
1, ,12, ,
0, ,10, ,
4, ,9, ,
-4, ,7, ,
0, ,4, ,
0, ,3, ,
1, ,1, ,
1, ,-1, ,
-1, ,-3, ,
3, ,-4, ,
3, ,-6, ,
1, ,-8, ,
3, ,-9, ,
1, ,-11, ,
4, ,-13, ,
-4, ,-16, ,
8, ,-18, ,
-2, ,-20, ,
0, ,-21, ,
1, ,-23, ,
3, ,-25, ,
-4, ,-27, ,
4, ,-28, ,
1, ,-30, ,
0, ,-32, ,
3, ,-35, ,
4, ,-36, ,
-1, ,-38, ,
1, ,-40, ,
1, ,-41, ,
3, ,-42, ,
4, ,-40, ,
1, ,-38, ,
1, ,-36, ,
1, ,-35, ,
1, ,-32, ,
-1, ,-30, ,
1, ,-28, ,
-1, ,-26, ,
3, ,-25, ,
4, ,-23, ,
5, ,-21, ,
3, ,-19, ,
1, ,-18, ,
1, ,-16, ,
1, ,-13, ,
3, ,-11, ,
5, ,-10, ,
4, ,-8, ,
-1, ,-6, ,
3, ,-4, ,
3, ,-3, ,
-1, ,-1, ,
4, ,1, ,
-2, ,2, ,
0, ,4, ,
1, ,7, ,
0, ,8, ,
0, ,10, ,
4, ,12, ,
-2, ,14, ,
3, ,15, ,
0, ,17, ,
3, ,18, ,
5, ,21, ,
-4, ,22, ,
4, ,26, ,
1, ,27, ,
3, ,28, ,
4, ,30, ,
1, ,32, ,
3, ,34, ,
3, ,36, ,
1, ,38, ,
1, ,38, ,
3, ,40, ,
0, ,44, ,
3, ,45, ,
4, ,48, ,
3, ,49, ,
1, ,48, ,
5, ,47, ,
1, ,46, ,
3, ,44, ,
3, ,42, ,
3, ,40, ,
3, ,37, ,
3, ,36, ,
4, ,34, ,
1, ,33, ,
3, ,31, ,
0, ,29, ,
1, ,28, ,
3, ,25, ,
-1, ,23, ,
4, ,21, ,
1, ,20, ,
0, ,18, ,
-1, ,16, ,
5, ,14, ,
1, ,13, ,
0, ,11, ,
6, ,9, ,
4, ,7, ,
1, ,6, ,
1, ,3, ,
0, ,1, ,
4, ,0, ,
6, ,-2, ,
3, ,-4, ,
3, ,-6, ,
3, ,-7, ,
3, ,-9, ,
1, ,-11, ,
-1, ,-13, ,
3, ,-14, ,
1, ,-17, ,
1, ,-19, ,
5, ,-21, ,
1, ,-22, ,
3, ,-24, ,
4, ,-26, ,
0, ,-27, ,
1, ,-29, ,
0, ,-31, ,
1, ,-33, ,
0, ,-35, ,
3, ,-37, ,
-1, ,-39, ,
3, ,-41, ,
0, ,-43, ,
0, ,-41, ,
1, ,-39, ,
3, ,-37, ,
3, ,-35, ,
4, ,-32, ,
1, ,-31, ,
3, ,-29, ,
4, ,-27, ,
-1, ,-25, ,
3, ,-24, ,
1, ,-22, ,
3, ,-20, ,
4, ,-19, ,
4, ,-17, ,
3, ,-14, ,
3, ,-12, ,
4, ,-10, ,
4, ,-9, ,
3, ,-7, ,
3, ,-5, ,
4, ,-4, ,
1, ,-2, ,
3, ,0, ,
5, ,2, ,
4, ,3, ,
5, ,6, ,
3, ,8, ,
-1, ,9, ,
3, ,11, ,
4, ,13, ,
4, ,14, ,
5, ,17, ,
3, ,18, ,
3, ,19, ,
1, ,21, ,
5, ,23, ,
1, ,26, ,
0, ,28, ,
4, ,30, ,
3, ,31, ,
3, ,33, ,
-1, ,35, ,
3, ,36, ,
0, ,38, ,
4, ,40, ,
0, ,41, ,
1, ,44, ,
1, ,47, ,
4, ,48, ,
0, ,50, ,
1, ,49, ,
3, ,48, ,
-1, ,46, ,
1, ,44, ,
-2, ,41, ,
1, ,38, ,
4, ,38, ,
4, ,35, ,
0, ,34, ,
4, ,32, ,
3, ,30, ,
4, ,29, ,
3, ,27, ,
3, ,26, ,
1, ,22, ,
1, ,21, ,
3, ,19, ,
3, ,17, ,
3, ,16, ,
3, ,14, ,
0, ,12, ,
3, ,10, ,
4, ,8, ,
3, ,7, ,
1, ,4, ,
4, ,3, ,
3, ,1, ,
3, ,-1, ,
4, ,-3, ,
1, ,-4, ,
0, ,-6, ,
3, ,-8, ,
1, ,-9, ,
3, ,-11, ,
1, ,-13, ,
1, ,-16, ,
0, ,-17, ,
3, ,-19, ,
0, ,-21, ,
1, ,-23, ,
1, ,-24, ,
3, ,-26, ,
4, ,-28, ,
-4, ,-30, ,
4, ,-31, ,
3, ,-33, ,
1, ,-36, ,
0, ,-38, ,
0, ,-39, ,
1, ,-41, ,
3, ,-42, ,
5, ,-41, ,
1, ,-39, ,
3, ,-37, ,
0, ,-35, ,
1, ,-32, ,
1, ,-31, ,
4, ,-29, ,
1, ,-27, ,
3, ,-25, ,
5, ,-24, ,
4, ,-22, ,
3, ,-20, ,
1, ,-18, ,
5, ,-17, ,
3, ,-14, ,
-1, ,-12, ,
3, ,-10, ,
1, ,-9, ,
4, ,-7, ,
1, ,-5, ,
3, ,-3, ,
4, ,-2, ,
4, ,0, ,
0, ,2, ,
5, ,3, ,
0, ,6, ,
1, ,8, ,
1, ,9, ,
3, ,11, ,
1, ,13, ,
-2, ,15, ,
0, ,16, ,
4, ,18, ,
1, ,20, ,
3, ,21, ,
-2, ,23, ,
4, ,26, ,
1, ,28, ,
5, ,30, ,
1, ,31, ,
4, ,32, ,
4, ,35, ,
3, ,36, ,
4, ,39, ,
-1, ,40, ,
3, ,41, ,
1, ,44, ,
3, ,47, ,
3, ,47, ,
1, ,49, ,
3, ,49, ,
3, ,46, ,
0, ,45, ,
3, ,42, ,
3, ,41, ,
4, ,39, ,
4, ,37, ,
4, ,35, ,
0, ,34, ,
1, ,32, ,
3, ,30, ,
0, ,29, ,
3, ,26, ,
5, ,25, ,
3, ,23, ,
0, ,21, ,
1, ,19, ,
3, ,17, ,
3, ,15, ,
3, ,14, ,
0, ,12, ,
3, ,10, ,
-2, ,9, ,
3, ,7, ,
-2, ,4, ,
1, ,2, ,
3, ,1, ,
3, ,-1, ,
-2, ,-2, ,
4, ,-4, ,
-2, ,-6, ,
1, ,-8, ,
-1, ,-9, ,
1, ,-11, ,
3, ,-13, ,
1, ,-16, ,
-4, ,-17, ,
4, ,-19, ,
0, ,-21, ,
0, ,-23, ,
4, ,-25, ,
-2, ,-26, ,
1, ,-28, ,
0, ,-30, ,
0, ,-31, ,
0, ,-33, ,
4, ,-36, ,
3, ,-38, ,
1, ,-39, ,
0, ,-41, ,
1, ,-43, ,
-2, ,-40, ,
3, ,-38, ,
3, ,-37, ,
0, ,-35, ,
1, ,-32, ,
3, ,-30, ,
0, ,-29, ,
0, ,-27, ,
0, ,-25, ,
4, ,-23, ,
1, ,-22, ,
1, ,-20, ,
-1, ,-18, ,
3, ,-17, ,
-2, ,-14, ,
3, ,-12, ,
1, ,-10, ,
1, ,-9, ,
-2, ,-7, ,
3, ,-5, ,
-1, ,-4, ,
1, ,-2, ,
1, ,0, ,
1, ,2, ,
3, ,3, ,
0, ,6, ,
-1, ,8, ,
1, ,10, ,
1, ,11, ,
-1, ,13, ,
0, ,14, ,
5, ,16, ,
4, ,18, ,
3, ,20, ,
1, ,22, ,
-1, ,23, ,
3, ,26, ,
4, ,28, ,
4, ,30, ,
4, ,32, ,
1, ,33, ,
6, ,34, ,
0, ,37, ,
1, ,38, ,
3, ,40, ,
-1, ,42, ,
5, ,44, ,
-2, ,47, ,
1, ,48, ,
1, ,50, ,
3, ,50, ,
4, ,47, ,
3, ,45, ,
5, ,42, ,
4, ,41, ,
3, ,39, ,
-1, ,38, ,
1, ,35, ,
3, ,33, ,
-1, ,32, ,
3, ,30, ,
3, ,28, ,
4, ,27, ,
1, ,25, ,
0, ,22, ,
1, ,21, ,
1, ,19, ,
-2, ,17, ,
3, ,15, ,
-4, ,13, ,
3, ,12, ,
-1, ,10, ,
0, ,8, ,
-1, ,7, ,
3, ,4, ,
0, ,2, ,
4, ,1, ,
-1, ,-1, ,
1, ,-3, ,
-2, ,-5, ,
3, ,-6, ,
4, ,-8, ,
3, ,-10, ,
3, ,-12, ,
1, ,-13, ,
4, ,-16, ,
4, ,-18, ,
3, ,-20, ,
1, ,-21, ,
1, ,-23, ,
-1, ,-25, ,
3, ,-27, ,
1, ,-29, ,
1, ,-31, ,
1, ,-32, ,
-1, ,-33, ,
6, ,-36, ,
-1, ,-38, ,
1, ,-40, ,
4, ,-42, ,
4, ,-42, ,
-1, ,-40, ,
5, ,-38, ,
0, ,-36, ,
0, ,-33, ,
5, ,-32, ,
3, ,-30, ,
-4, ,-28, ,
-1, ,-27, ,
4, ,-25, ,
5, ,-23, ,
0, ,-21, ,
3, ,-19, ,
1, ,-18, ,
3, ,-16, ,
5, ,-13, ,
1, ,-11, ,
3, ,-10, ,
4, ,-8, ,
1, ,-6, ,
0, ,-4, ,
5, ,-3, ,
1, ,-1, ,
3, ,1, ,
4, ,2, ,
0, ,4, ,
3, ,7, ,
-1, ,8, ,
0, ,10, ,
1, ,12, ,
-5, ,14, ,
1, ,15, ,
3, ,17, ,
4, ,18, ,
1, ,20, ,
1, ,22, ,
0, ,25, ,
3, ,27, ,
5, ,28, ,
1, ,30, ,
3, ,32, ,
4, ,34, ,
1, ,35, ,
1, ,37, ,
3, ,38, ,
1, ,41, ,
3, ,44, ,
1, ,45, ,
-2, ,47, ,
4, ,49, ,
-1, ,48, ,
1, ,48, ,
3, ,47, ,
1, ,44, ,
4, ,41, ,
3, ,39, ,
3, ,37, ,
5, ,36, ,
4, ,35, ,
3, ,32, ,
1, ,31, ,
3, ,29, ,
3, ,27, ,
1, ,26, ,
-2, ,23, ,
1, ,21, ,
-4, ,19, ,
4, ,18, ,
0, ,16, ,
1, ,14, ,
0, ,13, ,
3, ,11, ,
1, ,9, ,
-4, ,7, ,
1, ,6, ,
-2, ,3, ,
5, ,1, ,
0, ,-1, ,
3, ,-2, ,
1, ,-4, ,
0, ,-6, ,
1, ,-8, ,
4, ,-9, ,
-1, ,-11, ,
0, ,-13, ,
3, ,-14, ,
3, ,-17, ,
0, ,-19, ,
-1, ,-21, ,
5, ,-23, ,
1, ,-24, ,
1, ,-26, ,
1, ,-28, ,
3, ,-30, ,
1, ,-31, ,
0, ,-33, ,
3, ,-36, ,
5, ,-38, ,
0, ,-39, ,
1, ,-42, ,
4, ,-42, ,
-1, ,-40, ,
4, ,-38, ,
4, ,-37, ,
1, ,-35, ,
3, ,-32, ,
-1, ,-30, ,
4, ,-29, ,
5, ,-27, ,
4, ,-25, ,
1, ,-23, ,
0, ,-22, ,
-5, ,-20, ,
5, ,-18, ,
-2, ,-16, ,
3, ,-13, ,
3, ,-12, ,
0, ,-10, ,
0, ,-8, ,
3, ,-6, ,
-4, ,-5, ,
3, ,-3, ,
-2, ,-1, ,
1, ,0, ,
5, ,2, ,
3, ,4, ,
0, ,7, ,
1, ,8, ,
3, ,10, ,
0, ,12, ,
3, ,14, ,
-1, ,15, ,
-1, ,17, ,
3, ,19, ,
0, ,21, ,
1, ,22, ,
4, ,25, ,
3, ,26, ,
-1, ,28, ,
1, ,30, ,
1, ,32, ,
1, ,34, ,
-4, ,36, ,
1, ,38, ,
4, ,39, ,
3, ,41, ,
4, ,44, ,
0, ,46, ,
3, ,47, ,
0, ,49, ,
4, ,49, ,
0, ,48, ,
0, ,46, ,
1, ,44, ,
1, ,42, ,
3, ,39, ,
5, ,38, ,
3, ,36, ,
-1, ,33, ,
3, ,32, ,
1, ,31, ,
1, ,29, ,
0, ,27, ,
-1, ,25, ,
4, ,22, ,
-2, ,21, ,
0, ,19, ,
0, ,17, ,
4, ,15, ,
3, ,14, ,
1, ,12, ,
4, ,10, ,
1, ,8, ,
1, ,7, ,
3, ,4, ,
-1, ,3, ,
5, ,1, ,
3, ,-1, ,
1, ,-3, ,
3, ,-4, ,
3, ,-6, ,
-1, ,-8, ,
1, ,-10, ,
0, ,-12, ,
3, ,-13, ,
0, ,-16, ,
-1, ,-18, ,
3, ,-20, ,
5, ,-21, ,
1, ,-23, ,
4, ,-25, ,
1, ,-27, ,
-1, ,-28, ,
0, ,-30, ,
4, ,-32, ,
3, ,-35, ,
0, ,-37, ,
4, ,-38, ,
3, ,-40, ,
1, ,-42, ,
0, ,-41, ,
1, ,-40, ,
4, ,-38, ,
-2, ,-36, ,
-1, ,-33, ,
-1, ,-31, ,
3, ,-30, ,
3, ,-27, ,
1, ,-26, ,
-4, ,-24, ,
3, ,-22, ,
0, ,-21, ,
4, ,-19, ,
4, ,-17, ,
4, ,-14, ,
3, ,-12, ,
-4, ,-11, ,
3, ,-9, ,
5, ,-7, ,
-4, ,-5, ,
0, ,-4, ,
1, ,-2, ,
3, ,0, ,
-2, ,1, ,
1, ,3, ,
-1, ,6, ,
0, ,8, ,
0, ,9, ,
1, ,11, ,
3, ,13, ,
1, ,15, ,
0, ,16, ,
-2, ,18, ,
3, ,20, ,
-2, ,21, ,
3, ,23, ,
1, ,26, ,
5, ,28, ,
3, ,29, ,
0, ,32, ,
0, ,34, ,
4, ,35, ,
1, ,37, ,
3, ,39, ,
4, ,40, ,
3, ,41, ,
-2, ,46, ,
1, ,47, ,
1, ,48, ,
1, ,50, ,
-1, ,49, ,
4, ,45, ,
-2, ,45, ,
4, ,41, ,
0, ,40, ,
1, ,38, ,
0, ,37, ,
4, ,35, ,
-2, ,33, ,
3, ,31, ,
-1, ,29, ,
4, ,27, ,
5, ,26, ,
4, ,23, ,
3, ,21, ,
-1, ,19, ,
1, ,18, ,
-4, ,16, ,
3, ,14, ,
0, ,12, ,
3, ,11, ,
-1, ,9, ,
3, ,7, ,
1, ,4, ,
4, ,3, ,
3, ,1, ,
1, ,-1, ,
1, ,-2, ,
3, ,-4, ,
5, ,-6, ,
4, ,-8, ,
1, ,-9, ,
1, ,-11, ,
3, ,-13, ,
3, ,-16, ,
-1, ,-17, ,
1, ,-19, ,
-1, ,-21, ,
3, ,-23, ,
-2, ,-25, ,
0, ,-26, ,
4, ,-28, ,
3, ,-30, ,
4, ,-32, ,
1, ,-35, ,
-1, ,-36, ,
1, ,-38, ,
6, ,-40, ,
5, ,-41, ,
3, ,-42, ,
3, ,-39, ,
5, ,-38, ,
0, ,-36, ,
5, ,-35, ,
0, ,-32, ,
0, ,-30, ,
3, ,-28, ,
0, ,-26, ,
3, ,-25, ,
1, ,-23, ,
1, ,-21, ,
3, ,-19, ,
3, ,-17, ,
1, ,-16, ,
1, ,-13, ,
4, ,-11, ,
0, ,-9, ,
1, ,-7, ,
3, ,-6, ,
-1, ,-4, ,
-1, ,-2, ,
1, ,0, ,
0, ,1, ,
4, ,3, ,
0, ,6, ,
3, ,8, ,
-1, ,9, ,
3, ,11, ,
0, ,13, ,
1, ,14, ,
-2, ,16, ,
3, ,18, ,
-2, ,20, ,
1, ,21, ,
4, ,23, ,
3, ,26, ,
3, ,28, ,
3, ,30, ,
4, ,32, ,
-1, ,33, ,
1, ,35, ,
1, ,37, ,
4, ,39, ,
0, ,40, ,
1, ,42, ,
6, ,45, ,
0, ,46, ,
0, ,49, ,
3, ,50, ,
-2, ,47, ,
4, ,46, ,
0, ,45, ,
3, ,42, ,
0, ,40, ,
4, ,38, ,
1, ,36, ,
1, ,34, ,
4, ,33, ,
1, ,32, ,
0, ,29, ,
3, ,27, ,
3, ,26, ,
3, ,23, ,
-4, ,21, ,
1, ,20, ,
1, ,18, ,
1, ,16, ,
-1, ,14, ,
4, ,13, ,
-2, ,11, ,
3, ,9, ,
0, ,7, ,
1, ,4, ,
3, ,3, ,
1, ,1, ,
1, ,-1, ,
3, ,-2, ,
3, ,-4, ,
5, ,-6, ,
0, ,-8, ,
4, ,-9, ,
4, ,-11, ,
3, ,-13, ,
0, ,-16, ,
3, ,-17, ,
3, ,-19, ,
1, ,-21, ,
5, ,-23, ,
3, ,-25, ,
1, ,-26, ,
4, ,-28, ,
-2, ,-30, ,
5, ,-32, ,
1, ,-33, ,
-1, ,-36, ,
4, ,-38, ,
1, ,-40, ,
3, ,-42, ,
3, ,-42, ,
4, ,-40, ,
3, ,-38, ,
5, ,-36, ,
4, ,-33, ,
4, ,-32, ,
3, ,-30, ,
3, ,-28, ,
0, ,-26, ,
3, ,-25, ,
-2, ,-23, ,
4, ,-21, ,
-1, ,-19, ,
0, ,-17, ,
0, ,-16, ,
1, ,-13, ,
0, ,-11, ,
5, ,-9, ,
-4, ,-7, ,
1, ,-6, ,
3, ,-4, ,
0, ,-2, ,
3, ,0, ,
-2, ,1, ,
3, ,3, ,
5, ,6, ,
1, ,7, ,
-1, ,9, ,
4, ,11, ,
4, ,13, ,
3, ,14, ,
4, ,16, ,
3, ,18, ,
3, ,19, ,
3, ,21, ,
4, ,22, ,
1, ,26, ,
5, ,28, ,
3, ,30, ,
1, ,31, ,
-1, ,33, ,
1, ,35, ,
-1, ,37, ,
3, ,38, ,
-1, ,40, ,
3, ,41, ,
4, ,42, ,
-1, ,46, ,
4, ,48, ,
0, ,49, ,
3, ,48, ,
3, ,46, ,
1, ,45, ,
0, ,42, ,
0, ,40, ,
1, ,39, ,
3, ,37, ,
-1, ,35, ,
4, ,33, ,
-1, ,31, ,
3, ,29, ,
-1, ,28, ,
3, ,26, ,
-1, ,23, ,
3, ,22, ,
3, ,20, ,
3, ,18, ,
0, ,17, ,
4, ,15, ,
0, ,13, ,
1, ,11, ,
5, ,9, ,
4, ,8, ,
4, ,6, ,
3, ,3, ,
3, ,1, ,
3, ,0, ,
5, ,-2, ,
4, ,-4, ,
3, ,-5, ,
0, ,-7, ,
5, ,-9, ,
-1, ,-11, ,
4, ,-13, ,
0, ,-16, ,
3, ,-17, ,
5, ,-19, ,
3, ,-21, ,
-1, ,-22, ,
1, ,-24, ,
-2, ,-26, ,
4, ,-28, ,
5, ,-29, ,
-2, ,-31, ,
0, ,-33, ,
3, ,-36, ,
3, ,-38, ,
0, ,-39, ,
3, ,-41, ,
-1, ,-42, ,
0, ,-41, ,
0, ,-39, ,
4, ,-37, ,
4, ,-35, ,
4, ,-32, ,
-1, ,-31, ,
1, ,-29, ,
1, ,-27, ,
3, ,-25, ,
-2, ,-23, ,
5, ,-22, ,
4, ,-20, ,
3, ,-18, ,
1, ,-16, ,
-1, ,-13, ,
4, ,-11, ,
-2, ,-10, ,
4, ,-8, ,
0, ,-6, ,
3, ,-5, ,
-1, ,-3, ,
3, ,-1, ,
-1, ,1, ,
4, ,3, ,
4, ,4, ,
1, ,7, ,
3, ,9, ,
1, ,10, ,
-2, ,12, ,
1, ,13, ,
4, ,16, ,
-1, ,17, ,
3, ,19, ,
0, ,20, ,
1, ,22, ,
-1, ,25, ,
1, ,27, ,
0, ,28, ,
1, ,30, ,
-1, ,32, ,
4, ,34, ,
3, ,36, ,
1, ,38, ,
0, ,40, ,
3, ,41, ,
1, ,44, ,
5, ,45, ,
-2, ,48, ,
5, ,49, ,
3, ,49, ,
3, ,48, ,
4, ,45, ,
5, ,45, ,
1, ,41, ,
4, ,39, ,
3, ,38, ,
1, ,36, ,
3, ,33, ,
5, ,32, ,
3, ,31, ,
0, ,29, ,
4, ,27, ,
0, ,25, ,
1, ,22, ,
0, ,21, ,
3, ,19, ,
0, ,18, ,
3, ,16, ,
-1, ,14, ,
1, ,12, ,
4, ,10, ,
4, ,9, ,
1, ,7, ,
3, ,4, ,
-2, ,3, ,
3, ,1, ,
-1, ,-1, ,
3, ,-3, ,
0, ,-4, ,
4, ,-6, ,
3, ,-8, ,
4, ,-9, ,
4, ,-11, ,
-2, ,-13, ,
5, ,-16, ,
1, ,-18, ,
3, ,-19, ,
-1, ,-21, ,
0, ,-23, ,
0, ,-25, ,
4, ,-26, ,
-2, ,-28, ,
1, ,-30, ,
0, ,-32, ,
4, ,-35, ,
1, ,-36, ,
1, ,-38, ,
3, ,-40, ,
0, ,-41, ,
1, ,-42, ,
4, ,-40, ,
1, ,-38, ,
3, ,-36, ,
3, ,-35, ,
1, ,-32, ,
0, ,-30, ,
1, ,-28, ,
0, ,-27, ,
3, ,-25, ,
-2, ,-23, ,
1, ,-21, ,
4, ,-19, ,
3, ,-18, ,
3, ,-16, ,
5, ,-13, ,
-2, ,-11, ,
3, ,-10, ,
0, ,-8, ,
3, ,-6, ,
-2, ,-5, ,
3, ,-3, ,
-2, ,-1, ,
4, ,0, ,
4, ,2, ,
3, ,4, ,
3, ,7, ,
1, ,8, ,
-1, ,10, ,
0, ,12, ,
-1, ,14, ,
3, ,16, ,
3, ,17, ,
-1, ,19, ,
1, ,21, ,
-1, ,22, ,
1, ,25, ,
3, ,27, ,
4, ,28, ,
-2, ,30, ,
3, ,32, ,
1, ,34, ,
0, ,36, ,
-1, ,37, ,
4, ,39, ,
3, ,40, ,
-2, ,44, ,
3, ,45, ,
0, ,47, ,
-1, ,49, ,
4, ,48, ,
-2, ,48, ,
4, ,46, ,
4, ,44, ,
5, ,41, ,
5, ,39, ,
4, ,38, ,
3, ,36, ,
0, ,35, ,
6, ,33, ,
1, ,31, ,
3, ,29, ,
4, ,27, ,
3, ,25, ,
4, ,23, ,
1, ,21, ,
4, ,19, ,
3, ,18, ,
1, ,16, ,
1, ,14, ,
3, ,13, ,
0, ,11, ,
1, ,9, ,
-2, ,7, ,
3, ,6, ,
0, ,3, ,
4, ,1, ,
3, ,0, ,
3, ,-2, ,
3, ,-4, ,
4, ,-6, ,
3, ,-7, ,
3, ,-9, ,
0, ,-11, ,
3, ,-13, ,
1, ,-14, ,
1, ,-17, ,
4, ,-19, ,
4, ,-20, ,
-1, ,-22, ,
0, ,-24, ,
0, ,-26, ,
-1, ,-28, ,
1, ,-29, ,
0, ,-31, ,
0, ,-33, ,
3, ,-36, ,
0, ,-37, ,
1, ,-39, ,
3, ,-41, ,
4, ,-43, ,
0, ,-41, ,
6, ,-39, ,
0, ,-37, ,
-1, ,-35, ,
4, ,-32, ,
4, ,-31, ,
3, ,-29, ,
0, ,-27, ,
0, ,-25, ,
3, ,-24, ,
1, ,-22, ,
4, ,-20, ,
0, ,-18, ,
-1, ,-17, ,
1, ,-14, ,
3, ,-12, ,
-2, ,-11, ,
3, ,-9, ,
3, ,-7, ,
-1, ,-5, ,
1, ,-4, ,
4, ,-2, ,
4, ,0, ,
-1, ,1, ,
4, ,3, ,
0, ,6, ,
4, ,8, ,
1, ,9, ,
3, ,11, ,
5, ,13, ,
1, ,15, ,
0, ,16, ,
1, ,17, ,
3, ,19, ,
3, ,21, ,
1, ,23, ,
1, ,26, ,
4, ,27, ,
3, ,29, ,
3, ,31, ,
3, ,33, ,
1, ,34, ,
3, ,36, ,
1, ,37, ,
3, ,39, ,
3, ,42, ,
-1, ,45, ,
5, ,46, ,
-1, ,48, ,
1, ,49, ,
0, ,50, ,
4, ,48, ,
0, ,45, ,
1, ,44, ,
-1, ,40, ,
4, ,40, ,
1, ,38, ,
4, ,36, ,
4, ,34, ,
3, ,32, ,
4, ,30, ,
3, ,28, ,
4, ,26, ,
-2, ,25, ,
1, ,22, ,
1, ,21, ,
0, ,19, ,
4, ,17, ,
1, ,16, ,
5, ,14, ,
0, ,12, ,
1, ,10, ,
5, ,9, ,
-2, ,7, ,
3, ,4, ,
3, ,3, ,
3, ,1, ,
-2, ,-1, ,
4, ,-3, ,
0, ,-4, ,
3, ,-6, ,
-1, ,-8, ,
1, ,-10, ,
-4, ,-11, ,
1, ,-13, ,
3, ,-16, ,
4, ,-17, ,
1, ,-19, ,
4, ,-21, ,
-1, ,-23, ,
3, ,-24, ,
1, ,-26, ,
1, ,-28, ,
3, ,-30, ,
0, ,-31, ,
0, ,-33, ,
1, ,-36, ,
-4, ,-37, ,
3, ,-39, ,
1, ,-41, ,
4, ,-43, ,
