src/test_folder/temp50000030.CSV

Format,1.0B,
Memory Length,10000,Memory Length,10000,
IntpDistance,0,IntpDistance,0,
Trigger Address,4999,Trigger Address,4999,
Trigger Level,1.760E+00,Trigger Level,1.760E+00,
Source,CH1,Source,CH2,
Vertical Units,V,Vertical Units,V,
Vertical Units Div,0,Vertical Units Div,0,
Vertical Units Extend Div,16,Vertical Units Extend Div,16,
Label,,Label,,
Probe Type,0,Probe Type,0,
Probe Ratio,1.000e+01,Probe Ratio,1.000e+00,
Vertical Scale,2.000e-02,Vertical Scale,1.000e+00,
Vertical Position,-5.120e-02,Vertical Position,2.000e-01,
Horizontal Units,S,Horizontal Units,S,
Horizontal Scale,1.000E+00,Horizontal Scale,1.000E+00,
Horizontal Position,0.000E+00,Horizontal Position,0.000E+00,
Horizontal Mode,Roll Mode,Horizontal Mode,Roll Mode,
Display Last Dot Address,10000,Display Last Dot Address,10000,
Waveform Last Dot Address,0,Waveform Last Dot Address,0,
SincET Mode,Real Time,SincET Mode,Real Time,
Sampling Period,1.000e-03,Sampling Period,1.000e-03,
Horizontal Old Scale,1.000E+00,Horizontal Old Scale,1.000E+00,
Mode,Fast,Mode,Fast,
Firmware,V1.23,,Firmware,V1.23,,
1, ,-42, ,
3, ,-42, ,
0, ,-40, ,
4, ,-38, ,
3, ,-36, ,
4, ,-33, ,
3, ,-32, ,
3, ,-30, ,
4, ,-28, ,
3, ,-26, ,
3, ,-25, ,
4, ,-23, ,
-1, ,-21, ,
3, ,-19, ,
1, ,-17, ,
1, ,-16, ,
1, ,-13, ,
4, ,-11, ,
-1, ,-9, ,
1, ,-8, ,
1, ,-6, ,
3, ,-4, ,
3, ,-2, ,
1, ,-1, ,
-2, ,1, ,
3, ,3, ,
4, ,6, ,
3, ,8, ,
1, ,9, ,
1, ,11, ,
3, ,13, ,
1, ,14, ,
4, ,16, ,
0, ,18, ,
1, ,19, ,
1, ,22, ,
0, ,23, ,
3, ,26, ,
-2, ,27, ,
3, ,30, ,
3, ,31, ,
3, ,33, ,
-2, ,35, ,
4, ,37, ,
-1, ,38, ,
0, ,40, ,
0, ,41, ,
3, ,45, ,
3, ,46, ,
1, ,48, ,
4, ,50, ,
1, ,48, ,
-1, ,46, ,
5, ,45, ,
-2, ,42, ,
4, ,41, ,
1, ,39, ,
3, ,38, ,
-1, ,35, ,
5, ,33, ,
3, ,31, ,
0, ,29, ,
5, ,28, ,
3, ,26, ,
4, ,23, ,
0, ,22, ,
1, ,20, ,
3, ,18, ,
4, ,16, ,
3, ,15, ,
1, ,13, ,
3, ,11, ,
4, ,10, ,
0, ,8, ,
4, ,6, ,
1, ,3, ,
3, ,2, ,
4, ,0, ,
-1, ,-2, ,
4, ,-4, ,
1, ,-5, ,
3, ,-7, ,
3, ,-9, ,
4, ,-11, ,
0, ,-12, ,
3, ,-14, ,
-4, ,-17, ,
5, ,-19, ,
1, ,-20, ,
3, ,-22, ,
1, ,-24, ,
1, ,-26, ,
-2, ,-28, ,
3, ,-29, ,
5, ,-31, ,
4, ,-33, ,
1, ,-36, ,
-5, ,-38, ,
1, ,-39, ,
3, ,-41, ,
4, ,-42, ,
1, ,-41, ,
5, ,-38, ,
-1, ,-36, ,
0, ,-35, ,
0, ,-32, ,
1, ,-31, ,
1, ,-29, ,
0, ,-27, ,
1, ,-25, ,
3, ,-24, ,
0, ,-21, ,
3, ,-20, ,
3, ,-18, ,
0, ,-16, ,
0, ,-14, ,
1, ,-12, ,
0, ,-10, ,
3, ,-8, ,
0, ,-7, ,
1, ,-5, ,
-2, ,-3, ,
4, ,-1, ,
0, ,1, ,
1, ,2, ,
4, ,4, ,
0, ,7, ,
3, ,8, ,
3, ,10, ,
0, ,12, ,
3, ,13, ,
-2, ,15, ,
1, ,17, ,
0, ,19, ,
4, ,20, ,
1, ,22, ,
3, ,25, ,
-1, ,27, ,
1, ,28, ,
3, ,30, ,
3, ,32, ,
1, ,34, ,
0, ,36, ,
3, ,37, ,
1, ,38, ,
1, ,40, ,
-4, ,44, ,
3, ,46, ,
-1, ,47, ,
3, ,49, ,
1, ,49, ,
1, ,47, ,
-1, ,46, ,
4, ,44, ,
4, ,41, ,
3, ,39, ,
4, ,38, ,
3, ,36, ,
0, ,34, ,
5, ,33, ,
-1, ,31, ,
1, ,29, ,
1, ,27, ,
1, ,25, ,
4, ,23, ,
-4, ,21, ,
4, ,19, ,
1, ,17, ,
1, ,15, ,
4, ,14, ,
3, ,12, ,
-5, ,11, ,
1, ,9, ,
0, ,7, ,
0, ,4, ,
-2, ,3, ,
4, ,1, ,
-1, ,-1, ,
4, ,-2, ,
0, ,-4, ,
3, ,-6, ,
-2, ,-8, ,
5, ,-9, ,
0, ,-11, ,
1, ,-13, ,
5, ,-16, ,
1, ,-17, ,
1, ,-19, ,
-1, ,-21, ,
3, ,-23, ,
3, ,-25, ,
3, ,-26, ,
1, ,-28, ,
1, ,-30, ,
4, ,-32, ,
4, ,-33, ,
1, ,-36, ,
0, ,-38, ,
1, ,-40, ,
-1, ,-42, ,
3, ,-42, ,
-1, ,-40, ,
1, ,-38, ,
4, ,-37, ,
1, ,-35, ,
5, ,-32, ,
3, ,-30, ,
1, ,-28, ,
6, ,-27, ,
4, ,-25, ,
-2, ,-23, ,
-2, ,-21, ,
1, ,-20, ,
3, ,-18, ,
0, ,-16, ,
4, ,-13, ,
0, ,-11, ,
-2, ,-10, ,
1, ,-8, ,
1, ,-6, ,
3, ,-5, ,
4, ,-3, ,
4, ,-1, ,
-1, ,1, ,
3, ,2, ,
-1, ,4, ,
3, ,6, ,
3, ,8, ,
1, ,10, ,
3, ,12, ,
-2, ,14, ,
4, ,15, ,
4, ,17, ,
4, ,18, ,
3, ,20, ,
3, ,22, ,
4, ,26, ,
3, ,27, ,
1, ,28, ,
0, ,30, ,
1, ,31, ,
-2, ,33, ,
4, ,36, ,
1, ,37, ,
3, ,39, ,
4, ,41, ,
1, ,44, ,
1, ,45, ,
4, ,48, ,
4, ,49, ,
5, ,49, ,
0, ,48, ,
3, ,46, ,
1, ,44, ,
-2, ,40, ,
3, ,39, ,
4, ,38, ,
1, ,36, ,
1, ,35, ,
4, ,32, ,
-1, ,30, ,
4, ,29, ,
0, ,28, ,
0, ,26, ,
1, ,23, ,
3, ,21, ,
3, ,19, ,
1, ,18, ,
4, ,16, ,
1, ,15, ,
0, ,13, ,
3, ,11, ,
1, ,9, ,
1, ,8, ,
6, ,6, ,
-1, ,3, ,
3, ,1, ,
1, ,0, ,
3, ,-2, ,
3, ,-4, ,
3, ,-6, ,
-1, ,-7, ,
1, ,-9, ,
0, ,-11, ,
1, ,-13, ,
0, ,-14, ,
1, ,-17, ,
1, ,-19, ,
-1, ,-21, ,
4, ,-22, ,
-2, ,-24, ,
3, ,-26, ,
3, ,-27, ,
4, ,-29, ,
3, ,-31, ,
1, ,-32, ,
-1, ,-36, ,
5, ,-37, ,
1, ,-39, ,
3, ,-41, ,
3, ,-42, ,
-1, ,-41, ,
3, ,-39, ,
-2, ,-37, ,
3, ,-36, ,
4, ,-33, ,
-1, ,-31, ,
1, ,-29, ,
3, ,-28, ,
1, ,-26, ,
3, ,-24, ,
0, ,-22, ,
0, ,-20, ,
4, ,-19, ,
0, ,-17, ,
4, ,-14, ,
-2, ,-13, ,
3, ,-11, ,
6, ,-9, ,
3, ,-7, ,
3, ,-6, ,
1, ,-4, ,
1, ,-2, ,
1, ,0, ,
5, ,1, ,
4, ,3, ,
4, ,6, ,
3, ,7, ,
3, ,9, ,
1, ,11, ,
3, ,13, ,
3, ,14, ,
5, ,16, ,
1, ,17, ,
-2, ,19, ,
6, ,22, ,
-1, ,23, ,
4, ,26, ,
-1, ,27, ,
1, ,29, ,
-2, ,31, ,
4, ,33, ,
-2, ,35, ,
1, ,36, ,
4, ,38, ,
4, ,40, ,
-1, ,41, ,
4, ,44, ,
4, ,46, ,
1, ,48, ,
4, ,49, ,
3, ,48, ,
1, ,47, ,
1, ,45, ,
3, ,44, ,
0, ,41, ,
3, ,40, ,
-1, ,38, ,
3, ,36, ,
1, ,34, ,
3, ,32, ,
4, ,31, ,
1, ,29, ,
-2, ,27, ,
1, ,25, ,
-1, ,23, ,
1, ,21, ,
3, ,19, ,
1, ,17, ,
1, ,16, ,
1, ,14, ,
0, ,12, ,
1, ,11, ,
-2, ,9, ,
4, ,7, ,
-2, ,4, ,
3, ,3, ,
1, ,1, ,
4, ,-1, ,
4, ,-2, ,
3, ,-4, ,
3, ,-6, ,
0, ,-7, ,
0, ,-9, ,
6, ,-11, ,
1, ,-13, ,
4, ,-14, ,
3, ,-17, ,
1, ,-19, ,
-1, ,-21, ,
1, ,-22, ,
3, ,-24, ,
3, ,-26, ,
-1, ,-28, ,
5, ,-30, ,
1, ,-31, ,
4, ,-33, ,
5, ,-36, ,
3, ,-37, ,
-1, ,-39, ,
3, ,-41, ,
1, ,-42, ,
4, ,-40, ,
5, ,-38, ,
1, ,-37, ,
0, ,-35, ,
1, ,-32, ,
1, ,-31, ,
3, ,-29, ,
-2, ,-27, ,
3, ,-25, ,
1, ,-24, ,
4, ,-22, ,
3, ,-20, ,
1, ,-18, ,
3, ,-17, ,
4, ,-14, ,
3, ,-12, ,
1, ,-11, ,
1, ,-9, ,
-2, ,-7, ,
0, ,-5, ,
1, ,-4, ,
1, ,-2, ,
4, ,0, ,
0, ,2, ,
3, ,3, ,
1, ,6, ,
3, ,8, ,
4, ,9, ,
-1, ,11, ,
3, ,13, ,
5, ,14, ,
3, ,16, ,
0, ,18, ,
4, ,20, ,
4, ,21, ,
3, ,23, ,
6, ,25, ,
6, ,28, ,
3, ,29, ,
5, ,31, ,
3, ,33, ,
1, ,35, ,
5, ,36, ,
3, ,38, ,
1, ,40, ,
4, ,41, ,
0, ,44, ,
-1, ,46, ,
1, ,48, ,
3, ,50, ,
1, ,49, ,
3, ,47, ,
1, ,45, ,
0, ,44, ,
3, ,40, ,
-1, ,38, ,
3, ,37, ,
-2, ,36, ,
1, ,34, ,
1, ,32, ,
3, ,30, ,
0, ,28, ,
3, ,28, ,
4, ,25, ,
4, ,23, ,
4, ,21, ,
-1, ,19, ,
3, ,18, ,
0, ,16, ,
1, ,14, ,
1, ,12, ,
3, ,10, ,
3, ,9, ,
3, ,7, ,
0, ,6, ,
4, ,3, ,
0, ,1, ,
3, ,-1, ,
5, ,-2, ,
3, ,-4, ,
0, ,-6, ,
3, ,-8, ,
-2, ,-9, ,
4, ,-11, ,
3, ,-13, ,
-1, ,-16, ,
3, ,-17, ,
-1, ,-19, ,
1, ,-21, ,
-2, ,-22, ,
0, ,-24, ,
1, ,-26, ,
1, ,-28, ,
-1, ,-29, ,
3, ,-31, ,
-2, ,-33, ,
5, ,-36, ,
4, ,-38, ,
3, ,-39, ,
1, ,-41, ,
5, ,-42, ,
0, ,-40, ,
4, ,-39, ,
0, ,-37, ,
0, ,-35, ,
-1, ,-33, ,
3, ,-31, ,
0, ,-29, ,
3, ,-27, ,
-1, ,-25, ,
0, ,-24, ,
-1, ,-22, ,
1, ,-20, ,
0, ,-19, ,
3, ,-17, ,
0, ,-14, ,
1, ,-12, ,
1, ,-10, ,
5, ,-9, ,
5, ,-7, ,
4, ,-5, ,
1, ,-4, ,
3, ,-2, ,
-1, ,0, ,
3, ,1, ,
4, ,3, ,
-4, ,6, ,
3, ,8, ,
0, ,9, ,
4, ,11, ,
4, ,13, ,
-2, ,15, ,
3, ,16, ,
3, ,18, ,
4, ,20, ,
1, ,21, ,
-1, ,25, ,
1, ,26, ,
1, ,28, ,
3, ,30, ,
3, ,30, ,
3, ,33, ,
1, ,35, ,
4, ,36, ,
1, ,38, ,
3, ,40, ,
4, ,42, ,
0, ,44, ,
0, ,47, ,
1, ,48, ,
0, ,49, ,
3, ,49, ,
4, ,48, ,
3, ,44, ,
1, ,44, ,
4, ,41, ,
-1, ,39, ,
4, ,37, ,
-1, ,36, ,
3, ,33, ,
0, ,32, ,
-4, ,31, ,
5, ,29, ,
1, ,27, ,
1, ,25, ,
1, ,22, ,
1, ,21, ,
3, ,19, ,
-2, ,17, ,
4, ,15, ,
5, ,13, ,
5, ,12, ,
1, ,10, ,
4, ,8, ,
0, ,7, ,
5, ,4, ,
-1, ,2, ,
1, ,1, ,
0, ,-1, ,
4, ,-3, ,
-1, ,-4, ,
5, ,-6, ,
0, ,-8, ,
1, ,-10, ,
4, ,-11, ,
-1, ,-13, ,
3, ,-16, ,
5, ,-18, ,
-2, ,-19, ,
1, ,-21, ,
1, ,-23, ,
-1, ,-25, ,
1, ,-26, ,
5, ,-28, ,
-1, ,-30, ,
1, ,-32, ,
1, ,-33, ,
3, ,-36, ,
0, ,-38, ,
1, ,-40, ,
0, ,-41, ,
3, ,-42, ,
3, ,-40, ,
1, ,-38, ,
3, ,-36, ,
-4, ,-35, ,
3, ,-32, ,
3, ,-30, ,
1, ,-28, ,
0, ,-26, ,
0, ,-25, ,
5, ,-23, ,
-2, ,-21, ,
4, ,-20, ,
-1, ,-18, ,
4, ,-16, ,
-2, ,-13, ,
6, ,-12, ,
-2, ,-10, ,
3, ,-8, ,
3, ,-6, ,
3, ,-5, ,
3, ,-3, ,
5, ,-1, ,
-2, ,1, ,
1, ,2, ,
1, ,4, ,
-1, ,6, ,
0, ,8, ,
1, ,10, ,
3, ,12, ,
-1, ,14, ,
0, ,15, ,
-1, ,17, ,
4, ,19, ,
-1, ,21, ,
1, ,22, ,
3, ,25, ,
3, ,27, ,
-2, ,29, ,
3, ,30, ,
-2, ,32, ,
3, ,34, ,
-1, ,35, ,
3, ,36, ,
0, ,39, ,
1, ,41, ,
-2, ,42, ,
4, ,45, ,
-1, ,46, ,
3, ,49, ,
0, ,49, ,
4, ,48, ,
1, ,46, ,
4, ,45, ,
1, ,41, ,
4, ,40, ,
4, ,38, ,
0, ,36, ,
-1, ,34, ,
3, ,33, ,
1, ,31, ,
1, ,29, ,
-2, ,28, ,
1, ,26, ,
0, ,23, ,
4, ,21, ,
-1, ,19, ,
4, ,18, ,
3, ,16, ,
1, ,14, ,
5, ,13, ,
1, ,11, ,
1, ,9, ,
-2, ,7, ,
3, ,6, ,
0, ,3, ,
-4, ,1, ,
0, ,0, ,
6, ,-2, ,
3, ,-4, ,
-1, ,-6, ,
1, ,-7, ,
0, ,-9, ,
3, ,-11, ,
0, ,-13, ,
1, ,-14, ,
0, ,-17, ,
0, ,-19, ,
-1, ,-21, ,
1, ,-22, ,
-1, ,-24, ,
4, ,-26, ,
4, ,-27, ,
1, ,-30, ,
0, ,-31, ,
3, ,-33, ,
3, ,-36, ,
-2, ,-37, ,
3, ,-39, ,
3, ,-41, ,
-1, ,-42, ,
4, ,-41, ,
-2, ,-39, ,
1, ,-37, ,
0, ,-35, ,
1, ,-32, ,
0, ,-31, ,
3, ,-28, ,
-2, ,-27, ,
3, ,-25, ,
0, ,-23, ,
3, ,-22, ,
5, ,-20, ,
4, ,-18, ,
5, ,-16, ,
4, ,-13, ,
3, ,-12, ,
-1, ,-10, ,
3, ,-8, ,
3, ,-7, ,
-1, ,-5, ,
1, ,-3, ,
1, ,-1, ,
3, ,1, ,
1, ,2, ,
0, ,4, ,
3, ,6, ,
-4, ,8, ,
3, ,10, ,
-2, ,11, ,
0, ,14, ,
3, ,15, ,
1, ,17, ,
3, ,19, ,
3, ,21, ,
3, ,22, ,
3, ,25, ,
-1, ,27, ,
3, ,29, ,
4, ,30, ,
4, ,33, ,
3, ,33, ,
4, ,35, ,
3, ,37, ,
3, ,39, ,
4, ,40, ,
4, ,44, ,
-2, ,46, ,
0, ,47, ,
3, ,49, ,
0, ,50, ,
3, ,47, ,
-1, ,46, ,
3, ,44, ,
3, ,40, ,
0, ,40, ,
3, ,38, ,
3, ,36, ,
-1, ,34, ,
3, ,32, ,
1, ,31, ,
1, ,29, ,
1, ,27, ,
-2, ,25, ,
4, ,22, ,
3, ,21, ,
3, ,19, ,
-1, ,18, ,
1, ,16, ,
3, ,14, ,
4, ,12, ,
4, ,10, ,
0, ,9, ,
0, ,7, ,
1, ,4, ,
4, ,2, ,
-2, ,1, ,
3, ,-1, ,
1, ,-3, ,
3, ,-4, ,
3, ,-6, ,
0, ,-8, ,
3, ,-10, ,
-4, ,-11, ,
-1, ,-13, ,
1, ,-16, ,
3, ,-18, ,
1, ,-19, ,
3, ,-21, ,
4, ,-23, ,
1, ,-25, ,
3, ,-26, ,
0, ,-28, ,
5, ,-30, ,
1, ,-32, ,
3, ,-35, ,
1, ,-36, ,
3, ,-38, ,
3, ,-40, ,
-1, ,-42, ,
3, ,-41, ,
-2, ,-39, ,
4, ,-38, ,
1, ,-36, ,
1, ,-33, ,
1, ,-32, ,
4, ,-30, ,
1, ,-28, ,
1, ,-27, ,
0, ,-24, ,
4, ,-23, ,
-2, ,-21, ,
1, ,-19, ,
-1, ,-17, ,
0, ,-16, ,
1, ,-13, ,
4, ,-11, ,
-1, ,-9, ,
3, ,-7, ,
4, ,-6, ,
-1, ,-4, ,
1, ,-2, ,
1, ,-1, ,
-1, ,1, ,
3, ,3, ,
4, ,6, ,
3, ,7, ,
4, ,9, ,
3, ,11, ,
1, ,12, ,
3, ,14, ,
0, ,16, ,
3, ,18, ,
3, ,20, ,
4, ,21, ,
3, ,23, ,
-1, ,26, ,
3, ,28, ,
1, ,29, ,
1, ,32, ,
0, ,33, ,
4, ,35, ,
-4, ,37, ,
4, ,38, ,
3, ,40, ,
-1, ,41, ,
4, ,44, ,
1, ,46, ,
-2, ,49, ,
4, ,50, ,
3, ,48, ,
4, ,46, ,
5, ,44, ,
3, ,44, ,
1, ,41, ,
1, ,38, ,
4, ,37, ,
5, ,35, ,
3, ,33, ,
1, ,31, ,
3, ,30, ,
3, ,27, ,
0, ,26, ,
3, ,25, ,
-1, ,22, ,
4, ,19, ,
-2, ,17, ,
3, ,16, ,
3, ,14, ,
3, ,13, ,
1, ,11, ,
1, ,9, ,
0, ,7, ,
1, ,6, ,
3, ,3, ,
1, ,1, ,
3, ,-1, ,
-2, ,-2, ,
3, ,-4, ,
-1, ,-6, ,
1, ,-8, ,
1, ,-9, ,
-1, ,-11, ,
1, ,-13, ,
4, ,-16, ,
1, ,-17, ,
0, ,-19, ,
4, ,-21, ,
-2, ,-23, ,
3, ,-24, ,
-4, ,-26, ,
4, ,-28, ,
-1, ,-30, ,
-1, ,-32, ,
-2, ,-33, ,
1, ,-36, ,
-1, ,-38, ,
3, ,-40, ,
3, ,-42, ,
1, ,-42, ,
-2, ,-40, ,
1, ,-38, ,
1, ,-36, ,
4, ,-35, ,
-1, ,-32, ,
-4, ,-30, ,
4, ,-28, ,
1, ,-26, ,
4, ,-25, ,
1, ,-23, ,
5, ,-21, ,
1, ,-19, ,
3, ,-17, ,
3, ,-16, ,
1, ,-13, ,
5, ,-11, ,
5, ,-9, ,
-2, ,-8, ,
1, ,-6, ,
0, ,-4, ,
1, ,-2, ,
-2, ,-1, ,
1, ,1, ,
6, ,3, ,
-1, ,6, ,
1, ,7, ,
3, ,9, ,
1, ,11, ,
3, ,12, ,
5, ,14, ,
1, ,16, ,
1, ,18, ,
3, ,19, ,
4, ,21, ,
4, ,23, ,
6, ,26, ,
4, ,27, ,
1, ,30, ,
-4, ,31, ,
1, ,33, ,
-1, ,34, ,
1, ,37, ,
0, ,39, ,
4, ,40, ,
-4, ,42, ,
1, ,44, ,
3, ,46, ,
4, ,48, ,
3, ,51, ,
0, ,49, ,
1, ,46, ,
3, ,44, ,
1, ,44, ,
1, ,40, ,
1, ,38, ,
5, ,37, ,
-1, ,34, ,
4, ,33, ,
1, ,32, ,
0, ,30, ,
-1, ,28, ,
0, ,26, ,
4, ,23, ,
4, ,22, ,
1, ,20, ,
3, ,18, ,
4, ,16, ,
3, ,15, ,
3, ,12, ,
3, ,11, ,
1, ,9, ,
5, ,8, ,
4, ,6, ,
4, ,3, ,
4, ,1, ,
-1, ,0, ,
1, ,-2, ,
-1, ,-4, ,
3, ,-6, ,
0, ,-7, ,
5, ,-9, ,
-1, ,-11, ,
3, ,-13, ,
-2, ,-16, ,
0, ,-17, ,
0, ,-19, ,
1, ,-21, ,
3, ,-23, ,
-2, ,-24, ,
3, ,-26, ,
1, ,-28, ,
1, ,-30, ,
3, ,-32, ,
1, ,-33, ,
3, ,-36, ,
-1, ,-38, ,
3, ,-39, ,
4, ,-41, ,
4, ,-41, ,
1, ,-40, ,
1, ,-38, ,
4, ,-36, ,
1, ,-35, ,
-1, ,-32, ,
4, ,-30, ,
3, ,-28, ,
-1, ,-26, ,
4, ,-25, ,
1, ,-23, ,
3, ,-21, ,
0, ,-19, ,
0, ,-18, ,
1, ,-16, ,
-1, ,-13, ,
3, ,-11, ,
4, ,-9, ,
1, ,-8, ,
4, ,-6, ,
1, ,-4, ,
1, ,-2, ,
1, ,-1, ,
-1, ,1, ,
1, ,3, ,
1, ,6, ,
4, ,7, ,
-2, ,9, ,
4, ,11, ,
-1, ,12, ,
3, ,14, ,
-1, ,16, ,
3, ,18, ,
1, ,20, ,
4, ,21, ,
-1, ,23, ,
3, ,25, ,
1, ,28, ,
3, ,29, ,
0, ,31, ,
0, ,33, ,
5, ,35, ,
4, ,37, ,
3, ,38, ,
3, ,40, ,
0, ,41, ,
1, ,44, ,
1, ,46, ,
-2, ,48, ,
0, ,50, ,
-1, ,49, ,
1, ,46, ,
1, ,44, ,
1, ,42, ,
4, ,41, ,
1, ,39, ,
3, ,37, ,
5, ,35, ,
1, ,33, ,
3, ,31, ,
1, ,29, ,
3, ,28, ,
-1, ,26, ,
1, ,25, ,
3, ,22, ,
4, ,20, ,
-2, ,18, ,
4, ,16, ,
-1, ,15, ,
3, ,13, ,
-4, ,11, ,
3, ,9, ,
4, ,8, ,
1, ,6, ,
-1, ,3, ,
3, ,2, ,
-2, ,0, ,
3, ,-2, ,
4, ,-4, ,
1, ,-5, ,
0, ,-7, ,
3, ,-9, ,
-2, ,-11, ,
1, ,-12, ,
1, ,-14, ,
3, ,-17, ,
0, ,-19, ,
0, ,-21, ,
-1, ,-22, ,
1, ,-24, ,
-2, ,-26, ,
1, ,-28, ,
-1, ,-29, ,
1, ,-31, ,
4, ,-33, ,
4, ,-35, ,
1, ,-37, ,
3, ,-39, ,
3, ,-41, ,
4, ,-42, ,
0, ,-40, ,
3, ,-39, ,
3, ,-37, ,
-1, ,-35, ,
3, ,-32, ,
-1, ,-31, ,
-1, ,-29, ,
-1, ,-27, ,
0, ,-25, ,
1, ,-23, ,
4, ,-22, ,
3, ,-20, ,
1, ,-18, ,
1, ,-16, ,
1, ,-14, ,
4, ,-12, ,
4, ,-10, ,
1, ,-8, ,
3, ,-6, ,
1, ,-5, ,
3, ,-3, ,
0, ,-1, ,
-2, ,0, ,
4, ,2, ,
3, ,4, ,
1, ,7, ,
0, ,9, ,
3, ,10, ,
1, ,12, ,
1, ,13, ,
4, ,15, ,
1, ,17, ,
1, ,19, ,
3, ,20, ,
3, ,22, ,
1, ,25, ,
-1, ,27, ,
3, ,28, ,
1, ,30, ,
4, ,32, ,
1, ,34, ,
0, ,35, ,
-2, ,38, ,
0, ,39, ,
-2, ,41, ,
3, ,42, ,
1, ,45, ,
1, ,46, ,
-1, ,49, ,
4, ,49, ,
3, ,48, ,
-2, ,46, ,
1, ,42, ,
0, ,42, ,
1, ,40, ,
-4, ,38, ,
4, ,36, ,
-2, ,34, ,
0, ,33, ,
3, ,31, ,
4, ,29, ,
3, ,27, ,
0, ,25, ,
4, ,23, ,
3, ,21, ,
1, ,20, ,
1, ,17, ,
0, ,16, ,
1, ,14, ,
-4, ,12, ,
3, ,11, ,
0, ,9, ,
1, ,7, ,
3, ,4, ,
-2, ,3, ,
0, ,1, ,
0, ,-1, ,
4, ,-3, ,
5, ,-4, ,
1, ,-6, ,
1, ,-8, ,
3, ,-10, ,
4, ,-11, ,
4, ,-13, ,
4, ,-16, ,
0, ,-17, ,
-2, ,-19, ,
1, ,-21, ,
1, ,-23, ,
-2, ,-24, ,
1, ,-26, ,
6, ,-28, ,
3, ,-30, ,
-2, ,-32, ,
3, ,-35, ,
-1, ,-36, ,
-1, ,-38, ,
4, ,-39, ,
4, ,-42, ,
-2, ,-42, ,
3, ,-40, ,
0, ,-39, ,
4, ,-37, ,
-5, ,-35, ,
0, ,-32, ,
3, ,-30, ,
3, ,-29, ,
-2, ,-27, ,
4, ,-25, ,
3, ,-23, ,
4, ,-21, ,
1, ,-20, ,
3, ,-18, ,
1, ,-16, ,
1, ,-13, ,
-1, ,-12, ,
4, ,-10, ,
-1, ,-8, ,
1, ,-6, ,
3, ,-4, ,
-1, ,-3, ,
1, ,-1, ,
-2, ,1, ,
3, ,2, ,
0, ,4, ,
0, ,7, ,
-2, ,8, ,
0, ,10, ,
1, ,12, ,
3, ,14, ,
-1, ,15, ,
4, ,17, ,
3, ,19, ,
0, ,21, ,
4, ,22, ,
0, ,25, ,
5, ,27, ,
0, ,29, ,
3, ,30, ,
1, ,31, ,
-2, ,34, ,
1, ,35, ,
-2, ,37, ,
0, ,39, ,
1, ,40, ,
3, ,42, ,
-2, ,45, ,
1, ,47, ,
3, ,49, ,
-2, ,50, ,
1, ,48, ,
4, ,47, ,
5, ,44, ,
-1, ,42, ,
4, ,40, ,
1, ,38, ,
0, ,36, ,
-1, ,34, ,
1, ,33, ,
-2, ,31, ,
5, ,30, ,
1, ,27, ,
0, ,26, ,
0, ,23, ,
-2, ,22, ,
3, ,20, ,
0, ,18, ,
1, ,16, ,
1, ,15, ,
3, ,12, ,
1, ,11, ,
3, ,9, ,
4, ,8, ,
1, ,6, ,
3, ,3, ,
4, ,1, ,
3, ,0, ,
1, ,-2, ,
3, ,-4, ,
1, ,-6, ,
1, ,-7, ,
1, ,-9, ,
0, ,-11, ,
4, ,-12, ,
0, ,-14, ,
4, ,-17, ,
1, ,-19, ,
0, ,-20, ,
-4, ,-22, ,
5, ,-24, ,
5, ,-26, ,
-4, ,-27, ,
3, ,-29, ,
3, ,-31, ,
3, ,-32, ,
4, ,-35, ,
5, ,-37, ,
-4, ,-39, ,
0, ,-41, ,
0, ,-43, ,
1, ,-41, ,
0, ,-39, ,
1, ,-37, ,
6, ,-36, ,
0, ,-33, ,
4, ,-31, ,
4, ,-29, ,
-1, ,-27, ,
5, ,-26, ,
1, ,-24, ,
-1, ,-22, ,
1, ,-20, ,
3, ,-19, ,
-1, ,-17, ,
1, ,-14, ,
-2, ,-12, ,
1, ,-11, ,
1, ,-9, ,
3, ,-7, ,
4, ,-5, ,
0, ,-4, ,
5, ,-2, ,
1, ,0, ,
3, ,2, ,
1, ,3, ,
4, ,6, ,
-1, ,7, ,
4, ,9, ,
1, ,11, ,
1, ,13, ,
0, ,15, ,
0, ,16, ,
-2, ,18, ,
3, ,20, ,
1, ,21, ,
1, ,23, ,
0, ,26, ,
3, ,28, ,
-1, ,30, ,
5, ,30, ,
0, ,33, ,
1, ,34, ,
-1, ,36, ,
1, ,37, ,
-1, ,40, ,
4, ,40, ,
-1, ,45, ,
3, ,46, ,
-2, ,47, ,
4, ,50, ,
-2, ,49, ,
4, ,48, ,
0, ,46, ,
1, ,42, ,
-4, ,41, ,
0, ,39, ,
-2, ,38, ,
3, ,35, ,
0, ,33, ,
3, ,32, ,
0, ,30, ,
4, ,29, ,
4, ,27, ,
-1, ,25, ,
1, ,23, ,
3, ,21, ,
1, ,18, ,
5, ,17, ,
3, ,16, ,
0, ,14, ,
1, ,12, ,
-1, ,10, ,
4, ,9, ,
0, ,7, ,
3, ,4, ,
-1, ,3, ,
1, ,1, ,
3, ,-1, ,
0, ,-2, ,
1, ,-4, ,
-2, ,-6, ,
4, ,-8, ,
3, ,-9, ,
1, ,-11, ,
3, ,-13, ,
3, ,-14, ,
4, ,-17, ,
-1, ,-19, ,
1, ,-21, ,
4, ,-22, ,
1, ,-24, ,
1, ,-26, ,
3, ,-28, ,
3, ,-30, ,
1, ,-31, ,
5, ,-33, ,
3, ,-36, ,
3, ,-38, ,
4, ,-39, ,
3, ,-41, ,
0, ,-43, ,
3, ,-41, ,
1, ,-39, ,
3, ,-37, ,
-1, ,-35, ,
3, ,-33, ,
1, ,-31, ,
3, ,-29, ,
-2, ,-28, ,
3, ,-25, ,
-2, ,-24, ,
1, ,-22, ,
0, ,-20, ,
1, ,-18, ,
-2, ,-17, ,
1, ,-14, ,
-2, ,-12, ,
3, ,-10, ,
-1, ,-9, ,
0, ,-7, ,
-2, ,-5, ,
1, ,-4, ,
4, ,-2, ,
-1, ,0, ,
3, ,1, ,
4, ,3, ,
1, ,6, ,
3, ,8, ,
1, ,9, ,
4, ,11, ,
3, ,12, ,
1, ,14, ,
1, ,16, ,
3, ,18, ,
3, ,20, ,
4, ,21, ,
0, ,23, ,
4, ,26, ,
3, ,28, ,
3, ,29, ,
-1, ,31, ,
3, ,33, ,
3, ,35, ,
-4, ,37, ,
5, ,38, ,
3, ,40, ,
1, ,42, ,
0, ,44, ,
3, ,45, ,
0, ,47, ,
-4, ,48, ,
3, ,49, ,
0, ,47, ,
1, ,46, ,
-1, ,44, ,
0, ,41, ,
-2, ,38, ,
1, ,38, ,
-1, ,36, ,
3, ,34, ,
-1, ,32, ,
1, ,30, ,
-1, ,29, ,
0, ,27, ,
1, ,25, ,
1, ,23, ,
0, ,20, ,
1, ,19, ,
-2, ,17, ,
3, ,16, ,
0, ,14, ,
3, ,12, ,
4, ,10, ,
1, ,9, ,
3, ,7, ,
-1, ,4, ,
1, ,3, ,
3, ,1, ,
0, ,-1, ,
3, ,-2, ,
-1, ,-4, ,
4, ,-6, ,
3, ,-8, ,
1, ,-9, ,
1, ,-11, ,
1, ,-13, ,
3, ,-14, ,
-2, ,-17, ,
3, ,-19, ,
1, ,-21, ,
4, ,-22, ,
0, ,-24, ,
1, ,-26, ,
-2, ,-28, ,
1, ,-30, ,
-1, ,-31, ,
-1, ,-33, ,
1, ,-36, ,
4, ,-37, ,
-2, ,-39, ,
1, ,-41, ,
4, ,-43, ,
1, ,-41, ,
1, ,-39, ,
3, ,-37, ,
-1, ,-35, ,
1, ,-33, ,
-2, ,-31, ,
3, ,-29, ,
1, ,-27, ,
3, ,-25, ,
-4, ,-24, ,
1, ,-22, ,
6, ,-20, ,
5, ,-18, ,
4, ,-17, ,
1, ,-14, ,
4, ,-12, ,
0, ,-10, ,
1, ,-9, ,
4, ,-7, ,
3, ,-5, ,
0, ,-4, ,
1, ,-2, ,
3, ,0, ,
3, ,1, ,
0, ,3, ,
1, ,6, ,
1, ,8, ,
1, ,10, ,
3, ,11, ,
-4, ,13, ,
0, ,14, ,
3, ,16, ,
-2, ,18, ,
4, ,20, ,
4, ,21, ,
-4, ,23, ,
3, ,26, ,
-2, ,28, ,
4, ,29, ,
1, ,31, ,
1, ,33, ,
5, ,34, ,
1, ,37, ,
1, ,38, ,
4, ,40, ,
-1, ,42, ,
4, ,45, ,
-4, ,46, ,
1, ,48, ,
3, ,48, ,
0, ,49, ,
4, ,47, ,
1, ,45, ,
3, ,42, ,
-2, ,41, ,
3, ,38, ,
-4, ,37, ,
0, ,35, ,
1, ,34, ,
1, ,32, ,
-1, ,31, ,
0, ,28, ,
-2, ,27, ,
0, ,25, ,
-1, ,22, ,
1, ,20, ,
1, ,19, ,
3, ,17, ,
-1, ,16, ,
1, ,14, ,
0, ,12, ,
1, ,10, ,
-1, ,8, ,
4, ,7, ,
-4, ,4, ,
1, ,3, ,
0, ,0, ,
-1, ,-1, ,
-4, ,-3, ,
4, ,-5, ,
4, ,-6, ,
1, ,-8, ,
0, ,-9, ,
1, ,-11, ,
1, ,-13, ,
-2, ,-16, ,
0, ,-18, ,
3, ,-19, ,
4, ,-21, ,
1, ,-23, ,
-4, ,-25, ,
1, ,-26, ,
1, ,-28, ,
1, ,-30, ,
-2, ,-31, ,
3, ,-33, ,
-2, ,-36, ,
4, ,-38, ,
-1, ,-40, ,
3, ,-41, ,
0, ,-42, ,
-1, ,-40, ,
3, ,-39, ,
1, ,-37, ,
3, ,-33, ,
0, ,-32, ,
3, ,-30, ,
-2, ,-28, ,
4, ,-27, ,
-4, ,-25, ,
1, ,-23, ,
1, ,-21, ,
0, ,-20, ,
4, ,-18, ,
-2, ,-16, ,
3, ,-13, ,
4, ,-12, ,
1, ,-10, ,
0, ,-8, ,
1, ,-6, ,
5, ,-5, ,
0, ,-3, ,
1, ,-1, ,
0, ,0, ,
-1, ,2, ,
3, ,4, ,
3, ,7, ,
0, ,8, ,
1, ,10, ,
3, ,12, ,
1, ,14, ,
0, ,15, ,
3, ,17, ,
-1, ,19, ,
3, ,20, ,
-2, ,22, ,
-1, ,25, ,
3, ,27, ,
3, ,28, ,
3, ,30, ,
1, ,32, ,
3, ,34, ,
3, ,35, ,
3, ,37, ,
1, ,39, ,
1, ,41, ,
0, ,44, ,
4, ,45, ,
4, ,47, ,
3, ,48, ,
1, ,50, ,
4, ,47, ,
3, ,45, ,
3, ,45, ,
-2, ,42, ,
0, ,40, ,
0, ,38, ,
0, ,36, ,
0, ,34, ,
1, ,33, ,
1, ,31, ,
-4, ,29, ,
1, ,28, ,
3, ,25, ,
4, ,23, ,
1, ,22, ,
1, ,19, ,
4, ,18, ,
-2, ,16, ,
4, ,15, ,
4, ,13, ,
3, ,11, ,
-4, ,9, ,
3, ,7, ,
1, ,6, ,
0, ,3, ,
0, ,1, ,
3, ,0, ,
1, ,-2, ,
0, ,-4, ,
1, ,-6, ,
-1, ,-7, ,
4, ,-9, ,
3, ,-11, ,
3, ,-13, ,
4, ,-14, ,
3, ,-17, ,
1, ,-19, ,
1, ,-21, ,
1, ,-22, ,
1, ,-24, ,
6, ,-26, ,
0, ,-28, ,
4, ,-29, ,
1, ,-31, ,
1, ,-33, ,
1, ,-36, ,
1, ,-38, ,
-2, ,-39, ,
0, ,-41, ,
4, ,-42, ,
1, ,-41, ,
0, ,-39, ,
3, ,-37, ,
3, ,-35, ,
1, ,-32, ,
-1, ,-31, ,
1, ,-29, ,
3, ,-27, ,
3, ,-25, ,
-1, ,-23, ,
4, ,-22, ,
-2, ,-20, ,
3, ,-18, ,
1, ,-17, ,
3, ,-13, ,
3, ,-12, ,
3, ,-10, ,
4, ,-8, ,
3, ,-7, ,
0, ,-5, ,
5, ,-3, ,
4, ,-1, ,
1, ,0, ,
-2, ,2, ,
3, ,4, ,
4, ,6, ,
-2, ,8, ,
4, ,10, ,
3, ,12, ,
3, ,14, ,
-2, ,15, ,
0, ,17, ,
3, ,19, ,
3, ,21, ,
4, ,22, ,
5, ,25, ,
-1, ,27, ,
1, ,29, ,
1, ,30, ,
3, ,32, ,
1, ,34, ,
1, ,36, ,
-4, ,37, ,
3, ,39, ,
3, ,40, ,
1, ,42, ,
4, ,45, ,
-1, ,46, ,
1, ,50, ,
0, ,50, ,
1, ,48, ,
-2, ,46, ,
1, ,44, ,
1, ,41, ,
3, ,40, ,
1, ,38, ,
5, ,36, ,
4, ,33, ,
0, ,32, ,
3, ,31, ,
1, ,29, ,
1, ,28, ,
3, ,25, ,
3, ,22, ,
3, ,21, ,
1, ,19, ,
-1, ,18, ,
3, ,16, ,
-1, ,14, ,
3, ,12, ,
0, ,11, ,
1, ,9, ,
3, ,7, ,
5, ,4, ,
0, ,3, ,
1, ,1, ,
1, ,-1, ,
3, ,-3, ,
3, ,-4, ,
-4, ,-6, ,
3, ,-8, ,
3, ,-10, ,
-1, ,-11, ,
4, ,-13, ,
-2, ,-16, ,
1, ,-18, ,
-1, ,-19, ,
-1, ,-21, ,
1, ,-23, ,
4, ,-25, ,
1, ,-26, ,
-2, ,-28, ,
4, ,-30, ,
3, ,-32, ,
4, ,-35, ,
-1, ,-36, ,
1, ,-38, ,
1, ,-40, ,
5, ,-42, ,
6, ,-42, ,
-2, ,-40, ,
0, ,-38, ,
1, ,-36, ,
3, ,-33, ,
-2, ,-31, ,
1, ,-30, ,
-1, ,-28, ,
3, ,-27, ,
-1, ,-24, ,
3, ,-23, ,
