src/vary_am2_1411/temp0002153.CSV

Format,1.0B,
Memory Length,10000,Memory Length,10000,
IntpDistance,0,IntpDistance,0,
Trigger Address,4999,Trigger Address,4999,
Trigger Level,-1.000E+00,Trigger Level,-1.000E+00,
Source,CH1,Source,CH2,
Vertical Units,V,Vertical Units,V,
Vertical Units Div,0,Vertical Units Div,0,
Vertical Units Extend Div,16,Vertical Units Extend Div,16,
Label,,Label,,
Probe Type,0,Probe Type,0,
Probe Ratio,1.000e+01,Probe Ratio,1.000e+00,
Vertical Scale,2.000e-02,Vertical Scale,1.000e+00,
Vertical Position,-5.120e-02,Vertical Position,2.000e-01,
Horizontal Units,S,Horizontal Units,S,
Horizontal Scale,1.000E-05,Horizontal Scale,1.000E-05,
Horizontal Position,0.000E+00,Horizontal Position,0.000E+00,
Horizontal Mode,Main,Horizontal Mode,Main,
SincET Mode,Real Time,SincET Mode,Real Time,
Sampling Period,1.000e-08,Sampling Period,1.000e-08,
Horizontal Old Scale,1.000E-05,Horizontal Old Scale,1.000E-05,
Horizontal Old Position,0.000E+00,Horizontal Old Position,0.000E+00,
Firmware,V1.23,Firmware,V1.23,
Mode,Fast,Mode,Fast,
Waveform Data,,Waveform Data,,
1, ,-45, ,
-4, ,-45, ,
3, ,-45, ,
5, ,-45, ,
4, ,-45, ,
1, ,-45, ,
6, ,-45, ,
4, ,-45, ,
4, ,-44, ,
4, ,-45, ,
4, ,-45, ,
4, ,-44, ,
1, ,-45, ,
-4, ,-45, ,
1, ,-45, ,
3, ,-45, ,
1, ,-45, ,
1, ,-45, ,
5, ,-46, ,
5, ,-45, ,
3, ,-44, ,
0, ,-45, ,
1, ,-45, ,
-1, ,-44, ,
1, ,-45, ,
0, ,-45, ,
4, ,-44, ,
6, ,-45, ,
1, ,-45, ,
-1, ,-44, ,
1, ,-45, ,
-1, ,-45, ,
-1, ,-44, ,
-2, ,-45, ,
1, ,-45, ,
4, ,-44, ,
1, ,-45, ,
-1, ,-45, ,
1, ,-45, ,
1, ,-45, ,
0, ,-45, ,
-5, ,-45, ,
3, ,-45, ,
4, ,-45, ,
0, ,-45, ,
0, ,-45, ,
1, ,-45, ,
-1, ,-44, ,
-1, ,-45, ,
-7, ,-45, ,
-1, ,-45, ,
0, ,-45, ,
0, ,-45, ,
-1, ,-44, ,
4, ,-45, ,
6, ,-45, ,
1, ,-45, ,
-4, ,-45, ,
-2, ,-45, ,
-2, ,-44, ,
-1, ,-45, ,
-9, ,-45, ,
1, ,-45, ,
4, ,-45, ,
-1, ,-45, ,
-4, ,-44, ,
3, ,-45, ,
3, ,-45, ,
0, ,-44, ,
0, ,-45, ,
1, ,-45, ,
1, ,-44, ,
4, ,-45, ,
-2, ,-45, ,
1, ,-44, ,
0, ,-45, ,
0, ,-45, ,
-6, ,-45, ,
-1, ,-45, ,
-1, ,-45, ,
0, ,-44, ,
-2, ,-45, ,
3, ,-45, ,
4, ,-44, ,
4, ,-45, ,
-2, ,-45, ,
1, ,-45, ,
3, ,-45, ,
-1, ,-45, ,
0, ,-44, ,
4, ,-45, ,
3, ,-45, ,
0, ,-45, ,
-2, ,-45, ,
0, ,-45, ,
0, ,-44, ,
0, ,-45, ,
-5, ,-45, ,
-2, ,-45, ,
4, ,-45, ,
-1, ,-45, ,
-4, ,-44, ,
4, ,-45, ,
0, ,-45, ,
0, ,-44, ,
-2, ,-45, ,
-1, ,-45, ,
0, ,-44, ,
1, ,-45, ,
-1, ,-45, ,
0, ,-45, ,
-1, ,-45, ,
-4, ,-45, ,
-6, ,-44, ,
-1, ,-45, ,
-1, ,-45, ,
-5, ,-44, ,
-5, ,-45, ,
-1, ,-45, ,
1, ,-44, ,
1, ,-45, ,
-2, ,-45, ,
3, ,-45, ,
0, ,-45, ,
-2, ,-45, ,
-4, ,-44, ,
-2, ,-45, ,
0, ,-45, ,
0, ,-44, ,
0, ,-44, ,
4, ,-45, ,
1, ,-44, ,
0, ,-45, ,
-5, ,-45, ,
-2, ,-45, ,
-2, ,-45, ,
-6, ,-44, ,
-7, ,-45, ,
-1, ,-45, ,
-1, ,-45, ,
-4, ,-44, ,
-4, ,-45, ,
1, ,-45, ,
0, ,-44, ,
1, ,-45, ,
-6, ,-45, ,
0, ,-45, ,
3, ,-45, ,
-2, ,-45, ,
-5, ,-44, ,
0, ,-45, ,
-2, ,-45, ,
0, ,-45, ,
-5, ,-45, ,
0, ,-45, ,
3, ,-44, ,
3, ,-45, ,
-1, ,-45, ,
4, ,-45, ,
4, ,-45, ,
-2, ,-45, ,
-15, ,-44, ,
1, ,-45, ,
3, ,-45, ,
-4, ,-44, ,
3, ,-45, ,
1, ,-45, ,
3, ,-44, ,
3, ,-45, ,
-5, ,-45, ,
0, ,-45, ,
0, ,-45, ,
0, ,-45, ,
-4, ,-44, ,
4, ,-45, ,
1, ,-45, ,
1, ,-44, ,
-1, ,-45, ,
0, ,-45, ,
4, ,-44, ,
3, ,-45, ,
-2, ,-45, ,
3, ,-45, ,
1, ,-45, ,
-1, ,-44, ,
-6, ,-44, ,
1, ,-45, ,
1, ,-45, ,
0, ,-44, ,
-1, ,-45, ,
1, ,-45, ,
0, ,-44, ,
4, ,-45, ,
-2, ,-45, ,
0, ,-45, ,
3, ,-45, ,
-5, ,-44, ,
-5, ,-45, ,
-1, ,-45, ,
-4, ,-45, ,
-1, ,-45, ,
-6, ,-45, ,
-2, ,-45, ,
1, ,-44, ,
0, ,-45, ,
0, ,-45, ,
1, ,-45, ,
1, ,-45, ,
-2, ,-45, ,
-4, ,-44, ,
1, ,-45, ,
-1, ,-45, ,
1, ,-44, ,
-1, ,-45, ,
-1, ,-45, ,
-1, ,-45, ,
-1, ,-45, ,
-2, ,-45, ,
0, ,-45, ,
1, ,-45, ,
-1, ,-45, ,
-5, ,-45, ,
1, ,-45, ,
4, ,-45, ,
3, ,-45, ,
0, ,-45, ,
0, ,-45, ,
1, ,-44, ,
-1, ,-45, ,
-2, ,-45, ,
0, ,-45, ,
5, ,-45, ,
6, ,-45, ,
1, ,-45, ,
8, ,-45, ,
4, ,-45, ,
-2, ,-44, ,
-2, ,-45, ,
4, ,-45, ,
3, ,-44, ,
5, ,-45, ,
-1, ,-45, ,
5, ,-45, ,
6, ,-45, ,
1, ,-45, ,
0, ,-44, ,
4, ,-45, ,
4, ,-45, ,
3, ,-44, ,
4, ,-45, ,
5, ,-45, ,
6, ,-44, ,
6, ,-45, ,
-1, ,-45, ,
1, ,-45, ,
1, ,-45, ,
-4, ,-45, ,
-5, ,-44, ,
4, ,-45, ,
5, ,-45, ,
5, ,-44, ,
1, ,-45, ,
3, ,-45, ,
-1, ,-45, ,
1, ,-45, ,
-4, ,-45, ,
1, ,-44, ,
6, ,-45, ,
0, ,-45, ,
-1, ,-44, ,
4, ,-46, ,
1, ,-45, ,
0, ,-44, ,
-6, ,-45, ,
1, ,-45, ,
1, ,-44, ,
0, ,-45, ,
-1, ,-45, ,
4, ,-45, ,
6, ,-45, ,
3, ,-45, ,
-1, ,-44, ,
6, ,-45, ,
5, ,-45, ,
-1, ,-45, ,
-1, ,-45, ,
1, ,-45, ,
0, ,-44, ,
3, ,-45, ,
-4, ,-45, ,
4, ,-45, ,
4, ,-45, ,
0, ,-45, ,
-1, ,-45, ,
5, ,-45, ,
5, ,-45, ,
4, ,-44, ,
-2, ,-45, ,
1, ,-45, ,
3, ,-44, ,
0, ,-45, ,
-6, ,-45, ,
-1, ,-45, ,
1, ,-45, ,
1, ,-45, ,
0, ,-45, ,
6, ,-45, ,
6, ,-45, ,
4, ,-44, ,
-1, ,-41, ,
1, ,-33, ,
4, ,-23, ,
6, ,-12, ,
4, ,-5, ,
9, ,2, ,
13, ,9, ,
6, ,14, ,
5, ,19, ,
10, ,23, ,
8, ,27, ,
8, ,30, ,
1, ,33, ,
5, ,35, ,
5, ,35, ,
6, ,38, ,
1, ,40, ,
4, ,41, ,
8, ,42, ,
6, ,42, ,
3, ,44, ,
6, ,45, ,
8, ,45, ,
4, ,46, ,
3, ,47, ,
3, ,46, ,
3, ,46, ,
5, ,48, ,
-1, ,47, ,
1, ,48, ,
4, ,48, ,
1, ,48, ,
0, ,47, ,
4, ,49, ,
3, ,48, ,
4, ,48, ,
-1, ,49, ,
3, ,48, ,
1, ,47, ,
1, ,49, ,
-4, ,48, ,
0, ,48, ,
0, ,48, ,
3, ,49, ,
-1, ,48, ,
4, ,49, ,
1, ,49, ,
-1, ,48, ,
-5, ,49, ,
-4, ,49, ,
-5, ,47, ,
3, ,49, ,
-4, ,48, ,
0, ,48, ,
5, ,48, ,
0, ,49, ,
-1, ,47, ,
3, ,49, ,
1, ,48, ,
0, ,48, ,
-1, ,49, ,
3, ,49, ,
0, ,47, ,
0, ,49, ,
-4, ,49, ,
1, ,48, ,
0, ,48, ,
-4, ,48, ,
-5, ,47, ,
1, ,49, ,
1, ,48, ,
-1, ,48, ,
-1, ,48, ,
4, ,48, ,
4, ,47, ,
5, ,49, ,
-1, ,48, ,
0, ,48, ,
1, ,48, ,
-1, ,49, ,
-1, ,48, ,
5, ,49, ,
-4, ,48, ,
1, ,48, ,
0, ,48, ,
-1, ,48, ,
1, ,47, ,
-1, ,49, ,
0, ,49, ,
3, ,48, ,
4, ,48, ,
1, ,49, ,
-4, ,47, ,
1, ,49, ,
1, ,47, ,
1, ,48, ,
-1, ,49, ,
1, ,48, ,
1, ,47, ,
0, ,49, ,
-1, ,48, ,
1, ,48, ,
3, ,48, ,
1, ,49, ,
-4, ,47, ,
3, ,48, ,
-1, ,48, ,
-1, ,48, ,
-2, ,48, ,
1, ,48, ,
3, ,46, ,
5, ,48, ,
-5, ,48, ,
-1, ,48, ,
-1, ,48, ,
-1, ,49, ,
-2, ,48, ,
-1, ,49, ,
1, ,47, ,
0, ,48, ,
-1, ,49, ,
3, ,49, ,
1, ,47, ,
1, ,48, ,
-5, ,48, ,
0, ,48, ,
0, ,48, ,
-2, ,48, ,
-2, ,48, ,
0, ,48, ,
-1, ,47, ,
0, ,48, ,
-4, ,48, ,
0, ,48, ,
-2, ,47, ,
1, ,49, ,
-5, ,48, ,
0, ,48, ,
0, ,48, ,
-5, ,48, ,
-11, ,47, ,
-11, ,48, ,
-16, ,47, ,
-14, ,48, ,
-19, ,48, ,
-12, ,48, ,
-10, ,47, ,
-4, ,48, ,
-4, ,48, ,
0, ,47, ,
4, ,48, ,
8, ,48, ,
4, ,48, ,
11, ,48, ,
6, ,47, ,
8, ,48, ,
6, ,48, ,
3, ,48, ,
1, ,47, ,
0, ,48, ,
-1, ,48, ,
1, ,48, ,
1, ,48, ,
0, ,48, ,
-4, ,47, ,
1, ,48, ,
1, ,47, ,
0, ,48, ,
0, ,48, ,
-1, ,48, ,
-1, ,47, ,
-1, ,48, ,
-9, ,48, ,
-4, ,48, ,
-2, ,48, ,
0, ,48, ,
-1, ,47, ,
4, ,48, ,
1, ,47, ,
-1, ,48, ,
-2, ,48, ,
-1, ,48, ,
0, ,47, ,
1, ,48, ,
-4, ,48, ,
-5, ,48, ,
-6, ,48, ,
-9, ,48, ,
-7, ,47, ,
-2, ,49, ,
0, ,48, ,
0, ,48, ,
-1, ,48, ,
3, ,48, ,
1, ,47, ,
3, ,48, ,
-2, ,48, ,
1, ,48, ,
0, ,48, ,
-5, ,48, ,
-10, ,47, ,
-2, ,48, ,
-5, ,47, ,
-2, ,48, ,
-5, ,48, ,
-1, ,48, ,
1, ,46, ,
0, ,48, ,
-5, ,48, ,
0, ,48, ,
0, ,48, ,
0, ,48, ,
-2, ,47, ,
1, ,49, ,
1, ,48, ,
-1, ,48, ,
-2, ,48, ,
-1, ,48, ,
-2, ,47, ,
0, ,48, ,
-1, ,48, ,
3, ,48, ,
4, ,48, ,
5, ,48, ,
1, ,47, ,
8, ,48, ,
1, ,47, ,
0, ,48, ,
0, ,48, ,
-1, ,48, ,
4, ,46, ,
4, ,48, ,
1, ,48, ,
5, ,47, ,
5, ,48, ,
4, ,48, ,
0, ,47, ,
0, ,49, ,
1, ,47, ,
0, ,48, ,
3, ,48, ,
4, ,48, ,
3, ,47, ,
5, ,48, ,
-1, ,48, ,
3, ,48, ,
4, ,48, ,
5, ,49, ,
3, ,47, ,
9, ,49, ,
6, ,48, ,
1, ,48, ,
-2, ,48, ,
0, ,48, ,
0, ,46, ,
0, ,48, ,
-1, ,48, ,
1, ,47, ,
6, ,48, ,
4, ,48, ,
0, ,47, ,
6, ,48, ,
1, ,48, ,
4, ,48, ,
-1, ,48, ,
3, ,48, ,
3, ,47, ,
3, ,48, ,
-1, ,48, ,
1, ,47, ,
5, ,48, ,
3, ,48, ,
0, ,47, ,
3, ,48, ,
1, ,47, ,
3, ,47, ,
1, ,48, ,
1, ,48, ,
0, ,46, ,
1, ,49, ,
-1, ,48, ,
5, ,48, ,
5, ,48, ,
4, ,48, ,
0, ,48, ,
4, ,48, ,
3, ,47, ,
-1, ,48, ,
-1, ,48, ,
1, ,48, ,
-1, ,47, ,
1, ,48, ,
-4, ,48, ,
3, ,48, ,
3, ,48, ,
4, ,49, ,
1, ,47, ,
6, ,49, ,
4, ,47, ,
4, ,48, ,
4, ,48, ,
3, ,48, ,
0, ,46, ,
0, ,48, ,
-5, ,48, ,
0, ,48, ,
1, ,48, ,
3, ,48, ,
1, ,47, ,
5, ,49, ,
1, ,47, ,
0, ,48, ,
-2, ,48, ,
3, ,48, ,
3, ,46, ,
6, ,48, ,
4, ,48, ,
6, ,48, ,
6, ,48, ,
3, ,48, ,
1, ,47, ,
4, ,49, ,
0, ,47, ,
4, ,48, ,
1, ,48, ,
4, ,48, ,
5, ,46, ,
3, ,48, ,
0, ,48, ,
4, ,47, ,
1, ,48, ,
4, ,48, ,
3, ,47, ,
4, ,49, ,
3, ,48, ,
4, ,48, ,
-1, ,48, ,
0, ,48, ,
1, ,46, ,
1, ,48, ,
-1, ,48, ,
3, ,47, ,
3, ,48, ,
1, ,48, ,
-4, ,47, ,
3, ,49, ,
-1, ,47, ,
0, ,48, ,
3, ,48, ,
0, ,48, ,
0, ,47, ,
0, ,48, ,
0, ,48, ,
8, ,48, ,
9, ,48, ,
10, ,48, ,
5, ,47, ,
8, ,48, ,
8, ,47, ,
5, ,48, ,
1, ,48, ,
3, ,48, ,
0, ,46, ,
4, ,49, ,
-1, ,48, ,
3, ,48, ,
5, ,48, ,
0, ,48, ,
-2, ,48, ,
3, ,48, ,
3, ,47, ,
3, ,48, ,
3, ,48, ,
4, ,48, ,
5, ,47, ,
4, ,48, ,
0, ,48, ,
4, ,48, ,
4, ,48, ,
1, ,49, ,
1, ,47, ,
6, ,48, ,
6, ,47, ,
5, ,48, ,
6, ,48, ,
5, ,48, ,
8, ,47, ,
6, ,48, ,
-2, ,48, ,
3, ,47, ,
4, ,48, ,
4, ,48, ,
0, ,47, ,
4, ,48, ,
1, ,48, ,
4, ,48, ,
0, ,48, ,
1, ,48, ,
1, ,46, ,
4, ,49, ,
0, ,48, ,
5, ,48, ,
5, ,48, ,
3, ,48, ,
-1, ,48, ,
4, ,48, ,
3, ,47, ,
1, ,48, ,
1, ,48, ,
1, ,48, ,
3, ,47, ,
5, ,48, ,
-4, ,48, ,
3, ,48, ,
4, ,48, ,
-6, ,48, ,
-2, ,47, ,
5, ,48, ,
-2, ,47, ,
0, ,48, ,
0, ,48, ,
1, ,48, ,
-1, ,47, ,
-4, ,48, ,
-9, ,48, ,
-4, ,47, ,
0, ,48, ,
-1, ,48, ,
-4, ,47, ,
-1, ,48, ,
1, ,47, ,
-2, ,48, ,
-7, ,48, ,
-4, ,48, ,
-5, ,47, ,
-1, ,48, ,
-5, ,48, ,
-4, ,48, ,
-2, ,48, ,
-7, ,48, ,
-9, ,47, ,
0, ,48, ,
-2, ,47, ,
-1, ,48, ,
-7, ,48, ,
-6, ,48, ,
-4, ,47, ,
-4, ,48, ,
-7, ,48, ,
-2, ,47, ,
-1, ,48, ,
-5, ,48, ,
-11, ,47, ,
-6, ,48, ,
-9, ,47, ,
-6, ,48, ,
-4, ,48, ,
-5, ,48, ,
-1, ,47, ,
-1, ,49, ,
-9, ,48, ,
-6, ,48, ,
-4, ,48, ,
-5, ,48, ,
-6, ,47, ,
4, ,49, ,
1, ,47, ,
-1, ,48, ,
-2, ,48, ,
-5, ,48, ,
-5, ,46, ,
-4, ,48, ,
-7, ,48, ,
-2, ,47, ,
-5, ,48, ,
-2, ,48, ,
-6, ,47, ,
-2, ,49, ,
-2, ,47, ,
-5, ,48, ,
-4, ,48, ,
-2, ,48, ,
-5, ,47, ,
-1, ,48, ,
-6, ,48, ,
-1, ,47, ,
3, ,48, ,
-4, ,48, ,
-6, ,47, ,
-5, ,48, ,
-5, ,47, ,
-5, ,48, ,
-6, ,48, ,
-4, ,48, ,
-2, ,47, ,
-1, ,48, ,
-6, ,48, ,
-2, ,47, ,
-2, ,48, ,
-4, ,48, ,
-7, ,47, ,
1, ,48, ,
-7, ,47, ,
-2, ,48, ,
0, ,48, ,
0, ,48, ,
0, ,47, ,
0, ,48, ,
-5, ,48, ,
-2, ,47, ,
-1, ,48, ,
-1, ,48, ,
-4, ,47, ,
0, ,49, ,
-2, ,47, ,
-2, ,48, ,
-4, ,48, ,
-2, ,48, ,
0, ,47, ,
0, ,48, ,
-4, ,48, ,
5, ,48, ,
3, ,48, ,
6, ,48, ,
-1, ,47, ,
0, ,48, ,
0, ,47, ,
-4, ,48, ,
-5, ,48, ,
-2, ,48, ,
-4, ,47, ,
0, ,48, ,
-6, ,48, ,
8, ,47, ,
5, ,48, ,
0, ,48, ,
1, ,47, ,
5, ,48, ,
1, ,47, ,
3, ,48, ,
3, ,48, ,
4, ,48, ,
4, ,47, ,
4, ,49, ,
-2, ,48, ,
1, ,48, ,
5, ,48, ,
1, ,48, ,
-1, ,47, ,
6, ,49, ,
5, ,48, ,
3, ,48, ,
-1, ,48, ,
1, ,48, ,
-1, ,47, ,
3, ,49, ,
1, ,48, ,
4, ,48, ,
8, ,48, ,
8, ,48, ,
4, ,47, ,
6, ,48, ,
1, ,47, ,
3, ,48, ,
-2, ,48, ,
1, ,48, ,
4, ,46, ,
4, ,49, ,
1, ,48, ,
3, ,48, ,
5, ,47, ,
5, ,48, ,
3, ,47, ,
6, ,49, ,
5, ,47, ,
3, ,48, ,
3, ,48, ,
4, ,48, ,
4, ,47, ,
6, ,48, ,
0, ,48, ,
4, ,48, ,
6, ,48, ,
5, ,48, ,
-2, ,48, ,
3, ,48, ,
0, ,48, ,
1, ,48, ,
0, ,48, ,
1, ,48, ,
0, ,47, ,
3, ,48, ,
3, ,48, ,
3, ,47, ,
3, ,48, ,
9, ,48, ,
6, ,47, ,
5, ,48, ,
9, ,48, ,
5, ,47, ,
1, ,48, ,
1, ,48, ,
3, ,47, ,
5, ,48, ,
-1, ,48, ,
5, ,48, ,
6, ,48, ,
3, ,48, ,
4, ,47, ,
8, ,48, ,
4, ,48, ,
4, ,48, ,
3, ,48, ,
4, ,48, ,
4, ,46, ,
6, ,48, ,
3, ,48, ,
6, ,48, ,
9, ,48, ,
4, ,48, ,
1, ,47, ,
4, ,49, ,
1, ,48, ,
4, ,48, ,
1, ,48, ,
8, ,48, ,
6, ,46, ,
8, ,48, ,
4, ,48, ,
4, ,48, ,
3, ,48, ,
3, ,48, ,
-4, ,47, ,
8, ,49, ,
6, ,48, ,
4, ,48, ,
3, ,48, ,
3, ,48, ,
4, ,46, ,
5, ,48, ,
-1, ,48, ,
5, ,48, ,
5, ,48, ,
4, ,48, ,
-1, ,47, ,
6, ,48, ,
5, ,47, ,
1, ,47, ,
-1, ,48, ,
1, ,47, ,
-1, ,46, ,
1, ,48, ,
-2, ,48, ,
3, ,47, ,
3, ,48, ,
1, ,48, ,
-1, ,47, ,
4, ,49, ,
0, ,47, ,
4, ,48, ,
1, ,48, ,
4, ,48, ,
3, ,47, ,
1, ,48, ,
-1, ,48, ,
1, ,48, ,
1, ,48, ,
0, ,48, ,
-4, ,47, ,
1, ,49, ,
4, ,47, ,
1, ,48, ,
0, ,48, ,
3, ,48, ,
1, ,46, ,
4, ,49, ,
-1, ,48, ,
0, ,48, ,
3, ,48, ,
-1, ,48, ,
-2, ,47, ,
1, ,49, ,
0, ,47, ,
3, ,48, ,
-1, ,48, ,
-1, ,48, ,
-1, ,47, ,
-2, ,48, ,
-10, ,48, ,
0, ,48, ,
-5, ,48, ,
-5, ,48, ,
-6, ,47, ,
1, ,48, ,
0, ,47, ,
3, ,48, ,
1, ,48, ,
-1, ,48, ,
-1, ,47, ,
3, ,48, ,
-4, ,48, ,
0, ,48, ,
3, ,48, ,
-2, ,48, ,
-5, ,47, ,
-1, ,49, ,
-1, ,48, ,
-4, ,48, ,
-5, ,48, ,
1, ,48, ,
1, ,47, ,
1, ,48, ,
-1, ,48, ,
1, ,48, ,
-2, ,48, ,
-1, ,48, ,
-5, ,47, ,
1, ,48, ,
3, ,48, ,
5, ,48, ,
0, ,48, ,
1, ,48, ,
-2, ,47, ,
-2, ,48, ,
-10, ,48, ,
-5, ,47, ,
-2, ,48, ,
-1, ,48, ,
-2, ,47, ,
4, ,48, ,
0, ,47, ,
1, ,48, ,
-4, ,48, ,
-1, ,48, ,
1, ,47, ,
0, ,49, ,
-2, ,48, ,
-1, ,48, ,
0, ,48, ,
-4, ,48, ,
-7, ,47, ,
-1, ,48, ,
-2, ,48, ,
-1, ,48, ,
-4, ,48, ,
-1, ,48, ,
-2, ,47, ,
0, ,48, ,
-5, ,48, ,
-2, ,47, ,
-1, ,48, ,
-4, ,48, ,
-9, ,48, ,
-1, ,49, ,
-4, ,47, ,
-2, ,48, ,
0, ,48, ,
0, ,48, ,
1, ,46, ,
1, ,48, ,
-4, ,48, ,
3, ,48, ,
-1, ,48, ,
0, ,48, ,
-4, ,47, ,
3, ,49, ,
0, ,47, ,
-1, ,48, ,
-5, ,48, ,
-2, ,48, ,
-5, ,47, ,
-1, ,48, ,
-6, ,48, ,
1, ,48, ,
5, ,48, ,
0, ,48, ,
-1, ,47, ,
3, ,49, ,
-1, ,47, ,
0, ,48, ,
-4, ,48, ,
1, ,46, ,
6, ,37, ,
1, ,28, ,
-6, ,18, ,
-2, ,10, ,
-5, ,2, ,
-6, ,-4, ,
-9, ,-10, ,
-2, ,-14, ,
-4, ,-19, ,
-7, ,-23, ,
-7, ,-26, ,
-5, ,-28, ,
-5, ,-31, ,
3, ,-33, ,
-1, ,-36, ,
0, ,-36, ,
0, ,-38, ,
-4, ,-39, ,
-5, ,-40, ,
1, ,-41, ,
0, ,-42, ,
0, ,-42, ,
-2, ,-42, ,
-1, ,-43, ,
-1, ,-43, ,
-1, ,-44, ,
-4, ,-44, ,
0, ,-44, ,
1, ,-44, ,
3, ,-45, ,
-1, ,-44, ,
5, ,-45, ,
0, ,-45, ,
0, ,-45, ,
0, ,-45, ,
0, ,-45, ,
3, ,-45, ,
1, ,-46, ,
0, ,-45, ,
6, ,-45, ,
6, ,-45, ,
3, ,-45, ,
-1, ,-45, ,
1, ,-46, ,
-1, ,-45, ,
-1, ,-45, ,
-5, ,-45, ,
0, ,-46, ,
1, ,-45, ,
4, ,-45, ,
0, ,-46, ,
4, ,-45, ,
5, ,-45, ,
4, ,-45, ,
0, ,-45, ,
3, ,-46, ,
4, ,-45, ,
0, ,-45, ,
0, ,-45, ,
1, ,-46, ,
0, ,-45, ,
4, ,-45, ,
-2, ,-45, ,
3, ,-45, ,
5, ,-45, ,
1, ,-45, ,
-1, ,-45, ,
6, ,-46, ,
5, ,-45, ,
3, ,-45, ,
-2, ,-45, ,
4, ,-45, ,
4, ,-44, ,
5, ,-45, ,
-1, ,-45, ,
4, ,-45, ,
5, ,-45, ,
4, ,-45, ,
4, ,-45, ,
9, ,-45, ,
4, ,-45, ,
4, ,-45, ,
0, ,-45, ,
0, ,-45, ,
5, ,-44, ,
5, ,-45, ,
1, ,-45, ,
5, ,-45, ,
9, ,-45, ,
4, ,-45, ,
1, ,-45, ,
6, ,-46, ,
4, ,-45, ,
1, ,-45, ,
0, ,-45, ,
3, ,-45, ,
4, ,-44, ,
4, ,-45, ,
0, ,-45, ,
6, ,-45, ,
4, ,-45, ,
5, ,-45, ,
-2, ,-44, ,
4, ,-45, ,
1, ,-45, ,
3, ,-45, ,
0, ,-45, ,
4, ,-45, ,
8, ,-45, ,
4, ,-45, ,
-4, ,-45, ,
3, ,-45, ,
4, ,-45, ,
1, ,-45, ,
-2, ,-45, ,
3, ,-45, ,
4, ,-45, ,
1, ,-45, ,
-2, ,-45, ,
-1, ,-46, ,
1, ,-44, ,
0, ,-45, ,
-5, ,-45, ,
0, ,-45, ,
4, ,-45, ,
0, ,-45, ,
-1, ,-44, ,
1, ,-46, ,
1, ,-45, ,
-1, ,-45, ,
-6, ,-45, ,
0, ,-45, ,
-1, ,-44, ,
3, ,-45, ,
-4, ,-45, ,
1, ,-45, ,
5, ,-45, ,
-1, ,-45, ,
-2, ,-44, ,
1, ,-45, ,
0, ,-45, ,
1, ,-44, ,
-1, ,-45, ,
0, ,-45, ,
0, ,-44, ,
3, ,-45, ,
-2, ,-45, ,
0, ,-45, ,
-1, ,-45, ,
-5, ,-45, ,
-9, ,-44, ,
0, ,-45, ,
1, ,-45, ,
3, ,-44, ,
1, ,-45, ,
0, ,-45, ,
-1, ,-44, ,
-2, ,-45, ,
-7, ,-45, ,
-1, ,-45, ,
0, ,-45, ,
1, ,-44, ,
0, ,-44, ,
6, ,-45, ,
0, ,-45, ,
0, ,-45, ,
-4, ,-45, ,
0, ,-45, ,
3, ,-44, ,
-2, ,-45, ,
-6, ,-45, ,
4, ,-45, ,
1, ,-45, ,
1, ,-45, ,
1, ,-45, ,
1, ,-45, ,
5, ,-45, ,
5, ,-44, ,
-2, ,-45, ,
4, ,-45, ,
1, ,-44, ,
0, ,-45, ,
-5, ,-45, ,
-2, ,-45, ,
-1, ,-45, ,
-2, ,-45, ,
-4, ,-45, ,
3, ,-46, ,
4, ,-45, ,
6, ,-44, ,
1, ,-45, ,
1, ,-45, ,
0, ,-44, ,
-1, ,-45, ,
-6, ,-45, ,
-4, ,-45, ,
-2, ,-45, ,
-2, ,-45, ,
-5, ,-44, ,
3, ,-45, ,
0, ,-45, ,
-1, ,-44, ,
-1, ,-45, ,
1, ,-45, ,
1, ,-44, ,
-1, ,-45, ,
-6, ,-45, ,
-2, ,-44, ,
-1, ,-45, ,
-2, ,-45, ,
-4, ,-45, ,
3, ,-45, ,
3, ,-45, ,
-2, ,-44, ,
-2, ,-45, ,
0, ,-45, ,
1, ,-44, ,
0, ,-45, ,
-5, ,-45, ,
-1, ,-45, ,
-1, ,-45, ,
-2, ,-45, ,
-6, ,-44, ,
0, ,-45, ,
0, ,-44, ,
-1, ,-44, ,
0, ,-45, ,
1, ,-45, ,
0, ,-44, ,
-1, ,-45, ,
-7, ,-45, ,
-1, ,-45, ,
-1, ,-45, ,
-5, ,-45, ,
-5, ,-44, ,
1, ,-45, ,
3, ,-45, ,
3, ,-44, ,
3, ,-45, ,
4, ,-45, ,
3, ,-44, ,
1, ,-45, ,
-6, ,-45, ,
0, ,-44, ,
1, ,-45, ,
0, ,-45, ,
0, ,-44, ,
8, ,-45, ,
4, ,-45, ,
1, ,-45, ,
-1, ,-45, ,
0, ,-45, ,
1, ,-44, ,
4, ,-45, ,
-1, ,-45, ,
0, ,-44, ,
4, ,-45, ,
-1, ,-45, ,
-4, ,-44, ,
3, ,-45, ,
3, ,-45, ,
3, ,-44, ,
-2, ,-45, ,
1, ,-45, ,
3, ,-44, ,
1, ,-45, ,
-5, ,-45, ,
-1, ,-45, ,
1, ,-45, ,
-2, ,-45, ,
-5, ,-45, ,
1, ,-45, ,
3, ,-45, ,
1, ,-44, ,
0, ,-45, ,
1, ,-45, ,
5, ,-44, ,
4, ,-45, ,
0, ,-45, ,
3, ,-45, ,
0, ,-45, ,
0, ,-45, ,
-2, ,-44, ,
3, ,-45, ,
1, ,-45, ,
0, ,-44, ,
-2, ,-45, ,
0, ,-45, ,
1, ,-44, ,
1, ,-45, ,
-2, ,-45, ,
5, ,-45, ,
5, ,-45, ,
5, ,-44, ,
3, ,-44, ,
6, ,-45, ,
5, ,-45, ,
1, ,-44, ,
-1, ,-45, ,
3, ,-45, ,
1, ,-45, ,
1, ,-45, ,
-1, ,-45, ,
3, ,-45, ,
4, ,-45, ,
1, ,-45, ,
0, ,-44, ,
3, ,-45, ,
1, ,-45, ,
0, ,-45, ,
-4, ,-45, ,
3, ,-45, ,
4, ,-44, ,
6, ,-45, ,
1, ,-45, ,
4, ,-45, ,
3, ,-45, ,
-1, ,-44, ,
-4, ,-45, ,
4, ,-45, ,
4, ,-45, ,
3, ,-44, ,
-1, ,-45, ,
6, ,-45, ,
3, ,-44, ,
0, ,-45, ,
-1, ,-45, ,
1, ,-44, ,
8, ,-45, ,
4, ,-45, ,
1, ,-44, ,
8, ,-45, ,
4, ,-45, ,
3, ,-44, ,
0, ,-45, ,
1, ,-45, ,
4, ,-44, ,
4, ,-45, ,
-1, ,-45, ,
5, ,-44, ,
4, ,-45, ,
4, ,-45, ,
1, ,-44, ,
4, ,-45, ,
4, ,-45, ,
0, ,-44, ,
-4, ,-45, ,
0, ,-45, ,
3, ,-44, ,
4, ,-45, ,
1, ,-45, ,
8, ,-45, ,
8, ,-45, ,
5, ,-45, ,
-4, ,-45, ,
0, ,-46, ,
0, ,-45, ,
0, ,-44, ,
0, ,-45, ,
3, ,-45, ,
5, ,-44, ,
4, ,-45, ,
-2, ,-45, ,
1, ,-45, ,
3, ,-45, ,
1, ,-45, ,
-2, ,-45, ,
3, ,-46, ,
4, ,-45, ,
1, ,-44, ,
-5, ,-45, ,
1, ,-45, ,
0, ,-44, ,
1, ,-45, ,
-5, ,-45, ,
0, ,-45, ,
5, ,-45, ,
4, ,-45, ,
0, ,-44, ,
5, ,-45, ,
1, ,-45, ,
3, ,-45, ,
-4, ,-45, ,
0, ,-45, ,
3, ,-44, ,
4, ,-45, ,
-2, ,-45, ,
3, ,-45, ,
4, ,-45, ,
1, ,-45, ,
-4, ,-45, ,
0, ,-45, ,
1, ,-45, ,
0, ,-44, ,
-2, ,-45, ,
3, ,-45, ,
4, ,-44, ,
5, ,-45, ,
1, ,-45, ,
5, ,-45, ,
6, ,-45, ,
-1, ,-45, ,
-4, ,-44, ,
3, ,-45, ,
1, ,-45, ,
1, ,-44, ,
-2, ,-45, ,
-2, ,-45, ,
0, ,-44, ,
0, ,-45, ,
-4, ,-45, ,
-1, ,-44, ,
1, ,-44, ,
1, ,-45, ,
0, ,-44, ,
3, ,-45, ,
4, ,-45, ,
0, ,-44, ,
-4, ,-45, ,
-1, ,-45, ,
-5, ,-44, ,
-2, ,-45, ,
-7, ,-45, ,
-1, ,-45, ,
3, ,-45, ,
-2, ,-45, ,
-1, ,-44, ,
1, ,-45, ,
0, ,-45, ,
-1, ,-44, ,
-4, ,-45, ,
-1, ,-45, ,
1, ,-44, ,
1, ,-45, ,
-4, ,-45, ,
0, ,-45, ,
3, ,-45, ,
0, ,-45, ,
-6, ,-44, ,
0, ,-45, ,
0, ,-44, ,
-2, ,-44, ,
-2, ,-45, ,
1, ,-45, ,
0, ,-44, ,
3, ,-45, ,
-5, ,-45, ,
-2, ,-45, ,
-1, ,-45, ,
-2, ,-45, ,
-6, ,-44, ,
4, ,-45, ,
1, ,-45, ,
1, ,-44, ,
0, ,-45, ,
0, ,-45, ,
1, ,-44, ,
-2, ,-45, ,
-7, ,-45, ,
-4, ,-45, ,
-2, ,-45, ,
0, ,-45, ,
-2, ,-44, ,
5, ,-45, ,
1, ,-45, ,
-1, ,-44, ,
-4, ,-45, ,
-4, ,-45, ,
-2, ,-44, ,
-2, ,-45, ,
-5, ,-45, ,
1, ,-45, ,
1, ,-45, ,
-1, ,-45, ,
-4, ,-45, ,
1, ,-45, ,
0, ,-45, ,
-1, ,-44, ,
-2, ,-45, ,
1, ,-45, ,
3, ,-44, ,
-1, ,-45, ,
-5, ,-45, ,
-1, ,-45, ,
0, ,-45, ,
-1, ,-44, ,
-2, ,-45, ,
5, ,-45, ,
3, ,-45, ,
0, ,-44, ,
-1, ,-45, ,
3, ,-45, ,
-1, ,-44, ,
0, ,-45, ,
-9, ,-45, ,
-2, ,-44, ,
1, ,-45, ,
-1, ,-45, ,
0, ,-45, ,
6, ,-45, ,
3, ,-45, ,
5, ,-44, ,
-1, ,-45, ,
-1, ,-45, ,
1, ,-44, ,
-1, ,-45, ,
-6, ,-45, ,
-4, ,-45, ,
0, ,-45, ,
-1, ,-45, ,
-6, ,-44, ,
1, ,-45, ,
0, ,-45, ,
0, ,-44, ,
-1, ,-45, ,
0, ,-45, ,
3, ,-44, ,
1, ,-45, ,
-4, ,-45, ,
1, ,-44, ,
0, ,-45, ,
0, ,-44, ,
-4, ,-44, ,
-1, ,-45, ,
-2, ,-45, ,
0, ,-44, ,
-1, ,-45, ,
0, ,-45, ,
4, ,-44, ,
3, ,-45, ,
-4, ,-45, ,
1, ,-45, ,
0, ,-45, ,
0, ,-45, ,
-2, ,-44, ,
4, ,-45, ,
5, ,-45, ,
3, ,-44, ,
1, ,-45, ,
4, ,-45, ,
1, ,-45, ,
3, ,-45, ,
0, ,-45, ,
1, ,-45, ,
4, ,-45, ,
1, ,-45, ,
0, ,-45, ,
3, ,-45, ,
4, ,-45, ,
4, ,-44, ,
0, ,-45, ,
4, ,-45, ,
1, ,-44, ,
6, ,-45, ,
0, ,-45, ,
1, ,-44, ,
3, ,-45, ,
3, ,-45, ,
0, ,-44, ,
3, ,-45, ,
4, ,-44, ,
1, ,-44, ,
-1, ,-45, ,
3, ,-45, ,
1, ,-44, ,
5, ,-45, ,
1, ,-45, ,
4, ,-45, ,
5, ,-45, ,
0, ,-45, ,
-1, ,-44, ,
5, ,-45, ,
4, ,-45, ,
5, ,-44, ,
4, ,-45, ,
5, ,-45, ,
9, ,-44, ,
5, ,-45, ,
0, ,-45, ,
5, ,-45, ,
4, ,-45, ,
3, ,-45, ,
4, ,-44, ,
6, ,-45, ,
5, ,-45, ,
0, ,-44, ,
-1, ,-44, ,
4, ,-45, ,
1, ,-44, ,
-1, ,-45, ,
-2, ,-45, ,
6, ,-45, ,
6, ,-45, ,
5, ,-44, ,
0, ,-44, ,
4, ,-45, ,
3, ,-45, ,
1, ,-44, ,
-1, ,-45, ,
1, ,-45, ,
5, ,-44, ,
5, ,-45, ,
0, ,-45, ,
4, ,-45, ,
5, ,-45, ,
1, ,-45, ,
-2, ,-44, ,
1, ,-45, ,
4, ,-45, ,
1, ,-45, ,
-2, ,-44, ,
1, ,-45, ,
0, ,-44, ,
5, ,-45, ,
0, ,-45, ,
3, ,-45, ,
5, ,-45, ,
0, ,-45, ,
-1, ,-45, ,
4, ,-45, ,
3, ,-45, ,
1, ,-44, ,
3, ,-45, ,
5, ,-45, ,
6, ,-44, ,
5, ,-45, ,
-1, ,-45, ,
0, ,-44, ,
1, ,-45, ,
1, ,-45, ,
-1, ,-45, ,
4, ,-45, ,
4, ,-45, ,
3, ,-45, ,
0, ,-45, ,
5, ,-45, ,
-1, ,-44, ,
1, ,-45, ,
4, ,-45, ,
6, ,-45, ,
8, ,-45, ,
5, ,-45, ,
1, ,-44, ,
5, ,-45, ,
0, ,-45, ,
-1, ,-45, ,
-2, ,-45, ,
-1, ,-45, ,
