src/vary_am2_1411/temp0005170.CSV

Format,1.0B,
Memory Length,10000,Memory Length,10000,
IntpDistance,0,IntpDistance,0,
Trigger Address,4999,Trigger Address,4999,
Trigger Level,-1.000E+00,Trigger Level,-1.000E+00,
Source,CH1,Source,CH2,
Vertical Units,V,Vertical Units,V,
Vertical Units Div,0,Vertical Units Div,0,
Vertical Units Extend Div,16,Vertical Units Extend Div,16,
Label,,Label,,
Probe Type,0,Probe Type,0,
Probe Ratio,1.000e+01,Probe Ratio,1.000e+00,
Vertical Scale,2.000e-02,Vertical Scale,1.000e+00,
Vertical Position,-5.120e-02,Vertical Position,2.000e-01,
Horizontal Units,S,Horizontal Units,S,
Horizontal Scale,1.000E-05,Horizontal Scale,1.000E-05,
Horizontal Position,0.000E+00,Horizontal Position,0.000E+00,
Horizontal Mode,Main,Horizontal Mode,Main,
SincET Mode,Real Time,SincET Mode,Real Time,
Sampling Period,1.000e-08,Sampling Period,1.000e-08,
Horizontal Old Scale,1.000E-05,Horizontal Old Scale,1.000E-05,
Horizontal Old Position,0.000E+00,Horizontal Old Position,0.000E+00,
Firmware,V1.23,Firmware,V1.23,
Mode,Fast,Mode,Fast,
Waveform Data,,Waveform Data,,
5, ,-43, ,
4, ,-42, ,
4, ,-43, ,
5, ,-42, ,
9, ,-42, ,
5, ,-42, ,
4, ,-42, ,
6, ,-42, ,
4, ,-43, ,
3, ,-42, ,
-4, ,-42, ,
3, ,-42, ,
6, ,-43, ,
-1, ,-42, ,
0, ,-43, ,
6, ,-43, ,
4, ,-43, ,
4, ,-42, ,
0, ,-42, ,
5, ,-42, ,
9, ,-43, ,
8, ,-42, ,
5, ,-42, ,
9, ,-42, ,
5, ,-43, ,
4, ,-42, ,
-1, ,-43, ,
0, ,-43, ,
3, ,-42, ,
1, ,-42, ,
-1, ,-43, ,
5, ,-42, ,
6, ,-43, ,
5, ,-42, ,
1, ,-42, ,
3, ,-42, ,
0, ,-42, ,
0, ,-42, ,
-4, ,-42, ,
0, ,-42, ,
3, ,-42, ,
0, ,-43, ,
-11, ,-42, ,
-1, ,-42, ,
6, ,-43, ,
-4, ,-43, ,
-2, ,-42, ,
5, ,-43, ,
0, ,-43, ,
-1, ,-42, ,
1, ,-42, ,
3, ,-43, ,
3, ,-42, ,
0, ,-42, ,
-5, ,-42, ,
-4, ,-42, ,
-4, ,-43, ,
-2, ,-43, ,
-9, ,-42, ,
1, ,-42, ,
0, ,-42, ,
0, ,-42, ,
-2, ,-43, ,
-2, ,-43, ,
-4, ,-42, ,
-2, ,-43, ,
-5, ,-42, ,
-2, ,-42, ,
0, ,-43, ,
-1, ,-43, ,
-5, ,-42, ,
1, ,-43, ,
-4, ,-43, ,
-2, ,-42, ,
-6, ,-43, ,
-2, ,-43, ,
-1, ,-42, ,
1, ,-42, ,
-5, ,-42, ,
-1, ,-42, ,
0, ,-43, ,
-2, ,-42, ,
-5, ,-42, ,
-1, ,-42, ,
0, ,-43, ,
-1, ,-42, ,
-2, ,-42, ,
0, ,-43, ,
-4, ,-42, ,
-2, ,-43, ,
-9, ,-42, ,
-6, ,-42, ,
-2, ,-43, ,
-6, ,-43, ,
-6, ,-42, ,
-2, ,-42, ,
-2, ,-42, ,
-4, ,-42, ,
-6, ,-43, ,
-4, ,-43, ,
-4, ,-42, ,
-2, ,-43, ,
-9, ,-42, ,
-4, ,-42, ,
-1, ,-43, ,
-2, ,-42, ,
-7, ,-42, ,
0, ,-42, ,
-1, ,-43, ,
-6, ,-42, ,
-9, ,-43, ,
-7, ,-43, ,
-9, ,-42, ,
-6, ,-42, ,
-12, ,-42, ,
-6, ,-42, ,
-5, ,-43, ,
-6, ,-42, ,
-11, ,-42, ,
-4, ,-43, ,
-5, ,-42, ,
-4, ,-42, ,
-1, ,-43, ,
-2, ,-42, ,
-1, ,-42, ,
-2, ,-43, ,
-7, ,-42, ,
-4, ,-42, ,
-6, ,-43, ,
-6, ,-42, ,
-10, ,-42, ,
-2, ,-43, ,
-1, ,-43, ,
-4, ,-42, ,
0, ,-43, ,
-1, ,-42, ,
-1, ,-42, ,
0, ,-43, ,
-7, ,-42, ,
-4, ,-42, ,
3, ,-43, ,
0, ,-43, ,
-7, ,-42, ,
0, ,-42, ,
1, ,-42, ,
0, ,-42, ,
-2, ,-43, ,
-1, ,-43, ,
-1, ,-42, ,
-2, ,-43, ,
-6, ,-42, ,
-2, ,-42, ,
0, ,-43, ,
1, ,-42, ,
-2, ,-42, ,
3, ,-43, ,
1, ,-42, ,
1, ,-42, ,
-2, ,-43, ,
0, ,-43, ,
3, ,-42, ,
5, ,-42, ,
1, ,-43, ,
5, ,-42, ,
4, ,-43, ,
3, ,-42, ,
-4, ,-42, ,
4, ,-42, ,
3, ,-43, ,
4, ,-42, ,
-1, ,-43, ,
6, ,-43, ,
1, ,-42, ,
3, ,-43, ,
-1, ,-42, ,
-2, ,-42, ,
1, ,-43, ,
-1, ,-42, ,
-5, ,-42, ,
3, ,-42, ,
1, ,-43, ,
0, ,-42, ,
-2, ,-43, ,
1, ,-42, ,
1, ,-42, ,
3, ,-42, ,
-1, ,-42, ,
4, ,-42, ,
3, ,-43, ,
1, ,-43, ,
-4, ,-42, ,
0, ,-43, ,
-1, ,-42, ,
0, ,-42, ,
-1, ,-43, ,
1, ,-43, ,
4, ,-42, ,
4, ,-42, ,
-1, ,-42, ,
5, ,-42, ,
4, ,-43, ,
4, ,-43, ,
-1, ,-42, ,
3, ,-42, ,
3, ,-43, ,
3, ,-42, ,
1, ,-43, ,
3, ,-43, ,
4, ,-42, ,
6, ,-42, ,
-1, ,-43, ,
4, ,-42, ,
9, ,-43, ,
1, ,-43, ,
-1, ,-42, ,
3, ,-43, ,
1, ,-43, ,
4, ,-42, ,
0, ,-42, ,
6, ,-43, ,
6, ,-42, ,
8, ,-42, ,
1, ,-42, ,
5, ,-42, ,
5, ,-43, ,
4, ,-42, ,
4, ,-42, ,
6, ,-42, ,
5, ,-43, ,
5, ,-42, ,
3, ,-43, ,
4, ,-42, ,
3, ,-42, ,
5, ,-42, ,
1, ,-42, ,
6, ,-42, ,
10, ,-43, ,
9, ,-43, ,
5, ,-42, ,
10, ,-42, ,
8, ,-43, ,
8, ,-42, ,
4, ,-42, ,
5, ,-43, ,
10, ,-42, ,
8, ,-43, ,
3, ,-43, ,
10, ,-42, ,
6, ,-43, ,
5, ,-42, ,
-4, ,-42, ,
1, ,-42, ,
1, ,-43, ,
0, ,-42, ,
0, ,-43, ,
8, ,-43, ,
6, ,-42, ,
8, ,-43, ,
4, ,-42, ,
5, ,-42, ,
4, ,-43, ,
4, ,-43, ,
1, ,-42, ,
1, ,-42, ,
3, ,-43, ,
3, ,-42, ,
0, ,-43, ,
4, ,-43, ,
4, ,-43, ,
3, ,-42, ,
-2, ,-42, ,
4, ,-42, ,
5, ,-43, ,
4, ,-43, ,
1, ,-42, ,
6, ,-42, ,
4, ,-43, ,
0, ,-42, ,
-2, ,-43, ,
1, ,-43, ,
1, ,-42, ,
4, ,-42, ,
-1, ,-42, ,
3, ,-42, ,
5, ,-43, ,
3, ,-43, ,
-1, ,-42, ,
6, ,-42, ,
1, ,-43, ,
3, ,-42, ,
0, ,-42, ,
3, ,-43, ,
3, ,-42, ,
4, ,-43, ,
1, ,-42, ,
4, ,-42, ,
3, ,-43, ,
4, ,-42, ,
-4, ,-42, ,
5, ,-43, ,
3, ,-42, ,
3, ,-42, ,
1, ,-43, ,
3, ,-43, ,
4, ,-42, ,
8, ,-42, ,
1, ,-42, ,
5, ,-42, ,
4, ,-43, ,
0, ,-41, ,
-5, ,-35, ,
8, ,-25, ,
8, ,-14, ,
6, ,-6, ,
6, ,2, ,
5, ,9, ,
5, ,15, ,
4, ,19, ,
1, ,23, ,
8, ,28, ,
10, ,31, ,
9, ,34, ,
5, ,36, ,
8, ,38, ,
4, ,40, ,
1, ,40, ,
-2, ,42, ,
0, ,45, ,
-1, ,45, ,
3, ,46, ,
-4, ,47, ,
1, ,47, ,
3, ,49, ,
0, ,48, ,
-6, ,49, ,
0, ,49, ,
-4, ,50, ,
-1, ,48, ,
0, ,50, ,
0, ,50, ,
0, ,50, ,
1, ,50, ,
-5, ,51, ,
-1, ,49, ,
-2, ,51, ,
-2, ,50, ,
-4, ,51, ,
3, ,51, ,
1, ,51, ,
1, ,50, ,
-4, ,52, ,
-4, ,51, ,
-5, ,51, ,
-2, ,51, ,
-10, ,51, ,
-5, ,50, ,
-1, ,51, ,
0, ,50, ,
-2, ,51, ,
3, ,51, ,
-4, ,51, ,
-2, ,50, ,
-6, ,52, ,
-5, ,50, ,
-2, ,50, ,
-2, ,51, ,
-9, ,51, ,
-4, ,50, ,
-5, ,51, ,
-5, ,50, ,
-9, ,50, ,
-2, ,51, ,
-2, ,51, ,
-2, ,49, ,
-1, ,51, ,
0, ,50, ,
-1, ,50, ,
3, ,50, ,
-6, ,51, ,
0, ,50, ,
-2, ,51, ,
-4, ,50, ,
-6, ,50, ,
1, ,51, ,
-4, ,51, ,
4, ,49, ,
-4, ,51, ,
-1, ,51, ,
-4, ,50, ,
-4, ,50, ,
-10, ,51, ,
-4, ,50, ,
-7, ,51, ,
-7, ,50, ,
-6, ,50, ,
-1, ,51, ,
1, ,50, ,
0, ,49, ,
-4, ,51, ,
-1, ,50, ,
-2, ,50, ,
-1, ,50, ,
-5, ,51, ,
-1, ,49, ,
0, ,51, ,
-2, ,50, ,
-7, ,50, ,
-2, ,51, ,
-4, ,51, ,
-1, ,49, ,
0, ,51, ,
1, ,51, ,
1, ,50, ,
1, ,50, ,
-2, ,51, ,
-1, ,49, ,
-2, ,51, ,
-4, ,50, ,
-10, ,50, ,
-2, ,51, ,
-5, ,50, ,
-2, ,49, ,
0, ,51, ,
0, ,50, ,
1, ,50, ,
-1, ,50, ,
-7, ,51, ,
-1, ,49, ,
1, ,51, ,
1, ,49, ,
-6, ,50, ,
3, ,51, ,
-1, ,50, ,
-2, ,49, ,
-1, ,51, ,
3, ,51, ,
1, ,50, ,
3, ,50, ,
-2, ,51, ,
1, ,49, ,
0, ,51, ,
-2, ,50, ,
-6, ,50, ,
0, ,51, ,
0, ,50, ,
1, ,49, ,
1, ,51, ,
1, ,50, ,
0, ,50, ,
6, ,50, ,
-1, ,51, ,
6, ,50, ,
6, ,51, ,
4, ,49, ,
0, ,50, ,
3, ,50, ,
-2, ,51, ,
5, ,49, ,
-1, ,51, ,
4, ,50, ,
8, ,50, ,
8, ,50, ,
1, ,51, ,
4, ,50, ,
5, ,51, ,
3, ,49, ,
-2, ,50, ,
5, ,50, ,
3, ,50, ,
3, ,49, ,
-1, ,51, ,
1, ,50, ,
1, ,50, ,
4, ,50, ,
-4, ,51, ,
0, ,49, ,
3, ,51, ,
3, ,50, ,
1, ,50, ,
6, ,50, ,
4, ,50, ,
5, ,49, ,
3, ,51, ,
3, ,51, ,
4, ,50, ,
4, ,50, ,
0, ,51, ,
1, ,49, ,
0, ,51, ,
1, ,49, ,
-2, ,50, ,
1, ,51, ,
-1, ,51, ,
-1, ,49, ,
-4, ,51, ,
0, ,50, ,
0, ,50, ,
4, ,50, ,
1, ,50, ,
6, ,50, ,
4, ,51, ,
3, ,49, ,
-4, ,50, ,
1, ,50, ,
-2, ,50, ,
1, ,49, ,
1, ,51, ,
3, ,50, ,
3, ,50, ,
4, ,50, ,
-2, ,51, ,
5, ,50, ,
1, ,51, ,
3, ,50, ,
-4, ,50, ,
5, ,51, ,
5, ,50, ,
3, ,49, ,
-1, ,51, ,
4, ,50, ,
0, ,50, ,
3, ,50, ,
1, ,51, ,
4, ,49, ,
4, ,51, ,
4, ,50, ,
0, ,50, ,
6, ,51, ,
0, ,51, ,
4, ,49, ,
-1, ,51, ,
3, ,50, ,
3, ,50, ,
3, ,50, ,
-1, ,51, ,
4, ,49, ,
5, ,51, ,
5, ,50, ,
1, ,50, ,
8, ,50, ,
1, ,50, ,
3, ,49, ,
1, ,51, ,
4, ,50, ,
4, ,50, ,
8, ,50, ,
3, ,50, ,
6, ,49, ,
5, ,51, ,
3, ,49, ,
-1, ,50, ,
4, ,50, ,
1, ,50, ,
4, ,49, ,
1, ,51, ,
4, ,50, ,
4, ,50, ,
4, ,50, ,
-2, ,51, ,
3, ,49, ,
3, ,51, ,
3, ,49, ,
0, ,50, ,
6, ,50, ,
4, ,50, ,
4, ,49, ,
0, ,51, ,
1, ,50, ,
-1, ,50, ,
4, ,50, ,
-1, ,51, ,
4, ,50, ,
4, ,51, ,
3, ,49, ,
-4, ,50, ,
-1, ,50, ,
-5, ,50, ,
-2, ,49, ,
-4, ,51, ,
-2, ,50, ,
0, ,50, ,
-1, ,50, ,
0, ,50, ,
3, ,50, ,
1, ,51, ,
3, ,50, ,
1, ,50, ,
1, ,50, ,
0, ,50, ,
-2, ,49, ,
-5, ,51, ,
-1, ,50, ,
-2, ,50, ,
-2, ,50, ,
-7, ,50, ,
5, ,49, ,
0, ,51, ,
-1, ,49, ,
1, ,50, ,
5, ,51, ,
3, ,50, ,
1, ,49, ,
1, ,51, ,
-1, ,50, ,
1, ,50, ,
-1, ,50, ,
-6, ,50, ,
1, ,49, ,
-2, ,51, ,
0, ,50, ,
-1, ,50, ,
4, ,50, ,
0, ,50, ,
0, ,49, ,
-2, ,51, ,
0, ,50, ,
1, ,50, ,
6, ,50, ,
-2, ,50, ,
5, ,49, ,
4, ,51, ,
4, ,50, ,
0, ,50, ,
3, ,50, ,
0, ,50, ,
4, ,49, ,
-1, ,51, ,
-1, ,50, ,
3, ,50, ,
1, ,50, ,
-5, ,50, ,
-4, ,49, ,
-1, ,51, ,
-2, ,49, ,
-6, ,50, ,
1, ,50, ,
0, ,50, ,
1, ,49, ,
0, ,51, ,
1, ,50, ,
-2, ,50, ,
-1, ,50, ,
-9, ,51, ,
0, ,49, ,
1, ,51, ,
-1, ,49, ,
-1, ,50, ,
5, ,51, ,
-1, ,50, ,
1, ,49, ,
0, ,51, ,
-5, ,50, ,
-1, ,50, ,
-2, ,50, ,
-6, ,51, ,
1, ,49, ,
0, ,50, ,
0, ,50, ,
-5, ,50, ,
4, ,50, ,
3, ,50, ,
0, ,49, ,
0, ,51, ,
0, ,50, ,
1, ,50, ,
1, ,50, ,
-2, ,51, ,
-1, ,49, ,
0, ,51, ,
0, ,50, ,
-6, ,50, ,
0, ,51, ,
-4, ,50, ,
1, ,48, ,
1, ,51, ,
4, ,50, ,
3, ,50, ,
1, ,50, ,
-6, ,50, ,
-1, ,49, ,
-2, ,51, ,
-2, ,49, ,
-5, ,50, ,
4, ,50, ,
5, ,50, ,
3, ,49, ,
0, ,51, ,
1, ,50, ,
0, ,50, ,
6, ,50, ,
-1, ,50, ,
4, ,49, ,
0, ,51, ,
-2, ,49, ,
0, ,50, ,
4, ,50, ,
1, ,50, ,
4, ,49, ,
1, ,51, ,
3, ,50, ,
3, ,50, ,
6, ,50, ,
3, ,51, ,
4, ,49, ,
4, ,51, ,
4, ,49, ,
-1, ,50, ,
3, ,50, ,
0, ,50, ,
0, ,48, ,
-1, ,51, ,
4, ,50, ,
-1, ,50, ,
4, ,50, ,
-4, ,51, ,
-1, ,49, ,
0, ,51, ,
-1, ,49, ,
-4, ,50, ,
4, ,50, ,
3, ,51, ,
5, ,49, ,
1, ,51, ,
3, ,50, ,
3, ,50, ,
1, ,50, ,
-4, ,51, ,
0, ,49, ,
-1, ,51, ,
0, ,49, ,
-4, ,50, ,
3, ,50, ,
0, ,50, ,
-2, ,49, ,
-1, ,51, ,
1, ,50, ,
-1, ,50, ,
3, ,50, ,
-2, ,51, ,
1, ,49, ,
1, ,51, ,
3, ,50, ,
-2, ,50, ,
3, ,51, ,
-1, ,50, ,
1, ,49, ,
-1, ,51, ,
0, ,49, ,
-1, ,50, ,
5, ,50, ,
-4, ,50, ,
3, ,49, ,
3, ,50, ,
0, ,50, ,
-1, ,50, ,
4, ,50, ,
1, ,50, ,
1, ,49, ,
3, ,51, ,
3, ,50, ,
5, ,50, ,
8, ,50, ,
5, ,50, ,
8, ,49, ,
5, ,51, ,
1, ,49, ,
-2, ,50, ,
3, ,51, ,
0, ,51, ,
3, ,49, ,
-1, ,51, ,
3, ,50, ,
3, ,50, ,
1, ,50, ,
-1, ,50, ,
1, ,49, ,
4, ,51, ,
5, ,49, ,
-1, ,50, ,
8, ,50, ,
0, ,50, ,
3, ,49, ,
0, ,51, ,
0, ,50, ,
3, ,50, ,
3, ,50, ,
0, ,51, ,
4, ,50, ,
3, ,51, ,
1, ,49, ,
-1, ,50, ,
1, ,51, ,
-1, ,50, ,
0, ,49, ,
-1, ,51, ,
0, ,50, ,
0, ,50, ,
1, ,50, ,
-2, ,50, ,
1, ,49, ,
0, ,51, ,
0, ,50, ,
-2, ,50, ,
1, ,50, ,
1, ,51, ,
3, ,49, ,
0, ,51, ,
3, ,50, ,
0, ,50, ,
5, ,50, ,
-2, ,50, ,
1, ,50, ,
3, ,51, ,
-1, ,50, ,
-2, ,50, ,
0, ,51, ,
-2, ,50, ,
-2, ,49, ,
-5, ,51, ,
-1, ,50, ,
0, ,50, ,
3, ,50, ,
1, ,50, ,
3, ,49, ,
5, ,51, ,
4, ,50, ,
3, ,50, ,
4, ,51, ,
-1, ,51, ,
-1, ,49, ,
-5, ,51, ,
-1, ,50, ,
-1, ,50, ,
1, ,50, ,
0, ,51, ,
3, ,50, ,
3, ,51, ,
6, ,50, ,
-2, ,50, ,
6, ,51, ,
1, ,51, ,
-5, ,49, ,
0, ,51, ,
6, ,50, ,
4, ,50, ,
3, ,50, ,
-5, ,50, ,
0, ,49, ,
-2, ,51, ,
1, ,50, ,
-2, ,50, ,
3, ,50, ,
0, ,50, ,
3, ,49, ,
0, ,50, ,
-1, ,50, ,
-2, ,50, ,
0, ,50, ,
-2, ,50, ,
3, ,49, ,
4, ,51, ,
5, ,49, ,
4, ,50, ,
3, ,50, ,
3, ,50, ,
1, ,49, ,
-4, ,51, ,
-1, ,50, ,
0, ,50, ,
-1, ,50, ,
-4, ,50, ,
1, ,50, ,
1, ,51, ,
-1, ,49, ,
-2, ,50, ,
0, ,50, ,
-1, ,50, ,
0, ,49, ,
-5, ,50, ,
0, ,50, ,
-1, ,50, ,
0, ,50, ,
-4, ,50, ,
-1, ,50, ,
1, ,51, ,
-2, ,50, ,
-4, ,50, ,
1, ,50, ,
-2, ,51, ,
1, ,49, ,
-2, ,51, ,
-2, ,50, ,
-1, ,50, ,
-5, ,50, ,
-7, ,50, ,
-2, ,49, ,
0, ,51, ,
1, ,50, ,
-1, ,50, ,
5, ,50, ,
1, ,50, ,
1, ,49, ,
-2, ,51, ,
-5, ,50, ,
-5, ,50, ,
-1, ,50, ,
3, ,50, ,
-2, ,49, ,
3, ,51, ,
0, ,50, ,
-1, ,50, ,
5, ,50, ,
0, ,50, ,
3, ,49, ,
1, ,51, ,
-1, ,51, ,
4, ,50, ,
3, ,50, ,
0, ,50, ,
3, ,49, ,
1, ,51, ,
-1, ,49, ,
0, ,50, ,
3, ,51, ,
-1, ,50, ,
5, ,49, ,
5, ,51, ,
3, ,50, ,
1, ,50, ,
1, ,50, ,
-2, ,51, ,
-4, ,50, ,
1, ,51, ,
-1, ,49, ,
-2, ,50, ,
4, ,50, ,
6, ,50, ,
6, ,49, ,
5, ,51, ,
4, ,50, ,
4, ,50, ,
4, ,50, ,
-5, ,51, ,
3, ,49, ,
1, ,51, ,
0, ,50, ,
-5, ,50, ,
-2, ,51, ,
1, ,50, ,
5, ,49, ,
1, ,51, ,
4, ,50, ,
-1, ,50, ,
0, ,50, ,
-5, ,50, ,
-1, ,49, ,
-1, ,51, ,
-1, ,49, ,
-2, ,50, ,
5, ,50, ,
3, ,51, ,
3, ,49, ,
0, ,51, ,
1, ,50, ,
0, ,50, ,
1, ,50, ,
-4, ,51, ,
1, ,50, ,
1, ,51, ,
-1, ,49, ,
-2, ,50, ,
1, ,50, ,
4, ,50, ,
5, ,49, ,
6, ,51, ,
8, ,50, ,
6, ,50, ,
6, ,50, ,
-1, ,51, ,
3, ,49, ,
1, ,51, ,
-1, ,50, ,
-2, ,50, ,
3, ,51, ,
4, ,50, ,
4, ,49, ,
5, ,51, ,
3, ,50, ,
0, ,50, ,
3, ,50, ,
-6, ,51, ,
5, ,49, ,
4, ,51, ,
3, ,50, ,
0, ,50, ,
4, ,51, ,
4, ,50, ,
5, ,49, ,
-1, ,51, ,
4, ,51, ,
4, ,50, ,
8, ,50, ,
4, ,51, ,
5, ,49, ,
4, ,51, ,
-1, ,50, ,
-6, ,50, ,
3, ,51, ,
1, ,50, ,
3, ,49, ,
4, ,51, ,
4, ,50, ,
5, ,50, ,
5, ,50, ,
1, ,51, ,
4, ,50, ,
1, ,51, ,
5, ,49, ,
1, ,50, ,
6, ,50, ,
5, ,51, ,
4, ,49, ,
-1, ,51, ,
1, ,50, ,
0, ,50, ,
5, ,50, ,
-2, ,50, ,
4, ,49, ,
4, ,51, ,
3, ,49, ,
-1, ,50, ,
4, ,50, ,
3, ,51, ,
1, ,49, ,
0, ,51, ,
1, ,50, ,
1, ,50, ,
3, ,50, ,
-4, ,50, ,
1, ,49, ,
1, ,51, ,
-1, ,50, ,
0, ,50, ,
3, ,51, ,
4, ,50, ,
3, ,49, ,
1, ,51, ,
0, ,50, ,
3, ,50, ,
10, ,50, ,
-4, ,51, ,
5, ,49, ,
5, ,51, ,
0, ,49, ,
-1, ,50, ,
1, ,51, ,
-2, ,50, ,
3, ,49, ,
-1, ,51, ,
3, ,50, ,
4, ,50, ,
4, ,50, ,
1, ,51, ,
3, ,50, ,
1, ,51, ,
4, ,50, ,
0, ,50, ,
5, ,50, ,
3, ,50, ,
0, ,49, ,
-1, ,51, ,
1, ,50, ,
0, ,50, ,
1, ,50, ,
1, ,50, ,
5, ,49, ,
5, ,51, ,
4, ,50, ,
4, ,50, ,
10, ,50, ,
-1, ,50, ,
3, ,49, ,
0, ,51, ,
-1, ,50, ,
4, ,50, ,
4, ,50, ,
0, ,51, ,
8, ,50, ,
5, ,51, ,
1, ,50, ,
-2, ,49, ,
4, ,45, ,
-2, ,35, ,
-4, ,25, ,
-7, ,15, ,
-7, ,8, ,
-6, ,0, ,
0, ,-5, ,
-7, ,-10, ,
-4, ,-16, ,
-4, ,-19, ,
-9, ,-22, ,
-7, ,-25, ,
0, ,-28, ,
-2, ,-30, ,
-4, ,-31, ,
-2, ,-33, ,
-4, ,-35, ,
-7, ,-36, ,
-5, ,-37, ,
-7, ,-38, ,
0, ,-39, ,
3, ,-40, ,
0, ,-40, ,
-5, ,-41, ,
-1, ,-41, ,
-1, ,-42, ,
-4, ,-41, ,
-4, ,-42, ,
0, ,-42, ,
-2, ,-42, ,
3, ,-42, ,
-1, ,-43, ,
1, ,-42, ,
3, ,-43, ,
0, ,-43, ,
-4, ,-43, ,
-1, ,-43, ,
-2, ,-43, ,
-2, ,-42, ,
-5, ,-43, ,
-4, ,-43, ,
-1, ,-43, ,
0, ,-43, ,
-6, ,-43, ,
0, ,-43, ,
1, ,-44, ,
4, ,-43, ,
-4, ,-43, ,
4, ,-43, ,
4, ,-43, ,
-1, ,-43, ,
-5, ,-43, ,
-2, ,-43, ,
-2, ,-43, ,
-1, ,-43, ,
-7, ,-43, ,
3, ,-43, ,
3, ,-43, ,
3, ,-43, ,
-1, ,-42, ,
5, ,-43, ,
1, ,-43, ,
-1, ,-42, ,
-1, ,-43, ,
-1, ,-43, ,
-1, ,-43, ,
1, ,-43, ,
-2, ,-43, ,
1, ,-43, ,
3, ,-43, ,
5, ,-43, ,
-1, ,-43, ,
4, ,-43, ,
3, ,-43, ,
0, ,-43, ,
-4, ,-43, ,
1, ,-43, ,
-1, ,-43, ,
0, ,-43, ,
-6, ,-43, ,
0, ,-42, ,
3, ,-43, ,
-2, ,-43, ,
-6, ,-42, ,
-1, ,-43, ,
-4, ,-43, ,
-1, ,-42, ,
-2, ,-43, ,
4, ,-43, ,
3, ,-42, ,
1, ,-43, ,
-5, ,-43, ,
0, ,-42, ,
0, ,-43, ,
0, ,-43, ,
-2, ,-42, ,
5, ,-43, ,
5, ,-43, ,
5, ,-42, ,
-2, ,-43, ,
0, ,-43, ,
-1, ,-42, ,
-1, ,-43, ,
-6, ,-43, ,
0, ,-42, ,
4, ,-43, ,
0, ,-43, ,
-6, ,-42, ,
4, ,-43, ,
-1, ,-43, ,
-1, ,-42, ,
0, ,-43, ,
-2, ,-43, ,
0, ,-43, ,
0, ,-43, ,
-5, ,-43, ,
1, ,-43, ,
-1, ,-43, ,
-1, ,-43, ,
-5, ,-42, ,
0, ,-42, ,
1, ,-43, ,
0, ,-43, ,
-1, ,-43, ,
-1, ,-43, ,
1, ,-42, ,
1, ,-43, ,
-4, ,-42, ,
1, ,-42, ,
1, ,-43, ,
-1, ,-43, ,
-2, ,-42, ,
4, ,-43, ,
3, ,-43, ,
5, ,-42, ,
1, ,-43, ,
5, ,-43, ,
1, ,-42, ,
1, ,-43, ,
-6, ,-42, ,
0, ,-43, ,
0, ,-43, ,
-1, ,-42, ,
-4, ,-42, ,
4, ,-42, ,
4, ,-43, ,
4, ,-42, ,
3, ,-43, ,
5, ,-43, ,
4, ,-43, ,
5, ,-43, ,
0, ,-42, ,
5, ,-42, ,
3, ,-43, ,
0, ,-43, ,
-1, ,-42, ,
1, ,-42, ,
-1, ,-43, ,
1, ,-42, ,
0, ,-43, ,
1, ,-43, ,
4, ,-42, ,
3, ,-42, ,
1, ,-43, ,
4, ,-42, ,
3, ,-43, ,
3, ,-42, ,
-4, ,-42, ,
4, ,-42, ,
4, ,-43, ,
1, ,-42, ,
0, ,-43, ,
4, ,-43, ,
3, ,-42, ,
1, ,-43, ,
-6, ,-43, ,
1, ,-42, ,
4, ,-43, ,
4, ,-42, ,
0, ,-42, ,
4, ,-43, ,
1, ,-43, ,
4, ,-42, ,
1, ,-43, ,
1, ,-43, ,
3, ,-42, ,
4, ,-43, ,
-2, ,-43, ,
3, ,-42, ,
3, ,-43, ,
1, ,-43, ,
-1, ,-42, ,
4, ,-42, ,
5, ,-43, ,
4, ,-43, ,
3, ,-43, ,
5, ,-43, ,
4, ,-42, ,
6, ,-43, ,
1, ,-43, ,
6, ,-42, ,
4, ,-43, ,
-1, ,-43, ,
-2, ,-42, ,
3, ,-43, ,
0, ,-43, ,
4, ,-42, ,
1, ,-43, ,
5, ,-43, ,
8, ,-42, ,
5, ,-43, ,
1, ,-42, ,
4, ,-42, ,
4, ,-43, ,
0, ,-43, ,
-2, ,-42, ,
3, ,-42, ,
3, ,-43, ,
3, ,-42, ,
1, ,-43, ,
3, ,-43, ,
1, ,-42, ,
4, ,-43, ,
-4, ,-43, ,
1, ,-42, ,
4, ,-43, ,
1, ,-43, ,
-2, ,-42, ,
8, ,-42, ,
4, ,-42, ,
3, ,-42, ,
1, ,-43, ,
3, ,-43, ,
5, ,-42, ,
5, ,-43, ,
0, ,-42, ,
4, ,-42, ,
5, ,-43, ,
3, ,-42, ,
-2, ,-42, ,
3, ,-42, ,
1, ,-43, ,
-2, ,-42, ,
-2, ,-43, ,
0, ,-43, ,
3, ,-42, ,
8, ,-43, ,
-1, ,-42, ,
4, ,-42, ,
4, ,-43, ,
-1, ,-43, ,
-5, ,-42, ,
1, ,-42, ,
0, ,-43, ,
1, ,-42, ,
0, ,-43, ,
3, ,-43, ,
3, ,-42, ,
1, ,-43, ,
-6, ,-42, ,
-1, ,-42, ,
-2, ,-43, ,
0, ,-42, ,
-6, ,-42, ,
3, ,-42, ,
3, ,-43, ,
3, ,-42, ,
-2, ,-43, ,
0, ,-42, ,
3, ,-42, ,
1, ,-43, ,
-2, ,-42, ,
1, ,-42, ,
4, ,-43, ,
1, ,-43, ,
-5, ,-42, ,
1, ,-42, ,
-4, ,-42, ,
-1, ,-42, ,
-4, ,-43, ,
0, ,-43, ,
4, ,-42, ,
5, ,-42, ,
3, ,-42, ,
5, ,-42, ,
6, ,-43, ,
4, ,-42, ,
-1, ,-42, ,
3, ,-42, ,
3, ,-43, ,
0, ,-42, ,
-5, ,-43, ,
1, ,-43, ,
1, ,-42, ,
3, ,-43, ,
-4, ,-42, ,
1, ,-42, ,
4, ,-43, ,
1, ,-42, ,
-5, ,-42, ,
1, ,-43, ,
1, ,-43, ,
1, ,-41, ,
-1, ,-43, ,
0, ,-43, ,
3, ,-42, ,
-1, ,-42, ,
-4, ,-43, ,
3, ,-42, ,
1, ,-43, ,
4, ,-42, ,
3, ,-42, ,
5, ,-42, ,
4, ,-43, ,
-1, ,-42, ,
-6, ,-43, ,
-2, ,-43, ,
-5, ,-42, ,
1, ,-43, ,
-4, ,-42, ,
1, ,-42, ,
1, ,-43, ,
-2, ,-43, ,
-7, ,-42, ,
-4, ,-43, ,
-6, ,-43, ,
-2, ,-42, ,
-5, ,-43, ,
-1, ,-42, ,
0, ,-42, ,
0, ,-43, ,
-4, ,-42, ,
0, ,-42, ,
3, ,-43, ,
-1, ,-42, ,
-2, ,-42, ,
-1, ,-42, ,
0, ,-42, ,
1, ,-42, ,
-2, ,-43, ,
0, ,-43, ,
0, ,-42, ,
-1, ,-43, ,
-6, ,-42, ,
-4, ,-42, ,
0, ,-43, ,
-1, ,-43, ,
-2, ,-42, ,
4, ,-42, ,
3, ,-42, ,
1, ,-42, ,
0, ,-43, ,
-5, ,-42, ,
-1, ,-42, ,
-4, ,-43, ,
-5, ,-42, ,
5, ,-42, ,
4, ,-43, ,
3, ,-43, ,
-1, ,-42, ,
3, ,-43, ,
0, ,-42, ,
-2, ,-42, ,
-6, ,-43, ,
-4, ,-43, ,
-2, ,-42, ,
0, ,-43, ,
-4, ,-42, ,
1, ,-42, ,
3, ,-43, ,
0, ,-43, ,
-5, ,-42, ,
3, ,-42, ,
3, ,-42, ,
0, ,-42, ,
-1, ,-43, ,
-1, ,-43, ,
-6, ,-42, ,
-6, ,-42, ,
-12, ,-42, ,
-2, ,-42, ,
1, ,-43, ,
-1, ,-42, ,
-4, ,-42, ,
5, ,-42, ,
5, ,-43, ,
3, ,-42, ,
0, ,-43, ,
0, ,-43, ,
-2, ,-42, ,
-1, ,-43, ,
-4, ,-42, ,
4, ,-42, ,
4, ,-43, ,
-1, ,-43, ,
-4, ,-42, ,
0, ,-42, ,
-1, ,-43, ,
1, ,-42, ,
1, ,-43, ,
4, ,-42, ,
4, ,-42, ,
0, ,-42, ,
-6, ,-42, ,
-1, ,-42, ,
1, ,-43, ,
4, ,-43, ,
-1, ,-42, ,
8, ,-42, ,
5, ,-43, ,
1, ,-42, ,
1, ,-43, ,
4, ,-43, ,
-7, ,-42, ,
-1, ,-43, ,
0, ,-42, ,
0, ,-42, ,
3, ,-43, ,
-1, ,-42, ,
-6, ,-42, ,
3, ,-42, ,
0, ,-42, ,
1, ,-42, ,
3, ,-43, ,
1, ,-43, ,
4, ,-42, ,
3, ,-42, ,
-6, ,-42, ,
1, ,-42, ,
-1, ,-43, ,
1, ,-43, ,
-2, ,-42, ,
5, ,-42, ,
5, ,-42, ,
3, ,-42, ,
1, ,-42, ,
3, ,-43, ,
1, ,-42, ,
1, ,-42, ,
-2, ,-42, ,
3, ,-42, ,
4, ,-43, ,
1, ,-43, ,
-2, ,-42, ,
5, ,-42, ,
4, ,-43, ,
4, ,-42, ,
0, ,-43, ,
3, ,-43, ,
3, ,-43, ,
5, ,-43, ,
0, ,-42, ,
4, ,-42, ,
6, ,-43, ,
1, ,-42, ,
-2, ,-42, ,
4, ,-42, ,
1, ,-43, ,
0, ,-42, ,
0, ,-42, ,
3, ,-43, ,
4, ,-42, ,
4, ,-43, ,
-4, ,-42, ,
0, ,-42, ,
0, ,-43, ,
0, ,-43, ,
-5, ,-42, ,
4, ,-42, ,
1, ,-43, ,
3, ,-42, ,
3, ,-43, ,
3, ,-42, ,
4, ,-42, ,
4, ,-43, ,
0, ,-42, ,
4, ,-42, ,
3, ,-43, ,
1, ,-42, ,
-2, ,-42, ,
1, ,-42, ,
3, ,-42, ,
-4, ,-42, ,
-4, ,-43, ,
0, ,-43, ,
0, ,-42, ,
4, ,-43, ,
-4, ,-42, ,
4, ,-42, ,
5, ,-43, ,
0, ,-43, ,
-1, ,-42, ,
1, ,-42, ,
1, ,-42, ,
0, ,-42, ,
1, ,-43, ,
3, ,-43, ,
4, ,-42, ,
5, ,-43, ,
-1, ,-42, ,
3, ,-43, ,
1, ,-43, ,
-1, ,-43, ,
-5, ,-42, ,
4, ,-42, ,
3, ,-43, ,
6, ,-42, ,
6, ,-43, ,
9, ,-43, ,
6, ,-42, ,
9, ,-42, ,
3, ,-42, ,
3, ,-42, ,
5, ,-43, ,
0, ,-43, ,
-5, ,-42, ,
1, ,-42, ,
-1, ,-43, ,
3, ,-42, ,
0, ,-43, ,
-2, ,-43, ,
0, ,-42, ,
-2, ,-42, ,
-11, ,-42, ,
-9, ,-42, ,
-10, ,-43, ,
-15, ,-42, ,
-15, ,-42, ,
-9, ,-42, ,
-6, ,-43, ,
-6, ,-42, ,
-5, ,-43, ,
-2, ,-43, ,
4, ,-42, ,
10, ,-42, ,
9, ,-42, ,
13, ,-42, ,
13, ,-43, ,
10, ,-42, ,
-1, ,-42, ,
1, ,-42, ,
-1, ,-43, ,
-1, ,-42, ,
-1, ,-42, ,
3, ,-43, ,
5, ,-42, ,
5, ,-43, ,
-1, ,-42, ,
4, ,-42, ,
0, ,-43, ,
0, ,-42, ,
-2, ,-42, ,
-1, ,-42, ,
4, ,-43, ,
1, ,-42, ,
0, ,-43, ,
0, ,-43, ,
-2, ,-42, ,
0, ,-43, ,
-7, ,-42, ,
1, ,-42, ,
3, ,-43, ,
0, ,-43, ,
-2, ,-42, ,
5, ,-42, ,
0, ,-42, ,
-1, ,-42, ,
-6, ,-43, ,
-2, ,-43, ,
-1, ,-42, ,
0, ,-43, ,
-1, ,-43, ,
4, ,-42, ,
4, ,-43, ,
0, ,-42, ,
-5, ,-42, ,
1, ,-42, ,
-2, ,-43, ,
-1, ,-42, ,
-5, ,-43, ,
1, ,-43, ,
-1, ,-42, ,
1, ,-43, ,
-2, ,-42, ,
-1, ,-42, ,
-1, ,-43, ,
-2, ,-43, ,
-2, ,-42, ,
4, ,-43, ,
3, ,-43, ,
4, ,-42, ,
-1, ,-43, ,
0, ,-42, ,
3, ,-42, ,
0, ,-43, ,
-4, ,-42, ,
4, ,-42, ,
3, ,-43, ,
4, ,-42, ,
-1, ,-42, ,
4, ,-42, ,
4, ,-42, ,
1, ,-42, ,
-2, ,-43, ,
0, ,-43, ,
0, ,-42, ,
5, ,-42, ,
-2, ,-42, ,
4, ,-42, ,
8, ,-43, ,
5, ,-43, ,
4, ,-42, ,
6, ,-43, ,
6, ,-43, ,
8, ,-42, ,
3, ,-43, ,
0, ,-43, ,
0, ,-43, ,
-1, ,-43, ,
-12, ,-43, ,
-1, ,-42, ,
10, ,-43, ,
3, ,-43, ,
-1, ,-42, ,
1, ,-42, ,
1, ,-43, ,
-1, ,-42, ,
-2, ,-43, ,
3, ,-43, ,
0, ,-42, ,
3, ,-43, ,
3, ,-42, ,
3, ,-42, ,
4, ,-43, ,
0, ,-42, ,
-4, ,-42, ,
0, ,-42, ,
0, ,-43, ,
1, ,-42, ,
0, ,-43, ,
1, ,-42, ,
-2, ,-43, ,
-2, ,-42, ,
-2, ,-43, ,
0, ,-42, ,
