src/vary_am2_1411/temp0002787.CSV

Format,1.0B,
Memory Length,10000,Memory Length,10000,
IntpDistance,0,IntpDistance,0,
Trigger Address,4999,Trigger Address,4999,
Trigger Level,-1.000E+00,Trigger Level,-1.000E+00,
Source,CH1,Source,CH2,
Vertical Units,V,Vertical Units,V,
Vertical Units Div,0,Vertical Units Div,0,
Vertical Units Extend Div,16,Vertical Units Extend Div,16,
Label,,Label,,
Probe Type,0,Probe Type,0,
Probe Ratio,1.000e+01,Probe Ratio,1.000e+00,
Vertical Scale,2.000e-02,Vertical Scale,1.000e+00,
Vertical Position,-5.120e-02,Vertical Position,2.000e-01,
Horizontal Units,S,Horizontal Units,S,
Horizontal Scale,1.000E-05,Horizontal Scale,1.000E-05,
Horizontal Position,0.000E+00,Horizontal Position,0.000E+00,
Horizontal Mode,Main,Horizontal Mode,Main,
SincET Mode,Real Time,SincET Mode,Real Time,
Sampling Period,1.000e-08,Sampling Period,1.000e-08,
Horizontal Old Scale,1.000E-05,Horizontal Old Scale,1.000E-05,
Horizontal Old Position,0.000E+00,Horizontal Old Position,0.000E+00,
Firmware,V1.23,Firmware,V1.23,
Mode,Fast,Mode,Fast,
Waveform Data,,Waveform Data,,
3, ,-43, ,
4, ,-42, ,
3, ,-42, ,
4, ,-42, ,
4, ,-41, ,
5, ,-43, ,
-1, ,-42, ,
1, ,-42, ,
4, ,-42, ,
0, ,-42, ,
-2, ,-41, ,
3, ,-43, ,
-1, ,-43, ,
6, ,-42, ,
3, ,-42, ,
1, ,-43, ,
6, ,-42, ,
8, ,-43, ,
0, ,-42, ,
3, ,-42, ,
3, ,-42, ,
4, ,-42, ,
1, ,-41, ,
8, ,-43, ,
6, ,-43, ,
6, ,-42, ,
1, ,-43, ,
1, ,-43, ,
1, ,-41, ,
4, ,-43, ,
0, ,-43, ,
8, ,-42, ,
8, ,-42, ,
5, ,-42, ,
0, ,-41, ,
3, ,-43, ,
-1, ,-42, ,
-2, ,-42, ,
4, ,-42, ,
5, ,-42, ,
-1, ,-42, ,
4, ,-43, ,
0, ,-42, ,
8, ,-42, ,
6, ,-42, ,
0, ,-42, ,
1, ,-42, ,
4, ,-43, ,
4, ,-43, ,
3, ,-42, ,
-1, ,-42, ,
3, ,-43, ,
4, ,-41, ,
5, ,-43, ,
-5, ,-43, ,
-1, ,-42, ,
4, ,-43, ,
0, ,-42, ,
-2, ,-42, ,
4, ,-43, ,
0, ,-42, ,
3, ,-42, ,
-1, ,-42, ,
3, ,-43, ,
1, ,-42, ,
3, ,-43, ,
-1, ,-42, ,
0, ,-42, ,
4, ,-42, ,
3, ,-42, ,
-6, ,-42, ,
1, ,-43, ,
-1, ,-42, ,
-2, ,-42, ,
-7, ,-42, ,
-5, ,-42, ,
-1, ,-41, ,
0, ,-43, ,
-2, ,-43, ,
1, ,-43, ,
1, ,-42, ,
0, ,-42, ,
-2, ,-42, ,
3, ,-43, ,
-2, ,-43, ,
0, ,-42, ,
-2, ,-43, ,
0, ,-43, ,
4, ,-42, ,
3, ,-43, ,
0, ,-42, ,
0, ,-42, ,
1, ,-43, ,
0, ,-42, ,
-4, ,-42, ,
0, ,-43, ,
1, ,-43, ,
0, ,-42, ,
-1, ,-43, ,
0, ,-42, ,
-1, ,-41, ,
3, ,-43, ,
-4, ,-42, ,
5, ,-42, ,
6, ,-43, ,
1, ,-42, ,
-1, ,-42, ,
3, ,-43, ,
3, ,-42, ,
1, ,-42, ,
0, ,-43, ,
-1, ,-42, ,
-2, ,-42, ,
1, ,-43, ,
-4, ,-43, ,
0, ,-42, ,
1, ,-42, ,
0, ,-42, ,
0, ,-42, ,
0, ,-43, ,
0, ,-43, ,
-1, ,-42, ,
-5, ,-43, ,
0, ,-42, ,
0, ,-41, ,
1, ,-43, ,
-1, ,-43, ,
1, ,-42, ,
1, ,-42, ,
-1, ,-42, ,
-5, ,-41, ,
4, ,-43, ,
-1, ,-43, ,
0, ,-42, ,
-2, ,-43, ,
0, ,-43, ,
4, ,-42, ,
1, ,-43, ,
-2, ,-42, ,
3, ,-42, ,
3, ,-42, ,
0, ,-42, ,
-2, ,-42, ,
3, ,-43, ,
1, ,-42, ,
0, ,-42, ,
-2, ,-42, ,
-1, ,-42, ,
1, ,-41, ,
3, ,-43, ,
-4, ,-43, ,
1, ,-42, ,
5, ,-42, ,
0, ,-42, ,
0, ,-42, ,
3, ,-43, ,
0, ,-43, ,
0, ,-42, ,
-4, ,-42, ,
-2, ,-42, ,
0, ,-42, ,
0, ,-43, ,
-2, ,-42, ,
1, ,-43, ,
3, ,-42, ,
3, ,-42, ,
-2, ,-42, ,
1, ,-43, ,
4, ,-43, ,
1, ,-42, ,
0, ,-42, ,
3, ,-42, ,
1, ,-42, ,
3, ,-43, ,
-5, ,-43, ,
0, ,-42, ,
3, ,-42, ,
0, ,-42, ,
-1, ,-41, ,
5, ,-43, ,
4, ,-42, ,
4, ,-42, ,
1, ,-43, ,
5, ,-43, ,
5, ,-42, ,
3, ,-43, ,
-4, ,-42, ,
3, ,-42, ,
4, ,-42, ,
3, ,-42, ,
-1, ,-41, ,
4, ,-43, ,
4, ,-42, ,
4, ,-42, ,
1, ,-43, ,
3, ,-42, ,
3, ,-41, ,
3, ,-43, ,
-1, ,-43, ,
3, ,-42, ,
4, ,-42, ,
3, ,-42, ,
0, ,-42, ,
8, ,-43, ,
5, ,-43, ,
4, ,-42, ,
5, ,-43, ,
5, ,-42, ,
6, ,-42, ,
5, ,-43, ,
1, ,-43, ,
4, ,-42, ,
3, ,-42, ,
1, ,-42, ,
-1, ,-41, ,
4, ,-43, ,
3, ,-43, ,
1, ,-42, ,
1, ,-42, ,
5, ,-42, ,
3, ,-41, ,
5, ,-43, ,
-1, ,-42, ,
3, ,-42, ,
3, ,-42, ,
1, ,-42, ,
-1, ,-42, ,
4, ,-43, ,
4, ,-43, ,
4, ,-42, ,
4, ,-42, ,
4, ,-43, ,
3, ,-42, ,
1, ,-43, ,
-4, ,-43, ,
1, ,-42, ,
4, ,-42, ,
3, ,-42, ,
3, ,-41, ,
8, ,-43, ,
6, ,-43, ,
6, ,-42, ,
4, ,-42, ,
8, ,-43, ,
6, ,-41, ,
5, ,-43, ,
1, ,-43, ,
5, ,-43, ,
8, ,-42, ,
3, ,-42, ,
-2, ,-42, ,
5, ,-43, ,
1, ,-42, ,
6, ,-42, ,
5, ,-42, ,
8, ,-43, ,
9, ,-42, ,
9, ,-43, ,
-1, ,-43, ,
5, ,-42, ,
5, ,-42, ,
1, ,-42, ,
-1, ,-42, ,
6, ,-43, ,
4, ,-43, ,
5, ,-42, ,
5, ,-42, ,
4, ,-43, ,
6, ,-41, ,
4, ,-43, ,
1, ,-42, ,
3, ,-43, ,
4, ,-43, ,
4, ,-42, ,
-1, ,-41, ,
6, ,-43, ,
6, ,-43, ,
5, ,-42, ,
5, ,-42, ,
4, ,-43, ,
4, ,-42, ,
5, ,-43, ,
3, ,-42, ,
5, ,-42, ,
5, ,-42, ,
5, ,-42, ,
4, ,-42, ,
8, ,-43, ,
5, ,-43, ,
3, ,-42, ,
1, ,-42, ,
4, ,-43, ,
5, ,-42, ,
6, ,-43, ,
0, ,-43, ,
6, ,-42, ,
5, ,-43, ,
0, ,-42, ,
-2, ,-42, ,
3, ,-43, ,
0, ,-43, ,
4, ,-42, ,
0, ,-43, ,
4, ,-43, ,
5, ,-42, ,
1, ,-42, ,
1, ,-42, ,
1, ,-42, ,
4, ,-42, ,
-6, ,-39, ,
-1, ,-30, ,
8, ,-20, ,
9, ,-10, ,
9, ,-2, ,
5, ,6, ,
4, ,12, ,
5, ,16, ,
4, ,21, ,
1, ,26, ,
5, ,30, ,
9, ,33, ,
5, ,34, ,
1, ,36, ,
8, ,39, ,
6, ,40, ,
5, ,41, ,
3, ,44, ,
4, ,45, ,
5, ,44, ,
8, ,48, ,
3, ,47, ,
8, ,48, ,
5, ,49, ,
4, ,49, ,
-2, ,48, ,
-2, ,50, ,
0, ,49, ,
-1, ,49, ,
0, ,50, ,
4, ,50, ,
3, ,48, ,
5, ,51, ,
3, ,51, ,
5, ,51, ,
5, ,51, ,
3, ,51, ,
-1, ,49, ,
5, ,52, ,
3, ,50, ,
3, ,50, ,
-2, ,51, ,
1, ,51, ,
0, ,49, ,
-2, ,52, ,
-6, ,51, ,
3, ,50, ,
5, ,51, ,
4, ,51, ,
-1, ,50, ,
3, ,52, ,
1, ,50, ,
0, ,50, ,
1, ,51, ,
1, ,51, ,
0, ,49, ,
1, ,52, ,
-2, ,51, ,
-2, ,51, ,
1, ,51, ,
-1, ,51, ,
-1, ,49, ,
6, ,52, ,
-1, ,50, ,
-1, ,50, ,
-1, ,51, ,
1, ,51, ,
5, ,49, ,
1, ,51, ,
-1, ,51, ,
0, ,50, ,
-2, ,51, ,
0, ,51, ,
-4, ,49, ,
0, ,52, ,
-4, ,50, ,
-2, ,51, ,
-2, ,51, ,
0, ,51, ,
1, ,49, ,
5, ,52, ,
0, ,50, ,
1, ,50, ,
3, ,51, ,
0, ,51, ,
-2, ,49, ,
3, ,51, ,
-1, ,50, ,
0, ,50, ,
0, ,51, ,
0, ,51, ,
-2, ,49, ,
0, ,52, ,
-4, ,50, ,
1, ,50, ,
3, ,51, ,
-1, ,51, ,
0, ,49, ,
3, ,51, ,
-1, ,50, ,
-4, ,50, ,
-5, ,51, ,
-2, ,51, ,
-2, ,48, ,
3, ,52, ,
1, ,50, ,
3, ,50, ,
4, ,51, ,
-1, ,51, ,
-2, ,49, ,
1, ,52, ,
-4, ,50, ,
5, ,50, ,
-4, ,51, ,
-1, ,51, ,
3, ,49, ,
3, ,51, ,
-1, ,50, ,
3, ,50, ,
4, ,51, ,
3, ,51, ,
-5, ,49, ,
3, ,51, ,
0, ,50, ,
3, ,50, ,
-1, ,51, ,
1, ,50, ,
-1, ,48, ,
3, ,51, ,
-2, ,50, ,
0, ,50, ,
3, ,51, ,
3, ,51, ,
0, ,49, ,
4, ,52, ,
3, ,50, ,
6, ,50, ,
4, ,51, ,
1, ,50, ,
3, ,49, ,
0, ,51, ,
-6, ,50, ,
3, ,50, ,
1, ,51, ,
3, ,51, ,
0, ,49, ,
1, ,51, ,
0, ,50, ,
-1, ,50, ,
-4, ,51, ,
-1, ,51, ,
-2, ,48, ,
5, ,51, ,
-2, ,51, ,
3, ,50, ,
5, ,51, ,
4, ,51, ,
0, ,49, ,
4, ,51, ,
3, ,50, ,
3, ,50, ,
3, ,51, ,
3, ,51, ,
4, ,49, ,
3, ,51, ,
-5, ,50, ,
-1, ,50, ,
1, ,51, ,
0, ,51, ,
1, ,49, ,
8, ,51, ,
5, ,50, ,
5, ,50, ,
1, ,51, ,
3, ,51, ,
1, ,49, ,
1, ,51, ,
-1, ,50, ,
3, ,50, ,
3, ,51, ,
4, ,51, ,
0, ,49, ,
3, ,51, ,
5, ,51, ,
3, ,50, ,
1, ,51, ,
3, ,51, ,
4, ,49, ,
3, ,51, ,
0, ,50, ,
0, ,50, ,
4, ,51, ,
5, ,50, ,
-1, ,49, ,
6, ,51, ,
4, ,50, ,
3, ,50, ,
4, ,51, ,
3, ,51, ,
6, ,48, ,
9, ,51, ,
0, ,50, ,
4, ,50, ,
4, ,51, ,
3, ,51, ,
-1, ,49, ,
3, ,51, ,
-1, ,50, ,
4, ,50, ,
3, ,51, ,
5, ,51, ,
3, ,49, ,
4, ,51, ,
0, ,51, ,
3, ,50, ,
1, ,51, ,
0, ,51, ,
0, ,49, ,
6, ,51, ,
5, ,50, ,
4, ,50, ,
3, ,51, ,
4, ,51, ,
1, ,48, ,
6, ,52, ,
-1, ,51, ,
3, ,50, ,
6, ,50, ,
3, ,50, ,
1, ,49, ,
6, ,51, ,
3, ,50, ,
4, ,50, ,
3, ,51, ,
4, ,50, ,
4, ,49, ,
5, ,51, ,
-1, ,51, ,
4, ,50, ,
4, ,51, ,
3, ,51, ,
1, ,49, ,
4, ,51, ,
4, ,50, ,
6, ,50, ,
3, ,51, ,
5, ,51, ,
5, ,48, ,
4, ,52, ,
1, ,50, ,
0, ,50, ,
1, ,51, ,
0, ,51, ,
-2, ,49, ,
6, ,52, ,
4, ,50, ,
5, ,50, ,
5, ,51, ,
3, ,51, ,
5, ,49, ,
4, ,51, ,
-2, ,50, ,
6, ,50, ,
5, ,51, ,
3, ,50, ,
0, ,49, ,
3, ,51, ,
3, ,50, ,
1, ,50, ,
0, ,51, ,
4, ,51, ,
4, ,48, ,
8, ,51, ,
3, ,51, ,
6, ,50, ,
6, ,50, ,
5, ,50, ,
1, ,49, ,
6, ,52, ,
4, ,50, ,
5, ,50, ,
3, ,51, ,
4, ,50, ,
5, ,48, ,
4, ,51, ,
-2, ,51, ,
1, ,50, ,
3, ,51, ,
1, ,51, ,
1, ,49, ,
5, ,51, ,
3, ,50, ,
3, ,50, ,
4, ,51, ,
5, ,51, ,
6, ,48, ,
4, ,51, ,
4, ,51, ,
3, ,50, ,
5, ,51, ,
3, ,51, ,
-1, ,49, ,
5, ,51, ,
-1, ,50, ,
3, ,50, ,
0, ,51, ,
3, ,51, ,
3, ,49, ,
3, ,51, ,
-1, ,50, ,
1, ,50, ,
3, ,51, ,
1, ,50, ,
-4, ,49, ,
3, ,51, ,
3, ,50, ,
-1, ,50, ,
0, ,51, ,
1, ,51, ,
1, ,48, ,
4, ,51, ,
-2, ,51, ,
3, ,50, ,
1, ,50, ,
-1, ,51, ,
-4, ,49, ,
0, ,52, ,
-2, ,50, ,
1, ,50, ,
0, ,51, ,
3, ,50, ,
4, ,49, ,
1, ,51, ,
-2, ,50, ,
4, ,50, ,
3, ,51, ,
4, ,51, ,
-1, ,49, ,
8, ,51, ,
1, ,50, ,
-6, ,50, ,
-2, ,51, ,
0, ,51, ,
-4, ,49, ,
3, ,51, ,
-2, ,50, ,
-7, ,50, ,
-12, ,50, ,
-14, ,51, ,
-17, ,49, ,
-12, ,51, ,
-12, ,50, ,
-1, ,50, ,
1, ,51, ,
14, ,51, ,
21, ,49, ,
19, ,51, ,
14, ,50, ,
11, ,49, ,
4, ,51, ,
-4, ,51, ,
-7, ,49, ,
-2, ,51, ,
-2, ,50, ,
-1, ,50, ,
-4, ,50, ,
0, ,51, ,
-1, ,48, ,
0, ,51, ,
-1, ,50, ,
3, ,50, ,
4, ,51, ,
0, ,51, ,
-4, ,49, ,
-1, ,52, ,
-5, ,50, ,
-2, ,50, ,
-5, ,51, ,
1, ,50, ,
3, ,48, ,
4, ,51, ,
3, ,50, ,
9, ,50, ,
5, ,51, ,
-1, ,50, ,
-7, ,49, ,
-7, ,51, ,
-10, ,50, ,
-7, ,50, ,
-5, ,51, ,
0, ,51, ,
0, ,48, ,
5, ,51, ,
0, ,50, ,
5, ,50, ,
6, ,51, ,
3, ,51, ,
0, ,49, ,
-1, ,51, ,
-5, ,50, ,
-6, ,49, ,
-9, ,51, ,
-2, ,51, ,
0, ,48, ,
3, ,51, ,
0, ,50, ,
0, ,50, ,
1, ,51, ,
-1, ,51, ,
-2, ,49, ,
1, ,51, ,
0, ,50, ,
0, ,50, ,
0, ,51, ,
1, ,51, ,
0, ,49, ,
4, ,51, ,
1, ,51, ,
0, ,50, ,
4, ,50, ,
-12, ,51, ,
-2, ,49, ,
8, ,52, ,
-6, ,50, ,
9, ,50, ,
1, ,51, ,
-1, ,50, ,
0, ,48, ,
-1, ,51, ,
-5, ,50, ,
0, ,50, ,
-1, ,50, ,
3, ,51, ,
3, ,49, ,
6, ,51, ,
5, ,50, ,
5, ,50, ,
4, ,51, ,
5, ,50, ,
1, ,48, ,
3, ,51, ,
1, ,51, ,
1, ,50, ,
1, ,50, ,
0, ,51, ,
-2, ,49, ,
0, ,51, ,
0, ,50, ,
3, ,50, ,
4, ,51, ,
5, ,51, ,
4, ,49, ,
6, ,51, ,
0, ,50, ,
4, ,50, ,
1, ,51, ,
-2, ,51, ,
-5, ,49, ,
0, ,52, ,
1, ,50, ,
4, ,50, ,
4, ,51, ,
5, ,51, ,
3, ,49, ,
6, ,51, ,
0, ,50, ,
1, ,50, ,
1, ,50, ,
4, ,51, ,
3, ,49, ,
6, ,51, ,
4, ,50, ,
6, ,50, ,
1, ,51, ,
3, ,50, ,
4, ,48, ,
1, ,52, ,
-2, ,50, ,
3, ,50, ,
4, ,50, ,
3, ,51, ,
4, ,49, ,
6, ,51, ,
8, ,50, ,
4, ,50, ,
4, ,51, ,
5, ,50, ,
4, ,49, ,
5, ,51, ,
0, ,51, ,
3, ,50, ,
4, ,51, ,
5, ,51, ,
4, ,48, ,
6, ,52, ,
6, ,50, ,
9, ,49, ,
5, ,51, ,
1, ,51, ,
6, ,48, ,
6, ,51, ,
-2, ,50, ,
4, ,50, ,
3, ,51, ,
3, ,51, ,
-1, ,49, ,
3, ,51, ,
1, ,50, ,
3, ,50, ,
5, ,51, ,
6, ,51, ,
4, ,48, ,
6, ,51, ,
0, ,51, ,
4, ,50, ,
5, ,50, ,
5, ,51, ,
1, ,49, ,
8, ,51, ,
9, ,50, ,
11, ,50, ,
5, ,51, ,
4, ,51, ,
0, ,48, ,
1, ,51, ,
-4, ,51, ,
4, ,50, ,
6, ,51, ,
3, ,50, ,
3, ,49, ,
4, ,51, ,
1, ,50, ,
3, ,50, ,
1, ,51, ,
6, ,50, ,
5, ,48, ,
8, ,51, ,
0, ,51, ,
1, ,50, ,
1, ,50, ,
0, ,50, ,
-2, ,49, ,
3, ,51, ,
1, ,50, ,
5, ,50, ,
4, ,51, ,
4, ,50, ,
1, ,49, ,
1, ,51, ,
-5, ,50, ,
0, ,49, ,
1, ,51, ,
4, ,51, ,
3, ,49, ,
10, ,51, ,
8, ,50, ,
8, ,50, ,
8, ,51, ,
6, ,51, ,
9, ,48, ,
8, ,51, ,
3, ,50, ,
5, ,50, ,
4, ,50, ,
0, ,51, ,
-2, ,49, ,
4, ,52, ,
6, ,50, ,
6, ,50, ,
6, ,51, ,
10, ,50, ,
4, ,49, ,
10, ,51, ,
6, ,50, ,
1, ,50, ,
9, ,51, ,
8, ,51, ,
1, ,49, ,
6, ,51, ,
1, ,50, ,
6, ,50, ,
4, ,51, ,
8, ,51, ,
11, ,48, ,
15, ,51, ,
9, ,50, ,
8, ,50, ,
6, ,50, ,
3, ,51, ,
1, ,49, ,
4, ,52, ,
3, ,50, ,
6, ,50, ,
3, ,51, ,
4, ,51, ,
3, ,48, ,
1, ,51, ,
1, ,51, ,
6, ,50, ,
9, ,50, ,
9, ,51, ,
8, ,49, ,
6, ,51, ,
0, ,50, ,
3, ,50, ,
1, ,51, ,
3, ,51, ,
4, ,48, ,
5, ,51, ,
4, ,50, ,
3, ,50, ,
0, ,51, ,
-2, ,51, ,
-7, ,49, ,
-1, ,52, ,
-2, ,50, ,
-1, ,50, ,
-1, ,51, ,
0, ,51, ,
1, ,49, ,
1, ,51, ,
-2, ,50, ,
3, ,50, ,
1, ,50, ,
3, ,51, ,
-5, ,49, ,
-1, ,51, ,
-1, ,50, ,
-4, ,50, ,
-4, ,51, ,
-2, ,51, ,
-2, ,49, ,
4, ,51, ,
-4, ,50, ,
1, ,50, ,
4, ,51, ,
4, ,50, ,
-9, ,48, ,
-1, ,52, ,
3, ,50, ,
-1, ,50, ,
1, ,51, ,
-1, ,51, ,
-4, ,48, ,
-1, ,51, ,
-6, ,51, ,
-1, ,49, ,
0, ,51, ,
-2, ,51, ,
-5, ,49, ,
-2, ,51, ,
-4, ,50, ,
-4, ,50, ,
-7, ,51, ,
-2, ,51, ,
-4, ,48, ,
0, ,51, ,
-2, ,50, ,
-1, ,50, ,
3, ,50, ,
3, ,51, ,
-2, ,49, ,
1, ,51, ,
-5, ,50, ,
-5, ,50, ,
-6, ,51, ,
-4, ,51, ,
-4, ,48, ,
1, ,51, ,
1, ,50, ,
-2, ,50, ,
0, ,51, ,
-2, ,50, ,
-5, ,49, ,
3, ,51, ,
-1, ,50, ,
0, ,50, ,
-1, ,51, ,
-1, ,51, ,
-4, ,48, ,
-1, ,51, ,
-7, ,51, ,
1, ,50, ,
-1, ,51, ,
-1, ,51, ,
-5, ,49, ,
0, ,52, ,
-2, ,50, ,
-4, ,50, ,
-4, ,51, ,
-2, ,51, ,
-2, ,49, ,
0, ,51, ,
-4, ,50, ,
0, ,50, ,
1, ,51, ,
3, ,51, ,
-1, ,49, ,
-1, ,51, ,
0, ,50, ,
-1, ,50, ,
-4, ,50, ,
-1, ,51, ,
-4, ,48, ,
0, ,51, ,
-4, ,51, ,
0, ,50, ,
0, ,51, ,
-2, ,51, ,
-2, ,49, ,
0, ,52, ,
-4, ,50, ,
-1, ,50, ,
-4, ,51, ,
1, ,51, ,
1, ,49, ,
0, ,51, ,
-4, ,51, ,
-1, ,50, ,
1, ,50, ,
1, ,50, ,
-2, ,49, ,
4, ,51, ,
0, ,50, ,
4, ,50, ,
-2, ,51, ,
1, ,50, ,
0, ,50, ,
3, ,50, ,
-2, ,51, ,
1, ,50, ,
1, ,50, ,
1, ,51, ,
0, ,50, ,
5, ,51, ,
5, ,50, ,
4, ,50, ,
0, ,51, ,
3, ,50, ,
4, ,49, ,
6, ,51, ,
3, ,51, ,
4, ,50, ,
4, ,50, ,
3, ,50, ,
0, ,49, ,
4, ,51, ,
3, ,50, ,
4, ,51, ,
1, ,50, ,
5, ,50, ,
3, ,49, ,
6, ,51, ,
1, ,51, ,
6, ,50, ,
5, ,50, ,
3, ,51, ,
1, ,49, ,
6, ,51, ,
6, ,49, ,
8, ,50, ,
3, ,51, ,
5, ,50, ,
1, ,49, ,
3, ,51, ,
-1, ,50, ,
1, ,50, ,
4, ,50, ,
4, ,51, ,
1, ,49, ,
6, ,51, ,
4, ,50, ,
5, ,50, ,
3, ,50, ,
5, ,50, ,
4, ,49, ,
9, ,51, ,
5, ,50, ,
6, ,50, ,
9, ,50, ,
6, ,50, ,
5, ,47, ,
8, ,42, ,
-2, ,32, ,
0, ,21, ,
-6, ,13, ,
-4, ,6, ,
0, ,-1, ,
1, ,-7, ,
-4, ,-11, ,
-1, ,-17, ,
-4, ,-20, ,
-1, ,-23, ,
-6, ,-26, ,
5, ,-28, ,
5, ,-30, ,
1, ,-32, ,
3, ,-33, ,
3, ,-36, ,
1, ,-36, ,
3, ,-38, ,
-5, ,-39, ,
0, ,-39, ,
3, ,-40, ,
3, ,-40, ,
0, ,-40, ,
5, ,-41, ,
4, ,-41, ,
6, ,-41, ,
5, ,-42, ,
5, ,-42, ,
4, ,-42, ,
5, ,-43, ,
1, ,-42, ,
4, ,-42, ,
5, ,-43, ,
4, ,-43, ,
3, ,-42, ,
4, ,-43, ,
8, ,-43, ,
6, ,-42, ,
1, ,-43, ,
5, ,-43, ,
5, ,-42, ,
5, ,-43, ,
1, ,-43, ,
4, ,-43, ,
6, ,-43, ,
1, ,-43, ,
0, ,-42, ,
4, ,-44, ,
4, ,-43, ,
6, ,-43, ,
3, ,-43, ,
8, ,-43, ,
6, ,-42, ,
4, ,-44, ,
3, ,-43, ,
4, ,-42, ,
5, ,-43, ,
4, ,-43, ,
-1, ,-42, ,
6, ,-43, ,
6, ,-43, ,
8, ,-43, ,
5, ,-43, ,
4, ,-43, ,
3, ,-42, ,
1, ,-43, ,
-5, ,-43, ,
-1, ,-43, ,
3, ,-43, ,
1, ,-43, ,
0, ,-43, ,
8, ,-43, ,
4, ,-43, ,
3, ,-42, ,
0, ,-43, ,
3, ,-43, ,
5, ,-42, ,
4, ,-43, ,
-4, ,-43, ,
3, ,-43, ,
1, ,-43, ,
0, ,-42, ,
-5, ,-42, ,
1, ,-43, ,
1, ,-43, ,
-1, ,-43, ,
1, ,-43, ,
4, ,-43, ,
3, ,-42, ,
6, ,-43, ,
-1, ,-43, ,
0, ,-42, ,
-1, ,-43, ,
0, ,-43, ,
-2, ,-42, ,
3, ,-43, ,
3, ,-43, ,
0, ,-42, ,
-2, ,-43, ,
1, ,-43, ,
1, ,-42, ,
1, ,-43, ,
-4, ,-43, ,
-1, ,-42, ,
-1, ,-43, ,
-2, ,-43, ,
-4, ,-42, ,
1, ,-43, ,
-1, ,-42, ,
0, ,-42, ,
-1, ,-43, ,
4, ,-43, ,
1, ,-42, ,
1, ,-43, ,
-2, ,-43, ,
0, ,-43, ,
3, ,-42, ,
-2, ,-42, ,
-5, ,-42, ,
-1, ,-43, ,
-4, ,-43, ,
-2, ,-42, ,
-4, ,-42, ,
-2, ,-43, ,
-1, ,-42, ,
-1, ,-43, ,
-2, ,-43, ,
0, ,-42, ,
0, ,-42, ,
-1, ,-43, ,
-5, ,-42, ,
3, ,-43, ,
-2, ,-43, ,
-2, ,-42, ,
-2, ,-43, ,
-1, ,-43, ,
0, ,-42, ,
4, ,-43, ,
-2, ,-42, ,
3, ,-42, ,
0, ,-43, ,
-4, ,-42, ,
-6, ,-42, ,
-2, ,-43, ,
-1, ,-42, ,
-1, ,-42, ,
-2, ,-43, ,
0, ,-43, ,
0, ,-42, ,
-1, ,-43, ,
-7, ,-43, ,
-2, ,-42, ,
-1, ,-43, ,
-2, ,-42, ,
-4, ,-41, ,
1, ,-43, ,
0, ,-42, ,
-2, ,-42, ,
-4, ,-43, ,
-1, ,-43, ,
-4, ,-42, ,
-1, ,-43, ,
-4, ,-43, ,
-1, ,-42, ,
1, ,-42, ,
-1, ,-42, ,
-2, ,-42, ,
-1, ,-43, ,
-4, ,-43, ,
-5, ,-42, ,
-6, ,-42, ,
-2, ,-43, ,
0, ,-42, ,
0, ,-43, ,
-2, ,-42, ,
4, ,-42, ,
4, ,-43, ,
0, ,-43, ,
-4, ,-42, ,
4, ,-43, ,
1, ,-42, ,
0, ,-42, ,
-1, ,-43, ,
0, ,-43, ,
0, ,-42, ,
1, ,-43, ,
0, ,-42, ,
1, ,-42, ,
3, ,-42, ,
3, ,-42, ,
-2, ,-42, ,
5, ,-43, ,
4, ,-42, ,
3, ,-42, ,
1, ,-42, ,
1, ,-43, ,
3, ,-42, ,
4, ,-43, ,
1, ,-43, ,
4, ,-42, ,
8, ,-42, ,
3, ,-42, ,
1, ,-42, ,
4, ,-43, ,
4, ,-42, ,
1, ,-42, ,
0, ,-42, ,
1, ,-43, ,
1, ,-42, ,
5, ,-43, ,
-2, ,-43, ,
4, ,-42, ,
6, ,-42, ,
1, ,-42, ,
1, ,-42, ,
3, ,-43, ,
1, ,-42, ,
1, ,-42, ,
0, ,-43, ,
3, ,-43, ,
3, ,-41, ,
1, ,-43, ,
-1, ,-42, ,
3, ,-42, ,
3, ,-43, ,
1, ,-42, ,
-1, ,-42, ,
3, ,-43, ,
4, ,-43, ,
3, ,-42, ,
3, ,-43, ,
3, ,-42, ,
4, ,-42, ,
6, ,-43, ,
1, ,-42, ,
3, ,-42, ,
6, ,-42, ,
4, ,-43, ,
0, ,-42, ,
6, ,-43, ,
4, ,-42, ,
4, ,-42, ,
-1, ,-43, ,
1, ,-43, ,
1, ,-42, ,
3, ,-43, ,
1, ,-43, ,
4, ,-42, ,
6, ,-42, ,
10, ,-42, ,
4, ,-41, ,
9, ,-43, ,
6, ,-43, ,
3, ,-42, ,
-1, ,-43, ,
1, ,-42, ,
5, ,-42, ,
5, ,-43, ,
3, ,-42, ,
5, ,-42, ,
5, ,-42, ,
1, ,-42, ,
-1, ,-42, ,
3, ,-43, ,
4, ,-42, ,
4, ,-42, ,
4, ,-43, ,
8, ,-42, ,
6, ,-42, ,
9, ,-43, ,
1, ,-43, ,
5, ,-42, ,
8, ,-42, ,
5, ,-42, ,
1, ,-42, ,
9, ,-43, ,
9, ,-42, ,
6, ,-42, ,
3, ,-43, ,
5, ,-42, ,
5, ,-42, ,
4, ,-43, ,
3, ,-43, ,
4, ,-43, ,
8, ,-42, ,
3, ,-43, ,
3, ,-42, ,
5, ,-43, ,
3, ,-43, ,
3, ,-42, ,
1, ,-42, ,
4, ,-42, ,
6, ,-42, ,
6, ,-43, ,
3, ,-42, ,
4, ,-42, ,
8, ,-42, ,
6, ,-42, ,
0, ,-42, ,
6, ,-43, ,
5, ,-42, ,
5, ,-42, ,
6, ,-42, ,
4, ,-42, ,
4, ,-42, ,
3, ,-43, ,
0, ,-42, ,
6, ,-42, ,
-1, ,-42, ,
1, ,-42, ,
1, ,-42, ,
5, ,-43, ,
6, ,-43, ,
4, ,-42, ,
3, ,-42, ,
4, ,-42, ,
5, ,-42, ,
4, ,-43, ,
-2, ,-42, ,
-1, ,-42, ,
-1, ,-43, ,
3, ,-42, ,
0, ,-42, ,
4, ,-43, ,
4, ,-43, ,
1, ,-42, ,
1, ,-43, ,
1, ,-43, ,
0, ,-42, ,
3, ,-43, ,
-6, ,-43, ,
-1, ,-42, ,
0, ,-42, ,
-2, ,-42, ,
-2, ,-42, ,
3, ,-43, ,
6, ,-43, ,
8, ,-42, ,
1, ,-42, ,
5, ,-43, ,
8, ,-41, ,
6, ,-43, ,
-2, ,-43, ,
-1, ,-42, ,
0, ,-42, ,
0, ,-42, ,
-5, ,-41, ,
1, ,-43, ,
4, ,-43, ,
-4, ,-42, ,
-2, ,-43, ,
8, ,-42, ,
5, ,-42, ,
5, ,-43, ,
1, ,-43, ,
3, ,-42, ,
0, ,-42, ,
-5, ,-42, ,
-6, ,-42, ,
1, ,-43, ,
0, ,-42, ,
4, ,-42, ,
3, ,-42, ,
1, ,-42, ,
0, ,-42, ,
-2, ,-43, ,
-6, ,-43, ,
-2, ,-42, ,
0, ,-42, ,
3, ,-42, ,
-2, ,-41, ,
4, ,-43, ,
4, ,-42, ,
-1, ,-42, ,
0, ,-42, ,
0, ,-42, ,
3, ,-42, ,
4, ,-42, ,
-1, ,-42, ,
3, ,-42, ,
3, ,-42, ,
-4, ,-42, ,
-4, ,-42, ,
0, ,-43, ,
3, ,-42, ,
1, ,-42, ,
-1, ,-42, ,
3, ,-43, ,
4, ,-42, ,
-1, ,-43, ,
-6, ,-42, ,
-1, ,-42, ,
-6, ,-43, ,
-7, ,-42, ,
-11, ,-42, ,
-5, ,-43, ,
-4, ,-42, ,
-4, ,-42, ,
-5, ,-42, ,
-4, ,-43, ,
-5, ,-42, ,
-1, ,-43, ,
-6, ,-43, ,
-4, ,-43, ,
0, ,-42, ,
-4, ,-42, ,
-4, ,-42, ,
1, ,-43, ,
0, ,-42, ,
0, ,-42, ,
-2, ,-42, ,
1, ,-43, ,
5, ,-42, ,
3, ,-43, ,
0, ,-43, ,
3, ,-42, ,
3, ,-42, ,
1, ,-42, ,
-2, ,-42, ,
1, ,-43, ,
-1, ,-42, ,
-1, ,-42, ,
-5, ,-42, ,
-4, ,-42, ,
-2, ,-42, ,
0, ,-42, ,
-1, ,-43, ,
6, ,-42, ,
4, ,-43, ,
-12, ,-42, ,
-2, ,-42, ,
6, ,-43, ,
-5, ,-43, ,
4, ,-42, ,
0, ,-42, ,
-1, ,-42, ,
0, ,-42, ,
3, ,-43, ,
-2, ,-43, ,
3, ,-42, ,
4, ,-42, ,
4, ,-42, ,
-2, ,-42, ,
3, ,-43, ,
3, ,-43, ,
-1, ,-42, ,
-2, ,-42, ,
1, ,-43, ,
-1, ,-41, ,
-4, ,-42, ,
-7, ,-43, ,
-1, ,-42, ,
0, ,-42, ,
-4, ,-42, ,
-2, ,-42, ,
3, ,-43, ,
-2, ,-42, ,
1, ,-42, ,
-6, ,-42, ,
-4, ,-43, ,
-4, ,-42, ,
-1, ,-43, ,
-4, ,-43, ,
1, ,-42, ,
3, ,-43, ,
-1, ,-42, ,
-2, ,-41, ,
1, ,-43, ,
1, ,-42, ,
1, ,-42, ,
3, ,-43, ,
8, ,-43, ,
8, ,-42, ,
8, ,-42, ,
4, ,-42, ,
6, ,-42, ,
8, ,-42, ,
3, ,-42, ,
0, ,-42, ,
6, ,-43, ,
6, ,-43, ,
4, ,-42, ,
1, ,-43, ,
4, ,-42, ,
5, ,-42, ,
4, ,-43, ,
3, ,-42, ,
8, ,-42, ,
8, ,-43, ,
8, ,-42, ,
3, ,-42, ,
8, ,-43, ,
9, ,-42, ,
1, ,-42, ,
0, ,-43, ,
0, ,-43, ,
0, ,-42, ,
1, ,-43, ,
-2, ,-43, ,
1, ,-42, ,
5, ,-42, ,
1, ,-43, ,
-1, ,-42, ,
-1, ,-43, ,
-1, ,-43, ,
0, ,-42, ,
-1, ,-42, ,
1, ,-43, ,
4, ,-42, ,
4, ,-42, ,
1, ,-43, ,
5, ,-43, ,
5, ,-42, ,
3, ,-42, ,
1, ,-42, ,
6, ,-43, ,
4, ,-43, ,
1, ,-42, ,
-1, ,-42, ,
5, ,-42, ,
4, ,-42, ,
6, ,-43, ,
-1, ,-43, ,
5, ,-42, ,
5, ,-42, ,
4, ,-42, ,
1, ,-42, ,
8, ,-43, ,
5, ,-42, ,
5, ,-42, ,
-4, ,-42, ,
3, ,-42, ,
4, ,-42, ,
4, ,-43, ,
0, ,-43, ,
8, ,-42, ,
10, ,-42, ,
13, ,-42, ,
4, ,-42, ,
10, ,-43, ,
5, ,-42, ,
5, ,-42, ,
3, ,-43, ,
4, ,-42, ,
6, ,-42, ,
9, ,-43, ,
5, ,-42, ,
10, ,-43, ,
14, ,-43, ,
9, ,-42, ,
3, ,-42, ,
9, ,-43, ,
6, ,-43, ,
4, ,-42, ,
4, ,-43, ,
6, ,-43, ,
6, ,-42, ,
6, ,-43, ,
1, ,-43, ,
5, ,-42, ,
5, ,-42, ,
3, ,-42, ,
0, ,-41, ,
5, ,-43, ,
4, ,-43, ,
4, ,-42, ,
1, ,-43, ,
1, ,-42, ,
0, ,-42, ,
3, ,-42, ,
-2, ,-42, ,
3, ,-42, ,
8, ,-43, ,
4, ,-42, ,
3, ,-42, ,
5, ,-43, ,
6, ,-43, ,
4, ,-42, ,
3, ,-43, ,
3, ,-42, ,
1, ,-42, ,
5, ,-43, ,
-1, ,-42, ,
5, ,-42, ,
5, ,-43, ,
3, ,-42, ,
3, ,-42, ,
5, ,-43, ,
5, ,-42, ,
8, ,-42, ,
6, ,-42, ,
8, ,-42, ,
8, ,-42, ,
9, ,-43, ,
4, ,-42, ,
4, ,-42, ,
5, ,-42, ,
-1, ,-42, ,
-2, ,-42, ,
3, ,-43, ,
-1, ,-42, ,
0, ,-42, ,
-4, ,-42, ,
-2, ,-42, ,
1, ,-42, ,
0, ,-43, ,
-4, ,-42, ,
-2, ,-43, ,
0, ,-42, ,
0, ,-42, ,
-2, ,-42, ,
4, ,-43, ,
3, ,-42, ,
0, ,-42, ,
0, ,-42, ,
-1, ,-43, ,
-1, ,-42, ,
0, ,-42, ,
-4, ,-42, ,
1, ,-43, ,
4, ,-42, ,
0, ,-42, ,
1, ,-42, ,
3, ,-43, ,
4, ,-42, ,
5, ,-42, ,
5, ,-42, ,
5, ,-43, ,
5, ,-42, ,
6, ,-43, ,
-4, ,-42, ,
3, ,-42, ,
3, ,-43, ,
-2, ,-42, ,
-6, ,-42, ,
-1, ,-43, ,
0, ,-43, ,
-2, ,-42, ,
-1, ,-43, ,
1, ,-43, ,
1, ,-42, ,
3, ,-43, ,
-7, ,-42, ,
-2, ,-42, ,
0, ,-42, ,
-5, ,-42, ,
-7, ,-42, ,
-2, ,-43, ,
-1, ,-42, ,
4, ,-42, ,
0, ,-42, ,
5, ,-43, ,
6, ,-42, ,
1, ,-43, ,
-4, ,-42, ,
1, ,-42, ,
3, ,-43, ,
1, ,-42, ,
-2, ,-42, ,
