src/vary_am2_1411/temp0001624.CSV

Format,1.0B,
Memory Length,10000,Memory Length,10000,
IntpDistance,0,IntpDistance,0,
Trigger Address,4999,Trigger Address,4999,
Trigger Level,-1.000E+00,Trigger Level,-1.000E+00,
Source,CH1,Source,CH2,
Vertical Units,V,Vertical Units,V,
Vertical Units Div,0,Vertical Units Div,0,
Vertical Units Extend Div,16,Vertical Units Extend Div,16,
Label,,Label,,
Probe Type,0,Probe Type,0,
Probe Ratio,1.000e+01,Probe Ratio,1.000e+00,
Vertical Scale,2.000e-02,Vertical Scale,1.000e+00,
Vertical Position,-5.120e-02,Vertical Position,2.000e-01,
Horizontal Units,S,Horizontal Units,S,
Horizontal Scale,1.000E-05,Horizontal Scale,1.000E-05,
Horizontal Position,0.000E+00,Horizontal Position,0.000E+00,
Horizontal Mode,Main,Horizontal Mode,Main,
SincET Mode,Real Time,SincET Mode,Real Time,
Sampling Period,1.000e-08,Sampling Period,1.000e-08,
Horizontal Old Scale,1.000E-05,Horizontal Old Scale,1.000E-05,
Horizontal Old Position,0.000E+00,Horizontal Old Position,0.000E+00,
Firmware,V1.23,Firmware,V1.23,
Mode,Fast,Mode,Fast,
Waveform Data,,Waveform Data,,
1, ,-48, ,
-1, ,-47, ,
1, ,-47, ,
1, ,-48, ,
4, ,-47, ,
5, ,-46, ,
6, ,-48, ,
3, ,-47, ,
3, ,-47, ,
3, ,-47, ,
0, ,-47, ,
-4, ,-46, ,
3, ,-48, ,
9, ,-47, ,
1, ,-47, ,
-1, ,-47, ,
4, ,-48, ,
0, ,-46, ,
1, ,-47, ,
-5, ,-47, ,
-1, ,-47, ,
5, ,-47, ,
3, ,-47, ,
-1, ,-46, ,
6, ,-48, ,
3, ,-47, ,
4, ,-47, ,
1, ,-47, ,
1, ,-47, ,
3, ,-47, ,
4, ,-48, ,
-1, ,-47, ,
3, ,-47, ,
5, ,-47, ,
4, ,-47, ,
0, ,-47, ,
5, ,-48, ,
4, ,-47, ,
4, ,-47, ,
0, ,-47, ,
5, ,-48, ,
4, ,-46, ,
8, ,-48, ,
3, ,-47, ,
-1, ,-47, ,
4, ,-47, ,
3, ,-47, ,
3, ,-46, ,
3, ,-48, ,
4, ,-47, ,
8, ,-47, ,
5, ,-47, ,
4, ,-48, ,
6, ,-46, ,
4, ,-47, ,
-1, ,-47, ,
1, ,-47, ,
4, ,-47, ,
4, ,-47, ,
-1, ,-46, ,
8, ,-48, ,
6, ,-47, ,
5, ,-47, ,
4, ,-47, ,
3, ,-48, ,
3, ,-46, ,
4, ,-48, ,
0, ,-47, ,
4, ,-47, ,
9, ,-47, ,
5, ,-47, ,
1, ,-46, ,
8, ,-48, ,
6, ,-47, ,
5, ,-47, ,
4, ,-47, ,
5, ,-48, ,
6, ,-46, ,
4, ,-48, ,
-4, ,-47, ,
3, ,-47, ,
3, ,-47, ,
3, ,-47, ,
-1, ,-46, ,
5, ,-48, ,
6, ,-47, ,
4, ,-47, ,
5, ,-47, ,
6, ,-48, ,
5, ,-46, ,
4, ,-48, ,
-1, ,-47, ,
4, ,-47, ,
3, ,-47, ,
-1, ,-47, ,
-5, ,-46, ,
1, ,-48, ,
-1, ,-47, ,
3, ,-47, ,
1, ,-47, ,
5, ,-47, ,
4, ,-46, ,
5, ,-48, ,
-1, ,-47, ,
3, ,-47, ,
3, ,-47, ,
1, ,-47, ,
-1, ,-47, ,
4, ,-48, ,
4, ,-47, ,
0, ,-47, ,
-1, ,-47, ,
0, ,-47, ,
-1, ,-47, ,
1, ,-48, ,
-5, ,-47, ,
-2, ,-47, ,
3, ,-48, ,
-1, ,-47, ,
-5, ,-47, ,
4, ,-48, ,
0, ,-47, ,
0, ,-46, ,
-4, ,-47, ,
-1, ,-47, ,
1, ,-47, ,
3, ,-47, ,
-1, ,-47, ,
3, ,-47, ,
0, ,-47, ,
-1, ,-47, ,
-4, ,-47, ,
3, ,-48, ,
0, ,-47, ,
-1, ,-47, ,
1, ,-47, ,
3, ,-48, ,
0, ,-47, ,
3, ,-47, ,
-4, ,-47, ,
-1, ,-47, ,
1, ,-47, ,
-1, ,-47, ,
-4, ,-46, ,
3, ,-48, ,
1, ,-48, ,
0, ,-47, ,
-2, ,-47, ,
0, ,-48, ,
0, ,-47, ,
1, ,-48, ,
-7, ,-47, ,
-1, ,-47, ,
3, ,-47, ,
-1, ,-47, ,
-4, ,-46, ,
0, ,-48, ,
-2, ,-47, ,
-4, ,-47, ,
-6, ,-47, ,
-2, ,-47, ,
-4, ,-46, ,
0, ,-48, ,
-6, ,-47, ,
-1, ,-47, ,
3, ,-47, ,
-2, ,-47, ,
-6, ,-46, ,
0, ,-48, ,
-4, ,-47, ,
-2, ,-47, ,
-5, ,-47, ,
-1, ,-48, ,
-1, ,-46, ,
0, ,-48, ,
-1, ,-47, ,
3, ,-47, ,
0, ,-47, ,
-1, ,-47, ,
-7, ,-46, ,
0, ,-48, ,
-1, ,-47, ,
0, ,-47, ,
-1, ,-47, ,
-1, ,-48, ,
-2, ,-46, ,
-4, ,-48, ,
-7, ,-47, ,
-6, ,-47, ,
-2, ,-47, ,
-4, ,-47, ,
-6, ,-46, ,
3, ,-48, ,
-1, ,-47, ,
-1, ,-47, ,
-4, ,-48, ,
-5, ,-48, ,
-5, ,-46, ,
-2, ,-48, ,
-9, ,-47, ,
-2, ,-47, ,
-1, ,-47, ,
-1, ,-47, ,
-6, ,-46, ,
-2, ,-48, ,
-1, ,-47, ,
-4, ,-47, ,
-4, ,-47, ,
0, ,-47, ,
0, ,-47, ,
5, ,-48, ,
-1, ,-47, ,
3, ,-47, ,
3, ,-47, ,
-2, ,-47, ,
-5, ,-46, ,
-4, ,-48, ,
-5, ,-47, ,
-4, ,-47, ,
-4, ,-48, ,
0, ,-48, ,
1, ,-46, ,
1, ,-48, ,
-2, ,-47, ,
0, ,-47, ,
3, ,-47, ,
-1, ,-47, ,
0, ,-46, ,
4, ,-48, ,
3, ,-47, ,
1, ,-47, ,
-1, ,-47, ,
1, ,-48, ,
-2, ,-47, ,
3, ,-48, ,
-2, ,-47, ,
-1, ,-47, ,
3, ,-47, ,
3, ,-47, ,
3, ,-46, ,
1, ,-48, ,
5, ,-47, ,
-2, ,-47, ,
-9, ,-47, ,
3, ,-48, ,
6, ,-46, ,
8, ,-48, ,
3, ,-47, ,
5, ,-47, ,
6, ,-47, ,
1, ,-47, ,
-1, ,-46, ,
5, ,-48, ,
4, ,-47, ,
1, ,-47, ,
0, ,-47, ,
-2, ,-47, ,
-1, ,-47, ,
0, ,-48, ,
-2, ,-47, ,
-1, ,-47, ,
0, ,-47, ,
-2, ,-47, ,
-2, ,-46, ,
5, ,-48, ,
4, ,-47, ,
3, ,-47, ,
4, ,-47, ,
0, ,-47, ,
4, ,-47, ,
4, ,-48, ,
-1, ,-47, ,
4, ,-47, ,
5, ,-47, ,
5, ,-47, ,
0, ,-46, ,
5, ,-48, ,
8, ,-47, ,
-2, ,-47, ,
-2, ,-47, ,
1, ,-48, ,
0, ,-46, ,
3, ,-48, ,
-1, ,-47, ,
5, ,-47, ,
6, ,-47, ,
4, ,-47, ,
1, ,-47, ,
6, ,-48, ,
6, ,-47, ,
8, ,-47, ,
1, ,-47, ,
3, ,-48, ,
6, ,-46, ,
5, ,-48, ,
1, ,-47, ,
6, ,-47, ,
5, ,-47, ,
5, ,-47, ,
0, ,-46, ,
3, ,-48, ,
0, ,-47, ,
3, ,-47, ,
-2, ,-47, ,
1, ,-48, ,
4, ,-46, ,
6, ,-48, ,
1, ,-47, ,
5, ,-46, ,
1, ,-41, ,
5, ,-32, ,
8, ,-22, ,
14, ,-12, ,
14, ,-5, ,
14, ,2, ,
8, ,9, ,
6, ,14, ,
4, ,17, ,
5, ,22, ,
6, ,26, ,
8, ,28, ,
-1, ,31, ,
6, ,33, ,
9, ,33, ,
5, ,36, ,
14, ,38, ,
11, ,38, ,
6, ,40, ,
5, ,40, ,
3, ,40, ,
5, ,44, ,
0, ,42, ,
6, ,42, ,
6, ,44, ,
4, ,45, ,
-1, ,42, ,
3, ,46, ,
-1, ,45, ,
3, ,45, ,
4, ,46, ,
3, ,45, ,
3, ,44, ,
5, ,46, ,
1, ,46, ,
3, ,45, ,
6, ,46, ,
3, ,46, ,
-2, ,45, ,
9, ,47, ,
4, ,46, ,
4, ,46, ,
1, ,46, ,
3, ,47, ,
0, ,45, ,
1, ,47, ,
-4, ,46, ,
-1, ,46, ,
3, ,47, ,
0, ,47, ,
-2, ,45, ,
5, ,47, ,
4, ,46, ,
5, ,46, ,
1, ,46, ,
1, ,46, ,
5, ,45, ,
3, ,47, ,
-4, ,46, ,
1, ,45, ,
1, ,46, ,
3, ,46, ,
1, ,44, ,
6, ,47, ,
4, ,45, ,
1, ,45, ,
0, ,46, ,
-1, ,46, ,
1, ,44, ,
1, ,47, ,
-1, ,46, ,
3, ,45, ,
3, ,46, ,
1, ,46, ,
-4, ,44, ,
5, ,47, ,
3, ,46, ,
3, ,46, ,
1, ,46, ,
1, ,46, ,
4, ,44, ,
4, ,46, ,
-2, ,45, ,
1, ,45, ,
-1, ,46, ,
0, ,46, ,
-5, ,44, ,
0, ,47, ,
-1, ,45, ,
3, ,45, ,
0, ,46, ,
0, ,46, ,
-4, ,44, ,
0, ,46, ,
-2, ,46, ,
-1, ,45, ,
1, ,46, ,
1, ,46, ,
-1, ,45, ,
0, ,47, ,
-6, ,45, ,
-2, ,45, ,
-9, ,46, ,
-2, ,46, ,
-6, ,44, ,
-1, ,46, ,
-5, ,46, ,
0, ,46, ,
1, ,46, ,
0, ,46, ,
-7, ,44, ,
-1, ,47, ,
-6, ,45, ,
-2, ,46, ,
-4, ,46, ,
-1, ,46, ,
-5, ,44, ,
1, ,46, ,
-2, ,45, ,
-1, ,46, ,
-1, ,46, ,
-1, ,46, ,
-6, ,45, ,
0, ,46, ,
-5, ,45, ,
-2, ,46, ,
-4, ,46, ,
-2, ,46, ,
-1, ,44, ,
-2, ,47, ,
-6, ,46, ,
-2, ,45, ,
-2, ,46, ,
-2, ,46, ,
-4, ,44, ,
0, ,46, ,
1, ,45, ,
-1, ,45, ,
0, ,46, ,
-1, ,46, ,
-2, ,44, ,
0, ,47, ,
-5, ,46, ,
1, ,46, ,
0, ,46, ,
-2, ,46, ,
-2, ,44, ,
-1, ,46, ,
-1, ,45, ,
-2, ,45, ,
-1, ,46, ,
-1, ,46, ,
0, ,44, ,
3, ,46, ,
-2, ,46, ,
3, ,45, ,
1, ,46, ,
-1, ,46, ,
-5, ,44, ,
4, ,46, ,
0, ,45, ,
-5, ,46, ,
0, ,46, ,
1, ,46, ,
-1, ,44, ,
0, ,46, ,
-5, ,46, ,
-2, ,45, ,
0, ,46, ,
-4, ,46, ,
-7, ,44, ,
1, ,47, ,
0, ,45, ,
3, ,45, ,
-1, ,46, ,
0, ,46, ,
3, ,44, ,
4, ,46, ,
-1, ,46, ,
1, ,45, ,
1, ,46, ,
3, ,46, ,
-4, ,44, ,
1, ,47, ,
-4, ,45, ,
-1, ,45, ,
-5, ,46, ,
-2, ,46, ,
-2, ,44, ,
3, ,46, ,
-4, ,45, ,
0, ,45, ,
3, ,46, ,
-1, ,46, ,
-2, ,45, ,
1, ,46, ,
-2, ,45, ,
1, ,45, ,
0, ,46, ,
1, ,46, ,
1, ,44, ,
3, ,46, ,
-4, ,46, ,
0, ,45, ,
-1, ,46, ,
-2, ,46, ,
-7, ,44, ,
-2, ,46, ,
-4, ,45, ,
-1, ,45, ,
3, ,46, ,
4, ,46, ,
4, ,44, ,
9, ,46, ,
3, ,45, ,
4, ,45, ,
3, ,46, ,
0, ,46, ,
-1, ,44, ,
3, ,47, ,
-1, ,45, ,
1, ,45, ,
1, ,46, ,
3, ,46, ,
4, ,44, ,
6, ,46, ,
0, ,45, ,
4, ,46, ,
8, ,46, ,
4, ,46, ,
4, ,44, ,
8, ,46, ,
3, ,45, ,
3, ,45, ,
0, ,46, ,
0, ,46, ,
1, ,44, ,
1, ,46, ,
1, ,45, ,
8, ,46, ,
8, ,46, ,
5, ,46, ,
3, ,44, ,
6, ,47, ,
3, ,45, ,
3, ,45, ,
0, ,46, ,
4, ,46, ,
5, ,44, ,
4, ,46, ,
1, ,45, ,
3, ,45, ,
4, ,46, ,
4, ,46, ,
1, ,42, ,
5, ,46, ,
6, ,45, ,
4, ,45, ,
5, ,46, ,
6, ,46, ,
4, ,44, ,
6, ,46, ,
-4, ,45, ,
3, ,45, ,
3, ,46, ,
3, ,46, ,
-1, ,44, ,
6, ,47, ,
1, ,45, ,
1, ,45, ,
-1, ,46, ,
3, ,46, ,
1, ,42, ,
6, ,46, ,
0, ,45, ,
4, ,46, ,
6, ,46, ,
4, ,46, ,
3, ,44, ,
9, ,46, ,
5, ,45, ,
6, ,45, ,
1, ,46, ,
3, ,46, ,
0, ,44, ,
1, ,47, ,
-4, ,45, ,
0, ,45, ,
5, ,46, ,
3, ,46, ,
-1, ,44, ,
4, ,47, ,
3, ,45, ,
4, ,45, ,
4, ,46, ,
4, ,46, ,
5, ,44, ,
6, ,46, ,
0, ,45, ,
3, ,45, ,
4, ,46, ,
3, ,46, ,
-1, ,44, ,
5, ,46, ,
4, ,45, ,
3, ,45, ,
1, ,46, ,
3, ,46, ,
3, ,44, ,
1, ,46, ,
-5, ,45, ,
0, ,45, ,
4, ,45, ,
5, ,45, ,
4, ,44, ,
8, ,46, ,
6, ,46, ,
5, ,45, ,
1, ,46, ,
0, ,46, ,
0, ,44, ,
1, ,46, ,
-4, ,45, ,
4, ,45, ,
4, ,46, ,
3, ,46, ,
1, ,44, ,
6, ,47, ,
4, ,45, ,
0, ,45, ,
0, ,46, ,
4, ,46, ,
4, ,44, ,
8, ,46, ,
1, ,45, ,
1, ,46, ,
1, ,45, ,
-2, ,46, ,
-2, ,44, ,
3, ,46, ,
0, ,45, ,
3, ,45, ,
0, ,46, ,
1, ,46, ,
-2, ,44, ,
1, ,46, ,
-5, ,45, ,
0, ,45, ,
0, ,46, ,
-1, ,46, ,
-1, ,44, ,
1, ,46, ,
0, ,45, ,
1, ,45, ,
-2, ,46, ,
-1, ,46, ,
-2, ,44, ,
-1, ,47, ,
-2, ,45, ,
3, ,45, ,
5, ,46, ,
3, ,46, ,
-1, ,44, ,
4, ,46, ,
-5, ,45, ,
0, ,45, ,
-1, ,45, ,
1, ,46, ,
1, ,42, ,
3, ,46, ,
-2, ,45, ,
1, ,46, ,
0, ,46, ,
1, ,46, ,
-2, ,44, ,
1, ,46, ,
3, ,45, ,
1, ,45, ,
-1, ,46, ,
1, ,46, ,
0, ,44, ,
3, ,46, ,
-5, ,46, ,
1, ,45, ,
0, ,46, ,
0, ,46, ,
-4, ,44, ,
3, ,46, ,
-2, ,45, ,
0, ,45, ,
0, ,46, ,
3, ,46, ,
1, ,44, ,
3, ,46, ,
-2, ,46, ,
-1, ,45, ,
1, ,46, ,
0, ,46, ,
-1, ,44, ,
3, ,46, ,
3, ,45, ,
1, ,45, ,
-4, ,46, ,
-1, ,46, ,
-2, ,44, ,
-1, ,46, ,
-5, ,46, ,
-1, ,45, ,
4, ,45, ,
-2, ,46, ,
-6, ,44, ,
0, ,47, ,
-5, ,45, ,
-2, ,45, ,
-5, ,46, ,
-2, ,46, ,
-1, ,42, ,
-1, ,46, ,
0, ,46, ,
1, ,45, ,
-1, ,46, ,
-2, ,46, ,
-9, ,44, ,
-2, ,46, ,
-2, ,45, ,
-2, ,45, ,
-2, ,46, ,
-1, ,46, ,
-1, ,44, ,
-1, ,46, ,
-9, ,46, ,
-4, ,45, ,
-2, ,46, ,
-1, ,46, ,
-5, ,44, ,
5, ,46, ,
3, ,45, ,
1, ,45, ,
0, ,46, ,
1, ,46, ,
-2, ,44, ,
1, ,46, ,
-6, ,45, ,
-1, ,45, ,
1, ,46, ,
-1, ,46, ,
-6, ,44, ,
-2, ,46, ,
-4, ,45, ,
-2, ,45, ,
-1, ,46, ,
4, ,46, ,
3, ,42, ,
3, ,46, ,
-2, ,45, ,
3, ,45, ,
3, ,46, ,
-2, ,46, ,
-6, ,44, ,
-1, ,46, ,
-4, ,45, ,
0, ,45, ,
-1, ,46, ,
1, ,46, ,
0, ,42, ,
0, ,46, ,
-2, ,45, ,
0, ,45, ,
1, ,46, ,
3, ,46, ,
0, ,44, ,
4, ,46, ,
1, ,45, ,
3, ,45, ,
4, ,45, ,
8, ,46, ,
1, ,44, ,
1, ,46, ,
0, ,45, ,
3, ,45, ,
1, ,45, ,
3, ,46, ,
-2, ,44, ,
3, ,46, ,
-2, ,45, ,
3, ,45, ,
3, ,46, ,
3, ,45, ,
6, ,44, ,
5, ,46, ,
-1, ,46, ,
5, ,45, ,
3, ,46, ,
1, ,46, ,
-4, ,44, ,
3, ,46, ,
1, ,45, ,
3, ,45, ,
0, ,46, ,
3, ,46, ,
1, ,44, ,
4, ,47, ,
-2, ,45, ,
1, ,45, ,
3, ,45, ,
0, ,46, ,
-4, ,44, ,
0, ,47, ,
-2, ,45, ,
0, ,45, ,
-4, ,46, ,
4, ,46, ,
3, ,44, ,
6, ,46, ,
1, ,45, ,
3, ,46, ,
4, ,46, ,
0, ,46, ,
-2, ,44, ,
6, ,46, ,
3, ,45, ,
4, ,45, ,
3, ,46, ,
3, ,46, ,
-1, ,44, ,
1, ,46, ,
-4, ,45, ,
0, ,45, ,
3, ,45, ,
1, ,45, ,
-1, ,44, ,
6, ,46, ,
3, ,46, ,
3, ,45, ,
-1, ,46, ,
3, ,46, ,
3, ,44, ,
8, ,47, ,
1, ,45, ,
6, ,45, ,
6, ,46, ,
5, ,45, ,
0, ,44, ,
5, ,47, ,
0, ,45, ,
1, ,45, ,
1, ,46, ,
1, ,46, ,
3, ,44, ,
1, ,46, ,
-1, ,46, ,
5, ,45, ,
4, ,46, ,
3, ,46, ,
1, ,44, ,
5, ,46, ,
4, ,45, ,
4, ,45, ,
4, ,46, ,
1, ,46, ,
1, ,44, ,
1, ,46, ,
-4, ,45, ,
0, ,46, ,
1, ,46, ,
3, ,46, ,
1, ,44, ,
6, ,47, ,
4, ,45, ,
4, ,45, ,
0, ,45, ,
3, ,46, ,
1, ,44, ,
3, ,46, ,
0, ,46, ,
1, ,45, ,
5, ,46, ,
4, ,46, ,
3, ,44, ,
4, ,47, ,
-1, ,45, ,
0, ,45, ,
-2, ,46, ,
3, ,46, ,
3, ,44, ,
3, ,46, ,
0, ,45, ,
1, ,45, ,
4, ,46, ,
0, ,46, ,
-5, ,44, ,
4, ,47, ,
-1, ,45, ,
3, ,45, ,
0, ,46, ,
-1, ,46, ,
-2, ,44, ,
-1, ,46, ,
-4, ,45, ,
0, ,45, ,
4, ,45, ,
1, ,45, ,
-1, ,44, ,
4, ,47, ,
0, ,45, ,
-1, ,45, ,
0, ,46, ,
0, ,46, ,
0, ,42, ,
0, ,46, ,
-2, ,46, ,
4, ,45, ,
5, ,46, ,
8, ,46, ,
6, ,44, ,
3, ,47, ,
-1, ,46, ,
5, ,46, ,
-2, ,46, ,
0, ,46, ,
1, ,44, ,
4, ,46, ,
0, ,46, ,
6, ,45, ,
5, ,46, ,
1, ,46, ,
-1, ,44, ,
3, ,46, ,
3, ,45, ,
3, ,45, ,
3, ,46, ,
6, ,46, ,
3, ,42, ,
1, ,46, ,
-2, ,46, ,
1, ,45, ,
3, ,45, ,
1, ,46, ,
0, ,44, ,
6, ,46, ,
4, ,45, ,
3, ,46, ,
-1, ,46, ,
0, ,46, ,
0, ,42, ,
-1, ,47, ,
-2, ,46, ,
1, ,45, ,
4, ,46, ,
0, ,46, ,
-5, ,44, ,
1, ,47, ,
-1, ,45, ,
0, ,45, ,
-1, ,46, ,
-1, ,46, ,
-2, ,42, ,
1, ,46, ,
1, ,45, ,
3, ,45, ,
1, ,46, ,
3, ,46, ,
-2, ,44, ,
3, ,46, ,
0, ,45, ,
-1, ,45, ,
-2, ,46, ,
-4, ,46, ,
-4, ,44, ,
0, ,46, ,
-5, ,45, ,
0, ,45, ,
0, ,46, ,
0, ,46, ,
-1, ,44, ,
3, ,46, ,
4, ,45, ,
1, ,45, ,
1, ,46, ,
0, ,46, ,
1, ,44, ,
3, ,46, ,
-6, ,45, ,
-1, ,45, ,
-1, ,46, ,
-1, ,46, ,
-1, ,44, ,
3, ,46, ,
4, ,45, ,
4, ,46, ,
3, ,46, ,
4, ,46, ,
3, ,44, ,
4, ,47, ,
-4, ,46, ,
0, ,45, ,
0, ,45, ,
-1, ,46, ,
-1, ,44, ,
4, ,46, ,
-1, ,45, ,
3, ,44, ,
-2, ,45, ,
0, ,46, ,
0, ,42, ,
3, ,46, ,
0, ,45, ,
3, ,45, ,
3, ,46, ,
1, ,46, ,
-2, ,44, ,
3, ,47, ,
0, ,45, ,
4, ,45, ,
4, ,46, ,
4, ,46, ,
5, ,44, ,
5, ,46, ,
1, ,46, ,
3, ,45, ,
3, ,45, ,
-1, ,46, ,
-4, ,44, ,
3, ,46, ,
0, ,45, ,
1, ,45, ,
3, ,46, ,
4, ,46, ,
4, ,44, ,
4, ,46, ,
-2, ,46, ,
1, ,45, ,
1, ,46, ,
1, ,46, ,
-4, ,44, ,
3, ,46, ,
-1, ,45, ,
0, ,45, ,
1, ,46, ,
1, ,46, ,
1, ,44, ,
3, ,47, ,
-2, ,46, ,
0, ,45, ,
1, ,45, ,
0, ,46, ,
-2, ,45, ,
4, ,46, ,
0, ,45, ,
1, ,45, ,
-2, ,45, ,
3, ,46, ,
0, ,44, ,
4, ,47, ,
0, ,46, ,
1, ,46, ,
4, ,46, ,
0, ,46, ,
-2, ,44, ,
1, ,47, ,
-1, ,45, ,
1, ,46, ,
-2, ,46, ,
3, ,46, ,
4, ,44, ,
4, ,46, ,
-1, ,46, ,
0, ,45, ,
3, ,45, ,
1, ,46, ,
-2, ,44, ,
1, ,47, ,
-1, ,45, ,
4, ,45, ,
4, ,46, ,
5, ,46, ,
5, ,44, ,
6, ,46, ,
3, ,46, ,
4, ,45, ,
4, ,46, ,
4, ,41, ,
1, ,31, ,
4, ,22, ,
-2, ,13, ,
-6, ,4, ,
-7, ,-3, ,
-5, ,-9, ,
-4, ,-14, ,
0, ,-19, ,
-5, ,-23, ,
0, ,-27, ,
0, ,-29, ,
0, ,-32, ,
-4, ,-33, ,
4, ,-37, ,
-1, ,-38, ,
-1, ,-39, ,
-4, ,-41, ,
-1, ,-42, ,
1, ,-42, ,
1, ,-44, ,
-5, ,-44, ,
0, ,-45, ,
0, ,-45, ,
-4, ,-46, ,
-5, ,-45, ,
-1, ,-47, ,
1, ,-46, ,
0, ,-47, ,
1, ,-47, ,
3, ,-47, ,
0, ,-46, ,
4, ,-48, ,
-4, ,-47, ,
0, ,-47, ,
3, ,-48, ,
0, ,-48, ,
-4, ,-47, ,
0, ,-49, ,
0, ,-48, ,
0, ,-47, ,
-2, ,-49, ,
1, ,-48, ,
-1, ,-47, ,
0, ,-48, ,
0, ,-48, ,
4, ,-47, ,
5, ,-48, ,
1, ,-48, ,
-2, ,-47, ,
4, ,-49, ,
0, ,-48, ,
0, ,-47, ,
-1, ,-48, ,
0, ,-48, ,
1, ,-47, ,
0, ,-49, ,
-5, ,-48, ,
3, ,-47, ,
4, ,-48, ,
0, ,-48, ,
-2, ,-46, ,
3, ,-48, ,
0, ,-48, ,
0, ,-47, ,
1, ,-48, ,
3, ,-48, ,
4, ,-46, ,
4, ,-48, ,
-2, ,-47, ,
1, ,-47, ,
1, ,-48, ,
1, ,-48, ,
-1, ,-47, ,
4, ,-49, ,
4, ,-47, ,
3, ,-48, ,
0, ,-47, ,
3, ,-48, ,
0, ,-47, ,
4, ,-48, ,
-4, ,-48, ,
3, ,-47, ,
5, ,-47, ,
1, ,-48, ,
1, ,-47, ,
4, ,-48, ,
4, ,-47, ,
3, ,-47, ,
-1, ,-48, ,
3, ,-48, ,
0, ,-46, ,
4, ,-48, ,
0, ,-47, ,
3, ,-47, ,
6, ,-47, ,
1, ,-47, ,
-5, ,-47, ,
1, ,-48, ,
0, ,-47, ,
1, ,-47, ,
-1, ,-48, ,
3, ,-48, ,
-4, ,-47, ,
-4, ,-48, ,
0, ,-47, ,
3, ,-48, ,
1, ,-47, ,
0, ,-48, ,
-2, ,-47, ,
4, ,-48, ,
-4, ,-47, ,
1, ,-47, ,
-4, ,-47, ,
-1, ,-48, ,
4, ,-46, ,
1, ,-48, ,
-4, ,-47, ,
3, ,-47, ,
1, ,-47, ,
-1, ,-47, ,
-5, ,-46, ,
0, ,-48, ,
-1, ,-47, ,
-2, ,-47, ,
-5, ,-47, ,
-4, ,-47, ,
-1, ,-46, ,
-1, ,-48, ,
-7, ,-48, ,
0, ,-47, ,
3, ,-47, ,
3, ,-48, ,
-1, ,-47, ,
5, ,-48, ,
3, ,-47, ,
0, ,-47, ,
-5, ,-48, ,
-5, ,-48, ,
-4, ,-46, ,
-1, ,-48, ,
-7, ,-47, ,
3, ,-47, ,
1, ,-47, ,
-1, ,-47, ,
-1, ,-46, ,
4, ,-48, ,
4, ,-47, ,
-1, ,-47, ,
-1, ,-47, ,
3, ,-47, ,
0, ,-46, ,
4, ,-48, ,
-4, ,-47, ,
4, ,-47, ,
4, ,-47, ,
0, ,-48, ,
0, ,-46, ,
1, ,-48, ,
-1, ,-47, ,
4, ,-47, ,
0, ,-47, ,
4, ,-48, ,
0, ,-46, ,
-4, ,-48, ,
-4, ,-47, ,
0, ,-48, ,
0, ,-47, ,
-1, ,-47, ,
-4, ,-46, ,
5, ,-48, ,
4, ,-47, ,
3, ,-47, ,
1, ,-47, ,
0, ,-48, ,
1, ,-46, ,
0, ,-48, ,
-6, ,-47, ,
1, ,-47, ,
3, ,-47, ,
1, ,-48, ,
5, ,-46, ,
-1, ,-48, ,
-1, ,-47, ,
-6, ,-47, ,
-2, ,-47, ,
5, ,-48, ,
5, ,-46, ,
8, ,-48, ,
0, ,-47, ,
1, ,-47, ,
0, ,-47, ,
1, ,-47, ,
-1, ,-47, ,
-1, ,-48, ,
3, ,-47, ,
1, ,-47, ,
0, ,-47, ,
1, ,-48, ,
-2, ,-46, ,
3, ,-48, ,
-5, ,-47, ,
0, ,-47, ,
3, ,-47, ,
0, ,-47, ,
3, ,-46, ,
5, ,-48, ,
8, ,-47, ,
6, ,-47, ,
3, ,-47, ,
1, ,-48, ,
1, ,-46, ,
1, ,-48, ,
-5, ,-47, ,
-1, ,-47, ,
1, ,-47, ,
-1, ,-47, ,
-5, ,-46, ,
4, ,-48, ,
6, ,-47, ,
5, ,-47, ,
4, ,-47, ,
4, ,-48, ,
3, ,-46, ,
0, ,-48, ,
-2, ,-47, ,
1, ,-47, ,
5, ,-47, ,
3, ,-47, ,
-1, ,-46, ,
6, ,-48, ,
0, ,-47, ,
1, ,-47, ,
0, ,-47, ,
0, ,-48, ,
5, ,-46, ,
6, ,-48, ,
4, ,-47, ,
5, ,-47, ,
1, ,-47, ,
-1, ,-47, ,
-5, ,-46, ,
1, ,-48, ,
3, ,-47, ,
6, ,-47, ,
4, ,-47, ,
5, ,-48, ,
5, ,-47, ,
6, ,-48, ,
-1, ,-47, ,
0, ,-47, ,
3, ,-47, ,
1, ,-47, ,
0, ,-46, ,
5, ,-48, ,
4, ,-47, ,
3, ,-47, ,
0, ,-48, ,
1, ,-48, ,
1, ,-46, ,
3, ,-48, ,
-1, ,-47, ,
3, ,-47, ,
4, ,-47, ,
4, ,-47, ,
0, ,-46, ,
3, ,-48, ,
3, ,-47, ,
1, ,-47, ,
0, ,-47, ,
4, ,-47, ,
3, ,-47, ,
5, ,-48, ,
-1, ,-47, ,
3, ,-47, ,
1, ,-47, ,
-5, ,-48, ,
-7, ,-46, ,
0, ,-48, ,
0, ,-47, ,
4, ,-47, ,
-1, ,-47, ,
1, ,-48, ,
1, ,-46, ,
0, ,-48, ,
-2, ,-47, ,
1, ,-47, ,
4, ,-47, ,
-6, ,-47, ,
0, ,-46, ,
8, ,-48, ,
1, ,-47, ,
5, ,-47, ,
3, ,-47, ,
3, ,-48, ,
4, ,-46, ,
0, ,-48, ,
-4, ,-47, ,
1, ,-47, ,
3, ,-47, ,
3, ,-47, ,
-1, ,-46, ,
4, ,-48, ,
4, ,-47, ,
3, ,-47, ,
1, ,-47, ,
3, ,-48, ,
5, ,-46, ,
4, ,-48, ,
0, ,-47, ,
4, ,-47, ,
3, ,-47, ,
3, ,-47, ,
-2, ,-46, ,
4, ,-48, ,
3, ,-47, ,
1, ,-47, ,
-1, ,-47, ,
0, ,-48, ,
5, ,-46, ,
3, ,-48, ,
-4, ,-47, ,
3, ,-47, ,
4, ,-47, ,
0, ,-47, ,
-1, ,-46, ,
3, ,-48, ,
3, ,-47, ,
3, ,-47, ,
1, ,-47, ,
4, ,-48, ,
5, ,-46, ,
4, ,-48, ,
-4, ,-47, ,
0, ,-47, ,
1, ,-47, ,
1, ,-47, ,
-2, ,-46, ,
8, ,-48, ,
4, ,-47, ,
3, ,-47, ,
0, ,-47, ,
1, ,-48, ,
0, ,-46, ,
-1, ,-48, ,
-2, ,-47, ,
0, ,-47, ,
4, ,-47, ,
0, ,-47, ,
-5, ,-46, ,
-1, ,-48, ,
-1, ,-47, ,
-1, ,-47, ,
-4, ,-47, ,
-1, ,-48, ,
1, ,-46, ,
1, ,-48, ,
-2, ,-47, ,
0, ,-47, ,
0, ,-47, ,
-2, ,-47, ,
-7, ,-46, ,
-2, ,-48, ,
-4, ,-47, ,
-2, ,-47, ,
-4, ,-47, ,
-1, ,-48, ,
0, ,-46, ,
3, ,-48, ,
-4, ,-47, ,
1, ,-47, ,
0, ,-47, ,
-2, ,-47, ,
-9, ,-46, ,
-5, ,-48, ,
-6, ,-47, ,
-9, ,-47, ,
-12, ,-48, ,
-10, ,-47, ,
-10, ,-46, ,
-6, ,-48, ,
-14, ,-47, ,
-5, ,-47, ,
0, ,-47, ,
1, ,-47, ,
4, ,-46, ,
8, ,-48, ,
10, ,-47, ,
8, ,-47, ,
3, ,-47, ,
4, ,-48, ,
0, ,-46, ,
-2, ,-48, ,
-6, ,-47, ,
-1, ,-47, ,
4, ,-47, ,
-1, ,-47, ,
-2, ,-46, ,
1, ,-48, ,
0, ,-47, ,
0, ,-47, ,
-6, ,-47, ,
-2, ,-47, ,
1, ,-46, ,
1, ,-48, ,
-1, ,-47, ,
-1, ,-47, ,
-1, ,-47, ,
-1, ,-47, ,
-6, ,-46, ,
0, ,-48, ,
1, ,-47, ,
3, ,-47, ,
0, ,-47, ,
3, ,-48, ,
1, ,-46, ,
-1, ,-47, ,
-9, ,-47, ,
-6, ,-47, ,
-2, ,-47, ,
-5, ,-48, ,
-6, ,-46, ,
0, ,-48, ,
1, ,-47, ,
1, ,-47, ,
-1, ,-47, ,
0, ,-48, ,
1, ,-46, ,
-1, ,-48, ,
-7, ,-47, ,
-2, ,-47, ,
0, ,-47, ,
1, ,-47, ,
-4, ,-46, ,
0, ,-48, ,
0, ,-47, ,
-2, ,-47, ,
-6, ,-47, ,
-4, ,-47, ,
-2, ,-46, ,
1, ,-48, ,
-4, ,-47, ,
3, ,-47, ,
5, ,-47, ,
0, ,-48, ,
-2, ,-46, ,
1, ,-48, ,
-2, ,-47, ,
1, ,-47, ,
0, ,-47, ,
3, ,-48, ,
1, ,-46, ,
-1, ,-48, ,
-5, ,-47, ,
0, ,-47, ,
0, ,-47, ,
-2, ,-48, ,
-4, ,-46, ,
3, ,-48, ,
1, ,-47, ,
4, ,-47, ,
-1, ,-47, ,
1, ,-48, ,
-1, ,-46, ,
0, ,-48, ,
-5, ,-47, ,
-2, ,-47, ,
5, ,-47, ,
1, ,-47, ,
1, ,-47, ,
8, ,-48, ,
5, ,-47, ,
5, ,-47, ,
-1, ,-47, ,
3, ,-48, ,
3, ,-46, ,
1, ,-48, ,
0, ,-47, ,
4, ,-47, ,
6, ,-47, ,
5, ,-47, ,
-1, ,-47, ,
3, ,-48, ,
4, ,-47, ,
0, ,-47, ,
-1, ,-47, ,
1, ,-47, ,
3, ,-46, ,
3, ,-48, ,
0, ,-47, ,
4, ,-47, ,
6, ,-47, ,
3, ,-47, ,
0, ,-46, ,
5, ,-48, ,
3, ,-47, ,
4, ,-47, ,
4, ,-47, ,
5, ,-48, ,
5, ,-46, ,
3, ,-48, ,
-2, ,-47, ,
1, ,-47, ,
4, ,-47, ,
3, ,-47, ,
0, ,-46, ,
5, ,-48, ,
5, ,-47, ,
3, ,-47, ,
1, ,-48, ,
4, ,-48, ,
3, ,-47, ,
4, ,-48, ,
-2, ,-47, ,
5, ,-47, ,
6, ,-47, ,
1, ,-48, ,
1, ,-46, ,
6, ,-48, ,
3, ,-47, ,
3, ,-47, ,
-2, ,-48, ,
0, ,-48, ,
0, ,-46, ,
3, ,-48, ,
0, ,-47, ,
3, ,-47, ,
5, ,-47, ,
3, ,-47, ,
-1, ,-46, ,
8, ,-48, ,
5, ,-47, ,
3, ,-47, ,
0, ,-47, ,
3, ,-48, ,
5, ,-47, ,
5, ,-48, ,
0, ,-47, ,
4, ,-47, ,
4, ,-47, ,
1, ,-47, ,
-1, ,-46, ,
6, ,-48, ,
4, ,-47, ,
5, ,-47, ,
5, ,-47, ,
5, ,-48, ,
8, ,-46, ,
6, ,-48, ,
3, ,-47, ,
6, ,-47, ,
5, ,-47, ,
3, ,-47, ,
3, ,-47, ,
8, ,-48, ,
4, ,-47, ,
3, ,-47, ,
0, ,-47, ,
3, ,-48, ,
3, ,-46, ,
5, ,-48, ,
0, ,-47, ,
6, ,-47, ,
6, ,-48, ,
4, ,-47, ,
0, ,-46, ,
4, ,-48, ,
4, ,-47, ,
6, ,-47, ,
4, ,-47, ,
3, ,-48, ,
4, ,-46, ,
6, ,-48, ,
0, ,-47, ,
1, ,-47, ,
3, ,-47, ,
0, ,-47, ,
-1, ,-46, ,
5, ,-48, ,
6, ,-47, ,
8, ,-47, ,
6, ,-47, ,
11, ,-48, ,
9, ,-47, ,
9, ,-48, ,
3, ,-47, ,
5, ,-47, ,
6, ,-47, ,
5, ,-48, ,
0, ,-46, ,
4, ,-48, ,
5, ,-47, ,
6, ,-47, ,
3, ,-47, ,
6, ,-48, ,
9, ,-46, ,
5, ,-48, ,
3, ,-47, ,
4, ,-47, ,
4, ,-47, ,
1, ,-47, ,
-4, ,-46, ,
3, ,-48, ,
5, ,-47, ,
4, ,-47, ,
3, ,-47, ,
3, ,-48, ,
6, ,-46, ,
9, ,-48, ,
0, ,-47, ,
5, ,-47, ,
8, ,-47, ,
6, ,-47, ,
1, ,-46, ,
3, ,-48, ,
3, ,-47, ,
1, ,-47, ,
-2, ,-48, ,
4, ,-48, ,
6, ,-46, ,
5, ,-48, ,
1, ,-47, ,
4, ,-47, ,
5, ,-47, ,
1, ,-47, ,
-2, ,-46, ,
3, ,-48, ,
4, ,-47, ,
3, ,-47, ,
3, ,-48, ,
4, ,-47, ,
4, ,-46, ,
5, ,-48, ,
-1, ,-47, ,
3, ,-47, ,
4, ,-47, ,
1, ,-47, ,
0, ,-46, ,
3, ,-48, ,
1, ,-47, ,
0, ,-47, ,
-4, ,-47, ,
0, ,-48, ,
0, ,-46, ,
0, ,-48, ,
-4, ,-47, ,
0, ,-47, ,
1, ,-47, ,
0, ,-47, ,
-4, ,-46, ,
3, ,-48, ,
-2, ,-47, ,
-2, ,-47, ,
-5, ,-47, ,
-1, ,-48, ,
