src/vary_am2_1411/temp0005156.CSV

Format,1.0B,
Memory Length,10000,Memory Length,10000,
IntpDistance,0,IntpDistance,0,
Trigger Address,4999,Trigger Address,4999,
Trigger Level,-1.000E+00,Trigger Level,-1.000E+00,
Source,CH1,Source,CH2,
Vertical Units,V,Vertical Units,V,
Vertical Units Div,0,Vertical Units Div,0,
Vertical Units Extend Div,16,Vertical Units Extend Div,16,
Label,,Label,,
Probe Type,0,Probe Type,0,
Probe Ratio,1.000e+01,Probe Ratio,1.000e+00,
Vertical Scale,2.000e-02,Vertical Scale,1.000e+00,
Vertical Position,-5.120e-02,Vertical Position,2.000e-01,
Horizontal Units,S,Horizontal Units,S,
Horizontal Scale,1.000E-05,Horizontal Scale,1.000E-05,
Horizontal Position,0.000E+00,Horizontal Position,0.000E+00,
Horizontal Mode,Main,Horizontal Mode,Main,
SincET Mode,Real Time,SincET Mode,Real Time,
Sampling Period,1.000e-08,Sampling Period,1.000e-08,
Horizontal Old Scale,1.000E-05,Horizontal Old Scale,1.000E-05,
Horizontal Old Position,0.000E+00,Horizontal Old Position,0.000E+00,
Firmware,V1.23,Firmware,V1.23,
Mode,Fast,Mode,Fast,
Waveform Data,,Waveform Data,,
1, ,-43, ,
4, ,-42, ,
3, ,-43, ,
-1, ,-43, ,
-6, ,-42, ,
0, ,-43, ,
0, ,-42, ,
0, ,-42, ,
-2, ,-43, ,
9, ,-42, ,
8, ,-42, ,
5, ,-43, ,
5, ,-43, ,
5, ,-41, ,
5, ,-43, ,
3, ,-42, ,
-1, ,-43, ,
3, ,-43, ,
1, ,-43, ,
3, ,-42, ,
0, ,-43, ,
5, ,-43, ,
-5, ,-42, ,
-2, ,-42, ,
-4, ,-43, ,
1, ,-41, ,
6, ,-43, ,
6, ,-42, ,
3, ,-43, ,
5, ,-42, ,
3, ,-42, ,
1, ,-42, ,
-2, ,-43, ,
5, ,-42, ,
5, ,-42, ,
4, ,-42, ,
3, ,-43, ,
1, ,-42, ,
-1, ,-43, ,
-2, ,-43, ,
-7, ,-43, ,
-1, ,-42, ,
0, ,-42, ,
-1, ,-42, ,
-1, ,-43, ,
5, ,-42, ,
4, ,-42, ,
3, ,-42, ,
3, ,-42, ,
4, ,-41, ,
4, ,-43, ,
4, ,-43, ,
-4, ,-42, ,
3, ,-42, ,
1, ,-42, ,
-2, ,-41, ,
-4, ,-43, ,
1, ,-43, ,
0, ,-43, ,
-2, ,-42, ,
-2, ,-43, ,
0, ,-42, ,
1, ,-43, ,
1, ,-43, ,
-4, ,-43, ,
1, ,-43, ,
4, ,-43, ,
0, ,-42, ,
-4, ,-43, ,
1, ,-42, ,
-2, ,-42, ,
3, ,-43, ,
1, ,-43, ,
1, ,-42, ,
4, ,-43, ,
3, ,-42, ,
0, ,-42, ,
1, ,-43, ,
-1, ,-42, ,
-2, ,-42, ,
-6, ,-43, ,
-2, ,-42, ,
-1, ,-42, ,
0, ,-43, ,
-1, ,-43, ,
1, ,-42, ,
1, ,-43, ,
1, ,-43, ,
-2, ,-43, ,
3, ,-43, ,
1, ,-43, ,
3, ,-42, ,
-1, ,-43, ,
6, ,-42, ,
3, ,-42, ,
4, ,-42, ,
0, ,-42, ,
1, ,-41, ,
1, ,-43, ,
4, ,-42, ,
-1, ,-42, ,
4, ,-42, ,
3, ,-42, ,
3, ,-42, ,
-1, ,-43, ,
3, ,-42, ,
0, ,-42, ,
-4, ,-42, ,
-4, ,-43, ,
1, ,-42, ,
0, ,-43, ,
1, ,-43, ,
0, ,-42, ,
5, ,-42, ,
6, ,-43, ,
0, ,-42, ,
-2, ,-43, ,
0, ,-42, ,
-4, ,-42, ,
0, ,-43, ,
-2, ,-42, ,
3, ,-42, ,
5, ,-43, ,
3, ,-42, ,
-1, ,-42, ,
0, ,-42, ,
-1, ,-42, ,
0, ,-42, ,
-2, ,-43, ,
4, ,-42, ,
3, ,-42, ,
4, ,-43, ,
1, ,-43, ,
1, ,-41, ,
1, ,-43, ,
1, ,-43, ,
-4, ,-43, ,
4, ,-42, ,
4, ,-42, ,
0, ,-42, ,
-5, ,-43, ,
1, ,-43, ,
-2, ,-42, ,
0, ,-43, ,
0, ,-43, ,
3, ,-42, ,
3, ,-43, ,
3, ,-42, ,
-1, ,-42, ,
6, ,-42, ,
5, ,-42, ,
3, ,-42, ,
-4, ,-43, ,
0, ,-43, ,
0, ,-42, ,
-1, ,-43, ,
-2, ,-43, ,
1, ,-42, ,
4, ,-43, ,
4, ,-43, ,
-4, ,-43, ,
5, ,-42, ,
4, ,-42, ,
0, ,-42, ,
-1, ,-43, ,
5, ,-42, ,
3, ,-43, ,
1, ,-43, ,
1, ,-43, ,
5, ,-42, ,
3, ,-43, ,
3, ,-42, ,
-1, ,-42, ,
1, ,-42, ,
5, ,-43, ,
4, ,-42, ,
0, ,-43, ,
6, ,-43, ,
4, ,-42, ,
4, ,-42, ,
1, ,-43, ,
1, ,-41, ,
-1, ,-43, ,
3, ,-42, ,
-2, ,-42, ,
0, ,-42, ,
4, ,-43, ,
4, ,-42, ,
0, ,-43, ,
3, ,-43, ,
-1, ,-43, ,
1, ,-42, ,
-1, ,-43, ,
0, ,-42, ,
3, ,-43, ,
3, ,-42, ,
1, ,-42, ,
3, ,-42, ,
0, ,-42, ,
1, ,-41, ,
-1, ,-43, ,
5, ,-43, ,
3, ,-42, ,
4, ,-42, ,
1, ,-43, ,
3, ,-41, ,
1, ,-43, ,
3, ,-43, ,
-4, ,-42, ,
3, ,-43, ,
3, ,-42, ,
0, ,-42, ,
-1, ,-43, ,
4, ,-43, ,
0, ,-43, ,
1, ,-43, ,
0, ,-43, ,
1, ,-42, ,
3, ,-43, ,
1, ,-42, ,
-4, ,-42, ,
3, ,-42, ,
4, ,-42, ,
3, ,-42, ,
0, ,-43, ,
5, ,-42, ,
3, ,-42, ,
0, ,-42, ,
-2, ,-43, ,
0, ,-42, ,
0, ,-43, ,
4, ,-43, ,
1, ,-42, ,
3, ,-43, ,
6, ,-42, ,
3, ,-42, ,
3, ,-43, ,
5, ,-42, ,
5, ,-42, ,
6, ,-43, ,
0, ,-43, ,
1, ,-42, ,
1, ,-43, ,
-1, ,-42, ,
-6, ,-42, ,
-1, ,-43, ,
1, ,-42, ,
-1, ,-42, ,
-1, ,-43, ,
5, ,-43, ,
4, ,-42, ,
8, ,-43, ,
6, ,-43, ,
4, ,-42, ,
1, ,-43, ,
3, ,-42, ,
-2, ,-43, ,
1, ,-42, ,
3, ,-43, ,
1, ,-42, ,
-2, ,-43, ,
5, ,-42, ,
1, ,-43, ,
0, ,-42, ,
-2, ,-43, ,
-1, ,-42, ,
1, ,-43, ,
0, ,-42, ,
-2, ,-42, ,
4, ,-42, ,
3, ,-42, ,
3, ,-42, ,
-1, ,-43, ,
4, ,-42, ,
3, ,-43, ,
-1, ,-43, ,
0, ,-42, ,
0, ,-42, ,
-2, ,-43, ,
5, ,-43, ,
-6, ,-42, ,
0, ,-42, ,
1, ,-43, ,
-1, ,-42, ,
-1, ,-43, ,
3, ,-43, ,
0, ,-42, ,
1, ,-43, ,
0, ,-43, ,
3, ,-41, ,
1, ,-43, ,
0, ,-42, ,
-6, ,-42, ,
-1, ,-43, ,
-1, ,-43, ,
-1, ,-42, ,
-5, ,-43, ,
1, ,-42, ,
0, ,-42, ,
1, ,-42, ,
-5, ,-43, ,
0, ,-41, ,
-2, ,-43, ,
-1, ,-43, ,
-2, ,-43, ,
-1, ,-43, ,
3, ,-42, ,
-1, ,-41, ,
-2, ,-43, ,
4, ,-40, ,
-2, ,-32, ,
3, ,-22, ,
4, ,-12, ,
5, ,-4, ,
8, ,3, ,
4, ,11, ,
-1, ,16, ,
4, ,20, ,
4, ,25, ,
6, ,28, ,
3, ,32, ,
9, ,34, ,
6, ,36, ,
0, ,38, ,
1, ,40, ,
3, ,40, ,
4, ,44, ,
3, ,45, ,
-1, ,45, ,
3, ,47, ,
1, ,48, ,
-1, ,47, ,
-4, ,49, ,
3, ,48, ,
4, ,49, ,
8, ,50, ,
5, ,50, ,
5, ,48, ,
1, ,51, ,
6, ,50, ,
1, ,50, ,
1, ,51, ,
3, ,50, ,
3, ,49, ,
-7, ,51, ,
4, ,50, ,
3, ,51, ,
-2, ,50, ,
-1, ,51, ,
1, ,49, ,
-4, ,52, ,
4, ,51, ,
-4, ,51, ,
5, ,51, ,
3, ,51, ,
3, ,49, ,
0, ,52, ,
3, ,50, ,
-2, ,51, ,
0, ,51, ,
-5, ,51, ,
0, ,49, ,
0, ,52, ,
0, ,51, ,
-4, ,51, ,
0, ,51, ,
-1, ,51, ,
-1, ,49, ,
-4, ,52, ,
1, ,50, ,
0, ,51, ,
1, ,51, ,
1, ,51, ,
4, ,49, ,
4, ,52, ,
4, ,51, ,
-1, ,51, ,
1, ,51, ,
1, ,51, ,
-4, ,49, ,
-6, ,51, ,
0, ,50, ,
-2, ,50, ,
-1, ,51, ,
-1, ,51, ,
1, ,48, ,
1, ,52, ,
3, ,50, ,
-1, ,51, ,
1, ,50, ,
0, ,51, ,
0, ,49, ,
-5, ,51, ,
-1, ,50, ,
-1, ,51, ,
-1, ,51, ,
-4, ,51, ,
0, ,49, ,
-1, ,51, ,
3, ,50, ,
-4, ,50, ,
4, ,51, ,
1, ,51, ,
0, ,49, ,
-4, ,51, ,
1, ,50, ,
-4, ,50, ,
-1, ,51, ,
-2, ,51, ,
1, ,48, ,
6, ,52, ,
8, ,50, ,
1, ,50, ,
9, ,51, ,
4, ,51, ,
3, ,49, ,
-2, ,52, ,
4, ,50, ,
4, ,50, ,
4, ,51, ,
1, ,51, ,
1, ,49, ,
3, ,51, ,
3, ,50, ,
-1, ,50, ,
1, ,51, ,
3, ,51, ,
0, ,49, ,
0, ,51, ,
6, ,50, ,
0, ,50, ,
4, ,51, ,
0, ,50, ,
0, ,48, ,
3, ,52, ,
4, ,50, ,
1, ,50, ,
5, ,51, ,
3, ,51, ,
4, ,49, ,
-1, ,51, ,
4, ,50, ,
1, ,50, ,
-1, ,50, ,
1, ,51, ,
4, ,48, ,
5, ,51, ,
9, ,50, ,
-1, ,50, ,
3, ,50, ,
3, ,51, ,
-1, ,48, ,
-1, ,52, ,
3, ,50, ,
1, ,50, ,
3, ,51, ,
1, ,51, ,
1, ,48, ,
4, ,51, ,
5, ,50, ,
-2, ,50, ,
4, ,51, ,
3, ,51, ,
4, ,49, ,
1, ,51, ,
5, ,50, ,
3, ,50, ,
1, ,50, ,
1, ,51, ,
1, ,48, ,
-2, ,51, ,
6, ,50, ,
0, ,50, ,
4, ,50, ,
9, ,51, ,
6, ,49, ,
3, ,51, ,
6, ,49, ,
1, ,50, ,
5, ,50, ,
1, ,50, ,
4, ,48, ,
3, ,51, ,
4, ,50, ,
-2, ,50, ,
1, ,51, ,
4, ,50, ,
4, ,49, ,
-1, ,51, ,
4, ,49, ,
1, ,50, ,
4, ,50, ,
1, ,51, ,
3, ,48, ,
3, ,51, ,
1, ,50, ,
-1, ,50, ,
4, ,50, ,
1, ,51, ,
-1, ,48, ,
-4, ,51, ,
4, ,50, ,
1, ,50, ,
4, ,51, ,
1, ,51, ,
1, ,48, ,
-1, ,51, ,
-1, ,50, ,
-4, ,50, ,
4, ,50, ,
0, ,51, ,
3, ,49, ,
0, ,51, ,
5, ,50, ,
4, ,50, ,
3, ,50, ,
1, ,51, ,
3, ,48, ,
1, ,51, ,
4, ,50, ,
-2, ,50, ,
8, ,51, ,
6, ,51, ,
3, ,48, ,
0, ,51, ,
5, ,49, ,
-1, ,50, ,
0, ,51, ,
-2, ,50, ,
3, ,48, ,
6, ,51, ,
5, ,51, ,
0, ,50, ,
1, ,50, ,
4, ,50, ,
-1, ,49, ,
-5, ,51, ,
3, ,50, ,
1, ,50, ,
-1, ,50, ,
-5, ,51, ,
0, ,48, ,
-4, ,51, ,
0, ,50, ,
-5, ,50, ,
0, ,51, ,
3, ,51, ,
4, ,48, ,
4, ,51, ,
9, ,49, ,
5, ,50, ,
5, ,50, ,
1, ,51, ,
-1, ,48, ,
1, ,52, ,
3, ,50, ,
-5, ,50, ,
1, ,50, ,
4, ,51, ,
3, ,49, ,
0, ,51, ,
5, ,50, ,
1, ,50, ,
1, ,50, ,
-1, ,51, ,
0, ,48, ,
-1, ,51, ,
3, ,50, ,
-2, ,50, ,
1, ,50, ,
3, ,51, ,
1, ,48, ,
-1, ,51, ,
3, ,50, ,
0, ,50, ,
1, ,50, ,
1, ,51, ,
4, ,48, ,
3, ,51, ,
5, ,50, ,
-1, ,50, ,
3, ,51, ,
1, ,50, ,
0, ,49, ,
-2, ,51, ,
3, ,50, ,
0, ,50, ,
0, ,51, ,
-4, ,51, ,
0, ,48, ,
-1, ,51, ,
0, ,50, ,
-4, ,50, ,
0, ,50, ,
1, ,51, ,
-1, ,48, ,
-2, ,51, ,
8, ,49, ,
0, ,50, ,
1, ,51, ,
-4, ,50, ,
0, ,48, ,
-2, ,51, ,
-4, ,50, ,
-7, ,50, ,
-2, ,50, ,
-1, ,51, ,
-1, ,48, ,
-6, ,51, ,
0, ,49, ,
-4, ,51, ,
-2, ,50, ,
-5, ,51, ,
-1, ,48, ,
-2, ,51, ,
1, ,51, ,
-2, ,50, ,
3, ,50, ,
0, ,51, ,
-4, ,49, ,
-6, ,51, ,
1, ,49, ,
-2, ,50, ,
3, ,51, ,
-2, ,50, ,
3, ,48, ,
3, ,51, ,
3, ,50, ,
-5, ,50, ,
0, ,50, ,
-2, ,51, ,
-2, ,49, ,
-4, ,51, ,
4, ,49, ,
1, ,50, ,
1, ,50, ,
-1, ,50, ,
1, ,48, ,
1, ,51, ,
1, ,51, ,
-5, ,50, ,
0, ,51, ,
1, ,51, ,
-2, ,49, ,
-5, ,51, ,
-1, ,50, ,
-4, ,50, ,
-2, ,51, ,
-6, ,51, ,
-1, ,48, ,
0, ,52, ,
3, ,50, ,
-4, ,50, ,
-2, ,50, ,
-4, ,50, ,
-7, ,49, ,
-10, ,51, ,
-6, ,50, ,
-7, ,50, ,
-4, ,50, ,
-9, ,51, ,
-5, ,48, ,
-7, ,51, ,
0, ,50, ,
0, ,50, ,
8, ,50, ,
14, ,51, ,
10, ,48, ,
9, ,51, ,
13, ,49, ,
3, ,50, ,
4, ,51, ,
-4, ,51, ,
-4, ,48, ,
-5, ,51, ,
-2, ,50, ,
-4, ,50, ,
-1, ,50, ,
-1, ,51, ,
-1, ,48, ,
-1, ,51, ,
-1, ,50, ,
-2, ,50, ,
-2, ,50, ,
-2, ,51, ,
-1, ,48, ,
-2, ,51, ,
0, ,50, ,
-5, ,50, ,
1, ,50, ,
1, ,51, ,
0, ,48, ,
-1, ,51, ,
3, ,50, ,
1, ,50, ,
-1, ,50, ,
-2, ,51, ,
-2, ,48, ,
-1, ,51, ,
0, ,50, ,
-7, ,50, ,
1, ,51, ,
0, ,51, ,
0, ,49, ,
-4, ,51, ,
3, ,50, ,
4, ,51, ,
3, ,50, ,
-1, ,51, ,
1, ,48, ,
-2, ,51, ,
-1, ,50, ,
-5, ,50, ,
0, ,50, ,
1, ,51, ,
1, ,49, ,
-1, ,51, ,
5, ,50, ,
0, ,50, ,
8, ,51, ,
3, ,50, ,
4, ,48, ,
1, ,51, ,
3, ,50, ,
1, ,50, ,
1, ,50, ,
1, ,50, ,
3, ,49, ,
-1, ,51, ,
4, ,49, ,
3, ,50, ,
3, ,50, ,
0, ,51, ,
4, ,48, ,
5, ,51, ,
8, ,50, ,
5, ,50, ,
8, ,50, ,
5, ,50, ,
4, ,49, ,
-1, ,51, ,
5, ,50, ,
3, ,50, ,
3, ,50, ,
3, ,50, ,
3, ,48, ,
5, ,51, ,
4, ,50, ,
-4, ,50, ,
1, ,51, ,
0, ,50, ,
1, ,48, ,
0, ,51, ,
4, ,49, ,
3, ,50, ,
3, ,50, ,
-1, ,51, ,
3, ,48, ,
1, ,51, ,
8, ,50, ,
1, ,50, ,
4, ,50, ,
8, ,51, ,
4, ,49, ,
-1, ,51, ,
3, ,49, ,
-1, ,50, ,
1, ,50, ,
-2, ,50, ,
0, ,48, ,
4, ,51, ,
8, ,50, ,
4, ,50, ,
8, ,50, ,
6, ,50, ,
6, ,49, ,
5, ,51, ,
8, ,50, ,
1, ,50, ,
0, ,50, ,
-2, ,51, ,
1, ,48, ,
0, ,51, ,
4, ,50, ,
1, ,50, ,
5, ,50, ,
6, ,51, ,
6, ,48, ,
3, ,51, ,
9, ,49, ,
4, ,50, ,
6, ,51, ,
5, ,50, ,
5, ,48, ,
5, ,51, ,
5, ,50, ,
-1, ,50, ,
4, ,50, ,
4, ,51, ,
1, ,49, ,
4, ,51, ,
10, ,50, ,
4, ,50, ,
8, ,50, ,
1, ,51, ,
3, ,48, ,
0, ,51, ,
3, ,50, ,
-1, ,50, ,
5, ,50, ,
6, ,51, ,
5, ,48, ,
5, ,51, ,
6, ,49, ,
4, ,50, ,
3, ,50, ,
3, ,50, ,
3, ,48, ,
3, ,51, ,
5, ,50, ,
0, ,49, ,
5, ,50, ,
5, ,50, ,
4, ,49, ,
-2, ,51, ,
4, ,49, ,
1, ,50, ,
1, ,50, ,
-2, ,50, ,
5, ,48, ,
1, ,51, ,
-1, ,50, ,
-1, ,50, ,
4, ,50, ,
1, ,51, ,
1, ,49, ,
-1, ,51, ,
4, ,50, ,
3, ,50, ,
3, ,50, ,
-1, ,50, ,
1, ,48, ,
0, ,52, ,
0, ,50, ,
-5, ,50, ,
1, ,51, ,
0, ,50, ,
0, ,49, ,
-2, ,51, ,
6, ,50, ,
1, ,51, ,
0, ,50, ,
-2, ,51, ,
-1, ,48, ,
-5, ,51, ,
-1, ,50, ,
-4, ,50, ,
4, ,51, ,
3, ,50, ,
1, ,49, ,
-2, ,51, ,
4, ,49, ,
1, ,50, ,
1, ,51, ,
-1, ,50, ,
3, ,48, ,
4, ,51, ,
1, ,50, ,
-2, ,50, ,
4, ,51, ,
4, ,50, ,
5, ,49, ,
3, ,51, ,
6, ,49, ,
8, ,50, ,
5, ,50, ,
6, ,50, ,
5, ,48, ,
4, ,51, ,
8, ,50, ,
-1, ,50, ,
4, ,50, ,
5, ,50, ,
-1, ,49, ,
-1, ,51, ,
3, ,49, ,
-1, ,50, ,
1, ,50, ,
0, ,50, ,
6, ,48, ,
1, ,51, ,
4, ,50, ,
-4, ,50, ,
1, ,50, ,
5, ,50, ,
5, ,49, ,
0, ,51, ,
8, ,49, ,
4, ,51, ,
3, ,50, ,
-4, ,50, ,
1, ,48, ,
-1, ,51, ,
4, ,50, ,
-2, ,50, ,
3, ,50, ,
4, ,51, ,
0, ,48, ,
-4, ,51, ,
1, ,50, ,
-2, ,50, ,
0, ,51, ,
-1, ,50, ,
1, ,48, ,
1, ,51, ,
1, ,50, ,
-4, ,50, ,
1, ,50, ,
-1, ,51, ,
-1, ,49, ,
-6, ,51, ,
0, ,50, ,
0, ,50, ,
-1, ,50, ,
-2, ,51, ,
0, ,48, ,
-1, ,51, ,
-2, ,50, ,
-7, ,50, ,
-1, ,50, ,
-1, ,51, ,
-2, ,49, ,
-4, ,52, ,
0, ,49, ,
-4, ,50, ,
-1, ,51, ,
-4, ,51, ,
-2, ,48, ,
-2, ,51, ,
-1, ,50, ,
-5, ,50, ,
-1, ,51, ,
-1, ,51, ,
-4, ,48, ,
-5, ,51, ,
-1, ,49, ,
-1, ,50, ,
-2, ,50, ,
-2, ,50, ,
3, ,48, ,
0, ,51, ,
3, ,50, ,
-1, ,50, ,
0, ,51, ,
0, ,51, ,
-4, ,48, ,
-6, ,52, ,
-4, ,50, ,
-7, ,50, ,
-1, ,51, ,
-4, ,50, ,
0, ,48, ,
0, ,51, ,
-5, ,50, ,
-5, ,50, ,
-5, ,50, ,
-4, ,51, ,
0, ,49, ,
-9, ,51, ,
-2, ,49, ,
-4, ,51, ,
-6, ,50, ,
-7, ,51, ,
-2, ,48, ,
-4, ,51, ,
1, ,50, ,
-6, ,50, ,
3, ,50, ,
3, ,51, ,
-2, ,48, ,
-1, ,52, ,
4, ,50, ,
-2, ,50, ,
0, ,51, ,
-1, ,50, ,
-2, ,48, ,
0, ,51, ,
-1, ,50, ,
-9, ,50, ,
-5, ,51, ,
-5, ,50, ,
-5, ,49, ,
-9, ,51, ,
-4, ,49, ,
-6, ,50, ,
-7, ,50, ,
-2, ,51, ,
1, ,49, ,
0, ,51, ,
4, ,50, ,
-5, ,50, ,
-2, ,51, ,
-4, ,51, ,
-7, ,49, ,
-7, ,51, ,
0, ,50, ,
-4, ,50, ,
3, ,51, ,
-2, ,50, ,
-2, ,48, ,
-2, ,51, ,
-2, ,50, ,
-7, ,50, ,
-1, ,50, ,
1, ,50, ,
0, ,49, ,
1, ,51, ,
6, ,49, ,
1, ,50, ,
0, ,50, ,
-1, ,50, ,
0, ,48, ,
-1, ,51, ,
5, ,50, ,
1, ,50, ,
4, ,50, ,
6, ,51, ,
0, ,48, ,
-1, ,51, ,
1, ,50, ,
-1, ,50, ,
3, ,51, ,
1, ,50, ,
5, ,48, ,
5, ,51, ,
6, ,50, ,
3, ,50, ,
5, ,50, ,
0, ,51, ,
1, ,49, ,
0, ,51, ,
6, ,49, ,
4, ,50, ,
3, ,50, ,
1, ,51, ,
3, ,48, ,
0, ,51, ,
4, ,50, ,
0, ,50, ,
6, ,50, ,
5, ,51, ,
4, ,49, ,
4, ,51, ,
8, ,50, ,
5, ,50, ,
5, ,50, ,
1, ,51, ,
4, ,48, ,
4, ,51, ,
5, ,50, ,
-1, ,50, ,
6, ,50, ,
5, ,50, ,
3, ,49, ,
3, ,51, ,
5, ,49, ,
0, ,50, ,
1, ,50, ,
0, ,50, ,
1, ,49, ,
0, ,51, ,
6, ,50, ,
0, ,50, ,
4, ,51, ,
8, ,50, ,
5, ,49, ,
3, ,51, ,
5, ,49, ,
0, ,50, ,
5, ,51, ,
0, ,51, ,
6, ,48, ,
6, ,52, ,
4, ,50, ,
3, ,50, ,
3, ,51, ,
4, ,51, ,
4, ,49, ,
3, ,51, ,
8, ,49, ,
6, ,49, ,
11, ,42, ,
1, ,33, ,
3, ,22, ,
-2, ,14, ,
-5, ,7, ,
-6, ,-1, ,
3, ,-6, ,
3, ,-11, ,
4, ,-16, ,
1, ,-20, ,
5, ,-23, ,
-2, ,-26, ,
-1, ,-28, ,
-1, ,-30, ,
-2, ,-31, ,
-2, ,-35, ,
0, ,-35, ,
-5, ,-37, ,
1, ,-38, ,
4, ,-39, ,
4, ,-38, ,
0, ,-40, ,
6, ,-40, ,
6, ,-41, ,
1, ,-41, ,
-1, ,-42, ,
4, ,-41, ,
4, ,-42, ,
8, ,-42, ,
3, ,-42, ,
3, ,-43, ,
8, ,-43, ,
1, ,-42, ,
0, ,-43, ,
3, ,-43, ,
3, ,-43, ,
4, ,-43, ,
3, ,-43, ,
4, ,-42, ,
4, ,-43, ,
4, ,-43, ,
1, ,-43, ,
4, ,-43, ,
4, ,-43, ,
4, ,-42, ,
1, ,-44, ,
8, ,-43, ,
5, ,-43, ,
3, ,-43, ,
0, ,-43, ,
4, ,-42, ,
3, ,-43, ,
0, ,-43, ,
-2, ,-43, ,
0, ,-43, ,
5, ,-43, ,
4, ,-42, ,
-1, ,-44, ,
6, ,-43, ,
0, ,-43, ,
3, ,-43, ,
-1, ,-43, ,
1, ,-42, ,
4, ,-43, ,
-2, ,-43, ,
0, ,-43, ,
5, ,-43, ,
1, ,-43, ,
4, ,-42, ,
-2, ,-44, ,
3, ,-43, ,
-1, ,-43, ,
3, ,-43, ,
3, ,-43, ,
0, ,-42, ,
4, ,-43, ,
4, ,-43, ,
-1, ,-42, ,
3, ,-43, ,
3, ,-43, ,
1, ,-42, ,
-1, ,-44, ,
5, ,-43, ,
6, ,-43, ,
4, ,-43, ,
3, ,-43, ,
3, ,-42, ,
0, ,-43, ,
1, ,-43, ,
-7, ,-43, ,
-1, ,-43, ,
-1, ,-43, ,
-2, ,-41, ,
-2, ,-43, ,
3, ,-43, ,
0, ,-43, ,
0, ,-42, ,
-2, ,-43, ,
3, ,-42, ,
1, ,-43, ,
4, ,-43, ,
-1, ,-43, ,
4, ,-43, ,
4, ,-43, ,
-1, ,-42, ,
-4, ,-43, ,
-1, ,-43, ,
-4, ,-42, ,
-1, ,-43, ,
-5, ,-43, ,
-1, ,-41, ,
0, ,-43, ,
-2, ,-42, ,
-6, ,-43, ,
-2, ,-43, ,
-1, ,-43, ,
-2, ,-41, ,
-10, ,-43, ,
0, ,-43, ,
-2, ,-43, ,
-2, ,-42, ,
-5, ,-43, ,
-1, ,-42, ,
-4, ,-43, ,
-4, ,-43, ,
-5, ,-43, ,
-5, ,-43, ,
-1, ,-43, ,
-2, ,-41, ,
-5, ,-43, ,
1, ,-43, ,
-1, ,-43, ,
-4, ,-43, ,
-6, ,-43, ,
-4, ,-42, ,
-1, ,-43, ,
-4, ,-42, ,
-10, ,-42, ,
-4, ,-42, ,
-2, ,-42, ,
-4, ,-41, ,
-9, ,-43, ,
-2, ,-42, ,
-4, ,-43, ,
-6, ,-43, ,
-4, ,-43, ,
-4, ,-42, ,
-4, ,-43, ,
0, ,-43, ,
-5, ,-42, ,
-1, ,-43, ,
1, ,-43, ,
-4, ,-41, ,
-6, ,-43, ,
-5, ,-43, ,
-6, ,-43, ,
-4, ,-43, ,
-5, ,-43, ,
1, ,-42, ,
0, ,-43, ,
-2, ,-42, ,
-2, ,-42, ,
3, ,-43, ,
-6, ,-42, ,
-5, ,-42, ,
-2, ,-43, ,
1, ,-42, ,
0, ,-42, ,
0, ,-43, ,
-1, ,-43, ,
0, ,-42, ,
0, ,-43, ,
0, ,-42, ,
-4, ,-43, ,
0, ,-43, ,
4, ,-43, ,
-2, ,-41, ,
-2, ,-43, ,
1, ,-42, ,
0, ,-42, ,
-1, ,-43, ,
1, ,-43, ,
0, ,-42, ,
3, ,-43, ,
5, ,-42, ,
1, ,-43, ,
4, ,-42, ,
3, ,-42, ,
-2, ,-42, ,
-4, ,-43, ,
0, ,-43, ,
-1, ,-43, ,
-7, ,-43, ,
-2, ,-43, ,
3, ,-42, ,
0, ,-43, ,
5, ,-42, ,
-4, ,-42, ,
0, ,-43, ,
1, ,-43, ,
-4, ,-42, ,
-5, ,-43, ,
4, ,-43, ,
5, ,-42, ,
1, ,-43, ,
-1, ,-42, ,
1, ,-42, ,
0, ,-43, ,
0, ,-42, ,
-5, ,-42, ,
1, ,-42, ,
-1, ,-42, ,
-1, ,-42, ,
-4, ,-43, ,
0, ,-42, ,
3, ,-43, ,
1, ,-42, ,
-1, ,-43, ,
1, ,-42, ,
1, ,-43, ,
3, ,-42, ,
-2, ,-43, ,
1, ,-43, ,
3, ,-43, ,
1, ,-41, ,
-4, ,-43, ,
3, ,-42, ,
-2, ,-43, ,
1, ,-43, ,
-1, ,-43, ,
3, ,-42, ,
4, ,-43, ,
5, ,-42, ,
0, ,-43, ,
3, ,-42, ,
4, ,-42, ,
1, ,-42, ,
-2, ,-43, ,
4, ,-42, ,
1, ,-43, ,
3, ,-43, ,
1, ,-43, ,
3, ,-42, ,
5, ,-43, ,
8, ,-43, ,
1, ,-43, ,
8, ,-42, ,
5, ,-43, ,
3, ,-42, ,
-1, ,-43, ,
5, ,-42, ,
4, ,-43, ,
3, ,-43, ,
0, ,-43, ,
5, ,-42, ,
4, ,-43, ,
4, ,-42, ,
-1, ,-43, ,
4, ,-42, ,
6, ,-42, ,
4, ,-42, ,
3, ,-43, ,
6, ,-43, ,
8, ,-43, ,
4, ,-43, ,
-1, ,-43, ,
1, ,-42, ,
3, ,-43, ,
4, ,-42, ,
3, ,-42, ,
5, ,-43, ,
9, ,-43, ,
3, ,-42, ,
1, ,-43, ,
5, ,-42, ,
1, ,-42, ,
3, ,-43, ,
1, ,-42, ,
4, ,-42, ,
5, ,-43, ,
5, ,-43, ,
1, ,-42, ,
3, ,-43, ,
6, ,-42, ,
4, ,-42, ,
3, ,-43, ,
8, ,-42, ,
5, ,-43, ,
4, ,-43, ,
4, ,-43, ,
5, ,-42, ,
5, ,-43, ,
5, ,-43, ,
0, ,-42, ,
3, ,-42, ,
4, ,-42, ,
3, ,-41, ,
-1, ,-43, ,
5, ,-43, ,
1, ,-42, ,
1, ,-43, ,
-2, ,-43, ,
1, ,-41, ,
1, ,-43, ,
3, ,-42, ,
1, ,-43, ,
6, ,-42, ,
4, ,-42, ,
5, ,-42, ,
3, ,-43, ,
8, ,-42, ,
4, ,-42, ,
3, ,-43, ,
0, ,-43, ,
3, ,-42, ,
3, ,-43, ,
5, ,-43, ,
-1, ,-43, ,
4, ,-43, ,
6, ,-43, ,
6, ,-41, ,
4, ,-43, ,
6, ,-43, ,
5, ,-42, ,
5, ,-43, ,
5, ,-43, ,
4, ,-42, ,
3, ,-43, ,
3, ,-42, ,
-4, ,-42, ,
0, ,-42, ,
3, ,-42, ,
-1, ,-42, ,
-4, ,-43, ,
4, ,-42, ,
4, ,-42, ,
4, ,-43, ,
0, ,-43, ,
4, ,-41, ,
1, ,-43, ,
4, ,-42, ,
-2, ,-42, ,
5, ,-42, ,
8, ,-42, ,
3, ,-41, ,
1, ,-43, ,
5, ,-43, ,
3, ,-42, ,
4, ,-43, ,
-4, ,-43, ,
-1, ,-42, ,
0, ,-43, ,
-2, ,-43, ,
-2, ,-43, ,
0, ,-43, ,
4, ,-42, ,
1, ,-41, ,
-2, ,-43, ,
3, ,-42, ,
0, ,-42, ,
1, ,-43, ,
-2, ,-43, ,
-1, ,-42, ,
1, ,-43, ,
0, ,-42, ,
-4, ,-42, ,
3, ,-42, ,
4, ,-43, ,
-2, ,-41, ,
-6, ,-43, ,
-1, ,-42, ,
0, ,-42, ,
0, ,-42, ,
-1, ,-42, ,
0, ,-42, ,
0, ,-43, ,
-4, ,-42, ,
-9, ,-42, ,
-5, ,-42, ,
-4, ,-42, ,
-1, ,-42, ,
-2, ,-43, ,
5, ,-43, ,
1, ,-42, ,
0, ,-42, ,
-4, ,-43, ,
-4, ,-42, ,
-2, ,-43, ,
4, ,-42, ,
-1, ,-42, ,
5, ,-42, ,
3, ,-43, ,
-2, ,-41, ,
-4, ,-43, ,
1, ,-42, ,
-1, ,-42, ,
-1, ,-43, ,
-1, ,-43, ,
3, ,-42, ,
1, ,-43, ,
4, ,-42, ,
0, ,-43, ,
3, ,-43, ,
0, ,-42, ,
-2, ,-42, ,
-5, ,-43, ,
0, ,-42, ,
-1, ,-42, ,
0, ,-42, ,
-1, ,-43, ,
3, ,-42, ,
3, ,-43, ,
0, ,-43, ,
-5, ,-42, ,
-2, ,-43, ,
1, ,-43, ,
-4, ,-41, ,
-7, ,-43, ,
1, ,-42, ,
0, ,-43, ,
1, ,-43, ,
0, ,-42, ,
0, ,-42, ,
3, ,-43, ,
4, ,-42, ,
1, ,-42, ,
5, ,-42, ,
3, ,-42, ,
0, ,-42, ,
-6, ,-43, ,
1, ,-43, ,
0, ,-42, ,
-4, ,-42, ,
-5, ,-42, ,
-1, ,-42, ,
-1, ,-43, ,
0, ,-43, ,
-7, ,-42, ,
-1, ,-42, ,
1, ,-43, ,
-1, ,-41, ,
-6, ,-43, ,
4, ,-42, ,
-1, ,-42, ,
0, ,-42, ,
-2, ,-43, ,
1, ,-41, ,
3, ,-43, ,
0, ,-42, ,
-4, ,-43, ,
-1, ,-42, ,
-4, ,-42, ,
-6, ,-41, ,
-6, ,-43, ,
-2, ,-42, ,
0, ,-42, ,
-1, ,-42, ,
-2, ,-43, ,
3, ,-42, ,
1, ,-43, ,
1, ,-42, ,
-4, ,-43, ,
1, ,-43, ,
1, ,-42, ,
-1, ,-41, ,
-2, ,-43, ,
1, ,-42, ,
0, ,-42, ,
1, ,-43, ,
-2, ,-42, ,
1, ,-42, ,
4, ,-43, ,
1, ,-42, ,
-5, ,-43, ,
0, ,-42, ,
0, ,-42, ,
-1, ,-42, ,
-4, ,-43, ,
-1, ,-43, ,
-1, ,-42, ,
-1, ,-42, ,
1, ,-43, ,
3, ,-42, ,
5, ,-43, ,
6, ,-42, ,
0, ,-43, ,
4, ,-42, ,
3, ,-43, ,
0, ,-42, ,
-6, ,-43, ,
0, ,-42, ,
-2, ,-42, ,
0, ,-43, ,
0, ,-43, ,
1, ,-42, ,
3, ,-43, ,
4, ,-42, ,
-1, ,-43, ,
3, ,-42, ,
3, ,-42, ,
0, ,-42, ,
-1, ,-43, ,
3, ,-43, ,
4, ,-42, ,
0, ,-43, ,
3, ,-43, ,
3, ,-42, ,
1, ,-43, ,
4, ,-42, ,
-4, ,-42, ,
1, ,-43, ,
1, ,-42, ,
-2, ,-41, ,
-1, ,-43, ,
1, ,-42, ,
0, ,-43, ,
3, ,-42, ,
-1, ,-43, ,
0, ,-42, ,
1, ,-43, ,
3, ,-42, ,
-4, ,-42, ,
3, ,-42, ,
1, ,-42, ,
-1, ,-42, ,
-2, ,-43, ,
4, ,-43, ,
1, ,-42, ,
1, ,-42, ,
-4, ,-43, ,
1, ,-42, ,
3, ,-43, ,
4, ,-42, ,
0, ,-42, ,
4, ,-43, ,
5, ,-43, ,
0, ,-41, ,
-2, ,-43, ,
3, ,-42, ,
1, ,-42, ,
0, ,-43, ,
0, ,-43, ,
1, ,-42, ,
4, ,-43, ,
4, ,-42, ,
-1, ,-42, ,
4, ,-42, ,
3, ,-42, ,
3, ,-41, ,
0, ,-43, ,
6, ,-42, ,
4, ,-42, ,
3, ,-42, ,
-1, ,-43, ,
1, ,-41, ,
1, ,-43, ,
0, ,-42, ,
-2, ,-42, ,
5, ,-43, ,
8, ,-43, ,
5, ,-42, ,
3, ,-43, ,
8, ,-42, ,
4, ,-42, ,
4, ,-43, ,
0, ,-43, ,
3, ,-42, ,
4, ,-43, ,
5, ,-42, ,
3, ,-42, ,
5, ,-43, ,
6, ,-42, ,
3, ,-42, ,
0, ,-43, ,
3, ,-43, ,
3, ,-43, ,
1, ,-42, ,
1, ,-43, ,
4, ,-42, ,
3, ,-42, ,
4, ,-43, ,
1, ,-42, ,
5, ,-42, ,
5, ,-43, ,
3, ,-42, ,
4, ,-43, ,
8, ,-42, ,
5, ,-42, ,
4, ,-42, ,
-2, ,-43, ,
0, ,-41, ,
1, ,-43, ,
-2, ,-42, ,
-6, ,-43, ,
-1, ,-43, ,
3, ,-42, ,
0, ,-42, ,
-2, ,-43, ,
4, ,-42, ,
3, ,-42, ,
1, ,-43, ,
1, ,-43, ,
1, ,-42, ,
3, ,-43, ,
4, ,-42, ,
1, ,-42, ,
3, ,-43, ,
5, ,-43, ,
1, ,-42, ,
-2, ,-43, ,
0, ,-43, ,
-2, ,-43, ,
0, ,-42, ,
0, ,-43, ,
-1, ,-42, ,
6, ,-43, ,
5, ,-42, ,
-9, ,-43, ,
3, ,-43, ,
3, ,-42, ,
3, ,-41, ,
0, ,-43, ,
4, ,-42, ,
3, ,-42, ,
-1, ,-42, ,
-2, ,-43, ,
-1, ,-41, ,
-2, ,-43, ,
-1, ,-43, ,
-6, ,-42, ,
4, ,-42, ,
4, ,-42, ,
1, ,-42, ,
1, ,-43, ,
6, ,-43, ,
3, ,-43, ,
1, ,-43, ,
1, ,-43, ,
1, ,-41, ,
1, ,-43, ,
1, ,-43, ,
-1, ,-42, ,
1, ,-42, ,
3, ,-42, ,
1, ,-42, ,
0, ,-43, ,
1, ,-43, ,
4, ,-43, ,
1, ,-43, ,
-1, ,-42, ,
1, ,-41, ,
1, ,-43, ,
