src/vary_am2_1411/temp0003368.CSV

Format,1.0B,
Memory Length,10000,Memory Length,10000,
IntpDistance,0,IntpDistance,0,
Trigger Address,4999,Trigger Address,4999,
Trigger Level,-1.000E+00,Trigger Level,-1.000E+00,
Source,CH1,Source,CH2,
Vertical Units,V,Vertical Units,V,
Vertical Units Div,0,Vertical Units Div,0,
Vertical Units Extend Div,16,Vertical Units Extend Div,16,
Label,,Label,,
Probe Type,0,Probe Type,0,
Probe Ratio,1.000e+01,Probe Ratio,1.000e+00,
Vertical Scale,2.000e-02,Vertical Scale,1.000e+00,
Vertical Position,-5.120e-02,Vertical Position,2.000e-01,
Horizontal Units,S,Horizontal Units,S,
Horizontal Scale,1.000E-05,Horizontal Scale,1.000E-05,
Horizontal Position,0.000E+00,Horizontal Position,0.000E+00,
Horizontal Mode,Main,Horizontal Mode,Main,
SincET Mode,Real Time,SincET Mode,Real Time,
Sampling Period,1.000e-08,Sampling Period,1.000e-08,
Horizontal Old Scale,1.000E-05,Horizontal Old Scale,1.000E-05,
Horizontal Old Position,0.000E+00,Horizontal Old Position,0.000E+00,
Firmware,V1.23,Firmware,V1.23,
Mode,Fast,Mode,Fast,
Waveform Data,,Waveform Data,,
4, ,-41, ,
3, ,-40, ,
-4, ,-40, ,
0, ,-40, ,
1, ,-40, ,
0, ,-40, ,
-4, ,-40, ,
4, ,-40, ,
-1, ,-40, ,
0, ,-40, ,
-1, ,-40, ,
-2, ,-40, ,
-4, ,-40, ,
-4, ,-40, ,
-5, ,-40, ,
1, ,-40, ,
1, ,-40, ,
1, ,-40, ,
-2, ,-40, ,
3, ,-40, ,
3, ,-40, ,
0, ,-40, ,
0, ,-40, ,
3, ,-40, ,
3, ,-41, ,
1, ,-40, ,
-6, ,-40, ,
-2, ,-40, ,
-4, ,-40, ,
-7, ,-40, ,
-10, ,-40, ,
-2, ,-40, ,
-1, ,-40, ,
-4, ,-40, ,
-5, ,-40, ,
-4, ,-40, ,
-6, ,-41, ,
-7, ,-40, ,
-14, ,-40, ,
-11, ,-40, ,
-9, ,-40, ,
-11, ,-40, ,
-11, ,-40, ,
-5, ,-40, ,
-1, ,-40, ,
5, ,-40, ,
5, ,-40, ,
13, ,-40, ,
14, ,-40, ,
13, ,-40, ,
8, ,-40, ,
4, ,-40, ,
4, ,-40, ,
-5, ,-40, ,
-9, ,-40, ,
0, ,-40, ,
-5, ,-40, ,
-1, ,-40, ,
-5, ,-40, ,
-1, ,-40, ,
3, ,-40, ,
1, ,-40, ,
-1, ,-40, ,
-1, ,-40, ,
0, ,-40, ,
-2, ,-40, ,
-6, ,-40, ,
-4, ,-40, ,
-1, ,-40, ,
-2, ,-40, ,
-2, ,-40, ,
4, ,-40, ,
3, ,-41, ,
3, ,-40, ,
-1, ,-40, ,
3, ,-40, ,
1, ,-40, ,
-2, ,-40, ,
-7, ,-40, ,
-2, ,-40, ,
-4, ,-40, ,
-5, ,-40, ,
-1, ,-40, ,
0, ,-40, ,
3, ,-40, ,
4, ,-40, ,
0, ,-40, ,
1, ,-40, ,
1, ,-40, ,
-4, ,-40, ,
-9, ,-40, ,
-5, ,-40, ,
-5, ,-40, ,
-5, ,-40, ,
-6, ,-40, ,
-2, ,-40, ,
-2, ,-40, ,
3, ,-40, ,
0, ,-40, ,
3, ,-40, ,
8, ,-40, ,
1, ,-40, ,
-1, ,-40, ,
1, ,-40, ,
-1, ,-40, ,
-2, ,-40, ,
-6, ,-40, ,
-1, ,-40, ,
-4, ,-41, ,
3, ,-40, ,
-1, ,-40, ,
0, ,-40, ,
3, ,-40, ,
0, ,-40, ,
-1, ,-40, ,
3, ,-40, ,
1, ,-40, ,
0, ,-40, ,
0, ,-40, ,
0, ,-40, ,
3, ,-40, ,
4, ,-40, ,
-2, ,-40, ,
1, ,-40, ,
4, ,-40, ,
0, ,-40, ,
-1, ,-40, ,
4, ,-40, ,
4, ,-40, ,
4, ,-40, ,
-2, ,-40, ,
-1, ,-40, ,
0, ,-41, ,
1, ,-40, ,
0, ,-40, ,
5, ,-40, ,
6, ,-40, ,
8, ,-40, ,
5, ,-40, ,
8, ,-40, ,
5, ,-40, ,
3, ,-40, ,
3, ,-40, ,
4, ,-40, ,
1, ,-40, ,
5, ,-40, ,
-1, ,-40, ,
3, ,-40, ,
5, ,-40, ,
1, ,-40, ,
0, ,-40, ,
4, ,-40, ,
5, ,-40, ,
3, ,-40, ,
4, ,-40, ,
5, ,-40, ,
6, ,-41, ,
11, ,-40, ,
5, ,-40, ,
6, ,-40, ,
6, ,-40, ,
3, ,-40, ,
1, ,-40, ,
5, ,-40, ,
5, ,-40, ,
4, ,-40, ,
0, ,-40, ,
3, ,-40, ,
4, ,-40, ,
1, ,-40, ,
0, ,-40, ,
5, ,-40, ,
9, ,-40, ,
3, ,-40, ,
0, ,-40, ,
6, ,-40, ,
3, ,-40, ,
4, ,-40, ,
1, ,-40, ,
4, ,-40, ,
4, ,-41, ,
4, ,-40, ,
1, ,-40, ,
3, ,-40, ,
5, ,-40, ,
6, ,-40, ,
1, ,-40, ,
6, ,-40, ,
5, ,-40, ,
1, ,-40, ,
-2, ,-40, ,
0, ,-40, ,
0, ,-40, ,
5, ,-40, ,
4, ,-40, ,
5, ,-40, ,
6, ,-40, ,
4, ,-40, ,
1, ,-40, ,
5, ,-40, ,
4, ,-40, ,
4, ,-40, ,
4, ,-40, ,
4, ,-40, ,
6, ,-41, ,
6, ,-40, ,
-1, ,-40, ,
4, ,-40, ,
5, ,-40, ,
5, ,-40, ,
4, ,-40, ,
10, ,-40, ,
9, ,-40, ,
6, ,-40, ,
5, ,-40, ,
4, ,-40, ,
3, ,-40, ,
5, ,-40, ,
1, ,-40, ,
4, ,-40, ,
8, ,-40, ,
4, ,-40, ,
3, ,-40, ,
8, ,-40, ,
5, ,-40, ,
4, ,-40, ,
-2, ,-40, ,
0, ,-40, ,
0, ,-40, ,
4, ,-40, ,
3, ,-40, ,
3, ,-40, ,
5, ,-40, ,
3, ,-40, ,
1, ,-40, ,
4, ,-40, ,
4, ,-40, ,
4, ,-40, ,
4, ,-40, ,
6, ,-40, ,
8, ,-40, ,
6, ,-40, ,
0, ,-40, ,
6, ,-40, ,
5, ,-40, ,
4, ,-40, ,
1, ,-40, ,
6, ,-40, ,
6, ,-40, ,
9, ,-40, ,
4, ,-40, ,
5, ,-40, ,
4, ,-40, ,
-2, ,-40, ,
-4, ,-40, ,
3, ,-40, ,
6, ,-40, ,
8, ,-40, ,
8, ,-40, ,
8, ,-40, ,
6, ,-40, ,
3, ,-40, ,
4, ,-40, ,
5, ,-40, ,
1, ,-41, ,
-1, ,-40, ,
-9, ,-40, ,
-1, ,-40, ,
1, ,-40, ,
1, ,-40, ,
4, ,-40, ,
8, ,-40, ,
9, ,-40, ,
9, ,-40, ,
8, ,-40, ,
13, ,-40, ,
11, ,-41, ,
8, ,-40, ,
-1, ,-40, ,
1, ,-40, ,
1, ,-41, ,
0, ,-40, ,
3, ,-40, ,
5, ,-40, ,
5, ,-40, ,
4, ,-40, ,
4, ,-40, ,
5, ,-40, ,
6, ,-41, ,
8, ,-40, ,
4, ,-40, ,
4, ,-40, ,
5, ,-40, ,
0, ,-40, ,
-4, ,-40, ,
5, ,-40, ,
5, ,-40, ,
8, ,-40, ,
6, ,-40, ,
4, ,-40, ,
4, ,-40, ,
3, ,-40, ,
-5, ,-40, ,
-1, ,-40, ,
0, ,-40, ,
0, ,-40, ,
-2, ,-40, ,
3, ,-40, ,
0, ,-40, ,
-5, ,-39, ,
-5, ,-32, ,
0, ,-22, ,
6, ,-12, ,
9, ,-4, ,
5, ,4, ,
5, ,11, ,
1, ,17, ,
3, ,21, ,
-4, ,26, ,
3, ,31, ,
8, ,34, ,
4, ,36, ,
0, ,38, ,
3, ,39, ,
3, ,42, ,
3, ,45, ,
-5, ,45, ,
-1, ,47, ,
-4, ,47, ,
-6, ,47, ,
-6, ,50, ,
-1, ,50, ,
-1, ,50, ,
0, ,51, ,
-2, ,51, ,
-2, ,51, ,
-4, ,53, ,
-2, ,52, ,
-7, ,52, ,
-5, ,53, ,
-2, ,53, ,
-2, ,51, ,
-5, ,53, ,
-4, ,53, ,
-6, ,53, ,
-2, ,54, ,
-5, ,53, ,
-5, ,52, ,
-5, ,54, ,
-1, ,53, ,
-5, ,53, ,
1, ,54, ,
-1, ,53, ,
-4, ,52, ,
-6, ,54, ,
0, ,53, ,
-6, ,53, ,
-1, ,53, ,
-1, ,53, ,
0, ,52, ,
-1, ,54, ,
0, ,53, ,
-4, ,53, ,
-2, ,53, ,
-4, ,53, ,
-5, ,52, ,
-10, ,54, ,
-2, ,53, ,
-9, ,53, ,
-4, ,53, ,
-2, ,53, ,
-5, ,52, ,
-2, ,54, ,
-2, ,52, ,
-6, ,52, ,
-1, ,53, ,
-2, ,53, ,
-1, ,52, ,
-4, ,54, ,
1, ,53, ,
-2, ,52, ,
-5, ,53, ,
-7, ,53, ,
-5, ,52, ,
-10, ,54, ,
-6, ,52, ,
-11, ,53, ,
-2, ,53, ,
-2, ,53, ,
-1, ,52, ,
-4, ,53, ,
0, ,53, ,
-2, ,53, ,
-4, ,53, ,
-5, ,53, ,
-2, ,52, ,
-2, ,54, ,
1, ,53, ,
-4, ,52, ,
-1, ,53, ,
1, ,54, ,
-2, ,51, ,
-4, ,53, ,
-1, ,53, ,
-4, ,52, ,
-4, ,53, ,
-6, ,53, ,
-1, ,52, ,
-6, ,54, ,
-5, ,52, ,
3, ,53, ,
3, ,53, ,
3, ,53, ,
-1, ,51, ,
-5, ,53, ,
0, ,52, ,
-4, ,53, ,
1, ,53, ,
0, ,53, ,
1, ,52, ,
3, ,54, ,
3, ,52, ,
-4, ,52, ,
1, ,53, ,
3, ,53, ,
4, ,51, ,
1, ,54, ,
8, ,53, ,
5, ,52, ,
1, ,53, ,
1, ,53, ,
3, ,52, ,
3, ,53, ,
5, ,52, ,
1, ,52, ,
8, ,53, ,
8, ,52, ,
6, ,51, ,
-2, ,53, ,
6, ,53, ,
3, ,52, ,
0, ,53, ,
-1, ,53, ,
1, ,52, ,
0, ,54, ,
6, ,52, ,
-1, ,52, ,
6, ,53, ,
6, ,52, ,
6, ,52, ,
3, ,53, ,
3, ,52, ,
5, ,52, ,
6, ,53, ,
5, ,53, ,
8, ,51, ,
3, ,54, ,
9, ,52, ,
4, ,53, ,
6, ,53, ,
6, ,53, ,
5, ,51, ,
1, ,54, ,
8, ,52, ,
3, ,52, ,
5, ,53, ,
1, ,53, ,
3, ,52, ,
3, ,53, ,
4, ,52, ,
1, ,52, ,
5, ,53, ,
5, ,53, ,
4, ,51, ,
1, ,53, ,
9, ,53, ,
3, ,52, ,
5, ,52, ,
0, ,53, ,
3, ,52, ,
3, ,54, ,
4, ,53, ,
3, ,53, ,
4, ,53, ,
5, ,53, ,
5, ,51, ,
3, ,53, ,
4, ,53, ,
0, ,53, ,
1, ,53, ,
3, ,53, ,
1, ,52, ,
6, ,53, ,
8, ,52, ,
3, ,52, ,
8, ,53, ,
5, ,53, ,
5, ,51, ,
4, ,53, ,
8, ,52, ,
5, ,52, ,
5, ,53, ,
3, ,53, ,
4, ,51, ,
4, ,53, ,
4, ,52, ,
3, ,53, ,
4, ,53, ,
3, ,53, ,
3, ,51, ,
4, ,53, ,
9, ,52, ,
9, ,52, ,
8, ,52, ,
6, ,53, ,
6, ,52, ,
5, ,53, ,
4, ,52, ,
0, ,53, ,
6, ,53, ,
8, ,53, ,
6, ,51, ,
5, ,53, ,
5, ,52, ,
3, ,53, ,
3, ,53, ,
0, ,53, ,
4, ,52, ,
3, ,53, ,
5, ,52, ,
1, ,52, ,
4, ,53, ,
5, ,53, ,
3, ,51, ,
0, ,53, ,
8, ,53, ,
4, ,53, ,
5, ,53, ,
3, ,53, ,
5, ,52, ,
4, ,54, ,
4, ,52, ,
-5, ,52, ,
-1, ,53, ,
0, ,53, ,
0, ,51, ,
-2, ,53, ,
4, ,52, ,
5, ,52, ,
4, ,53, ,
4, ,53, ,
3, ,52, ,
1, ,54, ,
1, ,52, ,
-2, ,52, ,
1, ,53, ,
3, ,53, ,
3, ,51, ,
-1, ,53, ,
5, ,52, ,
1, ,52, ,
0, ,52, ,
1, ,53, ,
1, ,51, ,
3, ,54, ,
5, ,51, ,
-1, ,52, ,
3, ,53, ,
1, ,53, ,
-1, ,51, ,
-2, ,53, ,
1, ,52, ,
3, ,53, ,
4, ,52, ,
0, ,53, ,
1, ,52, ,
0, ,53, ,
0, ,52, ,
-5, ,52, ,
-1, ,53, ,
-1, ,52, ,
-2, ,51, ,
-1, ,53, ,
4, ,53, ,
0, ,53, ,
1, ,53, ,
-1, ,53, ,
1, ,51, ,
1, ,53, ,
1, ,52, ,
-4, ,52, ,
-2, ,53, ,
-1, ,53, ,
0, ,51, ,
-4, ,53, ,
4, ,52, ,
0, ,52, ,
1, ,52, ,
0, ,53, ,
0, ,52, ,
0, ,54, ,
0, ,52, ,
-4, ,53, ,
-2, ,53, ,
-1, ,53, ,
-5, ,51, ,
-7, ,53, ,
-1, ,52, ,
-6, ,52, ,
-4, ,52, ,
-2, ,53, ,
-1, ,52, ,
1, ,53, ,
1, ,52, ,
-1, ,52, ,
3, ,53, ,
1, ,52, ,
0, ,51, ,
-4, ,53, ,
-2, ,53, ,
-2, ,52, ,
-5, ,52, ,
-4, ,53, ,
-4, ,52, ,
-4, ,53, ,
-2, ,52, ,
-7, ,52, ,
-4, ,53, ,
-2, ,53, ,
-4, ,51, ,
-5, ,53, ,
-1, ,53, ,
-2, ,52, ,
3, ,52, ,
0, ,53, ,
1, ,52, ,
-1, ,54, ,
-1, ,52, ,
-5, ,52, ,
1, ,53, ,
0, ,53, ,
-1, ,51, ,
-1, ,53, ,
1, ,52, ,
1, ,52, ,
-1, ,53, ,
-4, ,53, ,
-1, ,51, ,
-1, ,53, ,
1, ,52, ,
0, ,53, ,
3, ,53, ,
4, ,53, ,
4, ,51, ,
-2, ,53, ,
4, ,52, ,
-1, ,53, ,
-1, ,52, ,
-1, ,53, ,
0, ,51, ,
4, ,53, ,
4, ,52, ,
-2, ,52, ,
3, ,53, ,
1, ,53, ,
1, ,51, ,
-2, ,53, ,
3, ,52, ,
1, ,53, ,
1, ,52, ,
3, ,53, ,
3, ,52, ,
5, ,54, ,
5, ,52, ,
1, ,53, ,
3, ,53, ,
4, ,53, ,
1, ,51, ,
0, ,53, ,
4, ,52, ,
-1, ,52, ,
0, ,53, ,
-1, ,52, ,
-1, ,52, ,
-1, ,53, ,
1, ,52, ,
-2, ,52, ,
1, ,53, ,
4, ,53, ,
5, ,51, ,
0, ,53, ,
4, ,52, ,
3, ,52, ,
0, ,53, ,
-4, ,53, ,
0, ,51, ,
3, ,54, ,
4, ,52, ,
-1, ,53, ,
4, ,53, ,
3, ,53, ,
3, ,51, ,
1, ,53, ,
3, ,53, ,
-1, ,52, ,
1, ,52, ,
1, ,53, ,
3, ,52, ,
1, ,53, ,
4, ,52, ,
0, ,52, ,
4, ,53, ,
5, ,52, ,
4, ,51, ,
1, ,53, ,
4, ,53, ,
4, ,52, ,
5, ,53, ,
4, ,52, ,
5, ,52, ,
6, ,53, ,
5, ,52, ,
-1, ,52, ,
5, ,53, ,
4, ,53, ,
3, ,51, ,
4, ,53, ,
5, ,52, ,
3, ,52, ,
4, ,53, ,
1, ,53, ,
3, ,52, ,
5, ,53, ,
6, ,52, ,
5, ,53, ,
9, ,53, ,
6, ,53, ,
8, ,51, ,
1, ,53, ,
5, ,52, ,
3, ,52, ,
0, ,52, ,
-2, ,53, ,
3, ,51, ,
4, ,53, ,
6, ,52, ,
-1, ,53, ,
4, ,53, ,
4, ,53, ,
3, ,51, ,
3, ,53, ,
8, ,53, ,
6, ,53, ,
4, ,52, ,
5, ,53, ,
5, ,52, ,
5, ,53, ,
4, ,52, ,
4, ,52, ,
4, ,53, ,
1, ,53, ,
4, ,51, ,
5, ,53, ,
5, ,53, ,
5, ,53, ,
3, ,53, ,
-4, ,53, ,
0, ,52, ,
0, ,53, ,
1, ,52, ,
-1, ,53, ,
5, ,53, ,
5, ,53, ,
8, ,51, ,
4, ,53, ,
1, ,53, ,
4, ,53, ,
5, ,53, ,
3, ,53, ,
3, ,52, ,
1, ,53, ,
5, ,52, ,
-2, ,52, ,
1, ,53, ,
3, ,53, ,
0, ,51, ,
-2, ,53, ,
6, ,53, ,
6, ,52, ,
8, ,53, ,
5, ,53, ,
3, ,51, ,
1, ,53, ,
4, ,52, ,
-4, ,52, ,
1, ,53, ,
0, ,53, ,
-1, ,51, ,
-7, ,53, ,
3, ,52, ,
1, ,52, ,
6, ,52, ,
4, ,53, ,
3, ,51, ,
1, ,53, ,
1, ,52, ,
-2, ,52, ,
4, ,53, ,
5, ,53, ,
6, ,51, ,
4, ,53, ,
8, ,52, ,
4, ,52, ,
1, ,53, ,
-1, ,53, ,
-2, ,51, ,
-5, ,53, ,
-2, ,52, ,
-6, ,52, ,
1, ,53, ,
1, ,53, ,
-1, ,51, ,
-4, ,53, ,
4, ,53, ,
4, ,52, ,
4, ,52, ,
1, ,53, ,
4, ,52, ,
-1, ,53, ,
3, ,52, ,
-4, ,52, ,
-2, ,53, ,
-2, ,53, ,
-5, ,51, ,
-7, ,53, ,
3, ,53, ,
-1, ,52, ,
1, ,53, ,
-1, ,53, ,
-1, ,52, ,
-4, ,53, ,
-2, ,52, ,
-9, ,52, ,
-4, ,53, ,
-4, ,53, ,
-4, ,51, ,
-7, ,53, ,
0, ,53, ,
-1, ,52, ,
0, ,53, ,
-2, ,53, ,
-2, ,51, ,
0, ,54, ,
-2, ,52, ,
-6, ,52, ,
-1, ,53, ,
-1, ,53, ,
0, ,51, ,
-4, ,53, ,
3, ,53, ,
-1, ,52, ,
-1, ,52, ,
1, ,53, ,
-1, ,51, ,
-6, ,53, ,
4, ,52, ,
-7, ,52, ,
1, ,53, ,
-1, ,53, ,
-4, ,51, ,
-6, ,53, ,
-2, ,53, ,
-1, ,53, ,
1, ,53, ,
1, ,53, ,
4, ,52, ,
1, ,53, ,
1, ,52, ,
-5, ,53, ,
-1, ,53, ,
-1, ,53, ,
-4, ,51, ,
-1, ,53, ,
0, ,53, ,
0, ,52, ,
0, ,52, ,
-2, ,53, ,
0, ,51, ,
3, ,54, ,
1, ,52, ,
-2, ,53, ,
1, ,53, ,
3, ,52, ,
0, ,51, ,
-1, ,53, ,
6, ,52, ,
-2, ,52, ,
1, ,53, ,
-4, ,53, ,
-2, ,52, ,
0, ,53, ,
-1, ,52, ,
-5, ,53, ,
-2, ,53, ,
-1, ,53, ,
-1, ,51, ,
-4, ,53, ,
-1, ,53, ,
-2, ,52, ,
0, ,53, ,
0, ,53, ,
-1, ,51, ,
0, ,53, ,
4, ,53, ,
-2, ,53, ,
1, ,53, ,
1, ,53, ,
1, ,51, ,
-4, ,53, ,
-1, ,53, ,
-5, ,52, ,
-2, ,53, ,
-1, ,53, ,
1, ,52, ,
3, ,53, ,
1, ,52, ,
0, ,53, ,
3, ,53, ,
0, ,52, ,
0, ,51, ,
-2, ,53, ,
1, ,53, ,
3, ,53, ,
1, ,53, ,
0, ,52, ,
3, ,52, ,
0, ,54, ,
1, ,52, ,
-1, ,53, ,
3, ,53, ,
5, ,53, ,
4, ,51, ,
1, ,53, ,
5, ,53, ,
0, ,53, ,
0, ,53, ,
-2, ,53, ,
-1, ,52, ,
1, ,53, ,
6, ,52, ,
3, ,52, ,
6, ,53, ,
8, ,53, ,
1, ,51, ,
0, ,53, ,
5, ,53, ,
0, ,53, ,
1, ,53, ,
4, ,52, ,
6, ,51, ,
5, ,53, ,
9, ,52, ,
5, ,53, ,
5, ,53, ,
6, ,53, ,
4, ,51, ,
1, ,53, ,
6, ,52, ,
4, ,52, ,
4, ,53, ,
6, ,53, ,
6, ,52, ,
5, ,53, ,
6, ,52, ,
-1, ,52, ,
5, ,53, ,
5, ,52, ,
4, ,51, ,
1, ,53, ,
5, ,52, ,
1, ,52, ,
-2, ,52, ,
-2, ,53, ,
0, ,52, ,
1, ,53, ,
4, ,52, ,
1, ,52, ,
4, ,53, ,
5, ,53, ,
4, ,51, ,
0, ,53, ,
6, ,52, ,
4, ,53, ,
4, ,53, ,
4, ,53, ,
5, ,52, ,
5, ,53, ,
5, ,52, ,
1, ,53, ,
5, ,53, ,
5, ,53, ,
4, ,51, ,
1, ,53, ,
3, ,53, ,
0, ,53, ,
1, ,53, ,
-2, ,53, ,
3, ,52, ,
4, ,53, ,
5, ,52, ,
0, ,53, ,
4, ,53, ,
6, ,53, ,
5, ,51, ,
3, ,53, ,
9, ,53, ,
5, ,52, ,
5, ,53, ,
5, ,52, ,
4, ,52, ,
4, ,53, ,
4, ,52, ,
1, ,52, ,
5, ,53, ,
5, ,53, ,
5, ,51, ,
1, ,54, ,
8, ,53, ,
6, ,52, ,
3, ,53, ,
4, ,53, ,
4, ,52, ,
9, ,53, ,
8, ,52, ,
4, ,53, ,
8, ,53, ,
5, ,53, ,
5, ,51, ,
-1, ,53, ,
4, ,53, ,
-1, ,52, ,
1, ,53, ,
4, ,53, ,
4, ,52, ,
4, ,53, ,
9, ,52, ,
3, ,52, ,
6, ,53, ,
4, ,53, ,
1, ,51, ,
3, ,53, ,
8, ,52, ,
6, ,52, ,
4, ,52, ,
1, ,53, ,
1, ,52, ,
0, ,53, ,
3, ,52, ,
-2, ,53, ,
3, ,53, ,
6, ,53, ,
1, ,51, ,
1, ,53, ,
5, ,53, ,
3, ,53, ,
3, ,53, ,
4, ,52, ,
1, ,52, ,
1, ,53, ,
3, ,52, ,
0, ,52, ,
4, ,53, ,
3, ,53, ,
5, ,51, ,
-1, ,53, ,
6, ,53, ,
3, ,52, ,
4, ,53, ,
0, ,53, ,
1, ,51, ,
0, ,53, ,
0, ,52, ,
-2, ,52, ,
-1, ,53, ,
-1, ,53, ,
-1, ,51, ,
-2, ,54, ,
3, ,53, ,
4, ,52, ,
0, ,52, ,
1, ,53, ,
3, ,48, ,
-2, ,40, ,
-2, ,29, ,
-9, ,20, ,
-6, ,12, ,
-4, ,4, ,
-2, ,-2, ,
-4, ,-7, ,
3, ,-11, ,
-1, ,-16, ,
-4, ,-20, ,
-6, ,-22, ,
-1, ,-25, ,
-4, ,-27, ,
0, ,-29, ,
-9, ,-30, ,
-1, ,-32, ,
-2, ,-33, ,
-4, ,-33, ,
-4, ,-36, ,
3, ,-37, ,
3, ,-37, ,
1, ,-37, ,
-1, ,-38, ,
-1, ,-39, ,
0, ,-39, ,
1, ,-39, ,
-5, ,-39, ,
0, ,-39, ,
0, ,-40, ,
-4, ,-40, ,
-5, ,-40, ,
-4, ,-40, ,
-4, ,-40, ,
-1, ,-40, ,
-1, ,-40, ,
1, ,-40, ,
0, ,-41, ,
0, ,-41, ,
-4, ,-40, ,
0, ,-41, ,
1, ,-41, ,
-2, ,-40, ,
-5, ,-41, ,
-1, ,-41, ,
-1, ,-41, ,
0, ,-41, ,
-4, ,-41, ,
-1, ,-41, ,
-4, ,-41, ,
-5, ,-41, ,
-10, ,-41, ,
-5, ,-40, ,
-6, ,-41, ,
-4, ,-41, ,
-6, ,-41, ,
3, ,-41, ,
1, ,-40, ,
0, ,-41, ,
-1, ,-41, ,
1, ,-40, ,
0, ,-41, ,
1, ,-41, ,
-5, ,-40, ,
0, ,-41, ,
0, ,-41, ,
-1, ,-40, ,
-5, ,-40, ,
0, ,-41, ,
-1, ,-40, ,
-1, ,-41, ,
-2, ,-40, ,
0, ,-40, ,
1, ,-41, ,
3, ,-40, ,
0, ,-40, ,
3, ,-40, ,
3, ,-40, ,
0, ,-40, ,
-4, ,-40, ,
-2, ,-41, ,
-1, ,-40, ,
0, ,-40, ,
-2, ,-40, ,
3, ,-40, ,
3, ,-41, ,
5, ,-41, ,
-1, ,-40, ,
1, ,-40, ,
0, ,-40, ,
-2, ,-40, ,
-2, ,-40, ,
3, ,-40, ,
3, ,-40, ,
3, ,-40, ,
-1, ,-40, ,
0, ,-40, ,
0, ,-41, ,
1, ,-40, ,
-2, ,-40, ,
1, ,-40, ,
4, ,-40, ,
3, ,-40, ,
-4, ,-40, ,
1, ,-40, ,
-4, ,-40, ,
-4, ,-40, ,
-5, ,-40, ,
-1, ,-40, ,
-1, ,-41, ,
3, ,-40, ,
0, ,-40, ,
1, ,-40, ,
4, ,-41, ,
1, ,-40, ,
-1, ,-40, ,
1, ,-40, ,
0, ,-40, ,
0, ,-40, ,
0, ,-40, ,
1, ,-40, ,
5, ,-41, ,
5, ,-40, ,
-1, ,-40, ,
4, ,-40, ,
0, ,-40, ,
0, ,-40, ,
-5, ,-40, ,
0, ,-40, ,
0, ,-40, ,
-2, ,-40, ,
0, ,-40, ,
1, ,-40, ,
0, ,-40, ,
3, ,-40, ,
-4, ,-40, ,
-1, ,-40, ,
0, ,-40, ,
1, ,-40, ,
0, ,-40, ,
3, ,-40, ,
4, ,-40, ,
4, ,-40, ,
-1, ,-40, ,
1, ,-40, ,
4, ,-41, ,
3, ,-40, ,
0, ,-40, ,
3, ,-40, ,
4, ,-40, ,
1, ,-40, ,
-1, ,-41, ,
0, ,-40, ,
1, ,-40, ,
-1, ,-40, ,
-2, ,-40, ,
1, ,-40, ,
4, ,-40, ,
9, ,-40, ,
5, ,-40, ,
8, ,-40, ,
10, ,-40, ,
5, ,-40, ,
1, ,-40, ,
4, ,-40, ,
4, ,-40, ,
4, ,-40, ,
5, ,-40, ,
4, ,-40, ,
5, ,-41, ,
3, ,-40, ,
1, ,-40, ,
1, ,-40, ,
4, ,-40, ,
4, ,-40, ,
5, ,-40, ,
9, ,-40, ,
5, ,-40, ,
4, ,-40, ,
3, ,-40, ,
4, ,-40, ,
3, ,-40, ,
6, ,-40, ,
1, ,-40, ,
5, ,-40, ,
8, ,-40, ,
5, ,-40, ,
1, ,-40, ,
4, ,-40, ,
1, ,-40, ,
0, ,-40, ,
0, ,-40, ,
1, ,-40, ,
4, ,-40, ,
5, ,-40, ,
1, ,-40, ,
9, ,-40, ,
6, ,-40, ,
4, ,-40, ,
0, ,-41, ,
5, ,-40, ,
3, ,-40, ,
4, ,-40, ,
1, ,-40, ,
5, ,-40, ,
3, ,-41, ,
4, ,-40, ,
-2, ,-40, ,
-1, ,-40, ,
4, ,-41, ,
3, ,-40, ,
0, ,-40, ,
3, ,-40, ,
0, ,-40, ,
1, ,-40, ,
-1, ,-40, ,
0, ,-40, ,
1, ,-41, ,
3, ,-40, ,
1, ,-40, ,
3, ,-40, ,
1, ,-40, ,
1, ,-40, ,
1, ,-40, ,
9, ,-40, ,
6, ,-40, ,
-4, ,-40, ,
0, ,-40, ,
13, ,-40, ,
1, ,-40, ,
3, ,-40, ,
4, ,-40, ,
4, ,-40, ,
5, ,-40, ,
6, ,-40, ,
3, ,-40, ,
5, ,-40, ,
4, ,-40, ,
3, ,-40, ,
0, ,-40, ,
1, ,-40, ,
6, ,-40, ,
5, ,-40, ,
4, ,-40, ,
5, ,-40, ,
5, ,-40, ,
4, ,-40, ,
-2, ,-40, ,
4, ,-40, ,
5, ,-40, ,
4, ,-40, ,
4, ,-40, ,
3, ,-40, ,
4, ,-40, ,
3, ,-40, ,
-5, ,-40, ,
-4, ,-40, ,
4, ,-40, ,
3, ,-40, ,
-2, ,-40, ,
6, ,-40, ,
4, ,-40, ,
5, ,-40, ,
0, ,-40, ,
0, ,-40, ,
3, ,-40, ,
1, ,-40, ,
-1, ,-40, ,
1, ,-40, ,
1, ,-40, ,
1, ,-40, ,
-2, ,-40, ,
3, ,-40, ,
4, ,-40, ,
-1, ,-40, ,
-1, ,-40, ,
4, ,-40, ,
0, ,-40, ,
3, ,-40, ,
0, ,-40, ,
3, ,-40, ,
6, ,-40, ,
0, ,-40, ,
-1, ,-40, ,
3, ,-40, ,
0, ,-40, ,
0, ,-40, ,
-1, ,-40, ,
-1, ,-40, ,
0, ,-41, ,
-2, ,-40, ,
-5, ,-40, ,
-2, ,-40, ,
-2, ,-40, ,
-1, ,-40, ,
-1, ,-40, ,
4, ,-40, ,
4, ,-40, ,
1, ,-40, ,
1, ,-40, ,
4, ,-40, ,
1, ,-40, ,
3, ,-40, ,
-4, ,-40, ,
-1, ,-40, ,
1, ,-40, ,
-1, ,-40, ,
-5, ,-40, ,
3, ,-40, ,
4, ,-40, ,
4, ,-40, ,
-1, ,-40, ,
0, ,-40, ,
1, ,-40, ,
3, ,-40, ,
-4, ,-40, ,
0, ,-40, ,
1, ,-40, ,
0, ,-40, ,
0, ,-40, ,
3, ,-40, ,
3, ,-40, ,
1, ,-40, ,
-2, ,-40, ,
5, ,-40, ,
0, ,-40, ,
3, ,-40, ,
-2, ,-40, ,
0, ,-40, ,
3, ,-40, ,
-1, ,-40, ,
-2, ,-40, ,
3, ,-40, ,
1, ,-40, ,
3, ,-40, ,
1, ,-40, ,
5, ,-40, ,
6, ,-40, ,
6, ,-40, ,
-4, ,-40, ,
-1, ,-40, ,
-1, ,-40, ,
-2, ,-40, ,
-5, ,-40, ,
1, ,-40, ,
1, ,-40, ,
0, ,-40, ,
-2, ,-40, ,
1, ,-40, ,
1, ,-40, ,
1, ,-40, ,
-5, ,-40, ,
0, ,-40, ,
3, ,-40, ,
0, ,-40, ,
-2, ,-40, ,
5, ,-40, ,
1, ,-40, ,
0, ,-40, ,
-2, ,-40, ,
-1, ,-40, ,
0, ,-40, ,
0, ,-40, ,
-2, ,-40, ,
3, ,-40, ,
4, ,-40, ,
3, ,-40, ,
-4, ,-40, ,
1, ,-40, ,
-1, ,-40, ,
-2, ,-40, ,
-1, ,-40, ,
3, ,-40, ,
4, ,-40, ,
5, ,-40, ,
1, ,-40, ,
3, ,-40, ,
5, ,-40, ,
3, ,-40, ,
-1, ,-40, ,
6, ,-40, ,
5, ,-40, ,
5, ,-40, ,
6, ,-40, ,
8, ,-40, ,
5, ,-41, ,
4, ,-40, ,
0, ,-40, ,
0, ,-40, ,
4, ,-40, ,
1, ,-40, ,
-1, ,-40, ,
3, ,-40, ,
3, ,-40, ,
1, ,-40, ,
0, ,-40, ,
1, ,-40, ,
3, ,-40, ,
5, ,-40, ,
4, ,-40, ,
5, ,-40, ,
9, ,-40, ,
5, ,-40, ,
0, ,-40, ,
5, ,-40, ,
1, ,-40, ,
0, ,-40, ,
1, ,-40, ,
3, ,-40, ,
5, ,-40, ,
5, ,-40, ,
5, ,-40, ,
4, ,-40, ,
5, ,-40, ,
4, ,-40, ,
0, ,-40, ,
4, ,-40, ,
3, ,-40, ,
5, ,-40, ,
3, ,-40, ,
3, ,-40, ,
4, ,-40, ,
4, ,-40, ,
-1, ,-40, ,
3, ,-40, ,
3, ,-40, ,
3, ,-40, ,
-2, ,-40, ,
4, ,-40, ,
-2, ,-40, ,
-1, ,-40, ,
-2, ,-40, ,
0, ,-40, ,
1, ,-40, ,
1, ,-40, ,
-2, ,-40, ,
4, ,-40, ,
5, ,-40, ,
4, ,-40, ,
3, ,-40, ,
6, ,-40, ,
3, ,-40, ,
1, ,-40, ,
0, ,-40, ,
0, ,-40, ,
0, ,-40, ,
3, ,-40, ,
1, ,-40, ,
1, ,-40, ,
5, ,-40, ,
0, ,-40, ,
-2, ,-40, ,
1, ,-40, ,
1, ,-40, ,
5, ,-40, ,
-4, ,-40, ,
3, ,-40, ,
4, ,-40, ,
5, ,-40, ,
4, ,-40, ,
6, ,-40, ,
6, ,-40, ,
3, ,-40, ,
-2, ,-40, ,
4, ,-40, ,
0, ,-40, ,
0, ,-40, ,
1, ,-40, ,
3, ,-40, ,
4, ,-40, ,
5, ,-40, ,
4, ,-40, ,
6, ,-40, ,
8, ,-40, ,
5, ,-40, ,
3, ,-40, ,
6, ,-40, ,
4, ,-40, ,
3, ,-40, ,
3, ,-40, ,
-1, ,-40, ,
0, ,-41, ,
3, ,-40, ,
1, ,-40, ,
5, ,-40, ,
5, ,-40, ,
5, ,-40, ,
-1, ,-40, ,
4, ,-40, ,
4, ,-40, ,
1, ,-40, ,
-2, ,-40, ,
3, ,-40, ,
3, ,-41, ,
3, ,-40, ,
-1, ,-40, ,
3, ,-40, ,
3, ,-40, ,
1, ,-40, ,
-2, ,-40, ,
1, ,-40, ,
-1, ,-40, ,
-1, ,-40, ,
-1, ,-40, ,
1, ,-40, ,
0, ,-40, ,
1, ,-40, ,
-5, ,-40, ,
-1, ,-40, ,
-1, ,-40, ,
-1, ,-40, ,
-4, ,-40, ,
1, ,-40, ,
1, ,-40, ,
1, ,-40, ,
-1, ,-40, ,
0, ,-40, ,
-5, ,-41, ,
1, ,-40, ,
1, ,-40, ,
0, ,-40, ,
6, ,-40, ,
4, ,-40, ,
0, ,-40, ,
1, ,-40, ,
-2, ,-40, ,
-1, ,-40, ,
-1, ,-40, ,
-1, ,-40, ,
0, ,-40, ,
-2, ,-40, ,
-5, ,-40, ,
0, ,-40, ,
-1, ,-40, ,
0, ,-40, ,
-4, ,-40, ,
4, ,-40, ,
1, ,-40, ,
3, ,-40, ,
0, ,-40, ,
-1, ,-40, ,
3, ,-40, ,
1, ,-40, ,
-2, ,-40, ,
3, ,-40, ,
1, ,-40, ,
0, ,-40, ,
-4, ,-40, ,
1, ,-40, ,
-1, ,-40, ,
0, ,-40, ,
-1, ,-40, ,
-1, ,-40, ,
1, ,-40, ,
0, ,-40, ,
-5, ,-40, ,
0, ,-40, ,
3, ,-40, ,
0, ,-40, ,
0, ,-40, ,
5, ,-40, ,
4, ,-40, ,
3, ,-40, ,
-1, ,-40, ,
0, ,-40, ,
-4, ,-40, ,
-4, ,-40, ,
-10, ,-40, ,
-2, ,-40, ,
0, ,-40, ,
-1, ,-40, ,
-1, ,-40, ,
5, ,-40, ,
1, ,-40, ,
1, ,-40, ,
0, ,-40, ,
1, ,-40, ,
3, ,-41, ,
1, ,-40, ,
-2, ,-40, ,
-1, ,-40, ,
0, ,-40, ,
-4, ,-40, ,
-7, ,-40, ,
-1, ,-40, ,
-4, ,-40, ,
-1, ,-40, ,
-1, ,-40, ,
3, ,-40, ,
1, ,-40, ,
1, ,-40, ,
-5, ,-39, ,
-1, ,-40, ,
-1, ,-40, ,
-1, ,-40, ,
-4, ,-40, ,
3, ,-40, ,
3, ,-40, ,
3, ,-40, ,
0, ,-40, ,
-1, ,-40, ,
-1, ,-41, ,
-2, ,-40, ,
-7, ,-40, ,
-1, ,-40, ,
1, ,-40, ,
0, ,-40, ,
-4, ,-40, ,
1, ,-40, ,
0, ,-40, ,
0, ,-40, ,
-6, ,-40, ,
0, ,-40, ,
0, ,-40, ,
1, ,-40, ,
-2, ,-40, ,
0, ,-40, ,
3, ,-40, ,
0, ,-40, ,
-2, ,-40, ,
1, ,-40, ,
5, ,-40, ,
3, ,-40, ,
3, ,-40, ,
4, ,-40, ,
4, ,-41, ,
5, ,-40, ,
-2, ,-40, ,
1, ,-40, ,
3, ,-40, ,
1, ,-40, ,
0, ,-40, ,
4, ,-40, ,
3, ,-40, ,
4, ,-40, ,
3, ,-40, ,
3, ,-40, ,
4, ,-40, ,
4, ,-40, ,
-2, ,-40, ,
1, ,-40, ,
4, ,-40, ,
-1, ,-40, ,
-2, ,-40, ,
5, ,-40, ,
3, ,-40, ,
1, ,-40, ,
1, ,-40, ,
3, ,-40, ,
3, ,-40, ,
0, ,-40, ,
-2, ,-40, ,
1, ,-40, ,
4, ,-40, ,
