src/vary_am2_1411/temp0000678.CSV

Format,1.0B,
Memory Length,10000,Memory Length,10000,
IntpDistance,0,IntpDistance,0,
Trigger Address,4999,Trigger Address,4999,
Trigger Level,-1.000E+00,Trigger Level,-1.000E+00,
Source,CH1,Source,CH2,
Vertical Units,V,Vertical Units,V,
Vertical Units Div,0,Vertical Units Div,0,
Vertical Units Extend Div,16,Vertical Units Extend Div,16,
Label,,Label,,
Probe Type,0,Probe Type,0,
Probe Ratio,1.000e+01,Probe Ratio,1.000e+00,
Vertical Scale,2.000e-02,Vertical Scale,1.000e+00,
Vertical Position,-5.120e-02,Vertical Position,2.000e-01,
Horizontal Units,S,Horizontal Units,S,
Horizontal Scale,1.000E-05,Horizontal Scale,1.000E-05,
Horizontal Position,0.000E+00,Horizontal Position,0.000E+00,
Horizontal Mode,Main,Horizontal Mode,Main,
SincET Mode,Real Time,SincET Mode,Real Time,
Sampling Period,1.000e-08,Sampling Period,1.000e-08,
Horizontal Old Scale,1.000E-05,Horizontal Old Scale,1.000E-05,
Horizontal Old Position,0.000E+00,Horizontal Old Position,0.000E+00,
Firmware,V1.23,Firmware,V1.23,
Mode,Fast,Mode,Fast,
Waveform Data,,Waveform Data,,
-1, ,-51, ,
-6, ,-52, ,
1, ,-52, ,
4, ,-52, ,
-1, ,-52, ,
-1, ,-52, ,
4, ,-51, ,
0, ,-52, ,
-1, ,-52, ,
-2, ,-51, ,
-1, ,-52, ,
0, ,-52, ,
4, ,-51, ,
0, ,-52, ,
1, ,-52, ,
5, ,-52, ,
-1, ,-52, ,
-1, ,-52, ,
0, ,-52, ,
-1, ,-52, ,
-1, ,-52, ,
-5, ,-51, ,
0, ,-52, ,
1, ,-52, ,
5, ,-51, ,
1, ,-52, ,
4, ,-52, ,
8, ,-52, ,
1, ,-52, ,
0, ,-52, ,
6, ,-51, ,
1, ,-52, ,
1, ,-52, ,
1, ,-51, ,
1, ,-52, ,
3, ,-52, ,
3, ,-51, ,
-4, ,-52, ,
0, ,-52, ,
1, ,-52, ,
1, ,-52, ,
-1, ,-52, ,
4, ,-52, ,
3, ,-52, ,
0, ,-52, ,
1, ,-52, ,
0, ,-52, ,
0, ,-52, ,
4, ,-51, ,
-2, ,-52, ,
3, ,-52, ,
5, ,-52, ,
4, ,-52, ,
-4, ,-52, ,
3, ,-52, ,
-1, ,-52, ,
-1, ,-52, ,
-1, ,-52, ,
-1, ,-52, ,
-1, ,-52, ,
1, ,-51, ,
-4, ,-52, ,
3, ,-52, ,
4, ,-52, ,
1, ,-52, ,
-2, ,-52, ,
3, ,-52, ,
1, ,-54, ,
-1, ,-51, ,
-5, ,-51, ,
1, ,-52, ,
-2, ,-52, ,
4, ,-51, ,
-1, ,-52, ,
4, ,-52, ,
5, ,-51, ,
0, ,-52, ,
-2, ,-52, ,
5, ,-52, ,
-1, ,-54, ,
1, ,-52, ,
3, ,-51, ,
3, ,-52, ,
6, ,-52, ,
4, ,-51, ,
1, ,-52, ,
4, ,-52, ,
8, ,-52, ,
4, ,-52, ,
4, ,-52, ,
9, ,-51, ,
6, ,-52, ,
4, ,-52, ,
-1, ,-52, ,
-1, ,-52, ,
-1, ,-52, ,
-1, ,-51, ,
-5, ,-52, ,
4, ,-52, ,
8, ,-52, ,
4, ,-52, ,
3, ,-52, ,
6, ,-52, ,
4, ,-54, ,
0, ,-52, ,
3, ,-51, ,
4, ,-52, ,
4, ,-52, ,
4, ,-51, ,
1, ,-52, ,
3, ,-52, ,
8, ,-52, ,
4, ,-52, ,
0, ,-52, ,
8, ,-51, ,
6, ,-52, ,
1, ,-51, ,
4, ,-52, ,
5, ,-52, ,
5, ,-52, ,
5, ,-51, ,
-1, ,-52, ,
3, ,-52, ,
4, ,-52, ,
0, ,-52, ,
0, ,-52, ,
8, ,-51, ,
4, ,-54, ,
4, ,-52, ,
1, ,-51, ,
1, ,-52, ,
3, ,-52, ,
1, ,-51, ,
-1, ,-52, ,
1, ,-52, ,
6, ,-52, ,
3, ,-52, ,
-2, ,-52, ,
6, ,-51, ,
0, ,-54, ,
0, ,-52, ,
-1, ,-51, ,
0, ,-52, ,
0, ,-52, ,
4, ,-51, ,
-1, ,-52, ,
0, ,-52, ,
3, ,-52, ,
1, ,-52, ,
-4, ,-52, ,
6, ,-51, ,
4, ,-54, ,
5, ,-52, ,
1, ,-51, ,
3, ,-52, ,
4, ,-52, ,
3, ,-51, ,
-6, ,-52, ,
1, ,-52, ,
-1, ,-52, ,
-1, ,-52, ,
-4, ,-52, ,
5, ,-52, ,
3, ,-54, ,
1, ,-52, ,
1, ,-52, ,
4, ,-52, ,
6, ,-52, ,
4, ,-51, ,
-2, ,-52, ,
1, ,-52, ,
1, ,-52, ,
-2, ,-52, ,
0, ,-52, ,
4, ,-52, ,
3, ,-54, ,
3, ,-52, ,
4, ,-51, ,
1, ,-52, ,
0, ,-52, ,
0, ,-51, ,
-4, ,-52, ,
4, ,-52, ,
5, ,-52, ,
5, ,-52, ,
3, ,-52, ,
6, ,-52, ,
4, ,-52, ,
3, ,-52, ,
1, ,-52, ,
5, ,-52, ,
4, ,-52, ,
8, ,-51, ,
1, ,-52, ,
1, ,-52, ,
3, ,-52, ,
-2, ,-52, ,
-6, ,-52, ,
0, ,-51, ,
0, ,-54, ,
0, ,-52, ,
-1, ,-51, ,
3, ,-52, ,
3, ,-52, ,
0, ,-51, ,
-5, ,-52, ,
-1, ,-52, ,
-1, ,-52, ,
-1, ,-52, ,
-4, ,-52, ,
3, ,-52, ,
1, ,-52, ,
0, ,-51, ,
1, ,-52, ,
0, ,-52, ,
-4, ,-52, ,
-1, ,-51, ,
-5, ,-52, ,
-1, ,-52, ,
0, ,-51, ,
-1, ,-52, ,
-1, ,-52, ,
4, ,-52, ,
-2, ,-54, ,
-2, ,-52, ,
-2, ,-51, ,
-1, ,-52, ,
0, ,-52, ,
1, ,-51, ,
-4, ,-52, ,
-1, ,-52, ,
-2, ,-52, ,
-2, ,-52, ,
-6, ,-52, ,
-2, ,-51, ,
-1, ,-54, ,
-1, ,-52, ,
-1, ,-52, ,
3, ,-52, ,
-1, ,-52, ,
4, ,-51, ,
-4, ,-52, ,
1, ,-52, ,
3, ,-52, ,
-4, ,-52, ,
-5, ,-52, ,
0, ,-52, ,
-1, ,-54, ,
-2, ,-52, ,
-1, ,-51, ,
1, ,-52, ,
3, ,-52, ,
3, ,-51, ,
-5, ,-52, ,
0, ,-52, ,
-1, ,-52, ,
-4, ,-52, ,
-2, ,-52, ,
1, ,-51, ,
-1, ,-52, ,
-2, ,-52, ,
-1, ,-51, ,
-1, ,-52, ,
-1, ,-52, ,
1, ,-51, ,
-4, ,-52, ,
-2, ,-52, ,
8, ,-52, ,
0, ,-52, ,
-1, ,-52, ,
5, ,-52, ,
1, ,-54, ,
-6, ,-52, ,
-2, ,-52, ,
-1, ,-52, ,
3, ,-52, ,
8, ,-51, ,
-1, ,-52, ,
-2, ,-52, ,
-2, ,-51, ,
-2, ,-52, ,
-5, ,-52, ,
-4, ,-52, ,
-1, ,-52, ,
1, ,-52, ,
-4, ,-52, ,
0, ,-52, ,
-1, ,-52, ,
0, ,-52, ,
-5, ,-52, ,
0, ,-52, ,
4, ,-52, ,
0, ,-52, ,
-1, ,-52, ,
6, ,-52, ,
3, ,-54, ,
1, ,-52, ,
3, ,-51, ,
-1, ,-52, ,
-4, ,-54, ,
-1, ,-51, ,
-10, ,-52, ,
0, ,-52, ,
5, ,-52, ,
-2, ,-52, ,
-5, ,-52, ,
3, ,-51, ,
0, ,-52, ,
0, ,-50, ,
-1, ,-45, ,
4, ,-36, ,
5, ,-25, ,
8, ,-17, ,
4, ,-8, ,
4, ,-1, ,
5, ,4, ,
3, ,10, ,
3, ,14, ,
8, ,17, ,
4, ,20, ,
4, ,23, ,
0, ,26, ,
-1, ,29, ,
3, ,30, ,
4, ,31, ,
4, ,33, ,
8, ,34, ,
8, ,35, ,
3, ,36, ,
0, ,37, ,
6, ,36, ,
5, ,38, ,
6, ,37, ,
5, ,38, ,
5, ,39, ,
4, ,39, ,
8, ,38, ,
-1, ,40, ,
3, ,40, ,
4, ,40, ,
3, ,40, ,
1, ,40, ,
5, ,40, ,
4, ,40, ,
8, ,40, ,
1, ,40, ,
1, ,41, ,
-1, ,40, ,
5, ,39, ,
-1, ,41, ,
4, ,40, ,
8, ,40, ,
6, ,41, ,
-1, ,40, ,
5, ,40, ,
3, ,41, ,
1, ,40, ,
3, ,41, ,
3, ,41, ,
3, ,41, ,
5, ,40, ,
-1, ,41, ,
4, ,41, ,
1, ,40, ,
-1, ,41, ,
-1, ,41, ,
4, ,39, ,
1, ,41, ,
3, ,40, ,
-2, ,40, ,
0, ,41, ,
0, ,40, ,
6, ,39, ,
-1, ,41, ,
3, ,41, ,
5, ,40, ,
5, ,40, ,
4, ,40, ,
5, ,39, ,
4, ,41, ,
1, ,40, ,
-4, ,40, ,
1, ,40, ,
0, ,40, ,
-1, ,39, ,
-2, ,41, ,
3, ,40, ,
8, ,40, ,
6, ,40, ,
4, ,40, ,
9, ,39, ,
5, ,41, ,
4, ,40, ,
1, ,40, ,
1, ,40, ,
4, ,40, ,
1, ,39, ,
-1, ,40, ,
3, ,40, ,
4, ,40, ,
5, ,40, ,
1, ,40, ,
9, ,40, ,
4, ,41, ,
4, ,39, ,
4, ,40, ,
4, ,40, ,
5, ,40, ,
8, ,39, ,
1, ,40, ,
6, ,40, ,
6, ,40, ,
4, ,40, ,
-1, ,40, ,
4, ,39, ,
4, ,40, ,
3, ,40, ,
4, ,40, ,
5, ,40, ,
4, ,40, ,
5, ,39, ,
-4, ,40, ,
4, ,40, ,
4, ,40, ,
4, ,40, ,
5, ,40, ,
8, ,40, ,
8, ,41, ,
9, ,39, ,
8, ,40, ,
5, ,40, ,
5, ,40, ,
9, ,39, ,
1, ,40, ,
5, ,40, ,
9, ,40, ,
4, ,40, ,
0, ,40, ,
5, ,39, ,
0, ,40, ,
1, ,39, ,
-1, ,40, ,
1, ,40, ,
5, ,40, ,
8, ,39, ,
1, ,40, ,
5, ,40, ,
5, ,40, ,
0, ,40, ,
-2, ,40, ,
5, ,39, ,
1, ,41, ,
5, ,39, ,
1, ,40, ,
4, ,40, ,
3, ,40, ,
5, ,39, ,
-4, ,40, ,
0, ,40, ,
0, ,40, ,
-1, ,40, ,
-4, ,40, ,
3, ,39, ,
1, ,41, ,
4, ,40, ,
3, ,40, ,
1, ,40, ,
4, ,40, ,
-1, ,39, ,
-6, ,40, ,
1, ,40, ,
1, ,40, ,
-1, ,40, ,
0, ,40, ,
4, ,39, ,
1, ,41, ,
1, ,39, ,
1, ,40, ,
1, ,41, ,
-1, ,40, ,
5, ,39, ,
-5, ,40, ,
3, ,40, ,
3, ,40, ,
0, ,40, ,
-4, ,40, ,
1, ,39, ,
1, ,40, ,
3, ,40, ,
-1, ,40, ,
1, ,40, ,
5, ,40, ,
5, ,39, ,
-2, ,40, ,
1, ,40, ,
3, ,39, ,
-2, ,40, ,
-4, ,40, ,
1, ,40, ,
1, ,40, ,
1, ,39, ,
-1, ,40, ,
3, ,40, ,
1, ,40, ,
1, ,39, ,
-6, ,40, ,
-1, ,40, ,
1, ,40, ,
1, ,40, ,
-1, ,40, ,
5, ,39, ,
3, ,40, ,
3, ,39, ,
-1, ,40, ,
-1, ,40, ,
1, ,40, ,
-1, ,39, ,
-6, ,40, ,
-2, ,40, ,
-4, ,39, ,
-4, ,40, ,
-7, ,40, ,
0, ,39, ,
-1, ,40, ,
-4, ,39, ,
-2, ,40, ,
-1, ,40, ,
-2, ,40, ,
4, ,39, ,
-2, ,40, ,
1, ,40, ,
1, ,40, ,
-1, ,40, ,
-4, ,40, ,
-1, ,39, ,
-1, ,40, ,
0, ,39, ,
-1, ,40, ,
3, ,40, ,
1, ,40, ,
3, ,39, ,
-6, ,40, ,
-2, ,40, ,
0, ,40, ,
-5, ,40, ,
-6, ,40, ,
3, ,39, ,
1, ,40, ,
0, ,39, ,
-2, ,39, ,
1, ,40, ,
1, ,40, ,
3, ,39, ,
-6, ,40, ,
-2, ,40, ,
1, ,40, ,
-2, ,40, ,
-5, ,40, ,
-1, ,39, ,
-6, ,40, ,
-1, ,39, ,
-6, ,40, ,
-1, ,40, ,
1, ,40, ,
1, ,39, ,
-2, ,40, ,
4, ,40, ,
3, ,40, ,
1, ,40, ,
-2, ,39, ,
4, ,39, ,
-2, ,40, ,
0, ,39, ,
-4, ,40, ,
-1, ,40, ,
-1, ,40, ,
1, ,39, ,
-4, ,40, ,
1, ,40, ,
3, ,40, ,
0, ,40, ,
-4, ,40, ,
3, ,39, ,
1, ,40, ,
0, ,39, ,
1, ,40, ,
4, ,40, ,
3, ,40, ,
5, ,39, ,
-2, ,40, ,
3, ,40, ,
1, ,40, ,
1, ,40, ,
-1, ,40, ,
0, ,39, ,
0, ,40, ,
0, ,39, ,
-5, ,40, ,
-2, ,40, ,
-4, ,40, ,
1, ,39, ,
-5, ,40, ,
1, ,40, ,
3, ,39, ,
-2, ,40, ,
-4, ,39, ,
-1, ,39, ,
-2, ,40, ,
-2, ,39, ,
-6, ,40, ,
-1, ,40, ,
0, ,40, ,
3, ,39, ,
-1, ,40, ,
4, ,40, ,
5, ,39, ,
1, ,40, ,
-2, ,40, ,
3, ,39, ,
-2, ,40, ,
-2, ,40, ,
-4, ,40, ,
0, ,40, ,
1, ,40, ,
3, ,39, ,
-2, ,40, ,
1, ,40, ,
4, ,39, ,
0, ,40, ,
-4, ,40, ,
4, ,39, ,
1, ,40, ,
3, ,39, ,
-2, ,39, ,
-1, ,40, ,
-1, ,40, ,
4, ,39, ,
-2, ,40, ,
1, ,40, ,
5, ,40, ,
5, ,40, ,
0, ,40, ,
6, ,40, ,
5, ,40, ,
1, ,39, ,
-1, ,40, ,
1, ,40, ,
3, ,40, ,
5, ,39, ,
3, ,40, ,
11, ,40, ,
9, ,40, ,
3, ,40, ,
1, ,40, ,
3, ,39, ,
-1, ,40, ,
0, ,39, ,
-2, ,40, ,
0, ,40, ,
1, ,40, ,
4, ,39, ,
-4, ,40, ,
3, ,40, ,
1, ,39, ,
1, ,40, ,
-1, ,39, ,
6, ,39, ,
5, ,40, ,
6, ,39, ,
3, ,39, ,
4, ,40, ,
3, ,40, ,
5, ,39, ,
0, ,40, ,
3, ,40, ,
5, ,40, ,
3, ,40, ,
-2, ,40, ,
4, ,39, ,
0, ,40, ,
3, ,39, ,
1, ,40, ,
1, ,40, ,
3, ,40, ,
3, ,39, ,
1, ,40, ,
4, ,39, ,
6, ,40, ,
4, ,40, ,
3, ,39, ,
8, ,39, ,
5, ,40, ,
4, ,39, ,
0, ,40, ,
0, ,40, ,
0, ,40, ,
3, ,39, ,
-2, ,40, ,
3, ,40, ,
3, ,40, ,
0, ,40, ,
-2, ,40, ,
3, ,39, ,
-1, ,40, ,
1, ,39, ,
0, ,40, ,
3, ,40, ,
8, ,40, ,
8, ,39, ,
-4, ,40, ,
3, ,40, ,
1, ,40, ,
1, ,40, ,
-2, ,40, ,
4, ,39, ,
6, ,40, ,
6, ,40, ,
8, ,40, ,
4, ,40, ,
4, ,40, ,
5, ,39, ,
-5, ,40, ,
3, ,40, ,
8, ,40, ,
1, ,40, ,
1, ,40, ,
14, ,39, ,
8, ,40, ,
5, ,40, ,
1, ,40, ,
3, ,40, ,
3, ,40, ,
4, ,39, ,
0, ,40, ,
0, ,40, ,
4, ,40, ,
-1, ,40, ,
-9, ,40, ,
-4, ,39, ,
-9, ,40, ,
-14, ,39, ,
-12, ,40, ,
-7, ,40, ,
-6, ,40, ,
-1, ,39, ,
-6, ,40, ,
0, ,40, ,
6, ,40, ,
8, ,40, ,
6, ,40, ,
14, ,39, ,
10, ,40, ,
11, ,39, ,
5, ,39, ,
1, ,40, ,
5, ,40, ,
0, ,39, ,
-9, ,40, ,
-2, ,40, ,
-5, ,40, ,
-1, ,40, ,
-6, ,40, ,
3, ,39, ,
1, ,40, ,
3, ,39, ,
6, ,40, ,
4, ,40, ,
4, ,40, ,
6, ,39, ,
-4, ,40, ,
4, ,40, ,
5, ,40, ,
3, ,40, ,
3, ,40, ,
6, ,39, ,
1, ,40, ,
-1, ,39, ,
-1, ,40, ,
1, ,40, ,
-1, ,40, ,
1, ,39, ,
-5, ,40, ,
-2, ,40, ,
0, ,40, ,
-6, ,40, ,
-7, ,40, ,
-1, ,39, ,
-5, ,40, ,
-2, ,40, ,
-4, ,40, ,
-4, ,40, ,
-5, ,40, ,
-1, ,39, ,
-6, ,40, ,
0, ,40, ,
0, ,39, ,
-4, ,40, ,
-6, ,40, ,
1, ,39, ,
3, ,40, ,
1, ,40, ,
0, ,40, ,
1, ,40, ,
1, ,40, ,
0, ,39, ,
-2, ,40, ,
4, ,40, ,
9, ,40, ,
6, ,40, ,
4, ,40, ,
9, ,39, ,
4, ,40, ,
0, ,40, ,
1, ,40, ,
-1, ,40, ,
-5, ,40, ,
-1, ,39, ,
-9, ,40, ,
-2, ,40, ,
0, ,39, ,
1, ,40, ,
-2, ,40, ,
8, ,39, ,
5, ,40, ,
5, ,39, ,
6, ,40, ,
8, ,40, ,
11, ,40, ,
8, ,39, ,
0, ,40, ,
4, ,40, ,
0, ,40, ,
0, ,40, ,
0, ,40, ,
3, ,39, ,
3, ,40, ,
3, ,39, ,
1, ,40, ,
-1, ,40, ,
-1, ,40, ,
0, ,39, ,
-9, ,40, ,
-4, ,40, ,
-2, ,40, ,
-7, ,40, ,
-11, ,40, ,
-2, ,39, ,
-5, ,40, ,
-5, ,39, ,
-5, ,40, ,
-2, ,40, ,
-1, ,40, ,
3, ,39, ,
-4, ,40, ,
-1, ,39, ,
6, ,39, ,
3, ,40, ,
-4, ,40, ,
4, ,39, ,
0, ,40, ,
-1, ,39, ,
-2, ,40, ,
0, ,40, ,
-2, ,40, ,
4, ,39, ,
0, ,40, ,
5, ,40, ,
6, ,39, ,
1, ,40, ,
-2, ,40, ,
4, ,39, ,
1, ,40, ,
4, ,39, ,
1, ,40, ,
4, ,40, ,
5, ,40, ,
6, ,39, ,
1, ,40, ,
4, ,40, ,
4, ,39, ,
4, ,40, ,
-1, ,40, ,
6, ,39, ,
1, ,40, ,
1, ,39, ,
3, ,40, ,
1, ,40, ,
4, ,40, ,
6, ,39, ,
0, ,40, ,
6, ,40, ,
5, ,39, ,
6, ,40, ,
-1, ,40, ,
8, ,39, ,
4, ,40, ,
3, ,39, ,
5, ,40, ,
4, ,40, ,
3, ,40, ,
6, ,39, ,
-2, ,40, ,
4, ,40, ,
5, ,40, ,
3, ,40, ,
1, ,40, ,
3, ,39, ,
1, ,40, ,
0, ,39, ,
-5, ,40, ,
-1, ,40, ,
-2, ,40, ,
4, ,39, ,
0, ,40, ,
0, ,40, ,
4, ,39, ,
-5, ,40, ,
-9, ,40, ,
-6, ,39, ,
-9, ,40, ,
-7, ,39, ,
-9, ,40, ,
-4, ,40, ,
-2, ,40, ,
-2, ,39, ,
-2, ,40, ,
0, ,40, ,
3, ,40, ,
1, ,40, ,
-1, ,40, ,
5, ,39, ,
6, ,40, ,
5, ,39, ,
0, ,39, ,
1, ,40, ,
-1, ,40, ,
4, ,39, ,
-2, ,40, ,
4, ,40, ,
6, ,39, ,
5, ,40, ,
1, ,40, ,
5, ,39, ,
1, ,40, ,
1, ,39, ,
0, ,40, ,
0, ,40, ,
3, ,40, ,
4, ,39, ,
-2, ,40, ,
4, ,40, ,
3, ,40, ,
0, ,40, ,
-4, ,40, ,
1, ,39, ,
4, ,40, ,
5, ,40, ,
4, ,40, ,
6, ,40, ,
6, ,39, ,
8, ,39, ,
0, ,40, ,
4, ,40, ,
5, ,39, ,
3, ,40, ,
1, ,40, ,
4, ,39, ,
4, ,40, ,
6, ,39, ,
3, ,40, ,
6, ,40, ,
8, ,40, ,
13, ,39, ,
4, ,40, ,
10, ,40, ,
13, ,40, ,
11, ,40, ,
10, ,40, ,
10, ,39, ,
9, ,40, ,
8, ,39, ,
4, ,40, ,
6, ,40, ,
5, ,40, ,
5, ,39, ,
5, ,40, ,
8, ,40, ,
11, ,40, ,
9, ,40, ,
3, ,40, ,
6, ,39, ,
1, ,40, ,
-1, ,39, ,
-1, ,40, ,
0, ,40, ,
3, ,40, ,
4, ,39, ,
0, ,40, ,
1, ,40, ,
1, ,40, ,
0, ,40, ,
-2, ,40, ,
5, ,40, ,
4, ,40, ,
3, ,39, ,
3, ,40, ,
3, ,40, ,
3, ,40, ,
5, ,39, ,
0, ,40, ,
4, ,40, ,
6, ,40, ,
4, ,40, ,
5, ,40, ,
6, ,39, ,
5, ,40, ,
4, ,39, ,
4, ,40, ,
0, ,40, ,
-2, ,40, ,
-2, ,39, ,
-9, ,40, ,
-6, ,40, ,
-6, ,39, ,
-7, ,40, ,
-10, ,40, ,
-4, ,39, ,
-2, ,41, ,
-4, ,40, ,
-6, ,40, ,
-2, ,40, ,
-4, ,40, ,
1, ,39, ,
-6, ,40, ,
1, ,40, ,
3, ,39, ,
-1, ,40, ,
-1, ,40, ,
5, ,39, ,
-1, ,41, ,
4, ,39, ,
0, ,40, ,
3, ,40, ,
5, ,40, ,
6, ,39, ,
1, ,40, ,
6, ,40, ,
8, ,39, ,
5, ,40, ,
4, ,40, ,
10, ,39, ,
5, ,40, ,
9, ,39, ,
4, ,40, ,
3, ,40, ,
-1, ,40, ,
-1, ,39, ,
-9, ,40, ,
-5, ,40, ,
-5, ,39, ,
-7, ,40, ,
-10, ,40, ,
-1, ,39, ,
-5, ,40, ,
-5, ,39, ,
-4, ,40, ,
-4, ,40, ,
-5, ,40, ,
-2, ,39, ,
-12, ,40, ,
-4, ,40, ,
-5, ,40, ,
-6, ,40, ,
-10, ,40, ,
-4, ,39, ,
-2, ,41, ,
-5, ,39, ,
-6, ,40, ,
-2, ,40, ,
-4, ,40, ,
1, ,39, ,
-7, ,40, ,
-1, ,40, ,
-1, ,39, ,
-2, ,40, ,
-4, ,40, ,
1, ,39, ,
0, ,40, ,
1, ,40, ,
4, ,39, ,
3, ,36, ,
-1, ,27, ,
-5, ,16, ,
-11, ,7, ,
-6, ,-1, ,
-6, ,-8, ,
-7, ,-14, ,
-10, ,-20, ,
-4, ,-24, ,
-9, ,-28, ,
-9, ,-32, ,
-14, ,-35, ,
-9, ,-38, ,
-11, ,-40, ,
-7, ,-42, ,
-12, ,-43, ,
-9, ,-45, ,
-6, ,-45, ,
-9, ,-46, ,
-12, ,-47, ,
-5, ,-48, ,
-2, ,-49, ,
-2, ,-50, ,
-4, ,-50, ,
-4, ,-50, ,
0, ,-50, ,
-1, ,-51, ,
-2, ,-51, ,
6, ,-51, ,
6, ,-52, ,
4, ,-52, ,
1, ,-52, ,
4, ,-51, ,
5, ,-54, ,
0, ,-52, ,
1, ,-52, ,
4, ,-52, ,
4, ,-52, ,
5, ,-52, ,
0, ,-54, ,
4, ,-52, ,
5, ,-52, ,
-1, ,-54, ,
-5, ,-54, ,
-2, ,-52, ,
0, ,-54, ,
-1, ,-54, ,
-1, ,-52, ,
1, ,-54, ,
1, ,-54, ,
0, ,-52, ,
-5, ,-54, ,
-1, ,-54, ,
-1, ,-54, ,
-6, ,-52, ,
-10, ,-54, ,
4, ,-52, ,
8, ,-54, ,
3, ,-52, ,
3, ,-52, ,
4, ,-54, ,
4, ,-54, ,
4, ,-52, ,
3, ,-54, ,
6, ,-52, ,
13, ,-52, ,
8, ,-52, ,
8, ,-52, ,
5, ,-52, ,
1, ,-54, ,
0, ,-52, ,
-2, ,-52, ,
1, ,-54, ,
5, ,-54, ,
8, ,-51, ,
5, ,-52, ,
8, ,-52, ,
4, ,-52, ,
5, ,-52, ,
-4, ,-52, ,
1, ,-51, ,
1, ,-54, ,
0, ,-52, ,
-2, ,-52, ,
-5, ,-52, ,
1, ,-52, ,
3, ,-51, ,
-9, ,-54, ,
-1, ,-52, ,
1, ,-52, ,
-4, ,-52, ,
-5, ,-52, ,
0, ,-51, ,
-1, ,-54, ,
-1, ,-52, ,
1, ,-52, ,
-2, ,-52, ,
4, ,-52, ,
6, ,-51, ,
-1, ,-52, ,
9, ,-52, ,
10, ,-52, ,
8, ,-52, ,
5, ,-52, ,
9, ,-51, ,
8, ,-54, ,
6, ,-52, ,
5, ,-52, ,
8, ,-52, ,
5, ,-52, ,
6, ,-51, ,
0, ,-52, ,
8, ,-52, ,
10, ,-52, ,
5, ,-52, ,
4, ,-52, ,
3, ,-52, ,
3, ,-54, ,
5, ,-52, ,
0, ,-51, ,
3, ,-52, ,
3, ,-52, ,
5, ,-51, ,
1, ,-52, ,
1, ,-52, ,
3, ,-52, ,
0, ,-52, ,
-2, ,-52, ,
1, ,-51, ,
-9, ,-54, ,
3, ,-52, ,
5, ,-52, ,
1, ,-52, ,
8, ,-52, ,
5, ,-51, ,
4, ,-52, ,
3, ,-52, ,
8, ,-52, ,
6, ,-52, ,
1, ,-52, ,
11, ,-52, ,
8, ,-54, ,
8, ,-52, ,
5, ,-52, ,
4, ,-52, ,
6, ,-52, ,
4, ,-51, ,
4, ,-52, ,
5, ,-52, ,
8, ,-52, ,
6, ,-52, ,
1, ,-52, ,
5, ,-52, ,
1, ,-52, ,
-2, ,-52, ,
-2, ,-52, ,
-2, ,-52, ,
-1, ,-52, ,
3, ,-51, ,
-4, ,-52, ,
-2, ,-52, ,
0, ,-52, ,
-2, ,-52, ,
-5, ,-52, ,
0, ,-51, ,
-4, ,-52, ,
-1, ,-52, ,
1, ,-52, ,
3, ,-52, ,
3, ,-52, ,
5, ,-51, ,
-6, ,-52, ,
1, ,-52, ,
0, ,-52, ,
1, ,-52, ,
-5, ,-52, ,
4, ,-52, ,
4, ,-54, ,
4, ,-52, ,
1, ,-52, ,
3, ,-52, ,
4, ,-52, ,
4, ,-51, ,
0, ,-52, ,
5, ,-52, ,
4, ,-52, ,
3, ,-52, ,
-1, ,-52, ,
8, ,-51, ,
0, ,-54, ,
1, ,-52, ,
-1, ,-52, ,
0, ,-52, ,
1, ,-52, ,
0, ,-51, ,
-4, ,-52, ,
1, ,-52, ,
0, ,-52, ,
0, ,-52, ,
-4, ,-52, ,
3, ,-51, ,
-1, ,-52, ,
-1, ,-52, ,
-1, ,-52, ,
-1, ,-52, ,
-4, ,-52, ,
3, ,-51, ,
-5, ,-52, ,
-2, ,-52, ,
3, ,-52, ,
-4, ,-52, ,
-5, ,-52, ,
6, ,-51, ,
-1, ,-52, ,
1, ,-52, ,
0, ,-51, ,
3, ,-52, ,
5, ,-52, ,
4, ,-51, ,
1, ,-52, ,
6, ,-52, ,
5, ,-52, ,
6, ,-52, ,
0, ,-52, ,
4, ,-51, ,
1, ,-52, ,
-2, ,-51, ,
-6, ,-52, ,
-5, ,-52, ,
-7, ,-52, ,
-7, ,-51, ,
-14, ,-52, ,
-9, ,-52, ,
-2, ,-52, ,
-1, ,-52, ,
-2, ,-52, ,
4, ,-51, ,
0, ,-54, ,
-2, ,-52, ,
-5, ,-51, ,
-5, ,-52, ,
-2, ,-52, ,
-1, ,-51, ,
-2, ,-52, ,
0, ,-52, ,
0, ,-52, ,
-2, ,-52, ,
-7, ,-52, ,
-1, ,-51, ,
-5, ,-54, ,
-2, ,-52, ,
-4, ,-52, ,
1, ,-52, ,
1, ,-52, ,
1, ,-51, ,
-2, ,-54, ,
-1, ,-52, ,
3, ,-51, ,
1, ,-52, ,
-1, ,-52, ,
8, ,-51, ,
4, ,-52, ,
5, ,-52, ,
0, ,-51, ,
0, ,-52, ,
-1, ,-52, ,
-4, ,-51, ,
-9, ,-52, ,
-5, ,-52, ,
-4, ,-52, ,
-1, ,-52, ,
-1, ,-52, ,
4, ,-51, ,
-1, ,-52, ,
-4, ,-52, ,
-5, ,-52, ,
-4, ,-52, ,
-4, ,-52, ,
1, ,-52, ,
-6, ,-52, ,
1, ,-52, ,
4, ,-52, ,
0, ,-52, ,
-2, ,-52, ,
4, ,-52, ,
0, ,-54, ,
3, ,-52, ,
1, ,-51, ,
4, ,-52, ,
4, ,-52, ,
6, ,-51, ,
0, ,-52, ,
3, ,-52, ,
0, ,-52, ,
-4, ,-52, ,
-2, ,-52, ,
1, ,-51, ,
1, ,-52, ,
4, ,-52, ,
3, ,-52, ,
6, ,-52, ,
3, ,-52, ,
1, ,-51, ,
-1, ,-52, ,
1, ,-52, ,
3, ,-52, ,
-4, ,-52, ,
-4, ,-52, ,
1, ,-51, ,
-2, ,-54, ,
-2, ,-52, ,
-4, ,-51, ,
-2, ,-52, ,
1, ,-52, ,
-1, ,-51, ,
-5, ,-52, ,
0, ,-52, ,
1, ,-52, ,
0, ,-52, ,
-4, ,-52, ,
5, ,-52, ,
1, ,-52, ,
0, ,-52, ,
-1, ,-51, ,
1, ,-52, ,
4, ,-52, ,
3, ,-51, ,
0, ,-52, ,
6, ,-52, ,
8, ,-52, ,
4, ,-52, ,
0, ,-52, ,
5, ,-52, ,
1, ,-52, ,
1, ,-52, ,
4, ,-51, ,
4, ,-52, ,
6, ,-52, ,
10, ,-51, ,
1, ,-52, ,
3, ,-52, ,
4, ,-52, ,
1, ,-52, ,
-2, ,-52, ,
4, ,-51, ,
4, ,-52, ,
4, ,-52, ,
3, ,-51, ,
1, ,-52, ,
3, ,-52, ,
4, ,-51, ,
-1, ,-52, ,
1, ,-52, ,
5, ,-51, ,
0, ,-52, ,
-1, ,-52, ,
6, ,-52, ,
3, ,-54, ,
3, ,-52, ,
1, ,-51, ,
4, ,-52, ,
5, ,-52, ,
6, ,-51, ,
4, ,-52, ,
6, ,-52, ,
6, ,-52, ,
4, ,-52, ,
0, ,-52, ,
1, ,-51, ,
0, ,-52, ,
0, ,-52, ,
-2, ,-51, ,
5, ,-52, ,
5, ,-52, ,
5, ,-52, ,
1, ,-52, ,
5, ,-52, ,
8, ,-52, ,
1, ,-52, ,
-1, ,-52, ,
6, ,-52, ,
0, ,-54, ,
3, ,-52, ,
1, ,-51, ,
-1, ,-52, ,
3, ,-52, ,
0, ,-51, ,
-6, ,-52, ,
-1, ,-52, ,
1, ,-52, ,
-1, ,-52, ,
-1, ,-51, ,
5, ,-51, ,
1, ,-52, ,
0, ,-52, ,
0, ,-52, ,
-1, ,-52, ,
3, ,-52, ,
3, ,-52, ,
-2, ,-52, ,
3, ,-52, ,
5, ,-51, ,
3, ,-52, ,
0, ,-52, ,
3, ,-52, ,
4, ,-54, ,
3, ,-52, ,
4, ,-52, ,
4, ,-52, ,
4, ,-52, ,
6, ,-51, ,
-2, ,-52, ,
5, ,-52, ,
3, ,-52, ,
-1, ,-52, ,
-5, ,-52, ,
1, ,-51, ,
-1, ,-52, ,
0, ,-52, ,
-5, ,-52, ,
1, ,-52, ,
-1, ,-52, ,
3, ,-51, ,
-5, ,-52, ,
1, ,-52, ,
5, ,-52, ,
0, ,-52, ,
-2, ,-52, ,
4, ,-52, ,
0, ,-52, ,
0, ,-52, ,
-1, ,-51, ,
0, ,-52, ,
1, ,-52, ,
1, ,-51, ,
-1, ,-52, ,
5, ,-52, ,
4, ,-52, ,
5, ,-52, ,
0, ,-52, ,
6, ,-51, ,
4, ,-52, ,
3, ,-52, ,
1, ,-51, ,
1, ,-52, ,
4, ,-52, ,
4, ,-51, ,
0, ,-52, ,
4, ,-52, ,
4, ,-52, ,
1, ,-52, ,
-2, ,-52, ,
1, ,-52, ,
-1, ,-54, ,
-1, ,-52, ,
-2, ,-52, ,
-2, ,-52, ,
1, ,-52, ,
1, ,-52, ,
-4, ,-52, ,
3, ,-52, ,
1, ,-52, ,
-1, ,-52, ,
-4, ,-52, ,
0, ,-51, ,
0, ,-52, ,
-2, ,-52, ,
-5, ,-52, ,
-1, ,-52, ,
-1, ,-52, ,
-2, ,-51, ,
-7, ,-52, ,
-2, ,-52, ,
-2, ,-52, ,
-2, ,-52, ,
-2, ,-52, ,
1, ,-51, ,
3, ,-54, ,
3, ,-52, ,
-1, ,-51, ,
4, ,-52, ,
1, ,-52, ,
1, ,-51, ,
-4, ,-52, ,
1, ,-52, ,
1, ,-52, ,
-1, ,-52, ,
-4, ,-52, ,
1, ,-52, ,
-4, ,-52, ,
-2, ,-52, ,
-6, ,-51, ,
-4, ,-52, ,
-5, ,-52, ,
-2, ,-51, ,
-4, ,-52, ,
0, ,-52, ,
4, ,-52, ,
1, ,-52, ,
-4, ,-52, ,
-1, ,-51, ,
-4, ,-52, ,
-1, ,-52, ,
-2, ,-51, ,
-2, ,-52, ,
-1, ,-52, ,
0, ,-51, ,
-2, ,-52, ,
0, ,-52, ,
0, ,-52, ,
1, ,-52, ,
-1, ,-52, ,
5, ,-52, ,
3, ,-52, ,
3, ,-52, ,
-2, ,-52, ,
1, ,-52, ,
1, ,-52, ,
-1, ,-51, ,
-6, ,-52, ,
0, ,-52, ,
-1, ,-52, ,
-4, ,-52, ,
0, ,-52, ,
6, ,-52, ,
4, ,-54, ,
1, ,-52, ,
3, ,-52, ,
-1, ,-52, ,
-1, ,-52, ,
0, ,-51, ,
-5, ,-52, ,
1, ,-52, ,
0, ,-52, ,
-2, ,-52, ,
-1, ,-52, ,
4, ,-51, ,
1, ,-54, ,
-1, ,-52, ,
-5, ,-51, ,
6, ,-52, ,
1, ,-52, ,
0, ,-51, ,
0, ,-52, ,
3, ,-52, ,
5, ,-52, ,
0, ,-52, ,
-4, ,-52, ,
1, ,-51, ,
-4, ,-52, ,
0, ,-52, ,
-1, ,-51, ,
0, ,-52, ,
1, ,-52, ,
1, ,-51, ,
-2, ,-52, ,
-1, ,-52, ,
1, ,-52, ,
0, ,-52, ,
-4, ,-52, ,
4, ,-52, ,
6, ,-54, ,
4, ,-52, ,
1, ,-52, ,
3, ,-52, ,
-1, ,-52, ,
-2, ,-51, ,
-6, ,-52, ,
-1, ,-52, ,
6, ,-52, ,
3, ,-52, ,
-4, ,-52, ,
8, ,-52, ,
0, ,-54, ,
-2, ,-52, ,
-1, ,-51, ,
-1, ,-52, ,
1, ,-52, ,
4, ,-51, ,
-2, ,-52, ,
3, ,-52, ,
1, ,-52, ,
3, ,-52, ,
3, ,-52, ,
3, ,-52, ,
5, ,-52, ,
4, ,-52, ,
1, ,-52, ,
5, ,-52, ,
3, ,-52, ,
1, ,-51, ,
-1, ,-52, ,
0, ,-52, ,
3, ,-52, ,
1, ,-52, ,
-1, ,-52, ,
4, ,-52, ,
5, ,-54, ,
5, ,-52, ,
4, ,-52, ,
5, ,-52, ,
5, ,-52, ,
6, ,-51, ,
-1, ,-52, ,
4, ,-52, ,
4, ,-52, ,
1, ,-52, ,
-2, ,-52, ,
3, ,-51, ,
1, ,-52, ,
3, ,-52, ,
0, ,-52, ,
0, ,-52, ,
1, ,-52, ,
3, ,-51, ,
1, ,-52, ,
5, ,-52, ,
10, ,-51, ,
4, ,-52, ,
0, ,-52, ,
5, ,-51, ,
3, ,-54, ,
3, ,-52, ,
1, ,-52, ,
1, ,-52, ,
1, ,-52, ,
3, ,-51, ,
-1, ,-52, ,
4, ,-52, ,
1, ,-52, ,
1, ,-52, ,
-4, ,-52, ,
1, ,-52, ,
1, ,-52, ,
0, ,-52, ,
1, ,-52, ,
3, ,-52, ,
1, ,-52, ,
5, ,-51, ,
-1, ,-52, ,
3, ,-52, ,
4, ,-51, ,
1, ,-52, ,
-1, ,-52, ,
8, ,-51, ,
4, ,-52, ,
4, ,-52, ,
3, ,-51, ,
