src/vary_am2_1411/temp0003394.CSV

Format,1.0B,
Memory Length,10000,Memory Length,10000,
IntpDistance,0,IntpDistance,0,
Trigger Address,4999,Trigger Address,4999,
Trigger Level,-1.000E+00,Trigger Level,-1.000E+00,
Source,CH1,Source,CH2,
Vertical Units,V,Vertical Units,V,
Vertical Units Div,0,Vertical Units Div,0,
Vertical Units Extend Div,16,Vertical Units Extend Div,16,
Label,,Label,,
Probe Type,0,Probe Type,0,
Probe Ratio,1.000e+01,Probe Ratio,1.000e+00,
Vertical Scale,2.000e-02,Vertical Scale,1.000e+00,
Vertical Position,-5.120e-02,Vertical Position,2.000e-01,
Horizontal Units,S,Horizontal Units,S,
Horizontal Scale,1.000E-05,Horizontal Scale,1.000E-05,
Horizontal Position,0.000E+00,Horizontal Position,0.000E+00,
Horizontal Mode,Main,Horizontal Mode,Main,
SincET Mode,Real Time,SincET Mode,Real Time,
Sampling Period,1.000e-08,Sampling Period,1.000e-08,
Horizontal Old Scale,1.000E-05,Horizontal Old Scale,1.000E-05,
Horizontal Old Position,0.000E+00,Horizontal Old Position,0.000E+00,
Firmware,V1.23,Firmware,V1.23,
Mode,Fast,Mode,Fast,
Waveform Data,,Waveform Data,,
3, ,-40, ,
4, ,-40, ,
3, ,-40, ,
5, ,-40, ,
0, ,-40, ,
3, ,-40, ,
5, ,-40, ,
0, ,-40, ,
-1, ,-40, ,
3, ,-40, ,
-1, ,-40, ,
3, ,-41, ,
1, ,-40, ,
1, ,-40, ,
5, ,-40, ,
3, ,-40, ,
-1, ,-40, ,
3, ,-40, ,
4, ,-40, ,
0, ,-40, ,
-5, ,-40, ,
3, ,-40, ,
3, ,-39, ,
3, ,-41, ,
1, ,-40, ,
3, ,-40, ,
0, ,-40, ,
1, ,-40, ,
-4, ,-40, ,
1, ,-40, ,
1, ,-40, ,
0, ,-40, ,
-2, ,-40, ,
5, ,-40, ,
0, ,-40, ,
-1, ,-41, ,
0, ,-40, ,
-2, ,-40, ,
3, ,-40, ,
9, ,-40, ,
1, ,-40, ,
5, ,-40, ,
9, ,-40, ,
5, ,-40, ,
-1, ,-40, ,
3, ,-40, ,
-1, ,-40, ,
-1, ,-41, ,
0, ,-40, ,
1, ,-40, ,
1, ,-40, ,
6, ,-40, ,
1, ,-40, ,
0, ,-40, ,
5, ,-40, ,
-1, ,-40, ,
-2, ,-40, ,
4, ,-40, ,
3, ,-40, ,
4, ,-40, ,
3, ,-40, ,
1, ,-40, ,
1, ,-40, ,
-1, ,-40, ,
-5, ,-40, ,
0, ,-40, ,
3, ,-40, ,
0, ,-40, ,
-1, ,-40, ,
8, ,-40, ,
21, ,-40, ,
44, ,-41, ,
53, ,-40, ,
56, ,-40, ,
59, ,-40, ,
53, ,-40, ,
46, ,-40, ,
43, ,-40, ,
48, ,-40, ,
38, ,-40, ,
26, ,-40, ,
24, ,-40, ,
13, ,-40, ,
13, ,-40, ,
8, ,-40, ,
8, ,-40, ,
9, ,-40, ,
10, ,-40, ,
4, ,-40, ,
8, ,-40, ,
6, ,-40, ,
3, ,-40, ,
-2, ,-40, ,
3, ,-40, ,
5, ,-40, ,
5, ,-41, ,
3, ,-40, ,
3, ,-40, ,
4, ,-40, ,
1, ,-40, ,
-4, ,-40, ,
1, ,-40, ,
4, ,-40, ,
1, ,-40, ,
-1, ,-40, ,
1, ,-40, ,
1, ,-40, ,
0, ,-41, ,
0, ,-40, ,
0, ,-40, ,
0, ,-40, ,
4, ,-40, ,
-4, ,-40, ,
1, ,-40, ,
3, ,-40, ,
-1, ,-40, ,
0, ,-40, ,
3, ,-40, ,
-2, ,-40, ,
1, ,-41, ,
-2, ,-40, ,
1, ,-40, ,
0, ,-40, ,
6, ,-40, ,
0, ,-40, ,
3, ,-40, ,
5, ,-40, ,
0, ,-40, ,
-5, ,-40, ,
0, ,-40, ,
-1, ,-40, ,
-1, ,-40, ,
0, ,-40, ,
3, ,-40, ,
1, ,-40, ,
4, ,-40, ,
1, ,-40, ,
1, ,-40, ,
4, ,-40, ,
4, ,-40, ,
1, ,-40, ,
6, ,-40, ,
1, ,-40, ,
3, ,-41, ,
3, ,-40, ,
3, ,-40, ,
3, ,-40, ,
0, ,-40, ,
-2, ,-39, ,
3, ,-40, ,
6, ,-40, ,
6, ,-40, ,
3, ,-40, ,
8, ,-40, ,
3, ,-40, ,
1, ,-41, ,
0, ,-40, ,
-1, ,-40, ,
1, ,-40, ,
4, ,-40, ,
-1, ,-40, ,
5, ,-40, ,
4, ,-40, ,
1, ,-40, ,
-2, ,-40, ,
0, ,-40, ,
-2, ,-40, ,
-1, ,-40, ,
-2, ,-40, ,
-1, ,-40, ,
-1, ,-40, ,
1, ,-40, ,
-5, ,-40, ,
0, ,-40, ,
3, ,-40, ,
1, ,-40, ,
-2, ,-40, ,
8, ,-40, ,
4, ,-40, ,
5, ,-41, ,
1, ,-40, ,
4, ,-40, ,
4, ,-40, ,
0, ,-40, ,
-5, ,-40, ,
0, ,-40, ,
3, ,-41, ,
0, ,-40, ,
-1, ,-40, ,
8, ,-40, ,
3, ,-40, ,
4, ,-40, ,
1, ,-40, ,
3, ,-40, ,
1, ,-40, ,
3, ,-40, ,
-4, ,-40, ,
4, ,-40, ,
6, ,-40, ,
3, ,-40, ,
1, ,-40, ,
5, ,-40, ,
4, ,-40, ,
3, ,-41, ,
1, ,-40, ,
1, ,-40, ,
3, ,-40, ,
5, ,-40, ,
0, ,-40, ,
4, ,-40, ,
5, ,-40, ,
4, ,-40, ,
3, ,-40, ,
10, ,-40, ,
6, ,-40, ,
5, ,-40, ,
5, ,-40, ,
4, ,-40, ,
4, ,-40, ,
5, ,-40, ,
-2, ,-40, ,
4, ,-40, ,
5, ,-40, ,
4, ,-40, ,
0, ,-40, ,
6, ,-40, ,
6, ,-40, ,
5, ,-41, ,
6, ,-40, ,
5, ,-40, ,
5, ,-40, ,
4, ,-40, ,
-1, ,-40, ,
5, ,-40, ,
6, ,-40, ,
5, ,-40, ,
4, ,-40, ,
8, ,-40, ,
8, ,-40, ,
6, ,-40, ,
4, ,-40, ,
3, ,-40, ,
5, ,-40, ,
4, ,-40, ,
-6, ,-40, ,
9, ,-40, ,
8, ,-40, ,
1, ,-40, ,
3, ,-40, ,
8, ,-40, ,
4, ,-40, ,
4, ,-41, ,
4, ,-40, ,
6, ,-40, ,
6, ,-40, ,
6, ,-40, ,
6, ,-40, ,
5, ,-40, ,
8, ,-40, ,
4, ,-40, ,
1, ,-40, ,
8, ,-40, ,
4, ,-40, ,
5, ,-40, ,
5, ,-40, ,
5, ,-40, ,
5, ,-40, ,
5, ,-40, ,
-2, ,-40, ,
1, ,-40, ,
3, ,-40, ,
3, ,-40, ,
-4, ,-40, ,
5, ,-40, ,
5, ,-40, ,
10, ,-41, ,
1, ,-40, ,
4, ,-40, ,
4, ,-40, ,
5, ,-41, ,
1, ,-40, ,
8, ,-40, ,
9, ,-40, ,
6, ,-40, ,
6, ,-40, ,
5, ,-40, ,
4, ,-40, ,
4, ,-41, ,
3, ,-40, ,
3, ,-40, ,
5, ,-40, ,
9, ,-40, ,
4, ,-40, ,
8, ,-40, ,
11, ,-40, ,
5, ,-40, ,
1, ,-40, ,
9, ,-40, ,
4, ,-40, ,
8, ,-41, ,
6, ,-40, ,
6, ,-40, ,
6, ,-40, ,
6, ,-40, ,
0, ,-40, ,
3, ,-40, ,
4, ,-40, ,
1, ,-40, ,
-1, ,-40, ,
5, ,-40, ,
-1, ,-36, ,
6, ,-27, ,
8, ,-17, ,
10, ,-7, ,
11, ,1, ,
13, ,9, ,
6, ,14, ,
10, ,19, ,
11, ,25, ,
6, ,28, ,
5, ,32, ,
11, ,35, ,
3, ,37, ,
4, ,40, ,
3, ,41, ,
3, ,44, ,
5, ,46, ,
9, ,46, ,
4, ,47, ,
4, ,49, ,
6, ,49, ,
8, ,49, ,
-1, ,50, ,
11, ,51, ,
5, ,50, ,
3, ,51, ,
1, ,52, ,
1, ,52, ,
5, ,52, ,
8, ,52, ,
0, ,51, ,
4, ,53, ,
3, ,53, ,
3, ,53, ,
-2, ,53, ,
1, ,53, ,
-1, ,52, ,
1, ,53, ,
3, ,53, ,
3, ,53, ,
1, ,53, ,
4, ,53, ,
-1, ,52, ,
0, ,54, ,
1, ,53, ,
-4, ,53, ,
-2, ,53, ,
5, ,53, ,
3, ,52, ,
1, ,53, ,
1, ,52, ,
1, ,53, ,
1, ,53, ,
5, ,54, ,
-1, ,52, ,
3, ,53, ,
5, ,53, ,
0, ,53, ,
-1, ,53, ,
4, ,53, ,
-5, ,51, ,
-1, ,54, ,
-4, ,52, ,
0, ,53, ,
3, ,53, ,
5, ,53, ,
3, ,51, ,
3, ,54, ,
4, ,53, ,
1, ,53, ,
-4, ,53, ,
3, ,53, ,
-2, ,52, ,
1, ,54, ,
1, ,52, ,
0, ,53, ,
0, ,53, ,
4, ,53, ,
-2, ,51, ,
3, ,54, ,
1, ,53, ,
1, ,53, ,
-2, ,53, ,
4, ,53, ,
3, ,52, ,
1, ,54, ,
1, ,52, ,
5, ,53, ,
0, ,53, ,
6, ,53, ,
-1, ,51, ,
1, ,53, ,
4, ,53, ,
1, ,52, ,
-1, ,53, ,
6, ,53, ,
-2, ,52, ,
-1, ,53, ,
-6, ,52, ,
-4, ,53, ,
-1, ,53, ,
5, ,53, ,
0, ,52, ,
5, ,53, ,
6, ,53, ,
1, ,52, ,
-1, ,53, ,
1, ,53, ,
-5, ,52, ,
-2, ,53, ,
-2, ,52, ,
-4, ,52, ,
-4, ,53, ,
1, ,53, ,
-2, ,51, ,
4, ,53, ,
5, ,53, ,
3, ,52, ,
-1, ,52, ,
0, ,53, ,
-4, ,52, ,
1, ,54, ,
0, ,52, ,
4, ,53, ,
5, ,53, ,
4, ,53, ,
-1, ,51, ,
-1, ,53, ,
-1, ,53, ,
0, ,53, ,
-1, ,53, ,
4, ,53, ,
-1, ,52, ,
3, ,54, ,
-1, ,51, ,
-1, ,53, ,
-2, ,53, ,
4, ,53, ,
0, ,51, ,
5, ,53, ,
10, ,53, ,
8, ,52, ,
4, ,53, ,
8, ,53, ,
1, ,52, ,
0, ,54, ,
1, ,52, ,
-1, ,53, ,
-2, ,53, ,
3, ,53, ,
-5, ,51, ,
3, ,53, ,
3, ,53, ,
1, ,52, ,
0, ,53, ,
6, ,53, ,
4, ,52, ,
5, ,53, ,
5, ,52, ,
4, ,52, ,
5, ,53, ,
6, ,52, ,
-1, ,51, ,
4, ,53, ,
3, ,53, ,
3, ,52, ,
1, ,53, ,
9, ,53, ,
4, ,52, ,
8, ,53, ,
1, ,52, ,
4, ,53, ,
0, ,53, ,
3, ,53, ,
-4, ,51, ,
0, ,53, ,
3, ,52, ,
0, ,52, ,
-2, ,53, ,
3, ,53, ,
0, ,52, ,
4, ,53, ,
0, ,52, ,
1, ,53, ,
4, ,53, ,
3, ,53, ,
1, ,51, ,
3, ,53, ,
5, ,53, ,
3, ,52, ,
0, ,53, ,
8, ,53, ,
4, ,52, ,
5, ,53, ,
3, ,52, ,
5, ,52, ,
4, ,53, ,
5, ,52, ,
-1, ,51, ,
1, ,54, ,
1, ,52, ,
0, ,52, ,
-5, ,52, ,
6, ,53, ,
1, ,52, ,
4, ,53, ,
4, ,52, ,
3, ,52, ,
6, ,53, ,
5, ,53, ,
1, ,51, ,
4, ,53, ,
6, ,53, ,
4, ,52, ,
3, ,53, ,
9, ,53, ,
5, ,52, ,
6, ,53, ,
5, ,52, ,
5, ,53, ,
1, ,53, ,
4, ,53, ,
-1, ,51, ,
8, ,53, ,
6, ,52, ,
4, ,52, ,
5, ,53, ,
9, ,53, ,
6, ,52, ,
5, ,53, ,
5, ,52, ,
8, ,52, ,
5, ,53, ,
8, ,53, ,
4, ,51, ,
5, ,53, ,
5, ,52, ,
3, ,52, ,
-2, ,53, ,
4, ,53, ,
1, ,52, ,
4, ,53, ,
5, ,52, ,
5, ,52, ,
8, ,53, ,
9, ,53, ,
4, ,51, ,
5, ,53, ,
8, ,53, ,
3, ,53, ,
-4, ,52, ,
5, ,53, ,
3, ,52, ,
4, ,53, ,
4, ,52, ,
0, ,52, ,
3, ,53, ,
1, ,53, ,
-2, ,51, ,
1, ,53, ,
1, ,52, ,
4, ,52, ,
3, ,53, ,
8, ,53, ,
4, ,51, ,
5, ,53, ,
1, ,52, ,
3, ,52, ,
-1, ,53, ,
4, ,53, ,
0, ,51, ,
5, ,53, ,
4, ,52, ,
5, ,52, ,
0, ,52, ,
4, ,52, ,
0, ,51, ,
3, ,53, ,
4, ,52, ,
3, ,52, ,
4, ,53, ,
8, ,53, ,
-1, ,52, ,
3, ,53, ,
3, ,53, ,
-1, ,52, ,
-1, ,53, ,
5, ,53, ,
5, ,52, ,
6, ,53, ,
5, ,52, ,
6, ,52, ,
3, ,53, ,
6, ,53, ,
0, ,51, ,
0, ,53, ,
5, ,53, ,
3, ,52, ,
1, ,52, ,
8, ,53, ,
1, ,52, ,
3, ,53, ,
3, ,52, ,
3, ,52, ,
1, ,53, ,
8, ,52, ,
3, ,51, ,
6, ,53, ,
5, ,53, ,
0, ,52, ,
0, ,53, ,
6, ,53, ,
0, ,52, ,
1, ,53, ,
-1, ,52, ,
0, ,52, ,
0, ,53, ,
4, ,53, ,
1, ,51, ,
3, ,53, ,
1, ,52, ,
-1, ,52, ,
-5, ,53, ,
3, ,53, ,
0, ,51, ,
1, ,53, ,
4, ,52, ,
5, ,52, ,
5, ,53, ,
4, ,53, ,
-1, ,51, ,
5, ,53, ,
3, ,53, ,
1, ,52, ,
-2, ,52, ,
1, ,53, ,
1, ,52, ,
-1, ,53, ,
-2, ,53, ,
0, ,52, ,
-2, ,53, ,
3, ,52, ,
-4, ,51, ,
3, ,53, ,
3, ,53, ,
0, ,52, ,
-1, ,53, ,
4, ,53, ,
0, ,52, ,
0, ,53, ,
0, ,52, ,
-1, ,52, ,
-2, ,53, ,
3, ,53, ,
-2, ,51, ,
0, ,53, ,
1, ,53, ,
0, ,52, ,
-4, ,52, ,
0, ,53, ,
-6, ,52, ,
-2, ,53, ,
0, ,52, ,
4, ,52, ,
3, ,53, ,
5, ,52, ,
3, ,51, ,
4, ,53, ,
6, ,52, ,
1, ,52, ,
-5, ,52, ,
3, ,53, ,
-4, ,51, ,
3, ,53, ,
0, ,52, ,
0, ,52, ,
1, ,53, ,
3, ,53, ,
-1, ,51, ,
4, ,53, ,
3, ,53, ,
3, ,52, ,
3, ,52, ,
6, ,52, ,
1, ,51, ,
0, ,53, ,
-4, ,52, ,
-6, ,53, ,
3, ,53, ,
3, ,53, ,
-1, ,51, ,
5, ,53, ,
3, ,53, ,
3, ,52, ,
-2, ,52, ,
1, ,53, ,
-1, ,51, ,
0, ,53, ,
3, ,52, ,
0, ,52, ,
1, ,53, ,
3, ,53, ,
-1, ,51, ,
4, ,53, ,
3, ,53, ,
3, ,52, ,
1, ,52, ,
5, ,53, ,
3, ,51, ,
3, ,53, ,
-1, ,52, ,
1, ,52, ,
-7, ,53, ,
-2, ,53, ,
-1, ,51, ,
1, ,53, ,
3, ,52, ,
0, ,52, ,
3, ,53, ,
0, ,53, ,
0, ,51, ,
1, ,54, ,
-1, ,52, ,
-1, ,52, ,
1, ,53, ,
1, ,53, ,
-4, ,51, ,
3, ,53, ,
5, ,53, ,
1, ,52, ,
0, ,53, ,
6, ,53, ,
3, ,51, ,
3, ,53, ,
0, ,52, ,
0, ,53, ,
-2, ,53, ,
-1, ,52, ,
-2, ,51, ,
3, ,53, ,
5, ,53, ,
1, ,52, ,
0, ,53, ,
5, ,53, ,
-5, ,51, ,
1, ,53, ,
6, ,52, ,
3, ,52, ,
4, ,53, ,
4, ,53, ,
-1, ,51, ,
1, ,53, ,
0, ,53, ,
3, ,52, ,
-1, ,52, ,
4, ,53, ,
4, ,52, ,
3, ,53, ,
0, ,52, ,
0, ,52, ,
0, ,53, ,
3, ,52, ,
-5, ,51, ,
4, ,53, ,
4, ,53, ,
1, ,52, ,
1, ,52, ,
8, ,53, ,
5, ,51, ,
6, ,53, ,
4, ,52, ,
5, ,53, ,
3, ,53, ,
5, ,52, ,
-2, ,51, ,
0, ,53, ,
3, ,53, ,
0, ,52, ,
1, ,53, ,
5, ,53, ,
3, ,52, ,
4, ,53, ,
1, ,52, ,
4, ,52, ,
5, ,53, ,
9, ,53, ,
4, ,51, ,
5, ,53, ,
4, ,52, ,
4, ,52, ,
-1, ,53, ,
3, ,53, ,
-2, ,52, ,
4, ,53, ,
3, ,52, ,
1, ,52, ,
5, ,53, ,
3, ,52, ,
-2, ,51, ,
1, ,53, ,
3, ,52, ,
3, ,52, ,
-2, ,53, ,
8, ,53, ,
6, ,52, ,
3, ,53, ,
3, ,52, ,
1, ,53, ,
0, ,53, ,
4, ,53, ,
-4, ,51, ,
0, ,53, ,
5, ,53, ,
4, ,52, ,
-4, ,52, ,
6, ,53, ,
1, ,51, ,
3, ,53, ,
3, ,52, ,
5, ,52, ,
3, ,53, ,
5, ,53, ,
-2, ,51, ,
4, ,53, ,
10, ,53, ,
-2, ,52, ,
-9, ,53, ,
9, ,53, ,
6, ,51, ,
0, ,53, ,
8, ,52, ,
6, ,52, ,
0, ,53, ,
1, ,53, ,
1, ,51, ,
3, ,53, ,
5, ,53, ,
3, ,52, ,
1, ,52, ,
3, ,53, ,
0, ,52, ,
4, ,53, ,
1, ,52, ,
5, ,53, ,
9, ,53, ,
6, ,53, ,
1, ,52, ,
6, ,53, ,
3, ,53, ,
-1, ,52, ,
-2, ,53, ,
8, ,53, ,
3, ,52, ,
4, ,54, ,
1, ,52, ,
3, ,53, ,
0, ,53, ,
1, ,52, ,
-5, ,51, ,
-2, ,53, ,
1, ,52, ,
-5, ,52, ,
-11, ,52, ,
-6, ,53, ,
-16, ,51, ,
-15, ,53, ,
-14, ,52, ,
-7, ,52, ,
3, ,53, ,
16, ,53, ,
20, ,51, ,
24, ,53, ,
21, ,52, ,
10, ,52, ,
-2, ,52, ,
-4, ,53, ,
-10, ,51, ,
-6, ,53, ,
0, ,52, ,
3, ,52, ,
4, ,53, ,
6, ,53, ,
-4, ,51, ,
-2, ,53, ,
1, ,52, ,
0, ,52, ,
3, ,53, ,
9, ,53, ,
5, ,52, ,
5, ,53, ,
-1, ,52, ,
-2, ,53, ,
-4, ,53, ,
1, ,53, ,
-4, ,51, ,
3, ,53, ,
6, ,52, ,
4, ,52, ,
-1, ,52, ,
5, ,53, ,
-5, ,51, ,
-4, ,53, ,
-9, ,52, ,
-4, ,52, ,
-2, ,53, ,
4, ,52, ,
3, ,51, ,
5, ,53, ,
9, ,53, ,
4, ,52, ,
-2, ,52, ,
5, ,53, ,
-2, ,51, ,
-4, ,53, ,
-2, ,52, ,
-4, ,52, ,
0, ,53, ,
3, ,52, ,
4, ,51, ,
8, ,53, ,
8, ,52, ,
0, ,52, ,
-2, ,53, ,
6, ,53, ,
1, ,52, ,
1, ,53, ,
3, ,52, ,
1, ,52, ,
1, ,53, ,
4, ,53, ,
-2, ,51, ,
0, ,53, ,
0, ,53, ,
-4, ,52, ,
-9, ,53, ,
-2, ,53, ,
-4, ,51, ,
-2, ,53, ,
3, ,52, ,
4, ,52, ,
3, ,53, ,
4, ,53, ,
-1, ,51, ,
9, ,53, ,
11, ,53, ,
3, ,52, ,
3, ,52, ,
6, ,53, ,
0, ,51, ,
0, ,54, ,
-2, ,52, ,
3, ,52, ,
1, ,53, ,
6, ,53, ,
3, ,51, ,
8, ,53, ,
5, ,52, ,
0, ,52, ,
-6, ,53, ,
0, ,53, ,
-5, ,52, ,
-1, ,53, ,
-1, ,52, ,
3, ,53, ,
4, ,53, ,
6, ,53, ,
3, ,51, ,
4, ,53, ,
3, ,52, ,
0, ,53, ,
-1, ,52, ,
3, ,53, ,
-4, ,52, ,
-1, ,53, ,
-2, ,52, ,
-1, ,52, ,
0, ,53, ,
5, ,53, ,
1, ,51, ,
5, ,53, ,
5, ,53, ,
6, ,52, ,
0, ,53, ,
4, ,53, ,
3, ,51, ,
1, ,53, ,
1, ,52, ,
5, ,52, ,
4, ,53, ,
9, ,52, ,
4, ,51, ,
6, ,53, ,
9, ,53, ,
4, ,52, ,
1, ,53, ,
6, ,53, ,
4, ,52, ,
4, ,53, ,
3, ,52, ,
3, ,52, ,
0, ,53, ,
6, ,52, ,
-2, ,51, ,
4, ,53, ,
5, ,53, ,
4, ,52, ,
0, ,52, ,
6, ,53, ,
4, ,51, ,
5, ,53, ,
3, ,52, ,
5, ,53, ,
4, ,53, ,
4, ,53, ,
-4, ,51, ,
0, ,53, ,
3, ,53, ,
0, ,53, ,
0, ,52, ,
5, ,53, ,
1, ,51, ,
4, ,53, ,
3, ,52, ,
5, ,53, ,
6, ,53, ,
6, ,53, ,
3, ,51, ,
4, ,53, ,
5, ,52, ,
3, ,52, ,
-2, ,52, ,
5, ,53, ,
-1, ,52, ,
1, ,53, ,
1, ,52, ,
0, ,52, ,
0, ,53, ,
1, ,53, ,
-5, ,51, ,
5, ,54, ,
5, ,53, ,
3, ,52, ,
-2, ,53, ,
4, ,53, ,
0, ,52, ,
0, ,53, ,
1, ,52, ,
3, ,53, ,
3, ,53, ,
4, ,53, ,
-2, ,51, ,
-1, ,53, ,
0, ,53, ,
-2, ,52, ,
-2, ,53, ,
6, ,52, ,
0, ,51, ,
3, ,53, ,
5, ,52, ,
4, ,53, ,
0, ,53, ,
4, ,53, ,
-4, ,51, ,
1, ,53, ,
1, ,53, ,
0, ,52, ,
1, ,53, ,
10, ,52, ,
9, ,51, ,
9, ,53, ,
8, ,52, ,
6, ,53, ,
3, ,53, ,
5, ,53, ,
-1, ,51, ,
1, ,53, ,
5, ,53, ,
1, ,52, ,
1, ,53, ,
8, ,53, ,
3, ,52, ,
8, ,51, ,
6, ,42, ,
5, ,32, ,
3, ,22, ,
5, ,13, ,
-2, ,7, ,
-2, ,0, ,
4, ,-6, ,
3, ,-10, ,
-2, ,-14, ,
0, ,-18, ,
-5, ,-22, ,
-1, ,-24, ,
-1, ,-26, ,
5, ,-28, ,
4, ,-30, ,
4, ,-31, ,
-2, ,-32, ,
-1, ,-35, ,
-1, ,-36, ,
-2, ,-36, ,
-4, ,-37, ,
5, ,-38, ,
4, ,-38, ,
6, ,-39, ,
5, ,-39, ,
3, ,-39, ,
3, ,-39, ,
4, ,-40, ,
-4, ,-40, ,
4, ,-40, ,
5, ,-40, ,
4, ,-40, ,
-1, ,-40, ,
1, ,-40, ,
0, ,-40, ,
-2, ,-41, ,
-2, ,-41, ,
0, ,-40, ,
0, ,-41, ,
1, ,-41, ,
-1, ,-41, ,
1, ,-41, ,
4, ,-41, ,
0, ,-41, ,
-1, ,-41, ,
4, ,-41, ,
0, ,-40, ,
0, ,-41, ,
1, ,-41, ,
1, ,-41, ,
0, ,-41, ,
1, ,-41, ,
-5, ,-40, ,
-5, ,-41, ,
-2, ,-41, ,
-5, ,-41, ,
-5, ,-41, ,
-2, ,-41, ,
-2, ,-41, ,
6, ,-41, ,
0, ,-41, ,
3, ,-40, ,
5, ,-41, ,
3, ,-41, ,
-4, ,-41, ,
-1, ,-41, ,
1, ,-41, ,
-5, ,-41, ,
-7, ,-41, ,
1, ,-40, ,
-1, ,-40, ,
-1, ,-41, ,
-1, ,-41, ,
0, ,-40, ,
-1, ,-40, ,
-4, ,-41, ,
-4, ,-40, ,
1, ,-41, ,
1, ,-40, ,
-2, ,-40, ,
-4, ,-40, ,
1, ,-40, ,
-1, ,-40, ,
-5, ,-41, ,
-4, ,-41, ,
-2, ,-40, ,
-2, ,-41, ,
0, ,-41, ,
-4, ,-40, ,
4, ,-40, ,
-4, ,-41, ,
-6, ,-40, ,
-10, ,-40, ,
-5, ,-40, ,
-4, ,-40, ,
-2, ,-40, ,
-1, ,-40, ,
0, ,-40, ,
-1, ,-40, ,
1, ,-41, ,
-5, ,-40, ,
-2, ,-41, ,
-2, ,-40, ,
-5, ,-40, ,
-6, ,-40, ,
0, ,-40, ,
-1, ,-40, ,
-2, ,-41, ,
-6, ,-40, ,
-4, ,-40, ,
-7, ,-40, ,
-5, ,-40, ,
-7, ,-40, ,
-4, ,-40, ,
0, ,-40, ,
-6, ,-40, ,
-9, ,-40, ,
-2, ,-40, ,
-6, ,-40, ,
-7, ,-41, ,
-5, ,-40, ,
-2, ,-40, ,
-1, ,-40, ,
1, ,-40, ,
-5, ,-40, ,
0, ,-41, ,
1, ,-40, ,
-4, ,-40, ,
-7, ,-40, ,
1, ,-40, ,
-4, ,-40, ,
-1, ,-41, ,
-5, ,-40, ,
-2, ,-40, ,
-1, ,-40, ,
3, ,-40, ,
-1, ,-40, ,
0, ,-40, ,
1, ,-40, ,
-1, ,-40, ,
-6, ,-40, ,
5, ,-40, ,
0, ,-40, ,
-1, ,-41, ,
-1, ,-41, ,
-2, ,-40, ,
1, ,-40, ,
1, ,-41, ,
0, ,-40, ,
4, ,-40, ,
5, ,-40, ,
1, ,-40, ,
0, ,-40, ,
6, ,-40, ,
3, ,-40, ,
0, ,-41, ,
-1, ,-40, ,
-1, ,-40, ,
4, ,-40, ,
5, ,-40, ,
0, ,-40, ,
6, ,-40, ,
9, ,-41, ,
4, ,-40, ,
3, ,-40, ,
6, ,-40, ,
3, ,-40, ,
1, ,-41, ,
0, ,-40, ,
1, ,-40, ,
1, ,-40, ,
4, ,-40, ,
-4, ,-40, ,
3, ,-40, ,
3, ,-40, ,
-1, ,-40, ,
-4, ,-40, ,
4, ,-40, ,
1, ,-40, ,
0, ,-40, ,
1, ,-40, ,
4, ,-40, ,
4, ,-40, ,
5, ,-40, ,
0, ,-40, ,
3, ,-40, ,
8, ,-40, ,
6, ,-40, ,
0, ,-40, ,
9, ,-40, ,
4, ,-40, ,
3, ,-40, ,
1, ,-40, ,
0, ,-40, ,
3, ,-40, ,
3, ,-40, ,
-1, ,-40, ,
5, ,-40, ,
6, ,-40, ,
5, ,-40, ,
4, ,-40, ,
10, ,-40, ,
5, ,-40, ,
4, ,-41, ,
1, ,-40, ,
0, ,-40, ,
4, ,-40, ,
6, ,-40, ,
1, ,-40, ,
5, ,-40, ,
5, ,-40, ,
4, ,-40, ,
0, ,-40, ,
4, ,-40, ,
4, ,-40, ,
4, ,-40, ,
4, ,-40, ,
5, ,-40, ,
6, ,-40, ,
9, ,-40, ,
0, ,-40, ,
5, ,-40, ,
5, ,-41, ,
4, ,-40, ,
1, ,-40, ,
9, ,-40, ,
8, ,-40, ,
6, ,-41, ,
5, ,-40, ,
5, ,-40, ,
3, ,-40, ,
5, ,-40, ,
-1, ,-40, ,
3, ,-40, ,
8, ,-40, ,
4, ,-40, ,
1, ,-40, ,
9, ,-40, ,
4, ,-40, ,
8, ,-41, ,
3, ,-40, ,
4, ,-40, ,
6, ,-40, ,
5, ,-40, ,
3, ,-40, ,
4, ,-40, ,
8, ,-40, ,
4, ,-40, ,
1, ,-40, ,
8, ,-40, ,
4, ,-40, ,
3, ,-40, ,
4, ,-40, ,
4, ,-40, ,
5, ,-40, ,
6, ,-40, ,
-1, ,-40, ,
4, ,-41, ,
5, ,-40, ,
1, ,-40, ,
-1, ,-40, ,
9, ,-40, ,
6, ,-40, ,
5, ,-40, ,
5, ,-40, ,
4, ,-40, ,
6, ,-40, ,
5, ,-40, ,
-4, ,-40, ,
3, ,-40, ,
4, ,-41, ,
4, ,-40, ,
-1, ,-40, ,
6, ,-40, ,
3, ,-40, ,
0, ,-40, ,
-2, ,-40, ,
-2, ,-40, ,
-4, ,-40, ,
-1, ,-40, ,
-5, ,-40, ,
1, ,-40, ,
4, ,-40, ,
1, ,-40, ,
0, ,-40, ,
6, ,-40, ,
4, ,-40, ,
1, ,-41, ,
1, ,-40, ,
3, ,-40, ,
0, ,-40, ,
1, ,-40, ,
-4, ,-40, ,
0, ,-40, ,
4, ,-41, ,
-1, ,-40, ,
-2, ,-40, ,
1, ,-40, ,
-2, ,-39, ,
1, ,-40, ,
4, ,-40, ,
8, ,-40, ,
6, ,-40, ,
6, ,-40, ,
0, ,-40, ,
1, ,-40, ,
3, ,-40, ,
-1, ,-40, ,
-6, ,-40, ,
5, ,-40, ,
1, ,-40, ,
1, ,-40, ,
0, ,-40, ,
-1, ,-40, ,
0, ,-40, ,
-1, ,-40, ,
-4, ,-40, ,
0, ,-40, ,
4, ,-40, ,
1, ,-40, ,
-1, ,-40, ,
6, ,-40, ,
1, ,-40, ,
0, ,-40, ,
-1, ,-40, ,
-2, ,-40, ,
-1, ,-40, ,
1, ,-40, ,
-6, ,-40, ,
-1, ,-40, ,
0, ,-40, ,
-5, ,-40, ,
-7, ,-40, ,
1, ,-40, ,
-4, ,-40, ,
-1, ,-40, ,
-1, ,-40, ,
0, ,-40, ,
-4, ,-40, ,
1, ,-40, ,
-9, ,-40, ,
-4, ,-40, ,
-2, ,-40, ,
-4, ,-40, ,
-6, ,-40, ,
0, ,-40, ,
-1, ,-40, ,
-1, ,-40, ,
-2, ,-40, ,
-1, ,-40, ,
-5, ,-40, ,
-2, ,-40, ,
-9, ,-39, ,
-5, ,-40, ,
-2, ,-40, ,
-6, ,-40, ,
-7, ,-40, ,
0, ,-40, ,
-6, ,-40, ,
-1, ,-40, ,
-4, ,-40, ,
-2, ,-40, ,
-1, ,-40, ,
-2, ,-40, ,
-5, ,-40, ,
-2, ,-40, ,
0, ,-40, ,
-5, ,-40, ,
-5, ,-40, ,
0, ,-40, ,
-5, ,-40, ,
-1, ,-40, ,
-2, ,-40, ,
-1, ,-40, ,
-4, ,-40, ,
0, ,-40, ,
-1, ,-40, ,
-1, ,-40, ,
1, ,-40, ,
-5, ,-40, ,
-11, ,-40, ,
1, ,-40, ,
-1, ,-40, ,
3, ,-41, ,
0, ,-40, ,
3, ,-40, ,
3, ,-40, ,
5, ,-40, ,
-2, ,-40, ,
-1, ,-40, ,
-1, ,-40, ,
-2, ,-40, ,
-9, ,-40, ,
-5, ,-40, ,
0, ,-40, ,
-2, ,-40, ,
1, ,-40, ,
3, ,-40, ,
0, ,-40, ,
4, ,-40, ,
-2, ,-40, ,
1, ,-40, ,
8, ,-40, ,
3, ,-40, ,
4, ,-40, ,
6, ,-40, ,
1, ,-40, ,
3, ,-41, ,
-4, ,-40, ,
-5, ,-40, ,
-4, ,-40, ,
-1, ,-40, ,
-4, ,-40, ,
-2, ,-40, ,
3, ,-40, ,
-2, ,-40, ,
-7, ,-40, ,
0, ,-40, ,
-2, ,-40, ,
1, ,-40, ,
0, ,-40, ,
3, ,-40, ,
4, ,-40, ,
4, ,-40, ,
-1, ,-40, ,
0, ,-40, ,
4, ,-40, ,
0, ,-40, ,
-6, ,-40, ,
-1, ,-40, ,
-5, ,-40, ,
-1, ,-40, ,
1, ,-40, ,
-1, ,-40, ,
0, ,-40, ,
3, ,-40, ,
-2, ,-40, ,
1, ,-40, ,
4, ,-40, ,
3, ,-40, ,
0, ,-40, ,
9, ,-40, ,
1, ,-40, ,
-1, ,-40, ,
0, ,-40, ,
-1, ,-40, ,
-1, ,-40, ,
3, ,-40, ,
-5, ,-40, ,
3, ,-40, ,
4, ,-40, ,
3, ,-40, ,
-1, ,-40, ,
6, ,-40, ,
4, ,-40, ,
1, ,-41, ,
3, ,-40, ,
4, ,-40, ,
4, ,-40, ,
5, ,-40, ,
1, ,-40, ,
4, ,-40, ,
10, ,-40, ,
5, ,-40, ,
-1, ,-40, ,
9, ,-40, ,
5, ,-40, ,
3, ,-40, ,
1, ,-40, ,
3, ,-40, ,
3, ,-40, ,
8, ,-40, ,
-1, ,-40, ,
6, ,-40, ,
6, ,-40, ,
3, ,-40, ,
1, ,-40, ,
9, ,-40, ,
5, ,-40, ,
5, ,-41, ,
4, ,-40, ,
6, ,-40, ,
4, ,-40, ,
3, ,-40, ,
-1, ,-40, ,
3, ,-40, ,
4, ,-40, ,
1, ,-40, ,
1, ,-40, ,
6, ,-40, ,
3, ,-40, ,
4, ,-40, ,
1, ,-40, ,
1, ,-40, ,
1, ,-40, ,
3, ,-40, ,
0, ,-40, ,
5, ,-40, ,
8, ,-40, ,
6, ,-40, ,
-1, ,-40, ,
5, ,-40, ,
5, ,-40, ,
4, ,-41, ,
3, ,-40, ,
4, ,-40, ,
8, ,-40, ,
9, ,-40, ,
4, ,-40, ,
9, ,-40, ,
4, ,-40, ,
-1, ,-40, ,
5, ,-40, ,
3, ,-40, ,
3, ,-39, ,
0, ,-40, ,
3, ,-40, ,
3, ,-40, ,
3, ,-40, ,
5, ,-40, ,
-1, ,-40, ,
1, ,-40, ,
-1, ,-40, ,
-1, ,-40, ,
6, ,-40, ,
10, ,-40, ,
10, ,-40, ,
9, ,-40, ,
5, ,-40, ,
1, ,-40, ,
0, ,-40, ,
3, ,-40, ,
-5, ,-40, ,
0, ,-40, ,
5, ,-40, ,
4, ,-40, ,
1, ,-40, ,
8, ,-40, ,
3, ,-40, ,
4, ,-41, ,
3, ,-40, ,
8, ,-40, ,
9, ,-40, ,
5, ,-40, ,
4, ,-40, ,
3, ,-40, ,
8, ,-40, ,
3, ,-40, ,
-2, ,-40, ,
8, ,-40, ,
-1, ,-40, ,
1, ,-41, ,
4, ,-40, ,
1, ,-40, ,
3, ,-40, ,
6, ,-40, ,
3, ,-40, ,
3, ,-40, ,
5, ,-40, ,
3, ,-40, ,
0, ,-40, ,
6, ,-40, ,
4, ,-40, ,
4, ,-40, ,
-1, ,-40, ,
0, ,-40, ,
1, ,-40, ,
4, ,-40, ,
-4, ,-40, ,
3, ,-40, ,
1, ,-40, ,
-1, ,-40, ,
-1, ,-40, ,
4, ,-40, ,
5, ,-40, ,
1, ,-40, ,
1, ,-40, ,
0, ,-40, ,
-4, ,-40, ,
-1, ,-40, ,
-5, ,-40, ,
-1, ,-40, ,
4, ,-40, ,
3, ,-40, ,
-4, ,-40, ,
1, ,-40, ,
3, ,-40, ,
-4, ,-41, ,
-1, ,-40, ,
0, ,-40, ,
-1, ,-40, ,
1, ,-40, ,
-4, ,-40, ,
-2, ,-40, ,
-1, ,-41, ,
-6, ,-40, ,
-10, ,-40, ,
-1, ,-40, ,
1, ,-40, ,
0, ,-40, ,
1, ,-40, ,
1, ,-40, ,
1, ,-40, ,
5, ,-40, ,
-11, ,-40, ,
-12, ,-40, ,
0, ,-40, ,
-1, ,-40, ,
-10, ,-40, ,
8, ,-40, ,
1, ,-40, ,
3, ,-40, ,
-2, ,-40, ,
-1, ,-40, ,
-1, ,-40, ,
3, ,-40, ,
-2, ,-40, ,
0, ,-40, ,
1, ,-40, ,
1, ,-40, ,
-2, ,-40, ,
-1, ,-40, ,
-2, ,-40, ,
1, ,-41, ,
-2, ,-40, ,
-1, ,-40, ,
4, ,-40, ,
4, ,-40, ,
-6, ,-40, ,
-1, ,-40, ,
-2, ,-41, ,
-6, ,-40, ,
-9, ,-40, ,
0, ,-40, ,
-2, ,-40, ,
-1, ,-41, ,
-2, ,-40, ,
-1, ,-40, ,
-2, ,-40, ,
1, ,-40, ,
-7, ,-40, ,
-2, ,-40, ,
4, ,-40, ,
0, ,-40, ,
-2, ,-40, ,
4, ,-40, ,
3, ,-40, ,
-1, ,-41, ,
-2, ,-40, ,
1, ,-40, ,
-2, ,-40, ,
-2, ,-40, ,
-4, ,-39, ,
-5, ,-40, ,
-2, ,-40, ,
-1, ,-40, ,
