src/vary_am2_1411/temp0003303.CSV

Format,1.0B,
Memory Length,10000,Memory Length,10000,
IntpDistance,0,IntpDistance,0,
Trigger Address,4999,Trigger Address,4999,
Trigger Level,-1.000E+00,Trigger Level,-1.000E+00,
Source,CH1,Source,CH2,
Vertical Units,V,Vertical Units,V,
Vertical Units Div,0,Vertical Units Div,0,
Vertical Units Extend Div,16,Vertical Units Extend Div,16,
Label,,Label,,
Probe Type,0,Probe Type,0,
Probe Ratio,1.000e+01,Probe Ratio,1.000e+00,
Vertical Scale,2.000e-02,Vertical Scale,1.000e+00,
Vertical Position,-5.120e-02,Vertical Position,2.000e-01,
Horizontal Units,S,Horizontal Units,S,
Horizontal Scale,1.000E-05,Horizontal Scale,1.000E-05,
Horizontal Position,0.000E+00,Horizontal Position,0.000E+00,
Horizontal Mode,Main,Horizontal Mode,Main,
SincET Mode,Real Time,SincET Mode,Real Time,
Sampling Period,1.000e-08,Sampling Period,1.000e-08,
Horizontal Old Scale,1.000E-05,Horizontal Old Scale,1.000E-05,
Horizontal Old Position,0.000E+00,Horizontal Old Position,0.000E+00,
Firmware,V1.23,Firmware,V1.23,
Mode,Fast,Mode,Fast,
Waveform Data,,Waveform Data,,
1, ,-40, ,
0, ,-40, ,
1, ,-40, ,
4, ,-40, ,
4, ,-40, ,
-1, ,-40, ,
3, ,-40, ,
1, ,-40, ,
-1, ,-40, ,
-1, ,-40, ,
0, ,-40, ,
0, ,-40, ,
5, ,-40, ,
-2, ,-40, ,
3, ,-40, ,
1, ,-40, ,
0, ,-40, ,
-2, ,-40, ,
5, ,-40, ,
3, ,-40, ,
0, ,-40, ,
0, ,-40, ,
0, ,-40, ,
0, ,-40, ,
1, ,-40, ,
-7, ,-40, ,
1, ,-40, ,
-1, ,-40, ,
-2, ,-40, ,
-2, ,-40, ,
1, ,-40, ,
3, ,-40, ,
0, ,-40, ,
0, ,-40, ,
0, ,-40, ,
1, ,-40, ,
3, ,-40, ,
0, ,-40, ,
6, ,-40, ,
8, ,-40, ,
6, ,-40, ,
3, ,-40, ,
5, ,-40, ,
1, ,-40, ,
0, ,-40, ,
-1, ,-40, ,
1, ,-40, ,
1, ,-40, ,
3, ,-40, ,
-1, ,-40, ,
4, ,-40, ,
4, ,-40, ,
3, ,-40, ,
1, ,-40, ,
8, ,-40, ,
4, ,-40, ,
4, ,-40, ,
3, ,-40, ,
5, ,-40, ,
6, ,-40, ,
5, ,-40, ,
1, ,-39, ,
3, ,-40, ,
1, ,-40, ,
4, ,-40, ,
0, ,-40, ,
6, ,-40, ,
6, ,-40, ,
5, ,-40, ,
6, ,-40, ,
9, ,-40, ,
6, ,-40, ,
6, ,-40, ,
0, ,-40, ,
3, ,-40, ,
6, ,-40, ,
5, ,-40, ,
4, ,-40, ,
11, ,-40, ,
9, ,-40, ,
5, ,-40, ,
1, ,-40, ,
1, ,-40, ,
4, ,-40, ,
4, ,-40, ,
-2, ,-40, ,
4, ,-41, ,
8, ,-40, ,
5, ,-39, ,
1, ,-40, ,
3, ,-41, ,
4, ,-40, ,
1, ,-40, ,
1, ,-40, ,
4, ,-40, ,
3, ,-40, ,
4, ,-40, ,
-1, ,-40, ,
1, ,-41, ,
4, ,-40, ,
1, ,-40, ,
0, ,-40, ,
5, ,-40, ,
1, ,-40, ,
8, ,-40, ,
4, ,-40, ,
6, ,-40, ,
4, ,-40, ,
5, ,-40, ,
-1, ,-40, ,
1, ,-40, ,
3, ,-40, ,
4, ,-40, ,
3, ,-40, ,
9, ,-40, ,
8, ,-40, ,
9, ,-40, ,
5, ,-40, ,
8, ,-40, ,
5, ,-40, ,
6, ,-40, ,
4, ,-40, ,
6, ,-40, ,
8, ,-40, ,
9, ,-40, ,
3, ,-40, ,
4, ,-40, ,
4, ,-40, ,
3, ,-40, ,
3, ,-40, ,
1, ,-40, ,
4, ,-40, ,
5, ,-40, ,
-1, ,-40, ,
1, ,-41, ,
1, ,-40, ,
0, ,-40, ,
-2, ,-40, ,
5, ,-40, ,
3, ,-40, ,
1, ,-40, ,
3, ,-40, ,
5, ,-40, ,
5, ,-40, ,
6, ,-40, ,
-2, ,-40, ,
3, ,-40, ,
3, ,-40, ,
-1, ,-40, ,
-5, ,-40, ,
-1, ,-40, ,
3, ,-40, ,
3, ,-40, ,
-2, ,-40, ,
5, ,-40, ,
5, ,-40, ,
8, ,-40, ,
3, ,-40, ,
3, ,-41, ,
4, ,-40, ,
-1, ,-40, ,
-2, ,-40, ,
1, ,-40, ,
1, ,-40, ,
-2, ,-40, ,
-2, ,-40, ,
1, ,-40, ,
-1, ,-40, ,
0, ,-40, ,
-5, ,-40, ,
0, ,-40, ,
4, ,-40, ,
0, ,-40, ,
-4, ,-40, ,
3, ,-40, ,
-1, ,-40, ,
-1, ,-40, ,
-1, ,-40, ,
1, ,-40, ,
1, ,-40, ,
1, ,-40, ,
-4, ,-39, ,
0, ,-41, ,
3, ,-40, ,
-2, ,-40, ,
-5, ,-40, ,
-1, ,-40, ,
-2, ,-40, ,
-1, ,-40, ,
-1, ,-40, ,
0, ,-40, ,
-1, ,-40, ,
-1, ,-40, ,
-5, ,-40, ,
-1, ,-41, ,
-1, ,-40, ,
-1, ,-40, ,
-5, ,-40, ,
1, ,-40, ,
1, ,-40, ,
-1, ,-40, ,
-5, ,-40, ,
-1, ,-40, ,
-1, ,-40, ,
3, ,-40, ,
-4, ,-40, ,
0, ,-40, ,
0, ,-40, ,
0, ,-40, ,
-4, ,-40, ,
0, ,-40, ,
0, ,-40, ,
-2, ,-40, ,
-5, ,-40, ,
-2, ,-40, ,
0, ,-40, ,
4, ,-40, ,
-1, ,-40, ,
0, ,-40, ,
4, ,-40, ,
-2, ,-40, ,
-4, ,-40, ,
1, ,-40, ,
-1, ,-40, ,
0, ,-40, ,
-1, ,-40, ,
-1, ,-40, ,
0, ,-40, ,
1, ,-40, ,
-1, ,-40, ,
0, ,-40, ,
1, ,-40, ,
-1, ,-40, ,
-4, ,-40, ,
1, ,-40, ,
-1, ,-40, ,
0, ,-40, ,
-1, ,-40, ,
0, ,-40, ,
3, ,-40, ,
0, ,-40, ,
-5, ,-40, ,
-1, ,-41, ,
-1, ,-40, ,
-2, ,-40, ,
-7, ,-40, ,
-2, ,-40, ,
-2, ,-40, ,
-4, ,-40, ,
-5, ,-40, ,
-4, ,-40, ,
-2, ,-40, ,
-2, ,-40, ,
-7, ,-40, ,
0, ,-40, ,
0, ,-40, ,
0, ,-40, ,
-4, ,-40, ,
1, ,-40, ,
1, ,-40, ,
-4, ,-40, ,
-1, ,-40, ,
3, ,-40, ,
4, ,-40, ,
5, ,-40, ,
-2, ,-40, ,
3, ,-40, ,
3, ,-40, ,
-2, ,-40, ,
-5, ,-40, ,
-4, ,-40, ,
-5, ,-40, ,
-2, ,-40, ,
-5, ,-40, ,
-1, ,-40, ,
1, ,-40, ,
3, ,-40, ,
-2, ,-40, ,
1, ,-40, ,
5, ,-40, ,
-1, ,-40, ,
-1, ,-40, ,
5, ,-40, ,
1, ,-40, ,
-2, ,-40, ,
0, ,-40, ,
-1, ,-40, ,
-6, ,-40, ,
1, ,-40, ,
-5, ,-40, ,
-1, ,-40, ,
5, ,-40, ,
3, ,-40, ,
0, ,-40, ,
6, ,-40, ,
3, ,-40, ,
3, ,-40, ,
-1, ,-40, ,
0, ,-40, ,
4, ,-40, ,
3, ,-40, ,
0, ,-40, ,
5, ,-41, ,
6, ,-40, ,
3, ,-40, ,
-4, ,-40, ,
1, ,-41, ,
0, ,-40, ,
-2, ,-40, ,
-4, ,-38, ,
0, ,-31, ,
8, ,-22, ,
9, ,-11, ,
5, ,-3, ,
15, ,4, ,
11, ,12, ,
6, ,17, ,
3, ,22, ,
8, ,27, ,
10, ,30, ,
13, ,34, ,
6, ,36, ,
4, ,39, ,
4, ,41, ,
5, ,42, ,
-2, ,44, ,
4, ,46, ,
4, ,46, ,
4, ,48, ,
3, ,49, ,
8, ,50, ,
5, ,48, ,
4, ,51, ,
1, ,51, ,
0, ,51, ,
-2, ,51, ,
5, ,52, ,
-1, ,51, ,
4, ,53, ,
8, ,52, ,
3, ,52, ,
1, ,53, ,
5, ,53, ,
0, ,52, ,
1, ,53, ,
-1, ,52, ,
3, ,53, ,
5, ,53, ,
8, ,54, ,
4, ,53, ,
5, ,54, ,
5, ,53, ,
-1, ,53, ,
0, ,54, ,
8, ,54, ,
4, ,52, ,
6, ,54, ,
4, ,53, ,
6, ,53, ,
3, ,53, ,
4, ,53, ,
1, ,52, ,
0, ,54, ,
3, ,53, ,
6, ,53, ,
5, ,53, ,
3, ,53, ,
0, ,52, ,
3, ,54, ,
0, ,53, ,
-1, ,53, ,
0, ,53, ,
1, ,53, ,
-4, ,52, ,
-1, ,54, ,
0, ,52, ,
3, ,53, ,
-4, ,53, ,
5, ,53, ,
4, ,51, ,
4, ,54, ,
4, ,53, ,
5, ,53, ,
4, ,53, ,
5, ,53, ,
-1, ,52, ,
4, ,53, ,
4, ,53, ,
3, ,53, ,
1, ,53, ,
1, ,53, ,
-1, ,52, ,
1, ,54, ,
1, ,53, ,
5, ,53, ,
5, ,53, ,
5, ,53, ,
-1, ,53, ,
3, ,54, ,
3, ,52, ,
0, ,52, ,
-1, ,53, ,
4, ,53, ,
1, ,51, ,
0, ,53, ,
3, ,53, ,
-1, ,52, ,
-4, ,53, ,
-1, ,53, ,
-7, ,52, ,
-4, ,54, ,
0, ,52, ,
-1, ,53, ,
-2, ,53, ,
4, ,53, ,
5, ,51, ,
8, ,53, ,
5, ,53, ,
4, ,53, ,
4, ,53, ,
3, ,53, ,
-2, ,52, ,
0, ,54, ,
0, ,52, ,
-4, ,53, ,
-6, ,53, ,
-1, ,53, ,
-2, ,52, ,
-1, ,54, ,
-1, ,53, ,
1, ,52, ,
-1, ,53, ,
-2, ,53, ,
-2, ,52, ,
0, ,54, ,
-1, ,52, ,
-2, ,53, ,
-9, ,53, ,
-1, ,53, ,
-2, ,51, ,
0, ,53, ,
3, ,52, ,
1, ,53, ,
6, ,53, ,
8, ,53, ,
5, ,51, ,
8, ,53, ,
8, ,52, ,
6, ,53, ,
1, ,53, ,
5, ,53, ,
4, ,51, ,
8, ,53, ,
-4, ,53, ,
6, ,52, ,
5, ,53, ,
1, ,53, ,
6, ,52, ,
10, ,53, ,
8, ,53, ,
6, ,53, ,
4, ,53, ,
5, ,53, ,
1, ,51, ,
4, ,53, ,
-1, ,53, ,
0, ,52, ,
3, ,53, ,
0, ,53, ,
-4, ,52, ,
-1, ,53, ,
-2, ,52, ,
-7, ,53, ,
-7, ,53, ,
0, ,52, ,
-2, ,51, ,
-1, ,53, ,
-4, ,52, ,
-2, ,52, ,
-1, ,53, ,
-4, ,53, ,
-4, ,52, ,
3, ,53, ,
-1, ,52, ,
-2, ,53, ,
-2, ,53, ,
0, ,53, ,
-1, ,51, ,
-2, ,53, ,
-4, ,53, ,
-2, ,53, ,
-5, ,53, ,
-4, ,53, ,
-11, ,51, ,
-5, ,53, ,
-6, ,52, ,
-6, ,53, ,
-11, ,53, ,
0, ,53, ,
1, ,51, ,
-1, ,53, ,
-1, ,53, ,
3, ,52, ,
1, ,52, ,
5, ,53, ,
-5, ,51, ,
1, ,53, ,
3, ,52, ,
0, ,53, ,
-5, ,53, ,
0, ,53, ,
-2, ,51, ,
-1, ,53, ,
-5, ,52, ,
0, ,52, ,
1, ,52, ,
8, ,53, ,
4, ,52, ,
9, ,54, ,
9, ,52, ,
5, ,53, ,
0, ,53, ,
8, ,52, ,
4, ,51, ,
4, ,53, ,
3, ,52, ,
6, ,53, ,
6, ,52, ,
4, ,53, ,
-1, ,52, ,
1, ,53, ,
1, ,52, ,
0, ,53, ,
-2, ,53, ,
4, ,53, ,
3, ,51, ,
5, ,53, ,
3, ,53, ,
4, ,52, ,
4, ,53, ,
6, ,53, ,
-1, ,52, ,
4, ,53, ,
1, ,52, ,
0, ,53, ,
-1, ,53, ,
5, ,52, ,
-2, ,51, ,
-2, ,53, ,
-5, ,52, ,
-6, ,52, ,
-4, ,52, ,
1, ,52, ,
0, ,52, ,
5, ,53, ,
4, ,52, ,
4, ,52, ,
1, ,53, ,
4, ,53, ,
1, ,51, ,
0, ,53, ,
1, ,53, ,
3, ,52, ,
4, ,53, ,
6, ,53, ,
1, ,51, ,
4, ,53, ,
3, ,52, ,
3, ,52, ,
-2, ,53, ,
0, ,53, ,
-1, ,51, ,
0, ,53, ,
0, ,53, ,
1, ,52, ,
-1, ,52, ,
0, ,53, ,
-5, ,52, ,
-2, ,53, ,
1, ,52, ,
-1, ,53, ,
-5, ,53, ,
4, ,53, ,
-1, ,51, ,
-1, ,53, ,
-2, ,52, ,
-2, ,53, ,
-1, ,52, ,
-2, ,53, ,
-2, ,52, ,
4, ,53, ,
5, ,52, ,
5, ,53, ,
3, ,53, ,
9, ,53, ,
4, ,51, ,
4, ,53, ,
-1, ,52, ,
3, ,53, ,
3, ,53, ,
4, ,53, ,
1, ,52, ,
5, ,53, ,
8, ,52, ,
5, ,53, ,
1, ,53, ,
4, ,53, ,
1, ,51, ,
4, ,53, ,
5, ,53, ,
3, ,52, ,
3, ,52, ,
1, ,53, ,
-2, ,51, ,
3, ,53, ,
3, ,52, ,
1, ,52, ,
-1, ,53, ,
5, ,52, ,
4, ,51, ,
5, ,53, ,
3, ,53, ,
4, ,53, ,
3, ,52, ,
3, ,53, ,
-4, ,52, ,
5, ,53, ,
5, ,52, ,
4, ,53, ,
1, ,53, ,
6, ,53, ,
3, ,51, ,
1, ,53, ,
-2, ,52, ,
0, ,52, ,
0, ,53, ,
3, ,52, ,
1, ,52, ,
4, ,53, ,
6, ,53, ,
4, ,52, ,
3, ,53, ,
6, ,53, ,
-2, ,51, ,
-1, ,53, ,
-1, ,52, ,
-2, ,53, ,
-6, ,52, ,
-2, ,53, ,
-7, ,52, ,
-7, ,53, ,
-5, ,52, ,
-6, ,53, ,
-9, ,53, ,
-2, ,53, ,
-2, ,51, ,
0, ,53, ,
-1, ,52, ,
-2, ,52, ,
1, ,53, ,
0, ,52, ,
-2, ,51, ,
0, ,53, ,
1, ,52, ,
1, ,52, ,
-4, ,53, ,
6, ,53, ,
3, ,51, ,
3, ,54, ,
4, ,52, ,
4, ,52, ,
0, ,53, ,
5, ,53, ,
1, ,52, ,
6, ,53, ,
5, ,52, ,
5, ,52, ,
3, ,53, ,
3, ,52, ,
1, ,51, ,
3, ,53, ,
1, ,52, ,
1, ,52, ,
0, ,52, ,
3, ,53, ,
0, ,51, ,
3, ,53, ,
3, ,52, ,
-2, ,53, ,
-4, ,53, ,
1, ,53, ,
0, ,51, ,
-2, ,53, ,
-5, ,52, ,
0, ,52, ,
-2, ,52, ,
3, ,52, ,
-1, ,52, ,
1, ,53, ,
5, ,52, ,
1, ,52, ,
0, ,52, ,
4, ,53, ,
-2, ,51, ,
3, ,53, ,
0, ,53, ,
3, ,52, ,
0, ,52, ,
1, ,53, ,
-2, ,52, ,
-1, ,53, ,
1, ,52, ,
0, ,53, ,
-1, ,53, ,
6, ,53, ,
3, ,51, ,
4, ,53, ,
-1, ,53, ,
0, ,52, ,
0, ,53, ,
1, ,53, ,
-5, ,52, ,
-2, ,53, ,
-1, ,52, ,
-2, ,52, ,
-6, ,53, ,
1, ,53, ,
-5, ,51, ,
-2, ,53, ,
-4, ,52, ,
-2, ,52, ,
0, ,52, ,
1, ,53, ,
-5, ,52, ,
1, ,53, ,
-4, ,52, ,
-4, ,52, ,
-5, ,53, ,
5, ,53, ,
-4, ,51, ,
0, ,53, ,
4, ,53, ,
4, ,53, ,
4, ,53, ,
5, ,53, ,
-2, ,52, ,
1, ,53, ,
1, ,52, ,
0, ,52, ,
-2, ,53, ,
4, ,53, ,
1, ,51, ,
-1, ,53, ,
-2, ,52, ,
1, ,52, ,
-1, ,52, ,
-1, ,53, ,
-9, ,52, ,
-2, ,53, ,
1, ,52, ,
-1, ,52, ,
-4, ,53, ,
3, ,53, ,
0, ,51, ,
3, ,53, ,
-1, ,53, ,
1, ,52, ,
0, ,53, ,
0, ,53, ,
-5, ,52, ,
3, ,53, ,
1, ,52, ,
-2, ,52, ,
-4, ,53, ,
4, ,53, ,
3, ,51, ,
9, ,53, ,
6, ,52, ,
8, ,53, ,
10, ,53, ,
10, ,53, ,
6, ,52, ,
8, ,54, ,
6, ,52, ,
6, ,53, ,
3, ,53, ,
4, ,53, ,
0, ,51, ,
4, ,53, ,
1, ,53, ,
3, ,53, ,
1, ,52, ,
4, ,53, ,
-4, ,52, ,
0, ,53, ,
-1, ,52, ,
-2, ,53, ,
-4, ,53, ,
4, ,53, ,
3, ,51, ,
0, ,53, ,
1, ,52, ,
3, ,52, ,
0, ,53, ,
1, ,53, ,
-5, ,52, ,
1, ,53, ,
4, ,52, ,
1, ,53, ,
-2, ,53, ,
1, ,53, ,
-4, ,51, ,
-1, ,53, ,
0, ,52, ,
3, ,52, ,
1, ,53, ,
8, ,53, ,
5, ,52, ,
9, ,53, ,
5, ,52, ,
3, ,53, ,
-1, ,53, ,
3, ,53, ,
0, ,51, ,
3, ,53, ,
4, ,52, ,
6, ,52, ,
3, ,53, ,
4, ,52, ,
-1, ,52, ,
4, ,53, ,
0, ,52, ,
1, ,52, ,
1, ,53, ,
6, ,53, ,
5, ,51, ,
3, ,53, ,
-1, ,52, ,
1, ,52, ,
0, ,53, ,
3, ,53, ,
0, ,52, ,
4, ,53, ,
5, ,52, ,
4, ,53, ,
-1, ,53, ,
5, ,53, ,
0, ,51, ,
5, ,53, ,
1, ,53, ,
3, ,52, ,
6, ,53, ,
6, ,53, ,
4, ,51, ,
8, ,53, ,
5, ,52, ,
4, ,53, ,
0, ,53, ,
3, ,53, ,
6, ,51, ,
4, ,53, ,
3, ,53, ,
5, ,52, ,
5, ,52, ,
8, ,53, ,
4, ,52, ,
4, ,53, ,
4, ,52, ,
1, ,53, ,
0, ,53, ,
3, ,53, ,
3, ,51, ,
3, ,53, ,
-1, ,52, ,
0, ,53, ,
-2, ,52, ,
3, ,53, ,
-4, ,52, ,
4, ,53, ,
5, ,52, ,
4, ,52, ,
5, ,53, ,
10, ,53, ,
4, ,51, ,
5, ,53, ,
-2, ,52, ,
3, ,52, ,
-1, ,53, ,
3, ,53, ,
0, ,52, ,
5, ,53, ,
6, ,52, ,
4, ,52, ,
0, ,53, ,
5, ,53, ,
1, ,51, ,
4, ,53, ,
0, ,53, ,
3, ,53, ,
4, ,53, ,
8, ,53, ,
4, ,52, ,
4, ,53, ,
4, ,52, ,
3, ,53, ,
-4, ,53, ,
0, ,53, ,
-4, ,51, ,
-1, ,53, ,
-1, ,53, ,
0, ,52, ,
0, ,52, ,
1, ,52, ,
-7, ,52, ,
1, ,53, ,
0, ,52, ,
0, ,53, ,
1, ,53, ,
5, ,53, ,
4, ,51, ,
1, ,53, ,
3, ,53, ,
1, ,52, ,
0, ,52, ,
1, ,53, ,
-1, ,52, ,
4, ,53, ,
4, ,52, ,
1, ,52, ,
-1, ,53, ,
4, ,52, ,
0, ,51, ,
0, ,53, ,
-2, ,53, ,
0, ,52, ,
-1, ,52, ,
4, ,53, ,
-4, ,52, ,
4, ,53, ,
4, ,52, ,
1, ,52, ,
-2, ,53, ,
5, ,52, ,
-1, ,51, ,
1, ,53, ,
-1, ,52, ,
0, ,52, ,
-5, ,53, ,
-2, ,53, ,
-2, ,51, ,
0, ,53, ,
0, ,52, ,
-2, ,53, ,
-6, ,53, ,
1, ,53, ,
-2, ,51, ,
-1, ,53, ,
-1, ,53, ,
-1, ,52, ,
-2, ,53, ,
-2, ,53, ,
-6, ,52, ,
-2, ,54, ,
0, ,53, ,
1, ,53, ,
1, ,53, ,
6, ,52, ,
3, ,51, ,
0, ,53, ,
1, ,52, ,
0, ,52, ,
0, ,53, ,
1, ,53, ,
-7, ,52, ,
0, ,53, ,
1, ,52, ,
3, ,53, ,
-4, ,53, ,
1, ,52, ,
0, ,51, ,
-1, ,53, ,
-1, ,53, ,
-1, ,53, ,
1, ,52, ,
4, ,53, ,
-4, ,52, ,
3, ,53, ,
0, ,52, ,
-1, ,52, ,
-4, ,53, ,
0, ,53, ,
-1, ,51, ,
1, ,54, ,
-1, ,52, ,
1, ,53, ,
-1, ,52, ,
-2, ,53, ,
-9, ,52, ,
-2, ,53, ,
0, ,52, ,
-1, ,53, ,
-1, ,53, ,
4, ,53, ,
4, ,51, ,
4, ,53, ,
3, ,53, ,
4, ,52, ,
4, ,53, ,
4, ,53, ,
-4, ,52, ,
-2, ,53, ,
0, ,52, ,
0, ,53, ,
-2, ,53, ,
5, ,53, ,
4, ,51, ,
4, ,53, ,
-1, ,53, ,
0, ,53, ,
1, ,53, ,
1, ,53, ,
-2, ,52, ,
-1, ,53, ,
1, ,52, ,
-1, ,53, ,
-4, ,53, ,
0, ,53, ,
-1, ,51, ,
-2, ,53, ,
-1, ,53, ,
-1, ,52, ,
-4, ,52, ,
-2, ,53, ,
-6, ,52, ,
-1, ,53, ,
-4, ,52, ,
-5, ,52, ,
-6, ,53, ,
3, ,53, ,
0, ,51, ,
-1, ,53, ,
3, ,53, ,
4, ,52, ,
1, ,53, ,
3, ,53, ,
-5, ,51, ,
0, ,53, ,
-1, ,52, ,
-2, ,52, ,
-4, ,53, ,
1, ,53, ,
-2, ,51, ,
-1, ,53, ,
-4, ,53, ,
1, ,53, ,
-1, ,53, ,
4, ,53, ,
-2, ,52, ,
0, ,53, ,
1, ,52, ,
1, ,53, ,
0, ,53, ,
1, ,53, ,
-1, ,51, ,
-1, ,54, ,
-2, ,53, ,
1, ,52, ,
0, ,52, ,
0, ,53, ,
-1, ,52, ,
1, ,53, ,
1, ,52, ,
0, ,52, ,
-1, ,53, ,
3, ,53, ,
3, ,51, ,
4, ,53, ,
5, ,53, ,
6, ,52, ,
6, ,53, ,
8, ,53, ,
0, ,51, ,
4, ,53, ,
3, ,52, ,
0, ,52, ,
-1, ,53, ,
6, ,53, ,
4, ,51, ,
5, ,53, ,
1, ,53, ,
5, ,51, ,
5, ,46, ,
1, ,35, ,
-6, ,25, ,
-2, ,16, ,
-2, ,8, ,
-4, ,2, ,
-7, ,-4, ,
0, ,-9, ,
-4, ,-13, ,
-6, ,-18, ,
-5, ,-21, ,
-1, ,-23, ,
-4, ,-26, ,
3, ,-28, ,
-2, ,-29, ,
4, ,-31, ,
5, ,-32, ,
3, ,-33, ,
-2, ,-35, ,
4, ,-36, ,
-1, ,-37, ,
-1, ,-37, ,
-2, ,-38, ,
0, ,-38, ,
0, ,-39, ,
4, ,-39, ,
-4, ,-39, ,
4, ,-40, ,
5, ,-40, ,
1, ,-40, ,
0, ,-40, ,
3, ,-40, ,
3, ,-40, ,
3, ,-40, ,
3, ,-41, ,
3, ,-40, ,
4, ,-40, ,
3, ,-41, ,
-4, ,-40, ,
-2, ,-41, ,
1, ,-41, ,
0, ,-41, ,
-1, ,-41, ,
4, ,-41, ,
4, ,-41, ,
3, ,-41, ,
0, ,-41, ,
3, ,-40, ,
4, ,-41, ,
3, ,-41, ,
0, ,-40, ,
3, ,-41, ,
5, ,-40, ,
4, ,-40, ,
-1, ,-40, ,
4, ,-40, ,
0, ,-40, ,
-1, ,-41, ,
-1, ,-41, ,
3, ,-40, ,
3, ,-41, ,
6, ,-40, ,
4, ,-41, ,
6, ,-41, ,
6, ,-40, ,
4, ,-40, ,
1, ,-40, ,
8, ,-41, ,
5, ,-40, ,
4, ,-41, ,
5, ,-41, ,
5, ,-40, ,
5, ,-41, ,
6, ,-40, ,
3, ,-40, ,
5, ,-41, ,
4, ,-40, ,
1, ,-40, ,
0, ,-40, ,
4, ,-41, ,
1, ,-40, ,
0, ,-40, ,
0, ,-41, ,
3, ,-40, ,
1, ,-40, ,
5, ,-40, ,
0, ,-41, ,
5, ,-41, ,
8, ,-40, ,
4, ,-40, ,
3, ,-40, ,
6, ,-41, ,
6, ,-40, ,
4, ,-40, ,
0, ,-40, ,
1, ,-40, ,
3, ,-40, ,
4, ,-40, ,
-1, ,-40, ,
5, ,-41, ,
8, ,-40, ,
-1, ,-40, ,
-2, ,-40, ,
6, ,-40, ,
0, ,-40, ,
0, ,-40, ,
1, ,-40, ,
0, ,-40, ,
3, ,-40, ,
4, ,-40, ,
3, ,-40, ,
3, ,-41, ,
5, ,-40, ,
3, ,-40, ,
-4, ,-40, ,
0, ,-40, ,
1, ,-40, ,
0, ,-40, ,
-1, ,-40, ,
0, ,-40, ,
3, ,-40, ,
3, ,-40, ,
-2, ,-40, ,
3, ,-41, ,
-1, ,-40, ,
-5, ,-40, ,
-11, ,-40, ,
-10, ,-40, ,
-11, ,-40, ,
-15, ,-40, ,
-15, ,-40, ,
-9, ,-40, ,
-4, ,-40, ,
-1, ,-40, ,
-2, ,-40, ,
8, ,-41, ,
15, ,-40, ,
19, ,-40, ,
11, ,-40, ,
9, ,-40, ,
6, ,-40, ,
6, ,-40, ,
-2, ,-40, ,
-1, ,-40, ,
0, ,-40, ,
1, ,-40, ,
-4, ,-40, ,
1, ,-40, ,
4, ,-40, ,
-1, ,-40, ,
-2, ,-40, ,
1, ,-40, ,
0, ,-40, ,
0, ,-40, ,
0, ,-40, ,
-2, ,-40, ,
-2, ,-40, ,
-2, ,-40, ,
-6, ,-40, ,
-2, ,-40, ,
1, ,-40, ,
-1, ,-40, ,
-4, ,-40, ,
1, ,-40, ,
0, ,-40, ,
-2, ,-40, ,
-1, ,-40, ,
-2, ,-40, ,
-1, ,-40, ,
-2, ,-40, ,
-7, ,-40, ,
-1, ,-40, ,
0, ,-40, ,
1, ,-40, ,
-1, ,-40, ,
5, ,-40, ,
6, ,-40, ,
1, ,-40, ,
0, ,-40, ,
0, ,-40, ,
-6, ,-40, ,
-4, ,-40, ,
-9, ,-40, ,
-2, ,-41, ,
-1, ,-40, ,
-2, ,-40, ,
-6, ,-40, ,
1, ,-40, ,
-1, ,-40, ,
1, ,-40, ,
-1, ,-40, ,
0, ,-40, ,
1, ,-40, ,
3, ,-40, ,
-2, ,-40, ,
1, ,-40, ,
-1, ,-40, ,
-2, ,-40, ,
-6, ,-40, ,
-4, ,-40, ,
-4, ,-40, ,
-4, ,-40, ,
-4, ,-40, ,
0, ,-40, ,
1, ,-40, ,
1, ,-40, ,
-6, ,-40, ,
4, ,-40, ,
4, ,-40, ,
4, ,-40, ,
1, ,-40, ,
6, ,-40, ,
5, ,-40, ,
5, ,-40, ,
0, ,-40, ,
1, ,-40, ,
1, ,-40, ,
0, ,-40, ,
-5, ,-40, ,
-1, ,-41, ,
0, ,-40, ,
-1, ,-40, ,
4, ,-40, ,
3, ,-40, ,
0, ,-40, ,
1, ,-40, ,
3, ,-40, ,
3, ,-40, ,
5, ,-40, ,
5, ,-40, ,
4, ,-40, ,
0, ,-40, ,
5, ,-40, ,
0, ,-40, ,
-1, ,-40, ,
5, ,-40, ,
0, ,-40, ,
1, ,-40, ,
1, ,-40, ,
4, ,-40, ,
5, ,-40, ,
4, ,-40, ,
0, ,-40, ,
3, ,-41, ,
1, ,-40, ,
0, ,-40, ,
-4, ,-40, ,
0, ,-40, ,
5, ,-40, ,
3, ,-40, ,
1, ,-40, ,
3, ,-40, ,
3, ,-40, ,
0, ,-40, ,
-4, ,-40, ,
-1, ,-40, ,
3, ,-40, ,
1, ,-40, ,
-1, ,-40, ,
4, ,-40, ,
3, ,-40, ,
0, ,-40, ,
-1, ,-40, ,
0, ,-40, ,
0, ,-40, ,
-1, ,-40, ,
-2, ,-40, ,
-1, ,-40, ,
4, ,-40, ,
0, ,-40, ,
-1, ,-40, ,
1, ,-40, ,
-5, ,-40, ,
0, ,-40, ,
0, ,-40, ,
3, ,-40, ,
1, ,-40, ,
4, ,-40, ,
0, ,-40, ,
-1, ,-41, ,
1, ,-40, ,
-2, ,-40, ,
-5, ,-40, ,
4, ,-40, ,
3, ,-40, ,
3, ,-40, ,
4, ,-40, ,
5, ,-40, ,
4, ,-40, ,
1, ,-40, ,
-1, ,-40, ,
3, ,-40, ,
4, ,-40, ,
3, ,-40, ,
-4, ,-40, ,
4, ,-40, ,
3, ,-40, ,
1, ,-40, ,
1, ,-40, ,
1, ,-40, ,
3, ,-40, ,
6, ,-40, ,
-1, ,-40, ,
3, ,-41, ,
3, ,-40, ,
3, ,-40, ,
-2, ,-40, ,
8, ,-40, ,
4, ,-40, ,
3, ,-40, ,
3, ,-40, ,
4, ,-40, ,
4, ,-40, ,
6, ,-40, ,
1, ,-40, ,
5, ,-40, ,
6, ,-40, ,
4, ,-40, ,
1, ,-40, ,
0, ,-40, ,
1, ,-40, ,
1, ,-40, ,
-1, ,-40, ,
4, ,-40, ,
4, ,-40, ,
4, ,-40, ,
0, ,-40, ,
6, ,-41, ,
6, ,-40, ,
4, ,-40, ,
3, ,-40, ,
8, ,-40, ,
10, ,-40, ,
14, ,-40, ,
11, ,-40, ,
14, ,-40, ,
8, ,-40, ,
3, ,-40, ,
-1, ,-40, ,
1, ,-41, ,
4, ,-40, ,
1, ,-40, ,
-1, ,-40, ,
6, ,-40, ,
4, ,-40, ,
3, ,-40, ,
1, ,-40, ,
1, ,-40, ,
6, ,-40, ,
8, ,-40, ,
5, ,-40, ,
5, ,-41, ,
8, ,-40, ,
3, ,-40, ,
-1, ,-40, ,
3, ,-40, ,
0, ,-40, ,
0, ,-40, ,
0, ,-40, ,
1, ,-40, ,
6, ,-40, ,
6, ,-40, ,
0, ,-40, ,
5, ,-40, ,
5, ,-40, ,
5, ,-40, ,
-1, ,-40, ,
5, ,-40, ,
3, ,-40, ,
3, ,-40, ,
1, ,-40, ,
3, ,-40, ,
8, ,-40, ,
9, ,-40, ,
-4, ,-40, ,
4, ,-40, ,
4, ,-40, ,
4, ,-40, ,
0, ,-40, ,
3, ,-40, ,
5, ,-40, ,
3, ,-40, ,
0, ,-40, ,
4, ,-40, ,
4, ,-40, ,
5, ,-40, ,
0, ,-40, ,
1, ,-40, ,
6, ,-40, ,
3, ,-40, ,
1, ,-40, ,
4, ,-40, ,
-1, ,-40, ,
-2, ,-40, ,
-4, ,-40, ,
1, ,-40, ,
3, ,-40, ,
3, ,-40, ,
-1, ,-40, ,
0, ,-40, ,
4, ,-40, ,
1, ,-40, ,
-5, ,-40, ,
1, ,-40, ,
0, ,-40, ,
-1, ,-40, ,
-5, ,-40, ,
-4, ,-40, ,
-5, ,-40, ,
-4, ,-40, ,
-6, ,-40, ,
-4, ,-40, ,
-1, ,-40, ,
-1, ,-40, ,
-4, ,-40, ,
0, ,-40, ,
-1, ,-40, ,
-1, ,-40, ,
0, ,-40, ,
0, ,-40, ,
1, ,-40, ,
3, ,-40, ,
-5, ,-40, ,
0, ,-40, ,
-2, ,-40, ,
-1, ,-40, ,
-5, ,-40, ,
-2, ,-40, ,
-2, ,-40, ,
-5, ,-40, ,
-7, ,-40, ,
-7, ,-40, ,
-5, ,-40, ,
-4, ,-40, ,
-6, ,-40, ,
1, ,-40, ,
3, ,-40, ,
-1, ,-40, ,
-6, ,-40, ,
-2, ,-40, ,
-5, ,-40, ,
-6, ,-40, ,
-9, ,-40, ,
-5, ,-40, ,
-5, ,-40, ,
-5, ,-40, ,
-7, ,-40, ,
-2, ,-40, ,
0, ,-40, ,
-1, ,-40, ,
-4, ,-40, ,
1, ,-40, ,
-1, ,-40, ,
-2, ,-40, ,
-4, ,-40, ,
0, ,-40, ,
-2, ,-40, ,
-4, ,-40, ,
-9, ,-40, ,
-7, ,-41, ,
-4, ,-40, ,
-5, ,-40, ,
-6, ,-40, ,
1, ,-40, ,
-1, ,-40, ,
-2, ,-40, ,
-2, ,-40, ,
-1, ,-40, ,
-1, ,-40, ,
-2, ,-40, ,
-2, ,-40, ,
-2, ,-40, ,
0, ,-40, ,
1, ,-40, ,
-4, ,-40, ,
0, ,-40, ,
-1, ,-40, ,
1, ,-40, ,
0, ,-40, ,
-1, ,-40, ,
1, ,-40, ,
0, ,-40, ,
-4, ,-40, ,
0, ,-41, ,
1, ,-40, ,
-2, ,-40, ,
-5, ,-40, ,
0, ,-40, ,
0, ,-40, ,
-2, ,-40, ,
-2, ,-40, ,
0, ,-40, ,
0, ,-40, ,
3, ,-40, ,
-2, ,-40, ,
0, ,-41, ,
-1, ,-40, ,
-2, ,-40, ,
-4, ,-40, ,
1, ,-40, ,
3, ,-40, ,
3, ,-40, ,
0, ,-40, ,
1, ,-40, ,
0, ,-40, ,
1, ,-40, ,
-6, ,-40, ,
-2, ,-41, ,
1, ,-40, ,
-1, ,-40, ,
-1, ,-40, ,
3, ,-40, ,
3, ,-40, ,
3, ,-40, ,
0, ,-40, ,
0, ,-40, ,
1, ,-40, ,
0, ,-40, ,
-1, ,-40, ,
1, ,-40, ,
3, ,-40, ,
1, ,-40, ,
-1, ,-40, ,
4, ,-40, ,
1, ,-40, ,
1, ,-40, ,
0, ,-40, ,
3, ,-40, ,
5, ,-40, ,
3, ,-40, ,
3, ,-40, ,
6, ,-40, ,
5, ,-40, ,
3, ,-39, ,
0, ,-40, ,
4, ,-40, ,
4, ,-40, ,
4, ,-40, ,
4, ,-40, ,
5, ,-40, ,
6, ,-40, ,
9, ,-40, ,
-1, ,-40, ,
1, ,-41, ,
4, ,-40, ,
3, ,-40, ,
0, ,-40, ,
4, ,-40, ,
6, ,-40, ,
5, ,-40, ,
5, ,-40, ,
5, ,-40, ,
4, ,-40, ,
5, ,-40, ,
6, ,-40, ,
8, ,-41, ,
4, ,-40, ,
6, ,-40, ,
5, ,-40, ,
8, ,-40, ,
6, ,-40, ,
4, ,-40, ,
1, ,-40, ,
4, ,-40, ,
4, ,-40, ,
5, ,-40, ,
3, ,-40, ,
3, ,-41, ,
6, ,-40, ,
3, ,-40, ,
3, ,-40, ,
8, ,-40, ,
6, ,-40, ,
8, ,-40, ,
6, ,-40, ,
10, ,-40, ,
8, ,-40, ,
6, ,-40, ,
0, ,-40, ,
0, ,-41, ,
1, ,-40, ,
-2, ,-40, ,
-1, ,-40, ,
5, ,-40, ,
5, ,-40, ,
5, ,-40, ,
6, ,-40, ,
6, ,-40, ,
4, ,-40, ,
4, ,-40, ,
-1, ,-40, ,
1, ,-40, ,
4, ,-40, ,
5, ,-40, ,
0, ,-40, ,
5, ,-40, ,
1, ,-40, ,
4, ,-40, ,
0, ,-40, ,
1, ,-40, ,
1, ,-40, ,
0, ,-40, ,
-4, ,-40, ,
-1, ,-40, ,
3, ,-40, ,
3, ,-40, ,
-1, ,-40, ,
3, ,-40, ,
4, ,-40, ,
4, ,-40, ,
5, ,-40, ,
6, ,-40, ,
6, ,-40, ,
8, ,-40, ,
1, ,-40, ,
4, ,-40, ,
4, ,-40, ,
1, ,-40, ,
0, ,-40, ,
3, ,-40, ,
1, ,-40, ,
1, ,-40, ,
1, ,-40, ,
4, ,-40, ,
3, ,-40, ,
4, ,-40, ,
-1, ,-40, ,
3, ,-41, ,
1, ,-40, ,
-1, ,-40, ,
-2, ,-40, ,
5, ,-40, ,
4, ,-40, ,
3, ,-40, ,
3, ,-40, ,
3, ,-40, ,
1, ,-40, ,
3, ,-40, ,
0, ,-40, ,
3, ,-40, ,
5, ,-40, ,
3, ,-40, ,
-1, ,-40, ,
5, ,-40, ,
3, ,-40, ,
-1, ,-40, ,
-1, ,-40, ,
-1, ,-40, ,
1, ,-40, ,
1, ,-40, ,
-2, ,-40, ,
0, ,-40, ,
