src/vary_am2_1411/temp0004176.CSV

Format,1.0B,
Memory Length,10000,Memory Length,10000,
IntpDistance,0,IntpDistance,0,
Trigger Address,4999,Trigger Address,4999,
Trigger Level,-1.000E+00,Trigger Level,-1.000E+00,
Source,CH1,Source,CH2,
Vertical Units,V,Vertical Units,V,
Vertical Units Div,0,Vertical Units Div,0,
Vertical Units Extend Div,16,Vertical Units Extend Div,16,
Label,,Label,,
Probe Type,0,Probe Type,0,
Probe Ratio,1.000e+01,Probe Ratio,1.000e+00,
Vertical Scale,2.000e-02,Vertical Scale,1.000e+00,
Vertical Position,-5.120e-02,Vertical Position,2.000e-01,
Horizontal Units,S,Horizontal Units,S,
Horizontal Scale,1.000E-05,Horizontal Scale,1.000E-05,
Horizontal Position,0.000E+00,Horizontal Position,0.000E+00,
Horizontal Mode,Main,Horizontal Mode,Main,
SincET Mode,Real Time,SincET Mode,Real Time,
Sampling Period,1.000e-08,Sampling Period,1.000e-08,
Horizontal Old Scale,1.000E-05,Horizontal Old Scale,1.000E-05,
Horizontal Old Position,0.000E+00,Horizontal Old Position,0.000E+00,
Firmware,V1.23,Firmware,V1.23,
Mode,Fast,Mode,Fast,
Waveform Data,,Waveform Data,,
0, ,-35, ,
-1, ,-35, ,
0, ,-35, ,
-4, ,-35, ,
-4, ,-35, ,
-2, ,-35, ,
-6, ,-35, ,
-6, ,-35, ,
-2, ,-36, ,
-1, ,-35, ,
1, ,-35, ,
0, ,-35, ,
0, ,-35, ,
0, ,-35, ,
0, ,-35, ,
-1, ,-35, ,
-1, ,-35, ,
0, ,-35, ,
0, ,-35, ,
-4, ,-35, ,
0, ,-35, ,
-1, ,-35, ,
-1, ,-35, ,
-1, ,-35, ,
0, ,-35, ,
1, ,-35, ,
0, ,-35, ,
-2, ,-35, ,
1, ,-35, ,
8, ,-35, ,
6, ,-35, ,
1, ,-35, ,
-5, ,-35, ,
1, ,-35, ,
5, ,-35, ,
-2, ,-35, ,
3, ,-35, ,
5, ,-36, ,
4, ,-35, ,
0, ,-35, ,
1, ,-35, ,
1, ,-35, ,
0, ,-35, ,
-2, ,-35, ,
0, ,-35, ,
4, ,-35, ,
-1, ,-35, ,
5, ,-35, ,
9, ,-35, ,
4, ,-35, ,
8, ,-35, ,
0, ,-36, ,
4, ,-35, ,
5, ,-35, ,
3, ,-35, ,
-1, ,-35, ,
4, ,-35, ,
5, ,-35, ,
4, ,-36, ,
3, ,-35, ,
6, ,-35, ,
9, ,-35, ,
4, ,-35, ,
-1, ,-35, ,
3, ,-35, ,
3, ,-35, ,
1, ,-35, ,
0, ,-35, ,
5, ,-35, ,
3, ,-35, ,
1, ,-35, ,
-1, ,-35, ,
3, ,-35, ,
3, ,-35, ,
4, ,-35, ,
0, ,-35, ,
6, ,-35, ,
10, ,-35, ,
1, ,-35, ,
4, ,-35, ,
3, ,-35, ,
1, ,-35, ,
0, ,-35, ,
-2, ,-35, ,
0, ,-35, ,
5, ,-35, ,
4, ,-35, ,
4, ,-35, ,
6, ,-35, ,
6, ,-35, ,
4, ,-35, ,
0, ,-35, ,
5, ,-35, ,
5, ,-35, ,
5, ,-35, ,
6, ,-35, ,
5, ,-35, ,
8, ,-35, ,
6, ,-35, ,
0, ,-35, ,
3, ,-35, ,
5, ,-36, ,
3, ,-35, ,
1, ,-35, ,
5, ,-36, ,
5, ,-35, ,
4, ,-35, ,
4, ,-35, ,
3, ,-35, ,
4, ,-36, ,
5, ,-35, ,
-1, ,-35, ,
6, ,-35, ,
8, ,-35, ,
5, ,-35, ,
4, ,-35, ,
8, ,-36, ,
5, ,-35, ,
4, ,-35, ,
3, ,-35, ,
6, ,-35, ,
5, ,-35, ,
6, ,-35, ,
3, ,-35, ,
4, ,-35, ,
5, ,-35, ,
3, ,-35, ,
0, ,-36, ,
1, ,-35, ,
1, ,-35, ,
3, ,-35, ,
0, ,-35, ,
5, ,-35, ,
8, ,-35, ,
6, ,-35, ,
4, ,-35, ,
4, ,-35, ,
5, ,-35, ,
4, ,-35, ,
0, ,-35, ,
4, ,-35, ,
4, ,-35, ,
3, ,-35, ,
0, ,-35, ,
0, ,-36, ,
-1, ,-36, ,
3, ,-35, ,
-2, ,-36, ,
4, ,-35, ,
6, ,-35, ,
3, ,-35, ,
0, ,-35, ,
4, ,-35, ,
3, ,-35, ,
4, ,-35, ,
-1, ,-35, ,
-5, ,-35, ,
0, ,-36, ,
0, ,-35, ,
-4, ,-35, ,
3, ,-35, ,
3, ,-35, ,
3, ,-35, ,
-1, ,-35, ,
1, ,-35, ,
4, ,-35, ,
-1, ,-35, ,
3, ,-35, ,
1, ,-35, ,
1, ,-35, ,
3, ,-35, ,
-2, ,-35, ,
1, ,-35, ,
4, ,-35, ,
0, ,-35, ,
-1, ,-35, ,
1, ,-36, ,
0, ,-35, ,
0, ,-35, ,
-2, ,-35, ,
0, ,-35, ,
-1, ,-36, ,
-2, ,-35, ,
-2, ,-35, ,
3, ,-35, ,
3, ,-35, ,
3, ,-35, ,
-2, ,-35, ,
3, ,-35, ,
3, ,-35, ,
3, ,-35, ,
-2, ,-35, ,
0, ,-35, ,
-1, ,-35, ,
0, ,-35, ,
-1, ,-35, ,
3, ,-35, ,
6, ,-35, ,
5, ,-35, ,
3, ,-35, ,
4, ,-35, ,
-1, ,-35, ,
-1, ,-35, ,
-4, ,-35, ,
-4, ,-35, ,
-1, ,-35, ,
-1, ,-35, ,
-1, ,-35, ,
1, ,-35, ,
0, ,-35, ,
-1, ,-35, ,
-6, ,-35, ,
-2, ,-35, ,
0, ,-35, ,
-1, ,-35, ,
0, ,-35, ,
-1, ,-35, ,
0, ,-35, ,
-2, ,-35, ,
-7, ,-35, ,
-4, ,-35, ,
-1, ,-35, ,
-2, ,-36, ,
-2, ,-36, ,
0, ,-35, ,
0, ,-35, ,
-2, ,-35, ,
-4, ,-35, ,
-4, ,-35, ,
-5, ,-35, ,
-5, ,-35, ,
-9, ,-35, ,
-2, ,-35, ,
-1, ,-35, ,
0, ,-35, ,
-4, ,-36, ,
1, ,-35, ,
3, ,-35, ,
-1, ,-35, ,
-4, ,-35, ,
-4, ,-35, ,
-6, ,-36, ,
-2, ,-35, ,
-4, ,-35, ,
-4, ,-35, ,
0, ,-35, ,
-5, ,-35, ,
-5, ,-35, ,
0, ,-36, ,
-1, ,-35, ,
-1, ,-35, ,
-1, ,-35, ,
-1, ,-35, ,
3, ,-36, ,
3, ,-35, ,
0, ,-35, ,
-2, ,-35, ,
1, ,-36, ,
-1, ,-35, ,
-4, ,-35, ,
0, ,-35, ,
-1, ,-35, ,
-2, ,-35, ,
1, ,-35, ,
0, ,-35, ,
0, ,-35, ,
0, ,-35, ,
-2, ,-35, ,
-1, ,-35, ,
0, ,-35, ,
0, ,-35, ,
0, ,-35, ,
5, ,-35, ,
3, ,-35, ,
1, ,-35, ,
4, ,-35, ,
0, ,-35, ,
3, ,-35, ,
-1, ,-36, ,
-6, ,-35, ,
5, ,-35, ,
3, ,-35, ,
3, ,-35, ,
0, ,-35, ,
3, ,-35, ,
3, ,-35, ,
0, ,-35, ,
0, ,-35, ,
1, ,-35, ,
3, ,-35, ,
5, ,-35, ,
0, ,-35, ,
5, ,-35, ,
4, ,-35, ,
3, ,-35, ,
-2, ,-35, ,
-1, ,-35, ,
0, ,-35, ,
1, ,-35, ,
1, ,-35, ,
5, ,-35, ,
5, ,-36, ,
3, ,-35, ,
-2, ,-35, ,
0, ,-35, ,
4, ,-35, ,
4, ,-35, ,
-2, ,-35, ,
1, ,-35, ,
-1, ,-31, ,
3, ,-24, ,
6, ,-13, ,
8, ,-4, ,
11, ,4, ,
11, ,12, ,
5, ,18, ,
5, ,25, ,
6, ,29, ,
3, ,32, ,
-1, ,36, ,
6, ,39, ,
4, ,42, ,
5, ,45, ,
1, ,46, ,
5, ,47, ,
4, ,50, ,
3, ,51, ,
0, ,52, ,
5, ,53, ,
8, ,53, ,
10, ,52, ,
5, ,55, ,
6, ,55, ,
6, ,55, ,
4, ,56, ,
5, ,57, ,
3, ,55, ,
5, ,57, ,
6, ,57, ,
4, ,57, ,
5, ,58, ,
5, ,57, ,
4, ,56, ,
0, ,59, ,
1, ,58, ,
4, ,58, ,
4, ,58, ,
5, ,59, ,
8, ,57, ,
6, ,59, ,
8, ,57, ,
1, ,58, ,
6, ,58, ,
5, ,59, ,
4, ,56, ,
3, ,59, ,
6, ,58, ,
6, ,58, ,
6, ,58, ,
6, ,58, ,
6, ,57, ,
5, ,59, ,
9, ,57, ,
1, ,58, ,
1, ,58, ,
5, ,58, ,
0, ,56, ,
-4, ,59, ,
5, ,57, ,
0, ,57, ,
1, ,58, ,
1, ,58, ,
3, ,57, ,
5, ,59, ,
6, ,57, ,
3, ,57, ,
8, ,58, ,
8, ,58, ,
4, ,56, ,
-1, ,59, ,
4, ,58, ,
3, ,58, ,
1, ,58, ,
1, ,58, ,
5, ,57, ,
4, ,59, ,
6, ,57, ,
3, ,57, ,
4, ,58, ,
5, ,58, ,
0, ,56, ,
0, ,58, ,
5, ,57, ,
1, ,58, ,
4, ,57, ,
1, ,58, ,
3, ,56, ,
5, ,58, ,
1, ,57, ,
-4, ,57, ,
-1, ,58, ,
-1, ,58, ,
-1, ,56, ,
-2, ,58, ,
6, ,57, ,
6, ,57, ,
3, ,58, ,
1, ,58, ,
1, ,56, ,
-1, ,58, ,
6, ,57, ,
-1, ,57, ,
5, ,58, ,
9, ,58, ,
5, ,56, ,
1, ,58, ,
3, ,58, ,
0, ,57, ,
1, ,57, ,
1, ,58, ,
3, ,56, ,
6, ,59, ,
9, ,57, ,
0, ,57, ,
3, ,58, ,
4, ,58, ,
1, ,56, ,
-4, ,58, ,
1, ,57, ,
3, ,57, ,
3, ,57, ,
1, ,58, ,
4, ,56, ,
1, ,59, ,
0, ,56, ,
-2, ,57, ,
1, ,58, ,
3, ,58, ,
5, ,56, ,
1, ,58, ,
6, ,57, ,
0, ,57, ,
3, ,57, ,
-2, ,58, ,
-2, ,56, ,
0, ,58, ,
0, ,56, ,
-1, ,57, ,
3, ,58, ,
4, ,58, ,
3, ,56, ,
-4, ,58, ,
4, ,57, ,
-1, ,57, ,
-2, ,57, ,
-2, ,58, ,
-1, ,56, ,
1, ,58, ,
3, ,56, ,
-2, ,57, ,
4, ,58, ,
4, ,57, ,
1, ,56, ,
-4, ,58, ,
-1, ,58, ,
0, ,57, ,
-2, ,57, ,
-5, ,57, ,
-2, ,57, ,
-2, ,58, ,
-1, ,56, ,
-6, ,57, ,
0, ,58, ,
3, ,58, ,
-1, ,55, ,
-4, ,58, ,
3, ,58, ,
0, ,57, ,
-1, ,57, ,
0, ,58, ,
0, ,56, ,
-2, ,58, ,
0, ,57, ,
-9, ,57, ,
-4, ,58, ,
0, ,57, ,
-2, ,56, ,
-1, ,58, ,
5, ,58, ,
1, ,57, ,
1, ,57, ,
-4, ,58, ,
0, ,56, ,
-1, ,58, ,
1, ,56, ,
-1, ,57, ,
0, ,58, ,
0, ,58, ,
9, ,56, ,
0, ,58, ,
1, ,57, ,
0, ,57, ,
-4, ,57, ,
-6, ,57, ,
-2, ,56, ,
-1, ,58, ,
-1, ,57, ,
-4, ,57, ,
0, ,58, ,
0, ,58, ,
-1, ,56, ,
-6, ,59, ,
3, ,57, ,
1, ,57, ,
4, ,57, ,
-2, ,57, ,
-1, ,56, ,
0, ,58, ,
-2, ,56, ,
-6, ,57, ,
-1, ,58, ,
1, ,58, ,
0, ,56, ,
1, ,58, ,
5, ,57, ,
1, ,57, ,
-1, ,57, ,
0, ,57, ,
-1, ,56, ,
-5, ,58, ,
1, ,57, ,
-7, ,57, ,
-1, ,57, ,
0, ,58, ,
0, ,56, ,
-2, ,58, ,
-1, ,57, ,
0, ,57, ,
0, ,57, ,
-2, ,57, ,
0, ,56, ,
0, ,58, ,
0, ,57, ,
-2, ,57, ,
0, ,58, ,
3, ,58, ,
0, ,55, ,
-4, ,58, ,
1, ,57, ,
0, ,57, ,
0, ,57, ,
-1, ,58, ,
1, ,56, ,
3, ,58, ,
1, ,57, ,
-1, ,57, ,
1, ,58, ,
1, ,58, ,
-1, ,56, ,
-5, ,58, ,
0, ,57, ,
-1, ,57, ,
0, ,57, ,
-1, ,58, ,
1, ,56, ,
3, ,58, ,
3, ,56, ,
-5, ,57, ,
0, ,58, ,
0, ,58, ,
0, ,55, ,
-2, ,58, ,
8, ,57, ,
5, ,57, ,
4, ,57, ,
4, ,57, ,
1, ,56, ,
1, ,58, ,
4, ,57, ,
-1, ,57, ,
5, ,57, ,
4, ,58, ,
3, ,56, ,
3, ,58, ,
6, ,57, ,
4, ,57, ,
1, ,57, ,
-2, ,58, ,
1, ,56, ,
4, ,58, ,
6, ,56, ,
0, ,57, ,
4, ,57, ,
4, ,57, ,
3, ,56, ,
-1, ,58, ,
6, ,57, ,
6, ,57, ,
5, ,57, ,
6, ,58, ,
10, ,56, ,
8, ,58, ,
8, ,57, ,
0, ,57, ,
3, ,58, ,
1, ,58, ,
0, ,56, ,
-4, ,58, ,
5, ,58, ,
3, ,57, ,
3, ,57, ,
3, ,57, ,
4, ,56, ,
4, ,58, ,
4, ,56, ,
-1, ,57, ,
1, ,58, ,
5, ,58, ,
3, ,55, ,
1, ,58, ,
5, ,57, ,
4, ,57, ,
1, ,57, ,
-1, ,58, ,
0, ,56, ,
1, ,58, ,
4, ,56, ,
-1, ,57, ,
4, ,57, ,
6, ,57, ,
5, ,55, ,
0, ,58, ,
8, ,57, ,
4, ,57, ,
4, ,57, ,
3, ,57, ,
4, ,56, ,
5, ,58, ,
8, ,57, ,
0, ,57, ,
3, ,58, ,
4, ,57, ,
3, ,56, ,
-2, ,58, ,
4, ,57, ,
5, ,57, ,
5, ,57, ,
4, ,58, ,
6, ,56, ,
6, ,58, ,
8, ,56, ,
1, ,57, ,
4, ,57, ,
4, ,58, ,
1, ,56, ,
4, ,58, ,
8, ,57, ,
5, ,57, ,
6, ,57, ,
5, ,57, ,
8, ,55, ,
5, ,58, ,
9, ,57, ,
3, ,57, ,
4, ,57, ,
6, ,58, ,
3, ,56, ,
1, ,58, ,
4, ,57, ,
3, ,57, ,
4, ,57, ,
1, ,58, ,
6, ,56, ,
3, ,58, ,
5, ,57, ,
3, ,57, ,
5, ,57, ,
5, ,57, ,
1, ,55, ,
-6, ,58, ,
3, ,57, ,
1, ,57, ,
4, ,57, ,
1, ,58, ,
8, ,56, ,
6, ,58, ,
6, ,56, ,
-1, ,57, ,
1, ,58, ,
3, ,58, ,
1, ,56, ,
-1, ,58, ,
5, ,57, ,
5, ,57, ,
3, ,57, ,
1, ,57, ,
3, ,56, ,
1, ,58, ,
3, ,57, ,
-2, ,57, ,
3, ,57, ,
3, ,57, ,
3, ,56, ,
1, ,58, ,
4, ,57, ,
-1, ,57, ,
0, ,57, ,
-2, ,57, ,
0, ,56, ,
0, ,58, ,
1, ,56, ,
-1, ,57, ,
4, ,57, ,
4, ,58, ,
0, ,55, ,
-4, ,58, ,
3, ,57, ,
0, ,57, ,
-1, ,57, ,
0, ,58, ,
1, ,56, ,
1, ,58, ,
6, ,56, ,
-5, ,57, ,
-1, ,57, ,
1, ,58, ,
-5, ,56, ,
-5, ,58, ,
-1, ,57, ,
-2, ,57, ,
1, ,57, ,
-1, ,58, ,
3, ,56, ,
4, ,58, ,
6, ,56, ,
0, ,57, ,
3, ,58, ,
4, ,58, ,
4, ,56, ,
0, ,58, ,
6, ,57, ,
0, ,57, ,
0, ,57, ,
-1, ,58, ,
-1, ,56, ,
-2, ,58, ,
1, ,56, ,
-2, ,57, ,
-2, ,58, ,
1, ,57, ,
1, ,56, ,
-1, ,58, ,
4, ,58, ,
0, ,57, ,
-2, ,57, ,
-5, ,57, ,
-4, ,56, ,
-1, ,58, ,
0, ,57, ,
-5, ,57, ,
-1, ,58, ,
-1, ,58, ,
-1, ,56, ,
-7, ,58, ,
-1, ,57, ,
-1, ,57, ,
-1, ,57, ,
1, ,58, ,
0, ,56, ,
-2, ,58, ,
-1, ,56, ,
-7, ,57, ,
-1, ,58, ,
0, ,57, ,
1, ,55, ,
1, ,58, ,
1, ,57, ,
-2, ,57, ,
0, ,57, ,
-6, ,57, ,
-1, ,56, ,
0, ,58, ,
1, ,56, ,
-4, ,57, ,
0, ,57, ,
-1, ,58, ,
3, ,55, ,
0, ,58, ,
5, ,57, ,
3, ,57, ,
-2, ,57, ,
-6, ,57, ,
-1, ,56, ,
-1, ,58, ,
3, ,56, ,
-1, ,57, ,
5, ,57, ,
1, ,58, ,
0, ,55, ,
-1, ,58, ,
-2, ,58, ,
-2, ,57, ,
0, ,57, ,
-5, ,57, ,
-2, ,56, ,
-1, ,58, ,
0, ,56, ,
-5, ,57, ,
1, ,58, ,
3, ,58, ,
3, ,56, ,
-1, ,57, ,
1, ,58, ,
1, ,57, ,
-1, ,57, ,
1, ,57, ,
0, ,56, ,
1, ,58, ,
3, ,56, ,
-4, ,57, ,
3, ,58, ,
3, ,58, ,
1, ,56, ,
4, ,58, ,
6, ,57, ,
1, ,57, ,
3, ,57, ,
-4, ,57, ,
-2, ,56, ,
-2, ,58, ,
0, ,57, ,
-7, ,57, ,
0, ,57, ,
0, ,58, ,
0, ,56, ,
-1, ,58, ,
5, ,57, ,
3, ,57, ,
1, ,57, ,
1, ,58, ,
3, ,56, ,
0, ,58, ,
4, ,56, ,
-2, ,57, ,
3, ,58, ,
3, ,58, ,
0, ,56, ,
-2, ,58, ,
-1, ,57, ,
-4, ,57, ,
0, ,57, ,
-4, ,57, ,
0, ,56, ,
3, ,58, ,
1, ,57, ,
0, ,57, ,
3, ,57, ,
3, ,58, ,
0, ,55, ,
-4, ,58, ,
1, ,57, ,
0, ,57, ,
1, ,57, ,
-1, ,58, ,
1, ,56, ,
-2, ,58, ,
1, ,56, ,
-6, ,57, ,
0, ,58, ,
3, ,58, ,
1, ,56, ,
3, ,58, ,
8, ,58, ,
0, ,57, ,
5, ,57, ,
-5, ,57, ,
1, ,56, ,
6, ,58, ,
0, ,56, ,
3, ,57, ,
4, ,58, ,
3, ,58, ,
5, ,56, ,
0, ,58, ,
5, ,57, ,
3, ,57, ,
3, ,57, ,
1, ,57, ,
3, ,56, ,
1, ,59, ,
9, ,56, ,
0, ,57, ,
5, ,57, ,
6, ,58, ,
1, ,56, ,
0, ,58, ,
5, ,57, ,
5, ,57, ,
5, ,57, ,
3, ,57, ,
5, ,56, ,
6, ,58, ,
9, ,56, ,
0, ,57, ,
3, ,57, ,
1, ,57, ,
1, ,55, ,
1, ,58, ,
6, ,57, ,
3, ,57, ,
4, ,57, ,
3, ,57, ,
3, ,56, ,
4, ,58, ,
3, ,57, ,
-2, ,57, ,
4, ,58, ,
4, ,58, ,
4, ,56, ,
0, ,58, ,
6, ,57, ,
1, ,57, ,
5, ,57, ,
1, ,57, ,
4, ,56, ,
5, ,58, ,
8, ,57, ,
4, ,57, ,
5, ,57, ,
3, ,58, ,
1, ,56, ,
-5, ,57, ,
0, ,57, ,
3, ,57, ,
3, ,57, ,
3, ,58, ,
4, ,56, ,
5, ,58, ,
4, ,57, ,
-1, ,57, ,
1, ,57, ,
3, ,58, ,
-1, ,56, ,
-2, ,58, ,
6, ,57, ,
5, ,57, ,
5, ,57, ,
3, ,57, ,
5, ,56, ,
-4, ,58, ,
4, ,57, ,
1, ,57, ,
1, ,58, ,
4, ,58, ,
3, ,55, ,
0, ,58, ,
10, ,57, ,
5, ,57, ,
8, ,57, ,
5, ,58, ,
8, ,56, ,
4, ,58, ,
6, ,56, ,
0, ,57, ,
1, ,58, ,
3, ,58, ,
-1, ,56, ,
-2, ,58, ,
-1, ,57, ,
-4, ,57, ,
1, ,57, ,
-1, ,57, ,
4, ,56, ,
4, ,58, ,
6, ,56, ,
5, ,57, ,
5, ,58, ,
4, ,58, ,
1, ,56, ,
1, ,58, ,
9, ,57, ,
-1, ,57, ,
4, ,57, ,
1, ,57, ,
3, ,56, ,
3, ,58, ,
4, ,56, ,
0, ,57, ,
0, ,57, ,
1, ,58, ,
1, ,56, ,
-1, ,58, ,
0, ,57, ,
0, ,57, ,
0, ,57, ,
0, ,57, ,
0, ,55, ,
1, ,58, ,
0, ,56, ,
-4, ,57, ,
-1, ,57, ,
3, ,58, ,
3, ,56, ,
-4, ,58, ,
1, ,58, ,
1, ,57, ,
-1, ,57, ,
-2, ,58, ,
-2, ,56, ,
-2, ,58, ,
0, ,56, ,
-5, ,57, ,
3, ,57, ,
1, ,58, ,
0, ,56, ,
-4, ,58, ,
0, ,57, ,
-4, ,57, ,
-1, ,57, ,
-1, ,57, ,
1, ,56, ,
3, ,58, ,
0, ,57, ,
-1, ,57, ,
-2, ,58, ,
-2, ,58, ,
-4, ,56, ,
-5, ,58, ,
-1, ,57, ,
1, ,57, ,
3, ,57, ,
-1, ,58, ,
3, ,56, ,
-1, ,59, ,
3, ,57, ,
-1, ,57, ,
3, ,57, ,
4, ,58, ,
1, ,56, ,
-2, ,58, ,
1, ,57, ,
1, ,57, ,
-1, ,57, ,
-5, ,58, ,
1, ,56, ,
0, ,58, ,
0, ,56, ,
-2, ,57, ,
3, ,58, ,
1, ,57, ,
3, ,56, ,
-2, ,58, ,
4, ,57, ,
1, ,57, ,
-2, ,57, ,
-6, ,58, ,
0, ,56, ,
-1, ,58, ,
3, ,57, ,
-1, ,57, ,
5, ,58, ,
5, ,57, ,
3, ,56, ,
3, ,58, ,
3, ,57, ,
-1, ,57, ,
0, ,57, ,
-4, ,58, ,
-1, ,56, ,
1, ,58, ,
1, ,57, ,
-7, ,57, ,
0, ,57, ,
-4, ,58, ,
-4, ,56, ,
-5, ,57, ,
1, ,57, ,
1, ,57, ,
1, ,57, ,
-1, ,58, ,
0, ,56, ,
-1, ,58, ,
-1, ,57, ,
-5, ,57, ,
-1, ,58, ,
1, ,58, ,
0, ,56, ,
0, ,58, ,
3, ,57, ,
-1, ,57, ,
5, ,56, ,
-2, ,50, ,
-4, ,38, ,
-7, ,30, ,
-4, ,20, ,
-7, ,13, ,
0, ,7, ,
1, ,0, ,
-2, ,-4, ,
-9, ,-8, ,
1, ,-12, ,
-9, ,-16, ,
-6, ,-19, ,
-6, ,-21, ,
-4, ,-23, ,
-1, ,-25, ,
0, ,-26, ,
-5, ,-27, ,
-2, ,-28, ,
-1, ,-29, ,
-2, ,-30, ,
-7, ,-31, ,
0, ,-32, ,
-1, ,-32, ,
0, ,-32, ,
0, ,-33, ,
0, ,-33, ,
3, ,-35, ,
4, ,-35, ,
-2, ,-35, ,
1, ,-35, ,
1, ,-35, ,
3, ,-35, ,
0, ,-36, ,
5, ,-36, ,
4, ,-36, ,
3, ,-36, ,
0, ,-36, ,
1, ,-36, ,
-1, ,-36, ,
1, ,-36, ,
-4, ,-36, ,
3, ,-36, ,
8, ,-36, ,
6, ,-36, ,
3, ,-36, ,
6, ,-36, ,
6, ,-36, ,
3, ,-36, ,
0, ,-36, ,
3, ,-36, ,
4, ,-36, ,
4, ,-36, ,
1, ,-36, ,
3, ,-36, ,
4, ,-36, ,
3, ,-36, ,
0, ,-36, ,
4, ,-36, ,
4, ,-36, ,
3, ,-36, ,
3, ,-36, ,
3, ,-36, ,
4, ,-36, ,
1, ,-36, ,
-4, ,-36, ,
3, ,-35, ,
1, ,-36, ,
1, ,-36, ,
-2, ,-36, ,
3, ,-36, ,
1, ,-35, ,
3, ,-36, ,
0, ,-35, ,
3, ,-35, ,
4, ,-36, ,
5, ,-36, ,
1, ,-35, ,
1, ,-36, ,
3, ,-35, ,
3, ,-35, ,
0, ,-36, ,
5, ,-36, ,
5, ,-35, ,
0, ,-35, ,
1, ,-36, ,
1, ,-36, ,
3, ,-36, ,
3, ,-35, ,
-1, ,-35, ,
4, ,-36, ,
6, ,-35, ,
5, ,-36, ,
1, ,-35, ,
3, ,-36, ,
3, ,-35, ,
3, ,-36, ,
3, ,-36, ,
0, ,-35, ,
3, ,-36, ,
3, ,-35, ,
-1, ,-35, ,
3, ,-35, ,
1, ,-35, ,
-1, ,-35, ,
-2, ,-35, ,
5, ,-36, ,
8, ,-35, ,
9, ,-36, ,
8, ,-36, ,
8, ,-35, ,
6, ,-36, ,
5, ,-35, ,
-2, ,-35, ,
0, ,-35, ,
5, ,-35, ,
-1, ,-36, ,
1, ,-35, ,
3, ,-36, ,
1, ,-35, ,
3, ,-35, ,
1, ,-35, ,
0, ,-35, ,
3, ,-36, ,
0, ,-35, ,
3, ,-35, ,
0, ,-35, ,
8, ,-35, ,
0, ,-36, ,
-5, ,-35, ,
6, ,-35, ,
3, ,-35, ,
1, ,-35, ,
1, ,-35, ,
4, ,-35, ,
5, ,-36, ,
1, ,-35, ,
1, ,-35, ,
-1, ,-35, ,
4, ,-35, ,
0, ,-35, ,
0, ,-35, ,
5, ,-36, ,
3, ,-35, ,
4, ,-35, ,
1, ,-35, ,
-1, ,-35, ,
1, ,-36, ,
-1, ,-35, ,
-1, ,-35, ,
1, ,-35, ,
1, ,-35, ,
-1, ,-35, ,
-5, ,-35, ,
-1, ,-35, ,
3, ,-35, ,
4, ,-35, ,
5, ,-35, ,
4, ,-35, ,
3, ,-35, ,
1, ,-35, ,
-6, ,-35, ,
-4, ,-35, ,
3, ,-35, ,
1, ,-35, ,
-1, ,-35, ,
4, ,-35, ,
1, ,-35, ,
0, ,-35, ,
-6, ,-35, ,
-2, ,-35, ,
-1, ,-35, ,
0, ,-35, ,
-1, ,-35, ,
1, ,-35, ,
1, ,-35, ,
0, ,-35, ,
-5, ,-35, ,
1, ,-36, ,
3, ,-35, ,
4, ,-35, ,
3, ,-35, ,
5, ,-35, ,
8, ,-35, ,
4, ,-35, ,
0, ,-35, ,
1, ,-35, ,
3, ,-35, ,
-2, ,-35, ,
-6, ,-35, ,
-1, ,-35, ,
-1, ,-35, ,
1, ,-35, ,
1, ,-35, ,
3, ,-35, ,
5, ,-35, ,
4, ,-35, ,
3, ,-35, ,
1, ,-35, ,
3, ,-35, ,
0, ,-35, ,
-2, ,-35, ,
5, ,-35, ,
3, ,-35, ,
0, ,-35, ,
0, ,-35, ,
-1, ,-35, ,
0, ,-36, ,
0, ,-35, ,
-5, ,-35, ,
3, ,-35, ,
5, ,-35, ,
4, ,-35, ,
1, ,-35, ,
3, ,-35, ,
1, ,-35, ,
0, ,-35, ,
-4, ,-35, ,
-1, ,-35, ,
0, ,-35, ,
1, ,-36, ,
-4, ,-35, ,
0, ,-35, ,
1, ,-35, ,
-1, ,-35, ,
-5, ,-35, ,
1, ,-36, ,
-1, ,-35, ,
-1, ,-35, ,
-2, ,-35, ,
0, ,-35, ,
4, ,-35, ,
1, ,-35, ,
-4, ,-35, ,
-1, ,-35, ,
3, ,-35, ,
-1, ,-36, ,
-4, ,-35, ,
-1, ,-35, ,
0, ,-35, ,
0, ,-35, ,
-5, ,-35, ,
-1, ,-35, ,
1, ,-36, ,
3, ,-35, ,
-1, ,-35, ,
0, ,-35, ,
1, ,-35, ,
3, ,-35, ,
0, ,-35, ,
4, ,-35, ,
3, ,-35, ,
0, ,-35, ,
0, ,-35, ,
1, ,-35, ,
1, ,-35, ,
4, ,-36, ,
-2, ,-35, ,
1, ,-35, ,
3, ,-35, ,
1, ,-35, ,
-1, ,-35, ,
-1, ,-35, ,
-2, ,-35, ,
-2, ,-35, ,
-2, ,-35, ,
1, ,-35, ,
3, ,-36, ,
4, ,-35, ,
1, ,-35, ,
5, ,-35, ,
4, ,-35, ,
3, ,-35, ,
1, ,-35, ,
1, ,-35, ,
1, ,-35, ,
1, ,-35, ,
0, ,-35, ,
1, ,-35, ,
3, ,-36, ,
1, ,-35, ,
-4, ,-35, ,
0, ,-35, ,
1, ,-35, ,
0, ,-35, ,
0, ,-36, ,
3, ,-36, ,
3, ,-35, ,
3, ,-36, ,
1, ,-35, ,
3, ,-35, ,
1, ,-36, ,
1, ,-36, ,
-2, ,-35, ,
3, ,-35, ,
4, ,-35, ,
5, ,-35, ,
1, ,-36, ,
5, ,-35, ,
3, ,-35, ,
3, ,-35, ,
0, ,-35, ,
1, ,-35, ,
3, ,-35, ,
1, ,-35, ,
-1, ,-35, ,
3, ,-35, ,
4, ,-35, ,
0, ,-35, ,
-4, ,-35, ,
0, ,-35, ,
0, ,-35, ,
0, ,-35, ,
-5, ,-35, ,
3, ,-35, ,
5, ,-35, ,
1, ,-35, ,
3, ,-35, ,
3, ,-35, ,
3, ,-35, ,
3, ,-35, ,
-1, ,-35, ,
4, ,-35, ,
3, ,-35, ,
0, ,-35, ,
0, ,-35, ,
-1, ,-35, ,
1, ,-35, ,
4, ,-35, ,
1, ,-35, ,
5, ,-35, ,
11, ,-36, ,
9, ,-35, ,
6, ,-35, ,
6, ,-36, ,
5, ,-35, ,
4, ,-35, ,
1, ,-35, ,
1, ,-35, ,
3, ,-35, ,
1, ,-36, ,
-5, ,-35, ,
4, ,-35, ,
8, ,-35, ,
4, ,-35, ,
0, ,-35, ,
5, ,-35, ,
4, ,-35, ,
4, ,-35, ,
1, ,-35, ,
3, ,-35, ,
5, ,-35, ,
6, ,-35, ,
0, ,-35, ,
4, ,-35, ,
5, ,-35, ,
3, ,-35, ,
-1, ,-35, ,
5, ,-36, ,
4, ,-35, ,
3, ,-35, ,
0, ,-36, ,
1, ,-35, ,
1, ,-36, ,
3, ,-35, ,
-1, ,-35, ,
0, ,-35, ,
1, ,-35, ,
3, ,-35, ,
-2, ,-35, ,
4, ,-35, ,
4, ,-35, ,
1, ,-35, ,
1, ,-35, ,
0, ,-35, ,
1, ,-35, ,
0, ,-35, ,
-4, ,-35, ,
-2, ,-35, ,
1, ,-35, ,
0, ,-35, ,
-2, ,-35, ,
3, ,-35, ,
0, ,-35, ,
-1, ,-35, ,
-4, ,-35, ,
1, ,-35, ,
3, ,-35, ,
3, ,-35, ,
-1, ,-35, ,
1, ,-35, ,
3, ,-35, ,
1, ,-35, ,
-1, ,-35, ,
4, ,-35, ,
1, ,-35, ,
0, ,-35, ,
0, ,-35, ,
3, ,-35, ,
1, ,-35, ,
3, ,-35, ,
-2, ,-35, ,
1, ,-35, ,
3, ,-35, ,
0, ,-35, ,
-2, ,-35, ,
4, ,-35, ,
4, ,-35, ,
5, ,-35, ,
4, ,-35, ,
5, ,-35, ,
5, ,-35, ,
0, ,-35, ,
-4, ,-35, ,
0, ,-35, ,
1, ,-35, ,
1, ,-35, ,
-1, ,-35, ,
4, ,-35, ,
4, ,-35, ,
1, ,-35, ,
0, ,-35, ,
1, ,-35, ,
0, ,-35, ,
0, ,-35, ,
-1, ,-35, ,
1, ,-35, ,
4, ,-35, ,
0, ,-35, ,
-4, ,-35, ,
1, ,-35, ,
-1, ,-35, ,
0, ,-35, ,
3, ,-35, ,
3, ,-35, ,
8, ,-36, ,
5, ,-35, ,
3, ,-35, ,
1, ,-35, ,
1, ,-35, ,
-1, ,-35, ,
-5, ,-35, ,
1, ,-36, ,
1, ,-35, ,
-1, ,-35, ,
-1, ,-35, ,
-1, ,-35, ,
1, ,-35, ,
1, ,-35, ,
-5, ,-35, ,
-1, ,-35, ,
0, ,-35, ,
0, ,-35, ,
-4, ,-35, ,
1, ,-35, ,
1, ,-35, ,
3, ,-35, ,
1, ,-35, ,
0, ,-35, ,
0, ,-35, ,
0, ,-35, ,
-6, ,-35, ,
-1, ,-35, ,
0, ,-35, ,
-1, ,-35, ,
-1, ,-35, ,
1, ,-35, ,
3, ,-35, ,
0, ,-35, ,
-4, ,-35, ,
0, ,-35, ,
-1, ,-35, ,
1, ,-35, ,
-4, ,-35, ,
0, ,-35, ,
3, ,-35, ,
1, ,-35, ,
-1, ,-35, ,
-1, ,-35, ,
-4, ,-35, ,
0, ,-35, ,
-2, ,-35, ,
-1, ,-35, ,
-2, ,-36, ,
-6, ,-35, ,
-11, ,-35, ,
-12, ,-35, ,
-15, ,-35, ,
-16, ,-35, ,
-19, ,-36, ,
-5, ,-35, ,
-2, ,-35, ,
3, ,-35, ,
4, ,-35, ,
10, ,-35, ,
11, ,-35, ,
16, ,-35, ,
8, ,-35, ,
9, ,-35, ,
10, ,-35, ,
5, ,-35, ,
0, ,-35, ,
0, ,-35, ,
-1, ,-35, ,
-1, ,-35, ,
-4, ,-35, ,
-2, ,-35, ,
3, ,-36, ,
0, ,-35, ,
-2, ,-35, ,
4, ,-35, ,
5, ,-35, ,
5, ,-35, ,
1, ,-35, ,
3, ,-36, ,
-1, ,-35, ,
-4, ,-35, ,
-4, ,-35, ,
-2, ,-35, ,
-2, ,-35, ,
1, ,-35, ,
-1, ,-35, ,
3, ,-35, ,
4, ,-35, ,
0, ,-36, ,
-2, ,-35, ,
-2, ,-35, ,
-1, ,-35, ,
-1, ,-35, ,
-5, ,-35, ,
0, ,-35, ,
-2, ,-36, ,
-2, ,-35, ,
-5, ,-35, ,
-2, ,-35, ,
3, ,-35, ,
0, ,-35, ,
-4, ,-35, ,
4, ,-35, ,
3, ,-35, ,
3, ,-35, ,
-1, ,-35, ,
-1, ,-35, ,
-1, ,-35, ,
1, ,-35, ,
-4, ,-35, ,
3, ,-35, ,
4, ,-35, ,
-1, ,-35, ,
-1, ,-35, ,
4, ,-35, ,
3, ,-35, ,
3, ,-35, ,
1, ,-35, ,
3, ,-35, ,
3, ,-36, ,
5, ,-35, ,
1, ,-35, ,
3, ,-35, ,
3, ,-35, ,
1, ,-35, ,
-1, ,-35, ,
1, ,-36, ,
1, ,-35, ,
-2, ,-35, ,
-1, ,-35, ,
3, ,-35, ,
3, ,-36, ,
4, ,-35, ,
3, ,-35, ,
6, ,-35, ,
9, ,-35, ,
3, ,-35, ,
3, ,-35, ,
5, ,-35, ,
8, ,-35, ,
5, ,-35, ,
1, ,-35, ,
5, ,-35, ,
6, ,-36, ,
4, ,-35, ,
1, ,-35, ,
4, ,-35, ,
4, ,-35, ,
3, ,-35, ,
1, ,-35, ,
3, ,-35, ,
4, ,-35, ,
3, ,-36, ,
3, ,-35, ,
3, ,-35, ,
4, ,-36, ,
6, ,-35, ,
5, ,-35, ,
6, ,-35, ,
9, ,-35, ,
3, ,-35, ,
3, ,-35, ,
5, ,-35, ,
-1, ,-35, ,
4, ,-35, ,
1, ,-35, ,
4, ,-35, ,
5, ,-35, ,
4, ,-36, ,
1, ,-35, ,
5, ,-35, ,
6, ,-35, ,
5, ,-35, ,
-1, ,-35, ,
4, ,-35, ,
0, ,-35, ,
0, ,-35, ,
3, ,-35, ,
1, ,-35, ,
1, ,-35, ,
5, ,-35, ,
3, ,-35, ,
6, ,-35, ,
4, ,-35, ,
0, ,-35, ,
-4, ,-35, ,
4, ,-35, ,
1, ,-35, ,
8, ,-35, ,
0, ,-35, ,
4, ,-35, ,
-4, ,-36, ,
3, ,-36, ,
3, ,-35, ,
3, ,-35, ,
10, ,-35, ,
10, ,-35, ,
5, ,-35, ,
8, ,-35, ,
8, ,-35, ,
6, ,-35, ,
1, ,-35, ,
3, ,-35, ,
1, ,-35, ,
5, ,-35, ,
-1, ,-35, ,
5, ,-35, ,
8, ,-35, ,
5, ,-35, ,
5, ,-35, ,
6, ,-35, ,
5, ,-35, ,
6, ,-35, ,
1, ,-35, ,
3, ,-35, ,
8, ,-36, ,
3, ,-35, ,
4, ,-35, ,
3, ,-35, ,
5, ,-35, ,
3, ,-35, ,
-1, ,-36, ,
6, ,-36, ,
9, ,-35, ,
