src/vary_am2_1411/temp0000075.CSV

Format,1.0B,
Memory Length,10000,Memory Length,10000,
IntpDistance,0,IntpDistance,0,
Trigger Address,4999,Trigger Address,4999,
Trigger Level,-1.000E+00,Trigger Level,-1.000E+00,
Source,CH1,Source,CH2,
Vertical Units,V,Vertical Units,V,
Vertical Units Div,0,Vertical Units Div,0,
Vertical Units Extend Div,16,Vertical Units Extend Div,16,
Label,,Label,,
Probe Type,0,Probe Type,0,
Probe Ratio,1.000e+01,Probe Ratio,1.000e+00,
Vertical Scale,2.000e-02,Vertical Scale,1.000e+00,
Vertical Position,-5.120e-02,Vertical Position,2.000e-01,
Horizontal Units,S,Horizontal Units,S,
Horizontal Scale,1.000E-05,Horizontal Scale,1.000E-05,
Horizontal Position,0.000E+00,Horizontal Position,0.000E+00,
Horizontal Mode,Main,Horizontal Mode,Main,
SincET Mode,Real Time,SincET Mode,Real Time,
Sampling Period,1.000e-08,Sampling Period,1.000e-08,
Horizontal Old Scale,1.000E-05,Horizontal Old Scale,1.000E-05,
Horizontal Old Position,0.000E+00,Horizontal Old Position,0.000E+00,
Firmware,V1.23,Firmware,V1.23,
Mode,Fast,Mode,Fast,
Waveform Data,,Waveform Data,,
1, ,-55, ,
0, ,-55, ,
-1, ,-55, ,
0, ,-55, ,
-4, ,-55, ,
-2, ,-55, ,
-7, ,-55, ,
-1, ,-55, ,
4, ,-56, ,
-1, ,-55, ,
-1, ,-54, ,
0, ,-56, ,
-6, ,-55, ,
-5, ,-55, ,
-6, ,-55, ,
-4, ,-56, ,
-1, ,-55, ,
3, ,-56, ,
-1, ,-55, ,
-1, ,-55, ,
1, ,-56, ,
-2, ,-55, ,
-6, ,-54, ,
0, ,-56, ,
-1, ,-55, ,
0, ,-55, ,
-4, ,-55, ,
0, ,-55, ,
-1, ,-54, ,
1, ,-56, ,
-5, ,-55, ,
0, ,-55, ,
3, ,-55, ,
-1, ,-55, ,
-2, ,-55, ,
6, ,-56, ,
0, ,-55, ,
3, ,-55, ,
0, ,-56, ,
1, ,-56, ,
0, ,-55, ,
-9, ,-55, ,
-6, ,-55, ,
3, ,-55, ,
-1, ,-55, ,
1, ,-55, ,
-2, ,-55, ,
5, ,-56, ,
3, ,-55, ,
1, ,-55, ,
-4, ,-56, ,
-1, ,-55, ,
-4, ,-55, ,
-2, ,-55, ,
-7, ,-55, ,
-2, ,-55, ,
-1, ,-55, ,
-4, ,-55, ,
-5, ,-55, ,
-1, ,-56, ,
-4, ,-55, ,
-1, ,-55, ,
-1, ,-55, ,
-1, ,-55, ,
-1, ,-55, ,
0, ,-56, ,
-6, ,-55, ,
1, ,-55, ,
4, ,-55, ,
-6, ,-55, ,
-6, ,-55, ,
1, ,-56, ,
-4, ,-55, ,
-2, ,-54, ,
-5, ,-55, ,
-1, ,-56, ,
-4, ,-54, ,
0, ,-56, ,
-5, ,-55, ,
-2, ,-55, ,
0, ,-55, ,
1, ,-55, ,
0, ,-55, ,
5, ,-56, ,
3, ,-55, ,
3, ,-55, ,
1, ,-55, ,
0, ,-56, ,
0, ,-54, ,
-4, ,-56, ,
-6, ,-55, ,
-1, ,-55, ,
0, ,-55, ,
-4, ,-55, ,
-7, ,-55, ,
4, ,-56, ,
4, ,-55, ,
4, ,-55, ,
0, ,-56, ,
0, ,-55, ,
1, ,-55, ,
3, ,-55, ,
-4, ,-55, ,
3, ,-55, ,
4, ,-55, ,
4, ,-55, ,
4, ,-54, ,
4, ,-56, ,
3, ,-55, ,
0, ,-55, ,
-4, ,-56, ,
-2, ,-56, ,
0, ,-55, ,
1, ,-56, ,
-4, ,-55, ,
1, ,-55, ,
0, ,-55, ,
-1, ,-55, ,
0, ,-55, ,
3, ,-56, ,
3, ,-55, ,
3, ,-55, ,
4, ,-55, ,
5, ,-55, ,
4, ,-55, ,
3, ,-56, ,
-4, ,-55, ,
-1, ,-55, ,
4, ,-55, ,
-2, ,-56, ,
-2, ,-54, ,
4, ,-56, ,
1, ,-55, ,
3, ,-55, ,
1, ,-55, ,
0, ,-56, ,
1, ,-55, ,
3, ,-55, ,
-1, ,-55, ,
1, ,-55, ,
6, ,-55, ,
3, ,-55, ,
0, ,-54, ,
8, ,-56, ,
3, ,-55, ,
1, ,-55, ,
-1, ,-55, ,
0, ,-56, ,
0, ,-55, ,
-2, ,-55, ,
-6, ,-55, ,
0, ,-55, ,
6, ,-55, ,
1, ,-56, ,
-5, ,-55, ,
5, ,-56, ,
-1, ,-55, ,
0, ,-55, ,
1, ,-55, ,
-1, ,-56, ,
3, ,-55, ,
5, ,-55, ,
0, ,-55, ,
1, ,-55, ,
3, ,-55, ,
-1, ,-55, ,
-6, ,-55, ,
1, ,-56, ,
-1, ,-55, ,
3, ,-55, ,
1, ,-55, ,
1, ,-55, ,
1, ,-54, ,
4, ,-56, ,
-2, ,-55, ,
0, ,-55, ,
3, ,-55, ,
3, ,-55, ,
0, ,-54, ,
1, ,-56, ,
6, ,-55, ,
3, ,-55, ,
1, ,-55, ,
3, ,-56, ,
4, ,-54, ,
4, ,-56, ,
-1, ,-55, ,
8, ,-55, ,
9, ,-55, ,
6, ,-55, ,
0, ,-54, ,
6, ,-56, ,
6, ,-55, ,
-1, ,-55, ,
-1, ,-55, ,
3, ,-55, ,
4, ,-55, ,
6, ,-56, ,
1, ,-55, ,
4, ,-55, ,
4, ,-56, ,
1, ,-55, ,
-1, ,-54, ,
3, ,-56, ,
-1, ,-55, ,
1, ,-55, ,
3, ,-55, ,
5, ,-55, ,
5, ,-55, ,
6, ,-55, ,
3, ,-55, ,
3, ,-55, ,
3, ,-55, ,
1, ,-56, ,
-1, ,-55, ,
1, ,-56, ,
0, ,-55, ,
0, ,-55, ,
-1, ,-55, ,
0, ,-56, ,
3, ,-54, ,
4, ,-55, ,
0, ,-55, ,
3, ,-55, ,
6, ,-55, ,
1, ,-55, ,
1, ,-55, ,
4, ,-56, ,
1, ,-55, ,
-1, ,-55, ,
-2, ,-55, ,
0, ,-56, ,
0, ,-54, ,
1, ,-55, ,
-5, ,-55, ,
3, ,-55, ,
3, ,-55, ,
-1, ,-55, ,
-4, ,-55, ,
0, ,-56, ,
3, ,-55, ,
-1, ,-55, ,
-1, ,-55, ,
3, ,-56, ,
1, ,-55, ,
5, ,-55, ,
1, ,-55, ,
3, ,-55, ,
4, ,-56, ,
0, ,-55, ,
-2, ,-55, ,
0, ,-56, ,
-1, ,-55, ,
0, ,-55, ,
-1, ,-56, ,
3, ,-56, ,
3, ,-55, ,
4, ,-56, ,
0, ,-55, ,
1, ,-55, ,
4, ,-55, ,
-1, ,-55, ,
-4, ,-55, ,
3, ,-56, ,
1, ,-55, ,
0, ,-55, ,
-4, ,-55, ,
0, ,-55, ,
-2, ,-54, ,
1, ,-55, ,
-5, ,-55, ,
0, ,-55, ,
4, ,-55, ,
-4, ,-56, ,
-10, ,-55, ,
-6, ,-56, ,
-15, ,-55, ,
-16, ,-55, ,
-15, ,-55, ,
-12, ,-56, ,
-5, ,-55, ,
-2, ,-56, ,
-1, ,-55, ,
8, ,-55, ,
10, ,-55, ,
9, ,-55, ,
9, ,-55, ,
13, ,-56, ,
11, ,-55, ,
8, ,-55, ,
4, ,-56, ,
1, ,-56, ,
0, ,-55, ,
3, ,-55, ,
-7, ,-56, ,
0, ,-55, ,
0, ,-55, ,
-6, ,-55, ,
-5, ,-54, ,
1, ,-56, ,
0, ,-55, ,
0, ,-55, ,
0, ,-56, ,
-1, ,-56, ,
-1, ,-55, ,
-1, ,-56, ,
-10, ,-55, ,
-2, ,-55, ,
-5, ,-54, ,
-2, ,-48, ,
3, ,-38, ,
6, ,-28, ,
8, ,-19, ,
5, ,-11, ,
0, ,-4, ,
0, ,2, ,
-2, ,7, ,
1, ,11, ,
-2, ,15, ,
1, ,18, ,
6, ,21, ,
-1, ,23, ,
-4, ,26, ,
5, ,28, ,
3, ,29, ,
5, ,30, ,
3, ,32, ,
3, ,32, ,
4, ,33, ,
0, ,34, ,
-1, ,35, ,
0, ,35, ,
1, ,35, ,
0, ,36, ,
-5, ,36, ,
1, ,37, ,
-1, ,36, ,
-7, ,37, ,
-1, ,37, ,
5, ,37, ,
1, ,37, ,
8, ,38, ,
0, ,38, ,
0, ,38, ,
1, ,38, ,
0, ,38, ,
-4, ,38, ,
4, ,38, ,
3, ,38, ,
4, ,38, ,
5, ,38, ,
0, ,38, ,
4, ,37, ,
4, ,38, ,
-4, ,38, ,
1, ,38, ,
1, ,38, ,
3, ,38, ,
1, ,37, ,
4, ,39, ,
4, ,38, ,
1, ,38, ,
0, ,38, ,
1, ,38, ,
-2, ,37, ,
3, ,38, ,
-2, ,38, ,
3, ,38, ,
9, ,38, ,
1, ,38, ,
-5, ,37, ,
3, ,39, ,
-6, ,38, ,
-2, ,38, ,
-2, ,38, ,
0, ,38, ,
1, ,37, ,
6, ,38, ,
0, ,37, ,
1, ,37, ,
1, ,38, ,
-2, ,38, ,
-2, ,37, ,
3, ,38, ,
3, ,37, ,
1, ,38, ,
0, ,38, ,
1, ,38, ,
-1, ,37, ,
0, ,38, ,
-6, ,38, ,
0, ,38, ,
1, ,38, ,
0, ,38, ,
-1, ,37, ,
6, ,38, ,
3, ,37, ,
3, ,38, ,
0, ,38, ,
-1, ,37, ,
0, ,37, ,
1, ,38, ,
-5, ,37, ,
1, ,37, ,
3, ,38, ,
4, ,38, ,
-2, ,37, ,
8, ,38, ,
4, ,37, ,
1, ,37, ,
-1, ,38, ,
-1, ,38, ,
3, ,37, ,
5, ,38, ,
-4, ,37, ,
1, ,37, ,
4, ,38, ,
0, ,37, ,
-6, ,37, ,
0, ,38, ,
-1, ,37, ,
0, ,37, ,
1, ,38, ,
3, ,37, ,
4, ,37, ,
8, ,38, ,
0, ,38, ,
4, ,37, ,
4, ,38, ,
3, ,38, ,
-1, ,36, ,
3, ,38, ,
5, ,37, ,
4, ,38, ,
5, ,38, ,
4, ,37, ,
3, ,37, ,
4, ,38, ,
-4, ,38, ,
3, ,37, ,
5, ,38, ,
1, ,38, ,
-4, ,36, ,
4, ,38, ,
1, ,37, ,
4, ,37, ,
3, ,38, ,
1, ,38, ,
4, ,37, ,
6, ,38, ,
1, ,37, ,
3, ,37, ,
4, ,38, ,
4, ,37, ,
-2, ,36, ,
1, ,38, ,
-4, ,37, ,
-4, ,37, ,
-4, ,38, ,
-1, ,38, ,
1, ,37, ,
5, ,38, ,
-1, ,37, ,
5, ,38, ,
6, ,38, ,
1, ,37, ,
-5, ,37, ,
1, ,38, ,
-1, ,37, ,
0, ,37, ,
1, ,38, ,
-1, ,38, ,
0, ,37, ,
1, ,38, ,
-5, ,37, ,
-2, ,37, ,
0, ,38, ,
0, ,37, ,
-1, ,37, ,
5, ,38, ,
5, ,37, ,
5, ,38, ,
5, ,38, ,
4, ,38, ,
5, ,37, ,
8, ,38, ,
1, ,38, ,
5, ,37, ,
6, ,38, ,
0, ,38, ,
-2, ,37, ,
6, ,38, ,
1, ,37, ,
3, ,37, ,
1, ,38, ,
3, ,38, ,
4, ,37, ,
6, ,38, ,
3, ,37, ,
10, ,37, ,
9, ,38, ,
3, ,38, ,
-1, ,37, ,
6, ,38, ,
3, ,37, ,
1, ,37, ,
0, ,38, ,
1, ,38, ,
3, ,36, ,
8, ,38, ,
4, ,38, ,
8, ,37, ,
11, ,38, ,
6, ,38, ,
3, ,37, ,
5, ,38, ,
-1, ,37, ,
-1, ,37, ,
0, ,38, ,
0, ,37, ,
5, ,37, ,
5, ,38, ,
-2, ,38, ,
1, ,37, ,
3, ,38, ,
0, ,38, ,
0, ,37, ,
5, ,38, ,
4, ,38, ,
1, ,37, ,
1, ,38, ,
0, ,38, ,
0, ,36, ,
4, ,38, ,
-6, ,37, ,
0, ,37, ,
4, ,38, ,
1, ,38, ,
-2, ,37, ,
4, ,38, ,
1, ,38, ,
3, ,37, ,
-2, ,38, ,
-4, ,37, ,
-1, ,37, ,
3, ,38, ,
-5, ,38, ,
-1, ,37, ,
1, ,37, ,
-2, ,38, ,
-5, ,37, ,
-2, ,38, ,
-1, ,37, ,
-4, ,37, ,
-1, ,38, ,
-4, ,38, ,
-6, ,37, ,
-6, ,38, ,
-10, ,37, ,
-6, ,37, ,
-1, ,37, ,
-4, ,38, ,
-6, ,37, ,
-1, ,38, ,
-4, ,37, ,
-4, ,37, ,
-2, ,38, ,
-2, ,37, ,
-2, ,37, ,
-4, ,38, ,
-7, ,37, ,
-6, ,37, ,
-5, ,37, ,
-5, ,38, ,
-7, ,37, ,
3, ,38, ,
0, ,37, ,
-1, ,37, ,
-5, ,38, ,
-6, ,37, ,
-6, ,37, ,
-1, ,38, ,
-7, ,37, ,
-2, ,37, ,
0, ,38, ,
-2, ,37, ,
-6, ,37, ,
0, ,38, ,
-2, ,37, ,
-1, ,37, ,
-1, ,37, ,
-2, ,37, ,
0, ,36, ,
3, ,38, ,
-4, ,37, ,
-1, ,37, ,
-2, ,38, ,
-4, ,38, ,
-6, ,37, ,
0, ,38, ,
0, ,37, ,
1, ,37, ,
-1, ,38, ,
1, ,38, ,
0, ,36, ,
0, ,38, ,
-9, ,38, ,
-4, ,37, ,
-1, ,37, ,
-7, ,37, ,
-9, ,36, ,
0, ,38, ,
-4, ,37, ,
0, ,37, ,
-2, ,38, ,
-2, ,37, ,
0, ,37, ,
1, ,38, ,
-6, ,37, ,
-1, ,37, ,
-1, ,37, ,
-4, ,37, ,
-6, ,37, ,
0, ,38, ,
-4, ,37, ,
-1, ,37, ,
-6, ,38, ,
-1, ,37, ,
-4, ,37, ,
4, ,38, ,
-5, ,38, ,
-4, ,37, ,
4, ,38, ,
-1, ,38, ,
-7, ,36, ,
0, ,38, ,
-2, ,37, ,
-1, ,37, ,
-2, ,38, ,
-2, ,37, ,
1, ,37, ,
1, ,38, ,
-5, ,37, ,
-1, ,37, ,
-1, ,38, ,
-1, ,38, ,
-4, ,37, ,
4, ,38, ,
5, ,37, ,
4, ,37, ,
4, ,38, ,
1, ,37, ,
1, ,37, ,
5, ,38, ,
-4, ,37, ,
-1, ,37, ,
3, ,38, ,
1, ,38, ,
0, ,36, ,
5, ,38, ,
3, ,37, ,
3, ,37, ,
0, ,38, ,
1, ,37, ,
4, ,37, ,
6, ,38, ,
-1, ,38, ,
4, ,37, ,
5, ,38, ,
0, ,37, ,
-2, ,37, ,
6, ,38, ,
4, ,37, ,
3, ,37, ,
1, ,38, ,
3, ,37, ,
3, ,36, ,
5, ,38, ,
1, ,37, ,
1, ,37, ,
5, ,38, ,
0, ,37, ,
-4, ,37, ,
6, ,38, ,
4, ,37, ,
8, ,37, ,
6, ,38, ,
6, ,38, ,
9, ,37, ,
9, ,38, ,
-1, ,37, ,
5, ,37, ,
5, ,38, ,
4, ,37, ,
-2, ,37, ,
5, ,38, ,
-1, ,37, ,
3, ,37, ,
0, ,38, ,
3, ,38, ,
4, ,37, ,
4, ,38, ,
-2, ,37, ,
4, ,37, ,
5, ,37, ,
3, ,38, ,
1, ,36, ,
8, ,38, ,
5, ,38, ,
6, ,37, ,
5, ,38, ,
1, ,38, ,
4, ,36, ,
4, ,38, ,
-4, ,37, ,
3, ,37, ,
5, ,38, ,
4, ,37, ,
-1, ,37, ,
1, ,38, ,
1, ,37, ,
0, ,37, ,
3, ,38, ,
4, ,38, ,
1, ,37, ,
8, ,38, ,
0, ,38, ,
3, ,37, ,
6, ,38, ,
3, ,37, ,
-1, ,37, ,
4, ,38, ,
1, ,37, ,
3, ,37, ,
1, ,38, ,
4, ,37, ,
6, ,37, ,
6, ,38, ,
0, ,37, ,
4, ,37, ,
4, ,37, ,
3, ,37, ,
-2, ,37, ,
6, ,38, ,
3, ,37, ,
3, ,38, ,
3, ,38, ,
1, ,37, ,
4, ,36, ,
3, ,38, ,
0, ,38, ,
5, ,37, ,
11, ,37, ,
5, ,38, ,
3, ,37, ,
8, ,38, ,
3, ,37, ,
1, ,37, ,
1, ,38, ,
1, ,37, ,
3, ,37, ,
8, ,38, ,
0, ,38, ,
8, ,37, ,
8, ,38, ,
4, ,38, ,
-1, ,37, ,
6, ,38, ,
1, ,37, ,
-4, ,37, ,
-1, ,38, ,
0, ,38, ,
3, ,36, ,
5, ,38, ,
-4, ,38, ,
0, ,37, ,
3, ,38, ,
0, ,38, ,
-5, ,37, ,
1, ,38, ,
-1, ,37, ,
0, ,37, ,
0, ,37, ,
-1, ,38, ,
0, ,37, ,
1, ,38, ,
-2, ,37, ,
1, ,37, ,
4, ,37, ,
0, ,37, ,
-1, ,37, ,
3, ,38, ,
-6, ,37, ,
1, ,37, ,
1, ,38, ,
-5, ,37, ,
-1, ,37, ,
0, ,38, ,
-6, ,37, ,
-4, ,37, ,
0, ,38, ,
-1, ,38, ,
-5, ,37, ,
0, ,38, ,
-2, ,37, ,
-1, ,37, ,
-5, ,38, ,
-5, ,38, ,
3, ,36, ,
5, ,38, ,
-1, ,38, ,
0, ,37, ,
-2, ,38, ,
-5, ,38, ,
-5, ,36, ,
1, ,38, ,
-5, ,37, ,
-4, ,38, ,
-4, ,38, ,
-4, ,37, ,
-2, ,37, ,
-1, ,37, ,
-9, ,37, ,
3, ,37, ,
1, ,37, ,
-1, ,38, ,
-4, ,37, ,
1, ,38, ,
-1, ,37, ,
-1, ,37, ,
-1, ,37, ,
-2, ,38, ,
-2, ,36, ,
1, ,38, ,
-11, ,37, ,
-4, ,37, ,
-1, ,38, ,
-4, ,38, ,
-5, ,36, ,
1, ,38, ,
0, ,37, ,
0, ,37, ,
-2, ,38, ,
0, ,37, ,
-2, ,37, ,
0, ,38, ,
-7, ,37, ,
-1, ,37, ,
0, ,38, ,
-2, ,37, ,
-6, ,37, ,
-1, ,38, ,
-5, ,38, ,
-2, ,37, ,
-4, ,37, ,
-2, ,37, ,
1, ,37, ,
0, ,38, ,
-5, ,38, ,
-4, ,37, ,
-1, ,37, ,
-6, ,37, ,
-7, ,37, ,
1, ,38, ,
-2, ,37, ,
-1, ,38, ,
-4, ,38, ,
-1, ,38, ,
1, ,36, ,
-1, ,38, ,
-9, ,38, ,
-4, ,38, ,
0, ,38, ,
-4, ,38, ,
-10, ,36, ,
1, ,38, ,
-4, ,37, ,
-2, ,37, ,
-2, ,38, ,
-2, ,38, ,
-2, ,37, ,
-2, ,37, ,
-9, ,37, ,
-4, ,37, ,
-2, ,37, ,
-4, ,37, ,
-2, ,37, ,
-1, ,38, ,
-5, ,37, ,
-1, ,37, ,
1, ,38, ,
-2, ,37, ,
1, ,37, ,
5, ,38, ,
-6, ,37, ,
-2, ,37, ,
4, ,38, ,
-2, ,38, ,
-4, ,36, ,
3, ,38, ,
-1, ,37, ,
3, ,37, ,
-1, ,38, ,
0, ,37, ,
0, ,37, ,
5, ,38, ,
-2, ,37, ,
1, ,37, ,
3, ,37, ,
-1, ,37, ,
-4, ,37, ,
3, ,38, ,
0, ,38, ,
4, ,37, ,
4, ,38, ,
5, ,38, ,
1, ,37, ,
3, ,38, ,
-2, ,37, ,
-1, ,37, ,
0, ,38, ,
0, ,38, ,
-2, ,37, ,
4, ,38, ,
-1, ,37, ,
1, ,37, ,
1, ,38, ,
3, ,38, ,
4, ,37, ,
6, ,38, ,
-1, ,37, ,
4, ,37, ,
6, ,37, ,
3, ,37, ,
-2, ,36, ,
4, ,38, ,
1, ,37, ,
1, ,37, ,
-1, ,37, ,
0, ,37, ,
3, ,37, ,
3, ,38, ,
-1, ,37, ,
4, ,37, ,
4, ,38, ,
1, ,37, ,
3, ,37, ,
5, ,38, ,
3, ,37, ,
4, ,37, ,
4, ,38, ,
3, ,38, ,
5, ,37, ,
5, ,38, ,
-4, ,37, ,
3, ,37, ,
1, ,38, ,
-1, ,37, ,
0, ,37, ,
5, ,38, ,
5, ,37, ,
3, ,37, ,
3, ,38, ,
5, ,38, ,
4, ,37, ,
5, ,38, ,
-2, ,38, ,
1, ,37, ,
4, ,37, ,
1, ,38, ,
0, ,37, ,
6, ,38, ,
3, ,37, ,
6, ,37, ,
4, ,38, ,
3, ,37, ,
6, ,37, ,
6, ,38, ,
3, ,37, ,
5, ,37, ,
6, ,37, ,
3, ,38, ,
-2, ,37, ,
4, ,38, ,
3, ,37, ,
1, ,37, ,
0, ,38, ,
4, ,38, ,
5, ,37, ,
6, ,38, ,
1, ,37, ,
3, ,37, ,
8, ,38, ,
4, ,38, ,
0, ,37, ,
6, ,38, ,
3, ,37, ,
6, ,37, ,
4, ,38, ,
4, ,38, ,
5, ,36, ,
9, ,38, ,
1, ,38, ,
6, ,37, ,
6, ,38, ,
6, ,37, ,
4, ,37, ,
9, ,38, ,
8, ,37, ,
8, ,37, ,
8, ,37, ,
4, ,38, ,
5, ,36, ,
8, ,38, ,
-2, ,37, ,
6, ,37, ,
9, ,38, ,
5, ,37, ,
4, ,37, ,
4, ,38, ,
0, ,37, ,
-1, ,37, ,
0, ,38, ,
0, ,37, ,
3, ,37, ,
6, ,38, ,
0, ,37, ,
1, ,37, ,
5, ,38, ,
3, ,37, ,
-2, ,37, ,
1, ,38, ,
0, ,37, ,
3, ,37, ,
1, ,38, ,
1, ,38, ,
0, ,37, ,
4, ,38, ,
-4, ,37, ,
0, ,37, ,
1, ,38, ,
0, ,38, ,
-6, ,36, ,
4, ,38, ,
-2, ,37, ,
1, ,37, ,
4, ,38, ,
5, ,38, ,
3, ,37, ,
6, ,38, ,
1, ,37, ,
5, ,37, ,
8, ,38, ,
4, ,38, ,
1, ,37, ,
6, ,38, ,
3, ,37, ,
1, ,38, ,
-2, ,38, ,
-2, ,37, ,
0, ,37, ,
3, ,38, ,
-6, ,37, ,
3, ,37, ,
4, ,38, ,
4, ,38, ,
1, ,36, ,
6, ,38, ,
-1, ,37, ,
-1, ,37, ,
-2, ,38, ,
-1, ,38, ,
0, ,36, ,
1, ,38, ,
-5, ,37, ,
1, ,37, ,
1, ,38, ,
-2, ,37, ,
-4, ,37, ,
3, ,38, ,
3, ,37, ,
0, ,37, ,
0, ,37, ,
-1, ,38, ,
-2, ,37, ,
-2, ,37, ,
-10, ,37, ,
0, ,37, ,
0, ,37, ,
1, ,37, ,
-2, ,32, ,
1, ,25, ,
-5, ,14, ,
-4, ,4, ,
-5, ,-4, ,
-2, ,-11, ,
0, ,-17, ,
-1, ,-22, ,
-9, ,-27, ,
-9, ,-30, ,
-7, ,-35, ,
-10, ,-38, ,
-10, ,-39, ,
-4, ,-43, ,
-6, ,-44, ,
-6, ,-45, ,
-9, ,-47, ,
-7, ,-48, ,
-6, ,-49, ,
-5, ,-50, ,
-7, ,-51, ,
-2, ,-51, ,
0, ,-52, ,
-4, ,-52, ,
-5, ,-52, ,
0, ,-54, ,
-4, ,-54, ,
-2, ,-54, ,
-4, ,-55, ,
-4, ,-55, ,
-2, ,-54, ,
-2, ,-56, ,
-6, ,-55, ,
-1, ,-56, ,
-2, ,-56, ,
-5, ,-56, ,
-6, ,-55, ,
0, ,-57, ,
0, ,-56, ,
-1, ,-56, ,
-2, ,-56, ,
-1, ,-56, ,
-4, ,-55, ,
1, ,-56, ,
-7, ,-56, ,
-1, ,-56, ,
0, ,-56, ,
-2, ,-56, ,
-5, ,-55, ,
1, ,-57, ,
0, ,-56, ,
-1, ,-56, ,
-1, ,-56, ,
-1, ,-56, ,
-2, ,-55, ,
1, ,-56, ,
-7, ,-56, ,
0, ,-56, ,
3, ,-56, ,
0, ,-56, ,
-4, ,-55, ,
4, ,-56, ,
0, ,-56, ,
1, ,-55, ,
-1, ,-56, ,
1, ,-56, ,
0, ,-55, ,
1, ,-56, ,
-4, ,-55, ,
0, ,-55, ,
5, ,-56, ,
-1, ,-56, ,
-6, ,-55, ,
3, ,-56, ,
-1, ,-55, ,
0, ,-55, ,
0, ,-56, ,
1, ,-56, ,
4, ,-55, ,
4, ,-56, ,
0, ,-56, ,
5, ,-55, ,
3, ,-55, ,
-2, ,-56, ,
-7, ,-55, ,
0, ,-56, ,
-2, ,-56, ,
-5, ,-55, ,
-2, ,-55, ,
-1, ,-56, ,
-4, ,-55, ,
-5, ,-56, ,
-10, ,-55, ,
-2, ,-55, ,
-1, ,-55, ,
-1, ,-56, ,
-2, ,-55, ,
5, ,-56, ,
4, ,-55, ,
1, ,-55, ,
1, ,-55, ,
-1, ,-56, ,
1, ,-55, ,
1, ,-56, ,
-5, ,-55, ,
4, ,-55, ,
3, ,-55, ,
-1, ,-55, ,
-5, ,-55, ,
1, ,-56, ,
1, ,-55, ,
-1, ,-55, ,
0, ,-56, ,
3, ,-56, ,
3, ,-55, ,
6, ,-56, ,
-1, ,-56, ,
1, ,-55, ,
3, ,-56, ,
-2, ,-55, ,
-5, ,-55, ,
4, ,-56, ,
0, ,-55, ,
3, ,-55, ,
3, ,-56, ,
3, ,-56, ,
4, ,-55, ,
3, ,-56, ,
-4, ,-55, ,
0, ,-55, ,
1, ,-55, ,
3, ,-55, ,
-2, ,-55, ,
4, ,-56, ,
3, ,-55, ,
4, ,-55, ,
3, ,-56, ,
3, ,-56, ,
4, ,-54, ,
6, ,-55, ,
1, ,-55, ,
4, ,-55, ,
4, ,-55, ,
1, ,-56, ,
0, ,-55, ,
6, ,-56, ,
3, ,-55, ,
1, ,-55, ,
3, ,-56, ,
3, ,-56, ,
5, ,-55, ,
5, ,-56, ,
1, ,-55, ,
4, ,-55, ,
5, ,-55, ,
8, ,-56, ,
-1, ,-55, ,
1, ,-56, ,
9, ,-55, ,
4, ,-55, ,
1, ,-55, ,
5, ,-55, ,
3, ,-54, ,
5, ,-55, ,
0, ,-55, ,
4, ,-55, ,
4, ,-55, ,
0, ,-55, ,
-1, ,-54, ,
3, ,-56, ,
1, ,-55, ,
1, ,-55, ,
1, ,-55, ,
1, ,-56, ,
3, ,-55, ,
4, ,-56, ,
-4, ,-55, ,
0, ,-55, ,
5, ,-55, ,
3, ,-55, ,
0, ,-54, ,
6, ,-56, ,
5, ,-55, ,
4, ,-55, ,
1, ,-56, ,
3, ,-56, ,
-4, ,-55, ,
8, ,-56, ,
-1, ,-55, ,
0, ,-55, ,
5, ,-55, ,
-1, ,-56, ,
-2, ,-54, ,
3, ,-56, ,
-2, ,-55, ,
1, ,-55, ,
-1, ,-55, ,
3, ,-56, ,
5, ,-55, ,
5, ,-56, ,
3, ,-55, ,
3, ,-55, ,
5, ,-55, ,
3, ,-55, ,
-1, ,-55, ,
1, ,-56, ,
1, ,-55, ,
0, ,-55, ,
-1, ,-55, ,
0, ,-56, ,
0, ,-55, ,
4, ,-56, ,
-1, ,-55, ,
4, ,-55, ,
8, ,-55, ,
4, ,-56, ,
3, ,-54, ,
8, ,-56, ,
4, ,-55, ,
4, ,-55, ,
3, ,-55, ,
3, ,-56, ,
1, ,-55, ,
4, ,-56, ,
-5, ,-55, ,
0, ,-55, ,
0, ,-55, ,
0, ,-55, ,
-1, ,-55, ,
3, ,-56, ,
3, ,-55, ,
-1, ,-55, ,
0, ,-55, ,
1, ,-56, ,
0, ,-54, ,
4, ,-55, ,
-4, ,-55, ,
3, ,-55, ,
5, ,-55, ,
4, ,-55, ,
0, ,-55, ,
6, ,-56, ,
1, ,-55, ,
1, ,-55, ,
-4, ,-55, ,
-1, ,-56, ,
0, ,-55, ,
1, ,-55, ,
-4, ,-55, ,
3, ,-55, ,
4, ,-55, ,
0, ,-55, ,
-4, ,-54, ,
4, ,-56, ,
4, ,-55, ,
0, ,-55, ,
0, ,-55, ,
0, ,-55, ,
1, ,-55, ,
1, ,-56, ,
-2, ,-55, ,
0, ,-55, ,
4, ,-55, ,
3, ,-56, ,
-4, ,-55, ,
5, ,-56, ,
0, ,-55, ,
3, ,-55, ,
0, ,-55, ,
-2, ,-56, ,
0, ,-55, ,
-1, ,-56, ,
-6, ,-55, ,
3, ,-55, ,
4, ,-55, ,
1, ,-55, ,
-4, ,-55, ,
3, ,-56, ,
3, ,-55, ,
-2, ,-55, ,
-5, ,-56, ,
-4, ,-55, ,
-4, ,-54, ,
1, ,-56, ,
-6, ,-55, ,
1, ,-55, ,
1, ,-55, ,
-1, ,-55, ,
-2, ,-55, ,
3, ,-56, ,
0, ,-55, ,
0, ,-55, ,
-1, ,-55, ,
1, ,-56, ,
1, ,-55, ,
1, ,-56, ,
-5, ,-55, ,
-2, ,-55, ,
-2, ,-55, ,
-5, ,-55, ,
-5, ,-55, ,
3, ,-56, ,
3, ,-55, ,
4, ,-55, ,
1, ,-55, ,
0, ,-55, ,
-1, ,-55, ,
0, ,-55, ,
-6, ,-55, ,
-2, ,-55, ,
3, ,-55, ,
0, ,-55, ,
-1, ,-55, ,
5, ,-56, ,
1, ,-55, ,
0, ,-55, ,
1, ,-55, ,
3, ,-55, ,
4, ,-55, ,
6, ,-56, ,
1, ,-55, ,
4, ,-55, ,
5, ,-56, ,
0, ,-56, ,
-4, ,-54, ,
0, ,-56, ,
-2, ,-55, ,
-2, ,-55, ,
-4, ,-56, ,
-4, ,-55, ,
-4, ,-54, ,
-1, ,-56, ,
-5, ,-55, ,
-1, ,-55, ,
1, ,-55, ,
-2, ,-55, ,
-5, ,-55, ,
1, ,-56, ,
-1, ,-55, ,
-2, ,-55, ,
1, ,-55, ,
1, ,-55, ,
1, ,-54, ,
1, ,-56, ,
-6, ,-55, ,
-1, ,-55, ,
-1, ,-55, ,
-4, ,-55, ,
-5, ,-54, ,
0, ,-56, ,
3, ,-55, ,
-1, ,-55, ,
-1, ,-55, ,
1, ,-55, ,
3, ,-55, ,
1, ,-55, ,
-6, ,-55, ,
0, ,-55, ,
5, ,-55, ,
0, ,-55, ,
-1, ,-55, ,
6, ,-56, ,
1, ,-55, ,
1, ,-55, ,
-1, ,-56, ,
0, ,-56, ,
4, ,-55, ,
5, ,-56, ,
-1, ,-55, ,
3, ,-55, ,
4, ,-55, ,
1, ,-55, ,
-5, ,-55, ,
4, ,-56, ,
1, ,-55, ,
1, ,-54, ,
3, ,-55, ,
3, ,-56, ,
5, ,-55, ,
6, ,-55, ,
0, ,-55, ,
3, ,-55, ,
3, ,-55, ,
-1, ,-55, ,
-5, ,-55, ,
3, ,-56, ,
-1, ,-55, ,
1, ,-55, ,
0, ,-55, ,
3, ,-55, ,
4, ,-55, ,
3, ,-56, ,
-1, ,-55, ,
1, ,-55, ,
1, ,-55, ,
0, ,-55, ,
-2, ,-54, ,
3, ,-56, ,
3, ,-55, ,
0, ,-55, ,
0, ,-55, ,
0, ,-55, ,
-1, ,-54, ,
3, ,-55, ,
-6, ,-55, ,
0, ,-55, ,
1, ,-55, ,
-1, ,-55, ,
-1, ,-55, ,
3, ,-56, ,
0, ,-55, ,
-1, ,-55, ,
0, ,-55, ,
0, ,-56, ,
1, ,-55, ,
1, ,-56, ,
-4, ,-55, ,
0, ,-55, ,
3, ,-55, ,
0, ,-56, ,
-1, ,-55, ,
4, ,-56, ,
1, ,-55, ,
1, ,-55, ,
0, ,-55, ,
4, ,-56, ,
5, ,-54, ,
5, ,-55, ,
3, ,-55, ,
3, ,-55, ,
5, ,-55, ,
-2, ,-56, ,
-4, ,-54, ,
1, ,-56, ,
0, ,-55, ,
4, ,-55, ,
5, ,-55, ,
4, ,-56, ,
6, ,-55, ,
5, ,-56, ,
0, ,-55, ,
-1, ,-55, ,
1, ,-55, ,
4, ,-55, ,
-2, ,-55, ,
6, ,-56, ,
3, ,-55, ,
0, ,-55, ,
0, ,-55, ,
0, ,-56, ,
-1, ,-54, ,
-1, ,-55, ,
-4, ,-55, ,
4, ,-55, ,
4, ,-55, ,
1, ,-55, ,
1, ,-55, ,
4, ,-56, ,
1, ,-55, ,
1, ,-55, ,
3, ,-56, ,
3, ,-55, ,
5, ,-55, ,
6, ,-56, ,
-2, ,-55, ,
3, ,-55, ,
4, ,-56, ,
1, ,-55, ,
-6, ,-55, ,
-1, ,-56, ,
-1, ,-55, ,
-2, ,-55, ,
-1, ,-55, ,
1, ,-56, ,
4, ,-55, ,
4, ,-55, ,
-4, ,-55, ,
3, ,-55, ,
5, ,-55, ,
3, ,-55, ,
0, ,-55, ,
4, ,-56, ,
0, ,-55, ,
0, ,-55, ,
-2, ,-55, ,
0, ,-56, ,
0, ,-54, ,
-1, ,-56, ,
-6, ,-55, ,
-1, ,-55, ,
0, ,-55, ,
-1, ,-55, ,
-7, ,-55, ,
-1, ,-56, ,
-2, ,-55, ,
-1, ,-55, ,
-4, ,-55, ,
-1, ,-55, ,
-2, ,-54, ,
4, ,-55, ,
-5, ,-55, ,
1, ,-55, ,
6, ,-55, ,
1, ,-55, ,
-4, ,-55, ,
3, ,-56, ,
-2, ,-55, ,
0, ,-55, ,
-1, ,-55, ,
-1, ,-55, ,
3, ,-55, ,
1, ,-56, ,
0, ,-55, ,
5, ,-55, ,
3, ,-55, ,
4, ,-55, ,
-1, ,-55, ,
1, ,-56, ,
1, ,-55, ,
-1, ,-55, ,
-2, ,-55, ,
-2, ,-55, ,
-2, ,-54, ,
-2, ,-56, ,
-5, ,-55, ,
0, ,-55, ,
4, ,-55, ,
1, ,-55, ,
1, ,-55, ,
4, ,-56, ,
3, ,-55, ,
1, ,-55, ,
1, ,-55, ,
0, ,-55, ,
1, ,-55, ,
0, ,-55, ,
-5, ,-55, ,
-1, ,-55, ,
3, ,-55, ,
0, ,-55, ,
-1, ,-55, ,
5, ,-56, ,
3, ,-55, ,
1, ,-55, ,
-2, ,-55, ,
-2, ,-56, ,
-1, ,-54, ,
0, ,-55, ,
-6, ,-55, ,
-2, ,-55, ,
1, ,-56, ,
-4, ,-55, ,
-6, ,-55, ,
1, ,-56, ,
-4, ,-55, ,
0, ,-55, ,
-2, ,-55, ,
0, ,-55, ,
3, ,-55, ,
1, ,-55, ,
-4, ,-55, ,
3, ,-55, ,
-1, ,-55, ,
-5, ,-55, ,
-2, ,-55, ,
3, ,-56, ,
1, ,-55, ,
0, ,-55, ,
-2, ,-55, ,
-6, ,-55, ,
-5, ,-54, ,
1, ,-56, ,
-5, ,-55, ,
-1, ,-55, ,
4, ,-55, ,
-1, ,-56, ,
-2, ,-55, ,
5, ,-56, ,
1, ,-55, ,
-1, ,-55, ,
0, ,-55, ,
0, ,-56, ,
0, ,-54, ,
1, ,-55, ,
-4, ,-55, ,
1, ,-55, ,
1, ,-55, ,
-5, ,-55, ,
-4, ,-55, ,
1, ,-56, ,
1, ,-55, ,
-2, ,-55, ,
1, ,-55, ,
1, ,-56, ,
0, ,-54, ,
4, ,-55, ,
-2, ,-55, ,
-1, ,-55, ,
5, ,-55, ,
0, ,-55, ,
-1, ,-55, ,
4, ,-56, ,
1, ,-55, ,
3, ,-55, ,
0, ,-55, ,
1, ,-56, ,
4, ,-55, ,
3, ,-56, ,
-1, ,-55, ,
1, ,-55, ,
0, ,-55, ,
-7, ,-55, ,
1, ,-54, ,
9, ,-56, ,
4, ,-55, ,
6, ,-55, ,
3, ,-55, ,
6, ,-56, ,
4, ,-55, ,
5, ,-56, ,
0, ,-55, ,
4, ,-55, ,
6, ,-55, ,
0, ,-55, ,
-4, ,-55, ,
4, ,-56, ,
1, ,-55, ,
1, ,-55, ,
0, ,-55, ,
-1, ,-56, ,
3, ,-55, ,
6, ,-56, ,
1, ,-55, ,
5, ,-55, ,
5, ,-55, ,
1, ,-55, ,
-2, ,-55, ,
1, ,-56, ,
1, ,-55, ,
-1, ,-55, ,
-1, ,-55, ,
4, ,-56, ,
6, ,-54, ,
3, ,-56, ,
1, ,-55, ,
3, ,-55, ,
