src/vary_am2_1411/temp0003260.CSV

Format,1.0B,
Memory Length,10000,Memory Length,10000,
IntpDistance,0,IntpDistance,0,
Trigger Address,4999,Trigger Address,4999,
Trigger Level,-1.000E+00,Trigger Level,-1.000E+00,
Source,CH1,Source,CH2,
Vertical Units,V,Vertical Units,V,
Vertical Units Div,0,Vertical Units Div,0,
Vertical Units Extend Div,16,Vertical Units Extend Div,16,
Label,,Label,,
Probe Type,0,Probe Type,0,
Probe Ratio,1.000e+01,Probe Ratio,1.000e+00,
Vertical Scale,2.000e-02,Vertical Scale,1.000e+00,
Vertical Position,-5.120e-02,Vertical Position,2.000e-01,
Horizontal Units,S,Horizontal Units,S,
Horizontal Scale,1.000E-05,Horizontal Scale,1.000E-05,
Horizontal Position,0.000E+00,Horizontal Position,0.000E+00,
Horizontal Mode,Main,Horizontal Mode,Main,
SincET Mode,Real Time,SincET Mode,Real Time,
Sampling Period,1.000e-08,Sampling Period,1.000e-08,
Horizontal Old Scale,1.000E-05,Horizontal Old Scale,1.000E-05,
Horizontal Old Position,0.000E+00,Horizontal Old Position,0.000E+00,
Firmware,V1.23,Firmware,V1.23,
Mode,Fast,Mode,Fast,
Waveform Data,,Waveform Data,,
-4, ,-40, ,
-1, ,-40, ,
0, ,-40, ,
0, ,-40, ,
-4, ,-40, ,
-1, ,-40, ,
3, ,-40, ,
0, ,-40, ,
-1, ,-40, ,
4, ,-40, ,
1, ,-40, ,
0, ,-40, ,
-4, ,-40, ,
-4, ,-40, ,
1, ,-41, ,
-1, ,-40, ,
-10, ,-40, ,
3, ,-40, ,
0, ,-40, ,
0, ,-40, ,
-4, ,-40, ,
3, ,-40, ,
1, ,-40, ,
-1, ,-40, ,
-2, ,-40, ,
-2, ,-40, ,
-4, ,-40, ,
-1, ,-40, ,
-6, ,-40, ,
0, ,-40, ,
1, ,-40, ,
-2, ,-40, ,
-4, ,-40, ,
3, ,-40, ,
-1, ,-40, ,
3, ,-40, ,
-2, ,-40, ,
1, ,-40, ,
0, ,-41, ,
-4, ,-40, ,
-9, ,-40, ,
-5, ,-40, ,
-2, ,-40, ,
-2, ,-39, ,
-5, ,-41, ,
3, ,-40, ,
4, ,-40, ,
4, ,-40, ,
1, ,-40, ,
1, ,-40, ,
0, ,-41, ,
-1, ,-40, ,
-6, ,-40, ,
-2, ,-40, ,
0, ,-40, ,
-1, ,-40, ,
-2, ,-40, ,
4, ,-40, ,
1, ,-40, ,
1, ,-40, ,
-1, ,-40, ,
1, ,-40, ,
3, ,-41, ,
1, ,-40, ,
-1, ,-40, ,
3, ,-40, ,
4, ,-40, ,
3, ,-40, ,
-4, ,-40, ,
4, ,-40, ,
0, ,-40, ,
-1, ,-40, ,
1, ,-40, ,
-1, ,-40, ,
0, ,-41, ,
3, ,-40, ,
-4, ,-40, ,
1, ,-40, ,
0, ,-40, ,
0, ,-40, ,
-2, ,-40, ,
4, ,-40, ,
8, ,-40, ,
11, ,-40, ,
8, ,-40, ,
9, ,-40, ,
4, ,-40, ,
1, ,-40, ,
-5, ,-40, ,
0, ,-40, ,
3, ,-40, ,
3, ,-39, ,
-2, ,-40, ,
3, ,-40, ,
4, ,-40, ,
5, ,-40, ,
5, ,-40, ,
5, ,-39, ,
1, ,-41, ,
1, ,-40, ,
-4, ,-40, ,
1, ,-40, ,
4, ,-40, ,
-1, ,-40, ,
-1, ,-40, ,
3, ,-40, ,
3, ,-40, ,
3, ,-40, ,
0, ,-40, ,
-2, ,-40, ,
1, ,-40, ,
1, ,-40, ,
0, ,-40, ,
-1, ,-40, ,
3, ,-40, ,
1, ,-39, ,
-5, ,-40, ,
3, ,-40, ,
3, ,-40, ,
5, ,-40, ,
4, ,-40, ,
4, ,-39, ,
4, ,-41, ,
1, ,-40, ,
-4, ,-40, ,
-1, ,-40, ,
3, ,-40, ,
0, ,-40, ,
0, ,-40, ,
3, ,-40, ,
1, ,-40, ,
1, ,-40, ,
3, ,-40, ,
1, ,-40, ,
5, ,-41, ,
5, ,-40, ,
-1, ,-40, ,
4, ,-40, ,
4, ,-40, ,
4, ,-40, ,
3, ,-40, ,
6, ,-40, ,
5, ,-40, ,
5, ,-40, ,
3, ,-40, ,
5, ,-40, ,
4, ,-41, ,
6, ,-40, ,
1, ,-40, ,
5, ,-40, ,
9, ,-40, ,
6, ,-40, ,
4, ,-40, ,
6, ,-40, ,
4, ,-40, ,
3, ,-40, ,
0, ,-40, ,
1, ,-40, ,
4, ,-40, ,
4, ,-40, ,
3, ,-40, ,
3, ,-40, ,
5, ,-40, ,
3, ,-40, ,
0, ,-40, ,
5, ,-40, ,
5, ,-40, ,
6, ,-40, ,
5, ,-40, ,
4, ,-39, ,
5, ,-41, ,
5, ,-40, ,
0, ,-40, ,
-1, ,-40, ,
5, ,-40, ,
4, ,-40, ,
-10, ,-40, ,
1, ,-40, ,
5, ,-40, ,
4, ,-40, ,
4, ,-40, ,
4, ,-40, ,
4, ,-40, ,
1, ,-40, ,
-2, ,-40, ,
6, ,-40, ,
8, ,-40, ,
1, ,-39, ,
-1, ,-40, ,
3, ,-40, ,
4, ,-40, ,
-1, ,-40, ,
-2, ,-40, ,
1, ,-40, ,
1, ,-41, ,
6, ,-40, ,
1, ,-40, ,
8, ,-40, ,
6, ,-40, ,
1, ,-39, ,
-4, ,-40, ,
4, ,-40, ,
1, ,-40, ,
1, ,-40, ,
0, ,-40, ,
3, ,-40, ,
3, ,-41, ,
4, ,-40, ,
-4, ,-40, ,
3, ,-40, ,
4, ,-40, ,
3, ,-40, ,
-2, ,-40, ,
3, ,-40, ,
4, ,-40, ,
-1, ,-40, ,
-2, ,-40, ,
1, ,-40, ,
0, ,-40, ,
4, ,-40, ,
1, ,-40, ,
1, ,-40, ,
5, ,-40, ,
0, ,-40, ,
-1, ,-40, ,
4, ,-40, ,
1, ,-40, ,
3, ,-40, ,
0, ,-40, ,
4, ,-40, ,
5, ,-41, ,
5, ,-40, ,
3, ,-40, ,
4, ,-40, ,
5, ,-40, ,
4, ,-40, ,
0, ,-41, ,
3, ,-40, ,
0, ,-40, ,
-5, ,-40, ,
-2, ,-40, ,
-1, ,-40, ,
3, ,-41, ,
5, ,-40, ,
4, ,-40, ,
8, ,-40, ,
5, ,-40, ,
1, ,-40, ,
-2, ,-40, ,
3, ,-40, ,
3, ,-40, ,
5, ,-40, ,
-2, ,-40, ,
-11, ,-39, ,
3, ,-41, ,
6, ,-40, ,
-11, ,-40, ,
4, ,-40, ,
1, ,-40, ,
-2, ,-40, ,
-6, ,-40, ,
3, ,-40, ,
1, ,-40, ,
-5, ,-40, ,
-4, ,-40, ,
-4, ,-40, ,
-4, ,-40, ,
0, ,-40, ,
-2, ,-40, ,
0, ,-40, ,
6, ,-40, ,
3, ,-40, ,
0, ,-40, ,
0, ,-40, ,
-2, ,-40, ,
0, ,-40, ,
-5, ,-40, ,
-1, ,-40, ,
-5, ,-40, ,
-1, ,-40, ,
-4, ,-40, ,
0, ,-40, ,
0, ,-40, ,
-2, ,-40, ,
-5, ,-40, ,
3, ,-40, ,
1, ,-40, ,
1, ,-40, ,
0, ,-40, ,
0, ,-40, ,
1, ,-41, ,
-2, ,-40, ,
-5, ,-40, ,
-2, ,-40, ,
-1, ,-40, ,
-2, ,-40, ,
-5, ,-40, ,
4, ,-40, ,
1, ,-40, ,
1, ,-40, ,
0, ,-40, ,
1, ,-40, ,
3, ,-41, ,
0, ,-40, ,
-6, ,-40, ,
0, ,-40, ,
1, ,-40, ,
3, ,-40, ,
-1, ,-40, ,
5, ,-40, ,
-4, ,-36, ,
0, ,-27, ,
4, ,-18, ,
3, ,-8, ,
4, ,0, ,
4, ,8, ,
-2, ,14, ,
3, ,19, ,
5, ,25, ,
4, ,28, ,
1, ,32, ,
5, ,35, ,
4, ,37, ,
3, ,40, ,
-1, ,41, ,
4, ,42, ,
4, ,45, ,
4, ,46, ,
-1, ,47, ,
1, ,48, ,
3, ,49, ,
1, ,48, ,
-1, ,50, ,
4, ,51, ,
1, ,51, ,
1, ,51, ,
3, ,52, ,
1, ,51, ,
-1, ,53, ,
1, ,52, ,
-5, ,52, ,
-2, ,53, ,
3, ,53, ,
0, ,51, ,
-2, ,54, ,
5, ,53, ,
3, ,53, ,
5, ,53, ,
0, ,53, ,
0, ,52, ,
0, ,54, ,
0, ,52, ,
-5, ,53, ,
0, ,54, ,
1, ,54, ,
1, ,52, ,
-4, ,53, ,
3, ,53, ,
0, ,53, ,
1, ,53, ,
1, ,54, ,
0, ,52, ,
3, ,54, ,
1, ,53, ,
-1, ,53, ,
4, ,54, ,
3, ,53, ,
1, ,52, ,
-2, ,54, ,
1, ,53, ,
1, ,53, ,
0, ,53, ,
4, ,54, ,
4, ,52, ,
4, ,54, ,
4, ,52, ,
-2, ,53, ,
1, ,53, ,
-1, ,53, ,
0, ,51, ,
-2, ,54, ,
4, ,53, ,
5, ,53, ,
4, ,52, ,
1, ,53, ,
4, ,52, ,
0, ,54, ,
3, ,52, ,
0, ,53, ,
4, ,53, ,
5, ,53, ,
6, ,51, ,
4, ,54, ,
8, ,53, ,
4, ,52, ,
3, ,53, ,
-2, ,53, ,
1, ,52, ,
0, ,54, ,
-1, ,52, ,
-1, ,53, ,
0, ,53, ,
3, ,53, ,
3, ,52, ,
-2, ,53, ,
4, ,52, ,
1, ,52, ,
5, ,53, ,
4, ,53, ,
5, ,52, ,
4, ,53, ,
1, ,52, ,
-2, ,53, ,
1, ,53, ,
3, ,53, ,
0, ,51, ,
-4, ,54, ,
4, ,52, ,
3, ,52, ,
3, ,53, ,
0, ,53, ,
1, ,51, ,
4, ,54, ,
4, ,52, ,
1, ,53, ,
3, ,53, ,
1, ,53, ,
4, ,52, ,
-1, ,54, ,
0, ,52, ,
0, ,52, ,
0, ,53, ,
3, ,53, ,
3, ,51, ,
1, ,54, ,
4, ,52, ,
0, ,53, ,
6, ,53, ,
5, ,53, ,
3, ,51, ,
4, ,54, ,
5, ,52, ,
4, ,52, ,
5, ,53, ,
3, ,53, ,
3, ,52, ,
5, ,54, ,
6, ,52, ,
3, ,52, ,
4, ,53, ,
8, ,53, ,
6, ,50, ,
3, ,54, ,
4, ,53, ,
3, ,53, ,
1, ,52, ,
0, ,53, ,
4, ,52, ,
5, ,53, ,
6, ,52, ,
4, ,53, ,
6, ,53, ,
4, ,53, ,
0, ,51, ,
-1, ,54, ,
5, ,53, ,
3, ,52, ,
9, ,53, ,
-1, ,53, ,
4, ,51, ,
13, ,54, ,
5, ,52, ,
4, ,52, ,
4, ,53, ,
3, ,53, ,
6, ,51, ,
0, ,53, ,
4, ,53, ,
0, ,53, ,
1, ,52, ,
-4, ,53, ,
0, ,52, ,
0, ,53, ,
4, ,52, ,
3, ,53, ,
9, ,53, ,
8, ,53, ,
5, ,50, ,
-1, ,54, ,
1, ,52, ,
-1, ,52, ,
1, ,53, ,
1, ,53, ,
1, ,51, ,
4, ,54, ,
6, ,52, ,
-1, ,52, ,
4, ,53, ,
-1, ,53, ,
1, ,51, ,
-4, ,54, ,
-1, ,52, ,
0, ,52, ,
-4, ,53, ,
-2, ,53, ,
1, ,52, ,
-1, ,54, ,
3, ,52, ,
-1, ,52, ,
4, ,53, ,
4, ,53, ,
0, ,51, ,
-1, ,53, ,
4, ,52, ,
-4, ,52, ,
0, ,52, ,
-5, ,53, ,
0, ,52, ,
3, ,53, ,
3, ,52, ,
-1, ,52, ,
4, ,53, ,
4, ,53, ,
4, ,51, ,
0, ,53, ,
6, ,52, ,
4, ,53, ,
1, ,52, ,
0, ,53, ,
-1, ,52, ,
1, ,53, ,
1, ,52, ,
-1, ,53, ,
3, ,53, ,
4, ,52, ,
3, ,51, ,
-4, ,53, ,
1, ,53, ,
-4, ,53, ,
-1, ,53, ,
1, ,53, ,
3, ,52, ,
4, ,53, ,
4, ,52, ,
3, ,53, ,
6, ,53, ,
1, ,53, ,
1, ,51, ,
-5, ,54, ,
0, ,52, ,
0, ,51, ,
-5, ,53, ,
-7, ,53, ,
-12, ,51, ,
-20, ,54, ,
-16, ,52, ,
-21, ,52, ,
-12, ,53, ,
-6, ,53, ,
4, ,51, ,
15, ,53, ,
24, ,53, ,
23, ,53, ,
18, ,53, ,
6, ,53, ,
-4, ,51, ,
-11, ,54, ,
-7, ,52, ,
-10, ,52, ,
-1, ,53, ,
3, ,53, ,
0, ,51, ,
-4, ,54, ,
1, ,52, ,
-6, ,52, ,
-4, ,53, ,
-5, ,53, ,
-1, ,51, ,
-1, ,53, ,
-2, ,52, ,
-7, ,52, ,
-6, ,53, ,
-6, ,53, ,
-6, ,51, ,
-7, ,53, ,
3, ,53, ,
1, ,52, ,
10, ,53, ,
6, ,53, ,
3, ,51, ,
-1, ,54, ,
-6, ,52, ,
-12, ,52, ,
-9, ,53, ,
-10, ,53, ,
-5, ,51, ,
-6, ,53, ,
5, ,52, ,
5, ,53, ,
1, ,52, ,
1, ,53, ,
1, ,51, ,
-1, ,53, ,
-4, ,52, ,
-10, ,53, ,
-2, ,53, ,
-4, ,53, ,
-1, ,52, ,
-2, ,53, ,
5, ,52, ,
3, ,53, ,
3, ,52, ,
3, ,53, ,
4, ,51, ,
-1, ,53, ,
1, ,52, ,
-5, ,53, ,
0, ,53, ,
1, ,53, ,
-1, ,51, ,
0, ,53, ,
-1, ,53, ,
-2, ,52, ,
0, ,52, ,
0, ,53, ,
6, ,52, ,
5, ,53, ,
3, ,52, ,
-2, ,52, ,
3, ,53, ,
3, ,53, ,
0, ,50, ,
0, ,53, ,
5, ,52, ,
3, ,52, ,
4, ,52, ,
1, ,53, ,
1, ,52, ,
-1, ,53, ,
-5, ,52, ,
-7, ,52, ,
-2, ,53, ,
0, ,53, ,
1, ,51, ,
-2, ,53, ,
9, ,53, ,
5, ,52, ,
3, ,52, ,
1, ,53, ,
1, ,52, ,
0, ,53, ,
0, ,52, ,
-2, ,52, ,
3, ,53, ,
4, ,53, ,
4, ,50, ,
-2, ,54, ,
5, ,52, ,
0, ,52, ,
0, ,53, ,
-1, ,53, ,
3, ,51, ,
1, ,54, ,
4, ,52, ,
-1, ,52, ,
4, ,53, ,
3, ,53, ,
3, ,51, ,
-1, ,53, ,
3, ,53, ,
5, ,52, ,
4, ,53, ,
1, ,53, ,
1, ,51, ,
-1, ,53, ,
4, ,52, ,
0, ,52, ,
5, ,53, ,
8, ,52, ,
3, ,51, ,
4, ,53, ,
9, ,52, ,
5, ,52, ,
8, ,52, ,
4, ,53, ,
5, ,51, ,
5, ,53, ,
6, ,51, ,
1, ,53, ,
4, ,52, ,
8, ,53, ,
4, ,51, ,
3, ,53, ,
8, ,52, ,
5, ,52, ,
4, ,53, ,
1, ,53, ,
5, ,51, ,
4, ,53, ,
5, ,52, ,
3, ,53, ,
5, ,53, ,
6, ,52, ,
4, ,51, ,
3, ,53, ,
6, ,52, ,
3, ,52, ,
5, ,53, ,
4, ,52, ,
3, ,51, ,
6, ,53, ,
8, ,52, ,
3, ,52, ,
5, ,53, ,
5, ,53, ,
3, ,50, ,
-1, ,53, ,
5, ,52, ,
1, ,53, ,
3, ,52, ,
4, ,52, ,
3, ,52, ,
0, ,53, ,
3, ,52, ,
0, ,53, ,
3, ,52, ,
4, ,53, ,
1, ,51, ,
4, ,53, ,
4, ,52, ,
1, ,53, ,
3, ,53, ,
0, ,52, ,
0, ,52, ,
0, ,53, ,
4, ,52, ,
4, ,52, ,
5, ,53, ,
5, ,53, ,
1, ,51, ,
-1, ,53, ,
3, ,53, ,
-2, ,52, ,
-1, ,52, ,
-1, ,53, ,
3, ,51, ,
3, ,54, ,
9, ,52, ,
5, ,52, ,
8, ,53, ,
6, ,53, ,
4, ,51, ,
-1, ,54, ,
4, ,53, ,
1, ,52, ,
4, ,52, ,
3, ,53, ,
8, ,52, ,
8, ,53, ,
9, ,52, ,
3, ,52, ,
5, ,53, ,
6, ,53, ,
1, ,51, ,
0, ,54, ,
8, ,52, ,
5, ,52, ,
6, ,53, ,
5, ,53, ,
6, ,51, ,
5, ,54, ,
6, ,52, ,
3, ,52, ,
10, ,53, ,
10, ,53, ,
6, ,51, ,
5, ,53, ,
9, ,53, ,
4, ,52, ,
1, ,53, ,
0, ,53, ,
1, ,51, ,
6, ,53, ,
13, ,52, ,
9, ,52, ,
13, ,53, ,
9, ,53, ,
8, ,51, ,
0, ,53, ,
1, ,52, ,
0, ,52, ,
1, ,53, ,
1, ,53, ,
3, ,51, ,
5, ,53, ,
6, ,52, ,
0, ,52, ,
4, ,53, ,
4, ,53, ,
1, ,51, ,
-1, ,53, ,
4, ,53, ,
3, ,52, ,
4, ,52, ,
0, ,53, ,
4, ,52, ,
1, ,53, ,
1, ,52, ,
-2, ,53, ,
1, ,53, ,
4, ,53, ,
3, ,50, ,
0, ,53, ,
5, ,52, ,
1, ,52, ,
-2, ,52, ,
-5, ,53, ,
-4, ,52, ,
-6, ,53, ,
-4, ,52, ,
-5, ,52, ,
0, ,53, ,
0, ,53, ,
0, ,51, ,
-1, ,53, ,
3, ,53, ,
-1, ,53, ,
3, ,53, ,
-4, ,53, ,
-4, ,52, ,
-4, ,53, ,
-2, ,52, ,
-5, ,53, ,
-1, ,53, ,
-2, ,53, ,
-5, ,51, ,
-6, ,53, ,
0, ,52, ,
0, ,52, ,
0, ,52, ,
1, ,52, ,
0, ,52, ,
0, ,53, ,
1, ,52, ,
-7, ,52, ,
-4, ,53, ,
-2, ,53, ,
-5, ,50, ,
-5, ,54, ,
0, ,53, ,
0, ,52, ,
0, ,53, ,
-2, ,52, ,
-4, ,52, ,
-5, ,53, ,
-6, ,52, ,
-10, ,52, ,
-6, ,53, ,
-5, ,53, ,
-6, ,51, ,
-9, ,54, ,
-2, ,52, ,
-2, ,53, ,
-5, ,53, ,
-5, ,53, ,
-2, ,52, ,
-4, ,53, ,
-1, ,52, ,
-7, ,52, ,
-2, ,53, ,
-2, ,53, ,
-2, ,51, ,
-5, ,53, ,
0, ,52, ,
-6, ,52, ,
-2, ,53, ,
-5, ,53, ,
-4, ,51, ,
-4, ,53, ,
-4, ,52, ,
-9, ,52, ,
-5, ,53, ,
-4, ,53, ,
-6, ,51, ,
-9, ,53, ,
-2, ,53, ,
-1, ,52, ,
-1, ,53, ,
0, ,53, ,
0, ,52, ,
-2, ,54, ,
-4, ,52, ,
-11, ,52, ,
-6, ,53, ,
-2, ,53, ,
-7, ,51, ,
-5, ,53, ,
1, ,52, ,
-4, ,52, ,
-2, ,53, ,
-2, ,53, ,
-4, ,52, ,
-1, ,53, ,
1, ,52, ,
-5, ,52, ,
3, ,53, ,
3, ,53, ,
-1, ,51, ,
-2, ,53, ,
3, ,52, ,
0, ,52, ,
0, ,53, ,
-4, ,53, ,
-1, ,51, ,
-1, ,54, ,
3, ,52, ,
-4, ,53, ,
-1, ,53, ,
0, ,53, ,
-1, ,51, ,
1, ,53, ,
5, ,52, ,
-2, ,52, ,
8, ,53, ,
5, ,53, ,
3, ,51, ,
5, ,54, ,
4, ,52, ,
-1, ,52, ,
5, ,53, ,
3, ,53, ,
1, ,51, ,
-1, ,53, ,
5, ,53, ,
1, ,52, ,
1, ,53, ,
3, ,53, ,
3, ,51, ,
3, ,54, ,
4, ,52, ,
0, ,52, ,
4, ,53, ,
6, ,53, ,
4, ,51, ,
3, ,54, ,
8, ,52, ,
4, ,52, ,
5, ,53, ,
1, ,53, ,
1, ,51, ,
0, ,54, ,
-2, ,52, ,
-2, ,52, ,
5, ,53, ,
3, ,53, ,
4, ,50, ,
-1, ,53, ,
5, ,53, ,
3, ,53, ,
1, ,53, ,
3, ,53, ,
5, ,51, ,
4, ,54, ,
8, ,52, ,
1, ,53, ,
4, ,53, ,
4, ,53, ,
1, ,50, ,
0, ,54, ,
4, ,52, ,
3, ,52, ,
6, ,53, ,
3, ,53, ,
5, ,51, ,
6, ,54, ,
6, ,52, ,
0, ,52, ,
3, ,53, ,
4, ,53, ,
3, ,51, ,
1, ,54, ,
5, ,53, ,
3, ,52, ,
4, ,53, ,
4, ,53, ,
3, ,52, ,
4, ,53, ,
9, ,53, ,
8, ,52, ,
13, ,52, ,
10, ,53, ,
8, ,51, ,
1, ,53, ,
-4, ,52, ,
1, ,52, ,
5, ,53, ,
3, ,53, ,
8, ,51, ,
8, ,54, ,
8, ,52, ,
4, ,52, ,
5, ,53, ,
5, ,53, ,
6, ,51, ,
3, ,53, ,
10, ,52, ,
6, ,53, ,
6, ,52, ,
5, ,53, ,
3, ,51, ,
6, ,53, ,
11, ,52, ,
4, ,53, ,
6, ,53, ,
6, ,53, ,
4, ,51, ,
-4, ,53, ,
6, ,53, ,
4, ,53, ,
3, ,52, ,
4, ,53, ,
6, ,52, ,
8, ,53, ,
6, ,52, ,
3, ,53, ,
8, ,53, ,
6, ,53, ,
5, ,51, ,
0, ,54, ,
5, ,52, ,
4, ,52, ,
0, ,53, ,
1, ,53, ,
3, ,51, ,
-1, ,53, ,
6, ,52, ,
5, ,53, ,
6, ,53, ,
6, ,53, ,
3, ,51, ,
0, ,53, ,
0, ,52, ,
-2, ,53, ,
-1, ,53, ,
-2, ,53, ,
1, ,52, ,
4, ,54, ,
6, ,52, ,
0, ,53, ,
5, ,53, ,
1, ,53, ,
0, ,51, ,
-4, ,53, ,
3, ,52, ,
0, ,52, ,
1, ,52, ,
1, ,53, ,
0, ,51, ,
-1, ,53, ,
3, ,52, ,
0, ,52, ,
3, ,53, ,
6, ,53, ,
4, ,51, ,
4, ,53, ,
10, ,52, ,
4, ,52, ,
11, ,53, ,
-4, ,53, ,
-5, ,51, ,
-5, ,53, ,
-1, ,52, ,
-5, ,52, ,
4, ,53, ,
3, ,53, ,
4, ,52, ,
-6, ,53, ,
4, ,52, ,
0, ,53, ,
-2, ,53, ,
1, ,53, ,
3, ,52, ,
1, ,53, ,
3, ,52, ,
-2, ,53, ,
1, ,53, ,
1, ,53, ,
1, ,51, ,
-1, ,53, ,
3, ,53, ,
3, ,52, ,
6, ,50, ,
-1, ,44, ,
-2, ,33, ,
-7, ,23, ,
-7, ,15, ,
-12, ,7, ,
-5, ,0, ,
-4, ,-5, ,
-4, ,-10, ,
-5, ,-14, ,
-5, ,-18, ,
-6, ,-21, ,
-6, ,-24, ,
-5, ,-26, ,
-4, ,-28, ,
-5, ,-30, ,
-6, ,-31, ,
-9, ,-32, ,
-9, ,-33, ,
-6, ,-36, ,
-2, ,-35, ,
-7, ,-37, ,
-2, ,-37, ,
-2, ,-38, ,
-4, ,-38, ,
-5, ,-39, ,
-6, ,-39, ,
-4, ,-40, ,
-4, ,-40, ,
-6, ,-40, ,
-1, ,-40, ,
-1, ,-40, ,
0, ,-40, ,
-2, ,-41, ,
-1, ,-40, ,
-4, ,-40, ,
-4, ,-41, ,
-4, ,-40, ,
-1, ,-40, ,
-2, ,-41, ,
-5, ,-41, ,
-11, ,-40, ,
-4, ,-41, ,
-1, ,-41, ,
-5, ,-40, ,
-5, ,-41, ,
3, ,-41, ,
0, ,-41, ,
-1, ,-40, ,
-1, ,-41, ,
-4, ,-40, ,
0, ,-41, ,
0, ,-41, ,
-6, ,-41, ,
-2, ,-41, ,
-1, ,-41, ,
-2, ,-40, ,
-9, ,-41, ,
-1, ,-41, ,
0, ,-40, ,
-4, ,-40, ,
-2, ,-40, ,
-1, ,-40, ,
-2, ,-41, ,
-1, ,-41, ,
-7, ,-40, ,
0, ,-41, ,
3, ,-41, ,
3, ,-40, ,
-1, ,-41, ,
6, ,-41, ,
3, ,-41, ,
1, ,-41, ,
-1, ,-40, ,
3, ,-40, ,
4, ,-41, ,
3, ,-41, ,
-2, ,-40, ,
-1, ,-41, ,
1, ,-40, ,
-1, ,-40, ,
-5, ,-40, ,
1, ,-41, ,
1, ,-40, ,
0, ,-40, ,
-4, ,-40, ,
1, ,-40, ,
3, ,-41, ,
4, ,-41, ,
-1, ,-40, ,
3, ,-41, ,
3, ,-41, ,
-2, ,-40, ,
-4, ,-40, ,
3, ,-41, ,
0, ,-40, ,
1, ,-41, ,
-2, ,-40, ,
-1, ,-40, ,
-1, ,-41, ,
-1, ,-40, ,
-6, ,-40, ,
0, ,-40, ,
0, ,-40, ,
1, ,-40, ,
-5, ,-41, ,
5, ,-40, ,
4, ,-40, ,
1, ,-40, ,
1, ,-40, ,
1, ,-39, ,
1, ,-41, ,
3, ,-40, ,
-2, ,-40, ,
1, ,-41, ,
1, ,-40, ,
0, ,-40, ,
-4, ,-40, ,
1, ,-40, ,
-1, ,-40, ,
0, ,-40, ,
0, ,-40, ,
3, ,-39, ,
4, ,-41, ,
3, ,-40, ,
-1, ,-40, ,
3, ,-40, ,
1, ,-40, ,
1, ,-40, ,
-2, ,-40, ,
4, ,-41, ,
3, ,-40, ,
1, ,-41, ,
0, ,-40, ,
4, ,-40, ,
4, ,-40, ,
8, ,-41, ,
3, ,-40, ,
4, ,-40, ,
6, ,-40, ,
1, ,-40, ,
-1, ,-40, ,
4, ,-40, ,
3, ,-40, ,
3, ,-40, ,
-4, ,-40, ,
3, ,-40, ,
1, ,-40, ,
4, ,-40, ,
-1, ,-40, ,
3, ,-40, ,
6, ,-40, ,
3, ,-40, ,
0, ,-40, ,
5, ,-40, ,
3, ,-40, ,
3, ,-40, ,
1, ,-40, ,
3, ,-40, ,
4, ,-41, ,
5, ,-40, ,
0, ,-40, ,
6, ,-40, ,
6, ,-40, ,
3, ,-40, ,
-2, ,-40, ,
1, ,-40, ,
-1, ,-40, ,
0, ,-40, ,
0, ,-40, ,
4, ,-39, ,
6, ,-41, ,
8, ,-40, ,
3, ,-40, ,
5, ,-40, ,
3, ,-40, ,
3, ,-39, ,
-1, ,-41, ,
4, ,-40, ,
4, ,-40, ,
3, ,-40, ,
4, ,-40, ,
4, ,-40, ,
3, ,-41, ,
4, ,-40, ,
0, ,-40, ,
4, ,-40, ,
9, ,-40, ,
6, ,-40, ,
5, ,-41, ,
9, ,-40, ,
5, ,-40, ,
5, ,-40, ,
0, ,-40, ,
3, ,-40, ,
5, ,-41, ,
9, ,-40, ,
4, ,-40, ,
9, ,-40, ,
8, ,-40, ,
5, ,-40, ,
-4, ,-40, ,
3, ,-40, ,
0, ,-40, ,
-1, ,-40, ,
-2, ,-40, ,
3, ,-40, ,
5, ,-40, ,
6, ,-40, ,
4, ,-40, ,
6, ,-40, ,
8, ,-41, ,
4, ,-39, ,
1, ,-40, ,
5, ,-40, ,
3, ,-40, ,
4, ,-40, ,
0, ,-40, ,
0, ,-40, ,
4, ,-41, ,
4, ,-40, ,
0, ,-40, ,
1, ,-40, ,
3, ,-40, ,
3, ,-40, ,
0, ,-40, ,
5, ,-40, ,
4, ,-40, ,
3, ,-40, ,
3, ,-40, ,
3, ,-40, ,
3, ,-40, ,
4, ,-40, ,
-1, ,-40, ,
4, ,-40, ,
5, ,-40, ,
4, ,-39, ,
0, ,-40, ,
3, ,-40, ,
0, ,-40, ,
-2, ,-40, ,
-5, ,-40, ,
-1, ,-40, ,
-1, ,-41, ,
-1, ,-40, ,
-4, ,-40, ,
3, ,-40, ,
3, ,-40, ,
3, ,-40, ,
-2, ,-40, ,
1, ,-40, ,
-1, ,-40, ,
-2, ,-40, ,
-2, ,-40, ,
1, ,-40, ,
0, ,-41, ,
3, ,-40, ,
-4, ,-40, ,
-1, ,-40, ,
1, ,-40, ,
-2, ,-39, ,
-2, ,-40, ,
1, ,-40, ,
0, ,-40, ,
-1, ,-40, ,
-4, ,-40, ,
-1, ,-40, ,
-1, ,-41, ,
-1, ,-40, ,
-5, ,-40, ,
-2, ,-40, ,
1, ,-40, ,
4, ,-40, ,
-5, ,-40, ,
5, ,-40, ,
3, ,-40, ,
0, ,-40, ,
-2, ,-40, ,
-2, ,-40, ,
-1, ,-41, ,
1, ,-40, ,
-1, ,-40, ,
1, ,-40, ,
1, ,-40, ,
-4, ,-40, ,
-4, ,-40, ,
10, ,-40, ,
0, ,-40, ,
0, ,-40, ,
4, ,-40, ,
1, ,-40, ,
1, ,-40, ,
4, ,-40, ,
-5, ,-40, ,
1, ,-40, ,
-1, ,-40, ,
-1, ,-40, ,
-2, ,-40, ,
3, ,-40, ,
5, ,-40, ,
3, ,-40, ,
1, ,-40, ,
-1, ,-40, ,
-1, ,-40, ,
0, ,-40, ,
-7, ,-40, ,
-2, ,-40, ,
-1, ,-40, ,
-4, ,-39, ,
-4, ,-40, ,
1, ,-40, ,
1, ,-40, ,
1, ,-40, ,
0, ,-40, ,
0, ,-40, ,
4, ,-40, ,
1, ,-40, ,
-7, ,-40, ,
0, ,-40, ,
-1, ,-40, ,
-4, ,-40, ,
-6, ,-40, ,
0, ,-40, ,
-2, ,-40, ,
-2, ,-40, ,
0, ,-40, ,
0, ,-40, ,
0, ,-40, ,
3, ,-40, ,
-4, ,-40, ,
0, ,-40, ,
3, ,-40, ,
1, ,-40, ,
-2, ,-40, ,
4, ,-40, ,
1, ,-40, ,
0, ,-40, ,
-2, ,-40, ,
0, ,-40, ,
1, ,-40, ,
-1, ,-40, ,
-7, ,-40, ,
-2, ,-40, ,
-4, ,-40, ,
-5, ,-39, ,
-5, ,-40, ,
4, ,-40, ,
3, ,-40, ,
3, ,-40, ,
0, ,-40, ,
4, ,-40, ,
3, ,-40, ,
1, ,-40, ,
-2, ,-40, ,
1, ,-40, ,
1, ,-41, ,
-1, ,-40, ,
-2, ,-40, ,
0, ,-40, ,
1, ,-40, ,
-1, ,-40, ,
-4, ,-40, ,
0, ,-40, ,
0, ,-41, ,
-1, ,-40, ,
-2, ,-40, ,
1, ,-40, ,
3, ,-40, ,
1, ,-39, ,
-4, ,-40, ,
3, ,-40, ,
1, ,-40, ,
0, ,-40, ,
-1, ,-40, ,
3, ,-39, ,
4, ,-41, ,
9, ,-40, ,
0, ,-40, ,
1, ,-40, ,
4, ,-40, ,
0, ,-39, ,
-5, ,-40, ,
1, ,-40, ,
1, ,-40, ,
4, ,-40, ,
0, ,-40, ,
4, ,-40, ,
4, ,-40, ,
1, ,-40, ,
-2, ,-40, ,
-1, ,-40, ,
3, ,-40, ,
1, ,-40, ,
-2, ,-40, ,
1, ,-40, ,
3, ,-40, ,
0, ,-40, ,
-1, ,-40, ,
-1, ,-40, ,
1, ,-41, ,
0, ,-40, ,
-5, ,-40, ,
3, ,-40, ,
4, ,-40, ,
3, ,-39, ,
0, ,-40, ,
3, ,-40, ,
1, ,-40, ,
1, ,-40, ,
-1, ,-40, ,
3, ,-40, ,
3, ,-41, ,
4, ,-40, ,
-1, ,-40, ,
4, ,-40, ,
5, ,-40, ,
3, ,-40, ,
-1, ,-40, ,
4, ,-40, ,
4, ,-40, ,
1, ,-40, ,
0, ,-40, ,
1, ,-40, ,
1, ,-40, ,
4, ,-40, ,
-1, ,-40, ,
3, ,-40, ,
5, ,-40, ,
3, ,-40, ,
-2, ,-40, ,
4, ,-40, ,
4, ,-40, ,
4, ,-40, ,
5, ,-40, ,
5, ,-40, ,
5, ,-40, ,
5, ,-40, ,
0, ,-40, ,
4, ,-40, ,
5, ,-40, ,
3, ,-40, ,
3, ,-40, ,
6, ,-40, ,
4, ,-40, ,
1, ,-40, ,
-1, ,-40, ,
1, ,-39, ,
3, ,-41, ,
4, ,-40, ,
3, ,-40, ,
4, ,-40, ,
11, ,-40, ,
5, ,-39, ,
1, ,-40, ,
5, ,-40, ,
1, ,-40, ,
-1, ,-40, ,
-1, ,-40, ,
-1, ,-40, ,
1, ,-41, ,
1, ,-40, ,
1, ,-40, ,
1, ,-40, ,
3, ,-40, ,
3, ,-40, ,
-1, ,-40, ,
3, ,-40, ,
3, ,-40, ,
3, ,-40, ,
3, ,-40, ,
4, ,-40, ,
5, ,-41, ,
4, ,-40, ,
-2, ,-40, ,
3, ,-40, ,
4, ,-41, ,
0, ,-40, ,
-2, ,-40, ,
4, ,-40, ,
4, ,-40, ,
3, ,-40, ,
0, ,-40, ,
0, ,-39, ,
1, ,-40, ,
1, ,-40, ,
-4, ,-40, ,
5, ,-40, ,
8, ,-40, ,
3, ,-40, ,
0, ,-40, ,
4, ,-40, ,
3, ,-40, ,
0, ,-40, ,
-1, ,-40, ,
3, ,-39, ,
4, ,-41, ,
5, ,-40, ,
-4, ,-40, ,
1, ,-40, ,
4, ,-40, ,
-1, ,-40, ,
-1, ,-40, ,
0, ,-40, ,
-1, ,-40, ,
1, ,-40, ,
1, ,-40, ,
3, ,-40, ,
4, ,-41, ,
4, ,-40, ,
1, ,-40, ,
3, ,-40, ,
6, ,-40, ,
6, ,-40, ,
3, ,-40, ,
4, ,-40, ,
3, ,-40, ,
3, ,-40, ,
-1, ,-40, ,
0, ,-40, ,
3, ,-40, ,
0, ,-40, ,
-2, ,-40, ,
1, ,-40, ,
4, ,-40, ,
4, ,-40, ,
3, ,-40, ,
8, ,-40, ,
3, ,-40, ,
3, ,-40, ,
-2, ,-40, ,
1, ,-40, ,
0, ,-40, ,
0, ,-40, ,
-4, ,-40, ,
3, ,-40, ,
6, ,-40, ,
3, ,-40, ,
0, ,-40, ,
4, ,-40, ,
3, ,-40, ,
0, ,-40, ,
0, ,-40, ,
3, ,-40, ,
1, ,-41, ,
4, ,-40, ,
-1, ,-40, ,
1, ,-40, ,
3, ,-41, ,
-2, ,-39, ,
-7, ,-41, ,
-1, ,-40, ,
-5, ,-40, ,
-2, ,-40, ,
-1, ,-40, ,
3, ,-40, ,
4, ,-41, ,
3, ,-40, ,
-6, ,-40, ,
0, ,-40, ,
-1, ,-40, ,
1, ,-40, ,
-4, ,-40, ,
0, ,-40, ,
1, ,-40, ,
-1, ,-40, ,
-1, ,-40, ,
-1, ,-40, ,
-1, ,-40, ,
1, ,-40, ,
-1, ,-40, ,
1, ,-40, ,
4, ,-40, ,
3, ,-40, ,
3, ,-40, ,
8, ,-40, ,
3, ,-40, ,
3, ,-40, ,
1, ,-40, ,
-1, ,-40, ,
1, ,-41, ,
1, ,-40, ,
-4, ,-40, ,
0, ,-40, ,
1, ,-40, ,
0, ,-40, ,
-5, ,-40, ,
3, ,-40, ,
0, ,-40, ,
3, ,-40, ,
3, ,-40, ,
4, ,-40, ,
6, ,-41, ,
3, ,-40, ,
-4, ,-40, ,
1, ,-40, ,
0, ,-40, ,
-2, ,-40, ,
-1, ,-40, ,
3, ,-40, ,
1, ,-40, ,
3, ,-40, ,
0, ,-40, ,
3, ,-40, ,
3, ,-41, ,
1, ,-40, ,
-1, ,-40, ,
3, ,-40, ,
-1, ,-41, ,
0, ,-40, ,
0, ,-40, ,
3, ,-40, ,
5, ,-40, ,
4, ,-40, ,
0, ,-40, ,
4, ,-40, ,
1, ,-41, ,
3, ,-40, ,
-6, ,-40, ,
0, ,-40, ,
3, ,-40, ,
0, ,-40, ,
-7, ,-40, ,
0, ,-40, ,
0, ,-40, ,
3, ,-40, ,
-2, ,-40, ,
3, ,-40, ,
5, ,-41, ,
5, ,-40, ,
1, ,-40, ,
1, ,-40, ,
4, ,-40, ,
0, ,-40, ,
-9, ,-41, ,
-1, ,-40, ,
0, ,-40, ,
-1, ,-40, ,
-1, ,-40, ,
1, ,-39, ,
1, ,-41, ,
-1, ,-40, ,
-4, ,-40, ,
0, ,-40, ,
1, ,-40, ,
0, ,-40, ,
-2, ,-40, ,
3, ,-40, ,
3, ,-40, ,
1, ,-40, ,
-1, ,-40, ,
3, ,-40, ,
5, ,-41, ,
3, ,-41, ,
