src/vary_am2_1411/temp0003097.CSV

Format,1.0B,
Memory Length,10000,Memory Length,10000,
IntpDistance,0,IntpDistance,0,
Trigger Address,4999,Trigger Address,4999,
Trigger Level,-1.000E+00,Trigger Level,-1.000E+00,
Source,CH1,Source,CH2,
Vertical Units,V,Vertical Units,V,
Vertical Units Div,0,Vertical Units Div,0,
Vertical Units Extend Div,16,Vertical Units Extend Div,16,
Label,,Label,,
Probe Type,0,Probe Type,0,
Probe Ratio,1.000e+01,Probe Ratio,1.000e+00,
Vertical Scale,2.000e-02,Vertical Scale,1.000e+00,
Vertical Position,-5.120e-02,Vertical Position,2.000e-01,
Horizontal Units,S,Horizontal Units,S,
Horizontal Scale,1.000E-05,Horizontal Scale,1.000E-05,
Horizontal Position,0.000E+00,Horizontal Position,0.000E+00,
Horizontal Mode,Main,Horizontal Mode,Main,
SincET Mode,Real Time,SincET Mode,Real Time,
Sampling Period,1.000e-08,Sampling Period,1.000e-08,
Horizontal Old Scale,1.000E-05,Horizontal Old Scale,1.000E-05,
Horizontal Old Position,0.000E+00,Horizontal Old Position,0.000E+00,
Firmware,V1.23,Firmware,V1.23,
Mode,Fast,Mode,Fast,
Waveform Data,,Waveform Data,,
-1, ,-40, ,
-2, ,-40, ,
-4, ,-40, ,
-2, ,-40, ,
-4, ,-40, ,
3, ,-40, ,
-1, ,-40, ,
5, ,-40, ,
6, ,-40, ,
3, ,-40, ,
0, ,-40, ,
5, ,-40, ,
1, ,-40, ,
-2, ,-40, ,
-2, ,-40, ,
-2, ,-40, ,
0, ,-40, ,
0, ,-40, ,
-2, ,-40, ,
1, ,-40, ,
1, ,-40, ,
0, ,-40, ,
-2, ,-40, ,
-1, ,-40, ,
1, ,-40, ,
3, ,-40, ,
1, ,-40, ,
4, ,-40, ,
1, ,-40, ,
4, ,-40, ,
-1, ,-40, ,
0, ,-40, ,
4, ,-40, ,
-2, ,-40, ,
-1, ,-40, ,
4, ,-40, ,
-1, ,-40, ,
0, ,-40, ,
1, ,-40, ,
1, ,-40, ,
1, ,-40, ,
-1, ,-40, ,
4, ,-40, ,
1, ,-40, ,
-2, ,-40, ,
1, ,-40, ,
-1, ,-40, ,
1, ,-40, ,
1, ,-40, ,
4, ,-40, ,
-4, ,-40, ,
-2, ,-40, ,
-1, ,-40, ,
3, ,-40, ,
0, ,-40, ,
4, ,-40, ,
9, ,-40, ,
4, ,-40, ,
-2, ,-40, ,
3, ,-40, ,
-2, ,-40, ,
0, ,-40, ,
-1, ,-40, ,
3, ,-40, ,
5, ,-40, ,
5, ,-40, ,
-1, ,-40, ,
3, ,-40, ,
1, ,-40, ,
3, ,-40, ,
-1, ,-40, ,
8, ,-40, ,
6, ,-40, ,
4, ,-40, ,
1, ,-40, ,
3, ,-40, ,
4, ,-40, ,
4, ,-40, ,
-4, ,-40, ,
3, ,-40, ,
3, ,-40, ,
3, ,-40, ,
4, ,-40, ,
6, ,-40, ,
1, ,-40, ,
1, ,-40, ,
1, ,-40, ,
3, ,-40, ,
4, ,-40, ,
6, ,-40, ,
1, ,-40, ,
4, ,-40, ,
5, ,-40, ,
3, ,-40, ,
-1, ,-40, ,
1, ,-40, ,
4, ,-40, ,
3, ,-40, ,
-2, ,-40, ,
1, ,-40, ,
0, ,-40, ,
1, ,-40, ,
-4, ,-41, ,
-1, ,-40, ,
3, ,-40, ,
0, ,-40, ,
1, ,-41, ,
4, ,-40, ,
3, ,-40, ,
4, ,-40, ,
0, ,-40, ,
4, ,-40, ,
4, ,-40, ,
0, ,-40, ,
-2, ,-41, ,
1, ,-40, ,
1, ,-40, ,
3, ,-40, ,
-1, ,-40, ,
8, ,-40, ,
1, ,-40, ,
-10, ,-40, ,
1, ,-40, ,
6, ,-40, ,
-1, ,-40, ,
9, ,-40, ,
3, ,-41, ,
3, ,-40, ,
4, ,-40, ,
3, ,-40, ,
3, ,-40, ,
8, ,-40, ,
6, ,-40, ,
3, ,-40, ,
0, ,-40, ,
0, ,-40, ,
0, ,-40, ,
-4, ,-40, ,
-6, ,-40, ,
1, ,-40, ,
0, ,-40, ,
0, ,-40, ,
0, ,-40, ,
3, ,-40, ,
3, ,-40, ,
3, ,-40, ,
1, ,-40, ,
4, ,-40, ,
4, ,-40, ,
1, ,-40, ,
-2, ,-41, ,
-1, ,-40, ,
1, ,-40, ,
-2, ,-40, ,
-1, ,-40, ,
4, ,-40, ,
5, ,-40, ,
5, ,-40, ,
1, ,-40, ,
4, ,-40, ,
3, ,-40, ,
3, ,-40, ,
-2, ,-41, ,
-2, ,-40, ,
4, ,-40, ,
0, ,-40, ,
-1, ,-40, ,
5, ,-40, ,
5, ,-40, ,
4, ,-40, ,
1, ,-40, ,
4, ,-40, ,
3, ,-40, ,
3, ,-40, ,
-4, ,-41, ,
-1, ,-40, ,
3, ,-40, ,
0, ,-40, ,
-5, ,-40, ,
1, ,-40, ,
-2, ,-40, ,
0, ,-40, ,
-2, ,-40, ,
0, ,-40, ,
3, ,-40, ,
4, ,-40, ,
-2, ,-40, ,
0, ,-40, ,
-1, ,-40, ,
-1, ,-40, ,
-5, ,-40, ,
4, ,-40, ,
4, ,-40, ,
3, ,-40, ,
0, ,-40, ,
3, ,-40, ,
1, ,-40, ,
1, ,-40, ,
-6, ,-40, ,
0, ,-40, ,
3, ,-40, ,
0, ,-40, ,
-1, ,-40, ,
1, ,-40, ,
3, ,-40, ,
0, ,-40, ,
1, ,-40, ,
1, ,-40, ,
3, ,-40, ,
1, ,-40, ,
-4, ,-41, ,
1, ,-40, ,
3, ,-40, ,
-1, ,-40, ,
-1, ,-40, ,
0, ,-40, ,
3, ,-40, ,
1, ,-40, ,
-1, ,-40, ,
1, ,-40, ,
-1, ,-40, ,
3, ,-40, ,
0, ,-40, ,
1, ,-40, ,
6, ,-40, ,
1, ,-40, ,
-1, ,-40, ,
3, ,-40, ,
-1, ,-40, ,
0, ,-40, ,
1, ,-40, ,
3, ,-40, ,
5, ,-40, ,
5, ,-39, ,
3, ,-40, ,
4, ,-40, ,
3, ,-40, ,
0, ,-40, ,
-6, ,-40, ,
-2, ,-40, ,
-4, ,-40, ,
-4, ,-40, ,
1, ,-40, ,
1, ,-40, ,
3, ,-40, ,
4, ,-40, ,
-2, ,-40, ,
1, ,-40, ,
4, ,-40, ,
3, ,-40, ,
3, ,-40, ,
5, ,-40, ,
1, ,-40, ,
1, ,-40, ,
-4, ,-40, ,
-1, ,-40, ,
-1, ,-40, ,
-2, ,-40, ,
-5, ,-40, ,
1, ,-40, ,
1, ,-40, ,
1, ,-40, ,
0, ,-41, ,
1, ,-40, ,
1, ,-40, ,
0, ,-40, ,
-2, ,-40, ,
1, ,-40, ,
1, ,-40, ,
4, ,-40, ,
1, ,-41, ,
6, ,-40, ,
8, ,-40, ,
0, ,-40, ,
-5, ,-40, ,
4, ,-40, ,
-1, ,-40, ,
1, ,-40, ,
-4, ,-40, ,
4, ,-40, ,
4, ,-40, ,
4, ,-40, ,
-1, ,-41, ,
3, ,-40, ,
4, ,-40, ,
1, ,-40, ,
0, ,-40, ,
4, ,-40, ,
4, ,-40, ,
3, ,-40, ,
-1, ,-40, ,
1, ,-40, ,
1, ,-40, ,
3, ,-40, ,
-1, ,-40, ,
-1, ,-40, ,
4, ,-40, ,
5, ,-40, ,
-1, ,-40, ,
6, ,-40, ,
3, ,-40, ,
3, ,-40, ,
-2, ,-40, ,
1, ,-40, ,
5, ,-40, ,
6, ,-40, ,
4, ,-41, ,
9, ,-40, ,
8, ,-40, ,
1, ,-39, ,
-2, ,-33, ,
5, ,-24, ,
5, ,-13, ,
8, ,-4, ,
8, ,3, ,
8, ,10, ,
9, ,16, ,
8, ,21, ,
1, ,26, ,
9, ,30, ,
11, ,33, ,
8, ,36, ,
6, ,38, ,
5, ,39, ,
5, ,42, ,
4, ,44, ,
5, ,45, ,
5, ,47, ,
5, ,48, ,
5, ,47, ,
1, ,50, ,
5, ,49, ,
5, ,50, ,
4, ,51, ,
5, ,51, ,
5, ,50, ,
6, ,52, ,
3, ,52, ,
0, ,52, ,
1, ,52, ,
-1, ,53, ,
1, ,52, ,
1, ,54, ,
1, ,53, ,
5, ,53, ,
3, ,53, ,
-2, ,53, ,
3, ,52, ,
0, ,53, ,
1, ,53, ,
0, ,53, ,
3, ,53, ,
4, ,54, ,
3, ,53, ,
1, ,54, ,
3, ,53, ,
4, ,53, ,
-2, ,54, ,
-5, ,53, ,
1, ,51, ,
0, ,53, ,
3, ,53, ,
0, ,53, ,
1, ,53, ,
1, ,53, ,
1, ,53, ,
-1, ,54, ,
6, ,53, ,
4, ,53, ,
6, ,53, ,
5, ,53, ,
4, ,52, ,
5, ,54, ,
8, ,53, ,
1, ,53, ,
3, ,53, ,
0, ,53, ,
3, ,52, ,
-6, ,54, ,
3, ,53, ,
3, ,53, ,
3, ,53, ,
5, ,53, ,
8, ,52, ,
9, ,54, ,
6, ,53, ,
4, ,53, ,
4, ,53, ,
1, ,53, ,
3, ,52, ,
-7, ,54, ,
-1, ,52, ,
1, ,53, ,
-4, ,53, ,
-9, ,53, ,
3, ,51, ,
0, ,53, ,
3, ,53, ,
0, ,52, ,
1, ,53, ,
0, ,53, ,
0, ,51, ,
-6, ,54, ,
0, ,52, ,
3, ,53, ,
4, ,53, ,
0, ,53, ,
5, ,51, ,
3, ,53, ,
3, ,52, ,
-6, ,53, ,
-2, ,53, ,
-5, ,53, ,
-4, ,52, ,
-7, ,54, ,
-1, ,52, ,
-1, ,53, ,
-6, ,53, ,
0, ,53, ,
5, ,51, ,
1, ,54, ,
6, ,53, ,
3, ,52, ,
0, ,53, ,
3, ,53, ,
0, ,52, ,
-6, ,54, ,
0, ,52, ,
0, ,53, ,
0, ,53, ,
-5, ,53, ,
1, ,51, ,
1, ,53, ,
-1, ,52, ,
-2, ,52, ,
1, ,53, ,
-1, ,53, ,
1, ,52, ,
-5, ,53, ,
-1, ,52, ,
1, ,53, ,
3, ,53, ,
1, ,53, ,
4, ,51, ,
1, ,53, ,
3, ,52, ,
0, ,52, ,
1, ,52, ,
4, ,53, ,
0, ,52, ,
-9, ,53, ,
-4, ,52, ,
-4, ,53, ,
-4, ,53, ,
-2, ,53, ,
1, ,51, ,
1, ,53, ,
3, ,52, ,
1, ,52, ,
3, ,52, ,
0, ,53, ,
0, ,52, ,
-4, ,53, ,
1, ,52, ,
0, ,52, ,
-2, ,53, ,
-1, ,53, ,
4, ,51, ,
0, ,53, ,
4, ,53, ,
-1, ,52, ,
1, ,53, ,
1, ,53, ,
0, ,52, ,
0, ,53, ,
0, ,52, ,
1, ,52, ,
0, ,53, ,
-6, ,53, ,
0, ,51, ,
-4, ,53, ,
-1, ,53, ,
-2, ,52, ,
-1, ,53, ,
-1, ,53, ,
3, ,52, ,
-1, ,53, ,
1, ,52, ,
1, ,52, ,
-2, ,53, ,
-4, ,53, ,
1, ,51, ,
-4, ,53, ,
1, ,53, ,
0, ,52, ,
-1, ,52, ,
0, ,53, ,
-1, ,51, ,
-7, ,54, ,
-1, ,52, ,
-1, ,52, ,
-1, ,53, ,
-1, ,53, ,
3, ,51, ,
1, ,54, ,
0, ,53, ,
-2, ,53, ,
-1, ,53, ,
0, ,53, ,
3, ,51, ,
-2, ,53, ,
4, ,52, ,
6, ,52, ,
1, ,53, ,
-1, ,53, ,
4, ,51, ,
-1, ,53, ,
0, ,53, ,
-4, ,53, ,
1, ,52, ,
1, ,53, ,
4, ,52, ,
1, ,53, ,
4, ,52, ,
4, ,53, ,
4, ,53, ,
0, ,53, ,
5, ,51, ,
1, ,53, ,
3, ,52, ,
1, ,52, ,
3, ,53, ,
4, ,53, ,
4, ,52, ,
0, ,53, ,
3, ,52, ,
3, ,52, ,
0, ,53, ,
-2, ,53, ,
3, ,51, ,
1, ,53, ,
4, ,52, ,
3, ,52, ,
5, ,52, ,
5, ,53, ,
5, ,51, ,
1, ,53, ,
6, ,52, ,
3, ,52, ,
4, ,53, ,
-1, ,53, ,
1, ,51, ,
3, ,53, ,
-1, ,53, ,
-2, ,52, ,
0, ,52, ,
0, ,53, ,
4, ,51, ,
-1, ,53, ,
5, ,52, ,
5, ,52, ,
4, ,53, ,
3, ,53, ,
4, ,51, ,
1, ,53, ,
4, ,52, ,
1, ,52, ,
4, ,53, ,
5, ,53, ,
6, ,51, ,
3, ,53, ,
4, ,52, ,
4, ,52, ,
3, ,53, ,
-1, ,53, ,
4, ,51, ,
4, ,53, ,
3, ,53, ,
3, ,52, ,
4, ,52, ,
4, ,53, ,
6, ,51, ,
1, ,54, ,
3, ,52, ,
5, ,53, ,
3, ,53, ,
-1, ,53, ,
5, ,51, ,
0, ,53, ,
5, ,52, ,
1, ,52, ,
5, ,52, ,
5, ,53, ,
6, ,52, ,
3, ,53, ,
10, ,52, ,
5, ,52, ,
4, ,52, ,
1, ,53, ,
5, ,51, ,
3, ,53, ,
0, ,53, ,
1, ,52, ,
4, ,52, ,
4, ,53, ,
9, ,51, ,
4, ,53, ,
6, ,52, ,
5, ,52, ,
3, ,53, ,
-2, ,53, ,
5, ,51, ,
1, ,53, ,
3, ,53, ,
0, ,52, ,
1, ,53, ,
4, ,53, ,
5, ,51, ,
0, ,54, ,
6, ,52, ,
5, ,52, ,
3, ,53, ,
4, ,53, ,
5, ,51, ,
5, ,53, ,
4, ,52, ,
3, ,52, ,
4, ,53, ,
4, ,53, ,
3, ,51, ,
0, ,53, ,
5, ,52, ,
8, ,53, ,
1, ,53, ,
1, ,53, ,
3, ,51, ,
-2, ,53, ,
-1, ,53, ,
-2, ,52, ,
0, ,53, ,
0, ,53, ,
4, ,51, ,
-2, ,53, ,
3, ,52, ,
4, ,52, ,
3, ,53, ,
-4, ,53, ,
4, ,51, ,
0, ,53, ,
1, ,52, ,
-1, ,52, ,
0, ,52, ,
-1, ,53, ,
0, ,51, ,
-4, ,53, ,
0, ,52, ,
3, ,52, ,
0, ,53, ,
-5, ,53, ,
5, ,51, ,
1, ,53, ,
0, ,53, ,
0, ,52, ,
3, ,52, ,
4, ,53, ,
3, ,51, ,
-4, ,53, ,
1, ,52, ,
3, ,52, ,
3, ,53, ,
-4, ,53, ,
4, ,51, ,
3, ,53, ,
0, ,53, ,
1, ,52, ,
-4, ,52, ,
-2, ,53, ,
0, ,51, ,
-4, ,53, ,
3, ,52, ,
5, ,52, ,
8, ,53, ,
1, ,53, ,
6, ,51, ,
1, ,53, ,
3, ,53, ,
0, ,52, ,
-1, ,52, ,
-1, ,53, ,
1, ,52, ,
-5, ,53, ,
-2, ,52, ,
-1, ,53, ,
-2, ,53, ,
-2, ,53, ,
1, ,51, ,
1, ,53, ,
0, ,53, ,
-1, ,52, ,
1, ,53, ,
0, ,53, ,
1, ,51, ,
-4, ,53, ,
-1, ,52, ,
0, ,52, ,
-2, ,53, ,
-5, ,52, ,
4, ,51, ,
-1, ,53, ,
4, ,52, ,
-2, ,52, ,
-1, ,52, ,
-1, ,53, ,
-4, ,52, ,
-5, ,53, ,
-2, ,51, ,
-4, ,52, ,
-1, ,53, ,
-6, ,52, ,
0, ,51, ,
0, ,53, ,
1, ,52, ,
-2, ,53, ,
0, ,53, ,
-2, ,53, ,
0, ,52, ,
-5, ,53, ,
-1, ,52, ,
-1, ,53, ,
-2, ,53, ,
-5, ,53, ,
1, ,51, ,
-1, ,53, ,
-1, ,53, ,
-2, ,52, ,
-1, ,52, ,
0, ,53, ,
0, ,52, ,
-5, ,53, ,
0, ,52, ,
-1, ,52, ,
0, ,53, ,
-5, ,52, ,
0, ,51, ,
1, ,53, ,
0, ,53, ,
-2, ,52, ,
-1, ,52, ,
-1, ,53, ,
1, ,52, ,
-5, ,53, ,
-2, ,52, ,
1, ,52, ,
-4, ,53, ,
-2, ,52, ,
3, ,51, ,
1, ,53, ,
6, ,53, ,
0, ,52, ,
1, ,52, ,
-1, ,52, ,
-1, ,51, ,
-7, ,53, ,
0, ,52, ,
3, ,52, ,
3, ,53, ,
3, ,53, ,
4, ,51, ,
3, ,53, ,
3, ,53, ,
-1, ,53, ,
1, ,53, ,
0, ,53, ,
4, ,52, ,
-1, ,53, ,
1, ,52, ,
3, ,52, ,
-1, ,53, ,
-5, ,53, ,
1, ,51, ,
-1, ,53, ,
3, ,53, ,
3, ,52, ,
3, ,52, ,
5, ,53, ,
5, ,52, ,
0, ,53, ,
1, ,52, ,
1, ,52, ,
-1, ,53, ,
-5, ,53, ,
0, ,51, ,
1, ,53, ,
-2, ,52, ,
-4, ,53, ,
-1, ,53, ,
-2, ,52, ,
-1, ,52, ,
-7, ,53, ,
3, ,52, ,
4, ,53, ,
4, ,53, ,
3, ,52, ,
8, ,51, ,
5, ,53, ,
1, ,53, ,
1, ,52, ,
3, ,53, ,
1, ,52, ,
1, ,52, ,
-2, ,53, ,
3, ,52, ,
4, ,52, ,
1, ,52, ,
-2, ,52, ,
4, ,51, ,
3, ,53, ,
1, ,52, ,
4, ,52, ,
5, ,52, ,
3, ,53, ,
4, ,51, ,
1, ,53, ,
3, ,52, ,
5, ,53, ,
1, ,53, ,
0, ,53, ,
4, ,51, ,
0, ,53, ,
3, ,53, ,
3, ,53, ,
3, ,52, ,
3, ,53, ,
4, ,52, ,
0, ,53, ,
4, ,52, ,
4, ,52, ,
0, ,52, ,
1, ,53, ,
9, ,51, ,
4, ,53, ,
5, ,52, ,
5, ,53, ,
5, ,52, ,
6, ,53, ,
9, ,52, ,
8, ,53, ,
3, ,52, ,
4, ,52, ,
3, ,53, ,
-6, ,53, ,
3, ,51, ,
5, ,53, ,
3, ,53, ,
0, ,52, ,
0, ,53, ,
4, ,53, ,
6, ,52, ,
0, ,53, ,
9, ,52, ,
6, ,53, ,
4, ,53, ,
1, ,53, ,
0, ,51, ,
0, ,53, ,
0, ,53, ,
1, ,52, ,
4, ,52, ,
6, ,53, ,
9, ,52, ,
0, ,53, ,
4, ,52, ,
-1, ,52, ,
-2, ,53, ,
4, ,53, ,
4, ,52, ,
0, ,53, ,
5, ,53, ,
3, ,53, ,
3, ,52, ,
3, ,53, ,
4, ,51, ,
-1, ,53, ,
3, ,52, ,
5, ,53, ,
8, ,53, ,
-1, ,52, ,
1, ,51, ,
1, ,53, ,
0, ,52, ,
-1, ,52, ,
3, ,53, ,
3, ,53, ,
5, ,52, ,
0, ,53, ,
5, ,52, ,
6, ,52, ,
1, ,53, ,
-4, ,53, ,
0, ,51, ,
0, ,53, ,
3, ,53, ,
3, ,52, ,
5, ,52, ,
10, ,53, ,
6, ,52, ,
3, ,53, ,
4, ,52, ,
1, ,52, ,
1, ,53, ,
-2, ,52, ,
0, ,51, ,
-1, ,53, ,
0, ,53, ,
0, ,52, ,
3, ,53, ,
4, ,53, ,
6, ,52, ,
5, ,53, ,
6, ,52, ,
11, ,52, ,
9, ,53, ,
1, ,53, ,
13, ,51, ,
-1, ,53, ,
-4, ,52, ,
1, ,53, ,
4, ,53, ,
1, ,53, ,
6, ,52, ,
3, ,53, ,
6, ,52, ,
0, ,52, ,
4, ,53, ,
3, ,53, ,
0, ,51, ,
3, ,53, ,
0, ,53, ,
-5, ,52, ,
-1, ,53, ,
-4, ,53, ,
0, ,52, ,
1, ,53, ,
6, ,52, ,
9, ,53, ,
3, ,53, ,
0, ,53, ,
1, ,51, ,
-5, ,53, ,
1, ,53, ,
-2, ,52, ,
-1, ,52, ,
0, ,53, ,
-1, ,52, ,
-5, ,53, ,
-1, ,52, ,
0, ,52, ,
0, ,53, ,
-4, ,53, ,
4, ,51, ,
0, ,53, ,
-1, ,53, ,
-4, ,52, ,
-1, ,53, ,
-5, ,53, ,
-7, ,51, ,
-16, ,53, ,
-16, ,52, ,
-17, ,52, ,
-16, ,53, ,
-15, ,53, ,
-5, ,51, ,
0, ,53, ,
11, ,53, ,
18, ,52, ,
19, ,53, ,
16, ,53, ,
11, ,51, ,
-5, ,53, ,
-5, ,52, ,
-5, ,53, ,
-6, ,53, ,
-5, ,53, ,
0, ,51, ,
4, ,53, ,
-1, ,52, ,
-6, ,52, ,
-2, ,53, ,
-5, ,53, ,
0, ,52, ,
-2, ,53, ,
0, ,52, ,
1, ,52, ,
-2, ,53, ,
-6, ,52, ,
-4, ,51, ,
-6, ,53, ,
-2, ,53, ,
0, ,52, ,
5, ,52, ,
8, ,53, ,
6, ,52, ,
-1, ,53, ,
-2, ,53, ,
-5, ,52, ,
-10, ,53, ,
-12, ,53, ,
-4, ,51, ,
-1, ,53, ,
4, ,52, ,
0, ,52, ,
4, ,52, ,
-1, ,53, ,
0, ,52, ,
-4, ,53, ,
-1, ,52, ,
1, ,53, ,
-4, ,53, ,
-5, ,53, ,
-4, ,51, ,
-7, ,53, ,
-5, ,53, ,
-2, ,52, ,
1, ,53, ,
4, ,53, ,
1, ,52, ,
-6, ,53, ,
-1, ,52, ,
-1, ,52, ,
-2, ,53, ,
-6, ,52, ,
3, ,51, ,
1, ,53, ,
-1, ,53, ,
-2, ,53, ,
-4, ,53, ,
-2, ,53, ,
-2, ,52, ,
-6, ,53, ,
-2, ,52, ,
-1, ,53, ,
-1, ,53, ,
-1, ,53, ,
3, ,51, ,
0, ,53, ,
1, ,53, ,
1, ,52, ,
1, ,53, ,
-1, ,53, ,
0, ,52, ,
-6, ,54, ,
-2, ,52, ,
-4, ,53, ,
-2, ,53, ,
0, ,53, ,
6, ,51, ,
4, ,53, ,
1, ,53, ,
0, ,53, ,
3, ,53, ,
-1, ,53, ,
4, ,52, ,
-4, ,53, ,
3, ,52, ,
5, ,52, ,
4, ,53, ,
3, ,53, ,
5, ,51, ,
3, ,53, ,
4, ,53, ,
0, ,52, ,
4, ,53, ,
4, ,52, ,
1, ,51, ,
-2, ,53, ,
0, ,52, ,
-1, ,53, ,
1, ,53, ,
0, ,53, ,
5, ,51, ,
5, ,53, ,
10, ,53, ,
9, ,53, ,
9, ,53, ,
4, ,53, ,
3, ,52, ,
-2, ,53, ,
4, ,52, ,
3, ,53, ,
3, ,53, ,
4, ,53, ,
9, ,48, ,
0, ,40, ,
0, ,30, ,
-2, ,20, ,
-2, ,12, ,
0, ,4, ,
-2, ,-1, ,
-2, ,-6, ,
0, ,-11, ,
-1, ,-16, ,
-2, ,-19, ,
-6, ,-22, ,
0, ,-25, ,
1, ,-27, ,
0, ,-29, ,
-5, ,-30, ,
1, ,-31, ,
1, ,-33, ,
4, ,-33, ,
-1, ,-36, ,
3, ,-36, ,
3, ,-37, ,
-1, ,-37, ,
-4, ,-38, ,
3, ,-38, ,
4, ,-39, ,
6, ,-39, ,
1, ,-39, ,
3, ,-39, ,
5, ,-40, ,
4, ,-40, ,
-1, ,-40, ,
3, ,-40, ,
4, ,-40, ,
1, ,-41, ,
1, ,-40, ,
4, ,-40, ,
5, ,-41, ,
5, ,-41, ,
4, ,-41, ,
4, ,-41, ,
3, ,-41, ,
5, ,-41, ,
3, ,-41, ,
6, ,-41, ,
8, ,-41, ,
6, ,-41, ,
0, ,-41, ,
6, ,-40, ,
4, ,-41, ,
5, ,-41, ,
4, ,-41, ,
4, ,-41, ,
8, ,-41, ,
11, ,-40, ,
4, ,-41, ,
5, ,-41, ,
5, ,-40, ,
4, ,-41, ,
-2, ,-41, ,
1, ,-40, ,
4, ,-40, ,
1, ,-41, ,
1, ,-40, ,
4, ,-40, ,
6, ,-41, ,
9, ,-40, ,
3, ,-41, ,
8, ,-41, ,
8, ,-40, ,
4, ,-40, ,
1, ,-41, ,
5, ,-41, ,
5, ,-41, ,
4, ,-41, ,
5, ,-40, ,
8, ,-40, ,
8, ,-40, ,
8, ,-40, ,
4, ,-41, ,
9, ,-41, ,
11, ,-40, ,
9, ,-40, ,
6, ,-41, ,
8, ,-40, ,
8, ,-40, ,
5, ,-41, ,
0, ,-40, ,
1, ,-40, ,
0, ,-40, ,
6, ,-40, ,
0, ,-41, ,
8, ,-40, ,
11, ,-40, ,
8, ,-40, ,
5, ,-41, ,
8, ,-40, ,
4, ,-41, ,
4, ,-41, ,
3, ,-40, ,
0, ,-40, ,
5, ,-40, ,
9, ,-40, ,
5, ,-41, ,
5, ,-40, ,
4, ,-40, ,
1, ,-40, ,
-1, ,-40, ,
5, ,-40, ,
9, ,-40, ,
11, ,-40, ,
8, ,-40, ,
6, ,-40, ,
5, ,-40, ,
3, ,-40, ,
0, ,-41, ,
3, ,-40, ,
8, ,-40, ,
5, ,-40, ,
1, ,-40, ,
4, ,-40, ,
5, ,-40, ,
1, ,-40, ,
3, ,-40, ,
4, ,-40, ,
8, ,-40, ,
6, ,-40, ,
1, ,-41, ,
8, ,-41, ,
5, ,-40, ,
3, ,-40, ,
1, ,-40, ,
6, ,-40, ,
6, ,-40, ,
3, ,-40, ,
0, ,-40, ,
1, ,-40, ,
0, ,-40, ,
-1, ,-40, ,
-5, ,-41, ,
1, ,-40, ,
4, ,-40, ,
-1, ,-40, ,
-1, ,-40, ,
3, ,-40, ,
-1, ,-40, ,
-1, ,-40, ,
-2, ,-40, ,
3, ,-40, ,
4, ,-40, ,
4, ,-40, ,
0, ,-41, ,
3, ,-40, ,
0, ,-40, ,
-4, ,-40, ,
-5, ,-41, ,
-1, ,-40, ,
-1, ,-40, ,
-1, ,-40, ,
-4, ,-40, ,
-2, ,-40, ,
0, ,-40, ,
-1, ,-40, ,
-7, ,-41, ,
-5, ,-40, ,
-2, ,-40, ,
-4, ,-40, ,
-5, ,-40, ,
1, ,-40, ,
-2, ,-40, ,
-4, ,-40, ,
-4, ,-40, ,
-5, ,-40, ,
-5, ,-40, ,
-5, ,-40, ,
-11, ,-40, ,
-5, ,-40, ,
-5, ,-40, ,
-5, ,-40, ,
-7, ,-40, ,
-5, ,-40, ,
-2, ,-40, ,
-5, ,-40, ,
-4, ,-40, ,
-4, ,-40, ,
-4, ,-40, ,
-2, ,-40, ,
-6, ,-41, ,
-1, ,-40, ,
0, ,-40, ,
-4, ,-40, ,
-7, ,-40, ,
-4, ,-40, ,
-4, ,-40, ,
-5, ,-40, ,
-6, ,-40, ,
-2, ,-40, ,
-1, ,-40, ,
-1, ,-40, ,
-7, ,-41, ,
-4, ,-40, ,
-4, ,-40, ,
-6, ,-40, ,
-6, ,-41, ,
-1, ,-40, ,
-1, ,-40, ,
-4, ,-40, ,
-5, ,-40, ,
-2, ,-40, ,
-6, ,-40, ,
-4, ,-40, ,
-6, ,-41, ,
-5, ,-40, ,
3, ,-40, ,
-1, ,-40, ,
-4, ,-40, ,
0, ,-40, ,
-1, ,-40, ,
-4, ,-40, ,
-7, ,-40, ,
-5, ,-40, ,
-2, ,-40, ,
-5, ,-40, ,
-6, ,-40, ,
-2, ,-40, ,
0, ,-40, ,
-1, ,-40, ,
-5, ,-40, ,
3, ,-40, ,
1, ,-40, ,
-1, ,-40, ,
-1, ,-40, ,
-1, ,-40, ,
1, ,-40, ,
-1, ,-40, ,
-1, ,-41, ,
-4, ,-40, ,
-4, ,-40, ,
-2, ,-40, ,
-9, ,-40, ,
1, ,-40, ,
-1, ,-40, ,
-1, ,-40, ,
-1, ,-40, ,
-1, ,-40, ,
0, ,-40, ,
-2, ,-40, ,
-7, ,-40, ,
-2, ,-40, ,
-1, ,-40, ,
0, ,-40, ,
-4, ,-40, ,
1, ,-40, ,
1, ,-40, ,
-1, ,-40, ,
0, ,-40, ,
-1, ,-40, ,
-6, ,-40, ,
-2, ,-40, ,
-6, ,-41, ,
0, ,-40, ,
5, ,-40, ,
4, ,-40, ,
1, ,-40, ,
6, ,-40, ,
4, ,-40, ,
3, ,-40, ,
-1, ,-40, ,
5, ,-40, ,
4, ,-40, ,
3, ,-40, ,
-2, ,-40, ,
0, ,-40, ,
3, ,-40, ,
3, ,-40, ,
-4, ,-40, ,
4, ,-40, ,
3, ,-40, ,
3, ,-40, ,
1, ,-40, ,
4, ,-40, ,
4, ,-40, ,
1, ,-40, ,
0, ,-40, ,
1, ,-40, ,
8, ,-40, ,
3, ,-40, ,
1, ,-40, ,
8, ,-40, ,
8, ,-40, ,
11, ,-40, ,
6, ,-40, ,
5, ,-40, ,
5, ,-40, ,
3, ,-40, ,
-2, ,-40, ,
3, ,-40, ,
4, ,-40, ,
3, ,-40, ,
-1, ,-40, ,
8, ,-40, ,
9, ,-40, ,
5, ,-40, ,
6, ,-40, ,
5, ,-40, ,
5, ,-40, ,
8, ,-40, ,
4, ,-40, ,
5, ,-40, ,
5, ,-40, ,
3, ,-40, ,
1, ,-40, ,
1, ,-40, ,
1, ,-40, ,
4, ,-40, ,
3, ,-40, ,
6, ,-40, ,
6, ,-40, ,
6, ,-40, ,
0, ,-40, ,
5, ,-40, ,
9, ,-40, ,
3, ,-40, ,
-2, ,-40, ,
1, ,-40, ,
5, ,-40, ,
3, ,-40, ,
4, ,-40, ,
6, ,-40, ,
3, ,-40, ,
5, ,-40, ,
5, ,-41, ,
-1, ,-40, ,
4, ,-40, ,
6, ,-40, ,
1, ,-40, ,
6, ,-40, ,
6, ,-40, ,
6, ,-40, ,
4, ,-40, ,
3, ,-40, ,
6, ,-40, ,
6, ,-39, ,
3, ,-41, ,
9, ,-40, ,
11, ,-40, ,
6, ,-40, ,
4, ,-40, ,
4, ,-40, ,
3, ,-40, ,
4, ,-40, ,
-1, ,-40, ,
1, ,-40, ,
5, ,-40, ,
3, ,-40, ,
-1, ,-40, ,
4, ,-40, ,
8, ,-40, ,
6, ,-40, ,
3, ,-40, ,
5, ,-40, ,
4, ,-40, ,
1, ,-40, ,
1, ,-40, ,
4, ,-40, ,
9, ,-40, ,
11, ,-40, ,
5, ,-41, ,
8, ,-40, ,
8, ,-40, ,
3, ,-40, ,
-4, ,-40, ,
3, ,-40, ,
1, ,-40, ,
0, ,-40, ,
1, ,-40, ,
0, ,-40, ,
1, ,-40, ,
4, ,-40, ,
-2, ,-40, ,
3, ,-40, ,
9, ,-40, ,
4, ,-40, ,
3, ,-40, ,
4, ,-40, ,
4, ,-40, ,
4, ,-40, ,
0, ,-40, ,
3, ,-40, ,
1, ,-40, ,
-1, ,-40, ,
-4, ,-41, ,
-1, ,-40, ,
1, ,-40, ,
1, ,-40, ,
-4, ,-40, ,
-1, ,-40, ,
-2, ,-40, ,
-9, ,-40, ,
-6, ,-40, ,
0, ,-40, ,
1, ,-40, ,
1, ,-40, ,
1, ,-41, ,
3, ,-40, ,
5, ,-40, ,
-1, ,-40, ,
-6, ,-40, ,
0, ,-40, ,
-1, ,-40, ,
-1, ,-40, ,
-1, ,-40, ,
0, ,-40, ,
1, ,-40, ,
-2, ,-40, ,
-7, ,-41, ,
-1, ,-40, ,
-2, ,-40, ,
-2, ,-40, ,
-4, ,-40, ,
0, ,-40, ,
3, ,-40, ,
-1, ,-40, ,
-1, ,-40, ,
0, ,-40, ,
1, ,-40, ,
3, ,-40, ,
-4, ,-41, ,
0, ,-40, ,
1, ,-40, ,
0, ,-40, ,
-5, ,-40, ,
-1, ,-40, ,
-4, ,-40, ,
-4, ,-40, ,
-5, ,-40, ,
1, ,-40, ,
3, ,-40, ,
4, ,-40, ,
1, ,-41, ,
1, ,-40, ,
3, ,-40, ,
-4, ,-40, ,
-5, ,-40, ,
-2, ,-40, ,
-2, ,-40, ,
-4, ,-40, ,
-4, ,-40, ,
1, ,-40, ,
0, ,-40, ,
1, ,-40, ,
-1, ,-41, ,
0, ,-40, ,
3, ,-40, ,
-1, ,-40, ,
-6, ,-40, ,
3, ,-40, ,
-1, ,-40, ,
1, ,-40, ,
-5, ,-40, ,
-2, ,-40, ,
1, ,-40, ,
-4, ,-40, ,
-6, ,-40, ,
0, ,-40, ,
-1, ,-40, ,
0, ,-40, ,
-4, ,-40, ,
0, ,-40, ,
0, ,-40, ,
-4, ,-40, ,
-4, ,-40, ,
-1, ,-40, ,
-1, ,-40, ,
-1, ,-40, ,
-5, ,-41, ,
1, ,-40, ,
1, ,-40, ,
0, ,-40, ,
-1, ,-40, ,
3, ,-40, ,
1, ,-40, ,
-2, ,-40, ,
-5, ,-40, ,
-4, ,-40, ,
0, ,-40, ,
1, ,-40, ,
-4, ,-41, ,
1, ,-40, ,
-1, ,-40, ,
-2, ,-40, ,
-5, ,-40, ,
-2, ,-40, ,
-1, ,-40, ,
0, ,-40, ,
-1, ,-40, ,
0, ,-40, ,
0, ,-40, ,
-1, ,-40, ,
-6, ,-41, ,
-1, ,-40, ,
1, ,-40, ,
-1, ,-40, ,
1, ,-40, ,
4, ,-40, ,
5, ,-40, ,
4, ,-40, ,
0, ,-40, ,
-1, ,-40, ,
-2, ,-40, ,
0, ,-40, ,
-2, ,-41, ,
1, ,-40, ,
5, ,-40, ,
3, ,-40, ,
0, ,-40, ,
1, ,-40, ,
1, ,-40, ,
1, ,-40, ,
-4, ,-40, ,
1, ,-40, ,
1, ,-40, ,
5, ,-40, ,
0, ,-40, ,
3, ,-40, ,
8, ,-40, ,
4, ,-40, ,
1, ,-40, ,
6, ,-40, ,
4, ,-40, ,
5, ,-40, ,
4, ,-40, ,
3, ,-40, ,
5, ,-40, ,
1, ,-40, ,
-4, ,-40, ,
0, ,-40, ,
-1, ,-40, ,
0, ,-40, ,
-1, ,-40, ,
5, ,-40, ,
9, ,-40, ,
5, ,-40, ,
5, ,-40, ,
4, ,-40, ,
1, ,-40, ,
1, ,-40, ,
-5, ,-41, ,
1, ,-40, ,
4, ,-40, ,
1, ,-40, ,
-2, ,-40, ,
5, ,-40, ,
3, ,-40, ,
-1, ,-40, ,
0, ,-40, ,
4, ,-40, ,
4, ,-40, ,
4, ,-40, ,
-1, ,-40, ,
9, ,-40, ,
3, ,-40, ,
-2, ,-40, ,
0, ,-40, ,
0, ,-40, ,
0, ,-40, ,
8, ,-40, ,
6, ,-40, ,
5, ,-40, ,
0, ,-40, ,
4, ,-40, ,
0, ,-41, ,
-1, ,-40, ,
4, ,-40, ,
3, ,-40, ,
1, ,-40, ,
6, ,-40, ,
5, ,-40, ,
4, ,-40, ,
5, ,-40, ,
4, ,-40, ,
8, ,-40, ,
6, ,-40, ,
4, ,-40, ,
4, ,-40, ,
6, ,-40, ,
4, ,-40, ,
-1, ,-40, ,
5, ,-40, ,
8, ,-40, ,
5, ,-40, ,
5, ,-40, ,
3, ,-40, ,
3, ,-40, ,
3, ,-40, ,
-1, ,-41, ,
3, ,-40, ,
5, ,-40, ,
4, ,-40, ,
-1, ,-40, ,
9, ,-40, ,
4, ,-40, ,
1, ,-40, ,
3, ,-40, ,
5, ,-40, ,
6, ,-40, ,
4, ,-40, ,
-1, ,-40, ,
4, ,-40, ,
4, ,-40, ,
3, ,-40, ,
-1, ,-40, ,
4, ,-40, ,
6, ,-40, ,
4, ,-40, ,
3, ,-40, ,
4, ,-40, ,
4, ,-40, ,
6, ,-40, ,
-2, ,-40, ,
1, ,-40, ,
4, ,-40, ,
-1, ,-40, ,
-1, ,-40, ,
3, ,-40, ,
4, ,-40, ,
3, ,-40, ,
1, ,-40, ,
3, ,-40, ,
4, ,-40, ,
0, ,-40, ,
0, ,-40, ,
1, ,-40, ,
4, ,-40, ,
1, ,-40, ,
-4, ,-40, ,
1, ,-40, ,
4, ,-40, ,
-1, ,-41, ,
-15, ,-40, ,
1, ,-40, ,
5, ,-40, ,
-2, ,-40, ,
3, ,-41, ,
3, ,-40, ,
5, ,-40, ,
-1, ,-40, ,
-1, ,-40, ,
4, ,-40, ,
-1, ,-40, ,
1, ,-40, ,
-4, ,-40, ,
-1, ,-40, ,
