src/vary_am2_1411/temp0003111.CSV

Format,1.0B,
Memory Length,10000,Memory Length,10000,
IntpDistance,0,IntpDistance,0,
Trigger Address,4999,Trigger Address,4999,
Trigger Level,-1.000E+00,Trigger Level,-1.000E+00,
Source,CH1,Source,CH2,
Vertical Units,V,Vertical Units,V,
Vertical Units Div,0,Vertical Units Div,0,
Vertical Units Extend Div,16,Vertical Units Extend Div,16,
Label,,Label,,
Probe Type,0,Probe Type,0,
Probe Ratio,1.000e+01,Probe Ratio,1.000e+00,
Vertical Scale,2.000e-02,Vertical Scale,1.000e+00,
Vertical Position,-5.120e-02,Vertical Position,2.000e-01,
Horizontal Units,S,Horizontal Units,S,
Horizontal Scale,1.000E-05,Horizontal Scale,1.000E-05,
Horizontal Position,0.000E+00,Horizontal Position,0.000E+00,
Horizontal Mode,Main,Horizontal Mode,Main,
SincET Mode,Real Time,SincET Mode,Real Time,
Sampling Period,1.000e-08,Sampling Period,1.000e-08,
Horizontal Old Scale,1.000E-05,Horizontal Old Scale,1.000E-05,
Horizontal Old Position,0.000E+00,Horizontal Old Position,0.000E+00,
Firmware,V1.23,Firmware,V1.23,
Mode,Fast,Mode,Fast,
Waveform Data,,Waveform Data,,
0, ,-41, ,
-6, ,-40, ,
3, ,-40, ,
5, ,-40, ,
1, ,-40, ,
0, ,-39, ,
3, ,-40, ,
-2, ,-40, ,
0, ,-40, ,
-1, ,-40, ,
0, ,-40, ,
1, ,-39, ,
4, ,-41, ,
-4, ,-40, ,
0, ,-39, ,
1, ,-40, ,
0, ,-40, ,
-4, ,-39, ,
0, ,-40, ,
3, ,-40, ,
1, ,-40, ,
0, ,-40, ,
5, ,-40, ,
8, ,-40, ,
5, ,-40, ,
0, ,-40, ,
9, ,-40, ,
3, ,-40, ,
1, ,-40, ,
-4, ,-39, ,
1, ,-40, ,
1, ,-40, ,
3, ,-40, ,
3, ,-40, ,
5, ,-40, ,
6, ,-39, ,
4, ,-41, ,
-1, ,-40, ,
3, ,-39, ,
8, ,-40, ,
5, ,-40, ,
3, ,-40, ,
6, ,-40, ,
6, ,-40, ,
1, ,-40, ,
0, ,-40, ,
1, ,-40, ,
4, ,-39, ,
6, ,-41, ,
-1, ,-40, ,
5, ,-40, ,
5, ,-40, ,
4, ,-40, ,
-4, ,-39, ,
3, ,-40, ,
1, ,-40, ,
0, ,-40, ,
-2, ,-40, ,
6, ,-40, ,
5, ,-40, ,
1, ,-41, ,
1, ,-40, ,
6, ,-40, ,
6, ,-40, ,
3, ,-40, ,
-4, ,-39, ,
4, ,-40, ,
4, ,-40, ,
3, ,-40, ,
3, ,-40, ,
4, ,-40, ,
5, ,-40, ,
6, ,-40, ,
-2, ,-40, ,
1, ,-40, ,
4, ,-40, ,
1, ,-40, ,
-2, ,-39, ,
5, ,-40, ,
1, ,-40, ,
4, ,-40, ,
3, ,-40, ,
1, ,-40, ,
4, ,-40, ,
5, ,-41, ,
1, ,-40, ,
6, ,-39, ,
9, ,-40, ,
8, ,-40, ,
3, ,-39, ,
4, ,-40, ,
4, ,-40, ,
1, ,-40, ,
0, ,-40, ,
0, ,-40, ,
4, ,-40, ,
5, ,-41, ,
3, ,-40, ,
5, ,-40, ,
5, ,-40, ,
3, ,-40, ,
-4, ,-39, ,
3, ,-40, ,
3, ,-40, ,
4, ,-40, ,
5, ,-40, ,
5, ,-40, ,
9, ,-39, ,
6, ,-41, ,
1, ,-40, ,
5, ,-40, ,
3, ,-40, ,
4, ,-40, ,
3, ,-39, ,
6, ,-40, ,
6, ,-40, ,
3, ,-40, ,
0, ,-40, ,
3, ,-40, ,
1, ,-40, ,
4, ,-41, ,
0, ,-40, ,
5, ,-40, ,
9, ,-40, ,
5, ,-40, ,
4, ,-40, ,
8, ,-40, ,
4, ,-40, ,
4, ,-40, ,
-2, ,-40, ,
3, ,-40, ,
0, ,-40, ,
1, ,-41, ,
-6, ,-40, ,
-2, ,-40, ,
1, ,-40, ,
-4, ,-40, ,
-1, ,-40, ,
1, ,-40, ,
3, ,-40, ,
1, ,-40, ,
3, ,-40, ,
5, ,-40, ,
6, ,-40, ,
8, ,-40, ,
0, ,-40, ,
4, ,-40, ,
5, ,-40, ,
0, ,-40, ,
-6, ,-39, ,
0, ,-40, ,
-2, ,-40, ,
-1, ,-40, ,
-4, ,-40, ,
-1, ,-40, ,
4, ,-40, ,
3, ,-41, ,
-1, ,-40, ,
4, ,-39, ,
3, ,-40, ,
0, ,-40, ,
-2, ,-40, ,
4, ,-41, ,
3, ,-40, ,
3, ,-40, ,
0, ,-40, ,
3, ,-40, ,
1, ,-40, ,
0, ,-40, ,
-6, ,-40, ,
0, ,-40, ,
4, ,-40, ,
0, ,-40, ,
-1, ,-39, ,
3, ,-40, ,
0, ,-40, ,
-1, ,-40, ,
-5, ,-40, ,
-5, ,-40, ,
-5, ,-40, ,
-2, ,-41, ,
-6, ,-40, ,
-1, ,-40, ,
3, ,-40, ,
-2, ,-40, ,
-4, ,-39, ,
0, ,-40, ,
3, ,-40, ,
5, ,-40, ,
3, ,-40, ,
3, ,-40, ,
4, ,-40, ,
4, ,-40, ,
-4, ,-40, ,
0, ,-40, ,
4, ,-40, ,
0, ,-40, ,
1, ,-39, ,
6, ,-40, ,
6, ,-40, ,
9, ,-40, ,
4, ,-40, ,
5, ,-40, ,
5, ,-40, ,
3, ,-40, ,
-2, ,-40, ,
1, ,-40, ,
1, ,-40, ,
0, ,-40, ,
-7, ,-40, ,
1, ,-40, ,
-1, ,-40, ,
-4, ,-40, ,
-5, ,-40, ,
-4, ,-40, ,
-5, ,-40, ,
-4, ,-40, ,
-7, ,-40, ,
-4, ,-40, ,
-1, ,-40, ,
-2, ,-40, ,
-4, ,-39, ,
0, ,-40, ,
1, ,-40, ,
1, ,-40, ,
-1, ,-40, ,
3, ,-40, ,
3, ,-40, ,
3, ,-41, ,
-1, ,-40, ,
1, ,-39, ,
3, ,-40, ,
0, ,-40, ,
-4, ,-39, ,
-1, ,-40, ,
0, ,-40, ,
-1, ,-40, ,
-4, ,-40, ,
0, ,-40, ,
-1, ,-40, ,
1, ,-40, ,
-4, ,-40, ,
0, ,-40, ,
3, ,-40, ,
1, ,-40, ,
-1, ,-39, ,
4, ,-40, ,
5, ,-40, ,
8, ,-40, ,
3, ,-40, ,
1, ,-40, ,
3, ,-40, ,
1, ,-41, ,
-5, ,-40, ,
1, ,-40, ,
6, ,-40, ,
5, ,-40, ,
5, ,-40, ,
10, ,-40, ,
10, ,-40, ,
8, ,-40, ,
4, ,-40, ,
5, ,-40, ,
5, ,-39, ,
4, ,-41, ,
-1, ,-40, ,
1, ,-40, ,
5, ,-40, ,
3, ,-40, ,
0, ,-39, ,
4, ,-40, ,
1, ,-40, ,
1, ,-40, ,
0, ,-40, ,
0, ,-40, ,
4, ,-40, ,
5, ,-41, ,
-2, ,-40, ,
0, ,-40, ,
0, ,-40, ,
0, ,-40, ,
-5, ,-40, ,
5, ,-40, ,
3, ,-40, ,
3, ,-40, ,
3, ,-40, ,
5, ,-40, ,
3, ,-40, ,
0, ,-40, ,
-7, ,-40, ,
-1, ,-40, ,
1, ,-40, ,
-1, ,-40, ,
-2, ,-39, ,
1, ,-40, ,
1, ,-40, ,
-2, ,-40, ,
-6, ,-40, ,
-1, ,-40, ,
1, ,-40, ,
3, ,-41, ,
0, ,-40, ,
6, ,-40, ,
1, ,-40, ,
0, ,-40, ,
-5, ,-40, ,
4, ,-40, ,
4, ,-40, ,
-4, ,-40, ,
-7, ,-39, ,
-1, ,-35, ,
0, ,-25, ,
6, ,-14, ,
9, ,-5, ,
9, ,2, ,
8, ,10, ,
4, ,16, ,
0, ,20, ,
8, ,26, ,
11, ,30, ,
15, ,32, ,
10, ,35, ,
13, ,38, ,
13, ,39, ,
9, ,42, ,
5, ,44, ,
9, ,45, ,
9, ,47, ,
10, ,47, ,
5, ,47, ,
11, ,50, ,
9, ,50, ,
6, ,50, ,
8, ,51, ,
8, ,51, ,
9, ,50, ,
11, ,53, ,
5, ,52, ,
8, ,52, ,
8, ,52, ,
5, ,53, ,
1, ,50, ,
5, ,54, ,
1, ,53, ,
4, ,52, ,
0, ,54, ,
1, ,53, ,
3, ,52, ,
4, ,54, ,
0, ,53, ,
3, ,53, ,
5, ,54, ,
3, ,53, ,
-5, ,52, ,
1, ,54, ,
0, ,53, ,
-4, ,53, ,
1, ,53, ,
3, ,53, ,
0, ,52, ,
4, ,54, ,
-2, ,53, ,
4, ,53, ,
5, ,53, ,
1, ,53, ,
0, ,51, ,
8, ,54, ,
4, ,53, ,
6, ,53, ,
3, ,53, ,
5, ,53, ,
5, ,51, ,
5, ,54, ,
1, ,53, ,
3, ,52, ,
4, ,54, ,
1, ,53, ,
-1, ,51, ,
3, ,54, ,
1, ,53, ,
1, ,53, ,
-1, ,53, ,
-1, ,53, ,
-2, ,52, ,
-2, ,54, ,
-7, ,53, ,
-4, ,52, ,
0, ,53, ,
-2, ,54, ,
-5, ,51, ,
-1, ,54, ,
-5, ,53, ,
-5, ,53, ,
-7, ,53, ,
-4, ,53, ,
0, ,51, ,
3, ,54, ,
-1, ,53, ,
4, ,52, ,
3, ,53, ,
4, ,53, ,
0, ,51, ,
5, ,53, ,
8, ,53, ,
5, ,53, ,
6, ,53, ,
8, ,53, ,
6, ,52, ,
8, ,54, ,
-2, ,52, ,
3, ,52, ,
3, ,53, ,
0, ,53, ,
0, ,51, ,
4, ,54, ,
3, ,53, ,
3, ,52, ,
-2, ,53, ,
0, ,53, ,
-2, ,52, ,
-2, ,54, ,
-7, ,52, ,
0, ,53, ,
3, ,53, ,
-1, ,53, ,
-2, ,51, ,
3, ,54, ,
1, ,53, ,
0, ,53, ,
-1, ,53, ,
3, ,53, ,
3, ,52, ,
5, ,53, ,
0, ,53, ,
4, ,52, ,
8, ,53, ,
5, ,53, ,
6, ,51, ,
11, ,54, ,
6, ,53, ,
8, ,52, ,
4, ,53, ,
6, ,53, ,
6, ,51, ,
6, ,54, ,
0, ,52, ,
5, ,52, ,
4, ,53, ,
1, ,53, ,
-4, ,51, ,
-2, ,54, ,
-6, ,52, ,
-5, ,53, ,
-6, ,53, ,
-5, ,53, ,
-4, ,52, ,
-2, ,53, ,
-9, ,52, ,
-6, ,52, ,
-6, ,53, ,
-9, ,53, ,
-7, ,51, ,
-4, ,53, ,
-4, ,53, ,
-5, ,52, ,
-9, ,53, ,
-5, ,53, ,
-5, ,52, ,
-1, ,54, ,
-5, ,52, ,
4, ,52, ,
5, ,53, ,
8, ,53, ,
3, ,51, ,
8, ,54, ,
6, ,52, ,
3, ,53, ,
1, ,53, ,
3, ,53, ,
-5, ,52, ,
13, ,53, ,
8, ,52, ,
6, ,52, ,
13, ,53, ,
6, ,53, ,
3, ,51, ,
5, ,54, ,
3, ,53, ,
3, ,52, ,
-1, ,53, ,
4, ,53, ,
0, ,51, ,
1, ,54, ,
-5, ,52, ,
-4, ,52, ,
-5, ,53, ,
-2, ,53, ,
-4, ,51, ,
3, ,53, ,
1, ,53, ,
1, ,52, ,
-1, ,53, ,
0, ,53, ,
-1, ,51, ,
1, ,54, ,
-1, ,52, ,
5, ,52, ,
6, ,53, ,
4, ,53, ,
4, ,51, ,
11, ,54, ,
4, ,52, ,
6, ,52, ,
0, ,52, ,
1, ,53, ,
4, ,51, ,
4, ,54, ,
0, ,52, ,
8, ,52, ,
8, ,53, ,
6, ,52, ,
1, ,51, ,
8, ,54, ,
5, ,53, ,
0, ,52, ,
-1, ,53, ,
-1, ,53, ,
0, ,52, ,
1, ,53, ,
-6, ,53, ,
-2, ,52, ,
-2, ,53, ,
-5, ,53, ,
-7, ,51, ,
-1, ,54, ,
-5, ,53, ,
-1, ,52, ,
-4, ,53, ,
0, ,53, ,
1, ,51, ,
0, ,54, ,
-1, ,53, ,
3, ,51, ,
1, ,53, ,
3, ,52, ,
4, ,51, ,
9, ,53, ,
6, ,52, ,
5, ,53, ,
4, ,53, ,
6, ,53, ,
1, ,52, ,
4, ,53, ,
0, ,52, ,
1, ,52, ,
6, ,53, ,
8, ,53, ,
3, ,50, ,
10, ,54, ,
3, ,53, ,
3, ,52, ,
0, ,53, ,
-1, ,53, ,
1, ,51, ,
4, ,53, ,
-1, ,52, ,
-1, ,52, ,
0, ,53, ,
-4, ,53, ,
-10, ,51, ,
-1, ,54, ,
-4, ,53, ,
-1, ,52, ,
1, ,53, ,
5, ,53, ,
4, ,51, ,
4, ,53, ,
-1, ,52, ,
1, ,52, ,
5, ,53, ,
4, ,53, ,
1, ,51, ,
10, ,54, ,
8, ,53, ,
11, ,52, ,
9, ,53, ,
8, ,53, ,
6, ,51, ,
9, ,53, ,
5, ,52, ,
10, ,52, ,
10, ,53, ,
9, ,53, ,
8, ,51, ,
6, ,54, ,
5, ,53, ,
1, ,52, ,
0, ,53, ,
1, ,53, ,
-1, ,52, ,
3, ,53, ,
-2, ,52, ,
3, ,52, ,
0, ,53, ,
-5, ,53, ,
-7, ,51, ,
-1, ,54, ,
-4, ,53, ,
0, ,52, ,
-2, ,52, ,
-1, ,53, ,
-2, ,51, ,
-2, ,54, ,
-5, ,52, ,
-4, ,52, ,
-1, ,53, ,
0, ,52, ,
-4, ,51, ,
4, ,53, ,
1, ,52, ,
4, ,52, ,
3, ,53, ,
6, ,53, ,
8, ,52, ,
8, ,53, ,
1, ,52, ,
5, ,52, ,
6, ,53, ,
3, ,53, ,
-2, ,51, ,
4, ,54, ,
0, ,52, ,
3, ,52, ,
0, ,53, ,
0, ,52, ,
0, ,52, ,
-1, ,53, ,
-5, ,52, ,
1, ,52, ,
0, ,53, ,
0, ,52, ,
-5, ,51, ,
4, ,53, ,
1, ,53, ,
-1, ,52, ,
1, ,53, ,
1, ,53, ,
1, ,51, ,
4, ,53, ,
-4, ,52, ,
0, ,52, ,
4, ,53, ,
1, ,53, ,
-5, ,51, ,
1, ,54, ,
1, ,53, ,
1, ,52, ,
3, ,53, ,
6, ,53, ,
8, ,51, ,
3, ,54, ,
-1, ,52, ,
8, ,51, ,
5, ,53, ,
4, ,52, ,
1, ,51, ,
5, ,53, ,
5, ,52, ,
3, ,52, ,
1, ,53, ,
1, ,53, ,
-2, ,52, ,
0, ,53, ,
-7, ,52, ,
-5, ,52, ,
-1, ,53, ,
-5, ,53, ,
-6, ,51, ,
0, ,54, ,
-4, ,53, ,
3, ,52, ,
-1, ,53, ,
0, ,53, ,
0, ,51, ,
-1, ,53, ,
-5, ,52, ,
-1, ,52, ,
1, ,53, ,
0, ,53, ,
-5, ,51, ,
0, ,53, ,
-1, ,52, ,
1, ,52, ,
-1, ,53, ,
-1, ,53, ,
-1, ,52, ,
-4, ,53, ,
-10, ,52, ,
-6, ,52, ,
-11, ,53, ,
-11, ,53, ,
-11, ,50, ,
-1, ,53, ,
0, ,53, ,
6, ,52, ,
6, ,53, ,
11, ,53, ,
14, ,52, ,
14, ,53, ,
6, ,53, ,
8, ,52, ,
4, ,53, ,
1, ,53, ,
-6, ,50, ,
-2, ,54, ,
-2, ,52, ,
-4, ,52, ,
-1, ,53, ,
-1, ,53, ,
-4, ,51, ,
1, ,53, ,
-6, ,53, ,
-1, ,52, ,
3, ,53, ,
0, ,52, ,
-4, ,51, ,
1, ,54, ,
-4, ,53, ,
-2, ,52, ,
-6, ,53, ,
-4, ,53, ,
0, ,51, ,
5, ,54, ,
1, ,52, ,
6, ,52, ,
4, ,53, ,
0, ,53, ,
-1, ,51, ,
0, ,54, ,
-1, ,52, ,
-2, ,52, ,
-1, ,53, ,
1, ,53, ,
5, ,52, ,
3, ,54, ,
-10, ,52, ,
4, ,52, ,
8, ,53, ,
-2, ,53, ,
-4, ,51, ,
3, ,54, ,
-6, ,53, ,
-4, ,52, ,
-5, ,53, ,
-2, ,53, ,
-1, ,51, ,
0, ,54, ,
-7, ,52, ,
-1, ,52, ,
-4, ,53, ,
3, ,53, ,
-2, ,51, ,
5, ,54, ,
5, ,52, ,
3, ,52, ,
0, ,53, ,
3, ,53, ,
1, ,52, ,
3, ,53, ,
-2, ,53, ,
3, ,52, ,
5, ,53, ,
5, ,53, ,
-1, ,51, ,
4, ,54, ,
0, ,53, ,
0, ,52, ,
-1, ,53, ,
3, ,53, ,
5, ,52, ,
6, ,54, ,
3, ,52, ,
5, ,51, ,
8, ,53, ,
6, ,53, ,
1, ,51, ,
6, ,53, ,
4, ,53, ,
0, ,52, ,
3, ,53, ,
1, ,53, ,
-5, ,52, ,
3, ,54, ,
-5, ,52, ,
3, ,52, ,
1, ,53, ,
-1, ,53, ,
1, ,51, ,
6, ,54, ,
8, ,53, ,
11, ,52, ,
6, ,53, ,
9, ,53, ,
10, ,51, ,
8, ,53, ,
5, ,52, ,
10, ,52, ,
14, ,53, ,
9, ,53, ,
0, ,51, ,
5, ,54, ,
4, ,52, ,
5, ,52, ,
4, ,53, ,
1, ,53, ,
-1, ,51, ,
4, ,53, ,
4, ,52, ,
8, ,52, ,
9, ,53, ,
5, ,53, ,
3, ,51, ,
4, ,54, ,
0, ,52, ,
1, ,52, ,
1, ,53, ,
4, ,53, ,
5, ,51, ,
3, ,54, ,
-2, ,52, ,
1, ,51, ,
-4, ,53, ,
-1, ,53, ,
-5, ,51, ,
0, ,53, ,
3, ,53, ,
1, ,52, ,
0, ,52, ,
1, ,53, ,
0, ,51, ,
4, ,53, ,
0, ,53, ,
8, ,52, ,
10, ,53, ,
4, ,53, ,
5, ,50, ,
4, ,54, ,
1, ,53, ,
3, ,52, ,
-1, ,53, ,
0, ,52, ,
0, ,51, ,
1, ,54, ,
-1, ,52, ,
4, ,52, ,
5, ,53, ,
5, ,52, ,
3, ,51, ,
9, ,54, ,
5, ,53, ,
5, ,52, ,
5, ,53, ,
5, ,53, ,
5, ,51, ,
8, ,54, ,
3, ,53, ,
8, ,52, ,
4, ,53, ,
-1, ,53, ,
-4, ,51, ,
3, ,54, ,
0, ,53, ,
3, ,52, ,
3, ,53, ,
3, ,53, ,
4, ,51, ,
4, ,53, ,
-2, ,52, ,
4, ,51, ,
5, ,53, ,
5, ,52, ,
3, ,50, ,
8, ,53, ,
6, ,52, ,
3, ,53, ,
3, ,53, ,
5, ,53, ,
3, ,52, ,
5, ,53, ,
-1, ,52, ,
5, ,52, ,
5, ,53, ,
3, ,53, ,
0, ,51, ,
5, ,53, ,
1, ,53, ,
3, ,52, ,
0, ,53, ,
4, ,53, ,
4, ,51, ,
5, ,54, ,
5, ,52, ,
10, ,52, ,
11, ,53, ,
10, ,53, ,
6, ,51, ,
8, ,54, ,
9, ,52, ,
5, ,52, ,
0, ,53, ,
1, ,53, ,
1, ,52, ,
1, ,53, ,
-4, ,52, ,
0, ,52, ,
4, ,53, ,
3, ,53, ,
1, ,51, ,
8, ,54, ,
4, ,52, ,
5, ,52, ,
6, ,53, ,
6, ,53, ,
3, ,52, ,
3, ,53, ,
-1, ,52, ,
3, ,52, ,
3, ,53, ,
1, ,52, ,
0, ,51, ,
6, ,54, ,
9, ,53, ,
4, ,52, ,
6, ,53, ,
1, ,53, ,
-1, ,52, ,
9, ,53, ,
-1, ,52, ,
3, ,52, ,
3, ,53, ,
3, ,53, ,
3, ,50, ,
8, ,54, ,
4, ,53, ,
1, ,52, ,
3, ,53, ,
5, ,53, ,
4, ,51, ,
3, ,54, ,
-1, ,52, ,
3, ,52, ,
0, ,53, ,
-1, ,53, ,
-4, ,51, ,
4, ,53, ,
3, ,53, ,
5, ,53, ,
4, ,53, ,
8, ,53, ,
3, ,52, ,
5, ,53, ,
0, ,52, ,
3, ,52, ,
1, ,53, ,
-5, ,53, ,
-2, ,51, ,
1, ,54, ,
-4, ,53, ,
-1, ,52, ,
-5, ,53, ,
-4, ,53, ,
-4, ,51, ,
0, ,54, ,
-5, ,52, ,
-1, ,52, ,
0, ,53, ,
-1, ,53, ,
-7, ,51, ,
1, ,54, ,
-1, ,53, ,
-4, ,52, ,
-5, ,53, ,
-2, ,53, ,
-5, ,51, ,
-2, ,53, ,
-9, ,52, ,
-4, ,52, ,
-1, ,53, ,
-5, ,53, ,
-7, ,51, ,
-4, ,54, ,
-9, ,53, ,
-2, ,52, ,
-5, ,53, ,
-5, ,53, ,
-1, ,52, ,
0, ,53, ,
-4, ,52, ,
-1, ,52, ,
-4, ,53, ,
-6, ,53, ,
-12, ,51, ,
-5, ,53, ,
-4, ,52, ,
-1, ,53, ,
-1, ,53, ,
1, ,53, ,
1, ,51, ,
3, ,53, ,
-7, ,52, ,
-2, ,52, ,
-4, ,53, ,
-6, ,53, ,
-2, ,50, ,
-1, ,54, ,
-6, ,52, ,
-4, ,52, ,
-7, ,53, ,
-5, ,53, ,
-4, ,51, ,
0, ,54, ,
-4, ,52, ,
4, ,51, ,
1, ,53, ,
-2, ,53, ,
-4, ,51, ,
-2, ,53, ,
-2, ,52, ,
-5, ,52, ,
-6, ,52, ,
-2, ,53, ,
-2, ,52, ,
-1, ,53, ,
-5, ,52, ,
-2, ,52, ,
-2, ,53, ,
-4, ,53, ,
-6, ,51, ,
0, ,54, ,
-1, ,53, ,
0, ,52, ,
-1, ,53, ,
1, ,53, ,
1, ,51, ,
3, ,54, ,
-4, ,52, ,
0, ,52, ,
0, ,53, ,
1, ,53, ,
-4, ,51, ,
5, ,53, ,
0, ,52, ,
0, ,52, ,
-1, ,53, ,
-1, ,53, ,
-4, ,52, ,
1, ,53, ,
-4, ,52, ,
0, ,52, ,
0, ,53, ,
0, ,53, ,
-4, ,51, ,
3, ,54, ,
1, ,53, ,
-1, ,52, ,
-4, ,53, ,
-1, ,53, ,
0, ,52, ,
-1, ,54, ,
-4, ,53, ,
-1, ,51, ,
3, ,53, ,
0, ,53, ,
0, ,51, ,
4, ,54, ,
4, ,52, ,
1, ,52, ,
0, ,52, ,
6, ,53, ,
3, ,52, ,
3, ,53, ,
-1, ,52, ,
4, ,52, ,
4, ,53, ,
4, ,53, ,
0, ,51, ,
5, ,54, ,
0, ,53, ,
3, ,52, ,
3, ,53, ,
5, ,53, ,
5, ,48, ,
-1, ,41, ,
-5, ,30, ,
-4, ,20, ,
-2, ,12, ,
-1, ,4, ,
0, ,-2, ,
8, ,-7, ,
4, ,-11, ,
5, ,-16, ,
0, ,-19, ,
-1, ,-22, ,
1, ,-25, ,
5, ,-27, ,
3, ,-28, ,
6, ,-30, ,
9, ,-31, ,
6, ,-33, ,
4, ,-33, ,
9, ,-36, ,
3, ,-37, ,
5, ,-37, ,
3, ,-38, ,
4, ,-38, ,
8, ,-38, ,
6, ,-39, ,
1, ,-39, ,
3, ,-39, ,
3, ,-39, ,
-1, ,-40, ,
-2, ,-40, ,
3, ,-41, ,
1, ,-40, ,
0, ,-40, ,
3, ,-40, ,
1, ,-40, ,
4, ,-40, ,
5, ,-41, ,
-2, ,-41, ,
4, ,-40, ,
9, ,-41, ,
8, ,-41, ,
3, ,-40, ,
4, ,-41, ,
6, ,-41, ,
4, ,-40, ,
3, ,-41, ,
4, ,-41, ,
5, ,-40, ,
5, ,-41, ,
3, ,-41, ,
9, ,-40, ,
13, ,-41, ,
9, ,-41, ,
6, ,-40, ,
9, ,-41, ,
9, ,-41, ,
5, ,-41, ,
1, ,-40, ,
1, ,-40, ,
0, ,-40, ,
4, ,-41, ,
3, ,-41, ,
4, ,-41, ,
11, ,-41, ,
8, ,-41, ,
5, ,-40, ,
6, ,-41, ,
1, ,-40, ,
4, ,-41, ,
0, ,-40, ,
4, ,-41, ,
6, ,-40, ,
6, ,-41, ,
3, ,-41, ,
10, ,-40, ,
11, ,-41, ,
8, ,-40, ,
0, ,-40, ,
6, ,-41, ,
4, ,-40, ,
4, ,-40, ,
4, ,-40, ,
3, ,-40, ,
1, ,-40, ,
5, ,-41, ,
-2, ,-40, ,
3, ,-40, ,
6, ,-40, ,
6, ,-41, ,
4, ,-39, ,
10, ,-41, ,
10, ,-41, ,
6, ,-40, ,
5, ,-40, ,
3, ,-40, ,
3, ,-40, ,
5, ,-41, ,
-2, ,-40, ,
6, ,-40, ,
9, ,-41, ,
6, ,-40, ,
3, ,-40, ,
8, ,-40, ,
8, ,-40, ,
4, ,-40, ,
1, ,-40, ,
6, ,-40, ,
5, ,-40, ,
8, ,-41, ,
4, ,-40, ,
8, ,-40, ,
9, ,-40, ,
1, ,-40, ,
0, ,-40, ,
1, ,-40, ,
1, ,-40, ,
1, ,-40, ,
-1, ,-40, ,
0, ,-40, ,
0, ,-39, ,
0, ,-41, ,
-5, ,-40, ,
-7, ,-39, ,
-2, ,-40, ,
-4, ,-40, ,
-9, ,-40, ,
-2, ,-40, ,
-1, ,-40, ,
-2, ,-40, ,
-6, ,-40, ,
-6, ,-40, ,
-7, ,-40, ,
-6, ,-41, ,
-12, ,-40, ,
-6, ,-40, ,
-4, ,-40, ,
-6, ,-40, ,
-9, ,-39, ,
-2, ,-41, ,
-6, ,-40, ,
-2, ,-40, ,
-5, ,-40, ,
-4, ,-40, ,
-1, ,-40, ,
-4, ,-41, ,
-9, ,-40, ,
-2, ,-40, ,
0, ,-40, ,
0, ,-40, ,
-2, ,-40, ,
4, ,-40, ,
3, ,-40, ,
4, ,-40, ,
1, ,-40, ,
3, ,-40, ,
6, ,-40, ,
8, ,-40, ,
0, ,-40, ,
4, ,-40, ,
6, ,-40, ,
1, ,-40, ,
-4, ,-39, ,
1, ,-40, ,
1, ,-40, ,
3, ,-40, ,
0, ,-40, ,
4, ,-40, ,
6, ,-40, ,
6, ,-41, ,
-1, ,-40, ,
4, ,-40, ,
5, ,-40, ,
3, ,-40, ,
-1, ,-40, ,
4, ,-40, ,
4, ,-40, ,
0, ,-40, ,
0, ,-40, ,
-2, ,-40, ,
-2, ,-40, ,
-1, ,-41, ,
-10, ,-40, ,
-5, ,-40, ,
-1, ,-40, ,
-6, ,-40, ,
-7, ,-39, ,
-5, ,-40, ,
-7, ,-41, ,
-4, ,-40, ,
-10, ,-40, ,
-6, ,-40, ,
-4, ,-40, ,
-4, ,-41, ,
-6, ,-40, ,
-5, ,-40, ,
-4, ,-40, ,
-7, ,-40, ,
-11, ,-40, ,
-10, ,-40, ,
-10, ,-40, ,
-9, ,-40, ,
-5, ,-40, ,
-7, ,-40, ,
-5, ,-40, ,
-4, ,-41, ,
-12, ,-40, ,
-6, ,-40, ,
-5, ,-40, ,
-5, ,-40, ,
-9, ,-40, ,
1, ,-40, ,
1, ,-40, ,
1, ,-40, ,
3, ,-40, ,
4, ,-40, ,
0, ,-40, ,
0, ,-41, ,
-7, ,-40, ,
0, ,-39, ,
3, ,-40, ,
0, ,-40, ,
-4, ,-39, ,
3, ,-40, ,
1, ,-40, ,
0, ,-40, ,
4, ,-40, ,
6, ,-40, ,
10, ,-40, ,
9, ,-41, ,
4, ,-40, ,
5, ,-40, ,
6, ,-40, ,
4, ,-40, ,
1, ,-39, ,
3, ,-40, ,
-1, ,-40, ,
0, ,-40, ,
-2, ,-40, ,
1, ,-40, ,
3, ,-40, ,
1, ,-40, ,
-2, ,-40, ,
-1, ,-40, ,
0, ,-40, ,
-1, ,-40, ,
-2, ,-39, ,
8, ,-40, ,
3, ,-40, ,
3, ,-40, ,
1, ,-40, ,
3, ,-40, ,
5, ,-40, ,
5, ,-41, ,
1, ,-40, ,
5, ,-40, ,
6, ,-40, ,
5, ,-40, ,
-1, ,-40, ,
6, ,-41, ,
5, ,-40, ,
5, ,-40, ,
4, ,-40, ,
5, ,-40, ,
5, ,-40, ,
3, ,-41, ,
-1, ,-40, ,
3, ,-39, ,
4, ,-40, ,
4, ,-40, ,
-1, ,-40, ,
6, ,-40, ,
4, ,-40, ,
-1, ,-40, ,
-1, ,-40, ,
0, ,-40, ,
1, ,-39, ,
4, ,-41, ,
-2, ,-40, ,
1, ,-40, ,
-1, ,-40, ,
-4, ,-40, ,
-2, ,-40, ,
-1, ,-41, ,
1, ,-40, ,
1, ,-40, ,
1, ,-40, ,
4, ,-40, ,
4, ,-40, ,
8, ,-41, ,
3, ,-40, ,
6, ,-40, ,
8, ,-40, ,
4, ,-40, ,
1, ,-39, ,
5, ,-40, ,
6, ,-40, ,
5, ,-40, ,
5, ,-40, ,
0, ,-40, ,
4, ,-40, ,
11, ,-40, ,
-1, ,-40, ,
6, ,-40, ,
6, ,-40, ,
3, ,-40, ,
1, ,-40, ,
6, ,-40, ,
1, ,-40, ,
4, ,-40, ,
1, ,-40, ,
3, ,-40, ,
4, ,-40, ,
6, ,-41, ,
5, ,-40, ,
8, ,-40, ,
9, ,-40, ,
8, ,-40, ,
4, ,-40, ,
8, ,-40, ,
5, ,-40, ,
4, ,-40, ,
3, ,-40, ,
5, ,-40, ,
5, ,-40, ,
9, ,-40, ,
4, ,-40, ,
10, ,-40, ,
11, ,-40, ,
9, ,-40, ,
10, ,-39, ,
10, ,-40, ,
9, ,-40, ,
8, ,-40, ,
8, ,-40, ,
8, ,-40, ,
10, ,-40, ,
9, ,-41, ,
3, ,-40, ,
6, ,-40, ,
6, ,-40, ,
4, ,-40, ,
0, ,-40, ,
4, ,-40, ,
3, ,-40, ,
0, ,-40, ,
-4, ,-40, ,
0, ,-40, ,
-1, ,-40, ,
1, ,-40, ,
-4, ,-40, ,
0, ,-40, ,
3, ,-40, ,
0, ,-40, ,
-4, ,-39, ,
0, ,-40, ,
-2, ,-40, ,
-2, ,-40, ,
-9, ,-40, ,
-2, ,-40, ,
-5, ,-39, ,
-4, ,-41, ,
-4, ,-40, ,
3, ,-39, ,
4, ,-40, ,
6, ,-40, ,
1, ,-40, ,
6, ,-40, ,
3, ,-40, ,
3, ,-40, ,
1, ,-40, ,
4, ,-40, ,
6, ,-40, ,
6, ,-41, ,
3, ,-40, ,
8, ,-40, ,
8, ,-40, ,
4, ,-40, ,
-2, ,-39, ,
4, ,-40, ,
4, ,-40, ,
5, ,-40, ,
3, ,-40, ,
0, ,-40, ,
3, ,-40, ,
-1, ,-41, ,
-4, ,-40, ,
0, ,-39, ,
-1, ,-40, ,
1, ,-40, ,
-2, ,-39, ,
5, ,-40, ,
4, ,-40, ,
1, ,-40, ,
0, ,-40, ,
-1, ,-40, ,
0, ,-40, ,
0, ,-41, ,
-1, ,-40, ,
5, ,-40, ,
6, ,-40, ,
4, ,-40, ,
1, ,-39, ,
4, ,-40, ,
1, ,-40, ,
0, ,-40, ,
-1, ,-40, ,
4, ,-40, ,
3, ,-40, ,
4, ,-41, ,
0, ,-40, ,
6, ,-40, ,
1, ,-40, ,
-2, ,-40, ,
-1, ,-40, ,
3, ,-40, ,
0, ,-40, ,
3, ,-40, ,
-1, ,-40, ,
-1, ,-40, ,
-5, ,-39, ,
0, ,-40, ,
-7, ,-40, ,
-4, ,-40, ,
0, ,-40, ,
-6, ,-40, ,
-7, ,-39, ,
-2, ,-40, ,
-2, ,-40, ,
-2, ,-40, ,
-5, ,-40, ,
-1, ,-40, ,
1, ,-39, ,
-1, ,-41, ,
-1, ,-40, ,
1, ,-40, ,
3, ,-40, ,
1, ,-40, ,
-2, ,-40, ,
1, ,-40, ,
0, ,-40, ,
-1, ,-40, ,
-2, ,-40, ,
3, ,-40, ,
1, ,-40, ,
0, ,-41, ,
-6, ,-40, ,
0, ,-40, ,
1, ,-40, ,
-1, ,-40, ,
-2, ,-40, ,
3, ,-41, ,
1, ,-40, ,
0, ,-40, ,
-1, ,-40, ,
-1, ,-40, ,
0, ,-39, ,
-2, ,-41, ,
-7, ,-40, ,
-5, ,-39, ,
-4, ,-40, ,
-2, ,-40, ,
-6, ,-39, ,
-2, ,-41, ,
0, ,-40, ,
-4, ,-40, ,
-4, ,-40, ,
-1, ,-40, ,
0, ,-40, ,
-1, ,-41, ,
-6, ,-40, ,
-1, ,-40, ,
0, ,-40, ,
-1, ,-40, ,
-2, ,-39, ,
5, ,-40, ,
3, ,-40, ,
3, ,-40, ,
-1, ,-40, ,
3, ,-40, ,
3, ,-40, ,
1, ,-41, ,
-2, ,-40, ,
3, ,-40, ,
6, ,-40, ,
3, ,-40, ,
1, ,-39, ,
5, ,-40, ,
3, ,-40, ,
3, ,-40, ,
-1, ,-40, ,
0, ,-40, ,
0, ,-40, ,
0, ,-40, ,
-2, ,-40, ,
0, ,-39, ,
1, ,-40, ,
0, ,-41, ,
-4, ,-40, ,
0, ,-40, ,
-2, ,-40, ,
-1, ,-40, ,
-2, ,-40, ,
3, ,-40, ,
-2, ,-40, ,
-6, ,-40, ,
-4, ,-40, ,
1, ,-39, ,
-2, ,-40, ,
3, ,-40, ,
0, ,-40, ,
4, ,-41, ,
4, ,-40, ,
4, ,-40, ,
3, ,-40, ,
3, ,-40, ,
3, ,-39, ,
3, ,-41, ,
-4, ,-40, ,
1, ,-40, ,
1, ,-40, ,
0, ,-41, ,
0, ,-39, ,
4, ,-40, ,
3, ,-40, ,
5, ,-40, ,
3, ,-40, ,
3, ,-40, ,
3, ,-39, ,
5, ,-41, ,
-4, ,-40, ,
1, ,-40, ,
4, ,-40, ,
1, ,-40, ,
0, ,-40, ,
3, ,-40, ,
3, ,-40, ,
5, ,-40, ,
3, ,-40, ,
6, ,-40, ,
4, ,-39, ,
5, ,-41, ,
-1, ,-40, ,
1, ,-40, ,
1, ,-40, ,
0, ,-40, ,
-2, ,-39, ,
5, ,-41, ,
5, ,-40, ,
6, ,-40, ,
6, ,-40, ,
5, ,-40, ,
8, ,-40, ,
8, ,-41, ,
5, ,-40, ,
5, ,-39, ,
8, ,-40, ,
6, ,-40, ,
1, ,-40, ,
8, ,-40, ,
5, ,-40, ,
3, ,-40, ,
3, ,-40, ,
1, ,-40, ,
0, ,-40, ,
1, ,-41, ,
-2, ,-40, ,
4, ,-40, ,
4, ,-40, ,
3, ,-40, ,
1, ,-40, ,
5, ,-41, ,
3, ,-40, ,
0, ,-40, ,
1, ,-40, ,
1, ,-40, ,
1, ,-40, ,
1, ,-41, ,
-4, ,-40, ,
0, ,-40, ,
1, ,-40, ,
-1, ,-40, ,
-4, ,-40, ,
3, ,-40, ,
4, ,-40, ,
1, ,-40, ,
3, ,-40, ,
4, ,-40, ,
6, ,-39, ,
5, ,-41, ,
3, ,-40, ,
6, ,-40, ,
8, ,-40, ,
3, ,-40, ,
1, ,-39, ,
6, ,-40, ,
5, ,-40, ,
6, ,-40, ,
1, ,-40, ,
5, ,-40, ,
4, ,-40, ,
3, ,-41, ,
-1, ,-40, ,
3, ,-39, ,
5, ,-40, ,
4, ,-40, ,
3, ,-40, ,
6, ,-40, ,
5, ,-40, ,
4, ,-40, ,
0, ,-40, ,
1, ,-40, ,
0, ,-40, ,
1, ,-41, ,
1, ,-40, ,
5, ,-40, ,
8, ,-40, ,
5, ,-40, ,
-2, ,-39, ,
3, ,-41, ,
0, ,-40, ,
1, ,-40, ,
1, ,-40, ,
4, ,-40, ,
5, ,-40, ,
5, ,-41, ,
4, ,-40, ,
6, ,-40, ,
6, ,-40, ,
5, ,-40, ,
3, ,-40, ,
5, ,-40, ,
8, ,-40, ,
4, ,-40, ,
4, ,-40, ,
4, ,-40, ,
3, ,-39, ,
6, ,-41, ,
-1, ,-40, ,
4, ,-40, ,
5, ,-40, ,
4, ,-40, ,
1, ,-39, ,
3, ,-40, ,
3, ,-40, ,
1, ,-40, ,
-2, ,-40, ,
3, ,-40, ,
0, ,-40, ,
0, ,-41, ,
-4, ,-40, ,
3, ,-39, ,
