src/vary_am2_1411/temp0000081.CSV

Format,1.0B,
Memory Length,10000,Memory Length,10000,
IntpDistance,0,IntpDistance,0,
Trigger Address,4999,Trigger Address,4999,
Trigger Level,-1.000E+00,Trigger Level,-1.000E+00,
Source,CH1,Source,CH2,
Vertical Units,V,Vertical Units,V,
Vertical Units Div,0,Vertical Units Div,0,
Vertical Units Extend Div,16,Vertical Units Extend Div,16,
Label,,Label,,
Probe Type,0,Probe Type,0,
Probe Ratio,1.000e+01,Probe Ratio,1.000e+00,
Vertical Scale,2.000e-02,Vertical Scale,1.000e+00,
Vertical Position,-5.120e-02,Vertical Position,2.000e-01,
Horizontal Units,S,Horizontal Units,S,
Horizontal Scale,1.000E-05,Horizontal Scale,1.000E-05,
Horizontal Position,0.000E+00,Horizontal Position,0.000E+00,
Horizontal Mode,Main,Horizontal Mode,Main,
SincET Mode,Real Time,SincET Mode,Real Time,
Sampling Period,1.000e-08,Sampling Period,1.000e-08,
Horizontal Old Scale,1.000E-05,Horizontal Old Scale,1.000E-05,
Horizontal Old Position,0.000E+00,Horizontal Old Position,0.000E+00,
Firmware,V1.23,Firmware,V1.23,
Mode,Fast,Mode,Fast,
Waveform Data,,Waveform Data,,
0, ,-56, ,
4, ,-55, ,
8, ,-56, ,
1, ,-55, ,
5, ,-55, ,
3, ,-55, ,
0, ,-55, ,
-2, ,-54, ,
1, ,-56, ,
1, ,-55, ,
1, ,-55, ,
-1, ,-55, ,
1, ,-56, ,
1, ,-54, ,
5, ,-55, ,
-5, ,-55, ,
0, ,-55, ,
11, ,-56, ,
4, ,-55, ,
0, ,-55, ,
6, ,-56, ,
5, ,-55, ,
3, ,-55, ,
0, ,-55, ,
4, ,-55, ,
4, ,-55, ,
6, ,-56, ,
3, ,-55, ,
6, ,-55, ,
10, ,-55, ,
5, ,-55, ,
3, ,-55, ,
4, ,-56, ,
3, ,-55, ,
3, ,-55, ,
0, ,-55, ,
4, ,-55, ,
6, ,-54, ,
8, ,-55, ,
5, ,-55, ,
6, ,-55, ,
10, ,-55, ,
5, ,-55, ,
3, ,-55, ,
6, ,-56, ,
1, ,-55, ,
3, ,-55, ,
6, ,-56, ,
4, ,-55, ,
5, ,-54, ,
5, ,-56, ,
-2, ,-55, ,
3, ,-55, ,
5, ,-56, ,
0, ,-55, ,
-2, ,-55, ,
4, ,-56, ,
4, ,-55, ,
4, ,-55, ,
5, ,-55, ,
6, ,-55, ,
9, ,-55, ,
6, ,-55, ,
0, ,-55, ,
4, ,-55, ,
4, ,-55, ,
3, ,-55, ,
-1, ,-55, ,
8, ,-56, ,
4, ,-55, ,
3, ,-55, ,
1, ,-56, ,
1, ,-55, ,
4, ,-55, ,
6, ,-56, ,
1, ,-55, ,
6, ,-55, ,
8, ,-55, ,
5, ,-55, ,
3, ,-55, ,
5, ,-56, ,
4, ,-56, ,
3, ,-55, ,
0, ,-55, ,
1, ,-56, ,
3, ,-54, ,
3, ,-56, ,
3, ,-56, ,
4, ,-55, ,
3, ,-55, ,
1, ,-55, ,
-1, ,-55, ,
4, ,-56, ,
4, ,-56, ,
3, ,-55, ,
3, ,-55, ,
5, ,-56, ,
5, ,-55, ,
3, ,-55, ,
-1, ,-55, ,
1, ,-55, ,
5, ,-55, ,
3, ,-55, ,
3, ,-55, ,
9, ,-56, ,
8, ,-55, ,
10, ,-55, ,
4, ,-55, ,
5, ,-55, ,
6, ,-54, ,
4, ,-55, ,
0, ,-55, ,
6, ,-55, ,
6, ,-55, ,
9, ,-55, ,
4, ,-55, ,
9, ,-56, ,
9, ,-55, ,
8, ,-55, ,
5, ,-55, ,
5, ,-56, ,
8, ,-55, ,
10, ,-56, ,
-1, ,-55, ,
8, ,-55, ,
10, ,-55, ,
6, ,-55, ,
3, ,-55, ,
4, ,-56, ,
4, ,-55, ,
4, ,-54, ,
1, ,-55, ,
3, ,-56, ,
3, ,-54, ,
4, ,-55, ,
-2, ,-55, ,
0, ,-55, ,
3, ,-55, ,
1, ,-55, ,
1, ,-55, ,
8, ,-56, ,
9, ,-55, ,
6, ,-55, ,
4, ,-55, ,
4, ,-55, ,
5, ,-55, ,
6, ,-56, ,
1, ,-55, ,
1, ,-55, ,
0, ,-55, ,
1, ,-55, ,
0, ,-54, ,
4, ,-56, ,
5, ,-55, ,
4, ,-55, ,
-1, ,-55, ,
0, ,-55, ,
4, ,-55, ,
1, ,-55, ,
0, ,-55, ,
3, ,-55, ,
0, ,-56, ,
4, ,-55, ,
-2, ,-55, ,
3, ,-56, ,
4, ,-55, ,
1, ,-55, ,
-2, ,-55, ,
-1, ,-55, ,
0, ,-54, ,
-2, ,-56, ,
-9, ,-55, ,
-4, ,-55, ,
-2, ,-55, ,
-2, ,-55, ,
-4, ,-55, ,
3, ,-56, ,
1, ,-55, ,
3, ,-55, ,
1, ,-55, ,
3, ,-56, ,
4, ,-55, ,
0, ,-55, ,
-4, ,-55, ,
1, ,-55, ,
-1, ,-55, ,
-5, ,-56, ,
-7, ,-55, ,
-2, ,-56, ,
-1, ,-55, ,
-2, ,-55, ,
-6, ,-55, ,
-1, ,-56, ,
-6, ,-55, ,
-1, ,-56, ,
-7, ,-55, ,
-2, ,-55, ,
1, ,-55, ,
-5, ,-55, ,
-5, ,-55, ,
-2, ,-56, ,
-6, ,-55, ,
-5, ,-55, ,
-7, ,-55, ,
-5, ,-56, ,
-5, ,-55, ,
-4, ,-56, ,
-7, ,-55, ,
-5, ,-55, ,
-4, ,-55, ,
-6, ,-55, ,
-9, ,-55, ,
-2, ,-56, ,
-5, ,-55, ,
-5, ,-55, ,
-6, ,-56, ,
-5, ,-55, ,
-4, ,-54, ,
-4, ,-55, ,
-4, ,-55, ,
-2, ,-55, ,
-1, ,-55, ,
-6, ,-55, ,
-11, ,-54, ,
-4, ,-56, ,
-9, ,-55, ,
-6, ,-55, ,
-7, ,-55, ,
-5, ,-56, ,
-5, ,-54, ,
-6, ,-55, ,
-10, ,-55, ,
-6, ,-55, ,
-5, ,-55, ,
-6, ,-55, ,
-12, ,-55, ,
-2, ,-56, ,
-2, ,-55, ,
-5, ,-55, ,
-5, ,-55, ,
-4, ,-56, ,
-4, ,-55, ,
-4, ,-55, ,
-10, ,-55, ,
-5, ,-55, ,
-5, ,-55, ,
-5, ,-55, ,
-7, ,-55, ,
-4, ,-56, ,
-4, ,-55, ,
-4, ,-55, ,
-7, ,-55, ,
-2, ,-56, ,
-1, ,-54, ,
1, ,-56, ,
-5, ,-56, ,
3, ,-55, ,
0, ,-56, ,
-5, ,-55, ,
-7, ,-55, ,
-2, ,-56, ,
-2, ,-55, ,
-2, ,-55, ,
-5, ,-55, ,
-1, ,-56, ,
0, ,-55, ,
3, ,-56, ,
-2, ,-56, ,
-4, ,-55, ,
0, ,-55, ,
-2, ,-55, ,
-7, ,-54, ,
-1, ,-56, ,
-2, ,-55, ,
1, ,-55, ,
0, ,-55, ,
0, ,-56, ,
1, ,-54, ,
0, ,-55, ,
-2, ,-55, ,
0, ,-55, ,
4, ,-55, ,
4, ,-55, ,
0, ,-55, ,
5, ,-56, ,
3, ,-55, ,
1, ,-55, ,
0, ,-56, ,
0, ,-56, ,
1, ,-54, ,
3, ,-56, ,
-2, ,-55, ,
3, ,-55, ,
4, ,-55, ,
1, ,-55, ,
-5, ,-55, ,
1, ,-56, ,
-1, ,-55, ,
3, ,-55, ,
1, ,-55, ,
5, ,-56, ,
5, ,-55, ,
4, ,-56, ,
-1, ,-55, ,
3, ,-55, ,
1, ,-55, ,
-1, ,-55, ,
-6, ,-54, ,
-5, ,-54, ,
3, ,-46, ,
5, ,-35, ,
9, ,-25, ,
13, ,-17, ,
11, ,-9, ,
9, ,-2, ,
4, ,3, ,
9, ,8, ,
10, ,12, ,
8, ,16, ,
9, ,19, ,
10, ,21, ,
8, ,23, ,
8, ,26, ,
5, ,29, ,
4, ,29, ,
5, ,31, ,
5, ,32, ,
3, ,33, ,
6, ,34, ,
8, ,34, ,
6, ,35, ,
8, ,35, ,
10, ,36, ,
6, ,36, ,
5, ,36, ,
4, ,37, ,
6, ,37, ,
8, ,37, ,
10, ,37, ,
5, ,38, ,
8, ,37, ,
10, ,38, ,
5, ,38, ,
0, ,37, ,
6, ,38, ,
5, ,38, ,
6, ,38, ,
4, ,38, ,
5, ,38, ,
6, ,37, ,
6, ,38, ,
3, ,38, ,
5, ,38, ,
8, ,38, ,
6, ,38, ,
3, ,37, ,
8, ,39, ,
8, ,38, ,
6, ,38, ,
6, ,38, ,
6, ,38, ,
9, ,37, ,
8, ,38, ,
0, ,38, ,
4, ,38, ,
5, ,38, ,
4, ,38, ,
3, ,37, ,
9, ,38, ,
8, ,38, ,
8, ,38, ,
3, ,38, ,
0, ,38, ,
3, ,37, ,
5, ,38, ,
0, ,38, ,
5, ,38, ,
6, ,38, ,
6, ,38, ,
1, ,37, ,
4, ,38, ,
4, ,37, ,
3, ,38, ,
0, ,38, ,
4, ,38, ,
3, ,37, ,
6, ,38, ,
-1, ,38, ,
5, ,37, ,
8, ,38, ,
3, ,38, ,
-1, ,37, ,
5, ,38, ,
0, ,37, ,
3, ,37, ,
1, ,38, ,
4, ,38, ,
4, ,37, ,
4, ,38, ,
-1, ,38, ,
1, ,38, ,
3, ,38, ,
6, ,38, ,
0, ,37, ,
5, ,38, ,
5, ,37, ,
5, ,38, ,
3, ,38, ,
1, ,38, ,
-1, ,37, ,
1, ,38, ,
-5, ,37, ,
0, ,37, ,
3, ,38, ,
4, ,38, ,
1, ,37, ,
6, ,38, ,
5, ,37, ,
8, ,38, ,
3, ,38, ,
3, ,38, ,
4, ,37, ,
5, ,38, ,
-2, ,37, ,
3, ,38, ,
5, ,38, ,
5, ,38, ,
-2, ,36, ,
3, ,38, ,
3, ,37, ,
4, ,37, ,
0, ,38, ,
3, ,38, ,
3, ,37, ,
5, ,38, ,
0, ,37, ,
5, ,37, ,
6, ,38, ,
1, ,37, ,
-1, ,36, ,
0, ,38, ,
3, ,37, ,
-1, ,38, ,
-5, ,38, ,
0, ,37, ,
0, ,37, ,
0, ,38, ,
-6, ,37, ,
-1, ,37, ,
0, ,38, ,
-2, ,37, ,
-4, ,37, ,
1, ,38, ,
1, ,37, ,
0, ,37, ,
-2, ,38, ,
-2, ,38, ,
-2, ,37, ,
-2, ,38, ,
-7, ,38, ,
-2, ,37, ,
3, ,38, ,
-1, ,38, ,
-5, ,36, ,
1, ,38, ,
-4, ,37, ,
-2, ,37, ,
-7, ,38, ,
-7, ,38, ,
0, ,37, ,
4, ,38, ,
-9, ,38, ,
1, ,37, ,
3, ,38, ,
-2, ,37, ,
-2, ,37, ,
-1, ,38, ,
0, ,37, ,
-1, ,37, ,
-1, ,38, ,
-4, ,37, ,
1, ,37, ,
-4, ,38, ,
-11, ,38, ,
-5, ,37, ,
-2, ,37, ,
-2, ,38, ,
-2, ,37, ,
0, ,38, ,
-1, ,37, ,
-2, ,38, ,
-1, ,38, ,
-2, ,37, ,
0, ,37, ,
0, ,38, ,
-6, ,37, ,
1, ,37, ,
0, ,38, ,
-1, ,37, ,
-2, ,37, ,
4, ,38, ,
-1, ,37, ,
0, ,38, ,
-2, ,37, ,
-5, ,38, ,
-2, ,36, ,
-1, ,37, ,
-4, ,38, ,
0, ,37, ,
3, ,37, ,
-1, ,37, ,
-6, ,37, ,
0, ,38, ,
-6, ,38, ,
-1, ,37, ,
-6, ,37, ,
-4, ,38, ,
0, ,36, ,
1, ,38, ,
-4, ,37, ,
0, ,37, ,
0, ,38, ,
-2, ,37, ,
-6, ,37, ,
0, ,38, ,
-1, ,37, ,
3, ,38, ,
1, ,37, ,
3, ,37, ,
3, ,37, ,
3, ,37, ,
-6, ,37, ,
-4, ,37, ,
-1, ,37, ,
-5, ,37, ,
-5, ,37, ,
3, ,38, ,
3, ,37, ,
5, ,37, ,
1, ,38, ,
-1, ,38, ,
-1, ,37, ,
1, ,38, ,
-2, ,38, ,
1, ,37, ,
0, ,38, ,
0, ,37, ,
-7, ,37, ,
-1, ,38, ,
-2, ,37, ,
-1, ,38, ,
-2, ,38, ,
1, ,38, ,
0, ,37, ,
4, ,38, ,
-2, ,37, ,
4, ,37, ,
4, ,38, ,
0, ,37, ,
-5, ,37, ,
-1, ,38, ,
-1, ,37, ,
1, ,37, ,
-1, ,37, ,
1, ,37, ,
4, ,36, ,
4, ,38, ,
-2, ,37, ,
1, ,37, ,
3, ,37, ,
1, ,37, ,
-1, ,37, ,
4, ,38, ,
3, ,37, ,
5, ,37, ,
5, ,38, ,
6, ,37, ,
4, ,36, ,
5, ,38, ,
0, ,38, ,
4, ,37, ,
6, ,38, ,
1, ,38, ,
-2, ,37, ,
3, ,38, ,
4, ,37, ,
4, ,37, ,
0, ,38, ,
3, ,38, ,
4, ,36, ,
3, ,37, ,
0, ,37, ,
5, ,37, ,
5, ,37, ,
8, ,37, ,
3, ,37, ,
6, ,38, ,
4, ,37, ,
1, ,37, ,
-1, ,38, ,
3, ,38, ,
5, ,36, ,
5, ,38, ,
-1, ,37, ,
4, ,37, ,
1, ,37, ,
0, ,37, ,
-5, ,36, ,
3, ,38, ,
1, ,37, ,
5, ,37, ,
5, ,38, ,
5, ,37, ,
5, ,36, ,
6, ,37, ,
-1, ,37, ,
4, ,37, ,
3, ,37, ,
0, ,38, ,
-4, ,36, ,
0, ,38, ,
0, ,37, ,
4, ,37, ,
0, ,38, ,
3, ,37, ,
0, ,36, ,
5, ,38, ,
-2, ,38, ,
5, ,37, ,
6, ,38, ,
4, ,38, ,
1, ,37, ,
6, ,38, ,
4, ,37, ,
3, ,37, ,
3, ,38, ,
3, ,37, ,
3, ,37, ,
4, ,38, ,
0, ,38, ,
3, ,37, ,
6, ,37, ,
3, ,37, ,
1, ,37, ,
5, ,38, ,
6, ,37, ,
3, ,37, ,
1, ,38, ,
1, ,37, ,
6, ,37, ,
8, ,38, ,
-2, ,37, ,
5, ,37, ,
5, ,38, ,
3, ,37, ,
-2, ,37, ,
3, ,38, ,
3, ,37, ,
4, ,37, ,
4, ,38, ,
6, ,37, ,
5, ,36, ,
4, ,37, ,
0, ,37, ,
3, ,37, ,
1, ,38, ,
1, ,38, ,
-5, ,37, ,
0, ,38, ,
0, ,37, ,
4, ,37, ,
3, ,38, ,
3, ,37, ,
-1, ,36, ,
3, ,38, ,
0, ,37, ,
11, ,37, ,
11, ,37, ,
10, ,38, ,
4, ,37, ,
5, ,38, ,
1, ,37, ,
0, ,38, ,
-2, ,38, ,
1, ,37, ,
3, ,37, ,
6, ,38, ,
3, ,37, ,
1, ,37, ,
0, ,38, ,
-2, ,37, ,
-6, ,37, ,
-4, ,38, ,
-5, ,37, ,
-2, ,37, ,
-7, ,38, ,
-2, ,38, ,
-7, ,36, ,
-5, ,38, ,
-10, ,37, ,
-4, ,37, ,
0, ,37, ,
-2, ,38, ,
-6, ,36, ,
-1, ,38, ,
-6, ,37, ,
0, ,37, ,
-4, ,38, ,
-5, ,37, ,
0, ,37, ,
0, ,38, ,
-2, ,37, ,
3, ,37, ,
5, ,37, ,
5, ,38, ,
3, ,37, ,
6, ,38, ,
4, ,37, ,
3, ,37, ,
-1, ,37, ,
1, ,37, ,
4, ,37, ,
1, ,38, ,
-6, ,38, ,
-4, ,37, ,
0, ,37, ,
-1, ,37, ,
-2, ,36, ,
-1, ,38, ,
-2, ,37, ,
-1, ,37, ,
-4, ,37, ,
-1, ,37, ,
0, ,37, ,
3, ,38, ,
-1, ,37, ,
4, ,37, ,
3, ,38, ,
-1, ,37, ,
-2, ,37, ,
0, ,38, ,
-2, ,37, ,
-1, ,37, ,
-2, ,37, ,
-1, ,37, ,
-2, ,37, ,
3, ,38, ,
-4, ,37, ,
3, ,37, ,
4, ,38, ,
0, ,37, ,
0, ,37, ,
4, ,38, ,
-1, ,37, ,
0, ,37, ,
-2, ,38, ,
-4, ,38, ,
-1, ,36, ,
-1, ,38, ,
-4, ,37, ,
1, ,37, ,
0, ,38, ,
1, ,38, ,
-2, ,37, ,
3, ,38, ,
0, ,37, ,
-2, ,37, ,
-2, ,38, ,
0, ,38, ,
-1, ,37, ,
3, ,38, ,
-2, ,38, ,
3, ,37, ,
4, ,38, ,
3, ,38, ,
-1, ,36, ,
5, ,38, ,
0, ,37, ,
1, ,37, ,
3, ,38, ,
3, ,37, ,
4, ,37, ,
3, ,38, ,
-5, ,37, ,
0, ,37, ,
0, ,37, ,
-2, ,37, ,
-4, ,37, ,
0, ,38, ,
1, ,37, ,
-1, ,37, ,
-4, ,37, ,
-4, ,37, ,
-5, ,37, ,
-5, ,38, ,
-9, ,38, ,
-4, ,37, ,
-4, ,37, ,
-5, ,37, ,
-5, ,36, ,
0, ,38, ,
-2, ,38, ,
0, ,37, ,
-6, ,38, ,
-2, ,37, ,
-4, ,36, ,
-2, ,38, ,
-7, ,37, ,
-2, ,37, ,
-1, ,37, ,
-2, ,38, ,
-2, ,36, ,
5, ,38, ,
1, ,38, ,
3, ,37, ,
3, ,38, ,
6, ,38, ,
6, ,36, ,
9, ,38, ,
4, ,37, ,
4, ,37, ,
9, ,38, ,
5, ,38, ,
0, ,37, ,
9, ,38, ,
8, ,37, ,
9, ,37, ,
6, ,37, ,
8, ,37, ,
10, ,36, ,
11, ,38, ,
5, ,37, ,
9, ,37, ,
9, ,37, ,
10, ,38, ,
4, ,36, ,
11, ,38, ,
9, ,37, ,
6, ,37, ,
5, ,38, ,
5, ,37, ,
4, ,36, ,
4, ,38, ,
-5, ,37, ,
-1, ,37, ,
1, ,37, ,
0, ,37, ,
-2, ,37, ,
5, ,38, ,
3, ,37, ,
4, ,37, ,
1, ,38, ,
3, ,38, ,
3, ,37, ,
5, ,38, ,
-1, ,37, ,
1, ,37, ,
1, ,38, ,
-1, ,37, ,
-2, ,36, ,
0, ,38, ,
-1, ,37, ,
-1, ,37, ,
-5, ,37, ,
0, ,38, ,
0, ,36, ,
1, ,38, ,
-2, ,37, ,
0, ,37, ,
-1, ,38, ,
-5, ,38, ,
-7, ,37, ,
-2, ,38, ,
-4, ,37, ,
1, ,37, ,
1, ,38, ,
3, ,37, ,
1, ,37, ,
1, ,38, ,
-5, ,37, ,
1, ,37, ,
5, ,38, ,
5, ,37, ,
1, ,37, ,
11, ,38, ,
6, ,37, ,
6, ,37, ,
8, ,38, ,
6, ,38, ,
9, ,36, ,
10, ,38, ,
5, ,38, ,
9, ,37, ,
10, ,37, ,
6, ,38, ,
5, ,36, ,
10, ,38, ,
9, ,37, ,
9, ,37, ,
6, ,38, ,
5, ,38, ,
5, ,36, ,
5, ,38, ,
0, ,37, ,
3, ,37, ,
1, ,37, ,
1, ,37, ,
-4, ,37, ,
0, ,38, ,
0, ,37, ,
0, ,37, ,
-1, ,38, ,
-1, ,38, ,
0, ,37, ,
4, ,37, ,
-4, ,37, ,
1, ,37, ,
3, ,38, ,
0, ,37, ,
-4, ,37, ,
3, ,38, ,
4, ,37, ,
6, ,37, ,
3, ,38, ,
11, ,38, ,
5, ,37, ,
3, ,38, ,
3, ,37, ,
3, ,37, ,
3, ,37, ,
4, ,37, ,
0, ,37, ,
8, ,38, ,
5, ,37, ,
4, ,37, ,
-4, ,38, ,
0, ,38, ,
-1, ,36, ,
-2, ,38, ,
-5, ,37, ,
-1, ,37, ,
1, ,38, ,
-1, ,38, ,
-7, ,36, ,
-4, ,38, ,
-10, ,37, ,
-6, ,37, ,
-10, ,38, ,
-5, ,38, ,
3, ,36, ,
1, ,38, ,
-4, ,37, ,
1, ,37, ,
1, ,38, ,
1, ,37, ,
-5, ,37, ,
0, ,38, ,
5, ,37, ,
3, ,38, ,
3, ,38, ,
4, ,38, ,
-1, ,37, ,
3, ,38, ,
-6, ,37, ,
1, ,37, ,
4, ,37, ,
4, ,38, ,
-1, ,36, ,
6, ,38, ,
1, ,37, ,
1, ,37, ,
0, ,38, ,
-1, ,38, ,
1, ,37, ,
5, ,38, ,
-1, ,37, ,
4, ,37, ,
1, ,37, ,
-1, ,38, ,
-6, ,37, ,
-5, ,38, ,
-5, ,37, ,
-5, ,38, ,
-9, ,37, ,
-2, ,37, ,
-2, ,36, ,
3, ,38, ,
0, ,37, ,
1, ,37, ,
4, ,38, ,
3, ,38, ,
0, ,37, ,
4, ,38, ,
-1, ,37, ,
3, ,37, ,
-2, ,38, ,
3, ,37, ,
4, ,36, ,
1, ,38, ,
0, ,38, ,
4, ,37, ,
4, ,38, ,
3, ,38, ,
-2, ,36, ,
3, ,38, ,
1, ,37, ,
-1, ,37, ,
-5, ,38, ,
-2, ,37, ,
-4, ,36, ,
-2, ,38, ,
-9, ,38, ,
-5, ,37, ,
-4, ,37, ,
-4, ,37, ,
-7, ,37, ,
-1, ,38, ,
-5, ,37, ,
-5, ,37, ,
-11, ,38, ,
-10, ,38, ,
-7, ,36, ,
-7, ,38, ,
-11, ,38, ,
-1, ,37, ,
-2, ,38, ,
-2, ,37, ,
-2, ,37, ,
0, ,38, ,
0, ,37, ,
-5, ,37, ,
-2, ,38, ,
0, ,38, ,
0, ,37, ,
5, ,38, ,
-2, ,38, ,
4, ,37, ,
5, ,37, ,
3, ,38, ,
1, ,37, ,
3, ,38, ,
1, ,37, ,
4, ,38, ,
1, ,38, ,
1, ,38, ,
1, ,37, ,
5, ,38, ,
-1, ,37, ,
1, ,37, ,
0, ,38, ,
-1, ,37, ,
-4, ,37, ,
0, ,38, ,
-4, ,37, ,
-2, ,37, ,
-6, ,38, ,
-2, ,38, ,
-1, ,36, ,
0, ,38, ,
-4, ,38, ,
-1, ,37, ,
3, ,38, ,
0, ,38, ,
-4, ,37, ,
3, ,38, ,
0, ,38, ,
3, ,37, ,
0, ,38, ,
0, ,38, ,
3, ,37, ,
5, ,38, ,
1, ,37, ,
8, ,37, ,
6, ,38, ,
6, ,38, ,
0, ,36, ,
8, ,38, ,
5, ,37, ,
4, ,37, ,
1, ,38, ,
3, ,38, ,
3, ,37, ,
3, ,38, ,
-4, ,37, ,
-1, ,37, ,
1, ,37, ,
-1, ,37, ,
-7, ,37, ,
0, ,38, ,
0, ,36, ,
1, ,32, ,
-2, ,22, ,
-1, ,12, ,
-5, ,3, ,
-7, ,-5, ,
-9, ,-12, ,
-4, ,-18, ,
-5, ,-23, ,
-5, ,-27, ,
-9, ,-31, ,
-4, ,-36, ,
-5, ,-38, ,
-4, ,-40, ,
-4, ,-42, ,
1, ,-44, ,
-1, ,-45, ,
6, ,-48, ,
-1, ,-49, ,
3, ,-49, ,
8, ,-50, ,
6, ,-51, ,
4, ,-51, ,
6, ,-52, ,
3, ,-52, ,
5, ,-52, ,
1, ,-54, ,
3, ,-55, ,
5, ,-54, ,
4, ,-55, ,
-1, ,-55, ,
4, ,-55, ,
1, ,-55, ,
4, ,-56, ,
-1, ,-55, ,
3, ,-56, ,
1, ,-56, ,
1, ,-56, ,
1, ,-56, ,
4, ,-56, ,
3, ,-55, ,
3, ,-56, ,
-1, ,-56, ,
3, ,-56, ,
1, ,-56, ,
1, ,-56, ,
-2, ,-55, ,
8, ,-57, ,
6, ,-56, ,
6, ,-55, ,
5, ,-56, ,
6, ,-56, ,
5, ,-55, ,
4, ,-57, ,
-1, ,-56, ,
4, ,-56, ,
5, ,-56, ,
6, ,-56, ,
6, ,-55, ,
11, ,-57, ,
11, ,-56, ,
8, ,-56, ,
4, ,-56, ,
5, ,-56, ,
4, ,-55, ,
4, ,-56, ,
0, ,-56, ,
5, ,-55, ,
6, ,-56, ,
3, ,-55, ,
-1, ,-55, ,
3, ,-57, ,
3, ,-55, ,
1, ,-55, ,
-1, ,-55, ,
5, ,-56, ,
5, ,-55, ,
4, ,-56, ,
-1, ,-56, ,
0, ,-55, ,
1, ,-55, ,
-2, ,-56, ,
-2, ,-55, ,
1, ,-56, ,
5, ,-55, ,
5, ,-55, ,
1, ,-56, ,
6, ,-56, ,
5, ,-55, ,
5, ,-56, ,
-2, ,-55, ,
1, ,-56, ,
5, ,-55, ,
3, ,-55, ,
5, ,-55, ,
10, ,-56, ,
4, ,-55, ,
5, ,-55, ,
4, ,-56, ,
5, ,-56, ,
4, ,-55, ,
1, ,-56, ,
-4, ,-56, ,
-1, ,-55, ,
-1, ,-55, ,
-1, ,-56, ,
-2, ,-55, ,
5, ,-56, ,
6, ,-55, ,
3, ,-55, ,
0, ,-56, ,
1, ,-56, ,
0, ,-55, ,
3, ,-56, ,
-6, ,-55, ,
-2, ,-55, ,
0, ,-56, ,
-1, ,-55, ,
-4, ,-55, ,
1, ,-56, ,
3, ,-55, ,
3, ,-55, ,
1, ,-56, ,
5, ,-56, ,
8, ,-54, ,
9, ,-55, ,
4, ,-55, ,
5, ,-55, ,
1, ,-55, ,
0, ,-56, ,
-4, ,-55, ,
-1, ,-56, ,
3, ,-55, ,
5, ,-55, ,
3, ,-56, ,
6, ,-56, ,
1, ,-55, ,
1, ,-56, ,
-4, ,-55, ,
-1, ,-55, ,
0, ,-55, ,
0, ,-55, ,
-1, ,-55, ,
1, ,-56, ,
0, ,-55, ,
0, ,-55, ,
-6, ,-55, ,
-4, ,-56, ,
-2, ,-54, ,
-1, ,-55, ,
-5, ,-56, ,
0, ,-55, ,
0, ,-55, ,
-4, ,-56, ,
-7, ,-54, ,
0, ,-56, ,
-2, ,-55, ,
-2, ,-55, ,
-2, ,-56, ,
-2, ,-55, ,
-1, ,-55, ,
4, ,-55, ,
-2, ,-55, ,
3, ,-55, ,
4, ,-55, ,
-1, ,-55, ,
-4, ,-54, ,
1, ,-56, ,
-1, ,-55, ,
0, ,-55, ,
-1, ,-55, ,
1, ,-56, ,
3, ,-54, ,
1, ,-55, ,
-5, ,-55, ,
1, ,-55, ,
1, ,-55, ,
1, ,-56, ,
-1, ,-55, ,
4, ,-56, ,
3, ,-55, ,
-1, ,-55, ,
-2, ,-56, ,
1, ,-56, ,
0, ,-54, ,
0, ,-55, ,
-5, ,-55, ,
-1, ,-55, ,
0, ,-56, ,
-4, ,-55, ,
-5, ,-54, ,
0, ,-56, ,
4, ,-55, ,
3, ,-55, ,
-5, ,-56, ,
0, ,-55, ,
1, ,-54, ,
1, ,-56, ,
-1, ,-56, ,
3, ,-55, ,
5, ,-55, ,
0, ,-55, ,
-2, ,-54, ,
0, ,-56, ,
-2, ,-55, ,
-2, ,-55, ,
-5, ,-55, ,
0, ,-55, ,
0, ,-55, ,
3, ,-55, ,
-1, ,-55, ,
0, ,-55, ,
4, ,-55, ,
-2, ,-55, ,
-7, ,-55, ,
-1, ,-56, ,
-2, ,-55, ,
-1, ,-55, ,
-4, ,-55, ,
-2, ,-55, ,
0, ,-55, ,
-1, ,-55, ,
-6, ,-55, ,
-2, ,-55, ,
-2, ,-55, ,
-1, ,-55, ,
-5, ,-55, ,
1, ,-56, ,
1, ,-55, ,
-1, ,-55, ,
-5, ,-55, ,
-2, ,-55, ,
-5, ,-55, ,
-1, ,-55, ,
-7, ,-55, ,
-2, ,-55, ,
-1, ,-55, ,
-2, ,-56, ,
-2, ,-54, ,
0, ,-56, ,
0, ,-55, ,
-4, ,-55, ,
-1, ,-55, ,
-1, ,-56, ,
4, ,-54, ,
5, ,-55, ,
-1, ,-55, ,
4, ,-55, ,
5, ,-55, ,
-1, ,-55, ,
-10, ,-55, ,
-2, ,-56, ,
0, ,-55, ,
-5, ,-55, ,
-4, ,-55, ,
1, ,-55, ,
0, ,-55, ,
1, ,-55, ,
-2, ,-55, ,
0, ,-55, ,
3, ,-55, ,
1, ,-55, ,
-4, ,-55, ,
5, ,-56, ,
-1, ,-55, ,
-1, ,-55, ,
-2, ,-55, ,
0, ,-56, ,
3, ,-54, ,
-1, ,-55, ,
-4, ,-55, ,
1, ,-55, ,
4, ,-55, ,
-1, ,-56, ,
-1, ,-54, ,
5, ,-56, ,
4, ,-56, ,
4, ,-55, ,
1, ,-55, ,
1, ,-56, ,
5, ,-55, ,
5, ,-55, ,
4, ,-55, ,
8, ,-55, ,
8, ,-55, ,
4, ,-55, ,
-1, ,-55, ,
4, ,-56, ,
5, ,-55, ,
4, ,-55, ,
-5, ,-55, ,
1, ,-55, ,
6, ,-55, ,
4, ,-55, ,
1, ,-55, ,
6, ,-55, ,
4, ,-55, ,
1, ,-55, ,
0, ,-55, ,
5, ,-56, ,
4, ,-55, ,
4, ,-55, ,
4, ,-55, ,
1, ,-55, ,
0, ,-55, ,
3, ,-56, ,
-4, ,-55, ,
1, ,-55, ,
3, ,-55, ,
-1, ,-55, ,
-1, ,-54, ,
5, ,-56, ,
3, ,-55, ,
4, ,-55, ,
1, ,-56, ,
1, ,-56, ,
1, ,-54, ,
3, ,-56, ,
-1, ,-55, ,
3, ,-55, ,
3, ,-55, ,
4, ,-55, ,
3, ,-55, ,
1, ,-56, ,
0, ,-55, ,
-2, ,-55, ,
-4, ,-55, ,
3, ,-55, ,
4, ,-55, ,
1, ,-56, ,
1, ,-55, ,
4, ,-55, ,
6, ,-55, ,
3, ,-55, ,
-1, ,-54, ,
8, ,-56, ,
4, ,-55, ,
5, ,-55, ,
1, ,-55, ,
1, ,-55, ,
4, ,-54, ,
3, ,-55, ,
1, ,-55, ,
3, ,-55, ,
3, ,-55, ,
3, ,-55, ,
-1, ,-55, ,
6, ,-56, ,
5, ,-55, ,
4, ,-55, ,
3, ,-55, ,
3, ,-55, ,
1, ,-55, ,
0, ,-56, ,
-4, ,-55, ,
3, ,-55, ,
4, ,-55, ,
3, ,-55, ,
5, ,-55, ,
6, ,-56, ,
6, ,-55, ,
6, ,-55, ,
4, ,-55, ,
3, ,-55, ,
4, ,-55, ,
4, ,-56, ,
-4, ,-56, ,
3, ,-55, ,
3, ,-55, ,
0, ,-55, ,
-2, ,-55, ,
3, ,-56, ,
1, ,-55, ,
0, ,-55, ,
0, ,-56, ,
1, ,-55, ,
1, ,-55, ,
5, ,-55, ,
-1, ,-55, ,
1, ,-55, ,
3, ,-56, ,
-2, ,-55, ,
-2, ,-54, ,
3, ,-56, ,
1, ,-55, ,
1, ,-55, ,
0, ,-56, ,
1, ,-55, ,
1, ,-54, ,
-2, ,-55, ,
-5, ,-55, ,
-1, ,-55, ,
1, ,-55, ,
0, ,-56, ,
-2, ,-55, ,
4, ,-56, ,
1, ,-55, ,
1, ,-55, ,
1, ,-55, ,
1, ,-55, ,
1, ,-55, ,
0, ,-55, ,
-2, ,-55, ,
1, ,-55, ,
1, ,-55, ,
3, ,-55, ,
0, ,-55, ,
5, ,-56, ,
4, ,-55, ,
1, ,-55, ,
-1, ,-55, ,
-2, ,-56, ,
0, ,-54, ,
-1, ,-55, ,
-5, ,-55, ,
1, ,-55, ,
4, ,-55, ,
3, ,-55, ,
1, ,-55, ,
5, ,-56, ,
3, ,-55, ,
1, ,-55, ,
0, ,-55, ,
1, ,-55, ,
-1, ,-55, ,
3, ,-55, ,
-1, ,-55, ,
0, ,-55, ,
1, ,-55, ,
-2, ,-55, ,
-6, ,-55, ,
-1, ,-56, ,
0, ,-55, ,
4, ,-55, ,
0, ,-55, ,
5, ,-55, ,
8, ,-54, ,
3, ,-56, ,
-2, ,-55, ,
0, ,-55, ,
1, ,-55, ,
3, ,-55, ,
0, ,-55, ,
4, ,-56, ,
1, ,-55, ,
1, ,-55, ,
-2, ,-55, ,
-4, ,-56, ,
-1, ,-54, ,
-1, ,-55, ,
-5, ,-55, ,
1, ,-55, ,
4, ,-55, ,
1, ,-55, ,
-1, ,-54, ,
3, ,-56, ,
-1, ,-55, ,
-2, ,-55, ,
-6, ,-55, ,
-5, ,-55, ,
0, ,-54, ,
-2, ,-55, ,
-4, ,-55, ,
-1, ,-55, ,
-1, ,-55, ,
-2, ,-55, ,
-7, ,-54, ,
0, ,-56, ,
-1, ,-55, ,
-2, ,-55, ,
-1, ,-55, ,
1, ,-56, ,
3, ,-54, ,
1, ,-56, ,
-4, ,-55, ,
0, ,-55, ,
0, ,-55, ,
-2, ,-55, ,
-2, ,-54, ,
3, ,-56, ,
3, ,-55, ,
1, ,-55, ,
1, ,-55, ,
3, ,-55, ,
1, ,-54, ,
-1, ,-55, ,
-2, ,-55, ,
0, ,-55, ,
1, ,-55, ,
0, ,-55, ,
-2, ,-54, ,
3, ,-56, ,
1, ,-55, ,
-1, ,-55, ,
-2, ,-56, ,
3, ,-56, ,
1, ,-54, ,
4, ,-56, ,
0, ,-55, ,
3, ,-55, ,
8, ,-55, ,
1, ,-55, ,
-2, ,-55, ,
1, ,-56, ,
1, ,-55, ,
1, ,-55, ,
-1, ,-55, ,
3, ,-56, ,
5, ,-54, ,
3, ,-55, ,
1, ,-55, ,
5, ,-55, ,
3, ,-55, ,
1, ,-55, ,
-6, ,-54, ,
0, ,-56, ,
1, ,-55, ,
1, ,-55, ,
1, ,-55, ,
4, ,-55, ,
5, ,-55, ,
5, ,-55, ,
1, ,-55, ,
3, ,-55, ,
4, ,-55, ,
0, ,-55, ,
-1, ,-55, ,
0, ,-56, ,
-1, ,-55, ,
0, ,-55, ,
-1, ,-56, ,
0, ,-55, ,
1, ,-55, ,
0, ,-55, ,
-5, ,-55, ,
1, ,-55, ,
3, ,-55, ,
1, ,-55, ,
-1, ,-55, ,
4, ,-56, ,
1, ,-55, ,
0, ,-55, ,
-1, ,-55, ,
1, ,-56, ,
1, ,-55, ,
8, ,-56, ,
0, ,-55, ,
4, ,-55, ,
4, ,-55, ,
-2, ,-55, ,
-6, ,-55, ,
-1, ,-56, ,
3, ,-55, ,
4, ,-55, ,
3, ,-55, ,
6, ,-55, ,
8, ,-55, ,
8, ,-55, ,
-1, ,-55, ,
4, ,-55, ,
3, ,-55, ,
0, ,-56, ,
-2, ,-55, ,
3, ,-55, ,
-1, ,-55, ,
-1, ,-55, ,
0, ,-55, ,
3, ,-55, ,
1, ,-55, ,
3, ,-55, ,
0, ,-55, ,
4, ,-55, ,
6, ,-55, ,
3, ,-55, ,
-1, ,-54, ,
6, ,-56, ,
3, ,-55, ,
3, ,-55, ,
-1, ,-55, ,
3, ,-55, ,
4, ,-54, ,
1, ,-55, ,
3, ,-55, ,
5, ,-55, ,
5, ,-55, ,
4, ,-56, ,
0, ,-54, ,
5, ,-56, ,
3, ,-55, ,
3, ,-55, ,
3, ,-55, ,
5, ,-56, ,
3, ,-55, ,
4, ,-56, ,
-2, ,-55, ,
4, ,-55, ,
4, ,-55, ,
3, ,-55, ,
0, ,-54, ,
5, ,-56, ,
1, ,-55, ,
1, ,-55, ,
0, ,-55, ,
1, ,-55, ,
3, ,-55, ,
3, ,-55, ,
-4, ,-55, ,
3, ,-55, ,
1, ,-55, ,
1, ,-55, ,
-6, ,-55, ,
3, ,-56, ,
3, ,-55, ,
1, ,-55, ,
-1, ,-55, ,
3, ,-55, ,
0, ,-54, ,
5, ,-55, ,
-6, ,-55, ,
0, ,-55, ,
10, ,-55, ,
-1, ,-55, ,
0, ,-55, ,
3, ,-56, ,
3, ,-56, ,
1, ,-55, ,
-2, ,-55, ,
1, ,-56, ,
3, ,-54, ,
3, ,-56, ,
1, ,-56, ,
4, ,-55, ,
6, ,-56, ,
3, ,-56, ,
-4, ,-55, ,
0, ,-56, ,
-1, ,-55, ,
-1, ,-55, ,
-1, ,-55, ,
0, ,-56, ,
1, ,-55, ,
-1, ,-55, ,
-4, ,-55, ,
4, ,-55, ,
5, ,-55, ,
3, ,-55, ,
-5, ,-55, ,
4, ,-56, ,
1, ,-55, ,
