src/vary_am2_1411/temp0003258.CSV

Format,1.0B,
Memory Length,10000,Memory Length,10000,
IntpDistance,0,IntpDistance,0,
Trigger Address,4999,Trigger Address,4999,
Trigger Level,-1.000E+00,Trigger Level,-1.000E+00,
Source,CH1,Source,CH2,
Vertical Units,V,Vertical Units,V,
Vertical Units Div,0,Vertical Units Div,0,
Vertical Units Extend Div,16,Vertical Units Extend Div,16,
Label,,Label,,
Probe Type,0,Probe Type,0,
Probe Ratio,1.000e+01,Probe Ratio,1.000e+00,
Vertical Scale,2.000e-02,Vertical Scale,1.000e+00,
Vertical Position,-5.120e-02,Vertical Position,2.000e-01,
Horizontal Units,S,Horizontal Units,S,
Horizontal Scale,1.000E-05,Horizontal Scale,1.000E-05,
Horizontal Position,0.000E+00,Horizontal Position,0.000E+00,
Horizontal Mode,Main,Horizontal Mode,Main,
SincET Mode,Real Time,SincET Mode,Real Time,
Sampling Period,1.000e-08,Sampling Period,1.000e-08,
Horizontal Old Scale,1.000E-05,Horizontal Old Scale,1.000E-05,
Horizontal Old Position,0.000E+00,Horizontal Old Position,0.000E+00,
Firmware,V1.23,Firmware,V1.23,
Mode,Fast,Mode,Fast,
Waveform Data,,Waveform Data,,
4, ,-40, ,
13, ,-40, ,
5, ,-40, ,
5, ,-40, ,
8, ,-40, ,
0, ,-40, ,
-6, ,-40, ,
0, ,-39, ,
-4, ,-41, ,
3, ,-40, ,
1, ,-40, ,
6, ,-40, ,
5, ,-40, ,
4, ,-40, ,
1, ,-40, ,
1, ,-40, ,
1, ,-40, ,
1, ,-40, ,
-4, ,-40, ,
3, ,-40, ,
4, ,-40, ,
1, ,-40, ,
1, ,-40, ,
3, ,-40, ,
5, ,-40, ,
4, ,-40, ,
1, ,-40, ,
5, ,-40, ,
4, ,-40, ,
3, ,-40, ,
-1, ,-40, ,
3, ,-40, ,
0, ,-41, ,
3, ,-40, ,
4, ,-40, ,
3, ,-40, ,
5, ,-40, ,
6, ,-40, ,
1, ,-40, ,
5, ,-40, ,
6, ,-40, ,
5, ,-40, ,
1, ,-40, ,
5, ,-40, ,
4, ,-41, ,
4, ,-40, ,
5, ,-40, ,
5, ,-40, ,
6, ,-40, ,
8, ,-39, ,
1, ,-40, ,
5, ,-40, ,
4, ,-40, ,
1, ,-40, ,
0, ,-40, ,
3, ,-40, ,
3, ,-41, ,
3, ,-40, ,
0, ,-40, ,
3, ,-40, ,
5, ,-40, ,
5, ,-40, ,
1, ,-40, ,
5, ,-40, ,
5, ,-40, ,
5, ,-40, ,
4, ,-40, ,
8, ,-40, ,
5, ,-41, ,
3, ,-40, ,
0, ,-40, ,
1, ,-40, ,
-1, ,-40, ,
0, ,-39, ,
-5, ,-40, ,
0, ,-40, ,
5, ,-40, ,
3, ,-40, ,
0, ,-40, ,
4, ,-40, ,
3, ,-41, ,
3, ,-40, ,
1, ,-40, ,
3, ,-40, ,
3, ,-40, ,
3, ,-40, ,
1, ,-40, ,
3, ,-40, ,
3, ,-40, ,
0, ,-40, ,
-2, ,-40, ,
4, ,-40, ,
1, ,-40, ,
-1, ,-40, ,
-1, ,-40, ,
-1, ,-40, ,
-1, ,-40, ,
1, ,-39, ,
-7, ,-40, ,
0, ,-40, ,
1, ,-40, ,
0, ,-40, ,
-1, ,-40, ,
4, ,-40, ,
3, ,-40, ,
1, ,-40, ,
-2, ,-40, ,
-1, ,-40, ,
-2, ,-40, ,
-1, ,-40, ,
-5, ,-40, ,
0, ,-40, ,
3, ,-40, ,
1, ,-40, ,
1, ,-40, ,
4, ,-40, ,
5, ,-40, ,
1, ,-40, ,
-4, ,-40, ,
-1, ,-40, ,
-1, ,-40, ,
0, ,-39, ,
-4, ,-40, ,
-1, ,-40, ,
3, ,-40, ,
-2, ,-40, ,
-1, ,-40, ,
4, ,-40, ,
-1, ,-40, ,
0, ,-40, ,
-5, ,-40, ,
-2, ,-40, ,
0, ,-40, ,
-1, ,-40, ,
-5, ,-40, ,
0, ,-40, ,
1, ,-40, ,
-1, ,-40, ,
-5, ,-40, ,
5, ,-40, ,
-1, ,-41, ,
3, ,-40, ,
-1, ,-40, ,
0, ,-40, ,
3, ,-40, ,
1, ,-40, ,
-2, ,-40, ,
-1, ,-40, ,
0, ,-40, ,
0, ,-40, ,
-5, ,-40, ,
0, ,-39, ,
-1, ,-41, ,
-2, ,-40, ,
-5, ,-40, ,
-4, ,-40, ,
-4, ,-40, ,
-4, ,-39, ,
-11, ,-41, ,
-1, ,-40, ,
0, ,-40, ,
0, ,-40, ,
-2, ,-40, ,
4, ,-40, ,
1, ,-41, ,
-2, ,-40, ,
-5, ,-40, ,
-4, ,-40, ,
-5, ,-40, ,
-1, ,-39, ,
-4, ,-40, ,
0, ,-40, ,
3, ,-40, ,
-2, ,-40, ,
-4, ,-40, ,
-4, ,-40, ,
-4, ,-41, ,
-5, ,-40, ,
-5, ,-40, ,
0, ,-40, ,
1, ,-40, ,
3, ,-40, ,
-2, ,-40, ,
-2, ,-40, ,
0, ,-40, ,
0, ,-40, ,
-1, ,-40, ,
5, ,-39, ,
1, ,-41, ,
0, ,-40, ,
0, ,-40, ,
-1, ,-40, ,
-6, ,-40, ,
-2, ,-40, ,
-6, ,-40, ,
0, ,-40, ,
4, ,-40, ,
4, ,-40, ,
-1, ,-40, ,
4, ,-40, ,
1, ,-41, ,
3, ,-40, ,
1, ,-40, ,
1, ,-40, ,
4, ,-40, ,
3, ,-39, ,
0, ,-40, ,
5, ,-40, ,
1, ,-40, ,
-1, ,-40, ,
-6, ,-40, ,
1, ,-39, ,
-1, ,-40, ,
0, ,-40, ,
1, ,-40, ,
3, ,-40, ,
3, ,-40, ,
3, ,-39, ,
-2, ,-40, ,
1, ,-40, ,
1, ,-40, ,
3, ,-40, ,
0, ,-40, ,
3, ,-40, ,
4, ,-41, ,
3, ,-40, ,
3, ,-40, ,
3, ,-40, ,
1, ,-40, ,
1, ,-40, ,
-7, ,-40, ,
0, ,-40, ,
1, ,-40, ,
-2, ,-40, ,
-2, ,-40, ,
1, ,-40, ,
3, ,-40, ,
0, ,-40, ,
-1, ,-40, ,
0, ,-40, ,
3, ,-40, ,
3, ,-40, ,
-2, ,-40, ,
0, ,-40, ,
4, ,-40, ,
1, ,-40, ,
-1, ,-40, ,
4, ,-40, ,
3, ,-41, ,
3, ,-40, ,
-1, ,-40, ,
3, ,-40, ,
4, ,-40, ,
3, ,-40, ,
0, ,-41, ,
3, ,-40, ,
4, ,-40, ,
-1, ,-40, ,
-4, ,-40, ,
4, ,-40, ,
1, ,-40, ,
5, ,-40, ,
4, ,-40, ,
8, ,-40, ,
6, ,-40, ,
10, ,-39, ,
0, ,-40, ,
1, ,-40, ,
1, ,-40, ,
-1, ,-40, ,
-5, ,-40, ,
4, ,-40, ,
5, ,-41, ,
5, ,-40, ,
5, ,-40, ,
4, ,-40, ,
5, ,-40, ,
8, ,-39, ,
-4, ,-40, ,
5, ,-40, ,
9, ,-40, ,
4, ,-40, ,
1, ,-40, ,
8, ,-40, ,
4, ,-41, ,
3, ,-40, ,
5, ,-40, ,
6, ,-40, ,
8, ,-40, ,
8, ,-40, ,
5, ,-40, ,
8, ,-40, ,
4, ,-40, ,
1, ,-40, ,
-1, ,-40, ,
3, ,-39, ,
1, ,-41, ,
3, ,-40, ,
4, ,-40, ,
8, ,-40, ,
6, ,-40, ,
9, ,-40, ,
3, ,-40, ,
5, ,-40, ,
5, ,-40, ,
3, ,-40, ,
1, ,-40, ,
8, ,-40, ,
4, ,-41, ,
3, ,-39, ,
1, ,-36, ,
6, ,-26, ,
9, ,-17, ,
9, ,-7, ,
0, ,1, ,
6, ,9, ,
6, ,15, ,
3, ,20, ,
4, ,25, ,
11, ,28, ,
13, ,33, ,
10, ,35, ,
6, ,37, ,
10, ,40, ,
8, ,41, ,
9, ,42, ,
4, ,46, ,
6, ,47, ,
6, ,47, ,
5, ,48, ,
0, ,49, ,
5, ,48, ,
4, ,51, ,
1, ,51, ,
-1, ,51, ,
1, ,52, ,
3, ,52, ,
9, ,50, ,
1, ,53, ,
10, ,53, ,
5, ,52, ,
5, ,53, ,
1, ,53, ,
1, ,51, ,
1, ,54, ,
3, ,52, ,
1, ,52, ,
1, ,53, ,
3, ,53, ,
4, ,51, ,
-1, ,54, ,
5, ,54, ,
5, ,53, ,
4, ,53, ,
1, ,54, ,
9, ,52, ,
6, ,54, ,
6, ,53, ,
1, ,53, ,
4, ,54, ,
3, ,53, ,
3, ,51, ,
-1, ,55, ,
3, ,53, ,
6, ,53, ,
4, ,54, ,
4, ,53, ,
5, ,52, ,
-1, ,54, ,
-1, ,52, ,
-2, ,52, ,
-1, ,53, ,
-1, ,53, ,
1, ,51, ,
-2, ,54, ,
0, ,53, ,
0, ,53, ,
3, ,53, ,
-4, ,53, ,
3, ,52, ,
0, ,54, ,
0, ,52, ,
-1, ,53, ,
-1, ,54, ,
-1, ,53, ,
3, ,51, ,
-2, ,54, ,
3, ,53, ,
0, ,52, ,
0, ,53, ,
-4, ,53, ,
1, ,51, ,
-2, ,54, ,
0, ,53, ,
3, ,53, ,
-5, ,53, ,
-2, ,53, ,
4, ,51, ,
-6, ,54, ,
0, ,53, ,
-1, ,52, ,
3, ,53, ,
0, ,53, ,
5, ,52, ,
3, ,54, ,
0, ,52, ,
0, ,53, ,
1, ,53, ,
-1, ,53, ,
4, ,51, ,
-1, ,54, ,
1, ,53, ,
0, ,53, ,
-1, ,53, ,
-2, ,53, ,
3, ,51, ,
-2, ,54, ,
-2, ,52, ,
-7, ,52, ,
-5, ,53, ,
0, ,53, ,
4, ,51, ,
5, ,53, ,
9, ,53, ,
6, ,53, ,
4, ,53, ,
1, ,53, ,
4, ,51, ,
0, ,54, ,
1, ,52, ,
-1, ,53, ,
3, ,53, ,
-2, ,53, ,
-1, ,51, ,
-6, ,54, ,
-4, ,53, ,
0, ,52, ,
-1, ,53, ,
-4, ,53, ,
6, ,51, ,
3, ,54, ,
1, ,52, ,
1, ,52, ,
0, ,53, ,
4, ,53, ,
4, ,51, ,
1, ,54, ,
5, ,53, ,
3, ,52, ,
1, ,53, ,
-4, ,53, ,
1, ,51, ,
-2, ,54, ,
-6, ,52, ,
-9, ,52, ,
-5, ,53, ,
-5, ,53, ,
0, ,51, ,
0, ,54, ,
8, ,53, ,
4, ,53, ,
1, ,53, ,
-4, ,53, ,
1, ,52, ,
-5, ,54, ,
-1, ,52, ,
-2, ,52, ,
0, ,53, ,
0, ,53, ,
3, ,51, ,
-4, ,53, ,
1, ,52, ,
0, ,52, ,
-5, ,53, ,
-5, ,53, ,
1, ,51, ,
-1, ,54, ,
3, ,52, ,
-1, ,52, ,
1, ,53, ,
-1, ,53, ,
0, ,50, ,
-4, ,54, ,
-1, ,53, ,
3, ,52, ,
-2, ,53, ,
-2, ,53, ,
5, ,51, ,
3, ,54, ,
1, ,52, ,
-2, ,52, ,
-1, ,53, ,
-2, ,53, ,
-2, ,51, ,
-4, ,54, ,
3, ,52, ,
4, ,52, ,
4, ,53, ,
1, ,53, ,
4, ,51, ,
3, ,53, ,
4, ,52, ,
6, ,52, ,
6, ,53, ,
5, ,53, ,
5, ,50, ,
0, ,53, ,
3, ,53, ,
0, ,52, ,
0, ,53, ,
-5, ,53, ,
3, ,51, ,
1, ,54, ,
3, ,52, ,
4, ,52, ,
5, ,53, ,
4, ,53, ,
4, ,51, ,
-1, ,53, ,
1, ,53, ,
1, ,52, ,
0, ,53, ,
0, ,52, ,
6, ,51, ,
5, ,54, ,
6, ,52, ,
3, ,52, ,
4, ,53, ,
-1, ,53, ,
1, ,50, ,
-6, ,54, ,
0, ,53, ,
-1, ,52, ,
-1, ,53, ,
-4, ,53, ,
3, ,51, ,
1, ,54, ,
4, ,52, ,
-1, ,52, ,
4, ,53, ,
3, ,53, ,
5, ,51, ,
0, ,53, ,
4, ,53, ,
6, ,53, ,
1, ,53, ,
0, ,53, ,
5, ,52, ,
-1, ,53, ,
4, ,53, ,
4, ,52, ,
4, ,53, ,
3, ,53, ,
4, ,51, ,
0, ,53, ,
0, ,53, ,
1, ,52, ,
0, ,53, ,
-5, ,52, ,
3, ,51, ,
4, ,53, ,
6, ,52, ,
6, ,52, ,
8, ,53, ,
6, ,53, ,
6, ,51, ,
-4, ,54, ,
1, ,53, ,
-2, ,52, ,
0, ,53, ,
-2, ,53, ,
5, ,51, ,
5, ,54, ,
3, ,52, ,
3, ,52, ,
4, ,53, ,
4, ,53, ,
5, ,51, ,
1, ,53, ,
6, ,53, ,
5, ,52, ,
4, ,53, ,
1, ,53, ,
6, ,51, ,
3, ,54, ,
3, ,52, ,
1, ,52, ,
1, ,53, ,
4, ,53, ,
4, ,51, ,
-2, ,54, ,
3, ,53, ,
1, ,53, ,
0, ,52, ,
-1, ,53, ,
5, ,51, ,
4, ,54, ,
3, ,52, ,
3, ,52, ,
5, ,53, ,
4, ,53, ,
4, ,50, ,
1, ,53, ,
4, ,52, ,
1, ,52, ,
3, ,53, ,
-2, ,53, ,
4, ,51, ,
-1, ,54, ,
4, ,52, ,
1, ,52, ,
1, ,53, ,
1, ,53, ,
3, ,51, ,
0, ,53, ,
1, ,52, ,
0, ,52, ,
1, ,53, ,
-4, ,53, ,
3, ,51, ,
0, ,53, ,
0, ,52, ,
0, ,52, ,
0, ,53, ,
0, ,53, ,
0, ,50, ,
-5, ,54, ,
0, ,52, ,
0, ,52, ,
0, ,53, ,
-2, ,52, ,
3, ,51, ,
-1, ,53, ,
-1, ,52, ,
-2, ,52, ,
0, ,53, ,
1, ,53, ,
5, ,51, ,
-1, ,53, ,
4, ,53, ,
3, ,53, ,
-1, ,53, ,
-1, ,53, ,
4, ,52, ,
1, ,54, ,
1, ,52, ,
1, ,52, ,
5, ,53, ,
0, ,53, ,
5, ,50, ,
0, ,53, ,
5, ,53, ,
1, ,52, ,
-1, ,53, ,
1, ,53, ,
4, ,51, ,
3, ,53, ,
4, ,52, ,
0, ,52, ,
5, ,53, ,
1, ,52, ,
5, ,51, ,
-1, ,53, ,
5, ,53, ,
4, ,52, ,
3, ,53, ,
0, ,53, ,
4, ,51, ,
0, ,54, ,
0, ,52, ,
-4, ,52, ,
-1, ,53, ,
-1, ,52, ,
0, ,50, ,
-2, ,54, ,
1, ,52, ,
4, ,52, ,
1, ,53, ,
-2, ,53, ,
1, ,51, ,
-2, ,54, ,
3, ,52, ,
0, ,52, ,
4, ,53, ,
4, ,52, ,
4, ,51, ,
0, ,53, ,
3, ,52, ,
-1, ,52, ,
0, ,53, ,
-4, ,53, ,
0, ,51, ,
-1, ,54, ,
-2, ,52, ,
-6, ,52, ,
0, ,53, ,
0, ,53, ,
3, ,51, ,
-1, ,54, ,
4, ,52, ,
3, ,52, ,
1, ,53, ,
1, ,53, ,
3, ,52, ,
-2, ,54, ,
-1, ,52, ,
-4, ,52, ,
-1, ,53, ,
0, ,53, ,
1, ,51, ,
-1, ,54, ,
6, ,53, ,
5, ,52, ,
4, ,53, ,
1, ,53, ,
3, ,51, ,
1, ,54, ,
0, ,52, ,
-4, ,52, ,
0, ,53, ,
0, ,53, ,
5, ,51, ,
1, ,53, ,
5, ,53, ,
3, ,52, ,
1, ,53, ,
1, ,53, ,
5, ,51, ,
-1, ,54, ,
0, ,52, ,
0, ,52, ,
4, ,53, ,
0, ,53, ,
-1, ,51, ,
5, ,53, ,
5, ,53, ,
5, ,52, ,
5, ,53, ,
0, ,53, ,
4, ,52, ,
5, ,53, ,
5, ,52, ,
4, ,52, ,
4, ,53, ,
3, ,53, ,
3, ,50, ,
-1, ,54, ,
4, ,52, ,
5, ,52, ,
4, ,53, ,
4, ,53, ,
6, ,51, ,
0, ,53, ,
0, ,52, ,
1, ,52, ,
1, ,53, ,
4, ,53, ,
5, ,51, ,
1, ,53, ,
8, ,53, ,
5, ,52, ,
6, ,53, ,
-2, ,53, ,
6, ,52, ,
5, ,53, ,
-1, ,52, ,
0, ,52, ,
4, ,53, ,
1, ,52, ,
5, ,51, ,
-5, ,53, ,
1, ,53, ,
-1, ,52, ,
-1, ,53, ,
-2, ,53, ,
5, ,51, ,
1, ,54, ,
1, ,52, ,
4, ,52, ,
4, ,53, ,
-1, ,53, ,
-1, ,51, ,
-4, ,53, ,
0, ,52, ,
4, ,52, ,
3, ,53, ,
1, ,53, ,
10, ,51, ,
5, ,53, ,
5, ,52, ,
3, ,52, ,
3, ,53, ,
1, ,53, ,
3, ,50, ,
0, ,53, ,
4, ,53, ,
5, ,52, ,
3, ,53, ,
0, ,53, ,
8, ,51, ,
5, ,53, ,
8, ,52, ,
5, ,52, ,
8, ,53, ,
8, ,53, ,
6, ,51, ,
4, ,53, ,
4, ,53, ,
1, ,52, ,
0, ,53, ,
-2, ,53, ,
6, ,51, ,
4, ,53, ,
5, ,53, ,
5, ,52, ,
5, ,53, ,
3, ,53, ,
6, ,50, ,
-1, ,54, ,
6, ,53, ,
5, ,52, ,
8, ,52, ,
1, ,53, ,
4, ,51, ,
5, ,53, ,
4, ,52, ,
4, ,52, ,
4, ,53, ,
4, ,53, ,
5, ,51, ,
-2, ,53, ,
0, ,52, ,
3, ,52, ,
-5, ,52, ,
3, ,53, ,
9, ,51, ,
1, ,53, ,
6, ,52, ,
4, ,52, ,
0, ,53, ,
-1, ,53, ,
3, ,51, ,
0, ,54, ,
0, ,52, ,
4, ,52, ,
0, ,53, ,
-1, ,53, ,
3, ,51, ,
-1, ,54, ,
0, ,53, ,
1, ,52, ,
4, ,53, ,
4, ,53, ,
5, ,51, ,
0, ,54, ,
1, ,52, ,
1, ,52, ,
0, ,53, ,
-2, ,53, ,
4, ,51, ,
5, ,54, ,
4, ,53, ,
3, ,52, ,
1, ,53, ,
1, ,53, ,
3, ,51, ,
-2, ,54, ,
-1, ,52, ,
-1, ,52, ,
0, ,53, ,
-1, ,53, ,
4, ,51, ,
1, ,53, ,
-1, ,52, ,
-2, ,52, ,
0, ,53, ,
-1, ,53, ,
0, ,51, ,
-5, ,53, ,
3, ,52, ,
4, ,52, ,
4, ,53, ,
-1, ,53, ,
4, ,51, ,
0, ,53, ,
0, ,52, ,
-1, ,52, ,
1, ,53, ,
-1, ,53, ,
0, ,50, ,
-5, ,54, ,
3, ,52, ,
1, ,53, ,
0, ,53, ,
-1, ,53, ,
5, ,51, ,
0, ,54, ,
3, ,52, ,
-1, ,52, ,
3, ,53, ,
1, ,53, ,
3, ,51, ,
-2, ,54, ,
1, ,52, ,
3, ,52, ,
0, ,53, ,
-2, ,53, ,
3, ,51, ,
-2, ,54, ,
3, ,52, ,
1, ,52, ,
0, ,53, ,
-2, ,53, ,
-1, ,51, ,
-10, ,54, ,
-6, ,52, ,
0, ,52, ,
-1, ,53, ,
-1, ,53, ,
4, ,51, ,
-1, ,54, ,
-1, ,53, ,
-1, ,52, ,
-1, ,53, ,
-1, ,52, ,
0, ,51, ,
-6, ,54, ,
-2, ,52, ,
-2, ,53, ,
-4, ,53, ,
-9, ,53, ,
1, ,51, ,
-2, ,53, ,
-1, ,53, ,
0, ,52, ,
-1, ,53, ,
3, ,53, ,
6, ,50, ,
-2, ,53, ,
4, ,53, ,
1, ,52, ,
-4, ,53, ,
-4, ,53, ,
0, ,52, ,
-1, ,54, ,
-1, ,52, ,
0, ,52, ,
1, ,53, ,
0, ,53, ,
3, ,51, ,
1, ,54, ,
6, ,53, ,
3, ,52, ,
1, ,53, ,
1, ,53, ,
5, ,51, ,
1, ,53, ,
3, ,52, ,
0, ,52, ,
4, ,53, ,
3, ,53, ,
5, ,51, ,
0, ,54, ,
3, ,53, ,
4, ,53, ,
-1, ,53, ,
-2, ,53, ,
0, ,51, ,
-6, ,54, ,
-2, ,52, ,
-2, ,52, ,
1, ,53, ,
4, ,53, ,
5, ,51, ,
4, ,53, ,
6, ,52, ,
3, ,52, ,
-1, ,53, ,
-4, ,53, ,
0, ,51, ,
-1, ,54, ,
4, ,52, ,
-1, ,52, ,
1, ,53, ,
1, ,53, ,
3, ,50, ,
0, ,53, ,
3, ,52, ,
1, ,53, ,
-4, ,53, ,
-6, ,53, ,
1, ,52, ,
-1, ,54, ,
-1, ,52, ,
1, ,52, ,
0, ,53, ,
0, ,53, ,
5, ,51, ,
1, ,53, ,
6, ,53, ,
3, ,52, ,
1, ,53, ,
-1, ,53, ,
3, ,52, ,
-2, ,54, ,
0, ,52, ,
-2, ,52, ,
1, ,53, ,
0, ,52, ,
5, ,51, ,
-2, ,53, ,
5, ,53, ,
5, ,52, ,
0, ,53, ,
-1, ,53, ,
4, ,52, ,
-1, ,54, ,
1, ,52, ,
1, ,52, ,
5, ,53, ,
4, ,53, ,
4, ,51, ,
-1, ,53, ,
1, ,52, ,
3, ,52, ,
4, ,53, ,
0, ,53, ,
5, ,51, ,
1, ,53, ,
4, ,53, ,
1, ,53, ,
1, ,53, ,
1, ,53, ,
4, ,50, ,
-1, ,54, ,
1, ,53, ,
4, ,52, ,
5, ,53, ,
0, ,53, ,
9, ,51, ,
6, ,54, ,
8, ,52, ,
5, ,52, ,
6, ,53, ,
5, ,53, ,
4, ,51, ,
1, ,54, ,
5, ,53, ,
4, ,52, ,
4, ,53, ,
0, ,53, ,
8, ,51, ,
5, ,54, ,
0, ,52, ,
0, ,52, ,
3, ,53, ,
3, ,53, ,
6, ,51, ,
3, ,54, ,
8, ,53, ,
6, ,52, ,
4, ,53, ,
0, ,53, ,
4, ,51, ,
1, ,54, ,
4, ,52, ,
4, ,52, ,
4, ,53, ,
3, ,53, ,
1, ,51, ,
-6, ,54, ,
1, ,52, ,
3, ,52, ,
3, ,53, ,
4, ,53, ,
9, ,51, ,
4, ,54, ,
5, ,52, ,
3, ,52, ,
3, ,53, ,
-1, ,53, ,
3, ,51, ,
-4, ,53, ,
0, ,53, ,
3, ,53, ,
1, ,53, ,
-1, ,53, ,
4, ,52, ,
0, ,54, ,
1, ,53, ,
4, ,51, ,
4, ,50, ,
1, ,41, ,
-1, ,31, ,
-6, ,22, ,
-2, ,13, ,
-1, ,6, ,
-2, ,-1, ,
-4, ,-6, ,
3, ,-11, ,
-2, ,-14, ,
-1, ,-19, ,
-2, ,-22, ,
-1, ,-24, ,
-2, ,-26, ,
4, ,-28, ,
-5, ,-30, ,
1, ,-31, ,
0, ,-32, ,
1, ,-35, ,
1, ,-36, ,
6, ,-36, ,
4, ,-37, ,
3, ,-38, ,
0, ,-38, ,
1, ,-38, ,
4, ,-39, ,
6, ,-39, ,
1, ,-40, ,
6, ,-39, ,
4, ,-39, ,
4, ,-40, ,
1, ,-40, ,
4, ,-39, ,
5, ,-41, ,
3, ,-40, ,
1, ,-40, ,
1, ,-41, ,
-2, ,-41, ,
-2, ,-40, ,
-5, ,-41, ,
1, ,-41, ,
4, ,-41, ,
3, ,-41, ,
3, ,-41, ,
8, ,-40, ,
5, ,-41, ,
3, ,-41, ,
0, ,-41, ,
0, ,-41, ,
0, ,-41, ,
4, ,-40, ,
0, ,-41, ,
1, ,-40, ,
8, ,-40, ,
3, ,-40, ,
1, ,-41, ,
4, ,-40, ,
3, ,-41, ,
0, ,-41, ,
0, ,-40, ,
4, ,-41, ,
1, ,-41, ,
1, ,-40, ,
-5, ,-41, ,
-1, ,-40, ,
1, ,-40, ,
-1, ,-41, ,
-2, ,-40, ,
8, ,-40, ,
5, ,-41, ,
5, ,-41, ,
1, ,-40, ,
0, ,-41, ,
4, ,-41, ,
3, ,-40, ,
-4, ,-41, ,
1, ,-40, ,
1, ,-40, ,
3, ,-40, ,
-6, ,-40, ,
1, ,-40, ,
-4, ,-41, ,
-11, ,-41, ,
-14, ,-40, ,
-14, ,-41, ,
-14, ,-41, ,
-14, ,-40, ,
-12, ,-41, ,
-5, ,-40, ,
-1, ,-40, ,
-1, ,-40, ,
0, ,-40, ,
10, ,-40, ,
10, ,-41, ,
10, ,-41, ,
9, ,-40, ,
8, ,-40, ,
1, ,-40, ,
6, ,-40, ,
1, ,-41, ,
-5, ,-40, ,
3, ,-40, ,
-1, ,-40, ,
0, ,-40, ,
3, ,-40, ,
3, ,-41, ,
4, ,-40, ,
1, ,-40, ,
5, ,-41, ,
4, ,-40, ,
3, ,-39, ,
-1, ,-41, ,
-2, ,-40, ,
-2, ,-40, ,
-5, ,-40, ,
-7, ,-41, ,
-1, ,-40, ,
-4, ,-41, ,
1, ,-40, ,
0, ,-40, ,
4, ,-40, ,
1, ,-40, ,
1, ,-40, ,
-1, ,-40, ,
0, ,-40, ,
0, ,-40, ,
-4, ,-40, ,
-7, ,-40, ,
4, ,-40, ,
-2, ,-41, ,
-4, ,-40, ,
0, ,-40, ,
-2, ,-40, ,
-1, ,-40, ,
0, ,-40, ,
-1, ,-41, ,
1, ,-40, ,
0, ,-40, ,
-5, ,-40, ,
-9, ,-40, ,
-4, ,-40, ,
-6, ,-41, ,
-4, ,-40, ,
-2, ,-40, ,
1, ,-40, ,
3, ,-40, ,
4, ,-40, ,
0, ,-40, ,
4, ,-40, ,
-1, ,-40, ,
-1, ,-40, ,
-7, ,-40, ,
1, ,-40, ,
-2, ,-41, ,
-5, ,-40, ,
-2, ,-40, ,
-1, ,-40, ,
-2, ,-40, ,
0, ,-40, ,
-2, ,-40, ,
4, ,-40, ,
5, ,-40, ,
1, ,-40, ,
-2, ,-40, ,
3, ,-39, ,
3, ,-41, ,
3, ,-41, ,
0, ,-40, ,
1, ,-40, ,
4, ,-40, ,
5, ,-40, ,
1, ,-40, ,
4, ,-40, ,
5, ,-40, ,
3, ,-40, ,
-2, ,-40, ,
3, ,-39, ,
0, ,-41, ,
-1, ,-40, ,
-2, ,-40, ,
1, ,-40, ,
4, ,-40, ,
4, ,-40, ,
-4, ,-40, ,
0, ,-40, ,
1, ,-40, ,
0, ,-40, ,
-1, ,-40, ,
6, ,-40, ,
4, ,-41, ,
4, ,-40, ,
3, ,-40, ,
4, ,-40, ,
5, ,-40, ,
4, ,-40, ,
0, ,-40, ,
1, ,-40, ,
1, ,-40, ,
1, ,-40, ,
-4, ,-40, ,
3, ,-40, ,
-1, ,-41, ,
0, ,-40, ,
0, ,-40, ,
1, ,-40, ,
3, ,-40, ,
4, ,-40, ,
3, ,-40, ,
6, ,-40, ,
6, ,-40, ,
3, ,-40, ,
1, ,-40, ,
4, ,-40, ,
1, ,-41, ,
0, ,-41, ,
0, ,-40, ,
0, ,-40, ,
3, ,-40, ,
4, ,-39, ,
-2, ,-41, ,
3, ,-40, ,
4, ,-40, ,
1, ,-40, ,
3, ,-40, ,
4, ,-40, ,
4, ,-41, ,
4, ,-40, ,
0, ,-40, ,
3, ,-40, ,
1, ,-40, ,
3, ,-39, ,
-5, ,-40, ,
1, ,-40, ,
4, ,-40, ,
-1, ,-40, ,
-1, ,-40, ,
3, ,-40, ,
4, ,-41, ,
4, ,-40, ,
1, ,-40, ,
5, ,-40, ,
5, ,-40, ,
3, ,-40, ,
3, ,-40, ,
4, ,-40, ,
6, ,-40, ,
4, ,-40, ,
3, ,-40, ,
6, ,-39, ,
4, ,-41, ,
3, ,-40, ,
1, ,-40, ,
1, ,-40, ,
3, ,-40, ,
1, ,-40, ,
-1, ,-40, ,
5, ,-40, ,
6, ,-40, ,
4, ,-40, ,
1, ,-40, ,
5, ,-39, ,
4, ,-41, ,
1, ,-40, ,
1, ,-40, ,
3, ,-40, ,
5, ,-40, ,
9, ,-40, ,
0, ,-40, ,
5, ,-40, ,
5, ,-40, ,
4, ,-40, ,
0, ,-40, ,
5, ,-39, ,
4, ,-40, ,
0, ,-40, ,
-1, ,-40, ,
1, ,-40, ,
0, ,-40, ,
4, ,-40, ,
-6, ,-40, ,
1, ,-40, ,
4, ,-40, ,
3, ,-40, ,
0, ,-40, ,
8, ,-40, ,
4, ,-41, ,
4, ,-40, ,
1, ,-40, ,
5, ,-40, ,
5, ,-40, ,
5, ,-40, ,
4, ,-40, ,
8, ,-40, ,
11, ,-40, ,
6, ,-40, ,
1, ,-40, ,
8, ,-40, ,
4, ,-41, ,
3, ,-40, ,
1, ,-40, ,
3, ,-40, ,
0, ,-40, ,
4, ,-40, ,
0, ,-40, ,
6, ,-40, ,
10, ,-40, ,
9, ,-40, ,
5, ,-40, ,
10, ,-40, ,
6, ,-41, ,
4, ,-40, ,
3, ,-40, ,
3, ,-40, ,
5, ,-40, ,
9, ,-40, ,
3, ,-41, ,
5, ,-40, ,
5, ,-40, ,
8, ,-40, ,
5, ,-40, ,
8, ,-40, ,
6, ,-41, ,
5, ,-40, ,
4, ,-40, ,
4, ,-40, ,
5, ,-40, ,
5, ,-40, ,
0, ,-40, ,
8, ,-40, ,
6, ,-40, ,
5, ,-40, ,
5, ,-40, ,
6, ,-39, ,
6, ,-41, ,
4, ,-40, ,
3, ,-40, ,
1, ,-40, ,
0, ,-40, ,
0, ,-40, ,
-4, ,-40, ,
3, ,-40, ,
11, ,-40, ,
1, ,-40, ,
4, ,-40, ,
14, ,-40, ,
4, ,-41, ,
1, ,-40, ,
-1, ,-40, ,
1, ,-40, ,
1, ,-40, ,
5, ,-39, ,
1, ,-40, ,
0, ,-40, ,
3, ,-40, ,
-1, ,-40, ,
-6, ,-40, ,
1, ,-40, ,
-1, ,-40, ,
1, ,-40, ,
-1, ,-40, ,
1, ,-40, ,
-1, ,-40, ,
1, ,-40, ,
-5, ,-41, ,
-5, ,-40, ,
-5, ,-40, ,
-5, ,-40, ,
-2, ,-40, ,
5, ,-40, ,
1, ,-41, ,
1, ,-40, ,
-2, ,-40, ,
-4, ,-40, ,
-4, ,-40, ,
-4, ,-40, ,
-9, ,-40, ,
-1, ,-40, ,
3, ,-40, ,
1, ,-40, ,
-2, ,-40, ,
1, ,-40, ,
-6, ,-41, ,
-7, ,-40, ,
-4, ,-40, ,
-2, ,-40, ,
1, ,-40, ,
4, ,-40, ,
-6, ,-40, ,
-4, ,-40, ,
-4, ,-40, ,
-7, ,-40, ,
-6, ,-40, ,
1, ,-39, ,
-2, ,-41, ,
-1, ,-40, ,
-1, ,-40, ,
0, ,-40, ,
-6, ,-40, ,
-1, ,-39, ,
-10, ,-40, ,
-7, ,-40, ,
-4, ,-40, ,
-7, ,-40, ,
-4, ,-40, ,
0, ,-40, ,
-1, ,-41, ,
-1, ,-40, ,
-4, ,-40, ,
0, ,-40, ,
-2, ,-40, ,
0, ,-40, ,
-5, ,-40, ,
-1, ,-40, ,
-1, ,-40, ,
-2, ,-40, ,
-4, ,-40, ,
-1, ,-39, ,
-2, ,-40, ,
-4, ,-40, ,
-2, ,-40, ,
-2, ,-40, ,
-2, ,-40, ,
0, ,-40, ,
-4, ,-40, ,
-2, ,-40, ,
3, ,-40, ,
-1, ,-40, ,
-6, ,-40, ,
-1, ,-40, ,
-5, ,-41, ,
-1, ,-40, ,
-2, ,-40, ,
0, ,-40, ,
0, ,-40, ,
1, ,-40, ,
-6, ,-41, ,
-2, ,-40, ,
-5, ,-40, ,
-6, ,-40, ,
-10, ,-40, ,
-2, ,-39, ,
-2, ,-41, ,
-4, ,-40, ,
-2, ,-40, ,
0, ,-41, ,
-1, ,-40, ,
1, ,-39, ,
-5, ,-40, ,
1, ,-40, ,
-1, ,-40, ,
-1, ,-40, ,
0, ,-40, ,
0, ,-39, ,
1, ,-41, ,
0, ,-41, ,
-4, ,-40, ,
-1, ,-40, ,
-1, ,-40, ,
0, ,-40, ,
-5, ,-40, ,
0, ,-40, ,
4, ,-40, ,
1, ,-40, ,
0, ,-40, ,
8, ,-40, ,
6, ,-41, ,
3, ,-40, ,
0, ,-40, ,
3, ,-40, ,
3, ,-40, ,
5, ,-40, ,
-1, ,-40, ,
0, ,-40, ,
1, ,-40, ,
-1, ,-40, ,
-2, ,-40, ,
0, ,-40, ,
4, ,-41, ,
4, ,-40, ,
3, ,-40, ,
9, ,-40, ,
6, ,-40, ,
8, ,-40, ,
3, ,-41, ,
4, ,-40, ,
4, ,-40, ,
1, ,-40, ,
-4, ,-40, ,
5, ,-40, ,
5, ,-41, ,
5, ,-40, ,
6, ,-40, ,
3, ,-40, ,
3, ,-40, ,
1, ,-39, ,
-2, ,-40, ,
1, ,-40, ,
4, ,-40, ,
4, ,-40, ,
3, ,-40, ,
5, ,-39, ,
4, ,-40, ,
4, ,-40, ,
3, ,-40, ,
4, ,-40, ,
5, ,-40, ,
6, ,-40, ,
3, ,-40, ,
8, ,-40, ,
5, ,-40, ,
5, ,-40, ,
3, ,-40, ,
6, ,-40, ,
4, ,-41, ,
0, ,-40, ,
1, ,-40, ,
4, ,-40, ,
4, ,-40, ,
6, ,-40, ,
-1, ,-41, ,
5, ,-40, ,
6, ,-40, ,
3, ,-40, ,
1, ,-40, ,
4, ,-40, ,
1, ,-41, ,
6, ,-41, ,
1, ,-40, ,
5, ,-40, ,
5, ,-40, ,
4, ,-40, ,
0, ,-40, ,
4, ,-40, ,
5, ,-40, ,
-1, ,-40, ,
-1, ,-40, ,
5, ,-40, ,
3, ,-40, ,
1, ,-40, ,
1, ,-40, ,
4, ,-40, ,
3, ,-40, ,
4, ,-39, ,
3, ,-40, ,
5, ,-40, ,
9, ,-40, ,
5, ,-40, ,
5, ,-40, ,
5, ,-40, ,
4, ,-41, ,
5, ,-40, ,
1, ,-40, ,
-5, ,-40, ,
4, ,-40, ,
6, ,-40, ,
1, ,-40, ,
9, ,-40, ,
10, ,-40, ,
5, ,-40, ,
0, ,-40, ,
5, ,-39, ,
1, ,-40, ,
0, ,-40, ,
3, ,-40, ,
4, ,-40, ,
8, ,-40, ,
8, ,-40, ,
4, ,-40, ,
8, ,-40, ,
8, ,-40, ,
6, ,-40, ,
3, ,-40, ,
6, ,-40, ,
4, ,-41, ,
3, ,-40, ,
0, ,-40, ,
1, ,-40, ,
4, ,-40, ,
3, ,-39, ,
1, ,-41, ,
0, ,-40, ,
3, ,-40, ,
4, ,-40, ,
6, ,-40, ,
6, ,-40, ,
4, ,-41, ,
1, ,-40, ,
-2, ,-40, ,
-6, ,-40, ,
-1, ,-40, ,
3, ,-39, ,
-2, ,-40, ,
3, ,-40, ,
4, ,-40, ,
3, ,-40, ,
-1, ,-40, ,
1, ,-40, ,
-2, ,-41, ,
-1, ,-40, ,
-1, ,-40, ,
3, ,-40, ,
4, ,-40, ,
5, ,-40, ,
0, ,-40, ,
1, ,-40, ,
3, ,-40, ,
1, ,-40, ,
-4, ,-40, ,
1, ,-40, ,
0, ,-41, ,
-1, ,-40, ,
-1, ,-40, ,
-1, ,-40, ,
-2, ,-40, ,
1, ,-40, ,
-5, ,-40, ,
1, ,-40, ,
1, ,-40, ,
-1, ,-40, ,
-4, ,-40, ,
4, ,-39, ,
3, ,-41, ,
1, ,-40, ,
3, ,-40, ,
4, ,-40, ,
0, ,-40, ,
-1, ,-40, ,
-5, ,-40, ,
0, ,-40, ,
0, ,-40, ,
1, ,-40, ,
-2, ,-40, ,
3, ,-40, ,
3, ,-41, ,
-4, ,-40, ,
-4, ,-40, ,
-2, ,-40, ,
-5, ,-40, ,
-1, ,-39, ,
-5, ,-40, ,
1, ,-40, ,
4, ,-40, ,
-2, ,-40, ,
-1, ,-40, ,
3, ,-40, ,
0, ,-41, ,
1, ,-40, ,
-1, ,-40, ,
1, ,-40, ,
1, ,-40, ,
1, ,-40, ,
-2, ,-41, ,
-2, ,-40, ,
-1, ,-40, ,
-4, ,-40, ,
-6, ,-40, ,
-1, ,-39, ,
0, ,-41, ,
