src/vary_am2_1411/temp0005407.CSV

Format,1.0B,
Memory Length,10000,Memory Length,10000,
IntpDistance,0,IntpDistance,0,
Trigger Address,4999,Trigger Address,4999,
Trigger Level,-1.000E+00,Trigger Level,-1.000E+00,
Source,CH1,Source,CH2,
Vertical Units,V,Vertical Units,V,
Vertical Units Div,0,Vertical Units Div,0,
Vertical Units Extend Div,16,Vertical Units Extend Div,16,
Label,,Label,,
Probe Type,0,Probe Type,0,
Probe Ratio,1.000e+01,Probe Ratio,1.000e+00,
Vertical Scale,2.000e-02,Vertical Scale,1.000e+00,
Vertical Position,-5.120e-02,Vertical Position,2.000e-01,
Horizontal Units,S,Horizontal Units,S,
Horizontal Scale,1.000E-05,Horizontal Scale,1.000E-05,
Horizontal Position,0.000E+00,Horizontal Position,0.000E+00,
Horizontal Mode,Main,Horizontal Mode,Main,
SincET Mode,Real Time,SincET Mode,Real Time,
Sampling Period,1.000e-08,Sampling Period,1.000e-08,
Horizontal Old Scale,1.000E-05,Horizontal Old Scale,1.000E-05,
Horizontal Old Position,0.000E+00,Horizontal Old Position,0.000E+00,
Firmware,V1.23,Firmware,V1.23,
Mode,Fast,Mode,Fast,
Waveform Data,,Waveform Data,,
-1, ,-42, ,
0, ,-43, ,
-4, ,-42, ,
-9, ,-42, ,
1, ,-42, ,
-4, ,-43, ,
-4, ,-42, ,
-2, ,-43, ,
-1, ,-42, ,
1, ,-42, ,
6, ,-43, ,
1, ,-42, ,
5, ,-42, ,
4, ,-43, ,
1, ,-43, ,
-4, ,-42, ,
1, ,-43, ,
0, ,-43, ,
1, ,-42, ,
-2, ,-43, ,
-1, ,-43, ,
3, ,-42, ,
-1, ,-43, ,
-5, ,-42, ,
-2, ,-43, ,
-2, ,-43, ,
-4, ,-43, ,
-5, ,-42, ,
1, ,-43, ,
0, ,-43, ,
0, ,-42, ,
-2, ,-42, ,
-2, ,-43, ,
-1, ,-42, ,
1, ,-43, ,
-2, ,-42, ,
0, ,-42, ,
4, ,-43, ,
-1, ,-42, ,
-2, ,-42, ,
-1, ,-42, ,
-6, ,-43, ,
-2, ,-42, ,
-7, ,-43, ,
-2, ,-42, ,
-2, ,-42, ,
-2, ,-43, ,
-4, ,-42, ,
0, ,-42, ,
0, ,-43, ,
-1, ,-42, ,
-4, ,-42, ,
-1, ,-42, ,
1, ,-43, ,
0, ,-42, ,
-1, ,-42, ,
1, ,-43, ,
4, ,-42, ,
1, ,-43, ,
-5, ,-42, ,
-1, ,-42, ,
1, ,-43, ,
-4, ,-43, ,
-5, ,-42, ,
0, ,-42, ,
-1, ,-43, ,
0, ,-42, ,
-2, ,-43, ,
-1, ,-43, ,
3, ,-42, ,
3, ,-43, ,
0, ,-42, ,
5, ,-42, ,
4, ,-43, ,
1, ,-42, ,
-4, ,-42, ,
-1, ,-42, ,
0, ,-43, ,
-1, ,-42, ,
-1, ,-43, ,
1, ,-43, ,
1, ,-42, ,
4, ,-43, ,
-2, ,-42, ,
1, ,-42, ,
5, ,-43, ,
3, ,-42, ,
0, ,-42, ,
1, ,-42, ,
1, ,-42, ,
0, ,-42, ,
-1, ,-42, ,
0, ,-43, ,
1, ,-42, ,
4, ,-43, ,
-1, ,-42, ,
1, ,-42, ,
1, ,-43, ,
0, ,-42, ,
-2, ,-42, ,
0, ,-43, ,
-1, ,-43, ,
-1, ,-42, ,
-2, ,-43, ,
0, ,-43, ,
1, ,-43, ,
1, ,-43, ,
-5, ,-43, ,
-1, ,-42, ,
3, ,-43, ,
-4, ,-43, ,
-4, ,-42, ,
3, ,-42, ,
1, ,-43, ,
3, ,-42, ,
0, ,-43, ,
1, ,-43, ,
1, ,-42, ,
-1, ,-42, ,
-2, ,-42, ,
1, ,-42, ,
3, ,-43, ,
1, ,-42, ,
-1, ,-42, ,
4, ,-42, ,
-1, ,-43, ,
0, ,-42, ,
-5, ,-42, ,
-2, ,-43, ,
1, ,-42, ,
3, ,-43, ,
0, ,-42, ,
5, ,-42, ,
4, ,-43, ,
3, ,-43, ,
-6, ,-42, ,
1, ,-42, ,
-1, ,-43, ,
0, ,-42, ,
0, ,-42, ,
1, ,-42, ,
4, ,-43, ,
3, ,-43, ,
-4, ,-42, ,
3, ,-42, ,
3, ,-43, ,
1, ,-42, ,
-2, ,-42, ,
5, ,-42, ,
4, ,-43, ,
3, ,-42, ,
3, ,-43, ,
1, ,-43, ,
1, ,-42, ,
6, ,-43, ,
-1, ,-42, ,
6, ,-42, ,
9, ,-43, ,
4, ,-43, ,
5, ,-42, ,
8, ,-42, ,
5, ,-43, ,
3, ,-42, ,
-2, ,-43, ,
-1, ,-43, ,
0, ,-43, ,
1, ,-43, ,
0, ,-42, ,
4, ,-42, ,
5, ,-43, ,
5, ,-43, ,
4, ,-42, ,
9, ,-43, ,
6, ,-43, ,
4, ,-42, ,
1, ,-43, ,
5, ,-42, ,
4, ,-42, ,
4, ,-43, ,
-1, ,-42, ,
0, ,-42, ,
3, ,-43, ,
0, ,-43, ,
-5, ,-42, ,
4, ,-42, ,
-1, ,-42, ,
4, ,-42, ,
3, ,-43, ,
3, ,-42, ,
5, ,-42, ,
1, ,-43, ,
-4, ,-42, ,
1, ,-42, ,
1, ,-43, ,
3, ,-42, ,
-4, ,-42, ,
5, ,-42, ,
4, ,-43, ,
3, ,-42, ,
1, ,-43, ,
0, ,-43, ,
1, ,-42, ,
0, ,-42, ,
-4, ,-42, ,
3, ,-42, ,
4, ,-43, ,
3, ,-43, ,
-1, ,-42, ,
6, ,-42, ,
3, ,-43, ,
1, ,-42, ,
-2, ,-43, ,
-1, ,-43, ,
1, ,-42, ,
0, ,-43, ,
-2, ,-42, ,
1, ,-42, ,
3, ,-43, ,
4, ,-43, ,
-1, ,-42, ,
3, ,-42, ,
4, ,-43, ,
4, ,-42, ,
0, ,-42, ,
4, ,-43, ,
4, ,-42, ,
4, ,-43, ,
-2, ,-42, ,
0, ,-42, ,
3, ,-43, ,
-2, ,-43, ,
-4, ,-42, ,
4, ,-42, ,
4, ,-42, ,
8, ,-42, ,
1, ,-43, ,
3, ,-43, ,
3, ,-42, ,
0, ,-43, ,
-2, ,-42, ,
-2, ,-42, ,
0, ,-43, ,
1, ,-42, ,
-2, ,-42, ,
3, ,-43, ,
3, ,-43, ,
-1, ,-42, ,
-1, ,-43, ,
0, ,-42, ,
1, ,-42, ,
4, ,-43, ,
-2, ,-42, ,
3, ,-42, ,
3, ,-43, ,
3, ,-43, ,
-4, ,-42, ,
5, ,-42, ,
3, ,-43, ,
1, ,-42, ,
-2, ,-43, ,
1, ,-43, ,
4, ,-42, ,
3, ,-43, ,
-2, ,-42, ,
0, ,-42, ,
-1, ,-43, ,
-1, ,-42, ,
-5, ,-42, ,
-1, ,-43, ,
1, ,-43, ,
0, ,-42, ,
1, ,-43, ,
3, ,-43, ,
3, ,-42, ,
8, ,-43, ,
-1, ,-42, ,
1, ,-42, ,
3, ,-43, ,
-1, ,-43, ,
-5, ,-42, ,
1, ,-42, ,
0, ,-43, ,
-1, ,-42, ,
-2, ,-43, ,
0, ,-42, ,
-1, ,-42, ,
-1, ,-43, ,
-4, ,-42, ,
-1, ,-42, ,
0, ,-43, ,
0, ,-42, ,
-2, ,-42, ,
5, ,-42, ,
1, ,-43, ,
3, ,-42, ,
-2, ,-43, ,
1, ,-43, ,
0, ,-42, ,
3, ,-43, ,
-4, ,-42, ,
0, ,-42, ,
3, ,-43, ,
1, ,-43, ,
-4, ,-42, ,
1, ,-42, ,
-2, ,-42, ,
-2, ,-42, ,
1, ,-43, ,
4, ,-42, ,
4, ,-41, ,
0, ,-35, ,
1, ,-25, ,
10, ,-16, ,
8, ,-6, ,
8, ,1, ,
3, ,9, ,
6, ,15, ,
1, ,19, ,
1, ,22, ,
3, ,28, ,
8, ,31, ,
9, ,34, ,
8, ,36, ,
0, ,38, ,
6, ,39, ,
4, ,42, ,
8, ,42, ,
1, ,45, ,
4, ,45, ,
3, ,46, ,
4, ,45, ,
3, ,48, ,
-2, ,47, ,
0, ,48, ,
9, ,49, ,
-1, ,49, ,
3, ,48, ,
5, ,51, ,
1, ,50, ,
-1, ,50, ,
3, ,50, ,
1, ,50, ,
0, ,49, ,
-2, ,51, ,
1, ,51, ,
0, ,50, ,
1, ,51, ,
-2, ,51, ,
1, ,50, ,
4, ,51, ,
-1, ,50, ,
-4, ,51, ,
0, ,51, ,
-2, ,51, ,
1, ,50, ,
-2, ,51, ,
0, ,51, ,
3, ,51, ,
4, ,51, ,
0, ,51, ,
4, ,50, ,
3, ,52, ,
-4, ,50, ,
0, ,51, ,
5, ,51, ,
0, ,51, ,
5, ,49, ,
1, ,51, ,
3, ,51, ,
1, ,50, ,
3, ,50, ,
-1, ,51, ,
0, ,49, ,
4, ,51, ,
3, ,50, ,
-2, ,51, ,
3, ,51, ,
-2, ,51, ,
-1, ,49, ,
-2, ,52, ,
1, ,50, ,
4, ,50, ,
5, ,50, ,
-1, ,51, ,
3, ,50, ,
3, ,51, ,
1, ,50, ,
-4, ,50, ,
1, ,51, ,
0, ,51, ,
-1, ,49, ,
-2, ,51, ,
4, ,50, ,
4, ,50, ,
6, ,50, ,
1, ,51, ,
4, ,49, ,
6, ,51, ,
5, ,50, ,
-1, ,50, ,
1, ,51, ,
-2, ,50, ,
0, ,49, ,
-2, ,51, ,
1, ,51, ,
3, ,50, ,
3, ,50, ,
-6, ,51, ,
0, ,50, ,
0, ,51, ,
1, ,50, ,
3, ,50, ,
9, ,51, ,
5, ,51, ,
9, ,49, ,
3, ,51, ,
3, ,50, ,
-1, ,50, ,
3, ,50, ,
-1, ,50, ,
4, ,49, ,
4, ,51, ,
0, ,50, ,
-4, ,50, ,
-2, ,51, ,
-4, ,50, ,
3, ,49, ,
-2, ,51, ,
3, ,50, ,
5, ,50, ,
5, ,50, ,
1, ,50, ,
8, ,49, ,
6, ,51, ,
4, ,50, ,
-1, ,50, ,
1, ,51, ,
1, ,51, ,
1, ,49, ,
0, ,51, ,
3, ,50, ,
4, ,50, ,
3, ,50, ,
-1, ,51, ,
1, ,49, ,
1, ,51, ,
0, ,50, ,
-1, ,50, ,
4, ,51, ,
3, ,50, ,
1, ,49, ,
0, ,51, ,
3, ,50, ,
0, ,50, ,
3, ,50, ,
-4, ,50, ,
4, ,49, ,
5, ,51, ,
3, ,50, ,
-1, ,50, ,
5, ,51, ,
4, ,50, ,
5, ,49, ,
1, ,51, ,
3, ,50, ,
0, ,50, ,
4, ,50, ,
0, ,51, ,
3, ,50, ,
5, ,51, ,
6, ,50, ,
3, ,50, ,
6, ,51, ,
3, ,50, ,
3, ,49, ,
-2, ,50, ,
1, ,51, ,
0, ,50, ,
3, ,50, ,
-4, ,50, ,
-1, ,49, ,
1, ,51, ,
1, ,50, ,
-4, ,50, ,
6, ,51, ,
1, ,50, ,
3, ,49, ,
-1, ,51, ,
1, ,50, ,
0, ,50, ,
-1, ,50, ,
-5, ,51, ,
-1, ,50, ,
0, ,51, ,
-1, ,50, ,
-4, ,50, ,
3, ,51, ,
0, ,50, ,
1, ,49, ,
0, ,51, ,
0, ,50, ,
0, ,50, ,
0, ,50, ,
-6, ,50, ,
-2, ,49, ,
-2, ,51, ,
0, ,50, ,
-4, ,50, ,
4, ,50, ,
3, ,50, ,
-1, ,49, ,
-1, ,50, ,
-1, ,50, ,
-2, ,50, ,
1, ,50, ,
-6, ,50, ,
-1, ,49, ,
1, ,51, ,
-1, ,50, ,
-4, ,50, ,
1, ,50, ,
-4, ,50, ,
-1, ,49, ,
-6, ,51, ,
0, ,51, ,
0, ,50, ,
1, ,50, ,
-4, ,50, ,
0, ,50, ,
1, ,51, ,
0, ,50, ,
-2, ,50, ,
1, ,50, ,
0, ,50, ,
1, ,49, ,
1, ,51, ,
1, ,50, ,
0, ,50, ,
0, ,50, ,
-10, ,50, ,
-2, ,49, ,
0, ,51, ,
-1, ,50, ,
-7, ,50, ,
3, ,51, ,
0, ,50, ,
3, ,49, ,
1, ,51, ,
4, ,50, ,
3, ,50, ,
1, ,50, ,
-2, ,50, ,
4, ,49, ,
3, ,51, ,
3, ,49, ,
-4, ,50, ,
3, ,51, ,
1, ,50, ,
-1, ,49, ,
-2, ,51, ,
0, ,50, ,
-2, ,50, ,
3, ,50, ,
-5, ,50, ,
0, ,50, ,
3, ,51, ,
-1, ,50, ,
-5, ,50, ,
0, ,51, ,
-2, ,50, ,
-1, ,49, ,
-1, ,51, ,
0, ,50, ,
3, ,50, ,
4, ,50, ,
-1, ,51, ,
3, ,49, ,
0, ,51, ,
-2, ,50, ,
-4, ,50, ,
0, ,51, ,
1, ,50, ,
0, ,49, ,
-1, ,51, ,
4, ,50, ,
0, ,50, ,
4, ,50, ,
-2, ,51, ,
-1, ,49, ,
0, ,51, ,
-1, ,49, ,
-4, ,50, ,
5, ,50, ,
0, ,50, ,
-1, ,49, ,
-4, ,51, ,
-2, ,50, ,
-2, ,50, ,
0, ,50, ,
-2, ,50, ,
-1, ,49, ,
3, ,50, ,
1, ,50, ,
-1, ,50, ,
3, ,50, ,
0, ,50, ,
0, ,49, ,
1, ,51, ,
1, ,50, ,
4, ,50, ,
4, ,50, ,
-1, ,50, ,
4, ,49, ,
0, ,51, ,
-1, ,49, ,
-5, ,50, ,
1, ,50, ,
1, ,50, ,
1, ,49, ,
3, ,51, ,
4, ,50, ,
3, ,50, ,
5, ,50, ,
-1, ,50, ,
4, ,50, ,
1, ,51, ,
0, ,49, ,
-1, ,50, ,
6, ,51, ,
3, ,50, ,
-1, ,49, ,
0, ,50, ,
1, ,50, ,
1, ,50, ,
6, ,50, ,
0, ,51, ,
6, ,49, ,
4, ,51, ,
1, ,49, ,
-1, ,50, ,
1, ,51, ,
0, ,50, ,
0, ,49, ,
-2, ,51, ,
-1, ,50, ,
0, ,50, ,
4, ,50, ,
-2, ,50, ,
3, ,49, ,
5, ,50, ,
1, ,50, ,
0, ,50, ,
5, ,50, ,
1, ,50, ,
1, ,49, ,
-1, ,50, ,
4, ,50, ,
1, ,50, ,
6, ,50, ,
1, ,51, ,
3, ,49, ,
4, ,51, ,
-2, ,49, ,
-5, ,50, ,
3, ,50, ,
-1, ,50, ,
1, ,49, ,
0, ,50, ,
3, ,50, ,
3, ,50, ,
4, ,50, ,
-1, ,51, ,
4, ,49, ,
3, ,51, ,
3, ,50, ,
-2, ,50, ,
3, ,50, ,
3, ,50, ,
0, ,49, ,
0, ,50, ,
1, ,50, ,
3, ,50, ,
4, ,50, ,
-4, ,50, ,
4, ,49, ,
4, ,51, ,
4, ,50, ,
3, ,50, ,
4, ,50, ,
4, ,50, ,
3, ,48, ,
1, ,51, ,
6, ,50, ,
6, ,50, ,
5, ,50, ,
0, ,50, ,
4, ,49, ,
4, ,51, ,
-1, ,50, ,
-5, ,50, ,
4, ,51, ,
1, ,51, ,
1, ,49, ,
-2, ,51, ,
3, ,50, ,
1, ,50, ,
5, ,50, ,
-1, ,50, ,
4, ,49, ,
6, ,50, ,
3, ,49, ,
3, ,50, ,
6, ,51, ,
1, ,50, ,
5, ,49, ,
-1, ,51, ,
1, ,50, ,
-1, ,50, ,
1, ,50, ,
-2, ,51, ,
3, ,49, ,
4, ,51, ,
4, ,49, ,
0, ,50, ,
5, ,50, ,
3, ,50, ,
0, ,49, ,
-2, ,51, ,
1, ,50, ,
-4, ,50, ,
4, ,50, ,
-1, ,51, ,
-1, ,49, ,
1, ,51, ,
4, ,50, ,
-2, ,50, ,
1, ,50, ,
-2, ,51, ,
0, ,49, ,
-1, ,51, ,
1, ,50, ,
3, ,50, ,
1, ,50, ,
-4, ,50, ,
0, ,49, ,
-1, ,51, ,
-1, ,49, ,
-4, ,50, ,
-1, ,50, ,
3, ,50, ,
1, ,48, ,
-2, ,51, ,
1, ,50, ,
-4, ,50, ,
1, ,50, ,
-4, ,50, ,
-4, ,49, ,
1, ,51, ,
3, ,50, ,
-4, ,50, ,
4, ,50, ,
4, ,50, ,
0, ,49, ,
-1, ,51, ,
0, ,50, ,
0, ,50, ,
-1, ,50, ,
-4, ,50, ,
1, ,49, ,
5, ,51, ,
3, ,49, ,
1, ,50, ,
6, ,50, ,
4, ,50, ,
4, ,49, ,
-2, ,51, ,
-1, ,50, ,
-2, ,50, ,
-2, ,50, ,
-4, ,51, ,
-2, ,49, ,
1, ,51, ,
-1, ,50, ,
-2, ,50, ,
3, ,50, ,
4, ,50, ,
-1, ,49, ,
3, ,51, ,
6, ,50, ,
3, ,50, ,
4, ,50, ,
-1, ,50, ,
1, ,49, ,
0, ,51, ,
1, ,50, ,
-2, ,50, ,
3, ,50, ,
3, ,50, ,
3, ,49, ,
1, ,51, ,
-1, ,50, ,
-4, ,50, ,
0, ,50, ,
-10, ,50, ,
-2, ,49, ,
0, ,51, ,
0, ,50, ,
-1, ,50, ,
6, ,50, ,
3, ,50, ,
0, ,49, ,
-4, ,51, ,
-2, ,50, ,
-4, ,50, ,
1, ,50, ,
-6, ,50, ,
0, ,49, ,
5, ,51, ,
1, ,50, ,
-2, ,50, ,
3, ,50, ,
-5, ,50, ,
-2, ,48, ,
-9, ,51, ,
1, ,50, ,
4, ,50, ,
4, ,50, ,
-1, ,50, ,
3, ,49, ,
0, ,51, ,
-4, ,49, ,
-5, ,50, ,
3, ,51, ,
-2, ,50, ,
1, ,49, ,
-1, ,51, ,
0, ,50, ,
-4, ,50, ,
0, ,50, ,
-6, ,50, ,
-2, ,49, ,
3, ,51, ,
0, ,50, ,
0, ,50, ,
5, ,50, ,
0, ,50, ,
-1, ,49, ,
-6, ,51, ,
-9, ,50, ,
-6, ,50, ,
-7, ,50, ,
-14, ,50, ,
-5, ,49, ,
-7, ,50, ,
-6, ,49, ,
-10, ,50, ,
-9, ,50, ,
-5, ,51, ,
3, ,48, ,
6, ,51, ,
14, ,50, ,
15, ,50, ,
14, ,50, ,
8, ,50, ,
8, ,49, ,
4, ,50, ,
-2, ,49, ,
-6, ,50, ,
0, ,50, ,
-4, ,51, ,
-1, ,49, ,
1, ,51, ,
4, ,50, ,
5, ,50, ,
5, ,50, ,
0, ,51, ,
0, ,49, ,
1, ,51, ,
-2, ,50, ,
-7, ,50, ,
1, ,51, ,
-6, ,50, ,
-5, ,49, ,
0, ,51, ,
-1, ,50, ,
1, ,50, ,
3, ,50, ,
-2, ,50, ,
3, ,49, ,
3, ,51, ,
0, ,50, ,
-5, ,50, ,
-1, ,50, ,
-1, ,50, ,
-2, ,49, ,
-4, ,51, ,
1, ,50, ,
3, ,50, ,
5, ,50, ,
1, ,50, ,
3, ,49, ,
3, ,51, ,
1, ,49, ,
-5, ,50, ,
-1, ,51, ,
-6, ,50, ,
-9, ,49, ,
-5, ,51, ,
3, ,50, ,
5, ,50, ,
9, ,50, ,
4, ,51, ,
4, ,49, ,
3, ,51, ,
1, ,49, ,
-4, ,50, ,
3, ,50, ,
4, ,50, ,
4, ,49, ,
0, ,51, ,
0, ,50, ,
-1, ,50, ,
-1, ,50, ,
-7, ,50, ,
3, ,50, ,
0, ,51, ,
0, ,49, ,
-4, ,51, ,
4, ,51, ,
4, ,50, ,
4, ,49, ,
6, ,51, ,
10, ,50, ,
11, ,50, ,
10, ,50, ,
5, ,50, ,
5, ,49, ,
4, ,51, ,
-1, ,50, ,
-4, ,50, ,
-1, ,50, ,
0, ,50, ,
1, ,49, ,
-1, ,51, ,
4, ,50, ,
3, ,50, ,
6, ,50, ,
-1, ,51, ,
5, ,49, ,
5, ,50, ,
3, ,50, ,
-1, ,50, ,
6, ,51, ,
0, ,51, ,
4, ,49, ,
0, ,51, ,
5, ,50, ,
3, ,50, ,
3, ,50, ,
-1, ,51, ,
4, ,49, ,
3, ,50, ,
3, ,50, ,
1, ,50, ,
3, ,50, ,
5, ,50, ,
4, ,49, ,
4, ,51, ,
4, ,50, ,
3, ,50, ,
5, ,50, ,
-2, ,50, ,
0, ,50, ,
4, ,51, ,
3, ,49, ,
-1, ,50, ,
4, ,51, ,
0, ,51, ,
4, ,49, ,
3, ,51, ,
3, ,50, ,
4, ,50, ,
4, ,50, ,
-2, ,50, ,
9, ,49, ,
6, ,51, ,
5, ,49, ,
0, ,50, ,
3, ,51, ,
1, ,50, ,
0, ,49, ,
-2, ,51, ,
1, ,50, ,
1, ,50, ,
5, ,50, ,
-1, ,50, ,
3, ,49, ,
4, ,51, ,
0, ,50, ,
-4, ,50, ,
4, ,51, ,
3, ,50, ,
1, ,49, ,
0, ,51, ,
5, ,50, ,
5, ,50, ,
5, ,50, ,
3, ,51, ,
5, ,49, ,
6, ,51, ,
5, ,50, ,
1, ,50, ,
10, ,51, ,
6, ,50, ,
5, ,49, ,
3, ,50, ,
3, ,50, ,
-1, ,50, ,
1, ,50, ,
-2, ,50, ,
1, ,49, ,
4, ,51, ,
4, ,50, ,
-1, ,50, ,
8, ,51, ,
1, ,50, ,
4, ,49, ,
0, ,51, ,
0, ,50, ,
1, ,50, ,
3, ,50, ,
-1, ,51, ,
4, ,49, ,
3, ,51, ,
4, ,50, ,
-2, ,50, ,
4, ,51, ,
1, ,50, ,
0, ,49, ,
-1, ,51, ,
0, ,50, ,
-2, ,50, ,
0, ,50, ,
-6, ,50, ,
0, ,49, ,
1, ,51, ,
0, ,49, ,
-1, ,50, ,
3, ,51, ,
1, ,50, ,
3, ,49, ,
0, ,51, ,
0, ,50, ,
-1, ,50, ,
1, ,50, ,
-6, ,50, ,
0, ,49, ,
0, ,51, ,
-1, ,49, ,
-2, ,50, ,
5, ,50, ,
5, ,50, ,
5, ,49, ,
3, ,51, ,
5, ,50, ,
1, ,50, ,
6, ,50, ,
0, ,51, ,
6, ,49, ,
6, ,51, ,
5, ,49, ,
-1, ,50, ,
8, ,50, ,
5, ,50, ,
8, ,49, ,
-1, ,51, ,
1, ,50, ,
-1, ,50, ,
5, ,50, ,
-1, ,51, ,
3, ,49, ,
4, ,51, ,
6, ,50, ,
0, ,50, ,
5, ,51, ,
0, ,50, ,
3, ,49, ,
1, ,51, ,
5, ,50, ,
6, ,50, ,
9, ,49, ,
5, ,47, ,
4, ,37, ,
-2, ,28, ,
-4, ,18, ,
-9, ,10, ,
-2, ,2, ,
0, ,-4, ,
0, ,-9, ,
0, ,-13, ,
-4, ,-18, ,
-6, ,-22, ,
-5, ,-25, ,
-11, ,-27, ,
-1, ,-29, ,
1, ,-31, ,
1, ,-33, ,
-1, ,-35, ,
1, ,-36, ,
3, ,-37, ,
-2, ,-38, ,
-2, ,-39, ,
-1, ,-39, ,
-1, ,-40, ,
-2, ,-40, ,
-7, ,-41, ,
0, ,-41, ,
0, ,-42, ,
-1, ,-42, ,
-6, ,-42, ,
3, ,-42, ,
1, ,-42, ,
-1, ,-42, ,
-6, ,-43, ,
-2, ,-43, ,
1, ,-42, ,
0, ,-43, ,
-6, ,-43, ,
-1, ,-43, ,
-1, ,-43, ,
-5, ,-43, ,
-7, ,-43, ,
-2, ,-43, ,
-1, ,-43, ,
-1, ,-43, ,
-6, ,-44, ,
-1, ,-43, ,
-2, ,-43, ,
-1, ,-44, ,
-7, ,-43, ,
-4, ,-43, ,
0, ,-44, ,
-1, ,-43, ,
-7, ,-43, ,
0, ,-43, ,
-1, ,-43, ,
-1, ,-43, ,
-4, ,-43, ,
-1, ,-43, ,
1, ,-43, ,
-1, ,-43, ,
-10, ,-43, ,
-4, ,-43, ,
-4, ,-43, ,
-2, ,-43, ,
-6, ,-43, ,
1, ,-43, ,
-1, ,-43, ,
-5, ,-43, ,
-6, ,-43, ,
-5, ,-43, ,
-4, ,-43, ,
-1, ,-43, ,
-6, ,-43, ,
-1, ,-43, ,
1, ,-43, ,
-2, ,-43, ,
-5, ,-42, ,
0, ,-43, ,
-1, ,-43, ,
-1, ,-42, ,
-1, ,-43, ,
0, ,-43, ,
3, ,-43, ,
5, ,-43, ,
-1, ,-43, ,
-1, ,-42, ,
-1, ,-43, ,
-5, ,-43, ,
-11, ,-42, ,
-5, ,-42, ,
-2, ,-43, ,
-2, ,-42, ,
-4, ,-43, ,
-1, ,-43, ,
-2, ,-43, ,
1, ,-43, ,
-2, ,-43, ,
-1, ,-43, ,
0, ,-43, ,
-1, ,-43, ,
-5, ,-42, ,
1, ,-43, ,
-2, ,-43, ,
-2, ,-42, ,
-6, ,-43, ,
-5, ,-43, ,
-1, ,-43, ,
-1, ,-43, ,
-5, ,-42, ,
1, ,-42, ,
-1, ,-43, ,
-2, ,-43, ,
-9, ,-42, ,
0, ,-43, ,
-4, ,-43, ,
0, ,-42, ,
-2, ,-43, ,
-4, ,-43, ,
-1, ,-42, ,
1, ,-43, ,
-5, ,-42, ,
-1, ,-42, ,
-2, ,-43, ,
-4, ,-43, ,
-9, ,-42, ,
-1, ,-43, ,
-6, ,-43, ,
-4, ,-42, ,
-1, ,-43, ,
3, ,-43, ,
6, ,-43, ,
4, ,-42, ,
1, ,-42, ,
1, ,-42, ,
1, ,-43, ,
0, ,-42, ,
-1, ,-42, ,
3, ,-43, ,
4, ,-43, ,
0, ,-42, ,
0, ,-43, ,
3, ,-43, ,
1, ,-43, ,
1, ,-43, ,
-2, ,-43, ,
1, ,-42, ,
5, ,-43, ,
0, ,-43, ,
-1, ,-42, ,
-2, ,-43, ,
5, ,-43, ,
10, ,-42, ,
-4, ,-43, ,
6, ,-43, ,
5, ,-42, ,
6, ,-43, ,
4, ,-42, ,
8, ,-42, ,
6, ,-43, ,
5, ,-43, ,
1, ,-42, ,
4, ,-42, ,
3, ,-43, ,
1, ,-42, ,
1, ,-43, ,
5, ,-43, ,
6, ,-43, ,
10, ,-43, ,
6, ,-42, ,
6, ,-42, ,
6, ,-43, ,
3, ,-43, ,
0, ,-42, ,
5, ,-42, ,
3, ,-43, ,
6, ,-42, ,
4, ,-42, ,
4, ,-43, ,
5, ,-42, ,
1, ,-43, ,
4, ,-42, ,
1, ,-42, ,
5, ,-43, ,
8, ,-43, ,
0, ,-42, ,
8, ,-43, ,
5, ,-43, ,
3, ,-43, ,
0, ,-43, ,
1, ,-42, ,
3, ,-42, ,
3, ,-43, ,
-2, ,-42, ,
5, ,-42, ,
8, ,-43, ,
5, ,-43, ,
3, ,-42, ,
5, ,-42, ,
5, ,-42, ,
3, ,-42, ,
1, ,-43, ,
3, ,-43, ,
4, ,-42, ,
5, ,-42, ,
-1, ,-42, ,
5, ,-42, ,
3, ,-43, ,
1, ,-42, ,
-1, ,-42, ,
1, ,-43, ,
4, ,-43, ,
4, ,-43, ,
0, ,-42, ,
6, ,-43, ,
6, ,-42, ,
10, ,-43, ,
1, ,-43, ,
8, ,-42, ,
8, ,-43, ,
4, ,-42, ,
3, ,-42, ,
4, ,-42, ,
5, ,-43, ,
5, ,-42, ,
3, ,-43, ,
3, ,-42, ,
4, ,-42, ,
1, ,-43, ,
1, ,-42, ,
4, ,-42, ,
5, ,-43, ,
8, ,-43, ,
3, ,-42, ,
10, ,-42, ,
5, ,-43, ,
5, ,-42, ,
4, ,-43, ,
3, ,-43, ,
3, ,-42, ,
4, ,-42, ,
0, ,-42, ,
5, ,-42, ,
5, ,-43, ,
4, ,-43, ,
4, ,-42, ,
4, ,-42, ,
4, ,-43, ,
3, ,-42, ,
3, ,-43, ,
3, ,-42, ,
6, ,-43, ,
1, ,-43, ,
-2, ,-42, ,
4, ,-42, ,
3, ,-43, ,
3, ,-42, ,
-2, ,-42, ,
4, ,-42, ,
3, ,-42, ,
0, ,-42, ,
-1, ,-43, ,
3, ,-42, ,
0, ,-42, ,
1, ,-42, ,
-6, ,-42, ,
-2, ,-42, ,
4, ,-43, ,
0, ,-42, ,
0, ,-42, ,
4, ,-42, ,
3, ,-43, ,
5, ,-42, ,
-1, ,-43, ,
4, ,-42, ,
3, ,-42, ,
3, ,-42, ,
-6, ,-42, ,
-2, ,-42, ,
1, ,-43, ,
1, ,-42, ,
-1, ,-42, ,
1, ,-43, ,
0, ,-43, ,
-1, ,-42, ,
-7, ,-43, ,
-4, ,-42, ,
-4, ,-42, ,
-1, ,-43, ,
-6, ,-42, ,
-2, ,-42, ,
0, ,-43, ,
-1, ,-42, ,
-5, ,-42, ,
1, ,-42, ,
3, ,-43, ,
3, ,-42, ,
-1, ,-43, ,
-1, ,-43, ,
-1, ,-42, ,
-1, ,-43, ,
-6, ,-42, ,
1, ,-42, ,
1, ,-43, ,
-1, ,-42, ,
-7, ,-42, ,
1, ,-42, ,
0, ,-43, ,
0, ,-42, ,
-1, ,-42, ,
-1, ,-43, ,
-1, ,-42, ,
0, ,-43, ,
-5, ,-42, ,
3, ,-42, ,
3, ,-43, ,
0, ,-42, ,
-1, ,-42, ,
0, ,-42, ,
1, ,-42, ,
4, ,-42, ,
1, ,-42, ,
0, ,-42, ,
0, ,-42, ,
0, ,-43, ,
-5, ,-42, ,
-2, ,-42, ,
-1, ,-43, ,
-2, ,-42, ,
-6, ,-42, ,
0, ,-42, ,
0, ,-42, ,
-2, ,-42, ,
-4, ,-43, ,
-1, ,-42, ,
-4, ,-42, ,
1, ,-43, ,
-7, ,-42, ,
-1, ,-42, ,
1, ,-43, ,
-6, ,-43, ,
-7, ,-42, ,
-2, ,-42, ,
-5, ,-43, ,
-1, ,-42, ,
-4, ,-43, ,
-1, ,-43, ,
-1, ,-42, ,
-2, ,-43, ,
-6, ,-42, ,
-5, ,-42, ,
0, ,-43, ,
-4, ,-42, ,
-10, ,-42, ,
3, ,-42, ,
-1, ,-43, ,
-1, ,-42, ,
-2, ,-43, ,
-1, ,-43, ,
-1, ,-43, ,
1, ,-42, ,
-9, ,-42, ,
-5, ,-42, ,
-2, ,-43, ,
-4, ,-43, ,
-5, ,-42, ,
0, ,-42, ,
-2, ,-42, ,
-2, ,-42, ,
-6, ,-43, ,
-2, ,-43, ,
1, ,-42, ,
1, ,-42, ,
-4, ,-42, ,
4, ,-42, ,
3, ,-43, ,
-1, ,-42, ,
-5, ,-42, ,
0, ,-42, ,
0, ,-43, ,
-2, ,-42, ,
-1, ,-43, ,
0, ,-42, ,
1, ,-42, ,
3, ,-42, ,
-5, ,-42, ,
1, ,-42, ,
0, ,-43, ,
-2, ,-43, ,
-5, ,-42, ,
1, ,-42, ,
0, ,-42, ,
4, ,-42, ,
0, ,-42, ,
4, ,-43, ,
4, ,-42, ,
3, ,-43, ,
-4, ,-42, ,
0, ,-42, ,
0, ,-43, ,
-1, ,-42, ,
-5, ,-42, ,
0, ,-42, ,
-1, ,-43, ,
0, ,-42, ,
-5, ,-43, ,
1, ,-43, ,
3, ,-42, ,
5, ,-42, ,
3, ,-42, ,
4, ,-42, ,
5, ,-43, ,
3, ,-42, ,
-1, ,-42, ,
4, ,-43, ,
0, ,-43, ,
0, ,-42, ,
-4, ,-43, ,
0, ,-42, ,
5, ,-42, ,
4, ,-43, ,
0, ,-42, ,
4, ,-42, ,
3, ,-43, ,
0, ,-42, ,
-6, ,-42, ,
-1, ,-42, ,
0, ,-43, ,
0, ,-42, ,
0, ,-43, ,
3, ,-43, ,
3, ,-43, ,
5, ,-43, ,
-4, ,-42, ,
3, ,-42, ,
5, ,-43, ,
1, ,-43, ,
-2, ,-42, ,
4, ,-42, ,
1, ,-43, ,
1, ,-42, ,
3, ,-42, ,
3, ,-43, ,
3, ,-42, ,
3, ,-43, ,
-2, ,-42, ,
3, ,-42, ,
1, ,-43, ,
0, ,-43, ,
0, ,-42, ,
1, ,-42, ,
4, ,-43, ,
3, ,-42, ,
-1, ,-43, ,
3, ,-42, ,
4, ,-42, ,
6, ,-43, ,
0, ,-42, ,
4, ,-42, ,
6, ,-43, ,
4, ,-43, ,
3, ,-42, ,
6, ,-42, ,
0, ,-43, ,
1, ,-42, ,
3, ,-43, ,
5, ,-42, ,
5, ,-42, ,
9, ,-42, ,
6, ,-42, ,
4, ,-42, ,
5, ,-43, ,
5, ,-42, ,
-2, ,-42, ,
3, ,-42, ,
5, ,-42, ,
8, ,-42, ,
4, ,-43, ,
8, ,-42, ,
5, ,-42, ,
8, ,-42, ,
4, ,-42, ,
4, ,-42, ,
6, ,-43, ,
8, ,-42, ,
5, ,-42, ,
5, ,-42, ,
4, ,-43, ,
4, ,-42, ,
1, ,-43, ,
4, ,-42, ,
4, ,-42, ,
6, ,-43, ,
0, ,-42, ,
5, ,-42, ,
5, ,-43, ,
5, ,-42, ,
1, ,-42, ,
4, ,-42, ,
5, ,-43, ,
1, ,-43, ,
-1, ,-43, ,
1, ,-42, ,
-1, ,-43, ,
1, ,-43, ,
-4, ,-42, ,
3, ,-42, ,
5, ,-43, ,
0, ,-42, ,
-1, ,-42, ,
4, ,-42, ,
-1, ,-43, ,
3, ,-42, ,
3, ,-43, ,
5, ,-42, ,
4, ,-42, ,
5, ,-42, ,
-1, ,-42, ,
1, ,-42, ,
3, ,-43, ,
0, ,-42, ,
-2, ,-42, ,
4, ,-42, ,
3, ,-43, ,
0, ,-42, ,
-1, ,-42, ,
1, ,-43, ,
1, ,-42, ,
3, ,-43, ,
-2, ,-42, ,
4, ,-42, ,
6, ,-43, ,
3, ,-42, ,
-2, ,-42, ,
8, ,-42, ,
3, ,-43, ,
4, ,-42, ,
-1, ,-43, ,
-2, ,-43, ,
0, ,-42, ,
-1, ,-43, ,
-5, ,-42, ,
0, ,-42, ,
1, ,-43, ,
3, ,-42, ,
1, ,-42, ,
5, ,-42, ,
5, ,-42, ,
-2, ,-42, ,
-5, ,-43, ,
-5, ,-43, ,
-1, ,-42, ,
5, ,-43, ,
-2, ,-42, ,
5, ,-42, ,
5, ,-43, ,
0, ,-43, ,
-2, ,-42, ,
0, ,-42, ,
0, ,-43, ,
-1, ,-42, ,
0, ,-43, ,
0, ,-43, ,
1, ,-42, ,
4, ,-42, ,
-4, ,-42, ,
0, ,-42, ,
-1, ,-43, ,
0, ,-42, ,
0, ,-42, ,
4, ,-42, ,
5, ,-43, ,
4, ,-42, ,
-1, ,-43, ,
0, ,-43, ,
-2, ,-42, ,
0, ,-43, ,
-7, ,-42, ,
0, ,-42, ,
3, ,-43, ,
1, ,-43, ,
-1, ,-42, ,
1, ,-43, ,
-4, ,-43, ,
-1, ,-42, ,
-6, ,-43, ,
-1, ,-43, ,
-1, ,-42, ,
-1, ,-42, ,
-6, ,-43, ,
-1, ,-42, ,
1, ,-43, ,
-1, ,-42, ,
-6, ,-42, ,
3, ,-42, ,
-1, ,-42, ,
0, ,-42, ,
-2, ,-42, ,
-1, ,-43, ,
0, ,-42, ,
-2, ,-42, ,
-6, ,-42, ,
-2, ,-42, ,
-2, ,-43, ,
1, ,-43, ,
-11, ,-42, ,
-6, ,-42, ,
3, ,-43, ,
-1, ,-42, ,
-4, ,-42, ,
-1, ,-43, ,
-1, ,-42, ,
1, ,-42, ,
-7, ,-42, ,
-1, ,-42, ,
0, ,-43, ,
0, ,-42, ,
-2, ,-42, ,
3, ,-42, ,
3, ,-43, ,
-1, ,-42, ,
-2, ,-43, ,
-1, ,-43, ,
-2, ,-42, ,
0, ,-43, ,
-9, ,-42, ,
-1, ,-42, ,
3, ,-43, ,
0, ,-43, ,
-2, ,-42, ,
5, ,-43, ,
4, ,-42, ,
4, ,-42, ,
1, ,-43, ,
1, ,-43, ,
-1, ,-42, ,
8, ,-43, ,
-2, ,-42, ,
0, ,-42, ,
1, ,-43, ,
-5, ,-42, ,
-9, ,-42, ,
-1, ,-42, ,
-4, ,-42, ,
-1, ,-42, ,
-4, ,-43, ,
1, ,-43, ,
