src/vary_am2_1411/temp0004165.CSV

Format,1.0B,
Memory Length,10000,Memory Length,10000,
IntpDistance,0,IntpDistance,0,
Trigger Address,4999,Trigger Address,4999,
Trigger Level,-1.000E+00,Trigger Level,-1.000E+00,
Source,CH1,Source,CH2,
Vertical Units,V,Vertical Units,V,
Vertical Units Div,0,Vertical Units Div,0,
Vertical Units Extend Div,16,Vertical Units Extend Div,16,
Label,,Label,,
Probe Type,0,Probe Type,0,
Probe Ratio,1.000e+01,Probe Ratio,1.000e+00,
Vertical Scale,2.000e-02,Vertical Scale,1.000e+00,
Vertical Position,-5.120e-02,Vertical Position,2.000e-01,
Horizontal Units,S,Horizontal Units,S,
Horizontal Scale,1.000E-05,Horizontal Scale,1.000E-05,
Horizontal Position,0.000E+00,Horizontal Position,0.000E+00,
Horizontal Mode,Main,Horizontal Mode,Main,
SincET Mode,Real Time,SincET Mode,Real Time,
Sampling Period,1.000e-08,Sampling Period,1.000e-08,
Horizontal Old Scale,1.000E-05,Horizontal Old Scale,1.000E-05,
Horizontal Old Position,0.000E+00,Horizontal Old Position,0.000E+00,
Firmware,V1.23,Firmware,V1.23,
Mode,Fast,Mode,Fast,
Waveform Data,,Waveform Data,,
4, ,-35, ,
6, ,-35, ,
5, ,-35, ,
4, ,-35, ,
5, ,-35, ,
4, ,-35, ,
-1, ,-35, ,
-4, ,-35, ,
3, ,-35, ,
1, ,-35, ,
0, ,-35, ,
0, ,-35, ,
0, ,-35, ,
-1, ,-35, ,
1, ,-35, ,
-6, ,-35, ,
0, ,-35, ,
3, ,-35, ,
0, ,-35, ,
-1, ,-35, ,
3, ,-35, ,
0, ,-35, ,
1, ,-35, ,
-2, ,-35, ,
-1, ,-35, ,
-1, ,-35, ,
0, ,-35, ,
-5, ,-35, ,
1, ,-35, ,
5, ,-35, ,
1, ,-35, ,
1, ,-35, ,
4, ,-35, ,
0, ,-35, ,
0, ,-35, ,
-1, ,-36, ,
-1, ,-35, ,
0, ,-35, ,
3, ,-35, ,
-1, ,-35, ,
1, ,-36, ,
4, ,-35, ,
0, ,-35, ,
-4, ,-35, ,
1, ,-35, ,
-2, ,-35, ,
-1, ,-36, ,
-1, ,-36, ,
0, ,-35, ,
3, ,-35, ,
3, ,-35, ,
-4, ,-35, ,
1, ,-35, ,
4, ,-35, ,
0, ,-35, ,
-1, ,-35, ,
8, ,-35, ,
6, ,-35, ,
5, ,-35, ,
3, ,-35, ,
0, ,-35, ,
-2, ,-35, ,
-2, ,-35, ,
-7, ,-35, ,
-1, ,-35, ,
0, ,-35, ,
0, ,-35, ,
-2, ,-35, ,
4, ,-35, ,
3, ,-35, ,
3, ,-35, ,
0, ,-35, ,
0, ,-35, ,
0, ,-35, ,
0, ,-35, ,
-4, ,-35, ,
1, ,-35, ,
4, ,-35, ,
-2, ,-35, ,
0, ,-35, ,
-1, ,-35, ,
-6, ,-35, ,
-1, ,-36, ,
-2, ,-35, ,
-1, ,-35, ,
-1, ,-35, ,
3, ,-35, ,
-5, ,-35, ,
1, ,-35, ,
1, ,-35, ,
-2, ,-35, ,
-5, ,-35, ,
1, ,-35, ,
-2, ,-35, ,
-2, ,-35, ,
-1, ,-35, ,
0, ,-35, ,
-1, ,-35, ,
-2, ,-35, ,
-7, ,-35, ,
-5, ,-35, ,
-1, ,-35, ,
-6, ,-35, ,
-5, ,-35, ,
1, ,-35, ,
1, ,-35, ,
1, ,-35, ,
-1, ,-35, ,
-4, ,-35, ,
-4, ,-35, ,
1, ,-35, ,
-4, ,-35, ,
-2, ,-35, ,
5, ,-35, ,
-1, ,-35, ,
-2, ,-35, ,
3, ,-35, ,
-4, ,-35, ,
-2, ,-35, ,
-2, ,-35, ,
-2, ,-35, ,
1, ,-36, ,
0, ,-35, ,
-4, ,-35, ,
1, ,-35, ,
-1, ,-35, ,
-1, ,-35, ,
-4, ,-35, ,
1, ,-35, ,
3, ,-35, ,
1, ,-35, ,
4, ,-35, ,
6, ,-35, ,
3, ,-35, ,
5, ,-35, ,
0, ,-35, ,
3, ,-35, ,
1, ,-35, ,
0, ,-35, ,
-2, ,-35, ,
3, ,-35, ,
3, ,-35, ,
4, ,-35, ,
5, ,-35, ,
4, ,-35, ,
6, ,-35, ,
5, ,-35, ,
-2, ,-35, ,
1, ,-35, ,
4, ,-35, ,
1, ,-35, ,
1, ,-35, ,
5, ,-35, ,
1, ,-35, ,
0, ,-35, ,
0, ,-36, ,
3, ,-35, ,
4, ,-35, ,
5, ,-35, ,
-1, ,-35, ,
3, ,-36, ,
4, ,-35, ,
1, ,-35, ,
-2, ,-35, ,
1, ,-35, ,
-2, ,-35, ,
1, ,-35, ,
0, ,-35, ,
1, ,-35, ,
3, ,-35, ,
4, ,-35, ,
-1, ,-35, ,
1, ,-36, ,
4, ,-35, ,
1, ,-35, ,
0, ,-35, ,
6, ,-35, ,
4, ,-35, ,
3, ,-35, ,
3, ,-35, ,
0, ,-35, ,
0, ,-35, ,
1, ,-35, ,
-5, ,-35, ,
0, ,-35, ,
1, ,-35, ,
0, ,-35, ,
-2, ,-35, ,
6, ,-35, ,
4, ,-35, ,
3, ,-35, ,
5, ,-35, ,
5, ,-35, ,
5, ,-35, ,
6, ,-35, ,
-1, ,-35, ,
4, ,-35, ,
4, ,-35, ,
-1, ,-35, ,
-1, ,-35, ,
3, ,-35, ,
4, ,-35, ,
3, ,-35, ,
1, ,-36, ,
3, ,-35, ,
3, ,-35, ,
8, ,-35, ,
1, ,-35, ,
5, ,-36, ,
6, ,-35, ,
4, ,-35, ,
3, ,-35, ,
8, ,-35, ,
3, ,-35, ,
4, ,-35, ,
8, ,-36, ,
8, ,-35, ,
8, ,-35, ,
9, ,-35, ,
3, ,-35, ,
4, ,-36, ,
5, ,-35, ,
0, ,-35, ,
-4, ,-35, ,
5, ,-35, ,
1, ,-35, ,
4, ,-35, ,
1, ,-35, ,
0, ,-35, ,
4, ,-35, ,
6, ,-35, ,
4, ,-35, ,
8, ,-35, ,
10, ,-35, ,
5, ,-35, ,
0, ,-35, ,
8, ,-35, ,
6, ,-35, ,
6, ,-35, ,
0, ,-35, ,
3, ,-35, ,
3, ,-35, ,
5, ,-35, ,
3, ,-35, ,
9, ,-35, ,
10, ,-35, ,
8, ,-35, ,
3, ,-35, ,
9, ,-35, ,
8, ,-35, ,
4, ,-35, ,
5, ,-36, ,
4, ,-35, ,
5, ,-35, ,
9, ,-35, ,
-1, ,-35, ,
5, ,-35, ,
6, ,-35, ,
1, ,-35, ,
-1, ,-36, ,
1, ,-35, ,
4, ,-35, ,
1, ,-35, ,
1, ,-35, ,
4, ,-35, ,
1, ,-35, ,
8, ,-35, ,
1, ,-35, ,
3, ,-35, ,
6, ,-35, ,
1, ,-35, ,
0, ,-35, ,
8, ,-36, ,
3, ,-35, ,
4, ,-35, ,
1, ,-36, ,
3, ,-35, ,
0, ,-35, ,
5, ,-35, ,
-1, ,-35, ,
5, ,-36, ,
8, ,-35, ,
4, ,-35, ,
3, ,-35, ,
5, ,-35, ,
3, ,-36, ,
1, ,-35, ,
-2, ,-35, ,
0, ,-35, ,
3, ,-35, ,
5, ,-36, ,
3, ,-35, ,
6, ,-35, ,
9, ,-35, ,
8, ,-36, ,
0, ,-35, ,
6, ,-35, ,
4, ,-35, ,
1, ,-35, ,
3, ,-36, ,
1, ,-35, ,
1, ,-35, ,
4, ,-35, ,
-2, ,-35, ,
1, ,-35, ,
4, ,-35, ,
0, ,-35, ,
0, ,-35, ,
3, ,-35, ,
1, ,-31, ,
-1, ,-23, ,
0, ,-13, ,
5, ,-4, ,
6, ,4, ,
10, ,12, ,
0, ,18, ,
5, ,25, ,
6, ,29, ,
4, ,33, ,
4, ,36, ,
10, ,39, ,
8, ,41, ,
5, ,45, ,
0, ,47, ,
1, ,48, ,
-2, ,50, ,
5, ,51, ,
-2, ,51, ,
4, ,53, ,
9, ,53, ,
4, ,54, ,
1, ,55, ,
3, ,55, ,
-2, ,55, ,
-1, ,57, ,
1, ,56, ,
0, ,56, ,
1, ,57, ,
4, ,57, ,
-1, ,56, ,
0, ,58, ,
0, ,56, ,
0, ,57, ,
-6, ,58, ,
5, ,58, ,
0, ,57, ,
0, ,58, ,
1, ,58, ,
3, ,57, ,
1, ,58, ,
4, ,59, ,
-4, ,57, ,
3, ,59, ,
3, ,57, ,
1, ,57, ,
0, ,58, ,
5, ,59, ,
-1, ,57, ,
0, ,58, ,
0, ,58, ,
-1, ,58, ,
-1, ,58, ,
0, ,58, ,
-9, ,57, ,
-4, ,59, ,
4, ,57, ,
0, ,57, ,
-1, ,58, ,
8, ,58, ,
4, ,56, ,
-1, ,58, ,
-1, ,58, ,
0, ,58, ,
1, ,58, ,
3, ,58, ,
-4, ,56, ,
1, ,59, ,
1, ,57, ,
-1, ,57, ,
-4, ,58, ,
-1, ,58, ,
-1, ,56, ,
3, ,58, ,
0, ,58, ,
1, ,57, ,
1, ,58, ,
4, ,58, ,
-5, ,57, ,
3, ,59, ,
3, ,57, ,
-1, ,57, ,
-5, ,58, ,
4, ,57, ,
-2, ,56, ,
-1, ,58, ,
-2, ,57, ,
1, ,57, ,
-1, ,57, ,
1, ,58, ,
-6, ,57, ,
0, ,58, ,
3, ,57, ,
0, ,57, ,
-1, ,58, ,
1, ,57, ,
-4, ,56, ,
0, ,58, ,
-1, ,57, ,
-1, ,57, ,
-2, ,57, ,
4, ,58, ,
-7, ,57, ,
-6, ,58, ,
3, ,57, ,
1, ,57, ,
-4, ,57, ,
3, ,58, ,
-2, ,56, ,
-2, ,58, ,
-2, ,58, ,
-1, ,57, ,
-5, ,57, ,
-1, ,58, ,
-6, ,56, ,
1, ,58, ,
1, ,57, ,
1, ,58, ,
-4, ,58, ,
4, ,58, ,
-1, ,56, ,
4, ,58, ,
4, ,57, ,
5, ,57, ,
3, ,57, ,
5, ,57, ,
-4, ,56, ,
0, ,58, ,
3, ,56, ,
3, ,57, ,
-1, ,58, ,
5, ,58, ,
6, ,56, ,
0, ,58, ,
0, ,57, ,
1, ,57, ,
-2, ,57, ,
5, ,58, ,
-2, ,56, ,
1, ,58, ,
4, ,57, ,
3, ,57, ,
0, ,58, ,
6, ,58, ,
3, ,56, ,
8, ,58, ,
4, ,57, ,
6, ,57, ,
5, ,57, ,
5, ,58, ,
1, ,56, ,
4, ,59, ,
5, ,57, ,
1, ,57, ,
-2, ,58, ,
5, ,57, ,
3, ,55, ,
1, ,58, ,
0, ,58, ,
3, ,57, ,
3, ,57, ,
5, ,57, ,
-2, ,56, ,
3, ,58, ,
3, ,57, ,
0, ,57, ,
-5, ,58, ,
5, ,58, ,
0, ,56, ,
0, ,58, ,
1, ,58, ,
1, ,57, ,
4, ,57, ,
-9, ,58, ,
-2, ,56, ,
8, ,59, ,
-1, ,57, ,
6, ,57, ,
-1, ,58, ,
8, ,58, ,
3, ,56, ,
3, ,58, ,
4, ,58, ,
4, ,57, ,
1, ,57, ,
5, ,58, ,
-2, ,56, ,
3, ,59, ,
1, ,57, ,
-2, ,57, ,
-5, ,58, ,
4, ,58, ,
-2, ,56, ,
1, ,58, ,
1, ,58, ,
4, ,57, ,
4, ,57, ,
9, ,58, ,
1, ,56, ,
5, ,58, ,
6, ,57, ,
-1, ,57, ,
-2, ,58, ,
3, ,58, ,
-1, ,56, ,
4, ,58, ,
3, ,58, ,
3, ,57, ,
1, ,58, ,
4, ,58, ,
0, ,56, ,
-1, ,59, ,
3, ,57, ,
-1, ,57, ,
-2, ,58, ,
5, ,57, ,
3, ,56, ,
4, ,58, ,
4, ,57, ,
4, ,57, ,
5, ,58, ,
4, ,58, ,
-2, ,56, ,
5, ,59, ,
4, ,56, ,
4, ,57, ,
3, ,58, ,
8, ,58, ,
-1, ,56, ,
4, ,58, ,
0, ,57, ,
-1, ,57, ,
5, ,57, ,
5, ,58, ,
3, ,56, ,
8, ,58, ,
5, ,56, ,
5, ,57, ,
-2, ,58, ,
5, ,58, ,
0, ,56, ,
1, ,58, ,
0, ,57, ,
3, ,57, ,
5, ,57, ,
6, ,58, ,
-1, ,56, ,
3, ,58, ,
4, ,57, ,
-2, ,57, ,
-5, ,58, ,
4, ,58, ,
4, ,56, ,
3, ,58, ,
4, ,57, ,
3, ,57, ,
-1, ,57, ,
4, ,58, ,
-5, ,56, ,
3, ,58, ,
9, ,57, ,
0, ,57, ,
0, ,58, ,
3, ,58, ,
-4, ,56, ,
0, ,58, ,
-5, ,57, ,
-2, ,57, ,
-2, ,57, ,
0, ,58, ,
-10, ,56, ,
-9, ,58, ,
-9, ,56, ,
-15, ,57, ,
-21, ,58, ,
-6, ,58, ,
-1, ,56, ,
9, ,59, ,
15, ,57, ,
23, ,57, ,
21, ,57, ,
16, ,58, ,
5, ,56, ,
0, ,58, ,
0, ,57, ,
-2, ,57, ,
-6, ,58, ,
3, ,58, ,
1, ,55, ,
1, ,57, ,
-2, ,57, ,
-1, ,57, ,
0, ,57, ,
3, ,58, ,
-6, ,56, ,
0, ,59, ,
3, ,57, ,
-1, ,57, ,
-4, ,57, ,
1, ,58, ,
-2, ,56, ,
-4, ,58, ,
-6, ,57, ,
-1, ,57, ,
4, ,57, ,
9, ,58, ,
1, ,56, ,
3, ,58, ,
-1, ,56, ,
-6, ,56, ,
-10, ,58, ,
-5, ,58, ,
-5, ,56, ,
-1, ,58, ,
0, ,57, ,
3, ,57, ,
4, ,57, ,
6, ,57, ,
1, ,56, ,
5, ,58, ,
5, ,56, ,
0, ,57, ,
-6, ,58, ,
-2, ,58, ,
-6, ,55, ,
-6, ,58, ,
-7, ,58, ,
1, ,57, ,
1, ,57, ,
4, ,58, ,
-4, ,56, ,
0, ,59, ,
1, ,56, ,
-4, ,57, ,
-2, ,58, ,
4, ,58, ,
4, ,56, ,
5, ,58, ,
1, ,57, ,
-1, ,57, ,
0, ,57, ,
-1, ,58, ,
-5, ,56, ,
3, ,58, ,
3, ,56, ,
1, ,57, ,
-1, ,58, ,
3, ,58, ,
-4, ,56, ,
-1, ,58, ,
-5, ,57, ,
-1, ,57, ,
0, ,57, ,
6, ,58, ,
-2, ,56, ,
3, ,58, ,
3, ,56, ,
1, ,57, ,
-1, ,58, ,
6, ,58, ,
4, ,56, ,
6, ,58, ,
3, ,57, ,
1, ,57, ,
3, ,57, ,
3, ,58, ,
-2, ,56, ,
4, ,58, ,
4, ,56, ,
4, ,57, ,
3, ,58, ,
9, ,57, ,
5, ,56, ,
5, ,58, ,
4, ,57, ,
4, ,57, ,
1, ,57, ,
3, ,57, ,
-2, ,56, ,
1, ,58, ,
4, ,57, ,
0, ,57, ,
-1, ,58, ,
8, ,58, ,
3, ,56, ,
5, ,58, ,
3, ,58, ,
6, ,57, ,
5, ,57, ,
6, ,58, ,
0, ,56, ,
4, ,58, ,
8, ,56, ,
3, ,57, ,
4, ,57, ,
8, ,58, ,
4, ,55, ,
4, ,58, ,
-1, ,57, ,
1, ,57, ,
1, ,57, ,
6, ,58, ,
0, ,56, ,
6, ,58, ,
9, ,57, ,
5, ,57, ,
-1, ,58, ,
6, ,57, ,
1, ,56, ,
0, ,57, ,
-1, ,57, ,
1, ,57, ,
-1, ,58, ,
5, ,58, ,
-5, ,56, ,
4, ,58, ,
1, ,57, ,
0, ,57, ,
3, ,58, ,
8, ,58, ,
6, ,56, ,
6, ,58, ,
4, ,57, ,
4, ,57, ,
0, ,57, ,
5, ,57, ,
-4, ,56, ,
5, ,58, ,
6, ,57, ,
5, ,57, ,
4, ,58, ,
8, ,57, ,
4, ,55, ,
3, ,57, ,
3, ,58, ,
5, ,57, ,
5, ,57, ,
5, ,58, ,
-1, ,56, ,
4, ,59, ,
9, ,57, ,
5, ,57, ,
6, ,58, ,
8, ,57, ,
5, ,56, ,
4, ,58, ,
3, ,57, ,
4, ,57, ,
3, ,57, ,
6, ,57, ,
0, ,56, ,
5, ,58, ,
9, ,56, ,
1, ,57, ,
-4, ,58, ,
0, ,57, ,
-2, ,56, ,
3, ,57, ,
1, ,58, ,
3, ,57, ,
6, ,57, ,
4, ,58, ,
-1, ,56, ,
1, ,58, ,
4, ,57, ,
3, ,57, ,
0, ,58, ,
10, ,58, ,
4, ,56, ,
5, ,58, ,
3, ,57, ,
0, ,57, ,
-1, ,57, ,
1, ,58, ,
-6, ,56, ,
4, ,59, ,
5, ,56, ,
4, ,57, ,
4, ,57, ,
9, ,58, ,
6, ,56, ,
8, ,58, ,
8, ,57, ,
5, ,57, ,
5, ,58, ,
6, ,58, ,
-1, ,56, ,
5, ,58, ,
3, ,57, ,
-1, ,57, ,
-1, ,58, ,
4, ,58, ,
5, ,56, ,
4, ,58, ,
4, ,57, ,
4, ,57, ,
9, ,57, ,
9, ,57, ,
5, ,56, ,
6, ,58, ,
9, ,56, ,
6, ,57, ,
0, ,58, ,
1, ,58, ,
-4, ,56, ,
0, ,58, ,
4, ,57, ,
8, ,57, ,
11, ,57, ,
9, ,58, ,
5, ,56, ,
3, ,58, ,
0, ,57, ,
-2, ,57, ,
-4, ,58, ,
8, ,58, ,
6, ,56, ,
6, ,58, ,
1, ,57, ,
4, ,57, ,
1, ,57, ,
5, ,58, ,
0, ,56, ,
8, ,58, ,
13, ,56, ,
10, ,57, ,
3, ,58, ,
8, ,58, ,
1, ,56, ,
0, ,58, ,
0, ,57, ,
4, ,57, ,
6, ,57, ,
10, ,58, ,
1, ,56, ,
5, ,58, ,
4, ,56, ,
-2, ,57, ,
-5, ,57, ,
3, ,58, ,
1, ,56, ,
0, ,58, ,
0, ,57, ,
0, ,57, ,
-2, ,57, ,
1, ,58, ,
-7, ,56, ,
0, ,58, ,
0, ,57, ,
-1, ,57, ,
-5, ,58, ,
1, ,58, ,
-5, ,56, ,
-2, ,58, ,
-5, ,57, ,
1, ,57, ,
-1, ,57, ,
3, ,58, ,
-5, ,56, ,
-1, ,58, ,
0, ,56, ,
-2, ,57, ,
-6, ,58, ,
0, ,58, ,
0, ,56, ,
0, ,58, ,
-5, ,57, ,
-4, ,57, ,
-9, ,57, ,
-5, ,58, ,
-10, ,56, ,
-4, ,58, ,
-1, ,56, ,
-6, ,57, ,
-10, ,58, ,
-5, ,58, ,
-7, ,56, ,
-4, ,58, ,
-5, ,57, ,
-4, ,57, ,
0, ,57, ,
4, ,58, ,
-1, ,55, ,
0, ,58, ,
-2, ,56, ,
-5, ,57, ,
-5, ,57, ,
-1, ,58, ,
0, ,56, ,
-5, ,57, ,
-5, ,57, ,
-5, ,56, ,
-2, ,57, ,
-1, ,57, ,
-6, ,56, ,
-1, ,58, ,
0, ,57, ,
-2, ,57, ,
-9, ,58, ,
1, ,58, ,
-1, ,56, ,
-1, ,58, ,
-2, ,57, ,
-4, ,57, ,
-5, ,57, ,
-2, ,58, ,
-7, ,56, ,
0, ,58, ,
-2, ,56, ,
-5, ,57, ,
-6, ,57, ,
0, ,57, ,
-5, ,56, ,
-4, ,58, ,
-5, ,57, ,
-2, ,57, ,
-4, ,57, ,
3, ,57, ,
-5, ,56, ,
0, ,59, ,
0, ,57, ,
-6, ,57, ,
-5, ,58, ,
-2, ,58, ,
-9, ,55, ,
-2, ,58, ,
-4, ,58, ,
1, ,57, ,
1, ,57, ,
0, ,58, ,
-4, ,56, ,
-1, ,58, ,
1, ,56, ,
-1, ,57, ,
-1, ,57, ,
3, ,58, ,
-1, ,56, ,
-2, ,58, ,
-4, ,57, ,
-1, ,57, ,
-5, ,57, ,
-2, ,57, ,
-5, ,56, ,
0, ,58, ,
3, ,57, ,
3, ,57, ,
-1, ,58, ,
5, ,57, ,
-2, ,56, ,
-1, ,58, ,
-4, ,58, ,
-1, ,57, ,
1, ,57, ,
4, ,58, ,
-2, ,56, ,
4, ,58, ,
5, ,57, ,
3, ,57, ,
-1, ,58, ,
6, ,58, ,
4, ,56, ,
3, ,58, ,
3, ,57, ,
3, ,57, ,
0, ,57, ,
5, ,58, ,
-2, ,56, ,
4, ,58, ,
5, ,57, ,
1, ,57, ,
0, ,57, ,
5, ,58, ,
3, ,56, ,
4, ,58, ,
1, ,57, ,
3, ,57, ,
9, ,57, ,
5, ,58, ,
-5, ,56, ,
8, ,58, ,
6, ,56, ,
5, ,57, ,
3, ,58, ,
11, ,58, ,
6, ,56, ,
8, ,58, ,
3, ,57, ,
5, ,57, ,
3, ,57, ,
4, ,57, ,
1, ,56, ,
6, ,58, ,
9, ,57, ,
5, ,57, ,
0, ,57, ,
8, ,58, ,
3, ,56, ,
5, ,58, ,
1, ,58, ,
4, ,57, ,
5, ,57, ,
10, ,58, ,
3, ,56, ,
8, ,58, ,
10, ,57, ,
3, ,57, ,
3, ,58, ,
8, ,58, ,
-1, ,56, ,
3, ,58, ,
1, ,57, ,
1, ,57, ,
4, ,57, ,
5, ,58, ,
-2, ,56, ,
4, ,58, ,
5, ,57, ,
4, ,58, ,
3, ,58, ,
9, ,58, ,
8, ,56, ,
6, ,58, ,
5, ,57, ,
5, ,57, ,
3, ,57, ,
6, ,58, ,
-4, ,56, ,
3, ,58, ,
4, ,56, ,
3, ,57, ,
1, ,58, ,
9, ,58, ,
8, ,56, ,
6, ,58, ,
6, ,57, ,
6, ,57, ,
5, ,57, ,
11, ,57, ,
3, ,56, ,
8, ,59, ,
11, ,57, ,
6, ,57, ,
4, ,58, ,
8, ,58, ,
4, ,56, ,
5, ,58, ,
4, ,57, ,
6, ,57, ,
9, ,57, ,
11, ,58, ,
4, ,56, ,
6, ,59, ,
9, ,57, ,
3, ,57, ,
0, ,57, ,
9, ,58, ,
5, ,56, ,
6, ,58, ,
5, ,57, ,
6, ,57, ,
5, ,57, ,
8, ,57, ,
0, ,56, ,
3, ,58, ,
8, ,57, ,
5, ,57, ,
1, ,58, ,
9, ,57, ,
5, ,56, ,
5, ,58, ,
4, ,57, ,
5, ,57, ,
5, ,57, ,
5, ,58, ,
-4, ,56, ,
4, ,58, ,
8, ,57, ,
4, ,57, ,
0, ,58, ,
6, ,58, ,
5, ,56, ,
1, ,57, ,
1, ,50, ,
4, ,40, ,
-2, ,31, ,
0, ,21, ,
-9, ,13, ,
-5, ,7, ,
-1, ,1, ,
-1, ,-4, ,
-4, ,-8, ,
0, ,-12, ,
-2, ,-16, ,
-5, ,-19, ,
-5, ,-21, ,
-1, ,-23, ,
1, ,-24, ,
4, ,-26, ,
-4, ,-27, ,
-2, ,-28, ,
0, ,-30, ,
-4, ,-30, ,
-7, ,-31, ,
3, ,-31, ,
0, ,-32, ,
3, ,-32, ,
-1, ,-33, ,
-1, ,-33, ,
-1, ,-33, ,
-1, ,-35, ,
-6, ,-35, ,
-2, ,-35, ,
0, ,-35, ,
-2, ,-35, ,
-2, ,-35, ,
0, ,-35, ,
0, ,-36, ,
-1, ,-36, ,
-2, ,-36, ,
-1, ,-35, ,
3, ,-36, ,
4, ,-36, ,
0, ,-36, ,
1, ,-36, ,
3, ,-36, ,
1, ,-36, ,
-5, ,-36, ,
3, ,-36, ,
-1, ,-36, ,
-4, ,-36, ,
-2, ,-36, ,
-2, ,-36, ,
0, ,-36, ,
4, ,-36, ,
-2, ,-36, ,
1, ,-36, ,
3, ,-36, ,
0, ,-35, ,
-2, ,-36, ,
5, ,-36, ,
3, ,-36, ,
3, ,-36, ,
3, ,-36, ,
1, ,-36, ,
1, ,-36, ,
0, ,-36, ,
-6, ,-35, ,
0, ,-36, ,
-1, ,-36, ,
-2, ,-36, ,
-6, ,-36, ,
1, ,-35, ,
0, ,-36, ,
-1, ,-36, ,
-2, ,-36, ,
0, ,-35, ,
-4, ,-35, ,
3, ,-36, ,
-6, ,-35, ,
-1, ,-36, ,
3, ,-36, ,
-6, ,-35, ,
-10, ,-35, ,
0, ,-35, ,
-6, ,-36, ,
-4, ,-36, ,
-4, ,-36, ,
-2, ,-35, ,
-1, ,-35, ,
0, ,-36, ,
-5, ,-35, ,
-1, ,-36, ,
0, ,-35, ,
-5, ,-36, ,
-7, ,-36, ,
0, ,-35, ,
-2, ,-36, ,
-1, ,-35, ,
-1, ,-36, ,
1, ,-35, ,
1, ,-36, ,
1, ,-36, ,
-2, ,-35, ,
0, ,-36, ,
0, ,-36, ,
-2, ,-36, ,
-6, ,-35, ,
1, ,-35, ,
-2, ,-35, ,
0, ,-35, ,
-2, ,-36, ,
-1, ,-35, ,
1, ,-35, ,
4, ,-35, ,
-5, ,-35, ,
3, ,-35, ,
3, ,-35, ,
1, ,-35, ,
-1, ,-35, ,
3, ,-36, ,
1, ,-35, ,
-1, ,-36, ,
-2, ,-35, ,
0, ,-35, ,
-1, ,-35, ,
5, ,-36, ,
-2, ,-35, ,
3, ,-36, ,
4, ,-35, ,
0, ,-35, ,
-2, ,-35, ,
3, ,-35, ,
-4, ,-35, ,
-1, ,-36, ,
-1, ,-35, ,
-1, ,-35, ,
1, ,-35, ,
4, ,-35, ,
-2, ,-35, ,
0, ,-36, ,
3, ,-35, ,
-1, ,-35, ,
-5, ,-35, ,
1, ,-35, ,
1, ,-35, ,
1, ,-35, ,
0, ,-36, ,
-2, ,-35, ,
-4, ,-36, ,
6, ,-35, ,
1, ,-35, ,
4, ,-36, ,
5, ,-35, ,
0, ,-35, ,
-2, ,-35, ,
4, ,-35, ,
-1, ,-35, ,
0, ,-35, ,
-1, ,-35, ,
-1, ,-35, ,
0, ,-35, ,
-2, ,-35, ,
-1, ,-35, ,
3, ,-35, ,
3, ,-35, ,
4, ,-35, ,
-1, ,-35, ,
4, ,-35, ,
0, ,-35, ,
-2, ,-35, ,
-4, ,-35, ,
1, ,-35, ,
1, ,-35, ,
3, ,-35, ,
-2, ,-35, ,
4, ,-36, ,
5, ,-35, ,
3, ,-35, ,
1, ,-35, ,
6, ,-35, ,
4, ,-35, ,
6, ,-35, ,
9, ,-36, ,
6, ,-35, ,
6, ,-36, ,
6, ,-35, ,
-1, ,-35, ,
3, ,-35, ,
3, ,-35, ,
1, ,-35, ,
-1, ,-35, ,
5, ,-36, ,
5, ,-35, ,
5, ,-35, ,
3, ,-35, ,
4, ,-35, ,
3, ,-35, ,
8, ,-35, ,
0, ,-35, ,
4, ,-36, ,
8, ,-35, ,
1, ,-35, ,
4, ,-35, ,
9, ,-35, ,
5, ,-35, ,
9, ,-35, ,
5, ,-36, ,
6, ,-35, ,
6, ,-35, ,
4, ,-35, ,
0, ,-35, ,
5, ,-36, ,
9, ,-35, ,
4, ,-35, ,
1, ,-35, ,
5, ,-35, ,
4, ,-36, ,
4, ,-35, ,
1, ,-35, ,
5, ,-35, ,
5, ,-35, ,
6, ,-35, ,
3, ,-35, ,
3, ,-35, ,
4, ,-35, ,
3, ,-35, ,
-2, ,-36, ,
5, ,-35, ,
0, ,-35, ,
-1, ,-35, ,
1, ,-35, ,
3, ,-35, ,
5, ,-35, ,
9, ,-35, ,
0, ,-35, ,
4, ,-36, ,
4, ,-35, ,
0, ,-35, ,
-1, ,-35, ,
5, ,-35, ,
6, ,-35, ,
4, ,-35, ,
1, ,-35, ,
-2, ,-35, ,
-5, ,-35, ,
-2, ,-35, ,
-7, ,-35, ,
3, ,-35, ,
6, ,-35, ,
4, ,-35, ,
3, ,-35, ,
5, ,-35, ,
-1, ,-35, ,
1, ,-35, ,
1, ,-35, ,
0, ,-35, ,
3, ,-35, ,
4, ,-35, ,
-1, ,-35, ,
1, ,-35, ,
5, ,-35, ,
1, ,-35, ,
3, ,-35, ,
3, ,-35, ,
1, ,-35, ,
4, ,-35, ,
3, ,-35, ,
4, ,-35, ,
0, ,-35, ,
4, ,-35, ,
-1, ,-35, ,
-6, ,-36, ,
-2, ,-35, ,
4, ,-35, ,
0, ,-35, ,
5, ,-35, ,
4, ,-35, ,
3, ,-35, ,
-1, ,-35, ,
0, ,-35, ,
4, ,-35, ,
3, ,-35, ,
-1, ,-35, ,
5, ,-35, ,
5, ,-35, ,
3, ,-35, ,
0, ,-35, ,
4, ,-35, ,
1, ,-35, ,
0, ,-35, ,
-2, ,-35, ,
0, ,-35, ,
-2, ,-35, ,
3, ,-35, ,
-6, ,-35, ,
-1, ,-35, ,
3, ,-35, ,
0, ,-35, ,
1, ,-35, ,
5, ,-35, ,
6, ,-35, ,
3, ,-35, ,
-2, ,-36, ,
1, ,-35, ,
0, ,-35, ,
3, ,-35, ,
-6, ,-35, ,
1, ,-35, ,
0, ,-35, ,
-6, ,-35, ,
-4, ,-35, ,
1, ,-35, ,
1, ,-35, ,
1, ,-35, ,
0, ,-35, ,
0, ,-35, ,
0, ,-35, ,
3, ,-35, ,
-5, ,-35, ,
-1, ,-36, ,
0, ,-35, ,
0, ,-35, ,
0, ,-35, ,
4, ,-35, ,
-1, ,-35, ,
1, ,-35, ,
-2, ,-35, ,
-2, ,-35, ,
-2, ,-35, ,
-2, ,-35, ,
-5, ,-35, ,
-1, ,-36, ,
3, ,-35, ,
-1, ,-35, ,
-4, ,-35, ,
1, ,-35, ,
0, ,-35, ,
-1, ,-35, ,
-1, ,-35, ,
3, ,-35, ,
4, ,-35, ,
9, ,-35, ,
0, ,-35, ,
-10, ,-35, ,
4, ,-35, ,
-2, ,-35, ,
-15, ,-36, ,
10, ,-35, ,
-2, ,-35, ,
0, ,-35, ,
0, ,-35, ,
-1, ,-35, ,
3, ,-35, ,
3, ,-35, ,
-1, ,-35, ,
0, ,-35, ,
5, ,-35, ,
0, ,-35, ,
0, ,-35, ,
4, ,-35, ,
4, ,-35, ,
3, ,-35, ,
0, ,-35, ,
0, ,-35, ,
1, ,-35, ,
3, ,-35, ,
-5, ,-35, ,
0, ,-35, ,
4, ,-35, ,
1, ,-35, ,
1, ,-35, ,
5, ,-35, ,
4, ,-35, ,
3, ,-35, ,
3, ,-35, ,
3, ,-35, ,
1, ,-35, ,
8, ,-35, ,
-4, ,-35, ,
0, ,-36, ,
3, ,-35, ,
-4, ,-35, ,
-6, ,-35, ,
0, ,-35, ,
-1, ,-35, ,
0, ,-35, ,
-1, ,-35, ,
1, ,-35, ,
1, ,-35, ,
4, ,-35, ,
-1, ,-35, ,
4, ,-35, ,
4, ,-35, ,
-1, ,-35, ,
-4, ,-35, ,
1, ,-35, ,
0, ,-35, ,
1, ,-35, ,
0, ,-35, ,
1, ,-35, ,
5, ,-35, ,
5, ,-35, ,
-2, ,-35, ,
1, ,-35, ,
1, ,-35, ,
1, ,-35, ,
-2, ,-35, ,
4, ,-35, ,
4, ,-35, ,
1, ,-35, ,
1, ,-35, ,
-1, ,-35, ,
-1, ,-35, ,
5, ,-35, ,
-1, ,-35, ,
4, ,-35, ,
9, ,-35, ,
4, ,-35, ,
3, ,-35, ,
5, ,-35, ,
4, ,-35, ,
3, ,-35, ,
4, ,-35, ,
3, ,-35, ,
5, ,-35, ,
8, ,-35, ,
0, ,-35, ,
6, ,-35, ,
6, ,-35, ,
1, ,-35, ,
-1, ,-35, ,
1, ,-35, ,
3, ,-35, ,
3, ,-35, ,
3, ,-35, ,
4, ,-35, ,
5, ,-35, ,
9, ,-35, ,
0, ,-35, ,
4, ,-36, ,
8, ,-35, ,
3, ,-35, ,
-1, ,-35, ,
6, ,-35, ,
5, ,-35, ,
5, ,-35, ,
4, ,-35, ,
5, ,-35, ,
5, ,-35, ,
8, ,-35, ,
-2, ,-35, ,
1, ,-35, ,
5, ,-35, ,
1, ,-35, ,
1, ,-35, ,
6, ,-35, ,
5, ,-35, ,
5, ,-35, ,
3, ,-35, ,
3, ,-35, ,
4, ,-35, ,
4, ,-35, ,
0, ,-35, ,
5, ,-35, ,
8, ,-35, ,
4, ,-35, ,
-1, ,-35, ,
0, ,-35, ,
-4, ,-35, ,
-2, ,-35, ,
0, ,-35, ,
3, ,-35, ,
4, ,-35, ,
5, ,-35, ,
3, ,-35, ,
5, ,-36, ,
8, ,-36, ,
4, ,-35, ,
-1, ,-35, ,
5, ,-35, ,
5, ,-35, ,
3, ,-35, ,
3, ,-35, ,
0, ,-35, ,
0, ,-35, ,
3, ,-35, ,
-4, ,-35, ,
0, ,-36, ,
5, ,-35, ,
1, ,-35, ,
-1, ,-35, ,
6, ,-35, ,
4, ,-35, ,
3, ,-35, ,
4, ,-35, ,
3, ,-35, ,
3, ,-36, ,
6, ,-35, ,
-1, ,-35, ,
3, ,-36, ,
5, ,-35, ,
1, ,-35, ,
1, ,-35, ,
4, ,-35, ,
1, ,-36, ,
4, ,-35, ,
1, ,-35, ,
3, ,-35, ,
4, ,-35, ,
5, ,-35, ,
3, ,-35, ,
3, ,-35, ,
10, ,-35, ,
4, ,-35, ,
3, ,-35, ,
5, ,-35, ,
0, ,-35, ,
1, ,-35, ,
-1, ,-35, ,
0, ,-35, ,
4, ,-35, ,
5, ,-35, ,
1, ,-35, ,
4, ,-35, ,
5, ,-35, ,
3, ,-35, ,
-1, ,-35, ,
3, ,-35, ,
3, ,-35, ,
3, ,-35, ,
3, ,-36, ,
1, ,-35, ,
1, ,-36, ,
3, ,-35, ,
-6, ,-35, ,
1, ,-35, ,
3, ,-35, ,
1, ,-35, ,
1, ,-35, ,
5, ,-35, ,
0, ,-35, ,
-1, ,-35, ,
-6, ,-36, ,
-6, ,-35, ,
-4, ,-35, ,
0, ,-35, ,
-5, ,-35, ,
-2, ,-35, ,
1, ,-35, ,
1, ,-35, ,
-1, ,-35, ,
1, ,-35, ,
0, ,-35, ,
-1, ,-35, ,
-2, ,-36, ,
1, ,-35, ,
-1, ,-35, ,
4, ,-36, ,
-1, ,-35, ,
0, ,-36, ,
5, ,-35, ,
-1, ,-35, ,
-1, ,-35, ,
4, ,-35, ,
1, ,-35, ,
4, ,-35, ,
1, ,-35, ,
0, ,-35, ,
-2, ,-35, ,
-4, ,-35, ,
-6, ,-35, ,
-2, ,-35, ,
1, ,-35, ,
-1, ,-35, ,
-4, ,-35, ,
4, ,-35, ,
3, ,-35, ,
1, ,-35, ,
0, ,-35, ,
1, ,-35, ,
3, ,-35, ,
1, ,-35, ,
-2, ,-35, ,
1, ,-36, ,
4, ,-35, ,
1, ,-35, ,
-5, ,-35, ,
1, ,-35, ,
-2, ,-35, ,
1, ,-35, ,
-2, ,-35, ,
-2, ,-35, ,
3, ,-35, ,
3, ,-35, ,
-4, ,-35, ,
1, ,-36, ,
0, ,-35, ,
1, ,-35, ,
-1, ,-35, ,
1, ,-35, ,
3, ,-35, ,
1, ,-35, ,
0, ,-35, ,
-1, ,-35, ,
0, ,-35, ,
1, ,-35, ,
-9, ,-35, ,
-4, ,-36, ,
0, ,-35, ,
0, ,-35, ,
-2, ,-35, ,
1, ,-35, ,
4, ,-35, ,
3, ,-35, ,
1, ,-35, ,
1, ,-35, ,
1, ,-35, ,
1, ,-35, ,
-2, ,-35, ,
-2, ,-35, ,
0, ,-35, ,
-2, ,-35, ,
-6, ,-35, ,
3, ,-35, ,
-1, ,-35, ,
0, ,-35, ,
-4, ,-35, ,
-2, ,-35, ,
-2, ,-35, ,
-1, ,-35, ,
-6, ,-35, ,
-1, ,-35, ,
3, ,-35, ,
0, ,-35, ,
-6, ,-35, ,
1, ,-35, ,
-5, ,-36, ,
0, ,-35, ,
-2, ,-35, ,
0, ,-35, ,
4, ,-35, ,
4, ,-35, ,
-1, ,-35, ,
-2, ,-36, ,
-1, ,-35, ,
-5, ,-35, ,
-7, ,-35, ,
0, ,-35, ,
-1, ,-35, ,
1, ,-35, ,
1, ,-36, ,
0, ,-35, ,
0, ,-35, ,
3, ,-35, ,
-4, ,-35, ,
3, ,-36, ,
