src/vary_am2_1411/temp0004610.CSV

Format,1.0B,
Memory Length,10000,Memory Length,10000,
IntpDistance,0,IntpDistance,0,
Trigger Address,4999,Trigger Address,4999,
Trigger Level,-1.000E+00,Trigger Level,-1.000E+00,
Source,CH1,Source,CH2,
Vertical Units,V,Vertical Units,V,
Vertical Units Div,0,Vertical Units Div,0,
Vertical Units Extend Div,16,Vertical Units Extend Div,16,
Label,,Label,,
Probe Type,0,Probe Type,0,
Probe Ratio,1.000e+01,Probe Ratio,1.000e+00,
Vertical Scale,2.000e-02,Vertical Scale,1.000e+00,
Vertical Position,-5.120e-02,Vertical Position,2.000e-01,
Horizontal Units,S,Horizontal Units,S,
Horizontal Scale,1.000E-05,Horizontal Scale,1.000E-05,
Horizontal Position,0.000E+00,Horizontal Position,0.000E+00,
Horizontal Mode,Main,Horizontal Mode,Main,
SincET Mode,Real Time,SincET Mode,Real Time,
Sampling Period,1.000e-08,Sampling Period,1.000e-08,
Horizontal Old Scale,1.000E-05,Horizontal Old Scale,1.000E-05,
Horizontal Old Position,0.000E+00,Horizontal Old Position,0.000E+00,
Firmware,V1.23,Firmware,V1.23,
Mode,Fast,Mode,Fast,
Waveform Data,,Waveform Data,,
0, ,-38, ,
0, ,-38, ,
4, ,-37, ,
3, ,-38, ,
5, ,-38, ,
6, ,-37, ,
3, ,-38, ,
0, ,-38, ,
4, ,-38, ,
4, ,-37, ,
3, ,-37, ,
1, ,-38, ,
1, ,-38, ,
3, ,-38, ,
4, ,-38, ,
0, ,-38, ,
4, ,-38, ,
4, ,-38, ,
0, ,-38, ,
-4, ,-38, ,
0, ,-37, ,
-2, ,-38, ,
1, ,-37, ,
-1, ,-37, ,
0, ,-38, ,
4, ,-38, ,
1, ,-37, ,
-2, ,-38, ,
0, ,-38, ,
0, ,-37, ,
1, ,-38, ,
-4, ,-38, ,
3, ,-38, ,
3, ,-38, ,
0, ,-37, ,
-1, ,-38, ,
-2, ,-38, ,
0, ,-37, ,
1, ,-37, ,
-6, ,-38, ,
1, ,-38, ,
3, ,-38, ,
3, ,-38, ,
1, ,-38, ,
1, ,-37, ,
-1, ,-38, ,
-5, ,-38, ,
-5, ,-38, ,
-2, ,-38, ,
1, ,-38, ,
1, ,-37, ,
-5, ,-37, ,
0, ,-38, ,
1, ,-37, ,
-1, ,-38, ,
-4, ,-38, ,
1, ,-37, ,
-1, ,-38, ,
-1, ,-38, ,
-1, ,-38, ,
1, ,-38, ,
1, ,-38, ,
-1, ,-38, ,
-6, ,-38, ,
-2, ,-38, ,
0, ,-38, ,
-2, ,-37, ,
-1, ,-38, ,
4, ,-37, ,
1, ,-38, ,
3, ,-38, ,
1, ,-37, ,
3, ,-38, ,
1, ,-38, ,
-1, ,-37, ,
-4, ,-38, ,
0, ,-38, ,
3, ,-38, ,
0, ,-38, ,
-2, ,-38, ,
-1, ,-37, ,
1, ,-38, ,
-2, ,-38, ,
-2, ,-37, ,
-2, ,-38, ,
-1, ,-38, ,
0, ,-38, ,
-2, ,-37, ,
4, ,-38, ,
5, ,-38, ,
1, ,-38, ,
-1, ,-38, ,
3, ,-37, ,
0, ,-37, ,
-2, ,-38, ,
-2, ,-38, ,
-4, ,-38, ,
-1, ,-38, ,
-2, ,-37, ,
-6, ,-38, ,
-1, ,-38, ,
0, ,-38, ,
-2, ,-38, ,
-4, ,-38, ,
-1, ,-38, ,
3, ,-38, ,
1, ,-38, ,
1, ,-38, ,
0, ,-38, ,
-2, ,-38, ,
1, ,-38, ,
-7, ,-38, ,
-1, ,-38, ,
-1, ,-37, ,
-1, ,-38, ,
-1, ,-38, ,
4, ,-38, ,
3, ,-38, ,
1, ,-38, ,
-2, ,-38, ,
-2, ,-38, ,
-1, ,-37, ,
-1, ,-37, ,
-4, ,-38, ,
0, ,-38, ,
1, ,-38, ,
1, ,-38, ,
0, ,-38, ,
5, ,-38, ,
3, ,-38, ,
-1, ,-37, ,
-2, ,-38, ,
-2, ,-38, ,
1, ,-38, ,
1, ,-38, ,
0, ,-37, ,
0, ,-38, ,
3, ,-38, ,
-2, ,-38, ,
-4, ,-38, ,
3, ,-37, ,
0, ,-38, ,
1, ,-38, ,
0, ,-37, ,
4, ,-38, ,
5, ,-38, ,
4, ,-38, ,
-1, ,-37, ,
0, ,-38, ,
0, ,-38, ,
1, ,-38, ,
-2, ,-38, ,
5, ,-38, ,
4, ,-38, ,
3, ,-37, ,
1, ,-37, ,
0, ,-38, ,
4, ,-38, ,
3, ,-38, ,
4, ,-38, ,
0, ,-38, ,
3, ,-38, ,
6, ,-38, ,
3, ,-38, ,
5, ,-38, ,
4, ,-38, ,
1, ,-38, ,
3, ,-38, ,
1, ,-38, ,
5, ,-37, ,
6, ,-37, ,
3, ,-38, ,
5, ,-37, ,
6, ,-38, ,
4, ,-38, ,
0, ,-38, ,
3, ,-38, ,
3, ,-38, ,
0, ,-37, ,
-1, ,-38, ,
5, ,-38, ,
3, ,-38, ,
3, ,-38, ,
-4, ,-38, ,
-2, ,-38, ,
1, ,-38, ,
-1, ,-38, ,
1, ,-38, ,
6, ,-37, ,
5, ,-38, ,
6, ,-38, ,
3, ,-38, ,
6, ,-38, ,
4, ,-38, ,
3, ,-37, ,
1, ,-38, ,
5, ,-38, ,
4, ,-37, ,
3, ,-38, ,
-5, ,-37, ,
-1, ,-38, ,
-1, ,-38, ,
0, ,-38, ,
0, ,-38, ,
3, ,-38, ,
4, ,-38, ,
5, ,-38, ,
1, ,-38, ,
5, ,-38, ,
6, ,-38, ,
4, ,-38, ,
3, ,-38, ,
5, ,-38, ,
4, ,-38, ,
5, ,-38, ,
0, ,-37, ,
3, ,-38, ,
6, ,-38, ,
5, ,-37, ,
1, ,-38, ,
5, ,-38, ,
4, ,-38, ,
3, ,-38, ,
-1, ,-38, ,
4, ,-37, ,
5, ,-38, ,
4, ,-38, ,
5, ,-38, ,
4, ,-38, ,
6, ,-38, ,
10, ,-38, ,
5, ,-37, ,
9, ,-38, ,
8, ,-38, ,
1, ,-38, ,
-2, ,-38, ,
3, ,-37, ,
3, ,-38, ,
3, ,-38, ,
-5, ,-38, ,
0, ,-38, ,
4, ,-38, ,
0, ,-37, ,
-1, ,-38, ,
3, ,-38, ,
5, ,-38, ,
3, ,-38, ,
0, ,-38, ,
8, ,-38, ,
4, ,-38, ,
1, ,-38, ,
1, ,-38, ,
1, ,-38, ,
3, ,-38, ,
5, ,-38, ,
0, ,-38, ,
1, ,-38, ,
5, ,-38, ,
1, ,-38, ,
0, ,-38, ,
1, ,-38, ,
-1, ,-38, ,
-1, ,-37, ,
1, ,-37, ,
3, ,-38, ,
6, ,-38, ,
8, ,-37, ,
3, ,-37, ,
4, ,-38, ,
3, ,-37, ,
0, ,-38, ,
-7, ,-38, ,
0, ,-37, ,
-1, ,-38, ,
-1, ,-38, ,
0, ,-38, ,
1, ,-38, ,
1, ,-38, ,
1, ,-38, ,
-4, ,-38, ,
3, ,-38, ,
4, ,-38, ,
6, ,-38, ,
1, ,-38, ,
3, ,-38, ,
1, ,-38, ,
-1, ,-38, ,
-1, ,-38, ,
0, ,-38, ,
0, ,-38, ,
0, ,-37, ,
-5, ,-38, ,
1, ,-38, ,
3, ,-37, ,
1, ,-38, ,
-1, ,-38, ,
0, ,-38, ,
0, ,-38, ,
-1, ,-38, ,
-2, ,-38, ,
1, ,-38, ,
-1, ,-37, ,
3, ,-38, ,
-1, ,-37, ,
3, ,-38, ,
5, ,-38, ,
1, ,-38, ,
-1, ,-38, ,
0, ,-37, ,
-4, ,-38, ,
-1, ,-32, ,
0, ,-25, ,
5, ,-14, ,
6, ,-5, ,
8, ,3, ,
4, ,11, ,
1, ,17, ,
4, ,22, ,
1, ,27, ,
0, ,31, ,
8, ,34, ,
8, ,38, ,
4, ,39, ,
1, ,41, ,
1, ,45, ,
3, ,46, ,
1, ,47, ,
0, ,48, ,
3, ,49, ,
3, ,49, ,
3, ,52, ,
-6, ,52, ,
0, ,52, ,
5, ,53, ,
1, ,53, ,
-2, ,53, ,
-2, ,54, ,
-4, ,54, ,
-2, ,54, ,
-5, ,55, ,
1, ,55, ,
1, ,53, ,
0, ,56, ,
-4, ,55, ,
1, ,55, ,
-5, ,55, ,
-4, ,56, ,
-6, ,54, ,
-1, ,56, ,
0, ,55, ,
3, ,55, ,
-4, ,56, ,
0, ,56, ,
-1, ,54, ,
-4, ,56, ,
-5, ,56, ,
-1, ,55, ,
-1, ,55, ,
-1, ,56, ,
-4, ,54, ,
-4, ,57, ,
-5, ,54, ,
4, ,55, ,
-10, ,56, ,
-2, ,56, ,
0, ,54, ,
-2, ,56, ,
-1, ,55, ,
4, ,55, ,
1, ,55, ,
0, ,56, ,
-2, ,55, ,
1, ,56, ,
-2, ,55, ,
-2, ,55, ,
-10, ,56, ,
-2, ,56, ,
0, ,54, ,
0, ,56, ,
-4, ,55, ,
-1, ,55, ,
-4, ,56, ,
-1, ,56, ,
-5, ,54, ,
-1, ,56, ,
-1, ,54, ,
-1, ,55, ,
-4, ,55, ,
0, ,55, ,
0, ,53, ,
-1, ,56, ,
-6, ,56, ,
-1, ,55, ,
-5, ,55, ,
-1, ,56, ,
-5, ,54, ,
-2, ,56, ,
-5, ,54, ,
-1, ,55, ,
-9, ,55, ,
-1, ,56, ,
0, ,54, ,
-2, ,56, ,
-4, ,55, ,
1, ,54, ,
-1, ,55, ,
3, ,55, ,
1, ,54, ,
1, ,56, ,
0, ,54, ,
0, ,55, ,
-9, ,55, ,
-2, ,55, ,
1, ,54, ,
0, ,56, ,
0, ,55, ,
3, ,55, ,
0, ,55, ,
0, ,56, ,
-2, ,54, ,
0, ,56, ,
-1, ,54, ,
3, ,55, ,
-6, ,55, ,
0, ,55, ,
1, ,54, ,
-1, ,56, ,
-2, ,55, ,
3, ,54, ,
-1, ,55, ,
3, ,55, ,
-1, ,54, ,
1, ,56, ,
0, ,54, ,
-1, ,54, ,
-6, ,55, ,
-1, ,56, ,
1, ,53, ,
-1, ,56, ,
-5, ,55, ,
4, ,55, ,
4, ,55, ,
4, ,55, ,
4, ,54, ,
4, ,56, ,
5, ,54, ,
3, ,55, ,
-1, ,55, ,
3, ,55, ,
1, ,54, ,
1, ,56, ,
-2, ,55, ,
6, ,55, ,
4, ,55, ,
4, ,55, ,
0, ,54, ,
1, ,56, ,
5, ,54, ,
5, ,55, ,
1, ,55, ,
4, ,55, ,
3, ,53, ,
3, ,56, ,
-4, ,55, ,
1, ,55, ,
4, ,55, ,
1, ,56, ,
1, ,54, ,
5, ,56, ,
5, ,54, ,
6, ,55, ,
0, ,55, ,
5, ,55, ,
6, ,53, ,
3, ,56, ,
0, ,55, ,
5, ,55, ,
1, ,55, ,
3, ,55, ,
1, ,53, ,
3, ,56, ,
4, ,54, ,
6, ,55, ,
-2, ,56, ,
0, ,56, ,
3, ,53, ,
0, ,56, ,
-1, ,55, ,
5, ,54, ,
4, ,55, ,
3, ,55, ,
-2, ,54, ,
1, ,56, ,
0, ,54, ,
1, ,55, ,
-4, ,55, ,
1, ,55, ,
3, ,54, ,
1, ,56, ,
-2, ,55, ,
0, ,55, ,
-2, ,55, ,
1, ,55, ,
1, ,54, ,
5, ,55, ,
5, ,54, ,
6, ,55, ,
0, ,55, ,
5, ,55, ,
4, ,53, ,
5, ,56, ,
-1, ,55, ,
5, ,55, ,
1, ,55, ,
3, ,55, ,
0, ,53, ,
3, ,56, ,
5, ,54, ,
4, ,55, ,
-1, ,55, ,
6, ,55, ,
3, ,53, ,
1, ,56, ,
-1, ,55, ,
4, ,55, ,
3, ,55, ,
6, ,56, ,
3, ,54, ,
8, ,56, ,
5, ,54, ,
8, ,55, ,
3, ,55, ,
5, ,55, ,
5, ,53, ,
3, ,56, ,
-2, ,55, ,
4, ,54, ,
5, ,55, ,
1, ,55, ,
1, ,54, ,
3, ,56, ,
3, ,54, ,
5, ,55, ,
1, ,55, ,
6, ,56, ,
8, ,53, ,
5, ,55, ,
3, ,55, ,
10, ,55, ,
3, ,55, ,
4, ,55, ,
0, ,54, ,
1, ,56, ,
3, ,54, ,
3, ,55, ,
1, ,55, ,
4, ,56, ,
4, ,53, ,
3, ,56, ,
-1, ,55, ,
5, ,55, ,
0, ,55, ,
5, ,55, ,
3, ,54, ,
4, ,56, ,
5, ,54, ,
5, ,55, ,
-1, ,55, ,
3, ,55, ,
1, ,54, ,
-1, ,55, ,
-4, ,55, ,
3, ,54, ,
1, ,55, ,
3, ,55, ,
-1, ,53, ,
1, ,56, ,
3, ,54, ,
4, ,54, ,
-4, ,55, ,
-1, ,55, ,
1, ,54, ,
1, ,55, ,
-1, ,54, ,
4, ,55, ,
3, ,55, ,
-1, ,55, ,
-5, ,54, ,
0, ,56, ,
-1, ,54, ,
5, ,55, ,
-4, ,55, ,
3, ,56, ,
3, ,53, ,
-1, ,56, ,
0, ,55, ,
-1, ,55, ,
-2, ,55, ,
-1, ,55, ,
-2, ,54, ,
1, ,56, ,
3, ,55, ,
4, ,55, ,
0, ,55, ,
1, ,55, ,
5, ,53, ,
3, ,56, ,
0, ,55, ,
3, ,55, ,
0, ,55, ,
3, ,55, ,
1, ,54, ,
4, ,55, ,
0, ,54, ,
5, ,55, ,
-1, ,55, ,
-1, ,56, ,
3, ,53, ,
-1, ,56, ,
0, ,55, ,
3, ,54, ,
0, ,55, ,
4, ,55, ,
-1, ,53, ,
-1, ,56, ,
-2, ,54, ,
-2, ,54, ,
-6, ,55, ,
3, ,55, ,
3, ,53, ,
4, ,56, ,
-1, ,55, ,
4, ,55, ,
1, ,55, ,
0, ,55, ,
-1, ,53, ,
-2, ,56, ,
-2, ,54, ,
0, ,55, ,
-4, ,55, ,
1, ,55, ,
4, ,53, ,
-1, ,55, ,
-7, ,55, ,
-1, ,55, ,
-4, ,55, ,
-2, ,55, ,
-1, ,54, ,
0, ,56, ,
3, ,54, ,
4, ,55, ,
-6, ,55, ,
-5, ,55, ,
-10, ,53, ,
-11, ,56, ,
-17, ,54, ,
-12, ,55, ,
-17, ,55, ,
-16, ,55, ,
-19, ,54, ,
-11, ,56, ,
-9, ,54, ,
-1, ,55, ,
-2, ,56, ,
5, ,56, ,
9, ,53, ,
9, ,56, ,
8, ,55, ,
15, ,54, ,
8, ,55, ,
5, ,55, ,
-1, ,54, ,
-2, ,56, ,
-2, ,54, ,
-4, ,54, ,
-7, ,55, ,
0, ,55, ,
1, ,54, ,
-1, ,56, ,
-5, ,55, ,
0, ,54, ,
-2, ,55, ,
-4, ,55, ,
-2, ,54, ,
-1, ,55, ,
-1, ,54, ,
0, ,55, ,
-6, ,55, ,
0, ,55, ,
0, ,53, ,
1, ,56, ,
-2, ,55, ,
5, ,54, ,
1, ,55, ,
0, ,55, ,
-2, ,53, ,
0, ,56, ,
0, ,54, ,
-4, ,55, ,
-9, ,55, ,
0, ,55, ,
-4, ,53, ,
0, ,56, ,
-4, ,54, ,
5, ,55, ,
4, ,54, ,
1, ,55, ,
1, ,53, ,
1, ,56, ,
-1, ,54, ,
-1, ,55, ,
-6, ,55, ,
3, ,55, ,
3, ,53, ,
0, ,55, ,
-5, ,55, ,
-2, ,55, ,
-4, ,55, ,
3, ,56, ,
-1, ,54, ,
4, ,56, ,
1, ,54, ,
5, ,55, ,
-4, ,56, ,
0, ,55, ,
1, ,53, ,
-5, ,56, ,
-10, ,55, ,
0, ,54, ,
0, ,54, ,
0, ,55, ,
0, ,54, ,
-2, ,56, ,
-5, ,54, ,
1, ,55, ,
0, ,55, ,
3, ,55, ,
4, ,54, ,
1, ,55, ,
-6, ,54, ,
-1, ,55, ,
-1, ,55, ,
3, ,55, ,
0, ,54, ,
3, ,56, ,
5, ,54, ,
3, ,55, ,
0, ,55, ,
1, ,55, ,
3, ,53, ,
1, ,56, ,
-4, ,55, ,
4, ,54, ,
4, ,55, ,
4, ,55, ,
1, ,54, ,
0, ,56, ,
5, ,54, ,
4, ,54, ,
-1, ,55, ,
5, ,55, ,
3, ,53, ,
0, ,56, ,
-2, ,55, ,
3, ,54, ,
1, ,55, ,
3, ,55, ,
3, ,53, ,
4, ,56, ,
8, ,54, ,
8, ,55, ,
0, ,55, ,
4, ,55, ,
3, ,53, ,
0, ,56, ,
-4, ,55, ,
3, ,55, ,
4, ,55, ,
1, ,55, ,
-1, ,53, ,
4, ,56, ,
3, ,54, ,
6, ,54, ,
-2, ,55, ,
1, ,55, ,
5, ,53, ,
0, ,56, ,
-4, ,55, ,
9, ,54, ,
5, ,55, ,
5, ,55, ,
1, ,54, ,
4, ,56, ,
1, ,54, ,
1, ,54, ,
-2, ,55, ,
1, ,55, ,
4, ,53, ,
3, ,56, ,
-1, ,55, ,
4, ,55, ,
1, ,54, ,
3, ,55, ,
6, ,53, ,
1, ,56, ,
0, ,54, ,
5, ,54, ,
3, ,55, ,
4, ,55, ,
4, ,53, ,
4, ,56, ,
-4, ,55, ,
0, ,55, ,
-1, ,55, ,
0, ,55, ,
-2, ,53, ,
3, ,56, ,
8, ,54, ,
5, ,55, ,
-2, ,55, ,
3, ,55, ,
0, ,53, ,
1, ,56, ,
-4, ,55, ,
5, ,55, ,
3, ,55, ,
4, ,55, ,
3, ,53, ,
3, ,56, ,
1, ,54, ,
3, ,54, ,
-1, ,56, ,
3, ,56, ,
4, ,53, ,
1, ,56, ,
-1, ,54, ,
1, ,54, ,
0, ,55, ,
3, ,55, ,
-1, ,54, ,
3, ,56, ,
3, ,55, ,
5, ,55, ,
1, ,55, ,
5, ,55, ,
6, ,53, ,
4, ,56, ,
1, ,54, ,
4, ,54, ,
0, ,54, ,
0, ,55, ,
-1, ,53, ,
1, ,56, ,
3, ,54, ,
8, ,55, ,
3, ,55, ,
5, ,55, ,
5, ,53, ,
3, ,56, ,
-2, ,55, ,
5, ,55, ,
6, ,55, ,
9, ,55, ,
8, ,54, ,
10, ,56, ,
9, ,55, ,
9, ,55, ,
3, ,55, ,
5, ,56, ,
3, ,54, ,
4, ,56, ,
1, ,54, ,
9, ,55, ,
6, ,55, ,
4, ,55, ,
-1, ,54, ,
3, ,56, ,
0, ,54, ,
3, ,55, ,
-2, ,55, ,
5, ,55, ,
8, ,54, ,
9, ,56, ,
3, ,54, ,
3, ,55, ,
-4, ,55, ,
-1, ,55, ,
0, ,54, ,
1, ,56, ,
4, ,54, ,
6, ,55, ,
4, ,55, ,
6, ,55, ,
6, ,53, ,
3, ,56, ,
-1, ,55, ,
3, ,55, ,
1, ,55, ,
-1, ,55, ,
-2, ,54, ,
1, ,56, ,
3, ,54, ,
8, ,54, ,
-1, ,55, ,
3, ,56, ,
5, ,53, ,
4, ,56, ,
1, ,54, ,
6, ,55, ,
5, ,55, ,
4, ,55, ,
1, ,54, ,
4, ,56, ,
3, ,54, ,
3, ,55, ,
-1, ,55, ,
1, ,56, ,
5, ,53, ,
5, ,56, ,
1, ,55, ,
6, ,55, ,
-1, ,55, ,
-1, ,55, ,
1, ,54, ,
0, ,56, ,
-1, ,54, ,
0, ,55, ,
-4, ,55, ,
4, ,55, ,
4, ,53, ,
0, ,56, ,
-2, ,55, ,
1, ,54, ,
-1, ,55, ,
-1, ,55, ,
-2, ,53, ,
-2, ,55, ,
-4, ,54, ,
-1, ,54, ,
-5, ,55, ,
-2, ,55, ,
0, ,53, ,
0, ,56, ,
-2, ,54, ,
3, ,55, ,
4, ,55, ,
4, ,55, ,
1, ,53, ,
0, ,56, ,
-1, ,54, ,
1, ,55, ,
-6, ,55, ,
0, ,55, ,
0, ,54, ,
-6, ,56, ,
-6, ,55, ,
-2, ,55, ,
-2, ,55, ,
-4, ,55, ,
-6, ,53, ,
-4, ,56, ,
-5, ,54, ,
-2, ,54, ,
-9, ,55, ,
-2, ,55, ,
-4, ,53, ,
-2, ,56, ,
-5, ,55, ,
-2, ,55, ,
-4, ,55, ,
-4, ,55, ,
-7, ,54, ,
-5, ,56, ,
-6, ,54, ,
-1, ,54, ,
-7, ,56, ,
-2, ,55, ,
-1, ,53, ,
-4, ,56, ,
-7, ,55, ,
-1, ,54, ,
-1, ,55, ,
-1, ,55, ,
-2, ,54, ,
-2, ,55, ,
0, ,54, ,
-1, ,55, ,
-6, ,55, ,
-2, ,55, ,
-2, ,53, ,
-2, ,55, ,
-6, ,56, ,
4, ,54, ,
1, ,55, ,
-1, ,55, ,
-1, ,54, ,
-2, ,56, ,
-4, ,54, ,
1, ,55, ,
-9, ,55, ,
-1, ,55, ,
1, ,54, ,
0, ,55, ,
0, ,55, ,
1, ,55, ,
-2, ,55, ,
-1, ,56, ,
0, ,53, ,
-1, ,56, ,
0, ,54, ,
3, ,55, ,
-6, ,55, ,
-1, ,55, ,
0, ,54, ,
-4, ,55, ,
-6, ,55, ,
1, ,55, ,
0, ,55, ,
-1, ,56, ,
3, ,53, ,
3, ,56, ,
3, ,54, ,
5, ,55, ,
-4, ,55, ,
-1, ,55, ,
3, ,53, ,
-1, ,56, ,
-5, ,55, ,
1, ,55, ,
-4, ,55, ,
0, ,56, ,
-1, ,54, ,
3, ,56, ,
1, ,54, ,
1, ,55, ,
-4, ,55, ,
-1, ,55, ,
0, ,54, ,
0, ,56, ,
-6, ,56, ,
0, ,55, ,
3, ,55, ,
1, ,55, ,
0, ,53, ,
3, ,56, ,
-1, ,54, ,
1, ,55, ,
-1, ,55, ,
3, ,55, ,
5, ,53, ,
4, ,56, ,
-1, ,55, ,
4, ,55, ,
3, ,55, ,
3, ,56, ,
0, ,53, ,
3, ,56, ,
3, ,54, ,
5, ,55, ,
-1, ,55, ,
5, ,55, ,
1, ,53, ,
3, ,56, ,
-4, ,55, ,
3, ,55, ,
1, ,55, ,
3, ,55, ,
3, ,54, ,
6, ,56, ,
5, ,55, ,
8, ,55, ,
1, ,55, ,
5, ,55, ,
4, ,53, ,
0, ,56, ,
-1, ,55, ,
4, ,55, ,
3, ,55, ,
5, ,55, ,
4, ,53, ,
3, ,56, ,
5, ,55, ,
6, ,55, ,
1, ,55, ,
4, ,56, ,
6, ,53, ,
5, ,56, ,
4, ,55, ,
9, ,55, ,
5, ,54, ,
6, ,55, ,
5, ,50, ,
3, ,45, ,
-2, ,33, ,
-1, ,23, ,
-6, ,15, ,
-2, ,8, ,
1, ,1, ,
0, ,-4, ,
-2, ,-8, ,
0, ,-12, ,
-7, ,-17, ,
-4, ,-20, ,
-4, ,-22, ,
0, ,-24, ,
3, ,-26, ,
6, ,-27, ,
-1, ,-29, ,
3, ,-30, ,
0, ,-31, ,
0, ,-32, ,
-2, ,-33, ,
3, ,-33, ,
0, ,-35, ,
-1, ,-36, ,
0, ,-36, ,
1, ,-37, ,
3, ,-37, ,
4, ,-37, ,
-4, ,-37, ,
1, ,-38, ,
1, ,-38, ,
1, ,-38, ,
0, ,-38, ,
4, ,-38, ,
3, ,-38, ,
3, ,-38, ,
0, ,-38, ,
1, ,-39, ,
1, ,-38, ,
3, ,-38, ,
-2, ,-38, ,
4, ,-38, ,
5, ,-38, ,
4, ,-38, ,
-1, ,-38, ,
4, ,-38, ,
5, ,-38, ,
1, ,-38, ,
0, ,-38, ,
5, ,-39, ,
6, ,-38, ,
3, ,-38, ,
3, ,-38, ,
9, ,-39, ,
5, ,-38, ,
1, ,-39, ,
-2, ,-39, ,
3, ,-38, ,
-1, ,-38, ,
3, ,-38, ,
3, ,-38, ,
4, ,-38, ,
6, ,-38, ,
9, ,-38, ,
3, ,-38, ,
8, ,-38, ,
8, ,-38, ,
5, ,-38, ,
-1, ,-38, ,
3, ,-38, ,
1, ,-38, ,
1, ,-38, ,
1, ,-38, ,
3, ,-38, ,
1, ,-38, ,
1, ,-38, ,
-4, ,-38, ,
5, ,-38, ,
5, ,-38, ,
6, ,-38, ,
3, ,-38, ,
6, ,-38, ,
3, ,-38, ,
0, ,-38, ,
-2, ,-38, ,
-1, ,-38, ,
3, ,-38, ,
3, ,-38, ,
-1, ,-38, ,
1, ,-38, ,
0, ,-38, ,
0, ,-38, ,
-9, ,-38, ,
-1, ,-38, ,
-2, ,-38, ,
-1, ,-38, ,
-2, ,-38, ,
0, ,-38, ,
0, ,-38, ,
4, ,-38, ,
-1, ,-38, ,
3, ,-38, ,
3, ,-38, ,
-1, ,-38, ,
-1, ,-38, ,
1, ,-38, ,
3, ,-38, ,
-1, ,-38, ,
-6, ,-38, ,
-4, ,-38, ,
-2, ,-38, ,
-2, ,-37, ,
-4, ,-38, ,
-2, ,-38, ,
0, ,-37, ,
-2, ,-38, ,
-1, ,-38, ,
1, ,-38, ,
0, ,-38, ,
-2, ,-38, ,
-4, ,-38, ,
-2, ,-38, ,
-2, ,-38, ,
-1, ,-38, ,
-5, ,-38, ,
-1, ,-38, ,
1, ,-38, ,
-2, ,-38, ,
-5, ,-38, ,
-2, ,-38, ,
-4, ,-38, ,
-4, ,-38, ,
-5, ,-37, ,
-4, ,-39, ,
1, ,-38, ,
3, ,-37, ,
-4, ,-38, ,
-2, ,-38, ,
0, ,-37, ,
1, ,-38, ,
-4, ,-38, ,
4, ,-38, ,
0, ,-38, ,
0, ,-38, ,
0, ,-38, ,
0, ,-38, ,
-1, ,-38, ,
-2, ,-38, ,
-9, ,-38, ,
-2, ,-38, ,
-5, ,-38, ,
4, ,-38, ,
5, ,-38, ,
1, ,-37, ,
3, ,-38, ,
3, ,-38, ,
-1, ,-38, ,
1, ,-38, ,
-1, ,-37, ,
-4, ,-37, ,
-6, ,-38, ,
0, ,-38, ,
3, ,-38, ,
-2, ,-38, ,
-4, ,-38, ,
0, ,-38, ,
0, ,-38, ,
-2, ,-38, ,
-2, ,-38, ,
1, ,-38, ,
0, ,-38, ,
1, ,-38, ,
-2, ,-37, ,
0, ,-38, ,
3, ,-38, ,
-2, ,-38, ,
-4, ,-38, ,
1, ,-37, ,
1, ,-38, ,
1, ,-38, ,
1, ,-38, ,
3, ,-38, ,
-1, ,-38, ,
1, ,-37, ,
-2, ,-38, ,
-1, ,-38, ,
3, ,-38, ,
-1, ,-38, ,
-5, ,-38, ,
3, ,-38, ,
4, ,-38, ,
5, ,-37, ,
-1, ,-38, ,
-1, ,-38, ,
1, ,-37, ,
4, ,-37, ,
-2, ,-37, ,
1, ,-38, ,
0, ,-38, ,
-1, ,-38, ,
-1, ,-38, ,
4, ,-38, ,
4, ,-38, ,
3, ,-38, ,
1, ,-37, ,
-1, ,-38, ,
0, ,-38, ,
3, ,-38, ,
-4, ,-38, ,
0, ,-38, ,
1, ,-37, ,
3, ,-38, ,
0, ,-38, ,
3, ,-38, ,
4, ,-38, ,
0, ,-38, ,
0, ,-38, ,
3, ,-38, ,
3, ,-38, ,
4, ,-37, ,
3, ,-38, ,
4, ,-38, ,
5, ,-38, ,
1, ,-37, ,
-1, ,-38, ,
1, ,-38, ,
3, ,-38, ,
5, ,-38, ,
1, ,-37, ,
6, ,-38, ,
5, ,-38, ,
5, ,-38, ,
-1, ,-38, ,
0, ,-38, ,
1, ,-38, ,
3, ,-38, ,
3, ,-38, ,
6, ,-38, ,
5, ,-38, ,
4, ,-37, ,
4, ,-38, ,
4, ,-38, ,
5, ,-38, ,
4, ,-38, ,
0, ,-37, ,
3, ,-38, ,
5, ,-38, ,
3, ,-38, ,
0, ,-38, ,
3, ,-38, ,
1, ,-38, ,
3, ,-38, ,
0, ,-38, ,
4, ,-38, ,
5, ,-37, ,
6, ,-37, ,
1, ,-37, ,
5, ,-37, ,
5, ,-38, ,
4, ,-38, ,
-1, ,-38, ,
3, ,-38, ,
3, ,-38, ,
0, ,-38, ,
0, ,-38, ,
0, ,-38, ,
1, ,-37, ,
3, ,-38, ,
-4, ,-38, ,
5, ,-38, ,
4, ,-38, ,
1, ,-37, ,
0, ,-38, ,
3, ,-37, ,
3, ,-38, ,
4, ,-37, ,
4, ,-38, ,
5, ,-38, ,
3, ,-38, ,
4, ,-38, ,
-1, ,-37, ,
3, ,-38, ,
3, ,-38, ,
-5, ,-38, ,
-2, ,-37, ,
0, ,-38, ,
5, ,-38, ,
4, ,-37, ,
4, ,-37, ,
3, ,-38, ,
5, ,-38, ,
8, ,-38, ,
0, ,-38, ,
4, ,-38, ,
8, ,-38, ,
3, ,-38, ,
0, ,-38, ,
6, ,-37, ,
3, ,-38, ,
3, ,-38, ,
0, ,-37, ,
3, ,-38, ,
4, ,-38, ,
5, ,-37, ,
3, ,-38, ,
4, ,-38, ,
6, ,-38, ,
3, ,-38, ,
-2, ,-38, ,
4, ,-38, ,
3, ,-38, ,
3, ,-37, ,
3, ,-37, ,
3, ,-38, ,
3, ,-38, ,
6, ,-38, ,
1, ,-37, ,
3, ,-38, ,
3, ,-38, ,
1, ,-38, ,
-1, ,-38, ,
3, ,-38, ,
4, ,-38, ,
1, ,-38, ,
0, ,-38, ,
-1, ,-38, ,
3, ,-38, ,
1, ,-38, ,
-2, ,-38, ,
3, ,-38, ,
5, ,-37, ,
3, ,-38, ,
0, ,-38, ,
3, ,-37, ,
3, ,-38, ,
-1, ,-38, ,
0, ,-38, ,
-2, ,-38, ,
0, ,-38, ,
3, ,-38, ,
-2, ,-38, ,
1, ,-38, ,
4, ,-37, ,
-1, ,-38, ,
-5, ,-38, ,
1, ,-37, ,
0, ,-38, ,
0, ,-38, ,
-4, ,-38, ,
3, ,-38, ,
3, ,-38, ,
1, ,-38, ,
-4, ,-37, ,
0, ,-38, ,
1, ,-37, ,
-1, ,-38, ,
-5, ,-38, ,
3, ,-38, ,
-2, ,-38, ,
-4, ,-38, ,
-2, ,-38, ,
1, ,-38, ,
0, ,-38, ,
-2, ,-38, ,
-4, ,-37, ,
-2, ,-38, ,
3, ,-37, ,
-1, ,-38, ,
-6, ,-38, ,
-1, ,-37, ,
-1, ,-38, ,
-1, ,-38, ,
-6, ,-38, ,
-2, ,-38, ,
0, ,-38, ,
-2, ,-37, ,
-2, ,-38, ,
1, ,-37, ,
4, ,-38, ,
0, ,-37, ,
-2, ,-38, ,
1, ,-38, ,
-1, ,-38, ,
-5, ,-37, ,
-5, ,-37, ,
-1, ,-38, ,
0, ,-38, ,
-1, ,-37, ,
-6, ,-37, ,
-1, ,-38, ,
4, ,-37, ,
-1, ,-38, ,
-2, ,-38, ,
1, ,-38, ,
0, ,-38, ,
0, ,-38, ,
1, ,-37, ,
3, ,-38, ,
0, ,-38, ,
0, ,-38, ,
-6, ,-38, ,
1, ,-38, ,
1, ,-38, ,
-1, ,-37, ,
-2, ,-38, ,
0, ,-38, ,
1, ,-37, ,
-1, ,-38, ,
-7, ,-38, ,
-2, ,-38, ,
-5, ,-38, ,
-2, ,-38, ,
-6, ,-37, ,
-1, ,-38, ,
3, ,-38, ,
0, ,-38, ,
-4, ,-38, ,
1, ,-38, ,
-1, ,-38, ,
-1, ,-38, ,
-6, ,-37, ,
-7, ,-38, ,
-4, ,-38, ,
-4, ,-37, ,
-6, ,-37, ,
-1, ,-38, ,
0, ,-37, ,
-1, ,-38, ,
-5, ,-38, ,
4, ,-38, ,
0, ,-37, ,
-1, ,-38, ,
0, ,-38, ,
1, ,-38, ,
4, ,-38, ,
4, ,-38, ,
-2, ,-38, ,
0, ,-37, ,
-1, ,-38, ,
0, ,-38, ,
-2, ,-38, ,
3, ,-37, ,
1, ,-38, ,
0, ,-37, ,
-1, ,-38, ,
0, ,-38, ,
1, ,-38, ,
0, ,-37, ,
-4, ,-38, ,
0, ,-38, ,
3, ,-37, ,
3, ,-38, ,
3, ,-38, ,
8, ,-38, ,
5, ,-38, ,
1, ,-38, ,
-1, ,-38, ,
1, ,-38, ,
-2, ,-38, ,
-1, ,-38, ,
-4, ,-37, ,
0, ,-38, ,
4, ,-38, ,
1, ,-38, ,
0, ,-38, ,
3, ,-38, ,
4, ,-38, ,
3, ,-38, ,
0, ,-38, ,
3, ,-38, ,
3, ,-37, ,
0, ,-37, ,
-4, ,-38, ,
-1, ,-38, ,
1, ,-38, ,
-1, ,-38, ,
-1, ,-38, ,
4, ,-38, ,
3, ,-38, ,
1, ,-38, ,
1, ,-38, ,
4, ,-38, ,
4, ,-38, ,
3, ,-38, ,
-1, ,-38, ,
3, ,-38, ,
1, ,-38, ,
-1, ,-38, ,
-4, ,-38, ,
5, ,-38, ,
4, ,-38, ,
4, ,-37, ,
3, ,-38, ,
1, ,-38, ,
3, ,-38, ,
1, ,-37, ,
0, ,-38, ,
4, ,-38, ,
3, ,-37, ,
1, ,-38, ,
-1, ,-38, ,
5, ,-37, ,
4, ,-38, ,
3, ,-38, ,
1, ,-37, ,
-1, ,-38, ,
3, ,-38, ,
1, ,-37, ,
-1, ,-37, ,
5, ,-38, ,
8, ,-38, ,
1, ,-38, ,
0, ,-38, ,
1, ,-37, ,
3, ,-38, ,
1, ,-37, ,
3, ,-38, ,
4, ,-38, ,
4, ,-38, ,
4, ,-37, ,
1, ,-38, ,
4, ,-37, ,
3, ,-38, ,
0, ,-38, ,
-1, ,-38, ,
3, ,-38, ,
4, ,-38, ,
4, ,-38, ,
3, ,-38, ,
6, ,-38, ,
5, ,-38, ,
5, ,-38, ,
-1, ,-38, ,
1, ,-38, ,
5, ,-37, ,
1, ,-38, ,
3, ,-38, ,
6, ,-37, ,
5, ,-38, ,
5, ,-38, ,
4, ,-38, ,
3, ,-38, ,
6, ,-38, ,
6, ,-37, ,
1, ,-38, ,
5, ,-38, ,
8, ,-38, ,
4, ,-38, ,
1, ,-38, ,
6, ,-38, ,
4, ,-38, ,
4, ,-38, ,
1, ,-38, ,
5, ,-38, ,
8, ,-38, ,
4, ,-38, ,
0, ,-38, ,
3, ,-38, ,
0, ,-38, ,
0, ,-38, ,
5, ,-38, ,
6, ,-37, ,
-2, ,-37, ,
1, ,-38, ,
-1, ,-38, ,
0, ,-38, ,
6, ,-38, ,
10, ,-37, ,
3, ,-38, ,
0, ,-38, ,
3, ,-38, ,
3, ,-38, ,
-6, ,-38, ,
3, ,-38, ,
5, ,-38, ,
3, ,-38, ,
4, ,-38, ,
4, ,-38, ,
3, ,-38, ,
3, ,-38, ,
1, ,-37, ,
4, ,-38, ,
6, ,-38, ,
3, ,-38, ,
-4, ,-38, ,
0, ,-37, ,
-1, ,-38, ,
0, ,-38, ,
-1, ,-38, ,
4, ,-38, ,
3, ,-37, ,
5, ,-37, ,
0, ,-38, ,
1, ,-38, ,
1, ,-37, ,
1, ,-38, ,
-2, ,-38, ,
3, ,-38, ,
0, ,-38, ,
-1, ,-38, ,
0, ,-37, ,
1, ,-38, ,
4, ,-38, ,
3, ,-38, ,
3, ,-38, ,
8, ,-38, ,
3, ,-38, ,
-7, ,-38, ,
-2, ,-38, ,
0, ,-37, ,
1, ,-38, ,
4, ,-37, ,
3, ,-38, ,
0, ,-38, ,
6, ,-38, ,
0, ,-37, ,
-4, ,-38, ,
1, ,-38, ,
0, ,-38, ,
-1, ,-37, ,
-1, ,-38, ,
1, ,-38, ,
1, ,-38, ,
-2, ,-38, ,
-1, ,-38, ,
-1, ,-38, ,
0, ,-38, ,
3, ,-38, ,
0, ,-38, ,
6, ,-37, ,
5, ,-38, ,
1, ,-38, ,
-1, ,-38, ,
4, ,-37, ,
-5, ,-38, ,
-4, ,-38, ,
-10, ,-38, ,
0, ,-38, ,
5, ,-38, ,
1, ,-37, ,
3, ,-38, ,
1, ,-38, ,
-1, ,-38, ,
-5, ,-38, ,
-4, ,-38, ,
0, ,-38, ,
3, ,-38, ,
1, ,-38, ,
-2, ,-38, ,
0, ,-38, ,
-1, ,-37, ,
