src/vary_am2_1411/temp0002725.CSV

Format,1.0B,
Memory Length,10000,Memory Length,10000,
IntpDistance,0,IntpDistance,0,
Trigger Address,4999,Trigger Address,4999,
Trigger Level,-1.000E+00,Trigger Level,-1.000E+00,
Source,CH1,Source,CH2,
Vertical Units,V,Vertical Units,V,
Vertical Units Div,0,Vertical Units Div,0,
Vertical Units Extend Div,16,Vertical Units Extend Div,16,
Label,,Label,,
Probe Type,0,Probe Type,0,
Probe Ratio,1.000e+01,Probe Ratio,1.000e+00,
Vertical Scale,2.000e-02,Vertical Scale,1.000e+00,
Vertical Position,-5.120e-02,Vertical Position,2.000e-01,
Horizontal Units,S,Horizontal Units,S,
Horizontal Scale,1.000E-05,Horizontal Scale,1.000E-05,
Horizontal Position,0.000E+00,Horizontal Position,0.000E+00,
Horizontal Mode,Main,Horizontal Mode,Main,
SincET Mode,Real Time,SincET Mode,Real Time,
Sampling Period,1.000e-08,Sampling Period,1.000e-08,
Horizontal Old Scale,1.000E-05,Horizontal Old Scale,1.000E-05,
Horizontal Old Position,0.000E+00,Horizontal Old Position,0.000E+00,
Firmware,V1.23,Firmware,V1.23,
Mode,Fast,Mode,Fast,
Waveform Data,,Waveform Data,,
0, ,-43, ,
3, ,-42, ,
-4, ,-42, ,
-2, ,-42, ,
1, ,-43, ,
-1, ,-42, ,
3, ,-43, ,
-1, ,-43, ,
0, ,-42, ,
0, ,-43, ,
5, ,-42, ,
1, ,-42, ,
4, ,-43, ,
8, ,-42, ,
4, ,-42, ,
3, ,-42, ,
5, ,-42, ,
0, ,-42, ,
3, ,-42, ,
1, ,-42, ,
0, ,-42, ,
3, ,-42, ,
3, ,-42, ,
-2, ,-42, ,
5, ,-43, ,
3, ,-43, ,
1, ,-42, ,
-5, ,-42, ,
4, ,-42, ,
-1, ,-42, ,
1, ,-42, ,
4, ,-43, ,
1, ,-42, ,
4, ,-42, ,
6, ,-42, ,
1, ,-42, ,
8, ,-43, ,
8, ,-42, ,
3, ,-42, ,
-2, ,-42, ,
5, ,-42, ,
1, ,-42, ,
1, ,-42, ,
1, ,-42, ,
1, ,-42, ,
3, ,-42, ,
5, ,-42, ,
-2, ,-42, ,
5, ,-43, ,
5, ,-42, ,
5, ,-42, ,
4, ,-42, ,
8, ,-43, ,
1, ,-42, ,
1, ,-42, ,
0, ,-42, ,
1, ,-42, ,
-1, ,-43, ,
6, ,-42, ,
0, ,-42, ,
6, ,-43, ,
9, ,-42, ,
4, ,-42, ,
-1, ,-42, ,
3, ,-42, ,
1, ,-42, ,
3, ,-43, ,
-2, ,-42, ,
3, ,-42, ,
5, ,-42, ,
4, ,-42, ,
1, ,-42, ,
4, ,-43, ,
6, ,-42, ,
3, ,-42, ,
-2, ,-42, ,
9, ,-43, ,
4, ,-42, ,
4, ,-42, ,
3, ,-43, ,
3, ,-42, ,
3, ,-43, ,
3, ,-42, ,
1, ,-42, ,
3, ,-43, ,
6, ,-43, ,
5, ,-42, ,
4, ,-43, ,
9, ,-43, ,
8, ,-42, ,
6, ,-43, ,
6, ,-43, ,
1, ,-42, ,
4, ,-42, ,
4, ,-42, ,
-2, ,-42, ,
5, ,-43, ,
5, ,-42, ,
3, ,-42, ,
0, ,-42, ,
5, ,-42, ,
1, ,-42, ,
1, ,-42, ,
3, ,-43, ,
4, ,-42, ,
5, ,-42, ,
5, ,-42, ,
3, ,-42, ,
4, ,-43, ,
5, ,-43, ,
3, ,-42, ,
-1, ,-42, ,
5, ,-43, ,
4, ,-42, ,
3, ,-43, ,
3, ,-43, ,
5, ,-42, ,
6, ,-43, ,
5, ,-42, ,
0, ,-42, ,
4, ,-43, ,
9, ,-42, ,
-2, ,-42, ,
0, ,-42, ,
8, ,-42, ,
1, ,-42, ,
5, ,-42, ,
3, ,-43, ,
4, ,-42, ,
4, ,-42, ,
-1, ,-42, ,
-2, ,-42, ,
0, ,-43, ,
4, ,-43, ,
3, ,-42, ,
-1, ,-42, ,
6, ,-43, ,
4, ,-42, ,
4, ,-42, ,
1, ,-42, ,
1, ,-42, ,
1, ,-43, ,
0, ,-42, ,
-2, ,-42, ,
-1, ,-43, ,
0, ,-42, ,
-2, ,-42, ,
-4, ,-42, ,
5, ,-42, ,
1, ,-42, ,
1, ,-43, ,
3, ,-43, ,
0, ,-42, ,
5, ,-42, ,
6, ,-42, ,
-2, ,-42, ,
5, ,-43, ,
3, ,-43, ,
-1, ,-42, ,
-4, ,-42, ,
1, ,-42, ,
-2, ,-42, ,
0, ,-42, ,
0, ,-42, ,
0, ,-42, ,
1, ,-42, ,
4, ,-42, ,
-4, ,-42, ,
1, ,-43, ,
0, ,-42, ,
0, ,-42, ,
-1, ,-42, ,
4, ,-43, ,
5, ,-42, ,
4, ,-43, ,
4, ,-42, ,
5, ,-42, ,
-2, ,-43, ,
1, ,-42, ,
0, ,-42, ,
0, ,-43, ,
5, ,-42, ,
-1, ,-42, ,
-4, ,-42, ,
3, ,-43, ,
0, ,-42, ,
0, ,-42, ,
-1, ,-42, ,
3, ,-42, ,
5, ,-42, ,
6, ,-42, ,
4, ,-42, ,
4, ,-43, ,
3, ,-42, ,
-5, ,-42, ,
-5, ,-42, ,
0, ,-43, ,
-2, ,-42, ,
-4, ,-43, ,
-4, ,-43, ,
-5, ,-42, ,
-4, ,-43, ,
3, ,-42, ,
-2, ,-42, ,
-1, ,-43, ,
-1, ,-43, ,
-2, ,-42, ,
-7, ,-43, ,
5, ,-42, ,
0, ,-42, ,
0, ,-42, ,
3, ,-43, ,
0, ,-42, ,
0, ,-42, ,
0, ,-42, ,
-7, ,-42, ,
-5, ,-43, ,
-4, ,-43, ,
-2, ,-42, ,
-9, ,-42, ,
3, ,-43, ,
1, ,-42, ,
-4, ,-42, ,
0, ,-43, ,
0, ,-42, ,
3, ,-43, ,
5, ,-42, ,
0, ,-42, ,
3, ,-43, ,
4, ,-42, ,
-1, ,-42, ,
-2, ,-42, ,
1, ,-42, ,
-4, ,-42, ,
-4, ,-43, ,
-5, ,-42, ,
-2, ,-42, ,
-2, ,-43, ,
-1, ,-42, ,
-6, ,-42, ,
-1, ,-43, ,
0, ,-43, ,
-2, ,-42, ,
-6, ,-42, ,
1, ,-43, ,
1, ,-42, ,
0, ,-43, ,
0, ,-43, ,
1, ,-42, ,
1, ,-43, ,
3, ,-42, ,
-5, ,-42, ,
-2, ,-43, ,
0, ,-43, ,
-4, ,-42, ,
-4, ,-42, ,
3, ,-43, ,
1, ,-42, ,
3, ,-42, ,
0, ,-43, ,
1, ,-42, ,
3, ,-42, ,
3, ,-42, ,
-4, ,-42, ,
0, ,-43, ,
1, ,-42, ,
1, ,-42, ,
-6, ,-42, ,
3, ,-43, ,
0, ,-42, ,
0, ,-43, ,
0, ,-43, ,
-1, ,-42, ,
1, ,-43, ,
1, ,-42, ,
-2, ,-42, ,
3, ,-43, ,
5, ,-43, ,
0, ,-42, ,
-2, ,-42, ,
1, ,-43, ,
-1, ,-42, ,
-1, ,-43, ,
3, ,-43, ,
0, ,-42, ,
3, ,-43, ,
4, ,-42, ,
-1, ,-42, ,
3, ,-43, ,
3, ,-43, ,
0, ,-42, ,
-1, ,-42, ,
1, ,-43, ,
3, ,-42, ,
1, ,-43, ,
3, ,-42, ,
3, ,-42, ,
1, ,-42, ,
3, ,-42, ,
-1, ,-42, ,
0, ,-43, ,
4, ,-42, ,
-1, ,-42, ,
-4, ,-42, ,
3, ,-43, ,
0, ,-42, ,
0, ,-43, ,
-2, ,-43, ,
0, ,-42, ,
1, ,-40, ,
-1, ,-31, ,
3, ,-21, ,
8, ,-11, ,
11, ,-3, ,
10, ,4, ,
8, ,11, ,
11, ,16, ,
5, ,20, ,
4, ,26, ,
4, ,29, ,
9, ,32, ,
9, ,35, ,
9, ,37, ,
3, ,38, ,
6, ,41, ,
11, ,42, ,
8, ,42, ,
4, ,45, ,
8, ,46, ,
6, ,45, ,
5, ,48, ,
8, ,48, ,
6, ,48, ,
10, ,49, ,
11, ,49, ,
5, ,49, ,
6, ,50, ,
5, ,50, ,
5, ,50, ,
3, ,50, ,
8, ,50, ,
6, ,49, ,
5, ,51, ,
5, ,51, ,
4, ,51, ,
4, ,51, ,
5, ,51, ,
0, ,50, ,
6, ,52, ,
9, ,50, ,
6, ,51, ,
4, ,51, ,
8, ,51, ,
3, ,50, ,
1, ,52, ,
0, ,51, ,
0, ,51, ,
1, ,51, ,
6, ,51, ,
1, ,50, ,
8, ,51, ,
8, ,51, ,
4, ,51, ,
1, ,51, ,
5, ,51, ,
1, ,50, ,
1, ,51, ,
1, ,51, ,
3, ,51, ,
4, ,51, ,
5, ,51, ,
1, ,50, ,
3, ,51, ,
5, ,50, ,
0, ,51, ,
-1, ,51, ,
5, ,51, ,
1, ,49, ,
4, ,52, ,
4, ,51, ,
4, ,50, ,
3, ,51, ,
3, ,51, ,
-4, ,50, ,
1, ,51, ,
1, ,50, ,
3, ,51, ,
1, ,51, ,
9, ,51, ,
5, ,49, ,
6, ,51, ,
3, ,51, ,
1, ,50, ,
0, ,51, ,
5, ,51, ,
0, ,49, ,
5, ,51, ,
4, ,50, ,
4, ,50, ,
1, ,51, ,
5, ,51, ,
0, ,49, ,
1, ,51, ,
3, ,51, ,
0, ,50, ,
1, ,50, ,
4, ,51, ,
-4, ,50, ,
4, ,51, ,
3, ,50, ,
0, ,51, ,
-1, ,51, ,
5, ,51, ,
3, ,49, ,
3, ,51, ,
4, ,50, ,
5, ,50, ,
4, ,50, ,
6, ,51, ,
-1, ,50, ,
0, ,51, ,
3, ,50, ,
0, ,50, ,
-1, ,51, ,
4, ,51, ,
-1, ,49, ,
1, ,51, ,
4, ,50, ,
3, ,50, ,
4, ,50, ,
6, ,51, ,
1, ,49, ,
5, ,51, ,
3, ,50, ,
4, ,50, ,
0, ,51, ,
8, ,50, ,
3, ,49, ,
3, ,51, ,
1, ,50, ,
0, ,50, ,
-1, ,50, ,
1, ,51, ,
-4, ,50, ,
0, ,51, ,
1, ,50, ,
0, ,50, ,
-2, ,51, ,
4, ,50, ,
1, ,49, ,
0, ,51, ,
1, ,50, ,
0, ,50, ,
1, ,50, ,
4, ,51, ,
-5, ,49, ,
0, ,51, ,
-1, ,50, ,
-2, ,50, ,
-6, ,51, ,
3, ,51, ,
0, ,49, ,
0, ,51, ,
1, ,51, ,
0, ,50, ,
-1, ,50, ,
4, ,51, ,
-4, ,50, ,
0, ,51, ,
4, ,50, ,
1, ,50, ,
-1, ,50, ,
0, ,50, ,
-2, ,49, ,
3, ,51, ,
3, ,50, ,
1, ,50, ,
0, ,51, ,
0, ,50, ,
-2, ,49, ,
0, ,51, ,
0, ,50, ,
0, ,50, ,
0, ,50, ,
4, ,50, ,
-1, ,49, ,
1, ,51, ,
-1, ,50, ,
1, ,50, ,
-2, ,50, ,
1, ,51, ,
-2, ,50, ,
0, ,51, ,
1, ,50, ,
-1, ,50, ,
-5, ,51, ,
4, ,50, ,
0, ,49, ,
4, ,51, ,
1, ,51, ,
1, ,50, ,
3, ,50, ,
0, ,50, ,
-4, ,49, ,
1, ,51, ,
1, ,50, ,
0, ,51, ,
-4, ,51, ,
1, ,50, ,
0, ,49, ,
0, ,51, ,
0, ,50, ,
1, ,50, ,
-1, ,50, ,
-1, ,50, ,
-5, ,49, ,
-2, ,51, ,
-1, ,50, ,
-1, ,50, ,
-5, ,50, ,
4, ,51, ,
-4, ,49, ,
-1, ,51, ,
0, ,51, ,
-1, ,50, ,
0, ,50, ,
4, ,51, ,
-4, ,50, ,
3, ,51, ,
-1, ,49, ,
-1, ,50, ,
-2, ,51, ,
4, ,50, ,
1, ,49, ,
3, ,51, ,
1, ,50, ,
3, ,50, ,
0, ,50, ,
5, ,51, ,
0, ,49, ,
1, ,51, ,
3, ,50, ,
0, ,50, ,
-2, ,51, ,
0, ,50, ,
-5, ,49, ,
-2, ,51, ,
0, ,50, ,
1, ,50, ,
1, ,50, ,
6, ,51, ,
-1, ,49, ,
4, ,51, ,
4, ,50, ,
3, ,50, ,
0, ,51, ,
6, ,50, ,
3, ,49, ,
1, ,51, ,
3, ,50, ,
0, ,50, ,
-2, ,50, ,
0, ,50, ,
-4, ,50, ,
0, ,51, ,
4, ,50, ,
4, ,50, ,
3, ,51, ,
5, ,51, ,
1, ,49, ,
3, ,51, ,
3, ,50, ,
1, ,50, ,
5, ,51, ,
6, ,50, ,
-2, ,50, ,
8, ,51, ,
11, ,50, ,
1, ,50, ,
-1, ,51, ,
4, ,50, ,
-2, ,49, ,
1, ,51, ,
1, ,50, ,
5, ,50, ,
6, ,50, ,
10, ,50, ,
0, ,50, ,
4, ,51, ,
3, ,50, ,
0, ,50, ,
0, ,51, ,
6, ,50, ,
3, ,49, ,
3, ,51, ,
4, ,50, ,
1, ,50, ,
0, ,50, ,
5, ,50, ,
-1, ,50, ,
4, ,51, ,
6, ,50, ,
4, ,50, ,
3, ,51, ,
4, ,50, ,
0, ,49, ,
1, ,51, ,
-2, ,50, ,
1, ,50, ,
3, ,50, ,
3, ,51, ,
-1, ,49, ,
3, ,51, ,
8, ,50, ,
4, ,50, ,
-4, ,50, ,
5, ,51, ,
-1, ,48, ,
0, ,51, ,
-1, ,50, ,
3, ,50, ,
3, ,50, ,
4, ,50, ,
1, ,49, ,
5, ,51, ,
5, ,49, ,
4, ,50, ,
-1, ,51, ,
6, ,50, ,
1, ,48, ,
4, ,51, ,
0, ,50, ,
3, ,50, ,
-1, ,50, ,
6, ,51, ,
1, ,50, ,
5, ,51, ,
5, ,50, ,
4, ,50, ,
1, ,50, ,
4, ,50, ,
1, ,49, ,
4, ,51, ,
4, ,50, ,
1, ,50, ,
5, ,50, ,
4, ,50, ,
-1, ,50, ,
3, ,51, ,
4, ,50, ,
-1, ,50, ,
0, ,51, ,
9, ,51, ,
8, ,49, ,
4, ,51, ,
3, ,50, ,
3, ,50, ,
3, ,50, ,
5, ,51, ,
-1, ,50, ,
3, ,51, ,
5, ,50, ,
3, ,50, ,
-1, ,50, ,
3, ,50, ,
-1, ,49, ,
0, ,51, ,
-1, ,50, ,
3, ,50, ,
3, ,50, ,
9, ,50, ,
0, ,49, ,
3, ,51, ,
5, ,50, ,
1, ,50, ,
0, ,50, ,
9, ,50, ,
1, ,49, ,
4, ,51, ,
3, ,50, ,
1, ,50, ,
1, ,50, ,
6, ,51, ,
-2, ,50, ,
-4, ,51, ,
0, ,50, ,
1, ,50, ,
-1, ,51, ,
6, ,50, ,
1, ,49, ,
1, ,51, ,
0, ,51, ,
1, ,50, ,
1, ,50, ,
1, ,50, ,
-4, ,50, ,
6, ,51, ,
0, ,50, ,
-1, ,50, ,
-5, ,51, ,
0, ,50, ,
-2, ,49, ,
-4, ,51, ,
0, ,50, ,
3, ,50, ,
-1, ,50, ,
5, ,50, ,
-4, ,50, ,
0, ,51, ,
-2, ,50, ,
-2, ,50, ,
0, ,50, ,
5, ,50, ,
3, ,49, ,
-1, ,51, ,
-1, ,50, ,
1, ,50, ,
-1, ,50, ,
4, ,51, ,
-2, ,50, ,
1, ,51, ,
-2, ,49, ,
-5, ,50, ,
-6, ,51, ,
3, ,51, ,
1, ,49, ,
6, ,51, ,
6, ,50, ,
5, ,50, ,
0, ,50, ,
8, ,51, ,
-2, ,50, ,
1, ,51, ,
3, ,50, ,
-2, ,50, ,
-2, ,51, ,
5, ,50, ,
1, ,49, ,
3, ,51, ,
0, ,50, ,
-1, ,50, ,
1, ,50, ,
0, ,50, ,
-2, ,49, ,
5, ,51, ,
8, ,50, ,
5, ,50, ,
1, ,51, ,
3, ,51, ,
0, ,49, ,
-1, ,51, ,
1, ,50, ,
0, ,50, ,
1, ,50, ,
6, ,51, ,
-4, ,50, ,
0, ,51, ,
-1, ,50, ,
-5, ,50, ,
-7, ,50, ,
1, ,51, ,
0, ,49, ,
3, ,51, ,
4, ,50, ,
8, ,50, ,
-2, ,50, ,
-10, ,51, ,
-7, ,50, ,
1, ,51, ,
-4, ,49, ,
3, ,50, ,
0, ,51, ,
4, ,51, ,
0, ,49, ,
3, ,51, ,
-1, ,50, ,
1, ,50, ,
3, ,50, ,
4, ,50, ,
0, ,49, ,
-1, ,51, ,
3, ,50, ,
-1, ,50, ,
-5, ,51, ,
5, ,50, ,
0, ,49, ,
1, ,51, ,
0, ,51, ,
1, ,50, ,
1, ,50, ,
5, ,51, ,
0, ,49, ,
1, ,51, ,
3, ,50, ,
-1, ,50, ,
1, ,51, ,
6, ,51, ,
1, ,49, ,
4, ,51, ,
3, ,50, ,
1, ,50, ,
1, ,50, ,
4, ,51, ,
-5, ,49, ,
-1, ,51, ,
0, ,50, ,
-1, ,50, ,
-1, ,51, ,
1, ,51, ,
0, ,49, ,
1, ,51, ,
4, ,50, ,
3, ,50, ,
1, ,51, ,
5, ,51, ,
-4, ,50, ,
1, ,51, ,
1, ,50, ,
-1, ,50, ,
0, ,51, ,
5, ,51, ,
1, ,49, ,
0, ,51, ,
-1, ,50, ,
-1, ,50, ,
-2, ,50, ,
3, ,50, ,
-1, ,50, ,
4, ,51, ,
6, ,49, ,
1, ,50, ,
0, ,50, ,
0, ,51, ,
-1, ,49, ,
0, ,51, ,
-1, ,50, ,
4, ,50, ,
1, ,50, ,
4, ,51, ,
-4, ,49, ,
1, ,51, ,
1, ,50, ,
-2, ,50, ,
-2, ,51, ,
4, ,50, ,
-2, ,49, ,
0, ,51, ,
0, ,50, ,
0, ,50, ,
1, ,50, ,
5, ,51, ,
0, ,49, ,
3, ,51, ,
4, ,50, ,
3, ,50, ,
-2, ,50, ,
4, ,51, ,
0, ,49, ,
1, ,51, ,
0, ,50, ,
-1, ,50, ,
1, ,50, ,
5, ,51, ,
1, ,49, ,
4, ,51, ,
6, ,50, ,
4, ,50, ,
-1, ,51, ,
4, ,51, ,
-1, ,49, ,
-2, ,51, ,
-1, ,50, ,
0, ,50, ,
1, ,51, ,
9, ,50, ,
0, ,49, ,
4, ,51, ,
6, ,50, ,
3, ,50, ,
0, ,50, ,
3, ,51, ,
1, ,49, ,
3, ,51, ,
3, ,50, ,
3, ,50, ,
4, ,50, ,
9, ,50, ,
1, ,49, ,
5, ,51, ,
5, ,50, ,
3, ,50, ,
-2, ,51, ,
6, ,50, ,
3, ,49, ,
4, ,51, ,
3, ,50, ,
5, ,50, ,
3, ,50, ,
5, ,51, ,
0, ,49, ,
5, ,51, ,
4, ,50, ,
4, ,50, ,
1, ,50, ,
3, ,51, ,
-1, ,49, ,
1, ,51, ,
-2, ,50, ,
0, ,50, ,
-1, ,50, ,
4, ,51, ,
1, ,49, ,
4, ,51, ,
6, ,50, ,
1, ,50, ,
1, ,51, ,
8, ,51, ,
-1, ,49, ,
-1, ,51, ,
-1, ,50, ,
-2, ,50, ,
-1, ,50, ,
1, ,51, ,
-1, ,49, ,
3, ,51, ,
4, ,49, ,
1, ,50, ,
-4, ,51, ,
4, ,51, ,
-1, ,49, ,
-1, ,51, ,
4, ,50, ,
3, ,50, ,
5, ,50, ,
8, ,50, ,
0, ,50, ,
5, ,51, ,
3, ,49, ,
1, ,51, ,
-1, ,51, ,
5, ,50, ,
0, ,49, ,
0, ,51, ,
3, ,50, ,
1, ,50, ,
-2, ,50, ,
1, ,51, ,
-4, ,49, ,
1, ,51, ,
3, ,49, ,
1, ,50, ,
1, ,50, ,
6, ,51, ,
4, ,49, ,
3, ,51, ,
0, ,50, ,
1, ,50, ,
1, ,50, ,
1, ,51, ,
0, ,49, ,
3, ,51, ,
5, ,50, ,
1, ,50, ,
0, ,51, ,
0, ,51, ,
-1, ,49, ,
0, ,51, ,
3, ,50, ,
4, ,50, ,
1, ,50, ,
0, ,51, ,
-7, ,49, ,
-9, ,51, ,
-11, ,49, ,
-11, ,50, ,
-21, ,51, ,
-10, ,50, ,
-7, ,49, ,
-4, ,51, ,
-1, ,50, ,
1, ,50, ,
6, ,50, ,
13, ,51, ,
9, ,49, ,
9, ,51, ,
8, ,49, ,
5, ,50, ,
4, ,51, ,
8, ,50, ,
4, ,49, ,
0, ,51, ,
1, ,50, ,
-1, ,50, ,
-2, ,50, ,
-1, ,51, ,
-6, ,49, ,
0, ,51, ,
3, ,50, ,
4, ,50, ,
-1, ,51, ,
1, ,50, ,
-1, ,49, ,
-1, ,51, ,
0, ,50, ,
-4, ,50, ,
-4, ,50, ,
3, ,51, ,
-5, ,49, ,
3, ,51, ,
1, ,49, ,
-1, ,50, ,
-2, ,51, ,
1, ,50, ,
-4, ,49, ,
-1, ,51, ,
-4, ,50, ,
-2, ,50, ,
-4, ,50, ,
1, ,51, ,
-10, ,49, ,
-2, ,51, ,
-1, ,50, ,
-2, ,50, ,
-1, ,51, ,
5, ,51, ,
-2, ,49, ,
1, ,51, ,
0, ,50, ,
1, ,50, ,
-1, ,50, ,
8, ,50, ,
-5, ,49, ,
-1, ,51, ,
9, ,50, ,
4, ,50, ,
1, ,51, ,
10, ,51, ,
4, ,49, ,
4, ,51, ,
4, ,50, ,
3, ,50, ,
0, ,50, ,
1, ,50, ,
-1, ,49, ,
1, ,51, ,
0, ,50, ,
1, ,50, ,
-6, ,50, ,
1, ,50, ,
-1, ,49, ,
0, ,51, ,
1, ,51, ,
3, ,50, ,
4, ,50, ,
3, ,51, ,
0, ,49, ,
0, ,51, ,
1, ,50, ,
-2, ,50, ,
-2, ,51, ,
6, ,51, ,
-1, ,49, ,
3, ,51, ,
6, ,50, ,
1, ,50, ,
0, ,50, ,
1, ,51, ,
-5, ,49, ,
1, ,51, ,
3, ,50, ,
3, ,50, ,
1, ,51, ,
8, ,50, ,
5, ,49, ,
4, ,51, ,
4, ,50, ,
1, ,50, ,
4, ,50, ,
3, ,51, ,
-4, ,49, ,
3, ,51, ,
3, ,50, ,
-1, ,50, ,
-4, ,51, ,
1, ,50, ,
-1, ,49, ,
1, ,51, ,
3, ,50, ,
4, ,50, ,
5, ,50, ,
6, ,49, ,
6, ,40, ,
8, ,31, ,
5, ,20, ,
0, ,12, ,
-7, ,4, ,
3, ,-2, ,
-1, ,-7, ,
1, ,-12, ,
1, ,-17, ,
0, ,-21, ,
0, ,-23, ,
1, ,-26, ,
-6, ,-28, ,
-1, ,-30, ,
0, ,-32, ,
1, ,-33, ,
-4, ,-35, ,
6, ,-37, ,
0, ,-37, ,
1, ,-39, ,
0, ,-39, ,
-1, ,-39, ,
0, ,-40, ,
3, ,-40, ,
-4, ,-41, ,
3, ,-42, ,
5, ,-42, ,
3, ,-42, ,
-1, ,-42, ,
3, ,-42, ,
-1, ,-42, ,
0, ,-43, ,
0, ,-42, ,
0, ,-42, ,
-1, ,-43, ,
4, ,-43, ,
-1, ,-43, ,
3, ,-43, ,
3, ,-43, ,
1, ,-43, ,
0, ,-43, ,
5, ,-43, ,
3, ,-43, ,
3, ,-43, ,
1, ,-43, ,
4, ,-43, ,
5, ,-43, ,
9, ,-43, ,
3, ,-43, ,
5, ,-44, ,
6, ,-43, ,
1, ,-43, ,
-1, ,-43, ,
4, ,-43, ,
-1, ,-43, ,
3, ,-43, ,
1, ,-43, ,
4, ,-43, ,
5, ,-43, ,
4, ,-43, ,
0, ,-43, ,
3, ,-43, ,
6, ,-43, ,
3, ,-43, ,
-1, ,-43, ,
3, ,-43, ,
5, ,-43, ,
6, ,-43, ,
3, ,-43, ,
1, ,-42, ,
4, ,-43, ,
3, ,-43, ,
-2, ,-42, ,
3, ,-43, ,
8, ,-43, ,
3, ,-42, ,
1, ,-43, ,
6, ,-43, ,
3, ,-42, ,
0, ,-43, ,
-1, ,-42, ,
1, ,-43, ,
4, ,-43, ,
9, ,-43, ,
5, ,-42, ,
9, ,-43, ,
8, ,-43, ,
4, ,-42, ,
0, ,-42, ,
5, ,-43, ,
4, ,-42, ,
5, ,-43, ,
6, ,-43, ,
6, ,-42, ,
6, ,-43, ,
9, ,-43, ,
1, ,-42, ,
8, ,-43, ,
9, ,-43, ,
3, ,-42, ,
4, ,-43, ,
5, ,-43, ,
6, ,-42, ,
5, ,-42, ,
3, ,-43, ,
1, ,-42, ,
3, ,-43, ,
3, ,-42, ,
-2, ,-42, ,
4, ,-43, ,
6, ,-42, ,
5, ,-42, ,
0, ,-42, ,
4, ,-43, ,
6, ,-42, ,
5, ,-43, ,
1, ,-43, ,
3, ,-42, ,
5, ,-43, ,
9, ,-43, ,
6, ,-42, ,
10, ,-43, ,
14, ,-43, ,
3, ,-42, ,
-1, ,-42, ,
0, ,-43, ,
-5, ,-42, ,
-2, ,-43, ,
-2, ,-43, ,
0, ,-43, ,
1, ,-43, ,
4, ,-42, ,
-4, ,-42, ,
-2, ,-43, ,
-1, ,-42, ,
-1, ,-42, ,
-6, ,-43, ,
1, ,-43, ,
-2, ,-42, ,
-2, ,-43, ,
0, ,-43, ,
-1, ,-42, ,
3, ,-43, ,
4, ,-42, ,
0, ,-42, ,
3, ,-43, ,
3, ,-43, ,
4, ,-42, ,
-2, ,-42, ,
6, ,-43, ,
6, ,-42, ,
4, ,-43, ,
4, ,-43, ,
0, ,-43, ,
-1, ,-42, ,
3, ,-42, ,
-5, ,-42, ,
1, ,-43, ,
3, ,-42, ,
-1, ,-42, ,
1, ,-42, ,
6, ,-43, ,
3, ,-42, ,
3, ,-43, ,
1, ,-42, ,
-1, ,-42, ,
-2, ,-42, ,
-1, ,-42, ,
-5, ,-42, ,
0, ,-43, ,
4, ,-43, ,
-6, ,-42, ,
-10, ,-43, ,
-2, ,-43, ,
-4, ,-42, ,
0, ,-42, ,
-1, ,-42, ,
3, ,-42, ,
1, ,-42, ,
1, ,-42, ,
-4, ,-42, ,
-1, ,-43, ,
0, ,-42, ,
0, ,-42, ,
-2, ,-42, ,
4, ,-42, ,
1, ,-42, ,
-1, ,-42, ,
-4, ,-43, ,
-6, ,-43, ,
-4, ,-43, ,
-4, ,-43, ,
-9, ,-41, ,
-1, ,-43, ,
0, ,-43, ,
-1, ,-42, ,
-5, ,-42, ,
-4, ,-43, ,
-5, ,-42, ,
-4, ,-43, ,
-2, ,-43, ,
-4, ,-42, ,
-1, ,-42, ,
-1, ,-42, ,
-10, ,-42, ,
-5, ,-43, ,
-7, ,-42, ,
-10, ,-42, ,
-10, ,-42, ,
-5, ,-42, ,
-5, ,-42, ,
-6, ,-42, ,
-5, ,-42, ,
-6, ,-42, ,
-7, ,-43, ,
-4, ,-43, ,
-9, ,-42, ,
-4, ,-43, ,
1, ,-43, ,
-1, ,-42, ,
-1, ,-42, ,
5, ,-42, ,
3, ,-42, ,
3, ,-43, ,
0, ,-43, ,
-2, ,-42, ,
0, ,-43, ,
-2, ,-42, ,
-7, ,-42, ,
-4, ,-43, ,
-2, ,-42, ,
-5, ,-42, ,
-6, ,-42, ,
-1, ,-42, ,
-2, ,-42, ,
-2, ,-43, ,
0, ,-43, ,
0, ,-42, ,
0, ,-43, ,
0, ,-42, ,
-6, ,-42, ,
-1, ,-43, ,
0, ,-42, ,
-4, ,-42, ,
-5, ,-42, ,
3, ,-43, ,
0, ,-42, ,
-1, ,-42, ,
-2, ,-42, ,
-2, ,-43, ,
-2, ,-42, ,
0, ,-42, ,
-4, ,-42, ,
1, ,-43, ,
0, ,-42, ,
3, ,-42, ,
1, ,-42, ,
5, ,-43, ,
5, ,-42, ,
4, ,-43, ,
4, ,-43, ,
4, ,-42, ,
5, ,-43, ,
6, ,-42, ,
-1, ,-42, ,
3, ,-43, ,
4, ,-43, ,
3, ,-42, ,
-2, ,-42, ,
4, ,-42, ,
4, ,-42, ,
3, ,-42, ,
1, ,-42, ,
1, ,-42, ,
1, ,-42, ,
3, ,-43, ,
-4, ,-42, ,
-1, ,-43, ,
1, ,-42, ,
1, ,-42, ,
-2, ,-43, ,
3, ,-43, ,
3, ,-42, ,
0, ,-43, ,
1, ,-42, ,
0, ,-42, ,
-1, ,-43, ,
3, ,-42, ,
-1, ,-42, ,
3, ,-43, ,
5, ,-42, ,
4, ,-42, ,
4, ,-42, ,
6, ,-42, ,
3, ,-42, ,
5, ,-43, ,
5, ,-43, ,
9, ,-42, ,
10, ,-42, ,
11, ,-42, ,
5, ,-42, ,
4, ,-43, ,
8, ,-43, ,
3, ,-42, ,
-1, ,-42, ,
8, ,-43, ,
8, ,-42, ,
5, ,-42, ,
4, ,-42, ,
4, ,-42, ,
4, ,-43, ,
8, ,-42, ,
1, ,-42, ,
4, ,-43, ,
6, ,-42, ,
3, ,-42, ,
0, ,-42, ,
3, ,-42, ,
1, ,-42, ,
3, ,-42, ,
4, ,-43, ,
4, ,-42, ,
8, ,-42, ,
9, ,-42, ,
1, ,-42, ,
8, ,-43, ,
9, ,-42, ,
8, ,-42, ,
6, ,-42, ,
10, ,-43, ,
9, ,-42, ,
5, ,-43, ,
6, ,-42, ,
5, ,-42, ,
8, ,-43, ,
8, ,-42, ,
1, ,-42, ,
11, ,-43, ,
13, ,-42, ,
8, ,-42, ,
5, ,-42, ,
9, ,-42, ,
6, ,-42, ,
5, ,-42, ,
1, ,-42, ,
4, ,-42, ,
5, ,-42, ,
8, ,-43, ,
3, ,-42, ,
3, ,-43, ,
3, ,-42, ,
-1, ,-42, ,
-2, ,-42, ,
5, ,-42, ,
1, ,-42, ,
4, ,-42, ,
6, ,-42, ,
4, ,-42, ,
5, ,-42, ,
5, ,-42, ,
1, ,-42, ,
5, ,-43, ,
6, ,-42, ,
4, ,-42, ,
3, ,-43, ,
9, ,-43, ,
3, ,-42, ,
4, ,-42, ,
1, ,-43, ,
-1, ,-42, ,
4, ,-43, ,
5, ,-42, ,
6, ,-42, ,
5, ,-43, ,
9, ,-42, ,
4, ,-42, ,
-6, ,-42, ,
3, ,-42, ,
6, ,-42, ,
3, ,-42, ,
-1, ,-42, ,
1, ,-42, ,
4, ,-42, ,
5, ,-42, ,
0, ,-42, ,
4, ,-43, ,
5, ,-42, ,
0, ,-42, ,
-2, ,-43, ,
0, ,-43, ,
-5, ,-42, ,
-1, ,-43, ,
-1, ,-42, ,
5, ,-42, ,
1, ,-42, ,
1, ,-42, ,
1, ,-42, ,
3, ,-43, ,
4, ,-42, ,
1, ,-42, ,
0, ,-42, ,
6, ,-43, ,
5, ,-42, ,
4, ,-42, ,
1, ,-42, ,
4, ,-42, ,
1, ,-42, ,
5, ,-42, ,
1, ,-42, ,
4, ,-43, ,
6, ,-43, ,
4, ,-42, ,
-2, ,-42, ,
4, ,-42, ,
1, ,-42, ,
4, ,-43, ,
1, ,-42, ,
0, ,-43, ,
-2, ,-42, ,
1, ,-42, ,
-2, ,-42, ,
0, ,-43, ,
0, ,-43, ,
0, ,-42, ,
-7, ,-42, ,
-1, ,-43, ,
-1, ,-42, ,
-4, ,-42, ,
-4, ,-42, ,
-4, ,-42, ,
-1, ,-42, ,
0, ,-42, ,
-6, ,-42, ,
-1, ,-43, ,
1, ,-42, ,
-5, ,-42, ,
-6, ,-42, ,
-2, ,-42, ,
-6, ,-42, ,
-4, ,-42, ,
-4, ,-43, ,
-4, ,-42, ,
0, ,-42, ,
1, ,-42, ,
-5, ,-42, ,
1, ,-43, ,
1, ,-42, ,
-1, ,-42, ,
-7, ,-42, ,
-2, ,-43, ,
-1, ,-42, ,
-4, ,-43, ,
-5, ,-42, ,
-5, ,-42, ,
0, ,-43, ,
-5, ,-42, ,
-7, ,-42, ,
-11, ,-43, ,
-1, ,-42, ,
1, ,-42, ,
-6, ,-42, ,
3, ,-43, ,
-1, ,-42, ,
-6, ,-42, ,
-5, ,-42, ,
-6, ,-42, ,
-4, ,-42, ,
-2, ,-42, ,
-9, ,-42, ,
-5, ,-43, ,
-1, ,-43, ,
-5, ,-42, ,
-9, ,-43, ,
-2, ,-42, ,
-5, ,-42, ,
-1, ,-43, ,
-2, ,-43, ,
0, ,-42, ,
0, ,-42, ,
0, ,-42, ,
-6, ,-42, ,
-1, ,-43, ,
3, ,-43, ,
-2, ,-42, ,
-2, ,-42, ,
5, ,-42, ,
0, ,-42, ,
0, ,-43, ,
-2, ,-42, ,
-2, ,-42, ,
-2, ,-42, ,
-1, ,-42, ,
-6, ,-42, ,
-4, ,-43, ,
-2, ,-42, ,
-4, ,-42, ,
-6, ,-42, ,
4, ,-43, ,
0, ,-42, ,
1, ,-42, ,
-1, ,-43, ,
-2, ,-42, ,
-2, ,-42, ,
1, ,-42, ,
-6, ,-42, ,
0, ,-43, ,
1, ,-43, ,
-1, ,-42, ,
-1, ,-43, ,
0, ,-43, ,
-1, ,-42, ,
-1, ,-43, ,
1, ,-42, ,
0, ,-42, ,
0, ,-43, ,
0, ,-42, ,
-2, ,-42, ,
1, ,-43, ,
3, ,-42, ,
0, ,-42, ,
-1, ,-42, ,
4, ,-43, ,
3, ,-42, ,
1, ,-42, ,
3, ,-42, ,
3, ,-43, ,
-1, ,-42, ,
0, ,-42, ,
-6, ,-42, ,
-2, ,-43, ,
3, ,-42, ,
-5, ,-42, ,
-2, ,-42, ,
6, ,-42, ,
4, ,-42, ,
4, ,-42, ,
3, ,-42, ,
1, ,-42, ,
1, ,-43, ,
-1, ,-42, ,
-6, ,-42, ,
-1, ,-43, ,
1, ,-43, ,
1, ,-42, ,
-1, ,-42, ,
6, ,-43, ,
4, ,-42, ,
4, ,-43, ,
3, ,-42, ,
4, ,-43, ,
4, ,-42, ,
5, ,-42, ,
3, ,-42, ,
4, ,-43, ,
5, ,-42, ,
3, ,-42, ,
-4, ,-42, ,
5, ,-43, ,
-1, ,-42, ,
3, ,-42, ,
1, ,-43, ,
4, ,-42, ,
8, ,-43, ,
8, ,-42, ,
1, ,-42, ,
5, ,-43, ,
5, ,-43, ,
4, ,-42, ,
-2, ,-42, ,
8, ,-42, ,
5, ,-42, ,
8, ,-42, ,
4, ,-42, ,
4, ,-42, ,
4, ,-43, ,
3, ,-42, ,
-2, ,-42, ,
3, ,-43, ,
6, ,-42, ,
3, ,-42, ,
3, ,-42, ,
8, ,-42, ,
4, ,-42, ,
4, ,-42, ,
1, ,-43, ,
3, ,-42, ,
3, ,-42, ,
5, ,-42, ,
0, ,-42, ,
4, ,-43, ,
5, ,-42, ,
3, ,-42, ,
-2, ,-42, ,
3, ,-42, ,
1, ,-42, ,
4, ,-42, ,
3, ,-42, ,
5, ,-42, ,
8, ,-42, ,
8, ,-42, ,
6, ,-42, ,
5, ,-43, ,
11, ,-43, ,
3, ,-42, ,
1, ,-42, ,
8, ,-43, ,
5, ,-42, ,
6, ,-42, ,
5, ,-42, ,
4, ,-42, ,
5, ,-43, ,
5, ,-42, ,
0, ,-42, ,
3, ,-43, ,
5, ,-42, ,
4, ,-42, ,
1, ,-42, ,
8, ,-42, ,
5, ,-42, ,
4, ,-42, ,
5, ,-43, ,
5, ,-42, ,
5, ,-42, ,
6, ,-42, ,
3, ,-42, ,
6, ,-43, ,
10, ,-43, ,
5, ,-42, ,
0, ,-42, ,
5, ,-43, ,
0, ,-42, ,
3, ,-42, ,
1, ,-43, ,
3, ,-42, ,
4, ,-43, ,
6, ,-42, ,
3, ,-42, ,
10, ,-43, ,
9, ,-42, ,
5, ,-42, ,
3, ,-42, ,
5, ,-42, ,
5, ,-42, ,
3, ,-43, ,
4, ,-42, ,
5, ,-42, ,
4, ,-42, ,
6, ,-42, ,
1, ,-42, ,
5, ,-43, ,
6, ,-42, ,
1, ,-42, ,
1, ,-43, ,
4, ,-42, ,
1, ,-42, ,
3, ,-43, ,
1, ,-42, ,
4, ,-42, ,
