src/vary_am2_1411/temp0002338.CSV

Format,1.0B,
Memory Length,10000,Memory Length,10000,
IntpDistance,0,IntpDistance,0,
Trigger Address,4999,Trigger Address,4999,
Trigger Level,-1.000E+00,Trigger Level,-1.000E+00,
Source,CH1,Source,CH2,
Vertical Units,V,Vertical Units,V,
Vertical Units Div,0,Vertical Units Div,0,
Vertical Units Extend Div,16,Vertical Units Extend Div,16,
Label,,Label,,
Probe Type,0,Probe Type,0,
Probe Ratio,1.000e+01,Probe Ratio,1.000e+00,
Vertical Scale,2.000e-02,Vertical Scale,1.000e+00,
Vertical Position,-5.120e-02,Vertical Position,2.000e-01,
Horizontal Units,S,Horizontal Units,S,
Horizontal Scale,1.000E-05,Horizontal Scale,1.000E-05,
Horizontal Position,0.000E+00,Horizontal Position,0.000E+00,
Horizontal Mode,Main,Horizontal Mode,Main,
SincET Mode,Real Time,SincET Mode,Real Time,
Sampling Period,1.000e-08,Sampling Period,1.000e-08,
Horizontal Old Scale,1.000E-05,Horizontal Old Scale,1.000E-05,
Horizontal Old Position,0.000E+00,Horizontal Old Position,0.000E+00,
Firmware,V1.23,Firmware,V1.23,
Mode,Fast,Mode,Fast,
Waveform Data,,Waveform Data,,
-1, ,-45, ,
-4, ,-45, ,
3, ,-45, ,
-6, ,-44, ,
-6, ,-45, ,
-6, ,-45, ,
-7, ,-45, ,
0, ,-45, ,
0, ,-45, ,
0, ,-44, ,
-4, ,-46, ,
-7, ,-45, ,
-4, ,-44, ,
-6, ,-45, ,
-10, ,-45, ,
-2, ,-44, ,
-1, ,-45, ,
-1, ,-44, ,
-2, ,-45, ,
1, ,-44, ,
-2, ,-45, ,
-4, ,-44, ,
-4, ,-46, ,
-1, ,-45, ,
-1, ,-45, ,
0, ,-45, ,
-4, ,-45, ,
1, ,-44, ,
0, ,-45, ,
-4, ,-45, ,
-7, ,-45, ,
0, ,-45, ,
-2, ,-45, ,
-7, ,-44, ,
-7, ,-45, ,
1, ,-45, ,
1, ,-45, ,
8, ,-45, ,
1, ,-45, ,
4, ,-44, ,
4, ,-45, ,
0, ,-45, ,
-2, ,-45, ,
1, ,-45, ,
0, ,-45, ,
3, ,-44, ,
-2, ,-46, ,
0, ,-45, ,
4, ,-44, ,
0, ,-45, ,
-1, ,-45, ,
4, ,-44, ,
6, ,-45, ,
5, ,-44, ,
3, ,-45, ,
9, ,-45, ,
6, ,-45, ,
5, ,-44, ,
4, ,-46, ,
3, ,-45, ,
1, ,-45, ,
1, ,-45, ,
-2, ,-45, ,
3, ,-44, ,
5, ,-45, ,
3, ,-45, ,
-2, ,-45, ,
5, ,-45, ,
0, ,-45, ,
3, ,-44, ,
-1, ,-45, ,
4, ,-45, ,
6, ,-44, ,
6, ,-45, ,
3, ,-45, ,
9, ,-44, ,
6, ,-45, ,
4, ,-45, ,
0, ,-45, ,
3, ,-44, ,
4, ,-45, ,
1, ,-44, ,
5, ,-45, ,
4, ,-45, ,
5, ,-44, ,
5, ,-45, ,
0, ,-45, ,
8, ,-44, ,
8, ,-45, ,
5, ,-45, ,
1, ,-45, ,
4, ,-44, ,
5, ,-45, ,
3, ,-44, ,
0, ,-45, ,
-1, ,-45, ,
3, ,-45, ,
10, ,-45, ,
-1, ,-45, ,
5, ,-44, ,
5, ,-45, ,
5, ,-45, ,
0, ,-45, ,
4, ,-45, ,
5, ,-45, ,
3, ,-44, ,
-1, ,-45, ,
3, ,-45, ,
3, ,-45, ,
5, ,-45, ,
3, ,-45, ,
4, ,-44, ,
9, ,-45, ,
5, ,-45, ,
1, ,-45, ,
5, ,-44, ,
5, ,-45, ,
4, ,-44, ,
3, ,-45, ,
3, ,-45, ,
6, ,-45, ,
6, ,-45, ,
1, ,-45, ,
6, ,-44, ,
4, ,-45, ,
3, ,-45, ,
0, ,-45, ,
13, ,-44, ,
8, ,-45, ,
5, ,-44, ,
5, ,-46, ,
5, ,-45, ,
5, ,-45, ,
5, ,-45, ,
-1, ,-45, ,
3, ,-44, ,
5, ,-45, ,
5, ,-45, ,
3, ,-45, ,
8, ,-45, ,
6, ,-45, ,
8, ,-44, ,
4, ,-45, ,
4, ,-45, ,
4, ,-44, ,
5, ,-45, ,
-1, ,-45, ,
3, ,-44, ,
5, ,-45, ,
4, ,-45, ,
0, ,-45, ,
5, ,-45, ,
5, ,-45, ,
4, ,-44, ,
1, ,-45, ,
5, ,-45, ,
4, ,-45, ,
6, ,-45, ,
3, ,-45, ,
4, ,-44, ,
6, ,-45, ,
0, ,-45, ,
-1, ,-45, ,
5, ,-44, ,
1, ,-45, ,
3, ,-44, ,
0, ,-46, ,
1, ,-45, ,
0, ,-44, ,
-2, ,-45, ,
-5, ,-45, ,
-1, ,-44, ,
0, ,-45, ,
1, ,-45, ,
-1, ,-45, ,
5, ,-45, ,
4, ,-45, ,
1, ,-44, ,
1, ,-45, ,
0, ,-45, ,
0, ,-45, ,
3, ,-45, ,
-5, ,-45, ,
-1, ,-44, ,
0, ,-45, ,
-2, ,-45, ,
-4, ,-44, ,
0, ,-44, ,
3, ,-45, ,
1, ,-44, ,
-1, ,-46, ,
1, ,-45, ,
3, ,-44, ,
3, ,-45, ,
0, ,-45, ,
0, ,-44, ,
3, ,-45, ,
1, ,-45, ,
-2, ,-45, ,
4, ,-45, ,
-2, ,-44, ,
-1, ,-45, ,
-1, ,-45, ,
0, ,-45, ,
-1, ,-45, ,
4, ,-45, ,
-5, ,-45, ,
1, ,-44, ,
0, ,-45, ,
-2, ,-45, ,
-2, ,-45, ,
0, ,-45, ,
1, ,-45, ,
3, ,-44, ,
-1, ,-46, ,
1, ,-45, ,
0, ,-45, ,
1, ,-45, ,
-5, ,-45, ,
-2, ,-44, ,
0, ,-45, ,
-2, ,-45, ,
-5, ,-45, ,
3, ,-45, ,
0, ,-45, ,
-1, ,-44, ,
-5, ,-45, ,
-2, ,-45, ,
-2, ,-45, ,
-1, ,-45, ,
-7, ,-45, ,
0, ,-44, ,
1, ,-45, ,
0, ,-45, ,
-2, ,-45, ,
1, ,-45, ,
-1, ,-45, ,
-4, ,-44, ,
-6, ,-45, ,
-5, ,-45, ,
0, ,-45, ,
-2, ,-45, ,
-9, ,-45, ,
-2, ,-44, ,
-2, ,-45, ,
-2, ,-45, ,
-9, ,-45, ,
-1, ,-45, ,
-1, ,-44, ,
-4, ,-44, ,
-4, ,-45, ,
-2, ,-45, ,
-2, ,-44, ,
-1, ,-45, ,
-7, ,-45, ,
-5, ,-45, ,
-4, ,-45, ,
-6, ,-45, ,
-7, ,-45, ,
0, ,-45, ,
-4, ,-45, ,
-2, ,-44, ,
-2, ,-46, ,
-2, ,-45, ,
-2, ,-45, ,
-1, ,-45, ,
-9, ,-45, ,
-2, ,-44, ,
0, ,-45, ,
-2, ,-45, ,
-5, ,-45, ,
0, ,-45, ,
-2, ,-45, ,
-2, ,-44, ,
-4, ,-46, ,
0, ,-45, ,
0, ,-45, ,
1, ,-45, ,
-2, ,-45, ,
0, ,-44, ,
4, ,-46, ,
-1, ,-45, ,
0, ,-45, ,
1, ,-45, ,
-2, ,-44, ,
-2, ,-45, ,
-7, ,-46, ,
1, ,-45, ,
4, ,-44, ,
4, ,-45, ,
1, ,-45, ,
3, ,-44, ,
3, ,-45, ,
1, ,-45, ,
-2, ,-45, ,
4, ,-45, ,
4, ,-45, ,
4, ,-44, ,
3, ,-45, ,
0, ,-45, ,
3, ,-45, ,
4, ,-45, ,
-4, ,-45, ,
1, ,-44, ,
1, ,-45, ,
-2, ,-45, ,
-6, ,-45, ,
0, ,-44, ,
3, ,-45, ,
-1, ,-43, ,
-4, ,-38, ,
4, ,-27, ,
5, ,-18, ,
6, ,-8, ,
1, ,-1, ,
9, ,7, ,
5, ,12, ,
6, ,17, ,
-1, ,21, ,
6, ,26, ,
5, ,28, ,
3, ,30, ,
-2, ,34, ,
1, ,36, ,
3, ,37, ,
3, ,39, ,
-2, ,40, ,
3, ,40, ,
4, ,42, ,
3, ,44, ,
1, ,44, ,
6, ,45, ,
4, ,46, ,
5, ,45, ,
1, ,47, ,
9, ,46, ,
6, ,47, ,
6, ,47, ,
0, ,48, ,
0, ,47, ,
3, ,48, ,
1, ,48, ,
-1, ,48, ,
1, ,48, ,
1, ,48, ,
5, ,47, ,
4, ,49, ,
4, ,48, ,
8, ,48, ,
9, ,49, ,
0, ,49, ,
4, ,47, ,
6, ,49, ,
4, ,49, ,
0, ,48, ,
8, ,49, ,
8, ,49, ,
4, ,48, ,
-1, ,49, ,
0, ,48, ,
1, ,48, ,
3, ,49, ,
0, ,49, ,
4, ,47, ,
5, ,49, ,
3, ,49, ,
-1, ,48, ,
0, ,48, ,
1, ,48, ,
3, ,48, ,
4, ,49, ,
5, ,48, ,
9, ,48, ,
8, ,49, ,
4, ,48, ,
4, ,46, ,
3, ,49, ,
4, ,48, ,
1, ,48, ,
4, ,49, ,
6, ,48, ,
1, ,47, ,
-1, ,49, ,
4, ,48, ,
3, ,48, ,
4, ,49, ,
3, ,48, ,
3, ,47, ,
4, ,49, ,
3, ,48, ,
1, ,48, ,
3, ,48, ,
0, ,48, ,
0, ,47, ,
-4, ,49, ,
3, ,48, ,
-2, ,48, ,
3, ,48, ,
-1, ,48, ,
3, ,46, ,
8, ,49, ,
4, ,48, ,
0, ,47, ,
5, ,48, ,
1, ,48, ,
4, ,47, ,
-2, ,49, ,
1, ,47, ,
1, ,48, ,
1, ,49, ,
-1, ,48, ,
1, ,47, ,
3, ,49, ,
3, ,48, ,
-2, ,48, ,
5, ,48, ,
5, ,49, ,
3, ,47, ,
-1, ,49, ,
1, ,48, ,
1, ,48, ,
3, ,49, ,
-4, ,48, ,
-1, ,46, ,
1, ,48, ,
1, ,48, ,
-1, ,48, ,
5, ,48, ,
4, ,48, ,
5, ,47, ,
1, ,49, ,
4, ,47, ,
5, ,48, ,
3, ,48, ,
1, ,48, ,
4, ,47, ,
3, ,49, ,
5, ,48, ,
4, ,48, ,
6, ,48, ,
4, ,48, ,
1, ,47, ,
-1, ,49, ,
1, ,47, ,
0, ,48, ,
0, ,48, ,
-2, ,48, ,
4, ,46, ,
4, ,49, ,
1, ,48, ,
0, ,47, ,
3, ,48, ,
1, ,49, ,
3, ,46, ,
1, ,49, ,
4, ,47, ,
1, ,48, ,
3, ,48, ,
-2, ,48, ,
-1, ,47, ,
-1, ,49, ,
-2, ,48, ,
-1, ,47, ,
1, ,48, ,
0, ,48, ,
1, ,46, ,
0, ,49, ,
0, ,47, ,
-5, ,48, ,
-1, ,48, ,
-4, ,48, ,
-1, ,47, ,
0, ,48, ,
1, ,48, ,
-1, ,48, ,
5, ,48, ,
-2, ,48, ,
0, ,46, ,
-2, ,49, ,
-2, ,47, ,
-4, ,48, ,
-1, ,48, ,
-6, ,48, ,
-1, ,47, ,
-1, ,48, ,
1, ,48, ,
-2, ,47, ,
3, ,48, ,
-2, ,48, ,
3, ,47, ,
0, ,49, ,
-1, ,48, ,
0, ,48, ,
1, ,48, ,
-5, ,48, ,
0, ,47, ,
0, ,48, ,
0, ,48, ,
-4, ,48, ,
0, ,48, ,
0, ,48, ,
-2, ,46, ,
-1, ,49, ,
1, ,47, ,
-1, ,48, ,
4, ,48, ,
-1, ,48, ,
0, ,46, ,
0, ,48, ,
-1, ,47, ,
-4, ,47, ,
3, ,48, ,
1, ,48, ,
0, ,47, ,
-1, ,49, ,
-1, ,47, ,
-2, ,48, ,
0, ,48, ,
-6, ,48, ,
-2, ,47, ,
0, ,48, ,
3, ,48, ,
0, ,48, ,
4, ,48, ,
1, ,48, ,
0, ,47, ,
-4, ,49, ,
-1, ,47, ,
-2, ,47, ,
-2, ,48, ,
-5, ,48, ,
0, ,46, ,
3, ,48, ,
4, ,48, ,
-1, ,47, ,
3, ,48, ,
0, ,48, ,
1, ,47, ,
0, ,49, ,
0, ,47, ,
1, ,48, ,
0, ,48, ,
-4, ,48, ,
-1, ,47, ,
0, ,48, ,
-2, ,48, ,
-9, ,48, ,
4, ,48, ,
3, ,48, ,
1, ,47, ,
3, ,48, ,
3, ,47, ,
1, ,47, ,
0, ,48, ,
-6, ,48, ,
-1, ,46, ,
-1, ,49, ,
0, ,47, ,
-1, ,48, ,
3, ,47, ,
3, ,48, ,
0, ,47, ,
-4, ,49, ,
-1, ,47, ,
-5, ,48, ,
-1, ,48, ,
-6, ,48, ,
3, ,47, ,
4, ,49, ,
3, ,48, ,
-1, ,48, ,
3, ,48, ,
0, ,48, ,
1, ,46, ,
0, ,49, ,
4, ,47, ,
3, ,47, ,
10, ,48, ,
6, ,48, ,
3, ,47, ,
4, ,48, ,
1, ,48, ,
-5, ,48, ,
1, ,48, ,
1, ,48, ,
-2, ,47, ,
3, ,49, ,
4, ,47, ,
4, ,47, ,
4, ,48, ,
0, ,48, ,
3, ,46, ,
6, ,49, ,
4, ,48, ,
0, ,47, ,
8, ,48, ,
5, ,48, ,
4, ,46, ,
1, ,49, ,
3, ,47, ,
3, ,48, ,
4, ,48, ,
-2, ,48, ,
3, ,47, ,
4, ,48, ,
1, ,48, ,
-1, ,47, ,
3, ,48, ,
0, ,48, ,
1, ,46, ,
1, ,49, ,
3, ,47, ,
3, ,47, ,
6, ,48, ,
0, ,48, ,
4, ,46, ,
1, ,48, ,
1, ,48, ,
-4, ,48, ,
0, ,48, ,
-2, ,48, ,
0, ,47, ,
-1, ,49, ,
3, ,47, ,
1, ,48, ,
5, ,48, ,
0, ,48, ,
5, ,46, ,
4, ,48, ,
1, ,48, ,
-4, ,48, ,
0, ,48, ,
-1, ,48, ,
-1, ,47, ,
0, ,48, ,
1, ,47, ,
1, ,48, ,
4, ,48, ,
0, ,48, ,
4, ,47, ,
4, ,48, ,
4, ,48, ,
0, ,48, ,
5, ,48, ,
0, ,48, ,
1, ,47, ,
-1, ,49, ,
3, ,47, ,
3, ,48, ,
3, ,48, ,
0, ,48, ,
4, ,46, ,
5, ,48, ,
4, ,48, ,
-2, ,47, ,
4, ,48, ,
0, ,49, ,
1, ,47, ,
-1, ,49, ,
3, ,48, ,
4, ,48, ,
1, ,48, ,
0, ,48, ,
3, ,46, ,
3, ,48, ,
1, ,48, ,
-4, ,47, ,
3, ,48, ,
-4, ,48, ,
4, ,48, ,
-1, ,48, ,
0, ,47, ,
1, ,48, ,
5, ,48, ,
-2, ,48, ,
1, ,47, ,
0, ,48, ,
3, ,48, ,
-1, ,47, ,
4, ,48, ,
4, ,48, ,
1, ,46, ,
0, ,49, ,
0, ,47, ,
1, ,47, ,
3, ,48, ,
-1, ,48, ,
3, ,46, ,
4, ,48, ,
4, ,48, ,
-1, ,47, ,
1, ,48, ,
1, ,48, ,
1, ,47, ,
1, ,49, ,
3, ,47, ,
1, ,48, ,
4, ,48, ,
-2, ,48, ,
-1, ,46, ,
1, ,49, ,
5, ,48, ,
-4, ,47, ,
-2, ,48, ,
-4, ,48, ,
-7, ,47, ,
-6, ,49, ,
3, ,48, ,
3, ,48, ,
3, ,49, ,
-2, ,48, ,
0, ,47, ,
0, ,48, ,
-1, ,47, ,
-2, ,48, ,
3, ,48, ,
0, ,49, ,
0, ,46, ,
-1, ,49, ,
-2, ,47, ,
-1, ,47, ,
-1, ,48, ,
-5, ,48, ,
0, ,46, ,
-1, ,48, ,
-1, ,48, ,
-2, ,47, ,
4, ,48, ,
0, ,48, ,
3, ,47, ,
3, ,48, ,
1, ,48, ,
3, ,47, ,
3, ,48, ,
-5, ,48, ,
4, ,46, ,
0, ,48, ,
5, ,48, ,
1, ,47, ,
1, ,48, ,
-1, ,48, ,
-1, ,47, ,
-4, ,49, ,
1, ,47, ,
0, ,48, ,
4, ,48, ,
0, ,48, ,
5, ,47, ,
3, ,48, ,
1, ,48, ,
-1, ,47, ,
3, ,48, ,
0, ,48, ,
-1, ,46, ,
-2, ,49, ,
1, ,47, ,
0, ,47, ,
1, ,48, ,
-2, ,48, ,
-2, ,46, ,
0, ,49, ,
0, ,48, ,
-1, ,48, ,
4, ,48, ,
0, ,48, ,
3, ,46, ,
-4, ,49, ,
0, ,47, ,
-2, ,47, ,
-5, ,48, ,
-9, ,48, ,
-2, ,46, ,
1, ,49, ,
3, ,48, ,
-1, ,47, ,
5, ,48, ,
3, ,48, ,
-1, ,47, ,
-4, ,49, ,
0, ,47, ,
-5, ,47, ,
-11, ,48, ,
-1, ,48, ,
4, ,47, ,
-2, ,49, ,
8, ,48, ,
-4, ,48, ,
1, ,48, ,
-1, ,48, ,
1, ,47, ,
-1, ,49, ,
3, ,47, ,
4, ,48, ,
3, ,48, ,
-1, ,48, ,
1, ,46, ,
0, ,48, ,
-1, ,48, ,
-1, ,48, ,
4, ,48, ,
3, ,48, ,
3, ,47, ,
1, ,49, ,
1, ,47, ,
-4, ,47, ,
3, ,48, ,
-7, ,48, ,
1, ,46, ,
3, ,48, ,
0, ,48, ,
1, ,47, ,
5, ,48, ,
3, ,48, ,
5, ,48, ,
-1, ,48, ,
4, ,47, ,
0, ,48, ,
0, ,48, ,
-1, ,48, ,
0, ,47, ,
4, ,48, ,
4, ,48, ,
0, ,47, ,
5, ,48, ,
1, ,48, ,
1, ,47, ,
-2, ,49, ,
-1, ,47, ,
0, ,47, ,
6, ,49, ,
0, ,48, ,
6, ,47, ,
5, ,48, ,
3, ,48, ,
0, ,48, ,
6, ,48, ,
3, ,48, ,
3, ,47, ,
5, ,49, ,
1, ,47, ,
3, ,48, ,
3, ,48, ,
-2, ,48, ,
3, ,46, ,
-1, ,48, ,
0, ,48, ,
0, ,48, ,
4, ,48, ,
4, ,48, ,
6, ,46, ,
8, ,49, ,
5, ,47, ,
3, ,47, ,
5, ,48, ,
-6, ,48, ,
-1, ,47, ,
0, ,48, ,
1, ,48, ,
-4, ,48, ,
-1, ,48, ,
-4, ,48, ,
-1, ,47, ,
1, ,49, ,
4, ,47, ,
5, ,48, ,
6, ,48, ,
-1, ,48, ,
5, ,46, ,
4, ,48, ,
1, ,48, ,
0, ,47, ,
8, ,48, ,
5, ,48, ,
1, ,47, ,
0, ,49, ,
1, ,47, ,
-2, ,48, ,
3, ,48, ,
-2, ,48, ,
3, ,47, ,
5, ,48, ,
0, ,48, ,
-2, ,48, ,
3, ,48, ,
1, ,48, ,
5, ,47, ,
5, ,48, ,
8, ,47, ,
9, ,48, ,
6, ,48, ,
4, ,48, ,
4, ,46, ,
4, ,48, ,
3, ,48, ,
-2, ,47, ,
6, ,48, ,
3, ,48, ,
3, ,47, ,
0, ,49, ,
1, ,48, ,
1, ,47, ,
4, ,48, ,
1, ,48, ,
3, ,46, ,
6, ,49, ,
3, ,48, ,
1, ,47, ,
5, ,48, ,
0, ,48, ,
1, ,46, ,
1, ,48, ,
1, ,47, ,
5, ,48, ,
1, ,48, ,
-2, ,48, ,
0, ,47, ,
0, ,48, ,
0, ,48, ,
-1, ,48, ,
0, ,48, ,
0, ,48, ,
-2, ,48, ,
-2, ,49, ,
3, ,47, ,
-1, ,48, ,
5, ,48, ,
-4, ,48, ,
3, ,46, ,
1, ,49, ,
0, ,48, ,
-4, ,47, ,
4, ,48, ,
1, ,48, ,
1, ,46, ,
1, ,49, ,
4, ,47, ,
0, ,48, ,
6, ,48, ,
0, ,48, ,
1, ,47, ,
3, ,48, ,
0, ,48, ,
-5, ,48, ,
3, ,48, ,
-1, ,48, ,
0, ,47, ,
-1, ,48, ,
-1, ,48, ,
-2, ,48, ,
0, ,48, ,
-1, ,48, ,
1, ,46, ,
3, ,48, ,
1, ,48, ,
-4, ,47, ,
4, ,48, ,
0, ,48, ,
1, ,46, ,
0, ,49, ,
-1, ,47, ,
0, ,48, ,
0, ,48, ,
-4, ,48, ,
0, ,46, ,
-2, ,49, ,
0, ,48, ,
-5, ,48, ,
1, ,48, ,
1, ,48, ,
1, ,47, ,
1, ,49, ,
3, ,47, ,
3, ,48, ,
3, ,48, ,
-2, ,48, ,
3, ,47, ,
-1, ,48, ,
0, ,48, ,
-2, ,47, ,
1, ,48, ,
0, ,48, ,
1, ,48, ,
0, ,48, ,
-1, ,47, ,
-1, ,47, ,
-1, ,48, ,
-2, ,48, ,
1, ,46, ,
3, ,48, ,
1, ,48, ,
-4, ,47, ,
0, ,48, ,
-1, ,48, ,
-4, ,47, ,
-5, ,49, ,
0, ,47, ,
0, ,48, ,
3, ,48, ,
-2, ,48, ,
0, ,47, ,
-2, ,48, ,
3, ,48, ,
-4, ,47, ,
-1, ,48, ,
-1, ,48, ,
1, ,47, ,
-1, ,49, ,
0, ,47, ,
0, ,47, ,
1, ,48, ,
-4, ,48, ,
-1, ,46, ,
-1, ,48, ,
-2, ,48, ,
-5, ,47, ,
0, ,48, ,
-2, ,48, ,
-1, ,47, ,
-4, ,49, ,
-1, ,48, ,
-4, ,48, ,
0, ,48, ,
-5, ,49, ,
0, ,46, ,
0, ,49, ,
-1, ,48, ,
-2, ,48, ,
3, ,48, ,
-1, ,48, ,
0, ,47, ,
-2, ,48, ,
0, ,48, ,
1, ,48, ,
0, ,48, ,
-1, ,48, ,
1, ,46, ,
4, ,49, ,
1, ,48, ,
-2, ,48, ,
3, ,48, ,
3, ,48, ,
1, ,46, ,
-1, ,49, ,
0, ,47, ,
-1, ,48, ,
4, ,48, ,
-2, ,48, ,
4, ,46, ,
4, ,48, ,
3, ,48, ,
-1, ,47, ,
1, ,48, ,
1, ,48, ,
3, ,47, ,
0, ,49, ,
3, ,47, ,
1, ,48, ,
1, ,48, ,
-5, ,49, ,
1, ,46, ,
1, ,48, ,
1, ,48, ,
-2, ,48, ,
6, ,48, ,
-1, ,48, ,
0, ,48, ,
-4, ,48, ,
-2, ,47, ,
-4, ,48, ,
-1, ,48, ,
-4, ,48, ,
1, ,47, ,
5, ,48, ,
5, ,48, ,
0, ,48, ,
4, ,48, ,
3, ,48, ,
3, ,47, ,
0, ,48, ,
0, ,47, ,
-1, ,48, ,
0, ,48, ,
-4, ,48, ,
0, ,47, ,
1, ,48, ,
3, ,48, ,
-1, ,47, ,
5, ,48, ,
3, ,48, ,
4, ,47, ,
4, ,48, ,
6, ,42, ,
4, ,34, ,
3, ,25, ,
-6, ,14, ,
-5, ,7, ,
-6, ,-1, ,
-5, ,-7, ,
-4, ,-12, ,
1, ,-17, ,
0, ,-21, ,
-4, ,-24, ,
-4, ,-27, ,
-5, ,-30, ,
-5, ,-31, ,
1, ,-35, ,
-5, ,-36, ,
0, ,-37, ,
3, ,-39, ,
3, ,-40, ,
3, ,-40, ,
5, ,-41, ,
4, ,-42, ,
3, ,-42, ,
-1, ,-43, ,
1, ,-43, ,
1, ,-43, ,
4, ,-44, ,
-1, ,-44, ,
3, ,-44, ,
6, ,-45, ,
4, ,-45, ,
1, ,-45, ,
3, ,-45, ,
4, ,-45, ,
3, ,-45, ,
1, ,-46, ,
4, ,-45, ,
5, ,-45, ,
4, ,-46, ,
0, ,-45, ,
1, ,-45, ,
4, ,-46, ,
3, ,-45, ,
-1, ,-45, ,
8, ,-46, ,
5, ,-45, ,
6, ,-45, ,
1, ,-46, ,
4, ,-45, ,
4, ,-45, ,
3, ,-45, ,
-2, ,-46, ,
4, ,-44, ,
6, ,-46, ,
3, ,-45, ,
-1, ,-45, ,
5, ,-45, ,
4, ,-45, ,
3, ,-44, ,
3, ,-46, ,
3, ,-45, ,
4, ,-45, ,
3, ,-45, ,
-2, ,-46, ,
3, ,-44, ,
4, ,-46, ,
1, ,-45, ,
-1, ,-45, ,
4, ,-45, ,
3, ,-45, ,
-1, ,-45, ,
-4, ,-46, ,
1, ,-45, ,
0, ,-45, ,
6, ,-45, ,
-1, ,-45, ,
4, ,-45, ,
5, ,-45, ,
0, ,-45, ,
-2, ,-45, ,
1, ,-45, ,
-1, ,-45, ,
1, ,-45, ,
-1, ,-46, ,
4, ,-45, ,
4, ,-45, ,
8, ,-45, ,
3, ,-45, ,
4, ,-44, ,
5, ,-45, ,
1, ,-45, ,
-1, ,-45, ,
4, ,-45, ,
4, ,-45, ,
3, ,-45, ,
0, ,-45, ,
4, ,-45, ,
3, ,-45, ,
4, ,-45, ,
1, ,-45, ,
4, ,-45, ,
9, ,-45, ,
5, ,-45, ,
3, ,-45, ,
8, ,-45, ,
4, ,-45, ,
3, ,-44, ,
0, ,-45, ,
1, ,-45, ,
1, ,-45, ,
3, ,-45, ,
-1, ,-45, ,
1, ,-44, ,
0, ,-45, ,
-1, ,-45, ,
-4, ,-45, ,
3, ,-45, ,
-1, ,-45, ,
1, ,-45, ,
3, ,-45, ,
3, ,-45, ,
3, ,-45, ,
3, ,-45, ,
0, ,-45, ,
1, ,-44, ,
4, ,-45, ,
-1, ,-45, ,
-5, ,-45, ,
0, ,-45, ,
-1, ,-45, ,
-1, ,-44, ,
-2, ,-46, ,
0, ,-45, ,
1, ,-44, ,
0, ,-45, ,
-6, ,-45, ,
1, ,-44, ,
-1, ,-45, ,
-5, ,-45, ,
-5, ,-45, ,
1, ,-45, ,
0, ,-45, ,
-1, ,-44, ,
-4, ,-46, ,
0, ,-45, ,
0, ,-45, ,
-1, ,-45, ,
-7, ,-45, ,
-2, ,-44, ,
1, ,-45, ,
-2, ,-45, ,
-4, ,-45, ,
0, ,-45, ,
-1, ,-45, ,
-1, ,-45, ,
-4, ,-46, ,
1, ,-45, ,
1, ,-45, ,
3, ,-45, ,
-2, ,-45, ,
1, ,-44, ,
1, ,-45, ,
-2, ,-45, ,
-6, ,-45, ,
-1, ,-45, ,
0, ,-45, ,
-1, ,-44, ,
-1, ,-46, ,
3, ,-45, ,
-1, ,-45, ,
0, ,-45, ,
-4, ,-45, ,
-1, ,-44, ,
-1, ,-45, ,
-1, ,-45, ,
-6, ,-45, ,
1, ,-45, ,
0, ,-45, ,
3, ,-44, ,
0, ,-46, ,
1, ,-45, ,
0, ,-44, ,
1, ,-45, ,
-6, ,-45, ,
-1, ,-44, ,
0, ,-45, ,
0, ,-45, ,
-4, ,-45, ,
0, ,-45, ,
-1, ,-45, ,
-2, ,-45, ,
-2, ,-45, ,
0, ,-45, ,
1, ,-45, ,
0, ,-45, ,
0, ,-45, ,
3, ,-44, ,
1, ,-45, ,
-2, ,-45, ,
-6, ,-44, ,
-2, ,-45, ,
-5, ,-45, ,
0, ,-45, ,
-4, ,-45, ,
3, ,-45, ,
1, ,-44, ,
5, ,-45, ,
0, ,-45, ,
1, ,-44, ,
1, ,-45, ,
-1, ,-44, ,
-4, ,-45, ,
-1, ,-45, ,
-4, ,-45, ,
-2, ,-44, ,
-5, ,-45, ,
-2, ,-45, ,
-5, ,-45, ,
-4, ,-45, ,
-6, ,-45, ,
0, ,-45, ,
1, ,-45, ,
0, ,-45, ,
-4, ,-44, ,
3, ,-45, ,
-1, ,-45, ,
-1, ,-44, ,
-5, ,-45, ,
-4, ,-45, ,
-1, ,-45, ,
-1, ,-45, ,
-4, ,-45, ,
-1, ,-44, ,
-1, ,-45, ,
0, ,-45, ,
-5, ,-45, ,
1, ,-45, ,
0, ,-44, ,
-4, ,-44, ,
-2, ,-45, ,
0, ,-45, ,
1, ,-44, ,
4, ,-45, ,
-4, ,-45, ,
4, ,-45, ,
4, ,-45, ,
0, ,-45, ,
-4, ,-45, ,
0, ,-45, ,
-1, ,-45, ,
-1, ,-45, ,
-2, ,-45, ,
-1, ,-45, ,
1, ,-44, ,
1, ,-45, ,
-4, ,-45, ,
3, ,-44, ,
5, ,-45, ,
3, ,-45, ,
0, ,-45, ,
3, ,-45, ,
4, ,-45, ,
1, ,-44, ,
-2, ,-45, ,
1, ,-45, ,
1, ,-45, ,
1, ,-44, ,
-2, ,-45, ,
0, ,-44, ,
5, ,-45, ,
0, ,-45, ,
-4, ,-45, ,
3, ,-45, ,
-1, ,-45, ,
3, ,-44, ,
-2, ,-45, ,
0, ,-45, ,
0, ,-45, ,
-2, ,-45, ,
-6, ,-45, ,
4, ,-44, ,
5, ,-45, ,
1, ,-45, ,
-2, ,-45, ,
-1, ,-45, ,
-2, ,-45, ,
-5, ,-45, ,
-2, ,-45, ,
-1, ,-45, ,
4, ,-45, ,
4, ,-45, ,
-2, ,-45, ,
0, ,-44, ,
3, ,-45, ,
3, ,-45, ,
1, ,-45, ,
4, ,-45, ,
1, ,-45, ,
1, ,-44, ,
-2, ,-45, ,
0, ,-44, ,
4, ,-45, ,
3, ,-45, ,
-2, ,-45, ,
5, ,-44, ,
3, ,-45, ,
4, ,-44, ,
0, ,-45, ,
6, ,-45, ,
4, ,-45, ,
0, ,-44, ,
0, ,-45, ,
4, ,-45, ,
1, ,-44, ,
5, ,-44, ,
0, ,-45, ,
6, ,-45, ,
8, ,-45, ,
3, ,-45, ,
-1, ,-45, ,
3, ,-45, ,
-1, ,-45, ,
-1, ,-45, ,
0, ,-45, ,
4, ,-45, ,
3, ,-45, ,
6, ,-45, ,
-2, ,-45, ,
1, ,-43, ,
5, ,-45, ,
5, ,-45, ,
0, ,-45, ,
6, ,-45, ,
4, ,-45, ,
3, ,-45, ,
-1, ,-45, ,
4, ,-45, ,
4, ,-45, ,
4, ,-45, ,
5, ,-45, ,
4, ,-45, ,
9, ,-45, ,
6, ,-45, ,
0, ,-45, ,
8, ,-45, ,
4, ,-45, ,
3, ,-44, ,
3, ,-45, ,
3, ,-45, ,
4, ,-44, ,
4, ,-45, ,
-2, ,-45, ,
4, ,-44, ,
3, ,-45, ,
1, ,-45, ,
-4, ,-45, ,
4, ,-44, ,
3, ,-44, ,
3, ,-45, ,
1, ,-45, ,
3, ,-45, ,
4, ,-45, ,
1, ,-45, ,
0, ,-45, ,
4, ,-44, ,
4, ,-45, ,
4, ,-45, ,
-1, ,-45, ,
3, ,-45, ,
1, ,-45, ,
0, ,-45, ,
-2, ,-45, ,
-1, ,-45, ,
0, ,-44, ,
1, ,-45, ,
-2, ,-45, ,
1, ,-44, ,
1, ,-45, ,
1, ,-45, ,
-1, ,-45, ,
3, ,-45, ,
0, ,-44, ,
3, ,-44, ,
-1, ,-45, ,
3, ,-45, ,
1, ,-44, ,
3, ,-45, ,
-6, ,-45, ,
-2, ,-44, ,
5, ,-45, ,
0, ,-45, ,
-4, ,-45, ,
3, ,-45, ,
-1, ,-45, ,
5, ,-44, ,
3, ,-46, ,
4, ,-45, ,
4, ,-44, ,
1, ,-45, ,
0, ,-45, ,
3, ,-44, ,
5, ,-46, ,
5, ,-45, ,
0, ,-45, ,
5, ,-45, ,
5, ,-45, ,
4, ,-44, ,
-1, ,-45, ,
1, ,-45, ,
4, ,-45, ,
5, ,-45, ,
-1, ,-45, ,
5, ,-44, ,
4, ,-45, ,
0, ,-45, ,
-2, ,-44, ,
3, ,-45, ,
4, ,-45, ,
1, ,-44, ,
3, ,-45, ,
4, ,-45, ,
4, ,-44, ,
4, ,-45, ,
-5, ,-45, ,
-1, ,-44, ,
-2, ,-45, ,
-2, ,-45, ,
-2, ,-45, ,
3, ,-45, ,
1, ,-45, ,
1, ,-44, ,
1, ,-46, ,
0, ,-45, ,
1, ,-45, ,
5, ,-45, ,
-4, ,-45, ,
-1, ,-44, ,
1, ,-45, ,
-4, ,-45, ,
-10, ,-45, ,
-9, ,-45, ,
-12, ,-45, ,
-15, ,-45, ,
-19, ,-45, ,
-14, ,-45, ,
-11, ,-44, ,
-6, ,-45, ,
-7, ,-45, ,
-2, ,-44, ,
3, ,-45, ,
4, ,-45, ,
6, ,-45, ,
13, ,-45, ,
10, ,-45, ,
9, ,-44, ,
4, ,-45, ,
3, ,-45, ,
3, ,-45, ,
1, ,-45, ,
-2, ,-45, ,
-2, ,-44, ,
-1, ,-45, ,
-4, ,-45, ,
-9, ,-45, ,
-1, ,-45, ,
0, ,-45, ,
1, ,-44, ,
0, ,-46, ,
5, ,-45, ,
-4, ,-44, ,
-10, ,-45, ,
-7, ,-45, ,
-1, ,-44, ,
-5, ,-46, ,
-4, ,-45, ,
-6, ,-45, ,
1, ,-45, ,
-2, ,-45, ,
3, ,-44, ,
0, ,-46, ,
-2, ,-45, ,
1, ,-45, ,
4, ,-45, ,
-6, ,-45, ,
3, ,-44, ,
3, ,-45, ,
-1, ,-45, ,
-2, ,-45, ,
3, ,-45, ,
0, ,-45, ,
-1, ,-44, ,
-1, ,-45, ,
1, ,-45, ,
0, ,-44, ,
1, ,-45, ,
0, ,-45, ,
1, ,-44, ,
3, ,-45, ,
-2, ,-44, ,
-4, ,-45, ,
1, ,-45, ,
-1, ,-45, ,
-1, ,-44, ,
-1, ,-46, ,
0, ,-45, ,
-1, ,-44, ,
3, ,-45, ,
-2, ,-45, ,
-1, ,-44, ,
1, ,-45, ,
-1, ,-45, ,
-6, ,-45, ,
-1, ,-45, ,
-5, ,-45, ,
-4, ,-44, ,
-5, ,-46, ,
-2, ,-45, ,
1, ,-45, ,
-2, ,-45, ,
-4, ,-45, ,
1, ,-44, ,
3, ,-45, ,
3, ,-45, ,
-2, ,-45, ,
5, ,-45, ,
3, ,-45, ,
-2, ,-44, ,
-4, ,-45, ,
-1, ,-45, ,
-2, ,-45, ,
-1, ,-45, ,
-2, ,-45, ,
1, ,-44, ,
3, ,-45, ,
3, ,-45, ,
-4, ,-45, ,
4, ,-45, ,
0, ,-45, ,
-2, ,-45, ,
-2, ,-45, ,
0, ,-45, ,
1, ,-45, ,
3, ,-45, ,
-6, ,-45, ,
1, ,-44, ,
1, ,-45, ,
1, ,-45, ,
-1, ,-45, ,
0, ,-45, ,
4, ,-45, ,
1, ,-44, ,
1, ,-46, ,
3, ,-45, ,
3, ,-45, ,
5, ,-45, ,
1, ,-45, ,
4, ,-44, ,
6, ,-45, ,
5, ,-45, ,
3, ,-45, ,
5, ,-45, ,
4, ,-45, ,
4, ,-44, ,
0, ,-46, ,
4, ,-45, ,
3, ,-45, ,
3, ,-45, ,
-1, ,-45, ,
1, ,-44, ,
4, ,-45, ,
1, ,-45, ,
-2, ,-45, ,
4, ,-45, ,
-1, ,-45, ,
-1, ,-45, ,
-4, ,-45, ,
0, ,-45, ,
0, ,-44, ,
0, ,-45, ,
0, ,-45, ,
1, ,-44, ,
4, ,-45, ,
1, ,-45, ,
-1, ,-45, ,
4, ,-44, ,
0, ,-45, ,
0, ,-45, ,
-1, ,-45, ,
1, ,-45, ,
4, ,-45, ,
5, ,-45, ,
1, ,-45, ,
4, ,-44, ,
4, ,-45, ,
1, ,-45, ,
-4, ,-45, ,
3, ,-45, ,
1, ,-45, ,
1, ,-45, ,
0, ,-45, ,
3, ,-45, ,
4, ,-44, ,
5, ,-45, ,
-1, ,-45, ,
5, ,-44, ,
5, ,-45, ,
4, ,-45, ,
0, ,-45, ,
5, ,-45, ,
1, ,-45, ,
1, ,-44, ,
-2, ,-45, ,
0, ,-45, ,
1, ,-44, ,
1, ,-45, ,
-4, ,-45, ,
3, ,-44, ,
4, ,-45, ,
3, ,-44, ,
-1, ,-45, ,
4, ,-45, ,
1, ,-45, ,
-1, ,-44, ,
-2, ,-46, ,
4, ,-45, ,
4, ,-45, ,
4, ,-45, ,
1, ,-45, ,
3, ,-44, ,
5, ,-45, ,
1, ,-45, ,
-4, ,-45, ,
4, ,-45, ,
1, ,-45, ,
3, ,-44, ,
0, ,-46, ,
3, ,-45, ,
4, ,-44, ,
4, ,-45, ,
1, ,-45, ,
6, ,-44, ,
4, ,-45, ,
5, ,-45, ,
6, ,-45, ,
9, ,-45, ,
5, ,-45, ,
5, ,-44, ,
3, ,-45, ,
5, ,-45, ,
5, ,-45, ,
8, ,-45, ,
