src/vary_am2_1411/temp0000039.CSV

Format,1.0B,
Memory Length,10000,Memory Length,10000,
IntpDistance,0,IntpDistance,0,
Trigger Address,4999,Trigger Address,4999,
Trigger Level,-1.000E+00,Trigger Level,-1.000E+00,
Source,CH1,Source,CH2,
Vertical Units,V,Vertical Units,V,
Vertical Units Div,0,Vertical Units Div,0,
Vertical Units Extend Div,16,Vertical Units Extend Div,16,
Label,,Label,,
Probe Type,0,Probe Type,0,
Probe Ratio,1.000e+01,Probe Ratio,1.000e+00,
Vertical Scale,2.000e-02,Vertical Scale,1.000e+00,
Vertical Position,-5.120e-02,Vertical Position,2.000e-01,
Horizontal Units,S,Horizontal Units,S,
Horizontal Scale,1.000E-05,Horizontal Scale,1.000E-05,
Horizontal Position,0.000E+00,Horizontal Position,0.000E+00,
Horizontal Mode,Main,Horizontal Mode,Main,
SincET Mode,Real Time,SincET Mode,Real Time,
Sampling Period,1.000e-08,Sampling Period,1.000e-08,
Horizontal Old Scale,1.000E-05,Horizontal Old Scale,1.000E-05,
Horizontal Old Position,0.000E+00,Horizontal Old Position,0.000E+00,
Firmware,V1.23,Firmware,V1.23,
Mode,Fast,Mode,Fast,
Waveform Data,,Waveform Data,,
4, ,-55, ,
1, ,-55, ,
1, ,-54, ,
1, ,-56, ,
4, ,-55, ,
4, ,-55, ,
4, ,-55, ,
-1, ,-56, ,
1, ,-54, ,
3, ,-56, ,
1, ,-55, ,
-2, ,-55, ,
3, ,-56, ,
4, ,-55, ,
3, ,-54, ,
3, ,-56, ,
1, ,-55, ,
-1, ,-55, ,
0, ,-56, ,
-2, ,-55, ,
0, ,-54, ,
5, ,-56, ,
5, ,-55, ,
-1, ,-55, ,
5, ,-55, ,
3, ,-55, ,
4, ,-54, ,
-5, ,-56, ,
4, ,-55, ,
3, ,-55, ,
1, ,-55, ,
-1, ,-56, ,
0, ,-54, ,
-1, ,-56, ,
0, ,-55, ,
-7, ,-55, ,
-2, ,-55, ,
-1, ,-56, ,
-2, ,-54, ,
-4, ,-56, ,
-2, ,-55, ,
0, ,-55, ,
1, ,-55, ,
0, ,-56, ,
4, ,-54, ,
0, ,-56, ,
3, ,-55, ,
-7, ,-55, ,
-2, ,-55, ,
-1, ,-55, ,
-1, ,-55, ,
-4, ,-56, ,
1, ,-55, ,
1, ,-55, ,
-4, ,-55, ,
-5, ,-56, ,
-2, ,-54, ,
-2, ,-56, ,
1, ,-55, ,
-4, ,-55, ,
0, ,-55, ,
3, ,-56, ,
-2, ,-54, ,
-6, ,-56, ,
-1, ,-55, ,
-5, ,-55, ,
-4, ,-55, ,
-6, ,-56, ,
-5, ,-54, ,
-4, ,-56, ,
-1, ,-55, ,
-9, ,-55, ,
-6, ,-55, ,
-5, ,-55, ,
-7, ,-55, ,
-10, ,-56, ,
-4, ,-55, ,
-1, ,-55, ,
-1, ,-55, ,
-1, ,-55, ,
-2, ,-54, ,
-4, ,-56, ,
-5, ,-55, ,
-11, ,-55, ,
-6, ,-55, ,
-4, ,-56, ,
-5, ,-54, ,
-7, ,-56, ,
-1, ,-55, ,
-4, ,-55, ,
-5, ,-55, ,
-6, ,-56, ,
-7, ,-54, ,
-6, ,-56, ,
-5, ,-55, ,
-12, ,-55, ,
-6, ,-55, ,
-5, ,-55, ,
-6, ,-54, ,
-6, ,-56, ,
-2, ,-55, ,
-1, ,-55, ,
-4, ,-55, ,
-6, ,-55, ,
-6, ,-54, ,
-2, ,-56, ,
4, ,-55, ,
-10, ,-55, ,
-4, ,-55, ,
-5, ,-55, ,
-7, ,-54, ,
-6, ,-56, ,
-2, ,-55, ,
-4, ,-55, ,
-1, ,-56, ,
-2, ,-56, ,
-1, ,-54, ,
0, ,-56, ,
-2, ,-55, ,
-7, ,-55, ,
-4, ,-55, ,
-2, ,-55, ,
-4, ,-55, ,
-5, ,-56, ,
0, ,-55, ,
1, ,-55, ,
3, ,-55, ,
0, ,-55, ,
3, ,-54, ,
1, ,-56, ,
3, ,-55, ,
-4, ,-55, ,
-1, ,-55, ,
1, ,-56, ,
0, ,-54, ,
-1, ,-56, ,
-1, ,-55, ,
0, ,-55, ,
-2, ,-55, ,
-6, ,-56, ,
-4, ,-54, ,
-1, ,-56, ,
0, ,-55, ,
-5, ,-55, ,
1, ,-55, ,
1, ,-55, ,
0, ,-54, ,
-2, ,-56, ,
3, ,-55, ,
-2, ,-55, ,
-1, ,-55, ,
-2, ,-56, ,
-1, ,-54, ,
-1, ,-56, ,
0, ,-55, ,
-5, ,-55, ,
-1, ,-55, ,
3, ,-56, ,
-1, ,-54, ,
-2, ,-56, ,
1, ,-55, ,
4, ,-55, ,
3, ,-55, ,
4, ,-55, ,
4, ,-54, ,
6, ,-56, ,
4, ,-55, ,
-4, ,-55, ,
1, ,-55, ,
3, ,-55, ,
-2, ,-55, ,
-5, ,-56, ,
3, ,-55, ,
1, ,-55, ,
-2, ,-55, ,
-1, ,-56, ,
0, ,-54, ,
0, ,-56, ,
3, ,-55, ,
0, ,-55, ,
4, ,-55, ,
6, ,-55, ,
4, ,-54, ,
-1, ,-56, ,
5, ,-55, ,
3, ,-55, ,
3, ,-56, ,
1, ,-56, ,
4, ,-54, ,
4, ,-56, ,
5, ,-55, ,
3, ,-55, ,
5, ,-55, ,
8, ,-55, ,
3, ,-54, ,
0, ,-56, ,
4, ,-55, ,
4, ,-55, ,
5, ,-55, ,
3, ,-55, ,
4, ,-54, ,
6, ,-56, ,
6, ,-55, ,
1, ,-55, ,
3, ,-55, ,
6, ,-55, ,
5, ,-54, ,
-1, ,-56, ,
9, ,-55, ,
5, ,-55, ,
4, ,-55, ,
0, ,-56, ,
3, ,-54, ,
5, ,-56, ,
6, ,-55, ,
5, ,-55, ,
6, ,-55, ,
6, ,-56, ,
5, ,-54, ,
1, ,-56, ,
6, ,-55, ,
3, ,-55, ,
4, ,-55, ,
3, ,-56, ,
4, ,-54, ,
4, ,-56, ,
4, ,-55, ,
1, ,-55, ,
4, ,-55, ,
8, ,-56, ,
3, ,-54, ,
3, ,-56, ,
4, ,-55, ,
1, ,-55, ,
1, ,-55, ,
-2, ,-55, ,
3, ,-54, ,
5, ,-56, ,
8, ,-55, ,
3, ,-55, ,
4, ,-55, ,
5, ,-55, ,
3, ,-55, ,
-2, ,-56, ,
0, ,-55, ,
-1, ,-55, ,
3, ,-55, ,
0, ,-56, ,
4, ,-54, ,
6, ,-56, ,
6, ,-55, ,
1, ,-55, ,
3, ,-55, ,
3, ,-55, ,
-1, ,-55, ,
-2, ,-56, ,
3, ,-55, ,
3, ,-55, ,
1, ,-56, ,
0, ,-56, ,
0, ,-54, ,
3, ,-56, ,
5, ,-55, ,
1, ,-55, ,
9, ,-55, ,
9, ,-55, ,
9, ,-54, ,
3, ,-56, ,
8, ,-55, ,
3, ,-55, ,
1, ,-55, ,
0, ,-56, ,
1, ,-54, ,
4, ,-56, ,
1, ,-55, ,
1, ,-55, ,
5, ,-55, ,
4, ,-56, ,
0, ,-54, ,
-4, ,-56, ,
4, ,-55, ,
1, ,-55, ,
3, ,-56, ,
3, ,-56, ,
4, ,-54, ,
4, ,-56, ,
4, ,-55, ,
-4, ,-55, ,
1, ,-55, ,
-4, ,-56, ,
-12, ,-54, ,
-12, ,-56, ,
-1, ,-55, ,
3, ,-55, ,
5, ,-56, ,
5, ,-56, ,
5, ,-54, ,
4, ,-56, ,
0, ,-55, ,
-4, ,-55, ,
0, ,-55, ,
8, ,-55, ,
4, ,-54, ,
4, ,-56, ,
5, ,-55, ,
-4, ,-55, ,
-6, ,-56, ,
-10, ,-55, ,
-5, ,-50, ,
-1, ,-44, ,
5, ,-32, ,
3, ,-23, ,
5, ,-14, ,
6, ,-7, ,
3, ,-1, ,
-1, ,4, ,
3, ,10, ,
3, ,13, ,
6, ,17, ,
4, ,19, ,
6, ,21, ,
3, ,25, ,
4, ,28, ,
-1, ,29, ,
3, ,30, ,
5, ,31, ,
0, ,31, ,
-2, ,33, ,
1, ,34, ,
0, ,34, ,
-1, ,35, ,
-1, ,35, ,
0, ,34, ,
-1, ,37, ,
-1, ,37, ,
-10, ,36, ,
-2, ,37, ,
0, ,37, ,
3, ,37, ,
1, ,38, ,
4, ,37, ,
8, ,38, ,
1, ,38, ,
0, ,38, ,
0, ,37, ,
0, ,39, ,
0, ,38, ,
-5, ,38, ,
-1, ,38, ,
-1, ,39, ,
3, ,37, ,
-5, ,39, ,
3, ,38, ,
3, ,38, ,
-2, ,38, ,
-1, ,38, ,
0, ,37, ,
-2, ,39, ,
-1, ,38, ,
-7, ,38, ,
-2, ,38, ,
-1, ,38, ,
-5, ,37, ,
-6, ,39, ,
-2, ,38, ,
-2, ,38, ,
0, ,38, ,
1, ,38, ,
4, ,37, ,
1, ,39, ,
1, ,38, ,
-5, ,38, ,
-5, ,38, ,
-1, ,38, ,
-1, ,37, ,
-2, ,39, ,
4, ,38, ,
0, ,38, ,
3, ,38, ,
-2, ,38, ,
-4, ,36, ,
-1, ,38, ,
-4, ,38, ,
-6, ,38, ,
-2, ,38, ,
-1, ,38, ,
0, ,37, ,
-4, ,38, ,
3, ,37, ,
-2, ,37, ,
-2, ,38, ,
-6, ,38, ,
-5, ,36, ,
-4, ,38, ,
-2, ,38, ,
-7, ,37, ,
-4, ,38, ,
-2, ,38, ,
-4, ,37, ,
-5, ,38, ,
0, ,38, ,
-2, ,37, ,
-1, ,38, ,
1, ,38, ,
1, ,36, ,
4, ,39, ,
4, ,37, ,
-4, ,38, ,
0, ,38, ,
0, ,38, ,
0, ,36, ,
-5, ,38, ,
0, ,38, ,
3, ,37, ,
0, ,38, ,
-2, ,38, ,
1, ,37, ,
1, ,38, ,
5, ,37, ,
-2, ,37, ,
4, ,37, ,
3, ,38, ,
1, ,36, ,
-2, ,38, ,
4, ,38, ,
3, ,37, ,
4, ,38, ,
1, ,38, ,
3, ,36, ,
4, ,38, ,
1, ,37, ,
-1, ,37, ,
3, ,38, ,
3, ,38, ,
3, ,37, ,
-1, ,38, ,
5, ,37, ,
4, ,38, ,
4, ,38, ,
0, ,38, ,
6, ,36, ,
11, ,38, ,
10, ,38, ,
3, ,37, ,
4, ,38, ,
3, ,38, ,
0, ,36, ,
-2, ,38, ,
3, ,38, ,
1, ,37, ,
1, ,38, ,
-2, ,37, ,
0, ,36, ,
1, ,38, ,
1, ,37, ,
-4, ,38, ,
1, ,38, ,
3, ,37, ,
1, ,36, ,
-2, ,38, ,
4, ,37, ,
5, ,38, ,
3, ,38, ,
1, ,37, ,
3, ,36, ,
0, ,38, ,
3, ,38, ,
-4, ,38, ,
0, ,38, ,
3, ,38, ,
1, ,36, ,
1, ,38, ,
3, ,38, ,
1, ,38, ,
1, ,38, ,
-2, ,38, ,
1, ,36, ,
3, ,38, ,
4, ,37, ,
-1, ,38, ,
3, ,38, ,
4, ,37, ,
4, ,36, ,
-1, ,38, ,
1, ,37, ,
3, ,38, ,
4, ,37, ,
3, ,37, ,
5, ,37, ,
5, ,38, ,
8, ,37, ,
5, ,37, ,
5, ,38, ,
4, ,37, ,
1, ,37, ,
-4, ,38, ,
1, ,38, ,
-1, ,37, ,
1, ,38, ,
0, ,38, ,
1, ,36, ,
4, ,38, ,
5, ,37, ,
1, ,37, ,
3, ,38, ,
4, ,38, ,
4, ,36, ,
1, ,38, ,
5, ,37, ,
5, ,37, ,
4, ,37, ,
1, ,38, ,
1, ,36, ,
3, ,38, ,
3, ,37, ,
-5, ,37, ,
0, ,38, ,
1, ,38, ,
4, ,37, ,
0, ,38, ,
5, ,37, ,
5, ,37, ,
4, ,37, ,
-1, ,37, ,
3, ,36, ,
1, ,38, ,
4, ,37, ,
-1, ,37, ,
5, ,37, ,
3, ,38, ,
0, ,37, ,
-5, ,38, ,
-2, ,37, ,
-1, ,38, ,
-1, ,38, ,
-2, ,38, ,
3, ,36, ,
4, ,38, ,
5, ,37, ,
-2, ,37, ,
3, ,38, ,
4, ,38, ,
1, ,36, ,
-4, ,38, ,
1, ,37, ,
-1, ,37, ,
3, ,38, ,
1, ,37, ,
3, ,36, ,
0, ,38, ,
1, ,37, ,
-4, ,37, ,
0, ,38, ,
1, ,37, ,
1, ,36, ,
-2, ,38, ,
6, ,37, ,
-2, ,37, ,
-5, ,38, ,
-4, ,38, ,
-2, ,36, ,
-1, ,38, ,
3, ,38, ,
0, ,37, ,
5, ,38, ,
8, ,38, ,
3, ,36, ,
-2, ,38, ,
1, ,37, ,
-1, ,37, ,
-2, ,38, ,
-4, ,38, ,
0, ,36, ,
3, ,38, ,
4, ,37, ,
-2, ,37, ,
1, ,38, ,
0, ,38, ,
-1, ,36, ,
-1, ,38, ,
5, ,37, ,
4, ,37, ,
3, ,37, ,
-1, ,38, ,
1, ,36, ,
1, ,38, ,
0, ,37, ,
-7, ,37, ,
4, ,38, ,
3, ,38, ,
0, ,36, ,
0, ,38, ,
1, ,37, ,
0, ,37, ,
1, ,38, ,
-5, ,37, ,
-1, ,36, ,
0, ,38, ,
1, ,37, ,
-5, ,37, ,
-4, ,37, ,
-1, ,37, ,
-2, ,36, ,
-4, ,38, ,
-1, ,37, ,
-1, ,37, ,
-2, ,38, ,
-5, ,38, ,
-4, ,36, ,
-1, ,38, ,
0, ,37, ,
-6, ,37, ,
-2, ,37, ,
0, ,38, ,
-1, ,36, ,
-5, ,38, ,
0, ,37, ,
-4, ,37, ,
-1, ,37, ,
-2, ,37, ,
-4, ,36, ,
0, ,38, ,
-1, ,37, ,
-4, ,37, ,
1, ,37, ,
1, ,38, ,
1, ,36, ,
-1, ,38, ,
4, ,37, ,
3, ,37, ,
3, ,38, ,
0, ,38, ,
-1, ,36, ,
-4, ,38, ,
-1, ,38, ,
-7, ,37, ,
-1, ,38, ,
0, ,38, ,
-1, ,36, ,
0, ,38, ,
4, ,37, ,
-1, ,37, ,
4, ,38, ,
1, ,38, ,
3, ,36, ,
3, ,38, ,
5, ,37, ,
-2, ,37, ,
3, ,38, ,
1, ,38, ,
0, ,36, ,
-2, ,38, ,
1, ,37, ,
3, ,38, ,
0, ,37, ,
-2, ,38, ,
1, ,36, ,
0, ,38, ,
3, ,37, ,
-1, ,37, ,
1, ,38, ,
4, ,38, ,
3, ,36, ,
-2, ,38, ,
4, ,37, ,
4, ,37, ,
5, ,38, ,
-2, ,38, ,
4, ,36, ,
3, ,38, ,
3, ,37, ,
-4, ,37, ,
1, ,37, ,
-1, ,38, ,
-6, ,36, ,
-4, ,38, ,
6, ,37, ,
5, ,37, ,
3, ,37, ,
1, ,37, ,
0, ,36, ,
-1, ,38, ,
3, ,37, ,
-2, ,37, ,
3, ,38, ,
5, ,37, ,
4, ,37, ,
-1, ,38, ,
3, ,37, ,
0, ,37, ,
0, ,38, ,
-2, ,37, ,
0, ,36, ,
3, ,38, ,
1, ,37, ,
-5, ,37, ,
1, ,37, ,
0, ,38, ,
4, ,36, ,
-1, ,38, ,
1, ,37, ,
5, ,38, ,
3, ,37, ,
1, ,37, ,
4, ,36, ,
4, ,38, ,
8, ,37, ,
-2, ,37, ,
1, ,38, ,
0, ,38, ,
-1, ,36, ,
-4, ,38, ,
4, ,38, ,
4, ,37, ,
5, ,38, ,
3, ,38, ,
5, ,36, ,
3, ,38, ,
5, ,37, ,
-1, ,37, ,
4, ,38, ,
4, ,37, ,
4, ,36, ,
0, ,38, ,
5, ,37, ,
4, ,38, ,
8, ,37, ,
5, ,38, ,
6, ,36, ,
4, ,38, ,
8, ,37, ,
4, ,37, ,
6, ,38, ,
6, ,37, ,
6, ,36, ,
-1, ,38, ,
5, ,38, ,
1, ,37, ,
1, ,38, ,
-1, ,38, ,
1, ,36, ,
4, ,38, ,
5, ,37, ,
1, ,38, ,
6, ,38, ,
0, ,37, ,
4, ,36, ,
-11, ,38, ,
4, ,37, ,
5, ,37, ,
1, ,37, ,
4, ,38, ,
4, ,36, ,
1, ,38, ,
4, ,38, ,
-4, ,37, ,
0, ,37, ,
0, ,38, ,
0, ,36, ,
-4, ,38, ,
4, ,37, ,
3, ,37, ,
5, ,37, ,
3, ,38, ,
8, ,36, ,
3, ,38, ,
0, ,37, ,
-1, ,37, ,
1, ,38, ,
1, ,38, ,
0, ,36, ,
0, ,38, ,
3, ,37, ,
1, ,37, ,
0, ,38, ,
-4, ,38, ,
3, ,36, ,
4, ,38, ,
9, ,38, ,
5, ,37, ,
5, ,38, ,
9, ,38, ,
0, ,36, ,
-4, ,38, ,
0, ,38, ,
-1, ,37, ,
3, ,38, ,
3, ,37, ,
4, ,36, ,
0, ,38, ,
0, ,37, ,
0, ,37, ,
3, ,38, ,
4, ,38, ,
3, ,36, ,
-5, ,38, ,
3, ,37, ,
-1, ,38, ,
1, ,37, ,
0, ,38, ,
3, ,36, ,
4, ,38, ,
6, ,38, ,
-1, ,37, ,
1, ,38, ,
4, ,37, ,
1, ,36, ,
-6, ,38, ,
3, ,37, ,
0, ,37, ,
-1, ,38, ,
-1, ,37, ,
-2, ,36, ,
1, ,38, ,
3, ,37, ,
0, ,37, ,
5, ,38, ,
5, ,38, ,
4, ,36, ,
-1, ,38, ,
1, ,37, ,
-1, ,37, ,
-2, ,37, ,
-2, ,38, ,
-1, ,36, ,
-1, ,38, ,
3, ,37, ,
-5, ,37, ,
0, ,37, ,
0, ,38, ,
-4, ,36, ,
-6, ,38, ,
-4, ,37, ,
-2, ,37, ,
-1, ,38, ,
-2, ,37, ,
0, ,36, ,
0, ,38, ,
3, ,37, ,
-1, ,37, ,
1, ,38, ,
0, ,37, ,
-1, ,36, ,
-4, ,38, ,
0, ,37, ,
-1, ,37, ,
-2, ,37, ,
-4, ,37, ,
-2, ,36, ,
-5, ,38, ,
0, ,38, ,
-4, ,37, ,
1, ,38, ,
4, ,38, ,
-1, ,36, ,
-5, ,38, ,
1, ,38, ,
-4, ,37, ,
-2, ,38, ,
-7, ,37, ,
-4, ,36, ,
-2, ,38, ,
0, ,37, ,
-2, ,37, ,
3, ,37, ,
1, ,38, ,
1, ,36, ,
1, ,38, ,
4, ,37, ,
0, ,37, ,
1, ,38, ,
0, ,38, ,
3, ,36, ,
1, ,38, ,
3, ,37, ,
-5, ,37, ,
0, ,38, ,
0, ,38, ,
0, ,36, ,
-2, ,38, ,
3, ,38, ,
1, ,37, ,
1, ,38, ,
0, ,38, ,
0, ,36, ,
1, ,38, ,
1, ,37, ,
-6, ,37, ,
3, ,37, ,
1, ,38, ,
0, ,36, ,
-2, ,38, ,
0, ,37, ,
0, ,37, ,
0, ,37, ,
-5, ,38, ,
-1, ,36, ,
-2, ,38, ,
-1, ,38, ,
-5, ,37, ,
-1, ,37, ,
1, ,38, ,
-2, ,36, ,
-4, ,38, ,
0, ,37, ,
-1, ,37, ,
-1, ,37, ,
-2, ,38, ,
0, ,36, ,
1, ,38, ,
-2, ,37, ,
-6, ,37, ,
-1, ,38, ,
-1, ,38, ,
-1, ,36, ,
-6, ,38, ,
0, ,37, ,
4, ,37, ,
0, ,38, ,
-1, ,38, ,
0, ,36, ,
1, ,38, ,
1, ,38, ,
-4, ,37, ,
1, ,37, ,
1, ,37, ,
0, ,36, ,
-1, ,38, ,
4, ,37, ,
1, ,37, ,
3, ,38, ,
0, ,37, ,
-1, ,36, ,
0, ,38, ,
1, ,37, ,
-7, ,37, ,
0, ,37, ,
0, ,38, ,
0, ,36, ,
1, ,38, ,
8, ,37, ,
10, ,38, ,
8, ,37, ,
4, ,38, ,
3, ,36, ,
1, ,38, ,
5, ,38, ,
-1, ,37, ,
4, ,37, ,
4, ,38, ,
1, ,36, ,
-2, ,38, ,
3, ,37, ,
0, ,37, ,
1, ,38, ,
3, ,38, ,
1, ,36, ,
5, ,38, ,
6, ,38, ,
1, ,37, ,
3, ,37, ,
3, ,38, ,
-1, ,36, ,
-2, ,38, ,
3, ,37, ,
3, ,38, ,
8, ,38, ,
3, ,38, ,
5, ,36, ,
1, ,38, ,
4, ,38, ,
-2, ,37, ,
3, ,38, ,
4, ,38, ,
4, ,36, ,
1, ,38, ,
8, ,38, ,
4, ,37, ,
5, ,38, ,
-2, ,38, ,
0, ,36, ,
1, ,38, ,
1, ,37, ,
-1, ,37, ,
4, ,38, ,
4, ,37, ,
5, ,36, ,
1, ,38, ,
5, ,37, ,
3, ,38, ,
1, ,38, ,
1, ,38, ,
3, ,37, ,
1, ,38, ,
3, ,37, ,
-6, ,37, ,
3, ,38, ,
3, ,37, ,
1, ,36, ,
0, ,38, ,
4, ,37, ,
3, ,38, ,
5, ,38, ,
5, ,37, ,
6, ,37, ,
5, ,38, ,
3, ,37, ,
-1, ,37, ,
3, ,37, ,
3, ,38, ,
3, ,37, ,
3, ,38, ,
3, ,37, ,
3, ,38, ,
8, ,37, ,
0, ,37, ,
5, ,37, ,
4, ,38, ,
4, ,37, ,
-1, ,37, ,
3, ,38, ,
6, ,38, ,
6, ,37, ,
3, ,38, ,
9, ,37, ,
6, ,37, ,
8, ,38, ,
5, ,38, ,
1, ,37, ,
4, ,38, ,
5, ,37, ,
1, ,37, ,
3, ,38, ,
4, ,38, ,
4, ,37, ,
-2, ,38, ,
3, ,38, ,
1, ,37, ,
1, ,37, ,
-2, ,38, ,
3, ,36, ,
4, ,38, ,
6, ,37, ,
5, ,37, ,
3, ,38, ,
3, ,38, ,
3, ,36, ,
-5, ,38, ,
3, ,37, ,
1, ,37, ,
1, ,37, ,
0, ,38, ,
3, ,36, ,
1, ,38, ,
0, ,37, ,
-6, ,37, ,
0, ,38, ,
0, ,38, ,
3, ,37, ,
1, ,38, ,
5, ,37, ,
4, ,37, ,
1, ,38, ,
-1, ,38, ,
0, ,36, ,
0, ,38, ,
4, ,37, ,
-1, ,37, ,
3, ,38, ,
3, ,37, ,
0, ,36, ,
-6, ,38, ,
-2, ,37, ,
-5, ,37, ,
-1, ,38, ,
-4, ,38, ,
3, ,36, ,
3, ,38, ,
5, ,38, ,
-1, ,37, ,
3, ,38, ,
3, ,37, ,
1, ,36, ,
-5, ,38, ,
1, ,38, ,
0, ,37, ,
4, ,38, ,
-1, ,37, ,
3, ,36, ,
4, ,36, ,
5, ,28, ,
-2, ,18, ,
-5, ,8, ,
-2, ,-1, ,
-6, ,-8, ,
-7, ,-14, ,
-2, ,-21, ,
-5, ,-25, ,
-5, ,-29, ,
-7, ,-33, ,
-10, ,-36, ,
-6, ,-39, ,
-4, ,-42, ,
-6, ,-43, ,
-2, ,-45, ,
0, ,-47, ,
-4, ,-47, ,
-6, ,-49, ,
0, ,-50, ,
-2, ,-50, ,
-5, ,-51, ,
-5, ,-52, ,
-2, ,-51, ,
0, ,-54, ,
-1, ,-54, ,
-2, ,-54, ,
1, ,-54, ,
3, ,-55, ,
-2, ,-54, ,
-9, ,-56, ,
-1, ,-55, ,
-4, ,-55, ,
-4, ,-56, ,
-2, ,-56, ,
0, ,-55, ,
0, ,-56, ,
3, ,-56, ,
-1, ,-56, ,
1, ,-56, ,
0, ,-56, ,
-5, ,-55, ,
-5, ,-57, ,
-2, ,-56, ,
-1, ,-56, ,
-2, ,-57, ,
-6, ,-56, ,
-1, ,-55, ,
-2, ,-57, ,
-1, ,-56, ,
-5, ,-56, ,
-2, ,-56, ,
1, ,-56, ,
-1, ,-55, ,
-4, ,-57, ,
-1, ,-56, ,
-1, ,-55, ,
-1, ,-56, ,
-4, ,-56, ,
-1, ,-55, ,
-2, ,-57, ,
-1, ,-56, ,
-5, ,-55, ,
-1, ,-56, ,
1, ,-56, ,
1, ,-54, ,
-4, ,-57, ,
1, ,-56, ,
0, ,-55, ,
-2, ,-56, ,
-6, ,-56, ,
-1, ,-54, ,
3, ,-56, ,
3, ,-56, ,
4, ,-56, ,
4, ,-56, ,
6, ,-56, ,
4, ,-55, ,
-1, ,-56, ,
4, ,-56, ,
0, ,-55, ,
0, ,-56, ,
-1, ,-56, ,
0, ,-55, ,
1, ,-56, ,
0, ,-56, ,
-6, ,-55, ,
-1, ,-55, ,
0, ,-55, ,
0, ,-55, ,
0, ,-57, ,
5, ,-55, ,
4, ,-55, ,
3, ,-56, ,
3, ,-56, ,
4, ,-54, ,
3, ,-56, ,
0, ,-56, ,
-4, ,-55, ,
0, ,-55, ,
3, ,-55, ,
-2, ,-54, ,
-1, ,-56, ,
4, ,-55, ,
3, ,-55, ,
1, ,-56, ,
-1, ,-56, ,
-1, ,-54, ,
1, ,-56, ,
0, ,-56, ,
-2, ,-55, ,
3, ,-55, ,
3, ,-55, ,
-1, ,-54, ,
-2, ,-56, ,
0, ,-55, ,
-4, ,-55, ,
-2, ,-56, ,
-4, ,-56, ,
-1, ,-54, ,
-1, ,-56, ,
0, ,-55, ,
-5, ,-55, ,
0, ,-55, ,
5, ,-55, ,
0, ,-54, ,
-4, ,-56, ,
1, ,-55, ,
0, ,-55, ,
0, ,-56, ,
0, ,-56, ,
1, ,-54, ,
3, ,-56, ,
1, ,-55, ,
-1, ,-55, ,
1, ,-55, ,
5, ,-55, ,
3, ,-54, ,
-1, ,-56, ,
6, ,-55, ,
6, ,-55, ,
5, ,-56, ,
3, ,-55, ,
3, ,-54, ,
0, ,-56, ,
1, ,-55, ,
-4, ,-55, ,
3, ,-55, ,
4, ,-55, ,
1, ,-54, ,
1, ,-56, ,
5, ,-55, ,
5, ,-55, ,
5, ,-55, ,
0, ,-56, ,
4, ,-55, ,
5, ,-56, ,
4, ,-55, ,
-1, ,-55, ,
6, ,-55, ,
6, ,-55, ,
4, ,-54, ,
0, ,-56, ,
1, ,-55, ,
1, ,-55, ,
4, ,-56, ,
3, ,-56, ,
6, ,-54, ,
4, ,-56, ,
3, ,-55, ,
-4, ,-55, ,
0, ,-55, ,
4, ,-55, ,
1, ,-54, ,
-2, ,-56, ,
6, ,-55, ,
4, ,-55, ,
4, ,-55, ,
0, ,-56, ,
4, ,-54, ,
3, ,-56, ,
4, ,-55, ,
1, ,-55, ,
4, ,-55, ,
5, ,-56, ,
3, ,-54, ,
3, ,-57, ,
8, ,-55, ,
5, ,-55, ,
1, ,-56, ,
1, ,-56, ,
-1, ,-54, ,
1, ,-56, ,
4, ,-55, ,
0, ,-55, ,
4, ,-55, ,
6, ,-55, ,
4, ,-54, ,
1, ,-56, ,
6, ,-55, ,
5, ,-55, ,
4, ,-55, ,
0, ,-56, ,
1, ,-54, ,
3, ,-56, ,
0, ,-55, ,
-4, ,-55, ,
1, ,-55, ,
1, ,-55, ,
3, ,-54, ,
-1, ,-57, ,
6, ,-55, ,
6, ,-55, ,
6, ,-56, ,
5, ,-56, ,
6, ,-54, ,
3, ,-56, ,
4, ,-55, ,
-1, ,-55, ,
4, ,-55, ,
3, ,-56, ,
-1, ,-54, ,
-1, ,-56, ,
4, ,-55, ,
4, ,-55, ,
4, ,-56, ,
-1, ,-56, ,
1, ,-54, ,
3, ,-56, ,
5, ,-55, ,
1, ,-55, ,
5, ,-55, ,
4, ,-55, ,
1, ,-54, ,
1, ,-56, ,
6, ,-55, ,
4, ,-55, ,
5, ,-56, ,
1, ,-55, ,
3, ,-54, ,
4, ,-56, ,
6, ,-55, ,
0, ,-55, ,
4, ,-55, ,
4, ,-55, ,
3, ,-54, ,
-5, ,-56, ,
4, ,-55, ,
0, ,-55, ,
0, ,-55, ,
-1, ,-55, ,
3, ,-54, ,
4, ,-56, ,
3, ,-55, ,
-2, ,-55, ,
-1, ,-55, ,
-1, ,-55, ,
-1, ,-54, ,
-4, ,-56, ,
3, ,-55, ,
0, ,-55, ,
-1, ,-55, ,
1, ,-55, ,
0, ,-54, ,
-1, ,-56, ,
-2, ,-55, ,
-7, ,-55, ,
-1, ,-56, ,
4, ,-56, ,
0, ,-54, ,
-1, ,-56, ,
1, ,-55, ,
-2, ,-55, ,
-4, ,-55, ,
-5, ,-55, ,
-2, ,-54, ,
-2, ,-56, ,
1, ,-55, ,
-2, ,-55, ,
3, ,-55, ,
1, ,-56, ,
-2, ,-54, ,
-5, ,-56, ,
-1, ,-55, ,
-1, ,-55, ,
1, ,-56, ,
1, ,-55, ,
1, ,-54, ,
1, ,-56, ,
3, ,-55, ,
-4, ,-55, ,
3, ,-55, ,
3, ,-56, ,
-1, ,-54, ,
-4, ,-56, ,
0, ,-55, ,
-1, ,-55, ,
-1, ,-55, ,
-5, ,-56, ,
0, ,-54, ,
1, ,-56, ,
4, ,-55, ,
1, ,-55, ,
0, ,-55, ,
1, ,-55, ,
0, ,-54, ,
-5, ,-56, ,
0, ,-55, ,
-1, ,-55, ,
-4, ,-56, ,
-5, ,-55, ,
0, ,-54, ,
0, ,-56, ,
1, ,-55, ,
-1, ,-55, ,
5, ,-55, ,
6, ,-55, ,
1, ,-54, ,
-1, ,-56, ,
4, ,-55, ,
-1, ,-55, ,
-2, ,-55, ,
-2, ,-55, ,
-4, ,-54, ,
-2, ,-56, ,
-2, ,-56, ,
-7, ,-55, ,
-2, ,-56, ,
-1, ,-55, ,
-1, ,-54, ,
-5, ,-56, ,
1, ,-55, ,
0, ,-54, ,
-2, ,-55, ,
-2, ,-55, ,
-1, ,-54, ,
-1, ,-56, ,
3, ,-55, ,
-4, ,-55, ,
1, ,-55, ,
0, ,-56, ,
-5, ,-54, ,
-6, ,-56, ,
-2, ,-55, ,
-2, ,-55, ,
0, ,-55, ,
-2, ,-55, ,
1, ,-54, ,
0, ,-56, ,
0, ,-55, ,
-5, ,-55, ,
0, ,-55, ,
1, ,-55, ,
-4, ,-54, ,
-1, ,-56, ,
3, ,-55, ,
0, ,-55, ,
-1, ,-55, ,
-4, ,-55, ,
-7, ,-54, ,
-12, ,-56, ,
-7, ,-55, ,
-5, ,-55, ,
4, ,-55, ,
9, ,-56, ,
6, ,-54, ,
0, ,-56, ,
1, ,-55, ,
-5, ,-55, ,
-1, ,-55, ,
-4, ,-56, ,
-1, ,-54, ,
4, ,-56, ,
5, ,-55, ,
0, ,-55, ,
4, ,-55, ,
-2, ,-55, ,
4, ,-54, ,
-2, ,-56, ,
1, ,-55, ,
5, ,-55, ,
4, ,-56, ,
4, ,-55, ,
3, ,-54, ,
0, ,-56, ,
-1, ,-55, ,
-4, ,-55, ,
3, ,-55, ,
3, ,-56, ,
3, ,-54, ,
1, ,-56, ,
3, ,-55, ,
0, ,-56, ,
0, ,-55, ,
-1, ,-55, ,
1, ,-54, ,
1, ,-56, ,
4, ,-55, ,
-5, ,-55, ,
3, ,-55, ,
1, ,-56, ,
1, ,-55, ,
-2, ,-56, ,
3, ,-55, ,
4, ,-55, ,
0, ,-56, ,
-2, ,-56, ,
0, ,-54, ,
-2, ,-56, ,
3, ,-55, ,
-2, ,-55, ,
1, ,-55, ,
4, ,-55, ,
-1, ,-54, ,
-5, ,-56, ,
0, ,-55, ,
-4, ,-55, ,
-1, ,-55, ,
-1, ,-55, ,
1, ,-54, ,
-1, ,-56, ,
-1, ,-55, ,
-4, ,-55, ,
-1, ,-55, ,
3, ,-55, ,
1, ,-54, ,
-4, ,-56, ,
3, ,-55, ,
3, ,-55, ,
1, ,-55, ,
-1, ,-55, ,
0, ,-54, ,
1, ,-56, ,
1, ,-55, ,
-4, ,-55, ,
0, ,-55, ,
5, ,-55, ,
4, ,-55, ,
6, ,-56, ,
9, ,-55, ,
5, ,-55, ,
3, ,-55, ,
-2, ,-56, ,
-2, ,-55, ,
-2, ,-56, ,
-1, ,-56, ,
-4, ,-55, ,
3, ,-55, ,
6, ,-56, ,
3, ,-54, ,
1, ,-56, ,
3, ,-55, ,
5, ,-55, ,
5, ,-56, ,
5, ,-55, ,
6, ,-54, ,
6, ,-56, ,
8, ,-55, ,
1, ,-55, ,
3, ,-55, ,
4, ,-55, ,
1, ,-54, ,
-1, ,-56, ,
3, ,-55, ,
3, ,-55, ,
3, ,-55, ,
0, ,-56, ,
1, ,-54, ,
4, ,-56, ,
3, ,-55, ,
-4, ,-55, ,
1, ,-55, ,
1, ,-55, ,
1, ,-54, ,
3, ,-56, ,
6, ,-55, ,
4, ,-55, ,
0, ,-56, ,
1, ,-55, ,
0, ,-54, ,
-2, ,-56, ,
0, ,-55, ,
-4, ,-55, ,
0, ,-55, ,
5, ,-55, ,
8, ,-54, ,
0, ,-56, ,
3, ,-55, ,
-4, ,-55, ,
1, ,-55, ,
-1, ,-56, ,
5, ,-54, ,
6, ,-56, ,
3, ,-55, ,
-5, ,-55, ,
1, ,-55, ,
1, ,-55, ,
-1, ,-54, ,
-4, ,-56, ,
3, ,-55, ,
5, ,-55, ,
4, ,-56, ,
1, ,-56, ,
1, ,-54, ,
1, ,-56, ,
1, ,-55, ,
-6, ,-55, ,
1, ,-55, ,
1, ,-56, ,
1, ,-54, ,
0, ,-56, ,
3, ,-55, ,
-2, ,-55, ,
-7, ,-55, ,
-11, ,-56, ,
-12, ,-54, ,
-15, ,-56, ,
-12, ,-55, ,
-15, ,-55, ,
-9, ,-55, ,
-2, ,-55, ,
3, ,-54, ,
1, ,-56, ,
10, ,-55, ,
13, ,-55, ,
11, ,-56, ,
6, ,-55, ,
9, ,-54, ,
4, ,-56, ,
5, ,-55, ,
-4, ,-55, ,
0, ,-55, ,
4, ,-55, ,
0, ,-54, ,
-1, ,-56, ,
1, ,-55, ,
-2, ,-55, ,
0, ,-55, ,
0, ,-56, ,
3, ,-54, ,
6, ,-56, ,
8, ,-55, ,
0, ,-55, ,
0, ,-55, ,
-2, ,-56, ,
-4, ,-54, ,
-5, ,-56, ,
1, ,-55, ,
1, ,-55, ,
-1, ,-56, ,
-2, ,-55, ,
-1, ,-54, ,
0, ,-56, ,
0, ,-55, ,
-5, ,-55, ,
-1, ,-55, ,
3, ,-55, ,
-1, ,-54, ,
-5, ,-56, ,
5, ,-55, ,
1, ,-55, ,
-6, ,-55, ,
1, ,-56, ,
1, ,-54, ,
-1, ,-56, ,
1, ,-55, ,
-4, ,-55, ,
-1, ,-55, ,
-4, ,-55, ,
-1, ,-54, ,
-6, ,-56, ,
-1, ,-55, ,
0, ,-55, ,
-2, ,-56, ,
-2, ,-55, ,
1, ,-54, ,
0, ,-56, ,
1, ,-55, ,
0, ,-55, ,
4, ,-55, ,
4, ,-56, ,
-2, ,-54, ,
-6, ,-56, ,
-2, ,-55, ,
-6, ,-55, ,
-6, ,-55, ,
-10, ,-56, ,
-5, ,-54, ,
1, ,-56, ,
5, ,-55, ,
5, ,-55, ,
6, ,-55, ,
5, ,-55, ,
3, ,-54, ,
0, ,-56, ,
5, ,-55, ,
4, ,-55, ,
4, ,-56, ,
1, ,-55, ,
4, ,-54, ,
-1, ,-56, ,
-1, ,-55, ,
-4, ,-55, ,
3, ,-55, ,
8, ,-56, ,
4, ,-54, ,
0, ,-56, ,
3, ,-55, ,
-1, ,-55, ,
0, ,-56, ,
-1, ,-56, ,
0, ,-54, ,
0, ,-56, ,
1, ,-55, ,
1, ,-55, ,
3, ,-56, ,
4, ,-55, ,
3, ,-54, ,
-5, ,-56, ,
1, ,-55, ,
3, ,-55, ,
0, ,-56, ,
-2, ,-55, ,
1, ,-54, ,
1, ,-56, ,
3, ,-55, ,
-1, ,-55, ,
3, ,-55, ,
3, ,-55, ,
-1, ,-54, ,
-4, ,-57, ,
0, ,-55, ,
-1, ,-55, ,
-2, ,-56, ,
-1, ,-55, ,
3, ,-54, ,
6, ,-56, ,
6, ,-55, ,
-1, ,-55, ,
1, ,-55, ,
3, ,-55, ,
0, ,-54, ,
-4, ,-56, ,
3, ,-55, ,
0, ,-55, ,
1, ,-56, ,
-2, ,-55, ,
