src/vary_am2_1411/temp0004829.CSV

Format,1.0B,
Memory Length,10000,Memory Length,10000,
IntpDistance,0,IntpDistance,0,
Trigger Address,4999,Trigger Address,4999,
Trigger Level,-1.000E+00,Trigger Level,-1.000E+00,
Source,CH1,Source,CH2,
Vertical Units,V,Vertical Units,V,
Vertical Units Div,0,Vertical Units Div,0,
Vertical Units Extend Div,16,Vertical Units Extend Div,16,
Label,,Label,,
Probe Type,0,Probe Type,0,
Probe Ratio,1.000e+01,Probe Ratio,1.000e+00,
Vertical Scale,2.000e-02,Vertical Scale,1.000e+00,
Vertical Position,-5.120e-02,Vertical Position,2.000e-01,
Horizontal Units,S,Horizontal Units,S,
Horizontal Scale,1.000E-05,Horizontal Scale,1.000E-05,
Horizontal Position,0.000E+00,Horizontal Position,0.000E+00,
Horizontal Mode,Main,Horizontal Mode,Main,
SincET Mode,Real Time,SincET Mode,Real Time,
Sampling Period,1.000e-08,Sampling Period,1.000e-08,
Horizontal Old Scale,1.000E-05,Horizontal Old Scale,1.000E-05,
Horizontal Old Position,0.000E+00,Horizontal Old Position,0.000E+00,
Firmware,V1.23,Firmware,V1.23,
Mode,Fast,Mode,Fast,
Waveform Data,,Waveform Data,,
8, ,-38, ,
-1, ,-37, ,
3, ,-38, ,
5, ,-38, ,
3, ,-38, ,
-2, ,-38, ,
4, ,-38, ,
3, ,-38, ,
1, ,-38, ,
0, ,-38, ,
0, ,-38, ,
3, ,-38, ,
4, ,-38, ,
-1, ,-38, ,
6, ,-37, ,
9, ,-38, ,
3, ,-38, ,
1, ,-37, ,
5, ,-38, ,
1, ,-38, ,
3, ,-38, ,
1, ,-38, ,
3, ,-38, ,
6, ,-37, ,
8, ,-38, ,
1, ,-38, ,
5, ,-37, ,
3, ,-38, ,
3, ,-38, ,
-4, ,-37, ,
4, ,-38, ,
0, ,-38, ,
1, ,-38, ,
3, ,-38, ,
3, ,-38, ,
5, ,-37, ,
8, ,-38, ,
0, ,-38, ,
3, ,-38, ,
3, ,-38, ,
3, ,-37, ,
3, ,-37, ,
4, ,-37, ,
5, ,-38, ,
3, ,-37, ,
3, ,-38, ,
0, ,-38, ,
0, ,-37, ,
3, ,-37, ,
-5, ,-38, ,
0, ,-38, ,
3, ,-38, ,
1, ,-38, ,
-1, ,-37, ,
0, ,-37, ,
0, ,-37, ,
-1, ,-37, ,
0, ,-38, ,
0, ,-38, ,
3, ,-37, ,
4, ,-37, ,
-2, ,-38, ,
1, ,-38, ,
8, ,-38, ,
1, ,-38, ,
-6, ,-37, ,
-1, ,-38, ,
-7, ,-38, ,
-2, ,-38, ,
-2, ,-38, ,
-1, ,-38, ,
1, ,-37, ,
3, ,-38, ,
-1, ,-38, ,
0, ,-38, ,
3, ,-38, ,
-2, ,-38, ,
-4, ,-37, ,
3, ,-37, ,
-1, ,-38, ,
1, ,-37, ,
0, ,-38, ,
-2, ,-38, ,
-4, ,-38, ,
-1, ,-37, ,
-9, ,-38, ,
-1, ,-38, ,
0, ,-38, ,
-1, ,-38, ,
-2, ,-37, ,
0, ,-38, ,
-1, ,-38, ,
-2, ,-37, ,
-6, ,-38, ,
-5, ,-37, ,
-2, ,-37, ,
-4, ,-38, ,
-9, ,-38, ,
5, ,-38, ,
1, ,-38, ,
-4, ,-38, ,
-1, ,-37, ,
0, ,-38, ,
1, ,-38, ,
-2, ,-38, ,
-2, ,-38, ,
-2, ,-38, ,
-1, ,-38, ,
4, ,-38, ,
-2, ,-38, ,
0, ,-38, ,
3, ,-38, ,
-4, ,-38, ,
-4, ,-38, ,
3, ,-37, ,
1, ,-38, ,
1, ,-37, ,
0, ,-38, ,
-1, ,-38, ,
0, ,-37, ,
0, ,-38, ,
-5, ,-37, ,
-1, ,-38, ,
0, ,-38, ,
-1, ,-38, ,
-4, ,-38, ,
1, ,-37, ,
-1, ,-38, ,
-1, ,-38, ,
-6, ,-38, ,
-1, ,-38, ,
-2, ,-38, ,
-1, ,-38, ,
-5, ,-37, ,
-4, ,-38, ,
4, ,-37, ,
-1, ,-38, ,
-1, ,-38, ,
5, ,-38, ,
0, ,-38, ,
-1, ,-38, ,
-4, ,-38, ,
-4, ,-37, ,
0, ,-37, ,
0, ,-38, ,
-5, ,-38, ,
-1, ,-38, ,
1, ,-38, ,
-4, ,-38, ,
-5, ,-38, ,
3, ,-38, ,
-2, ,-38, ,
-2, ,-38, ,
-2, ,-38, ,
-6, ,-38, ,
-1, ,-37, ,
3, ,-38, ,
-9, ,-38, ,
0, ,-38, ,
5, ,-38, ,
0, ,-38, ,
0, ,-38, ,
3, ,-38, ,
3, ,-38, ,
-1, ,-38, ,
1, ,-38, ,
1, ,-38, ,
-1, ,-37, ,
0, ,-38, ,
-6, ,-38, ,
-1, ,-38, ,
1, ,-38, ,
0, ,-38, ,
0, ,-38, ,
3, ,-38, ,
1, ,-37, ,
0, ,-38, ,
0, ,-38, ,
1, ,-38, ,
1, ,-38, ,
-1, ,-37, ,
-6, ,-38, ,
0, ,-38, ,
6, ,-38, ,
5, ,-38, ,
3, ,-37, ,
5, ,-38, ,
0, ,-38, ,
4, ,-38, ,
0, ,-38, ,
0, ,-38, ,
3, ,-37, ,
5, ,-38, ,
3, ,-38, ,
5, ,-37, ,
5, ,-38, ,
1, ,-38, ,
-4, ,-38, ,
-1, ,-38, ,
1, ,-37, ,
0, ,-38, ,
1, ,-38, ,
3, ,-38, ,
1, ,-38, ,
1, ,-38, ,
-5, ,-38, ,
1, ,-38, ,
9, ,-38, ,
4, ,-38, ,
6, ,-37, ,
11, ,-38, ,
8, ,-38, ,
5, ,-37, ,
3, ,-38, ,
1, ,-38, ,
1, ,-37, ,
1, ,-38, ,
-2, ,-38, ,
0, ,-37, ,
4, ,-38, ,
3, ,-38, ,
0, ,-38, ,
6, ,-38, ,
6, ,-37, ,
4, ,-37, ,
3, ,-38, ,
3, ,-38, ,
5, ,-38, ,
4, ,-37, ,
0, ,-38, ,
4, ,-38, ,
6, ,-38, ,
0, ,-38, ,
-5, ,-37, ,
1, ,-38, ,
0, ,-38, ,
4, ,-38, ,
1, ,-38, ,
5, ,-37, ,
5, ,-37, ,
8, ,-37, ,
-1, ,-38, ,
3, ,-38, ,
5, ,-38, ,
1, ,-38, ,
3, ,-38, ,
4, ,-38, ,
3, ,-38, ,
3, ,-37, ,
3, ,-38, ,
3, ,-38, ,
4, ,-38, ,
5, ,-38, ,
0, ,-38, ,
3, ,-38, ,
4, ,-37, ,
1, ,-38, ,
0, ,-38, ,
6, ,-37, ,
6, ,-38, ,
5, ,-37, ,
5, ,-38, ,
4, ,-37, ,
6, ,-37, ,
8, ,-38, ,
3, ,-38, ,
5, ,-37, ,
5, ,-38, ,
4, ,-38, ,
1, ,-38, ,
5, ,-38, ,
4, ,-38, ,
1, ,-38, ,
3, ,-38, ,
3, ,-38, ,
6, ,-38, ,
9, ,-38, ,
5, ,-38, ,
8, ,-38, ,
10, ,-38, ,
4, ,-38, ,
1, ,-38, ,
4, ,-38, ,
3, ,-37, ,
3, ,-38, ,
4, ,-38, ,
5, ,-38, ,
4, ,-37, ,
5, ,-38, ,
-1, ,-38, ,
-1, ,-38, ,
0, ,-38, ,
-4, ,-38, ,
-2, ,-38, ,
3, ,-38, ,
6, ,-38, ,
5, ,-37, ,
4, ,-38, ,
1, ,-38, ,
3, ,-38, ,
4, ,-37, ,
-2, ,-38, ,
3, ,-38, ,
8, ,-38, ,
3, ,-38, ,
-1, ,-37, ,
3, ,-38, ,
-1, ,-38, ,
0, ,-38, ,
-4, ,-37, ,
-5, ,-32, ,
4, ,-25, ,
10, ,-14, ,
6, ,-5, ,
11, ,3, ,
10, ,11, ,
5, ,17, ,
-1, ,22, ,
4, ,27, ,
4, ,31, ,
8, ,34, ,
10, ,37, ,
8, ,39, ,
8, ,42, ,
10, ,45, ,
4, ,46, ,
4, ,47, ,
6, ,49, ,
4, ,50, ,
-1, ,50, ,
6, ,51, ,
1, ,52, ,
3, ,51, ,
3, ,53, ,
1, ,53, ,
1, ,54, ,
3, ,54, ,
-1, ,55, ,
4, ,53, ,
3, ,55, ,
3, ,55, ,
0, ,55, ,
4, ,55, ,
4, ,55, ,
0, ,54, ,
1, ,56, ,
0, ,55, ,
1, ,55, ,
6, ,56, ,
-2, ,56, ,
4, ,54, ,
6, ,56, ,
1, ,55, ,
-1, ,55, ,
3, ,56, ,
0, ,56, ,
3, ,54, ,
0, ,56, ,
3, ,55, ,
4, ,55, ,
5, ,55, ,
0, ,56, ,
3, ,54, ,
4, ,56, ,
1, ,56, ,
-4, ,55, ,
3, ,55, ,
-4, ,56, ,
-1, ,55, ,
0, ,56, ,
3, ,55, ,
-1, ,55, ,
3, ,55, ,
0, ,56, ,
-4, ,54, ,
1, ,56, ,
1, ,56, ,
-2, ,56, ,
5, ,55, ,
3, ,56, ,
3, ,54, ,
-2, ,56, ,
-2, ,55, ,
1, ,55, ,
1, ,55, ,
-5, ,56, ,
3, ,54, ,
1, ,56, ,
0, ,55, ,
-2, ,55, ,
0, ,55, ,
-4, ,56, ,
-4, ,55, ,
-5, ,56, ,
-5, ,55, ,
-4, ,55, ,
3, ,56, ,
-4, ,55, ,
3, ,54, ,
4, ,56, ,
3, ,55, ,
-2, ,55, ,
0, ,55, ,
-2, ,55, ,
0, ,54, ,
-1, ,56, ,
0, ,54, ,
1, ,55, ,
3, ,55, ,
-6, ,55, ,
-2, ,54, ,
-1, ,56, ,
0, ,55, ,
-4, ,55, ,
5, ,55, ,
5, ,55, ,
5, ,54, ,
3, ,56, ,
3, ,54, ,
1, ,55, ,
8, ,55, ,
0, ,55, ,
4, ,53, ,
6, ,56, ,
1, ,55, ,
-4, ,55, ,
5, ,55, ,
-4, ,55, ,
3, ,54, ,
0, ,56, ,
0, ,54, ,
1, ,55, ,
5, ,55, ,
0, ,55, ,
3, ,53, ,
6, ,56, ,
3, ,55, ,
-1, ,55, ,
5, ,55, ,
0, ,55, ,
6, ,54, ,
-4, ,56, ,
-1, ,54, ,
-7, ,55, ,
3, ,55, ,
1, ,55, ,
0, ,53, ,
6, ,56, ,
4, ,55, ,
-5, ,55, ,
6, ,55, ,
-1, ,56, ,
0, ,54, ,
1, ,56, ,
1, ,54, ,
1, ,55, ,
4, ,56, ,
-4, ,56, ,
0, ,53, ,
1, ,56, ,
3, ,55, ,
3, ,55, ,
6, ,55, ,
8, ,55, ,
4, ,53, ,
1, ,56, ,
1, ,54, ,
-1, ,55, ,
1, ,56, ,
-5, ,56, ,
1, ,53, ,
4, ,56, ,
-1, ,55, ,
-1, ,55, ,
5, ,55, ,
1, ,55, ,
1, ,53, ,
-1, ,55, ,
1, ,55, ,
1, ,55, ,
3, ,55, ,
-2, ,56, ,
3, ,53, ,
5, ,56, ,
3, ,55, ,
-2, ,55, ,
5, ,55, ,
1, ,55, ,
1, ,53, ,
3, ,56, ,
3, ,54, ,
4, ,55, ,
5, ,55, ,
-1, ,55, ,
3, ,53, ,
4, ,55, ,
1, ,55, ,
-4, ,55, ,
5, ,55, ,
3, ,56, ,
5, ,54, ,
5, ,56, ,
3, ,55, ,
4, ,54, ,
5, ,55, ,
-4, ,55, ,
3, ,53, ,
3, ,56, ,
3, ,55, ,
0, ,55, ,
6, ,55, ,
3, ,55, ,
1, ,54, ,
1, ,56, ,
1, ,54, ,
0, ,55, ,
8, ,55, ,
0, ,55, ,
6, ,53, ,
6, ,55, ,
4, ,54, ,
0, ,55, ,
6, ,55, ,
1, ,55, ,
1, ,54, ,
3, ,56, ,
1, ,54, ,
0, ,55, ,
3, ,55, ,
-4, ,56, ,
0, ,53, ,
1, ,56, ,
0, ,54, ,
-5, ,55, ,
5, ,55, ,
1, ,55, ,
5, ,54, ,
5, ,56, ,
5, ,54, ,
4, ,55, ,
4, ,55, ,
-2, ,56, ,
-1, ,53, ,
0, ,56, ,
-1, ,55, ,
-4, ,55, ,
3, ,55, ,
1, ,55, ,
4, ,54, ,
0, ,56, ,
3, ,54, ,
3, ,54, ,
8, ,55, ,
-4, ,56, ,
-2, ,53, ,
3, ,56, ,
-1, ,54, ,
-4, ,55, ,
4, ,55, ,
-1, ,55, ,
1, ,54, ,
3, ,56, ,
3, ,55, ,
3, ,55, ,
8, ,55, ,
4, ,55, ,
6, ,53, ,
9, ,56, ,
3, ,55, ,
-2, ,55, ,
4, ,55, ,
-2, ,56, ,
0, ,54, ,
1, ,56, ,
1, ,54, ,
4, ,55, ,
6, ,55, ,
-2, ,56, ,
4, ,53, ,
3, ,56, ,
0, ,55, ,
-2, ,54, ,
3, ,55, ,
1, ,55, ,
6, ,53, ,
4, ,56, ,
1, ,54, ,
-1, ,55, ,
3, ,55, ,
-6, ,55, ,
-1, ,53, ,
1, ,56, ,
-2, ,55, ,
-2, ,55, ,
3, ,55, ,
1, ,55, ,
4, ,54, ,
0, ,56, ,
1, ,54, ,
0, ,54, ,
3, ,55, ,
-2, ,55, ,
3, ,53, ,
3, ,56, ,
-1, ,54, ,
-2, ,55, ,
1, ,55, ,
-6, ,55, ,
-1, ,54, ,
-6, ,56, ,
-1, ,54, ,
0, ,55, ,
5, ,55, ,
-2, ,55, ,
1, ,53, ,
1, ,55, ,
-1, ,55, ,
-7, ,55, ,
1, ,55, ,
-2, ,55, ,
-1, ,53, ,
0, ,56, ,
-1, ,54, ,
1, ,55, ,
4, ,55, ,
-4, ,55, ,
-1, ,53, ,
0, ,56, ,
-1, ,55, ,
-5, ,55, ,
3, ,55, ,
-1, ,55, ,
-4, ,53, ,
-4, ,56, ,
-4, ,54, ,
-1, ,55, ,
4, ,55, ,
-4, ,55, ,
3, ,53, ,
5, ,56, ,
1, ,55, ,
-1, ,55, ,
1, ,54, ,
0, ,55, ,
-1, ,54, ,
-1, ,56, ,
-1, ,54, ,
-1, ,55, ,
4, ,55, ,
-4, ,55, ,
1, ,53, ,
4, ,56, ,
0, ,55, ,
-5, ,54, ,
1, ,55, ,
3, ,55, ,
1, ,54, ,
4, ,56, ,
4, ,54, ,
0, ,55, ,
6, ,55, ,
-1, ,55, ,
0, ,53, ,
3, ,56, ,
-1, ,54, ,
-2, ,54, ,
0, ,55, ,
-7, ,55, ,
0, ,54, ,
1, ,56, ,
1, ,54, ,
5, ,54, ,
8, ,55, ,
1, ,55, ,
4, ,53, ,
5, ,56, ,
3, ,54, ,
3, ,55, ,
9, ,55, ,
0, ,56, ,
-1, ,54, ,
-2, ,56, ,
-1, ,54, ,
0, ,55, ,
1, ,55, ,
1, ,55, ,
4, ,53, ,
8, ,56, ,
4, ,55, ,
-1, ,55, ,
6, ,55, ,
-1, ,55, ,
-2, ,53, ,
-2, ,56, ,
-2, ,54, ,
-1, ,55, ,
1, ,55, ,
-2, ,55, ,
3, ,53, ,
3, ,56, ,
3, ,54, ,
-1, ,54, ,
6, ,55, ,
4, ,55, ,
1, ,53, ,
1, ,56, ,
4, ,54, ,
3, ,55, ,
6, ,55, ,
-2, ,55, ,
1, ,53, ,
4, ,56, ,
1, ,54, ,
0, ,55, ,
6, ,55, ,
3, ,55, ,
4, ,54, ,
-4, ,56, ,
1, ,54, ,
1, ,54, ,
6, ,55, ,
0, ,55, ,
5, ,53, ,
6, ,56, ,
9, ,54, ,
0, ,55, ,
6, ,55, ,
6, ,55, ,
1, ,53, ,
4, ,56, ,
4, ,54, ,
3, ,55, ,
5, ,55, ,
1, ,56, ,
3, ,53, ,
8, ,56, ,
4, ,54, ,
1, ,55, ,
8, ,55, ,
4, ,56, ,
5, ,53, ,
4, ,56, ,
5, ,55, ,
5, ,54, ,
8, ,55, ,
0, ,55, ,
5, ,53, ,
4, ,56, ,
4, ,55, ,
-2, ,54, ,
6, ,55, ,
4, ,55, ,
4, ,54, ,
1, ,55, ,
3, ,54, ,
4, ,54, ,
8, ,55, ,
-1, ,55, ,
3, ,53, ,
9, ,56, ,
6, ,54, ,
3, ,55, ,
8, ,55, ,
3, ,55, ,
4, ,53, ,
3, ,56, ,
1, ,54, ,
-2, ,55, ,
4, ,55, ,
-5, ,55, ,
3, ,53, ,
4, ,56, ,
5, ,54, ,
0, ,55, ,
8, ,55, ,
4, ,55, ,
4, ,54, ,
3, ,56, ,
3, ,55, ,
1, ,55, ,
6, ,55, ,
1, ,55, ,
1, ,53, ,
6, ,56, ,
0, ,55, ,
-1, ,55, ,
5, ,54, ,
1, ,55, ,
5, ,53, ,
3, ,56, ,
6, ,54, ,
5, ,55, ,
5, ,55, ,
-2, ,55, ,
-1, ,53, ,
1, ,56, ,
1, ,54, ,
-4, ,55, ,
6, ,55, ,
3, ,55, ,
3, ,54, ,
1, ,56, ,
4, ,54, ,
4, ,55, ,
5, ,55, ,
-1, ,55, ,
6, ,53, ,
5, ,56, ,
4, ,55, ,
1, ,54, ,
8, ,55, ,
3, ,55, ,
4, ,54, ,
1, ,56, ,
1, ,54, ,
5, ,55, ,
6, ,55, ,
3, ,56, ,
5, ,53, ,
5, ,56, ,
4, ,54, ,
0, ,55, ,
5, ,55, ,
3, ,55, ,
5, ,53, ,
4, ,55, ,
5, ,54, ,
0, ,55, ,
6, ,55, ,
-2, ,55, ,
0, ,54, ,
1, ,56, ,
-1, ,54, ,
-5, ,55, ,
1, ,55, ,
-1, ,55, ,
5, ,54, ,
4, ,56, ,
3, ,55, ,
1, ,55, ,
4, ,55, ,
-4, ,55, ,
-1, ,53, ,
3, ,56, ,
0, ,55, ,
-2, ,55, ,
4, ,55, ,
0, ,55, ,
0, ,53, ,
-1, ,56, ,
0, ,54, ,
-1, ,55, ,
4, ,55, ,
-6, ,56, ,
0, ,53, ,
3, ,56, ,
-1, ,54, ,
-5, ,55, ,
1, ,55, ,
-1, ,55, ,
0, ,53, ,
0, ,56, ,
1, ,54, ,
3, ,54, ,
5, ,55, ,
-1, ,55, ,
3, ,53, ,
1, ,56, ,
0, ,54, ,
-5, ,55, ,
1, ,55, ,
-1, ,55, ,
-1, ,53, ,
-1, ,56, ,
0, ,54, ,
1, ,54, ,
4, ,55, ,
-2, ,56, ,
0, ,53, ,
-1, ,56, ,
-1, ,54, ,
-2, ,55, ,
3, ,55, ,
1, ,55, ,
4, ,53, ,
-1, ,56, ,
1, ,54, ,
0, ,55, ,
1, ,55, ,
-4, ,55, ,
1, ,53, ,
3, ,56, ,
0, ,55, ,
-4, ,55, ,
4, ,55, ,
1, ,55, ,
-1, ,54, ,
-1, ,56, ,
3, ,54, ,
-1, ,55, ,
5, ,55, ,
-4, ,55, ,
-1, ,53, ,
0, ,56, ,
-1, ,54, ,
-4, ,55, ,
0, ,55, ,
-5, ,55, ,
-1, ,54, ,
-2, ,56, ,
1, ,54, ,
3, ,55, ,
3, ,55, ,
-5, ,55, ,
-1, ,53, ,
1, ,55, ,
0, ,55, ,
-7, ,55, ,
1, ,55, ,
-1, ,55, ,
0, ,54, ,
3, ,56, ,
1, ,54, ,
0, ,54, ,
4, ,55, ,
-1, ,56, ,
3, ,53, ,
3, ,56, ,
-1, ,55, ,
-5, ,55, ,
3, ,55, ,
-4, ,55, ,
-4, ,53, ,
-5, ,56, ,
-4, ,54, ,
-1, ,55, ,
0, ,55, ,
-6, ,55, ,
3, ,53, ,
1, ,56, ,
0, ,55, ,
-4, ,55, ,
0, ,55, ,
-2, ,55, ,
-1, ,54, ,
-1, ,56, ,
1, ,54, ,
1, ,54, ,
3, ,55, ,
-4, ,56, ,
1, ,54, ,
4, ,56, ,
-4, ,55, ,
-5, ,55, ,
-1, ,55, ,
-1, ,55, ,
1, ,53, ,
0, ,56, ,
3, ,54, ,
5, ,55, ,
6, ,55, ,
0, ,55, ,
1, ,53, ,
5, ,55, ,
3, ,54, ,
0, ,55, ,
6, ,55, ,
3, ,55, ,
0, ,53, ,
-2, ,56, ,
0, ,54, ,
0, ,55, ,
6, ,55, ,
-1, ,55, ,
4, ,53, ,
9, ,56, ,
1, ,55, ,
-2, ,55, ,
5, ,55, ,
-2, ,55, ,
1, ,54, ,
1, ,56, ,
3, ,54, ,
4, ,55, ,
6, ,55, ,
1, ,56, ,
4, ,53, ,
3, ,55, ,
3, ,55, ,
-1, ,55, ,
3, ,55, ,
1, ,55, ,
-1, ,53, ,
0, ,56, ,
-1, ,54, ,
1, ,55, ,
6, ,55, ,
-2, ,55, ,
1, ,53, ,
6, ,56, ,
4, ,55, ,
-2, ,55, ,
4, ,55, ,
0, ,55, ,
0, ,53, ,
1, ,56, ,
-2, ,54, ,
-7, ,55, ,
8, ,55, ,
-4, ,56, ,
0, ,53, ,
3, ,56, ,
0, ,55, ,
-2, ,55, ,
5, ,55, ,
4, ,55, ,
3, ,54, ,
0, ,56, ,
1, ,54, ,
0, ,55, ,
4, ,55, ,
-2, ,56, ,
1, ,53, ,
6, ,56, ,
4, ,55, ,
3, ,55, ,
5, ,55, ,
0, ,55, ,
4, ,53, ,
3, ,56, ,
4, ,54, ,
6, ,55, ,
6, ,55, ,
0, ,55, ,
5, ,53, ,
5, ,56, ,
3, ,55, ,
0, ,55, ,
8, ,55, ,
3, ,56, ,
5, ,53, ,
4, ,56, ,
3, ,55, ,
4, ,55, ,
8, ,56, ,
0, ,56, ,
5, ,54, ,
8, ,56, ,
5, ,55, ,
1, ,55, ,
8, ,55, ,
5, ,55, ,
3, ,53, ,
4, ,56, ,
-1, ,54, ,
3, ,55, ,
6, ,55, ,
-2, ,55, ,
4, ,53, ,
5, ,55, ,
8, ,55, ,
8, ,55, ,
13, ,55, ,
8, ,55, ,
4, ,54, ,
1, ,56, ,
1, ,54, ,
1, ,55, ,
4, ,55, ,
-1, ,56, ,
3, ,53, ,
5, ,56, ,
-1, ,55, ,
-1, ,55, ,
4, ,55, ,
3, ,55, ,
4, ,54, ,
3, ,56, ,
4, ,54, ,
3, ,55, ,
8, ,55, ,
-1, ,56, ,
1, ,53, ,
1, ,56, ,
1, ,54, ,
-1, ,55, ,
5, ,55, ,
3, ,55, ,
1, ,54, ,
1, ,56, ,
3, ,54, ,
3, ,53, ,
6, ,46, ,
-7, ,36, ,
-6, ,25, ,
-5, ,17, ,
-7, ,10, ,
-9, ,2, ,
1, ,-3, ,
-1, ,-7, ,
1, ,-12, ,
-5, ,-16, ,
-6, ,-19, ,
-4, ,-21, ,
0, ,-24, ,
-6, ,-25, ,
3, ,-27, ,
1, ,-29, ,
1, ,-30, ,
-2, ,-31, ,
4, ,-32, ,
1, ,-33, ,
-2, ,-33, ,
-2, ,-35, ,
-1, ,-35, ,
1, ,-35, ,
6, ,-36, ,
-2, ,-37, ,
3, ,-37, ,
5, ,-37, ,
3, ,-37, ,
-2, ,-37, ,
3, ,-38, ,
1, ,-38, ,
1, ,-38, ,
1, ,-38, ,
3, ,-38, ,
4, ,-38, ,
4, ,-38, ,
-6, ,-38, ,
-4, ,-38, ,
-2, ,-38, ,
-4, ,-38, ,
-4, ,-38, ,
-4, ,-38, ,
-6, ,-38, ,
-11, ,-38, ,
-16, ,-38, ,
-15, ,-38, ,
-10, ,-38, ,
1, ,-38, ,
8, ,-38, ,
18, ,-38, ,
29, ,-39, ,
20, ,-38, ,
9, ,-38, ,
4, ,-38, ,
-10, ,-38, ,
-6, ,-38, ,
-11, ,-38, ,
-4, ,-38, ,
8, ,-38, ,
8, ,-38, ,
-1, ,-38, ,
-2, ,-38, ,
-2, ,-38, ,
-5, ,-38, ,
-9, ,-38, ,
3, ,-38, ,
4, ,-38, ,
5, ,-38, ,
4, ,-38, ,
1, ,-38, ,
-1, ,-38, ,
0, ,-38, ,
-5, ,-38, ,
-2, ,-38, ,
4, ,-38, ,
4, ,-38, ,
1, ,-38, ,
5, ,-38, ,
3, ,-38, ,
-4, ,-38, ,
-11, ,-38, ,
-9, ,-38, ,
-4, ,-38, ,
1, ,-38, ,
0, ,-38, ,
3, ,-38, ,
4, ,-38, ,
1, ,-38, ,
-1, ,-38, ,
5, ,-38, ,
6, ,-38, ,
5, ,-38, ,
3, ,-38, ,
-2, ,-38, ,
-5, ,-38, ,
-4, ,-38, ,
-14, ,-38, ,
-4, ,-38, ,
3, ,-38, ,
-2, ,-38, ,
-2, ,-38, ,
0, ,-38, ,
-4, ,-38, ,
-2, ,-38, ,
-1, ,-38, ,
3, ,-38, ,
9, ,-38, ,
10, ,-38, ,
3, ,-38, ,
3, ,-38, ,
1, ,-38, ,
-2, ,-38, ,
-6, ,-38, ,
-1, ,-38, ,
-4, ,-38, ,
-1, ,-38, ,
0, ,-38, ,
0, ,-38, ,
1, ,-38, ,
3, ,-38, ,
-2, ,-38, ,
3, ,-38, ,
5, ,-38, ,
0, ,-38, ,
-1, ,-38, ,
3, ,-38, ,
-1, ,-38, ,
1, ,-38, ,
-1, ,-38, ,
1, ,-38, ,
4, ,-37, ,
5, ,-38, ,
0, ,-38, ,
3, ,-37, ,
1, ,-38, ,
-1, ,-38, ,
-5, ,-38, ,
-4, ,-38, ,
-5, ,-38, ,
-5, ,-38, ,
-2, ,-38, ,
-1, ,-38, ,
4, ,-38, ,
4, ,-38, ,
0, ,-38, ,
5, ,-38, ,
8, ,-38, ,
1, ,-38, ,
-4, ,-37, ,
-1, ,-38, ,
-1, ,-38, ,
-1, ,-37, ,
-2, ,-38, ,
0, ,-38, ,
1, ,-37, ,
3, ,-38, ,
-1, ,-38, ,
1, ,-38, ,
3, ,-38, ,
0, ,-38, ,
-1, ,-38, ,
3, ,-38, ,
4, ,-38, ,
4, ,-38, ,
3, ,-38, ,
5, ,-37, ,
1, ,-38, ,
4, ,-38, ,
-2, ,-37, ,
1, ,-38, ,
8, ,-37, ,
0, ,-38, ,
0, ,-38, ,
4, ,-38, ,
3, ,-38, ,
6, ,-37, ,
3, ,-38, ,
4, ,-37, ,
5, ,-37, ,
6, ,-37, ,
1, ,-38, ,
6, ,-38, ,
8, ,-38, ,
4, ,-38, ,
0, ,-38, ,
4, ,-38, ,
3, ,-38, ,
4, ,-38, ,
3, ,-38, ,
3, ,-37, ,
6, ,-38, ,
8, ,-38, ,
1, ,-38, ,
6, ,-38, ,
8, ,-38, ,
3, ,-38, ,
-1, ,-37, ,
6, ,-38, ,
10, ,-38, ,
1, ,-38, ,
-2, ,-38, ,
3, ,-38, ,
1, ,-37, ,
1, ,-38, ,
1, ,-38, ,
9, ,-37, ,
5, ,-38, ,
3, ,-38, ,
4, ,-37, ,
5, ,-38, ,
4, ,-38, ,
5, ,-38, ,
1, ,-38, ,
1, ,-38, ,
0, ,-37, ,
0, ,-37, ,
-6, ,-38, ,
-1, ,-38, ,
4, ,-38, ,
1, ,-38, ,
0, ,-37, ,
3, ,-38, ,
3, ,-37, ,
6, ,-37, ,
-2, ,-38, ,
1, ,-37, ,
1, ,-37, ,
3, ,-38, ,
0, ,-38, ,
1, ,-37, ,
6, ,-37, ,
3, ,-38, ,
1, ,-38, ,
5, ,-38, ,
0, ,-38, ,
0, ,-37, ,
0, ,-38, ,
1, ,-38, ,
3, ,-38, ,
3, ,-37, ,
-4, ,-38, ,
0, ,-38, ,
5, ,-38, ,
1, ,-38, ,
-2, ,-37, ,
1, ,-37, ,
3, ,-38, ,
4, ,-37, ,
4, ,-38, ,
5, ,-38, ,
8, ,-37, ,
9, ,-38, ,
1, ,-38, ,
8, ,-37, ,
8, ,-37, ,
9, ,-38, ,
5, ,-37, ,
10, ,-37, ,
8, ,-37, ,
3, ,-38, ,
3, ,-38, ,
1, ,-37, ,
4, ,-38, ,
6, ,-37, ,
1, ,-37, ,
6, ,-38, ,
14, ,-37, ,
10, ,-38, ,
8, ,-37, ,
-2, ,-38, ,
9, ,-37, ,
10, ,-38, ,
5, ,-38, ,
9, ,-38, ,
3, ,-37, ,
-1, ,-37, ,
-4, ,-38, ,
5, ,-38, ,
9, ,-38, ,
6, ,-38, ,
5, ,-38, ,
8, ,-37, ,
6, ,-37, ,
3, ,-38, ,
0, ,-38, ,
3, ,-38, ,
4, ,-37, ,
6, ,-37, ,
3, ,-38, ,
4, ,-38, ,
6, ,-38, ,
-1, ,-38, ,
0, ,-38, ,
4, ,-37, ,
5, ,-38, ,
6, ,-38, ,
4, ,-38, ,
3, ,-37, ,
1, ,-37, ,
-2, ,-37, ,
-6, ,-38, ,
1, ,-37, ,
4, ,-38, ,
4, ,-38, ,
-1, ,-37, ,
6, ,-38, ,
1, ,-37, ,
1, ,-38, ,
1, ,-38, ,
0, ,-38, ,
0, ,-38, ,
1, ,-38, ,
-5, ,-38, ,
0, ,-38, ,
3, ,-38, ,
-4, ,-38, ,
-4, ,-37, ,
0, ,-38, ,
-1, ,-38, ,
-1, ,-38, ,
-1, ,-38, ,
21, ,-38, ,
41, ,-37, ,
54, ,-37, ,
60, ,-37, ,
58, ,-38, ,
46, ,-37, ,
35, ,-38, ,
24, ,-37, ,
21, ,-38, ,
20, ,-37, ,
14, ,-38, ,
11, ,-38, ,
9, ,-38, ,
8, ,-38, ,
8, ,-37, ,
-1, ,-38, ,
0, ,-38, ,
5, ,-38, ,
-1, ,-38, ,
1, ,-37, ,
3, ,-38, ,
3, ,-38, ,
4, ,-37, ,
-1, ,-38, ,
-1, ,-38, ,
0, ,-37, ,
4, ,-38, ,
-6, ,-38, ,
-1, ,-37, ,
1, ,-38, ,
-2, ,-38, ,
-5, ,-38, ,
-1, ,-38, ,
-2, ,-37, ,
-4, ,-38, ,
-2, ,-38, ,
-1, ,-37, ,
1, ,-38, ,
1, ,-37, ,
-4, ,-38, ,
-4, ,-38, ,
3, ,-37, ,
-2, ,-37, ,
-4, ,-37, ,
0, ,-38, ,
-2, ,-38, ,
-4, ,-38, ,
1, ,-38, ,
4, ,-38, ,
1, ,-37, ,
4, ,-37, ,
-4, ,-37, ,
0, ,-38, ,
-2, ,-38, ,
-2, ,-38, ,
-6, ,-37, ,
0, ,-38, ,
-4, ,-37, ,
-2, ,-38, ,
-4, ,-38, ,
-2, ,-38, ,
-1, ,-37, ,
0, ,-37, ,
-5, ,-38, ,
0, ,-37, ,
0, ,-38, ,
-2, ,-38, ,
-5, ,-38, ,
0, ,-38, ,
-1, ,-38, ,
-1, ,-37, ,
-2, ,-38, ,
1, ,-38, ,
0, ,-37, ,
5, ,-38, ,
-4, ,-37, ,
4, ,-38, ,
6, ,-37, ,
-1, ,-38, ,
-1, ,-37, ,
1, ,-38, ,
1, ,-37, ,
1, ,-38, ,
-1, ,-38, ,
0, ,-38, ,
3, ,-37, ,
3, ,-38, ,
-2, ,-37, ,
1, ,-38, ,
5, ,-37, ,
-1, ,-38, ,
-2, ,-37, ,
5, ,-38, ,
3, ,-37, ,
4, ,-38, ,
5, ,-38, ,
5, ,-38, ,
6, ,-37, ,
5, ,-38, ,
0, ,-38, ,
3, ,-37, ,
5, ,-37, ,
3, ,-38, ,
-1, ,-37, ,
9, ,-37, ,
4, ,-38, ,
4, ,-37, ,
4, ,-38, ,
5, ,-38, ,
6, ,-38, ,
10, ,-38, ,
5, ,-38, ,
10, ,-38, ,
11, ,-38, ,
5, ,-37, ,
-1, ,-37, ,
3, ,-38, ,
-1, ,-38, ,
0, ,-37, ,
3, ,-38, ,
1, ,-38, ,
5, ,-37, ,
8, ,-38, ,
3, ,-38, ,
8, ,-37, ,
8, ,-38, ,
6, ,-37, ,
3, ,-38, ,
6, ,-37, ,
8, ,-37, ,
4, ,-37, ,
6, ,-38, ,
5, ,-37, ,
4, ,-37, ,
5, ,-37, ,
-1, ,-38, ,
4, ,-38, ,
6, ,-37, ,
3, ,-38, ,
1, ,-37, ,
3, ,-38, ,
4, ,-38, ,
6, ,-38, ,
3, ,-38, ,
4, ,-38, ,
6, ,-37, ,
8, ,-38, ,
1, ,-38, ,
5, ,-38, ,
9, ,-38, ,
8, ,-38, ,
8, ,-38, ,
10, ,-38, ,
6, ,-38, ,
5, ,-38, ,
4, ,-38, ,
5, ,-38, ,
8, ,-37, ,
9, ,-38, ,
4, ,-38, ,
6, ,-38, ,
10, ,-37, ,
5, ,-37, ,
3, ,-38, ,
8, ,-38, ,
6, ,-37, ,
8, ,-38, ,
8, ,-38, ,
5, ,-37, ,
9, ,-37, ,
8, ,-38, ,
4, ,-38, ,
8, ,-37, ,
8, ,-37, ,
9, ,-38, ,
4, ,-37, ,
9, ,-38, ,
8, ,-38, ,
6, ,-37, ,
8, ,-38, ,
5, ,-38, ,
6, ,-38, ,
8, ,-38, ,
0, ,-38, ,
6, ,-38, ,
10, ,-37, ,
6, ,-38, ,
6, ,-38, ,
9, ,-37, ,
8, ,-38, ,
5, ,-38, ,
5, ,-38, ,
5, ,-37, ,
4, ,-37, ,
5, ,-38, ,
1, ,-38, ,
5, ,-37, ,
9, ,-38, ,
5, ,-38, ,
5, ,-37, ,
9, ,-38, ,
8, ,-37, ,
5, ,-38, ,
1, ,-38, ,
1, ,-38, ,
3, ,-37, ,
5, ,-38, ,
0, ,-37, ,
4, ,-38, ,
9, ,-38, ,
4, ,-38, ,
1, ,-37, ,
5, ,-37, ,
4, ,-38, ,
4, ,-37, ,
1, ,-38, ,
4, ,-38, ,
6, ,-37, ,
5, ,-38, ,
-2, ,-38, ,
0, ,-38, ,
3, ,-38, ,
1, ,-38, ,
-2, ,-37, ,
8, ,-38, ,
5, ,-38, ,
3, ,-37, ,
5, ,-38, ,
1, ,-38, ,
5, ,-37, ,
4, ,-38, ,
-5, ,-38, ,
-1, ,-38, ,
5, ,-38, ,
3, ,-38, ,
5, ,-38, ,
9, ,-38, ,
1, ,-38, ,
-1, ,-37, ,
-2, ,-38, ,
-1, ,-38, ,
0, ,-38, ,
3, ,-38, ,
-2, ,-38, ,
3, ,-37, ,
3, ,-38, ,
0, ,-38, ,
-1, ,-38, ,
4, ,-37, ,
5, ,-38, ,
4, ,-38, ,
3, ,-38, ,
3, ,-38, ,
3, ,-38, ,
4, ,-37, ,
0, ,-38, ,
4, ,-38, ,
6, ,-38, ,
-1, ,-38, ,
-4, ,-37, ,
3, ,-38, ,
3, ,-38, ,
5, ,-37, ,
1, ,-38, ,
4, ,-38, ,
4, ,-37, ,
5, ,-38, ,
-1, ,-38, ,
5, ,-38, ,
5, ,-38, ,
0, ,-38, ,
-2, ,-37, ,
3, ,-38, ,
1, ,-38, ,
1, ,-38, ,
-2, ,-37, ,
-1, ,-38, ,
-2, ,-38, ,
-4, ,-38, ,
-5, ,-37, ,
-4, ,-38, ,
1, ,-38, ,
-2, ,-37, ,
-9, ,-37, ,
0, ,-38, ,
-1, ,-37, ,
-1, ,-38, ,
0, ,-38, ,
-1, ,-37, ,
1, ,-37, ,
4, ,-38, ,
-1, ,-38, ,
3, ,-38, ,
3, ,-37, ,
-2, ,-38, ,
-7, ,-38, ,
0, ,-38, ,
-2, ,-38, ,
-2, ,-38, ,
-1, ,-38, ,
-1, ,-38, ,
1, ,-38, ,
1, ,-37, ,
-5, ,-38, ,
1, ,-38, ,
0, ,-38, ,
-5, ,-38, ,
-2, ,-37, ,
1, ,-37, ,
-2, ,-38, ,
0, ,-38, ,
8, ,-38, ,
20, ,-38, ,
26, ,-37, ,
30, ,-38, ,
28, ,-38, ,
33, ,-38, ,
33, ,-38, ,
29, ,-38, ,
23, ,-37, ,
18, ,-38, ,
14, ,-38, ,
13, ,-38, ,
8, ,-38, ,
8, ,-37, ,
6, ,-38, ,
8, ,-38, ,
1, ,-38, ,
3, ,-38, ,
5, ,-37, ,
0, ,-38, ,
-2, ,-37, ,
5, ,-38, ,
