src/vary_am2_1411/temp0002775.CSV

Format,1.0B,
Memory Length,10000,Memory Length,10000,
IntpDistance,0,IntpDistance,0,
Trigger Address,4999,Trigger Address,4999,
Trigger Level,-1.000E+00,Trigger Level,-1.000E+00,
Source,CH1,Source,CH2,
Vertical Units,V,Vertical Units,V,
Vertical Units Div,0,Vertical Units Div,0,
Vertical Units Extend Div,16,Vertical Units Extend Div,16,
Label,,Label,,
Probe Type,0,Probe Type,0,
Probe Ratio,1.000e+01,Probe Ratio,1.000e+00,
Vertical Scale,2.000e-02,Vertical Scale,1.000e+00,
Vertical Position,-5.120e-02,Vertical Position,2.000e-01,
Horizontal Units,S,Horizontal Units,S,
Horizontal Scale,1.000E-05,Horizontal Scale,1.000E-05,
Horizontal Position,0.000E+00,Horizontal Position,0.000E+00,
Horizontal Mode,Main,Horizontal Mode,Main,
SincET Mode,Real Time,SincET Mode,Real Time,
Sampling Period,1.000e-08,Sampling Period,1.000e-08,
Horizontal Old Scale,1.000E-05,Horizontal Old Scale,1.000E-05,
Horizontal Old Position,0.000E+00,Horizontal Old Position,0.000E+00,
Firmware,V1.23,Firmware,V1.23,
Mode,Fast,Mode,Fast,
Waveform Data,,Waveform Data,,
1, ,-42, ,
0, ,-43, ,
-5, ,-42, ,
0, ,-42, ,
-4, ,-43, ,
-5, ,-42, ,
-4, ,-42, ,
-4, ,-42, ,
-4, ,-42, ,
0, ,-43, ,
-6, ,-42, ,
0, ,-42, ,
3, ,-42, ,
-2, ,-43, ,
-2, ,-42, ,
-1, ,-42, ,
-2, ,-43, ,
-1, ,-42, ,
-2, ,-43, ,
-2, ,-42, ,
-1, ,-42, ,
0, ,-43, ,
-4, ,-42, ,
1, ,-42, ,
3, ,-42, ,
-1, ,-42, ,
-5, ,-42, ,
3, ,-42, ,
-4, ,-42, ,
-2, ,-42, ,
-2, ,-42, ,
-2, ,-42, ,
-4, ,-42, ,
-1, ,-43, ,
-6, ,-43, ,
-4, ,-42, ,
-1, ,-42, ,
-2, ,-42, ,
-5, ,-42, ,
5, ,-42, ,
1, ,-43, ,
3, ,-42, ,
4, ,-42, ,
1, ,-42, ,
3, ,-42, ,
3, ,-43, ,
-1, ,-42, ,
4, ,-42, ,
6, ,-42, ,
5, ,-42, ,
5, ,-42, ,
9, ,-43, ,
9, ,-42, ,
3, ,-42, ,
3, ,-43, ,
6, ,-43, ,
9, ,-42, ,
13, ,-43, ,
6, ,-43, ,
11, ,-42, ,
11, ,-43, ,
8, ,-42, ,
0, ,-42, ,
8, ,-42, ,
1, ,-43, ,
4, ,-42, ,
5, ,-43, ,
8, ,-42, ,
10, ,-42, ,
10, ,-43, ,
-1, ,-42, ,
1, ,-42, ,
1, ,-42, ,
-1, ,-42, ,
-2, ,-42, ,
3, ,-43, ,
5, ,-43, ,
4, ,-42, ,
0, ,-42, ,
0, ,-42, ,
0, ,-42, ,
0, ,-43, ,
-6, ,-43, ,
-2, ,-42, ,
0, ,-42, ,
0, ,-43, ,
-2, ,-42, ,
3, ,-43, ,
-4, ,-42, ,
1, ,-42, ,
-1, ,-42, ,
0, ,-42, ,
0, ,-42, ,
1, ,-43, ,
-6, ,-42, ,
1, ,-42, ,
1, ,-42, ,
0, ,-42, ,
-4, ,-42, ,
1, ,-43, ,
4, ,-43, ,
3, ,-42, ,
4, ,-42, ,
5, ,-42, ,
5, ,-42, ,
8, ,-43, ,
3, ,-43, ,
4, ,-42, ,
9, ,-42, ,
6, ,-42, ,
1, ,-42, ,
9, ,-43, ,
6, ,-43, ,
8, ,-42, ,
9, ,-43, ,
9, ,-42, ,
10, ,-42, ,
10, ,-43, ,
3, ,-43, ,
5, ,-42, ,
9, ,-42, ,
6, ,-43, ,
0, ,-42, ,
11, ,-43, ,
13, ,-43, ,
11, ,-42, ,
14, ,-43, ,
10, ,-42, ,
6, ,-42, ,
11, ,-43, ,
-4, ,-43, ,
5, ,-42, ,
15, ,-42, ,
9, ,-42, ,
6, ,-42, ,
9, ,-42, ,
6, ,-43, ,
3, ,-42, ,
0, ,-43, ,
4, ,-42, ,
4, ,-42, ,
8, ,-43, ,
3, ,-43, ,
4, ,-42, ,
3, ,-42, ,
-1, ,-43, ,
-2, ,-42, ,
5, ,-43, ,
1, ,-43, ,
3, ,-43, ,
-1, ,-42, ,
0, ,-42, ,
-2, ,-42, ,
-5, ,-43, ,
-7, ,-43, ,
-4, ,-42, ,
-1, ,-42, ,
-4, ,-43, ,
-6, ,-42, ,
4, ,-43, ,
1, ,-43, ,
8, ,-42, ,
4, ,-42, ,
6, ,-42, ,
5, ,-42, ,
6, ,-43, ,
-1, ,-42, ,
3, ,-42, ,
5, ,-42, ,
5, ,-42, ,
3, ,-42, ,
10, ,-43, ,
6, ,-43, ,
4, ,-42, ,
-1, ,-43, ,
-4, ,-42, ,
0, ,-42, ,
13, ,-43, ,
-2, ,-42, ,
3, ,-42, ,
4, ,-42, ,
0, ,-43, ,
-2, ,-42, ,
1, ,-42, ,
-1, ,-43, ,
0, ,-42, ,
0, ,-42, ,
-1, ,-42, ,
0, ,-42, ,
3, ,-43, ,
-4, ,-42, ,
0, ,-42, ,
3, ,-42, ,
0, ,-42, ,
0, ,-42, ,
5, ,-43, ,
5, ,-43, ,
5, ,-42, ,
3, ,-43, ,
4, ,-43, ,
3, ,-42, ,
5, ,-43, ,
-1, ,-43, ,
4, ,-42, ,
14, ,-43, ,
-1, ,-42, ,
1, ,-42, ,
5, ,-43, ,
1, ,-43, ,
6, ,-42, ,
0, ,-43, ,
1, ,-42, ,
1, ,-42, ,
-1, ,-43, ,
-4, ,-43, ,
-2, ,-42, ,
0, ,-42, ,
-2, ,-43, ,
-5, ,-42, ,
-4, ,-43, ,
-2, ,-43, ,
-5, ,-42, ,
-4, ,-43, ,
-5, ,-42, ,
-2, ,-42, ,
3, ,-43, ,
-6, ,-43, ,
1, ,-42, ,
0, ,-42, ,
-6, ,-42, ,
-9, ,-42, ,
-2, ,-43, ,
-6, ,-43, ,
-2, ,-42, ,
-2, ,-43, ,
-4, ,-42, ,
-2, ,-42, ,
-1, ,-43, ,
-7, ,-42, ,
1, ,-42, ,
0, ,-42, ,
0, ,-43, ,
-4, ,-42, ,
5, ,-43, ,
1, ,-43, ,
-1, ,-42, ,
-1, ,-43, ,
0, ,-42, ,
-1, ,-42, ,
3, ,-43, ,
-4, ,-43, ,
0, ,-42, ,
1, ,-42, ,
-5, ,-42, ,
-7, ,-42, ,
-2, ,-43, ,
-5, ,-43, ,
-6, ,-42, ,
-7, ,-43, ,
-7, ,-42, ,
-6, ,-42, ,
-2, ,-43, ,
-5, ,-42, ,
1, ,-42, ,
4, ,-42, ,
-1, ,-43, ,
-2, ,-42, ,
3, ,-42, ,
-1, ,-43, ,
-4, ,-42, ,
-4, ,-42, ,
1, ,-42, ,
1, ,-42, ,
5, ,-43, ,
1, ,-43, ,
4, ,-42, ,
6, ,-42, ,
3, ,-43, ,
0, ,-42, ,
8, ,-43, ,
4, ,-43, ,
5, ,-43, ,
4, ,-43, ,
6, ,-42, ,
6, ,-42, ,
5, ,-43, ,
0, ,-42, ,
5, ,-42, ,
3, ,-42, ,
1, ,-43, ,
-1, ,-42, ,
4, ,-43, ,
1, ,-43, ,
-1, ,-42, ,
-2, ,-43, ,
-2, ,-42, ,
-2, ,-42, ,
0, ,-43, ,
-5, ,-42, ,
0, ,-42, ,
8, ,-42, ,
5, ,-42, ,
-1, ,-42, ,
0, ,-43, ,
-2, ,-43, ,
-2, ,-42, ,
-2, ,-43, ,
0, ,-42, ,
1, ,-42, ,
3, ,-40, ,
-4, ,-32, ,
8, ,-22, ,
8, ,-11, ,
8, ,-3, ,
6, ,4, ,
8, ,11, ,
9, ,16, ,
6, ,21, ,
3, ,26, ,
9, ,29, ,
9, ,31, ,
10, ,35, ,
6, ,36, ,
5, ,38, ,
5, ,40, ,
5, ,42, ,
-1, ,42, ,
6, ,45, ,
1, ,46, ,
3, ,46, ,
1, ,47, ,
3, ,47, ,
3, ,47, ,
5, ,49, ,
-1, ,49, ,
3, ,49, ,
5, ,50, ,
5, ,50, ,
-1, ,49, ,
6, ,51, ,
5, ,51, ,
9, ,50, ,
6, ,51, ,
5, ,51, ,
4, ,50, ,
10, ,51, ,
4, ,50, ,
9, ,51, ,
11, ,51, ,
8, ,51, ,
5, ,49, ,
11, ,51, ,
6, ,51, ,
8, ,51, ,
6, ,51, ,
6, ,51, ,
9, ,50, ,
11, ,52, ,
5, ,51, ,
9, ,50, ,
9, ,51, ,
4, ,51, ,
0, ,49, ,
4, ,51, ,
0, ,51, ,
3, ,50, ,
3, ,50, ,
4, ,51, ,
3, ,50, ,
5, ,52, ,
-5, ,50, ,
1, ,50, ,
0, ,51, ,
0, ,51, ,
-2, ,49, ,
5, ,52, ,
0, ,51, ,
0, ,50, ,
0, ,51, ,
1, ,51, ,
0, ,49, ,
4, ,51, ,
3, ,50, ,
1, ,50, ,
11, ,51, ,
11, ,50, ,
6, ,49, ,
15, ,51, ,
6, ,50, ,
6, ,50, ,
4, ,50, ,
4, ,51, ,
5, ,49, ,
5, ,51, ,
3, ,50, ,
6, ,50, ,
8, ,51, ,
5, ,51, ,
0, ,49, ,
5, ,51, ,
0, ,50, ,
3, ,50, ,
4, ,50, ,
5, ,51, ,
6, ,49, ,
4, ,51, ,
-6, ,50, ,
-4, ,50, ,
1, ,51, ,
4, ,51, ,
1, ,49, ,
8, ,51, ,
6, ,50, ,
3, ,50, ,
1, ,50, ,
0, ,51, ,
0, ,50, ,
5, ,51, ,
1, ,50, ,
6, ,50, ,
6, ,51, ,
4, ,51, ,
-1, ,49, ,
4, ,51, ,
1, ,50, ,
4, ,50, ,
5, ,50, ,
4, ,51, ,
3, ,50, ,
4, ,51, ,
-2, ,50, ,
4, ,50, ,
5, ,51, ,
6, ,51, ,
4, ,49, ,
8, ,51, ,
5, ,51, ,
5, ,50, ,
1, ,50, ,
3, ,51, ,
-1, ,50, ,
1, ,51, ,
-5, ,50, ,
-2, ,50, ,
1, ,51, ,
-4, ,50, ,
-6, ,49, ,
1, ,51, ,
-1, ,50, ,
3, ,50, ,
0, ,50, ,
1, ,51, ,
3, ,50, ,
3, ,51, ,
-4, ,50, ,
0, ,50, ,
-1, ,51, ,
-4, ,50, ,
-2, ,49, ,
8, ,51, ,
4, ,50, ,
4, ,50, ,
0, ,50, ,
0, ,51, ,
0, ,50, ,
0, ,51, ,
-2, ,50, ,
-1, ,50, ,
1, ,50, ,
-1, ,50, ,
-5, ,49, ,
1, ,51, ,
-2, ,50, ,
-6, ,50, ,
-4, ,50, ,
-4, ,51, ,
-5, ,49, ,
0, ,51, ,
-6, ,50, ,
-1, ,50, ,
-2, ,51, ,
-5, ,51, ,
-9, ,49, ,
0, ,51, ,
-4, ,50, ,
-2, ,50, ,
-2, ,50, ,
1, ,51, ,
-1, ,49, ,
3, ,51, ,
-2, ,50, ,
0, ,50, ,
1, ,51, ,
0, ,50, ,
-2, ,49, ,
0, ,51, ,
-2, ,50, ,
0, ,50, ,
1, ,50, ,
0, ,51, ,
1, ,49, ,
3, ,51, ,
0, ,49, ,
1, ,50, ,
5, ,51, ,
4, ,50, ,
4, ,49, ,
8, ,51, ,
3, ,50, ,
-1, ,50, ,
-1, ,50, ,
0, ,50, ,
-1, ,49, ,
0, ,51, ,
-5, ,50, ,
-1, ,50, ,
0, ,51, ,
-4, ,50, ,
-9, ,49, ,
-1, ,51, ,
-6, ,51, ,
-2, ,50, ,
-2, ,50, ,
-2, ,50, ,
1, ,49, ,
3, ,51, ,
-4, ,49, ,
1, ,50, ,
-2, ,50, ,
-2, ,50, ,
-6, ,49, ,
0, ,51, ,
-1, ,50, ,
-2, ,50, ,
-4, ,51, ,
-2, ,51, ,
-2, ,50, ,
3, ,51, ,
-2, ,49, ,
0, ,50, ,
1, ,50, ,
1, ,51, ,
-5, ,49, ,
1, ,51, ,
-1, ,50, ,
0, ,50, ,
0, ,50, ,
0, ,50, ,
0, ,50, ,
4, ,51, ,
-1, ,50, ,
1, ,50, ,
1, ,51, ,
0, ,50, ,
-1, ,49, ,
3, ,51, ,
0, ,50, ,
-2, ,50, ,
-4, ,50, ,
-1, ,51, ,
-1, ,50, ,
6, ,51, ,
0, ,50, ,
1, ,50, ,
5, ,51, ,
4, ,50, ,
0, ,49, ,
4, ,51, ,
-1, ,51, ,
1, ,50, ,
0, ,50, ,
0, ,50, ,
3, ,49, ,
6, ,51, ,
1, ,50, ,
5, ,50, ,
5, ,50, ,
4, ,51, ,
1, ,49, ,
6, ,51, ,
4, ,50, ,
5, ,50, ,
5, ,50, ,
4, ,50, ,
5, ,49, ,
4, ,51, ,
-2, ,50, ,
3, ,50, ,
3, ,51, ,
1, ,50, ,
1, ,49, ,
8, ,51, ,
1, ,50, ,
3, ,50, ,
3, ,50, ,
0, ,50, ,
4, ,49, ,
8, ,51, ,
1, ,49, ,
8, ,50, ,
9, ,51, ,
3, ,50, ,
3, ,49, ,
8, ,51, ,
0, ,50, ,
3, ,50, ,
3, ,50, ,
6, ,51, ,
6, ,49, ,
11, ,51, ,
1, ,50, ,
5, ,50, ,
9, ,50, ,
3, ,50, ,
0, ,49, ,
5, ,51, ,
1, ,50, ,
4, ,50, ,
4, ,50, ,
5, ,50, ,
5, ,49, ,
4, ,51, ,
0, ,49, ,
5, ,50, ,
6, ,51, ,
1, ,50, ,
0, ,49, ,
9, ,51, ,
4, ,51, ,
4, ,50, ,
-2, ,50, ,
1, ,50, ,
4, ,49, ,
1, ,51, ,
-4, ,50, ,
1, ,50, ,
4, ,51, ,
3, ,50, ,
-5, ,49, ,
9, ,51, ,
3, ,50, ,
3, ,50, ,
3, ,50, ,
4, ,51, ,
5, ,49, ,
8, ,51, ,
3, ,50, ,
10, ,50, ,
9, ,50, ,
8, ,50, ,
4, ,49, ,
8, ,51, ,
4, ,50, ,
3, ,50, ,
1, ,51, ,
4, ,50, ,
5, ,49, ,
10, ,51, ,
6, ,50, ,
8, ,50, ,
5, ,51, ,
8, ,50, ,
3, ,49, ,
8, ,51, ,
9, ,50, ,
8, ,50, ,
5, ,51, ,
4, ,50, ,
3, ,49, ,
4, ,51, ,
-4, ,49, ,
4, ,50, ,
3, ,51, ,
3, ,50, ,
0, ,49, ,
8, ,51, ,
4, ,49, ,
4, ,50, ,
0, ,50, ,
1, ,51, ,
-1, ,49, ,
5, ,51, ,
0, ,50, ,
5, ,50, ,
6, ,51, ,
4, ,50, ,
4, ,49, ,
6, ,51, ,
0, ,50, ,
3, ,50, ,
0, ,50, ,
3, ,50, ,
4, ,49, ,
3, ,51, ,
-4, ,50, ,
0, ,50, ,
4, ,50, ,
4, ,50, ,
1, ,49, ,
8, ,51, ,
3, ,50, ,
5, ,50, ,
3, ,50, ,
3, ,50, ,
0, ,50, ,
1, ,51, ,
-6, ,50, ,
0, ,50, ,
0, ,51, ,
1, ,50, ,
-2, ,49, ,
5, ,50, ,
3, ,50, ,
0, ,50, ,
0, ,50, ,
0, ,51, ,
0, ,49, ,
3, ,51, ,
-5, ,50, ,
1, ,50, ,
1, ,50, ,
1, ,50, ,
3, ,49, ,
6, ,51, ,
4, ,50, ,
1, ,50, ,
0, ,50, ,
4, ,50, ,
-1, ,50, ,
4, ,51, ,
0, ,50, ,
1, ,50, ,
3, ,50, ,
0, ,50, ,
-1, ,48, ,
1, ,51, ,
0, ,50, ,
4, ,50, ,
0, ,50, ,
1, ,51, ,
1, ,49, ,
3, ,51, ,
-4, ,50, ,
0, ,50, ,
1, ,50, ,
-1, ,51, ,
-4, ,49, ,
4, ,51, ,
1, ,50, ,
5, ,50, ,
-1, ,50, ,
0, ,50, ,
0, ,49, ,
0, ,51, ,
-6, ,50, ,
-5, ,50, ,
-1, ,50, ,
-1, ,50, ,
-4, ,49, ,
5, ,51, ,
0, ,50, ,
3, ,50, ,
1, ,50, ,
-1, ,51, ,
1, ,49, ,
3, ,51, ,
-2, ,50, ,
1, ,50, ,
0, ,51, ,
0, ,50, ,
-5, ,49, ,
0, ,51, ,
-2, ,50, ,
-1, ,50, ,
-2, ,50, ,
-1, ,50, ,
-4, ,49, ,
1, ,51, ,
-6, ,50, ,
-1, ,50, ,
-2, ,50, ,
-1, ,50, ,
-5, ,49, ,
-1, ,51, ,
-4, ,50, ,
-2, ,50, ,
-1, ,50, ,
0, ,51, ,
1, ,49, ,
5, ,51, ,
-2, ,50, ,
0, ,50, ,
0, ,50, ,
-5, ,51, ,
-7, ,49, ,
-1, ,51, ,
-1, ,50, ,
0, ,50, ,
0, ,50, ,
1, ,51, ,
-1, ,49, ,
3, ,51, ,
-2, ,50, ,
4, ,50, ,
5, ,50, ,
1, ,50, ,
0, ,49, ,
8, ,51, ,
-1, ,50, ,
-1, ,50, ,
-1, ,50, ,
0, ,50, ,
0, ,49, ,
3, ,51, ,
-4, ,50, ,
4, ,50, ,
5, ,50, ,
3, ,50, ,
-2, ,49, ,
5, ,51, ,
0, ,50, ,
1, ,50, ,
3, ,50, ,
3, ,50, ,
3, ,50, ,
6, ,51, ,
-1, ,50, ,
3, ,50, ,
0, ,51, ,
0, ,51, ,
-7, ,49, ,
0, ,51, ,
-4, ,50, ,
-1, ,50, ,
4, ,50, ,
3, ,51, ,
5, ,49, ,
6, ,51, ,
0, ,50, ,
4, ,50, ,
3, ,51, ,
1, ,50, ,
-2, ,49, ,
4, ,51, ,
0, ,50, ,
1, ,50, ,
0, ,51, ,
3, ,51, ,
0, ,49, ,
5, ,51, ,
-1, ,50, ,
4, ,50, ,
3, ,50, ,
0, ,50, ,
-1, ,49, ,
3, ,51, ,
1, ,50, ,
0, ,50, ,
-1, ,50, ,
0, ,51, ,
1, ,49, ,
6, ,51, ,
0, ,50, ,
3, ,50, ,
5, ,50, ,
3, ,50, ,
-1, ,49, ,
4, ,51, ,
0, ,50, ,
3, ,50, ,
-1, ,50, ,
5, ,51, ,
4, ,50, ,
5, ,51, ,
1, ,50, ,
4, ,50, ,
5, ,51, ,
-1, ,50, ,
-5, ,49, ,
6, ,51, ,
1, ,50, ,
5, ,50, ,
1, ,50, ,
3, ,51, ,
6, ,50, ,
6, ,51, ,
1, ,50, ,
5, ,50, ,
6, ,50, ,
4, ,51, ,
4, ,49, ,
9, ,51, ,
4, ,50, ,
1, ,50, ,
0, ,50, ,
3, ,51, ,
4, ,50, ,
5, ,51, ,
-1, ,50, ,
8, ,50, ,
10, ,51, ,
8, ,50, ,
-1, ,49, ,
4, ,51, ,
-1, ,50, ,
3, ,50, ,
5, ,50, ,
6, ,50, ,
6, ,49, ,
6, ,51, ,
-6, ,50, ,
-1, ,50, ,
-1, ,51, ,
0, ,50, ,
1, ,48, ,
9, ,51, ,
4, ,50, ,
6, ,50, ,
4, ,50, ,
6, ,50, ,
1, ,49, ,
6, ,51, ,
1, ,50, ,
4, ,50, ,
4, ,51, ,
4, ,50, ,
1, ,49, ,
5, ,51, ,
-1, ,50, ,
0, ,50, ,
1, ,50, ,
0, ,50, ,
4, ,49, ,
6, ,51, ,
-1, ,49, ,
3, ,50, ,
6, ,51, ,
1, ,51, ,
-1, ,49, ,
5, ,51, ,
3, ,50, ,
5, ,50, ,
6, ,50, ,
4, ,50, ,
3, ,49, ,
5, ,51, ,
-2, ,50, ,
0, ,50, ,
4, ,51, ,
1, ,50, ,
-4, ,49, ,
5, ,51, ,
1, ,50, ,
1, ,50, ,
0, ,51, ,
1, ,50, ,
4, ,49, ,
9, ,51, ,
1, ,50, ,
5, ,50, ,
3, ,50, ,
3, ,50, ,
1, ,48, ,
8, ,51, ,
1, ,50, ,
5, ,50, ,
3, ,50, ,
1, ,50, ,
1, ,49, ,
0, ,51, ,
-4, ,50, ,
3, ,50, ,
3, ,51, ,
1, ,51, ,
3, ,49, ,
6, ,51, ,
3, ,50, ,
0, ,50, ,
-1, ,50, ,
0, ,50, ,
0, ,49, ,
3, ,50, ,
-2, ,49, ,
4, ,50, ,
5, ,50, ,
0, ,50, ,
0, ,49, ,
6, ,51, ,
-1, ,51, ,
0, ,50, ,
0, ,50, ,
0, ,51, ,
-1, ,49, ,
-4, ,51, ,
-9, ,50, ,
4, ,50, ,
4, ,50, ,
-4, ,50, ,
-1, ,49, ,
5, ,51, ,
0, ,50, ,
1, ,50, ,
3, ,50, ,
1, ,50, ,
0, ,49, ,
4, ,51, ,
-5, ,50, ,
-1, ,50, ,
0, ,51, ,
-1, ,51, ,
-4, ,49, ,
4, ,51, ,
4, ,50, ,
4, ,50, ,
0, ,50, ,
-1, ,51, ,
-4, ,49, ,
-2, ,51, ,
-6, ,50, ,
-1, ,50, ,
0, ,51, ,
-2, ,50, ,
-1, ,49, ,
4, ,51, ,
3, ,50, ,
1, ,50, ,
1, ,50, ,
0, ,51, ,
0, ,49, ,
1, ,51, ,
-2, ,50, ,
3, ,50, ,
1, ,51, ,
1, ,51, ,
-1, ,49, ,
0, ,51, ,
0, ,50, ,
0, ,50, ,
-2, ,50, ,
1, ,51, ,
4, ,49, ,
6, ,51, ,
-2, ,50, ,
1, ,50, ,
3, ,51, ,
0, ,51, ,
0, ,49, ,
8, ,51, ,
1, ,50, ,
3, ,50, ,
0, ,50, ,
0, ,50, ,
1, ,49, ,
1, ,51, ,
-5, ,50, ,
0, ,50, ,
1, ,51, ,
0, ,50, ,
0, ,49, ,
8, ,51, ,
3, ,50, ,
5, ,50, ,
4, ,50, ,
3, ,51, ,
3, ,49, ,
3, ,51, ,
-1, ,50, ,
1, ,50, ,
3, ,51, ,
0, ,50, ,
-5, ,49, ,
10, ,51, ,
-5, ,51, ,
-10, ,50, ,
-1, ,50, ,
3, ,51, ,
-1, ,49, ,
9, ,51, ,
1, ,49, ,
3, ,50, ,
-1, ,50, ,
3, ,51, ,
1, ,49, ,
-2, ,51, ,
-1, ,50, ,
3, ,50, ,
0, ,50, ,
3, ,51, ,
3, ,49, ,
0, ,51, ,
-4, ,49, ,
4, ,44, ,
1, ,35, ,
-2, ,25, ,
-4, ,15, ,
-2, ,7, ,
-5, ,0, ,
0, ,-6, ,
-1, ,-10, ,
0, ,-16, ,
-1, ,-20, ,
-1, ,-23, ,
-6, ,-25, ,
-2, ,-27, ,
3, ,-30, ,
1, ,-31, ,
0, ,-33, ,
5, ,-35, ,
-1, ,-37, ,
0, ,-37, ,
-4, ,-38, ,
1, ,-39, ,
-1, ,-39, ,
3, ,-40, ,
6, ,-41, ,
4, ,-41, ,
8, ,-41, ,
3, ,-42, ,
-2, ,-42, ,
4, ,-42, ,
1, ,-42, ,
3, ,-42, ,
4, ,-42, ,
4, ,-43, ,
6, ,-42, ,
8, ,-43, ,
0, ,-43, ,
3, ,-43, ,
3, ,-43, ,
1, ,-43, ,
0, ,-43, ,
9, ,-43, ,
6, ,-43, ,
4, ,-43, ,
3, ,-43, ,
3, ,-43, ,
3, ,-43, ,
5, ,-43, ,
0, ,-43, ,
4, ,-43, ,
5, ,-43, ,
4, ,-43, ,
1, ,-42, ,
4, ,-43, ,
1, ,-43, ,
3, ,-43, ,
5, ,-43, ,
5, ,-43, ,
5, ,-43, ,
11, ,-43, ,
1, ,-43, ,
4, ,-43, ,
5, ,-43, ,
-1, ,-43, ,
-2, ,-42, ,
1, ,-43, ,
-1, ,-43, ,
0, ,-43, ,
0, ,-43, ,
5, ,-43, ,
4, ,-42, ,
9, ,-43, ,
4, ,-43, ,
5, ,-42, ,
9, ,-43, ,
4, ,-43, ,
-1, ,-42, ,
6, ,-43, ,
0, ,-43, ,
4, ,-43, ,
0, ,-43, ,
4, ,-43, ,
6, ,-43, ,
3, ,-43, ,
-1, ,-43, ,
1, ,-43, ,
1, ,-43, ,
0, ,-43, ,
-4, ,-42, ,
3, ,-43, ,
3, ,-43, ,
6, ,-42, ,
3, ,-43, ,
4, ,-42, ,
3, ,-42, ,
5, ,-43, ,
-1, ,-43, ,
3, ,-42, ,
5, ,-42, ,
1, ,-43, ,
-1, ,-42, ,
4, ,-43, ,
3, ,-43, ,
1, ,-42, ,
4, ,-43, ,
3, ,-43, ,
8, ,-42, ,
6, ,-43, ,
0, ,-43, ,
9, ,-42, ,
5, ,-43, ,
1, ,-43, ,
-1, ,-42, ,
3, ,-43, ,
3, ,-43, ,
1, ,-42, ,
0, ,-43, ,
4, ,-43, ,
3, ,-42, ,
4, ,-43, ,
-4, ,-43, ,
3, ,-42, ,
4, ,-43, ,
-1, ,-43, ,
-4, ,-42, ,
4, ,-43, ,
1, ,-43, ,
3, ,-43, ,
0, ,-43, ,
3, ,-42, ,
1, ,-42, ,
4, ,-43, ,
-2, ,-42, ,
1, ,-42, ,
5, ,-42, ,
1, ,-42, ,
0, ,-42, ,
4, ,-42, ,
-1, ,-43, ,
-1, ,-42, ,
-6, ,-43, ,
-2, ,-42, ,
-1, ,-42, ,
-1, ,-43, ,
-4, ,-43, ,
0, ,-42, ,
3, ,-42, ,
-1, ,-43, ,
-5, ,-42, ,
4, ,-42, ,
-2, ,-43, ,
0, ,-42, ,
-1, ,-42, ,
-1, ,-42, ,
-1, ,-42, ,
1, ,-43, ,
-5, ,-42, ,
-1, ,-42, ,
0, ,-42, ,
-1, ,-43, ,
-2, ,-42, ,
4, ,-43, ,
1, ,-43, ,
-1, ,-42, ,
-1, ,-43, ,
0, ,-42, ,
1, ,-42, ,
5, ,-43, ,
-2, ,-43, ,
-1, ,-42, ,
0, ,-42, ,
-1, ,-43, ,
-2, ,-42, ,
4, ,-43, ,
-1, ,-42, ,
1, ,-42, ,
3, ,-42, ,
0, ,-43, ,
3, ,-42, ,
1, ,-43, ,
-6, ,-43, ,
-2, ,-42, ,
1, ,-42, ,
0, ,-42, ,
-2, ,-42, ,
4, ,-43, ,
1, ,-43, ,
-1, ,-42, ,
-4, ,-43, ,
-1, ,-42, ,
-2, ,-42, ,
3, ,-43, ,
-1, ,-42, ,
1, ,-42, ,
4, ,-42, ,
0, ,-43, ,
-4, ,-42, ,
4, ,-42, ,
0, ,-43, ,
0, ,-42, ,
1, ,-43, ,
1, ,-43, ,
0, ,-42, ,
-1, ,-43, ,
-6, ,-42, ,
-1, ,-42, ,
1, ,-42, ,
-2, ,-43, ,
-5, ,-42, ,
5, ,-43, ,
1, ,-43, ,
4, ,-42, ,
1, ,-43, ,
1, ,-42, ,
1, ,-42, ,
1, ,-43, ,
-5, ,-43, ,
0, ,-42, ,
0, ,-42, ,
-2, ,-43, ,
-2, ,-42, ,
4, ,-43, ,
0, ,-42, ,
0, ,-43, ,
-1, ,-43, ,
-4, ,-42, ,
-1, ,-42, ,
0, ,-43, ,
-5, ,-42, ,
0, ,-42, ,
1, ,-42, ,
-1, ,-43, ,
-1, ,-42, ,
4, ,-43, ,
1, ,-42, ,
-1, ,-42, ,
-1, ,-43, ,
-1, ,-42, ,
-1, ,-42, ,
3, ,-43, ,
-4, ,-42, ,
-2, ,-42, ,
4, ,-43, ,
-1, ,-43, ,
-5, ,-42, ,
1, ,-43, ,
1, ,-42, ,
3, ,-42, ,
1, ,-42, ,
5, ,-42, ,
4, ,-42, ,
6, ,-43, ,
0, ,-43, ,
1, ,-42, ,
3, ,-42, ,
0, ,-43, ,
1, ,-42, ,
5, ,-42, ,
3, ,-42, ,
1, ,-42, ,
0, ,-43, ,
0, ,-42, ,
1, ,-42, ,
3, ,-43, ,
-4, ,-43, ,
4, ,-42, ,
8, ,-42, ,
5, ,-43, ,
3, ,-42, ,
6, ,-42, ,
3, ,-42, ,
3, ,-42, ,
1, ,-42, ,
3, ,-42, ,
4, ,-42, ,
4, ,-43, ,
-1, ,-42, ,
1, ,-42, ,
3, ,-42, ,
1, ,-43, ,
0, ,-42, ,
8, ,-42, ,
4, ,-42, ,
4, ,-42, ,
1, ,-43, ,
3, ,-42, ,
5, ,-42, ,
5, ,-43, ,
-4, ,-42, ,
3, ,-42, ,
5, ,-42, ,
-1, ,-42, ,
-1, ,-42, ,
6, ,-43, ,
8, ,-43, ,
4, ,-42, ,
4, ,-42, ,
4, ,-42, ,
4, ,-42, ,
4, ,-43, ,
-1, ,-43, ,
4, ,-42, ,
4, ,-42, ,
0, ,-42, ,
1, ,-42, ,
6, ,-42, ,
4, ,-42, ,
1, ,-42, ,
-1, ,-42, ,
3, ,-42, ,
3, ,-42, ,
4, ,-43, ,
3, ,-42, ,
5, ,-42, ,
13, ,-42, ,
6, ,-43, ,
1, ,-42, ,
9, ,-42, ,
4, ,-42, ,
3, ,-42, ,
5, ,-43, ,
4, ,-42, ,
9, ,-42, ,
10, ,-43, ,
1, ,-42, ,
5, ,-42, ,
5, ,-42, ,
0, ,-43, ,
-2, ,-42, ,
4, ,-43, ,
5, ,-42, ,
6, ,-42, ,
8, ,-42, ,
11, ,-42, ,
9, ,-42, ,
5, ,-43, ,
-2, ,-43, ,
0, ,-42, ,
0, ,-42, ,
0, ,-42, ,
-1, ,-42, ,
8, ,-42, ,
-1, ,-43, ,
-1, ,-42, ,
1, ,-42, ,
3, ,-42, ,
8, ,-42, ,
10, ,-43, ,
4, ,-42, ,
6, ,-42, ,
6, ,-42, ,
8, ,-43, ,
4, ,-42, ,
6, ,-42, ,
5, ,-43, ,
3, ,-43, ,
3, ,-42, ,
4, ,-42, ,
4, ,-42, ,
5, ,-43, ,
-1, ,-42, ,
3, ,-42, ,
3, ,-42, ,
-1, ,-42, ,
-5, ,-42, ,
1, ,-42, ,
3, ,-42, ,
1, ,-42, ,
1, ,-43, ,
6, ,-42, ,
9, ,-42, ,
9, ,-43, ,
6, ,-43, ,
6, ,-42, ,
6, ,-42, ,
3, ,-42, ,
-1, ,-42, ,
3, ,-42, ,
-1, ,-42, ,
0, ,-42, ,
-2, ,-43, ,
-2, ,-42, ,
0, ,-42, ,
3, ,-43, ,
-2, ,-42, ,
3, ,-42, ,
3, ,-42, ,
4, ,-43, ,
-1, ,-42, ,
5, ,-43, ,
3, ,-42, ,
1, ,-42, ,
1, ,-42, ,
1, ,-42, ,
3, ,-42, ,
1, ,-43, ,
-1, ,-42, ,
3, ,-42, ,
3, ,-42, ,
3, ,-43, ,
-1, ,-42, ,
3, ,-42, ,
1, ,-42, ,
-1, ,-42, ,
0, ,-42, ,
1, ,-42, ,
4, ,-42, ,
4, ,-43, ,
0, ,-43, ,
6, ,-42, ,
8, ,-42, ,
0, ,-43, ,
-4, ,-42, ,
1, ,-42, ,
1, ,-42, ,
0, ,-42, ,
0, ,-42, ,
5, ,-42, ,
3, ,-42, ,
5, ,-43, ,
-1, ,-42, ,
3, ,-42, ,
3, ,-42, ,
0, ,-43, ,
-1, ,-42, ,
5, ,-43, ,
4, ,-42, ,
3, ,-42, ,
0, ,-43, ,
1, ,-42, ,
0, ,-42, ,
1, ,-43, ,
-4, ,-43, ,
0, ,-42, ,
4, ,-42, ,
-2, ,-43, ,
-5, ,-42, ,
8, ,-43, ,
4, ,-42, ,
-4, ,-42, ,
0, ,-42, ,
-1, ,-42, ,
0, ,-42, ,
-1, ,-43, ,
-7, ,-42, ,
1, ,-42, ,
3, ,-42, ,
0, ,-43, ,
-4, ,-42, ,
4, ,-43, ,
-1, ,-42, ,
0, ,-42, ,
-1, ,-43, ,
-1, ,-42, ,
1, ,-42, ,
0, ,-43, ,
-4, ,-42, ,
0, ,-42, ,
3, ,-42, ,
0, ,-43, ,
-6, ,-42, ,
3, ,-42, ,
-1, ,-42, ,
-1, ,-42, ,
-7, ,-43, ,
-11, ,-42, ,
-12, ,-42, ,
-14, ,-43, ,
-22, ,-42, ,
-14, ,-42, ,
-10, ,-42, ,
-10, ,-43, ,
-7, ,-42, ,
4, ,-43, ,
6, ,-43, ,
8, ,-42, ,
9, ,-42, ,
10, ,-42, ,
9, ,-42, ,
8, ,-43, ,
0, ,-42, ,
3, ,-42, ,
3, ,-42, ,
-1, ,-43, ,
-5, ,-42, ,
1, ,-43, ,
-2, ,-42, ,
-1, ,-42, ,
-5, ,-42, ,
-1, ,-42, ,
1, ,-42, ,
4, ,-43, ,
0, ,-42, ,
3, ,-42, ,
1, ,-42, ,
-4, ,-43, ,
-6, ,-42, ,
0, ,-43, ,
-4, ,-42, ,
-1, ,-42, ,
-4, ,-43, ,
1, ,-42, ,
1, ,-42, ,
-1, ,-43, ,
-4, ,-43, ,
-1, ,-42, ,
4, ,-43, ,
1, ,-43, ,
-4, ,-42, ,
4, ,-42, ,
-1, ,-42, ,
3, ,-42, ,
3, ,-42, ,
1, ,-42, ,
1, ,-42, ,
-1, ,-43, ,
-6, ,-42, ,
0, ,-42, ,
1, ,-43, ,
-1, ,-42, ,
-1, ,-42, ,
5, ,-42, ,
-1, ,-43, ,
-4, ,-42, ,
-5, ,-43, ,
-4, ,-42, ,
-1, ,-42, ,
1, ,-43, ,
-4, ,-43, ,
0, ,-42, ,
3, ,-43, ,
1, ,-43, ,
0, ,-42, ,
5, ,-43, ,
0, ,-43, ,
1, ,-43, ,
1, ,-43, ,
0, ,-42, ,
0, ,-42, ,
3, ,-43, ,
-1, ,-43, ,
1, ,-42, ,
3, ,-42, ,
0, ,-43, ,
-2, ,-42, ,
6, ,-42, ,
4, ,-43, ,
3, ,-42, ,
0, ,-42, ,
5, ,-42, ,
-1, ,-42, ,
1, ,-43, ,
-4, ,-43, ,
0, ,-42, ,
5, ,-42, ,
4, ,-42, ,
4, ,-42, ,
11, ,-43, ,
6, ,-42, ,
5, ,-42, ,
1, ,-42, ,
1, ,-42, ,
1, ,-42, ,
3, ,-43, ,
1, ,-42, ,
4, ,-42, ,
5, ,-42, ,
3, ,-43, ,
1, ,-42, ,
6, ,-43, ,
6, ,-43, ,
4, ,-42, ,
4, ,-43, ,
5, ,-42, ,
6, ,-42, ,
8, ,-43, ,
-1, ,-42, ,
5, ,-42, ,
5, ,-42, ,
4, ,-43, ,
-1, ,-42, ,
5, ,-42, ,
3, ,-43, ,
3, ,-42, ,
4, ,-42, ,
4, ,-42, ,
5, ,-42, ,
6, ,-43, ,
-4, ,-43, ,
4, ,-42, ,
5, ,-42, ,
5, ,-43, ,
1, ,-42, ,
9, ,-43, ,
5, ,-42, ,
4, ,-43, ,
3, ,-42, ,
5, ,-42, ,
5, ,-42, ,
6, ,-43, ,
-1, ,-43, ,
3, ,-42, ,
5, ,-42, ,
0, ,-42, ,
-4, ,-42, ,
4, ,-43, ,
4, ,-43, ,
5, ,-42, ,
4, ,-42, ,
5, ,-42, ,
6, ,-42, ,
8, ,-43, ,
1, ,-42, ,
5, ,-42, ,
9, ,-42, ,
4, ,-43, ,
1, ,-42, ,
5, ,-42, ,
1, ,-43, ,
0, ,-42, ,
-1, ,-42, ,
4, ,-42, ,
3, ,-42, ,
5, ,-43, ,
3, ,-42, ,
6, ,-42, ,
6, ,-42, ,
1, ,-43, ,
-2, ,-42, ,
5, ,-43, ,
3, ,-43, ,
6, ,-42, ,
4, ,-42, ,
6, ,-42, ,
6, ,-42, ,
6, ,-43, ,
0, ,-42, ,
4, ,-42, ,
3, ,-42, ,
1, ,-43, ,
-2, ,-42, ,
5, ,-43, ,
4, ,-42, ,
3, ,-42, ,
1, ,-43, ,
4, ,-42, ,
6, ,-42, ,
8, ,-43, ,
3, ,-43, ,
9, ,-42, ,
10, ,-43, ,
5, ,-42, ,
1, ,-42, ,
5, ,-42, ,
-1, ,-43, ,
0, ,-42, ,
1, ,-43, ,
4, ,-42, ,
