src/vary_am2_1411/temp0003994.CSV

Format,1.0B,
Memory Length,10000,Memory Length,10000,
IntpDistance,0,IntpDistance,0,
Trigger Address,4999,Trigger Address,4999,
Trigger Level,-1.000E+00,Trigger Level,-1.000E+00,
Source,CH1,Source,CH2,
Vertical Units,V,Vertical Units,V,
Vertical Units Div,0,Vertical Units Div,0,
Vertical Units Extend Div,16,Vertical Units Extend Div,16,
Label,,Label,,
Probe Type,0,Probe Type,0,
Probe Ratio,1.000e+01,Probe Ratio,1.000e+00,
Vertical Scale,2.000e-02,Vertical Scale,1.000e+00,
Vertical Position,-5.120e-02,Vertical Position,2.000e-01,
Horizontal Units,S,Horizontal Units,S,
Horizontal Scale,1.000E-05,Horizontal Scale,1.000E-05,
Horizontal Position,0.000E+00,Horizontal Position,0.000E+00,
Horizontal Mode,Main,Horizontal Mode,Main,
SincET Mode,Real Time,SincET Mode,Real Time,
Sampling Period,1.000e-08,Sampling Period,1.000e-08,
Horizontal Old Scale,1.000E-05,Horizontal Old Scale,1.000E-05,
Horizontal Old Position,0.000E+00,Horizontal Old Position,0.000E+00,
Firmware,V1.23,Firmware,V1.23,
Mode,Fast,Mode,Fast,
Waveform Data,,Waveform Data,,
1, ,-37, ,
0, ,-38, ,
3, ,-37, ,
4, ,-38, ,
-1, ,-37, ,
4, ,-38, ,
8, ,-38, ,
4, ,-37, ,
3, ,-38, ,
6, ,-38, ,
1, ,-38, ,
1, ,-38, ,
0, ,-37, ,
3, ,-37, ,
0, ,-38, ,
3, ,-38, ,
-1, ,-37, ,
1, ,-38, ,
1, ,-37, ,
0, ,-38, ,
-6, ,-37, ,
0, ,-37, ,
0, ,-38, ,
0, ,-38, ,
4, ,-37, ,
3, ,-38, ,
4, ,-37, ,
5, ,-38, ,
0, ,-38, ,
1, ,-38, ,
4, ,-38, ,
1, ,-38, ,
-1, ,-38, ,
1, ,-38, ,
0, ,-38, ,
1, ,-38, ,
0, ,-37, ,
1, ,-37, ,
1, ,-38, ,
0, ,-38, ,
-4, ,-38, ,
1, ,-38, ,
5, ,-37, ,
3, ,-38, ,
0, ,-38, ,
6, ,-38, ,
4, ,-38, ,
3, ,-38, ,
3, ,-37, ,
3, ,-38, ,
1, ,-37, ,
1, ,-38, ,
-4, ,-37, ,
0, ,-38, ,
3, ,-38, ,
0, ,-38, ,
-4, ,-38, ,
5, ,-38, ,
1, ,-38, ,
5, ,-38, ,
4, ,-38, ,
3, ,-38, ,
5, ,-38, ,
4, ,-38, ,
-1, ,-38, ,
3, ,-38, ,
4, ,-37, ,
0, ,-38, ,
-5, ,-37, ,
4, ,-37, ,
3, ,-38, ,
0, ,-37, ,
0, ,-38, ,
-1, ,-37, ,
0, ,-38, ,
3, ,-38, ,
-5, ,-38, ,
0, ,-38, ,
1, ,-37, ,
-4, ,-38, ,
-5, ,-38, ,
3, ,-38, ,
0, ,-38, ,
1, ,-37, ,
0, ,-38, ,
3, ,-38, ,
3, ,-38, ,
3, ,-38, ,
-4, ,-38, ,
3, ,-38, ,
1, ,-37, ,
0, ,-38, ,
-2, ,-38, ,
4, ,-38, ,
3, ,-38, ,
-1, ,-38, ,
-2, ,-37, ,
-4, ,-38, ,
-1, ,-38, ,
-1, ,-38, ,
-5, ,-37, ,
-4, ,-38, ,
-1, ,-37, ,
-4, ,-38, ,
-6, ,-37, ,
-1, ,-37, ,
-1, ,-38, ,
-1, ,-38, ,
0, ,-37, ,
4, ,-38, ,
6, ,-38, ,
5, ,-38, ,
-2, ,-38, ,
-2, ,-38, ,
-1, ,-37, ,
-7, ,-38, ,
-7, ,-38, ,
-2, ,-38, ,
-1, ,-38, ,
-1, ,-38, ,
0, ,-38, ,
0, ,-38, ,
1, ,-38, ,
1, ,-37, ,
-7, ,-38, ,
-1, ,-38, ,
1, ,-38, ,
0, ,-38, ,
-1, ,-38, ,
5, ,-38, ,
0, ,-38, ,
0, ,-38, ,
0, ,-38, ,
-1, ,-38, ,
1, ,-38, ,
1, ,-38, ,
-2, ,-38, ,
1, ,-38, ,
3, ,-37, ,
-2, ,-38, ,
-5, ,-38, ,
3, ,-38, ,
1, ,-38, ,
-4, ,-38, ,
5, ,-37, ,
10, ,-38, ,
0, ,-38, ,
8, ,-38, ,
0, ,-38, ,
1, ,-38, ,
3, ,-38, ,
-4, ,-38, ,
-7, ,-37, ,
-1, ,-38, ,
-4, ,-38, ,
-1, ,-38, ,
-2, ,-38, ,
0, ,-38, ,
0, ,-37, ,
1, ,-38, ,
-5, ,-38, ,
0, ,-38, ,
4, ,-37, ,
-2, ,-38, ,
-5, ,-38, ,
3, ,-37, ,
3, ,-38, ,
0, ,-38, ,
-1, ,-38, ,
-1, ,-38, ,
-2, ,-38, ,
-1, ,-38, ,
-6, ,-38, ,
-1, ,-38, ,
6, ,-38, ,
0, ,-38, ,
-5, ,-38, ,
5, ,-38, ,
-2, ,-38, ,
-1, ,-38, ,
-2, ,-38, ,
-5, ,-37, ,
0, ,-38, ,
0, ,-38, ,
0, ,-38, ,
3, ,-38, ,
5, ,-37, ,
0, ,-38, ,
-5, ,-37, ,
0, ,-38, ,
-1, ,-38, ,
-1, ,-37, ,
-1, ,-38, ,
1, ,-38, ,
4, ,-38, ,
6, ,-38, ,
-1, ,-38, ,
1, ,-38, ,
-2, ,-38, ,
-1, ,-37, ,
-1, ,-38, ,
3, ,-38, ,
4, ,-38, ,
4, ,-38, ,
1, ,-37, ,
3, ,-38, ,
3, ,-38, ,
5, ,-38, ,
0, ,-38, ,
4, ,-38, ,
9, ,-38, ,
4, ,-38, ,
3, ,-38, ,
6, ,-37, ,
3, ,-38, ,
0, ,-38, ,
-1, ,-38, ,
0, ,-38, ,
-2, ,-38, ,
1, ,-38, ,
0, ,-38, ,
4, ,-38, ,
6, ,-38, ,
3, ,-38, ,
1, ,-38, ,
4, ,-38, ,
0, ,-38, ,
4, ,-38, ,
1, ,-38, ,
0, ,-38, ,
4, ,-38, ,
3, ,-38, ,
0, ,-38, ,
5, ,-38, ,
4, ,-38, ,
3, ,-38, ,
-1, ,-38, ,
5, ,-37, ,
3, ,-38, ,
3, ,-37, ,
1, ,-38, ,
3, ,-38, ,
3, ,-38, ,
3, ,-38, ,
-1, ,-37, ,
5, ,-38, ,
6, ,-38, ,
4, ,-38, ,
0, ,-38, ,
8, ,-38, ,
5, ,-38, ,
4, ,-38, ,
3, ,-38, ,
3, ,-38, ,
1, ,-38, ,
1, ,-38, ,
-4, ,-38, ,
1, ,-38, ,
5, ,-38, ,
-1, ,-38, ,
-4, ,-38, ,
3, ,-38, ,
1, ,-38, ,
1, ,-38, ,
1, ,-37, ,
0, ,-38, ,
4, ,-38, ,
5, ,-38, ,
0, ,-38, ,
4, ,-38, ,
9, ,-38, ,
1, ,-38, ,
0, ,-37, ,
4, ,-37, ,
3, ,-38, ,
0, ,-38, ,
0, ,-37, ,
4, ,-37, ,
5, ,-38, ,
1, ,-38, ,
4, ,-38, ,
8, ,-38, ,
8, ,-38, ,
5, ,-38, ,
-1, ,-38, ,
8, ,-37, ,
5, ,-38, ,
5, ,-38, ,
4, ,-38, ,
5, ,-38, ,
5, ,-38, ,
5, ,-38, ,
3, ,-38, ,
4, ,-38, ,
8, ,-38, ,
3, ,-37, ,
-2, ,-37, ,
5, ,-38, ,
1, ,-38, ,
4, ,-38, ,
-2, ,-38, ,
-2, ,-38, ,
-1, ,-38, ,
-2, ,-38, ,
-1, ,-38, ,
6, ,-38, ,
8, ,-37, ,
6, ,-38, ,
1, ,-38, ,
3, ,-38, ,
-4, ,-36, ,
3, ,-27, ,
5, ,-18, ,
9, ,-7, ,
11, ,1, ,
11, ,9, ,
-2, ,15, ,
3, ,20, ,
1, ,26, ,
-1, ,30, ,
1, ,33, ,
5, ,36, ,
8, ,39, ,
4, ,41, ,
-2, ,44, ,
3, ,46, ,
5, ,47, ,
1, ,48, ,
1, ,49, ,
5, ,51, ,
6, ,51, ,
4, ,52, ,
4, ,53, ,
8, ,52, ,
1, ,54, ,
0, ,54, ,
-2, ,54, ,
-2, ,54, ,
-5, ,54, ,
0, ,53, ,
-9, ,55, ,
-1, ,55, ,
1, ,54, ,
0, ,55, ,
-4, ,55, ,
4, ,54, ,
-4, ,56, ,
-1, ,55, ,
-1, ,55, ,
3, ,56, ,
4, ,56, ,
6, ,54, ,
0, ,56, ,
1, ,55, ,
3, ,55, ,
0, ,55, ,
-4, ,56, ,
3, ,54, ,
-2, ,57, ,
0, ,55, ,
-1, ,55, ,
1, ,56, ,
-1, ,56, ,
4, ,54, ,
-5, ,56, ,
0, ,56, ,
-1, ,55, ,
-2, ,55, ,
-6, ,56, ,
4, ,54, ,
-1, ,56, ,
1, ,55, ,
3, ,55, ,
1, ,55, ,
-1, ,56, ,
-1, ,54, ,
-9, ,56, ,
-4, ,55, ,
-2, ,55, ,
-5, ,55, ,
-10, ,56, ,
4, ,54, ,
1, ,56, ,
0, ,55, ,
0, ,55, ,
1, ,56, ,
0, ,56, ,
3, ,54, ,
-4, ,56, ,
1, ,55, ,
1, ,55, ,
-4, ,55, ,
-7, ,55, ,
-2, ,54, ,
-5, ,56, ,
-4, ,54, ,
-5, ,55, ,
-2, ,55, ,
0, ,55, ,
4, ,54, ,
-1, ,56, ,
0, ,55, ,
-1, ,55, ,
-2, ,55, ,
-7, ,55, ,
-1, ,53, ,
-4, ,56, ,
1, ,54, ,
-1, ,55, ,
0, ,55, ,
-1, ,55, ,
0, ,54, ,
-7, ,55, ,
-4, ,55, ,
-2, ,55, ,
-5, ,55, ,
-9, ,55, ,
3, ,54, ,
0, ,56, ,
0, ,54, ,
-1, ,55, ,
0, ,56, ,
0, ,55, ,
0, ,54, ,
-5, ,56, ,
0, ,56, ,
3, ,55, ,
1, ,55, ,
-1, ,55, ,
4, ,54, ,
1, ,56, ,
0, ,54, ,
1, ,55, ,
3, ,56, ,
3, ,56, ,
6, ,53, ,
-2, ,56, ,
4, ,54, ,
3, ,55, ,
0, ,55, ,
-4, ,55, ,
1, ,54, ,
0, ,56, ,
0, ,55, ,
3, ,55, ,
6, ,55, ,
5, ,55, ,
6, ,54, ,
3, ,56, ,
6, ,55, ,
4, ,55, ,
1, ,55, ,
-1, ,55, ,
4, ,54, ,
1, ,56, ,
3, ,55, ,
1, ,55, ,
4, ,55, ,
3, ,55, ,
5, ,53, ,
-2, ,56, ,
1, ,55, ,
4, ,55, ,
1, ,55, ,
0, ,56, ,
6, ,53, ,
1, ,56, ,
3, ,54, ,
0, ,54, ,
1, ,56, ,
1, ,55, ,
3, ,53, ,
0, ,56, ,
5, ,55, ,
6, ,55, ,
4, ,55, ,
-1, ,56, ,
3, ,54, ,
-1, ,56, ,
0, ,54, ,
-4, ,55, ,
0, ,55, ,
1, ,55, ,
4, ,54, ,
0, ,55, ,
4, ,55, ,
6, ,54, ,
3, ,55, ,
0, ,56, ,
5, ,54, ,
5, ,56, ,
3, ,54, ,
4, ,55, ,
3, ,56, ,
4, ,55, ,
5, ,53, ,
-4, ,56, ,
1, ,55, ,
3, ,55, ,
1, ,55, ,
-1, ,55, ,
6, ,53, ,
1, ,56, ,
4, ,54, ,
0, ,54, ,
1, ,55, ,
3, ,56, ,
5, ,54, ,
0, ,56, ,
9, ,54, ,
9, ,55, ,
5, ,55, ,
3, ,55, ,
5, ,54, ,
0, ,56, ,
1, ,54, ,
1, ,54, ,
4, ,55, ,
3, ,55, ,
6, ,53, ,
3, ,56, ,
9, ,55, ,
10, ,55, ,
5, ,55, ,
1, ,55, ,
4, ,53, ,
3, ,56, ,
3, ,54, ,
1, ,54, ,
4, ,55, ,
5, ,55, ,
9, ,53, ,
3, ,56, ,
4, ,54, ,
6, ,55, ,
4, ,55, ,
0, ,55, ,
6, ,54, ,
5, ,56, ,
4, ,54, ,
-1, ,54, ,
3, ,56, ,
3, ,55, ,
5, ,53, ,
0, ,56, ,
5, ,55, ,
8, ,55, ,
5, ,55, ,
0, ,55, ,
6, ,53, ,
4, ,56, ,
3, ,54, ,
0, ,55, ,
0, ,55, ,
0, ,56, ,
3, ,53, ,
-5, ,56, ,
3, ,55, ,
5, ,55, ,
4, ,55, ,
-2, ,55, ,
5, ,53, ,
3, ,56, ,
0, ,54, ,
1, ,54, ,
0, ,55, ,
1, ,55, ,
6, ,53, ,
-1, ,56, ,
5, ,55, ,
8, ,54, ,
3, ,55, ,
-1, ,55, ,
3, ,53, ,
1, ,56, ,
1, ,54, ,
0, ,55, ,
3, ,55, ,
-1, ,55, ,
4, ,53, ,
-4, ,55, ,
-1, ,55, ,
1, ,54, ,
0, ,55, ,
-2, ,55, ,
4, ,53, ,
3, ,56, ,
1, ,54, ,
-1, ,55, ,
0, ,55, ,
3, ,55, ,
3, ,54, ,
1, ,55, ,
6, ,55, ,
6, ,55, ,
6, ,54, ,
3, ,55, ,
10, ,53, ,
-5, ,56, ,
0, ,54, ,
-1, ,55, ,
-5, ,55, ,
-2, ,55, ,
1, ,53, ,
-2, ,55, ,
4, ,54, ,
5, ,55, ,
3, ,55, ,
-1, ,55, ,
5, ,54, ,
-2, ,56, ,
0, ,54, ,
0, ,55, ,
1, ,55, ,
4, ,56, ,
3, ,53, ,
-6, ,56, ,
-2, ,55, ,
-2, ,55, ,
-2, ,55, ,
-6, ,55, ,
1, ,53, ,
3, ,56, ,
0, ,54, ,
1, ,55, ,
1, ,55, ,
1, ,55, ,
3, ,53, ,
-7, ,56, ,
3, ,55, ,
1, ,55, ,
-5, ,55, ,
-2, ,55, ,
-1, ,53, ,
-2, ,56, ,
0, ,54, ,
-2, ,55, ,
0, ,55, ,
-1, ,55, ,
1, ,54, ,
-4, ,55, ,
-1, ,54, ,
1, ,55, ,
0, ,55, ,
-4, ,55, ,
3, ,53, ,
0, ,56, ,
-1, ,54, ,
-1, ,54, ,
-1, ,55, ,
-1, ,56, ,
1, ,53, ,
-6, ,55, ,
-1, ,54, ,
3, ,55, ,
-4, ,55, ,
-9, ,55, ,
-1, ,53, ,
-5, ,56, ,
-1, ,54, ,
-1, ,55, ,
-2, ,55, ,
1, ,55, ,
0, ,54, ,
-4, ,56, ,
0, ,55, ,
1, ,54, ,
-4, ,55, ,
-6, ,55, ,
4, ,53, ,
1, ,56, ,
4, ,55, ,
4, ,55, ,
0, ,55, ,
1, ,55, ,
3, ,53, ,
-6, ,55, ,
-1, ,54, ,
0, ,54, ,
-1, ,55, ,
-2, ,56, ,
5, ,53, ,
-2, ,56, ,
0, ,54, ,
-2, ,55, ,
-1, ,55, ,
-1, ,56, ,
3, ,53, ,
-5, ,56, ,
1, ,55, ,
0, ,55, ,
0, ,55, ,
-4, ,55, ,
1, ,54, ,
-4, ,56, ,
-2, ,55, ,
0, ,55, ,
3, ,55, ,
0, ,55, ,
6, ,53, ,
-4, ,56, ,
-1, ,54, ,
-1, ,55, ,
-5, ,55, ,
-7, ,55, ,
1, ,54, ,
-2, ,56, ,
4, ,54, ,
1, ,55, ,
3, ,55, ,
1, ,55, ,
3, ,54, ,
-5, ,56, ,
0, ,55, ,
1, ,55, ,
-1, ,55, ,
-2, ,55, ,
5, ,53, ,
0, ,56, ,
-1, ,54, ,
-2, ,55, ,
-1, ,55, ,
-1, ,55, ,
3, ,53, ,
-2, ,56, ,
3, ,55, ,
5, ,55, ,
0, ,55, ,
-1, ,56, ,
8, ,53, ,
1, ,56, ,
3, ,54, ,
3, ,54, ,
1, ,55, ,
3, ,55, ,
6, ,53, ,
-2, ,56, ,
3, ,54, ,
3, ,55, ,
1, ,55, ,
-5, ,55, ,
8, ,54, ,
4, ,56, ,
0, ,54, ,
4, ,55, ,
6, ,55, ,
4, ,55, ,
6, ,53, ,
-1, ,56, ,
5, ,55, ,
6, ,55, ,
4, ,55, ,
3, ,56, ,
9, ,53, ,
5, ,56, ,
4, ,54, ,
3, ,55, ,
1, ,55, ,
1, ,55, ,
4, ,54, ,
-2, ,56, ,
1, ,55, ,
5, ,55, ,
1, ,55, ,
1, ,56, ,
4, ,53, ,
0, ,56, ,
1, ,54, ,
3, ,55, ,
3, ,55, ,
1, ,55, ,
4, ,53, ,
1, ,55, ,
3, ,55, ,
8, ,55, ,
1, ,55, ,
-2, ,56, ,
4, ,53, ,
-2, ,56, ,
0, ,54, ,
0, ,54, ,
3, ,55, ,
5, ,55, ,
6, ,53, ,
-1, ,56, ,
5, ,55, ,
6, ,54, ,
4, ,55, ,
-1, ,56, ,
5, ,53, ,
4, ,56, ,
4, ,54, ,
5, ,55, ,
1, ,55, ,
1, ,56, ,
1, ,53, ,
-2, ,56, ,
4, ,55, ,
1, ,54, ,
0, ,55, ,
0, ,55, ,
8, ,53, ,
4, ,56, ,
4, ,54, ,
0, ,55, ,
1, ,55, ,
0, ,55, ,
5, ,53, ,
1, ,56, ,
5, ,55, ,
5, ,54, ,
-1, ,55, ,
-2, ,55, ,
5, ,54, ,
3, ,56, ,
4, ,54, ,
5, ,55, ,
8, ,55, ,
5, ,55, ,
10, ,53, ,
5, ,55, ,
9, ,55, ,
6, ,54, ,
1, ,55, ,
-2, ,55, ,
1, ,54, ,
0, ,56, ,
4, ,54, ,
3, ,54, ,
4, ,55, ,
5, ,55, ,
9, ,54, ,
6, ,56, ,
10, ,55, ,
13, ,54, ,
8, ,55, ,
1, ,55, ,
9, ,53, ,
3, ,56, ,
0, ,54, ,
-1, ,55, ,
0, ,55, ,
-2, ,55, ,
5, ,53, ,
-1, ,56, ,
5, ,55, ,
4, ,55, ,
3, ,55, ,
-1, ,55, ,
5, ,53, ,
0, ,56, ,
1, ,55, ,
0, ,54, ,
1, ,55, ,
1, ,55, ,
4, ,53, ,
-1, ,56, ,
5, ,54, ,
4, ,54, ,
4, ,55, ,
-2, ,55, ,
0, ,53, ,
-6, ,56, ,
-11, ,54, ,
-16, ,54, ,
-9, ,56, ,
-17, ,55, ,
-7, ,53, ,
-6, ,55, ,
-4, ,55, ,
-1, ,54, ,
1, ,55, ,
3, ,55, ,
10, ,53, ,
9, ,56, ,
10, ,54, ,
4, ,54, ,
6, ,55, ,
1, ,55, ,
4, ,54, ,
-6, ,56, ,
-1, ,55, ,
1, ,55, ,
-1, ,55, ,
-2, ,55, ,
5, ,53, ,
1, ,56, ,
0, ,54, ,
1, ,55, ,
3, ,55, ,
1, ,55, ,
3, ,54, ,
-6, ,56, ,
-2, ,55, ,
0, ,55, ,
-2, ,55, ,
-5, ,55, ,
0, ,53, ,
-4, ,56, ,
-1, ,54, ,
-2, ,55, ,
-1, ,55, ,
0, ,55, ,
4, ,53, ,
-4, ,56, ,
0, ,55, ,
1, ,55, ,
-2, ,55, ,
-10, ,55, ,
-1, ,53, ,
0, ,55, ,
0, ,55, ,
1, ,54, ,
1, ,55, ,
1, ,55, ,
5, ,53, ,
-4, ,55, ,
-2, ,55, ,
-1, ,55, ,
-4, ,55, ,
-9, ,55, ,
3, ,54, ,
-1, ,56, ,
0, ,54, ,
-1, ,54, ,
-2, ,56, ,
-4, ,56, ,
-1, ,53, ,
-6, ,56, ,
-1, ,55, ,
0, ,55, ,
-1, ,55, ,
-1, ,55, ,
5, ,53, ,
1, ,55, ,
-1, ,55, ,
-2, ,55, ,
-2, ,55, ,
-2, ,55, ,
1, ,53, ,
-7, ,56, ,
-1, ,54, ,
-1, ,55, ,
-6, ,55, ,
-7, ,55, ,
0, ,53, ,
-6, ,56, ,
0, ,54, ,
0, ,54, ,
0, ,55, ,
0, ,55, ,
1, ,53, ,
-1, ,56, ,
1, ,54, ,
3, ,55, ,
-1, ,55, ,
-5, ,55, ,
3, ,53, ,
-2, ,56, ,
0, ,54, ,
1, ,54, ,
1, ,55, ,
1, ,56, ,
0, ,54, ,
-6, ,56, ,
0, ,54, ,
4, ,55, ,
1, ,55, ,
-1, ,55, ,
8, ,53, ,
1, ,56, ,
3, ,54, ,
-1, ,55, ,
0, ,55, ,
3, ,55, ,
4, ,54, ,
-6, ,56, ,
0, ,55, ,
3, ,54, ,
0, ,55, ,
-2, ,55, ,
4, ,53, ,
1, ,56, ,
-2, ,54, ,
-2, ,55, ,
3, ,55, ,
1, ,55, ,
5, ,53, ,
-4, ,56, ,
3, ,55, ,
6, ,55, ,
3, ,55, ,
1, ,55, ,
6, ,53, ,
3, ,56, ,
4, ,54, ,
1, ,55, ,
4, ,55, ,
4, ,55, ,
1, ,53, ,
-4, ,56, ,
0, ,55, ,
1, ,54, ,
-2, ,55, ,
-5, ,56, ,
4, ,54, ,
1, ,56, ,
8, ,54, ,
4, ,55, ,
3, ,55, ,
1, ,55, ,
1, ,53, ,
-1, ,56, ,
1, ,55, ,
4, ,55, ,
4, ,55, ,
-4, ,55, ,
4, ,54, ,
-2, ,56, ,
1, ,54, ,
-1, ,55, ,
0, ,55, ,
3, ,55, ,
5, ,54, ,
0, ,56, ,
4, ,55, ,
4, ,55, ,
4, ,55, ,
-4, ,55, ,
5, ,53, ,
3, ,56, ,
4, ,54, ,
3, ,55, ,
4, ,55, ,
4, ,55, ,
6, ,53, ,
-2, ,56, ,
4, ,54, ,
5, ,55, ,
1, ,55, ,
1, ,55, ,
5, ,53, ,
5, ,56, ,
5, ,54, ,
4, ,55, ,
5, ,55, ,
3, ,56, ,
8, ,53, ,
0, ,56, ,
5, ,55, ,
4, ,55, ,
1, ,54, ,
-7, ,55, ,
10, ,54, ,
6, ,56, ,
0, ,54, ,
4, ,55, ,
5, ,55, ,
4, ,55, ,
4, ,53, ,
-1, ,56, ,
3, ,55, ,
4, ,55, ,
3, ,55, ,
3, ,55, ,
8, ,54, ,
0, ,56, ,
3, ,54, ,
1, ,55, ,
6, ,55, ,
6, ,55, ,
8, ,53, ,
6, ,56, ,
11, ,55, ,
11, ,55, ,
8, ,55, ,
4, ,55, ,
10, ,53, ,
5, ,56, ,
6, ,54, ,
8, ,55, ,
6, ,56, ,
4, ,55, ,
11, ,53, ,
-1, ,56, ,
3, ,54, ,
5, ,54, ,
-2, ,55, ,
-2, ,55, ,
4, ,54, ,
4, ,56, ,
6, ,52, ,
3, ,46, ,
1, ,36, ,
1, ,26, ,
4, ,17, ,
-11, ,10, ,
3, ,3, ,
11, ,-2, ,
5, ,-7, ,
-6, ,-11, ,
3, ,-16, ,
-1, ,-19, ,
-4, ,-22, ,
0, ,-23, ,
3, ,-25, ,
-1, ,-27, ,
6, ,-29, ,
0, ,-30, ,
9, ,-31, ,
8, ,-32, ,
1, ,-33, ,
0, ,-33, ,
3, ,-35, ,
3, ,-36, ,
1, ,-36, ,
0, ,-36, ,
3, ,-36, ,
5, ,-37, ,
5, ,-37, ,
0, ,-37, ,
4, ,-38, ,
8, ,-37, ,
4, ,-38, ,
-2, ,-38, ,
4, ,-38, ,
1, ,-38, ,
5, ,-38, ,
5, ,-38, ,
5, ,-38, ,
8, ,-38, ,
4, ,-38, ,
1, ,-38, ,
4, ,-38, ,
6, ,-38, ,
1, ,-38, ,
-4, ,-38, ,
1, ,-38, ,
-2, ,-39, ,
0, ,-38, ,
-2, ,-38, ,
-4, ,-38, ,
-2, ,-39, ,
-2, ,-38, ,
-1, ,-38, ,
3, ,-38, ,
3, ,-38, ,
1, ,-38, ,
-2, ,-38, ,
1, ,-38, ,
1, ,-39, ,
-4, ,-38, ,
-4, ,-38, ,
-4, ,-38, ,
-2, ,-38, ,
0, ,-38, ,
-4, ,-38, ,
1, ,-38, ,
4, ,-38, ,
-2, ,-38, ,
-4, ,-38, ,
-5, ,-38, ,
-1, ,-38, ,
-1, ,-38, ,
-7, ,-38, ,
0, ,-38, ,
-1, ,-38, ,
-1, ,-38, ,
-7, ,-38, ,
-2, ,-38, ,
-5, ,-38, ,
-5, ,-38, ,
-5, ,-38, ,
-1, ,-38, ,
-1, ,-38, ,
-2, ,-38, ,
-5, ,-37, ,
-2, ,-38, ,
-4, ,-38, ,
-1, ,-38, ,
-12, ,-38, ,
-7, ,-38, ,
-2, ,-38, ,
-5, ,-38, ,
-5, ,-38, ,
-1, ,-38, ,
-4, ,-38, ,
-4, ,-38, ,
-5, ,-38, ,
-4, ,-38, ,
-5, ,-38, ,
-4, ,-38, ,
-6, ,-38, ,
-2, ,-38, ,
1, ,-38, ,
-4, ,-38, ,
-9, ,-38, ,
-2, ,-38, ,
-5, ,-38, ,
-5, ,-38, ,
-6, ,-37, ,
-4, ,-38, ,
-1, ,-38, ,
-4, ,-38, ,
-9, ,-38, ,
-4, ,-38, ,
-1, ,-38, ,
-4, ,-38, ,
-6, ,-38, ,
-2, ,-38, ,
-4, ,-38, ,
1, ,-38, ,
-1, ,-38, ,
-1, ,-38, ,
0, ,-38, ,
-2, ,-38, ,
-9, ,-38, ,
-2, ,-38, ,
-1, ,-38, ,
-4, ,-38, ,
-5, ,-38, ,
-1, ,-38, ,
-1, ,-38, ,
-2, ,-38, ,
-6, ,-38, ,
-2, ,-38, ,
-5, ,-38, ,
-4, ,-37, ,
-5, ,-38, ,
0, ,-38, ,
1, ,-38, ,
-1, ,-38, ,
-2, ,-38, ,
3, ,-38, ,
0, ,-38, ,
-2, ,-38, ,
-4, ,-38, ,
-1, ,-37, ,
-2, ,-38, ,
-1, ,-38, ,
-5, ,-38, ,
-4, ,-38, ,
0, ,-37, ,
-5, ,-38, ,
-5, ,-38, ,
0, ,-38, ,
1, ,-38, ,
0, ,-38, ,
-1, ,-38, ,
1, ,-38, ,
1, ,-38, ,
1, ,-38, ,
-4, ,-38, ,
-1, ,-38, ,
1, ,-38, ,
0, ,-38, ,
-4, ,-37, ,
4, ,-38, ,
4, ,-38, ,
4, ,-38, ,
1, ,-38, ,
3, ,-38, ,
1, ,-38, ,
1, ,-38, ,
-2, ,-38, ,
1, ,-38, ,
1, ,-38, ,
4, ,-38, ,
-1, ,-38, ,
6, ,-38, ,
5, ,-38, ,
4, ,-38, ,
3, ,-38, ,
1, ,-38, ,
1, ,-38, ,
1, ,-38, ,
-1, ,-38, ,
3, ,-38, ,
8, ,-38, ,
5, ,-38, ,
4, ,-38, ,
6, ,-38, ,
6, ,-38, ,
3, ,-37, ,
4, ,-38, ,
5, ,-38, ,
6, ,-38, ,
9, ,-38, ,
0, ,-38, ,
4, ,-38, ,
4, ,-38, ,
1, ,-38, ,
3, ,-37, ,
8, ,-38, ,
6, ,-38, ,
5, ,-37, ,
4, ,-37, ,
5, ,-38, ,
3, ,-38, ,
3, ,-38, ,
-4, ,-38, ,
0, ,-38, ,
5, ,-38, ,
1, ,-38, ,
1, ,-38, ,
8, ,-38, ,
4, ,-38, ,
5, ,-38, ,
4, ,-38, ,
6, ,-37, ,
6, ,-38, ,
4, ,-38, ,
1, ,-38, ,
4, ,-38, ,
9, ,-37, ,
8, ,-38, ,
-1, ,-38, ,
5, ,-38, ,
8, ,-38, ,
4, ,-38, ,
4, ,-38, ,
4, ,-38, ,
6, ,-38, ,
5, ,-37, ,
1, ,-37, ,
6, ,-38, ,
5, ,-37, ,
5, ,-38, ,
1, ,-38, ,
8, ,-38, ,
6, ,-38, ,
8, ,-38, ,
5, ,-38, ,
5, ,-37, ,
4, ,-38, ,
8, ,-38, ,
3, ,-37, ,
6, ,-38, ,
5, ,-38, ,
-1, ,-38, ,
-5, ,-38, ,
4, ,-38, ,
6, ,-38, ,
6, ,-38, ,
5, ,-37, ,
5, ,-38, ,
3, ,-38, ,
5, ,-37, ,
1, ,-37, ,
8, ,-38, ,
11, ,-38, ,
6, ,-38, ,
5, ,-37, ,
10, ,-38, ,
5, ,-38, ,
1, ,-38, ,
0, ,-38, ,
1, ,-37, ,
1, ,-38, ,
5, ,-38, ,
0, ,-38, ,
4, ,-38, ,
9, ,-37, ,
4, ,-38, ,
1, ,-37, ,
9, ,-37, ,
5, ,-38, ,
8, ,-38, ,
5, ,-37, ,
5, ,-38, ,
6, ,-37, ,
9, ,-38, ,
3, ,-37, ,
3, ,-38, ,
6, ,-38, ,
-1, ,-38, ,
-6, ,-38, ,
0, ,-38, ,
-2, ,-38, ,
0, ,-38, ,
0, ,-37, ,
1, ,-38, ,
5, ,-38, ,
3, ,-38, ,
1, ,-38, ,
4, ,-38, ,
6, ,-37, ,
3, ,-38, ,
0, ,-38, ,
5, ,-37, ,
4, ,-38, ,
0, ,-38, ,
-2, ,-37, ,
0, ,-38, ,
-1, ,-38, ,
4, ,-37, ,
-5, ,-38, ,
-1, ,-38, ,
4, ,-37, ,
0, ,-38, ,
-2, ,-38, ,
1, ,-38, ,
-1, ,-38, ,
-2, ,-38, ,
-4, ,-38, ,
-4, ,-38, ,
-1, ,-38, ,
1, ,-38, ,
-4, ,-38, ,
0, ,-38, ,
5, ,-37, ,
0, ,-38, ,
-2, ,-38, ,
0, ,-38, ,
-1, ,-38, ,
-1, ,-38, ,
-4, ,-38, ,
0, ,-38, ,
0, ,-38, ,
3, ,-38, ,
-2, ,-38, ,
0, ,-38, ,
5, ,-37, ,
-1, ,-38, ,
-4, ,-37, ,
3, ,-38, ,
-1, ,-38, ,
0, ,-38, ,
-1, ,-37, ,
-1, ,-38, ,
-1, ,-38, ,
0, ,-38, ,
-4, ,-37, ,
-1, ,-38, ,
5, ,-37, ,
-1, ,-38, ,
-4, ,-38, ,
3, ,-37, ,
0, ,-38, ,
0, ,-38, ,
0, ,-37, ,
-2, ,-38, ,
-2, ,-38, ,
-1, ,-38, ,
-6, ,-38, ,
-1, ,-38, ,
1, ,-38, ,
-2, ,-38, ,
-6, ,-37, ,
-1, ,-38, ,
-2, ,-38, ,
-2, ,-37, ,
-4, ,-38, ,
-4, ,-37, ,
0, ,-38, ,
-1, ,-38, ,
-4, ,-38, ,
0, ,-38, ,
1, ,-37, ,
0, ,-38, ,
-11, ,-38, ,
1, ,-38, ,
0, ,-38, ,
-4, ,-38, ,
-1, ,-37, ,
0, ,-37, ,
-2, ,-38, ,
3, ,-37, ,
-5, ,-38, ,
1, ,-38, ,
3, ,-37, ,
-4, ,-38, ,
-2, ,-38, ,
1, ,-38, ,
1, ,-38, ,
0, ,-37, ,
-5, ,-37, ,
-2, ,-37, ,
-4, ,-38, ,
-4, ,-38, ,
-9, ,-37, ,
-5, ,-38, ,
-1, ,-37, ,
0, ,-37, ,
-5, ,-38, ,
1, ,-38, ,
0, ,-38, ,
-2, ,-38, ,
-2, ,-37, ,
-1, ,-37, ,
0, ,-38, ,
4, ,-37, ,
-4, ,-37, ,
1, ,-38, ,
3, ,-38, ,
-1, ,-38, ,
-5, ,-37, ,
3, ,-38, ,
-1, ,-38, ,
0, ,-38, ,
1, ,-38, ,
-1, ,-38, ,
3, ,-38, ,
0, ,-37, ,
-4, ,-38, ,
0, ,-38, ,
3, ,-37, ,
5, ,-37, ,
-4, ,-38, ,
0, ,-37, ,
8, ,-38, ,
0, ,-38, ,
3, ,-37, ,
3, ,-38, ,
-1, ,-38, ,
3, ,-37, ,
-4, ,-38, ,
3, ,-38, ,
4, ,-38, ,
4, ,-38, ,
4, ,-37, ,
6, ,-38, ,
4, ,-38, ,
0, ,-38, ,
1, ,-38, ,
1, ,-38, ,
3, ,-38, ,
1, ,-38, ,
-4, ,-38, ,
4, ,-38, ,
6, ,-37, ,
3, ,-38, ,
-2, ,-38, ,
3, ,-38, ,
1, ,-38, ,
4, ,-38, ,
0, ,-37, ,
3, ,-38, ,
-2, ,-38, ,
4, ,-37, ,
-1, ,-38, ,
1, ,-38, ,
5, ,-38, ,
0, ,-38, ,
-1, ,-38, ,
5, ,-38, ,
-1, ,-38, ,
4, ,-38, ,
3, ,-37, ,
1, ,-38, ,
5, ,-38, ,
1, ,-38, ,
-2, ,-38, ,
1, ,-38, ,
3, ,-37, ,
1, ,-37, ,
0, ,-37, ,
8, ,-38, ,
8, ,-38, ,
8, ,-37, ,
5, ,-38, ,
3, ,-38, ,
4, ,-38, ,
1, ,-38, ,
-4, ,-38, ,
1, ,-38, ,
3, ,-38, ,
4, ,-38, ,
1, ,-37, ,
8, ,-38, ,
6, ,-38, ,
5, ,-38, ,
3, ,-37, ,
3, ,-38, ,
6, ,-37, ,
9, ,-38, ,
4, ,-38, ,
6, ,-38, ,
5, ,-37, ,
3, ,-38, ,
1, ,-37, ,
4, ,-37, ,
4, ,-38, ,
3, ,-38, ,
4, ,-37, ,
3, ,-38, ,
4, ,-38, ,
6, ,-37, ,
0, ,-38, ,
1, ,-38, ,
5, ,-38, ,
3, ,-38, ,
-1, ,-37, ,
6, ,-38, ,
5, ,-38, ,
4, ,-38, ,
4, ,-38, ,
5, ,-38, ,
4, ,-38, ,
3, ,-38, ,
-2, ,-38, ,
0, ,-38, ,
4, ,-38, ,
3, ,-38, ,
0, ,-37, ,
6, ,-38, ,
5, ,-38, ,
4, ,-37, ,
4, ,-37, ,
4, ,-37, ,
5, ,-37, ,
5, ,-38, ,
-1, ,-38, ,
3, ,-38, ,
6, ,-38, ,
1, ,-38, ,
-2, ,-38, ,
1, ,-38, ,
-2, ,-38, ,
-1, ,-37, ,
-2, ,-38, ,
1, ,-37, ,
1, ,-38, ,
4, ,-38, ,
0, ,-38, ,
5, ,-38, ,
4, ,-37, ,
1, ,-37, ,
-4, ,-38, ,
1, ,-37, ,
1, ,-38, ,
1, ,-38, ,
1, ,-37, ,
4, ,-38, ,
4, ,-38, ,
4, ,-38, ,
-4, ,-38, ,
3, ,-38, ,
1, ,-38, ,
-1, ,-38, ,
-7, ,-37, ,
-1, ,-37, ,
-2, ,-38, ,
-2, ,-38, ,
1, ,-37, ,
1, ,-38, ,
3, ,-38, ,
4, ,-38, ,
-1, ,-38, ,
3, ,-38, ,
6, ,-37, ,
1, ,-38, ,
0, ,-38, ,
4, ,-38, ,
1, ,-38, ,
-1, ,-38, ,
0, ,-37, ,
1, ,-38, ,
1, ,-38, ,
5, ,-38, ,
1, ,-38, ,
4, ,-38, ,
6, ,-38, ,
-1, ,-38, ,
-4, ,-37, ,
1, ,-38, ,
-2, ,-38, ,
0, ,-38, ,
-5, ,-37, ,
0, ,-38, ,
1, ,-38, ,
4, ,-37, ,
-1, ,-38, ,
1, ,-38, ,
5, ,-38, ,
0, ,-38, ,
-4, ,-38, ,
3, ,-37, ,
3, ,-38, ,
1, ,-38, ,
0, ,-37, ,
-1, ,-38, ,
3, ,-38, ,
3, ,-38, ,
-2, ,-37, ,
-1, ,-38, ,
0, ,-38, ,
-4, ,-38, ,
-6, ,-38, ,
0, ,-38, ,
0, ,-38, ,
-2, ,-38, ,
-4, ,-38, ,
-4, ,-38, ,
1, ,-38, ,
0, ,-38, ,
-5, ,-38, ,
1, ,-38, ,
1, ,-37, ,
-2, ,-38, ,
-6, ,-38, ,
-4, ,-38, ,
-5, ,-38, ,
-6, ,-38, ,
-5, ,-37, ,
-4, ,-38, ,
0, ,-38, ,
5, ,-38, ,
0, ,-38, ,
1, ,-38, ,
5, ,-38, ,
-1, ,-38, ,
-2, ,-37, ,
1, ,-38, ,
-4, ,-38, ,
-2, ,-38, ,
-2, ,-38, ,
-1, ,-38, ,
0, ,-38, ,
0, ,-38, ,
-6, ,-37, ,
-2, ,-38, ,
0, ,-37, ,
-4, ,-38, ,
-2, ,-38, ,
0, ,-38, ,
1, ,-38, ,
0, ,-38, ,
0, ,-37, ,
0, ,-38, ,
-1, ,-37, ,
1, ,-37, ,
-4, ,-38, ,
1, ,-38, ,
4, ,-38, ,
1, ,-38, ,
-2, ,-37, ,
5, ,-38, ,
-1, ,-38, ,
0, ,-37, ,
-1, ,-38, ,
-1, ,-38, ,
