src/vary_am2_1411/temp0001134.CSV

Format,1.0B,
Memory Length,10000,Memory Length,10000,
IntpDistance,0,IntpDistance,0,
Trigger Address,4999,Trigger Address,4999,
Trigger Level,-1.000E+00,Trigger Level,-1.000E+00,
Source,CH1,Source,CH2,
Vertical Units,V,Vertical Units,V,
Vertical Units Div,0,Vertical Units Div,0,
Vertical Units Extend Div,16,Vertical Units Extend Div,16,
Label,,Label,,
Probe Type,0,Probe Type,0,
Probe Ratio,1.000e+01,Probe Ratio,1.000e+00,
Vertical Scale,2.000e-02,Vertical Scale,1.000e+00,
Vertical Position,-5.120e-02,Vertical Position,2.000e-01,
Horizontal Units,S,Horizontal Units,S,
Horizontal Scale,1.000E-05,Horizontal Scale,1.000E-05,
Horizontal Position,0.000E+00,Horizontal Position,0.000E+00,
Horizontal Mode,Main,Horizontal Mode,Main,
SincET Mode,Real Time,SincET Mode,Real Time,
Sampling Period,1.000e-08,Sampling Period,1.000e-08,
Horizontal Old Scale,1.000E-05,Horizontal Old Scale,1.000E-05,
Horizontal Old Position,0.000E+00,Horizontal Old Position,0.000E+00,
Firmware,V1.23,Firmware,V1.23,
Mode,Fast,Mode,Fast,
Waveform Data,,Waveform Data,,
0, ,-50, ,
1, ,-50, ,
5, ,-49, ,
3, ,-49, ,
1, ,-50, ,
-1, ,-50, ,
0, ,-49, ,
-2, ,-49, ,
3, ,-50, ,
-5, ,-49, ,
0, ,-49, ,
4, ,-50, ,
0, ,-49, ,
-1, ,-50, ,
0, ,-49, ,
0, ,-49, ,
3, ,-50, ,
1, ,-50, ,
3, ,-49, ,
3, ,-50, ,
5, ,-50, ,
-5, ,-50, ,
-1, ,-49, ,
1, ,-49, ,
-1, ,-49, ,
-6, ,-50, ,
1, ,-49, ,
0, ,-49, ,
-1, ,-49, ,
-4, ,-50, ,
-4, ,-49, ,
-5, ,-50, ,
-4, ,-50, ,
-7, ,-49, ,
-4, ,-50, ,
0, ,-49, ,
-1, ,-49, ,
-5, ,-50, ,
8, ,-49, ,
-2, ,-49, ,
1, ,-50, ,
-6, ,-50, ,
-2, ,-49, ,
0, ,-49, ,
-5, ,-50, ,
-7, ,-49, ,
-4, ,-50, ,
-7, ,-50, ,
-9, ,-49, ,
-11, ,-50, ,
-2, ,-49, ,
-1, ,-49, ,
0, ,-49, ,
-6, ,-49, ,
-2, ,-49, ,
-2, ,-50, ,
-5, ,-50, ,
-12, ,-49, ,
-5, ,-49, ,
1, ,-49, ,
-10, ,-49, ,
-12, ,-50, ,
-2, ,-49, ,
-14, ,-49, ,
-5, ,-49, ,
-2, ,-50, ,
-2, ,-49, ,
-1, ,-49, ,
1, ,-49, ,
-5, ,-49, ,
-4, ,-50, ,
-6, ,-49, ,
-7, ,-49, ,
-6, ,-50, ,
-2, ,-49, ,
-4, ,-49, ,
-2, ,-49, ,
-7, ,-50, ,
-6, ,-49, ,
-5, ,-50, ,
0, ,-50, ,
-7, ,-49, ,
0, ,-50, ,
1, ,-49, ,
-2, ,-49, ,
-6, ,-50, ,
0, ,-50, ,
0, ,-49, ,
-4, ,-49, ,
-4, ,-49, ,
-2, ,-49, ,
-2, ,-50, ,
-4, ,-50, ,
-9, ,-49, ,
-6, ,-49, ,
-2, ,-49, ,
-6, ,-49, ,
-10, ,-50, ,
-2, ,-49, ,
-1, ,-49, ,
-5, ,-50, ,
-2, ,-50, ,
-1, ,-49, ,
1, ,-49, ,
1, ,-49, ,
-2, ,-49, ,
0, ,-49, ,
1, ,-49, ,
-4, ,-49, ,
-10, ,-50, ,
0, ,-50, ,
-2, ,-49, ,
-2, ,-50, ,
-2, ,-49, ,
-5, ,-49, ,
-2, ,-49, ,
-4, ,-50, ,
-9, ,-49, ,
0, ,-49, ,
1, ,-49, ,
0, ,-49, ,
1, ,-50, ,
4, ,-49, ,
3, ,-49, ,
-1, ,-49, ,
-1, ,-49, ,
-1, ,-49, ,
1, ,-50, ,
0, ,-50, ,
-4, ,-49, ,
1, ,-50, ,
3, ,-49, ,
-1, ,-49, ,
-4, ,-50, ,
3, ,-50, ,
0, ,-49, ,
1, ,-49, ,
-2, ,-50, ,
3, ,-49, ,
3, ,-50, ,
4, ,-50, ,
-2, ,-49, ,
3, ,-50, ,
3, ,-49, ,
0, ,-49, ,
-2, ,-50, ,
1, ,-49, ,
-2, ,-49, ,
-1, ,-50, ,
-1, ,-49, ,
1, ,-49, ,
3, ,-50, ,
3, ,-49, ,
-2, ,-49, ,
0, ,-50, ,
4, ,-50, ,
0, ,-49, ,
-4, ,-50, ,
5, ,-49, ,
3, ,-49, ,
6, ,-50, ,
4, ,-49, ,
3, ,-49, ,
5, ,-50, ,
1, ,-50, ,
-4, ,-50, ,
1, ,-49, ,
3, ,-49, ,
3, ,-50, ,
-2, ,-50, ,
5, ,-49, ,
4, ,-49, ,
4, ,-50, ,
3, ,-50, ,
8, ,-49, ,
5, ,-50, ,
8, ,-49, ,
4, ,-50, ,
8, ,-50, ,
11, ,-50, ,
6, ,-49, ,
1, ,-50, ,
5, ,-50, ,
3, ,-49, ,
0, ,-50, ,
0, ,-50, ,
3, ,-49, ,
5, ,-49, ,
8, ,-50, ,
0, ,-49, ,
6, ,-50, ,
6, ,-50, ,
1, ,-49, ,
-1, ,-50, ,
6, ,-49, ,
5, ,-49, ,
4, ,-50, ,
4, ,-50, ,
5, ,-49, ,
5, ,-50, ,
6, ,-49, ,
3, ,-49, ,
3, ,-50, ,
6, ,-50, ,
3, ,-49, ,
0, ,-50, ,
9, ,-50, ,
1, ,-49, ,
3, ,-49, ,
1, ,-49, ,
4, ,-49, ,
4, ,-50, ,
3, ,-50, ,
0, ,-49, ,
3, ,-49, ,
6, ,-50, ,
4, ,-49, ,
1, ,-50, ,
6, ,-49, ,
0, ,-49, ,
1, ,-50, ,
-1, ,-50, ,
1, ,-49, ,
3, ,-50, ,
4, ,-49, ,
1, ,-49, ,
5, ,-49, ,
6, ,-49, ,
3, ,-49, ,
-4, ,-50, ,
4, ,-50, ,
1, ,-49, ,
0, ,-50, ,
1, ,-50, ,
3, ,-49, ,
4, ,-49, ,
5, ,-50, ,
3, ,-50, ,
10, ,-49, ,
8, ,-49, ,
5, ,-49, ,
-1, ,-50, ,
5, ,-50, ,
3, ,-49, ,
1, ,-50, ,
1, ,-50, ,
3, ,-49, ,
3, ,-50, ,
4, ,-50, ,
-1, ,-49, ,
3, ,-50, ,
4, ,-50, ,
0, ,-49, ,
-1, ,-50, ,
4, ,-49, ,
1, ,-49, ,
3, ,-50, ,
1, ,-49, ,
1, ,-49, ,
1, ,-49, ,
4, ,-50, ,
0, ,-49, ,
4, ,-49, ,
6, ,-50, ,
3, ,-49, ,
0, ,-50, ,
5, ,-49, ,
0, ,-49, ,
-1, ,-49, ,
-5, ,-50, ,
-1, ,-49, ,
0, ,-49, ,
3, ,-50, ,
0, ,-49, ,
1, ,-49, ,
6, ,-49, ,
3, ,-49, ,
-2, ,-50, ,
5, ,-50, ,
1, ,-49, ,
3, ,-50, ,
0, ,-50, ,
3, ,-49, ,
3, ,-50, ,
0, ,-50, ,
-6, ,-50, ,
-4, ,-49, ,
-4, ,-50, ,
-5, ,-49, ,
-7, ,-50, ,
4, ,-49, ,
0, ,-49, ,
-1, ,-50, ,
0, ,-50, ,
-1, ,-49, ,
-1, ,-50, ,
1, ,-50, ,
-2, ,-49, ,
0, ,-49, ,
4, ,-49, ,
-1, ,-49, ,
-4, ,-50, ,
0, ,-49, ,
-6, ,-49, ,
-2, ,-50, ,
-5, ,-49, ,
-4, ,-49, ,
-4, ,-50, ,
-6, ,-48, ,
-11, ,-41, ,
0, ,-31, ,
4, ,-22, ,
1, ,-13, ,
5, ,-5, ,
8, ,1, ,
4, ,8, ,
3, ,13, ,
0, ,17, ,
3, ,20, ,
4, ,23, ,
5, ,27, ,
-2, ,29, ,
0, ,31, ,
1, ,33, ,
-1, ,34, ,
-5, ,36, ,
4, ,36, ,
0, ,37, ,
1, ,38, ,
0, ,39, ,
3, ,39, ,
0, ,40, ,
-1, ,41, ,
-2, ,40, ,
-4, ,41, ,
-1, ,41, ,
-2, ,41, ,
-2, ,42, ,
4, ,41, ,
1, ,42, ,
1, ,42, ,
0, ,44, ,
0, ,41, ,
-2, ,44, ,
-2, ,44, ,
-7, ,42, ,
-2, ,44, ,
-1, ,44, ,
-2, ,42, ,
-6, ,44, ,
1, ,44, ,
-2, ,44, ,
-6, ,44, ,
-4, ,44, ,
-4, ,42, ,
-1, ,44, ,
-5, ,44, ,
-7, ,44, ,
-2, ,44, ,
-2, ,44, ,
-5, ,42, ,
-7, ,45, ,
1, ,44, ,
-2, ,44, ,
-2, ,44, ,
-1, ,44, ,
-2, ,42, ,
-4, ,44, ,
1, ,44, ,
-10, ,42, ,
-5, ,42, ,
-4, ,44, ,
-5, ,42, ,
-4, ,44, ,
3, ,42, ,
4, ,42, ,
-5, ,44, ,
-5, ,44, ,
0, ,42, ,
-4, ,44, ,
0, ,44, ,
-5, ,42, ,
-1, ,44, ,
1, ,44, ,
-4, ,42, ,
-1, ,44, ,
1, ,42, ,
0, ,42, ,
-1, ,44, ,
-4, ,42, ,
-2, ,41, ,
-2, ,44, ,
0, ,44, ,
-4, ,42, ,
-2, ,44, ,
5, ,44, ,
0, ,41, ,
-4, ,44, ,
4, ,42, ,
-1, ,44, ,
3, ,44, ,
1, ,42, ,
0, ,42, ,
1, ,44, ,
1, ,44, ,
-5, ,42, ,
-1, ,42, ,
3, ,44, ,
-4, ,42, ,
-5, ,44, ,
1, ,42, ,
0, ,42, ,
1, ,44, ,
3, ,42, ,
4, ,41, ,
4, ,44, ,
8, ,42, ,
1, ,42, ,
1, ,42, ,
6, ,42, ,
3, ,42, ,
-1, ,44, ,
3, ,42, ,
1, ,42, ,
1, ,44, ,
1, ,42, ,
3, ,41, ,
1, ,44, ,
1, ,42, ,
-5, ,42, ,
3, ,42, ,
3, ,42, ,
1, ,42, ,
1, ,44, ,
3, ,42, ,
1, ,42, ,
3, ,42, ,
1, ,42, ,
3, ,41, ,
1, ,44, ,
5, ,42, ,
-1, ,42, ,
3, ,42, ,
6, ,44, ,
0, ,42, ,
-2, ,44, ,
4, ,42, ,
-1, ,42, ,
0, ,44, ,
-1, ,42, ,
5, ,41, ,
5, ,44, ,
6, ,42, ,
1, ,42, ,
5, ,42, ,
3, ,42, ,
1, ,41, ,
-2, ,44, ,
3, ,42, ,
1, ,42, ,
3, ,42, ,
1, ,42, ,
3, ,41, ,
0, ,44, ,
3, ,44, ,
-4, ,42, ,
0, ,42, ,
5, ,42, ,
0, ,42, ,
-4, ,44, ,
3, ,42, ,
0, ,42, ,
0, ,44, ,
3, ,44, ,
3, ,42, ,
5, ,42, ,
6, ,44, ,
0, ,42, ,
5, ,42, ,
6, ,42, ,
4, ,41, ,
-1, ,44, ,
4, ,42, ,
3, ,42, ,
3, ,42, ,
3, ,42, ,
4, ,41, ,
4, ,44, ,
9, ,42, ,
0, ,42, ,
8, ,42, ,
8, ,42, ,
3, ,42, ,
-1, ,44, ,
3, ,42, ,
-2, ,42, ,
0, ,44, ,
1, ,44, ,
1, ,41, ,
3, ,44, ,
6, ,42, ,
1, ,42, ,
3, ,42, ,
4, ,44, ,
-1, ,42, ,
-2, ,44, ,
4, ,42, ,
0, ,42, ,
1, ,42, ,
0, ,42, ,
1, ,41, ,
-1, ,42, ,
1, ,44, ,
-2, ,42, ,
0, ,42, ,
4, ,42, ,
1, ,42, ,
-2, ,44, ,
8, ,42, ,
0, ,42, ,
1, ,42, ,
1, ,42, ,
0, ,41, ,
0, ,42, ,
3, ,44, ,
-4, ,42, ,
3, ,42, ,
3, ,42, ,
1, ,41, ,
-4, ,44, ,
1, ,42, ,
-6, ,42, ,
-2, ,42, ,
-2, ,42, ,
-1, ,41, ,
1, ,44, ,
5, ,42, ,
-1, ,42, ,
4, ,42, ,
5, ,44, ,
-4, ,41, ,
-7, ,42, ,
-1, ,42, ,
0, ,42, ,
-2, ,42, ,
0, ,42, ,
-2, ,42, ,
-2, ,42, ,
-1, ,42, ,
-7, ,42, ,
1, ,42, ,
-1, ,42, ,
0, ,42, ,
-1, ,44, ,
6, ,42, ,
5, ,42, ,
3, ,44, ,
-2, ,42, ,
-1, ,41, ,
-4, ,44, ,
1, ,42, ,
-4, ,42, ,
0, ,42, ,
1, ,42, ,
-4, ,41, ,
-6, ,44, ,
-2, ,42, ,
-5, ,42, ,
0, ,42, ,
-4, ,42, ,
1, ,41, ,
3, ,42, ,
3, ,42, ,
-5, ,42, ,
1, ,42, ,
4, ,42, ,
1, ,41, ,
-2, ,44, ,
4, ,42, ,
-1, ,42, ,
-1, ,42, ,
-1, ,42, ,
0, ,41, ,
0, ,42, ,
0, ,42, ,
-5, ,42, ,
-1, ,42, ,
1, ,42, ,
0, ,41, ,
-1, ,44, ,
3, ,42, ,
0, ,42, ,
3, ,42, ,
1, ,42, ,
-2, ,41, ,
3, ,44, ,
1, ,42, ,
-5, ,42, ,
-1, ,42, ,
1, ,42, ,
0, ,41, ,
-6, ,44, ,
1, ,42, ,
-2, ,42, ,
-2, ,42, ,
-1, ,42, ,
-4, ,41, ,
-5, ,44, ,
-1, ,42, ,
-5, ,42, ,
0, ,42, ,
4, ,42, ,
-1, ,42, ,
-2, ,44, ,
3, ,42, ,
-1, ,42, ,
-2, ,42, ,
-2, ,42, ,
-2, ,41, ,
-1, ,42, ,
3, ,42, ,
-1, ,42, ,
0, ,42, ,
0, ,42, ,
-1, ,42, ,
-5, ,42, ,
4, ,42, ,
0, ,42, ,
0, ,44, ,
0, ,42, ,
-2, ,41, ,
-2, ,42, ,
0, ,42, ,
-4, ,42, ,
0, ,42, ,
3, ,42, ,
3, ,41, ,
0, ,44, ,
8, ,42, ,
3, ,42, ,
3, ,42, ,
0, ,42, ,
-1, ,41, ,
0, ,44, ,
0, ,42, ,
-5, ,42, ,
-1, ,42, ,
0, ,42, ,
-1, ,41, ,
-4, ,44, ,
3, ,42, ,
1, ,42, ,
-2, ,42, ,
0, ,42, ,
-1, ,41, ,
1, ,44, ,
3, ,42, ,
-1, ,42, ,
5, ,42, ,
5, ,42, ,
3, ,41, ,
-2, ,44, ,
4, ,42, ,
-1, ,42, ,
-1, ,42, ,
0, ,42, ,
0, ,41, ,
1, ,42, ,
3, ,42, ,
-2, ,42, ,
4, ,44, ,
3, ,44, ,
1, ,41, ,
-2, ,44, ,
5, ,42, ,
4, ,42, ,
1, ,44, ,
1, ,42, ,
5, ,41, ,
-1, ,44, ,
3, ,42, ,
-4, ,42, ,
0, ,42, ,
3, ,42, ,
0, ,41, ,
-2, ,44, ,
4, ,42, ,
-1, ,42, ,
1, ,42, ,
-1, ,42, ,
-1, ,41, ,
1, ,44, ,
0, ,42, ,
-5, ,42, ,
0, ,42, ,
5, ,42, ,
3, ,41, ,
-2, ,44, ,
5, ,42, ,
1, ,42, ,
0, ,42, ,
-1, ,42, ,
0, ,41, ,
1, ,42, ,
4, ,42, ,
-2, ,42, ,
0, ,42, ,
4, ,42, ,
-1, ,41, ,
-6, ,42, ,
1, ,42, ,
1, ,42, ,
3, ,42, ,
4, ,42, ,
4, ,41, ,
5, ,42, ,
4, ,44, ,
-4, ,42, ,
1, ,42, ,
-1, ,42, ,
-1, ,41, ,
-4, ,44, ,
1, ,42, ,
3, ,42, ,
1, ,44, ,
1, ,42, ,
1, ,41, ,
1, ,42, ,
5, ,42, ,
-2, ,42, ,
4, ,42, ,
5, ,42, ,
1, ,41, ,
0, ,44, ,
4, ,42, ,
1, ,42, ,
3, ,42, ,
1, ,42, ,
1, ,41, ,
4, ,44, ,
6, ,42, ,
0, ,42, ,
4, ,42, ,
8, ,42, ,
0, ,41, ,
-1, ,44, ,
1, ,42, ,
-1, ,42, ,
-1, ,42, ,
-1, ,42, ,
3, ,41, ,
3, ,42, ,
3, ,42, ,
-2, ,42, ,
1, ,42, ,
3, ,42, ,
-2, ,41, ,
-7, ,42, ,
0, ,42, ,
-2, ,42, ,
3, ,42, ,
3, ,42, ,
3, ,41, ,
4, ,42, ,
0, ,44, ,
-7, ,42, ,
-1, ,42, ,
-1, ,42, ,
-1, ,41, ,
-5, ,42, ,
3, ,42, ,
0, ,42, ,
-1, ,42, ,
0, ,42, ,
1, ,41, ,
1, ,44, ,
4, ,42, ,
-2, ,42, ,
3, ,42, ,
8, ,42, ,
1, ,41, ,
-2, ,44, ,
0, ,42, ,
-6, ,42, ,
-2, ,42, ,
-2, ,42, ,
-1, ,41, ,
0, ,44, ,
0, ,42, ,
-2, ,42, ,
1, ,42, ,
3, ,42, ,
-2, ,41, ,
-5, ,42, ,
1, ,42, ,
0, ,42, ,
1, ,42, ,
1, ,42, ,
4, ,41, ,
3, ,44, ,
4, ,44, ,
-5, ,42, ,
1, ,42, ,
3, ,42, ,
-2, ,41, ,
-6, ,44, ,
0, ,42, ,
-4, ,42, ,
1, ,42, ,
-4, ,42, ,
-2, ,41, ,
0, ,44, ,
3, ,42, ,
-2, ,42, ,
1, ,42, ,
5, ,42, ,
4, ,41, ,
0, ,42, ,
5, ,42, ,
3, ,42, ,
3, ,42, ,
1, ,42, ,
0, ,41, ,
-2, ,44, ,
1, ,42, ,
-5, ,42, ,
-1, ,42, ,
1, ,44, ,
4, ,41, ,
-6, ,44, ,
3, ,42, ,
1, ,42, ,
0, ,42, ,
-1, ,42, ,
-2, ,41, ,
0, ,42, ,
3, ,42, ,
-4, ,42, ,
1, ,42, ,
-1, ,42, ,
-1, ,41, ,
-6, ,44, ,
-2, ,42, ,
-1, ,42, ,
0, ,42, ,
1, ,42, ,
0, ,41, ,
0, ,44, ,
3, ,42, ,
-5, ,42, ,
-1, ,42, ,
3, ,42, ,
-1, ,41, ,
-4, ,42, ,
3, ,42, ,
0, ,42, ,
-1, ,42, ,
-2, ,42, ,
-4, ,41, ,
-2, ,44, ,
4, ,42, ,
-5, ,42, ,
-1, ,42, ,
3, ,42, ,
-1, ,41, ,
-2, ,42, ,
4, ,42, ,
-5, ,42, ,
-6, ,42, ,
-2, ,42, ,
3, ,41, ,
-4, ,44, ,
-1, ,42, ,
-4, ,42, ,
-2, ,42, ,
1, ,42, ,
3, ,41, ,
1, ,44, ,
4, ,42, ,
-1, ,42, ,
3, ,42, ,
-1, ,42, ,
0, ,41, ,
1, ,44, ,
3, ,42, ,
-4, ,42, ,
1, ,42, ,
1, ,42, ,
0, ,41, ,
-5, ,44, ,
4, ,42, ,
1, ,42, ,
-1, ,42, ,
1, ,42, ,
0, ,41, ,
3, ,44, ,
5, ,42, ,
-5, ,42, ,
3, ,42, ,
4, ,42, ,
-1, ,41, ,
-4, ,42, ,
0, ,42, ,
3, ,42, ,
-1, ,42, ,
-2, ,42, ,
-1, ,41, ,
-2, ,44, ,
0, ,42, ,
-7, ,42, ,
3, ,42, ,
4, ,44, ,
0, ,41, ,
0, ,44, ,
5, ,42, ,
4, ,42, ,
-1, ,42, ,
0, ,42, ,
0, ,41, ,
-1, ,44, ,
3, ,42, ,
-2, ,42, ,
4, ,42, ,
6, ,42, ,
4, ,41, ,
-2, ,42, ,
3, ,42, ,
-1, ,42, ,
0, ,42, ,
-1, ,42, ,
0, ,41, ,
3, ,44, ,
1, ,42, ,
-2, ,42, ,
0, ,42, ,
4, ,42, ,
3, ,41, ,
0, ,42, ,
8, ,42, ,
5, ,42, ,
3, ,42, ,
1, ,42, ,
4, ,41, ,
-7, ,44, ,
-2, ,42, ,
-11, ,42, ,
-1, ,42, ,
5, ,42, ,
1, ,41, ,
4, ,42, ,
8, ,42, ,
1, ,42, ,
1, ,44, ,
-4, ,42, ,
-1, ,41, ,
4, ,44, ,
5, ,42, ,
0, ,42, ,
5, ,42, ,
4, ,42, ,
1, ,42, ,
-2, ,44, ,
4, ,42, ,
3, ,42, ,
1, ,42, ,
1, ,42, ,
3, ,41, ,
0, ,44, ,
8, ,42, ,
-1, ,42, ,
3, ,42, ,
6, ,42, ,
1, ,41, ,
1, ,44, ,
5, ,42, ,
3, ,42, ,
3, ,42, ,
4, ,42, ,
1, ,41, ,
-1, ,42, ,
3, ,42, ,
-2, ,42, ,
3, ,42, ,
4, ,42, ,
3, ,41, ,
0, ,44, ,
8, ,42, ,
4, ,42, ,
3, ,44, ,
1, ,42, ,
3, ,41, ,
1, ,44, ,
3, ,42, ,
-2, ,42, ,
1, ,42, ,
5, ,42, ,
0, ,42, ,
-4, ,44, ,
6, ,42, ,
3, ,42, ,
4, ,42, ,
4, ,42, ,
1, ,41, ,
4, ,44, ,
1, ,42, ,
-4, ,42, ,
1, ,42, ,
3, ,42, ,
1, ,41, ,
-6, ,44, ,
1, ,42, ,
-1, ,42, ,
-1, ,42, ,
1, ,42, ,
3, ,41, ,
4, ,42, ,
6, ,42, ,
-1, ,42, ,
1, ,42, ,
1, ,42, ,
1, ,41, ,
-4, ,44, ,
3, ,42, ,
1, ,42, ,
3, ,42, ,
1, ,42, ,
1, ,41, ,
1, ,44, ,
1, ,42, ,
-6, ,42, ,
1, ,42, ,
3, ,42, ,
0, ,41, ,
-4, ,44, ,
3, ,42, ,
1, ,42, ,
4, ,42, ,
-1, ,42, ,
3, ,41, ,
0, ,42, ,
6, ,42, ,
-2, ,42, ,
3, ,42, ,
5, ,42, ,
0, ,42, ,
-5, ,44, ,
0, ,42, ,
-7, ,42, ,
-2, ,44, ,
1, ,44, ,
-4, ,41, ,
3, ,44, ,
8, ,42, ,
-1, ,42, ,
1, ,42, ,
3, ,42, ,
-1, ,41, ,
-2, ,42, ,
1, ,42, ,
4, ,42, ,
1, ,42, ,
0, ,42, ,
3, ,41, ,
1, ,42, ,
3, ,42, ,
-5, ,42, ,
-1, ,42, ,
-1, ,42, ,
-2, ,41, ,
-7, ,44, ,
1, ,42, ,
-4, ,42, ,
-1, ,42, ,
-1, ,42, ,
-1, ,41, ,
-1, ,44, ,
1, ,42, ,
-4, ,42, ,
3, ,42, ,
3, ,42, ,
-2, ,41, ,
-9, ,42, ,
-4, ,42, ,
-4, ,42, ,
-4, ,42, ,
0, ,42, ,
3, ,41, ,
-1, ,42, ,
0, ,42, ,
-6, ,41, ,
-2, ,38, ,
-6, ,29, ,
-10, ,18, ,
-11, ,9, ,
-7, ,1, ,
-10, ,-6, ,
-7, ,-12, ,
-7, ,-18, ,
-6, ,-22, ,
-7, ,-26, ,
-1, ,-29, ,
-9, ,-32, ,
-2, ,-35, ,
-1, ,-37, ,
-2, ,-39, ,
-7, ,-41, ,
-2, ,-42, ,
-5, ,-43, ,
-5, ,-44, ,
-4, ,-45, ,
-4, ,-46, ,
-5, ,-47, ,
-2, ,-47, ,
-7, ,-47, ,
-6, ,-48, ,
-1, ,-48, ,
-5, ,-48, ,
-6, ,-49, ,
3, ,-49, ,
-1, ,-49, ,
-1, ,-49, ,
-1, ,-50, ,
-1, ,-49, ,
0, ,-50, ,
-1, ,-50, ,
-5, ,-50, ,
-2, ,-50, ,
3, ,-50, ,
0, ,-50, ,
-4, ,-50, ,
0, ,-50, ,
0, ,-50, ,
-2, ,-50, ,
-1, ,-50, ,
0, ,-49, ,
1, ,-51, ,
4, ,-51, ,
-1, ,-50, ,
3, ,-50, ,
5, ,-50, ,
-1, ,-50, ,
-7, ,-50, ,
0, ,-50, ,
-5, ,-50, ,
-2, ,-50, ,
0, ,-51, ,
0, ,-49, ,
3, ,-51, ,
1, ,-50, ,
-7, ,-50, ,
0, ,-50, ,
-1, ,-50, ,
-2, ,-49, ,
-4, ,-51, ,
1, ,-50, ,
3, ,-50, ,
0, ,-50, ,
-1, ,-50, ,
0, ,-50, ,
-1, ,-50, ,
4, ,-50, ,
-2, ,-50, ,
0, ,-50, ,
3, ,-50, ,
-2, ,-50, ,
-5, ,-50, ,
0, ,-50, ,
-1, ,-49, ,
-2, ,-50, ,
-5, ,-50, ,
-1, ,-49, ,
0, ,-50, ,
-1, ,-50, ,
-2, ,-50, ,
3, ,-50, ,
6, ,-49, ,
3, ,-50, ,
1, ,-51, ,
6, ,-49, ,
1, ,-49, ,
0, ,-50, ,
-1, ,-50, ,
-2, ,-49, ,
-1, ,-50, ,
0, ,-50, ,
-2, ,-50, ,
1, ,-50, ,
4, ,-50, ,
0, ,-49, ,
-5, ,-50, ,
3, ,-50, ,
-1, ,-49, ,
-1, ,-50, ,
1, ,-50, ,
3, ,-49, ,
5, ,-50, ,
4, ,-50, ,
-2, ,-50, ,
3, ,-50, ,
3, ,-50, ,
1, ,-50, ,
-2, ,-50, ,
4, ,-49, ,
4, ,-50, ,
3, ,-50, ,
0, ,-50, ,
0, ,-49, ,
-1, ,-50, ,
0, ,-50, ,
-2, ,-50, ,
4, ,-50, ,
10, ,-50, ,
6, ,-49, ,
4, ,-50, ,
5, ,-50, ,
1, ,-49, ,
-1, ,-50, ,
0, ,-50, ,
0, ,-49, ,
1, ,-50, ,
3, ,-50, ,
3, ,-50, ,
8, ,-50, ,
8, ,-50, ,
3, ,-49, ,
-1, ,-50, ,
4, ,-50, ,
1, ,-49, ,
1, ,-50, ,
1, ,-50, ,
4, ,-49, ,
1, ,-50, ,
3, ,-50, ,
0, ,-49, ,
3, ,-50, ,
6, ,-50, ,
3, ,-49, ,
-1, ,-50, ,
8, ,-50, ,
3, ,-49, ,
4, ,-50, ,
0, ,-50, ,
0, ,-49, ,
1, ,-50, ,
-1, ,-50, ,
-4, ,-49, ,
3, ,-50, ,
5, ,-49, ,
3, ,-50, ,
-1, ,-50, ,
5, ,-49, ,
0, ,-49, ,
-1, ,-50, ,
-2, ,-50, ,
0, ,-49, ,
0, ,-50, ,
3, ,-50, ,
-1, ,-49, ,
4, ,-49, ,
5, ,-49, ,
3, ,-49, ,
-2, ,-50, ,
4, ,-50, ,
1, ,-49, ,
3, ,-49, ,
1, ,-50, ,
3, ,-49, ,
4, ,-50, ,
3, ,-50, ,
-5, ,-49, ,
3, ,-49, ,
4, ,-49, ,
-1, ,-50, ,
-1, ,-50, ,
4, ,-49, ,
4, ,-49, ,
4, ,-49, ,
3, ,-50, ,
6, ,-49, ,
5, ,-50, ,
6, ,-50, ,
-2, ,-50, ,
4, ,-50, ,
-2, ,-49, ,
3, ,-49, ,
1, ,-50, ,
3, ,-50, ,
5, ,-49, ,
3, ,-49, ,
-1, ,-50, ,
1, ,-49, ,
3, ,-50, ,
1, ,-50, ,
-1, ,-50, ,
5, ,-50, ,
8, ,-49, ,
5, ,-49, ,
3, ,-50, ,
8, ,-49, ,
3, ,-49, ,
-2, ,-49, ,
-1, ,-50, ,
-1, ,-49, ,
-2, ,-50, ,
3, ,-49, ,
-1, ,-49, ,
1, ,-50, ,
4, ,-50, ,
0, ,-50, ,
-5, ,-50, ,
1, ,-50, ,
-1, ,-49, ,
1, ,-50, ,
4, ,-50, ,
9, ,-49, ,
5, ,-50, ,
8, ,-50, ,
-1, ,-49, ,
0, ,-49, ,
-1, ,-49, ,
-1, ,-49, ,
-6, ,-50, ,
1, ,-50, ,
1, ,-49, ,
-1, ,-50, ,
1, ,-50, ,
0, ,-49, ,
-1, ,-50, ,
0, ,-49, ,
-5, ,-49, ,
-1, ,-49, ,
0, ,-50, ,
-4, ,-50, ,
-2, ,-50, ,
3, ,-50, ,
-1, ,-49, ,
0, ,-50, ,
-2, ,-50, ,
0, ,-49, ,
0, ,-50, ,
0, ,-49, ,
-4, ,-50, ,
-1, ,-49, ,
0, ,-50, ,
-2, ,-49, ,
-4, ,-50, ,
1, ,-50, ,
-1, ,-49, ,
-1, ,-50, ,
-2, ,-50, ,
0, ,-49, ,
-2, ,-49, ,
-1, ,-50, ,
-6, ,-49, ,
-1, ,-50, ,
3, ,-49, ,
-2, ,-49, ,
-5, ,-50, ,
1, ,-50, ,
-2, ,-49, ,
1, ,-50, ,
-1, ,-50, ,
0, ,-49, ,
1, ,-50, ,
-1, ,-50, ,
-7, ,-49, ,
-2, ,-49, ,
-1, ,-49, ,
-4, ,-49, ,
-6, ,-50, ,
1, ,-50, ,
1, ,-49, ,
-1, ,-50, ,
1, ,-50, ,
0, ,-49, ,
-1, ,-50, ,
0, ,-50, ,
-9, ,-49, ,
-2, ,-50, ,
0, ,-50, ,
-4, ,-49, ,
-4, ,-50, ,
4, ,-50, ,
1, ,-49, ,
1, ,-50, ,
-2, ,-50, ,
-4, ,-49, ,
-5, ,-49, ,
-2, ,-50, ,
-7, ,-49, ,
1, ,-50, ,
1, ,-50, ,
-1, ,-49, ,
-5, ,-50, ,
-1, ,-49, ,
-4, ,-49, ,
-2, ,-50, ,
-4, ,-49, ,
-1, ,-49, ,
1, ,-50, ,
1, ,-50, ,
-5, ,-49, ,
-2, ,-50, ,
-1, ,-50, ,
-6, ,-50, ,
-6, ,-50, ,
-4, ,-50, ,
-6, ,-49, ,
-1, ,-50, ,
-4, ,-50, ,
-2, ,-49, ,
-2, ,-50, ,
-1, ,-50, ,
-7, ,-50, ,
-2, ,-50, ,
0, ,-49, ,
-1, ,-49, ,
-1, ,-50, ,
5, ,-50, ,
1, ,-49, ,
-1, ,-50, ,
0, ,-50, ,
-1, ,-49, ,
-2, ,-50, ,
0, ,-50, ,
-5, ,-49, ,
-1, ,-49, ,
0, ,-50, ,
-1, ,-49, ,
-4, ,-50, ,
3, ,-50, ,
-2, ,-49, ,
-1, ,-50, ,
-1, ,-50, ,
-1, ,-49, ,
3, ,-50, ,
4, ,-50, ,
-2, ,-50, ,
4, ,-50, ,
0, ,-50, ,
-1, ,-50, ,
-9, ,-50, ,
-1, ,-49, ,
-1, ,-49, ,
-4, ,-50, ,
-2, ,-50, ,
-1, ,-49, ,
0, ,-50, ,
1, ,-50, ,
-4, ,-50, ,
5, ,-49, ,
4, ,-49, ,
-2, ,-49, ,
-2, ,-50, ,
4, ,-50, ,
3, ,-49, ,
1, ,-50, ,
0, ,-50, ,
0, ,-49, ,
0, ,-50, ,
4, ,-50, ,
-2, ,-49, ,
1, ,-50, ,
4, ,-49, ,
0, ,-50, ,
-1, ,-50, ,
1, ,-49, ,
-1, ,-49, ,
-4, ,-50, ,
-5, ,-49, ,
-1, ,-49, ,
-1, ,-50, ,
0, ,-50, ,
-1, ,-49, ,
4, ,-50, ,
8, ,-49, ,
3, ,-49, ,
-4, ,-50, ,
1, ,-50, ,
-1, ,-49, ,
0, ,-50, ,
-2, ,-50, ,
-1, ,-49, ,
1, ,-50, ,
0, ,-50, ,
-2, ,-49, ,
3, ,-49, ,
3, ,-49, ,
4, ,-50, ,
-1, ,-50, ,
4, ,-49, ,
0, ,-49, ,
-2, ,-50, ,
-2, ,-50, ,
1, ,-49, ,
1, ,-49, ,
0, ,-50, ,
-5, ,-49, ,
1, ,-49, ,
4, ,-50, ,
3, ,-49, ,
-1, ,-50, ,
5, ,-50, ,
1, ,-49, ,
1, ,-50, ,
-1, ,-50, ,
0, ,-49, ,
3, ,-50, ,
1, ,-50, ,
-4, ,-49, ,
3, ,-50, ,
1, ,-50, ,
0, ,-49, ,
0, ,-50, ,
4, ,-49, ,
4, ,-49, ,
1, ,-49, ,
1, ,-49, ,
3, ,-49, ,
5, ,-50, ,
4, ,-49, ,
3, ,-50, ,
4, ,-50, ,
9, ,-49, ,
3, ,-49, ,
-1, ,-50, ,
4, ,-49, ,
0, ,-49, ,
1, ,-49, ,
-1, ,-50, ,
3, ,-48, ,
4, ,-50, ,
3, ,-49, ,
4, ,-49, ,
4, ,-50, ,
6, ,-50, ,
4, ,-49, ,
1, ,-50, ,
8, ,-49, ,
5, ,-49, ,
3, ,-50, ,
3, ,-49, ,
3, ,-49, ,
1, ,-49, ,
1, ,-50, ,
-4, ,-49, ,
1, ,-49, ,
4, ,-50, ,
-1, ,-49, ,
-4, ,-50, ,
5, ,-50, ,
4, ,-49, ,
5, ,-50, ,
1, ,-50, ,
3, ,-49, ,
3, ,-50, ,
4, ,-49, ,
-1, ,-49, ,
4, ,-50, ,
4, ,-49, ,
1, ,-49, ,
-6, ,-50, ,
0, ,-50, ,
-5, ,-49, ,
-2, ,-50, ,
-1, ,-50, ,
3, ,-49, ,
3, ,-50, ,
5, ,-50, ,
0, ,-49, ,
3, ,-50, ,
3, ,-49, ,
4, ,-49, ,
4, ,-50, ,
3, ,-50, ,
-1, ,-49, ,
1, ,-50, ,
1, ,-50, ,
3, ,-49, ,
5, ,-50, ,
3, ,-50, ,
-1, ,-49, ,
3, ,-49, ,
3, ,-49, ,
0, ,-50, ,
0, ,-50, ,
6, ,-49, ,
4, ,-49, ,
1, ,-50, ,
1, ,-50, ,
3, ,-49, ,
1, ,-50, ,
1, ,-49, ,
-2, ,-49, ,
3, ,-50, ,
4, ,-49, ,
1, ,-49, ,
-4, ,-50, ,
5, ,-49, ,
-1, ,-49, ,
-1, ,-50, ,
-1, ,-50, ,
-2, ,-49, ,
-1, ,-50, ,
1, ,-50, ,
-2, ,-49, ,
3, ,-49, ,
5, ,-49, ,
4, ,-50, ,
0, ,-50, ,
8, ,-50, ,
5, ,-49, ,
0, ,-50, ,
1, ,-50, ,
0, ,-49, ,
4, ,-50, ,
5, ,-50, ,
-5, ,-49, ,
5, ,-50, ,
0, ,-49, ,
-1, ,-50, ,
-1, ,-50, ,
1, ,-49, ,
3, ,-49, ,
4, ,-50, ,
3, ,-50, ,
1, ,-49, ,
1, ,-50, ,
0, ,-50, ,
-4, ,-49, ,
0, ,-50, ,
-1, ,-50, ,
0, ,-49, ,
-1, ,-50, ,
6, ,-49, ,
4, ,-49, ,
1, ,-50, ,
0, ,-50, ,
0, ,-49, ,
-2, ,-49, ,
0, ,-50, ,
-4, ,-49, ,
0, ,-50, ,
4, ,-50, ,
-1, ,-49, ,
-4, ,-50, ,
4, ,-49, ,
-4, ,-49, ,
-2, ,-50, ,
-5, ,-50, ,
-5, ,-49, ,
-2, ,-50, ,
-4, ,-49, ,
-6, ,-49, ,
-2, ,-49, ,
1, ,-50, ,
-1, ,-50, ,
-4, ,-50, ,
0, ,-49, ,
-4, ,-49, ,
-10, ,-50, ,
-15, ,-49, ,
-16, ,-49, ,
-15, ,-50, ,
-19, ,-50, ,
-22, ,-49, ,
-12, ,-49, ,
-9, ,-49, ,
-6, ,-50, ,
-5, ,-50, ,
9, ,-50, ,
11, ,-49, ,
14, ,-50, ,
16, ,-50, ,
16, ,-49, ,
14, ,-49, ,
9, ,-50, ,
1, ,-50, ,
3, ,-50, ,
-1, ,-49, ,
0, ,-49, ,
-5, ,-50, ,
1, ,-49, ,
1, ,-49, ,
-1, ,-50, ,
-6, ,-50, ,
-5, ,-49, ,
-6, ,-50, ,
-2, ,-50, ,
-9, ,-49, ,
-5, ,-50, ,
-4, ,-49, ,
-6, ,-49, ,
-7, ,-50, ,
-1, ,-50, ,
-5, ,-49, ,
-4, ,-50, ,
-1, ,-49, ,
0, ,-49, ,
3, ,-50, ,
0, ,-50, ,
-4, ,-49, ,
-1, ,-49, ,
-1, ,-49, ,
-5, ,-50, ,
-9, ,-50, ,
-4, ,-49, ,
-5, ,-49, ,
-4, ,-49, ,
-2, ,-50, ,
1, ,-49, ,
3, ,-50, ,
6, ,-50, ,
0, ,-50, ,
1, ,-50, ,
1, ,-49, ,
-5, ,-49, ,
-7, ,-50, ,
-1, ,-49, ,
-7, ,-49, ,
-6, ,-50, ,
-9, ,-50, ,
-5, ,-49, ,
0, ,-50, ,
-1, ,-50, ,
-2, ,-49, ,
4, ,-50, ,
6, ,-50, ,
