src/vary_am2_1411/temp0004064.CSV

Format,1.0B,
Memory Length,10000,Memory Length,10000,
IntpDistance,0,IntpDistance,0,
Trigger Address,4999,Trigger Address,4999,
Trigger Level,-1.000E+00,Trigger Level,-1.000E+00,
Source,CH1,Source,CH2,
Vertical Units,V,Vertical Units,V,
Vertical Units Div,0,Vertical Units Div,0,
Vertical Units Extend Div,16,Vertical Units Extend Div,16,
Label,,Label,,
Probe Type,0,Probe Type,0,
Probe Ratio,1.000e+01,Probe Ratio,1.000e+00,
Vertical Scale,2.000e-02,Vertical Scale,1.000e+00,
Vertical Position,-5.120e-02,Vertical Position,2.000e-01,
Horizontal Units,S,Horizontal Units,S,
Horizontal Scale,1.000E-05,Horizontal Scale,1.000E-05,
Horizontal Position,0.000E+00,Horizontal Position,0.000E+00,
Horizontal Mode,Main,Horizontal Mode,Main,
SincET Mode,Real Time,SincET Mode,Real Time,
Sampling Period,1.000e-08,Sampling Period,1.000e-08,
Horizontal Old Scale,1.000E-05,Horizontal Old Scale,1.000E-05,
Horizontal Old Position,0.000E+00,Horizontal Old Position,0.000E+00,
Firmware,V1.23,Firmware,V1.23,
Mode,Fast,Mode,Fast,
Waveform Data,,Waveform Data,,
1, ,-35, ,
0, ,-35, ,
1, ,-35, ,
3, ,-35, ,
8, ,-35, ,
5, ,-35, ,
4, ,-35, ,
5, ,-35, ,
3, ,-35, ,
-6, ,-35, ,
0, ,-35, ,
1, ,-35, ,
0, ,-35, ,
-1, ,-35, ,
-2, ,-35, ,
0, ,-35, ,
-1, ,-35, ,
-4, ,-35, ,
1, ,-35, ,
0, ,-35, ,
1, ,-35, ,
-2, ,-35, ,
1, ,-36, ,
1, ,-35, ,
-1, ,-35, ,
-4, ,-35, ,
3, ,-35, ,
4, ,-35, ,
4, ,-35, ,
-1, ,-35, ,
1, ,-35, ,
1, ,-35, ,
-2, ,-35, ,
-7, ,-35, ,
1, ,-35, ,
-4, ,-35, ,
0, ,-35, ,
0, ,-35, ,
1, ,-35, ,
0, ,-35, ,
-1, ,-35, ,
-2, ,-35, ,
0, ,-35, ,
3, ,-35, ,
1, ,-35, ,
0, ,-35, ,
4, ,-35, ,
0, ,-35, ,
-1, ,-35, ,
-6, ,-35, ,
-1, ,-35, ,
0, ,-35, ,
1, ,-35, ,
0, ,-35, ,
5, ,-35, ,
5, ,-35, ,
4, ,-35, ,
1, ,-35, ,
4, ,-36, ,
4, ,-35, ,
3, ,-35, ,
-1, ,-35, ,
3, ,-35, ,
1, ,-35, ,
-1, ,-35, ,
-4, ,-35, ,
-1, ,-35, ,
1, ,-35, ,
3, ,-35, ,
1, ,-35, ,
4, ,-36, ,
3, ,-35, ,
4, ,-35, ,
1, ,-35, ,
1, ,-35, ,
3, ,-35, ,
-1, ,-35, ,
-2, ,-35, ,
1, ,-35, ,
1, ,-35, ,
0, ,-35, ,
-2, ,-35, ,
5, ,-35, ,
5, ,-35, ,
4, ,-35, ,
3, ,-35, ,
1, ,-35, ,
3, ,-35, ,
1, ,-35, ,
-2, ,-35, ,
0, ,-35, ,
0, ,-35, ,
0, ,-35, ,
-1, ,-35, ,
-1, ,-36, ,
0, ,-35, ,
0, ,-35, ,
-5, ,-35, ,
-2, ,-35, ,
-2, ,-35, ,
-1, ,-35, ,
-2, ,-35, ,
3, ,-35, ,
4, ,-35, ,
3, ,-35, ,
-1, ,-35, ,
3, ,-35, ,
1, ,-35, ,
3, ,-35, ,
-1, ,-35, ,
1, ,-35, ,
4, ,-35, ,
4, ,-35, ,
-2, ,-35, ,
0, ,-35, ,
3, ,-35, ,
0, ,-35, ,
0, ,-35, ,
5, ,-36, ,
6, ,-35, ,
6, ,-35, ,
1, ,-35, ,
4, ,-35, ,
4, ,-35, ,
4, ,-35, ,
-4, ,-35, ,
1, ,-35, ,
4, ,-35, ,
5, ,-35, ,
1, ,-35, ,
6, ,-35, ,
3, ,-35, ,
3, ,-35, ,
0, ,-35, ,
0, ,-35, ,
1, ,-35, ,
1, ,-35, ,
-1, ,-36, ,
4, ,-35, ,
4, ,-35, ,
5, ,-35, ,
-2, ,-35, ,
4, ,-36, ,
5, ,-35, ,
1, ,-35, ,
3, ,-35, ,
4, ,-35, ,
4, ,-35, ,
6, ,-35, ,
-1, ,-35, ,
0, ,-35, ,
3, ,-35, ,
5, ,-35, ,
-5, ,-35, ,
-2, ,-35, ,
5, ,-35, ,
4, ,-35, ,
0, ,-35, ,
5, ,-35, ,
4, ,-35, ,
4, ,-35, ,
-2, ,-36, ,
3, ,-35, ,
4, ,-35, ,
3, ,-35, ,
0, ,-35, ,
4, ,-36, ,
4, ,-35, ,
0, ,-35, ,
-5, ,-35, ,
0, ,-35, ,
-1, ,-35, ,
3, ,-36, ,
-1, ,-35, ,
0, ,-35, ,
4, ,-35, ,
1, ,-35, ,
-1, ,-35, ,
1, ,-35, ,
-1, ,-35, ,
0, ,-35, ,
-4, ,-35, ,
-1, ,-35, ,
0, ,-35, ,
1, ,-35, ,
3, ,-35, ,
1, ,-35, ,
3, ,-35, ,
0, ,-35, ,
-6, ,-35, ,
4, ,-35, ,
3, ,-35, ,
1, ,-35, ,
0, ,-35, ,
0, ,-35, ,
1, ,-35, ,
0, ,-35, ,
-4, ,-35, ,
0, ,-35, ,
0, ,-35, ,
-1, ,-35, ,
-5, ,-35, ,
0, ,-36, ,
0, ,-35, ,
-1, ,-35, ,
0, ,-35, ,
1, ,-35, ,
4, ,-36, ,
5, ,-35, ,
-2, ,-35, ,
1, ,-35, ,
1, ,-35, ,
0, ,-36, ,
0, ,-35, ,
0, ,-35, ,
3, ,-35, ,
1, ,-35, ,
-2, ,-35, ,
1, ,-35, ,
1, ,-35, ,
5, ,-35, ,
3, ,-35, ,
4, ,-35, ,
5, ,-35, ,
3, ,-35, ,
-1, ,-35, ,
1, ,-36, ,
0, ,-35, ,
-1, ,-35, ,
-1, ,-35, ,
4, ,-35, ,
3, ,-35, ,
5, ,-35, ,
-4, ,-36, ,
-2, ,-35, ,
0, ,-35, ,
-4, ,-35, ,
-4, ,-35, ,
0, ,-35, ,
1, ,-35, ,
0, ,-35, ,
-1, ,-35, ,
3, ,-35, ,
1, ,-36, ,
3, ,-35, ,
-4, ,-35, ,
0, ,-35, ,
1, ,-36, ,
0, ,-35, ,
-4, ,-35, ,
0, ,-35, ,
-1, ,-36, ,
-2, ,-35, ,
-5, ,-35, ,
-2, ,-35, ,
-2, ,-35, ,
-2, ,-36, ,
-5, ,-35, ,
0, ,-35, ,
-1, ,-35, ,
0, ,-35, ,
-2, ,-35, ,
0, ,-35, ,
3, ,-35, ,
-1, ,-35, ,
1, ,-35, ,
4, ,-35, ,
3, ,-35, ,
4, ,-35, ,
-1, ,-36, ,
0, ,-35, ,
1, ,-35, ,
-1, ,-35, ,
-6, ,-35, ,
-4, ,-36, ,
-4, ,-35, ,
-2, ,-35, ,
-2, ,-35, ,
0, ,-35, ,
1, ,-35, ,
5, ,-36, ,
-2, ,-35, ,
3, ,-35, ,
1, ,-35, ,
0, ,-35, ,
-4, ,-35, ,
0, ,-36, ,
0, ,-35, ,
0, ,-35, ,
-1, ,-35, ,
1, ,-35, ,
1, ,-35, ,
5, ,-35, ,
0, ,-35, ,
3, ,-35, ,
4, ,-35, ,
-1, ,-35, ,
-1, ,-35, ,
5, ,-35, ,
0, ,-35, ,
1, ,-35, ,
0, ,-35, ,
-1, ,-35, ,
1, ,-35, ,
-1, ,-35, ,
-1, ,-35, ,
3, ,-35, ,
3, ,-35, ,
3, ,-35, ,
-4, ,-30, ,
4, ,-22, ,
5, ,-12, ,
3, ,-2, ,
6, ,6, ,
4, ,13, ,
8, ,19, ,
8, ,25, ,
0, ,30, ,
8, ,33, ,
6, ,37, ,
6, ,39, ,
3, ,41, ,
5, ,45, ,
3, ,47, ,
4, ,48, ,
5, ,50, ,
5, ,51, ,
6, ,51, ,
8, ,54, ,
-1, ,54, ,
5, ,54, ,
4, ,55, ,
3, ,55, ,
0, ,54, ,
5, ,57, ,
4, ,56, ,
3, ,56, ,
-1, ,57, ,
0, ,57, ,
-4, ,55, ,
1, ,57, ,
-4, ,58, ,
4, ,57, ,
6, ,58, ,
3, ,58, ,
4, ,56, ,
6, ,59, ,
1, ,57, ,
4, ,57, ,
0, ,58, ,
1, ,58, ,
3, ,56, ,
4, ,59, ,
-1, ,58, ,
4, ,58, ,
4, ,58, ,
3, ,58, ,
-2, ,57, ,
5, ,59, ,
1, ,57, ,
4, ,58, ,
4, ,58, ,
3, ,58, ,
5, ,57, ,
8, ,59, ,
1, ,58, ,
5, ,57, ,
6, ,58, ,
6, ,58, ,
3, ,57, ,
10, ,59, ,
5, ,57, ,
9, ,57, ,
4, ,58, ,
3, ,58, ,
4, ,56, ,
3, ,58, ,
-5, ,57, ,
1, ,57, ,
3, ,58, ,
6, ,58, ,
1, ,57, ,
9, ,58, ,
8, ,57, ,
9, ,57, ,
1, ,58, ,
1, ,58, ,
1, ,56, ,
3, ,58, ,
-5, ,57, ,
1, ,57, ,
4, ,58, ,
4, ,58, ,
-2, ,56, ,
1, ,59, ,
0, ,57, ,
3, ,57, ,
0, ,58, ,
3, ,58, ,
4, ,56, ,
8, ,58, ,
3, ,57, ,
6, ,57, ,
5, ,57, ,
4, ,58, ,
0, ,57, ,
4, ,59, ,
4, ,57, ,
3, ,57, ,
0, ,58, ,
3, ,58, ,
3, ,56, ,
-1, ,57, ,
-2, ,57, ,
4, ,57, ,
1, ,57, ,
4, ,58, ,
0, ,56, ,
4, ,58, ,
4, ,57, ,
6, ,57, ,
-2, ,57, ,
1, ,58, ,
3, ,56, ,
3, ,58, ,
-2, ,58, ,
6, ,57, ,
8, ,57, ,
8, ,57, ,
3, ,56, ,
11, ,58, ,
5, ,56, ,
3, ,57, ,
1, ,58, ,
3, ,58, ,
3, ,56, ,
6, ,58, ,
0, ,58, ,
4, ,57, ,
5, ,57, ,
3, ,58, ,
-4, ,56, ,
4, ,58, ,
3, ,57, ,
1, ,57, ,
3, ,58, ,
6, ,57, ,
5, ,56, ,
6, ,58, ,
-2, ,57, ,
1, ,57, ,
4, ,58, ,
1, ,58, ,
-1, ,56, ,
6, ,58, ,
5, ,57, ,
1, ,57, ,
1, ,58, ,
1, ,58, ,
-2, ,56, ,
4, ,58, ,
-4, ,57, ,
0, ,57, ,
4, ,57, ,
4, ,58, ,
-1, ,56, ,
4, ,58, ,
3, ,56, ,
3, ,57, ,
-1, ,58, ,
4, ,58, ,
3, ,56, ,
4, ,58, ,
-1, ,58, ,
3, ,57, ,
1, ,57, ,
-1, ,57, ,
-4, ,56, ,
0, ,58, ,
-2, ,57, ,
-1, ,57, ,
-5, ,58, ,
1, ,58, ,
1, ,56, ,
3, ,58, ,
-1, ,57, ,
3, ,57, ,
4, ,57, ,
1, ,58, ,
-6, ,57, ,
0, ,58, ,
-2, ,56, ,
3, ,57, ,
-5, ,58, ,
-2, ,58, ,
-1, ,56, ,
-4, ,58, ,
-5, ,58, ,
-1, ,57, ,
-7, ,57, ,
-2, ,57, ,
-6, ,56, ,
4, ,58, ,
3, ,56, ,
4, ,57, ,
5, ,57, ,
4, ,58, ,
5, ,56, ,
4, ,58, ,
-4, ,58, ,
1, ,57, ,
-1, ,57, ,
-4, ,58, ,
-7, ,57, ,
6, ,59, ,
-6, ,57, ,
-9, ,57, ,
-7, ,58, ,
-4, ,58, ,
-1, ,56, ,
9, ,58, ,
4, ,57, ,
8, ,57, ,
0, ,57, ,
-1, ,58, ,
-5, ,57, ,
-2, ,58, ,
1, ,56, ,
3, ,57, ,
1, ,58, ,
5, ,58, ,
4, ,56, ,
3, ,58, ,
-4, ,58, ,
-2, ,57, ,
-2, ,57, ,
-6, ,58, ,
-7, ,56, ,
3, ,58, ,
-4, ,57, ,
0, ,57, ,
-1, ,58, ,
4, ,57, ,
5, ,56, ,
3, ,58, ,
-1, ,58, ,
3, ,57, ,
0, ,58, ,
-1, ,57, ,
-7, ,56, ,
0, ,58, ,
-2, ,56, ,
-4, ,57, ,
-6, ,58, ,
-2, ,58, ,
-4, ,56, ,
1, ,58, ,
-4, ,57, ,
0, ,57, ,
-2, ,57, ,
-2, ,58, ,
-7, ,56, ,
-2, ,58, ,
-1, ,56, ,
0, ,57, ,
-4, ,57, ,
0, ,58, ,
3, ,56, ,
5, ,58, ,
-1, ,57, ,
5, ,57, ,
1, ,57, ,
-1, ,57, ,
-6, ,57, ,
-4, ,58, ,
-4, ,57, ,
0, ,57, ,
-2, ,58, ,
1, ,57, ,
1, ,56, ,
3, ,58, ,
-4, ,57, ,
0, ,57, ,
3, ,57, ,
-1, ,58, ,
-4, ,56, ,
1, ,58, ,
3, ,57, ,
4, ,57, ,
1, ,58, ,
4, ,58, ,
4, ,56, ,
4, ,58, ,
-2, ,57, ,
-1, ,57, ,
1, ,57, ,
0, ,57, ,
-2, ,55, ,
4, ,58, ,
-4, ,56, ,
0, ,57, ,
-6, ,57, ,
-2, ,58, ,
-2, ,56, ,
1, ,58, ,
1, ,57, ,
5, ,57, ,
8, ,57, ,
1, ,58, ,
4, ,56, ,
9, ,58, ,
-2, ,56, ,
4, ,57, ,
-1, ,58, ,
3, ,58, ,
3, ,56, ,
5, ,58, ,
-1, ,58, ,
5, ,57, ,
3, ,57, ,
3, ,58, ,
0, ,56, ,
5, ,58, ,
5, ,57, ,
4, ,57, ,
1, ,58, ,
4, ,58, ,
0, ,56, ,
1, ,58, ,
-2, ,57, ,
1, ,57, ,
1, ,57, ,
-1, ,57, ,
-4, ,57, ,
3, ,58, ,
3, ,56, ,
4, ,57, ,
1, ,58, ,
1, ,58, ,
3, ,56, ,
3, ,58, ,
-5, ,57, ,
4, ,57, ,
3, ,57, ,
3, ,58, ,
3, ,56, ,
8, ,58, ,
4, ,56, ,
1, ,57, ,
-2, ,57, ,
3, ,58, ,
0, ,56, ,
5, ,58, ,
0, ,57, ,
4, ,57, ,
5, ,57, ,
3, ,57, ,
0, ,56, ,
4, ,58, ,
1, ,57, ,
5, ,57, ,
0, ,58, ,
5, ,57, ,
4, ,56, ,
4, ,58, ,
-2, ,57, ,
5, ,57, ,
5, ,57, ,
8, ,57, ,
4, ,56, ,
11, ,58, ,
8, ,57, ,
5, ,57, ,
3, ,57, ,
3, ,58, ,
4, ,56, ,
6, ,58, ,
1, ,58, ,
6, ,57, ,
8, ,57, ,
6, ,58, ,
1, ,56, ,
9, ,58, ,
5, ,56, ,
4, ,57, ,
1, ,58, ,
4, ,57, ,
4, ,56, ,
8, ,58, ,
1, ,57, ,
6, ,57, ,
5, ,57, ,
6, ,58, ,
3, ,56, ,
5, ,58, ,
5, ,57, ,
3, ,57, ,
1, ,57, ,
3, ,58, ,
-2, ,55, ,
3, ,58, ,
-5, ,57, ,
1, ,57, ,
4, ,57, ,
0, ,58, ,
-2, ,56, ,
0, ,58, ,
0, ,57, ,
3, ,57, ,
0, ,58, ,
3, ,58, ,
4, ,56, ,
5, ,58, ,
0, ,57, ,
4, ,57, ,
5, ,57, ,
1, ,57, ,
-2, ,56, ,
5, ,58, ,
3, ,57, ,
3, ,57, ,
-2, ,58, ,
1, ,58, ,
-1, ,56, ,
4, ,58, ,
0, ,58, ,
3, ,57, ,
6, ,57, ,
8, ,58, ,
3, ,56, ,
8, ,58, ,
4, ,56, ,
3, ,57, ,
-1, ,58, ,
-1, ,57, ,
0, ,56, ,
1, ,58, ,
-4, ,57, ,
4, ,57, ,
1, ,57, ,
1, ,57, ,
-2, ,55, ,
1, ,58, ,
3, ,56, ,
3, ,57, ,
3, ,58, ,
6, ,58, ,
5, ,55, ,
6, ,58, ,
-2, ,57, ,
4, ,57, ,
1, ,57, ,
1, ,58, ,
0, ,56, ,
8, ,58, ,
5, ,56, ,
4, ,57, ,
1, ,58, ,
5, ,58, ,
1, ,56, ,
3, ,58, ,
-5, ,57, ,
1, ,57, ,
0, ,57, ,
1, ,57, ,
-1, ,56, ,
1, ,58, ,
4, ,56, ,
1, ,57, ,
0, ,58, ,
3, ,58, ,
0, ,56, ,
1, ,58, ,
-1, ,57, ,
1, ,57, ,
1, ,57, ,
3, ,57, ,
-4, ,56, ,
4, ,58, ,
-4, ,56, ,
0, ,57, ,
0, ,58, ,
1, ,58, ,
4, ,55, ,
1, ,58, ,
-5, ,57, ,
3, ,57, ,
-1, ,57, ,
0, ,58, ,
-5, ,56, ,
0, ,58, ,
0, ,57, ,
-1, ,57, ,
-4, ,58, ,
-2, ,58, ,
-6, ,56, ,
-4, ,58, ,
-11, ,57, ,
-5, ,57, ,
-11, ,57, ,
-12, ,58, ,
-17, ,56, ,
-10, ,59, ,
-14, ,56, ,
-10, ,57, ,
-5, ,57, ,
3, ,57, ,
10, ,56, ,
11, ,58, ,
9, ,57, ,
13, ,57, ,
9, ,57, ,
4, ,57, ,
-5, ,56, ,
-1, ,58, ,
-4, ,56, ,
-7, ,57, ,
-6, ,58, ,
-2, ,58, ,
-4, ,55, ,
1, ,58, ,
-1, ,57, ,
1, ,57, ,
1, ,57, ,
-2, ,58, ,
-6, ,56, ,
-4, ,58, ,
-5, ,57, ,
-1, ,57, ,
-1, ,57, ,
4, ,58, ,
4, ,56, ,
8, ,58, ,
1, ,57, ,
3, ,57, ,
0, ,57, ,
0, ,57, ,
-9, ,56, ,
-2, ,58, ,
-6, ,57, ,
-6, ,57, ,
-9, ,58, ,
-4, ,58, ,
-2, ,55, ,
0, ,58, ,
-4, ,57, ,
1, ,57, ,
6, ,57, ,
5, ,58, ,
0, ,55, ,
5, ,58, ,
0, ,56, ,
-1, ,57, ,
-6, ,57, ,
-6, ,58, ,
-4, ,56, ,
-2, ,59, ,
-5, ,58, ,
1, ,57, ,
0, ,58, ,
3, ,58, ,
-4, ,56, ,
-1, ,58, ,
-2, ,57, ,
-2, ,57, ,
-5, ,58, ,
-2, ,58, ,
-1, ,55, ,
-1, ,58, ,
-5, ,57, ,
1, ,57, ,
0, ,57, ,
0, ,57, ,
-4, ,56, ,
0, ,58, ,
-1, ,56, ,
-1, ,57, ,
-2, ,58, ,
1, ,57, ,
3, ,56, ,
3, ,58, ,
-2, ,57, ,
1, ,57, ,
3, ,57, ,
0, ,58, ,
0, ,56, ,
3, ,58, ,
3, ,57, ,
4, ,57, ,
0, ,58, ,
5, ,58, ,
1, ,56, ,
5, ,58, ,
0, ,57, ,
1, ,57, ,
4, ,57, ,
1, ,58, ,
0, ,56, ,
5, ,58, ,
1, ,56, ,
4, ,57, ,
0, ,58, ,
4, ,58, ,
3, ,56, ,
4, ,58, ,
3, ,58, ,
5, ,57, ,
6, ,57, ,
3, ,58, ,
-1, ,56, ,
4, ,59, ,
0, ,57, ,
3, ,57, ,
3, ,58, ,
3, ,58, ,
3, ,55, ,
9, ,58, ,
4, ,57, ,
8, ,57, ,
6, ,57, ,
3, ,57, ,
-4, ,56, ,
4, ,58, ,
3, ,56, ,
3, ,57, ,
3, ,57, ,
4, ,58, ,
5, ,55, ,
5, ,58, ,
0, ,57, ,
5, ,57, ,
5, ,57, ,
6, ,58, ,
5, ,56, ,
8, ,58, ,
8, ,56, ,
4, ,57, ,
-1, ,58, ,
3, ,58, ,
1, ,56, ,
4, ,58, ,
0, ,57, ,
4, ,57, ,
6, ,57, ,
1, ,58, ,
-4, ,57, ,
1, ,58, ,
0, ,57, ,
3, ,57, ,
-1, ,58, ,
1, ,58, ,
3, ,56, ,
5, ,58, ,
3, ,57, ,
4, ,57, ,
4, ,57, ,
3, ,58, ,
0, ,56, ,
8, ,58, ,
1, ,56, ,
4, ,57, ,
1, ,57, ,
3, ,58, ,
3, ,56, ,
5, ,58, ,
1, ,58, ,
6, ,57, ,
8, ,57, ,
9, ,58, ,
1, ,56, ,
9, ,58, ,
5, ,56, ,
4, ,57, ,
3, ,58, ,
3, ,58, ,
3, ,56, ,
5, ,58, ,
3, ,57, ,
4, ,57, ,
1, ,57, ,
3, ,58, ,
1, ,56, ,
6, ,58, ,
5, ,57, ,
6, ,57, ,
1, ,57, ,
5, ,58, ,
3, ,56, ,
8, ,58, ,
1, ,57, ,
8, ,57, ,
9, ,57, ,
8, ,58, ,
4, ,56, ,
9, ,58, ,
4, ,57, ,
4, ,57, ,
0, ,58, ,
5, ,58, ,
1, ,56, ,
5, ,58, ,
-2, ,57, ,
4, ,57, ,
4, ,57, ,
3, ,57, ,
1, ,56, ,
8, ,58, ,
6, ,57, ,
8, ,57, ,
6, ,57, ,
9, ,58, ,
6, ,55, ,
5, ,58, ,
-2, ,57, ,
1, ,57, ,
4, ,57, ,
4, ,58, ,
-1, ,56, ,
8, ,58, ,
4, ,56, ,
6, ,57, ,
1, ,57, ,
4, ,58, ,
0, ,56, ,
1, ,58, ,
-1, ,57, ,
5, ,57, ,
6, ,57, ,
3, ,58, ,
-4, ,56, ,
3, ,58, ,
1, ,57, ,
3, ,57, ,
0, ,57, ,
4, ,58, ,
3, ,55, ,
6, ,58, ,
4, ,57, ,
8, ,57, ,
6, ,57, ,
8, ,58, ,
1, ,56, ,
9, ,58, ,
9, ,57, ,
4, ,57, ,
4, ,58, ,
4, ,58, ,
1, ,56, ,
3, ,59, ,
-2, ,57, ,
1, ,57, ,
1, ,57, ,
1, ,57, ,
-1, ,57, ,
5, ,58, ,
8, ,56, ,
9, ,57, ,
8, ,58, ,
6, ,58, ,
1, ,56, ,
6, ,58, ,
1, ,58, ,
-5, ,57, ,
0, ,58, ,
3, ,57, ,
-5, ,56, ,
5, ,58, ,
3, ,56, ,
4, ,57, ,
-2, ,57, ,
-1, ,58, ,
-1, ,56, ,
3, ,58, ,
-4, ,57, ,
1, ,57, ,
0, ,57, ,
-2, ,57, ,
-7, ,56, ,
1, ,58, ,
-6, ,56, ,
-4, ,57, ,
-4, ,57, ,
1, ,57, ,
-1, ,55, ,
3, ,58, ,
-6, ,57, ,
-2, ,57, ,
-4, ,57, ,
-4, ,58, ,
-5, ,56, ,
1, ,56, ,
0, ,48, ,
-1, ,38, ,
-2, ,29, ,
-5, ,19, ,
-11, ,12, ,
-11, ,6, ,
-16, ,0, ,
-9, ,-5, ,
-11, ,-9, ,
-10, ,-12, ,
-16, ,-17, ,
-7, ,-19, ,
-11, ,-21, ,
-10, ,-23, ,
-10, ,-25, ,
-9, ,-26, ,
-11, ,-28, ,
-9, ,-29, ,
-12, ,-30, ,
-6, ,-30, ,
-5, ,-31, ,
-4, ,-31, ,
-10, ,-32, ,
-2, ,-32, ,
-5, ,-33, ,
-9, ,-33, ,
-10, ,-33, ,
-5, ,-35, ,
-2, ,-35, ,
-2, ,-35, ,
-7, ,-35, ,
-5, ,-35, ,
-2, ,-36, ,
-6, ,-35, ,
-10, ,-36, ,
-5, ,-36, ,
-4, ,-36, ,
-4, ,-36, ,
-4, ,-36, ,
-1, ,-36, ,
0, ,-36, ,
-2, ,-36, ,
-6, ,-36, ,
-5, ,-36, ,
-2, ,-36, ,
-4, ,-36, ,
-7, ,-36, ,
0, ,-36, ,
-2, ,-36, ,
-1, ,-36, ,
-4, ,-36, ,
-1, ,-36, ,
-1, ,-36, ,
-2, ,-36, ,
-6, ,-36, ,
-4, ,-36, ,
0, ,-36, ,
0, ,-36, ,
-4, ,-36, ,
0, ,-36, ,
0, ,-36, ,
-4, ,-35, ,
-4, ,-36, ,
-2, ,-36, ,
-1, ,-36, ,
1, ,-36, ,
-4, ,-36, ,
1, ,-35, ,
3, ,-36, ,
-2, ,-36, ,
-6, ,-36, ,
-4, ,-36, ,
-7, ,-36, ,
-6, ,-36, ,
-9, ,-35, ,
-5, ,-35, ,
-2, ,-36, ,
0, ,-36, ,
-6, ,-36, ,
0, ,-35, ,
3, ,-36, ,
3, ,-35, ,
0, ,-36, ,
4, ,-36, ,
3, ,-35, ,
1, ,-36, ,
0, ,-35, ,
1, ,-36, ,
1, ,-36, ,
1, ,-35, ,
-2, ,-36, ,
0, ,-35, ,
0, ,-35, ,
0, ,-35, ,
-4, ,-35, ,
0, ,-36, ,
-1, ,-35, ,
0, ,-36, ,
-2, ,-35, ,
3, ,-36, ,
4, ,-36, ,
1, ,-36, ,
1, ,-36, ,
3, ,-35, ,
5, ,-36, ,
5, ,-35, ,
0, ,-35, ,
8, ,-36, ,
1, ,-36, ,
1, ,-35, ,
-1, ,-35, ,
-2, ,-35, ,
1, ,-35, ,
5, ,-36, ,
3, ,-35, ,
6, ,-35, ,
8, ,-35, ,
4, ,-36, ,
0, ,-35, ,
5, ,-36, ,
3, ,-35, ,
3, ,-35, ,
3, ,-35, ,
3, ,-35, ,
6, ,-35, ,
8, ,-35, ,
3, ,-35, ,
4, ,-35, ,
4, ,-35, ,
4, ,-35, ,
1, ,-35, ,
5, ,-36, ,
6, ,-35, ,
3, ,-35, ,
1, ,-35, ,
4, ,-35, ,
5, ,-35, ,
6, ,-36, ,
1, ,-35, ,
6, ,-35, ,
8, ,-35, ,
5, ,-35, ,
4, ,-36, ,
8, ,-36, ,
4, ,-35, ,
3, ,-35, ,
3, ,-35, ,
1, ,-35, ,
4, ,-35, ,
3, ,-35, ,
1, ,-36, ,
5, ,-35, ,
6, ,-35, ,
5, ,-35, ,
1, ,-35, ,
5, ,-35, ,
5, ,-36, ,
6, ,-35, ,
4, ,-35, ,
5, ,-35, ,
6, ,-35, ,
6, ,-36, ,
3, ,-35, ,
6, ,-35, ,
5, ,-35, ,
4, ,-35, ,
-1, ,-35, ,
6, ,-35, ,
3, ,-35, ,
0, ,-36, ,
3, ,-35, ,
5, ,-35, ,
1, ,-36, ,
6, ,-35, ,
1, ,-35, ,
1, ,-35, ,
3, ,-35, ,
4, ,-35, ,
1, ,-35, ,
5, ,-35, ,
6, ,-35, ,
5, ,-35, ,
1, ,-35, ,
4, ,-35, ,
6, ,-35, ,
9, ,-35, ,
5, ,-36, ,
10, ,-35, ,
10, ,-35, ,
9, ,-35, ,
8, ,-35, ,
9, ,-35, ,
6, ,-35, ,
5, ,-35, ,
4, ,-35, ,
3, ,-35, ,
5, ,-35, ,
5, ,-35, ,
1, ,-35, ,
4, ,-35, ,
8, ,-35, ,
5, ,-35, ,
5, ,-35, ,
8, ,-35, ,
5, ,-35, ,
4, ,-35, ,
5, ,-35, ,
8, ,-35, ,
5, ,-35, ,
9, ,-35, ,
-1, ,-35, ,
1, ,-35, ,
1, ,-35, ,
0, ,-35, ,
-4, ,-35, ,
3, ,-35, ,
3, ,-35, ,
5, ,-35, ,
4, ,-35, ,
3, ,-35, ,
5, ,-35, ,
3, ,-35, ,
-6, ,-36, ,
0, ,-35, ,
3, ,-35, ,
1, ,-35, ,
-1, ,-35, ,
6, ,-36, ,
3, ,-35, ,
3, ,-35, ,
-1, ,-35, ,
-1, ,-35, ,
-4, ,-35, ,
-2, ,-35, ,
-6, ,-35, ,
-1, ,-35, ,
1, ,-35, ,
0, ,-35, ,
-4, ,-35, ,
1, ,-35, ,
-1, ,-35, ,
0, ,-35, ,
1, ,-35, ,
0, ,-35, ,
3, ,-35, ,
1, ,-35, ,
-4, ,-36, ,
-1, ,-35, ,
-2, ,-36, ,
-2, ,-35, ,
-5, ,-35, ,
0, ,-36, ,
1, ,-35, ,
0, ,-35, ,
-1, ,-35, ,
-1, ,-35, ,
-1, ,-35, ,
-1, ,-35, ,
-6, ,-35, ,
-1, ,-35, ,
0, ,-35, ,
-2, ,-35, ,
-6, ,-35, ,
1, ,-35, ,
1, ,-35, ,
3, ,-35, ,
1, ,-35, ,
-1, ,-35, ,
-1, ,-35, ,
-10, ,-35, ,
-6, ,-36, ,
0, ,-35, ,
-4, ,-35, ,
1, ,-35, ,
-1, ,-35, ,
1, ,-36, ,
-1, ,-35, ,
0, ,-35, ,
-2, ,-35, ,
-2, ,-35, ,
-2, ,-35, ,
-2, ,-35, ,
-7, ,-35, ,
-2, ,-35, ,
0, ,-35, ,
-5, ,-35, ,
-7, ,-35, ,
-1, ,-35, ,
-2, ,-35, ,
0, ,-35, ,
0, ,-35, ,
0, ,-35, ,
1, ,-35, ,
1, ,-35, ,
-5, ,-35, ,
-2, ,-35, ,
-1, ,-35, ,
-4, ,-35, ,
-9, ,-35, ,
-1, ,-35, ,
0, ,-35, ,
0, ,-35, ,
-4, ,-35, ,
0, ,-35, ,
0, ,-35, ,
3, ,-35, ,
-6, ,-35, ,
-2, ,-35, ,
-1, ,-35, ,
-4, ,-35, ,
-7, ,-35, ,
-1, ,-35, ,
-4, ,-35, ,
-5, ,-35, ,
-9, ,-35, ,
-7, ,-35, ,
-5, ,-35, ,
-4, ,-35, ,
-9, ,-35, ,
-1, ,-35, ,
-2, ,-35, ,
-1, ,-35, ,
-2, ,-35, ,
-1, ,-35, ,
0, ,-35, ,
-2, ,-35, ,
-4, ,-35, ,
-2, ,-35, ,
-1, ,-35, ,
-1, ,-35, ,
-4, ,-35, ,
1, ,-35, ,
3, ,-35, ,
-1, ,-35, ,
-5, ,-35, ,
-4, ,-35, ,
-5, ,-35, ,
-1, ,-35, ,
-4, ,-35, ,
-1, ,-35, ,
-2, ,-36, ,
3, ,-35, ,
-2, ,-35, ,
-1, ,-35, ,
4, ,-35, ,
3, ,-35, ,
0, ,-35, ,
5, ,-36, ,
3, ,-35, ,
3, ,-35, ,
0, ,-35, ,
0, ,-35, ,
-1, ,-35, ,
0, ,-35, ,
-2, ,-35, ,
0, ,-35, ,
3, ,-35, ,
1, ,-35, ,
-4, ,-35, ,
3, ,-36, ,
-1, ,-36, ,
0, ,-35, ,
0, ,-35, ,
3, ,-35, ,
4, ,-35, ,
3, ,-35, ,
0, ,-35, ,
4, ,-35, ,
4, ,-35, ,
4, ,-35, ,
-2, ,-35, ,
3, ,-36, ,
0, ,-35, ,
0, ,-35, ,
-4, ,-35, ,
1, ,-35, ,
1, ,-35, ,
4, ,-35, ,
0, ,-35, ,
4, ,-35, ,
5, ,-35, ,
1, ,-35, ,
-1, ,-35, ,
1, ,-35, ,
-1, ,-35, ,
0, ,-35, ,
-4, ,-35, ,
-1, ,-35, ,
0, ,-35, ,
4, ,-35, ,
-2, ,-35, ,
3, ,-35, ,
5, ,-35, ,
3, ,-35, ,
-1, ,-35, ,
1, ,-35, ,
3, ,-35, ,
3, ,-35, ,
1, ,-35, ,
3, ,-35, ,
4, ,-35, ,
5, ,-35, ,
0, ,-35, ,
1, ,-35, ,
6, ,-35, ,
3, ,-35, ,
1, ,-35, ,
5, ,-35, ,
4, ,-35, ,
5, ,-35, ,
3, ,-35, ,
3, ,-35, ,
5, ,-35, ,
5, ,-35, ,
3, ,-35, ,
4, ,-35, ,
5, ,-35, ,
4, ,-35, ,
-4, ,-35, ,
0, ,-35, ,
0, ,-35, ,
-1, ,-35, ,
-1, ,-35, ,
4, ,-35, ,
4, ,-35, ,
5, ,-35, ,
9, ,-35, ,
5, ,-35, ,
8, ,-35, ,
6, ,-35, ,
3, ,-35, ,
4, ,-35, ,
4, ,-35, ,
5, ,-35, ,
4, ,-35, ,
6, ,-35, ,
5, ,-35, ,
5, ,-35, ,
-1, ,-36, ,
4, ,-35, ,
8, ,-35, ,
5, ,-35, ,
3, ,-35, ,
6, ,-36, ,
6, ,-35, ,
3, ,-35, ,
-1, ,-35, ,
4, ,-35, ,
3, ,-35, ,
4, ,-35, ,
-1, ,-35, ,
4, ,-35, ,
6, ,-35, ,
0, ,-35, ,
-1, ,-35, ,
0, ,-35, ,
3, ,-35, ,
0, ,-35, ,
-2, ,-35, ,
5, ,-35, ,
3, ,-35, ,
3, ,-35, ,
0, ,-35, ,
1, ,-35, ,
4, ,-35, ,
3, ,-35, ,
-1, ,-35, ,
4, ,-35, ,
6, ,-35, ,
6, ,-35, ,
8, ,-35, ,
4, ,-35, ,
3, ,-35, ,
0, ,-35, ,
-7, ,-35, ,
-2, ,-35, ,
0, ,-35, ,
1, ,-35, ,
-4, ,-35, ,
0, ,-35, ,
-1, ,-35, ,
4, ,-35, ,
4, ,-35, ,
4, ,-35, ,
6, ,-35, ,
4, ,-35, ,
-2, ,-35, ,
1, ,-35, ,
3, ,-35, ,
4, ,-35, ,
0, ,-35, ,
5, ,-35, ,
5, ,-35, ,
0, ,-35, ,
-1, ,-35, ,
-2, ,-35, ,
-5, ,-35, ,
-1, ,-35, ,
-5, ,-35, ,
3, ,-35, ,
8, ,-35, ,
3, ,-35, ,
3, ,-35, ,
4, ,-35, ,
1, ,-35, ,
4, ,-35, ,
3, ,-35, ,
8, ,-35, ,
8, ,-35, ,
6, ,-35, ,
1, ,-35, ,
0, ,-35, ,
0, ,-35, ,
-2, ,-35, ,
-2, ,-35, ,
1, ,-36, ,
1, ,-35, ,
3, ,-35, ,
-1, ,-35, ,
1, ,-35, ,
-6, ,-35, ,
-6, ,-35, ,
-12, ,-35, ,
-6, ,-35, ,
-1, ,-35, ,
-2, ,-35, ,
-2, ,-35, ,
5, ,-35, ,
3, ,-35, ,
4, ,-35, ,
0, ,-35, ,
-1, ,-35, ,
-1, ,-35, ,
1, ,-35, ,
-6, ,-35, ,
-1, ,-35, ,
-1, ,-35, ,
-1, ,-35, ,
-5, ,-35, ,
0, ,-35, ,
1, ,-35, ,
-1, ,-35, ,
0, ,-35, ,
-1, ,-35, ,
0, ,-35, ,
1, ,-36, ,
-4, ,-36, ,
0, ,-35, ,
0, ,-35, ,
-2, ,-35, ,
-7, ,-35, ,
0, ,-35, ,
0, ,-35, ,
-1, ,-35, ,
-1, ,-35, ,
-1, ,-35, ,
-1, ,-35, ,
-2, ,-35, ,
-9, ,-36, ,
-2, ,-35, ,
-1, ,-35, ,
0, ,-35, ,
-2, ,-35, ,
4, ,-36, ,
4, ,-35, ,
-1, ,-35, ,
-2, ,-35, ,
0, ,-35, ,
0, ,-35, ,
3, ,-35, ,
-5, ,-36, ,
0, ,-35, ,
1, ,-35, ,
-2, ,-35, ,
-5, ,-35, ,
0, ,-35, ,
-1, ,-35, ,
0, ,-35, ,
-2, ,-35, ,
-1, ,-35, ,
-1, ,-35, ,
0, ,-35, ,
-2, ,-35, ,
1, ,-35, ,
4, ,-35, ,
3, ,-35, ,
0, ,-35, ,
4, ,-36, ,
1, ,-35, ,
3, ,-35, ,
1, ,-35, ,
0, ,-35, ,
-1, ,-35, ,
1, ,-35, ,
-2, ,-35, ,
-2, ,-35, ,
1, ,-35, ,
-2, ,-35, ,
-7, ,-35, ,
1, ,-35, ,
-2, ,-35, ,
-1, ,-35, ,
-1, ,-35, ,
1, ,-35, ,
4, ,-35, ,
4, ,-35, ,
0, ,-35, ,
3, ,-35, ,
-1, ,-35, ,
-1, ,-35, ,
-4, ,-35, ,
1, ,-35, ,
3, ,-35, ,
0, ,-35, ,
-2, ,-35, ,
-1, ,-35, ,
-1, ,-35, ,
3, ,-35, ,
-4, ,-35, ,
1, ,-35, ,
5, ,-35, ,
3, ,-35, ,
3, ,-35, ,
1, ,-35, ,
-2, ,-35, ,
-4, ,-35, ,
-6, ,-35, ,
-1, ,-35, ,
-1, ,-35, ,
3, ,-35, ,
-2, ,-36, ,
3, ,-35, ,
1, ,-35, ,
0, ,-35, ,
-5, ,-35, ,
1, ,-35, ,
1, ,-35, ,
1, ,-35, ,
-1, ,-35, ,
1, ,-35, ,
3, ,-35, ,
4, ,-35, ,
-1, ,-35, ,
0, ,-35, ,
1, ,-35, ,
3, ,-35, ,
-1, ,-35, ,
5, ,-35, ,
4, ,-35, ,
5, ,-35, ,
4, ,-35, ,
