src/vary_am2_1411/temp0000399.CSV

Format,1.0B,
Memory Length,10000,Memory Length,10000,
IntpDistance,0,IntpDistance,0,
Trigger Address,4999,Trigger Address,4999,
Trigger Level,-1.000E+00,Trigger Level,-1.000E+00,
Source,CH1,Source,CH2,
Vertical Units,V,Vertical Units,V,
Vertical Units Div,0,Vertical Units Div,0,
Vertical Units Extend Div,16,Vertical Units Extend Div,16,
Label,,Label,,
Probe Type,0,Probe Type,0,
Probe Ratio,1.000e+01,Probe Ratio,1.000e+00,
Vertical Scale,2.000e-02,Vertical Scale,1.000e+00,
Vertical Position,-5.120e-02,Vertical Position,2.000e-01,
Horizontal Units,S,Horizontal Units,S,
Horizontal Scale,1.000E-05,Horizontal Scale,1.000E-05,
Horizontal Position,0.000E+00,Horizontal Position,0.000E+00,
Horizontal Mode,Main,Horizontal Mode,Main,
SincET Mode,Real Time,SincET Mode,Real Time,
Sampling Period,1.000e-08,Sampling Period,1.000e-08,
Horizontal Old Scale,1.000E-05,Horizontal Old Scale,1.000E-05,
Horizontal Old Position,0.000E+00,Horizontal Old Position,0.000E+00,
Firmware,V1.23,Firmware,V1.23,
Mode,Fast,Mode,Fast,
Waveform Data,,Waveform Data,,
1, ,-55, ,
1, ,-55, ,
1, ,-55, ,
0, ,-55, ,
4, ,-55, ,
1, ,-55, ,
4, ,-55, ,
5, ,-55, ,
3, ,-55, ,
-4, ,-55, ,
3, ,-54, ,
-1, ,-56, ,
0, ,-55, ,
-2, ,-55, ,
1, ,-56, ,
1, ,-56, ,
4, ,-55, ,
-2, ,-56, ,
0, ,-55, ,
1, ,-55, ,
-1, ,-56, ,
-2, ,-55, ,
1, ,-54, ,
3, ,-56, ,
-1, ,-55, ,
-2, ,-55, ,
0, ,-56, ,
0, ,-55, ,
5, ,-54, ,
1, ,-56, ,
6, ,-55, ,
6, ,-55, ,
3, ,-55, ,
0, ,-56, ,
3, ,-55, ,
-2, ,-56, ,
0, ,-55, ,
-1, ,-55, ,
0, ,-55, ,
0, ,-55, ,
4, ,-54, ,
-1, ,-55, ,
0, ,-55, ,
1, ,-55, ,
0, ,-55, ,
-5, ,-55, ,
4, ,-55, ,
3, ,-56, ,
3, ,-55, ,
1, ,-55, ,
1, ,-55, ,
0, ,-56, ,
3, ,-55, ,
-4, ,-56, ,
3, ,-56, ,
1, ,-55, ,
0, ,-56, ,
-1, ,-55, ,
4, ,-55, ,
1, ,-56, ,
-2, ,-55, ,
0, ,-55, ,
-1, ,-55, ,
-1, ,-56, ,
-1, ,-55, ,
-7, ,-55, ,
-1, ,-55, ,
0, ,-55, ,
-2, ,-55, ,
-4, ,-55, ,
0, ,-55, ,
0, ,-56, ,
-4, ,-55, ,
-4, ,-55, ,
-1, ,-55, ,
0, ,-56, ,
3, ,-54, ,
-2, ,-55, ,
3, ,-55, ,
4, ,-55, ,
-4, ,-55, ,
-5, ,-55, ,
3, ,-55, ,
-2, ,-56, ,
-1, ,-55, ,
-4, ,-55, ,
-1, ,-55, ,
-2, ,-55, ,
-1, ,-54, ,
-7, ,-55, ,
-4, ,-55, ,
-2, ,-55, ,
-2, ,-56, ,
-5, ,-55, ,
1, ,-55, ,
1, ,-56, ,
0, ,-55, ,
-1, ,-55, ,
0, ,-55, ,
-2, ,-55, ,
-2, ,-55, ,
-6, ,-56, ,
-2, ,-55, ,
1, ,-55, ,
-1, ,-55, ,
-7, ,-55, ,
0, ,-55, ,
-1, ,-56, ,
-1, ,-55, ,
-2, ,-55, ,
-1, ,-55, ,
0, ,-56, ,
-1, ,-55, ,
-5, ,-55, ,
-2, ,-56, ,
-1, ,-55, ,
-2, ,-55, ,
-6, ,-55, ,
3, ,-54, ,
1, ,-56, ,
0, ,-55, ,
-1, ,-55, ,
-1, ,-55, ,
0, ,-56, ,
0, ,-55, ,
-5, ,-55, ,
1, ,-55, ,
0, ,-56, ,
-2, ,-55, ,
-4, ,-56, ,
0, ,-55, ,
1, ,-56, ,
-1, ,-55, ,
1, ,-55, ,
0, ,-55, ,
0, ,-56, ,
0, ,-55, ,
-9, ,-55, ,
-2, ,-55, ,
1, ,-55, ,
-1, ,-55, ,
-1, ,-55, ,
3, ,-55, ,
3, ,-56, ,
0, ,-55, ,
-2, ,-55, ,
-1, ,-55, ,
-2, ,-55, ,
0, ,-54, ,
-4, ,-56, ,
0, ,-55, ,
3, ,-55, ,
0, ,-55, ,
-2, ,-55, ,
3, ,-55, ,
-1, ,-56, ,
1, ,-55, ,
-1, ,-55, ,
0, ,-55, ,
3, ,-56, ,
1, ,-55, ,
-4, ,-56, ,
0, ,-55, ,
0, ,-55, ,
-1, ,-56, ,
-5, ,-55, ,
1, ,-54, ,
1, ,-56, ,
1, ,-55, ,
-1, ,-55, ,
-1, ,-56, ,
0, ,-55, ,
0, ,-54, ,
-6, ,-55, ,
0, ,-55, ,
0, ,-55, ,
0, ,-55, ,
-1, ,-55, ,
4, ,-54, ,
3, ,-56, ,
1, ,-55, ,
1, ,-55, ,
3, ,-55, ,
3, ,-56, ,
5, ,-55, ,
0, ,-56, ,
4, ,-55, ,
4, ,-55, ,
1, ,-55, ,
-4, ,-55, ,
3, ,-54, ,
1, ,-56, ,
0, ,-55, ,
1, ,-55, ,
3, ,-55, ,
3, ,-55, ,
8, ,-55, ,
0, ,-56, ,
8, ,-55, ,
8, ,-55, ,
1, ,-56, ,
0, ,-55, ,
4, ,-55, ,
0, ,-56, ,
1, ,-55, ,
1, ,-55, ,
3, ,-55, ,
1, ,-55, ,
5, ,-55, ,
0, ,-56, ,
0, ,-55, ,
3, ,-55, ,
0, ,-55, ,
-1, ,-55, ,
8, ,-55, ,
5, ,-56, ,
5, ,-55, ,
4, ,-55, ,
3, ,-55, ,
4, ,-56, ,
6, ,-54, ,
-4, ,-56, ,
1, ,-55, ,
3, ,-55, ,
1, ,-55, ,
-2, ,-55, ,
5, ,-55, ,
3, ,-56, ,
4, ,-55, ,
-1, ,-55, ,
0, ,-55, ,
4, ,-56, ,
6, ,-54, ,
1, ,-55, ,
5, ,-56, ,
6, ,-55, ,
4, ,-56, ,
-1, ,-55, ,
3, ,-55, ,
-1, ,-56, ,
-1, ,-55, ,
0, ,-55, ,
1, ,-56, ,
5, ,-55, ,
8, ,-54, ,
1, ,-55, ,
4, ,-55, ,
3, ,-55, ,
0, ,-55, ,
-2, ,-55, ,
3, ,-55, ,
-1, ,-56, ,
0, ,-55, ,
0, ,-55, ,
1, ,-55, ,
1, ,-55, ,
3, ,-55, ,
0, ,-56, ,
6, ,-55, ,
6, ,-55, ,
1, ,-56, ,
0, ,-56, ,
4, ,-54, ,
3, ,-56, ,
3, ,-55, ,
1, ,-55, ,
3, ,-55, ,
4, ,-56, ,
9, ,-54, ,
0, ,-56, ,
4, ,-55, ,
5, ,-55, ,
0, ,-55, ,
-1, ,-55, ,
6, ,-55, ,
1, ,-56, ,
3, ,-55, ,
0, ,-55, ,
4, ,-55, ,
4, ,-55, ,
4, ,-55, ,
-1, ,-55, ,
4, ,-55, ,
6, ,-55, ,
4, ,-55, ,
1, ,-55, ,
4, ,-55, ,
0, ,-56, ,
3, ,-55, ,
-1, ,-55, ,
0, ,-55, ,
5, ,-55, ,
6, ,-54, ,
0, ,-55, ,
3, ,-56, ,
6, ,-55, ,
3, ,-55, ,
-1, ,-55, ,
5, ,-54, ,
3, ,-56, ,
1, ,-55, ,
3, ,-55, ,
3, ,-55, ,
3, ,-55, ,
0, ,-55, ,
-6, ,-56, ,
1, ,-55, ,
-2, ,-55, ,
-5, ,-54, ,
-2, ,-47, ,
5, ,-38, ,
5, ,-27, ,
6, ,-18, ,
3, ,-10, ,
3, ,-3, ,
1, ,2, ,
8, ,8, ,
3, ,11, ,
10, ,15, ,
13, ,18, ,
5, ,21, ,
3, ,23, ,
4, ,26, ,
0, ,28, ,
1, ,29, ,
-1, ,31, ,
1, ,32, ,
0, ,33, ,
0, ,32, ,
-2, ,34, ,
0, ,35, ,
1, ,35, ,
3, ,36, ,
-2, ,36, ,
6, ,36, ,
3, ,37, ,
4, ,37, ,
1, ,37, ,
1, ,37, ,
-1, ,37, ,
5, ,37, ,
-2, ,38, ,
-6, ,38, ,
1, ,37, ,
5, ,38, ,
-4, ,38, ,
5, ,37, ,
-1, ,39, ,
1, ,38, ,
0, ,38, ,
-1, ,38, ,
0, ,38, ,
0, ,37, ,
-4, ,38, ,
0, ,38, ,
-1, ,38, ,
0, ,38, ,
-5, ,38, ,
4, ,37, ,
1, ,39, ,
1, ,38, ,
-1, ,38, ,
0, ,38, ,
-1, ,38, ,
3, ,37, ,
-4, ,38, ,
1, ,38, ,
3, ,38, ,
-2, ,38, ,
-2, ,38, ,
0, ,37, ,
-1, ,38, ,
-1, ,38, ,
4, ,38, ,
4, ,38, ,
-1, ,38, ,
4, ,37, ,
-5, ,38, ,
-1, ,37, ,
0, ,37, ,
-2, ,38, ,
-5, ,38, ,
0, ,37, ,
-2, ,38, ,
-1, ,38, ,
-2, ,38, ,
-1, ,38, ,
-2, ,38, ,
0, ,37, ,
-7, ,38, ,
-4, ,38, ,
1, ,37, ,
-2, ,38, ,
-2, ,38, ,
4, ,37, ,
-1, ,38, ,
3, ,38, ,
-4, ,38, ,
-4, ,38, ,
-5, ,37, ,
-1, ,37, ,
-6, ,38, ,
0, ,37, ,
1, ,37, ,
1, ,38, ,
-2, ,37, ,
3, ,37, ,
-1, ,38, ,
-1, ,37, ,
-4, ,37, ,
-2, ,38, ,
-1, ,38, ,
3, ,37, ,
-4, ,38, ,
-1, ,37, ,
1, ,37, ,
-1, ,38, ,
-5, ,38, ,
1, ,37, ,
0, ,38, ,
1, ,37, ,
3, ,37, ,
4, ,38, ,
1, ,38, ,
5, ,37, ,
-4, ,38, ,
-1, ,37, ,
0, ,37, ,
-1, ,38, ,
-5, ,38, ,
3, ,37, ,
4, ,38, ,
1, ,37, ,
1, ,37, ,
1, ,38, ,
-1, ,38, ,
8, ,37, ,
-1, ,38, ,
3, ,37, ,
8, ,37, ,
5, ,38, ,
0, ,38, ,
4, ,37, ,
3, ,38, ,
3, ,37, ,
-1, ,38, ,
0, ,38, ,
0, ,38, ,
1, ,37, ,
-1, ,38, ,
1, ,37, ,
3, ,37, ,
0, ,37, ,
-4, ,38, ,
1, ,37, ,
1, ,38, ,
6, ,37, ,
3, ,38, ,
5, ,38, ,
3, ,38, ,
4, ,37, ,
-5, ,38, ,
0, ,38, ,
0, ,37, ,
-1, ,38, ,
-5, ,38, ,
4, ,37, ,
0, ,38, ,
1, ,37, ,
0, ,37, ,
-5, ,38, ,
0, ,38, ,
0, ,37, ,
-1, ,38, ,
4, ,37, ,
3, ,37, ,
1, ,38, ,
-4, ,37, ,
6, ,37, ,
3, ,38, ,
3, ,37, ,
3, ,38, ,
0, ,38, ,
-1, ,37, ,
1, ,37, ,
-6, ,37, ,
1, ,37, ,
3, ,37, ,
4, ,38, ,
4, ,38, ,
6, ,37, ,
0, ,38, ,
1, ,38, ,
1, ,38, ,
4, ,38, ,
5, ,37, ,
5, ,37, ,
-1, ,38, ,
3, ,37, ,
1, ,37, ,
-1, ,37, ,
-2, ,37, ,
3, ,36, ,
3, ,38, ,
4, ,37, ,
4, ,37, ,
6, ,38, ,
8, ,38, ,
10, ,37, ,
3, ,38, ,
5, ,37, ,
5, ,37, ,
0, ,38, ,
-1, ,37, ,
6, ,37, ,
1, ,38, ,
4, ,37, ,
3, ,37, ,
3, ,38, ,
3, ,37, ,
1, ,37, ,
-1, ,38, ,
1, ,38, ,
6, ,38, ,
4, ,38, ,
-1, ,37, ,
5, ,36, ,
1, ,38, ,
1, ,37, ,
1, ,37, ,
1, ,38, ,
4, ,37, ,
8, ,37, ,
3, ,37, ,
5, ,38, ,
1, ,37, ,
1, ,37, ,
0, ,37, ,
4, ,37, ,
1, ,38, ,
4, ,37, ,
1, ,37, ,
0, ,38, ,
5, ,38, ,
3, ,37, ,
0, ,37, ,
3, ,38, ,
1, ,37, ,
-2, ,37, ,
-7, ,38, ,
-1, ,37, ,
-5, ,38, ,
0, ,37, ,
3, ,37, ,
1, ,38, ,
-2, ,38, ,
8, ,36, ,
-2, ,38, ,
1, ,38, ,
6, ,38, ,
1, ,37, ,
0, ,38, ,
4, ,37, ,
-2, ,38, ,
-1, ,37, ,
-5, ,37, ,
-2, ,38, ,
-4, ,38, ,
3, ,37, ,
-1, ,38, ,
1, ,37, ,
4, ,37, ,
0, ,38, ,
-2, ,38, ,
5, ,37, ,
1, ,38, ,
0, ,37, ,
0, ,38, ,
0, ,38, ,
3, ,37, ,
6, ,37, ,
1, ,38, ,
5, ,37, ,
4, ,37, ,
4, ,38, ,
-2, ,38, ,
3, ,37, ,
0, ,38, ,
4, ,37, ,
0, ,37, ,
1, ,38, ,
4, ,37, ,
5, ,37, ,
0, ,38, ,
0, ,37, ,
-1, ,37, ,
0, ,38, ,
-2, ,37, ,
4, ,37, ,
3, ,38, ,
-1, ,37, ,
0, ,37, ,
-2, ,38, ,
-2, ,38, ,
0, ,37, ,
-7, ,38, ,
0, ,37, ,
3, ,37, ,
0, ,38, ,
-1, ,37, ,
3, ,37, ,
0, ,38, ,
3, ,37, ,
-2, ,37, ,
0, ,38, ,
-1, ,38, ,
1, ,36, ,
3, ,38, ,
-1, ,38, ,
1, ,37, ,
-7, ,37, ,
-4, ,37, ,
4, ,37, ,
-5, ,38, ,
1, ,37, ,
-1, ,38, ,
-6, ,38, ,
-1, ,37, ,
0, ,37, ,
-5, ,38, ,
-1, ,37, ,
3, ,37, ,
-2, ,38, ,
-2, ,38, ,
4, ,37, ,
-1, ,38, ,
1, ,37, ,
0, ,37, ,
0, ,38, ,
0, ,37, ,
-1, ,37, ,
-6, ,38, ,
-4, ,37, ,
0, ,37, ,
0, ,38, ,
-4, ,37, ,
3, ,36, ,
0, ,38, ,
1, ,37, ,
0, ,38, ,
-1, ,38, ,
-4, ,38, ,
-1, ,36, ,
-5, ,38, ,
0, ,38, ,
1, ,37, ,
4, ,38, ,
-1, ,38, ,
4, ,36, ,
1, ,38, ,
3, ,37, ,
0, ,37, ,
1, ,38, ,
4, ,38, ,
6, ,37, ,
-2, ,38, ,
3, ,38, ,
1, ,37, ,
-1, ,38, ,
-6, ,38, ,
0, ,37, ,
1, ,38, ,
3, ,37, ,
3, ,37, ,
3, ,37, ,
1, ,38, ,
6, ,37, ,
-4, ,38, ,
0, ,37, ,
3, ,38, ,
-1, ,38, ,
-1, ,38, ,
5, ,37, ,
1, ,38, ,
1, ,38, ,
1, ,37, ,
1, ,38, ,
-1, ,37, ,
3, ,36, ,
-2, ,38, ,
-2, ,37, ,
1, ,37, ,
1, ,37, ,
-2, ,37, ,
8, ,36, ,
1, ,38, ,
4, ,37, ,
0, ,38, ,
0, ,38, ,
0, ,37, ,
1, ,37, ,
-2, ,38, ,
1, ,37, ,
3, ,37, ,
0, ,37, ,
-5, ,38, ,
1, ,37, ,
-4, ,38, ,
-1, ,38, ,
-4, ,37, ,
-1, ,38, ,
1, ,38, ,
1, ,36, ,
-2, ,38, ,
0, ,38, ,
0, ,37, ,
1, ,38, ,
-5, ,38, ,
4, ,37, ,
4, ,38, ,
4, ,37, ,
3, ,37, ,
3, ,38, ,
3, ,38, ,
5, ,37, ,
-7, ,37, ,
-1, ,37, ,
3, ,37, ,
1, ,38, ,
1, ,38, ,
8, ,37, ,
3, ,38, ,
3, ,37, ,
3, ,37, ,
3, ,38, ,
3, ,38, ,
4, ,36, ,
-1, ,38, ,
4, ,37, ,
5, ,37, ,
3, ,38, ,
-4, ,38, ,
3, ,37, ,
1, ,38, ,
1, ,37, ,
0, ,37, ,
1, ,38, ,
3, ,38, ,
6, ,36, ,
0, ,38, ,
3, ,37, ,
3, ,37, ,
1, ,38, ,
-1, ,38, ,
4, ,37, ,
-2, ,38, ,
3, ,37, ,
-2, ,37, ,
1, ,37, ,
4, ,37, ,
3, ,37, ,
-1, ,38, ,
0, ,37, ,
4, ,37, ,
3, ,37, ,
-2, ,37, ,
5, ,37, ,
1, ,38, ,
4, ,37, ,
3, ,37, ,
0, ,38, ,
1, ,37, ,
4, ,36, ,
-1, ,38, ,
3, ,37, ,
3, ,37, ,
1, ,38, ,
-2, ,38, ,
3, ,37, ,
-1, ,38, ,
3, ,37, ,
3, ,37, ,
1, ,38, ,
1, ,37, ,
4, ,37, ,
-4, ,38, ,
1, ,37, ,
0, ,37, ,
-4, ,38, ,
-6, ,38, ,
-1, ,37, ,
-4, ,38, ,
-2, ,37, ,
-2, ,38, ,
0, ,38, ,
0, ,38, ,
5, ,37, ,
-2, ,38, ,
10, ,37, ,
4, ,37, ,
1, ,37, ,
1, ,37, ,
3, ,36, ,
1, ,38, ,
3, ,37, ,
1, ,37, ,
4, ,38, ,
3, ,37, ,
4, ,37, ,
-1, ,38, ,
1, ,37, ,
3, ,37, ,
1, ,38, ,
-2, ,37, ,
6, ,37, ,
1, ,38, ,
1, ,37, ,
-1, ,37, ,
0, ,37, ,
3, ,37, ,
4, ,37, ,
1, ,37, ,
5, ,37, ,
6, ,37, ,
3, ,38, ,
-4, ,37, ,
3, ,37, ,
-4, ,38, ,
0, ,37, ,
-2, ,37, ,
1, ,38, ,
5, ,38, ,
5, ,37, ,
1, ,38, ,
3, ,37, ,
3, ,37, ,
3, ,37, ,
-4, ,37, ,
4, ,36, ,
0, ,38, ,
0, ,37, ,
3, ,37, ,
1, ,38, ,
1, ,37, ,
4, ,36, ,
-6, ,37, ,
0, ,37, ,
1, ,37, ,
-1, ,38, ,
-4, ,37, ,
1, ,36, ,
-1, ,38, ,
-1, ,37, ,
-1, ,38, ,
1, ,38, ,
1, ,37, ,
4, ,37, ,
-5, ,38, ,
0, ,37, ,
0, ,37, ,
-4, ,37, ,
-5, ,37, ,
0, ,37, ,
-1, ,38, ,
-2, ,37, ,
-4, ,37, ,
-2, ,38, ,
-4, ,38, ,
3, ,37, ,
-4, ,38, ,
1, ,37, ,
4, ,37, ,
3, ,37, ,
0, ,37, ,
3, ,37, ,
-1, ,38, ,
1, ,37, ,
-1, ,37, ,
-2, ,38, ,
1, ,37, ,
3, ,36, ,
-1, ,38, ,
3, ,37, ,
6, ,37, ,
-1, ,38, ,
-11, ,37, ,
-5, ,37, ,
-14, ,38, ,
-14, ,37, ,
-14, ,37, ,
-12, ,38, ,
-14, ,38, ,
-6, ,36, ,
-9, ,38, ,
-4, ,37, ,
3, ,37, ,
6, ,38, ,
9, ,37, ,
16, ,37, ,
13, ,38, ,
11, ,37, ,
6, ,38, ,
0, ,38, ,
-1, ,37, ,
0, ,36, ,
-6, ,38, ,
-1, ,37, ,
1, ,37, ,
0, ,38, ,
-2, ,37, ,
0, ,37, ,
-1, ,38, ,
-1, ,37, ,
-1, ,37, ,
0, ,37, ,
-2, ,37, ,
3, ,37, ,
-5, ,37, ,
1, ,38, ,
0, ,37, ,
-2, ,38, ,
-1, ,38, ,
3, ,37, ,
0, ,38, ,
1, ,37, ,
0, ,37, ,
0, ,37, ,
1, ,38, ,
1, ,37, ,
-6, ,38, ,
-4, ,38, ,
-2, ,37, ,
-4, ,38, ,
-5, ,37, ,
4, ,37, ,
1, ,38, ,
4, ,37, ,
3, ,37, ,
0, ,38, ,
1, ,37, ,
-1, ,36, ,
-7, ,38, ,
-1, ,37, ,
1, ,37, ,
-2, ,38, ,
-6, ,38, ,
1, ,37, ,
-1, ,38, ,
-1, ,37, ,
-2, ,37, ,
-4, ,38, ,
-2, ,38, ,
4, ,37, ,
-1, ,38, ,
4, ,38, ,
4, ,37, ,
3, ,38, ,
-1, ,37, ,
4, ,36, ,
4, ,38, ,
1, ,37, ,
-4, ,37, ,
3, ,38, ,
4, ,37, ,
3, ,37, ,
-4, ,38, ,
0, ,38, ,
0, ,37, ,
-1, ,38, ,
-1, ,38, ,
3, ,37, ,
1, ,38, ,
5, ,37, ,
6, ,37, ,
6, ,38, ,
5, ,37, ,
9, ,37, ,
1, ,38, ,
4, ,37, ,
4, ,37, ,
3, ,38, ,
-1, ,37, ,
6, ,37, ,
1, ,38, ,
0, ,37, ,
-2, ,37, ,
-2, ,38, ,
4, ,37, ,
9, ,37, ,
4, ,38, ,
8, ,37, ,
9, ,37, ,
5, ,37, ,
4, ,37, ,
9, ,37, ,
3, ,38, ,
4, ,37, ,
4, ,37, ,
4, ,38, ,
1, ,38, ,
5, ,37, ,
-4, ,38, ,
-2, ,38, ,
-1, ,37, ,
0, ,38, ,
-5, ,37, ,
1, ,37, ,
0, ,38, ,
4, ,37, ,
5, ,37, ,
4, ,38, ,
4, ,38, ,
9, ,36, ,
1, ,38, ,
4, ,38, ,
4, ,37, ,
3, ,38, ,
-1, ,38, ,
3, ,37, ,
3, ,38, ,
4, ,37, ,
4, ,37, ,
1, ,38, ,
3, ,37, ,
4, ,37, ,
-4, ,38, ,
1, ,37, ,
1, ,37, ,
0, ,38, ,
1, ,37, ,
5, ,37, ,
3, ,38, ,
4, ,37, ,
4, ,37, ,
4, ,38, ,
3, ,38, ,
8, ,37, ,
1, ,38, ,
4, ,37, ,
4, ,37, ,
0, ,38, ,
-1, ,38, ,
3, ,37, ,
1, ,38, ,
6, ,37, ,
3, ,37, ,
5, ,38, ,
6, ,38, ,
5, ,37, ,
0, ,38, ,
0, ,38, ,
1, ,37, ,
0, ,37, ,
-2, ,38, ,
4, ,37, ,
4, ,38, ,
4, ,37, ,
3, ,37, ,
3, ,38, ,
3, ,37, ,
6, ,37, ,
0, ,38, ,
4, ,38, ,
6, ,37, ,
4, ,38, ,
-1, ,38, ,
4, ,37, ,
0, ,38, ,
0, ,37, ,
0, ,37, ,
0, ,38, ,
3, ,37, ,
5, ,37, ,
-1, ,38, ,
1, ,37, ,
3, ,37, ,
3, ,38, ,
-4, ,37, ,
4, ,37, ,
1, ,38, ,
0, ,37, ,
-1, ,37, ,
-1, ,38, ,
1, ,38, ,
5, ,37, ,
-5, ,38, ,
4, ,38, ,
1, ,37, ,
0, ,38, ,
-2, ,37, ,
1, ,32, ,
-6, ,25, ,
-6, ,14, ,
-4, ,3, ,
-2, ,-4, ,
-1, ,-11, ,
3, ,-18, ,
-1, ,-22, ,
1, ,-27, ,
0, ,-31, ,
-5, ,-35, ,
-6, ,-38, ,
0, ,-40, ,
0, ,-43, ,
0, ,-44, ,
-2, ,-46, ,
0, ,-47, ,
-2, ,-48, ,
3, ,-49, ,
-4, ,-50, ,
3, ,-50, ,
5, ,-51, ,
1, ,-52, ,
0, ,-52, ,
4, ,-54, ,
-1, ,-54, ,
3, ,-55, ,
0, ,-54, ,
1, ,-55, ,
1, ,-55, ,
3, ,-55, ,
1, ,-56, ,
5, ,-55, ,
4, ,-56, ,
3, ,-55, ,
0, ,-56, ,
9, ,-56, ,
4, ,-57, ,
3, ,-56, ,
3, ,-56, ,
3, ,-56, ,
4, ,-56, ,
4, ,-55, ,
-2, ,-57, ,
3, ,-56, ,
4, ,-56, ,
3, ,-56, ,
-1, ,-56, ,
6, ,-55, ,
3, ,-56, ,
1, ,-56, ,
1, ,-56, ,
1, ,-56, ,
4, ,-56, ,
4, ,-55, ,
0, ,-56, ,
1, ,-56, ,
1, ,-56, ,
-1, ,-56, ,
-5, ,-56, ,
1, ,-55, ,
0, ,-56, ,
0, ,-56, ,
1, ,-55, ,
-1, ,-56, ,
-2, ,-56, ,
3, ,-55, ,
-7, ,-56, ,
0, ,-56, ,
3, ,-55, ,
-4, ,-56, ,
-5, ,-55, ,
0, ,-55, ,
-2, ,-57, ,
-2, ,-55, ,
-6, ,-55, ,
-4, ,-56, ,
-4, ,-56, ,
-1, ,-55, ,
-4, ,-56, ,
-1, ,-56, ,
1, ,-55, ,
-4, ,-56, ,
-9, ,-55, ,
-1, ,-55, ,
-6, ,-57, ,
-4, ,-56, ,
-4, ,-55, ,
-4, ,-56, ,
-2, ,-56, ,
3, ,-55, ,
-5, ,-56, ,
-4, ,-55, ,
3, ,-55, ,
-5, ,-55, ,
-6, ,-55, ,
0, ,-55, ,
-4, ,-56, ,
-4, ,-55, ,
-5, ,-55, ,
-5, ,-55, ,
-6, ,-56, ,
-6, ,-55, ,
-11, ,-55, ,
-4, ,-55, ,
-1, ,-55, ,
-4, ,-56, ,
-5, ,-55, ,
4, ,-55, ,
-1, ,-56, ,
-4, ,-56, ,
-4, ,-55, ,
-4, ,-56, ,
-5, ,-55, ,
0, ,-54, ,
-7, ,-56, ,
-2, ,-55, ,
0, ,-55, ,
-4, ,-55, ,
-6, ,-55, ,
-2, ,-55, ,
-4, ,-56, ,
-4, ,-55, ,
-1, ,-55, ,
-1, ,-55, ,
-1, ,-56, ,
1, ,-55, ,
-5, ,-55, ,
-2, ,-55, ,
0, ,-55, ,
-4, ,-56, ,
-6, ,-56, ,
0, ,-55, ,
-4, ,-56, ,
-4, ,-55, ,
-5, ,-55, ,
-4, ,-55, ,
-1, ,-56, ,
-2, ,-54, ,
-9, ,-56, ,
-4, ,-55, ,
0, ,-55, ,
-4, ,-55, ,
-4, ,-55, ,
1, ,-55, ,
-1, ,-56, ,
0, ,-55, ,
-2, ,-55, ,
-2, ,-55, ,
-2, ,-56, ,
-2, ,-55, ,
-9, ,-56, ,
-2, ,-55, ,
0, ,-55, ,
-2, ,-55, ,
-6, ,-55, ,
3, ,-54, ,
0, ,-56, ,
-2, ,-55, ,
-2, ,-55, ,
-1, ,-55, ,
-1, ,-56, ,
-2, ,-55, ,
-9, ,-56, ,
6, ,-55, ,
0, ,-55, ,
0, ,-55, ,
-4, ,-55, ,
1, ,-54, ,
0, ,-56, ,
0, ,-55, ,
1, ,-55, ,
0, ,-55, ,
3, ,-56, ,
1, ,-55, ,
-6, ,-55, ,
0, ,-55, ,
0, ,-55, ,
1, ,-55, ,
-1, ,-55, ,
5, ,-54, ,
5, ,-56, ,
4, ,-55, ,
4, ,-55, ,
1, ,-56, ,
1, ,-56, ,
4, ,-54, ,
0, ,-56, ,
5, ,-55, ,
6, ,-55, ,
3, ,-55, ,
3, ,-56, ,
6, ,-54, ,
9, ,-56, ,
8, ,-55, ,
4, ,-55, ,
8, ,-55, ,
4, ,-56, ,
5, ,-54, ,
1, ,-56, ,
3, ,-55, ,
5, ,-55, ,
3, ,-56, ,
0, ,-55, ,
8, ,-54, ,
3, ,-56, ,
3, ,-55, ,
3, ,-55, ,
4, ,-56, ,
6, ,-55, ,
6, ,-55, ,
4, ,-56, ,
6, ,-55, ,
8, ,-55, ,
5, ,-55, ,
1, ,-55, ,
4, ,-55, ,
0, ,-56, ,
3, ,-55, ,
4, ,-55, ,
4, ,-56, ,
8, ,-55, ,
6, ,-55, ,
-1, ,-56, ,
1, ,-55, ,
5, ,-55, ,
5, ,-55, ,
1, ,-55, ,
13, ,-55, ,
9, ,-56, ,
3, ,-55, ,
3, ,-55, ,
0, ,-55, ,
3, ,-55, ,
6, ,-54, ,
-1, ,-55, ,
3, ,-55, ,
4, ,-55, ,
1, ,-55, ,
-1, ,-56, ,
0, ,-55, ,
4, ,-56, ,
4, ,-55, ,
4, ,-55, ,
6, ,-55, ,
9, ,-55, ,
9, ,-55, ,
3, ,-56, ,
4, ,-55, ,
5, ,-55, ,
1, ,-55, ,
-1, ,-55, ,
1, ,-55, ,
0, ,-56, ,
3, ,-55, ,
1, ,-55, ,
4, ,-55, ,
4, ,-56, ,
6, ,-54, ,
3, ,-55, ,
4, ,-55, ,
5, ,-55, ,
4, ,-55, ,
1, ,-55, ,
6, ,-55, ,
3, ,-56, ,
3, ,-55, ,
3, ,-55, ,
5, ,-56, ,
5, ,-55, ,
6, ,-55, ,
4, ,-56, ,
6, ,-55, ,
5, ,-55, ,
3, ,-55, ,
-2, ,-55, ,
5, ,-55, ,
3, ,-56, ,
1, ,-55, ,
3, ,-55, ,
3, ,-55, ,
1, ,-55, ,
4, ,-54, ,
-1, ,-56, ,
6, ,-55, ,
5, ,-55, ,
3, ,-55, ,
-1, ,-55, ,
5, ,-54, ,
1, ,-56, ,
1, ,-55, ,
3, ,-55, ,
3, ,-55, ,
4, ,-55, ,
8, ,-54, ,
3, ,-55, ,
5, ,-55, ,
4, ,-55, ,
1, ,-55, ,
3, ,-55, ,
3, ,-54, ,
1, ,-56, ,
-9, ,-55, ,
-1, ,-55, ,
6, ,-55, ,
0, ,-56, ,
6, ,-55, ,
-1, ,-55, ,
0, ,-55, ,
0, ,-55, ,
-4, ,-55, ,
-4, ,-55, ,
-1, ,-55, ,
0, ,-56, ,
0, ,-55, ,
-1, ,-55, ,
-4, ,-55, ,
-5, ,-56, ,
-4, ,-55, ,
-5, ,-56, ,
0, ,-55, ,
0, ,-55, ,
-1, ,-55, ,
-4, ,-55, ,
3, ,-55, ,
-4, ,-56, ,
-4, ,-55, ,
-5, ,-55, ,
-1, ,-55, ,
0, ,-55, ,
1, ,-54, ,
0, ,-55, ,
4, ,-55, ,
3, ,-55, ,
-1, ,-55, ,
-6, ,-55, ,
-1, ,-55, ,
-2, ,-56, ,
-2, ,-55, ,
-4, ,-55, ,
-2, ,-55, ,
0, ,-56, ,
3, ,-54, ,
-4, ,-55, ,
1, ,-55, ,
3, ,-55, ,
0, ,-55, ,
-4, ,-55, ,
3, ,-55, ,
1, ,-56, ,
-1, ,-55, ,
-2, ,-55, ,
-2, ,-55, ,
-2, ,-56, ,
-1, ,-55, ,
-10, ,-56, ,
-2, ,-55, ,
-2, ,-55, ,
-4, ,-55, ,
-6, ,-55, ,
0, ,-55, ,
-4, ,-56, ,
-2, ,-55, ,
-6, ,-55, ,
-4, ,-55, ,
-1, ,-56, ,
3, ,-55, ,
-4, ,-55, ,
-1, ,-55, ,
-4, ,-55, ,
-6, ,-55, ,
-5, ,-55, ,
1, ,-54, ,
-6, ,-56, ,
-6, ,-55, ,
-9, ,-55, ,
-9, ,-55, ,
-9, ,-55, ,
-1, ,-55, ,
-9, ,-55, ,
-2, ,-55, ,
1, ,-55, ,
-2, ,-55, ,
-7, ,-55, ,
-2, ,-54, ,
-6, ,-56, ,
-1, ,-55, ,
-4, ,-55, ,
-2, ,-55, ,
-1, ,-56, ,
-5, ,-55, ,
-9, ,-55, ,
-5, ,-55, ,
-2, ,-55, ,
-4, ,-55, ,
-6, ,-55, ,
4, ,-54, ,
0, ,-56, ,
-2, ,-55, ,
0, ,-55, ,
-2, ,-55, ,
-4, ,-56, ,
-1, ,-54, ,
-5, ,-55, ,
-4, ,-55, ,
1, ,-55, ,
1, ,-55, ,
-1, ,-55, ,
5, ,-55, ,
0, ,-56, ,
-1, ,-55, ,
-2, ,-55, ,
-5, ,-55, ,
-4, ,-55, ,
-2, ,-55, ,
-6, ,-55, ,
-2, ,-55, ,
-1, ,-55, ,
-2, ,-55, ,
-9, ,-55, ,
0, ,-54, ,
-2, ,-56, ,
0, ,-55, ,
3, ,-55, ,
1, ,-55, ,
1, ,-55, ,
3, ,-54, ,
-6, ,-56, ,
-1, ,-55, ,
-1, ,-55, ,
-1, ,-55, ,
-1, ,-55, ,
4, ,-55, ,
4, ,-56, ,
5, ,-55, ,
1, ,-55, ,
5, ,-55, ,
3, ,-55, ,
-1, ,-55, ,
-2, ,-55, ,
-1, ,-55, ,
0, ,-55, ,
0, ,-55, ,
-2, ,-55, ,
5, ,-54, ,
1, ,-56, ,
3, ,-55, ,
1, ,-54, ,
0, ,-55, ,
1, ,-55, ,
1, ,-54, ,
0, ,-55, ,
1, ,-55, ,
5, ,-55, ,
1, ,-56, ,
-1, ,-55, ,
5, ,-54, ,
-1, ,-56, ,
1, ,-55, ,
-1, ,-55, ,
0, ,-55, ,
1, ,-55, ,
0, ,-55, ,
-2, ,-56, ,
3, ,-55, ,
3, ,-55, ,
3, ,-55, ,
-5, ,-55, ,
5, ,-55, ,
4, ,-56, ,
0, ,-55, ,
4, ,-55, ,
4, ,-56, ,
3, ,-56, ,
4, ,-54, ,
-6, ,-55, ,
-1, ,-55, ,
3, ,-55, ,
-1, ,-55, ,
-2, ,-55, ,
3, ,-55, ,
5, ,-56, ,
4, ,-55, ,
4, ,-55, ,
5, ,-55, ,
4, ,-55, ,
5, ,-55, ,
-1, ,-56, ,
4, ,-55, ,
5, ,-55, ,
3, ,-55, ,
0, ,-55, ,
5, ,-55, ,
4, ,-56, ,
3, ,-55, ,
1, ,-55, ,
1, ,-55, ,
0, ,-56, ,
5, ,-55, ,
0, ,-55, ,
4, ,-55, ,
6, ,-55, ,
3, ,-56, ,
0, ,-55, ,
8, ,-55, ,
0, ,-56, ,
4, ,-55, ,
4, ,-55, ,
9, ,-56, ,
9, ,-55, ,
8, ,-55, ,
5, ,-56, ,
4, ,-55, ,
5, ,-55, ,
3, ,-55, ,
-1, ,-55, ,
6, ,-55, ,
5, ,-56, ,
5, ,-55, ,
4, ,-55, ,
3, ,-55, ,
3, ,-56, ,
4, ,-55, ,
0, ,-55, ,
3, ,-55, ,
4, ,-55, ,
4, ,-55, ,
1, ,-55, ,
5, ,-55, ,
5, ,-56, ,
3, ,-55, ,
3, ,-55, ,
3, ,-55, ,
4, ,-56, ,
4, ,-55, ,
3, ,-56, ,
5, ,-55, ,
4, ,-55, ,
4, ,-55, ,
-1, ,-55, ,
5, ,-55, ,
3, ,-56, ,
0, ,-55, ,
3, ,-55, ,
3, ,-55, ,
0, ,-55, ,
5, ,-54, ,
-1, ,-56, ,
4, ,-55, ,
5, ,-55, ,
0, ,-56, ,
-1, ,-55, ,
4, ,-55, ,
0, ,-56, ,
3, ,-55, ,
3, ,-55, ,
3, ,-56, ,
5, ,-55, ,
6, ,-54, ,
1, ,-55, ,
3, ,-55, ,
1, ,-55, ,
-2, ,-55, ,
-4, ,-55, ,
1, ,-54, ,
0, ,-56, ,
1, ,-55, ,
1, ,-55, ,
3, ,-55, ,
4, ,-56, ,
5, ,-54, ,
0, ,-56, ,
3, ,-55, ,
5, ,-55, ,
-1, ,-55, ,
-2, ,-55, ,
3, ,-55, ,
1, ,-56, ,
-2, ,-55, ,
0, ,-55, ,
-1, ,-55, ,
1, ,-56, ,
3, ,-54, ,
-1, ,-55, ,
4, ,-55, ,
8, ,-55, ,
5, ,-55, ,
1, ,-55, ,
6, ,-55, ,
1, ,-56, ,
0, ,-55, ,
-1, ,-55, ,
-1, ,-55, ,
3, ,-56, ,
4, ,-55, ,
-4, ,-55, ,
0, ,-55, ,
1, ,-55, ,
-1, ,-55, ,
-2, ,-55, ,
-2, ,-55, ,
-5, ,-56, ,
0, ,-55, ,
0, ,-55, ,
1, ,-55, ,
3, ,-56, ,
-1, ,-55, ,
-4, ,-56, ,
-1, ,-55, ,
3, ,-55, ,
0, ,-55, ,
-4, ,-55, ,
4, ,-54, ,
0, ,-56, ,
1, ,-55, ,
0, ,-55, ,
-7, ,-55, ,
-4, ,-56, ,
5, ,-54, ,
-7, ,-56, ,
1, ,-55, ,
4, ,-55, ,
-2, ,-55, ,
-4, ,-55, ,
4, ,-54, ,
-6, ,-56, ,
-1, ,-55, ,
-5, ,-55, ,
-2, ,-55, ,
0, ,-55, ,
1, ,-55, ,
-1, ,-55, ,
1, ,-55, ,
-1, ,-55, ,
-5, ,-55, ,
-7, ,-55, ,
0, ,-55, ,
-4, ,-56, ,
-1, ,-55, ,
-1, ,-55, ,
-1, ,-55, ,
-1, ,-56, ,
0, ,-54, ,
-5, ,-55, ,
-1, ,-55, ,
1, ,-55, ,
-2, ,-55, ,
0, ,-55, ,
3, ,-54, ,
