src/vary_am2_1411/temp0004849.CSV

Format,1.0B,
Memory Length,10000,Memory Length,10000,
IntpDistance,0,IntpDistance,0,
Trigger Address,4999,Trigger Address,4999,
Trigger Level,-1.000E+00,Trigger Level,-1.000E+00,
Source,CH1,Source,CH2,
Vertical Units,V,Vertical Units,V,
Vertical Units Div,0,Vertical Units Div,0,
Vertical Units Extend Div,16,Vertical Units Extend Div,16,
Label,,Label,,
Probe Type,0,Probe Type,0,
Probe Ratio,1.000e+01,Probe Ratio,1.000e+00,
Vertical Scale,2.000e-02,Vertical Scale,1.000e+00,
Vertical Position,-5.120e-02,Vertical Position,2.000e-01,
Horizontal Units,S,Horizontal Units,S,
Horizontal Scale,1.000E-05,Horizontal Scale,1.000E-05,
Horizontal Position,0.000E+00,Horizontal Position,0.000E+00,
Horizontal Mode,Main,Horizontal Mode,Main,
SincET Mode,Real Time,SincET Mode,Real Time,
Sampling Period,1.000e-08,Sampling Period,1.000e-08,
Horizontal Old Scale,1.000E-05,Horizontal Old Scale,1.000E-05,
Horizontal Old Position,0.000E+00,Horizontal Old Position,0.000E+00,
Firmware,V1.23,Firmware,V1.23,
Mode,Fast,Mode,Fast,
Waveform Data,,Waveform Data,,
0, ,-38, ,
1, ,-37, ,
4, ,-38, ,
1, ,-38, ,
-2, ,-38, ,
0, ,-38, ,
-1, ,-38, ,
0, ,-38, ,
-4, ,-38, ,
1, ,-38, ,
8, ,-37, ,
1, ,-38, ,
1, ,-38, ,
1, ,-38, ,
3, ,-38, ,
4, ,-38, ,
1, ,-37, ,
1, ,-38, ,
6, ,-38, ,
3, ,-38, ,
-2, ,-38, ,
0, ,-38, ,
1, ,-37, ,
-2, ,-38, ,
-2, ,-38, ,
3, ,-38, ,
1, ,-38, ,
3, ,-37, ,
3, ,-38, ,
4, ,-38, ,
4, ,-38, ,
3, ,-38, ,
-1, ,-38, ,
0, ,-38, ,
1, ,-37, ,
1, ,-38, ,
0, ,-38, ,
6, ,-37, ,
0, ,-38, ,
1, ,-38, ,
-1, ,-37, ,
-4, ,-38, ,
-2, ,-37, ,
-2, ,-38, ,
-6, ,-38, ,
0, ,-38, ,
1, ,-37, ,
1, ,-38, ,
-1, ,-38, ,
0, ,-37, ,
1, ,-38, ,
-1, ,-38, ,
-2, ,-38, ,
-2, ,-38, ,
0, ,-38, ,
0, ,-38, ,
-5, ,-38, ,
3, ,-38, ,
1, ,-38, ,
-1, ,-38, ,
-5, ,-38, ,
0, ,-37, ,
0, ,-38, ,
0, ,-38, ,
-1, ,-37, ,
1, ,-38, ,
0, ,-37, ,
-4, ,-38, ,
-9, ,-37, ,
-4, ,-38, ,
-1, ,-37, ,
-1, ,-38, ,
-4, ,-38, ,
1, ,-38, ,
1, ,-38, ,
0, ,-38, ,
-1, ,-38, ,
0, ,-38, ,
-1, ,-38, ,
-1, ,-37, ,
-5, ,-38, ,
-1, ,-38, ,
1, ,-38, ,
-1, ,-38, ,
-4, ,-38, ,
1, ,-38, ,
-1, ,-38, ,
-1, ,-37, ,
-7, ,-37, ,
-4, ,-38, ,
1, ,-37, ,
3, ,-38, ,
-1, ,-37, ,
1, ,-37, ,
0, ,-38, ,
0, ,-38, ,
-5, ,-38, ,
0, ,-38, ,
-1, ,-38, ,
-1, ,-38, ,
-2, ,-37, ,
-2, ,-38, ,
3, ,-38, ,
0, ,-37, ,
-4, ,-38, ,
-1, ,-37, ,
1, ,-37, ,
-2, ,-38, ,
-4, ,-38, ,
3, ,-38, ,
3, ,-38, ,
1, ,-38, ,
1, ,-38, ,
0, ,-38, ,
4, ,-38, ,
4, ,-38, ,
-4, ,-38, ,
3, ,-38, ,
4, ,-37, ,
3, ,-38, ,
1, ,-38, ,
1, ,-38, ,
1, ,-37, ,
-1, ,-38, ,
-5, ,-38, ,
0, ,-38, ,
-1, ,-38, ,
3, ,-38, ,
-2, ,-38, ,
4, ,-38, ,
8, ,-37, ,
5, ,-38, ,
1, ,-38, ,
1, ,-38, ,
0, ,-38, ,
0, ,-38, ,
-1, ,-37, ,
4, ,-38, ,
5, ,-38, ,
5, ,-37, ,
1, ,-38, ,
1, ,-37, ,
0, ,-37, ,
-1, ,-38, ,
-6, ,-38, ,
-1, ,-37, ,
0, ,-38, ,
0, ,-38, ,
3, ,-37, ,
3, ,-38, ,
5, ,-38, ,
4, ,-38, ,
1, ,-38, ,
0, ,-38, ,
4, ,-37, ,
0, ,-38, ,
-2, ,-38, ,
3, ,-37, ,
-1, ,-38, ,
-1, ,-38, ,
-2, ,-37, ,
-1, ,-38, ,
3, ,-38, ,
5, ,-38, ,
1, ,-38, ,
5, ,-38, ,
3, ,-37, ,
1, ,-38, ,
5, ,-38, ,
4, ,-38, ,
0, ,-38, ,
3, ,-38, ,
1, ,-38, ,
5, ,-38, ,
6, ,-38, ,
8, ,-37, ,
1, ,-38, ,
8, ,-38, ,
9, ,-37, ,
3, ,-38, ,
1, ,-38, ,
5, ,-37, ,
1, ,-38, ,
1, ,-38, ,
1, ,-37, ,
3, ,-37, ,
5, ,-38, ,
6, ,-38, ,
1, ,-38, ,
5, ,-37, ,
1, ,-38, ,
1, ,-38, ,
4, ,-38, ,
4, ,-38, ,
6, ,-37, ,
4, ,-38, ,
3, ,-38, ,
6, ,-38, ,
6, ,-38, ,
3, ,-38, ,
3, ,-38, ,
6, ,-38, ,
8, ,-37, ,
5, ,-38, ,
3, ,-38, ,
9, ,-37, ,
5, ,-38, ,
5, ,-38, ,
1, ,-37, ,
0, ,-38, ,
4, ,-38, ,
3, ,-37, ,
0, ,-38, ,
4, ,-38, ,
3, ,-37, ,
0, ,-38, ,
3, ,-38, ,
9, ,-38, ,
6, ,-38, ,
6, ,-38, ,
3, ,-38, ,
1, ,-38, ,
3, ,-38, ,
6, ,-37, ,
3, ,-38, ,
8, ,-38, ,
10, ,-38, ,
5, ,-38, ,
0, ,-38, ,
3, ,-37, ,
1, ,-38, ,
-2, ,-38, ,
0, ,-38, ,
1, ,-38, ,
4, ,-38, ,
4, ,-38, ,
0, ,-38, ,
3, ,-37, ,
3, ,-38, ,
4, ,-38, ,
1, ,-38, ,
8, ,-37, ,
5, ,-38, ,
3, ,-38, ,
3, ,-38, ,
3, ,-38, ,
-1, ,-38, ,
4, ,-37, ,
-4, ,-37, ,
0, ,-38, ,
6, ,-38, ,
3, ,-38, ,
4, ,-38, ,
5, ,-37, ,
3, ,-38, ,
4, ,-38, ,
-1, ,-38, ,
1, ,-38, ,
1, ,-38, ,
1, ,-38, ,
0, ,-38, ,
0, ,-38, ,
1, ,-37, ,
1, ,-38, ,
0, ,-38, ,
5, ,-38, ,
4, ,-38, ,
1, ,-38, ,
0, ,-38, ,
3, ,-38, ,
4, ,-38, ,
4, ,-37, ,
-1, ,-38, ,
1, ,-38, ,
6, ,-38, ,
1, ,-38, ,
0, ,-38, ,
4, ,-38, ,
3, ,-38, ,
3, ,-38, ,
3, ,-38, ,
3, ,-38, ,
1, ,-38, ,
0, ,-37, ,
-4, ,-38, ,
0, ,-38, ,
1, ,-38, ,
1, ,-38, ,
-1, ,-38, ,
1, ,-38, ,
1, ,-38, ,
0, ,-38, ,
-1, ,-38, ,
-4, ,-38, ,
-2, ,-38, ,
-1, ,-38, ,
-6, ,-38, ,
1, ,-38, ,
1, ,-37, ,
0, ,-38, ,
-2, ,-38, ,
1, ,-37, ,
3, ,-38, ,
-2, ,-38, ,
-2, ,-38, ,
-5, ,-38, ,
-1, ,-38, ,
3, ,-38, ,
-6, ,-38, ,
0, ,-37, ,
-1, ,-32, ,
-1, ,-25, ,
-1, ,-14, ,
5, ,-5, ,
8, ,3, ,
6, ,11, ,
3, ,16, ,
5, ,22, ,
5, ,27, ,
5, ,31, ,
3, ,35, ,
5, ,37, ,
5, ,39, ,
3, ,42, ,
-1, ,44, ,
4, ,46, ,
4, ,48, ,
3, ,48, ,
0, ,48, ,
-1, ,51, ,
0, ,51, ,
1, ,52, ,
-2, ,52, ,
1, ,53, ,
1, ,51, ,
4, ,55, ,
1, ,54, ,
6, ,53, ,
3, ,55, ,
1, ,55, ,
-2, ,53, ,
-1, ,56, ,
1, ,55, ,
3, ,55, ,
-4, ,55, ,
0, ,56, ,
0, ,54, ,
-2, ,56, ,
-7, ,55, ,
0, ,55, ,
-2, ,56, ,
-1, ,56, ,
1, ,54, ,
4, ,56, ,
4, ,56, ,
4, ,55, ,
-5, ,55, ,
-2, ,55, ,
-2, ,54, ,
-2, ,56, ,
-2, ,55, ,
0, ,55, ,
0, ,56, ,
0, ,55, ,
-6, ,53, ,
-2, ,56, ,
-6, ,55, ,
-1, ,55, ,
-6, ,56, ,
0, ,56, ,
3, ,54, ,
3, ,56, ,
-1, ,55, ,
4, ,55, ,
-2, ,55, ,
-1, ,56, ,
-4, ,54, ,
-2, ,56, ,
-2, ,55, ,
-1, ,55, ,
-1, ,56, ,
-1, ,55, ,
-1, ,54, ,
0, ,56, ,
-6, ,55, ,
-1, ,55, ,
-5, ,55, ,
-1, ,56, ,
0, ,53, ,
4, ,57, ,
4, ,55, ,
3, ,55, ,
-2, ,55, ,
0, ,55, ,
1, ,53, ,
0, ,56, ,
-5, ,54, ,
3, ,55, ,
-1, ,55, ,
0, ,56, ,
-1, ,54, ,
0, ,56, ,
1, ,55, ,
1, ,55, ,
-2, ,55, ,
1, ,55, ,
0, ,54, ,
-1, ,56, ,
-4, ,54, ,
4, ,55, ,
4, ,55, ,
3, ,55, ,
1, ,53, ,
4, ,56, ,
5, ,55, ,
6, ,55, ,
-1, ,56, ,
5, ,55, ,
8, ,54, ,
3, ,56, ,
1, ,54, ,
4, ,54, ,
-1, ,55, ,
1, ,55, ,
-1, ,53, ,
3, ,55, ,
3, ,55, ,
8, ,55, ,
1, ,55, ,
6, ,55, ,
5, ,54, ,
3, ,56, ,
-2, ,54, ,
3, ,55, ,
0, ,55, ,
1, ,55, ,
-1, ,53, ,
1, ,56, ,
4, ,55, ,
6, ,55, ,
1, ,55, ,
3, ,55, ,
4, ,53, ,
0, ,56, ,
-2, ,54, ,
4, ,54, ,
1, ,55, ,
4, ,56, ,
3, ,53, ,
3, ,56, ,
3, ,54, ,
1, ,55, ,
-2, ,55, ,
4, ,56, ,
4, ,53, ,
5, ,56, ,
1, ,54, ,
5, ,55, ,
0, ,55, ,
0, ,56, ,
-1, ,54, ,
1, ,56, ,
1, ,55, ,
4, ,55, ,
3, ,55, ,
5, ,55, ,
3, ,54, ,
3, ,56, ,
-4, ,54, ,
4, ,54, ,
1, ,55, ,
1, ,55, ,
1, ,53, ,
4, ,56, ,
4, ,55, ,
8, ,55, ,
1, ,55, ,
4, ,55, ,
4, ,53, ,
0, ,56, ,
-1, ,54, ,
3, ,55, ,
0, ,55, ,
0, ,56, ,
-1, ,53, ,
1, ,56, ,
1, ,54, ,
5, ,55, ,
0, ,55, ,
6, ,56, ,
9, ,54, ,
4, ,56, ,
5, ,54, ,
5, ,55, ,
4, ,55, ,
6, ,56, ,
3, ,53, ,
6, ,56, ,
4, ,55, ,
5, ,55, ,
0, ,55, ,
3, ,55, ,
3, ,53, ,
1, ,56, ,
0, ,54, ,
8, ,55, ,
1, ,55, ,
3, ,55, ,
-1, ,53, ,
4, ,56, ,
1, ,55, ,
4, ,55, ,
1, ,55, ,
5, ,55, ,
5, ,53, ,
4, ,56, ,
-1, ,54, ,
4, ,55, ,
0, ,55, ,
0, ,56, ,
1, ,53, ,
4, ,56, ,
5, ,54, ,
5, ,55, ,
-2, ,55, ,
3, ,56, ,
1, ,53, ,
0, ,56, ,
-1, ,54, ,
5, ,54, ,
6, ,55, ,
5, ,56, ,
4, ,53, ,
4, ,56, ,
1, ,54, ,
3, ,54, ,
-2, ,55, ,
1, ,55, ,
1, ,53, ,
-1, ,56, ,
-1, ,55, ,
1, ,55, ,
-2, ,55, ,
-1, ,56, ,
-4, ,53, ,
-1, ,56, ,
0, ,55, ,
5, ,55, ,
-2, ,55, ,
3, ,55, ,
5, ,54, ,
-1, ,56, ,
-5, ,54, ,
5, ,55, ,
1, ,55, ,
1, ,56, ,
0, ,53, ,
3, ,56, ,
3, ,55, ,
3, ,55, ,
-2, ,55, ,
1, ,55, ,
5, ,53, ,
3, ,56, ,
0, ,55, ,
6, ,54, ,
1, ,55, ,
6, ,55, ,
1, ,53, ,
3, ,56, ,
3, ,54, ,
1, ,55, ,
-2, ,55, ,
1, ,55, ,
3, ,53, ,
4, ,56, ,
0, ,54, ,
5, ,54, ,
4, ,56, ,
4, ,55, ,
-1, ,53, ,
-1, ,56, ,
-2, ,55, ,
1, ,54, ,
-2, ,55, ,
0, ,55, ,
3, ,53, ,
1, ,56, ,
-2, ,54, ,
4, ,55, ,
1, ,55, ,
1, ,55, ,
0, ,53, ,
-2, ,56, ,
-4, ,55, ,
-5, ,55, ,
-17, ,55, ,
-15, ,55, ,
-14, ,53, ,
-12, ,56, ,
-19, ,54, ,
-5, ,54, ,
-4, ,55, ,
1, ,55, ,
5, ,52, ,
10, ,56, ,
11, ,55, ,
14, ,54, ,
4, ,55, ,
6, ,55, ,
5, ,53, ,
0, ,56, ,
-1, ,54, ,
3, ,55, ,
3, ,55, ,
3, ,56, ,
-5, ,53, ,
-2, ,56, ,
-6, ,55, ,
-4, ,54, ,
-4, ,55, ,
-6, ,55, ,
-1, ,53, ,
-1, ,56, ,
-9, ,54, ,
0, ,55, ,
-2, ,55, ,
-2, ,55, ,
-4, ,53, ,
-2, ,55, ,
1, ,55, ,
3, ,54, ,
0, ,55, ,
5, ,55, ,
1, ,53, ,
1, ,56, ,
-2, ,54, ,
3, ,54, ,
-2, ,55, ,
-1, ,55, ,
-1, ,53, ,
-1, ,56, ,
1, ,54, ,
-1, ,55, ,
-6, ,55, ,
1, ,55, ,
0, ,53, ,
-1, ,56, ,
-7, ,54, ,
1, ,54, ,
1, ,55, ,
0, ,55, ,
3, ,53, ,
-1, ,56, ,
-2, ,55, ,
1, ,55, ,
-9, ,55, ,
-1, ,55, ,
0, ,53, ,
0, ,56, ,
-4, ,55, ,
4, ,55, ,
0, ,55, ,
1, ,55, ,
-4, ,53, ,
1, ,56, ,
1, ,55, ,
3, ,55, ,
-5, ,55, ,
4, ,55, ,
6, ,53, ,
4, ,56, ,
0, ,54, ,
3, ,54, ,
-4, ,55, ,
0, ,55, ,
-4, ,54, ,
3, ,56, ,
4, ,56, ,
4, ,54, ,
-4, ,55, ,
-2, ,55, ,
-1, ,54, ,
-4, ,56, ,
-6, ,54, ,
1, ,55, ,
4, ,55, ,
5, ,56, ,
4, ,53, ,
1, ,56, ,
-1, ,55, ,
3, ,54, ,
0, ,55, ,
0, ,55, ,
3, ,53, ,
-1, ,56, ,
-6, ,54, ,
1, ,55, ,
-1, ,55, ,
1, ,56, ,
4, ,53, ,
4, ,56, ,
4, ,55, ,
3, ,55, ,
1, ,55, ,
6, ,55, ,
4, ,53, ,
4, ,56, ,
0, ,54, ,
1, ,54, ,
1, ,55, ,
3, ,55, ,
3, ,53, ,
5, ,56, ,
5, ,55, ,
10, ,55, ,
1, ,55, ,
3, ,55, ,
5, ,53, ,
4, ,56, ,
-1, ,54, ,
5, ,55, ,
3, ,55, ,
3, ,55, ,
-1, ,53, ,
5, ,56, ,
3, ,55, ,
9, ,54, ,
3, ,54, ,
6, ,55, ,
6, ,53, ,
3, ,56, ,
-2, ,54, ,
3, ,54, ,
0, ,55, ,
6, ,55, ,
4, ,53, ,
8, ,55, ,
6, ,55, ,
8, ,55, ,
3, ,54, ,
3, ,56, ,
4, ,54, ,
1, ,56, ,
-1, ,55, ,
4, ,55, ,
0, ,55, ,
1, ,56, ,
0, ,53, ,
1, ,56, ,
3, ,55, ,
4, ,55, ,
3, ,55, ,
6, ,55, ,
8, ,53, ,
4, ,56, ,
-2, ,54, ,
3, ,54, ,
-1, ,56, ,
-2, ,55, ,
1, ,54, ,
0, ,55, ,
0, ,55, ,
1, ,54, ,
-2, ,55, ,
1, ,55, ,
1, ,54, ,
0, ,56, ,
-1, ,54, ,
5, ,55, ,
4, ,56, ,
6, ,55, ,
4, ,53, ,
4, ,56, ,
4, ,54, ,
5, ,55, ,
-4, ,55, ,
5, ,55, ,
4, ,53, ,
3, ,56, ,
1, ,54, ,
6, ,55, ,
1, ,55, ,
1, ,56, ,
0, ,52, ,
1, ,56, ,
3, ,55, ,
4, ,55, ,
3, ,55, ,
3, ,55, ,
5, ,53, ,
3, ,56, ,
-1, ,55, ,
3, ,55, ,
1, ,55, ,
4, ,55, ,
-1, ,54, ,
4, ,56, ,
3, ,55, ,
8, ,55, ,
5, ,55, ,
10, ,55, ,
11, ,54, ,
6, ,56, ,
5, ,54, ,
10, ,55, ,
5, ,55, ,
3, ,55, ,
3, ,53, ,
5, ,55, ,
4, ,55, ,
4, ,55, ,
0, ,55, ,
5, ,55, ,
4, ,53, ,
4, ,56, ,
0, ,54, ,
6, ,54, ,
5, ,55, ,
6, ,56, ,
1, ,53, ,
6, ,56, ,
0, ,54, ,
1, ,54, ,
0, ,55, ,
8, ,55, ,
5, ,54, ,
4, ,56, ,
4, ,54, ,
8, ,55, ,
6, ,55, ,
6, ,56, ,
4, ,53, ,
1, ,56, ,
-1, ,55, ,
1, ,55, ,
-1, ,55, ,
1, ,56, ,
3, ,53, ,
3, ,56, ,
0, ,54, ,
3, ,55, ,
3, ,55, ,
0, ,56, ,
-4, ,52, ,
3, ,56, ,
1, ,54, ,
3, ,55, ,
-2, ,55, ,
1, ,56, ,
3, ,53, ,
-1, ,56, ,
-1, ,54, ,
5, ,55, ,
4, ,55, ,
8, ,55, ,
4, ,53, ,
4, ,56, ,
3, ,54, ,
1, ,54, ,
-4, ,55, ,
0, ,55, ,
0, ,53, ,
-2, ,56, ,
-2, ,54, ,
4, ,55, ,
0, ,55, ,
-2, ,55, ,
-5, ,53, ,
-4, ,56, ,
-5, ,55, ,
-1, ,54, ,
-1, ,55, ,
4, ,55, ,
4, ,53, ,
3, ,56, ,
-1, ,54, ,
4, ,54, ,
-1, ,55, ,
-1, ,55, ,
-2, ,53, ,
-2, ,56, ,
0, ,55, ,
0, ,55, ,
-5, ,55, ,
0, ,56, ,
0, ,53, ,
0, ,56, ,
-1, ,54, ,
3, ,55, ,
1, ,55, ,
-2, ,55, ,
-2, ,54, ,
-1, ,55, ,
0, ,55, ,
-1, ,55, ,
-10, ,55, ,
-5, ,55, ,
-4, ,54, ,
-5, ,56, ,
-10, ,54, ,
-2, ,54, ,
-4, ,55, ,
-2, ,55, ,
-4, ,52, ,
-4, ,56, ,
-5, ,55, ,
-2, ,55, ,
-9, ,55, ,
-2, ,55, ,
-2, ,53, ,
-4, ,56, ,
-4, ,54, ,
-1, ,55, ,
-1, ,55, ,
-4, ,56, ,
-5, ,53, ,
-4, ,56, ,
-4, ,55, ,
-1, ,55, ,
-7, ,55, ,
-4, ,55, ,
0, ,52, ,
-5, ,56, ,
-9, ,54, ,
-1, ,55, ,
-7, ,55, ,
-2, ,56, ,
-4, ,52, ,
-1, ,56, ,
1, ,55, ,
1, ,54, ,
-2, ,55, ,
-2, ,55, ,
-2, ,52, ,
-4, ,56, ,
-10, ,54, ,
-2, ,54, ,
-1, ,55, ,
-1, ,55, ,
-2, ,53, ,
-1, ,56, ,
-2, ,55, ,
-2, ,55, ,
-6, ,55, ,
0, ,55, ,
1, ,54, ,
1, ,56, ,
-4, ,54, ,
3, ,54, ,
0, ,55, ,
3, ,55, ,
-1, ,53, ,
0, ,56, ,
-1, ,54, ,
3, ,54, ,
-5, ,55, ,
1, ,55, ,
1, ,53, ,
0, ,55, ,
-4, ,54, ,
0, ,55, ,
0, ,55, ,
3, ,55, ,
1, ,53, ,
3, ,56, ,
0, ,55, ,
4, ,55, ,
0, ,55, ,
1, ,55, ,
3, ,53, ,
-1, ,56, ,
-4, ,54, ,
0, ,55, ,
0, ,55, ,
1, ,55, ,
1, ,53, ,
3, ,56, ,
4, ,55, ,
4, ,55, ,
0, ,54, ,
0, ,55, ,
0, ,54, ,
0, ,56, ,
-4, ,55, ,
0, ,55, ,
1, ,55, ,
1, ,56, ,
0, ,53, ,
3, ,56, ,
1, ,55, ,
5, ,54, ,
1, ,55, ,
5, ,55, ,
5, ,53, ,
4, ,56, ,
-1, ,54, ,
4, ,54, ,
-2, ,55, ,
0, ,56, ,
-2, ,53, ,
0, ,56, ,
3, ,55, ,
4, ,55, ,
-1, ,55, ,
1, ,56, ,
0, ,53, ,
0, ,56, ,
-5, ,55, ,
3, ,55, ,
1, ,55, ,
4, ,55, ,
4, ,53, ,
8, ,56, ,
8, ,55, ,
6, ,55, ,
-2, ,54, ,
3, ,55, ,
3, ,53, ,
3, ,56, ,
1, ,54, ,
4, ,55, ,
5, ,55, ,
5, ,55, ,
4, ,52, ,
4, ,57, ,
6, ,55, ,
5, ,55, ,
3, ,55, ,
6, ,55, ,
8, ,53, ,
6, ,56, ,
4, ,54, ,
9, ,54, ,
5, ,55, ,
5, ,55, ,
3, ,53, ,
4, ,55, ,
4, ,55, ,
5, ,55, ,
0, ,55, ,
3, ,55, ,
5, ,53, ,
4, ,56, ,
-1, ,55, ,
4, ,54, ,
1, ,55, ,
5, ,55, ,
5, ,53, ,
5, ,56, ,
6, ,54, ,
8, ,54, ,
4, ,55, ,
6, ,55, ,
8, ,53, ,
3, ,55, ,
-4, ,54, ,
6, ,55, ,
0, ,55, ,
3, ,56, ,
0, ,53, ,
0, ,56, ,
0, ,55, ,
3, ,55, ,
0, ,55, ,
4, ,55, ,
4, ,53, ,
4, ,56, ,
0, ,55, ,
6, ,54, ,
4, ,55, ,
3, ,55, ,
1, ,53, ,
1, ,56, ,
1, ,54, ,
3, ,55, ,
-9, ,55, ,
6, ,55, ,
6, ,52, ,
4, ,56, ,
4, ,54, ,
6, ,54, ,
4, ,55, ,
1, ,55, ,
-1, ,52, ,
3, ,56, ,
1, ,54, ,
5, ,55, ,
0, ,55, ,
8, ,55, ,
8, ,54, ,
4, ,54, ,
-1, ,45, ,
0, ,36, ,
-5, ,27, ,
-5, ,17, ,
-6, ,10, ,
3, ,3, ,
3, ,-3, ,
3, ,-7, ,
-5, ,-11, ,
-4, ,-16, ,
-5, ,-19, ,
-4, ,-21, ,
-7, ,-24, ,
1, ,-26, ,
0, ,-27, ,
6, ,-29, ,
-4, ,-30, ,
0, ,-31, ,
0, ,-32, ,
-1, ,-32, ,
-2, ,-35, ,
0, ,-35, ,
5, ,-35, ,
4, ,-36, ,
0, ,-36, ,
5, ,-36, ,
0, ,-37, ,
-1, ,-37, ,
-2, ,-37, ,
-5, ,-37, ,
-6, ,-38, ,
-1, ,-37, ,
0, ,-38, ,
1, ,-38, ,
5, ,-38, ,
3, ,-38, ,
-1, ,-38, ,
3, ,-38, ,
3, ,-38, ,
-1, ,-38, ,
-2, ,-37, ,
1, ,-39, ,
0, ,-38, ,
1, ,-38, ,
-2, ,-38, ,
3, ,-38, ,
4, ,-38, ,
0, ,-38, ,
-2, ,-38, ,
1, ,-38, ,
-2, ,-38, ,
-1, ,-38, ,
-4, ,-38, ,
-5, ,-38, ,
-1, ,-38, ,
-4, ,-38, ,
-7, ,-38, ,
0, ,-38, ,
-1, ,-38, ,
0, ,-38, ,
-4, ,-38, ,
3, ,-38, ,
1, ,-38, ,
0, ,-38, ,
-2, ,-38, ,
-1, ,-38, ,
-1, ,-38, ,
-1, ,-38, ,
-4, ,-38, ,
1, ,-38, ,
3, ,-37, ,
-1, ,-38, ,
-5, ,-38, ,
-1, ,-38, ,
-1, ,-38, ,
0, ,-38, ,
-5, ,-38, ,
-2, ,-38, ,
-1, ,-38, ,
-1, ,-38, ,
0, ,-38, ,
4, ,-38, ,
4, ,-38, ,
3, ,-38, ,
-4, ,-38, ,
-1, ,-38, ,
-1, ,-38, ,
-2, ,-38, ,
-2, ,-38, ,
1, ,-38, ,
3, ,-38, ,
4, ,-38, ,
-2, ,-38, ,
-1, ,-38, ,
-4, ,-38, ,
-6, ,-38, ,
-5, ,-38, ,
1, ,-38, ,
3, ,-38, ,
3, ,-38, ,
0, ,-37, ,
-2, ,-38, ,
-2, ,-38, ,
-5, ,-38, ,
-6, ,-38, ,
-1, ,-38, ,
3, ,-38, ,
3, ,-38, ,
-1, ,-38, ,
1, ,-38, ,
1, ,-38, ,
-4, ,-38, ,
-5, ,-38, ,
-1, ,-38, ,
-1, ,-38, ,
0, ,-38, ,
-2, ,-38, ,
0, ,-38, ,
1, ,-38, ,
-2, ,-38, ,
-6, ,-38, ,
0, ,-37, ,
1, ,-38, ,
1, ,-38, ,
0, ,-37, ,
3, ,-38, ,
4, ,-37, ,
0, ,-38, ,
-4, ,-38, ,
-5, ,-38, ,
-2, ,-37, ,
-5, ,-38, ,
-9, ,-38, ,
-1, ,-38, ,
-1, ,-37, ,
0, ,-38, ,
-2, ,-38, ,
0, ,-38, ,
0, ,-38, ,
-2, ,-37, ,
-2, ,-38, ,
0, ,-38, ,
4, ,-37, ,
0, ,-38, ,
0, ,-38, ,
1, ,-38, ,
1, ,-38, ,
3, ,-38, ,
1, ,-38, ,
0, ,-38, ,
4, ,-38, ,
0, ,-38, ,
0, ,-38, ,
3, ,-38, ,
3, ,-38, ,
0, ,-38, ,
0, ,-38, ,
1, ,-38, ,
3, ,-38, ,
0, ,-38, ,
1, ,-38, ,
3, ,-38, ,
5, ,-38, ,
6, ,-38, ,
0, ,-38, ,
4, ,-38, ,
4, ,-38, ,
-1, ,-38, ,
-4, ,-38, ,
1, ,-37, ,
1, ,-38, ,
4, ,-38, ,
3, ,-37, ,
4, ,-38, ,
4, ,-38, ,
5, ,-38, ,
-4, ,-38, ,
3, ,-37, ,
6, ,-37, ,
3, ,-38, ,
4, ,-38, ,
8, ,-37, ,
8, ,-38, ,
8, ,-38, ,
5, ,-38, ,
5, ,-38, ,
4, ,-38, ,
3, ,-38, ,
-4, ,-38, ,
0, ,-38, ,
3, ,-37, ,
0, ,-38, ,
-2, ,-38, ,
6, ,-37, ,
3, ,-38, ,
4, ,-38, ,
3, ,-38, ,
3, ,-38, ,
9, ,-38, ,
5, ,-38, ,
3, ,-38, ,
4, ,-38, ,
4, ,-37, ,
3, ,-38, ,
-5, ,-38, ,
1, ,-38, ,
0, ,-37, ,
1, ,-38, ,
3, ,-38, ,
4, ,-38, ,
6, ,-38, ,
5, ,-37, ,
-2, ,-38, ,
3, ,-38, ,
4, ,-38, ,
1, ,-38, ,
0, ,-38, ,
4, ,-38, ,
4, ,-38, ,
6, ,-38, ,
5, ,-38, ,
3, ,-38, ,
3, ,-38, ,
4, ,-38, ,
-1, ,-38, ,
3, ,-37, ,
5, ,-38, ,
4, ,-38, ,
1, ,-38, ,
5, ,-37, ,
4, ,-37, ,
4, ,-38, ,
1, ,-37, ,
4, ,-38, ,
4, ,-38, ,
4, ,-37, ,
1, ,-38, ,
4, ,-37, ,
8, ,-37, ,
4, ,-38, ,
3, ,-38, ,
3, ,-37, ,
3, ,-38, ,
4, ,-38, ,
4, ,-38, ,
3, ,-38, ,
3, ,-38, ,
3, ,-38, ,
-2, ,-38, ,
3, ,-38, ,
5, ,-38, ,
3, ,-38, ,
0, ,-38, ,
1, ,-38, ,
3, ,-38, ,
3, ,-38, ,
-1, ,-37, ,
4, ,-38, ,
6, ,-38, ,
4, ,-38, ,
4, ,-38, ,
3, ,-37, ,
5, ,-37, ,
3, ,-38, ,
-2, ,-38, ,
1, ,-37, ,
3, ,-38, ,
-1, ,-38, ,
0, ,-37, ,
0, ,-38, ,
1, ,-38, ,
3, ,-38, ,
-4, ,-38, ,
0, ,-38, ,
3, ,-37, ,
-1, ,-38, ,
-4, ,-38, ,
-1, ,-38, ,
3, ,-38, ,
0, ,-38, ,
-2, ,-37, ,
0, ,-37, ,
0, ,-38, ,
4, ,-37, ,
0, ,-38, ,
4, ,-37, ,
5, ,-38, ,
1, ,-38, ,
-1, ,-38, ,
1, ,-37, ,
-2, ,-38, ,
-2, ,-37, ,
-4, ,-37, ,
-1, ,-38, ,
0, ,-38, ,
3, ,-38, ,
-4, ,-37, ,
-1, ,-38, ,
3, ,-38, ,
0, ,-38, ,
-2, ,-38, ,
0, ,-38, ,
3, ,-37, ,
1, ,-38, ,
-2, ,-38, ,
-2, ,-38, ,
-5, ,-38, ,
-1, ,-38, ,
-4, ,-38, ,
0, ,-38, ,
4, ,-38, ,
0, ,-38, ,
-1, ,-38, ,
3, ,-37, ,
-1, ,-38, ,
1, ,-38, ,
-4, ,-37, ,
-1, ,-37, ,
1, ,-38, ,
4, ,-38, ,
0, ,-38, ,
3, ,-38, ,
4, ,-37, ,
1, ,-38, ,
-2, ,-38, ,
0, ,-37, ,
-1, ,-38, ,
-4, ,-38, ,
-1, ,-38, ,
-2, ,-38, ,
-1, ,-38, ,
4, ,-37, ,
-1, ,-38, ,
1, ,-37, ,
4, ,-38, ,
1, ,-38, ,
-2, ,-38, ,
5, ,-37, ,
3, ,-38, ,
3, ,-37, ,
0, ,-37, ,
-2, ,-38, ,
-1, ,-37, ,
0, ,-38, ,
-6, ,-38, ,
0, ,-38, ,
3, ,-37, ,
-1, ,-38, ,
-6, ,-38, ,
0, ,-37, ,
0, ,-38, ,
-2, ,-38, ,
-7, ,-37, ,
-2, ,-38, ,
-2, ,-38, ,
-2, ,-37, ,
-5, ,-38, ,
1, ,-38, ,
4, ,-37, ,
-1, ,-38, ,
-2, ,-38, ,
1, ,-38, ,
3, ,-38, ,
-1, ,-38, ,
-5, ,-38, ,
-1, ,-38, ,
0, ,-38, ,
-1, ,-37, ,
-2, ,-38, ,
1, ,-37, ,
0, ,-37, ,
-2, ,-38, ,
-5, ,-38, ,
1, ,-38, ,
0, ,-37, ,
1, ,-38, ,
1, ,-37, ,
0, ,-38, ,
0, ,-37, ,
-1, ,-38, ,
-5, ,-37, ,
-2, ,-38, ,
1, ,-37, ,
0, ,-38, ,
-2, ,-38, ,
5, ,-37, ,
3, ,-38, ,
1, ,-38, ,
0, ,-38, ,
0, ,-38, ,
3, ,-38, ,
-1, ,-37, ,
-2, ,-38, ,
1, ,-38, ,
3, ,-38, ,
3, ,-38, ,
0, ,-38, ,
3, ,-38, ,
4, ,-38, ,
1, ,-38, ,
1, ,-37, ,
0, ,-38, ,
3, ,-38, ,
8, ,-38, ,
3, ,-37, ,
6, ,-38, ,
10, ,-37, ,
3, ,-38, ,
-1, ,-38, ,
-1, ,-37, ,
-1, ,-38, ,
0, ,-37, ,
0, ,-37, ,
1, ,-38, ,
4, ,-38, ,
5, ,-37, ,
-1, ,-38, ,
1, ,-38, ,
3, ,-38, ,
0, ,-38, ,
0, ,-38, ,
4, ,-38, ,
5, ,-38, ,
8, ,-38, ,
4, ,-37, ,
4, ,-38, ,
3, ,-37, ,
1, ,-38, ,
-5, ,-37, ,
-1, ,-38, ,
3, ,-37, ,
0, ,-38, ,
3, ,-38, ,
6, ,-37, ,
4, ,-38, ,
5, ,-37, ,
1, ,-37, ,
1, ,-38, ,
-1, ,-38, ,
0, ,-38, ,
6, ,-38, ,
1, ,-38, ,
3, ,-38, ,
5, ,-38, ,
-2, ,-38, ,
4, ,-38, ,
3, ,-38, ,
1, ,-38, ,
4, ,-38, ,
3, ,-38, ,
4, ,-38, ,
4, ,-37, ,
-1, ,-38, ,
3, ,-38, ,
1, ,-37, ,
1, ,-38, ,
1, ,-38, ,
4, ,-37, ,
5, ,-37, ,
5, ,-37, ,
8, ,-37, ,
6, ,-37, ,
6, ,-38, ,
6, ,-37, ,
-1, ,-37, ,
1, ,-37, ,
4, ,-37, ,
3, ,-38, ,
0, ,-37, ,
5, ,-37, ,
10, ,-37, ,
3, ,-38, ,
4, ,-38, ,
1, ,-38, ,
1, ,-38, ,
5, ,-37, ,
3, ,-38, ,
6, ,-37, ,
9, ,-38, ,
4, ,-38, ,
4, ,-38, ,
8, ,-38, ,
5, ,-38, ,
3, ,-38, ,
1, ,-38, ,
3, ,-38, ,
5, ,-38, ,
8, ,-37, ,
3, ,-38, ,
3, ,-37, ,
3, ,-37, ,
0, ,-38, ,
-2, ,-38, ,
4, ,-38, ,
5, ,-38, ,
5, ,-38, ,
4, ,-37, ,
4, ,-38, ,
4, ,-37, ,
4, ,-38, ,
0, ,-38, ,
1, ,-38, ,
3, ,-37, ,
1, ,-38, ,
-2, ,-38, ,
4, ,-38, ,
5, ,-38, ,
4, ,-38, ,
3, ,-37, ,
1, ,-38, ,
4, ,-38, ,
1, ,-38, ,
-2, ,-38, ,
1, ,-38, ,
1, ,-38, ,
-1, ,-38, ,
-4, ,-38, ,
1, ,-38, ,
4, ,-38, ,
0, ,-38, ,
1, ,-38, ,
3, ,-38, ,
1, ,-37, ,
4, ,-38, ,
-1, ,-38, ,
3, ,-37, ,
6, ,-37, ,
3, ,-38, ,
-2, ,-38, ,
0, ,-37, ,
-1, ,-38, ,
-6, ,-37, ,
-4, ,-37, ,
1, ,-37, ,
4, ,-38, ,
8, ,-37, ,
-1, ,-38, ,
1, ,-38, ,
5, ,-38, ,
0, ,-38, ,
0, ,-38, ,
3, ,-38, ,
3, ,-38, ,
0, ,-38, ,
-2, ,-38, ,
-4, ,-38, ,
-1, ,-38, ,
1, ,-38, ,
-2, ,-38, ,
0, ,-38, ,
5, ,-37, ,
1, ,-38, ,
-1, ,-38, ,
3, ,-38, ,
3, ,-38, ,
1, ,-38, ,
0, ,-37, ,
1, ,-38, ,
0, ,-38, ,
0, ,-38, ,
-2, ,-38, ,
1, ,-38, ,
4, ,-38, ,
4, ,-38, ,
1, ,-38, ,
3, ,-38, ,
0, ,-37, ,
-1, ,-38, ,
-2, ,-38, ,
3, ,-38, ,
1, ,-38, ,
3, ,-37, ,
-1, ,-38, ,
0, ,-38, ,
0, ,-38, ,
0, ,-38, ,
-2, ,-38, ,
3, ,-38, ,
0, ,-38, ,
0, ,-38, ,
-1, ,-37, ,
-4, ,-38, ,
0, ,-38, ,
1, ,-38, ,
-4, ,-38, ,
3, ,-37, ,
1, ,-37, ,
-4, ,-38, ,
-6, ,-38, ,
-5, ,-38, ,
0, ,-37, ,
-1, ,-38, ,
-2, ,-38, ,
1, ,-38, ,
-2, ,-38, ,
-1, ,-38, ,
-5, ,-38, ,
0, ,-38, ,
4, ,-37, ,
-1, ,-38, ,
-1, ,-37, ,
1, ,-38, ,
-2, ,-38, ,
-2, ,-38, ,
-7, ,-37, ,
-2, ,-38, ,
0, ,-37, ,
-1, ,-38, ,
-1, ,-38, ,
-1, ,-38, ,
3, ,-37, ,
0, ,-38, ,
-2, ,-38, ,
3, ,-38, ,
0, ,-37, ,
1, ,-38, ,
-4, ,-38, ,
0, ,-38, ,
1, ,-38, ,
5, ,-37, ,
-1, ,-38, ,
4, ,-38, ,
5, ,-38, ,
0, ,-38, ,
-4, ,-38, ,
3, ,-37, ,
1, ,-38, ,
1, ,-38, ,
0, ,-38, ,
0, ,-38, ,
1, ,-38, ,
-1, ,-38, ,
-7, ,-38, ,
-2, ,-38, ,
-2, ,-37, ,
-2, ,-38, ,
-7, ,-38, ,
5, ,-37, ,
3, ,-38, ,
-1, ,-38, ,
1, ,-37, ,
1, ,-38, ,
1, ,-38, ,
4, ,-38, ,
0, ,-38, ,
3, ,-38, ,
5, ,-38, ,
0, ,-38, ,
1, ,-38, ,
0, ,-38, ,
-1, ,-38, ,
-1, ,-38, ,
-6, ,-37, ,
-2, ,-38, ,
