src/vary_am2_1411/temp0004282.CSV

Format,1.0B,
Memory Length,10000,Memory Length,10000,
IntpDistance,0,IntpDistance,0,
Trigger Address,4999,Trigger Address,4999,
Trigger Level,-1.000E+00,Trigger Level,-1.000E+00,
Source,CH1,Source,CH2,
Vertical Units,V,Vertical Units,V,
Vertical Units Div,0,Vertical Units Div,0,
Vertical Units Extend Div,16,Vertical Units Extend Div,16,
Label,,Label,,
Probe Type,0,Probe Type,0,
Probe Ratio,1.000e+01,Probe Ratio,1.000e+00,
Vertical Scale,2.000e-02,Vertical Scale,1.000e+00,
Vertical Position,-5.120e-02,Vertical Position,2.000e-01,
Horizontal Units,S,Horizontal Units,S,
Horizontal Scale,1.000E-05,Horizontal Scale,1.000E-05,
Horizontal Position,0.000E+00,Horizontal Position,0.000E+00,
Horizontal Mode,Main,Horizontal Mode,Main,
SincET Mode,Real Time,SincET Mode,Real Time,
Sampling Period,1.000e-08,Sampling Period,1.000e-08,
Horizontal Old Scale,1.000E-05,Horizontal Old Scale,1.000E-05,
Horizontal Old Position,0.000E+00,Horizontal Old Position,0.000E+00,
Firmware,V1.23,Firmware,V1.23,
Mode,Fast,Mode,Fast,
Waveform Data,,Waveform Data,,
0, ,-35, ,
1, ,-35, ,
1, ,-35, ,
4, ,-35, ,
1, ,-35, ,
-1, ,-35, ,
1, ,-35, ,
-1, ,-35, ,
1, ,-35, ,
-4, ,-35, ,
-1, ,-35, ,
5, ,-35, ,
-1, ,-35, ,
-6, ,-35, ,
1, ,-35, ,
1, ,-35, ,
3, ,-35, ,
3, ,-35, ,
6, ,-35, ,
8, ,-35, ,
6, ,-35, ,
1, ,-35, ,
3, ,-35, ,
3, ,-35, ,
1, ,-35, ,
-2, ,-35, ,
4, ,-35, ,
3, ,-35, ,
4, ,-35, ,
4, ,-35, ,
1, ,-35, ,
1, ,-35, ,
-1, ,-35, ,
-1, ,-35, ,
0, ,-35, ,
1, ,-35, ,
1, ,-35, ,
-1, ,-35, ,
3, ,-35, ,
-1, ,-35, ,
-2, ,-35, ,
-2, ,-35, ,
-2, ,-35, ,
-2, ,-35, ,
3, ,-35, ,
-4, ,-35, ,
1, ,-35, ,
1, ,-35, ,
-2, ,-35, ,
-2, ,-35, ,
0, ,-35, ,
-1, ,-35, ,
-1, ,-35, ,
1, ,-35, ,
4, ,-35, ,
5, ,-35, ,
9, ,-35, ,
1, ,-35, ,
8, ,-35, ,
8, ,-35, ,
5, ,-35, ,
4, ,-35, ,
8, ,-35, ,
5, ,-35, ,
6, ,-35, ,
3, ,-35, ,
5, ,-35, ,
6, ,-35, ,
4, ,-35, ,
-1, ,-35, ,
0, ,-35, ,
1, ,-35, ,
0, ,-35, ,
-2, ,-35, ,
1, ,-35, ,
-1, ,-35, ,
-1, ,-35, ,
-2, ,-35, ,
-2, ,-35, ,
-4, ,-35, ,
-4, ,-36, ,
-4, ,-35, ,
-2, ,-35, ,
1, ,-35, ,
-2, ,-35, ,
-6, ,-35, ,
3, ,-35, ,
-1, ,-35, ,
-2, ,-35, ,
-2, ,-35, ,
0, ,-35, ,
3, ,-35, ,
5, ,-35, ,
1, ,-35, ,
4, ,-35, ,
4, ,-35, ,
1, ,-35, ,
-2, ,-35, ,
0, ,-35, ,
1, ,-36, ,
0, ,-35, ,
1, ,-35, ,
3, ,-35, ,
4, ,-35, ,
5, ,-36, ,
-1, ,-35, ,
3, ,-35, ,
1, ,-35, ,
1, ,-35, ,
-6, ,-35, ,
-1, ,-35, ,
-1, ,-35, ,
-4, ,-35, ,
-1, ,-35, ,
-2, ,-35, ,
-2, ,-35, ,
0, ,-35, ,
-2, ,-35, ,
3, ,-35, ,
6, ,-35, ,
5, ,-35, ,
1, ,-35, ,
6, ,-35, ,
6, ,-35, ,
4, ,-35, ,
3, ,-35, ,
1, ,-35, ,
3, ,-35, ,
6, ,-35, ,
5, ,-35, ,
8, ,-35, ,
8, ,-35, ,
1, ,-35, ,
0, ,-35, ,
1, ,-35, ,
0, ,-35, ,
5, ,-35, ,
5, ,-35, ,
6, ,-35, ,
3, ,-35, ,
3, ,-35, ,
-1, ,-35, ,
-1, ,-35, ,
1, ,-35, ,
3, ,-35, ,
-1, ,-35, ,
0, ,-35, ,
-1, ,-35, ,
-2, ,-35, ,
-4, ,-35, ,
-5, ,-35, ,
-1, ,-35, ,
-1, ,-35, ,
-9, ,-35, ,
0, ,-35, ,
0, ,-35, ,
3, ,-35, ,
-2, ,-35, ,
1, ,-35, ,
0, ,-35, ,
0, ,-35, ,
3, ,-35, ,
4, ,-35, ,
9, ,-35, ,
10, ,-35, ,
4, ,-35, ,
5, ,-35, ,
5, ,-35, ,
3, ,-35, ,
0, ,-35, ,
6, ,-35, ,
8, ,-35, ,
5, ,-35, ,
3, ,-35, ,
1, ,-35, ,
3, ,-35, ,
5, ,-35, ,
0, ,-35, ,
1, ,-35, ,
8, ,-35, ,
4, ,-35, ,
1, ,-35, ,
0, ,-35, ,
-1, ,-35, ,
-1, ,-35, ,
-1, ,-35, ,
1, ,-35, ,
3, ,-35, ,
1, ,-35, ,
-2, ,-35, ,
-1, ,-35, ,
0, ,-35, ,
0, ,-35, ,
0, ,-35, ,
6, ,-35, ,
5, ,-35, ,
6, ,-35, ,
5, ,-35, ,
4, ,-35, ,
3, ,-35, ,
4, ,-35, ,
0, ,-35, ,
4, ,-35, ,
9, ,-35, ,
8, ,-35, ,
5, ,-35, ,
8, ,-35, ,
5, ,-35, ,
4, ,-35, ,
3, ,-35, ,
1, ,-35, ,
5, ,-35, ,
1, ,-35, ,
-1, ,-35, ,
4, ,-35, ,
4, ,-35, ,
4, ,-35, ,
-1, ,-35, ,
3, ,-35, ,
0, ,-35, ,
0, ,-35, ,
1, ,-35, ,
0, ,-35, ,
3, ,-35, ,
4, ,-35, ,
-1, ,-35, ,
0, ,-35, ,
1, ,-35, ,
1, ,-35, ,
-1, ,-35, ,
3, ,-35, ,
3, ,-35, ,
0, ,-35, ,
-1, ,-35, ,
0, ,-35, ,
-1, ,-35, ,
1, ,-35, ,
-4, ,-35, ,
3, ,-35, ,
4, ,-35, ,
1, ,-35, ,
4, ,-35, ,
9, ,-35, ,
5, ,-35, ,
5, ,-35, ,
1, ,-35, ,
1, ,-35, ,
-1, ,-35, ,
1, ,-35, ,
-4, ,-35, ,
-2, ,-35, ,
0, ,-35, ,
0, ,-35, ,
-2, ,-35, ,
1, ,-35, ,
-1, ,-35, ,
-1, ,-35, ,
-5, ,-35, ,
-2, ,-35, ,
-2, ,-35, ,
-1, ,-35, ,
-1, ,-36, ,
-1, ,-35, ,
0, ,-35, ,
0, ,-35, ,
-5, ,-35, ,
3, ,-35, ,
0, ,-35, ,
1, ,-35, ,
3, ,-35, ,
0, ,-35, ,
3, ,-35, ,
4, ,-35, ,
0, ,-35, ,
4, ,-35, ,
4, ,-35, ,
4, ,-35, ,
4, ,-35, ,
6, ,-35, ,
9, ,-35, ,
9, ,-35, ,
8, ,-35, ,
8, ,-35, ,
6, ,-35, ,
5, ,-35, ,
0, ,-35, ,
0, ,-35, ,
3, ,-35, ,
0, ,-35, ,
0, ,-35, ,
0, ,-35, ,
4, ,-35, ,
1, ,-35, ,
-6, ,-35, ,
-5, ,-35, ,
-5, ,-35, ,
-2, ,-35, ,
-6, ,-35, ,
0, ,-35, ,
5, ,-35, ,
1, ,-35, ,
0, ,-35, ,
1, ,-35, ,
0, ,-36, ,
-1, ,-35, ,
-2, ,-35, ,
1, ,-35, ,
1, ,-35, ,
0, ,-35, ,
-5, ,-28, ,
5, ,-19, ,
8, ,-9, ,
8, ,0, ,
6, ,8, ,
8, ,15, ,
6, ,21, ,
6, ,27, ,
8, ,31, ,
10, ,34, ,
11, ,37, ,
8, ,40, ,
0, ,44, ,
4, ,46, ,
5, ,48, ,
1, ,49, ,
-2, ,49, ,
5, ,52, ,
1, ,53, ,
3, ,53, ,
1, ,53, ,
3, ,54, ,
9, ,54, ,
0, ,56, ,
-5, ,56, ,
4, ,56, ,
1, ,56, ,
3, ,57, ,
-1, ,55, ,
5, ,58, ,
3, ,57, ,
3, ,57, ,
-1, ,58, ,
4, ,57, ,
4, ,56, ,
4, ,58, ,
-1, ,57, ,
4, ,58, ,
4, ,58, ,
0, ,58, ,
-7, ,56, ,
-1, ,58, ,
-10, ,58, ,
-6, ,58, ,
-10, ,58, ,
-7, ,58, ,
-5, ,57, ,
-5, ,59, ,
-10, ,58, ,
-7, ,58, ,
-6, ,58, ,
1, ,59, ,
1, ,57, ,
15, ,58, ,
23, ,58, ,
16, ,57, ,
11, ,58, ,
9, ,58, ,
4, ,57, ,
1, ,59, ,
-9, ,58, ,
-7, ,58, ,
-1, ,59, ,
-6, ,58, ,
-6, ,56, ,
0, ,58, ,
-1, ,58, ,
3, ,57, ,
-1, ,58, ,
1, ,58, ,
1, ,57, ,
3, ,58, ,
-1, ,57, ,
1, ,58, ,
0, ,58, ,
-1, ,58, ,
-5, ,56, ,
1, ,58, ,
1, ,57, ,
5, ,58, ,
4, ,58, ,
5, ,58, ,
8, ,56, ,
4, ,59, ,
-1, ,57, ,
-1, ,58, ,
-5, ,58, ,
-4, ,58, ,
-7, ,56, ,
0, ,58, ,
-1, ,58, ,
4, ,57, ,
6, ,57, ,
6, ,58, ,
8, ,56, ,
6, ,59, ,
-1, ,57, ,
-1, ,57, ,
-2, ,58, ,
-5, ,58, ,
-7, ,56, ,
3, ,59, ,
-1, ,57, ,
0, ,57, ,
1, ,57, ,
3, ,57, ,
3, ,56, ,
9, ,58, ,
4, ,57, ,
8, ,57, ,
9, ,58, ,
8, ,58, ,
5, ,56, ,
6, ,58, ,
3, ,58, ,
3, ,57, ,
1, ,57, ,
6, ,58, ,
5, ,56, ,
8, ,59, ,
3, ,57, ,
6, ,57, ,
4, ,58, ,
0, ,58, ,
0, ,56, ,
5, ,58, ,
5, ,57, ,
8, ,57, ,
5, ,57, ,
9, ,58, ,
6, ,56, ,
6, ,58, ,
3, ,57, ,
4, ,57, ,
4, ,57, ,
3, ,58, ,
-1, ,56, ,
6, ,58, ,
3, ,57, ,
3, ,57, ,
0, ,57, ,
0, ,58, ,
1, ,56, ,
1, ,58, ,
0, ,57, ,
3, ,57, ,
4, ,58, ,
6, ,58, ,
0, ,55, ,
6, ,58, ,
3, ,58, ,
3, ,57, ,
0, ,58, ,
1, ,58, ,
1, ,56, ,
5, ,58, ,
-1, ,57, ,
5, ,57, ,
8, ,57, ,
5, ,58, ,
1, ,55, ,
3, ,58, ,
3, ,57, ,
1, ,57, ,
4, ,57, ,
5, ,58, ,
3, ,56, ,
5, ,59, ,
-1, ,57, ,
4, ,58, ,
6, ,58, ,
3, ,58, ,
0, ,56, ,
5, ,58, ,
5, ,57, ,
4, ,57, ,
-1, ,57, ,
1, ,58, ,
3, ,56, ,
5, ,58, ,
0, ,57, ,
4, ,57, ,
6, ,58, ,
6, ,58, ,
4, ,56, ,
9, ,58, ,
5, ,57, ,
6, ,57, ,
1, ,57, ,
4, ,58, ,
4, ,56, ,
6, ,58, ,
1, ,56, ,
4, ,57, ,
8, ,58, ,
5, ,58, ,
3, ,56, ,
8, ,58, ,
1, ,57, ,
1, ,57, ,
0, ,57, ,
1, ,58, ,
3, ,56, ,
5, ,58, ,
1, ,57, ,
8, ,57, ,
4, ,58, ,
4, ,58, ,
0, ,56, ,
5, ,58, ,
3, ,57, ,
4, ,57, ,
3, ,57, ,
4, ,58, ,
6, ,56, ,
10, ,58, ,
0, ,57, ,
4, ,57, ,
5, ,58, ,
3, ,58, ,
-1, ,56, ,
3, ,58, ,
0, ,57, ,
-1, ,57, ,
-1, ,57, ,
-2, ,57, ,
-4, ,56, ,
3, ,58, ,
-5, ,57, ,
0, ,57, ,
8, ,57, ,
3, ,58, ,
3, ,56, ,
5, ,58, ,
1, ,57, ,
-1, ,57, ,
-6, ,57, ,
0, ,58, ,
-2, ,56, ,
0, ,58, ,
-6, ,56, ,
0, ,57, ,
3, ,58, ,
1, ,58, ,
0, ,56, ,
4, ,58, ,
0, ,57, ,
0, ,57, ,
-1, ,57, ,
0, ,57, ,
1, ,56, ,
4, ,58, ,
-2, ,57, ,
1, ,57, ,
4, ,58, ,
3, ,58, ,
-1, ,56, ,
6, ,58, ,
4, ,57, ,
5, ,57, ,
4, ,57, ,
4, ,57, ,
5, ,56, ,
5, ,58, ,
1, ,57, ,
4, ,57, ,
3, ,58, ,
4, ,58, ,
3, ,55, ,
9, ,58, ,
8, ,58, ,
5, ,57, ,
3, ,57, ,
4, ,58, ,
3, ,56, ,
3, ,58, ,
-1, ,57, ,
6, ,57, ,
10, ,57, ,
5, ,58, ,
4, ,56, ,
5, ,58, ,
5, ,58, ,
3, ,57, ,
1, ,57, ,
4, ,58, ,
4, ,56, ,
8, ,58, ,
1, ,56, ,
4, ,57, ,
4, ,58, ,
4, ,58, ,
0, ,56, ,
4, ,58, ,
5, ,57, ,
5, ,57, ,
0, ,57, ,
4, ,57, ,
1, ,56, ,
4, ,58, ,
-2, ,57, ,
3, ,57, ,
3, ,58, ,
0, ,58, ,
-2, ,56, ,
3, ,58, ,
-1, ,57, ,
3, ,57, ,
-1, ,57, ,
1, ,58, ,
1, ,56, ,
1, ,58, ,
-6, ,57, ,
3, ,57, ,
0, ,58, ,
1, ,58, ,
0, ,56, ,
5, ,58, ,
0, ,57, ,
-1, ,57, ,
-4, ,57, ,
-2, ,57, ,
-4, ,56, ,
-1, ,58, ,
-6, ,56, ,
1, ,57, ,
3, ,58, ,
-1, ,58, ,
-4, ,56, ,
4, ,58, ,
1, ,57, ,
-2, ,57, ,
-4, ,57, ,
-2, ,58, ,
1, ,56, ,
1, ,59, ,
-7, ,56, ,
-2, ,57, ,
-5, ,58, ,
-6, ,58, ,
-6, ,56, ,
1, ,58, ,
1, ,57, ,
3, ,57, ,
-2, ,57, ,
-2, ,58, ,
-4, ,56, ,
0, ,59, ,
-7, ,56, ,
1, ,57, ,
3, ,58, ,
-1, ,58, ,
-1, ,56, ,
4, ,58, ,
-2, ,57, ,
-2, ,57, ,
-10, ,57, ,
-5, ,58, ,
-6, ,56, ,
-2, ,58, ,
-7, ,57, ,
-1, ,57, ,
-1, ,58, ,
-4, ,58, ,
-4, ,56, ,
3, ,58, ,
1, ,58, ,
3, ,57, ,
0, ,57, ,
1, ,58, ,
1, ,56, ,
-1, ,58, ,
-5, ,57, ,
-1, ,57, ,
-4, ,58, ,
-2, ,58, ,
-10, ,56, ,
-1, ,58, ,
-2, ,57, ,
-2, ,57, ,
-2, ,57, ,
0, ,58, ,
0, ,56, ,
-1, ,58, ,
-9, ,56, ,
-2, ,57, ,
-4, ,58, ,
-4, ,58, ,
-9, ,57, ,
1, ,58, ,
-2, ,58, ,
0, ,57, ,
-2, ,58, ,
-2, ,58, ,
-4, ,56, ,
0, ,58, ,
-6, ,57, ,
-2, ,57, ,
0, ,58, ,
-1, ,58, ,
-2, ,56, ,
-2, ,58, ,
-2, ,57, ,
-2, ,57, ,
-2, ,57, ,
0, ,58, ,
1, ,56, ,
6, ,59, ,
-2, ,56, ,
4, ,57, ,
1, ,57, ,
1, ,57, ,
-5, ,56, ,
0, ,58, ,
0, ,57, ,
0, ,57, ,
1, ,57, ,
3, ,58, ,
1, ,56, ,
8, ,58, ,
0, ,57, ,
3, ,57, ,
5, ,58, ,
4, ,58, ,
1, ,56, ,
5, ,58, ,
4, ,57, ,
5, ,57, ,
3, ,57, ,
6, ,58, ,
5, ,56, ,
6, ,58, ,
-1, ,56, ,
0, ,57, ,
3, ,58, ,
4, ,58, ,
1, ,56, ,
8, ,58, ,
3, ,57, ,
6, ,57, ,
3, ,57, ,
5, ,58, ,
3, ,56, ,
3, ,58, ,
-1, ,56, ,
1, ,57, ,
4, ,58, ,
3, ,58, ,
-1, ,55, ,
1, ,58, ,
1, ,57, ,
1, ,57, ,
3, ,57, ,
5, ,58, ,
9, ,56, ,
9, ,59, ,
4, ,56, ,
8, ,57, ,
5, ,58, ,
3, ,58, ,
-1, ,56, ,
1, ,58, ,
4, ,57, ,
3, ,57, ,
3, ,57, ,
5, ,58, ,
3, ,57, ,
4, ,58, ,
1, ,57, ,
4, ,57, ,
5, ,58, ,
4, ,57, ,
0, ,56, ,
5, ,58, ,
5, ,57, ,
5, ,57, ,
-4, ,57, ,
1, ,58, ,
9, ,56, ,
3, ,58, ,
1, ,57, ,
6, ,57, ,
3, ,58, ,
4, ,58, ,
-2, ,56, ,
8, ,59, ,
5, ,57, ,
6, ,57, ,
6, ,57, ,
6, ,58, ,
6, ,56, ,
6, ,58, ,
4, ,57, ,
8, ,57, ,
9, ,58, ,
6, ,58, ,
3, ,56, ,
8, ,58, ,
3, ,57, ,
4, ,57, ,
3, ,58, ,
5, ,58, ,
8, ,56, ,
10, ,58, ,
4, ,56, ,
8, ,57, ,
8, ,58, ,
9, ,57, ,
0, ,56, ,
10, ,58, ,
10, ,58, ,
4, ,57, ,
5, ,57, ,
5, ,57, ,
8, ,56, ,
10, ,58, ,
3, ,56, ,
8, ,57, ,
6, ,58, ,
4, ,58, ,
1, ,56, ,
5, ,58, ,
5, ,57, ,
6, ,57, ,
3, ,57, ,
3, ,58, ,
5, ,56, ,
8, ,58, ,
1, ,57, ,
8, ,57, ,
9, ,58, ,
9, ,58, ,
4, ,56, ,
6, ,58, ,
3, ,57, ,
3, ,57, ,
-2, ,57, ,
4, ,57, ,
5, ,56, ,
5, ,59, ,
1, ,57, ,
5, ,57, ,
5, ,58, ,
4, ,57, ,
-1, ,56, ,
1, ,58, ,
-4, ,58, ,
1, ,57, ,
-1, ,57, ,
0, ,58, ,
1, ,56, ,
1, ,58, ,
-4, ,57, ,
0, ,57, ,
-1, ,58, ,
1, ,57, ,
0, ,56, ,
4, ,58, ,
3, ,57, ,
4, ,57, ,
1, ,57, ,
1, ,58, ,
1, ,56, ,
3, ,58, ,
-1, ,56, ,
5, ,57, ,
3, ,58, ,
1, ,57, ,
0, ,56, ,
4, ,58, ,
3, ,57, ,
1, ,57, ,
1, ,57, ,
0, ,58, ,
4, ,56, ,
5, ,58, ,
-2, ,57, ,
4, ,57, ,
3, ,57, ,
1, ,58, ,
-1, ,56, ,
3, ,58, ,
1, ,57, ,
-1, ,57, ,
-4, ,57, ,
-1, ,58, ,
3, ,56, ,
4, ,59, ,
-4, ,57, ,
3, ,57, ,
3, ,58, ,
1, ,58, ,
-1, ,56, ,
3, ,58, ,
-1, ,58, ,
1, ,57, ,
-5, ,57, ,
-1, ,58, ,
-1, ,56, ,
-1, ,58, ,
-7, ,57, ,
-4, ,57, ,
0, ,58, ,
-1, ,58, ,
-4, ,56, ,
4, ,58, ,
-2, ,58, ,
-1, ,57, ,
-6, ,57, ,
-4, ,57, ,
-5, ,57, ,
-2, ,58, ,
-4, ,57, ,
0, ,57, ,
1, ,58, ,
1, ,57, ,
-5, ,56, ,
3, ,58, ,
-4, ,57, ,
-2, ,57, ,
-6, ,57, ,
-5, ,58, ,
-4, ,56, ,
-1, ,58, ,
-6, ,56, ,
-2, ,57, ,
-4, ,57, ,
-2, ,57, ,
-9, ,56, ,
-1, ,58, ,
-1, ,57, ,
-1, ,57, ,
0, ,57, ,
0, ,57, ,
-1, ,56, ,
3, ,58, ,
-6, ,57, ,
-1, ,57, ,
-4, ,57, ,
-5, ,58, ,
-6, ,56, ,
-2, ,58, ,
-4, ,57, ,
-1, ,57, ,
-1, ,57, ,
-1, ,58, ,
-2, ,56, ,
3, ,59, ,
-6, ,56, ,
0, ,57, ,
3, ,58, ,
1, ,58, ,
-1, ,56, ,
0, ,58, ,
-4, ,57, ,
-2, ,57, ,
-7, ,57, ,
-2, ,58, ,
-4, ,56, ,
0, ,58, ,
-4, ,57, ,
-1, ,57, ,
0, ,58, ,
0, ,58, ,
-2, ,56, ,
3, ,58, ,
1, ,57, ,
3, ,57, ,
1, ,57, ,
3, ,58, ,
0, ,56, ,
1, ,58, ,
-4, ,57, ,
1, ,57, ,
4, ,58, ,
1, ,58, ,
-2, ,56, ,
4, ,58, ,
1, ,57, ,
3, ,57, ,
1, ,57, ,
1, ,58, ,
0, ,56, ,
1, ,58, ,
-4, ,57, ,
-1, ,58, ,
-1, ,58, ,
-2, ,58, ,
-6, ,56, ,
-1, ,58, ,
0, ,58, ,
1, ,57, ,
-2, ,57, ,
1, ,58, ,
-1, ,56, ,
3, ,59, ,
-4, ,57, ,
0, ,57, ,
3, ,58, ,
3, ,58, ,
-2, ,56, ,
1, ,58, ,
1, ,58, ,
0, ,57, ,
-2, ,57, ,
-1, ,58, ,
-2, ,56, ,
3, ,58, ,
-4, ,56, ,
4, ,57, ,
4, ,58, ,
1, ,58, ,
-4, ,56, ,
4, ,58, ,
0, ,58, ,
4, ,57, ,
1, ,57, ,
5, ,57, ,
4, ,56, ,
3, ,58, ,
0, ,57, ,
0, ,57, ,
3, ,58, ,
0, ,58, ,
0, ,56, ,
5, ,58, ,
4, ,57, ,
6, ,57, ,
4, ,57, ,
4, ,58, ,
4, ,56, ,
4, ,58, ,
-1, ,56, ,
3, ,57, ,
6, ,58, ,
6, ,58, ,
0, ,56, ,
8, ,58, ,
5, ,57, ,
5, ,57, ,
3, ,57, ,
3, ,58, ,
1, ,56, ,
5, ,58, ,
1, ,56, ,
4, ,57, ,
5, ,58, ,
6, ,58, ,
-1, ,56, ,
8, ,58, ,
5, ,57, ,
5, ,57, ,
5, ,57, ,
8, ,57, ,
9, ,56, ,
8, ,58, ,
0, ,56, ,
0, ,57, ,
3, ,57, ,
1, ,58, ,
-1, ,56, ,
1, ,58, ,
1, ,57, ,
4, ,57, ,
1, ,58, ,
3, ,58, ,
4, ,56, ,
5, ,58, ,
0, ,56, ,
4, ,57, ,
6, ,58, ,
3, ,58, ,
0, ,56, ,
3, ,58, ,
5, ,58, ,
8, ,57, ,
3, ,57, ,
5, ,58, ,
4, ,56, ,
8, ,59, ,
-1, ,56, ,
6, ,54, ,
6, ,47, ,
-1, ,36, ,
-2, ,26, ,
-1, ,17, ,
-7, ,11, ,
1, ,4, ,
0, ,-1, ,
-2, ,-6, ,
-4, ,-10, ,
-4, ,-13, ,
-6, ,-17, ,
-2, ,-20, ,
0, ,-22, ,
0, ,-23, ,
-5, ,-25, ,
0, ,-26, ,
-2, ,-28, ,
1, ,-28, ,
-1, ,-29, ,
1, ,-30, ,
5, ,-31, ,
5, ,-32, ,
-1, ,-32, ,
1, ,-32, ,
1, ,-33, ,
0, ,-33, ,
-2, ,-33, ,
4, ,-35, ,
5, ,-35, ,
1, ,-35, ,
3, ,-35, ,
4, ,-35, ,
6, ,-35, ,
8, ,-36, ,
-1, ,-36, ,
3, ,-35, ,
1, ,-36, ,
3, ,-36, ,
1, ,-36, ,
4, ,-36, ,
4, ,-36, ,
-2, ,-36, ,
-4, ,-36, ,
-4, ,-36, ,
-2, ,-36, ,
4, ,-36, ,
1, ,-36, ,
8, ,-36, ,
11, ,-36, ,
5, ,-36, ,
-2, ,-36, ,
1, ,-36, ,
0, ,-36, ,
3, ,-36, ,
3, ,-36, ,
4, ,-36, ,
5, ,-36, ,
6, ,-36, ,
-2, ,-36, ,
0, ,-36, ,
-1, ,-36, ,
-1, ,-36, ,
-2, ,-36, ,
1, ,-36, ,
3, ,-36, ,
4, ,-36, ,
1, ,-36, ,
3, ,-36, ,
1, ,-36, ,
-1, ,-36, ,
-7, ,-36, ,
-2, ,-36, ,
6, ,-35, ,
3, ,-36, ,
-1, ,-36, ,
6, ,-36, ,
1, ,-36, ,
-1, ,-36, ,
-4, ,-36, ,
-4, ,-35, ,
-1, ,-35, ,
0, ,-36, ,
-5, ,-35, ,
0, ,-35, ,
3, ,-35, ,
-1, ,-35, ,
-4, ,-36, ,
0, ,-35, ,
3, ,-36, ,
0, ,-35, ,
3, ,-35, ,
3, ,-36, ,
1, ,-35, ,
4, ,-36, ,
-2, ,-36, ,
3, ,-35, ,
3, ,-35, ,
1, ,-36, ,
-5, ,-36, ,
-1, ,-36, ,
-4, ,-36, ,
-4, ,-35, ,
0, ,-35, ,
-1, ,-35, ,
3, ,-35, ,
5, ,-36, ,
-1, ,-35, ,
4, ,-35, ,
5, ,-36, ,
3, ,-35, ,
-4, ,-35, ,
3, ,-35, ,
5, ,-35, ,
0, ,-35, ,
-4, ,-35, ,
-1, ,-35, ,
-2, ,-35, ,
-1, ,-36, ,
-4, ,-35, ,
-4, ,-35, ,
0, ,-35, ,
1, ,-35, ,
0, ,-35, ,
4, ,-35, ,
3, ,-35, ,
1, ,-35, ,
-4, ,-35, ,
0, ,-35, ,
1, ,-35, ,
1, ,-35, ,
3, ,-36, ,
5, ,-35, ,
6, ,-35, ,
1, ,-35, ,
-4, ,-36, ,
0, ,-35, ,
-2, ,-35, ,
-1, ,-35, ,
-2, ,-35, ,
0, ,-35, ,
1, ,-35, ,
4, ,-36, ,
-1, ,-35, ,
-1, ,-35, ,
-1, ,-35, ,
-2, ,-36, ,
-2, ,-35, ,
0, ,-35, ,
0, ,-35, ,
-2, ,-35, ,
-5, ,-35, ,
3, ,-35, ,
1, ,-35, ,
-2, ,-36, ,
-2, ,-36, ,
1, ,-35, ,
0, ,-35, ,
3, ,-35, ,
-1, ,-35, ,
3, ,-35, ,
0, ,-35, ,
0, ,-35, ,
-1, ,-35, ,
0, ,-35, ,
1, ,-35, ,
3, ,-35, ,
-5, ,-35, ,
0, ,-35, ,
3, ,-35, ,
0, ,-35, ,
-2, ,-35, ,
1, ,-35, ,
0, ,-36, ,
0, ,-35, ,
-1, ,-35, ,
-1, ,-35, ,
0, ,-35, ,
3, ,-35, ,
-4, ,-35, ,
3, ,-35, ,
6, ,-35, ,
5, ,-35, ,
1, ,-36, ,
4, ,-35, ,
4, ,-35, ,
-1, ,-35, ,
-4, ,-35, ,
1, ,-35, ,
5, ,-35, ,
4, ,-36, ,
1, ,-35, ,
5, ,-35, ,
6, ,-35, ,
3, ,-35, ,
1, ,-35, ,
5, ,-36, ,
4, ,-35, ,
4, ,-35, ,
3, ,-35, ,
3, ,-36, ,
4, ,-35, ,
1, ,-35, ,
-2, ,-35, ,
1, ,-35, ,
3, ,-35, ,
5, ,-35, ,
0, ,-35, ,
8, ,-35, ,
5, ,-35, ,
4, ,-35, ,
3, ,-35, ,
3, ,-35, ,
3, ,-35, ,
5, ,-35, ,
0, ,-35, ,
4, ,-35, ,
4, ,-35, ,
4, ,-35, ,
-1, ,-35, ,
1, ,-35, ,
0, ,-35, ,
0, ,-35, ,
-1, ,-35, ,
3, ,-35, ,
3, ,-35, ,
5, ,-36, ,
-1, ,-35, ,
3, ,-35, ,
4, ,-35, ,
3, ,-35, ,
-2, ,-35, ,
4, ,-35, ,
4, ,-35, ,
4, ,-35, ,
1, ,-35, ,
1, ,-35, ,
1, ,-35, ,
3, ,-35, ,
-2, ,-35, ,
-1, ,-35, ,
4, ,-35, ,
3, ,-35, ,
3, ,-35, ,
5, ,-35, ,
4, ,-35, ,
4, ,-35, ,
4, ,-35, ,
4, ,-35, ,
4, ,-35, ,
3, ,-36, ,
-2, ,-35, ,
1, ,-35, ,
3, ,-35, ,
5, ,-35, ,
0, ,-35, ,
5, ,-35, ,
4, ,-35, ,
1, ,-35, ,
0, ,-35, ,
1, ,-35, ,
0, ,-35, ,
0, ,-36, ,
-2, ,-35, ,
1, ,-35, ,
4, ,-35, ,
3, ,-35, ,
-1, ,-35, ,
3, ,-35, ,
4, ,-35, ,
4, ,-35, ,
4, ,-35, ,
5, ,-35, ,
5, ,-35, ,
5, ,-35, ,
-4, ,-35, ,
1, ,-35, ,
0, ,-35, ,
1, ,-35, ,
-4, ,-35, ,
4, ,-36, ,
3, ,-35, ,
3, ,-35, ,
3, ,-35, ,
4, ,-35, ,
3, ,-35, ,
4, ,-36, ,
-6, ,-35, ,
3, ,-35, ,
3, ,-35, ,
0, ,-35, ,
-1, ,-35, ,
5, ,-35, ,
3, ,-35, ,
3, ,-35, ,
-2, ,-35, ,
0, ,-35, ,
3, ,-35, ,
5, ,-35, ,
1, ,-35, ,
3, ,-35, ,
4, ,-35, ,
0, ,-35, ,
-5, ,-35, ,
-1, ,-35, ,
-1, ,-35, ,
1, ,-35, ,
-5, ,-35, ,
0, ,-35, ,
1, ,-35, ,
1, ,-36, ,
0, ,-35, ,
0, ,-35, ,
1, ,-35, ,
-1, ,-35, ,
-5, ,-35, ,
1, ,-35, ,
3, ,-36, ,
3, ,-35, ,
3, ,-35, ,
0, ,-35, ,
3, ,-35, ,
-1, ,-35, ,
-5, ,-35, ,
-1, ,-35, ,
0, ,-35, ,
0, ,-35, ,
-4, ,-35, ,
1, ,-35, ,
3, ,-36, ,
1, ,-35, ,
3, ,-35, ,
1, ,-35, ,
3, ,-35, ,
4, ,-35, ,
-4, ,-35, ,
1, ,-35, ,
5, ,-35, ,
0, ,-35, ,
-4, ,-35, ,
-1, ,-35, ,
-4, ,-35, ,
-1, ,-35, ,
-2, ,-35, ,
3, ,-35, ,
3, ,-35, ,
8, ,-35, ,
1, ,-35, ,
6, ,-35, ,
5, ,-35, ,
4, ,-35, ,
0, ,-35, ,
4, ,-35, ,
1, ,-35, ,
0, ,-35, ,
-1, ,-35, ,
3, ,-35, ,
3, ,-35, ,
3, ,-35, ,
-5, ,-35, ,
-4, ,-35, ,
-2, ,-35, ,
-2, ,-35, ,
-4, ,-35, ,
3, ,-35, ,
0, ,-35, ,
1, ,-35, ,
-1, ,-35, ,
0, ,-35, ,
0, ,-35, ,
-1, ,-35, ,
-2, ,-35, ,
3, ,-35, ,
4, ,-35, ,
0, ,-35, ,
-1, ,-35, ,
3, ,-35, ,
-2, ,-35, ,
-4, ,-35, ,
-5, ,-35, ,
0, ,-35, ,
0, ,-35, ,
0, ,-35, ,
-6, ,-35, ,
-1, ,-35, ,
4, ,-35, ,
-2, ,-35, ,
-2, ,-35, ,
1, ,-35, ,
3, ,-35, ,
-2, ,-35, ,
-1, ,-35, ,
0, ,-35, ,
1, ,-35, ,
3, ,-35, ,
-1, ,-35, ,
1, ,-35, ,
1, ,-35, ,
-1, ,-35, ,
-4, ,-35, ,
0, ,-35, ,
1, ,-35, ,
1, ,-35, ,
0, ,-35, ,
3, ,-35, ,
1, ,-35, ,
4, ,-35, ,
-1, ,-35, ,
3, ,-35, ,
3, ,-35, ,
-1, ,-35, ,
-2, ,-35, ,
1, ,-35, ,
0, ,-35, ,
1, ,-35, ,
-1, ,-35, ,
0, ,-35, ,
1, ,-35, ,
5, ,-35, ,
-1, ,-35, ,
3, ,-35, ,
6, ,-35, ,
3, ,-35, ,
0, ,-35, ,
4, ,-35, ,
3, ,-35, ,
1, ,-35, ,
0, ,-35, ,
1, ,-35, ,
1, ,-35, ,
6, ,-35, ,
1, ,-35, ,
8, ,-35, ,
9, ,-35, ,
6, ,-35, ,
3, ,-35, ,
5, ,-35, ,
-1, ,-35, ,
3, ,-35, ,
0, ,-35, ,
4, ,-35, ,
4, ,-35, ,
6, ,-35, ,
0, ,-35, ,
4, ,-35, ,
3, ,-35, ,
1, ,-35, ,
0, ,-35, ,
4, ,-35, ,
6, ,-35, ,
5, ,-35, ,
4, ,-35, ,
3, ,-35, ,
3, ,-35, ,
9, ,-35, ,
1, ,-35, ,
5, ,-35, ,
8, ,-35, ,
5, ,-35, ,
1, ,-35, ,
1, ,-35, ,
0, ,-35, ,
1, ,-35, ,
-1, ,-35, ,
0, ,-35, ,
1, ,-35, ,
4, ,-35, ,
1, ,-35, ,
5, ,-35, ,
5, ,-35, ,
4, ,-35, ,
1, ,-35, ,
3, ,-35, ,
1, ,-35, ,
0, ,-35, ,
-2, ,-35, ,
0, ,-35, ,
0, ,-35, ,
4, ,-36, ,
0, ,-35, ,
1, ,-35, ,
4, ,-35, ,
4, ,-35, ,
-1, ,-35, ,
5, ,-35, ,
0, ,-35, ,
1, ,-35, ,
1, ,-35, ,
4, ,-35, ,
4, ,-35, ,
6, ,-35, ,
3, ,-35, ,
6, ,-35, ,
9, ,-35, ,
5, ,-35, ,
6, ,-35, ,
8, ,-35, ,
5, ,-35, ,
4, ,-35, ,
4, ,-35, ,
3, ,-35, ,
1, ,-35, ,
0, ,-35, ,
-2, ,-35, ,
3, ,-35, ,
5, ,-35, ,
8, ,-35, ,
4, ,-35, ,
9, ,-35, ,
5, ,-35, ,
5, ,-35, ,
5, ,-35, ,
5, ,-35, ,
4, ,-35, ,
6, ,-35, ,
0, ,-35, ,
4, ,-35, ,
4, ,-35, ,
3, ,-35, ,
-1, ,-35, ,
1, ,-35, ,
4, ,-36, ,
0, ,-35, ,
3, ,-35, ,
5, ,-35, ,
1, ,-35, ,
6, ,-35, ,
0, ,-35, ,
3, ,-35, ,
6, ,-35, ,
3, ,-35, ,
-1, ,-35, ,
5, ,-35, ,
4, ,-35, ,
6, ,-35, ,
3, ,-35, ,
3, ,-35, ,
3, ,-35, ,
5, ,-35, ,
1, ,-35, ,
4, ,-35, ,
11, ,-35, ,
6, ,-35, ,
5, ,-35, ,
5, ,-35, ,
0, ,-35, ,
-1, ,-35, ,
-2, ,-35, ,
0, ,-35, ,
-1, ,-35, ,
-1, ,-35, ,
-5, ,-35, ,
-1, ,-35, ,
4, ,-35, ,
5, ,-35, ,
0, ,-35, ,
5, ,-35, ,
4, ,-35, ,
3, ,-35, ,
1, ,-35, ,
1, ,-35, ,
5, ,-35, ,
8, ,-35, ,
3, ,-35, ,
4, ,-35, ,
1, ,-35, ,
0, ,-35, ,
-7, ,-35, ,
-2, ,-35, ,
0, ,-35, ,
0, ,-35, ,
3, ,-35, ,
4, ,-35, ,
3, ,-35, ,
3, ,-35, ,
-6, ,-36, ,
0, ,-35, ,
3, ,-35, ,
1, ,-35, ,
0, ,-35, ,
4, ,-35, ,
3, ,-35, ,
0, ,-35, ,
-1, ,-35, ,
-4, ,-35, ,
-1, ,-35, ,
1, ,-35, ,
-6, ,-35, ,
1, ,-35, ,
3, ,-35, ,
1, ,-35, ,
3, ,-36, ,
5, ,-35, ,
5, ,-35, ,
5, ,-35, ,
1, ,-35, ,
1, ,-35, ,
1, ,-35, ,
4, ,-36, ,
-1, ,-35, ,
0, ,-35, ,
3, ,-35, ,
-1, ,-35, ,
-4, ,-35, ,
-1, ,-35, ,
0, ,-35, ,
3, ,-35, ,
-7, ,-35, ,
1, ,-35, ,
4, ,-35, ,
1, ,-35, ,
-1, ,-35, ,
-2, ,-35, ,
0, ,-35, ,
-1, ,-35, ,
-4, ,-35, ,
3, ,-35, ,
0, ,-35, ,
-1, ,-35, ,
1, ,-35, ,
-1, ,-35, ,
-4, ,-35, ,
-5, ,-36, ,
-7, ,-35, ,
-2, ,-35, ,
0, ,-35, ,
-2, ,-35, ,
-4, ,-35, ,
1, ,-35, ,
1, ,-36, ,
1, ,-35, ,
-1, ,-35, ,
-1, ,-35, ,
0, ,-35, ,
1, ,-35, ,
-6, ,-35, ,
-4, ,-35, ,
3, ,-35, ,
-2, ,-35, ,
-9, ,-36, ,
-2, ,-35, ,
-2, ,-35, ,
0, ,-35, ,
0, ,-35, ,
1, ,-35, ,
3, ,-35, ,
5, ,-35, ,
-1, ,-35, ,
1, ,-35, ,
1, ,-35, ,
-1, ,-35, ,
-5, ,-35, ,
-1, ,-35, ,
3, ,-35, ,
3, ,-35, ,
0, ,-35, ,
0, ,-35, ,
1, ,-35, ,
3, ,-35, ,
