src/vary_am2_1411/temp0000289.CSV

Format,1.0B,
Memory Length,10000,Memory Length,10000,
IntpDistance,0,IntpDistance,0,
Trigger Address,4999,Trigger Address,4999,
Trigger Level,-1.000E+00,Trigger Level,-1.000E+00,
Source,CH1,Source,CH2,
Vertical Units,V,Vertical Units,V,
Vertical Units Div,0,Vertical Units Div,0,
Vertical Units Extend Div,16,Vertical Units Extend Div,16,
Label,,Label,,
Probe Type,0,Probe Type,0,
Probe Ratio,1.000e+01,Probe Ratio,1.000e+00,
Vertical Scale,2.000e-02,Vertical Scale,1.000e+00,
Vertical Position,-5.120e-02,Vertical Position,2.000e-01,
Horizontal Units,S,Horizontal Units,S,
Horizontal Scale,1.000E-05,Horizontal Scale,1.000E-05,
Horizontal Position,0.000E+00,Horizontal Position,0.000E+00,
Horizontal Mode,Main,Horizontal Mode,Main,
SincET Mode,Real Time,SincET Mode,Real Time,
Sampling Period,1.000e-08,Sampling Period,1.000e-08,
Horizontal Old Scale,1.000E-05,Horizontal Old Scale,1.000E-05,
Horizontal Old Position,0.000E+00,Horizontal Old Position,0.000E+00,
Firmware,V1.23,Firmware,V1.23,
Mode,Fast,Mode,Fast,
Waveform Data,,Waveform Data,,
4, ,-55, ,
0, ,-55, ,
0, ,-55, ,
0, ,-54, ,
-2, ,-56, ,
-6, ,-55, ,
-1, ,-55, ,
-1, ,-55, ,
-1, ,-56, ,
-4, ,-54, ,
1, ,-55, ,
0, ,-55, ,
-2, ,-55, ,
-2, ,-56, ,
-2, ,-56, ,
1, ,-55, ,
0, ,-56, ,
-7, ,-55, ,
-1, ,-55, ,
-1, ,-55, ,
-1, ,-56, ,
-6, ,-54, ,
-2, ,-56, ,
-1, ,-55, ,
-1, ,-55, ,
-1, ,-56, ,
0, ,-55, ,
0, ,-55, ,
3, ,-56, ,
-4, ,-55, ,
-1, ,-55, ,
1, ,-56, ,
-1, ,-56, ,
-2, ,-54, ,
1, ,-56, ,
1, ,-55, ,
-1, ,-55, ,
-4, ,-55, ,
0, ,-55, ,
-1, ,-55, ,
1, ,-56, ,
-2, ,-55, ,
0, ,-55, ,
3, ,-55, ,
-2, ,-56, ,
-4, ,-55, ,
4, ,-56, ,
3, ,-55, ,
5, ,-55, ,
0, ,-55, ,
1, ,-55, ,
3, ,-55, ,
1, ,-56, ,
-5, ,-55, ,
-1, ,-55, ,
1, ,-55, ,
-4, ,-56, ,
-11, ,-54, ,
-7, ,-56, ,
-12, ,-55, ,
-14, ,-56, ,
-15, ,-56, ,
-16, ,-56, ,
-10, ,-54, ,
-2, ,-56, ,
-5, ,-55, ,
4, ,-55, ,
8, ,-55, ,
10, ,-55, ,
9, ,-55, ,
15, ,-56, ,
11, ,-55, ,
8, ,-55, ,
9, ,-56, ,
6, ,-55, ,
3, ,-55, ,
3, ,-56, ,
-6, ,-55, ,
-2, ,-55, ,
1, ,-55, ,
0, ,-55, ,
-4, ,-54, ,
3, ,-56, ,
1, ,-55, ,
0, ,-55, ,
0, ,-55, ,
1, ,-55, ,
0, ,-55, ,
-1, ,-56, ,
-9, ,-55, ,
-5, ,-55, ,
-4, ,-55, ,
-5, ,-55, ,
-6, ,-55, ,
0, ,-55, ,
0, ,-55, ,
0, ,-55, ,
-5, ,-55, ,
-1, ,-55, ,
-1, ,-54, ,
-1, ,-56, ,
-4, ,-55, ,
0, ,-55, ,
1, ,-56, ,
-4, ,-55, ,
-5, ,-55, ,
0, ,-56, ,
-2, ,-56, ,
0, ,-55, ,
-2, ,-55, ,
0, ,-56, ,
1, ,-55, ,
0, ,-56, ,
-1, ,-55, ,
3, ,-55, ,
0, ,-55, ,
-1, ,-56, ,
-6, ,-55, ,
-1, ,-56, ,
-1, ,-55, ,
0, ,-55, ,
-1, ,-56, ,
1, ,-55, ,
3, ,-55, ,
1, ,-56, ,
-2, ,-55, ,
3, ,-55, ,
4, ,-55, ,
3, ,-55, ,
3, ,-55, ,
6, ,-55, ,
3, ,-55, ,
3, ,-55, ,
1, ,-55, ,
1, ,-55, ,
3, ,-55, ,
3, ,-56, ,
-4, ,-55, ,
5, ,-56, ,
5, ,-55, ,
3, ,-56, ,
0, ,-55, ,
4, ,-56, ,
3, ,-55, ,
0, ,-55, ,
0, ,-55, ,
1, ,-55, ,
1, ,-54, ,
5, ,-56, ,
1, ,-55, ,
6, ,-55, ,
9, ,-55, ,
3, ,-56, ,
0, ,-55, ,
4, ,-56, ,
-1, ,-56, ,
-1, ,-55, ,
-5, ,-55, ,
-1, ,-55, ,
3, ,-54, ,
3, ,-56, ,
0, ,-55, ,
5, ,-55, ,
4, ,-55, ,
0, ,-55, ,
-1, ,-55, ,
6, ,-56, ,
4, ,-55, ,
4, ,-55, ,
-1, ,-55, ,
3, ,-55, ,
-1, ,-55, ,
-2, ,-56, ,
-4, ,-55, ,
0, ,-55, ,
3, ,-55, ,
4, ,-56, ,
0, ,-55, ,
5, ,-55, ,
4, ,-55, ,
5, ,-55, ,
-1, ,-55, ,
1, ,-56, ,
4, ,-55, ,
3, ,-56, ,
1, ,-55, ,
8, ,-55, ,
6, ,-55, ,
6, ,-56, ,
-1, ,-54, ,
1, ,-56, ,
0, ,-55, ,
-1, ,-55, ,
-2, ,-55, ,
-1, ,-55, ,
4, ,-54, ,
3, ,-56, ,
-2, ,-55, ,
0, ,-55, ,
1, ,-55, ,
1, ,-56, ,
-1, ,-54, ,
5, ,-56, ,
3, ,-55, ,
4, ,-55, ,
3, ,-55, ,
4, ,-56, ,
4, ,-55, ,
5, ,-56, ,
1, ,-55, ,
3, ,-55, ,
4, ,-56, ,
4, ,-56, ,
0, ,-55, ,
8, ,-56, ,
1, ,-55, ,
-1, ,-55, ,
1, ,-55, ,
1, ,-55, ,
3, ,-54, ,
4, ,-56, ,
1, ,-55, ,
4, ,-55, ,
6, ,-56, ,
4, ,-55, ,
1, ,-55, ,
6, ,-56, ,
4, ,-55, ,
5, ,-55, ,
1, ,-56, ,
1, ,-55, ,
4, ,-55, ,
3, ,-56, ,
-2, ,-55, ,
3, ,-55, ,
1, ,-55, ,
1, ,-55, ,
-2, ,-55, ,
4, ,-56, ,
-2, ,-55, ,
-4, ,-55, ,
-5, ,-55, ,
1, ,-55, ,
-2, ,-55, ,
5, ,-56, ,
-1, ,-55, ,
-1, ,-55, ,
-1, ,-56, ,
-4, ,-56, ,
-5, ,-54, ,
4, ,-56, ,
8, ,-55, ,
4, ,-55, ,
-5, ,-55, ,
-2, ,-55, ,
-2, ,-55, ,
-5, ,-56, ,
-10, ,-55, ,
-2, ,-55, ,
-1, ,-55, ,
-1, ,-56, ,
-2, ,-55, ,
1, ,-56, ,
3, ,-55, ,
-1, ,-55, ,
0, ,-55, ,
3, ,-55, ,
4, ,-55, ,
5, ,-56, ,
4, ,-55, ,
3, ,-55, ,
9, ,-55, ,
6, ,-56, ,
1, ,-55, ,
6, ,-55, ,
0, ,-55, ,
4, ,-55, ,
1, ,-55, ,
4, ,-55, ,
4, ,-55, ,
5, ,-56, ,
-4, ,-55, ,
1, ,-55, ,
4, ,-55, ,
3, ,-56, ,
1, ,-54, ,
6, ,-56, ,
8, ,-55, ,
5, ,-55, ,
3, ,-55, ,
6, ,-56, ,
3, ,-55, ,
3, ,-56, ,
-4, ,-55, ,
-1, ,-55, ,
5, ,-55, ,
1, ,-56, ,
-4, ,-55, ,
5, ,-56, ,
0, ,-55, ,
8, ,-55, ,
4, ,-55, ,
1, ,-56, ,
4, ,-55, ,
3, ,-56, ,
-4, ,-55, ,
1, ,-55, ,
0, ,-55, ,
-2, ,-52, ,
-4, ,-43, ,
9, ,-33, ,
8, ,-24, ,
10, ,-16, ,
6, ,-7, ,
4, ,-1, ,
3, ,4, ,
3, ,9, ,
-1, ,13, ,
8, ,16, ,
8, ,19, ,
6, ,22, ,
1, ,23, ,
4, ,27, ,
3, ,29, ,
6, ,30, ,
5, ,31, ,
3, ,32, ,
3, ,33, ,
3, ,34, ,
-5, ,34, ,
0, ,35, ,
1, ,36, ,
-2, ,36, ,
-12, ,35, ,
-2, ,37, ,
-1, ,37, ,
-4, ,37, ,
-1, ,37, ,
0, ,38, ,
-1, ,37, ,
-1, ,38, ,
-7, ,37, ,
-4, ,38, ,
0, ,38, ,
-1, ,38, ,
-2, ,37, ,
1, ,38, ,
0, ,38, ,
0, ,38, ,
-6, ,38, ,
-2, ,39, ,
-1, ,37, ,
-1, ,38, ,
-2, ,38, ,
0, ,38, ,
1, ,38, ,
-1, ,38, ,
-2, ,37, ,
3, ,38, ,
0, ,39, ,
-2, ,38, ,
-6, ,38, ,
-4, ,38, ,
-2, ,37, ,
-1, ,39, ,
-4, ,38, ,
1, ,38, ,
1, ,38, ,
-1, ,38, ,
-7, ,37, ,
0, ,39, ,
-1, ,38, ,
-2, ,38, ,
-2, ,38, ,
-1, ,38, ,
0, ,37, ,
-1, ,38, ,
-7, ,37, ,
-5, ,38, ,
-6, ,38, ,
-5, ,38, ,
-9, ,37, ,
-5, ,38, ,
-2, ,38, ,
-2, ,38, ,
-2, ,38, ,
-2, ,38, ,
-2, ,37, ,
0, ,38, ,
-7, ,37, ,
-2, ,38, ,
-1, ,38, ,
-2, ,38, ,
-7, ,37, ,
-1, ,38, ,
-4, ,38, ,
-5, ,37, ,
-7, ,38, ,
-6, ,38, ,
-5, ,37, ,
-2, ,38, ,
-6, ,37, ,
-1, ,38, ,
-1, ,38, ,
-4, ,38, ,
-7, ,37, ,
-1, ,38, ,
-5, ,37, ,
-4, ,37, ,
-6, ,38, ,
-2, ,38, ,
-2, ,37, ,
-1, ,38, ,
-9, ,37, ,
-2, ,37, ,
0, ,38, ,
-4, ,38, ,
-5, ,37, ,
0, ,38, ,
-1, ,38, ,
1, ,37, ,
0, ,38, ,
-1, ,38, ,
1, ,37, ,
4, ,38, ,
-2, ,37, ,
3, ,38, ,
1, ,38, ,
1, ,37, ,
-2, ,37, ,
3, ,38, ,
3, ,37, ,
3, ,37, ,
-1, ,38, ,
-1, ,37, ,
1, ,36, ,
5, ,38, ,
-2, ,37, ,
4, ,38, ,
8, ,38, ,
4, ,38, ,
1, ,37, ,
5, ,38, ,
1, ,38, ,
3, ,37, ,
-1, ,38, ,
3, ,38, ,
4, ,37, ,
9, ,38, ,
1, ,37, ,
4, ,37, ,
5, ,38, ,
3, ,38, ,
-1, ,37, ,
1, ,38, ,
3, ,38, ,
3, ,37, ,
1, ,37, ,
4, ,37, ,
5, ,37, ,
5, ,38, ,
1, ,37, ,
4, ,37, ,
4, ,38, ,
3, ,37, ,
-1, ,37, ,
4, ,38, ,
0, ,37, ,
3, ,37, ,
0, ,38, ,
1, ,38, ,
4, ,37, ,
3, ,38, ,
-1, ,37, ,
3, ,37, ,
5, ,38, ,
5, ,37, ,
0, ,37, ,
5, ,38, ,
0, ,38, ,
1, ,37, ,
-4, ,38, ,
-1, ,37, ,
3, ,37, ,
4, ,38, ,
0, ,37, ,
5, ,38, ,
5, ,38, ,
5, ,38, ,
-1, ,37, ,
5, ,38, ,
0, ,37, ,
3, ,37, ,
-1, ,38, ,
1, ,37, ,
5, ,36, ,
4, ,38, ,
-4, ,37, ,
0, ,37, ,
1, ,38, ,
1, ,37, ,
-1, ,36, ,
5, ,38, ,
5, ,38, ,
6, ,37, ,
1, ,37, ,
5, ,38, ,
4, ,37, ,
6, ,38, ,
3, ,37, ,
5, ,37, ,
4, ,38, ,
3, ,38, ,
0, ,36, ,
5, ,37, ,
3, ,37, ,
3, ,37, ,
1, ,38, ,
3, ,37, ,
3, ,37, ,
5, ,38, ,
0, ,37, ,
5, ,37, ,
8, ,38, ,
4, ,37, ,
1, ,36, ,
5, ,38, ,
5, ,37, ,
4, ,37, ,
1, ,37, ,
4, ,37, ,
5, ,36, ,
4, ,38, ,
1, ,37, ,
5, ,37, ,
9, ,38, ,
5, ,37, ,
0, ,37, ,
3, ,38, ,
1, ,37, ,
1, ,37, ,
-1, ,37, ,
0, ,37, ,
4, ,37, ,
5, ,38, ,
-2, ,37, ,
1, ,38, ,
1, ,38, ,
1, ,37, ,
-2, ,36, ,
1, ,37, ,
4, ,37, ,
3, ,37, ,
0, ,38, ,
1, ,37, ,
-4, ,36, ,
-2, ,38, ,
-6, ,37, ,
-1, ,37, ,
0, ,37, ,
3, ,38, ,
1, ,36, ,
3, ,38, ,
5, ,37, ,
1, ,37, ,
-2, ,37, ,
0, ,37, ,
0, ,37, ,
-1, ,38, ,
-6, ,37, ,
0, ,37, ,
1, ,38, ,
0, ,38, ,
-4, ,36, ,
1, ,38, ,
1, ,37, ,
1, ,37, ,
-2, ,38, ,
0, ,38, ,
0, ,36, ,
3, ,38, ,
-4, ,37, ,
0, ,37, ,
1, ,38, ,
-1, ,37, ,
-5, ,36, ,
4, ,38, ,
-1, ,38, ,
1, ,37, ,
0, ,38, ,
3, ,38, ,
1, ,37, ,
0, ,38, ,
-6, ,37, ,
-1, ,37, ,
0, ,38, ,
0, ,38, ,
-7, ,36, ,
0, ,38, ,
0, ,37, ,
-1, ,37, ,
-4, ,37, ,
-2, ,37, ,
-2, ,37, ,
-2, ,38, ,
-9, ,37, ,
-2, ,37, ,
-1, ,38, ,
-1, ,37, ,
-2, ,37, ,
3, ,38, ,
0, ,37, ,
-1, ,37, ,
-4, ,38, ,
-4, ,37, ,
-4, ,37, ,
0, ,38, ,
-7, ,37, ,
-4, ,37, ,
-2, ,38, ,
-4, ,37, ,
-7, ,37, ,
-4, ,38, ,
-2, ,37, ,
-4, ,37, ,
-5, ,38, ,
-1, ,37, ,
0, ,37, ,
3, ,38, ,
-5, ,37, ,
-4, ,37, ,
-2, ,38, ,
-5, ,37, ,
-11, ,36, ,
-1, ,38, ,
-2, ,38, ,
-2, ,37, ,
-6, ,37, ,
-4, ,38, ,
-1, ,37, ,
-4, ,38, ,
-10, ,37, ,
-4, ,37, ,
-1, ,38, ,
-2, ,37, ,
-5, ,36, ,
0, ,38, ,
-1, ,38, ,
0, ,37, ,
-5, ,38, ,
-2, ,37, ,
-5, ,36, ,
-6, ,38, ,
-6, ,37, ,
-5, ,37, ,
1, ,38, ,
-1, ,37, ,
-7, ,37, ,
-1, ,38, ,
-5, ,38, ,
-1, ,37, ,
-2, ,38, ,
-1, ,37, ,
1, ,37, ,
1, ,38, ,
-1, ,37, ,
1, ,37, ,
0, ,37, ,
0, ,37, ,
-2, ,36, ,
3, ,38, ,
1, ,37, ,
0, ,37, ,
0, ,37, ,
-1, ,38, ,
0, ,37, ,
0, ,38, ,
-6, ,37, ,
-1, ,37, ,
0, ,38, ,
3, ,37, ,
0, ,37, ,
4, ,38, ,
3, ,37, ,
3, ,37, ,
-1, ,38, ,
-1, ,38, ,
-1, ,36, ,
1, ,38, ,
-4, ,37, ,
3, ,37, ,
1, ,38, ,
-2, ,37, ,
-4, ,36, ,
0, ,38, ,
1, ,38, ,
3, ,37, ,
0, ,37, ,
1, ,37, ,
0, ,37, ,
5, ,38, ,
-2, ,37, ,
0, ,37, ,
3, ,38, ,
-1, ,37, ,
-4, ,36, ,
1, ,38, ,
-4, ,37, ,
1, ,37, ,
-6, ,37, ,
-1, ,37, ,
3, ,37, ,
6, ,38, ,
1, ,37, ,
4, ,37, ,
3, ,38, ,
-1, ,38, ,
-4, ,37, ,
1, ,38, ,
0, ,37, ,
1, ,37, ,
-4, ,38, ,
-1, ,38, ,
-2, ,36, ,
3, ,38, ,
-2, ,37, ,
-1, ,37, ,
10, ,38, ,
10, ,37, ,
4, ,36, ,
8, ,37, ,
3, ,37, ,
3, ,37, ,
3, ,37, ,
4, ,38, ,
0, ,37, ,
-1, ,38, ,
-5, ,37, ,
-1, ,37, ,
0, ,38, ,
3, ,38, ,
-1, ,36, ,
3, ,38, ,
4, ,38, ,
3, ,37, ,
5, ,38, ,
10, ,37, ,
10, ,37, ,
10, ,38, ,
4, ,37, ,
8, ,37, ,
6, ,38, ,
3, ,37, ,
1, ,37, ,
3, ,38, ,
0, ,37, ,
8, ,37, ,
4, ,37, ,
3, ,38, ,
5, ,37, ,
6, ,38, ,
-2, ,37, ,
1, ,37, ,
5, ,38, ,
4, ,37, ,
0, ,36, ,
6, ,38, ,
4, ,37, ,
3, ,37, ,
3, ,38, ,
3, ,37, ,
4, ,37, ,
5, ,38, ,
0, ,37, ,
4, ,38, ,
6, ,38, ,
3, ,37, ,
4, ,37, ,
5, ,38, ,
4, ,37, ,
1, ,37, ,
0, ,37, ,
3, ,38, ,
3, ,36, ,
6, ,38, ,
0, ,37, ,
4, ,37, ,
3, ,38, ,
0, ,37, ,
-2, ,37, ,
1, ,38, ,
-1, ,37, ,
1, ,37, ,
0, ,38, ,
3, ,37, ,
4, ,37, ,
3, ,38, ,
-5, ,37, ,
1, ,38, ,
3, ,37, ,
3, ,38, ,
-1, ,36, ,
4, ,37, ,
3, ,38, ,
0, ,37, ,
0, ,38, ,
0, ,38, ,
0, ,37, ,
3, ,38, ,
-5, ,37, ,
-1, ,37, ,
1, ,37, ,
0, ,38, ,
-2, ,37, ,
3, ,38, ,
4, ,37, ,
0, ,37, ,
1, ,37, ,
0, ,38, ,
0, ,36, ,
1, ,38, ,
-2, ,37, ,
1, ,37, ,
4, ,38, ,
3, ,37, ,
-1, ,37, ,
3, ,38, ,
0, ,37, ,
1, ,37, ,
0, ,38, ,
0, ,38, ,
3, ,36, ,
3, ,38, ,
-1, ,37, ,
1, ,37, ,
3, ,38, ,
1, ,37, ,
-6, ,37, ,
1, ,38, ,
0, ,37, ,
-2, ,37, ,
-2, ,38, ,
-1, ,37, ,
-2, ,36, ,
0, ,38, ,
-6, ,37, ,
0, ,37, ,
0, ,37, ,
0, ,38, ,
-2, ,37, ,
4, ,38, ,
3, ,38, ,
1, ,37, ,
-1, ,38, ,
-2, ,37, ,
-2, ,37, ,
-5, ,38, ,
-10, ,37, ,
-4, ,37, ,
-2, ,38, ,
0, ,37, ,
-4, ,36, ,
4, ,38, ,
0, ,38, ,
-2, ,37, ,
-5, ,37, ,
-2, ,37, ,
-4, ,36, ,
-1, ,38, ,
-6, ,37, ,
-1, ,37, ,
-1, ,38, ,
-2, ,38, ,
-7, ,36, ,
-4, ,38, ,
-4, ,37, ,
-4, ,37, ,
-6, ,38, ,
-2, ,38, ,
-2, ,36, ,
1, ,38, ,
-6, ,37, ,
-2, ,37, ,
-1, ,38, ,
-4, ,37, ,
-4, ,37, ,
3, ,37, ,
0, ,38, ,
0, ,37, ,
-2, ,37, ,
-1, ,38, ,
-1, ,37, ,
-2, ,38, ,
-7, ,37, ,
-4, ,37, ,
0, ,37, ,
-4, ,37, ,
-6, ,36, ,
0, ,38, ,
-2, ,37, ,
0, ,37, ,
-4, ,37, ,
-5, ,37, ,
0, ,37, ,
-2, ,38, ,
-6, ,37, ,
-1, ,37, ,
0, ,38, ,
1, ,38, ,
-4, ,36, ,
3, ,38, ,
0, ,37, ,
-2, ,37, ,
-1, ,38, ,
-2, ,37, ,
-1, ,36, ,
3, ,38, ,
-7, ,37, ,
0, ,38, ,
0, ,37, ,
0, ,37, ,
-5, ,37, ,
3, ,38, ,
1, ,37, ,
0, ,37, ,
-2, ,38, ,
0, ,38, ,
0, ,36, ,
-1, ,38, ,
-6, ,37, ,
-2, ,37, ,
-1, ,38, ,
-2, ,37, ,
-4, ,36, ,
3, ,38, ,
3, ,38, ,
3, ,37, ,
-2, ,38, ,
0, ,37, ,
-1, ,37, ,
1, ,38, ,
-7, ,37, ,
-4, ,37, ,
0, ,38, ,
-1, ,38, ,
-4, ,37, ,
3, ,38, ,
-5, ,37, ,
0, ,37, ,
-4, ,38, ,
-2, ,38, ,
1, ,36, ,
0, ,38, ,
-4, ,37, ,
3, ,37, ,
3, ,38, ,
0, ,37, ,
-5, ,36, ,
0, ,38, ,
-1, ,38, ,
-1, ,37, ,
-2, ,38, ,
1, ,38, ,
1, ,36, ,
5, ,38, ,
-2, ,37, ,
3, ,37, ,
3, ,38, ,
1, ,37, ,
-1, ,37, ,
6, ,38, ,
4, ,38, ,
4, ,37, ,
3, ,38, ,
0, ,38, ,
0, ,37, ,
1, ,38, ,
-6, ,37, ,
1, ,37, ,
1, ,37, ,
3, ,37, ,
0, ,37, ,
4, ,38, ,
4, ,37, ,
4, ,37, ,
1, ,37, ,
6, ,37, ,
3, ,37, ,
8, ,38, ,
0, ,37, ,
4, ,37, ,
5, ,38, ,
1, ,38, ,
-2, ,37, ,
0, ,38, ,
1, ,37, ,
1, ,37, ,
-1, ,38, ,
3, ,38, ,
6, ,37, ,
8, ,38, ,
3, ,37, ,
5, ,37, ,
4, ,38, ,
1, ,38, ,
-2, ,37, ,
4, ,38, ,
3, ,37, ,
4, ,37, ,
1, ,38, ,
5, ,37, ,
4, ,37, ,
5, ,38, ,
-1, ,37, ,
1, ,37, ,
4, ,38, ,
0, ,37, ,
-4, ,37, ,
5, ,38, ,
1, ,37, ,
4, ,37, ,
-1, ,37, ,
0, ,38, ,
3, ,37, ,
3, ,38, ,
-1, ,38, ,
1, ,37, ,
0, ,38, ,
3, ,38, ,
-1, ,37, ,
4, ,38, ,
3, ,38, ,
1, ,37, ,
0, ,38, ,
0, ,38, ,
0, ,37, ,
4, ,38, ,
0, ,37, ,
6, ,38, ,
6, ,38, ,
4, ,37, ,
-1, ,37, ,
1, ,38, ,
-4, ,37, ,
0, ,37, ,
1, ,38, ,
4, ,37, ,
5, ,37, ,
5, ,38, ,
0, ,37, ,
4, ,37, ,
4, ,38, ,
-1, ,38, ,
-2, ,37, ,
1, ,38, ,
1, ,37, ,
6, ,37, ,
4, ,38, ,
3, ,38, ,
4, ,37, ,
5, ,38, ,
-2, ,37, ,
1, ,38, ,
4, ,37, ,
3, ,38, ,
1, ,36, ,
4, ,38, ,
3, ,37, ,
4, ,37, ,
3, ,37, ,
6, ,38, ,
8, ,37, ,
6, ,38, ,
1, ,37, ,
4, ,37, ,
5, ,38, ,
3, ,37, ,
0, ,36, ,
4, ,37, ,
-2, ,37, ,
-1, ,37, ,
0, ,38, ,
1, ,38, ,
1, ,37, ,
3, ,38, ,
-2, ,37, ,
3, ,38, ,
4, ,38, ,
0, ,38, ,
0, ,35, ,
3, ,29, ,
-2, ,19, ,
-5, ,9, ,
-10, ,0, ,
-7, ,-7, ,
-5, ,-14, ,
-2, ,-20, ,
-7, ,-25, ,
-2, ,-29, ,
-7, ,-33, ,
-6, ,-36, ,
-10, ,-39, ,
-2, ,-41, ,
-1, ,-43, ,
-1, ,-44, ,
-2, ,-46, ,
0, ,-48, ,
-4, ,-49, ,
-2, ,-50, ,
-9, ,-51, ,
3, ,-51, ,
1, ,-52, ,
-5, ,-52, ,
-5, ,-52, ,
-1, ,-54, ,
-4, ,-54, ,
-1, ,-55, ,
-6, ,-55, ,
-1, ,-55, ,
-1, ,-54, ,
-1, ,-56, ,
-5, ,-55, ,
0, ,-55, ,
3, ,-56, ,
0, ,-56, ,
-2, ,-55, ,
1, ,-56, ,
0, ,-56, ,
-4, ,-56, ,
-2, ,-56, ,
-1, ,-55, ,
0, ,-56, ,
0, ,-57, ,
-1, ,-56, ,
-1, ,-56, ,
3, ,-56, ,
-4, ,-56, ,
-7, ,-55, ,
0, ,-56, ,
-2, ,-56, ,
0, ,-56, ,
-2, ,-56, ,
-1, ,-56, ,
1, ,-55, ,
0, ,-57, ,
-4, ,-55, ,
0, ,-55, ,
1, ,-56, ,
1, ,-56, ,
0, ,-55, ,
4, ,-56, ,
3, ,-56, ,
0, ,-56, ,
-2, ,-56, ,
-1, ,-56, ,
-2, ,-55, ,
-1, ,-56, ,
-7, ,-56, ,
0, ,-55, ,
1, ,-56, ,
1, ,-56, ,
-1, ,-55, ,
3, ,-56, ,
1, ,-56, ,
0, ,-56, ,
-11, ,-56, ,
-2, ,-56, ,
0, ,-55, ,
-4, ,-56, ,
-4, ,-55, ,
4, ,-55, ,
0, ,-56, ,
-2, ,-56, ,
-2, ,-55, ,
-1, ,-56, ,
0, ,-55, ,
0, ,-55, ,
-4, ,-55, ,
6, ,-56, ,
-2, ,-55, ,
-2, ,-56, ,
-4, ,-56, ,
-1, ,-55, ,
1, ,-55, ,
-1, ,-56, ,
-5, ,-55, ,
3, ,-56, ,
0, ,-56, ,
-1, ,-55, ,
-2, ,-55, ,
-2, ,-55, ,
0, ,-55, ,
-2, ,-56, ,
-6, ,-55, ,
-1, ,-55, ,
-1, ,-55, ,
-1, ,-56, ,
-4, ,-55, ,
1, ,-56, ,
-1, ,-55, ,
-4, ,-55, ,
-6, ,-56, ,
0, ,-56, ,
-6, ,-55, ,
-1, ,-57, ,
1, ,-56, ,
3, ,-55, ,
4, ,-55, ,
1, ,-56, ,
-5, ,-55, ,
8, ,-56, ,
-1, ,-55, ,
-1, ,-55, ,
-2, ,-55, ,
-1, ,-56, ,
3, ,-55, ,
5, ,-56, ,
-4, ,-55, ,
3, ,-55, ,
4, ,-55, ,
-1, ,-56, ,
-6, ,-55, ,
4, ,-56, ,
3, ,-55, ,
0, ,-56, ,
0, ,-56, ,
3, ,-55, ,
-1, ,-55, ,
1, ,-56, ,
-1, ,-56, ,
4, ,-55, ,
5, ,-55, ,
1, ,-56, ,
-2, ,-55, ,
3, ,-56, ,
-2, ,-56, ,
-1, ,-55, ,
-2, ,-55, ,
1, ,-55, ,
1, ,-55, ,
4, ,-56, ,
-2, ,-55, ,
-1, ,-55, ,
0, ,-56, ,
-2, ,-55, ,
-5, ,-55, ,
1, ,-56, ,
-1, ,-55, ,
1, ,-55, ,
-4, ,-55, ,
0, ,-55, ,
1, ,-54, ,
1, ,-56, ,
-1, ,-55, ,
4, ,-55, ,
9, ,-55, ,
4, ,-56, ,
-2, ,-55, ,
4, ,-56, ,
0, ,-56, ,
1, ,-55, ,
0, ,-55, ,
0, ,-55, ,
3, ,-55, ,
4, ,-56, ,
-4, ,-55, ,
0, ,-55, ,
3, ,-56, ,
-2, ,-56, ,
-6, ,-55, ,
3, ,-56, ,
4, ,-55, ,
1, ,-56, ,
0, ,-55, ,
4, ,-56, ,
3, ,-55, ,
4, ,-56, ,
-1, ,-55, ,
1, ,-55, ,
3, ,-56, ,
0, ,-56, ,
-2, ,-55, ,
4, ,-56, ,
4, ,-56, ,
0, ,-55, ,
0, ,-56, ,
5, ,-55, ,
4, ,-55, ,
6, ,-56, ,
0, ,-55, ,
6, ,-55, ,
5, ,-56, ,
4, ,-56, ,
0, ,-55, ,
4, ,-55, ,
5, ,-55, ,
3, ,-55, ,
-1, ,-55, ,
3, ,-55, ,
4, ,-55, ,
4, ,-56, ,
-2, ,-55, ,
3, ,-55, ,
5, ,-55, ,
-1, ,-56, ,
-4, ,-54, ,
1, ,-56, ,
1, ,-56, ,
3, ,-55, ,
4, ,-55, ,
8, ,-55, ,
8, ,-55, ,
6, ,-56, ,
-1, ,-55, ,
4, ,-55, ,
4, ,-55, ,
-1, ,-56, ,
-5, ,-55, ,
0, ,-56, ,
0, ,-55, ,
0, ,-55, ,
1, ,-55, ,
4, ,-55, ,
4, ,-55, ,
3, ,-56, ,
-1, ,-55, ,
4, ,-55, ,
3, ,-55, ,
1, ,-56, ,
1, ,-55, ,
4, ,-55, ,
4, ,-55, ,
0, ,-55, ,
-2, ,-56, ,
0, ,-55, ,
0, ,-55, ,
0, ,-56, ,
-2, ,-55, ,
0, ,-55, ,
1, ,-56, ,
0, ,-56, ,
-4, ,-55, ,
-1, ,-56, ,
1, ,-55, ,
0, ,-55, ,
0, ,-55, ,
4, ,-55, ,
3, ,-55, ,
4, ,-56, ,
-1, ,-55, ,
1, ,-55, ,
-2, ,-55, ,
-2, ,-56, ,
-7, ,-55, ,
1, ,-56, ,
3, ,-55, ,
1, ,-55, ,
0, ,-55, ,
3, ,-55, ,
3, ,-54, ,
4, ,-56, ,
-4, ,-55, ,
3, ,-55, ,
3, ,-55, ,
0, ,-55, ,
-1, ,-55, ,
5, ,-56, ,
4, ,-55, ,
1, ,-55, ,
-1, ,-55, ,
0, ,-55, ,
0, ,-55, ,
3, ,-56, ,
-2, ,-55, ,
1, ,-55, ,
4, ,-55, ,
0, ,-56, ,
-2, ,-54, ,
0, ,-55, ,
-4, ,-55, ,
-1, ,-55, ,
-2, ,-55, ,
-1, ,-55, ,
1, ,-54, ,
0, ,-56, ,
-1, ,-55, ,
4, ,-55, ,
1, ,-56, ,
0, ,-56, ,
-2, ,-55, ,
1, ,-56, ,
1, ,-55, ,
0, ,-55, ,
-1, ,-55, ,
0, ,-55, ,
3, ,-55, ,
4, ,-56, ,
-6, ,-55, ,
-1, ,-55, ,
1, ,-55, ,
-2, ,-56, ,
-4, ,-54, ,
1, ,-56, ,
-1, ,-55, ,
-1, ,-55, ,
-2, ,-55, ,
0, ,-56, ,
0, ,-54, ,
-1, ,-56, ,
-6, ,-55, ,
-1, ,-55, ,
-1, ,-55, ,
-1, ,-55, ,
-2, ,-55, ,
0, ,-56, ,
0, ,-55, ,
-4, ,-55, ,
-5, ,-55, ,
-2, ,-55, ,
-5, ,-55, ,
-1, ,-56, ,
-6, ,-55, ,
-1, ,-55, ,
1, ,-55, ,
-2, ,-55, ,
-6, ,-54, ,
0, ,-55, ,
-4, ,-55, ,
-1, ,-55, ,
-2, ,-55, ,
1, ,-55, ,
1, ,-55, ,
0, ,-56, ,
-4, ,-55, ,
-1, ,-55, ,
3, ,-55, ,
-1, ,-56, ,
-6, ,-55, ,
0, ,-56, ,
-5, ,-55, ,
-2, ,-55, ,
-2, ,-55, ,
0, ,-55, ,
0, ,-55, ,
1, ,-56, ,
-1, ,-55, ,
3, ,-55, ,
1, ,-55, ,
1, ,-56, ,
-4, ,-54, ,
3, ,-56, ,
-4, ,-55, ,
-1, ,-56, ,
-5, ,-55, ,
-1, ,-55, ,
-1, ,-54, ,
-1, ,-56, ,
-5, ,-55, ,
3, ,-55, ,
1, ,-55, ,
1, ,-56, ,
-1, ,-55, ,
3, ,-56, ,
0, ,-55, ,
-2, ,-55, ,
-2, ,-56, ,
-1, ,-56, ,
0, ,-55, ,
3, ,-56, ,
-4, ,-55, ,
0, ,-55, ,
3, ,-56, ,
-1, ,-55, ,
-2, ,-54, ,
0, ,-56, ,
-1, ,-55, ,
-1, ,-55, ,
-2, ,-55, ,
-2, ,-55, ,
1, ,-55, ,
1, ,-56, ,
-2, ,-55, ,
0, ,-55, ,
1, ,-55, ,
-1, ,-55, ,
-5, ,-55, ,
0, ,-55, ,
-1, ,-55, ,
0, ,-55, ,
-4, ,-55, ,
-2, ,-55, ,
-4, ,-55, ,
-1, ,-56, ,
-5, ,-55, ,
0, ,-55, ,
3, ,-55, ,
0, ,-56, ,
-5, ,-54, ,
3, ,-55, ,
0, ,-55, ,
3, ,-55, ,
-2, ,-55, ,
-1, ,-56, ,
1, ,-55, ,
4, ,-56, ,
1, ,-55, ,
8, ,-55, ,
6, ,-55, ,
4, ,-56, ,
0, ,-55, ,
3, ,-56, ,
1, ,-55, ,
0, ,-55, ,
-1, ,-55, ,
0, ,-55, ,
3, ,-55, ,
3, ,-56, ,
0, ,-55, ,
5, ,-55, ,
3, ,-55, ,
1, ,-55, ,
-1, ,-55, ,
3, ,-55, ,
4, ,-55, ,
3, ,-55, ,
1, ,-55, ,
3, ,-56, ,
3, ,-55, ,
5, ,-56, ,
-4, ,-55, ,
3, ,-55, ,
4, ,-56, ,
3, ,-56, ,
0, ,-55, ,
8, ,-56, ,
6, ,-55, ,
1, ,-55, ,
1, ,-55, ,
3, ,-55, ,
-2, ,-55, ,
1, ,-56, ,
-6, ,-55, ,
-1, ,-55, ,
3, ,-55, ,
0, ,-56, ,
3, ,-54, ,
5, ,-55, ,
4, ,-56, ,
3, ,-55, ,
1, ,-55, ,
4, ,-55, ,
5, ,-55, ,
6, ,-56, ,
0, ,-55, ,
5, ,-55, ,
4, ,-55, ,
0, ,-56, ,
-6, ,-55, ,
3, ,-56, ,
1, ,-55, ,
3, ,-55, ,
-1, ,-55, ,
3, ,-55, ,
1, ,-54, ,
1, ,-56, ,
0, ,-56, ,
4, ,-55, ,
5, ,-55, ,
4, ,-56, ,
-4, ,-55, ,
3, ,-55, ,
4, ,-56, ,
3, ,-55, ,
1, ,-56, ,
3, ,-55, ,
1, ,-55, ,
-1, ,-56, ,
-7, ,-55, ,
0, ,-55, ,
3, ,-55, ,
3, ,-56, ,
3, ,-55, ,
5, ,-56, ,
4, ,-56, ,
3, ,-55, ,
0, ,-55, ,
3, ,-55, ,
0, ,-55, ,
3, ,-56, ,
-4, ,-55, ,
1, ,-55, ,
3, ,-55, ,
0, ,-55, ,
-4, ,-54, ,
0, ,-56, ,
1, ,-55, ,
1, ,-55, ,
1, ,-55, ,
3, ,-56, ,
8, ,-54, ,
4, ,-56, ,
0, ,-55, ,
3, ,-55, ,
4, ,-55, ,
0, ,-56, ,
-2, ,-55, ,
3, ,-56, ,
3, ,-55, ,
4, ,-55, ,
0, ,-55, ,
4, ,-55, ,
6, ,-55, ,
4, ,-56, ,
-2, ,-55, ,
1, ,-55, ,
1, ,-55, ,
1, ,-55, ,
-2, ,-54, ,
4, ,-55, ,
3, ,-56, ,
3, ,-55, ,
0, ,-55, ,
-1, ,-55, ,
0, ,-54, ,
-1, ,-56, ,
-5, ,-55, ,
0, ,-55, ,
3, ,-55, ,
0, ,-55, ,
-1, ,-55, ,
3, ,-56, ,
1, ,-56, ,
-1, ,-55, ,
-1, ,-56, ,
-2, ,-56, ,
-6, ,-55, ,
8, ,-56, ,
-1, ,-55, ,
0, ,-55, ,
5, ,-55, ,
0, ,-56, ,
-5, ,-54, ,
-1, ,-55, ,
-1, ,-55, ,
0, ,-55, ,
-1, ,-55, ,
4, ,-55, ,
3, ,-55, ,
1, ,-56, ,
-5, ,-55, ,
1, ,-55, ,
-2, ,-56, ,
-2, ,-56, ,
-5, ,-55, ,
3, ,-55, ,
1, ,-55, ,
0, ,-55, ,
-4, ,-55, ,
-1, ,-55, ,
0, ,-54, ,
-1, ,-56, ,
-4, ,-55, ,
-2, ,-55, ,
3, ,-55, ,
-1, ,-56, ,
-1, ,-55, ,
6, ,-55, ,
0, ,-56, ,
5, ,-55, ,
-1, ,-56, ,
1, ,-55, ,
1, ,-55, ,
1, ,-56, ,
-4, ,-55, ,
-2, ,-55, ,
0, ,-55, ,
-2, ,-56, ,
-7, ,-55, ,
0, ,-56, ,
-1, ,-55, ,
-2, ,-55, ,
-5, ,-55, ,
0, ,-55, ,
4, ,-55, ,
4, ,-56, ,
0, ,-55, ,
0, ,-55, ,
3, ,-56, ,
-1, ,-55, ,
-7, ,-54, ,
1, ,-56, ,
-2, ,-55, ,
-1, ,-55, ,
-2, ,-55, ,
-2, ,-55, ,
0, ,-55, ,
-1, ,-56, ,
-11, ,-55, ,
-4, ,-55, ,
3, ,-55, ,
0, ,-55, ,
-1, ,-55, ,
-1, ,-56, ,
-1, ,-55, ,
-4, ,-55, ,
-2, ,-55, ,
0, ,-56, ,
-2, ,-55, ,
-1, ,-56, ,
-7, ,-55, ,
-2, ,-55, ,
-4, ,-55, ,
-5, ,-55, ,
-5, ,-54, ,
-1, ,-56, ,
3, ,-55, ,
3, ,-55, ,
-1, ,-56, ,
-1, ,-56, ,
0, ,-55, ,
0, ,-56, ,
1, ,-55, ,
1, ,-55, ,
0, ,-55, ,
-2, ,-55, ,
-7, ,-55, ,
-2, ,-56, ,
-4, ,-56, ,
-4, ,-55, ,
-6, ,-55, ,
