src/vary_am2_1411/temp0005491.CSV

Format,1.0B,
Memory Length,10000,Memory Length,10000,
IntpDistance,0,IntpDistance,0,
Trigger Address,4999,Trigger Address,4999,
Trigger Level,-1.000E+00,Trigger Level,-1.000E+00,
Source,CH1,Source,CH2,
Vertical Units,V,Vertical Units,V,
Vertical Units Div,0,Vertical Units Div,0,
Vertical Units Extend Div,16,Vertical Units Extend Div,16,
Label,,Label,,
Probe Type,0,Probe Type,0,
Probe Ratio,1.000e+01,Probe Ratio,1.000e+00,
Vertical Scale,2.000e-02,Vertical Scale,1.000e+00,
Vertical Position,-5.120e-02,Vertical Position,2.000e-01,
Horizontal Units,S,Horizontal Units,S,
Horizontal Scale,1.000E-05,Horizontal Scale,1.000E-05,
Horizontal Position,0.000E+00,Horizontal Position,0.000E+00,
Horizontal Mode,Main,Horizontal Mode,Main,
SincET Mode,Real Time,SincET Mode,Real Time,
Sampling Period,1.000e-08,Sampling Period,1.000e-08,
Horizontal Old Scale,1.000E-05,Horizontal Old Scale,1.000E-05,
Horizontal Old Position,0.000E+00,Horizontal Old Position,0.000E+00,
Firmware,V1.23,Firmware,V1.23,
Mode,Fast,Mode,Fast,
Waveform Data,,Waveform Data,,
0, ,-42, ,
-2, ,-42, ,
1, ,-43, ,
-5, ,-42, ,
3, ,-43, ,
5, ,-42, ,
0, ,-42, ,
-1, ,-42, ,
1, ,-42, ,
-4, ,-42, ,
-2, ,-43, ,
-5, ,-43, ,
0, ,-42, ,
1, ,-43, ,
3, ,-42, ,
1, ,-41, ,
6, ,-43, ,
6, ,-42, ,
4, ,-42, ,
-2, ,-43, ,
1, ,-42, ,
3, ,-42, ,
-2, ,-43, ,
-6, ,-42, ,
1, ,-42, ,
3, ,-42, ,
5, ,-43, ,
-1, ,-42, ,
4, ,-43, ,
8, ,-42, ,
-2, ,-42, ,
-5, ,-42, ,
8, ,-42, ,
5, ,-42, ,
5, ,-43, ,
0, ,-43, ,
-1, ,-42, ,
0, ,-42, ,
3, ,-42, ,
0, ,-41, ,
4, ,-43, ,
3, ,-42, ,
5, ,-43, ,
1, ,-42, ,
6, ,-42, ,
4, ,-42, ,
4, ,-43, ,
-2, ,-43, ,
3, ,-42, ,
5, ,-42, ,
10, ,-43, ,
-4, ,-42, ,
5, ,-43, ,
15, ,-42, ,
5, ,-42, ,
3, ,-42, ,
6, ,-42, ,
5, ,-41, ,
4, ,-43, ,
4, ,-43, ,
4, ,-42, ,
1, ,-42, ,
5, ,-42, ,
-2, ,-41, ,
1, ,-43, ,
3, ,-42, ,
-1, ,-42, ,
-4, ,-42, ,
1, ,-42, ,
6, ,-42, ,
5, ,-43, ,
3, ,-42, ,
6, ,-42, ,
5, ,-42, ,
8, ,-42, ,
-1, ,-42, ,
5, ,-43, ,
4, ,-42, ,
3, ,-42, ,
0, ,-42, ,
4, ,-42, ,
0, ,-42, ,
8, ,-43, ,
-1, ,-43, ,
3, ,-42, ,
4, ,-42, ,
1, ,-43, ,
0, ,-42, ,
4, ,-43, ,
4, ,-43, ,
6, ,-42, ,
1, ,-42, ,
6, ,-42, ,
4, ,-42, ,
5, ,-43, ,
-2, ,-42, ,
1, ,-42, ,
4, ,-42, ,
6, ,-43, ,
1, ,-42, ,
4, ,-43, ,
3, ,-42, ,
6, ,-42, ,
-5, ,-42, ,
-5, ,-42, ,
4, ,-42, ,
5, ,-43, ,
-1, ,-43, ,
6, ,-42, ,
6, ,-42, ,
3, ,-42, ,
-7, ,-41, ,
3, ,-43, ,
1, ,-42, ,
1, ,-42, ,
3, ,-42, ,
5, ,-42, ,
6, ,-41, ,
3, ,-43, ,
3, ,-42, ,
1, ,-43, ,
0, ,-42, ,
4, ,-42, ,
-4, ,-42, ,
3, ,-43, ,
5, ,-43, ,
0, ,-42, ,
-4, ,-42, ,
5, ,-42, ,
3, ,-41, ,
4, ,-43, ,
3, ,-43, ,
3, ,-42, ,
3, ,-42, ,
5, ,-42, ,
-1, ,-41, ,
0, ,-43, ,
3, ,-42, ,
0, ,-42, ,
-1, ,-42, ,
3, ,-42, ,
1, ,-42, ,
0, ,-43, ,
1, ,-42, ,
-1, ,-43, ,
3, ,-42, ,
1, ,-43, ,
-6, ,-42, ,
0, ,-43, ,
4, ,-43, ,
-1, ,-42, ,
-2, ,-42, ,
0, ,-42, ,
0, ,-42, ,
3, ,-43, ,
1, ,-43, ,
3, ,-42, ,
5, ,-43, ,
1, ,-42, ,
-4, ,-41, ,
1, ,-43, ,
-1, ,-42, ,
-2, ,-43, ,
-7, ,-42, ,
-1, ,-42, ,
3, ,-42, ,
-1, ,-43, ,
-2, ,-42, ,
-5, ,-42, ,
-6, ,-43, ,
-2, ,-43, ,
-7, ,-42, ,
3, ,-43, ,
6, ,-42, ,
3, ,-43, ,
-1, ,-42, ,
3, ,-42, ,
0, ,-41, ,
-1, ,-43, ,
-2, ,-42, ,
-1, ,-42, ,
3, ,-43, ,
5, ,-43, ,
-5, ,-41, ,
0, ,-43, ,
-2, ,-42, ,
-6, ,-42, ,
-7, ,-42, ,
-2, ,-42, ,
0, ,-42, ,
0, ,-43, ,
0, ,-42, ,
4, ,-43, ,
3, ,-42, ,
5, ,-43, ,
-1, ,-42, ,
0, ,-43, ,
4, ,-42, ,
0, ,-42, ,
-4, ,-42, ,
3, ,-43, ,
-1, ,-41, ,
-1, ,-43, ,
-1, ,-43, ,
-2, ,-42, ,
-1, ,-43, ,
-4, ,-42, ,
-5, ,-41, ,
-1, ,-43, ,
3, ,-43, ,
0, ,-42, ,
-2, ,-42, ,
3, ,-42, ,
1, ,-42, ,
0, ,-43, ,
-2, ,-42, ,
-1, ,-42, ,
1, ,-43, ,
0, ,-43, ,
-5, ,-42, ,
0, ,-42, ,
-1, ,-43, ,
-4, ,-42, ,
-7, ,-43, ,
-1, ,-42, ,
-2, ,-42, ,
-1, ,-43, ,
-1, ,-42, ,
0, ,-42, ,
0, ,-42, ,
-1, ,-43, ,
-5, ,-42, ,
0, ,-42, ,
-1, ,-42, ,
-1, ,-42, ,
-4, ,-42, ,
0, ,-42, ,
0, ,-42, ,
-4, ,-43, ,
-1, ,-42, ,
4, ,-42, ,
0, ,-42, ,
3, ,-43, ,
-5, ,-42, ,
1, ,-42, ,
0, ,-42, ,
-5, ,-43, ,
-5, ,-43, ,
-1, ,-42, ,
-1, ,-42, ,
3, ,-43, ,
-4, ,-42, ,
0, ,-42, ,
0, ,-42, ,
4, ,-43, ,
-2, ,-42, ,
0, ,-43, ,
3, ,-42, ,
0, ,-42, ,
-2, ,-42, ,
1, ,-42, ,
0, ,-42, ,
-1, ,-43, ,
-4, ,-42, ,
0, ,-42, ,
1, ,-43, ,
5, ,-43, ,
4, ,-42, ,
9, ,-43, ,
8, ,-42, ,
4, ,-42, ,
-5, ,-42, ,
1, ,-43, ,
-2, ,-42, ,
4, ,-43, ,
3, ,-43, ,
4, ,-42, ,
5, ,-42, ,
8, ,-42, ,
3, ,-42, ,
3, ,-43, ,
3, ,-42, ,
1, ,-43, ,
0, ,-42, ,
4, ,-42, ,
5, ,-42, ,
4, ,-43, ,
-1, ,-42, ,
1, ,-42, ,
3, ,-42, ,
4, ,-43, ,
-1, ,-42, ,
8, ,-43, ,
11, ,-42, ,
8, ,-42, ,
3, ,-42, ,
6, ,-42, ,
1, ,-42, ,
0, ,-43, ,
-1, ,-43, ,
0, ,-42, ,
1, ,-43, ,
4, ,-43, ,
0, ,-42, ,
4, ,-43, ,
5, ,-42, ,
3, ,-42, ,
-4, ,-43, ,
1, ,-42, ,
1, ,-41, ,
-1, ,-38, ,
5, ,-28, ,
10, ,-19, ,
11, ,-9, ,
14, ,-1, ,
6, ,7, ,
8, ,13, ,
8, ,18, ,
5, ,22, ,
4, ,27, ,
9, ,30, ,
3, ,32, ,
6, ,36, ,
3, ,37, ,
4, ,38, ,
8, ,41, ,
6, ,42, ,
3, ,42, ,
5, ,46, ,
5, ,46, ,
6, ,46, ,
3, ,47, ,
8, ,48, ,
5, ,47, ,
4, ,50, ,
3, ,49, ,
1, ,49, ,
4, ,50, ,
5, ,50, ,
1, ,49, ,
5, ,51, ,
8, ,50, ,
4, ,50, ,
3, ,51, ,
8, ,51, ,
1, ,49, ,
3, ,52, ,
4, ,50, ,
4, ,50, ,
6, ,51, ,
6, ,51, ,
1, ,49, ,
10, ,52, ,
5, ,51, ,
5, ,51, ,
0, ,51, ,
4, ,51, ,
4, ,50, ,
3, ,51, ,
3, ,51, ,
4, ,50, ,
3, ,51, ,
8, ,51, ,
-2, ,49, ,
3, ,52, ,
3, ,51, ,
1, ,51, ,
-1, ,51, ,
8, ,51, ,
8, ,49, ,
9, ,52, ,
1, ,50, ,
4, ,51, ,
3, ,51, ,
4, ,51, ,
-1, ,49, ,
3, ,52, ,
4, ,51, ,
1, ,50, ,
1, ,51, ,
6, ,51, ,
3, ,49, ,
3, ,52, ,
1, ,50, ,
1, ,50, ,
3, ,51, ,
5, ,51, ,
0, ,49, ,
5, ,52, ,
4, ,51, ,
0, ,51, ,
-5, ,51, ,
3, ,51, ,
-2, ,50, ,
0, ,52, ,
1, ,50, ,
0, ,50, ,
3, ,51, ,
4, ,51, ,
-1, ,49, ,
0, ,51, ,
0, ,51, ,
1, ,50, ,
-4, ,51, ,
4, ,51, ,
3, ,49, ,
3, ,51, ,
-1, ,50, ,
0, ,50, ,
-2, ,51, ,
1, ,50, ,
-5, ,48, ,
0, ,51, ,
3, ,51, ,
3, ,50, ,
0, ,50, ,
5, ,51, ,
1, ,49, ,
5, ,51, ,
0, ,50, ,
0, ,50, ,
0, ,51, ,
-1, ,51, ,
-6, ,49, ,
0, ,51, ,
0, ,50, ,
0, ,50, ,
0, ,51, ,
3, ,51, ,
4, ,49, ,
4, ,52, ,
0, ,50, ,
1, ,50, ,
1, ,51, ,
4, ,51, ,
-2, ,48, ,
3, ,51, ,
4, ,50, ,
0, ,51, ,
-2, ,50, ,
1, ,51, ,
-2, ,49, ,
0, ,51, ,
-4, ,50, ,
0, ,50, ,
0, ,51, ,
-1, ,51, ,
-5, ,49, ,
0, ,51, ,
0, ,50, ,
0, ,50, ,
-1, ,50, ,
6, ,51, ,
1, ,49, ,
4, ,52, ,
0, ,50, ,
0, ,50, ,
-1, ,51, ,
-2, ,50, ,
-7, ,48, ,
-4, ,51, ,
-1, ,51, ,
-1, ,50, ,
-2, ,50, ,
1, ,51, ,
-1, ,49, ,
-1, ,51, ,
-2, ,50, ,
-2, ,50, ,
-1, ,51, ,
-2, ,51, ,
-4, ,48, ,
0, ,51, ,
0, ,50, ,
-1, ,50, ,
-4, ,50, ,
0, ,51, ,
-1, ,49, ,
-2, ,51, ,
-4, ,50, ,
-2, ,50, ,
-4, ,51, ,
-1, ,51, ,
-6, ,49, ,
0, ,51, ,
0, ,51, ,
-4, ,50, ,
-4, ,50, ,
3, ,51, ,
1, ,49, ,
3, ,51, ,
1, ,50, ,
3, ,50, ,
1, ,51, ,
1, ,51, ,
-6, ,49, ,
-2, ,51, ,
-1, ,50, ,
-4, ,50, ,
-4, ,51, ,
1, ,51, ,
0, ,48, ,
-1, ,51, ,
-2, ,50, ,
6, ,50, ,
1, ,51, ,
-1, ,51, ,
1, ,49, ,
0, ,51, ,
3, ,50, ,
3, ,50, ,
-2, ,50, ,
4, ,51, ,
-2, ,49, ,
-1, ,51, ,
-2, ,50, ,
0, ,50, ,
3, ,51, ,
5, ,51, ,
-1, ,48, ,
4, ,51, ,
0, ,51, ,
1, ,50, ,
-2, ,51, ,
1, ,51, ,
1, ,49, ,
-2, ,51, ,
-2, ,50, ,
4, ,50, ,
1, ,51, ,
6, ,51, ,
-2, ,49, ,
4, ,51, ,
1, ,50, ,
0, ,50, ,
-1, ,51, ,
5, ,51, ,
-1, ,49, ,
1, ,51, ,
0, ,50, ,
1, ,50, ,
0, ,51, ,
1, ,51, ,
-5, ,48, ,
1, ,51, ,
0, ,50, ,
0, ,50, ,
-5, ,51, ,
1, ,50, ,
1, ,49, ,
0, ,51, ,
-2, ,50, ,
3, ,50, ,
1, ,51, ,
5, ,51, ,
4, ,48, ,
4, ,51, ,
6, ,51, ,
4, ,50, ,
-1, ,51, ,
3, ,51, ,
-5, ,48, ,
1, ,51, ,
-1, ,50, ,
3, ,50, ,
5, ,51, ,
5, ,51, ,
1, ,49, ,
3, ,51, ,
3, ,50, ,
3, ,50, ,
-2, ,50, ,
5, ,51, ,
3, ,49, ,
5, ,51, ,
3, ,50, ,
3, ,50, ,
4, ,51, ,
5, ,50, ,
1, ,48, ,
6, ,51, ,
4, ,51, ,
4, ,50, ,
-1, ,51, ,
6, ,51, ,
3, ,48, ,
0, ,51, ,
-4, ,50, ,
3, ,50, ,
6, ,51, ,
9, ,51, ,
5, ,49, ,
11, ,51, ,
9, ,50, ,
6, ,50, ,
3, ,51, ,
5, ,51, ,
3, ,49, ,
5, ,51, ,
1, ,50, ,
3, ,50, ,
4, ,51, ,
8, ,50, ,
-1, ,49, ,
4, ,51, ,
5, ,51, ,
1, ,50, ,
0, ,50, ,
5, ,51, ,
4, ,48, ,
5, ,51, ,
4, ,50, ,
4, ,50, ,
4, ,51, ,
5, ,51, ,
0, ,48, ,
1, ,51, ,
1, ,50, ,
0, ,50, ,
-2, ,51, ,
4, ,51, ,
3, ,49, ,
4, ,51, ,
0, ,50, ,
5, ,50, ,
3, ,51, ,
4, ,50, ,
0, ,49, ,
3, ,51, ,
8, ,50, ,
4, ,51, ,
-2, ,50, ,
3, ,51, ,
-1, ,48, ,
0, ,51, ,
-1, ,50, ,
1, ,50, ,
4, ,51, ,
4, ,50, ,
-1, ,48, ,
4, ,51, ,
3, ,50, ,
1, ,50, ,
-1, ,51, ,
6, ,51, ,
1, ,49, ,
1, ,51, ,
0, ,49, ,
1, ,50, ,
4, ,50, ,
3, ,51, ,
-1, ,48, ,
4, ,51, ,
1, ,50, ,
3, ,50, ,
1, ,50, ,
3, ,51, ,
-1, ,48, ,
0, ,51, ,
-4, ,50, ,
-2, ,50, ,
1, ,51, ,
6, ,51, ,
0, ,49, ,
3, ,51, ,
3, ,50, ,
0, ,50, ,
1, ,50, ,
6, ,51, ,
5, ,49, ,
6, ,51, ,
0, ,49, ,
-1, ,50, ,
-2, ,51, ,
1, ,51, ,
-1, ,48, ,
4, ,51, ,
4, ,50, ,
5, ,50, ,
3, ,50, ,
6, ,51, ,
1, ,49, ,
5, ,51, ,
-2, ,50, ,
-1, ,50, ,
0, ,51, ,
-2, ,50, ,
-2, ,48, ,
0, ,51, ,
3, ,50, ,
3, ,50, ,
0, ,50, ,
3, ,50, ,
3, ,48, ,
1, ,51, ,
1, ,50, ,
0, ,50, ,
-2, ,51, ,
0, ,51, ,
-4, ,48, ,
-2, ,51, ,
-2, ,50, ,
-1, ,50, ,
-5, ,50, ,
4, ,51, ,
4, ,49, ,
3, ,51, ,
-2, ,50, ,
-2, ,50, ,
-2, ,50, ,
-1, ,50, ,
-7, ,48, ,
0, ,51, ,
1, ,50, ,
5, ,50, ,
-5, ,50, ,
4, ,51, ,
3, ,49, ,
-5, ,51, ,
-5, ,50, ,
-5, ,50, ,
-7, ,50, ,
-2, ,51, ,
-7, ,48, ,
-2, ,51, ,
1, ,50, ,
-1, ,50, ,
-2, ,50, ,
4, ,50, ,
1, ,48, ,
3, ,51, ,
-1, ,50, ,
3, ,50, ,
3, ,51, ,
3, ,51, ,
-6, ,48, ,
-2, ,51, ,
-1, ,50, ,
-1, ,50, ,
0, ,50, ,
1, ,51, ,
1, ,49, ,
1, ,51, ,
-1, ,50, ,
0, ,50, ,
1, ,51, ,
3, ,51, ,
-1, ,48, ,
0, ,51, ,
4, ,50, ,
0, ,50, ,
-2, ,50, ,
4, ,51, ,
1, ,48, ,
3, ,51, ,
0, ,50, ,
1, ,50, ,
-1, ,51, ,
0, ,51, ,
-4, ,49, ,
0, ,51, ,
1, ,50, ,
1, ,50, ,
-5, ,50, ,
0, ,51, ,
-2, ,49, ,
-4, ,51, ,
-4, ,50, ,
-1, ,50, ,
-2, ,50, ,
4, ,50, ,
-4, ,48, ,
4, ,51, ,
1, ,50, ,
0, ,50, ,
-5, ,51, ,
1, ,51, ,
-1, ,48, ,
0, ,51, ,
1, ,50, ,
3, ,50, ,
1, ,51, ,
3, ,51, ,
-2, ,48, ,
0, ,51, ,
-1, ,50, ,
-1, ,50, ,
-4, ,50, ,
1, ,51, ,
1, ,49, ,
1, ,51, ,
-1, ,49, ,
0, ,50, ,
-2, ,50, ,
3, ,51, ,
-4, ,48, ,
0, ,51, ,
3, ,50, ,
0, ,50, ,
-1, ,50, ,
3, ,51, ,
-1, ,48, ,
0, ,51, ,
-1, ,49, ,
1, ,50, ,
4, ,51, ,
4, ,50, ,
-1, ,48, ,
5, ,51, ,
4, ,50, ,
1, ,50, ,
-2, ,50, ,
1, ,51, ,
0, ,49, ,
1, ,51, ,
4, ,50, ,
6, ,50, ,
4, ,51, ,
8, ,51, ,
0, ,48, ,
3, ,51, ,
3, ,50, ,
3, ,50, ,
-2, ,50, ,
4, ,51, ,
0, ,48, ,
3, ,51, ,
3, ,50, ,
1, ,50, ,
5, ,51, ,
8, ,51, ,
0, ,49, ,
8, ,51, ,
6, ,50, ,
4, ,50, ,
0, ,50, ,
6, ,51, ,
5, ,49, ,
0, ,51, ,
-2, ,49, ,
3, ,50, ,
0, ,51, ,
5, ,50, ,
0, ,48, ,
4, ,51, ,
6, ,50, ,
3, ,51, ,
-1, ,50, ,
1, ,51, ,
1, ,49, ,
3, ,51, ,
3, ,50, ,
5, ,50, ,
5, ,50, ,
6, ,50, ,
0, ,48, ,
1, ,51, ,
0, ,51, ,
0, ,50, ,
-5, ,50, ,
0, ,51, ,
0, ,48, ,
3, ,51, ,
-1, ,50, ,
4, ,50, ,
3, ,50, ,
4, ,51, ,
0, ,48, ,
1, ,51, ,
6, ,51, ,
3, ,50, ,
-1, ,51, ,
3, ,51, ,
4, ,48, ,
5, ,51, ,
4, ,50, ,
1, ,50, ,
3, ,50, ,
4, ,50, ,
-1, ,49, ,
4, ,51, ,
1, ,50, ,
3, ,50, ,
0, ,50, ,
4, ,51, ,
1, ,49, ,
3, ,51, ,
1, ,50, ,
4, ,49, ,
4, ,51, ,
9, ,50, ,
3, ,48, ,
8, ,51, ,
6, ,50, ,
5, ,50, ,
0, ,50, ,
1, ,50, ,
0, ,48, ,
3, ,51, ,
1, ,49, ,
4, ,50, ,
3, ,50, ,
5, ,51, ,
0, ,49, ,
4, ,52, ,
4, ,50, ,
1, ,50, ,
-1, ,51, ,
1, ,51, ,
3, ,49, ,
4, ,51, ,
1, ,49, ,
3, ,50, ,
1, ,51, ,
3, ,50, ,
-1, ,48, ,
1, ,52, ,
6, ,51, ,
5, ,50, ,
3, ,50, ,
8, ,51, ,
0, ,48, ,
3, ,51, ,
-1, ,49, ,
0, ,50, ,
-1, ,51, ,
0, ,51, ,
-2, ,49, ,
4, ,51, ,
4, ,50, ,
3, ,50, ,
-4, ,50, ,
3, ,51, ,
1, ,49, ,
3, ,51, ,
1, ,50, ,
0, ,49, ,
1, ,50, ,
3, ,51, ,
1, ,48, ,
4, ,51, ,
1, ,50, ,
0, ,50, ,
-1, ,51, ,
3, ,50, ,
-1, ,48, ,
0, ,51, ,
-1, ,50, ,
0, ,50, ,
1, ,51, ,
3, ,51, ,
-2, ,48, ,
5, ,51, ,
3, ,50, ,
4, ,50, ,
0, ,50, ,
4, ,51, ,
1, ,48, ,
0, ,51, ,
-7, ,50, ,
-2, ,50, ,
0, ,51, ,
1, ,51, ,
-1, ,48, ,
8, ,51, ,
0, ,50, ,
3, ,50, ,
1, ,51, ,
-2, ,50, ,
3, ,49, ,
13, ,51, ,
3, ,50, ,
1, ,50, ,
-1, ,51, ,
4, ,51, ,
-6, ,49, ,
0, ,51, ,
5, ,50, ,
4, ,50, ,
0, ,51, ,
4, ,51, ,
-1, ,49, ,
-2, ,51, ,
-5, ,50, ,
-2, ,50, ,
-4, ,51, ,
4, ,50, ,
-1, ,48, ,
1, ,51, ,
4, ,50, ,
3, ,50, ,
-2, ,50, ,
5, ,51, ,
3, ,48, ,
3, ,52, ,
1, ,50, ,
-2, ,50, ,
1, ,51, ,
0, ,50, ,
-6, ,48, ,
1, ,51, ,
-1, ,50, ,
-2, ,50, ,
-4, ,50, ,
3, ,51, ,
3, ,49, ,
-1, ,52, ,
-1, ,50, ,
-2, ,50, ,
-4, ,51, ,
1, ,51, ,
-4, ,48, ,
0, ,51, ,
3, ,50, ,
1, ,50, ,
-2, ,51, ,
1, ,51, ,
-4, ,48, ,
-4, ,51, ,
-5, ,50, ,
-1, ,50, ,
-1, ,51, ,
1, ,51, ,
-4, ,49, ,
3, ,51, ,
-1, ,50, ,
-2, ,50, ,
-2, ,50, ,
4, ,50, ,
1, ,49, ,
1, ,52, ,
-1, ,50, ,
1, ,50, ,
0, ,51, ,
4, ,51, ,
-5, ,49, ,
0, ,52, ,
3, ,51, ,
3, ,50, ,
-6, ,51, ,
4, ,51, ,
-7, ,49, ,
1, ,51, ,
6, ,50, ,
-2, ,50, ,
8, ,51, ,
4, ,51, ,
-6, ,48, ,
3, ,51, ,
0, ,50, ,
1, ,50, ,
-1, ,50, ,
4, ,51, ,
0, ,49, ,
1, ,51, ,
-1, ,50, ,
3, ,50, ,
3, ,50, ,
4, ,50, ,
1, ,48, ,
4, ,51, ,
3, ,50, ,
1, ,50, ,
-6, ,51, ,
1, ,50, ,
-2, ,49, ,
0, ,51, ,
1, ,50, ,
1, ,50, ,
3, ,51, ,
5, ,51, ,
0, ,49, ,
0, ,51, ,
1, ,50, ,
1, ,50, ,
-4, ,50, ,
3, ,51, ,
3, ,49, ,
0, ,51, ,
1, ,50, ,
3, ,50, ,
-1, ,51, ,
3, ,51, ,
-6, ,48, ,
0, ,51, ,
1, ,50, ,
-2, ,50, ,
-2, ,51, ,
3, ,51, ,
3, ,49, ,
5, ,51, ,
3, ,47, ,
-1, ,40, ,
-2, ,31, ,
-1, ,20, ,
-9, ,12, ,
-2, ,4, ,
-1, ,-2, ,
-1, ,-7, ,
-5, ,-12, ,
-5, ,-17, ,
-5, ,-21, ,
-6, ,-24, ,
-7, ,-26, ,
-2, ,-28, ,
1, ,-30, ,
0, ,-32, ,
-2, ,-33, ,
-2, ,-36, ,
0, ,-36, ,
-1, ,-37, ,
-5, ,-38, ,
0, ,-39, ,
-1, ,-39, ,
4, ,-41, ,
1, ,-40, ,
0, ,-41, ,
5, ,-41, ,
3, ,-42, ,
-4, ,-41, ,
-2, ,-42, ,
-4, ,-42, ,
-2, ,-42, ,
-2, ,-43, ,
3, ,-43, ,
5, ,-42, ,
3, ,-43, ,
1, ,-43, ,
4, ,-42, ,
4, ,-43, ,
5, ,-43, ,
0, ,-42, ,
6, ,-44, ,
8, ,-43, ,
1, ,-43, ,
0, ,-43, ,
3, ,-43, ,
0, ,-42, ,
1, ,-44, ,
1, ,-43, ,
5, ,-43, ,
4, ,-43, ,
6, ,-43, ,
-4, ,-42, ,
4, ,-44, ,
4, ,-43, ,
-1, ,-43, ,
1, ,-43, ,
4, ,-43, ,
3, ,-42, ,
3, ,-44, ,
1, ,-43, ,
5, ,-43, ,
4, ,-43, ,
6, ,-43, ,
0, ,-42, ,
3, ,-43, ,
8, ,-43, ,
3, ,-43, ,
3, ,-43, ,
5, ,-43, ,
3, ,-42, ,
1, ,-43, ,
-2, ,-43, ,
1, ,-42, ,
4, ,-43, ,
4, ,-43, ,
-6, ,-42, ,
-2, ,-43, ,
1, ,-42, ,
3, ,-42, ,
0, ,-42, ,
6, ,-43, ,
5, ,-42, ,
1, ,-43, ,
-1, ,-43, ,
4, ,-42, ,
1, ,-43, ,
3, ,-43, ,
-2, ,-42, ,
5, ,-43, ,
6, ,-43, ,
3, ,-42, ,
-2, ,-43, ,
1, ,-42, ,
-5, ,-42, ,
-2, ,-43, ,
-1, ,-43, ,
-2, ,-43, ,
3, ,-43, ,
6, ,-42, ,
1, ,-42, ,
4, ,-43, ,
4, ,-42, ,
3, ,-42, ,
0, ,-43, ,
4, ,-42, ,
5, ,-42, ,
3, ,-43, ,
3, ,-42, ,
1, ,-42, ,
0, ,-42, ,
0, ,-43, ,
-5, ,-42, ,
-2, ,-43, ,
3, ,-43, ,
0, ,-42, ,
-1, ,-42, ,
4, ,-42, ,
1, ,-42, ,
1, ,-43, ,
-1, ,-43, ,
3, ,-42, ,
3, ,-43, ,
6, ,-43, ,
1, ,-41, ,
4, ,-43, ,
8, ,-42, ,
6, ,-42, ,
-1, ,-43, ,
1, ,-43, ,
-2, ,-42, ,
-4, ,-43, ,
-7, ,-42, ,
-7, ,-42, ,
-1, ,-42, ,
0, ,-43, ,
-4, ,-42, ,
0, ,-43, ,
3, ,-42, ,
3, ,-43, ,
0, ,-42, ,
4, ,-42, ,
0, ,-41, ,
0, ,-43, ,
-2, ,-42, ,
-5, ,-42, ,
-5, ,-43, ,
-9, ,-43, ,
-14, ,-42, ,
-9, ,-43, ,
-9, ,-42, ,
-7, ,-42, ,
-9, ,-43, ,
-1, ,-42, ,
-5, ,-42, ,
-6, ,-43, ,
-5, ,-42, ,
0, ,-43, ,
8, ,-42, ,
13, ,-43, ,
10, ,-41, ,
13, ,-43, ,
11, ,-43, ,
3, ,-42, ,
-2, ,-43, ,
-4, ,-42, ,
-6, ,-42, ,
-6, ,-43, ,
-5, ,-43, ,
-6, ,-42, ,
-4, ,-43, ,
-2, ,-43, ,
-6, ,-42, ,
0, ,-43, ,
3, ,-42, ,
1, ,-42, ,
0, ,-43, ,
1, ,-42, ,
-1, ,-42, ,
-2, ,-43, ,
-6, ,-42, ,
-2, ,-42, ,
-1, ,-43, ,
4, ,-43, ,
0, ,-42, ,
4, ,-43, ,
6, ,-43, ,
4, ,-42, ,
-1, ,-43, ,
1, ,-43, ,
-2, ,-42, ,
-2, ,-43, ,
-4, ,-42, ,
-4, ,-42, ,
1, ,-42, ,
0, ,-43, ,
-1, ,-42, ,
4, ,-43, ,
5, ,-42, ,
6, ,-42, ,
4, ,-42, ,
6, ,-42, ,
4, ,-42, ,
0, ,-43, ,
-4, ,-42, ,
-4, ,-42, ,
-5, ,-42, ,
-1, ,-43, ,
-2, ,-42, ,
3, ,-43, ,
5, ,-42, ,
1, ,-43, ,
1, ,-42, ,
5, ,-42, ,
1, ,-41, ,
3, ,-43, ,
-2, ,-42, ,
0, ,-42, ,
1, ,-43, ,
3, ,-43, ,
-5, ,-41, ,
3, ,-42, ,
0, ,-42, ,
0, ,-42, ,
-4, ,-42, ,
1, ,-42, ,
1, ,-42, ,
3, ,-43, ,
1, ,-42, ,
3, ,-42, ,
1, ,-42, ,
5, ,-43, ,
-2, ,-41, ,
1, ,-43, ,
3, ,-42, ,
-1, ,-42, ,
-4, ,-42, ,
3, ,-42, ,
1, ,-42, ,
4, ,-43, ,
-1, ,-43, ,
0, ,-42, ,
3, ,-42, ,
3, ,-43, ,
-2, ,-42, ,
1, ,-43, ,
4, ,-42, ,
3, ,-42, ,
-1, ,-42, ,
6, ,-42, ,
1, ,-42, ,
0, ,-43, ,
0, ,-42, ,
3, ,-42, ,
3, ,-43, ,
3, ,-43, ,
-1, ,-41, ,
6, ,-42, ,
8, ,-42, ,
5, ,-42, ,
0, ,-42, ,
5, ,-42, ,
3, ,-42, ,
5, ,-43, ,
3, ,-42, ,
4, ,-42, ,
8, ,-42, ,
5, ,-43, ,
0, ,-42, ,
1, ,-43, ,
1, ,-42, ,
-1, ,-43, ,
-5, ,-42, ,
4, ,-42, ,
5, ,-42, ,
3, ,-43, ,
6, ,-42, ,
8, ,-42, ,
8, ,-42, ,
8, ,-43, ,
0, ,-41, ,
4, ,-43, ,
3, ,-42, ,
0, ,-42, ,
0, ,-42, ,
4, ,-42, ,
5, ,-41, ,
6, ,-43, ,
3, ,-42, ,
6, ,-42, ,
3, ,-43, ,
3, ,-42, ,
-2, ,-41, ,
3, ,-43, ,
6, ,-42, ,
4, ,-42, ,
0, ,-42, ,
5, ,-42, ,
4, ,-42, ,
3, ,-43, ,
1, ,-42, ,
4, ,-42, ,
5, ,-42, ,
5, ,-43, ,
1, ,-42, ,
3, ,-43, ,
4, ,-42, ,
-1, ,-42, ,
-1, ,-43, ,
3, ,-42, ,
-1, ,-41, ,
5, ,-43, ,
3, ,-42, ,
4, ,-42, ,
8, ,-42, ,
8, ,-43, ,
1, ,-41, ,
3, ,-43, ,
1, ,-42, ,
0, ,-42, ,
-5, ,-43, ,
1, ,-42, ,
-1, ,-42, ,
3, ,-43, ,
8, ,-42, ,
3, ,-42, ,
3, ,-42, ,
5, ,-43, ,
-4, ,-42, ,
3, ,-43, ,
4, ,-42, ,
1, ,-42, ,
-2, ,-42, ,
5, ,-42, ,
4, ,-41, ,
5, ,-43, ,
4, ,-42, ,
1, ,-42, ,
4, ,-42, ,
8, ,-43, ,
-1, ,-41, ,
3, ,-43, ,
4, ,-42, ,
3, ,-42, ,
0, ,-42, ,
3, ,-43, ,
4, ,-42, ,
4, ,-43, ,
4, ,-42, ,
5, ,-42, ,
6, ,-43, ,
8, ,-43, ,
3, ,-42, ,
9, ,-43, ,
9, ,-42, ,
3, ,-42, ,
3, ,-42, ,
4, ,-42, ,
5, ,-41, ,
5, ,-43, ,
4, ,-42, ,
6, ,-42, ,
5, ,-42, ,
6, ,-42, ,
3, ,-41, ,
6, ,-43, ,
8, ,-42, ,
3, ,-42, ,
1, ,-42, ,
4, ,-42, ,
4, ,-42, ,
3, ,-43, ,
-4, ,-43, ,
0, ,-42, ,
0, ,-42, ,
3, ,-43, ,
-4, ,-42, ,
0, ,-43, ,
6, ,-42, ,
3, ,-42, ,
1, ,-43, ,
5, ,-43, ,
1, ,-41, ,
4, ,-43, ,
-2, ,-43, ,
0, ,-42, ,
1, ,-42, ,
0, ,-42, ,
-4, ,-41, ,
0, ,-43, ,
1, ,-42, ,
3, ,-42, ,
-2, ,-42, ,
4, ,-42, ,
3, ,-42, ,
0, ,-43, ,
-1, ,-42, ,
1, ,-42, ,
4, ,-43, ,
3, ,-43, ,
-2, ,-41, ,
1, ,-43, ,
4, ,-42, ,
3, ,-42, ,
0, ,-42, ,
1, ,-42, ,
3, ,-41, ,
1, ,-43, ,
-1, ,-43, ,
-1, ,-42, ,
-1, ,-42, ,
0, ,-42, ,
-7, ,-41, ,
-2, ,-43, ,
0, ,-42, ,
-2, ,-43, ,
-6, ,-43, ,
-2, ,-42, ,
-1, ,-42, ,
-4, ,-43, ,
-5, ,-42, ,
-1, ,-42, ,
-6, ,-42, ,
1, ,-42, ,
-4, ,-42, ,
1, ,-43, ,
1, ,-43, ,
-2, ,-42, ,
-4, ,-42, ,
-1, ,-42, ,
-6, ,-42, ,
-4, ,-43, ,
-7, ,-42, ,
-4, ,-42, ,
0, ,-42, ,
0, ,-42, ,
-1, ,-41, ,
-1, ,-42, ,
0, ,-42, ,
-1, ,-42, ,
-6, ,-42, ,
-2, ,-42, ,
-2, ,-42, ,
-4, ,-43, ,
-5, ,-42, ,
-5, ,-42, ,
-5, ,-42, ,
-2, ,-43, ,
-9, ,-42, ,
-5, ,-43, ,
-1, ,-42, ,
-4, ,-42, ,
-7, ,-42, ,
0, ,-42, ,
-4, ,-41, ,
-5, ,-43, ,
-7, ,-43, ,
-5, ,-42, ,
-5, ,-42, ,
-5, ,-43, ,
-9, ,-41, ,
-1, ,-43, ,
-2, ,-42, ,
-2, ,-42, ,
-7, ,-42, ,
-4, ,-42, ,
-4, ,-42, ,
-6, ,-43, ,
-7, ,-42, ,
-4, ,-42, ,
-4, ,-42, ,
-2, ,-43, ,
-7, ,-42, ,
-4, ,-43, ,
-1, ,-42, ,
-5, ,-43, ,
-7, ,-42, ,
-4, ,-42, ,
-2, ,-42, ,
-2, ,-43, ,
-6, ,-43, ,
-1, ,-42, ,
-2, ,-42, ,
0, ,-43, ,
-4, ,-41, ,
-2, ,-43, ,
0, ,-42, ,
-1, ,-42, ,
-5, ,-43, ,
-2, ,-42, ,
-5, ,-42, ,
-2, ,-43, ,
-6, ,-43, ,
-4, ,-42, ,
-1, ,-42, ,
-2, ,-43, ,
-6, ,-42, ,
-2, ,-43, ,
3, ,-42, ,
1, ,-42, ,
-1, ,-42, ,
5, ,-42, ,
3, ,-42, ,
4, ,-43, ,
1, ,-42, ,
1, ,-42, ,
1, ,-43, ,
1, ,-43, ,
-4, ,-41, ,
0, ,-43, ,
1, ,-42, ,
3, ,-42, ,
-2, ,-42, ,
4, ,-42, ,
-1, ,-42, ,
-1, ,-43, ,
-1, ,-42, ,
0, ,-42, ,
1, ,-43, ,
5, ,-43, ,
0, ,-42, ,
4, ,-43, ,
4, ,-42, ,
1, ,-43, ,
-2, ,-42, ,
4, ,-42, ,
1, ,-41, ,
3, ,-43, ,
1, ,-42, ,
4, ,-42, ,
4, ,-43, ,
1, ,-43, ,
-7, ,-42, ,
-1, ,-43, ,
0, ,-42, ,
0, ,-42, ,
0, ,-42, ,
9, ,-42, ,
5, ,-42, ,
6, ,-43, ,
1, ,-42, ,
5, ,-42, ,
3, ,-42, ,
1, ,-43, ,
-1, ,-42, ,
0, ,-43, ,
5, ,-43, ,
1, ,-42, ,
1, ,-42, ,
6, ,-42, ,
3, ,-42, ,
5, ,-43, ,
1, ,-42, ,
1, ,-42, ,
4, ,-42, ,
8, ,-43, ,
5, ,-41, ,
10, ,-43, ,
8, ,-42, ,
4, ,-42, ,
-1, ,-43, ,
5, ,-42, ,
5, ,-42, ,
4, ,-43, ,
3, ,-42, ,
4, ,-42, ,
4, ,-43, ,
4, ,-43, ,
-1, ,-42, ,
1, ,-43, ,
4, ,-42, ,
5, ,-42, ,
3, ,-42, ,
10, ,-42, ,
8, ,-42, ,
8, ,-43, ,
9, ,-42, ,
5, ,-42, ,
6, ,-43, ,
4, ,-43, ,
-4, ,-42, ,
4, ,-43, ,
5, ,-42, ,
6, ,-42, ,
4, ,-42, ,
10, ,-42, ,
10, ,-42, ,
8, ,-43, ,
6, ,-42, ,
11, ,-42, ,
9, ,-42, ,
10, ,-43, ,
3, ,-42, ,
5, ,-43, ,
5, ,-42, ,
5, ,-42, ,
0, ,-42, ,
6, ,-42, ,
6, ,-41, ,
5, ,-43, ,
5, ,-43, ,
8, ,-42, ,
6, ,-43, ,
6, ,-43, ,
0, ,-42, ,
4, ,-43, ,
5, ,-42, ,
4, ,-43, ,
-1, ,-42, ,
5, ,-43, ,
3, ,-42, ,
4, ,-43, ,
3, ,-42, ,
5, ,-42, ,
8, ,-42, ,
5, ,-43, ,
1, ,-42, ,
3, ,-43, ,
5, ,-42, ,
3, ,-42, ,
3, ,-42, ,
5, ,-43, ,
6, ,-42, ,
5, ,-43, ,
3, ,-42, ,
6, ,-42, ,
4, ,-42, ,
3, ,-42, ,
1, ,-42, ,
4, ,-43, ,
4, ,-42, ,
4, ,-42, ,
-2, ,-42, ,
4, ,-42, ,
3, ,-42, ,
1, ,-43, ,
-1, ,-43, ,
4, ,-42, ,
4, ,-43, ,
8, ,-43, ,
0, ,-42, ,
6, ,-43, ,
6, ,-43, ,
4, ,-43, ,
1, ,-42, ,
5, ,-42, ,
4, ,-41, ,
4, ,-43, ,
3, ,-43, ,
4, ,-42, ,
3, ,-42, ,
1, ,-43, ,
-5, ,-41, ,
1, ,-43, ,
1, ,-42, ,
