src/vary_am2_1411/temp0000316.CSV

Format,1.0B,
Memory Length,10000,Memory Length,10000,
IntpDistance,0,IntpDistance,0,
Trigger Address,4999,Trigger Address,4999,
Trigger Level,-1.000E+00,Trigger Level,-1.000E+00,
Source,CH1,Source,CH2,
Vertical Units,V,Vertical Units,V,
Vertical Units Div,0,Vertical Units Div,0,
Vertical Units Extend Div,16,Vertical Units Extend Div,16,
Label,,Label,,
Probe Type,0,Probe Type,0,
Probe Ratio,1.000e+01,Probe Ratio,1.000e+00,
Vertical Scale,2.000e-02,Vertical Scale,1.000e+00,
Vertical Position,-5.120e-02,Vertical Position,2.000e-01,
Horizontal Units,S,Horizontal Units,S,
Horizontal Scale,1.000E-05,Horizontal Scale,1.000E-05,
Horizontal Position,0.000E+00,Horizontal Position,0.000E+00,
Horizontal Mode,Main,Horizontal Mode,Main,
SincET Mode,Real Time,SincET Mode,Real Time,
Sampling Period,1.000e-08,Sampling Period,1.000e-08,
Horizontal Old Scale,1.000E-05,Horizontal Old Scale,1.000E-05,
Horizontal Old Position,0.000E+00,Horizontal Old Position,0.000E+00,
Firmware,V1.23,Firmware,V1.23,
Mode,Fast,Mode,Fast,
Waveform Data,,Waveform Data,,
3, ,-55, ,
-1, ,-55, ,
0, ,-56, ,
1, ,-55, ,
0, ,-55, ,
-2, ,-55, ,
-4, ,-56, ,
-2, ,-54, ,
0, ,-56, ,
0, ,-55, ,
-4, ,-55, ,
-1, ,-55, ,
-1, ,-55, ,
-2, ,-55, ,
-7, ,-56, ,
-2, ,-55, ,
-1, ,-55, ,
0, ,-55, ,
-2, ,-56, ,
-1, ,-54, ,
0, ,-56, ,
0, ,-55, ,
-5, ,-55, ,
-2, ,-55, ,
-1, ,-55, ,
-2, ,-55, ,
-6, ,-56, ,
1, ,-55, ,
0, ,-55, ,
-1, ,-55, ,
-2, ,-55, ,
-1, ,-54, ,
0, ,-55, ,
-1, ,-55, ,
-4, ,-55, ,
0, ,-55, ,
0, ,-55, ,
-1, ,-55, ,
-5, ,-56, ,
-1, ,-55, ,
-1, ,-55, ,
-4, ,-55, ,
-6, ,-56, ,
-2, ,-54, ,
-2, ,-56, ,
-1, ,-55, ,
-4, ,-55, ,
3, ,-55, ,
3, ,-55, ,
-2, ,-55, ,
-5, ,-56, ,
-1, ,-55, ,
-2, ,-55, ,
-1, ,-55, ,
-1, ,-56, ,
0, ,-54, ,
1, ,-56, ,
1, ,-55, ,
0, ,-55, ,
4, ,-55, ,
5, ,-55, ,
-1, ,-54, ,
-4, ,-56, ,
0, ,-55, ,
-2, ,-55, ,
-4, ,-55, ,
-1, ,-56, ,
0, ,-55, ,
-5, ,-56, ,
-5, ,-55, ,
-5, ,-55, ,
0, ,-55, ,
4, ,-55, ,
0, ,-54, ,
-5, ,-56, ,
1, ,-55, ,
0, ,-55, ,
-1, ,-55, ,
-4, ,-56, ,
-4, ,-54, ,
-5, ,-55, ,
-7, ,-55, ,
-11, ,-55, ,
-5, ,-56, ,
0, ,-55, ,
1, ,-55, ,
1, ,-56, ,
8, ,-55, ,
4, ,-55, ,
0, ,-55, ,
-4, ,-56, ,
0, ,-55, ,
1, ,-56, ,
5, ,-55, ,
0, ,-55, ,
3, ,-55, ,
1, ,-55, ,
-1, ,-55, ,
-6, ,-56, ,
-1, ,-55, ,
-1, ,-55, ,
0, ,-55, ,
-1, ,-56, ,
1, ,-54, ,
4, ,-55, ,
4, ,-55, ,
0, ,-55, ,
5, ,-55, ,
3, ,-56, ,
0, ,-55, ,
-2, ,-56, ,
3, ,-55, ,
4, ,-55, ,
4, ,-56, ,
1, ,-55, ,
1, ,-55, ,
0, ,-55, ,
-1, ,-55, ,
-5, ,-55, ,
-1, ,-55, ,
4, ,-55, ,
3, ,-54, ,
-1, ,-56, ,
4, ,-55, ,
0, ,-55, ,
0, ,-55, ,
-1, ,-55, ,
1, ,-55, ,
5, ,-55, ,
5, ,-55, ,
1, ,-55, ,
5, ,-55, ,
5, ,-55, ,
5, ,-55, ,
1, ,-56, ,
5, ,-55, ,
4, ,-55, ,
3, ,-56, ,
1, ,-55, ,
1, ,-55, ,
1, ,-56, ,
5, ,-55, ,
1, ,-55, ,
4, ,-55, ,
5, ,-55, ,
1, ,-55, ,
0, ,-56, ,
3, ,-55, ,
0, ,-55, ,
3, ,-55, ,
-1, ,-55, ,
3, ,-54, ,
4, ,-56, ,
4, ,-55, ,
-1, ,-55, ,
4, ,-55, ,
3, ,-55, ,
1, ,-54, ,
-1, ,-56, ,
4, ,-55, ,
4, ,-55, ,
5, ,-55, ,
4, ,-56, ,
3, ,-55, ,
1, ,-56, ,
1, ,-55, ,
-4, ,-55, ,
0, ,-55, ,
3, ,-55, ,
-1, ,-54, ,
-4, ,-56, ,
3, ,-55, ,
0, ,-55, ,
0, ,-55, ,
-1, ,-56, ,
0, ,-54, ,
0, ,-56, ,
1, ,-55, ,
-1, ,-55, ,
1, ,-55, ,
3, ,-55, ,
0, ,-55, ,
-4, ,-56, ,
3, ,-55, ,
1, ,-55, ,
1, ,-55, ,
1, ,-55, ,
-4, ,-55, ,
3, ,-56, ,
1, ,-56, ,
-4, ,-55, ,
5, ,-55, ,
4, ,-55, ,
3, ,-54, ,
-1, ,-56, ,
6, ,-55, ,
5, ,-55, ,
5, ,-55, ,
4, ,-56, ,
3, ,-54, ,
3, ,-56, ,
1, ,-55, ,
-5, ,-56, ,
0, ,-55, ,
1, ,-55, ,
1, ,-55, ,
-1, ,-56, ,
4, ,-55, ,
3, ,-55, ,
0, ,-56, ,
1, ,-56, ,
3, ,-55, ,
4, ,-55, ,
4, ,-55, ,
-2, ,-55, ,
1, ,-55, ,
0, ,-55, ,
1, ,-55, ,
0, ,-56, ,
0, ,-55, ,
1, ,-55, ,
0, ,-55, ,
-2, ,-56, ,
4, ,-54, ,
1, ,-55, ,
1, ,-55, ,
-2, ,-55, ,
3, ,-55, ,
1, ,-55, ,
0, ,-55, ,
-2, ,-56, ,
1, ,-55, ,
3, ,-55, ,
1, ,-56, ,
0, ,-56, ,
1, ,-55, ,
1, ,-56, ,
0, ,-55, ,
-4, ,-55, ,
-4, ,-55, ,
0, ,-55, ,
-2, ,-55, ,
-2, ,-56, ,
3, ,-55, ,
-1, ,-55, ,
1, ,-55, ,
-1, ,-56, ,
0, ,-54, ,
1, ,-55, ,
-2, ,-55, ,
-5, ,-55, ,
-2, ,-55, ,
0, ,-55, ,
-2, ,-55, ,
-4, ,-56, ,
-1, ,-55, ,
-2, ,-55, ,
-2, ,-55, ,
-4, ,-56, ,
-2, ,-55, ,
-2, ,-55, ,
-1, ,-55, ,
-5, ,-55, ,
-1, ,-55, ,
1, ,-55, ,
0, ,-55, ,
-2, ,-56, ,
1, ,-55, ,
0, ,-55, ,
0, ,-55, ,
0, ,-56, ,
-1, ,-55, ,
0, ,-56, ,
1, ,-56, ,
-6, ,-55, ,
0, ,-55, ,
-1, ,-55, ,
-2, ,-55, ,
-6, ,-56, ,
1, ,-55, ,
0, ,-55, ,
1, ,-55, ,
1, ,-56, ,
1, ,-55, ,
3, ,-55, ,
1, ,-55, ,
-4, ,-55, ,
0, ,-55, ,
0, ,-55, ,
-2, ,-55, ,
-4, ,-56, ,
1, ,-55, ,
-2, ,-55, ,
-1, ,-56, ,
-2, ,-55, ,
-1, ,-55, ,
1, ,-55, ,
5, ,-55, ,
4, ,-55, ,
4, ,-55, ,
1, ,-56, ,
-1, ,-54, ,
-5, ,-56, ,
0, ,-55, ,
-2, ,-55, ,
-4, ,-56, ,
-2, ,-55, ,
-1, ,-55, ,
-2, ,-54, ,
0, ,-45, ,
0, ,-35, ,
5, ,-25, ,
6, ,-17, ,
4, ,-9, ,
0, ,-2, ,
5, ,3, ,
1, ,9, ,
5, ,13, ,
5, ,16, ,
6, ,18, ,
6, ,21, ,
3, ,25, ,
-4, ,26, ,
0, ,28, ,
3, ,29, ,
3, ,30, ,
0, ,32, ,
4, ,33, ,
4, ,34, ,
3, ,35, ,
-1, ,35, ,
0, ,35, ,
-1, ,36, ,
1, ,36, ,
-2, ,36, ,
1, ,37, ,
3, ,37, ,
1, ,37, ,
-5, ,38, ,
1, ,37, ,
-4, ,38, ,
-2, ,38, ,
-5, ,38, ,
-1, ,37, ,
-1, ,38, ,
5, ,38, ,
0, ,38, ,
1, ,38, ,
4, ,38, ,
1, ,38, ,
-2, ,38, ,
3, ,38, ,
4, ,38, ,
3, ,38, ,
0, ,38, ,
0, ,37, ,
4, ,38, ,
5, ,38, ,
-1, ,38, ,
1, ,38, ,
5, ,38, ,
-1, ,37, ,
-1, ,38, ,
1, ,38, ,
0, ,38, ,
3, ,38, ,
-1, ,38, ,
4, ,37, ,
1, ,38, ,
3, ,38, ,
0, ,38, ,
3, ,38, ,
5, ,38, ,
3, ,37, ,
0, ,38, ,
8, ,38, ,
1, ,38, ,
0, ,38, ,
-1, ,38, ,
0, ,37, ,
0, ,38, ,
5, ,38, ,
0, ,38, ,
5, ,38, ,
8, ,38, ,
3, ,37, ,
0, ,38, ,
4, ,38, ,
-1, ,37, ,
0, ,38, ,
0, ,38, ,
-1, ,37, ,
5, ,38, ,
6, ,38, ,
3, ,38, ,
5, ,38, ,
3, ,38, ,
5, ,37, ,
1, ,38, ,
5, ,38, ,
5, ,37, ,
5, ,38, ,
5, ,38, ,
5, ,37, ,
4, ,38, ,
6, ,38, ,
-2, ,37, ,
3, ,38, ,
5, ,38, ,
0, ,37, ,
1, ,38, ,
5, ,37, ,
1, ,38, ,
3, ,38, ,
-1, ,38, ,
-1, ,37, ,
1, ,38, ,
5, ,38, ,
0, ,37, ,
4, ,38, ,
5, ,38, ,
0, ,37, ,
0, ,38, ,
3, ,37, ,
0, ,37, ,
0, ,38, ,
-4, ,38, ,
-1, ,37, ,
0, ,38, ,
3, ,37, ,
-1, ,37, ,
4, ,38, ,
9, ,38, ,
4, ,37, ,
4, ,38, ,
9, ,38, ,
5, ,38, ,
9, ,38, ,
4, ,38, ,
5, ,36, ,
6, ,38, ,
4, ,37, ,
0, ,37, ,
3, ,37, ,
1, ,38, ,
1, ,36, ,
-1, ,38, ,
8, ,37, ,
5, ,37, ,
3, ,38, ,
3, ,38, ,
1, ,37, ,
4, ,38, ,
5, ,37, ,
-2, ,37, ,
3, ,38, ,
4, ,38, ,
3, ,37, ,
-2, ,38, ,
1, ,37, ,
1, ,38, ,
3, ,38, ,
-1, ,37, ,
1, ,37, ,
3, ,38, ,
0, ,38, ,
-4, ,37, ,
0, ,37, ,
3, ,38, ,
3, ,37, ,
-1, ,38, ,
3, ,38, ,
6, ,37, ,
5, ,38, ,
4, ,37, ,
5, ,36, ,
1, ,38, ,
3, ,38, ,
-4, ,37, ,
1, ,38, ,
5, ,37, ,
1, ,36, ,
-1, ,38, ,
1, ,37, ,
-7, ,37, ,
1, ,37, ,
4, ,37, ,
3, ,37, ,
3, ,38, ,
4, ,37, ,
-4, ,37, ,
-1, ,38, ,
-1, ,38, ,
-2, ,37, ,
-4, ,38, ,
3, ,37, ,
4, ,37, ,
3, ,38, ,
-1, ,37, ,
-4, ,36, ,
-4, ,38, ,
0, ,38, ,
-4, ,37, ,
1, ,37, ,
3, ,38, ,
3, ,37, ,
-2, ,38, ,
4, ,37, ,
1, ,37, ,
4, ,38, ,
1, ,38, ,
1, ,36, ,
-1, ,38, ,
1, ,37, ,
-4, ,37, ,
0, ,37, ,
1, ,38, ,
1, ,37, ,
-5, ,38, ,
1, ,37, ,
1, ,37, ,
3, ,38, ,
1, ,38, ,
0, ,37, ,
-2, ,38, ,
-1, ,37, ,
-9, ,37, ,
-5, ,37, ,
-2, ,37, ,
-5, ,37, ,
-6, ,38, ,
0, ,37, ,
0, ,37, ,
0, ,38, ,
-1, ,37, ,
1, ,36, ,
-1, ,38, ,
1, ,37, ,
-4, ,38, ,
1, ,37, ,
1, ,37, ,
0, ,37, ,
-5, ,38, ,
4, ,37, ,
-2, ,37, ,
0, ,37, ,
-2, ,37, ,
0, ,37, ,
-1, ,38, ,
3, ,37, ,
-1, ,37, ,
-1, ,37, ,
3, ,37, ,
-1, ,37, ,
-2, ,38, ,
4, ,37, ,
3, ,37, ,
1, ,38, ,
-12, ,38, ,
-1, ,37, ,
5, ,38, ,
-4, ,37, ,
-1, ,37, ,
3, ,38, ,
-7, ,38, ,
-4, ,37, ,
-5, ,38, ,
-2, ,37, ,
-1, ,37, ,
-1, ,38, ,
-1, ,37, ,
0, ,36, ,
-2, ,37, ,
1, ,37, ,
-6, ,37, ,
0, ,37, ,
1, ,37, ,
3, ,37, ,
-2, ,38, ,
3, ,37, ,
1, ,38, ,
1, ,38, ,
-2, ,38, ,
-5, ,36, ,
-2, ,37, ,
-1, ,37, ,
-6, ,37, ,
0, ,37, ,
-4, ,37, ,
-2, ,37, ,
-4, ,38, ,
4, ,37, ,
1, ,37, ,
0, ,38, ,
-2, ,37, ,
-1, ,37, ,
-1, ,38, ,
4, ,37, ,
-4, ,37, ,
1, ,38, ,
3, ,38, ,
-1, ,37, ,
-6, ,38, ,
-4, ,37, ,
-7, ,37, ,
-6, ,38, ,
-5, ,37, ,
-2, ,37, ,
0, ,38, ,
1, ,37, ,
-2, ,37, ,
-1, ,38, ,
0, ,37, ,
-1, ,37, ,
-4, ,37, ,
4, ,37, ,
4, ,37, ,
4, ,37, ,
0, ,38, ,
1, ,36, ,
0, ,38, ,
3, ,38, ,
-2, ,37, ,
1, ,37, ,
3, ,38, ,
0, ,36, ,
0, ,38, ,
5, ,37, ,
-2, ,37, ,
0, ,38, ,
-5, ,37, ,
-1, ,37, ,
1, ,38, ,
1, ,37, ,
-2, ,37, ,
1, ,37, ,
1, ,37, ,
1, ,37, ,
-4, ,37, ,
5, ,37, ,
3, ,37, ,
-7, ,38, ,
0, ,37, ,
0, ,36, ,
-2, ,38, ,
3, ,37, ,
-5, ,37, ,
1, ,38, ,
4, ,37, ,
1, ,37, ,
-2, ,38, ,
3, ,37, ,
0, ,37, ,
3, ,38, ,
0, ,38, ,
4, ,36, ,
5, ,38, ,
6, ,38, ,
0, ,37, ,
4, ,38, ,
4, ,37, ,
1, ,37, ,
-2, ,38, ,
4, ,37, ,
0, ,37, ,
0, ,38, ,
-2, ,37, ,
1, ,36, ,
-1, ,38, ,
1, ,37, ,
-4, ,37, ,
4, ,37, ,
9, ,37, ,
4, ,37, ,
1, ,38, ,
4, ,37, ,
0, ,37, ,
1, ,38, ,
-2, ,37, ,
0, ,36, ,
0, ,38, ,
1, ,37, ,
0, ,37, ,
5, ,38, ,
3, ,38, ,
3, ,37, ,
-1, ,38, ,
6, ,37, ,
1, ,38, ,
0, ,38, ,
1, ,38, ,
3, ,36, ,
4, ,38, ,
8, ,38, ,
1, ,37, ,
4, ,37, ,
5, ,38, ,
5, ,37, ,
1, ,38, ,
5, ,37, ,
3, ,38, ,
4, ,38, ,
3, ,37, ,
1, ,37, ,
1, ,37, ,
3, ,37, ,
-2, ,37, ,
3, ,37, ,
3, ,38, ,
3, ,37, ,
3, ,38, ,
5, ,37, ,
3, ,37, ,
3, ,38, ,
-1, ,38, ,
1, ,37, ,
1, ,38, ,
3, ,37, ,
-1, ,37, ,
1, ,38, ,
6, ,37, ,
1, ,36, ,
-4, ,38, ,
1, ,37, ,
-1, ,37, ,
3, ,38, ,
0, ,38, ,
5, ,37, ,
5, ,38, ,
8, ,38, ,
4, ,37, ,
8, ,37, ,
3, ,38, ,
3, ,37, ,
-1, ,38, ,
6, ,37, ,
3, ,37, ,
3, ,38, ,
0, ,37, ,
0, ,37, ,
0, ,37, ,
1, ,37, ,
-4, ,37, ,
1, ,37, ,
1, ,38, ,
1, ,37, ,
1, ,38, ,
9, ,37, ,
4, ,37, ,
5, ,38, ,
1, ,37, ,
1, ,36, ,
3, ,38, ,
1, ,38, ,
-4, ,37, ,
4, ,37, ,
4, ,37, ,
4, ,37, ,
0, ,38, ,
5, ,38, ,
4, ,38, ,
3, ,38, ,
4, ,38, ,
1, ,37, ,
-1, ,38, ,
3, ,37, ,
-4, ,37, ,
1, ,38, ,
3, ,37, ,
-1, ,37, ,
-1, ,38, ,
3, ,37, ,
0, ,37, ,
3, ,37, ,
0, ,38, ,
0, ,36, ,
0, ,37, ,
1, ,37, ,
-2, ,37, ,
-1, ,37, ,
1, ,37, ,
-1, ,37, ,
-2, ,38, ,
1, ,37, ,
1, ,37, ,
5, ,38, ,
0, ,37, ,
0, ,37, ,
0, ,38, ,
-1, ,37, ,
-6, ,37, ,
-1, ,37, ,
1, ,38, ,
0, ,36, ,
-2, ,38, ,
5, ,37, ,
1, ,37, ,
3, ,38, ,
-2, ,38, ,
-2, ,36, ,
0, ,38, ,
-2, ,37, ,
-4, ,37, ,
-2, ,38, ,
-1, ,37, ,
-1, ,37, ,
-5, ,38, ,
1, ,37, ,
-4, ,37, ,
-1, ,38, ,
-5, ,37, ,
-4, ,37, ,
1, ,38, ,
5, ,37, ,
-1, ,37, ,
1, ,37, ,
0, ,37, ,
-1, ,37, ,
-2, ,38, ,
-1, ,37, ,
0, ,37, ,
1, ,38, ,
0, ,38, ,
-1, ,36, ,
-1, ,38, ,
0, ,37, ,
-6, ,37, ,
-1, ,37, ,
-1, ,38, ,
0, ,37, ,
-2, ,38, ,
4, ,37, ,
3, ,37, ,
4, ,38, ,
1, ,38, ,
3, ,37, ,
0, ,38, ,
5, ,37, ,
-2, ,37, ,
0, ,37, ,
1, ,37, ,
-1, ,37, ,
-6, ,38, ,
3, ,37, ,
-2, ,38, ,
0, ,38, ,
-2, ,38, ,
3, ,36, ,
3, ,38, ,
3, ,38, ,
0, ,37, ,
3, ,38, ,
0, ,38, ,
0, ,37, ,
-2, ,38, ,
1, ,37, ,
-1, ,37, ,
-1, ,38, ,
-1, ,38, ,
0, ,36, ,
-1, ,37, ,
3, ,37, ,
-4, ,37, ,
3, ,38, ,
3, ,38, ,
0, ,37, ,
-2, ,38, ,
1, ,37, ,
-1, ,37, ,
-1, ,38, ,
-1, ,38, ,
0, ,36, ,
3, ,38, ,
3, ,37, ,
-6, ,37, ,
-2, ,37, ,
-2, ,38, ,
-4, ,37, ,
-5, ,38, ,
1, ,37, ,
1, ,37, ,
-1, ,38, ,
-1, ,37, ,
-1, ,36, ,
-1, ,38, ,
0, ,37, ,
-6, ,37, ,
3, ,38, ,
3, ,37, ,
-1, ,36, ,
-1, ,38, ,
1, ,37, ,
-2, ,37, ,
0, ,38, ,
-4, ,37, ,
3, ,36, ,
3, ,38, ,
5, ,37, ,
3, ,37, ,
5, ,38, ,
1, ,38, ,
0, ,37, ,
-5, ,38, ,
0, ,37, ,
0, ,38, ,
1, ,38, ,
-2, ,38, ,
3, ,36, ,
3, ,38, ,
5, ,37, ,
-4, ,37, ,
1, ,38, ,
4, ,37, ,
1, ,37, ,
-2, ,38, ,
3, ,37, ,
0, ,37, ,
4, ,38, ,
1, ,37, ,
1, ,37, ,
3, ,38, ,
4, ,37, ,
-2, ,38, ,
3, ,37, ,
3, ,37, ,
4, ,37, ,
-4, ,38, ,
3, ,37, ,
0, ,37, ,
-1, ,38, ,
-2, ,37, ,
0, ,36, ,
0, ,38, ,
5, ,37, ,
1, ,37, ,
6, ,37, ,
6, ,38, ,
6, ,37, ,
-1, ,38, ,
3, ,37, ,
0, ,37, ,
1, ,38, ,
-1, ,37, ,
0, ,37, ,
3, ,38, ,
3, ,37, ,
-2, ,37, ,
1, ,37, ,
1, ,37, ,
0, ,36, ,
-2, ,38, ,
1, ,37, ,
4, ,37, ,
4, ,38, ,
3, ,37, ,
4, ,36, ,
0, ,38, ,
4, ,38, ,
-1, ,37, ,
1, ,38, ,
1, ,37, ,
0, ,37, ,
-4, ,38, ,
3, ,37, ,
1, ,38, ,
4, ,38, ,
0, ,38, ,
1, ,36, ,
3, ,38, ,
3, ,38, ,
-2, ,37, ,
5, ,38, ,
5, ,38, ,
8, ,37, ,
-1, ,38, ,
5, ,37, ,
1, ,37, ,
0, ,38, ,
-4, ,38, ,
-1, ,37, ,
0, ,38, ,
5, ,38, ,
-1, ,37, ,
4, ,38, ,
1, ,38, ,
0, ,37, ,
-2, ,38, ,
4, ,37, ,
-1, ,38, ,
0, ,37, ,
-1, ,37, ,
1, ,37, ,
1, ,37, ,
0, ,38, ,
-4, ,37, ,
1, ,38, ,
0, ,38, ,
0, ,37, ,
-1, ,38, ,
5, ,38, ,
4, ,38, ,
4, ,38, ,
0, ,37, ,
3, ,36, ,
-1, ,38, ,
0, ,37, ,
-5, ,37, ,
1, ,38, ,
3, ,37, ,
0, ,37, ,
-2, ,38, ,
1, ,37, ,
-1, ,38, ,
-1, ,38, ,
-5, ,37, ,
-4, ,37, ,
-1, ,38, ,
1, ,37, ,
-5, ,37, ,
-1, ,38, ,
0, ,37, ,
-1, ,37, ,
-5, ,38, ,
-1, ,37, ,
-2, ,37, ,
0, ,38, ,
-1, ,38, ,
-1, ,36, ,
-1, ,38, ,
-1, ,37, ,
-4, ,37, ,
-1, ,38, ,
1, ,38, ,
-1, ,37, ,
-2, ,38, ,
5, ,37, ,
1, ,38, ,
4, ,38, ,
0, ,37, ,
-1, ,36, ,
3, ,38, ,
-2, ,37, ,
-5, ,37, ,
-1, ,37, ,
3, ,38, ,
0, ,37, ,
0, ,38, ,
3, ,37, ,
1, ,38, ,
0, ,38, ,
0, ,38, ,
0, ,37, ,
0, ,38, ,
5, ,37, ,
-2, ,37, ,
3, ,37, ,
4, ,38, ,
3, ,37, ,
4, ,38, ,
4, ,37, ,
-2, ,38, ,
-2, ,38, ,
-1, ,38, ,
0, ,37, ,
1, ,38, ,
3, ,37, ,
-5, ,37, ,
-4, ,38, ,
-1, ,37, ,
-2, ,37, ,
-2, ,38, ,
3, ,38, ,
0, ,37, ,
1, ,38, ,
-2, ,38, ,
3, ,36, ,
-1, ,38, ,
3, ,38, ,
-2, ,37, ,
3, ,38, ,
4, ,37, ,
-1, ,37, ,
-5, ,38, ,
4, ,37, ,
0, ,38, ,
3, ,38, ,
-5, ,37, ,
-2, ,37, ,
-4, ,38, ,
1, ,37, ,
-2, ,31, ,
-4, ,22, ,
-4, ,12, ,
-9, ,2, ,
-14, ,-6, ,
3, ,-12, ,
-4, ,-18, ,
0, ,-23, ,
-2, ,-28, ,
-6, ,-32, ,
-7, ,-36, ,
-4, ,-38, ,
-11, ,-40, ,
-2, ,-43, ,
-1, ,-45, ,
-2, ,-46, ,
-4, ,-47, ,
0, ,-48, ,
-1, ,-49, ,
-4, ,-50, ,
-1, ,-51, ,
-1, ,-51, ,
0, ,-52, ,
-1, ,-52, ,
-5, ,-54, ,
-1, ,-54, ,
-2, ,-54, ,
-1, ,-54, ,
-4, ,-55, ,
0, ,-55, ,
1, ,-55, ,
1, ,-56, ,
1, ,-56, ,
0, ,-55, ,
1, ,-56, ,
-1, ,-56, ,
-5, ,-56, ,
0, ,-56, ,
0, ,-56, ,
-1, ,-55, ,
-1, ,-57, ,
3, ,-56, ,
-1, ,-55, ,
1, ,-56, ,
-2, ,-56, ,
1, ,-55, ,
4, ,-56, ,
4, ,-56, ,
0, ,-56, ,
0, ,-56, ,
1, ,-56, ,
-1, ,-56, ,
-2, ,-56, ,
3, ,-56, ,
1, ,-56, ,
3, ,-56, ,
0, ,-57, ,
3, ,-55, ,
3, ,-56, ,
4, ,-56, ,
0, ,-56, ,
3, ,-56, ,
6, ,-56, ,
0, ,-55, ,
-1, ,-57, ,
1, ,-56, ,
0, ,-55, ,
3, ,-56, ,
0, ,-56, ,
3, ,-55, ,
3, ,-56, ,
4, ,-56, ,
-1, ,-56, ,
3, ,-56, ,
1, ,-56, ,
1, ,-55, ,
-4, ,-56, ,
0, ,-55, ,
-1, ,-55, ,
-2, ,-56, ,
-1, ,-56, ,
1, ,-55, ,
1, ,-56, ,
3, ,-56, ,
-4, ,-55, ,
1, ,-55, ,
3, ,-55, ,
1, ,-55, ,
0, ,-56, ,
4, ,-56, ,
3, ,-55, ,
1, ,-56, ,
-1, ,-55, ,
0, ,-54, ,
0, ,-56, ,
3, ,-56, ,
-1, ,-55, ,
3, ,-55, ,
4, ,-55, ,
1, ,-55, ,
3, ,-56, ,
1, ,-55, ,
0, ,-55, ,
0, ,-56, ,
0, ,-56, ,
5, ,-55, ,
5, ,-56, ,
8, ,-56, ,
1, ,-55, ,
0, ,-55, ,
1, ,-55, ,
-2, ,-55, ,
-5, ,-56, ,
-1, ,-56, ,
-2, ,-55, ,
0, ,-55, ,
-1, ,-56, ,
3, ,-54, ,
4, ,-56, ,
3, ,-56, ,
1, ,-55, ,
4, ,-56, ,
4, ,-55, ,
3, ,-55, ,
0, ,-56, ,
5, ,-56, ,
3, ,-55, ,
1, ,-55, ,
-1, ,-56, ,
0, ,-55, ,
1, ,-56, ,
1, ,-55, ,
-1, ,-55, ,
4, ,-56, ,
6, ,-55, ,
0, ,-55, ,
-1, ,-56, ,
4, ,-55, ,
0, ,-55, ,
-1, ,-55, ,
-2, ,-56, ,
0, ,-55, ,
0, ,-55, ,
-1, ,-55, ,
-4, ,-55, ,
4, ,-55, ,
0, ,-56, ,
0, ,-55, ,
-5, ,-56, ,
-1, ,-55, ,
0, ,-55, ,
-1, ,-55, ,
1, ,-56, ,
1, ,-55, ,
1, ,-56, ,
3, ,-55, ,
-2, ,-55, ,
3, ,-56, ,
3, ,-55, ,
0, ,-55, ,
-2, ,-56, ,
4, ,-55, ,
-1, ,-55, ,
-1, ,-56, ,
-1, ,-56, ,
1, ,-54, ,
1, ,-56, ,
3, ,-55, ,
-5, ,-55, ,
1, ,-55, ,
4, ,-55, ,
-1, ,-55, ,
-2, ,-56, ,
3, ,-55, ,
1, ,-55, ,
1, ,-55, ,
-4, ,-56, ,
-1, ,-55, ,
0, ,-56, ,
1, ,-55, ,
-1, ,-55, ,
5, ,-56, ,
4, ,-55, ,
1, ,-55, ,
-4, ,-56, ,
3, ,-55, ,
-1, ,-55, ,
3, ,-56, ,
-2, ,-56, ,
1, ,-55, ,
3, ,-55, ,
5, ,-56, ,
-1, ,-55, ,
4, ,-55, ,
4, ,-55, ,
4, ,-55, ,
0, ,-56, ,
5, ,-55, ,
4, ,-55, ,
1, ,-55, ,
1, ,-56, ,
0, ,-55, ,
1, ,-56, ,
0, ,-55, ,
-5, ,-55, ,
1, ,-56, ,
5, ,-55, ,
3, ,-55, ,
3, ,-56, ,
4, ,-55, ,
3, ,-55, ,
3, ,-55, ,
-1, ,-56, ,
-2, ,-54, ,
-4, ,-55, ,
-1, ,-55, ,
-6, ,-55, ,
-1, ,-55, ,
1, ,-55, ,
0, ,-55, ,
-1, ,-56, ,
3, ,-55, ,
3, ,-55, ,
0, ,-55, ,
-2, ,-56, ,
0, ,-55, ,
0, ,-55, ,
1, ,-56, ,
-4, ,-55, ,
-1, ,-55, ,
0, ,-55, ,
-5, ,-55, ,
-4, ,-56, ,
-1, ,-55, ,
-4, ,-55, ,
1, ,-56, ,
-2, ,-55, ,
-1, ,-54, ,
1, ,-56, ,
-1, ,-55, ,
-7, ,-55, ,
-2, ,-55, ,
0, ,-55, ,
0, ,-55, ,
-2, ,-56, ,
4, ,-55, ,
-1, ,-55, ,
-1, ,-55, ,
-5, ,-56, ,
-2, ,-54, ,
-1, ,-56, ,
-2, ,-55, ,
-5, ,-55, ,
-4, ,-55, ,
0, ,-55, ,
0, ,-55, ,
-4, ,-56, ,
4, ,-55, ,
0, ,-55, ,
0, ,-55, ,
1, ,-56, ,
1, ,-55, ,
0, ,-56, ,
4, ,-56, ,
-5, ,-55, ,
1, ,-56, ,
3, ,-55, ,
0, ,-55, ,
-4, ,-56, ,
4, ,-55, ,
3, ,-55, ,
-2, ,-56, ,
1, ,-56, ,
1, ,-55, ,
-1, ,-56, ,
-1, ,-56, ,
-4, ,-55, ,
0, ,-55, ,
1, ,-55, ,
3, ,-54, ,
-2, ,-56, ,
-4, ,-55, ,
-10, ,-55, ,
-6, ,-55, ,
-11, ,-55, ,
-15, ,-54, ,
-11, ,-55, ,
-11, ,-55, ,
-22, ,-55, ,
-12, ,-55, ,
-4, ,-56, ,
-4, ,-55, ,
-1, ,-56, ,
14, ,-55, ,
16, ,-55, ,
13, ,-55, ,
9, ,-56, ,
9, ,-55, ,
4, ,-56, ,
1, ,-55, ,
-5, ,-55, ,
-2, ,-55, ,
1, ,-55, ,
-1, ,-55, ,
-9, ,-56, ,
-4, ,-55, ,
-6, ,-55, ,
-2, ,-55, ,
-1, ,-56, ,
-2, ,-54, ,
0, ,-56, ,
1, ,-55, ,
-5, ,-55, ,
-1, ,-55, ,
-5, ,-55, ,
-2, ,-55, ,
-6, ,-56, ,
-2, ,-55, ,
-4, ,-55, ,
-2, ,-55, ,
-2, ,-56, ,
0, ,-55, ,
3, ,-55, ,
3, ,-55, ,
-4, ,-55, ,
0, ,-55, ,
0, ,-55, ,
-4, ,-54, ,
-4, ,-56, ,
0, ,-56, ,
1, ,-55, ,
3, ,-55, ,
1, ,-55, ,
3, ,-54, ,
0, ,-56, ,
0, ,-55, ,
-2, ,-55, ,
3, ,-55, ,
0, ,-55, ,
-1, ,-55, ,
-4, ,-56, ,
4, ,-55, ,
1, ,-55, ,
0, ,-55, ,
1, ,-56, ,
4, ,-54, ,
1, ,-55, ,
5, ,-55, ,
0, ,-55, ,
3, ,-55, ,
5, ,-55, ,
0, ,-55, ,
-1, ,-56, ,
1, ,-55, ,
0, ,-55, ,
-2, ,-56, ,
-12, ,-56, ,
1, ,-54, ,
5, ,-56, ,
-1, ,-55, ,
5, ,-55, ,
5, ,-55, ,
5, ,-56, ,
0, ,-55, ,
0, ,-56, ,
5, ,-55, ,
4, ,-55, ,
4, ,-55, ,
3, ,-56, ,
3, ,-54, ,
4, ,-55, ,
4, ,-55, ,
0, ,-55, ,
3, ,-55, ,
4, ,-55, ,
0, ,-55, ,
-2, ,-56, ,
5, ,-55, ,
3, ,-55, ,
3, ,-55, ,
3, ,-56, ,
1, ,-54, ,
3, ,-56, ,
0, ,-55, ,
-4, ,-55, ,
3, ,-55, ,
1, ,-55, ,
1, ,-54, ,
-1, ,-56, ,
4, ,-55, ,
4, ,-55, ,
0, ,-55, ,
-1, ,-55, ,
1, ,-54, ,
0, ,-56, ,
1, ,-55, ,
1, ,-55, ,
5, ,-56, ,
8, ,-55, ,
3, ,-55, ,
-1, ,-56, ,
4, ,-55, ,
3, ,-55, ,
3, ,-55, ,
4, ,-55, ,
8, ,-55, ,
8, ,-55, ,
9, ,-55, ,
1, ,-55, ,
4, ,-55, ,
4, ,-56, ,
1, ,-55, ,
0, ,-56, ,
5, ,-55, ,
5, ,-55, ,
5, ,-55, ,
3, ,-55, ,
6, ,-55, ,
5, ,-56, ,
4, ,-55, ,
0, ,-55, ,
4, ,-55, ,
6, ,-55, ,
4, ,-54, ,
3, ,-56, ,
6, ,-55, ,
0, ,-55, ,
3, ,-56, ,
-1, ,-56, ,
5, ,-54, ,
5, ,-56, ,
8, ,-55, ,
4, ,-55, ,
4, ,-55, ,
5, ,-55, ,
5, ,-55, ,
1, ,-56, ,
5, ,-55, ,
3, ,-55, ,
0, ,-55, ,
3, ,-56, ,
3, ,-55, ,
4, ,-55, ,
8, ,-56, ,
1, ,-55, ,
5, ,-55, ,
8, ,-55, ,
3, ,-55, ,
3, ,-56, ,
6, ,-55, ,
3, ,-55, ,
3, ,-55, ,
3, ,-55, ,
1, ,-55, ,
0, ,-56, ,
3, ,-55, ,
-2, ,-55, ,
4, ,-55, ,
-1, ,-55, ,
-4, ,-55, ,
4, ,-56, ,
5, ,-55, ,
4, ,-55, ,
4, ,-55, ,
-2, ,-56, ,
4, ,-55, ,
-4, ,-55, ,
0, ,-55, ,
1, ,-55, ,
1, ,-55, ,
5, ,-55, ,
0, ,-55, ,
-2, ,-56, ,
1, ,-55, ,
-2, ,-55, ,
1, ,-55, ,
0, ,-56, ,
4, ,-54, ,
5, ,-56, ,
5, ,-55, ,
5, ,-55, ,
8, ,-55, ,
5, ,-55, ,
1, ,-55, ,
-1, ,-56, ,
4, ,-55, ,
1, ,-55, ,
1, ,-55, ,
-5, ,-56, ,
3, ,-54, ,
-2, ,-56, ,
-4, ,-55, ,
1, ,-55, ,
5, ,-55, ,
8, ,-55, ,
8, ,-55, ,
3, ,-56, ,
6, ,-55, ,
8, ,-55, ,
5, ,-55, ,
6, ,-55, ,
6, ,-54, ,
6, ,-55, ,
6, ,-56, ,
-1, ,-55, ,
8, ,-55, ,
4, ,-55, ,
1, ,-55, ,
1, ,-56, ,
5, ,-55, ,
4, ,-55, ,
1, ,-55, ,
-1, ,-56, ,
4, ,-55, ,
0, ,-55, ,
4, ,-55, ,
1, ,-55, ,
4, ,-55, ,
10, ,-55, ,
6, ,-54, ,
3, ,-56, ,
5, ,-55, ,
4, ,-55, ,
5, ,-56, ,
0, ,-55, ,
3, ,-55, ,
4, ,-55, ,
1, ,-55, ,
-4, ,-55, ,
0, ,-56, ,
-1, ,-56, ,
-5, ,-55, ,
-2, ,-56, ,
5, ,-55, ,
5, ,-55, ,
4, ,-55, ,
0, ,-55, ,
3, ,-54, ,
0, ,-56, ,
1, ,-55, ,
-5, ,-55, ,
-1, ,-55, ,
1, ,-55, ,
0, ,-54, ,
-5, ,-56, ,
1, ,-55, ,
-1, ,-55, ,
3, ,-56, ,
-2, ,-56, ,
-2, ,-54, ,
3, ,-55, ,
-1, ,-55, ,
-5, ,-55, ,
-1, ,-55, ,
4, ,-55, ,
0, ,-55, ,
-4, ,-56, ,
1, ,-55, ,
0, ,-55, ,
-2, ,-55, ,
-6, ,-55, ,
-5, ,-54, ,
-5, ,-55, ,
-2, ,-56, ,
-7, ,-55, ,
0, ,-56, ,
-1, ,-55, ,
-1, ,-55, ,
-2, ,-56, ,
-1, ,-55, ,
-1, ,-55, ,
-4, ,-55, ,
-4, ,-55, ,
-1, ,-54, ,
-4, ,-56, ,
-2, ,-55, ,
-5, ,-55, ,
-2, ,-56, ,
-2, ,-55, ,
-7, ,-55, ,
-7, ,-56, ,
0, ,-55, ,
0, ,-55, ,
1, ,-55, ,
0, ,-56, ,
0, ,-54, ,
-2, ,-55, ,
-1, ,-55, ,
-6, ,-55, ,
-5, ,-55, ,
-1, ,-55, ,
-5, ,-54, ,
-7, ,-56, ,
-2, ,-55, ,
-6, ,-55, ,
-6, ,-55, ,
-9, ,-56, ,
-6, ,-54, ,
-6, ,-55, ,
-6, ,-55, ,
-9, ,-55, ,
-4, ,-55, ,
-2, ,-55, ,
-4, ,-55, ,
-10, ,-56, ,
-2, ,-55, ,
-6, ,-55, ,
-4, ,-56, ,
-6, ,-56, ,
-4, ,-55, ,
-2, ,-55, ,
-4, ,-55, ,
-9, ,-55, ,
-4, ,-55, ,
-5, ,-55, ,
-9, ,-55, ,
-10, ,-56, ,
-4, ,-55, ,
-6, ,-55, ,
-4, ,-55, ,
-1, ,-56, ,
-4, ,-54, ,
-2, ,-55, ,
-2, ,-55, ,
-7, ,-55, ,
-2, ,-56, ,
-6, ,-55, ,
-6, ,-55, ,
-9, ,-56, ,
-1, ,-55, ,
0, ,-55, ,
-6, ,-56, ,
-7, ,-56, ,
-4, ,-54, ,
-5, ,-56, ,
-2, ,-55, ,
-10, ,-55, ,
-2, ,-55, ,
1, ,-55, ,
-4, ,-55, ,
-5, ,-56, ,
1, ,-55, ,
0, ,-55, ,
1, ,-55, ,
