src/vary_am2_1411/temp0003813.CSV

Format,1.0B,
Memory Length,10000,Memory Length,10000,
IntpDistance,0,IntpDistance,0,
Trigger Address,4999,Trigger Address,4999,
Trigger Level,-1.000E+00,Trigger Level,-1.000E+00,
Source,CH1,Source,CH2,
Vertical Units,V,Vertical Units,V,
Vertical Units Div,0,Vertical Units Div,0,
Vertical Units Extend Div,16,Vertical Units Extend Div,16,
Label,,Label,,
Probe Type,0,Probe Type,0,
Probe Ratio,1.000e+01,Probe Ratio,1.000e+00,
Vertical Scale,2.000e-02,Vertical Scale,1.000e+00,
Vertical Position,-5.120e-02,Vertical Position,2.000e-01,
Horizontal Units,S,Horizontal Units,S,
Horizontal Scale,1.000E-05,Horizontal Scale,1.000E-05,
Horizontal Position,0.000E+00,Horizontal Position,0.000E+00,
Horizontal Mode,Main,Horizontal Mode,Main,
SincET Mode,Real Time,SincET Mode,Real Time,
Sampling Period,1.000e-08,Sampling Period,1.000e-08,
Horizontal Old Scale,1.000E-05,Horizontal Old Scale,1.000E-05,
Horizontal Old Position,0.000E+00,Horizontal Old Position,0.000E+00,
Firmware,V1.23,Firmware,V1.23,
Mode,Fast,Mode,Fast,
Waveform Data,,Waveform Data,,
1, ,-38, ,
1, ,-37, ,
-4, ,-38, ,
-5, ,-38, ,
0, ,-37, ,
-1, ,-38, ,
-1, ,-38, ,
-1, ,-38, ,
-2, ,-37, ,
0, ,-37, ,
1, ,-38, ,
-1, ,-38, ,
4, ,-38, ,
8, ,-38, ,
4, ,-38, ,
-1, ,-38, ,
4, ,-38, ,
1, ,-38, ,
1, ,-38, ,
0, ,-38, ,
1, ,-38, ,
3, ,-37, ,
3, ,-38, ,
-5, ,-38, ,
-1, ,-38, ,
0, ,-37, ,
-4, ,-38, ,
-6, ,-38, ,
1, ,-38, ,
-1, ,-38, ,
-2, ,-37, ,
-2, ,-37, ,
-4, ,-38, ,
-4, ,-38, ,
-2, ,-38, ,
-7, ,-37, ,
5, ,-38, ,
1, ,-38, ,
-6, ,-37, ,
1, ,-38, ,
8, ,-37, ,
-1, ,-38, ,
4, ,-38, ,
-1, ,-38, ,
-2, ,-38, ,
-4, ,-38, ,
0, ,-38, ,
-5, ,-38, ,
1, ,-38, ,
4, ,-38, ,
1, ,-38, ,
-1, ,-38, ,
4, ,-37, ,
1, ,-38, ,
1, ,-38, ,
-2, ,-37, ,
3, ,-37, ,
1, ,-37, ,
3, ,-38, ,
-4, ,-38, ,
0, ,-38, ,
1, ,-37, ,
-1, ,-38, ,
-4, ,-38, ,
5, ,-38, ,
5, ,-38, ,
1, ,-38, ,
0, ,-38, ,
1, ,-38, ,
0, ,-38, ,
-2, ,-38, ,
-5, ,-37, ,
-2, ,-38, ,
3, ,-38, ,
3, ,-38, ,
-1, ,-38, ,
8, ,-38, ,
3, ,-38, ,
0, ,-38, ,
0, ,-37, ,
0, ,-38, ,
3, ,-38, ,
4, ,-38, ,
-5, ,-38, ,
-1, ,-38, ,
-1, ,-38, ,
-4, ,-38, ,
-7, ,-38, ,
0, ,-38, ,
-4, ,-38, ,
-1, ,-37, ,
-2, ,-38, ,
-4, ,-37, ,
-1, ,-38, ,
1, ,-38, ,
-6, ,-38, ,
3, ,-38, ,
4, ,-37, ,
0, ,-38, ,
-4, ,-38, ,
5, ,-38, ,
5, ,-38, ,
3, ,-38, ,
3, ,-37, ,
5, ,-38, ,
6, ,-37, ,
6, ,-38, ,
0, ,-38, ,
5, ,-38, ,
8, ,-38, ,
6, ,-38, ,
9, ,-38, ,
13, ,-37, ,
3, ,-38, ,
14, ,-38, ,
8, ,-38, ,
4, ,-38, ,
8, ,-38, ,
6, ,-38, ,
0, ,-38, ,
5, ,-38, ,
8, ,-37, ,
8, ,-38, ,
5, ,-38, ,
10, ,-37, ,
8, ,-38, ,
5, ,-38, ,
0, ,-37, ,
3, ,-38, ,
4, ,-38, ,
3, ,-38, ,
-2, ,-38, ,
1, ,-38, ,
3, ,-37, ,
-1, ,-38, ,
-6, ,-38, ,
1, ,-37, ,
0, ,-38, ,
-1, ,-38, ,
0, ,-38, ,
-1, ,-37, ,
1, ,-38, ,
-1, ,-38, ,
-9, ,-38, ,
0, ,-38, ,
-2, ,-37, ,
-6, ,-38, ,
-7, ,-38, ,
-2, ,-37, ,
-2, ,-38, ,
-4, ,-38, ,
-4, ,-38, ,
-4, ,-38, ,
-4, ,-38, ,
0, ,-38, ,
-7, ,-38, ,
0, ,-38, ,
5, ,-38, ,
4, ,-38, ,
3, ,-37, ,
10, ,-38, ,
4, ,-38, ,
1, ,-38, ,
0, ,-38, ,
0, ,-37, ,
1, ,-38, ,
3, ,-38, ,
-2, ,-38, ,
5, ,-38, ,
5, ,-37, ,
0, ,-38, ,
1, ,-38, ,
5, ,-38, ,
4, ,-38, ,
3, ,-37, ,
5, ,-37, ,
9, ,-38, ,
10, ,-38, ,
15, ,-38, ,
6, ,-38, ,
6, ,-38, ,
8, ,-37, ,
4, ,-38, ,
0, ,-38, ,
10, ,-37, ,
8, ,-38, ,
8, ,-38, ,
6, ,-38, ,
8, ,-38, ,
8, ,-38, ,
8, ,-38, ,
0, ,-38, ,
3, ,-38, ,
5, ,-37, ,
6, ,-38, ,
1, ,-38, ,
5, ,-37, ,
5, ,-38, ,
3, ,-38, ,
1, ,-37, ,
-1, ,-38, ,
0, ,-38, ,
1, ,-38, ,
-6, ,-38, ,
-1, ,-38, ,
1, ,-38, ,
-2, ,-38, ,
-9, ,-37, ,
-4, ,-38, ,
-6, ,-38, ,
-6, ,-38, ,
-5, ,-38, ,
-4, ,-38, ,
0, ,-38, ,
4, ,-38, ,
-1, ,-38, ,
3, ,-38, ,
6, ,-38, ,
1, ,-38, ,
-2, ,-38, ,
1, ,-37, ,
4, ,-38, ,
1, ,-38, ,
1, ,-37, ,
4, ,-38, ,
6, ,-38, ,
8, ,-37, ,
1, ,-38, ,
4, ,-38, ,
5, ,-37, ,
0, ,-37, ,
-2, ,-38, ,
3, ,-38, ,
3, ,-38, ,
0, ,-38, ,
-4, ,-38, ,
-2, ,-38, ,
-2, ,-37, ,
-2, ,-38, ,
-6, ,-38, ,
-5, ,-38, ,
-2, ,-38, ,
-5, ,-38, ,
-6, ,-38, ,
0, ,-38, ,
-2, ,-38, ,
-4, ,-38, ,
-5, ,-38, ,
-2, ,-38, ,
-1, ,-38, ,
-1, ,-38, ,
-6, ,-38, ,
0, ,-38, ,
5, ,-38, ,
0, ,-38, ,
-2, ,-37, ,
3, ,-38, ,
-1, ,-38, ,
1, ,-38, ,
4, ,-37, ,
5, ,-38, ,
6, ,-38, ,
8, ,-38, ,
1, ,-38, ,
3, ,-38, ,
3, ,-37, ,
-1, ,-38, ,
-6, ,-38, ,
0, ,-38, ,
0, ,-38, ,
-2, ,-38, ,
0, ,-38, ,
0, ,-38, ,
1, ,-38, ,
4, ,-38, ,
-5, ,-38, ,
1, ,-38, ,
3, ,-38, ,
-1, ,-38, ,
-2, ,-38, ,
0, ,-38, ,
-2, ,-38, ,
-5, ,-38, ,
-5, ,-38, ,
-2, ,-38, ,
-2, ,-38, ,
-1, ,-38, ,
-5, ,-38, ,
-1, ,-38, ,
4, ,-38, ,
-1, ,-38, ,
-5, ,-38, ,
1, ,-38, ,
0, ,-38, ,
0, ,-38, ,
-4, ,-37, ,
-1, ,-37, ,
1, ,-38, ,
4, ,-38, ,
-1, ,-38, ,
1, ,-38, ,
4, ,-38, ,
0, ,-38, ,
-4, ,-38, ,
1, ,-38, ,
-2, ,-38, ,
-2, ,-38, ,
-7, ,-38, ,
-7, ,-38, ,
-7, ,-37, ,
-7, ,-32, ,
-7, ,-24, ,
0, ,-13, ,
4, ,-5, ,
4, ,4, ,
-4, ,11, ,
5, ,17, ,
0, ,22, ,
3, ,28, ,
4, ,31, ,
4, ,35, ,
4, ,37, ,
3, ,39, ,
-5, ,42, ,
0, ,45, ,
3, ,46, ,
3, ,48, ,
-2, ,49, ,
8, ,48, ,
5, ,51, ,
5, ,51, ,
4, ,52, ,
4, ,53, ,
10, ,53, ,
4, ,52, ,
0, ,54, ,
13, ,54, ,
9, ,54, ,
9, ,55, ,
1, ,55, ,
9, ,54, ,
6, ,56, ,
3, ,54, ,
3, ,55, ,
5, ,56, ,
4, ,55, ,
9, ,54, ,
1, ,56, ,
6, ,55, ,
8, ,55, ,
0, ,55, ,
-5, ,56, ,
3, ,55, ,
-1, ,57, ,
1, ,55, ,
-2, ,55, ,
-6, ,56, ,
-9, ,56, ,
-2, ,55, ,
-7, ,56, ,
-4, ,55, ,
3, ,56, ,
0, ,55, ,
-4, ,56, ,
4, ,55, ,
1, ,56, ,
0, ,55, ,
-4, ,55, ,
1, ,56, ,
1, ,55, ,
0, ,54, ,
-5, ,56, ,
-2, ,55, ,
-2, ,55, ,
-2, ,55, ,
-5, ,56, ,
4, ,54, ,
0, ,56, ,
-1, ,54, ,
-1, ,55, ,
-4, ,56, ,
0, ,56, ,
3, ,53, ,
-4, ,56, ,
0, ,56, ,
1, ,55, ,
-1, ,55, ,
-7, ,56, ,
-1, ,54, ,
-6, ,56, ,
-6, ,54, ,
-6, ,55, ,
-4, ,55, ,
-5, ,56, ,
-1, ,54, ,
-9, ,56, ,
-2, ,55, ,
-1, ,55, ,
-1, ,55, ,
-1, ,56, ,
5, ,54, ,
5, ,56, ,
5, ,54, ,
4, ,55, ,
6, ,55, ,
4, ,56, ,
6, ,54, ,
-2, ,56, ,
4, ,55, ,
6, ,55, ,
6, ,55, ,
1, ,55, ,
9, ,54, ,
5, ,56, ,
4, ,54, ,
3, ,55, ,
1, ,55, ,
0, ,56, ,
5, ,53, ,
-5, ,56, ,
-2, ,56, ,
0, ,55, ,
-11, ,55, ,
-17, ,55, ,
-11, ,54, ,
-15, ,56, ,
-4, ,55, ,
5, ,55, ,
16, ,55, ,
23, ,55, ,
19, ,54, ,
9, ,56, ,
1, ,56, ,
-4, ,55, ,
-9, ,55, ,
-11, ,55, ,
4, ,53, ,
6, ,56, ,
9, ,54, ,
8, ,55, ,
5, ,55, ,
1, ,56, ,
3, ,54, ,
-5, ,56, ,
1, ,54, ,
4, ,54, ,
4, ,55, ,
-4, ,55, ,
0, ,54, ,
-5, ,56, ,
-6, ,55, ,
-6, ,55, ,
-2, ,55, ,
3, ,55, ,
8, ,53, ,
1, ,56, ,
8, ,55, ,
4, ,55, ,
-4, ,55, ,
-10, ,55, ,
-6, ,53, ,
-7, ,56, ,
-7, ,55, ,
-4, ,55, ,
-1, ,55, ,
-1, ,56, ,
3, ,54, ,
-2, ,56, ,
4, ,55, ,
3, ,55, ,
-2, ,55, ,
-5, ,55, ,
0, ,53, ,
-6, ,56, ,
-5, ,55, ,
-5, ,54, ,
1, ,55, ,
3, ,56, ,
8, ,53, ,
1, ,56, ,
5, ,55, ,
3, ,55, ,
0, ,55, ,
-4, ,55, ,
8, ,54, ,
6, ,56, ,
8, ,55, ,
6, ,55, ,
3, ,55, ,
3, ,55, ,
4, ,54, ,
-5, ,56, ,
4, ,55, ,
5, ,55, ,
3, ,55, ,
-4, ,55, ,
4, ,54, ,
0, ,56, ,
1, ,54, ,
3, ,54, ,
3, ,55, ,
4, ,55, ,
8, ,53, ,
0, ,56, ,
3, ,55, ,
1, ,54, ,
-2, ,55, ,
-7, ,56, ,
1, ,54, ,
-1, ,56, ,
-2, ,54, ,
1, ,55, ,
5, ,55, ,
4, ,55, ,
8, ,53, ,
-1, ,56, ,
3, ,55, ,
3, ,55, ,
3, ,55, ,
-1, ,55, ,
5, ,53, ,
1, ,56, ,
3, ,54, ,
-1, ,55, ,
3, ,55, ,
3, ,55, ,
5, ,53, ,
-2, ,56, ,
3, ,55, ,
3, ,55, ,
-2, ,55, ,
-6, ,55, ,
1, ,54, ,
-1, ,56, ,
0, ,54, ,
-2, ,55, ,
1, ,55, ,
-1, ,55, ,
4, ,54, ,
0, ,55, ,
1, ,56, ,
4, ,55, ,
1, ,55, ,
-2, ,56, ,
5, ,54, ,
-1, ,56, ,
-2, ,54, ,
-4, ,55, ,
0, ,55, ,
1, ,55, ,
3, ,54, ,
-1, ,56, ,
3, ,55, ,
5, ,54, ,
3, ,55, ,
-4, ,55, ,
6, ,53, ,
6, ,56, ,
5, ,54, ,
6, ,55, ,
8, ,55, ,
6, ,55, ,
8, ,53, ,
0, ,56, ,
5, ,55, ,
4, ,55, ,
1, ,55, ,
-1, ,55, ,
13, ,53, ,
1, ,56, ,
-1, ,54, ,
5, ,54, ,
1, ,55, ,
3, ,55, ,
6, ,53, ,
1, ,56, ,
5, ,55, ,
5, ,55, ,
4, ,55, ,
-1, ,55, ,
5, ,53, ,
4, ,56, ,
0, ,54, ,
1, ,55, ,
1, ,55, ,
0, ,55, ,
3, ,54, ,
-5, ,56, ,
3, ,55, ,
5, ,54, ,
1, ,55, ,
1, ,55, ,
9, ,54, ,
1, ,56, ,
1, ,54, ,
1, ,54, ,
1, ,55, ,
3, ,55, ,
4, ,53, ,
-4, ,55, ,
1, ,55, ,
5, ,54, ,
0, ,55, ,
-4, ,55, ,
4, ,53, ,
0, ,56, ,
1, ,54, ,
1, ,55, ,
1, ,55, ,
-1, ,55, ,
0, ,53, ,
-5, ,56, ,
-4, ,55, ,
-2, ,54, ,
-1, ,55, ,
-5, ,55, ,
5, ,54, ,
-1, ,56, ,
1, ,54, ,
1, ,55, ,
-2, ,55, ,
0, ,55, ,
0, ,54, ,
-6, ,56, ,
1, ,55, ,
3, ,54, ,
1, ,55, ,
-1, ,55, ,
8, ,53, ,
1, ,56, ,
1, ,54, ,
0, ,55, ,
1, ,55, ,
3, ,55, ,
8, ,53, ,
1, ,56, ,
6, ,55, ,
9, ,55, ,
5, ,55, ,
3, ,55, ,
8, ,53, ,
8, ,55, ,
6, ,54, ,
8, ,55, ,
8, ,55, ,
5, ,55, ,
8, ,53, ,
-2, ,56, ,
1, ,55, ,
1, ,55, ,
0, ,55, ,
-2, ,55, ,
9, ,54, ,
8, ,56, ,
6, ,54, ,
4, ,54, ,
6, ,55, ,
9, ,56, ,
1, ,53, ,
1, ,56, ,
13, ,54, ,
11, ,55, ,
5, ,55, ,
-1, ,55, ,
6, ,53, ,
-1, ,56, ,
5, ,54, ,
5, ,55, ,
5, ,55, ,
3, ,55, ,
4, ,54, ,
-4, ,55, ,
1, ,55, ,
3, ,55, ,
4, ,55, ,
3, ,55, ,
13, ,53, ,
8, ,55, ,
5, ,55, ,
4, ,55, ,
1, ,55, ,
3, ,55, ,
1, ,53, ,
0, ,56, ,
3, ,55, ,
0, ,55, ,
-1, ,55, ,
-6, ,56, ,
0, ,53, ,
-2, ,56, ,
0, ,54, ,
3, ,55, ,
3, ,55, ,
4, ,55, ,
3, ,53, ,
-7, ,56, ,
0, ,55, ,
1, ,54, ,
-2, ,55, ,
-9, ,55, ,
-1, ,53, ,
-2, ,56, ,
-4, ,54, ,
-6, ,55, ,
-2, ,55, ,
-4, ,55, ,
1, ,53, ,
-6, ,56, ,
0, ,54, ,
4, ,54, ,
0, ,55, ,
-1, ,55, ,
3, ,53, ,
0, ,56, ,
1, ,54, ,
-1, ,55, ,
1, ,55, ,
0, ,55, ,
4, ,53, ,
-4, ,56, ,
1, ,55, ,
1, ,55, ,
-2, ,55, ,
-5, ,55, ,
4, ,54, ,
-2, ,56, ,
-1, ,55, ,
-2, ,54, ,
-4, ,55, ,
-2, ,55, ,
1, ,53, ,
-6, ,55, ,
-5, ,55, ,
-4, ,55, ,
-5, ,55, ,
-11, ,55, ,
-1, ,54, ,
-4, ,56, ,
1, ,54, ,
3, ,55, ,
-5, ,55, ,
-4, ,56, ,
-4, ,53, ,
-16, ,56, ,
-4, ,55, ,
3, ,55, ,
-4, ,55, ,
-10, ,55, ,
-1, ,54, ,
-2, ,56, ,
-7, ,54, ,
-5, ,54, ,
-2, ,55, ,
-4, ,55, ,
-1, ,53, ,
-7, ,55, ,
-4, ,55, ,
-4, ,54, ,
-6, ,55, ,
-11, ,55, ,
-2, ,53, ,
-7, ,56, ,
-7, ,54, ,
-9, ,55, ,
-5, ,55, ,
-7, ,55, ,
-4, ,54, ,
-10, ,56, ,
-5, ,55, ,
-5, ,55, ,
-7, ,55, ,
-14, ,55, ,
-5, ,54, ,
-5, ,55, ,
-7, ,54, ,
-7, ,55, ,
0, ,55, ,
-2, ,55, ,
4, ,54, ,
-1, ,56, ,
-1, ,55, ,
3, ,54, ,
-2, ,55, ,
-5, ,55, ,
4, ,53, ,
-2, ,56, ,
0, ,54, ,
-2, ,54, ,
0, ,55, ,
1, ,55, ,
3, ,53, ,
-4, ,56, ,
0, ,55, ,
5, ,55, ,
3, ,55, ,
-4, ,55, ,
5, ,54, ,
-1, ,56, ,
-1, ,54, ,
-1, ,54, ,
-1, ,55, ,
-1, ,55, ,
3, ,54, ,
-7, ,56, ,
0, ,55, ,
0, ,55, ,
-1, ,55, ,
-7, ,55, ,
-1, ,53, ,
-5, ,56, ,
-2, ,54, ,
-2, ,55, ,
-1, ,55, ,
3, ,56, ,
5, ,54, ,
8, ,56, ,
-1, ,55, ,
0, ,55, ,
0, ,55, ,
-2, ,55, ,
3, ,54, ,
1, ,56, ,
3, ,54, ,
1, ,55, ,
-2, ,55, ,
1, ,55, ,
3, ,53, ,
-5, ,55, ,
3, ,55, ,
4, ,54, ,
3, ,55, ,
-1, ,55, ,
3, ,53, ,
-1, ,56, ,
-1, ,54, ,
-1, ,54, ,
-1, ,55, ,
-5, ,56, ,
3, ,53, ,
-1, ,56, ,
0, ,55, ,
6, ,54, ,
0, ,55, ,
-2, ,55, ,
0, ,53, ,
-5, ,56, ,
0, ,54, ,
-4, ,55, ,
3, ,55, ,
3, ,55, ,
3, ,53, ,
-2, ,56, ,
4, ,55, ,
5, ,55, ,
1, ,55, ,
-2, ,55, ,
5, ,53, ,
1, ,56, ,
3, ,54, ,
0, ,55, ,
0, ,55, ,
5, ,55, ,
8, ,53, ,
0, ,55, ,
4, ,55, ,
4, ,55, ,
3, ,55, ,
-1, ,56, ,
9, ,54, ,
6, ,56, ,
5, ,54, ,
4, ,55, ,
1, ,55, ,
1, ,56, ,
0, ,53, ,
-4, ,55, ,
6, ,55, ,
11, ,55, ,
8, ,55, ,
5, ,55, ,
10, ,53, ,
9, ,56, ,
8, ,54, ,
1, ,55, ,
4, ,55, ,
3, ,55, ,
5, ,53, ,
0, ,55, ,
10, ,55, ,
9, ,55, ,
5, ,55, ,
1, ,55, ,
5, ,53, ,
4, ,56, ,
6, ,54, ,
8, ,54, ,
11, ,55, ,
9, ,56, ,
14, ,53, ,
5, ,55, ,
5, ,55, ,
9, ,55, ,
5, ,55, ,
1, ,55, ,
10, ,53, ,
6, ,56, ,
5, ,54, ,
3, ,55, ,
1, ,55, ,
0, ,55, ,
1, ,53, ,
-6, ,56, ,
1, ,55, ,
3, ,55, ,
4, ,55, ,
0, ,55, ,
9, ,53, ,
5, ,56, ,
4, ,54, ,
5, ,55, ,
5, ,55, ,
1, ,56, ,
4, ,54, ,
-5, ,56, ,
1, ,55, ,
4, ,54, ,
1, ,55, ,
3, ,56, ,
8, ,54, ,
3, ,56, ,
3, ,54, ,
4, ,55, ,
5, ,55, ,
8, ,55, ,
9, ,53, ,
4, ,56, ,
8, ,55, ,
6, ,55, ,
3, ,55, ,
-1, ,55, ,
4, ,53, ,
4, ,56, ,
4, ,54, ,
4, ,54, ,
4, ,55, ,
3, ,55, ,
3, ,53, ,
-6, ,56, ,
0, ,55, ,
3, ,54, ,
1, ,55, ,
3, ,55, ,
8, ,53, ,
4, ,56, ,
3, ,54, ,
0, ,55, ,
0, ,55, ,
-2, ,56, ,
0, ,53, ,
-1, ,55, ,
3, ,55, ,
3, ,55, ,
0, ,55, ,
-2, ,55, ,
6, ,54, ,
3, ,56, ,
-1, ,55, ,
0, ,55, ,
1, ,55, ,
1, ,55, ,
1, ,53, ,
-1, ,56, ,
1, ,54, ,
4, ,55, ,
0, ,55, ,
-2, ,55, ,
5, ,54, ,
0, ,56, ,
1, ,54, ,
1, ,55, ,
0, ,55, ,
1, ,55, ,
1, ,53, ,
-4, ,56, ,
-1, ,55, ,
-2, ,54, ,
-4, ,55, ,
-7, ,55, ,
3, ,53, ,
0, ,56, ,
-2, ,54, ,
-2, ,55, ,
1, ,55, ,
0, ,55, ,
-1, ,53, ,
-7, ,56, ,
-1, ,54, ,
-1, ,54, ,
-2, ,55, ,
-6, ,55, ,
3, ,54, ,
0, ,56, ,
-1, ,54, ,
-2, ,55, ,
-1, ,55, ,
-1, ,55, ,
4, ,53, ,
-6, ,56, ,
1, ,55, ,
0, ,54, ,
-1, ,55, ,
-6, ,56, ,
1, ,54, ,
-4, ,56, ,
-4, ,54, ,
-4, ,54, ,
0, ,55, ,
0, ,55, ,
5, ,53, ,
-2, ,56, ,
0, ,55, ,
1, ,55, ,
-6, ,55, ,
0, ,55, ,
3, ,54, ,
-9, ,56, ,
0, ,54, ,
-2, ,54, ,
-1, ,55, ,
1, ,55, ,
1, ,54, ,
-5, ,56, ,
3, ,55, ,
4, ,55, ,
0, ,55, ,
-2, ,55, ,
4, ,53, ,
3, ,56, ,
3, ,54, ,
0, ,54, ,
1, ,55, ,
1, ,56, ,
1, ,53, ,
-5, ,56, ,
-1, ,55, ,
0, ,55, ,
0, ,55, ,
-6, ,55, ,
0, ,53, ,
-6, ,56, ,
-5, ,54, ,
-5, ,55, ,
-4, ,55, ,
4, ,55, ,
3, ,53, ,
-5, ,56, ,
3, ,55, ,
-1, ,55, ,
-4, ,55, ,
-10, ,55, ,
0, ,54, ,
-5, ,56, ,
-6, ,54, ,
-4, ,55, ,
-1, ,55, ,
-2, ,55, ,
0, ,54, ,
-6, ,55, ,
0, ,55, ,
1, ,55, ,
-4, ,55, ,
-5, ,55, ,
0, ,54, ,
-4, ,55, ,
-1, ,54, ,
-1, ,55, ,
0, ,55, ,
1, ,55, ,
4, ,53, ,
-4, ,56, ,
0, ,54, ,
3, ,55, ,
0, ,55, ,
-4, ,55, ,
5, ,53, ,
0, ,56, ,
-1, ,55, ,
-1, ,55, ,
-1, ,55, ,
-2, ,56, ,
5, ,53, ,
0, ,53, ,
4, ,45, ,
0, ,35, ,
-4, ,25, ,
-9, ,16, ,
-1, ,9, ,
-5, ,2, ,
-4, ,-3, ,
-4, ,-8, ,
-7, ,-12, ,
-4, ,-16, ,
-4, ,-19, ,
-9, ,-22, ,
0, ,-24, ,
1, ,-25, ,
-1, ,-27, ,
-5, ,-29, ,
0, ,-30, ,
0, ,-31, ,
0, ,-32, ,
-1, ,-32, ,
5, ,-33, ,
5, ,-35, ,
6, ,-35, ,
-2, ,-36, ,
3, ,-36, ,
1, ,-36, ,
0, ,-37, ,
-2, ,-37, ,
4, ,-37, ,
5, ,-38, ,
3, ,-38, ,
3, ,-38, ,
0, ,-38, ,
1, ,-38, ,
4, ,-38, ,
-4, ,-38, ,
3, ,-38, ,
5, ,-38, ,
1, ,-38, ,
-1, ,-38, ,
4, ,-38, ,
1, ,-39, ,
0, ,-38, ,
-4, ,-38, ,
0, ,-38, ,
3, ,-38, ,
4, ,-38, ,
-1, ,-38, ,
4, ,-38, ,
9, ,-38, ,
3, ,-38, ,
-2, ,-38, ,
1, ,-38, ,
-2, ,-39, ,
0, ,-38, ,
-2, ,-38, ,
1, ,-38, ,
4, ,-38, ,
4, ,-38, ,
0, ,-38, ,
0, ,-38, ,
3, ,-38, ,
3, ,-38, ,
-2, ,-38, ,
6, ,-38, ,
4, ,-38, ,
4, ,-38, ,
4, ,-38, ,
1, ,-38, ,
3, ,-38, ,
4, ,-38, ,
-5, ,-38, ,
1, ,-38, ,
1, ,-38, ,
0, ,-38, ,
-4, ,-38, ,
5, ,-38, ,
0, ,-38, ,
1, ,-38, ,
1, ,-38, ,
0, ,-38, ,
3, ,-38, ,
5, ,-38, ,
1, ,-38, ,
8, ,-38, ,
8, ,-38, ,
4, ,-38, ,
1, ,-38, ,
8, ,-38, ,
3, ,-38, ,
4, ,-38, ,
3, ,-37, ,
3, ,-38, ,
3, ,-38, ,
6, ,-38, ,
-1, ,-38, ,
4, ,-38, ,
5, ,-38, ,
3, ,-38, ,
0, ,-38, ,
4, ,-38, ,
0, ,-38, ,
3, ,-38, ,
3, ,-38, ,
3, ,-38, ,
3, ,-38, ,
3, ,-38, ,
-4, ,-38, ,
-1, ,-38, ,
3, ,-38, ,
0, ,-38, ,
-1, ,-38, ,
5, ,-38, ,
1, ,-38, ,
1, ,-38, ,
-2, ,-38, ,
0, ,-38, ,
0, ,-38, ,
-1, ,-38, ,
-5, ,-38, ,
0, ,-38, ,
4, ,-38, ,
1, ,-38, ,
-1, ,-38, ,
6, ,-38, ,
1, ,-38, ,
-1, ,-38, ,
-2, ,-38, ,
-2, ,-38, ,
0, ,-38, ,
0, ,-38, ,
-5, ,-38, ,
0, ,-38, ,
3, ,-38, ,
0, ,-38, ,
-2, ,-38, ,
5, ,-37, ,
4, ,-38, ,
0, ,-38, ,
1, ,-37, ,
3, ,-38, ,
3, ,-38, ,
4, ,-37, ,
-6, ,-38, ,
0, ,-38, ,
-1, ,-38, ,
-4, ,-38, ,
-5, ,-38, ,
1, ,-37, ,
1, ,-38, ,
4, ,-38, ,
1, ,-38, ,
3, ,-38, ,
0, ,-38, ,
0, ,-38, ,
-7, ,-38, ,
0, ,-38, ,
0, ,-37, ,
-4, ,-38, ,
-5, ,-38, ,
1, ,-37, ,
0, ,-38, ,
-1, ,-38, ,
-2, ,-38, ,
0, ,-38, ,
0, ,-38, ,
5, ,-38, ,
-1, ,-38, ,
-1, ,-38, ,
1, ,-38, ,
-5, ,-38, ,
-6, ,-37, ,
-1, ,-38, ,
-4, ,-38, ,
-1, ,-38, ,
-1, ,-38, ,
-1, ,-38, ,
1, ,-38, ,
-1, ,-38, ,
-2, ,-38, ,
1, ,-38, ,
6, ,-37, ,
4, ,-38, ,
0, ,-38, ,
8, ,-37, ,
5, ,-38, ,
6, ,-38, ,
4, ,-38, ,
4, ,-38, ,
5, ,-38, ,
4, ,-38, ,
-2, ,-38, ,
0, ,-38, ,
-1, ,-38, ,
-2, ,-38, ,
-7, ,-38, ,
0, ,-38, ,
-2, ,-38, ,
-2, ,-38, ,
-1, ,-38, ,
-2, ,-38, ,
-1, ,-38, ,
-1, ,-38, ,
-9, ,-38, ,
-4, ,-38, ,
0, ,-38, ,
-2, ,-38, ,
-2, ,-38, ,
3, ,-38, ,
-4, ,-38, ,
-2, ,-37, ,
-2, ,-37, ,
0, ,-37, ,
3, ,-38, ,
3, ,-38, ,
-2, ,-38, ,
0, ,-38, ,
3, ,-38, ,
0, ,-38, ,
-2, ,-38, ,
5, ,-38, ,
3, ,-38, ,
1, ,-38, ,
1, ,-38, ,
3, ,-38, ,
3, ,-38, ,
6, ,-38, ,
0, ,-38, ,
3, ,-38, ,
3, ,-38, ,
-4, ,-38, ,
-5, ,-38, ,
0, ,-37, ,
0, ,-38, ,
0, ,-38, ,
0, ,-38, ,
5, ,-38, ,
5, ,-38, ,
5, ,-38, ,
0, ,-38, ,
4, ,-38, ,
10, ,-38, ,
5, ,-38, ,
4, ,-38, ,
10, ,-38, ,
8, ,-38, ,
6, ,-38, ,
3, ,-37, ,
1, ,-38, ,
4, ,-38, ,
3, ,-38, ,
0, ,-37, ,
4, ,-38, ,
4, ,-38, ,
3, ,-38, ,
-4, ,-38, ,
4, ,-38, ,
3, ,-38, ,
-2, ,-38, ,
-4, ,-37, ,
-2, ,-38, ,
-1, ,-38, ,
0, ,-38, ,
-7, ,-38, ,
-2, ,-38, ,
-1, ,-38, ,
-2, ,-38, ,
-7, ,-38, ,
-1, ,-38, ,
-2, ,-38, ,
-2, ,-38, ,
-4, ,-38, ,
-2, ,-38, ,
0, ,-38, ,
1, ,-38, ,
-4, ,-38, ,
0, ,-38, ,
3, ,-37, ,
-1, ,-38, ,
-2, ,-37, ,
3, ,-38, ,
4, ,-38, ,
4, ,-38, ,
4, ,-37, ,
4, ,-38, ,
4, ,-38, ,
3, ,-37, ,
0, ,-38, ,
3, ,-38, ,
9, ,-38, ,
6, ,-38, ,
-2, ,-37, ,
9, ,-37, ,
6, ,-38, ,
4, ,-38, ,
1, ,-38, ,
0, ,-38, ,
5, ,-38, ,
5, ,-38, ,
4, ,-37, ,
6, ,-38, ,
10, ,-37, ,
9, ,-38, ,
6, ,-38, ,
10, ,-37, ,
8, ,-38, ,
5, ,-38, ,
4, ,-37, ,
4, ,-38, ,
6, ,-38, ,
6, ,-37, ,
3, ,-38, ,
5, ,-38, ,
1, ,-37, ,
-2, ,-38, ,
-4, ,-38, ,
3, ,-38, ,
5, ,-38, ,
6, ,-38, ,
4, ,-37, ,
4, ,-37, ,
4, ,-38, ,
6, ,-38, ,
-2, ,-38, ,
3, ,-38, ,
8, ,-37, ,
3, ,-38, ,
0, ,-37, ,
5, ,-37, ,
0, ,-38, ,
-2, ,-38, ,
-6, ,-37, ,
-4, ,-38, ,
-7, ,-38, ,
-4, ,-37, ,
-6, ,-38, ,
-1, ,-38, ,
0, ,-37, ,
0, ,-38, ,
-4, ,-38, ,
1, ,-38, ,
0, ,-38, ,
3, ,-38, ,
0, ,-38, ,
4, ,-38, ,
4, ,-38, ,
4, ,-38, ,
-1, ,-37, ,
0, ,-38, ,
3, ,-37, ,
-1, ,-38, ,
-6, ,-38, ,
3, ,-37, ,
0, ,-38, ,
-1, ,-38, ,
-1, ,-37, ,
1, ,-38, ,
3, ,-38, ,
1, ,-38, ,
0, ,-38, ,
4, ,-38, ,
6, ,-37, ,
4, ,-37, ,
0, ,-38, ,
4, ,-38, ,
-1, ,-38, ,
0, ,-38, ,
-1, ,-37, ,
-2, ,-37, ,
0, ,-38, ,
-2, ,-38, ,
-6, ,-37, ,
-4, ,-38, ,
0, ,-37, ,
0, ,-38, ,
-1, ,-37, ,
4, ,-37, ,
4, ,-38, ,
1, ,-38, ,
-1, ,-37, ,
-1, ,-38, ,
-1, ,-38, ,
0, ,-37, ,
-4, ,-38, ,
1, ,-38, ,
-1, ,-38, ,
4, ,-38, ,
4, ,-38, ,
3, ,-37, ,
4, ,-38, ,
1, ,-38, ,
1, ,-38, ,
4, ,-37, ,
3, ,-37, ,
4, ,-38, ,
0, ,-38, ,
5, ,-38, ,
4, ,-37, ,
0, ,-38, ,
0, ,-38, ,
4, ,-37, ,
3, ,-38, ,
1, ,-38, ,
0, ,-37, ,
0, ,-38, ,
0, ,-37, ,
1, ,-38, ,
-4, ,-38, ,
-4, ,-38, ,
-1, ,-37, ,
-5, ,-38, ,
-6, ,-38, ,
1, ,-37, ,
-1, ,-38, ,
-1, ,-38, ,
-6, ,-38, ,
-2, ,-38, ,
-2, ,-38, ,
-4, ,-38, ,
-7, ,-38, ,
-5, ,-38, ,
3, ,-37, ,
3, ,-37, ,
0, ,-38, ,
4, ,-37, ,
4, ,-38, ,
3, ,-38, ,
-6, ,-37, ,
0, ,-38, ,
6, ,-38, ,
1, ,-37, ,
-4, ,-38, ,
0, ,-38, ,
-1, ,-38, ,
-6, ,-38, ,
-6, ,-38, ,
1, ,-37, ,
0, ,-38, ,
1, ,-38, ,
-1, ,-38, ,
-1, ,-38, ,
-2, ,-38, ,
-1, ,-37, ,
-6, ,-38, ,
-5, ,-38, ,
-4, ,-38, ,
-4, ,-38, ,
-7, ,-38, ,
-1, ,-38, ,
-1, ,-38, ,
-1, ,-38, ,
0, ,-38, ,
1, ,-38, ,
1, ,-38, ,
-1, ,-38, ,
-4, ,-38, ,
1, ,-38, ,
1, ,-38, ,
1, ,-38, ,
-4, ,-38, ,
5, ,-38, ,
5, ,-38, ,
4, ,-38, ,
4, ,-38, ,
5, ,-38, ,
5, ,-38, ,
9, ,-38, ,
3, ,-37, ,
3, ,-38, ,
3, ,-37, ,
-1, ,-38, ,
-5, ,-38, ,
3, ,-37, ,
0, ,-38, ,
-1, ,-38, ,
-2, ,-37, ,
-1, ,-38, ,
0, ,-38, ,
1, ,-38, ,
-5, ,-38, ,
0, ,-38, ,
0, ,-38, ,
-1, ,-38, ,
-6, ,-37, ,
0, ,-37, ,
-1, ,-38, ,
-2, ,-38, ,
-4, ,-38, ,
-2, ,-38, ,
0, ,-38, ,
1, ,-38, ,
-6, ,-38, ,
0, ,-38, ,
0, ,-38, ,
0, ,-37, ,
-4, ,-38, ,
5, ,-38, ,
4, ,-38, ,
5, ,-38, ,
6, ,-38, ,
1, ,-38, ,
-9, ,-38, ,
5, ,-38, ,
-1, ,-38, ,
-4, ,-38, ,
9, ,-38, ,
4, ,-38, ,
-1, ,-38, ,
-2, ,-38, ,
-1, ,-38, ,
-1, ,-38, ,
-6, ,-38, ,
0, ,-37, ,
1, ,-38, ,
4, ,-38, ,
-2, ,-38, ,
3, ,-38, ,
1, ,-38, ,
-4, ,-38, ,
-5, ,-38, ,
-1, ,-37, ,
0, ,-38, ,
1, ,-38, ,
-1, ,-37, ,
0, ,-37, ,
1, ,-37, ,
5, ,-37, ,
-1, ,-38, ,
4, ,-38, ,
4, ,-38, ,
1, ,-38, ,
-1, ,-37, ,
5, ,-37, ,
4, ,-38, ,
4, ,-38, ,
3, ,-38, ,
4, ,-38, ,
6, ,-38, ,
6, ,-38, ,
1, ,-38, ,
3, ,-38, ,
8, ,-37, ,
5, ,-38, ,
3, ,-38, ,
9, ,-38, ,
5, ,-38, ,
5, ,-38, ,
3, ,-38, ,
0, ,-38, ,
3, ,-38, ,
4, ,-38, ,
-2, ,-38, ,
3, ,-38, ,
4, ,-38, ,
1, ,-37, ,
-1, ,-38, ,
3, ,-38, ,
-1, ,-38, ,
-1, ,-38, ,
-1, ,-38, ,
-1, ,-38, ,
3, ,-38, ,
5, ,-38, ,
1, ,-38, ,
6, ,-38, ,
9, ,-38, ,
6, ,-37, ,
3, ,-38, ,
6, ,-37, ,
4, ,-38, ,
3, ,-38, ,
4, ,-37, ,
6, ,-38, ,
5, ,-38, ,
6, ,-37, ,
-2, ,-38, ,
0, ,-38, ,
4, ,-37, ,
0, ,-38, ,
-1, ,-37, ,
4, ,-38, ,
4, ,-38, ,
3, ,-37, ,
0, ,-38, ,
3, ,-37, ,
1, ,-38, ,
4, ,-38, ,
-4, ,-38, ,
1, ,-38, ,
5, ,-37, ,
0, ,-38, ,
-4, ,-38, ,
0, ,-38, ,
-5, ,-38, ,
-4, ,-38, ,
-6, ,-38, ,
-1, ,-38, ,
1, ,-38, ,
5, ,-38, ,
3, ,-38, ,
6, ,-38, ,
6, ,-37, ,
3, ,-38, ,
-2, ,-38, ,
4, ,-38, ,
-2, ,-38, ,
0, ,-37, ,
0, ,-38, ,
1, ,-37, ,
5, ,-38, ,
4, ,-38, ,
-1, ,-38, ,
4, ,-38, ,
4, ,-37, ,
5, ,-38, ,
0, ,-38, ,
5, ,-38, ,
6, ,-38, ,
4, ,-38, ,
4, ,-38, ,
3, ,-38, ,
1, ,-38, ,
4, ,-37, ,
-2, ,-38, ,
4, ,-38, ,
5, ,-38, ,
3, ,-38, ,
0, ,-38, ,
4, ,-37, ,
1, ,-38, ,
0, ,-38, ,
-1, ,-38, ,
-1, ,-38, ,
1, ,-38, ,
4, ,-37, ,
0, ,-38, ,
3, ,-38, ,
5, ,-37, ,
4, ,-37, ,
1, ,-37, ,
5, ,-38, ,
4, ,-38, ,
3, ,-38, ,
