src/vary_am2_1411/temp0004710.CSV

Format,1.0B,
Memory Length,10000,Memory Length,10000,
IntpDistance,0,IntpDistance,0,
Trigger Address,4999,Trigger Address,4999,
Trigger Level,-1.000E+00,Trigger Level,-1.000E+00,
Source,CH1,Source,CH2,
Vertical Units,V,Vertical Units,V,
Vertical Units Div,0,Vertical Units Div,0,
Vertical Units Extend Div,16,Vertical Units Extend Div,16,
Label,,Label,,
Probe Type,0,Probe Type,0,
Probe Ratio,1.000e+01,Probe Ratio,1.000e+00,
Vertical Scale,2.000e-02,Vertical Scale,1.000e+00,
Vertical Position,-5.120e-02,Vertical Position,2.000e-01,
Horizontal Units,S,Horizontal Units,S,
Horizontal Scale,1.000E-05,Horizontal Scale,1.000E-05,
Horizontal Position,0.000E+00,Horizontal Position,0.000E+00,
Horizontal Mode,Main,Horizontal Mode,Main,
SincET Mode,Real Time,SincET Mode,Real Time,
Sampling Period,1.000e-08,Sampling Period,1.000e-08,
Horizontal Old Scale,1.000E-05,Horizontal Old Scale,1.000E-05,
Horizontal Old Position,0.000E+00,Horizontal Old Position,0.000E+00,
Firmware,V1.23,Firmware,V1.23,
Mode,Fast,Mode,Fast,
Waveform Data,,Waveform Data,,
-2, ,-38, ,
-4, ,-38, ,
-6, ,-37, ,
-9, ,-38, ,
-7, ,-38, ,
-6, ,-38, ,
-4, ,-37, ,
-6, ,-38, ,
-1, ,-38, ,
1, ,-38, ,
-4, ,-38, ,
-9, ,-37, ,
-5, ,-38, ,
-7, ,-38, ,
-6, ,-38, ,
-6, ,-37, ,
-6, ,-38, ,
-4, ,-37, ,
-2, ,-38, ,
-6, ,-38, ,
-1, ,-37, ,
-1, ,-38, ,
-1, ,-38, ,
-6, ,-37, ,
-1, ,-38, ,
-1, ,-38, ,
-4, ,-38, ,
-4, ,-38, ,
-4, ,-38, ,
-6, ,-38, ,
-4, ,-38, ,
-10, ,-38, ,
-4, ,-38, ,
-1, ,-38, ,
-4, ,-38, ,
-5, ,-38, ,
-1, ,-38, ,
-1, ,-38, ,
0, ,-37, ,
-2, ,-38, ,
-1, ,-38, ,
0, ,-38, ,
-2, ,-38, ,
-1, ,-38, ,
0, ,-38, ,
4, ,-38, ,
3, ,-38, ,
3, ,-38, ,
0, ,-38, ,
-6, ,-38, ,
-2, ,-38, ,
0, ,-38, ,
-1, ,-37, ,
1, ,-38, ,
3, ,-38, ,
-1, ,-38, ,
1, ,-38, ,
5, ,-38, ,
0, ,-37, ,
-2, ,-38, ,
10, ,-38, ,
4, ,-38, ,
3, ,-38, ,
3, ,-38, ,
4, ,-38, ,
6, ,-38, ,
4, ,-38, ,
1, ,-38, ,
5, ,-37, ,
3, ,-38, ,
3, ,-38, ,
0, ,-38, ,
5, ,-38, ,
8, ,-38, ,
1, ,-38, ,
4, ,-38, ,
1, ,-37, ,
0, ,-38, ,
4, ,-38, ,
-4, ,-38, ,
3, ,-38, ,
4, ,-37, ,
3, ,-38, ,
0, ,-38, ,
5, ,-38, ,
4, ,-38, ,
1, ,-38, ,
-1, ,-37, ,
3, ,-38, ,
3, ,-38, ,
1, ,-38, ,
1, ,-38, ,
4, ,-37, ,
8, ,-38, ,
4, ,-37, ,
0, ,-38, ,
5, ,-38, ,
6, ,-38, ,
4, ,-37, ,
1, ,-38, ,
5, ,-38, ,
4, ,-38, ,
5, ,-38, ,
3, ,-38, ,
4, ,-37, ,
6, ,-38, ,
1, ,-37, ,
1, ,-38, ,
8, ,-38, ,
8, ,-38, ,
8, ,-37, ,
5, ,-37, ,
5, ,-38, ,
5, ,-37, ,
4, ,-38, ,
0, ,-38, ,
4, ,-37, ,
4, ,-38, ,
8, ,-38, ,
0, ,-37, ,
6, ,-38, ,
13, ,-38, ,
9, ,-37, ,
8, ,-37, ,
9, ,-38, ,
8, ,-38, ,
9, ,-38, ,
5, ,-38, ,
5, ,-38, ,
8, ,-38, ,
5, ,-38, ,
4, ,-38, ,
6, ,-37, ,
6, ,-37, ,
5, ,-37, ,
3, ,-38, ,
4, ,-38, ,
4, ,-37, ,
9, ,-38, ,
6, ,-38, ,
8, ,-37, ,
8, ,-38, ,
8, ,-37, ,
1, ,-38, ,
6, ,-38, ,
6, ,-38, ,
4, ,-37, ,
5, ,-38, ,
8, ,-38, ,
0, ,-38, ,
10, ,-38, ,
1, ,-38, ,
1, ,-38, ,
6, ,-38, ,
1, ,-38, ,
1, ,-38, ,
5, ,-38, ,
4, ,-38, ,
5, ,-37, ,
5, ,-38, ,
8, ,-38, ,
5, ,-38, ,
4, ,-38, ,
-2, ,-38, ,
0, ,-37, ,
3, ,-38, ,
1, ,-38, ,
-2, ,-38, ,
4, ,-38, ,
4, ,-38, ,
4, ,-37, ,
0, ,-38, ,
4, ,-38, ,
4, ,-38, ,
3, ,-38, ,
3, ,-38, ,
1, ,-38, ,
4, ,-37, ,
0, ,-38, ,
-2, ,-38, ,
3, ,-38, ,
1, ,-38, ,
1, ,-37, ,
3, ,-38, ,
0, ,-38, ,
3, ,-38, ,
0, ,-38, ,
-5, ,-37, ,
0, ,-37, ,
1, ,-38, ,
-1, ,-37, ,
-6, ,-38, ,
-1, ,-37, ,
-2, ,-38, ,
-2, ,-37, ,
-1, ,-38, ,
0, ,-38, ,
3, ,-37, ,
3, ,-38, ,
-1, ,-38, ,
4, ,-37, ,
4, ,-38, ,
0, ,-38, ,
-2, ,-38, ,
3, ,-38, ,
3, ,-38, ,
4, ,-38, ,
1, ,-38, ,
1, ,-38, ,
0, ,-38, ,
-1, ,-38, ,
-5, ,-38, ,
-1, ,-37, ,
3, ,-38, ,
0, ,-38, ,
-4, ,-38, ,
1, ,-38, ,
0, ,-38, ,
-1, ,-38, ,
-5, ,-38, ,
-1, ,-37, ,
-1, ,-38, ,
0, ,-38, ,
-1, ,-38, ,
0, ,-37, ,
4, ,-37, ,
-2, ,-38, ,
-5, ,-38, ,
-2, ,-38, ,
-7, ,-38, ,
-5, ,-37, ,
-5, ,-38, ,
-4, ,-38, ,
0, ,-37, ,
0, ,-38, ,
-4, ,-38, ,
-2, ,-38, ,
-4, ,-38, ,
-2, ,-38, ,
-10, ,-38, ,
-5, ,-38, ,
-6, ,-38, ,
-6, ,-38, ,
-5, ,-38, ,
-5, ,-38, ,
-2, ,-38, ,
-2, ,-38, ,
-7, ,-37, ,
-2, ,-38, ,
-4, ,-38, ,
-4, ,-38, ,
-7, ,-38, ,
-2, ,-38, ,
-5, ,-38, ,
-4, ,-37, ,
-2, ,-38, ,
-4, ,-38, ,
-2, ,-38, ,
-5, ,-38, ,
-6, ,-37, ,
-2, ,-37, ,
-2, ,-38, ,
-2, ,-38, ,
-5, ,-38, ,
-1, ,-38, ,
-2, ,-38, ,
-4, ,-37, ,
-6, ,-38, ,
-5, ,-38, ,
-6, ,-38, ,
-2, ,-38, ,
-6, ,-38, ,
-2, ,-38, ,
0, ,-37, ,
-4, ,-37, ,
-2, ,-38, ,
-2, ,-37, ,
-2, ,-38, ,
-2, ,-37, ,
-4, ,-38, ,
-1, ,-38, ,
1, ,-38, ,
1, ,-38, ,
-4, ,-38, ,
-1, ,-38, ,
0, ,-38, ,
-4, ,-38, ,
-4, ,-37, ,
-2, ,-38, ,
-2, ,-38, ,
0, ,-37, ,
-4, ,-38, ,
-2, ,-38, ,
-2, ,-38, ,
-5, ,-38, ,
-6, ,-38, ,
-2, ,-38, ,
0, ,-38, ,
0, ,-38, ,
-5, ,-38, ,
4, ,-38, ,
-1, ,-38, ,
-1, ,-37, ,
-4, ,-38, ,
-2, ,-38, ,
1, ,-37, ,
-1, ,-38, ,
-4, ,-38, ,
1, ,-37, ,
0, ,-36, ,
-4, ,-29, ,
-2, ,-20, ,
3, ,-10, ,
1, ,-1, ,
3, ,7, ,
5, ,14, ,
5, ,19, ,
4, ,25, ,
5, ,29, ,
1, ,33, ,
6, ,35, ,
8, ,38, ,
4, ,40, ,
0, ,42, ,
1, ,45, ,
0, ,47, ,
4, ,48, ,
0, ,49, ,
1, ,50, ,
3, ,50, ,
1, ,52, ,
-5, ,51, ,
3, ,52, ,
3, ,53, ,
4, ,53, ,
3, ,52, ,
5, ,55, ,
6, ,54, ,
3, ,54, ,
-1, ,55, ,
3, ,55, ,
1, ,54, ,
1, ,56, ,
-2, ,54, ,
1, ,55, ,
3, ,55, ,
0, ,55, ,
0, ,54, ,
8, ,56, ,
5, ,55, ,
4, ,56, ,
1, ,55, ,
0, ,55, ,
3, ,54, ,
4, ,57, ,
-2, ,55, ,
4, ,55, ,
4, ,56, ,
6, ,56, ,
5, ,54, ,
6, ,56, ,
5, ,55, ,
5, ,55, ,
4, ,55, ,
4, ,56, ,
6, ,54, ,
8, ,56, ,
5, ,54, ,
5, ,55, ,
6, ,56, ,
5, ,55, ,
-1, ,54, ,
5, ,56, ,
4, ,55, ,
3, ,55, ,
1, ,55, ,
0, ,55, ,
4, ,53, ,
4, ,56, ,
-2, ,55, ,
5, ,55, ,
4, ,56, ,
6, ,55, ,
4, ,54, ,
10, ,55, ,
6, ,55, ,
3, ,55, ,
3, ,55, ,
1, ,56, ,
-2, ,54, ,
4, ,56, ,
-4, ,55, ,
3, ,55, ,
6, ,55, ,
5, ,55, ,
0, ,54, ,
6, ,56, ,
4, ,55, ,
5, ,55, ,
1, ,55, ,
4, ,55, ,
4, ,54, ,
5, ,56, ,
0, ,54, ,
1, ,55, ,
1, ,56, ,
0, ,56, ,
-5, ,53, ,
5, ,56, ,
3, ,55, ,
4, ,55, ,
4, ,55, ,
9, ,55, ,
6, ,54, ,
6, ,56, ,
1, ,54, ,
5, ,55, ,
5, ,55, ,
6, ,56, ,
1, ,53, ,
9, ,56, ,
6, ,55, ,
5, ,55, ,
4, ,55, ,
3, ,55, ,
4, ,54, ,
4, ,56, ,
0, ,54, ,
4, ,55, ,
1, ,55, ,
3, ,55, ,
0, ,54, ,
9, ,56, ,
5, ,55, ,
4, ,55, ,
4, ,55, ,
3, ,55, ,
4, ,54, ,
8, ,56, ,
0, ,54, ,
6, ,55, ,
5, ,55, ,
3, ,55, ,
-1, ,53, ,
4, ,56, ,
3, ,55, ,
5, ,55, ,
1, ,55, ,
4, ,55, ,
-1, ,54, ,
3, ,56, ,
4, ,54, ,
3, ,55, ,
1, ,55, ,
0, ,56, ,
-4, ,53, ,
3, ,56, ,
3, ,54, ,
5, ,54, ,
4, ,55, ,
8, ,55, ,
6, ,53, ,
8, ,56, ,
0, ,54, ,
0, ,55, ,
0, ,55, ,
-5, ,55, ,
-5, ,53, ,
3, ,56, ,
0, ,55, ,
4, ,54, ,
-5, ,55, ,
-5, ,55, ,
0, ,54, ,
-1, ,56, ,
-1, ,54, ,
4, ,55, ,
3, ,55, ,
0, ,56, ,
-6, ,53, ,
1, ,56, ,
-2, ,55, ,
-4, ,55, ,
-1, ,55, ,
0, ,55, ,
0, ,53, ,
1, ,56, ,
-2, ,54, ,
0, ,54, ,
-4, ,55, ,
-4, ,55, ,
-11, ,53, ,
-5, ,55, ,
-4, ,55, ,
-1, ,55, ,
-1, ,55, ,
0, ,56, ,
0, ,54, ,
5, ,56, ,
-1, ,54, ,
3, ,55, ,
-1, ,55, ,
-1, ,55, ,
-4, ,53, ,
0, ,56, ,
-4, ,55, ,
-5, ,55, ,
-2, ,55, ,
-1, ,55, ,
-6, ,54, ,
0, ,56, ,
-6, ,54, ,
-1, ,55, ,
1, ,55, ,
-1, ,55, ,
-1, ,53, ,
0, ,56, ,
-2, ,55, ,
0, ,54, ,
-2, ,55, ,
4, ,55, ,
3, ,54, ,
4, ,56, ,
-2, ,54, ,
1, ,55, ,
0, ,55, ,
-2, ,56, ,
-4, ,53, ,
-1, ,55, ,
-4, ,55, ,
-4, ,55, ,
-6, ,55, ,
-2, ,55, ,
-1, ,53, ,
0, ,56, ,
-1, ,54, ,
0, ,55, ,
0, ,55, ,
-4, ,55, ,
-10, ,53, ,
0, ,56, ,
-4, ,55, ,
-2, ,55, ,
-5, ,55, ,
-2, ,55, ,
1, ,54, ,
1, ,56, ,
-6, ,54, ,
-4, ,55, ,
-2, ,55, ,
-2, ,55, ,
-6, ,53, ,
1, ,56, ,
-1, ,55, ,
-2, ,55, ,
-5, ,55, ,
-1, ,55, ,
-1, ,53, ,
3, ,56, ,
-5, ,54, ,
3, ,55, ,
1, ,55, ,
-1, ,55, ,
-4, ,53, ,
0, ,55, ,
-4, ,55, ,
-6, ,55, ,
-5, ,55, ,
-1, ,55, ,
-1, ,54, ,
3, ,56, ,
-2, ,54, ,
3, ,55, ,
6, ,55, ,
4, ,55, ,
-6, ,53, ,
3, ,55, ,
0, ,55, ,
0, ,55, ,
-1, ,55, ,
1, ,55, ,
1, ,53, ,
3, ,56, ,
-5, ,54, ,
-4, ,55, ,
0, ,55, ,
-4, ,56, ,
-5, ,54, ,
3, ,56, ,
0, ,55, ,
3, ,54, ,
3, ,55, ,
4, ,55, ,
5, ,53, ,
3, ,56, ,
-1, ,54, ,
4, ,55, ,
3, ,55, ,
4, ,56, ,
-1, ,53, ,
5, ,56, ,
0, ,54, ,
-1, ,55, ,
-1, ,55, ,
-1, ,55, ,
1, ,53, ,
8, ,55, ,
0, ,54, ,
5, ,55, ,
3, ,55, ,
1, ,56, ,
-4, ,54, ,
3, ,56, ,
0, ,54, ,
1, ,55, ,
-1, ,55, ,
1, ,55, ,
0, ,54, ,
1, ,56, ,
-1, ,54, ,
4, ,55, ,
3, ,55, ,
5, ,55, ,
1, ,53, ,
5, ,55, ,
3, ,54, ,
4, ,54, ,
0, ,55, ,
4, ,55, ,
-1, ,54, ,
3, ,56, ,
-5, ,54, ,
1, ,55, ,
4, ,55, ,
1, ,55, ,
-1, ,54, ,
5, ,56, ,
4, ,55, ,
4, ,54, ,
-1, ,55, ,
3, ,55, ,
1, ,53, ,
3, ,56, ,
-2, ,54, ,
3, ,54, ,
3, ,55, ,
3, ,55, ,
0, ,53, ,
4, ,55, ,
0, ,55, ,
5, ,55, ,
1, ,55, ,
4, ,55, ,
3, ,53, ,
5, ,56, ,
3, ,54, ,
4, ,54, ,
8, ,55, ,
5, ,55, ,
-1, ,53, ,
5, ,55, ,
1, ,55, ,
3, ,55, ,
3, ,55, ,
3, ,55, ,
5, ,53, ,
3, ,56, ,
-2, ,54, ,
3, ,55, ,
1, ,55, ,
5, ,55, ,
1, ,53, ,
8, ,56, ,
8, ,55, ,
5, ,54, ,
5, ,55, ,
5, ,56, ,
4, ,54, ,
5, ,56, ,
0, ,54, ,
4, ,55, ,
3, ,55, ,
3, ,56, ,
3, ,54, ,
3, ,56, ,
3, ,55, ,
3, ,55, ,
0, ,55, ,
-1, ,55, ,
-1, ,53, ,
0, ,56, ,
-5, ,54, ,
0, ,55, ,
3, ,55, ,
4, ,55, ,
0, ,53, ,
5, ,56, ,
4, ,55, ,
1, ,55, ,
1, ,55, ,
3, ,55, ,
3, ,54, ,
6, ,56, ,
0, ,54, ,
0, ,54, ,
1, ,55, ,
-1, ,55, ,
-1, ,53, ,
3, ,56, ,
0, ,54, ,
6, ,54, ,
0, ,55, ,
3, ,55, ,
3, ,54, ,
1, ,56, ,
-4, ,54, ,
-1, ,55, ,
-1, ,55, ,
0, ,56, ,
-6, ,53, ,
1, ,55, ,
0, ,54, ,
1, ,54, ,
0, ,55, ,
0, ,55, ,
1, ,53, ,
0, ,56, ,
-4, ,54, ,
3, ,54, ,
1, ,55, ,
0, ,55, ,
-2, ,53, ,
5, ,56, ,
-1, ,55, ,
1, ,55, ,
1, ,55, ,
1, ,55, ,
1, ,54, ,
3, ,56, ,
0, ,55, ,
5, ,55, ,
3, ,55, ,
3, ,55, ,
1, ,53, ,
4, ,56, ,
1, ,55, ,
0, ,54, ,
-1, ,55, ,
0, ,55, ,
1, ,53, ,
3, ,56, ,
-2, ,54, ,
4, ,55, ,
1, ,55, ,
-2, ,55, ,
-2, ,53, ,
3, ,55, ,
1, ,55, ,
4, ,54, ,
1, ,54, ,
5, ,55, ,
3, ,54, ,
3, ,56, ,
-4, ,54, ,
0, ,55, ,
0, ,55, ,
-1, ,55, ,
-5, ,53, ,
1, ,56, ,
-1, ,55, ,
-1, ,55, ,
0, ,55, ,
0, ,55, ,
-4, ,53, ,
0, ,56, ,
-2, ,54, ,
1, ,55, ,
3, ,55, ,
3, ,55, ,
-1, ,53, ,
4, ,56, ,
-1, ,55, ,
1, ,55, ,
-6, ,54, ,
-1, ,55, ,
3, ,53, ,
-1, ,56, ,
-6, ,54, ,
0, ,55, ,
-1, ,55, ,
-1, ,55, ,
-6, ,53, ,
-2, ,56, ,
-1, ,55, ,
-2, ,55, ,
-5, ,55, ,
-1, ,56, ,
-1, ,53, ,
4, ,56, ,
-4, ,54, ,
-2, ,55, ,
-1, ,55, ,
-1, ,55, ,
-5, ,53, ,
-1, ,56, ,
-2, ,55, ,
0, ,55, ,
-1, ,55, ,
0, ,55, ,
-1, ,53, ,
0, ,56, ,
-4, ,54, ,
0, ,55, ,
1, ,55, ,
0, ,55, ,
-1, ,53, ,
6, ,56, ,
4, ,55, ,
3, ,55, ,
1, ,55, ,
6, ,55, ,
3, ,54, ,
8, ,56, ,
1, ,54, ,
6, ,55, ,
6, ,55, ,
3, ,55, ,
3, ,53, ,
3, ,56, ,
0, ,55, ,
0, ,54, ,
-2, ,55, ,
4, ,55, ,
3, ,54, ,
4, ,56, ,
1, ,54, ,
3, ,55, ,
4, ,55, ,
3, ,55, ,
-5, ,53, ,
-1, ,56, ,
-4, ,55, ,
-4, ,55, ,
-5, ,55, ,
-4, ,55, ,
-2, ,53, ,
0, ,56, ,
-5, ,54, ,
1, ,54, ,
1, ,55, ,
0, ,55, ,
-1, ,53, ,
4, ,56, ,
3, ,55, ,
4, ,54, ,
0, ,55, ,
0, ,55, ,
3, ,53, ,
1, ,55, ,
-1, ,54, ,
5, ,55, ,
5, ,55, ,
6, ,56, ,
5, ,53, ,
5, ,56, ,
6, ,55, ,
1, ,55, ,
-1, ,55, ,
1, ,55, ,
0, ,54, ,
-2, ,56, ,
-4, ,54, ,
-5, ,55, ,
3, ,55, ,
3, ,55, ,
-4, ,53, ,
5, ,55, ,
4, ,55, ,
1, ,54, ,
1, ,55, ,
3, ,55, ,
5, ,54, ,
6, ,56, ,
0, ,54, ,
4, ,55, ,
4, ,55, ,
0, ,56, ,
0, ,53, ,
5, ,56, ,
1, ,55, ,
6, ,54, ,
3, ,55, ,
4, ,55, ,
4, ,54, ,
3, ,56, ,
0, ,54, ,
3, ,55, ,
3, ,55, ,
1, ,56, ,
-4, ,53, ,
3, ,56, ,
-1, ,55, ,
-2, ,55, ,
-6, ,55, ,
-1, ,55, ,
0, ,53, ,
1, ,56, ,
-4, ,54, ,
4, ,55, ,
4, ,55, ,
5, ,56, ,
1, ,53, ,
4, ,55, ,
4, ,54, ,
1, ,55, ,
0, ,55, ,
1, ,55, ,
4, ,54, ,
6, ,56, ,
0, ,54, ,
5, ,55, ,
9, ,55, ,
4, ,55, ,
4, ,53, ,
5, ,56, ,
4, ,55, ,
5, ,55, ,
3, ,55, ,
5, ,55, ,
4, ,54, ,
4, ,56, ,
-4, ,54, ,
1, ,54, ,
5, ,55, ,
6, ,55, ,
1, ,53, ,
6, ,55, ,
6, ,54, ,
3, ,55, ,
-1, ,55, ,
3, ,55, ,
-2, ,54, ,
0, ,56, ,
-6, ,54, ,
-1, ,55, ,
3, ,55, ,
1, ,55, ,
1, ,53, ,
8, ,55, ,
4, ,54, ,
6, ,54, ,
3, ,55, ,
5, ,55, ,
5, ,54, ,
1, ,56, ,
1, ,54, ,
5, ,55, ,
4, ,55, ,
3, ,56, ,
-2, ,54, ,
4, ,55, ,
0, ,54, ,
0, ,55, ,
1, ,55, ,
0, ,55, ,
-1, ,53, ,
1, ,56, ,
-4, ,54, ,
0, ,55, ,
0, ,55, ,
-2, ,56, ,
-6, ,53, ,
-1, ,55, ,
-2, ,55, ,
-1, ,55, ,
-2, ,55, ,
-4, ,55, ,
-5, ,54, ,
-6, ,56, ,
-14, ,54, ,
-6, ,54, ,
-1, ,55, ,
3, ,55, ,
1, ,53, ,
8, ,56, ,
6, ,55, ,
4, ,55, ,
3, ,55, ,
1, ,56, ,
-2, ,53, ,
4, ,56, ,
-2, ,54, ,
4, ,55, ,
4, ,56, ,
3, ,55, ,
0, ,53, ,
4, ,55, ,
3, ,55, ,
3, ,55, ,
3, ,55, ,
6, ,55, ,
6, ,53, ,
9, ,56, ,
-1, ,54, ,
-1, ,54, ,
-1, ,55, ,
-5, ,56, ,
-9, ,53, ,
1, ,56, ,
-1, ,55, ,
1, ,54, ,
-1, ,55, ,
0, ,55, ,
-4, ,54, ,
-2, ,56, ,
-10, ,54, ,
-6, ,55, ,
-4, ,55, ,
-5, ,55, ,
-7, ,53, ,
-1, ,56, ,
-5, ,55, ,
-1, ,55, ,
4, ,55, ,
-1, ,55, ,
1, ,53, ,
8, ,56, ,
-2, ,54, ,
3, ,55, ,
3, ,55, ,
3, ,55, ,
1, ,53, ,
8, ,56, ,
5, ,54, ,
9, ,55, ,
1, ,55, ,
0, ,56, ,
1, ,53, ,
4, ,56, ,
-1, ,54, ,
1, ,55, ,
4, ,56, ,
0, ,55, ,
-5, ,53, ,
-1, ,56, ,
-5, ,55, ,
-4, ,55, ,
-5, ,55, ,
0, ,55, ,
-1, ,54, ,
4, ,56, ,
-4, ,54, ,
1, ,55, ,
1, ,55, ,
-4, ,55, ,
0, ,53, ,
3, ,55, ,
3, ,55, ,
4, ,55, ,
3, ,55, ,
6, ,55, ,
3, ,53, ,
4, ,56, ,
-1, ,55, ,
0, ,54, ,
3, ,55, ,
3, ,56, ,
-1, ,53, ,
5, ,56, ,
3, ,55, ,
4, ,55, ,
-1, ,55, ,
1, ,55, ,
3, ,54, ,
0, ,56, ,
-1, ,54, ,
1, ,55, ,
0, ,55, ,
1, ,55, ,
-7, ,53, ,
-2, ,56, ,
-9, ,55, ,
-6, ,55, ,
-6, ,55, ,
-7, ,55, ,
-4, ,53, ,
-2, ,56, ,
-6, ,54, ,
-2, ,55, ,
-2, ,55, ,
-2, ,54, ,
-4, ,48, ,
1, ,41, ,
-2, ,30, ,
-4, ,20, ,
-6, ,13, ,
-2, ,6, ,
1, ,0, ,
3, ,-5, ,
1, ,-10, ,
3, ,-13, ,
4, ,-18, ,
3, ,-20, ,
-1, ,-23, ,
5, ,-25, ,
6, ,-27, ,
4, ,-28, ,
1, ,-29, ,
4, ,-30, ,
4, ,-32, ,
3, ,-33, ,
-1, ,-33, ,
1, ,-33, ,
4, ,-35, ,
-1, ,-36, ,
-2, ,-36, ,
0, ,-37, ,
-2, ,-37, ,
-1, ,-37, ,
-5, ,-37, ,
-4, ,-37, ,
-2, ,-37, ,
-2, ,-38, ,
-5, ,-38, ,
-2, ,-38, ,
-1, ,-38, ,
-1, ,-38, ,
-4, ,-38, ,
0, ,-38, ,
3, ,-38, ,
-1, ,-38, ,
-2, ,-38, ,
1, ,-38, ,
5, ,-38, ,
9, ,-39, ,
8, ,-38, ,
9, ,-38, ,
11, ,-38, ,
6, ,-38, ,
3, ,-39, ,
8, ,-39, ,
6, ,-38, ,
6, ,-38, ,
8, ,-38, ,
8, ,-38, ,
9, ,-38, ,
6, ,-39, ,
1, ,-38, ,
5, ,-38, ,
4, ,-38, ,
5, ,-38, ,
-1, ,-38, ,
3, ,-38, ,
4, ,-38, ,
1, ,-38, ,
0, ,-38, ,
-2, ,-38, ,
-1, ,-38, ,
-1, ,-38, ,
-5, ,-38, ,
0, ,-38, ,
1, ,-38, ,
1, ,-38, ,
-1, ,-38, ,
-1, ,-38, ,
-4, ,-38, ,
-2, ,-38, ,
-4, ,-38, ,
1, ,-38, ,
1, ,-38, ,
5, ,-39, ,
3, ,-38, ,
6, ,-38, ,
9, ,-38, ,
8, ,-38, ,
6, ,-38, ,
9, ,-38, ,
10, ,-38, ,
9, ,-38, ,
5, ,-38, ,
6, ,-38, ,
4, ,-38, ,
5, ,-38, ,
0, ,-38, ,
3, ,-38, ,
5, ,-38, ,
1, ,-38, ,
-2, ,-38, ,
3, ,-38, ,
-1, ,-38, ,
0, ,-38, ,
-1, ,-38, ,
1, ,-38, ,
1, ,-38, ,
-2, ,-38, ,
-2, ,-38, ,
-1, ,-38, ,
1, ,-38, ,
-1, ,-38, ,
-4, ,-38, ,
0, ,-38, ,
1, ,-38, ,
0, ,-38, ,
-1, ,-38, ,
3, ,-38, ,
4, ,-38, ,
5, ,-38, ,
3, ,-38, ,
6, ,-38, ,
10, ,-38, ,
5, ,-38, ,
6, ,-38, ,
11, ,-38, ,
8, ,-38, ,
6, ,-38, ,
5, ,-38, ,
5, ,-38, ,
6, ,-37, ,
6, ,-38, ,
1, ,-38, ,
5, ,-38, ,
5, ,-38, ,
1, ,-38, ,
-4, ,-37, ,
-1, ,-38, ,
1, ,-38, ,
-2, ,-38, ,
-5, ,-38, ,
-4, ,-38, ,
-6, ,-38, ,
-5, ,-38, ,
-14, ,-38, ,
-6, ,-38, ,
-4, ,-38, ,
-6, ,-38, ,
-7, ,-38, ,
0, ,-38, ,
0, ,-38, ,
3, ,-38, ,
-1, ,-37, ,
-1, ,-38, ,
-1, ,-38, ,
0, ,-38, ,
-5, ,-38, ,
1, ,-38, ,
4, ,-38, ,
0, ,-38, ,
0, ,-37, ,
5, ,-38, ,
5, ,-38, ,
3, ,-38, ,
1, ,-38, ,
3, ,-38, ,
5, ,-38, ,
4, ,-38, ,
0, ,-38, ,
3, ,-38, ,
4, ,-38, ,
1, ,-38, ,
-4, ,-38, ,
1, ,-38, ,
-1, ,-38, ,
0, ,-37, ,
-1, ,-38, ,
-2, ,-38, ,
0, ,-38, ,
-1, ,-38, ,
-7, ,-38, ,
-5, ,-37, ,
-5, ,-38, ,
-6, ,-38, ,
-10, ,-38, ,
-2, ,-38, ,
-2, ,-38, ,
-2, ,-38, ,
-1, ,-38, ,
0, ,-38, ,
3, ,-38, ,
0, ,-38, ,
-4, ,-38, ,
0, ,-38, ,
1, ,-37, ,
1, ,-38, ,
1, ,-38, ,
4, ,-38, ,
6, ,-38, ,
4, ,-37, ,
3, ,-38, ,
3, ,-38, ,
3, ,-38, ,
3, ,-38, ,
1, ,-38, ,
3, ,-37, ,
5, ,-38, ,
0, ,-38, ,
-2, ,-38, ,
4, ,-38, ,
1, ,-38, ,
-1, ,-38, ,
-4, ,-38, ,
-2, ,-37, ,
-1, ,-38, ,
-1, ,-38, ,
-10, ,-38, ,
-6, ,-38, ,
-2, ,-38, ,
-7, ,-38, ,
-11, ,-38, ,
-5, ,-38, ,
-6, ,-38, ,
-2, ,-38, ,
-2, ,-38, ,
-2, ,-38, ,
4, ,-37, ,
1, ,-38, ,
-2, ,-38, ,
-1, ,-37, ,
0, ,-38, ,
-1, ,-38, ,
-5, ,-37, ,
-1, ,-38, ,
0, ,-38, ,
0, ,-38, ,
0, ,-38, ,
0, ,-38, ,
1, ,-38, ,
-1, ,-38, ,
-6, ,-38, ,
0, ,-38, ,
0, ,-37, ,
-1, ,-38, ,
-5, ,-38, ,
-1, ,-37, ,
-4, ,-38, ,
-2, ,-38, ,
-2, ,-38, ,
-2, ,-37, ,
-1, ,-38, ,
-1, ,-38, ,
-5, ,-38, ,
-2, ,-37, ,
-2, ,-38, ,
-4, ,-38, ,
-9, ,-38, ,
-2, ,-38, ,
-4, ,-38, ,
-5, ,-38, ,
-4, ,-38, ,
-2, ,-37, ,
-1, ,-38, ,
0, ,-38, ,
-4, ,-38, ,
-1, ,-38, ,
1, ,-38, ,
-1, ,-37, ,
-2, ,-38, ,
0, ,-38, ,
5, ,-38, ,
3, ,-37, ,
3, ,-38, ,
4, ,-38, ,
5, ,-38, ,
3, ,-38, ,
0, ,-38, ,
3, ,-37, ,
5, ,-38, ,
4, ,-38, ,
3, ,-38, ,
3, ,-38, ,
1, ,-38, ,
0, ,-38, ,
0, ,-38, ,
1, ,-38, ,
1, ,-37, ,
5, ,-38, ,
0, ,-37, ,
0, ,-38, ,
4, ,-37, ,
0, ,-38, ,
-2, ,-38, ,
1, ,-38, ,
0, ,-37, ,
3, ,-38, ,
0, ,-37, ,
0, ,-38, ,
3, ,-37, ,
-1, ,-38, ,
-1, ,-38, ,
4, ,-38, ,
3, ,-38, ,
1, ,-38, ,
-2, ,-38, ,
1, ,-38, ,
3, ,-38, ,
0, ,-38, ,
3, ,-38, ,
3, ,-37, ,
5, ,-38, ,
9, ,-38, ,
3, ,-38, ,
9, ,-38, ,
8, ,-38, ,
3, ,-38, ,
-2, ,-38, ,
3, ,-38, ,
0, ,-38, ,
0, ,-37, ,
0, ,-38, ,
0, ,-38, ,
1, ,-37, ,
0, ,-38, ,
-1, ,-38, ,
0, ,-37, ,
1, ,-38, ,
1, ,-38, ,
1, ,-38, ,
5, ,-38, ,
1, ,-38, ,
1, ,-38, ,
-2, ,-38, ,
0, ,-38, ,
0, ,-37, ,
3, ,-38, ,
-2, ,-38, ,
3, ,-38, ,
6, ,-37, ,
1, ,-38, ,
1, ,-37, ,
4, ,-38, ,
0, ,-38, ,
3, ,-38, ,
0, ,-38, ,
3, ,-38, ,
6, ,-38, ,
8, ,-38, ,
5, ,-38, ,
6, ,-38, ,
8, ,-38, ,
4, ,-38, ,
-1, ,-38, ,
4, ,-37, ,
1, ,-38, ,
0, ,-38, ,
1, ,-38, ,
3, ,-38, ,
5, ,-38, ,
4, ,-38, ,
1, ,-38, ,
4, ,-38, ,
4, ,-38, ,
5, ,-38, ,
3, ,-38, ,
6, ,-38, ,
3, ,-38, ,
1, ,-37, ,
-1, ,-38, ,
-1, ,-38, ,
1, ,-38, ,
4, ,-38, ,
0, ,-38, ,
3, ,-38, ,
5, ,-38, ,
5, ,-38, ,
0, ,-37, ,
4, ,-38, ,
4, ,-38, ,
0, ,-37, ,
-2, ,-38, ,
3, ,-38, ,
-1, ,-38, ,
1, ,-38, ,
0, ,-38, ,
4, ,-38, ,
10, ,-38, ,
4, ,-38, ,
0, ,-38, ,
5, ,-38, ,
-4, ,-38, ,
8, ,-37, ,
8, ,-38, ,
4, ,-38, ,
5, ,-37, ,
6, ,-38, ,
-2, ,-38, ,
1, ,-38, ,
4, ,-38, ,
1, ,-37, ,
1, ,-37, ,
3, ,-38, ,
4, ,-38, ,
1, ,-38, ,
1, ,-38, ,
3, ,-38, ,
3, ,-38, ,
4, ,-38, ,
0, ,-38, ,
1, ,-38, ,
5, ,-37, ,
1, ,-38, ,
-5, ,-38, ,
1, ,-38, ,
3, ,-38, ,
4, ,-37, ,
-2, ,-38, ,
-2, ,-38, ,
-2, ,-37, ,
-2, ,-38, ,
-1, ,-37, ,
8, ,-37, ,
6, ,-38, ,
5, ,-38, ,
0, ,-38, ,
1, ,-38, ,
1, ,-38, ,
-1, ,-37, ,
0, ,-38, ,
4, ,-38, ,
8, ,-38, ,
10, ,-38, ,
-1, ,-38, ,
1, ,-38, ,
-2, ,-38, ,
-5, ,-38, ,
-5, ,-38, ,
-1, ,-38, ,
3, ,-38, ,
3, ,-38, ,
-2, ,-38, ,
1, ,-37, ,
0, ,-38, ,
-1, ,-38, ,
-6, ,-38, ,
-4, ,-38, ,
-5, ,-38, ,
-9, ,-38, ,
-9, ,-37, ,
-2, ,-38, ,
-4, ,-38, ,
-4, ,-37, ,
-6, ,-38, ,
-9, ,-38, ,
-14, ,-38, ,
-9, ,-38, ,
-7, ,-38, ,
3, ,-37, ,
13, ,-37, ,
11, ,-38, ,
10, ,-38, ,
10, ,-38, ,
0, ,-38, ,
0, ,-38, ,
-2, ,-38, ,
-2, ,-37, ,
0, ,-38, ,
1, ,-38, ,
0, ,-38, ,
-2, ,-38, ,
-1, ,-38, ,
-2, ,-38, ,
-7, ,-38, ,
-4, ,-38, ,
-1, ,-38, ,
-2, ,-37, ,
-1, ,-38, ,
-4, ,-38, ,
-2, ,-38, ,
-4, ,-38, ,
-11, ,-38, ,
-6, ,-38, ,
-5, ,-37, ,
-5, ,-38, ,
-6, ,-38, ,
-1, ,-38, ,
1, ,-38, ,
0, ,-38, ,
-1, ,-38, ,
-4, ,-38, ,
-5, ,-38, ,
-5, ,-38, ,
-12, ,-38, ,
-5, ,-38, ,
-2, ,-38, ,
-1, ,-38, ,
-4, ,-37, ,
5, ,-38, ,
5, ,-38, ,
3, ,-38, ,
1, ,-38, ,
-1, ,-38, ,
-5, ,-38, ,
-2, ,-38, ,
-7, ,-38, ,
-4, ,-38, ,
4, ,-38, ,
-1, ,-38, ,
-1, ,-38, ,
3, ,-37, ,
0, ,-38, ,
3, ,-37, ,
-2, ,-38, ,
-1, ,-38, ,
3, ,-37, ,
5, ,-38, ,
-5, ,-38, ,
-4, ,-37, ,
0, ,-37, ,
-4, ,-38, ,
-7, ,-37, ,
0, ,-38, ,
-2, ,-38, ,
-1, ,-38, ,
0, ,-38, ,
3, ,-38, ,
1, ,-38, ,
-1, ,-38, ,
-4, ,-38, ,
-2, ,-38, ,
0, ,-37, ,
-2, ,-37, ,
-2, ,-38, ,
3, ,-38, ,
1, ,-38, ,
4, ,-37, ,
1, ,-38, ,
0, ,-38, ,
3, ,-37, ,
-1, ,-38, ,
-4, ,-37, ,
1, ,-38, ,
1, ,-38, ,
-1, ,-38, ,
-5, ,-38, ,
-2, ,-38, ,
-4, ,-38, ,
-2, ,-38, ,
-1, ,-38, ,
0, ,-37, ,
4, ,-38, ,
6, ,-38, ,
1, ,-38, ,
3, ,-37, ,
5, ,-38, ,
1, ,-38, ,
-1, ,-38, ,
1, ,-37, ,
-1, ,-38, ,
-1, ,-37, ,
-2, ,-38, ,
0, ,-38, ,
-1, ,-38, ,
0, ,-38, ,
-4, ,-38, ,
1, ,-37, ,
4, ,-38, ,
0, ,-38, ,
3, ,-37, ,
4, ,-38, ,
3, ,-38, ,
3, ,-38, ,
1, ,-38, ,
1, ,-38, ,
3, ,-37, ,
4, ,-38, ,
1, ,-38, ,
0, ,-38, ,
4, ,-38, ,
1, ,-38, ,
-2, ,-38, ,
4, ,-38, ,
4, ,-38, ,
4, ,-38, ,
3, ,-38, ,
3, ,-38, ,
5, ,-38, ,
3, ,-38, ,
-1, ,-38, ,
6, ,-37, ,
5, ,-38, ,
6, ,-38, ,
1, ,-38, ,
3, ,-38, ,
3, ,-38, ,
1, ,-38, ,
0, ,-38, ,
1, ,-38, ,
4, ,-38, ,
4, ,-38, ,
4, ,-38, ,
6, ,-38, ,
5, ,-38, ,
3, ,-38, ,
-2, ,-38, ,
6, ,-38, ,
-1, ,-38, ,
-1, ,-38, ,
1, ,-38, ,
8, ,-38, ,
9, ,-38, ,
10, ,-38, ,
5, ,-38, ,
3, ,-38, ,
3, ,-38, ,
5, ,-37, ,
3, ,-38, ,
5, ,-38, ,
6, ,-38, ,
4, ,-38, ,
1, ,-37, ,
1, ,-38, ,
-2, ,-38, ,
1, ,-38, ,
-4, ,-38, ,
5, ,-38, ,
8, ,-38, ,
1, ,-38, ,
4, ,-38, ,
4, ,-38, ,
0, ,-38, ,
4, ,-38, ,
-1, ,-38, ,
-1, ,-38, ,
4, ,-37, ,
3, ,-38, ,
1, ,-38, ,
4, ,-37, ,
5, ,-38, ,
3, ,-38, ,
0, ,-38, ,
1, ,-38, ,
0, ,-38, ,
1, ,-37, ,
-1, ,-38, ,
1, ,-37, ,
4, ,-38, ,
6, ,-38, ,
3, ,-38, ,
