src/vary_am2_1411/temp0004931.CSV

Format,1.0B,
Memory Length,10000,Memory Length,10000,
IntpDistance,0,IntpDistance,0,
Trigger Address,4999,Trigger Address,4999,
Trigger Level,-1.000E+00,Trigger Level,-1.000E+00,
Source,CH1,Source,CH2,
Vertical Units,V,Vertical Units,V,
Vertical Units Div,0,Vertical Units Div,0,
Vertical Units Extend Div,16,Vertical Units Extend Div,16,
Label,,Label,,
Probe Type,0,Probe Type,0,
Probe Ratio,1.000e+01,Probe Ratio,1.000e+00,
Vertical Scale,2.000e-02,Vertical Scale,1.000e+00,
Vertical Position,-5.120e-02,Vertical Position,2.000e-01,
Horizontal Units,S,Horizontal Units,S,
Horizontal Scale,1.000E-05,Horizontal Scale,1.000E-05,
Horizontal Position,0.000E+00,Horizontal Position,0.000E+00,
Horizontal Mode,Main,Horizontal Mode,Main,
SincET Mode,Real Time,SincET Mode,Real Time,
Sampling Period,1.000e-08,Sampling Period,1.000e-08,
Horizontal Old Scale,1.000E-05,Horizontal Old Scale,1.000E-05,
Horizontal Old Position,0.000E+00,Horizontal Old Position,0.000E+00,
Firmware,V1.23,Firmware,V1.23,
Mode,Fast,Mode,Fast,
Waveform Data,,Waveform Data,,
5, ,-38, ,
3, ,-38, ,
3, ,-38, ,
-1, ,-38, ,
0, ,-37, ,
1, ,-38, ,
-1, ,-38, ,
-5, ,-38, ,
-1, ,-38, ,
-1, ,-38, ,
-4, ,-37, ,
-6, ,-38, ,
0, ,-38, ,
-5, ,-38, ,
-7, ,-38, ,
-11, ,-38, ,
-11, ,-37, ,
-7, ,-38, ,
-4, ,-38, ,
-9, ,-37, ,
-2, ,-38, ,
-1, ,-38, ,
-6, ,-38, ,
-9, ,-38, ,
-4, ,-38, ,
-6, ,-37, ,
-2, ,-38, ,
-2, ,-38, ,
0, ,-37, ,
3, ,-38, ,
5, ,-38, ,
3, ,-38, ,
8, ,-38, ,
6, ,-38, ,
3, ,-38, ,
0, ,-38, ,
5, ,-38, ,
5, ,-38, ,
3, ,-37, ,
3, ,-37, ,
3, ,-37, ,
0, ,-38, ,
0, ,-38, ,
-7, ,-38, ,
-5, ,-38, ,
0, ,-38, ,
-5, ,-38, ,
-7, ,-38, ,
-1, ,-38, ,
1, ,-38, ,
-6, ,-38, ,
-9, ,-38, ,
-2, ,-37, ,
-4, ,-38, ,
-1, ,-38, ,
-6, ,-38, ,
-4, ,-38, ,
-2, ,-38, ,
-2, ,-37, ,
-5, ,-38, ,
0, ,-37, ,
-1, ,-38, ,
-1, ,-38, ,
0, ,-38, ,
4, ,-37, ,
4, ,-38, ,
5, ,-38, ,
3, ,-37, ,
6, ,-38, ,
10, ,-38, ,
6, ,-37, ,
3, ,-38, ,
6, ,-38, ,
3, ,-38, ,
1, ,-38, ,
0, ,-38, ,
0, ,-37, ,
1, ,-38, ,
0, ,-38, ,
-10, ,-38, ,
-2, ,-38, ,
-1, ,-37, ,
-5, ,-38, ,
-5, ,-38, ,
0, ,-37, ,
0, ,-38, ,
-4, ,-38, ,
-4, ,-38, ,
-2, ,-38, ,
-5, ,-38, ,
-5, ,-38, ,
-7, ,-38, ,
-6, ,-38, ,
-1, ,-38, ,
0, ,-37, ,
-2, ,-38, ,
3, ,-38, ,
1, ,-37, ,
1, ,-38, ,
0, ,-38, ,
0, ,-37, ,
1, ,-38, ,
4, ,-38, ,
0, ,-38, ,
5, ,-38, ,
5, ,-38, ,
1, ,-37, ,
-1, ,-38, ,
4, ,-38, ,
3, ,-38, ,
3, ,-38, ,
1, ,-38, ,
3, ,-38, ,
3, ,-38, ,
3, ,-38, ,
-1, ,-38, ,
0, ,-38, ,
-1, ,-38, ,
-6, ,-37, ,
-7, ,-38, ,
-4, ,-38, ,
-4, ,-38, ,
0, ,-38, ,
-5, ,-38, ,
-4, ,-37, ,
-2, ,-38, ,
-7, ,-38, ,
-9, ,-37, ,
-6, ,-38, ,
-2, ,-38, ,
-1, ,-37, ,
-4, ,-38, ,
5, ,-37, ,
3, ,-38, ,
4, ,-38, ,
1, ,-38, ,
1, ,-37, ,
3, ,-38, ,
4, ,-38, ,
0, ,-38, ,
4, ,-38, ,
8, ,-38, ,
9, ,-37, ,
4, ,-38, ,
8, ,-38, ,
9, ,-38, ,
5, ,-38, ,
3, ,-38, ,
5, ,-37, ,
5, ,-38, ,
6, ,-38, ,
-2, ,-38, ,
3, ,-38, ,
1, ,-38, ,
1, ,-37, ,
-2, ,-38, ,
1, ,-38, ,
1, ,-38, ,
0, ,-38, ,
-2, ,-38, ,
0, ,-38, ,
-1, ,-38, ,
-2, ,-38, ,
-11, ,-38, ,
-5, ,-38, ,
-1, ,-38, ,
-5, ,-38, ,
-4, ,-38, ,
3, ,-38, ,
4, ,-38, ,
4, ,-38, ,
4, ,-38, ,
5, ,-37, ,
4, ,-38, ,
4, ,-38, ,
-1, ,-38, ,
3, ,-38, ,
8, ,-38, ,
5, ,-37, ,
3, ,-38, ,
5, ,-37, ,
4, ,-38, ,
4, ,-38, ,
-2, ,-37, ,
1, ,-37, ,
1, ,-38, ,
3, ,-38, ,
-1, ,-38, ,
3, ,-38, ,
4, ,-38, ,
3, ,-37, ,
-1, ,-38, ,
1, ,-38, ,
1, ,-37, ,
0, ,-38, ,
0, ,-38, ,
0, ,-37, ,
1, ,-38, ,
0, ,-38, ,
-2, ,-38, ,
-4, ,-38, ,
-4, ,-38, ,
-4, ,-37, ,
-5, ,-38, ,
0, ,-37, ,
0, ,-38, ,
1, ,-38, ,
1, ,-38, ,
1, ,-37, ,
4, ,-38, ,
5, ,-38, ,
-2, ,-38, ,
3, ,-38, ,
3, ,-38, ,
1, ,-38, ,
-1, ,-38, ,
5, ,-38, ,
4, ,-38, ,
4, ,-38, ,
3, ,-38, ,
4, ,-37, ,
3, ,-38, ,
4, ,-38, ,
-1, ,-38, ,
3, ,-38, ,
3, ,-38, ,
1, ,-37, ,
-1, ,-38, ,
0, ,-37, ,
1, ,-38, ,
-2, ,-38, ,
-4, ,-38, ,
-2, ,-37, ,
-2, ,-38, ,
1, ,-38, ,
-5, ,-38, ,
-4, ,-38, ,
0, ,-38, ,
-5, ,-37, ,
-7, ,-38, ,
0, ,-38, ,
0, ,-37, ,
-2, ,-38, ,
-9, ,-38, ,
3, ,-37, ,
1, ,-38, ,
1, ,-38, ,
5, ,-38, ,
6, ,-38, ,
4, ,-38, ,
-2, ,-38, ,
-2, ,-38, ,
1, ,-37, ,
-1, ,-38, ,
1, ,-38, ,
1, ,-38, ,
1, ,-37, ,
4, ,-38, ,
3, ,-38, ,
-5, ,-38, ,
0, ,-38, ,
3, ,-38, ,
-1, ,-38, ,
-4, ,-38, ,
0, ,-38, ,
-5, ,-38, ,
-2, ,-38, ,
-7, ,-38, ,
-5, ,-37, ,
-2, ,-38, ,
-2, ,-38, ,
-6, ,-38, ,
-1, ,-38, ,
0, ,-38, ,
0, ,-37, ,
-1, ,-38, ,
-1, ,-37, ,
-1, ,-38, ,
-4, ,-38, ,
-2, ,-38, ,
-1, ,-37, ,
-2, ,-38, ,
1, ,-38, ,
-2, ,-38, ,
3, ,-38, ,
5, ,-38, ,
-1, ,-37, ,
-4, ,-38, ,
-2, ,-38, ,
-2, ,-38, ,
-1, ,-38, ,
-2, ,-38, ,
4, ,-37, ,
5, ,-38, ,
5, ,-38, ,
1, ,-37, ,
4, ,-38, ,
3, ,-38, ,
-2, ,-38, ,
-6, ,-38, ,
-1, ,-38, ,
-1, ,-38, ,
-1, ,-38, ,
-4, ,-38, ,
-1, ,-37, ,
-4, ,-38, ,
-2, ,-38, ,
-1, ,-38, ,
-4, ,-38, ,
-10, ,-38, ,
0, ,-35, ,
5, ,-26, ,
1, ,-17, ,
8, ,-7, ,
6, ,1, ,
0, ,10, ,
-4, ,15, ,
0, ,21, ,
3, ,26, ,
0, ,30, ,
9, ,34, ,
6, ,37, ,
4, ,38, ,
-2, ,41, ,
1, ,44, ,
0, ,46, ,
0, ,47, ,
1, ,48, ,
1, ,48, ,
4, ,51, ,
4, ,51, ,
-2, ,51, ,
5, ,53, ,
5, ,53, ,
1, ,52, ,
-2, ,54, ,
3, ,53, ,
-1, ,53, ,
-1, ,55, ,
-2, ,55, ,
-2, ,53, ,
-1, ,56, ,
4, ,55, ,
-6, ,55, ,
-2, ,55, ,
-2, ,56, ,
-5, ,53, ,
-4, ,56, ,
4, ,55, ,
1, ,56, ,
0, ,55, ,
-4, ,56, ,
-1, ,54, ,
-1, ,56, ,
0, ,55, ,
-4, ,55, ,
-2, ,56, ,
-1, ,56, ,
-1, ,53, ,
-5, ,56, ,
1, ,56, ,
-2, ,55, ,
0, ,56, ,
-2, ,56, ,
4, ,53, ,
5, ,57, ,
4, ,54, ,
-1, ,55, ,
4, ,55, ,
4, ,56, ,
4, ,53, ,
1, ,56, ,
8, ,55, ,
3, ,55, ,
-1, ,55, ,
-1, ,56, ,
-1, ,53, ,
3, ,56, ,
4, ,55, ,
0, ,55, ,
4, ,56, ,
3, ,56, ,
4, ,53, ,
0, ,56, ,
9, ,55, ,
4, ,55, ,
3, ,55, ,
3, ,56, ,
4, ,53, ,
3, ,56, ,
1, ,54, ,
-7, ,55, ,
1, ,56, ,
0, ,55, ,
1, ,53, ,
1, ,56, ,
1, ,55, ,
3, ,55, ,
3, ,55, ,
1, ,55, ,
3, ,53, ,
0, ,56, ,
1, ,55, ,
-4, ,54, ,
1, ,55, ,
5, ,55, ,
3, ,53, ,
0, ,57, ,
6, ,55, ,
3, ,55, ,
4, ,55, ,
0, ,56, ,
5, ,53, ,
4, ,56, ,
6, ,54, ,
1, ,55, ,
3, ,56, ,
3, ,55, ,
-1, ,53, ,
-4, ,56, ,
3, ,55, ,
1, ,55, ,
3, ,55, ,
-1, ,56, ,
0, ,53, ,
-4, ,56, ,
-2, ,55, ,
-6, ,55, ,
-2, ,56, ,
1, ,56, ,
0, ,53, ,
-1, ,56, ,
4, ,55, ,
3, ,55, ,
5, ,55, ,
3, ,55, ,
0, ,53, ,
5, ,56, ,
4, ,55, ,
0, ,54, ,
4, ,55, ,
3, ,56, ,
3, ,53, ,
-1, ,56, ,
8, ,55, ,
6, ,55, ,
4, ,55, ,
1, ,55, ,
1, ,54, ,
4, ,56, ,
3, ,54, ,
-4, ,55, ,
5, ,55, ,
6, ,56, ,
5, ,53, ,
-1, ,56, ,
3, ,55, ,
-1, ,55, ,
0, ,55, ,
0, ,56, ,
0, ,53, ,
3, ,57, ,
1, ,54, ,
-4, ,54, ,
0, ,55, ,
-1, ,55, ,
-2, ,53, ,
-1, ,56, ,
1, ,55, ,
4, ,55, ,
3, ,55, ,
3, ,55, ,
3, ,53, ,
0, ,56, ,
4, ,55, ,
-5, ,54, ,
-2, ,55, ,
0, ,55, ,
-1, ,53, ,
-2, ,56, ,
3, ,54, ,
0, ,55, ,
1, ,55, ,
0, ,55, ,
5, ,52, ,
3, ,56, ,
3, ,54, ,
0, ,55, ,
3, ,55, ,
3, ,55, ,
4, ,53, ,
0, ,56, ,
4, ,54, ,
-2, ,55, ,
-2, ,55, ,
-1, ,55, ,
-2, ,53, ,
-4, ,56, ,
1, ,54, ,
-5, ,55, ,
3, ,55, ,
0, ,56, ,
0, ,53, ,
-2, ,56, ,
-4, ,55, ,
-5, ,54, ,
-4, ,55, ,
-6, ,55, ,
1, ,53, ,
-1, ,56, ,
3, ,54, ,
-5, ,54, ,
3, ,55, ,
0, ,55, ,
-1, ,53, ,
-6, ,56, ,
0, ,55, ,
0, ,55, ,
0, ,55, ,
1, ,55, ,
0, ,53, ,
0, ,56, ,
3, ,54, ,
-5, ,55, ,
1, ,55, ,
1, ,56, ,
-2, ,52, ,
-4, ,56, ,
0, ,55, ,
-1, ,54, ,
3, ,55, ,
-5, ,55, ,
0, ,53, ,
-6, ,56, ,
1, ,54, ,
-1, ,54, ,
0, ,55, ,
0, ,56, ,
-2, ,53, ,
-9, ,56, ,
0, ,55, ,
-2, ,55, ,
-4, ,55, ,
-7, ,56, ,
-2, ,53, ,
-4, ,56, ,
3, ,55, ,
-2, ,54, ,
4, ,55, ,
4, ,56, ,
-1, ,53, ,
-6, ,56, ,
0, ,55, ,
-4, ,55, ,
-1, ,55, ,
-1, ,55, ,
0, ,52, ,
1, ,56, ,
4, ,54, ,
-2, ,55, ,
0, ,55, ,
-4, ,56, ,
-2, ,53, ,
-7, ,56, ,
-1, ,54, ,
-1, ,55, ,
-2, ,55, ,
-4, ,55, ,
-2, ,53, ,
-5, ,56, ,
-2, ,54, ,
-6, ,54, ,
3, ,55, ,
0, ,55, ,
0, ,52, ,
-4, ,56, ,
0, ,55, ,
-4, ,55, ,
-6, ,55, ,
-7, ,55, ,
-5, ,53, ,
-5, ,57, ,
-1, ,54, ,
-7, ,54, ,
-1, ,55, ,
-1, ,56, ,
-2, ,53, ,
-5, ,56, ,
-1, ,55, ,
-5, ,55, ,
-1, ,55, ,
-2, ,55, ,
3, ,53, ,
0, ,56, ,
6, ,54, ,
-2, ,54, ,
0, ,55, ,
3, ,55, ,
0, ,53, ,
-4, ,56, ,
0, ,55, ,
-4, ,54, ,
0, ,55, ,
-2, ,55, ,
1, ,53, ,
1, ,56, ,
1, ,54, ,
-2, ,54, ,
0, ,55, ,
1, ,56, ,
0, ,53, ,
-5, ,56, ,
1, ,55, ,
-4, ,55, ,
-1, ,55, ,
-5, ,55, ,
-2, ,53, ,
-5, ,56, ,
-1, ,54, ,
-6, ,54, ,
-1, ,56, ,
1, ,55, ,
1, ,53, ,
-2, ,56, ,
4, ,55, ,
0, ,55, ,
-1, ,55, ,
-2, ,56, ,
3, ,53, ,
1, ,56, ,
3, ,54, ,
-2, ,54, ,
4, ,56, ,
1, ,55, ,
0, ,53, ,
-1, ,56, ,
1, ,55, ,
1, ,55, ,
-1, ,55, ,
0, ,55, ,
0, ,54, ,
-2, ,56, ,
1, ,54, ,
-5, ,55, ,
-1, ,55, ,
0, ,55, ,
-2, ,53, ,
-4, ,56, ,
5, ,55, ,
1, ,55, ,
3, ,55, ,
-1, ,55, ,
3, ,53, ,
-1, ,56, ,
-1, ,54, ,
-5, ,55, ,
-1, ,55, ,
0, ,55, ,
1, ,53, ,
-1, ,56, ,
5, ,55, ,
1, ,55, ,
3, ,55, ,
-1, ,55, ,
0, ,53, ,
0, ,56, ,
0, ,54, ,
-1, ,55, ,
1, ,55, ,
4, ,56, ,
1, ,53, ,
-2, ,56, ,
3, ,55, ,
1, ,54, ,
3, ,55, ,
1, ,55, ,
4, ,53, ,
4, ,56, ,
4, ,54, ,
-2, ,54, ,
1, ,55, ,
1, ,55, ,
0, ,53, ,
-2, ,56, ,
1, ,54, ,
0, ,55, ,
0, ,55, ,
-1, ,56, ,
1, ,53, ,
0, ,56, ,
1, ,54, ,
-5, ,55, ,
4, ,55, ,
4, ,55, ,
4, ,53, ,
3, ,56, ,
8, ,55, ,
6, ,54, ,
6, ,55, ,
1, ,55, ,
4, ,53, ,
4, ,56, ,
3, ,54, ,
-5, ,55, ,
0, ,56, ,
3, ,56, ,
3, ,53, ,
1, ,56, ,
9, ,55, ,
5, ,55, ,
5, ,55, ,
3, ,55, ,
5, ,53, ,
4, ,56, ,
6, ,54, ,
-2, ,55, ,
1, ,56, ,
4, ,56, ,
-1, ,52, ,
-4, ,56, ,
1, ,55, ,
-4, ,55, ,
0, ,55, ,
0, ,55, ,
3, ,53, ,
5, ,56, ,
3, ,54, ,
0, ,55, ,
3, ,55, ,
1, ,56, ,
0, ,53, ,
-2, ,56, ,
6, ,55, ,
3, ,55, ,
5, ,55, ,
3, ,55, ,
1, ,53, ,
-1, ,56, ,
0, ,54, ,
-4, ,54, ,
0, ,55, ,
3, ,56, ,
3, ,53, ,
-1, ,56, ,
5, ,55, ,
1, ,55, ,
3, ,55, ,
-1, ,55, ,
1, ,52, ,
1, ,56, ,
3, ,54, ,
-4, ,55, ,
3, ,55, ,
1, ,55, ,
3, ,53, ,
-2, ,56, ,
3, ,55, ,
3, ,55, ,
1, ,55, ,
-1, ,55, ,
0, ,53, ,
0, ,56, ,
4, ,54, ,
-4, ,55, ,
4, ,55, ,
4, ,56, ,
0, ,53, ,
-2, ,56, ,
1, ,54, ,
-1, ,55, ,
3, ,55, ,
-2, ,56, ,
3, ,52, ,
3, ,57, ,
4, ,54, ,
0, ,55, ,
3, ,56, ,
-1, ,55, ,
0, ,53, ,
-5, ,56, ,
3, ,54, ,
0, ,55, ,
4, ,55, ,
1, ,55, ,
5, ,53, ,
1, ,56, ,
5, ,54, ,
-1, ,55, ,
3, ,55, ,
3, ,55, ,
0, ,53, ,
-1, ,56, ,
4, ,55, ,
-1, ,54, ,
-1, ,55, ,
-1, ,55, ,
0, ,52, ,
3, ,56, ,
4, ,54, ,
-1, ,55, ,
3, ,55, ,
1, ,56, ,
-1, ,53, ,
-7, ,56, ,
-2, ,55, ,
-6, ,55, ,
-4, ,55, ,
-4, ,55, ,
0, ,53, ,
3, ,56, ,
4, ,55, ,
1, ,54, ,
3, ,55, ,
0, ,56, ,
-1, ,53, ,
-4, ,56, ,
3, ,54, ,
1, ,54, ,
0, ,55, ,
-2, ,55, ,
0, ,52, ,
0, ,56, ,
0, ,54, ,
-6, ,54, ,
-1, ,55, ,
0, ,55, ,
0, ,53, ,
-6, ,56, ,
0, ,55, ,
-4, ,55, ,
-4, ,55, ,
-10, ,56, ,
-14, ,53, ,
-20, ,56, ,
-15, ,55, ,
-17, ,54, ,
-10, ,55, ,
-6, ,56, ,
-4, ,53, ,
1, ,56, ,
13, ,55, ,
16, ,55, ,
20, ,55, ,
10, ,55, ,
3, ,53, ,
-5, ,56, ,
-6, ,54, ,
-11, ,55, ,
-2, ,55, ,
1, ,56, ,
6, ,53, ,
-1, ,56, ,
0, ,55, ,
-2, ,55, ,
-7, ,55, ,
-7, ,56, ,
-5, ,54, ,
-2, ,56, ,
0, ,55, ,
-5, ,55, ,
-1, ,55, ,
-6, ,56, ,
-9, ,52, ,
-14, ,56, ,
-5, ,55, ,
-2, ,55, ,
5, ,55, ,
5, ,55, ,
6, ,53, ,
4, ,56, ,
1, ,54, ,
-12, ,55, ,
-10, ,55, ,
-9, ,55, ,
-5, ,53, ,
-6, ,56, ,
4, ,55, ,
0, ,55, ,
-2, ,55, ,
-7, ,55, ,
-5, ,53, ,
-5, ,56, ,
0, ,54, ,
-7, ,54, ,
0, ,55, ,
-1, ,56, ,
-5, ,53, ,
-4, ,56, ,
1, ,55, ,
-2, ,55, ,
1, ,55, ,
-4, ,55, ,
-4, ,53, ,
-1, ,56, ,
-2, ,54, ,
-7, ,55, ,
-2, ,55, ,
-1, ,56, ,
-1, ,53, ,
-4, ,56, ,
0, ,55, ,
-2, ,55, ,
-4, ,55, ,
-4, ,55, ,
0, ,53, ,
-2, ,56, ,
0, ,54, ,
-6, ,54, ,
-5, ,56, ,
1, ,55, ,
-1, ,53, ,
-4, ,56, ,
3, ,55, ,
-1, ,55, ,
1, ,55, ,
-1, ,55, ,
1, ,53, ,
1, ,56, ,
1, ,54, ,
-4, ,55, ,
1, ,55, ,
1, ,56, ,
4, ,52, ,
-1, ,56, ,
5, ,55, ,
4, ,55, ,
-1, ,55, ,
-6, ,55, ,
-5, ,53, ,
-6, ,56, ,
-4, ,55, ,
-6, ,54, ,
3, ,55, ,
5, ,56, ,
6, ,53, ,
5, ,56, ,
8, ,55, ,
1, ,54, ,
1, ,55, ,
-2, ,55, ,
0, ,52, ,
1, ,57, ,
3, ,54, ,
-5, ,55, ,
3, ,55, ,
3, ,55, ,
-1, ,53, ,
-2, ,56, ,
3, ,55, ,
4, ,55, ,
8, ,55, ,
5, ,55, ,
6, ,53, ,
3, ,56, ,
1, ,54, ,
-2, ,55, ,
0, ,55, ,
8, ,56, ,
0, ,53, ,
-1, ,56, ,
10, ,55, ,
4, ,55, ,
6, ,55, ,
-2, ,56, ,
-1, ,53, ,
-2, ,56, ,
0, ,54, ,
-4, ,55, ,
1, ,55, ,
5, ,55, ,
6, ,53, ,
0, ,56, ,
6, ,55, ,
1, ,55, ,
3, ,55, ,
0, ,56, ,
1, ,53, ,
3, ,56, ,
6, ,55, ,
-1, ,55, ,
3, ,55, ,
1, ,56, ,
0, ,53, ,
-5, ,56, ,
3, ,55, ,
1, ,55, ,
5, ,55, ,
0, ,55, ,
1, ,53, ,
5, ,56, ,
5, ,55, ,
-4, ,55, ,
4, ,55, ,
1, ,56, ,
4, ,53, ,
-1, ,56, ,
8, ,55, ,
5, ,55, ,
1, ,55, ,
-1, ,55, ,
1, ,53, ,
-1, ,56, ,
4, ,54, ,
-2, ,55, ,
3, ,55, ,
4, ,55, ,
5, ,53, ,
3, ,56, ,
5, ,55, ,
1, ,55, ,
1, ,55, ,
-2, ,55, ,
4, ,52, ,
3, ,56, ,
1, ,54, ,
-5, ,54, ,
-1, ,56, ,
1, ,56, ,
0, ,53, ,
0, ,56, ,
4, ,55, ,
1, ,55, ,
4, ,55, ,
0, ,55, ,
1, ,53, ,
4, ,56, ,
4, ,55, ,
0, ,54, ,
5, ,55, ,
5, ,55, ,
3, ,53, ,
-2, ,56, ,
3, ,55, ,
-1, ,54, ,
4, ,55, ,
3, ,55, ,
5, ,52, ,
8, ,57, ,
8, ,54, ,
3, ,55, ,
4, ,55, ,
3, ,56, ,
4, ,53, ,
0, ,56, ,
8, ,55, ,
4, ,55, ,
4, ,55, ,
4, ,55, ,
-1, ,53, ,
0, ,56, ,
4, ,54, ,
0, ,54, ,
8, ,55, ,
9, ,55, ,
5, ,53, ,
3, ,56, ,
6, ,55, ,
3, ,55, ,
5, ,55, ,
4, ,56, ,
6, ,52, ,
8, ,56, ,
5, ,54, ,
-2, ,55, ,
0, ,55, ,
1, ,56, ,
1, ,53, ,
-2, ,56, ,
4, ,55, ,
5, ,55, ,
3, ,55, ,
4, ,55, ,
3, ,52, ,
1, ,56, ,
5, ,54, ,
1, ,54, ,
4, ,55, ,
5, ,56, ,
3, ,53, ,
-1, ,56, ,
4, ,55, ,
3, ,54, ,
3, ,55, ,
-1, ,55, ,
3, ,53, ,
1, ,56, ,
1, ,54, ,
-4, ,55, ,
0, ,55, ,
3, ,55, ,
4, ,53, ,
0, ,55, ,
3, ,48, ,
-2, ,38, ,
-2, ,28, ,
-6, ,18, ,
-5, ,11, ,
1, ,3, ,
3, ,-2, ,
-2, ,-7, ,
-4, ,-11, ,
-6, ,-14, ,
-11, ,-18, ,
-14, ,-21, ,
-9, ,-23, ,
-10, ,-25, ,
-7, ,-27, ,
-7, ,-28, ,
-2, ,-29, ,
-1, ,-31, ,
1, ,-32, ,
-1, ,-32, ,
-1, ,-33, ,
-1, ,-35, ,
-4, ,-35, ,
-9, ,-36, ,
-4, ,-36, ,
-5, ,-36, ,
-4, ,-37, ,
-5, ,-37, ,
-6, ,-37, ,
-4, ,-38, ,
-4, ,-38, ,
-16, ,-38, ,
-2, ,-38, ,
6, ,-38, ,
-2, ,-38, ,
-9, ,-38, ,
-1, ,-38, ,
-5, ,-38, ,
-5, ,-38, ,
-5, ,-38, ,
-1, ,-37, ,
-4, ,-39, ,
-4, ,-38, ,
-9, ,-38, ,
-7, ,-39, ,
-6, ,-38, ,
-2, ,-38, ,
-10, ,-39, ,
1, ,-38, ,
-4, ,-39, ,
-9, ,-38, ,
-10, ,-38, ,
-7, ,-37, ,
-9, ,-39, ,
-4, ,-39, ,
-5, ,-38, ,
0, ,-38, ,
0, ,-38, ,
-4, ,-38, ,
-10, ,-39, ,
-5, ,-38, ,
-9, ,-38, ,
-5, ,-38, ,
-6, ,-38, ,
-4, ,-37, ,
-1, ,-39, ,
-4, ,-38, ,
-7, ,-38, ,
-1, ,-38, ,
-4, ,-38, ,
-4, ,-38, ,
-7, ,-38, ,
-2, ,-38, ,
-2, ,-38, ,
-1, ,-38, ,
-4, ,-38, ,
-5, ,-37, ,
-6, ,-38, ,
-5, ,-38, ,
-9, ,-38, ,
-2, ,-38, ,
-2, ,-38, ,
-1, ,-37, ,
-4, ,-38, ,
-1, ,-38, ,
-1, ,-38, ,
-2, ,-38, ,
-5, ,-38, ,
-2, ,-37, ,
-5, ,-38, ,
-2, ,-38, ,
-6, ,-38, ,
-2, ,-38, ,
5, ,-38, ,
-9, ,-38, ,
-7, ,-38, ,
0, ,-38, ,
1, ,-38, ,
0, ,-38, ,
-2, ,-38, ,
1, ,-38, ,
-2, ,-38, ,
-6, ,-38, ,
-4, ,-38, ,
-4, ,-38, ,
0, ,-38, ,
-2, ,-38, ,
-4, ,-38, ,
1, ,-38, ,
-4, ,-38, ,
-2, ,-38, ,
-6, ,-38, ,
-4, ,-37, ,
-1, ,-38, ,
-1, ,-38, ,
-2, ,-38, ,
0, ,-38, ,
1, ,-38, ,
-1, ,-37, ,
-5, ,-38, ,
1, ,-38, ,
4, ,-38, ,
4, ,-38, ,
1, ,-38, ,
0, ,-38, ,
1, ,-38, ,
0, ,-38, ,
-7, ,-38, ,
-1, ,-38, ,
-1, ,-38, ,
0, ,-37, ,
-5, ,-38, ,
3, ,-38, ,
0, ,-38, ,
0, ,-38, ,
-2, ,-38, ,
-2, ,-37, ,
-1, ,-38, ,
0, ,-38, ,
-4, ,-38, ,
4, ,-38, ,
5, ,-38, ,
4, ,-38, ,
3, ,-38, ,
5, ,-38, ,
3, ,-38, ,
-1, ,-38, ,
0, ,-38, ,
1, ,-37, ,
1, ,-38, ,
3, ,-38, ,
-4, ,-38, ,
3, ,-38, ,
8, ,-38, ,
3, ,-37, ,
1, ,-38, ,
5, ,-38, ,
4, ,-38, ,
6, ,-38, ,
3, ,-38, ,
3, ,-37, ,
1, ,-38, ,
1, ,-38, ,
-1, ,-38, ,
-1, ,-38, ,
4, ,-38, ,
4, ,-37, ,
3, ,-38, ,
6, ,-38, ,
5, ,-38, ,
4, ,-38, ,
0, ,-38, ,
1, ,-37, ,
3, ,-38, ,
3, ,-38, ,
-1, ,-38, ,
4, ,-38, ,
8, ,-38, ,
4, ,-38, ,
0, ,-38, ,
6, ,-38, ,
5, ,-38, ,
4, ,-38, ,
4, ,-38, ,
4, ,-37, ,
4, ,-38, ,
8, ,-38, ,
0, ,-38, ,
3, ,-38, ,
3, ,-38, ,
0, ,-37, ,
-5, ,-38, ,
4, ,-37, ,
6, ,-38, ,
8, ,-38, ,
4, ,-38, ,
3, ,-37, ,
3, ,-38, ,
5, ,-38, ,
-2, ,-38, ,
6, ,-38, ,
5, ,-38, ,
1, ,-37, ,
-1, ,-38, ,
3, ,-38, ,
1, ,-38, ,
1, ,-38, ,
-1, ,-38, ,
4, ,-37, ,
4, ,-38, ,
4, ,-38, ,
1, ,-38, ,
5, ,-38, ,
3, ,-37, ,
1, ,-37, ,
1, ,-38, ,
6, ,-38, ,
6, ,-38, ,
4, ,-38, ,
-1, ,-37, ,
0, ,-37, ,
0, ,-38, ,
3, ,-38, ,
0, ,-38, ,
3, ,-38, ,
9, ,-38, ,
3, ,-37, ,
3, ,-38, ,
9, ,-38, ,
5, ,-37, ,
4, ,-38, ,
1, ,-38, ,
3, ,-37, ,
5, ,-38, ,
1, ,-38, ,
-1, ,-38, ,
1, ,-38, ,
3, ,-38, ,
3, ,-37, ,
-2, ,-38, ,
0, ,-38, ,
4, ,-38, ,
1, ,-37, ,
0, ,-38, ,
6, ,-37, ,
6, ,-38, ,
4, ,-38, ,
-2, ,-38, ,
-2, ,-38, ,
0, ,-38, ,
-1, ,-37, ,
-2, ,-38, ,
4, ,-38, ,
1, ,-37, ,
1, ,-38, ,
-1, ,-38, ,
-1, ,-37, ,
0, ,-38, ,
3, ,-38, ,
0, ,-37, ,
4, ,-38, ,
5, ,-38, ,
3, ,-37, ,
-1, ,-38, ,
0, ,-37, ,
0, ,-38, ,
-2, ,-38, ,
-4, ,-38, ,
-2, ,-37, ,
-2, ,-38, ,
1, ,-38, ,
-6, ,-37, ,
-4, ,-38, ,
1, ,-38, ,
-4, ,-37, ,
-9, ,-38, ,
-4, ,-38, ,
-2, ,-37, ,
1, ,-38, ,
-1, ,-37, ,
-1, ,-37, ,
1, ,-39, ,
0, ,-38, ,
-2, ,-38, ,
-1, ,-38, ,
0, ,-38, ,
-2, ,-38, ,
-7, ,-38, ,
-2, ,-37, ,
-1, ,-38, ,
0, ,-38, ,
-2, ,-37, ,
-1, ,-37, ,
-1, ,-38, ,
-1, ,-38, ,
-5, ,-37, ,
-2, ,-38, ,
1, ,-38, ,
-2, ,-37, ,
-5, ,-38, ,
-1, ,-38, ,
-2, ,-37, ,
-2, ,-37, ,
-4, ,-38, ,
-4, ,-37, ,
-4, ,-38, ,
-1, ,-38, ,
-5, ,-38, ,
0, ,-38, ,
0, ,-38, ,
-4, ,-37, ,
-5, ,-38, ,
-2, ,-38, ,
-1, ,-38, ,
-5, ,-38, ,
-5, ,-38, ,
-5, ,-37, ,
-4, ,-38, ,
-1, ,-38, ,
1, ,-38, ,
-2, ,-38, ,
-4, ,-38, ,
-2, ,-37, ,
-9, ,-38, ,
-5, ,-37, ,
-4, ,-37, ,
-5, ,-38, ,
-4, ,-37, ,
1, ,-37, ,
1, ,-38, ,
0, ,-38, ,
-6, ,-37, ,
0, ,-38, ,
-1, ,-38, ,
-4, ,-37, ,
-2, ,-38, ,
3, ,-37, ,
1, ,-38, ,
-1, ,-37, ,
-4, ,-38, ,
-4, ,-38, ,
-4, ,-38, ,
-2, ,-38, ,
-7, ,-38, ,
-1, ,-38, ,
3, ,-38, ,
1, ,-37, ,
-1, ,-38, ,
1, ,-38, ,
-4, ,-37, ,
-7, ,-38, ,
-7, ,-38, ,
-4, ,-37, ,
-4, ,-38, ,
-4, ,-37, ,
-9, ,-38, ,
-4, ,-38, ,
-1, ,-38, ,
-2, ,-37, ,
-6, ,-38, ,
0, ,-37, ,
-2, ,-38, ,
0, ,-38, ,
0, ,-38, ,
1, ,-37, ,
1, ,-38, ,
1, ,-38, ,
-6, ,-38, ,
-2, ,-38, ,
-1, ,-38, ,
-4, ,-37, ,
-7, ,-38, ,
-1, ,-38, ,
-2, ,-38, ,
-2, ,-38, ,
-6, ,-38, ,
-4, ,-37, ,
-1, ,-38, ,
-1, ,-38, ,
-5, ,-38, ,
0, ,-38, ,
1, ,-38, ,
0, ,-38, ,
0, ,-38, ,
0, ,-37, ,
1, ,-38, ,
0, ,-38, ,
-4, ,-38, ,
-1, ,-37, ,
-2, ,-38, ,
-1, ,-38, ,
-5, ,-38, ,
0, ,-38, ,
4, ,-37, ,
1, ,-38, ,
0, ,-38, ,
1, ,-38, ,
1, ,-38, ,
0, ,-38, ,
-2, ,-38, ,
0, ,-37, ,
1, ,-38, ,
1, ,-37, ,
-1, ,-38, ,
3, ,-38, ,
3, ,-38, ,
3, ,-37, ,
-1, ,-38, ,
5, ,-37, ,
1, ,-38, ,
1, ,-38, ,
1, ,-38, ,
0, ,-37, ,
3, ,-38, ,
3, ,-38, ,
-2, ,-37, ,
1, ,-38, ,
3, ,-38, ,
3, ,-37, ,
-1, ,-38, ,
5, ,-38, ,
4, ,-37, ,
5, ,-38, ,
3, ,-38, ,
0, ,-37, ,
-1, ,-38, ,
0, ,-37, ,
-4, ,-37, ,
1, ,-38, ,
6, ,-38, ,
3, ,-38, ,
-1, ,-38, ,
5, ,-37, ,
3, ,-38, ,
-1, ,-38, ,
-1, ,-38, ,
0, ,-37, ,
3, ,-38, ,
6, ,-38, ,
0, ,-37, ,
4, ,-38, ,
4, ,-38, ,
0, ,-37, ,
-1, ,-38, ,
4, ,-38, ,
4, ,-37, ,
3, ,-38, ,
0, ,-38, ,
4, ,-37, ,
3, ,-38, ,
1, ,-37, ,
-4, ,-37, ,
1, ,-38, ,
3, ,-37, ,
3, ,-37, ,
-2, ,-38, ,
1, ,-38, ,
3, ,-38, ,
1, ,-38, ,
-1, ,-38, ,
1, ,-37, ,
3, ,-38, ,
1, ,-38, ,
-5, ,-38, ,
3, ,-38, ,
5, ,-38, ,
4, ,-37, ,
1, ,-38, ,
6, ,-37, ,
4, ,-37, ,
4, ,-38, ,
0, ,-37, ,
3, ,-37, ,
4, ,-38, ,
4, ,-37, ,
-2, ,-37, ,
1, ,-38, ,
4, ,-38, ,
3, ,-38, ,
0, ,-38, ,
4, ,-37, ,
3, ,-38, ,
3, ,-38, ,
3, ,-38, ,
1, ,-37, ,
5, ,-38, ,
4, ,-38, ,
-1, ,-37, ,
4, ,-38, ,
4, ,-37, ,
1, ,-37, ,
-4, ,-38, ,
1, ,-38, ,
0, ,-38, ,
1, ,-38, ,
3, ,-38, ,
4, ,-37, ,
4, ,-38, ,
5, ,-38, ,
-2, ,-38, ,
1, ,-38, ,
1, ,-38, ,
3, ,-37, ,
-2, ,-38, ,
4, ,-37, ,
3, ,-38, ,
4, ,-38, ,
0, ,-38, ,
0, ,-38, ,
-1, ,-38, ,
3, ,-38, ,
-5, ,-38, ,
1, ,-38, ,
3, ,-38, ,
-2, ,-37, ,
-4, ,-38, ,
0, ,-38, ,
0, ,-37, ,
1, ,-38, ,
-1, ,-37, ,
0, ,-37, ,
5, ,-38, ,
5, ,-38, ,
0, ,-38, ,
3, ,-38, ,
1, ,-38, ,
-2, ,-37, ,
-5, ,-38, ,
1, ,-37, ,
-1, ,-38, ,
-2, ,-37, ,
-2, ,-38, ,
0, ,-37, ,
1, ,-38, ,
-4, ,-38, ,
-1, ,-37, ,
0, ,-38, ,
1, ,-38, ,
-1, ,-37, ,
-5, ,-38, ,
1, ,-38, ,
-2, ,-38, ,
0, ,-37, ,
1, ,-37, ,
3, ,-37, ,
5, ,-38, ,
0, ,-38, ,
-4, ,-38, ,
-1, ,-38, ,
-4, ,-38, ,
-2, ,-37, ,
-4, ,-38, ,
4, ,-38, ,
1, ,-38, ,
0, ,-38, ,
-4, ,-38, ,
0, ,-37, ,
1, ,-38, ,
1, ,-38, ,
-4, ,-38, ,
1, ,-38, ,
0, ,-38, ,
-2, ,-38, ,
-6, ,-38, ,
-4, ,-37, ,
-5, ,-37, ,
-5, ,-38, ,
-5, ,-37, ,
1, ,-37, ,
1, ,-38, ,
3, ,-38, ,
-1, ,-38, ,
0, ,-38, ,
0, ,-38, ,
-2, ,-37, ,
-7, ,-38, ,
0, ,-37, ,
-2, ,-38, ,
0, ,-38, ,
-1, ,-38, ,
3, ,-37, ,
0, ,-38, ,
3, ,-38, ,
-5, ,-37, ,
-2, ,-38, ,
1, ,-38, ,
1, ,-37, ,
-2, ,-38, ,
4, ,-38, ,
0, ,-38, ,
0, ,-38, ,
-5, ,-38, ,
-4, ,-37, ,
-2, ,-38, ,
-2, ,-38, ,
-5, ,-37, ,
-1, ,-38, ,
1, ,-38, ,
0, ,-37, ,
-4, ,-38, ,
1, ,-38, ,
0, ,-38, ,
-4, ,-38, ,
-5, ,-38, ,
-1, ,-37, ,
1, ,-38, ,
0, ,-38, ,
0, ,-38, ,
1, ,-38, ,
1, ,-38, ,
-2, ,-37, ,
-6, ,-38, ,
-4, ,-37, ,
-5, ,-38, ,
-4, ,-38, ,
-4, ,-38, ,
-1, ,-37, ,
1, ,-38, ,
1, ,-38, ,
-4, ,-38, ,
1, ,-38, ,
0, ,-38, ,
1, ,-38, ,
-2, ,-38, ,
0, ,-37, ,
3, ,-38, ,
0, ,-38, ,
0, ,-38, ,
0, ,-37, ,
-1, ,-38, ,
0, ,-38, ,
-7, ,-37, ,
-1, ,-38, ,
3, ,-38, ,
