src/vary_am2_1411/temp0000868.CSV

Format,1.0B,
Memory Length,10000,Memory Length,10000,
IntpDistance,0,IntpDistance,0,
Trigger Address,4999,Trigger Address,4999,
Trigger Level,-1.000E+00,Trigger Level,-1.000E+00,
Source,CH1,Source,CH2,
Vertical Units,V,Vertical Units,V,
Vertical Units Div,0,Vertical Units Div,0,
Vertical Units Extend Div,16,Vertical Units Extend Div,16,
Label,,Label,,
Probe Type,0,Probe Type,0,
Probe Ratio,1.000e+01,Probe Ratio,1.000e+00,
Vertical Scale,2.000e-02,Vertical Scale,1.000e+00,
Vertical Position,-5.120e-02,Vertical Position,2.000e-01,
Horizontal Units,S,Horizontal Units,S,
Horizontal Scale,1.000E-05,Horizontal Scale,1.000E-05,
Horizontal Position,0.000E+00,Horizontal Position,0.000E+00,
Horizontal Mode,Main,Horizontal Mode,Main,
SincET Mode,Real Time,SincET Mode,Real Time,
Sampling Period,1.000e-08,Sampling Period,1.000e-08,
Horizontal Old Scale,1.000E-05,Horizontal Old Scale,1.000E-05,
Horizontal Old Position,0.000E+00,Horizontal Old Position,0.000E+00,
Firmware,V1.23,Firmware,V1.23,
Mode,Fast,Mode,Fast,
Waveform Data,,Waveform Data,,
-5, ,-52, ,
-1, ,-51, ,
-2, ,-52, ,
-4, ,-52, ,
-5, ,-51, ,
-1, ,-52, ,
0, ,-52, ,
0, ,-52, ,
-2, ,-52, ,
5, ,-52, ,
6, ,-51, ,
0, ,-54, ,
-5, ,-52, ,
-2, ,-51, ,
-1, ,-52, ,
-4, ,-52, ,
-6, ,-51, ,
-1, ,-54, ,
-1, ,-52, ,
3, ,-52, ,
-5, ,-52, ,
-1, ,-52, ,
1, ,-52, ,
0, ,-52, ,
-1, ,-52, ,
1, ,-51, ,
-1, ,-52, ,
-1, ,-52, ,
-1, ,-51, ,
3, ,-54, ,
1, ,-52, ,
1, ,-52, ,
-2, ,-52, ,
-1, ,-52, ,
0, ,-52, ,
-1, ,-52, ,
-4, ,-52, ,
1, ,-52, ,
1, ,-52, ,
1, ,-52, ,
-2, ,-51, ,
-2, ,-52, ,
-2, ,-52, ,
-1, ,-52, ,
-1, ,-52, ,
3, ,-52, ,
3, ,-52, ,
3, ,-52, ,
-1, ,-52, ,
4, ,-51, ,
-1, ,-52, ,
-1, ,-52, ,
-1, ,-51, ,
1, ,-52, ,
1, ,-52, ,
1, ,-52, ,
-4, ,-52, ,
0, ,-52, ,
0, ,-52, ,
0, ,-52, ,
-4, ,-52, ,
3, ,-52, ,
3, ,-52, ,
0, ,-52, ,
0, ,-51, ,
3, ,-52, ,
-1, ,-52, ,
1, ,-52, ,
-1, ,-52, ,
0, ,-52, ,
0, ,-52, ,
-1, ,-54, ,
-2, ,-52, ,
1, ,-51, ,
-1, ,-52, ,
-1, ,-52, ,
1, ,-51, ,
4, ,-52, ,
0, ,-52, ,
1, ,-52, ,
-4, ,-52, ,
-1, ,-52, ,
0, ,-51, ,
0, ,-54, ,
-1, ,-52, ,
3, ,-51, ,
0, ,-52, ,
1, ,-52, ,
-2, ,-51, ,
-1, ,-52, ,
-1, ,-52, ,
-1, ,-52, ,
-5, ,-52, ,
-1, ,-52, ,
3, ,-52, ,
1, ,-54, ,
-1, ,-52, ,
3, ,-52, ,
0, ,-52, ,
3, ,-52, ,
-1, ,-51, ,
0, ,-52, ,
3, ,-52, ,
3, ,-52, ,
-4, ,-52, ,
1, ,-52, ,
-1, ,-51, ,
0, ,-54, ,
-5, ,-52, ,
6, ,-52, ,
1, ,-52, ,
3, ,-52, ,
6, ,-51, ,
4, ,-52, ,
4, ,-52, ,
4, ,-52, ,
-6, ,-52, ,
-1, ,-52, ,
-2, ,-51, ,
-1, ,-54, ,
-4, ,-52, ,
1, ,-52, ,
4, ,-52, ,
5, ,-52, ,
4, ,-51, ,
4, ,-52, ,
6, ,-52, ,
5, ,-52, ,
-1, ,-52, ,
3, ,-52, ,
5, ,-52, ,
3, ,-52, ,
-1, ,-52, ,
4, ,-52, ,
1, ,-52, ,
-2, ,-52, ,
-1, ,-51, ,
4, ,-52, ,
4, ,-52, ,
4, ,-52, ,
0, ,-52, ,
1, ,-52, ,
3, ,-51, ,
1, ,-54, ,
-1, ,-52, ,
6, ,-51, ,
3, ,-52, ,
6, ,-52, ,
3, ,-51, ,
3, ,-52, ,
1, ,-52, ,
0, ,-52, ,
-4, ,-52, ,
-4, ,-52, ,
0, ,-51, ,
3, ,-52, ,
-2, ,-52, ,
4, ,-52, ,
3, ,-52, ,
1, ,-52, ,
4, ,-51, ,
5, ,-52, ,
3, ,-52, ,
4, ,-52, ,
-1, ,-52, ,
4, ,-52, ,
4, ,-51, ,
1, ,-52, ,
-2, ,-52, ,
4, ,-51, ,
3, ,-52, ,
0, ,-52, ,
0, ,-51, ,
-1, ,-52, ,
3, ,-52, ,
1, ,-52, ,
-4, ,-52, ,
3, ,-52, ,
1, ,-52, ,
5, ,-54, ,
1, ,-52, ,
4, ,-52, ,
4, ,-52, ,
1, ,-54, ,
0, ,-51, ,
4, ,-52, ,
4, ,-52, ,
4, ,-52, ,
-1, ,-52, ,
1, ,-52, ,
1, ,-52, ,
-2, ,-52, ,
-2, ,-52, ,
3, ,-52, ,
3, ,-52, ,
4, ,-52, ,
1, ,-51, ,
4, ,-52, ,
1, ,-52, ,
3, ,-52, ,
-2, ,-52, ,
1, ,-52, ,
4, ,-52, ,
1, ,-52, ,
0, ,-52, ,
3, ,-52, ,
1, ,-52, ,
3, ,-54, ,
1, ,-51, ,
1, ,-52, ,
1, ,-52, ,
1, ,-52, ,
-1, ,-52, ,
5, ,-52, ,
8, ,-51, ,
4, ,-54, ,
1, ,-52, ,
3, ,-51, ,
-1, ,-52, ,
0, ,-52, ,
-1, ,-51, ,
0, ,-52, ,
4, ,-52, ,
4, ,-52, ,
-1, ,-52, ,
1, ,-52, ,
0, ,-52, ,
1, ,-54, ,
-4, ,-52, ,
5, ,-52, ,
1, ,-52, ,
0, ,-54, ,
-1, ,-51, ,
0, ,-52, ,
1, ,-52, ,
3, ,-52, ,
-1, ,-52, ,
4, ,-52, ,
0, ,-51, ,
-6, ,-54, ,
-6, ,-52, ,
-4, ,-52, ,
-2, ,-52, ,
3, ,-52, ,
4, ,-52, ,
-1, ,-54, ,
-1, ,-52, ,
3, ,-51, ,
-5, ,-52, ,
-1, ,-52, ,
3, ,-51, ,
3, ,-52, ,
0, ,-52, ,
4, ,-52, ,
1, ,-52, ,
-5, ,-52, ,
-6, ,-51, ,
-2, ,-52, ,
-2, ,-52, ,
4, ,-52, ,
-2, ,-52, ,
3, ,-52, ,
4, ,-51, ,
-1, ,-54, ,
-2, ,-52, ,
-1, ,-51, ,
-4, ,-52, ,
0, ,-52, ,
-1, ,-51, ,
3, ,-54, ,
4, ,-52, ,
3, ,-52, ,
-4, ,-52, ,
8, ,-52, ,
6, ,-51, ,
-4, ,-54, ,
-2, ,-52, ,
0, ,-52, ,
1, ,-52, ,
0, ,-52, ,
0, ,-51, ,
3, ,-54, ,
3, ,-52, ,
4, ,-52, ,
1, ,-52, ,
3, ,-52, ,
5, ,-51, ,
3, ,-54, ,
0, ,-52, ,
6, ,-51, ,
4, ,-52, ,
0, ,-52, ,
1, ,-51, ,
1, ,-52, ,
3, ,-52, ,
3, ,-52, ,
-4, ,-52, ,
1, ,-52, ,
1, ,-52, ,
0, ,-52, ,
-1, ,-52, ,
3, ,-52, ,
1, ,-52, ,
0, ,-52, ,
-4, ,-51, ,
0, ,-52, ,
1, ,-52, ,
4, ,-51, ,
-11, ,-51, ,
3, ,-48, ,
0, ,-39, ,
4, ,-29, ,
8, ,-19, ,
5, ,-11, ,
5, ,-4, ,
4, ,2, ,
-2, ,8, ,
4, ,12, ,
9, ,16, ,
14, ,19, ,
6, ,22, ,
10, ,26, ,
8, ,27, ,
4, ,30, ,
0, ,31, ,
5, ,32, ,
4, ,34, ,
4, ,35, ,
3, ,35, ,
3, ,36, ,
3, ,37, ,
1, ,37, ,
-2, ,38, ,
5, ,39, ,
5, ,38, ,
3, ,39, ,
1, ,39, ,
4, ,40, ,
1, ,40, ,
4, ,40, ,
-1, ,39, ,
-2, ,40, ,
0, ,40, ,
3, ,40, ,
-2, ,40, ,
3, ,40, ,
4, ,40, ,
6, ,40, ,
3, ,40, ,
5, ,40, ,
4, ,41, ,
5, ,40, ,
1, ,39, ,
4, ,41, ,
3, ,40, ,
6, ,40, ,
-4, ,40, ,
0, ,41, ,
1, ,40, ,
0, ,41, ,
0, ,40, ,
4, ,40, ,
5, ,41, ,
5, ,40, ,
1, ,40, ,
3, ,41, ,
3, ,41, ,
5, ,40, ,
-1, ,41, ,
5, ,40, ,
5, ,39, ,
1, ,41, ,
0, ,40, ,
4, ,40, ,
4, ,40, ,
1, ,40, ,
0, ,39, ,
1, ,40, ,
-1, ,40, ,
1, ,40, ,
-2, ,40, ,
4, ,40, ,
4, ,39, ,
4, ,41, ,
1, ,40, ,
8, ,40, ,
5, ,40, ,
6, ,40, ,
3, ,39, ,
1, ,40, ,
4, ,40, ,
4, ,40, ,
0, ,40, ,
4, ,40, ,
4, ,39, ,
3, ,41, ,
-1, ,40, ,
4, ,40, ,
1, ,40, ,
1, ,40, ,
-1, ,39, ,
3, ,40, ,
1, ,40, ,
4, ,40, ,
-1, ,40, ,
3, ,40, ,
5, ,39, ,
3, ,41, ,
-4, ,40, ,
5, ,40, ,
3, ,40, ,
6, ,40, ,
5, ,39, ,
3, ,40, ,
1, ,40, ,
0, ,40, ,
-7, ,40, ,
0, ,40, ,
1, ,39, ,
3, ,41, ,
3, ,40, ,
6, ,40, ,
6, ,40, ,
4, ,40, ,
1, ,39, ,
4, ,40, ,
4, ,40, ,
5, ,40, ,
1, ,40, ,
4, ,40, ,
5, ,39, ,
3, ,40, ,
0, ,40, ,
4, ,40, ,
1, ,40, ,
1, ,40, ,
-1, ,39, ,
5, ,41, ,
5, ,40, ,
6, ,40, ,
1, ,40, ,
3, ,40, ,
5, ,39, ,
3, ,40, ,
-4, ,40, ,
4, ,40, ,
4, ,40, ,
4, ,40, ,
0, ,39, ,
4, ,40, ,
4, ,40, ,
1, ,40, ,
-4, ,40, ,
1, ,40, ,
4, ,39, ,
1, ,40, ,
-2, ,40, ,
6, ,40, ,
3, ,40, ,
3, ,40, ,
-1, ,39, ,
-1, ,40, ,
3, ,40, ,
0, ,40, ,
-4, ,40, ,
1, ,40, ,
3, ,39, ,
1, ,40, ,
-1, ,39, ,
4, ,40, ,
3, ,40, ,
1, ,40, ,
-1, ,39, ,
1, ,40, ,
1, ,40, ,
3, ,39, ,
-5, ,40, ,
1, ,40, ,
3, ,39, ,
-2, ,41, ,
-5, ,39, ,
-1, ,40, ,
-2, ,40, ,
0, ,40, ,
0, ,39, ,
3, ,40, ,
1, ,40, ,
3, ,40, ,
-4, ,40, ,
1, ,40, ,
1, ,39, ,
-1, ,40, ,
-4, ,40, ,
0, ,40, ,
0, ,40, ,
-1, ,40, ,
-5, ,39, ,
-1, ,40, ,
-1, ,40, ,
0, ,40, ,
-6, ,40, ,
-2, ,40, ,
-1, ,39, ,
1, ,40, ,
-2, ,39, ,
4, ,40, ,
1, ,40, ,
4, ,40, ,
0, ,39, ,
0, ,40, ,
1, ,40, ,
-1, ,40, ,
-1, ,40, ,
0, ,40, ,
3, ,39, ,
0, ,40, ,
-4, ,40, ,
1, ,40, ,
-4, ,40, ,
-1, ,40, ,
-4, ,39, ,
0, ,40, ,
3, ,40, ,
6, ,39, ,
-1, ,40, ,
3, ,40, ,
5, ,39, ,
0, ,40, ,
-4, ,39, ,
1, ,40, ,
0, ,40, ,
3, ,40, ,
0, ,39, ,
3, ,40, ,
4, ,40, ,
3, ,39, ,
-5, ,40, ,
-1, ,40, ,
0, ,39, ,
-1, ,40, ,
-1, ,39, ,
3, ,40, ,
3, ,40, ,
0, ,40, ,
-1, ,39, ,
1, ,40, ,
0, ,40, ,
3, ,39, ,
-4, ,40, ,
3, ,40, ,
1, ,39, ,
-2, ,40, ,
-5, ,40, ,
-1, ,40, ,
-2, ,40, ,
-2, ,40, ,
-6, ,39, ,
0, ,40, ,
4, ,40, ,
3, ,40, ,
1, ,40, ,
1, ,40, ,
3, ,39, ,
1, ,41, ,
-5, ,39, ,
0, ,40, ,
0, ,40, ,
0, ,40, ,
-2, ,39, ,
0, ,40, ,
1, ,40, ,
4, ,39, ,
-1, ,40, ,
3, ,40, ,
5, ,39, ,
3, ,40, ,
-2, ,39, ,
3, ,40, ,
-1, ,40, ,
0, ,40, ,
-1, ,39, ,
-2, ,40, ,
3, ,40, ,
4, ,39, ,
0, ,40, ,
3, ,40, ,
1, ,39, ,
1, ,40, ,
-2, ,39, ,
3, ,40, ,
3, ,40, ,
3, ,40, ,
3, ,39, ,
1, ,40, ,
3, ,40, ,
3, ,39, ,
-1, ,40, ,
5, ,40, ,
4, ,39, ,
4, ,40, ,
0, ,39, ,
4, ,39, ,
0, ,40, ,
0, ,40, ,
0, ,39, ,
4, ,40, ,
4, ,40, ,
5, ,40, ,
3, ,40, ,
4, ,40, ,
1, ,39, ,
-1, ,40, ,
-5, ,39, ,
0, ,40, ,
-2, ,40, ,
1, ,40, ,
3, ,39, ,
6, ,40, ,
3, ,40, ,
4, ,39, ,
-1, ,40, ,
3, ,40, ,
6, ,39, ,
3, ,40, ,
4, ,40, ,
6, ,40, ,
0, ,40, ,
4, ,40, ,
0, ,39, ,
3, ,40, ,
6, ,39, ,
6, ,39, ,
3, ,40, ,
8, ,40, ,
9, ,39, ,
6, ,40, ,
1, ,39, ,
4, ,40, ,
1, ,40, ,
1, ,40, ,
-1, ,39, ,
3, ,40, ,
5, ,40, ,
6, ,40, ,
4, ,40, ,
4, ,40, ,
5, ,39, ,
3, ,40, ,
-1, ,40, ,
6, ,40, ,
3, ,40, ,
3, ,40, ,
1, ,39, ,
0, ,40, ,
3, ,40, ,
3, ,39, ,
-4, ,40, ,
3, ,40, ,
4, ,39, ,
4, ,40, ,
-1, ,39, ,
3, ,40, ,
5, ,40, ,
6, ,40, ,
3, ,39, ,
8, ,40, ,
4, ,40, ,
8, ,39, ,
-1, ,40, ,
4, ,40, ,
8, ,39, ,
1, ,40, ,
3, ,39, ,
5, ,40, ,
3, ,40, ,
6, ,40, ,
4, ,39, ,
3, ,40, ,
4, ,40, ,
6, ,40, ,
1, ,40, ,
5, ,40, ,
9, ,39, ,
5, ,40, ,
5, ,39, ,
8, ,40, ,
5, ,40, ,
3, ,40, ,
-1, ,39, ,
3, ,40, ,
4, ,40, ,
6, ,39, ,
4, ,40, ,
8, ,40, ,
8, ,39, ,
5, ,40, ,
-4, ,39, ,
4, ,40, ,
1, ,40, ,
5, ,40, ,
4, ,39, ,
4, ,40, ,
6, ,40, ,
4, ,40, ,
-1, ,40, ,
0, ,40, ,
1, ,39, ,
3, ,40, ,
0, ,39, ,
5, ,40, ,
5, ,40, ,
5, ,40, ,
1, ,39, ,
-1, ,40, ,
3, ,40, ,
1, ,40, ,
-4, ,40, ,
3, ,40, ,
3, ,39, ,
4, ,40, ,
1, ,39, ,
4, ,40, ,
3, ,40, ,
3, ,40, ,
-1, ,39, ,
3, ,40, ,
3, ,40, ,
0, ,40, ,
-2, ,40, ,
9, ,40, ,
3, ,39, ,
1, ,40, ,
3, ,40, ,
5, ,40, ,
4, ,40, ,
0, ,40, ,
-1, ,39, ,
1, ,40, ,
-1, ,40, ,
1, ,40, ,
-4, ,40, ,
0, ,40, ,
3, ,39, ,
1, ,40, ,
-2, ,39, ,
6, ,40, ,
3, ,40, ,
3, ,40, ,
1, ,39, ,
3, ,40, ,
0, ,40, ,
4, ,40, ,
-1, ,40, ,
1, ,40, ,
4, ,39, ,
0, ,40, ,
-4, ,39, ,
3, ,40, ,
5, ,40, ,
1, ,40, ,
-7, ,39, ,
1, ,40, ,
-5, ,40, ,
0, ,40, ,
-1, ,40, ,
0, ,40, ,
4, ,39, ,
0, ,40, ,
1, ,39, ,
5, ,40, ,
3, ,40, ,
0, ,40, ,
-2, ,39, ,
-1, ,40, ,
0, ,40, ,
3, ,39, ,
-7, ,40, ,
-1, ,40, ,
-1, ,39, ,
-1, ,40, ,
-5, ,39, ,
0, ,40, ,
4, ,40, ,
3, ,40, ,
3, ,39, ,
5, ,40, ,
1, ,40, ,
4, ,39, ,
-4, ,40, ,
1, ,40, ,
3, ,39, ,
-1, ,40, ,
-4, ,39, ,
3, ,40, ,
1, ,40, ,
1, ,40, ,
-1, ,39, ,
0, ,40, ,
0, ,40, ,
1, ,39, ,
-6, ,40, ,
-1, ,40, ,
1, ,40, ,
-1, ,40, ,
-2, ,39, ,
0, ,40, ,
-2, ,40, ,
-1, ,40, ,
-5, ,39, ,
-1, ,40, ,
-1, ,40, ,
1, ,39, ,
-1, ,40, ,
0, ,40, ,
3, ,39, ,
-1, ,40, ,
-6, ,39, ,
0, ,40, ,
-2, ,40, ,
0, ,40, ,
-2, ,39, ,
-1, ,40, ,
1, ,40, ,
1, ,39, ,
-2, ,40, ,
0, ,40, ,
-1, ,39, ,
0, ,40, ,
-5, ,39, ,
1, ,40, ,
1, ,40, ,
1, ,40, ,
-1, ,39, ,
3, ,40, ,
1, ,40, ,
1, ,39, ,
-2, ,40, ,
0, ,40, ,
1, ,39, ,
-1, ,40, ,
-4, ,40, ,
3, ,40, ,
-2, ,40, ,
1, ,40, ,
-2, ,39, ,
-1, ,40, ,
1, ,40, ,
4, ,40, ,
-2, ,40, ,
3, ,40, ,
1, ,39, ,
-2, ,40, ,
-6, ,39, ,
0, ,40, ,
-1, ,40, ,
-1, ,40, ,
-4, ,39, ,
0, ,40, ,
-1, ,40, ,
3, ,40, ,
-5, ,40, ,
1, ,40, ,
1, ,39, ,
-1, ,40, ,
-4, ,39, ,
3, ,40, ,
-4, ,40, ,
0, ,40, ,
-1, ,39, ,
3, ,40, ,
5, ,40, ,
6, ,40, ,
0, ,40, ,
0, ,40, ,
1, ,39, ,
0, ,40, ,
-6, ,39, ,
0, ,40, ,
-1, ,40, ,
-1, ,40, ,
-2, ,38, ,
1, ,40, ,
1, ,40, ,
3, ,40, ,
0, ,40, ,
3, ,39, ,
3, ,39, ,
1, ,40, ,
-1, ,39, ,
6, ,40, ,
4, ,40, ,
0, ,40, ,
0, ,39, ,
0, ,40, ,
1, ,40, ,
1, ,39, ,
-2, ,40, ,
1, ,40, ,
1, ,39, ,
0, ,40, ,
-4, ,39, ,
3, ,40, ,
1, ,40, ,
1, ,40, ,
0, ,39, ,
3, ,40, ,
4, ,40, ,
5, ,39, ,
-2, ,40, ,
1, ,40, ,
1, ,39, ,
-1, ,41, ,
-6, ,39, ,
3, ,40, ,
1, ,40, ,
5, ,40, ,
1, ,39, ,
4, ,40, ,
3, ,40, ,
4, ,39, ,
-2, ,40, ,
1, ,40, ,
3, ,40, ,
0, ,40, ,
-1, ,39, ,
4, ,40, ,
1, ,40, ,
4, ,40, ,
0, ,39, ,
0, ,40, ,
1, ,40, ,
5, ,39, ,
-1, ,40, ,
1, ,40, ,
6, ,39, ,
4, ,40, ,
0, ,39, ,
5, ,40, ,
1, ,40, ,
4, ,40, ,
-1, ,39, ,
1, ,40, ,
4, ,40, ,
5, ,40, ,
1, ,40, ,
4, ,40, ,
4, ,39, ,
3, ,40, ,
-1, ,39, ,
3, ,40, ,
3, ,40, ,
1, ,40, ,
1, ,39, ,
3, ,40, ,
5, ,40, ,
6, ,40, ,
-1, ,40, ,
0, ,40, ,
0, ,39, ,
-1, ,40, ,
-4, ,39, ,
3, ,40, ,
3, ,40, ,
5, ,40, ,
1, ,39, ,
1, ,40, ,
4, ,40, ,
3, ,40, ,
0, ,40, ,
4, ,40, ,
3, ,39, ,
3, ,40, ,
1, ,40, ,
5, ,40, ,
5, ,40, ,
3, ,40, ,
1, ,39, ,
0, ,40, ,
0, ,40, ,
4, ,40, ,
0, ,40, ,
5, ,40, ,
6, ,39, ,
4, ,40, ,
0, ,40, ,
3, ,40, ,
-1, ,40, ,
1, ,40, ,
-1, ,39, ,
4, ,40, ,
6, ,40, ,
4, ,40, ,
3, ,40, ,
3, ,40, ,
4, ,39, ,
1, ,40, ,
1, ,39, ,
5, ,40, ,
3, ,40, ,
3, ,40, ,
-2, ,39, ,
0, ,40, ,
0, ,40, ,
3, ,40, ,
0, ,40, ,
4, ,40, ,
9, ,39, ,
5, ,40, ,
3, ,39, ,
8, ,40, ,
4, ,40, ,
5, ,40, ,
1, ,39, ,
-1, ,40, ,
1, ,40, ,
0, ,39, ,
-6, ,40, ,
0, ,40, ,
1, ,39, ,
3, ,40, ,
0, ,40, ,
5, ,39, ,
4, ,40, ,
1, ,39, ,
0, ,39, ,
1, ,40, ,
1, ,40, ,
4, ,40, ,
-2, ,40, ,
3, ,40, ,
8, ,39, ,
4, ,40, ,
0, ,39, ,
4, ,40, ,
3, ,40, ,
3, ,40, ,
0, ,39, ,
3, ,40, ,
3, ,40, ,
3, ,40, ,
-2, ,40, ,
0, ,40, ,
3, ,39, ,
3, ,40, ,
1, ,39, ,
5, ,40, ,
3, ,40, ,
4, ,40, ,
0, ,39, ,
0, ,40, ,
-1, ,40, ,
1, ,40, ,
-4, ,40, ,
0, ,40, ,
5, ,39, ,
4, ,40, ,
1, ,39, ,
5, ,40, ,
-1, ,40, ,
-1, ,40, ,
-2, ,39, ,
-1, ,40, ,
0, ,40, ,
3, ,40, ,
-4, ,40, ,
1, ,40, ,
3, ,39, ,
3, ,40, ,
-2, ,40, ,
5, ,40, ,
4, ,40, ,
-1, ,40, ,
0, ,39, ,
0, ,40, ,
3, ,40, ,
4, ,39, ,
-2, ,40, ,
0, ,40, ,
3, ,39, ,
0, ,40, ,
-2, ,39, ,
4, ,40, ,
1, ,40, ,
3, ,40, ,
-1, ,39, ,
4, ,40, ,
-1, ,40, ,
1, ,40, ,
1, ,40, ,
4, ,40, ,
5, ,38, ,
0, ,32, ,
-7, ,21, ,
-2, ,12, ,
-4, ,2, ,
-4, ,-5, ,
-6, ,-11, ,
-9, ,-17, ,
-10, ,-22, ,
-11, ,-26, ,
-20, ,-30, ,
-12, ,-33, ,
-4, ,-36, ,
-6, ,-39, ,
-10, ,-41, ,
-6, ,-42, ,
-7, ,-44, ,
-2, ,-45, ,
3, ,-45, ,
9, ,-48, ,
10, ,-48, ,
11, ,-48, ,
11, ,-49, ,
10, ,-50, ,
6, ,-50, ,
0, ,-51, ,
-11, ,-51, ,
-6, ,-51, ,
-6, ,-51, ,
-5, ,-52, ,
-9, ,-51, ,
0, ,-52, ,
-1, ,-52, ,
-1, ,-52, ,
-4, ,-52, ,
-1, ,-52, ,
-4, ,-52, ,
-4, ,-54, ,
-7, ,-54, ,
-1, ,-52, ,
-1, ,-54, ,
-2, ,-54, ,
-2, ,-52, ,
-2, ,-54, ,
1, ,-54, ,
3, ,-52, ,
-1, ,-54, ,
3, ,-54, ,
3, ,-52, ,
3, ,-54, ,
-1, ,-52, ,
0, ,-52, ,
-1, ,-52, ,
-6, ,-54, ,
-6, ,-52, ,
-4, ,-54, ,
0, ,-54, ,
4, ,-52, ,
-2, ,-54, ,
4, ,-52, ,
6, ,-52, ,
-2, ,-54, ,
-4, ,-52, ,
-1, ,-52, ,
-5, ,-52, ,
-2, ,-54, ,
-5, ,-52, ,
-2, ,-54, ,
0, ,-54, ,
3, ,-52, ,
-4, ,-52, ,
1, ,-52, ,
3, ,-52, ,
0, ,-54, ,
-2, ,-52, ,
0, ,-52, ,
6, ,-52, ,
-4, ,-54, ,
-5, ,-52, ,
3, ,-54, ,
5, ,-52, ,
0, ,-52, ,
3, ,-52, ,
3, ,-52, ,
3, ,-52, ,
-2, ,-54, ,
-4, ,-52, ,
4, ,-52, ,
1, ,-52, ,
5, ,-52, ,
3, ,-51, ,
9, ,-54, ,
3, ,-52, ,
-4, ,-52, ,
-1, ,-52, ,
0, ,-52, ,
3, ,-52, ,
3, ,-54, ,
-1, ,-52, ,
8, ,-52, ,
6, ,-52, ,
3, ,-52, ,
3, ,-52, ,
4, ,-52, ,
3, ,-52, ,
3, ,-52, ,
0, ,-52, ,
3, ,-52, ,
4, ,-51, ,
0, ,-54, ,
-4, ,-52, ,
3, ,-52, ,
0, ,-52, ,
1, ,-52, ,
4, ,-52, ,
5, ,-52, ,
5, ,-52, ,
6, ,-52, ,
-2, ,-52, ,
1, ,-52, ,
1, ,-52, ,
-1, ,-54, ,
-5, ,-52, ,
5, ,-52, ,
4, ,-52, ,
4, ,-54, ,
3, ,-51, ,
4, ,-52, ,
4, ,-52, ,
4, ,-52, ,
-4, ,-52, ,
0, ,-52, ,
3, ,-52, ,
-2, ,-54, ,
-4, ,-52, ,
3, ,-51, ,
1, ,-52, ,
1, ,-52, ,
0, ,-51, ,
3, ,-52, ,
6, ,-52, ,
6, ,-52, ,
0, ,-52, ,
3, ,-52, ,
5, ,-51, ,
1, ,-54, ,
-2, ,-52, ,
0, ,-52, ,
0, ,-52, ,
0, ,-52, ,
0, ,-51, ,
1, ,-52, ,
4, ,-52, ,
5, ,-52, ,
3, ,-52, ,
6, ,-52, ,
8, ,-52, ,
4, ,-54, ,
1, ,-52, ,
5, ,-52, ,
4, ,-52, ,
4, ,-52, ,
5, ,-51, ,
3, ,-52, ,
5, ,-52, ,
4, ,-52, ,
-4, ,-52, ,
0, ,-52, ,
1, ,-52, ,
1, ,-52, ,
0, ,-52, ,
4, ,-52, ,
6, ,-52, ,
1, ,-52, ,
1, ,-51, ,
3, ,-52, ,
1, ,-54, ,
5, ,-52, ,
0, ,-52, ,
5, ,-52, ,
6, ,-51, ,
3, ,-54, ,
1, ,-52, ,
3, ,-51, ,
1, ,-52, ,
3, ,-52, ,
-4, ,-51, ,
0, ,-52, ,
4, ,-52, ,
3, ,-52, ,
-1, ,-52, ,
3, ,-52, ,
3, ,-52, ,
1, ,-52, ,
0, ,-52, ,
1, ,-52, ,
1, ,-52, ,
0, ,-52, ,
-1, ,-51, ,
1, ,-52, ,
0, ,-52, ,
3, ,-52, ,
-2, ,-52, ,
0, ,-52, ,
5, ,-52, ,
1, ,-54, ,
-2, ,-52, ,
4, ,-51, ,
0, ,-52, ,
1, ,-52, ,
-4, ,-51, ,
-1, ,-52, ,
1, ,-52, ,
-1, ,-52, ,
-4, ,-52, ,
1, ,-52, ,
1, ,-52, ,
3, ,-52, ,
1, ,-52, ,
6, ,-51, ,
4, ,-52, ,
3, ,-52, ,
1, ,-51, ,
4, ,-52, ,
5, ,-52, ,
8, ,-52, ,
4, ,-52, ,
8, ,-52, ,
10, ,-52, ,
6, ,-52, ,
4, ,-52, ,
4, ,-51, ,
3, ,-52, ,
0, ,-52, ,
0, ,-51, ,
3, ,-52, ,
4, ,-52, ,
9, ,-52, ,
0, ,-52, ,
4, ,-52, ,
9, ,-51, ,
3, ,-54, ,
1, ,-52, ,
8, ,-52, ,
6, ,-52, ,
4, ,-52, ,
-2, ,-51, ,
3, ,-52, ,
3, ,-52, ,
5, ,-52, ,
0, ,-52, ,
3, ,-52, ,
6, ,-52, ,
4, ,-52, ,
-4, ,-52, ,
5, ,-51, ,
1, ,-52, ,
4, ,-52, ,
1, ,-51, ,
5, ,-52, ,
5, ,-52, ,
5, ,-52, ,
5, ,-52, ,
5, ,-52, ,
9, ,-51, ,
4, ,-52, ,
-2, ,-52, ,
5, ,-52, ,
-1, ,-52, ,
-1, ,-52, ,
-5, ,-51, ,
-1, ,-52, ,
1, ,-52, ,
4, ,-52, ,
0, ,-52, ,
4, ,-52, ,
4, ,-51, ,
0, ,-52, ,
-2, ,-52, ,
4, ,-51, ,
0, ,-52, ,
0, ,-52, ,
-1, ,-51, ,
-1, ,-54, ,
-1, ,-52, ,
-1, ,-52, ,
-7, ,-52, ,
-5, ,-52, ,
-1, ,-52, ,
-2, ,-54, ,
-5, ,-52, ,
-1, ,-52, ,
-1, ,-52, ,
-1, ,-52, ,
-1, ,-51, ,
-1, ,-52, ,
0, ,-52, ,
1, ,-52, ,
-5, ,-52, ,
3, ,-52, ,
1, ,-52, ,
0, ,-54, ,
-2, ,-52, ,
3, ,-51, ,
1, ,-52, ,
1, ,-52, ,
-2, ,-51, ,
-1, ,-52, ,
-1, ,-52, ,
1, ,-52, ,
-6, ,-52, ,
-1, ,-52, ,
0, ,-52, ,
-2, ,-52, ,
-2, ,-52, ,
0, ,-52, ,
-2, ,-52, ,
-2, ,-52, ,
-4, ,-51, ,
0, ,-52, ,
-1, ,-52, ,
1, ,-52, ,
-4, ,-52, ,
0, ,-52, ,
-1, ,-51, ,
-4, ,-54, ,
-7, ,-52, ,
-2, ,-52, ,
-2, ,-52, ,
-2, ,-52, ,
-2, ,-51, ,
-1, ,-52, ,
1, ,-52, ,
-1, ,-52, ,
-4, ,-52, ,
-2, ,-52, ,
-1, ,-52, ,
-1, ,-52, ,
-4, ,-52, ,
3, ,-52, ,
3, ,-52, ,
0, ,-52, ,
-1, ,-51, ,
-2, ,-52, ,
-1, ,-52, ,
-1, ,-52, ,
-5, ,-52, ,
1, ,-52, ,
0, ,-52, ,
0, ,-52, ,
-4, ,-52, ,
1, ,-51, ,
-1, ,-52, ,
-2, ,-52, ,
-5, ,-51, ,
-2, ,-52, ,
-2, ,-52, ,
-1, ,-52, ,
-7, ,-52, ,
-2, ,-52, ,
0, ,-52, ,
-2, ,-52, ,
-2, ,-52, ,
3, ,-52, ,
3, ,-52, ,
-1, ,-52, ,
-2, ,-52, ,
1, ,-52, ,
1, ,-52, ,
1, ,-52, ,
-6, ,-52, ,
-2, ,-52, ,
0, ,-52, ,
-5, ,-52, ,
-6, ,-52, ,
-1, ,-51, ,
-2, ,-52, ,
-1, ,-52, ,
0, ,-51, ,
4, ,-52, ,
5, ,-52, ,
3, ,-52, ,
-2, ,-52, ,
-1, ,-52, ,
-1, ,-51, ,
-1, ,-52, ,
-4, ,-52, ,
4, ,-52, ,
3, ,-52, ,
1, ,-52, ,
-1, ,-51, ,
0, ,-52, ,
1, ,-52, ,
0, ,-51, ,
-4, ,-52, ,
1, ,-52, ,
6, ,-52, ,
4, ,-54, ,
0, ,-52, ,
5, ,-52, ,
4, ,-52, ,
4, ,-52, ,
4, ,-51, ,
5, ,-52, ,
5, ,-52, ,
6, ,-52, ,
1, ,-52, ,
4, ,-52, ,
1, ,-51, ,
3, ,-52, ,
-4, ,-52, ,
3, ,-51, ,
5, ,-52, ,
6, ,-52, ,
6, ,-51, ,
9, ,-52, ,
5, ,-52, ,
6, ,-51, ,
-1, ,-52, ,
3, ,-52, ,
5, ,-51, ,
3, ,-52, ,
0, ,-52, ,
8, ,-52, ,
5, ,-52, ,
6, ,-52, ,
3, ,-51, ,
3, ,-52, ,
3, ,-52, ,
4, ,-51, ,
-1, ,-52, ,
1, ,-52, ,
4, ,-52, ,
3, ,-52, ,
0, ,-52, ,
3, ,-52, ,
4, ,-52, ,
3, ,-52, ,
0, ,-51, ,
4, ,-52, ,
4, ,-52, ,
4, ,-52, ,
1, ,-52, ,
3, ,-52, ,
5, ,-52, ,
3, ,-52, ,
0, ,-52, ,
5, ,-52, ,
3, ,-52, ,
5, ,-52, ,
3, ,-51, ,
4, ,-52, ,
5, ,-52, ,
5, ,-52, ,
1, ,-52, ,
3, ,-52, ,
1, ,-51, ,
3, ,-52, ,
-4, ,-52, ,
4, ,-52, ,
6, ,-52, ,
4, ,-52, ,
5, ,-51, ,
4, ,-52, ,
6, ,-52, ,
5, ,-52, ,
-1, ,-52, ,
6, ,-52, ,
8, ,-52, ,
4, ,-54, ,
1, ,-52, ,
6, ,-52, ,
5, ,-52, ,
3, ,-52, ,
1, ,-51, ,
3, ,-54, ,
3, ,-52, ,
1, ,-52, ,
0, ,-52, ,
5, ,-52, ,
8, ,-52, ,
5, ,-52, ,
4, ,-52, ,
5, ,-52, ,
5, ,-52, ,
6, ,-52, ,
4, ,-51, ,
8, ,-52, ,
5, ,-52, ,
6, ,-52, ,
-1, ,-52, ,
1, ,-52, ,
3, ,-51, ,
-1, ,-52, ,
-2, ,-52, ,
0, ,-51, ,
-1, ,-52, ,
0, ,-52, ,
0, ,-51, ,
3, ,-52, ,
5, ,-52, ,
6, ,-52, ,
3, ,-52, ,
5, ,-52, ,
5, ,-52, ,
3, ,-52, ,
1, ,-52, ,
8, ,-52, ,
6, ,-52, ,
4, ,-52, ,
-2, ,-51, ,
-1, ,-54, ,
-1, ,-52, ,
1, ,-52, ,
-1, ,-52, ,
4, ,-52, ,
6, ,-51, ,
4, ,-52, ,
-1, ,-52, ,
5, ,-51, ,
4, ,-52, ,
1, ,-52, ,
-1, ,-51, ,
-1, ,-52, ,
0, ,-52, ,
1, ,-52, ,
-2, ,-52, ,
4, ,-52, ,
3, ,-52, ,
4, ,-52, ,
-4, ,-52, ,
-2, ,-52, ,
-2, ,-52, ,
-5, ,-52, ,
-5, ,-51, ,
-2, ,-52, ,
-1, ,-52, ,
1, ,-52, ,
-5, ,-52, ,
1, ,-52, ,
1, ,-51, ,
-1, ,-54, ,
-2, ,-52, ,
3, ,-51, ,
0, ,-52, ,
6, ,-52, ,
1, ,-51, ,
-5, ,-52, ,
0, ,-52, ,
3, ,-52, ,
-2, ,-52, ,
1, ,-52, ,
1, ,-51, ,
-1, ,-54, ,
-1, ,-52, ,
3, ,-52, ,
-1, ,-52, ,
3, ,-52, ,
-1, ,-51, ,
-1, ,-52, ,
1, ,-52, ,
4, ,-52, ,
-2, ,-52, ,
-1, ,-52, ,
5, ,-51, ,
1, ,-52, ,
-2, ,-52, ,
1, ,-51, ,
-2, ,-52, ,
-4, ,-51, ,
-5, ,-51, ,
-2, ,-52, ,
0, ,-52, ,
1, ,-52, ,
-2, ,-52, ,
1, ,-52, ,
-2, ,-51, ,
-1, ,-52, ,
-4, ,-52, ,
-1, ,-52, ,
-4, ,-52, ,
-6, ,-52, ,
-5, ,-51, ,
-4, ,-52, ,
0, ,-52, ,
1, ,-52, ,
-1, ,-52, ,
1, ,-52, ,
3, ,-51, ,
-1, ,-54, ,
-5, ,-52, ,
-1, ,-51, ,
-2, ,-52, ,
-5, ,-52, ,
-5, ,-52, ,
-4, ,-52, ,
-6, ,-52, ,
-4, ,-52, ,
-7, ,-52, ,
-1, ,-52, ,
0, ,-52, ,
0, ,-54, ,
-2, ,-52, ,
1, ,-52, ,
1, ,-52, ,
-1, ,-52, ,
-5, ,-51, ,
-4, ,-52, ,
-2, ,-52, ,
-1, ,-52, ,
-5, ,-52, ,
0, ,-52, ,
1, ,-52, ,
-2, ,-54, ,
-5, ,-52, ,
-2, ,-51, ,
-5, ,-52, ,
-4, ,-52, ,
-5, ,-51, ,
0, ,-52, ,
3, ,-52, ,
3, ,-52, ,
-2, ,-52, ,
-1, ,-52, ,
3, ,-52, ,
-1, ,-52, ,
-2, ,-52, ,
5, ,-52, ,
1, ,-52, ,
1, ,-52, ,
0, ,-51, ,
-1, ,-52, ,
0, ,-52, ,
0, ,-52, ,
-5, ,-52, ,
0, ,-52, ,
3, ,-51, ,
0, ,-54, ,
-1, ,-52, ,
1, ,-51, ,
1, ,-52, ,
1, ,-52, ,
-1, ,-51, ,
1, ,-52, ,
3, ,-52, ,
3, ,-52, ,
-4, ,-52, ,
0, ,-52, ,
1, ,-51, ,
-1, ,-52, ,
-1, ,-52, ,
3, ,-52, ,
5, ,-52, ,
3, ,-52, ,
0, ,-51, ,
