src/vary_am2_1411/temp0002557.CSV

Format,1.0B,
Memory Length,10000,Memory Length,10000,
IntpDistance,0,IntpDistance,0,
Trigger Address,4999,Trigger Address,4999,
Trigger Level,-1.000E+00,Trigger Level,-1.000E+00,
Source,CH1,Source,CH2,
Vertical Units,V,Vertical Units,V,
Vertical Units Div,0,Vertical Units Div,0,
Vertical Units Extend Div,16,Vertical Units Extend Div,16,
Label,,Label,,
Probe Type,0,Probe Type,0,
Probe Ratio,1.000e+01,Probe Ratio,1.000e+00,
Vertical Scale,2.000e-02,Vertical Scale,1.000e+00,
Vertical Position,-5.120e-02,Vertical Position,2.000e-01,
Horizontal Units,S,Horizontal Units,S,
Horizontal Scale,1.000E-05,Horizontal Scale,1.000E-05,
Horizontal Position,0.000E+00,Horizontal Position,0.000E+00,
Horizontal Mode,Main,Horizontal Mode,Main,
SincET Mode,Real Time,SincET Mode,Real Time,
Sampling Period,1.000e-08,Sampling Period,1.000e-08,
Horizontal Old Scale,1.000E-05,Horizontal Old Scale,1.000E-05,
Horizontal Old Position,0.000E+00,Horizontal Old Position,0.000E+00,
Firmware,V1.23,Firmware,V1.23,
Mode,Fast,Mode,Fast,
Waveform Data,,Waveform Data,,
1, ,-43, ,
1, ,-43, ,
-2, ,-42, ,
-6, ,-42, ,
1, ,-42, ,
-1, ,-43, ,
-1, ,-42, ,
1, ,-42, ,
5, ,-43, ,
1, ,-43, ,
0, ,-42, ,
-6, ,-43, ,
0, ,-43, ,
-2, ,-42, ,
-2, ,-43, ,
-6, ,-42, ,
4, ,-42, ,
1, ,-43, ,
-1, ,-42, ,
-1, ,-42, ,
1, ,-43, ,
-1, ,-43, ,
0, ,-42, ,
-2, ,-43, ,
1, ,-43, ,
4, ,-42, ,
1, ,-43, ,
-2, ,-42, ,
3, ,-42, ,
-2, ,-43, ,
-1, ,-43, ,
-4, ,-42, ,
3, ,-42, ,
4, ,-43, ,
6, ,-42, ,
-1, ,-42, ,
4, ,-43, ,
5, ,-42, ,
1, ,-43, ,
-4, ,-42, ,
4, ,-42, ,
1, ,-43, ,
4, ,-42, ,
1, ,-42, ,
5, ,-43, ,
6, ,-43, ,
6, ,-42, ,
0, ,-42, ,
3, ,-43, ,
3, ,-42, ,
1, ,-43, ,
-2, ,-42, ,
6, ,-42, ,
4, ,-43, ,
4, ,-42, ,
3, ,-42, ,
4, ,-43, ,
5, ,-43, ,
6, ,-42, ,
-2, ,-42, ,
3, ,-42, ,
1, ,-43, ,
3, ,-42, ,
0, ,-42, ,
6, ,-42, ,
5, ,-43, ,
3, ,-43, ,
1, ,-42, ,
0, ,-42, ,
1, ,-42, ,
5, ,-42, ,
0, ,-43, ,
5, ,-43, ,
6, ,-42, ,
4, ,-42, ,
3, ,-42, ,
6, ,-43, ,
1, ,-43, ,
1, ,-43, ,
-6, ,-42, ,
1, ,-42, ,
4, ,-43, ,
5, ,-42, ,
1, ,-43, ,
5, ,-43, ,
4, ,-42, ,
-1, ,-43, ,
-4, ,-42, ,
3, ,-42, ,
0, ,-43, ,
4, ,-43, ,
4, ,-42, ,
5, ,-42, ,
5, ,-42, ,
4, ,-42, ,
-5, ,-42, ,
-1, ,-43, ,
3, ,-42, ,
0, ,-43, ,
-2, ,-42, ,
3, ,-42, ,
0, ,-43, ,
-2, ,-42, ,
-4, ,-42, ,
-2, ,-42, ,
-2, ,-42, ,
-1, ,-42, ,
1, ,-42, ,
8, ,-43, ,
9, ,-42, ,
9, ,-43, ,
5, ,-42, ,
4, ,-42, ,
-5, ,-43, ,
0, ,-43, ,
1, ,-42, ,
1, ,-42, ,
-1, ,-43, ,
3, ,-42, ,
-1, ,-43, ,
1, ,-43, ,
4, ,-42, ,
0, ,-42, ,
-1, ,-42, ,
4, ,-42, ,
1, ,-43, ,
3, ,-42, ,
1, ,-42, ,
1, ,-42, ,
3, ,-43, ,
3, ,-42, ,
-2, ,-42, ,
8, ,-42, ,
6, ,-42, ,
1, ,-42, ,
-1, ,-42, ,
4, ,-42, ,
6, ,-43, ,
6, ,-42, ,
6, ,-42, ,
10, ,-43, ,
6, ,-43, ,
8, ,-42, ,
5, ,-42, ,
3, ,-42, ,
8, ,-42, ,
5, ,-43, ,
3, ,-42, ,
8, ,-42, ,
5, ,-43, ,
3, ,-42, ,
-2, ,-42, ,
1, ,-43, ,
3, ,-43, ,
3, ,-42, ,
0, ,-43, ,
5, ,-43, ,
5, ,-42, ,
5, ,-43, ,
-1, ,-42, ,
1, ,-42, ,
-1, ,-43, ,
-1, ,-43, ,
-1, ,-42, ,
0, ,-42, ,
1, ,-43, ,
6, ,-42, ,
0, ,-43, ,
8, ,-42, ,
6, ,-42, ,
3, ,-43, ,
-2, ,-42, ,
3, ,-42, ,
-1, ,-43, ,
0, ,-42, ,
-1, ,-42, ,
1, ,-42, ,
3, ,-42, ,
3, ,-42, ,
-1, ,-43, ,
1, ,-43, ,
3, ,-42, ,
3, ,-43, ,
-1, ,-42, ,
4, ,-42, ,
8, ,-43, ,
1, ,-42, ,
-2, ,-42, ,
-1, ,-42, ,
-4, ,-42, ,
1, ,-42, ,
-1, ,-42, ,
8, ,-43, ,
6, ,-42, ,
-7, ,-43, ,
1, ,-42, ,
5, ,-42, ,
-6, ,-43, ,
0, ,-42, ,
-4, ,-42, ,
-6, ,-42, ,
-4, ,-43, ,
1, ,-42, ,
-7, ,-43, ,
-4, ,-43, ,
-1, ,-42, ,
-5, ,-42, ,
-6, ,-42, ,
0, ,-42, ,
0, ,-43, ,
-1, ,-43, ,
0, ,-42, ,
0, ,-42, ,
1, ,-43, ,
3, ,-42, ,
-2, ,-43, ,
-2, ,-43, ,
-1, ,-42, ,
-4, ,-43, ,
-7, ,-42, ,
-2, ,-42, ,
-6, ,-43, ,
-4, ,-42, ,
-4, ,-42, ,
-4, ,-42, ,
0, ,-42, ,
-4, ,-42, ,
-5, ,-43, ,
-1, ,-43, ,
-2, ,-42, ,
-2, ,-43, ,
-7, ,-42, ,
1, ,-42, ,
-2, ,-43, ,
-4, ,-43, ,
-5, ,-42, ,
-5, ,-42, ,
-9, ,-43, ,
-7, ,-42, ,
-14, ,-43, ,
-9, ,-42, ,
-4, ,-42, ,
-6, ,-42, ,
-5, ,-42, ,
1, ,-42, ,
-2, ,-43, ,
-5, ,-43, ,
-6, ,-42, ,
-5, ,-42, ,
-2, ,-42, ,
-2, ,-42, ,
-9, ,-43, ,
-1, ,-43, ,
-2, ,-43, ,
-5, ,-42, ,
-7, ,-42, ,
-4, ,-42, ,
-4, ,-43, ,
-6, ,-42, ,
-5, ,-42, ,
-1, ,-42, ,
-1, ,-43, ,
-1, ,-42, ,
-11, ,-43, ,
-7, ,-42, ,
-5, ,-42, ,
-10, ,-42, ,
-9, ,-42, ,
1, ,-42, ,
-2, ,-43, ,
-1, ,-43, ,
-2, ,-42, ,
0, ,-43, ,
-2, ,-43, ,
-4, ,-42, ,
-10, ,-42, ,
-2, ,-43, ,
1, ,-42, ,
-6, ,-42, ,
-4, ,-42, ,
5, ,-42, ,
-1, ,-43, ,
0, ,-43, ,
-4, ,-42, ,
0, ,-42, ,
1, ,-43, ,
3, ,-42, ,
0, ,-43, ,
1, ,-42, ,
4, ,-42, ,
1, ,-43, ,
-1, ,-42, ,
4, ,-42, ,
1, ,-43, ,
0, ,-43, ,
-1, ,-42, ,
0, ,-42, ,
0, ,-43, ,
1, ,-42, ,
-5, ,-43, ,
-1, ,-43, ,
-5, ,-42, ,
-6, ,-43, ,
-5, ,-42, ,
1, ,-42, ,
5, ,-43, ,
4, ,-42, ,
3, ,-42, ,
4, ,-42, ,
-1, ,-40, ,
-2, ,-31, ,
-4, ,-22, ,
5, ,-12, ,
10, ,-3, ,
9, ,4, ,
5, ,11, ,
9, ,16, ,
3, ,21, ,
3, ,25, ,
0, ,29, ,
8, ,32, ,
6, ,34, ,
6, ,36, ,
1, ,38, ,
1, ,40, ,
6, ,41, ,
5, ,44, ,
4, ,45, ,
11, ,45, ,
9, ,47, ,
10, ,46, ,
6, ,47, ,
8, ,49, ,
5, ,48, ,
6, ,48, ,
0, ,49, ,
3, ,49, ,
5, ,49, ,
1, ,50, ,
-2, ,50, ,
3, ,49, ,
-1, ,51, ,
0, ,50, ,
-1, ,50, ,
1, ,51, ,
6, ,51, ,
6, ,49, ,
5, ,51, ,
6, ,51, ,
6, ,50, ,
8, ,51, ,
4, ,51, ,
10, ,50, ,
6, ,52, ,
5, ,50, ,
3, ,51, ,
3, ,51, ,
0, ,51, ,
6, ,49, ,
-2, ,51, ,
5, ,50, ,
4, ,51, ,
1, ,51, ,
10, ,51, ,
9, ,50, ,
3, ,51, ,
9, ,50, ,
1, ,51, ,
5, ,51, ,
5, ,51, ,
9, ,50, ,
3, ,51, ,
8, ,51, ,
6, ,50, ,
4, ,51, ,
1, ,51, ,
4, ,50, ,
3, ,51, ,
3, ,50, ,
1, ,50, ,
5, ,51, ,
3, ,51, ,
6, ,49, ,
1, ,51, ,
5, ,50, ,
8, ,50, ,
3, ,51, ,
1, ,51, ,
10, ,50, ,
1, ,51, ,
4, ,50, ,
0, ,50, ,
8, ,51, ,
8, ,50, ,
0, ,49, ,
3, ,51, ,
5, ,50, ,
1, ,50, ,
4, ,51, ,
-4, ,51, ,
4, ,49, ,
0, ,51, ,
1, ,50, ,
3, ,50, ,
3, ,51, ,
5, ,50, ,
8, ,49, ,
-1, ,51, ,
5, ,50, ,
4, ,50, ,
1, ,51, ,
0, ,51, ,
5, ,50, ,
1, ,51, ,
1, ,50, ,
0, ,50, ,
1, ,51, ,
3, ,50, ,
4, ,49, ,
0, ,51, ,
8, ,50, ,
8, ,50, ,
9, ,50, ,
4, ,50, ,
5, ,49, ,
4, ,51, ,
1, ,50, ,
0, ,50, ,
3, ,51, ,
5, ,50, ,
9, ,49, ,
4, ,51, ,
5, ,50, ,
6, ,50, ,
4, ,50, ,
0, ,51, ,
4, ,49, ,
1, ,51, ,
4, ,50, ,
0, ,50, ,
3, ,51, ,
3, ,50, ,
5, ,49, ,
-1, ,51, ,
-1, ,50, ,
1, ,50, ,
1, ,50, ,
-2, ,51, ,
5, ,50, ,
1, ,51, ,
3, ,50, ,
-2, ,50, ,
1, ,51, ,
-1, ,51, ,
1, ,49, ,
-1, ,51, ,
4, ,50, ,
4, ,50, ,
3, ,50, ,
-2, ,51, ,
-1, ,49, ,
-5, ,51, ,
-2, ,50, ,
-6, ,50, ,
-2, ,51, ,
0, ,51, ,
1, ,49, ,
-2, ,51, ,
4, ,50, ,
0, ,50, ,
0, ,50, ,
-4, ,51, ,
-1, ,50, ,
-2, ,51, ,
-4, ,50, ,
-5, ,50, ,
-2, ,51, ,
-5, ,51, ,
-2, ,49, ,
-9, ,51, ,
-2, ,50, ,
-4, ,50, ,
-5, ,50, ,
-5, ,51, ,
-1, ,50, ,
-2, ,51, ,
-2, ,49, ,
-4, ,50, ,
-1, ,50, ,
-2, ,50, ,
0, ,49, ,
-5, ,51, ,
-1, ,50, ,
0, ,50, ,
-1, ,50, ,
-5, ,51, ,
1, ,49, ,
-2, ,51, ,
-4, ,50, ,
-6, ,50, ,
-5, ,51, ,
-6, ,51, ,
-2, ,49, ,
-10, ,51, ,
-4, ,50, ,
-1, ,50, ,
-2, ,50, ,
-4, ,50, ,
3, ,49, ,
-2, ,51, ,
-4, ,50, ,
-5, ,50, ,
-4, ,51, ,
-2, ,51, ,
-2, ,49, ,
-6, ,51, ,
-4, ,50, ,
-4, ,50, ,
-4, ,50, ,
-6, ,51, ,
0, ,50, ,
-1, ,51, ,
-1, ,50, ,
-1, ,50, ,
1, ,51, ,
-2, ,50, ,
1, ,49, ,
-6, ,51, ,
-4, ,50, ,
-1, ,50, ,
-1, ,50, ,
-5, ,51, ,
-1, ,49, ,
-1, ,50, ,
-1, ,49, ,
-6, ,50, ,
-2, ,50, ,
-2, ,50, ,
-2, ,49, ,
-7, ,51, ,
-2, ,50, ,
-4, ,50, ,
-2, ,50, ,
-5, ,50, ,
0, ,49, ,
-2, ,51, ,
-2, ,49, ,
-4, ,50, ,
-2, ,51, ,
-6, ,51, ,
-2, ,49, ,
-7, ,51, ,
1, ,50, ,
-1, ,50, ,
-2, ,50, ,
-7, ,51, ,
0, ,49, ,
-2, ,51, ,
3, ,49, ,
1, ,50, ,
1, ,50, ,
3, ,50, ,
1, ,49, ,
-7, ,51, ,
-4, ,51, ,
-2, ,50, ,
-5, ,50, ,
-2, ,51, ,
4, ,49, ,
5, ,50, ,
6, ,49, ,
3, ,50, ,
3, ,50, ,
1, ,50, ,
4, ,49, ,
-1, ,51, ,
-1, ,50, ,
3, ,50, ,
-1, ,50, ,
-4, ,50, ,
1, ,50, ,
-1, ,51, ,
1, ,49, ,
0, ,50, ,
0, ,51, ,
0, ,50, ,
3, ,49, ,
-1, ,51, ,
5, ,50, ,
3, ,50, ,
4, ,50, ,
-1, ,51, ,
5, ,49, ,
3, ,51, ,
1, ,49, ,
1, ,50, ,
3, ,50, ,
1, ,51, ,
5, ,49, ,
1, ,51, ,
3, ,51, ,
1, ,50, ,
0, ,50, ,
-2, ,50, ,
3, ,49, ,
3, ,51, ,
3, ,49, ,
3, ,50, ,
3, ,51, ,
4, ,51, ,
3, ,49, ,
0, ,51, ,
5, ,50, ,
4, ,50, ,
1, ,50, ,
-1, ,51, ,
4, ,50, ,
4, ,51, ,
1, ,50, ,
1, ,50, ,
5, ,51, ,
-1, ,50, ,
3, ,49, ,
-4, ,51, ,
-1, ,50, ,
4, ,50, ,
1, ,50, ,
1, ,51, ,
6, ,49, ,
3, ,51, ,
4, ,49, ,
0, ,50, ,
1, ,50, ,
3, ,50, ,
4, ,49, ,
0, ,51, ,
5, ,50, ,
5, ,50, ,
5, ,50, ,
-1, ,50, ,
4, ,49, ,
0, ,51, ,
3, ,50, ,
1, ,50, ,
4, ,51, ,
6, ,50, ,
9, ,49, ,
3, ,51, ,
6, ,50, ,
5, ,50, ,
3, ,50, ,
-2, ,51, ,
4, ,49, ,
1, ,51, ,
1, ,50, ,
4, ,50, ,
4, ,51, ,
4, ,50, ,
4, ,49, ,
-1, ,51, ,
5, ,50, ,
5, ,50, ,
8, ,50, ,
4, ,50, ,
9, ,49, ,
5, ,51, ,
6, ,50, ,
4, ,50, ,
3, ,50, ,
3, ,50, ,
5, ,49, ,
4, ,51, ,
9, ,50, ,
10, ,50, ,
8, ,50, ,
0, ,50, ,
4, ,50, ,
1, ,51, ,
4, ,49, ,
1, ,50, ,
4, ,50, ,
4, ,50, ,
9, ,48, ,
1, ,51, ,
4, ,51, ,
4, ,50, ,
1, ,50, ,
-1, ,51, ,
4, ,49, ,
1, ,51, ,
1, ,49, ,
0, ,50, ,
6, ,50, ,
4, ,50, ,
5, ,49, ,
-1, ,51, ,
4, ,50, ,
4, ,50, ,
-1, ,50, ,
-2, ,51, ,
3, ,49, ,
-4, ,51, ,
0, ,50, ,
-4, ,50, ,
0, ,51, ,
1, ,51, ,
3, ,49, ,
-1, ,51, ,
3, ,51, ,
3, ,50, ,
3, ,50, ,
0, ,50, ,
3, ,49, ,
1, ,51, ,
3, ,50, ,
-1, ,50, ,
0, ,51, ,
-1, ,50, ,
5, ,49, ,
-1, ,51, ,
5, ,50, ,
4, ,50, ,
-1, ,50, ,
-4, ,50, ,
0, ,49, ,
-5, ,51, ,
-1, ,49, ,
-4, ,50, ,
3, ,51, ,
1, ,50, ,
6, ,49, ,
0, ,51, ,
4, ,50, ,
1, ,50, ,
-1, ,50, ,
-4, ,51, ,
1, ,49, ,
0, ,51, ,
1, ,50, ,
-1, ,50, ,
1, ,51, ,
-1, ,50, ,
1, ,49, ,
-5, ,51, ,
1, ,50, ,
5, ,50, ,
0, ,50, ,
1, ,51, ,
5, ,49, ,
0, ,51, ,
1, ,49, ,
-1, ,50, ,
0, ,50, ,
-1, ,50, ,
-1, ,49, ,
-4, ,51, ,
-2, ,51, ,
0, ,50, ,
1, ,50, ,
-6, ,50, ,
-1, ,49, ,
-4, ,51, ,
-4, ,50, ,
-2, ,50, ,
-1, ,51, ,
-1, ,50, ,
3, ,49, ,
-2, ,51, ,
5, ,50, ,
0, ,50, ,
-1, ,50, ,
-5, ,51, ,
-1, ,49, ,
-4, ,51, ,
-1, ,50, ,
-2, ,50, ,
-2, ,51, ,
-1, ,51, ,
-1, ,49, ,
-6, ,51, ,
-2, ,50, ,
-1, ,50, ,
-1, ,50, ,
-4, ,51, ,
3, ,49, ,
0, ,51, ,
-5, ,49, ,
-6, ,50, ,
0, ,51, ,
-2, ,50, ,
0, ,49, ,
-7, ,50, ,
-4, ,50, ,
-1, ,50, ,
0, ,50, ,
-2, ,50, ,
3, ,50, ,
-2, ,51, ,
0, ,49, ,
-7, ,50, ,
-6, ,51, ,
-10, ,51, ,
-4, ,49, ,
-2, ,51, ,
1, ,50, ,
4, ,50, ,
1, ,50, ,
-2, ,51, ,
3, ,50, ,
3, ,51, ,
4, ,50, ,
1, ,50, ,
3, ,50, ,
0, ,50, ,
-1, ,49, ,
-9, ,51, ,
3, ,50, ,
0, ,50, ,
-5, ,50, ,
0, ,50, ,
5, ,49, ,
3, ,51, ,
6, ,49, ,
3, ,50, ,
0, ,51, ,
0, ,51, ,
-1, ,49, ,
-4, ,51, ,
-1, ,50, ,
-1, ,50, ,
3, ,50, ,
0, ,51, ,
6, ,49, ,
3, ,51, ,
1, ,50, ,
-1, ,50, ,
-1, ,50, ,
-4, ,50, ,
1, ,49, ,
-6, ,51, ,
-2, ,50, ,
-2, ,50, ,
-5, ,50, ,
-4, ,51, ,
0, ,49, ,
1, ,51, ,
4, ,50, ,
-4, ,50, ,
4, ,50, ,
-2, ,51, ,
-1, ,49, ,
-5, ,51, ,
3, ,50, ,
3, ,50, ,
3, ,50, ,
0, ,51, ,
1, ,49, ,
0, ,50, ,
0, ,50, ,
-5, ,50, ,
1, ,51, ,
-1, ,50, ,
3, ,49, ,
-4, ,51, ,
-2, ,50, ,
0, ,50, ,
-1, ,50, ,
-5, ,51, ,
5, ,49, ,
3, ,51, ,
6, ,50, ,
3, ,50, ,
4, ,50, ,
4, ,50, ,
1, ,49, ,
-4, ,51, ,
-1, ,50, ,
1, ,50, ,
1, ,50, ,
-2, ,51, ,
6, ,49, ,
3, ,51, ,
4, ,49, ,
0, ,50, ,
3, ,51, ,
5, ,50, ,
4, ,49, ,
1, ,51, ,
4, ,50, ,
5, ,50, ,
4, ,50, ,
1, ,51, ,
5, ,49, ,
-1, ,51, ,
3, ,50, ,
0, ,50, ,
-1, ,50, ,
3, ,50, ,
4, ,49, ,
-1, ,51, ,
4, ,50, ,
1, ,50, ,
4, ,50, ,
-4, ,50, ,
3, ,49, ,
1, ,51, ,
0, ,50, ,
-1, ,50, ,
1, ,50, ,
1, ,50, ,
5, ,49, ,
-1, ,51, ,
3, ,50, ,
4, ,50, ,
0, ,50, ,
0, ,50, ,
1, ,49, ,
0, ,51, ,
3, ,49, ,
0, ,50, ,
3, ,50, ,
1, ,50, ,
3, ,49, ,
-2, ,51, ,
1, ,50, ,
1, ,50, ,
3, ,50, ,
0, ,51, ,
5, ,49, ,
3, ,51, ,
4, ,50, ,
1, ,50, ,
0, ,51, ,
-1, ,50, ,
1, ,49, ,
-1, ,51, ,
1, ,50, ,
5, ,50, ,
1, ,50, ,
-1, ,50, ,
3, ,49, ,
-1, ,51, ,
-1, ,50, ,
-2, ,50, ,
0, ,51, ,
3, ,50, ,
6, ,49, ,
0, ,51, ,
5, ,51, ,
1, ,50, ,
1, ,50, ,
-2, ,51, ,
3, ,50, ,
3, ,51, ,
3, ,50, ,
4, ,50, ,
6, ,51, ,
6, ,50, ,
8, ,49, ,
1, ,51, ,
5, ,51, ,
4, ,50, ,
0, ,50, ,
0, ,51, ,
4, ,49, ,
1, ,51, ,
1, ,50, ,
-2, ,50, ,
1, ,51, ,
3, ,51, ,
5, ,49, ,
3, ,51, ,
9, ,50, ,
6, ,50, ,
5, ,50, ,
0, ,50, ,
3, ,49, ,
-2, ,51, ,
-1, ,49, ,
-4, ,50, ,
0, ,51, ,
-1, ,51, ,
6, ,49, ,
0, ,51, ,
0, ,50, ,
3, ,50, ,
-1, ,50, ,
-5, ,50, ,
3, ,49, ,
0, ,50, ,
3, ,50, ,
0, ,50, ,
3, ,51, ,
5, ,51, ,
3, ,49, ,
-4, ,51, ,
1, ,50, ,
1, ,50, ,
3, ,50, ,
-6, ,51, ,
0, ,49, ,
-4, ,51, ,
-1, ,50, ,
-4, ,50, ,
0, ,50, ,
1, ,51, ,
6, ,48, ,
3, ,51, ,
3, ,50, ,
-4, ,50, ,
0, ,50, ,
-2, ,50, ,
4, ,49, ,
1, ,51, ,
-1, ,49, ,
-4, ,50, ,
-6, ,50, ,
-4, ,50, ,
3, ,48, ,
0, ,51, ,
4, ,50, ,
1, ,50, ,
4, ,50, ,
0, ,51, ,
1, ,49, ,
1, ,51, ,
-1, ,49, ,
-5, ,50, ,
0, ,51, ,
0, ,50, ,
4, ,49, ,
-2, ,51, ,
3, ,51, ,
1, ,50, ,
0, ,50, ,
-1, ,50, ,
1, ,49, ,
-1, ,51, ,
0, ,50, ,
-2, ,50, ,
-1, ,50, ,
0, ,51, ,
3, ,49, ,
-1, ,51, ,
-1, ,50, ,
1, ,50, ,
-2, ,50, ,
-1, ,51, ,
6, ,49, ,
0, ,51, ,
5, ,50, ,
-1, ,50, ,
3, ,51, ,
-1, ,51, ,
-1, ,49, ,
-6, ,51, ,
0, ,50, ,
3, ,50, ,
4, ,50, ,
1, ,51, ,
4, ,49, ,
-4, ,51, ,
0, ,50, ,
-2, ,50, ,
0, ,50, ,
-4, ,51, ,
-1, ,48, ,
-2, ,51, ,
1, ,50, ,
0, ,50, ,
1, ,50, ,
-4, ,51, ,
4, ,50, ,
0, ,50, ,
1, ,50, ,
0, ,50, ,
0, ,50, ,
-1, ,50, ,
3, ,49, ,
-7, ,51, ,
-2, ,50, ,
-1, ,50, ,
-2, ,50, ,
-5, ,51, ,
1, ,49, ,
-2, ,51, ,
-1, ,50, ,
-2, ,50, ,
0, ,51, ,
-1, ,50, ,
0, ,47, ,
-1, ,44, ,
0, ,33, ,
-2, ,22, ,
-4, ,14, ,
-6, ,6, ,
-2, ,-1, ,
-10, ,-6, ,
1, ,-11, ,
1, ,-16, ,
-6, ,-20, ,
-6, ,-23, ,
-4, ,-26, ,
-12, ,-28, ,
-6, ,-30, ,
-1, ,-32, ,
0, ,-33, ,
-2, ,-35, ,
5, ,-36, ,
1, ,-38, ,
3, ,-39, ,
-1, ,-39, ,
0, ,-39, ,
-1, ,-40, ,
1, ,-40, ,
-1, ,-41, ,
0, ,-41, ,
3, ,-41, ,
1, ,-42, ,
-9, ,-42, ,
-1, ,-42, ,
1, ,-43, ,
-1, ,-43, ,
1, ,-42, ,
1, ,-43, ,
3, ,-43, ,
4, ,-43, ,
-4, ,-43, ,
1, ,-43, ,
4, ,-43, ,
-1, ,-43, ,
-1, ,-43, ,
1, ,-43, ,
5, ,-44, ,
4, ,-43, ,
-1, ,-43, ,
0, ,-43, ,
1, ,-43, ,
1, ,-43, ,
-5, ,-44, ,
-1, ,-43, ,
3, ,-43, ,
1, ,-43, ,
0, ,-43, ,
3, ,-43, ,
3, ,-43, ,
1, ,-43, ,
-1, ,-43, ,
0, ,-43, ,
-2, ,-43, ,
3, ,-43, ,
-1, ,-43, ,
1, ,-43, ,
5, ,-43, ,
1, ,-43, ,
-4, ,-43, ,
0, ,-43, ,
0, ,-43, ,
0, ,-43, ,
-2, ,-42, ,
3, ,-43, ,
3, ,-43, ,
4, ,-42, ,
-1, ,-43, ,
1, ,-43, ,
3, ,-43, ,
-1, ,-43, ,
-1, ,-43, ,
5, ,-43, ,
3, ,-43, ,
3, ,-43, ,
0, ,-42, ,
1, ,-43, ,
4, ,-43, ,
1, ,-42, ,
-1, ,-43, ,
1, ,-43, ,
3, ,-42, ,
1, ,-43, ,
-1, ,-43, ,
3, ,-43, ,
1, ,-43, ,
1, ,-43, ,
-2, ,-42, ,
1, ,-43, ,
1, ,-43, ,
1, ,-42, ,
-4, ,-43, ,
0, ,-43, ,
3, ,-42, ,
1, ,-43, ,
-1, ,-42, ,
4, ,-42, ,
5, ,-43, ,
1, ,-43, ,
1, ,-42, ,
3, ,-43, ,
3, ,-43, ,
3, ,-42, ,
-2, ,-43, ,
5, ,-43, ,
4, ,-42, ,
0, ,-43, ,
-4, ,-43, ,
-1, ,-43, ,
0, ,-43, ,
-1, ,-43, ,
1, ,-42, ,
4, ,-42, ,
4, ,-43, ,
6, ,-42, ,
-1, ,-43, ,
5, ,-43, ,
4, ,-42, ,
1, ,-43, ,
-4, ,-42, ,
0, ,-42, ,
0, ,-43, ,
3, ,-43, ,
-4, ,-42, ,
-1, ,-43, ,
0, ,-43, ,
-2, ,-42, ,
-9, ,-43, ,
-1, ,-43, ,
-1, ,-43, ,
-4, ,-43, ,
-4, ,-43, ,
1, ,-42, ,
-2, ,-43, ,
3, ,-42, ,
-5, ,-42, ,
1, ,-43, ,
1, ,-43, ,
1, ,-42, ,
-4, ,-43, ,
1, ,-43, ,
1, ,-42, ,
-1, ,-42, ,
-7, ,-42, ,
-1, ,-42, ,
-4, ,-43, ,
-4, ,-43, ,
-1, ,-42, ,
0, ,-43, ,
3, ,-43, ,
4, ,-42, ,
-1, ,-43, ,
1, ,-43, ,
0, ,-42, ,
-1, ,-43, ,
-2, ,-42, ,
-2, ,-42, ,
1, ,-43, ,
0, ,-42, ,
-2, ,-42, ,
1, ,-42, ,
3, ,-43, ,
1, ,-42, ,
-2, ,-43, ,
1, ,-42, ,
1, ,-43, ,
-1, ,-43, ,
-2, ,-42, ,
1, ,-42, ,
1, ,-43, ,
0, ,-42, ,
0, ,-42, ,
1, ,-43, ,
4, ,-43, ,
4, ,-42, ,
-1, ,-43, ,
9, ,-42, ,
5, ,-42, ,
-2, ,-43, ,
3, ,-42, ,
0, ,-42, ,
-1, ,-43, ,
-2, ,-43, ,
-4, ,-42, ,
-1, ,-42, ,
4, ,-43, ,
5, ,-42, ,
0, ,-43, ,
3, ,-43, ,
4, ,-42, ,
0, ,-43, ,
-2, ,-42, ,
3, ,-42, ,
-1, ,-43, ,
-1, ,-43, ,
1, ,-42, ,
3, ,-43, ,
-2, ,-43, ,
3, ,-42, ,
-2, ,-43, ,
1, ,-42, ,
6, ,-42, ,
0, ,-42, ,
-1, ,-42, ,
1, ,-42, ,
0, ,-43, ,
0, ,-42, ,
-4, ,-42, ,
1, ,-42, ,
5, ,-43, ,
1, ,-42, ,
1, ,-43, ,
4, ,-43, ,
3, ,-43, ,
-1, ,-43, ,
-5, ,-42, ,
3, ,-42, ,
1, ,-43, ,
0, ,-43, ,
0, ,-42, ,
-4, ,-43, ,
-4, ,-43, ,
-1, ,-42, ,
-2, ,-43, ,
4, ,-42, ,
8, ,-42, ,
1, ,-43, ,
-2, ,-42, ,
-1, ,-42, ,
-4, ,-43, ,
-4, ,-43, ,
-4, ,-42, ,
1, ,-42, ,
3, ,-43, ,
1, ,-42, ,
-2, ,-43, ,
4, ,-43, ,
1, ,-42, ,
-2, ,-42, ,
-2, ,-42, ,
0, ,-42, ,
1, ,-43, ,
1, ,-43, ,
-4, ,-42, ,
1, ,-42, ,
0, ,-43, ,
4, ,-42, ,
-4, ,-43, ,
3, ,-43, ,
6, ,-43, ,
3, ,-42, ,
3, ,-42, ,
9, ,-42, ,
6, ,-43, ,
5, ,-42, ,
0, ,-42, ,
1, ,-42, ,
3, ,-43, ,
-1, ,-42, ,
-4, ,-43, ,
3, ,-43, ,
3, ,-42, ,
3, ,-43, ,
0, ,-42, ,
5, ,-42, ,
4, ,-43, ,
1, ,-43, ,
1, ,-42, ,
0, ,-42, ,
3, ,-42, ,
3, ,-42, ,
-1, ,-43, ,
1, ,-43, ,
1, ,-42, ,
0, ,-43, ,
-1, ,-42, ,
5, ,-42, ,
1, ,-43, ,
3, ,-42, ,
0, ,-42, ,
1, ,-42, ,
4, ,-43, ,
1, ,-42, ,
-5, ,-43, ,
1, ,-43, ,
0, ,-42, ,
-2, ,-43, ,
-1, ,-42, ,
3, ,-42, ,
4, ,-43, ,
3, ,-43, ,
1, ,-42, ,
4, ,-42, ,
0, ,-43, ,
0, ,-42, ,
-6, ,-43, ,
0, ,-43, ,
5, ,-42, ,
1, ,-43, ,
0, ,-43, ,
4, ,-42, ,
1, ,-43, ,
3, ,-43, ,
0, ,-42, ,
4, ,-42, ,
3, ,-42, ,
1, ,-42, ,
-2, ,-42, ,
1, ,-43, ,
5, ,-42, ,
3, ,-42, ,
4, ,-42, ,
9, ,-42, ,
4, ,-43, ,
1, ,-42, ,
-1, ,-42, ,
1, ,-42, ,
3, ,-42, ,
3, ,-42, ,
-1, ,-43, ,
3, ,-43, ,
4, ,-43, ,
0, ,-42, ,
-2, ,-42, ,
4, ,-42, ,
1, ,-43, ,
3, ,-42, ,
4, ,-42, ,
5, ,-43, ,
5, ,-43, ,
4, ,-42, ,
-4, ,-42, ,
1, ,-43, ,
1, ,-42, ,
-1, ,-42, ,
-2, ,-42, ,
8, ,-42, ,
6, ,-43, ,
5, ,-43, ,
5, ,-42, ,
4, ,-43, ,
3, ,-43, ,
4, ,-42, ,
-5, ,-43, ,
4, ,-43, ,
4, ,-42, ,
3, ,-43, ,
1, ,-42, ,
4, ,-42, ,
1, ,-43, ,
0, ,-42, ,
-4, ,-42, ,
1, ,-42, ,
3, ,-42, ,
3, ,-42, ,
-1, ,-43, ,
4, ,-42, ,
6, ,-43, ,
5, ,-43, ,
-1, ,-42, ,
4, ,-42, ,
3, ,-43, ,
0, ,-43, ,
-2, ,-42, ,
1, ,-42, ,
0, ,-42, ,
0, ,-42, ,
-6, ,-43, ,
-1, ,-43, ,
-1, ,-42, ,
-2, ,-42, ,
-4, ,-42, ,
1, ,-42, ,
1, ,-43, ,
0, ,-42, ,
-1, ,-42, ,
4, ,-43, ,
3, ,-43, ,
3, ,-42, ,
-5, ,-43, ,
-1, ,-43, ,
0, ,-42, ,
0, ,-43, ,
-5, ,-42, ,
1, ,-42, ,
1, ,-43, ,
0, ,-43, ,
-4, ,-42, ,
-1, ,-42, ,
-1, ,-42, ,
0, ,-42, ,
-1, ,-43, ,
3, ,-43, ,
5, ,-42, ,
3, ,-42, ,
-1, ,-42, ,
5, ,-42, ,
3, ,-43, ,
3, ,-42, ,
0, ,-42, ,
1, ,-42, ,
3, ,-42, ,
3, ,-42, ,
-4, ,-43, ,
0, ,-42, ,
0, ,-42, ,
-1, ,-42, ,
-5, ,-42, ,
1, ,-42, ,
1, ,-43, ,
0, ,-43, ,
-1, ,-42, ,
4, ,-42, ,
3, ,-43, ,
5, ,-42, ,
-1, ,-43, ,
3, ,-42, ,
4, ,-42, ,
-1, ,-43, ,
-4, ,-42, ,
-1, ,-42, ,
-5, ,-43, ,
-2, ,-42, ,
-2, ,-42, ,
0, ,-42, ,
1, ,-43, ,
0, ,-42, ,
-2, ,-42, ,
0, ,-43, ,
0, ,-42, ,
-2, ,-43, ,
-4, ,-42, ,
1, ,-42, ,
0, ,-43, ,
-2, ,-42, ,
-2, ,-42, ,
0, ,-42, ,
-1, ,-43, ,
-1, ,-42, ,
-5, ,-43, ,
-2, ,-43, ,
0, ,-42, ,
-5, ,-43, ,
-6, ,-42, ,
-1, ,-42, ,
-5, ,-43, ,
-2, ,-42, ,
-6, ,-42, ,
-1, ,-42, ,
0, ,-43, ,
1, ,-42, ,
-2, ,-43, ,
0, ,-42, ,
-1, ,-42, ,
-4, ,-42, ,
-6, ,-42, ,
1, ,-42, ,
-2, ,-43, ,
-4, ,-43, ,
-1, ,-42, ,
1, ,-42, ,
1, ,-43, ,
4, ,-42, ,
-2, ,-42, ,
1, ,-43, ,
3, ,-42, ,
-4, ,-43, ,
-6, ,-42, ,
-1, ,-42, ,
-2, ,-43, ,
-4, ,-42, ,
-2, ,-42, ,
0, ,-42, ,
1, ,-43, ,
3, ,-42, ,
-2, ,-43, ,
3, ,-43, ,
3, ,-42, ,
1, ,-43, ,
-1, ,-42, ,
1, ,-42, ,
0, ,-43, ,
-2, ,-43, ,
-4, ,-42, ,
-2, ,-42, ,
-4, ,-43, ,
3, ,-42, ,
-2, ,-43, ,
3, ,-43, ,
4, ,-42, ,
-1, ,-43, ,
-6, ,-42, ,
0, ,-42, ,
-4, ,-43, ,
1, ,-42, ,
0, ,-42, ,
1, ,-42, ,
5, ,-43, ,
3, ,-42, ,
-1, ,-42, ,
1, ,-43, ,
4, ,-42, ,
1, ,-43, ,
-2, ,-42, ,
4, ,-42, ,
-1, ,-43, ,
-1, ,-42, ,
-4, ,-42, ,
-1, ,-42, ,
0, ,-42, ,
0, ,-42, ,
-4, ,-42, ,
-1, ,-42, ,
0, ,-42, ,
1, ,-43, ,
1, ,-42, ,
4, ,-42, ,
3, ,-43, ,
-1, ,-42, ,
-1, ,-42, ,
0, ,-42, ,
0, ,-43, ,
-1, ,-42, ,
-9, ,-43, ,
-2, ,-43, ,
0, ,-42, ,
-2, ,-43, ,
-5, ,-42, ,
4, ,-42, ,
0, ,-43, ,
-4, ,-42, ,
-4, ,-42, ,
0, ,-42, ,
0, ,-43, ,
4, ,-42, ,
-1, ,-43, ,
3, ,-42, ,
4, ,-42, ,
1, ,-43, ,
-2, ,-42, ,
3, ,-42, ,
-1, ,-43, ,
1, ,-42, ,
-2, ,-42, ,
1, ,-42, ,
1, ,-43, ,
3, ,-42, ,
-1, ,-43, ,
1, ,-42, ,
3, ,-42, ,
0, ,-43, ,
3, ,-42, ,
9, ,-42, ,
6, ,-43, ,
6, ,-43, ,
4, ,-42, ,
4, ,-42, ,
1, ,-42, ,
1, ,-42, ,
-5, ,-43, ,
1, ,-43, ,
5, ,-42, ,
4, ,-43, ,
3, ,-42, ,
6, ,-42, ,
3, ,-43, ,
4, ,-42, ,
0, ,-42, ,
1, ,-42, ,
3, ,-43, ,
4, ,-42, ,
-1, ,-43, ,
4, ,-43, ,
1, ,-42, ,
3, ,-42, ,
0, ,-42, ,
4, ,-42, ,
4, ,-43, ,
4, ,-43, ,
3, ,-42, ,
3, ,-43, ,
4, ,-43, ,
4, ,-42, ,
-4, ,-43, ,
3, ,-43, ,
4, ,-43, ,
0, ,-43, ,
-2, ,-42, ,
1, ,-42, ,
3, ,-43, ,
4, ,-43, ,
3, ,-42, ,
1, ,-42, ,
4, ,-42, ,
3, ,-42, ,
-2, ,-43, ,
3, ,-43, ,
3, ,-42, ,
3, ,-43, ,
3, ,-42, ,
8, ,-42, ,
5, ,-43, ,
3, ,-42, ,
1, ,-42, ,
3, ,-43, ,
1, ,-42, ,
4, ,-42, ,
-4, ,-43, ,
4, ,-42, ,
4, ,-43, ,
0, ,-42, ,
0, ,-42, ,
8, ,-42, ,
4, ,-43, ,
4, ,-42, ,
-2, ,-42, ,
0, ,-42, ,
3, ,-42, ,
1, ,-42, ,
-1, ,-43, ,
4, ,-43, ,
5, ,-42, ,
3, ,-43, ,
-2, ,-42, ,
5, ,-42, ,
1, ,-43, ,
-1, ,-43, ,
0, ,-42, ,
6, ,-43, ,
3, ,-42, ,
-2, ,-42, ,
0, ,-43, ,
4, ,-43, ,
5, ,-42, ,
4, ,-43, ,
0, ,-42, ,
6, ,-42, ,
5, ,-43, ,
5, ,-43, ,
4, ,-42, ,
4, ,-43, ,
