src/varyamp_1559/temp0000273.CSV

Format,1.0B,
Memory Length,10000,Memory Length,10000,
IntpDistance,0,IntpDistance,0,
Trigger Address,4999,Trigger Address,4999,
Trigger Level,1.040E+00,Trigger Level,1.040E+00,
Source,CH1,Source,CH2,
Vertical Units,V,Vertical Units,V,
Vertical Units Div,0,Vertical Units Div,0,
Vertical Units Extend Div,16,Vertical Units Extend Div,16,
Label,,Label,,
Probe Type,0,Probe Type,0,
Probe Ratio,1.000e+01,Probe Ratio,1.000e+00,
Vertical Scale,5.000e-01,Vertical Scale,1.000e+00,
Vertical Position,-1.820e+00,Vertical Position,0.000e+00,
Horizontal Units,S,Horizontal Units,S,
Horizontal Scale,2.000E-05,Horizontal Scale,2.000E-05,
Horizontal Position,0.000E+00,Horizontal Position,0.000E+00,
Horizontal Mode,Main,Horizontal Mode,Main,
SincET Mode,Real Time,SincET Mode,Real Time,
Sampling Period,2.000e-08,Sampling Period,2.000e-08,
Horizontal Old Scale,2.000E-05,Horizontal Old Scale,2.000E-05,
Horizontal Old Position,0.000E+00,Horizontal Old Position,0.000E+00,
Firmware,V1.23,Firmware,V1.23,
Mode,Fast,Mode,Fast,
Waveform Data,,Waveform Data,,
2, ,-36, ,
1, ,-36, ,
1, ,-36, ,
2, ,-36, ,
1, ,-36, ,
1, ,-36, ,
2, ,-36, ,
1, ,-36, ,
1, ,-36, ,
2, ,-35, ,
1, ,-36, ,
1, ,-36, ,
2, ,-36, ,
1, ,-36, ,
1, ,-36, ,
2, ,-36, ,
1, ,-36, ,
1, ,-36, ,
2, ,-36, ,
1, ,-36, ,
1, ,-37, ,
2, ,-35, ,
1, ,-36, ,
1, ,-36, ,
2, ,-36, ,
1, ,-36, ,
1, ,-36, ,
2, ,-35, ,
1, ,-36, ,
1, ,-36, ,
2, ,-36, ,
1, ,-36, ,
1, ,-36, ,
2, ,-35, ,
1, ,-36, ,
1, ,-36, ,
2, ,-36, ,
1, ,-36, ,
1, ,-36, ,
2, ,-35, ,
1, ,-36, ,
-1, ,-36, ,
2, ,-36, ,
1, ,-36, ,
1, ,-37, ,
2, ,-35, ,
1, ,-36, ,
-1, ,-36, ,
2, ,-36, ,
1, ,-36, ,
1, ,-36, ,
1, ,-36, ,
1, ,-36, ,
-1, ,-36, ,
2, ,-36, ,
1, ,-36, ,
1, ,-36, ,
2, ,-35, ,
2, ,-36, ,
-1, ,-36, ,
2, ,-36, ,
1, ,-36, ,
1, ,-36, ,
1, ,-36, ,
1, ,-36, ,
-1, ,-36, ,
2, ,-36, ,
1, ,-36, ,
1, ,-37, ,
2, ,-35, ,
1, ,-36, ,
-1, ,-36, ,
2, ,-36, ,
1, ,-36, ,
1, ,-36, ,
1, ,-36, ,
1, ,-36, ,
1, ,-36, ,
2, ,-36, ,
1, ,-36, ,
1, ,-37, ,
2, ,-35, ,
1, ,-36, ,
-1, ,-36, ,
2, ,-36, ,
1, ,-36, ,
1, ,-36, ,
1, ,-36, ,
1, ,-36, ,
1, ,-36, ,
2, ,-36, ,
1, ,-36, ,
1, ,-37, ,
2, ,-35, ,
2, ,-36, ,
-1, ,-36, ,
2, ,-36, ,
1, ,-36, ,
1, ,-36, ,
2, ,-36, ,
1, ,-36, ,
-1, ,-36, ,
2, ,-36, ,
1, ,-36, ,
1, ,-36, ,
2, ,-35, ,
1, ,-36, ,
-1, ,-36, ,
2, ,-36, ,
1, ,-36, ,
1, ,-36, ,
1, ,-36, ,
1, ,-36, ,
-1, ,-36, ,
2, ,-36, ,
1, ,-36, ,
1, ,-36, ,
2, ,-35, ,
1, ,-36, ,
-1, ,-36, ,
2, ,-36, ,
1, ,-36, ,
1, ,-36, ,
2, ,-36, ,
2, ,-36, ,
-1, ,-36, ,
2, ,-36, ,
1, ,-36, ,
1, ,-37, ,
2, ,-35, ,
1, ,-36, ,
-1, ,-36, ,
2, ,-36, ,
1, ,-36, ,
1, ,-36, ,
2, ,-36, ,
1, ,-36, ,
1, ,-36, ,
2, ,-36, ,
1, ,-36, ,
1, ,-36, ,
2, ,-35, ,
1, ,-36, ,
-1, ,-36, ,
2, ,-36, ,
1, ,-36, ,
1, ,-36, ,
2, ,-36, ,
1, ,-36, ,
-1, ,-36, ,
2, ,-36, ,
1, ,-36, ,
1, ,-37, ,
2, ,-35, ,
1, ,-36, ,
-1, ,-36, ,
2, ,-36, ,
1, ,-36, ,
1, ,-36, ,
1, ,-36, ,
1, ,-36, ,
-1, ,-36, ,
2, ,-36, ,
1, ,-36, ,
1, ,-36, ,
1, ,-36, ,
1, ,-36, ,
-1, ,-36, ,
2, ,-36, ,
1, ,-36, ,
1, ,-37, ,
2, ,-36, ,
1, ,-36, ,
-1, ,-36, ,
2, ,-36, ,
1, ,-36, ,
1, ,-36, ,
2, ,-35, ,
1, ,-36, ,
-1, ,-36, ,
2, ,-36, ,
-1, ,-36, ,
1, ,-36, ,
1, ,-36, ,
1, ,-36, ,
-1, ,-36, ,
2, ,-36, ,
1, ,-36, ,
1, ,-36, ,
1, ,-36, ,
1, ,-36, ,
-1, ,-37, ,
2, ,-36, ,
1, ,-36, ,
1, ,-36, ,
1, ,-36, ,
1, ,-36, ,
-1, ,-36, ,
2, ,-36, ,
1, ,-36, ,
1, ,-36, ,
1, ,-36, ,
1, ,-36, ,
-1, ,-36, ,
2, ,-36, ,
1, ,-36, ,
1, ,-36, ,
1, ,-36, ,
1, ,-36, ,
-1, ,-36, ,
2, ,-36, ,
1, ,-36, ,
1, ,-37, ,
2, ,-36, ,
1, ,-36, ,
-1, ,-36, ,
2, ,-36, ,
1, ,-36, ,
1, ,-36, ,
1, ,-36, ,
1, ,-36, ,
-1, ,-36, ,
2, ,-36, ,
1, ,-36, ,
1, ,-37, ,
1, ,-35, ,
1, ,-36, ,
-1, ,-36, ,
2, ,-36, ,
1, ,-36, ,
1, ,-37, ,
1, ,-36, ,
1, ,-36, ,
-1, ,-36, ,
2, ,-36, ,
1, ,-36, ,
1, ,-36, ,
1, ,-36, ,
1, ,-36, ,
-1, ,-36, ,
2, ,-36, ,
1, ,-36, ,
1, ,-36, ,
1, ,-36, ,
1, ,-36, ,
-1, ,-36, ,
2, ,-36, ,
1, ,-36, ,
1, ,-36, ,
1, ,-36, ,
1, ,-36, ,
-1, ,-36, ,
2, ,-36, ,
1, ,-36, ,
1, ,-36, ,
1, ,-36, ,
1, ,-36, ,
-1, ,-36, ,
2, ,-36, ,
1, ,-36, ,
1, ,-36, ,
1, ,-36, ,
1, ,-36, ,
-1, ,-36, ,
2, ,-36, ,
1, ,-36, ,
1, ,-36, ,
1, ,-36, ,
1, ,-36, ,
-1, ,-36, ,
80, ,-36, ,
49, ,-36, ,
31, ,-37, ,
21, ,-36, ,
13, ,-36, ,
8, ,-36, ,
7, ,-36, ,
5, ,-36, ,
3, ,-37, ,
3, ,-36, ,
3, ,-36, ,
2, ,-36, ,
3, ,-36, ,
2, ,-36, ,
2, ,-36, ,
2, ,-36, ,
3, ,-36, ,
2, ,-36, ,
3, ,-36, ,
2, ,-36, ,
2, ,-37, ,
3, ,-36, ,
2, ,-36, ,
2, ,-36, ,
3, ,-36, ,
2, ,-36, ,
2, ,-37, ,
3, ,-35, ,
2, ,-36, ,
1, ,-36, ,
3, ,-36, ,
2, ,-36, ,
2, ,-36, ,
2, ,-36, ,
3, ,-36, ,
2, ,-36, ,
3, ,-36, ,
2, ,-35, ,
2, ,-21, ,
3, ,-1, ,
3, ,14, ,
2, ,24, ,
3, ,33, ,
2, ,39, ,
2, ,44, ,
3, ,46, ,
3, ,50, ,
1, ,53, ,
3, ,54, ,
2, ,55, ,
2, ,56, ,
3, ,55, ,
2, ,56, ,
2, ,57, ,
3, ,56, ,
2, ,57, ,
2, ,58, ,
3, ,56, ,
2, ,57, ,
2, ,58, ,
3, ,57, ,
2, ,57, ,
2, ,58, ,
3, ,56, ,
2, ,57, ,
1, ,57, ,
3, ,57, ,
2, ,57, ,
2, ,58, ,
3, ,56, ,
2, ,57, ,
1, ,58, ,
2, ,57, ,
2, ,57, ,
2, ,57, ,
2, ,56, ,
2, ,57, ,
2, ,57, ,
2, ,56, ,
2, ,57, ,
1, ,58, ,
3, ,56, ,
2, ,57, ,
1, ,58, ,
3, ,57, ,
2, ,57, ,
2, ,57, ,
2, ,56, ,
2, ,57, ,
1, ,57, ,
2, ,56, ,
2, ,57, ,
2, ,57, ,
2, ,56, ,
2, ,57, ,
2, ,58, ,
2, ,57, ,
2, ,57, ,
1, ,58, ,
3, ,56, ,
2, ,57, ,
1, ,57, ,
3, ,56, ,
2, ,57, ,
1, ,58, ,
3, ,56, ,
2, ,57, ,
1, ,57, ,
2, ,57, ,
1, ,57, ,
1, ,58, ,
3, ,56, ,
2, ,57, ,
1, ,57, ,
3, ,57, ,
1, ,57, ,
2, ,57, ,
3, ,56, ,
2, ,57, ,
2, ,57, ,
2, ,56, ,
2, ,57, ,
2, ,57, ,
3, ,56, ,
2, ,57, ,
1, ,57, ,
2, ,56, ,
2, ,57, ,
1, ,58, ,
2, ,56, ,
2, ,57, ,
1, ,58, ,
2, ,57, ,
1, ,57, ,
1, ,57, ,
3, ,56, ,
2, ,57, ,
1, ,57, ,
2, ,57, ,
2, ,57, ,
2, ,58, ,
2, ,56, ,
2, ,57, ,
1, ,57, ,
2, ,57, ,
2, ,57, ,
1, ,57, ,
2, ,56, ,
1, ,57, ,
1, ,57, ,
2, ,56, ,
1, ,57, ,
1, ,57, ,
2, ,56, ,
2, ,57, ,
1, ,58, ,
2, ,57, ,
1, ,57, ,
2, ,57, ,
2, ,56, ,
2, ,57, ,
1, ,57, ,
2, ,56, ,
2, ,57, ,
2, ,58, ,
2, ,56, ,
2, ,57, ,
1, ,57, ,
2, ,57, ,
1, ,57, ,
1, ,57, ,
2, ,56, ,
1, ,57, ,
1, ,57, ,
2, ,56, ,
1, ,57, ,
1, ,57, ,
2, ,56, ,
1, ,57, ,
1, ,58, ,
2, ,56, ,
1, ,57, ,
1, ,57, ,
2, ,56, ,
1, ,57, ,
1, ,57, ,
2, ,56, ,
1, ,57, ,
1, ,57, ,
2, ,56, ,
1, ,57, ,
1, ,58, ,
2, ,52, ,
1, ,32, ,
1, ,15, ,
2, ,2, ,
1, ,-8, ,
1, ,-16, ,
2, ,-21, ,
1, ,-24, ,
1, ,-28, ,
2, ,-31, ,
1, ,-32, ,
-1, ,-34, ,
2, ,-35, ,
2, ,-35, ,
2, ,-36, ,
2, ,-36, ,
2, ,-36, ,
1, ,-36, ,
2, ,-37, ,
1, ,-37, ,
1, ,-37, ,
2, ,-37, ,
2, ,-37, ,
1, ,-37, ,
2, ,-37, ,
1, ,-37, ,
2, ,-37, ,
2, ,-36, ,
2, ,-37, ,
1, ,-37, ,
2, ,-37, ,
1, ,-36, ,
1, ,-37, ,
2, ,-37, ,
2, ,-36, ,
1, ,-37, ,
2, ,-37, ,
1, ,-36, ,
1, ,-37, ,
2, ,-36, ,
2, ,-36, ,
1, ,-37, ,
2, ,-37, ,
1, ,-36, ,
2, ,-37, ,
2, ,-36, ,
2, ,-37, ,
1, ,-36, ,
2, ,-36, ,
1, ,-36, ,
1, ,-37, ,
2, ,-36, ,
2, ,-36, ,
1, ,-36, ,
3, ,-36, ,
1, ,-36, ,
1, ,-37, ,
2, ,-36, ,
2, ,-37, ,
1, ,-36, ,
2, ,-36, ,
1, ,-36, ,
2, ,-37, ,
2, ,-35, ,
2, ,-36, ,
1, ,-36, ,
2, ,-36, ,
1, ,-36, ,
1, ,-37, ,
2, ,-36, ,
2, ,-36, ,
1, ,-36, ,
2, ,-36, ,
1, ,-36, ,
1, ,-37, ,
2, ,-36, ,
2, ,-37, ,
1, ,-37, ,
2, ,-36, ,
1, ,-36, ,
2, ,-36, ,
2, ,-36, ,
2, ,-36, ,
1, ,-36, ,
2, ,-36, ,
1, ,-36, ,
2, ,-37, ,
2, ,-36, ,
2, ,-36, ,
1, ,-37, ,
2, ,-36, ,
1, ,-36, ,
1, ,-37, ,
2, ,-36, ,
2, ,-36, ,
1, ,-36, ,
2, ,-36, ,
1, ,-36, ,
1, ,-36, ,
2, ,-35, ,
1, ,-36, ,
-1, ,-37, ,
2, ,-36, ,
1, ,-36, ,
1, ,-36, ,
2, ,-36, ,
1, ,-36, ,
1, ,-36, ,
2, ,-36, ,
1, ,-36, ,
2, ,-36, ,
2, ,-36, ,
1, ,-36, ,
-1, ,-36, ,
2, ,-36, ,
1, ,-36, ,
1, ,-36, ,
2, ,-36, ,
1, ,-36, ,
-1, ,-36, ,
2, ,-36, ,
1, ,-36, ,
1, ,-36, ,
2, ,-35, ,
2, ,-36, ,
1, ,-36, ,
2, ,-36, ,
1, ,-36, ,
1, ,-37, ,
2, ,-36, ,
2, ,-36, ,
-1, ,-36, ,
2, ,-36, ,
1, ,-36, ,
1, ,-36, ,
2, ,-35, ,
1, ,-36, ,
-1, ,-36, ,
2, ,-36, ,
1, ,-36, ,
1, ,-36, ,
2, ,-36, ,
1, ,-36, ,
1, ,-36, ,
2, ,-36, ,
1, ,-36, ,
1, ,-37, ,
2, ,-35, ,
1, ,-36, ,
-1, ,-37, ,
2, ,-36, ,
1, ,-36, ,
2, ,-36, ,
1, ,-36, ,
1, ,-36, ,
1, ,-36, ,
2, ,-36, ,
1, ,-36, ,
1, ,-36, ,
2, ,-36, ,
1, ,-36, ,
-1, ,-36, ,
2, ,-36, ,
1, ,-36, ,
1, ,-37, ,
2, ,-36, ,
1, ,-36, ,
1, ,-36, ,
2, ,-36, ,
1, ,-36, ,
1, ,-36, ,
2, ,-35, ,
1, ,-36, ,
-1, ,-36, ,
2, ,-36, ,
1, ,-36, ,
1, ,-36, ,
2, ,-36, ,
1, ,-36, ,
1, ,-36, ,
2, ,-36, ,
1, ,-36, ,
1, ,-37, ,
2, ,-35, ,
1, ,-36, ,
-1, ,-36, ,
2, ,-36, ,
1, ,-36, ,
1, ,-36, ,
1, ,-36, ,
1, ,-36, ,
1, ,-36, ,
2, ,-36, ,
1, ,-36, ,
1, ,-36, ,
2, ,-36, ,
2, ,-36, ,
-1, ,-36, ,
2, ,-36, ,
1, ,-36, ,
1, ,-36, ,
2, ,-36, ,
1, ,-36, ,
1, ,-36, ,
2, ,-36, ,
1, ,-36, ,
1, ,-37, ,
2, ,-35, ,
59, ,-36, ,
38, ,-36, ,
24, ,-36, ,
15, ,-36, ,
11, ,-36, ,
8, ,-36, ,
7, ,-36, ,
3, ,-36, ,
5, ,-36, ,
2, ,-36, ,
2, ,-36, ,
3, ,-35, ,
3, ,-36, ,
2, ,-36, ,
3, ,-36, ,
2, ,-36, ,
2, ,-36, ,
3, ,-36, ,
3, ,-36, ,
2, ,-36, ,
3, ,-36, ,
2, ,-36, ,
2, ,-37, ,
3, ,-36, ,
3, ,-36, ,
2, ,-36, ,
3, ,-36, ,
2, ,-36, ,
2, ,-36, ,
2, ,-36, ,
2, ,-36, ,
1, ,-36, ,
2, ,-36, ,
2, ,-36, ,
2, ,-36, ,
3, ,-35, ,
2, ,-36, ,
1, ,-36, ,
3, ,-36, ,
2, ,-36, ,
2, ,-36, ,
2, ,-36, ,
2, ,-36, ,
1, ,-36, ,
3, ,-36, ,
2, ,-36, ,
2, ,-36, ,
2, ,-36, ,
2, ,-36, ,
2, ,-36, ,
3, ,-36, ,
2, ,-36, ,
1, ,-36, ,
2, ,-36, ,
3, ,-36, ,
1, ,-36, ,
3, ,-36, ,
2, ,-36, ,
2, ,-36, ,
2, ,-35, ,
2, ,-36, ,
1, ,-36, ,
3, ,-36, ,
2, ,-36, ,
2, ,-37, ,
2, ,-36, ,
2, ,-36, ,
1, ,-36, ,
3, ,-36, ,
2, ,-36, ,
2, ,-36, ,
2, ,-36, ,
2, ,-36, ,
1, ,-36, ,
3, ,-36, ,
2, ,-36, ,
2, ,-36, ,
2, ,-36, ,
2, ,-36, ,
1, ,-36, ,
3, ,-36, ,
2, ,-36, ,
2, ,-37, ,
2, ,-36, ,
2, ,-36, ,
1, ,-36, ,
3, ,-36, ,
2, ,-36, ,
2, ,-36, ,
2, ,-36, ,
2, ,-36, ,
1, ,-36, ,
3, ,-36, ,
2, ,-36, ,
2, ,-36, ,
2, ,-35, ,
2, ,-36, ,
1, ,-36, ,
3, ,-36, ,
2, ,-36, ,
2, ,-36, ,
2, ,-36, ,
2, ,-36, ,
1, ,-36, ,
3, ,-36, ,
2, ,-36, ,
2, ,-37, ,
2, ,-35, ,
2, ,-36, ,
1, ,-36, ,
3, ,-36, ,
2, ,-36, ,
2, ,-36, ,
2, ,-36, ,
3, ,-36, ,
1, ,-36, ,
3, ,-36, ,
2, ,-36, ,
2, ,-36, ,
2, ,-36, ,
2, ,-36, ,
1, ,-36, ,
3, ,-36, ,
1, ,-36, ,
2, ,-36, ,
2, ,-36, ,
2, ,-36, ,
1, ,-36, ,
2, ,-36, ,
1, ,-36, ,
2, ,-36, ,
3, ,-36, ,
2, ,-36, ,
1, ,-36, ,
3, ,-36, ,
2, ,-36, ,
2, ,-36, ,
2, ,-36, ,
2, ,-36, ,
1, ,-36, ,
3, ,-36, ,
2, ,-36, ,
2, ,-36, ,
2, ,-35, ,
2, ,-36, ,
1, ,-36, ,
3, ,-36, ,
2, ,-36, ,
2, ,-36, ,
2, ,-36, ,
2, ,-36, ,
1, ,-36, ,
3, ,-36, ,
2, ,-36, ,
1, ,-36, ,
2, ,-35, ,
2, ,-36, ,
1, ,-36, ,
3, ,-36, ,
2, ,-35, ,
2, ,-36, ,
2, ,-36, ,
2, ,-36, ,
1, ,-36, ,
2, ,-36, ,
1, ,-36, ,
1, ,-37, ,
2, ,-36, ,
2, ,-36, ,
1, ,-36, ,
2, ,-36, ,
1, ,-36, ,
2, ,-37, ,
2, ,-36, ,
2, ,-36, ,
1, ,-36, ,
2, ,-36, ,
1, ,-36, ,
1, ,-36, ,
2, ,-36, ,
2, ,-36, ,
1, ,-36, ,
2, ,-36, ,
1, ,-36, ,
2, ,-36, ,
2, ,-36, ,
2, ,-36, ,
1, ,-36, ,
2, ,-36, ,
1, ,-36, ,
1, ,-36, ,
2, ,-36, ,
2, ,-36, ,
1, ,-36, ,
2, ,-36, ,
1, ,-36, ,
1, ,-36, ,
2, ,-36, ,
1, ,-36, ,
1, ,-36, ,
2, ,-36, ,
1, ,-36, ,
1, ,-36, ,
2, ,-36, ,
2, ,-36, ,
1, ,-36, ,
2, ,-36, ,
1, ,-36, ,
2, ,-36, ,
2, ,-36, ,
2, ,-36, ,
1, ,-36, ,
2, ,-36, ,
1, ,-36, ,
2, ,-37, ,
2, ,-35, ,
2, ,-36, ,
1, ,-36, ,
3, ,-36, ,
1, ,-36, ,
1, ,-36, ,
2, ,-36, ,
2, ,-36, ,
1, ,-36, ,
2, ,-36, ,
1, ,-36, ,
2, ,-36, ,
2, ,-35, ,
2, ,-36, ,
1, ,-36, ,
2, ,-36, ,
1, ,-36, ,
2, ,-36, ,
2, ,-36, ,
2, ,-36, ,
1, ,-36, ,
2, ,-36, ,
1, ,-36, ,
2, ,-36, ,
2, ,-35, ,
2, ,-36, ,
1, ,-36, ,
2, ,-36, ,
1, ,-36, ,
2, ,-36, ,
2, ,-36, ,
2, ,-36, ,
1, ,-36, ,
2, ,-36, ,
1, ,-36, ,
1, ,-37, ,
2, ,-35, ,
2, ,-36, ,
1, ,-36, ,
2, ,-36, ,
1, ,-36, ,
2, ,-36, ,
2, ,-36, ,
1, ,-36, ,
1, ,-36, ,
2, ,-36, ,
1, ,-36, ,
1, ,-37, ,
2, ,-35, ,
2, ,-36, ,
1, ,-36, ,
2, ,-36, ,
1, ,-36, ,
2, ,-36, ,
2, ,-36, ,
2, ,-36, ,
1, ,-36, ,
2, ,-36, ,
1, ,-36, ,
2, ,-37, ,
2, ,-35, ,
2, ,-36, ,
1, ,-36, ,
2, ,-36, ,
1, ,-36, ,
1, ,-36, ,
2, ,-36, ,
2, ,-36, ,
1, ,-36, ,
2, ,-36, ,
1, ,-36, ,
1, ,-37, ,
2, ,-36, ,
2, ,-36, ,
1, ,-36, ,
2, ,-36, ,
1, ,-36, ,
1, ,-36, ,
2, ,-36, ,
2, ,-36, ,
1, ,-36, ,
2, ,-36, ,
1, ,-36, ,
1, ,-36, ,
2, ,-36, ,
1, ,-36, ,
1, ,-36, ,
2, ,-36, ,
1, ,-36, ,
1, ,-36, ,
2, ,-36, ,
2, ,-36, ,
1, ,-37, ,
2, ,-36, ,
1, ,-36, ,
1, ,-36, ,
2, ,-36, ,
1, ,-36, ,
-1, ,-36, ,
2, ,-36, ,
1, ,-36, ,
1, ,-36, ,
2, ,-36, ,
1, ,-36, ,
-1, ,-36, ,
2, ,-36, ,
1, ,-36, ,
1, ,-37, ,
2, ,-36, ,
1, ,-36, ,
-1, ,-36, ,
2, ,-36, ,
1, ,-36, ,
1, ,-37, ,
2, ,-36, ,
2, ,-36, ,
1, ,-36, ,
2, ,-36, ,
1, ,-36, ,
1, ,-37, ,
2, ,-36, ,
1, ,-36, ,
1, ,-36, ,
2, ,-36, ,
1, ,-36, ,
1, ,-36, ,
1, ,-36, ,
1, ,-36, ,
-1, ,-36, ,
2, ,-36, ,
1, ,-36, ,
1, ,-36, ,
1, ,-35, ,
2, ,-36, ,
1, ,-36, ,
2, ,-36, ,
1, ,-36, ,
1, ,-36, ,
2, ,-36, ,
2, ,-36, ,
1, ,-36, ,
2, ,-36, ,
1, ,-36, ,
1, ,-36, ,
2, ,-36, ,
1, ,-36, ,
-1, ,-36, ,
2, ,-36, ,
1, ,-36, ,
1, ,-36, ,
2, ,-36, ,
1, ,-36, ,
1, ,-37, ,
2, ,-36, ,
1, ,-36, ,
1, ,-36, ,
2, ,-36, ,
2, ,-36, ,
1, ,-36, ,
2, ,-36, ,
1, ,-36, ,
1, ,-36, ,
2, ,-36, ,
1, ,-36, ,
-1, ,-36, ,
2, ,-36, ,
1, ,-36, ,
1, ,-37, ,
1, ,-36, ,
1, ,-36, ,
-1, ,-36, ,
2, ,-36, ,
1, ,-36, ,
1, ,-37, ,
2, ,-36, ,
1, ,-36, ,
1, ,-36, ,
2, ,-36, ,
1, ,-36, ,
1, ,-37, ,
2, ,-35, ,
1, ,-36, ,
-1, ,-36, ,
2, ,-36, ,
1, ,-36, ,
1, ,-36, ,
2, ,-36, ,
1, ,-36, ,
1, ,-37, ,
2, ,-36, ,
1, ,-36, ,
1, ,-36, ,
2, ,-36, ,
2, ,-36, ,
-1, ,-36, ,
2, ,-36, ,
1, ,-36, ,
1, ,-36, ,
2, ,-36, ,
1, ,-36, ,
-1, ,-36, ,
2, ,-36, ,
1, ,-36, ,
1, ,-36, ,
1, ,-23, ,
1, ,-4, ,
1, ,12, ,
2, ,23, ,
1, ,32, ,
2, ,39, ,
2, ,42, ,
2, ,46, ,
1, ,51, ,
2, ,52, ,
1, ,54, ,
1, ,55, ,
2, ,54, ,
1, ,56, ,
-1, ,56, ,
1, ,56, ,
1, ,56, ,
1, ,58, ,
1, ,56, ,
1, ,57, ,
1, ,58, ,
2, ,57, ,
1, ,57, ,
1, ,58, ,
2, ,56, ,
1, ,57, ,
-1, ,58, ,
2, ,57, ,
1, ,57, ,
1, ,58, ,
1, ,56, ,
1, ,57, ,
-1, ,58, ,
2, ,57, ,
1, ,57, ,
1, ,57, ,
2, ,56, ,
1, ,57, ,
-1, ,57, ,
2, ,57, ,
1, ,57, ,
1, ,58, ,
1, ,56, ,
1, ,57, ,
-1, ,58, ,
2, ,57, ,
1, ,57, ,
1, ,58, ,
1, ,56, ,
1, ,57, ,
-1, ,57, ,
2, ,56, ,
1, ,57, ,
1, ,57, ,
1, ,56, ,
1, ,57, ,
-1, ,58, ,
2, ,57, ,
1, ,57, ,
1, ,57, ,
2, ,56, ,
1, ,57, ,
-1, ,57, ,
2, ,56, ,
1, ,57, ,
1, ,57, ,
2, ,56, ,
1, ,57, ,
-1, ,58, ,
2, ,57, ,
1, ,57, ,
1, ,57, ,
1, ,56, ,
1, ,57, ,
-1, ,57, ,
2, ,56, ,
1, ,57, ,
1, ,57, ,
2, ,56, ,
1, ,57, ,
1, ,57, ,
2, ,57, ,
1, ,57, ,
1, ,57, ,
2, ,56, ,
1, ,57, ,
-1, ,57, ,
2, ,57, ,
1, ,57, ,
1, ,58, ,
2, ,56, ,
1, ,57, ,
1, ,57, ,
2, ,57, ,
1, ,57, ,
1, ,57, ,
2, ,56, ,
1, ,57, ,
1, ,57, ,
2, ,56, ,
1, ,57, ,
1, ,57, ,
2, ,56, ,
1, ,57, ,
1, ,58, ,
2, ,57, ,
1, ,57, ,
1, ,57, ,
1, ,56, ,
1, ,57, ,
-1, ,57, ,
1, ,57, ,
1, ,57, ,
1, ,58, ,
1, ,56, ,
1, ,57, ,
-1, ,58, ,
2, ,56, ,
1, ,57, ,
1, ,57, ,
2, ,56, ,
1, ,57, ,
-1, ,57, ,
2, ,56, ,
1, ,57, ,
-1, ,57, ,
1, ,56, ,
1, ,57, ,
-1, ,58, ,
2, ,57, ,
1, ,57, ,
1, ,57, ,
2, ,56, ,
1, ,57, ,
-1, ,58, ,
2, ,56, ,
1, ,57, ,
1, ,58, ,
1, ,56, ,
1, ,57, ,
-1, ,58, ,
1, ,57, ,
1, ,56, ,
1, ,57, ,
2, ,55, ,
1, ,56, ,
-1, ,57, ,
2, ,56, ,
1, ,57, ,
1, ,58, ,
1, ,56, ,
1, ,57, ,
-1, ,58, ,
2, ,56, ,
1, ,54, ,
1, ,37, ,
1, ,18, ,
-1, ,4, ,
-1, ,-6, ,
2, ,-14, ,
1, ,-20, ,
-1, ,-24, ,
1, ,-27, ,
1, ,-30, ,
-1, ,-32, ,
1, ,-34, ,
1, ,-34, ,
1, ,-35, ,
1, ,-35, ,
2, ,-36, ,
-1, ,-36, ,
1, ,-36, ,
1, ,-36, ,
1, ,-36, ,
1, ,-36, ,
1, ,-37, ,
-1, ,-37, ,
2, ,-37, ,
1, ,-37, ,
1, ,-37, ,
1, ,-36, ,
1, ,-37, ,
-1, ,-37, ,
2, ,-37, ,
1, ,-37, ,
1, ,-37, ,
1, ,-36, ,
1, ,-37, ,
-1, ,-37, ,
1, ,-37, ,
-1, ,-37, ,
1, ,-37, ,
2, ,-36, ,
1, ,-36, ,
-1, ,-37, ,
2, ,-37, ,
1, ,-36, ,
1, ,-37, ,
1, ,-36, ,
1, ,-37, ,
-1, ,-37, ,
2, ,-37, ,
1, ,-36, ,
1, ,-37, ,
1, ,-36, ,
1, ,-36, ,
-1, ,-37, ,
2, ,-36, ,
1, ,-36, ,
1, ,-37, ,
1, ,-36, ,
1, ,-36, ,
-1, ,-36, ,
2, ,-36, ,
1, ,-36, ,
1, ,-37, ,
1, ,-36, ,
43, ,-36, ,
62, ,-36, ,
40, ,-36, ,
25, ,-36, ,
16, ,-37, ,
11, ,-36, ,
7, ,-37, ,
3, ,-36, ,
5, ,-36, ,
3, ,-36, ,
2, ,-37, ,
3, ,-35, ,
2, ,-36, ,
2, ,-36, ,
3, ,-36, ,
2, ,-36, ,
2, ,-37, ,
2, ,-36, ,
3, ,-36, ,
2, ,-36, ,
3, ,-36, ,
2, ,-36, ,
2, ,-37, ,
2, ,-35, ,
3, ,-36, ,
1, ,-36, ,
3, ,-36, ,
2, ,-36, ,
2, ,-37, ,
3, ,-36, ,
3, ,-36, ,
2, ,-36, ,
3, ,-36, ,
2, ,-36, ,
2, ,-37, ,
3, ,-35, ,
2, ,-36, ,
1, ,-36, ,
3, ,-36, ,
2, ,-36, ,
2, ,-37, ,
2, ,-36, ,
2, ,-36, ,
1, ,-36, ,
3, ,-36, ,
2, ,-36, ,
2, ,-37, ,
2, ,-35, ,
3, ,-36, ,
1, ,-36, ,
3, ,-36, ,
2, ,-36, ,
2, ,-36, ,
3, ,-36, ,
3, ,-36, ,
1, ,-36, ,
3, ,-36, ,
2, ,-36, ,
2, ,-37, ,
2, ,-35, ,
3, ,-36, ,
1, ,-36, ,
3, ,-36, ,
2, ,-36, ,
2, ,-36, ,
2, ,-35, ,
2, ,-36, ,
1, ,-36, ,
3, ,-36, ,
2, ,-36, ,
2, ,-37, ,
2, ,-35, ,
2, ,-36, ,
1, ,-36, ,
3, ,-36, ,
2, ,-36, ,
2, ,-36, ,
2, ,-36, ,
2, ,-36, ,
1, ,-36, ,
3, ,-36, ,
2, ,-36, ,
2, ,-37, ,
2, ,-35, ,
2, ,-36, ,
1, ,-36, ,
3, ,-36, ,
2, ,-36, ,
2, ,-36, ,
2, ,-36, ,
2, ,-36, ,
1, ,-36, ,
3, ,-36, ,
2, ,-36, ,
2, ,-36, ,
2, ,-35, ,
2, ,-36, ,
1, ,-36, ,
3, ,-36, ,
2, ,-36, ,
2, ,-36, ,
2, ,-36, ,
2, ,-36, ,
1, ,-36, ,
3, ,-36, ,
2, ,-36, ,
2, ,-37, ,
2, ,-36, ,
2, ,-36, ,
1, ,-36, ,
3, ,-36, ,
2, ,-36, ,
2, ,-36, ,
2, ,-36, ,
2, ,-36, ,
1, ,-36, ,
3, ,-36, ,
2, ,-36, ,
2, ,-37, ,
2, ,-36, ,
2, ,-36, ,
1, ,-36, ,
3, ,-36, ,
2, ,-36, ,
2, ,-36, ,
2, ,-36, ,
2, ,-36, ,
1, ,-36, ,
3, ,-36, ,
2, ,-36, ,
2, ,-36, ,
3, ,-35, ,
2, ,-36, ,
1, ,-36, ,
2, ,-36, ,
2, ,-36, ,
2, ,-36, ,
2, ,-36, ,
2, ,-36, ,
1, ,-36, ,
3, ,-36, ,
2, ,-36, ,
2, ,-36, ,
2, ,-36, ,
2, ,-36, ,
1, ,-36, ,
3, ,-36, ,
2, ,-36, ,
2, ,-36, ,
2, ,-36, ,
2, ,-36, ,
1, ,-36, ,
3, ,-36, ,
1, ,-36, ,
2, ,-36, ,
2, ,-36, ,
2, ,-36, ,
1, ,-36, ,
2, ,-36, ,
1, ,-36, ,
2, ,-36, ,
2, ,-35, ,
2, ,-36, ,
1, ,-36, ,
2, ,-36, ,
1, ,-36, ,
2, ,-37, ,
2, ,-35, ,
2, ,-36, ,
1, ,-36, ,
2, ,-36, ,
2, ,-36, ,
2, ,-36, ,
2, ,-36, ,
2, ,-36, ,
1, ,-36, ,
2, ,-36, ,
1, ,-36, ,
1, ,-37, ,
2, ,-35, ,
2, ,-36, ,
1, ,-36, ,
2, ,-36, ,
1, ,-36, ,
2, ,-37, ,
2, ,-36, ,
2, ,-36, ,
1, ,-36, ,
2, ,-36, ,
1, ,-36, ,
2, ,-36, ,
2, ,-35, ,
2, ,-36, ,
1, ,-36, ,
2, ,-36, ,
1, ,-36, ,
2, ,-37, ,
2, ,-36, ,
2, ,-36, ,
1, ,-36, ,
2, ,-36, ,
1, ,-36, ,
2, ,-37, ,
2, ,-36, ,
2, ,-36, ,
1, ,-36, ,
2, ,-36, ,
1, ,-36, ,
2, ,-36, ,
2, ,-36, ,
2, ,-36, ,
1, ,-36, ,
2, ,-36, ,
1, ,-36, ,
2, ,-36, ,
2, ,-36, ,
2, ,-36, ,
1, ,-36, ,
2, ,-36, ,
1, ,-36, ,
2, ,-36, ,
2, ,-36, ,
2, ,-36, ,
1, ,-36, ,
2, ,-36, ,
1, ,-36, ,
2, ,-36, ,
2, ,-36, ,
2, ,-36, ,
1, ,-36, ,
2, ,-36, ,
1, ,-36, ,
2, ,-36, ,
2, ,-36, ,
2, ,-36, ,
1, ,-36, ,
2, ,-36, ,
1, ,-36, ,
2, ,-37, ,
2, ,-36, ,
2, ,-36, ,
1, ,-36, ,
2, ,-36, ,
1, ,-36, ,
2, ,-36, ,
2, ,-36, ,
2, ,-36, ,
1, ,-36, ,
2, ,-36, ,
1, ,-36, ,
2, ,-37, ,
2, ,-35, ,
2, ,-36, ,
1, ,-36, ,
2, ,-36, ,
2, ,-36, ,
2, ,-36, ,
2, ,-36, ,
2, ,-36, ,
1, ,-36, ,
2, ,-36, ,
1, ,-36, ,
1, ,-36, ,
2, ,-35, ,
1, ,-36, ,
1, ,-36, ,
2, ,-36, ,
1, ,-36, ,
1, ,-36, ,
2, ,-36, ,
2, ,-36, ,
1, ,-36, ,
2, ,-36, ,
1, ,-36, ,
2, ,-37, ,
2, ,-36, ,
2, ,-36, ,
1, ,-36, ,
2, ,-36, ,
1, ,-36, ,
1, ,-36, ,
2, ,-36, ,
2, ,-36, ,
1, ,-36, ,
2, ,-36, ,
1, ,-36, ,
2, ,-36, ,
2, ,-36, ,
2, ,-36, ,
1, ,-36, ,
2, ,-36, ,
1, ,-36, ,
1, ,-36, ,
2, ,-36, ,
1, ,-36, ,
1, ,-36, ,
2, ,-36, ,
1, ,-36, ,
1, ,-37, ,
2, ,-36, ,
1, ,-36, ,
1, ,-36, ,
2, ,-36, ,
1, ,-36, ,
1, ,-36, ,
2, ,-36, ,
2, ,-36, ,
1, ,-36, ,
2, ,-36, ,
1, ,-36, ,
1, ,-37, ,
2, ,-35, ,
2, ,-36, ,
1, ,-36, ,
2, ,-36, ,
1, ,-36, ,
1, ,-36, ,
2, ,-36, ,
1, ,-36, ,
1, ,-36, ,
1, ,-36, ,
1, ,-36, ,
1, ,-37, ,
2, ,-35, ,
2, ,-36, ,
1, ,-36, ,
2, ,-36, ,
1, ,-36, ,
1, ,-36, ,
2, ,-36, ,
2, ,-36, ,
1, ,-36, ,
2, ,-36, ,
1, ,-36, ,
1, ,-37, ,
2, ,-36, ,
1, ,-36, ,
-1, ,-36, ,
2, ,-36, ,
1, ,-36, ,
1, ,-36, ,
2, ,-36, ,
1, ,-36, ,
-1, ,-36, ,
2, ,-36, ,
1, ,-36, ,
1, ,-36, ,
2, ,-36, ,
1, ,-36, ,
-1, ,-36, ,
2, ,-36, ,
1, ,-36, ,
1, ,-36, ,
2, ,-36, ,
1, ,-36, ,
-1, ,-36, ,
2, ,-36, ,
1, ,-36, ,
1, ,-36, ,
2, ,-36, ,
2, ,-36, ,
1, ,-36, ,
2, ,-36, ,
1, ,-36, ,
1, ,-37, ,
2, ,-36, ,
2, ,-36, ,
1, ,-36, ,
2, ,-36, ,
1, ,-36, ,
1, ,-37, ,
2, ,-35, ,
2, ,-36, ,
1, ,-36, ,
2, ,-36, ,
1, ,-36, ,
2, ,-37, ,
2, ,-36, ,
1, ,-36, ,
1, ,-36, ,
2, ,-36, ,
1, ,-36, ,
1, ,-37, ,
2, ,-36, ,
1, ,-36, ,
-1, ,-36, ,
2, ,-36, ,
1, ,-36, ,
1, ,-36, ,
2, ,-36, ,
2, ,-36, ,
1, ,-36, ,
2, ,-36, ,
1, ,-36, ,
1, ,-37, ,
2, ,-36, ,
1, ,-36, ,
-1, ,-36, ,
2, ,-36, ,
1, ,-36, ,
1, ,-36, ,
2, ,-36, ,
2, ,-36, ,
1, ,-36, ,
2, ,-36, ,
1, ,-36, ,
2, ,-37, ,
2, ,-36, ,
1, ,-36, ,
1, ,-36, ,
2, ,-36, ,
1, ,-36, ,
1, ,-36, ,
2, ,-36, ,
1, ,-36, ,
1, ,-36, ,
2, ,-36, ,
1, ,-36, ,
1, ,-37, ,
2, ,-35, ,
1, ,-36, ,
-1, ,-36, ,
2, ,-36, ,
1, ,-36, ,
1, ,-36, ,
2, ,-36, ,
1, ,-36, ,
-1, ,-36, ,
2, ,-36, ,
1, ,-36, ,
1, ,-36, ,
2, ,-35, ,
2, ,-36, ,
-1, ,-36, ,
2, ,-36, ,
