src/varyamp_1559/temp0000514.CSV

Format,1.0B,
Memory Length,10000,Memory Length,10000,
IntpDistance,0,IntpDistance,0,
Trigger Address,4999,Trigger Address,4999,
Trigger Level,1.040E+00,Trigger Level,1.040E+00,
Source,CH1,Source,CH2,
Vertical Units,V,Vertical Units,V,
Vertical Units Div,0,Vertical Units Div,0,
Vertical Units Extend Div,16,Vertical Units Extend Div,16,
Label,,Label,,
Probe Type,0,Probe Type,0,
Probe Ratio,1.000e+01,Probe Ratio,1.000e+00,
Vertical Scale,5.000e-01,Vertical Scale,1.000e+00,
Vertical Position,-1.820e+00,Vertical Position,0.000e+00,
Horizontal Units,S,Horizontal Units,S,
Horizontal Scale,2.000E-05,Horizontal Scale,2.000E-05,
Horizontal Position,0.000E+00,Horizontal Position,0.000E+00,
Horizontal Mode,Main,Horizontal Mode,Main,
SincET Mode,Real Time,SincET Mode,Real Time,
Sampling Period,2.000e-08,Sampling Period,2.000e-08,
Horizontal Old Scale,2.000E-05,Horizontal Old Scale,2.000E-05,
Horizontal Old Position,0.000E+00,Horizontal Old Position,0.000E+00,
Firmware,V1.23,Firmware,V1.23,
Mode,Fast,Mode,Fast,
Waveform Data,,Waveform Data,,
1, ,-36, ,
1, ,-36, ,
-1, ,-35, ,
1, ,-36, ,
-1, ,-35, ,
1, ,-36, ,
1, ,-36, ,
1, ,-36, ,
-1, ,-35, ,
1, ,-35, ,
-1, ,-36, ,
-1, ,-35, ,
1, ,-35, ,
1, ,-36, ,
-1, ,-35, ,
1, ,-35, ,
-1, ,-35, ,
1, ,-35, ,
1, ,-36, ,
1, ,-36, ,
-1, ,-35, ,
2, ,-36, ,
-1, ,-36, ,
1, ,-35, ,
1, ,-36, ,
1, ,-36, ,
-1, ,-35, ,
1, ,-35, ,
-1, ,-35, ,
-1, ,-36, ,
1, ,-36, ,
1, ,-36, ,
-1, ,-35, ,
2, ,-36, ,
-1, ,-36, ,
-1, ,-35, ,
1, ,-35, ,
1, ,-36, ,
-1, ,-35, ,
1, ,-35, ,
-1, ,-36, ,
1, ,-36, ,
1, ,-35, ,
1, ,-36, ,
-1, ,-35, ,
1, ,-36, ,
1, ,-36, ,
1, ,-36, ,
1, ,-35, ,
1, ,-36, ,
-1, ,-35, ,
2, ,-36, ,
-1, ,-36, ,
1, ,-36, ,
1, ,-35, ,
1, ,-36, ,
-1, ,-35, ,
2, ,-36, ,
-1, ,-36, ,
1, ,-36, ,
1, ,-35, ,
1, ,-36, ,
-1, ,-35, ,
1, ,-36, ,
-1, ,-35, ,
1, ,-36, ,
1, ,-36, ,
1, ,-36, ,
-1, ,-36, ,
2, ,-36, ,
1, ,-36, ,
1, ,-35, ,
1, ,-35, ,
1, ,-36, ,
-1, ,-35, ,
2, ,-35, ,
-1, ,-36, ,
1, ,-36, ,
2, ,-35, ,
2, ,-36, ,
-1, ,-35, ,
2, ,-36, ,
-1, ,-36, ,
1, ,-35, ,
1, ,-35, ,
1, ,-36, ,
-1, ,-35, ,
2, ,-35, ,
-1, ,-36, ,
1, ,-36, ,
1, ,-36, ,
1, ,-36, ,
-1, ,-35, ,
1, ,-36, ,
-1, ,-36, ,
-1, ,-35, ,
1, ,-36, ,
1, ,-36, ,
-1, ,-35, ,
1, ,-36, ,
-1, ,-35, ,
-1, ,-36, ,
1, ,-35, ,
1, ,-36, ,
-1, ,-35, ,
1, ,-35, ,
-1, ,-36, ,
-1, ,-36, ,
1, ,-35, ,
1, ,-36, ,
-1, ,-35, ,
1, ,-36, ,
-1, ,-36, ,
-1, ,-36, ,
1, ,-35, ,
1, ,-36, ,
-1, ,-35, ,
1, ,-36, ,
-1, ,-36, ,
-1, ,-36, ,
1, ,-36, ,
1, ,-36, ,
-1, ,-35, ,
1, ,-36, ,
-1, ,-35, ,
-1, ,-36, ,
1, ,-35, ,
1, ,-36, ,
-1, ,-35, ,
1, ,-35, ,
-1, ,-36, ,
-1, ,-36, ,
1, ,-35, ,
1, ,-36, ,
-1, ,-35, ,
1, ,-35, ,
-1, ,-36, ,
-1, ,-36, ,
1, ,-36, ,
1, ,-36, ,
-1, ,-35, ,
1, ,-36, ,
-1, ,-36, ,
-1, ,-35, ,
1, ,-36, ,
1, ,-36, ,
-1, ,-35, ,
1, ,-36, ,
-1, ,-35, ,
-1, ,-36, ,
1, ,-35, ,
1, ,-36, ,
-1, ,-35, ,
2, ,-36, ,
-1, ,-36, ,
1, ,-36, ,
1, ,-35, ,
1, ,-36, ,
-1, ,-35, ,
1, ,-36, ,
-1, ,-36, ,
-1, ,-36, ,
1, ,-36, ,
1, ,-36, ,
-1, ,-35, ,
2, ,-35, ,
-1, ,-36, ,
-1, ,-36, ,
1, ,-36, ,
1, ,-36, ,
-1, ,-35, ,
1, ,-36, ,
-1, ,-36, ,
1, ,-36, ,
1, ,-36, ,
1, ,-36, ,
-1, ,-35, ,
1, ,-35, ,
-1, ,-36, ,
-1, ,-35, ,
1, ,-35, ,
2, ,-36, ,
-1, ,-35, ,
1, ,-36, ,
-1, ,-35, ,
-1, ,-36, ,
1, ,-35, ,
1, ,-36, ,
-1, ,-35, ,
2, ,-35, ,
-1, ,-36, ,
1, ,-35, ,
1, ,-36, ,
1, ,-36, ,
-1, ,-35, ,
1, ,-36, ,
-1, ,-36, ,
1, ,-36, ,
1, ,-35, ,
1, ,-36, ,
-1, ,-35, ,
1, ,-36, ,
-1, ,-36, ,
-1, ,-36, ,
1, ,-35, ,
1, ,-36, ,
-1, ,-35, ,
1, ,-36, ,
-1, ,-36, ,
-1, ,-36, ,
1, ,-36, ,
1, ,-36, ,
-1, ,-35, ,
1, ,-36, ,
-1, ,-36, ,
1, ,-36, ,
1, ,-35, ,
1, ,-36, ,
-1, ,-35, ,
2, ,-36, ,
-1, ,-36, ,
-1, ,-36, ,
1, ,-35, ,
1, ,-36, ,
-1, ,-35, ,
1, ,-36, ,
-1, ,-36, ,
-1, ,-36, ,
1, ,-36, ,
1, ,-36, ,
-1, ,-35, ,
1, ,-36, ,
-1, ,-35, ,
1, ,-36, ,
1, ,-35, ,
1, ,-36, ,
-1, ,-35, ,
1, ,-35, ,
-1, ,-36, ,
-1, ,-36, ,
1, ,-36, ,
1, ,-36, ,
-1, ,-35, ,
1, ,-36, ,
-1, ,-35, ,
-1, ,-36, ,
1, ,-35, ,
1, ,-36, ,
-1, ,-35, ,
1, ,-35, ,
-1, ,-36, ,
-1, ,-36, ,
1, ,-35, ,
1, ,-36, ,
-1, ,-35, ,
1, ,-36, ,
-1, ,-36, ,
-1, ,-36, ,
1, ,-35, ,
1, ,-36, ,
-1, ,-35, ,
1, ,-36, ,
-1, ,-36, ,
-1, ,-36, ,
1, ,-35, ,
1, ,-36, ,
-1, ,-35, ,
1, ,-35, ,
-1, ,-36, ,
-1, ,-36, ,
1, ,-36, ,
1, ,-36, ,
-1, ,-35, ,
1, ,-36, ,
-1, ,-36, ,
-1, ,-36, ,
1, ,-35, ,
1, ,-36, ,
-1, ,-35, ,
2, ,-36, ,
-1, ,-35, ,
1, ,-36, ,
1, ,-36, ,
1, ,-36, ,
-1, ,-35, ,
1, ,-36, ,
-1, ,-36, ,
1, ,-35, ,
1, ,-36, ,
1, ,-36, ,
-1, ,-35, ,
1, ,-36, ,
-1, ,-35, ,
-1, ,-36, ,
1, ,-36, ,
1, ,-36, ,
-1, ,-35, ,
1, ,-35, ,
-1, ,-36, ,
82, ,-35, ,
67, ,-36, ,
41, ,-36, ,
25, ,-35, ,
16, ,-36, ,
10, ,-35, ,
7, ,-36, ,
5, ,-35, ,
5, ,-35, ,
2, ,-19, ,
5, ,0, ,
2, ,15, ,
2, ,25, ,
3, ,34, ,
3, ,41, ,
2, ,43, ,
3, ,49, ,
2, ,52, ,
2, ,53, ,
3, ,54, ,
3, ,56, ,
2, ,55, ,
3, ,56, ,
2, ,58, ,
2, ,57, ,
3, ,57, ,
2, ,58, ,
2, ,56, ,
3, ,58, ,
2, ,58, ,
2, ,58, ,
3, ,58, ,
3, ,58, ,
1, ,57, ,
3, ,58, ,
2, ,58, ,
1, ,57, ,
2, ,58, ,
3, ,59, ,
1, ,56, ,
3, ,57, ,
2, ,58, ,
2, ,57, ,
3, ,57, ,
3, ,58, ,
1, ,57, ,
2, ,58, ,
2, ,58, ,
2, ,57, ,
2, ,58, ,
2, ,58, ,
1, ,56, ,
3, ,57, ,
2, ,58, ,
1, ,57, ,
2, ,57, ,
2, ,58, ,
2, ,57, ,
3, ,57, ,
2, ,58, ,
2, ,57, ,
2, ,57, ,
2, ,59, ,
1, ,56, ,
3, ,57, ,
2, ,58, ,
2, ,57, ,
3, ,57, ,
2, ,58, ,
1, ,57, ,
3, ,57, ,
2, ,58, ,
1, ,57, ,
2, ,57, ,
2, ,58, ,
1, ,56, ,
2, ,57, ,
2, ,58, ,
1, ,57, ,
2, ,57, ,
2, ,58, ,
1, ,57, ,
3, ,57, ,
2, ,58, ,
1, ,57, ,
2, ,57, ,
2, ,58, ,
1, ,56, ,
2, ,57, ,
2, ,58, ,
2, ,57, ,
2, ,57, ,
2, ,58, ,
1, ,57, ,
3, ,57, ,
2, ,58, ,
1, ,57, ,
2, ,57, ,
2, ,58, ,
1, ,56, ,
2, ,57, ,
2, ,58, ,
2, ,57, ,
2, ,57, ,
1, ,57, ,
1, ,57, ,
2, ,57, ,
2, ,58, ,
1, ,57, ,
2, ,57, ,
2, ,58, ,
1, ,56, ,
2, ,57, ,
2, ,57, ,
1, ,57, ,
2, ,57, ,
2, ,58, ,
1, ,57, ,
2, ,57, ,
2, ,58, ,
1, ,57, ,
2, ,57, ,
2, ,58, ,
1, ,56, ,
2, ,57, ,
2, ,58, ,
1, ,57, ,
2, ,57, ,
2, ,58, ,
1, ,57, ,
2, ,57, ,
2, ,58, ,
1, ,57, ,
2, ,57, ,
2, ,58, ,
1, ,56, ,
3, ,57, ,
2, ,58, ,
1, ,57, ,
2, ,57, ,
2, ,57, ,
1, ,57, ,
2, ,57, ,
1, ,57, ,
1, ,56, ,
2, ,57, ,
1, ,58, ,
1, ,56, ,
2, ,57, ,
2, ,58, ,
1, ,57, ,
2, ,57, ,
1, ,58, ,
1, ,57, ,
3, ,57, ,
2, ,58, ,
1, ,57, ,
2, ,57, ,
34, ,58, ,
24, ,56, ,
16, ,57, ,
11, ,58, ,
7, ,57, ,
6, ,50, ,
3, ,30, ,
2, ,13, ,
3, ,1, ,
2, ,-9, ,
2, ,-16, ,
2, ,-21, ,
2, ,-25, ,
2, ,-27, ,
3, ,-30, ,
2, ,-33, ,
2, ,-33, ,
2, ,-34, ,
2, ,-35, ,
1, ,-35, ,
3, ,-35, ,
2, ,-36, ,
2, ,-36, ,
2, ,-36, ,
3, ,-36, ,
2, ,-36, ,
3, ,-36, ,
2, ,-36, ,
2, ,-37, ,
2, ,-36, ,
2, ,-37, ,
1, ,-36, ,
3, ,-36, ,
2, ,-37, ,
2, ,-36, ,
2, ,-36, ,
3, ,-36, ,
1, ,-36, ,
3, ,-36, ,
2, ,-36, ,
2, ,-36, ,
3, ,-36, ,
3, ,-36, ,
1, ,-35, ,
3, ,-36, ,
2, ,-36, ,
2, ,-36, ,
3, ,-36, ,
3, ,-36, ,
2, ,-35, ,
3, ,-36, ,
2, ,-36, ,
2, ,-36, ,
2, ,-36, ,
2, ,-36, ,
1, ,-35, ,
3, ,-36, ,
2, ,-36, ,
2, ,-36, ,
2, ,-35, ,
2, ,-36, ,
1, ,-35, ,
3, ,-36, ,
2, ,-36, ,
2, ,-36, ,
2, ,-36, ,
2, ,-36, ,
1, ,-35, ,
3, ,-36, ,
2, ,-36, ,
2, ,-36, ,
2, ,-36, ,
2, ,-36, ,
1, ,-35, ,
3, ,-36, ,
2, ,-36, ,
2, ,-36, ,
2, ,-36, ,
2, ,-36, ,
1, ,-35, ,
3, ,-36, ,
2, ,-36, ,
2, ,-36, ,
2, ,-36, ,
2, ,-36, ,
2, ,-35, ,
3, ,-36, ,
1, ,-36, ,
2, ,-36, ,
2, ,-35, ,
2, ,-36, ,
1, ,-35, ,
3, ,-36, ,
2, ,-36, ,
2, ,-36, ,
2, ,-36, ,
2, ,-36, ,
1, ,-35, ,
3, ,-36, ,
2, ,-36, ,
2, ,-36, ,
2, ,-36, ,
2, ,-36, ,
1, ,-35, ,
3, ,-36, ,
1, ,-36, ,
2, ,-35, ,
2, ,-36, ,
3, ,-36, ,
1, ,-35, ,
3, ,-35, ,
1, ,-36, ,
2, ,-36, ,
3, ,-36, ,
2, ,-36, ,
1, ,-35, ,
3, ,-36, ,
2, ,-36, ,
2, ,-36, ,
2, ,-36, ,
2, ,-36, ,
1, ,-35, ,
3, ,-36, ,
2, ,-35, ,
1, ,-36, ,
2, ,-35, ,
2, ,-36, ,
1, ,-35, ,
2, ,-36, ,
1, ,-36, ,
2, ,-36, ,
2, ,-36, ,
2, ,-36, ,
1, ,-35, ,
3, ,-36, ,
1, ,-36, ,
2, ,-36, ,
2, ,-35, ,
2, ,-36, ,
1, ,-35, ,
3, ,-35, ,
1, ,-36, ,
2, ,-35, ,
2, ,-36, ,
2, ,-36, ,
1, ,-35, ,
2, ,-36, ,
1, ,-35, ,
2, ,-36, ,
2, ,-36, ,
2, ,-36, ,
1, ,-35, ,
2, ,-36, ,
1, ,-36, ,
2, ,-35, ,
2, ,-36, ,
2, ,-36, ,
1, ,-35, ,
3, ,-36, ,
1, ,-35, ,
2, ,-36, ,
2, ,-35, ,
2, ,-36, ,
1, ,-35, ,
2, ,-35, ,
1, ,-36, ,
2, ,-36, ,
2, ,-36, ,
2, ,-36, ,
1, ,-35, ,
2, ,-35, ,
1, ,-35, ,
1, ,-36, ,
2, ,-35, ,
2, ,-36, ,
1, ,-35, ,
2, ,-36, ,
1, ,-36, ,
2, ,-35, ,
2, ,-35, ,
2, ,-36, ,
1, ,-35, ,
2, ,-36, ,
1, ,-35, ,
2, ,-36, ,
2, ,-36, ,
2, ,-36, ,
1, ,-35, ,
2, ,-36, ,
1, ,-36, ,
2, ,-36, ,
2, ,-36, ,
2, ,-36, ,
1, ,-36, ,
2, ,-36, ,
1, ,-36, ,
2, ,-36, ,
2, ,-35, ,
2, ,-36, ,
1, ,-35, ,
2, ,-36, ,
1, ,-36, ,
1, ,-36, ,
2, ,-36, ,
2, ,-36, ,
1, ,-35, ,
2, ,-36, ,
1, ,-35, ,
2, ,-36, ,
2, ,-35, ,
2, ,-36, ,
1, ,-35, ,
2, ,-36, ,
1, ,-36, ,
2, ,-35, ,
2, ,-36, ,
1, ,-36, ,
1, ,-35, ,
2, ,-36, ,
1, ,-35, ,
1, ,-35, ,
2, ,-35, ,
2, ,-36, ,
1, ,-35, ,
2, ,-35, ,
1, ,-36, ,
2, ,-36, ,
2, ,-35, ,
2, ,-36, ,
1, ,-35, ,
2, ,-36, ,
1, ,-36, ,
2, ,-36, ,
2, ,-35, ,
2, ,-36, ,
1, ,-35, ,
2, ,-36, ,
1, ,-36, ,
2, ,-36, ,
2, ,-35, ,
2, ,-36, ,
1, ,-36, ,
2, ,-36, ,
1, ,-36, ,
2, ,-36, ,
2, ,-35, ,
1, ,-36, ,
1, ,-36, ,
2, ,-36, ,
1, ,-36, ,
1, ,-36, ,
2, ,-35, ,
2, ,-36, ,
1, ,-36, ,
2, ,-36, ,
1, ,-36, ,
1, ,-36, ,
2, ,-36, ,
2, ,-36, ,
1, ,-35, ,
2, ,-35, ,
1, ,-36, ,
1, ,-36, ,
2, ,-35, ,
2, ,-36, ,
1, ,-35, ,
2, ,-36, ,
1, ,-36, ,
1, ,-36, ,
2, ,-36, ,
1, ,-36, ,
1, ,-35, ,
2, ,-36, ,
1, ,-36, ,
1, ,-36, ,
1, ,-35, ,
2, ,-36, ,
1, ,-36, ,
2, ,-36, ,
1, ,-36, ,
1, ,-36, ,
2, ,-36, ,
2, ,-36, ,
1, ,-35, ,
2, ,-36, ,
1, ,-36, ,
1, ,-36, ,
2, ,-36, ,
2, ,-36, ,
1, ,-35, ,
2, ,-35, ,
1, ,-36, ,
1, ,-36, ,
2, ,-36, ,
1, ,-36, ,
-1, ,-36, ,
2, ,-36, ,
1, ,-36, ,
1, ,-36, ,
1, ,-35, ,
1, ,-36, ,
-1, ,-36, ,
1, ,-35, ,
-1, ,-36, ,
1, ,-36, ,
2, ,-36, ,
2, ,-36, ,
1, ,-35, ,
2, ,-36, ,
1, ,-36, ,
1, ,-36, ,
2, ,-36, ,
1, ,-36, ,
-1, ,-35, ,
2, ,-36, ,
1, ,-36, ,
1, ,-36, ,
2, ,-35, ,
1, ,-36, ,
-1, ,-36, ,
2, ,-36, ,
1, ,-36, ,
1, ,-36, ,
1, ,-35, ,
1, ,-36, ,
-1, ,-35, ,
2, ,-36, ,
1, ,-36, ,
1, ,-36, ,
2, ,-36, ,
1, ,-36, ,
-1, ,-35, ,
2, ,-36, ,
1, ,-36, ,
1, ,-35, ,
2, ,-36, ,
1, ,-36, ,
-1, ,-35, ,
2, ,-35, ,
1, ,-35, ,
1, ,-36, ,
1, ,-35, ,
2, ,-36, ,
1, ,-36, ,
2, ,-36, ,
1, ,-36, ,
1, ,-36, ,
1, ,-35, ,
1, ,-36, ,
-1, ,-36, ,
2, ,-36, ,
1, ,-36, ,
1, ,-36, ,
1, ,-36, ,
2, ,-36, ,
-1, ,-35, ,
2, ,-36, ,
1, ,-36, ,
1, ,-36, ,
2, ,-35, ,
2, ,-36, ,
1, ,-36, ,
2, ,-35, ,
1, ,-36, ,
1, ,-36, ,
2, ,-36, ,
2, ,-36, ,
-1, ,-36, ,
2, ,-36, ,
1, ,-36, ,
1, ,-35, ,
2, ,-35, ,
2, ,-36, ,
-1, ,-35, ,
2, ,-36, ,
1, ,-36, ,
1, ,-36, ,
1, ,-36, ,
2, ,-36, ,
-1, ,-35, ,
2, ,-36, ,
1, ,-36, ,
1, ,-36, ,
1, ,-35, ,
2, ,-36, ,
1, ,-35, ,
2, ,-35, ,
1, ,-36, ,
1, ,-36, ,
2, ,-36, ,
2, ,-36, ,
-1, ,-35, ,
2, ,-36, ,
1, ,-36, ,
1, ,-36, ,
2, ,-35, ,
2, ,-36, ,
-1, ,-35, ,
2, ,-36, ,
1, ,-36, ,
1, ,-36, ,
2, ,-36, ,
1, ,-36, ,
-1, ,-35, ,
2, ,-36, ,
1, ,-36, ,
1, ,-36, ,
2, ,-36, ,
1, ,-36, ,
-1, ,-35, ,
2, ,-36, ,
1, ,-36, ,
1, ,-36, ,
1, ,-35, ,
1, ,-36, ,
-1, ,-35, ,
2, ,-36, ,
1, ,-36, ,
1, ,-36, ,
1, ,-35, ,
2, ,-36, ,
1, ,-35, ,
2, ,-36, ,
1, ,-36, ,
1, ,-36, ,
1, ,-36, ,
1, ,-36, ,
-1, ,-35, ,
2, ,-35, ,
1, ,-36, ,
1, ,-36, ,
1, ,-35, ,
2, ,-36, ,
-1, ,-36, ,
2, ,-36, ,
1, ,-36, ,
1, ,-36, ,
2, ,-36, ,
2, ,-36, ,
-1, ,-35, ,
1, ,-36, ,
1, ,-36, ,
1, ,-36, ,
1, ,-35, ,
1, ,-36, ,
-1, ,-35, ,
2, ,-36, ,
-1, ,-36, ,
1, ,-36, ,
1, ,-36, ,
1, ,-36, ,
-1, ,-35, ,
2, ,-36, ,
-1, ,-36, ,
1, ,-36, ,
1, ,-35, ,
1, ,-36, ,
-1, ,-35, ,
2, ,-36, ,
1, ,-35, ,
1, ,-36, ,
1, ,-36, ,
2, ,-36, ,
-1, ,-35, ,
2, ,-36, ,
-1, ,-36, ,
1, ,-36, ,
1, ,-35, ,
1, ,-36, ,
-1, ,-35, ,
2, ,-36, ,
-1, ,-36, ,
1, ,-36, ,
1, ,-36, ,
1, ,-36, ,
-1, ,-35, ,
2, ,-36, ,
1, ,-36, ,
1, ,-36, ,
1, ,-35, ,
1, ,-36, ,
-1, ,-35, ,
2, ,-36, ,
-1, ,-36, ,
1, ,-36, ,
1, ,-36, ,
1, ,-36, ,
-1, ,-35, ,
2, ,-36, ,
1, ,-36, ,
1, ,-36, ,
1, ,-36, ,
1, ,-36, ,
-1, ,-35, ,
2, ,-36, ,
1, ,-36, ,
1, ,-36, ,
1, ,-36, ,
2, ,-36, ,
-1, ,-35, ,
2, ,-36, ,
1, ,-36, ,
1, ,-36, ,
1, ,-36, ,
1, ,-36, ,
-1, ,-35, ,
2, ,-36, ,
1, ,-36, ,
1, ,-36, ,
1, ,-36, ,
1, ,-36, ,
-1, ,-35, ,
2, ,-35, ,
1, ,-36, ,
1, ,-36, ,
1, ,-35, ,
1, ,-36, ,
-1, ,-35, ,
2, ,-36, ,
1, ,-36, ,
1, ,-36, ,
2, ,-36, ,
2, ,-36, ,
-1, ,-35, ,
2, ,-36, ,
1, ,-36, ,
1, ,-36, ,
1, ,-36, ,
1, ,-36, ,
-1, ,-36, ,
2, ,-36, ,
1, ,-36, ,
1, ,-35, ,
1, ,-36, ,
1, ,-36, ,
-1, ,-35, ,
2, ,-36, ,
1, ,-36, ,
1, ,-36, ,
1, ,-35, ,
1, ,-36, ,
-1, ,-35, ,
2, ,-36, ,
1, ,-36, ,
1, ,-36, ,
1, ,-36, ,
2, ,-36, ,
-1, ,-35, ,
2, ,-36, ,
1, ,-36, ,
1, ,-36, ,
1, ,-35, ,
1, ,-36, ,
-1, ,-35, ,
2, ,-36, ,
-1, ,-36, ,
1, ,-36, ,
1, ,-36, ,
1, ,-36, ,
-1, ,-36, ,
2, ,-36, ,
-1, ,-36, ,
1, ,-36, ,
1, ,-36, ,
1, ,-36, ,
-1, ,-35, ,
2, ,-36, ,
-1, ,-36, ,
1, ,-36, ,
1, ,-36, ,
1, ,-36, ,
-1, ,-35, ,
2, ,-36, ,
1, ,-36, ,
-1, ,-36, ,
1, ,-36, ,
1, ,-36, ,
-1, ,-35, ,
2, ,-36, ,
-1, ,-36, ,
1, ,-36, ,
1, ,-36, ,
2, ,-36, ,
-1, ,-35, ,
2, ,-35, ,
-1, ,-36, ,
1, ,-36, ,
1, ,-35, ,
1, ,-36, ,
-1, ,-35, ,
2, ,-36, ,
-1, ,-36, ,
-1, ,-35, ,
1, ,-36, ,
1, ,-36, ,
-1, ,-35, ,
1, ,-36, ,
-1, ,-36, ,
-1, ,-36, ,
1, ,-35, ,
1, ,-36, ,
-1, ,-36, ,
1, ,-36, ,
-1, ,-36, ,
1, ,-35, ,
1, ,-36, ,
1, ,-36, ,
-1, ,-36, ,
2, ,-36, ,
1, ,-36, ,
1, ,-36, ,
1, ,-36, ,
1, ,-36, ,
-1, ,-35, ,
2, ,-36, ,
-1, ,-36, ,
1, ,-36, ,
1, ,-36, ,
1, ,-36, ,
-1, ,-36, ,
1, ,-36, ,
-1, ,-36, ,
-1, ,-36, ,
1, ,-36, ,
1, ,-36, ,
-1, ,-36, ,
2, ,-36, ,
1, ,-35, ,
1, ,-36, ,
1, ,-36, ,
1, ,-36, ,
-1, ,-35, ,
2, ,-24, ,
1, ,-4, ,
1, ,12, ,
1, ,23, ,
2, ,33, ,
-1, ,38, ,
2, ,43, ,
1, ,47, ,
1, ,50, ,
2, ,52, ,
1, ,55, ,
-1, ,55, ,
2, ,56, ,
1, ,56, ,
1, ,56, ,
1, ,57, ,
1, ,58, ,
-1, ,57, ,
2, ,58, ,
1, ,58, ,
1, ,58, ,
1, ,57, ,
1, ,58, ,
-1, ,57, ,
2, ,58, ,
1, ,58, ,
1, ,57, ,
1, ,58, ,
1, ,59, ,
-1, ,57, ,
2, ,58, ,
1, ,58, ,
1, ,57, ,
1, ,58, ,
1, ,58, ,
-1, ,57, ,
1, ,58, ,
1, ,58, ,
1, ,57, ,
1, ,57, ,
1, ,58, ,
-1, ,57, ,
1, ,58, ,
1, ,58, ,
1, ,57, ,
1, ,57, ,
1, ,58, ,
-1, ,57, ,
1, ,57, ,
1, ,58, ,
1, ,57, ,
1, ,57, ,
1, ,58, ,
-1, ,57, ,
1, ,58, ,
1, ,58, ,
1, ,57, ,
1, ,57, ,
1, ,58, ,
-1, ,58, ,
2, ,57, ,
1, ,57, ,
1, ,56, ,
1, ,57, ,
1, ,58, ,
-1, ,57, ,
2, ,57, ,
1, ,58, ,
-1, ,57, ,
1, ,57, ,
1, ,58, ,
-1, ,57, ,
1, ,57, ,
1, ,57, ,
-1, ,56, ,
1, ,57, ,
1, ,58, ,
-1, ,57, ,
1, ,57, ,
1, ,58, ,
-1, ,57, ,
1, ,57, ,
1, ,58, ,
-1, ,57, ,
1, ,58, ,
1, ,58, ,
-1, ,56, ,
1, ,57, ,
1, ,58, ,
-1, ,56, ,
2, ,57, ,
1, ,58, ,
1, ,57, ,
1, ,57, ,
1, ,58, ,
-1, ,57, ,
1, ,57, ,
1, ,57, ,
1, ,56, ,
1, ,57, ,
1, ,58, ,
-1, ,57, ,
1, ,57, ,
1, ,58, ,
-1, ,57, ,
1, ,57, ,
1, ,58, ,
-1, ,57, ,
1, ,57, ,
1, ,57, ,
1, ,57, ,
1, ,57, ,
1, ,58, ,
-1, ,56, ,
2, ,57, ,
1, ,58, ,
-1, ,57, ,
1, ,57, ,
1, ,57, ,
-1, ,57, ,
2, ,57, ,
1, ,57, ,
1, ,57, ,
1, ,57, ,
1, ,58, ,
1, ,56, ,
2, ,57, ,
1, ,58, ,
1, ,57, ,
1, ,57, ,
1, ,58, ,
-1, ,57, ,
1, ,57, ,
1, ,58, ,
1, ,57, ,
1, ,57, ,
1, ,58, ,
-1, ,56, ,
1, ,57, ,
86, ,58, ,
58, ,57, ,
35, ,57, ,
22, ,58, ,
13, ,57, ,
11, ,57, ,
7, ,58, ,
5, ,57, ,
5, ,57, ,
2, ,58, ,
2, ,56, ,
3, ,57, ,
2, ,58, ,
2, ,57, ,
3, ,57, ,
2, ,55, ,
1, ,36, ,
3, ,17, ,
2, ,4, ,
2, ,-6, ,
2, ,-14, ,
2, ,-20, ,
2, ,-24, ,
3, ,-27, ,
2, ,-30, ,
2, ,-32, ,
3, ,-33, ,
3, ,-34, ,
1, ,-35, ,
2, ,-35, ,
2, ,-36, ,
2, ,-36, ,
2, ,-36, ,
3, ,-36, ,
2, ,-36, ,
3, ,-36, ,
2, ,-37, ,
2, ,-36, ,
2, ,-36, ,
2, ,-36, ,
1, ,-36, ,
3, ,-36, ,
2, ,-36, ,
2, ,-36, ,
3, ,-36, ,
3, ,-37, ,
1, ,-36, ,
3, ,-36, ,
2, ,-36, ,
2, ,-36, ,
2, ,-36, ,
2, ,-36, ,
1, ,-36, ,
3, ,-36, ,
2, ,-36, ,
2, ,-36, ,
2, ,-36, ,
2, ,-36, ,
1, ,-36, ,
3, ,-36, ,
2, ,-36, ,
2, ,-36, ,
2, ,-36, ,
2, ,-36, ,
1, ,-36, ,
3, ,-36, ,
2, ,-36, ,
2, ,-36, ,
2, ,-35, ,
2, ,-36, ,
1, ,-36, ,
2, ,-36, ,
2, ,-36, ,
2, ,-36, ,
2, ,-36, ,
2, ,-36, ,
1, ,-35, ,
3, ,-36, ,
2, ,-36, ,
2, ,-36, ,
2, ,-36, ,
2, ,-36, ,
1, ,-35, ,
2, ,-36, ,
1, ,-36, ,
2, ,-36, ,
3, ,-36, ,
2, ,-36, ,
1, ,-36, ,
2, ,-36, ,
1, ,-36, ,
2, ,-36, ,
2, ,-36, ,
2, ,-36, ,
1, ,-35, ,
3, ,-36, ,
1, ,-36, ,
2, ,-36, ,
2, ,-36, ,
2, ,-36, ,
1, ,-36, ,
3, ,-36, ,
2, ,-36, ,
2, ,-36, ,
2, ,-36, ,
3, ,-36, ,
1, ,-36, ,
3, ,-36, ,
2, ,-36, ,
2, ,-36, ,
2, ,-36, ,
2, ,-36, ,
1, ,-35, ,
2, ,-36, ,
2, ,-36, ,
2, ,-36, ,
2, ,-36, ,
2, ,-36, ,
1, ,-35, ,
3, ,-36, ,
1, ,-36, ,
2, ,-36, ,
2, ,-36, ,
2, ,-36, ,
1, ,-35, ,
2, ,-36, ,
1, ,-36, ,
2, ,-36, ,
2, ,-35, ,
2, ,-36, ,
1, ,-35, ,
2, ,-36, ,
2, ,-36, ,
2, ,-36, ,
2, ,-36, ,
2, ,-36, ,
1, ,-35, ,
3, ,-36, ,
2, ,-36, ,
2, ,-36, ,
2, ,-36, ,
2, ,-36, ,
1, ,-35, ,
2, ,-36, ,
1, ,-36, ,
2, ,-36, ,
2, ,-36, ,
2, ,-36, ,
1, ,-35, ,
3, ,-36, ,
1, ,-36, ,
2, ,-36, ,
2, ,-35, ,
2, ,-36, ,
1, ,-35, ,
2, ,-36, ,
1, ,-36, ,
2, ,-36, ,
2, ,-36, ,
2, ,-36, ,
1, ,-35, ,
2, ,-36, ,
1, ,-36, ,
2, ,-36, ,
2, ,-36, ,
2, ,-36, ,
1, ,-35, ,
2, ,-36, ,
1, ,-36, ,
1, ,-36, ,
2, ,-36, ,
2, ,-36, ,
1, ,-35, ,
2, ,-36, ,
1, ,-36, ,
2, ,-36, ,
2, ,-35, ,
2, ,-36, ,
1, ,-35, ,
2, ,-36, ,
1, ,-36, ,
2, ,-36, ,
2, ,-36, ,
2, ,-36, ,
1, ,-35, ,
2, ,-36, ,
1, ,-36, ,
1, ,-36, ,
2, ,-35, ,
2, ,-36, ,
1, ,-35, ,
2, ,-36, ,
1, ,-36, ,
2, ,-36, ,
2, ,-36, ,
2, ,-36, ,
1, ,-36, ,
2, ,-36, ,
2, ,-36, ,
2, ,-36, ,
2, ,-35, ,
2, ,-36, ,
1, ,-36, ,
2, ,-36, ,
1, ,-36, ,
1, ,-36, ,
2, ,-36, ,
2, ,-36, ,
1, ,-35, ,
2, ,-36, ,
1, ,-36, ,
2, ,-35, ,
2, ,-36, ,
2, ,-36, ,
1, ,-35, ,
2, ,-36, ,
1, ,-36, ,
1, ,-36, ,
2, ,-36, ,
2, ,-36, ,
1, ,-35, ,
2, ,-35, ,
1, ,-36, ,
2, ,-36, ,
2, ,-36, ,
2, ,-36, ,
1, ,-35, ,
2, ,-36, ,
1, ,-36, ,
1, ,-36, ,
2, ,-35, ,
2, ,-36, ,
1, ,-35, ,
2, ,-36, ,
1, ,-36, ,
1, ,-36, ,
2, ,-36, ,
2, ,-36, ,
1, ,-35, ,
2, ,-36, ,
1, ,-36, ,
2, ,-36, ,
2, ,-36, ,
2, ,-36, ,
1, ,-35, ,
2, ,-36, ,
1, ,-36, ,
1, ,-36, ,
2, ,-35, ,
2, ,-36, ,
1, ,-35, ,
2, ,-35, ,
1, ,-36, ,
1, ,-36, ,
2, ,-36, ,
2, ,-36, ,
1, ,-35, ,
2, ,-36, ,
1, ,-36, ,
1, ,-36, ,
2, ,-35, ,
2, ,-36, ,
1, ,-35, ,
2, ,-36, ,
1, ,-35, ,
2, ,-36, ,
2, ,-35, ,
2, ,-36, ,
1, ,-36, ,
2, ,-36, ,
1, ,-36, ,
1, ,-36, ,
2, ,-35, ,
2, ,-36, ,
1, ,-35, ,
2, ,-36, ,
1, ,-36, ,
1, ,-36, ,
2, ,-36, ,
2, ,-36, ,
1, ,-35, ,
2, ,-36, ,
1, ,-36, ,
1, ,-35, ,
2, ,-36, ,
2, ,-36, ,
1, ,-36, ,
2, ,-36, ,
1, ,-36, ,
1, ,-36, ,
2, ,-36, ,
2, ,-36, ,
1, ,-35, ,
2, ,-36, ,
1, ,-36, ,
1, ,-36, ,
2, ,-35, ,
2, ,-36, ,
1, ,-35, ,
2, ,-36, ,
1, ,-36, ,
1, ,-36, ,
2, ,-36, ,
2, ,-36, ,
-1, ,-35, ,
2, ,-36, ,
1, ,-36, ,
1, ,-36, ,
2, ,-36, ,
1, ,-36, ,
1, ,-35, ,
2, ,-36, ,
1, ,-36, ,
1, ,-36, ,
2, ,-36, ,
1, ,-36, ,
-1, ,-35, ,
2, ,-36, ,
1, ,-36, ,
1, ,-36, ,
2, ,-36, ,
1, ,-36, ,
-1, ,-35, ,
2, ,-36, ,
1, ,-36, ,
1, ,-36, ,
2, ,-36, ,
1, ,-36, ,
-1, ,-35, ,
2, ,-36, ,
1, ,-36, ,
1, ,-36, ,
2, ,-35, ,
1, ,-36, ,
-1, ,-35, ,
2, ,-36, ,
1, ,-36, ,
1, ,-36, ,
2, ,-36, ,
1, ,-36, ,
-1, ,-35, ,
2, ,-36, ,
1, ,-36, ,
1, ,-36, ,
2, ,-36, ,
1, ,-36, ,
-1, ,-35, ,
2, ,-36, ,
1, ,-36, ,
1, ,-36, ,
2, ,-36, ,
1, ,-36, ,
-1, ,-35, ,
2, ,-36, ,
1, ,-36, ,
1, ,-36, ,
1, ,-36, ,
1, ,-36, ,
-1, ,-35, ,
2, ,-36, ,
1, ,-36, ,
1, ,-36, ,
2, ,-36, ,
2, ,-36, ,
-1, ,-35, ,
2, ,-36, ,
1, ,-36, ,
1, ,-36, ,
2, ,-35, ,
1, ,-36, ,
-1, ,-35, ,
2, ,-36, ,
1, ,-36, ,
1, ,-36, ,
2, ,-36, ,
1, ,-36, ,
-1, ,-35, ,
2, ,-36, ,
1, ,-36, ,
1, ,-36, ,
2, ,-36, ,
1, ,-36, ,
-1, ,-35, ,
2, ,-35, ,
1, ,-36, ,
1, ,-35, ,
2, ,-36, ,
2, ,-36, ,
-1, ,-35, ,
2, ,-36, ,
1, ,-36, ,
1, ,-36, ,
1, ,-35, ,
1, ,-36, ,
1, ,-35, ,
2, ,-36, ,
1, ,-36, ,
1, ,-36, ,
2, ,-36, ,
1, ,-36, ,
-1, ,-35, ,
2, ,-36, ,
1, ,-36, ,
1, ,-36, ,
2, ,-35, ,
1, ,-36, ,
-1, ,-35, ,
2, ,-36, ,
1, ,-36, ,
1, ,-35, ,
2, ,-36, ,
1, ,-36, ,
-1, ,-35, ,
2, ,-36, ,
1, ,-36, ,
1, ,-36, ,
1, ,-35, ,
1, ,-36, ,
1, ,-35, ,
2, ,-35, ,
1, ,-36, ,
1, ,-36, ,
2, ,-36, ,
2, ,-36, ,
-1, ,-35, ,
2, ,-36, ,
1, ,-36, ,
1, ,-36, ,
1, ,-35, ,
1, ,-36, ,
-1, ,-35, ,
2, ,-36, ,
1, ,-36, ,
1, ,-36, ,
1, ,-36, ,
1, ,-36, ,
-1, ,-36, ,
2, ,-36, ,
1, ,-36, ,
1, ,-36, ,
1, ,-35, ,
2, ,-36, ,
-1, ,-36, ,
2, ,-36, ,
-1, ,-36, ,
1, ,-36, ,
1, ,-36, ,
1, ,-36, ,
-1, ,-36, ,
2, ,-36, ,
1, ,-36, ,
1, ,-36, ,
1, ,-35, ,
1, ,-36, ,
-1, ,-35, ,
1, ,-36, ,
-1, ,-36, ,
1, ,-36, ,
1, ,-36, ,
2, ,-36, ,
1, ,-35, ,
2, ,-36, ,
1, ,-35, ,
1, ,-35, ,
1, ,-35, ,
1, ,-36, ,
-1, ,-36, ,
1, ,-36, ,
-1, ,-36, ,
1, ,-36, ,
1, ,-36, ,
1, ,-36, ,
-1, ,-35, ,
2, ,-35, ,
1, ,-36, ,
1, ,-36, ,
1, ,-35, ,
1, ,-36, ,
-1, ,-36, ,
2, ,-36, ,
-1, ,-36, ,
1, ,-36, ,
1, ,-36, ,
1, ,-36, ,
-1, ,-35, ,
2, ,-35, ,
1, ,-36, ,
1, ,-36, ,
1, ,-35, ,
1, ,-36, ,
-1, ,-36, ,
2, ,-36, ,
-1, ,-36, ,
1, ,-36, ,
1, ,-36, ,
2, ,-36, ,
-1, ,-35, ,
2, ,-36, ,
1, ,-36, ,
