src/long_1551_2/temp00692.CSV

Format,1.0B,
Memory Length,10000,
IntpDistance,0,
Trigger Address,4849,
Trigger Level,7.280E-01,
Source,CH1,
Vertical Units,V,
Vertical Units Div,0,
Vertical Units Extend Div,16,
Label,,
Probe Type,0,
Probe Ratio,1.000e+01,
Vertical Scale,2.000e-01,
Vertical Position,-6.800e-01,
Horizontal Units,S,
Horizontal Scale,2.000E-06,
Horizontal Position,3.000E-07,
Horizontal Mode,Main,
SincET Mode,Real Time,
Sampling Period,2.000e-09,
Horizontal Old Scale,2.000E-06,
Horizontal Old Position,3.000E-07,
Firmware,V1.23,
Mode,Fast,
Waveform Data,
0,
2,
0,
2,
-1,
0,
2,
0,
0,
2,
0,
0,
2,
2,
0,
2,
0,
0,
2,
0,
0,
2,
0,
0,
2,
2,
0,
0,
0,
0,
2,
0,
0,
0,
0,
0,
0,
0,
0,
2,
0,
0,
2,
0,
0,
2,
0,
0,
0,
0,
0,
0,
0,
0,
2,
0,
0,
2,
0,
0,
0,
0,
0,
0,
0,
0,
0,
-1,
-1,
0,
0,
0,
0,
0,
0,
0,
0,
0,
2,
0,
0,
2,
0,
-1,
0,
0,
0,
2,
0,
0,
2,
0,
-1,
2,
0,
-1,
0,
0,
0,
0,
0,
0,
2,
0,
0,
2,
0,
0,
0,
2,
0,
2,
0,
0,
2,
0,
-1,
0,
0,
0,
2,
2,
-1,
0,
0,
0,
2,
0,
-1,
0,
0,
0,
0,
0,
-1,
2,
0,
0,
0,
-1,
-1,
0,
0,
0,
0,
0,
0,
2,
0,
0,
2,
0,
0,
2,
0,
0,
0,
0,
0,
2,
0,
0,
0,
0,
0,
2,
-1,
-1,
0,
2,
0,
0,
-1,
0,
2,
0,
0,
0,
0,
0,
0,
2,
0,
0,
0,
0,
2,
0,
-1,
0,
0,
0,
2,
0,
0,
2,
0,
0,
2,
0,
0,
0,
0,
0,
0,
0,
0,
2,
0,
0,
2,
0,
0,
2,
0,
0,
0,
0,
0,
2,
0,
0,
2,
0,
0,
2,
0,
0,
0,
0,
0,
0,
0,
0,
2,
0,
-1,
2,
0,
0,
2,
0,
0,
2,
0,
0,
2,
0,
0,
2,
0,
-1,
0,
0,
0,
0,
-1,
0,
2,
0,
-1,
0,
0,
0,
2,
2,
0,
0,
-1,
0,
2,
0,
-1,
0,
0,
0,
0,
0,
-1,
0,
0,
0,
0,
-1,
-1,
0,
0,
0,
0,
0,
-1,
0,
0,
0,
0,
0,
0,
2,
0,
-1,
0,
2,
0,
0,
0,
0,
0,
0,
-1,
2,
0,
0,
0,
0,
0,
0,
-1,
0,
2,
0,
0,
2,
0,
0,
0,
0,
0,
2,
0,
0,
2,
0,
-1,
0,
0,
0,
0,
0,
0,
2,
0,
0,
0,
0,
-1,
0,
0,
0,
0,
0,
0,
2,
0,
-1,
0,
0,
0,
2,
0,
0,
0,
2,
-1,
0,
-1,
0,
0,
0,
0,
0,
0,
-1,
0,
0,
-1,
0,
0,
0,
0,
0,
-1,
2,
0,
0,
0,
0,
0,
0,
0,
0,
0,
0,
0,
0,
0,
-1,
0,
0,
-1,
0,
0,
0,
2,
0,
-1,
2,
0,
0,
0,
0,
0,
0,
0,
0,
2,
0,
0,
0,
0,
0,
0,
0,
-1,
2,
0,
0,
2,
0,
0,
0,
0,
0,
0,
0,
-1,
0,
-1,
0,
2,
0,
0,
2,
0,
-1,
0,
0,
-1,
0,
0,
0,
2,
0,
0,
2,
0,
0,
2,
2,
0,
0,
-1,
0,
2,
0,
-1,
0,
0,
-1,
0,
0,
-1,
0,
0,
0,
2,
0,
-1,
2,
0,
0,
0,
0,
-1,
2,
0,
0,
0,
0,
0,
2,
0,
0,
0,
0,
0,
2,
0,
0,
2,
0,
-1,
0,
0,
0,
0,
0,
0,
0,
-1,
0,
2,
0,
0,
0,
0,
-1,
0,
0,
0,
2,
0,
0,
2,
0,
-1,
2,
0,
0,
2,
0,
0,
0,
0,
0,
2,
0,
-1,
0,
0,
-1,
0,
0,
-1,
2,
0,
0,
0,
-1,
-1,
2,
0,
0,
0,
0,
-1,
0,
-1,
0,
2,
0,
0,
0,
0,
0,
0,
0,
-1,
0,
0,
0,
2,
0,
-1,
0,
0,
0,
0,
0,
-1,
2,
0,
0,
0,
0,
0,
0,
0,
-1,
0,
0,
0,
0,
-1,
-1,
0,
0,
-1,
0,
0,
0,
2,
0,
0,
0,
-1,
0,
2,
0,
0,
2,
0,
0,
0,
0,
-1,
2,
0,
0,
2,
-1,
-1,
0,
0,
0,
0,
0,
-1,
0,
0,
0,
0,
0,
-1,
0,
0,
0,
0,
0,
0,
2,
0,
0,
0,
0,
0,
2,
0,
0,
0,
0,
0,
2,
-1,
-1,
0,
0,
0,
0,
0,
-1,
0,
0,
0,
0,
0,
0,
2,
0,
0,
0,
0,
0,
2,
2,
0,
0,
-1,
0,
2,
0,
0,
0,
0,
-1,
0,
0,
-1,
2,
0,
0,
2,
0,
-1,
2,
0,
0,
0,
0,
-1,
0,
0,
0,
0,
0,
0,
2,
0,
0,
0,
0,
0,
2,
0,
-1,
0,
0,
0,
2,
0,
-1,
0,
0,
0,
0,
-1,
0,
2,
0,
-1,
0,
0,
-1,
0,
0,
0,
0,
0,
0,
2,
0,
-1,
2,
0,
0,
0,
0,
0,
2,
0,
0,
0,
0,
0,
2,
0,
-1,
0,
0,
0,
2,
0,
-1,
2,
0,
0,
0,
-1,
-1,
0,
0,
-1,
0,
0,
0,
2,
0,
0,
0,
0,
0,
0,
0,
-1,
0,
0,
0,
2,
0,
-1,
2,
0,
0,
0,
0,
0,
0,
-1,
0,
2,
0,
0,
2,
0,
-1,
0,
0,
0,
2,
0,
0,
0,
0,
0,
2,
0,
-1,
0,
2,
0,
0,
-1,
0,
2,
2,
0,
0,
0,
0,
2,
2,
-1,
0,
0,
0,
2,
0,
-1,
0,
0,
0,
0,
0,
-1,
0,
0,
0,
0,
0,
-1,
2,
0,
0,
0,
2,
0,
2,
0,
-1,
2,
0,
0,
2,
0,
0,
0,
2,
0,
0,
-1,
0,
2,
0,
0,
0,
0,
-1,
0,
0,
-1,
0,
0,
0,
2,
0,
-1,
0,
0,
0,
2,
0,
0,
0,
0,
0,
2,
0,
-1,
2,
0,
-1,
0,
0,
-1,
2,
0,
-1,
0,
0,
0,
2,
0,
0,
0,
0,
0,
0,
-1,
0,
2,
0,
0,
2,
0,
0,
0,
2,
0,
2,
0,
0,
2,
0,
0,
2,
0,
0,
0,
0,
0,
0,
0,
0,
2,
0,
0,
2,
-1,
-1,
0,
2,
0,
0,
0,
0,
2,
0,
0,
0,
0,
0,
2,
2,
0,
0,
0,
0,
2,
0,
-1,
0,
0,
0,
2,
0,
-1,
2,
0,
0,
0,
-1,
0,
2,
0,
0,
0,
0,
0,
2,
0,
0,
0,
0,
0,
2,
0,
-1,
0,
0,
0,
2,
0,
-1,
2,
0,
0,
2,
0,
0,
0,
2,
0,
0,
-1,
0,
2,
0,
0,
2,
0,
0,
2,
2,
-1,
0,
0,
0,
2,
0,
-1,
2,
0,
0,
2,
2,
0,
2,
0,
0,
2,
0,
0,
2,
0,
-1,
0,
0,
0,
2,
0,
-1,
0,
-1,
0,
2,
0,
-1,
0,
0,
0,
0,
-1,
0,
2,
0,
0,
0,
0,
0,
2,
2,
0,
2,
0,
0,
2,
0,
0,
2,
0,
0,
0,
0,
0,
2,
0,
0,
0,
0,
0,
2,
0,
-1,
0,
0,
0,
2,
0,
0,
2,
0,
0,
2,
-1,
-1,
0,
2,
0,
0,
-1,
0,
2,
2,
0,
2,
0,
0,
2,
2,
0,
2,
0,
0,
2,
0,
-1,
2,
0,
0,
0,
0,
-1,
2,
0,
0,
0,
0,
0,
2,
0,
0,
0,
0,
0,
2,
0,
0,
2,
0,
0,
2,
0,
0,
0,
2,
0,
0,
0,
0,
2,
0,
0,
2,
0,
-1,
0,
2,
0,
2,
0,
-1,
0,
0,
0,
2,
0,
0,
2,
2,
-1,
0,
0,
0,
2,
0,
-1,
2,
0,
0,
0,
0,
-1,
0,
0,
0,
0,
-1,
0,
2,
0,
0,
0,
0,
0,
2,
0,
0,
2,
0,
0,
2,
0,
0,
0,
2,
0,
0,
0,
0,
2,
0,
-1,
0,
0,
0,
0,
0,
0,
0,
0,
0,
2,
0,
0,
2,
0,
0,
0,
0,
0,
2,
0,
0,
2,
0,
-1,
0,
0,
0,
0,
0,
0,
0,
0,
0,
0,
0,
0,
2,
0,
-1,
0,
0,
0,
2,
0,
0,
2,
0,
0,
2,
0,
0,
2,
2,
0,
0,
-1,
0,
2,
0,
0,
0,
0,
0,
2,
2,
0,
2,
0,
0,
2,
0,
-1,
0,
0,
0,
0,
0,
0,
0,
0,
0,
2,
0,
-1,
0,
0,
0,
0,
0,
-1,
2,
0,
0,
2,
0,
-1,
2,
0,
0,
0,
0,
0,
2,
0,
0,
2,
0,
0,
2,
0,
-1,
0,
2,
0,
2,
0,
-1,
2,
0,
0,
2,
0,
0,
0,
2,
0,
0,
-1,
0,
2,
0,
-1,
2,
0,
0,
0,
0,
-1,
2,
0,
0,
2,
0,
-1,
2,
0,
0,
0,
2,
0,
0,
0,
0,
2,
2,
0,
2,
0,
0,
2,
0,
-1,
2,
0,
0,
2,
0,
-1,
2,
0,
0,
0,
0,
-1,
2,
0,
0,
0,
0,
0,
2,
0,
0,
0,
0,
0,
2,
0,
0,
2,
0,
-1,
0,
0,
0,
0,
2,
0,
0,
-1,
0,
2,
0,
0,
2,
0,
0,
0,
0,
0,
2,
0,
0,
2,
0,
0,
2,
0,
0,
0,
2,
0,
0,
-1,
0,
0,
0,
0,
2,
0,
0,
0,
0,
-1,
2,
0,
0,
2,
0,
-1,
0,
0,
0,
0,
0,
-1,
0,
0,
0,
2,
0,
0,
2,
0,
0,
2,
0,
-1,
2,
0,
0,
0,
0,
-1,
2,
0,
0,
0,
0,
0,
2,
0,
-1,
0,
0,
0,
2,
0,
0,
0,
0,
0,
0,
-1,
0,
2,
0,
0,
2,
0,
0,
2,
2,
0,
0,
-1,
0,
2,
0,
0,
0,
0,
0,
0,
0,
0,
0,
0,
0,
0,
0,
-1,
0,
0,
0,
0,
0,
-1,
0,
-1,
0,
0,
0,
-1,
2,
0,
-1,
0,
0,
0,
2,
0,
0,
2,
0,
0,
2,
0,
0,
0,
0,
0,
0,
-1,
0,
0,
0,
0,
0,
0,
0,
2,
0,
0,
0,
0,
0,
2,
0,
-1,
0,
0,
0,
0,
0,
0,
0,
0,
0,
2,
0,
0,
2,
0,
0,
0,
0,
0,
0,
0,
0,
2,
0,
0,
0,
0,
0,
0,
0,
-1,
0,
-1,
0,
0,
0,
-1,
0,
0,
-1,
0,
0,
-1,
2,
0,
0,
0,
0,
-1,
2,
0,
0,
0,
0,
0,
0,
-1,
0,
2,
0,
0,
0,
0,
-1,
0,
0,
-1,
0,
0,
0,
2,
0,
-1,
2,
0,
0,
0,
0,
0,
0,
-1,
0,
0,
0,
-1,
0,
0,
0,
0,
0,
0,
0,
0,
0,
2,
0,
-1,
0,
0,
0,
0,
0,
0,
0,
0,
0,
2,
0,
0,
2,
0,
-1,
0,
0,
-1,
0,
0,
0,
0,
0,
-1,
0,
-1,
-1,
0,
0,
0,
0,
-1,
-1,
0,
0,
0,
0,
0,
-1,
0,
0,
0,
0,
0,
0,
2,
0,
-1,
0,
0,
0,
0,
0,
-1,
0,
0,
0,
0,
0,
-1,
0,
0,
0,
0,
0,
-1,
2,
0,
0,
2,
-1,
-1,
2,
0,
0,
0,
0,
0,
2,
-1,
-1,
0,
0,
0,
2,
0,
-1,
0,
0,
-1,
0,
-1,
0,
2,
0,
-1,
0,
0,
0,
0,
0,
-1,
0,
-1,
0,
0,
0,
-1,
2,
0,
-1,
0,
0,
-1,
2,
0,
0,
0,
0,
-1,
0,
0,
0,
0,
0,
0,
0,
0,
0,
0,
0,
-1,
0,
0,
-1,
0,
0,
0,
2,
-1,
0,
0,
-1,
-1,
0,
0,
0,
0,
0,
-1,
0,
0,
0,
2,
0,
0,
2,
0,
-1,
0,
0,
0,
0,
0,
0,
2,
0,
-1,
0,
0,
0,
0,
0,
-1,
0,
0,
0,
2,
0,
0,
2,
0,
-1,
0,
0,
-1,
0,
0,
0,
2,
0,
-1,
0,
0,
0,
0,
0,
0,
0,
0,
0,
0,
0,
0,
0,
0,
0,
0,
0,
-1,
2,
0,
0,
2,
0,
-1,
0,
0,
0,
0,
0,
0,
0,
0,
0,
0,
-1,
-1,
2,
0,
-1,
0,
0,
0,
2,
0,
-1,
0,
0,
0,
2,
0,
-1,
0,
2,
0,
0,
-1,
0,
2,
0,
0,
0,
0,
-1,
0,
2,
-1,
0,
0,
0,
2,
0,
-1,
0,
0,
0,
0,
0,
0,
2,
-1,
0,
0,
0,
0,
2,
0,
-1,
0,
0,
0,
2,
0,
-1,
0,
0,
-1,
2,
0,
0,
0,
2,
-1,
0,
0,
0,
2,
0,
0,
0,
0,
-1,
0,
0,
0,
0,
-1,
-1,
0,
0,
0,
0,
0,
0,
0,
0,
-1,
0,
0,
0,
2,
0,
0,
0,
0,
0,
0,
0,
-1,
0,
0,
0,
2,
0,
-1,
2,
0,
0,
0,
0,
0,
2,
0,
0,
0,
0,
0,
0,
0,
0,
0,
0,
0,
2,
0,
0,
2,
0,
-1,
0,
0,
0,
0,
0,
-1,
0,
0,
0,
0,
0,
0,
0,
0,
-1,
0,
0,
0,
0,
0,
-1,
0,
0,
-1,
0,
0,
-1,
0,
2,
-1,
0,
-1,
0,
2,
0,
-1,
0,
0,
0,
0,
0,
0,
2,
0,
0,
2,
0,
-1,
2,
0,
0,
2,
2,
0,
2,
0,
0,
2,
0,
0,
2,
0,
0,
0,
0,
0,
2,
0,
-1,
0,
0,
0,
2,
0,
0,
0,
2,
0,
0,
-1,
-1,
2,
0,
0,
0,
0,
-1,
0,
0,
-1,
2,
0,
0,
2,
-1,
-1,
2,
0,
0,
0,
0,
0,
2,
0,
0,
0,
0,
0,
2,
0,
-1,
0,
0,
0,
0,
-1,
-1,
0,
0,
-1,
0,
-1,
-1,
0,
0,
-1,
0,
-1,
0,
0,
0,
-1,
0,
0,
0,
0,
0,
-1,
0,
0,
0,
2,
0,
0,
2,
0,
0,
0,
0,
0,
0,
0,
0,
2,
0,
0,
2,
0,
0,
2,
2,
0,
2,
0,
0,
2,
0,
0,
2,
0,
0,
2,
2,
0,
2,
0,
0,
2,
0,
0,
2,
0,
0,
2,
2,
0,
2,
0,
0,
2,
0,
-1,
2,
2,
0,
0,
0,
-1,
0,
0,
0,
0,
-1,
-1,
2,
0,
-1,
0,
0,
0,
2,
0,
-1,
0,
0,
0,
2,
-1,
-1,
0,
2,
0,
2,
-1,
0,
2,
2,
0,
0,
0,
-1,
0,
2,
-1,
0,
-1,
0,
2,
0,
-1,
0,
0,
0,
2,
2,
-1,
2,
0,
0,
2,
0,
0,
2,
0,
0,
0,
2,
0,
2,
0,
0,
2,
0,
0,
2,
0,
0,
0,
0,
0,
2,
0,
0,
2,
0,
0,
2,
0,
-1,
0,
0,
0,
2,
0,
0,
2,
0,
0,
2,
0,
0,
2,
0,
0,
0,
0,
0,
2,
0,
0,
2,
0,
0,
0,
0,
0,
2,
0,
0,
0,
0,
0,
2,
0,
0,
0,
2,
0,
0,
-1,
0,
2,
0,
0,
0,
0,
0,
2,
2,
0,
2,
0,
0,
2,
0,
0,
2,
0,
0,
2,
2,
0,
2,
0,
0,
2,
0,
0,
2,
0,
0,
2,
0,
-1,
2,
0,
0,
2,
0,
-1,
2,
0,
0,
2,
2,
0,
2,
0,
0,
2,
0,
0,
2,
0,
0,
0,
2,
0,
0,
0,
0,
2,
0,
0,
0,
0,
0,
0,
2,
0,
0,
0,
0,
2,
0,
0,
2,
0,
0,
0,
2,
0,
2,
0,
0,
2,
0,
0,
2,
0,
0,
2,
2,
0,
2,
-1,
0,
2,
0,
0,
2,
0,
0,
0,
2,
-1,
2,
0,
0,
2,
0,
0,
2,
0,
0,
0,
2,
0,
0,
0,
0,
2,
0,
0,
0,
0,
0,
0,
2,
0,
2,
0,
0,
2,
0,
-1,
0,
0,
0,
0,
0,
0,
0,
-1,
0,
2,
0,
0,
2,
0,
0,
0,
2,
0,
2,
0,
0,
2,
0,
0,
2,
0,
0,
0,
0,
0,
0,
0,
0,
0,
0,
0,
2,
0,
-1,
0,
0,
0,
2,
0,
0,
2,
0,
0,
2,
0,
0,
2,
2,
0,
2,
0,
0,
2,
0,
0,
0,
0,
0,
0,
0,
0,
2,
0,
0,
2,
0,
-1,
0,
0,
0,
2,
2,
0,
0,
0,
0,
2,
0,
0,
2,
0,
0,
0,
2,
0,
2,
0,
0,
2,
0,
-1,
2,
0,
0,
0,
0,
0,
2,
0,
0,
0,
0,
0,
2,
0,
-1,
0,
0,
0,
2,
0,
-1,
0,
0,
0,
0,
-1,
-1,
0,
2,
0,
0,
0,
0,
2,
2,
0,
0,
0,
0,
2,
0,
0,
2,
0,
0,
0,
0,
-1,
2,
0,
0,
0,
0,
0,
2,
0,
0,
0,
0,
0,
2,
0,
0,
0,
0,
0,
2,
0,
0,
2,
0,
0,
2,
0,
0,
0,
0,
0,
0,
-1,
-1,
0,
0,
0,
0,
0,
0,
0,
2,
0,
0,
0,
0,
2,
0,
0,
2,
0,
0,
0,
0,
-1,
0,
0,
0,
0,
0,
0,
2,
0,
0,
0,
0,
0,
2,
0,
0,
2,
2,
0,
2,
0,
0,
0,
2,
-1,
0,
0,
0,
2,
0,
-1,
0,
0,
0,
0,
0,
-1,
0,
0,
0,
2,
0,
-1,
2,
0,
0,
0,
0,
0,
0,
0,
0,
2,
0,
-1,
0,
0,
0,
0,
0,
0,
2,
0,
0,
2,
0,
0,
2,
0,
-1,
0,
2,
0,
0,
-1,
0,
2,
2,
0,
0,
0,
0,
2,
2,
-1,
0,
0,
0,
2,
0,
-1,
0,
0,
0,
0,
0,
-1,
0,
0,
0,
0,
0,
-1,
2,
0,
0,
0,
0,
0,
2,
0,
0,
0,
0,
-1,
0,
0,
0,
0,
2,
0,
0,
-1,
0,
2,
0,
0,
0,
0,
0,
0,
0,
0,
0,
-1,
0,
2,
0,
-1,
2,
0,
-1,
0,
0,
0,
0,
-1,
-1,
0,
0,
0,
0,
0,
0,
0,
0,
0,
0,
0,
0,
2,
0,
-1,
2,
0,
0,
0,
0,
-1,
0,
0,
0,
2,
0,
-1,
2,
0,
0,
0,
0,
-1,
0,
-1,
0,
2,
0,
-1,
2,
0,
0,
2,
2,
0,
0,
0,
0,
2,
0,
0,
0,
0,
0,
0,
0,
0,
0,
0,
0,
0,
0,
-1,
0,
0,
-1,
0,
0,
0,
0,
-1,
0,
2,
0,
0,
0,
0,
0,
0,
0,
-1,
0,
0,
0,
2,
0,
-1,
0,
0,
0,
0,
0,
0,
0,
0,
0,
2,
0,
0,
0,
0,
0,
0,
0,
-1,
0,
0,
0,
0,
0,
-1,
0,
0,
0,
0,
0,
-1,
0,
-1,
-1,
0,
0,
0,
0,
0,
0,
0,
2,
-1,
0,
0,
0,
2,
0,
-1,
0,
0,
0,
0,
0,
0,
0,
-1,
0,
2,
0,
-1,
0,
0,
0,
0,
0,
0,
2,
0,
0,
0,
0,
-1,
2,
0,
0,
0,
2,
0,
0,
-1,
0,
2,
0,
-1,
0,
0,
-1,
0,
0,
-1,
0,
0,
0,
0,
0,
-1,
2,
0,
0,
0,
0,
0,
0,
-1,
-1,
0,
0,
0,
0,
-1,
-1,
0,
0,
0,
0,
0,
0,
2,
0,
-1,
0,
0,
0,
0,
0,
0,
0,
0,
0,
2,
0,
-1,
0,
0,
0,
0,
0,
-1,
0,
0,
0,
0,
0,
-1,
0,
-1,
-1,
0,
0,
0,
0,
-1,
-1,
0,
0,
0,
0,
0,
0,
0,
0,
-1,
0,
0,
0,
2,
0,
-1,
0,
0,
0,
0,
0,
0,
0,
0,
0,
2,
0,
-1,
2,
0,
0,
0,
0,
0,
2,
0,
0,
2,
0,
-1,
0,
0,
0,
0,
2,
-1,
0,
-1,
0,
2,
0,
-1,
0,
0,
0,
0,
0,
-1,
2,
0,
0,
2,
0,
-1,
2,
0,
0,
0,
0,
0,
0,
0,
0,
0,
0,
-1,
0,
0,
0,
0,
0,
0,
0,
-1,
0,
2,
0,
0,
2,
-1,
-1,
0,
2,
0,
0,
-1,
0,
2,
0,
0,
0,
0,
-1,
0,
0,
-1,
0,
-1,
0,
0,
0,
-1,
0,
0,
0,
0,
0,
-1,
0,
0,
0,
0,
0,
-1,
0,
0,
0,
0,
0,
-1,
2,
0,
0,
0,
0,
-1,
2,
0,
0,
0,
0,
-1,
0,
0,
0,
2,
2,
0,
2,
0,
0,
0,
0,
-1,
0,
0,
-1,
0,
0,
-1,
2,
0,
0,
0,
0,
-1,
0,
0,
0,
0,
0,
0,
2,
0,
-1,
0,
0,
0,
2,
0,
0,
2,
0,
0,
0,
-1,
-1,
0,
2,
-1,
0,
-1,
0,
2,
0,
-1,
0,
0,
0,
2,
0,
-1,
0,
0,
0,
2,
0,
-1,
2,
0,
0,
0,
0,
-1,
2,
0,
0,
0,
0,
0,
2,
0,
-1,
0,
0,
-1,
2,
0,
0,
2,
0,
0,
2,
0,
0,
0,
2,
0,
0,
-1,
-1,
0,
0,
0,
0,
0,
-1,
0,
0,
-1,
0,
0,
0,
2,
-1,
-1,
2,
0,
0,
0,
0,
0,
2,
0,
0,
0,
0,
-1,
2,
0,
-1,
0,
0,
0,
0,
-1,
0,
0,
0,
-1,
0,
-1,
-1,
0,
2,
0,
0,
0,
0,
2,
0,
0,
0,
0,
0,
0,
0,
-1,
0,
0,
0,
2,
0,
-1,
2,
0,
0,
0,
0,
0,
0,
0,
0,
2,
0,
-1,
2,
0,
-1,
0,
0,
0,
2,
0,
0,
2,
0,
0,
2,
0,
0,
0,
0,
0,
2,
0,
0,
2,
0,
0,
2,
0,
0,
0,
0,
-1,
0,
0,
0,
2,
0,
-1,
0,
0,
0,
0,
0,
-1,
0,
0,
0,
2,
0,
-1,
0,
0,
0,
0,
0,
-1,
2,
0,
0,
2,
0,
0,
2,
0,
0,
0,
0,
0,
0,
-1,
0,
2,
0,
0,
0,
0,
0,
2,
2,
0,
2,
0,
0,
2,
0,
0,
2,
0,
0,
2,
2,
-1,
0,
0,
0,
2,
0,
0,
2,
0,
-1,
0,
0,
0,
2,
0,
0,
2,
0,
-1,
2,
0,
0,
0,
0,
0,
2,
0,
0,
0,
0,
0,
2,
0,
0,
0,
0,
0,
2,
0,
0,
2,
0,
-1,
0,
0,
0,
0,
2,
0,
0,
-1,
0,
2,
0,
-1,
0,
0,
0,
0,
0,
-1,
0,
0,
0,
2,
0,
0,
2,
0,
0,
0,
2,
0,
0,
-1,
0,
2,
0,
-1,
2,
0,
0,
0,
0,
-1,
2,
0,
0,
0,
0,
0,
2,
0,
0,
0,
0,
0,
2,
0,
-1,
0,
0,
0,
2,
0,
0,
0,
2,
0,
2,
0,
0,
2,
2,
0,
2,
0,
0,
0,
2,
-1,
0,
0,
0,
2,
0,
0,
2,
0,
0,
0,
0,
0,
2,
0,
0,
2,
0,
0,
2,
0,
0,
2,
2,
-1,
0,
0,
0,
2,
0,
-1,
2,
0,
-1,
0,
0,
-1,
2,
0,
0,
0,
0,
0,
2,
0,
0,
0,
0,
0,
2,
0,
0,
2,
0,
0,
0,
0,
0,
0,
2,
-1,
0,
0,
0,
0,
0,
-1,
2,
0,
0,
0,
0,
0,
0,
0,
0,
2,
0,
0,
2,
0,
0,
0,
0,
0,
2,
0,
0,
2,
0,
0,
2,
0,
0,
0,
0,
0,
0,
-1,
0,
2,
0,
0,
2,
0,
-1,
0,
0,
0,
2,
0,
0,
2,
0,
-1,
2,
0,
0,
0,
0,
0,
0,
0,
0,
2,
0,
0,
0,
0,
0,
0,
2,
0,
2,
0,
0,
2,
0,
-1,
2,
0,
0,
0,
0,
0,
0,
0,
0,
2,
0,
0,
2,
0,
0,
0,
0,
0,
2,
0,
0,
2,
0,
0,
2,
0,
-1,
0,
2,
0,
0,
-1,
0,
2,
0,
0,
0,
0,
-1,
0,
0,
-1,
0,
0,
0,
2,
0,
-1,
0,
0,
0,
2,
2,
0,
2,
0,
0,
0,
0,
0,
2,
0,
0,
0,
0,
0,
2,
0,
0,
2,
0,
0,
2,
0,
0,
0,
2,
0,
0,
-1,
0,
2,
2,
0,
0,
0,
0,
0,
0,
-1,
0,
0,
0,
2,
-1,
-1,
0,
0,
0,
0,
0,
0,
2,
0,
0,
0,
0,
0,
2,
0,
-1,
0,
0,
0,
2,
0,
0,
2,
0,
0,
2,
0,
-1,
0,
0,
0,
0,
0,
0,
2,
0,
0,
2,
0,
0,
0,
2,
0,
0,
0,
0,
2,
2,
0,
0,
0,
0,
2,
2,
-1,
0,
-1,
0,
0,
0,
-1,
2,
0,
0,
0,
0,
-1,
2,
0,
0,
0,
-1,
0,
2,
0,
0,
0,
0,
0,
2,
-1,
0,
2,
0,
0,
2,
0,
-1,
0,
2,
0,
0,
0,
0,
2,
0,
-1,
2,
0,
0,
2,
0,
0,
0,
0,
0,
2,
0,
0,
2,
0,
0,
0,
0,
0,
2,
0,
0,
2,
0,
0,
2,
0,
0,
0,
0,
0,
0,
0,
0,
2,
0,
0,
0,
0,
0,
0,
0,
-1,
0,
0,
0,
2,
0,
-1,
0,
0,
0,
2,
0,
0,
2,
0,
0,
2,
0,
0,
2,
0,
-1,
0,
0,
0,
0,
0,
0,
0,
0,
-1,
0,
0,
0,
0,
0,
0,
0,
-1,
0,
2,
0,
0,
0,
0,
0,
0,
2,
0,
2,
0,
0,
2,
0,
-1,
0,
0,
0,
0,
0,
-1,
0,
-1,
0,
2,
0,
0,
2,
0,
0,
0,
0,
-1,
2,
0,
0,
2,
0,
-1,
2,
0,
0,
0,
0,
0,
2,
-1,
0,
0,
0,
0,
2,
0,
-1,
0,
0,
0,
0,
0,
0,
2,
0,
0,
0,
0,
0,
0,
2,
0,
0,
0,
0,
2,
0,
-1,
0,
0,
0,
0,
0,
0,
2,
0,
0,
2,
0,
-1,
0,
0,
0,
0,
0,
0,
0,
0,
0,
2,
0,
-1,
0,
0,
-1,
0,
0,
-1,
0,
0,
0,
2,
0,
-1,
0,
0,
0,
2,
2,
-1,
0,
0,
0,
0,
0,
0,
2,
0,
-1,
0,
0,
0,
0,
0,
0,
2,
0,
-1,
2,
0,
-1,
0,
2,
0,
0,
-1,
0,
2,
0,
0,
2,
0,
-1,
0,
2,
0,
0,
0,
0,
2,
0,
-1,
0,
0,
0,
2,
0,
-1,
0,
0,
0,
2,
0,
-1,
0,
0,
0,
0,
0,
-1,
2,
0,
0,
0,
0,
-1,
2,
0,
0,
0,
0,
0,
0,
0,
-1,
0,
2,
0,
2,
0,
0,
2,
2,
-1,
2,
0,
0,
2,
0,
-1,
2,
0,
0,
0,
0,
0,
0,
-1,
-1,
0,
0,
-1,
0,
0,
-1,
0,
0,
-1,
0,
0,
0,
2,
0,
-1,
0,
0,
0,
2,
0,
0,
0,
0,
0,
0,
0,
-1,
2,
0,
0,
0,
0,
0,
2,
0,
0,
0,
0,
0,
0,
-1,
-1,
0,
2,
0,
0,
-1,
0,
0,
0,
0,
0,
0,
0,
2,
0,
-1,
0,
0,
0,
2,
0,
-1,
2,
0,
0,
0,
0,
0,
0,
0,
0,
2,
0,
-1,
0,
0,
0,
0,
0,
-1,
2,
0,
0,
2,
0,
-1,
0,
0,
0,
0,
0,
-1,
0,
0,
0,
0,
0,
0,
2,
0,
0,
0,
0,
-1,
0,
0,
0,
2,
0,
0,
0,
0,
-1,
0,
0,
0,
0,
-1,
0,
0,
0,
0,
2,
0,
-1,
0,
0,
0,
2,
0,
0,
0,
0,
-1,
2,
-1,
-1,
0,
0,
0,
0,
-1,
0,
2,
0,
0,
0,
0,
0,
0,
0,
-1,
2,
0,
0,
2,
0,
-1,
2,
0,
0,
0,
0,
-1,
0,
0,
0,
0,
0,
-1,
2,
0,
0,
0,
0,
0,
2,
0,
0,
0,
0,
0,
2,
0,
-1,
0,
2,
0,
2,
-1,
0,
2,
0,
0,
0,
0,
-1,
0,
0,
0,
0,
0,
0,
2,
0,
-1,
0,
0,
0,
2,
0,
-1,
0,
0,
0,
2,
0,
-1,
0,
0,
0,
0,
0,
-1,
2,
0,
0,
0,
0,
0,
2,
0,
0,
0,
2,
0,
0,
-1,
0,
2,
0,
0,
0,
0,
0,
0,
2,
-1,
0,
0,
0,
2,
-1,
-1,
0,
0,
0,
0,
0,
-1,
0,
0,
0,
0,
0,
0,
2,
0,
-1,
0,
0,
0,
0,
0,
0,
2,
0,
0,
0,
-1,
-1,
2,
0,
0,
0,
-1,
0,
2,
0,
-1,
0,
0,
0,
0,
0,
-1,
0,
0,
0,
2,
0,
-1,
2,
0,
0,
2,
0,
-1,
0,
0,
0,
2,
0,
-1,
0,
0,
0,
0,
0,
0,
2,
0,
-1,
0,
0,
-1,
2,
0,
-1,
0,
2,
0,
2,
-1,
0,
2,
0,
0,
2,
0,
-1,
0,
2,
-1,
0,
0,
0,
2,
0,
-1,
2,
0,
0,
0,
0,
0,
0,
-1,
0,
2,
0,
-1,
0,
0,
0,
0,
0,
-1,
0,
-1,
0,
0,
0,
-1,
2,
-1,
0,
0,
0,
0,
0,
-1,
0,
2,
0,
0,
0,
0,
0,
0,
0,
0,
2,
0,
0,
2,
0,
0,
2,
0,
0,
2,
2,
0,
0,
-1,
0,
2,
0,
-1,
2,
0,
-1,
0,
0,
-1,
0,
-1,
-1,
0,
-2,
-2,
0,
-1,
-1,
0,
0,
-1,
-1,
-2,
-1,
0,
-1,
-1,
-1,
-1,
-1,
-1,
-1,
-2,
-1,
-2,
-1,
-1,
-1,
-2,
0,
-1,
-1,
-1,
-1,
-1,
0,
-1,
-1,
0,
-1,
-1,
0,
-1,
-1,
0,
0,
0,
2,
0,
0,
2,
2,
0,
3,
2,
0,
2,
3,
2,
2,
0,
2,
3,
2,
2,
3,
2,
2,
3,
3,
2,
2,
2,
2,
3,
0,
0,
3,
2,
2,
2,
2,
2,
2,
2,
0,
2,
0,
0,
2,
0,
-1,
0,
0,
0,
0,
0,
-1,
0,
-1,
-1,
0,
0,
-1,
0,
0,
0,
0,
-1,
-1,
0,
0,
0,
0,
0,
-1,
0,
0,
-1,
0,
0,
0,
2,
0,
-1,
0,
0,
0,
0,
0,
0,
0,
0,
0,
0,
0,
-1,
0,
0,
0,
0,
0,
-1,
0,
0,
-1,
0,
0,
-1,
0,
0,
0,
0,
0,
-1,
0,
0,
0,
0,
0,
-1,
0,
0,
-1,
0,
0,
0,
0,
0,
-1,
0,
-1,
-1,
2,
0,
-1,
0,
0,
0,
2,
0,
0,
2,
0,
0,
2,
0,
0,
2,
2,
0,
2,
0,
0,
2,
0,
0,
8,
33,
69,
88,
93,
91,
88,
80,
76,
74,
71,
67,
64,
60,
57,
56,
53,
51,
48,
45,
43,
43,
41,
38,
37,
34,
33,
33,
32,
29,
28,
27,
26,
26,
24,
22,
22,
21,
19,
19,
19,
18,
18,
17,
16,
17,
16,
14,
14,
14,
13,
13,
13,
12,
13,
12,
12,
12,
10,
10,
10,
10,
9,
9,
9,
9,
10,
9,
8,
9,
8,
8,
9,
7,
7,
8,
8,
8,
8,
7,
7,
8,
7,
7,
7,
5,
7,
7,
7,
5,
7,
5,
5,
7,
5,
5,
7,
7,
5,
7,
5,
5,
7,
7,
5,
7,
5,
5,
7,
7,
5,
7,
5,
5,
7,
5,
5,
7,
7,
5,
7,
7,
5,
7,
5,
5,
7,
5,
5,
5,
7,
5,
5,
5,
5,
7,
7,
5,
7,
5,
5,
7,
5,
4,
5,
5,
5,
7,
5,
5,
5,
5,
5,
5,
5,
4,
5,
5,
5,
5,
5,
5,
7,
5,
5,
5,
5,
4,
5,
5,
5,
5,
5,
5,
7,
5,
5,
5,
5,
4,
5,
5,
4,
5,
5,
4,
5,
5,
5,
7,
5,
4,
5,
5,
5,
5,
5,
5,
7,
5,
5,
5,
5,
4,
5,
5,
5,
5,
5,
4,
7,
5,
4,
5,
5,
4,
5,
5,
5,
5,
5,
4,
5,
5,
4,
5,
5,
4,
5,
5,
5,
5,
5,
4,
5,
4,
4,
5,
5,
4,
5,
5,
5,
5,
5,
4,
5,
5,
5,
5,
5,
4,
5,
5,
5,
5,
5,
4,
5,
5,
5,
5,
5,
4,
5,
5,
5,
5,
5,
5,
7,
4,
4,
5,
5,
4,
5,
5,
5,
5,
5,
5,
5,
5,
4,
5,
5,
4,
5,
5,
5,
5,
5,
4,
5,
4,
4,
5,
5,
4,
5,
5,
5,
5,
5,
4,
5,
5,
4,
5,
5,
4,
5,
5,
5,
5,
5,
4,
5,
5,
5,
5,
5,
4,
5,
5,
5,
5,
5,
5,
7,
5,
5,
5,
5,
4,
5,
5,
5,
5,
5,
4,
5,
4,
4,
5,
5,
4,
5,
4,
5,
5,
5,
4,
5,
4,
4,
5,
5,
4,
5,
4,
5,
5,
5,
4,
5,
5,
5,
5,
5,
4,
5,
4,
5,
5,
4,
4,
5,
5,
5,
5,
4,
3,
5,
5,
5,
5,
4,
4,
5,
4,
4,
4,
5,
4,
5,
5,
4,
4,
5,
4,
7,
4,
4,
5,
5,
4,
5,
4,
4,
4,
5,
4,
5,
4,
4,
5,
5,
4,
5,
4,
4,
5,
5,
4,
5,
4,
4,
5,
5,
4,
5,
4,
4,
5,
4,
4,
5,
4,
4,
5,
5,
4,
5,
5,
4,
5,
4,
4,
5,
4,
4,
4,
4,
4,
5,
5,
4,
4,
4,
4,
5,
4,
4,
4,
5,
4,
5,
4,
4,
4,
5,
4,
5,
4,
4,
5,
5,
4,
5,
4,
4,
5,
5,
4,
5,
4,
4,
4,
4,
3,
5,
4,
4,
4,
4,
4,
5,
4,
4,
4,
4,
4,
5,
4,
4,
5,
4,
4,
4,
4,
4,
5,
5,
4,
5,
4,
4,
5,
4,
4,
4,
4,
4,
5,
4,
3,
5,
4,
4,
4,
5,
4,
5,
4,
4,
4,
4,
4,
4,
4,
4,
5,
4,
4,
5,
4,
4,
4,
4,
3,
4,
4,
4,
4,
4,
4,
4,
4,
4,
4,
4,
4,
4,
4,
3,
4,
4,
4,
4,
4,
4,
4,
4,
3,
4,
4,
3,
5,
4,
4,
4,
4,
4,
4,
4,
4,
4,
4,
3,
5,
4,
4,
4,
4,
4,
4,
4,
3,
4,
4,
4,
4,
4,
4,
4,
4,
4,
4,
4,
3,
4,
4,
4,
4,
4,
4,
5,
4,
4,
4,
4,
4,
5,
4,
3,
4,
4,
4,
4,
3,
3,
4,
4,
3,
4,
4,
4,
4,
4,
3,
4,
4,
4,
4,
4,
3,
4,
4,
4,
5,
4,
4,
4,
4,
4,
4,
4,
3,
4,
4,
4,
4,
4,
3,
4,
4,
4,
4,
4,
3,
4,
4,
3,
4,
4,
4,
4,
4,
4,
4,
4,
4,
4,
4,
3,
4,
4,
3,
4,
4,
3,
5,
4,
3,
4,
4,
3,
4,
3,
3,
4,
4,
4,
4,
4,
3,
4,
4,
3,
4,
3,
3,
4,
4,
3,
4,
4,
3,
4,
4,
3,
4,
3,
3,
4,
3,
3,
4,
4,
4,
4,
3,
3,
4,
4,
3,
4,
3,
3,
4,
4,
3,
4,
4,
3,
4,
3,
3,
4,
3,
3,
4,
4,
3,
4,
4,
3,
4,
4,
4,
4,
4,
3,
4,
4,
3,
4,
4,
3,
4,
3,
3,
4,
3,
3,
4,
3,
3,
4,
4,
3,
4,
3,
3,
4,
4,
4,
4,
3,
3,
4,
4,
4,
4,
3,
3,
4,
4,
3,
3,
3,
3,
4,
4,
3,
4,
3,
3,
4,
4,
3,
4,
3,
3,
4,
4,
3,
4,
3,
4,
4,
3,
3,
4,
4,
3,
3,
3,
3,
4,
3,
3,
4,
4,
3,
4,
3,
3,
3,
3,
4,
4,
3,
3,
4,
3,
3,
4,
3,
3,
4,
4,
3,
4,
3,
3,
4,
3,
3,
4,
4,
3,
4,
4,
4,
5,
4,
3,
4,
4,
4,
5,
4,
3,
4,
4,
4,
4,
4,
4,
4,
4,
3,
4,
3,
3,
4,
4,
3,
4,
3,
4,
4,
4,
4,
4,
4,
3,
4,
4,
3,
4,
4,
4,
4,
4,
3,
4,
3,
3,
4,
3,
3,
4,
4,
4,
4,
3,
3,
4,
3,
3,
3,
3,
3,
4,
3,
3,
3,
3,
4,
4,
4,
3,
3,
3,
3,
4,
3,
3,
4,
3,
3,
3,
3,
3,
4,
4,
3,
4,
3,
3,
4,
3,
3,
4,
3,
3,
4,
4,
3,
4,
3,
3,
4,
3,
3,
3,
3,
3,
3,
3,
2,
3,
4,
4,
4,
3,
3,
4,
3,
3,
4,
4,
3,
5,
3,
3,
4,
4,
4,
4,
3,
3,
3,
3,
3,
4,
3,
3,
4,
3,
3,
4,
3,
2,
3,
3,
3,
4,
3,
3,
4,
3,
3,
4,
3,
3,
4,
4,
3,
4,
4,
3,
4,
4,
3,
4,
3,
3,
3,
3,
3,
4,
3,
3,
4,
3,
3,
3,
3,
2,
3,
3,
3,
3,
3,
3,
4,
3,
3,
4,
3,
3,
3,
3,
3,
4,
3,
3,
3,
3,
3,
4,
3,
3,
3,
3,
3,
3,
3,
3,
4,
4,
3,
4,
3,
3,
4,
4,
3,
4,
3,
3,
4,
3,
3,
3,
3,
3,
3,
3,
3,
4,
3,
3,
4,
3,
3,
4,
3,
3,
4,
3,
3,
3,
3,
3,
4,
3,
3,
3,
3,
3,
4,
3,
3,
3,
3,
3,
4,
3,
3,
4,
3,
3,
3,
3,
3,
4,
3,
3,
3,
3,
3,
4,
3,
2,
3,
3,
3,
3,
3,
3,
4,
3,
3,
3,
3,
2,
4,
3,
2,
3,
3,
3,
4,
3,
3,
3,
3,
3,
3,
3,
3,
3,
3,
3,
4,
3,
3,
3,
2,
2,
3,
3,
3,
3,
3,
3,
3,
2,
2,
3,
3,
2,
3,
3,
2,
3,
3,
2,
3,
2,
2,
3,
2,
2,
3,
3,
2,
3,
2,
2,
3,
3,
3,
3,
2,
2,
3,
3,
2,
3,
3,
2,
3,
3,
2,
3,
2,
2,
3,
3,
2,
3,
3,
2,
3,
2,
2,
3,
2,
2,
3,
3,
2,
3,
2,
2,
3,
3,
3,
3,
3,
2,
3,
3,
3,
3,
2,
2,
3,
2,
2,
3,
2,
2,
3,
3,
2,
3,
3,
2,
4,
3,
3,
3,
2,
2,
4,
3,
2,
3,
3,
3,
3,
2,
2,
3,
3,
2,
3,
2,
2,
3,
3,
2,
3,
3,
3,
3,
3,
2,
3,
3,
3,
3,
3,
2,
3,
3,
3,
3,
2,
2,
3,
3,
2,
3,
3,
2,
4,
3,
3,
3,
2,
2,
3,
3,
2,
3,
2,
3,
3,
2,
2,
3,
3,
2,
3,
2,
2,
3,
3,
2,
3,
2,
2,
3,
3,
2,
3,
2,
3,
3,
3,
2,
3,
3,
3,
3,
2,
2,
3,
3,
2,
3,
3,
2,
3,
3,
2,
3,
2,
2,
3,
3,
3,
3,
2,
2,
3,
2,
2,
2,
2,
2,
3,
2,
2,
2,
3,
2,
3,
2,
2,
3,
2,
2,
3,
2,
2,
3,
3,
2,
3,
2,
2,
3,
2,
2,
3,
3,
2,
3,
3,
2,
3,
3,
2,
3,
