src/long_1599/temp00890.CSV

Format,1.0B,
Memory Length,10000,
IntpDistance,0,
Trigger Address,4849,
Trigger Level,8.000E-01,
Source,CH1,
Vertical Units,V,
Vertical Units Div,0,
Vertical Units Extend Div,16,
Label,,
Probe Type,0,
Probe Ratio,1.000e+01,
Vertical Scale,2.000e-01,
Vertical Position,-6.800e-01,
Horizontal Units,S,
Horizontal Scale,2.000E-06,
Horizontal Position,3.000E-07,
Horizontal Mode,Main,
SincET Mode,Real Time,
Sampling Period,2.000e-09,
Horizontal Old Scale,2.000E-06,
Horizontal Old Position,3.000E-07,
Firmware,V1.23,
Mode,Fast,
Waveform Data,
0,
2,
2,
-1,
2,
0,
0,
2,
0,
0,
2,
0,
0,
0,
2,
0,
2,
0,
0,
2,
0,
0,
2,
0,
0,
2,
2,
0,
0,
0,
0,
2,
0,
0,
2,
0,
0,
2,
2,
0,
2,
0,
0,
2,
0,
0,
2,
0,
0,
2,
2,
0,
2,
0,
0,
2,
0,
0,
2,
0,
0,
0,
2,
0,
2,
0,
0,
2,
0,
0,
2,
0,
0,
2,
2,
0,
2,
0,
0,
2,
0,
-1,
2,
0,
-1,
0,
2,
-1,
2,
0,
0,
2,
0,
-1,
2,
0,
0,
2,
0,
-1,
2,
-1,
0,
2,
0,
-1,
2,
0,
-1,
0,
0,
0,
2,
0,
0,
2,
0,
-1,
2,
0,
-1,
0,
2,
0,
2,
0,
0,
0,
0,
0,
2,
0,
-1,
0,
2,
0,
2,
-1,
0,
2,
0,
0,
2,
-1,
-1,
2,
2,
0,
2,
-1,
0,
2,
0,
-1,
2,
0,
0,
2,
0,
-1,
0,
0,
0,
2,
-1,
-1,
2,
0,
0,
0,
0,
-1,
2,
0,
0,
2,
0,
-1,
2,
0,
-1,
0,
0,
0,
2,
0,
-1,
0,
0,
0,
2,
0,
-1,
0,
2,
0,
0,
-1,
0,
2,
0,
0,
2,
0,
0,
2,
0,
0,
2,
0,
-1,
2,
0,
-1,
2,
0,
0,
2,
0,
-1,
2,
0,
0,
2,
0,
0,
2,
0,
-1,
0,
0,
-1,
2,
-1,
0,
2,
0,
0,
2,
-1,
-1,
2,
0,
-1,
2,
0,
-1,
2,
0,
-1,
2,
0,
0,
2,
0,
0,
2,
0,
-1,
2,
0,
-1,
2,
0,
0,
2,
0,
-1,
2,
0,
0,
2,
0,
-1,
2,
0,
-1,
0,
0,
0,
2,
0,
0,
2,
0,
-1,
3,
0,
0,
0,
2,
0,
2,
-1,
0,
2,
0,
-1,
2,
0,
-1,
0,
0,
-1,
2,
0,
0,
2,
-1,
-1,
2,
0,
0,
0,
0,
0,
2,
0,
-1,
2,
0,
-1,
2,
0,
-1,
0,
0,
-1,
2,
-1,
0,
2,
0,
-1,
2,
0,
0,
0,
0,
-1,
2,
-1,
0,
2,
0,
-1,
2,
0,
0,
2,
0,
-1,
2,
0,
-1,
2,
-1,
-1,
2,
0,
0,
0,
0,
-1,
2,
-1,
0,
2,
0,
-1,
2,
0,
-1,
0,
2,
0,
2,
0,
0,
2,
0,
-1,
2,
0,
0,
0,
0,
-1,
0,
-1,
-1,
2,
0,
0,
2,
0,
-1,
0,
0,
-1,
2,
-1,
0,
2,
0,
-1,
2,
0,
-1,
0,
0,
0,
2,
-1,
0,
2,
0,
0,
2,
0,
-1,
0,
0,
0,
2,
-1,
-1,
2,
0,
-1,
2,
0,
0,
2,
2,
-1,
0,
-1,
0,
2,
0,
-1,
2,
0,
0,
2,
0,
-1,
0,
0,
0,
2,
0,
-1,
2,
0,
0,
0,
0,
-1,
2,
0,
0,
2,
0,
0,
2,
0,
-1,
0,
0,
0,
2,
-1,
-1,
0,
0,
0,
2,
0,
-1,
2,
2,
0,
2,
-1,
0,
2,
0,
-1,
0,
0,
-1,
2,
2,
-1,
0,
0,
0,
2,
0,
-1,
2,
0,
0,
2,
0,
-1,
2,
-1,
0,
2,
-1,
-1,
2,
0,
-1,
0,
0,
0,
2,
0,
0,
2,
0,
-1,
2,
0,
-1,
0,
0,
0,
2,
0,
0,
2,
0,
0,
2,
0,
-1,
0,
0,
0,
2,
0,
-1,
2,
0,
-1,
2,
0,
0,
2,
0,
-1,
2,
-1,
0,
2,
0,
-1,
2,
0,
-1,
0,
0,
0,
2,
0,
-1,
2,
0,
0,
2,
0,
0,
0,
2,
-1,
0,
-1,
0,
2,
0,
-1,
2,
0,
-1,
2,
0,
-1,
2,
0,
0,
2,
0,
-1,
2,
0,
-1,
2,
0,
-1,
2,
-1,
-1,
2,
0,
-1,
2,
0,
-1,
0,
0,
0,
2,
-1,
0,
0,
-1,
-1,
2,
0,
-1,
0,
0,
0,
2,
-1,
-1,
2,
0,
0,
2,
0,
-1,
0,
2,
0,
0,
0,
-1,
2,
0,
-1,
2,
0,
0,
2,
0,
-1,
0,
0,
0,
2,
0,
-1,
2,
0,
-1,
0,
0,
0,
2,
0,
0,
2,
0,
-1,
2,
0,
-1,
2,
2,
-1,
0,
0,
-1,
2,
0,
-1,
2,
0,
-1,
0,
0,
-1,
2,
-1,
0,
2,
0,
0,
2,
0,
-1,
0,
0,
0,
0,
-1,
0,
2,
0,
-1,
2,
0,
-1,
0,
0,
-1,
2,
0,
0,
2,
0,
-1,
2,
0,
0,
0,
0,
-1,
2,
0,
-1,
2,
0,
-1,
2,
0,
-1,
0,
2,
0,
2,
0,
-1,
2,
0,
-1,
2,
0,
-1,
0,
2,
-1,
0,
-1,
-1,
2,
0,
-1,
2,
0,
-1,
0,
0,
-1,
2,
-1,
0,
2,
0,
-1,
2,
0,
-1,
0,
0,
-1,
2,
0,
0,
2,
0,
-1,
2,
0,
-1,
0,
0,
-1,
2,
0,
0,
2,
0,
-1,
2,
-1,
-1,
0,
0,
-1,
0,
-1,
-1,
2,
0,
-1,
2,
0,
-1,
0,
0,
-1,
0,
0,
-1,
2,
0,
-1,
2,
0,
-1,
0,
0,
-1,
2,
-1,
0,
2,
0,
0,
2,
0,
-1,
0,
0,
0,
2,
0,
-1,
2,
0,
0,
2,
0,
-1,
2,
0,
0,
2,
-1,
0,
2,
0,
-1,
0,
0,
0,
2,
0,
-1,
2,
0,
0,
2,
-1,
-1,
2,
0,
0,
0,
0,
-1,
2,
0,
0,
2,
0,
-1,
2,
0,
-1,
0,
0,
0,
2,
-1,
-1,
2,
0,
-1,
2,
0,
-1,
0,
0,
-1,
0,
-1,
-1,
2,
0,
0,
0,
-1,
-1,
0,
2,
-1,
0,
-1,
0,
2,
0,
-1,
2,
0,
0,
2,
0,
-1,
0,
0,
0,
2,
-1,
-1,
2,
0,
-1,
0,
0,
-1,
0,
-1,
-1,
0,
0,
-1,
2,
0,
0,
0,
0,
-1,
0,
-1,
0,
2,
0,
0,
2,
0,
-1,
0,
0,
0,
2,
0,
-1,
2,
0,
-1,
2,
0,
-1,
0,
0,
-1,
2,
-1,
-1,
2,
0,
-1,
2,
0,
-1,
0,
2,
0,
2,
-1,
-1,
2,
-1,
-1,
2,
0,
-1,
2,
0,
-1,
2,
-1,
-1,
2,
0,
-1,
2,
0,
-1,
0,
0,
-1,
0,
-1,
-1,
2,
0,
-1,
2,
0,
0,
0,
0,
-1,
2,
0,
0,
2,
0,
0,
3,
0,
-1,
0,
2,
0,
2,
0,
0,
2,
0,
-1,
2,
0,
0,
2,
0,
-1,
2,
-1,
0,
2,
0,
-1,
2,
0,
-1,
0,
0,
-1,
0,
-1,
-1,
2,
0,
-1,
2,
0,
-1,
0,
0,
-1,
0,
-1,
-1,
2,
0,
-1,
2,
0,
-1,
0,
0,
-1,
2,
0,
-1,
2,
0,
0,
2,
0,
0,
0,
0,
0,
2,
0,
0,
2,
0,
-1,
2,
0,
-1,
0,
0,
-1,
2,
0,
0,
2,
0,
-1,
2,
2,
0,
2,
0,
0,
2,
0,
-1,
2,
0,
0,
2,
0,
-1,
0,
0,
0,
2,
-1,
-1,
2,
-1,
-1,
2,
-1,
-1,
0,
0,
-1,
0,
-1,
-1,
2,
0,
-1,
0,
0,
-1,
0,
0,
-1,
2,
-1,
0,
2,
0,
-1,
2,
0,
0,
2,
2,
-1,
2,
-1,
0,
2,
0,
-1,
2,
0,
-1,
0,
0,
-1,
2,
0,
0,
2,
0,
-1,
2,
0,
-1,
0,
0,
0,
0,
0,
-1,
2,
0,
0,
2,
-1,
-1,
0,
0,
-1,
2,
-1,
0,
2,
0,
-1,
2,
0,
-1,
2,
0,
-1,
2,
0,
0,
2,
0,
-1,
2,
0,
0,
2,
2,
0,
2,
0,
0,
2,
0,
0,
2,
0,
-1,
2,
2,
0,
2,
0,
0,
2,
0,
0,
2,
0,
-1,
0,
0,
-1,
2,
-1,
-1,
2,
0,
-1,
2,
0,
-1,
0,
0,
-1,
0,
-1,
0,
2,
0,
-1,
2,
0,
0,
2,
0,
-1,
2,
0,
0,
2,
0,
-1,
2,
0,
-1,
0,
0,
-1,
2,
0,
0,
2,
0,
-1,
2,
0,
-1,
0,
0,
0,
2,
0,
0,
2,
0,
0,
2,
0,
-1,
0,
0,
0,
0,
0,
-1,
2,
0,
0,
2,
0,
-1,
0,
0,
-1,
2,
-1,
0,
2,
0,
-1,
2,
0,
-1,
0,
0,
-1,
2,
0,
-1,
2,
0,
-1,
2,
0,
-1,
0,
0,
0,
2,
0,
0,
2,
0,
-1,
2,
0,
0,
2,
0,
0,
0,
0,
0,
2,
0,
-1,
2,
0,
-1,
2,
2,
-1,
2,
-1,
0,
2,
-1,
-1,
2,
0,
-1,
0,
0,
-1,
2,
0,
0,
2,
0,
-1,
2,
0,
-1,
0,
0,
0,
2,
-1,
0,
2,
0,
-1,
2,
0,
-1,
2,
2,
-1,
0,
-1,
-1,
2,
0,
-1,
2,
0,
-1,
2,
2,
-1,
0,
0,
-1,
2,
0,
-1,
2,
0,
0,
2,
0,
-1,
2,
0,
0,
2,
0,
-1,
2,
0,
-1,
0,
0,
-1,
2,
0,
0,
0,
0,
-1,
2,
0,
-1,
0,
0,
-1,
2,
0,
0,
2,
0,
0,
2,
0,
-1,
0,
0,
0,
2,
0,
-1,
2,
0,
-1,
2,
0,
-1,
2,
0,
-1,
0,
-1,
-1,
2,
0,
0,
2,
0,
-1,
0,
2,
0,
2,
0,
-1,
2,
0,
-1,
2,
0,
-1,
0,
2,
-1,
0,
0,
0,
2,
0,
-1,
2,
0,
-1,
0,
0,
-1,
2,
0,
0,
2,
0,
-1,
2,
0,
-1,
0,
0,
0,
2,
0,
-1,
2,
0,
0,
2,
0,
-1,
0,
0,
-1,
2,
-1,
-1,
2,
0,
-1,
2,
0,
-1,
0,
0,
-1,
0,
-1,
0,
2,
0,
0,
2,
0,
0,
2,
2,
-1,
2,
0,
0,
2,
0,
-1,
2,
0,
-1,
2,
0,
-1,
2,
0,
0,
2,
0,
-1,
2,
0,
-1,
0,
0,
0,
2,
-1,
-1,
2,
0,
-1,
2,
0,
-1,
0,
2,
-1,
0,
-1,
-1,
2,
0,
-1,
2,
0,
0,
2,
2,
-1,
2,
0,
0,
2,
0,
-1,
2,
0,
-1,
0,
0,
0,
2,
0,
0,
2,
0,
-1,
2,
0,
-1,
0,
2,
0,
2,
0,
0,
2,
0,
-1,
2,
0,
-1,
0,
0,
0,
0,
0,
-1,
2,
0,
-1,
2,
0,
-1,
0,
0,
-1,
0,
0,
-1,
2,
0,
-1,
2,
0,
-1,
0,
0,
-1,
2,
0,
0,
2,
0,
-1,
2,
0,
-1,
0,
0,
0,
2,
0,
-1,
2,
0,
-1,
2,
0,
-1,
0,
0,
-1,
0,
0,
-1,
2,
0,
-1,
2,
0,
-1,
0,
2,
0,
2,
0,
0,
2,
0,
-1,
2,
0,
0,
2,
0,
-1,
0,
-1,
0,
2,
0,
-1,
2,
0,
-1,
0,
0,
-1,
2,
0,
0,
2,
0,
-1,
3,
0,
-1,
0,
0,
0,
2,
-1,
0,
2,
0,
0,
2,
0,
-1,
0,
0,
-1,
0,
0,
-1,
2,
0,
-1,
2,
0,
0,
2,
0,
-1,
2,
-1,
0,
2,
0,
-1,
2,
0,
-1,
0,
0,
-1,
2,
0,
0,
2,
0,
-1,
2,
0,
0,
2,
0,
-1,
2,
-1,
0,
2,
0,
-1,
2,
0,
-1,
0,
0,
0,
2,
0,
-1,
2,
0,
0,
2,
0,
-1,
0,
0,
-1,
2,
0,
-1,
2,
0,
-1,
0,
0,
-1,
0,
2,
-1,
2,
-1,
-1,
2,
0,
-1,
2,
0,
-1,
0,
0,
-1,
0,
0,
0,
2,
0,
-1,
2,
0,
-1,
0,
0,
-1,
2,
0,
-1,
2,
0,
-1,
2,
0,
-1,
0,
0,
-1,
2,
0,
0,
2,
0,
-1,
2,
0,
-1,
0,
0,
-1,
2,
0,
0,
2,
0,
-1,
2,
0,
-1,
0,
0,
-1,
0,
0,
0,
2,
0,
-1,
2,
0,
-1,
0,
0,
-1,
0,
0,
0,
2,
0,
-1,
2,
0,
-1,
0,
0,
-1,
0,
-1,
-1,
2,
0,
0,
0,
0,
-1,
2,
2,
-1,
0,
-1,
0,
2,
0,
-1,
2,
0,
-1,
0,
0,
-1,
2,
0,
0,
2,
-1,
-1,
2,
0,
-1,
0,
2,
0,
2,
-1,
-1,
2,
0,
-1,
2,
0,
-1,
2,
2,
-1,
0,
-1,
-1,
2,
0,
-1,
2,
0,
-1,
2,
0,
-1,
2,
0,
-1,
2,
0,
-1,
2,
0,
-1,
0,
0,
-1,
2,
0,
0,
2,
0,
-1,
2,
0,
-1,
0,
0,
0,
2,
0,
-1,
2,
0,
-1,
2,
0,
-1,
0,
2,
0,
2,
-1,
-1,
2,
0,
-1,
2,
0,
-1,
0,
0,
-1,
2,
0,
0,
2,
0,
-1,
2,
0,
-1,
0,
0,
-1,
2,
-1,
0,
2,
0,
0,
2,
0,
-1,
0,
2,
-1,
2,
-1,
0,
2,
0,
-1,
2,
0,
-1,
0,
0,
-1,
2,
-1,
-1,
2,
0,
-1,
0,
0,
-1,
0,
0,
-1,
2,
0,
0,
2,
0,
-1,
2,
0,
0,
2,
0,
0,
2,
0,
-1,
2,
0,
0,
2,
0,
-1,
0,
0,
-1,
2,
-1,
-1,
2,
0,
-1,
2,
0,
-1,
0,
0,
-1,
2,
-1,
-1,
2,
0,
-1,
2,
0,
-1,
0,
2,
-1,
2,
0,
0,
2,
0,
-1,
2,
0,
0,
2,
0,
-1,
2,
0,
0,
2,
0,
-1,
2,
0,
-1,
0,
0,
-1,
2,
0,
-1,
2,
0,
0,
2,
0,
-1,
0,
0,
-1,
0,
-1,
0,
2,
0,
-1,
2,
0,
-1,
0,
0,
-1,
0,
-1,
0,
2,
0,
-1,
2,
0,
-1,
0,
0,
-1,
2,
-1,
-1,
2,
0,
-1,
2,
0,
-1,
0,
2,
-1,
2,
0,
-1,
2,
0,
-1,
2,
0,
0,
2,
2,
-1,
2,
0,
-1,
2,
0,
-1,
2,
0,
-1,
0,
0,
-1,
2,
0,
-1,
2,
0,
-1,
2,
0,
-1,
0,
0,
-1,
2,
-1,
0,
2,
0,
-1,
2,
0,
-1,
0,
2,
0,
2,
0,
-1,
2,
0,
-1,
2,
-1,
-1,
0,
0,
-1,
0,
-1,
-1,
2,
0,
-1,
0,
-1,
-1,
0,
0,
-2,
-1,
-2,
-2,
0,
-1,
-2,
0,
-1,
-2,
-1,
-1,
-2,
0,
-1,
-1,
0,
-1,
-2,
0,
-1,
-2,
-1,
-1,
-2,
0,
-1,
-1,
0,
-1,
-2,
0,
-1,
-2,
0,
0,
-1,
2,
-1,
-1,
0,
0,
0,
2,
0,
0,
2,
2,
0,
3,
2,
0,
3,
2,
0,
3,
2,
0,
3,
3,
0,
2,
2,
2,
3,
2,
2,
3,
2,
0,
2,
2,
0,
2,
0,
0,
2,
0,
-1,
2,
0,
-1,
2,
0,
0,
2,
0,
0,
2,
0,
-1,
0,
0,
-1,
0,
0,
-1,
2,
-1,
-1,
2,
-1,
-1,
2,
0,
-1,
0,
2,
-1,
0,
-1,
-1,
2,
0,
-1,
2,
0,
-1,
0,
0,
-1,
2,
0,
-1,
2,
0,
-1,
2,
0,
-1,
0,
0,
0,
2,
0,
-1,
2,
0,
0,
2,
0,
-1,
0,
2,
0,
0,
0,
-1,
2,
0,
-1,
2,
0,
-1,
0,
0,
-1,
2,
-1,
-1,
2,
0,
-1,
2,
0,
-1,
0,
0,
-1,
0,
-1,
-1,
2,
-1,
-1,
2,
0,
-1,
0,
0,
-1,
2,
0,
0,
2,
0,
-1,
2,
0,
-1,
0,
0,
-1,
2,
0,
-1,
0,
-1,
-1,
2,
0,
-1,
0,
0,
-1,
2,
-1,
-1,
0,
0,
-1,
2,
0,
-1,
0,
0,
-1,
2,
0,
0,
2,
0,
-1,
2,
0,
0,
2,
0,
-1,
2,
0,
0,
2,
0,
-1,
2,
0,
-1,
0,
0,
-1,
2,
0,
-1,
2,
0,
0,
2,
0,
-1,
0,
2,
0,
2,
-1,
-1,
2,
0,
-1,
2,
0,
-1,
0,
2,
-1,
2,
-1,
0,
2,
0,
-1,
2,
0,
-1,
2,
0,
-1,
2,
-1,
-1,
0,
-1,
-1,
2,
0,
-1,
0,
0,
-1,
2,
0,
-1,
2,
-1,
-1,
2,
0,
-1,
0,
0,
0,
2,
-1,
-1,
0,
0,
0,
2,
0,
-1,
0,
0,
-1,
2,
0,
-1,
2,
0,
-1,
2,
0,
-1,
0,
0,
-1,
2,
0,
0,
2,
0,
0,
2,
0,
-1,
0,
0,
0,
2,
0,
-1,
2,
0,
-1,
2,
0,
-1,
2,
0,
-1,
0,
-1,
-1,
2,
0,
-1,
2,
0,
-1,
0,
0,
-1,
2,
0,
0,
2,
0,
-1,
2,
0,
-1,
0,
0,
-1,
2,
-1,
0,
2,
0,
-1,
2,
0,
-1,
0,
2,
-1,
2,
0,
-1,
0,
-1,
-1,
2,
0,
-1,
0,
0,
-1,
2,
-1,
-1,
2,
0,
-1,
0,
0,
-1,
2,
2,
0,
2,
0,
0,
2,
0,
-1,
2,
0,
-1,
0,
2,
0,
2,
0,
0,
2,
0,
0,
2,
0,
-1,
0,
2,
-1,
2,
-1,
-1,
2,
0,
-1,
2,
0,
-1,
0,
0,
-1,
2,
0,
0,
2,
0,
-1,
2,
0,
-1,
0,
-1,
0,
2,
0,
0,
2,
0,
-1,
2,
0,
-1,
0,
0,
0,
2,
-1,
-1,
2,
0,
0,
2,
0,
-1,
0,
2,
0,
2,
0,
-1,
2,
0,
0,
2,
0,
-1,
2,
2,
-1,
0,
-1,
-1,
2,
0,
-1,
2,
0,
-1,
2,
0,
-1,
2,
0,
0,
2,
0,
-1,
2,
0,
-1,
2,
0,
-1,
2,
0,
0,
2,
0,
-1,
2,
0,
-1,
0,
0,
0,
2,
0,
-1,
2,
0,
-1,
2,
0,
-1,
0,
2,
-1,
0,
-1,
0,
2,
0,
0,
2,
0,
-1,
2,
2,
-1,
2,
-1,
0,
2,
0,
-1,
2,
0,
-1,
0,
0,
-1,
2,
0,
0,
2,
0,
-1,
2,
0,
-1,
0,
2,
-1,
2,
0,
0,
2,
0,
-1,
3,
0,
-1,
0,
0,
-1,
2,
0,
-1,
2,
0,
-1,
2,
0,
-1,
0,
0,
0,
0,
0,
0,
2,
0,
0,
2,
0,
0,
2,
0,
-1,
2,
0,
0,
2,
0,
-1,
2,
0,
-1,
0,
0,
-1,
2,
0,
0,
2,
-1,
-1,
2,
0,
-1,
0,
0,
-1,
2,
0,
0,
2,
0,
-1,
2,
0,
-1,
0,
2,
-1,
2,
0,
0,
2,
0,
-1,
2,
0,
-1,
0,
0,
0,
2,
0,
0,
2,
0,
-1,
2,
0,
-1,
2,
0,
-1,
2,
0,
0,
2,
0,
-1,
2,
0,
-1,
0,
0,
-1,
2,
0,
0,
2,
0,
-1,
2,
0,
-1,
0,
0,
-1,
2,
0,
-1,
2,
0,
-1,
2,
0,
0,
2,
0,
-1,
0,
0,
0,
2,
0,
-1,
2,
0,
-1,
0,
0,
-1,
2,
0,
-1,
2,
0,
-1,
2,
0,
-1,
0,
0,
-1,
2,
0,
0,
2,
0,
0,
2,
0,
-1,
0,
0,
0,
2,
0,
0,
2,
0,
0,
2,
0,
-1,
2,
2,
-1,
2,
-1,
-1,
2,
0,
-1,
2,
0,
-1,
0,
2,
-1,
0,
-1,
-1,
2,
-1,
-1,
2,
0,
-1,
0,
0,
-1,
2,
0,
0,
2,
0,
-1,
2,
0,
-1,
0,
0,
-1,
2,
0,
0,
2,
0,
-1,
2,
0,
-1,
0,
0,
0,
2,
0,
0,
2,
0,
0,
2,
0,
-1,
0,
2,
0,
2,
0,
-1,
2,
0,
-1,
2,
0,
-1,
2,
0,
-1,
2,
-1,
0,
2,
0,
-1,
2,
0,
-1,
0,
0,
-1,
2,
0,
0,
2,
0,
-1,
2,
0,
-1,
0,
2,
-1,
0,
-1,
-1,
2,
0,
-1,
2,
0,
-1,
0,
2,
-1,
2,
0,
0,
2,
0,
-1,
2,
0,
-1,
0,
0,
-1,
2,
0,
0,
2,
0,
0,
2,
0,
-1,
0,
2,
0,
2,
-1,
-1,
2,
0,
-1,
2,
0,
-1,
0,
2,
-1,
0,
-1,
0,
2,
0,
-1,
2,
0,
-1,
0,
0,
-1,
2,
0,
0,
2,
0,
-1,
2,
0,
-1,
0,
0,
-1,
2,
0,
0,
2,
0,
-1,
2,
0,
-1,
0,
2,
0,
2,
0,
0,
2,
0,
-1,
2,
0,
-1,
0,
0,
-1,
2,
0,
-1,
2,
0,
-1,
2,
0,
-1,
0,
0,
-1,
0,
0,
0,
2,
0,
-1,
2,
0,
-1,
0,
0,
-1,
2,
0,
0,
2,
0,
0,
2,
0,
-1,
0,
0,
-1,
0,
-1,
-1,
2,
0,
-1,
2,
-1,
-1,
0,
0,
-1,
0,
-1,
0,
2,
0,
-1,
0,
0,
0,
2,
0,
-1,
2,
0,
0,
2,
0,
-1,
2,
0,
-1,
0,
0,
-1,
0,
-1,
-1,
2,
0,
-1,
2,
0,
-1,
0,
2,
-1,
2,
0,
-1,
2,
0,
-1,
2,
0,
-1,
0,
2,
-1,
2,
0,
0,
2,
0,
0,
2,
0,
-1,
0,
2,
-1,
2,
0,
0,
2,
0,
-1,
2,
0,
0,
2,
2,
0,
2,
0,
0,
2,
0,
0,
3,
2,
-1,
0,
2,
0,
2,
0,
0,
2,
0,
0,
2,
0,
0,
2,
2,
0,
2,
0,
0,
2,
0,
0,
2,
0,
0,
2,
2,
-1,
2,
0,
0,
2,
0,
0,
2,
0,
0,
2,
0,
-1,
2,
0,
0,
2,
0,
-1,
2,
0,
-1,
0,
0,
-1,
2,
0,
0,
2,
0,
-1,
2,
0,
-1,
0,
0,
0,
2,
0,
-1,
2,
0,
0,
2,
0,
-1,
0,
0,
0,
2,
0,
-1,
3,
2,
0,
2,
0,
-1,
0,
2,
-1,
0,
-1,
-1,
2,
0,
-1,
2,
0,
-1,
0,
0,
0,
2,
0,
0,
3,
2,
0,
3,
0,
0,
2,
2,
0,
2,
-1,
0,
2,
0,
-1,
2,
0,
-1,
0,
0,
-1,
2,
0,
0,
2,
0,
-1,
2,
0,
-1,
0,
0,
-1,
2,
0,
0,
2,
0,
0,
2,
0,
-1,
0,
2,
0,
2,
0,
0,
2,
0,
-1,
2,
0,
-1,
2,
0,
-1,
2,
0,
0,
2,
0,
0,
2,
0,
-1,
0,
2,
0,
2,
0,
-1,
2,
0,
-1,
2,
-1,
0,
2,
2,
-1,
0,
-1,
0,
2,
0,
-1,
2,
0,
0,
2,
0,
-1,
2,
0,
0,
2,
0,
-1,
2,
0,
-1,
0,
0,
0,
2,
0,
0,
2,
0,
0,
2,
0,
-1,
0,
0,
0,
2,
0,
0,
2,
0,
-1,
2,
0,
-1,
0,
2,
-1,
0,
-1,
-1,
2,
0,
0,
2,
0,
-1,
0,
0,
0,
2,
0,
-1,
2,
-1,
-1,
2,
0,
0,
2,
0,
-1,
2,
0,
0,
2,
0,
-1,
2,
0,
-1,
0,
2,
0,
2,
0,
0,
2,
0,
-1,
2,
0,
0,
2,
0,
0,
2,
0,
-1,
3,
0,
0,
2,
0,
0,
2,
0,
0,
2,
0,
-1,
2,
0,
-1,
2,
0,
-1,
0,
0,
-1,
0,
-1,
-1,
0,
-1,
-1,
2,
-1,
-2,
-1,
0,
-1,
0,
-1,
-1,
0,
-1,
-1,
2,
-1,
-1,
0,
0,
-1,
0,
-1,
-1,
2,
0,
-1,
0,
-1,
-1,
0,
0,
-1,
0,
0,
-1,
2,
-1,
-1,
2,
0,
0,
2,
0,
-1,
2,
0,
0,
2,
0,
-1,
2,
0,
-1,
0,
0,
-1,
2,
0,
-1,
2,
0,
-1,
2,
0,
-1,
0,
0,
0,
0,
-1,
-1,
0,
-1,
-1,
0,
0,
-1,
0,
0,
-1,
2,
0,
0,
2,
0,
0,
2,
0,
0,
2,
0,
-1,
2,
0,
0,
2,
0,
-1,
2,
0,
-1,
0,
2,
-1,
2,
-1,
-1,
0,
-1,
-1,
0,
-1,
-2,
0,
0,
-1,
0,
-1,
-1,
0,
-1,
-1,
0,
-1,
-1,
0,
0,
-1,
2,
-1,
-1,
2,
0,
-1,
2,
0,
-1,
0,
0,
0,
2,
-1,
0,
2,
0,
-1,
2,
0,
-1,
0,
2,
0,
2,
0,
-1,
2,
0,
-1,
2,
0,
0,
2,
2,
-1,
0,
-1,
0,
2,
0,
-1,
2,
0,
-1,
0,
0,
-1,
2,
0,
0,
2,
-1,
-1,
2,
0,
-1,
0,
0,
-1,
0,
-1,
-1,
0,
-1,
-1,
2,
-1,
-2,
-1,
0,
-1,
0,
-1,
-1,
0,
0,
-1,
2,
-1,
-1,
0,
0,
-1,
0,
-1,
-1,
2,
0,
-1,
0,
-1,
-1,
0,
0,
-1,
0,
0,
-1,
2,
-1,
-1,
0,
0,
0,
0,
0,
-1,
2,
0,
0,
2,
0,
-1,
2,
0,
-1,
0,
0,
-1,
2,
-1,
-1,
2,
0,
-1,
2,
0,
-1,
0,
0,
-1,
0,
-1,
0,
2,
0,
-1,
2,
0,
-1,
0,
0,
-1,
2,
0,
0,
2,
0,
-1,
2,
0,
-1,
0,
0,
-1,
0,
-1,
-1,
2,
0,
-1,
2,
0,
-1,
0,
0,
-2,
0,
-1,
-1,
0,
-1,
-1,
0,
0,
0,
0,
0,
-1,
0,
-1,
-1,
2,
0,
-1,
2,
0,
-1,
0,
0,
-1,
0,
0,
-1,
2,
0,
-1,
2,
0,
-1,
0,
0,
-1,
2,
-1,
-1,
2,
0,
-1,
2,
0,
-1,
0,
0,
-1,
2,
0,
-1,
2,
-1,
-1,
2,
0,
-1,
0,
0,
-1,
0,
-1,
-1,
2,
0,
-1,
0,
0,
-1,
0,
0,
-1,
2,
-1,
-1,
2,
0,
-1,
2,
-1,
-1,
0,
0,
-1,
0,
-1,
-1,
2,
0,
-1,
0,
0,
-1,
0,
0,
-1,
0,
0,
0,
2,
0,
-1,
2,
0,
-1,
0,
0,
-1,
2,
0,
0,
2,
0,
-1,
2,
0,
-1,
0,
0,
-1,
0,
-1,
-1,
2,
0,
0,
2,
0,
-1,
2,
2,
-1,
0,
-1,
0,
2,
0,
-1,
2,
0,
-1,
0,
0,
-1,
0,
0,
0,
2,
-1,
-1,
2,
0,
-1,
0,
0,
-1,
2,
-1,
-1,
2,
0,
-1,
2,
0,
-1,
0,
0,
0,
2,
-1,
0,
2,
-1,
-1,
2,
0,
-1,
0,
0,
-1,
0,
-1,
-1,
2,
0,
0,
2,
-1,
-1,
0,
2,
-1,
0,
-1,
-1,
2,
0,
-1,
2,
0,
-1,
0,
0,
-1,
2,
0,
0,
2,
-1,
-1,
2,
0,
-1,
0,
0,
-1,
2,
0,
0,
2,
0,
-1,
2,
0,
-1,
0,
2,
-1,
0,
-1,
-1,
2,
0,
-1,
2,
0,
-1,
0,
2,
-1,
2,
-1,
0,
2,
0,
0,
2,
0,
-1,
0,
0,
-1,
2,
-1,
0,
2,
0,
0,
2,
0,
-1,
0,
0,
-1,
2,
0,
0,
2,
-1,
-1,
2,
0,
-1,
0,
0,
-1,
2,
-1,
-1,
2,
0,
0,
2,
0,
-1,
0,
0,
-1,
2,
-1,
0,
2,
0,
-1,
2,
0,
-1,
0,
0,
-1,
0,
0,
0,
2,
0,
0,
2,
0,
-1,
0,
0,
0,
2,
0,
0,
2,
0,
0,
3,
0,
-1,
0,
2,
0,
2,
0,
0,
2,
0,
-1,
2,
0,
-1,
0,
2,
-1,
2,
0,
0,
2,
0,
-1,
2,
0,
-1,
0,
0,
0,
2,
0,
0,
2,
0,
-1,
2,
0,
-1,
2,
2,
-1,
2,
0,
0,
2,
0,
-1,
2,
0,
-1,
2,
2,
-1,
0,
0,
0,
2,
0,
0,
2,
0,
-1,
0,
0,
-1,
2,
0,
0,
2,
0,
-1,
2,
0,
-1,
0,
0,
0,
2,
-1,
0,
2,
0,
-1,
2,
0,
-1,
0,
2,
0,
2,
0,
0,
2,
0,
-1,
2,
0,
-1,
2,
2,
-1,
0,
-1,
0,
2,
0,
-1,
2,
0,
0,
2,
0,
-1,
2,
0,
0,
2,
0,
-1,
2,
0,
-1,
0,
0,
-1,
2,
0,
0,
2,
0,
-1,
3,
0,
-1,
0,
2,
0,
2,
0,
0,
2,
0,
0,
2,
0,
-1,
0,
0,
0,
2,
0,
-1,
2,
0,
0,
2,
0,
-1,
0,
0,
-1,
0,
0,
0,
2,
0,
0,
2,
0,
0,
2,
0,
-1,
2,
0,
0,
2,
0,
-1,
2,
0,
-1,
0,
0,
0,
2,
0,
0,
2,
0,
0,
2,
0,
-1,
2,
0,
0,
2,
0,
0,
2,
0,
0,
2,
0,
-1,
0,
0,
0,
2,
0,
-1,
2,
0,
-1,
2,
0,
0,
2,
2,
0,
2,
0,
0,
2,
0,
0,
2,
0,
0,
2,
0,
-1,
2,
0,
0,
2,
-1,
-1,
2,
0,
-1,
0,
0,
0,
2,
0,
0,
2,
0,
0,
2,
0,
-1,
0,
2,
0,
2,
0,
-1,
2,
0,
-1,
2,
0,
0,
2,
0,
0,
2,
0,
0,
2,
0,
-1,
2,
2,
-1,
0,
2,
-1,
2,
0,
0,
2,
0,
-1,
2,
0,
-1,
0,
2,
-1,
2,
0,
0,
2,
0,
0,
2,
0,
-1,
0,
0,
-1,
2,
0,
0,
2,
0,
-1,
2,
0,
-1,
2,
0,
-1,
2,
-1,
0,
2,
0,
-1,
2,
0,
-1,
2,
0,
0,
2,
2,
0,
2,
0,
-1,
2,
0,
0,
2,
0,
0,
2,
0,
0,
2,
0,
0,
2,
0,
-1,
0,
2,
0,
2,
-1,
0,
3,
0,
-1,
2,
0,
-1,
0,
2,
-1,
0,
0,
0,
2,
0,
-1,
2,
0,
-1,
0,
0,
-1,
2,
0,
0,
2,
0,
-1,
2,
0,
-1,
0,
0,
-1,
2,
0,
0,
2,
0,
-1,
3,
0,
-1,
0,
0,
-1,
2,
0,
-1,
2,
0,
0,
2,
0,
-1,
0,
2,
-1,
2,
-1,
-1,
2,
0,
0,
2,
0,
-1,
0,
0,
0,
2,
0,
0,
2,
0,
-1,
2,
0,
-1,
0,
0,
-1,
2,
0,
0,
2,
0,
-1,
2,
0,
-1,
0,
0,
0,
2,
0,
-1,
2,
0,
-1,
2,
0,
0,
2,
0,
-1,
0,
0,
0,
2,
0,
-1,
2,
0,
-1,
0,
0,
-1,
2,
0,
0,
2,
0,
-1,
2,
0,
-1,
0,
0,
0,
2,
0,
0,
2,
0,
0,
2,
0,
-1,
0,
2,
-1,
2,
-1,
0,
2,
0,
-1,
2,
0,
-1,
0,
2,
0,
2,
-1,
-1,
2,
0,
0,
2,
0,
-1,
2,
0,
-1,
0,
0,
-1,
2,
0,
-1,
2,
0,
-1,
0,
0,
-1,
0,
0,
0,
2,
0,
-1,
3,
0,
-1,
0,
0,
0,
2,
0,
-1,
2,
0,
0,
2,
0,
-1,
0,
2,
0,
2,
-1,
-1,
2,
0,
-1,
2,
0,
-1,
0,
2,
0,
2,
0,
0,
2,
-1,
-1,
2,
0,
-1,
0,
0,
0,
2,
-1,
-1,
2,
0,
-1,
2,
0,
-1,
0,
2,
-1,
2,
-1,
-1,
2,
0,
-1,
4,
40,
95,
120,
125,
124,
118,
108,
101,
99,
95,
90,
85,
80,
76,
74,
70,
66,
64,
60,
57,
56,
53,
50,
48,
46,
43,
43,
41,
38,
37,
36,
34,
33,
31,
29,
29,
28,
26,
26,
24,
23,
24,
21,
21,
22,
19,
19,
19,
18,
17,
18,
17,
16,
17,
14,
14,
16,
14,
13,
14,
13,
12,
13,
13,
12,
13,
12,
10,
12,
10,
10,
12,
10,
9,
10,
9,
9,
10,
9,
9,
10,
9,
8,
9,
9,
8,
9,
8,
8,
10,
8,
8,
9,
8,
7,
9,
8,
8,
9,
8,
7,
9,
8,
8,
8,
8,
7,
8,
7,
7,
8,
7,
7,
8,
7,
7,
8,
7,
7,
8,
7,
7,
8,
7,
7,
8,
8,
7,
8,
7,
7,
8,
7,
7,
8,
7,
7,
8,
7,
7,
8,
7,
7,
8,
7,
7,
8,
7,
7,
8,
5,
7,
8,
7,
7,
8,
8,
7,
8,
7,
5,
7,
7,
7,
8,
7,
7,
8,
7,
5,
8,
7,
7,
8,
7,
7,
7,
7,
7,
8,
7,
5,
8,
7,
7,
8,
7,
7,
7,
7,
7,
8,
5,
7,
8,
7,
5,
8,
7,
7,
7,
7,
5,
7,
7,
7,
8,
7,
5,
7,
7,
7,
7,
7,
5,
8,
7,
7,
8,
7,
5,
8,
7,
7,
7,
7,
5,
7,
7,
7,
7,
5,
5,
8,
7,
7,
7,
7,
5,
8,
7,
5,
7,
7,
7,
7,
7,
7,
7,
7,
5,
7,
5,
5,
8,
7,
5,
7,
5,
5,
7,
7,
5,
7,
5,
7,
8,
5,
5,
7,
5,
7,
7,
7,
5,
8,
5,
5,
8,
7,
5,
7,
7,
7,
7,
5,
5,
7,
7,
7,
7,
5,
5,
8,
7,
5,
7,
5,
5,
8,
5,
5,
7,
5,
5,
8,
5,
5,
7,
7,
7,
7,
5,
5,
8,
5,
5,
7,
5,
5,
8,
7,
5,
7,
7,
5,
8,
7,
5,
7,
5,
5,
7,
5,
5,
7,
5,
5,
7,
5,
5,
7,
5,
7,
7,
5,
5,
7,
7,
5,
7,
5,
5,
7,
7,
5,
7,
7,
5,
8,
5,
5,
7,
5,
5,
7,
5,
5,
7,
7,
5,
7,
5,
5,
7,
5,
5,
7,
5,
5,
7,
5,
5,
7,
5,
5,
7,
5,
5,
7,
5,
5,
7,
5,
5,
7,
5,
5,
7,
5,
5,
7,
5,
5,
7,
5,
5,
7,
5,
5,
7,
5,
5,
7,
5,
5,
7,
5,
5,
7,
5,
5,
7,
5,
5,
7,
5,
5,
7,
5,
5,
7,
5,
5,
7,
5,
5,
7,
5,
5,
7,
5,
5,
7,
7,
5,
7,
5,
5,
7,
5,
5,
7,
5,
5,
7,
5,
5,
7,
5,
5,
7,
5,
5,
7,
5,
5,
7,
5,
5,
7,
7,
5,
7,
5,
5,
7,
5,
4,
7,
5,
5,
7,
5,
4,
7,
5,
5,
7,
5,
4,
7,
5,
5,
7,
5,
5,
7,
5,
4,
7,
5,
5,
7,
5,
5,
7,
5,
5,
7,
5,
5,
7,
5,
5,
7,
5,
5,
7,
5,
5,
7,
5,
5,
7,
5,
4,
7,
5,
5,
5,
5,
5,
7,
5,
5,
7,
5,
5,
5,
5,
5,
7,
5,
4,
7,
5,
5,
7,
5,
4,
7,
5,
5,
5,
5,
4,
7,
5,
4,
7,
5,
4,
5,
5,
5,
7,
5,
5,
7,
5,
5,
7,
5,
4,
5,
5,
5,
7,
5,
4,
7,
5,
5,
5,
5,
4,
7,
5,
4,
5,
5,
5,
7,
4,
4,
5,
5,
4,
7,
5,
4,
7,
5,
5,
7,
4,
5,
7,
5,
4,
5,
5,
5,
7,
5,
4,
5,
5,
5,
7,
4,
4,
5,
5,
5,
5,
4,
4,
7,
5,
4,
5,
4,
4,
7,
5,
5,
5,
5,
4,
7,
5,
4,
7,
5,
5,
7,
5,
5,
5,
5,
5,
7,
5,
5,
7,
5,
4,
5,
5,
4,
7,
5,
4,
5,
4,
4,
5,
5,
4,
5,
5,
4,
7,
4,
4,
5,
5,
5,
5,
4,
4,
5,
5,
5,
5,
5,
4,
7,
5,
4,
5,
5,
4,
5,
5,
4,
7,
5,
4,
5,
4,
4,
5,
5,
4,
5,
4,
5,
7,
5,
4,
5,
5,
4,
7,
4,
4,
5,
5,
5,
5,
4,
4,
5,
5,
5,
5,
4,
4,
5,
4,
4,
5,
4,
4,
7,
5,
4,
5,
4,
4,
7,
4,
4,
5,
4,
4,
5,
4,
4,
5,
5,
4,
5,
4,
4,
5,
4,
4,
5,
4,
4,
5,
5,
4,
5,
4,
4,
5,
4,
4,
5,
4,
5,
5,
5,
4,
5,
4,
5,
5,
4,
4,
7,
5,
4,
5,
4,
4,
5,
5,
4,
5,
4,
4,
7,
5,
4,
5,
5,
4,
5,
4,
4,
5,
5,
4,
5,
4,
4,
5,
5,
4,
5,
4,
4,
5,
4,
4,
5,
4,
4,
5,
5,
4,
5,
4,
4,
5,
4,
4,
5,
4,
4,
5,
4,
3,
5,
4,
4,
5,
4,
4,
5,
4,
4,
5,
4,
4,
5,
4,
4,
5,
4,
4,
5,
4,
4,
5,
4,
4,
5,
4,
4,
5,
4,
4,
5,
4,
4,
5,
5,
4,
5,
5,
3,
5,
4,
3,
5,
4,
4,
5,
4,
4,
5,
4,
4,
5,
4,
4,
5,
4,
4,
5,
4,
4,
5,
4,
4,
5,
4,
4,
5,
4,
4,
5,
4,
4,
5,
4,
4,
5,
4,
4,
5,
4,
4,
5,
4,
4,
4,
4,
3,
5,
4,
3,
5,
4,
4,
5,
4,
3,
5,
5,
4,
5,
4,
4,
5,
4,
4,
4,
4,
4,
5,
5,
3,
5,
4,
4,
5,
4,
4,
5,
4,
3,
5,
4,
3,
5,
4,
4,
4,
4,
4,
5,
4,
3,
5,
4,
3,
5,
4,
3,
5,
4,
4,
5,
4,
4,
5,
4,
3,
5,
4,
3,
5,
4,
4,
4,
4,
4,
5,
4,
3,
5,
3,
4,
5,
4,
3,
5,
4,
4,
5,
4,
3,
5,
4,
4,
4,
3,
4,
5,
4,
4,
4,
4,
3,
5,
4,
3,
4,
4,
4,
5,
4,
3,
4,
4,
3,
5,
3,
3,
5,
4,
4,
5,
4,
3,
4,
4,
3,
5,
3,
4,
5,
4,
3,
5,
3,
3,
5,
4,
3,
5,
4,
3,
4,
4,
3,
5,
4,
4,
4,
4,
3,
5,
3,
4,
4,
3,
3,
5,
4,
3,
5,
4,
3,
5,
3,
3,
4,
4,
4,
5,
4,
3,
4,
4,
3,
5,
3,
3,
4,
4,
3,
5,
4,
3,
4,
4,
3,
5,
3,
3,
4,
4,
4,
5,
4,
3,
4,
4,
3,
5,
4,
3,
4,
4,
3,
5,
4,
3,
4,
4,
3,
4,
3,
3,
4,
3,
3,
4,
3,
3,
4,
4,
3,
4,
3,
3,
5,
3,
3,
4,
4,
3,
4,
4,
3,
5,
4,
3,
4,
3,
3,
5,
4,
3,
4,
4,
3,
5,
4,
3,
4,
3,
3,
4,
3,
3,
4,
4,
3,
4,
3,
