src/long_1599/temp00819.CSV

Format,1.0B,
Memory Length,10000,
IntpDistance,0,
Trigger Address,4849,
Trigger Level,8.000E-01,
Source,CH1,
Vertical Units,V,
Vertical Units Div,0,
Vertical Units Extend Div,16,
Label,,
Probe Type,0,
Probe Ratio,1.000e+01,
Vertical Scale,2.000e-01,
Vertical Position,-6.800e-01,
Horizontal Units,S,
Horizontal Scale,2.000E-06,
Horizontal Position,3.000E-07,
Horizontal Mode,Main,
SincET Mode,Real Time,
Sampling Period,2.000e-09,
Horizontal Old Scale,2.000E-06,
Horizontal Old Position,3.000E-07,
Firmware,V1.23,
Mode,Fast,
Waveform Data,
3,
3,
2,
3,
3,
2,
4,
3,
2,
3,
2,
0,
4,
2,
2,
3,
2,
2,
3,
3,
2,
3,
2,
2,
4,
2,
2,
3,
4,
2,
3,
2,
2,
4,
3,
2,
4,
3,
2,
3,
3,
2,
3,
3,
3,
3,
3,
2,
4,
3,
2,
2,
3,
2,
4,
3,
2,
3,
2,
2,
4,
2,
0,
2,
2,
2,
3,
2,
2,
3,
3,
2,
3,
2,
2,
3,
3,
2,
3,
2,
2,
3,
2,
0,
3,
2,
2,
3,
3,
0,
3,
2,
3,
3,
2,
0,
3,
3,
2,
3,
2,
2,
3,
2,
3,
3,
2,
2,
4,
2,
2,
2,
3,
2,
3,
2,
2,
3,
3,
2,
4,
2,
0,
3,
3,
2,
3,
2,
2,
3,
2,
0,
3,
2,
2,
3,
3,
2,
3,
2,
2,
3,
2,
0,
3,
2,
2,
3,
3,
2,
3,
3,
3,
3,
2,
0,
4,
3,
2,
3,
3,
2,
3,
2,
2,
3,
2,
2,
4,
3,
0,
3,
3,
2,
4,
3,
2,
3,
3,
2,
3,
2,
2,
3,
3,
2,
3,
2,
2,
3,
3,
2,
3,
2,
2,
3,
3,
2,
3,
3,
2,
3,
2,
0,
4,
3,
2,
3,
2,
2,
3,
2,
2,
3,
2,
0,
4,
2,
0,
2,
2,
2,
3,
2,
2,
3,
2,
2,
4,
2,
2,
3,
3,
2,
3,
2,
2,
3,
2,
2,
3,
2,
2,
3,
2,
0,
3,
2,
2,
3,
2,
0,
4,
2,
2,
3,
2,
2,
3,
2,
2,
3,
2,
0,
3,
2,
2,
2,
2,
2,
3,
2,
2,
3,
2,
0,
3,
2,
2,
3,
2,
0,
3,
2,
2,
3,
2,
0,
3,
2,
2,
2,
3,
2,
3,
3,
2,
3,
2,
0,
4,
2,
2,
3,
3,
2,
3,
2,
2,
3,
2,
2,
4,
3,
2,
2,
3,
2,
3,
2,
2,
3,
2,
2,
4,
3,
2,
3,
3,
0,
3,
2,
2,
3,
2,
2,
4,
2,
2,
3,
3,
2,
3,
2,
2,
3,
2,
0,
3,
2,
2,
3,
2,
2,
3,
2,
2,
3,
2,
0,
3,
2,
2,
3,
2,
0,
3,
3,
2,
3,
2,
0,
3,
2,
2,
3,
2,
2,
3,
2,
2,
3,
2,
0,
3,
2,
0,
2,
2,
0,
3,
2,
0,
2,
0,
0,
3,
0,
0,
2,
2,
0,
2,
0,
0,
2,
0,
0,
2,
0,
-1,
0,
2,
0,
2,
0,
0,
2,
0,
0,
2,
0,
0,
2,
2,
0,
2,
0,
0,
2,
0,
0,
3,
0,
0,
2,
2,
0,
3,
2,
0,
3,
2,
0,
4,
2,
2,
3,
3,
2,
4,
3,
3,
3,
3,
2,
4,
3,
3,
3,
3,
3,
4,
3,
2,
4,
3,
2,
4,
3,
2,
3,
3,
2,
3,
2,
2,
3,
2,
2,
3,
2,
0,
2,
3,
0,
3,
2,
2,
3,
2,
0,
3,
2,
2,
3,
2,
0,
2,
2,
2,
3,
0,
0,
3,
2,
2,
2,
2,
0,
3,
2,
0,
3,
0,
0,
3,
2,
0,
2,
2,
2,
3,
2,
2,
2,
2,
0,
3,
2,
0,
3,
2,
0,
3,
2,
0,
3,
2,
0,
3,
2,
2,
3,
2,
0,
3,
2,
2,
3,
2,
0,
3,
2,
0,
2,
2,
0,
3,
2,
0,
3,
2,
0,
3,
2,
0,
2,
2,
0,
2,
2,
0,
3,
2,
2,
3,
2,
0,
2,
3,
2,
3,
2,
0,
3,
2,
2,
3,
2,
2,
3,
2,
2,
2,
2,
2,
3,
2,
0,
3,
2,
0,
2,
2,
0,
3,
2,
0,
2,
2,
0,
3,
2,
0,
2,
2,
2,
2,
2,
0,
3,
2,
0,
2,
0,
0,
3,
2,
0,
2,
2,
0,
3,
0,
0,
3,
2,
2,
2,
2,
0,
3,
2,
0,
3,
2,
2,
3,
2,
0,
2,
2,
2,
3,
2,
0,
3,
2,
0,
3,
2,
0,
2,
2,
2,
3,
2,
0,
3,
2,
0,
3,
0,
0,
2,
2,
0,
2,
0,
-1,
3,
0,
0,
3,
0,
0,
3,
2,
0,
2,
2,
0,
3,
0,
0,
3,
2,
2,
2,
2,
0,
3,
2,
0,
3,
0,
0,
3,
2,
2,
2,
2,
2,
3,
2,
0,
3,
2,
2,
2,
2,
0,
2,
2,
2,
3,
2,
0,
3,
2,
0,
3,
2,
2,
2,
2,
2,
3,
2,
0,
3,
2,
0,
3,
2,
0,
2,
2,
0,
3,
2,
0,
3,
2,
0,
3,
2,
0,
2,
2,
0,
2,
0,
0,
3,
2,
0,
3,
2,
0,
2,
2,
0,
3,
2,
0,
3,
2,
0,
3,
2,
0,
2,
2,
2,
3,
2,
0,
3,
2,
0,
2,
2,
0,
2,
2,
0,
3,
2,
0,
3,
0,
0,
4,
3,
0,
2,
2,
2,
3,
2,
0,
3,
2,
2,
3,
2,
0,
2,
2,
0,
3,
2,
0,
3,
2,
0,
3,
2,
0,
2,
2,
2,
2,
2,
0,
3,
2,
0,
3,
2,
0,
2,
2,
2,
3,
2,
0,
3,
2,
0,
3,
2,
2,
3,
2,
0,
3,
2,
2,
3,
0,
0,
3,
2,
2,
2,
2,
0,
3,
2,
0,
3,
0,
0,
3,
2,
0,
2,
2,
2,
2,
2,
2,
3,
2,
2,
3,
0,
0,
2,
2,
2,
3,
2,
0,
3,
2,
0,
3,
2,
2,
2,
2,
2,
3,
2,
0,
3,
2,
0,
3,
2,
2,
2,
2,
2,
3,
2,
2,
3,
2,
0,
3,
2,
0,
2,
2,
0,
3,
2,
0,
3,
2,
0,
3,
2,
0,
2,
2,
0,
3,
2,
0,
3,
2,
0,
3,
2,
0,
2,
2,
0,
2,
2,
2,
3,
2,
0,
2,
2,
0,
2,
2,
0,
3,
2,
0,
3,
2,
0,
3,
2,
0,
2,
2,
2,
3,
2,
0,
3,
0,
0,
3,
2,
0,
2,
2,
0,
3,
2,
0,
3,
0,
0,
3,
2,
2,
2,
2,
0,
3,
2,
0,
3,
2,
0,
3,
2,
0,
2,
2,
0,
3,
2,
2,
3,
2,
0,
3,
2,
0,
2,
2,
2,
2,
2,
0,
3,
2,
0,
3,
2,
0,
2,
2,
2,
3,
2,
0,
3,
2,
0,
3,
0,
0,
3,
2,
0,
2,
0,
0,
3,
2,
0,
3,
2,
2,
2,
2,
0,
3,
2,
0,
3,
0,
0,
3,
2,
0,
2,
2,
0,
3,
2,
0,
2,
2,
2,
3,
2,
0,
2,
2,
0,
3,
2,
0,
3,
2,
0,
2,
0,
0,
2,
2,
0,
3,
2,
0,
3,
0,
0,
3,
2,
0,
2,
2,
0,
3,
2,
2,
2,
2,
0,
3,
2,
0,
2,
2,
0,
2,
2,
0,
3,
2,
0,
2,
2,
0,
2,
2,
0,
3,
2,
0,
3,
0,
0,
3,
2,
0,
2,
2,
0,
3,
2,
0,
3,
0,
0,
3,
2,
2,
2,
2,
0,
3,
2,
0,
3,
0,
0,
3,
0,
0,
2,
2,
0,
2,
0,
-1,
3,
2,
0,
2,
0,
0,
2,
2,
0,
2,
2,
0,
3,
2,
0,
3,
2,
2,
3,
2,
0,
2,
2,
2,
3,
2,
0,
2,
2,
0,
2,
2,
0,
3,
2,
0,
3,
0,
-1,
3,
2,
0,
2,
0,
0,
3,
2,
0,
3,
0,
0,
3,
0,
0,
2,
2,
2,
3,
0,
0,
3,
2,
0,
2,
0,
0,
3,
2,
0,
2,
0,
0,
3,
2,
0,
2,
0,
0,
2,
2,
0,
2,
2,
0,
3,
0,
0,
3,
2,
0,
2,
2,
2,
3,
0,
0,
2,
0,
0,
3,
0,
0,
2,
2,
0,
2,
2,
0,
3,
0,
0,
3,
0,
0,
2,
0,
0,
2,
0,
0,
3,
2,
0,
3,
0,
0,
2,
2,
0,
2,
2,
0,
3,
0,
0,
3,
0,
0,
2,
2,
0,
3,
0,
0,
2,
0,
0,
3,
2,
0,
2,
2,
0,
3,
2,
0,
3,
0,
0,
2,
0,
0,
2,
2,
0,
2,
0,
0,
3,
0,
0,
2,
2,
0,
2,
2,
0,
2,
2,
0,
3,
0,
0,
2,
2,
2,
2,
2,
0,
2,
0,
0,
2,
2,
0,
3,
2,
0,
2,
2,
0,
2,
2,
0,
3,
0,
0,
3,
0,
0,
2,
0,
0,
2,
0,
-1,
3,
0,
0,
2,
0,
0,
2,
2,
0,
2,
2,
0,
3,
0,
0,
3,
0,
0,
2,
2,
0,
2,
0,
0,
3,
0,
0,
2,
2,
0,
2,
2,
0,
3,
2,
0,
3,
0,
0,
3,
2,
0,
2,
2,
2,
3,
2,
0,
3,
2,
0,
3,
2,
0,
2,
2,
0,
3,
2,
0,
3,
2,
0,
3,
2,
2,
2,
2,
0,
3,
2,
0,
3,
2,
0,
3,
2,
0,
2,
2,
0,
3,
2,
0,
3,
0,
0,
3,
2,
2,
2,
2,
0,
2,
2,
0,
3,
0,
0,
3,
2,
0,
2,
2,
0,
3,
2,
0,
3,
2,
0,
3,
0,
0,
2,
2,
0,
2,
2,
0,
3,
2,
0,
2,
0,
0,
2,
0,
0,
3,
2,
0,
3,
2,
0,
3,
2,
0,
2,
2,
0,
2,
0,
0,
3,
2,
0,
2,
0,
0,
2,
2,
0,
2,
2,
0,
3,
0,
0,
3,
2,
0,
2,
2,
0,
2,
2,
0,
3,
0,
0,
2,
0,
0,
2,
2,
0,
2,
2,
0,
2,
0,
0,
2,
0,
0,
2,
2,
0,
3,
2,
0,
2,
0,
0,
3,
2,
0,
2,
2,
2,
3,
2,
0,
3,
2,
0,
2,
0,
0,
3,
2,
0,
2,
0,
0,
3,
2,
0,
2,
0,
0,
2,
0,
0,
3,
2,
0,
3,
0,
0,
3,
0,
0,
2,
2,
0,
2,
2,
0,
2,
2,
0,
2,
0,
0,
2,
2,
0,
2,
2,
0,
2,
0,
0,
3,
0,
0,
2,
2,
0,
3,
2,
0,
3,
2,
0,
3,
0,
0,
2,
2,
0,
3,
2,
0,
2,
2,
0,
3,
2,
0,
2,
2,
0,
2,
0,
0,
3,
0,
0,
2,
0,
0,
2,
2,
0,
2,
0,
0,
3,
2,
0,
2,
0,
0,
2,
2,
0,
2,
2,
0,
2,
0,
0,
2,
2,
0,
2,
0,
0,
3,
0,
0,
2,
0,
-1,
3,
2,
0,
2,
0,
0,
3,
2,
0,
2,
0,
0,
3,
0,
-1,
0,
2,
0,
2,
0,
-1,
2,
0,
0,
2,
0,
0,
2,
2,
-1,
0,
0,
0,
3,
0,
0,
2,
0,
0,
0,
2,
0,
2,
2,
0,
2,
0,
-1,
3,
0,
0,
2,
0,
0,
2,
0,
0,
2,
0,
0,
2,
0,
0,
0,
0,
0,
2,
0,
-1,
2,
0,
0,
3,
0,
0,
2,
0,
0,
2,
0,
0,
3,
0,
0,
2,
0,
0,
2,
0,
0,
2,
2,
0,
2,
0,
-1,
2,
0,
0,
2,
0,
0,
2,
0,
0,
2,
0,
0,
2,
0,
0,
2,
2,
0,
2,
0,
0,
2,
0,
-1,
2,
0,
0,
2,
2,
0,
2,
0,
0,
2,
0,
0,
2,
0,
0,
0,
0,
0,
2,
0,
0,
2,
0,
0,
2,
0,
0,
2,
2,
0,
2,
0,
0,
2,
0,
0,
2,
0,
-1,
2,
0,
0,
2,
0,
-1,
2,
0,
0,
2,
0,
0,
2,
0,
-1,
0,
0,
0,
3,
0,
0,
2,
0,
0,
2,
0,
0,
2,
0,
0,
2,
0,
0,
2,
0,
0,
2,
2,
0,
2,
0,
0,
2,
0,
0,
2,
0,
0,
0,
2,
-1,
2,
0,
0,
2,
0,
-1,
2,
0,
0,
2,
0,
0,
2,
0,
-1,
3,
0,
0,
2,
0,
-1,
2,
2,
0,
2,
0,
0,
2,
0,
-1,
2,
0,
0,
2,
0,
-1,
2,
0,
0,
2,
0,
-1,
2,
0,
-1,
0,
0,
0,
3,
2,
0,
2,
0,
-1,
2,
0,
0,
2,
0,
0,
2,
0,
0,
2,
0,
0,
2,
0,
-1,
2,
2,
0,
2,
0,
-1,
2,
0,
-1,
2,
0,
-1,
2,
2,
0,
2,
0,
-1,
2,
0,
-1,
2,
2,
-1,
2,
0,
-1,
2,
2,
0,
2,
0,
-1,
2,
0,
0,
2,
0,
0,
2,
0,
0,
2,
0,
0,
2,
0,
-1,
2,
0,
0,
2,
0,
0,
2,
0,
-1,
2,
0,
0,
2,
0,
0,
2,
0,
-1,
3,
0,
-1,
2,
0,
0,
0,
0,
-1,
2,
0,
0,
2,
0,
-1,
2,
0,
0,
0,
0,
0,
2,
-1,
-1,
2,
0,
0,
2,
0,
-1,
2,
2,
-1,
2,
0,
0,
2,
0,
-1,
2,
0,
0,
2,
0,
-1,
2,
0,
-1,
3,
0,
-1,
2,
0,
-1,
2,
2,
0,
2,
0,
0,
2,
0,
-1,
3,
0,
0,
2,
0,
-1,
2,
0,
0,
2,
0,
0,
2,
0,
-1,
0,
0,
0,
2,
0,
-1,
2,
0,
0,
2,
0,
0,
2,
2,
0,
2,
0,
0,
3,
0,
0,
2,
0,
0,
2,
2,
0,
3,
0,
0,
2,
0,
-1,
2,
0,
0,
2,
2,
0,
2,
0,
0,
2,
0,
-1,
2,
0,
-1,
2,
2,
0,
2,
0,
-1,
2,
0,
-1,
2,
0,
0,
2,
2,
0,
2,
0,
0,
2,
2,
-1,
3,
0,
-1,
0,
0,
0,
2,
0,
0,
2,
0,
0,
2,
0,
0,
2,
2,
0,
2,
0,
0,
2,
0,
0,
2,
0,
-1,
2,
2,
0,
2,
0,
-1,
2,
0,
0,
2,
0,
-1,
2,
2,
0,
2,
0,
0,
3,
0,
0,
2,
0,
0,
2,
0,
-1,
2,
0,
0,
2,
0,
0,
2,
0,
0,
2,
0,
0,
2,
0,
-1,
2,
0,
0,
2,
0,
-1,
2,
2,
0,
2,
0,
0,
3,
2,
-1,
2,
0,
0,
2,
0,
-1,
2,
0,
0,
3,
0,
0,
2,
2,
0,
2,
0,
0,
2,
2,
0,
2,
0,
0,
3,
0,
0,
2,
2,
0,
2,
0,
0,
2,
0,
0,
3,
2,
-1,
0,
0,
0,
2,
0,
0,
3,
0,
0,
2,
0,
0,
2,
0,
0,
2,
0,
0,
3,
0,
0,
2,
0,
0,
2,
2,
0,
3,
0,
0,
2,
0,
0,
3,
0,
0,
2,
0,
0,
2,
0,
-1,
3,
0,
0,
3,
0,
-1,
2,
2,
0,
2,
0,
0,
3,
2,
0,
2,
0,
0,
2,
2,
0,
2,
2,
0,
3,
0,
0,
3,
2,
0,
2,
0,
0,
2,
2,
0,
2,
0,
0,
2,
0,
0,
2,
2,
0,
2,
0,
0,
2,
0,
0,
3,
2,
-1,
0,
2,
0,
2,
2,
-1,
2,
0,
0,
2,
0,
0,
2,
2,
0,
2,
0,
0,
3,
2,
0,
2,
0,
0,
2,
2,
0,
2,
2,
2,
3,
2,
-1,
3,
0,
0,
2,
2,
0,
3,
2,
0,
2,
0,
0,
3,
2,
0,
2,
2,
0,
3,
2,
0,
2,
0,
0,
3,
0,
0,
2,
2,
0,
2,
0,
0,
3,
0,
0,
2,
0,
-1,
2,
2,
0,
2,
0,
-1,
3,
0,
-1,
2,
0,
0,
2,
2,
-1,
2,
0,
0,
2,
0,
-1,
2,
0,
0,
2,
0,
0,
2,
2,
0,
2,
0,
0,
3,
2,
0,
2,
0,
0,
2,
2,
0,
3,
2,
0,
3,
2,
0,
2,
2,
2,
3,
2,
0,
3,
2,
0,
2,
0,
0,
2,
0,
0,
2,
0,
-1,
3,
0,
0,
2,
0,
0,
2,
2,
0,
2,
2,
0,
3,
0,
0,
3,
2,
0,
2,
2,
0,
3,
2,
0,
3,
0,
0,
3,
2,
-1,
2,
2,
0,
2,
0,
-1,
2,
0,
-1,
2,
0,
-1,
0,
0,
-1,
0,
0,
-1,
2,
0,
-1,
2,
0,
0,
2,
0,
0,
2,
2,
0,
2,
0,
-1,
3,
0,
0,
2,
0,
0,
2,
2,
0,
3,
2,
0,
3,
2,
0,
2,
2,
0,
3,
2,
0,
3,
2,
0,
3,
0,
0,
3,
2,
0,
2,
2,
0,
3,
2,
0,
3,
2,
0,
2,
2,
2,
3,
2,
0,
3,
0,
0,
3,
2,
0,
2,
2,
0,
2,
0,
0,
2,
0,
-1,
2,
0,
-1,
0,
0,
0,
2,
0,
0,
2,
0,
0,
2,
0,
0,
0,
0,
0,
2,
0,
0,
2,
0,
0,
2,
0,
0,
2,
0,
0,
2,
2,
0,
2,
0,
0,
3,
2,
0,
2,
0,
0,
2,
2,
0,
2,
2,
0,
2,
0,
0,
2,
2,
0,
2,
2,
0,
3,
0,
0,
2,
0,
0,
2,
0,
0,
3,
2,
0,
3,
2,
0,
2,
2,
0,
2,
2,
0,
3,
2,
0,
3,
0,
-1,
2,
0,
0,
2,
0,
0,
2,
0,
-1,
2,
0,
-1,
2,
0,
-1,
2,
0,
0,
2,
0,
-1,
3,
0,
-1,
2,
0,
0,
2,
0,
0,
2,
0,
0,
3,
0,
-1,
2,
0,
0,
0,
0,
-1,
2,
0,
0,
2,
0,
0,
3,
0,
0,
0,
2,
0,
2,
0,
-1,
2,
0,
0,
3,
0,
0,
2,
2,
0,
2,
0,
-1,
3,
0,
0,
3,
0,
0,
2,
2,
0,
2,
0,
-1,
3,
0,
-1,
2,
0,
0,
2,
2,
-1,
2,
0,
0,
3,
0,
-1,
2,
0,
0,
2,
0,
-1,
2,
0,
0,
2,
0,
-1,
2,
0,
0,
0,
0,
0,
2,
2,
-1,
2,
0,
0,
2,
0,
0,
2,
2,
0,
2,
0,
0,
2,
0,
0,
2,
0,
0,
0,
0,
-1,
2,
0,
0,
2,
0,
-1,
3,
0,
0,
2,
2,
0,
2,
0,
0,
2,
0,
0,
3,
2,
-1,
2,
2,
0,
2,
0,
0,
3,
0,
-1,
2,
0,
0,
2,
2,
0,
2,
0,
0,
3,
0,
-1,
2,
0,
0,
2,
0,
0,
2,
0,
0,
2,
0,
-1,
2,
0,
0,
2,
0,
0,
2,
0,
-1,
2,
0,
0,
2,
0,
0,
0,
0,
0,
2,
0,
-1,
2,
0,
0,
2,
0,
-1,
2,
2,
0,
2,
0,
-1,
2,
2,
0,
2,
0,
-1,
2,
2,
-1,
2,
0,
0,
2,
0,
-1,
2,
0,
0,
2,
2,
-1,
2,
-1,
0,
2,
0,
-1,
2,
0,
0,
0,
2,
-1,
2,
0,
0,
2,
0,
-1,
2,
0,
0,
2,
0,
-1,
2,
0,
0,
2,
0,
-1,
2,
0,
-1,
0,
0,
0,
2,
2,
-1,
2,
0,
0,
2,
-1,
-1,
2,
0,
-1,
2,
0,
-1,
2,
0,
-1,
2,
0,
-1,
0,
0,
-1,
2,
0,
0,
2,
-1,
-1,
2,
0,
-1,
0,
0,
0,
2,
0,
-1,
2,
0,
0,
2,
0,
0,
0,
2,
-1,
2,
0,
0,
2,
0,
-1,
2,
0,
0,
2,
0,
-1,
2,
0,
0,
2,
0,
-1,
2,
0,
-1,
0,
2,
-1,
2,
0,
-1,
2,
0,
-1,
2,
0,
0,
2,
2,
0,
2,
0,
0,
2,
0,
-1,
2,
0,
-1,
0,
2,
-1,
2,
0,
-1,
2,
-1,
0,
2,
0,
-1,
2,
2,
-1,
2,
0,
0,
2,
0,
-1,
2,
0,
0,
0,
0,
-1,
2,
0,
0,
2,
0,
-1,
2,
0,
0,
0,
0,
0,
2,
0,
0,
2,
0,
0,
2,
0,
-1,
0,
2,
0,
2,
0,
-1,
2,
0,
-1,
2,
0,
-1,
2,
2,
-1,
2,
-1,
0,
2,
0,
-1,
2,
0,
-1,
0,
0,
-1,
2,
0,
-1,
2,
0,
-1,
2,
0,
0,
0,
0,
0,
2,
0,
0,
2,
0,
0,
2,
0,
-1,
0,
0,
0,
2,
0,
-1,
2,
0,
-1,
2,
-1,
-1,
2,
2,
-1,
0,
-1,
0,
2,
0,
-1,
2,
0,
-1,
0,
0,
-1,
2,
0,
0,
2,
0,
-1,
2,
0,
0,
0,
0,
-1,
2,
0,
0,
0,
0,
-1,
2,
0,
-1,
0,
2,
-1,
2,
-1,
-1,
2,
0,
-1,
2,
0,
0,
2,
0,
0,
2,
0,
0,
2,
0,
-1,
2,
0,
-1,
0,
0,
0,
2,
2,
-1,
2,
-1,
-1,
2,
0,
0,
0,
2,
-1,
2,
-1,
0,
2,
0,
0,
2,
0,
-1,
0,
2,
-1,
2,
0,
-1,
2,
0,
0,
2,
0,
0,
2,
2,
0,
2,
-1,
0,
2,
0,
-1,
2,
0,
-1,
2,
0,
-1,
2,
0,
0,
2,
0,
-1,
2,
0,
0,
2,
0,
-1,
2,
0,
0,
2,
0,
-1,
2,
0,
-1,
0,
0,
0,
2,
0,
-1,
2,
0,
-1,
2,
0,
0,
2,
0,
-1,
2,
-1,
0,
2,
0,
-1,
2,
0,
-1,
0,
2,
0,
2,
0,
-1,
2,
0,
0,
2,
0,
0,
2,
2,
-1,
2,
-1,
0,
2,
0,
0,
2,
0,
-1,
0,
2,
-1,
2,
-1,
-1,
2,
0,
-1,
2,
0,
-1,
2,
2,
-1,
2,
-1,
0,
2,
0,
-1,
2,
0,
-1,
0,
0,
-1,
2,
0,
0,
2,
0,
-1,
2,
0,
0,
0,
0,
0,
2,
0,
-1,
0,
0,
-1,
2,
0,
-1,
0,
2,
-1,
2,
0,
-1,
2,
0,
-1,
2,
0,
0,
2,
2,
-1,
2,
0,
0,
2,
0,
-1,
2,
0,
-1,
0,
0,
0,
2,
0,
0,
2,
0,
-1,
2,
0,
-1,
0,
2,
-1,
2,
0,
0,
2,
0,
-1,
2,
0,
-1,
0,
0,
0,
2,
0,
0,
2,
0,
0,
2,
0,
-1,
2,
0,
0,
2,
0,
0,
2,
0,
0,
2,
0,
-1,
2,
2,
-1,
2,
0,
0,
2,
0,
0,
2,
0,
0,
2,
2,
-1,
2,
0,
0,
2,
0,
0,
2,
0,
-1,
0,
0,
0,
2,
0,
0,
2,
0,
0,
3,
2,
-1,
2,
0,
0,
2,
0,
0,
2,
0,
0,
2,
0,
-1,
0,
2,
0,
2,
0,
0,
2,
0,
0,
2,
0,
0,
2,
2,
0,
2,
0,
0,
2,
0,
-1,
2,
0,
-1,
0,
0,
-1,
2,
0,
0,
2,
0,
0,
3,
0,
0,
2,
0,
0,
2,
0,
0,
2,
0,
0,
2,
0,
-1,
0,
2,
-1,
2,
0,
0,
2,
0,
-1,
2,
0,
-1,
2,
2,
-1,
2,
0,
0,
2,
0,
0,
2,
0,
-1,
0,
0,
0,
3,
2,
0,
2,
2,
-1,
2,
0,
0,
2,
2,
0,
2,
0,
0,
2,
0,
0,
2,
0,
-1,
0,
2,
0,
2,
0,
-1,
2,
0,
0,
2,
0,
-1,
2,
2,
0,
2,
0,
-1,
3,
0,
-1,
2,
0,
0,
2,
0,
-1,
2,
2,
0,
2,
-1,
-1,
2,
2,
0,
0,
0,
0,
3,
0,
0,
2,
0,
0,
2,
0,
-1,
2,
2,
0,
2,
0,
-1,
2,
2,
0,
2,
0,
-1,
2,
2,
-1,
0,
-1,
0,
2,
0,
0,
2,
0,
-1,
2,
2,
-1,
2,
2,
0,
3,
0,
-1,
2,
0,
0,
2,
2,
-1,
2,
0,
0,
2,
0,
-1,
3,
0,
0,
0,
0,
0,
2,
2,
-1,
2,
0,
0,
3,
0,
0,
2,
2,
0,
2,
0,
0,
2,
2,
0,
2,
0,
0,
2,
2,
0,
2,
2,
0,
2,
0,
-1,
2,
0,
0,
2,
2,
-1,
2,
0,
0,
2,
0,
0,
2,
0,
-1,
0,
2,
0,
2,
0,
-1,
2,
0,
0,
2,
0,
0,
2,
2,
0,
2,
0,
0,
2,
0,
-1,
2,
0,
0,
0,
0,
0,
2,
0,
0,
2,
0,
-1,
2,
0,
0,
2,
0,
0,
2,
0,
-1,
2,
0,
0,
2,
2,
-1,
0,
0,
0,
3,
2,
-1,
2,
0,
-1,
2,
0,
0,
0,
2,
0,
2,
0,
-1,
2,
0,
0,
2,
0,
-1,
2,
2,
0,
2,
0,
0,
2,
0,
-1,
2,
0,
0,
2,
2,
0,
2,
0,
0,
2,
0,
0,
2,
0,
0,
2,
0,
0,
2,
0,
0,
3,
0,
0,
2,
0,
0,
2,
2,
-1,
2,
0,
0,
2,
0,
-1,
2,
0,
0,
2,
0,
0,
2,
2,
-1,
2,
0,
-1,
3,
0,
0,
2,
0,
0,
2,
0,
0,
2,
0,
0,
2,
0,
-1,
2,
2,
0,
2,
0,
0,
2,
0,
0,
2,
0,
-1,
2,
0,
0,
2,
0,
-1,
2,
0,
-1,
2,
0,
0,
0,
2,
-1,
2,
0,
0,
3,
0,
-1,
2,
0,
0,
0,
0,
0,
2,
0,
0,
2,
0,
-1,
2,
0,
-1,
0,
0,
0,
2,
0,
-1,
2,
0,
-1,
2,
0,
-1,
2,
2,
-1,
0,
0,
-1,
2,
0,
0,
2,
0,
-1,
2,
2,
0,
2,
0,
0,
2,
0,
0,
2,
0,
0,
2,
0,
-1,
2,
0,
0,
2,
0,
-1,
2,
0,
0,
0,
0,
-1,
2,
0,
-1,
2,
0,
-1,
2,
0,
-1,
0,
0,
0,
2,
0,
-1,
2,
0,
0,
2,
0,
-1,
2,
2,
0,
2,
0,
0,
3,
0,
0,
2,
0,
0,
2,
0,
-1,
2,
-1,
0,
2,
0,
-1,
2,
0,
-1,
0,
0,
-1,
2,
0,
0,
2,
0,
0,
2,
0,
0,
2,
0,
0,
2,
0,
0,
2,
0,
0,
2,
0,
0,
0,
0,
0,
2,
0,
-1,
2,
0,
0,
2,
0,
-1,
0,
2,
-1,
2,
-1,
0,
2,
0,
0,
2,
0,
-1,
0,
2,
-1,
2,
0,
0,
2,
0,
-1,
2,
0,
0,
2,
0,
-1,
2,
-1,
0,
2,
0,
-1,
2,
0,
-1,
0,
2,
-1,
2,
0,
0,
2,
0,
-1,
2,
0,
0,
2,
0,
-1,
2,
0,
-1,
2,
0,
-1,
2,
0,
0,
0,
0,
-1,
2,
0,
0,
2,
0,
-1,
2,
0,
-1,
0,
0,
-1,
2,
0,
0,
2,
0,
0,
2,
0,
-2,
0,
0,
0,
2,
-1,
-1,
2,
0,
0,
2,
-1,
-1,
2,
2,
-1,
0,
-1,
0,
2,
0,
-1,
2,
0,
-1,
2,
0,
-1,
2,
0,
0,
2,
0,
-1,
2,
0,
0,
2,
0,
-1,
2,
0,
0,
0,
0,
0,
2,
0,
0,
0,
0,
-1,
2,
0,
-1,
2,
0,
-1,
2,
0,
-1,
0,
0,
0,
2,
0,
-1,
2,
0,
0,
2,
0,
-1,
0,
2,
0,
2,
0,
-1,
2,
0,
-1,
2,
0,
0,
0,
2,
-1,
2,
-1,
0,
2,
0,
-1,
2,
0,
-1,
0,
0,
0,
2,
0,
-1,
2,
0,
-1,
2,
0,
0,
2,
0,
0,
2,
-1,
-1,
3,
0,
-1,
2,
0,
0,
0,
0,
-1,
2,
0,
0,
2,
-1,
-1,
2,
0,
-1,
0,
0,
0,
2,
0,
0,
2,
-1,
-1,
2,
0,
-1,
0,
0,
-1,
2,
-1,
0,
2,
0,
0,
2,
-1,
-1,
2,
0,
-1,
2,
-1,
0,
2,
0,
-1,
2,
0,
-1,
0,
0,
-1,
2,
0,
0,
2,
0,
-1,
2,
0,
0,
2,
0,
-1,
2,
0,
0,
2,
0,
-1,
2,
0,
0,
0,
0,
-1,
2,
0,
-1,
2,
0,
-1,
2,
0,
-1,
2,
0,
0,
2,
0,
-1,
2,
0,
-1,
2,
0,
-1,
2,
0,
-1,
2,
0,
0,
2,
-1,
-1,
2,
0,
-1,
2,
0,
-1,
2,
0,
0,
2,
0,
-1,
2,
0,
-1,
0,
0,
-1,
2,
0,
-1,
2,
0,
-1,
2,
0,
0,
0,
0,
-1,
2,
-1,
0,
2,
0,
-1,
2,
0,
-1,
0,
0,
-1,
2,
0,
-1,
2,
0,
-1,
2,
0,
-1,
2,
2,
-1,
0,
0,
-1,
2,
0,
-1,
2,
0,
-1,
0,
0,
-1,
2,
0,
0,
2,
0,
-1,
2,
0,
-1,
0,
0,
-1,
2,
0,
-1,
2,
0,
-1,
2,
0,
-1,
0,
0,
-1,
2,
0,
-1,
2,
0,
-1,
2,
0,
0,
2,
0,
-1,
2,
0,
0,
0,
0,
-1,
2,
0,
-1,
0,
0,
-1,
2,
0,
-1,
2,
0,
-1,
2,
0,
-1,
0,
0,
-1,
0,
-1,
0,
2,
0,
-1,
2,
0,
-1,
0,
0,
-1,
2,
0,
-1,
2,
0,
-1,
2,
0,
-1,
0,
0,
-1,
0,
-1,
0,
2,
0,
-1,
2,
0,
-1,
0,
0,
-1,
2,
0,
-1,
2,
0,
-1,
2,
0,
-1,
0,
0,
-1,
2,
-1,
0,
2,
0,
-1,
2,
0,
-1,
0,
0,
-1,
2,
0,
-1,
2,
0,
-1,
2,
0,
-1,
0,
2,
-1,
2,
-1,
-1,
2,
0,
-1,
2,
0,
-1,
2,
2,
-1,
2,
-1,
-1,
2,
0,
-1,
2,
0,
-1,
2,
0,
-1,
2,
-1,
0,
2,
0,
-1,
2,
0,
-1,
0,
0,
-1,
2,
0,
0,
2,
-1,
-1,
2,
0,
0,
0,
0,
0,
2,
0,
-1,
2,
0,
-1,
2,
0,
-1,
0,
2,
0,
2,
0,
0,
2,
0,
-1,
2,
0,
-1,
0,
0,
0,
2,
0,
-1,
2,
0,
0,
2,
0,
-1,
0,
0,
-1,
2,
-1,
0,
2,
0,
-1,
2,
0,
0,
2,
2,
-1,
2,
-1,
0,
2,
0,
-1,
2,
0,
-1,
0,
0,
-1,
2,
0,
0,
2,
0,
-1,
2,
0,
0,
0,
0,
-1,
2,
-1,
0,
0,
0,
0,
2,
0,
-1,
0,
0,
0,
2,
0,
-1,
2,
0,
-1,
2,
0,
-1,
0,
2,
-1,
0,
-1,
-1,
2,
0,
-1,
2,
0,
-1,
2,
0,
-1,
2,
0,
0,
2,
0,
-1,
2,
0,
0,
2,
0,
-1,
2,
0,
0,
2,
0,
7,
51,
101,
122,
123,
122,
117,
104,
99,
98,
94,
88,
84,
79,
75,
71,
69,
66,
62,
58,
55,
55,
53,
50,
47,
45,
43,
41,
41,
38,
36,
34,
33,
32,
32,
29,
28,
28,
27,
24,
24,
23,
21,
22,
21,
21,
21,
18,
18,
19,
18,
16,
17,
16,
14,
17,
16,
13,
14,
13,
13,
14,
13,
10,
12,
13,
12,
12,
10,
9,
13,
10,
9,
10,
10,
9,
12,
9,
8,
10,
9,
9,
10,
9,
8,
9,
9,
8,
9,
9,
8,
9,
9,
8,
9,
8,
8,
10,
8,
7,
9,
8,
8,
9,
8,
7,
9,
8,
8,
8,
7,
7,
8,
8,
7,
9,
8,
7,
9,
8,
7,
8,
8,
7,
8,
8,
7,
9,
8,
7,
8,
8,
7,
8,
8,
7,
8,
7,
7,
8,
7,
7,
8,
7,
7,
8,
8,
7,
8,
7,
7,
8,
7,
7,
8,
7,
7,
9,
8,
7,
8,
8,
7,
8,
7,
7,
8,
8,
7,
8,
7,
7,
8,
8,
7,
8,
7,
7,
8,
8,
7,
8,
7,
7,
8,
7,
7,
8,
7,
7,
8,
7,
7,
8,
7,
7,
8,
7,
7,
8,
7,
7,
8,
7,
5,
8,
7,
7,
8,
7,
7,
8,
7,
7,
7,
7,
5,
8,
7,
7,
8,
7,
7,
8,
7,
7,
8,
7,
7,
8,
7,
7,
8,
7,
7,
8,
7,
7,
7,
7,
7,
8,
7,
5,
7,
7,
7,
8,
7,
7,
8,
7,
5,
8,
5,
7,
8,
7,
7,
8,
7,
7,
8,
8,
5,
8,
5,
7,
8,
7,
5,
8,
7,
7,
7,
7,
5,
8,
7,
7,
8,
5,
5,
7,
7,
7,
7,
7,
5,
8,
7,
5,
7,
5,
5,
8,
7,
5,
7,
7,
5,
8,
5,
5,
8,
5,
5,
7,
7,
5,
7,
7,
5,
7,
7,
7,
7,
7,
5,
8,
7,
5,
7,
7,
5,
8,
7,
7,
8,
7,
7,
8,
7,
7,
8,
7,
7,
8,
7,
5,
7,
7,
5,
8,
7,
7,
7,
7,
5,
8,
7,
7,
8,
7,
5,
8,
7,
7,
7,
7,
5,
7,
7,
5,
7,
5,
5,
7,
7,
5,
8,
5,
5,
7,
7,
7,
7,
5,
5,
8,
7,
5,
7,
5,
5,
8,
5,
5,
7,
5,
5,
7,
5,
5,
7,
7,
5,
8,
5,
5,
8,
5,
5,
7,
5,
5,
8,
7,
5,
7,
7,
5,
7,
7,
5,
7,
5,
7,
7,
7,
5,
7,
5,
5,
7,
5,
5,
7,
5,
5,
7,
7,
5,
7,
5,
5,
7,
5,
4,
7,
5,
5,
7,
5,
4,
7,
5,
5,
7,
5,
5,
7,
5,
5,
5,
5,
5,
7,
7,
5,
7,
7,
5,
7,
5,
5,
7,
7,
5,
7,
7,
5,
7,
5,
5,
7,
5,
5,
7,
5,
4,
7,
5,
5,
5,
5,
4,
7,
5,
5,
7,
5,
4,
7,
5,
5,
7,
5,
5,
7,
5,
5,
7,
5,
5,
7,
5,
4,
5,
5,
4,
7,
5,
4,
7,
5,
5,
7,
5,
5,
7,
5,
5,
7,
5,
5,
7,
5,
5,
5,
5,
5,
7,
5,
5,
7,
5,
7,
7,
7,
5,
7,
5,
7,
7,
5,
4,
7,
5,
5,
7,
4,
4,
7,
5,
5,
5,
5,
5,
7,
5,
4,
5,
5,
4,
7,
5,
4,
5,
5,
5,
7,
5,
4,
5,
5,
4,
7,
5,
4,
7,
5,
4,
7,
5,
4,
7,
5,
4,
5,
5,
5,
7,
5,
4,
7,
5,
5,
5,
5,
4,
7,
5,
5,
5,
5,
4,
7,
5,
5,
7,
4,
4,
7,
4,
4,
5,
5,
4,
7,
5,
4,
5,
5,
4,
5,
5,
4,
5,
5,
4,
5,
5,
4,
5,
5,
4,
5,
5,
4,
7,
5,
4,
7,
5,
5,
7,
4,
4,
7,
5,
4,
5,
5,
4,
7,
5,
4,
5,
5,
4,
7,
5,
4,
5,
5,
4,
5,
4,
4,
7,
5,
4,
5,
4,
4,
5,
5,
4,
5,
4,
4,
5,
5,
4,
5,
4,
4,
7,
5,
4,
5,
5,
5,
5,
4,
4,
5,
5,
4,
5,
4,
4,
7,
5,
4,
5,
4,
4,
7,
4,
4,
5,
4,
4,
5,
4,
4,
5,
5,
4,
5,
5,
4,
5,
4,
4,
5,
4,
4,
7,
4,
4,
5,
4,
4,
5,
4,
4,
5,
4,
4,
5,
4,
4,
5,
4,
4,
5,
4,
4,
5,
4,
4,
7,
5,
4,
5,
4,
4,
5,
4,
4,
5,
4,
4,
5,
4,
4,
5,
5,
4,
5,
4,
4,
5,
4,
4,
5,
4,
4,
5,
4,
4,
5,
4,
4,
5,
4,
4,
5,
5,
4,
5,
5,
4,
5,
4,
4,
5,
4,
4,
5,
4,
4,
5,
4,
3,
5,
5,
4,
5,
4,
4,
5,
4,
4,
5,
4,
3,
5,
4,
4,
5,
4,
4,
5,
4,
3,
5,
4,
4,
5,
4,
4,
5,
4,
4,
5,
4,
4,
5,
4,
3,
5,
4,
4,
5,
4,
4,
5,
4,
4,
5,
4,
4,
5,
4,
3,
5,
4,
4,
5,
4,
4,
5,
4,
4,
5,
4,
4,
5,
4,
3,
5,
4,
4,
5,
4,
3,
5,
4,
4,
5,
4,
4,
5,
5,
4,
5,
4,
3,
5,
4,
3,
5,
4,
4,
5,
4,
3,
5,
4,
4,
5,
4,
4,
5,
4,
4,
5,
4,
4,
5,
4,
3,
5,
4,
4,
5,
4,
4,
5,
4,
3,
5,
4,
3,
5,
3,
4,
5,
4,
3,
5,
4,
3,
4,
4,
3,
5,
4,
3,
5,
4,
3,
5,
4,
4,
5,
4,
4,
5,
4,
4,
5,
4,
4,
5,
4,
3,
4,
4,
3,
4,
3,
3,
5,
4,
3,
5,
4,
3,
4,
4,
3,
5,
4,
4,
5,
4,
3,
5,
4,
4,
4,
4,
3,
5,
4,
4,
5,
4,
4,
5,
4,
3,
5,
4,
3,
5,
3,
3,
4,
3,
3,
4,
3,
3,
4,
4,
3,
4,
3,
3,
5,
3,
3,
5,
4,
3,
4,
4,
3,
5,
4,
3,
5,
4,
4,
5,
4,
3,
4,
4,
3,
5,
3,
3,
5,
4,
3,
5,
4,
3,
4,
4,
3,
5,
4,
3,
4,
4,
4,
5,
3,
3,
4,
4,
3,
4,
3,
3,
5,
4,
3,
4,
3,
3,
5,
4,
3,
4,
3,
4,
4,
3,
3,
5,
4,
3,
4,
4,
3,
5,
4,
3,
4,
4,
4,
5,
4,
3,
4,
4,
3,
5,
3,
3,
4,
4,
3,
5,
3,
3,
4,
4,
3,
4,
3,
3,
4,
4,
3,
4,
4,
3,
4,
4,
3,
5,
4,
3,
4,
4,
4,
5,
4,
3,
4,
4,
3,
5,
3,
3,
5,
4,
3,
4,
3,
3,
4,
4,
3,
5,
3,
3,
5,
3,
3,
4,
3,
3,
4,
4,
3,
4,
3,
3,
5,
4,
3,
5,
4,
3,
4,
3,
3,
5,
4,
4,
5,
3,
3,
5,
4,
3,
4,
3,
3,
5,
4,
3,
4,
4,
4,
5,
3,
2,
4,
4,
4,
5,
3,
3,
4,
4,
3,
4,
3,
3,
5,
4,
2,
4,
3,
3,
5,
4,
3,
4,
3,
3,
5,
4,
3,
4,
3,
3,
4,
3,
3,
4,
4,
3,
4,
3,
3,
4,
3,
3,
4,
3,
3,
5,
4,
3,
4,
4,
3,
5,
3,
3,
4,
3,
3,
5,
3,
3,
4,
4,
3,
4,
3,
3,
4,
4,
3,
4,
3,
3,
5,
3,
3,
4,
3,
3,
4,
3,
3,
4,
4,
4,
4,
3,
3,
4,
4,
3,
4,
3,
3,
5,
4,
3,
4,
4,
3,
4,
3,
3,
4,
3,
3,
4,
3,
3,
4,
4,
3,
4,
3,
3,
4,
3,
3,
4,
3,
3,
4,
4,
3,
4,
3,
3,
4,
3,
3,
4,
4,
3,
4,
3,
2,
4,
3,
3,
4,
3,
3,
4,
3,
2,
5,
3,
3,
4,
4,
3,
4,
3,
3,
5,
3,
3,
4,
3,
3,
4,
3,
3,
4,
3,
3,
4,
4,
3,
4,
4,
3,
4,
3,
3,
4,
3,
3,
3,
3,
3,
5,
4,
3,
4,
3,
3,
4,
3,
3,
4,
3,
2,
4,
4,
3,
4,
3,
3,
4,
3,
3,
4,
3,
3,
4,
3,
2,
4,
4,
3,
4,
3,
3,
5,
3,
2,
4,
4,
3,
5,
3,
3,
4,
3,
3,
4,
3,
3,
4,
4,
3,
4,
3,
3,
4,
3,
3,
4,
3,
3,
4,
3,
3,
4,
3,
3,
4,
3,
3,
4,
3,
3,
4,
3,
2,
