src/long_1599/temp00333.CSV

Format,1.0B,
Memory Length,10000,
IntpDistance,0,
Trigger Address,4849,
Trigger Level,8.000E-01,
Source,CH1,
Vertical Units,V,
Vertical Units Div,0,
Vertical Units Extend Div,16,
Label,,
Probe Type,0,
Probe Ratio,1.000e+01,
Vertical Scale,2.000e-01,
Vertical Position,-6.800e-01,
Horizontal Units,S,
Horizontal Scale,2.000E-06,
Horizontal Position,3.000E-07,
Horizontal Mode,Main,
SincET Mode,Real Time,
Sampling Period,2.000e-09,
Horizontal Old Scale,2.000E-06,
Horizontal Old Position,3.000E-07,
Firmware,V1.23,
Mode,Fast,
Waveform Data,
2,
3,
2,
2,
2,
3,
2,
3,
2,
2,
3,
2,
2,
3,
2,
2,
3,
2,
2,
3,
2,
2,
3,
2,
2,
3,
2,
2,
2,
3,
2,
3,
3,
2,
3,
2,
2,
3,
2,
2,
2,
3,
2,
2,
2,
3,
3,
2,
2,
3,
2,
2,
2,
2,
2,
3,
3,
2,
2,
2,
2,
3,
2,
2,
2,
2,
2,
3,
2,
2,
2,
2,
2,
3,
2,
2,
3,
3,
2,
3,
2,
2,
3,
2,
2,
3,
2,
2,
2,
3,
2,
3,
2,
2,
3,
2,
2,
3,
2,
2,
3,
3,
2,
3,
3,
2,
3,
2,
2,
3,
2,
2,
2,
2,
2,
3,
2,
2,
2,
2,
2,
3,
2,
0,
2,
3,
2,
3,
2,
2,
2,
2,
2,
3,
0,
2,
2,
3,
2,
2,
2,
2,
3,
2,
2,
3,
2,
2,
3,
3,
2,
3,
3,
2,
3,
2,
0,
3,
2,
2,
3,
2,
2,
3,
2,
2,
2,
2,
2,
3,
2,
2,
2,
3,
2,
3,
3,
2,
2,
2,
2,
3,
2,
2,
2,
3,
2,
3,
2,
2,
3,
2,
2,
2,
2,
2,
2,
3,
2,
3,
2,
0,
3,
2,
2,
3,
2,
2,
3,
3,
2,
2,
2,
2,
2,
2,
2,
3,
2,
2,
3,
3,
2,
3,
3,
2,
2,
2,
2,
3,
2,
2,
3,
3,
2,
3,
2,
2,
2,
2,
0,
3,
2,
2,
2,
2,
2,
3,
3,
2,
2,
2,
0,
3,
2,
2,
2,
2,
2,
3,
2,
2,
2,
2,
2,
3,
2,
2,
2,
3,
2,
3,
2,
2,
3,
2,
0,
3,
2,
2,
2,
2,
2,
2,
2,
2,
2,
2,
2,
2,
2,
2,
2,
3,
2,
3,
2,
2,
2,
2,
2,
3,
2,
2,
3,
3,
2,
3,
2,
2,
3,
2,
2,
3,
2,
2,
2,
2,
2,
3,
2,
2,
3,
2,
0,
3,
2,
2,
3,
2,
2,
2,
2,
2,
3,
2,
2,
3,
2,
2,
2,
2,
2,
3,
2,
2,
2,
2,
2,
3,
2,
2,
2,
2,
2,
2,
2,
2,
2,
2,
0,
2,
2,
2,
2,
3,
2,
2,
2,
2,
3,
2,
0,
3,
2,
2,
2,
3,
2,
2,
2,
2,
2,
2,
2,
3,
2,
2,
3,
2,
0,
3,
3,
2,
3,
2,
0,
3,
2,
2,
3,
2,
2,
3,
2,
2,
2,
2,
2,
3,
2,
2,
2,
2,
2,
3,
2,
0,
3,
2,
2,
2,
2,
0,
3,
3,
2,
2,
2,
2,
3,
2,
2,
3,
2,
2,
2,
2,
2,
3,
3,
2,
2,
2,
0,
3,
2,
2,
2,
2,
2,
2,
2,
2,
2,
2,
2,
2,
2,
0,
2,
2,
2,
2,
2,
2,
2,
2,
0,
3,
2,
2,
2,
2,
2,
2,
2,
2,
2,
2,
2,
2,
2,
2,
2,
3,
2,
2,
2,
0,
3,
2,
0,
2,
2,
2,
3,
2,
0,
2,
2,
2,
2,
0,
0,
2,
2,
2,
2,
2,
0,
2,
2,
2,
2,
0,
2,
3,
2,
2,
2,
2,
2,
2,
2,
2,
3,
2,
2,
2,
2,
2,
2,
2,
2,
2,
2,
0,
2,
2,
0,
2,
2,
2,
2,
2,
2,
2,
2,
2,
2,
2,
0,
2,
2,
0,
2,
2,
0,
3,
2,
2,
3,
2,
0,
3,
2,
2,
2,
2,
0,
2,
2,
2,
2,
2,
0,
2,
0,
0,
2,
2,
2,
2,
2,
0,
2,
2,
0,
3,
0,
2,
2,
2,
0,
2,
2,
2,
3,
2,
0,
2,
2,
2,
2,
2,
0,
2,
2,
2,
2,
0,
0,
3,
2,
2,
2,
2,
2,
2,
2,
0,
2,
2,
2,
2,
2,
0,
2,
3,
2,
2,
2,
0,
2,
2,
0,
2,
0,
0,
3,
2,
2,
2,
2,
2,
2,
2,
2,
2,
0,
0,
2,
3,
0,
2,
2,
9,
50,
90,
106,
109,
106,
100,
91,
88,
85,
82,
79,
75,
70,
66,
64,
62,
58,
55,
52,
50,
48,
47,
45,
42,
40,
38,
38,
37,
34,
32,
32,
32,
29,
28,
27,
27,
26,
24,
23,
23,
22,
21,
21,
21,
19,
19,
19,
18,
18,
17,
17,
17,
16,
16,
16,
16,
13,
14,
13,
13,
13,
13,
12,
13,
12,
12,
12,
12,
10,
12,
10,
10,
10,
9,
9,
10,
10,
9,
10,
9,
9,
9,
9,
9,
9,
9,
8,
9,
9,
8,
9,
9,
8,
9,
8,
8,
9,
8,
8,
8,
8,
7,
8,
7,
8,
8,
8,
8,
8,
8,
8,
8,
7,
7,
8,
8,
8,
8,
7,
7,
8,
7,
7,
8,
7,
8,
8,
8,
7,
8,
7,
7,
8,
7,
7,
8,
8,
8,
7,
7,
7,
8,
8,
7,
8,
7,
7,
8,
8,
7,
7,
7,
7,
8,
7,
7,
7,
8,
8,
8,
7,
7,
8,
8,
7,
8,
7,
7,
8,
7,
7,
8,
7,
7,
8,
7,
7,
7,
7,
7,
8,
7,
7,
7,
7,
7,
7,
8,
7,
8,
7,
7,
7,
7,
7,
8,
7,
7,
8,
7,
7,
7,
7,
7,
7,
7,
7,
7,
7,
5,
7,
7,
7,
7,
7,
5,
7,
7,
7,
7,
7,
7,
7,
7,
7,
7,
7,
7,
7,
7,
5,
7,
7,
7,
7,
7,
5,
7,
7,
7,
7,
7,
5,
7,
7,
7,
7,
7,
7,
8,
7,
7,
7,
7,
5,
7,
7,
5,
7,
7,
5,
7,
7,
7,
7,
7,
5,
7,
7,
7,
7,
7,
7,
8,
7,
7,
7,
7,
5,
7,
7,
7,
7,
7,
5,
8,
7,
7,
7,
7,
5,
7,
7,
7,
7,
7,
7,
7,
7,
7,
7,
7,
5,
7,
7,
5,
7,
7,
7,
8,
7,
7,
7,
7,
5,
7,
5,
5,
7,
7,
7,
7,
7,
5,
7,
7,
5,
7,
7,
7,
7,
7,
5,
7,
7,
5,
7,
5,
5,
7,
5,
7,
7,
5,
5,
7,
7,
5,
7,
5,
5,
7,
7,
5,
7,
5,
5,
7,
7,
5,
7,
7,
5,
7,
5,
7,
7,
5,
5,
8,
7,
7,
7,
7,
5,
7,
7,
5,
7,
7,
5,
7,
7,
5,
7,
5,
5,
7,
7,
7,
7,
5,
5,
7,
5,
5,
7,
5,
5,
7,
5,
5,
7,
7,
5,
7,
5,
5,
7,
7,
5,
7,
5,
7,
7,
7,
5,
7,
5,
5,
7,
7,
5,
7,
7,
5,
7,
7,
5,
7,
5,
5,
5,
5,
5,
7,
5,
5,
7,
7,
5,
7,
5,
5,
5,
5,
5,
7,
7,
5,
7,
7,
5,
7,
5,
5,
7,
5,
5,
7,
5,
5,
5,
7,
5,
7,
5,
5,
5,
7,
5,
7,
5,
5,
5,
5,
5,
7,
5,
5,
7,
5,
5,
5,
5,
5,
7,
7,
5,
7,
5,
7,
7,
5,
5,
7,
7,
5,
5,
5,
5,
7,
5,
5,
5,
5,
4,
7,
5,
5,
5,
5,
5,
7,
5,
5,
5,
5,
5,
7,
5,
5,
5,
5,
5,
7,
5,
5,
7,
5,
5,
5,
5,
5,
5,
5,
5,
7,
5,
5,
5,
5,
5,
5,
5,
5,
5,
5,
5,
7,
5,
5,
7,
5,
4,
5,
5,
5,
5,
5,
4,
7,
5,
5,
5,
5,
5,
7,
5,
5,
5,
7,
5,
7,
5,
5,
5,
5,
5,
5,
5,
5,
5,
5,
5,
7,
5,
5,
5,
5,
4,
5,
5,
5,
5,
5,
4,
5,
5,
5,
5,
5,
4,
7,
5,
5,
5,
5,
5,
7,
5,
5,
5,
5,
5,
5,
5,
5,
5,
5,
5,
7,
5,
5,
5,
5,
4,
5,
5,
5,
5,
5,
4,
5,
5,
5,
5,
5,
4,
5,
5,
5,
5,
5,
4,
5,
5,
5,
5,
5,
4,
5,
5,
5,
5,
5,
5,
7,
5,
5,
5,
5,
4,
7,
5,
5,
5,
5,
5,
7,
5,
5,
5,
5,
4,
5,
5,
5,
5,
5,
4,
5,
5,
5,
5,
5,
4,
5,
5,
5,
5,
5,
4,
5,
5,
5,
5,
5,
4,
7,
5,
5,
5,
5,
5,
7,
5,
5,
5,
5,
4,
5,
5,
5,
5,
5,
4,
5,
5,
5,
5,
5,
4,
5,
5,
5,
5,
5,
4,
5,
5,
5,
5,
5,
4,
5,
5,
5,
5,
5,
4,
5,
4,
4,
5,
5,
4,
5,
5,
5,
5,
4,
4,
5,
5,
5,
5,
5,
4,
5,
5,
5,
5,
5,
4,
5,
5,
5,
5,
5,
4,
5,
5,
5,
4,
5,
4,
5,
5,
5,
5,
5,
4,
5,
5,
4,
5,
5,
4,
5,
5,
4,
4,
5,
4,
5,
4,
4,
5,
5,
5,
5,
4,
4,
5,
5,
4,
5,
5,
5,
5,
5,
4,
5,
4,
4,
5,
5,
4,
5,
5,
5,
5,
4,
4,
5,
4,
5,
5,
5,
4,
5,
5,
5,
5,
5,
4,
5,
5,
5,
5,
5,
4,
5,
4,
4,
5,
4,
4,
5,
5,
5,
5,
5,
4,
5,
5,
4,
5,
5,
4,
5,
4,
4,
5,
4,
4,
5,
4,
4,
5,
4,
4,
5,
4,
4,
5,
5,
4,
5,
4,
4,
5,
5,
4,
5,
4,
4,
5,
5,
4,
5,
5,
5,
5,
4,
4,
5,
4,
4,
4,
5,
4,
5,
4,
4,
5,
5,
4,
5,
4,
4,
5,
5,
4,
5,
4,
4,
5,
4,
4,
5,
4,
4,
5,
5,
4,
5,
4,
4,
5,
5,
4,
5,
4,
4,
4,
4,
4,
4,
4,
4,
5,
4,
4,
5,
4,
4,
5,
4,
4,
5,
5,
4,
5,
4,
4,
5,
4,
4,
4,
4,
4,
5,
4,
4,
4,
5,
4,
5,
4,
4,
4,
5,
4,
4,
4,
3,
4,
5,
4,
4,
4,
4,
5,
4,
3,
4,
4,
4,
5,
4,
4,
5,
4,
4,
5,
4,
3,
4,
4,
4,
4,
4,
4,
5,
4,
4,
4,
4,
3,
4,
4,
4,
4,
4,
4,
4,
4,
4,
4,
4,
4,
4,
4,
4,
4,
4,
4,
5,
4,
4,
4,
4,
4,
4,
4,
4,
5,
4,
4,
4,
4,
4,
4,
4,
3,
4,
4,
4,
5,
3,
3,
4,
4,
4,
4,
4,
3,
5,
4,
4,
4,
4,
4,
4,
4,
4,
4,
4,
4,
4,
4,
3,
4,
4,
4,
4,
4,
4,
4,
4,
4,
4,
4,
3,
4,
3,
4,
4,
4,
4,
4,
4,
3,
4,
4,
3,
4,
4,
3,
4,
4,
4,
4,
4,
3,
4,
4,
3,
5,
4,
3,
4,
4,
4,
4,
3,
3,
4,
4,
3,
4,
4,
3,
4,
3,
3,
4,
3,
3,
4,
3,
3,
4,
3,
4,
4,
4,
4,
4,
4,
4,
4,
4,
3,
4,
3,
3,
4,
4,
4,
4,
4,
3,
4,
4,
3,
4,
3,
4,
4,
4,
4,
4,
3,
3,
4,
4,
3,
4,
3,
3,
4,
4,
3,
4,
3,
3,
4,
4,
3,
4,
3,
3,
4,
4,
4,
4,
3,
3,
4,
4,
3,
4,
3,
3,
4,
4,
3,
4,
3,
3,
4,
4,
3,
4,
3,
3,
4,
4,
4,
4,
4,
3,
4,
4,
3,
3,
3,
3,
4,
3,
3,
4,
3,
3,
4,
4,
3,
4,
4,
3,
4,
3,
3,
4,
4,
3,
3,
3,
3,
4,
3,
3,
4,
4,
4,
4,
3,
3,
4,
4,
3,
4,
3,
3,
4,
3,
3,
4,
3,
3,
4,
4,
3,
4,
3,
3,
4,
4,
3,
4,
3,
2,
4,
4,
3,
4,
3,
3,
4,
4,
4,
4,
3,
3,
4,
4,
3,
4,
3,
4,
4,
4,
3,
4,
3,
3,
4,
4,
3,
4,
3,
3,
4,
3,
3,
3,
3,
3,
4,
3,
3,
4,
3,
3,
4,
3,
3,
4,
3,
3,
3,
3,
3,
4,
3,
3,
3,
3,
3,
4,
3,
3,
3,
3,
3,
4,
3,
3,
4,
3,
3,
3,
3,
3,
4,
4,
3,
3,
3,
3,
4,
3,
3,
4,
3,
3,
4,
3,
3,
4,
3,
3,
4,
3,
3,
4,
3,
3,
4,
4,
3,
4,
3,
3,
3,
3,
3,
3,
3,
3,
3,
3,
3,
4,
3,
3,
4,
3,
3,
4,
3,
2,
4,
4,
3,
4,
3,
3,
4,
3,
3,
4,
3,
3,
4,
4,
3,
3,
3,
3,
4,
4,
2,
4,
3,
3,
4,
3,
3,
4,
3,
3,
3,
3,
3,
4,
3,
3,
3,
3,
3,
4,
3,
3,
3,
3,
3,
4,
3,
2,
4,
4,
3,
4,
3,
3,
4,
3,
3,
4,
3,
3,
3,
3,
3,
4,
3,
3,
3,
3,
3,
3,
3,
3,
4,
4,
3,
3,
3,
3,
4,
3,
3,
3,
3,
3,
3,
3,
2,
3,
3,
3,
3,
3,
2,
3,
2,
2,
3,
3,
3,
3,
3,
3,
3,
3,
3,
4,
3,
3,
3,
3,
3,
4,
3,
3,
4,
4,
3,
4,
3,
3,
4,
3,
3,
4,
3,
3,
4,
3,
3,
4,
3,
3,
4,
3,
3,
4,
3,
3,
4,
3,
3,
4,
3,
2,
3,
3,
3,
4,
2,
3,
3,
3,
3,
3,
2,
3,
3,
2,
3,
3,
3,
3,
4,
3,
3,
3,
2,
2,
3,
3,
3,
3,
2,
3,
3,
3,
3,
3,
3,
3,
3,
3,
3,
3,
3,
3,
4,
3,
3,
3,
3,
3,
3,
3,
3,
3,
3,
3,
4,
3,
3,
4,
3,
3,
3,
3,
3,
4,
3,
2,
4,
3,
3,
3,
3,
2,
3,
3,
2,
3,
2,
3,
3,
3,
2,
3,
3,
2,
3,
2,
2,
3,
3,
3,
3,
3,
2,
3,
3,
2,
3,
3,
3,
3,
3,
3,
3,
3,
3,
3,
3,
3,
3,
3,
3,
3,
3,
3,
3,
3,
3,
3,
3,
2,
3,
3,
2,
3,
2,
3,
3,
3,
3,
3,
2,
2,
3,
3,
2,
3,
3,
3,
3,
3,
3,
3,
2,
2,
3,
3,
3,
3,
3,
2,
3,
3,
2,
3,
3,
2,
3,
3,
3,
3,
3,
3,
3,
3,
3,
4,
3,
2,
3,
3,
3,
3,
3,
3,
3,
3,
3,
3,
3,
3,
4,
3,
2,
3,
3,
3,
3,
3,
2,
3,
3,
2,
3,
3,
2,
3,
3,
3,
3,
2,
2,
3,
2,
2,
3,
2,
3,
3,
3,
2,
3,
3,
3,
3,
2,
2,
3,
2,
3,
3,
2,
2,
3,
3,
3,
4,
2,
2,
3,
3,
3,
3,
3,
3,
4,
3,
3,
3,
3,
2,
4,
3,
3,
3,
3,
3,
3,
3,
2,
3,
3,
3,
3,
3,
2,
3,
3,
2,
3,
3,
2,
3,
3,
2,
3,
2,
2,
3,
3,
2,
3,
3,
3,
3,
3,
2,
3,
2,
2,
3,
3,
3,
3,
3,
3,
3,
2,
2,
3,
3,
3,
3,
3,
2,
3,
3,
3,
3,
2,
2,
3,
3,
2,
3,
3,
3,
4,
3,
2,
3,
2,
2,
3,
3,
2,
3,
3,
2,
3,
3,
3,
3,
2,
2,
3,
3,
2,
3,
3,
3,
3,
3,
2,
3,
3,
2,
3,
3,
3,
3,
3,
2,
3,
3,
3,
3,
3,
2,
3,
3,
3,
3,
3,
2,
3,
3,
3,
3,
3,
2,
4,
3,
2,
3,
2,
2,
3,
3,
2,
3,
3,
3,
3,
2,
2,
3,
3,
2,
3,
3,
3,
3,
2,
2,
4,
2,
2,
3,
3,
2,
3,
2,
3,
3,
3,
2,
3,
2,
2,
3,
3,
2,
3,
3,
2,
3,
2,
2,
3,
3,
3,
3,
2,
2,
3,
3,
3,
3,
2,
2,
3,
3,
2,
3,
2,
3,
3,
3,
2,
3,
2,
2,
3,
3,
2,
3,
3,
3,
3,
3,
3,
3,
3,
2,
3,
2,
2,
3,
3,
3,
3,
3,
3,
3,
3,
2,
3,
2,
2,
3,
3,
2,
3,
3,
2,
3,
3,
2,
3,
3,
2,
3,
3,
2,
3,
3,
3,
3,
2,
2,
3,
3,
3,
3,
2,
2,
3,
3,
3,
3,
2,
2,
3,
2,
2,
3,
3,
2,
3,
3,
2,
3,
2,
2,
3,
2,
2,
3,
3,
2,
3,
3,
3,
3,
2,
2,
3,
3,
2,
3,
3,
2,
3,
3,
2,
3,
2,
2,
3,
2,
2,
3,
3,
3,
3,
2,
2,
3,
3,
2,
3,
2,
2,
3,
3,
2,
3,
2,
3,
3,
3,
2,
3,
2,
3,
3,
2,
2,
3,
3,
3,
3,
2,
2,
3,
3,
2,
3,
3,
2,
3,
3,
2,
2,
2,
2,
4,
2,
2,
2,
3,
3,
3,
3,
3,
3,
2,
2,
3,
2,
2,
3,
3,
3,
3,
2,
2,
3,
2,
2,
3,
2,
2,
3,
3,
2,
2,
2,
2,
3,
2,
2,
2,
2,
2,
3,
3,
2,
3,
3,
2,
3,
2,
2,
3,
3,
2,
3,
2,
2,
3,
3,
2,
3,
2,
2,
3,
2,
2,
2,
3,
2,
3,
3,
2,
3,
2,
2,
3,
2,
2,
3,
3,
2,
3,
2,
2,
3,
2,
2,
3,
2,
2,
2,
3,
2,
3,
3,
2,
3,
2,
2,
3,
2,
2,
3,
2,
2,
3,
3,
2,
3,
2,
2,
3,
2,
2,
2,
3,
2,
3,
2,
2,
2,
2,
2,
3,
2,
2,
2,
3,
2,
3,
2,
3,
3,
2,
2,
3,
2,
2,
3,
3,
2,
2,
2,
2,
3,
2,
2,
3,
3,
2,
3,
2,
2,
3,
3,
2,
2,
2,
2,
3,
2,
2,
2,
3,
2,
3,
3,
2,
3,
2,
2,
3,
2,
2,
2,
3,
2,
3,
2,
2,
2,
2,
2,
3,
2,
2,
2,
3,
2,
3,
3,
2,
2,
2,
2,
3,
2,
2,
3,
3,
2,
3,
2,
2,
3,
2,
2,
3,
2,
2,
2,
3,
2,
3,
3,
2,
3,
2,
2,
3,
2,
2,
3,
3,
2,
2,
2,
2,
3,
2,
2,
3,
2,
2,
2,
3,
2,
3,
3,
2,
3,
2,
2,
3,
2,
2,
2,
3,
2,
3,
2,
2,
3,
2,
2,
3,
2,
2,
2,
3,
2,
2,
2,
2,
3,
2,
2,
3,
2,
2,
3,
2,
2,
3,
3,
3,
3,
2,
2,
3,
2,
2,
2,
2,
2,
3,
2,
2,
2,
2,
2,
3,
2,
2,
3,
3,
2,
3,
2,
2,
3,
2,
2,
3,
2,
2,
2,
3,
2,
2,
2,
2,
3,
2,
2,
3,
2,
2,
3,
2,
2,
3,
2,
2,
3,
2,
2,
2,
2,
2,
3,
3,
2,
3,
3,
2,
3,
2,
0,
3,
2,
2,
2,
2,
2,
3,
2,
2,
2,
2,
2,
3,
2,
2,
2,
3,
2,
3,
2,
2,
3,
2,
2,
3,
2,
2,
2,
3,
2,
2,
2,
2,
2,
2,
0,
3,
2,
2,
2,
2,
2,
2,
2,
2,
2,
2,
0,
3,
2,
2,
3,
3,
2,
2,
2,
2,
2,
2,
2,
3,
2,
2,
2,
2,
2,
2,
2,
2,
2,
2,
0,
3,
2,
2,
2,
2,
0,
2,
2,
2,
2,
2,
0,
3,
2,
2,
2,
2,
2,
3,
3,
2,
2,
2,
2,
3,
2,
2,
2,
2,
2,
3,
2,
2,
2,
2,
2,
3,
2,
0,
2,
2,
2,
2,
2,
2,
2,
2,
0,
2,
0,
0,
2,
2,
2,
2,
2,
2,
2,
2,
0,
2,
0,
0,
2,
3,
2,
2,
2,
2,
2,
2,
0,
2,
0,
2,
2,
2,
0,
2,
2,
2,
2,
0,
0,
2,
2,
2,
2,
2,
2,
3,
2,
2,
2,
2,
0,
3,
2,
2,
2,
2,
2,
3,
2,
0,
2,
2,
2,
2,
2,
0,
2,
3,
2,
2,
2,
0,
3,
2,
0,
2,
2,
2,
2,
2,
2,
2,
2,
2,
2,
2,
0,
2,
2,
2,
2,
2,
2,
2,
2,
2,
2,
0,
0,
3,
2,
2,
2,
2,
2,
3,
2,
0,
2,
2,
2,
3,
0,
0,
2,
2,
2,
2,
2,
2,
2,
2,
0,
3,
0,
2,
2,
3,
2,
2,
2,
2,
2,
2,
0,
2,
0,
2,
2,
2,
0,
2,
2,
0,
2,
0,
0,
3,
0,
2,
2,
2,
2,
3,
2,
2,
2,
2,
2,
2,
2,
0,
2,
2,
0,
2,
2,
0,
2,
2,
0,
2,
0,
0,
2,
2,
0,
2,
2,
2,
2,
2,
0,
2,
2,
2,
2,
2,
2,
2,
2,
0,
2,
2,
0,
2,
2,
2,
2,
2,
0,
2,
2,
2,
2,
2,
0,
3,
2,
2,
2,
2,
0,
2,
2,
0,
2,
2,
0,
3,
0,
0,
2,
2,
2,
2,
2,
0,
2,
2,
2,
2,
2,
2,
2,
2,
0,
2,
2,
2,
2,
0,
0,
2,
2,
2,
2,
2,
2,
3,
2,
0,
2,
2,
0,
2,
0,
0,
2,
2,
0,
2,
2,
0,
2,
0,
0,
2,
0,
2,
2,
2,
0,
2,
2,
2,
3,
2,
0,
2,
0,
0,
2,
2,
2,
2,
2,
0,
2,
2,
0,
2,
2,
2,
2,
2,
2,
2,
2,
0,
3,
2,
2,
2,
2,
2,
2,
2,
0,
2,
2,
0,
2,
2,
0,
3,
2,
0,
2,
2,
0,
2,
2,
0,
2,
2,
2,
2,
2,
2,
2,
2,
0,
2,
2,
0,
2,
0,
0,
3,
2,
0,
2,
2,
2,
2,
2,
0,
2,
2,
2,
2,
0,
0,
2,
2,
0,
2,
2,
2,
2,
2,
0,
2,
0,
2,
2,
2,
0,
2,
2,
2,
3,
2,
0,
2,
2,
2,
2,
2,
2,
2,
2,
2,
2,
2,
0,
2,
2,
2,
2,
2,
0,
2,
2,
2,
2,
0,
0,
2,
2,
0,
2,
2,
2,
2,
2,
0,
3,
2,
0,
2,
2,
0,
2,
2,
2,
2,
0,
2,
2,
2,
2,
2,
0,
0,
2,
2,
0,
2,
0,
2,
3,
0,
0,
2,
2,
2,
2,
2,
0,
2,
2,
2,
2,
2,
2,
2,
2,
2,
2,
2,
0,
3,
2,
0,
2,
2,
0,
2,
0,
2,
2,
2,
0,
2,
2,
0,
2,
2,
0,
2,
2,
2,
2,
2,
2,
2,
2,
0,
2,
2,
0,
2,
2,
2,
2,
2,
0,
2,
0,
2,
2,
2,
0,
2,
0,
2,
2,
2,
0,
2,
2,
0,
2,
2,
0,
2,
0,
0,
2,
2,
0,
2,
0,
0,
2,
2,
0,
2,
2,
0,
2,
2,
0,
2,
2,
2,
2,
0,
0,
2,
0,
2,
2,
2,
0,
2,
0,
0,
2,
0,
0,
2,
0,
0,
2,
2,
0,
2,
2,
0,
2,
0,
0,
2,
0,
0,
2,
2,
0,
2,
2,
2,
2,
2,
0,
2,
2,
0,
2,
2,
0,
2,
0,
0,
2,
0,
0,
2,
2,
0,
2,
2,
0,
2,
0,
2,
2,
2,
0,
2,
2,
2,
2,
2,
0,
2,
2,
0,
2,
0,
0,
2,
0,
0,
2,
2,
0,
2,
2,
0,
2,
2,
0,
2,
0,
0,
2,
2,
2,
2,
2,
0,
3,
2,
0,
2,
2,
2,
2,
2,
0,
2,
2,
0,
2,
0,
0,
2,
2,
2,
2,
2,
0,
2,
2,
0,
2,
0,
0,
3,
0,
2,
2,
2,
0,
2,
2,
0,
2,
2,
2,
2,
0,
0,
2,
2,
2,
2,
2,
0,
3,
2,
0,
2,
2,
2,
2,
2,
2,
2,
2,
2,
2,
0,
0,
2,
2,
2,
2,
2,
0,
2,
2,
2,
2,
0,
0,
3,
0,
0,
2,
2,
0,
3,
0,
0,
2,
2,
2,
2,
0,
0,
2,
2,
2,
2,
2,
0,
2,
2,
0,
2,
0,
0,
2,
2,
0,
2,
2,
2,
2,
0,
0,
2,
2,
2,
2,
2,
0,
2,
2,
0,
2,
0,
0,
2,
0,
0,
2,
2,
0,
2,
0,
0,
2,
2,
2,
2,
0,
0,
0,
2,
2,
2,
2,
0,
3,
2,
0,
2,
0,
2,
2,
2,
2,
2,
2,
2,
2,
2,
0,
2,
2,
2,
2,
2,
0,
2,
2,
0,
2,
0,
0,
2,
2,
2,
2,
2,
0,
2,
2,
0,
2,
2,
0,
3,
2,
0,
2,
2,
2,
2,
2,
0,
2,
2,
0,
2,
2,
2,
2,
2,
2,
2,
2,
2,
2,
2,
0,
2,
0,
0,
2,
2,
0,
2,
2,
0,
2,
2,
0,
2,
0,
0,
2,
2,
0,
2,
0,
0,
2,
2,
0,
2,
0,
0,
2,
2,
0,
2,
2,
0,
2,
0,
0,
2,
2,
2,
2,
2,
0,
2,
2,
0,
2,
2,
0,
2,
2,
0,
2,
2,
0,
2,
2,
0,
2,
0,
0,
2,
2,
0,
2,
2,
0,
2,
2,
2,
2,
0,
0,
2,
2,
0,
2,
2,
0,
2,
0,
0,
2,
0,
0,
2,
0,
0,
2,
2,
0,
2,
0,
0,
2,
2,
0,
2,
2,
0,
2,
2,
2,
2,
2,
0,
2,
2,
0,
2,
0,
2,
2,
2,
0,
2,
0,
2,
2,
2,
0,
2,
2,
0,
2,
2,
0,
2,
0,
2,
2,
0,
0,
2,
2,
0,
2,
0,
2,
2,
2,
0,
2,
2,
0,
2,
2,
0,
2,
2,
0,
2,
2,
0,
2,
2,
0,
2,
0,
0,
2,
2,
0,
2,
0,
0,
2,
2,
2,
2,
0,
0,
2,
2,
2,
2,
2,
0,
2,
2,
0,
2,
0,
2,
2,
2,
0,
2,
2,
2,
2,
0,
0,
2,
0,
0,
0,
2,
2,
2,
2,
0,
2,
2,
0,
2,
0,
0,
2,
2,
0,
2,
0,
0,
2,
0,
0,
2,
0,
0,
2,
2,
2,
2,
2,
0,
2,
0,
0,
2,
0,
0,
2,
2,
0,
2,
0,
0,
2,
2,
0,
2,
2,
0,
2,
2,
0,
2,
0,
0,
2,
0,
0,
2,
0,
0,
0,
0,
0,
2,
2,
0,
2,
0,
0,
2,
0,
0,
2,
2,
2,
2,
0,
0,
2,
0,
0,
2,
0,
0,
2,
2,
0,
2,
0,
2,
2,
2,
0,
2,
0,
0,
2,
2,
0,
2,
2,
0,
2,
2,
0,
2,
0,
0,
2,
2,
0,
2,
0,
2,
2,
0,
0,
2,
2,
2,
2,
2,
0,
2,
2,
0,
2,
0,
0,
2,
2,
0,
0,
0,
0,
2,
0,
0,
2,
0,
0,
2,
0,
0,
0,
2,
2,
2,
2,
0,
2,
2,
0,
2,
0,
0,
2,
2,
0,
2,
0,
2,
2,
0,
0,
2,
0,
0,
2,
2,
0,
2,
0,
0,
2,
0,
0,
2,
2,
0,
2,
2,
0,
2,
0,
0,
2,
0,
0,
2,
0,
0,
2,
2,
2,
2,
2,
0,
2,
2,
0,
2,
0,
0,
2,
2,
0,
2,
0,
2,
2,
2,
0,
0,
0,
0,
2,
2,
0,
2,
0,
0,
2,
0,
0,
2,
0,
0,
2,
2,
0,
2,
0,
0,
2,
2,
0,
2,
0,
0,
0,
2,
0,
2,
0,
0,
2,
2,
0,
2,
0,
0,
2,
2,
0,
0,
0,
0,
2,
0,
0,
2,
0,
0,
2,
2,
0,
2,
0,
0,
2,
0,
0,
2,
0,
0,
2,
2,
0,
2,
0,
0,
2,
0,
0,
2,
0,
0,
0,
2,
0,
2,
0,
0,
2,
0,
0,
2,
0,
0,
2,
0,
0,
2,
2,
0,
0,
0,
0,
2,
2,
0,
2,
2,
0,
2,
0,
0,
2,
0,
0,
2,
0,
0,
2,
2,
0,
2,
0,
0,
2,
0,
0,
2,
0,
0,
2,
2,
0,
2,
0,
2,
2,
0,
0,
2,
0,
0,
2,
0,
0,
2,
0,
0,
2,
0,
0,
2,
2,
0,
0,
2,
0,
2,
0,
0,
2,
0,
0,
2,
0,
0,
2,
2,
0,
2,
0,
0,
2,
2,
0,
2,
0,
0,
2,
2,
0,
2,
0,
2,
2,
0,
0,
2,
0,
0,
2,
2,
0,
2,
0,
0,
2,
0,
0,
2,
0,
0,
2,
2,
0,
2,
0,
0,
2,
0,
0,
2,
0,
0,
2,
2,
0,
2,
0,
0,
2,
0,
0,
2,
0,
0,
0,
2,
0,
2,
0,
0,
2,
0,
0,
2,
0,
0,
2,
2,
0,
2,
0,
0,
2,
0,
0,
2,
2,
0,
2,
2,
0,
2,
0,
0,
2,
0,
0,
2,
0,
0,
2,
2,
0,
2,
0,
0,
2,
0,
0,
2,
0,
0,
0,
2,
0,
2,
0,
0,
2,
0,
0,
2,
0,
0,
2,
2,
0,
2,
0,
0,
2,
2,
0,
2,
0,
0,
0,
2,
0,
2,
0,
0,
2,
0,
-1,
2,
0,
0,
2,
2,
-1,
0,
0,
0,
2,
2,
0,
2,
0,
0,
0,
2,
0,
2,
0,
0,
2,
0,
0,
2,
0,
0,
2,
2,
0,
0,
0,
0,
2,
0,
0,
2,
0,
0,
0,
2,
0,
2,
0,
0,
2,
0,
0,
2,
2,
0,
2,
0,
0,
2,
0,
0,
2,
0,
0,
2,
2,
0,
0,
2,
0,
2,
0,
0,
2,
2,
0,
2,
0,
0,
2,
2,
0,
2,
0,
0,
4,
29,
81,
110,
118,
117,
113,
103,
95,
93,
90,
86,
81,
76,
72,
70,
67,
64,
61,
57,
53,
52,
51,
48,
46,
42,
41,
41,
38,
37,
34,
33,
32,
32,
29,
28,
27,
26,
26,
26,
23,
22,
22,
21,
19,
21,
18,
18,
18,
18,
17,
17,
16,
16,
16,
16,
14,
14,
13,
13,
14,
13,
12,
13,
12,
12,
12,
12,
10,
10,
10,
10,
10,
9,
9,
10,
10,
9,
10,
8,
9,
10,
9,
9,
9,
8,
8,
9,
8,
8,
8,
9,
8,
9,
8,
8,
8,
8,
8,
8,
8,
8,
8,
8,
8,
9,
8,
8,
8,
8,
7,
8,
8,
7,
8,
7,
7,
8,
7,
7,
8,
7,
7,
8,
7,
7,
8,
7,
7,
7,
7,
7,
8,
7,
7,
7,
7,
7,
7,
7,
7,
8,
7,
7,
8,
8,
7,
8,
8,
8,
8,
8,
7,
8,
8,
7,
8,
8,
7,
8,
8,
7,
8,
8,
7,
8,
8,
8,
8,
8,
7,
8,
8,
7,
8,
7,
7,
8,
8,
8,
8,
7,
7,
8,
8,
8,
7,
7,
7,
8,
7,
7,
7,
8,
7,
7,
7,
7,
8,
7,
7,
7,
7,
7,
7,
7,
5,
7,
7,
7,
7,
7,
5,
7,
7,
5,
7,
5,
5,
7,
7,
7,
7,
7,
7,
7,
7,
7,
7,
7,
5,
7,
7,
7,
7,
7,
7,
8,
7,
7,
8,
7,
7,
7,
7,
7,
7,
7,
7,
7,
7,
7,
7,
7,
7,
7,
7,
7,
7,
7,
7,
7,
7,
7,
8,
7,
7,
7,
7,
7,
7,
7,
7,
8,
7,
7,
7,
7,
7,
8,
7,
7,
7,
7,
7,
8,
5,
5,
7,
7,
5,
7,
5,
7,
7,
7,
7,
7,
7,
7,
7,
7,
5,
7,
7,
7,
7,
7,
5,
7,
7,
7,
7,
7,
5,
7,
7,
7,
7,
7,
5,
8,
7,
7,
7,
7,
5,
7,
7,
7,
7,
7,
7,
8,
5,
5,
7,
7,
5,
7,
7,
7,
7,
7,
5,
7,
7,
7,
7,
7,
5,
7,
5,
7,
7,
5,
5,
7,
7,
7,
7,
7,
5,
7,
7,
7,
7,
7,
7,
8,
5,
5,
5,
7,
5,
7,
7,
5,
7,
7,
7,
7,
7,
7,
7,
7,
5,
7,
5,
5,
7,
5,
5,
7,
5,
5,
7,
5,
5,
7,
5,
7,
7,
7,
5,
7,
5,
5,
7,
7,
5,
5,
5,
5,
7,
7,
5,
7,
5,
5,
7,
5,
5,
7,
5,
7,
7,
7,
5,
7,
5,
5,
7,
5,
5,
7,
5,
5,
7,
5,
5,
7,
5,
5,
7,
5,
5,
7,
7,
5,
7,
5,
5,
7,
5,
5,
5,
5,
5,
7,
5,
5,
5,
7,
5,
7,
5,
5,
7,
7,
5,
7,
5,
5,
5,
7,
5,
7,
5,
5,
7,
5,
5,
7,
7,
5,
5,
7,
5,
7,
5,
5,
7,
5,
5,
5,
5,
5,
7,
5,
5,
7,
5,
5,
5,
5,
5,
5,
5,
5,
7,
5,
5,
7,
5,
5,
5,
5,
5,
7,
7,
5,
7,
5,
5,
7,
5,
5,
5,
7,
5,
7,
7,
5,
5,
5,
5,
7,
5,
5,
5,
5,
5,
7,
5,
5,
5,
5,
5,
7,
5,
5,
5,
5,
5,
5,
5,
5,
5,
5,
5,
7,
5,
5,
7,
7,
5,
7,
5,
5,
7,
5,
5,
7,
5,
5,
5,
5,
4,
5,
5,
5,
5,
5,
4,
5,
5,
5,
5,
5,
4,
5,
5,
5,
5,
5,
5,
7,
5,
5,
5,
5,
5,
7,
5,
5,
5,
5,
5,
5,
5,
4,
5,
5,
4,
5,
5,
5,
5,
5,
4,
5,
5,
5,
5,
5,
4,
5,
5,
5,
5,
5,
5,
7,
5,
5,
5,
5,
5,
5,
5,
5,
5,
5,
5,
7,
5,
5,
5,
5,
4,
5,
5,
5,
5,
5,
5,
5,
5,
5,
5,
5,
4,
5,
5,
5,
5,
5,
4,
5,
5,
5,
5,
5,
4,
5,
5,
5,
5,
5,
4,
5,
5,
4,
5,
5,
4,
5,
5,
5,
5,
5,
4,
5,
5,
4,
5,
5,
4,
5,
5,
5,
5,
5,
4,
5,
5,
5,
5,
5,
4,
5,
5,
5,
5,
5,
4,
5,
5,
5,
5,
5,
4,
5,
5,
5,
5,
4,
4,
5,
5,
5,
5,
5,
4,
5,
5,
5,
5,
4,
4,
5,
5,
4,
5,
5,
4,
5,
4,
4,
5,
5,
4,
5,
4,
4,
5,
5,
4,
5,
4,
4,
5,
5,
4,
4,
4,
4,
5,
5,
4,
5,
5,
5,
5,
5,
4,
5,
5,
5,
5,
5,
4,
5,
5,
5,
5,
4,
4,
5,
5,
4,
4,
5,
4,
5,
5,
4,
5,
5,
4,
5,
4,
4,
4,
5,
4,
5,
4,
4,
5,
5,
4,
5,
4,
4,
5,
5,
4,
4,
4,
4,
5,
4,
4,
5,
5,
5,
5,
5,
4,
5,
4,
4,
5,
4,
4,
5,
4,
4,
4,
5,
4,
5,
4,
4,
5,
4,
4,
5,
4,
4,
5,
5,
4,
5,
4,
5,
5,
4,
4,
5,
5,
5,
4,
4,
3,
5,
4,
4,
4,
4,
4,
5,
4,
4,
4,
4,
4,
5,
4,
4,
5,
4,
4,
4,
4,
4,
4,
4,
3,
4,
4,
4,
5,
4,
4,
5,
4,
4,
5,
4,
4,
5,
4,
4,
5,
4,
4,
5,
4,
4,
4,
4,
4,
4,
4,
3,
5,
4,
4,
4,
4,
4,
4,
4,
3,
5,
4,
4,
4,
4,
4,
5,
4,
4,
4,
4,
4,
4,
4,
3,
4,
5,
4,
4,
4,
4,
4,
4,
3,
4,
4,
3,
4,
3,
3,
4,
4,
4,
4,
4,
3,
4,
4,
3,
4,
4,
4,
5,
4,
3,
4,
4,
4,
4,
4,
3,
4,
4,
4,
4,
4,
4,
4,
4,
3,
4,
4,
3,
4,
4,
3,
4,
4,
4,
4,
4,
3,
5,
4,
4,
4,
4,
4,
4,
4,
4,
4,
4,
4,
4,
4,
3,
4,
3,
3,
4,
4,
4,
4,
3,
3,
4,
4,
4,
4,
3,
3,
4,
4,
4,
4,
4,
4,
4,
4,
4,
4,
4,
4,
4,
4,
3,
4,
4,
4,
4,
4,
3,
4,
3,
4,
4,
4,
4,
4,
4,
3,
4,
4,
4,
4,
3,
3,
4,
4,
4,
4,
3,
3,
4,
4,
4,
4,
3,
4,
4,
4,
4,
4,
4,
3,
4,
4,
3,
4,
4,
4,
5,
4,
4,
4,
3,
3,
4,
4,
3,
4,
4,
4,
4,
4,
3,
4,
4,
4,
4,
4,
3,
4,
4,
3,
4,
4,
4,
4,
4,
3,
4,
4,
4,
4,
3,
3,
4,
4,
4,
4,
3,
3,
4,
4,
3,
4,
3,
4,
4,
4,
3,
4,
3,
3,
4,
4,
3,
4,
3,
3,
4,
3,
3,
4,
4,
3,
4,
4,
3,
4,
4,
3,
4,
3,
3,
4,
3,
3,
4,
4,
3,
4,
3,
3,
4,
4,
4,
4,
3,
3,
3,
3,
3,
4,
3,
3,
4,
4,
3,
4,
3,
3,
4,
4,
3,
4,
3,
3,
4,
4,
3,
4,
4,
3,
4,
3,
3,
4,
3,
3,
4,
3,
3,
4,
3,
3,
4,
4,
3,
4,
3,
3,
4,
4,
4,
4,
3,
3,
4,
4,
3,
4,
3,
3,
4,
4,
3,
4,
3,
3,
4,
4,
3,
3,
3,
3,
4,
3,
3,
4,
3,
3,
4,
4,
3,
4,
3,
3,
4,
3,
3,
4,
3,
3,
4,
4,
3,
4,
3,
3,
3,
3,
3,
4,
4,
3,
3,
3,
3,
4,
3,
3,
4,
4,
3,
4,
2,
2,
4,
4,
3,
4,
2,
3,
4,
3,
3,
4,
3,
3,
4,
4,
3,
4,
3,
3,
4,
3,
3,
4,
3,
3,
4,
4,
3,
4,
3,
3,
3,
3,
3,
4,
3,
3,
3,
3,
3,
4,
3,
3,
4,
3,
3,
4,
3,
3,
3,
3,
3,
4,
3,
3,
4,
3,
3,
4,
3,
3,
4,
4,
3,
4,
3,
3,
4,
4,
3,
4,
3,
2,
4,
3,
3,
4,
3,
3,
4,
3,
3,
4,
3,
3,
4,
4,
3,
4,
3,
3,
4,
3,
3,
4,
3,
3,
4,
4,
3,
4,
3,
3,
4,
3,
3,
4,
3,
3,
3,
3,
3,
4,
3,
3,
4,
3,
3,
4,
3,
3,
3,
3,
3,
4,
3,
3,
4,
3,
3,
4,
3,
3,
4,
4,
3,
4,
3,
3,
4,
3,
3,
3,
3,
3,
4,
3,
3,
4,
3,
3,
3,
3,
3,
4,
3,
3,
3,
3,
3,
4,
3,
3,
4,
3,
3,
4,
3,
2,
3,
3,
3,
4,
3,
3,
3,
3,
3,
4,
3,
3,
3,
3,
3,
4,
3,
3,
4,
3,
3,
4,
3,
2,
4,
4,
3,
3,
3,
3,
4,
4,
17,
47,
71,
79,
80,
77,
74,
69,
66,
65,
62,
58,
56,
53,
52,
50,
47,
45,
42,
41,
38,
37,
36,
34,
33,
32,
29,
28,
28,
27,
26,
24,
24,
23,
23,
22,
21,
21,
19,
18,
19,
18,
16,
17,
16,
16,
16,
14,
14,
14,
13,
13,
13,
13,
12,
13,
12,
12,
12,
12,
10,
12,
10,
10,
10,
10,
9,
10,
10,
9,
10,
9,
9,
10,
9,
8,
