src/long_1599/temp01005.CSV

Format,1.0B,
Memory Length,10000,
IntpDistance,0,
Trigger Address,4849,
Trigger Level,8.000E-01,
Source,CH1,
Vertical Units,V,
Vertical Units Div,0,
Vertical Units Extend Div,16,
Label,,
Probe Type,0,
Probe Ratio,1.000e+01,
Vertical Scale,2.000e-01,
Vertical Position,-6.800e-01,
Horizontal Units,S,
Horizontal Scale,2.000E-06,
Horizontal Position,3.000E-07,
Horizontal Mode,Main,
SincET Mode,Real Time,
Sampling Period,2.000e-09,
Horizontal Old Scale,2.000E-06,
Horizontal Old Position,3.000E-07,
Firmware,V1.23,
Mode,Fast,
Waveform Data,
0,
0,
0,
0,
0,
2,
0,
0,
2,
0,
0,
2,
0,
0,
2,
2,
0,
0,
0,
0,
2,
0,
-1,
0,
0,
0,
2,
2,
0,
2,
0,
0,
2,
0,
0,
2,
0,
0,
0,
0,
0,
2,
0,
0,
2,
2,
0,
2,
0,
-1,
0,
2,
0,
2,
0,
0,
2,
0,
-1,
0,
0,
0,
0,
2,
0,
0,
-1,
0,
2,
2,
-1,
0,
0,
0,
2,
2,
0,
2,
0,
0,
2,
0,
-1,
2,
0,
0,
0,
0,
-1,
2,
0,
0,
2,
0,
0,
2,
0,
-1,
0,
0,
0,
2,
0,
0,
2,
0,
0,
2,
0,
0,
2,
2,
0,
0,
-1,
0,
2,
0,
-1,
0,
0,
0,
2,
0,
-1,
2,
0,
0,
2,
0,
-1,
0,
0,
0,
0,
0,
0,
2,
0,
0,
0,
0,
0,
2,
0,
0,
0,
0,
0,
2,
0,
0,
2,
0,
-1,
0,
0,
0,
2,
2,
0,
0,
0,
0,
0,
0,
0,
2,
0,
-1,
0,
2,
0,
0,
0,
0,
2,
0,
-1,
0,
0,
0,
2,
2,
0,
2,
0,
0,
2,
0,
-1,
2,
0,
0,
2,
2,
0,
2,
0,
0,
2,
0,
-1,
2,
0,
0,
0,
2,
0,
2,
0,
0,
2,
0,
-1,
0,
0,
0,
0,
0,
0,
2,
0,
0,
2,
0,
-1,
2,
0,
0,
0,
2,
-1,
0,
-1,
0,
2,
0,
-1,
0,
0,
0,
2,
0,
-1,
2,
0,
0,
2,
0,
-1,
2,
0,
0,
2,
2,
0,
2,
0,
0,
2,
2,
0,
2,
0,
0,
2,
2,
0,
2,
0,
0,
2,
0,
-1,
0,
0,
0,
2,
2,
0,
0,
0,
0,
2,
0,
-1,
0,
0,
0,
0,
0,
0,
2,
0,
0,
0,
-1,
-1,
0,
0,
0,
0,
0,
0,
0,
0,
-1,
0,
0,
0,
2,
0,
-1,
0,
2,
0,
2,
0,
0,
2,
0,
-1,
0,
0,
0,
2,
2,
0,
0,
0,
0,
2,
0,
-1,
2,
2,
0,
2,
2,
0,
2,
2,
0,
2,
0,
-1,
2,
0,
0,
0,
0,
0,
2,
0,
0,
2,
0,
-1,
0,
0,
-1,
-1,
0,
-1,
0,
0,
-1,
0,
0,
0,
0,
-1,
-1,
0,
2,
0,
0,
-1,
0,
2,
0,
-1,
0,
0,
0,
2,
2,
0,
2,
0,
0,
2,
0,
-1,
0,
0,
0,
0,
2,
0,
2,
0,
0,
2,
0,
0,
0,
0,
0,
0,
2,
0,
2,
0,
0,
2,
0,
-1,
0,
0,
0,
0,
0,
0,
0,
-1,
-1,
0,
0,
-1,
0,
0,
0,
0,
2,
-1,
0,
0,
0,
2,
0,
0,
2,
0,
0,
2,
0,
0,
2,
0,
0,
2,
0,
0,
2,
0,
0,
0,
2,
0,
2,
0,
0,
2,
2,
0,
0,
0,
0,
2,
2,
0,
0,
0,
0,
2,
0,
-1,
0,
0,
0,
0,
0,
-1,
2,
0,
0,
2,
0,
-1,
0,
0,
0,
0,
0,
0,
2,
0,
0,
2,
0,
-1,
0,
0,
0,
0,
0,
-1,
0,
0,
-1,
0,
0,
0,
2,
0,
-1,
0,
0,
0,
0,
0,
0,
2,
0,
0,
0,
0,
0,
0,
2,
-1,
0,
0,
0,
2,
0,
-1,
0,
0,
0,
0,
0,
-1,
2,
0,
0,
0,
0,
-1,
2,
0,
0,
0,
0,
-1,
2,
0,
-1,
0,
0,
-1,
0,
-1,
-1,
0,
2,
0,
0,
0,
0,
2,
0,
-1,
0,
0,
0,
0,
0,
-1,
2,
0,
0,
2,
0,
-1,
2,
0,
0,
0,
2,
0,
0,
0,
0,
2,
0,
0,
0,
0,
-1,
0,
2,
-1,
0,
0,
0,
2,
0,
-1,
0,
0,
0,
0,
0,
-1,
0,
-1,
0,
2,
0,
-1,
0,
0,
0,
0,
0,
-1,
2,
0,
-1,
0,
-1,
-1,
2,
0,
-1,
0,
0,
0,
0,
0,
0,
0,
0,
-1,
0,
0,
0,
0,
0,
0,
2,
0,
-1,
0,
0,
0,
2,
0,
0,
0,
2,
0,
0,
-1,
0,
2,
0,
-1,
0,
0,
0,
0,
0,
-1,
2,
0,
0,
0,
0,
-1,
2,
0,
0,
0,
0,
0,
0,
0,
-1,
0,
0,
0,
0,
0,
-1,
0,
0,
0,
2,
0,
0,
2,
0,
-1,
2,
0,
0,
0,
0,
0,
2,
0,
0,
2,
0,
0,
2,
0,
-1,
0,
0,
0,
0,
0,
0,
2,
0,
-1,
0,
0,
0,
0,
0,
-1,
0,
0,
0,
2,
0,
-1,
0,
0,
0,
0,
0,
-1,
0,
0,
0,
2,
0,
-1,
0,
-1,
-1,
0,
2,
0,
0,
0,
0,
2,
0,
-1,
0,
0,
0,
2,
0,
-1,
0,
0,
-1,
0,
-1,
-1,
0,
0,
-1,
0,
0,
0,
0,
-1,
-1,
0,
0,
0,
0,
0,
0,
0,
2,
0,
2,
0,
0,
2,
0,
-1,
0,
0,
0,
0,
0,
0,
0,
-1,
0,
2,
0,
-1,
0,
0,
0,
0,
0,
0,
0,
0,
-1,
0,
0,
-1,
0,
-1,
0,
2,
2,
-1,
0,
0,
0,
2,
0,
-1,
0,
0,
0,
0,
0,
-1,
2,
0,
0,
0,
-1,
-1,
2,
0,
-1,
0,
0,
0,
2,
0,
-1,
0,
0,
0,
2,
0,
-1,
0,
0,
0,
2,
-1,
-1,
2,
0,
0,
0,
-1,
-1,
0,
2,
0,
0,
-1,
0,
2,
0,
0,
0,
0,
0,
2,
2,
-1,
0,
0,
0,
0,
0,
-1,
0,
0,
0,
0,
0,
0,
0,
0,
0,
0,
0,
-1,
0,
0,
-1,
0,
0,
0,
2,
0,
-1,
0,
0,
0,
2,
0,
-1,
0,
2,
0,
0,
0,
0,
2,
0,
0,
0,
0,
0,
2,
0,
-1,
0,
0,
0,
2,
-1,
-1,
0,
0,
0,
0,
0,
0,
0,
-1,
-1,
0,
0,
-1,
0,
0,
-1,
0,
0,
-1,
0,
0,
0,
2,
0,
0,
2,
0,
-1,
0,
2,
0,
0,
-1,
-1,
0,
0,
0,
0,
0,
0,
0,
0,
0,
0,
0,
-1,
2,
0,
-1,
2,
0,
0,
0,
0,
-1,
0,
0,
0,
2,
0,
-1,
2,
0,
-1,
0,
0,
0,
2,
0,
0,
0,
0,
0,
0,
0,
-1,
0,
0,
0,
0,
-1,
0,
2,
0,
0,
2,
0,
-1,
0,
0,
0,
0,
0,
0,
2,
-1,
-1,
2,
0,
0,
0,
0,
0,
0,
0,
0,
0,
0,
-1,
0,
0,
-1,
0,
0,
-1,
0,
0,
-1,
2,
0,
-1,
2,
0,
0,
2,
2,
0,
0,
-1,
0,
2,
0,
0,
2,
0,
-1,
0,
2,
0,
0,
0,
0,
2,
0,
-1,
0,
0,
0,
0,
0,
0,
0,
0,
0,
2,
0,
-1,
2,
0,
-1,
0,
2,
0,
2,
0,
0,
2,
0,
-1,
2,
0,
0,
0,
2,
0,
0,
-1,
0,
2,
0,
-1,
0,
0,
0,
0,
0,
0,
2,
0,
0,
2,
0,
0,
2,
0,
0,
0,
0,
0,
2,
0,
0,
2,
0,
0,
2,
0,
-1,
0,
2,
0,
0,
0,
-1,
2,
0,
0,
0,
0,
0,
0,
2,
0,
0,
0,
0,
2,
0,
-1,
0,
0,
0,
2,
2,
-1,
0,
0,
0,
2,
0,
-1,
2,
0,
0,
0,
0,
0,
2,
0,
0,
2,
0,
-1,
0,
0,
0,
0,
0,
0,
2,
0,
-1,
2,
0,
0,
0,
0,
-1,
0,
2,
0,
0,
-1,
0,
2,
2,
0,
2,
0,
0,
2,
2,
-1,
0,
0,
0,
2,
0,
-1,
0,
0,
0,
2,
0,
-1,
0,
0,
0,
2,
0,
-1,
0,
0,
0,
0,
0,
0,
2,
0,
0,
0,
0,
-1,
2,
0,
0,
0,
0,
0,
2,
0,
0,
2,
2,
0,
0,
0,
0,
2,
2,
0,
0,
0,
-1,
2,
0,
-1,
2,
0,
0,
0,
0,
0,
2,
0,
0,
2,
0,
-1,
0,
0,
0,
2,
2,
0,
2,
0,
0,
2,
0,
0,
2,
0,
0,
0,
2,
0,
0,
-1,
0,
2,
0,
-1,
0,
0,
0,
0,
0,
-1,
0,
0,
0,
2,
0,
-1,
0,
0,
0,
0,
2,
0,
2,
0,
0,
2,
0,
0,
2,
0,
-1,
0,
2,
-1,
0,
0,
0,
2,
0,
-1,
2,
0,
0,
2,
2,
0,
2,
0,
0,
2,
0,
0,
2,
0,
-1,
0,
0,
0,
2,
0,
-1,
2,
0,
0,
2,
-1,
-1,
0,
2,
0,
0,
0,
0,
2,
0,
-1,
0,
0,
0,
2,
0,
-1,
2,
0,
0,
0,
0,
-1,
2,
0,
0,
0,
0,
0,
2,
0,
0,
2,
0,
0,
0,
0,
-1,
0,
2,
0,
2,
0,
0,
2,
0,
0,
2,
0,
0,
2,
2,
0,
0,
0,
0,
2,
0,
0,
0,
0,
0,
2,
2,
-1,
2,
0,
0,
2,
-1,
-1,
2,
0,
0,
0,
0,
0,
2,
0,
0,
0,
0,
0,
2,
0,
0,
0,
0,
0,
2,
0,
0,
2,
0,
0,
2,
0,
0,
2,
2,
0,
0,
0,
0,
2,
0,
0,
0,
0,
0,
2,
2,
-1,
2,
0,
0,
2,
0,
-1,
2,
0,
0,
0,
0,
0,
0,
0,
0,
2,
0,
0,
0,
0,
0,
0,
0,
-1,
2,
0,
0,
2,
0,
-1,
0,
0,
-1,
0,
0,
0,
0,
-1,
0,
2,
0,
-1,
0,
0,
0,
0,
0,
0,
2,
0,
0,
0,
0,
-1,
2,
0,
0,
0,
2,
0,
2,
0,
0,
2,
0,
0,
2,
0,
0,
0,
2,
0,
2,
0,
0,
0,
0,
0,
2,
-1,
-1,
2,
2,
0,
0,
-1,
0,
2,
0,
-1,
0,
0,
0,
2,
2,
-1,
2,
0,
0,
2,
0,
0,
2,
0,
0,
0,
0,
0,
2,
0,
0,
2,
0,
0,
2,
0,
0,
0,
0,
0,
2,
0,
0,
2,
0,
0,
2,
0,
0,
2,
2,
0,
2,
0,
0,
2,
0,
0,
2,
0,
0,
2,
2,
0,
2,
0,
0,
2,
0,
0,
2,
0,
-1,
0,
2,
0,
0,
-1,
0,
2,
0,
-1,
0,
0,
0,
0,
0,
0,
2,
0,
0,
2,
0,
0,
2,
0,
0,
0,
2,
0,
0,
0,
0,
2,
0,
-1,
0,
0,
0,
0,
0,
-1,
0,
0,
0,
0,
0,
-1,
2,
0,
0,
0,
2,
0,
0,
-1,
0,
2,
0,
0,
0,
0,
0,
0,
0,
0,
0,
0,
0,
2,
0,
-1,
0,
-1,
-1,
0,
0,
0,
0,
-1,
0,
2,
0,
-1,
0,
0,
0,
0,
0,
-1,
0,
0,
0,
2,
-1,
-1,
0,
0,
0,
0,
0,
-1,
0,
-1,
0,
0,
0,
0,
0,
0,
0,
0,
0,
-1,
0,
0,
0,
0,
0,
-1,
0,
0,
-1,
0,
0,
0,
0,
-1,
0,
2,
0,
-1,
0,
0,
0,
0,
2,
0,
2,
0,
0,
2,
0,
-1,
2,
0,
-1,
2,
0,
0,
0,
0,
0,
2,
0,
0,
0,
0,
0,
0,
0,
0,
0,
0,
0,
2,
0,
-1,
0,
0,
0,
0,
2,
0,
0,
0,
0,
2,
0,
-1,
0,
0,
0,
0,
2,
-1,
0,
0,
0,
2,
-1,
-1,
0,
0,
0,
0,
0,
-1,
0,
-1,
0,
2,
0,
-1,
0,
0,
-1,
0,
0,
-1,
2,
0,
0,
2,
0,
0,
2,
0,
-1,
0,
0,
-1,
0,
-1,
-1,
0,
0,
-1,
0,
0,
0,
0,
0,
-1,
0,
0,
0,
2,
0,
-1,
0,
0,
0,
0,
2,
-1,
0,
0,
0,
2,
0,
0,
2,
0,
0,
0,
0,
-1,
2,
0,
0,
2,
0,
-1,
0,
0,
0,
0,
0,
-1,
0,
0,
0,
2,
0,
0,
0,
0,
0,
0,
2,
0,
0,
0,
0,
2,
0,
0,
2,
0,
0,
2,
2,
0,
0,
0,
0,
2,
0,
-1,
0,
0,
0,
0,
0,
-1,
2,
0,
0,
0,
0,
-1,
2,
0,
0,
0,
2,
0,
2,
0,
0,
2,
0,
0,
2,
0,
-1,
0,
2,
0,
2,
0,
-1,
2,
0,
-1,
0,
-1,
-1,
0,
2,
0,
0,
-1,
0,
2,
2,
0,
0,
0,
0,
2,
2,
-1,
2,
0,
0,
2,
0,
-1,
0,
0,
0,
0,
0,
0,
0,
0,
0,
0,
0,
-1,
2,
0,
-1,
0,
0,
0,
2,
-1,
-1,
0,
0,
0,
2,
0,
-1,
0,
2,
0,
0,
-1,
0,
2,
0,
-1,
0,
0,
-1,
0,
0,
-1,
0,
0,
0,
2,
-1,
-1,
0,
0,
-1,
0,
0,
0,
0,
-1,
0,
0,
-1,
-1,
2,
0,
-1,
0,
0,
-1,
0,
0,
-1,
0,
0,
-1,
0,
0,
-1,
0,
0,
-1,
0,
-1,
0,
2,
0,
-1,
0,
0,
-1,
0,
2,
-1,
0,
0,
0,
2,
0,
-1,
0,
0,
0,
0,
0,
0,
0,
0,
0,
0,
-1,
-1,
2,
0,
-1,
0,
0,
0,
2,
0,
0,
2,
0,
0,
2,
0,
0,
2,
2,
0,
0,
-1,
0,
2,
0,
0,
0,
0,
0,
2,
2,
0,
2,
0,
0,
2,
0,
0,
2,
0,
0,
0,
0,
0,
0,
0,
0,
2,
0,
0,
0,
0,
-1,
0,
2,
0,
2,
0,
0,
2,
0,
0,
0,
0,
0,
2,
0,
0,
0,
0,
0,
2,
0,
0,
2,
0,
-1,
0,
2,
0,
2,
0,
-1,
2,
0,
0,
2,
0,
-1,
0,
0,
-1,
0,
0,
0,
2,
0,
-1,
0,
0,
-1,
0,
0,
-1,
2,
0,
0,
0,
0,
-1,
2,
0,
0,
0,
0,
0,
0,
-1,
-1,
0,
0,
0,
0,
0,
-1,
0,
0,
-1,
0,
0,
0,
2,
0,
-1,
0,
0,
0,
0,
0,
-1,
0,
0,
0,
0,
0,
0,
0,
0,
-1,
0,
0,
0,
2,
0,
-1,
2,
0,
-1,
0,
0,
0,
2,
0,
-1,
0,
0,
0,
2,
0,
-1,
0,
0,
-1,
0,
0,
-1,
2,
0,
0,
2,
0,
0,
2,
0,
0,
0,
0,
0,
2,
0,
0,
2,
0,
0,
2,
0,
-1,
0,
0,
0,
2,
0,
0,
0,
0,
0,
2,
-1,
-1,
0,
2,
0,
0,
-1,
0,
2,
0,
0,
0,
0,
0,
2,
2,
-1,
0,
0,
0,
2,
0,
-1,
2,
0,
0,
0,
0,
0,
2,
0,
0,
2,
0,
-1,
2,
0,
-1,
0,
0,
0,
2,
0,
0,
2,
0,
-1,
2,
0,
0,
0,
2,
0,
0,
0,
0,
0,
0,
-1,
2,
0,
-1,
0,
0,
0,
0,
0,
-1,
2,
0,
0,
0,
0,
0,
0,
0,
0,
2,
0,
0,
2,
0,
-1,
0,
0,
-1,
0,
0,
-1,
0,
0,
0,
0,
-1,
-1,
0,
0,
-1,
0,
0,
0,
0,
-1,
0,
2,
0,
-1,
0,
0,
-1,
0,
0,
0,
2,
0,
0,
2,
0,
-1,
0,
0,
0,
0,
0,
-1,
2,
0,
0,
2,
0,
-1,
2,
0,
-1,
0,
0,
0,
2,
0,
0,
0,
0,
0,
2,
0,
0,
0,
2,
0,
0,
0,
0,
2,
0,
0,
2,
0,
-1,
0,
0,
0,
2,
0,
0,
2,
0,
0,
2,
0,
0,
2,
2,
0,
2,
0,
0,
2,
0,
0,
2,
0,
0,
2,
2,
0,
2,
0,
2,
3,
0,
-1,
2,
2,
2,
2,
0,
0,
2,
2,
0,
2,
0,
0,
2,
2,
0,
0,
2,
0,
2,
0,
0,
2,
0,
0,
2,
0,
0,
2,
2,
0,
0,
-1,
0,
2,
0,
0,
0,
0,
0,
2,
2,
0,
2,
0,
0,
2,
0,
0,
0,
2,
0,
2,
2,
0,
2,
0,
0,
2,
0,
-1,
2,
0,
-1,
0,
0,
0,
2,
0,
-1,
0,
0,
0,
2,
-1,
-1,
0,
2,
0,
0,
0,
0,
2,
0,
-1,
0,
0,
0,
2,
0,
0,
2,
0,
0,
2,
0,
-1,
0,
0,
0,
0,
0,
-1,
0,
-1,
0,
0,
0,
-1,
2,
0,
-1,
0,
2,
-1,
0,
0,
0,
2,
0,
-1,
2,
0,
0,
0,
2,
0,
0,
0,
0,
2,
0,
0,
0,
0,
-1,
0,
2,
0,
2,
0,
0,
2,
0,
0,
2,
0,
0,
2,
2,
0,
2,
0,
0,
2,
0,
0,
2,
0,
0,
0,
2,
0,
2,
0,
0,
2,
0,
0,
2,
0,
0,
2,
2,
0,
0,
0,
0,
2,
2,
0,
0,
0,
0,
2,
2,
0,
2,
0,
0,
2,
0,
-1,
2,
2,
2,
0,
0,
0,
0,
0,
0,
2,
0,
0,
2,
0,
-1,
0,
2,
0,
2,
0,
0,
2,
0,
0,
2,
0,
0,
2,
0,
0,
2,
0,
-1,
0,
0,
-1,
0,
0,
-1,
0,
2,
0,
0,
-1,
0,
2,
0,
-1,
0,
0,
-1,
0,
2,
-1,
0,
0,
0,
2,
0,
-1,
0,
0,
0,
0,
0,
-1,
0,
-1,
0,
0,
-1,
-1,
2,
-1,
0,
0,
0,
0,
0,
-1,
-1,
0,
0,
-1,
0,
0,
-1,
0,
0,
-1,
2,
0,
0,
0,
-1,
-1,
0,
0,
-1,
0,
0,
-1,
0,
0,
0,
0,
0,
-1,
0,
0,
0,
0,
0,
0,
2,
0,
0,
2,
0,
0,
0,
0,
0,
0,
0,
0,
0,
0,
0,
2,
0,
-1,
0,
0,
0,
0,
2,
0,
2,
0,
0,
2,
0,
0,
0,
0,
0,
2,
2,
0,
0,
0,
0,
2,
0,
0,
2,
0,
0,
0,
0,
0,
2,
0,
0,
2,
0,
0,
2,
0,
0,
2,
2,
0,
2,
0,
0,
2,
2,
0,
2,
0,
0,
2,
2,
0,
2,
0,
0,
2,
0,
-1,
2,
0,
0,
2,
0,
0,
2,
0,
0,
2,
0,
-1,
2,
0,
-1,
0,
0,
0,
2,
0,
0,
2,
0,
0,
0,
0,
0,
2,
2,
0,
0,
0,
0,
2,
0,
-1,
0,
0,
0,
0,
0,
-1,
2,
0,
0,
0,
-1,
-1,
0,
0,
-1,
0,
0,
0,
0,
-1,
0,
0,
0,
-1,
2,
0,
0,
0,
0,
-1,
2,
0,
0,
0,
0,
-1,
2,
-1,
-1,
0,
0,
0,
0,
-1,
-1,
0,
0,
0,
0,
0,
-1,
0,
2,
-1,
0,
0,
0,
2,
0,
-1,
0,
0,
0,
2,
2,
0,
0,
0,
0,
2,
0,
0,
0,
0,
0,
0,
0,
0,
0,
0,
-1,
0,
-1,
-1,
0,
0,
-1,
0,
0,
0,
0,
-1,
0,
0,
0,
-1,
0,
0,
-1,
0,
0,
0,
2,
-1,
-1,
0,
0,
0,
0,
0,
0,
0,
2,
0,
2,
0,
0,
2,
2,
0,
2,
2,
2,
2,
2,
0,
2,
2,
2,
2,
0,
-1,
2,
0,
0,
2,
2,
0,
2,
0,
0,
2,
0,
0,
2,
0,
0,
0,
0,
0,
2,
0,
-1,
2,
0,
0,
2,
0,
0,
2,
2,
0,
0,
-1,
0,
2,
0,
0,
0,
0,
0,
2,
0,
0,
2,
0,
0,
2,
0,
-1,
0,
0,
0,
0,
0,
-1,
0,
-1,
-1,
0,
-1,
-1,
0,
-1,
-1,
-1,
0,
-1,
0,
-1,
-1,
0,
-1,
-1,
0,
-1,
-2,
-1,
0,
-1,
0,
-1,
-1,
0,
0,
-1,
0,
-1,
-1,
0,
2,
-1,
0,
0,
0,
2,
0,
-1,
2,
0,
0,
0,
0,
0,
0,
0,
0,
0,
0,
0,
2,
0,
0,
0,
2,
0,
2,
0,
0,
2,
0,
0,
2,
0,
0,
0,
2,
0,
0,
-1,
0,
2,
0,
0,
0,
0,
-1,
0,
0,
-1,
0,
0,
0,
0,
-1,
-1,
0,
0,
-1,
0,
0,
-1,
0,
-1,
0,
0,
0,
-1,
0,
0,
0,
0,
0,
0,
2,
0,
0,
0,
0,
0,
2,
0,
-1,
0,
2,
0,
0,
-1,
0,
2,
2,
0,
0,
0,
-1,
0,
2,
0,
2,
0,
0,
2,
0,
-1,
2,
0,
0,
0,
0,
0,
2,
0,
0,
2,
0,
0,
2,
0,
0,
0,
0,
0,
2,
0,
0,
0,
0,
0,
2,
0,
-1,
0,
2,
0,
0,
-1,
0,
2,
0,
0,
2,
0,
0,
0,
0,
0,
0,
0,
-1,
0,
0,
-1,
0,
-1,
-1,
0,
0,
-1,
0,
-1,
-1,
0,
0,
-1,
0,
-1,
-1,
0,
2,
-1,
0,
-1,
0,
0,
0,
-1,
0,
0,
0,
2,
0,
-1,
0,
0,
-1,
0,
-1,
-1,
0,
0,
-1,
0,
0,
-1,
2,
0,
0,
0,
0,
-1,
2,
0,
-1,
0,
0,
0,
0,
0,
0,
0,
0,
-1,
0,
0,
0,
0,
0,
0,
2,
0,
-1,
2,
0,
-1,
0,
-1,
-1,
0,
0,
0,
0,
-1,
0,
2,
0,
0,
0,
0,
0,
2,
2,
-1,
2,
0,
0,
2,
0,
-1,
0,
0,
0,
0,
2,
0,
2,
0,
0,
2,
0,
-1,
0,
0,
-1,
0,
2,
0,
2,
0,
0,
2,
0,
0,
2,
0,
0,
2,
2,
0,
2,
0,
0,
2,
2,
0,
0,
0,
0,
2,
2,
-1,
2,
0,
0,
2,
0,
0,
2,
0,
0,
2,
0,
0,
2,
0,
0,
2,
0,
0,
2,
0,
-1,
0,
0,
0,
2,
0,
0,
2,
0,
-1,
0,
-1,
-1,
0,
2,
-1,
0,
0,
0,
2,
0,
-1,
0,
0,
-1,
0,
0,
0,
0,
0,
0,
0,
0,
-1,
0,
0,
-1,
2,
2,
-1,
0,
-1,
-1,
0,
0,
-1,
0,
0,
0,
0,
0,
-1,
0,
0,
0,
2,
-1,
-1,
2,
0,
0,
0,
0,
0,
0,
-1,
-1,
0,
0,
0,
0,
-1,
-1,
0,
2,
0,
2,
0,
0,
2,
0,
-1,
0,
0,
0,
0,
0,
0,
2,
0,
0,
2,
0,
-1,
0,
0,
-1,
0,
0,
0,
2,
0,
0,
2,
0,
-1,
2,
0,
0,
2,
0,
0,
0,
0,
0,
2,
2,
0,
2,
0,
0,
0,
2,
0,
2,
0,
0,
2,
0,
0,
2,
0,
0,
0,
2,
0,
0,
-1,
0,
2,
0,
-1,
0,
0,
0,
2,
2,
0,
2,
0,
2,
2,
0,
-1,
2,
2,
0,
2,
2,
0,
2,
0,
0,
2,
0,
0,
2,
0,
-1,
0,
0,
0,
2,
0,
0,
0,
0,
0,
2,
0,
-1,
0,
0,
0,
0,
-1,
0,
2,
0,
0,
0,
0,
-1,
0,
2,
0,
2,
0,
0,
2,
0,
-1,
0,
0,
0,
0,
2,
0,
0,
-1,
0,
2,
0,
-1,
0,
0,
0,
0,
0,
-1,
0,
0,
0,
0,
0,
-1,
2,
0,
0,
0,
0,
0,
0,
-1,
-1,
0,
0,
0,
0,
0,
-1,
0,
2,
0,
0,
-1,
0,
2,
0,
-1,
0,
0,
0,
0,
0,
-1,
0,
0,
0,
0,
-1,
-1,
2,
0,
0,
0,
0,
0,
2,
0,
0,
2,
0,
0,
2,
0,
0,
0,
0,
0,
0,
0,
0,
2,
0,
0,
0,
0,
0,
2,
2,
0,
0,
0,
0,
2,
0,
-1,
0,
0,
0,
2,
0,
0,
0,
0,
0,
2,
0,
0,
2,
0,
-1,
0,
0,
0,
2,
0,
0,
2,
0,
0,
2,
0,
0,
2,
2,
0,
2,
-1,
0,
2,
0,
0,
2,
0,
0,
2,
2,
0,
0,
0,
0,
2,
0,
-1,
2,
0,
0,
2,
2,
-1,
0,
0,
0,
2,
0,
0,
2,
0,
0,
0,
2,
0,
2,
0,
0,
2,
0,
0,
2,
-1,
0,
0,
0,
0,
0,
0,
0,
2,
0,
-1,
2,
0,
0,
2,
2,
0,
2,
0,
0,
2,
0,
-1,
2,
0,
0,
2,
2,
0,
0,
0,
0,
2,
0,
-1,
0,
0,
0,
0,
0,
0,
2,
0,
0,
2,
0,
-1,
2,
0,
0,
0,
0,
0,
0,
0,
0,
2,
0,
0,
0,
0,
0,
0,
0,
0,
0,
0,
0,
2,
0,
-1,
0,
0,
0,
0,
2,
0,
0,
0,
0,
2,
0,
0,
2,
0,
0,
0,
0,
0,
2,
0,
0,
0,
0,
0,
2,
0,
-1,
0,
0,
0,
0,
0,
0,
2,
0,
-1,
0,
0,
0,
0,
2,
0,
0,
0,
2,
2,
0,
-1,
2,
0,
0,
2,
2,
0,
2,
0,
0,
2,
0,
0,
2,
0,
0,
0,
2,
0,
2,
0,
0,
2,
0,
-1,
0,
0,
0,
2,
2,
0,
2,
0,
0,
2,
0,
0,
2,
0,
0,
0,
2,
0,
2,
0,
0,
2,
0,
0,
2,
0,
0,
2,
2,
0,
0,
-1,
0,
2,
0,
0,
0,
0,
0,
0,
2,
-1,
2,
0,
0,
2,
0,
-1,
0,
0,
0,
2,
0,
0,
0,
0,
0,
2,
0,
-1,
0,
0,
0,
0,
0,
0,
2,
0,
0,
2,
0,
-1,
2,
0,
0,
0,
2,
0,
0,
-1,
0,
0,
0,
0,
0,
0,
0,
0,
0,
-1,
0,
0,
0,
0,
0,
-1,
2,
0,
0,
0,
0,
0,
0,
-1,
0,
2,
0,
-1,
0,
0,
-1,
0,
0,
0,
2,
0,
0,
2,
0,
-1,
0,
0,
0,
2,
0,
-1,
0,
0,
0,
2,
0,
-1,
0,
0,
0,
0,
0,
0,
2,
0,
0,
0,
0,
0,
2,
0,
0,
0,
2,
0,
0,
0,
0,
2,
0,
0,
0,
0,
0,
0,
2,
0,
2,
0,
0,
2,
0,
-1,
2,
0,
0,
2,
2,
0,
2,
0,
0,
2,
0,
0,
0,
0,
0,
0,
2,
-1,
2,
0,
0,
2,
0,
-1,
0,
0,
0,
0,
2,
0,
2,
0,
0,
2,
0,
0,
2,
0,
0,
0,
2,
0,
2,
0,
0,
2,
0,
0,
0,
0,
-1,
0,
0,
0,
0,
-1,
0,
2,
0,
0,
0,
0,
0,
0,
2,
-1,
0,
0,
0,
2,
0,
-1,
0,
0,
0,
2,
0,
0,
0,
0,
0,
2,
0,
-1,
0,
0,
0,
0,
0,
0,
2,
0,
-1,
0,
0,
0,
2,
-1,
-1,
0,
2,
0,
0,
-1,
0,
2,
0,
0,
0,
0,
-1,
0,
2,
-1,
0,
0,
0,
2,
-1,
-1,
0,
0,
0,
0,
0,
0,
0,
0,
0,
2,
0,
0,
2,
0,
0,
0,
0,
0,
2,
0,
0,
0,
0,
0,
2,
-1,
-1,
0,
2,
0,
0,
-1,
0,
2,
0,
-1,
0,
0,
0,
0,
2,
-1,
2,
0,
0,
2,
-1,
-1,
0,
0,
0,
2,
0,
0,
0,
0,
0,
2,
0,
-1,
2,
0,
0,
0,
0,
0,
2,
0,
0,
2,
0,
0,
2,
0,
0,
0,
0,
0,
2,
-1,
-1,
0,
2,
0,
2,
0,
-1,
0,
2,
-1,
0,
-1,
0,
2,
0,
-1,
0,
0,
0,
2,
0,
0,
0,
0,
0,
2,
0,
-1,
2,
0,
0,
0,
0,
0,
2,
0,
-1,
2,
0,
0,
2,
0,
0,
0,
0,
-1,
0,
-1,
-1,
0,
0,
-1,
0,
0,
0,
0,
0,
-1,
0,
0,
-1,
0,
-1,
-1,
0,
0,
0,
0,
2,
0,
0,
-1,
0,
2,
0,
0,
0,
0,
0,
0,
0,
0,
0,
0,
0,
2,
0,
-1,
0,
0,
0,
0,
0,
-1,
0,
0,
0,
0,
0,
0,
0,
0,
0,
0,
0,
0,
0,
0,
0,
0,
-1,
-1,
0,
0,
0,
0,
0,
-1,
0,
0,
0,
0,
0,
0,
2,
0,
0,
0,
0,
0,
2,
-1,
-1,
2,
0,
0,
2,
0,
0,
2,
2,
0,
0,
-1,
0,
2,
0,
-1,
0,
0,
0,
0,
0,
0,
0,
0,
0,
2,
0,
-1,
0,
0,
0,
0,
0,
0,
0,
0,
0,
2,
0,
-1,
0,
0,
0,
0,
0,
-1,
2,
0,
0,
2,
0,
-1,
0,
0,
0,
0,
0,
-1,
0,
0,
0,
2,
0,
0,
2,
0,
0,
0,
0,
0,
2,
0,
-1,
2,
0,
-1,
0,
0,
0,
0,
0,
0,
0,
-1,
0,
2,
0,
-1,
0,
0,
0,
0,
0,
-1,
2,
0,
0,
0,
0,
-1,
0,
0,
-1,
0,
2,
0,
0,
-1,
0,
2,
0,
-1,
0,
0,
-1,
0,
0,
-1,
0,
0,
0,
2,
0,
-1,
0,
0,
0,
0,
0,
-1,
0,
0,
0,
2,
0,
-1,
0,
0,
0,
0,
0,
0,
0,
0,
0,
2,
0,
-1,
0,
0,
0,
0,
0,
-1,
0,
-1,
0,
0,
0,
-1,
0,
0,
0,
0,
2,
0,
0,
0,
0,
2,
0,
0,
0,
0,
0,
0,
0,
0,
0,
-1,
0,
2,
0,
-1,
0,
0,
0,
0,
0,
-1,
0,
0,
0,
0,
-1,
-1,
0,
0,
0,
0,
0,
0,
0,
-1,
0,
2,
0,
-1,
0,
0,
0,
0,
0,
-1,
2,
0,
0,
2,
0,
-1,
0,
0,
0,
2,
2,
0,
0,
0,
0,
2,
0,
0,
0,
0,
0,
2,
2,
0,
2,
0,
0,
2,
0,
-1,
0,
0,
0,
0,
0,
0,
2,
0,
0,
2,
0,
0,
2,
0,
0,
0,
0,
0,
2,
0,
-1,
0,
0,
0,
2,
0,
-1,
0,
2,
0,
0,
-1,
0,
2,
0,
-1,
0,
-1,
-1,
0,
2,
0,
0,
0,
0,
2,
0,
-1,
0,
0,
0,
2,
0,
-1,
0,
0,
0,
2,
0,
-1,
0,
0,
0,
0,
0,
-1,
2,
0,
0,
0,
0,
-1,
2,
0,
0,
0,
0,
0,
0,
-1,
-1,
0,
0,
0,
0,
0,
-1,
0,
2,
0,
0,
-1,
0,
2,
0,
-1,
0,
0,
0,
0,
0,
-1,
0,
0,
0,
0,
0,
0,
0,
0,
0,
0,
0,
0,
0,
0,
0,
2,
0,
-1,
2,
0,
0,
0,
2,
0,
0,
0,
0,
2,
0,
0,
21,
72,
110,
123,
124,
120,
112,
101,
99,
96,
91,
86,
82,
77,
74,
71,
67,
64,
60,
57,
55,
53,
51,
48,
46,
45,
42,
41,
40,
37,
36,
34,
33,
32,
29,
28,
29,
27,
26,
24,
24,
23,
22,
21,
21,
21,
19,
18,
18,
17,
17,
17,
17,
16,
16,
14,
14,
16,
14,
13,
13,
13,
13,
13,
13,
10,
12,
12,
12,
12,
10,
10,
10,
10,
10,
10,
9,
10,
10,
9,
9,
9,
9,
9,
9,
9,
8,
9,
9,
9,
9,
8,
8,
9,
8,
8,
9,
8,
8,
9,
8,
8,
8,
8,
8,
9,
7,
7,
8,
8,
8,
8,
8,
7,
8,
8,
8,
8,
7,
7,
8,
8,
7,
8,
8,
8,
8,
7,
7,
8,
8,
7,
8,
8,
7,
8,
8,
7,
8,
7,
7,
8,
8,
7,
8,
7,
7,
7,
7,
7,
8,
7,
7,
8,
8,
7,
8,
8,
7,
8,
8,
7,
7,
7,
7,
8,
7,
7,
8,
7,
7,
7,
7,
7,
8,
7,
7,
7,
7,
7,
7,
7,
7,
7,
8,
7,
7,
7,
7,
8,
8,
5,
7,
7,
7,
8,
7,
7,
8,
7,
7,
7,
7,
5,
8,
7,
7,
7,
7,
7,
7,
7,
7,
8,
7,
7,
7,
7,
7,
7,
7,
7,
7,
7,
7,
7,
7,
5,
7,
7,
7,
7,
7,
7,
8,
7,
7,
7,
7,
5,
7,
7,
7,
7,
7,
7,
8,
7,
7,
7,
7,
7,
8,
7,
7,
7,
7,
5,
7,
7,
7,
7,
5,
5,
5,
5,
7,
7,
7,
5,
7,
7,
7,
7,
7,
5,
7,
7,
7,
7,
7,
7,
8,
7,
7,
7,
7,
5,
7,
7,
7,
8,
7,
5,
7,
7,
7,
7,
5,
5,
7,
7,
5,
7,
7,
5,
7,
7,
7,
7,
7,
5,
7,
7,
5,
7,
7,
7,
7,
7,
5,
7,
7,
5,
7,
7,
7,
7,
7,
5,
7,
7,
7,
7,
7,
5,
7,
5,
5,
7,
7,
5,
7,
5,
5,
7,
7,
5,
7,
5,
5,
7,
7,
7,
7,
5,
5,
7,
7,
5,
7,
7,
7,
7,
5,
5,
7,
7,
7,
7,
5,
5,
7,
7,
7,
5,
7,
5,
8,
5,
5,
7,
7,
5,
7,
5,
5,
7,
7,
5,
7,
5,
5,
7,
7,
5,
7,
5,
5,
7,
7,
5,
7,
5,
5,
7,
5,
5,
7,
7,
7,
7,
7,
5,
7,
7,
5,
7,
5,
5,
7,
7,
7,
7,
5,
5,
7,
7,
7,
7,
5,
5,
7,
5,
5,
5,
7,
5,
7,
5,
5,
7,
7,
5,
7,
5,
5,
7,
7,
5,
7,
5,
5,
7,
5,
5,
7,
5,
5,
7,
7,
5,
7,
5,
5,
7,
5,
4,
7,
5,
5,
7,
7,
5,
7,
5,
5,
7,
5,
5,
7,
7,
5,
5,
5,
5,
7,
5,
5,
5,
5,
4,
7,
5,
5,
5,
7,
5,
7,
5,
5,
5,
5,
5,
5,
5,
5,
5,
5,
5,
5,
5,
5,
7,
5,
4,
5,
5,
5,
5,
5,
4,
7,
5,
5,
5,
5,
4,
7,
5,
5,
5,
5,
5,
7,
5,
5,
5,
5,
5,
5,
5,
4,
5,
7,
5,
7,
5,
5,
7,
7,
5,
5,
5,
5,
5,
5,
5,
5,
5,
5,
7,
5,
4,
5,
5,
5,
5,
5,
4,
5,
5,
5,
5,
5,
4,
7,
7,
5,
5,
5,
5,
7,
5,
5,
5,
5,
4,
7,
5,
5,
5,
5,
5,
7,
4,
4,
5,
5,
4,
5,
5,
5,
5,
5,
4,
5,
5,
5,
5,
5,
4,
5,
5,
5,
5,
5,
4,
7,
5,
5,
5,
5,
4,
5,
5,
5,
5,
5,
4,
5,
5,
4,
5,
5,
4,
5,
5,
5,
5,
5,
4,
5,
5,
4,
5,
5,
4,
5,
5,
5,
5,
5,
5,
5,
5,
5,
5,
5,
4,
5,
5,
5,
5,
5,
4,
5,
4,
4,
5,
5,
4,
5,
5,
5,
5,
5,
4,
5,
5,
5,
5,
5,
4,
5,
5,
5,
5,
5,
4,
5,
4,
4,
5,
5,
4,
5,
5,
4,
4,
5,
4,
5,
4,
4,
5,
5,
4,
5,
4,
4,
5,
5,
4,
5,
4,
4,
5,
5,
4,
5,
5,
5,
5,
5,
4,
5,
5,
4,
4,
4,
4,
5,
4,
4,
5,
5,
4,
4,
4,
4,
5,
5,
4,
4,
4,
4,
5,
5,
4,
5,
4,
4,
4,
4,
3,
5,
5,
5,
5,
4,
4,
5,
5,
5,
5,
5,
4,
5,
4,
4,
5,
5,
4,
5,
4,
4,
5,
5,
4,
5,
5,
4,
5,
4,
4,
5,
4,
4,
4,
5,
4,
5,
4,
4,
4,
5,
4,
5,
4,
4,
4,
4,
4,
5,
4,
4,
5,
4,
4,
5,
5,
4,
5,
5,
4,
4,
4,
4,
5,
4,
4,
5,
4,
4,
4,
4,
4,
5,
4,
4,
5,
4,
4,
5,
4,
4,
5,
5,
4,
5,
5,
5,
5,
4,
4,
5,
4,
4,
4,
4,
3,
4,
4,
4,
4,
4,
4,
4,
4,
4,
4,
4,
4,
5,
4,
4,
4,
4,
4,
5,
4,
4,
4,
4,
3,
4,
4,
4,
4,
4,
4,
4,
4,
4,
4,
4,
4,
4,
4,
3,
4,
4,
4,
5,
4,
4,
4,
4,
3,
4,
4,
4,
5,
5,
3,
4,
4,
4,
5,
5,
3,
4,
4,
4,
4,
4,
3,
4,
4,
4,
4,
3,
3,
4,
4,
4,
4,
3,
4,
5,
4,
4,
4,
4,
4,
5,
4,
4,
4,
4,
4,
5,
4,
4,
5,
4,
4,
4,
4,
4,
4,
4,
4,
4,
4,
4,
4,
4,
3,
4,
4,
4,
4,
4,
4,
4,
4,
4,
4,
4,
3,
4,
4,
4,
5,
4,
3,
4,
4,
4,
4,
4,
3,
4,
4,
3,
4,
3,
4,
5,
4,
3,
4,
4,
3,
4,
4,
3,
4,
4,
4,
4,
3,
3,
4,
4,
3,
4,
4,
4,
4,
5,
4,
5,
4,
4,
5,
4,
3,
4,
4,
4,
4,
4,
4,
5,
4,
4,
4,
4,
3,
4,
4,
3,
4,
3,
3,
4,
4,
3,
4,
3,
3,
4,
4,
3,
4,
3,
3,
4,
3,
3,
4,
4,
3,
4,
4,
3,
4,
4,
4,
4,
4,
4,
4,
4,
3,
4,
4,
3,
5,
3,
3,
4,
4,
4,
4,
4,
3,
4,
4,
3,
4,
3,
3,
4,
4,
3,
3,
3,
3,
4,
4,
3,
4,
4,
3,
4,
3,
3,
4,
4,
3,
3,
3,
3,
4,
4,
3,
4,
4,
4,
4,
3,
3,
4,
4,
3,
4,
3,
3,
4,
4,
4,
4,
3,
3,
4,
4,
3,
4,
3,
4,
5,
4,
4,
4,
4,
3,
5,
4,
3,
4,
4,
4,
4,
4,
4,
4,
4,
3,
4,
4,
3,
4,
4,
3,
4,
3,
3,
4,
3,
3,
4,
4,
3,
4,
4,
3,
4,
4,
4,
4,
3,
2,
4,
4,
3,
4,
3,
3,
4,
3,
3,
4,
3,
3,
4,
4,
3,
4,
3,
3,
4,
3,
3,
4,
3,
3,
4,
4,
3,
4,
4,
3,
4,
3,
3,
4,
3,
3,
4,
4,
3,
4,
4,
3,
4,
3,
3,
3,
3,
3,
4,
4,
3,
4,
3,
3,
4,
3,
3,
4,
3,
3,
4,
4,
3,
4,
4,
3,
4,
3,
3,
4,
4,
3,
4,
4,
3,
4,
3,
3,
4,
4,
4,
4,
3,
2,
4,
4,
3,
4,
3,
3,
4,
3,
3,
4,
3,
3,
4,
4,
3,
4,
3,
3,
4,
4,
3,
4,
3,
3,
4,
4,
3,
4,
3,
3,
4,
3,
3,
4,
3,
3,
4,
3,
3,
4,
3,
3,
4,
3,
3,
4,
3,
3,
4,
4,
3,
4,
4,
3,
4,
3,
3,
4,
3,
3,
4,
3,
3,
4,
3,
3,
4,
3,
3,
4,
3,
3,
3,
3,
3,
4,
3,
3,
4,
3,
3,
4,
3,
3,
4,
4,
3,
4,
3,
3,
4,
3,
3,
4,
3,
3,
4,
4,
3,
4,
3,
3,
3,
3,
3,
4,
3,
3,
3,
3,
3,
4,
3,
3,
4,
3,
3,
4,
3,
3,
4,
4,
3,
4,
3,
3,
4,
3,
3,
4,
