src/vary_am2_1412/temp0002012.CSV

Format,1.0B,
Memory Length,10000,Memory Length,10000,
IntpDistance,0,IntpDistance,0,
Trigger Address,4999,Trigger Address,4999,
Trigger Level,9.600E-01,Trigger Level,9.600E-01,
Source,CH1,Source,CH2,
Vertical Units,V,Vertical Units,V,
Vertical Units Div,0,Vertical Units Div,0,
Vertical Units Extend Div,16,Vertical Units Extend Div,16,
Label,,Label,,
Probe Type,0,Probe Type,0,
Probe Ratio,1.000e+01,Probe Ratio,1.000e+00,
Vertical Scale,2.000e-02,Vertical Scale,1.000e+00,
Vertical Position,-5.120e-02,Vertical Position,0.000e+00,
Horizontal Units,S,Horizontal Units,S,
Horizontal Scale,1.000E-05,Horizontal Scale,1.000E-05,
Horizontal Position,0.000E+00,Horizontal Position,0.000E+00,
Horizontal Mode,Main,Horizontal Mode,Main,
SincET Mode,Real Time,SincET Mode,Real Time,
Sampling Period,1.000e-08,Sampling Period,1.000e-08,
Horizontal Old Scale,1.000E-05,Horizontal Old Scale,1.000E-05,
Horizontal Old Position,0.000E+00,Horizontal Old Position,0.000E+00,
Firmware,V1.23,Firmware,V1.23,
Mode,Fast,Mode,Fast,
Waveform Data,,Waveform Data,,
4, ,-39, ,
4, ,-38, ,
5, ,-38, ,
0, ,-38, ,
0, ,-38, ,
4, ,-38, ,
1, ,-38, ,
0, ,-38, ,
3, ,-38, ,
-1, ,-38, ,
3, ,-38, ,
4, ,-38, ,
8, ,-38, ,
6, ,-38, ,
6, ,-38, ,
1, ,-38, ,
3, ,-38, ,
3, ,-38, ,
1, ,-38, ,
-7, ,-38, ,
0, ,-38, ,
1, ,-38, ,
3, ,-38, ,
3, ,-38, ,
3, ,-39, ,
4, ,-38, ,
4, ,-38, ,
1, ,-38, ,
5, ,-38, ,
6, ,-38, ,
5, ,-38, ,
1, ,-38, ,
3, ,-38, ,
1, ,-38, ,
0, ,-38, ,
1, ,-38, ,
0, ,-38, ,
3, ,-38, ,
0, ,-38, ,
-1, ,-38, ,
4, ,-38, ,
4, ,-38, ,
4, ,-38, ,
0, ,-38, ,
4, ,-38, ,
3, ,-38, ,
0, ,-38, ,
1, ,-37, ,
4, ,-38, ,
3, ,-38, ,
6, ,-37, ,
3, ,-38, ,
5, ,-38, ,
5, ,-37, ,
3, ,-38, ,
0, ,-38, ,
1, ,-38, ,
1, ,-38, ,
0, ,-38, ,
1, ,-38, ,
3, ,-39, ,
5, ,-38, ,
5, ,-37, ,
3, ,-38, ,
5, ,-38, ,
5, ,-38, ,
3, ,-38, ,
3, ,-38, ,
4, ,-38, ,
5, ,-38, ,
1, ,-38, ,
-1, ,-37, ,
5, ,-38, ,
4, ,-38, ,
6, ,-37, ,
3, ,-38, ,
5, ,-38, ,
9, ,-37, ,
4, ,-38, ,
4, ,-38, ,
10, ,-38, ,
5, ,-38, ,
5, ,-38, ,
0, ,-38, ,
3, ,-39, ,
5, ,-38, ,
3, ,-38, ,
-1, ,-38, ,
6, ,-38, ,
8, ,-38, ,
5, ,-38, ,
-1, ,-38, ,
1, ,-38, ,
4, ,-38, ,
4, ,-38, ,
1, ,-38, ,
4, ,-38, ,
6, ,-38, ,
5, ,-38, ,
0, ,-38, ,
6, ,-38, ,
9, ,-38, ,
3, ,-38, ,
1, ,-38, ,
5, ,-38, ,
4, ,-38, ,
3, ,-38, ,
-1, ,-38, ,
-4, ,-38, ,
-1, ,-38, ,
-2, ,-38, ,
-2, ,-38, ,
0, ,-38, ,
1, ,-38, ,
1, ,-38, ,
0, ,-38, ,
5, ,-38, ,
5, ,-38, ,
4, ,-38, ,
1, ,-38, ,
3, ,-38, ,
-4, ,-38, ,
-6, ,-38, ,
-15, ,-38, ,
-14, ,-38, ,
-12, ,-38, ,
-16, ,-38, ,
-16, ,-38, ,
-9, ,-38, ,
-7, ,-38, ,
-4, ,-38, ,
-5, ,-38, ,
-1, ,-38, ,
8, ,-38, ,
13, ,-38, ,
11, ,-38, ,
11, ,-38, ,
11, ,-38, ,
9, ,-38, ,
1, ,-38, ,
0, ,-38, ,
0, ,-38, ,
-2, ,-38, ,
-2, ,-38, ,
3, ,-38, ,
3, ,-38, ,
4, ,-37, ,
-2, ,-38, ,
-2, ,-38, ,
3, ,-37, ,
1, ,-38, ,
-1, ,-38, ,
3, ,-38, ,
1, ,-38, ,
3, ,-38, ,
-1, ,-38, ,
-4, ,-38, ,
-2, ,-38, ,
-4, ,-38, ,
-4, ,-38, ,
1, ,-38, ,
4, ,-38, ,
1, ,-38, ,
1, ,-38, ,
4, ,-38, ,
1, ,-38, ,
-1, ,-38, ,
-2, ,-37, ,
-2, ,-38, ,
-1, ,-38, ,
1, ,-37, ,
-2, ,-38, ,
3, ,-38, ,
4, ,-38, ,
3, ,-38, ,
0, ,-38, ,
3, ,-38, ,
0, ,-38, ,
0, ,-38, ,
-5, ,-37, ,
-2, ,-38, ,
-1, ,-38, ,
-2, ,-38, ,
-7, ,-38, ,
-2, ,-38, ,
-2, ,-37, ,
-2, ,-38, ,
-5, ,-38, ,
0, ,-38, ,
3, ,-38, ,
4, ,-38, ,
0, ,-38, ,
3, ,-38, ,
3, ,-38, ,
3, ,-37, ,
-6, ,-38, ,
-1, ,-38, ,
3, ,-37, ,
-4, ,-38, ,
-5, ,-38, ,
3, ,-38, ,
1, ,-38, ,
3, ,-38, ,
-2, ,-37, ,
1, ,-39, ,
3, ,-38, ,
3, ,-37, ,
-2, ,-38, ,
0, ,-38, ,
0, ,-38, ,
3, ,-38, ,
0, ,-38, ,
4, ,-38, ,
3, ,-38, ,
1, ,-38, ,
1, ,-38, ,
-1, ,-38, ,
1, ,-38, ,
1, ,-38, ,
-1, ,-38, ,
1, ,-38, ,
3, ,-37, ,
0, ,-38, ,
-4, ,-38, ,
4, ,-38, ,
1, ,-38, ,
3, ,-38, ,
1, ,-37, ,
4, ,-38, ,
3, ,-38, ,
4, ,-38, ,
-2, ,-38, ,
3, ,-38, ,
3, ,-38, ,
3, ,-38, ,
3, ,-38, ,
6, ,-38, ,
8, ,-38, ,
4, ,-38, ,
4, ,-37, ,
4, ,-39, ,
1, ,-38, ,
4, ,-38, ,
-2, ,-38, ,
1, ,-38, ,
5, ,-37, ,
3, ,-39, ,
3, ,-38, ,
6, ,-38, ,
4, ,-38, ,
5, ,-38, ,
3, ,-38, ,
5, ,-39, ,
5, ,-38, ,
4, ,-38, ,
0, ,-38, ,
1, ,-38, ,
3, ,-38, ,
0, ,-38, ,
-5, ,-38, ,
3, ,-38, ,
1, ,-38, ,
0, ,-38, ,
1, ,-38, ,
3, ,-39, ,
3, ,-38, ,
3, ,-38, ,
-2, ,-38, ,
3, ,-38, ,
3, ,-38, ,
3, ,-38, ,
-1, ,-38, ,
6, ,-38, ,
3, ,-38, ,
4, ,-38, ,
3, ,-37, ,
3, ,-38, ,
3, ,-38, ,
1, ,-38, ,
-5, ,-38, ,
0, ,-38, ,
0, ,-37, ,
3, ,-38, ,
1, ,-38, ,
5, ,-38, ,
6, ,-38, ,
4, ,-38, ,
4, ,-37, ,
5, ,-39, ,
4, ,-38, ,
4, ,-37, ,
-1, ,-38, ,
3, ,-38, ,
5, ,-37, ,
1, ,-38, ,
-1, ,-38, ,
5, ,-38, ,
1, ,-38, ,
1, ,-38, ,
0, ,-38, ,
4, ,-38, ,
6, ,-38, ,
6, ,-38, ,
3, ,-38, ,
5, ,-38, ,
8, ,-37, ,
3, ,-38, ,
3, ,-38, ,
4, ,-38, ,
3, ,-38, ,
4, ,-38, ,
3, ,-37, ,
4, ,-38, ,
5, ,-38, ,
5, ,-37, ,
3, ,-38, ,
4, ,-38, ,
5, ,-37, ,
1, ,-38, ,
-1, ,-38, ,
-1, ,-38, ,
0, ,-38, ,
8, ,-38, ,
0, ,-38, ,
5, ,-38, ,
6, ,-38, ,
4, ,-38, ,
0, ,-38, ,
5, ,-38, ,
5, ,-38, ,
6, ,-38, ,
3, ,-38, ,
8, ,-38, ,
8, ,-38, ,
5, ,-38, ,
3, ,-37, ,
5, ,-38, ,
5, ,-38, ,
8, ,-37, ,
4, ,-38, ,
8, ,-38, ,
10, ,-37, ,
6, ,-38, ,
1, ,-38, ,
4, ,-38, ,
0, ,-38, ,
1, ,-38, ,
1, ,-38, ,
5, ,-39, ,
6, ,-38, ,
5, ,-38, ,
4, ,-38, ,
10, ,-38, ,
5, ,-38, ,
3, ,-38, ,
3, ,-38, ,
4, ,-38, ,
4, ,-38, ,
1, ,-38, ,
1, ,-38, ,
5, ,-38, ,
5, ,-38, ,
5, ,-38, ,
0, ,-38, ,
3, ,-38, ,
6, ,-38, ,
3, ,-38, ,
-1, ,-38, ,
4, ,-38, ,
4, ,-38, ,
6, ,-38, ,
4, ,-38, ,
5, ,-39, ,
8, ,-38, ,
6, ,-38, ,
-1, ,-38, ,
3, ,-38, ,
4, ,-38, ,
1, ,-38, ,
-1, ,-38, ,
1, ,-38, ,
0, ,-38, ,
0, ,-38, ,
1, ,-38, ,
3, ,-39, ,
4, ,-38, ,
6, ,-38, ,
5, ,-38, ,
8, ,-38, ,
9, ,-37, ,
5, ,-38, ,
-1, ,-38, ,
5, ,-38, ,
-1, ,-38, ,
0, ,-38, ,
-2, ,-38, ,
-4, ,-39, ,
-1, ,-38, ,
1, ,-38, ,
-2, ,-38, ,
0, ,-38, ,
-1, ,-38, ,
0, ,-38, ,
-4, ,-38, ,
1, ,-38, ,
1, ,-38, ,
-1, ,-38, ,
-1, ,-38, ,
0, ,-39, ,
-2, ,-38, ,
1, ,-38, ,
-6, ,-38, ,
0, ,-38, ,
1, ,-37, ,
-1, ,-38, ,
-1, ,-38, ,
0, ,-38, ,
-5, ,-38, ,
-4, ,-38, ,
-7, ,-38, ,
-5, ,-38, ,
-6, ,-38, ,
-5, ,-38, ,
-6, ,-38, ,
-4, ,-38, ,
-1, ,-38, ,
-2, ,-38, ,
-5, ,-38, ,
0, ,-38, ,
-5, ,-38, ,
-6, ,-38, ,
-7, ,-38, ,
-5, ,-39, ,
-6, ,-38, ,
-2, ,-38, ,
-6, ,-38, ,
-5, ,-38, ,
-1, ,-38, ,
-6, ,-38, ,
-10, ,-38, ,
-4, ,-38, ,
-4, ,-38, ,
1, ,-38, ,
-1, ,-37, ,
-1, ,-38, ,
0, ,-38, ,
-2, ,-38, ,
-5, ,-38, ,
-1, ,-38, ,
-1, ,-38, ,
-1, ,-38, ,
-2, ,-38, ,
6, ,-38, ,
-2, ,-38, ,
-1, ,-38, ,
-4, ,-38, ,
-5, ,-39, ,
-6, ,-38, ,
-2, ,-38, ,
-4, ,-38, ,
-4, ,-38, ,
0, ,-37, ,
-1, ,-38, ,
-4, ,-38, ,
0, ,-38, ,
0, ,-38, ,
-4, ,-38, ,
-6, ,-37, ,
-2, ,-39, ,
-1, ,-38, ,
-2, ,-38, ,
-4, ,-38, ,
0, ,-38, ,
-1, ,-38, ,
-2, ,-38, ,
-4, ,-38, ,
1, ,-38, ,
1, ,-38, ,
3, ,-38, ,
1, ,-38, ,
1, ,-38, ,
-1, ,-38, ,
1, ,-38, ,
-5, ,-38, ,
0, ,-38, ,
3, ,-37, ,
0, ,-38, ,
0, ,-38, ,
5, ,-38, ,
4, ,-38, ,
4, ,-38, ,
-1, ,-38, ,
1, ,-38, ,
1, ,-38, ,
-2, ,-38, ,
-5, ,-38, ,
-2, ,-38, ,
-1, ,-37, ,
3, ,-38, ,
-1, ,-38, ,
0, ,-38, ,
0, ,-38, ,
0, ,-38, ,
-2, ,-37, ,
-2, ,-39, ,
-1, ,-38, ,
1, ,-38, ,
-5, ,-38, ,
0, ,-38, ,
0, ,-37, ,
0, ,-38, ,
-2, ,-38, ,
3, ,-38, ,
0, ,-38, ,
1, ,-38, ,
-1, ,-38, ,
0, ,-38, ,
1, ,-38, ,
1, ,-38, ,
-4, ,-38, ,
3, ,-38, ,
-1, ,-37, ,
-1, ,-36, ,
0, ,-28, ,
8, ,-18, ,
11, ,-8, ,
13, ,0, ,
13, ,7, ,
11, ,15, ,
6, ,20, ,
5, ,25, ,
3, ,30, ,
8, ,33, ,
11, ,35, ,
9, ,39, ,
9, ,40, ,
13, ,42, ,
8, ,44, ,
5, ,46, ,
5, ,46, ,
5, ,49, ,
5, ,50, ,
5, ,51, ,
1, ,52, ,
5, ,52, ,
8, ,51, ,
5, ,53, ,
6, ,53, ,
11, ,53, ,
8, ,54, ,
6, ,54, ,
3, ,54, ,
8, ,55, ,
8, ,54, ,
8, ,55, ,
6, ,55, ,
4, ,55, ,
3, ,54, ,
4, ,55, ,
0, ,55, ,
6, ,55, ,
8, ,55, ,
10, ,55, ,
9, ,54, ,
10, ,56, ,
10, ,54, ,
8, ,55, ,
1, ,55, ,
4, ,56, ,
3, ,54, ,
5, ,56, ,
0, ,55, ,
4, ,55, ,
5, ,56, ,
3, ,55, ,
1, ,55, ,
3, ,56, ,
1, ,54, ,
8, ,55, ,
0, ,55, ,
5, ,55, ,
5, ,54, ,
4, ,56, ,
5, ,55, ,
3, ,55, ,
6, ,55, ,
3, ,56, ,
1, ,54, ,
1, ,56, ,
3, ,54, ,
5, ,55, ,
5, ,55, ,
6, ,55, ,
4, ,54, ,
5, ,55, ,
4, ,55, ,
5, ,55, ,
5, ,55, ,
4, ,55, ,
1, ,54, ,
3, ,55, ,
-1, ,54, ,
8, ,55, ,
1, ,55, ,
4, ,55, ,
6, ,54, ,
4, ,55, ,
1, ,55, ,
5, ,54, ,
-1, ,55, ,
4, ,55, ,
6, ,54, ,
6, ,55, ,
6, ,54, ,
6, ,55, ,
0, ,55, ,
3, ,55, ,
1, ,54, ,
0, ,55, ,
-2, ,55, ,
4, ,55, ,
5, ,55, ,
5, ,55, ,
5, ,54, ,
6, ,56, ,
1, ,54, ,
6, ,55, ,
4, ,55, ,
5, ,55, ,
10, ,53, ,
6, ,55, ,
4, ,55, ,
6, ,55, ,
1, ,55, ,
1, ,55, ,
3, ,53, ,
1, ,55, ,
3, ,54, ,
3, ,54, ,
3, ,55, ,
6, ,55, ,
5, ,53, ,
4, ,55, ,
0, ,55, ,
3, ,55, ,
1, ,55, ,
5, ,55, ,
1, ,54, ,
6, ,55, ,
5, ,54, ,
6, ,54, ,
-4, ,55, ,
1, ,55, ,
3, ,53, ,
-1, ,55, ,
-4, ,55, ,
3, ,54, ,
1, ,55, ,
-2, ,55, ,
-1, ,54, ,
1, ,55, ,
0, ,54, ,
0, ,55, ,
-5, ,55, ,
1, ,55, ,
4, ,53, ,
0, ,56, ,
1, ,54, ,
1, ,54, ,
0, ,55, ,
-1, ,55, ,
-1, ,54, ,
1, ,56, ,
-2, ,54, ,
1, ,55, ,
-2, ,55, ,
0, ,54, ,
-1, ,53, ,
-2, ,55, ,
-7, ,55, ,
-1, ,55, ,
-4, ,55, ,
-2, ,55, ,
-4, ,54, ,
-2, ,55, ,
1, ,54, ,
3, ,55, ,
-2, ,55, ,
-1, ,55, ,
-1, ,53, ,
-2, ,55, ,
-10, ,55, ,
-2, ,54, ,
-5, ,55, ,
-2, ,55, ,
-2, ,54, ,
-2, ,55, ,
0, ,54, ,
0, ,55, ,
-1, ,55, ,
1, ,55, ,
0, ,54, ,
-1, ,55, ,
-1, ,54, ,
0, ,54, ,
-2, ,55, ,
-2, ,55, ,
-5, ,54, ,
-1, ,55, ,
-2, ,54, ,
0, ,55, ,
-6, ,55, ,
0, ,55, ,
1, ,53, ,
0, ,55, ,
-1, ,55, ,
0, ,54, ,
-1, ,54, ,
-5, ,55, ,
-7, ,54, ,
-4, ,56, ,
-5, ,54, ,
3, ,55, ,
-4, ,55, ,
-1, ,55, ,
0, ,54, ,
-4, ,55, ,
-4, ,55, ,
-2, ,55, ,
-5, ,55, ,
-2, ,55, ,
-2, ,53, ,
-1, ,56, ,
-1, ,54, ,
-2, ,54, ,
-6, ,55, ,
-1, ,55, ,
-2, ,53, ,
-4, ,55, ,
-5, ,55, ,
3, ,54, ,
0, ,55, ,
-1, ,55, ,
-1, ,54, ,
-1, ,55, ,
-4, ,54, ,
0, ,54, ,
-4, ,55, ,
1, ,55, ,
1, ,54, ,
3, ,55, ,
-1, ,55, ,
4, ,55, ,
0, ,55, ,
-1, ,55, ,
-2, ,54, ,
-4, ,55, ,
-1, ,54, ,
-2, ,54, ,
-4, ,55, ,
3, ,55, ,
-1, ,53, ,
-1, ,55, ,
-4, ,54, ,
1, ,55, ,
3, ,54, ,
0, ,55, ,
0, ,54, ,
3, ,56, ,
0, ,54, ,
1, ,54, ,
1, ,55, ,
1, ,55, ,
1, ,53, ,
5, ,55, ,
4, ,54, ,
4, ,54, ,
5, ,55, ,
3, ,55, ,
-2, ,54, ,
1, ,56, ,
3, ,54, ,
3, ,54, ,
-1, ,55, ,
1, ,55, ,
5, ,53, ,
4, ,55, ,
8, ,55, ,
10, ,55, ,
8, ,54, ,
6, ,55, ,
4, ,54, ,
3, ,55, ,
-1, ,54, ,
1, ,55, ,
-4, ,55, ,
3, ,54, ,
4, ,54, ,
4, ,55, ,
-1, ,55, ,
8, ,55, ,
4, ,54, ,
5, ,55, ,
3, ,53, ,
6, ,55, ,
8, ,54, ,
3, ,54, ,
3, ,55, ,
3, ,55, ,
4, ,53, ,
4, ,55, ,
1, ,55, ,
6, ,54, ,
5, ,55, ,
4, ,55, ,
5, ,54, ,
5, ,55, ,
5, ,54, ,
4, ,55, ,
-2, ,55, ,
1, ,55, ,
3, ,53, ,
1, ,55, ,
3, ,54, ,
6, ,54, ,
5, ,54, ,
4, ,55, ,
4, ,54, ,
3, ,55, ,
1, ,54, ,
1, ,54, ,
0, ,55, ,
3, ,55, ,
4, ,53, ,
4, ,55, ,
5, ,55, ,
10, ,54, ,
9, ,54, ,
4, ,55, ,
3, ,53, ,
5, ,55, ,
4, ,54, ,
4, ,54, ,
1, ,55, ,
6, ,55, ,
6, ,53, ,
5, ,55, ,
4, ,54, ,
6, ,54, ,
4, ,55, ,
5, ,55, ,
6, ,53, ,
6, ,55, ,
10, ,54, ,
11, ,54, ,
3, ,55, ,
5, ,55, ,
4, ,53, ,
4, ,55, ,
3, ,55, ,
11, ,54, ,
5, ,55, ,
6, ,55, ,
8, ,53, ,
8, ,56, ,
6, ,54, ,
5, ,55, ,
1, ,55, ,
5, ,55, ,
4, ,53, ,
5, ,55, ,
1, ,54, ,
6, ,55, ,
3, ,54, ,
3, ,55, ,
0, ,53, ,
1, ,55, ,
4, ,54, ,
4, ,54, ,
0, ,55, ,
4, ,54, ,
4, ,53, ,
3, ,55, ,
0, ,55, ,
4, ,54, ,
3, ,54, ,
1, ,55, ,
5, ,54, ,
5, ,55, ,
3, ,54, ,
6, ,55, ,
1, ,55, ,
3, ,55, ,
4, ,53, ,
0, ,55, ,
-2, ,55, ,
3, ,54, ,
0, ,55, ,
0, ,55, ,
-4, ,53, ,
1, ,55, ,
3, ,54, ,
4, ,54, ,
0, ,55, ,
4, ,55, ,
4, ,53, ,
3, ,55, ,
0, ,54, ,
5, ,54, ,
1, ,55, ,
4, ,55, ,
1, ,53, ,
1, ,55, ,
1, ,54, ,
3, ,54, ,
-2, ,55, ,
-2, ,55, ,
3, ,53, ,
0, ,55, ,
-1, ,54, ,
5, ,54, ,
1, ,54, ,
3, ,55, ,
1, ,54, ,
1, ,55, ,
4, ,54, ,
3, ,55, ,
-1, ,55, ,
3, ,55, ,
3, ,53, ,
1, ,55, ,
-5, ,55, ,
-1, ,55, ,
1, ,55, ,
-1, ,55, ,
0, ,54, ,
1, ,55, ,
4, ,54, ,
5, ,54, ,
1, ,55, ,
4, ,54, ,
3, ,53, ,
-1, ,55, ,
-4, ,55, ,
1, ,54, ,
-1, ,54, ,
0, ,55, ,
-1, ,54, ,
1, ,55, ,
3, ,54, ,
1, ,54, ,
-4, ,55, ,
0, ,55, ,
0, ,53, ,
-1, ,55, ,
-1, ,55, ,
1, ,54, ,
-2, ,55, ,
-2, ,55, ,
-5, ,54, ,
-1, ,55, ,
-6, ,54, ,
0, ,54, ,
-4, ,55, ,
-1, ,55, ,
1, ,53, ,
-2, ,55, ,
-5, ,55, ,
-2, ,54, ,
-9, ,54, ,
-5, ,55, ,
-4, ,53, ,
-2, ,55, ,
1, ,54, ,
-2, ,54, ,
-1, ,55, ,
-1, ,55, ,
-2, ,53, ,
-2, ,55, ,
-7, ,55, ,
-1, ,54, ,
-4, ,54, ,
-2, ,55, ,
-2, ,53, ,
1, ,55, ,
0, ,54, ,
3, ,55, ,
-2, ,55, ,
0, ,55, ,
-1, ,53, ,
-2, ,56, ,
-6, ,55, ,
0, ,54, ,
-2, ,55, ,
-1, ,55, ,
-1, ,54, ,
0, ,55, ,
1, ,54, ,
0, ,54, ,
-2, ,55, ,
3, ,55, ,
0, ,53, ,
0, ,55, ,
-4, ,54, ,
0, ,54, ,
-1, ,55, ,
-2, ,54, ,
-4, ,54, ,
-1, ,55, ,
-4, ,54, ,
4, ,54, ,
0, ,55, ,
1, ,54, ,
4, ,53, ,
0, ,55, ,
-4, ,54, ,
-1, ,54, ,
-2, ,54, ,
-1, ,55, ,
-4, ,53, ,
-1, ,55, ,
1, ,54, ,
3, ,54, ,
0, ,55, ,
0, ,55, ,
4, ,53, ,
1, ,55, ,
1, ,55, ,
8, ,54, ,
4, ,54, ,
0, ,55, ,
-2, ,54, ,
0, ,55, ,
-5, ,54, ,
-2, ,54, ,
-6, ,55, ,
0, ,55, ,
3, ,53, ,
1, ,56, ,
-1, ,55, ,
3, ,54, ,
0, ,54, ,
3, ,55, ,
-4, ,54, ,
-1, ,55, ,
1, ,54, ,
1, ,54, ,
-1, ,55, ,
3, ,55, ,
3, ,53, ,
4, ,55, ,
1, ,54, ,
5, ,54, ,
0, ,55, ,
-2, ,55, ,
-2, ,54, ,
1, ,55, ,
3, ,54, ,
4, ,54, ,
0, ,55, ,
3, ,55, ,
5, ,53, ,
0, ,55, ,
0, ,55, ,
4, ,54, ,
4, ,55, ,
4, ,55, ,
3, ,54, ,
3, ,56, ,
-1, ,54, ,
0, ,54, ,
-2, ,55, ,
1, ,55, ,
3, ,53, ,
3, ,55, ,
5, ,54, ,
8, ,54, ,
6, ,55, ,
3, ,55, ,
5, ,54, ,
3, ,55, ,
0, ,54, ,
4, ,55, ,
-2, ,55, ,
1, ,55, ,
4, ,53, ,
3, ,55, ,
3, ,54, ,
9, ,54, ,
4, ,54, ,
4, ,55, ,
4, ,54, ,
4, ,55, ,
4, ,54, ,
3, ,54, ,
1, ,55, ,
4, ,55, ,
5, ,53, ,
6, ,55, ,
4, ,55, ,
10, ,54, ,
6, ,54, ,
4, ,55, ,
8, ,54, ,
6, ,55, ,
3, ,54, ,
5, ,55, ,
0, ,55, ,
1, ,55, ,
5, ,53, ,
1, ,55, ,
0, ,55, ,
5, ,54, ,
4, ,55, ,
5, ,55, ,
4, ,53, ,
6, ,55, ,
10, ,54, ,
8, ,54, ,
0, ,55, ,
4, ,55, ,
1, ,53, ,
0, ,55, ,
-4, ,55, ,
3, ,54, ,
5, ,54, ,
1, ,55, ,
0, ,53, ,
-1, ,55, ,
0, ,54, ,
8, ,54, ,
3, ,55, ,
5, ,55, ,
8, ,53, ,
4, ,55, ,
4, ,54, ,
6, ,54, ,
3, ,55, ,
4, ,55, ,
3, ,53, ,
4, ,55, ,
3, ,54, ,
1, ,54, ,
3, ,55, ,
4, ,55, ,
4, ,53, ,
3, ,55, ,
5, ,55, ,
8, ,54, ,
6, ,54, ,
4, ,55, ,
3, ,54, ,
8, ,55, ,
4, ,54, ,
9, ,54, ,
4, ,55, ,
8, ,55, ,
8, ,53, ,
3, ,56, ,
3, ,55, ,
6, ,55, ,
4, ,54, ,
6, ,55, ,
3, ,54, ,
8, ,55, ,
6, ,54, ,
3, ,55, ,
-1, ,55, ,
-1, ,55, ,
0, ,53, ,
0, ,55, ,
0, ,54, ,
4, ,54, ,
3, ,55, ,
3, ,55, ,
1, ,54, ,
1, ,56, ,
0, ,54, ,
3, ,54, ,
-1, ,55, ,
4, ,55, ,
1, ,53, ,
1, ,55, ,
-1, ,55, ,
-1, ,54, ,
-1, ,55, ,
1, ,55, ,
3, ,53, ,
4, ,55, ,
4, ,54, ,
6, ,54, ,
-1, ,55, ,
3, ,55, ,
0, ,53, ,
1, ,55, ,
-1, ,55, ,
4, ,55, ,
3, ,54, ,
1, ,55, ,
0, ,54, ,
1, ,55, ,
3, ,54, ,
4, ,54, ,
-5, ,55, ,
0, ,55, ,
0, ,53, ,
-4, ,55, ,
-4, ,55, ,
1, ,54, ,
-4, ,55, ,
0, ,55, ,
-1, ,53, ,
0, ,55, ,
0, ,54, ,
0, ,54, ,
-4, ,55, ,
0, ,55, ,
0, ,53, ,
-1, ,55, ,
-4, ,54, ,
-2, ,54, ,
0, ,55, ,
-1, ,55, ,
-2, ,53, ,
1, ,55, ,
-5, ,54, ,
4, ,55, ,
0, ,55, ,
-1, ,55, ,
3, ,53, ,
-1, ,55, ,
-6, ,55, ,
0, ,54, ,
-1, ,54, ,
0, ,55, ,
1, ,53, ,
4, ,55, ,
6, ,54, ,
3, ,55, ,
-1, ,55, ,
1, ,55, ,
-1, ,53, ,
-1, ,55, ,
-5, ,55, ,
0, ,55, ,
1, ,55, ,
-1, ,55, ,
0, ,53, ,
3, ,55, ,
0, ,54, ,
3, ,54, ,
-4, ,55, ,
0, ,55, ,
0, ,53, ,
-5, ,55, ,
-7, ,54, ,
1, ,54, ,
0, ,55, ,
-2, ,55, ,
-5, ,54, ,
0, ,55, ,
1, ,54, ,
1, ,55, ,
1, ,55, ,
4, ,55, ,
3, ,53, ,
0, ,55, ,
1, ,51, ,
1, ,43, ,
-4, ,33, ,
-5, ,23, ,
-7, ,15, ,
-5, ,7, ,
-2, ,1, ,
-1, ,-4, ,
-5, ,-9, ,
-6, ,-13, ,
-6, ,-17, ,
-11, ,-20, ,
-14, ,-22, ,
-2, ,-24, ,
-6, ,-26, ,
-4, ,-28, ,
-4, ,-30, ,
-4, ,-32, ,
-1, ,-33, ,
-4, ,-33, ,
-4, ,-34, ,
-1, ,-35, ,
-2, ,-35, ,
-1, ,-36, ,
-6, ,-37, ,
-2, ,-36, ,
1, ,-37, ,
-2, ,-37, ,
-4, ,-38, ,
-5, ,-38, ,
1, ,-38, ,
0, ,-38, ,
-1, ,-38, ,
1, ,-38, ,
5, ,-38, ,
0, ,-38, ,
0, ,-38, ,
3, ,-38, ,
1, ,-39, ,
-1, ,-38, ,
-1, ,-38, ,
1, ,-39, ,
3, ,-39, ,
4, ,-38, ,
0, ,-39, ,
4, ,-39, ,
4, ,-38, ,
-1, ,-39, ,
-2, ,-39, ,
0, ,-38, ,
-1, ,-39, ,
-2, ,-39, ,
-4, ,-38, ,
3, ,-39, ,
-1, ,-39, ,
1, ,-38, ,
-1, ,-39, ,
4, ,-39, ,
4, ,-38, ,
-1, ,-39, ,
0, ,-39, ,
1, ,-39, ,
1, ,-39, ,
0, ,-38, ,
-4, ,-38, ,
0, ,-39, ,
-1, ,-38, ,
0, ,-38, ,
-4, ,-39, ,
0, ,-39, ,
8, ,-38, ,
6, ,-38, ,
3, ,-39, ,
9, ,-38, ,
6, ,-39, ,
4, ,-38, ,
1, ,-38, ,
3, ,-39, ,
3, ,-38, ,
1, ,-38, ,
-1, ,-38, ,
4, ,-39, ,
5, ,-38, ,
4, ,-38, ,
1, ,-38, ,
5, ,-38, ,
4, ,-39, ,
3, ,-38, ,
0, ,-38, ,
3, ,-39, ,
4, ,-39, ,
5, ,-38, ,
0, ,-38, ,
4, ,-39, ,
3, ,-38, ,
3, ,-39, ,
-1, ,-38, ,
1, ,-38, ,
4, ,-38, ,
1, ,-38, ,
1, ,-38, ,
4, ,-39, ,
1, ,-38, ,
3, ,-38, ,
-1, ,-38, ,
3, ,-38, ,
4, ,-38, ,
5, ,-38, ,
4, ,-38, ,
9, ,-38, ,
5, ,-38, ,
4, ,-38, ,
0, ,-38, ,
3, ,-39, ,
1, ,-38, ,
3, ,-38, ,
3, ,-38, ,
5, ,-38, ,
6, ,-38, ,
8, ,-38, ,
8, ,-38, ,
6, ,-38, ,
6, ,-38, ,
-2, ,-38, ,
-4, ,-38, ,
4, ,-38, ,
3, ,-39, ,
5, ,-38, ,
0, ,-38, ,
1, ,-38, ,
6, ,-37, ,
3, ,-39, ,
0, ,-38, ,
3, ,-38, ,
4, ,-38, ,
4, ,-38, ,
1, ,-38, ,
5, ,-39, ,
4, ,-38, ,
1, ,-38, ,
1, ,-38, ,
4, ,-38, ,
3, ,-38, ,
3, ,-39, ,
3, ,-38, ,
3, ,-38, ,
3, ,-38, ,
1, ,-38, ,
-1, ,-38, ,
3, ,-38, ,
3, ,-38, ,
5, ,-38, ,
-1, ,-38, ,
4, ,-38, ,
3, ,-37, ,
3, ,-38, ,
1, ,-38, ,
5, ,-38, ,
4, ,-38, ,
3, ,-38, ,
-1, ,-38, ,
-1, ,-39, ,
0, ,-38, ,
0, ,-38, ,
-4, ,-38, ,
0, ,-38, ,
3, ,-38, ,
3, ,-38, ,
-1, ,-38, ,
3, ,-38, ,
1, ,-38, ,
0, ,-38, ,
-2, ,-38, ,
1, ,-39, ,
1, ,-38, ,
5, ,-38, ,
0, ,-38, ,
4, ,-38, ,
5, ,-37, ,
0, ,-38, ,
-1, ,-38, ,
4, ,-38, ,
-1, ,-38, ,
4, ,-38, ,
0, ,-38, ,
3, ,-38, ,
3, ,-38, ,
3, ,-38, ,
0, ,-38, ,
3, ,-38, ,
3, ,-38, ,
4, ,-38, ,
3, ,-38, ,
9, ,-38, ,
4, ,-38, ,
3, ,-38, ,
0, ,-38, ,
0, ,-38, ,
0, ,-38, ,
1, ,-38, ,
-4, ,-38, ,
-1, ,-38, ,
0, ,-38, ,
0, ,-38, ,
-1, ,-38, ,
8, ,-38, ,
1, ,-38, ,
0, ,-38, ,
3, ,-38, ,
1, ,-39, ,
5, ,-38, ,
6, ,-38, ,
1, ,-38, ,
4, ,-38, ,
0, ,-38, ,
0, ,-38, ,
-4, ,-38, ,
1, ,-38, ,
0, ,-38, ,
0, ,-38, ,
-1, ,-38, ,
4, ,-38, ,
4, ,-38, ,
4, ,-38, ,
-2, ,-38, ,
1, ,-38, ,
1, ,-38, ,
-4, ,-38, ,
0, ,-38, ,
-1, ,-38, ,
0, ,-38, ,
1, ,-38, ,
1, ,-38, ,
3, ,-39, ,
3, ,-38, ,
0, ,-38, ,
-2, ,-38, ,
-1, ,-38, ,
1, ,-38, ,
-1, ,-38, ,
-2, ,-38, ,
3, ,-38, ,
1, ,-38, ,
-1, ,-38, ,
-2, ,-38, ,
0, ,-38, ,
-2, ,-38, ,
-1, ,-37, ,
-4, ,-38, ,
-1, ,-38, ,
1, ,-37, ,
-2, ,-38, ,
-4, ,-38, ,
1, ,-38, ,
0, ,-38, ,
3, ,-38, ,
-1, ,-38, ,
1, ,-38, ,
4, ,-38, ,
1, ,-38, ,
-2, ,-38, ,
0, ,-39, ,
-1, ,-38, ,
-1, ,-38, ,
-7, ,-38, ,
-1, ,-38, ,
0, ,-38, ,
0, ,-38, ,
1, ,-37, ,
1, ,-38, ,
3, ,-38, ,
4, ,-38, ,
-2, ,-38, ,
-1, ,-38, ,
3, ,-37, ,
-1, ,-38, ,
-2, ,-38, ,
1, ,-38, ,
4, ,-38, ,
3, ,-38, ,
1, ,-38, ,
3, ,-39, ,
1, ,-38, ,
4, ,-38, ,
-1, ,-38, ,
5, ,-38, ,
4, ,-38, ,
1, ,-38, ,
-1, ,-38, ,
4, ,-38, ,
0, ,-38, ,
-1, ,-38, ,
-1, ,-38, ,
3, ,-39, ,
3, ,-38, ,
5, ,-38, ,
3, ,-38, ,
4, ,-38, ,
4, ,-37, ,
-1, ,-38, ,
-4, ,-38, ,
-1, ,-38, ,
-4, ,-38, ,
0, ,-38, ,
-1, ,-38, ,
3, ,-39, ,
6, ,-38, ,
1, ,-38, ,
0, ,-38, ,
1, ,-38, ,
1, ,-38, ,
-1, ,-38, ,
-2, ,-38, ,
5, ,-38, ,
4, ,-38, ,
3, ,-38, ,
0, ,-38, ,
1, ,-38, ,
1, ,-38, ,
0, ,-38, ,
-4, ,-38, ,
1, ,-38, ,
3, ,-37, ,
-1, ,-38, ,
-4, ,-38, ,
4, ,-38, ,
0, ,-38, ,
1, ,-38, ,
0, ,-38, ,
3, ,-39, ,
5, ,-38, ,
5, ,-38, ,
-1, ,-38, ,
5, ,-39, ,
6, ,-38, ,
3, ,-38, ,
-2, ,-38, ,
4, ,-38, ,
1, ,-38, ,
-2, ,-38, ,
0, ,-38, ,
1, ,-38, ,
3, ,-38, ,
3, ,-38, ,
-1, ,-38, ,
5, ,-38, ,
5, ,-37, ,
1, ,-39, ,
0, ,-38, ,
1, ,-38, ,
4, ,-38, ,
3, ,-38, ,
3, ,-38, ,
1, ,-38, ,
5, ,-38, ,
3, ,-38, ,
-1, ,-38, ,
0, ,-38, ,
4, ,-38, ,
4, ,-38, ,
4, ,-38, ,
9, ,-38, ,
5, ,-38, ,
3, ,-38, ,
0, ,-38, ,
1, ,-39, ,
1, ,-38, ,
3, ,-38, ,
-2, ,-38, ,
1, ,-38, ,
6, ,-38, ,
4, ,-38, ,
1, ,-38, ,
4, ,-38, ,
3, ,-38, ,
3, ,-38, ,
0, ,-38, ,
-1, ,-39, ,
1, ,-38, ,
1, ,-38, ,
4, ,-38, ,
4, ,-38, ,
5, ,-38, ,
4, ,-38, ,
-2, ,-38, ,
5, ,-38, ,
3, ,-38, ,
-1, ,-38, ,
0, ,-38, ,
1, ,-38, ,
5, ,-38, ,
8, ,-38, ,
3, ,-38, ,
6, ,-38, ,
4, ,-38, ,
3, ,-38, ,
-1, ,-38, ,
3, ,-38, ,
4, ,-38, ,
3, ,-38, ,
3, ,-38, ,
5, ,-38, ,
5, ,-38, ,
4, ,-38, ,
-4, ,-38, ,
-1, ,-38, ,
0, ,-38, ,
-1, ,-38, ,
-2, ,-38, ,
3, ,-38, ,
3, ,-38, ,
-1, ,-38, ,
0, ,-37, ,
-1, ,-38, ,
-1, ,-38, ,
-2, ,-38, ,
8, ,-38, ,
6, ,-38, ,
6, ,-37, ,
5, ,-38, ,
-1, ,-38, ,
5, ,-38, ,
-1, ,-38, ,
0, ,-38, ,
0, ,-38, ,
4, ,-39, ,
3, ,-38, ,
3, ,-38, ,
4, ,-38, ,
5, ,-38, ,
5, ,-38, ,
5, ,-38, ,
3, ,-38, ,
6, ,-38, ,
4, ,-38, ,
4, ,-38, ,
0, ,-38, ,
0, ,-38, ,
3, ,-38, ,
3, ,-38, ,
-1, ,-38, ,
1, ,-38, ,
3, ,-38, ,
1, ,-38, ,
-2, ,-38, ,
3, ,-38, ,
8, ,-38, ,
4, ,-38, ,
1, ,-38, ,
5, ,-38, ,
4, ,-38, ,
5, ,-38, ,
-2, ,-38, ,
1, ,-38, ,
3, ,-37, ,
1, ,-38, ,
-4, ,-38, ,
3, ,-38, ,
3, ,-38, ,
-1, ,-38, ,
-4, ,-37, ,
-2, ,-38, ,
-1, ,-38, ,
1, ,-38, ,
-4, ,-38, ,
4, ,-38, ,
6, ,-37, ,
3, ,-38, ,
1, ,-38, ,
1, ,-38, ,
-2, ,-38, ,
-2, ,-38, ,
-4, ,-38, ,
0, ,-39, ,
1, ,-38, ,
1, ,-38, ,
-2, ,-38, ,
0, ,-38, ,
