src/vary_am2_1412/temp0002200.CSV

Format,1.0B,
Memory Length,10000,Memory Length,10000,
IntpDistance,0,IntpDistance,0,
Trigger Address,4999,Trigger Address,4999,
Trigger Level,9.600E-01,Trigger Level,9.600E-01,
Source,CH1,Source,CH2,
Vertical Units,V,Vertical Units,V,
Vertical Units Div,0,Vertical Units Div,0,
Vertical Units Extend Div,16,Vertical Units Extend Div,16,
Label,,Label,,
Probe Type,0,Probe Type,0,
Probe Ratio,1.000e+01,Probe Ratio,1.000e+00,
Vertical Scale,2.000e-02,Vertical Scale,1.000e+00,
Vertical Position,-5.120e-02,Vertical Position,0.000e+00,
Horizontal Units,S,Horizontal Units,S,
Horizontal Scale,1.000E-05,Horizontal Scale,1.000E-05,
Horizontal Position,0.000E+00,Horizontal Position,0.000E+00,
Horizontal Mode,Main,Horizontal Mode,Main,
SincET Mode,Real Time,SincET Mode,Real Time,
Sampling Period,1.000e-08,Sampling Period,1.000e-08,
Horizontal Old Scale,1.000E-05,Horizontal Old Scale,1.000E-05,
Horizontal Old Position,0.000E+00,Horizontal Old Position,0.000E+00,
Firmware,V1.23,Firmware,V1.23,
Mode,Fast,Mode,Fast,
Waveform Data,,Waveform Data,,
-2, ,-37, ,
0, ,-38, ,
-1, ,-38, ,
-1, ,-37, ,
-1, ,-38, ,
-6, ,-37, ,
-4, ,-38, ,
-1, ,-38, ,
-2, ,-37, ,
-9, ,-37, ,
-2, ,-38, ,
-5, ,-38, ,
-4, ,-37, ,
-5, ,-38, ,
-4, ,-38, ,
-1, ,-37, ,
-1, ,-38, ,
-6, ,-38, ,
0, ,-37, ,
0, ,-37, ,
-1, ,-37, ,
-1, ,-37, ,
4, ,-38, ,
3, ,-37, ,
-1, ,-37, ,
-4, ,-38, ,
-2, ,-37, ,
0, ,-37, ,
5, ,-38, ,
-4, ,-37, ,
4, ,-37, ,
8, ,-37, ,
6, ,-37, ,
4, ,-37, ,
11, ,-38, ,
10, ,-38, ,
8, ,-37, ,
5, ,-38, ,
1, ,-38, ,
3, ,-37, ,
6, ,-38, ,
1, ,-38, ,
4, ,-38, ,
6, ,-38, ,
0, ,-37, ,
-4, ,-37, ,
-2, ,-38, ,
-4, ,-38, ,
-2, ,-37, ,
-4, ,-38, ,
-1, ,-37, ,
0, ,-37, ,
-2, ,-38, ,
-10, ,-37, ,
-5, ,-38, ,
1, ,-38, ,
-4, ,-37, ,
-6, ,-37, ,
1, ,-38, ,
-1, ,-38, ,
0, ,-37, ,
-2, ,-38, ,
-4, ,-38, ,
1, ,-37, ,
3, ,-38, ,
-6, ,-38, ,
3, ,-37, ,
6, ,-37, ,
3, ,-37, ,
1, ,-36, ,
4, ,-38, ,
4, ,-38, ,
3, ,-37, ,
-1, ,-38, ,
-1, ,-37, ,
1, ,-37, ,
0, ,-38, ,
-5, ,-37, ,
-1, ,-37, ,
1, ,-37, ,
-1, ,-37, ,
-5, ,-37, ,
-4, ,-38, ,
-2, ,-38, ,
-4, ,-37, ,
-1, ,-37, ,
0, ,-38, ,
1, ,-37, ,
4, ,-38, ,
-5, ,-38, ,
-1, ,-37, ,
0, ,-37, ,
0, ,-37, ,
-5, ,-37, ,
0, ,-38, ,
3, ,-38, ,
1, ,-37, ,
3, ,-38, ,
8, ,-38, ,
11, ,-36, ,
13, ,-38, ,
6, ,-38, ,
13, ,-37, ,
13, ,-37, ,
8, ,-37, ,
4, ,-37, ,
11, ,-38, ,
9, ,-38, ,
8, ,-37, ,
5, ,-38, ,
5, ,-38, ,
8, ,-37, ,
5, ,-38, ,
0, ,-38, ,
3, ,-37, ,
6, ,-37, ,
3, ,-38, ,
-2, ,-37, ,
0, ,-38, ,
-4, ,-38, ,
-2, ,-37, ,
-2, ,-38, ,
-1, ,-37, ,
-1, ,-37, ,
3, ,-38, ,
-6, ,-37, ,
-5, ,-38, ,
-2, ,-37, ,
-5, ,-37, ,
-9, ,-37, ,
0, ,-38, ,
-1, ,-38, ,
0, ,-37, ,
-1, ,-37, ,
1, ,-38, ,
10, ,-37, ,
1, ,-38, ,
-5, ,-37, ,
3, ,-37, ,
8, ,-37, ,
1, ,-37, ,
1, ,-36, ,
9, ,-38, ,
8, ,-37, ,
0, ,-37, ,
3, ,-38, ,
4, ,-38, ,
1, ,-37, ,
6, ,-38, ,
0, ,-38, ,
4, ,-37, ,
6, ,-38, ,
1, ,-37, ,
-2, ,-37, ,
0, ,-38, ,
1, ,-38, ,
0, ,-37, ,
-2, ,-38, ,
-2, ,-38, ,
1, ,-37, ,
0, ,-38, ,
-5, ,-37, ,
-2, ,-37, ,
0, ,-37, ,
-2, ,-37, ,
-6, ,-37, ,
-2, ,-38, ,
-2, ,-38, ,
-2, ,-37, ,
1, ,-38, ,
4, ,-37, ,
4, ,-36, ,
6, ,-38, ,
5, ,-37, ,
6, ,-37, ,
8, ,-37, ,
4, ,-37, ,
6, ,-37, ,
9, ,-38, ,
6, ,-38, ,
8, ,-37, ,
8, ,-37, ,
5, ,-38, ,
4, ,-37, ,
4, ,-38, ,
1, ,-37, ,
9, ,-38, ,
6, ,-37, ,
5, ,-37, ,
1, ,-36, ,
5, ,-38, ,
4, ,-38, ,
-1, ,-37, ,
-4, ,-38, ,
-4, ,-38, ,
-4, ,-37, ,
-2, ,-38, ,
-6, ,-37, ,
-2, ,-38, ,
1, ,-37, ,
-2, ,-37, ,
-2, ,-37, ,
1, ,-38, ,
-1, ,-37, ,
1, ,-37, ,
0, ,-38, ,
1, ,-38, ,
1, ,-37, ,
4, ,-38, ,
-1, ,-38, ,
5, ,-38, ,
3, ,-38, ,
1, ,-37, ,
0, ,-37, ,
4, ,-38, ,
4, ,-38, ,
4, ,-37, ,
4, ,-38, ,
6, ,-38, ,
5, ,-37, ,
4, ,-38, ,
-1, ,-37, ,
4, ,-38, ,
8, ,-37, ,
1, ,-37, ,
-4, ,-37, ,
1, ,-38, ,
0, ,-37, ,
-4, ,-37, ,
-4, ,-38, ,
-4, ,-38, ,
-2, ,-37, ,
-4, ,-38, ,
-9, ,-38, ,
-4, ,-37, ,
-2, ,-37, ,
-2, ,-38, ,
-5, ,-37, ,
0, ,-38, ,
-1, ,-38, ,
-2, ,-37, ,
-5, ,-38, ,
-2, ,-38, ,
-1, ,-37, ,
-1, ,-38, ,
-5, ,-37, ,
1, ,-38, ,
6, ,-38, ,
4, ,-37, ,
4, ,-37, ,
5, ,-38, ,
5, ,-38, ,
4, ,-37, ,
4, ,-37, ,
5, ,-38, ,
6, ,-37, ,
6, ,-38, ,
3, ,-38, ,
6, ,-37, ,
6, ,-37, ,
4, ,-38, ,
-1, ,-37, ,
5, ,-38, ,
6, ,-38, ,
1, ,-37, ,
0, ,-38, ,
0, ,-38, ,
-1, ,-37, ,
-1, ,-38, ,
-7, ,-37, ,
-2, ,-38, ,
1, ,-38, ,
-2, ,-37, ,
-5, ,-37, ,
4, ,-38, ,
3, ,-38, ,
3, ,-37, ,
-1, ,-37, ,
-1, ,-38, ,
0, ,-37, ,
3, ,-38, ,
-1, ,-37, ,
1, ,-37, ,
3, ,-38, ,
-1, ,-38, ,
-1, ,-37, ,
4, ,-38, ,
0, ,-38, ,
3, ,-37, ,
0, ,-38, ,
3, ,-38, ,
3, ,-37, ,
4, ,-38, ,
3, ,-37, ,
3, ,-38, ,
5, ,-37, ,
3, ,-37, ,
1, ,-37, ,
1, ,-38, ,
-2, ,-38, ,
0, ,-37, ,
-2, ,-38, ,
-2, ,-38, ,
0, ,-37, ,
-1, ,-38, ,
-6, ,-38, ,
-2, ,-38, ,
-4, ,-37, ,
-2, ,-37, ,
-4, ,-37, ,
0, ,-38, ,
1, ,-38, ,
-1, ,-37, ,
-4, ,-38, ,
0, ,-38, ,
0, ,-37, ,
1, ,-38, ,
-6, ,-37, ,
0, ,-37, ,
4, ,-38, ,
4, ,-37, ,
4, ,-37, ,
8, ,-38, ,
8, ,-38, ,
8, ,-37, ,
4, ,-37, ,
5, ,-38, ,
6, ,-37, ,
5, ,-38, ,
0, ,-38, ,
5, ,-37, ,
5, ,-38, ,
3, ,-37, ,
-1, ,-36, ,
3, ,-38, ,
3, ,-38, ,
3, ,-37, ,
1, ,-38, ,
4, ,-37, ,
3, ,-37, ,
5, ,-38, ,
-1, ,-37, ,
0, ,-38, ,
1, ,-37, ,
-2, ,-38, ,
-5, ,-37, ,
-1, ,-38, ,
-2, ,-38, ,
-1, ,-37, ,
0, ,-38, ,
1, ,-38, ,
1, ,-37, ,
1, ,-38, ,
-2, ,-38, ,
-1, ,-37, ,
-1, ,-38, ,
0, ,-37, ,
-4, ,-37, ,
4, ,-38, ,
4, ,-38, ,
3, ,-37, ,
4, ,-38, ,
4, ,-37, ,
4, ,-37, ,
5, ,-38, ,
0, ,-37, ,
5, ,-38, ,
5, ,-38, ,
3, ,-37, ,
-2, ,-37, ,
4, ,-38, ,
1, ,-38, ,
1, ,-38, ,
1, ,-38, ,
1, ,-38, ,
4, ,-37, ,
6, ,-38, ,
-2, ,-38, ,
3, ,-37, ,
3, ,-38, ,
0, ,-38, ,
-5, ,-37, ,
-1, ,-38, ,
0, ,-38, ,
0, ,-37, ,
-1, ,-38, ,
0, ,-38, ,
-1, ,-37, ,
1, ,-38, ,
-6, ,-37, ,
-1, ,-38, ,
0, ,-38, ,
-1, ,-37, ,
-2, ,-37, ,
6, ,-38, ,
5, ,-38, ,
8, ,-37, ,
4, ,-38, ,
5, ,-38, ,
9, ,-37, ,
8, ,-38, ,
6, ,-38, ,
5, ,-37, ,
5, ,-37, ,
0, ,-38, ,
-1, ,-37, ,
0, ,-38, ,
0, ,-38, ,
6, ,-37, ,
-1, ,-38, ,
3, ,-37, ,
6, ,-37, ,
5, ,-38, ,
4, ,-38, ,
3, ,-38, ,
5, ,-37, ,
0, ,-38, ,
-4, ,-37, ,
0, ,-38, ,
-4, ,-38, ,
-1, ,-37, ,
-1, ,-38, ,
0, ,-38, ,
3, ,-37, ,
4, ,-38, ,
0, ,-38, ,
1, ,-38, ,
3, ,-37, ,
1, ,-37, ,
-4, ,-37, ,
3, ,-38, ,
3, ,-38, ,
1, ,-37, ,
-1, ,-38, ,
3, ,-37, ,
1, ,-37, ,
1, ,-38, ,
-4, ,-38, ,
3, ,-38, ,
1, ,-38, ,
0, ,-37, ,
-2, ,-37, ,
1, ,-38, ,
0, ,-37, ,
-1, ,-37, ,
-1, ,-38, ,
0, ,-38, ,
0, ,-37, ,
-1, ,-38, ,
-5, ,-37, ,
-2, ,-37, ,
-4, ,-38, ,
-2, ,-37, ,
-4, ,-37, ,
-2, ,-38, ,
-4, ,-38, ,
-5, ,-37, ,
-2, ,-38, ,
-2, ,-38, ,
0, ,-37, ,
0, ,-38, ,
-1, ,-37, ,
0, ,-38, ,
6, ,-37, ,
-2, ,-37, ,
-6, ,-37, ,
0, ,-38, ,
0, ,-38, ,
-1, ,-37, ,
0, ,-38, ,
0, ,-38, ,
3, ,-37, ,
0, ,-38, ,
0, ,-38, ,
3, ,-37, ,
4, ,-38, ,
4, ,-37, ,
1, ,-36, ,
6, ,-38, ,
6, ,-38, ,
4, ,-37, ,
3, ,-38, ,
3, ,-38, ,
3, ,-37, ,
5, ,-38, ,
-4, ,-38, ,
4, ,-38, ,
6, ,-38, ,
1, ,-37, ,
-1, ,-37, ,
5, ,-38, ,
0, ,-38, ,
0, ,-37, ,
-2, ,-37, ,
-1, ,-38, ,
0, ,-37, ,
0, ,-38, ,
-5, ,-37, ,
1, ,-37, ,
1, ,-37, ,
3, ,-38, ,
0, ,-37, ,
0, ,-38, ,
3, ,-38, ,
0, ,-37, ,
-4, ,-38, ,
-1, ,-38, ,
-1, ,-37, ,
3, ,-38, ,
-4, ,-37, ,
-1, ,-38, ,
3, ,-38, ,
-1, ,-38, ,
-2, ,-37, ,
1, ,-38, ,
1, ,-38, ,
1, ,-37, ,
0, ,-38, ,
0, ,-38, ,
4, ,-37, ,
3, ,-38, ,
-6, ,-37, ,
-7, ,-35, ,
1, ,-27, ,
0, ,-17, ,
1, ,-7, ,
6, ,1, ,
3, ,9, ,
3, ,16, ,
-1, ,21, ,
4, ,25, ,
3, ,30, ,
3, ,34, ,
-1, ,37, ,
8, ,39, ,
6, ,41, ,
4, ,43, ,
1, ,44, ,
8, ,47, ,
0, ,49, ,
1, ,49, ,
0, ,51, ,
0, ,52, ,
0, ,50, ,
5, ,53, ,
1, ,54, ,
8, ,53, ,
8, ,54, ,
4, ,54, ,
-6, ,53, ,
4, ,55, ,
3, ,54, ,
0, ,54, ,
-2, ,55, ,
0, ,56, ,
0, ,54, ,
3, ,56, ,
0, ,56, ,
8, ,55, ,
8, ,56, ,
4, ,56, ,
1, ,55, ,
6, ,57, ,
4, ,55, ,
6, ,56, ,
5, ,56, ,
6, ,56, ,
3, ,54, ,
0, ,56, ,
-6, ,56, ,
-2, ,56, ,
-2, ,56, ,
-2, ,56, ,
-1, ,54, ,
3, ,57, ,
4, ,55, ,
1, ,55, ,
-5, ,56, ,
0, ,56, ,
-1, ,54, ,
4, ,57, ,
4, ,56, ,
8, ,56, ,
8, ,56, ,
3, ,56, ,
4, ,54, ,
6, ,56, ,
-1, ,55, ,
0, ,55, ,
-5, ,56, ,
0, ,55, ,
1, ,54, ,
1, ,57, ,
-2, ,55, ,
0, ,55, ,
-1, ,56, ,
-1, ,56, ,
-6, ,53, ,
0, ,56, ,
1, ,55, ,
1, ,55, ,
-1, ,56, ,
3, ,56, ,
3, ,54, ,
4, ,56, ,
-4, ,55, ,
0, ,55, ,
-1, ,55, ,
-2, ,56, ,
-4, ,54, ,
3, ,56, ,
0, ,55, ,
0, ,55, ,
0, ,56, ,
-1, ,56, ,
3, ,54, ,
1, ,56, ,
-4, ,55, ,
3, ,55, ,
4, ,55, ,
4, ,56, ,
3, ,54, ,
6, ,56, ,
5, ,55, ,
4, ,55, ,
3, ,56, ,
4, ,56, ,
1, ,54, ,
4, ,56, ,
-4, ,55, ,
1, ,55, ,
3, ,55, ,
1, ,55, ,
0, ,54, ,
4, ,56, ,
4, ,55, ,
5, ,55, ,
6, ,55, ,
8, ,55, ,
6, ,53, ,
8, ,56, ,
0, ,56, ,
1, ,54, ,
0, ,56, ,
-1, ,56, ,
-5, ,54, ,
1, ,56, ,
4, ,55, ,
3, ,54, ,
4, ,56, ,
4, ,56, ,
4, ,53, ,
8, ,56, ,
3, ,55, ,
4, ,55, ,
6, ,55, ,
1, ,56, ,
1, ,54, ,
4, ,56, ,
3, ,55, ,
3, ,55, ,
0, ,56, ,
1, ,56, ,
3, ,53, ,
5, ,56, ,
1, ,56, ,
5, ,55, ,
5, ,55, ,
3, ,55, ,
-1, ,54, ,
3, ,56, ,
0, ,55, ,
1, ,54, ,
-1, ,56, ,
4, ,55, ,
3, ,54, ,
5, ,56, ,
-1, ,55, ,
1, ,55, ,
1, ,56, ,
0, ,56, ,
-6, ,54, ,
3, ,56, ,
1, ,55, ,
1, ,55, ,
1, ,56, ,
3, ,55, ,
1, ,53, ,
4, ,56, ,
-5, ,55, ,
1, ,55, ,
3, ,56, ,
0, ,56, ,
-2, ,53, ,
3, ,56, ,
1, ,55, ,
3, ,54, ,
0, ,56, ,
6, ,55, ,
5, ,53, ,
6, ,56, ,
3, ,55, ,
4, ,55, ,
4, ,55, ,
1, ,55, ,
0, ,54, ,
5, ,56, ,
3, ,55, ,
1, ,55, ,
-2, ,56, ,
1, ,55, ,
4, ,53, ,
3, ,56, ,
0, ,56, ,
3, ,55, ,
4, ,55, ,
1, ,56, ,
-1, ,54, ,
1, ,56, ,
0, ,55, ,
-4, ,55, ,
-9, ,56, ,
-9, ,55, ,
-11, ,54, ,
-9, ,56, ,
-11, ,56, ,
-7, ,55, ,
-1, ,56, ,
-4, ,55, ,
-4, ,54, ,
4, ,56, ,
8, ,55, ,
11, ,55, ,
8, ,56, ,
9, ,55, ,
6, ,53, ,
4, ,56, ,
-2, ,55, ,
0, ,55, ,
0, ,56, ,
0, ,55, ,
-1, ,54, ,
1, ,56, ,
3, ,54, ,
-2, ,55, ,
-5, ,55, ,
-6, ,55, ,
-5, ,53, ,
-1, ,56, ,
-7, ,55, ,
-2, ,55, ,
0, ,55, ,
-2, ,55, ,
-4, ,54, ,
1, ,56, ,
-1, ,55, ,
-1, ,55, ,
-1, ,55, ,
0, ,55, ,
1, ,53, ,
3, ,56, ,
-4, ,55, ,
1, ,55, ,
-2, ,55, ,
-4, ,56, ,
-9, ,54, ,
-4, ,56, ,
-5, ,55, ,
-1, ,55, ,
-2, ,56, ,
4, ,55, ,
1, ,53, ,
4, ,56, ,
-1, ,55, ,
1, ,55, ,
3, ,55, ,
1, ,56, ,
0, ,54, ,
3, ,56, ,
-1, ,54, ,
-1, ,54, ,
-2, ,56, ,
-2, ,55, ,
-1, ,53, ,
1, ,56, ,
-2, ,55, ,
4, ,55, ,
3, ,55, ,
4, ,56, ,
1, ,53, ,
5, ,56, ,
3, ,55, ,
-1, ,55, ,
-2, ,56, ,
-2, ,55, ,
-4, ,53, ,
3, ,56, ,
-1, ,55, ,
5, ,55, ,
5, ,55, ,
1, ,56, ,
3, ,54, ,
3, ,56, ,
3, ,55, ,
4, ,55, ,
0, ,55, ,
1, ,56, ,
1, ,53, ,
4, ,56, ,
-5, ,55, ,
1, ,55, ,
0, ,55, ,
1, ,56, ,
0, ,54, ,
5, ,56, ,
1, ,55, ,
1, ,55, ,
0, ,56, ,
1, ,55, ,
-1, ,53, ,
3, ,56, ,
-7, ,55, ,
-1, ,55, ,
3, ,55, ,
1, ,55, ,
1, ,54, ,
6, ,56, ,
3, ,55, ,
3, ,55, ,
1, ,55, ,
0, ,55, ,
3, ,53, ,
1, ,56, ,
-4, ,55, ,
3, ,55, ,
1, ,55, ,
1, ,55, ,
-2, ,54, ,
4, ,56, ,
1, ,55, ,
0, ,54, ,
-1, ,56, ,
1, ,55, ,
1, ,53, ,
5, ,56, ,
3, ,55, ,
4, ,55, ,
4, ,55, ,
4, ,56, ,
-1, ,54, ,
3, ,56, ,
1, ,55, ,
0, ,55, ,
-2, ,55, ,
1, ,55, ,
4, ,53, ,
4, ,56, ,
-1, ,55, ,
4, ,55, ,
5, ,55, ,
6, ,55, ,
4, ,54, ,
6, ,56, ,
3, ,54, ,
9, ,55, ,
6, ,56, ,
1, ,55, ,
1, ,53, ,
3, ,56, ,
1, ,55, ,
5, ,55, ,
5, ,55, ,
5, ,55, ,
0, ,54, ,
5, ,56, ,
5, ,55, ,
4, ,54, ,
4, ,55, ,
5, ,55, ,
5, ,53, ,
9, ,56, ,
3, ,56, ,
1, ,55, ,
3, ,55, ,
1, ,56, ,
0, ,54, ,
4, ,56, ,
4, ,55, ,
3, ,55, ,
1, ,55, ,
4, ,55, ,
4, ,53, ,
4, ,56, ,
-1, ,54, ,
6, ,55, ,
3, ,55, ,
3, ,55, ,
1, ,54, ,
5, ,56, ,
3, ,55, ,
4, ,55, ,
3, ,56, ,
4, ,55, ,
3, ,53, ,
1, ,56, ,
-1, ,55, ,
1, ,55, ,
3, ,55, ,
3, ,56, ,
1, ,53, ,
5, ,56, ,
0, ,55, ,
4, ,55, ,
4, ,56, ,
4, ,55, ,
3, ,53, ,
5, ,56, ,
3, ,55, ,
3, ,55, ,
3, ,55, ,
3, ,55, ,
0, ,54, ,
3, ,56, ,
-1, ,55, ,
4, ,54, ,
5, ,55, ,
6, ,55, ,
6, ,54, ,
9, ,56, ,
5, ,55, ,
9, ,55, ,
8, ,55, ,
6, ,55, ,
4, ,54, ,
9, ,56, ,
8, ,54, ,
6, ,55, ,
6, ,56, ,
9, ,55, ,
8, ,53, ,
11, ,56, ,
6, ,55, ,
5, ,55, ,
9, ,55, ,
5, ,55, ,
4, ,54, ,
5, ,56, ,
8, ,54, ,
10, ,55, ,
10, ,55, ,
6, ,55, ,
8, ,53, ,
8, ,56, ,
0, ,55, ,
3, ,54, ,
4, ,55, ,
4, ,55, ,
0, ,54, ,
10, ,56, ,
3, ,55, ,
8, ,55, ,
6, ,56, ,
4, ,55, ,
3, ,53, ,
9, ,56, ,
4, ,56, ,
6, ,55, ,
8, ,55, ,
5, ,56, ,
0, ,54, ,
4, ,56, ,
-1, ,55, ,
1, ,55, ,
3, ,56, ,
1, ,56, ,
5, ,54, ,
6, ,56, ,
0, ,55, ,
3, ,54, ,
1, ,55, ,
1, ,56, ,
-2, ,54, ,
1, ,56, ,
5, ,55, ,
1, ,54, ,
-2, ,56, ,
0, ,55, ,
-2, ,53, ,
0, ,56, ,
-7, ,55, ,
-2, ,55, ,
-1, ,55, ,
-2, ,55, ,
-2, ,54, ,
0, ,56, ,
0, ,55, ,
-1, ,55, ,
-2, ,56, ,
-1, ,55, ,
0, ,53, ,
3, ,56, ,
-1, ,55, ,
1, ,55, ,
4, ,55, ,
0, ,55, ,
-14, ,54, ,
-4, ,56, ,
4, ,55, ,
-2, ,54, ,
-2, ,56, ,
1, ,55, ,
-1, ,54, ,
0, ,56, ,
0, ,55, ,
3, ,55, ,
4, ,55, ,
1, ,56, ,
-1, ,54, ,
-1, ,56, ,
-5, ,54, ,
-2, ,55, ,
-5, ,56, ,
-2, ,56, ,
-1, ,54, ,
0, ,56, ,
-5, ,55, ,
-2, ,55, ,
-4, ,55, ,
-6, ,56, ,
-11, ,54, ,
-2, ,56, ,
-5, ,54, ,
-4, ,55, ,
-5, ,55, ,
-2, ,55, ,
-6, ,53, ,
-6, ,56, ,
-7, ,55, ,
-5, ,55, ,
-2, ,55, ,
-2, ,55, ,
-2, ,54, ,
1, ,56, ,
-6, ,55, ,
-4, ,55, ,
-7, ,55, ,
-6, ,55, ,
-6, ,54, ,
-4, ,56, ,
-6, ,55, ,
0, ,55, ,
-2, ,55, ,
-4, ,56, ,
-6, ,53, ,
-2, ,56, ,
-2, ,55, ,
-5, ,54, ,
-9, ,55, ,
-4, ,55, ,
-6, ,54, ,
-2, ,56, ,
-9, ,55, ,
-5, ,55, ,
-2, ,55, ,
-5, ,55, ,
-10, ,54, ,
-5, ,56, ,
-5, ,55, ,
3, ,54, ,
-1, ,55, ,
-2, ,55, ,
-2, ,53, ,
-2, ,56, ,
-7, ,56, ,
-2, ,55, ,
-4, ,56, ,
-4, ,55, ,
-5, ,53, ,
-4, ,56, ,
-5, ,55, ,
-4, ,55, ,
-2, ,56, ,
0, ,56, ,
1, ,53, ,
1, ,56, ,
0, ,55, ,
0, ,55, ,
5, ,55, ,
3, ,56, ,
-2, ,54, ,
0, ,56, ,
-6, ,55, ,
-4, ,55, ,
-6, ,55, ,
-4, ,55, ,
0, ,53, ,
0, ,56, ,
-2, ,55, ,
3, ,54, ,
6, ,55, ,
6, ,55, ,
6, ,54, ,
6, ,56, ,
4, ,54, ,
3, ,55, ,
0, ,56, ,
3, ,55, ,
0, ,53, ,
5, ,56, ,
-1, ,55, ,
3, ,55, ,
4, ,55, ,
1, ,55, ,
-1, ,54, ,
3, ,56, ,
0, ,55, ,
0, ,54, ,
1, ,56, ,
3, ,55, ,
3, ,54, ,
1, ,56, ,
-1, ,55, ,
3, ,55, ,
3, ,56, ,
1, ,56, ,
1, ,54, ,
3, ,56, ,
1, ,55, ,
1, ,55, ,
-4, ,56, ,
4, ,55, ,
-1, ,54, ,
0, ,56, ,
0, ,56, ,
5, ,55, ,
5, ,55, ,
4, ,55, ,
-1, ,54, ,
5, ,56, ,
-1, ,54, ,
4, ,55, ,
0, ,55, ,
0, ,55, ,
3, ,53, ,
1, ,56, ,
-2, ,55, ,
3, ,55, ,
4, ,56, ,
4, ,55, ,
0, ,54, ,
5, ,56, ,
4, ,55, ,
5, ,54, ,
4, ,56, ,
6, ,55, ,
6, ,53, ,
10, ,56, ,
1, ,55, ,
6, ,55, ,
6, ,55, ,
5, ,55, ,
4, ,54, ,
6, ,56, ,
6, ,55, ,
8, ,55, ,
3, ,56, ,
6, ,55, ,
5, ,53, ,
5, ,56, ,
1, ,55, ,
8, ,55, ,
6, ,55, ,
6, ,55, ,
1, ,53, ,
6, ,56, ,
6, ,55, ,
5, ,54, ,
5, ,56, ,
6, ,55, ,
5, ,53, ,
9, ,56, ,
4, ,55, ,
5, ,55, ,
6, ,55, ,
4, ,56, ,
4, ,54, ,
8, ,56, ,
6, ,55, ,
8, ,55, ,
6, ,56, ,
8, ,55, ,
9, ,53, ,
6, ,56, ,
1, ,55, ,
4, ,54, ,
3, ,55, ,
1, ,55, ,
-4, ,54, ,
4, ,56, ,
4, ,54, ,
4, ,54, ,
6, ,56, ,
8, ,55, ,
8, ,54, ,
8, ,56, ,
4, ,55, ,
4, ,55, ,
5, ,55, ,
1, ,56, ,
-1, ,54, ,
3, ,56, ,
1, ,55, ,
1, ,54, ,
3, ,56, ,
1, ,55, ,
4, ,53, ,
4, ,56, ,
1, ,56, ,
6, ,55, ,
5, ,55, ,
5, ,56, ,
3, ,54, ,
5, ,56, ,
6, ,55, ,
4, ,54, ,
1, ,56, ,
3, ,55, ,
1, ,53, ,
5, ,56, ,
0, ,55, ,
4, ,55, ,
4, ,56, ,
0, ,56, ,
-1, ,54, ,
3, ,56, ,
3, ,55, ,
5, ,55, ,
4, ,56, ,
6, ,55, ,
5, ,53, ,
8, ,56, ,
0, ,55, ,
1, ,55, ,
0, ,55, ,
-1, ,55, ,
-1, ,54, ,
4, ,56, ,
3, ,55, ,
3, ,55, ,
3, ,56, ,
1, ,55, ,
-1, ,54, ,
3, ,56, ,
-2, ,55, ,
4, ,55, ,
5, ,55, ,
3, ,55, ,
1, ,53, ,
5, ,56, ,
-1, ,55, ,
3, ,54, ,
-1, ,56, ,
1, ,55, ,
4, ,53, ,
5, ,56, ,
1, ,55, ,
6, ,55, ,
4, ,52, ,
-1, ,43, ,
-7, ,33, ,
-7, ,23, ,
-9, ,15, ,
-7, ,7, ,
-6, ,2, ,
-2, ,-3, ,
-4, ,-8, ,
-1, ,-13, ,
-9, ,-16, ,
-7, ,-19, ,
-6, ,-22, ,
-6, ,-24, ,
-6, ,-25, ,
-5, ,-28, ,
-5, ,-30, ,
-5, ,-31, ,
-7, ,-32, ,
-6, ,-33, ,
-5, ,-33, ,
-6, ,-35, ,
-9, ,-35, ,
-2, ,-35, ,
0, ,-36, ,
-1, ,-36, ,
-5, ,-35, ,
4, ,-37, ,
1, ,-37, ,
-1, ,-37, ,
-6, ,-38, ,
-2, ,-37, ,
-4, ,-37, ,
1, ,-38, ,
-1, ,-38, ,
-2, ,-38, ,
3, ,-38, ,
-1, ,-38, ,
-7, ,-37, ,
-2, ,-39, ,
-5, ,-38, ,
-2, ,-38, ,
-4, ,-38, ,
-2, ,-38, ,
3, ,-37, ,
0, ,-39, ,
-1, ,-38, ,
-1, ,-38, ,
-1, ,-38, ,
-4, ,-38, ,
-12, ,-37, ,
1, ,-39, ,
0, ,-38, ,
-4, ,-38, ,
0, ,-38, ,
-1, ,-38, ,
1, ,-37, ,
4, ,-38, ,
-1, ,-38, ,
-1, ,-38, ,
1, ,-38, ,
-1, ,-38, ,
-7, ,-37, ,
3, ,-39, ,
-2, ,-38, ,
-1, ,-38, ,
-4, ,-38, ,
-4, ,-38, ,
-1, ,-37, ,
-2, ,-38, ,
-6, ,-38, ,
1, ,-38, ,
1, ,-38, ,
4, ,-38, ,
1, ,-37, ,
3, ,-39, ,
3, ,-38, ,
-2, ,-38, ,
-5, ,-38, ,
-2, ,-38, ,
-4, ,-37, ,
5, ,-38, ,
-4, ,-38, ,
-1, ,-38, ,
5, ,-38, ,
-2, ,-37, ,
-5, ,-37, ,
-2, ,-38, ,
-2, ,-38, ,
-4, ,-37, ,
-4, ,-38, ,
1, ,-38, ,
-1, ,-37, ,
0, ,-38, ,
-4, ,-38, ,
-1, ,-38, ,
0, ,-38, ,
0, ,-38, ,
-2, ,-37, ,
0, ,-38, ,
-1, ,-38, ,
0, ,-37, ,
-2, ,-38, ,
0, ,-38, ,
0, ,-37, ,
-1, ,-38, ,
-4, ,-37, ,
0, ,-38, ,
3, ,-38, ,
0, ,-38, ,
-1, ,-37, ,
3, ,-38, ,
3, ,-38, ,
0, ,-37, ,
-1, ,-38, ,
-1, ,-38, ,
0, ,-37, ,
-1, ,-38, ,
-2, ,-38, ,
1, ,-37, ,
1, ,-38, ,
1, ,-38, ,
-1, ,-36, ,
4, ,-38, ,
3, ,-38, ,
0, ,-37, ,
0, ,-38, ,
1, ,-38, ,
1, ,-37, ,
4, ,-38, ,
0, ,-37, ,
5, ,-38, ,
8, ,-38, ,
5, ,-37, ,
1, ,-37, ,
5, ,-38, ,
1, ,-37, ,
3, ,-37, ,
0, ,-38, ,
0, ,-38, ,
0, ,-37, ,
3, ,-38, ,
-4, ,-38, ,
1, ,-38, ,
4, ,-37, ,
3, ,-38, ,
3, ,-37, ,
4, ,-38, ,
4, ,-38, ,
3, ,-37, ,
-2, ,-38, ,
0, ,-38, ,
-1, ,-37, ,
0, ,-38, ,
-5, ,-37, ,
0, ,-38, ,
5, ,-38, ,
1, ,-37, ,
0, ,-37, ,
6, ,-38, ,
3, ,-38, ,
3, ,-37, ,
1, ,-37, ,
0, ,-38, ,
3, ,-37, ,
4, ,-38, ,
-1, ,-37, ,
3, ,-38, ,
4, ,-37, ,
3, ,-38, ,
-1, ,-36, ,
1, ,-38, ,
1, ,-38, ,
4, ,-37, ,
3, ,-38, ,
4, ,-37, ,
5, ,-37, ,
6, ,-38, ,
1, ,-38, ,
4, ,-37, ,
3, ,-37, ,
0, ,-37, ,
-6, ,-37, ,
4, ,-38, ,
4, ,-37, ,
4, ,-37, ,
5, ,-38, ,
4, ,-38, ,
5, ,-37, ,
4, ,-38, ,
-2, ,-37, ,
3, ,-38, ,
4, ,-38, ,
4, ,-38, ,
4, ,-37, ,
8, ,-38, ,
9, ,-38, ,
4, ,-37, ,
4, ,-38, ,
4, ,-38, ,
4, ,-37, ,
3, ,-38, ,
1, ,-37, ,
4, ,-38, ,
6, ,-38, ,
1, ,-38, ,
5, ,-37, ,
4, ,-38, ,
4, ,-38, ,
4, ,-37, ,
4, ,-38, ,
6, ,-38, ,
8, ,-37, ,
8, ,-38, ,
4, ,-37, ,
4, ,-37, ,
4, ,-38, ,
0, ,-38, ,
-2, ,-37, ,
4, ,-38, ,
1, ,-38, ,
4, ,-37, ,
3, ,-38, ,
5, ,-37, ,
5, ,-37, ,
4, ,-38, ,
0, ,-37, ,
0, ,-37, ,
3, ,-38, ,
-1, ,-37, ,
-2, ,-37, ,
4, ,-38, ,
4, ,-38, ,
3, ,-37, ,
3, ,-38, ,
1, ,-38, ,
4, ,-37, ,
4, ,-38, ,
0, ,-37, ,
3, ,-38, ,
3, ,-38, ,
0, ,-38, ,
-4, ,-37, ,
3, ,-38, ,
4, ,-38, ,
0, ,-37, ,
0, ,-38, ,
1, ,-38, ,
3, ,-37, ,
6, ,-38, ,
0, ,-37, ,
3, ,-38, ,
6, ,-37, ,
0, ,-38, ,
-2, ,-37, ,
0, ,-38, ,
-2, ,-38, ,
-1, ,-37, ,
-2, ,-38, ,
0, ,-38, ,
0, ,-37, ,
4, ,-38, ,
-2, ,-37, ,
1, ,-37, ,
1, ,-38, ,
0, ,-38, ,
-6, ,-37, ,
3, ,-38, ,
3, ,-38, ,
1, ,-37, ,
1, ,-38, ,
4, ,-37, ,
3, ,-37, ,
3, ,-38, ,
-5, ,-37, ,
-1, ,-37, ,
3, ,-37, ,
-1, ,-37, ,
-1, ,-37, ,
5, ,-38, ,
3, ,-38, ,
4, ,-37, ,
-1, ,-38, ,
0, ,-38, ,
1, ,-37, ,
3, ,-38, ,
-1, ,-37, ,
1, ,-37, ,
5, ,-37, ,
0, ,-37, ,
-2, ,-37, ,
1, ,-38, ,
-1, ,-38, ,
1, ,-37, ,
-1, ,-38, ,
0, ,-37, ,
4, ,-37, ,
4, ,-38, ,
0, ,-37, ,
3, ,-38, ,
3, ,-37, ,
-2, ,-38, ,
-4, ,-37, ,
3, ,-38, ,
-1, ,-38, ,
0, ,-37, ,
-2, ,-37, ,
-2, ,-38, ,
1, ,-37, ,
0, ,-38, ,
-6, ,-37, ,
0, ,-37, ,
1, ,-38, ,
0, ,-37, ,
-4, ,-37, ,
1, ,-38, ,
0, ,-38, ,
-2, ,-37, ,
-2, ,-38, ,
-2, ,-37, ,
-2, ,-37, ,
-1, ,-38, ,
-5, ,-37, ,
0, ,-37, ,
3, ,-37, ,
-1, ,-37, ,
-5, ,-37, ,
0, ,-38, ,
0, ,-38, ,
-4, ,-37, ,
-1, ,-38, ,
-4, ,-38, ,
-4, ,-37, ,
1, ,-38, ,
-4, ,-38, ,
1, ,-37, ,
5, ,-37, ,
1, ,-38, ,
-1, ,-36, ,
-1, ,-38, ,
0, ,-38, ,
3, ,-37, ,
-1, ,-38, ,
3, ,-37, ,
3, ,-36, ,
4, ,-38, ,
-1, ,-37, ,
-1, ,-38, ,
4, ,-37, ,
-1, ,-37, ,
-1, ,-37, ,
1, ,-38, ,
0, ,-38, ,
-1, ,-37, ,
-1, ,-38, ,
1, ,-38, ,
8, ,-37, ,
5, ,-38, ,
4, ,-37, ,
0, ,-38, ,
-2, ,-38, ,
-4, ,-37, ,
-5, ,-37, ,
0, ,-38, ,
1, ,-37, ,
-1, ,-37, ,
-2, ,-38, ,
-2, ,-37, ,
-6, ,-37, ,
-5, ,-38, ,
-6, ,-37, ,
-1, ,-38, ,
6, ,-37, ,
4, ,-37, ,
1, ,-37, ,
3, ,-38, ,
-1, ,-37, ,
-1, ,-37, ,
-4, ,-38, ,
1, ,-38, ,
6, ,-37, ,
8, ,-38, ,
4, ,-38, ,
10, ,-37, ,
6, ,-37, ,
1, ,-38, ,
-2, ,-36, ,
0, ,-38, ,
0, ,-38, ,
-5, ,-37, ,
-7, ,-38, ,
-5, ,-38, ,
-4, ,-37, ,
-2, ,-38, ,
-10, ,-37, ,
-2, ,-38, ,
3, ,-37, ,
-1, ,-38, ,
-2, ,-37, ,
3, ,-38, ,
3, ,-37, ,
1, ,-37, ,
1, ,-37, ,
0, ,-38, ,
3, ,-37, ,
-1, ,-38, ,
-5, ,-37, ,
0, ,-37, ,
3, ,-37, ,
1, ,-37, ,
-2, ,-36, ,
5, ,-38, ,
5, ,-37, ,
6, ,-37, ,
6, ,-38, ,
8, ,-38, ,
6, ,-37, ,
9, ,-38, ,
4, ,-38, ,
6, ,-38, ,
8, ,-38, ,
1, ,-37, ,
-1, ,-37, ,
3, ,-38, ,
0, ,-38, ,
-5, ,-37, ,
-4, ,-37, ,
-2, ,-38, ,
0, ,-37, ,
3, ,-38, ,
0, ,-37, ,
1, ,-37, ,
3, ,-37, ,
1, ,-38, ,
-1, ,-37, ,
3, ,-38, ,
5, ,-38, ,
4, ,-37, ,
4, ,-38, ,
5, ,-38, ,
4, ,-37, ,
4, ,-38, ,
1, ,-37, ,
3, ,-38, ,
5, ,-38, ,
0, ,-38, ,
0, ,-37, ,
5, ,-38, ,
4, ,-38, ,
5, ,-37, ,
0, ,-37, ,
5, ,-38, ,
5, ,-37, ,
6, ,-38, ,
1, ,-37, ,
4, ,-37, ,
6, ,-37, ,
5, ,-38, ,
3, ,-37, ,
6, ,-38, ,
4, ,-38, ,
1, ,-37, ,
-2, ,-38, ,
0, ,-37, ,
0, ,-37, ,
-1, ,-38, ,
-5, ,-37, ,
0, ,-37, ,
3, ,-37, ,
-2, ,-37, ,
-5, ,-37, ,
1, ,-38, ,
