src/vary_am2_1412/temp0000980.CSV

Format,1.0B,
Memory Length,10000,Memory Length,10000,
IntpDistance,0,IntpDistance,0,
Trigger Address,4999,Trigger Address,4999,
Trigger Level,9.600E-01,Trigger Level,9.600E-01,
Source,CH1,Source,CH2,
Vertical Units,V,Vertical Units,V,
Vertical Units Div,0,Vertical Units Div,0,
Vertical Units Extend Div,16,Vertical Units Extend Div,16,
Label,,Label,,
Probe Type,0,Probe Type,0,
Probe Ratio,1.000e+01,Probe Ratio,1.000e+00,
Vertical Scale,2.000e-02,Vertical Scale,1.000e+00,
Vertical Position,-5.120e-02,Vertical Position,0.000e+00,
Horizontal Units,S,Horizontal Units,S,
Horizontal Scale,1.000E-05,Horizontal Scale,1.000E-05,
Horizontal Position,0.000E+00,Horizontal Position,0.000E+00,
Horizontal Mode,Main,Horizontal Mode,Main,
SincET Mode,Real Time,SincET Mode,Real Time,
Sampling Period,1.000e-08,Sampling Period,1.000e-08,
Horizontal Old Scale,1.000E-05,Horizontal Old Scale,1.000E-05,
Horizontal Old Position,0.000E+00,Horizontal Old Position,0.000E+00,
Firmware,V1.23,Firmware,V1.23,
Mode,Fast,Mode,Fast,
Waveform Data,,Waveform Data,,
0, ,-46, ,
-4, ,-45, ,
-1, ,-46, ,
4, ,-45, ,
4, ,-45, ,
0, ,-44, ,
3, ,-46, ,
-1, ,-45, ,
-1, ,-45, ,
0, ,-46, ,
1, ,-46, ,
1, ,-44, ,
3, ,-46, ,
1, ,-45, ,
6, ,-46, ,
5, ,-46, ,
3, ,-46, ,
-4, ,-45, ,
-2, ,-47, ,
-1, ,-46, ,
-1, ,-46, ,
-4, ,-46, ,
0, ,-46, ,
-1, ,-44, ,
-1, ,-46, ,
-4, ,-46, ,
-2, ,-46, ,
1, ,-45, ,
3, ,-45, ,
4, ,-44, ,
8, ,-46, ,
5, ,-46, ,
4, ,-45, ,
3, ,-46, ,
1, ,-46, ,
1, ,-44, ,
-1, ,-46, ,
-4, ,-45, ,
3, ,-46, ,
4, ,-45, ,
5, ,-45, ,
4, ,-45, ,
10, ,-46, ,
6, ,-45, ,
4, ,-46, ,
4, ,-46, ,
5, ,-46, ,
6, ,-44, ,
3, ,-46, ,
0, ,-45, ,
1, ,-46, ,
1, ,-45, ,
1, ,-45, ,
0, ,-44, ,
4, ,-47, ,
3, ,-45, ,
4, ,-45, ,
3, ,-46, ,
3, ,-46, ,
4, ,-44, ,
5, ,-46, ,
-1, ,-45, ,
3, ,-46, ,
1, ,-45, ,
3, ,-46, ,
1, ,-45, ,
4, ,-46, ,
4, ,-45, ,
3, ,-45, ,
1, ,-46, ,
3, ,-46, ,
3, ,-45, ,
4, ,-46, ,
-6, ,-46, ,
1, ,-46, ,
1, ,-46, ,
3, ,-46, ,
1, ,-44, ,
1, ,-46, ,
4, ,-45, ,
1, ,-45, ,
-1, ,-46, ,
1, ,-45, ,
1, ,-44, ,
0, ,-46, ,
-6, ,-46, ,
-4, ,-45, ,
1, ,-45, ,
1, ,-46, ,
-1, ,-45, ,
6, ,-46, ,
4, ,-45, ,
1, ,-45, ,
0, ,-46, ,
0, ,-46, ,
1, ,-44, ,
1, ,-46, ,
-2, ,-46, ,
-1, ,-45, ,
3, ,-46, ,
0, ,-46, ,
-2, ,-44, ,
5, ,-46, ,
1, ,-45, ,
4, ,-45, ,
4, ,-46, ,
3, ,-46, ,
4, ,-44, ,
3, ,-46, ,
-1, ,-45, ,
1, ,-46, ,
0, ,-45, ,
0, ,-45, ,
0, ,-45, ,
6, ,-46, ,
5, ,-45, ,
4, ,-45, ,
6, ,-46, ,
4, ,-46, ,
4, ,-44, ,
4, ,-46, ,
-5, ,-45, ,
1, ,-46, ,
0, ,-46, ,
0, ,-46, ,
-2, ,-44, ,
1, ,-47, ,
3, ,-45, ,
1, ,-45, ,
0, ,-46, ,
0, ,-46, ,
-2, ,-45, ,
-6, ,-46, ,
-11, ,-45, ,
-10, ,-46, ,
-6, ,-45, ,
-9, ,-46, ,
-12, ,-44, ,
-7, ,-46, ,
-5, ,-46, ,
-6, ,-45, ,
-6, ,-46, ,
-2, ,-46, ,
3, ,-45, ,
8, ,-47, ,
9, ,-46, ,
11, ,-46, ,
18, ,-45, ,
9, ,-45, ,
5, ,-45, ,
5, ,-46, ,
-5, ,-45, ,
-2, ,-45, ,
-6, ,-46, ,
-5, ,-45, ,
-1, ,-44, ,
-4, ,-46, ,
-6, ,-45, ,
-2, ,-46, ,
-1, ,-45, ,
-4, ,-45, ,
-6, ,-45, ,
-2, ,-46, ,
-1, ,-45, ,
-1, ,-45, ,
-2, ,-46, ,
-1, ,-46, ,
-1, ,-44, ,
-1, ,-46, ,
-4, ,-46, ,
3, ,-46, ,
1, ,-45, ,
0, ,-46, ,
-4, ,-44, ,
1, ,-46, ,
0, ,-45, ,
-4, ,-45, ,
-6, ,-46, ,
-6, ,-46, ,
-1, ,-45, ,
0, ,-46, ,
-2, ,-45, ,
3, ,-46, ,
4, ,-46, ,
3, ,-46, ,
1, ,-45, ,
0, ,-46, ,
0, ,-45, ,
-4, ,-45, ,
-5, ,-46, ,
-4, ,-46, ,
-2, ,-44, ,
0, ,-46, ,
-2, ,-45, ,
3, ,-46, ,
5, ,-46, ,
-1, ,-46, ,
0, ,-44, ,
3, ,-47, ,
1, ,-45, ,
3, ,-45, ,
1, ,-45, ,
4, ,-46, ,
4, ,-44, ,
1, ,-46, ,
-1, ,-45, ,
1, ,-46, ,
1, ,-45, ,
0, ,-46, ,
3, ,-44, ,
8, ,-46, ,
5, ,-46, ,
3, ,-45, ,
1, ,-46, ,
0, ,-46, ,
1, ,-44, ,
3, ,-46, ,
-2, ,-46, ,
1, ,-45, ,
8, ,-45, ,
4, ,-46, ,
0, ,-44, ,
4, ,-46, ,
0, ,-46, ,
1, ,-45, ,
3, ,-46, ,
0, ,-46, ,
4, ,-44, ,
5, ,-46, ,
1, ,-45, ,
1, ,-45, ,
1, ,-45, ,
1, ,-45, ,
-4, ,-45, ,
1, ,-46, ,
4, ,-45, ,
0, ,-45, ,
3, ,-46, ,
4, ,-46, ,
3, ,-44, ,
3, ,-46, ,
-2, ,-46, ,
1, ,-45, ,
3, ,-45, ,
-1, ,-46, ,
1, ,-44, ,
3, ,-47, ,
3, ,-45, ,
3, ,-45, ,
-1, ,-46, ,
4, ,-46, ,
6, ,-45, ,
5, ,-46, ,
4, ,-46, ,
8, ,-46, ,
9, ,-45, ,
5, ,-46, ,
3, ,-45, ,
5, ,-47, ,
4, ,-45, ,
1, ,-45, ,
0, ,-46, ,
3, ,-46, ,
3, ,-44, ,
5, ,-46, ,
5, ,-45, ,
6, ,-45, ,
10, ,-45, ,
5, ,-45, ,
0, ,-44, ,
6, ,-46, ,
4, ,-45, ,
1, ,-45, ,
3, ,-46, ,
3, ,-46, ,
5, ,-45, ,
4, ,-46, ,
3, ,-45, ,
5, ,-46, ,
6, ,-46, ,
5, ,-46, ,
4, ,-45, ,
5, ,-46, ,
5, ,-45, ,
5, ,-46, ,
5, ,-46, ,
5, ,-46, ,
4, ,-44, ,
5, ,-46, ,
-1, ,-45, ,
3, ,-45, ,
4, ,-45, ,
3, ,-46, ,
-1, ,-44, ,
8, ,-47, ,
3, ,-45, ,
4, ,-45, ,
0, ,-46, ,
1, ,-46, ,
1, ,-44, ,
1, ,-46, ,
-2, ,-46, ,
3, ,-46, ,
5, ,-45, ,
9, ,-46, ,
3, ,-45, ,
5, ,-46, ,
4, ,-46, ,
0, ,-46, ,
-1, ,-46, ,
3, ,-46, ,
3, ,-44, ,
4, ,-46, ,
0, ,-45, ,
1, ,-46, ,
4, ,-45, ,
1, ,-46, ,
-2, ,-44, ,
3, ,-47, ,
1, ,-45, ,
1, ,-45, ,
-1, ,-46, ,
3, ,-46, ,
3, ,-44, ,
1, ,-46, ,
-2, ,-45, ,
0, ,-46, ,
1, ,-45, ,
1, ,-46, ,
1, ,-45, ,
6, ,-46, ,
4, ,-46, ,
3, ,-45, ,
-1, ,-46, ,
0, ,-46, ,
0, ,-45, ,
0, ,-46, ,
-4, ,-46, ,
1, ,-46, ,
8, ,-46, ,
5, ,-46, ,
4, ,-44, ,
8, ,-46, ,
6, ,-45, ,
8, ,-45, ,
4, ,-46, ,
3, ,-46, ,
5, ,-44, ,
4, ,-46, ,
1, ,-45, ,
4, ,-46, ,
4, ,-45, ,
4, ,-46, ,
0, ,-45, ,
8, ,-46, ,
8, ,-46, ,
5, ,-45, ,
8, ,-46, ,
6, ,-46, ,
6, ,-44, ,
6, ,-46, ,
4, ,-46, ,
6, ,-46, ,
4, ,-45, ,
3, ,-46, ,
1, ,-44, ,
5, ,-47, ,
5, ,-45, ,
3, ,-45, ,
3, ,-46, ,
6, ,-46, ,
6, ,-45, ,
6, ,-46, ,
3, ,-46, ,
5, ,-45, ,
3, ,-45, ,
-1, ,-46, ,
-4, ,-45, ,
1, ,-46, ,
-1, ,-46, ,
1, ,-45, ,
1, ,-46, ,
3, ,-46, ,
3, ,-44, ,
0, ,-46, ,
-1, ,-45, ,
-1, ,-45, ,
4, ,-45, ,
0, ,-46, ,
-2, ,-44, ,
3, ,-46, ,
-1, ,-45, ,
1, ,-45, ,
-1, ,-46, ,
1, ,-46, ,
1, ,-44, ,
1, ,-46, ,
-4, ,-45, ,
1, ,-45, ,
-1, ,-46, ,
0, ,-45, ,
-5, ,-45, ,
-2, ,-46, ,
-1, ,-45, ,
-2, ,-45, ,
-2, ,-46, ,
-1, ,-46, ,
-1, ,-44, ,
-1, ,-46, ,
-6, ,-45, ,
-4, ,-46, ,
-1, ,-45, ,
0, ,-45, ,
-11, ,-44, ,
-1, ,-47, ,
1, ,-46, ,
-4, ,-45, ,
-1, ,-46, ,
-2, ,-45, ,
0, ,-44, ,
1, ,-46, ,
-2, ,-45, ,
1, ,-46, ,
1, ,-45, ,
-1, ,-46, ,
-2, ,-45, ,
-1, ,-47, ,
-4, ,-45, ,
-4, ,-46, ,
-5, ,-46, ,
-1, ,-46, ,
-4, ,-44, ,
0, ,-46, ,
-5, ,-45, ,
-2, ,-45, ,
0, ,-46, ,
-5, ,-46, ,
-9, ,-44, ,
-4, ,-47, ,
-7, ,-45, ,
-2, ,-45, ,
-6, ,-46, ,
-2, ,-46, ,
-2, ,-45, ,
-2, ,-46, ,
-2, ,-46, ,
-2, ,-46, ,
-1, ,-45, ,
-5, ,-46, ,
-10, ,-44, ,
-2, ,-47, ,
-7, ,-46, ,
-5, ,-46, ,
-4, ,-46, ,
-4, ,-46, ,
-4, ,-44, ,
-1, ,-46, ,
-5, ,-46, ,
-2, ,-45, ,
1, ,-45, ,
-5, ,-45, ,
-7, ,-44, ,
-2, ,-46, ,
-4, ,-46, ,
-4, ,-45, ,
-6, ,-46, ,
-5, ,-46, ,
-2, ,-44, ,
-4, ,-46, ,
-6, ,-45, ,
-2, ,-46, ,
-4, ,-45, ,
-4, ,-45, ,
-6, ,-44, ,
0, ,-46, ,
-2, ,-45, ,
-6, ,-45, ,
-5, ,-46, ,
-5, ,-46, ,
-6, ,-45, ,
-4, ,-47, ,
-7, ,-45, ,
-2, ,-45, ,
-1, ,-45, ,
-2, ,-45, ,
-7, ,-44, ,
-2, ,-47, ,
-5, ,-45, ,
-2, ,-45, ,
-2, ,-46, ,
1, ,-46, ,
1, ,-44, ,
1, ,-46, ,
-1, ,-45, ,
-1, ,-46, ,
0, ,-45, ,
-2, ,-46, ,
0, ,-44, ,
0, ,-46, ,
0, ,-45, ,
1, ,-46, ,
-2, ,-46, ,
-1, ,-46, ,
0, ,-45, ,
1, ,-46, ,
-4, ,-45, ,
1, ,-45, ,
8, ,-46, ,
3, ,-46, ,
1, ,-44, ,
6, ,-47, ,
1, ,-45, ,
-1, ,-45, ,
-1, ,-46, ,
-1, ,-46, ,
1, ,-45, ,
0, ,-46, ,
3, ,-45, ,
4, ,-46, ,
5, ,-45, ,
0, ,-41, ,
0, ,-32, ,
8, ,-22, ,
8, ,-13, ,
10, ,-4, ,
9, ,3, ,
8, ,9, ,
9, ,14, ,
11, ,19, ,
5, ,23, ,
11, ,26, ,
13, ,30, ,
5, ,32, ,
3, ,33, ,
6, ,37, ,
6, ,37, ,
8, ,39, ,
6, ,40, ,
4, ,41, ,
4, ,41, ,
4, ,43, ,
-1, ,43, ,
3, ,44, ,
4, ,44, ,
5, ,45, ,
3, ,43, ,
6, ,46, ,
5, ,45, ,
4, ,45, ,
4, ,46, ,
4, ,46, ,
4, ,45, ,
8, ,47, ,
5, ,46, ,
5, ,46, ,
10, ,47, ,
0, ,47, ,
1, ,45, ,
10, ,49, ,
3, ,46, ,
8, ,47, ,
5, ,47, ,
5, ,47, ,
6, ,45, ,
5, ,47, ,
6, ,46, ,
8, ,47, ,
9, ,47, ,
10, ,47, ,
6, ,46, ,
8, ,47, ,
5, ,46, ,
1, ,46, ,
-2, ,47, ,
3, ,47, ,
1, ,45, ,
4, ,47, ,
-4, ,46, ,
5, ,46, ,
13, ,47, ,
11, ,47, ,
8, ,45, ,
10, ,47, ,
5, ,47, ,
8, ,46, ,
6, ,47, ,
4, ,46, ,
6, ,45, ,
5, ,47, ,
0, ,47, ,
5, ,47, ,
4, ,46, ,
4, ,47, ,
1, ,45, ,
5, ,47, ,
5, ,46, ,
3, ,46, ,
5, ,46, ,
4, ,46, ,
4, ,45, ,
5, ,47, ,
0, ,47, ,
4, ,46, ,
6, ,46, ,
5, ,47, ,
4, ,45, ,
8, ,47, ,
5, ,46, ,
6, ,46, ,
3, ,47, ,
3, ,47, ,
5, ,45, ,
5, ,47, ,
1, ,46, ,
4, ,46, ,
4, ,46, ,
4, ,47, ,
-4, ,45, ,
4, ,47, ,
5, ,46, ,
-1, ,46, ,
1, ,46, ,
9, ,47, ,
0, ,45, ,
4, ,47, ,
1, ,46, ,
3, ,46, ,
3, ,46, ,
3, ,46, ,
1, ,45, ,
4, ,47, ,
3, ,46, ,
5, ,46, ,
-1, ,46, ,
0, ,46, ,
4, ,45, ,
0, ,47, ,
-5, ,46, ,
0, ,46, ,
3, ,46, ,
4, ,47, ,
-1, ,45, ,
5, ,47, ,
4, ,46, ,
1, ,46, ,
3, ,46, ,
3, ,47, ,
4, ,45, ,
3, ,47, ,
-2, ,46, ,
3, ,46, ,
3, ,46, ,
3, ,46, ,
-5, ,45, ,
0, ,47, ,
1, ,46, ,
4, ,46, ,
3, ,46, ,
3, ,46, ,
4, ,45, ,
4, ,47, ,
-2, ,46, ,
3, ,46, ,
1, ,46, ,
0, ,46, ,
-2, ,45, ,
1, ,47, ,
1, ,46, ,
3, ,46, ,
0, ,46, ,
1, ,46, ,
3, ,45, ,
4, ,47, ,
-4, ,46, ,
0, ,46, ,
0, ,46, ,
-2, ,46, ,
-5, ,45, ,
0, ,47, ,
-2, ,45, ,
-1, ,46, ,
-2, ,46, ,
0, ,46, ,
1, ,45, ,
3, ,47, ,
-2, ,46, ,
0, ,46, ,
-1, ,46, ,
-5, ,47, ,
-6, ,45, ,
-4, ,47, ,
-2, ,46, ,
-4, ,46, ,
-6, ,46, ,
-4, ,46, ,
-4, ,45, ,
0, ,47, ,
-2, ,46, ,
-1, ,46, ,
0, ,47, ,
-4, ,46, ,
-9, ,45, ,
-5, ,47, ,
-6, ,46, ,
-4, ,46, ,
-5, ,46, ,
-2, ,47, ,
0, ,45, ,
-1, ,47, ,
-6, ,47, ,
-5, ,46, ,
-4, ,46, ,
-4, ,47, ,
-9, ,45, ,
-1, ,47, ,
-1, ,46, ,
-4, ,46, ,
-4, ,46, ,
-4, ,46, ,
-1, ,45, ,
-2, ,47, ,
-6, ,46, ,
-1, ,46, ,
-1, ,46, ,
-4, ,46, ,
-6, ,45, ,
-5, ,47, ,
-6, ,46, ,
-5, ,46, ,
-5, ,46, ,
-4, ,46, ,
-2, ,45, ,
-1, ,47, ,
-5, ,46, ,
-1, ,47, ,
-1, ,46, ,
-2, ,47, ,
-4, ,45, ,
-4, ,47, ,
-1, ,46, ,
-2, ,46, ,
-2, ,46, ,
-1, ,46, ,
0, ,45, ,
1, ,47, ,
-2, ,46, ,
-2, ,46, ,
3, ,46, ,
0, ,47, ,
-2, ,45, ,
0, ,47, ,
-2, ,46, ,
1, ,46, ,
-5, ,47, ,
-1, ,46, ,
0, ,45, ,
-1, ,47, ,
-6, ,46, ,
1, ,46, ,
1, ,46, ,
3, ,47, ,
-2, ,45, ,
1, ,47, ,
0, ,46, ,
-1, ,45, ,
-2, ,46, ,
-1, ,46, ,
0, ,44, ,
-1, ,47, ,
-2, ,46, ,
1, ,46, ,
3, ,46, ,
3, ,46, ,
-2, ,45, ,
3, ,47, ,
0, ,46, ,
0, ,46, ,
-1, ,46, ,
0, ,46, ,
0, ,45, ,
1, ,47, ,
-4, ,46, ,
3, ,46, ,
1, ,46, ,
-1, ,46, ,
-5, ,45, ,
1, ,47, ,
1, ,46, ,
0, ,46, ,
0, ,46, ,
5, ,46, ,
-2, ,45, ,
3, ,47, ,
-4, ,46, ,
-1, ,46, ,
0, ,46, ,
-1, ,46, ,
-2, ,45, ,
3, ,47, ,
1, ,46, ,
5, ,46, ,
3, ,46, ,
4, ,46, ,
3, ,45, ,
4, ,47, ,
3, ,46, ,
4, ,46, ,
5, ,46, ,
5, ,46, ,
3, ,45, ,
5, ,47, ,
1, ,46, ,
0, ,46, ,
-2, ,46, ,
0, ,46, ,
4, ,45, ,
4, ,47, ,
0, ,46, ,
6, ,46, ,
9, ,46, ,
6, ,46, ,
3, ,45, ,
8, ,47, ,
5, ,46, ,
5, ,46, ,
4, ,46, ,
3, ,46, ,
5, ,45, ,
4, ,47, ,
0, ,46, ,
4, ,46, ,
3, ,46, ,
4, ,46, ,
1, ,45, ,
8, ,47, ,
8, ,46, ,
5, ,46, ,
4, ,46, ,
1, ,46, ,
1, ,45, ,
6, ,47, ,
0, ,46, ,
5, ,46, ,
8, ,46, ,
5, ,46, ,
0, ,45, ,
5, ,47, ,
4, ,45, ,
5, ,46, ,
1, ,46, ,
4, ,46, ,
4, ,45, ,
9, ,46, ,
3, ,46, ,
5, ,46, ,
6, ,46, ,
6, ,46, ,
5, ,45, ,
5, ,47, ,
6, ,46, ,
4, ,46, ,
0, ,46, ,
4, ,46, ,
1, ,45, ,
0, ,47, ,
0, ,46, ,
6, ,46, ,
5, ,46, ,
3, ,46, ,
3, ,45, ,
4, ,47, ,
5, ,46, ,
6, ,46, ,
0, ,46, ,
4, ,46, ,
5, ,45, ,
5, ,46, ,
1, ,46, ,
3, ,46, ,
5, ,46, ,
5, ,46, ,
3, ,45, ,
6, ,47, ,
8, ,46, ,
6, ,46, ,
6, ,46, ,
4, ,46, ,
3, ,45, ,
1, ,47, ,
-1, ,46, ,
5, ,46, ,
5, ,46, ,
5, ,46, ,
1, ,45, ,
4, ,47, ,
6, ,46, ,
9, ,46, ,
4, ,46, ,
4, ,46, ,
5, ,45, ,
3, ,47, ,
0, ,46, ,
4, ,46, ,
5, ,46, ,
3, ,46, ,
0, ,45, ,
5, ,47, ,
6, ,46, ,
5, ,46, ,
6, ,46, ,
6, ,46, ,
4, ,45, ,
4, ,47, ,
-2, ,46, ,
0, ,46, ,
1, ,46, ,
-1, ,46, ,
-1, ,45, ,
4, ,47, ,
1, ,45, ,
4, ,46, ,
0, ,46, ,
4, ,46, ,
3, ,45, ,
3, ,47, ,
0, ,46, ,
0, ,46, ,
3, ,46, ,
0, ,47, ,
-4, ,45, ,
4, ,47, ,
-1, ,46, ,
0, ,46, ,
-2, ,46, ,
0, ,46, ,
0, ,45, ,
3, ,47, ,
-1, ,46, ,
4, ,46, ,
4, ,46, ,
1, ,46, ,
-5, ,45, ,
0, ,47, ,
0, ,46, ,
0, ,46, ,
0, ,46, ,
0, ,46, ,
3, ,45, ,
3, ,47, ,
-4, ,46, ,
0, ,46, ,
-2, ,46, ,
-4, ,46, ,
-7, ,45, ,
-1, ,47, ,
0, ,46, ,
-4, ,46, ,
0, ,46, ,
1, ,46, ,
1, ,44, ,
5, ,46, ,
-1, ,46, ,
0, ,46, ,
1, ,46, ,
-1, ,46, ,
-2, ,45, ,
0, ,47, ,
-1, ,46, ,
1, ,46, ,
0, ,46, ,
-1, ,46, ,
1, ,45, ,
4, ,47, ,
-5, ,46, ,
-1, ,46, ,
-1, ,46, ,
-1, ,46, ,
-5, ,45, ,
-1, ,47, ,
-1, ,46, ,
-1, ,45, ,
-6, ,46, ,
-1, ,46, ,
0, ,45, ,
3, ,47, ,
-2, ,46, ,
0, ,46, ,
4, ,46, ,
-2, ,46, ,
-7, ,45, ,
-4, ,47, ,
-6, ,46, ,
-2, ,46, ,
-4, ,46, ,
-2, ,46, ,
1, ,45, ,
1, ,46, ,
-1, ,46, ,
1, ,46, ,
0, ,46, ,
0, ,47, ,
-6, ,45, ,
-2, ,47, ,
0, ,46, ,
-2, ,46, ,
-2, ,46, ,
-4, ,46, ,
-5, ,45, ,
-4, ,47, ,
-9, ,46, ,
-4, ,46, ,
1, ,47, ,
3, ,46, ,
-1, ,45, ,
4, ,47, ,
-1, ,45, ,
-5, ,46, ,
-6, ,46, ,
-5, ,46, ,
-5, ,45, ,
-1, ,47, ,
-4, ,46, ,
0, ,46, ,
0, ,46, ,
-1, ,46, ,
-7, ,45, ,
-4, ,47, ,
-1, ,46, ,
-4, ,46, ,
-4, ,46, ,
-1, ,46, ,
0, ,44, ,
0, ,47, ,
-5, ,46, ,
-1, ,46, ,
-1, ,46, ,
-2, ,46, ,
-6, ,44, ,
-2, ,47, ,
-2, ,46, ,
-1, ,46, ,
-1, ,46, ,
3, ,46, ,
4, ,45, ,
4, ,47, ,
-4, ,46, ,
0, ,46, ,
3, ,46, ,
0, ,47, ,
0, ,45, ,
4, ,47, ,
3, ,46, ,
0, ,46, ,
-1, ,46, ,
3, ,47, ,
0, ,45, ,
0, ,47, ,
-5, ,46, ,
5, ,46, ,
5, ,46, ,
4, ,46, ,
1, ,45, ,
3, ,46, ,
3, ,46, ,
4, ,46, ,
-2, ,46, ,
1, ,47, ,
3, ,45, ,
3, ,46, ,
0, ,46, ,
5, ,46, ,
3, ,46, ,
4, ,46, ,
-2, ,45, ,
1, ,47, ,
1, ,46, ,
0, ,45, ,
-2, ,46, ,
0, ,46, ,
1, ,45, ,
5, ,47, ,
-2, ,46, ,
0, ,46, ,
3, ,46, ,
1, ,46, ,
-4, ,45, ,
1, ,47, ,
0, ,46, ,
1, ,46, ,
0, ,46, ,
3, ,46, ,
3, ,45, ,
1, ,47, ,
-2, ,46, ,
0, ,46, ,
3, ,46, ,
3, ,46, ,
3, ,45, ,
4, ,47, ,
5, ,46, ,
0, ,46, ,
-1, ,46, ,
1, ,46, ,
4, ,45, ,
6, ,47, ,
3, ,46, ,
1, ,46, ,
5, ,46, ,
4, ,46, ,
-4, ,45, ,
1, ,47, ,
-4, ,46, ,
-2, ,46, ,
-7, ,46, ,
-2, ,47, ,
1, ,45, ,
1, ,47, ,
3, ,46, ,
8, ,46, ,
9, ,46, ,
5, ,47, ,
0, ,45, ,
8, ,47, ,
5, ,46, ,
5, ,46, ,
3, ,46, ,
3, ,46, ,
1, ,44, ,
4, ,47, ,
0, ,46, ,
5, ,46, ,
4, ,46, ,
6, ,46, ,
8, ,45, ,
10, ,47, ,
8, ,46, ,
8, ,46, ,
5, ,46, ,
4, ,46, ,
0, ,45, ,
1, ,47, ,
-2, ,46, ,
5, ,46, ,
6, ,46, ,
5, ,47, ,
3, ,45, ,
5, ,47, ,
4, ,46, ,
1, ,46, ,
3, ,46, ,
4, ,46, ,
3, ,45, ,
4, ,47, ,
-2, ,46, ,
3, ,46, ,
8, ,46, ,
1, ,46, ,
4, ,45, ,
6, ,47, ,
6, ,46, ,
8, ,46, ,
1, ,46, ,
3, ,46, ,
4, ,45, ,
1, ,46, ,
-2, ,46, ,
1, ,46, ,
1, ,46, ,
1, ,46, ,
1, ,45, ,
3, ,47, ,
4, ,46, ,
3, ,45, ,
3, ,47, ,
4, ,46, ,
1, ,45, ,
3, ,47, ,
-6, ,46, ,
-1, ,46, ,
1, ,46, ,
1, ,46, ,
-2, ,45, ,
5, ,47, ,
3, ,46, ,
3, ,46, ,
1, ,46, ,
0, ,46, ,
3, ,45, ,
1, ,47, ,
-5, ,46, ,
1, ,46, ,
3, ,46, ,
1, ,46, ,
-4, ,45, ,
1, ,47, ,
1, ,46, ,
3, ,46, ,
0, ,46, ,
1, ,46, ,
1, ,45, ,
5, ,47, ,
0, ,46, ,
3, ,46, ,
4, ,46, ,
0, ,46, ,
0, ,44, ,
3, ,47, ,
1, ,46, ,
4, ,46, ,
6, ,46, ,
6, ,46, ,
3, ,45, ,
5, ,46, ,
-1, ,46, ,
-1, ,46, ,
0, ,46, ,
-2, ,47, ,
-5, ,45, ,
0, ,47, ,
1, ,46, ,
3, ,45, ,
0, ,46, ,
3, ,46, ,
1, ,45, ,
3, ,47, ,
-1, ,46, ,
0, ,46, ,
1, ,46, ,
1, ,46, ,
-2, ,45, ,
-1, ,47, ,
-1, ,45, ,
-2, ,46, ,
-2, ,46, ,
0, ,46, ,
3, ,45, ,
1, ,47, ,
-1, ,46, ,
1, ,46, ,
1, ,46, ,
0, ,46, ,
-4, ,45, ,
-2, ,47, ,
-2, ,46, ,
-5, ,45, ,
-4, ,46, ,
-2, ,46, ,
-1, ,45, ,
3, ,47, ,
-2, ,46, ,
0, ,46, ,
1, ,46, ,
-1, ,46, ,
-4, ,45, ,
0, ,47, ,
-1, ,45, ,
0, ,46, ,
0, ,46, ,
-1, ,46, ,
1, ,45, ,
4, ,47, ,
-1, ,46, ,
0, ,46, ,
0, ,46, ,
0, ,46, ,
3, ,40, ,
1, ,33, ,
-2, ,22, ,
-5, ,13, ,
-10, ,4, ,
-7, ,-2, ,
-6, ,-8, ,
-1, ,-14, ,
-2, ,-18, ,
-2, ,-22, ,
-1, ,-25, ,
-6, ,-28, ,
-9, ,-31, ,
-5, ,-34, ,
-5, ,-35, ,
-5, ,-37, ,
-6, ,-38, ,
-1, ,-40, ,
1, ,-40, ,
1, ,-41, ,
0, ,-42, ,
3, ,-43, ,
5, ,-43, ,
0, ,-44, ,
-4, ,-43, ,
-2, ,-45, ,
0, ,-45, ,
-1, ,-44, ,
0, ,-45, ,
3, ,-46, ,
1, ,-44, ,
1, ,-46, ,
-1, ,-46, ,
1, ,-46, ,
3, ,-46, ,
3, ,-46, ,
0, ,-45, ,
3, ,-47, ,
1, ,-46, ,
0, ,-46, ,
-1, ,-46, ,
-1, ,-46, ,
1, ,-45, ,
-1, ,-47, ,
-5, ,-46, ,
0, ,-46, ,
5, ,-46, ,
3, ,-46, ,
1, ,-45, ,
5, ,-47, ,
3, ,-46, ,
-2, ,-45, ,
-4, ,-46, ,
0, ,-46, ,
0, ,-45, ,
0, ,-47, ,
-10, ,-46, ,
8, ,-46, ,
5, ,-46, ,
1, ,-46, ,
0, ,-45, ,
0, ,-47, ,
1, ,-46, ,
-1, ,-46, ,
0, ,-47, ,
1, ,-46, ,
1, ,-45, ,
0, ,-47, ,
-5, ,-46, ,
0, ,-46, ,
-1, ,-46, ,
-1, ,-46, ,
-4, ,-45, ,
3, ,-47, ,
4, ,-46, ,
3, ,-45, ,
3, ,-46, ,
4, ,-46, ,
3, ,-45, ,
5, ,-47, ,
1, ,-46, ,
3, ,-46, ,
8, ,-46, ,
3, ,-46, ,
-1, ,-45, ,
3, ,-47, ,
-1, ,-46, ,
3, ,-45, ,
4, ,-46, ,
3, ,-46, ,
5, ,-45, ,
3, ,-46, ,
4, ,-46, ,
6, ,-45, ,
6, ,-45, ,
5, ,-45, ,
0, ,-45, ,
4, ,-46, ,
3, ,-45, ,
0, ,-45, ,
-1, ,-46, ,
3, ,-46, ,
4, ,-45, ,
3, ,-46, ,
1, ,-46, ,
5, ,-46, ,
4, ,-46, ,
3, ,-46, ,
3, ,-45, ,
3, ,-47, ,
4, ,-46, ,
3, ,-46, ,
1, ,-46, ,
3, ,-46, ,
5, ,-45, ,
5, ,-47, ,
1, ,-45, ,
3, ,-46, ,
4, ,-45, ,
0, ,-46, ,
-1, ,-45, ,
3, ,-47, ,
3, ,-46, ,
3, ,-45, ,
-1, ,-46, ,
1, ,-46, ,
-1, ,-45, ,
1, ,-46, ,
-5, ,-46, ,
3, ,-46, ,
4, ,-46, ,
0, ,-46, ,
3, ,-45, ,
4, ,-47, ,
1, ,-46, ,
3, ,-45, ,
-1, ,-46, ,
0, ,-45, ,
1, ,-45, ,
1, ,-46, ,
0, ,-46, ,
1, ,-45, ,
3, ,-45, ,
0, ,-46, ,
-2, ,-45, ,
3, ,-47, ,
1, ,-46, ,
3, ,-45, ,
1, ,-46, ,
1, ,-46, ,
3, ,-45, ,
0, ,-46, ,
-2, ,-46, ,
-1, ,-46, ,
3, ,-46, ,
1, ,-46, ,
-4, ,-44, ,
3, ,-47, ,
3, ,-45, ,
1, ,-46, ,
0, ,-46, ,
0, ,-46, ,
0, ,-44, ,
-1, ,-46, ,
-4, ,-45, ,
1, ,-46, ,
3, ,-45, ,
3, ,-46, ,
0, ,-45, ,
4, ,-46, ,
5, ,-46, ,
1, ,-45, ,
0, ,-46, ,
-1, ,-46, ,
0, ,-44, ,
4, ,-46, ,
-4, ,-46, ,
-1, ,-46, ,
4, ,-45, ,
1, ,-46, ,
1, ,-44, ,
5, ,-47, ,
5, ,-45, ,
5, ,-45, ,
4, ,-46, ,
5, ,-46, ,
1, ,-45, ,
1, ,-46, ,
-4, ,-46, ,
-1, ,-46, ,
3, ,-45, ,
0, ,-46, ,
-4, ,-44, ,
3, ,-47, ,
3, ,-46, ,
1, ,-45, ,
1, ,-46, ,
3, ,-46, ,
3, ,-44, ,
3, ,-46, ,
-1, ,-45, ,
-1, ,-45, ,
0, ,-45, ,
-5, ,-46, ,
-9, ,-44, ,
0, ,-47, ,
-2, ,-45, ,
0, ,-45, ,
0, ,-46, ,
0, ,-46, ,
1, ,-44, ,
3, ,-46, ,
-5, ,-45, ,
-7, ,-46, ,
0, ,-45, ,
4, ,-46, ,
-5, ,-45, ,
5, ,-46, ,
5, ,-45, ,
0, ,-45, ,
-4, ,-46, ,
0, ,-46, ,
0, ,-45, ,
-1, ,-46, ,
-4, ,-45, ,
-1, ,-45, ,
3, ,-45, ,
-2, ,-46, ,
-4, ,-44, ,
-2, ,-47, ,
-4, ,-45, ,
-2, ,-45, ,
0, ,-46, ,
3, ,-46, ,
4, ,-45, ,
4, ,-46, ,
-2, ,-45, ,
0, ,-46, ,
-1, ,-45, ,
-2, ,-45, ,
-6, ,-45, ,
3, ,-46, ,
3, ,-45, ,
3, ,-45, ,
1, ,-46, ,
4, ,-46, ,
4, ,-45, ,
1, ,-46, ,
-1, ,-45, ,
0, ,-45, ,
1, ,-45, ,
-1, ,-46, ,
-1, ,-45, ,
1, ,-47, ,
0, ,-45, ,
1, ,-45, ,
-5, ,-46, ,
-1, ,-46, ,
0, ,-45, ,
1, ,-46, ,
-1, ,-45, ,
0, ,-46, ,
4, ,-45, ,
0, ,-46, ,
-4, ,-44, ,
1, ,-46, ,
-1, ,-45, ,
-1, ,-45, ,
-1, ,-46, ,
-1, ,-46, ,
5, ,-44, ,
5, ,-46, ,
1, ,-45, ,
4, ,-46, ,
5, ,-45, ,
-1, ,-45, ,
-4, ,-44, ,
-2, ,-47, ,
-2, ,-45, ,
-2, ,-45, ,
-2, ,-46, ,
-1, ,-46, ,
1, ,-45, ,
0, ,-46, ,
-1, ,-45, ,
3, ,-46, ,
1, ,-45, ,
3, ,-46, ,
0, ,-45, ,
-1, ,-46, ,
4, ,-46, ,
-1, ,-45, ,
-1, ,-46, ,
1, ,-46, ,
-4, ,-45, ,
1, ,-46, ,
-5, ,-45, ,
0, ,-45, ,
4, ,-45, ,
1, ,-46, ,
1, ,-44, ,
4, ,-47, ,
5, ,-46, ,
3, ,-45, ,
1, ,-46, ,
0, ,-46, ,
1, ,-44, ,
1, ,-46, ,
-2, ,-45, ,
3, ,-46, ,
4, ,-45, ,
3, ,-46, ,
-1, ,-44, ,
1, ,-46, ,
1, ,-45, ,
-1, ,-45, ,
-2, ,-46, ,
5, ,-46, ,
3, ,-44, ,
8, ,-46, ,
-1, ,-46, ,
4, ,-45, ,
5, ,-45, ,
3, ,-45, ,
3, ,-45, ,
5, ,-47, ,
1, ,-45, ,
3, ,-45, ,
1, ,-46, ,
5, ,-46, ,
5, ,-45, ,
5, ,-46, ,
0, ,-45, ,
5, ,-45, ,
5, ,-45, ,
5, ,-46, ,
3, ,-45, ,
8, ,-46, ,
4, ,-45, ,
3, ,-45, ,
3, ,-46, ,
0, ,-46, ,
4, ,-44, ,
3, ,-46, ,
-1, ,-45, ,
6, ,-46, ,
8, ,-45, ,
3, ,-46, ,
1, ,-44, ,
4, ,-47, ,
4, ,-45, ,
1, ,-45, ,
3, ,-46, ,
3, ,-46, ,
6, ,-45, ,
6, ,-46, ,
0, ,-45, ,
4, ,-46, ,
3, ,-45, ,
1, ,-46, ,
-2, ,-44, ,
3, ,-46, ,
0, ,-45, ,
0, ,-45, ,
0, ,-46, ,
3, ,-46, ,
1, ,-45, ,
3, ,-46, ,
-4, ,-45, ,
3, ,-46, ,
5, ,-45, ,
1, ,-46, ,
3, ,-45, ,
5, ,-46, ,
4, ,-46, ,
1, ,-45, ,
1, ,-46, ,
5, ,-45, ,
3, ,-45, ,
3, ,-46, ,
3, ,-45, ,
3, ,-45, ,
6, ,-45, ,
1, ,-45, ,
-4, ,-45, ,
4, ,-46, ,
0, ,-46, ,
4, ,-45, ,
4, ,-46, ,
6, ,-46, ,
9, ,-44, ,
11, ,-46, ,
4, ,-45, ,
3, ,-45, ,
5, ,-45, ,
1, ,-46, ,
0, ,-44, ,
3, ,-46, ,
-1, ,-45, ,
0, ,-45, ,
-2, ,-46, ,
1, ,-46, ,
6, ,-44, ,
8, ,-46, ,
1, ,-45, ,
4, ,-46, ,
5, ,-45, ,
4, ,-46, ,
3, ,-45, ,
8, ,-47, ,
6, ,-45, ,
5, ,-45, ,
5, ,-46, ,
1, ,-46, ,
-1, ,-45, ,
-1, ,-46, ,
-9, ,-45, ,
-4, ,-45, ,
1, ,-45, ,
0, ,-45, ,
-2, ,-45, ,
3, ,-46, ,
4, ,-46, ,
3, ,-45, ,
1, ,-46, ,
1, ,-45, ,
4, ,-44, ,
4, ,-46, ,
0, ,-45, ,
3, ,-46, ,
4, ,-45, ,
1, ,-46, ,
-2, ,-44, ,
1, ,-46, ,
0, ,-45, ,
-2, ,-45, ,
-4, ,-46, ,
0, ,-46, ,
-1, ,-45, ,
1, ,-46, ,
-4, ,-45, ,
-2, ,-46, ,
1, ,-45, ,
-4, ,-46, ,
-4, ,-44, ,
1, ,-47, ,
-1, ,-45, ,
1, ,-45, ,
0, ,-46, ,
0, ,-46, ,
1, ,-44, ,
-1, ,-46, ,
-6, ,-45, ,
-2, ,-46, ,
-2, ,-45, ,
-1, ,-46, ,
-4, ,-44, ,
3, ,-46, ,
3, ,-45, ,
1, ,-45, ,
-1, ,-46, ,
-1, ,-46, ,
0, ,-44, ,
-1, ,-46, ,
-7, ,-45, ,
0, ,-46, ,
-1, ,-45, ,
-2, ,-45, ,
-4, ,-44, ,
1, ,-47, ,
-1, ,-46, ,
1, ,-45, ,
-1, ,-46, ,
0, ,-45, ,
-1, ,-44, ,
