src/vary_am2_1412/temp0002906.CSV

Format,1.0B,
Memory Length,10000,Memory Length,10000,
IntpDistance,0,IntpDistance,0,
Trigger Address,4999,Trigger Address,4999,
Trigger Level,9.600E-01,Trigger Level,9.600E-01,
Source,CH1,Source,CH2,
Vertical Units,V,Vertical Units,V,
Vertical Units Div,0,Vertical Units Div,0,
Vertical Units Extend Div,16,Vertical Units Extend Div,16,
Label,,Label,,
Probe Type,0,Probe Type,0,
Probe Ratio,1.000e+01,Probe Ratio,1.000e+00,
Vertical Scale,2.000e-02,Vertical Scale,1.000e+00,
Vertical Position,-5.120e-02,Vertical Position,0.000e+00,
Horizontal Units,S,Horizontal Units,S,
Horizontal Scale,1.000E-05,Horizontal Scale,1.000E-05,
Horizontal Position,0.000E+00,Horizontal Position,0.000E+00,
Horizontal Mode,Main,Horizontal Mode,Main,
SincET Mode,Real Time,SincET Mode,Real Time,
Sampling Period,1.000e-08,Sampling Period,1.000e-08,
Horizontal Old Scale,1.000E-05,Horizontal Old Scale,1.000E-05,
Horizontal Old Position,0.000E+00,Horizontal Old Position,0.000E+00,
Firmware,V1.23,Firmware,V1.23,
Mode,Fast,Mode,Fast,
Waveform Data,,Waveform Data,,
0, ,-36, ,
3, ,-36, ,
-1, ,-36, ,
-1, ,-36, ,
-2, ,-36, ,
3, ,-36, ,
3, ,-36, ,
4, ,-36, ,
-2, ,-36, ,
1, ,-36, ,
6, ,-36, ,
-1, ,-36, ,
0, ,-36, ,
4, ,-36, ,
1, ,-36, ,
-2, ,-36, ,
-7, ,-36, ,
-6, ,-36, ,
-7, ,-36, ,
-12, ,-36, ,
-16, ,-36, ,
-9, ,-36, ,
-6, ,-36, ,
-9, ,-36, ,
-7, ,-35, ,
4, ,-36, ,
4, ,-36, ,
10, ,-35, ,
11, ,-36, ,
9, ,-36, ,
9, ,-36, ,
8, ,-36, ,
0, ,-36, ,
4, ,-36, ,
5, ,-36, ,
1, ,-36, ,
-1, ,-36, ,
1, ,-36, ,
-1, ,-36, ,
-6, ,-36, ,
-9, ,-36, ,
-5, ,-36, ,
-1, ,-36, ,
0, ,-36, ,
1, ,-36, ,
0, ,-36, ,
-1, ,-37, ,
-6, ,-36, ,
-7, ,-36, ,
-4, ,-36, ,
-1, ,-36, ,
-2, ,-36, ,
-2, ,-36, ,
1, ,-36, ,
6, ,-36, ,
-1, ,-36, ,
-9, ,-36, ,
-4, ,-36, ,
-1, ,-37, ,
-4, ,-36, ,
-6, ,-36, ,
-1, ,-36, ,
0, ,-36, ,
-4, ,-36, ,
-5, ,-36, ,
0, ,-36, ,
-1, ,-36, ,
1, ,-36, ,
-1, ,-36, ,
3, ,-36, ,
5, ,-36, ,
0, ,-36, ,
-2, ,-36, ,
0, ,-36, ,
-2, ,-36, ,
-2, ,-36, ,
-4, ,-36, ,
0, ,-36, ,
1, ,-36, ,
1, ,-36, ,
-1, ,-36, ,
3, ,-36, ,
4, ,-36, ,
3, ,-36, ,
-2, ,-36, ,
3, ,-36, ,
3, ,-36, ,
0, ,-36, ,
-2, ,-36, ,
-1, ,-36, ,
3, ,-36, ,
4, ,-36, ,
-2, ,-36, ,
3, ,-36, ,
4, ,-36, ,
1, ,-36, ,
-1, ,-36, ,
1, ,-36, ,
1, ,-36, ,
0, ,-35, ,
-2, ,-36, ,
0, ,-36, ,
3, ,-36, ,
3, ,-36, ,
-1, ,-36, ,
4, ,-36, ,
4, ,-36, ,
4, ,-36, ,
-1, ,-36, ,
3, ,-36, ,
4, ,-36, ,
1, ,-36, ,
-1, ,-36, ,
0, ,-36, ,
0, ,-36, ,
0, ,-36, ,
-1, ,-36, ,
5, ,-36, ,
3, ,-36, ,
0, ,-36, ,
4, ,-35, ,
9, ,-36, ,
5, ,-36, ,
4, ,-36, ,
0, ,-36, ,
3, ,-36, ,
3, ,-36, ,
3, ,-36, ,
-1, ,-36, ,
3, ,-36, ,
1, ,-36, ,
-1, ,-36, ,
-7, ,-36, ,
-1, ,-36, ,
0, ,-36, ,
-1, ,-36, ,
0, ,-36, ,
6, ,-36, ,
6, ,-36, ,
6, ,-36, ,
0, ,-36, ,
4, ,-36, ,
6, ,-36, ,
1, ,-36, ,
-1, ,-36, ,
5, ,-36, ,
3, ,-36, ,
4, ,-35, ,
3, ,-36, ,
1, ,-36, ,
5, ,-36, ,
4, ,-36, ,
1, ,-36, ,
5, ,-36, ,
9, ,-36, ,
10, ,-36, ,
5, ,-36, ,
6, ,-36, ,
3, ,-36, ,
9, ,-36, ,
5, ,-36, ,
4, ,-36, ,
4, ,-36, ,
4, ,-36, ,
1, ,-36, ,
4, ,-36, ,
5, ,-36, ,
4, ,-36, ,
1, ,-36, ,
6, ,-36, ,
4, ,-37, ,
4, ,-36, ,
4, ,-36, ,
5, ,-36, ,
6, ,-36, ,
8, ,-36, ,
3, ,-36, ,
6, ,-36, ,
9, ,-36, ,
5, ,-36, ,
3, ,-35, ,
3, ,-36, ,
6, ,-36, ,
5, ,-36, ,
4, ,-36, ,
5, ,-36, ,
6, ,-35, ,
3, ,-36, ,
-5, ,-36, ,
6, ,-36, ,
3, ,-36, ,
0, ,-36, ,
3, ,-36, ,
6, ,-36, ,
4, ,-36, ,
3, ,-36, ,
1, ,-36, ,
1, ,-36, ,
3, ,-36, ,
3, ,-36, ,
-1, ,-36, ,
1, ,-36, ,
6, ,-36, ,
4, ,-36, ,
1, ,-36, ,
4, ,-36, ,
6, ,-36, ,
4, ,-36, ,
0, ,-36, ,
4, ,-36, ,
5, ,-36, ,
4, ,-36, ,
1, ,-36, ,
4, ,-36, ,
4, ,-36, ,
1, ,-36, ,
-1, ,-36, ,
4, ,-36, ,
3, ,-36, ,
3, ,-35, ,
1, ,-36, ,
5, ,-36, ,
10, ,-36, ,
8, ,-36, ,
0, ,-36, ,
9, ,-36, ,
8, ,-36, ,
6, ,-36, ,
5, ,-36, ,
10, ,-36, ,
10, ,-36, ,
6, ,-36, ,
6, ,-36, ,
5, ,-36, ,
4, ,-36, ,
3, ,-36, ,
-2, ,-36, ,
3, ,-36, ,
5, ,-36, ,
3, ,-36, ,
1, ,-36, ,
9, ,-36, ,
8, ,-36, ,
6, ,-36, ,
5, ,-36, ,
5, ,-36, ,
9, ,-36, ,
-1, ,-36, ,
-1, ,-36, ,
8, ,-36, ,
11, ,-36, ,
4, ,-36, ,
-1, ,-36, ,
5, ,-36, ,
5, ,-36, ,
3, ,-36, ,
5, ,-36, ,
5, ,-36, ,
9, ,-36, ,
10, ,-36, ,
3, ,-36, ,
3, ,-36, ,
5, ,-37, ,
1, ,-36, ,
0, ,-36, ,
8, ,-36, ,
4, ,-36, ,
4, ,-36, ,
1, ,-36, ,
1, ,-36, ,
3, ,-36, ,
1, ,-36, ,
-2, ,-36, ,
1, ,-36, ,
5, ,-37, ,
4, ,-36, ,
0, ,-36, ,
4, ,-36, ,
6, ,-36, ,
-1, ,-36, ,
-4, ,-36, ,
0, ,-36, ,
0, ,-36, ,
0, ,-36, ,
-1, ,-36, ,
3, ,-36, ,
4, ,-37, ,
-1, ,-36, ,
-5, ,-36, ,
-1, ,-36, ,
-2, ,-36, ,
-6, ,-36, ,
-4, ,-36, ,
-1, ,-36, ,
-1, ,-36, ,
-1, ,-36, ,
-5, ,-36, ,
-1, ,-36, ,
-1, ,-36, ,
-2, ,-36, ,
-4, ,-36, ,
-2, ,-36, ,
-1, ,-36, ,
-2, ,-36, ,
-4, ,-36, ,
-1, ,-36, ,
0, ,-36, ,
1, ,-36, ,
-4, ,-36, ,
-2, ,-36, ,
3, ,-36, ,
-2, ,-36, ,
-4, ,-36, ,
3, ,-36, ,
0, ,-36, ,
-1, ,-36, ,
0, ,-36, ,
-1, ,-36, ,
3, ,-36, ,
-1, ,-36, ,
-4, ,-36, ,
-1, ,-36, ,
-1, ,-36, ,
-5, ,-36, ,
-7, ,-36, ,
-2, ,-36, ,
-5, ,-36, ,
-6, ,-36, ,
-6, ,-36, ,
-5, ,-36, ,
-2, ,-36, ,
-1, ,-36, ,
-2, ,-36, ,
-1, ,-36, ,
1, ,-36, ,
-4, ,-36, ,
-9, ,-36, ,
-5, ,-36, ,
-4, ,-36, ,
-5, ,-36, ,
-6, ,-36, ,
-4, ,-36, ,
-1, ,-36, ,
-1, ,-36, ,
-5, ,-36, ,
-2, ,-36, ,
-2, ,-36, ,
-5, ,-36, ,
-7, ,-36, ,
-4, ,-36, ,
-2, ,-36, ,
-4, ,-36, ,
-7, ,-36, ,
-2, ,-36, ,
-4, ,-36, ,
-5, ,-36, ,
-12, ,-36, ,
-5, ,-36, ,
-4, ,-36, ,
-5, ,-36, ,
-6, ,-36, ,
-2, ,-36, ,
-2, ,-36, ,
-2, ,-36, ,
-6, ,-36, ,
-2, ,-36, ,
0, ,-36, ,
0, ,-36, ,
-4, ,-36, ,
3, ,-36, ,
4, ,-36, ,
-1, ,-36, ,
-6, ,-36, ,
-4, ,-36, ,
-5, ,-36, ,
-5, ,-36, ,
-2, ,-36, ,
-1, ,-36, ,
3, ,-36, ,
4, ,-36, ,
-1, ,-36, ,
4, ,-36, ,
3, ,-37, ,
-2, ,-36, ,
-6, ,-36, ,
-1, ,-36, ,
-2, ,-36, ,
-2, ,-35, ,
-1, ,-36, ,
-1, ,-36, ,
3, ,-36, ,
0, ,-36, ,
-4, ,-36, ,
-1, ,-36, ,
3, ,-37, ,
3, ,-36, ,
-1, ,-36, ,
4, ,-36, ,
3, ,-36, ,
0, ,-36, ,
-1, ,-36, ,
1, ,-36, ,
3, ,-36, ,
3, ,-36, ,
0, ,-36, ,
4, ,-36, ,
4, ,-37, ,
1, ,-36, ,
-2, ,-36, ,
3, ,-36, ,
3, ,-36, ,
1, ,-36, ,
-1, ,-36, ,
0, ,-36, ,
3, ,-36, ,
3, ,-36, ,
1, ,-36, ,
4, ,-36, ,
6, ,-37, ,
5, ,-36, ,
1, ,-36, ,
5, ,-36, ,
4, ,-37, ,
3, ,-36, ,
0, ,-36, ,
1, ,-36, ,
3, ,-36, ,
3, ,-36, ,
-1, ,-36, ,
4, ,-36, ,
6, ,-37, ,
4, ,-36, ,
1, ,-36, ,
5, ,-36, ,
4, ,-36, ,
4, ,-36, ,
3, ,-36, ,
5, ,-36, ,
5, ,-36, ,
3, ,-36, ,
-2, ,-36, ,
1, ,-36, ,
3, ,-36, ,
3, ,-36, ,
3, ,-36, ,
8, ,-36, ,
6, ,-36, ,
5, ,-36, ,
3, ,-36, ,
4, ,-36, ,
8, ,-36, ,
6, ,-36, ,
1, ,-36, ,
5, ,-36, ,
9, ,-37, ,
5, ,-36, ,
4, ,-36, ,
6, ,-36, ,
5, ,-36, ,
5, ,-36, ,
3, ,-36, ,
5, ,-36, ,
6, ,-36, ,
5, ,-36, ,
4, ,-36, ,
8, ,-36, ,
5, ,-37, ,
5, ,-36, ,
3, ,-36, ,
5, ,-36, ,
8, ,-36, ,
5, ,-36, ,
5, ,-36, ,
5, ,-36, ,
6, ,-36, ,
6, ,-36, ,
-2, ,-36, ,
4, ,-36, ,
8, ,-36, ,
4, ,-36, ,
4, ,-36, ,
10, ,-36, ,
10, ,-36, ,
9, ,-36, ,
5, ,-36, ,
6, ,-36, ,
5, ,-36, ,
5, ,-36, ,
1, ,-36, ,
4, ,-36, ,
6, ,-37, ,
3, ,-36, ,
0, ,-36, ,
3, ,-36, ,
3, ,-36, ,
4, ,-36, ,
0, ,-36, ,
3, ,-36, ,
4, ,-36, ,
4, ,-36, ,
1, ,-36, ,
3, ,-36, ,
8, ,-37, ,
1, ,-36, ,
-1, ,-36, ,
5, ,-36, ,
5, ,-36, ,
5, ,-35, ,
3, ,-36, ,
3, ,-36, ,
6, ,-36, ,
3, ,-36, ,
-2, ,-36, ,
3, ,-36, ,
3, ,-37, ,
4, ,-36, ,
1, ,-36, ,
8, ,-36, ,
4, ,-36, ,
3, ,-36, ,
1, ,-36, ,
4, ,-36, ,
1, ,-34, ,
-5, ,-27, ,
0, ,-18, ,
8, ,-7, ,
9, ,1, ,
11, ,8, ,
8, ,16, ,
10, ,21, ,
8, ,26, ,
8, ,30, ,
6, ,34, ,
8, ,38, ,
9, ,40, ,
8, ,42, ,
3, ,44, ,
8, ,45, ,
9, ,49, ,
9, ,50, ,
5, ,50, ,
4, ,52, ,
6, ,52, ,
4, ,52, ,
3, ,54, ,
4, ,55, ,
3, ,55, ,
4, ,55, ,
0, ,56, ,
3, ,55, ,
4, ,57, ,
0, ,56, ,
0, ,56, ,
4, ,57, ,
4, ,57, ,
6, ,55, ,
3, ,57, ,
4, ,57, ,
4, ,57, ,
3, ,57, ,
-2, ,57, ,
0, ,56, ,
0, ,57, ,
0, ,56, ,
-2, ,57, ,
3, ,57, ,
3, ,57, ,
1, ,56, ,
-2, ,58, ,
-1, ,58, ,
0, ,57, ,
0, ,57, ,
-6, ,57, ,
-2, ,56, ,
4, ,58, ,
3, ,57, ,
-1, ,57, ,
3, ,57, ,
-5, ,57, ,
-6, ,56, ,
-5, ,57, ,
-2, ,57, ,
-1, ,56, ,
1, ,57, ,
-5, ,57, ,
0, ,56, ,
-1, ,58, ,
-4, ,56, ,
-5, ,57, ,
-2, ,57, ,
0, ,57, ,
-2, ,56, ,
-2, ,57, ,
-1, ,57, ,
-4, ,56, ,
-1, ,57, ,
-10, ,58, ,
-5, ,56, ,
-2, ,57, ,
-5, ,56, ,
-6, ,57, ,
-2, ,57, ,
-2, ,57, ,
-2, ,56, ,
-2, ,57, ,
-1, ,57, ,
-1, ,56, ,
0, ,57, ,
-5, ,57, ,
-1, ,56, ,
1, ,57, ,
3, ,56, ,
-5, ,57, ,
-2, ,57, ,
3, ,57, ,
-2, ,55, ,
-1, ,57, ,
0, ,56, ,
0, ,56, ,
1, ,57, ,
1, ,57, ,
1, ,56, ,
3, ,57, ,
0, ,56, ,
-2, ,57, ,
4, ,57, ,
-1, ,57, ,
-1, ,55, ,
-4, ,57, ,
-2, ,57, ,
1, ,56, ,
1, ,57, ,
-1, ,57, ,
1, ,56, ,
4, ,57, ,
-4, ,56, ,
-6, ,57, ,
3, ,57, ,
-2, ,57, ,
-1, ,55, ,
-1, ,57, ,
1, ,57, ,
0, ,56, ,
4, ,56, ,
3, ,57, ,
1, ,56, ,
3, ,57, ,
1, ,56, ,
-2, ,57, ,
1, ,57, ,
0, ,56, ,
-2, ,55, ,
-5, ,57, ,
-2, ,57, ,
-2, ,56, ,
0, ,56, ,
-4, ,57, ,
-1, ,56, ,
-2, ,57, ,
-1, ,56, ,
-1, ,57, ,
1, ,57, ,
3, ,57, ,
-2, ,55, ,
0, ,57, ,
1, ,57, ,
-1, ,56, ,
1, ,57, ,
-4, ,58, ,
5, ,55, ,
5, ,57, ,
1, ,56, ,
-4, ,57, ,
1, ,57, ,
-5, ,57, ,
-1, ,55, ,
-1, ,57, ,
1, ,57, ,
3, ,56, ,
4, ,56, ,
-2, ,57, ,
1, ,56, ,
1, ,57, ,
0, ,56, ,
-2, ,56, ,
4, ,57, ,
4, ,57, ,
3, ,55, ,
4, ,57, ,
1, ,57, ,
3, ,56, ,
1, ,56, ,
-1, ,57, ,
6, ,56, ,
5, ,58, ,
5, ,56, ,
-1, ,57, ,
5, ,57, ,
3, ,57, ,
1, ,55, ,
1, ,57, ,
1, ,57, ,
5, ,56, ,
5, ,56, ,
3, ,57, ,
5, ,56, ,
5, ,57, ,
3, ,56, ,
1, ,57, ,
3, ,57, ,
4, ,57, ,
1, ,55, ,
0, ,57, ,
1, ,57, ,
3, ,56, ,
5, ,56, ,
-1, ,57, ,
5, ,56, ,
5, ,57, ,
3, ,56, ,
0, ,57, ,
5, ,57, ,
3, ,57, ,
6, ,55, ,
5, ,57, ,
6, ,57, ,
5, ,56, ,
5, ,56, ,
-1, ,57, ,
3, ,56, ,
3, ,58, ,
1, ,56, ,
-2, ,56, ,
3, ,57, ,
4, ,56, ,
3, ,55, ,
1, ,57, ,
4, ,56, ,
0, ,56, ,
3, ,56, ,
-2, ,57, ,
0, ,56, ,
5, ,57, ,
4, ,56, ,
-1, ,57, ,
4, ,57, ,
3, ,57, ,
4, ,55, ,
-2, ,57, ,
-1, ,57, ,
3, ,56, ,
4, ,56, ,
1, ,57, ,
6, ,56, ,
8, ,57, ,
4, ,56, ,
0, ,57, ,
4, ,57, ,
3, ,57, ,
4, ,55, ,
5, ,57, ,
5, ,56, ,
6, ,56, ,
6, ,57, ,
3, ,57, ,
4, ,56, ,
5, ,57, ,
3, ,56, ,
0, ,56, ,
8, ,57, ,
6, ,57, ,
6, ,55, ,
3, ,57, ,
4, ,57, ,
4, ,56, ,
4, ,56, ,
0, ,57, ,
4, ,56, ,
8, ,57, ,
8, ,56, ,
6, ,56, ,
10, ,57, ,
8, ,57, ,
3, ,55, ,
-1, ,57, ,
3, ,57, ,
1, ,56, ,
3, ,56, ,
-2, ,57, ,
4, ,56, ,
6, ,58, ,
0, ,56, ,
-2, ,56, ,
3, ,57, ,
0, ,57, ,
3, ,55, ,
1, ,57, ,
4, ,57, ,
3, ,56, ,
5, ,56, ,
1, ,57, ,
0, ,55, ,
3, ,57, ,
0, ,56, ,
-2, ,56, ,
4, ,57, ,
4, ,56, ,
0, ,55, ,
-2, ,57, ,
1, ,57, ,
0, ,56, ,
0, ,56, ,
-2, ,57, ,
0, ,56, ,
3, ,57, ,
1, ,56, ,
-4, ,57, ,
8, ,57, ,
0, ,57, ,
0, ,55, ,
-1, ,57, ,
0, ,57, ,
0, ,56, ,
0, ,56, ,
-4, ,57, ,
0, ,55, ,
3, ,57, ,
5, ,56, ,
-1, ,56, ,
5, ,57, ,
3, ,57, ,
3, ,55, ,
-1, ,57, ,
1, ,57, ,
1, ,56, ,
4, ,57, ,
-2, ,57, ,
1, ,56, ,
1, ,57, ,
0, ,56, ,
-2, ,56, ,
0, ,57, ,
-1, ,57, ,
3, ,55, ,
1, ,57, ,
0, ,56, ,
5, ,56, ,
0, ,56, ,
-4, ,57, ,
1, ,56, ,
-1, ,57, ,
-2, ,56, ,
-2, ,56, ,
3, ,57, ,
4, ,57, ,
3, ,55, ,
4, ,57, ,
4, ,57, ,
-1, ,56, ,
3, ,56, ,
-4, ,57, ,
0, ,56, ,
4, ,57, ,
3, ,56, ,
0, ,56, ,
6, ,57, ,
1, ,57, ,
1, ,55, ,
0, ,57, ,
-1, ,57, ,
1, ,56, ,
0, ,56, ,
-1, ,57, ,
0, ,56, ,
0, ,57, ,
-2, ,56, ,
-6, ,56, ,
0, ,57, ,
-1, ,57, ,
0, ,55, ,
0, ,57, ,
1, ,57, ,
1, ,56, ,
3, ,57, ,
-4, ,57, ,
1, ,56, ,
1, ,57, ,
-1, ,56, ,
-2, ,57, ,
0, ,57, ,
0, ,56, ,
-4, ,55, ,
-4, ,57, ,
-1, ,57, ,
-1, ,56, ,
0, ,56, ,
-2, ,57, ,
0, ,56, ,
1, ,57, ,
-1, ,56, ,
-5, ,57, ,
0, ,57, ,
0, ,57, ,
-4, ,55, ,
-2, ,57, ,
-1, ,56, ,
3, ,56, ,
3, ,57, ,
-4, ,57, ,
1, ,55, ,
1, ,57, ,
-4, ,56, ,
-2, ,56, ,
1, ,57, ,
1, ,57, ,
6, ,55, ,
3, ,57, ,
5, ,57, ,
5, ,56, ,
3, ,56, ,
0, ,56, ,
3, ,56, ,
3, ,57, ,
0, ,56, ,
-2, ,56, ,
1, ,57, ,
-1, ,57, ,
-1, ,55, ,
-2, ,57, ,
1, ,57, ,
3, ,56, ,
4, ,56, ,
1, ,57, ,
3, ,56, ,
4, ,57, ,
0, ,56, ,
-2, ,56, ,
4, ,57, ,
1, ,57, ,
4, ,55, ,
1, ,57, ,
1, ,57, ,
3, ,56, ,
4, ,56, ,
-1, ,57, ,
1, ,55, ,
3, ,57, ,
1, ,56, ,
0, ,56, ,
3, ,57, ,
4, ,57, ,
-2, ,55, ,
-1, ,57, ,
1, ,57, ,
-1, ,56, ,
1, ,56, ,
-5, ,57, ,
3, ,56, ,
5, ,57, ,
1, ,56, ,
-2, ,57, ,
1, ,57, ,
-1, ,57, ,
1, ,55, ,
1, ,57, ,
3, ,57, ,
5, ,56, ,
4, ,56, ,
0, ,57, ,
3, ,56, ,
4, ,57, ,
1, ,56, ,
-2, ,57, ,
4, ,56, ,
1, ,57, ,
1, ,55, ,
0, ,57, ,
3, ,57, ,
0, ,56, ,
4, ,56, ,
-2, ,57, ,
1, ,56, ,
3, ,57, ,
1, ,56, ,
0, ,56, ,
5, ,57, ,
3, ,57, ,
3, ,55, ,
0, ,57, ,
1, ,57, ,
1, ,56, ,
5, ,56, ,
3, ,57, ,
4, ,56, ,
5, ,57, ,
5, ,56, ,
-1, ,57, ,
4, ,57, ,
3, ,57, ,
0, ,55, ,
3, ,57, ,
4, ,57, ,
4, ,56, ,
8, ,56, ,
1, ,57, ,
5, ,56, ,
5, ,57, ,
4, ,56, ,
1, ,56, ,
5, ,57, ,
4, ,57, ,
3, ,55, ,
3, ,57, ,
4, ,56, ,
6, ,56, ,
5, ,56, ,
0, ,57, ,
4, ,56, ,
4, ,57, ,
4, ,56, ,
3, ,56, ,
8, ,56, ,
5, ,57, ,
4, ,55, ,
4, ,57, ,
5, ,56, ,
3, ,56, ,
1, ,56, ,
-5, ,57, ,
0, ,55, ,
4, ,57, ,
0, ,56, ,
0, ,56, ,
3, ,57, ,
1, ,57, ,
3, ,55, ,
-2, ,57, ,
0, ,57, ,
-1, ,56, ,
1, ,56, ,
-1, ,57, ,
4, ,56, ,
5, ,57, ,
4, ,56, ,
-4, ,56, ,
3, ,57, ,
0, ,56, ,
-2, ,55, ,
-1, ,57, ,
0, ,57, ,
1, ,56, ,
3, ,56, ,
0, ,57, ,
1, ,55, ,
4, ,57, ,
1, ,56, ,
0, ,57, ,
4, ,57, ,
0, ,57, ,
0, ,55, ,
3, ,57, ,
0, ,57, ,
3, ,56, ,
0, ,56, ,
-2, ,57, ,
3, ,56, ,
3, ,57, ,
9, ,56, ,
4, ,56, ,
3, ,57, ,
6, ,57, ,
3, ,55, ,
1, ,57, ,
3, ,57, ,
1, ,56, ,
4, ,56, ,
0, ,56, ,
4, ,56, ,
9, ,57, ,
4, ,56, ,
5, ,57, ,
4, ,57, ,
0, ,57, ,
1, ,55, ,
-2, ,57, ,
3, ,57, ,
1, ,56, ,
3, ,56, ,
-1, ,57, ,
1, ,56, ,
1, ,57, ,
1, ,56, ,
-1, ,57, ,
1, ,57, ,
3, ,56, ,
0, ,55, ,
-1, ,57, ,
3, ,57, ,
-1, ,56, ,
0, ,56, ,
-1, ,57, ,
-1, ,56, ,
3, ,57, ,
-2, ,56, ,
0, ,57, ,
5, ,57, ,
3, ,57, ,
1, ,55, ,
1, ,57, ,
0, ,57, ,
1, ,56, ,
0, ,56, ,
-4, ,57, ,
-1, ,56, ,
0, ,57, ,
3, ,56, ,
-5, ,57, ,
1, ,57, ,
0, ,57, ,
-1, ,55, ,
0, ,57, ,
0, ,57, ,
1, ,56, ,
3, ,57, ,
-4, ,57, ,
3, ,56, ,
3, ,57, ,
0, ,56, ,
0, ,57, ,
4, ,57, ,
1, ,56, ,
-1, ,55, ,
-1, ,57, ,
0, ,57, ,
-4, ,56, ,
-1, ,56, ,
-1, ,57, ,
3, ,56, ,
-1, ,57, ,
-2, ,56, ,
-2, ,57, ,
4, ,57, ,
5, ,57, ,
1, ,55, ,
1, ,57, ,
1, ,57, ,
0, ,56, ,
-2, ,56, ,
-6, ,57, ,
0, ,56, ,
3, ,57, ,
-1, ,56, ,
0, ,56, ,
5, ,57, ,
3, ,57, ,
6, ,55, ,
0, ,57, ,
0, ,57, ,
4, ,56, ,
3, ,56, ,
0, ,57, ,
4, ,56, ,
3, ,57, ,
1, ,56, ,
-6, ,56, ,
-1, ,57, ,
-4, ,57, ,
-5, ,55, ,
-4, ,57, ,
1, ,57, ,
5, ,56, ,
6, ,56, ,
3, ,57, ,
3, ,55, ,
0, ,57, ,
0, ,56, ,
-2, ,56, ,
3, ,57, ,
1, ,57, ,
1, ,55, ,
1, ,57, ,
1, ,57, ,
4, ,56, ,
3, ,56, ,
-2, ,57, ,
3, ,56, ,
3, ,57, ,
4, ,56, ,
1, ,56, ,
1, ,57, ,
3, ,57, ,
-1, ,55, ,
-4, ,57, ,
-1, ,57, ,
0, ,56, ,
3, ,56, ,
-2, ,57, ,
1, ,56, ,
3, ,57, ,
-4, ,56, ,
-4, ,56, ,
0, ,57, ,
0, ,57, ,
1, ,55, ,
0, ,57, ,
0, ,57, ,
0, ,56, ,
3, ,56, ,
-1, ,57, ,
1, ,56, ,
5, ,57, ,
5, ,56, ,
-1, ,56, ,
6, ,57, ,
0, ,57, ,
1, ,55, ,
1, ,57, ,
4, ,56, ,
4, ,56, ,
4, ,56, ,
4, ,57, ,
1, ,56, ,
1, ,57, ,
1, ,56, ,
-1, ,57, ,
3, ,57, ,
3, ,57, ,
5, ,55, ,
4, ,57, ,
4, ,57, ,
5, ,56, ,
6, ,56, ,
1, ,57, ,
3, ,56, ,
4, ,57, ,
4, ,56, ,
3, ,56, ,
8, ,57, ,
4, ,57, ,
3, ,55, ,
3, ,57, ,
1, ,57, ,
0, ,56, ,
5, ,56, ,
0, ,57, ,
6, ,56, ,
5, ,57, ,
1, ,56, ,
0, ,56, ,
3, ,57, ,
3, ,57, ,
0, ,55, ,
-1, ,57, ,
0, ,57, ,
1, ,56, ,
5, ,57, ,
1, ,57, ,
6, ,56, ,
4, ,57, ,
1, ,56, ,
0, ,57, ,
4, ,57, ,
3, ,56, ,
3, ,55, ,
3, ,57, ,
4, ,57, ,
4, ,56, ,
10, ,55, ,
4, ,47, ,
0, ,37, ,
-4, ,27, ,
-7, ,19, ,
-11, ,12, ,
-4, ,5, ,
-1, ,-1, ,
1, ,-5, ,
0, ,-11, ,
-2, ,-14, ,
-5, ,-17, ,
-6, ,-20, ,
-7, ,-22, ,
-2, ,-24, ,
0, ,-26, ,
0, ,-27, ,
-5, ,-28, ,
0, ,-30, ,
-4, ,-32, ,
-2, ,-32, ,
-4, ,-33, ,
0, ,-34, ,
3, ,-34, ,
4, ,-34, ,
0, ,-35, ,
3, ,-35, ,
6, ,-36, ,
0, ,-36, ,
-4, ,-35, ,
1, ,-36, ,
3, ,-36, ,
3, ,-36, ,
3, ,-36, ,
1, ,-36, ,
3, ,-36, ,
4, ,-37, ,
-1, ,-37, ,
3, ,-36, ,
3, ,-37, ,
0, ,-37, ,
-2, ,-37, ,
-1, ,-37, ,
0, ,-37, ,
1, ,-36, ,
3, ,-37, ,
5, ,-37, ,
5, ,-36, ,
6, ,-37, ,
1, ,-37, ,
1, ,-36, ,
8, ,-37, ,
3, ,-37, ,
1, ,-36, ,
8, ,-37, ,
4, ,-37, ,
1, ,-36, ,
-1, ,-37, ,
-1, ,-37, ,
0, ,-36, ,
1, ,-37, ,
-4, ,-36, ,
4, ,-36, ,
6, ,-37, ,
3, ,-37, ,
-1, ,-36, ,
0, ,-36, ,
-1, ,-36, ,
-1, ,-36, ,
-2, ,-37, ,
3, ,-36, ,
-2, ,-36, ,
1, ,-37, ,
-1, ,-36, ,
3, ,-36, ,
3, ,-37, ,
-1, ,-37, ,
-4, ,-36, ,
1, ,-36, ,
0, ,-36, ,
1, ,-36, ,
-1, ,-36, ,
1, ,-36, ,
4, ,-36, ,
0, ,-36, ,
-1, ,-36, ,
1, ,-36, ,
0, ,-37, ,
-1, ,-36, ,
-4, ,-36, ,
0, ,-36, ,
0, ,-36, ,
-1, ,-36, ,
-1, ,-37, ,
-2, ,-36, ,
-2, ,-36, ,
0, ,-37, ,
-2, ,-37, ,
1, ,-36, ,
6, ,-37, ,
4, ,-36, ,
3, ,-36, ,
6, ,-36, ,
3, ,-36, ,
1, ,-36, ,
-1, ,-37, ,
0, ,-36, ,
1, ,-36, ,
1, ,-36, ,
-2, ,-36, ,
1, ,-36, ,
3, ,-37, ,
0, ,-36, ,
0, ,-36, ,
1, ,-36, ,
3, ,-36, ,
0, ,-36, ,
-1, ,-37, ,
1, ,-36, ,
-1, ,-36, ,
-1, ,-36, ,
-6, ,-36, ,
-2, ,-36, ,
3, ,-37, ,
-1, ,-36, ,
0, ,-36, ,
4, ,-36, ,
3, ,-36, ,
4, ,-35, ,
0, ,-36, ,
0, ,-36, ,
1, ,-36, ,
1, ,-36, ,
-2, ,-36, ,
3, ,-36, ,
4, ,-36, ,
0, ,-36, ,
-1, ,-36, ,
3, ,-36, ,
0, ,-36, ,
0, ,-36, ,
-4, ,-36, ,
-1, ,-36, ,
0, ,-36, ,
-1, ,-36, ,
-2, ,-36, ,
0, ,-36, ,
1, ,-37, ,
-1, ,-36, ,
-2, ,-36, ,
1, ,-36, ,
-1, ,-36, ,
0, ,-36, ,
0, ,-37, ,
0, ,-36, ,
1, ,-36, ,
1, ,-36, ,
0, ,-36, ,
3, ,-36, ,
3, ,-37, ,
-1, ,-36, ,
-1, ,-36, ,
0, ,-36, ,
3, ,-36, ,
0, ,-36, ,
-1, ,-36, ,
-1, ,-36, ,
0, ,-36, ,
1, ,-36, ,
-4, ,-36, ,
3, ,-36, ,
4, ,-36, ,
-1, ,-36, ,
-1, ,-36, ,
3, ,-36, ,
3, ,-36, ,
3, ,-36, ,
5, ,-36, ,
10, ,-36, ,
16, ,-36, ,
15, ,-36, ,
10, ,-36, ,
11, ,-36, ,
10, ,-36, ,
8, ,-36, ,
5, ,-36, ,
11, ,-36, ,
8, ,-36, ,
5, ,-36, ,
5, ,-36, ,
5, ,-36, ,
4, ,-36, ,
6, ,-36, ,
4, ,-36, ,
5, ,-36, ,
6, ,-36, ,
4, ,-36, ,
1, ,-36, ,
5, ,-36, ,
3, ,-36, ,
3, ,-35, ,
3, ,-36, ,
4, ,-36, ,
8, ,-36, ,
5, ,-36, ,
1, ,-36, ,
6, ,-36, ,
4, ,-36, ,
3, ,-36, ,
0, ,-36, ,
4, ,-36, ,
6, ,-36, ,
3, ,-36, ,
4, ,-36, ,
3, ,-36, ,
1, ,-36, ,
1, ,-36, ,
-2, ,-36, ,
3, ,-36, ,
5, ,-36, ,
3, ,-36, ,
3, ,-36, ,
6, ,-36, ,
4, ,-36, ,
3, ,-36, ,
0, ,-36, ,
1, ,-36, ,
1, ,-36, ,
1, ,-36, ,
-2, ,-36, ,
4, ,-36, ,
4, ,-37, ,
1, ,-36, ,
0, ,-36, ,
4, ,-36, ,
4, ,-36, ,
1, ,-36, ,
3, ,-36, ,
5, ,-36, ,
5, ,-36, ,
8, ,-36, ,
0, ,-36, ,
4, ,-36, ,
5, ,-36, ,
-1, ,-36, ,
-4, ,-36, ,
4, ,-36, ,
4, ,-36, ,
5, ,-36, ,
1, ,-36, ,
5, ,-36, ,
5, ,-36, ,
4, ,-36, ,
1, ,-36, ,
1, ,-36, ,
1, ,-36, ,
-5, ,-36, ,
0, ,-36, ,
5, ,-36, ,
5, ,-37, ,
6, ,-36, ,
4, ,-36, ,
4, ,-36, ,
5, ,-36, ,
4, ,-36, ,
-1, ,-36, ,
0, ,-36, ,
6, ,-36, ,
4, ,-36, ,
0, ,-35, ,
8, ,-36, ,
6, ,-36, ,
4, ,-36, ,
4, ,-36, ,
3, ,-36, ,
6, ,-36, ,
6, ,-36, ,
4, ,-36, ,
8, ,-36, ,
5, ,-36, ,
3, ,-36, ,
-2, ,-36, ,
1, ,-36, ,
4, ,-36, ,
1, ,-36, ,
1, ,-36, ,
3, ,-36, ,
9, ,-36, ,
6, ,-36, ,
1, ,-36, ,
6, ,-36, ,
4, ,-36, ,
1, ,-36, ,
-1, ,-36, ,
4, ,-36, ,
5, ,-36, ,
5, ,-36, ,
3, ,-36, ,
5, ,-36, ,
4, ,-36, ,
1, ,-36, ,
-5, ,-36, ,
0, ,-36, ,
4, ,-36, ,
1, ,-36, ,
-1, ,-36, ,
4, ,-36, ,
3, ,-36, ,
3, ,-36, ,
0, ,-36, ,
3, ,-36, ,
0, ,-36, ,
3, ,-36, ,
-2, ,-36, ,
1, ,-36, ,
4, ,-36, ,
0, ,-36, ,
-4, ,-36, ,
1, ,-36, ,
-1, ,-36, ,
1, ,-35, ,
1, ,-36, ,
3, ,-36, ,
6, ,-36, ,
4, ,-36, ,
1, ,-36, ,
3, ,-36, ,
3, ,-36, ,
0, ,-36, ,
-5, ,-36, ,
0, ,-36, ,
0, ,-36, ,
-2, ,-36, ,
-1, ,-36, ,
0, ,-36, ,
1, ,-36, ,
0, ,-36, ,
-1, ,-36, ,
3, ,-36, ,
4, ,-36, ,
3, ,-36, ,
0, ,-36, ,
4, ,-36, ,
4, ,-36, ,
0, ,-35, ,
-1, ,-36, ,
-1, ,-36, ,
1, ,-36, ,
3, ,-36, ,
-1, ,-36, ,
5, ,-36, ,
4, ,-36, ,
1, ,-36, ,
-1, ,-36, ,
3, ,-36, ,
4, ,-36, ,
0, ,-36, ,
-1, ,-36, ,
3, ,-36, ,
1, ,-36, ,
0, ,-36, ,
-5, ,-36, ,
0, ,-36, ,
3, ,-36, ,
-2, ,-36, ,
-1, ,-35, ,
3, ,-36, ,
1, ,-36, ,
-1, ,-36, ,
-2, ,-36, ,
-1, ,-36, ,
3, ,-36, ,
1, ,-36, ,
-6, ,-36, ,
1, ,-36, ,
5, ,-36, ,
-1, ,-36, ,
-2, ,-36, ,
1, ,-36, ,
0, ,-36, ,
1, ,-36, ,
-2, ,-36, ,
-4, ,-36, ,
0, ,-36, ,
-1, ,-36, ,
-6, ,-36, ,
-1, ,-36, ,
0, ,-36, ,
-1, ,-36, ,
-5, ,-35, ,
3, ,-36, ,
0, ,-36, ,
-1, ,-36, ,
-4, ,-36, ,
-1, ,-36, ,
1, ,-36, ,
0, ,-36, ,
-2, ,-36, ,
1, ,-36, ,
5, ,-37, ,
3, ,-36, ,
-4, ,-36, ,
3, ,-36, ,
1, ,-36, ,
-1, ,-36, ,
-1, ,-36, ,
0, ,-36, ,
1, ,-36, ,
3, ,-36, ,
-1, ,-36, ,
3, ,-36, ,
5, ,-36, ,
3, ,-36, ,
3, ,-36, ,
5, ,-36, ,
5, ,-36, ,
4, ,-36, ,
0, ,-36, ,
0, ,-36, ,
-2, ,-36, ,
-4, ,-36, ,
-6, ,-36, ,
-1, ,-36, ,
0, ,-36, ,
-1, ,-36, ,
-2, ,-36, ,
1, ,-36, ,
9, ,-36, ,
5, ,-36, ,
-1, ,-36, ,
3, ,-36, ,
3, ,-36, ,
0, ,-36, ,
-2, ,-36, ,
4, ,-36, ,
8, ,-36, ,
4, ,-36, ,
1, ,-36, ,
3, ,-36, ,
-2, ,-36, ,
-4, ,-36, ,
-7, ,-36, ,
-2, ,-36, ,
1, ,-36, ,
-1, ,-36, ,
-2, ,-36, ,
1, ,-36, ,
3, ,-36, ,
0, ,-36, ,
-6, ,-36, ,
4, ,-36, ,
5, ,-36, ,
4, ,-36, ,
1, ,-36, ,
3, ,-36, ,
0, ,-36, ,
1, ,-36, ,
-4, ,-36, ,
3, ,-36, ,
4, ,-37, ,
1, ,-36, ,
-2, ,-36, ,
3, ,-36, ,
0, ,-36, ,
-1, ,-36, ,
-1, ,-36, ,
1, ,-36, ,
1, ,-36, ,
0, ,-36, ,
-6, ,-36, ,
3, ,-36, ,
3, ,-36, ,
0, ,-36, ,
-1, ,-36, ,
1, ,-36, ,
4, ,-36, ,
1, ,-36, ,
-2, ,-36, ,
