src/vary_am2_1412/temp0001426.CSV

Format,1.0B,
Memory Length,10000,Memory Length,10000,
IntpDistance,0,IntpDistance,0,
Trigger Address,4999,Trigger Address,4999,
Trigger Level,9.600E-01,Trigger Level,9.600E-01,
Source,CH1,Source,CH2,
Vertical Units,V,Vertical Units,V,
Vertical Units Div,0,Vertical Units Div,0,
Vertical Units Extend Div,16,Vertical Units Extend Div,16,
Label,,Label,,
Probe Type,0,Probe Type,0,
Probe Ratio,1.000e+01,Probe Ratio,1.000e+00,
Vertical Scale,2.000e-02,Vertical Scale,1.000e+00,
Vertical Position,-5.120e-02,Vertical Position,0.000e+00,
Horizontal Units,S,Horizontal Units,S,
Horizontal Scale,1.000E-05,Horizontal Scale,1.000E-05,
Horizontal Position,0.000E+00,Horizontal Position,0.000E+00,
Horizontal Mode,Main,Horizontal Mode,Main,
SincET Mode,Real Time,SincET Mode,Real Time,
Sampling Period,1.000e-08,Sampling Period,1.000e-08,
Horizontal Old Scale,1.000E-05,Horizontal Old Scale,1.000E-05,
Horizontal Old Position,0.000E+00,Horizontal Old Position,0.000E+00,
Firmware,V1.23,Firmware,V1.23,
Mode,Fast,Mode,Fast,
Waveform Data,,Waveform Data,,
1, ,-44, ,
1, ,-43, ,
-2, ,-44, ,
-10, ,-44, ,
0, ,-44, ,
9, ,-44, ,
4, ,-44, ,
3, ,-44, ,
0, ,-45, ,
0, ,-44, ,
3, ,-44, ,
-1, ,-44, ,
3, ,-44, ,
5, ,-44, ,
1, ,-44, ,
1, ,-44, ,
5, ,-44, ,
0, ,-44, ,
1, ,-44, ,
0, ,-43, ,
0, ,-45, ,
1, ,-44, ,
8, ,-44, ,
1, ,-44, ,
1, ,-44, ,
4, ,-43, ,
0, ,-44, ,
-1, ,-44, ,
3, ,-44, ,
1, ,-44, ,
-1, ,-44, ,
0, ,-44, ,
1, ,-44, ,
-1, ,-44, ,
4, ,-44, ,
-1, ,-44, ,
4, ,-44, ,
5, ,-44, ,
1, ,-44, ,
-5, ,-44, ,
3, ,-44, ,
-1, ,-44, ,
-1, ,-44, ,
3, ,-44, ,
1, ,-45, ,
6, ,-44, ,
5, ,-44, ,
0, ,-44, ,
3, ,-44, ,
1, ,-44, ,
1, ,-44, ,
1, ,-44, ,
4, ,-44, ,
1, ,-44, ,
0, ,-44, ,
-4, ,-44, ,
-1, ,-45, ,
-1, ,-44, ,
-1, ,-44, ,
-4, ,-44, ,
4, ,-44, ,
9, ,-44, ,
5, ,-44, ,
3, ,-44, ,
8, ,-44, ,
1, ,-44, ,
-2, ,-44, ,
-1, ,-44, ,
1, ,-44, ,
4, ,-44, ,
6, ,-44, ,
3, ,-44, ,
4, ,-44, ,
4, ,-43, ,
0, ,-44, ,
-2, ,-44, ,
1, ,-44, ,
3, ,-44, ,
1, ,-44, ,
3, ,-44, ,
4, ,-44, ,
4, ,-44, ,
4, ,-44, ,
-1, ,-44, ,
-1, ,-44, ,
1, ,-44, ,
-1, ,-44, ,
-5, ,-44, ,
0, ,-44, ,
-1, ,-44, ,
-2, ,-44, ,
-21, ,-44, ,
-15, ,-44, ,
-4, ,-44, ,
-17, ,-43, ,
-19, ,-44, ,
-12, ,-44, ,
-11, ,-44, ,
-5, ,-44, ,
3, ,-44, ,
18, ,-44, ,
20, ,-44, ,
18, ,-44, ,
11, ,-44, ,
4, ,-44, ,
-6, ,-44, ,
-6, ,-44, ,
-14, ,-44, ,
-5, ,-44, ,
3, ,-44, ,
0, ,-44, ,
-2, ,-44, ,
-1, ,-44, ,
-1, ,-44, ,
-1, ,-44, ,
0, ,-44, ,
0, ,-44, ,
1, ,-44, ,
3, ,-44, ,
-4, ,-44, ,
-1, ,-44, ,
-4, ,-43, ,
-7, ,-44, ,
-5, ,-44, ,
1, ,-44, ,
4, ,-44, ,
1, ,-44, ,
5, ,-44, ,
4, ,-44, ,
3, ,-44, ,
3, ,-44, ,
-7, ,-44, ,
-5, ,-44, ,
-5, ,-43, ,
-5, ,-44, ,
-2, ,-44, ,
4, ,-44, ,
1, ,-44, ,
3, ,-44, ,
-1, ,-44, ,
0, ,-45, ,
3, ,-44, ,
1, ,-44, ,
-2, ,-44, ,
-1, ,-44, ,
1, ,-43, ,
-5, ,-44, ,
-7, ,-44, ,
-1, ,-44, ,
1, ,-44, ,
1, ,-44, ,
3, ,-44, ,
-1, ,-44, ,
0, ,-44, ,
3, ,-44, ,
-4, ,-44, ,
4, ,-44, ,
5, ,-44, ,
3, ,-44, ,
-1, ,-44, ,
4, ,-44, ,
-5, ,-44, ,
-4, ,-44, ,
-4, ,-44, ,
-2, ,-45, ,
1, ,-44, ,
1, ,-44, ,
-4, ,-44, ,
1, ,-44, ,
0, ,-43, ,
0, ,-44, ,
-2, ,-44, ,
3, ,-44, ,
3, ,-44, ,
0, ,-44, ,
0, ,-44, ,
-1, ,-45, ,
-4, ,-44, ,
0, ,-44, ,
-6, ,-44, ,
1, ,-44, ,
5, ,-44, ,
1, ,-44, ,
3, ,-44, ,
8, ,-44, ,
4, ,-44, ,
3, ,-44, ,
0, ,-44, ,
-2, ,-45, ,
-1, ,-44, ,
-2, ,-44, ,
-5, ,-44, ,
0, ,-44, ,
1, ,-44, ,
-1, ,-44, ,
-2, ,-44, ,
1, ,-44, ,
4, ,-44, ,
1, ,-44, ,
1, ,-44, ,
1, ,-45, ,
-1, ,-44, ,
0, ,-44, ,
-4, ,-44, ,
-1, ,-44, ,
3, ,-44, ,
0, ,-44, ,
0, ,-44, ,
6, ,-44, ,
4, ,-44, ,
5, ,-44, ,
3, ,-44, ,
3, ,-45, ,
3, ,-44, ,
4, ,-44, ,
-1, ,-44, ,
4, ,-44, ,
5, ,-43, ,
5, ,-44, ,
3, ,-44, ,
6, ,-44, ,
8, ,-44, ,
3, ,-44, ,
4, ,-44, ,
1, ,-45, ,
3, ,-44, ,
4, ,-44, ,
-4, ,-44, ,
3, ,-44, ,
6, ,-43, ,
4, ,-44, ,
1, ,-44, ,
5, ,-44, ,
5, ,-44, ,
1, ,-44, ,
4, ,-44, ,
4, ,-44, ,
3, ,-44, ,
3, ,-44, ,
-2, ,-44, ,
4, ,-44, ,
3, ,-44, ,
1, ,-44, ,
-1, ,-44, ,
3, ,-44, ,
1, ,-44, ,
-1, ,-44, ,
0, ,-44, ,
1, ,-44, ,
0, ,-44, ,
3, ,-44, ,
-1, ,-44, ,
-2, ,-44, ,
4, ,-44, ,
-1, ,-44, ,
-2, ,-44, ,
0, ,-44, ,
0, ,-44, ,
1, ,-44, ,
1, ,-44, ,
0, ,-44, ,
0, ,-44, ,
0, ,-44, ,
-5, ,-44, ,
-2, ,-44, ,
-1, ,-43, ,
-1, ,-44, ,
-5, ,-44, ,
4, ,-44, ,
4, ,-44, ,
-2, ,-44, ,
0, ,-44, ,
0, ,-44, ,
0, ,-44, ,
6, ,-44, ,
-1, ,-44, ,
0, ,-44, ,
4, ,-43, ,
-1, ,-44, ,
-4, ,-44, ,
1, ,-44, ,
-2, ,-44, ,
-1, ,-44, ,
0, ,-44, ,
-1, ,-44, ,
5, ,-44, ,
5, ,-44, ,
0, ,-44, ,
6, ,-44, ,
5, ,-43, ,
3, ,-44, ,
-4, ,-44, ,
5, ,-44, ,
1, ,-44, ,
-1, ,-44, ,
1, ,-44, ,
3, ,-44, ,
1, ,-44, ,
4, ,-44, ,
-1, ,-44, ,
4, ,-44, ,
11, ,-43, ,
6, ,-44, ,
6, ,-44, ,
10, ,-44, ,
8, ,-44, ,
5, ,-44, ,
0, ,-44, ,
3, ,-45, ,
1, ,-44, ,
3, ,-44, ,
1, ,-44, ,
6, ,-44, ,
8, ,-43, ,
4, ,-44, ,
3, ,-44, ,
4, ,-44, ,
6, ,-44, ,
4, ,-44, ,
1, ,-44, ,
9, ,-44, ,
10, ,-44, ,
10, ,-44, ,
4, ,-44, ,
4, ,-44, ,
6, ,-44, ,
3, ,-44, ,
1, ,-44, ,
6, ,-44, ,
4, ,-44, ,
4, ,-44, ,
3, ,-44, ,
3, ,-45, ,
4, ,-44, ,
4, ,-44, ,
3, ,-44, ,
5, ,-44, ,
8, ,-43, ,
5, ,-44, ,
-2, ,-44, ,
4, ,-44, ,
4, ,-44, ,
1, ,-44, ,
4, ,-44, ,
5, ,-44, ,
5, ,-44, ,
5, ,-44, ,
-1, ,-44, ,
3, ,-44, ,
3, ,-44, ,
1, ,-44, ,
0, ,-44, ,
4, ,-44, ,
1, ,-44, ,
3, ,-44, ,
0, ,-44, ,
-1, ,-45, ,
1, ,-44, ,
5, ,-44, ,
-1, ,-44, ,
-1, ,-44, ,
1, ,-43, ,
-1, ,-44, ,
-4, ,-44, ,
0, ,-44, ,
0, ,-44, ,
-1, ,-44, ,
0, ,-44, ,
1, ,-44, ,
3, ,-44, ,
6, ,-44, ,
0, ,-44, ,
3, ,-44, ,
5, ,-43, ,
0, ,-44, ,
-1, ,-44, ,
5, ,-44, ,
1, ,-44, ,
4, ,-44, ,
3, ,-44, ,
4, ,-44, ,
1, ,-44, ,
1, ,-44, ,
-1, ,-44, ,
1, ,-44, ,
1, ,-43, ,
0, ,-44, ,
-1, ,-44, ,
0, ,-44, ,
-1, ,-44, ,
-2, ,-44, ,
-1, ,-44, ,
-4, ,-44, ,
-4, ,-44, ,
3, ,-44, ,
-4, ,-44, ,
0, ,-44, ,
0, ,-43, ,
-2, ,-44, ,
-6, ,-44, ,
0, ,-44, ,
-5, ,-44, ,
-4, ,-45, ,
-4, ,-44, ,
-2, ,-45, ,
0, ,-44, ,
1, ,-44, ,
-4, ,-44, ,
0, ,-44, ,
0, ,-43, ,
-2, ,-44, ,
-5, ,-44, ,
1, ,-44, ,
-1, ,-44, ,
-5, ,-44, ,
-4, ,-44, ,
-4, ,-44, ,
-4, ,-44, ,
-4, ,-44, ,
-7, ,-44, ,
-5, ,-44, ,
-1, ,-43, ,
-4, ,-44, ,
-5, ,-44, ,
-1, ,-44, ,
-4, ,-44, ,
-2, ,-44, ,
-4, ,-44, ,
-2, ,-44, ,
1, ,-44, ,
4, ,-44, ,
-9, ,-44, ,
-2, ,-44, ,
1, ,-43, ,
-4, ,-44, ,
-2, ,-44, ,
-1, ,-44, ,
0, ,-44, ,
-1, ,-44, ,
-4, ,-44, ,
1, ,-44, ,
3, ,-44, ,
3, ,-44, ,
0, ,-44, ,
3, ,-44, ,
4, ,-44, ,
-2, ,-44, ,
-6, ,-44, ,
6, ,-44, ,
-1, ,-44, ,
-2, ,-44, ,
1, ,-44, ,
-6, ,-45, ,
-2, ,-44, ,
-2, ,-44, ,
-6, ,-44, ,
3, ,-44, ,
5, ,-43, ,
1, ,-44, ,
-4, ,-44, ,
3, ,-44, ,
0, ,-44, ,
0, ,-44, ,
0, ,-44, ,
1, ,-45, ,
3, ,-44, ,
1, ,-44, ,
-4, ,-44, ,
-2, ,-44, ,
-1, ,-43, ,
-5, ,-44, ,
-4, ,-44, ,
3, ,-44, ,
0, ,-44, ,
3, ,-44, ,
0, ,-44, ,
-4, ,-45, ,
-1, ,-44, ,
4, ,-44, ,
-4, ,-44, ,
5, ,-44, ,
9, ,-43, ,
4, ,-44, ,
4, ,-44, ,
6, ,-44, ,
4, ,-44, ,
0, ,-44, ,
-2, ,-44, ,
-1, ,-45, ,
-5, ,-44, ,
-2, ,-44, ,
-5, ,-44, ,
-1, ,-44, ,
1, ,-43, ,
-1, ,-44, ,
-2, ,-44, ,
3, ,-44, ,
-1, ,-44, ,
3, ,-44, ,
1, ,-44, ,
1, ,-44, ,
5, ,-44, ,
0, ,-44, ,
-4, ,-44, ,
0, ,-44, ,
1, ,-43, ,
-4, ,-44, ,
-2, ,-44, ,
3, ,-44, ,
1, ,-44, ,
0, ,-44, ,
3, ,-44, ,
0, ,-45, ,
0, ,-44, ,
4, ,-44, ,
-2, ,-44, ,
3, ,-44, ,
5, ,-43, ,
3, ,-44, ,
0, ,-44, ,
6, ,-44, ,
1, ,-41, ,
4, ,-34, ,
5, ,-24, ,
8, ,-14, ,
10, ,-5, ,
9, ,2, ,
3, ,8, ,
6, ,14, ,
10, ,19, ,
10, ,23, ,
8, ,27, ,
11, ,30, ,
8, ,33, ,
5, ,35, ,
4, ,36, ,
5, ,38, ,
5, ,40, ,
6, ,41, ,
1, ,42, ,
5, ,43, ,
8, ,43, ,
0, ,45, ,
-1, ,45, ,
6, ,45, ,
4, ,46, ,
5, ,46, ,
6, ,46, ,
5, ,47, ,
5, ,47, ,
5, ,47, ,
0, ,47, ,
1, ,47, ,
3, ,47, ,
3, ,49, ,
-1, ,49, ,
5, ,49, ,
3, ,49, ,
4, ,49, ,
3, ,47, ,
3, ,49, ,
3, ,49, ,
4, ,49, ,
-1, ,49, ,
3, ,49, ,
6, ,47, ,
4, ,50, ,
0, ,50, ,
6, ,49, ,
0, ,49, ,
3, ,49, ,
1, ,47, ,
0, ,50, ,
4, ,49, ,
4, ,49, ,
1, ,49, ,
4, ,49, ,
4, ,47, ,
3, ,49, ,
-2, ,49, ,
3, ,49, ,
0, ,49, ,
1, ,49, ,
3, ,49, ,
3, ,49, ,
1, ,49, ,
6, ,49, ,
0, ,49, ,
3, ,49, ,
4, ,47, ,
3, ,49, ,
-1, ,49, ,
4, ,49, ,
1, ,49, ,
3, ,49, ,
4, ,47, ,
0, ,49, ,
3, ,49, ,
6, ,49, ,
0, ,49, ,
4, ,49, ,
5, ,47, ,
4, ,49, ,
1, ,49, ,
3, ,49, ,
-1, ,49, ,
-2, ,49, ,
-1, ,47, ,
0, ,50, ,
-1, ,49, ,
3, ,47, ,
-1, ,49, ,
0, ,49, ,
1, ,47, ,
-1, ,49, ,
-2, ,49, ,
4, ,49, ,
0, ,49, ,
3, ,49, ,
3, ,47, ,
4, ,49, ,
5, ,47, ,
4, ,49, ,
1, ,49, ,
3, ,49, ,
3, ,47, ,
0, ,49, ,
-4, ,49, ,
4, ,47, ,
-2, ,47, ,
-1, ,49, ,
0, ,47, ,
-1, ,49, ,
1, ,47, ,
1, ,49, ,
-5, ,49, ,
1, ,49, ,
1, ,47, ,
-2, ,49, ,
-7, ,49, ,
-1, ,47, ,
-5, ,49, ,
-4, ,47, ,
-4, ,47, ,
-1, ,49, ,
1, ,47, ,
1, ,49, ,
-4, ,49, ,
0, ,49, ,
-1, ,46, ,
0, ,49, ,
-2, ,49, ,
1, ,47, ,
3, ,49, ,
-2, ,49, ,
-2, ,47, ,
-1, ,49, ,
-1, ,47, ,
1, ,49, ,
-6, ,49, ,
-1, ,49, ,
3, ,46, ,
-1, ,49, ,
-1, ,49, ,
0, ,47, ,
-2, ,49, ,
-2, ,49, ,
-2, ,47, ,
-2, ,49, ,
0, ,49, ,
5, ,49, ,
-2, ,49, ,
0, ,49, ,
3, ,47, ,
-1, ,49, ,
-6, ,49, ,
0, ,47, ,
-4, ,49, ,
1, ,49, ,
-1, ,47, ,
-1, ,49, ,
0, ,47, ,
1, ,47, ,
-6, ,49, ,
-1, ,49, ,
4, ,46, ,
-2, ,49, ,
-4, ,49, ,
3, ,47, ,
0, ,49, ,
-1, ,49, ,
-1, ,47, ,
-4, ,49, ,
1, ,47, ,
1, ,49, ,
-4, ,49, ,
0, ,47, ,
0, ,46, ,
-1, ,49, ,
-5, ,49, ,
-2, ,47, ,
-2, ,49, ,
-5, ,49, ,
-5, ,47, ,
-1, ,49, ,
1, ,47, ,
4, ,47, ,
-4, ,49, ,
0, ,47, ,
-1, ,47, ,
-1, ,49, ,
-6, ,49, ,
0, ,47, ,
-4, ,49, ,
-4, ,49, ,
-1, ,47, ,
-2, ,49, ,
-1, ,47, ,
0, ,47, ,
-5, ,47, ,
-1, ,49, ,
-1, ,46, ,
0, ,49, ,
-1, ,49, ,
4, ,47, ,
5, ,49, ,
0, ,47, ,
0, ,47, ,
-1, ,49, ,
-4, ,47, ,
-2, ,47, ,
-7, ,49, ,
-1, ,49, ,
5, ,47, ,
3, ,49, ,
3, ,49, ,
8, ,47, ,
1, ,49, ,
1, ,49, ,
1, ,47, ,
0, ,49, ,
0, ,47, ,
4, ,47, ,
-2, ,47, ,
3, ,49, ,
4, ,46, ,
3, ,49, ,
-4, ,49, ,
3, ,47, ,
0, ,47, ,
0, ,47, ,
0, ,47, ,
1, ,49, ,
1, ,47, ,
4, ,47, ,
1, ,49, ,
0, ,49, ,
4, ,47, ,
1, ,49, ,
1, ,49, ,
8, ,47, ,
4, ,49, ,
3, ,49, ,
4, ,47, ,
3, ,49, ,
4, ,47, ,
4, ,49, ,
-1, ,49, ,
3, ,49, ,
4, ,46, ,
5, ,49, ,
4, ,47, ,
8, ,49, ,
6, ,49, ,
4, ,49, ,
3, ,47, ,
3, ,49, ,
-1, ,47, ,
6, ,47, ,
-2, ,49, ,
4, ,49, ,
8, ,47, ,
5, ,49, ,
0, ,49, ,
6, ,47, ,
4, ,49, ,
4, ,49, ,
1, ,47, ,
6, ,49, ,
5, ,47, ,
10, ,49, ,
1, ,49, ,
4, ,49, ,
3, ,46, ,
1, ,49, ,
-2, ,47, ,
5, ,47, ,
5, ,49, ,
4, ,49, ,
5, ,47, ,
5, ,49, ,
1, ,47, ,
3, ,47, ,
-2, ,49, ,
-1, ,49, ,
4, ,46, ,
4, ,49, ,
1, ,49, ,
11, ,47, ,
6, ,49, ,
5, ,49, ,
5, ,47, ,
1, ,49, ,
5, ,49, ,
6, ,47, ,
0, ,49, ,
4, ,49, ,
5, ,46, ,
4, ,49, ,
3, ,49, ,
8, ,47, ,
4, ,49, ,
3, ,47, ,
6, ,47, ,
4, ,49, ,
6, ,49, ,
6, ,47, ,
1, ,49, ,
5, ,49, ,
6, ,46, ,
6, ,49, ,
0, ,49, ,
8, ,47, ,
4, ,49, ,
4, ,47, ,
4, ,47, ,
4, ,49, ,
6, ,47, ,
10, ,47, ,
3, ,49, ,
9, ,49, ,
6, ,46, ,
8, ,47, ,
4, ,49, ,
8, ,49, ,
6, ,49, ,
4, ,47, ,
4, ,47, ,
5, ,49, ,
3, ,47, ,
6, ,49, ,
-1, ,49, ,
3, ,49, ,
3, ,46, ,
3, ,49, ,
-1, ,49, ,
5, ,47, ,
0, ,47, ,
4, ,49, ,
4, ,47, ,
1, ,49, ,
1, ,47, ,
4, ,47, ,
0, ,49, ,
4, ,49, ,
4, ,46, ,
3, ,49, ,
-2, ,49, ,
3, ,47, ,
-1, ,47, ,
1, ,49, ,
1, ,47, ,
3, ,49, ,
4, ,47, ,
8, ,47, ,
-1, ,49, ,
1, ,49, ,
6, ,46, ,
1, ,49, ,
-1, ,49, ,
4, ,47, ,
-1, ,49, ,
-1, ,47, ,
3, ,47, ,
0, ,49, ,
6, ,47, ,
8, ,47, ,
4, ,49, ,
0, ,49, ,
-1, ,46, ,
0, ,49, ,
-11, ,47, ,
0, ,47, ,
6, ,49, ,
4, ,49, ,
0, ,47, ,
-1, ,49, ,
-1, ,47, ,
5, ,49, ,
-4, ,49, ,
-4, ,49, ,
6, ,46, ,
3, ,49, ,
-5, ,49, ,
5, ,47, ,
-2, ,49, ,
-2, ,47, ,
-2, ,46, ,
1, ,49, ,
3, ,47, ,
4, ,47, ,
-4, ,49, ,
0, ,49, ,
0, ,46, ,
-4, ,49, ,
-5, ,47, ,
0, ,47, ,
1, ,49, ,
1, ,49, ,
1, ,47, ,
-1, ,49, ,
0, ,47, ,
1, ,47, ,
-5, ,49, ,
0, ,47, ,
3, ,46, ,
-2, ,49, ,
-5, ,49, ,
3, ,49, ,
-4, ,49, ,
0, ,49, ,
3, ,47, ,
0, ,49, ,
1, ,47, ,
5, ,49, ,
-6, ,49, ,
-1, ,47, ,
-1, ,46, ,
-1, ,49, ,
-10, ,49, ,
1, ,47, ,
-1, ,49, ,
-7, ,49, ,
-4, ,46, ,
-1, ,49, ,
-4, ,47, ,
-1, ,47, ,
-4, ,49, ,
0, ,47, ,
-1, ,46, ,
-2, ,49, ,
-6, ,47, ,
-2, ,47, ,
-6, ,49, ,
-4, ,47, ,
-5, ,47, ,
-2, ,49, ,
-2, ,47, ,
-1, ,47, ,
-6, ,49, ,
-2, ,47, ,
-1, ,46, ,
0, ,49, ,
-4, ,49, ,
-4, ,47, ,
-2, ,47, ,
-1, ,47, ,
0, ,47, ,
1, ,49, ,
-2, ,47, ,
0, ,47, ,
-7, ,49, ,
-5, ,47, ,
-2, ,46, ,
-1, ,49, ,
-6, ,49, ,
-12, ,47, ,
-6, ,49, ,
5, ,47, ,
-5, ,47, ,
1, ,49, ,
4, ,47, ,
3, ,47, ,
-5, ,47, ,
0, ,47, ,
1, ,46, ,
1, ,49, ,
3, ,49, ,
3, ,47, ,
-1, ,49, ,
-2, ,49, ,
-4, ,46, ,
-7, ,49, ,
-1, ,47, ,
3, ,47, ,
-4, ,49, ,
4, ,49, ,
8, ,46, ,
1, ,49, ,
-2, ,49, ,
8, ,47, ,
-1, ,47, ,
1, ,49, ,
-2, ,47, ,
-2, ,49, ,
1, ,49, ,
1, ,47, ,
-5, ,49, ,
1, ,49, ,
1, ,46, ,
0, ,49, ,
-2, ,49, ,
3, ,47, ,
0, ,49, ,
-4, ,47, ,
-2, ,47, ,
-1, ,49, ,
-2, ,47, ,
-2, ,47, ,
-6, ,49, ,
0, ,47, ,
4, ,46, ,
1, ,49, ,
-1, ,49, ,
4, ,47, ,
0, ,49, ,
-1, ,47, ,
-2, ,47, ,
-4, ,49, ,
-5, ,47, ,
3, ,47, ,
-2, ,49, ,
0, ,49, ,
6, ,46, ,
5, ,49, ,
3, ,49, ,
5, ,47, ,
5, ,49, ,
0, ,47, ,
0, ,47, ,
3, ,49, ,
0, ,47, ,
3, ,47, ,
-2, ,49, ,
-1, ,47, ,
4, ,47, ,
0, ,49, ,
-1, ,47, ,
5, ,47, ,
0, ,49, ,
1, ,49, ,
4, ,47, ,
1, ,49, ,
4, ,47, ,
5, ,49, ,
0, ,49, ,
1, ,47, ,
3, ,46, ,
1, ,49, ,
-1, ,49, ,
5, ,47, ,
5, ,49, ,
4, ,49, ,
5, ,47, ,
3, ,49, ,
4, ,49, ,
5, ,47, ,
1, ,49, ,
4, ,49, ,
6, ,46, ,
4, ,49, ,
1, ,49, ,
8, ,47, ,
1, ,47, ,
3, ,47, ,
1, ,47, ,
1, ,49, ,
0, ,47, ,
1, ,47, ,
-1, ,49, ,
6, ,49, ,
5, ,46, ,
3, ,49, ,
1, ,47, ,
8, ,47, ,
4, ,49, ,
3, ,47, ,
3, ,47, ,
4, ,49, ,
3, ,47, ,
8, ,49, ,
-1, ,49, ,
0, ,49, ,
5, ,47, ,
0, ,49, ,
1, ,49, ,
9, ,47, ,
4, ,49, ,
4, ,49, ,
1, ,46, ,
1, ,49, ,
4, ,49, ,
5, ,49, ,
0, ,47, ,
3, ,49, ,
5, ,47, ,
3, ,49, ,
-1, ,49, ,
1, ,47, ,
3, ,49, ,
0, ,49, ,
-1, ,47, ,
0, ,49, ,
-1, ,47, ,
3, ,47, ,
-1, ,49, ,
1, ,49, ,
4, ,46, ,
-1, ,49, ,
-4, ,47, ,
5, ,47, ,
0, ,49, ,
3, ,49, ,
4, ,47, ,
4, ,49, ,
5, ,47, ,
8, ,47, ,
3, ,49, ,
5, ,49, ,
5, ,46, ,
4, ,49, ,
-1, ,49, ,
5, ,47, ,
1, ,49, ,
1, ,47, ,
3, ,47, ,
3, ,49, ,
1, ,49, ,
5, ,47, ,
1, ,49, ,
3, ,49, ,
5, ,46, ,
1, ,49, ,
0, ,49, ,
4, ,47, ,
3, ,49, ,
3, ,47, ,
1, ,46, ,
5, ,49, ,
4, ,47, ,
8, ,47, ,
-2, ,49, ,
1, ,47, ,
1, ,46, ,
1, ,49, ,
-1, ,49, ,
5, ,47, ,
3, ,47, ,
4, ,49, ,
1, ,47, ,
5, ,49, ,
3, ,47, ,
3, ,47, ,
-4, ,47, ,
-1, ,49, ,
3, ,46, ,
-1, ,49, ,
-1, ,49, ,
5, ,47, ,
0, ,47, ,
3, ,49, ,
3, ,47, ,
3, ,49, ,
4, ,47, ,
5, ,49, ,
-1, ,49, ,
1, ,47, ,
0, ,46, ,
0, ,49, ,
-2, ,49, ,
1, ,47, ,
0, ,49, ,
-1, ,47, ,
0, ,47, ,
1, ,49, ,
1, ,47, ,
5, ,47, ,
-4, ,49, ,
0, ,47, ,
1, ,47, ,
0, ,49, ,
-4, ,49, ,
4, ,47, ,
-1, ,49, ,
3, ,47, ,
1, ,47, ,
1, ,49, ,
1, ,47, ,
3, ,47, ,
-4, ,49, ,
3, ,47, ,
5, ,46, ,
3, ,49, ,
-1, ,49, ,
4, ,47, ,
1, ,47, ,
0, ,49, ,
-1, ,47, ,
1, ,49, ,
1, ,47, ,
5, ,47, ,
-1, ,49, ,
1, ,49, ,
3, ,46, ,
-4, ,49, ,
-5, ,49, ,
0, ,47, ,
-2, ,49, ,
0, ,49, ,
-1, ,47, ,
3, ,49, ,
3, ,47, ,
3, ,47, ,
-1, ,49, ,
0, ,47, ,
3, ,46, ,
1, ,49, ,
-1, ,49, ,
5, ,47, ,
3, ,49, ,
0, ,49, ,
1, ,47, ,
1, ,49, ,
-1, ,47, ,
1, ,49, ,
-4, ,49, ,
1, ,49, ,
1, ,46, ,
0, ,49, ,
-4, ,49, ,
4, ,49, ,
1, ,49, ,
0, ,49, ,
0, ,47, ,
1, ,49, ,
3, ,47, ,
5, ,49, ,
-2, ,49, ,
1, ,49, ,
3, ,46, ,
0, ,49, ,
-5, ,49, ,
1, ,47, ,
-1, ,47, ,
-1, ,49, ,
-2, ,47, ,
0, ,49, ,
1, ,47, ,
3, ,49, ,
-1, ,49, ,
3, ,49, ,
5, ,46, ,
1, ,49, ,
-2, ,47, ,
4, ,47, ,
4, ,47, ,
1, ,45, ,
-2, ,37, ,
-5, ,27, ,
-6, ,17, ,
-6, ,8, ,
-6, ,1, ,
-4, ,-5, ,
0, ,-11, ,
-1, ,-16, ,
-5, ,-19, ,
-2, ,-23, ,
-2, ,-26, ,
-1, ,-28, ,
-2, ,-31, ,
-4, ,-34, ,
-2, ,-35, ,
-1, ,-36, ,
-4, ,-38, ,
3, ,-39, ,
6, ,-39, ,
3, ,-41, ,
0, ,-41, ,
5, ,-41, ,
4, ,-42, ,
0, ,-43, ,
0, ,-42, ,
-1, ,-43, ,
1, ,-44, ,
1, ,-43, ,
0, ,-44, ,
4, ,-44, ,
3, ,-43, ,
1, ,-45, ,
-4, ,-45, ,
3, ,-44, ,
0, ,-44, ,
-1, ,-45, ,
1, ,-44, ,
1, ,-45, ,
1, ,-44, ,
3, ,-44, ,
-2, ,-45, ,
3, ,-45, ,
5, ,-44, ,
4, ,-45, ,
3, ,-45, ,
6, ,-45, ,
3, ,-45, ,
3, ,-45, ,
0, ,-44, ,
-1, ,-45, ,
0, ,-45, ,
3, ,-44, ,
-1, ,-45, ,
3, ,-45, ,
4, ,-44, ,
0, ,-45, ,
1, ,-45, ,
4, ,-44, ,
4, ,-45, ,
0, ,-45, ,
0, ,-44, ,
0, ,-45, ,
-1, ,-45, ,
3, ,-44, ,
-1, ,-45, ,
1, ,-44, ,
5, ,-44, ,
0, ,-45, ,
-1, ,-45, ,
5, ,-45, ,
-1, ,-45, ,
0, ,-45, ,
3, ,-44, ,
4, ,-45, ,
4, ,-45, ,
3, ,-44, ,
-2, ,-45, ,
4, ,-45, ,
4, ,-44, ,
3, ,-45, ,
3, ,-44, ,
8, ,-44, ,
4, ,-45, ,
1, ,-45, ,
1, ,-44, ,
-1, ,-45, ,
1, ,-44, ,
5, ,-44, ,
-5, ,-44, ,
1, ,-44, ,
4, ,-44, ,
-2, ,-45, ,
-1, ,-44, ,
6, ,-44, ,
0, ,-44, ,
1, ,-44, ,
3, ,-44, ,
1, ,-45, ,
5, ,-44, ,
5, ,-44, ,
-1, ,-44, ,
3, ,-44, ,
5, ,-43, ,
0, ,-45, ,
0, ,-44, ,
1, ,-44, ,
1, ,-44, ,
-1, ,-44, ,
0, ,-44, ,
1, ,-45, ,
0, ,-44, ,
1, ,-44, ,
-1, ,-44, ,
6, ,-44, ,
9, ,-44, ,
0, ,-44, ,
1, ,-44, ,
6, ,-44, ,
-1, ,-44, ,
1, ,-44, ,
-1, ,-44, ,
0, ,-44, ,
4, ,-44, ,
4, ,-44, ,
-1, ,-44, ,
1, ,-44, ,
3, ,-43, ,
-1, ,-44, ,
-4, ,-44, ,
3, ,-44, ,
1, ,-44, ,
1, ,-44, ,
3, ,-44, ,
1, ,-45, ,
0, ,-44, ,
0, ,-44, ,
-4, ,-44, ,
-2, ,-44, ,
0, ,-44, ,
-2, ,-45, ,
-5, ,-44, ,
3, ,-44, ,
-1, ,-44, ,
0, ,-44, ,
-2, ,-44, ,
-1, ,-45, ,
1, ,-44, ,
-1, ,-44, ,
-2, ,-44, ,
1, ,-44, ,
-1, ,-44, ,
0, ,-44, ,
-5, ,-44, ,
1, ,-45, ,
1, ,-44, ,
-4, ,-44, ,
0, ,-44, ,
0, ,-44, ,
3, ,-44, ,
4, ,-44, ,
-2, ,-44, ,
0, ,-44, ,
0, ,-44, ,
-2, ,-44, ,
-4, ,-44, ,
4, ,-44, ,
3, ,-44, ,
3, ,-44, ,
4, ,-44, ,
3, ,-44, ,
0, ,-45, ,
1, ,-44, ,
-6, ,-44, ,
3, ,-45, ,
0, ,-43, ,
-1, ,-44, ,
-1, ,-44, ,
1, ,-44, ,
1, ,-44, ,
0, ,-44, ,
1, ,-44, ,
3, ,-44, ,
1, ,-44, ,
4, ,-44, ,
-1, ,-44, ,
1, ,-44, ,
4, ,-43, ,
0, ,-44, ,
-2, ,-45, ,
1, ,-44, ,
1, ,-44, ,
1, ,-44, ,
0, ,-44, ,
0, ,-45, ,
1, ,-44, ,
1, ,-44, ,
-1, ,-44, ,
1, ,-44, ,
3, ,-44, ,
1, ,-44, ,
-1, ,-44, ,
3, ,-44, ,
3, ,-44, ,
3, ,-44, ,
0, ,-44, ,
1, ,-45, ,
4, ,-44, ,
3, ,-44, ,
-1, ,-44, ,
-2, ,-44, ,
0, ,-44, ,
-4, ,-44, ,
-4, ,-44, ,
1, ,-44, ,
1, ,-44, ,
3, ,-44, ,
3, ,-44, ,
3, ,-44, ,
4, ,-44, ,
3, ,-44, ,
-4, ,-44, ,
1, ,-44, ,
3, ,-44, ,
0, ,-44, ,
-2, ,-44, ,
1, ,-44, ,
1, ,-44, ,
-1, ,-44, ,
0, ,-44, ,
-1, ,-44, ,
-1, ,-44, ,
8, ,-44, ,
1, ,-44, ,
3, ,-44, ,
8, ,-43, ,
1, ,-44, ,
0, ,-44, ,
3, ,-44, ,
0, ,-44, ,
4, ,-44, ,
1, ,-44, ,
6, ,-44, ,
5, ,-44, ,
8, ,-44, ,
0, ,-44, ,
0, ,-44, ,
-1, ,-43, ,
-2, ,-44, ,
-4, ,-44, ,
3, ,-44, ,
-1, ,-44, ,
-2, ,-44, ,
0, ,-44, ,
3, ,-44, ,
3, ,-44, ,
4, ,-44, ,
1, ,-44, ,
1, ,-45, ,
4, ,-43, ,
1, ,-44, ,
-1, ,-44, ,
6, ,-44, ,
4, ,-44, ,
5, ,-44, ,
3, ,-44, ,
1, ,-44, ,
1, ,-44, ,
1, ,-44, ,
0, ,-44, ,
4, ,-44, ,
8, ,-43, ,
3, ,-44, ,
1, ,-44, ,
5, ,-44, ,
3, ,-44, ,
0, ,-44, ,
1, ,-44, ,
3, ,-45, ,
6, ,-44, ,
9, ,-44, ,
4, ,-44, ,
5, ,-44, ,
6, ,-44, ,
1, ,-45, ,
-2, ,-44, ,
3, ,-44, ,
-2, ,-44, ,
-1, ,-44, ,
-2, ,-44, ,
-1, ,-45, ,
1, ,-44, ,
3, ,-44, ,
-1, ,-44, ,
1, ,-44, ,
5, ,-43, ,
0, ,-44, ,
3, ,-44, ,
5, ,-44, ,
4, ,-44, ,
0, ,-44, ,
0, ,-44, ,
1, ,-44, ,
1, ,-44, ,
0, ,-44, ,
-4, ,-44, ,
0, ,-44, ,
6, ,-44, ,
1, ,-44, ,
0, ,-44, ,
4, ,-44, ,
-1, ,-44, ,
1, ,-44, ,
-2, ,-44, ,
0, ,-45, ,
0, ,-44, ,
0, ,-44, ,
-1, ,-44, ,
1, ,-44, ,
5, ,-43, ,
4, ,-44, ,
0, ,-44, ,
5, ,-44, ,
3, ,-44, ,
3, ,-44, ,
1, ,-44, ,
1, ,-44, ,
1, ,-44, ,
3, ,-44, ,
-1, ,-44, ,
3, ,-44, ,
5, ,-43, ,
1, ,-44, ,
-1, ,-44, ,
6, ,-44, ,
4, ,-44, ,
4, ,-44, ,
4, ,-44, ,
3, ,-45, ,
4, ,-44, ,
6, ,-44, ,
-2, ,-44, ,
4, ,-44, ,
4, ,-44, ,
3, ,-44, ,
-2, ,-44, ,
4, ,-44, ,
1, ,-44, ,
-1, ,-44, ,
1, ,-44, ,
-1, ,-45, ,
1, ,-44, ,
4, ,-44, ,
-2, ,-44, ,
4, ,-44, ,
5, ,-43, ,
1, ,-44, ,
-1, ,-44, ,
4, ,-44, ,
1, ,-44, ,
3, ,-44, ,
3, ,-44, ,
3, ,-45, ,
0, ,-44, ,
1, ,-44, ,
-5, ,-44, ,
-1, ,-44, ,
1, ,-43, ,
-1, ,-44, ,
-1, ,-44, ,
3, ,-44, ,
1, ,-44, ,
0, ,-44, ,
-1, ,-44, ,
3, ,-45, ,
0, ,-44, ,
3, ,-44, ,
-1, ,-44, ,
1, ,-44, ,
5, ,-44, ,
-1, ,-44, ,
-4, ,-44, ,
3, ,-44, ,
-1, ,-44, ,
3, ,-44, ,
-1, ,-43, ,
0, ,-45, ,
1, ,-44, ,
3, ,-44, ,
-2, ,-44, ,
4, ,-44, ,
3, ,-43, ,
3, ,-44, ,
-4, ,-44, ,
5, ,-44, ,
3, ,-44, ,
-1, ,-45, ,
3, ,-44, ,
3, ,-45, ,
3, ,-44, ,
3, ,-44, ,
-2, ,-44, ,
0, ,-44, ,
1, ,-43, ,
0, ,-44, ,
-2, ,-44, ,
3, ,-44, ,
3, ,-44, ,
1, ,-44, ,
3, ,-44, ,
4, ,-45, ,
4, ,-44, ,
5, ,-44, ,
-2, ,-44, ,
1, ,-44, ,
0, ,-43, ,
-4, ,-45, ,
-5, ,-44, ,
0, ,-44, ,
1, ,-44, ,
0, ,-44, ,
0, ,-44, ,
1, ,-45, ,
1, ,-44, ,
4, ,-44, ,
-4, ,-44, ,
0, ,-45, ,
4, ,-43, ,
0, ,-44, ,
0, ,-44, ,
8, ,-44, ,
4, ,-44, ,
3, ,-44, ,
1, ,-44, ,
0, ,-45, ,
1, ,-44, ,
-1, ,-44, ,
-6, ,-44, ,
0, ,-44, ,
1, ,-43, ,
1, ,-44, ,
-1, ,-44, ,
4, ,-44, ,
3, ,-44, ,
0, ,-44, ,
0, ,-44, ,
0, ,-45, ,
1, ,-44, ,
1, ,-44, ,
-1, ,-44, ,
0, ,-44, ,
0, ,-44, ,
-4, ,-44, ,
-7, ,-44, ,
0, ,-44, ,
-2, ,-44, ,
0, ,-44, ,
3, ,-44, ,
5, ,-45, ,
4, ,-44, ,
1, ,-44, ,
-4, ,-44, ,
1, ,-44, ,
-1, ,-43, ,
-4, ,-45, ,
-5, ,-44, ,
1, ,-44, ,
4, ,-44, ,
0, ,-44, ,
1, ,-44, ,
0, ,-45, ,
-6, ,-44, ,
0, ,-44, ,
-5, ,-44, ,
0, ,-44, ,
