src/vary_am2_1412/temp0002506.CSV

Format,1.0B,
Memory Length,10000,Memory Length,10000,
IntpDistance,0,IntpDistance,0,
Trigger Address,4999,Trigger Address,4999,
Trigger Level,9.600E-01,Trigger Level,9.600E-01,
Source,CH1,Source,CH2,
Vertical Units,V,Vertical Units,V,
Vertical Units Div,0,Vertical Units Div,0,
Vertical Units Extend Div,16,Vertical Units Extend Div,16,
Label,,Label,,
Probe Type,0,Probe Type,0,
Probe Ratio,1.000e+01,Probe Ratio,1.000e+00,
Vertical Scale,2.000e-02,Vertical Scale,1.000e+00,
Vertical Position,-5.120e-02,Vertical Position,0.000e+00,
Horizontal Units,S,Horizontal Units,S,
Horizontal Scale,1.000E-05,Horizontal Scale,1.000E-05,
Horizontal Position,0.000E+00,Horizontal Position,0.000E+00,
Horizontal Mode,Main,Horizontal Mode,Main,
SincET Mode,Real Time,SincET Mode,Real Time,
Sampling Period,1.000e-08,Sampling Period,1.000e-08,
Horizontal Old Scale,1.000E-05,Horizontal Old Scale,1.000E-05,
Horizontal Old Position,0.000E+00,Horizontal Old Position,0.000E+00,
Firmware,V1.23,Firmware,V1.23,
Mode,Fast,Mode,Fast,
Waveform Data,,Waveform Data,,
-1, ,-38, ,
-2, ,-37, ,
4, ,-37, ,
1, ,-38, ,
4, ,-38, ,
3, ,-37, ,
3, ,-38, ,
3, ,-38, ,
1, ,-37, ,
-6, ,-37, ,
-2, ,-38, ,
0, ,-37, ,
0, ,-38, ,
-1, ,-37, ,
3, ,-38, ,
3, ,-38, ,
-1, ,-38, ,
-2, ,-36, ,
0, ,-38, ,
0, ,-37, ,
0, ,-38, ,
-2, ,-38, ,
1, ,-38, ,
3, ,-37, ,
0, ,-38, ,
-5, ,-37, ,
0, ,-37, ,
-4, ,-38, ,
0, ,-38, ,
-2, ,-37, ,
-1, ,-38, ,
1, ,-38, ,
-1, ,-37, ,
-2, ,-37, ,
1, ,-38, ,
0, ,-37, ,
-1, ,-38, ,
-2, ,-38, ,
3, ,-37, ,
3, ,-38, ,
1, ,-37, ,
1, ,-37, ,
1, ,-38, ,
1, ,-37, ,
3, ,-37, ,
-4, ,-37, ,
0, ,-38, ,
-1, ,-37, ,
0, ,-38, ,
-1, ,-38, ,
1, ,-38, ,
1, ,-38, ,
3, ,-37, ,
0, ,-36, ,
4, ,-38, ,
1, ,-38, ,
1, ,-37, ,
-4, ,-37, ,
3, ,-37, ,
1, ,-37, ,
-1, ,-38, ,
0, ,-37, ,
3, ,-38, ,
3, ,-37, ,
1, ,-37, ,
-2, ,-37, ,
0, ,-38, ,
-1, ,-38, ,
-1, ,-38, ,
-6, ,-37, ,
0, ,-38, ,
3, ,-37, ,
0, ,-38, ,
-5, ,-37, ,
1, ,-37, ,
-1, ,-38, ,
0, ,-37, ,
0, ,-37, ,
3, ,-38, ,
5, ,-38, ,
3, ,-37, ,
-1, ,-37, ,
0, ,-37, ,
-2, ,-37, ,
-5, ,-38, ,
-9, ,-37, ,
-2, ,-38, ,
-2, ,-38, ,
-2, ,-37, ,
-2, ,-37, ,
0, ,-38, ,
0, ,-38, ,
-1, ,-37, ,
-6, ,-38, ,
-2, ,-38, ,
0, ,-37, ,
-2, ,-38, ,
-5, ,-37, ,
4, ,-37, ,
-1, ,-38, ,
1, ,-38, ,
-1, ,-37, ,
0, ,-38, ,
0, ,-38, ,
-1, ,-37, ,
-5, ,-38, ,
0, ,-38, ,
1, ,-37, ,
-1, ,-38, ,
0, ,-37, ,
3, ,-38, ,
4, ,-37, ,
1, ,-37, ,
0, ,-36, ,
0, ,-38, ,
-1, ,-38, ,
0, ,-37, ,
-6, ,-38, ,
-1, ,-38, ,
1, ,-37, ,
-1, ,-38, ,
-6, ,-38, ,
3, ,-37, ,
1, ,-37, ,
0, ,-37, ,
-1, ,-37, ,
3, ,-38, ,
4, ,-38, ,
3, ,-37, ,
-2, ,-38, ,
3, ,-38, ,
3, ,-37, ,
0, ,-38, ,
-1, ,-37, ,
0, ,-37, ,
1, ,-38, ,
1, ,-38, ,
0, ,-37, ,
3, ,-38, ,
3, ,-37, ,
4, ,-37, ,
0, ,-37, ,
0, ,-38, ,
0, ,-37, ,
-1, ,-38, ,
-5, ,-37, ,
3, ,-37, ,
0, ,-37, ,
1, ,-37, ,
0, ,-37, ,
1, ,-38, ,
3, ,-38, ,
1, ,-37, ,
-2, ,-38, ,
4, ,-38, ,
5, ,-37, ,
4, ,-38, ,
3, ,-37, ,
4, ,-38, ,
1, ,-37, ,
-4, ,-38, ,
8, ,-37, ,
3, ,-38, ,
0, ,-38, ,
8, ,-37, ,
-1, ,-38, ,
1, ,-38, ,
3, ,-37, ,
0, ,-38, ,
-2, ,-37, ,
-1, ,-38, ,
0, ,-37, ,
0, ,-38, ,
-1, ,-37, ,
4, ,-38, ,
6, ,-38, ,
6, ,-37, ,
-1, ,-38, ,
4, ,-37, ,
4, ,-37, ,
0, ,-38, ,
0, ,-37, ,
8, ,-37, ,
6, ,-38, ,
4, ,-37, ,
0, ,-37, ,
0, ,-38, ,
0, ,-38, ,
4, ,-37, ,
-1, ,-38, ,
6, ,-38, ,
11, ,-37, ,
4, ,-38, ,
1, ,-37, ,
5, ,-37, ,
1, ,-38, ,
3, ,-37, ,
0, ,-37, ,
5, ,-38, ,
6, ,-38, ,
6, ,-37, ,
0, ,-38, ,
4, ,-38, ,
6, ,-37, ,
1, ,-38, ,
-1, ,-37, ,
4, ,-37, ,
4, ,-37, ,
1, ,-37, ,
1, ,-36, ,
4, ,-38, ,
6, ,-38, ,
6, ,-37, ,
4, ,-37, ,
6, ,-38, ,
8, ,-37, ,
4, ,-38, ,
0, ,-37, ,
5, ,-38, ,
5, ,-37, ,
3, ,-38, ,
0, ,-37, ,
1, ,-38, ,
3, ,-37, ,
4, ,-37, ,
-2, ,-38, ,
5, ,-37, ,
6, ,-37, ,
4, ,-38, ,
1, ,-37, ,
3, ,-38, ,
4, ,-37, ,
-1, ,-37, ,
-2, ,-37, ,
1, ,-38, ,
-1, ,-37, ,
3, ,-37, ,
-4, ,-38, ,
3, ,-38, ,
4, ,-37, ,
1, ,-38, ,
-2, ,-37, ,
4, ,-37, ,
0, ,-37, ,
3, ,-37, ,
0, ,-37, ,
3, ,-38, ,
4, ,-38, ,
8, ,-37, ,
1, ,-38, ,
3, ,-38, ,
6, ,-37, ,
4, ,-38, ,
-2, ,-38, ,
3, ,-38, ,
1, ,-37, ,
1, ,-37, ,
1, ,-37, ,
3, ,-38, ,
4, ,-37, ,
3, ,-38, ,
0, ,-37, ,
4, ,-38, ,
6, ,-37, ,
3, ,-38, ,
-1, ,-37, ,
5, ,-37, ,
4, ,-38, ,
3, ,-37, ,
0, ,-37, ,
0, ,-38, ,
0, ,-38, ,
-1, ,-37, ,
-1, ,-38, ,
4, ,-37, ,
5, ,-37, ,
4, ,-38, ,
3, ,-37, ,
6, ,-38, ,
5, ,-37, ,
1, ,-37, ,
-5, ,-37, ,
-5, ,-38, ,
0, ,-38, ,
3, ,-37, ,
-1, ,-38, ,
4, ,-38, ,
4, ,-37, ,
1, ,-38, ,
-4, ,-37, ,
1, ,-37, ,
-1, ,-38, ,
-2, ,-38, ,
0, ,-37, ,
0, ,-38, ,
0, ,-38, ,
1, ,-37, ,
-2, ,-38, ,
3, ,-37, ,
4, ,-37, ,
1, ,-38, ,
3, ,-37, ,
4, ,-38, ,
6, ,-37, ,
1, ,-37, ,
-2, ,-37, ,
-1, ,-38, ,
-4, ,-38, ,
-2, ,-38, ,
-6, ,-38, ,
-2, ,-38, ,
1, ,-37, ,
-1, ,-38, ,
-2, ,-37, ,
4, ,-38, ,
3, ,-37, ,
1, ,-38, ,
3, ,-37, ,
4, ,-38, ,
0, ,-38, ,
3, ,-37, ,
-4, ,-38, ,
0, ,-37, ,
1, ,-37, ,
0, ,-38, ,
-5, ,-37, ,
1, ,-38, ,
1, ,-38, ,
-1, ,-37, ,
-4, ,-37, ,
-1, ,-38, ,
-1, ,-38, ,
0, ,-38, ,
-1, ,-37, ,
0, ,-38, ,
1, ,-37, ,
-1, ,-38, ,
-5, ,-37, ,
1, ,-37, ,
1, ,-37, ,
0, ,-37, ,
-2, ,-37, ,
1, ,-38, ,
4, ,-38, ,
1, ,-37, ,
-6, ,-38, ,
-1, ,-37, ,
0, ,-37, ,
-1, ,-38, ,
-5, ,-38, ,
3, ,-38, ,
6, ,-38, ,
3, ,-37, ,
3, ,-36, ,
5, ,-38, ,
0, ,-37, ,
3, ,-37, ,
-6, ,-37, ,
-1, ,-38, ,
-2, ,-37, ,
-1, ,-38, ,
1, ,-37, ,
4, ,-37, ,
3, ,-37, ,
1, ,-37, ,
-1, ,-37, ,
-2, ,-38, ,
0, ,-38, ,
0, ,-37, ,
-1, ,-37, ,
1, ,-38, ,
3, ,-37, ,
1, ,-38, ,
-4, ,-37, ,
-1, ,-38, ,
1, ,-38, ,
-1, ,-37, ,
-1, ,-37, ,
0, ,-38, ,
1, ,-38, ,
3, ,-38, ,
-4, ,-38, ,
1, ,-38, ,
0, ,-37, ,
-2, ,-38, ,
-7, ,-37, ,
0, ,-38, ,
-1, ,-37, ,
-1, ,-37, ,
-2, ,-37, ,
-1, ,-38, ,
1, ,-38, ,
-2, ,-37, ,
-5, ,-38, ,
-1, ,-38, ,
-1, ,-37, ,
-1, ,-38, ,
-6, ,-37, ,
6, ,-38, ,
4, ,-37, ,
-1, ,-38, ,
-2, ,-37, ,
1, ,-38, ,
0, ,-37, ,
3, ,-37, ,
-2, ,-38, ,
4, ,-38, ,
3, ,-37, ,
-1, ,-38, ,
-4, ,-38, ,
0, ,-38, ,
-2, ,-38, ,
0, ,-37, ,
0, ,-37, ,
0, ,-38, ,
1, ,-38, ,
4, ,-37, ,
-1, ,-38, ,
4, ,-38, ,
3, ,-37, ,
0, ,-38, ,
-2, ,-38, ,
1, ,-38, ,
3, ,-37, ,
1, ,-37, ,
0, ,-36, ,
3, ,-38, ,
4, ,-38, ,
1, ,-37, ,
-4, ,-38, ,
-2, ,-38, ,
3, ,-37, ,
1, ,-38, ,
-1, ,-37, ,
5, ,-38, ,
4, ,-38, ,
4, ,-37, ,
3, ,-37, ,
5, ,-38, ,
6, ,-38, ,
5, ,-37, ,
0, ,-38, ,
1, ,-38, ,
4, ,-37, ,
1, ,-38, ,
-2, ,-37, ,
3, ,-38, ,
0, ,-37, ,
1, ,-37, ,
-4, ,-37, ,
-1, ,-38, ,
1, ,-38, ,
3, ,-37, ,
-2, ,-38, ,
5, ,-38, ,
8, ,-37, ,
4, ,-38, ,
-1, ,-37, ,
4, ,-38, ,
1, ,-38, ,
-1, ,-37, ,
0, ,-37, ,
1, ,-38, ,
4, ,-38, ,
4, ,-37, ,
-2, ,-38, ,
3, ,-37, ,
3, ,-37, ,
1, ,-38, ,
-2, ,-37, ,
1, ,-38, ,
3, ,-37, ,
1, ,-37, ,
0, ,-37, ,
4, ,-38, ,
3, ,-38, ,
1, ,-37, ,
-4, ,-38, ,
0, ,-38, ,
4, ,-37, ,
1, ,-38, ,
-1, ,-38, ,
1, ,-38, ,
3, ,-38, ,
0, ,-38, ,
1, ,-37, ,
1, ,-38, ,
3, ,-38, ,
6, ,-37, ,
0, ,-38, ,
5, ,-38, ,
6, ,-37, ,
3, ,-38, ,
0, ,-37, ,
3, ,-38, ,
0, ,-37, ,
0, ,-38, ,
-1, ,-36, ,
3, ,-38, ,
4, ,-37, ,
8, ,-37, ,
5, ,-37, ,
5, ,-38, ,
8, ,-37, ,
3, ,-38, ,
0, ,-37, ,
6, ,-37, ,
3, ,-38, ,
3, ,-37, ,
1, ,-37, ,
5, ,-38, ,
6, ,-38, ,
8, ,-37, ,
3, ,-38, ,
4, ,-37, ,
4, ,-37, ,
5, ,-38, ,
3, ,-37, ,
8, ,-37, ,
5, ,-38, ,
1, ,-37, ,
-2, ,-37, ,
-5, ,-37, ,
0, ,-32, ,
4, ,-22, ,
-2, ,-12, ,
11, ,-3, ,
10, ,5, ,
6, ,13, ,
0, ,18, ,
6, ,23, ,
3, ,27, ,
6, ,32, ,
5, ,34, ,
6, ,39, ,
4, ,40, ,
5, ,42, ,
3, ,44, ,
5, ,45, ,
8, ,46, ,
5, ,49, ,
4, ,50, ,
5, ,51, ,
6, ,52, ,
1, ,53, ,
0, ,51, ,
3, ,54, ,
3, ,53, ,
1, ,53, ,
-4, ,54, ,
1, ,55, ,
5, ,53, ,
1, ,55, ,
-1, ,55, ,
5, ,55, ,
-1, ,55, ,
3, ,56, ,
1, ,54, ,
4, ,56, ,
4, ,55, ,
3, ,55, ,
-1, ,56, ,
3, ,56, ,
3, ,55, ,
1, ,56, ,
-1, ,56, ,
6, ,55, ,
1, ,56, ,
5, ,56, ,
1, ,54, ,
1, ,57, ,
0, ,56, ,
1, ,55, ,
0, ,56, ,
5, ,55, ,
5, ,54, ,
6, ,57, ,
1, ,56, ,
4, ,55, ,
3, ,56, ,
3, ,56, ,
1, ,54, ,
1, ,57, ,
3, ,55, ,
1, ,55, ,
-4, ,56, ,
1, ,56, ,
0, ,54, ,
1, ,56, ,
-2, ,56, ,
1, ,55, ,
1, ,56, ,
0, ,56, ,
1, ,54, ,
3, ,57, ,
1, ,55, ,
1, ,55, ,
-5, ,56, ,
-1, ,56, ,
0, ,54, ,
-4, ,57, ,
-5, ,55, ,
0, ,55, ,
0, ,56, ,
4, ,56, ,
1, ,54, ,
3, ,56, ,
0, ,54, ,
1, ,55, ,
-2, ,56, ,
-1, ,55, ,
-1, ,54, ,
-2, ,56, ,
-10, ,56, ,
6, ,55, ,
5, ,55, ,
-1, ,56, ,
0, ,53, ,
0, ,56, ,
-4, ,54, ,
1, ,55, ,
-2, ,56, ,
-1, ,55, ,
1, ,54, ,
1, ,56, ,
-2, ,56, ,
1, ,55, ,
1, ,55, ,
1, ,56, ,
-2, ,54, ,
-1, ,56, ,
1, ,55, ,
1, ,55, ,
-2, ,56, ,
1, ,55, ,
0, ,53, ,
0, ,56, ,
-2, ,55, ,
1, ,55, ,
1, ,55, ,
1, ,56, ,
3, ,53, ,
3, ,56, ,
1, ,54, ,
9, ,55, ,
-4, ,55, ,
1, ,55, ,
3, ,53, ,
0, ,56, ,
-1, ,56, ,
4, ,55, ,
1, ,55, ,
5, ,56, ,
4, ,54, ,
5, ,56, ,
4, ,55, ,
5, ,55, ,
1, ,56, ,
4, ,56, ,
3, ,54, ,
1, ,56, ,
1, ,55, ,
6, ,55, ,
3, ,55, ,
1, ,56, ,
-4, ,54, ,
3, ,56, ,
-1, ,55, ,
0, ,55, ,
1, ,55, ,
1, ,55, ,
3, ,53, ,
-1, ,56, ,
-5, ,55, ,
0, ,55, ,
-2, ,55, ,
3, ,55, ,
1, ,54, ,
5, ,56, ,
5, ,54, ,
5, ,55, ,
1, ,56, ,
1, ,55, ,
1, ,54, ,
-1, ,56, ,
-5, ,56, ,
3, ,55, ,
0, ,55, ,
0, ,56, ,
0, ,54, ,
1, ,56, ,
-1, ,54, ,
-1, ,55, ,
-5, ,56, ,
0, ,56, ,
3, ,53, ,
3, ,56, ,
0, ,55, ,
6, ,55, ,
1, ,55, ,
0, ,55, ,
-2, ,54, ,
0, ,56, ,
1, ,54, ,
1, ,54, ,
-2, ,56, ,
3, ,55, ,
4, ,54, ,
3, ,56, ,
-2, ,55, ,
4, ,55, ,
4, ,55, ,
4, ,55, ,
4, ,54, ,
1, ,56, ,
3, ,55, ,
5, ,55, ,
-1, ,55, ,
6, ,55, ,
4, ,53, ,
1, ,56, ,
-1, ,55, ,
4, ,55, ,
1, ,55, ,
1, ,55, ,
3, ,54, ,
3, ,56, ,
4, ,55, ,
4, ,55, ,
1, ,56, ,
5, ,55, ,
3, ,53, ,
3, ,56, ,
0, ,55, ,
4, ,55, ,
0, ,55, ,
3, ,56, ,
0, ,54, ,
4, ,56, ,
1, ,54, ,
1, ,55, ,
0, ,55, ,
3, ,56, ,
6, ,53, ,
4, ,56, ,
0, ,55, ,
5, ,55, ,
-1, ,55, ,
1, ,56, ,
-2, ,54, ,
1, ,56, ,
4, ,55, ,
5, ,55, ,
1, ,55, ,
5, ,55, ,
3, ,54, ,
4, ,56, ,
-1, ,55, ,
1, ,55, ,
3, ,55, ,
1, ,55, ,
0, ,53, ,
3, ,56, ,
4, ,54, ,
5, ,55, ,
-1, ,55, ,
6, ,55, ,
5, ,53, ,
1, ,56, ,
-5, ,55, ,
4, ,55, ,
0, ,56, ,
0, ,56, ,
1, ,54, ,
1, ,56, ,
1, ,55, ,
0, ,55, ,
-4, ,56, ,
3, ,55, ,
4, ,54, ,
3, ,56, ,
4, ,55, ,
6, ,55, ,
3, ,55, ,
1, ,56, ,
-1, ,54, ,
0, ,56, ,
0, ,55, ,
5, ,55, ,
-1, ,55, ,
3, ,55, ,
6, ,53, ,
1, ,56, ,
1, ,55, ,
4, ,55, ,
6, ,55, ,
1, ,55, ,
-1, ,54, ,
6, ,55, ,
5, ,55, ,
5, ,54, ,
4, ,56, ,
6, ,55, ,
5, ,53, ,
3, ,56, ,
-2, ,55, ,
5, ,55, ,
4, ,55, ,
4, ,56, ,
1, ,53, ,
1, ,56, ,
4, ,55, ,
4, ,55, ,
-2, ,56, ,
5, ,55, ,
4, ,54, ,
5, ,56, ,
1, ,55, ,
5, ,55, ,
-1, ,55, ,
-2, ,55, ,
0, ,54, ,
3, ,56, ,
4, ,55, ,
4, ,54, ,
-2, ,56, ,
0, ,55, ,
0, ,54, ,
-1, ,56, ,
-5, ,55, ,
5, ,55, ,
5, ,55, ,
3, ,55, ,
0, ,53, ,
0, ,56, ,
-7, ,54, ,
-5, ,55, ,
-9, ,56, ,
-2, ,55, ,
1, ,53, ,
-2, ,56, ,
0, ,55, ,
0, ,55, ,
-2, ,55, ,
0, ,55, ,
0, ,53, ,
3, ,56, ,
5, ,55, ,
4, ,54, ,
1, ,56, ,
0, ,55, ,
-1, ,54, ,
-2, ,56, ,
-5, ,55, ,
0, ,55, ,
1, ,55, ,
0, ,56, ,
-2, ,53, ,
-2, ,56, ,
-6, ,55, ,
-9, ,55, ,
-16, ,56, ,
-16, ,55, ,
-12, ,53, ,
-15, ,56, ,
-15, ,56, ,
1, ,55, ,
-1, ,55, ,
3, ,55, ,
6, ,53, ,
10, ,56, ,
10, ,54, ,
9, ,54, ,
5, ,55, ,
8, ,55, ,
4, ,54, ,
3, ,56, ,
-1, ,55, ,
3, ,55, ,
1, ,55, ,
1, ,55, ,
-1, ,54, ,
-4, ,56, ,
-2, ,55, ,
1, ,55, ,
-2, ,56, ,
1, ,55, ,
1, ,53, ,
-1, ,56, ,
-9, ,55, ,
-4, ,55, ,
-5, ,55, ,
-1, ,55, ,
-2, ,54, ,
0, ,56, ,
3, ,54, ,
5, ,54, ,
-4, ,56, ,
-1, ,55, ,
-1, ,54, ,
-4, ,56, ,
-4, ,55, ,
5, ,55, ,
3, ,55, ,
0, ,55, ,
-1, ,54, ,
-2, ,56, ,
-5, ,54, ,
-2, ,55, ,
-6, ,55, ,
-1, ,56, ,
3, ,53, ,
-1, ,56, ,
-2, ,55, ,
0, ,55, ,
-4, ,55, ,
-2, ,55, ,
-2, ,54, ,
0, ,56, ,
0, ,54, ,
1, ,54, ,
-4, ,56, ,
1, ,56, ,
-1, ,53, ,
-1, ,56, ,
-4, ,55, ,
5, ,55, ,
1, ,55, ,
-1, ,55, ,
-2, ,53, ,
-1, ,56, ,
-4, ,54, ,
-2, ,55, ,
-2, ,56, ,
0, ,55, ,
1, ,53, ,
-2, ,56, ,
-2, ,55, ,
4, ,55, ,
0, ,55, ,
4, ,55, ,
5, ,53, ,
4, ,56, ,
5, ,54, ,
3, ,55, ,
-6, ,56, ,
-1, ,55, ,
-1, ,53, ,
1, ,56, ,
0, ,56, ,
4, ,55, ,
5, ,55, ,
4, ,56, ,
4, ,53, ,
3, ,56, ,
0, ,55, ,
3, ,55, ,
0, ,55, ,
6, ,55, ,
5, ,53, ,
3, ,56, ,
1, ,55, ,
4, ,55, ,
1, ,55, ,
5, ,56, ,
1, ,53, ,
4, ,56, ,
5, ,55, ,
4, ,55, ,
4, ,56, ,
5, ,55, ,
3, ,54, ,
0, ,56, ,
0, ,55, ,
4, ,55, ,
3, ,56, ,
3, ,56, ,
4, ,54, ,
5, ,56, ,
3, ,54, ,
4, ,55, ,
-1, ,55, ,
4, ,55, ,
5, ,53, ,
1, ,56, ,
0, ,55, ,
6, ,55, ,
3, ,55, ,
4, ,55, ,
0, ,53, ,
1, ,56, ,
1, ,54, ,
4, ,54, ,
1, ,55, ,
5, ,55, ,
4, ,53, ,
4, ,56, ,
0, ,54, ,
5, ,55, ,
3, ,55, ,
0, ,55, ,
3, ,54, ,
4, ,56, ,
5, ,55, ,
8, ,55, ,
5, ,55, ,
8, ,56, ,
9, ,53, ,
5, ,56, ,
1, ,55, ,
6, ,55, ,
1, ,55, ,
3, ,55, ,
4, ,53, ,
4, ,56, ,
5, ,55, ,
4, ,55, ,
0, ,56, ,
8, ,55, ,
5, ,53, ,
4, ,56, ,
0, ,55, ,
6, ,55, ,
6, ,55, ,
4, ,55, ,
3, ,53, ,
5, ,56, ,
4, ,55, ,
6, ,55, ,
0, ,55, ,
4, ,55, ,
8, ,53, ,
3, ,56, ,
1, ,55, ,
8, ,55, ,
4, ,55, ,
5, ,56, ,
5, ,53, ,
8, ,56, ,
6, ,55, ,
8, ,54, ,
3, ,55, ,
5, ,55, ,
6, ,54, ,
6, ,56, ,
3, ,55, ,
4, ,55, ,
-1, ,55, ,
0, ,56, ,
0, ,54, ,
-1, ,56, ,
0, ,55, ,
3, ,55, ,
3, ,56, ,
8, ,55, ,
6, ,53, ,
4, ,56, ,
-1, ,55, ,
6, ,55, ,
0, ,55, ,
3, ,55, ,
4, ,54, ,
1, ,56, ,
5, ,54, ,
4, ,54, ,
0, ,56, ,
4, ,55, ,
4, ,53, ,
-1, ,56, ,
0, ,55, ,
11, ,55, ,
4, ,55, ,
6, ,56, ,
9, ,54, ,
8, ,56, ,
6, ,54, ,
8, ,55, ,
1, ,55, ,
5, ,56, ,
8, ,53, ,
4, ,56, ,
1, ,55, ,
6, ,55, ,
3, ,55, ,
3, ,56, ,
0, ,54, ,
0, ,56, ,
4, ,54, ,
4, ,54, ,
5, ,56, ,
6, ,55, ,
11, ,54, ,
6, ,56, ,
-1, ,55, ,
5, ,55, ,
5, ,55, ,
6, ,56, ,
3, ,53, ,
3, ,56, ,
6, ,54, ,
8, ,55, ,
3, ,55, ,
8, ,56, ,
6, ,53, ,
4, ,56, ,
1, ,55, ,
8, ,55, ,
1, ,55, ,
4, ,55, ,
3, ,54, ,
3, ,56, ,
5, ,55, ,
6, ,54, ,
1, ,56, ,
4, ,55, ,
3, ,53, ,
3, ,56, ,
3, ,55, ,
9, ,55, ,
8, ,55, ,
5, ,55, ,
4, ,53, ,
1, ,56, ,
-1, ,54, ,
3, ,55, ,
-5, ,55, ,
4, ,55, ,
4, ,53, ,
4, ,56, ,
-4, ,55, ,
5, ,55, ,
0, ,55, ,
0, ,56, ,
-1, ,54, ,
-2, ,56, ,
-1, ,54, ,
-2, ,54, ,
-10, ,56, ,
-4, ,55, ,
-4, ,53, ,
-5, ,56, ,
-5, ,55, ,
1, ,55, ,
0, ,55, ,
0, ,55, ,
-2, ,53, ,
-1, ,56, ,
-2, ,54, ,
-4, ,55, ,
-7, ,55, ,
-5, ,55, ,
-2, ,53, ,
-5, ,56, ,
-6, ,56, ,
1, ,55, ,
-2, ,55, ,
0, ,56, ,
-1, ,54, ,
-1, ,56, ,
0, ,55, ,
-2, ,54, ,
-6, ,56, ,
-2, ,55, ,
-4, ,53, ,
-5, ,56, ,
-7, ,55, ,
-1, ,55, ,
-4, ,55, ,
-4, ,56, ,
-7, ,53, ,
-7, ,56, ,
-6, ,54, ,
-2, ,55, ,
-6, ,55, ,
-4, ,55, ,
-1, ,53, ,
-4, ,56, ,
-7, ,55, ,
-2, ,55, ,
-2, ,55, ,
-2, ,55, ,
-4, ,54, ,
-1, ,56, ,
-4, ,55, ,
-1, ,55, ,
-9, ,56, ,
-2, ,55, ,
-7, ,54, ,
-7, ,56, ,
-7, ,55, ,
-5, ,55, ,
-1, ,55, ,
-1, ,55, ,
-2, ,54, ,
-2, ,56, ,
-4, ,54, ,
-2, ,55, ,
-9, ,56, ,
-4, ,55, ,
-1, ,53, ,
-2, ,56, ,
0, ,55, ,
0, ,55, ,
-2, ,55, ,
-4, ,55, ,
-4, ,53, ,
-5, ,56, ,
-4, ,54, ,
-2, ,54, ,
-6, ,56, ,
-4, ,55, ,
-2, ,53, ,
-5, ,56, ,
-10, ,56, ,
-1, ,55, ,
-4, ,55, ,
-4, ,56, ,
-5, ,54, ,
-1, ,56, ,
-4, ,54, ,
-1, ,55, ,
-5, ,55, ,
-4, ,56, ,
-1, ,53, ,
0, ,56, ,
-6, ,55, ,
1, ,55, ,
-1, ,55, ,
-2, ,55, ,
-2, ,54, ,
1, ,56, ,
1, ,55, ,
-1, ,55, ,
-6, ,56, ,
-2, ,55, ,
-4, ,54, ,
-4, ,56, ,
-6, ,55, ,
0, ,55, ,
-1, ,55, ,
-1, ,55, ,
-2, ,53, ,
-2, ,56, ,
-5, ,54, ,
1, ,55, ,
-1, ,55, ,
3, ,55, ,
5, ,53, ,
6, ,56, ,
0, ,55, ,
3, ,55, ,
3, ,55, ,
4, ,56, ,
1, ,54, ,
5, ,56, ,
3, ,55, ,
4, ,54, ,
-1, ,56, ,
6, ,55, ,
4, ,54, ,
4, ,56, ,
3, ,55, ,
6, ,55, ,
4, ,56, ,
4, ,56, ,
-1, ,54, ,
6, ,56, ,
9, ,54, ,
6, ,47, ,
-4, ,38, ,
-1, ,27, ,
-5, ,18, ,
-7, ,11, ,
-7, ,4, ,
0, ,-1, ,
-1, ,-6, ,
0, ,-11, ,
-2, ,-15, ,
-2, ,-18, ,
1, ,-21, ,
4, ,-23, ,
3, ,-25, ,
3, ,-26, ,
-1, ,-28, ,
1, ,-31, ,
-2, ,-31, ,
3, ,-32, ,
3, ,-33, ,
3, ,-34, ,
1, ,-34, ,
-2, ,-35, ,
1, ,-35, ,
3, ,-36, ,
-1, ,-36, ,
5, ,-37, ,
9, ,-36, ,
4, ,-37, ,
3, ,-37, ,
4, ,-38, ,
1, ,-38, ,
0, ,-38, ,
3, ,-37, ,
4, ,-39, ,
5, ,-38, ,
6, ,-38, ,
0, ,-39, ,
4, ,-38, ,
5, ,-37, ,
1, ,-39, ,
0, ,-38, ,
6, ,-38, ,
4, ,-38, ,
1, ,-38, ,
4, ,-37, ,
8, ,-39, ,
6, ,-38, ,
8, ,-38, ,
4, ,-38, ,
6, ,-38, ,
9, ,-37, ,
4, ,-38, ,
3, ,-38, ,
5, ,-38, ,
3, ,-38, ,
1, ,-38, ,
0, ,-37, ,
5, ,-39, ,
4, ,-38, ,
8, ,-38, ,
4, ,-38, ,
8, ,-37, ,
9, ,-37, ,
6, ,-39, ,
5, ,-38, ,
10, ,-38, ,
8, ,-38, ,
6, ,-38, ,
1, ,-37, ,
1, ,-38, ,
5, ,-38, ,
6, ,-38, ,
3, ,-38, ,
10, ,-38, ,
13, ,-37, ,
9, ,-38, ,
4, ,-38, ,
8, ,-38, ,
5, ,-38, ,
8, ,-38, ,
4, ,-37, ,
4, ,-39, ,
8, ,-38, ,
5, ,-37, ,
1, ,-38, ,
8, ,-38, ,
6, ,-37, ,
8, ,-38, ,
4, ,-38, ,
6, ,-38, ,
3, ,-38, ,
1, ,-38, ,
3, ,-37, ,
3, ,-38, ,
4, ,-38, ,
8, ,-37, ,
3, ,-38, ,
5, ,-38, ,
5, ,-37, ,
3, ,-38, ,
3, ,-38, ,
5, ,-38, ,
6, ,-38, ,
4, ,-38, ,
3, ,-37, ,
0, ,-38, ,
0, ,-38, ,
1, ,-37, ,
-6, ,-38, ,
0, ,-38, ,
6, ,-37, ,
1, ,-38, ,
-2, ,-37, ,
5, ,-38, ,
4, ,-38, ,
1, ,-38, ,
-2, ,-36, ,
1, ,-38, ,
0, ,-38, ,
3, ,-37, ,
-2, ,-38, ,
1, ,-38, ,
3, ,-37, ,
-1, ,-38, ,
-2, ,-38, ,
3, ,-38, ,
0, ,-37, ,
1, ,-38, ,
0, ,-37, ,
5, ,-39, ,
4, ,-38, ,
3, ,-37, ,
0, ,-38, ,
1, ,-38, ,
3, ,-37, ,
-1, ,-38, ,
-2, ,-37, ,
5, ,-38, ,
1, ,-38, ,
1, ,-38, ,
-1, ,-37, ,
-2, ,-38, ,
-1, ,-38, ,
0, ,-37, ,
-5, ,-38, ,
3, ,-38, ,
3, ,-37, ,
1, ,-38, ,
-1, ,-37, ,
4, ,-38, ,
0, ,-37, ,
-1, ,-38, ,
-1, ,-37, ,
-2, ,-38, ,
0, ,-38, ,
0, ,-37, ,
-5, ,-38, ,
-1, ,-37, ,
-2, ,-37, ,
-2, ,-38, ,
-5, ,-38, ,
-1, ,-38, ,
-1, ,-38, ,
-4, ,-38, ,
-4, ,-37, ,
-4, ,-38, ,
-2, ,-37, ,
-1, ,-38, ,
-9, ,-38, ,
-2, ,-38, ,
3, ,-37, ,
-4, ,-38, ,
-5, ,-37, ,
1, ,-38, ,
0, ,-37, ,
0, ,-37, ,
-2, ,-37, ,
0, ,-38, ,
-1, ,-37, ,
-2, ,-37, ,
-7, ,-38, ,
-6, ,-37, ,
-4, ,-37, ,
-6, ,-38, ,
-6, ,-37, ,
1, ,-38, ,
0, ,-37, ,
-1, ,-38, ,
-5, ,-37, ,
-2, ,-38, ,
-4, ,-38, ,
-2, ,-37, ,
-6, ,-38, ,
-4, ,-38, ,
1, ,-37, ,
-4, ,-38, ,
-6, ,-38, ,
1, ,-37, ,
-2, ,-37, ,
-2, ,-37, ,
-4, ,-37, ,
0, ,-38, ,
0, ,-38, ,
1, ,-37, ,
-2, ,-38, ,
0, ,-37, ,
-1, ,-37, ,
-2, ,-38, ,
-7, ,-37, ,
0, ,-38, ,
-1, ,-37, ,
-2, ,-37, ,
-1, ,-37, ,
3, ,-38, ,
0, ,-38, ,
0, ,-38, ,
-6, ,-37, ,
0, ,-38, ,
1, ,-37, ,
-1, ,-38, ,
-2, ,-37, ,
4, ,-38, ,
1, ,-37, ,
-1, ,-37, ,
-4, ,-36, ,
-2, ,-38, ,
-1, ,-38, ,
-1, ,-37, ,
-5, ,-38, ,
1, ,-37, ,
1, ,-37, ,
1, ,-38, ,
1, ,-37, ,
5, ,-38, ,
5, ,-37, ,
3, ,-38, ,
0, ,-37, ,
3, ,-38, ,
1, ,-38, ,
3, ,-38, ,
-2, ,-38, ,
1, ,-38, ,
4, ,-37, ,
-2, ,-38, ,
-6, ,-37, ,
0, ,-37, ,
-4, ,-37, ,
0, ,-37, ,
-1, ,-36, ,
1, ,-38, ,
1, ,-37, ,
0, ,-37, ,
-4, ,-38, ,
0, ,-38, ,
3, ,-37, ,
5, ,-38, ,
-6, ,-38, ,
-1, ,-38, ,
1, ,-38, ,
-2, ,-38, ,
-2, ,-37, ,
-2, ,-38, ,
3, ,-38, ,
3, ,-37, ,
1, ,-38, ,
3, ,-38, ,
4, ,-37, ,
1, ,-38, ,
-2, ,-37, ,
4, ,-38, ,
3, ,-37, ,
1, ,-38, ,
0, ,-37, ,
1, ,-38, ,
3, ,-38, ,
0, ,-37, ,
-2, ,-38, ,
3, ,-38, ,
3, ,-37, ,
1, ,-38, ,
-2, ,-37, ,
4, ,-38, ,
4, ,-37, ,
1, ,-38, ,
4, ,-37, ,
5, ,-38, ,
0, ,-38, ,
8, ,-37, ,
4, ,-38, ,
6, ,-38, ,
10, ,-37, ,
3, ,-38, ,
3, ,-37, ,
5, ,-38, ,
1, ,-37, ,
3, ,-37, ,
0, ,-37, ,
4, ,-38, ,
8, ,-37, ,
8, ,-37, ,
1, ,-38, ,
6, ,-38, ,
4, ,-37, ,
3, ,-38, ,
-1, ,-38, ,
5, ,-38, ,
4, ,-37, ,
5, ,-37, ,
4, ,-36, ,
5, ,-38, ,
5, ,-38, ,
4, ,-37, ,
0, ,-37, ,
5, ,-38, ,
8, ,-37, ,
6, ,-38, ,
3, ,-38, ,
8, ,-37, ,
3, ,-37, ,
1, ,-38, ,
1, ,-37, ,
3, ,-38, ,
4, ,-37, ,
5, ,-37, ,
1, ,-38, ,
8, ,-38, ,
5, ,-37, ,
4, ,-38, ,
-1, ,-37, ,
1, ,-38, ,
3, ,-38, ,
3, ,-37, ,
-2, ,-36, ,
3, ,-38, ,
4, ,-37, ,
6, ,-37, ,
5, ,-38, ,
6, ,-38, ,
9, ,-37, ,
3, ,-38, ,
0, ,-37, ,
4, ,-37, ,
0, ,-37, ,
1, ,-38, ,
1, ,-37, ,
3, ,-38, ,
4, ,-37, ,
4, ,-37, ,
-2, ,-38, ,
4, ,-38, ,
1, ,-37, ,
0, ,-38, ,
-1, ,-38, ,
4, ,-38, ,
5, ,-37, ,
3, ,-37, ,
1, ,-37, ,
3, ,-38, ,
3, ,-38, ,
5, ,-37, ,
-2, ,-38, ,
1, ,-38, ,
4, ,-37, ,
0, ,-38, ,
0, ,-37, ,
4, ,-38, ,
0, ,-37, ,
1, ,-37, ,
-1, ,-37, ,
1, ,-38, ,
3, ,-38, ,
5, ,-37, ,
0, ,-38, ,
4, ,-38, ,
5, ,-37, ,
4, ,-38, ,
-2, ,-37, ,
1, ,-37, ,
0, ,-37, ,
-1, ,-38, ,
0, ,-36, ,
1, ,-38, ,
1, ,-38, ,
3, ,-37, ,
-1, ,-38, ,
3, ,-38, ,
3, ,-37, ,
1, ,-38, ,
0, ,-37, ,
5, ,-38, ,
4, ,-38, ,
0, ,-37, ,
1, ,-37, ,
1, ,-38, ,
0, ,-38, ,
0, ,-37, ,
-6, ,-38, ,
0, ,-37, ,
0, ,-37, ,
0, ,-38, ,
0, ,-37, ,
4, ,-37, ,
0, ,-37, ,
-2, ,-37, ,
-6, ,-37, ,
-2, ,-38, ,
-5, ,-38, ,
-2, ,-38, ,
-7, ,-38, ,
-1, ,-38, ,
0, ,-37, ,
-2, ,-38, ,
-4, ,-37, ,
1, ,-38, ,
-2, ,-38, ,
0, ,-37, ,
-2, ,-37, ,
0, ,-38, ,
0, ,-37, ,
0, ,-37, ,
-7, ,-38, ,
0, ,-37, ,
-1, ,-37, ,
-4, ,-38, ,
-5, ,-37, ,
3, ,-38, ,
1, ,-37, ,
1, ,-38, ,
0, ,-36, ,
1, ,-38, ,
1, ,-37, ,
-2, ,-37, ,
-7, ,-37, ,
-2, ,-38, ,
0, ,-37, ,
-2, ,-38, ,
-5, ,-38, ,
1, ,-37, ,
0, ,-37, ,
0, ,-38, ,
-4, ,-36, ,
-1, ,-38, ,
3, ,-38, ,
0, ,-37, ,
-2, ,-38, ,
0, ,-37, ,
1, ,-37, ,
0, ,-38, ,
-4, ,-37, ,
5, ,-37, ,
3, ,-38, ,
1, ,-37, ,
0, ,-37, ,
1, ,-38, ,
3, ,-37, ,
4, ,-37, ,
-4, ,-37, ,
0, ,-38, ,
3, ,-37, ,
0, ,-38, ,
-1, ,-37, ,
0, ,-37, ,
3, ,-38, ,
0, ,-38, ,
-2, ,-37, ,
-1, ,-38, ,
-1, ,-38, ,
-1, ,-37, ,
-5, ,-38, ,
-1, ,-38, ,
0, ,-37, ,
-2, ,-38, ,
-5, ,-38, ,
