src/vary_am2_1412/temp0000521.CSV

Format,1.0B,
Memory Length,10000,Memory Length,10000,
IntpDistance,0,IntpDistance,0,
Trigger Address,4999,Trigger Address,4999,
Trigger Level,9.600E-01,Trigger Level,9.600E-01,
Source,CH1,Source,CH2,
Vertical Units,V,Vertical Units,V,
Vertical Units Div,0,Vertical Units Div,0,
Vertical Units Extend Div,16,Vertical Units Extend Div,16,
Label,,Label,,
Probe Type,0,Probe Type,0,
Probe Ratio,1.000e+01,Probe Ratio,1.000e+00,
Vertical Scale,2.000e-02,Vertical Scale,1.000e+00,
Vertical Position,-5.120e-02,Vertical Position,0.000e+00,
Horizontal Units,S,Horizontal Units,S,
Horizontal Scale,1.000E-05,Horizontal Scale,1.000E-05,
Horizontal Position,0.000E+00,Horizontal Position,0.000E+00,
Horizontal Mode,Main,Horizontal Mode,Main,
SincET Mode,Real Time,SincET Mode,Real Time,
Sampling Period,1.000e-08,Sampling Period,1.000e-08,
Horizontal Old Scale,1.000E-05,Horizontal Old Scale,1.000E-05,
Horizontal Old Position,0.000E+00,Horizontal Old Position,0.000E+00,
Firmware,V1.23,Firmware,V1.23,
Mode,Fast,Mode,Fast,
Waveform Data,,Waveform Data,,
4, ,-45, ,
5, ,-47, ,
0, ,-47, ,
-6, ,-47, ,
-1, ,-47, ,
-4, ,-46, ,
-4, ,-46, ,
-4, ,-47, ,
0, ,-47, ,
-1, ,-46, ,
1, ,-46, ,
3, ,-47, ,
1, ,-46, ,
3, ,-47, ,
1, ,-47, ,
-5, ,-47, ,
1, ,-46, ,
1, ,-47, ,
0, ,-46, ,
-2, ,-47, ,
1, ,-47, ,
1, ,-46, ,
1, ,-47, ,
-5, ,-47, ,
0, ,-46, ,
1, ,-47, ,
-1, ,-46, ,
-2, ,-47, ,
3, ,-47, ,
3, ,-47, ,
-2, ,-46, ,
-1, ,-47, ,
3, ,-47, ,
3, ,-46, ,
4, ,-46, ,
-1, ,-47, ,
4, ,-46, ,
4, ,-46, ,
0, ,-46, ,
-4, ,-46, ,
-2, ,-46, ,
-4, ,-46, ,
-2, ,-46, ,
-4, ,-47, ,
-1, ,-46, ,
1, ,-46, ,
1, ,-47, ,
-1, ,-47, ,
0, ,-46, ,
5, ,-47, ,
1, ,-47, ,
0, ,-46, ,
4, ,-47, ,
0, ,-47, ,
0, ,-46, ,
1, ,-47, ,
3, ,-47, ,
5, ,-46, ,
5, ,-47, ,
1, ,-47, ,
4, ,-46, ,
5, ,-47, ,
1, ,-47, ,
-1, ,-46, ,
3, ,-47, ,
1, ,-46, ,
4, ,-46, ,
1, ,-47, ,
3, ,-46, ,
5, ,-46, ,
4, ,-46, ,
0, ,-47, ,
5, ,-46, ,
8, ,-46, ,
5, ,-47, ,
4, ,-46, ,
6, ,-47, ,
6, ,-47, ,
3, ,-46, ,
0, ,-47, ,
4, ,-46, ,
1, ,-46, ,
5, ,-47, ,
-1, ,-47, ,
5, ,-46, ,
8, ,-46, ,
5, ,-47, ,
1, ,-46, ,
4, ,-47, ,
1, ,-47, ,
0, ,-46, ,
0, ,-47, ,
4, ,-46, ,
5, ,-46, ,
5, ,-47, ,
-1, ,-47, ,
4, ,-46, ,
5, ,-47, ,
1, ,-47, ,
-4, ,-47, ,
3, ,-46, ,
1, ,-46, ,
3, ,-46, ,
3, ,-47, ,
4, ,-46, ,
4, ,-46, ,
9, ,-47, ,
-1, ,-47, ,
3, ,-46, ,
6, ,-47, ,
1, ,-46, ,
-1, ,-46, ,
6, ,-47, ,
5, ,-47, ,
4, ,-46, ,
3, ,-47, ,
0, ,-47, ,
1, ,-46, ,
3, ,-46, ,
-1, ,-47, ,
3, ,-46, ,
6, ,-47, ,
4, ,-46, ,
3, ,-47, ,
4, ,-46, ,
3, ,-47, ,
1, ,-46, ,
-1, ,-47, ,
1, ,-46, ,
3, ,-46, ,
3, ,-47, ,
1, ,-47, ,
8, ,-46, ,
5, ,-47, ,
5, ,-47, ,
1, ,-46, ,
6, ,-46, ,
5, ,-47, ,
6, ,-46, ,
5, ,-47, ,
6, ,-47, ,
6, ,-46, ,
3, ,-47, ,
-4, ,-47, ,
1, ,-46, ,
3, ,-47, ,
1, ,-46, ,
1, ,-46, ,
6, ,-47, ,
6, ,-46, ,
3, ,-46, ,
1, ,-47, ,
4, ,-46, ,
4, ,-46, ,
3, ,-47, ,
1, ,-47, ,
4, ,-46, ,
8, ,-47, ,
5, ,-46, ,
3, ,-46, ,
8, ,-46, ,
4, ,-46, ,
4, ,-46, ,
3, ,-47, ,
3, ,-47, ,
3, ,-46, ,
5, ,-47, ,
4, ,-47, ,
3, ,-45, ,
4, ,-47, ,
3, ,-47, ,
3, ,-46, ,
8, ,-46, ,
4, ,-46, ,
3, ,-46, ,
1, ,-47, ,
5, ,-47, ,
4, ,-46, ,
5, ,-46, ,
-2, ,-47, ,
3, ,-46, ,
5, ,-47, ,
1, ,-47, ,
-1, ,-46, ,
3, ,-47, ,
1, ,-47, ,
0, ,-46, ,
1, ,-47, ,
3, ,-47, ,
5, ,-46, ,
1, ,-47, ,
-5, ,-46, ,
1, ,-46, ,
1, ,-46, ,
1, ,-47, ,
-2, ,-46, ,
3, ,-47, ,
4, ,-47, ,
1, ,-46, ,
0, ,-47, ,
-2, ,-46, ,
-2, ,-46, ,
0, ,-46, ,
-6, ,-47, ,
0, ,-46, ,
3, ,-47, ,
1, ,-47, ,
-1, ,-46, ,
5, ,-46, ,
5, ,-46, ,
4, ,-46, ,
3, ,-47, ,
4, ,-47, ,
4, ,-46, ,
3, ,-47, ,
0, ,-47, ,
1, ,-46, ,
3, ,-47, ,
-1, ,-46, ,
-2, ,-47, ,
3, ,-47, ,
5, ,-47, ,
3, ,-46, ,
3, ,-47, ,
5, ,-46, ,
1, ,-46, ,
0, ,-47, ,
-1, ,-47, ,
3, ,-46, ,
5, ,-47, ,
1, ,-46, ,
-5, ,-46, ,
1, ,-47, ,
0, ,-46, ,
0, ,-46, ,
0, ,-47, ,
3, ,-46, ,
0, ,-46, ,
-2, ,-46, ,
-5, ,-47, ,
1, ,-46, ,
0, ,-46, ,
4, ,-47, ,
3, ,-46, ,
6, ,-46, ,
4, ,-47, ,
1, ,-46, ,
3, ,-47, ,
1, ,-47, ,
1, ,-46, ,
1, ,-46, ,
-4, ,-47, ,
-1, ,-46, ,
1, ,-47, ,
0, ,-46, ,
0, ,-46, ,
1, ,-46, ,
3, ,-47, ,
0, ,-46, ,
-4, ,-47, ,
0, ,-46, ,
4, ,-46, ,
4, ,-47, ,
-5, ,-47, ,
0, ,-45, ,
-1, ,-47, ,
-4, ,-47, ,
-6, ,-46, ,
-1, ,-47, ,
0, ,-47, ,
1, ,-46, ,
1, ,-47, ,
5, ,-46, ,
3, ,-46, ,
3, ,-46, ,
-1, ,-47, ,
-1, ,-46, ,
1, ,-47, ,
-1, ,-47, ,
-5, ,-46, ,
0, ,-47, ,
0, ,-46, ,
0, ,-46, ,
-2, ,-47, ,
1, ,-46, ,
1, ,-46, ,
0, ,-46, ,
-4, ,-47, ,
-1, ,-46, ,
4, ,-47, ,
-1, ,-47, ,
-1, ,-47, ,
5, ,-47, ,
0, ,-47, ,
-2, ,-46, ,
0, ,-47, ,
-1, ,-46, ,
1, ,-46, ,
3, ,-46, ,
3, ,-47, ,
1, ,-46, ,
1, ,-47, ,
1, ,-47, ,
-9, ,-46, ,
-1, ,-46, ,
-5, ,-46, ,
-1, ,-46, ,
-4, ,-47, ,
0, ,-46, ,
5, ,-46, ,
4, ,-47, ,
0, ,-47, ,
3, ,-46, ,
0, ,-47, ,
-1, ,-47, ,
-1, ,-46, ,
4, ,-47, ,
4, ,-46, ,
3, ,-46, ,
1, ,-47, ,
3, ,-47, ,
0, ,-46, ,
1, ,-47, ,
-4, ,-47, ,
1, ,-46, ,
5, ,-47, ,
3, ,-47, ,
3, ,-46, ,
5, ,-46, ,
4, ,-47, ,
0, ,-46, ,
-2, ,-47, ,
0, ,-47, ,
1, ,-46, ,
1, ,-47, ,
-6, ,-46, ,
4, ,-46, ,
5, ,-47, ,
-2, ,-46, ,
-4, ,-46, ,
-1, ,-46, ,
-1, ,-46, ,
-2, ,-46, ,
-1, ,-47, ,
3, ,-47, ,
3, ,-46, ,
3, ,-46, ,
4, ,-47, ,
1, ,-46, ,
1, ,-47, ,
0, ,-47, ,
-5, ,-46, ,
0, ,-47, ,
-2, ,-47, ,
1, ,-46, ,
-2, ,-47, ,
1, ,-46, ,
5, ,-46, ,
3, ,-47, ,
-4, ,-47, ,
1, ,-45, ,
1, ,-47, ,
1, ,-47, ,
-2, ,-46, ,
1, ,-47, ,
3, ,-47, ,
1, ,-47, ,
-1, ,-47, ,
1, ,-46, ,
-1, ,-46, ,
1, ,-47, ,
-1, ,-46, ,
3, ,-46, ,
4, ,-47, ,
5, ,-46, ,
1, ,-46, ,
3, ,-47, ,
3, ,-47, ,
1, ,-46, ,
3, ,-47, ,
1, ,-47, ,
3, ,-46, ,
3, ,-47, ,
-2, ,-46, ,
4, ,-45, ,
5, ,-47, ,
3, ,-47, ,
-1, ,-46, ,
1, ,-47, ,
1, ,-47, ,
1, ,-46, ,
1, ,-47, ,
4, ,-46, ,
5, ,-46, ,
9, ,-47, ,
0, ,-47, ,
3, ,-46, ,
3, ,-47, ,
1, ,-47, ,
3, ,-46, ,
4, ,-47, ,
4, ,-46, ,
5, ,-46, ,
-1, ,-47, ,
3, ,-46, ,
-1, ,-46, ,
0, ,-46, ,
-2, ,-47, ,
0, ,-46, ,
5, ,-47, ,
1, ,-47, ,
1, ,-47, ,
6, ,-47, ,
8, ,-47, ,
3, ,-46, ,
0, ,-47, ,
1, ,-46, ,
1, ,-46, ,
1, ,-46, ,
0, ,-47, ,
5, ,-46, ,
8, ,-47, ,
1, ,-47, ,
-2, ,-46, ,
5, ,-47, ,
0, ,-46, ,
3, ,-46, ,
1, ,-47, ,
3, ,-47, ,
4, ,-46, ,
4, ,-47, ,
-1, ,-47, ,
5, ,-46, ,
5, ,-47, ,
3, ,-46, ,
0, ,-47, ,
13, ,-47, ,
6, ,-46, ,
1, ,-46, ,
1, ,-47, ,
-1, ,-46, ,
-1, ,-46, ,
1, ,-47, ,
-5, ,-47, ,
1, ,-46, ,
4, ,-47, ,
3, ,-46, ,
0, ,-46, ,
11, ,-47, ,
5, ,-46, ,
-1, ,-46, ,
-1, ,-47, ,
1, ,-47, ,
-9, ,-46, ,
-7, ,-46, ,
-15, ,-47, ,
-14, ,-45, ,
-14, ,-47, ,
-9, ,-47, ,
-4, ,-47, ,
0, ,-47, ,
4, ,-47, ,
6, ,-46, ,
8, ,-47, ,
13, ,-46, ,
16, ,-46, ,
16, ,-46, ,
8, ,-47, ,
10, ,-46, ,
8, ,-47, ,
4, ,-47, ,
0, ,-46, ,
6, ,-47, ,
3, ,-46, ,
3, ,-46, ,
1, ,-47, ,
0, ,-46, ,
1, ,-46, ,
0, ,-47, ,
-2, ,-47, ,
1, ,-45, ,
1, ,-47, ,
1, ,-47, ,
-1, ,-46, ,
3, ,-47, ,
3, ,-46, ,
3, ,-46, ,
0, ,-47, ,
3, ,-46, ,
3, ,-46, ,
4, ,-46, ,
0, ,-47, ,
4, ,-46, ,
4, ,-47, ,
3, ,-47, ,
0, ,-46, ,
1, ,-47, ,
4, ,-46, ,
0, ,-47, ,
-2, ,-47, ,
-1, ,-47, ,
-1, ,-46, ,
0, ,-46, ,
-6, ,-47, ,
0, ,-46, ,
3, ,-47, ,
0, ,-47, ,
0, ,-46, ,
-1, ,-46, ,
-1, ,-47, ,
-4, ,-46, ,
-2, ,-49, ,
1, ,-46, ,
0, ,-47, ,
3, ,-47, ,
-2, ,-47, ,
0, ,-46, ,
3, ,-47, ,
-1, ,-47, ,
-4, ,-47, ,
-1, ,-45, ,
4, ,-39, ,
9, ,-28, ,
5, ,-19, ,
10, ,-9, ,
10, ,-2, ,
5, ,5, ,
-1, ,11, ,
1, ,15, ,
4, ,19, ,
5, ,23, ,
4, ,26, ,
11, ,30, ,
9, ,32, ,
5, ,34, ,
4, ,36, ,
6, ,37, ,
8, ,38, ,
8, ,40, ,
1, ,40, ,
5, ,40, ,
8, ,42, ,
4, ,42, ,
-2, ,43, ,
4, ,43, ,
0, ,44, ,
3, ,43, ,
1, ,45, ,
3, ,45, ,
5, ,45, ,
5, ,45, ,
4, ,45, ,
4, ,44, ,
3, ,46, ,
1, ,45, ,
-1, ,45, ,
4, ,46, ,
4, ,46, ,
4, ,44, ,
1, ,46, ,
3, ,46, ,
5, ,46, ,
4, ,46, ,
-1, ,46, ,
4, ,45, ,
4, ,46, ,
1, ,46, ,
-2, ,46, ,
1, ,46, ,
1, ,46, ,
4, ,45, ,
4, ,46, ,
6, ,45, ,
6, ,46, ,
8, ,46, ,
-2, ,46, ,
0, ,45, ,
3, ,46, ,
0, ,46, ,
0, ,45, ,
0, ,46, ,
1, ,46, ,
1, ,45, ,
-1, ,46, ,
1, ,45, ,
-2, ,45, ,
3, ,46, ,
-1, ,46, ,
1, ,44, ,
5, ,46, ,
4, ,46, ,
-1, ,45, ,
3, ,46, ,
-1, ,46, ,
-1, ,45, ,
-2, ,46, ,
1, ,45, ,
4, ,45, ,
4, ,46, ,
1, ,45, ,
3, ,44, ,
3, ,45, ,
0, ,45, ,
-6, ,45, ,
0, ,45, ,
-1, ,45, ,
-1, ,44, ,
1, ,46, ,
3, ,45, ,
0, ,45, ,
5, ,45, ,
0, ,45, ,
3, ,44, ,
3, ,46, ,
0, ,46, ,
-2, ,45, ,
3, ,45, ,
0, ,45, ,
3, ,45, ,
0, ,46, ,
0, ,45, ,
1, ,45, ,
3, ,46, ,
-1, ,45, ,
4, ,44, ,
5, ,45, ,
4, ,45, ,
3, ,45, ,
3, ,46, ,
4, ,45, ,
3, ,45, ,
1, ,46, ,
5, ,45, ,
1, ,45, ,
5, ,46, ,
3, ,45, ,
5, ,44, ,
4, ,46, ,
3, ,45, ,
-2, ,45, ,
4, ,45, ,
1, ,45, ,
4, ,45, ,
0, ,45, ,
4, ,45, ,
4, ,45, ,
3, ,46, ,
-1, ,46, ,
1, ,44, ,
4, ,45, ,
1, ,45, ,
-2, ,45, ,
6, ,45, ,
4, ,45, ,
4, ,45, ,
3, ,46, ,
5, ,45, ,
9, ,45, ,
8, ,45, ,
4, ,45, ,
8, ,44, ,
10, ,45, ,
6, ,45, ,
3, ,45, ,
8, ,45, ,
1, ,45, ,
3, ,44, ,
1, ,46, ,
1, ,45, ,
5, ,45, ,
5, ,46, ,
3, ,45, ,
8, ,44, ,
8, ,46, ,
9, ,45, ,
3, ,45, ,
5, ,45, ,
8, ,45, ,
4, ,45, ,
1, ,46, ,
3, ,45, ,
1, ,45, ,
3, ,45, ,
-1, ,45, ,
5, ,45, ,
6, ,46, ,
4, ,45, ,
0, ,45, ,
4, ,45, ,
6, ,45, ,
5, ,45, ,
6, ,45, ,
5, ,45, ,
6, ,45, ,
6, ,46, ,
-4, ,45, ,
3, ,44, ,
4, ,46, ,
3, ,45, ,
3, ,45, ,
6, ,45, ,
6, ,45, ,
5, ,45, ,
3, ,45, ,
1, ,45, ,
1, ,45, ,
5, ,45, ,
5, ,45, ,
4, ,44, ,
8, ,46, ,
6, ,45, ,
3, ,45, ,
8, ,45, ,
4, ,45, ,
3, ,45, ,
3, ,45, ,
0, ,45, ,
1, ,45, ,
3, ,45, ,
-1, ,45, ,
3, ,44, ,
1, ,46, ,
-1, ,45, ,
-4, ,45, ,
4, ,45, ,
1, ,45, ,
1, ,45, ,
-1, ,46, ,
-1, ,45, ,
0, ,45, ,
1, ,46, ,
-2, ,45, ,
0, ,44, ,
1, ,45, ,
3, ,45, ,
0, ,45, ,
4, ,45, ,
1, ,45, ,
1, ,44, ,
0, ,46, ,
0, ,44, ,
0, ,45, ,
-1, ,45, ,
-6, ,45, ,
-1, ,45, ,
-1, ,45, ,
-1, ,45, ,
0, ,45, ,
1, ,45, ,
0, ,45, ,
0, ,44, ,
-5, ,45, ,
-2, ,45, ,
-5, ,45, ,
-4, ,45, ,
-9, ,45, ,
-5, ,44, ,
0, ,45, ,
-2, ,45, ,
-4, ,45, ,
1, ,45, ,
-2, ,45, ,
1, ,44, ,
-1, ,45, ,
-2, ,45, ,
-4, ,45, ,
-4, ,45, ,
-9, ,45, ,
-5, ,44, ,
-1, ,46, ,
-4, ,45, ,
-9, ,45, ,
-2, ,45, ,
-2, ,45, ,
1, ,44, ,
1, ,46, ,
6, ,45, ,
6, ,45, ,
4, ,45, ,
-5, ,45, ,
-4, ,44, ,
-4, ,45, ,
-5, ,45, ,
-6, ,45, ,
1, ,45, ,
3, ,45, ,
3, ,45, ,
-2, ,45, ,
-6, ,45, ,
-6, ,45, ,
-4, ,46, ,
-9, ,45, ,
-1, ,44, ,
1, ,45, ,
1, ,45, ,
0, ,45, ,
3, ,45, ,
0, ,45, ,
-2, ,44, ,
-4, ,46, ,
0, ,45, ,
1, ,45, ,
1, ,45, ,
-1, ,45, ,
0, ,44, ,
1, ,46, ,
-4, ,45, ,
-6, ,45, ,
-4, ,45, ,
-1, ,45, ,
3, ,44, ,
1, ,45, ,
3, ,45, ,
4, ,45, ,
1, ,46, ,
-6, ,45, ,
-2, ,44, ,
0, ,45, ,
-2, ,45, ,
-5, ,45, ,
3, ,45, ,
0, ,45, ,
0, ,44, ,
-4, ,45, ,
0, ,45, ,
-1, ,45, ,
1, ,46, ,
-2, ,45, ,
-4, ,44, ,
1, ,45, ,
-1, ,45, ,
-2, ,45, ,
3, ,45, ,
1, ,45, ,
4, ,45, ,
-1, ,45, ,
-1, ,45, ,
1, ,45, ,
1, ,45, ,
-1, ,45, ,
1, ,44, ,
4, ,45, ,
6, ,45, ,
-1, ,45, ,
1, ,45, ,
3, ,45, ,
0, ,45, ,
0, ,45, ,
1, ,45, ,
5, ,45, ,
6, ,46, ,
3, ,45, ,
5, ,44, ,
5, ,45, ,
1, ,45, ,
-4, ,45, ,
1, ,45, ,
4, ,45, ,
3, ,45, ,
0, ,45, ,
3, ,45, ,
3, ,45, ,
5, ,46, ,
0, ,45, ,
5, ,44, ,
4, ,45, ,
3, ,45, ,
1, ,45, ,
5, ,45, ,
6, ,45, ,
4, ,44, ,
5, ,46, ,
5, ,45, ,
5, ,45, ,
8, ,45, ,
4, ,45, ,
6, ,44, ,
8, ,45, ,
5, ,45, ,
3, ,45, ,
8, ,45, ,
5, ,45, ,
4, ,44, ,
1, ,45, ,
5, ,45, ,
5, ,45, ,
4, ,45, ,
0, ,45, ,
10, ,44, ,
6, ,46, ,
3, ,45, ,
3, ,45, ,
5, ,45, ,
5, ,45, ,
6, ,44, ,
4, ,46, ,
6, ,45, ,
9, ,45, ,
10, ,45, ,
6, ,45, ,
8, ,44, ,
9, ,45, ,
4, ,45, ,
-1, ,45, ,
1, ,45, ,
1, ,45, ,
3, ,44, ,
1, ,45, ,
3, ,45, ,
5, ,45, ,
4, ,45, ,
-1, ,45, ,
6, ,44, ,
5, ,45, ,
6, ,45, ,
4, ,45, ,
4, ,45, ,
6, ,45, ,
6, ,44, ,
1, ,46, ,
5, ,44, ,
4, ,45, ,
6, ,45, ,
1, ,45, ,
5, ,44, ,
6, ,45, ,
5, ,45, ,
3, ,45, ,
5, ,45, ,
4, ,45, ,
5, ,44, ,
4, ,46, ,
5, ,45, ,
5, ,45, ,
8, ,45, ,
1, ,45, ,
5, ,44, ,
6, ,45, ,
5, ,45, ,
1, ,45, ,
3, ,45, ,
4, ,45, ,
4, ,44, ,
3, ,46, ,
4, ,45, ,
4, ,45, ,
6, ,45, ,
4, ,45, ,
6, ,44, ,
9, ,45, ,
5, ,45, ,
3, ,45, ,
6, ,45, ,
4, ,45, ,
5, ,44, ,
5, ,45, ,
5, ,45, ,
5, ,45, ,
3, ,45, ,
0, ,45, ,
3, ,44, ,
3, ,45, ,
4, ,45, ,
0, ,45, ,
4, ,45, ,
1, ,45, ,
1, ,44, ,
-1, ,46, ,
1, ,45, ,
3, ,45, ,
5, ,45, ,
0, ,45, ,
4, ,44, ,
8, ,45, ,
3, ,45, ,
-1, ,45, ,
3, ,45, ,
0, ,45, ,
1, ,44, ,
0, ,46, ,
1, ,45, ,
4, ,45, ,
6, ,45, ,
-2, ,45, ,
1, ,44, ,
1, ,45, ,
1, ,45, ,
-1, ,45, ,
3, ,45, ,
4, ,45, ,
1, ,45, ,
0, ,45, ,
1, ,45, ,
-1, ,45, ,
-1, ,45, ,
-5, ,45, ,
-2, ,44, ,
1, ,46, ,
-2, ,45, ,
-4, ,45, ,
4, ,45, ,
1, ,45, ,
1, ,44, ,
-4, ,45, ,
-2, ,45, ,
-5, ,45, ,
-4, ,45, ,
-7, ,45, ,
-2, ,44, ,
1, ,45, ,
0, ,45, ,
-5, ,45, ,
3, ,45, ,
1, ,45, ,
0, ,44, ,
-5, ,46, ,
0, ,45, ,
-2, ,45, ,
1, ,45, ,
-5, ,45, ,
-2, ,44, ,
0, ,45, ,
-2, ,45, ,
-6, ,45, ,
-1, ,45, ,
-2, ,45, ,
0, ,44, ,
-1, ,45, ,
-1, ,45, ,
0, ,45, ,
-1, ,45, ,
-5, ,45, ,
1, ,44, ,
0, ,46, ,
0, ,45, ,
-1, ,45, ,
4, ,45, ,
1, ,45, ,
-1, ,44, ,
-2, ,45, ,
-1, ,45, ,
-5, ,45, ,
-4, ,45, ,
-10, ,45, ,
-4, ,44, ,
0, ,45, ,
-2, ,45, ,
0, ,45, ,
3, ,45, ,
-1, ,45, ,
0, ,44, ,
-2, ,45, ,
-1, ,45, ,
0, ,45, ,
0, ,45, ,
-6, ,45, ,
-1, ,44, ,
0, ,45, ,
-1, ,45, ,
-5, ,45, ,
1, ,45, ,
-1, ,45, ,
-1, ,44, ,
-4, ,45, ,
-1, ,45, ,
-1, ,45, ,
-1, ,46, ,
-6, ,45, ,
-5, ,44, ,
-1, ,46, ,
-5, ,45, ,
-7, ,45, ,
-1, ,45, ,
-4, ,45, ,
1, ,45, ,
0, ,46, ,
-2, ,45, ,
0, ,45, ,
-1, ,46, ,
-9, ,45, ,
-2, ,44, ,
-1, ,46, ,
-2, ,45, ,
-2, ,45, ,
4, ,45, ,
3, ,45, ,
1, ,44, ,
0, ,46, ,
1, ,45, ,
0, ,45, ,
3, ,45, ,
-1, ,45, ,
4, ,44, ,
3, ,45, ,
0, ,45, ,
-2, ,45, ,
0, ,45, ,
1, ,45, ,
-2, ,44, ,
-4, ,46, ,
-1, ,45, ,
0, ,45, ,
1, ,46, ,
-4, ,46, ,
1, ,44, ,
0, ,45, ,
0, ,45, ,
-2, ,45, ,
4, ,45, ,
4, ,45, ,
3, ,45, ,
1, ,46, ,
3, ,45, ,
1, ,45, ,
4, ,45, ,
0, ,45, ,
1, ,44, ,
4, ,45, ,
1, ,45, ,
-2, ,45, ,
3, ,45, ,
3, ,45, ,
5, ,45, ,
3, ,45, ,
5, ,45, ,
5, ,45, ,
4, ,45, ,
-1, ,45, ,
3, ,44, ,
5, ,45, ,
5, ,45, ,
3, ,45, ,
4, ,45, ,
4, ,45, ,
1, ,44, ,
1, ,46, ,
6, ,45, ,
8, ,45, ,
6, ,45, ,
1, ,45, ,
6, ,44, ,
5, ,45, ,
4, ,45, ,
-4, ,45, ,
3, ,45, ,
0, ,45, ,
3, ,44, ,
1, ,45, ,
3, ,45, ,
6, ,45, ,
4, ,45, ,
-1, ,45, ,
5, ,44, ,
3, ,46, ,
4, ,45, ,
-1, ,45, ,
4, ,45, ,
5, ,45, ,
3, ,44, ,
3, ,46, ,
5, ,45, ,
4, ,45, ,
6, ,45, ,
3, ,45, ,
4, ,44, ,
5, ,45, ,
3, ,45, ,
0, ,45, ,
6, ,45, ,
6, ,45, ,
6, ,44, ,
5, ,45, ,
6, ,45, ,
8, ,45, ,
9, ,46, ,
1, ,45, ,
5, ,44, ,
4, ,45, ,
5, ,45, ,
1, ,45, ,
4, ,45, ,
4, ,45, ,
4, ,44, ,
3, ,46, ,
4, ,44, ,
6, ,45, ,
8, ,45, ,
5, ,45, ,
6, ,44, ,
11, ,45, ,
9, ,45, ,
3, ,45, ,
10, ,45, ,
4, ,45, ,
5, ,44, ,
8, ,46, ,
8, ,44, ,
10, ,45, ,
9, ,45, ,
6, ,45, ,
8, ,44, ,
4, ,46, ,
4, ,45, ,
0, ,45, ,
4, ,45, ,
4, ,45, ,
3, ,45, ,
5, ,46, ,
6, ,45, ,
6, ,45, ,
8, ,45, ,
1, ,45, ,
5, ,44, ,
6, ,46, ,
4, ,45, ,
4, ,45, ,
5, ,45, ,
1, ,45, ,
1, ,44, ,
0, ,46, ,
1, ,44, ,
4, ,45, ,
5, ,45, ,
1, ,45, ,
8, ,44, ,
8, ,45, ,
6, ,45, ,
0, ,45, ,
4, ,46, ,
3, ,45, ,
1, ,45, ,
-2, ,45, ,
4, ,45, ,
3, ,45, ,
6, ,46, ,
1, ,45, ,
3, ,44, ,
5, ,45, ,
0, ,45, ,
-1, ,45, ,
4, ,45, ,
3, ,45, ,
5, ,44, ,
0, ,46, ,
3, ,45, ,
6, ,45, ,
3, ,46, ,
-2, ,45, ,
1, ,44, ,
1, ,45, ,
1, ,45, ,
-2, ,45, ,
5, ,45, ,
4, ,45, ,
1, ,45, ,
-1, ,45, ,
1, ,45, ,
4, ,45, ,
4, ,45, ,
-2, ,45, ,
3, ,44, ,
4, ,45, ,
3, ,45, ,
-1, ,45, ,
3, ,45, ,
3, ,43, ,
1, ,36, ,
-4, ,26, ,
-5, ,16, ,
-2, ,7, ,
-1, ,0, ,
-2, ,-6, ,
4, ,-12, ,
5, ,-17, ,
-1, ,-21, ,
-6, ,-25, ,
-1, ,-28, ,
0, ,-31, ,
-2, ,-33, ,
-5, ,-36, ,
-4, ,-37, ,
-2, ,-38, ,
0, ,-40, ,
-9, ,-41, ,
-1, ,-42, ,
-4, ,-42, ,
-9, ,-43, ,
-10, ,-44, ,
-5, ,-44, ,
-1, ,-45, ,
1, ,-44, ,
0, ,-46, ,
1, ,-45, ,
3, ,-46, ,
-1, ,-46, ,
-6, ,-47, ,
3, ,-46, ,
-4, ,-47, ,
-1, ,-47, ,
3, ,-47, ,
4, ,-47, ,
3, ,-47, ,
0, ,-47, ,
-6, ,-49, ,
-2, ,-47, ,
-2, ,-47, ,
0, ,-47, ,
-2, ,-49, ,
1, ,-47, ,
5, ,-47, ,
3, ,-47, ,
-1, ,-47, ,
1, ,-47, ,
-4, ,-47, ,
-5, ,-46, ,
-4, ,-49, ,
-2, ,-47, ,
0, ,-47, ,
0, ,-47, ,
-6, ,-47, ,
-2, ,-46, ,
-2, ,-47, ,
-4, ,-47, ,
-11, ,-47, ,
0, ,-47, ,
-1, ,-47, ,
0, ,-47, ,
-1, ,-49, ,
0, ,-47, ,
1, ,-46, ,
-1, ,-47, ,
-2, ,-47, ,
0, ,-47, ,
3, ,-47, ,
3, ,-47, ,
-1, ,-47, ,
3, ,-47, ,
0, ,-47, ,
-2, ,-47, ,
0, ,-49, ,
-2, ,-47, ,
-5, ,-46, ,
-1, ,-47, ,
0, ,-47, ,
0, ,-46, ,
1, ,-47, ,
3, ,-47, ,
0, ,-47, ,
4, ,-47, ,
3, ,-47, ,
1, ,-47, ,
-2, ,-47, ,
0, ,-47, ,
-1, ,-46, ,
0, ,-47, ,
-4, ,-47, ,
1, ,-46, ,
3, ,-47, ,
-1, ,-47, ,
-4, ,-46, ,
3, ,-47, ,
-2, ,-46, ,
1, ,-47, ,
-1, ,-47, ,
1, ,-47, ,
1, ,-46, ,
-1, ,-47, ,
-2, ,-47, ,
-1, ,-46, ,
0, ,-46, ,
0, ,-47, ,
-5, ,-46, ,
4, ,-47, ,
6, ,-47, ,
-1, ,-46, ,
3, ,-47, ,
3, ,-47, ,
1, ,-46, ,
1, ,-47, ,
-4, ,-47, ,
-1, ,-46, ,
4, ,-47, ,
0, ,-47, ,
-6, ,-46, ,
3, ,-46, ,
0, ,-47, ,
0, ,-46, ,
-2, ,-49, ,
-1, ,-46, ,
3, ,-46, ,
-1, ,-47, ,
-4, ,-47, ,
0, ,-46, ,
1, ,-46, ,
1, ,-47, ,
-4, ,-46, ,
0, ,-47, ,
0, ,-46, ,
-4, ,-47, ,
-5, ,-49, ,
-1, ,-47, ,
-4, ,-46, ,
3, ,-47, ,
-2, ,-47, ,
-1, ,-46, ,
0, ,-47, ,
0, ,-47, ,
-4, ,-46, ,
0, ,-46, ,
0, ,-47, ,
3, ,-47, ,
1, ,-47, ,
5, ,-47, ,
5, ,-46, ,
5, ,-46, ,
0, ,-47, ,
3, ,-46, ,
3, ,-47, ,
1, ,-47, ,
-4, ,-46, ,
1, ,-47, ,
4, ,-46, ,
4, ,-46, ,
1, ,-47, ,
3, ,-47, ,
1, ,-46, ,
3, ,-47, ,
-2, ,-47, ,
0, ,-46, ,
4, ,-47, ,
3, ,-47, ,
3, ,-46, ,
8, ,-46, ,
4, ,-47, ,
6, ,-46, ,
4, ,-47, ,
5, ,-47, ,
6, ,-46, ,
6, ,-46, ,
3, ,-47, ,
5, ,-46, ,
4, ,-47, ,
3, ,-47, ,
-2, ,-46, ,
5, ,-47, ,
5, ,-47, ,
4, ,-46, ,
5, ,-47, ,
5, ,-46, ,
5, ,-46, ,
9, ,-47, ,
1, ,-47, ,
4, ,-46, ,
5, ,-47, ,
1, ,-46, ,
-1, ,-47, ,
1, ,-46, ,
3, ,-46, ,
3, ,-46, ,
1, ,-47, ,
4, ,-46, ,
5, ,-46, ,
5, ,-47, ,
0, ,-47, ,
4, ,-46, ,
3, ,-46, ,
4, ,-46, ,
0, ,-46, ,
4, ,-47, ,
6, ,-46, ,
4, ,-46, ,
3, ,-47, ,
4, ,-46, ,
1, ,-46, ,
4, ,-47, ,
-1, ,-47, ,
4, ,-46, ,
8, ,-46, ,
3, ,-46, ,
0, ,-46, ,
5, ,-47, ,
1, ,-47, ,
3, ,-46, ,
3, ,-47, ,
4, ,-47, ,
5, ,-46, ,
6, ,-47, ,
3, ,-46, ,
4, ,-46, ,
5, ,-47, ,
3, ,-47, ,
-2, ,-46, ,
1, ,-47, ,
3, ,-46, ,
3, ,-46, ,
1, ,-47, ,
4, ,-46, ,
6, ,-46, ,
5, ,-47, ,
0, ,-47, ,
0, ,-46, ,
3, ,-47, ,
0, ,-46, ,
-4, ,-46, ,
3, ,-47, ,
4, ,-46, ,
1, ,-46, ,
1, ,-47, ,
4, ,-47, ,
4, ,-46, ,
3, ,-46, ,
0, ,-47, ,
3, ,-46, ,
9, ,-47, ,
6, ,-46, ,
5, ,-46, ,
6, ,-46, ,
4, ,-46, ,
1, ,-46, ,
-1, ,-47, ,
0, ,-46, ,
3, ,-46, ,
6, ,-47, ,
0, ,-47, ,
4, ,-46, ,
8, ,-47, ,
0, ,-47, ,
-2, ,-46, ,
0, ,-46, ,
0, ,-47, ,
3, ,-46, ,
0, ,-47, ,
3, ,-46, ,
3, ,-46, ,
3, ,-47, ,
-2, ,-47, ,
0, ,-45, ,
1, ,-47, ,
-1, ,-46, ,
-1, ,-46, ,
4, ,-46, ,
4, ,-47, ,
3, ,-46, ,
1, ,-47, ,
1, ,-46, ,
0, ,-46, ,
1, ,-47, ,
-1, ,-46, ,
3, ,-46, ,
6, ,-47, ,
5, ,-46, ,
3, ,-46, ,
8, ,-47, ,
3, ,-47, ,
0, ,-47, ,
0, ,-47, ,
-1, ,-47, ,
1, ,-46, ,
0, ,-47, ,
0, ,-47, ,
0, ,-46, ,
1, ,-47, ,
-1, ,-47, ,
-4, ,-46, ,
3, ,-47, ,
0, ,-46, ,
-2, ,-46, ,
-2, ,-47, ,
-1, ,-46, ,
3, ,-46, ,
1, ,-47, ,
-1, ,-47, ,
3, ,-46, ,
5, ,-47, ,
1, ,-47, ,
-2, ,-46, ,
4, ,-46, ,
1, ,-46, ,
1, ,-46, ,
1, ,-47, ,
1, ,-46, ,
1, ,-46, ,
1, ,-47, ,
-4, ,-46, ,
4, ,-46, ,
3, ,-47, ,
1, ,-46, ,
4, ,-47, ,
5, ,-46, ,
5, ,-47, ,
4, ,-46, ,
1, ,-47, ,
3, ,-46, ,
0, ,-46, ,
0, ,-46, ,
-4, ,-47, ,
3, ,-46, ,
3, ,-47, ,
1, ,-46, ,
1, ,-46, ,
4, ,-47, ,
4, ,-46, ,
1, ,-46, ,
-4, ,-47, ,
1, ,-47, ,
-1, ,-46, ,
0, ,-47, ,
-2, ,-46, ,
0, ,-46, ,
5, ,-47, ,
1, ,-47, ,
-1, ,-46, ,
3, ,-46, ,
0, ,-46, ,
0, ,-46, ,
-2, ,-47, ,
0, ,-46, ,
0, ,-46, ,
0, ,-47, ,
-4, ,-46, ,
-1, ,-46, ,
1, ,-47, ,
-1, ,-46, ,
-4, ,-46, ,
1, ,-46, ,
1, ,-47, ,
0, ,-46, ,
1, ,-47, ,
-1, ,-47, ,
3, ,-46, ,
-1, ,-46, ,
-4, ,-47, ,
4, ,-46, ,
0, ,-47, ,
0, ,-47, ,
1, ,-46, ,
3, ,-46, ,
3, ,-47, ,
0, ,-46, ,
-4, ,-47, ,
-4, ,-47, ,
-4, ,-46, ,
-1, ,-47, ,
-5, ,-47, ,
-1, ,-46, ,
3, ,-47, ,
1, ,-46, ,
1, ,-46, ,
4, ,-47, ,
4, ,-47, ,
3, ,-46, ,
0, ,-47, ,
3, ,-47, ,
1, ,-46, ,
4, ,-46, ,
-1, ,-47, ,
4, ,-45, ,
3, ,-47, ,
3, ,-46, ,
0, ,-46, ,
3, ,-46, ,
1, ,-47, ,
1, ,-46, ,
0, ,-47, ,
4, ,-46, ,
1, ,-46, ,
0, ,-46, ,
-2, ,-46, ,
0, ,-46, ,
3, ,-47, ,
3, ,-47, ,
1, ,-46, ,
6, ,-47, ,
4, ,-46, ,
4, ,-46, ,
3, ,-47, ,
5, ,-47, ,
5, ,-46, ,
3, ,-46, ,
-2, ,-47, ,
0, ,-45, ,
3, ,-47, ,
3, ,-46, ,
-1, ,-47, ,
6, ,-46, ,
5, ,-47, ,
1, ,-46, ,
3, ,-47, ,
4, ,-46, ,
5, ,-46, ,
5, ,-46, ,
3, ,-47, ,
5, ,-46, ,
5, ,-46, ,
1, ,-46, ,
-1, ,-46, ,
1, ,-46, ,
-1, ,-46, ,
1, ,-46, ,
-1, ,-47, ,
0, ,-46, ,
3, ,-46, ,
3, ,-47, ,
-1, ,-47, ,
3, ,-46, ,
1, ,-47, ,
0, ,-46, ,
-4, ,-46, ,
4, ,-46, ,
4, ,-46, ,
4, ,-46, ,
4, ,-47, ,
4, ,-46, ,
1, ,-46, ,
3, ,-47, ,
-4, ,-47, ,
1, ,-46, ,
1, ,-47, ,
-2, ,-47, ,
0, ,-46, ,
3, ,-46, ,
-1, ,-46, ,
3, ,-46, ,
-1, ,-47, ,
0, ,-47, ,
4, ,-46, ,
3, ,-47, ,
0, ,-47, ,
5, ,-45, ,
3, ,-47, ,
1, ,-47, ,
-4, ,-46, ,
0, ,-46, ,
-1, ,-46, ,
-1, ,-46, ,
3, ,-47, ,
3, ,-46, ,
5, ,-46, ,
6, ,-46, ,
3, ,-47, ,
3, ,-46, ,
4, ,-46, ,
1, ,-47, ,
-5, ,-46, ,
0, ,-46, ,
0, ,-47, ,
3, ,-46, ,
3, ,-47, ,
3, ,-46, ,
9, ,-46, ,
5, ,-47, ,
