src/vary_am2_1412/temp0001262.CSV

Format,1.0B,
Memory Length,10000,Memory Length,10000,
IntpDistance,0,IntpDistance,0,
Trigger Address,4999,Trigger Address,4999,
Trigger Level,9.600E-01,Trigger Level,9.600E-01,
Source,CH1,Source,CH2,
Vertical Units,V,Vertical Units,V,
Vertical Units Div,0,Vertical Units Div,0,
Vertical Units Extend Div,16,Vertical Units Extend Div,16,
Label,,Label,,
Probe Type,0,Probe Type,0,
Probe Ratio,1.000e+01,Probe Ratio,1.000e+00,
Vertical Scale,2.000e-02,Vertical Scale,1.000e+00,
Vertical Position,-5.120e-02,Vertical Position,0.000e+00,
Horizontal Units,S,Horizontal Units,S,
Horizontal Scale,1.000E-05,Horizontal Scale,1.000E-05,
Horizontal Position,0.000E+00,Horizontal Position,0.000E+00,
Horizontal Mode,Main,Horizontal Mode,Main,
SincET Mode,Real Time,SincET Mode,Real Time,
Sampling Period,1.000e-08,Sampling Period,1.000e-08,
Horizontal Old Scale,1.000E-05,Horizontal Old Scale,1.000E-05,
Horizontal Old Position,0.000E+00,Horizontal Old Position,0.000E+00,
Firmware,V1.23,Firmware,V1.23,
Mode,Fast,Mode,Fast,
Waveform Data,,Waveform Data,,
0, ,-44, ,
1, ,-44, ,
3, ,-44, ,
0, ,-45, ,
3, ,-44, ,
3, ,-44, ,
1, ,-44, ,
-1, ,-44, ,
1, ,-44, ,
-1, ,-44, ,
3, ,-44, ,
-4, ,-44, ,
-1, ,-44, ,
0, ,-44, ,
-5, ,-44, ,
-5, ,-45, ,
-1, ,-44, ,
-2, ,-44, ,
-1, ,-44, ,
-4, ,-44, ,
-1, ,-43, ,
1, ,-44, ,
3, ,-44, ,
-4, ,-44, ,
0, ,-44, ,
0, ,-44, ,
-2, ,-44, ,
-7, ,-44, ,
-1, ,-44, ,
-2, ,-44, ,
-1, ,-44, ,
0, ,-44, ,
0, ,-44, ,
-1, ,-44, ,
0, ,-44, ,
-2, ,-44, ,
1, ,-44, ,
3, ,-44, ,
-1, ,-44, ,
-2, ,-45, ,
1, ,-44, ,
0, ,-44, ,
0, ,-44, ,
0, ,-44, ,
-2, ,-43, ,
0, ,-44, ,
0, ,-44, ,
-4, ,-44, ,
4, ,-44, ,
3, ,-44, ,
3, ,-44, ,
0, ,-45, ,
4, ,-44, ,
0, ,-44, ,
-1, ,-44, ,
-1, ,-44, ,
3, ,-44, ,
0, ,-44, ,
4, ,-44, ,
-1, ,-44, ,
0, ,-44, ,
6, ,-44, ,
1, ,-44, ,
-1, ,-45, ,
3, ,-44, ,
-1, ,-44, ,
0, ,-44, ,
-2, ,-44, ,
3, ,-43, ,
3, ,-44, ,
1, ,-44, ,
0, ,-44, ,
1, ,-44, ,
1, ,-44, ,
0, ,-44, ,
-4, ,-45, ,
3, ,-44, ,
3, ,-44, ,
1, ,-44, ,
1, ,-44, ,
1, ,-44, ,
0, ,-44, ,
0, ,-44, ,
-2, ,-44, ,
4, ,-44, ,
5, ,-44, ,
0, ,-44, ,
-2, ,-45, ,
5, ,-44, ,
5, ,-44, ,
1, ,-44, ,
-1, ,-44, ,
-2, ,-43, ,
0, ,-44, ,
-1, ,-44, ,
-2, ,-44, ,
3, ,-44, ,
3, ,-44, ,
-2, ,-44, ,
-5, ,-45, ,
-4, ,-44, ,
0, ,-44, ,
-2, ,-44, ,
1, ,-44, ,
6, ,-44, ,
6, ,-44, ,
9, ,-44, ,
5, ,-44, ,
9, ,-44, ,
8, ,-44, ,
4, ,-44, ,
1, ,-45, ,
3, ,-44, ,
1, ,-44, ,
3, ,-44, ,
0, ,-44, ,
3, ,-43, ,
5, ,-44, ,
6, ,-44, ,
4, ,-44, ,
6, ,-44, ,
10, ,-44, ,
6, ,-44, ,
3, ,-45, ,
4, ,-44, ,
6, ,-44, ,
1, ,-44, ,
1, ,-44, ,
6, ,-43, ,
6, ,-44, ,
6, ,-44, ,
0, ,-44, ,
3, ,-44, ,
5, ,-44, ,
3, ,-44, ,
-1, ,-45, ,
8, ,-44, ,
1, ,-44, ,
4, ,-44, ,
3, ,-44, ,
3, ,-43, ,
5, ,-44, ,
4, ,-44, ,
4, ,-44, ,
9, ,-44, ,
6, ,-44, ,
5, ,-44, ,
-1, ,-44, ,
3, ,-44, ,
3, ,-44, ,
0, ,-44, ,
3, ,-44, ,
0, ,-44, ,
8, ,-44, ,
9, ,-44, ,
-5, ,-44, ,
4, ,-44, ,
4, ,-44, ,
4, ,-43, ,
0, ,-45, ,
5, ,-44, ,
4, ,-44, ,
1, ,-44, ,
3, ,-44, ,
0, ,-44, ,
1, ,-44, ,
0, ,-44, ,
-2, ,-44, ,
3, ,-44, ,
5, ,-44, ,
3, ,-44, ,
1, ,-44, ,
1, ,-44, ,
3, ,-44, ,
-2, ,-44, ,
0, ,-44, ,
0, ,-44, ,
0, ,-44, ,
3, ,-44, ,
0, ,-44, ,
5, ,-44, ,
5, ,-44, ,
1, ,-44, ,
0, ,-44, ,
1, ,-44, ,
-1, ,-44, ,
1, ,-44, ,
-4, ,-44, ,
1, ,-43, ,
3, ,-45, ,
-1, ,-44, ,
-2, ,-44, ,
1, ,-44, ,
1, ,-44, ,
-1, ,-44, ,
-1, ,-44, ,
4, ,-44, ,
1, ,-44, ,
1, ,-44, ,
0, ,-44, ,
1, ,-44, ,
1, ,-44, ,
1, ,-44, ,
-5, ,-44, ,
1, ,-44, ,
1, ,-44, ,
0, ,-44, ,
-2, ,-45, ,
5, ,-44, ,
1, ,-44, ,
0, ,-44, ,
1, ,-44, ,
1, ,-44, ,
4, ,-44, ,
3, ,-44, ,
-4, ,-44, ,
1, ,-44, ,
1, ,-44, ,
0, ,-44, ,
-2, ,-45, ,
3, ,-44, ,
3, ,-44, ,
0, ,-44, ,
-1, ,-44, ,
1, ,-44, ,
0, ,-44, ,
3, ,-44, ,
-1, ,-44, ,
0, ,-44, ,
1, ,-44, ,
-1, ,-44, ,
-4, ,-45, ,
1, ,-44, ,
-1, ,-44, ,
-1, ,-44, ,
-2, ,-44, ,
-2, ,-44, ,
-2, ,-44, ,
0, ,-44, ,
-7, ,-44, ,
-2, ,-44, ,
-1, ,-44, ,
-4, ,-44, ,
-4, ,-44, ,
4, ,-44, ,
3, ,-44, ,
1, ,-44, ,
1, ,-44, ,
3, ,-44, ,
-1, ,-44, ,
-2, ,-44, ,
-9, ,-44, ,
-4, ,-44, ,
0, ,-44, ,
-4, ,-44, ,
-6, ,-45, ,
3, ,-44, ,
-1, ,-44, ,
-2, ,-44, ,
-4, ,-44, ,
-4, ,-43, ,
0, ,-44, ,
-2, ,-44, ,
-2, ,-44, ,
-2, ,-44, ,
0, ,-44, ,
-1, ,-44, ,
-6, ,-44, ,
0, ,-44, ,
-1, ,-44, ,
-2, ,-44, ,
-2, ,-44, ,
-2, ,-44, ,
-2, ,-44, ,
3, ,-44, ,
-4, ,-44, ,
-1, ,-44, ,
0, ,-44, ,
-4, ,-44, ,
-4, ,-45, ,
0, ,-44, ,
0, ,-44, ,
0, ,-44, ,
-1, ,-44, ,
-1, ,-44, ,
-2, ,-45, ,
-1, ,-44, ,
-5, ,-44, ,
-1, ,-44, ,
1, ,-44, ,
-2, ,-44, ,
-4, ,-44, ,
-1, ,-44, ,
-2, ,-44, ,
-1, ,-44, ,
-1, ,-44, ,
4, ,-43, ,
1, ,-44, ,
1, ,-44, ,
-4, ,-44, ,
1, ,-44, ,
4, ,-44, ,
0, ,-44, ,
-2, ,-45, ,
5, ,-44, ,
-1, ,-44, ,
1, ,-44, ,
-2, ,-44, ,
0, ,-43, ,
1, ,-44, ,
-1, ,-44, ,
-1, ,-44, ,
0, ,-44, ,
1, ,-44, ,
-1, ,-44, ,
-5, ,-45, ,
-1, ,-44, ,
-2, ,-44, ,
0, ,-44, ,
-2, ,-45, ,
0, ,-44, ,
0, ,-44, ,
-1, ,-44, ,
-2, ,-44, ,
-1, ,-44, ,
0, ,-44, ,
-1, ,-44, ,
-4, ,-45, ,
1, ,-44, ,
-1, ,-44, ,
0, ,-44, ,
-1, ,-44, ,
0, ,-43, ,
4, ,-44, ,
1, ,-44, ,
-2, ,-44, ,
1, ,-44, ,
0, ,-44, ,
-1, ,-44, ,
-4, ,-45, ,
1, ,-44, ,
1, ,-44, ,
0, ,-44, ,
0, ,-45, ,
1, ,-44, ,
1, ,-44, ,
4, ,-44, ,
0, ,-44, ,
3, ,-44, ,
9, ,-44, ,
4, ,-44, ,
4, ,-45, ,
4, ,-44, ,
0, ,-44, ,
-1, ,-44, ,
-4, ,-44, ,
0, ,-44, ,
3, ,-44, ,
6, ,-44, ,
1, ,-44, ,
5, ,-44, ,
8, ,-44, ,
3, ,-43, ,
-1, ,-45, ,
4, ,-44, ,
3, ,-44, ,
1, ,-44, ,
3, ,-44, ,
4, ,-44, ,
5, ,-44, ,
5, ,-45, ,
-1, ,-44, ,
0, ,-44, ,
3, ,-44, ,
0, ,-44, ,
-2, ,-45, ,
4, ,-44, ,
1, ,-44, ,
3, ,-44, ,
1, ,-44, ,
1, ,-44, ,
4, ,-45, ,
3, ,-44, ,
0, ,-44, ,
5, ,-44, ,
6, ,-44, ,
5, ,-44, ,
0, ,-45, ,
5, ,-44, ,
1, ,-44, ,
1, ,-44, ,
1, ,-44, ,
4, ,-44, ,
3, ,-44, ,
6, ,-44, ,
1, ,-44, ,
3, ,-44, ,
3, ,-44, ,
1, ,-44, ,
-2, ,-45, ,
3, ,-44, ,
3, ,-44, ,
1, ,-44, ,
1, ,-44, ,
3, ,-44, ,
3, ,-45, ,
3, ,-44, ,
3, ,-44, ,
4, ,-44, ,
3, ,-44, ,
3, ,-44, ,
-2, ,-44, ,
1, ,-44, ,
1, ,-44, ,
1, ,-44, ,
1, ,-44, ,
5, ,-44, ,
3, ,-44, ,
5, ,-44, ,
1, ,-44, ,
1, ,-44, ,
8, ,-44, ,
3, ,-43, ,
3, ,-44, ,
4, ,-44, ,
3, ,-44, ,
3, ,-44, ,
0, ,-44, ,
1, ,-43, ,
-2, ,-44, ,
0, ,-44, ,
-1, ,-44, ,
1, ,-44, ,
5, ,-44, ,
0, ,-44, ,
-2, ,-45, ,
5, ,-44, ,
3, ,-44, ,
3, ,-44, ,
1, ,-44, ,
3, ,-44, ,
4, ,-44, ,
8, ,-44, ,
0, ,-44, ,
1, ,-44, ,
6, ,-44, ,
1, ,-44, ,
-1, ,-45, ,
3, ,-44, ,
3, ,-44, ,
4, ,-44, ,
4, ,-44, ,
5, ,-43, ,
6, ,-44, ,
5, ,-44, ,
-1, ,-44, ,
5, ,-44, ,
0, ,-44, ,
1, ,-44, ,
0, ,-45, ,
4, ,-44, ,
5, ,-44, ,
3, ,-44, ,
-1, ,-44, ,
1, ,-44, ,
-2, ,-44, ,
3, ,-44, ,
-2, ,-44, ,
3, ,-44, ,
5, ,-44, ,
1, ,-44, ,
-1, ,-45, ,
4, ,-44, ,
0, ,-44, ,
-1, ,-44, ,
-4, ,-44, ,
-1, ,-43, ,
0, ,-44, ,
-1, ,-44, ,
-6, ,-44, ,
-1, ,-44, ,
-1, ,-44, ,
-1, ,-44, ,
-4, ,-44, ,
0, ,-44, ,
3, ,-44, ,
3, ,-44, ,
-1, ,-44, ,
1, ,-44, ,
0, ,-44, ,
-1, ,-44, ,
-5, ,-44, ,
-2, ,-44, ,
0, ,-44, ,
-1, ,-44, ,
-4, ,-45, ,
3, ,-44, ,
0, ,-44, ,
0, ,-44, ,
-1, ,-44, ,
-1, ,-44, ,
0, ,-44, ,
0, ,-44, ,
-6, ,-44, ,
0, ,-45, ,
0, ,-44, ,
-2, ,-44, ,
-4, ,-44, ,
4, ,-44, ,
3, ,-44, ,
-1, ,-44, ,
-4, ,-44, ,
0, ,-44, ,
0, ,-44, ,
-2, ,-44, ,
-6, ,-44, ,
-1, ,-44, ,
1, ,-44, ,
-1, ,-44, ,
-2, ,-45, ,
3, ,-44, ,
-4, ,-41, ,
1, ,-35, ,
1, ,-25, ,
1, ,-15, ,
9, ,-6, ,
5, ,1, ,
1, ,8, ,
6, ,14, ,
4, ,19, ,
3, ,22, ,
1, ,26, ,
6, ,30, ,
5, ,32, ,
4, ,35, ,
-1, ,37, ,
3, ,37, ,
1, ,40, ,
5, ,41, ,
-2, ,42, ,
1, ,43, ,
3, ,44, ,
0, ,43, ,
-2, ,45, ,
6, ,45, ,
1, ,46, ,
3, ,46, ,
-2, ,46, ,
-1, ,46, ,
-1, ,47, ,
0, ,47, ,
-6, ,47, ,
-2, ,49, ,
1, ,49, ,
-1, ,47, ,
-1, ,49, ,
1, ,47, ,
0, ,49, ,
0, ,49, ,
-2, ,49, ,
-1, ,47, ,
1, ,50, ,
0, ,49, ,
-5, ,49, ,
-2, ,49, ,
-1, ,49, ,
-2, ,47, ,
-5, ,50, ,
-1, ,49, ,
-5, ,49, ,
-1, ,50, ,
-2, ,49, ,
0, ,47, ,
3, ,49, ,
1, ,49, ,
-4, ,49, ,
3, ,49, ,
-1, ,49, ,
-2, ,47, ,
-6, ,50, ,
-2, ,49, ,
-1, ,49, ,
-2, ,49, ,
-1, ,49, ,
1, ,47, ,
3, ,49, ,
5, ,49, ,
-4, ,49, ,
-1, ,49, ,
0, ,49, ,
-2, ,47, ,
-2, ,49, ,
0, ,49, ,
-1, ,49, ,
0, ,49, ,
-4, ,49, ,
0, ,47, ,
0, ,49, ,
1, ,49, ,
-2, ,47, ,
4, ,49, ,
4, ,49, ,
3, ,49, ,
1, ,49, ,
1, ,49, ,
6, ,49, ,
-2, ,49, ,
-7, ,49, ,
6, ,47, ,
3, ,49, ,
0, ,49, ,
3, ,49, ,
1, ,49, ,
4, ,47, ,
-1, ,47, ,
-4, ,49, ,
1, ,47, ,
0, ,49, ,
4, ,49, ,
1, ,47, ,
4, ,47, ,
5, ,49, ,
3, ,47, ,
-5, ,49, ,
-1, ,49, ,
-1, ,49, ,
0, ,47, ,
-5, ,49, ,
-1, ,47, ,
-5, ,49, ,
1, ,49, ,
8, ,47, ,
3, ,47, ,
3, ,49, ,
6, ,49, ,
-5, ,47, ,
-1, ,49, ,
1, ,47, ,
-1, ,47, ,
-4, ,49, ,
3, ,47, ,
8, ,49, ,
5, ,49, ,
1, ,49, ,
0, ,46, ,
-1, ,49, ,
-1, ,49, ,
-1, ,47, ,
3, ,49, ,
4, ,49, ,
3, ,47, ,
-2, ,49, ,
0, ,49, ,
0, ,49, ,
-2, ,49, ,
1, ,47, ,
5, ,46, ,
9, ,49, ,
9, ,49, ,
5, ,47, ,
5, ,49, ,
6, ,49, ,
-1, ,47, ,
-2, ,49, ,
3, ,47, ,
1, ,47, ,
3, ,49, ,
1, ,47, ,
4, ,46, ,
6, ,49, ,
1, ,49, ,
-2, ,47, ,
0, ,49, ,
3, ,47, ,
1, ,47, ,
1, ,49, ,
8, ,47, ,
6, ,47, ,
4, ,49, ,
4, ,49, ,
3, ,47, ,
3, ,49, ,
5, ,49, ,
0, ,47, ,
4, ,47, ,
6, ,49, ,
1, ,47, ,
0, ,49, ,
5, ,47, ,
-1, ,49, ,
3, ,49, ,
0, ,49, ,
3, ,46, ,
4, ,49, ,
3, ,49, ,
-1, ,47, ,
4, ,49, ,
1, ,49, ,
3, ,47, ,
-2, ,49, ,
3, ,47, ,
4, ,47, ,
0, ,49, ,
-1, ,49, ,
3, ,47, ,
3, ,49, ,
5, ,49, ,
-1, ,47, ,
5, ,49, ,
6, ,49, ,
3, ,47, ,
0, ,49, ,
4, ,47, ,
3, ,49, ,
3, ,49, ,
0, ,49, ,
1, ,47, ,
1, ,49, ,
3, ,49, ,
-4, ,47, ,
0, ,49, ,
3, ,49, ,
3, ,47, ,
-1, ,49, ,
4, ,47, ,
3, ,47, ,
0, ,49, ,
-2, ,47, ,
3, ,46, ,
-1, ,49, ,
3, ,47, ,
-5, ,47, ,
1, ,49, ,
5, ,49, ,
9, ,47, ,
-2, ,49, ,
0, ,47, ,
-2, ,49, ,
0, ,49, ,
3, ,47, ,
1, ,46, ,
6, ,49, ,
4, ,49, ,
-1, ,47, ,
4, ,47, ,
3, ,49, ,
4, ,47, ,
3, ,49, ,
5, ,47, ,
6, ,47, ,
4, ,49, ,
3, ,49, ,
1, ,47, ,
1, ,49, ,
3, ,49, ,
-5, ,47, ,
0, ,49, ,
1, ,47, ,
1, ,47, ,
0, ,49, ,
5, ,47, ,
1, ,49, ,
4, ,49, ,
0, ,47, ,
0, ,46, ,
1, ,49, ,
0, ,49, ,
-1, ,47, ,
4, ,49, ,
5, ,49, ,
1, ,47, ,
-1, ,49, ,
3, ,47, ,
1, ,47, ,
-1, ,49, ,
-6, ,49, ,
-7, ,46, ,
-14, ,49, ,
-11, ,49, ,
-21, ,47, ,
-15, ,49, ,
-10, ,47, ,
-9, ,47, ,
-10, ,49, ,
1, ,47, ,
-1, ,47, ,
3, ,49, ,
5, ,49, ,
10, ,46, ,
10, ,49, ,
8, ,49, ,
3, ,47, ,
5, ,47, ,
3, ,49, ,
-1, ,47, ,
-4, ,49, ,
0, ,47, ,
1, ,47, ,
0, ,49, ,
0, ,49, ,
1, ,46, ,
-2, ,49, ,
0, ,47, ,
-7, ,47, ,
-2, ,47, ,
-1, ,47, ,
0, ,47, ,
-5, ,49, ,
-1, ,47, ,
-5, ,47, ,
-4, ,49, ,
-6, ,49, ,
-2, ,46, ,
0, ,49, ,
0, ,49, ,
-4, ,47, ,
3, ,47, ,
1, ,47, ,
1, ,47, ,
-5, ,49, ,
-1, ,47, ,
-1, ,47, ,
-2, ,49, ,
-4, ,49, ,
0, ,46, ,
0, ,49, ,
4, ,47, ,
0, ,47, ,
3, ,47, ,
5, ,47, ,
0, ,47, ,
-4, ,49, ,
-1, ,47, ,
-4, ,47, ,
-2, ,49, ,
-4, ,49, ,
-1, ,47, ,
-1, ,49, ,
1, ,47, ,
-2, ,47, ,
-2, ,49, ,
-1, ,49, ,
0, ,47, ,
-4, ,49, ,
3, ,49, ,
3, ,47, ,
3, ,47, ,
0, ,47, ,
3, ,46, ,
-1, ,49, ,
0, ,49, ,
-6, ,47, ,
1, ,49, ,
0, ,47, ,
0, ,47, ,
-2, ,49, ,
5, ,47, ,
-1, ,47, ,
3, ,49, ,
-1, ,47, ,
-1, ,46, ,
1, ,49, ,
-1, ,49, ,
-2, ,49, ,
1, ,47, ,
0, ,49, ,
0, ,47, ,
-5, ,49, ,
0, ,47, ,
0, ,49, ,
-1, ,49, ,
0, ,49, ,
1, ,46, ,
1, ,49, ,
3, ,47, ,
-4, ,47, ,
-1, ,49, ,
0, ,47, ,
-1, ,47, ,
-5, ,49, ,
-1, ,47, ,
-2, ,47, ,
1, ,49, ,
3, ,49, ,
5, ,46, ,
3, ,49, ,
5, ,47, ,
0, ,47, ,
4, ,47, ,
-1, ,49, ,
0, ,47, ,
-4, ,49, ,
0, ,47, ,
3, ,49, ,
0, ,49, ,
0, ,49, ,
3, ,46, ,
3, ,49, ,
4, ,47, ,
1, ,49, ,
8, ,47, ,
9, ,47, ,
4, ,46, ,
0, ,49, ,
3, ,47, ,
0, ,47, ,
3, ,49, ,
1, ,49, ,
3, ,46, ,
3, ,49, ,
1, ,47, ,
-2, ,47, ,
0, ,49, ,
1, ,49, ,
0, ,47, ,
-5, ,49, ,
3, ,47, ,
4, ,47, ,
3, ,49, ,
3, ,49, ,
3, ,46, ,
6, ,49, ,
8, ,49, ,
0, ,47, ,
4, ,49, ,
3, ,47, ,
-1, ,47, ,
-4, ,49, ,
5, ,47, ,
3, ,47, ,
3, ,49, ,
4, ,47, ,
0, ,46, ,
3, ,47, ,
1, ,47, ,
-1, ,47, ,
4, ,47, ,
3, ,47, ,
4, ,47, ,
0, ,49, ,
4, ,47, ,
4, ,47, ,
0, ,49, ,
3, ,49, ,
1, ,46, ,
0, ,49, ,
4, ,49, ,
0, ,47, ,
0, ,49, ,
4, ,49, ,
0, ,47, ,
-2, ,49, ,
0, ,47, ,
1, ,49, ,
1, ,49, ,
-2, ,49, ,
1, ,47, ,
3, ,49, ,
6, ,49, ,
1, ,47, ,
3, ,49, ,
4, ,47, ,
1, ,47, ,
-1, ,49, ,
3, ,47, ,
3, ,47, ,
1, ,49, ,
3, ,47, ,
5, ,46, ,
0, ,49, ,
1, ,49, ,
-5, ,47, ,
0, ,47, ,
4, ,47, ,
3, ,47, ,
0, ,49, ,
5, ,47, ,
0, ,47, ,
1, ,49, ,
-4, ,47, ,
0, ,46, ,
1, ,49, ,
4, ,49, ,
1, ,47, ,
8, ,49, ,
9, ,49, ,
8, ,47, ,
5, ,49, ,
8, ,47, ,
9, ,49, ,
6, ,49, ,
6, ,47, ,
8, ,46, ,
4, ,49, ,
6, ,49, ,
0, ,47, ,
5, ,49, ,
5, ,49, ,
4, ,47, ,
3, ,49, ,
6, ,47, ,
5, ,49, ,
4, ,49, ,
3, ,47, ,
3, ,46, ,
3, ,49, ,
8, ,49, ,
3, ,47, ,
4, ,49, ,
4, ,49, ,
3, ,47, ,
0, ,49, ,
5, ,47, ,
5, ,47, ,
4, ,49, ,
1, ,47, ,
4, ,46, ,
1, ,49, ,
4, ,47, ,
-1, ,47, ,
1, ,47, ,
5, ,47, ,
3, ,47, ,
3, ,49, ,
8, ,47, ,
3, ,49, ,
3, ,49, ,
-1, ,49, ,
-1, ,46, ,
-2, ,49, ,
-1, ,49, ,
-5, ,47, ,
3, ,47, ,
4, ,49, ,
4, ,49, ,
0, ,49, ,
5, ,47, ,
1, ,47, ,
0, ,49, ,
0, ,49, ,
3, ,46, ,
1, ,49, ,
5, ,49, ,
1, ,47, ,
3, ,49, ,
1, ,47, ,
0, ,47, ,
-4, ,49, ,
4, ,47, ,
1, ,49, ,
0, ,49, ,
-2, ,47, ,
-4, ,46, ,
-1, ,49, ,
-2, ,49, ,
-7, ,47, ,
0, ,49, ,
3, ,49, ,
3, ,46, ,
-4, ,49, ,
3, ,47, ,
4, ,47, ,
-7, ,49, ,
-1, ,47, ,
1, ,46, ,
-6, ,49, ,
0, ,47, ,
-4, ,47, ,
-2, ,47, ,
1, ,49, ,
0, ,47, ,
-4, ,49, ,
1, ,47, ,
-2, ,47, ,
-1, ,49, ,
-6, ,49, ,
-4, ,46, ,
-1, ,49, ,
0, ,47, ,
-6, ,47, ,
-1, ,47, ,
-2, ,49, ,
-4, ,47, ,
-6, ,49, ,
-5, ,47, ,
-2, ,49, ,
-5, ,49, ,
-9, ,49, ,
-5, ,47, ,
-4, ,49, ,
-2, ,47, ,
-10, ,47, ,
-6, ,49, ,
3, ,49, ,
-4, ,47, ,
-9, ,49, ,
3, ,47, ,
-4, ,49, ,
0, ,49, ,
-2, ,47, ,
-4, ,46, ,
-2, ,49, ,
-5, ,47, ,
-7, ,47, ,
-6, ,49, ,
-5, ,49, ,
-5, ,47, ,
-6, ,49, ,
1, ,47, ,
-4, ,47, ,
-2, ,49, ,
-5, ,49, ,
-4, ,46, ,
-5, ,47, ,
-2, ,47, ,
-7, ,47, ,
-2, ,47, ,
-2, ,49, ,
-4, ,47, ,
-7, ,49, ,
-5, ,47, ,
-5, ,47, ,
-5, ,49, ,
-2, ,49, ,
-2, ,47, ,
0, ,49, ,
0, ,49, ,
-5, ,47, ,
3, ,49, ,
3, ,49, ,
-1, ,47, ,
-6, ,49, ,
-5, ,49, ,
-4, ,47, ,
-4, ,49, ,
-4, ,49, ,
-1, ,46, ,
-4, ,49, ,
0, ,49, ,
-7, ,47, ,
-4, ,49, ,
-1, ,49, ,
-1, ,46, ,
-2, ,49, ,
8, ,47, ,
4, ,49, ,
3, ,49, ,
-1, ,49, ,
4, ,46, ,
5, ,49, ,
-2, ,49, ,
-6, ,47, ,
0, ,49, ,
1, ,49, ,
-1, ,47, ,
-1, ,49, ,
4, ,47, ,
0, ,49, ,
1, ,49, ,
3, ,49, ,
4, ,46, ,
6, ,49, ,
8, ,47, ,
0, ,47, ,
3, ,47, ,
1, ,49, ,
-1, ,47, ,
-6, ,49, ,
0, ,47, ,
0, ,47, ,
1, ,49, ,
4, ,49, ,
1, ,46, ,
1, ,49, ,
1, ,49, ,
-4, ,47, ,
1, ,49, ,
1, ,49, ,
1, ,47, ,
-4, ,49, ,
4, ,47, ,
6, ,49, ,
3, ,49, ,
3, ,47, ,
4, ,47, ,
3, ,49, ,
6, ,49, ,
-2, ,47, ,
0, ,49, ,
0, ,49, ,
0, ,47, ,
1, ,49, ,
1, ,47, ,
4, ,47, ,
4, ,49, ,
-2, ,49, ,
1, ,46, ,
4, ,49, ,
3, ,49, ,
0, ,47, ,
4, ,47, ,
5, ,49, ,
3, ,47, ,
0, ,49, ,
4, ,47, ,
5, ,49, ,
6, ,49, ,
3, ,49, ,
6, ,46, ,
3, ,49, ,
5, ,49, ,
1, ,47, ,
4, ,49, ,
9, ,49, ,
5, ,47, ,
1, ,49, ,
5, ,47, ,
5, ,47, ,
4, ,49, ,
3, ,47, ,
4, ,46, ,
5, ,49, ,
4, ,49, ,
1, ,47, ,
3, ,47, ,
3, ,49, ,
3, ,47, ,
0, ,49, ,
5, ,47, ,
6, ,47, ,
5, ,49, ,
4, ,47, ,
6, ,46, ,
5, ,49, ,
4, ,49, ,
-1, ,47, ,
4, ,47, ,
8, ,49, ,
4, ,47, ,
1, ,49, ,
8, ,47, ,
4, ,49, ,
4, ,49, ,
1, ,49, ,
3, ,46, ,
5, ,49, ,
9, ,49, ,
1, ,47, ,
6, ,49, ,
6, ,47, ,
1, ,47, ,
-1, ,49, ,
1, ,47, ,
4, ,47, ,
1, ,49, ,
0, ,49, ,
4, ,46, ,
1, ,49, ,
5, ,47, ,
-1, ,47, ,
4, ,49, ,
5, ,49, ,
4, ,47, ,
0, ,49, ,
8, ,47, ,
5, ,47, ,
8, ,44, ,
-1, ,36, ,
-2, ,25, ,
-4, ,16, ,
-6, ,7, ,
-9, ,1, ,
-2, ,-5, ,
0, ,-11, ,
0, ,-16, ,
-6, ,-20, ,
-1, ,-23, ,
-2, ,-26, ,
-4, ,-30, ,
-4, ,-32, ,
-1, ,-33, ,
1, ,-36, ,
0, ,-37, ,
-1, ,-38, ,
4, ,-39, ,
5, ,-40, ,
3, ,-40, ,
-2, ,-41, ,
3, ,-42, ,
-1, ,-42, ,
-1, ,-42, ,
-4, ,-43, ,
-1, ,-43, ,
3, ,-43, ,
1, ,-44, ,
-1, ,-44, ,
3, ,-44, ,
3, ,-44, ,
3, ,-44, ,
-1, ,-45, ,
1, ,-44, ,
4, ,-44, ,
1, ,-44, ,
-1, ,-45, ,
0, ,-44, ,
0, ,-45, ,
3, ,-45, ,
-4, ,-45, ,
1, ,-45, ,
4, ,-45, ,
0, ,-45, ,
0, ,-45, ,
1, ,-45, ,
0, ,-44, ,
1, ,-45, ,
-1, ,-45, ,
1, ,-44, ,
-2, ,-45, ,
0, ,-45, ,
-4, ,-44, ,
0, ,-45, ,
3, ,-45, ,
0, ,-44, ,
-1, ,-45, ,
1, ,-45, ,
-2, ,-45, ,
-4, ,-44, ,
-9, ,-45, ,
-4, ,-44, ,
-4, ,-45, ,
-2, ,-45, ,
-5, ,-45, ,
1, ,-45, ,
3, ,-44, ,
-1, ,-44, ,
-4, ,-45, ,
1, ,-45, ,
-4, ,-44, ,
-2, ,-45, ,
-2, ,-44, ,
-1, ,-44, ,
0, ,-45, ,
-1, ,-45, ,
-5, ,-45, ,
-2, ,-45, ,
-2, ,-45, ,
-2, ,-44, ,
-6, ,-45, ,
0, ,-44, ,
1, ,-44, ,
0, ,-44, ,
-1, ,-45, ,
0, ,-44, ,
0, ,-45, ,
-1, ,-44, ,
-7, ,-44, ,
-4, ,-45, ,
-1, ,-44, ,
-2, ,-44, ,
-4, ,-45, ,
0, ,-44, ,
-1, ,-44, ,
-4, ,-44, ,
-4, ,-45, ,
-1, ,-44, ,
0, ,-44, ,
1, ,-44, ,
-2, ,-44, ,
3, ,-44, ,
1, ,-44, ,
-1, ,-44, ,
-1, ,-45, ,
1, ,-44, ,
0, ,-44, ,
-4, ,-44, ,
-5, ,-45, ,
-2, ,-44, ,
-2, ,-44, ,
0, ,-44, ,
-6, ,-44, ,
0, ,-44, ,
3, ,-44, ,
-2, ,-44, ,
-5, ,-45, ,
-1, ,-44, ,
-2, ,-44, ,
-1, ,-44, ,
-1, ,-44, ,
0, ,-44, ,
0, ,-44, ,
-1, ,-44, ,
-5, ,-44, ,
-1, ,-44, ,
-1, ,-44, ,
-1, ,-44, ,
-5, ,-45, ,
0, ,-44, ,
3, ,-44, ,
-1, ,-44, ,
-1, ,-45, ,
-1, ,-43, ,
1, ,-44, ,
0, ,-44, ,
-4, ,-44, ,
-1, ,-45, ,
4, ,-44, ,
-1, ,-44, ,
-2, ,-45, ,
1, ,-44, ,
-1, ,-44, ,
-1, ,-44, ,
-2, ,-44, ,
-2, ,-43, ,
-1, ,-45, ,
-2, ,-44, ,
-6, ,-44, ,
-1, ,-44, ,
-1, ,-44, ,
-2, ,-44, ,
-5, ,-45, ,
1, ,-44, ,
1, ,-44, ,
1, ,-44, ,
1, ,-44, ,
3, ,-44, ,
3, ,-44, ,
5, ,-44, ,
-4, ,-44, ,
0, ,-44, ,
1, ,-44, ,
-2, ,-44, ,
-2, ,-45, ,
4, ,-44, ,
1, ,-44, ,
3, ,-44, ,
-1, ,-44, ,
3, ,-44, ,
1, ,-44, ,
3, ,-44, ,
-1, ,-44, ,
4, ,-44, ,
3, ,-44, ,
1, ,-44, ,
-1, ,-44, ,
4, ,-44, ,
4, ,-44, ,
3, ,-44, ,
1, ,-44, ,
5, ,-44, ,
1, ,-44, ,
3, ,-44, ,
0, ,-44, ,
1, ,-44, ,
6, ,-44, ,
4, ,-44, ,
0, ,-45, ,
6, ,-44, ,
4, ,-44, ,
4, ,-44, ,
3, ,-44, ,
4, ,-44, ,
5, ,-45, ,
4, ,-44, ,
1, ,-44, ,
3, ,-44, ,
1, ,-44, ,
0, ,-44, ,
-1, ,-45, ,
4, ,-44, ,
5, ,-44, ,
3, ,-44, ,
5, ,-45, ,
5, ,-44, ,
4, ,-44, ,
5, ,-44, ,
-1, ,-44, ,
3, ,-44, ,
3, ,-44, ,
1, ,-44, ,
0, ,-45, ,
3, ,-44, ,
5, ,-44, ,
3, ,-44, ,
1, ,-44, ,
4, ,-43, ,
5, ,-44, ,
3, ,-44, ,
1, ,-44, ,
4, ,-44, ,
3, ,-44, ,
0, ,-44, ,
-1, ,-45, ,
3, ,-44, ,
4, ,-44, ,
0, ,-44, ,
0, ,-44, ,
4, ,-44, ,
5, ,-44, ,
5, ,-44, ,
-1, ,-44, ,
5, ,-44, ,
5, ,-44, ,
0, ,-44, ,
0, ,-45, ,
9, ,-44, ,
3, ,-44, ,
4, ,-44, ,
1, ,-44, ,
3, ,-43, ,
3, ,-44, ,
4, ,-44, ,
1, ,-44, ,
3, ,-44, ,
5, ,-44, ,
1, ,-44, ,
-4, ,-45, ,
5, ,-44, ,
9, ,-44, ,
-1, ,-44, ,
1, ,-44, ,
6, ,-44, ,
4, ,-44, ,
5, ,-44, ,
0, ,-44, ,
3, ,-44, ,
6, ,-44, ,
1, ,-44, ,
0, ,-45, ,
8, ,-44, ,
1, ,-44, ,
4, ,-44, ,
0, ,-44, ,
1, ,-43, ,
3, ,-44, ,
4, ,-44, ,
-2, ,-44, ,
6, ,-44, ,
6, ,-44, ,
4, ,-44, ,
3, ,-44, ,
0, ,-44, ,
4, ,-44, ,
1, ,-44, ,
-1, ,-44, ,
3, ,-43, ,
1, ,-44, ,
8, ,-45, ,
-1, ,-44, ,
3, ,-44, ,
10, ,-44, ,
1, ,-44, ,
-2, ,-45, ,
-1, ,-44, ,
-4, ,-44, ,
-1, ,-44, ,
-4, ,-44, ,
1, ,-43, ,
3, ,-44, ,
3, ,-44, ,
0, ,-44, ,
4, ,-44, ,
6, ,-44, ,
1, ,-44, ,
-2, ,-44, ,
5, ,-44, ,
0, ,-44, ,
-2, ,-44, ,
-2, ,-44, ,
-1, ,-44, ,
-4, ,-45, ,
-1, ,-44, ,
-5, ,-44, ,
0, ,-44, ,
3, ,-44, ,
0, ,-44, ,
-1, ,-45, ,
3, ,-44, ,
-1, ,-44, ,
-1, ,-44, ,
-4, ,-45, ,
-5, ,-44, ,
0, ,-44, ,
-2, ,-44, ,
-4, ,-44, ,
0, ,-44, ,
0, ,-44, ,
3, ,-44, ,
-5, ,-45, ,
0, ,-44, ,
3, ,-44, ,
-4, ,-44, ,
-2, ,-44, ,
1, ,-44, ,
3, ,-44, ,
3, ,-44, ,
-1, ,-44, ,
3, ,-44, ,
1, ,-44, ,
-2, ,-44, ,
-6, ,-45, ,
-1, ,-44, ,
-1, ,-44, ,
-4, ,-44, ,
-1, ,-44, ,
0, ,-44, ,
3, ,-44, ,
0, ,-44, ,
-2, ,-44, ,
-4, ,-44, ,
-2, ,-44, ,
1, ,-44, ,
-2, ,-44, ,
4, ,-44, ,
4, ,-44, ,
-2, ,-44, ,
-2, ,-45, ,
-2, ,-43, ,
-4, ,-44, ,
-2, ,-44, ,
-6, ,-44, ,
0, ,-44, ,
4, ,-44, ,
-1, ,-44, ,
-1, ,-45, ,
3, ,-44, ,
-2, ,-44, ,
-2, ,-44, ,
-7, ,-44, ,
-4, ,-43, ,
-2, ,-44, ,
-4, ,-44, ,
-7, ,-44, ,
-1, ,-44, ,
-2, ,-44, ,
-4, ,-44, ,
-6, ,-45, ,
-1, ,-44, ,
-2, ,-44, ,
-2, ,-44, ,
-2, ,-44, ,
1, ,-44, ,
1, ,-44, ,
0, ,-44, ,
-4, ,-44, ,
0, ,-44, ,
-4, ,-44, ,
-1, ,-44, ,
-1, ,-45, ,
1, ,-44, ,
-1, ,-44, ,
-4, ,-44, ,
-2, ,-44, ,
-2, ,-43, ,
-1, ,-44, ,
0, ,-44, ,
-7, ,-44, ,
-1, ,-44, ,
1, ,-44, ,
1, ,-44, ,
-4, ,-45, ,
3, ,-44, ,
3, ,-44, ,
-4, ,-44, ,
-5, ,-44, ,
-1, ,-44, ,
-1, ,-44, ,
0, ,-44, ,
-6, ,-44, ,
-2, ,-44, ,
0, ,-44, ,
-2, ,-44, ,
-2, ,-45, ,
4, ,-44, ,
0, ,-44, ,
-1, ,-44, ,
-1, ,-44, ,
0, ,-43, ,
1, ,-44, ,
3, ,-44, ,
0, ,-44, ,
4, ,-44, ,
3, ,-44, ,
1, ,-44, ,
-4, ,-45, ,
1, ,-44, ,
-1, ,-44, ,
-4, ,-44, ,
-2, ,-44, ,
1, ,-43, ,
-1, ,-44, ,
-1, ,-44, ,
-7, ,-44, ,
-2, ,-44, ,
4, ,-44, ,
1, ,-44, ,
1, ,-45, ,
8, ,-44, ,
5, ,-44, ,
4, ,-44, ,
3, ,-44, ,
0, ,-43, ,
3, ,-44, ,
-1, ,-44, ,
-7, ,-44, ,
-1, ,-44, ,
0, ,-44, ,
-1, ,-44, ,
-2, ,-44, ,
5, ,-44, ,
4, ,-44, ,
0, ,-44, ,
1, ,-44, ,
3, ,-44, ,
1, ,-44, ,
4, ,-44, ,
-2, ,-44, ,
3, ,-44, ,
6, ,-44, ,
3, ,-44, ,
-2, ,-44, ,
4, ,-44, ,
3, ,-44, ,
0, ,-44, ,
-2, ,-44, ,
1, ,-43, ,
1, ,-44, ,
0, ,-44, ,
0, ,-44, ,
4, ,-44, ,
3, ,-44, ,
0, ,-44, ,
-2, ,-45, ,
3, ,-44, ,
4, ,-44, ,
3, ,-44, ,
