src/vary_am2_1412/temp0002980.CSV

Format,1.0B,
Memory Length,10000,Memory Length,10000,
IntpDistance,0,IntpDistance,0,
Trigger Address,4999,Trigger Address,4999,
Trigger Level,9.600E-01,Trigger Level,9.600E-01,
Source,CH1,Source,CH2,
Vertical Units,V,Vertical Units,V,
Vertical Units Div,0,Vertical Units Div,0,
Vertical Units Extend Div,16,Vertical Units Extend Div,16,
Label,,Label,,
Probe Type,0,Probe Type,0,
Probe Ratio,1.000e+01,Probe Ratio,1.000e+00,
Vertical Scale,2.000e-02,Vertical Scale,1.000e+00,
Vertical Position,-5.120e-02,Vertical Position,0.000e+00,
Horizontal Units,S,Horizontal Units,S,
Horizontal Scale,1.000E-05,Horizontal Scale,1.000E-05,
Horizontal Position,0.000E+00,Horizontal Position,0.000E+00,
Horizontal Mode,Main,Horizontal Mode,Main,
SincET Mode,Real Time,SincET Mode,Real Time,
Sampling Period,1.000e-08,Sampling Period,1.000e-08,
Horizontal Old Scale,1.000E-05,Horizontal Old Scale,1.000E-05,
Horizontal Old Position,0.000E+00,Horizontal Old Position,0.000E+00,
Firmware,V1.23,Firmware,V1.23,
Mode,Fast,Mode,Fast,
Waveform Data,,Waveform Data,,
-5, ,-36, ,
-2, ,-37, ,
-4, ,-36, ,
-1, ,-36, ,
1, ,-36, ,
-5, ,-36, ,
1, ,-36, ,
3, ,-36, ,
-1, ,-36, ,
-4, ,-36, ,
-1, ,-36, ,
-2, ,-36, ,
-2, ,-36, ,
-5, ,-37, ,
-2, ,-36, ,
-1, ,-36, ,
-1, ,-36, ,
-9, ,-36, ,
-2, ,-36, ,
-1, ,-36, ,
-6, ,-36, ,
-9, ,-35, ,
-4, ,-36, ,
-1, ,-36, ,
-2, ,-36, ,
-4, ,-37, ,
-1, ,-36, ,
-2, ,-36, ,
-1, ,-36, ,
-5, ,-36, ,
-2, ,-36, ,
3, ,-36, ,
-2, ,-36, ,
-4, ,-36, ,
3, ,-36, ,
-2, ,-36, ,
-1, ,-36, ,
-6, ,-36, ,
-5, ,-36, ,
-2, ,-36, ,
-2, ,-36, ,
-5, ,-36, ,
1, ,-36, ,
4, ,-36, ,
0, ,-36, ,
-6, ,-36, ,
6, ,-36, ,
-5, ,-36, ,
-5, ,-36, ,
-2, ,-37, ,
-2, ,-36, ,
4, ,-36, ,
3, ,-36, ,
-1, ,-36, ,
3, ,-36, ,
6, ,-36, ,
0, ,-36, ,
-2, ,-36, ,
1, ,-36, ,
1, ,-36, ,
1, ,-36, ,
-1, ,-36, ,
5, ,-36, ,
5, ,-36, ,
1, ,-36, ,
-4, ,-36, ,
1, ,-36, ,
1, ,-36, ,
1, ,-36, ,
-4, ,-36, ,
4, ,-36, ,
4, ,-36, ,
-1, ,-36, ,
-1, ,-37, ,
-1, ,-36, ,
0, ,-36, ,
3, ,-36, ,
-4, ,-36, ,
5, ,-36, ,
9, ,-36, ,
4, ,-36, ,
3, ,-36, ,
8, ,-36, ,
4, ,-36, ,
3, ,-36, ,
-1, ,-36, ,
1, ,-36, ,
4, ,-36, ,
5, ,-36, ,
0, ,-36, ,
8, ,-36, ,
6, ,-36, ,
5, ,-36, ,
3, ,-36, ,
4, ,-36, ,
4, ,-36, ,
4, ,-36, ,
0, ,-37, ,
4, ,-36, ,
3, ,-36, ,
4, ,-36, ,
-4, ,-36, ,
1, ,-35, ,
5, ,-36, ,
1, ,-36, ,
-1, ,-36, ,
5, ,-36, ,
4, ,-36, ,
4, ,-36, ,
1, ,-36, ,
3, ,-36, ,
5, ,-36, ,
4, ,-36, ,
1, ,-36, ,
4, ,-36, ,
6, ,-36, ,
5, ,-36, ,
0, ,-36, ,
6, ,-36, ,
5, ,-36, ,
0, ,-36, ,
-1, ,-36, ,
0, ,-36, ,
0, ,-36, ,
5, ,-36, ,
1, ,-36, ,
6, ,-36, ,
6, ,-36, ,
5, ,-36, ,
1, ,-36, ,
6, ,-36, ,
5, ,-36, ,
5, ,-36, ,
4, ,-36, ,
5, ,-36, ,
9, ,-36, ,
6, ,-36, ,
1, ,-36, ,
8, ,-36, ,
6, ,-36, ,
4, ,-36, ,
4, ,-36, ,
8, ,-36, ,
8, ,-36, ,
8, ,-35, ,
5, ,-37, ,
6, ,-36, ,
6, ,-35, ,
6, ,-36, ,
1, ,-36, ,
3, ,-35, ,
9, ,-36, ,
3, ,-36, ,
3, ,-36, ,
6, ,-36, ,
4, ,-36, ,
4, ,-36, ,
0, ,-36, ,
4, ,-36, ,
4, ,-36, ,
4, ,-36, ,
0, ,-36, ,
4, ,-36, ,
6, ,-36, ,
4, ,-36, ,
0, ,-36, ,
5, ,-36, ,
5, ,-36, ,
3, ,-36, ,
-1, ,-36, ,
1, ,-36, ,
4, ,-36, ,
1, ,-36, ,
-5, ,-36, ,
1, ,-36, ,
4, ,-36, ,
0, ,-36, ,
-7, ,-36, ,
1, ,-36, ,
1, ,-36, ,
-1, ,-36, ,
0, ,-36, ,
0, ,-36, ,
3, ,-36, ,
6, ,-36, ,
-4, ,-36, ,
3, ,-36, ,
3, ,-36, ,
1, ,-36, ,
-1, ,-36, ,
3, ,-36, ,
5, ,-36, ,
3, ,-36, ,
1, ,-37, ,
1, ,-36, ,
0, ,-36, ,
0, ,-36, ,
-4, ,-36, ,
1, ,-35, ,
5, ,-36, ,
4, ,-36, ,
0, ,-36, ,
5, ,-36, ,
3, ,-36, ,
3, ,-36, ,
1, ,-36, ,
3, ,-36, ,
1, ,-36, ,
0, ,-36, ,
-4, ,-36, ,
0, ,-36, ,
4, ,-36, ,
1, ,-36, ,
0, ,-36, ,
5, ,-36, ,
4, ,-36, ,
1, ,-36, ,
3, ,-37, ,
4, ,-36, ,
3, ,-36, ,
3, ,-36, ,
-4, ,-36, ,
1, ,-36, ,
4, ,-36, ,
-2, ,-36, ,
-5, ,-36, ,
3, ,-36, ,
-1, ,-36, ,
3, ,-36, ,
0, ,-36, ,
1, ,-36, ,
3, ,-36, ,
1, ,-36, ,
-2, ,-36, ,
-1, ,-36, ,
0, ,-36, ,
-2, ,-36, ,
-4, ,-36, ,
1, ,-36, ,
4, ,-36, ,
1, ,-36, ,
0, ,-36, ,
1, ,-36, ,
1, ,-36, ,
-1, ,-36, ,
-2, ,-36, ,
-2, ,-36, ,
-1, ,-36, ,
-2, ,-36, ,
-2, ,-36, ,
1, ,-36, ,
1, ,-36, ,
-1, ,-36, ,
-5, ,-36, ,
-1, ,-36, ,
-1, ,-36, ,
-2, ,-36, ,
-6, ,-36, ,
-1, ,-36, ,
-1, ,-36, ,
-7, ,-36, ,
-7, ,-36, ,
-2, ,-36, ,
-2, ,-36, ,
-1, ,-36, ,
-4, ,-36, ,
3, ,-36, ,
3, ,-36, ,
4, ,-36, ,
-1, ,-36, ,
0, ,-36, ,
1, ,-36, ,
-2, ,-36, ,
-6, ,-36, ,
-1, ,-36, ,
-1, ,-36, ,
1, ,-36, ,
-2, ,-36, ,
-1, ,-36, ,
0, ,-36, ,
-4, ,-36, ,
-9, ,-36, ,
-4, ,-36, ,
-1, ,-36, ,
0, ,-36, ,
-2, ,-36, ,
4, ,-36, ,
0, ,-36, ,
1, ,-36, ,
-2, ,-37, ,
-1, ,-36, ,
4, ,-36, ,
4, ,-36, ,
-4, ,-36, ,
3, ,-36, ,
5, ,-36, ,
1, ,-36, ,
-2, ,-36, ,
0, ,-36, ,
0, ,-36, ,
1, ,-36, ,
1, ,-36, ,
3, ,-36, ,
9, ,-36, ,
4, ,-36, ,
-2, ,-36, ,
3, ,-36, ,
1, ,-36, ,
1, ,-36, ,
-7, ,-35, ,
-2, ,-36, ,
0, ,-36, ,
-4, ,-36, ,
-5, ,-36, ,
1, ,-36, ,
0, ,-36, ,
4, ,-36, ,
-1, ,-36, ,
1, ,-36, ,
4, ,-36, ,
-1, ,-36, ,
-1, ,-36, ,
4, ,-36, ,
1, ,-36, ,
1, ,-36, ,
-1, ,-37, ,
0, ,-36, ,
-1, ,-36, ,
0, ,-36, ,
-4, ,-36, ,
1, ,-36, ,
3, ,-36, ,
0, ,-36, ,
-2, ,-36, ,
3, ,-36, ,
-1, ,-36, ,
0, ,-36, ,
-4, ,-37, ,
0, ,-36, ,
1, ,-35, ,
1, ,-36, ,
-1, ,-36, ,
3, ,-36, ,
3, ,-36, ,
0, ,-36, ,
-1, ,-36, ,
8, ,-36, ,
4, ,-36, ,
1, ,-36, ,
0, ,-36, ,
3, ,-36, ,
5, ,-36, ,
3, ,-36, ,
-1, ,-36, ,
0, ,-36, ,
3, ,-36, ,
0, ,-36, ,
-5, ,-36, ,
5, ,-36, ,
5, ,-36, ,
3, ,-35, ,
5, ,-37, ,
4, ,-36, ,
1, ,-36, ,
4, ,-36, ,
-2, ,-36, ,
4, ,-36, ,
9, ,-36, ,
3, ,-36, ,
0, ,-36, ,
4, ,-36, ,
4, ,-36, ,
3, ,-36, ,
-2, ,-36, ,
3, ,-36, ,
6, ,-36, ,
5, ,-36, ,
0, ,-36, ,
8, ,-36, ,
10, ,-36, ,
5, ,-36, ,
0, ,-36, ,
4, ,-36, ,
3, ,-36, ,
-1, ,-36, ,
-2, ,-36, ,
4, ,-36, ,
4, ,-36, ,
8, ,-36, ,
0, ,-36, ,
3, ,-36, ,
5, ,-36, ,
0, ,-36, ,
-2, ,-36, ,
4, ,-36, ,
0, ,-36, ,
3, ,-36, ,
0, ,-37, ,
1, ,-36, ,
3, ,-36, ,
-1, ,-36, ,
-1, ,-36, ,
1, ,-36, ,
6, ,-36, ,
4, ,-36, ,
1, ,-36, ,
6, ,-36, ,
5, ,-36, ,
1, ,-36, ,
4, ,-36, ,
3, ,-36, ,
3, ,-36, ,
1, ,-36, ,
0, ,-36, ,
1, ,-36, ,
4, ,-36, ,
0, ,-36, ,
-4, ,-36, ,
1, ,-36, ,
-2, ,-36, ,
0, ,-36, ,
-2, ,-36, ,
3, ,-36, ,
4, ,-36, ,
4, ,-36, ,
-1, ,-36, ,
4, ,-36, ,
1, ,-36, ,
3, ,-36, ,
-1, ,-36, ,
5, ,-36, ,
5, ,-36, ,
1, ,-36, ,
3, ,-36, ,
4, ,-36, ,
4, ,-36, ,
6, ,-36, ,
-2, ,-36, ,
3, ,-35, ,
8, ,-36, ,
3, ,-36, ,
1, ,-36, ,
6, ,-36, ,
3, ,-36, ,
3, ,-36, ,
1, ,-36, ,
5, ,-36, ,
3, ,-36, ,
4, ,-36, ,
-1, ,-36, ,
3, ,-36, ,
3, ,-36, ,
1, ,-36, ,
0, ,-36, ,
4, ,-36, ,
3, ,-36, ,
1, ,-36, ,
0, ,-37, ,
1, ,-36, ,
3, ,-36, ,
3, ,-36, ,
-2, ,-36, ,
1, ,-36, ,
6, ,-36, ,
1, ,-36, ,
-4, ,-36, ,
4, ,-36, ,
0, ,-36, ,
0, ,-36, ,
-5, ,-36, ,
-4, ,-36, ,
0, ,-36, ,
-1, ,-36, ,
-5, ,-36, ,
0, ,-36, ,
-1, ,-36, ,
-2, ,-36, ,
-2, ,-36, ,
0, ,-36, ,
0, ,-36, ,
1, ,-36, ,
1, ,-36, ,
1, ,-36, ,
3, ,-36, ,
1, ,-36, ,
-6, ,-36, ,
-1, ,-36, ,
-1, ,-36, ,
-2, ,-36, ,
-5, ,-36, ,
1, ,-36, ,
3, ,-36, ,
3, ,-36, ,
-1, ,-36, ,
0, ,-36, ,
0, ,-36, ,
-2, ,-36, ,
-7, ,-36, ,
-1, ,-36, ,
1, ,-36, ,
-2, ,-36, ,
-7, ,-36, ,
6, ,-36, ,
4, ,-36, ,
-2, ,-36, ,
-2, ,-36, ,
0, ,-36, ,
1, ,-36, ,
4, ,-36, ,
0, ,-36, ,
4, ,-36, ,
6, ,-36, ,
3, ,-36, ,
-2, ,-36, ,
4, ,-36, ,
3, ,-36, ,
3, ,-36, ,
0, ,-36, ,
0, ,-36, ,
1, ,-36, ,
-1, ,-36, ,
-5, ,-36, ,
-6, ,-36, ,
-1, ,-33, ,
1, ,-25, ,
4, ,-15, ,
9, ,-5, ,
10, ,3, ,
5, ,11, ,
5, ,17, ,
4, ,22, ,
6, ,27, ,
11, ,32, ,
0, ,35, ,
5, ,37, ,
4, ,41, ,
0, ,43, ,
-1, ,45, ,
4, ,46, ,
3, ,49, ,
4, ,49, ,
4, ,51, ,
1, ,51, ,
1, ,53, ,
4, ,54, ,
-1, ,54, ,
3, ,53, ,
5, ,55, ,
1, ,56, ,
-4, ,55, ,
1, ,56, ,
0, ,56, ,
-1, ,55, ,
-4, ,57, ,
1, ,57, ,
0, ,57, ,
3, ,57, ,
-1, ,57, ,
4, ,56, ,
3, ,58, ,
-4, ,57, ,
-5, ,57, ,
-1, ,57, ,
-1, ,58, ,
3, ,56, ,
1, ,57, ,
6, ,57, ,
5, ,57, ,
5, ,57, ,
-2, ,57, ,
0, ,56, ,
0, ,57, ,
-5, ,57, ,
-1, ,57, ,
5, ,57, ,
0, ,57, ,
1, ,56, ,
-2, ,58, ,
-1, ,56, ,
0, ,57, ,
0, ,57, ,
-1, ,57, ,
5, ,56, ,
9, ,58, ,
4, ,58, ,
0, ,57, ,
5, ,57, ,
0, ,58, ,
0, ,56, ,
0, ,58, ,
4, ,56, ,
4, ,57, ,
4, ,58, ,
1, ,57, ,
4, ,56, ,
3, ,58, ,
3, ,57, ,
0, ,56, ,
5, ,57, ,
4, ,57, ,
3, ,56, ,
4, ,58, ,
4, ,56, ,
4, ,57, ,
5, ,57, ,
-2, ,57, ,
4, ,56, ,
4, ,57, ,
1, ,57, ,
1, ,56, ,
5, ,57, ,
1, ,57, ,
0, ,56, ,
1, ,57, ,
3, ,56, ,
3, ,57, ,
4, ,57, ,
-1, ,57, ,
6, ,56, ,
5, ,57, ,
4, ,57, ,
0, ,56, ,
3, ,57, ,
1, ,57, ,
1, ,56, ,
-4, ,58, ,
0, ,56, ,
1, ,57, ,
4, ,57, ,
1, ,57, ,
5, ,56, ,
5, ,57, ,
1, ,57, ,
1, ,56, ,
8, ,57, ,
1, ,57, ,
3, ,56, ,
1, ,57, ,
3, ,56, ,
3, ,57, ,
3, ,57, ,
1, ,57, ,
5, ,55, ,
5, ,57, ,
5, ,57, ,
-1, ,56, ,
6, ,57, ,
6, ,57, ,
6, ,56, ,
4, ,57, ,
4, ,56, ,
4, ,57, ,
6, ,57, ,
4, ,57, ,
4, ,56, ,
6, ,57, ,
5, ,57, ,
-1, ,56, ,
9, ,57, ,
3, ,57, ,
5, ,56, ,
1, ,58, ,
3, ,57, ,
1, ,57, ,
4, ,57, ,
1, ,57, ,
6, ,55, ,
6, ,57, ,
6, ,57, ,
5, ,56, ,
6, ,57, ,
4, ,57, ,
4, ,56, ,
3, ,57, ,
3, ,56, ,
1, ,56, ,
5, ,57, ,
1, ,56, ,
6, ,55, ,
1, ,57, ,
-1, ,57, ,
-1, ,57, ,
0, ,56, ,
-4, ,57, ,
1, ,56, ,
0, ,57, ,
3, ,56, ,
1, ,57, ,
6, ,57, ,
1, ,56, ,
3, ,55, ,
5, ,57, ,
3, ,56, ,
0, ,56, ,
4, ,57, ,
4, ,57, ,
0, ,56, ,
-2, ,57, ,
1, ,56, ,
0, ,57, ,
3, ,57, ,
-1, ,57, ,
1, ,55, ,
5, ,57, ,
4, ,57, ,
0, ,56, ,
5, ,57, ,
-1, ,57, ,
-1, ,56, ,
-6, ,57, ,
-1, ,56, ,
-2, ,57, ,
-2, ,57, ,
-6, ,57, ,
0, ,55, ,
1, ,57, ,
1, ,57, ,
-1, ,56, ,
4, ,57, ,
1, ,57, ,
0, ,56, ,
-1, ,57, ,
1, ,56, ,
3, ,57, ,
3, ,57, ,
-2, ,57, ,
6, ,55, ,
4, ,57, ,
-7, ,57, ,
-4, ,57, ,
5, ,56, ,
-1, ,57, ,
1, ,56, ,
1, ,57, ,
3, ,56, ,
0, ,57, ,
4, ,57, ,
-2, ,57, ,
-1, ,55, ,
1, ,57, ,
0, ,57, ,
-2, ,57, ,
3, ,56, ,
3, ,57, ,
3, ,56, ,
0, ,57, ,
1, ,57, ,
0, ,56, ,
1, ,57, ,
-2, ,57, ,
0, ,55, ,
4, ,57, ,
1, ,57, ,
0, ,56, ,
6, ,57, ,
3, ,57, ,
3, ,56, ,
-2, ,57, ,
-1, ,56, ,
-2, ,57, ,
-2, ,57, ,
-4, ,57, ,
0, ,55, ,
1, ,57, ,
1, ,57, ,
-5, ,56, ,
0, ,56, ,
0, ,57, ,
-1, ,56, ,
-2, ,57, ,
0, ,56, ,
0, ,56, ,
0, ,57, ,
-5, ,57, ,
-2, ,55, ,
0, ,57, ,
-1, ,57, ,
-9, ,56, ,
3, ,57, ,
0, ,57, ,
1, ,55, ,
-1, ,57, ,
-2, ,56, ,
-2, ,57, ,
-2, ,57, ,
-10, ,57, ,
-2, ,55, ,
-2, ,57, ,
-1, ,57, ,
-1, ,56, ,
1, ,56, ,
4, ,57, ,
1, ,56, ,
-1, ,57, ,
0, ,56, ,
-4, ,56, ,
-1, ,57, ,
-6, ,56, ,
1, ,55, ,
3, ,57, ,
0, ,57, ,
-5, ,56, ,
3, ,56, ,
0, ,57, ,
0, ,56, ,
1, ,57, ,
6, ,56, ,
4, ,57, ,
6, ,57, ,
-1, ,56, ,
1, ,55, ,
0, ,57, ,
-1, ,57, ,
-2, ,56, ,
1, ,57, ,
1, ,57, ,
-1, ,56, ,
1, ,57, ,
1, ,56, ,
1, ,56, ,
3, ,57, ,
-1, ,57, ,
0, ,55, ,
3, ,57, ,
0, ,57, ,
-2, ,56, ,
5, ,56, ,
1, ,57, ,
3, ,56, ,
0, ,57, ,
1, ,56, ,
1, ,56, ,
1, ,57, ,
-4, ,57, ,
0, ,56, ,
1, ,57, ,
0, ,57, ,
-4, ,56, ,
5, ,57, ,
3, ,57, ,
0, ,56, ,
-1, ,57, ,
3, ,56, ,
1, ,57, ,
4, ,57, ,
-2, ,56, ,
1, ,55, ,
4, ,57, ,
1, ,57, ,
-5, ,56, ,
0, ,57, ,
-1, ,57, ,
-1, ,55, ,
3, ,57, ,
3, ,56, ,
1, ,57, ,
3, ,57, ,
0, ,57, ,
3, ,55, ,
3, ,57, ,
0, ,57, ,
1, ,56, ,
4, ,57, ,
5, ,57, ,
4, ,55, ,
-5, ,57, ,
0, ,56, ,
4, ,57, ,
1, ,57, ,
-4, ,57, ,
1, ,55, ,
6, ,57, ,
3, ,57, ,
-1, ,56, ,
4, ,57, ,
1, ,57, ,
0, ,56, ,
1, ,57, ,
5, ,56, ,
6, ,56, ,
8, ,57, ,
4, ,57, ,
5, ,55, ,
6, ,57, ,
4, ,57, ,
0, ,56, ,
1, ,57, ,
0, ,57, ,
-2, ,56, ,
1, ,57, ,
8, ,56, ,
8, ,57, ,
9, ,57, ,
5, ,57, ,
6, ,55, ,
4, ,57, ,
4, ,57, ,
1, ,56, ,
8, ,57, ,
6, ,57, ,
6, ,56, ,
5, ,57, ,
3, ,56, ,
0, ,56, ,
1, ,57, ,
-4, ,57, ,
1, ,55, ,
5, ,58, ,
6, ,57, ,
5, ,56, ,
6, ,56, ,
6, ,57, ,
3, ,56, ,
4, ,57, ,
5, ,56, ,
4, ,57, ,
8, ,57, ,
3, ,57, ,
6, ,55, ,
4, ,58, ,
0, ,57, ,
-2, ,56, ,
0, ,57, ,
-1, ,57, ,
0, ,56, ,
0, ,58, ,
1, ,56, ,
4, ,57, ,
5, ,57, ,
0, ,56, ,
1, ,55, ,
3, ,57, ,
3, ,57, ,
-2, ,56, ,
4, ,57, ,
3, ,57, ,
3, ,56, ,
0, ,57, ,
3, ,56, ,
3, ,56, ,
6, ,57, ,
3, ,57, ,
5, ,55, ,
6, ,57, ,
3, ,57, ,
0, ,56, ,
6, ,56, ,
3, ,57, ,
4, ,56, ,
1, ,57, ,
1, ,56, ,
3, ,56, ,
3, ,57, ,
3, ,57, ,
0, ,55, ,
3, ,57, ,
6, ,57, ,
0, ,56, ,
6, ,56, ,
3, ,57, ,
1, ,56, ,
1, ,58, ,
4, ,56, ,
4, ,57, ,
5, ,57, ,
1, ,57, ,
6, ,55, ,
8, ,57, ,
3, ,57, ,
3, ,56, ,
3, ,56, ,
3, ,57, ,
1, ,56, ,
0, ,58, ,
3, ,56, ,
4, ,57, ,
5, ,57, ,
-1, ,57, ,
1, ,55, ,
3, ,57, ,
0, ,56, ,
0, ,56, ,
5, ,56, ,
3, ,57, ,
-1, ,56, ,
1, ,57, ,
1, ,56, ,
0, ,57, ,
6, ,57, ,
-5, ,56, ,
0, ,55, ,
1, ,57, ,
0, ,56, ,
0, ,56, ,
3, ,56, ,
-1, ,57, ,
1, ,55, ,
-2, ,57, ,
0, ,56, ,
-1, ,56, ,
0, ,57, ,
-2, ,57, ,
-1, ,55, ,
3, ,57, ,
1, ,57, ,
-4, ,56, ,
3, ,56, ,
-2, ,57, ,
-1, ,56, ,
-4, ,57, ,
0, ,56, ,
-1, ,57, ,
1, ,57, ,
-2, ,57, ,
1, ,55, ,
1, ,57, ,
1, ,57, ,
-4, ,56, ,
5, ,56, ,
1, ,57, ,
0, ,56, ,
-2, ,57, ,
0, ,56, ,
-2, ,57, ,
0, ,57, ,
-5, ,57, ,
0, ,55, ,
0, ,57, ,
3, ,57, ,
-1, ,56, ,
4, ,56, ,
4, ,57, ,
3, ,56, ,
0, ,57, ,
1, ,56, ,
-1, ,56, ,
1, ,57, ,
-5, ,57, ,
-1, ,55, ,
5, ,58, ,
-1, ,57, ,
-2, ,56, ,
4, ,56, ,
1, ,57, ,
3, ,56, ,
0, ,57, ,
0, ,56, ,
0, ,56, ,
3, ,57, ,
-2, ,57, ,
0, ,55, ,
3, ,57, ,
1, ,57, ,
-2, ,56, ,
4, ,56, ,
0, ,57, ,
-1, ,56, ,
-2, ,57, ,
-1, ,56, ,
-1, ,56, ,
0, ,57, ,
-5, ,57, ,
-2, ,55, ,
0, ,57, ,
-1, ,57, ,
-4, ,56, ,
3, ,56, ,
1, ,57, ,
3, ,56, ,
1, ,57, ,
1, ,56, ,
1, ,57, ,
-2, ,57, ,
-6, ,57, ,
-4, ,55, ,
-2, ,57, ,
-2, ,56, ,
-4, ,56, ,
1, ,57, ,
-1, ,57, ,
-2, ,56, ,
-4, ,57, ,
0, ,56, ,
-5, ,56, ,
0, ,57, ,
-4, ,56, ,
-2, ,55, ,
0, ,57, ,
0, ,57, ,
-6, ,56, ,
0, ,56, ,
-5, ,57, ,
-1, ,56, ,
-4, ,57, ,
0, ,56, ,
1, ,57, ,
0, ,57, ,
-5, ,56, ,
0, ,55, ,
3, ,57, ,
1, ,57, ,
0, ,56, ,
3, ,56, ,
5, ,57, ,
5, ,55, ,
3, ,57, ,
4, ,56, ,
3, ,56, ,
1, ,57, ,
-4, ,57, ,
-4, ,55, ,
0, ,57, ,
-1, ,57, ,
-2, ,56, ,
4, ,56, ,
4, ,57, ,
3, ,56, ,
-1, ,57, ,
0, ,56, ,
3, ,56, ,
4, ,57, ,
0, ,56, ,
4, ,55, ,
6, ,57, ,
3, ,57, ,
0, ,56, ,
4, ,56, ,
0, ,57, ,
3, ,56, ,
1, ,57, ,
3, ,56, ,
4, ,56, ,
3, ,57, ,
0, ,57, ,
4, ,55, ,
4, ,57, ,
3, ,56, ,
-1, ,56, ,
1, ,56, ,
0, ,57, ,
0, ,55, ,
0, ,57, ,
0, ,56, ,
3, ,57, ,
4, ,57, ,
-1, ,57, ,
1, ,55, ,
3, ,57, ,
4, ,57, ,
0, ,56, ,
3, ,57, ,
4, ,57, ,
1, ,56, ,
3, ,57, ,
4, ,56, ,
1, ,56, ,
5, ,57, ,
-2, ,57, ,
3, ,55, ,
3, ,57, ,
0, ,57, ,
-2, ,56, ,
3, ,56, ,
-1, ,57, ,
1, ,56, ,
-2, ,57, ,
0, ,56, ,
0, ,57, ,
0, ,57, ,
-2, ,57, ,
4, ,55, ,
5, ,57, ,
0, ,57, ,
0, ,56, ,
3, ,56, ,
-1, ,57, ,
0, ,56, ,
0, ,57, ,
3, ,56, ,
4, ,56, ,
4, ,57, ,
3, ,57, ,
1, ,55, ,
4, ,57, ,
1, ,57, ,
-1, ,56, ,
1, ,56, ,
1, ,57, ,
4, ,56, ,
3, ,57, ,
4, ,56, ,
6, ,57, ,
4, ,57, ,
0, ,57, ,
6, ,55, ,
3, ,57, ,
4, ,57, ,
0, ,56, ,
5, ,57, ,
5, ,57, ,
4, ,55, ,
3, ,57, ,
3, ,56, ,
3, ,57, ,
4, ,57, ,
0, ,57, ,
6, ,55, ,
8, ,57, ,
5, ,57, ,
1, ,56, ,
4, ,56, ,
-1, ,57, ,
0, ,55, ,
-2, ,58, ,
0, ,56, ,
3, ,56, ,
3, ,57, ,
-1, ,57, ,
3, ,55, ,
3, ,58, ,
1, ,57, ,
-1, ,56, ,
3, ,56, ,
1, ,57, ,
1, ,56, ,
-2, ,57, ,
1, ,56, ,
0, ,56, ,
5, ,57, ,
-2, ,57, ,
0, ,55, ,
4, ,57, ,
1, ,57, ,
-4, ,56, ,
0, ,56, ,
-2, ,57, ,
1, ,56, ,
3, ,57, ,
3, ,56, ,
4, ,56, ,
3, ,57, ,
0, ,57, ,
3, ,55, ,
1, ,57, ,
1, ,56, ,
-4, ,56, ,
1, ,57, ,
0, ,57, ,
1, ,56, ,
0, ,57, ,
-1, ,56, ,
1, ,56, ,
3, ,57, ,
-1, ,57, ,
4, ,55, ,
4, ,57, ,
6, ,57, ,
3, ,56, ,
8, ,57, ,
3, ,57, ,
4, ,56, ,
-1, ,58, ,
1, ,56, ,
1, ,57, ,
0, ,57, ,
0, ,57, ,
3, ,55, ,
4, ,57, ,
1, ,53, ,
-4, ,43, ,
-2, ,34, ,
-6, ,23, ,
-6, ,16, ,
-5, ,8, ,
-2, ,2, ,
-4, ,-3, ,
0, ,-7, ,
-14, ,-12, ,
-11, ,-16, ,
-11, ,-18, ,
-17, ,-21, ,
-20, ,-22, ,
-14, ,-24, ,
-15, ,-26, ,
-10, ,-28, ,
-7, ,-30, ,
-2, ,-31, ,
0, ,-31, ,
4, ,-32, ,
4, ,-33, ,
11, ,-33, ,
14, ,-34, ,
10, ,-35, ,
9, ,-35, ,
9, ,-35, ,
5, ,-35, ,
1, ,-35, ,
-2, ,-36, ,
-2, ,-36, ,
-2, ,-36, ,
-2, ,-36, ,
-5, ,-36, ,
-4, ,-36, ,
-1, ,-36, ,
-2, ,-37, ,
-5, ,-36, ,
0, ,-36, ,
-2, ,-37, ,
-2, ,-36, ,
-2, ,-37, ,
-2, ,-37, ,
-1, ,-36, ,
-1, ,-37, ,
-5, ,-37, ,
1, ,-37, ,
1, ,-37, ,
-1, ,-36, ,
-4, ,-36, ,
1, ,-37, ,
0, ,-36, ,
-2, ,-36, ,
-5, ,-37, ,
-4, ,-37, ,
-2, ,-36, ,
-2, ,-36, ,
-9, ,-37, ,
0, ,-36, ,
4, ,-37, ,
3, ,-37, ,
0, ,-36, ,
5, ,-36, ,
4, ,-36, ,
3, ,-36, ,
0, ,-37, ,
-2, ,-36, ,
-1, ,-36, ,
-2, ,-36, ,
-5, ,-37, ,
3, ,-36, ,
5, ,-36, ,
4, ,-36, ,
1, ,-36, ,
5, ,-36, ,
5, ,-36, ,
5, ,-36, ,
3, ,-37, ,
5, ,-36, ,
3, ,-36, ,
1, ,-36, ,
-4, ,-36, ,
-1, ,-36, ,
-1, ,-36, ,
-2, ,-37, ,
-7, ,-36, ,
1, ,-36, ,
1, ,-37, ,
1, ,-36, ,
-1, ,-37, ,
0, ,-36, ,
3, ,-36, ,
1, ,-36, ,
-1, ,-36, ,
3, ,-36, ,
3, ,-36, ,
1, ,-36, ,
-2, ,-36, ,
5, ,-36, ,
3, ,-36, ,
4, ,-36, ,
3, ,-37, ,
3, ,-36, ,
3, ,-36, ,
-1, ,-36, ,
-5, ,-36, ,
1, ,-36, ,
1, ,-36, ,
0, ,-36, ,
-4, ,-36, ,
4, ,-36, ,
-2, ,-36, ,
-1, ,-36, ,
-2, ,-37, ,
0, ,-36, ,
0, ,-36, ,
0, ,-36, ,
-1, ,-36, ,
3, ,-36, ,
3, ,-36, ,
0, ,-36, ,
-7, ,-36, ,
-5, ,-36, ,
0, ,-36, ,
0, ,-36, ,
1, ,-37, ,
4, ,-36, ,
3, ,-36, ,
4, ,-36, ,
-4, ,-36, ,
1, ,-36, ,
1, ,-36, ,
-2, ,-36, ,
-6, ,-36, ,
-1, ,-36, ,
-1, ,-36, ,
3, ,-36, ,
4, ,-36, ,
5, ,-36, ,
6, ,-36, ,
9, ,-36, ,
-4, ,-36, ,
4, ,-36, ,
14, ,-36, ,
4, ,-36, ,
0, ,-36, ,
9, ,-36, ,
5, ,-36, ,
3, ,-36, ,
0, ,-36, ,
5, ,-36, ,
5, ,-36, ,
5, ,-36, ,
3, ,-36, ,
4, ,-36, ,
9, ,-36, ,
6, ,-36, ,
4, ,-36, ,
6, ,-36, ,
3, ,-36, ,
3, ,-36, ,
0, ,-37, ,
3, ,-36, ,
6, ,-36, ,
4, ,-36, ,
0, ,-36, ,
6, ,-36, ,
3, ,-36, ,
1, ,-36, ,
-4, ,-36, ,
1, ,-36, ,
-1, ,-36, ,
4, ,-36, ,
6, ,-37, ,
5, ,-36, ,
8, ,-36, ,
5, ,-36, ,
3, ,-36, ,
6, ,-36, ,
8, ,-36, ,
5, ,-36, ,
-2, ,-36, ,
4, ,-36, ,
3, ,-36, ,
1, ,-36, ,
-1, ,-37, ,
-1, ,-36, ,
1, ,-36, ,
0, ,-36, ,
-6, ,-36, ,
4, ,-36, ,
1, ,-36, ,
-1, ,-36, ,
-4, ,-36, ,
1, ,-36, ,
0, ,-36, ,
0, ,-36, ,
-4, ,-37, ,
1, ,-36, ,
0, ,-36, ,
1, ,-36, ,
-1, ,-36, ,
3, ,-36, ,
5, ,-36, ,
0, ,-36, ,
-2, ,-36, ,
4, ,-36, ,
4, ,-36, ,
1, ,-36, ,
1, ,-36, ,
4, ,-36, ,
6, ,-36, ,
9, ,-36, ,
1, ,-36, ,
6, ,-36, ,
10, ,-36, ,
6, ,-36, ,
3, ,-36, ,
11, ,-36, ,
8, ,-36, ,
5, ,-36, ,
9, ,-37, ,
9, ,-36, ,
4, ,-35, ,
6, ,-36, ,
4, ,-36, ,
4, ,-36, ,
5, ,-36, ,
4, ,-36, ,
3, ,-36, ,
6, ,-36, ,
8, ,-36, ,
6, ,-36, ,
6, ,-37, ,
6, ,-36, ,
8, ,-35, ,
8, ,-36, ,
5, ,-36, ,
5, ,-36, ,
3, ,-36, ,
4, ,-36, ,
-1, ,-36, ,
1, ,-36, ,
3, ,-36, ,
-1, ,-36, ,
-1, ,-37, ,
3, ,-36, ,
4, ,-36, ,
5, ,-36, ,
0, ,-36, ,
5, ,-36, ,
5, ,-36, ,
0, ,-36, ,
-2, ,-36, ,
0, ,-36, ,
4, ,-36, ,
-1, ,-35, ,
-4, ,-36, ,
3, ,-36, ,
1, ,-36, ,
0, ,-36, ,
-5, ,-36, ,
0, ,-36, ,
3, ,-36, ,
0, ,-36, ,
-4, ,-36, ,
1, ,-36, ,
0, ,-36, ,
0, ,-36, ,
-5, ,-37, ,
-1, ,-36, ,
-1, ,-36, ,
-4, ,-36, ,
-4, ,-36, ,
-2, ,-35, ,
3, ,-36, ,
1, ,-36, ,
-7, ,-36, ,
-1, ,-36, ,
-1, ,-36, ,
-2, ,-36, ,
-4, ,-36, ,
-2, ,-36, ,
3, ,-36, ,
-1, ,-36, ,
-2, ,-36, ,
1, ,-36, ,
1, ,-36, ,
1, ,-36, ,
-1, ,-36, ,
3, ,-36, ,
3, ,-36, ,
-2, ,-35, ,
-2, ,-37, ,
-4, ,-36, ,
0, ,-36, ,
-1, ,-36, ,
-2, ,-36, ,
0, ,-36, ,
4, ,-36, ,
-2, ,-36, ,
-5, ,-36, ,
1, ,-36, ,
-1, ,-36, ,
-2, ,-36, ,
-2, ,-36, ,
-2, ,-36, ,
-4, ,-36, ,
-6, ,-36, ,
-11, ,-36, ,
-5, ,-36, ,
-2, ,-36, ,
-2, ,-36, ,
-2, ,-36, ,
4, ,-36, ,
1, ,-36, ,
-1, ,-36, ,
-5, ,-36, ,
0, ,-36, ,
-6, ,-36, ,
-10, ,-36, ,
-10, ,-36, ,
-1, ,-36, ,
-2, ,-36, ,
-2, ,-36, ,
-5, ,-36, ,
0, ,-36, ,
-7, ,-36, ,
-5, ,-36, ,
-7, ,-37, ,
-4, ,-36, ,
-2, ,-36, ,
-2, ,-36, ,
-6, ,-36, ,
-4, ,-36, ,
-4, ,-36, ,
-4, ,-36, ,
-7, ,-36, ,
3, ,-36, ,
-2, ,-36, ,
-1, ,-36, ,
-4, ,-36, ,
-2, ,-36, ,
-6, ,-36, ,
-7, ,-36, ,
-14, ,-36, ,
-7, ,-35, ,
-6, ,-36, ,
-6, ,-36, ,
-6, ,-36, ,
-1, ,-36, ,
-2, ,-36, ,
-2, ,-36, ,
-4, ,-36, ,
-5, ,-36, ,
-2, ,-36, ,
-4, ,-36, ,
-7, ,-36, ,
-1, ,-36, ,
1, ,-36, ,
0, ,-36, ,
-5, ,-36, ,
0, ,-36, ,
0, ,-36, ,
-2, ,-36, ,
-2, ,-37, ,
3, ,-36, ,
0, ,-36, ,
4, ,-36, ,
0, ,-36, ,
4, ,-35, ,
4, ,-36, ,
-1, ,-36, ,
-1, ,-36, ,
1, ,-36, ,
-1, ,-36, ,
0, ,-36, ,
-2, ,-36, ,
0, ,-36, ,
1, ,-36, ,
4, ,-36, ,
-4, ,-36, ,
1, ,-36, ,
3, ,-36, ,
-1, ,-36, ,
-1, ,-36, ,
3, ,-36, ,
3, ,-36, ,
5, ,-36, ,
1, ,-36, ,
6, ,-36, ,
5, ,-36, ,
4, ,-36, ,
0, ,-36, ,
1, ,-36, ,
3, ,-36, ,
1, ,-36, ,
-1, ,-36, ,
5, ,-36, ,
3, ,-36, ,
4, ,-36, ,
1, ,-36, ,
1, ,-36, ,
4, ,-36, ,
1, ,-36, ,
-1, ,-36, ,
1, ,-36, ,
3, ,-36, ,
3, ,-36, ,
-4, ,-36, ,
3, ,-36, ,
3, ,-36, ,
0, ,-36, ,
-2, ,-37, ,
3, ,-36, ,
5, ,-36, ,
8, ,-36, ,
1, ,-36, ,
6, ,-35, ,
3, ,-36, ,
0, ,-36, ,
-1, ,-36, ,
3, ,-36, ,
4, ,-36, ,
5, ,-36, ,
3, ,-36, ,
5, ,-36, ,
6, ,-36, ,
5, ,-36, ,
1, ,-36, ,
4, ,-35, ,
5, ,-37, ,
4, ,-36, ,
1, ,-36, ,
6, ,-36, ,
6, ,-36, ,
5, ,-36, ,
4, ,-37, ,
4, ,-36, ,
5, ,-35, ,
9, ,-36, ,
6, ,-36, ,
8, ,-36, ,
10, ,-36, ,
8, ,-36, ,
4, ,-36, ,
5, ,-36, ,
3, ,-36, ,
6, ,-36, ,
3, ,-37, ,
6, ,-36, ,
8, ,-36, ,
8, ,-36, ,
5, ,-36, ,
6, ,-36, ,
6, ,-36, ,
5, ,-36, ,
1, ,-36, ,
6, ,-36, ,
6, ,-36, ,
6, ,-36, ,
4, ,-37, ,
5, ,-36, ,
6, ,-36, ,
5, ,-36, ,
3, ,-36, ,
4, ,-36, ,
5, ,-36, ,
4, ,-36, ,
1, ,-36, ,
6, ,-36, ,
6, ,-36, ,
6, ,-36, ,
6, ,-36, ,
8, ,-36, ,
