src/vary_am2_1412/temp0000930.CSV

Format,1.0B,
Memory Length,10000,Memory Length,10000,
IntpDistance,0,IntpDistance,0,
Trigger Address,4999,Trigger Address,4999,
Trigger Level,9.600E-01,Trigger Level,9.600E-01,
Source,CH1,Source,CH2,
Vertical Units,V,Vertical Units,V,
Vertical Units Div,0,Vertical Units Div,0,
Vertical Units Extend Div,16,Vertical Units Extend Div,16,
Label,,Label,,
Probe Type,0,Probe Type,0,
Probe Ratio,1.000e+01,Probe Ratio,1.000e+00,
Vertical Scale,2.000e-02,Vertical Scale,1.000e+00,
Vertical Position,-5.120e-02,Vertical Position,0.000e+00,
Horizontal Units,S,Horizontal Units,S,
Horizontal Scale,1.000E-05,Horizontal Scale,1.000E-05,
Horizontal Position,0.000E+00,Horizontal Position,0.000E+00,
Horizontal Mode,Main,Horizontal Mode,Main,
SincET Mode,Real Time,SincET Mode,Real Time,
Sampling Period,1.000e-08,Sampling Period,1.000e-08,
Horizontal Old Scale,1.000E-05,Horizontal Old Scale,1.000E-05,
Horizontal Old Position,0.000E+00,Horizontal Old Position,0.000E+00,
Firmware,V1.23,Firmware,V1.23,
Mode,Fast,Mode,Fast,
Waveform Data,,Waveform Data,,
0, ,-46, ,
6, ,-46, ,
0, ,-45, ,
1, ,-46, ,
3, ,-45, ,
-2, ,-45, ,
-2, ,-46, ,
0, ,-45, ,
-1, ,-45, ,
-1, ,-46, ,
-2, ,-46, ,
-2, ,-45, ,
-4, ,-46, ,
-2, ,-46, ,
-4, ,-45, ,
1, ,-46, ,
8, ,-45, ,
4, ,-45, ,
1, ,-46, ,
4, ,-45, ,
1, ,-45, ,
1, ,-46, ,
1, ,-46, ,
0, ,-45, ,
1, ,-46, ,
1, ,-45, ,
-5, ,-45, ,
3, ,-46, ,
1, ,-46, ,
0, ,-46, ,
-1, ,-45, ,
5, ,-45, ,
1, ,-45, ,
-1, ,-46, ,
1, ,-46, ,
3, ,-45, ,
-2, ,-46, ,
0, ,-46, ,
-5, ,-44, ,
0, ,-46, ,
0, ,-45, ,
0, ,-46, ,
-5, ,-45, ,
1, ,-46, ,
-2, ,-45, ,
-6, ,-46, ,
-4, ,-45, ,
-4, ,-45, ,
-2, ,-46, ,
-1, ,-46, ,
-7, ,-45, ,
-1, ,-46, ,
1, ,-45, ,
-6, ,-45, ,
-11, ,-46, ,
-1, ,-46, ,
-1, ,-45, ,
-2, ,-46, ,
-1, ,-45, ,
1, ,-45, ,
1, ,-46, ,
0, ,-45, ,
-7, ,-45, ,
-2, ,-46, ,
1, ,-46, ,
-1, ,-45, ,
-2, ,-45, ,
6, ,-46, ,
-1, ,-45, ,
-5, ,-46, ,
-2, ,-45, ,
-2, ,-45, ,
-4, ,-46, ,
-2, ,-46, ,
-4, ,-45, ,
1, ,-46, ,
6, ,-46, ,
1, ,-45, ,
-1, ,-46, ,
4, ,-46, ,
1, ,-45, ,
1, ,-46, ,
-1, ,-46, ,
0, ,-45, ,
0, ,-46, ,
4, ,-46, ,
-1, ,-45, ,
1, ,-46, ,
4, ,-45, ,
-2, ,-45, ,
-6, ,-45, ,
0, ,-45, ,
0, ,-45, ,
0, ,-46, ,
3, ,-46, ,
0, ,-45, ,
3, ,-46, ,
-2, ,-46, ,
-6, ,-45, ,
-1, ,-46, ,
0, ,-45, ,
-1, ,-46, ,
-2, ,-46, ,
4, ,-46, ,
3, ,-45, ,
0, ,-46, ,
-1, ,-46, ,
0, ,-45, ,
-2, ,-46, ,
3, ,-45, ,
-4, ,-45, ,
1, ,-46, ,
5, ,-46, ,
0, ,-45, ,
-1, ,-46, ,
4, ,-45, ,
-1, ,-45, ,
-1, ,-46, ,
-2, ,-45, ,
1, ,-45, ,
1, ,-46, ,
1, ,-46, ,
-2, ,-45, ,
0, ,-46, ,
1, ,-46, ,
-1, ,-45, ,
-5, ,-45, ,
0, ,-46, ,
-4, ,-45, ,
-2, ,-46, ,
-2, ,-45, ,
-1, ,-45, ,
-1, ,-46, ,
-1, ,-46, ,
-6, ,-45, ,
-1, ,-46, ,
1, ,-46, ,
0, ,-46, ,
-5, ,-46, ,
4, ,-45, ,
0, ,-45, ,
1, ,-46, ,
1, ,-45, ,
-1, ,-45, ,
0, ,-46, ,
-2, ,-46, ,
-7, ,-45, ,
-1, ,-46, ,
-1, ,-46, ,
-2, ,-45, ,
-1, ,-45, ,
4, ,-45, ,
4, ,-45, ,
0, ,-46, ,
0, ,-46, ,
-1, ,-45, ,
-4, ,-46, ,
1, ,-45, ,
-4, ,-45, ,
1, ,-46, ,
4, ,-46, ,
3, ,-45, ,
1, ,-45, ,
5, ,-46, ,
3, ,-45, ,
4, ,-46, ,
3, ,-45, ,
3, ,-45, ,
5, ,-46, ,
6, ,-46, ,
3, ,-45, ,
3, ,-46, ,
4, ,-46, ,
-1, ,-45, ,
-4, ,-46, ,
0, ,-46, ,
1, ,-45, ,
1, ,-46, ,
3, ,-45, ,
5, ,-45, ,
4, ,-45, ,
6, ,-46, ,
-2, ,-45, ,
1, ,-46, ,
5, ,-46, ,
0, ,-45, ,
-1, ,-45, ,
8, ,-45, ,
3, ,-45, ,
4, ,-46, ,
3, ,-45, ,
1, ,-45, ,
3, ,-45, ,
-1, ,-46, ,
-2, ,-45, ,
1, ,-46, ,
3, ,-46, ,
0, ,-45, ,
-4, ,-46, ,
5, ,-45, ,
3, ,-45, ,
1, ,-46, ,
3, ,-46, ,
3, ,-45, ,
3, ,-46, ,
5, ,-46, ,
-4, ,-45, ,
3, ,-46, ,
1, ,-45, ,
-1, ,-45, ,
-4, ,-46, ,
3, ,-45, ,
-1, ,-45, ,
0, ,-46, ,
1, ,-45, ,
4, ,-45, ,
5, ,-45, ,
3, ,-46, ,
-4, ,-45, ,
1, ,-46, ,
1, ,-46, ,
1, ,-45, ,
-2, ,-46, ,
3, ,-45, ,
3, ,-45, ,
1, ,-46, ,
1, ,-45, ,
1, ,-45, ,
3, ,-46, ,
4, ,-46, ,
-2, ,-45, ,
3, ,-46, ,
5, ,-46, ,
-4, ,-45, ,
-1, ,-46, ,
3, ,-46, ,
0, ,-45, ,
1, ,-46, ,
3, ,-45, ,
3, ,-45, ,
4, ,-46, ,
5, ,-46, ,
1, ,-45, ,
4, ,-46, ,
5, ,-45, ,
0, ,-45, ,
-4, ,-45, ,
1, ,-45, ,
-1, ,-45, ,
0, ,-46, ,
-2, ,-46, ,
1, ,-45, ,
3, ,-46, ,
4, ,-46, ,
-1, ,-45, ,
3, ,-46, ,
5, ,-45, ,
0, ,-45, ,
-1, ,-46, ,
3, ,-46, ,
-1, ,-45, ,
1, ,-46, ,
-2, ,-45, ,
-1, ,-45, ,
4, ,-46, ,
4, ,-46, ,
-1, ,-45, ,
1, ,-46, ,
4, ,-46, ,
0, ,-45, ,
1, ,-46, ,
1, ,-45, ,
1, ,-45, ,
0, ,-46, ,
0, ,-46, ,
0, ,-45, ,
1, ,-46, ,
0, ,-46, ,
-7, ,-45, ,
-1, ,-46, ,
1, ,-45, ,
-2, ,-45, ,
-4, ,-46, ,
3, ,-46, ,
-2, ,-45, ,
0, ,-46, ,
0, ,-45, ,
0, ,-45, ,
0, ,-46, ,
-1, ,-46, ,
-5, ,-45, ,
0, ,-46, ,
1, ,-45, ,
-4, ,-45, ,
-5, ,-46, ,
-2, ,-46, ,
-2, ,-45, ,
-5, ,-46, ,
-2, ,-46, ,
1, ,-45, ,
1, ,-45, ,
4, ,-45, ,
-1, ,-45, ,
1, ,-46, ,
6, ,-45, ,
-1, ,-45, ,
-2, ,-46, ,
0, ,-46, ,
0, ,-45, ,
0, ,-46, ,
-2, ,-46, ,
1, ,-45, ,
1, ,-45, ,
0, ,-46, ,
-4, ,-45, ,
0, ,-46, ,
3, ,-45, ,
-1, ,-45, ,
-2, ,-46, ,
5, ,-45, ,
-1, ,-45, ,
0, ,-46, ,
-1, ,-46, ,
-1, ,-45, ,
-1, ,-46, ,
3, ,-46, ,
-1, ,-45, ,
3, ,-46, ,
5, ,-45, ,
1, ,-45, ,
-1, ,-46, ,
0, ,-46, ,
-1, ,-45, ,
-2, ,-46, ,
-4, ,-45, ,
-1, ,-45, ,
4, ,-46, ,
1, ,-46, ,
-1, ,-45, ,
1, ,-46, ,
1, ,-45, ,
-1, ,-46, ,
-5, ,-46, ,
-1, ,-46, ,
0, ,-45, ,
-2, ,-46, ,
-4, ,-46, ,
0, ,-45, ,
-1, ,-45, ,
4, ,-45, ,
-5, ,-45, ,
-1, ,-46, ,
0, ,-45, ,
-4, ,-45, ,
-4, ,-45, ,
1, ,-45, ,
0, ,-45, ,
1, ,-46, ,
-1, ,-45, ,
1, ,-45, ,
0, ,-45, ,
1, ,-46, ,
-2, ,-45, ,
0, ,-46, ,
3, ,-46, ,
0, ,-45, ,
-2, ,-46, ,
1, ,-46, ,
-2, ,-45, ,
-2, ,-46, ,
-4, ,-46, ,
-2, ,-45, ,
-2, ,-46, ,
0, ,-46, ,
-2, ,-45, ,
3, ,-46, ,
6, ,-46, ,
0, ,-45, ,
-2, ,-46, ,
1, ,-45, ,
-4, ,-45, ,
0, ,-46, ,
0, ,-45, ,
0, ,-45, ,
0, ,-46, ,
3, ,-46, ,
-1, ,-45, ,
1, ,-46, ,
1, ,-45, ,
-1, ,-46, ,
-4, ,-45, ,
4, ,-45, ,
1, ,-45, ,
0, ,-46, ,
1, ,-45, ,
1, ,-45, ,
1, ,-46, ,
0, ,-46, ,
-7, ,-45, ,
-1, ,-46, ,
3, ,-45, ,
1, ,-45, ,
3, ,-46, ,
6, ,-45, ,
5, ,-45, ,
3, ,-46, ,
3, ,-45, ,
0, ,-45, ,
3, ,-45, ,
3, ,-45, ,
-1, ,-45, ,
4, ,-46, ,
6, ,-46, ,
3, ,-45, ,
1, ,-46, ,
5, ,-45, ,
3, ,-45, ,
5, ,-46, ,
5, ,-46, ,
-4, ,-45, ,
1, ,-46, ,
6, ,-46, ,
-4, ,-45, ,
4, ,-46, ,
5, ,-46, ,
-1, ,-45, ,
-1, ,-45, ,
6, ,-46, ,
3, ,-45, ,
4, ,-46, ,
0, ,-45, ,
-2, ,-45, ,
0, ,-46, ,
3, ,-46, ,
-1, ,-45, ,
4, ,-46, ,
5, ,-46, ,
-2, ,-46, ,
-9, ,-46, ,
5, ,-46, ,
8, ,-45, ,
3, ,-46, ,
3, ,-46, ,
3, ,-45, ,
0, ,-46, ,
0, ,-46, ,
-4, ,-45, ,
1, ,-46, ,
-1, ,-46, ,
1, ,-45, ,
5, ,-46, ,
3, ,-45, ,
3, ,-45, ,
-1, ,-46, ,
-1, ,-45, ,
0, ,-45, ,
3, ,-46, ,
1, ,-46, ,
-4, ,-45, ,
3, ,-46, ,
5, ,-46, ,
3, ,-46, ,
0, ,-46, ,
3, ,-46, ,
5, ,-45, ,
3, ,-46, ,
1, ,-46, ,
3, ,-45, ,
3, ,-45, ,
1, ,-46, ,
-4, ,-45, ,
1, ,-46, ,
4, ,-45, ,
0, ,-45, ,
-2, ,-45, ,
4, ,-46, ,
4, ,-45, ,
4, ,-46, ,
4, ,-45, ,
5, ,-45, ,
4, ,-46, ,
3, ,-46, ,
-2, ,-45, ,
1, ,-46, ,
3, ,-45, ,
0, ,-45, ,
-1, ,-46, ,
1, ,-46, ,
0, ,-45, ,
0, ,-46, ,
3, ,-46, ,
4, ,-45, ,
-1, ,-46, ,
4, ,-46, ,
-1, ,-45, ,
0, ,-46, ,
6, ,-45, ,
4, ,-46, ,
-2, ,-46, ,
6, ,-46, ,
0, ,-45, ,
3, ,-46, ,
0, ,-45, ,
0, ,-45, ,
3, ,-46, ,
3, ,-46, ,
-4, ,-45, ,
3, ,-46, ,
0, ,-46, ,
0, ,-46, ,
-1, ,-45, ,
6, ,-46, ,
6, ,-45, ,
3, ,-46, ,
1, ,-46, ,
0, ,-45, ,
-1, ,-46, ,
-2, ,-46, ,
-6, ,-45, ,
1, ,-45, ,
1, ,-43, ,
-5, ,-36, ,
-5, ,-26, ,
1, ,-16, ,
5, ,-7, ,
9, ,0, ,
9, ,6, ,
16, ,13, ,
6, ,17, ,
-6, ,21, ,
-4, ,24, ,
9, ,28, ,
1, ,31, ,
3, ,33, ,
3, ,35, ,
5, ,37, ,
0, ,38, ,
0, ,39, ,
-4, ,40, ,
-4, ,41, ,
-2, ,42, ,
4, ,43, ,
-4, ,43, ,
1, ,44, ,
9, ,45, ,
-1, ,45, ,
-1, ,45, ,
6, ,45, ,
4, ,45, ,
5, ,46, ,
6, ,45, ,
4, ,46, ,
1, ,47, ,
1, ,47, ,
-7, ,45, ,
-1, ,47, ,
0, ,46, ,
-1, ,46, ,
-6, ,46, ,
1, ,47, ,
0, ,46, ,
0, ,47, ,
1, ,46, ,
0, ,47, ,
3, ,47, ,
5, ,47, ,
-4, ,46, ,
0, ,47, ,
0, ,46, ,
0, ,47, ,
-2, ,47, ,
4, ,47, ,
-1, ,46, ,
1, ,47, ,
1, ,46, ,
-1, ,47, ,
3, ,47, ,
3, ,47, ,
-9, ,45, ,
-1, ,47, ,
0, ,47, ,
-1, ,47, ,
-1, ,46, ,
5, ,47, ,
1, ,45, ,
-4, ,47, ,
-4, ,46, ,
-4, ,47, ,
-2, ,47, ,
1, ,47, ,
-5, ,46, ,
-2, ,47, ,
0, ,46, ,
-6, ,46, ,
-6, ,46, ,
-2, ,47, ,
-5, ,46, ,
-1, ,47, ,
-1, ,46, ,
3, ,46, ,
1, ,47, ,
3, ,46, ,
-2, ,45, ,
-1, ,47, ,
3, ,46, ,
-4, ,46, ,
-6, ,47, ,
0, ,46, ,
1, ,45, ,
-1, ,47, ,
-1, ,46, ,
-1, ,46, ,
-1, ,47, ,
-1, ,46, ,
-5, ,45, ,
0, ,46, ,
5, ,46, ,
-1, ,46, ,
-5, ,46, ,
4, ,47, ,
-2, ,45, ,
-2, ,47, ,
0, ,46, ,
-2, ,46, ,
0, ,47, ,
1, ,46, ,
0, ,45, ,
3, ,46, ,
4, ,46, ,
3, ,46, ,
0, ,46, ,
3, ,46, ,
1, ,46, ,
-1, ,47, ,
-1, ,46, ,
0, ,46, ,
1, ,46, ,
4, ,46, ,
-1, ,45, ,
4, ,47, ,
4, ,46, ,
3, ,46, ,
-1, ,46, ,
4, ,46, ,
3, ,45, ,
3, ,47, ,
1, ,46, ,
3, ,46, ,
1, ,47, ,
5, ,46, ,
-1, ,45, ,
4, ,47, ,
4, ,46, ,
3, ,46, ,
0, ,46, ,
4, ,46, ,
3, ,45, ,
3, ,47, ,
0, ,46, ,
4, ,46, ,
3, ,46, ,
6, ,46, ,
0, ,45, ,
3, ,47, ,
8, ,46, ,
3, ,46, ,
-2, ,46, ,
4, ,46, ,
1, ,45, ,
1, ,47, ,
-2, ,46, ,
-1, ,46, ,
3, ,47, ,
3, ,46, ,
-1, ,45, ,
6, ,47, ,
6, ,46, ,
4, ,46, ,
-1, ,46, ,
4, ,46, ,
0, ,45, ,
1, ,47, ,
0, ,46, ,
3, ,46, ,
4, ,46, ,
5, ,46, ,
1, ,45, ,
4, ,47, ,
4, ,46, ,
1, ,46, ,
-4, ,46, ,
3, ,46, ,
1, ,45, ,
1, ,47, ,
-1, ,46, ,
1, ,46, ,
3, ,46, ,
4, ,46, ,
-2, ,45, ,
3, ,46, ,
5, ,46, ,
5, ,46, ,
4, ,46, ,
6, ,46, ,
5, ,45, ,
3, ,47, ,
3, ,46, ,
3, ,46, ,
3, ,47, ,
6, ,46, ,
-1, ,46, ,
3, ,47, ,
9, ,46, ,
1, ,46, ,
4, ,46, ,
9, ,46, ,
6, ,45, ,
5, ,47, ,
3, ,46, ,
4, ,46, ,
6, ,47, ,
8, ,46, ,
4, ,45, ,
5, ,46, ,
5, ,46, ,
4, ,46, ,
-1, ,46, ,
3, ,46, ,
-1, ,45, ,
1, ,47, ,
1, ,46, ,
3, ,46, ,
3, ,47, ,
8, ,46, ,
3, ,45, ,
1, ,47, ,
6, ,46, ,
3, ,46, ,
-2, ,46, ,
4, ,46, ,
1, ,46, ,
3, ,47, ,
3, ,46, ,
1, ,46, ,
1, ,46, ,
3, ,46, ,
-1, ,45, ,
1, ,46, ,
1, ,46, ,
1, ,46, ,
-4, ,46, ,
4, ,46, ,
4, ,45, ,
1, ,47, ,
0, ,45, ,
0, ,46, ,
-1, ,46, ,
1, ,46, ,
-4, ,45, ,
4, ,46, ,
4, ,46, ,
1, ,46, ,
3, ,46, ,
4, ,46, ,
1, ,46, ,
0, ,46, ,
0, ,46, ,
0, ,46, ,
1, ,47, ,
5, ,46, ,
-1, ,45, ,
1, ,47, ,
0, ,46, ,
-2, ,46, ,
-5, ,46, ,
1, ,46, ,
0, ,46, ,
0, ,46, ,
-1, ,46, ,
3, ,46, ,
1, ,46, ,
3, ,46, ,
-4, ,45, ,
0, ,46, ,
3, ,46, ,
0, ,46, ,
-2, ,46, ,
6, ,46, ,
3, ,45, ,
4, ,47, ,
1, ,46, ,
0, ,46, ,
0, ,46, ,
0, ,46, ,
-5, ,45, ,
1, ,46, ,
4, ,46, ,
1, ,46, ,
-2, ,46, ,
4, ,46, ,
1, ,46, ,
-1, ,47, ,
-1, ,46, ,
-1, ,46, ,
1, ,46, ,
3, ,46, ,
-1, ,45, ,
1, ,47, ,
3, ,46, ,
-1, ,46, ,
-5, ,46, ,
0, ,46, ,
-2, ,45, ,
-2, ,46, ,
-4, ,46, ,
-4, ,46, ,
1, ,46, ,
-1, ,46, ,
-6, ,45, ,
0, ,47, ,
0, ,46, ,
0, ,46, ,
-4, ,46, ,
4, ,46, ,
0, ,45, ,
0, ,46, ,
-2, ,46, ,
-1, ,46, ,
-4, ,47, ,
-4, ,46, ,
-9, ,45, ,
-2, ,46, ,
0, ,46, ,
-1, ,46, ,
-4, ,46, ,
0, ,46, ,
1, ,46, ,
1, ,46, ,
-2, ,46, ,
-2, ,46, ,
-4, ,46, ,
-1, ,46, ,
-7, ,45, ,
-4, ,46, ,
-1, ,46, ,
-2, ,45, ,
-5, ,46, ,
-1, ,46, ,
-5, ,45, ,
0, ,47, ,
-1, ,46, ,
-1, ,46, ,
-2, ,46, ,
3, ,46, ,
-4, ,45, ,
-2, ,46, ,
4, ,46, ,
-1, ,46, ,
-5, ,46, ,
0, ,46, ,
0, ,45, ,
-1, ,47, ,
-1, ,46, ,
0, ,46, ,
1, ,46, ,
0, ,46, ,
-6, ,45, ,
-1, ,46, ,
-1, ,46, ,
-2, ,46, ,
-6, ,46, ,
3, ,46, ,
5, ,45, ,
6, ,46, ,
-1, ,45, ,
-2, ,46, ,
0, ,46, ,
0, ,46, ,
-5, ,45, ,
-2, ,46, ,
1, ,46, ,
0, ,46, ,
-2, ,46, ,
0, ,46, ,
-1, ,45, ,
-1, ,47, ,
-1, ,46, ,
-1, ,46, ,
0, ,46, ,
1, ,46, ,
-5, ,45, ,
1, ,46, ,
-1, ,46, ,
-2, ,46, ,
-4, ,46, ,
0, ,46, ,
0, ,45, ,
-1, ,47, ,
1, ,46, ,
3, ,46, ,
1, ,46, ,
6, ,46, ,
-2, ,45, ,
-1, ,46, ,
1, ,46, ,
1, ,46, ,
-4, ,46, ,
3, ,46, ,
1, ,45, ,
3, ,46, ,
-1, ,46, ,
-1, ,46, ,
3, ,46, ,
3, ,46, ,
-2, ,45, ,
-1, ,46, ,
1, ,46, ,
-1, ,46, ,
-5, ,46, ,
3, ,46, ,
0, ,45, ,
0, ,47, ,
-1, ,46, ,
1, ,46, ,
1, ,46, ,
4, ,46, ,
-2, ,45, ,
3, ,46, ,
6, ,46, ,
1, ,46, ,
-2, ,46, ,
0, ,46, ,
-2, ,45, ,
1, ,47, ,
0, ,46, ,
0, ,46, ,
4, ,46, ,
8, ,46, ,
0, ,45, ,
3, ,46, ,
5, ,46, ,
3, ,46, ,
0, ,46, ,
3, ,46, ,
3, ,45, ,
0, ,47, ,
1, ,46, ,
3, ,46, ,
1, ,46, ,
8, ,46, ,
-2, ,45, ,
3, ,46, ,
3, ,46, ,
-1, ,46, ,
1, ,46, ,
5, ,47, ,
5, ,45, ,
9, ,47, ,
6, ,46, ,
5, ,46, ,
5, ,47, ,
5, ,46, ,
0, ,45, ,
3, ,46, ,
4, ,46, ,
3, ,46, ,
-2, ,46, ,
5, ,46, ,
0, ,45, ,
0, ,47, ,
0, ,46, ,
-1, ,46, ,
-1, ,46, ,
4, ,46, ,
0, ,45, ,
4, ,46, ,
5, ,46, ,
3, ,46, ,
-2, ,46, ,
4, ,46, ,
-1, ,45, ,
1, ,46, ,
0, ,46, ,
3, ,46, ,
6, ,46, ,
5, ,46, ,
-1, ,45, ,
4, ,47, ,
1, ,46, ,
1, ,46, ,
-5, ,46, ,
4, ,46, ,
3, ,45, ,
1, ,46, ,
1, ,46, ,
3, ,46, ,
4, ,47, ,
5, ,46, ,
-5, ,45, ,
0, ,46, ,
3, ,46, ,
1, ,46, ,
1, ,46, ,
3, ,46, ,
3, ,45, ,
3, ,47, ,
3, ,46, ,
1, ,46, ,
3, ,46, ,
3, ,46, ,
-2, ,45, ,
4, ,47, ,
3, ,46, ,
0, ,46, ,
0, ,46, ,
4, ,46, ,
5, ,46, ,
4, ,46, ,
3, ,46, ,
4, ,46, ,
3, ,46, ,
6, ,46, ,
1, ,45, ,
6, ,46, ,
9, ,46, ,
3, ,46, ,
0, ,46, ,
1, ,46, ,
-1, ,45, ,
0, ,47, ,
0, ,46, ,
4, ,46, ,
6, ,46, ,
8, ,46, ,
1, ,45, ,
4, ,46, ,
5, ,46, ,
0, ,46, ,
-2, ,46, ,
5, ,46, ,
3, ,45, ,
3, ,47, ,
4, ,46, ,
5, ,46, ,
5, ,46, ,
5, ,46, ,
1, ,45, ,
1, ,46, ,
4, ,46, ,
1, ,46, ,
-2, ,46, ,
3, ,46, ,
-1, ,45, ,
-1, ,46, ,
-2, ,46, ,
-4, ,46, ,
-1, ,46, ,
3, ,46, ,
0, ,45, ,
6, ,47, ,
6, ,46, ,
3, ,46, ,
0, ,46, ,
3, ,46, ,
0, ,46, ,
-1, ,46, ,
-4, ,46, ,
-1, ,46, ,
0, ,46, ,
0, ,46, ,
-2, ,45, ,
0, ,46, ,
0, ,46, ,
0, ,46, ,
-5, ,46, ,
3, ,46, ,
0, ,45, ,
1, ,47, ,
-2, ,46, ,
-1, ,46, ,
-1, ,47, ,
3, ,46, ,
-6, ,45, ,
0, ,46, ,
1, ,46, ,
0, ,46, ,
-5, ,46, ,
4, ,46, ,
-2, ,45, ,
0, ,46, ,
-4, ,46, ,
-2, ,46, ,
-1, ,46, ,
0, ,46, ,
-4, ,45, ,
1, ,47, ,
5, ,46, ,
3, ,46, ,
-2, ,46, ,
1, ,47, ,
-5, ,45, ,
-7, ,46, ,
-12, ,46, ,
-17, ,46, ,
-16, ,46, ,
-15, ,46, ,
-19, ,45, ,
-12, ,47, ,
-7, ,46, ,
-5, ,46, ,
-5, ,46, ,
4, ,46, ,
8, ,45, ,
9, ,47, ,
9, ,46, ,
8, ,46, ,
8, ,46, ,
9, ,46, ,
-1, ,46, ,
3, ,46, ,
3, ,46, ,
-2, ,46, ,
0, ,46, ,
-1, ,46, ,
-4, ,45, ,
-1, ,46, ,
-4, ,46, ,
-4, ,46, ,
-2, ,46, ,
3, ,46, ,
-7, ,45, ,
-4, ,47, ,
-2, ,46, ,
-6, ,46, ,
-7, ,46, ,
-4, ,46, ,
-1, ,45, ,
-5, ,47, ,
-5, ,46, ,
-4, ,46, ,
-6, ,46, ,
-1, ,46, ,
-9, ,46, ,
-2, ,46, ,
0, ,46, ,
-2, ,46, ,
-4, ,46, ,
-1, ,46, ,
-2, ,45, ,
-2, ,47, ,
-5, ,46, ,
-2, ,46, ,
0, ,46, ,
0, ,46, ,
-4, ,45, ,
-2, ,47, ,
-1, ,46, ,
-6, ,46, ,
-9, ,46, ,
-1, ,46, ,
-2, ,45, ,
-1, ,47, ,
0, ,46, ,
-2, ,46, ,
-1, ,46, ,
3, ,46, ,
-6, ,45, ,
-2, ,46, ,
0, ,46, ,
0, ,46, ,
-4, ,46, ,
0, ,46, ,
0, ,45, ,
0, ,47, ,
-1, ,46, ,
-2, ,46, ,
-1, ,46, ,
-1, ,46, ,
-5, ,45, ,
3, ,46, ,
4, ,46, ,
4, ,46, ,
0, ,46, ,
1, ,46, ,
0, ,45, ,
-1, ,47, ,
-1, ,46, ,
0, ,46, ,
-4, ,46, ,
3, ,46, ,
-4, ,45, ,
1, ,47, ,
5, ,46, ,
0, ,46, ,
1, ,46, ,
3, ,46, ,
3, ,45, ,
3, ,47, ,
3, ,46, ,
4, ,46, ,
4, ,46, ,
5, ,46, ,
-4, ,45, ,
0, ,46, ,
1, ,47, ,
1, ,46, ,
-1, ,46, ,
5, ,47, ,
4, ,45, ,
5, ,47, ,
4, ,46, ,
5, ,46, ,
1, ,46, ,
4, ,46, ,
-1, ,45, ,
0, ,46, ,
3, ,46, ,
0, ,46, ,
-1, ,46, ,
6, ,46, ,
4, ,45, ,
6, ,46, ,
3, ,46, ,
3, ,46, ,
5, ,47, ,
3, ,46, ,
-2, ,45, ,
3, ,47, ,
4, ,46, ,
3, ,46, ,
-2, ,46, ,
5, ,46, ,
4, ,45, ,
1, ,47, ,
3, ,45, ,
3, ,46, ,
4, ,46, ,
8, ,46, ,
3, ,45, ,
3, ,47, ,
1, ,46, ,
3, ,46, ,
0, ,46, ,
5, ,46, ,
1, ,45, ,
5, ,47, ,
1, ,46, ,
-1, ,46, ,
4, ,46, ,
9, ,46, ,
1, ,45, ,
1, ,46, ,
5, ,46, ,
1, ,46, ,
-1, ,46, ,
6, ,46, ,
9, ,45, ,
8, ,47, ,
5, ,46, ,
6, ,46, ,
4, ,46, ,
5, ,46, ,
0, ,45, ,
3, ,47, ,
10, ,46, ,
13, ,43, ,
9, ,35, ,
6, ,24, ,
1, ,15, ,
-2, ,6, ,
-6, ,-1, ,
-2, ,-6, ,
1, ,-13, ,
3, ,-17, ,
-5, ,-21, ,
-5, ,-25, ,
-2, ,-27, ,
-4, ,-31, ,
-9, ,-33, ,
3, ,-35, ,
0, ,-36, ,
0, ,-38, ,
3, ,-39, ,
3, ,-40, ,
3, ,-41, ,
6, ,-42, ,
-2, ,-42, ,
1, ,-43, ,
4, ,-44, ,
-4, ,-44, ,
-6, ,-44, ,
1, ,-45, ,
0, ,-44, ,
1, ,-45, ,
1, ,-45, ,
3, ,-45, ,
4, ,-46, ,
6, ,-46, ,
-4, ,-45, ,
3, ,-46, ,
5, ,-46, ,
1, ,-46, ,
-4, ,-46, ,
3, ,-46, ,
4, ,-46, ,
1, ,-47, ,
1, ,-46, ,
4, ,-46, ,
1, ,-46, ,
3, ,-46, ,
-2, ,-45, ,
4, ,-47, ,
9, ,-46, ,
5, ,-46, ,
4, ,-46, ,
10, ,-47, ,
9, ,-46, ,
8, ,-47, ,
5, ,-46, ,
6, ,-46, ,
4, ,-46, ,
8, ,-46, ,
5, ,-46, ,
5, ,-46, ,
6, ,-46, ,
-2, ,-46, ,
1, ,-46, ,
8, ,-46, ,
-1, ,-45, ,
5, ,-46, ,
3, ,-46, ,
6, ,-46, ,
8, ,-46, ,
8, ,-46, ,
0, ,-45, ,
4, ,-46, ,
9, ,-46, ,
5, ,-46, ,
-12, ,-46, ,
5, ,-46, ,
11, ,-46, ,
4, ,-47, ,
11, ,-46, ,
9, ,-45, ,
6, ,-46, ,
3, ,-46, ,
-1, ,-46, ,
4, ,-46, ,
5, ,-46, ,
3, ,-46, ,
-1, ,-46, ,
8, ,-46, ,
4, ,-46, ,
1, ,-46, ,
1, ,-46, ,
1, ,-45, ,
5, ,-46, ,
4, ,-46, ,
4, ,-45, ,
9, ,-46, ,
8, ,-46, ,
1, ,-46, ,
-1, ,-46, ,
1, ,-46, ,
-1, ,-45, ,
-1, ,-46, ,
0, ,-45, ,
1, ,-45, ,
5, ,-46, ,
4, ,-46, ,
-1, ,-45, ,
0, ,-46, ,
4, ,-46, ,
-1, ,-46, ,
-4, ,-46, ,
0, ,-46, ,
-5, ,-45, ,
-6, ,-46, ,
-7, ,-46, ,
-5, ,-45, ,
-6, ,-46, ,
-2, ,-46, ,
-5, ,-45, ,
-2, ,-46, ,
0, ,-46, ,
-5, ,-45, ,
-4, ,-45, ,
-1, ,-45, ,
-6, ,-45, ,
-5, ,-46, ,
-6, ,-46, ,
-5, ,-45, ,
-2, ,-46, ,
-6, ,-46, ,
-11, ,-45, ,
-5, ,-46, ,
-2, ,-45, ,
-5, ,-46, ,
-6, ,-46, ,
0, ,-46, ,
-1, ,-45, ,
-2, ,-47, ,
-4, ,-46, ,
-4, ,-45, ,
-2, ,-46, ,
-1, ,-46, ,
-7, ,-45, ,
-5, ,-46, ,
-1, ,-46, ,
-5, ,-46, ,
-11, ,-46, ,
-6, ,-46, ,
-11, ,-45, ,
-9, ,-46, ,
-6, ,-46, ,
-5, ,-45, ,
-1, ,-46, ,
-1, ,-46, ,
-9, ,-45, ,
-2, ,-46, ,
-2, ,-46, ,
-2, ,-46, ,
-6, ,-46, ,
-2, ,-45, ,
-2, ,-45, ,
-2, ,-46, ,
-4, ,-45, ,
-5, ,-45, ,
-5, ,-45, ,
-4, ,-46, ,
-7, ,-45, ,
-6, ,-46, ,
-4, ,-46, ,
-4, ,-45, ,
-4, ,-46, ,
0, ,-46, ,
-4, ,-45, ,
-5, ,-46, ,
-5, ,-45, ,
-6, ,-45, ,
-5, ,-46, ,
-2, ,-46, ,
-5, ,-45, ,
-4, ,-46, ,
0, ,-46, ,
-5, ,-45, ,
-6, ,-46, ,
-1, ,-46, ,
-7, ,-45, ,
-7, ,-46, ,
-6, ,-46, ,
-5, ,-45, ,
-4, ,-46, ,
-1, ,-46, ,
-5, ,-45, ,
-2, ,-46, ,
4, ,-45, ,
-4, ,-45, ,
-7, ,-46, ,
-1, ,-45, ,
-4, ,-45, ,
-4, ,-46, ,
-2, ,-45, ,
-1, ,-45, ,
0, ,-46, ,
-2, ,-46, ,
-6, ,-45, ,
-4, ,-46, ,
-1, ,-46, ,
-2, ,-45, ,
-6, ,-45, ,
3, ,-45, ,
1, ,-45, ,
-4, ,-46, ,
-2, ,-46, ,
-2, ,-45, ,
-1, ,-46, ,
-1, ,-46, ,
-5, ,-45, ,
0, ,-46, ,
3, ,-46, ,
0, ,-45, ,
0, ,-45, ,
0, ,-46, ,
-1, ,-45, ,
-1, ,-46, ,
-2, ,-46, ,
-1, ,-46, ,
1, ,-45, ,
1, ,-46, ,
-4, ,-45, ,
4, ,-46, ,
4, ,-46, ,
0, ,-46, ,
-4, ,-46, ,
0, ,-46, ,
1, ,-45, ,
-2, ,-46, ,
0, ,-46, ,
0, ,-45, ,
-1, ,-46, ,
8, ,-46, ,
0, ,-45, ,
1, ,-46, ,
5, ,-46, ,
3, ,-45, ,
4, ,-46, ,
9, ,-45, ,
4, ,-45, ,
5, ,-46, ,
5, ,-45, ,
4, ,-45, ,
6, ,-45, ,
4, ,-45, ,
0, ,-45, ,
3, ,-46, ,
3, ,-46, ,
1, ,-45, ,
0, ,-46, ,
5, ,-46, ,
4, ,-45, ,
5, ,-46, ,
1, ,-46, ,
-2, ,-45, ,
1, ,-46, ,
8, ,-46, ,
1, ,-45, ,
8, ,-46, ,
9, ,-46, ,
5, ,-45, ,
-1, ,-46, ,
4, ,-45, ,
0, ,-46, ,
0, ,-46, ,
4, ,-46, ,
6, ,-45, ,
4, ,-45, ,
4, ,-45, ,
-6, ,-45, ,
-4, ,-46, ,
-2, ,-46, ,
0, ,-45, ,
-2, ,-45, ,
4, ,-45, ,
5, ,-45, ,
3, ,-46, ,
6, ,-46, ,
5, ,-45, ,
5, ,-45, ,
10, ,-46, ,
1, ,-45, ,
6, ,-46, ,
6, ,-46, ,
3, ,-45, ,
1, ,-46, ,
5, ,-46, ,
5, ,-45, ,
4, ,-46, ,
4, ,-45, ,
5, ,-45, ,
6, ,-46, ,
5, ,-46, ,
3, ,-45, ,
5, ,-46, ,
8, ,-46, ,
8, ,-45, ,
5, ,-46, ,
11, ,-45, ,
9, ,-45, ,
6, ,-46, ,
9, ,-46, ,
8, ,-45, ,
8, ,-46, ,
6, ,-45, ,
1, ,-45, ,
3, ,-46, ,
5, ,-45, ,
0, ,-45, ,
-2, ,-45, ,
3, ,-45, ,
0, ,-45, ,
1, ,-46, ,
3, ,-46, ,
1, ,-45, ,
3, ,-46, ,
1, ,-46, ,
-4, ,-45, ,
1, ,-46, ,
0, ,-46, ,
3, ,-45, ,
1, ,-46, ,
9, ,-46, ,
8, ,-45, ,
5, ,-46, ,
8, ,-45, ,
5, ,-45, ,
6, ,-45, ,
8, ,-46, ,
-1, ,-45, ,
4, ,-46, ,
8, ,-45, ,
4, ,-45, ,
6, ,-45, ,
10, ,-46, ,
9, ,-45, ,
9, ,-46, ,
6, ,-45, ,
5, ,-45, ,
5, ,-46, ,
4, ,-46, ,
-4, ,-45, ,
1, ,-46, ,
3, ,-46, ,
-2, ,-45, ,
-2, ,-46, ,
0, ,-46, ,
1, ,-45, ,
-1, ,-46, ,
-2, ,-46, ,
-1, ,-45, ,
-4, ,-46, ,
-1, ,-46, ,
-4, ,-45, ,
1, ,-46, ,
3, ,-45, ,
0, ,-45, ,
0, ,-45, ,
5, ,-45, ,
3, ,-45, ,
4, ,-46, ,
4, ,-45, ,
3, ,-45, ,
3, ,-45, ,
1, ,-46, ,
-5, ,-45, ,
-4, ,-46, ,
-2, ,-46, ,
-5, ,-45, ,
-7, ,-46, ,
-2, ,-45, ,
-1, ,-45, ,
-1, ,-46, ,
0, ,-46, ,
3, ,-45, ,
3, ,-46, ,
1, ,-46, ,
-4, ,-45, ,
-1, ,-46, ,
-1, ,-46, ,
-2, ,-46, ,
-5, ,-46, ,
1, ,-45, ,
-5, ,-45, ,
-2, ,-46, ,
0, ,-46, ,
-1, ,-45, ,
3, ,-46, ,
4, ,-46, ,
-1, ,-45, ,
4, ,-46, ,
5, ,-46, ,
4, ,-45, ,
0, ,-45, ,
6, ,-46, ,
5, ,-45, ,
1, ,-46, ,
3, ,-45, ,
3, ,-45, ,
3, ,-45, ,
8, ,-46, ,
-1, ,-45, ,
3, ,-46, ,
3, ,-46, ,
-2, ,-45, ,
-4, ,-45, ,
-1, ,-45, ,
0, ,-45, ,
-1, ,-46, ,
-1, ,-45, ,
-2, ,-45, ,
-4, ,-46, ,
-4, ,-46, ,
-9, ,-45, ,
-7, ,-46, ,
-5, ,-46, ,
-11, ,-46, ,
-7, ,-46, ,
-4, ,-46, ,
-6, ,-45, ,
-9, ,-46, ,
-12, ,-46, ,
-7, ,-45, ,
-9, ,-46, ,
-7, ,-45, ,
-7, ,-45, ,
-5, ,-45, ,
0, ,-46, ,
-4, ,-45, ,
-6, ,-46, ,
0, ,-45, ,
-6, ,-45, ,
-4, ,-46, ,
-4, ,-45, ,
-4, ,-45, ,
-1, ,-46, ,
-4, ,-46, ,
-6, ,-45, ,
-4, ,-46, ,
-1, ,-45, ,
-5, ,-45, ,
-7, ,-46, ,
-4, ,-46, ,
-5, ,-45, ,
-5, ,-46, ,
-4, ,-46, ,
-4, ,-45, ,
-4, ,-46, ,
-1, ,-46, ,
-9, ,-45, ,
-2, ,-46, ,
-1, ,-45, ,
-2, ,-45, ,
-7, ,-46, ,
-1, ,-45, ,
0, ,-45, ,
0, ,-46, ,
1, ,-45, ,
4, ,-45, ,
3, ,-46, ,
5, ,-46, ,
