src/vary_am2_1412/temp0002813.CSV

Format,1.0B,
Memory Length,10000,Memory Length,10000,
IntpDistance,0,IntpDistance,0,
Trigger Address,4999,Trigger Address,4999,
Trigger Level,9.600E-01,Trigger Level,9.600E-01,
Source,CH1,Source,CH2,
Vertical Units,V,Vertical Units,V,
Vertical Units Div,0,Vertical Units Div,0,
Vertical Units Extend Div,16,Vertical Units Extend Div,16,
Label,,Label,,
Probe Type,0,Probe Type,0,
Probe Ratio,1.000e+01,Probe Ratio,1.000e+00,
Vertical Scale,2.000e-02,Vertical Scale,1.000e+00,
Vertical Position,-5.120e-02,Vertical Position,0.000e+00,
Horizontal Units,S,Horizontal Units,S,
Horizontal Scale,1.000E-05,Horizontal Scale,1.000E-05,
Horizontal Position,0.000E+00,Horizontal Position,0.000E+00,
Horizontal Mode,Main,Horizontal Mode,Main,
SincET Mode,Real Time,SincET Mode,Real Time,
Sampling Period,1.000e-08,Sampling Period,1.000e-08,
Horizontal Old Scale,1.000E-05,Horizontal Old Scale,1.000E-05,
Horizontal Old Position,0.000E+00,Horizontal Old Position,0.000E+00,
Firmware,V1.23,Firmware,V1.23,
Mode,Fast,Mode,Fast,
Waveform Data,,Waveform Data,,
-1, ,-36, ,
1, ,-36, ,
3, ,-36, ,
0, ,-36, ,
8, ,-36, ,
5, ,-36, ,
4, ,-36, ,
4, ,-36, ,
4, ,-36, ,
5, ,-36, ,
4, ,-36, ,
-4, ,-36, ,
-2, ,-36, ,
4, ,-36, ,
-2, ,-37, ,
-2, ,-36, ,
3, ,-36, ,
0, ,-36, ,
3, ,-36, ,
1, ,-36, ,
1, ,-36, ,
3, ,-36, ,
6, ,-36, ,
0, ,-36, ,
0, ,-36, ,
4, ,-36, ,
-2, ,-36, ,
-9, ,-36, ,
1, ,-36, ,
3, ,-36, ,
0, ,-36, ,
0, ,-36, ,
4, ,-36, ,
3, ,-36, ,
3, ,-36, ,
-4, ,-36, ,
0, ,-36, ,
-1, ,-36, ,
-2, ,-37, ,
-5, ,-36, ,
4, ,-36, ,
4, ,-36, ,
-6, ,-36, ,
-6, ,-36, ,
-1, ,-36, ,
0, ,-36, ,
3, ,-36, ,
-6, ,-36, ,
-2, ,-36, ,
3, ,-36, ,
-1, ,-36, ,
-2, ,-36, ,
0, ,-36, ,
0, ,-36, ,
3, ,-36, ,
-1, ,-36, ,
-1, ,-36, ,
1, ,-36, ,
4, ,-36, ,
-1, ,-36, ,
1, ,-36, ,
3, ,-36, ,
-2, ,-37, ,
-5, ,-36, ,
4, ,-36, ,
-1, ,-36, ,
1, ,-36, ,
0, ,-36, ,
3, ,-36, ,
1, ,-36, ,
-1, ,-36, ,
-7, ,-36, ,
3, ,-36, ,
3, ,-36, ,
1, ,-37, ,
-6, ,-36, ,
1, ,-36, ,
4, ,-36, ,
-1, ,-36, ,
0, ,-36, ,
3, ,-36, ,
1, ,-36, ,
3, ,-36, ,
-4, ,-36, ,
4, ,-36, ,
9, ,-36, ,
3, ,-36, ,
1, ,-36, ,
4, ,-36, ,
3, ,-36, ,
1, ,-36, ,
-2, ,-36, ,
0, ,-36, ,
0, ,-36, ,
3, ,-36, ,
-5, ,-36, ,
0, ,-36, ,
3, ,-36, ,
-1, ,-36, ,
-4, ,-36, ,
3, ,-36, ,
-1, ,-36, ,
-1, ,-37, ,
-2, ,-36, ,
1, ,-36, ,
3, ,-36, ,
3, ,-36, ,
-2, ,-36, ,
0, ,-36, ,
5, ,-35, ,
-4, ,-37, ,
-4, ,-36, ,
1, ,-36, ,
0, ,-36, ,
1, ,-36, ,
-2, ,-36, ,
-1, ,-36, ,
0, ,-36, ,
0, ,-36, ,
-2, ,-36, ,
1, ,-36, ,
3, ,-36, ,
3, ,-37, ,
-2, ,-36, ,
6, ,-36, ,
3, ,-36, ,
1, ,-36, ,
-2, ,-36, ,
-4, ,-36, ,
-4, ,-36, ,
0, ,-36, ,
-5, ,-36, ,
0, ,-36, ,
6, ,-36, ,
4, ,-37, ,
1, ,-36, ,
4, ,-36, ,
4, ,-36, ,
3, ,-36, ,
0, ,-35, ,
1, ,-36, ,
1, ,-36, ,
4, ,-36, ,
-2, ,-36, ,
4, ,-36, ,
6, ,-36, ,
1, ,-36, ,
-1, ,-36, ,
5, ,-36, ,
4, ,-36, ,
4, ,-36, ,
3, ,-36, ,
3, ,-36, ,
3, ,-36, ,
4, ,-36, ,
-2, ,-36, ,
3, ,-36, ,
4, ,-36, ,
1, ,-36, ,
4, ,-36, ,
6, ,-36, ,
4, ,-36, ,
4, ,-36, ,
0, ,-36, ,
3, ,-36, ,
0, ,-36, ,
3, ,-36, ,
-1, ,-36, ,
3, ,-36, ,
5, ,-36, ,
1, ,-36, ,
-4, ,-36, ,
4, ,-36, ,
1, ,-36, ,
0, ,-36, ,
-2, ,-36, ,
0, ,-36, ,
3, ,-36, ,
4, ,-36, ,
-1, ,-36, ,
1, ,-36, ,
3, ,-36, ,
0, ,-37, ,
-6, ,-36, ,
3, ,-36, ,
0, ,-36, ,
1, ,-36, ,
1, ,-36, ,
3, ,-36, ,
3, ,-36, ,
1, ,-36, ,
-5, ,-36, ,
0, ,-36, ,
1, ,-36, ,
0, ,-36, ,
-1, ,-36, ,
5, ,-36, ,
4, ,-36, ,
1, ,-36, ,
3, ,-36, ,
1, ,-36, ,
0, ,-36, ,
3, ,-36, ,
-4, ,-36, ,
3, ,-36, ,
6, ,-36, ,
1, ,-36, ,
-2, ,-36, ,
4, ,-36, ,
1, ,-36, ,
3, ,-36, ,
-2, ,-36, ,
0, ,-36, ,
4, ,-36, ,
4, ,-36, ,
-2, ,-36, ,
-1, ,-36, ,
3, ,-36, ,
-1, ,-37, ,
-6, ,-36, ,
3, ,-36, ,
3, ,-36, ,
3, ,-36, ,
1, ,-36, ,
3, ,-36, ,
4, ,-36, ,
8, ,-36, ,
1, ,-36, ,
4, ,-36, ,
5, ,-36, ,
0, ,-36, ,
-4, ,-37, ,
3, ,-36, ,
1, ,-36, ,
4, ,-36, ,
1, ,-36, ,
3, ,-36, ,
6, ,-36, ,
3, ,-36, ,
-1, ,-36, ,
3, ,-36, ,
6, ,-36, ,
3, ,-36, ,
-2, ,-36, ,
8, ,-36, ,
5, ,-36, ,
4, ,-36, ,
0, ,-36, ,
0, ,-36, ,
0, ,-36, ,
1, ,-36, ,
-4, ,-36, ,
0, ,-36, ,
3, ,-36, ,
0, ,-36, ,
-4, ,-36, ,
3, ,-36, ,
-4, ,-36, ,
-1, ,-36, ,
-2, ,-36, ,
0, ,-36, ,
1, ,-36, ,
1, ,-36, ,
-2, ,-36, ,
0, ,-36, ,
1, ,-36, ,
-2, ,-36, ,
-7, ,-36, ,
1, ,-36, ,
-1, ,-36, ,
0, ,-36, ,
1, ,-36, ,
4, ,-36, ,
3, ,-36, ,
5, ,-36, ,
-2, ,-36, ,
0, ,-36, ,
3, ,-36, ,
-2, ,-36, ,
-2, ,-36, ,
4, ,-36, ,
1, ,-36, ,
3, ,-36, ,
-2, ,-36, ,
-1, ,-36, ,
0, ,-36, ,
-1, ,-36, ,
-6, ,-36, ,
-2, ,-36, ,
0, ,-36, ,
-2, ,-36, ,
-4, ,-36, ,
3, ,-36, ,
0, ,-36, ,
-1, ,-36, ,
-1, ,-36, ,
1, ,-36, ,
1, ,-36, ,
6, ,-36, ,
0, ,-36, ,
1, ,-36, ,
5, ,-36, ,
-1, ,-37, ,
-4, ,-36, ,
3, ,-36, ,
3, ,-36, ,
4, ,-36, ,
3, ,-36, ,
4, ,-36, ,
6, ,-36, ,
5, ,-36, ,
-1, ,-36, ,
1, ,-36, ,
3, ,-36, ,
0, ,-36, ,
-2, ,-36, ,
4, ,-36, ,
1, ,-36, ,
-1, ,-36, ,
0, ,-36, ,
0, ,-36, ,
-1, ,-36, ,
3, ,-36, ,
-7, ,-36, ,
0, ,-36, ,
3, ,-36, ,
-2, ,-36, ,
-2, ,-36, ,
1, ,-36, ,
1, ,-36, ,
1, ,-36, ,
-1, ,-36, ,
-1, ,-36, ,
0, ,-36, ,
1, ,-36, ,
-2, ,-36, ,
-1, ,-36, ,
4, ,-36, ,
-1, ,-37, ,
-1, ,-36, ,
0, ,-36, ,
1, ,-36, ,
1, ,-36, ,
-1, ,-36, ,
5, ,-36, ,
4, ,-36, ,
5, ,-36, ,
0, ,-36, ,
0, ,-36, ,
3, ,-36, ,
-2, ,-36, ,
-6, ,-36, ,
1, ,-36, ,
-2, ,-36, ,
0, ,-36, ,
-2, ,-36, ,
0, ,-36, ,
3, ,-36, ,
5, ,-36, ,
1, ,-36, ,
6, ,-36, ,
5, ,-36, ,
3, ,-36, ,
0, ,-36, ,
5, ,-36, ,
5, ,-36, ,
1, ,-37, ,
0, ,-36, ,
1, ,-36, ,
3, ,-36, ,
5, ,-36, ,
3, ,-36, ,
4, ,-36, ,
8, ,-36, ,
4, ,-36, ,
0, ,-36, ,
6, ,-36, ,
5, ,-36, ,
1, ,-36, ,
3, ,-35, ,
1, ,-36, ,
4, ,-36, ,
4, ,-36, ,
-2, ,-36, ,
4, ,-36, ,
6, ,-36, ,
1, ,-36, ,
-2, ,-36, ,
4, ,-36, ,
3, ,-36, ,
-1, ,-37, ,
-2, ,-35, ,
1, ,-36, ,
0, ,-36, ,
3, ,-36, ,
-2, ,-36, ,
0, ,-36, ,
3, ,-36, ,
-2, ,-36, ,
-4, ,-36, ,
3, ,-36, ,
0, ,-36, ,
0, ,-36, ,
-2, ,-36, ,
-2, ,-36, ,
-1, ,-36, ,
-2, ,-36, ,
-5, ,-36, ,
-1, ,-36, ,
3, ,-36, ,
3, ,-36, ,
-1, ,-36, ,
5, ,-36, ,
3, ,-36, ,
1, ,-36, ,
-1, ,-36, ,
3, ,-36, ,
3, ,-36, ,
6, ,-36, ,
-1, ,-36, ,
1, ,-36, ,
5, ,-36, ,
3, ,-36, ,
-1, ,-36, ,
6, ,-36, ,
0, ,-36, ,
1, ,-36, ,
-1, ,-36, ,
1, ,-36, ,
4, ,-36, ,
1, ,-36, ,
-1, ,-36, ,
3, ,-36, ,
4, ,-36, ,
4, ,-36, ,
-1, ,-36, ,
4, ,-36, ,
3, ,-36, ,
1, ,-36, ,
1, ,-36, ,
4, ,-36, ,
5, ,-36, ,
9, ,-36, ,
1, ,-36, ,
6, ,-36, ,
11, ,-36, ,
5, ,-37, ,
4, ,-36, ,
6, ,-36, ,
6, ,-36, ,
6, ,-36, ,
1, ,-36, ,
4, ,-36, ,
1, ,-36, ,
1, ,-36, ,
-4, ,-36, ,
-1, ,-36, ,
4, ,-36, ,
1, ,-37, ,
-2, ,-36, ,
5, ,-36, ,
1, ,-36, ,
-1, ,-36, ,
-5, ,-36, ,
0, ,-36, ,
0, ,-36, ,
1, ,-36, ,
-2, ,-36, ,
0, ,-36, ,
4, ,-36, ,
0, ,-37, ,
-6, ,-36, ,
-2, ,-36, ,
-4, ,-36, ,
-1, ,-36, ,
-2, ,-36, ,
1, ,-36, ,
4, ,-37, ,
1, ,-36, ,
-2, ,-36, ,
0, ,-36, ,
3, ,-36, ,
0, ,-37, ,
-5, ,-36, ,
4, ,-36, ,
4, ,-36, ,
3, ,-36, ,
1, ,-36, ,
0, ,-36, ,
-1, ,-36, ,
1, ,-36, ,
-6, ,-36, ,
-2, ,-36, ,
4, ,-36, ,
4, ,-36, ,
-4, ,-36, ,
3, ,-36, ,
1, ,-36, ,
-1, ,-36, ,
-4, ,-36, ,
-4, ,-37, ,
-6, ,-37, ,
-1, ,-36, ,
-4, ,-36, ,
4, ,-36, ,
3, ,-36, ,
0, ,-37, ,
-5, ,-36, ,
0, ,-36, ,
1, ,-36, ,
-1, ,-36, ,
-1, ,-36, ,
4, ,-36, ,
3, ,-36, ,
4, ,-36, ,
-4, ,-36, ,
1, ,-36, ,
6, ,-36, ,
3, ,-37, ,
1, ,-36, ,
8, ,-36, ,
4, ,-36, ,
1, ,-35, ,
-1, ,-28, ,
-1, ,-19, ,
5, ,-9, ,
9, ,0, ,
3, ,8, ,
3, ,15, ,
1, ,20, ,
-2, ,25, ,
-1, ,30, ,
13, ,34, ,
10, ,37, ,
8, ,39, ,
5, ,41, ,
4, ,44, ,
4, ,46, ,
5, ,47, ,
-5, ,50, ,
-1, ,50, ,
3, ,51, ,
3, ,53, ,
-2, ,53, ,
4, ,53, ,
0, ,55, ,
-2, ,55, ,
-4, ,54, ,
0, ,56, ,
1, ,55, ,
0, ,56, ,
-2, ,56, ,
4, ,56, ,
3, ,55, ,
1, ,57, ,
0, ,56, ,
5, ,56, ,
6, ,57, ,
3, ,57, ,
4, ,56, ,
4, ,58, ,
4, ,57, ,
5, ,57, ,
-4, ,57, ,
0, ,57, ,
-2, ,56, ,
-7, ,58, ,
-7, ,56, ,
-1, ,57, ,
-1, ,57, ,
-1, ,57, ,
-4, ,56, ,
-4, ,57, ,
-4, ,57, ,
-2, ,56, ,
-9, ,57, ,
-6, ,57, ,
-1, ,56, ,
-6, ,58, ,
-5, ,56, ,
4, ,57, ,
1, ,57, ,
1, ,57, ,
-1, ,55, ,
1, ,57, ,
-2, ,57, ,
1, ,57, ,
-4, ,57, ,
1, ,57, ,
5, ,56, ,
0, ,58, ,
-1, ,56, ,
1, ,57, ,
0, ,57, ,
4, ,57, ,
1, ,55, ,
0, ,57, ,
3, ,57, ,
4, ,56, ,
1, ,57, ,
1, ,57, ,
0, ,57, ,
1, ,57, ,
-4, ,56, ,
5, ,57, ,
0, ,57, ,
-1, ,57, ,
0, ,55, ,
-1, ,57, ,
-2, ,57, ,
6, ,56, ,
-5, ,57, ,
1, ,57, ,
3, ,56, ,
0, ,57, ,
-2, ,56, ,
3, ,57, ,
-2, ,57, ,
-1, ,57, ,
-1, ,55, ,
-1, ,57, ,
-1, ,57, ,
3, ,56, ,
-6, ,57, ,
-1, ,57, ,
1, ,56, ,
-2, ,57, ,
-4, ,57, ,
4, ,57, ,
0, ,57, ,
1, ,57, ,
1, ,55, ,
3, ,57, ,
3, ,57, ,
3, ,56, ,
1, ,57, ,
5, ,57, ,
5, ,56, ,
1, ,57, ,
-1, ,56, ,
4, ,56, ,
0, ,57, ,
0, ,57, ,
-4, ,55, ,
1, ,57, ,
0, ,57, ,
1, ,56, ,
-2, ,57, ,
0, ,57, ,
3, ,56, ,
0, ,57, ,
-5, ,56, ,
4, ,56, ,
1, ,57, ,
1, ,57, ,
1, ,55, ,
3, ,57, ,
4, ,57, ,
5, ,57, ,
0, ,56, ,
4, ,57, ,
4, ,56, ,
3, ,57, ,
-1, ,56, ,
8, ,56, ,
6, ,57, ,
5, ,57, ,
4, ,55, ,
4, ,57, ,
5, ,56, ,
4, ,56, ,
0, ,56, ,
8, ,57, ,
6, ,56, ,
4, ,57, ,
1, ,56, ,
8, ,57, ,
0, ,57, ,
-1, ,57, ,
-2, ,55, ,
0, ,57, ,
1, ,57, ,
8, ,56, ,
0, ,57, ,
5, ,57, ,
6, ,56, ,
1, ,57, ,
3, ,57, ,
4, ,57, ,
1, ,57, ,
3, ,57, ,
1, ,55, ,
3, ,57, ,
3, ,57, ,
5, ,56, ,
-1, ,57, ,
3, ,57, ,
6, ,56, ,
4, ,57, ,
1, ,56, ,
9, ,57, ,
5, ,57, ,
6, ,56, ,
3, ,55, ,
4, ,57, ,
4, ,56, ,
5, ,56, ,
0, ,56, ,
4, ,57, ,
6, ,55, ,
4, ,57, ,
0, ,56, ,
4, ,56, ,
-1, ,57, ,
1, ,56, ,
-1, ,55, ,
0, ,57, ,
1, ,57, ,
3, ,56, ,
-1, ,57, ,
3, ,57, ,
4, ,56, ,
0, ,57, ,
-5, ,56, ,
1, ,57, ,
-2, ,57, ,
0, ,57, ,
0, ,55, ,
0, ,58, ,
0, ,57, ,
4, ,56, ,
-2, ,56, ,
4, ,57, ,
4, ,56, ,
0, ,57, ,
-4, ,57, ,
4, ,56, ,
0, ,57, ,
1, ,56, ,
0, ,55, ,
3, ,57, ,
3, ,56, ,
8, ,56, ,
-1, ,56, ,
4, ,56, ,
6, ,56, ,
4, ,57, ,
1, ,56, ,
8, ,56, ,
5, ,57, ,
3, ,56, ,
1, ,55, ,
3, ,57, ,
3, ,57, ,
5, ,56, ,
-2, ,56, ,
3, ,57, ,
4, ,56, ,
-5, ,57, ,
-7, ,56, ,
-6, ,57, ,
-15, ,57, ,
-14, ,57, ,
-15, ,55, ,
-11, ,57, ,
-6, ,56, ,
-2, ,56, ,
0, ,56, ,
5, ,57, ,
13, ,56, ,
13, ,57, ,
11, ,56, ,
15, ,56, ,
10, ,57, ,
9, ,57, ,
5, ,55, ,
4, ,57, ,
4, ,56, ,
4, ,56, ,
-2, ,56, ,
0, ,57, ,
3, ,55, ,
-1, ,57, ,
-5, ,56, ,
1, ,56, ,
-2, ,57, ,
-1, ,57, ,
-4, ,55, ,
-4, ,57, ,
-4, ,56, ,
-5, ,56, ,
-9, ,56, ,
-2, ,57, ,
-1, ,56, ,
0, ,57, ,
-5, ,56, ,
3, ,56, ,
-1, ,57, ,
-2, ,57, ,
-4, ,55, ,
-1, ,57, ,
-4, ,56, ,
3, ,56, ,
-5, ,56, ,
-2, ,57, ,
0, ,56, ,
-1, ,57, ,
-2, ,56, ,
1, ,56, ,
0, ,57, ,
1, ,57, ,
1, ,55, ,
3, ,57, ,
-1, ,57, ,
1, ,57, ,
-6, ,56, ,
-4, ,57, ,
-1, ,56, ,
-4, ,57, ,
-5, ,56, ,
3, ,57, ,
1, ,56, ,
0, ,57, ,
-1, ,55, ,
3, ,57, ,
0, ,57, ,
3, ,56, ,
-2, ,56, ,
-2, ,57, ,
0, ,56, ,
0, ,57, ,
-6, ,56, ,
-1, ,57, ,
-5, ,56, ,
-1, ,56, ,
-4, ,55, ,
0, ,57, ,
3, ,57, ,
-1, ,56, ,
-7, ,56, ,
-1, ,56, ,
1, ,55, ,
0, ,57, ,
-1, ,56, ,
5, ,56, ,
0, ,57, ,
0, ,57, ,
-1, ,55, ,
-1, ,58, ,
-2, ,57, ,
-1, ,56, ,
-2, ,56, ,
4, ,57, ,
4, ,56, ,
1, ,57, ,
-2, ,56, ,
1, ,57, ,
-1, ,57, ,
1, ,57, ,
1, ,55, ,
1, ,57, ,
0, ,57, ,
4, ,56, ,
-4, ,57, ,
0, ,57, ,
0, ,56, ,
0, ,57, ,
-4, ,56, ,
4, ,57, ,
-1, ,57, ,
0, ,57, ,
0, ,55, ,
1, ,57, ,
-4, ,56, ,
4, ,56, ,
-5, ,57, ,
-1, ,57, ,
1, ,56, ,
-2, ,57, ,
-1, ,56, ,
5, ,57, ,
3, ,57, ,
3, ,57, ,
-4, ,55, ,
1, ,57, ,
3, ,57, ,
0, ,56, ,
0, ,56, ,
3, ,57, ,
3, ,56, ,
3, ,57, ,
-1, ,56, ,
5, ,57, ,
3, ,57, ,
4, ,57, ,
1, ,55, ,
3, ,57, ,
3, ,56, ,
5, ,56, ,
-2, ,56, ,
0, ,56, ,
1, ,56, ,
1, ,57, ,
-4, ,56, ,
6, ,56, ,
1, ,57, ,
5, ,56, ,
3, ,55, ,
4, ,57, ,
6, ,57, ,
5, ,56, ,
0, ,56, ,
5, ,57, ,
4, ,56, ,
1, ,57, ,
-1, ,56, ,
6, ,57, ,
4, ,57, ,
4, ,57, ,
3, ,55, ,
3, ,57, ,
4, ,57, ,
6, ,56, ,
-1, ,57, ,
6, ,57, ,
5, ,56, ,
3, ,57, ,
1, ,56, ,
4, ,56, ,
1, ,57, ,
6, ,56, ,
0, ,55, ,
-4, ,57, ,
0, ,57, ,
6, ,56, ,
-5, ,56, ,
0, ,57, ,
4, ,56, ,
1, ,57, ,
-5, ,56, ,
6, ,56, ,
1, ,57, ,
1, ,57, ,
3, ,55, ,
3, ,57, ,
1, ,57, ,
8, ,56, ,
-4, ,56, ,
-4, ,57, ,
5, ,56, ,
-4, ,57, ,
-6, ,56, ,
3, ,57, ,
-2, ,57, ,
3, ,57, ,
0, ,55, ,
1, ,57, ,
1, ,56, ,
4, ,57, ,
-1, ,56, ,
3, ,57, ,
5, ,56, ,
4, ,57, ,
4, ,56, ,
11, ,57, ,
9, ,57, ,
6, ,57, ,
8, ,55, ,
8, ,57, ,
6, ,56, ,
13, ,56, ,
5, ,56, ,
10, ,57, ,
8, ,55, ,
6, ,57, ,
4, ,56, ,
8, ,56, ,
1, ,57, ,
6, ,56, ,
5, ,55, ,
6, ,57, ,
9, ,56, ,
9, ,56, ,
5, ,56, ,
6, ,57, ,
9, ,56, ,
5, ,57, ,
1, ,56, ,
4, ,56, ,
4, ,57, ,
6, ,56, ,
9, ,55, ,
8, ,57, ,
5, ,57, ,
10, ,56, ,
4, ,56, ,
5, ,57, ,
8, ,56, ,
5, ,57, ,
4, ,56, ,
8, ,56, ,
5, ,57, ,
3, ,56, ,
0, ,55, ,
5, ,57, ,
3, ,57, ,
6, ,56, ,
1, ,56, ,
5, ,57, ,
8, ,56, ,
6, ,57, ,
3, ,56, ,
8, ,57, ,
3, ,57, ,
3, ,57, ,
1, ,55, ,
3, ,57, ,
4, ,56, ,
6, ,56, ,
-1, ,56, ,
5, ,57, ,
6, ,55, ,
1, ,57, ,
-2, ,56, ,
4, ,57, ,
3, ,57, ,
3, ,57, ,
1, ,55, ,
-1, ,57, ,
-4, ,56, ,
4, ,56, ,
-1, ,56, ,
-1, ,57, ,
-4, ,55, ,
-4, ,57, ,
-5, ,56, ,
0, ,56, ,
-1, ,57, ,
-4, ,56, ,
-5, ,55, ,
-4, ,57, ,
-7, ,56, ,
-1, ,57, ,
-5, ,56, ,
4, ,57, ,
5, ,56, ,
3, ,57, ,
-1, ,56, ,
0, ,57, ,
1, ,57, ,
0, ,56, ,
-2, ,55, ,
-4, ,57, ,
-4, ,57, ,
0, ,56, ,
-6, ,57, ,
0, ,57, ,
4, ,55, ,
1, ,57, ,
-1, ,56, ,
3, ,57, ,
-1, ,56, ,
-4, ,57, ,
-2, ,55, ,
0, ,57, ,
-2, ,57, ,
3, ,56, ,
-5, ,56, ,
-2, ,57, ,
-1, ,56, ,
-5, ,57, ,
-7, ,56, ,
-1, ,56, ,
-5, ,57, ,
-1, ,56, ,
-5, ,55, ,
-4, ,56, ,
-2, ,57, ,
-4, ,56, ,
-7, ,57, ,
-4, ,57, ,
-4, ,56, ,
-4, ,57, ,
-5, ,56, ,
0, ,56, ,
-2, ,57, ,
-5, ,56, ,
-4, ,55, ,
-6, ,57, ,
-7, ,57, ,
-5, ,56, ,
-10, ,56, ,
-6, ,57, ,
-2, ,55, ,
-4, ,57, ,
-9, ,56, ,
-4, ,56, ,
-5, ,57, ,
-6, ,57, ,
-5, ,55, ,
-5, ,57, ,
-6, ,57, ,
-2, ,56, ,
-7, ,56, ,
-2, ,57, ,
-2, ,55, ,
-5, ,57, ,
-6, ,56, ,
-2, ,56, ,
-6, ,57, ,
-5, ,57, ,
-2, ,55, ,
-1, ,57, ,
-2, ,57, ,
0, ,56, ,
-7, ,57, ,
-4, ,56, ,
0, ,55, ,
-4, ,57, ,
-5, ,56, ,
3, ,56, ,
-2, ,56, ,
0, ,56, ,
-4, ,55, ,
-1, ,58, ,
-4, ,57, ,
-4, ,56, ,
-6, ,56, ,
-2, ,57, ,
1, ,56, ,
-1, ,57, ,
-4, ,56, ,
1, ,56, ,
0, ,56, ,
1, ,57, ,
-1, ,55, ,
0, ,57, ,
0, ,57, ,
0, ,56, ,
-4, ,56, ,
0, ,56, ,
-1, ,56, ,
-4, ,57, ,
-5, ,56, ,
3, ,56, ,
-1, ,57, ,
-1, ,57, ,
1, ,55, ,
-1, ,57, ,
-1, ,56, ,
1, ,56, ,
-2, ,56, ,
1, ,57, ,
1, ,55, ,
1, ,57, ,
-2, ,56, ,
5, ,56, ,
4, ,57, ,
1, ,56, ,
1, ,55, ,
3, ,57, ,
0, ,56, ,
5, ,56, ,
0, ,56, ,
3, ,57, ,
4, ,56, ,
-1, ,57, ,
-4, ,56, ,
3, ,56, ,
-1, ,57, ,
1, ,56, ,
3, ,55, ,
0, ,57, ,
1, ,57, ,
1, ,56, ,
-5, ,57, ,
-1, ,57, ,
1, ,56, ,
0, ,57, ,
-1, ,56, ,
6, ,56, ,
3, ,57, ,
4, ,56, ,
0, ,55, ,
3, ,57, ,
0, ,57, ,
4, ,56, ,
0, ,56, ,
1, ,57, ,
5, ,56, ,
3, ,58, ,
-1, ,56, ,
1, ,56, ,
-1, ,57, ,
3, ,56, ,
3, ,55, ,
4, ,57, ,
4, ,57, ,
5, ,56, ,
-1, ,56, ,
1, ,57, ,
4, ,56, ,
1, ,57, ,
0, ,56, ,
5, ,56, ,
5, ,57, ,
4, ,57, ,
6, ,55, ,
4, ,57, ,
1, ,57, ,
5, ,56, ,
-2, ,56, ,
5, ,57, ,
5, ,56, ,
5, ,57, ,
6, ,56, ,
9, ,56, ,
8, ,57, ,
5, ,57, ,
4, ,55, ,
5, ,57, ,
5, ,57, ,
6, ,56, ,
1, ,56, ,
5, ,57, ,
8, ,56, ,
4, ,57, ,
3, ,56, ,
6, ,56, ,
4, ,57, ,
5, ,56, ,
4, ,55, ,
5, ,57, ,
8, ,57, ,
11, ,56, ,
4, ,56, ,
6, ,57, ,
9, ,56, ,
3, ,57, ,
1, ,56, ,
6, ,56, ,
1, ,57, ,
5, ,57, ,
4, ,55, ,
5, ,57, ,
6, ,57, ,
6, ,56, ,
1, ,57, ,
4, ,57, ,
6, ,55, ,
3, ,57, ,
-1, ,56, ,
5, ,57, ,
4, ,57, ,
4, ,56, ,
1, ,55, ,
1, ,57, ,
0, ,56, ,
4, ,56, ,
-2, ,57, ,
1, ,57, ,
4, ,56, ,
3, ,57, ,
0, ,56, ,
6, ,57, ,
5, ,56, ,
6, ,57, ,
8, ,53, ,
3, ,47, ,
1, ,38, ,
0, ,27, ,
-5, ,18, ,
-1, ,11, ,
1, ,4, ,
1, ,-1, ,
-5, ,-5, ,
-1, ,-11, ,
-6, ,-14, ,
-6, ,-17, ,
-2, ,-20, ,
1, ,-22, ,
3, ,-24, ,
6, ,-25, ,
0, ,-27, ,
3, ,-28, ,
0, ,-30, ,
-5, ,-31, ,
-6, ,-32, ,
-1, ,-33, ,
-1, ,-33, ,
0, ,-34, ,
-2, ,-34, ,
1, ,-35, ,
1, ,-35, ,
0, ,-35, ,
-4, ,-35, ,
0, ,-36, ,
6, ,-36, ,
3, ,-36, ,
1, ,-36, ,
5, ,-36, ,
3, ,-36, ,
3, ,-37, ,
-1, ,-36, ,
0, ,-37, ,
0, ,-37, ,
3, ,-37, ,
-1, ,-36, ,
1, ,-37, ,
5, ,-36, ,
0, ,-37, ,
-5, ,-37, ,
0, ,-36, ,
-5, ,-37, ,
-2, ,-37, ,
-4, ,-36, ,
0, ,-37, ,
0, ,-37, ,
4, ,-37, ,
1, ,-37, ,
1, ,-37, ,
3, ,-37, ,
0, ,-37, ,
-4, ,-36, ,
1, ,-37, ,
-1, ,-37, ,
-4, ,-37, ,
-1, ,-36, ,
-1, ,-37, ,
-1, ,-37, ,
1, ,-36, ,
-5, ,-37, ,
1, ,-37, ,
3, ,-36, ,
-2, ,-37, ,
-5, ,-36, ,
-1, ,-36, ,
-2, ,-36, ,
-2, ,-37, ,
-2, ,-36, ,
-4, ,-36, ,
-1, ,-37, ,
-1, ,-36, ,
-6, ,-36, ,
-1, ,-36, ,
-1, ,-36, ,
-5, ,-37, ,
-5, ,-36, ,
1, ,-36, ,
1, ,-36, ,
-1, ,-37, ,
-2, ,-36, ,
-2, ,-36, ,
-1, ,-36, ,
1, ,-36, ,
-4, ,-36, ,
0, ,-36, ,
4, ,-36, ,
-4, ,-37, ,
-5, ,-37, ,
1, ,-36, ,
-4, ,-36, ,
-2, ,-36, ,
-5, ,-36, ,
-4, ,-36, ,
-1, ,-36, ,
1, ,-37, ,
-4, ,-36, ,
0, ,-36, ,
1, ,-36, ,
-2, ,-37, ,
-5, ,-36, ,
1, ,-36, ,
0, ,-36, ,
-1, ,-36, ,
-1, ,-36, ,
1, ,-36, ,
1, ,-36, ,
1, ,-36, ,
-5, ,-37, ,
-2, ,-36, ,
3, ,-36, ,
0, ,-37, ,
-4, ,-36, ,
3, ,-36, ,
0, ,-36, ,
0, ,-36, ,
-2, ,-36, ,
-2, ,-36, ,
-1, ,-36, ,
-1, ,-36, ,
-7, ,-36, ,
-2, ,-36, ,
0, ,-36, ,
-1, ,-37, ,
-5, ,-36, ,
1, ,-36, ,
-2, ,-36, ,
-4, ,-36, ,
-4, ,-36, ,
-1, ,-36, ,
0, ,-36, ,
6, ,-36, ,
-9, ,-36, ,
1, ,-36, ,
4, ,-36, ,
-2, ,-37, ,
-5, ,-36, ,
-1, ,-36, ,
-1, ,-36, ,
-1, ,-36, ,
-5, ,-36, ,
-1, ,-36, ,
-2, ,-36, ,
-1, ,-36, ,
-5, ,-36, ,
0, ,-36, ,
1, ,-36, ,
0, ,-37, ,
-2, ,-36, ,
3, ,-36, ,
0, ,-36, ,
-1, ,-36, ,
-2, ,-36, ,
-2, ,-36, ,
-1, ,-36, ,
0, ,-36, ,
-1, ,-36, ,
1, ,-36, ,
5, ,-36, ,
-1, ,-36, ,
-5, ,-36, ,
1, ,-36, ,
0, ,-36, ,
6, ,-36, ,
0, ,-36, ,
3, ,-36, ,
1, ,-36, ,
1, ,-36, ,
-1, ,-36, ,
3, ,-36, ,
3, ,-36, ,
3, ,-37, ,
-2, ,-36, ,
5, ,-36, ,
1, ,-36, ,
0, ,-37, ,
1, ,-36, ,
1, ,-36, ,
3, ,-36, ,
4, ,-36, ,
0, ,-36, ,
3, ,-36, ,
4, ,-36, ,
3, ,-37, ,
0, ,-36, ,
5, ,-35, ,
4, ,-36, ,
4, ,-37, ,
4, ,-36, ,
4, ,-36, ,
5, ,-36, ,
5, ,-36, ,
-1, ,-36, ,
4, ,-36, ,
5, ,-36, ,
3, ,-37, ,
1, ,-36, ,
8, ,-36, ,
8, ,-36, ,
5, ,-36, ,
4, ,-36, ,
4, ,-36, ,
0, ,-36, ,
3, ,-36, ,
-2, ,-36, ,
1, ,-36, ,
9, ,-36, ,
0, ,-37, ,
0, ,-36, ,
5, ,-36, ,
3, ,-36, ,
4, ,-36, ,
0, ,-36, ,
3, ,-36, ,
3, ,-36, ,
4, ,-36, ,
0, ,-36, ,
3, ,-36, ,
9, ,-36, ,
4, ,-36, ,
1, ,-36, ,
5, ,-36, ,
5, ,-36, ,
3, ,-36, ,
0, ,-36, ,
3, ,-36, ,
4, ,-36, ,
5, ,-36, ,
-2, ,-36, ,
-2, ,-36, ,
0, ,-36, ,
-2, ,-36, ,
-5, ,-36, ,
5, ,-36, ,
4, ,-36, ,
4, ,-36, ,
4, ,-36, ,
3, ,-36, ,
3, ,-36, ,
0, ,-36, ,
-5, ,-36, ,
-2, ,-36, ,
5, ,-36, ,
3, ,-36, ,
0, ,-36, ,
4, ,-36, ,
3, ,-36, ,
3, ,-36, ,
3, ,-36, ,
3, ,-36, ,
4, ,-36, ,
9, ,-36, ,
3, ,-36, ,
4, ,-36, ,
8, ,-36, ,
3, ,-37, ,
0, ,-36, ,
3, ,-36, ,
-1, ,-36, ,
1, ,-36, ,
0, ,-36, ,
4, ,-36, ,
3, ,-36, ,
5, ,-36, ,
-4, ,-36, ,
1, ,-36, ,
3, ,-36, ,
1, ,-36, ,
1, ,-36, ,
4, ,-36, ,
3, ,-36, ,
3, ,-36, ,
0, ,-36, ,
3, ,-36, ,
1, ,-36, ,
4, ,-36, ,
0, ,-36, ,
-2, ,-36, ,
3, ,-36, ,
0, ,-36, ,
-6, ,-36, ,
4, ,-35, ,
0, ,-36, ,
4, ,-36, ,
0, ,-36, ,
0, ,-36, ,
4, ,-36, ,
3, ,-36, ,
-1, ,-36, ,
4, ,-36, ,
6, ,-36, ,
3, ,-37, ,
-1, ,-36, ,
5, ,-36, ,
0, ,-36, ,
-4, ,-36, ,
-2, ,-36, ,
-2, ,-36, ,
1, ,-36, ,
-1, ,-36, ,
-9, ,-36, ,
3, ,-36, ,
6, ,-36, ,
4, ,-37, ,
0, ,-36, ,
5, ,-36, ,
-1, ,-36, ,
-1, ,-36, ,
-4, ,-36, ,
0, ,-36, ,
1, ,-36, ,
4, ,-36, ,
1, ,-36, ,
3, ,-36, ,
1, ,-36, ,
-4, ,-36, ,
-9, ,-36, ,
-2, ,-36, ,
-1, ,-36, ,
-1, ,-36, ,
-2, ,-36, ,
0, ,-36, ,
1, ,-36, ,
1, ,-36, ,
-4, ,-36, ,
0, ,-36, ,
6, ,-36, ,
1, ,-36, ,
-1, ,-36, ,
4, ,-36, ,
0, ,-36, ,
1, ,-36, ,
-4, ,-36, ,
-2, ,-36, ,
-1, ,-36, ,
-1, ,-36, ,
-1, ,-36, ,
1, ,-36, ,
8, ,-36, ,
3, ,-37, ,
-6, ,-36, ,
-2, ,-36, ,
-4, ,-36, ,
-1, ,-36, ,
-4, ,-36, ,
-1, ,-36, ,
3, ,-36, ,
4, ,-36, ,
0, ,-36, ,
3, ,-36, ,
5, ,-36, ,
1, ,-36, ,
-2, ,-36, ,
3, ,-36, ,
0, ,-36, ,
0, ,-36, ,
-1, ,-36, ,
0, ,-36, ,
0, ,-36, ,
3, ,-36, ,
-2, ,-36, ,
-1, ,-36, ,
1, ,-36, ,
-1, ,-37, ,
-5, ,-36, ,
0, ,-36, ,
0, ,-36, ,
-1, ,-36, ,
0, ,-36, ,
-1, ,-36, ,
1, ,-36, ,
1, ,-36, ,
-5, ,-36, ,
0, ,-36, ,
1, ,-36, ,
-4, ,-36, ,
-4, ,-36, ,
0, ,-36, ,
-2, ,-36, ,
-1, ,-36, ,
-2, ,-36, ,
-4, ,-36, ,
-1, ,-36, ,
1, ,-36, ,
-5, ,-36, ,
0, ,-36, ,
5, ,-36, ,
-1, ,-36, ,
-4, ,-36, ,
3, ,-36, ,
-2, ,-36, ,
-2, ,-36, ,
-4, ,-36, ,
-1, ,-36, ,
-1, ,-36, ,
-1, ,-36, ,
-2, ,-36, ,
-1, ,-36, ,
4, ,-36, ,
-2, ,-36, ,
-4, ,-36, ,
0, ,-36, ,
-1, ,-36, ,
0, ,-36, ,
0, ,-36, ,
3, ,-36, ,
4, ,-36, ,
1, ,-36, ,
-1, ,-36, ,
3, ,-36, ,
5, ,-36, ,
3, ,-36, ,
0, ,-36, ,
4, ,-36, ,
0, ,-36, ,
1, ,-36, ,
-1, ,-36, ,
1, ,-36, ,
4, ,-36, ,
4, ,-36, ,
-2, ,-36, ,
4, ,-36, ,
8, ,-36, ,
1, ,-37, ,
-1, ,-36, ,
4, ,-36, ,
0, ,-36, ,
-1, ,-36, ,
-1, ,-36, ,
1, ,-36, ,
3, ,-36, ,
4, ,-36, ,
-1, ,-36, ,
3, ,-36, ,
3, ,-36, ,
0, ,-37, ,
-4, ,-36, ,
3, ,-36, ,
4, ,-36, ,
1, ,-36, ,
3, ,-36, ,
5, ,-36, ,
4, ,-36, ,
3, ,-36, ,
-1, ,-36, ,
0, ,-36, ,
5, ,-36, ,
0, ,-36, ,
0, ,-36, ,
5, ,-36, ,
1, ,-36, ,
3, ,-36, ,
-1, ,-35, ,
3, ,-36, ,
1, ,-36, ,
1, ,-36, ,
-5, ,-36, ,
1, ,-36, ,
6, ,-36, ,
4, ,-37, ,
-1, ,-36, ,
5, ,-36, ,
3, ,-36, ,
1, ,-36, ,
0, ,-36, ,
1, ,-36, ,
