src/vary_am2_1412/temp0003012.CSV

Format,1.0B,
Memory Length,10000,Memory Length,10000,
IntpDistance,0,IntpDistance,0,
Trigger Address,4999,Trigger Address,4999,
Trigger Level,9.600E-01,Trigger Level,9.600E-01,
Source,CH1,Source,CH2,
Vertical Units,V,Vertical Units,V,
Vertical Units Div,0,Vertical Units Div,0,
Vertical Units Extend Div,16,Vertical Units Extend Div,16,
Label,,Label,,
Probe Type,0,Probe Type,0,
Probe Ratio,1.000e+01,Probe Ratio,1.000e+00,
Vertical Scale,2.000e-02,Vertical Scale,1.000e+00,
Vertical Position,-5.120e-02,Vertical Position,0.000e+00,
Horizontal Units,S,Horizontal Units,S,
Horizontal Scale,1.000E-05,Horizontal Scale,1.000E-05,
Horizontal Position,0.000E+00,Horizontal Position,0.000E+00,
Horizontal Mode,Main,Horizontal Mode,Main,
SincET Mode,Real Time,SincET Mode,Real Time,
Sampling Period,1.000e-08,Sampling Period,1.000e-08,
Horizontal Old Scale,1.000E-05,Horizontal Old Scale,1.000E-05,
Horizontal Old Position,0.000E+00,Horizontal Old Position,0.000E+00,
Firmware,V1.23,Firmware,V1.23,
Mode,Fast,Mode,Fast,
Waveform Data,,Waveform Data,,
4, ,-37, ,
1, ,-36, ,
-1, ,-36, ,
3, ,-36, ,
6, ,-36, ,
4, ,-36, ,
-5, ,-36, ,
0, ,-35, ,
-2, ,-37, ,
-4, ,-36, ,
-4, ,-35, ,
0, ,-36, ,
0, ,-36, ,
0, ,-35, ,
-2, ,-37, ,
0, ,-36, ,
3, ,-36, ,
-1, ,-36, ,
-1, ,-36, ,
4, ,-35, ,
1, ,-37, ,
0, ,-36, ,
-1, ,-36, ,
-2, ,-36, ,
-2, ,-37, ,
0, ,-36, ,
-4, ,-37, ,
1, ,-36, ,
8, ,-36, ,
4, ,-36, ,
3, ,-36, ,
4, ,-36, ,
3, ,-37, ,
-1, ,-36, ,
-1, ,-36, ,
1, ,-36, ,
0, ,-36, ,
3, ,-35, ,
-4, ,-37, ,
4, ,-36, ,
4, ,-36, ,
1, ,-36, ,
0, ,-36, ,
4, ,-35, ,
1, ,-37, ,
-1, ,-36, ,
-4, ,-36, ,
-2, ,-36, ,
-1, ,-36, ,
1, ,-35, ,
0, ,-36, ,
-1, ,-36, ,
1, ,-36, ,
-1, ,-36, ,
-1, ,-36, ,
5, ,-36, ,
0, ,-37, ,
1, ,-36, ,
-1, ,-36, ,
3, ,-36, ,
0, ,-36, ,
-2, ,-35, ,
-4, ,-37, ,
-5, ,-36, ,
0, ,-36, ,
0, ,-36, ,
-5, ,-36, ,
4, ,-35, ,
0, ,-37, ,
-1, ,-36, ,
-2, ,-36, ,
-2, ,-36, ,
-1, ,-36, ,
0, ,-36, ,
-5, ,-37, ,
-1, ,-36, ,
3, ,-36, ,
-1, ,-36, ,
-4, ,-36, ,
1, ,-35, ,
-2, ,-37, ,
-4, ,-36, ,
-4, ,-36, ,
-2, ,-36, ,
0, ,-36, ,
3, ,-35, ,
-1, ,-36, ,
0, ,-36, ,
3, ,-36, ,
0, ,-36, ,
-2, ,-36, ,
1, ,-35, ,
-1, ,-37, ,
-1, ,-36, ,
-4, ,-36, ,
0, ,-36, ,
1, ,-36, ,
-2, ,-36, ,
-6, ,-37, ,
-2, ,-36, ,
-1, ,-36, ,
-5, ,-36, ,
-4, ,-36, ,
1, ,-36, ,
0, ,-37, ,
1, ,-36, ,
-2, ,-36, ,
1, ,-36, ,
-1, ,-36, ,
0, ,-35, ,
-2, ,-37, ,
0, ,-36, ,
4, ,-36, ,
0, ,-36, ,
-4, ,-36, ,
1, ,-36, ,
0, ,-37, ,
-1, ,-36, ,
-1, ,-36, ,
1, ,-36, ,
4, ,-36, ,
4, ,-36, ,
1, ,-36, ,
1, ,-36, ,
0, ,-36, ,
-2, ,-36, ,
-6, ,-36, ,
-1, ,-35, ,
-1, ,-37, ,
0, ,-36, ,
-1, ,-36, ,
4, ,-36, ,
4, ,-36, ,
3, ,-35, ,
-1, ,-36, ,
3, ,-36, ,
1, ,-36, ,
-2, ,-36, ,
-2, ,-36, ,
1, ,-35, ,
1, ,-37, ,
1, ,-36, ,
0, ,-36, ,
0, ,-36, ,
1, ,-36, ,
1, ,-35, ,
-5, ,-36, ,
-1, ,-36, ,
-1, ,-36, ,
-1, ,-36, ,
-4, ,-36, ,
-1, ,-35, ,
1, ,-37, ,
-2, ,-36, ,
0, ,-36, ,
1, ,-36, ,
-1, ,-36, ,
1, ,-35, ,
-2, ,-36, ,
0, ,-36, ,
4, ,-36, ,
-2, ,-36, ,
-2, ,-36, ,
0, ,-35, ,
0, ,-37, ,
1, ,-36, ,
-4, ,-36, ,
3, ,-36, ,
4, ,-36, ,
4, ,-35, ,
0, ,-36, ,
5, ,-36, ,
4, ,-36, ,
0, ,-36, ,
-4, ,-36, ,
3, ,-35, ,
1, ,-37, ,
1, ,-36, ,
3, ,-36, ,
3, ,-36, ,
1, ,-36, ,
3, ,-36, ,
1, ,-36, ,
5, ,-36, ,
4, ,-36, ,
0, ,-36, ,
-4, ,-36, ,
1, ,-35, ,
0, ,-37, ,
4, ,-36, ,
5, ,-36, ,
6, ,-36, ,
8, ,-37, ,
5, ,-36, ,
0, ,-37, ,
4, ,-36, ,
0, ,-36, ,
-1, ,-36, ,
-2, ,-36, ,
0, ,-36, ,
1, ,-37, ,
-2, ,-36, ,
-4, ,-35, ,
0, ,-36, ,
0, ,-37, ,
4, ,-35, ,
0, ,-36, ,
8, ,-36, ,
9, ,-36, ,
3, ,-36, ,
-1, ,-36, ,
0, ,-36, ,
1, ,-37, ,
-2, ,-36, ,
-1, ,-36, ,
1, ,-36, ,
3, ,-36, ,
1, ,-35, ,
-4, ,-36, ,
1, ,-36, ,
1, ,-36, ,
-4, ,-36, ,
-1, ,-36, ,
4, ,-35, ,
4, ,-37, ,
1, ,-36, ,
3, ,-36, ,
3, ,-36, ,
1, ,-37, ,
1, ,-35, ,
-2, ,-36, ,
0, ,-36, ,
-1, ,-36, ,
-7, ,-36, ,
-2, ,-36, ,
0, ,-36, ,
-5, ,-37, ,
-1, ,-36, ,
-4, ,-36, ,
1, ,-36, ,
6, ,-37, ,
3, ,-36, ,
0, ,-36, ,
3, ,-36, ,
5, ,-36, ,
4, ,-36, ,
0, ,-36, ,
4, ,-36, ,
1, ,-37, ,
0, ,-36, ,
-2, ,-36, ,
-1, ,-36, ,
0, ,-36, ,
4, ,-35, ,
-1, ,-36, ,
4, ,-36, ,
4, ,-36, ,
1, ,-36, ,
-2, ,-36, ,
0, ,-36, ,
0, ,-36, ,
-4, ,-36, ,
-4, ,-36, ,
-2, ,-36, ,
-1, ,-36, ,
-1, ,-35, ,
-6, ,-36, ,
1, ,-36, ,
1, ,-36, ,
0, ,-36, ,
-2, ,-36, ,
3, ,-36, ,
-1, ,-37, ,
-1, ,-36, ,
-2, ,-35, ,
-2, ,-36, ,
0, ,-36, ,
5, ,-35, ,
3, ,-36, ,
6, ,-36, ,
10, ,-36, ,
9, ,-36, ,
-1, ,-36, ,
0, ,-35, ,
4, ,-37, ,
6, ,-36, ,
-1, ,-36, ,
-1, ,-36, ,
3, ,-36, ,
1, ,-36, ,
-4, ,-36, ,
5, ,-36, ,
4, ,-36, ,
-1, ,-36, ,
-2, ,-36, ,
0, ,-35, ,
-2, ,-37, ,
-4, ,-37, ,
-4, ,-35, ,
-1, ,-36, ,
-1, ,-36, ,
-2, ,-35, ,
-5, ,-37, ,
-4, ,-36, ,
-5, ,-36, ,
-10, ,-36, ,
-12, ,-36, ,
-6, ,-35, ,
-4, ,-37, ,
-1, ,-36, ,
-6, ,-36, ,
-6, ,-36, ,
-5, ,-36, ,
-5, ,-36, ,
-5, ,-37, ,
1, ,-36, ,
3, ,-36, ,
4, ,-36, ,
-4, ,-36, ,
1, ,-36, ,
0, ,-37, ,
-4, ,-36, ,
-5, ,-36, ,
0, ,-36, ,
1, ,-36, ,
4, ,-35, ,
3, ,-36, ,
6, ,-36, ,
9, ,-36, ,
1, ,-36, ,
-1, ,-36, ,
-1, ,-35, ,
-2, ,-36, ,
-6, ,-36, ,
-5, ,-36, ,
-2, ,-36, ,
0, ,-36, ,
1, ,-36, ,
-2, ,-36, ,
1, ,-36, ,
3, ,-36, ,
1, ,-36, ,
-2, ,-36, ,
8, ,-36, ,
9, ,-37, ,
-2, ,-36, ,
0, ,-36, ,
1, ,-36, ,
0, ,-36, ,
1, ,-35, ,
-4, ,-36, ,
1, ,-36, ,
4, ,-36, ,
0, ,-36, ,
-1, ,-36, ,
4, ,-36, ,
1, ,-37, ,
-1, ,-36, ,
-4, ,-36, ,
-2, ,-36, ,
-2, ,-36, ,
-4, ,-36, ,
-10, ,-36, ,
-5, ,-36, ,
-2, ,-36, ,
-2, ,-36, ,
-5, ,-36, ,
1, ,-36, ,
0, ,-37, ,
-16, ,-36, ,
-6, ,-36, ,
3, ,-36, ,
-2, ,-36, ,
3, ,-35, ,
-2, ,-37, ,
0, ,-36, ,
1, ,-36, ,
-4, ,-36, ,
-4, ,-36, ,
-2, ,-35, ,
-2, ,-37, ,
-1, ,-36, ,
1, ,-36, ,
4, ,-36, ,
8, ,-36, ,
4, ,-35, ,
0, ,-36, ,
4, ,-36, ,
4, ,-36, ,
0, ,-36, ,
5, ,-36, ,
4, ,-35, ,
5, ,-37, ,
4, ,-36, ,
3, ,-36, ,
4, ,-36, ,
4, ,-36, ,
4, ,-35, ,
-4, ,-37, ,
1, ,-36, ,
5, ,-36, ,
1, ,-36, ,
0, ,-36, ,
4, ,-36, ,
4, ,-37, ,
1, ,-36, ,
0, ,-36, ,
1, ,-36, ,
1, ,-36, ,
4, ,-35, ,
0, ,-36, ,
3, ,-36, ,
5, ,-36, ,
3, ,-36, ,
1, ,-36, ,
5, ,-36, ,
6, ,-36, ,
5, ,-37, ,
5, ,-36, ,
6, ,-37, ,
5, ,-36, ,
5, ,-35, ,
0, ,-37, ,
-1, ,-36, ,
1, ,-36, ,
-2, ,-36, ,
-5, ,-36, ,
0, ,-35, ,
1, ,-36, ,
3, ,-36, ,
1, ,-36, ,
5, ,-36, ,
6, ,-36, ,
5, ,-36, ,
-4, ,-37, ,
3, ,-36, ,
-1, ,-36, ,
0, ,-36, ,
-2, ,-36, ,
3, ,-35, ,
-1, ,-37, ,
-2, ,-36, ,
-2, ,-36, ,
0, ,-36, ,
1, ,-36, ,
3, ,-35, ,
-1, ,-37, ,
4, ,-36, ,
4, ,-36, ,
3, ,-36, ,
1, ,-36, ,
5, ,-36, ,
5, ,-37, ,
3, ,-36, ,
3, ,-36, ,
5, ,-36, ,
5, ,-37, ,
4, ,-35, ,
-1, ,-36, ,
1, ,-36, ,
4, ,-36, ,
1, ,-36, ,
-1, ,-36, ,
4, ,-36, ,
5, ,-37, ,
4, ,-36, ,
3, ,-36, ,
5, ,-36, ,
5, ,-36, ,
3, ,-35, ,
-2, ,-36, ,
0, ,-36, ,
1, ,-36, ,
-2, ,-36, ,
-5, ,-36, ,
0, ,-36, ,
1, ,-37, ,
0, ,-36, ,
-1, ,-36, ,
1, ,-36, ,
1, ,-37, ,
-2, ,-35, ,
-2, ,-36, ,
-1, ,-36, ,
-1, ,-36, ,
1, ,-36, ,
-1, ,-36, ,
6, ,-36, ,
9, ,-37, ,
9, ,-36, ,
5, ,-36, ,
6, ,-36, ,
8, ,-37, ,
9, ,-35, ,
5, ,-36, ,
10, ,-36, ,
11, ,-36, ,
6, ,-36, ,
3, ,-36, ,
6, ,-36, ,
5, ,-37, ,
3, ,-36, ,
5, ,-36, ,
5, ,-36, ,
5, ,-37, ,
4, ,-36, ,
-4, ,-36, ,
0, ,-36, ,
-2, ,-36, ,
-5, ,-36, ,
-5, ,-36, ,
-4, ,-36, ,
-1, ,-37, ,
-1, ,-36, ,
-1, ,-36, ,
-1, ,-36, ,
-2, ,-36, ,
0, ,-35, ,
-5, ,-37, ,
-1, ,-36, ,
4, ,-36, ,
1, ,-36, ,
-6, ,-36, ,
4, ,-32, ,
5, ,-23, ,
4, ,-13, ,
4, ,-3, ,
6, ,5, ,
8, ,12, ,
6, ,18, ,
3, ,24, ,
6, ,28, ,
10, ,33, ,
8, ,36, ,
5, ,38, ,
6, ,40, ,
3, ,44, ,
1, ,45, ,
-1, ,46, ,
1, ,49, ,
0, ,50, ,
4, ,50, ,
-6, ,53, ,
-2, ,53, ,
-2, ,53, ,
-4, ,54, ,
-9, ,54, ,
-4, ,53, ,
-5, ,56, ,
-6, ,55, ,
-4, ,55, ,
0, ,56, ,
4, ,56, ,
3, ,54, ,
1, ,57, ,
4, ,57, ,
4, ,56, ,
3, ,57, ,
-2, ,57, ,
4, ,55, ,
4, ,58, ,
1, ,56, ,
4, ,57, ,
5, ,57, ,
4, ,57, ,
8, ,55, ,
1, ,58, ,
6, ,57, ,
8, ,57, ,
6, ,57, ,
4, ,57, ,
8, ,56, ,
3, ,58, ,
0, ,57, ,
-2, ,57, ,
-1, ,58, ,
-4, ,58, ,
1, ,55, ,
-6, ,58, ,
0, ,57, ,
-1, ,57, ,
-4, ,57, ,
-5, ,58, ,
-5, ,56, ,
-7, ,58, ,
-9, ,56, ,
-10, ,57, ,
-5, ,57, ,
-7, ,57, ,
-2, ,55, ,
-6, ,57, ,
-4, ,57, ,
-4, ,56, ,
-7, ,57, ,
-6, ,57, ,
1, ,56, ,
-2, ,58, ,
0, ,56, ,
0, ,57, ,
1, ,57, ,
3, ,57, ,
1, ,55, ,
-2, ,58, ,
3, ,57, ,
3, ,56, ,
3, ,57, ,
-1, ,57, ,
5, ,55, ,
4, ,58, ,
1, ,56, ,
-6, ,56, ,
-6, ,57, ,
-5, ,57, ,
-4, ,55, ,
-6, ,58, ,
0, ,57, ,
-2, ,56, ,
-5, ,57, ,
-10, ,57, ,
-7, ,55, ,
-12, ,58, ,
-11, ,56, ,
-14, ,57, ,
-7, ,57, ,
-6, ,57, ,
-4, ,55, ,
-9, ,58, ,
-2, ,57, ,
-2, ,56, ,
-2, ,57, ,
-5, ,57, ,
-2, ,55, ,
-1, ,58, ,
-1, ,56, ,
1, ,56, ,
3, ,57, ,
3, ,57, ,
8, ,55, ,
1, ,57, ,
3, ,56, ,
5, ,56, ,
4, ,57, ,
4, ,57, ,
5, ,55, ,
3, ,58, ,
5, ,56, ,
1, ,56, ,
1, ,57, ,
0, ,57, ,
1, ,55, ,
-6, ,57, ,
-2, ,57, ,
1, ,56, ,
-1, ,57, ,
-4, ,57, ,
1, ,55, ,
-1, ,57, ,
0, ,56, ,
-1, ,56, ,
-1, ,57, ,
-1, ,57, ,
-2, ,54, ,
-6, ,57, ,
-4, ,57, ,
-1, ,56, ,
-4, ,57, ,
-6, ,57, ,
-1, ,55, ,
-2, ,57, ,
1, ,56, ,
3, ,56, ,
4, ,57, ,
6, ,57, ,
4, ,55, ,
4, ,57, ,
5, ,56, ,
5, ,56, ,
4, ,56, ,
1, ,57, ,
4, ,55, ,
3, ,58, ,
4, ,56, ,
4, ,56, ,
3, ,57, ,
0, ,57, ,
1, ,55, ,
-9, ,57, ,
-2, ,56, ,
-1, ,56, ,
-4, ,57, ,
-5, ,57, ,
-4, ,55, ,
-6, ,57, ,
-9, ,56, ,
-9, ,56, ,
-9, ,57, ,
-5, ,57, ,
-4, ,55, ,
-6, ,58, ,
-1, ,57, ,
-4, ,56, ,
-1, ,56, ,
-5, ,57, ,
1, ,55, ,
-2, ,58, ,
0, ,56, ,
0, ,56, ,
5, ,57, ,
8, ,57, ,
8, ,55, ,
1, ,58, ,
6, ,57, ,
6, ,56, ,
4, ,57, ,
4, ,57, ,
11, ,55, ,
9, ,57, ,
10, ,56, ,
6, ,56, ,
6, ,57, ,
4, ,57, ,
3, ,54, ,
-4, ,57, ,
0, ,57, ,
1, ,56, ,
3, ,57, ,
-1, ,57, ,
4, ,56, ,
-1, ,57, ,
-1, ,56, ,
0, ,56, ,
0, ,57, ,
1, ,57, ,
3, ,54, ,
-1, ,57, ,
3, ,57, ,
3, ,56, ,
-1, ,57, ,
4, ,57, ,
6, ,54, ,
6, ,57, ,
5, ,56, ,
6, ,56, ,
5, ,57, ,
5, ,57, ,
4, ,55, ,
3, ,57, ,
8, ,57, ,
5, ,56, ,
5, ,56, ,
3, ,57, ,
6, ,55, ,
8, ,57, ,
3, ,56, ,
1, ,56, ,
4, ,57, ,
3, ,57, ,
5, ,54, ,
-1, ,57, ,
1, ,56, ,
3, ,56, ,
0, ,57, ,
-1, ,57, ,
3, ,55, ,
-1, ,57, ,
0, ,56, ,
1, ,56, ,
-1, ,57, ,
-2, ,57, ,
-2, ,54, ,
-4, ,58, ,
-1, ,56, ,
1, ,56, ,
-1, ,56, ,
-2, ,57, ,
5, ,55, ,
1, ,57, ,
1, ,56, ,
1, ,56, ,
3, ,57, ,
3, ,57, ,
3, ,54, ,
1, ,57, ,
3, ,57, ,
4, ,57, ,
3, ,57, ,
-2, ,56, ,
1, ,55, ,
-5, ,57, ,
-7, ,56, ,
-9, ,57, ,
-10, ,57, ,
-5, ,57, ,
-2, ,54, ,
-4, ,57, ,
0, ,57, ,
1, ,56, ,
-1, ,57, ,
-1, ,57, ,
13, ,55, ,
5, ,58, ,
9, ,56, ,
9, ,56, ,
6, ,57, ,
5, ,57, ,
4, ,54, ,
-6, ,58, ,
-4, ,56, ,
0, ,57, ,
-1, ,57, ,
-4, ,57, ,
3, ,55, ,
0, ,57, ,
-1, ,56, ,
-2, ,56, ,
-1, ,57, ,
0, ,56, ,
3, ,54, ,
-4, ,58, ,
1, ,57, ,
3, ,56, ,
1, ,57, ,
1, ,57, ,
4, ,55, ,
3, ,57, ,
3, ,56, ,
0, ,56, ,
3, ,57, ,
4, ,57, ,
1, ,55, ,
0, ,57, ,
6, ,57, ,
1, ,56, ,
0, ,56, ,
-7, ,57, ,
-1, ,55, ,
-6, ,57, ,
-2, ,56, ,
-1, ,56, ,
-1, ,57, ,
1, ,57, ,
3, ,55, ,
-2, ,57, ,
-1, ,56, ,
0, ,56, ,
-4, ,56, ,
-7, ,57, ,
-2, ,55, ,
-6, ,57, ,
-4, ,56, ,
-4, ,56, ,
-2, ,57, ,
-1, ,57, ,
3, ,54, ,
-2, ,57, ,
3, ,57, ,
3, ,57, ,
3, ,56, ,
-2, ,57, ,
0, ,55, ,
-4, ,57, ,
-1, ,56, ,
-5, ,56, ,
-4, ,57, ,
0, ,56, ,
0, ,54, ,
-1, ,57, ,
5, ,57, ,
4, ,56, ,
3, ,57, ,
1, ,57, ,
3, ,55, ,
0, ,57, ,
-4, ,56, ,
-1, ,56, ,
0, ,57, ,
-1, ,57, ,
4, ,54, ,
0, ,57, ,
4, ,56, ,
5, ,56, ,
1, ,56, ,
-1, ,57, ,
-1, ,55, ,
-1, ,58, ,
-1, ,56, ,
-1, ,56, ,
1, ,57, ,
0, ,57, ,
4, ,54, ,
-1, ,57, ,
0, ,57, ,
3, ,56, ,
1, ,56, ,
1, ,57, ,
9, ,55, ,
5, ,57, ,
3, ,56, ,
3, ,56, ,
4, ,57, ,
0, ,57, ,
1, ,54, ,
0, ,58, ,
0, ,57, ,
5, ,57, ,
0, ,56, ,
-2, ,57, ,
0, ,55, ,
-4, ,58, ,
-4, ,56, ,
-2, ,56, ,
-1, ,57, ,
0, ,56, ,
1, ,55, ,
-4, ,58, ,
0, ,56, ,
0, ,56, ,
-1, ,57, ,
-6, ,57, ,
0, ,55, ,
1, ,58, ,
-4, ,56, ,
-5, ,56, ,
-4, ,57, ,
-2, ,57, ,
-1, ,55, ,
-5, ,57, ,
0, ,56, ,
4, ,56, ,
4, ,56, ,
1, ,57, ,
6, ,55, ,
1, ,57, ,
4, ,56, ,
1, ,56, ,
4, ,57, ,
3, ,57, ,
3, ,54, ,
-4, ,58, ,
3, ,57, ,
3, ,56, ,
1, ,57, ,
0, ,56, ,
1, ,56, ,
3, ,57, ,
3, ,56, ,
-2, ,56, ,
1, ,57, ,
0, ,57, ,
3, ,54, ,
-1, ,57, ,
1, ,56, ,
5, ,56, ,
1, ,57, ,
0, ,57, ,
4, ,55, ,
3, ,57, ,
5, ,56, ,
4, ,56, ,
3, ,57, ,
4, ,57, ,
0, ,55, ,
-1, ,58, ,
0, ,56, ,
1, ,56, ,
0, ,56, ,
-2, ,56, ,
4, ,55, ,
0, ,57, ,
4, ,56, ,
4, ,56, ,
3, ,57, ,
-1, ,57, ,
3, ,54, ,
0, ,57, ,
3, ,56, ,
0, ,56, ,
0, ,57, ,
-1, ,56, ,
6, ,55, ,
3, ,57, ,
3, ,56, ,
4, ,56, ,
0, ,57, ,
3, ,56, ,
3, ,54, ,
-1, ,57, ,
4, ,57, ,
4, ,56, ,
3, ,57, ,
-1, ,57, ,
3, ,55, ,
0, ,57, ,
3, ,56, ,
-1, ,56, ,
4, ,57, ,
1, ,57, ,
5, ,54, ,
0, ,57, ,
4, ,56, ,
5, ,56, ,
3, ,56, ,
0, ,57, ,
5, ,55, ,
5, ,57, ,
5, ,55, ,
3, ,56, ,
5, ,57, ,
4, ,56, ,
3, ,55, ,
-1, ,58, ,
1, ,56, ,
3, ,56, ,
4, ,57, ,
4, ,57, ,
10, ,54, ,
6, ,57, ,
8, ,56, ,
3, ,56, ,
3, ,57, ,
5, ,57, ,
6, ,54, ,
-1, ,57, ,
1, ,56, ,
4, ,56, ,
3, ,56, ,
-1, ,57, ,
5, ,55, ,
4, ,58, ,
5, ,56, ,
5, ,56, ,
4, ,57, ,
4, ,57, ,
4, ,55, ,
3, ,58, ,
6, ,56, ,
8, ,56, ,
8, ,56, ,
3, ,57, ,
4, ,55, ,
1, ,57, ,
3, ,56, ,
4, ,56, ,
5, ,57, ,
5, ,57, ,
3, ,54, ,
0, ,57, ,
3, ,57, ,
4, ,57, ,
1, ,57, ,
-1, ,57, ,
4, ,55, ,
3, ,58, ,
5, ,56, ,
4, ,56, ,
4, ,57, ,
1, ,57, ,
5, ,55, ,
-4, ,57, ,
-1, ,56, ,
1, ,56, ,
-2, ,57, ,
-1, ,56, ,
-2, ,55, ,
-5, ,57, ,
-4, ,56, ,
-2, ,56, ,
-1, ,57, ,
-4, ,57, ,
0, ,54, ,
-2, ,57, ,
-6, ,56, ,
-9, ,57, ,
-2, ,57, ,
-1, ,57, ,
0, ,55, ,
-2, ,57, ,
-1, ,56, ,
-4, ,56, ,
-4, ,57, ,
0, ,57, ,
1, ,54, ,
-4, ,58, ,
0, ,57, ,
0, ,56, ,
-2, ,57, ,
-5, ,57, ,
-2, ,55, ,
-4, ,57, ,
-2, ,56, ,
1, ,56, ,
0, ,57, ,
1, ,57, ,
3, ,54, ,
-2, ,57, ,
-2, ,57, ,
0, ,56, ,
-4, ,57, ,
-10, ,57, ,
-2, ,55, ,
-5, ,58, ,
-5, ,56, ,
-7, ,56, ,
-4, ,57, ,
-4, ,57, ,
-4, ,54, ,
-6, ,58, ,
-2, ,57, ,
0, ,56, ,
-4, ,57, ,
-6, ,57, ,
-1, ,56, ,
-5, ,57, ,
-6, ,56, ,
-6, ,56, ,
-4, ,57, ,
-5, ,57, ,
-1, ,54, ,
-2, ,57, ,
-1, ,56, ,
1, ,56, ,
-2, ,56, ,
-2, ,57, ,
-1, ,55, ,
-4, ,57, ,
-6, ,56, ,
-7, ,56, ,
-2, ,57, ,
-1, ,57, ,
0, ,55, ,
-2, ,57, ,
-1, ,57, ,
-4, ,56, ,
-6, ,57, ,
-9, ,57, ,
-4, ,55, ,
-4, ,57, ,
-1, ,55, ,
-2, ,56, ,
-1, ,57, ,
0, ,56, ,
-2, ,54, ,
-4, ,57, ,
-1, ,56, ,
0, ,56, ,
-4, ,57, ,
-7, ,57, ,
-1, ,55, ,
-4, ,58, ,
-5, ,56, ,
-5, ,56, ,
-5, ,57, ,
-2, ,57, ,
0, ,55, ,
-2, ,58, ,
3, ,57, ,
3, ,56, ,
-1, ,57, ,
1, ,57, ,
-9, ,56, ,
-5, ,57, ,
1, ,56, ,
-6, ,56, ,
-1, ,57, ,
-2, ,57, ,
1, ,54, ,
3, ,57, ,
9, ,56, ,
21, ,56, ,
43, ,56, ,
63, ,57, ,
69, ,55, ,
72, ,58, ,
59, ,56, ,
46, ,56, ,
35, ,57, ,
30, ,57, ,
24, ,55, ,
16, ,58, ,
16, ,57, ,
15, ,56, ,
9, ,57, ,
6, ,57, ,
8, ,56, ,
9, ,57, ,
6, ,56, ,
4, ,56, ,
6, ,57, ,
3, ,57, ,
4, ,55, ,
1, ,57, ,
4, ,57, ,
10, ,56, ,
9, ,56, ,
8, ,57, ,
8, ,55, ,
3, ,57, ,
4, ,56, ,
6, ,56, ,
6, ,57, ,
5, ,57, ,
8, ,55, ,
6, ,57, ,
8, ,57, ,
10, ,56, ,
5, ,56, ,
3, ,57, ,
6, ,55, ,
5, ,57, ,
4, ,56, ,
4, ,56, ,
9, ,57, ,
9, ,57, ,
10, ,54, ,
5, ,58, ,
9, ,56, ,
5, ,56, ,
1, ,57, ,
-4, ,57, ,
3, ,55, ,
1, ,58, ,
4, ,56, ,
3, ,56, ,
1, ,57, ,
1, ,57, ,
3, ,55, ,
4, ,58, ,
8, ,57, ,
9, ,56, ,
9, ,56, ,
3, ,57, ,
5, ,55, ,
4, ,57, ,
1, ,56, ,
5, ,55, ,
6, ,57, ,
5, ,57, ,
9, ,54, ,
0, ,58, ,
4, ,57, ,
8, ,56, ,
4, ,57, ,
6, ,57, ,
8, ,55, ,
3, ,58, ,
6, ,56, ,
5, ,56, ,
5, ,57, ,
6, ,57, ,
8, ,55, ,
6, ,57, ,
6, ,57, ,
13, ,56, ,
9, ,57, ,
-1, ,57, ,
10, ,55, ,
6, ,57, ,
6, ,56, ,
6, ,56, ,
6, ,57, ,
6, ,57, ,
8, ,54, ,
1, ,57, ,
3, ,57, ,
5, ,56, ,
3, ,57, ,
3, ,57, ,
13, ,54, ,
8, ,53, ,
5, ,41, ,
3, ,32, ,
0, ,23, ,
3, ,14, ,
5, ,7, ,
0, ,1, ,
5, ,-4, ,
5, ,-8, ,
6, ,-13, ,
1, ,-16, ,
5, ,-19, ,
4, ,-21, ,
0, ,-23, ,
3, ,-25, ,
-1, ,-26, ,
5, ,-28, ,
8, ,-28, ,
-4, ,-31, ,
6, ,-32, ,
4, ,-32, ,
3, ,-33, ,
-2, ,-34, ,
4, ,-34, ,
4, ,-35, ,
5, ,-35, ,
3, ,-35, ,
4, ,-35, ,
4, ,-36, ,
4, ,-35, ,
-2, ,-36, ,
1, ,-36, ,
3, ,-36, ,
3, ,-36, ,
1, ,-37, ,
4, ,-35, ,
4, ,-37, ,
8, ,-37, ,
4, ,-37, ,
4, ,-37, ,
3, ,-37, ,
3, ,-36, ,
-5, ,-37, ,
0, ,-36, ,
4, ,-37, ,
3, ,-37, ,
1, ,-37, ,
8, ,-36, ,
4, ,-37, ,
3, ,-37, ,
-1, ,-37, ,
1, ,-37, ,
1, ,-37, ,
1, ,-36, ,
-5, ,-37, ,
-1, ,-36, ,
3, ,-37, ,
1, ,-37, ,
-5, ,-37, ,
3, ,-36, ,
4, ,-37, ,
4, ,-37, ,
3, ,-36, ,
3, ,-37, ,
3, ,-37, ,
1, ,-36, ,
-2, ,-37, ,
4, ,-36, ,
4, ,-37, ,
1, ,-36, ,
-2, ,-37, ,
4, ,-36, ,
3, ,-37, ,
0, ,-36, ,
1, ,-37, ,
1, ,-36, ,
4, ,-37, ,
1, ,-36, ,
-4, ,-37, ,
3, ,-36, ,
3, ,-36, ,
0, ,-37, ,
-4, ,-37, ,
3, ,-36, ,
1, ,-37, ,
1, ,-37, ,
-2, ,-36, ,
0, ,-36, ,
-1, ,-36, ,
0, ,-35, ,
-4, ,-37, ,
0, ,-36, ,
1, ,-37, ,
-1, ,-36, ,
-4, ,-36, ,
1, ,-36, ,
1, ,-37, ,
0, ,-36, ,
-2, ,-36, ,
0, ,-36, ,
-1, ,-37, ,
-1, ,-36, ,
-5, ,-37, ,
0, ,-36, ,
0, ,-36, ,
-1, ,-36, ,
-5, ,-36, ,
-1, ,-36, ,
-4, ,-37, ,
-2, ,-36, ,
-2, ,-36, ,
0, ,-36, ,
1, ,-37, ,
0, ,-35, ,
-5, ,-37, ,
-1, ,-36, ,
-2, ,-36, ,
-5, ,-36, ,
-6, ,-36, ,
-1, ,-36, ,
-4, ,-37, ,
-1, ,-36, ,
-2, ,-36, ,
0, ,-36, ,
3, ,-37, ,
0, ,-36, ,
-4, ,-37, ,
1, ,-36, ,
1, ,-36, ,
-2, ,-36, ,
-1, ,-36, ,
3, ,-36, ,
-1, ,-37, ,
-2, ,-36, ,
-6, ,-36, ,
-4, ,-37, ,
-1, ,-37, ,
-2, ,-36, ,
-5, ,-37, ,
0, ,-36, ,
1, ,-36, ,
-2, ,-36, ,
-4, ,-36, ,
-2, ,-36, ,
-1, ,-37, ,
-2, ,-36, ,
0, ,-36, ,
1, ,-36, ,
4, ,-37, ,
5, ,-35, ,
-1, ,-36, ,
4, ,-36, ,
4, ,-36, ,
0, ,-36, ,
-2, ,-36, ,
1, ,-36, ,
3, ,-37, ,
0, ,-36, ,
-2, ,-36, ,
1, ,-37, ,
1, ,-36, ,
3, ,-35, ,
-2, ,-37, ,
0, ,-36, ,
5, ,-36, ,
0, ,-36, ,
0, ,-36, ,
4, ,-36, ,
1, ,-37, ,
3, ,-36, ,
-2, ,-36, ,
1, ,-36, ,
3, ,-36, ,
0, ,-36, ,
-1, ,-36, ,
3, ,-36, ,
6, ,-36, ,
5, ,-36, ,
0, ,-36, ,
4, ,-36, ,
3, ,-37, ,
0, ,-36, ,
-1, ,-36, ,
0, ,-37, ,
1, ,-36, ,
3, ,-35, ,
1, ,-37, ,
6, ,-36, ,
5, ,-36, ,
1, ,-36, ,
-2, ,-36, ,
0, ,-36, ,
0, ,-37, ,
-2, ,-36, ,
0, ,-36, ,
3, ,-36, ,
8, ,-36, ,
6, ,-35, ,
3, ,-37, ,
5, ,-36, ,
4, ,-36, ,
3, ,-36, ,
-1, ,-36, ,
5, ,-35, ,
6, ,-37, ,
1, ,-36, ,
1, ,-36, ,
3, ,-36, ,
3, ,-36, ,
3, ,-35, ,
0, ,-37, ,
3, ,-36, ,
8, ,-36, ,
4, ,-36, ,
5, ,-36, ,
9, ,-36, ,
5, ,-36, ,
4, ,-36, ,
3, ,-36, ,
4, ,-36, ,
5, ,-36, ,
4, ,-35, ,
1, ,-37, ,
5, ,-36, ,
9, ,-36, ,
6, ,-36, ,
4, ,-36, ,
10, ,-35, ,
5, ,-37, ,
5, ,-36, ,
5, ,-36, ,
9, ,-36, ,
9, ,-37, ,
9, ,-35, ,
6, ,-36, ,
4, ,-36, ,
6, ,-36, ,
4, ,-36, ,
0, ,-36, ,
6, ,-35, ,
4, ,-37, ,
4, ,-36, ,
4, ,-36, ,
4, ,-36, ,
6, ,-37, ,
5, ,-36, ,
1, ,-36, ,
5, ,-36, ,
8, ,-36, ,
6, ,-36, ,
4, ,-36, ,
8, ,-36, ,
6, ,-36, ,
5, ,-36, ,
3, ,-36, ,
4, ,-37, ,
4, ,-36, ,
5, ,-35, ,
1, ,-37, ,
5, ,-36, ,
10, ,-36, ,
8, ,-36, ,
5, ,-36, ,
8, ,-35, ,
6, ,-37, ,
5, ,-36, ,
3, ,-36, ,
5, ,-36, ,
6, ,-36, ,
5, ,-35, ,
4, ,-37, ,
6, ,-36, ,
6, ,-36, ,
3, ,-36, ,
0, ,-36, ,
3, ,-35, ,
4, ,-37, ,
3, ,-36, ,
1, ,-36, ,
3, ,-36, ,
1, ,-37, ,
5, ,-35, ,
-1, ,-37, ,
3, ,-36, ,
6, ,-36, ,
3, ,-36, ,
0, ,-36, ,
9, ,-35, ,
8, ,-37, ,
6, ,-36, ,
5, ,-36, ,
5, ,-36, ,
6, ,-36, ,
4, ,-35, ,
-1, ,-37, ,
4, ,-36, ,
4, ,-36, ,
4, ,-36, ,
1, ,-36, ,
4, ,-35, ,
5, ,-37, ,
4, ,-36, ,
3, ,-36, ,
3, ,-36, ,
4, ,-37, ,
5, ,-35, ,
-1, ,-37, ,
3, ,-36, ,
6, ,-36, ,
5, ,-36, ,
0, ,-36, ,
5, ,-36, ,
4, ,-37, ,
5, ,-36, ,
3, ,-36, ,
5, ,-36, ,
5, ,-36, ,
4, ,-35, ,
-2, ,-36, ,
4, ,-36, ,
4, ,-36, ,
3, ,-36, ,
-1, ,-36, ,
5, ,-36, ,
4, ,-37, ,
4, ,-36, ,
-1, ,-36, ,
3, ,-36, ,
-2, ,-36, ,
0, ,-35, ,
-6, ,-36, ,
0, ,-36, ,
4, ,-36, ,
1, ,-36, ,
1, ,-36, ,
6, ,-36, ,
5, ,-37, ,
3, ,-36, ,
0, ,-35, ,
0, ,-36, ,
0, ,-36, ,
0, ,-36, ,
-5, ,-37, ,
0, ,-36, ,
4, ,-36, ,
0, ,-36, ,
-5, ,-36, ,
3, ,-36, ,
1, ,-37, ,
-1, ,-36, ,
-1, ,-36, ,
1, ,-36, ,
0, ,-36, ,
1, ,-35, ,
-6, ,-36, ,
-2, ,-36, ,
0, ,-36, ,
-4, ,-36, ,
-5, ,-36, ,
-1, ,-36, ,
-1, ,-37, ,
0, ,-36, ,
-2, ,-36, ,
-1, ,-36, ,
3, ,-36, ,
1, ,-35, ,
-6, ,-36, ,
1, ,-36, ,
3, ,-36, ,
1, ,-36, ,
-2, ,-36, ,
4, ,-36, ,
4, ,-37, ,
0, ,-36, ,
0, ,-36, ,
0, ,-36, ,
0, ,-37, ,
3, ,-35, ,
-4, ,-36, ,
-1, ,-36, ,
1, ,-36, ,
-2, ,-36, ,
-2, ,-36, ,
3, ,-36, ,
0, ,-36, ,
-1, ,-36, ,
-4, ,-36, ,
1, ,-36, ,
0, ,-36, ,
3, ,-35, ,
-2, ,-36, ,
1, ,-36, ,
1, ,-36, ,
-2, ,-36, ,
-2, ,-36, ,
0, ,-35, ,
-1, ,-37, ,
-5, ,-36, ,
-4, ,-36, ,
0, ,-36, ,
-1, ,-37, ,
0, ,-35, ,
-5, ,-36, ,
-2, ,-36, ,
3, ,-36, ,
0, ,-36, ,
-2, ,-36, ,
1, ,-35, ,
-1, ,-37, ,
0, ,-36, ,
1, ,-36, ,
1, ,-36, ,
4, ,-36, ,
0, ,-36, ,
-4, ,-36, ,
-2, ,-36, ,
-1, ,-36, ,
-1, ,-36, ,
-5, ,-36, ,
1, ,-35, ,
1, ,-37, ,
-1, ,-36, ,
0, ,-36, ,
0, ,-36, ,
0, ,-36, ,
0, ,-35, ,
-4, ,-36, ,
1, ,-36, ,
4, ,-36, ,
-1, ,-36, ,
-5, ,-36, ,
-1, ,-35, ,
-6, ,-37, ,
-5, ,-36, ,
-5, ,-36, ,
-1, ,-36, ,
0, ,-36, ,
6, ,-36, ,
0, ,-37, ,
0, ,-36, ,
4, ,-36, ,
0, ,-36, ,
-5, ,-36, ,
-2, ,-36, ,
-1, ,-37, ,
-4, ,-36, ,
-1, ,-36, ,
1, ,-36, ,
3, ,-36, ,
5, ,-35, ,
-1, ,-36, ,
3, ,-36, ,
6, ,-36, ,
3, ,-36, ,
0, ,-36, ,
3, ,-36, ,
4, ,-37, ,
4, ,-36, ,
1, ,-36, ,
1, ,-36, ,
3, ,-36, ,
3, ,-36, ,
-4, ,-37, ,
3, ,-36, ,
3, ,-36, ,
0, ,-36, ,
