src/vary_am2_1412/temp0000245.CSV

Format,1.0B,
Memory Length,10000,Memory Length,10000,
IntpDistance,0,IntpDistance,0,
Trigger Address,4999,Trigger Address,4999,
Trigger Level,9.600E-01,Trigger Level,9.600E-01,
Source,CH1,Source,CH2,
Vertical Units,V,Vertical Units,V,
Vertical Units Div,0,Vertical Units Div,0,
Vertical Units Extend Div,16,Vertical Units Extend Div,16,
Label,,Label,,
Probe Type,0,Probe Type,0,
Probe Ratio,1.000e+01,Probe Ratio,1.000e+00,
Vertical Scale,2.000e-02,Vertical Scale,1.000e+00,
Vertical Position,-5.120e-02,Vertical Position,0.000e+00,
Horizontal Units,S,Horizontal Units,S,
Horizontal Scale,1.000E-05,Horizontal Scale,1.000E-05,
Horizontal Position,0.000E+00,Horizontal Position,0.000E+00,
Horizontal Mode,Main,Horizontal Mode,Main,
SincET Mode,Real Time,SincET Mode,Real Time,
Sampling Period,1.000e-08,Sampling Period,1.000e-08,
Horizontal Old Scale,1.000E-05,Horizontal Old Scale,1.000E-05,
Horizontal Old Position,0.000E+00,Horizontal Old Position,0.000E+00,
Firmware,V1.23,Firmware,V1.23,
Mode,Fast,Mode,Fast,
Waveform Data,,Waveform Data,,
3, ,-47, ,
1, ,-47, ,
-2, ,-49, ,
3, ,-47, ,
5, ,-47, ,
5, ,-47, ,
4, ,-49, ,
5, ,-46, ,
6, ,-49, ,
5, ,-47, ,
-1, ,-47, ,
0, ,-47, ,
4, ,-47, ,
0, ,-47, ,
-1, ,-49, ,
6, ,-47, ,
6, ,-47, ,
6, ,-47, ,
5, ,-47, ,
5, ,-46, ,
8, ,-47, ,
3, ,-46, ,
-1, ,-47, ,
5, ,-47, ,
5, ,-47, ,
3, ,-46, ,
1, ,-49, ,
1, ,-47, ,
5, ,-46, ,
3, ,-47, ,
0, ,-47, ,
5, ,-46, ,
3, ,-49, ,
6, ,-47, ,
1, ,-47, ,
5, ,-47, ,
5, ,-47, ,
1, ,-46, ,
-1, ,-49, ,
5, ,-47, ,
3, ,-47, ,
4, ,-47, ,
4, ,-47, ,
3, ,-46, ,
6, ,-49, ,
6, ,-47, ,
0, ,-47, ,
3, ,-47, ,
3, ,-47, ,
3, ,-46, ,
1, ,-49, ,
3, ,-47, ,
4, ,-46, ,
4, ,-47, ,
5, ,-47, ,
5, ,-46, ,
1, ,-49, ,
6, ,-46, ,
4, ,-47, ,
1, ,-47, ,
6, ,-47, ,
1, ,-46, ,
-1, ,-49, ,
3, ,-47, ,
-2, ,-47, ,
-2, ,-47, ,
5, ,-47, ,
4, ,-46, ,
3, ,-49, ,
6, ,-47, ,
-1, ,-47, ,
5, ,-47, ,
4, ,-47, ,
3, ,-46, ,
0, ,-49, ,
5, ,-47, ,
5, ,-47, ,
1, ,-47, ,
-1, ,-47, ,
-2, ,-46, ,
-1, ,-49, ,
1, ,-47, ,
1, ,-47, ,
6, ,-46, ,
5, ,-47, ,
1, ,-46, ,
-4, ,-47, ,
0, ,-47, ,
0, ,-47, ,
3, ,-47, ,
1, ,-49, ,
8, ,-45, ,
9, ,-47, ,
5, ,-47, ,
-4, ,-47, ,
-1, ,-47, ,
0, ,-47, ,
-7, ,-46, ,
-7, ,-49, ,
-1, ,-47, ,
0, ,-47, ,
0, ,-47, ,
-2, ,-47, ,
0, ,-46, ,
1, ,-49, ,
4, ,-47, ,
1, ,-46, ,
4, ,-47, ,
9, ,-47, ,
4, ,-46, ,
0, ,-49, ,
5, ,-47, ,
3, ,-47, ,
1, ,-47, ,
0, ,-47, ,
-2, ,-46, ,
0, ,-47, ,
-2, ,-47, ,
-2, ,-47, ,
0, ,-47, ,
1, ,-47, ,
1, ,-46, ,
-4, ,-49, ,
0, ,-47, ,
0, ,-47, ,
-1, ,-47, ,
-2, ,-47, ,
1, ,-46, ,
0, ,-49, ,
3, ,-47, ,
-4, ,-47, ,
1, ,-47, ,
4, ,-47, ,
-1, ,-46, ,
-4, ,-47, ,
1, ,-47, ,
-1, ,-47, ,
-1, ,-47, ,
-2, ,-47, ,
-1, ,-45, ,
0, ,-49, ,
-2, ,-47, ,
-7, ,-47, ,
1, ,-47, ,
-1, ,-47, ,
-2, ,-46, ,
-6, ,-49, ,
-2, ,-46, ,
-2, ,-47, ,
-5, ,-47, ,
-4, ,-47, ,
-1, ,-45, ,
-1, ,-49, ,
-2, ,-47, ,
-6, ,-47, ,
-2, ,-47, ,
4, ,-47, ,
-4, ,-47, ,
-2, ,-49, ,
4, ,-47, ,
-1, ,-47, ,
0, ,-47, ,
-2, ,-47, ,
-1, ,-45, ,
0, ,-49, ,
0, ,-46, ,
-2, ,-47, ,
1, ,-47, ,
5, ,-47, ,
0, ,-46, ,
-6, ,-49, ,
0, ,-47, ,
-5, ,-47, ,
-2, ,-47, ,
-7, ,-49, ,
-5, ,-45, ,
1, ,-49, ,
5, ,-47, ,
1, ,-47, ,
4, ,-47, ,
4, ,-47, ,
-2, ,-46, ,
-6, ,-49, ,
-2, ,-47, ,
-4, ,-47, ,
3, ,-47, ,
1, ,-47, ,
-1, ,-46, ,
0, ,-47, ,
-1, ,-47, ,
-5, ,-47, ,
0, ,-47, ,
1, ,-47, ,
4, ,-46, ,
1, ,-49, ,
4, ,-47, ,
5, ,-47, ,
0, ,-47, ,
-2, ,-47, ,
-2, ,-46, ,
-2, ,-49, ,
0, ,-46, ,
-5, ,-47, ,
-1, ,-47, ,
3, ,-47, ,
0, ,-47, ,
-2, ,-49, ,
-1, ,-47, ,
1, ,-47, ,
1, ,-47, ,
-1, ,-47, ,
3, ,-46, ,
3, ,-49, ,
3, ,-47, ,
1, ,-47, ,
3, ,-47, ,
5, ,-47, ,
3, ,-46, ,
-4, ,-49, ,
-1, ,-47, ,
1, ,-47, ,
0, ,-47, ,
-1, ,-47, ,
1, ,-45, ,
0, ,-49, ,
3, ,-47, ,
-4, ,-47, ,
0, ,-46, ,
4, ,-47, ,
0, ,-46, ,
-1, ,-49, ,
8, ,-47, ,
1, ,-47, ,
1, ,-47, ,
1, ,-47, ,
-1, ,-46, ,
0, ,-49, ,
-1, ,-47, ,
-4, ,-47, ,
0, ,-47, ,
3, ,-47, ,
0, ,-46, ,
0, ,-49, ,
4, ,-47, ,
3, ,-47, ,
-1, ,-47, ,
-4, ,-47, ,
0, ,-46, ,
1, ,-49, ,
0, ,-47, ,
0, ,-47, ,
1, ,-47, ,
5, ,-47, ,
1, ,-46, ,
-1, ,-49, ,
1, ,-47, ,
3, ,-47, ,
3, ,-47, ,
0, ,-47, ,
3, ,-45, ,
4, ,-49, ,
5, ,-47, ,
-1, ,-47, ,
5, ,-47, ,
1, ,-47, ,
8, ,-46, ,
1, ,-49, ,
1, ,-47, ,
5, ,-47, ,
6, ,-47, ,
1, ,-47, ,
5, ,-46, ,
9, ,-49, ,
5, ,-47, ,
-6, ,-47, ,
3, ,-47, ,
4, ,-47, ,
1, ,-46, ,
3, ,-49, ,
8, ,-47, ,
4, ,-47, ,
4, ,-47, ,
3, ,-47, ,
1, ,-45, ,
3, ,-49, ,
3, ,-47, ,
0, ,-47, ,
3, ,-47, ,
4, ,-47, ,
4, ,-46, ,
-1, ,-49, ,
4, ,-47, ,
3, ,-47, ,
1, ,-47, ,
1, ,-47, ,
3, ,-46, ,
8, ,-49, ,
6, ,-47, ,
4, ,-47, ,
4, ,-47, ,
6, ,-47, ,
1, ,-46, ,
-4, ,-49, ,
4, ,-47, ,
1, ,-47, ,
3, ,-47, ,
3, ,-47, ,
1, ,-45, ,
5, ,-47, ,
0, ,-47, ,
-5, ,-47, ,
0, ,-47, ,
3, ,-47, ,
3, ,-46, ,
1, ,-49, ,
4, ,-47, ,
5, ,-47, ,
6, ,-47, ,
0, ,-47, ,
3, ,-46, ,
3, ,-49, ,
3, ,-47, ,
-2, ,-47, ,
1, ,-47, ,
3, ,-47, ,
3, ,-46, ,
1, ,-49, ,
8, ,-47, ,
5, ,-47, ,
4, ,-47, ,
3, ,-47, ,
1, ,-45, ,
4, ,-49, ,
4, ,-47, ,
1, ,-47, ,
4, ,-47, ,
4, ,-47, ,
1, ,-46, ,
-4, ,-49, ,
3, ,-47, ,
1, ,-47, ,
1, ,-47, ,
0, ,-47, ,
4, ,-45, ,
3, ,-49, ,
3, ,-47, ,
-1, ,-47, ,
3, ,-47, ,
4, ,-47, ,
3, ,-46, ,
-4, ,-49, ,
5, ,-47, ,
3, ,-47, ,
4, ,-47, ,
3, ,-49, ,
4, ,-45, ,
6, ,-49, ,
0, ,-47, ,
-2, ,-47, ,
-1, ,-49, ,
-1, ,-47, ,
0, ,-46, ,
-4, ,-49, ,
3, ,-47, ,
1, ,-46, ,
0, ,-47, ,
1, ,-47, ,
1, ,-46, ,
1, ,-49, ,
1, ,-47, ,
-2, ,-47, ,
3, ,-47, ,
5, ,-47, ,
3, ,-47, ,
0, ,-49, ,
6, ,-47, ,
1, ,-47, ,
0, ,-47, ,
-2, ,-47, ,
-1, ,-46, ,
0, ,-47, ,
-1, ,-47, ,
-5, ,-47, ,
0, ,-47, ,
1, ,-47, ,
0, ,-46, ,
-4, ,-49, ,
0, ,-47, ,
1, ,-47, ,
1, ,-47, ,
0, ,-47, ,
1, ,-46, ,
3, ,-49, ,
1, ,-47, ,
-5, ,-47, ,
-4, ,-47, ,
0, ,-47, ,
-5, ,-46, ,
-6, ,-47, ,
0, ,-47, ,
1, ,-47, ,
4, ,-47, ,
0, ,-49, ,
-1, ,-46, ,
1, ,-49, ,
0, ,-47, ,
-5, ,-47, ,
0, ,-47, ,
3, ,-47, ,
1, ,-46, ,
-4, ,-49, ,
3, ,-47, ,
-1, ,-47, ,
-1, ,-47, ,
0, ,-47, ,
1, ,-46, ,
1, ,-49, ,
1, ,-47, ,
1, ,-47, ,
3, ,-47, ,
4, ,-47, ,
0, ,-46, ,
-4, ,-49, ,
0, ,-47, ,
-2, ,-47, ,
0, ,-47, ,
0, ,-47, ,
-1, ,-46, ,
5, ,-47, ,
4, ,-47, ,
0, ,-47, ,
3, ,-47, ,
3, ,-49, ,
0, ,-46, ,
-4, ,-49, ,
3, ,-47, ,
4, ,-47, ,
0, ,-47, ,
1, ,-49, ,
4, ,-45, ,
3, ,-49, ,
1, ,-47, ,
-4, ,-47, ,
0, ,-46, ,
3, ,-47, ,
-1, ,-46, ,
-5, ,-47, ,
3, ,-47, ,
1, ,-47, ,
0, ,-47, ,
-5, ,-47, ,
-1, ,-45, ,
1, ,-49, ,
0, ,-47, ,
1, ,-47, ,
3, ,-47, ,
3, ,-47, ,
-1, ,-46, ,
-4, ,-49, ,
-1, ,-47, ,
0, ,-47, ,
-2, ,-47, ,
-5, ,-47, ,
-1, ,-45, ,
-1, ,-49, ,
3, ,-47, ,
-1, ,-47, ,
0, ,-47, ,
4, ,-47, ,
0, ,-46, ,
-4, ,-49, ,
3, ,-47, ,
0, ,-47, ,
1, ,-47, ,
3, ,-47, ,
0, ,-46, ,
3, ,-49, ,
3, ,-47, ,
-2, ,-47, ,
0, ,-47, ,
0, ,-47, ,
-1, ,-46, ,
-4, ,-49, ,
0, ,-47, ,
1, ,-47, ,
-1, ,-47, ,
-1, ,-47, ,
0, ,-46, ,
1, ,-49, ,
3, ,-47, ,
0, ,-47, ,
4, ,-47, ,
6, ,-47, ,
3, ,-46, ,
0, ,-49, ,
3, ,-47, ,
1, ,-47, ,
-1, ,-47, ,
-5, ,-47, ,
-4, ,-46, ,
0, ,-49, ,
0, ,-47, ,
-2, ,-47, ,
3, ,-47, ,
4, ,-47, ,
3, ,-46, ,
1, ,-49, ,
4, ,-47, ,
4, ,-47, ,
0, ,-47, ,
0, ,-47, ,
3, ,-46, ,
3, ,-49, ,
5, ,-47, ,
0, ,-47, ,
1, ,-47, ,
4, ,-47, ,
-4, ,-46, ,
-7, ,-49, ,
8, ,-47, ,
-1, ,-44, ,
-1, ,-37, ,
4, ,-26, ,
6, ,-17, ,
13, ,-8, ,
9, ,-1, ,
-1, ,6, ,
3, ,12, ,
4, ,16, ,
4, ,20, ,
5, ,24, ,
11, ,26, ,
11, ,30, ,
5, ,32, ,
1, ,34, ,
4, ,34, ,
4, ,38, ,
4, ,38, ,
1, ,39, ,
6, ,40, ,
9, ,41, ,
4, ,40, ,
-1, ,43, ,
5, ,42, ,
-1, ,43, ,
3, ,43, ,
0, ,44, ,
-1, ,43, ,
5, ,45, ,
8, ,45, ,
-2, ,44, ,
4, ,45, ,
4, ,45, ,
1, ,44, ,
-2, ,46, ,
0, ,45, ,
3, ,45, ,
1, ,45, ,
0, ,45, ,
0, ,43, ,
0, ,46, ,
3, ,45, ,
-5, ,45, ,
-1, ,46, ,
1, ,45, ,
-1, ,44, ,
-5, ,46, ,
0, ,45, ,
1, ,46, ,
4, ,45, ,
1, ,46, ,
4, ,44, ,
4, ,46, ,
5, ,45, ,
-1, ,45, ,
4, ,45, ,
1, ,45, ,
-1, ,44, ,
3, ,46, ,
8, ,45, ,
6, ,45, ,
3, ,45, ,
-1, ,45, ,
0, ,44, ,
-1, ,46, ,
0, ,45, ,
-2, ,45, ,
-2, ,46, ,
1, ,45, ,
-1, ,44, ,
-5, ,45, ,
3, ,45, ,
0, ,45, ,
4, ,45, ,
0, ,45, ,
3, ,44, ,
5, ,46, ,
4, ,45, ,
0, ,45, ,
4, ,46, ,
3, ,45, ,
3, ,44, ,
-9, ,46, ,
-2, ,45, ,
-2, ,45, ,
0, ,45, ,
-2, ,45, ,
3, ,43, ,
4, ,46, ,
4, ,45, ,
-2, ,45, ,
4, ,45, ,
5, ,45, ,
3, ,44, ,
1, ,46, ,
4, ,45, ,
3, ,45, ,
0, ,45, ,
-4, ,45, ,
-2, ,43, ,
0, ,46, ,
0, ,45, ,
-5, ,45, ,
1, ,45, ,
1, ,45, ,
1, ,44, ,
0, ,46, ,
3, ,44, ,
3, ,45, ,
1, ,45, ,
1, ,45, ,
3, ,43, ,
0, ,46, ,
1, ,45, ,
-6, ,45, ,
-2, ,45, ,
4, ,45, ,
-1, ,44, ,
-5, ,46, ,
-1, ,45, ,
1, ,45, ,
-1, ,45, ,
0, ,45, ,
0, ,43, ,
0, ,46, ,
5, ,45, ,
0, ,44, ,
0, ,45, ,
4, ,45, ,
3, ,43, ,
0, ,46, ,
5, ,44, ,
6, ,44, ,
5, ,45, ,
3, ,45, ,
3, ,43, ,
3, ,46, ,
4, ,45, ,
-2, ,45, ,
0, ,45, ,
0, ,45, ,
-5, ,44, ,
-14, ,46, ,
-9, ,45, ,
-14, ,45, ,
-11, ,45, ,
-14, ,45, ,
-12, ,43, ,
-10, ,45, ,
-4, ,45, ,
-9, ,45, ,
0, ,45, ,
6, ,45, ,
9, ,43, ,
9, ,46, ,
14, ,45, ,
11, ,45, ,
8, ,45, ,
4, ,45, ,
3, ,43, ,
-1, ,46, ,
1, ,45, ,
-5, ,45, ,
1, ,45, ,
3, ,45, ,
-2, ,44, ,
-4, ,45, ,
0, ,45, ,
-1, ,45, ,
0, ,44, ,
-1, ,45, ,
-1, ,43, ,
0, ,45, ,
0, ,45, ,
-6, ,44, ,
-2, ,45, ,
-1, ,45, ,
-2, ,44, ,
-2, ,46, ,
3, ,45, ,
1, ,44, ,
3, ,45, ,
-2, ,45, ,
0, ,43, ,
-6, ,46, ,
-5, ,45, ,
-9, ,45, ,
-6, ,45, ,
-2, ,45, ,
-1, ,43, ,
-6, ,45, ,
1, ,44, ,
0, ,45, ,
0, ,45, ,
-4, ,45, ,
-1, ,43, ,
1, ,45, ,
0, ,45, ,
-1, ,44, ,
0, ,45, ,
-2, ,45, ,
-5, ,43, ,
-9, ,46, ,
-4, ,44, ,
-2, ,44, ,
-2, ,45, ,
1, ,45, ,
5, ,43, ,
6, ,45, ,
8, ,44, ,
3, ,45, ,
4, ,45, ,
4, ,45, ,
0, ,43, ,
-1, ,45, ,
3, ,45, ,
1, ,45, ,
1, ,45, ,
-1, ,45, ,
-1, ,43, ,
1, ,46, ,
1, ,45, ,
-2, ,45, ,
3, ,45, ,
5, ,45, ,
4, ,44, ,
3, ,45, ,
5, ,44, ,
5, ,45, ,
4, ,45, ,
0, ,45, ,
4, ,43, ,
1, ,46, ,
3, ,45, ,
-1, ,44, ,
3, ,45, ,
4, ,45, ,
0, ,44, ,
-2, ,45, ,
1, ,44, ,
0, ,45, ,
1, ,45, ,
-2, ,45, ,
3, ,43, ,
4, ,45, ,
4, ,45, ,
1, ,45, ,
3, ,45, ,
4, ,45, ,
4, ,44, ,
-1, ,45, ,
4, ,44, ,
4, ,45, ,
4, ,45, ,
1, ,45, ,
3, ,42, ,
1, ,46, ,
4, ,45, ,
-2, ,45, ,
1, ,45, ,
5, ,45, ,
3, ,44, ,
-2, ,45, ,
4, ,44, ,
1, ,45, ,
4, ,45, ,
3, ,44, ,
4, ,43, ,
6, ,46, ,
8, ,45, ,
3, ,44, ,
6, ,45, ,
6, ,45, ,
6, ,43, ,
-1, ,46, ,
4, ,44, ,
5, ,44, ,
3, ,45, ,
1, ,44, ,
4, ,43, ,
5, ,46, ,
5, ,44, ,
-1, ,45, ,
5, ,45, ,
6, ,45, ,
4, ,43, ,
1, ,45, ,
5, ,45, ,
3, ,45, ,
3, ,45, ,
3, ,45, ,
4, ,43, ,
6, ,45, ,
8, ,45, ,
3, ,45, ,
6, ,45, ,
5, ,45, ,
3, ,44, ,
0, ,45, ,
4, ,44, ,
5, ,45, ,
5, ,45, ,
4, ,45, ,
4, ,43, ,
4, ,46, ,
3, ,45, ,
-2, ,44, ,
1, ,45, ,
5, ,45, ,
1, ,44, ,
0, ,45, ,
8, ,44, ,
5, ,45, ,
5, ,45, ,
4, ,45, ,
3, ,43, ,
5, ,45, ,
5, ,45, ,
-1, ,45, ,
5, ,45, ,
8, ,45, ,
4, ,43, ,
0, ,45, ,
3, ,45, ,
1, ,45, ,
-1, ,45, ,
-2, ,45, ,
4, ,43, ,
4, ,45, ,
4, ,45, ,
0, ,45, ,
3, ,45, ,
5, ,45, ,
0, ,44, ,
-4, ,46, ,
0, ,44, ,
-2, ,45, ,
-1, ,45, ,
-1, ,45, ,
-1, ,43, ,
0, ,45, ,
3, ,45, ,
-5, ,45, ,
1, ,45, ,
1, ,45, ,
1, ,43, ,
-2, ,45, ,
3, ,45, ,
5, ,45, ,
3, ,45, ,
3, ,45, ,
9, ,43, ,
8, ,46, ,
10, ,45, ,
3, ,45, ,
8, ,45, ,
10, ,45, ,
5, ,44, ,
4, ,45, ,
6, ,44, ,
3, ,45, ,
4, ,45, ,
-1, ,45, ,
1, ,43, ,
3, ,45, ,
4, ,45, ,
3, ,44, ,
6, ,45, ,
9, ,45, ,
6, ,43, ,
3, ,45, ,
5, ,44, ,
4, ,44, ,
3, ,45, ,
0, ,45, ,
4, ,43, ,
4, ,46, ,
4, ,45, ,
1, ,44, ,
5, ,45, ,
5, ,45, ,
3, ,44, ,
0, ,45, ,
8, ,45, ,
5, ,45, ,
4, ,45, ,
3, ,45, ,
5, ,43, ,
5, ,45, ,
3, ,45, ,
-2, ,45, ,
1, ,45, ,
1, ,45, ,
3, ,44, ,
-1, ,46, ,
4, ,44, ,
4, ,45, ,
3, ,45, ,
-1, ,45, ,
3, ,43, ,
0, ,46, ,
0, ,45, ,
-6, ,44, ,
3, ,45, ,
4, ,45, ,
1, ,43, ,
0, ,45, ,
3, ,45, ,
-1, ,45, ,
-1, ,45, ,
-5, ,45, ,
-4, ,43, ,
0, ,45, ,
1, ,44, ,
-6, ,45, ,
-1, ,44, ,
1, ,45, ,
-4, ,44, ,
-5, ,45, ,
-1, ,44, ,
-1, ,45, ,
-1, ,45, ,
-5, ,45, ,
0, ,43, ,
0, ,46, ,
-1, ,44, ,
-9, ,45, ,
-5, ,45, ,
-1, ,45, ,
-4, ,44, ,
-5, ,45, ,
4, ,44, ,
1, ,45, ,
4, ,45, ,
0, ,45, ,
-2, ,43, ,
0, ,45, ,
-4, ,45, ,
-6, ,44, ,
-2, ,45, ,
-2, ,45, ,
-5, ,43, ,
-10, ,45, ,
-1, ,44, ,
-5, ,45, ,
-6, ,45, ,
-9, ,45, ,
-6, ,43, ,
-5, ,46, ,
-2, ,44, ,
-9, ,44, ,
1, ,45, ,
-5, ,45, ,
-5, ,43, ,
-2, ,45, ,
-2, ,45, ,
-2, ,45, ,
-1, ,45, ,
-6, ,45, ,
-5, ,43, ,
-2, ,46, ,
-2, ,45, ,
-10, ,44, ,
-2, ,45, ,
-5, ,45, ,
-4, ,43, ,
-6, ,45, ,
-1, ,44, ,
-1, ,44, ,
-2, ,45, ,
-5, ,45, ,
-1, ,43, ,
-4, ,45, ,
-2, ,44, ,
-10, ,45, ,
-5, ,45, ,
-1, ,44, ,
-5, ,44, ,
-6, ,45, ,
0, ,44, ,
-4, ,45, ,
-1, ,45, ,
-7, ,45, ,
0, ,43, ,
-1, ,45, ,
-5, ,45, ,
-6, ,45, ,
-1, ,45, ,
-1, ,45, ,
-4, ,44, ,
-2, ,45, ,
1, ,44, ,
3, ,45, ,
0, ,45, ,
-9, ,45, ,
-7, ,43, ,
-4, ,46, ,
-1, ,44, ,
-4, ,45, ,
-2, ,45, ,
1, ,45, ,
-4, ,43, ,
-11, ,45, ,
-2, ,44, ,
-1, ,45, ,
0, ,45, ,
0, ,45, ,
5, ,43, ,
4, ,45, ,
1, ,45, ,
-5, ,45, ,
0, ,45, ,
-1, ,45, ,
-1, ,43, ,
-2, ,46, ,
1, ,44, ,
4, ,45, ,
-1, ,45, ,
0, ,45, ,
0, ,43, ,
0, ,45, ,
4, ,45, ,
-2, ,45, ,
4, ,45, ,
3, ,45, ,
3, ,44, ,
0, ,45, ,
5, ,44, ,
3, ,45, ,
3, ,45, ,
1, ,45, ,
1, ,43, ,
5, ,45, ,
4, ,45, ,
3, ,44, ,
6, ,45, ,
6, ,45, ,
5, ,43, ,
1, ,45, ,
4, ,45, ,
4, ,44, ,
1, ,45, ,
3, ,44, ,
5, ,43, ,
3, ,45, ,
3, ,45, ,
1, ,44, ,
0, ,45, ,
4, ,45, ,
-1, ,43, ,
0, ,45, ,
6, ,45, ,
3, ,45, ,
4, ,45, ,
5, ,45, ,
5, ,43, ,
6, ,45, ,
4, ,45, ,
-1, ,44, ,
1, ,45, ,
1, ,45, ,
1, ,44, ,
-2, ,46, ,
5, ,44, ,
5, ,45, ,
5, ,45, ,
4, ,45, ,
6, ,43, ,
8, ,46, ,
8, ,45, ,
0, ,45, ,
5, ,45, ,
6, ,45, ,
4, ,44, ,
-1, ,45, ,
8, ,44, ,
4, ,45, ,
3, ,45, ,
10, ,45, ,
0, ,43, ,
5, ,45, ,
0, ,45, ,
-1, ,44, ,
11, ,45, ,
3, ,45, ,
6, ,43, ,
4, ,45, ,
3, ,44, ,
6, ,45, ,
6, ,45, ,
6, ,45, ,
9, ,43, ,
8, ,46, ,
8, ,44, ,
5, ,45, ,
5, ,45, ,
6, ,45, ,
1, ,44, ,
-1, ,45, ,
4, ,45, ,
0, ,45, ,
8, ,45, ,
8, ,45, ,
8, ,43, ,
9, ,45, ,
6, ,45, ,
0, ,44, ,
3, ,45, ,
6, ,45, ,
6, ,43, ,
6, ,46, ,
10, ,44, ,
8, ,45, ,
6, ,45, ,
1, ,45, ,
0, ,43, ,
-1, ,45, ,
3, ,44, ,
-1, ,45, ,
3, ,45, ,
8, ,45, ,
3, ,44, ,
-1, ,46, ,
5, ,44, ,
3, ,45, ,
6, ,45, ,
9, ,45, ,
8, ,43, ,
13, ,45, ,
10, ,45, ,
4, ,44, ,
8, ,45, ,
4, ,45, ,
1, ,43, ,
-4, ,46, ,
1, ,44, ,
4, ,45, ,
3, ,45, ,
3, ,45, ,
4, ,43, ,
1, ,46, ,
6, ,44, ,
0, ,44, ,
1, ,45, ,
4, ,45, ,
3, ,44, ,
1, ,46, ,
6, ,45, ,
1, ,45, ,
3, ,45, ,
-2, ,45, ,
0, ,43, ,
-1, ,45, ,
-2, ,45, ,
-4, ,44, ,
1, ,45, ,
1, ,45, ,
1, ,43, ,
0, ,46, ,
1, ,44, ,
3, ,45, ,
-1, ,45, ,
-6, ,45, ,
-2, ,43, ,
-2, ,46, ,
-1, ,44, ,
-5, ,45, ,
1, ,45, ,
4, ,45, ,
-1, ,44, ,
-1, ,45, ,
4, ,44, ,
3, ,45, ,
3, ,44, ,
0, ,45, ,
1, ,43, ,
4, ,45, ,
1, ,45, ,
-1, ,45, ,
0, ,45, ,
0, ,45, ,
0, ,44, ,
-5, ,45, ,
1, ,45, ,
1, ,45, ,
-1, ,45, ,
-2, ,45, ,
-2, ,43, ,
-4, ,45, ,
-1, ,44, ,
-7, ,45, ,
-1, ,45, ,
1, ,45, ,
0, ,44, ,
-2, ,45, ,
3, ,44, ,
-1, ,44, ,
-2, ,45, ,
-5, ,45, ,
-5, ,43, ,
-1, ,46, ,
-1, ,45, ,
-5, ,45, ,
0, ,45, ,
-1, ,45, ,
-2, ,44, ,
-5, ,46, ,
-2, ,44, ,
-1, ,44, ,
-5, ,45, ,
-6, ,45, ,
-2, ,43, ,
-4, ,46, ,
1, ,45, ,
-4, ,45, ,
-1, ,45, ,
-1, ,45, ,
-5, ,44, ,
-7, ,46, ,
-2, ,44, ,
-7, ,45, ,
-4, ,45, ,
-5, ,45, ,
-4, ,44, ,
-2, ,45, ,
-2, ,45, ,
-5, ,44, ,
-2, ,45, ,
-1, ,45, ,
0, ,44, ,
-4, ,46, ,
1, ,44, ,
0, ,45, ,
-4, ,45, ,
-6, ,45, ,
-5, ,43, ,
-6, ,46, ,
-2, ,44, ,
-6, ,45, ,
-2, ,45, ,
0, ,45, ,
-2, ,44, ,
-5, ,46, ,
0, ,45, ,
-1, ,44, ,
1, ,41, ,
-2, ,33, ,
-6, ,21, ,
-6, ,13, ,
-7, ,4, ,
-14, ,-3, ,
-2, ,-9, ,
-2, ,-15, ,
-5, ,-19, ,
-11, ,-23, ,
-7, ,-26, ,
-7, ,-30, ,
-9, ,-32, ,
-7, ,-35, ,
-2, ,-36, ,
-2, ,-39, ,
-2, ,-39, ,
-7, ,-40, ,
-2, ,-42, ,
-1, ,-43, ,
-4, ,-42, ,
-6, ,-45, ,
0, ,-44, ,
-1, ,-44, ,
-4, ,-46, ,
-5, ,-46, ,
-4, ,-45, ,
-2, ,-47, ,
1, ,-47, ,
-6, ,-47, ,
0, ,-47, ,
1, ,-47, ,
-1, ,-46, ,
-1, ,-49, ,
3, ,-49, ,
0, ,-47, ,
-1, ,-49, ,
0, ,-49, ,
0, ,-46, ,
-1, ,-49, ,
-2, ,-47, ,
-5, ,-47, ,
3, ,-47, ,
6, ,-47, ,
3, ,-47, ,
0, ,-50, ,
5, ,-47, ,
1, ,-47, ,
0, ,-49, ,
-2, ,-49, ,
-1, ,-46, ,
0, ,-49, ,
-2, ,-47, ,
-4, ,-49, ,
0, ,-47, ,
1, ,-49, ,
-2, ,-46, ,
-5, ,-50, ,
-1, ,-47, ,
1, ,-47, ,
0, ,-49, ,
1, ,-49, ,
3, ,-46, ,
4, ,-49, ,
4, ,-47, ,
-1, ,-47, ,
1, ,-47, ,
3, ,-47, ,
0, ,-46, ,
-2, ,-49, ,
5, ,-47, ,
4, ,-47, ,
3, ,-47, ,
3, ,-49, ,
1, ,-46, ,
3, ,-49, ,
1, ,-47, ,
-5, ,-47, ,
-1, ,-47, ,
1, ,-47, ,
1, ,-46, ,
0, ,-49, ,
3, ,-47, ,
5, ,-47, ,
1, ,-47, ,
1, ,-49, ,
4, ,-46, ,
4, ,-49, ,
8, ,-47, ,
4, ,-47, ,
5, ,-47, ,
10, ,-49, ,
1, ,-46, ,
0, ,-49, ,
4, ,-47, ,
3, ,-47, ,
5, ,-47, ,
4, ,-49, ,
8, ,-46, ,
10, ,-49, ,
6, ,-47, ,
4, ,-47, ,
6, ,-47, ,
6, ,-49, ,
4, ,-46, ,
3, ,-49, ,
9, ,-47, ,
6, ,-47, ,
6, ,-47, ,
6, ,-49, ,
5, ,-46, ,
5, ,-49, ,
3, ,-47, ,
1, ,-47, ,
1, ,-47, ,
4, ,-47, ,
4, ,-46, ,
1, ,-49, ,
6, ,-47, ,
5, ,-47, ,
6, ,-47, ,
5, ,-49, ,
5, ,-45, ,
5, ,-49, ,
1, ,-47, ,
-4, ,-47, ,
5, ,-47, ,
4, ,-49, ,
3, ,-46, ,
0, ,-49, ,
4, ,-47, ,
1, ,-47, ,
0, ,-47, ,
1, ,-47, ,
4, ,-45, ,
4, ,-49, ,
5, ,-47, ,
5, ,-47, ,
8, ,-47, ,
6, ,-47, ,
3, ,-46, ,
0, ,-49, ,
4, ,-47, ,
3, ,-47, ,
5, ,-47, ,
5, ,-47, ,
8, ,-46, ,
8, ,-49, ,
5, ,-47, ,
-1, ,-47, ,
3, ,-47, ,
5, ,-47, ,
1, ,-46, ,
-1, ,-49, ,
3, ,-47, ,
3, ,-47, ,
1, ,-47, ,
1, ,-47, ,
5, ,-46, ,
0, ,-49, ,
4, ,-47, ,
-1, ,-47, ,
3, ,-47, ,
11, ,-47, ,
-1, ,-46, ,
0, ,-49, ,
9, ,-47, ,
3, ,-47, ,
5, ,-47, ,
-2, ,-47, ,
3, ,-46, ,
4, ,-47, ,
5, ,-47, ,
1, ,-47, ,
3, ,-47, ,
4, ,-47, ,
4, ,-46, ,
-2, ,-49, ,
4, ,-47, ,
3, ,-47, ,
1, ,-47, ,
1, ,-47, ,
3, ,-46, ,
4, ,-49, ,
4, ,-47, ,
-1, ,-47, ,
4, ,-47, ,
5, ,-47, ,
1, ,-46, ,
-4, ,-49, ,
4, ,-47, ,
3, ,-47, ,
4, ,-47, ,
1, ,-47, ,
0, ,-46, ,
5, ,-49, ,
1, ,-47, ,
-6, ,-47, ,
3, ,-47, ,
1, ,-47, ,
1, ,-46, ,
-1, ,-49, ,
3, ,-46, ,
3, ,-46, ,
3, ,-47, ,
-1, ,-49, ,
1, ,-45, ,
-1, ,-49, ,
3, ,-47, ,
-2, ,-47, ,
1, ,-47, ,
3, ,-47, ,
-2, ,-46, ,
-6, ,-49, ,
-1, ,-47, ,
-4, ,-47, ,
-2, ,-47, ,
-7, ,-47, ,
-2, ,-46, ,
0, ,-49, ,
0, ,-47, ,
-4, ,-46, ,
1, ,-47, ,
0, ,-47, ,
0, ,-46, ,
-5, ,-49, ,
0, ,-47, ,
-1, ,-46, ,
-2, ,-47, ,
-5, ,-47, ,
-2, ,-45, ,
-4, ,-49, ,
-4, ,-46, ,
-5, ,-47, ,
-1, ,-47, ,
0, ,-47, ,
-2, ,-46, ,
-4, ,-49, ,
3, ,-47, ,
0, ,-47, ,
-1, ,-47, ,
-2, ,-47, ,
-1, ,-45, ,
1, ,-49, ,
3, ,-47, ,
-6, ,-47, ,
1, ,-47, ,
-1, ,-47, ,
-2, ,-45, ,
-2, ,-49, ,
-1, ,-47, ,
1, ,-47, ,
-2, ,-47, ,
-1, ,-49, ,
0, ,-45, ,
0, ,-49, ,
1, ,-47, ,
-4, ,-47, ,
3, ,-47, ,
4, ,-47, ,
-1, ,-46, ,
-6, ,-49, ,
-2, ,-47, ,
-4, ,-47, ,
-5, ,-47, ,
-6, ,-47, ,
-1, ,-46, ,
-2, ,-47, ,
0, ,-47, ,
-1, ,-47, ,
0, ,-47, ,
0, ,-47, ,
-2, ,-46, ,
-9, ,-49, ,
-5, ,-47, ,
-2, ,-47, ,
-4, ,-47, ,
-4, ,-47, ,
-1, ,-45, ,
-2, ,-49, ,
0, ,-47, ,
-5, ,-47, ,
-2, ,-46, ,
3, ,-47, ,
1, ,-46, ,
-4, ,-49, ,
1, ,-46, ,
0, ,-47, ,
-2, ,-47, ,
-5, ,-47, ,
-6, ,-46, ,
-2, ,-49, ,
-4, ,-47, ,
-6, ,-47, ,
0, ,-47, ,
0, ,-47, ,
-1, ,-46, ,
-4, ,-49, ,
0, ,-47, ,
0, ,-47, ,
-4, ,-47, ,
-6, ,-47, ,
-4, ,-46, ,
-1, ,-49, ,
4, ,-47, ,
-2, ,-47, ,
3, ,-47, ,
4, ,-47, ,
0, ,-46, ,
-2, ,-49, ,
0, ,-47, ,
-2, ,-47, ,
-1, ,-47, ,
-2, ,-47, ,
-1, ,-46, ,
1, ,-47, ,
0, ,-47, ,
-4, ,-47, ,
0, ,-47, ,
1, ,-47, ,
1, ,-46, ,
-1, ,-49, ,
1, ,-46, ,
4, ,-46, ,
3, ,-47, ,
0, ,-47, ,
4, ,-46, ,
1, ,-49, ,
4, ,-47, ,
-4, ,-47, ,
0, ,-47, ,
4, ,-47, ,
0, ,-46, ,
-2, ,-49, ,
3, ,-47, ,
3, ,-47, ,
3, ,-47, ,
1, ,-47, ,
3, ,-46, ,
3, ,-49, ,
1, ,-47, ,
-1, ,-47, ,
5, ,-47, ,
5, ,-49, ,
5, ,-46, ,
1, ,-49, ,
4, ,-47, ,
4, ,-47, ,
3, ,-47, ,
-2, ,-47, ,
3, ,-45, ,
-1, ,-47, ,
0, ,-47, ,
4, ,-47, ,
5, ,-47, ,
6, ,-47, ,
1, ,-46, ,
-1, ,-49, ,
3, ,-47, ,
3, ,-47, ,
5, ,-47, ,
4, ,-47, ,
4, ,-46, ,
4, ,-49, ,
-2, ,-47, ,
-9, ,-47, ,
-2, ,-47, ,
0, ,-47, ,
1, ,-46, ,
3, ,-49, ,
5, ,-47, ,
6, ,-47, ,
0, ,-47, ,
3, ,-47, ,
4, ,-45, ,
0, ,-49, ,
0, ,-46, ,
-6, ,-47, ,
-1, ,-47, ,
3, ,-47, ,
3, ,-46, ,
3, ,-49, ,
5, ,-47, ,
4, ,-47, ,
1, ,-47, ,
0, ,-47, ,
5, ,-45, ,
6, ,-47, ,
9, ,-47, ,
3, ,-47, ,
6, ,-47, ,
4, ,-47, ,
1, ,-46, ,
1, ,-49, ,
6, ,-47, ,
5, ,-47, ,
4, ,-47, ,
4, ,-47, ,
6, ,-46, ,
4, ,-49, ,
4, ,-47, ,
0, ,-47, ,
4, ,-47, ,
5, ,-47, ,
1, ,-46, ,
-1, ,-49, ,
8, ,-46, ,
4, ,-47, ,
4, ,-47, ,
3, ,-47, ,
1, ,-46, ,
6, ,-47, ,
1, ,-47, ,
-2, ,-47, ,
3, ,-47, ,
4, ,-47, ,
1, ,-45, ,
1, ,-49, ,
9, ,-47, ,
5, ,-46, ,
4, ,-47, ,
5, ,-47, ,
3, ,-46, ,
3, ,-49, ,
5, ,-46, ,
-2, ,-47, ,
1, ,-47, ,
5, ,-47, ,
1, ,-46, ,
-1, ,-49, ,
4, ,-47, ,
1, ,-47, ,
3, ,-47, ,
-1, ,-49, ,
0, ,-45, ,
1, ,-49, ,
1, ,-47, ,
-1, ,-47, ,
1, ,-47, ,
3, ,-49, ,
0, ,-46, ,
-1, ,-49, ,
1, ,-47, ,
5, ,-47, ,
4, ,-47, ,
5, ,-47, ,
4, ,-46, ,
3, ,-49, ,
1, ,-47, ,
-5, ,-47, ,
0, ,-47, ,
3, ,-47, ,
-1, ,-46, ,
-5, ,-49, ,
3, ,-47, ,
1, ,-47, ,
3, ,-47, ,
0, ,-47, ,
0, ,-46, ,
1, ,-47, ,
0, ,-47, ,
0, ,-46, ,
3, ,-47, ,
3, ,-47, ,
1, ,-46, ,
-1, ,-49, ,
4, ,-47, ,
1, ,-47, ,
1, ,-47, ,
-1, ,-47, ,
0, ,-46, ,
-1, ,-49, ,
-2, ,-47, ,
