src/vary_am2_1412/temp0000293.CSV

Format,1.0B,
Memory Length,10000,Memory Length,10000,
IntpDistance,0,IntpDistance,0,
Trigger Address,4999,Trigger Address,4999,
Trigger Level,9.600E-01,Trigger Level,9.600E-01,
Source,CH1,Source,CH2,
Vertical Units,V,Vertical Units,V,
Vertical Units Div,0,Vertical Units Div,0,
Vertical Units Extend Div,16,Vertical Units Extend Div,16,
Label,,Label,,
Probe Type,0,Probe Type,0,
Probe Ratio,1.000e+01,Probe Ratio,1.000e+00,
Vertical Scale,2.000e-02,Vertical Scale,1.000e+00,
Vertical Position,-5.120e-02,Vertical Position,0.000e+00,
Horizontal Units,S,Horizontal Units,S,
Horizontal Scale,1.000E-05,Horizontal Scale,1.000E-05,
Horizontal Position,0.000E+00,Horizontal Position,0.000E+00,
Horizontal Mode,Main,Horizontal Mode,Main,
SincET Mode,Real Time,SincET Mode,Real Time,
Sampling Period,1.000e-08,Sampling Period,1.000e-08,
Horizontal Old Scale,1.000E-05,Horizontal Old Scale,1.000E-05,
Horizontal Old Position,0.000E+00,Horizontal Old Position,0.000E+00,
Firmware,V1.23,Firmware,V1.23,
Mode,Fast,Mode,Fast,
Waveform Data,,Waveform Data,,
4, ,-47, ,
-1, ,-47, ,
-1, ,-46, ,
-1, ,-49, ,
-4, ,-47, ,
-2, ,-46, ,
-5, ,-47, ,
-5, ,-47, ,
-1, ,-46, ,
-2, ,-49, ,
-2, ,-47, ,
1, ,-47, ,
3, ,-47, ,
1, ,-47, ,
-2, ,-45, ,
0, ,-49, ,
-2, ,-47, ,
-4, ,-47, ,
-5, ,-47, ,
-5, ,-47, ,
-6, ,-46, ,
-4, ,-49, ,
-9, ,-47, ,
-4, ,-46, ,
-4, ,-47, ,
-6, ,-47, ,
-5, ,-46, ,
3, ,-49, ,
3, ,-47, ,
3, ,-47, ,
-1, ,-47, ,
-2, ,-47, ,
-5, ,-46, ,
-4, ,-49, ,
-9, ,-47, ,
-4, ,-47, ,
3, ,-47, ,
-1, ,-47, ,
-1, ,-45, ,
3, ,-49, ,
-2, ,-46, ,
-4, ,-47, ,
-5, ,-47, ,
0, ,-47, ,
3, ,-46, ,
4, ,-49, ,
1, ,-47, ,
4, ,-46, ,
1, ,-47, ,
1, ,-47, ,
1, ,-46, ,
8, ,-47, ,
8, ,-46, ,
3, ,-47, ,
4, ,-47, ,
3, ,-47, ,
-1, ,-46, ,
0, ,-49, ,
-1, ,-47, ,
0, ,-47, ,
1, ,-47, ,
-1, ,-47, ,
-4, ,-45, ,
3, ,-49, ,
1, ,-47, ,
3, ,-47, ,
1, ,-47, ,
5, ,-47, ,
1, ,-46, ,
1, ,-49, ,
-4, ,-47, ,
3, ,-47, ,
3, ,-47, ,
4, ,-47, ,
0, ,-46, ,
4, ,-49, ,
4, ,-47, ,
3, ,-47, ,
0, ,-47, ,
6, ,-47, ,
5, ,-46, ,
-1, ,-49, ,
-4, ,-47, ,
3, ,-47, ,
1, ,-47, ,
3, ,-47, ,
1, ,-46, ,
6, ,-47, ,
5, ,-47, ,
5, ,-47, ,
0, ,-47, ,
3, ,-47, ,
1, ,-46, ,
1, ,-49, ,
-4, ,-47, ,
3, ,-46, ,
4, ,-47, ,
1, ,-47, ,
0, ,-46, ,
3, ,-49, ,
4, ,-47, ,
1, ,-47, ,
3, ,-47, ,
4, ,-49, ,
5, ,-46, ,
3, ,-49, ,
-1, ,-47, ,
1, ,-46, ,
4, ,-47, ,
1, ,-47, ,
0, ,-45, ,
4, ,-49, ,
4, ,-46, ,
9, ,-47, ,
3, ,-47, ,
6, ,-47, ,
6, ,-46, ,
4, ,-49, ,
0, ,-47, ,
4, ,-47, ,
3, ,-47, ,
4, ,-47, ,
1, ,-46, ,
5, ,-49, ,
8, ,-47, ,
5, ,-47, ,
5, ,-47, ,
4, ,-47, ,
5, ,-46, ,
8, ,-49, ,
3, ,-47, ,
8, ,-46, ,
10, ,-47, ,
5, ,-47, ,
1, ,-45, ,
3, ,-49, ,
1, ,-47, ,
0, ,-47, ,
-1, ,-47, ,
4, ,-47, ,
5, ,-46, ,
6, ,-49, ,
4, ,-47, ,
5, ,-46, ,
5, ,-47, ,
6, ,-49, ,
4, ,-46, ,
5, ,-49, ,
9, ,-47, ,
8, ,-47, ,
4, ,-47, ,
6, ,-47, ,
8, ,-46, ,
8, ,-49, ,
1, ,-47, ,
1, ,-47, ,
5, ,-47, ,
1, ,-47, ,
-1, ,-46, ,
5, ,-47, ,
5, ,-47, ,
4, ,-47, ,
1, ,-47, ,
4, ,-47, ,
5, ,-46, ,
3, ,-49, ,
-1, ,-47, ,
1, ,-46, ,
4, ,-47, ,
4, ,-47, ,
-2, ,-46, ,
1, ,-49, ,
0, ,-47, ,
0, ,-47, ,
-2, ,-47, ,
-1, ,-47, ,
0, ,-46, ,
3, ,-49, ,
3, ,-47, ,
5, ,-46, ,
5, ,-47, ,
3, ,-47, ,
-2, ,-46, ,
5, ,-47, ,
1, ,-47, ,
3, ,-47, ,
1, ,-47, ,
4, ,-47, ,
8, ,-46, ,
10, ,-49, ,
1, ,-47, ,
6, ,-46, ,
3, ,-47, ,
1, ,-47, ,
-4, ,-46, ,
3, ,-49, ,
-1, ,-47, ,
-1, ,-47, ,
1, ,-47, ,
3, ,-47, ,
0, ,-46, ,
3, ,-49, ,
-2, ,-47, ,
3, ,-46, ,
5, ,-47, ,
0, ,-47, ,
-1, ,-45, ,
5, ,-47, ,
3, ,-47, ,
3, ,-47, ,
0, ,-47, ,
0, ,-47, ,
3, ,-46, ,
5, ,-49, ,
0, ,-46, ,
4, ,-46, ,
6, ,-47, ,
1, ,-49, ,
-2, ,-46, ,
3, ,-47, ,
1, ,-47, ,
0, ,-47, ,
-2, ,-47, ,
3, ,-47, ,
4, ,-46, ,
5, ,-49, ,
0, ,-47, ,
3, ,-46, ,
5, ,-47, ,
0, ,-47, ,
-6, ,-46, ,
1, ,-47, ,
0, ,-47, ,
1, ,-47, ,
-1, ,-47, ,
-2, ,-47, ,
1, ,-46, ,
1, ,-49, ,
-2, ,-47, ,
-2, ,-46, ,
-2, ,-47, ,
-4, ,-47, ,
-7, ,-46, ,
-2, ,-47, ,
-4, ,-47, ,
-4, ,-46, ,
-7, ,-47, ,
-2, ,-47, ,
-1, ,-46, ,
-1, ,-49, ,
-6, ,-46, ,
3, ,-46, ,
0, ,-47, ,
-2, ,-49, ,
0, ,-46, ,
-1, ,-47, ,
-1, ,-47, ,
-4, ,-47, ,
-7, ,-47, ,
-2, ,-47, ,
-1, ,-46, ,
3, ,-49, ,
-2, ,-47, ,
1, ,-47, ,
3, ,-47, ,
3, ,-47, ,
-1, ,-46, ,
3, ,-47, ,
3, ,-47, ,
-1, ,-47, ,
-5, ,-47, ,
-1, ,-47, ,
-2, ,-46, ,
0, ,-49, ,
-5, ,-47, ,
0, ,-47, ,
0, ,-47, ,
-2, ,-47, ,
-6, ,-46, ,
1, ,-49, ,
-4, ,-47, ,
-1, ,-47, ,
-1, ,-47, ,
1, ,-47, ,
1, ,-45, ,
-1, ,-47, ,
-1, ,-47, ,
0, ,-46, ,
3, ,-47, ,
0, ,-49, ,
0, ,-46, ,
4, ,-47, ,
3, ,-47, ,
0, ,-47, ,
-1, ,-47, ,
-1, ,-47, ,
-1, ,-46, ,
-1, ,-49, ,
-5, ,-47, ,
0, ,-47, ,
4, ,-47, ,
0, ,-47, ,
-4, ,-46, ,
3, ,-49, ,
3, ,-47, ,
-1, ,-47, ,
-2, ,-47, ,
-1, ,-47, ,
1, ,-46, ,
0, ,-49, ,
-5, ,-47, ,
0, ,-46, ,
3, ,-47, ,
-1, ,-47, ,
-4, ,-46, ,
-2, ,-49, ,
0, ,-47, ,
-4, ,-47, ,
-4, ,-46, ,
-1, ,-47, ,
-2, ,-46, ,
3, ,-49, ,
-5, ,-47, ,
1, ,-46, ,
4, ,-47, ,
0, ,-47, ,
-1, ,-46, ,
3, ,-47, ,
3, ,-47, ,
1, ,-47, ,
-1, ,-47, ,
1, ,-47, ,
3, ,-46, ,
0, ,-49, ,
-6, ,-47, ,
-1, ,-46, ,
3, ,-47, ,
1, ,-47, ,
1, ,-46, ,
6, ,-49, ,
5, ,-47, ,
4, ,-47, ,
0, ,-47, ,
1, ,-47, ,
0, ,-46, ,
0, ,-49, ,
-5, ,-47, ,
1, ,-46, ,
4, ,-47, ,
1, ,-47, ,
0, ,-45, ,
4, ,-49, ,
3, ,-47, ,
3, ,-47, ,
1, ,-47, ,
1, ,-47, ,
3, ,-46, ,
3, ,-49, ,
-2, ,-47, ,
1, ,-47, ,
1, ,-47, ,
1, ,-47, ,
-2, ,-46, ,
1, ,-49, ,
4, ,-47, ,
3, ,-47, ,
3, ,-47, ,
4, ,-47, ,
6, ,-46, ,
8, ,-49, ,
1, ,-47, ,
4, ,-47, ,
5, ,-47, ,
5, ,-47, ,
4, ,-46, ,
6, ,-49, ,
5, ,-47, ,
5, ,-47, ,
3, ,-47, ,
3, ,-47, ,
0, ,-46, ,
3, ,-49, ,
-4, ,-47, ,
3, ,-46, ,
3, ,-47, ,
4, ,-47, ,
3, ,-46, ,
6, ,-49, ,
5, ,-47, ,
5, ,-47, ,
0, ,-47, ,
1, ,-47, ,
1, ,-46, ,
4, ,-49, ,
-2, ,-47, ,
1, ,-47, ,
4, ,-47, ,
3, ,-47, ,
-1, ,-46, ,
4, ,-49, ,
0, ,-47, ,
3, ,-47, ,
4, ,-47, ,
5, ,-47, ,
8, ,-46, ,
6, ,-49, ,
4, ,-47, ,
4, ,-47, ,
5, ,-47, ,
1, ,-47, ,
0, ,-46, ,
6, ,-49, ,
6, ,-47, ,
3, ,-47, ,
4, ,-47, ,
3, ,-47, ,
1, ,-46, ,
4, ,-49, ,
0, ,-47, ,
1, ,-46, ,
3, ,-47, ,
3, ,-47, ,
-1, ,-45, ,
4, ,-49, ,
4, ,-47, ,
4, ,-47, ,
3, ,-47, ,
4, ,-47, ,
6, ,-46, ,
6, ,-49, ,
3, ,-47, ,
6, ,-46, ,
5, ,-47, ,
4, ,-47, ,
1, ,-46, ,
4, ,-49, ,
4, ,-47, ,
4, ,-47, ,
1, ,-47, ,
6, ,-47, ,
6, ,-46, ,
9, ,-49, ,
3, ,-47, ,
8, ,-47, ,
8, ,-47, ,
3, ,-47, ,
1, ,-45, ,
3, ,-49, ,
1, ,-47, ,
3, ,-47, ,
0, ,-47, ,
4, ,-47, ,
4, ,-46, ,
4, ,-49, ,
-1, ,-47, ,
1, ,-46, ,
5, ,-47, ,
0, ,-47, ,
-1, ,-46, ,
4, ,-49, ,
3, ,-47, ,
0, ,-47, ,
-2, ,-47, ,
0, ,-47, ,
1, ,-46, ,
3, ,-49, ,
-2, ,-47, ,
-1, ,-47, ,
5, ,-47, ,
3, ,-47, ,
-1, ,-45, ,
1, ,-49, ,
1, ,-47, ,
3, ,-47, ,
0, ,-47, ,
1, ,-47, ,
3, ,-46, ,
5, ,-49, ,
1, ,-46, ,
4, ,-46, ,
4, ,-47, ,
1, ,-49, ,
-2, ,-46, ,
1, ,-49, ,
0, ,-47, ,
1, ,-47, ,
-1, ,-47, ,
3, ,-47, ,
5, ,-46, ,
10, ,-49, ,
0, ,-47, ,
5, ,-47, ,
4, ,-47, ,
-1, ,-49, ,
-2, ,-45, ,
0, ,-47, ,
0, ,-47, ,
1, ,-47, ,
-2, ,-47, ,
1, ,-47, ,
0, ,-46, ,
1, ,-49, ,
-1, ,-47, ,
3, ,-47, ,
4, ,-47, ,
3, ,-47, ,
1, ,-46, ,
5, ,-49, ,
5, ,-47, ,
1, ,-46, ,
1, ,-47, ,
3, ,-47, ,
1, ,-46, ,
5, ,-49, ,
-1, ,-47, ,
3, ,-47, ,
5, ,-47, ,
0, ,-49, ,
0, ,-45, ,
1, ,-47, ,
-7, ,-43, ,
0, ,-35, ,
0, ,-24, ,
4, ,-15, ,
10, ,-6, ,
6, ,1, ,
4, ,7, ,
5, ,13, ,
8, ,17, ,
6, ,21, ,
5, ,24, ,
5, ,27, ,
6, ,31, ,
6, ,33, ,
0, ,34, ,
-1, ,36, ,
0, ,37, ,
3, ,38, ,
0, ,39, ,
5, ,40, ,
3, ,41, ,
0, ,42, ,
-5, ,41, ,
1, ,43, ,
0, ,43, ,
0, ,43, ,
1, ,44, ,
-2, ,44, ,
-1, ,44, ,
0, ,45, ,
-7, ,44, ,
-2, ,45, ,
3, ,45, ,
1, ,45, ,
-5, ,45, ,
1, ,45, ,
3, ,45, ,
1, ,45, ,
-2, ,45, ,
-1, ,45, ,
-5, ,45, ,
-5, ,46, ,
-5, ,45, ,
1, ,45, ,
3, ,45, ,
0, ,46, ,
-5, ,44, ,
3, ,46, ,
-1, ,45, ,
1, ,45, ,
-1, ,45, ,
3, ,45, ,
1, ,44, ,
3, ,46, ,
-2, ,45, ,
-1, ,45, ,
1, ,45, ,
0, ,45, ,
-1, ,44, ,
4, ,46, ,
3, ,46, ,
3, ,45, ,
-1, ,45, ,
1, ,45, ,
-2, ,44, ,
0, ,46, ,
-4, ,45, ,
-2, ,45, ,
5, ,45, ,
1, ,46, ,
-2, ,44, ,
8, ,46, ,
4, ,45, ,
5, ,45, ,
3, ,45, ,
1, ,45, ,
3, ,44, ,
1, ,46, ,
-6, ,45, ,
-1, ,45, ,
1, ,45, ,
-2, ,45, ,
-2, ,44, ,
5, ,46, ,
-2, ,45, ,
0, ,45, ,
0, ,45, ,
-1, ,45, ,
-2, ,44, ,
1, ,45, ,
-4, ,44, ,
3, ,44, ,
3, ,45, ,
4, ,45, ,
1, ,44, ,
1, ,45, ,
0, ,45, ,
3, ,45, ,
-5, ,45, ,
-1, ,45, ,
1, ,44, ,
3, ,45, ,
-5, ,44, ,
0, ,44, ,
3, ,45, ,
0, ,45, ,
-1, ,44, ,
4, ,46, ,
3, ,45, ,
4, ,45, ,
1, ,45, ,
1, ,45, ,
0, ,44, ,
0, ,46, ,
-6, ,45, ,
-2, ,45, ,
0, ,45, ,
0, ,45, ,
-1, ,44, ,
4, ,45, ,
1, ,45, ,
3, ,45, ,
1, ,45, ,
1, ,45, ,
1, ,44, ,
3, ,46, ,
-1, ,44, ,
3, ,44, ,
8, ,45, ,
5, ,45, ,
0, ,43, ,
5, ,45, ,
4, ,45, ,
4, ,45, ,
4, ,45, ,
1, ,45, ,
3, ,44, ,
4, ,46, ,
-2, ,44, ,
4, ,45, ,
5, ,45, ,
3, ,45, ,
-1, ,44, ,
3, ,45, ,
4, ,45, ,
5, ,45, ,
6, ,45, ,
5, ,45, ,
6, ,44, ,
8, ,46, ,
0, ,44, ,
3, ,44, ,
4, ,45, ,
1, ,45, ,
-1, ,44, ,
4, ,45, ,
5, ,45, ,
4, ,44, ,
4, ,45, ,
4, ,44, ,
4, ,44, ,
6, ,45, ,
-1, ,44, ,
4, ,45, ,
5, ,45, ,
1, ,45, ,
-2, ,44, ,
4, ,45, ,
3, ,45, ,
4, ,45, ,
0, ,45, ,
3, ,45, ,
3, ,44, ,
4, ,46, ,
3, ,45, ,
4, ,44, ,
4, ,45, ,
0, ,45, ,
0, ,44, ,
1, ,45, ,
0, ,45, ,
0, ,44, ,
-4, ,45, ,
1, ,45, ,
1, ,43, ,
3, ,45, ,
-2, ,45, ,
1, ,44, ,
1, ,45, ,
1, ,45, ,
-4, ,44, ,
4, ,45, ,
4, ,45, ,
3, ,44, ,
4, ,45, ,
3, ,45, ,
4, ,43, ,
3, ,46, ,
-1, ,44, ,
-1, ,44, ,
3, ,45, ,
3, ,45, ,
-2, ,43, ,
4, ,45, ,
3, ,44, ,
-1, ,45, ,
1, ,45, ,
4, ,45, ,
5, ,44, ,
8, ,46, ,
1, ,44, ,
5, ,45, ,
6, ,45, ,
6, ,45, ,
3, ,44, ,
-4, ,45, ,
1, ,45, ,
5, ,44, ,
-1, ,45, ,
3, ,45, ,
4, ,43, ,
8, ,45, ,
1, ,44, ,
4, ,44, ,
4, ,45, ,
0, ,45, ,
-4, ,44, ,
4, ,45, ,
3, ,45, ,
4, ,44, ,
3, ,45, ,
6, ,44, ,
4, ,44, ,
8, ,46, ,
1, ,44, ,
5, ,44, ,
4, ,45, ,
3, ,45, ,
-2, ,44, ,
3, ,45, ,
1, ,44, ,
4, ,44, ,
1, ,45, ,
1, ,45, ,
4, ,44, ,
3, ,46, ,
-1, ,45, ,
3, ,44, ,
4, ,45, ,
3, ,45, ,
-2, ,43, ,
4, ,45, ,
1, ,44, ,
-1, ,44, ,
-4, ,45, ,
1, ,45, ,
3, ,44, ,
0, ,46, ,
-2, ,45, ,
4, ,45, ,
4, ,45, ,
0, ,45, ,
-1, ,43, ,
0, ,45, ,
1, ,45, ,
0, ,45, ,
0, ,45, ,
1, ,45, ,
4, ,44, ,
8, ,46, ,
-1, ,45, ,
1, ,44, ,
4, ,45, ,
0, ,45, ,
-4, ,44, ,
0, ,45, ,
0, ,45, ,
-2, ,45, ,
-1, ,45, ,
1, ,45, ,
1, ,43, ,
5, ,45, ,
0, ,45, ,
0, ,45, ,
5, ,45, ,
-1, ,45, ,
-1, ,44, ,
3, ,45, ,
1, ,45, ,
3, ,45, ,
-1, ,45, ,
-1, ,45, ,
3, ,43, ,
4, ,45, ,
-2, ,44, ,
0, ,44, ,
3, ,45, ,
1, ,45, ,
0, ,43, ,
4, ,46, ,
1, ,45, ,
-1, ,44, ,
-2, ,45, ,
-2, ,45, ,
-4, ,43, ,
0, ,46, ,
-1, ,44, ,
4, ,44, ,
9, ,45, ,
4, ,45, ,
1, ,44, ,
5, ,45, ,
1, ,45, ,
3, ,44, ,
1, ,45, ,
3, ,45, ,
5, ,43, ,
5, ,46, ,
-1, ,44, ,
0, ,44, ,
0, ,45, ,
0, ,45, ,
-6, ,43, ,
0, ,45, ,
1, ,45, ,
1, ,45, ,
0, ,45, ,
0, ,45, ,
-1, ,43, ,
0, ,45, ,
-7, ,45, ,
0, ,44, ,
1, ,45, ,
0, ,44, ,
1, ,44, ,
4, ,45, ,
5, ,44, ,
0, ,45, ,
-1, ,45, ,
-2, ,45, ,
-1, ,44, ,
0, ,46, ,
-4, ,45, ,
4, ,44, ,
3, ,45, ,
1, ,45, ,
-1, ,43, ,
4, ,45, ,
3, ,45, ,
1, ,45, ,
0, ,45, ,
1, ,45, ,
4, ,43, ,
4, ,45, ,
0, ,45, ,
1, ,44, ,
4, ,45, ,
-1, ,45, ,
-2, ,43, ,
3, ,45, ,
0, ,45, ,
1, ,44, ,
-1, ,45, ,
0, ,45, ,
3, ,44, ,
0, ,45, ,
-2, ,44, ,
1, ,44, ,
3, ,45, ,
4, ,45, ,
-2, ,43, ,
8, ,45, ,
6, ,45, ,
1, ,44, ,
0, ,45, ,
-1, ,45, ,
1, ,44, ,
3, ,45, ,
-4, ,44, ,
0, ,45, ,
4, ,45, ,
1, ,45, ,
-1, ,43, ,
5, ,45, ,
4, ,45, ,
4, ,44, ,
1, ,45, ,
0, ,44, ,
3, ,43, ,
4, ,45, ,
-6, ,44, ,
0, ,44, ,
3, ,45, ,
1, ,45, ,
-2, ,43, ,
-1, ,45, ,
3, ,45, ,
3, ,44, ,
-1, ,45, ,
5, ,45, ,
4, ,44, ,
4, ,45, ,
-4, ,44, ,
0, ,44, ,
0, ,45, ,
-2, ,45, ,
-5, ,44, ,
0, ,45, ,
0, ,45, ,
4, ,45, ,
1, ,45, ,
3, ,45, ,
4, ,43, ,
4, ,46, ,
-1, ,44, ,
0, ,44, ,
4, ,45, ,
3, ,45, ,
0, ,43, ,
3, ,45, ,
1, ,45, ,
4, ,44, ,
0, ,45, ,
0, ,45, ,
-2, ,44, ,
1, ,45, ,
-2, ,45, ,
5, ,44, ,
4, ,45, ,
4, ,45, ,
-1, ,44, ,
4, ,45, ,
1, ,45, ,
3, ,44, ,
3, ,45, ,
3, ,45, ,
4, ,44, ,
5, ,45, ,
-1, ,44, ,
3, ,44, ,
0, ,45, ,
-1, ,45, ,
-6, ,43, ,
3, ,45, ,
3, ,45, ,
3, ,44, ,
5, ,45, ,
6, ,45, ,
4, ,43, ,
6, ,45, ,
0, ,45, ,
5, ,44, ,
8, ,45, ,
8, ,45, ,
3, ,44, ,
6, ,45, ,
4, ,45, ,
4, ,45, ,
3, ,45, ,
3, ,45, ,
4, ,44, ,
1, ,45, ,
-2, ,45, ,
1, ,44, ,
6, ,45, ,
-2, ,45, ,
-5, ,43, ,
4, ,45, ,
3, ,44, ,
0, ,44, ,
-1, ,45, ,
3, ,44, ,
3, ,44, ,
6, ,45, ,
1, ,45, ,
4, ,44, ,
5, ,45, ,
3, ,45, ,
-2, ,43, ,
-1, ,45, ,
-4, ,45, ,
1, ,45, ,
0, ,45, ,
3, ,45, ,
4, ,44, ,
4, ,46, ,
0, ,45, ,
3, ,44, ,
4, ,45, ,
0, ,45, ,
-1, ,43, ,
0, ,45, ,
0, ,45, ,
0, ,44, ,
3, ,45, ,
1, ,44, ,
-2, ,43, ,
4, ,45, ,
-4, ,45, ,
1, ,44, ,
4, ,45, ,
0, ,45, ,
0, ,43, ,
0, ,45, ,
4, ,45, ,
0, ,45, ,
0, ,45, ,
0, ,45, ,
4, ,43, ,
4, ,46, ,
-2, ,45, ,
1, ,44, ,
4, ,45, ,
5, ,45, ,
-1, ,43, ,
1, ,45, ,
3, ,45, ,
4, ,44, ,
0, ,45, ,
1, ,45, ,
3, ,43, ,
4, ,46, ,
-1, ,45, ,
3, ,44, ,
1, ,45, ,
-1, ,44, ,
-2, ,43, ,
-1, ,45, ,
-1, ,45, ,
0, ,45, ,
0, ,45, ,
4, ,45, ,
5, ,43, ,
10, ,45, ,
1, ,45, ,
1, ,44, ,
3, ,45, ,
-1, ,45, ,
-1, ,43, ,
3, ,46, ,
1, ,44, ,
0, ,44, ,
-2, ,45, ,
0, ,45, ,
-1, ,44, ,
3, ,45, ,
0, ,45, ,
-2, ,45, ,
5, ,45, ,
4, ,45, ,
-1, ,43, ,
6, ,45, ,
1, ,45, ,
1, ,44, ,
-1, ,45, ,
1, ,45, ,
4, ,44, ,
1, ,45, ,
-1, ,44, ,
6, ,44, ,
6, ,45, ,
4, ,45, ,
0, ,43, ,
3, ,45, ,
0, ,45, ,
-5, ,45, ,
-4, ,45, ,
0, ,45, ,
0, ,44, ,
0, ,45, ,
-6, ,45, ,
1, ,45, ,
6, ,45, ,
4, ,45, ,
-2, ,43, ,
0, ,45, ,
-1, ,45, ,
1, ,45, ,
0, ,45, ,
1, ,44, ,
1, ,44, ,
4, ,46, ,
-5, ,45, ,
-2, ,44, ,
-1, ,45, ,
-4, ,45, ,
-7, ,43, ,
0, ,45, ,
1, ,45, ,
3, ,44, ,
3, ,45, ,
4, ,44, ,
3, ,44, ,
4, ,45, ,
-1, ,44, ,
4, ,45, ,
6, ,45, ,
3, ,44, ,
3, ,44, ,
8, ,45, ,
-1, ,45, ,
1, ,44, ,
-2, ,45, ,
-5, ,44, ,
0, ,44, ,
-1, ,45, ,
-2, ,44, ,
0, ,44, ,
5, ,45, ,
3, ,45, ,
0, ,43, ,
5, ,45, ,
0, ,45, ,
0, ,44, ,
0, ,45, ,
1, ,45, ,
3, ,44, ,
4, ,45, ,
0, ,44, ,
1, ,44, ,
1, ,45, ,
0, ,45, ,
-5, ,44, ,
3, ,45, ,
3, ,45, ,
3, ,44, ,
-1, ,45, ,
-2, ,45, ,
-1, ,43, ,
-4, ,45, ,
-9, ,45, ,
0, ,44, ,
1, ,45, ,
3, ,45, ,
1, ,43, ,
4, ,45, ,
4, ,45, ,
1, ,44, ,
-1, ,45, ,
0, ,44, ,
0, ,43, ,
3, ,45, ,
-6, ,44, ,
0, ,45, ,
1, ,45, ,
-1, ,45, ,
-5, ,44, ,
1, ,45, ,
1, ,44, ,
-1, ,44, ,
-1, ,45, ,
1, ,45, ,
3, ,43, ,
5, ,45, ,
0, ,45, ,
1, ,44, ,
3, ,45, ,
0, ,45, ,
-1, ,43, ,
4, ,45, ,
1, ,45, ,
4, ,44, ,
0, ,45, ,
1, ,45, ,
3, ,43, ,
3, ,45, ,
-2, ,44, ,
3, ,44, ,
5, ,45, ,
4, ,45, ,
3, ,44, ,
6, ,45, ,
5, ,45, ,
8, ,45, ,
5, ,45, ,
4, ,45, ,
5, ,44, ,
4, ,45, ,
-2, ,45, ,
1, ,44, ,
0, ,45, ,
-1, ,45, ,
-4, ,43, ,
3, ,45, ,
3, ,45, ,
0, ,45, ,
-1, ,45, ,
1, ,45, ,
0, ,43, ,
4, ,46, ,
-2, ,44, ,
3, ,45, ,
6, ,45, ,
4, ,45, ,
3, ,44, ,
6, ,45, ,
3, ,44, ,
5, ,44, ,
4, ,45, ,
4, ,45, ,
3, ,44, ,
5, ,45, ,
-2, ,45, ,
0, ,44, ,
3, ,45, ,
-1, ,45, ,
-4, ,43, ,
5, ,45, ,
4, ,44, ,
6, ,45, ,
4, ,45, ,
4, ,45, ,
1, ,44, ,
1, ,46, ,
-2, ,44, ,
3, ,44, ,
3, ,45, ,
-1, ,45, ,
-2, ,43, ,
3, ,45, ,
-1, ,45, ,
1, ,45, ,
0, ,45, ,
0, ,45, ,
4, ,43, ,
4, ,46, ,
-1, ,44, ,
4, ,44, ,
4, ,45, ,
3, ,45, ,
-2, ,43, ,
1, ,45, ,
0, ,45, ,
1, ,44, ,
-2, ,45, ,
3, ,44, ,
4, ,44, ,
4, ,45, ,
0, ,44, ,
3, ,44, ,
4, ,45, ,
3, ,45, ,
-2, ,44, ,
4, ,45, ,
5, ,44, ,
5, ,40, ,
0, ,31, ,
-2, ,20, ,
-1, ,11, ,
0, ,3, ,
-6, ,-4, ,
0, ,-9, ,
3, ,-16, ,
-1, ,-20, ,
-2, ,-24, ,
-1, ,-27, ,
0, ,-31, ,
-1, ,-33, ,
3, ,-35, ,
6, ,-37, ,
15, ,-37, ,
29, ,-40, ,
26, ,-41, ,
40, ,-41, ,
50, ,-43, ,
45, ,-43, ,
39, ,-43, ,
36, ,-45, ,
33, ,-45, ,
34, ,-45, ,
30, ,-46, ,
36, ,-46, ,
31, ,-45, ,
26, ,-47, ,
18, ,-47, ,
19, ,-46, ,
15, ,-47, ,
14, ,-49, ,
6, ,-46, ,
8, ,-49, ,
8, ,-47, ,
5, ,-47, ,
0, ,-49, ,
4, ,-47, ,
6, ,-47, ,
6, ,-49, ,
3, ,-47, ,
4, ,-47, ,
8, ,-49, ,
3, ,-49, ,
-2, ,-46, ,
4, ,-49, ,
1, ,-49, ,
3, ,-47, ,
3, ,-49, ,
4, ,-47, ,
6, ,-47, ,
3, ,-49, ,
-1, ,-49, ,
3, ,-47, ,
4, ,-49, ,
4, ,-49, ,
4, ,-46, ,
8, ,-49, ,
5, ,-47, ,
4, ,-47, ,
0, ,-49, ,
-2, ,-47, ,
-6, ,-47, ,
-6, ,-49, ,
-10, ,-47, ,
-5, ,-47, ,
-7, ,-49, ,
-5, ,-49, ,
-7, ,-46, ,
-4, ,-49, ,
-1, ,-47, ,
1, ,-47, ,
5, ,-47, ,
11, ,-47, ,
13, ,-47, ,
15, ,-49, ,
10, ,-47, ,
13, ,-47, ,
8, ,-49, ,
5, ,-49, ,
-1, ,-46, ,
3, ,-49, ,
5, ,-47, ,
4, ,-47, ,
3, ,-47, ,
6, ,-47, ,
5, ,-47, ,
9, ,-49, ,
1, ,-47, ,
5, ,-47, ,
6, ,-49, ,
1, ,-49, ,
-2, ,-47, ,
3, ,-49, ,
1, ,-47, ,
0, ,-47, ,
-1, ,-47, ,
4, ,-47, ,
3, ,-46, ,
5, ,-49, ,
3, ,-47, ,
4, ,-47, ,
6, ,-49, ,
5, ,-47, ,
0, ,-46, ,
5, ,-49, ,
1, ,-47, ,
-2, ,-47, ,
-2, ,-47, ,
-2, ,-47, ,
-1, ,-46, ,
1, ,-49, ,
-1, ,-47, ,
3, ,-47, ,
8, ,-47, ,
3, ,-47, ,
-1, ,-46, ,
3, ,-47, ,
3, ,-47, ,
-2, ,-47, ,
-5, ,-47, ,
-1, ,-47, ,
-2, ,-46, ,
0, ,-49, ,
-5, ,-47, ,
3, ,-47, ,
1, ,-47, ,
3, ,-49, ,
0, ,-46, ,
3, ,-47, ,
5, ,-47, ,
4, ,-47, ,
4, ,-47, ,
6, ,-47, ,
3, ,-46, ,
4, ,-49, ,
-2, ,-47, ,
1, ,-47, ,
3, ,-47, ,
3, ,-47, ,
4, ,-46, ,
6, ,-49, ,
6, ,-47, ,
6, ,-47, ,
3, ,-47, ,
3, ,-47, ,
1, ,-47, ,
3, ,-49, ,
-1, ,-47, ,
3, ,-47, ,
5, ,-47, ,
4, ,-49, ,
4, ,-46, ,
8, ,-49, ,
4, ,-47, ,
4, ,-47, ,
-1, ,-47, ,
3, ,-47, ,
3, ,-47, ,
5, ,-49, ,
0, ,-47, ,
3, ,-46, ,
5, ,-47, ,
4, ,-47, ,
-2, ,-46, ,
5, ,-47, ,
5, ,-47, ,
5, ,-47, ,
5, ,-47, ,
8, ,-47, ,
5, ,-46, ,
4, ,-49, ,
5, ,-47, ,
5, ,-47, ,
4, ,-47, ,
3, ,-47, ,
-1, ,-46, ,
5, ,-47, ,
5, ,-47, ,
1, ,-47, ,
1, ,-47, ,
3, ,-47, ,
3, ,-46, ,
4, ,-49, ,
-4, ,-47, ,
4, ,-46, ,
10, ,-47, ,
6, ,-47, ,
5, ,-46, ,
6, ,-47, ,
6, ,-47, ,
5, ,-47, ,
4, ,-47, ,
5, ,-47, ,
6, ,-46, ,
5, ,-49, ,
1, ,-47, ,
4, ,-47, ,
6, ,-47, ,
3, ,-47, ,
1, ,-46, ,
6, ,-49, ,
11, ,-47, ,
9, ,-47, ,
3, ,-47, ,
8, ,-47, ,
8, ,-46, ,
8, ,-49, ,
4, ,-47, ,
5, ,-46, ,
6, ,-47, ,
5, ,-47, ,
3, ,-46, ,
8, ,-47, ,
4, ,-47, ,
5, ,-47, ,
3, ,-47, ,
8, ,-47, ,
8, ,-46, ,
4, ,-49, ,
0, ,-47, ,
1, ,-46, ,
5, ,-47, ,
5, ,-47, ,
1, ,-46, ,
6, ,-47, ,
6, ,-47, ,
5, ,-47, ,
5, ,-47, ,
4, ,-47, ,
5, ,-46, ,
6, ,-49, ,
0, ,-47, ,
10, ,-47, ,
10, ,-47, ,
5, ,-47, ,
1, ,-46, ,
4, ,-47, ,
4, ,-47, ,
4, ,-47, ,
3, ,-47, ,
4, ,-47, ,
6, ,-46, ,
8, ,-49, ,
1, ,-47, ,
6, ,-46, ,
8, ,-47, ,
8, ,-47, ,
3, ,-46, ,
8, ,-47, ,
10, ,-47, ,
6, ,-47, ,
4, ,-47, ,
6, ,-47, ,
8, ,-46, ,
6, ,-49, ,
-1, ,-47, ,
4, ,-46, ,
4, ,-47, ,
-2, ,-47, ,
-2, ,-46, ,
1, ,-47, ,
0, ,-47, ,
4, ,-47, ,
4, ,-47, ,
4, ,-47, ,
5, ,-46, ,
6, ,-49, ,
-2, ,-47, ,
0, ,-46, ,
4, ,-47, ,
4, ,-47, ,
1, ,-46, ,
10, ,-49, ,
8, ,-47, ,
6, ,-46, ,
6, ,-47, ,
6, ,-47, ,
6, ,-47, ,
8, ,-49, ,
5, ,-47, ,
8, ,-47, ,
10, ,-47, ,
5, ,-47, ,
-2, ,-46, ,
0, ,-49, ,
3, ,-47, ,
3, ,-47, ,
3, ,-47, ,
4, ,-47, ,
8, ,-46, ,
6, ,-49, ,
1, ,-47, ,
5, ,-47, ,
9, ,-47, ,
8, ,-47, ,
-5, ,-46, ,
5, ,-49, ,
6, ,-47, ,
5, ,-47, ,
6, ,-47, ,
8, ,-47, ,
10, ,-46, ,
10, ,-49, ,
6, ,-47, ,
11, ,-46, ,
10, ,-47, ,
10, ,-47, ,
6, ,-46, ,
10, ,-49, ,
8, ,-47, ,
10, ,-47, ,
6, ,-47, ,
6, ,-47, ,
6, ,-46, ,
5, ,-49, ,
1, ,-47, ,
6, ,-46, ,
8, ,-47, ,
5, ,-49, ,
5, ,-46, ,
8, ,-49, ,
8, ,-47, ,
5, ,-47, ,
1, ,-47, ,
1, ,-47, ,
4, ,-46, ,
8, ,-47, ,
4, ,-47, ,
8, ,-46, ,
10, ,-47, ,
5, ,-47, ,
4, ,-46, ,
4, ,-47, ,
0, ,-47, ,
-1, ,-47, ,
-2, ,-47, ,
-5, ,-47, ,
3, ,-46, ,
3, ,-49, ,
-4, ,-47, ,
-1, ,-46, ,
-1, ,-47, ,
-4, ,-47, ,
-9, ,-46, ,
-1, ,-47, ,
-2, ,-47, ,
-4, ,-46, ,
-5, ,-47, ,
-5, ,-47, ,
-1, ,-46, ,
1, ,-49, ,
-5, ,-47, ,
3, ,-46, ,
5, ,-47, ,
0, ,-47, ,
-1, ,-46, ,
5, ,-47, ,
4, ,-47, ,
-1, ,-47, ,
-9, ,-47, ,
-5, ,-47, ,
-5, ,-46, ,
-2, ,-49, ,
-4, ,-47, ,
0, ,-47, ,
4, ,-47, ,
0, ,-47, ,
-1, ,-46, ,
3, ,-49, ,
3, ,-47, ,
-1, ,-46, ,
-2, ,-47, ,
-1, ,-47, ,
-1, ,-46, ,
0, ,-49, ,
-4, ,-47, ,
3, ,-46, ,
1, ,-47, ,
-1, ,-47, ,
-2, ,-46, ,
1, ,-47, ,
-1, ,-47, ,
-1, ,-47, ,
-6, ,-47, ,
-2, ,-47, ,
1, ,-46, ,
1, ,-49, ,
-1, ,-47, ,
1, ,-46, ,
4, ,-47, ,
0, ,-47, ,
-1, ,-46, ,
5, ,-49, ,
3, ,-47, ,
4, ,-47, ,
-1, ,-47, ,
-4, ,-47, ,
-4, ,-46, ,
0, ,-49, ,
-9, ,-47, ,
-2, ,-47, ,
1, ,-47, ,
-2, ,-47, ,
-4, ,-46, ,
3, ,-47, ,
-2, ,-47, ,
-2, ,-47, ,
-4, ,-47, ,
-1, ,-47, ,
0, ,-46, ,
0, ,-49, ,
-2, ,-47, ,
3, ,-47, ,
1, ,-47, ,
-1, ,-47, ,
-4, ,-46, ,
0, ,-49, ,
-2, ,-47, ,
-5, ,-47, ,
-5, ,-47, ,
-2, ,-47, ,
-4, ,-46, ,
1, ,-49, ,
-6, ,-47, ,
-1, ,-47, ,
1, ,-47, ,
-1, ,-47, ,
-4, ,-46, ,
0, ,-47, ,
0, ,-47, ,
-1, ,-47, ,
-1, ,-47, ,
-1, ,-47, ,
-1, ,-46, ,
-2, ,-49, ,
-9, ,-47, ,
-2, ,-47, ,
-1, ,-47, ,
0, ,-47, ,
0, ,-46, ,
5, ,-47, ,
6, ,-47, ,
5, ,-46, ,
1, ,-47, ,
6, ,-46, ,
4, ,-46, ,
4, ,-49, ,
0, ,-47, ,
4, ,-47, ,
6, ,-47, ,
3, ,-47, ,
1, ,-46, ,
6, ,-47, ,
4, ,-47, ,
5, ,-47, ,
3, ,-47, ,
5, ,-47, ,
8, ,-46, ,
5, ,-49, ,
0, ,-47, ,
4, ,-47, ,
3, ,-47, ,
6, ,-49, ,
4, ,-46, ,
6, ,-49, ,
6, ,-47, ,
8, ,-46, ,
4, ,-47, ,
5, ,-46, ,
4, ,-46, ,
6, ,-49, ,
3, ,-47, ,
6, ,-47, ,
8, ,-47, ,
5, ,-47, ,
1, ,-46, ,
5, ,-47, ,
3, ,-47, ,
1, ,-47, ,
3, ,-47, ,
3, ,-47, ,
