src/vary_am2_1412/temp0001611.CSV

Format,1.0B,
Memory Length,10000,Memory Length,10000,
IntpDistance,0,IntpDistance,0,
Trigger Address,4999,Trigger Address,4999,
Trigger Level,9.600E-01,Trigger Level,9.600E-01,
Source,CH1,Source,CH2,
Vertical Units,V,Vertical Units,V,
Vertical Units Div,0,Vertical Units Div,0,
Vertical Units Extend Div,16,Vertical Units Extend Div,16,
Label,,Label,,
Probe Type,0,Probe Type,0,
Probe Ratio,1.000e+01,Probe Ratio,1.000e+00,
Vertical Scale,2.000e-02,Vertical Scale,1.000e+00,
Vertical Position,-5.120e-02,Vertical Position,0.000e+00,
Horizontal Units,S,Horizontal Units,S,
Horizontal Scale,1.000E-05,Horizontal Scale,1.000E-05,
Horizontal Position,0.000E+00,Horizontal Position,0.000E+00,
Horizontal Mode,Main,Horizontal Mode,Main,
SincET Mode,Real Time,SincET Mode,Real Time,
Sampling Period,1.000e-08,Sampling Period,1.000e-08,
Horizontal Old Scale,1.000E-05,Horizontal Old Scale,1.000E-05,
Horizontal Old Position,0.000E+00,Horizontal Old Position,0.000E+00,
Firmware,V1.23,Firmware,V1.23,
Mode,Fast,Mode,Fast,
Waveform Data,,Waveform Data,,
0, ,-39, ,
0, ,-40, ,
-1, ,-39, ,
-5, ,-39, ,
-1, ,-40, ,
-5, ,-39, ,
-10, ,-39, ,
-12, ,-39, ,
-9, ,-40, ,
-9, ,-38, ,
-6, ,-40, ,
-11, ,-40, ,
-5, ,-39, ,
-6, ,-39, ,
-9, ,-40, ,
-9, ,-38, ,
1, ,-40, ,
9, ,-39, ,
10, ,-39, ,
10, ,-39, ,
14, ,-39, ,
13, ,-38, ,
8, ,-40, ,
-4, ,-39, ,
-1, ,-39, ,
-6, ,-40, ,
-6, ,-40, ,
-5, ,-39, ,
-2, ,-40, ,
-2, ,-39, ,
-2, ,-39, ,
-4, ,-39, ,
-2, ,-39, ,
-1, ,-38, ,
-1, ,-40, ,
-6, ,-40, ,
-2, ,-39, ,
-1, ,-39, ,
-4, ,-40, ,
-7, ,-38, ,
-1, ,-40, ,
-2, ,-39, ,
0, ,-39, ,
0, ,-40, ,
3, ,-40, ,
5, ,-38, ,
1, ,-40, ,
-1, ,-39, ,
0, ,-39, ,
0, ,-40, ,
-2, ,-39, ,
-6, ,-39, ,
1, ,-40, ,
-2, ,-39, ,
-1, ,-39, ,
-1, ,-39, ,
1, ,-40, ,
4, ,-39, ,
5, ,-40, ,
1, ,-39, ,
3, ,-39, ,
3, ,-40, ,
0, ,-40, ,
-7, ,-39, ,
-4, ,-40, ,
-6, ,-39, ,
-5, ,-39, ,
-9, ,-39, ,
-4, ,-39, ,
0, ,-38, ,
1, ,-40, ,
-6, ,-39, ,
3, ,-39, ,
3, ,-40, ,
1, ,-40, ,
-1, ,-39, ,
0, ,-39, ,
3, ,-39, ,
0, ,-39, ,
-1, ,-39, ,
0, ,-40, ,
-2, ,-38, ,
0, ,-40, ,
-6, ,-40, ,
0, ,-39, ,
4, ,-40, ,
0, ,-39, ,
-1, ,-38, ,
1, ,-40, ,
1, ,-39, ,
1, ,-39, ,
-4, ,-39, ,
1, ,-40, ,
3, ,-39, ,
3, ,-40, ,
-1, ,-39, ,
4, ,-39, ,
5, ,-40, ,
1, ,-40, ,
-2, ,-39, ,
1, ,-40, ,
1, ,-39, ,
1, ,-39, ,
-4, ,-39, ,
1, ,-40, ,
3, ,-38, ,
4, ,-40, ,
-2, ,-39, ,
3, ,-39, ,
5, ,-40, ,
1, ,-40, ,
-1, ,-38, ,
6, ,-40, ,
5, ,-39, ,
4, ,-39, ,
-1, ,-39, ,
3, ,-39, ,
4, ,-38, ,
1, ,-40, ,
-2, ,-39, ,
3, ,-39, ,
5, ,-40, ,
5, ,-40, ,
0, ,-39, ,
10, ,-40, ,
8, ,-39, ,
5, ,-39, ,
4, ,-39, ,
4, ,-39, ,
4, ,-39, ,
5, ,-40, ,
-1, ,-39, ,
3, ,-39, ,
6, ,-39, ,
4, ,-40, ,
3, ,-38, ,
6, ,-40, ,
4, ,-39, ,
4, ,-39, ,
3, ,-39, ,
3, ,-39, ,
4, ,-38, ,
5, ,-40, ,
-4, ,-39, ,
5, ,-39, ,
4, ,-40, ,
3, ,-39, ,
0, ,-39, ,
4, ,-40, ,
4, ,-39, ,
4, ,-39, ,
1, ,-39, ,
5, ,-40, ,
4, ,-39, ,
8, ,-40, ,
1, ,-39, ,
3, ,-39, ,
9, ,-40, ,
4, ,-40, ,
-1, ,-38, ,
8, ,-40, ,
6, ,-39, ,
6, ,-39, ,
8, ,-39, ,
5, ,-39, ,
4, ,-39, ,
3, ,-40, ,
-1, ,-39, ,
3, ,-39, ,
8, ,-40, ,
1, ,-40, ,
0, ,-39, ,
8, ,-40, ,
5, ,-39, ,
6, ,-39, ,
1, ,-40, ,
3, ,-39, ,
4, ,-39, ,
1, ,-40, ,
3, ,-40, ,
5, ,-39, ,
8, ,-39, ,
4, ,-40, ,
1, ,-39, ,
4, ,-40, ,
4, ,-39, ,
3, ,-39, ,
3, ,-40, ,
6, ,-40, ,
8, ,-39, ,
4, ,-40, ,
4, ,-39, ,
5, ,-39, ,
6, ,-40, ,
4, ,-40, ,
4, ,-39, ,
8, ,-40, ,
8, ,-39, ,
6, ,-39, ,
5, ,-39, ,
11, ,-39, ,
6, ,-38, ,
5, ,-40, ,
-4, ,-39, ,
-1, ,-39, ,
3, ,-40, ,
-1, ,-39, ,
0, ,-38, ,
5, ,-40, ,
6, ,-39, ,
6, ,-39, ,
1, ,-39, ,
3, ,-40, ,
1, ,-39, ,
4, ,-40, ,
1, ,-39, ,
0, ,-39, ,
6, ,-40, ,
6, ,-40, ,
3, ,-39, ,
5, ,-40, ,
8, ,-39, ,
8, ,-40, ,
5, ,-39, ,
9, ,-40, ,
9, ,-39, ,
6, ,-40, ,
4, ,-39, ,
6, ,-39, ,
9, ,-40, ,
5, ,-39, ,
-2, ,-39, ,
4, ,-40, ,
3, ,-39, ,
5, ,-39, ,
4, ,-39, ,
1, ,-39, ,
9, ,-39, ,
6, ,-40, ,
3, ,-39, ,
6, ,-39, ,
9, ,-40, ,
5, ,-39, ,
1, ,-39, ,
4, ,-40, ,
4, ,-39, ,
4, ,-39, ,
6, ,-39, ,
6, ,-40, ,
9, ,-38, ,
9, ,-40, ,
3, ,-39, ,
4, ,-39, ,
1, ,-40, ,
0, ,-40, ,
-5, ,-38, ,
0, ,-40, ,
4, ,-39, ,
4, ,-39, ,
4, ,-39, ,
5, ,-40, ,
4, ,-39, ,
5, ,-40, ,
3, ,-39, ,
10, ,-39, ,
11, ,-40, ,
8, ,-40, ,
4, ,-39, ,
6, ,-40, ,
4, ,-39, ,
1, ,-39, ,
1, ,-39, ,
3, ,-40, ,
1, ,-39, ,
4, ,-40, ,
-2, ,-40, ,
1, ,-39, ,
4, ,-40, ,
-4, ,-40, ,
-5, ,-39, ,
-1, ,-40, ,
-4, ,-39, ,
-5, ,-39, ,
-1, ,-39, ,
4, ,-40, ,
0, ,-39, ,
3, ,-40, ,
-4, ,-39, ,
0, ,-39, ,
0, ,-40, ,
-4, ,-39, ,
-6, ,-39, ,
0, ,-40, ,
-2, ,-39, ,
-2, ,-39, ,
-5, ,-39, ,
-1, ,-39, ,
0, ,-39, ,
0, ,-40, ,
-4, ,-40, ,
0, ,-39, ,
4, ,-39, ,
0, ,-40, ,
-5, ,-39, ,
0, ,-40, ,
-2, ,-39, ,
-6, ,-39, ,
-7, ,-39, ,
-5, ,-39, ,
-2, ,-39, ,
-6, ,-40, ,
-9, ,-39, ,
-2, ,-39, ,
-2, ,-39, ,
-1, ,-40, ,
-7, ,-39, ,
-2, ,-40, ,
-1, ,-39, ,
-6, ,-39, ,
-5, ,-39, ,
-5, ,-40, ,
-2, ,-38, ,
-1, ,-40, ,
-6, ,-39, ,
-2, ,-39, ,
-1, ,-40, ,
-6, ,-40, ,
-10, ,-38, ,
-6, ,-40, ,
-4, ,-39, ,
-5, ,-39, ,
-6, ,-39, ,
-4, ,-40, ,
-2, ,-38, ,
-2, ,-40, ,
-5, ,-39, ,
-1, ,-39, ,
-2, ,-40, ,
-4, ,-40, ,
-5, ,-39, ,
-2, ,-40, ,
-2, ,-39, ,
-4, ,-40, ,
-6, ,-39, ,
-2, ,-39, ,
-2, ,-39, ,
-2, ,-40, ,
-6, ,-40, ,
-4, ,-39, ,
3, ,-39, ,
-4, ,-40, ,
-6, ,-38, ,
1, ,-40, ,
-4, ,-39, ,
-2, ,-39, ,
-6, ,-39, ,
-5, ,-39, ,
-1, ,-38, ,
-2, ,-40, ,
-5, ,-39, ,
0, ,-39, ,
-1, ,-40, ,
-2, ,-39, ,
-7, ,-39, ,
-2, ,-40, ,
-2, ,-39, ,
-1, ,-40, ,
-2, ,-39, ,
-1, ,-40, ,
0, ,-39, ,
-1, ,-40, ,
-4, ,-40, ,
0, ,-39, ,
3, ,-39, ,
-2, ,-40, ,
-4, ,-39, ,
1, ,-40, ,
0, ,-39, ,
-1, ,-39, ,
-1, ,-39, ,
-1, ,-39, ,
-1, ,-39, ,
-1, ,-40, ,
-6, ,-39, ,
1, ,-38, ,
3, ,-40, ,
1, ,-40, ,
-2, ,-39, ,
3, ,-40, ,
-1, ,-39, ,
-4, ,-39, ,
-5, ,-39, ,
-1, ,-40, ,
0, ,-38, ,
3, ,-40, ,
-1, ,-39, ,
3, ,-39, ,
6, ,-39, ,
1, ,-40, ,
0, ,-38, ,
5, ,-40, ,
3, ,-39, ,
4, ,-39, ,
1, ,-39, ,
4, ,-40, ,
5, ,-39, ,
0, ,-40, ,
-1, ,-39, ,
4, ,-39, ,
1, ,-40, ,
3, ,-40, ,
0, ,-39, ,
4, ,-40, ,
5, ,-39, ,
5, ,-39, ,
3, ,-39, ,
4, ,-40, ,
6, ,-38, ,
5, ,-40, ,
3, ,-39, ,
4, ,-39, ,
5, ,-39, ,
4, ,-40, ,
0, ,-39, ,
5, ,-40, ,
4, ,-39, ,
3, ,-39, ,
0, ,-39, ,
3, ,-40, ,
5, ,-39, ,
3, ,-40, ,
-1, ,-40, ,
5, ,-39, ,
5, ,-40, ,
6, ,-40, ,
4, ,-39, ,
5, ,-40, ,
6, ,-39, ,
5, ,-39, ,
1, ,-39, ,
5, ,-40, ,
4, ,-38, ,
3, ,-40, ,
-1, ,-40, ,
1, ,-39, ,
4, ,-40, ,
4, ,-40, ,
0, ,-38, ,
6, ,-40, ,
6, ,-39, ,
8, ,-39, ,
4, ,-39, ,
8, ,-39, ,
8, ,-39, ,
9, ,-40, ,
1, ,-39, ,
3, ,-39, ,
8, ,-39, ,
4, ,-40, ,
0, ,-39, ,
5, ,-39, ,
5, ,-39, ,
5, ,-39, ,
4, ,-39, ,
5, ,-39, ,
4, ,-39, ,
1, ,-40, ,
-1, ,-39, ,
1, ,-39, ,
5, ,-39, ,
5, ,-40, ,
0, ,-39, ,
6, ,-40, ,
8, ,-39, ,
8, ,-39, ,
5, ,-39, ,
5, ,-39, ,
8, ,-39, ,
6, ,-40, ,
0, ,-40, ,
5, ,-39, ,
6, ,-40, ,
8, ,-39, ,
4, ,-39, ,
8, ,-40, ,
8, ,-39, ,
4, ,-40, ,
4, ,-40, ,
5, ,-39, ,
6, ,-38, ,
6, ,-40, ,
1, ,-40, ,
5, ,-39, ,
8, ,-40, ,
3, ,-40, ,
0, ,-39, ,
6, ,-40, ,
3, ,-39, ,
4, ,-39, ,
6, ,-39, ,
8, ,-39, ,
6, ,-39, ,
5, ,-40, ,
3, ,-39, ,
5, ,-39, ,
4, ,-40, ,
4, ,-40, ,
1, ,-39, ,
9, ,-40, ,
9, ,-40, ,
6, ,-40, ,
4, ,-39, ,
6, ,-40, ,
6, ,-39, ,
5, ,-40, ,
-1, ,-39, ,
1, ,-39, ,
5, ,-40, ,
3, ,-40, ,
-2, ,-39, ,
6, ,-40, ,
3, ,-39, ,
-1, ,-33, ,
4, ,-23, ,
6, ,-13, ,
8, ,-4, ,
8, ,4, ,
1, ,11, ,
8, ,17, ,
5, ,22, ,
4, ,26, ,
-1, ,30, ,
9, ,34, ,
8, ,36, ,
5, ,39, ,
1, ,41, ,
4, ,42, ,
5, ,42, ,
8, ,46, ,
4, ,45, ,
4, ,47, ,
4, ,49, ,
1, ,50, ,
-5, ,49, ,
3, ,51, ,
0, ,52, ,
3, ,51, ,
1, ,52, ,
3, ,52, ,
4, ,51, ,
1, ,54, ,
-5, ,53, ,
1, ,52, ,
3, ,53, ,
3, ,53, ,
1, ,53, ,
5, ,54, ,
5, ,54, ,
1, ,53, ,
0, ,54, ,
-1, ,54, ,
-2, ,52, ,
0, ,55, ,
-4, ,54, ,
0, ,53, ,
0, ,54, ,
-1, ,54, ,
-4, ,52, ,
1, ,55, ,
-1, ,54, ,
0, ,53, ,
-2, ,54, ,
0, ,54, ,
1, ,52, ,
3, ,55, ,
0, ,53, ,
3, ,53, ,
0, ,54, ,
-2, ,54, ,
-6, ,52, ,
-2, ,54, ,
-5, ,54, ,
-2, ,53, ,
-5, ,54, ,
-1, ,54, ,
-1, ,52, ,
-1, ,55, ,
-4, ,53, ,
-4, ,53, ,
3, ,54, ,
0, ,54, ,
-4, ,52, ,
3, ,54, ,
-1, ,53, ,
-2, ,53, ,
-5, ,54, ,
-4, ,54, ,
-2, ,52, ,
-1, ,54, ,
-5, ,53, ,
-1, ,53, ,
-1, ,54, ,
-1, ,54, ,
-5, ,52, ,
0, ,54, ,
-5, ,53, ,
-5, ,53, ,
-5, ,54, ,
-4, ,54, ,
-1, ,52, ,
1, ,54, ,
-2, ,53, ,
1, ,53, ,
3, ,54, ,
-1, ,54, ,
-4, ,52, ,
0, ,54, ,
1, ,53, ,
-2, ,53, ,
-4, ,54, ,
-2, ,54, ,
-1, ,52, ,
-1, ,54, ,
-1, ,53, ,
3, ,53, ,
1, ,54, ,
1, ,53, ,
-5, ,52, ,
-2, ,54, ,
-1, ,53, ,
-1, ,53, ,
-1, ,54, ,
3, ,54, ,
0, ,52, ,
0, ,54, ,
-2, ,53, ,
-2, ,53, ,
0, ,54, ,
-1, ,54, ,
-1, ,52, ,
3, ,54, ,
1, ,53, ,
3, ,53, ,
1, ,53, ,
0, ,54, ,
1, ,52, ,
4, ,54, ,
-1, ,53, ,
1, ,53, ,
4, ,54, ,
3, ,53, ,
-1, ,51, ,
3, ,54, ,
0, ,53, ,
0, ,53, ,
-1, ,53, ,
1, ,54, ,
3, ,52, ,
1, ,54, ,
-1, ,53, ,
5, ,53, ,
5, ,53, ,
0, ,53, ,
-1, ,51, ,
4, ,54, ,
0, ,53, ,
-1, ,53, ,
-1, ,53, ,
0, ,54, ,
1, ,52, ,
3, ,54, ,
-2, ,53, ,
4, ,53, ,
1, ,54, ,
3, ,54, ,
3, ,52, ,
5, ,54, ,
4, ,53, ,
3, ,53, ,
-2, ,54, ,
1, ,54, ,
-4, ,52, ,
1, ,54, ,
-5, ,53, ,
1, ,53, ,
3, ,54, ,
1, ,53, ,
-2, ,51, ,
4, ,54, ,
4, ,54, ,
3, ,53, ,
1, ,53, ,
3, ,53, ,
5, ,52, ,
4, ,54, ,
1, ,53, ,
1, ,52, ,
6, ,53, ,
3, ,54, ,
4, ,52, ,
5, ,54, ,
3, ,53, ,
4, ,53, ,
1, ,54, ,
4, ,54, ,
4, ,52, ,
4, ,54, ,
-1, ,53, ,
4, ,53, ,
4, ,54, ,
4, ,54, ,
0, ,51, ,
5, ,54, ,
1, ,53, ,
6, ,53, ,
4, ,53, ,
6, ,54, ,
6, ,52, ,
5, ,54, ,
0, ,53, ,
3, ,53, ,
4, ,54, ,
5, ,53, ,
0, ,52, ,
8, ,54, ,
8, ,54, ,
8, ,53, ,
6, ,53, ,
4, ,54, ,
3, ,52, ,
4, ,54, ,
0, ,52, ,
3, ,53, ,
5, ,54, ,
9, ,53, ,
1, ,51, ,
5, ,54, ,
8, ,53, ,
3, ,52, ,
5, ,54, ,
3, ,54, ,
3, ,52, ,
3, ,54, ,
0, ,52, ,
0, ,53, ,
3, ,54, ,
8, ,53, ,
1, ,52, ,
5, ,54, ,
8, ,53, ,
4, ,53, ,
0, ,54, ,
3, ,54, ,
5, ,52, ,
5, ,54, ,
3, ,53, ,
3, ,53, ,
4, ,53, ,
-2, ,54, ,
-1, ,51, ,
4, ,54, ,
0, ,53, ,
6, ,53, ,
3, ,53, ,
5, ,54, ,
-1, ,52, ,
-2, ,54, ,
-1, ,52, ,
4, ,52, ,
5, ,54, ,
4, ,53, ,
1, ,52, ,
5, ,54, ,
5, ,53, ,
5, ,53, ,
3, ,53, ,
1, ,54, ,
1, ,52, ,
1, ,54, ,
-1, ,53, ,
4, ,53, ,
4, ,53, ,
3, ,53, ,
-2, ,51, ,
4, ,54, ,
5, ,53, ,
4, ,53, ,
5, ,53, ,
1, ,54, ,
3, ,52, ,
3, ,54, ,
-1, ,53, ,
1, ,53, ,
5, ,54, ,
4, ,53, ,
1, ,52, ,
4, ,54, ,
4, ,53, ,
3, ,53, ,
3, ,54, ,
0, ,54, ,
1, ,51, ,
4, ,54, ,
-2, ,53, ,
1, ,53, ,
1, ,53, ,
-1, ,53, ,
0, ,51, ,
3, ,54, ,
5, ,53, ,
6, ,53, ,
4, ,53, ,
4, ,54, ,
3, ,52, ,
1, ,54, ,
-4, ,53, ,
1, ,53, ,
1, ,54, ,
3, ,53, ,
-1, ,52, ,
3, ,54, ,
3, ,53, ,
0, ,53, ,
-7, ,54, ,
-1, ,54, ,
-4, ,52, ,
0, ,54, ,
-4, ,53, ,
0, ,53, ,
4, ,54, ,
1, ,53, ,
-2, ,51, ,
4, ,54, ,
-4, ,53, ,
-1, ,53, ,
-1, ,53, ,
-1, ,54, ,
1, ,51, ,
3, ,54, ,
-2, ,53, ,
0, ,53, ,
-1, ,54, ,
-2, ,53, ,
-5, ,51, ,
-2, ,54, ,
0, ,53, ,
0, ,53, ,
-1, ,53, ,
-2, ,54, ,
-1, ,52, ,
0, ,54, ,
-4, ,53, ,
3, ,53, ,
4, ,53, ,
-1, ,53, ,
1, ,52, ,
0, ,54, ,
-1, ,53, ,
-2, ,53, ,
-1, ,53, ,
-2, ,53, ,
0, ,52, ,
1, ,54, ,
-1, ,52, ,
4, ,53, ,
3, ,54, ,
0, ,53, ,
-1, ,52, ,
4, ,54, ,
0, ,53, ,
-2, ,53, ,
-4, ,53, ,
-1, ,54, ,
0, ,52, ,
1, ,54, ,
-4, ,52, ,
-1, ,53, ,
3, ,53, ,
1, ,54, ,
-4, ,51, ,
1, ,54, ,
-1, ,53, ,
0, ,53, ,
-1, ,53, ,
1, ,54, ,
3, ,52, ,
1, ,54, ,
1, ,53, ,
3, ,52, ,
0, ,54, ,
-1, ,53, ,
-5, ,52, ,
1, ,54, ,
0, ,54, ,
-2, ,53, ,
-4, ,53, ,
-1, ,54, ,
0, ,52, ,
3, ,54, ,
-2, ,53, ,
0, ,53, ,
0, ,53, ,
-2, ,54, ,
-5, ,52, ,
3, ,54, ,
-2, ,53, ,
-2, ,53, ,
-4, ,53, ,
-2, ,54, ,
1, ,52, ,
0, ,54, ,
-1, ,52, ,
4, ,52, ,
4, ,53, ,
4, ,54, ,
-1, ,52, ,
1, ,54, ,
0, ,53, ,
-2, ,53, ,
-1, ,53, ,
-1, ,53, ,
0, ,52, ,
4, ,54, ,
-2, ,53, ,
1, ,53, ,
3, ,53, ,
-1, ,54, ,
-1, ,51, ,
0, ,54, ,
0, ,53, ,
1, ,53, ,
-1, ,54, ,
0, ,54, ,
1, ,52, ,
1, ,54, ,
0, ,53, ,
4, ,52, ,
3, ,53, ,
3, ,53, ,
3, ,52, ,
4, ,54, ,
3, ,53, ,
0, ,53, ,
-1, ,53, ,
4, ,54, ,
4, ,51, ,
5, ,54, ,
0, ,53, ,
4, ,53, ,
5, ,53, ,
3, ,54, ,
0, ,51, ,
8, ,54, ,
4, ,53, ,
5, ,53, ,
3, ,53, ,
1, ,53, ,
4, ,51, ,
1, ,54, ,
1, ,52, ,
5, ,52, ,
4, ,54, ,
3, ,54, ,
0, ,51, ,
3, ,54, ,
4, ,53, ,
0, ,53, ,
3, ,54, ,
1, ,53, ,
4, ,52, ,
6, ,54, ,
1, ,53, ,
3, ,53, ,
6, ,53, ,
1, ,54, ,
1, ,51, ,
4, ,54, ,
5, ,53, ,
1, ,53, ,
0, ,53, ,
1, ,54, ,
1, ,51, ,
1, ,54, ,
-4, ,52, ,
1, ,53, ,
3, ,54, ,
1, ,53, ,
3, ,51, ,
6, ,54, ,
6, ,53, ,
5, ,53, ,
1, ,53, ,
3, ,54, ,
-1, ,52, ,
-1, ,54, ,
-4, ,53, ,
1, ,53, ,
4, ,53, ,
4, ,53, ,
1, ,51, ,
5, ,54, ,
3, ,54, ,
3, ,53, ,
3, ,53, ,
3, ,54, ,
4, ,52, ,
3, ,54, ,
-1, ,53, ,
4, ,52, ,
4, ,54, ,
1, ,53, ,
1, ,52, ,
6, ,54, ,
4, ,53, ,
5, ,53, ,
5, ,53, ,
6, ,54, ,
5, ,52, ,
5, ,54, ,
1, ,52, ,
5, ,53, ,
4, ,53, ,
4, ,53, ,
1, ,52, ,
6, ,54, ,
6, ,53, ,
5, ,53, ,
4, ,53, ,
1, ,54, ,
3, ,52, ,
3, ,55, ,
-1, ,52, ,
3, ,52, ,
4, ,54, ,
4, ,53, ,
3, ,52, ,
5, ,54, ,
6, ,53, ,
3, ,53, ,
1, ,53, ,
3, ,54, ,
1, ,52, ,
1, ,54, ,
-4, ,53, ,
1, ,53, ,
4, ,54, ,
1, ,53, ,
1, ,51, ,
3, ,54, ,
1, ,53, ,
4, ,53, ,
5, ,53, ,
6, ,54, ,
6, ,52, ,
6, ,54, ,
-1, ,53, ,
1, ,53, ,
1, ,54, ,
-1, ,53, ,
-4, ,52, ,
3, ,54, ,
1, ,54, ,
4, ,53, ,
0, ,53, ,
0, ,53, ,
-6, ,51, ,
-2, ,54, ,
-5, ,53, ,
-2, ,53, ,
1, ,53, ,
0, ,53, ,
-2, ,51, ,
4, ,54, ,
3, ,53, ,
1, ,53, ,
0, ,54, ,
0, ,54, ,
0, ,52, ,
1, ,54, ,
-5, ,53, ,
1, ,53, ,
-1, ,54, ,
-1, ,53, ,
-2, ,52, ,
-1, ,54, ,
0, ,53, ,
0, ,53, ,
0, ,53, ,
0, ,54, ,
0, ,52, ,
3, ,54, ,
-4, ,53, ,
0, ,53, ,
3, ,54, ,
0, ,53, ,
-1, ,51, ,
1, ,54, ,
-1, ,53, ,
-2, ,53, ,
-1, ,53, ,
-1, ,54, ,
0, ,51, ,
5, ,54, ,
0, ,52, ,
4, ,53, ,
4, ,54, ,
-1, ,54, ,
-2, ,52, ,
3, ,54, ,
3, ,53, ,
1, ,53, ,
-1, ,53, ,
1, ,54, ,
-1, ,52, ,
-1, ,54, ,
-5, ,53, ,
0, ,53, ,
3, ,54, ,
-1, ,53, ,
-1, ,52, ,
4, ,54, ,
-1, ,53, ,
1, ,53, ,
-1, ,53, ,
1, ,54, ,
1, ,52, ,
1, ,54, ,
-1, ,53, ,
1, ,53, ,
1, ,54, ,
-1, ,53, ,
-6, ,51, ,
1, ,54, ,
-2, ,54, ,
-4, ,53, ,
-4, ,54, ,
-1, ,54, ,
0, ,51, ,
-1, ,54, ,
-2, ,53, ,
-1, ,53, ,
3, ,54, ,
0, ,54, ,
-6, ,51, ,
-2, ,54, ,
-2, ,53, ,
-4, ,53, ,
-5, ,54, ,
-2, ,54, ,
1, ,52, ,
1, ,54, ,
-2, ,53, ,
3, ,52, ,
1, ,54, ,
3, ,53, ,
-1, ,52, ,
-1, ,54, ,
1, ,53, ,
0, ,53, ,
1, ,54, ,
3, ,54, ,
-1, ,52, ,
1, ,54, ,
-5, ,53, ,
1, ,53, ,
3, ,53, ,
0, ,54, ,
0, ,51, ,
3, ,54, ,
1, ,53, ,
1, ,53, ,
-2, ,53, ,
0, ,54, ,
-1, ,52, ,
1, ,55, ,
-1, ,53, ,
3, ,53, ,
5, ,54, ,
3, ,54, ,
-2, ,51, ,
0, ,54, ,
0, ,53, ,
-1, ,53, ,
-1, ,53, ,
1, ,54, ,
4, ,52, ,
5, ,54, ,
1, ,53, ,
3, ,53, ,
6, ,54, ,
6, ,54, ,
-6, ,51, ,
3, ,54, ,
3, ,53, ,
1, ,53, ,
4, ,53, ,
1, ,54, ,
5, ,52, ,
3, ,54, ,
-1, ,53, ,
4, ,53, ,
3, ,54, ,
4, ,53, ,
0, ,52, ,
4, ,54, ,
4, ,53, ,
-1, ,53, ,
1, ,54, ,
3, ,54, ,
3, ,52, ,
5, ,54, ,
4, ,52, ,
6, ,53, ,
9, ,53, ,
5, ,54, ,
1, ,52, ,
5, ,54, ,
3, ,53, ,
0, ,53, ,
0, ,53, ,
3, ,54, ,
4, ,52, ,
0, ,54, ,
0, ,53, ,
3, ,52, ,
4, ,54, ,
5, ,53, ,
0, ,52, ,
1, ,54, ,
5, ,53, ,
3, ,53, ,
1, ,53, ,
3, ,53, ,
4, ,52, ,
6, ,54, ,
-1, ,53, ,
3, ,53, ,
6, ,53, ,
1, ,54, ,
1, ,51, ,
4, ,54, ,
5, ,53, ,
9, ,52, ,
1, ,53, ,
4, ,54, ,
5, ,52, ,
1, ,54, ,
0, ,53, ,
5, ,52, ,
5, ,54, ,
5, ,53, ,
3, ,52, ,
6, ,54, ,
5, ,54, ,
5, ,53, ,
3, ,53, ,
1, ,54, ,
3, ,52, ,
8, ,54, ,
3, ,53, ,
5, ,53, ,
10, ,53, ,
6, ,53, ,
5, ,51, ,
8, ,54, ,
5, ,53, ,
6, ,51, ,
6, ,45, ,
3, ,35, ,
4, ,24, ,
4, ,16, ,
-6, ,8, ,
-1, ,2, ,
0, ,-4, ,
0, ,-8, ,
-1, ,-14, ,
1, ,-17, ,
1, ,-20, ,
-2, ,-23, ,
-4, ,-25, ,
-1, ,-27, ,
0, ,-28, ,
-2, ,-32, ,
-9, ,-33, ,
-1, ,-33, ,
1, ,-35, ,
-1, ,-36, ,
0, ,-35, ,
6, ,-37, ,
5, ,-37, ,
5, ,-37, ,
-2, ,-38, ,
1, ,-38, ,
3, ,-38, ,
4, ,-39, ,
3, ,-39, ,
5, ,-39, ,
6, ,-39, ,
6, ,-40, ,
5, ,-39, ,
4, ,-40, ,
3, ,-40, ,
-1, ,-40, ,
-4, ,-40, ,
0, ,-40, ,
-2, ,-39, ,
0, ,-41, ,
-4, ,-40, ,
0, ,-40, ,
6, ,-40, ,
1, ,-40, ,
-1, ,-39, ,
5, ,-41, ,
4, ,-40, ,
4, ,-40, ,
5, ,-40, ,
3, ,-40, ,
6, ,-39, ,
1, ,-41, ,
-1, ,-40, ,
3, ,-39, ,
3, ,-40, ,
0, ,-40, ,
-6, ,-39, ,
0, ,-40, ,
0, ,-40, ,
0, ,-40, ,
0, ,-40, ,
3, ,-40, ,
4, ,-39, ,
1, ,-40, ,
-2, ,-40, ,
3, ,-40, ,
5, ,-40, ,
4, ,-40, ,
1, ,-38, ,
5, ,-40, ,
4, ,-40, ,
3, ,-40, ,
0, ,-40, ,
0, ,-40, ,
0, ,-39, ,
1, ,-40, ,
-5, ,-40, ,
0, ,-39, ,
5, ,-40, ,
-1, ,-40, ,
-1, ,-39, ,
4, ,-40, ,
3, ,-39, ,
0, ,-40, ,
-1, ,-39, ,
1, ,-39, ,
1, ,-39, ,
3, ,-40, ,
-1, ,-40, ,
1, ,-39, ,
3, ,-40, ,
-4, ,-40, ,
-6, ,-39, ,
0, ,-40, ,
-1, ,-40, ,
-1, ,-39, ,
-1, ,-40, ,
0, ,-40, ,
1, ,-39, ,
0, ,-40, ,
-2, ,-39, ,
1, ,-39, ,
0, ,-40, ,
-2, ,-40, ,
-6, ,-39, ,
-1, ,-40, ,
0, ,-39, ,
-1, ,-40, ,
0, ,-39, ,
0, ,-40, ,
1, ,-39, ,
0, ,-40, ,
-2, ,-40, ,
-1, ,-39, ,
1, ,-40, ,
-5, ,-40, ,
-5, ,-38, ,
-2, ,-40, ,
-2, ,-40, ,
-5, ,-39, ,
-9, ,-40, ,
-1, ,-40, ,
0, ,-39, ,
0, ,-40, ,
-2, ,-39, ,
0, ,-39, ,
0, ,-40, ,
0, ,-40, ,
-6, ,-39, ,
-2, ,-40, ,
-2, ,-39, ,
-2, ,-39, ,
-5, ,-39, ,
-1, ,-40, ,
0, ,-39, ,
1, ,-41, ,
-4, ,-40, ,
1, ,-39, ,
3, ,-40, ,
-1, ,-40, ,
-1, ,-39, ,
3, ,-40, ,
-1, ,-39, ,
0, ,-39, ,
-1, ,-39, ,
0, ,-40, ,
4, ,-39, ,
1, ,-40, ,
-2, ,-40, ,
0, ,-39, ,
0, ,-39, ,
-1, ,-40, ,
-4, ,-39, ,
0, ,-40, ,
0, ,-39, ,
0, ,-39, ,
-2, ,-40, ,
1, ,-40, ,
1, ,-39, ,
0, ,-40, ,
-4, ,-39, ,
0, ,-39, ,
3, ,-40, ,
-1, ,-40, ,
-2, ,-39, ,
4, ,-40, ,
1, ,-39, ,
-1, ,-40, ,
0, ,-40, ,
-1, ,-39, ,
1, ,-38, ,
0, ,-40, ,
-2, ,-39, ,
4, ,-39, ,
3, ,-40, ,
0, ,-40, ,
-2, ,-39, ,
0, ,-40, ,
0, ,-39, ,
-2, ,-39, ,
-2, ,-40, ,
3, ,-40, ,
3, ,-39, ,
8, ,-40, ,
3, ,-39, ,
4, ,-39, ,
4, ,-40, ,
0, ,-40, ,
-1, ,-38, ,
3, ,-40, ,
1, ,-39, ,
0, ,-39, ,
-2, ,-39, ,
0, ,-39, ,
1, ,-39, ,
0, ,-40, ,
-4, ,-39, ,
3, ,-39, ,
4, ,-40, ,
1, ,-40, ,
-1, ,-39, ,
5, ,-40, ,
4, ,-39, ,
0, ,-40, ,
-1, ,-39, ,
3, ,-40, ,
1, ,-39, ,
3, ,-40, ,
-1, ,-39, ,
4, ,-39, ,
6, ,-40, ,
3, ,-40, ,
-1, ,-39, ,
6, ,-40, ,
3, ,-39, ,
5, ,-40, ,
1, ,-39, ,
6, ,-40, ,
6, ,-39, ,
6, ,-40, ,
4, ,-40, ,
4, ,-39, ,
4, ,-40, ,
3, ,-40, ,
-1, ,-39, ,
4, ,-40, ,
4, ,-39, ,
3, ,-39, ,
1, ,-39, ,
4, ,-39, ,
4, ,-38, ,
5, ,-40, ,
-1, ,-39, ,
1, ,-39, ,
5, ,-39, ,
5, ,-40, ,
3, ,-38, ,
9, ,-40, ,
5, ,-40, ,
4, ,-39, ,
1, ,-40, ,
3, ,-39, ,
5, ,-39, ,
4, ,-40, ,
1, ,-39, ,
5, ,-39, ,
6, ,-40, ,
5, ,-40, ,
4, ,-39, ,
4, ,-40, ,
9, ,-39, ,
5, ,-39, ,
1, ,-39, ,
4, ,-40, ,
1, ,-39, ,
4, ,-40, ,
-2, ,-40, ,
5, ,-39, ,
9, ,-39, ,
1, ,-40, ,
3, ,-39, ,
5, ,-40, ,
5, ,-39, ,
4, ,-39, ,
1, ,-39, ,
3, ,-39, ,
5, ,-39, ,
5, ,-40, ,
0, ,-40, ,
1, ,-39, ,
5, ,-39, ,
3, ,-40, ,
0, ,-39, ,
5, ,-40, ,
5, ,-39, ,
3, ,-39, ,
1, ,-39, ,
5, ,-40, ,
3, ,-39, ,
4, ,-40, ,
-1, ,-40, ,
3, ,-39, ,
6, ,-40, ,
4, ,-40, ,
1, ,-38, ,
8, ,-40, ,
5, ,-39, ,
8, ,-39, ,
3, ,-39, ,
3, ,-39, ,
6, ,-39, ,
6, ,-40, ,
1, ,-39, ,
5, ,-39, ,
5, ,-40, ,
3, ,-40, ,
1, ,-39, ,
8, ,-40, ,
4, ,-39, ,
3, ,-40, ,
5, ,-39, ,
6, ,-40, ,
5, ,-39, ,
6, ,-40, ,
-1, ,-39, ,
4, ,-39, ,
4, ,-39, ,
1, ,-39, ,
-2, ,-38, ,
5, ,-40, ,
4, ,-39, ,
4, ,-39, ,
0, ,-39, ,
3, ,-39, ,
4, ,-38, ,
3, ,-40, ,
-2, ,-39, ,
4, ,-39, ,
3, ,-40, ,
4, ,-40, ,
3, ,-39, ,
6, ,-40, ,
8, ,-39, ,
3, ,-40, ,
1, ,-39, ,
4, ,-39, ,
1, ,-39, ,
1, ,-40, ,
-2, ,-40, ,
-1, ,-39, ,
4, ,-39, ,
-1, ,-40, ,
-2, ,-39, ,
3, ,-40, ,
4, ,-39, ,
1, ,-39, ,
1, ,-39, ,
0, ,-39, ,
3, ,-39, ,
3, ,-40, ,
-2, ,-39, ,
0, ,-39, ,
1, ,-40, ,
1, ,-39, ,
-2, ,-39, ,
3, ,-40, ,
1, ,-39, ,
1, ,-40, ,
-1, ,-39, ,
1, ,-39, ,
3, ,-39, ,
4, ,-40, ,
-1, ,-40, ,
3, ,-39, ,
8, ,-39, ,
-2, ,-40, ,
-5, ,-38, ,
0, ,-40, ,
0, ,-39, ,
0, ,-39, ,
0, ,-39, ,
4, ,-39, ,
5, ,-39, ,
-1, ,-40, ,
-7, ,-39, ,
-1, ,-39, ,
-1, ,-39, ,
-1, ,-40, ,
-2, ,-39, ,
1, ,-40, ,
1, ,-39, ,
1, ,-39, ,
-2, ,-39, ,
-2, ,-39, ,
-4, ,-39, ,
-1, ,-40, ,
-9, ,-40, ,
8, ,-39, ,
8, ,-39, ,
-2, ,-40, ,
1, ,-38, ,
1, ,-40, ,
0, ,-39, ,
-2, ,-39, ,
-4, ,-39, ,
0, ,-39, ,
1, ,-39, ,
4, ,-40, ,
0, ,-39, ,
3, ,-39, ,
0, ,-39, ,
-1, ,-39, ,
-6, ,-39, ,
1, ,-40, ,
-1, ,-39, ,
0, ,-39, ,
0, ,-39, ,
4, ,-39, ,
5, ,-39, ,
3, ,-41, ,
-1, ,-39, ,
1, ,-39, ,
4, ,-39, ,
-1, ,-39, ,
-5, ,-38, ,
1, ,-40, ,
-4, ,-39, ,
1, ,-39, ,
0, ,-39, ,
0, ,-40, ,
0, ,-38, ,
-4, ,-40, ,
-9, ,-40, ,
-2, ,-39, ,
-2, ,-39, ,
-4, ,-40, ,
-6, ,-39, ,
-2, ,-40, ,
-1, ,-39, ,
-2, ,-39, ,
-4, ,-39, ,
0, ,-39, ,
0, ,-38, ,
0, ,-40, ,
-1, ,-39, ,
3, ,-39, ,
4, ,-40, ,
3, ,-40, ,
-1, ,-38, ,
3, ,-40, ,
-2, ,-39, ,
-4, ,-39, ,
-2, ,-39, ,
0, ,-40, ,
0, ,-39, ,
3, ,-40, ,
-2, ,-40, ,
3, ,-39, ,
4, ,-40, ,
-2, ,-40, ,
-5, ,-39, ,
0, ,-40, ,
0, ,-39, ,
-1, ,-39, ,
-1, ,-40, ,
0, ,-40, ,
1, ,-38, ,
1, ,-40, ,
-4, ,-40, ,
1, ,-39, ,
4, ,-39, ,
-2, ,-40, ,
-1, ,-38, ,
5, ,-40, ,
4, ,-39, ,
3, ,-39, ,
-1, ,-39, ,
3, ,-39, ,
4, ,-39, ,
3, ,-40, ,
0, ,-39, ,
1, ,-39, ,
6, ,-39, ,
1, ,-40, ,
-2, ,-39, ,
3, ,-40, ,
3, ,-39, ,
-1, ,-40, ,
-2, ,-39, ,
0, ,-40, ,
3, ,-38, ,
1, ,-40, ,
0, ,-39, ,
4, ,-39, ,
4, ,-40, ,
-1, ,-40, ,
