src/vary_am2_1412/temp0001379.CSV

Format,1.0B,
Memory Length,10000,Memory Length,10000,
IntpDistance,0,IntpDistance,0,
Trigger Address,4999,Trigger Address,4999,
Trigger Level,9.600E-01,Trigger Level,9.600E-01,
Source,CH1,Source,CH2,
Vertical Units,V,Vertical Units,V,
Vertical Units Div,0,Vertical Units Div,0,
Vertical Units Extend Div,16,Vertical Units Extend Div,16,
Label,,Label,,
Probe Type,0,Probe Type,0,
Probe Ratio,1.000e+01,Probe Ratio,1.000e+00,
Vertical Scale,2.000e-02,Vertical Scale,1.000e+00,
Vertical Position,-5.120e-02,Vertical Position,0.000e+00,
Horizontal Units,S,Horizontal Units,S,
Horizontal Scale,1.000E-05,Horizontal Scale,1.000E-05,
Horizontal Position,0.000E+00,Horizontal Position,0.000E+00,
Horizontal Mode,Main,Horizontal Mode,Main,
SincET Mode,Real Time,SincET Mode,Real Time,
Sampling Period,1.000e-08,Sampling Period,1.000e-08,
Horizontal Old Scale,1.000E-05,Horizontal Old Scale,1.000E-05,
Horizontal Old Position,0.000E+00,Horizontal Old Position,0.000E+00,
Firmware,V1.23,Firmware,V1.23,
Mode,Fast,Mode,Fast,
Waveform Data,,Waveform Data,,
-4, ,-44, ,
-1, ,-44, ,
-2, ,-44, ,
-5, ,-44, ,
-1, ,-44, ,
-4, ,-44, ,
-4, ,-44, ,
-5, ,-44, ,
-1, ,-44, ,
0, ,-44, ,
-1, ,-44, ,
0, ,-44, ,
1, ,-44, ,
0, ,-44, ,
1, ,-44, ,
-6, ,-45, ,
-2, ,-44, ,
1, ,-44, ,
-2, ,-44, ,
-4, ,-44, ,
4, ,-43, ,
-1, ,-44, ,
0, ,-44, ,
-1, ,-44, ,
-2, ,-44, ,
-1, ,-44, ,
-1, ,-44, ,
-4, ,-45, ,
-2, ,-44, ,
-1, ,-44, ,
0, ,-44, ,
-2, ,-44, ,
0, ,-44, ,
1, ,-44, ,
-4, ,-44, ,
0, ,-44, ,
4, ,-44, ,
4, ,-44, ,
8, ,-44, ,
3, ,-45, ,
5, ,-44, ,
9, ,-44, ,
3, ,-44, ,
-1, ,-44, ,
4, ,-44, ,
3, ,-44, ,
4, ,-44, ,
4, ,-44, ,
4, ,-44, ,
5, ,-44, ,
4, ,-44, ,
1, ,-45, ,
4, ,-44, ,
4, ,-44, ,
4, ,-44, ,
0, ,-44, ,
6, ,-43, ,
4, ,-44, ,
3, ,-44, ,
-1, ,-44, ,
0, ,-44, ,
-1, ,-44, ,
0, ,-44, ,
-4, ,-44, ,
1, ,-45, ,
1, ,-44, ,
0, ,-44, ,
-4, ,-44, ,
0, ,-44, ,
-1, ,-44, ,
-1, ,-44, ,
-1, ,-44, ,
-1, ,-44, ,
0, ,-44, ,
1, ,-44, ,
-2, ,-45, ,
3, ,-44, ,
1, ,-44, ,
3, ,-44, ,
-1, ,-44, ,
3, ,-44, ,
3, ,-44, ,
1, ,-44, ,
0, ,-44, ,
5, ,-44, ,
5, ,-44, ,
5, ,-44, ,
3, ,-45, ,
4, ,-44, ,
3, ,-44, ,
0, ,-44, ,
-4, ,-44, ,
1, ,-44, ,
-1, ,-44, ,
0, ,-44, ,
-5, ,-44, ,
-2, ,-44, ,
-1, ,-44, ,
-5, ,-44, ,
-9, ,-44, ,
-4, ,-44, ,
-1, ,-44, ,
-1, ,-44, ,
-6, ,-44, ,
-2, ,-44, ,
-1, ,-44, ,
-4, ,-44, ,
-1, ,-44, ,
-1, ,-44, ,
0, ,-44, ,
0, ,-44, ,
1, ,-45, ,
5, ,-44, ,
9, ,-44, ,
4, ,-44, ,
4, ,-44, ,
8, ,-43, ,
3, ,-44, ,
1, ,-44, ,
4, ,-44, ,
5, ,-44, ,
8, ,-44, ,
8, ,-44, ,
4, ,-45, ,
9, ,-44, ,
10, ,-44, ,
5, ,-44, ,
3, ,-44, ,
3, ,-44, ,
4, ,-44, ,
0, ,-44, ,
0, ,-44, ,
1, ,-44, ,
1, ,-44, ,
4, ,-44, ,
-1, ,-45, ,
3, ,-44, ,
4, ,-44, ,
3, ,-44, ,
1, ,-44, ,
5, ,-43, ,
3, ,-44, ,
4, ,-44, ,
0, ,-44, ,
4, ,-44, ,
3, ,-44, ,
1, ,-44, ,
-2, ,-45, ,
5, ,-44, ,
11, ,-44, ,
1, ,-44, ,
1, ,-44, ,
11, ,-44, ,
4, ,-44, ,
3, ,-44, ,
3, ,-44, ,
6, ,-44, ,
6, ,-44, ,
6, ,-44, ,
4, ,-44, ,
5, ,-44, ,
8, ,-44, ,
8, ,-44, ,
-1, ,-45, ,
5, ,-43, ,
0, ,-44, ,
-1, ,-44, ,
-2, ,-44, ,
-2, ,-44, ,
1, ,-44, ,
-1, ,-44, ,
-6, ,-45, ,
-1, ,-44, ,
-1, ,-44, ,
0, ,-44, ,
-4, ,-44, ,
0, ,-44, ,
1, ,-44, ,
-2, ,-44, ,
1, ,-44, ,
-1, ,-44, ,
0, ,-44, ,
5, ,-44, ,
-5, ,-45, ,
5, ,-44, ,
4, ,-44, ,
4, ,-44, ,
4, ,-44, ,
10, ,-43, ,
10, ,-45, ,
8, ,-44, ,
8, ,-44, ,
9, ,-44, ,
6, ,-44, ,
8, ,-44, ,
3, ,-45, ,
8, ,-44, ,
8, ,-44, ,
8, ,-44, ,
5, ,-44, ,
10, ,-44, ,
9, ,-44, ,
4, ,-44, ,
1, ,-44, ,
3, ,-44, ,
0, ,-44, ,
1, ,-44, ,
-2, ,-45, ,
0, ,-44, ,
4, ,-44, ,
0, ,-44, ,
-1, ,-44, ,
3, ,-43, ,
-2, ,-44, ,
0, ,-44, ,
0, ,-44, ,
1, ,-44, ,
6, ,-44, ,
3, ,-44, ,
1, ,-45, ,
4, ,-44, ,
4, ,-44, ,
1, ,-44, ,
0, ,-44, ,
6, ,-44, ,
6, ,-44, ,
5, ,-44, ,
4, ,-44, ,
8, ,-44, ,
8, ,-44, ,
5, ,-44, ,
1, ,-45, ,
3, ,-44, ,
5, ,-44, ,
3, ,-44, ,
-1, ,-45, ,
4, ,-44, ,
5, ,-44, ,
0, ,-44, ,
-1, ,-44, ,
-1, ,-44, ,
-1, ,-44, ,
-1, ,-44, ,
-7, ,-45, ,
1, ,-44, ,
0, ,-44, ,
-1, ,-44, ,
-4, ,-44, ,
0, ,-44, ,
0, ,-44, ,
-4, ,-44, ,
-2, ,-44, ,
1, ,-44, ,
0, ,-44, ,
3, ,-44, ,
-4, ,-44, ,
1, ,-44, ,
3, ,-44, ,
-1, ,-44, ,
-2, ,-44, ,
4, ,-44, ,
5, ,-44, ,
6, ,-44, ,
6, ,-44, ,
8, ,-44, ,
6, ,-44, ,
5, ,-44, ,
-1, ,-45, ,
3, ,-44, ,
3, ,-44, ,
0, ,-44, ,
0, ,-44, ,
4, ,-44, ,
1, ,-44, ,
3, ,-44, ,
-1, ,-44, ,
0, ,-44, ,
-1, ,-44, ,
0, ,-44, ,
-4, ,-45, ,
-1, ,-44, ,
0, ,-44, ,
-1, ,-44, ,
-9, ,-44, ,
-4, ,-43, ,
-10, ,-44, ,
-11, ,-44, ,
-15, ,-44, ,
-12, ,-44, ,
-9, ,-44, ,
-7, ,-44, ,
-9, ,-45, ,
-4, ,-44, ,
1, ,-44, ,
-1, ,-44, ,
-9, ,-44, ,
3, ,-44, ,
10, ,-44, ,
14, ,-44, ,
18, ,-44, ,
19, ,-44, ,
16, ,-44, ,
14, ,-44, ,
5, ,-45, ,
5, ,-44, ,
0, ,-44, ,
-4, ,-44, ,
-9, ,-44, ,
-5, ,-44, ,
-6, ,-44, ,
-4, ,-44, ,
-1, ,-44, ,
3, ,-44, ,
3, ,-44, ,
0, ,-44, ,
-5, ,-44, ,
3, ,-44, ,
0, ,-44, ,
-4, ,-44, ,
-10, ,-44, ,
-4, ,-44, ,
-7, ,-44, ,
-6, ,-44, ,
-5, ,-44, ,
-1, ,-44, ,
-1, ,-44, ,
1, ,-44, ,
0, ,-45, ,
-2, ,-44, ,
3, ,-44, ,
0, ,-44, ,
-4, ,-44, ,
-1, ,-43, ,
-5, ,-44, ,
-2, ,-44, ,
-5, ,-44, ,
0, ,-44, ,
6, ,-44, ,
5, ,-44, ,
3, ,-45, ,
4, ,-44, ,
1, ,-44, ,
-6, ,-44, ,
-12, ,-44, ,
-6, ,-44, ,
-5, ,-44, ,
-5, ,-44, ,
0, ,-44, ,
0, ,-44, ,
1, ,-44, ,
1, ,-44, ,
0, ,-45, ,
1, ,-44, ,
5, ,-44, ,
0, ,-44, ,
-1, ,-44, ,
3, ,-44, ,
-1, ,-44, ,
-2, ,-44, ,
-5, ,-44, ,
-6, ,-44, ,
-2, ,-44, ,
0, ,-44, ,
-4, ,-45, ,
5, ,-44, ,
6, ,-44, ,
3, ,-44, ,
1, ,-44, ,
4, ,-43, ,
4, ,-44, ,
1, ,-44, ,
-1, ,-44, ,
4, ,-44, ,
3, ,-44, ,
4, ,-44, ,
3, ,-44, ,
5, ,-44, ,
6, ,-44, ,
1, ,-44, ,
4, ,-44, ,
6, ,-44, ,
4, ,-44, ,
4, ,-44, ,
-1, ,-44, ,
3, ,-44, ,
3, ,-44, ,
0, ,-44, ,
-1, ,-45, ,
-1, ,-44, ,
1, ,-44, ,
-1, ,-44, ,
-5, ,-45, ,
0, ,-44, ,
0, ,-44, ,
0, ,-44, ,
-1, ,-44, ,
1, ,-44, ,
4, ,-44, ,
1, ,-44, ,
0, ,-45, ,
3, ,-44, ,
6, ,-44, ,
4, ,-44, ,
3, ,-44, ,
5, ,-44, ,
4, ,-44, ,
6, ,-44, ,
5, ,-44, ,
3, ,-44, ,
4, ,-44, ,
4, ,-44, ,
1, ,-45, ,
5, ,-44, ,
6, ,-44, ,
6, ,-44, ,
4, ,-45, ,
6, ,-44, ,
5, ,-44, ,
1, ,-44, ,
1, ,-44, ,
1, ,-44, ,
0, ,-44, ,
4, ,-44, ,
1, ,-45, ,
4, ,-44, ,
6, ,-43, ,
1, ,-44, ,
-2, ,-44, ,
4, ,-43, ,
0, ,-44, ,
0, ,-44, ,
1, ,-44, ,
3, ,-44, ,
4, ,-44, ,
3, ,-44, ,
-2, ,-45, ,
5, ,-44, ,
5, ,-44, ,
3, ,-44, ,
5, ,-44, ,
6, ,-44, ,
8, ,-44, ,
5, ,-44, ,
3, ,-44, ,
4, ,-44, ,
3, ,-44, ,
1, ,-44, ,
3, ,-45, ,
5, ,-44, ,
8, ,-44, ,
5, ,-44, ,
6, ,-44, ,
8, ,-44, ,
6, ,-44, ,
5, ,-44, ,
3, ,-44, ,
5, ,-45, ,
4, ,-44, ,
3, ,-44, ,
0, ,-44, ,
4, ,-44, ,
5, ,-44, ,
5, ,-44, ,
1, ,-44, ,
5, ,-44, ,
4, ,-44, ,
0, ,-44, ,
0, ,-44, ,
1, ,-44, ,
5, ,-44, ,
1, ,-44, ,
1, ,-45, ,
8, ,-44, ,
6, ,-44, ,
4, ,-44, ,
1, ,-44, ,
4, ,-44, ,
4, ,-44, ,
1, ,-44, ,
3, ,-44, ,
3, ,-44, ,
5, ,-44, ,
3, ,-44, ,
-1, ,-45, ,
5, ,-44, ,
4, ,-44, ,
4, ,-44, ,
1, ,-44, ,
6, ,-44, ,
6, ,-44, ,
5, ,-44, ,
1, ,-44, ,
3, ,-44, ,
5, ,-44, ,
4, ,-44, ,
-1, ,-45, ,
5, ,-44, ,
8, ,-44, ,
5, ,-44, ,
3, ,-44, ,
9, ,-44, ,
10, ,-44, ,
10, ,-44, ,
6, ,-44, ,
6, ,-44, ,
6, ,-44, ,
4, ,-44, ,
3, ,-45, ,
5, ,-44, ,
9, ,-44, ,
6, ,-44, ,
6, ,-44, ,
10, ,-43, ,
6, ,-44, ,
5, ,-44, ,
9, ,-44, ,
10, ,-44, ,
6, ,-44, ,
8, ,-44, ,
6, ,-45, ,
9, ,-44, ,
3, ,-41, ,
4, ,-34, ,
3, ,-24, ,
9, ,-15, ,
15, ,-5, ,
15, ,2, ,
13, ,8, ,
9, ,14, ,
10, ,19, ,
9, ,22, ,
4, ,26, ,
8, ,30, ,
8, ,32, ,
8, ,35, ,
4, ,36, ,
9, ,38, ,
9, ,39, ,
6, ,41, ,
6, ,42, ,
5, ,43, ,
6, ,44, ,
9, ,44, ,
4, ,45, ,
6, ,45, ,
5, ,46, ,
4, ,47, ,
0, ,47, ,
0, ,46, ,
0, ,47, ,
0, ,47, ,
1, ,47, ,
0, ,49, ,
0, ,49, ,
3, ,47, ,
-2, ,49, ,
0, ,49, ,
0, ,49, ,
-1, ,49, ,
-4, ,49, ,
0, ,47, ,
-1, ,50, ,
-1, ,50, ,
-2, ,49, ,
0, ,49, ,
-1, ,49, ,
1, ,47, ,
-5, ,50, ,
-4, ,49, ,
-1, ,49, ,
-5, ,49, ,
-4, ,49, ,
0, ,47, ,
-4, ,49, ,
1, ,49, ,
0, ,49, ,
-1, ,49, ,
0, ,49, ,
-1, ,49, ,
-5, ,49, ,
-4, ,49, ,
-1, ,49, ,
-2, ,49, ,
-6, ,49, ,
-2, ,47, ,
-4, ,49, ,
-4, ,49, ,
-5, ,49, ,
-2, ,49, ,
-2, ,49, ,
-1, ,47, ,
-6, ,49, ,
-2, ,49, ,
-1, ,47, ,
-5, ,49, ,
-5, ,49, ,
0, ,47, ,
-4, ,49, ,
-2, ,49, ,
-4, ,47, ,
-4, ,49, ,
-1, ,49, ,
-1, ,47, ,
-11, ,49, ,
0, ,47, ,
-2, ,47, ,
-4, ,49, ,
-5, ,49, ,
-2, ,47, ,
-1, ,49, ,
-2, ,49, ,
-2, ,49, ,
-2, ,49, ,
-4, ,49, ,
-1, ,47, ,
-9, ,49, ,
-5, ,47, ,
-1, ,47, ,
-4, ,49, ,
-6, ,49, ,
0, ,47, ,
-4, ,49, ,
-2, ,49, ,
-6, ,49, ,
-5, ,49, ,
-4, ,49, ,
-2, ,47, ,
-6, ,49, ,
-4, ,49, ,
-4, ,49, ,
-4, ,49, ,
-7, ,49, ,
-4, ,46, ,
-7, ,49, ,
-5, ,49, ,
-5, ,47, ,
-5, ,49, ,
-4, ,47, ,
-1, ,47, ,
-4, ,49, ,
-2, ,49, ,
1, ,47, ,
1, ,49, ,
-5, ,49, ,
-1, ,47, ,
-9, ,49, ,
-5, ,49, ,
1, ,47, ,
1, ,49, ,
4, ,49, ,
3, ,47, ,
-2, ,49, ,
-1, ,47, ,
-4, ,47, ,
-1, ,49, ,
-5, ,49, ,
0, ,46, ,
1, ,49, ,
1, ,49, ,
-1, ,47, ,
0, ,49, ,
-1, ,49, ,
-2, ,47, ,
-1, ,49, ,
1, ,47, ,
4, ,49, ,
1, ,49, ,
-1, ,49, ,
3, ,47, ,
-2, ,49, ,
-2, ,49, ,
-1, ,47, ,
0, ,49, ,
1, ,49, ,
0, ,47, ,
0, ,49, ,
4, ,49, ,
5, ,49, ,
3, ,49, ,
3, ,49, ,
4, ,46, ,
3, ,49, ,
3, ,49, ,
1, ,47, ,
3, ,49, ,
4, ,49, ,
4, ,47, ,
-1, ,49, ,
3, ,47, ,
4, ,47, ,
3, ,49, ,
1, ,49, ,
4, ,46, ,
1, ,49, ,
4, ,49, ,
1, ,49, ,
8, ,49, ,
6, ,49, ,
1, ,47, ,
0, ,49, ,
4, ,49, ,
4, ,47, ,
4, ,49, ,
3, ,49, ,
5, ,47, ,
5, ,49, ,
1, ,49, ,
-1, ,47, ,
0, ,49, ,
1, ,47, ,
3, ,47, ,
0, ,49, ,
5, ,49, ,
10, ,49, ,
6, ,49, ,
6, ,49, ,
6, ,46, ,
4, ,49, ,
1, ,49, ,
-1, ,47, ,
3, ,49, ,
3, ,49, ,
8, ,47, ,
3, ,49, ,
6, ,47, ,
8, ,47, ,
5, ,47, ,
3, ,49, ,
5, ,46, ,
5, ,49, ,
4, ,49, ,
11, ,47, ,
4, ,49, ,
-4, ,49, ,
4, ,47, ,
8, ,49, ,
1, ,47, ,
6, ,47, ,
8, ,49, ,
4, ,49, ,
4, ,47, ,
6, ,49, ,
8, ,49, ,
4, ,47, ,
8, ,47, ,
5, ,49, ,
4, ,47, ,
1, ,49, ,
5, ,47, ,
6, ,47, ,
10, ,49, ,
11, ,49, ,
11, ,46, ,
11, ,49, ,
9, ,49, ,
4, ,47, ,
5, ,47, ,
8, ,49, ,
6, ,47, ,
8, ,49, ,
10, ,47, ,
9, ,49, ,
9, ,49, ,
1, ,47, ,
8, ,47, ,
6, ,49, ,
8, ,49, ,
5, ,47, ,
3, ,47, ,
8, ,49, ,
5, ,47, ,
0, ,49, ,
4, ,47, ,
5, ,49, ,
4, ,49, ,
0, ,49, ,
5, ,47, ,
5, ,49, ,
4, ,47, ,
4, ,47, ,
5, ,49, ,
6, ,49, ,
8, ,46, ,
4, ,49, ,
6, ,47, ,
8, ,47, ,
6, ,49, ,
4, ,49, ,
5, ,47, ,
4, ,49, ,
3, ,49, ,
3, ,47, ,
1, ,49, ,
3, ,49, ,
4, ,47, ,
-1, ,49, ,
4, ,47, ,
5, ,49, ,
4, ,49, ,
4, ,47, ,
8, ,47, ,
5, ,49, ,
3, ,47, ,
0, ,47, ,
3, ,49, ,
3, ,49, ,
3, ,46, ,
-1, ,49, ,
0, ,47, ,
3, ,47, ,
-1, ,49, ,
-1, ,47, ,
4, ,47, ,
1, ,49, ,
3, ,49, ,
1, ,47, ,
3, ,49, ,
4, ,49, ,
4, ,47, ,
0, ,49, ,
1, ,47, ,
1, ,47, ,
0, ,49, ,
-4, ,47, ,
4, ,47, ,
0, ,49, ,
1, ,47, ,
1, ,47, ,
3, ,47, ,
1, ,49, ,
3, ,47, ,
-1, ,49, ,
3, ,47, ,
0, ,47, ,
3, ,49, ,
-1, ,47, ,
6, ,47, ,
1, ,49, ,
0, ,49, ,
-2, ,47, ,
0, ,49, ,
1, ,49, ,
1, ,47, ,
-2, ,49, ,
3, ,47, ,
1, ,47, ,
3, ,49, ,
-1, ,49, ,
4, ,46, ,
0, ,49, ,
-2, ,49, ,
-2, ,47, ,
1, ,49, ,
-1, ,49, ,
3, ,47, ,
-9, ,49, ,
-6, ,47, ,
1, ,49, ,
3, ,49, ,
0, ,47, ,
4, ,47, ,
3, ,49, ,
0, ,49, ,
-2, ,47, ,
1, ,47, ,
-1, ,49, ,
-1, ,47, ,
-2, ,49, ,
0, ,47, ,
-1, ,47, ,
-2, ,49, ,
-7, ,47, ,
-4, ,46, ,
-7, ,49, ,
-5, ,49, ,
-7, ,47, ,
-4, ,49, ,
-5, ,49, ,
-4, ,47, ,
-7, ,49, ,
-4, ,47, ,
-1, ,49, ,
-1, ,49, ,
-4, ,49, ,
1, ,47, ,
0, ,47, ,
0, ,49, ,
-1, ,47, ,
-4, ,49, ,
-1, ,49, ,
-4, ,47, ,
-9, ,49, ,
-1, ,49, ,
-2, ,47, ,
-1, ,49, ,
-5, ,49, ,
0, ,46, ,
-5, ,49, ,
-6, ,47, ,
-5, ,47, ,
-2, ,49, ,
0, ,47, ,
5, ,47, ,
-1, ,49, ,
0, ,47, ,
1, ,47, ,
-2, ,49, ,
-5, ,47, ,
0, ,46, ,
-2, ,49, ,
-1, ,49, ,
-1, ,47, ,
-1, ,49, ,
0, ,47, ,
-1, ,47, ,
-5, ,49, ,
-1, ,47, ,
0, ,47, ,
-2, ,49, ,
-2, ,49, ,
1, ,46, ,
3, ,49, ,
3, ,49, ,
-1, ,47, ,
1, ,49, ,
-2, ,47, ,
-1, ,47, ,
-6, ,49, ,
-2, ,47, ,
0, ,47, ,
-2, ,49, ,
-4, ,47, ,
3, ,47, ,
-5, ,49, ,
-1, ,49, ,
-2, ,47, ,
3, ,49, ,
4, ,49, ,
5, ,47, ,
3, ,49, ,
4, ,49, ,
4, ,47, ,
0, ,47, ,
-6, ,49, ,
0, ,47, ,
0, ,47, ,
-1, ,47, ,
-1, ,47, ,
1, ,49, ,
1, ,47, ,
0, ,47, ,
-4, ,49, ,
-1, ,47, ,
0, ,47, ,
0, ,49, ,
-1, ,49, ,
1, ,47, ,
1, ,49, ,
1, ,47, ,
-1, ,47, ,
0, ,47, ,
1, ,49, ,
4, ,47, ,
0, ,49, ,
5, ,47, ,
4, ,49, ,
5, ,47, ,
0, ,49, ,
3, ,47, ,
1, ,49, ,
0, ,49, ,
0, ,47, ,
3, ,49, ,
3, ,47, ,
4, ,47, ,
0, ,49, ,
4, ,49, ,
8, ,47, ,
1, ,49, ,
0, ,47, ,
1, ,46, ,
0, ,49, ,
1, ,49, ,
-1, ,47, ,
-1, ,47, ,
1, ,49, ,
1, ,47, ,
3, ,49, ,
3, ,49, ,
5, ,47, ,
3, ,49, ,
0, ,49, ,
4, ,46, ,
5, ,49, ,
6, ,47, ,
5, ,47, ,
8, ,47, ,
6, ,49, ,
6, ,47, ,
1, ,49, ,
3, ,47, ,
5, ,47, ,
4, ,49, ,
4, ,49, ,
8, ,46, ,
5, ,49, ,
6, ,49, ,
4, ,47, ,
4, ,49, ,
4, ,49, ,
4, ,47, ,
4, ,49, ,
5, ,47, ,
4, ,47, ,
6, ,49, ,
1, ,49, ,
5, ,46, ,
3, ,49, ,
0, ,49, ,
1, ,47, ,
3, ,47, ,
3, ,47, ,
5, ,47, ,
4, ,49, ,
5, ,47, ,
8, ,47, ,
8, ,47, ,
4, ,49, ,
6, ,46, ,
1, ,49, ,
3, ,47, ,
1, ,47, ,
4, ,47, ,
4, ,49, ,
3, ,47, ,
-2, ,49, ,
3, ,47, ,
4, ,47, ,
3, ,49, ,
4, ,49, ,
10, ,47, ,
8, ,49, ,
8, ,49, ,
4, ,47, ,
5, ,47, ,
3, ,49, ,
5, ,47, ,
0, ,49, ,
3, ,47, ,
6, ,49, ,
5, ,49, ,
4, ,49, ,
6, ,46, ,
3, ,49, ,
4, ,49, ,
4, ,47, ,
1, ,47, ,
0, ,49, ,
10, ,47, ,
0, ,49, ,
5, ,47, ,
8, ,47, ,
4, ,49, ,
1, ,49, ,
5, ,47, ,
3, ,49, ,
3, ,49, ,
3, ,47, ,
5, ,49, ,
1, ,49, ,
3, ,47, ,
1, ,49, ,
0, ,47, ,
6, ,47, ,
5, ,49, ,
1, ,47, ,
8, ,47, ,
5, ,49, ,
4, ,49, ,
0, ,47, ,
1, ,49, ,
3, ,49, ,
4, ,47, ,
0, ,49, ,
4, ,47, ,
1, ,47, ,
0, ,49, ,
-1, ,49, ,
5, ,46, ,
1, ,49, ,
1, ,49, ,
-1, ,47, ,
1, ,49, ,
1, ,47, ,
3, ,47, ,
0, ,49, ,
3, ,47, ,
4, ,49, ,
3, ,49, ,
0, ,47, ,
4, ,47, ,
3, ,49, ,
4, ,49, ,
-1, ,47, ,
1, ,47, ,
3, ,49, ,
0, ,47, ,
-4, ,49, ,
0, ,47, ,
1, ,47, ,
3, ,49, ,
-1, ,47, ,
3, ,47, ,
-1, ,49, ,
0, ,49, ,
-4, ,47, ,
0, ,49, ,
-2, ,49, ,
-2, ,47, ,
-5, ,49, ,
-2, ,47, ,
-1, ,49, ,
-4, ,49, ,
-7, ,47, ,
1, ,46, ,
-2, ,49, ,
3, ,49, ,
0, ,47, ,
-1, ,49, ,
0, ,49, ,
1, ,47, ,
-2, ,49, ,
3, ,47, ,
1, ,47, ,
0, ,49, ,
-2, ,49, ,
3, ,47, ,
1, ,49, ,
0, ,49, ,
-1, ,47, ,
0, ,47, ,
-1, ,49, ,
1, ,47, ,
-2, ,49, ,
0, ,47, ,
3, ,49, ,
-1, ,49, ,
-1, ,49, ,
1, ,47, ,
-2, ,49, ,
-1, ,49, ,
0, ,47, ,
0, ,47, ,
0, ,47, ,
3, ,47, ,
-5, ,49, ,
0, ,47, ,
0, ,49, ,
-1, ,49, ,
-2, ,47, ,
3, ,46, ,
4, ,49, ,
4, ,47, ,
0, ,47, ,
3, ,47, ,
3, ,47, ,
3, ,46, ,
-2, ,49, ,
-1, ,47, ,
-1, ,47, ,
-4, ,49, ,
-6, ,49, ,
0, ,47, ,
-4, ,47, ,
-2, ,49, ,
-2, ,47, ,
0, ,47, ,
0, ,49, ,
0, ,47, ,
-2, ,49, ,
0, ,47, ,
3, ,49, ,
1, ,49, ,
-2, ,47, ,
4, ,46, ,
1, ,49, ,
0, ,49, ,
0, ,47, ,
-1, ,49, ,
3, ,49, ,
1, ,47, ,
-1, ,49, ,
1, ,47, ,
1, ,47, ,
1, ,49, ,
-6, ,49, ,
0, ,46, ,
-2, ,49, ,
0, ,49, ,
-1, ,47, ,
3, ,47, ,
6, ,47, ,
8, ,47, ,
4, ,49, ,
6, ,47, ,
4, ,49, ,
3, ,49, ,
-2, ,47, ,
3, ,47, ,
0, ,49, ,
-2, ,49, ,
-1, ,47, ,
-1, ,49, ,
-2, ,49, ,
-1, ,47, ,
-10, ,49, ,
-6, ,49, ,
1, ,47, ,
-1, ,49, ,
-2, ,47, ,
3, ,47, ,
-1, ,49, ,
0, ,49, ,
-2, ,47, ,
-2, ,49, ,
-1, ,49, ,
3, ,47, ,
-1, ,49, ,
4, ,49, ,
5, ,47, ,
3, ,49, ,
3, ,49, ,
6, ,47, ,
3, ,49, ,
5, ,47, ,
4, ,47, ,
8, ,49, ,
10, ,49, ,
11, ,47, ,
8, ,49, ,
8, ,49, ,
6, ,49, ,
4, ,49, ,
-2, ,49, ,
3, ,46, ,
0, ,49, ,
4, ,47, ,
3, ,47, ,
3, ,47, ,
3, ,49, ,
1, ,47, ,
-1, ,49, ,
0, ,47, ,
1, ,47, ,
-1, ,49, ,
-6, ,49, ,
1, ,46, ,
0, ,47, ,
-1, ,47, ,
0, ,47, ,
3, ,49, ,
4, ,49, ,
5, ,47, ,
6, ,49, ,
6, ,47, ,
10, ,47, ,
9, ,45, ,
-1, ,37, ,
-1, ,26, ,
-4, ,17, ,
-6, ,8, ,
-9, ,1, ,
-4, ,-5, ,
-5, ,-11, ,
-4, ,-16, ,
-6, ,-19, ,
-6, ,-23, ,
-4, ,-26, ,
-4, ,-30, ,
-4, ,-31, ,
1, ,-33, ,
0, ,-35, ,
0, ,-37, ,
-1, ,-37, ,
0, ,-39, ,
0, ,-40, ,
5, ,-40, ,
0, ,-41, ,
5, ,-42, ,
8, ,-41, ,
4, ,-42, ,
3, ,-43, ,
6, ,-43, ,
8, ,-43, ,
6, ,-43, ,
5, ,-44, ,
6, ,-44, ,
9, ,-44, ,
8, ,-44, ,
1, ,-45, ,
8, ,-44, ,
6, ,-44, ,
8, ,-45, ,
3, ,-45, ,
9, ,-44, ,
6, ,-45, ,
6, ,-45, ,
5, ,-45, ,
6, ,-45, ,
5, ,-44, ,
4, ,-44, ,
1, ,-45, ,
3, ,-45, ,
4, ,-44, ,
3, ,-45, ,
0, ,-45, ,
0, ,-44, ,
-1, ,-45, ,
-5, ,-45, ,
-2, ,-44, ,
0, ,-45, ,
3, ,-45, ,
4, ,-45, ,
-1, ,-45, ,
3, ,-44, ,
3, ,-44, ,
0, ,-45, ,
-2, ,-45, ,
-1, ,-44, ,
1, ,-45, ,
-1, ,-45, ,
-1, ,-44, ,
1, ,-45, ,
3, ,-45, ,
4, ,-45, ,
-2, ,-45, ,
3, ,-45, ,
6, ,-44, ,
3, ,-44, ,
1, ,-45, ,
5, ,-44, ,
3, ,-45, ,
3, ,-44, ,
0, ,-44, ,
1, ,-44, ,
0, ,-44, ,
-1, ,-44, ,
-4, ,-45, ,
0, ,-44, ,
1, ,-44, ,
3, ,-44, ,
-1, ,-45, ,
4, ,-44, ,
1, ,-44, ,
-1, ,-44, ,
-4, ,-44, ,
1, ,-44, ,
1, ,-44, ,
1, ,-44, ,
-2, ,-45, ,
1, ,-44, ,
4, ,-44, ,
1, ,-45, ,
-2, ,-44, ,
5, ,-44, ,
4, ,-44, ,
4, ,-45, ,
4, ,-44, ,
5, ,-44, ,
6, ,-45, ,
6, ,-44, ,
3, ,-45, ,
3, ,-44, ,
3, ,-44, ,
4, ,-45, ,
3, ,-44, ,
8, ,-44, ,
3, ,-45, ,
0, ,-45, ,
-1, ,-44, ,
-2, ,-44, ,
0, ,-44, ,
-2, ,-44, ,
-6, ,-45, ,
-4, ,-44, ,
-4, ,-44, ,
-5, ,-44, ,
-5, ,-44, ,
3, ,-43, ,
1, ,-44, ,
3, ,-44, ,
1, ,-44, ,
3, ,-44, ,
1, ,-44, ,
1, ,-44, ,
-5, ,-45, ,
1, ,-44, ,
1, ,-44, ,
-4, ,-44, ,
-2, ,-44, ,
4, ,-44, ,
1, ,-44, ,
3, ,-44, ,
1, ,-44, ,
3, ,-44, ,
0, ,-44, ,
6, ,-44, ,
5, ,-45, ,
9, ,-44, ,
9, ,-44, ,
3, ,-44, ,
0, ,-45, ,
1, ,-44, ,
0, ,-44, ,
3, ,-44, ,
0, ,-44, ,
3, ,-44, ,
5, ,-44, ,
-1, ,-44, ,
-6, ,-45, ,
-6, ,-44, ,
-6, ,-44, ,
-7, ,-44, ,
-12, ,-44, ,
-4, ,-44, ,
-1, ,-45, ,
-4, ,-44, ,
-4, ,-44, ,
-5, ,-44, ,
-5, ,-44, ,
-6, ,-44, ,
-9, ,-45, ,
-4, ,-44, ,
-1, ,-44, ,
-5, ,-44, ,
-5, ,-45, ,
-2, ,-44, ,
-1, ,-44, ,
0, ,-44, ,
1, ,-44, ,
0, ,-44, ,
4, ,-44, ,
6, ,-44, ,
3, ,-45, ,
8, ,-44, ,
8, ,-44, ,
5, ,-44, ,
3, ,-44, ,
4, ,-44, ,
5, ,-44, ,
4, ,-44, ,
3, ,-44, ,
4, ,-44, ,
3, ,-44, ,
3, ,-44, ,
-2, ,-45, ,
-1, ,-44, ,
0, ,-44, ,
-2, ,-44, ,
-5, ,-44, ,
3, ,-43, ,
1, ,-44, ,
1, ,-44, ,
0, ,-44, ,
0, ,-44, ,
0, ,-44, ,
0, ,-44, ,
-2, ,-45, ,
1, ,-44, ,
3, ,-44, ,
3, ,-44, ,
4, ,-44, ,
8, ,-44, ,
9, ,-44, ,
8, ,-44, ,
8, ,-44, ,
8, ,-45, ,
9, ,-45, ,
9, ,-44, ,
5, ,-45, ,
5, ,-44, ,
6, ,-44, ,
4, ,-44, ,
-1, ,-44, ,
4, ,-43, ,
1, ,-44, ,
3, ,-44, ,
0, ,-44, ,
3, ,-44, ,
1, ,-44, ,
0, ,-44, ,
-2, ,-45, ,
-2, ,-44, ,
-6, ,-44, ,
-5, ,-44, ,
-9, ,-45, ,
-5, ,-44, ,
-4, ,-44, ,
-2, ,-44, ,
-4, ,-44, ,
-1, ,-44, ,
0, ,-44, ,
1, ,-44, ,
-2, ,-45, ,
4, ,-44, ,
4, ,-44, ,
0, ,-44, ,
0, ,-44, ,
4, ,-44, ,
5, ,-44, ,
6, ,-44, ,
6, ,-44, ,
14, ,-44, ,
8, ,-44, ,
4, ,-44, ,
3, ,-44, ,
5, ,-44, ,
8, ,-44, ,
6, ,-44, ,
5, ,-44, ,
10, ,-44, ,
8, ,-44, ,
5, ,-44, ,
3, ,-44, ,
5, ,-44, ,
4, ,-44, ,
4, ,-44, ,
1, ,-45, ,
5, ,-44, ,
4, ,-43, ,
0, ,-44, ,
-5, ,-44, ,
1, ,-43, ,
-4, ,-44, ,
0, ,-44, ,
-2, ,-44, ,
-2, ,-44, ,
1, ,-44, ,
1, ,-44, ,
-2, ,-45, ,
1, ,-44, ,
4, ,-44, ,
1, ,-44, ,
-5, ,-44, ,
5, ,-44, ,
5, ,-45, ,
5, ,-44, ,
8, ,-44, ,
10, ,-44, ,
9, ,-44, ,
5, ,-44, ,
1, ,-45, ,
10, ,-44, ,
14, ,-44, ,
10, ,-44, ,
6, ,-44, ,
8, ,-43, ,
9, ,-44, ,
6, ,-45, ,
4, ,-44, ,
5, ,-44, ,
8, ,-44, ,
5, ,-44, ,
4, ,-45, ,
4, ,-44, ,
4, ,-44, ,
3, ,-44, ,
-1, ,-45, ,
-2, ,-44, ,
0, ,-44, ,
-4, ,-44, ,
-5, ,-44, ,
-4, ,-44, ,
-5, ,-44, ,
-2, ,-44, ,
-5, ,-45, ,
-1, ,-44, ,
4, ,-44, ,
-2, ,-44, ,
0, ,-44, ,
3, ,-43, ,
0, ,-44, ,
3, ,-44, ,
-1, ,-44, ,
4, ,-44, ,
6, ,-44, ,
5, ,-44, ,
1, ,-45, ,
6, ,-44, ,
6, ,-44, ,
5, ,-44, ,
4, ,-44, ,
6, ,-43, ,
5, ,-44, ,
5, ,-44, ,
1, ,-44, ,
3, ,-44, ,
1, ,-44, ,
1, ,-44, ,
-1, ,-45, ,
0, ,-44, ,
3, ,-44, ,
-1, ,-45, ,
-5, ,-44, ,
0, ,-43, ,
-2, ,-44, ,
-2, ,-44, ,
-2, ,-44, ,
-4, ,-44, ,
-1, ,-44, ,
-2, ,-44, ,
-7, ,-44, ,
0, ,-44, ,
4, ,-44, ,
0, ,-44, ,
-2, ,-44, ,
5, ,-44, ,
3, ,-44, ,
1, ,-44, ,
0, ,-44, ,
4, ,-44, ,
4, ,-44, ,
6, ,-44, ,
3, ,-45, ,
8, ,-44, ,
10, ,-44, ,
6, ,-44, ,
6, ,-44, ,
8, ,-43, ,
4, ,-44, ,
5, ,-44, ,
1, ,-44, ,
5, ,-44, ,
4, ,-44, ,
3, ,-44, ,
3, ,-45, ,
11, ,-44, ,
4, ,-44, ,
-2, ,-44, ,
-6, ,-44, ,
0, ,-44, ,
0, ,-44, ,
-2, ,-44, ,
-1, ,-44, ,
-5, ,-44, ,
-10, ,-44, ,
-4, ,-44, ,
-9, ,-45, ,
-2, ,-44, ,
4, ,-44, ,
-1, ,-44, ,
-4, ,-44, ,
3, ,-43, ,
-2, ,-44, ,
-4, ,-44, ,
-4, ,-44, ,
-2, ,-44, ,
0, ,-44, ,
1, ,-44, ,
-1, ,-45, ,
6, ,-44, ,
4, ,-44, ,
1, ,-44, ,
0, ,-44, ,
4, ,-44, ,
4, ,-44, ,
3, ,-44, ,
4, ,-44, ,
3, ,-44, ,
3, ,-44, ,
1, ,-44, ,
-2, ,-45, ,
-2, ,-44, ,
0, ,-44, ,
-4, ,-44, ,
-10, ,-44, ,
-4, ,-43, ,
-7, ,-44, ,
-5, ,-44, ,
-6, ,-44, ,
-6, ,-44, ,
-5, ,-44, ,
-5, ,-44, ,
-7, ,-44, ,
-2, ,-44, ,
-2, ,-44, ,
-1, ,-44, ,
-2, ,-44, ,
5, ,-44, ,
1, ,-44, ,
1, ,-44, ,
-1, ,-44, ,
1, ,-44, ,
-1, ,-44, ,
0, ,-44, ,
-4, ,-44, ,
3, ,-44, ,
8, ,-44, ,
5, ,-44, ,
5, ,-44, ,
5, ,-43, ,
3, ,-44, ,
5, ,-44, ,
4, ,-44, ,
3, ,-43, ,
3, ,-44, ,
4, ,-44, ,
-1, ,-45, ,
3, ,-44, ,
1, ,-44, ,
-1, ,-44, ,
-4, ,-44, ,
0, ,-44, ,
-1, ,-44, ,
1, ,-44, ,
-1, ,-44, ,
1, ,-44, ,
0, ,-44, ,
1, ,-44, ,
-1, ,-45, ,
-2, ,-44, ,
-1, ,-44, ,
-2, ,-44, ,
-2, ,-45, ,
5, ,-43, ,
4, ,-44, ,
3, ,-44, ,
0, ,-44, ,
3, ,-44, ,
3, ,-44, ,
-1, ,-44, ,
-2, ,-44, ,
5, ,-44, ,
4, ,-44, ,
4, ,-44, ,
1, ,-44, ,
5, ,-44, ,
8, ,-44, ,
