src/vary_am2_1412/temp0002826.CSV

Format,1.0B,
Memory Length,10000,Memory Length,10000,
IntpDistance,0,IntpDistance,0,
Trigger Address,4999,Trigger Address,4999,
Trigger Level,9.600E-01,Trigger Level,9.600E-01,
Source,CH1,Source,CH2,
Vertical Units,V,Vertical Units,V,
Vertical Units Div,0,Vertical Units Div,0,
Vertical Units Extend Div,16,Vertical Units Extend Div,16,
Label,,Label,,
Probe Type,0,Probe Type,0,
Probe Ratio,1.000e+01,Probe Ratio,1.000e+00,
Vertical Scale,2.000e-02,Vertical Scale,1.000e+00,
Vertical Position,-5.120e-02,Vertical Position,0.000e+00,
Horizontal Units,S,Horizontal Units,S,
Horizontal Scale,1.000E-05,Horizontal Scale,1.000E-05,
Horizontal Position,0.000E+00,Horizontal Position,0.000E+00,
Horizontal Mode,Main,Horizontal Mode,Main,
SincET Mode,Real Time,SincET Mode,Real Time,
Sampling Period,1.000e-08,Sampling Period,1.000e-08,
Horizontal Old Scale,1.000E-05,Horizontal Old Scale,1.000E-05,
Horizontal Old Position,0.000E+00,Horizontal Old Position,0.000E+00,
Firmware,V1.23,Firmware,V1.23,
Mode,Fast,Mode,Fast,
Waveform Data,,Waveform Data,,
4, ,-36, ,
1, ,-36, ,
-2, ,-36, ,
1, ,-36, ,
1, ,-36, ,
-2, ,-36, ,
0, ,-36, ,
3, ,-36, ,
1, ,-36, ,
5, ,-36, ,
-1, ,-36, ,
1, ,-36, ,
5, ,-36, ,
-4, ,-36, ,
0, ,-36, ,
5, ,-36, ,
4, ,-36, ,
3, ,-36, ,
0, ,-36, ,
0, ,-36, ,
0, ,-36, ,
-1, ,-36, ,
-5, ,-36, ,
0, ,-36, ,
3, ,-36, ,
1, ,-36, ,
0, ,-36, ,
3, ,-36, ,
3, ,-36, ,
-1, ,-36, ,
0, ,-36, ,
3, ,-36, ,
0, ,-36, ,
4, ,-36, ,
-1, ,-36, ,
3, ,-37, ,
6, ,-36, ,
-2, ,-35, ,
-5, ,-36, ,
5, ,-36, ,
1, ,-36, ,
1, ,-36, ,
1, ,-36, ,
0, ,-36, ,
4, ,-36, ,
0, ,-36, ,
-5, ,-35, ,
0, ,-37, ,
0, ,-36, ,
-2, ,-36, ,
-4, ,-36, ,
1, ,-36, ,
3, ,-36, ,
1, ,-36, ,
0, ,-36, ,
0, ,-36, ,
1, ,-36, ,
0, ,-36, ,
-6, ,-36, ,
1, ,-37, ,
1, ,-36, ,
-1, ,-36, ,
-2, ,-36, ,
5, ,-36, ,
4, ,-36, ,
3, ,-36, ,
1, ,-36, ,
5, ,-36, ,
1, ,-36, ,
4, ,-36, ,
0, ,-36, ,
4, ,-36, ,
6, ,-36, ,
0, ,-36, ,
-2, ,-36, ,
5, ,-36, ,
4, ,-36, ,
0, ,-36, ,
0, ,-36, ,
4, ,-36, ,
6, ,-36, ,
8, ,-36, ,
3, ,-36, ,
3, ,-37, ,
5, ,-36, ,
1, ,-36, ,
0, ,-36, ,
4, ,-36, ,
3, ,-36, ,
5, ,-36, ,
5, ,-36, ,
6, ,-36, ,
13, ,-36, ,
4, ,-36, ,
3, ,-36, ,
8, ,-36, ,
5, ,-36, ,
6, ,-36, ,
3, ,-36, ,
10, ,-36, ,
10, ,-36, ,
8, ,-36, ,
6, ,-36, ,
5, ,-36, ,
5, ,-36, ,
5, ,-36, ,
0, ,-36, ,
3, ,-36, ,
5, ,-36, ,
5, ,-35, ,
0, ,-36, ,
8, ,-36, ,
4, ,-36, ,
3, ,-36, ,
4, ,-36, ,
5, ,-36, ,
10, ,-36, ,
6, ,-36, ,
4, ,-36, ,
9, ,-37, ,
6, ,-36, ,
4, ,-36, ,
-2, ,-36, ,
4, ,-36, ,
9, ,-36, ,
5, ,-36, ,
4, ,-36, ,
5, ,-36, ,
4, ,-36, ,
8, ,-36, ,
-1, ,-36, ,
0, ,-37, ,
3, ,-36, ,
0, ,-36, ,
0, ,-36, ,
5, ,-36, ,
6, ,-36, ,
5, ,-36, ,
4, ,-36, ,
4, ,-36, ,
5, ,-36, ,
4, ,-36, ,
1, ,-36, ,
5, ,-36, ,
6, ,-36, ,
4, ,-36, ,
3, ,-36, ,
5, ,-36, ,
1, ,-36, ,
4, ,-36, ,
-4, ,-36, ,
0, ,-36, ,
5, ,-36, ,
1, ,-36, ,
1, ,-36, ,
5, ,-36, ,
4, ,-36, ,
-1, ,-36, ,
-6, ,-36, ,
1, ,-36, ,
-1, ,-36, ,
0, ,-36, ,
0, ,-36, ,
1, ,-36, ,
4, ,-36, ,
4, ,-36, ,
-4, ,-36, ,
1, ,-36, ,
0, ,-36, ,
1, ,-36, ,
-4, ,-36, ,
4, ,-36, ,
1, ,-36, ,
-5, ,-36, ,
-1, ,-36, ,
-2, ,-36, ,
3, ,-36, ,
5, ,-36, ,
-2, ,-36, ,
-1, ,-36, ,
0, ,-36, ,
-5, ,-36, ,
-6, ,-36, ,
0, ,-36, ,
0, ,-35, ,
-1, ,-36, ,
0, ,-36, ,
-4, ,-36, ,
-2, ,-36, ,
-4, ,-36, ,
-9, ,-36, ,
-5, ,-37, ,
-2, ,-36, ,
-5, ,-36, ,
-6, ,-36, ,
-2, ,-36, ,
-2, ,-36, ,
-5, ,-36, ,
-7, ,-36, ,
-2, ,-36, ,
-5, ,-36, ,
3, ,-36, ,
-5, ,-36, ,
3, ,-36, ,
3, ,-36, ,
-1, ,-36, ,
-5, ,-36, ,
0, ,-36, ,
-6, ,-36, ,
-5, ,-36, ,
-10, ,-36, ,
-7, ,-36, ,
-5, ,-36, ,
-5, ,-36, ,
-7, ,-36, ,
-4, ,-36, ,
-1, ,-36, ,
-1, ,-36, ,
-6, ,-36, ,
1, ,-36, ,
-1, ,-36, ,
-2, ,-36, ,
-2, ,-36, ,
-2, ,-36, ,
-2, ,-36, ,
-4, ,-36, ,
-7, ,-36, ,
-5, ,-37, ,
0, ,-36, ,
-6, ,-36, ,
-7, ,-36, ,
0, ,-36, ,
-4, ,-36, ,
-4, ,-36, ,
-5, ,-36, ,
-6, ,-36, ,
-4, ,-36, ,
-4, ,-36, ,
-4, ,-36, ,
1, ,-36, ,
4, ,-36, ,
3, ,-36, ,
-2, ,-36, ,
3, ,-36, ,
0, ,-36, ,
-1, ,-36, ,
0, ,-36, ,
0, ,-36, ,
0, ,-36, ,
5, ,-36, ,
1, ,-36, ,
4, ,-36, ,
5, ,-36, ,
0, ,-36, ,
-4, ,-36, ,
4, ,-36, ,
1, ,-36, ,
0, ,-36, ,
-2, ,-36, ,
-2, ,-36, ,
-1, ,-36, ,
-1, ,-36, ,
-9, ,-36, ,
-2, ,-36, ,
-1, ,-36, ,
-5, ,-36, ,
-6, ,-36, ,
-1, ,-36, ,
-5, ,-36, ,
-4, ,-36, ,
-5, ,-36, ,
-1, ,-36, ,
-1, ,-36, ,
-2, ,-36, ,
-4, ,-36, ,
0, ,-37, ,
5, ,-36, ,
3, ,-36, ,
-2, ,-36, ,
5, ,-36, ,
1, ,-36, ,
1, ,-36, ,
-1, ,-36, ,
0, ,-36, ,
3, ,-36, ,
4, ,-36, ,
0, ,-36, ,
4, ,-37, ,
5, ,-36, ,
0, ,-36, ,
-1, ,-36, ,
4, ,-36, ,
3, ,-36, ,
0, ,-36, ,
0, ,-36, ,
0, ,-36, ,
3, ,-36, ,
5, ,-36, ,
-2, ,-36, ,
3, ,-37, ,
6, ,-36, ,
4, ,-36, ,
3, ,-36, ,
8, ,-36, ,
9, ,-36, ,
9, ,-36, ,
6, ,-36, ,
6, ,-36, ,
9, ,-36, ,
8, ,-36, ,
-1, ,-36, ,
8, ,-36, ,
8, ,-36, ,
6, ,-36, ,
6, ,-36, ,
10, ,-36, ,
6, ,-36, ,
3, ,-36, ,
3, ,-36, ,
0, ,-36, ,
1, ,-36, ,
3, ,-36, ,
-2, ,-36, ,
1, ,-37, ,
6, ,-36, ,
3, ,-36, ,
-2, ,-36, ,
3, ,-36, ,
-4, ,-36, ,
0, ,-36, ,
-1, ,-36, ,
1, ,-36, ,
4, ,-36, ,
3, ,-36, ,
-1, ,-36, ,
0, ,-36, ,
0, ,-36, ,
-1, ,-36, ,
-5, ,-36, ,
5, ,-36, ,
4, ,-36, ,
4, ,-36, ,
5, ,-36, ,
5, ,-36, ,
5, ,-36, ,
4, ,-36, ,
-1, ,-36, ,
3, ,-37, ,
5, ,-36, ,
4, ,-36, ,
3, ,-36, ,
10, ,-36, ,
6, ,-36, ,
8, ,-36, ,
5, ,-36, ,
4, ,-36, ,
8, ,-36, ,
5, ,-36, ,
3, ,-36, ,
6, ,-36, ,
9, ,-36, ,
6, ,-36, ,
4, ,-36, ,
5, ,-36, ,
6, ,-36, ,
4, ,-36, ,
6, ,-36, ,
8, ,-36, ,
5, ,-36, ,
4, ,-36, ,
-1, ,-36, ,
4, ,-37, ,
5, ,-36, ,
0, ,-36, ,
-2, ,-36, ,
6, ,-36, ,
4, ,-36, ,
5, ,-36, ,
6, ,-36, ,
6, ,-36, ,
8, ,-36, ,
8, ,-36, ,
1, ,-36, ,
5, ,-37, ,
9, ,-36, ,
3, ,-36, ,
3, ,-36, ,
6, ,-36, ,
4, ,-36, ,
1, ,-36, ,
-1, ,-36, ,
3, ,-36, ,
1, ,-36, ,
3, ,-36, ,
-1, ,-36, ,
0, ,-36, ,
3, ,-36, ,
0, ,-36, ,
-4, ,-36, ,
5, ,-36, ,
-4, ,-35, ,
0, ,-36, ,
-1, ,-36, ,
-2, ,-36, ,
-2, ,-36, ,
-2, ,-36, ,
-5, ,-36, ,
0, ,-36, ,
1, ,-36, ,
3, ,-36, ,
-1, ,-36, ,
5, ,-36, ,
3, ,-36, ,
1, ,-37, ,
-1, ,-36, ,
1, ,-36, ,
3, ,-36, ,
3, ,-36, ,
-2, ,-36, ,
3, ,-37, ,
4, ,-36, ,
-1, ,-36, ,
-4, ,-36, ,
-2, ,-36, ,
-1, ,-36, ,
1, ,-36, ,
-1, ,-36, ,
1, ,-36, ,
3, ,-36, ,
1, ,-36, ,
-5, ,-36, ,
-1, ,-37, ,
0, ,-36, ,
-4, ,-36, ,
-7, ,-36, ,
-2, ,-36, ,
-2, ,-36, ,
-4, ,-36, ,
-4, ,-36, ,
-2, ,-36, ,
-1, ,-36, ,
1, ,-36, ,
-5, ,-36, ,
0, ,-36, ,
3, ,-36, ,
-1, ,-36, ,
-2, ,-36, ,
3, ,-36, ,
-1, ,-36, ,
1, ,-36, ,
-2, ,-36, ,
0, ,-36, ,
1, ,-36, ,
1, ,-36, ,
-1, ,-36, ,
1, ,-37, ,
4, ,-36, ,
-1, ,-36, ,
-4, ,-36, ,
4, ,-36, ,
3, ,-36, ,
1, ,-36, ,
4, ,-36, ,
1, ,-36, ,
1, ,-36, ,
3, ,-36, ,
-5, ,-36, ,
-1, ,-36, ,
1, ,-36, ,
-4, ,-36, ,
-7, ,-36, ,
-1, ,-36, ,
-6, ,-36, ,
-6, ,-36, ,
-6, ,-36, ,
-5, ,-36, ,
-4, ,-36, ,
-2, ,-36, ,
-7, ,-36, ,
-2, ,-36, ,
-2, ,-36, ,
-4, ,-36, ,
-6, ,-36, ,
-1, ,-36, ,
-2, ,-36, ,
-5, ,-36, ,
-4, ,-36, ,
-1, ,-36, ,
-2, ,-36, ,
-1, ,-36, ,
-6, ,-36, ,
0, ,-36, ,
3, ,-36, ,
-1, ,-36, ,
-4, ,-36, ,
3, ,-36, ,
-4, ,-36, ,
-1, ,-36, ,
-4, ,-36, ,
-4, ,-36, ,
-1, ,-36, ,
-2, ,-36, ,
-6, ,-36, ,
-1, ,-36, ,
-2, ,-36, ,
-6, ,-36, ,
-11, ,-36, ,
-7, ,-36, ,
-9, ,-36, ,
-9, ,-36, ,
-10, ,-36, ,
-4, ,-36, ,
-5, ,-36, ,
-4, ,-36, ,
-7, ,-36, ,
-2, ,-37, ,
0, ,-36, ,
-1, ,-36, ,
-4, ,-36, ,
4, ,-36, ,
0, ,-36, ,
3, ,-36, ,
0, ,-35, ,
-5, ,-31, ,
4, ,-21, ,
8, ,-11, ,
5, ,-2, ,
11, ,6, ,
13, ,14, ,
10, ,19, ,
4, ,25, ,
8, ,30, ,
6, ,33, ,
8, ,36, ,
5, ,39, ,
6, ,41, ,
5, ,44, ,
6, ,45, ,
1, ,46, ,
3, ,50, ,
6, ,50, ,
0, ,51, ,
-1, ,53, ,
6, ,53, ,
-1, ,52, ,
3, ,54, ,
-6, ,54, ,
1, ,55, ,
5, ,55, ,
3, ,56, ,
-4, ,55, ,
-1, ,57, ,
1, ,56, ,
0, ,56, ,
-2, ,57, ,
5, ,57, ,
3, ,56, ,
1, ,57, ,
0, ,57, ,
0, ,56, ,
-1, ,57, ,
4, ,57, ,
-1, ,56, ,
3, ,58, ,
6, ,56, ,
4, ,57, ,
4, ,57, ,
9, ,58, ,
4, ,56, ,
4, ,58, ,
1, ,57, ,
3, ,57, ,
4, ,57, ,
4, ,58, ,
0, ,56, ,
3, ,58, ,
4, ,56, ,
5, ,57, ,
-1, ,57, ,
4, ,57, ,
1, ,56, ,
-1, ,57, ,
0, ,57, ,
0, ,57, ,
0, ,57, ,
4, ,57, ,
-4, ,56, ,
1, ,57, ,
3, ,56, ,
0, ,57, ,
-1, ,57, ,
6, ,57, ,
1, ,55, ,
4, ,57, ,
4, ,57, ,
5, ,56, ,
5, ,57, ,
5, ,57, ,
0, ,56, ,
6, ,57, ,
5, ,56, ,
8, ,57, ,
4, ,57, ,
10, ,57, ,
9, ,56, ,
6, ,57, ,
6, ,57, ,
6, ,57, ,
3, ,57, ,
8, ,57, ,
0, ,56, ,
3, ,57, ,
4, ,56, ,
0, ,56, ,
-1, ,57, ,
5, ,57, ,
0, ,55, ,
4, ,57, ,
3, ,57, ,
4, ,56, ,
5, ,57, ,
4, ,57, ,
-1, ,56, ,
4, ,57, ,
5, ,56, ,
1, ,57, ,
0, ,57, ,
5, ,57, ,
5, ,55, ,
5, ,57, ,
6, ,57, ,
11, ,56, ,
8, ,57, ,
13, ,57, ,
8, ,56, ,
9, ,57, ,
10, ,56, ,
5, ,57, ,
6, ,57, ,
10, ,56, ,
9, ,55, ,
11, ,57, ,
8, ,56, ,
6, ,56, ,
4, ,56, ,
4, ,57, ,
-1, ,56, ,
4, ,57, ,
3, ,56, ,
3, ,57, ,
1, ,57, ,
5, ,57, ,
4, ,55, ,
1, ,57, ,
0, ,57, ,
0, ,56, ,
-1, ,57, ,
0, ,57, ,
-5, ,56, ,
0, ,58, ,
-1, ,56, ,
-2, ,56, ,
-4, ,57, ,
1, ,57, ,
-1, ,55, ,
-1, ,57, ,
-5, ,57, ,
-2, ,57, ,
3, ,57, ,
4, ,57, ,
1, ,56, ,
4, ,58, ,
3, ,56, ,
0, ,57, ,
-2, ,57, ,
4, ,57, ,
1, ,55, ,
0, ,57, ,
-2, ,56, ,
-1, ,56, ,
1, ,56, ,
3, ,57, ,
0, ,56, ,
4, ,57, ,
8, ,56, ,
5, ,57, ,
3, ,57, ,
6, ,57, ,
3, ,55, ,
3, ,57, ,
1, ,57, ,
0, ,56, ,
3, ,57, ,
0, ,57, ,
-6, ,56, ,
-1, ,57, ,
0, ,56, ,
0, ,56, ,
-4, ,57, ,
6, ,57, ,
3, ,56, ,
3, ,57, ,
5, ,57, ,
6, ,56, ,
4, ,57, ,
5, ,57, ,
-1, ,56, ,
1, ,57, ,
4, ,56, ,
3, ,57, ,
0, ,57, ,
8, ,57, ,
1, ,55, ,
0, ,57, ,
-1, ,57, ,
-1, ,56, ,
-1, ,57, ,
0, ,57, ,
-7, ,56, ,
1, ,57, ,
-1, ,56, ,
-1, ,57, ,
-4, ,57, ,
-1, ,56, ,
-4, ,55, ,
-4, ,57, ,
-2, ,57, ,
-2, ,56, ,
-2, ,56, ,
-4, ,57, ,
-6, ,56, ,
-6, ,57, ,
-5, ,56, ,
-5, ,57, ,
-9, ,57, ,
1, ,57, ,
1, ,55, ,
-1, ,57, ,
-1, ,56, ,
-1, ,56, ,
-2, ,56, ,
0, ,57, ,
-4, ,56, ,
0, ,57, ,
1, ,56, ,
0, ,56, ,
-6, ,57, ,
0, ,56, ,
-6, ,55, ,
-5, ,57, ,
-4, ,56, ,
-1, ,56, ,
-1, ,56, ,
4, ,57, ,
-2, ,56, ,
-2, ,57, ,
3, ,56, ,
-1, ,56, ,
-7, ,57, ,
0, ,57, ,
-5, ,55, ,
-2, ,57, ,
-2, ,56, ,
-5, ,56, ,
-2, ,57, ,
-2, ,57, ,
-9, ,56, ,
-2, ,57, ,
-2, ,56, ,
-2, ,57, ,
-5, ,57, ,
1, ,57, ,
-2, ,55, ,
-5, ,57, ,
-4, ,57, ,
-4, ,56, ,
-2, ,57, ,
3, ,57, ,
-5, ,56, ,
0, ,57, ,
4, ,56, ,
3, ,56, ,
0, ,57, ,
3, ,56, ,
-1, ,55, ,
0, ,57, ,
-1, ,57, ,
3, ,56, ,
4, ,57, ,
5, ,57, ,
0, ,56, ,
6, ,57, ,
6, ,56, ,
3, ,56, ,
-1, ,57, ,
3, ,56, ,
-1, ,55, ,
-2, ,57, ,
-1, ,57, ,
0, ,57, ,
0, ,57, ,
3, ,57, ,
-2, ,56, ,
-1, ,57, ,
0, ,56, ,
-5, ,57, ,
-5, ,57, ,
3, ,57, ,
-4, ,55, ,
0, ,57, ,
-1, ,57, ,
-1, ,56, ,
0, ,56, ,
-1, ,57, ,
-5, ,56, ,
0, ,57, ,
3, ,56, ,
1, ,56, ,
-4, ,57, ,
1, ,56, ,
3, ,55, ,
-1, ,57, ,
-2, ,57, ,
1, ,56, ,
-2, ,56, ,
-1, ,57, ,
-1, ,56, ,
6, ,57, ,
5, ,56, ,
0, ,57, ,
-1, ,57, ,
3, ,56, ,
-2, ,55, ,
0, ,57, ,
0, ,56, ,
-2, ,56, ,
-1, ,56, ,
4, ,57, ,
-1, ,56, ,
4, ,57, ,
1, ,56, ,
3, ,56, ,
1, ,57, ,
5, ,57, ,
4, ,55, ,
3, ,57, ,
3, ,57, ,
5, ,56, ,
3, ,56, ,
8, ,57, ,
-1, ,56, ,
4, ,57, ,
4, ,56, ,
0, ,56, ,
1, ,57, ,
6, ,57, ,
5, ,55, ,
5, ,57, ,
3, ,57, ,
1, ,56, ,
5, ,56, ,
5, ,57, ,
0, ,55, ,
5, ,57, ,
6, ,56, ,
4, ,56, ,
0, ,57, ,
6, ,56, ,
1, ,55, ,
0, ,57, ,
-1, ,57, ,
3, ,56, ,
1, ,57, ,
5, ,57, ,
3, ,56, ,
4, ,57, ,
8, ,56, ,
6, ,56, ,
-1, ,57, ,
6, ,57, ,
1, ,55, ,
4, ,57, ,
3, ,56, ,
1, ,56, ,
6, ,56, ,
3, ,57, ,
-1, ,56, ,
3, ,57, ,
1, ,56, ,
3, ,56, ,
-2, ,57, ,
6, ,57, ,
5, ,55, ,
5, ,57, ,
4, ,56, ,
6, ,56, ,
6, ,56, ,
5, ,57, ,
0, ,56, ,
5, ,57, ,
5, ,56, ,
4, ,56, ,
1, ,57, ,
8, ,57, ,
6, ,55, ,
6, ,57, ,
5, ,57, ,
5, ,56, ,
5, ,57, ,
4, ,57, ,
-2, ,56, ,
5, ,57, ,
4, ,56, ,
4, ,56, ,
1, ,57, ,
11, ,57, ,
5, ,55, ,
-4, ,57, ,
0, ,57, ,
8, ,56, ,
0, ,56, ,
8, ,57, ,
5, ,55, ,
4, ,57, ,
6, ,56, ,
5, ,56, ,
4, ,57, ,
6, ,57, ,
3, ,55, ,
6, ,57, ,
5, ,57, ,
5, ,56, ,
5, ,56, ,
6, ,57, ,
-1, ,56, ,
5, ,57, ,
1, ,56, ,
3, ,56, ,
0, ,57, ,
5, ,57, ,
4, ,55, ,
5, ,57, ,
4, ,56, ,
4, ,56, ,
3, ,56, ,
4, ,57, ,
0, ,55, ,
3, ,57, ,
4, ,56, ,
3, ,56, ,
1, ,56, ,
10, ,57, ,
3, ,55, ,
1, ,57, ,
0, ,57, ,
-1, ,56, ,
1, ,57, ,
4, ,57, ,
-2, ,55, ,
1, ,57, ,
0, ,56, ,
1, ,57, ,
-1, ,57, ,
-2, ,57, ,
0, ,55, ,
-1, ,57, ,
-1, ,57, ,
0, ,56, ,
-1, ,56, ,
1, ,57, ,
-6, ,55, ,
-2, ,57, ,
-1, ,56, ,
-5, ,56, ,
-6, ,57, ,
3, ,56, ,
4, ,55, ,
4, ,57, ,
4, ,57, ,
4, ,56, ,
4, ,56, ,
3, ,57, ,
-5, ,56, ,
-1, ,57, ,
1, ,56, ,
0, ,56, ,
-4, ,57, ,
5, ,56, ,
0, ,55, ,
0, ,57, ,
-5, ,57, ,
-2, ,56, ,
0, ,56, ,
4, ,57, ,
-2, ,56, ,
-1, ,57, ,
5, ,56, ,
1, ,56, ,
-2, ,57, ,
3, ,57, ,
0, ,55, ,
8, ,57, ,
-6, ,57, ,
-2, ,56, ,
4, ,56, ,
0, ,57, ,
-1, ,56, ,
3, ,57, ,
0, ,56, ,
0, ,56, ,
-2, ,57, ,
3, ,57, ,
-1, ,55, ,
0, ,57, ,
1, ,57, ,
0, ,56, ,
1, ,56, ,
5, ,57, ,
-6, ,55, ,
1, ,57, ,
1, ,56, ,
-2, ,56, ,
-4, ,57, ,
3, ,56, ,
-2, ,55, ,
3, ,57, ,
-1, ,57, ,
-1, ,56, ,
1, ,56, ,
1, ,57, ,
-2, ,56, ,
0, ,57, ,
0, ,56, ,
0, ,56, ,
-4, ,57, ,
1, ,57, ,
-1, ,55, ,
-5, ,57, ,
-4, ,57, ,
0, ,56, ,
-4, ,57, ,
5, ,57, ,
-2, ,56, ,
3, ,57, ,
4, ,56, ,
-2, ,56, ,
-7, ,57, ,
0, ,56, ,
-6, ,55, ,
-2, ,57, ,
-4, ,57, ,
0, ,56, ,
1, ,57, ,
4, ,57, ,
-2, ,56, ,
-1, ,57, ,
-1, ,56, ,
-1, ,56, ,
-6, ,57, ,
3, ,57, ,
-2, ,55, ,
-1, ,57, ,
-2, ,56, ,
0, ,56, ,
-1, ,57, ,
0, ,57, ,
-6, ,56, ,
0, ,57, ,
3, ,56, ,
0, ,56, ,
-4, ,57, ,
3, ,56, ,
-4, ,55, ,
-5, ,57, ,
-6, ,57, ,
-5, ,56, ,
-4, ,57, ,
-4, ,57, ,
-5, ,55, ,
3, ,57, ,
3, ,57, ,
3, ,56, ,
0, ,57, ,
4, ,57, ,
1, ,55, ,
0, ,57, ,
-1, ,56, ,
3, ,56, ,
0, ,56, ,
5, ,56, ,
-1, ,56, ,
4, ,58, ,
5, ,56, ,
1, ,56, ,
-2, ,57, ,
3, ,57, ,
0, ,55, ,
1, ,57, ,
1, ,57, ,
-1, ,56, ,
1, ,56, ,
4, ,57, ,
0, ,56, ,
4, ,57, ,
4, ,56, ,
3, ,56, ,
-2, ,57, ,
3, ,56, ,
-1, ,55, ,
1, ,57, ,
1, ,57, ,
3, ,56, ,
3, ,56, ,
4, ,57, ,
-1, ,55, ,
1, ,57, ,
5, ,56, ,
3, ,57, ,
0, ,57, ,
6, ,57, ,
-1, ,55, ,
3, ,57, ,
0, ,56, ,
1, ,56, ,
1, ,57, ,
1, ,57, ,
-2, ,55, ,
3, ,57, ,
3, ,56, ,
4, ,56, ,
-1, ,57, ,
4, ,57, ,
1, ,55, ,
0, ,57, ,
-1, ,57, ,
4, ,56, ,
4, ,56, ,
9, ,57, ,
4, ,56, ,
5, ,58, ,
9, ,56, ,
1, ,56, ,
1, ,57, ,
4, ,57, ,
0, ,55, ,
3, ,57, ,
3, ,56, ,
3, ,56, ,
3, ,56, ,
4, ,57, ,
-4, ,55, ,
3, ,57, ,
3, ,56, ,
3, ,56, ,
0, ,57, ,
9, ,57, ,
8, ,55, ,
6, ,57, ,
5, ,57, ,
3, ,56, ,
3, ,57, ,
4, ,57, ,
1, ,56, ,
4, ,57, ,
8, ,56, ,
4, ,56, ,
4, ,57, ,
10, ,57, ,
3, ,55, ,
6, ,57, ,
3, ,56, ,
4, ,56, ,
4, ,57, ,
5, ,57, ,
3, ,56, ,
4, ,57, ,
4, ,56, ,
3, ,56, ,
-2, ,57, ,
6, ,57, ,
0, ,55, ,
1, ,57, ,
-1, ,56, ,
1, ,56, ,
4, ,57, ,
4, ,57, ,
0, ,56, ,
5, ,58, ,
4, ,56, ,
4, ,56, ,
-1, ,57, ,
6, ,57, ,
1, ,55, ,
5, ,57, ,
4, ,57, ,
4, ,56, ,
6, ,56, ,
4, ,57, ,
-5, ,55, ,
4, ,57, ,
3, ,56, ,
3, ,56, ,
3, ,57, ,
6, ,57, ,
0, ,55, ,
-2, ,57, ,
0, ,57, ,
3, ,56, ,
-1, ,56, ,
4, ,57, ,
-2, ,56, ,
-1, ,57, ,
3, ,56, ,
0, ,56, ,
-4, ,57, ,
4, ,56, ,
0, ,55, ,
4, ,57, ,
3, ,56, ,
3, ,56, ,
0, ,57, ,
0, ,57, ,
-4, ,56, ,
-1, ,57, ,
0, ,56, ,
-1, ,56, ,
-2, ,57, ,
1, ,57, ,
1, ,55, ,
1, ,57, ,
3, ,57, ,
6, ,56, ,
4, ,57, ,
6, ,57, ,
-1, ,56, ,
3, ,57, ,
5, ,56, ,
1, ,56, ,
-2, ,57, ,
6, ,57, ,
4, ,55, ,
4, ,57, ,
0, ,57, ,
1, ,57, ,
1, ,57, ,
3, ,57, ,
-4, ,55, ,
1, ,57, ,
1, ,56, ,
4, ,56, ,
3, ,57, ,
8, ,56, ,
4, ,55, ,
1, ,57, ,
3, ,57, ,
1, ,56, ,
-1, ,57, ,
4, ,57, ,
-4, ,56, ,
1, ,57, ,
3, ,56, ,
-2, ,56, ,
-4, ,57, ,
1, ,57, ,
-1, ,55, ,
3, ,57, ,
1, ,56, ,
3, ,55, ,
3, ,50, ,
0, ,40, ,
-11, ,31, ,
-7, ,21, ,
-7, ,13, ,
-6, ,6, ,
-6, ,1, ,
0, ,-4, ,
0, ,-9, ,
-4, ,-13, ,
-11, ,-16, ,
-7, ,-19, ,
-5, ,-22, ,
-2, ,-23, ,
-6, ,-25, ,
-5, ,-27, ,
1, ,-28, ,
-7, ,-30, ,
-6, ,-31, ,
1, ,-32, ,
-7, ,-32, ,
-2, ,-33, ,
-5, ,-34, ,
-1, ,-34, ,
0, ,-34, ,
-1, ,-35, ,
-4, ,-35, ,
0, ,-36, ,
-1, ,-36, ,
-2, ,-36, ,
-9, ,-36, ,
0, ,-36, ,
0, ,-36, ,
-1, ,-37, ,
3, ,-37, ,
1, ,-36, ,
3, ,-36, ,
4, ,-37, ,
-2, ,-36, ,
0, ,-37, ,
4, ,-37, ,
0, ,-36, ,
-4, ,-37, ,
4, ,-37, ,
0, ,-36, ,
-1, ,-37, ,
-1, ,-37, ,
0, ,-37, ,
1, ,-37, ,
1, ,-37, ,
-4, ,-37, ,
3, ,-37, ,
0, ,-37, ,
-1, ,-36, ,
-2, ,-37, ,
4, ,-37, ,
4, ,-36, ,
1, ,-37, ,
3, ,-37, ,
3, ,-36, ,
3, ,-37, ,
4, ,-36, ,
-1, ,-37, ,
4, ,-37, ,
3, ,-37, ,
0, ,-36, ,
0, ,-37, ,
3, ,-37, ,
3, ,-36, ,
0, ,-37, ,
-1, ,-37, ,
1, ,-36, ,
3, ,-36, ,
1, ,-36, ,
0, ,-36, ,
5, ,-37, ,
6, ,-36, ,
3, ,-36, ,
0, ,-36, ,
4, ,-36, ,
3, ,-36, ,
-1, ,-37, ,
-1, ,-37, ,
3, ,-36, ,
5, ,-36, ,
6, ,-36, ,
1, ,-36, ,
3, ,-37, ,
8, ,-36, ,
1, ,-36, ,
-2, ,-36, ,
5, ,-36, ,
0, ,-36, ,
3, ,-36, ,
1, ,-37, ,
1, ,-36, ,
5, ,-36, ,
0, ,-36, ,
-5, ,-36, ,
1, ,-36, ,
1, ,-36, ,
3, ,-36, ,
-2, ,-36, ,
1, ,-37, ,
1, ,-36, ,
-1, ,-36, ,
-2, ,-36, ,
-1, ,-36, ,
1, ,-36, ,
5, ,-36, ,
-1, ,-36, ,
3, ,-37, ,
8, ,-36, ,
1, ,-36, ,
-1, ,-36, ,
3, ,-37, ,
1, ,-36, ,
0, ,-36, ,
1, ,-37, ,
1, ,-36, ,
4, ,-36, ,
1, ,-36, ,
0, ,-36, ,
6, ,-37, ,
5, ,-36, ,
1, ,-36, ,
0, ,-36, ,
3, ,-36, ,
4, ,-36, ,
3, ,-36, ,
3, ,-36, ,
4, ,-36, ,
3, ,-36, ,
6, ,-36, ,
-2, ,-36, ,
1, ,-37, ,
4, ,-36, ,
-1, ,-36, ,
-1, ,-36, ,
6, ,-36, ,
4, ,-36, ,
5, ,-36, ,
3, ,-36, ,
5, ,-36, ,
5, ,-36, ,
3, ,-36, ,
-1, ,-36, ,
1, ,-37, ,
3, ,-36, ,
3, ,-36, ,
-1, ,-36, ,
4, ,-36, ,
3, ,-36, ,
1, ,-36, ,
0, ,-36, ,
0, ,-36, ,
0, ,-36, ,
1, ,-36, ,
1, ,-36, ,
3, ,-37, ,
5, ,-36, ,
1, ,-36, ,
-1, ,-36, ,
6, ,-36, ,
-1, ,-36, ,
-1, ,-36, ,
-2, ,-36, ,
-1, ,-36, ,
3, ,-36, ,
3, ,-36, ,
-4, ,-36, ,
4, ,-36, ,
4, ,-36, ,
4, ,-36, ,
-1, ,-36, ,
5, ,-37, ,
4, ,-36, ,
4, ,-36, ,
3, ,-36, ,
4, ,-36, ,
1, ,-36, ,
3, ,-36, ,
-5, ,-36, ,
0, ,-36, ,
3, ,-36, ,
0, ,-36, ,
-5, ,-36, ,
6, ,-36, ,
5, ,-36, ,
-1, ,-36, ,
0, ,-37, ,
3, ,-36, ,
-1, ,-36, ,
3, ,-36, ,
-1, ,-36, ,
3, ,-37, ,
8, ,-36, ,
3, ,-36, ,
0, ,-36, ,
5, ,-36, ,
1, ,-36, ,
1, ,-36, ,
-2, ,-36, ,
0, ,-36, ,
3, ,-36, ,
3, ,-36, ,
0, ,-36, ,
3, ,-36, ,
4, ,-36, ,
-2, ,-36, ,
-5, ,-36, ,
5, ,-37, ,
1, ,-36, ,
4, ,-37, ,
1, ,-36, ,
1, ,-36, ,
1, ,-36, ,
1, ,-36, ,
-5, ,-36, ,
0, ,-36, ,
3, ,-36, ,
4, ,-36, ,
-1, ,-36, ,
8, ,-36, ,
4, ,-36, ,
0, ,-36, ,
1, ,-36, ,
1, ,-36, ,
3, ,-36, ,
4, ,-36, ,
-4, ,-36, ,
0, ,-36, ,
3, ,-36, ,
-1, ,-35, ,
-2, ,-36, ,
1, ,-36, ,
-1, ,-36, ,
-1, ,-36, ,
-2, ,-36, ,
-2, ,-36, ,
0, ,-36, ,
-2, ,-36, ,
-7, ,-36, ,
-1, ,-36, ,
0, ,-36, ,
-2, ,-36, ,
-2, ,-36, ,
4, ,-36, ,
3, ,-36, ,
1, ,-36, ,
-2, ,-36, ,
0, ,-36, ,
-1, ,-36, ,
-1, ,-36, ,
-6, ,-36, ,
-4, ,-36, ,
0, ,-36, ,
-1, ,-36, ,
-6, ,-36, ,
1, ,-36, ,
-2, ,-36, ,
-1, ,-36, ,
-1, ,-36, ,
-2, ,-36, ,
1, ,-36, ,
-1, ,-36, ,
-7, ,-36, ,
0, ,-36, ,
0, ,-36, ,
-1, ,-36, ,
-6, ,-36, ,
3, ,-36, ,
1, ,-36, ,
0, ,-36, ,
0, ,-36, ,
-1, ,-36, ,
1, ,-36, ,
0, ,-36, ,
0, ,-35, ,
1, ,-36, ,
6, ,-36, ,
1, ,-36, ,
-1, ,-36, ,
5, ,-36, ,
1, ,-36, ,
0, ,-36, ,
-2, ,-36, ,
0, ,-36, ,
1, ,-36, ,
1, ,-36, ,
-2, ,-36, ,
1, ,-36, ,
3, ,-36, ,
1, ,-36, ,
-2, ,-36, ,
3, ,-36, ,
1, ,-36, ,
1, ,-36, ,
1, ,-36, ,
5, ,-36, ,
3, ,-36, ,
6, ,-36, ,
-1, ,-36, ,
0, ,-37, ,
3, ,-36, ,
-4, ,-36, ,
-5, ,-36, ,
5, ,-36, ,
0, ,-36, ,
0, ,-36, ,
0, ,-36, ,
0, ,-36, ,
0, ,-36, ,
-1, ,-36, ,
-6, ,-36, ,
0, ,-36, ,
3, ,-36, ,
-1, ,-36, ,
-4, ,-36, ,
1, ,-36, ,
0, ,-36, ,
-2, ,-36, ,
-1, ,-36, ,
3, ,-36, ,
1, ,-36, ,
3, ,-36, ,
-4, ,-36, ,
-1, ,-36, ,
5, ,-36, ,
0, ,-36, ,
-4, ,-36, ,
5, ,-36, ,
-1, ,-36, ,
1, ,-36, ,
0, ,-36, ,
0, ,-36, ,
3, ,-36, ,
3, ,-36, ,
-1, ,-36, ,
3, ,-36, ,
0, ,-36, ,
-1, ,-36, ,
-7, ,-36, ,
0, ,-36, ,
-1, ,-35, ,
-1, ,-36, ,
0, ,-36, ,
1, ,-36, ,
3, ,-36, ,
4, ,-36, ,
-2, ,-36, ,
3, ,-36, ,
6, ,-36, ,
1, ,-36, ,
-2, ,-36, ,
6, ,-36, ,
1, ,-36, ,
3, ,-36, ,
0, ,-36, ,
1, ,-36, ,
3, ,-36, ,
1, ,-36, ,
0, ,-36, ,
4, ,-36, ,
6, ,-36, ,
4, ,-36, ,
3, ,-36, ,
6, ,-36, ,
4, ,-36, ,
3, ,-36, ,
-1, ,-36, ,
3, ,-36, ,
3, ,-36, ,
6, ,-36, ,
1, ,-36, ,
4, ,-36, ,
6, ,-36, ,
0, ,-36, ,
-2, ,-36, ,
4, ,-36, ,
-1, ,-35, ,
5, ,-36, ,
3, ,-36, ,
6, ,-36, ,
8, ,-36, ,
6, ,-36, ,
5, ,-36, ,
3, ,-36, ,
4, ,-36, ,
1, ,-36, ,
-2, ,-36, ,
5, ,-36, ,
4, ,-36, ,
3, ,-36, ,
3, ,-36, ,
3, ,-36, ,
4, ,-36, ,
3, ,-36, ,
-4, ,-36, ,
1, ,-36, ,
5, ,-36, ,
1, ,-36, ,
-1, ,-36, ,
8, ,-36, ,
1, ,-36, ,
0, ,-36, ,
0, ,-36, ,
0, ,-36, ,
3, ,-36, ,
3, ,-36, ,
0, ,-36, ,
6, ,-37, ,
8, ,-36, ,
5, ,-36, ,
1, ,-36, ,
5, ,-36, ,
5, ,-36, ,
0, ,-36, ,
1, ,-36, ,
3, ,-36, ,
3, ,-36, ,
4, ,-36, ,
-5, ,-36, ,
1, ,-37, ,
4, ,-36, ,
-1, ,-36, ,
-2, ,-36, ,
6, ,-36, ,
4, ,-36, ,
3, ,-36, ,
-1, ,-36, ,
0, ,-36, ,
5, ,-36, ,
6, ,-36, ,
0, ,-36, ,
1, ,-36, ,
6, ,-36, ,
1, ,-36, ,
0, ,-36, ,
5, ,-36, ,
3, ,-36, ,
1, ,-36, ,
-4, ,-36, ,
-2, ,-36, ,
-4, ,-36, ,
-2, ,-36, ,
-5, ,-36, ,
4, ,-37, ,
9, ,-36, ,
6, ,-36, ,
1, ,-36, ,
9, ,-36, ,
9, ,-35, ,
9, ,-36, ,
8, ,-36, ,
4, ,-36, ,
6, ,-36, ,
6, ,-36, ,
0, ,-36, ,
8, ,-36, ,
9, ,-36, ,
6, ,-36, ,
-1, ,-36, ,
5, ,-36, ,
4, ,-36, ,
1, ,-36, ,
3, ,-36, ,
1, ,-36, ,
0, ,-36, ,
0, ,-36, ,
-11, ,-36, ,
-12, ,-37, ,
