src/vary_am2_1412/temp0001763.CSV

Format,1.0B,
Memory Length,10000,Memory Length,10000,
IntpDistance,0,IntpDistance,0,
Trigger Address,4999,Trigger Address,4999,
Trigger Level,9.600E-01,Trigger Level,9.600E-01,
Source,CH1,Source,CH2,
Vertical Units,V,Vertical Units,V,
Vertical Units Div,0,Vertical Units Div,0,
Vertical Units Extend Div,16,Vertical Units Extend Div,16,
Label,,Label,,
Probe Type,0,Probe Type,0,
Probe Ratio,1.000e+01,Probe Ratio,1.000e+00,
Vertical Scale,2.000e-02,Vertical Scale,1.000e+00,
Vertical Position,-5.120e-02,Vertical Position,0.000e+00,
Horizontal Units,S,Horizontal Units,S,
Horizontal Scale,1.000E-05,Horizontal Scale,1.000E-05,
Horizontal Position,0.000E+00,Horizontal Position,0.000E+00,
Horizontal Mode,Main,Horizontal Mode,Main,
SincET Mode,Real Time,SincET Mode,Real Time,
Sampling Period,1.000e-08,Sampling Period,1.000e-08,
Horizontal Old Scale,1.000E-05,Horizontal Old Scale,1.000E-05,
Horizontal Old Position,0.000E+00,Horizontal Old Position,0.000E+00,
Firmware,V1.23,Firmware,V1.23,
Mode,Fast,Mode,Fast,
Waveform Data,,Waveform Data,,
3, ,-39, ,
6, ,-39, ,
3, ,-40, ,
-1, ,-40, ,
5, ,-38, ,
3, ,-40, ,
3, ,-39, ,
-1, ,-40, ,
1, ,-39, ,
4, ,-40, ,
3, ,-39, ,
-1, ,-40, ,
0, ,-39, ,
4, ,-39, ,
5, ,-39, ,
-1, ,-40, ,
5, ,-39, ,
4, ,-40, ,
1, ,-39, ,
3, ,-39, ,
4, ,-39, ,
4, ,-40, ,
4, ,-39, ,
0, ,-40, ,
0, ,-40, ,
4, ,-39, ,
-1, ,-39, ,
-2, ,-40, ,
3, ,-38, ,
4, ,-40, ,
4, ,-39, ,
3, ,-39, ,
3, ,-39, ,
4, ,-40, ,
0, ,-39, ,
-2, ,-40, ,
0, ,-39, ,
5, ,-39, ,
4, ,-40, ,
1, ,-40, ,
6, ,-39, ,
5, ,-40, ,
1, ,-40, ,
0, ,-39, ,
3, ,-39, ,
4, ,-39, ,
3, ,-38, ,
-1, ,-40, ,
3, ,-39, ,
4, ,-39, ,
1, ,-39, ,
-4, ,-40, ,
1, ,-39, ,
0, ,-40, ,
0, ,-39, ,
3, ,-40, ,
3, ,-39, ,
6, ,-40, ,
8, ,-39, ,
0, ,-40, ,
4, ,-39, ,
3, ,-39, ,
3, ,-40, ,
-1, ,-40, ,
5, ,-39, ,
6, ,-40, ,
3, ,-39, ,
0, ,-39, ,
5, ,-39, ,
4, ,-39, ,
6, ,-39, ,
-1, ,-40, ,
6, ,-40, ,
11, ,-39, ,
6, ,-40, ,
3, ,-40, ,
6, ,-38, ,
5, ,-40, ,
5, ,-39, ,
1, ,-39, ,
8, ,-39, ,
4, ,-40, ,
1, ,-39, ,
0, ,-40, ,
4, ,-39, ,
5, ,-39, ,
4, ,-40, ,
0, ,-40, ,
6, ,-39, ,
5, ,-40, ,
3, ,-39, ,
4, ,-39, ,
5, ,-39, ,
5, ,-39, ,
5, ,-38, ,
3, ,-40, ,
4, ,-40, ,
6, ,-39, ,
3, ,-39, ,
1, ,-40, ,
3, ,-38, ,
1, ,-40, ,
3, ,-39, ,
0, ,-39, ,
4, ,-39, ,
5, ,-39, ,
3, ,-39, ,
0, ,-40, ,
3, ,-39, ,
1, ,-39, ,
-1, ,-39, ,
-5, ,-40, ,
0, ,-39, ,
1, ,-40, ,
0, ,-40, ,
3, ,-39, ,
5, ,-39, ,
4, ,-39, ,
5, ,-39, ,
-2, ,-40, ,
4, ,-40, ,
3, ,-39, ,
4, ,-40, ,
-1, ,-40, ,
1, ,-38, ,
1, ,-40, ,
-1, ,-39, ,
0, ,-40, ,
4, ,-39, ,
4, ,-40, ,
3, ,-39, ,
-1, ,-40, ,
3, ,-39, ,
5, ,-39, ,
3, ,-40, ,
-4, ,-40, ,
1, ,-39, ,
-2, ,-40, ,
-2, ,-39, ,
-6, ,-39, ,
1, ,-39, ,
4, ,-40, ,
6, ,-38, ,
4, ,-40, ,
9, ,-39, ,
9, ,-39, ,
1, ,-40, ,
-2, ,-40, ,
6, ,-38, ,
4, ,-40, ,
3, ,-39, ,
-1, ,-39, ,
3, ,-39, ,
4, ,-39, ,
0, ,-39, ,
-2, ,-40, ,
3, ,-39, ,
4, ,-39, ,
4, ,-40, ,
3, ,-39, ,
10, ,-39, ,
8, ,-40, ,
4, ,-39, ,
3, ,-39, ,
1, ,-39, ,
-1, ,-39, ,
4, ,-39, ,
-2, ,-40, ,
4, ,-40, ,
5, ,-39, ,
1, ,-40, ,
-4, ,-40, ,
1, ,-38, ,
-2, ,-40, ,
-4, ,-39, ,
-4, ,-39, ,
0, ,-39, ,
5, ,-39, ,
6, ,-39, ,
4, ,-40, ,
6, ,-39, ,
4, ,-39, ,
1, ,-40, ,
-2, ,-40, ,
-2, ,-39, ,
4, ,-40, ,
-2, ,-39, ,
-4, ,-40, ,
0, ,-39, ,
-2, ,-39, ,
3, ,-39, ,
-4, ,-40, ,
3, ,-40, ,
4, ,-39, ,
0, ,-39, ,
1, ,-40, ,
1, ,-38, ,
1, ,-40, ,
1, ,-39, ,
-1, ,-39, ,
-1, ,-39, ,
0, ,-40, ,
-2, ,-39, ,
-2, ,-40, ,
-1, ,-39, ,
0, ,-39, ,
-1, ,-40, ,
-5, ,-40, ,
4, ,-39, ,
1, ,-40, ,
0, ,-39, ,
-4, ,-39, ,
-1, ,-39, ,
-2, ,-39, ,
0, ,-38, ,
-4, ,-40, ,
1, ,-40, ,
8, ,-39, ,
4, ,-40, ,
1, ,-40, ,
5, ,-38, ,
3, ,-40, ,
0, ,-39, ,
0, ,-40, ,
1, ,-39, ,
4, ,-39, ,
4, ,-39, ,
-1, ,-40, ,
4, ,-39, ,
4, ,-39, ,
0, ,-40, ,
0, ,-40, ,
4, ,-39, ,
3, ,-40, ,
1, ,-39, ,
3, ,-39, ,
3, ,-39, ,
3, ,-39, ,
1, ,-39, ,
-4, ,-40, ,
0, ,-40, ,
5, ,-39, ,
1, ,-39, ,
3, ,-40, ,
3, ,-38, ,
4, ,-40, ,
1, ,-39, ,
0, ,-39, ,
-1, ,-39, ,
-1, ,-39, ,
-1, ,-39, ,
-4, ,-40, ,
0, ,-39, ,
4, ,-39, ,
1, ,-40, ,
1, ,-39, ,
3, ,-39, ,
1, ,-40, ,
-1, ,-39, ,
-2, ,-39, ,
1, ,-40, ,
0, ,-40, ,
1, ,-39, ,
0, ,-40, ,
1, ,-39, ,
4, ,-39, ,
-1, ,-39, ,
-2, ,-40, ,
4, ,-38, ,
0, ,-40, ,
3, ,-40, ,
-1, ,-39, ,
1, ,-39, ,
3, ,-39, ,
-1, ,-39, ,
-4, ,-40, ,
-1, ,-40, ,
0, ,-39, ,
3, ,-40, ,
1, ,-40, ,
8, ,-39, ,
8, ,-40, ,
5, ,-39, ,
3, ,-39, ,
1, ,-39, ,
4, ,-39, ,
4, ,-39, ,
-1, ,-40, ,
4, ,-39, ,
3, ,-39, ,
0, ,-39, ,
-2, ,-39, ,
4, ,-39, ,
3, ,-40, ,
4, ,-39, ,
1, ,-40, ,
4, ,-40, ,
5, ,-39, ,
5, ,-39, ,
0, ,-40, ,
4, ,-40, ,
5, ,-39, ,
3, ,-39, ,
1, ,-40, ,
6, ,-39, ,
5, ,-40, ,
1, ,-39, ,
-1, ,-39, ,
1, ,-39, ,
1, ,-39, ,
4, ,-38, ,
3, ,-40, ,
6, ,-39, ,
8, ,-39, ,
4, ,-39, ,
4, ,-40, ,
5, ,-39, ,
4, ,-40, ,
5, ,-39, ,
4, ,-39, ,
5, ,-40, ,
6, ,-40, ,
5, ,-39, ,
0, ,-40, ,
3, ,-40, ,
4, ,-39, ,
4, ,-40, ,
0, ,-40, ,
5, ,-39, ,
6, ,-40, ,
3, ,-39, ,
4, ,-39, ,
4, ,-39, ,
-1, ,-39, ,
3, ,-39, ,
1, ,-40, ,
5, ,-40, ,
8, ,-39, ,
6, ,-40, ,
3, ,-40, ,
8, ,-38, ,
8, ,-40, ,
4, ,-39, ,
4, ,-39, ,
4, ,-39, ,
5, ,-39, ,
4, ,-39, ,
-1, ,-40, ,
4, ,-40, ,
3, ,-39, ,
1, ,-39, ,
-2, ,-40, ,
3, ,-38, ,
5, ,-40, ,
4, ,-39, ,
5, ,-39, ,
8, ,-39, ,
5, ,-40, ,
9, ,-39, ,
0, ,-40, ,
4, ,-40, ,
3, ,-39, ,
1, ,-40, ,
-1, ,-40, ,
3, ,-39, ,
5, ,-40, ,
5, ,-39, ,
3, ,-39, ,
8, ,-39, ,
6, ,-39, ,
6, ,-39, ,
3, ,-40, ,
5, ,-39, ,
6, ,-39, ,
4, ,-39, ,
1, ,-40, ,
8, ,-39, ,
5, ,-39, ,
3, ,-39, ,
1, ,-39, ,
5, ,-39, ,
5, ,-39, ,
5, ,-39, ,
1, ,-40, ,
6, ,-40, ,
6, ,-39, ,
4, ,-40, ,
1, ,-40, ,
6, ,-39, ,
5, ,-40, ,
5, ,-39, ,
1, ,-39, ,
4, ,-39, ,
8, ,-39, ,
6, ,-39, ,
0, ,-40, ,
3, ,-39, ,
4, ,-39, ,
0, ,-39, ,
-2, ,-40, ,
5, ,-39, ,
5, ,-40, ,
4, ,-39, ,
3, ,-39, ,
4, ,-40, ,
5, ,-40, ,
6, ,-39, ,
-1, ,-40, ,
0, ,-40, ,
0, ,-39, ,
-5, ,-40, ,
-6, ,-40, ,
-1, ,-39, ,
1, ,-40, ,
1, ,-39, ,
1, ,-39, ,
3, ,-39, ,
5, ,-39, ,
3, ,-39, ,
-5, ,-40, ,
3, ,-39, ,
4, ,-39, ,
4, ,-39, ,
0, ,-40, ,
3, ,-38, ,
1, ,-40, ,
0, ,-39, ,
-2, ,-39, ,
1, ,-39, ,
0, ,-39, ,
5, ,-39, ,
0, ,-40, ,
5, ,-40, ,
8, ,-39, ,
3, ,-40, ,
-2, ,-40, ,
-4, ,-39, ,
1, ,-40, ,
1, ,-39, ,
-4, ,-40, ,
5, ,-40, ,
9, ,-39, ,
6, ,-39, ,
4, ,-40, ,
4, ,-39, ,
4, ,-39, ,
3, ,-40, ,
-5, ,-40, ,
1, ,-39, ,
1, ,-40, ,
-1, ,-39, ,
-4, ,-39, ,
-2, ,-39, ,
-6, ,-39, ,
-9, ,-38, ,
-14, ,-40, ,
-14, ,-40, ,
-9, ,-39, ,
-11, ,-40, ,
-7, ,-40, ,
-2, ,-39, ,
1, ,-40, ,
4, ,-40, ,
6, ,-39, ,
8, ,-39, ,
10, ,-39, ,
6, ,-39, ,
8, ,-40, ,
8, ,-39, ,
4, ,-39, ,
4, ,-39, ,
-4, ,-40, ,
0, ,-39, ,
3, ,-40, ,
-2, ,-39, ,
0, ,-39, ,
1, ,-40, ,
1, ,-40, ,
5, ,-39, ,
-2, ,-40, ,
3, ,-40, ,
3, ,-39, ,
-5, ,-40, ,
-6, ,-40, ,
-5, ,-39, ,
-4, ,-40, ,
-4, ,-40, ,
-5, ,-39, ,
-2, ,-40, ,
0, ,-39, ,
0, ,-39, ,
-6, ,-40, ,
0, ,-39, ,
1, ,-39, ,
0, ,-39, ,
-4, ,-39, ,
0, ,-38, ,
0, ,-40, ,
-4, ,-39, ,
-6, ,-39, ,
-2, ,-39, ,
-2, ,-40, ,
-1, ,-39, ,
-2, ,-40, ,
-1, ,-40, ,
3, ,-39, ,
0, ,-40, ,
-1, ,-40, ,
4, ,-39, ,
-2, ,-40, ,
-2, ,-39, ,
-4, ,-39, ,
-4, ,-40, ,
-4, ,-39, ,
-2, ,-39, ,
-10, ,-40, ,
-1, ,-40, ,
1, ,-39, ,
3, ,-39, ,
0, ,-40, ,
6, ,-39, ,
4, ,-40, ,
-6, ,-37, ,
0, ,-31, ,
6, ,-21, ,
5, ,-11, ,
11, ,-1, ,
1, ,6, ,
8, ,13, ,
9, ,18, ,
4, ,23, ,
3, ,27, ,
10, ,31, ,
10, ,35, ,
9, ,37, ,
8, ,39, ,
6, ,41, ,
6, ,43, ,
4, ,43, ,
-2, ,46, ,
5, ,47, ,
3, ,47, ,
6, ,49, ,
4, ,50, ,
9, ,49, ,
8, ,52, ,
6, ,52, ,
1, ,51, ,
4, ,52, ,
3, ,52, ,
5, ,51, ,
0, ,54, ,
5, ,53, ,
6, ,53, ,
3, ,53, ,
-1, ,53, ,
5, ,52, ,
0, ,54, ,
3, ,54, ,
1, ,53, ,
3, ,54, ,
3, ,54, ,
6, ,52, ,
4, ,55, ,
6, ,54, ,
5, ,54, ,
0, ,54, ,
-1, ,54, ,
5, ,52, ,
3, ,55, ,
3, ,54, ,
0, ,53, ,
-1, ,54, ,
-1, ,54, ,
0, ,52, ,
1, ,55, ,
4, ,54, ,
4, ,54, ,
6, ,54, ,
6, ,54, ,
10, ,52, ,
6, ,54, ,
4, ,54, ,
5, ,53, ,
4, ,54, ,
6, ,54, ,
6, ,53, ,
0, ,55, ,
1, ,54, ,
1, ,53, ,
3, ,54, ,
1, ,54, ,
5, ,52, ,
6, ,54, ,
5, ,54, ,
3, ,53, ,
4, ,54, ,
5, ,54, ,
4, ,52, ,
0, ,55, ,
6, ,53, ,
9, ,53, ,
5, ,54, ,
1, ,54, ,
8, ,52, ,
3, ,54, ,
4, ,53, ,
3, ,53, ,
4, ,54, ,
4, ,54, ,
6, ,52, ,
4, ,54, ,
4, ,53, ,
8, ,53, ,
4, ,54, ,
3, ,54, ,
9, ,52, ,
6, ,54, ,
3, ,53, ,
5, ,53, ,
6, ,54, ,
5, ,54, ,
6, ,52, ,
1, ,54, ,
4, ,53, ,
5, ,53, ,
1, ,54, ,
4, ,53, ,
8, ,52, ,
6, ,54, ,
6, ,54, ,
5, ,53, ,
6, ,53, ,
4, ,54, ,
3, ,52, ,
1, ,54, ,
4, ,53, ,
5, ,53, ,
9, ,54, ,
3, ,54, ,
8, ,52, ,
5, ,54, ,
4, ,54, ,
1, ,53, ,
4, ,54, ,
5, ,54, ,
8, ,52, ,
-1, ,54, ,
6, ,53, ,
6, ,53, ,
0, ,54, ,
0, ,54, ,
3, ,52, ,
-7, ,54, ,
3, ,54, ,
13, ,53, ,
8, ,54, ,
9, ,53, ,
9, ,52, ,
3, ,54, ,
4, ,53, ,
9, ,53, ,
11, ,54, ,
9, ,53, ,
14, ,51, ,
18, ,54, ,
11, ,53, ,
6, ,53, ,
8, ,54, ,
4, ,53, ,
5, ,52, ,
0, ,55, ,
1, ,53, ,
6, ,53, ,
5, ,54, ,
3, ,53, ,
8, ,52, ,
6, ,54, ,
8, ,53, ,
4, ,53, ,
11, ,54, ,
10, ,54, ,
9, ,52, ,
8, ,54, ,
11, ,53, ,
15, ,53, ,
9, ,54, ,
1, ,53, ,
4, ,52, ,
1, ,54, ,
3, ,54, ,
3, ,53, ,
5, ,53, ,
9, ,54, ,
9, ,52, ,
4, ,54, ,
4, ,53, ,
5, ,53, ,
5, ,54, ,
3, ,53, ,
10, ,52, ,
9, ,54, ,
8, ,53, ,
5, ,53, ,
4, ,53, ,
5, ,54, ,
1, ,52, ,
-5, ,54, ,
-4, ,52, ,
-1, ,53, ,
-2, ,54, ,
-6, ,53, ,
0, ,52, ,
3, ,54, ,
-1, ,53, ,
0, ,53, ,
1, ,54, ,
1, ,54, ,
4, ,52, ,
-1, ,54, ,
3, ,53, ,
5, ,53, ,
0, ,54, ,
-2, ,53, ,
-1, ,52, ,
-5, ,54, ,
-4, ,54, ,
-5, ,53, ,
-2, ,53, ,
-2, ,53, ,
-1, ,52, ,
-4, ,54, ,
1, ,52, ,
1, ,53, ,
-4, ,53, ,
-6, ,53, ,
-1, ,52, ,
-5, ,54, ,
-2, ,54, ,
-2, ,53, ,
0, ,53, ,
1, ,54, ,
3, ,52, ,
-4, ,54, ,
0, ,53, ,
-1, ,53, ,
-4, ,53, ,
-6, ,54, ,
0, ,52, ,
-1, ,54, ,
-1, ,54, ,
-5, ,53, ,
-5, ,53, ,
-4, ,54, ,
-2, ,52, ,
-7, ,54, ,
-2, ,53, ,
0, ,53, ,
0, ,54, ,
-4, ,53, ,
1, ,52, ,
-2, ,54, ,
-4, ,53, ,
-7, ,53, ,
-5, ,53, ,
-7, ,54, ,
-2, ,52, ,
-9, ,54, ,
-4, ,53, ,
-1, ,53, ,
-4, ,53, ,
-4, ,53, ,
-2, ,52, ,
-5, ,54, ,
-1, ,53, ,
-1, ,53, ,
-1, ,54, ,
-1, ,53, ,
0, ,52, ,
-6, ,54, ,
-4, ,53, ,
-4, ,53, ,
-6, ,54, ,
-6, ,53, ,
-2, ,52, ,
-2, ,54, ,
-5, ,53, ,
-5, ,53, ,
-4, ,53, ,
-1, ,54, ,
3, ,52, ,
-5, ,54, ,
-1, ,53, ,
1, ,53, ,
-2, ,53, ,
-4, ,54, ,
-2, ,51, ,
-6, ,54, ,
-5, ,54, ,
-5, ,53, ,
-5, ,53, ,
-1, ,53, ,
-1, ,52, ,
-4, ,54, ,
-1, ,53, ,
1, ,53, ,
1, ,53, ,
-4, ,54, ,
1, ,51, ,
-2, ,54, ,
-4, ,53, ,
-7, ,53, ,
-4, ,53, ,
-6, ,53, ,
-2, ,52, ,
-4, ,54, ,
1, ,53, ,
0, ,53, ,
1, ,54, ,
-4, ,53, ,
1, ,52, ,
1, ,54, ,
-1, ,54, ,
0, ,53, ,
1, ,53, ,
4, ,53, ,
0, ,52, ,
-2, ,54, ,
3, ,53, ,
4, ,53, ,
1, ,54, ,
-1, ,53, ,
4, ,51, ,
5, ,54, ,
0, ,53, ,
-2, ,53, ,
4, ,53, ,
1, ,53, ,
5, ,52, ,
0, ,54, ,
4, ,53, ,
9, ,53, ,
4, ,54, ,
3, ,53, ,
6, ,52, ,
3, ,54, ,
1, ,54, ,
-1, ,53, ,
3, ,53, ,
4, ,54, ,
5, ,52, ,
1, ,54, ,
6, ,53, ,
9, ,53, ,
5, ,54, ,
4, ,54, ,
8, ,51, ,
5, ,54, ,
4, ,53, ,
1, ,53, ,
5, ,53, ,
5, ,54, ,
8, ,52, ,
1, ,55, ,
6, ,53, ,
8, ,53, ,
1, ,54, ,
4, ,53, ,
5, ,52, ,
1, ,54, ,
5, ,54, ,
1, ,53, ,
3, ,53, ,
5, ,53, ,
3, ,52, ,
3, ,54, ,
5, ,53, ,
8, ,53, ,
9, ,53, ,
6, ,54, ,
11, ,51, ,
8, ,54, ,
5, ,53, ,
4, ,53, ,
3, ,54, ,
3, ,54, ,
6, ,52, ,
1, ,54, ,
6, ,53, ,
8, ,53, ,
9, ,53, ,
1, ,53, ,
5, ,51, ,
10, ,54, ,
8, ,53, ,
3, ,53, ,
6, ,53, ,
6, ,54, ,
8, ,52, ,
4, ,54, ,
8, ,53, ,
8, ,53, ,
8, ,54, ,
4, ,54, ,
8, ,52, ,
8, ,54, ,
10, ,54, ,
10, ,53, ,
13, ,53, ,
9, ,53, ,
11, ,52, ,
5, ,54, ,
6, ,53, ,
6, ,53, ,
3, ,54, ,
3, ,53, ,
9, ,52, ,
6, ,54, ,
9, ,53, ,
8, ,53, ,
9, ,54, ,
4, ,54, ,
8, ,52, ,
1, ,54, ,
5, ,53, ,
8, ,53, ,
8, ,53, ,
6, ,53, ,
11, ,51, ,
10, ,54, ,
8, ,54, ,
6, ,53, ,
6, ,53, ,
5, ,53, ,
8, ,52, ,
4, ,54, ,
5, ,53, ,
10, ,53, ,
10, ,53, ,
4, ,53, ,
9, ,51, ,
4, ,54, ,
5, ,54, ,
4, ,53, ,
8, ,53, ,
11, ,53, ,
9, ,52, ,
1, ,54, ,
5, ,53, ,
4, ,53, ,
3, ,53, ,
0, ,54, ,
4, ,52, ,
6, ,54, ,
6, ,54, ,
6, ,53, ,
8, ,54, ,
4, ,54, ,
4, ,52, ,
-5, ,54, ,
3, ,53, ,
1, ,53, ,
1, ,54, ,
3, ,53, ,
5, ,52, ,
6, ,54, ,
6, ,53, ,
4, ,53, ,
4, ,54, ,
4, ,54, ,
4, ,52, ,
-1, ,54, ,
1, ,53, ,
3, ,53, ,
1, ,54, ,
-1, ,53, ,
4, ,51, ,
0, ,54, ,
1, ,53, ,
0, ,53, ,
5, ,53, ,
6, ,54, ,
9, ,52, ,
3, ,54, ,
5, ,53, ,
4, ,52, ,
0, ,54, ,
-1, ,53, ,
3, ,51, ,
0, ,54, ,
1, ,53, ,
-1, ,53, ,
3, ,53, ,
3, ,54, ,
3, ,52, ,
-4, ,54, ,
0, ,52, ,
0, ,53, ,
3, ,53, ,
-1, ,53, ,
4, ,52, ,
3, ,54, ,
1, ,53, ,
3, ,53, ,
0, ,54, ,
-2, ,54, ,
0, ,53, ,
-6, ,54, ,
-2, ,53, ,
-1, ,53, ,
-1, ,54, ,
-5, ,54, ,
-1, ,51, ,
-1, ,54, ,
1, ,53, ,
3, ,53, ,
-4, ,54, ,
0, ,53, ,
-1, ,52, ,
-6, ,54, ,
-2, ,52, ,
-1, ,52, ,
-4, ,53, ,
-5, ,53, ,
-2, ,51, ,
-2, ,54, ,
-5, ,54, ,
-4, ,53, ,
-2, ,53, ,
-2, ,54, ,
-2, ,52, ,
-6, ,54, ,
-2, ,53, ,
0, ,53, ,
-4, ,54, ,
-7, ,54, ,
-4, ,52, ,
-5, ,54, ,
-1, ,53, ,
-4, ,53, ,
0, ,54, ,
0, ,54, ,
-1, ,51, ,
-2, ,54, ,
0, ,53, ,
-1, ,53, ,
0, ,53, ,
-2, ,53, ,
0, ,51, ,
0, ,54, ,
-1, ,53, ,
-4, ,53, ,
-4, ,54, ,
-4, ,54, ,
-4, ,52, ,
-5, ,54, ,
-4, ,53, ,
0, ,53, ,
0, ,54, ,
-5, ,53, ,
1, ,52, ,
-4, ,54, ,
-5, ,54, ,
-4, ,53, ,
-1, ,54, ,
1, ,54, ,
3, ,52, ,
0, ,54, ,
3, ,53, ,
1, ,53, ,
0, ,54, ,
-2, ,54, ,
1, ,52, ,
0, ,54, ,
-1, ,53, ,
-1, ,53, ,
0, ,54, ,
1, ,54, ,
1, ,52, ,
-4, ,54, ,
1, ,53, ,
0, ,53, ,
-5, ,54, ,
-6, ,53, ,
3, ,51, ,
0, ,54, ,
0, ,53, ,
1, ,53, ,
3, ,53, ,
0, ,53, ,
1, ,52, ,
-4, ,54, ,
0, ,52, ,
1, ,53, ,
1, ,54, ,
-5, ,53, ,
1, ,51, ,
0, ,54, ,
-1, ,53, ,
-1, ,53, ,
1, ,53, ,
0, ,54, ,
4, ,52, ,
0, ,55, ,
4, ,53, ,
6, ,53, ,
1, ,54, ,
-4, ,53, ,
1, ,52, ,
-1, ,54, ,
-1, ,54, ,
-6, ,53, ,
-2, ,53, ,
0, ,53, ,
-1, ,52, ,
-4, ,54, ,
3, ,53, ,
5, ,53, ,
5, ,53, ,
0, ,54, ,
6, ,51, ,
3, ,54, ,
3, ,53, ,
3, ,53, ,
1, ,53, ,
1, ,54, ,
5, ,52, ,
-1, ,54, ,
5, ,53, ,
6, ,53, ,
3, ,53, ,
1, ,54, ,
6, ,52, ,
5, ,54, ,
5, ,53, ,
3, ,53, ,
1, ,54, ,
4, ,54, ,
4, ,51, ,
0, ,54, ,
5, ,53, ,
6, ,53, ,
8, ,54, ,
8, ,53, ,
8, ,52, ,
8, ,54, ,
4, ,54, ,
1, ,53, ,
3, ,54, ,
5, ,54, ,
8, ,52, ,
5, ,54, ,
8, ,53, ,
10, ,53, ,
5, ,54, ,
4, ,53, ,
6, ,52, ,
4, ,54, ,
6, ,53, ,
4, ,53, ,
8, ,53, ,
9, ,54, ,
5, ,52, ,
4, ,54, ,
6, ,53, ,
5, ,53, ,
4, ,54, ,
1, ,54, ,
6, ,52, ,
6, ,54, ,
5, ,54, ,
3, ,53, ,
3, ,53, ,
4, ,54, ,
4, ,52, ,
1, ,54, ,
3, ,53, ,
3, ,53, ,
8, ,54, ,
8, ,53, ,
9, ,52, ,
6, ,54, ,
4, ,54, ,
3, ,53, ,
1, ,54, ,
4, ,54, ,
4, ,52, ,
1, ,54, ,
5, ,52, ,
3, ,53, ,
4, ,53, ,
0, ,54, ,
6, ,51, ,
8, ,54, ,
9, ,53, ,
6, ,53, ,
10, ,53, ,
6, ,54, ,
8, ,52, ,
3, ,54, ,
6, ,53, ,
6, ,53, ,
1, ,54, ,
0, ,53, ,
4, ,52, ,
4, ,54, ,
9, ,53, ,
8, ,53, ,
9, ,53, ,
9, ,54, ,
6, ,52, ,
5, ,54, ,
8, ,53, ,
8, ,53, ,
3, ,53, ,
1, ,53, ,
5, ,52, ,
5, ,54, ,
8, ,54, ,
4, ,53, ,
6, ,53, ,
5, ,54, ,
6, ,52, ,
0, ,54, ,
4, ,53, ,
8, ,52, ,
5, ,54, ,
4, ,54, ,
6, ,51, ,
5, ,54, ,
4, ,53, ,
0, ,53, ,
0, ,53, ,
3, ,54, ,
3, ,52, ,
3, ,54, ,
8, ,53, ,
6, ,53, ,
5, ,54, ,
1, ,53, ,
6, ,51, ,
3, ,54, ,
5, ,54, ,
4, ,53, ,
5, ,53, ,
6, ,54, ,
5, ,52, ,
-5, ,54, ,
1, ,53, ,
1, ,52, ,
-1, ,54, ,
-5, ,54, ,
3, ,51, ,
-1, ,54, ,
3, ,54, ,
4, ,53, ,
3, ,54, ,
1, ,54, ,
1, ,52, ,
-4, ,54, ,
1, ,53, ,
3, ,53, ,
3, ,54, ,
4, ,54, ,
5, ,52, ,
3, ,54, ,
3, ,53, ,
3, ,50, ,
-1, ,42, ,
-6, ,33, ,
-5, ,22, ,
-12, ,14, ,
-5, ,6, ,
-4, ,0, ,
-4, ,-5, ,
-9, ,-11, ,
-6, ,-15, ,
-9, ,-18, ,
-4, ,-21, ,
-4, ,-23, ,
1, ,-26, ,
3, ,-28, ,
0, ,-30, ,
-5, ,-32, ,
-1, ,-33, ,
-2, ,-34, ,
-5, ,-35, ,
-4, ,-35, ,
1, ,-36, ,
-1, ,-37, ,
1, ,-37, ,
0, ,-37, ,
-1, ,-38, ,
0, ,-39, ,
3, ,-38, ,
-5, ,-40, ,
0, ,-39, ,
1, ,-39, ,
1, ,-40, ,
-1, ,-39, ,
3, ,-39, ,
3, ,-40, ,
1, ,-39, ,
-1, ,-40, ,
-2, ,-40, ,
1, ,-40, ,
-1, ,-39, ,
-4, ,-41, ,
0, ,-40, ,
-1, ,-40, ,
-1, ,-40, ,
0, ,-40, ,
3, ,-39, ,
4, ,-40, ,
-1, ,-40, ,
-2, ,-40, ,
-2, ,-40, ,
-1, ,-40, ,
0, ,-39, ,
-9, ,-41, ,
-4, ,-40, ,
-1, ,-40, ,
-4, ,-40, ,
-5, ,-40, ,
-1, ,-39, ,
0, ,-41, ,
-1, ,-40, ,
-4, ,-40, ,
1, ,-40, ,
0, ,-40, ,
0, ,-39, ,
-6, ,-41, ,
-1, ,-40, ,
-1, ,-39, ,
-2, ,-40, ,
-6, ,-40, ,
-2, ,-39, ,
-5, ,-40, ,
-1, ,-40, ,
0, ,-40, ,
3, ,-40, ,
3, ,-40, ,
4, ,-39, ,
-1, ,-41, ,
0, ,-40, ,
9, ,-39, ,
1, ,-40, ,
-9, ,-40, ,
5, ,-39, ,
-1, ,-40, ,
1, ,-40, ,
-4, ,-39, ,
-1, ,-40, ,
1, ,-39, ,
0, ,-39, ,
-2, ,-40, ,
1, ,-40, ,
4, ,-39, ,
3, ,-40, ,
-4, ,-40, ,
0, ,-39, ,
1, ,-40, ,
-4, ,-40, ,
-2, ,-39, ,
3, ,-39, ,
5, ,-40, ,
5, ,-39, ,
1, ,-40, ,
4, ,-40, ,
5, ,-39, ,
0, ,-40, ,
-4, ,-40, ,
1, ,-38, ,
1, ,-40, ,
0, ,-39, ,
1, ,-40, ,
1, ,-39, ,
3, ,-39, ,
4, ,-39, ,
-5, ,-40, ,
1, ,-40, ,
3, ,-40, ,
1, ,-39, ,
-1, ,-40, ,
4, ,-39, ,
4, ,-40, ,
3, ,-39, ,
-1, ,-39, ,
3, ,-40, ,
1, ,-39, ,
4, ,-38, ,
-4, ,-40, ,
4, ,-40, ,
6, ,-39, ,
-1, ,-40, ,
-1, ,-39, ,
3, ,-38, ,
0, ,-40, ,
1, ,-39, ,
-1, ,-40, ,
1, ,-39, ,
5, ,-39, ,
6, ,-39, ,
3, ,-40, ,
8, ,-39, ,
8, ,-39, ,
4, ,-39, ,
0, ,-40, ,
0, ,-39, ,
0, ,-40, ,
-1, ,-40, ,
-7, ,-39, ,
0, ,-40, ,
1, ,-40, ,
3, ,-39, ,
3, ,-40, ,
6, ,-40, ,
5, ,-39, ,
4, ,-40, ,
-5, ,-40, ,
0, ,-39, ,
3, ,-40, ,
8, ,-39, ,
3, ,-39, ,
1, ,-39, ,
4, ,-40, ,
4, ,-39, ,
-5, ,-40, ,
1, ,-40, ,
1, ,-39, ,
4, ,-39, ,
1, ,-40, ,
5, ,-39, ,
8, ,-40, ,
1, ,-40, ,
3, ,-39, ,
3, ,-39, ,
1, ,-40, ,
4, ,-38, ,
1, ,-40, ,
5, ,-40, ,
8, ,-39, ,
4, ,-40, ,
3, ,-40, ,
6, ,-39, ,
6, ,-40, ,
5, ,-39, ,
6, ,-39, ,
5, ,-40, ,
8, ,-40, ,
10, ,-39, ,
5, ,-40, ,
8, ,-40, ,
8, ,-39, ,
4, ,-40, ,
-1, ,-40, ,
4, ,-39, ,
4, ,-40, ,
6, ,-39, ,
3, ,-39, ,
6, ,-39, ,
5, ,-40, ,
5, ,-38, ,
-1, ,-40, ,
1, ,-40, ,
4, ,-39, ,
4, ,-39, ,
0, ,-40, ,
9, ,-38, ,
6, ,-40, ,
5, ,-39, ,
1, ,-39, ,
3, ,-39, ,
6, ,-39, ,
4, ,-38, ,
-1, ,-40, ,
4, ,-39, ,
5, ,-39, ,
5, ,-39, ,
0, ,-40, ,
5, ,-39, ,
5, ,-40, ,
0, ,-39, ,
0, ,-39, ,
1, ,-39, ,
0, ,-39, ,
3, ,-38, ,
1, ,-40, ,
4, ,-40, ,
6, ,-39, ,
4, ,-40, ,
-1, ,-39, ,
1, ,-38, ,
3, ,-40, ,
1, ,-39, ,
0, ,-39, ,
4, ,-39, ,
3, ,-39, ,
4, ,-39, ,
-2, ,-40, ,
3, ,-40, ,
3, ,-39, ,
5, ,-40, ,
4, ,-40, ,
10, ,-39, ,
10, ,-40, ,
-6, ,-39, ,
0, ,-39, ,
11, ,-39, ,
1, ,-39, ,
6, ,-39, ,
-2, ,-40, ,
1, ,-40, ,
0, ,-39, ,
-1, ,-40, ,
-1, ,-39, ,
0, ,-39, ,
3, ,-40, ,
4, ,-39, ,
1, ,-40, ,
3, ,-39, ,
6, ,-40, ,
3, ,-39, ,
1, ,-40, ,
6, ,-39, ,
4, ,-39, ,
4, ,-40, ,
1, ,-39, ,
5, ,-39, ,
3, ,-40, ,
-1, ,-39, ,
1, ,-39, ,
-1, ,-39, ,
3, ,-40, ,
-1, ,-39, ,
-1, ,-40, ,
3, ,-40, ,
3, ,-38, ,
4, ,-40, ,
0, ,-40, ,
8, ,-39, ,
1, ,-40, ,
4, ,-39, ,
1, ,-39, ,
1, ,-39, ,
4, ,-39, ,
-1, ,-39, ,
-4, ,-40, ,
0, ,-39, ,
0, ,-39, ,
0, ,-40, ,
0, ,-40, ,
4, ,-39, ,
8, ,-40, ,
3, ,-39, ,
0, ,-39, ,
1, ,-39, ,
0, ,-39, ,
0, ,-39, ,
-9, ,-40, ,
-1, ,-40, ,
4, ,-39, ,
-1, ,-40, ,
-1, ,-40, ,
4, ,-38, ,
4, ,-40, ,
0, ,-39, ,
-4, ,-39, ,
-1, ,-39, ,
1, ,-39, ,
-2, ,-39, ,
-5, ,-40, ,
0, ,-39, ,
1, ,-39, ,
-1, ,-39, ,
-5, ,-40, ,
1, ,-39, ,
1, ,-40, ,
-2, ,-39, ,
0, ,-39, ,
1, ,-39, ,
1, ,-40, ,
1, ,-39, ,
-2, ,-40, ,
1, ,-40, ,
5, ,-39, ,
-1, ,-39, ,
-5, ,-40, ,
3, ,-39, ,
1, ,-40, ,
1, ,-39, ,
-1, ,-39, ,
1, ,-39, ,
4, ,-39, ,
4, ,-39, ,
0, ,-40, ,
3, ,-40, ,
1, ,-39, ,
0, ,-40, ,
-1, ,-40, ,
4, ,-39, ,
1, ,-40, ,
1, ,-39, ,
1, ,-39, ,
1, ,-39, ,
0, ,-40, ,
3, ,-39, ,
-1, ,-40, ,
3, ,-40, ,
4, ,-39, ,
5, ,-40, ,
3, ,-40, ,
5, ,-38, ,
3, ,-40, ,
3, ,-39, ,
0, ,-39, ,
5, ,-39, ,
3, ,-39, ,
4, ,-38, ,
-2, ,-40, ,
1, ,-39, ,
0, ,-39, ,
-1, ,-40, ,
-5, ,-40, ,
-1, ,-39, ,
3, ,-40, ,
3, ,-39, ,
-1, ,-39, ,
4, ,-39, ,
3, ,-40, ,
6, ,-38, ,
-1, ,-40, ,
-1, ,-40, ,
0, ,-39, ,
-6, ,-40, ,
-6, ,-40, ,
-1, ,-39, ,
-2, ,-40, ,
1, ,-39, ,
-1, ,-39, ,
4, ,-39, ,
4, ,-39, ,
1, ,-39, ,
3, ,-40, ,
3, ,-40, ,
1, ,-39, ,
4, ,-39, ,
0, ,-40, ,
4, ,-39, ,
4, ,-40, ,
0, ,-39, ,
-2, ,-39, ,
-2, ,-39, ,
0, ,-39, ,
1, ,-39, ,
-1, ,-40, ,
4, ,-40, ,
10, ,-39, ,
3, ,-39, ,
0, ,-40, ,
3, ,-38, ,
-1, ,-39, ,
0, ,-39, ,
0, ,-39, ,
4, ,-39, ,
11, ,-40, ,
8, ,-39, ,
4, ,-40, ,
6, ,-39, ,
4, ,-39, ,
1, ,-39, ,
-6, ,-40, ,
3, ,-39, ,
5, ,-40, ,
4, ,-39, ,
3, ,-39, ,
5, ,-39, ,
3, ,-39, ,
4, ,-39, ,
-1, ,-40, ,
5, ,-40, ,
5, ,-39, ,
4, ,-40, ,
1, ,-40, ,
9, ,-39, ,
8, ,-39, ,
4, ,-39, ,
1, ,-39, ,
3, ,-39, ,
5, ,-39, ,
8, ,-39, ,
1, ,-40, ,
6, ,-39, ,
5, ,-39, ,
4, ,-39, ,
0, ,-40, ,
4, ,-39, ,
3, ,-40, ,
5, ,-39, ,
1, ,-39, ,
6, ,-39, ,
4, ,-39, ,
5, ,-38, ,
4, ,-40, ,
4, ,-39, ,
4, ,-39, ,
3, ,-39, ,
-2, ,-40, ,
3, ,-38, ,
3, ,-40, ,
4, ,-39, ,
4, ,-39, ,
6, ,-39, ,
11, ,-40, ,
5, ,-38, ,
4, ,-40, ,
3, ,-40, ,
3, ,-39, ,
1, ,-39, ,
-5, ,-40, ,
0, ,-38, ,
3, ,-40, ,
1, ,-39, ,
-1, ,-40, ,
-1, ,-39, ,
5, ,-39, ,
5, ,-39, ,
0, ,-40, ,
4, ,-40, ,
4, ,-39, ,
3, ,-40, ,
0, ,-39, ,
4, ,-39, ,
4, ,-40, ,
5, ,-39, ,
1, ,-39, ,
4, ,-39, ,
3, ,-39, ,
0, ,-39, ,
-5, ,-40, ,
0, ,-40, ,
1, ,-39, ,
1, ,-39, ,
1, ,-40, ,
3, ,-39, ,
5, ,-40, ,
1, ,-39, ,
1, ,-39, ,
9, ,-39, ,
5, ,-40, ,
