src/vary_am2_1412/temp0000206.CSV

Format,1.0B,
Memory Length,10000,Memory Length,10000,
IntpDistance,0,IntpDistance,0,
Trigger Address,4999,Trigger Address,4999,
Trigger Level,9.600E-01,Trigger Level,9.600E-01,
Source,CH1,Source,CH2,
Vertical Units,V,Vertical Units,V,
Vertical Units Div,0,Vertical Units Div,0,
Vertical Units Extend Div,16,Vertical Units Extend Div,16,
Label,,Label,,
Probe Type,0,Probe Type,0,
Probe Ratio,1.000e+01,Probe Ratio,1.000e+00,
Vertical Scale,2.000e-02,Vertical Scale,1.000e+00,
Vertical Position,-5.120e-02,Vertical Position,0.000e+00,
Horizontal Units,S,Horizontal Units,S,
Horizontal Scale,1.000E-05,Horizontal Scale,1.000E-05,
Horizontal Position,0.000E+00,Horizontal Position,0.000E+00,
Horizontal Mode,Main,Horizontal Mode,Main,
SincET Mode,Real Time,SincET Mode,Real Time,
Sampling Period,1.000e-08,Sampling Period,1.000e-08,
Horizontal Old Scale,1.000E-05,Horizontal Old Scale,1.000E-05,
Horizontal Old Position,0.000E+00,Horizontal Old Position,0.000E+00,
Firmware,V1.23,Firmware,V1.23,
Mode,Fast,Mode,Fast,
Waveform Data,,Waveform Data,,
-2, ,-47, ,
-7, ,-47, ,
-4, ,-47, ,
-9, ,-47, ,
-1, ,-49, ,
0, ,-47, ,
-2, ,-47, ,
-2, ,-47, ,
1, ,-47, ,
-1, ,-46, ,
-1, ,-47, ,
-5, ,-47, ,
-4, ,-47, ,
-5, ,-47, ,
-4, ,-47, ,
-6, ,-47, ,
-2, ,-49, ,
-1, ,-47, ,
-2, ,-47, ,
-6, ,-47, ,
1, ,-49, ,
-1, ,-46, ,
-2, ,-47, ,
-6, ,-47, ,
-1, ,-47, ,
-1, ,-47, ,
-1, ,-47, ,
-2, ,-47, ,
0, ,-49, ,
0, ,-47, ,
-1, ,-47, ,
-1, ,-47, ,
3, ,-47, ,
-1, ,-47, ,
0, ,-47, ,
-4, ,-47, ,
-1, ,-47, ,
1, ,-47, ,
0, ,-47, ,
-1, ,-47, ,
3, ,-47, ,
3, ,-47, ,
1, ,-46, ,
1, ,-47, ,
5, ,-47, ,
6, ,-46, ,
1, ,-47, ,
0, ,-47, ,
-1, ,-47, ,
-1, ,-47, ,
1, ,-47, ,
-6, ,-47, ,
0, ,-47, ,
0, ,-47, ,
-1, ,-47, ,
-4, ,-47, ,
3, ,-47, ,
5, ,-46, ,
1, ,-47, ,
1, ,-47, ,
1, ,-47, ,
1, ,-47, ,
0, ,-47, ,
-5, ,-47, ,
-1, ,-49, ,
3, ,-47, ,
0, ,-47, ,
-1, ,-47, ,
5, ,-47, ,
5, ,-46, ,
0, ,-47, ,
-1, ,-47, ,
3, ,-47, ,
4, ,-47, ,
3, ,-47, ,
-5, ,-47, ,
0, ,-49, ,
3, ,-47, ,
-1, ,-47, ,
-6, ,-47, ,
1, ,-47, ,
1, ,-46, ,
0, ,-49, ,
0, ,-47, ,
3, ,-47, ,
6, ,-47, ,
4, ,-47, ,
3, ,-46, ,
6, ,-49, ,
6, ,-47, ,
5, ,-46, ,
0, ,-47, ,
9, ,-47, ,
8, ,-46, ,
5, ,-47, ,
4, ,-47, ,
3, ,-47, ,
1, ,-47, ,
0, ,-47, ,
-2, ,-47, ,
3, ,-49, ,
6, ,-47, ,
5, ,-47, ,
3, ,-47, ,
5, ,-47, ,
3, ,-46, ,
1, ,-47, ,
-1, ,-47, ,
3, ,-47, ,
5, ,-47, ,
4, ,-47, ,
1, ,-47, ,
4, ,-47, ,
3, ,-47, ,
1, ,-46, ,
-2, ,-47, ,
3, ,-47, ,
3, ,-46, ,
0, ,-47, ,
3, ,-47, ,
4, ,-47, ,
3, ,-47, ,
6, ,-47, ,
3, ,-47, ,
5, ,-47, ,
6, ,-47, ,
3, ,-46, ,
3, ,-47, ,
9, ,-47, ,
5, ,-46, ,
8, ,-47, ,
5, ,-47, ,
9, ,-47, ,
8, ,-47, ,
6, ,-47, ,
4, ,-47, ,
5, ,-49, ,
5, ,-47, ,
5, ,-47, ,
3, ,-47, ,
4, ,-47, ,
9, ,-46, ,
5, ,-47, ,
3, ,-47, ,
4, ,-47, ,
3, ,-47, ,
4, ,-47, ,
0, ,-47, ,
4, ,-49, ,
8, ,-47, ,
4, ,-46, ,
4, ,-47, ,
4, ,-47, ,
0, ,-46, ,
-4, ,-47, ,
-6, ,-47, ,
-4, ,-47, ,
3, ,-47, ,
4, ,-47, ,
-4, ,-47, ,
0, ,-49, ,
6, ,-47, ,
3, ,-47, ,
-2, ,-47, ,
3, ,-47, ,
4, ,-46, ,
0, ,-47, ,
1, ,-47, ,
5, ,-47, ,
6, ,-47, ,
8, ,-47, ,
0, ,-47, ,
6, ,-47, ,
6, ,-47, ,
0, ,-47, ,
-2, ,-47, ,
1, ,-49, ,
-2, ,-46, ,
-4, ,-47, ,
-2, ,-47, ,
0, ,-47, ,
-1, ,-47, ,
1, ,-47, ,
-2, ,-46, ,
1, ,-49, ,
5, ,-47, ,
5, ,-46, ,
4, ,-47, ,
9, ,-47, ,
11, ,-46, ,
4, ,-47, ,
4, ,-47, ,
6, ,-47, ,
5, ,-47, ,
8, ,-47, ,
1, ,-47, ,
4, ,-47, ,
9, ,-47, ,
0, ,-46, ,
-2, ,-47, ,
0, ,-47, ,
-4, ,-46, ,
-1, ,-47, ,
-4, ,-47, ,
3, ,-47, ,
4, ,-47, ,
4, ,-47, ,
1, ,-46, ,
0, ,-49, ,
3, ,-47, ,
-5, ,-46, ,
-10, ,-47, ,
-4, ,-47, ,
-5, ,-46, ,
-6, ,-47, ,
-7, ,-47, ,
-7, ,-47, ,
-6, ,-47, ,
-6, ,-47, ,
-7, ,-47, ,
-6, ,-49, ,
-4, ,-47, ,
-5, ,-47, ,
-6, ,-47, ,
-1, ,-47, ,
-2, ,-47, ,
-1, ,-47, ,
-2, ,-47, ,
-2, ,-47, ,
0, ,-47, ,
-2, ,-47, ,
-4, ,-46, ,
1, ,-49, ,
3, ,-47, ,
1, ,-46, ,
0, ,-47, ,
0, ,-47, ,
0, ,-47, ,
-1, ,-47, ,
-2, ,-47, ,
0, ,-47, ,
1, ,-47, ,
4, ,-47, ,
1, ,-47, ,
5, ,-47, ,
5, ,-47, ,
0, ,-46, ,
-1, ,-47, ,
-1, ,-47, ,
-1, ,-46, ,
-1, ,-47, ,
-2, ,-47, ,
0, ,-47, ,
4, ,-47, ,
5, ,-47, ,
0, ,-47, ,
3, ,-49, ,
1, ,-47, ,
0, ,-47, ,
-2, ,-47, ,
4, ,-47, ,
0, ,-46, ,
3, ,-47, ,
0, ,-47, ,
1, ,-47, ,
1, ,-47, ,
0, ,-47, ,
-2, ,-46, ,
3, ,-49, ,
5, ,-47, ,
0, ,-46, ,
-1, ,-47, ,
3, ,-47, ,
-2, ,-46, ,
-4, ,-47, ,
-5, ,-47, ,
-4, ,-47, ,
-1, ,-47, ,
-1, ,-47, ,
-5, ,-46, ,
-1, ,-49, ,
0, ,-47, ,
-1, ,-46, ,
-4, ,-47, ,
0, ,-47, ,
-2, ,-46, ,
-5, ,-47, ,
-5, ,-47, ,
-4, ,-47, ,
-4, ,-47, ,
-1, ,-47, ,
-7, ,-46, ,
-1, ,-49, ,
0, ,-47, ,
-2, ,-46, ,
-5, ,-47, ,
0, ,-47, ,
-2, ,-46, ,
-1, ,-47, ,
-2, ,-47, ,
-1, ,-47, ,
0, ,-47, ,
-1, ,-47, ,
-6, ,-47, ,
-1, ,-49, ,
1, ,-47, ,
1, ,-47, ,
0, ,-47, ,
4, ,-47, ,
5, ,-46, ,
1, ,-47, ,
3, ,-47, ,
3, ,-47, ,
-1, ,-47, ,
0, ,-47, ,
-5, ,-47, ,
-2, ,-47, ,
0, ,-47, ,
-2, ,-46, ,
-7, ,-47, ,
0, ,-49, ,
-2, ,-46, ,
-1, ,-47, ,
-4, ,-47, ,
-4, ,-47, ,
0, ,-47, ,
-4, ,-47, ,
-4, ,-46, ,
0, ,-49, ,
3, ,-47, ,
1, ,-46, ,
0, ,-47, ,
4, ,-47, ,
3, ,-46, ,
1, ,-47, ,
0, ,-47, ,
3, ,-47, ,
6, ,-47, ,
6, ,-47, ,
1, ,-47, ,
5, ,-47, ,
8, ,-47, ,
6, ,-47, ,
3, ,-47, ,
8, ,-47, ,
8, ,-47, ,
8, ,-47, ,
9, ,-47, ,
6, ,-47, ,
6, ,-47, ,
5, ,-47, ,
-2, ,-46, ,
1, ,-49, ,
0, ,-47, ,
1, ,-46, ,
0, ,-47, ,
4, ,-47, ,
4, ,-46, ,
0, ,-47, ,
0, ,-47, ,
-1, ,-47, ,
-1, ,-47, ,
-2, ,-47, ,
-4, ,-46, ,
-1, ,-47, ,
4, ,-47, ,
0, ,-47, ,
-1, ,-47, ,
3, ,-47, ,
1, ,-46, ,
0, ,-47, ,
-1, ,-47, ,
4, ,-47, ,
6, ,-47, ,
5, ,-47, ,
0, ,-47, ,
4, ,-49, ,
4, ,-47, ,
0, ,-46, ,
-4, ,-47, ,
1, ,-47, ,
1, ,-46, ,
3, ,-47, ,
3, ,-47, ,
4, ,-47, ,
3, ,-47, ,
4, ,-47, ,
-2, ,-47, ,
0, ,-49, ,
-1, ,-47, ,
-9, ,-47, ,
1, ,-47, ,
1, ,-47, ,
-4, ,-46, ,
3, ,-47, ,
-4, ,-47, ,
-2, ,-47, ,
1, ,-47, ,
1, ,-47, ,
-1, ,-47, ,
3, ,-49, ,
1, ,-47, ,
1, ,-47, ,
1, ,-47, ,
5, ,-47, ,
5, ,-46, ,
3, ,-47, ,
4, ,-47, ,
4, ,-47, ,
4, ,-47, ,
8, ,-47, ,
4, ,-47, ,
6, ,-49, ,
11, ,-47, ,
8, ,-47, ,
5, ,-47, ,
6, ,-47, ,
6, ,-46, ,
5, ,-47, ,
3, ,-47, ,
3, ,-47, ,
9, ,-47, ,
5, ,-47, ,
0, ,-47, ,
3, ,-49, ,
1, ,-47, ,
-1, ,-47, ,
-4, ,-47, ,
1, ,-47, ,
1, ,-46, ,
1, ,-47, ,
3, ,-47, ,
1, ,-47, ,
0, ,-47, ,
3, ,-47, ,
-5, ,-47, ,
-4, ,-49, ,
-1, ,-47, ,
-5, ,-47, ,
-5, ,-47, ,
-1, ,-47, ,
0, ,-46, ,
1, ,-47, ,
-1, ,-47, ,
0, ,-47, ,
3, ,-47, ,
3, ,-47, ,
4, ,-46, ,
4, ,-49, ,
9, ,-47, ,
6, ,-46, ,
0, ,-47, ,
1, ,-47, ,
-1, ,-46, ,
-2, ,-47, ,
-4, ,-47, ,
0, ,-47, ,
1, ,-47, ,
3, ,-47, ,
-2, ,-47, ,
0, ,-49, ,
3, ,-47, ,
-1, ,-47, ,
-5, ,-47, ,
-1, ,-47, ,
-1, ,-47, ,
0, ,-47, ,
1, ,-47, ,
-1, ,-47, ,
3, ,-47, ,
1, ,-47, ,
-2, ,-47, ,
0, ,-49, ,
-1, ,-47, ,
-2, ,-47, ,
-4, ,-47, ,
1, ,-47, ,
3, ,-46, ,
1, ,-47, ,
1, ,-47, ,
1, ,-47, ,
0, ,-47, ,
0, ,-47, ,
-2, ,-46, ,
4, ,-49, ,
8, ,-47, ,
3, ,-47, ,
-1, ,-47, ,
4, ,-47, ,
3, ,-47, ,
3, ,-47, ,
1, ,-47, ,
4, ,-47, ,
4, ,-47, ,
4, ,-47, ,
0, ,-46, ,
4, ,-49, ,
5, ,-47, ,
-1, ,-47, ,
-5, ,-47, ,
1, ,-47, ,
0, ,-47, ,
-2, ,-47, ,
-4, ,-47, ,
-1, ,-47, ,
0, ,-47, ,
0, ,-47, ,
0, ,-47, ,
0, ,-49, ,
-2, ,-47, ,
-5, ,-46, ,
-5, ,-47, ,
-1, ,-47, ,
-1, ,-46, ,
0, ,-47, ,
-2, ,-47, ,
0, ,-47, ,
3, ,-47, ,
3, ,-47, ,
0, ,-46, ,
1, ,-42, ,
3, ,-33, ,
9, ,-22, ,
5, ,-13, ,
10, ,-5, ,
10, ,2, ,
5, ,7, ,
4, ,14, ,
4, ,18, ,
4, ,21, ,
6, ,24, ,
3, ,27, ,
6, ,31, ,
8, ,32, ,
1, ,34, ,
-2, ,36, ,
-1, ,37, ,
-1, ,38, ,
-2, ,39, ,
-5, ,41, ,
-6, ,41, ,
-2, ,42, ,
-2, ,42, ,
-7, ,43, ,
-4, ,43, ,
-2, ,43, ,
-1, ,44, ,
-2, ,44, ,
3, ,44, ,
1, ,43, ,
-1, ,45, ,
0, ,45, ,
0, ,45, ,
1, ,45, ,
0, ,45, ,
-5, ,44, ,
-1, ,46, ,
3, ,45, ,
0, ,45, ,
-1, ,46, ,
1, ,45, ,
1, ,44, ,
5, ,46, ,
4, ,45, ,
5, ,45, ,
5, ,45, ,
3, ,45, ,
-2, ,44, ,
3, ,46, ,
4, ,45, ,
3, ,45, ,
4, ,46, ,
8, ,45, ,
4, ,44, ,
5, ,46, ,
0, ,45, ,
-1, ,45, ,
-1, ,45, ,
-1, ,45, ,
-5, ,45, ,
1, ,46, ,
5, ,45, ,
5, ,45, ,
4, ,45, ,
8, ,45, ,
4, ,44, ,
4, ,45, ,
3, ,45, ,
4, ,45, ,
3, ,45, ,
5, ,45, ,
1, ,44, ,
4, ,45, ,
3, ,44, ,
3, ,45, ,
-1, ,45, ,
5, ,45, ,
5, ,44, ,
5, ,45, ,
4, ,45, ,
3, ,45, ,
0, ,45, ,
1, ,45, ,
-4, ,44, ,
0, ,45, ,
3, ,44, ,
0, ,45, ,
0, ,45, ,
4, ,45, ,
1, ,44, ,
1, ,45, ,
-2, ,45, ,
-1, ,44, ,
0, ,45, ,
-1, ,45, ,
-7, ,44, ,
-1, ,45, ,
0, ,44, ,
-1, ,45, ,
-1, ,45, ,
3, ,45, ,
1, ,44, ,
0, ,45, ,
0, ,45, ,
3, ,44, ,
3, ,45, ,
4, ,44, ,
-1, ,45, ,
3, ,45, ,
8, ,44, ,
4, ,45, ,
0, ,45, ,
1, ,45, ,
0, ,44, ,
3, ,45, ,
4, ,45, ,
4, ,45, ,
6, ,45, ,
6, ,45, ,
1, ,44, ,
4, ,45, ,
4, ,44, ,
1, ,45, ,
-1, ,45, ,
5, ,45, ,
5, ,44, ,
3, ,45, ,
4, ,45, ,
1, ,44, ,
4, ,45, ,
3, ,45, ,
-4, ,44, ,
0, ,45, ,
3, ,44, ,
4, ,45, ,
1, ,45, ,
5, ,45, ,
4, ,44, ,
3, ,45, ,
1, ,45, ,
0, ,45, ,
0, ,45, ,
3, ,45, ,
0, ,44, ,
4, ,45, ,
5, ,44, ,
5, ,45, ,
3, ,45, ,
4, ,45, ,
5, ,43, ,
0, ,45, ,
5, ,45, ,
4, ,45, ,
4, ,45, ,
6, ,45, ,
-1, ,44, ,
-1, ,45, ,
5, ,45, ,
1, ,45, ,
-5, ,45, ,
1, ,45, ,
-1, ,44, ,
3, ,45, ,
1, ,44, ,
4, ,44, ,
5, ,45, ,
3, ,44, ,
-4, ,44, ,
-2, ,45, ,
-1, ,45, ,
-1, ,45, ,
-6, ,45, ,
3, ,45, ,
5, ,44, ,
3, ,45, ,
-2, ,45, ,
-4, ,44, ,
-1, ,45, ,
1, ,45, ,
-2, ,44, ,
0, ,45, ,
-1, ,44, ,
0, ,45, ,
-4, ,45, ,
1, ,45, ,
-1, ,44, ,
1, ,45, ,
4, ,45, ,
3, ,44, ,
8, ,45, ,
9, ,45, ,
3, ,44, ,
5, ,45, ,
1, ,44, ,
1, ,45, ,
-5, ,45, ,
1, ,45, ,
3, ,44, ,
0, ,45, ,
-1, ,45, ,
3, ,45, ,
1, ,45, ,
4, ,45, ,
-2, ,44, ,
-1, ,45, ,
1, ,44, ,
-2, ,44, ,
-2, ,45, ,
0, ,45, ,
1, ,44, ,
-1, ,45, ,
-4, ,45, ,
3, ,44, ,
3, ,45, ,
3, ,45, ,
-2, ,45, ,
0, ,45, ,
0, ,44, ,
-4, ,45, ,
-2, ,45, ,
1, ,45, ,
4, ,44, ,
3, ,45, ,
-2, ,45, ,
1, ,44, ,
0, ,44, ,
-2, ,44, ,
-5, ,44, ,
0, ,45, ,
3, ,44, ,
-2, ,45, ,
-6, ,45, ,
0, ,45, ,
-6, ,44, ,
-4, ,45, ,
-5, ,44, ,
-2, ,44, ,
1, ,45, ,
0, ,45, ,
-2, ,44, ,
0, ,45, ,
-1, ,44, ,
-1, ,44, ,
-9, ,45, ,
-1, ,45, ,
-5, ,44, ,
-4, ,45, ,
-4, ,45, ,
-2, ,44, ,
-1, ,45, ,
3, ,44, ,
-2, ,44, ,
1, ,45, ,
1, ,44, ,
0, ,44, ,
-5, ,45, ,
1, ,44, ,
-2, ,44, ,
-1, ,45, ,
-2, ,45, ,
-2, ,44, ,
-1, ,45, ,
1, ,44, ,
-4, ,44, ,
1, ,45, ,
3, ,44, ,
4, ,45, ,
3, ,45, ,
6, ,45, ,
5, ,44, ,
4, ,45, ,
-1, ,45, ,
3, ,44, ,
3, ,45, ,
5, ,45, ,
1, ,44, ,
4, ,45, ,
5, ,44, ,
-1, ,45, ,
-4, ,45, ,
1, ,45, ,
0, ,43, ,
3, ,45, ,
0, ,45, ,
3, ,44, ,
3, ,45, ,
5, ,45, ,
4, ,44, ,
6, ,45, ,
4, ,44, ,
4, ,44, ,
-2, ,45, ,
1, ,45, ,
1, ,43, ,
0, ,45, ,
-1, ,45, ,
-1, ,44, ,
0, ,45, ,
0, ,44, ,
-4, ,44, ,
0, ,45, ,
0, ,44, ,
1, ,45, ,
0, ,45, ,
6, ,45, ,
1, ,44, ,
1, ,45, ,
0, ,45, ,
-2, ,44, ,
0, ,45, ,
-1, ,45, ,
-6, ,44, ,
0, ,45, ,
3, ,44, ,
1, ,45, ,
1, ,45, ,
1, ,44, ,
1, ,44, ,
-1, ,45, ,
-4, ,44, ,
-2, ,45, ,
-1, ,45, ,
1, ,45, ,
-4, ,44, ,
8, ,45, ,
3, ,44, ,
1, ,44, ,
4, ,45, ,
1, ,45, ,
3, ,44, ,
1, ,45, ,
-1, ,45, ,
3, ,45, ,
3, ,45, ,
3, ,44, ,
-4, ,44, ,
0, ,45, ,
1, ,44, ,
-1, ,45, ,
0, ,45, ,
4, ,45, ,
8, ,44, ,
6, ,45, ,
4, ,45, ,
4, ,44, ,
3, ,45, ,
1, ,45, ,
-1, ,44, ,
3, ,45, ,
8, ,44, ,
5, ,44, ,
1, ,45, ,
9, ,45, ,
5, ,44, ,
9, ,45, ,
1, ,45, ,
3, ,44, ,
6, ,45, ,
4, ,45, ,
4, ,44, ,
5, ,45, ,
5, ,44, ,
5, ,45, ,
-1, ,45, ,
3, ,45, ,
5, ,44, ,
3, ,45, ,
1, ,45, ,
4, ,44, ,
4, ,45, ,
4, ,44, ,
1, ,44, ,
5, ,45, ,
4, ,44, ,
3, ,44, ,
1, ,45, ,
4, ,45, ,
4, ,44, ,
4, ,45, ,
4, ,45, ,
3, ,44, ,
4, ,45, ,
5, ,45, ,
-1, ,44, ,
3, ,45, ,
5, ,44, ,
5, ,45, ,
4, ,45, ,
6, ,45, ,
6, ,43, ,
4, ,45, ,
4, ,45, ,
3, ,44, ,
-1, ,45, ,
1, ,45, ,
-1, ,44, ,
0, ,45, ,
4, ,44, ,
1, ,44, ,
0, ,45, ,
3, ,44, ,
1, ,43, ,
4, ,45, ,
1, ,44, ,
4, ,44, ,
5, ,45, ,
4, ,45, ,
3, ,44, ,
5, ,45, ,
5, ,44, ,
3, ,45, ,
-2, ,45, ,
4, ,45, ,
3, ,43, ,
1, ,45, ,
0, ,44, ,
4, ,44, ,
4, ,45, ,
5, ,45, ,
1, ,44, ,
4, ,45, ,
4, ,44, ,
1, ,45, ,
-2, ,45, ,
4, ,45, ,
1, ,44, ,
5, ,45, ,
6, ,45, ,
5, ,44, ,
8, ,45, ,
4, ,45, ,
-1, ,44, ,
1, ,45, ,
0, ,44, ,
1, ,45, ,
-2, ,45, ,
4, ,45, ,
4, ,44, ,
1, ,45, ,
0, ,45, ,
-2, ,44, ,
-1, ,45, ,
1, ,45, ,
-4, ,44, ,
4, ,45, ,
6, ,44, ,
1, ,44, ,
-1, ,45, ,
1, ,45, ,
-1, ,44, ,
1, ,45, ,
-2, ,45, ,
3, ,45, ,
3, ,45, ,
4, ,44, ,
-1, ,44, ,
0, ,45, ,
1, ,44, ,
-1, ,45, ,
-5, ,45, ,
1, ,45, ,
3, ,43, ,
4, ,45, ,
1, ,45, ,
1, ,45, ,
1, ,45, ,
4, ,45, ,
-2, ,44, ,
-1, ,45, ,
3, ,45, ,
-1, ,44, ,
-5, ,45, ,
0, ,45, ,
-4, ,43, ,
-1, ,45, ,
-4, ,44, ,
-1, ,44, ,
1, ,45, ,
1, ,45, ,
-4, ,44, ,
-1, ,45, ,
-4, ,44, ,
-1, ,44, ,
-5, ,45, ,
0, ,45, ,
0, ,44, ,
-1, ,45, ,
-4, ,44, ,
-1, ,44, ,
1, ,45, ,
4, ,45, ,
-2, ,44, ,
5, ,45, ,
6, ,44, ,
3, ,44, ,
-1, ,45, ,
0, ,45, ,
0, ,44, ,
-1, ,45, ,
-1, ,45, ,
0, ,44, ,
3, ,45, ,
5, ,44, ,
-1, ,44, ,
-1, ,45, ,
3, ,44, ,
1, ,44, ,
-1, ,45, ,
1, ,45, ,
1, ,44, ,
3, ,45, ,
0, ,44, ,
1, ,44, ,
1, ,45, ,
5, ,45, ,
-1, ,44, ,
0, ,45, ,
0, ,45, ,
-2, ,45, ,
-4, ,45, ,
0, ,45, ,
-2, ,44, ,
0, ,45, ,
-4, ,45, ,
-2, ,44, ,
-1, ,45, ,
-1, ,45, ,
-5, ,44, ,
-1, ,45, ,
1, ,44, ,
0, ,44, ,
-4, ,45, ,
0, ,45, ,
-4, ,44, ,
-5, ,45, ,
-6, ,44, ,
-5, ,45, ,
-4, ,45, ,
-1, ,44, ,
-5, ,44, ,
0, ,45, ,
0, ,44, ,
-1, ,44, ,
-7, ,45, ,
-1, ,45, ,
-1, ,44, ,
-1, ,45, ,
-2, ,45, ,
-1, ,45, ,
3, ,45, ,
0, ,44, ,
-5, ,44, ,
-1, ,45, ,
-1, ,44, ,
-2, ,45, ,
-6, ,45, ,
-2, ,45, ,
-4, ,44, ,
-5, ,45, ,
-4, ,45, ,
-2, ,44, ,
-5, ,45, ,
1, ,45, ,
-5, ,44, ,
1, ,45, ,
6, ,44, ,
4, ,44, ,
-1, ,45, ,
6, ,45, ,
1, ,44, ,
3, ,45, ,
-2, ,45, ,
-1, ,44, ,
0, ,45, ,
1, ,45, ,
-4, ,44, ,
0, ,45, ,
3, ,44, ,
1, ,45, ,
0, ,45, ,
4, ,45, ,
3, ,44, ,
0, ,45, ,
-2, ,45, ,
0, ,45, ,
-1, ,45, ,
1, ,45, ,
-2, ,44, ,
0, ,45, ,
4, ,44, ,
-2, ,45, ,
-1, ,45, ,
3, ,44, ,
3, ,43, ,
6, ,45, ,
4, ,45, ,
3, ,45, ,
4, ,45, ,
3, ,44, ,
-4, ,44, ,
0, ,45, ,
1, ,44, ,
1, ,44, ,
-2, ,45, ,
5, ,45, ,
4, ,44, ,
1, ,45, ,
-1, ,45, ,
0, ,45, ,
1, ,45, ,
3, ,45, ,
-4, ,44, ,
3, ,45, ,
6, ,44, ,
4, ,45, ,
3, ,45, ,
0, ,45, ,
-1, ,43, ,
0, ,45, ,
-2, ,45, ,
-4, ,44, ,
-2, ,45, ,
3, ,45, ,
-2, ,44, ,
3, ,45, ,
3, ,44, ,
0, ,45, ,
-4, ,45, ,
4, ,45, ,
5, ,44, ,
4, ,45, ,
4, ,45, ,
4, ,45, ,
3, ,45, ,
6, ,44, ,
-4, ,44, ,
-4, ,45, ,
1, ,44, ,
0, ,45, ,
-1, ,45, ,
6, ,45, ,
4, ,44, ,
6, ,45, ,
4, ,45, ,
4, ,44, ,
5, ,45, ,
3, ,45, ,
0, ,44, ,
5, ,45, ,
6, ,44, ,
4, ,44, ,
3, ,45, ,
6, ,45, ,
6, ,43, ,
5, ,45, ,
3, ,45, ,
1, ,44, ,
1, ,45, ,
5, ,45, ,
1, ,44, ,
4, ,45, ,
6, ,44, ,
1, ,45, ,
1, ,45, ,
4, ,45, ,
3, ,44, ,
3, ,45, ,
5, ,45, ,
5, ,45, ,
6, ,45, ,
6, ,45, ,
0, ,44, ,
4, ,45, ,
5, ,45, ,
0, ,45, ,
1, ,45, ,
1, ,45, ,
6, ,44, ,
4, ,45, ,
4, ,45, ,
3, ,44, ,
3, ,45, ,
4, ,44, ,
1, ,44, ,
5, ,45, ,
5, ,45, ,
3, ,45, ,
1, ,45, ,
4, ,45, ,
3, ,44, ,
3, ,45, ,
0, ,45, ,
0, ,45, ,
4, ,45, ,
0, ,45, ,
-5, ,44, ,
0, ,45, ,
1, ,44, ,
3, ,45, ,
1, ,45, ,
4, ,45, ,
4, ,44, ,
6, ,45, ,
5, ,44, ,
5, ,44, ,
5, ,45, ,
3, ,45, ,
-1, ,44, ,
5, ,45, ,
8, ,44, ,
3, ,45, ,
-6, ,45, ,
3, ,45, ,
1, ,44, ,
8, ,45, ,
6, ,44, ,
8, ,44, ,
9, ,45, ,
5, ,45, ,
1, ,44, ,
1, ,45, ,
1, ,44, ,
-2, ,44, ,
-2, ,45, ,
4, ,44, ,
6, ,44, ,
3, ,45, ,
3, ,45, ,
0, ,44, ,
-1, ,45, ,
3, ,44, ,
1, ,44, ,
1, ,45, ,
9, ,44, ,
3, ,45, ,
-1, ,45, ,
3, ,45, ,
4, ,44, ,
3, ,45, ,
4, ,45, ,
4, ,44, ,
5, ,45, ,
4, ,45, ,
3, ,44, ,
4, ,45, ,
5, ,39, ,
-1, ,31, ,
-6, ,21, ,
-7, ,11, ,
-5, ,3, ,
-6, ,-4, ,
-5, ,-11, ,
-2, ,-16, ,
-2, ,-20, ,
0, ,-23, ,
-7, ,-27, ,
-5, ,-31, ,
0, ,-33, ,
-4, ,-35, ,
-5, ,-37, ,
-2, ,-39, ,
-2, ,-39, ,
-1, ,-41, ,
-5, ,-42, ,
-1, ,-42, ,
0, ,-43, ,
-4, ,-44, ,
-6, ,-44, ,
-4, ,-45, ,
-2, ,-46, ,
-4, ,-45, ,
-5, ,-46, ,
1, ,-46, ,
0, ,-46, ,
-1, ,-47, ,
-4, ,-47, ,
-4, ,-47, ,
-5, ,-47, ,
4, ,-47, ,
-1, ,-47, ,
-2, ,-49, ,
3, ,-47, ,
-1, ,-47, ,
-4, ,-47, ,
3, ,-49, ,
-2, ,-47, ,
0, ,-49, ,
0, ,-49, ,
0, ,-47, ,
8, ,-47, ,
4, ,-49, ,
-4, ,-47, ,
3, ,-50, ,
3, ,-47, ,
0, ,-47, ,
-5, ,-49, ,
-1, ,-49, ,
0, ,-47, ,
-2, ,-49, ,
-4, ,-49, ,
0, ,-47, ,
1, ,-49, ,
3, ,-49, ,
-4, ,-47, ,
3, ,-49, ,
4, ,-49, ,
0, ,-47, ,
-2, ,-49, ,
1, ,-49, ,
1, ,-47, ,
-5, ,-49, ,
-5, ,-49, ,
-7, ,-47, ,
-9, ,-49, ,
-9, ,-47, ,
-12, ,-47, ,
-9, ,-49, ,
-5, ,-47, ,
-6, ,-47, ,
-9, ,-47, ,
-2, ,-49, ,
-2, ,-46, ,
3, ,-47, ,
4, ,-47, ,
9, ,-47, ,
10, ,-47, ,
11, ,-47, ,
6, ,-47, ,
5, ,-47, ,
4, ,-47, ,
-5, ,-47, ,
-11, ,-47, ,
-5, ,-47, ,
-10, ,-47, ,
-6, ,-49, ,
-6, ,-47, ,
-1, ,-47, ,
1, ,-47, ,
-1, ,-47, ,
-4, ,-47, ,
-4, ,-49, ,
-4, ,-47, ,
-6, ,-47, ,
-10, ,-47, ,
-5, ,-47, ,
-5, ,-46, ,
-4, ,-47, ,
-5, ,-47, ,
-2, ,-47, ,
-1, ,-47, ,
4, ,-47, ,
-6, ,-47, ,
3, ,-49, ,
5, ,-47, ,
-1, ,-47, ,
-2, ,-47, ,
0, ,-47, ,
-4, ,-46, ,
-7, ,-47, ,
-7, ,-47, ,
-4, ,-47, ,
-1, ,-47, ,
-1, ,-47, ,
-2, ,-47, ,
5, ,-49, ,
5, ,-47, ,
5, ,-47, ,
-1, ,-47, ,
1, ,-47, ,
0, ,-46, ,
-5, ,-47, ,
-6, ,-47, ,
0, ,-47, ,
-2, ,-47, ,
-2, ,-47, ,
-4, ,-47, ,
0, ,-49, ,
1, ,-47, ,
1, ,-47, ,
-4, ,-47, ,
1, ,-47, ,
-4, ,-46, ,
-2, ,-47, ,
-4, ,-47, ,
-1, ,-47, ,
0, ,-47, ,
-1, ,-47, ,
-4, ,-47, ,
0, ,-49, ,
1, ,-47, ,
1, ,-47, ,
-1, ,-47, ,
5, ,-47, ,
5, ,-46, ,
5, ,-47, ,
3, ,-47, ,
0, ,-47, ,
-1, ,-47, ,
-1, ,-47, ,
-7, ,-47, ,
-1, ,-49, ,
-1, ,-47, ,
0, ,-47, ,
0, ,-47, ,
4, ,-47, ,
4, ,-47, ,
1, ,-47, ,
1, ,-47, ,
-1, ,-47, ,
1, ,-47, ,
-1, ,-47, ,
-4, ,-47, ,
1, ,-49, ,
3, ,-47, ,
0, ,-46, ,
-1, ,-47, ,
4, ,-47, ,
5, ,-46, ,
1, ,-47, ,
3, ,-47, ,
3, ,-47, ,
4, ,-47, ,
4, ,-47, ,
1, ,-47, ,
4, ,-49, ,
5, ,-47, ,
1, ,-47, ,
0, ,-47, ,
4, ,-47, ,
5, ,-46, ,
8, ,-47, ,
3, ,-47, ,
4, ,-47, ,
5, ,-47, ,
1, ,-47, ,
-4, ,-47, ,
-1, ,-49, ,
3, ,-47, ,
-2, ,-47, ,
0, ,-47, ,
6, ,-47, ,
6, ,-46, ,
6, ,-47, ,
3, ,-47, ,
4, ,-47, ,
4, ,-47, ,
3, ,-47, ,
-1, ,-46, ,
1, ,-49, ,
5, ,-47, ,
3, ,-47, ,
1, ,-47, ,
8, ,-49, ,
4, ,-46, ,
5, ,-47, ,
4, ,-47, ,
5, ,-47, ,
6, ,-47, ,
4, ,-47, ,
-1, ,-46, ,
3, ,-47, ,
1, ,-47, ,
-1, ,-47, ,
-4, ,-47, ,
1, ,-47, ,
6, ,-46, ,
5, ,-47, ,
6, ,-47, ,
9, ,-47, ,
13, ,-47, ,
13, ,-47, ,
10, ,-46, ,
11, ,-49, ,
10, ,-47, ,
8, ,-47, ,
5, ,-47, ,
6, ,-47, ,
4, ,-47, ,
4, ,-47, ,
3, ,-47, ,
3, ,-47, ,
3, ,-47, ,
0, ,-47, ,
-5, ,-46, ,
0, ,-49, ,
0, ,-47, ,
-2, ,-46, ,
-4, ,-47, ,
-1, ,-47, ,
1, ,-46, ,
-2, ,-47, ,
-2, ,-47, ,
-2, ,-47, ,
-4, ,-47, ,
-1, ,-47, ,
-6, ,-47, ,
-2, ,-47, ,
1, ,-47, ,
-2, ,-46, ,
1, ,-47, ,
4, ,-47, ,
1, ,-46, ,
5, ,-47, ,
1, ,-47, ,
4, ,-47, ,
5, ,-47, ,
6, ,-47, ,
4, ,-47, ,
8, ,-49, ,
8, ,-47, ,
6, ,-46, ,
1, ,-47, ,
8, ,-47, ,
6, ,-46, ,
4, ,-47, ,
4, ,-47, ,
1, ,-47, ,
1, ,-47, ,
1, ,-47, ,
-5, ,-47, ,
-2, ,-47, ,
-1, ,-47, ,
-2, ,-47, ,
-2, ,-47, ,
4, ,-49, ,
6, ,-46, ,
9, ,-49, ,
10, ,-47, ,
10, ,-47, ,
13, ,-47, ,
11, ,-47, ,
5, ,-46, ,
8, ,-49, ,
5, ,-47, ,
4, ,-47, ,
3, ,-47, ,
6, ,-47, ,
6, ,-46, ,
3, ,-47, ,
1, ,-47, ,
5, ,-47, ,
6, ,-47, ,
9, ,-47, ,
4, ,-46, ,
6, ,-47, ,
8, ,-47, ,
-2, ,-47, ,
-5, ,-47, ,
-1, ,-47, ,
0, ,-46, ,
-2, ,-47, ,
-6, ,-47, ,
0, ,-47, ,
4, ,-47, ,
4, ,-47, ,
-1, ,-47, ,
1, ,-49, ,
3, ,-47, ,
0, ,-46, ,
-4, ,-47, ,
0, ,-47, ,
0, ,-46, ,
-1, ,-47, ,
0, ,-47, ,
1, ,-47, ,
3, ,-47, ,
4, ,-47, ,
-1, ,-46, ,
4, ,-47, ,
6, ,-47, ,
3, ,-47, ,
1, ,-47, ,
8, ,-47, ,
6, ,-46, ,
6, ,-47, ,
3, ,-47, ,
4, ,-47, ,
5, ,-47, ,
6, ,-47, ,
4, ,-46, ,
5, ,-47, ,
4, ,-47, ,
4, ,-47, ,
1, ,-47, ,
5, ,-47, ,
4, ,-46, ,
0, ,-49, ,
0, ,-47, ,
-2, ,-47, ,
0, ,-47, ,
1, ,-47, ,
-1, ,-46, ,
1, ,-47, ,
4, ,-47, ,
0, ,-47, ,
-5, ,-47, ,
-1, ,-47, ,
-5, ,-46, ,
-1, ,-47, ,
-2, ,-47, ,
-1, ,-47, ,
1, ,-47, ,
5, ,-47, ,
-1, ,-47, ,
1, ,-49, ,
1, ,-47, ,
0, ,-46, ,
3, ,-47, ,
5, ,-47, ,
5, ,-46, ,
3, ,-47, ,
0, ,-47, ,
0, ,-47, ,
0, ,-47, ,
-1, ,-47, ,
-7, ,-47, ,
-4, ,-47, ,
0, ,-47, ,
-4, ,-47, ,
-6, ,-47, ,
-4, ,-47, ,
-6, ,-46, ,
-9, ,-47, ,
-12, ,-47, ,
-12, ,-47, ,
-11, ,-47, ,
-10, ,-47, ,
-14, ,-47, ,
-6, ,-49, ,
-4, ,-47, ,
-6, ,-47, ,
-7, ,-47, ,
0, ,-47, ,
-4, ,-46, ,
-5, ,-49, ,
-9, ,-47, ,
-4, ,-47, ,
-2, ,-47, ,
-2, ,-47, ,
-6, ,-47, ,
-2, ,-49, ,
-2, ,-47, ,
-4, ,-47, ,
-6, ,-47, ,
-1, ,-47, ,
-1, ,-46, ,
0, ,-47, ,
0, ,-47, ,
0, ,-47, ,
1, ,-47, ,
-2, ,-47, ,
-9, ,-46, ,
-1, ,-49, ,
-4, ,-47, ,
-2, ,-47, ,
-5, ,-47, ,
-2, ,-47, ,
0, ,-46, ,
-4, ,-47, ,
-4, ,-47, ,
-7, ,-47, ,
-9, ,-47, ,
-5, ,-47, ,
-11, ,-47, ,
-5, ,-49, ,
1, ,-47, ,
-4, ,-47, ,
-5, ,-47, ,
-2, ,-47, ,
-5, ,-47, ,
-4, ,-47, ,
-5, ,-47, ,
-2, ,-47, ,
0, ,-47, ,
1, ,-47, ,
1, ,-47, ,
3, ,-47, ,
6, ,-47, ,
5, ,-46, ,
3, ,-47, ,
11, ,-47, ,
9, ,-46, ,
8, ,-47, ,
5, ,-47, ,
8, ,-47, ,
6, ,-47, ,
5, ,-47, ,
1, ,-47, ,
4, ,-49, ,
5, ,-47, ,
0, ,-47, ,
0, ,-47, ,
3, ,-47, ,
3, ,-46, ,
1, ,-47, ,
1, ,-47, ,
-1, ,-47, ,
-2, ,-47, ,
-5, ,-47, ,
-11, ,-46, ,
-6, ,-49, ,
-4, ,-47, ,
-4, ,-47, ,
-6, ,-47, ,
3, ,-47, ,
3, ,-46, ,
-2, ,-47, ,
-4, ,-47, ,
-1, ,-47, ,
0, ,-47, ,
3, ,-47, ,
0, ,-47, ,
5, ,-47, ,
10, ,-47, ,
